<?xml version="1.0" encoding="UTF-8" standalone="no"?>
<!DOCTYPE svg PUBLIC "-//W3C//DTD SVG 1.1//EN"
 "http://www.w3.org/Graphics/SVG/1.1/DTD/svg11.dtd">
<!-- Generated by graphviz version 2.43.0 (0)
 -->
<!-- Title: FTensor::Dg_times_Tensor2_1_0&lt; A, B, T, U, Dim01, Dim2, Dim3, i, j, k, l &gt; Pages: 1 -->
<svg width="718pt" height="111pt"
 viewBox="0.00 0.00 718.00 110.50" xmlns="http://www.w3.org/2000/svg" xmlns:xlink="http://www.w3.org/1999/xlink">
<g id="graph0" class="graph" transform="scale(1 1) rotate(0) translate(4 106.5)">
<title>FTensor::Dg_times_Tensor2_1_0&lt; A, B, T, U, Dim01, Dim2, Dim3, i, j, k, l &gt;</title>
<polygon fill="white" stroke="transparent" points="-4,4 -4,-106.5 714,-106.5 714,4 -4,4"/>
<!-- Node1 -->
<g id="node1" class="node">
<title>Node1</title>
<g id="a_node1"><a xlink:title=" ">
<polygon fill="#bfbfbf" stroke="black" points="561,-12 561,-53 710,-53 710,-12 561,-12"/>
<text text-anchor="start" x="569" y="-41" font-family="Helvetica,sans-Serif" font-size="10.00">FTensor::Dg_times_Tensor2</text>
<text text-anchor="start" x="569" y="-30" font-family="Helvetica,sans-Serif" font-size="10.00">_1_0&lt; A, B, T, U, Dim01,</text>
<text text-anchor="middle" x="635.5" y="-19" font-family="Helvetica,sans-Serif" font-size="10.00"> Dim2, Dim3, i, j, k, l &gt;</text>
</a>
</g>
</g>
<!-- Node2 -->
<g id="node2" class="node">
<title>Node2</title>
<g id="a_node2"><a xlink:href="classFTensor_1_1Tensor2__Expr.html" target="_top" xlink:title=" ">
<polygon fill="white" stroke="black" points="372,-50 372,-91 496,-91 496,-50 372,-50"/>
<text text-anchor="start" x="380" y="-79" font-family="Helvetica,sans-Serif" font-size="10.00">FTensor::Tensor2_Expr</text>
<text text-anchor="start" x="380" y="-68" font-family="Helvetica,sans-Serif" font-size="10.00">&lt; B, U, Dim01, Dim3,</text>
<text text-anchor="middle" x="434" y="-57" font-family="Helvetica,sans-Serif" font-size="10.00"> j, l &gt;</text>
</a>
</g>
</g>
<!-- Node2&#45;&gt;Node1 -->
<g id="edge1" class="edge">
<title>Node2&#45;&gt;Node1</title>
<path fill="none" stroke="#9a32cd" stroke-dasharray="5,2" d="M506.43,-56.89C524.08,-53.53 543.01,-49.93 560.76,-46.55"/>
<polygon fill="#9a32cd" stroke="#9a32cd" points="505.38,-53.53 496.21,-58.84 506.69,-60.41 505.38,-53.53"/>
<text text-anchor="middle" x="529.5" y="-57.5" font-family="Helvetica,sans-Serif" font-size="10.00"> iterB</text>
</g>
<!-- Node3 -->
<g id="node3" class="node">
<title>Node3</title>
<g id="a_node3"><a xlink:title=" ">
<polygon fill="white" stroke="#bfbfbf" points="140.5,-83 140.5,-102 169.5,-102 169.5,-83 140.5,-83"/>
<text text-anchor="middle" x="155" y="-90" font-family="Helvetica,sans-Serif" font-size="10.00">B</text>
</a>
</g>
</g>
<!-- Node3&#45;&gt;Node2 -->
<g id="edge2" class="edge">
<title>Node3&#45;&gt;Node2</title>
<path fill="none" stroke="#9a32cd" stroke-dasharray="5,2" d="M179.9,-90.6C222.24,-87.24 311.61,-80.14 372,-75.34"/>
<polygon fill="#9a32cd" stroke="#9a32cd" points="179.43,-87.13 169.74,-91.41 179.98,-94.11 179.43,-87.13"/>
<text text-anchor="middle" x="297.5" y="-87.5" font-family="Helvetica,sans-Serif" font-size="10.00"> iter</text>
</g>
<!-- Node4 -->
<g id="node4" class="node">
<title>Node4</title>
<g id="a_node4"><a xlink:href="classFTensor_1_1Tensor2__Expr.html" target="_top" xlink:title=" ">
<polygon fill="white" stroke="black" points="85,-32.5 85,-62.5 225,-62.5 225,-32.5 85,-32.5"/>
<text text-anchor="start" x="93" y="-50.5" font-family="Helvetica,sans-Serif" font-size="10.00">FTensor::Tensor2_Expr</text>
<text text-anchor="middle" x="155" y="-39.5" font-family="Helvetica,sans-Serif" font-size="10.00">&lt; A, T, Dim0, Dim1, i, j &gt;</text>
</a>
</g>
</g>
<!-- Node4&#45;&gt;Node2 -->
<g id="edge3" class="edge">
<title>Node4&#45;&gt;Node2</title>
<path fill="none" stroke="orange" stroke-dasharray="5,2" d="M235.58,-44.64C271.31,-44.4 313.91,-45.57 352,-50.5 358.46,-51.34 365.16,-52.5 371.8,-53.84"/>
<polygon fill="orange" stroke="orange" points="235.17,-41.15 225.21,-44.75 235.25,-48.15 235.17,-41.15"/>
<text text-anchor="start" x="243" y="-64.5" font-family="Helvetica,sans-Serif" font-size="10.00"> &lt; B, U, Dim01, Dim3,</text>
<text text-anchor="middle" x="297.5" y="-53.5" font-family="Helvetica,sans-Serif" font-size="10.00"> j, l &gt;</text>
</g>
<!-- Node5 -->
<g id="node5" class="node">
<title>Node5</title>
<g id="a_node5"><a xlink:title=" ">
<polygon fill="white" stroke="#bfbfbf" points="0,-38 0,-57 29,-57 29,-38 0,-38"/>
<text text-anchor="middle" x="14.5" y="-45" font-family="Helvetica,sans-Serif" font-size="10.00">A</text>
</a>
</g>
</g>
<!-- Node5&#45;&gt;Node4 -->
<g id="edge4" class="edge">
<title>Node5&#45;&gt;Node4</title>
<path fill="none" stroke="#9a32cd" stroke-dasharray="5,2" d="M39.19,-47.5C51.95,-47.5 68.41,-47.5 84.87,-47.5"/>
<polygon fill="#9a32cd" stroke="#9a32cd" points="39.03,-44 29.03,-47.5 39.03,-51 39.03,-44"/>
<text text-anchor="middle" x="57" y="-50.5" font-family="Helvetica,sans-Serif" font-size="10.00"> iter</text>
</g>
<!-- Node6 -->
<g id="node6" class="node">
<title>Node6</title>
<g id="a_node6"><a xlink:title=" ">
<polygon fill="white" stroke="#bfbfbf" points="370,-0.5 370,-30.5 498,-30.5 498,-0.5 370,-0.5"/>
<text text-anchor="start" x="378" y="-18.5" font-family="Helvetica,sans-Serif" font-size="10.00">Dg_Expr&lt; A, T, Dim01,</text>
<text text-anchor="middle" x="434" y="-7.5" font-family="Helvetica,sans-Serif" font-size="10.00"> Dim2, i, j, k &gt;</text>
</a>
</g>
</g>
<!-- Node6&#45;&gt;Node1 -->
<g id="edge5" class="edge">
<title>Node6&#45;&gt;Node1</title>
<path fill="none" stroke="#9a32cd" stroke-dasharray="5,2" d="M508.12,-21.73C525.36,-23.2 543.74,-24.77 560.99,-26.24"/>
<polygon fill="#9a32cd" stroke="#9a32cd" points="508.38,-18.24 498.12,-20.88 507.79,-25.22 508.38,-18.24"/>
<text text-anchor="middle" x="529.5" y="-27.5" font-family="Helvetica,sans-Serif" font-size="10.00"> iterA</text>
</g>
</g>
</svg>
