<?xml version="1.0" encoding="UTF-8" standalone="no"?>
<!DOCTYPE svg PUBLIC "-//W3C//DTD SVG 1.1//EN"
 "http://www.w3.org/Graphics/SVG/1.1/DTD/svg11.dtd">
<!-- Generated by graphviz version 2.43.0 (0)
 -->
<!-- Title: FTensor::Tensor2_times_Tensor1&lt; A, B, T, U, Dim0, Dim1, Dim2, i, j, k &gt; Pages: 1 -->
<svg width="683pt" height="113pt"
 viewBox="0.00 0.00 683.00 113.00" xmlns="http://www.w3.org/2000/svg" xmlns:xlink="http://www.w3.org/1999/xlink">
<g id="graph0" class="graph" transform="scale(1 1) rotate(0) translate(4 109)">
<title>FTensor::Tensor2_times_Tensor1&lt; A, B, T, U, Dim0, Dim1, Dim2, i, j, k &gt;</title>
<polygon fill="white" stroke="transparent" points="-4,4 -4,-109 679,-109 679,4 -4,4"/>
<!-- Node1 -->
<g id="node1" class="node">
<title>Node1</title>
<g id="a_node1"><a xlink:title=" ">
<polygon fill="#bfbfbf" stroke="black" points="523,-17.5 523,-58.5 675,-58.5 675,-17.5 523,-17.5"/>
<text text-anchor="start" x="531" y="-46.5" font-family="Helvetica,sans-Serif" font-size="10.00">FTensor::Tensor2_times</text>
<text text-anchor="start" x="531" y="-35.5" font-family="Helvetica,sans-Serif" font-size="10.00">_Tensor1&lt; A, B, T, U,</text>
<text text-anchor="middle" x="599" y="-24.5" font-family="Helvetica,sans-Serif" font-size="10.00"> Dim0, Dim1, Dim2, i, j, k &gt;</text>
</a>
</g>
</g>
<!-- Node2 -->
<g id="node2" class="node">
<title>Node2</title>
<g id="a_node2"><a xlink:href="classFTensor_1_1Tensor1__Expr.html" target="_top" xlink:title=" ">
<polygon fill="white" stroke="black" points="336,-61 336,-91 460,-91 460,-61 336,-61"/>
<text text-anchor="start" x="344" y="-79" font-family="Helvetica,sans-Serif" font-size="10.00">FTensor::Tensor1_Expr</text>
<text text-anchor="middle" x="398" y="-68" font-family="Helvetica,sans-Serif" font-size="10.00">&lt; B, U, Dim2, k &gt;</text>
</a>
</g>
</g>
<!-- Node2&#45;&gt;Node1 -->
<g id="edge1" class="edge">
<title>Node2&#45;&gt;Node1</title>
<path fill="none" stroke="#9a32cd" stroke-dasharray="5,2" d="M469.96,-62.45C487.05,-59.19 505.37,-55.69 522.66,-52.39"/>
<polygon fill="#9a32cd" stroke="#9a32cd" points="469.22,-59.03 460.06,-64.34 470.54,-65.9 469.22,-59.03"/>
<text text-anchor="middle" x="491.5" y="-63" font-family="Helvetica,sans-Serif" font-size="10.00"> iterB</text>
</g>
<!-- Node3 -->
<g id="node3" class="node">
<title>Node3</title>
<g id="a_node3"><a xlink:title=" ">
<polygon fill="white" stroke="#bfbfbf" points="132.5,-85.5 132.5,-104.5 161.5,-104.5 161.5,-85.5 132.5,-85.5"/>
<text text-anchor="middle" x="147" y="-92.5" font-family="Helvetica,sans-Serif" font-size="10.00">B</text>
</a>
</g>
</g>
<!-- Node3&#45;&gt;Node2 -->
<g id="edge2" class="edge">
<title>Node3&#45;&gt;Node2</title>
<path fill="none" stroke="#9a32cd" stroke-dasharray="5,2" d="M172.17,-93.16C209.67,-90.29 283.04,-84.7 335.78,-80.67"/>
<polygon fill="#9a32cd" stroke="#9a32cd" points="171.45,-89.7 161.74,-93.95 171.98,-96.68 171.45,-89.7"/>
<text text-anchor="middle" x="272.5" y="-91" font-family="Helvetica,sans-Serif" font-size="10.00"> iter</text>
</g>
<!-- Node4 -->
<g id="node4" class="node">
<title>Node4</title>
<g id="a_node4"><a xlink:href="classFTensor_1_1Tensor1__Expr.html" target="_top" xlink:title=" ">
<polygon fill="white" stroke="black" points="85,-36 85,-66 209,-66 209,-36 85,-36"/>
<text text-anchor="start" x="93" y="-54" font-family="Helvetica,sans-Serif" font-size="10.00">FTensor::Tensor1_Expr</text>
<text text-anchor="middle" x="147" y="-43" font-family="Helvetica,sans-Serif" font-size="10.00">&lt; A, T, Dim, i &gt;</text>
</a>
</g>
</g>
<!-- Node4&#45;&gt;Node2 -->
<g id="edge3" class="edge">
<title>Node4&#45;&gt;Node2</title>
<path fill="none" stroke="orange" stroke-dasharray="5,2" d="M219.11,-57.38C249.58,-60.19 285.55,-63.62 318,-67 323.77,-67.6 329.77,-68.25 335.77,-68.9"/>
<polygon fill="orange" stroke="orange" points="219.29,-53.88 209.01,-56.45 218.64,-60.85 219.29,-53.88"/>
<text text-anchor="middle" x="272.5" y="-70" font-family="Helvetica,sans-Serif" font-size="10.00"> &lt; B, U, Dim2, k &gt;</text>
</g>
<!-- Node5 -->
<g id="node5" class="node">
<title>Node5</title>
<g id="a_node5"><a xlink:title=" ">
<polygon fill="white" stroke="#bfbfbf" points="0,-41.5 0,-60.5 29,-60.5 29,-41.5 0,-41.5"/>
<text text-anchor="middle" x="14.5" y="-48.5" font-family="Helvetica,sans-Serif" font-size="10.00">A</text>
</a>
</g>
</g>
<!-- Node5&#45;&gt;Node4 -->
<g id="edge4" class="edge">
<title>Node5&#45;&gt;Node4</title>
<path fill="none" stroke="#9a32cd" stroke-dasharray="5,2" d="M39.69,-51C52.47,-51 68.79,-51 84.79,-51"/>
<polygon fill="#9a32cd" stroke="#9a32cd" points="39.47,-47.5 29.47,-51 39.47,-54.5 39.47,-47.5"/>
<text text-anchor="middle" x="57" y="-54" font-family="Helvetica,sans-Serif" font-size="10.00"> iter</text>
</g>
<!-- Node6 -->
<g id="node6" class="node">
<title>Node6</title>
<g id="a_node6"><a xlink:title=" ">
<polygon fill="white" stroke="#bfbfbf" points="341,-0.5 341,-41.5 455,-41.5 455,-0.5 341,-0.5"/>
<text text-anchor="start" x="349" y="-29.5" font-family="Helvetica,sans-Serif" font-size="10.00">const Tensor2_Expr</text>
<text text-anchor="start" x="349" y="-18.5" font-family="Helvetica,sans-Serif" font-size="10.00">&lt; A, T, Dim0, Dim1,</text>
<text text-anchor="middle" x="398" y="-7.5" font-family="Helvetica,sans-Serif" font-size="10.00"> i, j &gt;</text>
</a>
</g>
</g>
<!-- Node6&#45;&gt;Node1 -->
<g id="edge5" class="edge">
<title>Node6&#45;&gt;Node1</title>
<path fill="none" stroke="#9a32cd" stroke-dasharray="5,2" d="M465.3,-26.66C483.79,-28.24 504.01,-29.97 522.96,-31.59"/>
<polygon fill="#9a32cd" stroke="#9a32cd" points="465.49,-23.17 455.23,-25.8 464.89,-30.14 465.49,-23.17"/>
<text text-anchor="middle" x="491.5" y="-34" font-family="Helvetica,sans-Serif" font-size="10.00"> iterA</text>
</g>
</g>
</svg>
