<?xml version="1.0" encoding="UTF-8" standalone="no"?>
<!DOCTYPE svg PUBLIC "-//W3C//DTD SVG 1.1//EN"
 "http://www.w3.org/Graphics/SVG/1.1/DTD/svg11.dtd">
<!-- Generated by graphviz version 2.43.0 (0)
 -->
<!-- Title: FTensor::Tensor4_plus_Tensor4&lt; A, B, T, U, Dim0_0, Dim1_0, Dim2_0, Dim3_0, Dim0_1, Dim1_1, Dim2_1, Dim3_1, i0, j0, k0, l0, i1, j1, k1, l1 &gt; Pages: 1 -->
<svg width="736pt" height="165pt"
 viewBox="0.00 0.00 736.00 164.50" xmlns="http://www.w3.org/2000/svg" xmlns:xlink="http://www.w3.org/1999/xlink">
<g id="graph0" class="graph" transform="scale(1 1) rotate(0) translate(4 160.5)">
<title>FTensor::Tensor4_plus_Tensor4&lt; A, B, T, U, Dim0_0, Dim1_0, Dim2_0, Dim3_0, Dim0_1, Dim1_1, Dim2_1, Dim3_1, i0, j0, k0, l0, i1, j1, k1, l1 &gt;</title>
<polygon fill="white" stroke="transparent" points="-4,4 -4,-160.5 732,-160.5 732,4 -4,4"/>
<!-- Node1 -->
<g id="node1" class="node">
<title>Node1</title>
<g id="a_node1"><a xlink:title=" ">
<polygon fill="#bfbfbf" stroke="black" points="580,-24.5 580,-98.5 728,-98.5 728,-24.5 580,-24.5"/>
<text text-anchor="start" x="588" y="-86.5" font-family="Helvetica,sans-Serif" font-size="10.00">FTensor::Tensor4_plus</text>
<text text-anchor="start" x="588" y="-75.5" font-family="Helvetica,sans-Serif" font-size="10.00">_Tensor4&lt; A, B, T, U,</text>
<text text-anchor="start" x="588" y="-64.5" font-family="Helvetica,sans-Serif" font-size="10.00"> Dim0_0, Dim1_0, Dim2</text>
<text text-anchor="start" x="588" y="-53.5" font-family="Helvetica,sans-Serif" font-size="10.00">_0, Dim3_0, Dim0_1, Dim1</text>
<text text-anchor="start" x="588" y="-42.5" font-family="Helvetica,sans-Serif" font-size="10.00">_1, Dim2_1, Dim3_1, i0, j0,</text>
<text text-anchor="middle" x="654" y="-31.5" font-family="Helvetica,sans-Serif" font-size="10.00"> k0, l0, i1, j1, k1, l1 &gt;</text>
</a>
</g>
</g>
<!-- Node2 -->
<g id="node2" class="node">
<title>Node2</title>
<g id="a_node2"><a xlink:href="classFTensor_1_1Tensor4__Expr.html" target="_top" xlink:title=" ">
<polygon fill="white" stroke="black" points="384,-71.5 384,-123.5 517,-123.5 517,-71.5 384,-71.5"/>
<text text-anchor="start" x="392" y="-111.5" font-family="Helvetica,sans-Serif" font-size="10.00">FTensor::Tensor4_Expr</text>
<text text-anchor="start" x="392" y="-100.5" font-family="Helvetica,sans-Serif" font-size="10.00">&lt; B, U, Dim0_1, Dim1</text>
<text text-anchor="start" x="392" y="-89.5" font-family="Helvetica,sans-Serif" font-size="10.00">_1, Dim2_1, Dim3_1, i1,</text>
<text text-anchor="middle" x="450.5" y="-78.5" font-family="Helvetica,sans-Serif" font-size="10.00"> j1, k1, l1 &gt;</text>
</a>
</g>
</g>
<!-- Node2&#45;&gt;Node1 -->
<g id="edge1" class="edge">
<title>Node2&#45;&gt;Node1</title>
<path fill="none" stroke="#9a32cd" stroke-dasharray="5,2" d="M527.19,-83.98C544.39,-80.91 562.62,-77.65 579.72,-74.59"/>
<polygon fill="#9a32cd" stroke="#9a32cd" points="526.43,-80.56 517.2,-85.76 527.66,-87.45 526.43,-80.56"/>
<text text-anchor="middle" x="548.5" y="-84.5" font-family="Helvetica,sans-Serif" font-size="10.00"> iterB</text>
</g>
<!-- Node3 -->
<g id="node3" class="node">
<title>Node3</title>
<g id="a_node3"><a xlink:title=" ">
<polygon fill="white" stroke="#bfbfbf" points="143.5,-137 143.5,-156 172.5,-156 172.5,-137 143.5,-137"/>
<text text-anchor="middle" x="158" y="-144" font-family="Helvetica,sans-Serif" font-size="10.00">B</text>
</a>
</g>
</g>
<!-- Node3&#45;&gt;Node2 -->
<g id="edge2" class="edge">
<title>Node3&#45;&gt;Node2</title>
<path fill="none" stroke="#9a32cd" stroke-dasharray="5,2" d="M182.96,-145.09C221.74,-142.51 300.53,-135.99 366,-122.5 371.78,-121.31 377.74,-119.9 383.68,-118.37"/>
<polygon fill="#9a32cd" stroke="#9a32cd" points="182.45,-141.62 172.69,-145.75 182.9,-148.6 182.45,-141.62"/>
<text text-anchor="middle" x="307.5" y="-141.5" font-family="Helvetica,sans-Serif" font-size="10.00"> iter</text>
</g>
<!-- Node4 -->
<g id="node4" class="node">
<title>Node4</title>
<g id="a_node4"><a xlink:href="classFTensor_1_1Tensor4__Expr.html" target="_top" xlink:title=" ">
<polygon fill="white" stroke="black" points="85,-31 85,-72 231,-72 231,-31 85,-31"/>
<text text-anchor="start" x="93" y="-60" font-family="Helvetica,sans-Serif" font-size="10.00">FTensor::Tensor4_Expr</text>
<text text-anchor="start" x="93" y="-49" font-family="Helvetica,sans-Serif" font-size="10.00">&lt; A, T, Dim0, Dim1, Dim2,</text>
<text text-anchor="middle" x="158" y="-38" font-family="Helvetica,sans-Serif" font-size="10.00"> Dim3, i, j, k, l &gt;</text>
</a>
</g>
</g>
<!-- Node4&#45;&gt;Node2 -->
<g id="edge3" class="edge">
<title>Node4&#45;&gt;Node2</title>
<path fill="none" stroke="orange" stroke-dasharray="5,2" d="M241.28,-67.19C243.88,-67.64 246.46,-68.08 249,-68.5 293.93,-75.99 344.71,-83.32 383.92,-88.74"/>
<polygon fill="orange" stroke="orange" points="241.62,-63.7 231.16,-65.41 240.41,-70.59 241.62,-63.7"/>
<text text-anchor="start" x="249" y="-110.5" font-family="Helvetica,sans-Serif" font-size="10.00"> &lt; B, U, Dim0_1, Dim1</text>
<text text-anchor="start" x="249" y="-99.5" font-family="Helvetica,sans-Serif" font-size="10.00">_1, Dim2_1, Dim3_1, i1,</text>
<text text-anchor="middle" x="307.5" y="-88.5" font-family="Helvetica,sans-Serif" font-size="10.00"> j1, k1, l1 &gt;</text>
</g>
<!-- Node6 -->
<g id="node6" class="node">
<title>Node6</title>
<g id="a_node6"><a xlink:href="classFTensor_1_1Tensor4__Expr.html" target="_top" xlink:title=" ">
<polygon fill="white" stroke="black" points="384,-0.5 384,-52.5 517,-52.5 517,-0.5 384,-0.5"/>
<text text-anchor="start" x="392" y="-40.5" font-family="Helvetica,sans-Serif" font-size="10.00">FTensor::Tensor4_Expr</text>
<text text-anchor="start" x="392" y="-29.5" font-family="Helvetica,sans-Serif" font-size="10.00">&lt; A, T, Dim0_0, Dim1</text>
<text text-anchor="start" x="392" y="-18.5" font-family="Helvetica,sans-Serif" font-size="10.00">_0, Dim2_0, Dim3_0, i0,</text>
<text text-anchor="middle" x="450.5" y="-7.5" font-family="Helvetica,sans-Serif" font-size="10.00"> j0, k0, l0 &gt;</text>
</a>
</g>
</g>
<!-- Node4&#45;&gt;Node6 -->
<g id="edge7" class="edge">
<title>Node4&#45;&gt;Node6</title>
<path fill="none" stroke="orange" stroke-dasharray="5,2" d="M241.24,-36.43C243.86,-36.09 246.45,-35.78 249,-35.5 293.85,-30.53 344.63,-28.28 383.86,-27.28"/>
<polygon fill="orange" stroke="orange" points="240.52,-33 231.09,-37.83 241.47,-39.93 240.52,-33"/>
<text text-anchor="start" x="249" y="-60.5" font-family="Helvetica,sans-Serif" font-size="10.00"> &lt; A, T, Dim0_0, Dim1</text>
<text text-anchor="start" x="249" y="-49.5" font-family="Helvetica,sans-Serif" font-size="10.00">_0, Dim2_0, Dim3_0, i0,</text>
<text text-anchor="middle" x="307.5" y="-38.5" font-family="Helvetica,sans-Serif" font-size="10.00"> j0, k0, l0 &gt;</text>
</g>
<!-- Node5 -->
<g id="node5" class="node">
<title>Node5</title>
<g id="a_node5"><a xlink:title=" ">
<polygon fill="white" stroke="#bfbfbf" points="0,-12 0,-31 29,-31 29,-12 0,-12"/>
<text text-anchor="middle" x="14.5" y="-19" font-family="Helvetica,sans-Serif" font-size="10.00">A</text>
</a>
</g>
</g>
<!-- Node5&#45;&gt;Node4 -->
<g id="edge4" class="edge">
<title>Node5&#45;&gt;Node4</title>
<path fill="none" stroke="#9a32cd" stroke-dasharray="5,2" d="M39.18,-26.52C51.88,-29.21 68.27,-32.69 84.77,-36.19"/>
<polygon fill="#9a32cd" stroke="#9a32cd" points="39.58,-23.03 29.07,-24.38 38.12,-29.87 39.58,-23.03"/>
<text text-anchor="middle" x="57" y="-34.5" font-family="Helvetica,sans-Serif" font-size="10.00"> iter</text>
</g>
<!-- Node5&#45;&gt;Node6 -->
<g id="edge6" class="edge">
<title>Node5&#45;&gt;Node6</title>
<path fill="none" stroke="#9a32cd" stroke-dasharray="5,2" d="M38.86,-16.86C52.3,-14.43 69.53,-11.72 85,-10.5 189.35,-2.29 310.86,-11.35 383.9,-18.8"/>
<polygon fill="#9a32cd" stroke="#9a32cd" points="38.19,-13.43 29.01,-18.72 39.48,-20.31 38.19,-13.43"/>
<text text-anchor="middle" x="158" y="-13.5" font-family="Helvetica,sans-Serif" font-size="10.00"> iter</text>
</g>
<!-- Node6&#45;&gt;Node1 -->
<g id="edge5" class="edge">
<title>Node6&#45;&gt;Node1</title>
<path fill="none" stroke="#9a32cd" stroke-dasharray="5,2" d="M527.19,-39.65C544.39,-42.63 562.62,-45.8 579.72,-48.77"/>
<polygon fill="#9a32cd" stroke="#9a32cd" points="527.65,-36.17 517.2,-37.91 526.45,-43.07 527.65,-36.17"/>
<text text-anchor="middle" x="548.5" y="-47.5" font-family="Helvetica,sans-Serif" font-size="10.00"> iterA</text>
</g>
</g>
</svg>
