<?xml version="1.0" encoding="UTF-8" standalone="no"?>
<!DOCTYPE svg PUBLIC "-//W3C//DTD SVG 1.1//EN"
 "http://www.w3.org/Graphics/SVG/1.1/DTD/svg11.dtd">
<!-- Generated by graphviz version 2.43.0 (0)
 -->
<!-- Title: FTensor::Tensor2_minus_Tensor2&lt; A, B, T, U, Dim0, Dim1, Dim0, Dim1, i, j, i, j &gt; Pages: 1 -->
<svg width="723pt" height="116pt"
 viewBox="0.00 0.00 723.00 116.00" xmlns="http://www.w3.org/2000/svg" xmlns:xlink="http://www.w3.org/1999/xlink">
<g id="graph0" class="graph" transform="scale(1 1) rotate(0) translate(4 112)">
<title>FTensor::Tensor2_minus_Tensor2&lt; A, B, T, U, Dim0, Dim1, Dim0, Dim1, i, j, i, j &gt;</title>
<polygon fill="white" stroke="transparent" points="-4,4 -4,-112 719,-112 719,4 -4,4"/>
<!-- Node1 -->
<g id="node1" class="node">
<title>Node1</title>
<g id="a_node1"><a xlink:title=" ">
<polygon fill="#bfbfbf" stroke="black" points="569,-12 569,-64 715,-64 715,-12 569,-12"/>
<text text-anchor="start" x="577" y="-52" font-family="Helvetica,sans-Serif" font-size="10.00">FTensor::Tensor2_minus</text>
<text text-anchor="start" x="577" y="-41" font-family="Helvetica,sans-Serif" font-size="10.00">_Tensor2&lt; A, B, T, U,</text>
<text text-anchor="start" x="577" y="-30" font-family="Helvetica,sans-Serif" font-size="10.00"> Dim0, Dim1, Dim0, Dim1,</text>
<text text-anchor="middle" x="642" y="-19" font-family="Helvetica,sans-Serif" font-size="10.00"> i, j, i, j &gt;</text>
</a>
</g>
</g>
<!-- Node2 -->
<g id="node2" class="node">
<title>Node2</title>
<g id="a_node2"><a xlink:href="classFTensor_1_1Tensor2__Expr.html" target="_top" xlink:title=" ">
<polygon fill="white" stroke="black" points="364,-61 364,-91 506,-91 506,-61 364,-61"/>
<text text-anchor="start" x="372" y="-79" font-family="Helvetica,sans-Serif" font-size="10.00">FTensor::Tensor2_Expr</text>
<text text-anchor="middle" x="435" y="-68" font-family="Helvetica,sans-Serif" font-size="10.00">&lt; B, U, Dim0, Dim1, i, j &gt;</text>
</a>
</g>
</g>
<!-- Node2&#45;&gt;Node1 -->
<g id="edge1" class="edge">
<title>Node2&#45;&gt;Node1</title>
<path fill="none" stroke="#9a32cd" stroke-dasharray="5,2" d="M516.32,-61.11C533.61,-57.91 551.78,-54.54 568.74,-51.4"/>
<polygon fill="#9a32cd" stroke="#9a32cd" points="515.46,-57.71 506.26,-62.98 516.73,-64.59 515.46,-57.71"/>
<text text-anchor="middle" x="537.5" y="-62" font-family="Helvetica,sans-Serif" font-size="10.00"> iterB</text>
</g>
<!-- Node3 -->
<g id="node3" class="node">
<title>Node3</title>
<g id="a_node3"><a xlink:title=" ">
<polygon fill="white" stroke="#bfbfbf" points="140.5,-88.5 140.5,-107.5 169.5,-107.5 169.5,-88.5 140.5,-88.5"/>
<text text-anchor="middle" x="155" y="-95.5" font-family="Helvetica,sans-Serif" font-size="10.00">B</text>
</a>
</g>
</g>
<!-- Node3&#45;&gt;Node2 -->
<g id="edge2" class="edge">
<title>Node3&#45;&gt;Node2</title>
<path fill="none" stroke="#9a32cd" stroke-dasharray="5,2" d="M180.01,-96.1C220.49,-92.9 303.77,-86.31 363.95,-81.54"/>
<polygon fill="#9a32cd" stroke="#9a32cd" points="179.48,-92.63 169.79,-96.91 180.03,-99.61 179.48,-92.63"/>
<text text-anchor="middle" x="294.5" y="-93" font-family="Helvetica,sans-Serif" font-size="10.00"> iter</text>
</g>
<!-- Node4 -->
<g id="node4" class="node">
<title>Node4</title>
<g id="a_node4"><a xlink:href="classFTensor_1_1Tensor2__Expr.html" target="_top" xlink:title=" ">
<polygon fill="white" stroke="black" points="85,-38 85,-68 225,-68 225,-38 85,-38"/>
<text text-anchor="start" x="93" y="-56" font-family="Helvetica,sans-Serif" font-size="10.00">FTensor::Tensor2_Expr</text>
<text text-anchor="middle" x="155" y="-45" font-family="Helvetica,sans-Serif" font-size="10.00">&lt; A, T, Dim0, Dim1, i, j &gt;</text>
</a>
</g>
</g>
<!-- Node4&#45;&gt;Node2 -->
<g id="edge3" class="edge">
<title>Node4&#45;&gt;Node2</title>
<path fill="none" stroke="orange" stroke-dasharray="5,2" d="M235.63,-51.29C269.73,-51.43 309.92,-52.76 346,-57 354.23,-57.97 362.82,-59.35 371.27,-60.93"/>
<polygon fill="orange" stroke="orange" points="235.26,-47.79 225.26,-51.28 235.26,-54.79 235.26,-47.79"/>
<text text-anchor="start" x="243" y="-71" font-family="Helvetica,sans-Serif" font-size="10.00"> &lt; B, U, Dim0, Dim1,</text>
<text text-anchor="middle" x="294.5" y="-60" font-family="Helvetica,sans-Serif" font-size="10.00"> i, j &gt;</text>
</g>
<!-- Node5 -->
<g id="node5" class="node">
<title>Node5</title>
<g id="a_node5"><a xlink:title=" ">
<polygon fill="white" stroke="#bfbfbf" points="0,-43.5 0,-62.5 29,-62.5 29,-43.5 0,-43.5"/>
<text text-anchor="middle" x="14.5" y="-50.5" font-family="Helvetica,sans-Serif" font-size="10.00">A</text>
</a>
</g>
</g>
<!-- Node5&#45;&gt;Node4 -->
<g id="edge4" class="edge">
<title>Node5&#45;&gt;Node4</title>
<path fill="none" stroke="#9a32cd" stroke-dasharray="5,2" d="M39.19,-53C51.95,-53 68.41,-53 84.87,-53"/>
<polygon fill="#9a32cd" stroke="#9a32cd" points="39.03,-49.5 29.03,-53 39.03,-56.5 39.03,-49.5"/>
<text text-anchor="middle" x="57" y="-56" font-family="Helvetica,sans-Serif" font-size="10.00"> iter</text>
</g>
<!-- Node6 -->
<g id="node6" class="node">
<title>Node6</title>
<g id="a_node6"><a xlink:title=" ">
<polygon fill="white" stroke="#bfbfbf" points="378,-0.5 378,-41.5 492,-41.5 492,-0.5 378,-0.5"/>
<text text-anchor="start" x="386" y="-29.5" font-family="Helvetica,sans-Serif" font-size="10.00">const Tensor2_Expr</text>
<text text-anchor="start" x="386" y="-18.5" font-family="Helvetica,sans-Serif" font-size="10.00">&lt; A, T, Dim0, Dim1,</text>
<text text-anchor="middle" x="435" y="-7.5" font-family="Helvetica,sans-Serif" font-size="10.00"> i, j &gt;</text>
</a>
</g>
</g>
<!-- Node6&#45;&gt;Node1 -->
<g id="edge5" class="edge">
<title>Node6&#45;&gt;Node1</title>
<path fill="none" stroke="#9a32cd" stroke-dasharray="5,2" d="M502.25,-26.49C523.53,-28.26 547.19,-30.22 568.87,-32.02"/>
<polygon fill="#9a32cd" stroke="#9a32cd" points="502.27,-22.98 492.02,-25.65 501.69,-29.96 502.27,-22.98"/>
<text text-anchor="middle" x="537.5" y="-33" font-family="Helvetica,sans-Serif" font-size="10.00"> iterA</text>
</g>
</g>
</svg>
