<?xml version="1.0" encoding="UTF-8" standalone="no"?>
<!DOCTYPE svg PUBLIC "-//W3C//DTD SVG 1.1//EN"
 "http://www.w3.org/Graphics/SVG/1.1/DTD/svg11.dtd">
<!-- Generated by graphviz version 2.43.0 (0)
 -->
<!-- Title: FTensor::Tensor4_times_Tensor2_symmetric_01&lt; A, B, T, U, Dim, Dim2, Dim3, i, j, k, l &gt; Pages: 1 -->
<svg width="757pt" height="185pt"
 viewBox="0.00 0.00 757.00 185.00" xmlns="http://www.w3.org/2000/svg" xmlns:xlink="http://www.w3.org/1999/xlink">
<g id="graph0" class="graph" transform="scale(1 1) rotate(0) translate(4 181)">
<title>FTensor::Tensor4_times_Tensor2_symmetric_01&lt; A, B, T, U, Dim, Dim2, Dim3, i, j, k, l &gt;</title>
<polygon fill="white" stroke="transparent" points="-4,4 -4,-181 753,-181 753,4 -4,4"/>
<!-- Node1 -->
<g id="node1" class="node">
<title>Node1</title>
<g id="a_node1"><a xlink:title=" ">
<polygon fill="#bfbfbf" stroke="black" points="615,-76 615,-128 749,-128 749,-76 615,-76"/>
<text text-anchor="start" x="623" y="-116" font-family="Helvetica,sans-Serif" font-size="10.00">FTensor::Tensor4_times</text>
<text text-anchor="start" x="623" y="-105" font-family="Helvetica,sans-Serif" font-size="10.00">_Tensor2_symmetric_01</text>
<text text-anchor="start" x="623" y="-94" font-family="Helvetica,sans-Serif" font-size="10.00">&lt; A, B, T, U, Dim, Dim2,</text>
<text text-anchor="middle" x="682" y="-83" font-family="Helvetica,sans-Serif" font-size="10.00"> Dim3, i, j, k, l &gt;</text>
</a>
</g>
</g>
<!-- Node2 -->
<g id="node2" class="node">
<title>Node2</title>
<g id="a_node2"><a xlink:href="classFTensor_1_1Tensor2__symmetric__Expr.html" target="_top" xlink:title=" ">
<polygon fill="white" stroke="black" points="397,-115 397,-145 552,-145 552,-115 397,-115"/>
<text text-anchor="start" x="405" y="-133" font-family="Helvetica,sans-Serif" font-size="10.00">FTensor::Tensor2_symmetric</text>
<text text-anchor="middle" x="474.5" y="-122" font-family="Helvetica,sans-Serif" font-size="10.00">_Expr&lt; B, U, Dim, i, j &gt;</text>
</a>
</g>
</g>
<!-- Node2&#45;&gt;Node1 -->
<g id="edge1" class="edge">
<title>Node2&#45;&gt;Node1</title>
<path fill="none" stroke="#9a32cd" stroke-dasharray="5,2" d="M562.29,-118.17C579.89,-115.78 598.13,-113.29 614.88,-111.01"/>
<polygon fill="#9a32cd" stroke="#9a32cd" points="561.46,-114.76 552.02,-119.57 562.4,-121.69 561.46,-114.76"/>
<text text-anchor="middle" x="583.5" y="-119" font-family="Helvetica,sans-Serif" font-size="10.00"> iterB</text>
</g>
<!-- Node3 -->
<g id="node3" class="node">
<title>Node3</title>
<g id="a_node3"><a xlink:title=" ">
<polygon fill="white" stroke="#bfbfbf" points="148,-157.5 148,-176.5 177,-176.5 177,-157.5 148,-157.5"/>
<text text-anchor="middle" x="162.5" y="-164.5" font-family="Helvetica,sans-Serif" font-size="10.00">B</text>
</a>
</g>
</g>
<!-- Node3&#45;&gt;Node2 -->
<g id="edge2" class="edge">
<title>Node3&#45;&gt;Node2</title>
<path fill="none" stroke="#9a32cd" stroke-dasharray="5,2" d="M187.13,-164.34C226.79,-159.87 309.28,-150.47 379,-142 384.83,-141.29 390.86,-140.55 396.92,-139.8"/>
<polygon fill="#9a32cd" stroke="#9a32cd" points="186.67,-160.87 177.12,-165.47 187.45,-167.83 186.67,-160.87"/>
<text text-anchor="middle" x="318.5" y="-158" font-family="Helvetica,sans-Serif" font-size="10.00"> iter</text>
</g>
<!-- Node4 -->
<g id="node4" class="node">
<title>Node4</title>
<g id="a_node4"><a xlink:href="classFTensor_1_1Tensor2__symmetric__Expr.html" target="_top" xlink:title=" ">
<polygon fill="white" stroke="black" points="85,-108 85,-138 240,-138 240,-108 85,-108"/>
<text text-anchor="start" x="93" y="-126" font-family="Helvetica,sans-Serif" font-size="10.00">FTensor::Tensor2_symmetric</text>
<text text-anchor="middle" x="162.5" y="-115" font-family="Helvetica,sans-Serif" font-size="10.00">_Expr&lt; A, T, Dim, i, j &gt;</text>
</a>
</g>
</g>
<!-- Node4&#45;&gt;Node2 -->
<g id="edge3" class="edge">
<title>Node4&#45;&gt;Node2</title>
<path fill="none" stroke="orange" stroke-dasharray="5,2" d="M250.4,-124.96C296.46,-126 352.54,-127.27 396.95,-128.27"/>
<polygon fill="orange" stroke="orange" points="250.21,-121.46 240.13,-124.73 250.05,-128.46 250.21,-121.46"/>
<text text-anchor="middle" x="318.5" y="-130" font-family="Helvetica,sans-Serif" font-size="10.00"> &lt; B, U, Dim, i, j &gt;</text>
</g>
<!-- Node5 -->
<g id="node5" class="node">
<title>Node5</title>
<g id="a_node5"><a xlink:title=" ">
<polygon fill="white" stroke="#bfbfbf" points="0,-68.5 0,-87.5 29,-87.5 29,-68.5 0,-68.5"/>
<text text-anchor="middle" x="14.5" y="-75.5" font-family="Helvetica,sans-Serif" font-size="10.00">A</text>
</a>
</g>
</g>
<!-- Node5&#45;&gt;Node4 -->
<g id="edge4" class="edge">
<title>Node5&#45;&gt;Node4</title>
<path fill="none" stroke="#9a32cd" stroke-dasharray="5,2" d="M38.44,-88.68C41.3,-89.87 44.2,-91 47,-92 63.69,-97.93 82.09,-103.37 99.16,-107.99"/>
<polygon fill="#9a32cd" stroke="#9a32cd" points="39.68,-85.4 29.11,-84.6 36.87,-91.82 39.68,-85.4"/>
<text text-anchor="middle" x="57" y="-101" font-family="Helvetica,sans-Serif" font-size="10.00"> iter</text>
</g>
<!-- Node6 -->
<g id="node6" class="node">
<title>Node6</title>
<g id="a_node6"><a xlink:href="classFTensor_1_1Tensor4__Expr.html" target="_top" xlink:title=" ">
<polygon fill="white" stroke="black" points="407.5,-54.5 407.5,-95.5 541.5,-95.5 541.5,-54.5 407.5,-54.5"/>
<text text-anchor="start" x="415.5" y="-83.5" font-family="Helvetica,sans-Serif" font-size="10.00">FTensor::Tensor4_Expr</text>
<text text-anchor="start" x="415.5" y="-72.5" font-family="Helvetica,sans-Serif" font-size="10.00">&lt; A, T, Dim, Dim, Dim2,</text>
<text text-anchor="middle" x="474.5" y="-61.5" font-family="Helvetica,sans-Serif" font-size="10.00"> Dim3, i, j, k, l &gt;</text>
</a>
</g>
</g>
<!-- Node5&#45;&gt;Node6 -->
<g id="edge6" class="edge">
<title>Node5&#45;&gt;Node6</title>
<path fill="none" stroke="#9a32cd" stroke-dasharray="5,2" d="M39.31,-77.84C107.14,-77.4 303.2,-76.12 407.08,-75.44"/>
<polygon fill="#9a32cd" stroke="#9a32cd" points="39.18,-74.34 29.21,-77.91 39.23,-81.34 39.18,-74.34"/>
<text text-anchor="middle" x="162.5" y="-80" font-family="Helvetica,sans-Serif" font-size="10.00"> iter</text>
</g>
<!-- Node7 -->
<g id="node7" class="node">
<title>Node7</title>
<g id="a_node7"><a xlink:href="classFTensor_1_1Tensor4__Expr.html" target="_top" xlink:title=" ">
<polygon fill="white" stroke="black" points="89.5,-0.5 89.5,-41.5 235.5,-41.5 235.5,-0.5 89.5,-0.5"/>
<text text-anchor="start" x="97.5" y="-29.5" font-family="Helvetica,sans-Serif" font-size="10.00">FTensor::Tensor4_Expr</text>
<text text-anchor="start" x="97.5" y="-18.5" font-family="Helvetica,sans-Serif" font-size="10.00">&lt; A, T, Dim0, Dim1, Dim2,</text>
<text text-anchor="middle" x="162.5" y="-7.5" font-family="Helvetica,sans-Serif" font-size="10.00"> Dim3, i, j, k, l &gt;</text>
</a>
</g>
</g>
<!-- Node5&#45;&gt;Node7 -->
<g id="edge8" class="edge">
<title>Node5&#45;&gt;Node7</title>
<path fill="none" stroke="#9a32cd" stroke-dasharray="5,2" d="M33.51,-61.72C37.72,-58.49 42.35,-55.37 47,-53 60.15,-46.29 74.88,-40.84 89.29,-36.46"/>
<polygon fill="#9a32cd" stroke="#9a32cd" points="31.03,-59.23 25.56,-68.3 35.49,-64.62 31.03,-59.23"/>
<text text-anchor="middle" x="57" y="-56" font-family="Helvetica,sans-Serif" font-size="10.00"> iter</text>
</g>
<!-- Node6&#45;&gt;Node1 -->
<g id="edge5" class="edge">
<title>Node6&#45;&gt;Node1</title>
<path fill="none" stroke="#9a32cd" stroke-dasharray="5,2" d="M551.71,-85.01C572.48,-87.74 594.81,-90.68 614.97,-93.32"/>
<polygon fill="#9a32cd" stroke="#9a32cd" points="552.02,-81.52 541.65,-83.69 551.11,-88.46 552.02,-81.52"/>
<text text-anchor="middle" x="583.5" y="-93" font-family="Helvetica,sans-Serif" font-size="10.00"> iterA</text>
</g>
<!-- Node7&#45;&gt;Node6 -->
<g id="edge7" class="edge">
<title>Node7&#45;&gt;Node6</title>
<path fill="none" stroke="orange" stroke-dasharray="5,2" d="M245.61,-24.39C286.12,-27.22 335.51,-32.43 379,-42 393.09,-45.1 407.97,-49.66 421.66,-54.4"/>
<polygon fill="orange" stroke="orange" points="245.72,-20.89 235.51,-23.72 245.26,-27.87 245.72,-20.89"/>
<text text-anchor="start" x="258" y="-56" font-family="Helvetica,sans-Serif" font-size="10.00"> &lt; A, T, Dim, Dim, Dim2,</text>
<text text-anchor="middle" x="318.5" y="-45" font-family="Helvetica,sans-Serif" font-size="10.00"> Dim3, i, j, k, l &gt;</text>
</g>
</g>
</svg>
