<?xml version="1.0" encoding="UTF-8" standalone="no"?>
<!DOCTYPE svg PUBLIC "-//W3C//DTD SVG 1.1//EN"
 "http://www.w3.org/Graphics/SVG/1.1/DTD/svg11.dtd">
<!-- Generated by graphviz version 2.43.0 (0)
 -->
<!-- Title: FTensor::Dg_plus_Dg_210&lt; A, B, T, U, Dim, i, j, k &gt; Pages: 1 -->
<svg width="662pt" height="134pt"
 viewBox="0.00 0.00 662.00 134.43" xmlns="http://www.w3.org/2000/svg" xmlns:xlink="http://www.w3.org/1999/xlink">
<g id="graph0" class="graph" transform="scale(1 1) rotate(0) translate(4 130.43)">
<title>FTensor::Dg_plus_Dg_210&lt; A, B, T, U, Dim, i, j, k &gt;</title>
<polygon fill="white" stroke="transparent" points="-4,4 -4,-130.43 658,-130.43 658,4 -4,4"/>
<!-- Node1 -->
<g id="node1" class="node">
<title>Node1</title>
<g id="a_node1"><a xlink:title=" ">
<polygon fill="#bfbfbf" stroke="black" points="529,-27.93 529,-68.93 654,-68.93 654,-27.93 529,-27.93"/>
<text text-anchor="start" x="537" y="-56.93" font-family="Helvetica,sans-Serif" font-size="10.00">FTensor::Dg_plus_Dg</text>
<text text-anchor="start" x="537" y="-45.93" font-family="Helvetica,sans-Serif" font-size="10.00">_210&lt; A, B, T, U, Dim,</text>
<text text-anchor="middle" x="591.5" y="-34.93" font-family="Helvetica,sans-Serif" font-size="10.00"> i, j, k &gt;</text>
</a>
</g>
</g>
<!-- Node2 -->
<g id="node2" class="node">
<title>Node2</title>
<g id="a_node2"><a xlink:href="classFTensor_1_1Dg__Expr.html" target="_top" xlink:title=" ">
<polygon fill="white" stroke="black" points="345,-58.43 345,-88.43 466,-88.43 466,-58.43 345,-58.43"/>
<text text-anchor="start" x="353" y="-76.43" font-family="Helvetica,sans-Serif" font-size="10.00">FTensor::Dg_Expr&lt; B,</text>
<text text-anchor="middle" x="405.5" y="-65.43" font-family="Helvetica,sans-Serif" font-size="10.00"> U, Dim, Dim, k, j, i &gt;</text>
</a>
</g>
</g>
<!-- Node2&#45;&gt;Node1 -->
<g id="edge1" class="edge">
<title>Node2&#45;&gt;Node1</title>
<path fill="none" stroke="#9a32cd" stroke-dasharray="5,2" d="M476.27,-63.95C493.57,-61.6 511.98,-59.1 528.85,-56.81"/>
<polygon fill="#9a32cd" stroke="#9a32cd" points="475.68,-60.5 466.24,-65.32 476.62,-67.44 475.68,-60.5"/>
<text text-anchor="middle" x="497.5" y="-64.43" font-family="Helvetica,sans-Serif" font-size="10.00"> iterB</text>
</g>
<!-- Node3 -->
<g id="node3" class="node">
<title>Node3</title>
<g id="a_node3"><a xlink:title=" ">
<polygon fill="white" stroke="#bfbfbf" points="131,-106.93 131,-125.93 160,-125.93 160,-106.93 131,-106.93"/>
<text text-anchor="middle" x="145.5" y="-113.93" font-family="Helvetica,sans-Serif" font-size="10.00">B</text>
</a>
</g>
</g>
<!-- Node3&#45;&gt;Node2 -->
<g id="edge2" class="edge">
<title>Node3&#45;&gt;Node2</title>
<path fill="none" stroke="#9a32cd" stroke-dasharray="5,2" d="M170.18,-113.31C204.74,-108.67 270.98,-99.4 327,-89.43 332.82,-88.4 338.87,-87.26 344.9,-86.08"/>
<polygon fill="#9a32cd" stroke="#9a32cd" points="169.58,-109.86 160.13,-114.65 170.5,-116.8 169.58,-109.86"/>
<text text-anchor="middle" x="275.5" y="-108.43" font-family="Helvetica,sans-Serif" font-size="10.00"> iter</text>
</g>
<!-- Node4 -->
<g id="node4" class="node">
<title>Node4</title>
<g id="a_node4"><a xlink:href="classFTensor_1_1Dg__Expr.html" target="_top" xlink:title=" ">
<polygon fill="white" stroke="black" points="85,-22.93 85,-63.93 206,-63.93 206,-22.93 85,-22.93"/>
<text text-anchor="start" x="93" y="-51.93" font-family="Helvetica,sans-Serif" font-size="10.00">FTensor::Dg_Expr&lt; A,</text>
<text text-anchor="start" x="93" y="-40.93" font-family="Helvetica,sans-Serif" font-size="10.00"> T, Dim01, Dim2, i,</text>
<text text-anchor="middle" x="145.5" y="-29.93" font-family="Helvetica,sans-Serif" font-size="10.00"> j, k &gt;</text>
</a>
</g>
</g>
<!-- Node4&#45;&gt;Node2 -->
<g id="edge3" class="edge">
<title>Node4&#45;&gt;Node2</title>
<path fill="none" stroke="orange" stroke-dasharray="5,2" d="M216.02,-51.52C256.26,-56.2 306.4,-62.02 344.84,-66.49"/>
<polygon fill="orange" stroke="orange" points="216.35,-48.03 206.01,-50.35 215.54,-54.98 216.35,-48.03"/>
<text text-anchor="start" x="224" y="-77.43" font-family="Helvetica,sans-Serif" font-size="10.00"> &lt; B, U, Dim, Dim, k,</text>
<text text-anchor="middle" x="275.5" y="-66.43" font-family="Helvetica,sans-Serif" font-size="10.00"> j, i &gt;</text>
</g>
<!-- Node6 -->
<g id="node6" class="node">
<title>Node6</title>
<g id="a_node6"><a xlink:href="classFTensor_1_1Dg__Expr.html" target="_top" xlink:title=" ">
<polygon fill="white" stroke="black" points="345,-9.43 345,-39.43 466,-39.43 466,-9.43 345,-9.43"/>
<text text-anchor="start" x="353" y="-27.43" font-family="Helvetica,sans-Serif" font-size="10.00">FTensor::Dg_Expr&lt; A,</text>
<text text-anchor="middle" x="405.5" y="-16.43" font-family="Helvetica,sans-Serif" font-size="10.00"> T, Dim, Dim, i, j, k &gt;</text>
</a>
</g>
</g>
<!-- Node4&#45;&gt;Node6 -->
<g id="edge7" class="edge">
<title>Node4&#45;&gt;Node6</title>
<path fill="none" stroke="orange" stroke-dasharray="5,2" d="M216.37,-28.38C218.94,-28.03 221.49,-27.71 224,-27.43 264.19,-22.99 309.7,-22.26 344.98,-22.63"/>
<polygon fill="orange" stroke="orange" points="215.76,-24.94 206.4,-29.91 216.82,-31.86 215.76,-24.94"/>
<text text-anchor="start" x="226.5" y="-41.43" font-family="Helvetica,sans-Serif" font-size="10.00"> &lt; A, T, Dim, Dim, i,</text>
<text text-anchor="middle" x="275.5" y="-30.43" font-family="Helvetica,sans-Serif" font-size="10.00"> j, k &gt;</text>
</g>
<!-- Node5 -->
<g id="node5" class="node">
<title>Node5</title>
<g id="a_node5"><a xlink:title=" ">
<polygon fill="white" stroke="#bfbfbf" points="0,-3.93 0,-22.93 29,-22.93 29,-3.93 0,-3.93"/>
<text text-anchor="middle" x="14.5" y="-10.93" font-family="Helvetica,sans-Serif" font-size="10.00">A</text>
</a>
</g>
</g>
<!-- Node5&#45;&gt;Node4 -->
<g id="edge4" class="edge">
<title>Node5&#45;&gt;Node4</title>
<path fill="none" stroke="#9a32cd" stroke-dasharray="5,2" d="M39.19,-18.94C52.09,-21.94 68.7,-25.8 84.89,-29.57"/>
<polygon fill="#9a32cd" stroke="#9a32cd" points="39.84,-15.5 29.31,-16.64 38.25,-22.32 39.84,-15.5"/>
<text text-anchor="middle" x="57" y="-27.43" font-family="Helvetica,sans-Serif" font-size="10.00"> iter</text>
</g>
<!-- Node5&#45;&gt;Node6 -->
<g id="edge6" class="edge">
<title>Node5&#45;&gt;Node6</title>
<path fill="none" stroke="#9a32cd" stroke-dasharray="5,2" d="M38.86,-8.8C52.3,-6.37 69.53,-3.65 85,-2.43 175.49,4.68 280.49,-6.22 344.71,-15.06"/>
<polygon fill="#9a32cd" stroke="#9a32cd" points="38.19,-5.36 29.01,-10.65 39.48,-12.24 38.19,-5.36"/>
<text text-anchor="middle" x="145.5" y="-5.43" font-family="Helvetica,sans-Serif" font-size="10.00"> iter</text>
</g>
<!-- Node6&#45;&gt;Node1 -->
<g id="edge5" class="edge">
<title>Node6&#45;&gt;Node1</title>
<path fill="none" stroke="#9a32cd" stroke-dasharray="5,2" d="M476.31,-32.1C487.91,-33.47 499.8,-34.94 511,-36.43 516.81,-37.2 522.86,-38.05 528.9,-38.91"/>
<polygon fill="#9a32cd" stroke="#9a32cd" points="476.57,-28.61 466.23,-30.92 475.75,-35.56 476.57,-28.61"/>
<text text-anchor="middle" x="497.5" y="-39.43" font-family="Helvetica,sans-Serif" font-size="10.00"> iterA</text>
</g>
</g>
</svg>
