<?xml version="1.0" encoding="UTF-8" standalone="no"?>
<!DOCTYPE svg PUBLIC "-//W3C//DTD SVG 1.1//EN"
 "http://www.w3.org/Graphics/SVG/1.1/DTD/svg11.dtd">
<!-- Generated by graphviz version 2.43.0 (0)
 -->
<!-- Title: FTensor::Tensor4_times_Tensor1_3&lt; A, B, T, U, Dim0, Dim1, Dim2, Dim3, i, j, k, l &gt; Pages: 1 -->
<svg width="678pt" height="122pt"
 viewBox="0.00 0.00 678.00 121.50" xmlns="http://www.w3.org/2000/svg" xmlns:xlink="http://www.w3.org/1999/xlink">
<g id="graph0" class="graph" transform="scale(1 1) rotate(0) translate(4 117.5)">
<title>FTensor::Tensor4_times_Tensor1_3&lt; A, B, T, U, Dim0, Dim1, Dim2, Dim3, i, j, k, l &gt;</title>
<polygon fill="white" stroke="transparent" points="-4,4 -4,-117.5 674,-117.5 674,4 -4,4"/>
<!-- Node1 -->
<g id="node1" class="node">
<title>Node1</title>
<g id="a_node1"><a xlink:title=" ">
<polygon fill="#bfbfbf" stroke="black" points="524,-39.5 524,-91.5 670,-91.5 670,-39.5 524,-39.5"/>
<text text-anchor="start" x="532" y="-79.5" font-family="Helvetica,sans-Serif" font-size="10.00">FTensor::Tensor4_times</text>
<text text-anchor="start" x="532" y="-68.5" font-family="Helvetica,sans-Serif" font-size="10.00">_Tensor1_3&lt; A, B, T, U,</text>
<text text-anchor="start" x="532" y="-57.5" font-family="Helvetica,sans-Serif" font-size="10.00"> Dim0, Dim1, Dim2, Dim3,</text>
<text text-anchor="middle" x="597" y="-46.5" font-family="Helvetica,sans-Serif" font-size="10.00"> i, j, k, l &gt;</text>
</a>
</g>
</g>
<!-- Node2 -->
<g id="node2" class="node">
<title>Node2</title>
<g id="a_node2"><a xlink:title=" ">
<polygon fill="white" stroke="#bfbfbf" points="333,-72 333,-113 461,-113 461,-72 333,-72"/>
<text text-anchor="start" x="341" y="-101" font-family="Helvetica,sans-Serif" font-size="10.00">const Tensor4_Expr</text>
<text text-anchor="start" x="341" y="-90" font-family="Helvetica,sans-Serif" font-size="10.00">&lt; A, T, Dim0, Dim1,</text>
<text text-anchor="middle" x="397" y="-79" font-family="Helvetica,sans-Serif" font-size="10.00"> Dim2, Dim3, i, j, k, l &gt;</text>
</a>
</g>
</g>
<!-- Node2&#45;&gt;Node1 -->
<g id="edge1" class="edge">
<title>Node2&#45;&gt;Node1</title>
<path fill="none" stroke="#9a32cd" stroke-dasharray="5,2" d="M471.16,-82.52C488.34,-80.18 506.63,-77.69 523.76,-75.35"/>
<polygon fill="#9a32cd" stroke="#9a32cd" points="470.63,-79.06 461.19,-83.88 471.57,-86 470.63,-79.06"/>
<text text-anchor="middle" x="492.5" y="-83.5" font-family="Helvetica,sans-Serif" font-size="10.00"> iterA</text>
</g>
<!-- Node3 -->
<g id="node3" class="node">
<title>Node3</title>
<g id="a_node3"><a xlink:href="classFTensor_1_1Tensor1__Expr.html" target="_top" xlink:title=" ">
<polygon fill="white" stroke="black" points="335,-22.5 335,-52.5 459,-52.5 459,-22.5 335,-22.5"/>
<text text-anchor="start" x="343" y="-40.5" font-family="Helvetica,sans-Serif" font-size="10.00">FTensor::Tensor1_Expr</text>
<text text-anchor="middle" x="397" y="-29.5" font-family="Helvetica,sans-Serif" font-size="10.00">&lt; B, U, Dim3, l &gt;</text>
</a>
</g>
</g>
<!-- Node3&#45;&gt;Node1 -->
<g id="edge2" class="edge">
<title>Node3&#45;&gt;Node1</title>
<path fill="none" stroke="#9a32cd" stroke-dasharray="5,2" d="M469.28,-47.58C486.97,-50.08 505.96,-52.77 523.71,-55.28"/>
<polygon fill="#9a32cd" stroke="#9a32cd" points="469.41,-44.06 459.02,-46.13 468.43,-51 469.41,-44.06"/>
<text text-anchor="middle" x="492.5" y="-54.5" font-family="Helvetica,sans-Serif" font-size="10.00"> iterB</text>
</g>
<!-- Node4 -->
<g id="node4" class="node">
<title>Node4</title>
<g id="a_node4"><a xlink:title=" ">
<polygon fill="white" stroke="#bfbfbf" points="132.5,-50 132.5,-69 161.5,-69 161.5,-50 132.5,-50"/>
<text text-anchor="middle" x="147" y="-57" font-family="Helvetica,sans-Serif" font-size="10.00">B</text>
</a>
</g>
</g>
<!-- Node4&#45;&gt;Node3 -->
<g id="edge3" class="edge">
<title>Node4&#45;&gt;Node3</title>
<path fill="none" stroke="#9a32cd" stroke-dasharray="5,2" d="M172.05,-57.37C209.33,-54.06 282.24,-47.59 334.75,-42.93"/>
<polygon fill="#9a32cd" stroke="#9a32cd" points="171.34,-53.92 161.69,-58.29 171.96,-60.89 171.34,-53.92"/>
<text text-anchor="middle" x="271" y="-54.5" font-family="Helvetica,sans-Serif" font-size="10.00"> iter</text>
</g>
<!-- Node5 -->
<g id="node5" class="node">
<title>Node5</title>
<g id="a_node5"><a xlink:href="classFTensor_1_1Tensor1__Expr.html" target="_top" xlink:title=" ">
<polygon fill="white" stroke="black" points="85,-0.5 85,-30.5 209,-30.5 209,-0.5 85,-0.5"/>
<text text-anchor="start" x="93" y="-18.5" font-family="Helvetica,sans-Serif" font-size="10.00">FTensor::Tensor1_Expr</text>
<text text-anchor="middle" x="147" y="-7.5" font-family="Helvetica,sans-Serif" font-size="10.00">&lt; A, T, Dim, i &gt;</text>
</a>
</g>
</g>
<!-- Node5&#45;&gt;Node3 -->
<g id="edge4" class="edge">
<title>Node5&#45;&gt;Node3</title>
<path fill="none" stroke="orange" stroke-dasharray="5,2" d="M219.4,-21.83C255.96,-25.08 300.01,-28.99 334.97,-32.09"/>
<polygon fill="orange" stroke="orange" points="219.57,-18.34 209.3,-20.94 218.95,-25.31 219.57,-18.34"/>
<text text-anchor="middle" x="271" y="-33.5" font-family="Helvetica,sans-Serif" font-size="10.00"> &lt; B, U, Dim3, l &gt;</text>
</g>
<!-- Node6 -->
<g id="node6" class="node">
<title>Node6</title>
<g id="a_node6"><a xlink:title=" ">
<polygon fill="white" stroke="#bfbfbf" points="0,-6 0,-25 29,-25 29,-6 0,-6"/>
<text text-anchor="middle" x="14.5" y="-13" font-family="Helvetica,sans-Serif" font-size="10.00">A</text>
</a>
</g>
</g>
<!-- Node6&#45;&gt;Node5 -->
<g id="edge5" class="edge">
<title>Node6&#45;&gt;Node5</title>
<path fill="none" stroke="#9a32cd" stroke-dasharray="5,2" d="M39.69,-15.5C52.47,-15.5 68.79,-15.5 84.79,-15.5"/>
<polygon fill="#9a32cd" stroke="#9a32cd" points="39.47,-12 29.47,-15.5 39.47,-19 39.47,-12"/>
<text text-anchor="middle" x="57" y="-18.5" font-family="Helvetica,sans-Serif" font-size="10.00"> iter</text>
</g>
</g>
</svg>
