<?xml version="1.0" encoding="UTF-8" standalone="no"?>
<!DOCTYPE svg PUBLIC "-//W3C//DTD SVG 1.1//EN"
 "http://www.w3.org/Graphics/SVG/1.1/DTD/svg11.dtd">
<!-- Generated by graphviz version 2.43.0 (0)
 -->
<!-- Title: FTensor::ddTensor2_symmetric&lt; T, Dim01, Dim23, i, j, k, l &gt; Pages: 1 -->
<svg width="742pt" height="204pt"
 viewBox="0.00 0.00 742.00 204.00" xmlns="http://www.w3.org/2000/svg" xmlns:xlink="http://www.w3.org/1999/xlink">
<g id="graph0" class="graph" transform="scale(1 1) rotate(0) translate(4 200)">
<title>FTensor::ddTensor2_symmetric&lt; T, Dim01, Dim23, i, j, k, l &gt;</title>
<polygon fill="white" stroke="transparent" points="-4,4 -4,-200 738,-200 738,4 -4,4"/>
<!-- Node1 -->
<g id="node1" class="node">
<title>Node1</title>
<g id="a_node1"><a xlink:title=" ">
<polygon fill="#bfbfbf" stroke="black" points="601,-79.5 601,-120.5 734,-120.5 734,-79.5 601,-79.5"/>
<text text-anchor="start" x="609" y="-108.5" font-family="Helvetica,sans-Serif" font-size="10.00">FTensor::ddTensor2</text>
<text text-anchor="start" x="609" y="-97.5" font-family="Helvetica,sans-Serif" font-size="10.00">_symmetric&lt; T, Dim01,</text>
<text text-anchor="middle" x="667.5" y="-86.5" font-family="Helvetica,sans-Serif" font-size="10.00"> Dim23, i, j, k, l &gt;</text>
</a>
</g>
</g>
<!-- Node2 -->
<g id="node2" class="node">
<title>Node2</title>
<g id="a_node2"><a xlink:href="classFTensor_1_1Tensor2__symmetric.html" target="_top" xlink:title=" ">
<polygon fill="white" stroke="black" points="378,-141 378,-171 533,-171 533,-141 378,-141"/>
<text text-anchor="start" x="386" y="-159" font-family="Helvetica,sans-Serif" font-size="10.00">FTensor::Tensor2_symmetric</text>
<text text-anchor="middle" x="455.5" y="-148" font-family="Helvetica,sans-Serif" font-size="10.00">&lt; T *, Dim01 &gt;</text>
</a>
</g>
</g>
<!-- Node2&#45;&gt;Node1 -->
<g id="edge1" class="edge">
<title>Node2&#45;&gt;Node1</title>
<path fill="none" stroke="#9a32cd" stroke-dasharray="5,2" d="M522.51,-138.4C547.46,-131.74 575.83,-124.18 600.75,-117.53"/>
<polygon fill="#9a32cd" stroke="#9a32cd" points="521.54,-135.03 512.78,-140.99 523.34,-141.8 521.54,-135.03"/>
<text text-anchor="middle" x="567" y="-132" font-family="Helvetica,sans-Serif" font-size="10.00"> a</text>
</g>
<!-- Node3 -->
<g id="node3" class="node">
<title>Node3</title>
<g id="a_node3"><a xlink:title=" ">
<polygon fill="white" stroke="#bfbfbf" points="0,-146.5 0,-165.5 29,-165.5 29,-146.5 0,-146.5"/>
<text text-anchor="middle" x="14.5" y="-153.5" font-family="Helvetica,sans-Serif" font-size="10.00">T</text>
</a>
</g>
</g>
<!-- Node3&#45;&gt;Node2 -->
<g id="edge2" class="edge">
<title>Node3&#45;&gt;Node2</title>
<path fill="none" stroke="#9a32cd" stroke-dasharray="5,2" d="M38.37,-167.59C41.23,-168.83 44.16,-170.01 47,-171 65.52,-177.48 70.51,-178.76 90,-181 189.09,-192.37 303.98,-180.34 377.87,-169.37"/>
<polygon fill="#9a32cd" stroke="#9a32cd" points="39.57,-164.29 29.03,-163.23 36.61,-170.63 39.57,-164.29"/>
<text text-anchor="middle" x="167.5" y="-188" font-family="Helvetica,sans-Serif" font-size="10.00"> data</text>
</g>
<!-- Node4 -->
<g id="node4" class="node">
<title>Node4</title>
<g id="a_node4"><a xlink:href="classFTensor_1_1Tensor2__symmetric.html" target="_top" xlink:title=" ">
<polygon fill="white" stroke="black" points="90,-141 90,-171 245,-171 245,-141 90,-141"/>
<text text-anchor="start" x="98" y="-159" font-family="Helvetica,sans-Serif" font-size="10.00">FTensor::Tensor2_symmetric</text>
<text text-anchor="middle" x="167.5" y="-148" font-family="Helvetica,sans-Serif" font-size="10.00">&lt; T, Tensor_Dim &gt;</text>
</a>
</g>
</g>
<!-- Node3&#45;&gt;Node4 -->
<g id="edge4" class="edge">
<title>Node3&#45;&gt;Node4</title>
<path fill="none" stroke="#9a32cd" stroke-dasharray="5,2" d="M39.2,-156C53.02,-156 71.29,-156 89.67,-156"/>
<polygon fill="#9a32cd" stroke="#9a32cd" points="39.17,-152.5 29.17,-156 39.17,-159.5 39.17,-152.5"/>
<text text-anchor="middle" x="59.5" y="-159" font-family="Helvetica,sans-Serif" font-size="10.00"> data</text>
</g>
<!-- Node7 -->
<g id="node7" class="node">
<title>Node7</title>
<g id="a_node7"><a xlink:href="classFTensor_1_1Tensor1.html" target="_top" xlink:title=" ">
<polygon fill="white" stroke="black" points="109,-53 109,-83 226,-83 226,-53 109,-53"/>
<text text-anchor="start" x="117" y="-71" font-family="Helvetica,sans-Serif" font-size="10.00">FTensor::Tensor1&lt; T,</text>
<text text-anchor="middle" x="167.5" y="-60" font-family="Helvetica,sans-Serif" font-size="10.00"> Tensor_Dim &gt;</text>
</a>
</g>
</g>
<!-- Node3&#45;&gt;Node7 -->
<g id="edge8" class="edge">
<title>Node3&#45;&gt;Node7</title>
<path fill="none" stroke="#9a32cd" stroke-dasharray="5,2" d="M31.78,-138.96C45.99,-124.93 67.78,-105.39 90,-93 96.71,-89.26 104.07,-85.97 111.49,-83.11"/>
<polygon fill="#9a32cd" stroke="#9a32cd" points="29.25,-136.54 24.7,-146.11 34.22,-141.46 29.25,-136.54"/>
<text text-anchor="middle" x="59.5" y="-127" font-family="Helvetica,sans-Serif" font-size="10.00"> data</text>
</g>
<!-- Node4&#45;&gt;Node2 -->
<g id="edge3" class="edge">
<title>Node4&#45;&gt;Node2</title>
<path fill="none" stroke="orange" stroke-dasharray="5,2" d="M255.42,-156C294.38,-156 339.95,-156 377.65,-156"/>
<polygon fill="orange" stroke="orange" points="255.14,-152.5 245.14,-156 255.14,-159.5 255.14,-152.5"/>
<text text-anchor="middle" x="311.5" y="-159" font-family="Helvetica,sans-Serif" font-size="10.00"> &lt; T *, Dim01 &gt;</text>
</g>
<!-- Node5 -->
<g id="node5" class="node">
<title>Node5</title>
<g id="a_node5"><a xlink:href="classFTensor_1_1Tensor1.html" target="_top" xlink:title=" ">
<polygon fill="white" stroke="black" points="383.5,-85 383.5,-115 527.5,-115 527.5,-85 383.5,-85"/>
<text text-anchor="start" x="391.5" y="-103" font-family="Helvetica,sans-Serif" font-size="10.00">FTensor::Tensor1&lt; double,</text>
<text text-anchor="middle" x="455.5" y="-92" font-family="Helvetica,sans-Serif" font-size="10.00"> Dim23 &gt;</text>
</a>
</g>
</g>
<!-- Node5&#45;&gt;Node1 -->
<g id="edge5" class="edge">
<title>Node5&#45;&gt;Node1</title>
<path fill="none" stroke="#9a32cd" stroke-dasharray="5,2" d="M537.72,-100C558.6,-100 580.8,-100 600.78,-100"/>
<polygon fill="#9a32cd" stroke="#9a32cd" points="537.6,-96.5 527.6,-100 537.6,-103.5 537.6,-96.5"/>
<text text-anchor="middle" x="567" y="-103" font-family="Helvetica,sans-Serif" font-size="10.00"> d_xyz</text>
</g>
<!-- Node6 -->
<g id="node6" class="node">
<title>Node6</title>
<g id="a_node6"><a xlink:href="classdouble.html" target="_top" xlink:title=" ">
<polygon fill="white" stroke="black" points="142.5,-102.5 142.5,-121.5 192.5,-121.5 192.5,-102.5 142.5,-102.5"/>
<text text-anchor="middle" x="167.5" y="-109.5" font-family="Helvetica,sans-Serif" font-size="10.00">double</text>
</a>
</g>
</g>
<!-- Node6&#45;&gt;Node5 -->
<g id="edge6" class="edge">
<title>Node6&#45;&gt;Node5</title>
<path fill="none" stroke="#9a32cd" stroke-dasharray="5,2" d="M202.89,-110.56C247.35,-108.69 325.88,-105.4 383.42,-102.98"/>
<polygon fill="#9a32cd" stroke="#9a32cd" points="202.73,-107.06 192.88,-110.98 203.02,-114.05 202.73,-107.06"/>
<text text-anchor="middle" x="311.5" y="-110" font-family="Helvetica,sans-Serif" font-size="10.00"> data</text>
</g>
<!-- Node7&#45;&gt;Node5 -->
<g id="edge7" class="edge">
<title>Node7&#45;&gt;Node5</title>
<path fill="none" stroke="orange" stroke-dasharray="5,2" d="M236.4,-75.33C273.02,-79.32 318.99,-84.36 360,-89 367.55,-89.85 375.44,-90.76 383.3,-91.66"/>
<polygon fill="orange" stroke="orange" points="236.65,-71.84 226.33,-74.24 235.9,-78.8 236.65,-71.84"/>
<text text-anchor="middle" x="311.5" y="-92" font-family="Helvetica,sans-Serif" font-size="10.00"> &lt; double, Dim23 &gt;</text>
</g>
<!-- Node8 -->
<g id="node8" class="node">
<title>Node8</title>
<g id="a_node8"><a xlink:href="classFTensor_1_1Tensor1.html" target="_top" xlink:title=" ">
<polygon fill="white" stroke="black" points="393.5,-29 393.5,-59 517.5,-59 517.5,-29 393.5,-29"/>
<text text-anchor="start" x="401.5" y="-47" font-family="Helvetica,sans-Serif" font-size="10.00">FTensor::Tensor1&lt; int,</text>
<text text-anchor="middle" x="455.5" y="-36" font-family="Helvetica,sans-Serif" font-size="10.00"> Dim23 &gt;</text>
</a>
</g>
</g>
<!-- Node7&#45;&gt;Node8 -->
<g id="edge11" class="edge">
<title>Node7&#45;&gt;Node8</title>
<path fill="none" stroke="orange" stroke-dasharray="5,2" d="M231.08,-50.6C241.66,-48.29 252.59,-46.28 263,-45 306.39,-39.68 355.74,-39.56 393.47,-40.7"/>
<polygon fill="orange" stroke="orange" points="230.04,-47.25 221.08,-52.9 231.61,-54.07 230.04,-47.25"/>
<text text-anchor="middle" x="311.5" y="-48" font-family="Helvetica,sans-Serif" font-size="10.00"> &lt; int, Dim23 &gt;</text>
</g>
<!-- Node8&#45;&gt;Node1 -->
<g id="edge9" class="edge">
<title>Node8&#45;&gt;Node1</title>
<path fill="none" stroke="#9a32cd" stroke-dasharray="5,2" d="M522.51,-61.6C547.46,-68.26 575.83,-75.82 600.75,-82.47"/>
<polygon fill="#9a32cd" stroke="#9a32cd" points="523.34,-58.2 512.78,-59.01 521.54,-64.97 523.34,-58.2"/>
<text text-anchor="middle" x="567" y="-81" font-family="Helvetica,sans-Serif" font-size="10.00"> d_ijk</text>
</g>
<!-- Node9 -->
<g id="node9" class="node">
<title>Node9</title>
<g id="a_node9"><a xlink:title=" ">
<polygon fill="white" stroke="#bfbfbf" points="153,-0.5 153,-19.5 182,-19.5 182,-0.5 153,-0.5"/>
<text text-anchor="middle" x="167.5" y="-7.5" font-family="Helvetica,sans-Serif" font-size="10.00">int</text>
</a>
</g>
</g>
<!-- Node9&#45;&gt;Node8 -->
<g id="edge10" class="edge">
<title>Node9&#45;&gt;Node8</title>
<path fill="none" stroke="#9a32cd" stroke-dasharray="5,2" d="M192.08,-11.17C228.31,-13.15 299.79,-17.77 360,-26 370.84,-27.48 382.32,-29.38 393.4,-31.39"/>
<polygon fill="#9a32cd" stroke="#9a32cd" points="192.19,-7.67 182.02,-10.64 191.82,-14.66 192.19,-7.67"/>
<text text-anchor="middle" x="311.5" y="-29" font-family="Helvetica,sans-Serif" font-size="10.00"> data</text>
</g>
</g>
</svg>
