<?xml version="1.0" encoding="UTF-8" standalone="no"?>
<!DOCTYPE svg PUBLIC "-//W3C//DTD SVG 1.1//EN"
 "http://www.w3.org/Graphics/SVG/1.1/DTD/svg11.dtd">
<!-- Generated by graphviz version 2.43.0 (0)
 -->
<!-- Title: FTensor::Ddg_times_Tensor2_symmetric_01&lt; A, B, T, U, Dim01, Dim23, i, j, k, l &gt; Pages: 1 -->
<svg width="757pt" height="110pt"
 viewBox="0.00 0.00 757.00 110.00" xmlns="http://www.w3.org/2000/svg" xmlns:xlink="http://www.w3.org/1999/xlink">
<g id="graph0" class="graph" transform="scale(1 1) rotate(0) translate(4 106)">
<title>FTensor::Ddg_times_Tensor2_symmetric_01&lt; A, B, T, U, Dim01, Dim23, i, j, k, l &gt;</title>
<polygon fill="white" stroke="transparent" points="-4,4 -4,-106 753,-106 753,4 -4,4"/>
<!-- Node1 -->
<g id="node1" class="node">
<title>Node1</title>
<g id="a_node1"><a xlink:title=" ">
<polygon fill="#bfbfbf" stroke="black" points="597,-36.5 597,-88.5 749,-88.5 749,-36.5 597,-36.5"/>
<text text-anchor="start" x="605" y="-76.5" font-family="Helvetica,sans-Serif" font-size="10.00">FTensor::Ddg_times</text>
<text text-anchor="start" x="605" y="-65.5" font-family="Helvetica,sans-Serif" font-size="10.00">_Tensor2_symmetric_01</text>
<text text-anchor="start" x="605" y="-54.5" font-family="Helvetica,sans-Serif" font-size="10.00">&lt; A, B, T, U, Dim01, Dim23,</text>
<text text-anchor="middle" x="673" y="-43.5" font-family="Helvetica,sans-Serif" font-size="10.00"> i, j, k, l &gt;</text>
</a>
</g>
</g>
<!-- Node2 -->
<g id="node2" class="node">
<title>Node2</title>
<g id="a_node2"><a xlink:title=" ">
<polygon fill="white" stroke="#bfbfbf" points="389.5,-71.5 389.5,-101.5 523.5,-101.5 523.5,-71.5 389.5,-71.5"/>
<text text-anchor="start" x="397.5" y="-89.5" font-family="Helvetica,sans-Serif" font-size="10.00">Ddg_Expr&lt; A, T, Dim01,</text>
<text text-anchor="middle" x="456.5" y="-78.5" font-family="Helvetica,sans-Serif" font-size="10.00"> Dim23, i, j, k, l &gt;</text>
</a>
</g>
</g>
<!-- Node2&#45;&gt;Node1 -->
<g id="edge1" class="edge">
<title>Node2&#45;&gt;Node1</title>
<path fill="none" stroke="#9a32cd" stroke-dasharray="5,2" d="M533.81,-77.96C554.26,-75.67 576.35,-73.2 596.74,-70.92"/>
<polygon fill="#9a32cd" stroke="#9a32cd" points="533.16,-74.51 523.61,-79.1 533.93,-81.47 533.16,-74.51"/>
<text text-anchor="middle" x="565.5" y="-77.5" font-family="Helvetica,sans-Serif" font-size="10.00"> iterA</text>
</g>
<!-- Node3 -->
<g id="node3" class="node">
<title>Node3</title>
<g id="a_node3"><a xlink:href="classFTensor_1_1Tensor2__symmetric__Expr.html" target="_top" xlink:title=" ">
<polygon fill="white" stroke="black" points="379,-22.5 379,-52.5 534,-52.5 534,-22.5 379,-22.5"/>
<text text-anchor="start" x="387" y="-40.5" font-family="Helvetica,sans-Serif" font-size="10.00">FTensor::Tensor2_symmetric</text>
<text text-anchor="middle" x="456.5" y="-29.5" font-family="Helvetica,sans-Serif" font-size="10.00">_Expr&lt; B, U, Dim01, i, j &gt;</text>
</a>
</g>
</g>
<!-- Node3&#45;&gt;Node1 -->
<g id="edge2" class="edge">
<title>Node3&#45;&gt;Node1</title>
<path fill="none" stroke="#9a32cd" stroke-dasharray="5,2" d="M544.21,-47.61C561.68,-49.64 579.91,-51.77 596.94,-53.75"/>
<polygon fill="#9a32cd" stroke="#9a32cd" points="544.37,-44.1 534.03,-46.42 543.56,-51.05 544.37,-44.1"/>
<text text-anchor="middle" x="565.5" y="-53.5" font-family="Helvetica,sans-Serif" font-size="10.00"> iterB</text>
</g>
<!-- Node4 -->
<g id="node4" class="node">
<title>Node4</title>
<g id="a_node4"><a xlink:title=" ">
<polygon fill="white" stroke="#bfbfbf" points="148,-50 148,-69 177,-69 177,-50 148,-50"/>
<text text-anchor="middle" x="162.5" y="-57" font-family="Helvetica,sans-Serif" font-size="10.00">B</text>
</a>
</g>
</g>
<!-- Node4&#45;&gt;Node3 -->
<g id="edge3" class="edge">
<title>Node4&#45;&gt;Node3</title>
<path fill="none" stroke="#9a32cd" stroke-dasharray="5,2" d="M187.36,-57.7C228.64,-54.59 315.08,-48.08 378.71,-43.29"/>
<polygon fill="#9a32cd" stroke="#9a32cd" points="186.9,-54.23 177.19,-58.47 187.43,-61.21 186.9,-54.23"/>
<text text-anchor="middle" x="309.5" y="-54.5" font-family="Helvetica,sans-Serif" font-size="10.00"> iter</text>
</g>
<!-- Node5 -->
<g id="node5" class="node">
<title>Node5</title>
<g id="a_node5"><a xlink:href="classFTensor_1_1Tensor2__symmetric__Expr.html" target="_top" xlink:title=" ">
<polygon fill="white" stroke="black" points="85,-0.5 85,-30.5 240,-30.5 240,-0.5 85,-0.5"/>
<text text-anchor="start" x="93" y="-18.5" font-family="Helvetica,sans-Serif" font-size="10.00">FTensor::Tensor2_symmetric</text>
<text text-anchor="middle" x="162.5" y="-7.5" font-family="Helvetica,sans-Serif" font-size="10.00">_Expr&lt; A, T, Dim, i, j &gt;</text>
</a>
</g>
</g>
<!-- Node5&#45;&gt;Node3 -->
<g id="edge4" class="edge">
<title>Node5&#45;&gt;Node3</title>
<path fill="none" stroke="orange" stroke-dasharray="5,2" d="M250.42,-22.05C291.2,-25.12 339.38,-28.75 378.79,-31.72"/>
<polygon fill="orange" stroke="orange" points="250.45,-18.54 240.22,-21.28 249.93,-25.52 250.45,-18.54"/>
<text text-anchor="middle" x="309.5" y="-33.5" font-family="Helvetica,sans-Serif" font-size="10.00"> &lt; B, U, Dim01, i, j &gt;</text>
</g>
<!-- Node6 -->
<g id="node6" class="node">
<title>Node6</title>
<g id="a_node6"><a xlink:title=" ">
<polygon fill="white" stroke="#bfbfbf" points="0,-6 0,-25 29,-25 29,-6 0,-6"/>
<text text-anchor="middle" x="14.5" y="-13" font-family="Helvetica,sans-Serif" font-size="10.00">A</text>
</a>
</g>
</g>
<!-- Node6&#45;&gt;Node5 -->
<g id="edge5" class="edge">
<title>Node6&#45;&gt;Node5</title>
<path fill="none" stroke="#9a32cd" stroke-dasharray="5,2" d="M39.33,-15.5C52,-15.5 68.37,-15.5 84.98,-15.5"/>
<polygon fill="#9a32cd" stroke="#9a32cd" points="39.24,-12 29.24,-15.5 39.24,-19 39.24,-12"/>
<text text-anchor="middle" x="57" y="-18.5" font-family="Helvetica,sans-Serif" font-size="10.00"> iter</text>
</g>
</g>
</svg>
