<?xml version="1.0" encoding="UTF-8" standalone="no"?>
<!DOCTYPE svg PUBLIC "-//W3C//DTD SVG 1.1//EN"
 "http://www.w3.org/Graphics/SVG/1.1/DTD/svg11.dtd">
<!-- Generated by graphviz version 2.43.0 (0)
 -->
<!-- Title: FTensor::Dg_Expr&lt; Dg&lt; A, Tensor_Dim01, Tensor_Dim2 &gt;, T, Dim01, Dim2, i, j, k &gt; Pages: 1 -->
<svg width="229pt" height="295pt"
 viewBox="0.00 0.00 228.50 295.00" xmlns="http://www.w3.org/2000/svg" xmlns:xlink="http://www.w3.org/1999/xlink">
<g id="graph0" class="graph" transform="scale(1 1) rotate(0) translate(4 291)">
<title>FTensor::Dg_Expr&lt; Dg&lt; A, Tensor_Dim01, Tensor_Dim2 &gt;, T, Dim01, Dim2, i, j, k &gt;</title>
<polygon fill="white" stroke="transparent" points="-4,4 -4,-291 224.5,-291 224.5,4 -4,4"/>
<!-- Node1 -->
<g id="node1" class="node">
<title>Node1</title>
<g id="a_node1"><a xlink:title=" ">
<polygon fill="#bfbfbf" stroke="black" points="0,-0.5 0,-52.5 147,-52.5 147,-0.5 0,-0.5"/>
<text text-anchor="start" x="8" y="-40.5" font-family="Helvetica,sans-Serif" font-size="10.00">FTensor::Dg_Expr&lt; Dg</text>
<text text-anchor="start" x="8" y="-29.5" font-family="Helvetica,sans-Serif" font-size="10.00">&lt; A, Tensor_Dim01, Tensor</text>
<text text-anchor="start" x="8" y="-18.5" font-family="Helvetica,sans-Serif" font-size="10.00">_Dim2 &gt;, T, Dim01, Dim2,</text>
<text text-anchor="middle" x="73.5" y="-7.5" font-family="Helvetica,sans-Serif" font-size="10.00"> i, j, k &gt;</text>
</a>
</g>
</g>
<!-- Node2 -->
<g id="node2" class="node">
<title>Node2</title>
<g id="a_node2"><a xlink:href="classFTensor_1_1Dg.html" target="_top" xlink:title=" ">
<polygon fill="white" stroke="black" points="6.5,-100.5 6.5,-130.5 140.5,-130.5 140.5,-100.5 6.5,-100.5"/>
<text text-anchor="start" x="14.5" y="-118.5" font-family="Helvetica,sans-Serif" font-size="10.00">FTensor::Dg&lt; A, Tensor</text>
<text text-anchor="middle" x="73.5" y="-107.5" font-family="Helvetica,sans-Serif" font-size="10.00">_Dim01, Tensor_Dim2 &gt;</text>
</a>
</g>
</g>
<!-- Node2&#45;&gt;Node1 -->
<g id="edge1" class="edge">
<title>Node2&#45;&gt;Node1</title>
<path fill="none" stroke="#9a32cd" stroke-dasharray="5,2" d="M73.5,-89.85C73.5,-78.26 73.5,-64.46 73.5,-52.8"/>
<polygon fill="#9a32cd" stroke="#9a32cd" points="70,-90.13 73.5,-100.13 77,-90.13 70,-90.13"/>
<text text-anchor="middle" x="83.5" y="-74" font-family="Helvetica,sans-Serif" font-size="10.00"> iter</text>
</g>
<!-- Node3 -->
<g id="node3" class="node">
<title>Node3</title>
<g id="a_node3"><a xlink:title=" ">
<polygon fill="white" stroke="#bfbfbf" points="35,-195 35,-214 64,-214 64,-195 35,-195"/>
<text text-anchor="middle" x="49.5" y="-202" font-family="Helvetica,sans-Serif" font-size="10.00">A</text>
</a>
</g>
</g>
<!-- Node3&#45;&gt;Node2 -->
<g id="edge2" class="edge">
<title>Node3&#45;&gt;Node2</title>
<path fill="none" stroke="#9a32cd" stroke-dasharray="5,2" d="M54.64,-184.88C59.13,-168.59 65.55,-145.31 69.62,-130.55"/>
<polygon fill="#9a32cd" stroke="#9a32cd" points="51.17,-184.27 51.89,-194.84 57.92,-186.13 51.17,-184.27"/>
<text text-anchor="middle" x="77" y="-157.5" font-family="Helvetica,sans-Serif" font-size="10.00"> data</text>
</g>
<!-- Node4 -->
<g id="node4" class="node">
<title>Node4</title>
<g id="a_node4"><a xlink:href="classFTensor_1_1Dg.html" target="_top" xlink:title=" ">
<polygon fill="white" stroke="black" points="82.5,-189.5 82.5,-219.5 216.5,-219.5 216.5,-189.5 82.5,-189.5"/>
<text text-anchor="start" x="90.5" y="-207.5" font-family="Helvetica,sans-Serif" font-size="10.00">FTensor::Dg&lt; T, Tensor</text>
<text text-anchor="middle" x="149.5" y="-196.5" font-family="Helvetica,sans-Serif" font-size="10.00">_Dim01, Tensor_Dim2 &gt;</text>
</a>
</g>
</g>
<!-- Node4&#45;&gt;Node2 -->
<g id="edge3" class="edge">
<title>Node4&#45;&gt;Node2</title>
<path fill="none" stroke="orange" stroke-dasharray="5,2" d="M130.12,-181.32C116.18,-165.36 97.8,-144.31 85.82,-130.6"/>
<polygon fill="orange" stroke="orange" points="127.74,-183.91 136.95,-189.13 133.01,-179.3 127.74,-183.91"/>
<text text-anchor="start" x="120.5" y="-163" font-family="Helvetica,sans-Serif" font-size="10.00"> &lt; A, Tensor_Dim01,</text>
<text text-anchor="middle" x="170.5" y="-152" font-family="Helvetica,sans-Serif" font-size="10.00"> Tensor_Dim2 &gt;</text>
</g>
<!-- Node5 -->
<g id="node5" class="node">
<title>Node5</title>
<g id="a_node5"><a xlink:title=" ">
<polygon fill="white" stroke="#bfbfbf" points="135,-267.5 135,-286.5 164,-286.5 164,-267.5 135,-267.5"/>
<text text-anchor="middle" x="149.5" y="-274.5" font-family="Helvetica,sans-Serif" font-size="10.00">T</text>
</a>
</g>
</g>
<!-- Node5&#45;&gt;Node4 -->
<g id="edge4" class="edge">
<title>Node5&#45;&gt;Node4</title>
<path fill="none" stroke="#9a32cd" stroke-dasharray="5,2" d="M149.5,-257.24C149.5,-245.41 149.5,-230.38 149.5,-219.58"/>
<polygon fill="#9a32cd" stroke="#9a32cd" points="146,-257.36 149.5,-267.36 153,-257.36 146,-257.36"/>
<text text-anchor="middle" x="162" y="-241" font-family="Helvetica,sans-Serif" font-size="10.00"> data</text>
</g>
</g>
</svg>
