<?xml version="1.0" encoding="UTF-8" standalone="no"?>
<!DOCTYPE svg PUBLIC "-//W3C//DTD SVG 1.1//EN"
 "http://www.w3.org/Graphics/SVG/1.1/DTD/svg11.dtd">
<!-- Generated by graphviz version 2.43.0 (0)
 -->
<!-- Title: FTensor::Index&lt; i, Dim &gt; Pages: 1 -->
<!--zoomable 800 -->
<svg id="main" version="1.1" xmlns="http://www.w3.org/2000/svg" xmlns:xlink="http://www.w3.org/1999/xlink" xml:space="preserve" onload="init(evt)">
<style type="text/css"><![CDATA[
.edge:hover path { stroke: red; }
.edge:hover polygon { stroke: red; fill: red; }
]]></style>
<script type="text/javascript"><![CDATA[
var edges = document.getElementsByTagName('g');
if (edges && edges.length) {
  for (var i=0;i<edges.length;i++) {
    if (edges[i].id.substr(0,4)=='edge') {
      edges[i].setAttribute('class','edge');
    }
  }
}
]]></script>
        <defs>
                <circle id="rim" cx="0" cy="0" r="7"/>
                <circle id="rim2" cx="0" cy="0" r="3.5"/>
                <g id="zoomPlus">
                        <use xlink:href="#rim" fill="#404040">
                                <set attributeName="fill" to="#808080" begin="zoomplus.mouseover" end="zoomplus.mouseout"/>
                        </use>
                        <path d="M-4,0h8M0,-4v8" fill="none" stroke="white" stroke-width="1.5" pointer-events="none"/>
                </g>
                <g id="zoomMin">
                        <use xlink:href="#rim" fill="#404040">
                                <set attributeName="fill" to="#808080" begin="zoomminus.mouseover" end="zoomminus.mouseout"/>
                        </use>
                        <path d="M-4,0h8" fill="none" stroke="white" stroke-width="1.5" pointer-events="none"/>
                </g>
                <g id="dirArrow">
                        <path fill="none" stroke="white" stroke-width="1.5" d="M0,-3.0v7 M-2.5,-0.5L0,-3.0L2.5,-0.5"/>
                </g>
               <g id="resetDef">
                       <use xlink:href="#rim2" fill="#404040">
                               <set attributeName="fill" to="#808080" begin="reset.mouseover" end="reset.mouseout"/>
                       </use>
               </g>
        </defs>

<script type="text/javascript">
var viewWidth = 380;
var viewHeight = 800;
var sectionId = 'dynsection-0';
</script>
<script xlink:href="svgpan.js"/>
<svg id="graph" class="graph">
<g id="viewport">
<title>FTensor::Index&lt; i, Dim &gt;</title>
<polygon fill="white" stroke="transparent" points="-4,4 -4,-795.5 376,-795.5 376,4 -4,4"/>
<!-- Node1 -->
<g id="node1" class="node">
<title>Node1</title>
<g id="a_node1"><a xlink:title=" ">
<polygon fill="#bfbfbf" stroke="black" points="0,-364.5 0,-394.5 104,-394.5 104,-364.5 0,-364.5"/>
<text text-anchor="start" x="8" y="-382.5" font-family="Helvetica,sans-Serif" font-size="10.00">FTensor::Index&lt; i,</text>
<text text-anchor="middle" x="52" y="-371.5" font-family="Helvetica,sans-Serif" font-size="10.00"> Dim &gt;</text>
</a>
</g>
</g>
<!-- Node2 -->
<g id="node2" class="node">
<title>Node2</title>
<g id="a_node2"><a xlink:href="classFTensor_1_1Index.html" target="_top" xlink:title=" ">
<polygon fill="white" stroke="black" points="250,-760.5 250,-790.5 360,-790.5 360,-760.5 250,-760.5"/>
<text text-anchor="start" x="258" y="-778.5" font-family="Helvetica,sans-Serif" font-size="10.00">FTensor::Index&lt; &#39;i&#39;,</text>
<text text-anchor="middle" x="305" y="-767.5" font-family="Helvetica,sans-Serif" font-size="10.00"> Tensor_Dim &gt;</text>
</a>
</g>
</g>
<!-- Node1&#45;&gt;Node2 -->
<g id="edge1" class="edge">
<title>Node1&#45;&gt;Node2</title>
<path fill="none" stroke="orange" stroke-dasharray="5,2" d="M54.14,-405.37C58.02,-480.75 73.29,-697.89 122,-745.5 155.21,-777.95 209.19,-783.27 249.75,-781.78"/>
<polygon fill="orange" stroke="orange" points="57.61,-404.74 53.63,-394.92 50.62,-405.08 57.61,-404.74"/>
<text text-anchor="middle" x="171" y="-783.5" font-family="Helvetica,sans-Serif" font-size="10.00"> &lt; &#39;i&#39;, Tensor_Dim &gt;</text>
</g>
<!-- Node3 -->
<g id="node3" class="node">
<title>Node3</title>
<g id="a_node3"><a xlink:href="classFTensor_1_1Index.html" target="_top" xlink:title=" ">
<polygon fill="white" stroke="black" points="250,-711.5 250,-741.5 360,-741.5 360,-711.5 250,-711.5"/>
<text text-anchor="start" x="258" y="-729.5" font-family="Helvetica,sans-Serif" font-size="10.00">FTensor::Index&lt; &#39;i&#39;,</text>
<text text-anchor="middle" x="305" y="-718.5" font-family="Helvetica,sans-Serif" font-size="10.00"> SPACE_DIM &gt;</text>
</a>
</g>
</g>
<!-- Node1&#45;&gt;Node3 -->
<g id="edge2" class="edge">
<title>Node1&#45;&gt;Node3</title>
<path fill="none" stroke="orange" stroke-dasharray="5,2" d="M54.98,-404.85C60.79,-472.4 80.09,-654.3 122,-694.5 155.57,-726.7 209.5,-732.69 249.96,-731.83"/>
<polygon fill="orange" stroke="orange" points="58.45,-404.35 54.14,-394.68 51.48,-404.93 58.45,-404.35"/>
<text text-anchor="middle" x="171" y="-733.5" font-family="Helvetica,sans-Serif" font-size="10.00"> &lt; &#39;i&#39;, SPACE_DIM &gt;</text>
</g>
<!-- Node4 -->
<g id="node4" class="node">
<title>Node4</title>
<g id="a_node4"><a xlink:href="classFTensor_1_1Index.html" target="_top" xlink:title=" ">
<polygon fill="white" stroke="black" points="250,-662.5 250,-692.5 360,-692.5 360,-662.5 250,-662.5"/>
<text text-anchor="start" x="258" y="-680.5" font-family="Helvetica,sans-Serif" font-size="10.00">FTensor::Index&lt; &#39;i&#39;,</text>
<text text-anchor="middle" x="305" y="-669.5" font-family="Helvetica,sans-Serif" font-size="10.00"> DIM_01 &gt;</text>
</a>
</g>
</g>
<!-- Node1&#45;&gt;Node4 -->
<g id="edge3" class="edge">
<title>Node1&#45;&gt;Node4</title>
<path fill="none" stroke="orange" stroke-dasharray="5,2" d="M56.14,-404.66C64.07,-464.11 86.84,-610.75 122,-643.5 155.99,-675.16 209.59,-681.91 249.84,-681.79"/>
<polygon fill="orange" stroke="orange" points="59.59,-404.08 54.83,-394.62 52.65,-404.99 59.59,-404.08"/>
<text text-anchor="middle" x="171" y="-682.5" font-family="Helvetica,sans-Serif" font-size="10.00"> &lt; &#39;i&#39;, DIM_01 &gt;</text>
</g>
<!-- Node5 -->
<g id="node5" class="node">
<title>Node5</title>
<g id="a_node5"><a xlink:href="classFTensor_1_1Index.html" target="_top" xlink:title=" ">
<polygon fill="white" stroke="black" points="250,-613.5 250,-643.5 360,-643.5 360,-613.5 250,-613.5"/>
<text text-anchor="start" x="258" y="-631.5" font-family="Helvetica,sans-Serif" font-size="10.00">FTensor::Index&lt; &#39;j&#39;,</text>
<text text-anchor="middle" x="305" y="-620.5" font-family="Helvetica,sans-Serif" font-size="10.00"> DIM &gt;</text>
</a>
</g>
</g>
<!-- Node1&#45;&gt;Node5 -->
<g id="edge4" class="edge">
<title>Node1&#45;&gt;Node5</title>
<path fill="none" stroke="orange" stroke-dasharray="5,2" d="M53.44,-404.53C55.66,-449.18 67.03,-542.47 122,-591.5 156.65,-622.41 209.9,-630.25 249.87,-631.2"/>
<polygon fill="orange" stroke="orange" points="56.94,-404.39 53.06,-394.53 49.94,-404.65 56.94,-404.39"/>
<text text-anchor="middle" x="171" y="-631.5" font-family="Helvetica,sans-Serif" font-size="10.00"> &lt; &#39;j&#39;, DIM &gt;</text>
</g>
<!-- Node6 -->
<g id="node6" class="node">
<title>Node6</title>
<g id="a_node6"><a xlink:href="classFTensor_1_1Index.html" target="_top" xlink:title=" ">
<polygon fill="white" stroke="black" points="250,-564.5 250,-594.5 360,-594.5 360,-564.5 250,-564.5"/>
<text text-anchor="start" x="258" y="-582.5" font-family="Helvetica,sans-Serif" font-size="10.00">FTensor::Index&lt; &#39;i&#39;,</text>
<text text-anchor="middle" x="305" y="-571.5" font-family="Helvetica,sans-Serif" font-size="10.00"> DIM &gt;</text>
</a>
</g>
</g>
<!-- Node1&#45;&gt;Node6 -->
<g id="edge5" class="edge">
<title>Node1&#45;&gt;Node6</title>
<path fill="none" stroke="orange" stroke-dasharray="5,2" d="M56.59,-404.6C63.06,-440.23 80.14,-504.95 122,-539.5 157.68,-568.95 210.29,-577.98 249.78,-580.21"/>
<polygon fill="orange" stroke="orange" points="60.01,-403.83 54.91,-394.55 53.11,-404.99 60.01,-403.83"/>
<text text-anchor="middle" x="171" y="-579.5" font-family="Helvetica,sans-Serif" font-size="10.00"> &lt; &#39;i&#39;, DIM &gt;</text>
</g>
<!-- Node7 -->
<g id="node7" class="node">
<title>Node7</title>
<g id="a_node7"><a xlink:href="classFTensor_1_1Index.html" target="_top" xlink:title=" ">
<polygon fill="white" stroke="black" points="250,-515.5 250,-545.5 360,-545.5 360,-515.5 250,-515.5"/>
<text text-anchor="start" x="258" y="-533.5" font-family="Helvetica,sans-Serif" font-size="10.00">FTensor::Index&lt; &#39;j&#39;,</text>
<text text-anchor="middle" x="305" y="-522.5" font-family="Helvetica,sans-Serif" font-size="10.00"> SPACE_DIM &gt;</text>
</a>
</g>
</g>
<!-- Node1&#45;&gt;Node7 -->
<g id="edge6" class="edge">
<title>Node1&#45;&gt;Node7</title>
<path fill="none" stroke="orange" stroke-dasharray="5,2" d="M61.77,-403.95C72.16,-429.33 91.95,-468.23 122,-489.5 159.4,-515.98 211.06,-525.72 249.79,-529.12"/>
<polygon fill="orange" stroke="orange" points="65.03,-402.67 58.12,-394.63 58.51,-405.22 65.03,-402.67"/>
<text text-anchor="middle" x="171" y="-527.5" font-family="Helvetica,sans-Serif" font-size="10.00"> &lt; &#39;j&#39;, SPACE_DIM &gt;</text>
</g>
<!-- Node8 -->
<g id="node8" class="node">
<title>Node8</title>
<g id="a_node8"><a xlink:href="classFTensor_1_1Index.html" target="_top" xlink:title=" ">
<polygon fill="white" stroke="black" points="240,-477 240,-496 370,-496 370,-477 240,-477"/>
<text text-anchor="middle" x="305" y="-484" font-family="Helvetica,sans-Serif" font-size="10.00">FTensor::Index&lt; &#39;i&#39;, 2 &gt;</text>
</a>
</g>
</g>
<!-- Node1&#45;&gt;Node8 -->
<g id="edge7" class="edge">
<title>Node1&#45;&gt;Node8</title>
<path fill="none" stroke="orange" stroke-dasharray="5,2" d="M72.31,-402.17C85.09,-415.79 102.96,-432.38 122,-442.5 158.45,-461.88 203.53,-472.86 239.7,-479"/>
<polygon fill="orange" stroke="orange" points="74.72,-399.61 65.4,-394.57 69.54,-404.32 74.72,-399.61"/>
<text text-anchor="middle" x="171" y="-477.5" font-family="Helvetica,sans-Serif" font-size="10.00"> &lt; &#39;i&#39;, 2 &gt;</text>
</g>
<!-- Node9 -->
<g id="node9" class="node">
<title>Node9</title>
<g id="a_node9"><a xlink:href="classFTensor_1_1Index.html" target="_top" xlink:title=" ">
<polygon fill="white" stroke="black" points="248.5,-427.5 248.5,-457.5 361.5,-457.5 361.5,-427.5 248.5,-427.5"/>
<text text-anchor="start" x="256.5" y="-445.5" font-family="Helvetica,sans-Serif" font-size="10.00">FTensor::Index&lt; &#39;k&#39;,</text>
<text text-anchor="middle" x="305" y="-434.5" font-family="Helvetica,sans-Serif" font-size="10.00"> DIM_23 &gt;</text>
</a>
</g>
</g>
<!-- Node1&#45;&gt;Node9 -->
<g id="edge8" class="edge">
<title>Node1&#45;&gt;Node9</title>
<path fill="none" stroke="orange" stroke-dasharray="5,2" d="M97.62,-398.29C105.65,-401.29 114.01,-404.17 122,-406.5 163.74,-418.69 212.07,-428.03 248.43,-434.14"/>
<polygon fill="orange" stroke="orange" points="98.63,-394.93 88.04,-394.6 96.11,-401.46 98.63,-394.93"/>
<text text-anchor="middle" x="171" y="-430.5" font-family="Helvetica,sans-Serif" font-size="10.00"> &lt; &#39;k&#39;, DIM_23 &gt;</text>
</g>
<!-- Node10 -->
<g id="node10" class="node">
<title>Node10</title>
<g id="a_node10"><a xlink:href="classFTensor_1_1Index.html" target="_top" xlink:title=" ">
<polygon fill="white" stroke="black" points="240,-389 240,-408 370,-408 370,-389 240,-389"/>
<text text-anchor="middle" x="305" y="-396" font-family="Helvetica,sans-Serif" font-size="10.00">FTensor::Index&lt; &#39;j&#39;, 2 &gt;</text>
</a>
</g>
</g>
<!-- Node1&#45;&gt;Node10 -->
<g id="edge9" class="edge">
<title>Node1&#45;&gt;Node10</title>
<path fill="none" stroke="orange" stroke-dasharray="5,2" d="M114.5,-384.16C152.46,-387.03 201.08,-390.71 239.57,-393.62"/>
<polygon fill="orange" stroke="orange" points="114.33,-380.63 104.1,-383.37 113.8,-387.61 114.33,-380.63"/>
<text text-anchor="middle" x="171" y="-394.5" font-family="Helvetica,sans-Serif" font-size="10.00"> &lt; &#39;j&#39;, 2 &gt;</text>
</g>
<!-- Node11 -->
<g id="node11" class="node">
<title>Node11</title>
<g id="a_node11"><a xlink:href="classFTensor_1_1Index.html" target="_top" xlink:title=" ">
<polygon fill="white" stroke="black" points="240,-351 240,-370 370,-370 370,-351 240,-351"/>
<text text-anchor="middle" x="305" y="-358" font-family="Helvetica,sans-Serif" font-size="10.00">FTensor::Index&lt; &#39;i&#39;, 3 &gt;</text>
</a>
</g>
</g>
<!-- Node1&#45;&gt;Node11 -->
<g id="edge10" class="edge">
<title>Node1&#45;&gt;Node11</title>
<path fill="none" stroke="orange" stroke-dasharray="5,2" d="M114.29,-370.31C116.89,-370.02 119.47,-369.75 122,-369.5 161.05,-365.71 204.97,-363.48 239.88,-362.19"/>
<polygon fill="orange" stroke="orange" points="113.69,-366.86 104.18,-371.53 114.53,-373.81 113.69,-366.86"/>
<text text-anchor="middle" x="171" y="-372.5" font-family="Helvetica,sans-Serif" font-size="10.00"> &lt; &#39;i&#39;, 3 &gt;</text>
</g>
<!-- Node12 -->
<g id="node12" class="node">
<title>Node12</title>
<g id="a_node12"><a xlink:href="classFTensor_1_1Index.html" target="_top" xlink:title=" ">
<polygon fill="white" stroke="black" points="238.5,-313 238.5,-332 371.5,-332 371.5,-313 238.5,-313"/>
<text text-anchor="middle" x="305" y="-320" font-family="Helvetica,sans-Serif" font-size="10.00">FTensor::Index&lt; &#39;k&#39;, 2 &gt;</text>
</a>
</g>
</g>
<!-- Node1&#45;&gt;Node12 -->
<g id="edge11" class="edge">
<title>Node1&#45;&gt;Node12</title>
<path fill="none" stroke="orange" stroke-dasharray="5,2" d="M89.55,-360.1C99.81,-355.33 111.13,-350.69 122,-347.5 159.64,-336.46 203.13,-330.25 238.15,-326.79"/>
<polygon fill="orange" stroke="orange" points="87.96,-356.98 80.46,-364.47 90.99,-363.28 87.96,-356.98"/>
<text text-anchor="middle" x="171" y="-350.5" font-family="Helvetica,sans-Serif" font-size="10.00"> &lt; &#39;k&#39;, 2 &gt;</text>
</g>
<!-- Node13 -->
<g id="node13" class="node">
<title>Node13</title>
<g id="a_node13"><a xlink:href="classFTensor_1_1Index.html" target="_top" xlink:title=" ">
<polygon fill="white" stroke="black" points="240,-275 240,-294 370,-294 370,-275 240,-275"/>
<text text-anchor="middle" x="305" y="-282" font-family="Helvetica,sans-Serif" font-size="10.00">FTensor::Index&lt; &#39;j&#39;, 3 &gt;</text>
</a>
</g>
</g>
<!-- Node1&#45;&gt;Node13 -->
<g id="edge12" class="edge">
<title>Node1&#45;&gt;Node13</title>
<path fill="none" stroke="orange" stroke-dasharray="5,2" d="M70.53,-356.69C83.18,-341.93 101.58,-323.63 122,-313.5 158.4,-295.44 203.48,-288.16 239.66,-285.41"/>
<polygon fill="orange" stroke="orange" points="67.79,-354.51 64.12,-364.45 73.19,-358.97 67.79,-354.51"/>
<text text-anchor="middle" x="171" y="-316.5" font-family="Helvetica,sans-Serif" font-size="10.00"> &lt; &#39;j&#39;, 3 &gt;</text>
</g>
<!-- Node14 -->
<g id="node14" class="node">
<title>Node14</title>
<g id="a_node14"><a xlink:href="classFTensor_1_1Index.html" target="_top" xlink:title=" ">
<polygon fill="white" stroke="black" points="250,-225.5 250,-255.5 360,-255.5 360,-225.5 250,-225.5"/>
<text text-anchor="start" x="258" y="-243.5" font-family="Helvetica,sans-Serif" font-size="10.00">FTensor::Index&lt; &#39;l&#39;,</text>
<text text-anchor="middle" x="305" y="-232.5" font-family="Helvetica,sans-Serif" font-size="10.00"> DIM_23 &gt;</text>
</a>
</g>
</g>
<!-- Node1&#45;&gt;Node14 -->
<g id="edge13" class="edge">
<title>Node1&#45;&gt;Node14</title>
<path fill="none" stroke="orange" stroke-dasharray="5,2" d="M62.06,-354.7C72.53,-329.76 92.22,-292.27 122,-272.5 159.69,-247.48 211.07,-240.32 249.63,-238.92"/>
<polygon fill="orange" stroke="orange" points="58.72,-353.62 58.26,-364.21 65.22,-356.22 58.72,-353.62"/>
<text text-anchor="middle" x="171" y="-275.5" font-family="Helvetica,sans-Serif" font-size="10.00"> &lt; &#39;l&#39;, DIM_23 &gt;</text>
</g>
<!-- Node15 -->
<g id="node15" class="node">
<title>Node15</title>
<g id="a_node15"><a xlink:href="classFTensor_1_1Index.html" target="_top" xlink:title=" ">
<polygon fill="white" stroke="black" points="238.5,-187 238.5,-206 371.5,-206 371.5,-187 238.5,-187"/>
<text text-anchor="middle" x="305" y="-194" font-family="Helvetica,sans-Serif" font-size="10.00">FTensor::Index&lt; &#39;k&#39;, 3 &gt;</text>
</a>
</g>
</g>
<!-- Node1&#45;&gt;Node15 -->
<g id="edge14" class="edge">
<title>Node1&#45;&gt;Node15</title>
<path fill="none" stroke="orange" stroke-dasharray="5,2" d="M56.89,-354.21C63.63,-319.56 80.93,-258.06 122,-226.5 154.75,-201.33 200.71,-193.91 238.25,-192.74"/>
<polygon fill="orange" stroke="orange" points="53.37,-353.98 55.05,-364.44 60.26,-355.21 53.37,-353.98"/>
<text text-anchor="middle" x="171" y="-229.5" font-family="Helvetica,sans-Serif" font-size="10.00"> &lt; &#39;k&#39;, 3 &gt;</text>
</g>
<!-- Node16 -->
<g id="node16" class="node">
<title>Node16</title>
<g id="a_node16"><a xlink:href="classFTensor_1_1Index.html" target="_top" xlink:title=" ">
<polygon fill="white" stroke="black" points="250,-137.5 250,-167.5 360,-167.5 360,-137.5 250,-137.5"/>
<text text-anchor="start" x="258" y="-155.5" font-family="Helvetica,sans-Serif" font-size="10.00">FTensor::Index&lt; &#39;j&#39;,</text>
<text text-anchor="middle" x="305" y="-144.5" font-family="Helvetica,sans-Serif" font-size="10.00"> Tensor_Dim &gt;</text>
</a>
</g>
</g>
<!-- Node1&#45;&gt;Node16 -->
<g id="edge15" class="edge">
<title>Node1&#45;&gt;Node16</title>
<path fill="none" stroke="orange" stroke-dasharray="5,2" d="M53.68,-354.25C56.32,-310.93 68.38,-222.84 122,-178.5 157.3,-149.31 210.21,-144.67 249.9,-146.24"/>
<polygon fill="orange" stroke="orange" points="50.17,-354.33 53.18,-364.49 57.16,-354.67 50.17,-354.33"/>
<text text-anchor="middle" x="171" y="-181.5" font-family="Helvetica,sans-Serif" font-size="10.00"> &lt; &#39;j&#39;, Tensor_Dim &gt;</text>
</g>
<!-- Node17 -->
<g id="node17" class="node">
<title>Node17</title>
<g id="a_node17"><a xlink:href="classFTensor_1_1Index.html" target="_top" xlink:title=" ">
<polygon fill="white" stroke="black" points="238,-99 238,-118 372,-118 372,-99 238,-99"/>
<text text-anchor="middle" x="305" y="-106" font-family="Helvetica,sans-Serif" font-size="10.00">FTensor::Index&lt; &#39;Z&#39;, 6 &gt;</text>
</a>
</g>
</g>
<!-- Node1&#45;&gt;Node17 -->
<g id="edge16" class="edge">
<title>Node1&#45;&gt;Node17</title>
<path fill="none" stroke="orange" stroke-dasharray="5,2" d="M56.47,-354.18C64.85,-297.06 88.01,-160.87 122,-131.5 153.33,-104.43 199.77,-98.92 237.9,-100.06"/>
<polygon fill="orange" stroke="orange" points="52.99,-353.79 55.04,-364.19 59.92,-354.79 52.99,-353.79"/>
<text text-anchor="middle" x="171" y="-134.5" font-family="Helvetica,sans-Serif" font-size="10.00"> &lt; &#39;Z&#39;, 6 &gt;</text>
</g>
<!-- Node18 -->
<g id="node18" class="node">
<title>Node18</title>
<g id="a_node18"><a xlink:href="classFTensor_1_1Index.html" target="_top" xlink:title=" ">
<polygon fill="white" stroke="black" points="250,-49.5 250,-79.5 360,-79.5 360,-49.5 250,-49.5"/>
<text text-anchor="start" x="258" y="-67.5" font-family="Helvetica,sans-Serif" font-size="10.00">FTensor::Index&lt; &#39;j&#39;,</text>
<text text-anchor="middle" x="305" y="-56.5" font-family="Helvetica,sans-Serif" font-size="10.00"> DIM_01 &gt;</text>
</a>
</g>
</g>
<!-- Node1&#45;&gt;Node18 -->
<g id="edge17" class="edge">
<title>Node1&#45;&gt;Node18</title>
<path fill="none" stroke="orange" stroke-dasharray="5,2" d="M55.22,-354.32C61.47,-289.68 81.44,-120.45 122,-84.5 156.25,-54.14 209.56,-51.6 249.64,-55.2"/>
<polygon fill="orange" stroke="orange" points="51.72,-354.16 54.27,-364.44 58.69,-354.81 51.72,-354.16"/>
<text text-anchor="middle" x="171" y="-87.5" font-family="Helvetica,sans-Serif" font-size="10.00"> &lt; &#39;j&#39;, DIM_01 &gt;</text>
</g>
<!-- Node19 -->
<g id="node19" class="node">
<title>Node19</title>
<g id="a_node19"><a xlink:href="classFTensor_1_1Index.html" target="_top" xlink:title=" ">
<polygon fill="white" stroke="black" points="250,-0.5 250,-30.5 360,-30.5 360,-0.5 250,-0.5"/>
<text text-anchor="start" x="258" y="-18.5" font-family="Helvetica,sans-Serif" font-size="10.00">FTensor::Index&lt; &#39;i&#39;,</text>
<text text-anchor="middle" x="305" y="-7.5" font-family="Helvetica,sans-Serif" font-size="10.00"> FIELD_DIM &gt;</text>
</a>
</g>
</g>
<!-- Node1&#45;&gt;Node19 -->
<g id="edge18" class="edge">
<title>Node1&#45;&gt;Node19</title>
<path fill="none" stroke="orange" stroke-dasharray="5,2" d="M54.43,-353.89C58.98,-282.13 75.68,-81.51 122,-38.5 155.72,-7.18 209.36,-3.89 249.69,-6.97"/>
<polygon fill="orange" stroke="orange" points="50.91,-354.07 53.8,-364.26 57.9,-354.49 50.91,-354.07"/>
<text text-anchor="middle" x="171" y="-41.5" font-family="Helvetica,sans-Serif" font-size="10.00"> &lt; &#39;i&#39;, FIELD_DIM &gt;</text>
</g>
</g>
</svg>
        <g id="navigator" transform="translate(0 0)" fill="#404254">
                <rect fill="#f2f5e9" fill-opacity="0.5" stroke="#606060" stroke-width=".5" x="0" y="0" width="60" height="60"/>
                <use id="zoomplus" xlink:href="#zoomPlus" x="17" y="9" onmousedown="handleZoom(evt,'in')"/>
                <use id="zoomminus" xlink:href="#zoomMin" x="42" y="9" onmousedown="handleZoom(evt,'out')"/>
                <use id="reset" xlink:href="#resetDef" x="30" y="36" onmousedown="handleReset()"/>
                <g id="arrowUp" xlink:href="#dirArrow" transform="translate(30 24)" onmousedown="handlePan(0,-1)">
                  <use xlink:href="#rim" fill="#404040">
                        <set attributeName="fill" to="#808080" begin="arrowUp.mouseover" end="arrowUp.mouseout"/>
                  </use>
                  <path fill="none" stroke="white" stroke-width="1.5" d="M0,-3.0v7 M-2.5,-0.5L0,-3.0L2.5,-0.5"/>
                </g>
                <g id="arrowRight" xlink:href="#dirArrow" transform="rotate(90) translate(36 -43)" onmousedown="handlePan(1,0)">
                  <use xlink:href="#rim" fill="#404040">
                        <set attributeName="fill" to="#808080" begin="arrowRight.mouseover" end="arrowRight.mouseout"/>
                  </use>
                  <path fill="none" stroke="white" stroke-width="1.5" d="M0,-3.0v7 M-2.5,-0.5L0,-3.0L2.5,-0.5"/>
                </g>
                <g id="arrowDown" xlink:href="#dirArrow" transform="rotate(180) translate(-30 -48)" onmousedown="handlePan(0,1)">
                  <use xlink:href="#rim" fill="#404040">
                        <set attributeName="fill" to="#808080" begin="arrowDown.mouseover" end="arrowDown.mouseout"/>
                  </use>
                  <path fill="none" stroke="white" stroke-width="1.5" d="M0,-3.0v7 M-2.5,-0.5L0,-3.0L2.5,-0.5"/>
                </g>
                <g id="arrowLeft" xlink:href="#dirArrow" transform="rotate(270) translate(-36 17)" onmousedown="handlePan(-1,0)">
                  <use xlink:href="#rim" fill="#404040">
                        <set attributeName="fill" to="#808080" begin="arrowLeft.mouseover" end="arrowLeft.mouseout"/>
                  </use>
                  <path fill="none" stroke="white" stroke-width="1.5" d="M0,-3.0v7 M-2.5,-0.5L0,-3.0L2.5,-0.5"/>
                </g>
        </g>
        <svg viewBox="0 0 15 15" width="100%" height="30px" preserveAspectRatio="xMaxYMin meet">
         <g id="arrow_out" transform="scale(0.3 0.3)">
          <a xlink:href="classFTensor_1_1Index__inherit__graph_org.svg" target="_base">
           <rect id="button" ry="5" rx="5" y="6" x="6" height="38" width="38"
                fill="#f2f5e9" fill-opacity="0.5" stroke="#606060" stroke-width="1.0"/>
           <path id="arrow"
             d="M 11.500037,31.436501 C 11.940474,20.09759 22.043105,11.32322 32.158766,21.979434 L 37.068811,17.246167 C 37.068811,17.246167 37.088388,32 37.088388,32 L 22.160133,31.978069 C 22.160133,31.978069 26.997745,27.140456 26.997745,27.140456 C 18.528582,18.264221 13.291696,25.230495 11.500037,31.436501 z"
             style="fill:#404040;"/>
          </a>
         </g>
        </svg>
</svg>
