<?xml version="1.0" encoding="UTF-8" standalone="no"?>
<!DOCTYPE svg PUBLIC "-//W3C//DTD SVG 1.1//EN"
 "http://www.w3.org/Graphics/SVG/1.1/DTD/svg11.dtd">
<!-- Generated by graphviz version 2.43.0 (0)
 -->
<!-- Title: FTensor::Riemann_times_Tensor1_0&lt; A, B, T, U, Dim, i, j, k, l &gt; Pages: 1 -->
<svg width="331pt" height="273pt"
 viewBox="0.00 0.00 331.00 273.00" xmlns="http://www.w3.org/2000/svg" xmlns:xlink="http://www.w3.org/1999/xlink">
<g id="graph0" class="graph" transform="scale(1 1) rotate(0) translate(4 269)">
<title>FTensor::Riemann_times_Tensor1_0&lt; A, B, T, U, Dim, i, j, k, l &gt;</title>
<polygon fill="white" stroke="transparent" points="-4,4 -4,-269 327,-269 327,4 -4,4"/>
<!-- Node1 -->
<g id="node1" class="node">
<title>Node1</title>
<g id="a_node1"><a xlink:title=" ">
<polygon fill="#bfbfbf" stroke="black" points="17,-0.5 17,-41.5 153,-41.5 153,-0.5 17,-0.5"/>
<text text-anchor="start" x="25" y="-29.5" font-family="Helvetica,sans-Serif" font-size="10.00">FTensor::Riemann_times</text>
<text text-anchor="start" x="25" y="-18.5" font-family="Helvetica,sans-Serif" font-size="10.00">_Tensor1_0&lt; A, B, T, U,</text>
<text text-anchor="middle" x="85" y="-7.5" font-family="Helvetica,sans-Serif" font-size="10.00"> Dim, i, j, k, l &gt;</text>
</a>
</g>
</g>
<!-- Node2 -->
<g id="node2" class="node">
<title>Node2</title>
<g id="a_node2"><a xlink:title=" ">
<polygon fill="white" stroke="#bfbfbf" points="0,-89.5 0,-119.5 120,-119.5 120,-89.5 0,-89.5"/>
<text text-anchor="start" x="8" y="-107.5" font-family="Helvetica,sans-Serif" font-size="10.00">Riemann_Expr&lt; A, T,</text>
<text text-anchor="middle" x="60" y="-96.5" font-family="Helvetica,sans-Serif" font-size="10.00"> Dim, i, j, k, l &gt;</text>
</a>
</g>
</g>
<!-- Node2&#45;&gt;Node1 -->
<g id="edge1" class="edge">
<title>Node2&#45;&gt;Node1</title>
<path fill="none" stroke="#9a32cd" stroke-dasharray="5,2" d="M67.38,-79.43C71.09,-67.35 75.52,-52.91 79.01,-41.53"/>
<polygon fill="#9a32cd" stroke="#9a32cd" points="63.94,-78.72 64.35,-89.3 70.63,-80.77 63.94,-78.72"/>
<text text-anchor="middle" x="87.5" y="-63" font-family="Helvetica,sans-Serif" font-size="10.00"> iterA</text>
</g>
<!-- Node3 -->
<g id="node3" class="node">
<title>Node3</title>
<g id="a_node3"><a xlink:href="classFTensor_1_1Tensor1__Expr.html" target="_top" xlink:title=" ">
<polygon fill="white" stroke="black" points="138,-89.5 138,-119.5 262,-119.5 262,-89.5 138,-89.5"/>
<text text-anchor="start" x="146" y="-107.5" font-family="Helvetica,sans-Serif" font-size="10.00">FTensor::Tensor1_Expr</text>
<text text-anchor="middle" x="200" y="-96.5" font-family="Helvetica,sans-Serif" font-size="10.00">&lt; B, U, Dim, i &gt;</text>
</a>
</g>
</g>
<!-- Node3&#45;&gt;Node1 -->
<g id="edge2" class="edge">
<title>Node3&#45;&gt;Node1</title>
<path fill="none" stroke="#9a32cd" stroke-dasharray="5,2" d="M171.86,-83.56C153.85,-70.8 130.6,-54.31 112.68,-41.62"/>
<polygon fill="#9a32cd" stroke="#9a32cd" points="170.05,-86.56 180.23,-89.49 174.1,-80.85 170.05,-86.56"/>
<text text-anchor="middle" x="166.5" y="-63" font-family="Helvetica,sans-Serif" font-size="10.00"> iterB</text>
</g>
<!-- Node4 -->
<g id="node4" class="node">
<title>Node4</title>
<g id="a_node4"><a xlink:title=" ">
<polygon fill="white" stroke="#bfbfbf" points="151.5,-173 151.5,-192 180.5,-192 180.5,-173 151.5,-173"/>
<text text-anchor="middle" x="166" y="-180" font-family="Helvetica,sans-Serif" font-size="10.00">B</text>
</a>
</g>
</g>
<!-- Node4&#45;&gt;Node3 -->
<g id="edge3" class="edge">
<title>Node4&#45;&gt;Node3</title>
<path fill="none" stroke="#9a32cd" stroke-dasharray="5,2" d="M174.02,-163.58C180.04,-150.11 188.18,-131.93 193.73,-119.52"/>
<polygon fill="#9a32cd" stroke="#9a32cd" points="170.79,-162.22 169.9,-172.78 177.18,-165.08 170.79,-162.22"/>
<text text-anchor="middle" x="196" y="-141" font-family="Helvetica,sans-Serif" font-size="10.00"> iter</text>
</g>
<!-- Node5 -->
<g id="node5" class="node">
<title>Node5</title>
<g id="a_node5"><a xlink:href="classFTensor_1_1Tensor1__Expr.html" target="_top" xlink:title=" ">
<polygon fill="white" stroke="black" points="199,-167.5 199,-197.5 323,-197.5 323,-167.5 199,-167.5"/>
<text text-anchor="start" x="207" y="-185.5" font-family="Helvetica,sans-Serif" font-size="10.00">FTensor::Tensor1_Expr</text>
<text text-anchor="middle" x="261" y="-174.5" font-family="Helvetica,sans-Serif" font-size="10.00">&lt; A, T, Dim, i &gt;</text>
</a>
</g>
</g>
<!-- Node5&#45;&gt;Node3 -->
<g id="edge4" class="edge">
<title>Node5&#45;&gt;Node3</title>
<path fill="none" stroke="orange" stroke-dasharray="5,2" d="M243.19,-159.31C232.93,-146.53 220.35,-130.86 211.42,-119.73"/>
<polygon fill="orange" stroke="orange" points="240.54,-161.6 249.53,-167.2 246,-157.22 240.54,-161.6"/>
<text text-anchor="middle" x="275" y="-141" font-family="Helvetica,sans-Serif" font-size="10.00"> &lt; B, U, Dim, i &gt;</text>
</g>
<!-- Node6 -->
<g id="node6" class="node">
<title>Node6</title>
<g id="a_node6"><a xlink:title=" ">
<polygon fill="white" stroke="#bfbfbf" points="246.5,-245.5 246.5,-264.5 275.5,-264.5 275.5,-245.5 246.5,-245.5"/>
<text text-anchor="middle" x="261" y="-252.5" font-family="Helvetica,sans-Serif" font-size="10.00">A</text>
</a>
</g>
</g>
<!-- Node6&#45;&gt;Node5 -->
<g id="edge5" class="edge">
<title>Node6&#45;&gt;Node5</title>
<path fill="none" stroke="#9a32cd" stroke-dasharray="5,2" d="M261,-235.24C261,-223.41 261,-208.38 261,-197.58"/>
<polygon fill="#9a32cd" stroke="#9a32cd" points="257.5,-235.36 261,-245.36 264.5,-235.36 257.5,-235.36"/>
<text text-anchor="middle" x="271" y="-219" font-family="Helvetica,sans-Serif" font-size="10.00"> iter</text>
</g>
</g>
</svg>
