<?xml version="1.0" encoding="UTF-8" standalone="no"?>
<!DOCTYPE svg PUBLIC "-//W3C//DTD SVG 1.1//EN"
 "http://www.w3.org/Graphics/SVG/1.1/DTD/svg11.dtd">
<!-- Generated by graphviz version 2.43.0 (0)
 -->
<!-- Title: FTensor::Riemann_Expr&lt; Riemann&lt; A, Dim &gt;, T, Dim, i, j, k, l &gt; Pages: 1 -->
<svg width="138pt" height="206pt"
 viewBox="0.00 0.00 138.00 206.00" xmlns="http://www.w3.org/2000/svg" xmlns:xlink="http://www.w3.org/1999/xlink">
<g id="graph0" class="graph" transform="scale(1 1) rotate(0) translate(4 202)">
<title>FTensor::Riemann_Expr&lt; Riemann&lt; A, Dim &gt;, T, Dim, i, j, k, l &gt;</title>
<polygon fill="white" stroke="transparent" points="-4,4 -4,-202 134,-202 134,4 -4,4"/>
<!-- Node1 -->
<g id="node1" class="node">
<title>Node1</title>
<g id="a_node1"><a xlink:title=" ">
<polygon fill="#bfbfbf" stroke="black" points="0,-0.5 0,-41.5 130,-41.5 130,-0.5 0,-0.5"/>
<text text-anchor="start" x="8" y="-29.5" font-family="Helvetica,sans-Serif" font-size="10.00">FTensor::Riemann_Expr</text>
<text text-anchor="start" x="8" y="-18.5" font-family="Helvetica,sans-Serif" font-size="10.00">&lt; Riemann&lt; A, Dim &gt;,</text>
<text text-anchor="middle" x="65" y="-7.5" font-family="Helvetica,sans-Serif" font-size="10.00"> T, Dim, i, j, k, l &gt;</text>
</a>
</g>
</g>
<!-- Node2 -->
<g id="node2" class="node">
<title>Node2</title>
<g id="a_node2"><a xlink:href="classFTensor_1_1Riemann.html" target="_top" xlink:title=" ">
<polygon fill="white" stroke="black" points="3,-89.5 3,-119.5 127,-119.5 127,-89.5 3,-89.5"/>
<text text-anchor="start" x="11" y="-107.5" font-family="Helvetica,sans-Serif" font-size="10.00">FTensor::Riemann&lt; A,</text>
<text text-anchor="middle" x="65" y="-96.5" font-family="Helvetica,sans-Serif" font-size="10.00"> Dim &gt;</text>
</a>
</g>
</g>
<!-- Node2&#45;&gt;Node1 -->
<g id="edge1" class="edge">
<title>Node2&#45;&gt;Node1</title>
<path fill="none" stroke="#9a32cd" stroke-dasharray="5,2" d="M65,-79.07C65,-67.06 65,-52.79 65,-41.53"/>
<polygon fill="#9a32cd" stroke="#9a32cd" points="61.5,-79.3 65,-89.3 68.5,-79.3 61.5,-79.3"/>
<text text-anchor="middle" x="75" y="-63" font-family="Helvetica,sans-Serif" font-size="10.00"> iter</text>
</g>
<!-- Node3 -->
<g id="node3" class="node">
<title>Node3</title>
<g id="a_node3"><a xlink:href="classFTensor_1_1Riemann.html" target="_top" xlink:title=" ">
<polygon fill="white" stroke="black" points="3.5,-167.5 3.5,-197.5 126.5,-197.5 126.5,-167.5 3.5,-167.5"/>
<text text-anchor="start" x="11.5" y="-185.5" font-family="Helvetica,sans-Serif" font-size="10.00">FTensor::Riemann&lt; T,</text>
<text text-anchor="middle" x="65" y="-174.5" font-family="Helvetica,sans-Serif" font-size="10.00"> Dim &gt;</text>
</a>
</g>
</g>
<!-- Node3&#45;&gt;Node2 -->
<g id="edge2" class="edge">
<title>Node3&#45;&gt;Node2</title>
<path fill="none" stroke="orange" stroke-dasharray="5,2" d="M65,-157.09C65,-144.76 65,-130.22 65,-119.73"/>
<polygon fill="orange" stroke="orange" points="61.5,-157.2 65,-167.2 68.5,-157.21 61.5,-157.2"/>
<text text-anchor="middle" x="94.5" y="-141" font-family="Helvetica,sans-Serif" font-size="10.00"> &lt; A, Dim &gt;</text>
</g>
</g>
</svg>
