<?xml version="1.0" encoding="UTF-8" standalone="no"?>
<!DOCTYPE svg PUBLIC "-//W3C//DTD SVG 1.1//EN"
 "http://www.w3.org/Graphics/SVG/1.1/DTD/svg11.dtd">
<!-- Generated by graphviz version 2.43.0 (0)
 -->
<!-- Title: FTensor::Tensor4_or_Tensor4&lt; A, B, T, U, Dim01, Dim01, Dim23, Dim23, Dim01, Dim01, Dim23, Dim23, i, j, k, l, j, i, l, k &gt; Pages: 1 -->
<!--zoomable 157 -->
<svg id="main" version="1.1" xmlns="http://www.w3.org/2000/svg" xmlns:xlink="http://www.w3.org/1999/xlink" xml:space="preserve" onload="init(evt)">
<style type="text/css"><![CDATA[
.edge:hover path { stroke: red; }
.edge:hover polygon { stroke: red; fill: red; }
]]></style>
<script type="text/javascript"><![CDATA[
var edges = document.getElementsByTagName('g');
if (edges && edges.length) {
  for (var i=0;i<edges.length;i++) {
    if (edges[i].id.substr(0,4)=='edge') {
      edges[i].setAttribute('class','edge');
    }
  }
}
]]></script>
        <defs>
                <circle id="rim" cx="0" cy="0" r="7"/>
                <circle id="rim2" cx="0" cy="0" r="3.5"/>
                <g id="zoomPlus">
                        <use xlink:href="#rim" fill="#404040">
                                <set attributeName="fill" to="#808080" begin="zoomplus.mouseover" end="zoomplus.mouseout"/>
                        </use>
                        <path d="M-4,0h8M0,-4v8" fill="none" stroke="white" stroke-width="1.5" pointer-events="none"/>
                </g>
                <g id="zoomMin">
                        <use xlink:href="#rim" fill="#404040">
                                <set attributeName="fill" to="#808080" begin="zoomminus.mouseover" end="zoomminus.mouseout"/>
                        </use>
                        <path d="M-4,0h8" fill="none" stroke="white" stroke-width="1.5" pointer-events="none"/>
                </g>
                <g id="dirArrow">
                        <path fill="none" stroke="white" stroke-width="1.5" d="M0,-3.0v7 M-2.5,-0.5L0,-3.0L2.5,-0.5"/>
                </g>
               <g id="resetDef">
                       <use xlink:href="#rim2" fill="#404040">
                               <set attributeName="fill" to="#808080" begin="reset.mouseover" end="reset.mouseout"/>
                       </use>
               </g>
        </defs>

<script type="text/javascript">
var viewWidth = 724;
var viewHeight = 157;
var sectionId = 'dynsection-0';
</script>
<script xlink:href="svgpan.js"/>
<svg id="graph" class="graph">
<g id="viewport">
<title>FTensor::Tensor4_or_Tensor4&lt; A, B, T, U, Dim01, Dim01, Dim23, Dim23, Dim01, Dim01, Dim23, Dim23, i, j, k, l, j, i, l, k &gt;</title>
<polygon fill="white" stroke="transparent" points="-4,4 -4,-152.86 720,-152.86 720,4 -4,4"/>
<!-- Node1 -->
<g id="node1" class="node">
<title>Node1</title>
<g id="a_node1"><a xlink:title=" ">
<polygon fill="#bfbfbf" stroke="black" points="585,-17.86 585,-91.86 716,-91.86 716,-17.86 585,-17.86"/>
<text text-anchor="start" x="593" y="-79.86" font-family="Helvetica,sans-Serif" font-size="10.00">FTensor::Tensor4_or</text>
<text text-anchor="start" x="593" y="-68.86" font-family="Helvetica,sans-Serif" font-size="10.00">_Tensor4&lt; A, B, T, U,</text>
<text text-anchor="start" x="593" y="-57.86" font-family="Helvetica,sans-Serif" font-size="10.00"> Dim01, Dim01, Dim23,</text>
<text text-anchor="start" x="593" y="-46.86" font-family="Helvetica,sans-Serif" font-size="10.00"> Dim23, Dim01, Dim01,</text>
<text text-anchor="start" x="593" y="-35.86" font-family="Helvetica,sans-Serif" font-size="10.00"> Dim23, Dim23, i, j, k,</text>
<text text-anchor="middle" x="650.5" y="-24.86" font-family="Helvetica,sans-Serif" font-size="10.00"> l, j, i, l, k &gt;</text>
</a>
</g>
</g>
<!-- Node2 -->
<g id="node2" class="node">
<title>Node2</title>
<g id="a_node2"><a xlink:href="classFTensor_1_1Tensor4__Expr.html" target="_top" xlink:title=" ">
<polygon fill="white" stroke="black" points="382,-64.36 382,-105.36 522,-105.36 522,-64.36 382,-64.36"/>
<text text-anchor="start" x="390" y="-93.36" font-family="Helvetica,sans-Serif" font-size="10.00">FTensor::Tensor4_Expr</text>
<text text-anchor="start" x="390" y="-82.36" font-family="Helvetica,sans-Serif" font-size="10.00">&lt; B, U, Dim01, Dim01,</text>
<text text-anchor="middle" x="452" y="-71.36" font-family="Helvetica,sans-Serif" font-size="10.00"> Dim23, Dim23, j, i, l, k &gt;</text>
</a>
</g>
</g>
<!-- Node2&#45;&gt;Node1 -->
<g id="edge1" class="edge">
<title>Node2&#45;&gt;Node1</title>
<path fill="none" stroke="#9a32cd" stroke-dasharray="5,2" d="M532.2,-72.77C549.73,-70.09 568.09,-67.29 584.95,-64.72"/>
<polygon fill="#9a32cd" stroke="#9a32cd" points="531.36,-69.36 522,-74.33 532.42,-76.28 531.36,-69.36"/>
<text text-anchor="middle" x="553.5" y="-72.86" font-family="Helvetica,sans-Serif" font-size="10.00"> iterB</text>
</g>
<!-- Node3 -->
<g id="node3" class="node">
<title>Node3</title>
<g id="a_node3"><a xlink:title=" ">
<polygon fill="white" stroke="#bfbfbf" points="143.5,-129.36 143.5,-148.36 172.5,-148.36 172.5,-129.36 143.5,-129.36"/>
<text text-anchor="middle" x="158" y="-136.36" font-family="Helvetica,sans-Serif" font-size="10.00">B</text>
</a>
</g>
</g>
<!-- Node3&#45;&gt;Node2 -->
<g id="edge2" class="edge">
<title>Node3&#45;&gt;Node2</title>
<path fill="none" stroke="#9a32cd" stroke-dasharray="5,2" d="M182.74,-137.05C221.16,-133.83 299.22,-126.07 364,-111.86 372.19,-110.06 380.71,-107.85 389.09,-105.48"/>
<polygon fill="#9a32cd" stroke="#9a32cd" points="182.25,-133.58 172.57,-137.88 182.82,-140.56 182.25,-133.58"/>
<text text-anchor="middle" x="306.5" y="-132.86" font-family="Helvetica,sans-Serif" font-size="10.00"> iter</text>
</g>
<!-- Node4 -->
<g id="node4" class="node">
<title>Node4</title>
<g id="a_node4"><a xlink:href="classFTensor_1_1Tensor4__Expr.html" target="_top" xlink:title=" ">
<polygon fill="white" stroke="black" points="85,-23.36 85,-64.36 231,-64.36 231,-23.36 85,-23.36"/>
<text text-anchor="start" x="93" y="-52.36" font-family="Helvetica,sans-Serif" font-size="10.00">FTensor::Tensor4_Expr</text>
<text text-anchor="start" x="93" y="-41.36" font-family="Helvetica,sans-Serif" font-size="10.00">&lt; A, T, Dim0, Dim1, Dim2,</text>
<text text-anchor="middle" x="158" y="-30.36" font-family="Helvetica,sans-Serif" font-size="10.00"> Dim3, i, j, k, l &gt;</text>
</a>
</g>
</g>
<!-- Node4&#45;&gt;Node2 -->
<g id="edge3" class="edge">
<title>Node4&#45;&gt;Node2</title>
<path fill="none" stroke="orange" stroke-dasharray="5,2" d="M241.27,-59.64C243.87,-60.06 246.46,-60.47 249,-60.86 292.98,-67.62 342.6,-73.54 381.66,-77.81"/>
<polygon fill="orange" stroke="orange" points="241.58,-56.14 231.14,-57.94 240.42,-63.04 241.58,-56.14"/>
<text text-anchor="start" x="249" y="-99.86" font-family="Helvetica,sans-Serif" font-size="10.00"> &lt; B, U, Dim01, Dim01,</text>
<text text-anchor="start" x="249" y="-88.86" font-family="Helvetica,sans-Serif" font-size="10.00"> Dim23, Dim23, j, i,</text>
<text text-anchor="middle" x="306.5" y="-77.86" font-family="Helvetica,sans-Serif" font-size="10.00"> l, k &gt;</text>
</g>
<!-- Node6 -->
<g id="node6" class="node">
<title>Node6</title>
<g id="a_node6"><a xlink:href="classFTensor_1_1Tensor4__Expr.html" target="_top" xlink:title=" ">
<polygon fill="white" stroke="black" points="382,-4.36 382,-45.36 522,-45.36 522,-4.36 382,-4.36"/>
<text text-anchor="start" x="390" y="-33.36" font-family="Helvetica,sans-Serif" font-size="10.00">FTensor::Tensor4_Expr</text>
<text text-anchor="start" x="390" y="-22.36" font-family="Helvetica,sans-Serif" font-size="10.00">&lt; A, T, Dim01, Dim01,</text>
<text text-anchor="middle" x="452" y="-11.36" font-family="Helvetica,sans-Serif" font-size="10.00"> Dim23, Dim23, i, j, k, l &gt;</text>
</a>
</g>
</g>
<!-- Node4&#45;&gt;Node6 -->
<g id="edge7" class="edge">
<title>Node4&#45;&gt;Node6</title>
<path fill="none" stroke="orange" stroke-dasharray="5,2" d="M241.23,-28.69C243.85,-28.38 246.44,-28.1 249,-27.86 292.99,-23.65 342.61,-22.86 381.67,-23.14"/>
<polygon fill="orange" stroke="orange" points="240.54,-25.25 231.07,-29.99 241.43,-32.19 240.54,-25.25"/>
<text text-anchor="start" x="250" y="-52.86" font-family="Helvetica,sans-Serif" font-size="10.00"> &lt; A, T, Dim01, Dim01,</text>
<text text-anchor="start" x="250" y="-41.86" font-family="Helvetica,sans-Serif" font-size="10.00"> Dim23, Dim23, i, j,</text>
<text text-anchor="middle" x="306.5" y="-30.86" font-family="Helvetica,sans-Serif" font-size="10.00"> k, l &gt;</text>
</g>
<!-- Node5 -->
<g id="node5" class="node">
<title>Node5</title>
<g id="a_node5"><a xlink:title=" ">
<polygon fill="white" stroke="#bfbfbf" points="0,-4.36 0,-23.36 29,-23.36 29,-4.36 0,-4.36"/>
<text text-anchor="middle" x="14.5" y="-11.36" font-family="Helvetica,sans-Serif" font-size="10.00">A</text>
</a>
</g>
</g>
<!-- Node5&#45;&gt;Node4 -->
<g id="edge4" class="edge">
<title>Node5&#45;&gt;Node4</title>
<path fill="none" stroke="#9a32cd" stroke-dasharray="5,2" d="M39.18,-18.88C51.88,-21.57 68.27,-25.05 84.77,-28.55"/>
<polygon fill="#9a32cd" stroke="#9a32cd" points="39.58,-15.39 29.07,-16.74 38.12,-22.23 39.58,-15.39"/>
<text text-anchor="middle" x="57" y="-26.86" font-family="Helvetica,sans-Serif" font-size="10.00"> iter</text>
</g>
<!-- Node5&#45;&gt;Node6 -->
<g id="edge6" class="edge">
<title>Node5&#45;&gt;Node6</title>
<path fill="none" stroke="#9a32cd" stroke-dasharray="5,2" d="M38.86,-9.22C52.3,-6.79 69.53,-4.08 85,-2.86 188.28,5.26 308.17,-5.83 381.8,-15"/>
<polygon fill="#9a32cd" stroke="#9a32cd" points="38.19,-5.79 29.01,-11.08 39.48,-12.67 38.19,-5.79"/>
<text text-anchor="middle" x="158" y="-5.86" font-family="Helvetica,sans-Serif" font-size="10.00"> iter</text>
</g>
<!-- Node6&#45;&gt;Node1 -->
<g id="edge5" class="edge">
<title>Node6&#45;&gt;Node1</title>
<path fill="none" stroke="#9a32cd" stroke-dasharray="5,2" d="M532.2,-36.95C549.73,-39.63 568.09,-42.43 584.95,-45"/>
<polygon fill="#9a32cd" stroke="#9a32cd" points="532.42,-33.44 522,-35.39 531.36,-40.36 532.42,-33.44"/>
<text text-anchor="middle" x="553.5" y="-43.86" font-family="Helvetica,sans-Serif" font-size="10.00"> iterA</text>
</g>
</g>
</svg>
        <g id="navigator" transform="translate(0 0)" fill="#404254">
                <rect fill="#f2f5e9" fill-opacity="0.5" stroke="#606060" stroke-width=".5" x="0" y="0" width="60" height="60"/>
                <use id="zoomplus" xlink:href="#zoomPlus" x="17" y="9" onmousedown="handleZoom(evt,'in')"/>
                <use id="zoomminus" xlink:href="#zoomMin" x="42" y="9" onmousedown="handleZoom(evt,'out')"/>
                <use id="reset" xlink:href="#resetDef" x="30" y="36" onmousedown="handleReset()"/>
                <g id="arrowUp" xlink:href="#dirArrow" transform="translate(30 24)" onmousedown="handlePan(0,-1)">
                  <use xlink:href="#rim" fill="#404040">
                        <set attributeName="fill" to="#808080" begin="arrowUp.mouseover" end="arrowUp.mouseout"/>
                  </use>
                  <path fill="none" stroke="white" stroke-width="1.5" d="M0,-3.0v7 M-2.5,-0.5L0,-3.0L2.5,-0.5"/>
                </g>
                <g id="arrowRight" xlink:href="#dirArrow" transform="rotate(90) translate(36 -43)" onmousedown="handlePan(1,0)">
                  <use xlink:href="#rim" fill="#404040">
                        <set attributeName="fill" to="#808080" begin="arrowRight.mouseover" end="arrowRight.mouseout"/>
                  </use>
                  <path fill="none" stroke="white" stroke-width="1.5" d="M0,-3.0v7 M-2.5,-0.5L0,-3.0L2.5,-0.5"/>
                </g>
                <g id="arrowDown" xlink:href="#dirArrow" transform="rotate(180) translate(-30 -48)" onmousedown="handlePan(0,1)">
                  <use xlink:href="#rim" fill="#404040">
                        <set attributeName="fill" to="#808080" begin="arrowDown.mouseover" end="arrowDown.mouseout"/>
                  </use>
                  <path fill="none" stroke="white" stroke-width="1.5" d="M0,-3.0v7 M-2.5,-0.5L0,-3.0L2.5,-0.5"/>
                </g>
                <g id="arrowLeft" xlink:href="#dirArrow" transform="rotate(270) translate(-36 17)" onmousedown="handlePan(-1,0)">
                  <use xlink:href="#rim" fill="#404040">
                        <set attributeName="fill" to="#808080" begin="arrowLeft.mouseover" end="arrowLeft.mouseout"/>
                  </use>
                  <path fill="none" stroke="white" stroke-width="1.5" d="M0,-3.0v7 M-2.5,-0.5L0,-3.0L2.5,-0.5"/>
                </g>
        </g>
        <svg viewBox="0 0 15 15" width="100%" height="30px" preserveAspectRatio="xMaxYMin meet">
         <g id="arrow_out" transform="scale(0.3 0.3)">
          <a xlink:href="classFTensor_1_1Tensor4__or__Tensor4_3_01A_00_01B_00_01T_00_01U_00_01Dim01_00_01Dim01_00_01Dim23e9884d13e43825dcbb016009e2d2655a_org.svg" target="_base">
           <rect id="button" ry="5" rx="5" y="6" x="6" height="38" width="38"
                fill="#f2f5e9" fill-opacity="0.5" stroke="#606060" stroke-width="1.0"/>
           <path id="arrow"
             d="M 11.500037,31.436501 C 11.940474,20.09759 22.043105,11.32322 32.158766,21.979434 L 37.068811,17.246167 C 37.068811,17.246167 37.088388,32 37.088388,32 L 22.160133,31.978069 C 22.160133,31.978069 26.997745,27.140456 26.997745,27.140456 C 18.528582,18.264221 13.291696,25.230495 11.500037,31.436501 z"
             style="fill:#404040;"/>
          </a>
         </g>
        </svg>
</svg>
