<?xml version="1.0" encoding="UTF-8" standalone="no"?>
<!DOCTYPE svg PUBLIC "-//W3C//DTD SVG 1.1//EN"
 "http://www.w3.org/Graphics/SVG/1.1/DTD/svg11.dtd">
<!-- Generated by graphviz version 2.43.0 (0)
 -->
<!-- Title: FTensor::Ddg_times_Tensor1_0&lt; A, B, T, U, Dim01, Dim23, i, j, k, l &gt; Pages: 1 -->
<svg width="660pt" height="102pt"
 viewBox="0.00 0.00 660.00 101.50" xmlns="http://www.w3.org/2000/svg" xmlns:xlink="http://www.w3.org/1999/xlink">
<g id="graph0" class="graph" transform="scale(1 1) rotate(0) translate(4 97.5)">
<title>FTensor::Ddg_times_Tensor1_0&lt; A, B, T, U, Dim01, Dim23, i, j, k, l &gt;</title>
<polygon fill="white" stroke="transparent" points="-4,4 -4,-97.5 656,-97.5 656,4 -4,4"/>
<!-- Node1 -->
<g id="node1" class="node">
<title>Node1</title>
<g id="a_node1"><a xlink:title=" ">
<polygon fill="#bfbfbf" stroke="black" points="536,-6.5 536,-58.5 652,-58.5 652,-6.5 536,-6.5"/>
<text text-anchor="start" x="544" y="-46.5" font-family="Helvetica,sans-Serif" font-size="10.00">FTensor::Ddg_times</text>
<text text-anchor="start" x="544" y="-35.5" font-family="Helvetica,sans-Serif" font-size="10.00">_Tensor1_0&lt; A, B, T,</text>
<text text-anchor="start" x="544" y="-24.5" font-family="Helvetica,sans-Serif" font-size="10.00"> U, Dim01, Dim23, i,</text>
<text text-anchor="middle" x="594" y="-13.5" font-family="Helvetica,sans-Serif" font-size="10.00"> j, k, l &gt;</text>
</a>
</g>
</g>
<!-- Node2 -->
<g id="node2" class="node">
<title>Node2</title>
<g id="a_node2"><a xlink:href="classFTensor_1_1Tensor1__Expr.html" target="_top" xlink:title=" ">
<polygon fill="white" stroke="black" points="344,-49.5 344,-79.5 468,-79.5 468,-49.5 344,-49.5"/>
<text text-anchor="start" x="352" y="-67.5" font-family="Helvetica,sans-Serif" font-size="10.00">FTensor::Tensor1_Expr</text>
<text text-anchor="middle" x="406" y="-56.5" font-family="Helvetica,sans-Serif" font-size="10.00">&lt; B, U, Dim01, i &gt;</text>
</a>
</g>
</g>
<!-- Node2&#45;&gt;Node1 -->
<g id="edge1" class="edge">
<title>Node2&#45;&gt;Node1</title>
<path fill="none" stroke="#9a32cd" stroke-dasharray="5,2" d="M478.03,-52.28C497.17,-48.99 517.63,-45.47 535.9,-42.32"/>
<polygon fill="#9a32cd" stroke="#9a32cd" points="477.42,-48.83 468.16,-53.98 478.61,-55.73 477.42,-48.83"/>
<text text-anchor="middle" x="504.5" y="-51.5" font-family="Helvetica,sans-Serif" font-size="10.00"> iterB</text>
</g>
<!-- Node3 -->
<g id="node3" class="node">
<title>Node3</title>
<g id="a_node3"><a xlink:title=" ">
<polygon fill="white" stroke="#bfbfbf" points="132.5,-74 132.5,-93 161.5,-93 161.5,-74 132.5,-74"/>
<text text-anchor="middle" x="147" y="-81" font-family="Helvetica,sans-Serif" font-size="10.00">B</text>
</a>
</g>
</g>
<!-- Node3&#45;&gt;Node2 -->
<g id="edge2" class="edge">
<title>Node3&#45;&gt;Node2</title>
<path fill="none" stroke="#9a32cd" stroke-dasharray="5,2" d="M172.15,-81.71C211.08,-78.84 288.89,-73.08 343.82,-69.02"/>
<polygon fill="#9a32cd" stroke="#9a32cd" points="171.53,-78.25 161.82,-82.48 172.05,-85.23 171.53,-78.25"/>
<text text-anchor="middle" x="274" y="-79.5" font-family="Helvetica,sans-Serif" font-size="10.00"> iter</text>
</g>
<!-- Node4 -->
<g id="node4" class="node">
<title>Node4</title>
<g id="a_node4"><a xlink:href="classFTensor_1_1Tensor1__Expr.html" target="_top" xlink:title=" ">
<polygon fill="white" stroke="black" points="85,-24.5 85,-54.5 209,-54.5 209,-24.5 85,-24.5"/>
<text text-anchor="start" x="93" y="-42.5" font-family="Helvetica,sans-Serif" font-size="10.00">FTensor::Tensor1_Expr</text>
<text text-anchor="middle" x="147" y="-31.5" font-family="Helvetica,sans-Serif" font-size="10.00">&lt; A, T, Dim, i &gt;</text>
</a>
</g>
</g>
<!-- Node4&#45;&gt;Node2 -->
<g id="edge3" class="edge">
<title>Node4&#45;&gt;Node2</title>
<path fill="none" stroke="orange" stroke-dasharray="5,2" d="M219.6,-45.89C250.76,-48.73 287.7,-52.18 321,-55.5 328.44,-56.24 336.25,-57.05 343.99,-57.86"/>
<polygon fill="orange" stroke="orange" points="219.55,-42.37 209.27,-44.95 218.91,-49.34 219.55,-42.37"/>
<text text-anchor="middle" x="274" y="-58.5" font-family="Helvetica,sans-Serif" font-size="10.00"> &lt; B, U, Dim01, i &gt;</text>
</g>
<!-- Node5 -->
<g id="node5" class="node">
<title>Node5</title>
<g id="a_node5"><a xlink:title=" ">
<polygon fill="white" stroke="#bfbfbf" points="0,-30 0,-49 29,-49 29,-30 0,-30"/>
<text text-anchor="middle" x="14.5" y="-37" font-family="Helvetica,sans-Serif" font-size="10.00">A</text>
</a>
</g>
</g>
<!-- Node5&#45;&gt;Node4 -->
<g id="edge4" class="edge">
<title>Node5&#45;&gt;Node4</title>
<path fill="none" stroke="#9a32cd" stroke-dasharray="5,2" d="M39.69,-39.5C52.47,-39.5 68.79,-39.5 84.79,-39.5"/>
<polygon fill="#9a32cd" stroke="#9a32cd" points="39.47,-36 29.47,-39.5 39.47,-43 39.47,-36"/>
<text text-anchor="middle" x="57" y="-42.5" font-family="Helvetica,sans-Serif" font-size="10.00"> iter</text>
</g>
<!-- Node6 -->
<g id="node6" class="node">
<title>Node6</title>
<g id="a_node6"><a xlink:title=" ">
<polygon fill="white" stroke="#bfbfbf" points="339,-0.5 339,-30.5 473,-30.5 473,-0.5 339,-0.5"/>
<text text-anchor="start" x="347" y="-18.5" font-family="Helvetica,sans-Serif" font-size="10.00">Ddg_Expr&lt; A, T, Dim01,</text>
<text text-anchor="middle" x="406" y="-7.5" font-family="Helvetica,sans-Serif" font-size="10.00"> Dim23, i, j, k, l &gt;</text>
</a>
</g>
</g>
<!-- Node6&#45;&gt;Node1 -->
<g id="edge5" class="edge">
<title>Node6&#45;&gt;Node1</title>
<path fill="none" stroke="#9a32cd" stroke-dasharray="5,2" d="M483.23,-20.51C494.89,-21.42 506.77,-22.42 518,-23.5 523.74,-24.05 529.73,-24.68 535.7,-25.34"/>
<polygon fill="#9a32cd" stroke="#9a32cd" points="483.31,-17.01 473.07,-19.74 482.78,-23.99 483.31,-17.01"/>
<text text-anchor="middle" x="504.5" y="-26.5" font-family="Helvetica,sans-Serif" font-size="10.00"> iterA</text>
</g>
</g>
</svg>
