<?xml version="1.0" encoding="UTF-8" standalone="no"?>
<!DOCTYPE svg PUBLIC "-//W3C//DTD SVG 1.1//EN"
 "http://www.w3.org/Graphics/SVG/1.1/DTD/svg11.dtd">
<!-- Generated by graphviz version 2.43.0 (0)
 -->
<!-- Title: FTensor::Tensor2_Expr&lt; A, T, Dim0, Dim1, i, j &gt; Pages: 1 -->
<!--zoomable 2636 -->
<svg id="main" version="1.1" xmlns="http://www.w3.org/2000/svg" xmlns:xlink="http://www.w3.org/1999/xlink" xml:space="preserve" onload="init(evt)">
<style type="text/css"><![CDATA[
.edge:hover path { stroke: red; }
.edge:hover polygon { stroke: red; fill: red; }
]]></style>
<script type="text/javascript"><![CDATA[
var edges = document.getElementsByTagName('g');
if (edges && edges.length) {
  for (var i=0;i<edges.length;i++) {
    if (edges[i].id.substr(0,4)=='edge') {
      edges[i].setAttribute('class','edge');
    }
  }
}
]]></script>
        <defs>
                <circle id="rim" cx="0" cy="0" r="7"/>
                <circle id="rim2" cx="0" cy="0" r="3.5"/>
                <g id="zoomPlus">
                        <use xlink:href="#rim" fill="#404040">
                                <set attributeName="fill" to="#808080" begin="zoomplus.mouseover" end="zoomplus.mouseout"/>
                        </use>
                        <path d="M-4,0h8M0,-4v8" fill="none" stroke="white" stroke-width="1.5" pointer-events="none"/>
                </g>
                <g id="zoomMin">
                        <use xlink:href="#rim" fill="#404040">
                                <set attributeName="fill" to="#808080" begin="zoomminus.mouseover" end="zoomminus.mouseout"/>
                        </use>
                        <path d="M-4,0h8" fill="none" stroke="white" stroke-width="1.5" pointer-events="none"/>
                </g>
                <g id="dirArrow">
                        <path fill="none" stroke="white" stroke-width="1.5" d="M0,-3.0v7 M-2.5,-0.5L0,-3.0L2.5,-0.5"/>
                </g>
               <g id="resetDef">
                       <use xlink:href="#rim2" fill="#404040">
                               <set attributeName="fill" to="#808080" begin="reset.mouseover" end="reset.mouseout"/>
                       </use>
               </g>
        </defs>

<script type="text/javascript">
var viewWidth = 456;
var viewHeight = 2636;
var sectionId = 'dynsection-0';
</script>
<script xlink:href="svgpan.js"/>
<svg id="graph" class="graph">
<g id="viewport">
<title>FTensor::Tensor2_Expr&lt; A, T, Dim0, Dim1, i, j &gt;</title>
<polygon fill="white" stroke="transparent" points="-4,4 -4,-2632.28 452,-2632.28 452,4 -4,4"/>
<!-- Node1 -->
<g id="node1" class="node">
<title>Node1</title>
<g id="a_node1"><a xlink:title=" ">
<polygon fill="#bfbfbf" stroke="black" points="0,-1313.28 0,-1343.28 140,-1343.28 140,-1313.28 0,-1313.28"/>
<text text-anchor="start" x="8" y="-1331.28" font-family="Helvetica,sans-Serif" font-size="10.00">FTensor::Tensor2_Expr</text>
<text text-anchor="middle" x="70" y="-1320.28" font-family="Helvetica,sans-Serif" font-size="10.00">&lt; A, T, Dim0, Dim1, i, j &gt;</text>
</a>
</g>
</g>
<!-- Node2 -->
<g id="node2" class="node">
<title>Node2</title>
<g id="a_node2"><a xlink:href="classFTensor_1_1Tensor2__Expr.html" target="_top" xlink:title=" ">
<polygon fill="white" stroke="black" points="308,-2570.78 308,-2611.78 436,-2611.78 436,-2570.78 308,-2570.78"/>
<text text-anchor="start" x="316" y="-2599.78" font-family="Helvetica,sans-Serif" font-size="10.00">FTensor::Tensor2_Expr</text>
<text text-anchor="start" x="316" y="-2588.78" font-family="Helvetica,sans-Serif" font-size="10.00">&lt; B, U, Dim01, Dim01,</text>
<text text-anchor="middle" x="372" y="-2577.78" font-family="Helvetica,sans-Serif" font-size="10.00"> j, k &gt;</text>
</a>
</g>
</g>
<!-- Node1&#45;&gt;Node2 -->
<g id="edge1" class="edge">
<title>Node1&#45;&gt;Node2</title>
<path fill="none" stroke="orange" stroke-dasharray="5,2" d="M70.86,-1353.77C70.21,-1522.88 70.42,-2478.76 158,-2569.28 195.74,-2608.28 259.71,-2609.95 307.72,-2604.19"/>
<polygon fill="orange" stroke="orange" points="74.36,-1353.6 70.91,-1343.58 67.37,-1353.57 74.36,-1353.6"/>
<text text-anchor="start" x="160.5" y="-2620.28" font-family="Helvetica,sans-Serif" font-size="10.00"> &lt; B, U, Dim01, Dim01,</text>
<text text-anchor="middle" x="218" y="-2609.28" font-family="Helvetica,sans-Serif" font-size="10.00"> j, k &gt;</text>
</g>
<!-- Node3 -->
<g id="node3" class="node">
<title>Node3</title>
<g id="a_node3"><a xlink:href="classFTensor_1_1Tensor2__Expr.html" target="_top" xlink:title=" ">
<polygon fill="white" stroke="black" points="310,-2510.78 310,-2551.78 434,-2551.78 434,-2510.78 310,-2510.78"/>
<text text-anchor="start" x="318" y="-2539.78" font-family="Helvetica,sans-Serif" font-size="10.00">FTensor::Tensor2_Expr</text>
<text text-anchor="start" x="318" y="-2528.78" font-family="Helvetica,sans-Serif" font-size="10.00">&lt; B, U, Dim4, Dim23,</text>
<text text-anchor="middle" x="372" y="-2517.78" font-family="Helvetica,sans-Serif" font-size="10.00"> k, m &gt;</text>
</a>
</g>
</g>
<!-- Node1&#45;&gt;Node3 -->
<g id="edge2" class="edge">
<title>Node1&#45;&gt;Node3</title>
<path fill="none" stroke="orange" stroke-dasharray="5,2" d="M70.96,-1353.81C70.95,-1518.21 74.7,-2423.49 158,-2509.28 196.33,-2548.75 261.53,-2549.93 309.72,-2543.91"/>
<polygon fill="orange" stroke="orange" points="74.46,-1353.67 70.97,-1343.67 67.46,-1353.67 74.46,-1353.67"/>
<text text-anchor="start" x="163.5" y="-2560.28" font-family="Helvetica,sans-Serif" font-size="10.00"> &lt; B, U, Dim4, Dim23,</text>
<text text-anchor="middle" x="218" y="-2549.28" font-family="Helvetica,sans-Serif" font-size="10.00"> k, m &gt;</text>
</g>
<!-- Node4 -->
<g id="node4" class="node">
<title>Node4</title>
<g id="a_node4"><a xlink:href="classFTensor_1_1Tensor2__Expr.html" target="_top" xlink:title=" ">
<polygon fill="white" stroke="black" points="308,-2450.78 308,-2491.78 436,-2491.78 436,-2450.78 308,-2450.78"/>
<text text-anchor="start" x="316" y="-2479.78" font-family="Helvetica,sans-Serif" font-size="10.00">FTensor::Tensor2_Expr</text>
<text text-anchor="start" x="316" y="-2468.78" font-family="Helvetica,sans-Serif" font-size="10.00">&lt; B, U, Dim01, Dim01,</text>
<text text-anchor="middle" x="372" y="-2457.78" font-family="Helvetica,sans-Serif" font-size="10.00"> k, j &gt;</text>
</a>
</g>
</g>
<!-- Node1&#45;&gt;Node4 -->
<g id="edge3" class="edge">
<title>Node1&#45;&gt;Node4</title>
<path fill="none" stroke="orange" stroke-dasharray="5,2" d="M71.09,-1353.9C71.88,-1513.3 79.76,-2364.91 158,-2446.28 195.68,-2485.46 259.66,-2488.08 307.69,-2483.1"/>
<polygon fill="orange" stroke="orange" points="74.59,-1353.63 71.04,-1343.64 67.59,-1353.66 74.59,-1353.63"/>
<text text-anchor="start" x="160.5" y="-2498.28" font-family="Helvetica,sans-Serif" font-size="10.00"> &lt; B, U, Dim01, Dim01,</text>
<text text-anchor="middle" x="218" y="-2487.28" font-family="Helvetica,sans-Serif" font-size="10.00"> k, j &gt;</text>
</g>
<!-- Node5 -->
<g id="node5" class="node">
<title>Node5</title>
<g id="a_node5"><a xlink:href="classFTensor_1_1Tensor2__Expr.html" target="_top" xlink:title=" ">
<polygon fill="white" stroke="black" points="307,-2401.28 307,-2431.28 437,-2431.28 437,-2401.28 307,-2401.28"/>
<text text-anchor="start" x="315" y="-2419.28" font-family="Helvetica,sans-Serif" font-size="10.00">FTensor::Tensor2_Expr</text>
<text text-anchor="middle" x="372" y="-2408.28" font-family="Helvetica,sans-Serif" font-size="10.00">&lt; B, U, Dim, Dim, i, j &gt;</text>
</a>
</g>
</g>
<!-- Node1&#45;&gt;Node5 -->
<g id="edge4" class="edge">
<title>Node1&#45;&gt;Node5</title>
<path fill="none" stroke="orange" stroke-dasharray="5,2" d="M71.17,-1353.67C72.47,-1508.15 82.85,-2317.49 158,-2394.28 195.7,-2432.8 259.03,-2434.74 306.86,-2429.18"/>
<polygon fill="orange" stroke="orange" points="74.67,-1353.3 71.09,-1343.33 67.67,-1353.35 74.67,-1353.3"/>
<text text-anchor="middle" x="218" y="-2434.28" font-family="Helvetica,sans-Serif" font-size="10.00"> &lt; B, U, Dim, Dim, i, j &gt;</text>
</g>
<!-- Node6 -->
<g id="node6" class="node">
<title>Node6</title>
<g id="a_node6"><a xlink:href="classFTensor_1_1Tensor2__Expr.html" target="_top" xlink:title=" ">
<polygon fill="white" stroke="black" points="296,-2352.28 296,-2382.28 448,-2382.28 448,-2352.28 296,-2352.28"/>
<text text-anchor="start" x="304" y="-2370.28" font-family="Helvetica,sans-Serif" font-size="10.00">FTensor::Tensor2_Expr</text>
<text text-anchor="middle" x="372" y="-2359.28" font-family="Helvetica,sans-Serif" font-size="10.00">&lt; B, U, Dim4, Dim5, m, n &gt;</text>
</a>
</g>
</g>
<!-- Node1&#45;&gt;Node6 -->
<g id="edge5" class="edge">
<title>Node1&#45;&gt;Node6</title>
<path fill="none" stroke="orange" stroke-dasharray="5,2" d="M71.28,-1353.45C73.16,-1503.15 86.28,-2272.29 158,-2345.28 176.86,-2364.47 242.49,-2368.99 295.97,-2369.3"/>
<polygon fill="orange" stroke="orange" points="74.77,-1353.35 71.15,-1343.39 67.78,-1353.44 74.77,-1353.35"/>
<text text-anchor="start" x="166.5" y="-2382.28" font-family="Helvetica,sans-Serif" font-size="10.00"> &lt; B, U, Dim4, Dim5,</text>
<text text-anchor="middle" x="218" y="-2371.28" font-family="Helvetica,sans-Serif" font-size="10.00"> m, n &gt;</text>
</g>
<!-- Node7 -->
<g id="node7" class="node">
<title>Node7</title>
<g id="a_node7"><a xlink:href="classFTensor_1_1Tensor2__Expr.html" target="_top" xlink:title=" ">
<polygon fill="white" stroke="black" points="310,-2291.78 310,-2332.78 434,-2332.78 434,-2291.78 310,-2291.78"/>
<text text-anchor="start" x="318" y="-2320.78" font-family="Helvetica,sans-Serif" font-size="10.00">FTensor::Tensor2_Expr</text>
<text text-anchor="start" x="318" y="-2309.78" font-family="Helvetica,sans-Serif" font-size="10.00">&lt; B, U, Dim4, Dim23,</text>
<text text-anchor="middle" x="372" y="-2298.78" font-family="Helvetica,sans-Serif" font-size="10.00"> m, l &gt;</text>
</a>
</g>
</g>
<!-- Node1&#45;&gt;Node7 -->
<g id="edge6" class="edge">
<title>Node1&#45;&gt;Node7</title>
<path fill="none" stroke="orange" stroke-dasharray="5,2" d="M71.48,-1353.61C74.42,-1497.89 92.28,-2211.94 158,-2281.28 196.05,-2321.42 261.29,-2325.5 309.57,-2321.81"/>
<polygon fill="orange" stroke="orange" points="74.97,-1353.44 71.28,-1343.51 67.97,-1353.58 74.97,-1353.44"/>
<text text-anchor="start" x="163.5" y="-2336.28" font-family="Helvetica,sans-Serif" font-size="10.00"> &lt; B, U, Dim4, Dim23,</text>
<text text-anchor="middle" x="218" y="-2325.28" font-family="Helvetica,sans-Serif" font-size="10.00"> m, l &gt;</text>
</g>
<!-- Node8 -->
<g id="node8" class="node">
<title>Node8</title>
<g id="a_node8"><a xlink:href="classFTensor_1_1Tensor2__Expr.html" target="_top" xlink:title=" ">
<polygon fill="white" stroke="black" points="301,-2242.28 301,-2272.28 443,-2272.28 443,-2242.28 301,-2242.28"/>
<text text-anchor="start" x="309" y="-2260.28" font-family="Helvetica,sans-Serif" font-size="10.00">FTensor::Tensor2_Expr</text>
<text text-anchor="middle" x="372" y="-2249.28" font-family="Helvetica,sans-Serif" font-size="10.00">&lt; B, U, Dim0, Dim1, i, j &gt;</text>
</a>
</g>
</g>
<!-- Node1&#45;&gt;Node8 -->
<g id="edge7" class="edge">
<title>Node1&#45;&gt;Node8</title>
<path fill="none" stroke="orange" stroke-dasharray="5,2" d="M71.6,-1353.54C75.15,-1492.96 95.41,-2164.49 158,-2229.28 177.34,-2249.29 246.53,-2255.49 300.87,-2257.17"/>
<polygon fill="orange" stroke="orange" points="75.1,-1353.31 71.35,-1343.4 68.1,-1353.49 75.1,-1353.31"/>
<text text-anchor="start" x="166.5" y="-2269.28" font-family="Helvetica,sans-Serif" font-size="10.00"> &lt; B, U, Dim0, Dim1,</text>
<text text-anchor="middle" x="218" y="-2258.28" font-family="Helvetica,sans-Serif" font-size="10.00"> i, j &gt;</text>
</g>
<!-- Node9 -->
<g id="node9" class="node">
<title>Node9</title>
<g id="a_node9"><a xlink:href="classFTensor_1_1Tensor2__Expr.html" target="_top" xlink:title=" ">
<polygon fill="white" stroke="black" points="310,-2181.78 310,-2222.78 434,-2222.78 434,-2181.78 310,-2181.78"/>
<text text-anchor="start" x="318" y="-2210.78" font-family="Helvetica,sans-Serif" font-size="10.00">FTensor::Tensor2_Expr</text>
<text text-anchor="start" x="318" y="-2199.78" font-family="Helvetica,sans-Serif" font-size="10.00">&lt; B, U, Dim01, Dim1,</text>
<text text-anchor="middle" x="372" y="-2188.78" font-family="Helvetica,sans-Serif" font-size="10.00"> i, m &gt;</text>
</a>
</g>
</g>
<!-- Node1&#45;&gt;Node9 -->
<g id="edge8" class="edge">
<title>Node1&#45;&gt;Node9</title>
<path fill="none" stroke="orange" stroke-dasharray="5,2" d="M71.71,-1353.45C75.78,-1488.17 97.96,-2120.16 158,-2180.28 178.69,-2200.99 254.54,-2204.54 309.85,-2204.21"/>
<polygon fill="orange" stroke="orange" points="75.21,-1353.18 71.41,-1343.29 68.21,-1353.39 75.21,-1353.18"/>
<text text-anchor="start" x="163.5" y="-2217.28" font-family="Helvetica,sans-Serif" font-size="10.00"> &lt; B, U, Dim01, Dim1,</text>
<text text-anchor="middle" x="218" y="-2206.28" font-family="Helvetica,sans-Serif" font-size="10.00"> i, m &gt;</text>
</g>
<!-- Node10 -->
<g id="node10" class="node">
<title>Node10</title>
<g id="a_node10"><a xlink:href="classFTensor_1_1Tensor2__Expr.html" target="_top" xlink:title=" ">
<polygon fill="white" stroke="black" points="310,-2121.78 310,-2162.78 434,-2162.78 434,-2121.78 310,-2121.78"/>
<text text-anchor="start" x="318" y="-2150.78" font-family="Helvetica,sans-Serif" font-size="10.00">FTensor::Tensor2_Expr</text>
<text text-anchor="start" x="318" y="-2139.78" font-family="Helvetica,sans-Serif" font-size="10.00">&lt; B, U, Dim4, Dim23,</text>
<text text-anchor="middle" x="372" y="-2128.78" font-family="Helvetica,sans-Serif" font-size="10.00"> m, k &gt;</text>
</a>
</g>
</g>
<!-- Node1&#45;&gt;Node10 -->
<g id="edge9" class="edge">
<title>Node1&#45;&gt;Node10</title>
<path fill="none" stroke="orange" stroke-dasharray="5,2" d="M71.93,-1353.69C76.89,-1483.11 102.22,-2064.86 158,-2120.28 196.9,-2158.92 261.68,-2160.34 309.61,-2154.6"/>
<polygon fill="orange" stroke="orange" points="75.42,-1353.42 71.55,-1343.55 68.42,-1353.68 75.42,-1353.42"/>
<text text-anchor="start" x="163.5" y="-2170.28" font-family="Helvetica,sans-Serif" font-size="10.00"> &lt; B, U, Dim4, Dim23,</text>
<text text-anchor="middle" x="218" y="-2159.28" font-family="Helvetica,sans-Serif" font-size="10.00"> m, k &gt;</text>
</g>
<!-- Node11 -->
<g id="node11" class="node">
<title>Node11</title>
<g id="a_node11"><a xlink:href="classFTensor_1_1Tensor2__Expr.html" target="_top" xlink:title=" ">
<polygon fill="white" stroke="black" points="305,-2072.28 305,-2102.28 439,-2102.28 439,-2072.28 305,-2072.28"/>
<text text-anchor="start" x="313" y="-2090.28" font-family="Helvetica,sans-Serif" font-size="10.00">FTensor::Tensor2_Expr</text>
<text text-anchor="middle" x="372" y="-2079.28" font-family="Helvetica,sans-Serif" font-size="10.00">&lt; A, T, Dim1, Dim, j, i &gt;</text>
</a>
</g>
</g>
<!-- Node1&#45;&gt;Node11 -->
<g id="edge10" class="edge">
<title>Node1&#45;&gt;Node11</title>
<path fill="none" stroke="orange" stroke-dasharray="5,2" d="M72.24,-1353.89C78.44,-1477.08 107.81,-2004.79 158,-2056.28 195.3,-2094.54 257.39,-2099.73 304.94,-2096.86"/>
<polygon fill="orange" stroke="orange" points="75.72,-1353.38 71.73,-1343.56 68.73,-1353.73 75.72,-1353.38"/>
<text text-anchor="start" x="170.5" y="-2111.28" font-family="Helvetica,sans-Serif" font-size="10.00"> &lt; A, T, Dim1, Dim,</text>
<text text-anchor="middle" x="218" y="-2100.28" font-family="Helvetica,sans-Serif" font-size="10.00"> j, i &gt;</text>
</g>
<!-- Node12 -->
<g id="node12" class="node">
<title>Node12</title>
<g id="a_node12"><a xlink:href="classFTensor_1_1Tensor2__Expr.html" target="_top" xlink:title=" ">
<polygon fill="white" stroke="black" points="308,-2011.78 308,-2052.78 436,-2052.78 436,-2011.78 308,-2011.78"/>
<text text-anchor="start" x="316" y="-2040.78" font-family="Helvetica,sans-Serif" font-size="10.00">FTensor::Tensor2_Expr</text>
<text text-anchor="start" x="316" y="-2029.78" font-family="Helvetica,sans-Serif" font-size="10.00">&lt; B, U, Dim01, Dim01,</text>
<text text-anchor="middle" x="372" y="-2018.78" font-family="Helvetica,sans-Serif" font-size="10.00"> i, j &gt;</text>
</a>
</g>
</g>
<!-- Node1&#45;&gt;Node12 -->
<g id="edge11" class="edge">
<title>Node1&#45;&gt;Node12</title>
<path fill="none" stroke="orange" stroke-dasharray="5,2" d="M72.46,-1353.51C79.46,-1470.47 111.17,-1956.11 158,-2003.28 178.44,-2023.87 252.64,-2030.14 307.75,-2031.9"/>
<polygon fill="orange" stroke="orange" points="75.94,-1353.15 71.86,-1343.37 68.96,-1353.56 75.94,-1353.15"/>
<text text-anchor="start" x="160.5" y="-2044.28" font-family="Helvetica,sans-Serif" font-size="10.00"> &lt; B, U, Dim01, Dim01,</text>
<text text-anchor="middle" x="218" y="-2033.28" font-family="Helvetica,sans-Serif" font-size="10.00"> i, j &gt;</text>
</g>
<!-- Node13 -->
<g id="node13" class="node">
<title>Node13</title>
<g id="a_node13"><a xlink:href="classFTensor_1_1Tensor2__Expr.html" target="_top" xlink:title=" ">
<polygon fill="white" stroke="black" points="301,-1962.28 301,-1992.28 443,-1992.28 443,-1962.28 301,-1962.28"/>
<text text-anchor="start" x="309" y="-1980.28" font-family="Helvetica,sans-Serif" font-size="10.00">FTensor::Tensor2_Expr</text>
<text text-anchor="middle" x="372" y="-1969.28" font-family="Helvetica,sans-Serif" font-size="10.00">&lt; B, U, Dim0, Dim3, i, l &gt;</text>
</a>
</g>
</g>
<!-- Node1&#45;&gt;Node13 -->
<g id="edge12" class="edge">
<title>Node1&#45;&gt;Node13</title>
<path fill="none" stroke="orange" stroke-dasharray="5,2" d="M70.58,-1353.44C69.35,-1459.59 70.42,-1869.33 158,-1954.28 177.89,-1973.57 246.78,-1978.2 300.9,-1978.69"/>
<polygon fill="orange" stroke="orange" points="74.08,-1353.38 70.71,-1343.33 67.08,-1353.29 74.08,-1353.38"/>
<text text-anchor="start" x="166.5" y="-1991.28" font-family="Helvetica,sans-Serif" font-size="10.00"> &lt; B, U, Dim0, Dim3,</text>
<text text-anchor="middle" x="218" y="-1980.28" font-family="Helvetica,sans-Serif" font-size="10.00"> i, l &gt;</text>
</g>
<!-- Node14 -->
<g id="node14" class="node">
<title>Node14</title>
<g id="a_node14"><a xlink:href="classFTensor_1_1Tensor2__Expr.html" target="_top" xlink:title=" ">
<polygon fill="white" stroke="black" points="301,-1913.28 301,-1943.28 443,-1943.28 443,-1913.28 301,-1913.28"/>
<text text-anchor="start" x="309" y="-1931.28" font-family="Helvetica,sans-Serif" font-size="10.00">FTensor::Tensor2_Expr</text>
<text text-anchor="middle" x="372" y="-1920.28" font-family="Helvetica,sans-Serif" font-size="10.00">&lt; B, U, Dim3, Dim0, l, i &gt;</text>
</a>
</g>
</g>
<!-- Node1&#45;&gt;Node14 -->
<g id="edge13" class="edge">
<title>Node1&#45;&gt;Node14</title>
<path fill="none" stroke="orange" stroke-dasharray="5,2" d="M70.9,-1353.72C71.08,-1455.01 77.3,-1827.9 158,-1905.28 178,-1924.45 246.88,-1929.1 300.96,-1929.63"/>
<polygon fill="orange" stroke="orange" points="74.4,-1353.5 70.91,-1343.5 67.4,-1353.5 74.4,-1353.5"/>
<text text-anchor="start" x="166.5" y="-1942.28" font-family="Helvetica,sans-Serif" font-size="10.00"> &lt; B, U, Dim3, Dim0,</text>
<text text-anchor="middle" x="218" y="-1931.28" font-family="Helvetica,sans-Serif" font-size="10.00"> l, i &gt;</text>
</g>
<!-- Node15 -->
<g id="node15" class="node">
<title>Node15</title>
<g id="a_node15"><a xlink:href="classFTensor_1_1Tensor2__Expr.html" target="_top" xlink:title=" ">
<polygon fill="white" stroke="black" points="302.5,-1864.28 302.5,-1894.28 441.5,-1894.28 441.5,-1864.28 302.5,-1864.28"/>
<text text-anchor="start" x="310.5" y="-1882.28" font-family="Helvetica,sans-Serif" font-size="10.00">FTensor::Tensor2_Expr</text>
<text text-anchor="middle" x="372" y="-1871.28" font-family="Helvetica,sans-Serif" font-size="10.00">&lt; B, U, Dim1, Dim, k, j &gt;</text>
</a>
</g>
</g>
<!-- Node1&#45;&gt;Node15 -->
<g id="edge14" class="edge">
<title>Node1&#45;&gt;Node15</title>
<path fill="none" stroke="orange" stroke-dasharray="5,2" d="M71.29,-1353.7C72.96,-1449.43 84.06,-1786.35 158,-1856.28 178.3,-1875.48 248.14,-1880.06 302.38,-1880.57"/>
<polygon fill="orange" stroke="orange" points="74.79,-1353.44 71.14,-1343.49 67.79,-1353.54 74.79,-1353.44"/>
<text text-anchor="start" x="169.5" y="-1893.28" font-family="Helvetica,sans-Serif" font-size="10.00"> &lt; B, U, Dim1, Dim,</text>
<text text-anchor="middle" x="218" y="-1882.28" font-family="Helvetica,sans-Serif" font-size="10.00"> k, j &gt;</text>
</g>
<!-- Node16 -->
<g id="node16" class="node">
<title>Node16</title>
<g id="a_node16"><a xlink:href="classFTensor_1_1Tensor2__Expr.html" target="_top" xlink:title=" ">
<polygon fill="white" stroke="black" points="299.5,-1815.28 299.5,-1845.28 444.5,-1845.28 444.5,-1815.28 299.5,-1815.28"/>
<text text-anchor="start" x="307.5" y="-1833.28" font-family="Helvetica,sans-Serif" font-size="10.00">FTensor::Tensor2_Expr</text>
<text text-anchor="middle" x="372" y="-1822.28" font-family="Helvetica,sans-Serif" font-size="10.00">&lt; B, U, Dim3, Dim2, l, k &gt;</text>
</a>
</g>
</g>
<!-- Node1&#45;&gt;Node16 -->
<g id="edge15" class="edge">
<title>Node1&#45;&gt;Node16</title>
<path fill="none" stroke="orange" stroke-dasharray="5,2" d="M71.75,-1353.36C74.97,-1442.88 90.73,-1744.69 158,-1807.28 178.08,-1825.96 245.73,-1830.75 299.47,-1831.45"/>
<polygon fill="orange" stroke="orange" points="75.24,-1353.17 71.41,-1343.3 68.25,-1353.41 75.24,-1353.17"/>
<text text-anchor="start" x="166.5" y="-1844.28" font-family="Helvetica,sans-Serif" font-size="10.00"> &lt; B, U, Dim3, Dim2,</text>
<text text-anchor="middle" x="218" y="-1833.28" font-family="Helvetica,sans-Serif" font-size="10.00"> l, k &gt;</text>
</g>
<!-- Node17 -->
<g id="node17" class="node">
<title>Node17</title>
<g id="a_node17"><a xlink:href="classFTensor_1_1Tensor2__Expr.html" target="_top" xlink:title=" ">
<polygon fill="white" stroke="black" points="297.5,-1766.28 297.5,-1796.28 446.5,-1796.28 446.5,-1766.28 297.5,-1766.28"/>
<text text-anchor="start" x="305.5" y="-1784.28" font-family="Helvetica,sans-Serif" font-size="10.00">FTensor::Tensor2_Expr</text>
<text text-anchor="middle" x="372" y="-1773.28" font-family="Helvetica,sans-Serif" font-size="10.00">&lt; B, U, Dim4, Dim3, m, l &gt;</text>
</a>
</g>
</g>
<!-- Node1&#45;&gt;Node17 -->
<g id="edge16" class="edge">
<title>Node1&#45;&gt;Node17</title>
<path fill="none" stroke="orange" stroke-dasharray="5,2" d="M72.33,-1353.76C77.28,-1437.67 97.54,-1703.14 158,-1758.28 177.99,-1776.51 244.07,-1781.45 297.38,-1782.31"/>
<polygon fill="orange" stroke="orange" points="75.82,-1353.37 71.76,-1343.59 68.83,-1353.77 75.82,-1353.37"/>
<text text-anchor="start" x="166.5" y="-1795.28" font-family="Helvetica,sans-Serif" font-size="10.00"> &lt; B, U, Dim4, Dim3,</text>
<text text-anchor="middle" x="218" y="-1784.28" font-family="Helvetica,sans-Serif" font-size="10.00"> m, l &gt;</text>
</g>
<!-- Node18 -->
<g id="node18" class="node">
<title>Node18</title>
<g id="a_node18"><a xlink:href="classFTensor_1_1Tensor2__Expr.html" target="_top" xlink:title=" ">
<polygon fill="white" stroke="black" points="297.5,-1717.28 297.5,-1747.28 446.5,-1747.28 446.5,-1717.28 297.5,-1717.28"/>
<text text-anchor="start" x="305.5" y="-1735.28" font-family="Helvetica,sans-Serif" font-size="10.00">FTensor::Tensor2_Expr</text>
<text text-anchor="middle" x="372" y="-1724.28" font-family="Helvetica,sans-Serif" font-size="10.00">&lt; B, U, Dim3, Dim4, l, m &gt;</text>
</a>
</g>
</g>
<!-- Node1&#45;&gt;Node18 -->
<g id="edge17" class="edge">
<title>Node1&#45;&gt;Node18</title>
<path fill="none" stroke="orange" stroke-dasharray="5,2" d="M73.06,-1353.86C79.85,-1431.41 104.24,-1661.46 158,-1709.28 178.18,-1727.23 244.03,-1732.21 297.23,-1733.17"/>
<polygon fill="orange" stroke="orange" points="76.52,-1353.23 72.18,-1343.56 69.54,-1353.83 76.52,-1353.23"/>
<text text-anchor="start" x="166.5" y="-1746.28" font-family="Helvetica,sans-Serif" font-size="10.00"> &lt; B, U, Dim3, Dim4,</text>
<text text-anchor="middle" x="218" y="-1735.28" font-family="Helvetica,sans-Serif" font-size="10.00"> l, m &gt;</text>
</g>
<!-- Node19 -->
<g id="node19" class="node">
<title>Node19</title>
<g id="a_node19"><a xlink:href="classFTensor_1_1Tensor2__Expr.html" target="_top" xlink:title=" ">
<polygon fill="white" stroke="black" points="305.5,-1668.28 305.5,-1698.28 438.5,-1698.28 438.5,-1668.28 305.5,-1668.28"/>
<text text-anchor="start" x="313.5" y="-1686.28" font-family="Helvetica,sans-Serif" font-size="10.00">FTensor::Tensor2_Expr</text>
<text text-anchor="middle" x="372" y="-1675.28" font-family="Helvetica,sans-Serif" font-size="10.00">&lt; B, U, Dim, Dim, k, j &gt;</text>
</a>
</g>
</g>
<!-- Node1&#45;&gt;Node19 -->
<g id="edge18" class="edge">
<title>Node1&#45;&gt;Node19</title>
<path fill="none" stroke="orange" stroke-dasharray="5,2" d="M74.01,-1353.63C82.89,-1423.74 111.28,-1617.72 158,-1658.28 197.78,-1692.81 258.66,-1696.81 305.16,-1693.47"/>
<polygon fill="orange" stroke="orange" points="77.46,-1352.98 72.76,-1343.48 70.51,-1353.84 77.46,-1352.98"/>
<text text-anchor="middle" x="218" y="-1697.28" font-family="Helvetica,sans-Serif" font-size="10.00"> &lt; B, U, Dim, Dim, k, j &gt;</text>
</g>
<!-- Node20 -->
<g id="node20" class="node">
<title>Node20</title>
<g id="a_node20"><a xlink:href="classFTensor_1_1Tensor2__Expr.html" target="_top" xlink:title=" ">
<polygon fill="white" stroke="black" points="302.5,-1619.28 302.5,-1649.28 441.5,-1649.28 441.5,-1619.28 302.5,-1619.28"/>
<text text-anchor="start" x="310.5" y="-1637.28" font-family="Helvetica,sans-Serif" font-size="10.00">FTensor::Tensor2_Expr</text>
<text text-anchor="middle" x="372" y="-1626.28" font-family="Helvetica,sans-Serif" font-size="10.00">&lt; B, U, Dim1, Dim, j, k &gt;</text>
</a>
</g>
</g>
<!-- Node1&#45;&gt;Node20 -->
<g id="edge19" class="edge">
<title>Node1&#45;&gt;Node20</title>
<path fill="none" stroke="orange" stroke-dasharray="5,2" d="M70.45,-1353.51C70.73,-1409.26 79.96,-1543.14 158,-1608.28 179.41,-1626.15 248.66,-1632.01 302.45,-1633.79"/>
<polygon fill="orange" stroke="orange" points="73.95,-1353.46 70.49,-1343.44 66.95,-1353.43 73.95,-1353.46"/>
<text text-anchor="start" x="169.5" y="-1646.28" font-family="Helvetica,sans-Serif" font-size="10.00"> &lt; B, U, Dim1, Dim,</text>
<text text-anchor="middle" x="218" y="-1635.28" font-family="Helvetica,sans-Serif" font-size="10.00"> j, k &gt;</text>
</g>
<!-- Node21 -->
<g id="node21" class="node">
<title>Node21</title>
<g id="a_node21"><a xlink:href="classFTensor_1_1Tensor2__Expr.html" target="_top" xlink:title=" ">
<polygon fill="white" stroke="black" points="297.5,-1570.28 297.5,-1600.28 446.5,-1600.28 446.5,-1570.28 297.5,-1570.28"/>
<text text-anchor="start" x="305.5" y="-1588.28" font-family="Helvetica,sans-Serif" font-size="10.00">FTensor::Tensor2_Expr</text>
<text text-anchor="middle" x="372" y="-1577.28" font-family="Helvetica,sans-Serif" font-size="10.00">&lt; B, U, Dim4, Dim0, m, i &gt;</text>
</a>
</g>
</g>
<!-- Node1&#45;&gt;Node21 -->
<g id="edge20" class="edge">
<title>Node1&#45;&gt;Node21</title>
<path fill="none" stroke="orange" stroke-dasharray="5,2" d="M72.43,-1353.61C76.63,-1401.97 93.15,-1507.15 158,-1558.28 179.19,-1574.98 244.51,-1581.43 297.29,-1583.87"/>
<polygon fill="orange" stroke="orange" points="75.9,-1353.11 71.65,-1343.4 68.92,-1353.64 75.9,-1353.11"/>
<text text-anchor="start" x="166.5" y="-1596.28" font-family="Helvetica,sans-Serif" font-size="10.00"> &lt; B, U, Dim4, Dim0,</text>
<text text-anchor="middle" x="218" y="-1585.28" font-family="Helvetica,sans-Serif" font-size="10.00"> m, i &gt;</text>
</g>
<!-- Node22 -->
<g id="node22" class="node">
<title>Node22</title>
<g id="a_node22"><a xlink:href="classFTensor_1_1Tensor2__Expr.html" target="_top" xlink:title=" ">
<polygon fill="white" stroke="black" points="302,-1521.28 302,-1551.28 442,-1551.28 442,-1521.28 302,-1521.28"/>
<text text-anchor="start" x="310" y="-1539.28" font-family="Helvetica,sans-Serif" font-size="10.00">FTensor::Tensor2_Expr</text>
<text text-anchor="middle" x="372" y="-1528.28" font-family="Helvetica,sans-Serif" font-size="10.00">&lt; A, T, Dim1, Dim0, j, i &gt;</text>
</a>
</g>
</g>
<!-- Node1&#45;&gt;Node22 -->
<g id="edge21" class="edge">
<title>Node1&#45;&gt;Node22</title>
<path fill="none" stroke="orange" stroke-dasharray="5,2" d="M75.35,-1353.43C83.69,-1393.39 105.94,-1470.67 158,-1508.28 180.45,-1524.49 248.53,-1531.32 301.74,-1534.19"/>
<polygon fill="orange" stroke="orange" points="78.75,-1352.59 73.39,-1343.44 71.88,-1353.93 78.75,-1352.59"/>
<text text-anchor="start" x="167.5" y="-1546.28" font-family="Helvetica,sans-Serif" font-size="10.00"> &lt; A, T, Dim1, Dim0,</text>
<text text-anchor="middle" x="218" y="-1535.28" font-family="Helvetica,sans-Serif" font-size="10.00"> j, i &gt;</text>
</g>
<!-- Node23 -->
<g id="node23" class="node">
<title>Node23</title>
<g id="a_node23"><a xlink:href="classFTensor_1_1Tensor2__Expr.html" target="_top" xlink:title=" ">
<polygon fill="white" stroke="black" points="310,-1460.78 310,-1501.78 434,-1501.78 434,-1460.78 310,-1460.78"/>
<text text-anchor="start" x="318" y="-1489.78" font-family="Helvetica,sans-Serif" font-size="10.00">FTensor::Tensor2_Expr</text>
<text text-anchor="start" x="318" y="-1478.78" font-family="Helvetica,sans-Serif" font-size="10.00">&lt; B, U, Dim23, Dim4,</text>
<text text-anchor="middle" x="372" y="-1467.78" font-family="Helvetica,sans-Serif" font-size="10.00"> l, m &gt;</text>
</a>
</g>
</g>
<!-- Node1&#45;&gt;Node23 -->
<g id="edge22" class="edge">
<title>Node1&#45;&gt;Node23</title>
<path fill="none" stroke="orange" stroke-dasharray="5,2" d="M81.37,-1352.77C94.7,-1381.02 120.67,-1426.48 158,-1449.28 203.64,-1477.15 264.75,-1483.87 309.81,-1484.37"/>
<polygon fill="orange" stroke="orange" points="84.51,-1351.22 77.18,-1343.56 78.14,-1354.12 84.51,-1351.22"/>
<text text-anchor="start" x="163.5" y="-1496.28" font-family="Helvetica,sans-Serif" font-size="10.00"> &lt; B, U, Dim23, Dim4,</text>
<text text-anchor="middle" x="218" y="-1485.28" font-family="Helvetica,sans-Serif" font-size="10.00"> l, m &gt;</text>
</g>
<!-- Node24 -->
<g id="node24" class="node">
<title>Node24</title>
<g id="a_node24"><a xlink:href="classFTensor_1_1Tensor2__Expr.html" target="_top" xlink:title=" ">
<polygon fill="white" stroke="black" points="297.5,-1411.28 297.5,-1441.28 446.5,-1441.28 446.5,-1411.28 297.5,-1411.28"/>
<text text-anchor="start" x="305.5" y="-1429.28" font-family="Helvetica,sans-Serif" font-size="10.00">FTensor::Tensor2_Expr</text>
<text text-anchor="middle" x="372" y="-1418.28" font-family="Helvetica,sans-Serif" font-size="10.00">&lt; B, U, Dim0, Dim4, i, m &gt;</text>
</a>
</g>
</g>
<!-- Node1&#45;&gt;Node24 -->
<g id="edge23" class="edge">
<title>Node1&#45;&gt;Node24</title>
<path fill="none" stroke="orange" stroke-dasharray="5,2" d="M92.86,-1350.74C109.28,-1366.17 133.13,-1385.71 158,-1396.28 202,-1414.96 255.25,-1422.46 297.5,-1425.29"/>
<polygon fill="orange" stroke="orange" points="95.04,-1347.98 85.42,-1343.55 90.18,-1353.02 95.04,-1347.98"/>
<text text-anchor="start" x="166.5" y="-1437.28" font-family="Helvetica,sans-Serif" font-size="10.00"> &lt; B, U, Dim0, Dim4,</text>
<text text-anchor="middle" x="218" y="-1426.28" font-family="Helvetica,sans-Serif" font-size="10.00"> i, m &gt;</text>
</g>
<!-- Node25 -->
<g id="node25" class="node">
<title>Node25</title>
<g id="a_node25"><a xlink:href="classFTensor_1_1Tensor2__Expr.html" target="_top" xlink:title=" ">
<polygon fill="white" stroke="black" points="296,-1362.28 296,-1392.28 448,-1392.28 448,-1362.28 296,-1362.28"/>
<text text-anchor="start" x="304" y="-1380.28" font-family="Helvetica,sans-Serif" font-size="10.00">FTensor::Tensor2_Expr</text>
<text text-anchor="middle" x="372" y="-1369.28" font-family="Helvetica,sans-Serif" font-size="10.00">&lt; B, U, Dim4, Dim2, m, k &gt;</text>
</a>
</g>
</g>
<!-- Node1&#45;&gt;Node25 -->
<g id="edge24" class="edge">
<title>Node1&#45;&gt;Node25</title>
<path fill="none" stroke="orange" stroke-dasharray="5,2" d="M125.42,-1346.2C136.13,-1349.25 147.35,-1352.13 158,-1354.28 203.21,-1363.39 254.6,-1369.07 295.57,-1372.51"/>
<polygon fill="orange" stroke="orange" points="126.34,-1342.82 115.76,-1343.36 124.37,-1349.54 126.34,-1342.82"/>
<text text-anchor="start" x="166.5" y="-1384.28" font-family="Helvetica,sans-Serif" font-size="10.00"> &lt; B, U, Dim4, Dim2,</text>
<text text-anchor="middle" x="218" y="-1373.28" font-family="Helvetica,sans-Serif" font-size="10.00"> m, k &gt;</text>
</g>
<!-- Node26 -->
<g id="node26" class="node">
<title>Node26</title>
<g id="a_node26"><a xlink:href="classFTensor_1_1Tensor2__Expr.html" target="_top" xlink:title=" ">
<polygon fill="white" stroke="black" points="296,-1313.28 296,-1343.28 448,-1343.28 448,-1313.28 296,-1313.28"/>
<text text-anchor="start" x="304" y="-1331.28" font-family="Helvetica,sans-Serif" font-size="10.00">FTensor::Tensor2_Expr</text>
<text text-anchor="middle" x="372" y="-1320.28" font-family="Helvetica,sans-Serif" font-size="10.00">&lt; B, U, Dim2, Dim4, k, m &gt;</text>
</a>
</g>
</g>
<!-- Node1&#45;&gt;Node26 -->
<g id="edge25" class="edge">
<title>Node1&#45;&gt;Node26</title>
<path fill="none" stroke="orange" stroke-dasharray="5,2" d="M150.23,-1328.28C195.31,-1328.28 251.45,-1328.28 295.84,-1328.28"/>
<polygon fill="orange" stroke="orange" points="150.2,-1324.78 140.2,-1328.28 150.2,-1331.78 150.2,-1324.78"/>
<text text-anchor="start" x="166.5" y="-1342.28" font-family="Helvetica,sans-Serif" font-size="10.00"> &lt; B, U, Dim2, Dim4,</text>
<text text-anchor="middle" x="218" y="-1331.28" font-family="Helvetica,sans-Serif" font-size="10.00"> k, m &gt;</text>
</g>
<!-- Node27 -->
<g id="node27" class="node">
<title>Node27</title>
<g id="a_node27"><a xlink:href="classFTensor_1_1Tensor2__Expr.html" target="_top" xlink:title=" ">
<polygon fill="white" stroke="black" points="305.5,-1264.28 305.5,-1294.28 438.5,-1294.28 438.5,-1264.28 305.5,-1264.28"/>
<text text-anchor="start" x="313.5" y="-1282.28" font-family="Helvetica,sans-Serif" font-size="10.00">FTensor::Tensor2_Expr</text>
<text text-anchor="middle" x="372" y="-1271.28" font-family="Helvetica,sans-Serif" font-size="10.00">&lt; B, U, Dim, Dim, j, k &gt;</text>
</a>
</g>
</g>
<!-- Node1&#45;&gt;Node27 -->
<g id="edge26" class="edge">
<title>Node1&#45;&gt;Node27</title>
<path fill="none" stroke="orange" stroke-dasharray="5,2" d="M150.35,-1314.55C152.93,-1314.12 155.49,-1313.69 158,-1313.28 207.32,-1305.09 263.12,-1296.19 305.24,-1289.56"/>
<polygon fill="orange" stroke="orange" points="149.6,-1311.13 140.32,-1316.24 150.76,-1318.03 149.6,-1311.13"/>
<text text-anchor="middle" x="218" y="-1316.28" font-family="Helvetica,sans-Serif" font-size="10.00"> &lt; B, U, Dim, Dim, j, k &gt;</text>
</g>
<!-- Node28 -->
<g id="node28" class="node">
<title>Node28</title>
<g id="a_node28"><a xlink:href="classFTensor_1_1Tensor2__Expr.html" target="_top" xlink:title=" ">
<polygon fill="white" stroke="black" points="310,-1203.78 310,-1244.78 434,-1244.78 434,-1203.78 310,-1203.78"/>
<text text-anchor="start" x="318" y="-1232.78" font-family="Helvetica,sans-Serif" font-size="10.00">FTensor::Tensor2_Expr</text>
<text text-anchor="start" x="318" y="-1221.78" font-family="Helvetica,sans-Serif" font-size="10.00">&lt; B, U, Dim2, Dim01,</text>
<text text-anchor="middle" x="372" y="-1210.78" font-family="Helvetica,sans-Serif" font-size="10.00"> j, k &gt;</text>
</a>
</g>
</g>
<!-- Node1&#45;&gt;Node28 -->
<g id="edge27" class="edge">
<title>Node1&#45;&gt;Node28</title>
<path fill="none" stroke="orange" stroke-dasharray="5,2" d="M96.47,-1306.63C113.01,-1293.65 135.59,-1277.85 158,-1268.28 206.79,-1247.43 266.18,-1236.22 309.84,-1230.34"/>
<polygon fill="orange" stroke="orange" points="94.01,-1304.12 88.41,-1313.11 98.39,-1309.57 94.01,-1304.12"/>
<text text-anchor="start" x="163.5" y="-1282.28" font-family="Helvetica,sans-Serif" font-size="10.00"> &lt; B, U, Dim2, Dim01,</text>
<text text-anchor="middle" x="218" y="-1271.28" font-family="Helvetica,sans-Serif" font-size="10.00"> j, k &gt;</text>
</g>
<!-- Node29 -->
<g id="node29" class="node">
<title>Node29</title>
<g id="a_node29"><a xlink:href="classFTensor_1_1Tensor2__Expr.html" target="_top" xlink:title=" ">
<polygon fill="white" stroke="black" points="308,-1143.78 308,-1184.78 436,-1184.78 436,-1143.78 308,-1143.78"/>
<text text-anchor="start" x="316" y="-1172.78" font-family="Helvetica,sans-Serif" font-size="10.00">FTensor::Tensor2_Expr</text>
<text text-anchor="start" x="316" y="-1161.78" font-family="Helvetica,sans-Serif" font-size="10.00">&lt; B, U, Dim01, Dim23,</text>
<text text-anchor="middle" x="372" y="-1150.78" font-family="Helvetica,sans-Serif" font-size="10.00"> j, l &gt;</text>
</a>
</g>
</g>
<!-- Node1&#45;&gt;Node29 -->
<g id="edge28" class="edge">
<title>Node1&#45;&gt;Node29</title>
<path fill="none" stroke="orange" stroke-dasharray="5,2" d="M82.11,-1303.76C95.88,-1276.28 122.01,-1232.54 158,-1209.28 202.75,-1180.35 262.83,-1169.63 307.76,-1165.85"/>
<polygon fill="orange" stroke="orange" points="78.81,-1302.55 77.6,-1313.08 85.11,-1305.6 78.81,-1302.55"/>
<text text-anchor="start" x="160.5" y="-1223.28" font-family="Helvetica,sans-Serif" font-size="10.00"> &lt; B, U, Dim01, Dim23,</text>
<text text-anchor="middle" x="218" y="-1212.28" font-family="Helvetica,sans-Serif" font-size="10.00"> j, l &gt;</text>
</g>
<!-- Node30 -->
<g id="node30" class="node">
<title>Node30</title>
<g id="a_node30"><a xlink:href="classFTensor_1_1Tensor2__Expr.html" target="_top" xlink:title=" ">
<polygon fill="white" stroke="black" points="310,-1083.78 310,-1124.78 434,-1124.78 434,-1083.78 310,-1083.78"/>
<text text-anchor="start" x="318" y="-1112.78" font-family="Helvetica,sans-Serif" font-size="10.00">FTensor::Tensor2_Expr</text>
<text text-anchor="start" x="318" y="-1101.78" font-family="Helvetica,sans-Serif" font-size="10.00">&lt; B, U, Dim2, Dim01,</text>
<text text-anchor="middle" x="372" y="-1090.78" font-family="Helvetica,sans-Serif" font-size="10.00"> k, j &gt;</text>
</a>
</g>
</g>
<!-- Node1&#45;&gt;Node30 -->
<g id="edge29" class="edge">
<title>Node1&#45;&gt;Node30</title>
<path fill="none" stroke="orange" stroke-dasharray="5,2" d="M75.24,-1303.31C83.49,-1262.87 105.72,-1183.53 158,-1143.28 201.19,-1110.02 263.79,-1101.93 309.95,-1101.16"/>
<polygon fill="orange" stroke="orange" points="71.8,-1302.68 73.35,-1313.16 78.67,-1304 71.8,-1302.68"/>
<text text-anchor="start" x="163.5" y="-1157.28" font-family="Helvetica,sans-Serif" font-size="10.00"> &lt; B, U, Dim2, Dim01,</text>
<text text-anchor="middle" x="218" y="-1146.28" font-family="Helvetica,sans-Serif" font-size="10.00"> k, j &gt;</text>
</g>
<!-- Node31 -->
<g id="node31" class="node">
<title>Node31</title>
<g id="a_node31"><a xlink:href="classFTensor_1_1Tensor2__Expr.html" target="_top" xlink:title=" ">
<polygon fill="white" stroke="black" points="308,-1034.28 308,-1064.28 436,-1064.28 436,-1034.28 308,-1034.28"/>
<text text-anchor="start" x="316" y="-1052.28" font-family="Helvetica,sans-Serif" font-size="10.00">FTensor::Tensor2_Expr</text>
<text text-anchor="middle" x="372" y="-1041.28" font-family="Helvetica,sans-Serif" font-size="10.00">&lt; A, T, Dim, Dim, i, j &gt;</text>
</a>
</g>
</g>
<!-- Node1&#45;&gt;Node31 -->
<g id="edge30" class="edge">
<title>Node1&#45;&gt;Node31</title>
<path fill="none" stroke="orange" stroke-dasharray="5,2" d="M72.18,-1303.09C75.95,-1253.49 91.76,-1143.12 158,-1087.28 199.21,-1052.53 261.15,-1044.8 307.63,-1044.71"/>
<polygon fill="orange" stroke="orange" points="68.68,-1303.05 71.52,-1313.26 75.66,-1303.51 68.68,-1303.05"/>
<text text-anchor="middle" x="218" y="-1090.28" font-family="Helvetica,sans-Serif" font-size="10.00"> &lt; A, T, Dim, Dim, i, j &gt;</text>
</g>
<!-- Node32 -->
<g id="node32" class="node">
<title>Node32</title>
<g id="a_node32"><a xlink:href="classFTensor_1_1Tensor2__Expr.html" target="_top" xlink:title=" ">
<polygon fill="white" stroke="black" points="308,-973.78 308,-1014.78 436,-1014.78 436,-973.78 308,-973.78"/>
<text text-anchor="start" x="316" y="-1002.78" font-family="Helvetica,sans-Serif" font-size="10.00">FTensor::Tensor2_Expr</text>
<text text-anchor="start" x="316" y="-991.78" font-family="Helvetica,sans-Serif" font-size="10.00">&lt; B, U, Dim23, Dim23,</text>
<text text-anchor="middle" x="372" y="-980.78" font-family="Helvetica,sans-Serif" font-size="10.00"> k, l &gt;</text>
</a>
</g>
</g>
<!-- Node1&#45;&gt;Node32 -->
<g id="edge31" class="edge">
<title>Node1&#45;&gt;Node32</title>
<path fill="none" stroke="orange" stroke-dasharray="5,2" d="M74.46,-1303.2C84.19,-1236.42 114.03,-1056.81 158,-1019.28 198.78,-984.47 261.08,-980.91 307.78,-984.46"/>
<polygon fill="orange" stroke="orange" points="70.97,-1302.87 73.02,-1313.26 77.9,-1303.86 70.97,-1302.87"/>
<text text-anchor="start" x="160.5" y="-1033.28" font-family="Helvetica,sans-Serif" font-size="10.00"> &lt; B, U, Dim23, Dim23,</text>
<text text-anchor="middle" x="218" y="-1022.28" font-family="Helvetica,sans-Serif" font-size="10.00"> k, l &gt;</text>
</g>
<!-- Node33 -->
<g id="node33" class="node">
<title>Node33</title>
<g id="a_node33"><a xlink:href="classFTensor_1_1Tensor2__Expr.html" target="_top" xlink:title=" ">
<polygon fill="white" stroke="black" points="302.5,-924.28 302.5,-954.28 441.5,-954.28 441.5,-924.28 302.5,-924.28"/>
<text text-anchor="start" x="310.5" y="-942.28" font-family="Helvetica,sans-Serif" font-size="10.00">FTensor::Tensor2_Expr</text>
<text text-anchor="middle" x="372" y="-931.28" font-family="Helvetica,sans-Serif" font-size="10.00">&lt; B, U, Dim, Dim1, k, j &gt;</text>
</a>
</g>
</g>
<!-- Node1&#45;&gt;Node33 -->
<g id="edge32" class="edge">
<title>Node1&#45;&gt;Node33</title>
<path fill="none" stroke="orange" stroke-dasharray="5,2" d="M73.16,-1302.79C80.19,-1226.6 105.03,-1003.03 158,-957.28 196.9,-923.68 256.05,-921.17 302.16,-925.94"/>
<polygon fill="orange" stroke="orange" points="69.66,-1302.65 72.26,-1312.92 76.63,-1303.27 69.66,-1302.65"/>
<text text-anchor="start" x="169.5" y="-971.28" font-family="Helvetica,sans-Serif" font-size="10.00"> &lt; B, U, Dim, Dim1,</text>
<text text-anchor="middle" x="218" y="-960.28" font-family="Helvetica,sans-Serif" font-size="10.00"> k, j &gt;</text>
</g>
<!-- Node34 -->
<g id="node34" class="node">
<title>Node34</title>
<g id="a_node34"><a xlink:href="classFTensor_1_1Tensor2__Expr.html" target="_top" xlink:title=" ">
<polygon fill="white" stroke="black" points="302.5,-875.28 302.5,-905.28 441.5,-905.28 441.5,-875.28 302.5,-875.28"/>
<text text-anchor="start" x="310.5" y="-893.28" font-family="Helvetica,sans-Serif" font-size="10.00">FTensor::Tensor2_Expr</text>
<text text-anchor="middle" x="372" y="-882.28" font-family="Helvetica,sans-Serif" font-size="10.00">&lt; B, U, Dim, Dim1, j, k &gt;</text>
</a>
</g>
</g>
<!-- Node1&#45;&gt;Node34 -->
<g id="edge33" class="edge">
<title>Node1&#45;&gt;Node34</title>
<path fill="none" stroke="orange" stroke-dasharray="5,2" d="M72.15,-1302.82C76.56,-1218.44 95.33,-950.3 158,-897.28 201.5,-860.47 269.74,-865.42 317.22,-875.2"/>
<polygon fill="orange" stroke="orange" points="68.66,-1302.66 71.66,-1312.82 75.65,-1303.01 68.66,-1302.66"/>
<text text-anchor="start" x="169.5" y="-911.28" font-family="Helvetica,sans-Serif" font-size="10.00"> &lt; B, U, Dim, Dim1,</text>
<text text-anchor="middle" x="218" y="-900.28" font-family="Helvetica,sans-Serif" font-size="10.00"> j, k &gt;</text>
</g>
<!-- Node35 -->
<g id="node35" class="node">
<title>Node35</title>
<g id="a_node35"><a xlink:href="classFTensor_1_1Tensor2__Expr.html" target="_top" xlink:title=" ">
<polygon fill="white" stroke="black" points="297.5,-826.28 297.5,-856.28 446.5,-856.28 446.5,-826.28 297.5,-826.28"/>
<text text-anchor="start" x="305.5" y="-844.28" font-family="Helvetica,sans-Serif" font-size="10.00">FTensor::Tensor2_Expr</text>
<text text-anchor="middle" x="372" y="-833.28" font-family="Helvetica,sans-Serif" font-size="10.00">&lt; B, U, Dim4, Dim1, m, j &gt;</text>
</a>
</g>
</g>
<!-- Node1&#45;&gt;Node35 -->
<g id="edge34" class="edge">
<title>Node1&#45;&gt;Node35</title>
<path fill="none" stroke="orange" stroke-dasharray="5,2" d="M71.45,-1302.81C73.64,-1211.28 86.33,-901.28 158,-841.28 178.59,-824.04 244.39,-826.36 297.46,-831.6"/>
<polygon fill="orange" stroke="orange" points="67.95,-1302.78 71.23,-1312.85 74.95,-1302.93 67.95,-1302.78"/>
<text text-anchor="start" x="166.5" y="-855.28" font-family="Helvetica,sans-Serif" font-size="10.00"> &lt; B, U, Dim4, Dim1,</text>
<text text-anchor="middle" x="218" y="-844.28" font-family="Helvetica,sans-Serif" font-size="10.00"> m, j &gt;</text>
</g>
<!-- Node36 -->
<g id="node36" class="node">
<title>Node36</title>
<g id="a_node36"><a xlink:href="classFTensor_1_1Tensor2__Expr.html" target="_top" xlink:title=" ">
<polygon fill="white" stroke="black" points="299.5,-777.28 299.5,-807.28 444.5,-807.28 444.5,-777.28 299.5,-777.28"/>
<text text-anchor="start" x="307.5" y="-795.28" font-family="Helvetica,sans-Serif" font-size="10.00">FTensor::Tensor2_Expr</text>
<text text-anchor="middle" x="372" y="-784.28" font-family="Helvetica,sans-Serif" font-size="10.00">&lt; B, U, Dim2, Dim3, k, l &gt;</text>
</a>
</g>
</g>
<!-- Node1&#45;&gt;Node36 -->
<g id="edge35" class="edge">
<title>Node1&#45;&gt;Node36</title>
<path fill="none" stroke="orange" stroke-dasharray="5,2" d="M71.16,-1303.07C72.33,-1207.38 81.87,-868.69 158,-801.28 200.4,-763.74 268.2,-767.85 315.89,-777.24"/>
<polygon fill="orange" stroke="orange" points="67.66,-1303.22 71.05,-1313.26 74.66,-1303.29 67.66,-1303.22"/>
<text text-anchor="start" x="166.5" y="-815.28" font-family="Helvetica,sans-Serif" font-size="10.00"> &lt; B, U, Dim2, Dim3,</text>
<text text-anchor="middle" x="218" y="-804.28" font-family="Helvetica,sans-Serif" font-size="10.00"> k, l &gt;</text>
</g>
<!-- Node37 -->
<g id="node37" class="node">
<title>Node37</title>
<g id="a_node37"><a xlink:href="classFTensor_1_1Tensor2__Expr.html" target="_top" xlink:title=" ">
<polygon fill="white" stroke="black" points="307,-728.28 307,-758.28 437,-758.28 437,-728.28 307,-728.28"/>
<text text-anchor="start" x="315" y="-746.28" font-family="Helvetica,sans-Serif" font-size="10.00">FTensor::Tensor2_Expr</text>
<text text-anchor="middle" x="372" y="-735.28" font-family="Helvetica,sans-Serif" font-size="10.00">&lt; B, U, Dim, Dim, j, i &gt;</text>
</a>
</g>
</g>
<!-- Node1&#45;&gt;Node37 -->
<g id="edge36" class="edge">
<title>Node1&#45;&gt;Node37</title>
<path fill="none" stroke="orange" stroke-dasharray="5,2" d="M70.82,-1302.89C70.69,-1201.84 75.86,-830.01 158,-755.28 198.68,-718.26 263.84,-720.15 311.39,-728.27"/>
<polygon fill="orange" stroke="orange" points="67.32,-1303.1 70.86,-1313.09 74.32,-1303.08 67.32,-1303.1"/>
<text text-anchor="middle" x="218" y="-758.28" font-family="Helvetica,sans-Serif" font-size="10.00"> &lt; B, U, Dim, Dim, j, i &gt;</text>
</g>
<!-- Node38 -->
<g id="node38" class="node">
<title>Node38</title>
<g id="a_node38"><a xlink:href="classFTensor_1_1Tensor2__Expr.html" target="_top" xlink:title=" ">
<polygon fill="white" stroke="black" points="301,-679.28 301,-709.28 443,-709.28 443,-679.28 301,-679.28"/>
<text text-anchor="start" x="309" y="-697.28" font-family="Helvetica,sans-Serif" font-size="10.00">FTensor::Tensor2_Expr</text>
<text text-anchor="middle" x="372" y="-686.28" font-family="Helvetica,sans-Serif" font-size="10.00">&lt; B, U, Dim2, Dim3, j, l &gt;</text>
</a>
</g>
</g>
<!-- Node1&#45;&gt;Node38 -->
<g id="edge37" class="edge">
<title>Node1&#45;&gt;Node38</title>
<path fill="none" stroke="orange" stroke-dasharray="5,2" d="M72.56,-1303.15C79.78,-1190.8 111.6,-738.3 158,-697.28 203.03,-657.47 276.71,-666.99 324.53,-679.26"/>
<polygon fill="orange" stroke="orange" points="69.06,-1303.01 71.92,-1313.21 76.05,-1303.45 69.06,-1303.01"/>
<text text-anchor="start" x="166.5" y="-711.28" font-family="Helvetica,sans-Serif" font-size="10.00"> &lt; B, U, Dim2, Dim3,</text>
<text text-anchor="middle" x="218" y="-700.28" font-family="Helvetica,sans-Serif" font-size="10.00"> j, l &gt;</text>
</g>
<!-- Node39 -->
<g id="node39" class="node">
<title>Node39</title>
<g id="a_node39"><a xlink:href="classFTensor_1_1Tensor2__Expr.html" target="_top" xlink:title=" ">
<polygon fill="white" stroke="black" points="310,-618.78 310,-659.78 434,-659.78 434,-618.78 310,-618.78"/>
<text text-anchor="start" x="318" y="-647.78" font-family="Helvetica,sans-Serif" font-size="10.00">FTensor::Tensor2_Expr</text>
<text text-anchor="start" x="318" y="-636.78" font-family="Helvetica,sans-Serif" font-size="10.00">&lt; B, U, Dim01, Dim2,</text>
<text text-anchor="middle" x="372" y="-625.78" font-family="Helvetica,sans-Serif" font-size="10.00"> j, m &gt;</text>
</a>
</g>
</g>
<!-- Node1&#45;&gt;Node39 -->
<g id="edge38" class="edge">
<title>Node1&#45;&gt;Node39</title>
<path fill="none" stroke="orange" stroke-dasharray="5,2" d="M72.28,-1302.89C78.54,-1184.13 107.6,-687.32 158,-642.28 198.4,-606.17 262.31,-610.41 309.6,-620.64"/>
<polygon fill="orange" stroke="orange" points="68.77,-1303 71.75,-1313.17 75.76,-1303.37 68.77,-1303"/>
<text text-anchor="start" x="163.5" y="-656.28" font-family="Helvetica,sans-Serif" font-size="10.00"> &lt; B, U, Dim01, Dim2,</text>
<text text-anchor="middle" x="218" y="-645.28" font-family="Helvetica,sans-Serif" font-size="10.00"> j, m &gt;</text>
</g>
<!-- Node40 -->
<g id="node40" class="node">
<title>Node40</title>
<g id="a_node40"><a xlink:href="classFTensor_1_1Tensor2__Expr.html" target="_top" xlink:title=" ">
<polygon fill="white" stroke="black" points="310,-558.78 310,-599.78 434,-599.78 434,-558.78 310,-558.78"/>
<text text-anchor="start" x="318" y="-587.78" font-family="Helvetica,sans-Serif" font-size="10.00">FTensor::Tensor2_Expr</text>
<text text-anchor="start" x="318" y="-576.78" font-family="Helvetica,sans-Serif" font-size="10.00">&lt; B, U, Dim01, Dim2,</text>
<text text-anchor="middle" x="372" y="-565.78" font-family="Helvetica,sans-Serif" font-size="10.00"> m, j &gt;</text>
</a>
</g>
</g>
<!-- Node1&#45;&gt;Node40 -->
<g id="edge39" class="edge">
<title>Node1&#45;&gt;Node40</title>
<path fill="none" stroke="orange" stroke-dasharray="5,2" d="M72.06,-1302.87C77.5,-1178.41 104.14,-637.02 158,-587.28 197.96,-550.37 262.26,-553.21 309.77,-562.32"/>
<polygon fill="orange" stroke="orange" points="68.56,-1302.83 71.62,-1312.97 75.55,-1303.13 68.56,-1302.83"/>
<text text-anchor="start" x="163.5" y="-601.28" font-family="Helvetica,sans-Serif" font-size="10.00"> &lt; B, U, Dim01, Dim2,</text>
<text text-anchor="middle" x="218" y="-590.28" font-family="Helvetica,sans-Serif" font-size="10.00"> m, j &gt;</text>
</g>
<!-- Node41 -->
<g id="node41" class="node">
<title>Node41</title>
<g id="a_node41"><a xlink:href="classFTensor_1_1Tensor2__Expr.html" target="_top" xlink:title=" ">
<polygon fill="white" stroke="black" points="310,-498.78 310,-539.78 434,-539.78 434,-498.78 310,-498.78"/>
<text text-anchor="start" x="318" y="-527.78" font-family="Helvetica,sans-Serif" font-size="10.00">FTensor::Tensor2_Expr</text>
<text text-anchor="start" x="318" y="-516.78" font-family="Helvetica,sans-Serif" font-size="10.00">&lt; B, U, Dim01, Dim1,</text>
<text text-anchor="middle" x="372" y="-505.78" font-family="Helvetica,sans-Serif" font-size="10.00"> m, i &gt;</text>
</a>
</g>
</g>
<!-- Node1&#45;&gt;Node41 -->
<g id="edge40" class="edge">
<title>Node1&#45;&gt;Node41</title>
<path fill="none" stroke="orange" stroke-dasharray="5,2" d="M71.85,-1303.03C76.44,-1173.21 100.35,-584.73 158,-530.28 197.57,-492.9 261.93,-494.82 309.56,-503.23"/>
<polygon fill="orange" stroke="orange" points="68.34,-1303.07 71.49,-1313.19 75.34,-1303.32 68.34,-1303.07"/>
<text text-anchor="start" x="163.5" y="-544.28" font-family="Helvetica,sans-Serif" font-size="10.00"> &lt; B, U, Dim01, Dim1,</text>
<text text-anchor="middle" x="218" y="-533.28" font-family="Helvetica,sans-Serif" font-size="10.00"> m, i &gt;</text>
</g>
<!-- Node42 -->
<g id="node42" class="node">
<title>Node42</title>
<g id="a_node42"><a xlink:href="classFTensor_1_1Tensor2__Expr.html" target="_top" xlink:title=" ">
<polygon fill="white" stroke="black" points="310,-438.78 310,-479.78 434,-479.78 434,-438.78 310,-438.78"/>
<text text-anchor="start" x="318" y="-467.78" font-family="Helvetica,sans-Serif" font-size="10.00">FTensor::Tensor2_Expr</text>
<text text-anchor="start" x="318" y="-456.78" font-family="Helvetica,sans-Serif" font-size="10.00">&lt; B, U, Dim01, Dim3,</text>
<text text-anchor="middle" x="372" y="-445.78" font-family="Helvetica,sans-Serif" font-size="10.00"> j, l &gt;</text>
</a>
</g>
</g>
<!-- Node1&#45;&gt;Node42 -->
<g id="edge41" class="edge">
<title>Node1&#45;&gt;Node42</title>
<path fill="none" stroke="orange" stroke-dasharray="5,2" d="M71.65,-1302.91C75.41,-1167.14 96.23,-530.33 158,-471.28 197.49,-433.52 262.18,-435.29 309.93,-443.57"/>
<polygon fill="orange" stroke="orange" points="68.15,-1303.06 71.38,-1313.15 75.15,-1303.25 68.15,-1303.06"/>
<text text-anchor="start" x="163.5" y="-485.28" font-family="Helvetica,sans-Serif" font-size="10.00"> &lt; B, U, Dim01, Dim3,</text>
<text text-anchor="middle" x="218" y="-474.28" font-family="Helvetica,sans-Serif" font-size="10.00"> j, l &gt;</text>
</g>
<!-- Node43 -->
<g id="node43" class="node">
<title>Node43</title>
<g id="a_node43"><a xlink:href="classFTensor_1_1Tensor2__Expr.html" target="_top" xlink:title=" ">
<polygon fill="white" stroke="black" points="308,-378.78 308,-419.78 436,-419.78 436,-378.78 308,-378.78"/>
<text text-anchor="start" x="316" y="-407.78" font-family="Helvetica,sans-Serif" font-size="10.00">FTensor::Tensor2_Expr</text>
<text text-anchor="start" x="316" y="-396.78" font-family="Helvetica,sans-Serif" font-size="10.00">&lt; B, U, Dim23, Dim23,</text>
<text text-anchor="middle" x="372" y="-385.78" font-family="Helvetica,sans-Serif" font-size="10.00"> l, k &gt;</text>
</a>
</g>
</g>
<!-- Node1&#45;&gt;Node43 -->
<g id="edge42" class="edge">
<title>Node1&#45;&gt;Node43</title>
<path fill="none" stroke="orange" stroke-dasharray="5,2" d="M71.48,-1302.97C74.43,-1161.84 92.1,-475.99 158,-412.28 196.75,-374.81 260.26,-375.73 307.87,-383.51"/>
<polygon fill="orange" stroke="orange" points="67.98,-1303.15 71.28,-1313.22 74.98,-1303.29 67.98,-1303.15"/>
<text text-anchor="start" x="160.5" y="-426.28" font-family="Helvetica,sans-Serif" font-size="10.00"> &lt; B, U, Dim23, Dim23,</text>
<text text-anchor="middle" x="218" y="-415.28" font-family="Helvetica,sans-Serif" font-size="10.00"> l, k &gt;</text>
</g>
<!-- Node44 -->
<g id="node44" class="node">
<title>Node44</title>
<g id="a_node44"><a xlink:href="classFTensor_1_1Tensor2__Expr.html" target="_top" xlink:title=" ">
<polygon fill="white" stroke="black" points="310,-318.78 310,-359.78 434,-359.78 434,-318.78 310,-318.78"/>
<text text-anchor="start" x="318" y="-347.78" font-family="Helvetica,sans-Serif" font-size="10.00">FTensor::Tensor2_Expr</text>
<text text-anchor="start" x="318" y="-336.78" font-family="Helvetica,sans-Serif" font-size="10.00">&lt; B, U, Dim3, Dim01,</text>
<text text-anchor="middle" x="372" y="-325.78" font-family="Helvetica,sans-Serif" font-size="10.00"> l, j &gt;</text>
</a>
</g>
</g>
<!-- Node1&#45;&gt;Node44 -->
<g id="edge43" class="edge">
<title>Node1&#45;&gt;Node44</title>
<path fill="none" stroke="orange" stroke-dasharray="5,2" d="M71.33,-1302.71C73.5,-1155.55 87.8,-420.54 158,-352.28 197.18,-314.18 261.92,-315.67 309.76,-323.77"/>
<polygon fill="orange" stroke="orange" points="67.83,-1302.95 71.19,-1313 74.83,-1303.05 67.83,-1302.95"/>
<text text-anchor="start" x="163.5" y="-366.28" font-family="Helvetica,sans-Serif" font-size="10.00"> &lt; B, U, Dim3, Dim01,</text>
<text text-anchor="middle" x="218" y="-355.28" font-family="Helvetica,sans-Serif" font-size="10.00"> l, j &gt;</text>
</g>
<!-- Node45 -->
<g id="node45" class="node">
<title>Node45</title>
<g id="a_node45"><a xlink:href="classFTensor_1_1Tensor2__Expr.html" target="_top" xlink:title=" ">
<polygon fill="white" stroke="black" points="310,-258.78 310,-299.78 434,-299.78 434,-258.78 310,-258.78"/>
<text text-anchor="start" x="318" y="-287.78" font-family="Helvetica,sans-Serif" font-size="10.00">FTensor::Tensor2_Expr</text>
<text text-anchor="start" x="318" y="-276.78" font-family="Helvetica,sans-Serif" font-size="10.00">&lt; B, U, Dim01, Dim2,</text>
<text text-anchor="middle" x="372" y="-265.78" font-family="Helvetica,sans-Serif" font-size="10.00"> j, k &gt;</text>
</a>
</g>
</g>
<!-- Node1&#45;&gt;Node45 -->
<g id="edge44" class="edge">
<title>Node1&#45;&gt;Node45</title>
<path fill="none" stroke="orange" stroke-dasharray="5,2" d="M71.19,-1303.07C72.58,-1151.5 83.39,-365.2 158,-292.28 197.08,-254.08 261.84,-255.58 309.71,-263.72"/>
<polygon fill="orange" stroke="orange" points="67.69,-1303.21 71.1,-1313.24 74.69,-1303.27 67.69,-1303.21"/>
<text text-anchor="start" x="163.5" y="-306.28" font-family="Helvetica,sans-Serif" font-size="10.00"> &lt; B, U, Dim01, Dim2,</text>
<text text-anchor="middle" x="218" y="-295.28" font-family="Helvetica,sans-Serif" font-size="10.00"> j, k &gt;</text>
</g>
<!-- Node46 -->
<g id="node46" class="node">
<title>Node46</title>
<g id="a_node46"><a xlink:href="classFTensor_1_1Tensor2__Expr.html" target="_top" xlink:title=" ">
<polygon fill="white" stroke="black" points="297.5,-209.28 297.5,-239.28 446.5,-239.28 446.5,-209.28 297.5,-209.28"/>
<text text-anchor="start" x="305.5" y="-227.28" font-family="Helvetica,sans-Serif" font-size="10.00">FTensor::Tensor2_Expr</text>
<text text-anchor="middle" x="372" y="-216.28" font-family="Helvetica,sans-Serif" font-size="10.00">&lt; B, U, Dim1, Dim4, j, m &gt;</text>
</a>
</g>
</g>
<!-- Node1&#45;&gt;Node46 -->
<g id="edge45" class="edge">
<title>Node1&#45;&gt;Node46</title>
<path fill="none" stroke="orange" stroke-dasharray="5,2" d="M71.04,-1303.07C71.57,-1146.3 78.13,-308.89 158,-232.28 177.46,-213.61 243.81,-213.6 297.34,-217.06"/>
<polygon fill="orange" stroke="orange" points="67.54,-1303.15 71.02,-1313.16 74.54,-1303.17 67.54,-1303.15"/>
<text text-anchor="start" x="166.5" y="-246.28" font-family="Helvetica,sans-Serif" font-size="10.00"> &lt; B, U, Dim1, Dim4,</text>
<text text-anchor="middle" x="218" y="-235.28" font-family="Helvetica,sans-Serif" font-size="10.00"> j, m &gt;</text>
</g>
<!-- Node47 -->
<g id="node47" class="node">
<title>Node47</title>
<g id="a_node47"><a xlink:href="classFTensor_1_1Tensor2__Expr.html" target="_top" xlink:title=" ">
<polygon fill="white" stroke="black" points="299.5,-160.28 299.5,-190.28 444.5,-190.28 444.5,-160.28 299.5,-160.28"/>
<text text-anchor="start" x="307.5" y="-178.28" font-family="Helvetica,sans-Serif" font-size="10.00">FTensor::Tensor2_Expr</text>
<text text-anchor="middle" x="372" y="-167.28" font-family="Helvetica,sans-Serif" font-size="10.00">&lt; B, U, Dim2, Dim1, k, j &gt;</text>
</a>
</g>
</g>
<!-- Node1&#45;&gt;Node47 -->
<g id="edge46" class="edge">
<title>Node1&#45;&gt;Node47</title>
<path fill="none" stroke="orange" stroke-dasharray="5,2" d="M70.99,-1302.63C71.21,-1141.23 76.17,-270.24 158,-189.28 197.25,-150.44 262.97,-152.07 311.05,-160.21"/>
<polygon fill="orange" stroke="orange" points="67.49,-1303 70.99,-1313 74.49,-1303 67.49,-1303"/>
<text text-anchor="start" x="166.5" y="-203.28" font-family="Helvetica,sans-Serif" font-size="10.00"> &lt; B, U, Dim2, Dim1,</text>
<text text-anchor="middle" x="218" y="-192.28" font-family="Helvetica,sans-Serif" font-size="10.00"> k, j &gt;</text>
</g>
<!-- Node48 -->
<g id="node48" class="node">
<title>Node48</title>
<g id="a_node48"><a xlink:href="classFTensor_1_1Tensor2__Expr.html" target="_top" xlink:title=" ">
<polygon fill="white" stroke="black" points="305,-111.28 305,-141.28 439,-141.28 439,-111.28 305,-111.28"/>
<text text-anchor="start" x="313" y="-129.28" font-family="Helvetica,sans-Serif" font-size="10.00">FTensor::Tensor2_Expr</text>
<text text-anchor="middle" x="372" y="-118.28" font-family="Helvetica,sans-Serif" font-size="10.00">&lt; A, T, Dim, Dim1, i, j &gt;</text>
</a>
</g>
</g>
<!-- Node1&#45;&gt;Node48 -->
<g id="edge47" class="edge">
<title>Node1&#45;&gt;Node48</title>
<path fill="none" stroke="orange" stroke-dasharray="5,2" d="M70.84,-1302.78C70.04,-1136.69 69.6,-212.66 158,-129.28 178.51,-109.93 250.17,-112.57 304.76,-117.86"/>
<polygon fill="orange" stroke="orange" points="67.34,-1303.03 70.89,-1313.01 74.34,-1302.99 67.34,-1303.03"/>
<text text-anchor="start" x="170.5" y="-143.28" font-family="Helvetica,sans-Serif" font-size="10.00"> &lt; A, T, Dim, Dim1,</text>
<text text-anchor="middle" x="218" y="-132.28" font-family="Helvetica,sans-Serif" font-size="10.00"> i, j &gt;</text>
</g>
<!-- Node49 -->
<g id="node49" class="node">
<title>Node49</title>
<g id="a_node49"><a xlink:href="classFTensor_1_1Tensor2__Expr.html" target="_top" xlink:title=" ">
<polygon fill="white" stroke="black" points="299.5,-62.28 299.5,-92.28 444.5,-92.28 444.5,-62.28 299.5,-62.28"/>
<text text-anchor="start" x="307.5" y="-80.28" font-family="Helvetica,sans-Serif" font-size="10.00">FTensor::Tensor2_Expr</text>
<text text-anchor="middle" x="372" y="-69.28" font-family="Helvetica,sans-Serif" font-size="10.00">&lt; B, U, Dim1, Dim2, j, k &gt;</text>
</a>
</g>
</g>
<!-- Node1&#45;&gt;Node49 -->
<g id="edge48" class="edge">
<title>Node1&#45;&gt;Node49</title>
<path fill="none" stroke="orange" stroke-dasharray="5,2" d="M70.81,-1302.72C69.77,-1133.23 67.92,-175.3 158,-87.28 199.3,-46.91 269.36,-52.03 317.8,-62.19"/>
<polygon fill="orange" stroke="orange" points="67.31,-1302.96 70.87,-1312.93 74.31,-1302.91 67.31,-1302.96"/>
<text text-anchor="start" x="166.5" y="-101.28" font-family="Helvetica,sans-Serif" font-size="10.00"> &lt; B, U, Dim1, Dim2,</text>
<text text-anchor="middle" x="218" y="-90.28" font-family="Helvetica,sans-Serif" font-size="10.00"> j, k &gt;</text>
</g>
<!-- Node50 -->
<g id="node50" class="node">
<title>Node50</title>
<g id="a_node50"><a xlink:href="classFTensor_1_1Tensor2__Expr.html" target="_top" xlink:title=" ">
<polygon fill="white" stroke="black" points="301,-13.28 301,-43.28 443,-43.28 443,-13.28 301,-13.28"/>
<text text-anchor="start" x="309" y="-31.28" font-family="Helvetica,sans-Serif" font-size="10.00">FTensor::Tensor2_Expr</text>
<text text-anchor="middle" x="372" y="-20.28" font-family="Helvetica,sans-Serif" font-size="10.00">&lt; B, U, Dim1, Dim0, j, i &gt;</text>
</a>
</g>
</g>
<!-- Node1&#45;&gt;Node50 -->
<g id="edge49" class="edge">
<title>Node1&#45;&gt;Node50</title>
<path fill="none" stroke="orange" stroke-dasharray="5,2" d="M71.73,-1302.67C76.97,-1124.42 109.77,-74.59 158,-29.28 203,13.01 279.93,0.55 327.99,-13.22"/>
<polygon fill="orange" stroke="orange" points="68.23,-1302.82 71.44,-1312.92 75.23,-1303.02 68.23,-1302.82"/>
<text text-anchor="start" x="166.5" y="-43.28" font-family="Helvetica,sans-Serif" font-size="10.00"> &lt; B, U, Dim1, Dim0,</text>
<text text-anchor="middle" x="218" y="-32.28" font-family="Helvetica,sans-Serif" font-size="10.00"> j, i &gt;</text>
</g>
</g>
</svg>
        <g id="navigator" transform="translate(0 0)" fill="#404254">
                <rect fill="#f2f5e9" fill-opacity="0.5" stroke="#606060" stroke-width=".5" x="0" y="0" width="60" height="60"/>
                <use id="zoomplus" xlink:href="#zoomPlus" x="17" y="9" onmousedown="handleZoom(evt,'in')"/>
                <use id="zoomminus" xlink:href="#zoomMin" x="42" y="9" onmousedown="handleZoom(evt,'out')"/>
                <use id="reset" xlink:href="#resetDef" x="30" y="36" onmousedown="handleReset()"/>
                <g id="arrowUp" xlink:href="#dirArrow" transform="translate(30 24)" onmousedown="handlePan(0,-1)">
                  <use xlink:href="#rim" fill="#404040">
                        <set attributeName="fill" to="#808080" begin="arrowUp.mouseover" end="arrowUp.mouseout"/>
                  </use>
                  <path fill="none" stroke="white" stroke-width="1.5" d="M0,-3.0v7 M-2.5,-0.5L0,-3.0L2.5,-0.5"/>
                </g>
                <g id="arrowRight" xlink:href="#dirArrow" transform="rotate(90) translate(36 -43)" onmousedown="handlePan(1,0)">
                  <use xlink:href="#rim" fill="#404040">
                        <set attributeName="fill" to="#808080" begin="arrowRight.mouseover" end="arrowRight.mouseout"/>
                  </use>
                  <path fill="none" stroke="white" stroke-width="1.5" d="M0,-3.0v7 M-2.5,-0.5L0,-3.0L2.5,-0.5"/>
                </g>
                <g id="arrowDown" xlink:href="#dirArrow" transform="rotate(180) translate(-30 -48)" onmousedown="handlePan(0,1)">
                  <use xlink:href="#rim" fill="#404040">
                        <set attributeName="fill" to="#808080" begin="arrowDown.mouseover" end="arrowDown.mouseout"/>
                  </use>
                  <path fill="none" stroke="white" stroke-width="1.5" d="M0,-3.0v7 M-2.5,-0.5L0,-3.0L2.5,-0.5"/>
                </g>
                <g id="arrowLeft" xlink:href="#dirArrow" transform="rotate(270) translate(-36 17)" onmousedown="handlePan(-1,0)">
                  <use xlink:href="#rim" fill="#404040">
                        <set attributeName="fill" to="#808080" begin="arrowLeft.mouseover" end="arrowLeft.mouseout"/>
                  </use>
                  <path fill="none" stroke="white" stroke-width="1.5" d="M0,-3.0v7 M-2.5,-0.5L0,-3.0L2.5,-0.5"/>
                </g>
        </g>
        <svg viewBox="0 0 15 15" width="100%" height="30px" preserveAspectRatio="xMaxYMin meet">
         <g id="arrow_out" transform="scale(0.3 0.3)">
          <a xlink:href="classFTensor_1_1Tensor2__Expr__inherit__graph_org.svg" target="_base">
           <rect id="button" ry="5" rx="5" y="6" x="6" height="38" width="38"
                fill="#f2f5e9" fill-opacity="0.5" stroke="#606060" stroke-width="1.0"/>
           <path id="arrow"
             d="M 11.500037,31.436501 C 11.940474,20.09759 22.043105,11.32322 32.158766,21.979434 L 37.068811,17.246167 C 37.068811,17.246167 37.088388,32 37.088388,32 L 22.160133,31.978069 C 22.160133,31.978069 26.997745,27.140456 26.997745,27.140456 C 18.528582,18.264221 13.291696,25.230495 11.500037,31.436501 z"
             style="fill:#404040;"/>
          </a>
         </g>
        </svg>
</svg>
