<?xml version="1.0" encoding="UTF-8" standalone="no"?>
<!DOCTYPE svg PUBLIC "-//W3C//DTD SVG 1.1//EN"
 "http://www.w3.org/Graphics/SVG/1.1/DTD/svg11.dtd">
<!-- Generated by graphviz version 2.43.0 (0)
 -->
<!-- Title: OPBASE Pages: 1 -->
<svg width="1023pt" height="164pt"
 viewBox="0.00 0.00 1023.00 163.50" xmlns="http://www.w3.org/2000/svg" xmlns:xlink="http://www.w3.org/1999/xlink">
<g id="graph0" class="graph" transform="scale(1 1) rotate(0) translate(4 159.5)">
<title>OPBASE</title>
<polygon fill="white" stroke="transparent" points="-4,4 -4,-159.5 1019,-159.5 1019,4 -4,4"/>
<!-- Node1 -->
<g id="node1" class="node">
<title>Node1</title>
<g id="a_node1"><a xlink:title=" ">
<polygon fill="#bfbfbf" stroke="black" points="0,-71 0,-90 56,-90 56,-71 0,-71"/>
<text text-anchor="middle" x="28" y="-78" font-family="Helvetica,sans-Serif" font-size="10.00">OPBASE</text>
</a>
</g>
</g>
<!-- Node2 -->
<g id="node2" class="node">
<title>Node2</title>
<g id="a_node2"><a xlink:href="structPoissonExample_1_1OpBaseRhs.html" target="_top" xlink:title="template class for integration oh the right hand side">
<polygon fill="white" stroke="black" points="93,-65.5 93,-95.5 251,-95.5 251,-65.5 93,-65.5"/>
<text text-anchor="start" x="101" y="-83.5" font-family="Helvetica,sans-Serif" font-size="10.00">PoissonExample::OpBaseRhs</text>
<text text-anchor="middle" x="172" y="-72.5" font-family="Helvetica,sans-Serif" font-size="10.00">&lt; OPBASE &gt;</text>
</a>
</g>
</g>
<!-- Node1&#45;&gt;Node2 -->
<g id="edge1" class="edge">
<title>Node1&#45;&gt;Node2</title>
<path fill="none" stroke="midnightblue" d="M66.11,-80.5C74.43,-80.5 83.57,-80.5 92.88,-80.5"/>
<polygon fill="midnightblue" stroke="midnightblue" points="66.04,-77 56.04,-80.5 66.04,-84 66.04,-77"/>
</g>
<!-- Node3 -->
<g id="node3" class="node">
<title>Node3</title>
<g id="a_node3"><a xlink:href="structPoissonExample_1_1OpBaseRhs.html" target="_top" xlink:title=" ">
<polygon fill="white" stroke="black" points="457.5,-91 457.5,-132 651.5,-132 651.5,-91 457.5,-91"/>
<text text-anchor="start" x="465.5" y="-120" font-family="Helvetica,sans-Serif" font-size="10.00">PoissonExample::OpBaseRhs</text>
<text text-anchor="start" x="465.5" y="-109" font-family="Helvetica,sans-Serif" font-size="10.00">&lt; VolumeElementForcesAndSources</text>
<text text-anchor="middle" x="554.5" y="-98" font-family="Helvetica,sans-Serif" font-size="10.00">Core::UserDataOperator &gt;</text>
</a>
</g>
</g>
<!-- Node2&#45;&gt;Node3 -->
<g id="edge2" class="edge">
<title>Node2&#45;&gt;Node3</title>
<path fill="none" stroke="orange" stroke-dasharray="5,2" d="M261.37,-87.7C320.07,-92.48 397.11,-98.76 457.33,-103.67"/>
<polygon fill="orange" stroke="orange" points="261.63,-84.21 251.38,-86.89 261.06,-91.19 261.63,-84.21"/>
<text text-anchor="start" x="269" y="-114.5" font-family="Helvetica,sans-Serif" font-size="10.00"> &lt; VolumeElementForcesAnd</text>
<text text-anchor="middle" x="352.5" y="-103.5" font-family="Helvetica,sans-Serif" font-size="10.00">SourcesCore::UserDataOperator &gt;</text>
</g>
<!-- Node7 -->
<g id="node7" class="node">
<title>Node7</title>
<g id="a_node7"><a xlink:href="structPoissonExample_1_1OpBaseRhs.html" target="_top" xlink:title=" ">
<polygon fill="white" stroke="black" points="454,-31 454,-72 655,-72 655,-31 454,-31"/>
<text text-anchor="start" x="462" y="-60" font-family="Helvetica,sans-Serif" font-size="10.00">PoissonExample::OpBaseRhs</text>
<text text-anchor="start" x="462" y="-49" font-family="Helvetica,sans-Serif" font-size="10.00">&lt; FaceElementForcesAndSourcesCore</text>
<text text-anchor="middle" x="554.5" y="-38" font-family="Helvetica,sans-Serif" font-size="10.00">::UserDataOperator &gt;</text>
</a>
</g>
</g>
<!-- Node2&#45;&gt;Node7 -->
<g id="edge6" class="edge">
<title>Node2&#45;&gt;Node7</title>
<path fill="none" stroke="orange" stroke-dasharray="5,2" d="M261.29,-64.41C263.89,-64.08 266.46,-63.78 269,-63.5 330.18,-56.82 399.15,-53.8 453.85,-52.46"/>
<polygon fill="orange" stroke="orange" points="260.65,-60.96 251.2,-65.77 261.58,-67.9 260.65,-60.96"/>
<text text-anchor="start" x="269.5" y="-77.5" font-family="Helvetica,sans-Serif" font-size="10.00"> &lt; FaceElementForcesAndSources</text>
<text text-anchor="middle" x="352.5" y="-66.5" font-family="Helvetica,sans-Serif" font-size="10.00">Core::UserDataOperator &gt;</text>
</g>
<!-- Node4 -->
<g id="node4" class="node">
<title>Node4</title>
<g id="a_node4"><a xlink:href="structPoissonExample_1_1OpError.html" target="_top" xlink:title="Evaluate error.">
<polygon fill="white" stroke="black" points="692,-136 692,-155 832,-155 832,-136 692,-136"/>
<text text-anchor="middle" x="762" y="-143" font-family="Helvetica,sans-Serif" font-size="10.00">PoissonExample::OpError</text>
</a>
</g>
</g>
<!-- Node3&#45;&gt;Node4 -->
<g id="edge3" class="edge">
<title>Node3&#45;&gt;Node4</title>
<path fill="none" stroke="midnightblue" d="M661.63,-129.06C676.08,-131.45 690.44,-133.83 703.57,-136"/>
<polygon fill="midnightblue" stroke="midnightblue" points="662.07,-125.58 651.63,-127.4 660.93,-132.49 662.07,-125.58"/>
</g>
<!-- Node5 -->
<g id="node5" class="node">
<title>Node5</title>
<g id="a_node5"><a xlink:href="structPoissonExample_1_1OpF.html" target="_top" xlink:title="Operator calculate source term,.">
<polygon fill="white" stroke="black" points="701,-98 701,-117 823,-117 823,-98 701,-98"/>
<text text-anchor="middle" x="762" y="-105" font-family="Helvetica,sans-Serif" font-size="10.00">PoissonExample::OpF</text>
</a>
</g>
</g>
<!-- Node3&#45;&gt;Node5 -->
<g id="edge4" class="edge">
<title>Node3&#45;&gt;Node5</title>
<path fill="none" stroke="midnightblue" d="M661.89,-109.43C675.31,-109.17 688.65,-108.91 700.99,-108.67"/>
<polygon fill="midnightblue" stroke="midnightblue" points="661.56,-105.93 651.63,-109.63 661.7,-112.93 661.56,-105.93"/>
</g>
<!-- Node6 -->
<g id="node6" class="node">
<title>Node6</title>
<g id="a_node6"><a xlink:href="structPoissonExample_1_1OpResF__Domain.html" target="_top" xlink:title=" ">
<polygon fill="white" stroke="black" points="872,-92.5 872,-122.5 1012,-122.5 1012,-92.5 872,-92.5"/>
<text text-anchor="start" x="880" y="-110.5" font-family="Helvetica,sans-Serif" font-size="10.00">PoissonExample::OpResF</text>
<text text-anchor="middle" x="942" y="-99.5" font-family="Helvetica,sans-Serif" font-size="10.00">_Domain</text>
</a>
</g>
</g>
<!-- Node5&#45;&gt;Node6 -->
<g id="edge5" class="edge">
<title>Node5&#45;&gt;Node6</title>
<path fill="none" stroke="midnightblue" d="M833.31,-107.5C846.01,-107.5 859.24,-107.5 871.9,-107.5"/>
<polygon fill="midnightblue" stroke="midnightblue" points="833.26,-104 823.26,-107.5 833.26,-111 833.26,-104"/>
</g>
<!-- Node8 -->
<g id="node8" class="node">
<title>Node8</title>
<g id="a_node8"><a xlink:href="structPoissonExample_1_1Op__g.html" target="_top" xlink:title="Assemble constrains vector.">
<polygon fill="white" stroke="black" points="698,-42 698,-61 826,-61 826,-42 698,-42"/>
<text text-anchor="middle" x="762" y="-49" font-family="Helvetica,sans-Serif" font-size="10.00">PoissonExample::Op_g</text>
</a>
</g>
</g>
<!-- Node7&#45;&gt;Node8 -->
<g id="edge7" class="edge">
<title>Node7&#45;&gt;Node8</title>
<path fill="none" stroke="midnightblue" d="M665.45,-51.5C676.55,-51.5 687.53,-51.5 697.88,-51.5"/>
<polygon fill="midnightblue" stroke="midnightblue" points="665.24,-48 655.24,-51.5 665.24,-55 665.24,-48"/>
</g>
<!-- Node9 -->
<g id="node9" class="node">
<title>Node9</title>
<g id="a_node9"><a xlink:href="structPoissonExample_1_1OpRes__g.html" target="_top" xlink:title=" ">
<polygon fill="white" stroke="black" points="869,-50 869,-69 1015,-69 1015,-50 869,-50"/>
<text text-anchor="middle" x="942" y="-57" font-family="Helvetica,sans-Serif" font-size="10.00">PoissonExample::OpRes_g</text>
</a>
</g>
</g>
<!-- Node8&#45;&gt;Node9 -->
<g id="edge8" class="edge">
<title>Node8&#45;&gt;Node9</title>
<path fill="none" stroke="midnightblue" d="M836.25,-54.79C847.06,-55.28 858.18,-55.78 868.96,-56.26"/>
<polygon fill="midnightblue" stroke="midnightblue" points="836.15,-51.28 826.01,-54.33 835.84,-58.28 836.15,-51.28"/>
</g>
<!-- Node10 -->
<g id="node10" class="node">
<title>Node10</title>
<g id="a_node10"><a xlink:href="structPoissonExample_1_1OpResF__Boundary.html" target="_top" xlink:title=" ">
<polygon fill="white" stroke="black" points="872,-0.5 872,-30.5 1012,-30.5 1012,-0.5 872,-0.5"/>
<text text-anchor="start" x="880" y="-18.5" font-family="Helvetica,sans-Serif" font-size="10.00">PoissonExample::OpResF</text>
<text text-anchor="middle" x="942" y="-7.5" font-family="Helvetica,sans-Serif" font-size="10.00">_Boundary</text>
</a>
</g>
</g>
<!-- Node8&#45;&gt;Node10 -->
<g id="edge9" class="edge">
<title>Node8&#45;&gt;Node10</title>
<path fill="none" stroke="midnightblue" d="M820.21,-39.93C836.63,-36.61 854.7,-32.95 871.76,-29.5"/>
<polygon fill="midnightblue" stroke="midnightblue" points="819.34,-36.53 810.23,-41.95 820.73,-43.4 819.34,-36.53"/>
</g>
</g>
</svg>
