<?xml version="1.0" encoding="UTF-8" standalone="no"?>
<!DOCTYPE svg PUBLIC "-//W3C//DTD SVG 1.1//EN"
 "http://www.w3.org/Graphics/SVG/1.1/DTD/svg11.dtd">
<!-- Generated by graphviz version 2.43.0 (0)
 -->
<!-- Title: ClipperLib::ClipperBase Pages: 1 -->
<svg width="761pt" height="412pt"
 viewBox="0.00 0.00 761.00 412.00" xmlns="http://www.w3.org/2000/svg" xmlns:xlink="http://www.w3.org/1999/xlink">
<g id="graph0" class="graph" transform="scale(1 1) rotate(0) translate(4 408)">
<title>ClipperLib::ClipperBase</title>
<polygon fill="white" stroke="transparent" points="-4,4 -4,-408 757,-408 757,4 -4,4"/>
<!-- Node1 -->
<g id="node1" class="node">
<title>Node1</title>
<g id="a_node1"><a xlink:title=" ">
<polygon fill="#bfbfbf" stroke="black" points="623,-274.5 623,-293.5 753,-293.5 753,-274.5 623,-274.5"/>
<text text-anchor="middle" x="688" y="-281.5" font-family="Helvetica,sans-Serif" font-size="10.00">ClipperLib::ClipperBase</text>
</a>
</g>
</g>
<!-- Node2 -->
<g id="node2" class="node">
<title>Node2</title>
<g id="a_node2"><a xlink:title=" ">
<polygon fill="white" stroke="#bfbfbf" points="357,-384.5 357,-403.5 465,-403.5 465,-384.5 357,-384.5"/>
<text text-anchor="middle" x="411" y="-391.5" font-family="Helvetica,sans-Serif" font-size="10.00">vector&lt; TEdge * &gt;</text>
</a>
</g>
</g>
<!-- Node2&#45;&gt;Node1 -->
<g id="edge1" class="edge">
<title>Node2&#45;&gt;Node1</title>
<path fill="none" stroke="#9a32cd" stroke-dasharray="5,2" d="M475.5,-391.87C514.58,-388.41 564.72,-380 605,-360 637.86,-343.68 666.89,-310.03 679.84,-293.54"/>
<polygon fill="#9a32cd" stroke="#9a32cd" points="474.99,-388.4 465.3,-392.68 475.55,-395.38 474.99,-388.4"/>
<text text-anchor="middle" x="552.5" y="-391" font-family="Helvetica,sans-Serif" font-size="10.00"> m_edges</text>
</g>
<!-- Node3 -->
<g id="node3" class="node">
<title>Node3</title>
<g id="a_node3"><a xlink:title=" ">
<polygon fill="white" stroke="#bfbfbf" points="347,-346.5 347,-365.5 475,-365.5 475,-346.5 347,-346.5"/>
<text text-anchor="middle" x="411" y="-353.5" font-family="Helvetica,sans-Serif" font-size="10.00">priority_queue&lt; cInt &gt;</text>
</a>
</g>
</g>
<!-- Node3&#45;&gt;Node1 -->
<g id="edge2" class="edge">
<title>Node3&#45;&gt;Node1</title>
<path fill="none" stroke="#9a32cd" stroke-dasharray="5,2" d="M485.26,-348.29C521.81,-343.24 566.34,-335.24 605,-323 628.6,-315.53 654.09,-302.55 670.28,-293.63"/>
<polygon fill="#9a32cd" stroke="#9a32cd" points="484.63,-344.84 475.18,-349.64 485.56,-351.78 484.63,-344.84"/>
<text text-anchor="middle" x="552.5" y="-348" font-family="Helvetica,sans-Serif" font-size="10.00"> m_Scanbeam</text>
</g>
<!-- Node4 -->
<g id="node4" class="node">
<title>Node4</title>
<g id="a_node4"><a xlink:title=" ">
<polygon fill="white" stroke="#bfbfbf" points="354.5,-308.5 354.5,-327.5 467.5,-327.5 467.5,-308.5 354.5,-308.5"/>
<text text-anchor="middle" x="411" y="-315.5" font-family="Helvetica,sans-Serif" font-size="10.00">vector&lt; OutRec * &gt;</text>
</a>
</g>
</g>
<!-- Node4&#45;&gt;Node1 -->
<g id="edge3" class="edge">
<title>Node4&#45;&gt;Node1</title>
<path fill="none" stroke="#9a32cd" stroke-dasharray="5,2" d="M478.04,-311C515.34,-306.91 562.82,-301.49 605,-296 610.99,-295.22 617.23,-294.37 623.46,-293.5"/>
<polygon fill="#9a32cd" stroke="#9a32cd" points="477.36,-307.55 467.8,-312.11 478.12,-314.51 477.36,-307.55"/>
<text text-anchor="middle" x="552.5" y="-311" font-family="Helvetica,sans-Serif" font-size="10.00"> m_PolyOuts</text>
</g>
<!-- Node5 -->
<g id="node5" class="node">
<title>Node5</title>
<g id="a_node5"><a xlink:title=" ">
<polygon fill="white" stroke="#bfbfbf" points="384.5,-270.5 384.5,-289.5 437.5,-289.5 437.5,-270.5 384.5,-270.5"/>
<text text-anchor="middle" x="411" y="-277.5" font-family="Helvetica,sans-Serif" font-size="10.00">iterator</text>
</a>
</g>
</g>
<!-- Node5&#45;&gt;Node1 -->
<g id="edge4" class="edge">
<title>Node5&#45;&gt;Node1</title>
<path fill="none" stroke="#9a32cd" stroke-dasharray="5,2" d="M447.89,-280.52C492.21,-281.17 568.41,-282.28 622.88,-283.07"/>
<polygon fill="#9a32cd" stroke="#9a32cd" points="447.92,-277.02 437.87,-280.38 447.82,-284.02 447.92,-277.02"/>
<text text-anchor="middle" x="552.5" y="-285" font-family="Helvetica,sans-Serif" font-size="10.00"> m_CurrentLM</text>
</g>
<!-- Node6 -->
<g id="node6" class="node">
<title>Node6</title>
<g id="a_node6"><a xlink:href="classbool.html" target="_top" xlink:title=" ">
<polygon fill="white" stroke="black" points="392,-225.5 392,-244.5 430,-244.5 430,-225.5 392,-225.5"/>
<text text-anchor="middle" x="411" y="-232.5" font-family="Helvetica,sans-Serif" font-size="10.00">bool</text>
</a>
</g>
</g>
<!-- Node6&#45;&gt;Node1 -->
<g id="edge5" class="edge">
<title>Node6&#45;&gt;Node1</title>
<path fill="none" stroke="#9a32cd" stroke-dasharray="5,2" d="M440.52,-232.77C478.66,-230.6 548.06,-229.45 605,-244 629.86,-250.35 656.09,-264.68 672.01,-274.35"/>
<polygon fill="#9a32cd" stroke="#9a32cd" points="439.94,-229.3 430.19,-233.44 440.39,-236.29 439.94,-229.3"/>
<text text-anchor="middle" x="552.5" y="-269" font-family="Helvetica,sans-Serif" font-size="10.00"> m_PreserveCollinear</text>
<text text-anchor="middle" x="552.5" y="-258" font-family="Helvetica,sans-Serif" font-size="10.00">m_UseFullRange</text>
<text text-anchor="middle" x="552.5" y="-247" font-family="Helvetica,sans-Serif" font-size="10.00">m_HasOpenPaths</text>
</g>
<!-- Node7 -->
<g id="node7" class="node">
<title>Node7</title>
<g id="a_node7"><a xlink:href="structClipperLib_1_1TEdge.html" target="_top" xlink:title=" ">
<polygon fill="white" stroke="black" points="360.5,-92.5 360.5,-111.5 461.5,-111.5 461.5,-92.5 360.5,-92.5"/>
<text text-anchor="middle" x="411" y="-99.5" font-family="Helvetica,sans-Serif" font-size="10.00">ClipperLib::TEdge</text>
</a>
</g>
</g>
<!-- Node7&#45;&gt;Node1 -->
<g id="edge6" class="edge">
<title>Node7&#45;&gt;Node1</title>
<path fill="none" stroke="#9a32cd" stroke-dasharray="5,2" d="M439.4,-116.39C477.6,-136.84 548.51,-176.27 605,-216 632.08,-235.04 661.38,-260.7 676.56,-274.41"/>
<polygon fill="#9a32cd" stroke="#9a32cd" points="440.89,-113.22 430.42,-111.61 437.6,-119.4 440.89,-113.22"/>
<text text-anchor="middle" x="552.5" y="-219" font-family="Helvetica,sans-Serif" font-size="10.00"> m_ActiveEdges</text>
</g>
<!-- Node7&#45;&gt;Node7 -->
<g id="edge9" class="edge">
<title>Node7&#45;&gt;Node7</title>
<path fill="none" stroke="#9a32cd" stroke-dasharray="5,2" d="M389.89,-121.4C391.3,-126.31 398.34,-130 411,-130 431.26,-130 437.12,-120.57 428.57,-111.76"/>
<polygon fill="#9a32cd" stroke="#9a32cd" points="393.27,-122.35 393.43,-111.76 386.7,-119.94 393.27,-122.35"/>
<text text-anchor="middle" x="411" y="-199" font-family="Helvetica,sans-Serif" font-size="10.00"> Prev</text>
<text text-anchor="middle" x="411" y="-188" font-family="Helvetica,sans-Serif" font-size="10.00">NextInLML</text>
<text text-anchor="middle" x="411" y="-177" font-family="Helvetica,sans-Serif" font-size="10.00">Next</text>
<text text-anchor="middle" x="411" y="-166" font-family="Helvetica,sans-Serif" font-size="10.00">PrevInSEL</text>
<text text-anchor="middle" x="411" y="-155" font-family="Helvetica,sans-Serif" font-size="10.00">PrevInAEL</text>
<text text-anchor="middle" x="411" y="-144" font-family="Helvetica,sans-Serif" font-size="10.00">NextInAEL</text>
<text text-anchor="middle" x="411" y="-133" font-family="Helvetica,sans-Serif" font-size="10.00">NextInSEL</text>
</g>
<!-- Node8 -->
<g id="node8" class="node">
<title>Node8</title>
<g id="a_node8"><a xlink:href="classdouble.html" target="_top" xlink:title=" ">
<polygon fill="white" stroke="black" points="172.5,-195.5 172.5,-214.5 222.5,-214.5 222.5,-195.5 172.5,-195.5"/>
<text text-anchor="middle" x="197.5" y="-202.5" font-family="Helvetica,sans-Serif" font-size="10.00">double</text>
</a>
</g>
</g>
<!-- Node8&#45;&gt;Node7 -->
<g id="edge7" class="edge">
<title>Node8&#45;&gt;Node7</title>
<path fill="none" stroke="#9a32cd" stroke-dasharray="5,2" d="M232.8,-200.54C258.4,-196.24 293.7,-188.22 322,-174 354.8,-157.51 386.39,-126.97 401.22,-111.51"/>
<polygon fill="#9a32cd" stroke="#9a32cd" points="232.14,-197.09 222.81,-202.11 233.23,-204.01 232.14,-197.09"/>
<text text-anchor="middle" x="296" y="-194" font-family="Helvetica,sans-Serif" font-size="10.00"> Dx</text>
</g>
<!-- Node9 -->
<g id="node9" class="node">
<title>Node9</title>
<g id="a_node9"><a xlink:title=" ">
<polygon fill="white" stroke="#bfbfbf" points="183,-130.5 183,-149.5 212,-149.5 212,-130.5 183,-130.5"/>
<text text-anchor="middle" x="197.5" y="-137.5" font-family="Helvetica,sans-Serif" font-size="10.00">int</text>
</a>
</g>
</g>
<!-- Node9&#45;&gt;Node7 -->
<g id="edge8" class="edge">
<title>Node9&#45;&gt;Node7</title>
<path fill="none" stroke="#9a32cd" stroke-dasharray="5,2" d="M222.18,-135.75C255.39,-129.78 316.61,-118.78 360.13,-110.96"/>
<polygon fill="#9a32cd" stroke="#9a32cd" points="221.28,-132.35 212.05,-137.57 222.51,-139.24 221.28,-132.35"/>
<text text-anchor="middle" x="296" y="-162" font-family="Helvetica,sans-Serif" font-size="10.00"> WindCnt2</text>
<text text-anchor="middle" x="296" y="-151" font-family="Helvetica,sans-Serif" font-size="10.00">WindCnt</text>
<text text-anchor="middle" x="296" y="-140" font-family="Helvetica,sans-Serif" font-size="10.00">WindDelta</text>
<text text-anchor="middle" x="296" y="-129" font-family="Helvetica,sans-Serif" font-size="10.00">OutIdx</text>
</g>
<!-- Node10 -->
<g id="node10" class="node">
<title>Node10</title>
<g id="a_node10"><a xlink:title=" ">
<polygon fill="white" stroke="#bfbfbf" points="166.5,-92.5 166.5,-111.5 228.5,-111.5 228.5,-92.5 166.5,-92.5"/>
<text text-anchor="middle" x="197.5" y="-99.5" font-family="Helvetica,sans-Serif" font-size="10.00">EdgeSide</text>
</a>
</g>
</g>
<!-- Node10&#45;&gt;Node7 -->
<g id="edge10" class="edge">
<title>Node10&#45;&gt;Node7</title>
<path fill="none" stroke="#9a32cd" stroke-dasharray="5,2" d="M238.99,-102C273.49,-102 323.21,-102 360.15,-102"/>
<polygon fill="#9a32cd" stroke="#9a32cd" points="238.8,-98.5 228.8,-102 238.8,-105.5 238.8,-98.5"/>
<text text-anchor="middle" x="296" y="-105" font-family="Helvetica,sans-Serif" font-size="10.00"> Side</text>
</g>
<!-- Node11 -->
<g id="node11" class="node">
<title>Node11</title>
<g id="a_node11"><a xlink:title=" ">
<polygon fill="white" stroke="#bfbfbf" points="167.5,-54.5 167.5,-73.5 227.5,-73.5 227.5,-54.5 167.5,-54.5"/>
<text text-anchor="middle" x="197.5" y="-61.5" font-family="Helvetica,sans-Serif" font-size="10.00">PolyType</text>
</a>
</g>
</g>
<!-- Node11&#45;&gt;Node7 -->
<g id="edge11" class="edge">
<title>Node11&#45;&gt;Node7</title>
<path fill="none" stroke="#9a32cd" stroke-dasharray="5,2" d="M238.09,-71.11C272.61,-77.31 322.86,-86.34 360.12,-93.04"/>
<polygon fill="#9a32cd" stroke="#9a32cd" points="238.37,-67.61 227.91,-69.28 237.13,-74.5 238.37,-67.61"/>
<text text-anchor="middle" x="296" y="-88" font-family="Helvetica,sans-Serif" font-size="10.00"> PolyTyp</text>
</g>
<!-- Node12 -->
<g id="node12" class="node">
<title>Node12</title>
<g id="a_node12"><a xlink:href="structClipperLib_1_1IntPoint.html" target="_top" xlink:title=" ">
<polygon fill="white" stroke="black" points="143,-0.5 143,-19.5 252,-19.5 252,-0.5 143,-0.5"/>
<text text-anchor="middle" x="197.5" y="-7.5" font-family="Helvetica,sans-Serif" font-size="10.00">ClipperLib::IntPoint</text>
</a>
</g>
</g>
<!-- Node12&#45;&gt;Node7 -->
<g id="edge12" class="edge">
<title>Node12&#45;&gt;Node7</title>
<path fill="none" stroke="#9a32cd" stroke-dasharray="5,2" d="M261.95,-13.98C283.02,-18.08 305.34,-25.78 322,-40 337.76,-53.45 324.42,-69.34 340,-83 345.87,-88.15 353,-91.91 360.44,-94.67"/>
<polygon fill="#9a32cd" stroke="#9a32cd" points="262.5,-10.52 252.06,-12.29 261.33,-17.42 262.5,-10.52"/>
<text text-anchor="middle" x="296" y="-65" font-family="Helvetica,sans-Serif" font-size="10.00"> Top</text>
<text text-anchor="middle" x="296" y="-54" font-family="Helvetica,sans-Serif" font-size="10.00">Bot</text>
<text text-anchor="middle" x="296" y="-43" font-family="Helvetica,sans-Serif" font-size="10.00">Curr</text>
</g>
<!-- Node13 -->
<g id="node13" class="node">
<title>Node13</title>
<g id="a_node13"><a xlink:title=" ">
<polygon fill="white" stroke="#bfbfbf" points="0,-0.5 0,-19.5 97,-19.5 97,-0.5 0,-0.5"/>
<text text-anchor="middle" x="48.5" y="-7.5" font-family="Helvetica,sans-Serif" font-size="10.00">signed long long</text>
</a>
</g>
</g>
<!-- Node13&#45;&gt;Node12 -->
<g id="edge13" class="edge">
<title>Node13&#45;&gt;Node12</title>
<path fill="none" stroke="#9a32cd" stroke-dasharray="5,2" d="M107.35,-10C119.07,-10 131.34,-10 142.9,-10"/>
<polygon fill="#9a32cd" stroke="#9a32cd" points="107.23,-6.5 97.23,-10 107.23,-13.5 107.23,-6.5"/>
<text text-anchor="middle" x="120" y="-24" font-family="Helvetica,sans-Serif" font-size="10.00"> X</text>
<text text-anchor="middle" x="120" y="-13" font-family="Helvetica,sans-Serif" font-size="10.00">Y</text>
</g>
<!-- Node14 -->
<g id="node14" class="node">
<title>Node14</title>
<g id="a_node14"><a xlink:title=" ">
<polygon fill="white" stroke="#bfbfbf" points="340,-54.5 340,-73.5 482,-73.5 482,-54.5 340,-54.5"/>
<text text-anchor="middle" x="411" y="-61.5" font-family="Helvetica,sans-Serif" font-size="10.00">vector&lt; LocalMinimum &gt;</text>
</a>
</g>
</g>
<!-- Node14&#45;&gt;Node1 -->
<g id="edge14" class="edge">
<title>Node14&#45;&gt;Node1</title>
<path fill="none" stroke="#9a32cd" stroke-dasharray="5,2" d="M478.83,-75.88C519.35,-86.01 569.86,-104.18 605,-136 650.07,-176.81 675.87,-248.39 684.09,-274.29"/>
<polygon fill="#9a32cd" stroke="#9a32cd" points="479.56,-72.46 469.02,-73.54 477.93,-79.26 479.56,-72.46"/>
<text text-anchor="middle" x="552.5" y="-139" font-family="Helvetica,sans-Serif" font-size="10.00"> m_MinimaList</text>
</g>
</g>
</svg>
