<?xml version="1.0" encoding="UTF-8" standalone="no"?>
<!DOCTYPE svg PUBLIC "-//W3C//DTD SVG 1.1//EN"
 "http://www.w3.org/Graphics/SVG/1.1/DTD/svg11.dtd">
<!-- Generated by graphviz version 2.43.0 (0)
 -->
<!-- Title: FTensor::Tensor4_Expr&lt; A, T, Dim0, Dim1, Dim2, Dim3, i, j, k, l &gt; Pages: 1 -->
<!--zoomable 684 -->
<svg id="main" version="1.1" xmlns="http://www.w3.org/2000/svg" xmlns:xlink="http://www.w3.org/1999/xlink" xml:space="preserve" onload="init(evt)">
<style type="text/css"><![CDATA[
.edge:hover path { stroke: red; }
.edge:hover polygon { stroke: red; fill: red; }
]]></style>
<script type="text/javascript"><![CDATA[
var edges = document.getElementsByTagName('g');
if (edges && edges.length) {
  for (var i=0;i<edges.length;i++) {
    if (edges[i].id.substr(0,4)=='edge') {
      edges[i].setAttribute('class','edge');
    }
  }
}
]]></script>
        <defs>
                <circle id="rim" cx="0" cy="0" r="7"/>
                <circle id="rim2" cx="0" cy="0" r="3.5"/>
                <g id="zoomPlus">
                        <use xlink:href="#rim" fill="#404040">
                                <set attributeName="fill" to="#808080" begin="zoomplus.mouseover" end="zoomplus.mouseout"/>
                        </use>
                        <path d="M-4,0h8M0,-4v8" fill="none" stroke="white" stroke-width="1.5" pointer-events="none"/>
                </g>
                <g id="zoomMin">
                        <use xlink:href="#rim" fill="#404040">
                                <set attributeName="fill" to="#808080" begin="zoomminus.mouseover" end="zoomminus.mouseout"/>
                        </use>
                        <path d="M-4,0h8" fill="none" stroke="white" stroke-width="1.5" pointer-events="none"/>
                </g>
                <g id="dirArrow">
                        <path fill="none" stroke="white" stroke-width="1.5" d="M0,-3.0v7 M-2.5,-0.5L0,-3.0L2.5,-0.5"/>
                </g>
               <g id="resetDef">
                       <use xlink:href="#rim2" fill="#404040">
                               <set attributeName="fill" to="#808080" begin="reset.mouseover" end="reset.mouseout"/>
                       </use>
               </g>
        </defs>

<script type="text/javascript">
var viewWidth = 466;
var viewHeight = 684;
var sectionId = 'dynsection-0';
</script>
<script xlink:href="svgpan.js"/>
<svg id="graph" class="graph">
<g id="viewport">
<title>FTensor::Tensor4_Expr&lt; A, T, Dim0, Dim1, Dim2, Dim3, i, j, k, l &gt;</title>
<polygon fill="white" stroke="transparent" points="-4,4 -4,-680 462,-680 462,4 -4,4"/>
<!-- Node1 -->
<g id="node1" class="node">
<title>Node1</title>
<g id="a_node1"><a xlink:title=" ">
<polygon fill="#bfbfbf" stroke="black" points="0,-312.5 0,-353.5 146,-353.5 146,-312.5 0,-312.5"/>
<text text-anchor="start" x="8" y="-341.5" font-family="Helvetica,sans-Serif" font-size="10.00">FTensor::Tensor4_Expr</text>
<text text-anchor="start" x="8" y="-330.5" font-family="Helvetica,sans-Serif" font-size="10.00">&lt; A, T, Dim0, Dim1, Dim2,</text>
<text text-anchor="middle" x="73" y="-319.5" font-family="Helvetica,sans-Serif" font-size="10.00"> Dim3, i, j, k, l &gt;</text>
</a>
</g>
</g>
<!-- Node2 -->
<g id="node2" class="node">
<title>Node2</title>
<g id="a_node2"><a xlink:href="classFTensor_1_1Tensor4__Expr.html" target="_top" xlink:title=" ">
<polygon fill="white" stroke="black" points="307,-624.5 307,-665.5 455,-665.5 455,-624.5 307,-624.5"/>
<text text-anchor="start" x="315" y="-653.5" font-family="Helvetica,sans-Serif" font-size="10.00">FTensor::Tensor4_Expr</text>
<text text-anchor="start" x="315" y="-642.5" font-family="Helvetica,sans-Serif" font-size="10.00">&lt; B, U, Dim2, Dim3, Dim4,</text>
<text text-anchor="middle" x="381" y="-631.5" font-family="Helvetica,sans-Serif" font-size="10.00"> Dim5, k, l, m, n &gt;</text>
</a>
</g>
</g>
<!-- Node1&#45;&gt;Node2 -->
<g id="edge1" class="edge">
<title>Node1&#45;&gt;Node2</title>
<path fill="none" stroke="orange" stroke-dasharray="5,2" d="M73.67,-363.78C74.86,-423.21 86.69,-553.59 164,-618 203.12,-650.6 260.91,-656.36 306.87,-654.5"/>
<polygon fill="orange" stroke="orange" points="77.17,-363.5 73.56,-353.54 70.17,-363.58 77.17,-363.5"/>
<text text-anchor="start" x="164" y="-668" font-family="Helvetica,sans-Serif" font-size="10.00"> &lt; B, U, Dim2, Dim3,</text>
<text text-anchor="middle" x="225" y="-657" font-family="Helvetica,sans-Serif" font-size="10.00"> Dim4, Dim5, k, l, m, n &gt;</text>
</g>
<!-- Node3 -->
<g id="node3" class="node">
<title>Node3</title>
<g id="a_node3"><a xlink:href="classFTensor_1_1Tensor4__Expr.html" target="_top" xlink:title=" ">
<polygon fill="white" stroke="black" points="314.5,-553 314.5,-605 447.5,-605 447.5,-553 314.5,-553"/>
<text text-anchor="start" x="322.5" y="-593" font-family="Helvetica,sans-Serif" font-size="10.00">FTensor::Tensor4_Expr</text>
<text text-anchor="start" x="322.5" y="-582" font-family="Helvetica,sans-Serif" font-size="10.00">&lt; A, T, Dim0_0, Dim1</text>
<text text-anchor="start" x="322.5" y="-571" font-family="Helvetica,sans-Serif" font-size="10.00">_0, Dim2_0, Dim3_0, i0,</text>
<text text-anchor="middle" x="381" y="-560" font-family="Helvetica,sans-Serif" font-size="10.00"> j0, k0, l0 &gt;</text>
</a>
</g>
</g>
<!-- Node1&#45;&gt;Node3 -->
<g id="edge2" class="edge">
<title>Node1&#45;&gt;Node3</title>
<path fill="none" stroke="orange" stroke-dasharray="5,2" d="M78.16,-363.57C86.11,-409.5 107.99,-495.66 164,-540 206.28,-573.47 267.81,-581.85 314.39,-582.66"/>
<polygon fill="orange" stroke="orange" points="81.6,-362.91 76.54,-353.6 74.69,-364.03 81.6,-362.91"/>
<text text-anchor="start" x="166.5" y="-606" font-family="Helvetica,sans-Serif" font-size="10.00"> &lt; A, T, Dim0_0, Dim1</text>
<text text-anchor="start" x="166.5" y="-595" font-family="Helvetica,sans-Serif" font-size="10.00">_0, Dim2_0, Dim3_0, i0,</text>
<text text-anchor="middle" x="225" y="-584" font-family="Helvetica,sans-Serif" font-size="10.00"> j0, k0, l0 &gt;</text>
</g>
<!-- Node4 -->
<g id="node4" class="node">
<title>Node4</title>
<g id="a_node4"><a xlink:href="classFTensor_1_1Tensor4__Expr.html" target="_top" xlink:title=" ">
<polygon fill="white" stroke="black" points="307,-492.5 307,-533.5 455,-533.5 455,-492.5 307,-492.5"/>
<text text-anchor="start" x="315" y="-521.5" font-family="Helvetica,sans-Serif" font-size="10.00">FTensor::Tensor4_Expr</text>
<text text-anchor="start" x="315" y="-510.5" font-family="Helvetica,sans-Serif" font-size="10.00">&lt; B, U, Dim0, Dim1, Dim4,</text>
<text text-anchor="middle" x="381" y="-499.5" font-family="Helvetica,sans-Serif" font-size="10.00"> Dim5, i, j, m, n &gt;</text>
</a>
</g>
</g>
<!-- Node1&#45;&gt;Node4 -->
<g id="edge3" class="edge">
<title>Node1&#45;&gt;Node4</title>
<path fill="none" stroke="orange" stroke-dasharray="5,2" d="M84.09,-363.32C97.01,-397.08 122.78,-450.52 164,-478 205.88,-505.92 262.27,-514.31 306.94,-515.92"/>
<polygon fill="orange" stroke="orange" points="87.23,-361.7 80.5,-353.52 80.66,-364.11 87.23,-361.7"/>
<text text-anchor="start" x="165.5" y="-528" font-family="Helvetica,sans-Serif" font-size="10.00"> &lt; B, U, Dim0, Dim1,</text>
<text text-anchor="middle" x="225" y="-517" font-family="Helvetica,sans-Serif" font-size="10.00"> Dim4, Dim5, i, j, m, n &gt;</text>
</g>
<!-- Node5 -->
<g id="node5" class="node">
<title>Node5</title>
<g id="a_node5"><a xlink:href="classFTensor_1_1Tensor4__Expr.html" target="_top" xlink:title=" ">
<polygon fill="white" stroke="black" points="304,-432.5 304,-473.5 458,-473.5 458,-432.5 304,-432.5"/>
<text text-anchor="start" x="312" y="-461.5" font-family="Helvetica,sans-Serif" font-size="10.00">FTensor::Tensor4_Expr</text>
<text text-anchor="start" x="312" y="-450.5" font-family="Helvetica,sans-Serif" font-size="10.00">&lt; B, U, Dim0, Dim1, Dim23,</text>
<text text-anchor="middle" x="381" y="-439.5" font-family="Helvetica,sans-Serif" font-size="10.00"> Dim23, i, j, m, n &gt;</text>
</a>
</g>
</g>
<!-- Node1&#45;&gt;Node5 -->
<g id="edge4" class="edge">
<title>Node1&#45;&gt;Node5</title>
<path fill="none" stroke="orange" stroke-dasharray="5,2" d="M101.12,-360.7C117.86,-376.25 140.57,-394.74 164,-406 207.85,-427.06 261.22,-438.79 303.95,-445.26"/>
<polygon fill="orange" stroke="orange" points="103.52,-358.15 93.86,-353.79 98.7,-363.22 103.52,-358.15"/>
<text text-anchor="start" x="173.5" y="-466" font-family="Helvetica,sans-Serif" font-size="10.00"> &lt; B, U, Dim0, Dim1,</text>
<text text-anchor="start" x="173.5" y="-455" font-family="Helvetica,sans-Serif" font-size="10.00"> Dim23, Dim23, i, j,</text>
<text text-anchor="middle" x="225" y="-444" font-family="Helvetica,sans-Serif" font-size="10.00"> m, n &gt;</text>
</g>
<!-- Node6 -->
<g id="node6" class="node">
<title>Node6</title>
<g id="a_node6"><a xlink:href="classFTensor_1_1Tensor4__Expr.html" target="_top" xlink:title=" ">
<polygon fill="white" stroke="black" points="312,-372.5 312,-413.5 450,-413.5 450,-372.5 312,-372.5"/>
<text text-anchor="start" x="320" y="-401.5" font-family="Helvetica,sans-Serif" font-size="10.00">FTensor::Tensor4_Expr</text>
<text text-anchor="start" x="320" y="-390.5" font-family="Helvetica,sans-Serif" font-size="10.00">&lt; B, U, Dim23, Dim23,</text>
<text text-anchor="middle" x="381" y="-379.5" font-family="Helvetica,sans-Serif" font-size="10.00"> Dim2, Dim3, m, n, k, l &gt;</text>
</a>
</g>
</g>
<!-- Node1&#45;&gt;Node6 -->
<g id="edge5" class="edge">
<title>Node1&#45;&gt;Node6</title>
<path fill="none" stroke="orange" stroke-dasharray="5,2" d="M151.47,-356.04C155.69,-357.09 159.89,-358.09 164,-359 213.1,-369.91 269.24,-378.64 311.98,-384.51"/>
<polygon fill="orange" stroke="orange" points="152.14,-352.6 141.58,-353.51 150.4,-359.38 152.14,-352.6"/>
<text text-anchor="start" x="164" y="-394" font-family="Helvetica,sans-Serif" font-size="10.00"> &lt; B, U, Dim23, Dim23,</text>
<text text-anchor="middle" x="225" y="-383" font-family="Helvetica,sans-Serif" font-size="10.00"> Dim2, Dim3, m, n, k, l &gt;</text>
</g>
<!-- Node7 -->
<g id="node7" class="node">
<title>Node7</title>
<g id="a_node7"><a xlink:href="classFTensor_1_1Tensor4__Expr.html" target="_top" xlink:title=" ">
<polygon fill="white" stroke="black" points="311,-312.5 311,-353.5 451,-353.5 451,-312.5 311,-312.5"/>
<text text-anchor="start" x="319" y="-341.5" font-family="Helvetica,sans-Serif" font-size="10.00">FTensor::Tensor4_Expr</text>
<text text-anchor="start" x="319" y="-330.5" font-family="Helvetica,sans-Serif" font-size="10.00">&lt; A, T, Dim, Dim1, Dim2,</text>
<text text-anchor="middle" x="381" y="-319.5" font-family="Helvetica,sans-Serif" font-size="10.00"> Dim, i, j, k, l &gt;</text>
</a>
</g>
</g>
<!-- Node1&#45;&gt;Node7 -->
<g id="edge6" class="edge">
<title>Node1&#45;&gt;Node7</title>
<path fill="none" stroke="orange" stroke-dasharray="5,2" d="M156.26,-333C204.63,-333 265.11,-333 310.98,-333"/>
<polygon fill="orange" stroke="orange" points="156.13,-329.5 146.13,-333 156.13,-336.5 156.13,-329.5"/>
<text text-anchor="start" x="172" y="-347" font-family="Helvetica,sans-Serif" font-size="10.00"> &lt; A, T, Dim, Dim1,</text>
<text text-anchor="middle" x="225" y="-336" font-family="Helvetica,sans-Serif" font-size="10.00"> Dim2, Dim, i, j, k, l &gt;</text>
</g>
<!-- Node8 -->
<g id="node8" class="node">
<title>Node8</title>
<g id="a_node8"><a xlink:href="classFTensor_1_1Tensor4__Expr.html" target="_top" xlink:title=" ">
<polygon fill="white" stroke="black" points="311,-252.5 311,-293.5 451,-293.5 451,-252.5 311,-252.5"/>
<text text-anchor="start" x="319" y="-281.5" font-family="Helvetica,sans-Serif" font-size="10.00">FTensor::Tensor4_Expr</text>
<text text-anchor="start" x="319" y="-270.5" font-family="Helvetica,sans-Serif" font-size="10.00">&lt; A, T, Dim0, Dim1, Dim,</text>
<text text-anchor="middle" x="381" y="-259.5" font-family="Helvetica,sans-Serif" font-size="10.00"> Dim, i, j, k, l &gt;</text>
</a>
</g>
</g>
<!-- Node1&#45;&gt;Node8 -->
<g id="edge7" class="edge">
<title>Node1&#45;&gt;Node8</title>
<path fill="none" stroke="orange" stroke-dasharray="5,2" d="M151.47,-309.96C155.69,-308.91 159.89,-307.91 164,-307 212.55,-296.21 267.97,-287.56 310.52,-281.69"/>
<polygon fill="orange" stroke="orange" points="150.4,-306.62 141.58,-312.49 152.14,-313.4 150.4,-306.62"/>
<text text-anchor="start" x="174.5" y="-321" font-family="Helvetica,sans-Serif" font-size="10.00"> &lt; A, T, Dim0, Dim1,</text>
<text text-anchor="middle" x="225" y="-310" font-family="Helvetica,sans-Serif" font-size="10.00"> Dim, Dim, i, j, k, l &gt;</text>
</g>
<!-- Node9 -->
<g id="node9" class="node">
<title>Node9</title>
<g id="a_node9"><a xlink:href="classFTensor_1_1Tensor4__Expr.html" target="_top" xlink:title=" ">
<polygon fill="white" stroke="black" points="311,-192.5 311,-233.5 451,-233.5 451,-192.5 311,-192.5"/>
<text text-anchor="start" x="319" y="-221.5" font-family="Helvetica,sans-Serif" font-size="10.00">FTensor::Tensor4_Expr</text>
<text text-anchor="start" x="319" y="-210.5" font-family="Helvetica,sans-Serif" font-size="10.00">&lt; A, T, Dim01, Dim01,</text>
<text text-anchor="middle" x="381" y="-199.5" font-family="Helvetica,sans-Serif" font-size="10.00"> Dim23, Dim23, i, j, k, l &gt;</text>
</a>
</g>
</g>
<!-- Node1&#45;&gt;Node9 -->
<g id="edge8" class="edge">
<title>Node1&#45;&gt;Node9</title>
<path fill="none" stroke="orange" stroke-dasharray="5,2" d="M96.38,-304.31C112.94,-285.19 137.19,-261.24 164,-248 209.64,-225.46 266.68,-216.93 310.69,-213.91"/>
<polygon fill="orange" stroke="orange" points="93.54,-302.25 89.78,-312.16 98.89,-306.76 93.54,-302.25"/>
<text text-anchor="start" x="168.5" y="-273" font-family="Helvetica,sans-Serif" font-size="10.00"> &lt; A, T, Dim01, Dim01,</text>
<text text-anchor="start" x="168.5" y="-262" font-family="Helvetica,sans-Serif" font-size="10.00"> Dim23, Dim23, i, j,</text>
<text text-anchor="middle" x="225" y="-251" font-family="Helvetica,sans-Serif" font-size="10.00"> k, l &gt;</text>
</g>
<!-- Node10 -->
<g id="node10" class="node">
<title>Node10</title>
<g id="a_node10"><a xlink:href="classFTensor_1_1Tensor4__Expr.html" target="_top" xlink:title=" ">
<polygon fill="white" stroke="black" points="314.5,-121 314.5,-173 447.5,-173 447.5,-121 314.5,-121"/>
<text text-anchor="start" x="322.5" y="-161" font-family="Helvetica,sans-Serif" font-size="10.00">FTensor::Tensor4_Expr</text>
<text text-anchor="start" x="322.5" y="-150" font-family="Helvetica,sans-Serif" font-size="10.00">&lt; B, U, Dim0_1, Dim1</text>
<text text-anchor="start" x="322.5" y="-139" font-family="Helvetica,sans-Serif" font-size="10.00">_1, Dim2_1, Dim3_1, i1,</text>
<text text-anchor="middle" x="381" y="-128" font-family="Helvetica,sans-Serif" font-size="10.00"> j1, k1, l1 &gt;</text>
</a>
</g>
</g>
<!-- Node1&#45;&gt;Node10 -->
<g id="edge9" class="edge">
<title>Node1&#45;&gt;Node10</title>
<path fill="none" stroke="orange" stroke-dasharray="5,2" d="M82.94,-302.36C95.09,-266.55 120.45,-208.44 164,-179 207.97,-149.27 268.44,-142.49 314.23,-142.45"/>
<polygon fill="orange" stroke="orange" points="79.48,-301.67 79.72,-312.26 86.14,-303.83 79.48,-301.67"/>
<text text-anchor="start" x="166.5" y="-204" font-family="Helvetica,sans-Serif" font-size="10.00"> &lt; B, U, Dim0_1, Dim1</text>
<text text-anchor="start" x="166.5" y="-193" font-family="Helvetica,sans-Serif" font-size="10.00">_1, Dim2_1, Dim3_1, i1,</text>
<text text-anchor="middle" x="225" y="-182" font-family="Helvetica,sans-Serif" font-size="10.00"> j1, k1, l1 &gt;</text>
</g>
<!-- Node11 -->
<g id="node11" class="node">
<title>Node11</title>
<g id="a_node11"><a xlink:href="classFTensor_1_1Tensor4__Expr.html" target="_top" xlink:title=" ">
<polygon fill="white" stroke="black" points="314,-60.5 314,-101.5 448,-101.5 448,-60.5 314,-60.5"/>
<text text-anchor="start" x="322" y="-89.5" font-family="Helvetica,sans-Serif" font-size="10.00">FTensor::Tensor4_Expr</text>
<text text-anchor="start" x="322" y="-78.5" font-family="Helvetica,sans-Serif" font-size="10.00">&lt; A, T, Dim, Dim, Dim2,</text>
<text text-anchor="middle" x="381" y="-67.5" font-family="Helvetica,sans-Serif" font-size="10.00"> Dim3, i, j, k, l &gt;</text>
</a>
</g>
</g>
<!-- Node1&#45;&gt;Node11 -->
<g id="edge10" class="edge">
<title>Node1&#45;&gt;Node11</title>
<path fill="none" stroke="orange" stroke-dasharray="5,2" d="M77.45,-302.44C84.55,-254.79 105.41,-163.47 164,-117 206,-83.69 267.26,-76.15 313.82,-76.1"/>
<polygon fill="orange" stroke="orange" points="73.96,-302.07 76.06,-312.46 80.9,-303.03 73.96,-302.07"/>
<text text-anchor="start" x="164.5" y="-131" font-family="Helvetica,sans-Serif" font-size="10.00"> &lt; A, T, Dim, Dim, Dim2,</text>
<text text-anchor="middle" x="225" y="-120" font-family="Helvetica,sans-Serif" font-size="10.00"> Dim3, i, j, k, l &gt;</text>
</g>
<!-- Node12 -->
<g id="node12" class="node">
<title>Node12</title>
<g id="a_node12"><a xlink:href="classFTensor_1_1Tensor4__Expr.html" target="_top" xlink:title=" ">
<polygon fill="white" stroke="black" points="311,-0.5 311,-41.5 451,-41.5 451,-0.5 311,-0.5"/>
<text text-anchor="start" x="319" y="-29.5" font-family="Helvetica,sans-Serif" font-size="10.00">FTensor::Tensor4_Expr</text>
<text text-anchor="start" x="319" y="-18.5" font-family="Helvetica,sans-Serif" font-size="10.00">&lt; B, U, Dim01, Dim01,</text>
<text text-anchor="middle" x="381" y="-7.5" font-family="Helvetica,sans-Serif" font-size="10.00"> Dim23, Dim23, j, i, l, k &gt;</text>
</a>
</g>
</g>
<!-- Node1&#45;&gt;Node12 -->
<g id="edge11" class="edge">
<title>Node1&#45;&gt;Node12</title>
<path fill="none" stroke="orange" stroke-dasharray="5,2" d="M73.15,-301.95C73.36,-240.83 83.41,-105.2 164,-40 204.53,-7.21 264.43,-4.33 310.88,-8.61"/>
<polygon fill="orange" stroke="orange" points="69.66,-302.14 73.21,-312.12 76.66,-302.11 69.66,-302.14"/>
<text text-anchor="start" x="167.5" y="-65" font-family="Helvetica,sans-Serif" font-size="10.00"> &lt; B, U, Dim01, Dim01,</text>
<text text-anchor="start" x="167.5" y="-54" font-family="Helvetica,sans-Serif" font-size="10.00"> Dim23, Dim23, j, i,</text>
<text text-anchor="middle" x="225" y="-43" font-family="Helvetica,sans-Serif" font-size="10.00"> l, k &gt;</text>
</g>
</g>
</svg>
        <g id="navigator" transform="translate(0 0)" fill="#404254">
                <rect fill="#f2f5e9" fill-opacity="0.5" stroke="#606060" stroke-width=".5" x="0" y="0" width="60" height="60"/>
                <use id="zoomplus" xlink:href="#zoomPlus" x="17" y="9" onmousedown="handleZoom(evt,'in')"/>
                <use id="zoomminus" xlink:href="#zoomMin" x="42" y="9" onmousedown="handleZoom(evt,'out')"/>
                <use id="reset" xlink:href="#resetDef" x="30" y="36" onmousedown="handleReset()"/>
                <g id="arrowUp" xlink:href="#dirArrow" transform="translate(30 24)" onmousedown="handlePan(0,-1)">
                  <use xlink:href="#rim" fill="#404040">
                        <set attributeName="fill" to="#808080" begin="arrowUp.mouseover" end="arrowUp.mouseout"/>
                  </use>
                  <path fill="none" stroke="white" stroke-width="1.5" d="M0,-3.0v7 M-2.5,-0.5L0,-3.0L2.5,-0.5"/>
                </g>
                <g id="arrowRight" xlink:href="#dirArrow" transform="rotate(90) translate(36 -43)" onmousedown="handlePan(1,0)">
                  <use xlink:href="#rim" fill="#404040">
                        <set attributeName="fill" to="#808080" begin="arrowRight.mouseover" end="arrowRight.mouseout"/>
                  </use>
                  <path fill="none" stroke="white" stroke-width="1.5" d="M0,-3.0v7 M-2.5,-0.5L0,-3.0L2.5,-0.5"/>
                </g>
                <g id="arrowDown" xlink:href="#dirArrow" transform="rotate(180) translate(-30 -48)" onmousedown="handlePan(0,1)">
                  <use xlink:href="#rim" fill="#404040">
                        <set attributeName="fill" to="#808080" begin="arrowDown.mouseover" end="arrowDown.mouseout"/>
                  </use>
                  <path fill="none" stroke="white" stroke-width="1.5" d="M0,-3.0v7 M-2.5,-0.5L0,-3.0L2.5,-0.5"/>
                </g>
                <g id="arrowLeft" xlink:href="#dirArrow" transform="rotate(270) translate(-36 17)" onmousedown="handlePan(-1,0)">
                  <use xlink:href="#rim" fill="#404040">
                        <set attributeName="fill" to="#808080" begin="arrowLeft.mouseover" end="arrowLeft.mouseout"/>
                  </use>
                  <path fill="none" stroke="white" stroke-width="1.5" d="M0,-3.0v7 M-2.5,-0.5L0,-3.0L2.5,-0.5"/>
                </g>
        </g>
        <svg viewBox="0 0 15 15" width="100%" height="30px" preserveAspectRatio="xMaxYMin meet">
         <g id="arrow_out" transform="scale(0.3 0.3)">
          <a xlink:href="classFTensor_1_1Tensor4__Expr__inherit__graph_org.svg" target="_base">
           <rect id="button" ry="5" rx="5" y="6" x="6" height="38" width="38"
                fill="#f2f5e9" fill-opacity="0.5" stroke="#606060" stroke-width="1.0"/>
           <path id="arrow"
             d="M 11.500037,31.436501 C 11.940474,20.09759 22.043105,11.32322 32.158766,21.979434 L 37.068811,17.246167 C 37.068811,17.246167 37.088388,32 37.088388,32 L 22.160133,31.978069 C 22.160133,31.978069 26.997745,27.140456 26.997745,27.140456 C 18.528582,18.264221 13.291696,25.230495 11.500037,31.436501 z"
             style="fill:#404040;"/>
          </a>
         </g>
        </svg>
</svg>
