<?xml version="1.0" encoding="UTF-8" standalone="no"?>
<!DOCTYPE svg PUBLIC "-//W3C//DTD SVG 1.1//EN"
 "http://www.w3.org/Graphics/SVG/1.1/DTD/svg11.dtd">
<!-- Generated by graphviz version 2.43.0 (0)
 -->
<!-- Title: FTensor::Tensor2_symmetric_plus_Tensor2&lt; A, B, T, U, Dim, Dim, Dim, i, j, i, j &gt; Pages: 1 -->
<svg width="743pt" height="102pt"
 viewBox="0.00 0.00 743.00 101.50" xmlns="http://www.w3.org/2000/svg" xmlns:xlink="http://www.w3.org/1999/xlink">
<g id="graph0" class="graph" transform="scale(1 1) rotate(0) translate(4 97.5)">
<title>FTensor::Tensor2_symmetric_plus_Tensor2&lt; A, B, T, U, Dim, Dim, Dim, i, j, i, j &gt;</title>
<polygon fill="white" stroke="transparent" points="-4,4 -4,-97.5 739,-97.5 739,4 -4,4"/>
<!-- Node1 -->
<g id="node1" class="node">
<title>Node1</title>
<g id="a_node1"><a xlink:title=" ">
<polygon fill="#bfbfbf" stroke="black" points="580,-12 580,-53 735,-53 735,-12 580,-12"/>
<text text-anchor="start" x="588" y="-41" font-family="Helvetica,sans-Serif" font-size="10.00">FTensor::Tensor2_symmetric</text>
<text text-anchor="start" x="588" y="-30" font-family="Helvetica,sans-Serif" font-size="10.00">_plus_Tensor2&lt; A, B, T,</text>
<text text-anchor="middle" x="657.5" y="-19" font-family="Helvetica,sans-Serif" font-size="10.00"> U, Dim, Dim, Dim, i, j, i, j &gt;</text>
</a>
</g>
</g>
<!-- Node2 -->
<g id="node2" class="node">
<title>Node2</title>
<g id="a_node2"><a xlink:href="classFTensor_1_1Tensor2__Expr.html" target="_top" xlink:title=" ">
<polygon fill="white" stroke="black" points="382.5,-49.5 382.5,-79.5 512.5,-79.5 512.5,-49.5 382.5,-49.5"/>
<text text-anchor="start" x="390.5" y="-67.5" font-family="Helvetica,sans-Serif" font-size="10.00">FTensor::Tensor2_Expr</text>
<text text-anchor="middle" x="447.5" y="-56.5" font-family="Helvetica,sans-Serif" font-size="10.00">&lt; B, U, Dim, Dim, i, j &gt;</text>
</a>
</g>
</g>
<!-- Node2&#45;&gt;Node1 -->
<g id="edge1" class="edge">
<title>Node2&#45;&gt;Node1</title>
<path fill="none" stroke="#9a32cd" stroke-dasharray="5,2" d="M522.74,-53.08C541.27,-50.23 561.17,-47.17 579.81,-44.3"/>
<polygon fill="#9a32cd" stroke="#9a32cd" points="521.96,-49.66 512.6,-54.64 523.02,-56.58 521.96,-49.66"/>
<text text-anchor="middle" x="548.5" y="-52.5" font-family="Helvetica,sans-Serif" font-size="10.00"> iterB</text>
</g>
<!-- Node3 -->
<g id="node3" class="node">
<title>Node3</title>
<g id="a_node3"><a xlink:title=" ">
<polygon fill="white" stroke="#bfbfbf" points="140.5,-74 140.5,-93 169.5,-93 169.5,-74 140.5,-74"/>
<text text-anchor="middle" x="155" y="-81" font-family="Helvetica,sans-Serif" font-size="10.00">B</text>
</a>
</g>
</g>
<!-- Node3&#45;&gt;Node2 -->
<g id="edge2" class="edge">
<title>Node3&#45;&gt;Node2</title>
<path fill="none" stroke="#9a32cd" stroke-dasharray="5,2" d="M179.86,-81.94C223.7,-79.07 318.43,-72.88 382.33,-68.7"/>
<polygon fill="#9a32cd" stroke="#9a32cd" points="179.37,-78.46 169.62,-82.61 179.83,-85.45 179.37,-78.46"/>
<text text-anchor="middle" x="301.5" y="-79.5" font-family="Helvetica,sans-Serif" font-size="10.00"> iter</text>
</g>
<!-- Node4 -->
<g id="node4" class="node">
<title>Node4</title>
<g id="a_node4"><a xlink:href="classFTensor_1_1Tensor2__Expr.html" target="_top" xlink:title=" ">
<polygon fill="white" stroke="black" points="85,-24.5 85,-54.5 225,-54.5 225,-24.5 85,-24.5"/>
<text text-anchor="start" x="93" y="-42.5" font-family="Helvetica,sans-Serif" font-size="10.00">FTensor::Tensor2_Expr</text>
<text text-anchor="middle" x="155" y="-31.5" font-family="Helvetica,sans-Serif" font-size="10.00">&lt; A, T, Dim0, Dim1, i, j &gt;</text>
</a>
</g>
</g>
<!-- Node4&#45;&gt;Node2 -->
<g id="edge3" class="edge">
<title>Node4&#45;&gt;Node2</title>
<path fill="none" stroke="orange" stroke-dasharray="5,2" d="M235.84,-45.29C273.52,-48.14 319.09,-51.77 360,-55.5 367.22,-56.16 374.77,-56.89 382.28,-57.63"/>
<polygon fill="orange" stroke="orange" points="235.67,-41.77 225.44,-44.51 235.15,-48.75 235.67,-41.77"/>
<text text-anchor="middle" x="301.5" y="-58.5" font-family="Helvetica,sans-Serif" font-size="10.00"> &lt; B, U, Dim, Dim, i, j &gt;</text>
</g>
<!-- Node5 -->
<g id="node5" class="node">
<title>Node5</title>
<g id="a_node5"><a xlink:title=" ">
<polygon fill="white" stroke="#bfbfbf" points="0,-30 0,-49 29,-49 29,-30 0,-30"/>
<text text-anchor="middle" x="14.5" y="-37" font-family="Helvetica,sans-Serif" font-size="10.00">A</text>
</a>
</g>
</g>
<!-- Node5&#45;&gt;Node4 -->
<g id="edge4" class="edge">
<title>Node5&#45;&gt;Node4</title>
<path fill="none" stroke="#9a32cd" stroke-dasharray="5,2" d="M39.19,-39.5C51.95,-39.5 68.41,-39.5 84.87,-39.5"/>
<polygon fill="#9a32cd" stroke="#9a32cd" points="39.03,-36 29.03,-39.5 39.03,-43 39.03,-36"/>
<text text-anchor="middle" x="57" y="-42.5" font-family="Helvetica,sans-Serif" font-size="10.00"> iter</text>
</g>
<!-- Node6 -->
<g id="node6" class="node">
<title>Node6</title>
<g id="a_node6"><a xlink:title=" ">
<polygon fill="white" stroke="#bfbfbf" points="378,-0.5 378,-30.5 517,-30.5 517,-0.5 378,-0.5"/>
<text text-anchor="start" x="386" y="-18.5" font-family="Helvetica,sans-Serif" font-size="10.00">Tensor2_symmetric_Expr</text>
<text text-anchor="middle" x="447.5" y="-7.5" font-family="Helvetica,sans-Serif" font-size="10.00">&lt; A, T, Dim, i, j &gt;</text>
</a>
</g>
</g>
<!-- Node6&#45;&gt;Node1 -->
<g id="edge5" class="edge">
<title>Node6&#45;&gt;Node1</title>
<path fill="none" stroke="#9a32cd" stroke-dasharray="5,2" d="M527.38,-20.81C538.99,-21.66 550.81,-22.57 562,-23.5 567.83,-23.98 573.86,-24.51 579.92,-25.05"/>
<polygon fill="#9a32cd" stroke="#9a32cd" points="527.47,-17.31 517.24,-20.07 526.96,-24.29 527.47,-17.31"/>
<text text-anchor="middle" x="548.5" y="-26.5" font-family="Helvetica,sans-Serif" font-size="10.00"> iterA</text>
</g>
</g>
</svg>
