<?xml version="1.0" encoding="UTF-8" standalone="no"?>
<!DOCTYPE svg PUBLIC "-//W3C//DTD SVG 1.1//EN"
 "http://www.w3.org/Graphics/SVG/1.1/DTD/svg11.dtd">
<!-- Generated by graphviz version 2.43.0 (0)
 -->
<!-- Title: FTensor::Tensor2_symmetric_minus_Tensor2_symmetric&lt; A, B, T, U, Dim, Dim, i, j, j, i &gt; Pages: 1 -->
<svg width="748pt" height="102pt"
 viewBox="0.00 0.00 748.00 101.50" xmlns="http://www.w3.org/2000/svg" xmlns:xlink="http://www.w3.org/1999/xlink">
<g id="graph0" class="graph" transform="scale(1 1) rotate(0) translate(4 97.5)">
<title>FTensor::Tensor2_symmetric_minus_Tensor2_symmetric&lt; A, B, T, U, Dim, Dim, i, j, j, i &gt;</title>
<polygon fill="white" stroke="transparent" points="-4,4 -4,-97.5 744,-97.5 744,4 -4,4"/>
<!-- Node1 -->
<g id="node1" class="node">
<title>Node1</title>
<g id="a_node1"><a xlink:title=" ">
<polygon fill="#bfbfbf" stroke="black" points="585,-6.5 585,-58.5 740,-58.5 740,-6.5 585,-6.5"/>
<text text-anchor="start" x="593" y="-46.5" font-family="Helvetica,sans-Serif" font-size="10.00">FTensor::Tensor2_symmetric</text>
<text text-anchor="start" x="593" y="-35.5" font-family="Helvetica,sans-Serif" font-size="10.00">_minus_Tensor2_symmetric</text>
<text text-anchor="start" x="593" y="-24.5" font-family="Helvetica,sans-Serif" font-size="10.00">&lt; A, B, T, U, Dim, Dim, i,</text>
<text text-anchor="middle" x="662.5" y="-13.5" font-family="Helvetica,sans-Serif" font-size="10.00"> j, j, i &gt;</text>
</a>
</g>
</g>
<!-- Node2 -->
<g id="node2" class="node">
<title>Node2</title>
<g id="a_node2"><a xlink:href="classFTensor_1_1Tensor2__symmetric__Expr.html" target="_top" xlink:title=" ">
<polygon fill="white" stroke="black" points="367,-49.5 367,-79.5 522,-79.5 522,-49.5 367,-49.5"/>
<text text-anchor="start" x="375" y="-67.5" font-family="Helvetica,sans-Serif" font-size="10.00">FTensor::Tensor2_symmetric</text>
<text text-anchor="middle" x="444.5" y="-56.5" font-family="Helvetica,sans-Serif" font-size="10.00">_Expr&lt; B, U, Dim, j, i &gt;</text>
</a>
</g>
</g>
<!-- Node2&#45;&gt;Node1 -->
<g id="edge1" class="edge">
<title>Node2&#45;&gt;Node1</title>
<path fill="none" stroke="#9a32cd" stroke-dasharray="5,2" d="M532.4,-51.63C549.81,-49.05 567.97,-46.36 584.99,-43.84"/>
<polygon fill="#9a32cd" stroke="#9a32cd" points="531.64,-48.2 522.26,-53.13 532.67,-55.12 531.64,-48.2"/>
<text text-anchor="middle" x="553.5" y="-52.5" font-family="Helvetica,sans-Serif" font-size="10.00"> iterB</text>
</g>
<!-- Node3 -->
<g id="node3" class="node">
<title>Node3</title>
<g id="a_node3"><a xlink:title=" ">
<polygon fill="white" stroke="#bfbfbf" points="148,-74 148,-93 177,-93 177,-74 148,-74"/>
<text text-anchor="middle" x="162.5" y="-81" font-family="Helvetica,sans-Serif" font-size="10.00">B</text>
</a>
</g>
</g>
<!-- Node3&#45;&gt;Node2 -->
<g id="edge2" class="edge">
<title>Node3&#45;&gt;Node2</title>
<path fill="none" stroke="#9a32cd" stroke-dasharray="5,2" d="M187.16,-81.89C226.41,-79.23 306.65,-73.79 366.96,-69.69"/>
<polygon fill="#9a32cd" stroke="#9a32cd" points="186.75,-78.41 177,-82.58 187.22,-85.4 186.75,-78.41"/>
<text text-anchor="middle" x="303.5" y="-79.5" font-family="Helvetica,sans-Serif" font-size="10.00"> iter</text>
</g>
<!-- Node4 -->
<g id="node4" class="node">
<title>Node4</title>
<g id="a_node4"><a xlink:href="classFTensor_1_1Tensor2__symmetric__Expr.html" target="_top" xlink:title=" ">
<polygon fill="white" stroke="black" points="85,-24.5 85,-54.5 240,-54.5 240,-24.5 85,-24.5"/>
<text text-anchor="start" x="93" y="-42.5" font-family="Helvetica,sans-Serif" font-size="10.00">FTensor::Tensor2_symmetric</text>
<text text-anchor="middle" x="162.5" y="-31.5" font-family="Helvetica,sans-Serif" font-size="10.00">_Expr&lt; A, T, Dim, i, j &gt;</text>
</a>
</g>
</g>
<!-- Node4&#45;&gt;Node2 -->
<g id="edge3" class="edge">
<title>Node4&#45;&gt;Node2</title>
<path fill="none" stroke="orange" stroke-dasharray="5,2" d="M250.59,-46.85C281.65,-49.52 316.9,-52.59 349,-55.5 354.83,-56.03 360.85,-56.58 366.92,-57.15"/>
<polygon fill="orange" stroke="orange" points="250.49,-43.33 240.23,-45.96 249.89,-50.3 250.49,-43.33"/>
<text text-anchor="middle" x="303.5" y="-58.5" font-family="Helvetica,sans-Serif" font-size="10.00"> &lt; B, U, Dim, j, i &gt;</text>
</g>
<!-- Node5 -->
<g id="node5" class="node">
<title>Node5</title>
<g id="a_node5"><a xlink:title=" ">
<polygon fill="white" stroke="#bfbfbf" points="0,-30 0,-49 29,-49 29,-30 0,-30"/>
<text text-anchor="middle" x="14.5" y="-37" font-family="Helvetica,sans-Serif" font-size="10.00">A</text>
</a>
</g>
</g>
<!-- Node5&#45;&gt;Node4 -->
<g id="edge4" class="edge">
<title>Node5&#45;&gt;Node4</title>
<path fill="none" stroke="#9a32cd" stroke-dasharray="5,2" d="M39.33,-39.5C52,-39.5 68.37,-39.5 84.98,-39.5"/>
<polygon fill="#9a32cd" stroke="#9a32cd" points="39.24,-36 29.24,-39.5 39.24,-43 39.24,-36"/>
<text text-anchor="middle" x="57" y="-42.5" font-family="Helvetica,sans-Serif" font-size="10.00"> iter</text>
</g>
<!-- Node6 -->
<g id="node6" class="node">
<title>Node6</title>
<g id="a_node6"><a xlink:title=" ">
<polygon fill="white" stroke="#bfbfbf" points="375,-0.5 375,-30.5 514,-30.5 514,-0.5 375,-0.5"/>
<text text-anchor="start" x="383" y="-18.5" font-family="Helvetica,sans-Serif" font-size="10.00">Tensor2_symmetric_Expr</text>
<text text-anchor="middle" x="444.5" y="-7.5" font-family="Helvetica,sans-Serif" font-size="10.00">&lt; A, T, Dim, i, j &gt;</text>
</a>
</g>
</g>
<!-- Node6&#45;&gt;Node1 -->
<g id="edge5" class="edge">
<title>Node6&#45;&gt;Node1</title>
<path fill="none" stroke="#9a32cd" stroke-dasharray="5,2" d="M524.49,-20.36C538.65,-21.33 553.27,-22.39 567,-23.5 572.83,-23.97 578.86,-24.48 584.93,-25.02"/>
<polygon fill="#9a32cd" stroke="#9a32cd" points="524.49,-16.86 514.28,-19.68 524.02,-23.84 524.49,-16.86"/>
<text text-anchor="middle" x="553.5" y="-26.5" font-family="Helvetica,sans-Serif" font-size="10.00"> iterA</text>
</g>
</g>
</svg>
