<?xml version="1.0" encoding="UTF-8" standalone="no"?>
<!DOCTYPE svg PUBLIC "-//W3C//DTD SVG 1.1//EN"
 "http://www.w3.org/Graphics/SVG/1.1/DTD/svg11.dtd">
<!-- Generated by graphviz version 2.43.0 (0)
 -->
<!-- Title: FTensor::Tensor3_times_Dg_02_20&lt; A, B, T, U, Dim2, Dim1, Dim01, i, j, k, l &gt; Pages: 1 -->
<svg width="729pt" height="195pt"
 viewBox="0.00 0.00 729.00 195.00" xmlns="http://www.w3.org/2000/svg" xmlns:xlink="http://www.w3.org/1999/xlink">
<g id="graph0" class="graph" transform="scale(1 1) rotate(0) translate(4 191)">
<title>FTensor::Tensor3_times_Dg_02_20&lt; A, B, T, U, Dim2, Dim1, Dim01, i, j, k, l &gt;</title>
<polygon fill="white" stroke="transparent" points="-4,4 -4,-191 725,-191 725,4 -4,4"/>
<!-- Node1 -->
<g id="node1" class="node">
<title>Node1</title>
<g id="a_node1"><a xlink:title=" ">
<polygon fill="#bfbfbf" stroke="black" points="591,-77 591,-129 721,-129 721,-77 591,-77"/>
<text text-anchor="start" x="599" y="-117" font-family="Helvetica,sans-Serif" font-size="10.00">FTensor::Tensor3_times</text>
<text text-anchor="start" x="599" y="-106" font-family="Helvetica,sans-Serif" font-size="10.00">_Dg_02_20&lt; A, B, T, U,</text>
<text text-anchor="start" x="599" y="-95" font-family="Helvetica,sans-Serif" font-size="10.00"> Dim2, Dim1, Dim01, i,</text>
<text text-anchor="middle" x="656" y="-84" font-family="Helvetica,sans-Serif" font-size="10.00"> j, k, l &gt;</text>
</a>
</g>
</g>
<!-- Node2 -->
<g id="node2" class="node">
<title>Node2</title>
<g id="a_node2"><a xlink:href="classFTensor_1_1Dg__Expr.html" target="_top" xlink:title=" ">
<polygon fill="white" stroke="black" points="391.5,-112.5 391.5,-153.5 512.5,-153.5 512.5,-112.5 391.5,-112.5"/>
<text text-anchor="start" x="399.5" y="-141.5" font-family="Helvetica,sans-Serif" font-size="10.00">FTensor::Dg_Expr&lt; B,</text>
<text text-anchor="start" x="399.5" y="-130.5" font-family="Helvetica,sans-Serif" font-size="10.00"> U, Dim01, Dim2, k,</text>
<text text-anchor="middle" x="452" y="-119.5" font-family="Helvetica,sans-Serif" font-size="10.00"> l, j &gt;</text>
</a>
</g>
</g>
<!-- Node2&#45;&gt;Node1 -->
<g id="edge1" class="edge">
<title>Node2&#45;&gt;Node1</title>
<path fill="none" stroke="#9a32cd" stroke-dasharray="5,2" d="M522.54,-122.67C544.74,-119.38 569.19,-115.74 590.98,-112.51"/>
<polygon fill="#9a32cd" stroke="#9a32cd" points="521.89,-119.23 512.51,-124.16 522.92,-126.15 521.89,-119.23"/>
<text text-anchor="middle" x="559.5" y="-121" font-family="Helvetica,sans-Serif" font-size="10.00"> iterB</text>
</g>
<!-- Node3 -->
<g id="node3" class="node">
<title>Node3</title>
<g id="a_node3"><a xlink:title=" ">
<polygon fill="white" stroke="#bfbfbf" points="143.5,-167.5 143.5,-186.5 172.5,-186.5 172.5,-167.5 143.5,-167.5"/>
<text text-anchor="middle" x="158" y="-174.5" font-family="Helvetica,sans-Serif" font-size="10.00">B</text>
</a>
</g>
</g>
<!-- Node3&#45;&gt;Node2 -->
<g id="edge2" class="edge">
<title>Node3&#45;&gt;Node2</title>
<path fill="none" stroke="#9a32cd" stroke-dasharray="5,2" d="M182.99,-175.3C220.51,-172.43 295.3,-165.84 358,-155 368.79,-153.13 380.2,-150.77 391.19,-148.28"/>
<polygon fill="#9a32cd" stroke="#9a32cd" points="182.31,-171.84 172.59,-176.07 182.82,-178.82 182.31,-171.84"/>
<text text-anchor="middle" x="303.5" y="-172" font-family="Helvetica,sans-Serif" font-size="10.00"> iter</text>
</g>
<!-- Node4 -->
<g id="node4" class="node">
<title>Node4</title>
<g id="a_node4"><a xlink:href="classFTensor_1_1Dg__Expr.html" target="_top" xlink:title=" ">
<polygon fill="white" stroke="black" points="97.5,-107.5 97.5,-148.5 218.5,-148.5 218.5,-107.5 97.5,-107.5"/>
<text text-anchor="start" x="105.5" y="-136.5" font-family="Helvetica,sans-Serif" font-size="10.00">FTensor::Dg_Expr&lt; A,</text>
<text text-anchor="start" x="105.5" y="-125.5" font-family="Helvetica,sans-Serif" font-size="10.00"> T, Dim01, Dim2, i,</text>
<text text-anchor="middle" x="158" y="-114.5" font-family="Helvetica,sans-Serif" font-size="10.00"> j, k &gt;</text>
</a>
</g>
</g>
<!-- Node4&#45;&gt;Node2 -->
<g id="edge3" class="edge">
<title>Node4&#45;&gt;Node2</title>
<path fill="none" stroke="orange" stroke-dasharray="5,2" d="M229.1,-129.2C278.62,-130.05 344.26,-131.17 391.28,-131.98"/>
<polygon fill="orange" stroke="orange" points="228.85,-125.7 218.8,-129.02 228.73,-132.69 228.85,-125.7"/>
<text text-anchor="start" x="249" y="-145" font-family="Helvetica,sans-Serif" font-size="10.00"> &lt; B, U, Dim01, Dim2,</text>
<text text-anchor="middle" x="303.5" y="-134" font-family="Helvetica,sans-Serif" font-size="10.00"> k, l, j &gt;</text>
</g>
<!-- Node5 -->
<g id="node5" class="node">
<title>Node5</title>
<g id="a_node5"><a xlink:title=" ">
<polygon fill="white" stroke="#bfbfbf" points="0,-68.5 0,-87.5 29,-87.5 29,-68.5 0,-68.5"/>
<text text-anchor="middle" x="14.5" y="-75.5" font-family="Helvetica,sans-Serif" font-size="10.00">A</text>
</a>
</g>
</g>
<!-- Node5&#45;&gt;Node4 -->
<g id="edge4" class="edge">
<title>Node5&#45;&gt;Node4</title>
<path fill="none" stroke="#9a32cd" stroke-dasharray="5,2" d="M38.49,-88.54C41.34,-89.75 44.22,-90.93 47,-92 63.13,-98.2 80.83,-104.3 97.24,-109.67"/>
<polygon fill="#9a32cd" stroke="#9a32cd" points="39.74,-85.26 29.17,-84.44 36.92,-91.67 39.74,-85.26"/>
<text text-anchor="middle" x="57" y="-101" font-family="Helvetica,sans-Serif" font-size="10.00"> iter</text>
</g>
<!-- Node6 -->
<g id="node6" class="node">
<title>Node6</title>
<g id="a_node6"><a xlink:href="classFTensor_1_1Tensor3__Expr.html" target="_top" xlink:title=" ">
<polygon fill="white" stroke="black" points="376,-52.5 376,-93.5 528,-93.5 528,-52.5 376,-52.5"/>
<text text-anchor="start" x="384" y="-81.5" font-family="Helvetica,sans-Serif" font-size="10.00">FTensor::Tensor3_Expr</text>
<text text-anchor="start" x="384" y="-70.5" font-family="Helvetica,sans-Serif" font-size="10.00">&lt; A, T, Dim2, Dim1, Dim01,</text>
<text text-anchor="middle" x="452" y="-59.5" font-family="Helvetica,sans-Serif" font-size="10.00"> j, i, k &gt;</text>
</a>
</g>
</g>
<!-- Node5&#45;&gt;Node6 -->
<g id="edge6" class="edge">
<title>Node5&#45;&gt;Node6</title>
<path fill="none" stroke="#9a32cd" stroke-dasharray="5,2" d="M39.08,-77.73C101.81,-77.01 274.89,-75.02 375.62,-73.87"/>
<polygon fill="#9a32cd" stroke="#9a32cd" points="38.97,-74.23 29.01,-77.84 39.05,-81.23 38.97,-74.23"/>
<text text-anchor="middle" x="158" y="-80" font-family="Helvetica,sans-Serif" font-size="10.00"> iter</text>
</g>
<!-- Node7 -->
<g id="node7" class="node">
<title>Node7</title>
<g id="a_node7"><a xlink:href="classFTensor_1_1Tensor3__Expr.html" target="_top" xlink:title=" ">
<polygon fill="white" stroke="black" points="85,-0.5 85,-41.5 231,-41.5 231,-0.5 85,-0.5"/>
<text text-anchor="start" x="93" y="-29.5" font-family="Helvetica,sans-Serif" font-size="10.00">FTensor::Tensor3_Expr</text>
<text text-anchor="start" x="93" y="-18.5" font-family="Helvetica,sans-Serif" font-size="10.00">&lt; A, T, Dim0, Dim1, Dim2,</text>
<text text-anchor="middle" x="158" y="-7.5" font-family="Helvetica,sans-Serif" font-size="10.00"> i, j, k &gt;</text>
</a>
</g>
</g>
<!-- Node5&#45;&gt;Node7 -->
<g id="edge8" class="edge">
<title>Node5&#45;&gt;Node7</title>
<path fill="none" stroke="#9a32cd" stroke-dasharray="5,2" d="M33.53,-61.76C37.74,-58.53 42.36,-55.4 47,-53 58.75,-46.93 71.82,-41.85 84.73,-37.66"/>
<polygon fill="#9a32cd" stroke="#9a32cd" points="31.05,-59.26 25.57,-68.33 35.51,-64.66 31.05,-59.26"/>
<text text-anchor="middle" x="57" y="-56" font-family="Helvetica,sans-Serif" font-size="10.00"> iter</text>
</g>
<!-- Node6&#45;&gt;Node1 -->
<g id="edge5" class="edge">
<title>Node6&#45;&gt;Node1</title>
<path fill="none" stroke="#9a32cd" stroke-dasharray="5,2" d="M538.48,-85.7C556.07,-88.31 574.31,-91.02 590.98,-93.49"/>
<polygon fill="#9a32cd" stroke="#9a32cd" points="538.62,-82.18 528.22,-84.17 537.59,-89.1 538.62,-82.18"/>
<text text-anchor="middle" x="559.5" y="-93" font-family="Helvetica,sans-Serif" font-size="10.00"> iterA</text>
</g>
<!-- Node7&#45;&gt;Node6 -->
<g id="edge7" class="edge">
<title>Node7&#45;&gt;Node6</title>
<path fill="none" stroke="orange" stroke-dasharray="5,2" d="M241.43,-25.67C277.5,-28.75 320.14,-33.79 358,-42 370.47,-44.7 383.62,-48.48 395.98,-52.48"/>
<polygon fill="orange" stroke="orange" points="241.7,-22.18 231.44,-24.86 241.13,-29.16 241.7,-22.18"/>
<text text-anchor="start" x="253" y="-56" font-family="Helvetica,sans-Serif" font-size="10.00"> &lt; A, T, Dim2, Dim1,</text>
<text text-anchor="middle" x="303.5" y="-45" font-family="Helvetica,sans-Serif" font-size="10.00"> Dim01, j, i, k &gt;</text>
</g>
</g>
</svg>
