<?xml version="1.0" encoding="UTF-8" standalone="no"?>
<!DOCTYPE svg PUBLIC "-//W3C//DTD SVG 1.1//EN"
 "http://www.w3.org/Graphics/SVG/1.1/DTD/svg11.dtd">
<!-- Generated by graphviz version 2.43.0 (0)
 -->
<!-- Title: FTensor::Ddg_and_Ddg0213&lt; A, B, T, U, Dim, i, j, k, l &gt; Pages: 1 -->
<svg width="675pt" height="137pt"
 viewBox="0.00 0.00 675.00 137.00" xmlns="http://www.w3.org/2000/svg" xmlns:xlink="http://www.w3.org/1999/xlink">
<g id="graph0" class="graph" transform="scale(1 1) rotate(0) translate(4 133)">
<title>FTensor::Ddg_and_Ddg0213&lt; A, B, T, U, Dim, i, j, k, l &gt;</title>
<polygon fill="white" stroke="transparent" points="-4,4 -4,-133 671,-133 671,4 -4,4"/>
<!-- Node1 -->
<g id="node1" class="node">
<title>Node1</title>
<g id="a_node1"><a xlink:title=" ">
<polygon fill="#bfbfbf" stroke="black" points="516,-30.5 516,-71.5 667,-71.5 667,-30.5 516,-30.5"/>
<text text-anchor="start" x="524" y="-59.5" font-family="Helvetica,sans-Serif" font-size="10.00">FTensor::Ddg_and_Ddg0213</text>
<text text-anchor="start" x="524" y="-48.5" font-family="Helvetica,sans-Serif" font-size="10.00">&lt; A, B, T, U, Dim, i, j,</text>
<text text-anchor="middle" x="591.5" y="-37.5" font-family="Helvetica,sans-Serif" font-size="10.00"> k, l &gt;</text>
</a>
</g>
</g>
<!-- Node2 -->
<g id="node2" class="node">
<title>Node2</title>
<g id="a_node2"><a xlink:href="classFTensor_1_1Ddg__Expr.html" target="_top" xlink:title=" ">
<polygon fill="white" stroke="black" points="339,-60.5 339,-101.5 453,-101.5 453,-60.5 339,-60.5"/>
<text text-anchor="start" x="347" y="-89.5" font-family="Helvetica,sans-Serif" font-size="10.00">FTensor::Ddg_Expr&lt;</text>
<text text-anchor="start" x="347" y="-78.5" font-family="Helvetica,sans-Serif" font-size="10.00"> B, U, Dim, Dim, i,</text>
<text text-anchor="middle" x="396" y="-67.5" font-family="Helvetica,sans-Serif" font-size="10.00"> l, k, j &gt;</text>
</a>
</g>
</g>
<!-- Node2&#45;&gt;Node1 -->
<g id="edge1" class="edge">
<title>Node2&#45;&gt;Node1</title>
<path fill="none" stroke="#9a32cd" stroke-dasharray="5,2" d="M463.51,-70.69C480.35,-68.08 498.54,-65.26 515.76,-62.59"/>
<polygon fill="#9a32cd" stroke="#9a32cd" points="462.57,-67.29 453.23,-72.28 463.65,-74.21 462.57,-67.29"/>
<text text-anchor="middle" x="484.5" y="-71" font-family="Helvetica,sans-Serif" font-size="10.00"> iterB</text>
</g>
<!-- Node3 -->
<g id="node3" class="node">
<title>Node3</title>
<g id="a_node3"><a xlink:title=" ">
<polygon fill="white" stroke="#bfbfbf" points="129.5,-109.5 129.5,-128.5 158.5,-128.5 158.5,-109.5 129.5,-109.5"/>
<text text-anchor="middle" x="144" y="-116.5" font-family="Helvetica,sans-Serif" font-size="10.00">B</text>
</a>
</g>
</g>
<!-- Node3&#45;&gt;Node2 -->
<g id="edge2" class="edge">
<title>Node3&#45;&gt;Node2</title>
<path fill="none" stroke="#9a32cd" stroke-dasharray="5,2" d="M169.03,-116.12C202.97,-111.96 266.85,-103.81 321,-95 326.81,-94.06 332.86,-93.01 338.89,-91.93"/>
<polygon fill="#9a32cd" stroke="#9a32cd" points="168.23,-112.69 158.73,-117.37 169.08,-119.64 168.23,-112.69"/>
<text text-anchor="middle" x="271" y="-111" font-family="Helvetica,sans-Serif" font-size="10.00"> iter</text>
</g>
<!-- Node4 -->
<g id="node4" class="node">
<title>Node4</title>
<g id="a_node4"><a xlink:href="classFTensor_1_1Ddg__Expr.html" target="_top" xlink:title=" ">
<polygon fill="white" stroke="black" points="85,-25.5 85,-66.5 203,-66.5 203,-25.5 85,-25.5"/>
<text text-anchor="start" x="93" y="-54.5" font-family="Helvetica,sans-Serif" font-size="10.00">FTensor::Ddg_Expr&lt;</text>
<text text-anchor="start" x="93" y="-43.5" font-family="Helvetica,sans-Serif" font-size="10.00"> A, T, Dim01, Dim23,</text>
<text text-anchor="middle" x="144" y="-32.5" font-family="Helvetica,sans-Serif" font-size="10.00"> i, j, k, l &gt;</text>
</a>
</g>
</g>
<!-- Node4&#45;&gt;Node2 -->
<g id="edge3" class="edge">
<title>Node4&#45;&gt;Node2</title>
<path fill="none" stroke="orange" stroke-dasharray="5,2" d="M213.35,-55.57C252.73,-61.08 301.62,-67.93 338.76,-73.13"/>
<polygon fill="orange" stroke="orange" points="213.69,-52.08 203.3,-54.16 212.72,-59.01 213.69,-52.08"/>
<text text-anchor="start" x="221" y="-83" font-family="Helvetica,sans-Serif" font-size="10.00"> &lt; B, U, Dim, Dim, i,</text>
<text text-anchor="middle" x="271" y="-72" font-family="Helvetica,sans-Serif" font-size="10.00"> l, k, j &gt;</text>
</g>
<!-- Node6 -->
<g id="node6" class="node">
<title>Node6</title>
<g id="a_node6"><a xlink:href="classFTensor_1_1Ddg__Expr.html" target="_top" xlink:title=" ">
<polygon fill="white" stroke="black" points="339,-0.5 339,-41.5 453,-41.5 453,-0.5 339,-0.5"/>
<text text-anchor="start" x="347" y="-29.5" font-family="Helvetica,sans-Serif" font-size="10.00">FTensor::Ddg_Expr&lt;</text>
<text text-anchor="start" x="347" y="-18.5" font-family="Helvetica,sans-Serif" font-size="10.00"> A, T, Dim, Dim, i,</text>
<text text-anchor="middle" x="396" y="-7.5" font-family="Helvetica,sans-Serif" font-size="10.00"> k, l, j &gt;</text>
</a>
</g>
</g>
<!-- Node4&#45;&gt;Node6 -->
<g id="edge7" class="edge">
<title>Node4&#45;&gt;Node6</title>
<path fill="none" stroke="orange" stroke-dasharray="5,2" d="M213.35,-31.09C215.93,-30.69 218.48,-30.33 221,-30 260.14,-24.9 304.59,-22.66 338.77,-21.69"/>
<polygon fill="orange" stroke="orange" points="212.64,-27.66 203.35,-32.76 213.79,-34.57 212.64,-27.66"/>
<text text-anchor="start" x="222" y="-44" font-family="Helvetica,sans-Serif" font-size="10.00"> &lt; A, T, Dim, Dim, i,</text>
<text text-anchor="middle" x="271" y="-33" font-family="Helvetica,sans-Serif" font-size="10.00"> k, l, j &gt;</text>
</g>
<!-- Node5 -->
<g id="node5" class="node">
<title>Node5</title>
<g id="a_node5"><a xlink:title=" ">
<polygon fill="white" stroke="#bfbfbf" points="0,-6.5 0,-25.5 29,-25.5 29,-6.5 0,-6.5"/>
<text text-anchor="middle" x="14.5" y="-13.5" font-family="Helvetica,sans-Serif" font-size="10.00">A</text>
</a>
</g>
</g>
<!-- Node5&#45;&gt;Node4 -->
<g id="edge4" class="edge">
<title>Node5&#45;&gt;Node4</title>
<path fill="none" stroke="#9a32cd" stroke-dasharray="5,2" d="M39.07,-21.54C52.04,-24.6 68.75,-28.53 84.97,-32.35"/>
<polygon fill="#9a32cd" stroke="#9a32cd" points="39.68,-18.09 29.14,-19.21 38.08,-24.91 39.68,-18.09"/>
<text text-anchor="middle" x="57" y="-30" font-family="Helvetica,sans-Serif" font-size="10.00"> iter</text>
</g>
<!-- Node5&#45;&gt;Node6 -->
<g id="edge6" class="edge">
<title>Node5&#45;&gt;Node6</title>
<path fill="none" stroke="#9a32cd" stroke-dasharray="5,2" d="M38.86,-11.36C52.3,-8.93 69.53,-6.22 85,-5 173.65,1.97 276.8,-6.69 338.94,-13.73"/>
<polygon fill="#9a32cd" stroke="#9a32cd" points="38.19,-7.93 29.01,-13.22 39.48,-14.81 38.19,-7.93"/>
<text text-anchor="middle" x="144" y="-8" font-family="Helvetica,sans-Serif" font-size="10.00"> iter</text>
</g>
<!-- Node6&#45;&gt;Node1 -->
<g id="edge5" class="edge">
<title>Node6&#45;&gt;Node1</title>
<path fill="none" stroke="#9a32cd" stroke-dasharray="5,2" d="M463.51,-31.31C480.35,-33.92 498.54,-36.74 515.76,-39.41"/>
<polygon fill="#9a32cd" stroke="#9a32cd" points="463.65,-27.79 453.23,-29.72 462.57,-34.71 463.65,-27.79"/>
<text text-anchor="middle" x="484.5" y="-39" font-family="Helvetica,sans-Serif" font-size="10.00"> iterA</text>
</g>
</g>
</svg>
