<?xml version="1.0" encoding="UTF-8" standalone="no"?>
<!DOCTYPE svg PUBLIC "-//W3C//DTD SVG 1.1//EN"
 "http://www.w3.org/Graphics/SVG/1.1/DTD/svg11.dtd">
<!-- Generated by graphviz version 2.43.0 (0)
 -->
<!-- Title: FTensor::Tensor3_antisymmetric_or_Tensor3_antisymmetric&lt; A, B, T, U, Dim, i, j, k &gt; Pages: 1 -->
<!--zoomable 135 -->
<svg id="main" version="1.1" xmlns="http://www.w3.org/2000/svg" xmlns:xlink="http://www.w3.org/1999/xlink" xml:space="preserve" onload="init(evt)">
<style type="text/css"><![CDATA[
.edge:hover path { stroke: red; }
.edge:hover polygon { stroke: red; fill: red; }
]]></style>
<script type="text/javascript"><![CDATA[
var edges = document.getElementsByTagName('g');
if (edges && edges.length) {
  for (var i=0;i<edges.length;i++) {
    if (edges[i].id.substr(0,4)=='edge') {
      edges[i].setAttribute('class','edge');
    }
  }
}
]]></script>
        <defs>
                <circle id="rim" cx="0" cy="0" r="7"/>
                <circle id="rim2" cx="0" cy="0" r="3.5"/>
                <g id="zoomPlus">
                        <use xlink:href="#rim" fill="#404040">
                                <set attributeName="fill" to="#808080" begin="zoomplus.mouseover" end="zoomplus.mouseout"/>
                        </use>
                        <path d="M-4,0h8M0,-4v8" fill="none" stroke="white" stroke-width="1.5" pointer-events="none"/>
                </g>
                <g id="zoomMin">
                        <use xlink:href="#rim" fill="#404040">
                                <set attributeName="fill" to="#808080" begin="zoomminus.mouseover" end="zoomminus.mouseout"/>
                        </use>
                        <path d="M-4,0h8" fill="none" stroke="white" stroke-width="1.5" pointer-events="none"/>
                </g>
                <g id="dirArrow">
                        <path fill="none" stroke="white" stroke-width="1.5" d="M0,-3.0v7 M-2.5,-0.5L0,-3.0L2.5,-0.5"/>
                </g>
               <g id="resetDef">
                       <use xlink:href="#rim2" fill="#404040">
                               <set attributeName="fill" to="#808080" begin="reset.mouseover" end="reset.mouseout"/>
                       </use>
               </g>
        </defs>

<script type="text/javascript">
var viewWidth = 814;
var viewHeight = 135;
var sectionId = 'dynsection-0';
</script>
<script xlink:href="svgpan.js"/>
<svg id="graph" class="graph">
<g id="viewport">
<title>FTensor::Tensor3_antisymmetric_or_Tensor3_antisymmetric&lt; A, B, T, U, Dim, i, j, k &gt;</title>
<polygon fill="white" stroke="transparent" points="-4,4 -4,-131.29 810,-131.29 810,4 -4,4"/>
<!-- Node1 -->
<g id="node1" class="node">
<title>Node1</title>
<g id="a_node1"><a xlink:title=" ">
<polygon fill="#bfbfbf" stroke="black" points="633,-28.79 633,-69.79 806,-69.79 806,-28.79 633,-28.79"/>
<text text-anchor="start" x="641" y="-57.79" font-family="Helvetica,sans-Serif" font-size="10.00">FTensor::Tensor3_antisymmetric</text>
<text text-anchor="start" x="641" y="-46.79" font-family="Helvetica,sans-Serif" font-size="10.00">_or_Tensor3_antisymmetric</text>
<text text-anchor="middle" x="719.5" y="-35.79" font-family="Helvetica,sans-Serif" font-size="10.00">&lt; A, B, T, U, Dim, i, j, k &gt;</text>
</a>
</g>
</g>
<!-- Node2 -->
<g id="node2" class="node">
<title>Node2</title>
<g id="a_node2"><a xlink:href="classFTensor_1_1Tensor3__antisymmetric__Expr.html" target="_top" xlink:title=" ">
<polygon fill="white" stroke="black" points="397,-59.29 397,-89.29 570,-89.29 570,-59.29 397,-59.29"/>
<text text-anchor="start" x="405" y="-77.29" font-family="Helvetica,sans-Serif" font-size="10.00">FTensor::Tensor3_antisymmetric</text>
<text text-anchor="middle" x="483.5" y="-66.29" font-family="Helvetica,sans-Serif" font-size="10.00">_Expr&lt; B, U, Dim, Dim, k, j, i &gt;</text>
</a>
</g>
</g>
<!-- Node2&#45;&gt;Node1 -->
<g id="edge1" class="edge">
<title>Node2&#45;&gt;Node1</title>
<path fill="none" stroke="#9a32cd" stroke-dasharray="5,2" d="M580.42,-64.04C597.74,-62.19 615.7,-60.27 632.71,-58.45"/>
<polygon fill="#9a32cd" stroke="#9a32cd" points="579.88,-60.58 570.3,-65.12 580.62,-67.54 579.88,-60.58"/>
<text text-anchor="middle" x="601.5" y="-65.29" font-family="Helvetica,sans-Serif" font-size="10.00"> iterB</text>
</g>
<!-- Node3 -->
<g id="node3" class="node">
<title>Node3</title>
<g id="a_node3"><a xlink:title=" ">
<polygon fill="white" stroke="#bfbfbf" points="157,-107.79 157,-126.79 186,-126.79 186,-107.79 157,-107.79"/>
<text text-anchor="middle" x="171.5" y="-114.79" font-family="Helvetica,sans-Serif" font-size="10.00">B</text>
</a>
</g>
</g>
<!-- Node3&#45;&gt;Node2 -->
<g id="edge2" class="edge">
<title>Node3&#45;&gt;Node2</title>
<path fill="none" stroke="#9a32cd" stroke-dasharray="5,2" d="M196.19,-114.15C234.6,-109.04 312.8,-98.57 379,-89.29 384.84,-88.47 390.87,-87.62 396.94,-86.75"/>
<polygon fill="#9a32cd" stroke="#9a32cd" points="195.49,-110.71 186.04,-115.5 196.41,-117.65 195.49,-110.71"/>
<text text-anchor="middle" x="327.5" y="-105.29" font-family="Helvetica,sans-Serif" font-size="10.00"> iter</text>
</g>
<!-- Node4 -->
<g id="node4" class="node">
<title>Node4</title>
<g id="a_node4"><a xlink:href="classFTensor_1_1Tensor3__antisymmetric__Expr.html" target="_top" xlink:title=" ">
<polygon fill="white" stroke="black" points="85,-23.79 85,-64.79 258,-64.79 258,-23.79 85,-23.79"/>
<text text-anchor="start" x="93" y="-52.79" font-family="Helvetica,sans-Serif" font-size="10.00">FTensor::Tensor3_antisymmetric</text>
<text text-anchor="start" x="93" y="-41.79" font-family="Helvetica,sans-Serif" font-size="10.00">_Expr&lt; A, T, Dim0, Dim12,</text>
<text text-anchor="middle" x="171.5" y="-30.79" font-family="Helvetica,sans-Serif" font-size="10.00"> i, j, k &gt;</text>
</a>
</g>
</g>
<!-- Node4&#45;&gt;Node2 -->
<g id="edge3" class="edge">
<title>Node4&#45;&gt;Node2</title>
<path fill="none" stroke="orange" stroke-dasharray="5,2" d="M268.07,-53.54C309.24,-57.52 357,-62.14 396.98,-66.01"/>
<polygon fill="orange" stroke="orange" points="268.32,-50.05 258.03,-52.57 267.65,-57.01 268.32,-50.05"/>
<text text-anchor="start" x="276" y="-77.29" font-family="Helvetica,sans-Serif" font-size="10.00"> &lt; B, U, Dim, Dim, k,</text>
<text text-anchor="middle" x="327.5" y="-66.29" font-family="Helvetica,sans-Serif" font-size="10.00"> j, i &gt;</text>
</g>
<!-- Node6 -->
<g id="node6" class="node">
<title>Node6</title>
<g id="a_node6"><a xlink:href="classFTensor_1_1Tensor3__antisymmetric__Expr.html" target="_top" xlink:title=" ">
<polygon fill="white" stroke="black" points="397,-10.29 397,-40.29 570,-40.29 570,-10.29 397,-10.29"/>
<text text-anchor="start" x="405" y="-28.29" font-family="Helvetica,sans-Serif" font-size="10.00">FTensor::Tensor3_antisymmetric</text>
<text text-anchor="middle" x="483.5" y="-17.29" font-family="Helvetica,sans-Serif" font-size="10.00">_Expr&lt; A, T, Dim, Dim, i, j, k &gt;</text>
</a>
</g>
</g>
<!-- Node4&#45;&gt;Node6 -->
<g id="edge7" class="edge">
<title>Node4&#45;&gt;Node6</title>
<path fill="none" stroke="orange" stroke-dasharray="5,2" d="M268.31,-29C270.89,-28.74 273.46,-28.5 276,-28.29 315.66,-24.95 359.75,-23.94 396.97,-23.87"/>
<polygon fill="orange" stroke="orange" points="267.8,-25.53 258.24,-30.1 268.56,-32.49 267.8,-25.53"/>
<text text-anchor="start" x="278.5" y="-42.29" font-family="Helvetica,sans-Serif" font-size="10.00"> &lt; A, T, Dim, Dim, i,</text>
<text text-anchor="middle" x="327.5" y="-31.29" font-family="Helvetica,sans-Serif" font-size="10.00"> j, k &gt;</text>
</g>
<!-- Node5 -->
<g id="node5" class="node">
<title>Node5</title>
<g id="a_node5"><a xlink:title=" ">
<polygon fill="white" stroke="#bfbfbf" points="0,-4.79 0,-23.79 29,-23.79 29,-4.79 0,-4.79"/>
<text text-anchor="middle" x="14.5" y="-11.79" font-family="Helvetica,sans-Serif" font-size="10.00">A</text>
</a>
</g>
</g>
<!-- Node5&#45;&gt;Node4 -->
<g id="edge4" class="edge">
<title>Node5&#45;&gt;Node4</title>
<path fill="none" stroke="#9a32cd" stroke-dasharray="5,2" d="M39.23,-18.88C51.75,-21.3 67.96,-24.44 84.7,-27.68"/>
<polygon fill="#9a32cd" stroke="#9a32cd" points="39.74,-15.41 29.26,-16.95 38.41,-22.29 39.74,-15.41"/>
<text text-anchor="middle" x="57" y="-26.29" font-family="Helvetica,sans-Serif" font-size="10.00"> iter</text>
</g>
<!-- Node5&#45;&gt;Node6 -->
<g id="edge6" class="edge">
<title>Node5&#45;&gt;Node6</title>
<path fill="none" stroke="#9a32cd" stroke-dasharray="5,2" d="M38.86,-9.65C52.3,-7.22 69.53,-4.51 85,-3.29 192.32,5.15 316.18,-4.82 396.74,-13.93"/>
<polygon fill="#9a32cd" stroke="#9a32cd" points="38.19,-6.22 29.01,-11.51 39.48,-13.1 38.19,-6.22"/>
<text text-anchor="middle" x="171.5" y="-6.29" font-family="Helvetica,sans-Serif" font-size="10.00"> iter</text>
</g>
<!-- Node6&#45;&gt;Node1 -->
<g id="edge5" class="edge">
<title>Node6&#45;&gt;Node1</title>
<path fill="none" stroke="#9a32cd" stroke-dasharray="5,2" d="M580.38,-33.84C592.05,-34.96 603.8,-36.12 615,-37.29 620.85,-37.9 626.88,-38.54 632.95,-39.21"/>
<polygon fill="#9a32cd" stroke="#9a32cd" points="580.46,-30.33 570.17,-32.87 579.79,-37.3 580.46,-30.33"/>
<text text-anchor="middle" x="601.5" y="-40.29" font-family="Helvetica,sans-Serif" font-size="10.00"> iterA</text>
</g>
</g>
</svg>
        <g id="navigator" transform="translate(0 0)" fill="#404254">
                <rect fill="#f2f5e9" fill-opacity="0.5" stroke="#606060" stroke-width=".5" x="0" y="0" width="60" height="60"/>
                <use id="zoomplus" xlink:href="#zoomPlus" x="17" y="9" onmousedown="handleZoom(evt,'in')"/>
                <use id="zoomminus" xlink:href="#zoomMin" x="42" y="9" onmousedown="handleZoom(evt,'out')"/>
                <use id="reset" xlink:href="#resetDef" x="30" y="36" onmousedown="handleReset()"/>
                <g id="arrowUp" xlink:href="#dirArrow" transform="translate(30 24)" onmousedown="handlePan(0,-1)">
                  <use xlink:href="#rim" fill="#404040">
                        <set attributeName="fill" to="#808080" begin="arrowUp.mouseover" end="arrowUp.mouseout"/>
                  </use>
                  <path fill="none" stroke="white" stroke-width="1.5" d="M0,-3.0v7 M-2.5,-0.5L0,-3.0L2.5,-0.5"/>
                </g>
                <g id="arrowRight" xlink:href="#dirArrow" transform="rotate(90) translate(36 -43)" onmousedown="handlePan(1,0)">
                  <use xlink:href="#rim" fill="#404040">
                        <set attributeName="fill" to="#808080" begin="arrowRight.mouseover" end="arrowRight.mouseout"/>
                  </use>
                  <path fill="none" stroke="white" stroke-width="1.5" d="M0,-3.0v7 M-2.5,-0.5L0,-3.0L2.5,-0.5"/>
                </g>
                <g id="arrowDown" xlink:href="#dirArrow" transform="rotate(180) translate(-30 -48)" onmousedown="handlePan(0,1)">
                  <use xlink:href="#rim" fill="#404040">
                        <set attributeName="fill" to="#808080" begin="arrowDown.mouseover" end="arrowDown.mouseout"/>
                  </use>
                  <path fill="none" stroke="white" stroke-width="1.5" d="M0,-3.0v7 M-2.5,-0.5L0,-3.0L2.5,-0.5"/>
                </g>
                <g id="arrowLeft" xlink:href="#dirArrow" transform="rotate(270) translate(-36 17)" onmousedown="handlePan(-1,0)">
                  <use xlink:href="#rim" fill="#404040">
                        <set attributeName="fill" to="#808080" begin="arrowLeft.mouseover" end="arrowLeft.mouseout"/>
                  </use>
                  <path fill="none" stroke="white" stroke-width="1.5" d="M0,-3.0v7 M-2.5,-0.5L0,-3.0L2.5,-0.5"/>
                </g>
        </g>
        <svg viewBox="0 0 15 15" width="100%" height="30px" preserveAspectRatio="xMaxYMin meet">
         <g id="arrow_out" transform="scale(0.3 0.3)">
          <a xlink:href="classFTensor_1_1Tensor3__antisymmetric__or__Tensor3__antisymmetric__coll__graph_org.svg" target="_base">
           <rect id="button" ry="5" rx="5" y="6" x="6" height="38" width="38"
                fill="#f2f5e9" fill-opacity="0.5" stroke="#606060" stroke-width="1.0"/>
           <path id="arrow"
             d="M 11.500037,31.436501 C 11.940474,20.09759 22.043105,11.32322 32.158766,21.979434 L 37.068811,17.246167 C 37.068811,17.246167 37.088388,32 37.088388,32 L 22.160133,31.978069 C 22.160133,31.978069 26.997745,27.140456 26.997745,27.140456 C 18.528582,18.264221 13.291696,25.230495 11.500037,31.436501 z"
             style="fill:#404040;"/>
          </a>
         </g>
        </svg>
</svg>
