<?xml version="1.0" encoding="UTF-8" standalone="no"?>
<!DOCTYPE svg PUBLIC "-//W3C//DTD SVG 1.1//EN"
 "http://www.w3.org/Graphics/SVG/1.1/DTD/svg11.dtd">
<!-- Generated by graphviz version 2.43.0 (0)
 -->
<!-- Title: FTensor::Ddg_carat_Ddg_13&lt; A, B, T, U, Dim, Dim23, i, j, k, l, m, n &gt; Pages: 1 -->
<svg width="647pt" height="137pt"
 viewBox="0.00 0.00 647.00 137.00" xmlns="http://www.w3.org/2000/svg" xmlns:xlink="http://www.w3.org/1999/xlink">
<g id="graph0" class="graph" transform="scale(1 1) rotate(0) translate(4 133)">
<title>FTensor::Ddg_carat_Ddg_13&lt; A, B, T, U, Dim, Dim23, i, j, k, l, m, n &gt;</title>
<polygon fill="white" stroke="transparent" points="-4,4 -4,-133 643,-133 643,4 -4,4"/>
<!-- Node1 -->
<g id="node1" class="node">
<title>Node1</title>
<g id="a_node1"><a xlink:title=" ">
<polygon fill="#bfbfbf" stroke="black" points="521,-25 521,-77 639,-77 639,-25 521,-25"/>
<text text-anchor="start" x="529" y="-65" font-family="Helvetica,sans-Serif" font-size="10.00">FTensor::Ddg_carat</text>
<text text-anchor="start" x="529" y="-54" font-family="Helvetica,sans-Serif" font-size="10.00">_Ddg_13&lt; A, B, T, U,</text>
<text text-anchor="start" x="529" y="-43" font-family="Helvetica,sans-Serif" font-size="10.00"> Dim, Dim23, i, j, k,</text>
<text text-anchor="middle" x="580" y="-32" font-family="Helvetica,sans-Serif" font-size="10.00"> l, m, n &gt;</text>
</a>
</g>
</g>
<!-- Node2 -->
<g id="node2" class="node">
<title>Node2</title>
<g id="a_node2"><a xlink:href="classFTensor_1_1Ddg__Expr.html" target="_top" xlink:title=" ">
<polygon fill="white" stroke="black" points="342,-60.5 342,-101.5 458,-101.5 458,-60.5 342,-60.5"/>
<text text-anchor="start" x="350" y="-89.5" font-family="Helvetica,sans-Serif" font-size="10.00">FTensor::Ddg_Expr&lt;</text>
<text text-anchor="start" x="350" y="-78.5" font-family="Helvetica,sans-Serif" font-size="10.00"> B, U, Dim, Dim23, j,</text>
<text text-anchor="middle" x="400" y="-67.5" font-family="Helvetica,sans-Serif" font-size="10.00"> l, m, n &gt;</text>
</a>
</g>
</g>
<!-- Node2&#45;&gt;Node1 -->
<g id="edge1" class="edge">
<title>Node2&#45;&gt;Node1</title>
<path fill="none" stroke="#9a32cd" stroke-dasharray="5,2" d="M468.33,-69.65C485.63,-66.74 504.1,-63.62 520.89,-60.79"/>
<polygon fill="#9a32cd" stroke="#9a32cd" points="467.58,-66.23 458.3,-71.34 468.74,-73.13 467.58,-66.23"/>
<text text-anchor="middle" x="489.5" y="-70" font-family="Helvetica,sans-Serif" font-size="10.00"> iterB</text>
</g>
<!-- Node3 -->
<g id="node3" class="node">
<title>Node3</title>
<g id="a_node3"><a xlink:title=" ">
<polygon fill="white" stroke="#bfbfbf" points="129.5,-109.5 129.5,-128.5 158.5,-128.5 158.5,-109.5 129.5,-109.5"/>
<text text-anchor="middle" x="144" y="-116.5" font-family="Helvetica,sans-Serif" font-size="10.00">B</text>
</a>
</g>
</g>
<!-- Node3&#45;&gt;Node2 -->
<g id="edge2" class="edge">
<title>Node3&#45;&gt;Node2</title>
<path fill="none" stroke="#9a32cd" stroke-dasharray="5,2" d="M168.49,-116.51C202.78,-112.75 268.48,-105.11 324,-96 329.77,-95.05 335.76,-93.99 341.75,-92.88"/>
<polygon fill="#9a32cd" stroke="#9a32cd" points="168.09,-113.03 158.52,-117.59 168.84,-119.99 168.09,-113.03"/>
<text text-anchor="middle" x="272.5" y="-113" font-family="Helvetica,sans-Serif" font-size="10.00"> iter</text>
</g>
<!-- Node4 -->
<g id="node4" class="node">
<title>Node4</title>
<g id="a_node4"><a xlink:href="classFTensor_1_1Ddg__Expr.html" target="_top" xlink:title=" ">
<polygon fill="white" stroke="black" points="85,-25.5 85,-66.5 203,-66.5 203,-25.5 85,-25.5"/>
<text text-anchor="start" x="93" y="-54.5" font-family="Helvetica,sans-Serif" font-size="10.00">FTensor::Ddg_Expr&lt;</text>
<text text-anchor="start" x="93" y="-43.5" font-family="Helvetica,sans-Serif" font-size="10.00"> A, T, Dim01, Dim23,</text>
<text text-anchor="middle" x="144" y="-32.5" font-family="Helvetica,sans-Serif" font-size="10.00"> i, j, k, l &gt;</text>
</a>
</g>
</g>
<!-- Node4&#45;&gt;Node2 -->
<g id="edge3" class="edge">
<title>Node4&#45;&gt;Node2</title>
<path fill="none" stroke="orange" stroke-dasharray="5,2" d="M213.27,-55.41C253.48,-60.95 303.77,-67.88 341.87,-73.13"/>
<polygon fill="orange" stroke="orange" points="213.66,-51.93 203.27,-54.03 212.7,-58.86 213.66,-51.93"/>
<text text-anchor="start" x="221" y="-84" font-family="Helvetica,sans-Serif" font-size="10.00"> &lt; B, U, Dim, Dim23,</text>
<text text-anchor="middle" x="272.5" y="-73" font-family="Helvetica,sans-Serif" font-size="10.00"> j, l, m, n &gt;</text>
</g>
<!-- Node6 -->
<g id="node6" class="node">
<title>Node6</title>
<g id="a_node6"><a xlink:href="classFTensor_1_1Ddg__Expr.html" target="_top" xlink:title=" ">
<polygon fill="white" stroke="black" points="343,-0.5 343,-41.5 457,-41.5 457,-0.5 343,-0.5"/>
<text text-anchor="start" x="351" y="-29.5" font-family="Helvetica,sans-Serif" font-size="10.00">FTensor::Ddg_Expr&lt;</text>
<text text-anchor="start" x="351" y="-18.5" font-family="Helvetica,sans-Serif" font-size="10.00"> A, T, Dim, Dim, i,</text>
<text text-anchor="middle" x="400" y="-7.5" font-family="Helvetica,sans-Serif" font-size="10.00"> j, k, l &gt;</text>
</a>
</g>
</g>
<!-- Node4&#45;&gt;Node6 -->
<g id="edge7" class="edge">
<title>Node4&#45;&gt;Node6</title>
<path fill="none" stroke="orange" stroke-dasharray="5,2" d="M213.35,-31.09C215.93,-30.69 218.48,-30.33 221,-30 261.5,-24.75 307.56,-22.52 342.68,-21.59"/>
<polygon fill="orange" stroke="orange" points="212.64,-27.66 203.35,-32.75 213.79,-34.56 212.64,-27.66"/>
<text text-anchor="start" x="223.5" y="-44" font-family="Helvetica,sans-Serif" font-size="10.00"> &lt; A, T, Dim, Dim, i,</text>
<text text-anchor="middle" x="272.5" y="-33" font-family="Helvetica,sans-Serif" font-size="10.00"> j, k, l &gt;</text>
</g>
<!-- Node5 -->
<g id="node5" class="node">
<title>Node5</title>
<g id="a_node5"><a xlink:title=" ">
<polygon fill="white" stroke="#bfbfbf" points="0,-6.5 0,-25.5 29,-25.5 29,-6.5 0,-6.5"/>
<text text-anchor="middle" x="14.5" y="-13.5" font-family="Helvetica,sans-Serif" font-size="10.00">A</text>
</a>
</g>
</g>
<!-- Node5&#45;&gt;Node4 -->
<g id="edge4" class="edge">
<title>Node5&#45;&gt;Node4</title>
<path fill="none" stroke="#9a32cd" stroke-dasharray="5,2" d="M39.07,-21.54C52.04,-24.6 68.75,-28.53 84.97,-32.35"/>
<polygon fill="#9a32cd" stroke="#9a32cd" points="39.68,-18.09 29.14,-19.21 38.08,-24.91 39.68,-18.09"/>
<text text-anchor="middle" x="57" y="-30" font-family="Helvetica,sans-Serif" font-size="10.00"> iter</text>
</g>
<!-- Node5&#45;&gt;Node6 -->
<g id="edge6" class="edge">
<title>Node5&#45;&gt;Node6</title>
<path fill="none" stroke="#9a32cd" stroke-dasharray="5,2" d="M38.86,-11.36C52.3,-8.93 69.53,-6.22 85,-5 175.06,2.08 279.91,-6.68 342.79,-13.76"/>
<polygon fill="#9a32cd" stroke="#9a32cd" points="38.19,-7.93 29.01,-13.22 39.48,-14.81 38.19,-7.93"/>
<text text-anchor="middle" x="144" y="-8" font-family="Helvetica,sans-Serif" font-size="10.00"> iter</text>
</g>
<!-- Node6&#45;&gt;Node1 -->
<g id="edge5" class="edge">
<title>Node6&#45;&gt;Node1</title>
<path fill="none" stroke="#9a32cd" stroke-dasharray="5,2" d="M467.49,-32.21C485.03,-35.16 503.83,-38.33 520.9,-41.21"/>
<polygon fill="#9a32cd" stroke="#9a32cd" points="467.76,-28.7 457.32,-30.49 466.6,-35.61 467.76,-28.7"/>
<text text-anchor="middle" x="489.5" y="-40" font-family="Helvetica,sans-Serif" font-size="10.00"> iterA</text>
</g>
</g>
</svg>
