<?xml version="1.0" encoding="UTF-8" standalone="no"?>
<!DOCTYPE svg PUBLIC "-//W3C//DTD SVG 1.1//EN"
 "http://www.w3.org/Graphics/SVG/1.1/DTD/svg11.dtd">
<!-- Generated by graphviz version 2.43.0 (0)
 -->
<!-- Title: FTensor::Tensor4_times_Tensor2_13&lt; A, B, T, U, Dim0, Dim1, Dim2, Dim3, i, j, k, l &gt; Pages: 1 -->
<svg width="736pt" height="122pt"
 viewBox="0.00 0.00 736.00 121.50" xmlns="http://www.w3.org/2000/svg" xmlns:xlink="http://www.w3.org/1999/xlink">
<g id="graph0" class="graph" transform="scale(1 1) rotate(0) translate(4 117.5)">
<title>FTensor::Tensor4_times_Tensor2_13&lt; A, B, T, U, Dim0, Dim1, Dim2, Dim3, i, j, k, l &gt;</title>
<polygon fill="white" stroke="transparent" points="-4,4 -4,-117.5 732,-117.5 732,4 -4,4"/>
<!-- Node1 -->
<g id="node1" class="node">
<title>Node1</title>
<g id="a_node1"><a xlink:title=" ">
<polygon fill="#bfbfbf" stroke="black" points="569,-39.5 569,-91.5 728,-91.5 728,-39.5 569,-39.5"/>
<text text-anchor="start" x="577" y="-79.5" font-family="Helvetica,sans-Serif" font-size="10.00">FTensor::Tensor4_times</text>
<text text-anchor="start" x="577" y="-68.5" font-family="Helvetica,sans-Serif" font-size="10.00">_Tensor2_13&lt; A, B, T,</text>
<text text-anchor="start" x="577" y="-57.5" font-family="Helvetica,sans-Serif" font-size="10.00"> U, Dim0, Dim1, Dim2, Dim3,</text>
<text text-anchor="middle" x="648.5" y="-46.5" font-family="Helvetica,sans-Serif" font-size="10.00"> i, j, k, l &gt;</text>
</a>
</g>
</g>
<!-- Node2 -->
<g id="node2" class="node">
<title>Node2</title>
<g id="a_node2"><a xlink:title=" ">
<polygon fill="white" stroke="#bfbfbf" points="371,-72 371,-113 499,-113 499,-72 371,-72"/>
<text text-anchor="start" x="379" y="-101" font-family="Helvetica,sans-Serif" font-size="10.00">const Tensor4_Expr</text>
<text text-anchor="start" x="379" y="-90" font-family="Helvetica,sans-Serif" font-size="10.00">&lt; A, T, Dim0, Dim1,</text>
<text text-anchor="middle" x="435" y="-79" font-family="Helvetica,sans-Serif" font-size="10.00"> Dim2, Dim3, i, j, k, l &gt;</text>
</a>
</g>
</g>
<!-- Node2&#45;&gt;Node1 -->
<g id="edge1" class="edge">
<title>Node2&#45;&gt;Node1</title>
<path fill="none" stroke="#9a32cd" stroke-dasharray="5,2" d="M509.11,-83.17C528.41,-80.7 549.33,-78.03 568.92,-75.53"/>
<polygon fill="#9a32cd" stroke="#9a32cd" points="508.65,-79.7 499.17,-84.44 509.53,-86.64 508.65,-79.7"/>
<text text-anchor="middle" x="537.5" y="-83.5" font-family="Helvetica,sans-Serif" font-size="10.00"> iterA</text>
</g>
<!-- Node3 -->
<g id="node3" class="node">
<title>Node3</title>
<g id="a_node3"><a xlink:href="classFTensor_1_1Tensor2__Expr.html" target="_top" xlink:title=" ">
<polygon fill="white" stroke="black" points="364,-22.5 364,-52.5 506,-52.5 506,-22.5 364,-22.5"/>
<text text-anchor="start" x="372" y="-40.5" font-family="Helvetica,sans-Serif" font-size="10.00">FTensor::Tensor2_Expr</text>
<text text-anchor="middle" x="435" y="-29.5" font-family="Helvetica,sans-Serif" font-size="10.00">&lt; B, U, Dim2, Dim3, j, l &gt;</text>
</a>
</g>
</g>
<!-- Node3&#45;&gt;Node1 -->
<g id="edge2" class="edge">
<title>Node3&#45;&gt;Node1</title>
<path fill="none" stroke="#9a32cd" stroke-dasharray="5,2" d="M516.16,-48.11C533.4,-50.39 551.61,-52.81 568.79,-55.08"/>
<polygon fill="#9a32cd" stroke="#9a32cd" points="516.51,-44.63 506.13,-46.78 515.59,-51.57 516.51,-44.63"/>
<text text-anchor="middle" x="537.5" y="-55.5" font-family="Helvetica,sans-Serif" font-size="10.00"> iterB</text>
</g>
<!-- Node4 -->
<g id="node4" class="node">
<title>Node4</title>
<g id="a_node4"><a xlink:title=" ">
<polygon fill="white" stroke="#bfbfbf" points="140.5,-51 140.5,-70 169.5,-70 169.5,-51 140.5,-51"/>
<text text-anchor="middle" x="155" y="-58" font-family="Helvetica,sans-Serif" font-size="10.00">B</text>
</a>
</g>
</g>
<!-- Node4&#45;&gt;Node3 -->
<g id="edge3" class="edge">
<title>Node4&#45;&gt;Node3</title>
<path fill="none" stroke="#9a32cd" stroke-dasharray="5,2" d="M179.75,-58.53C220.13,-55.19 303.64,-48.29 363.95,-43.3"/>
<polygon fill="#9a32cd" stroke="#9a32cd" points="179.46,-55.05 169.79,-59.36 180.04,-62.02 179.46,-55.05"/>
<text text-anchor="middle" x="294.5" y="-56.5" font-family="Helvetica,sans-Serif" font-size="10.00"> iter</text>
</g>
<!-- Node5 -->
<g id="node5" class="node">
<title>Node5</title>
<g id="a_node5"><a xlink:href="classFTensor_1_1Tensor2__Expr.html" target="_top" xlink:title=" ">
<polygon fill="white" stroke="black" points="85,-0.5 85,-30.5 225,-30.5 225,-0.5 85,-0.5"/>
<text text-anchor="start" x="93" y="-18.5" font-family="Helvetica,sans-Serif" font-size="10.00">FTensor::Tensor2_Expr</text>
<text text-anchor="middle" x="155" y="-7.5" font-family="Helvetica,sans-Serif" font-size="10.00">&lt; A, T, Dim0, Dim1, i, j &gt;</text>
</a>
</g>
</g>
<!-- Node5&#45;&gt;Node3 -->
<g id="edge4" class="edge">
<title>Node5&#45;&gt;Node3</title>
<path fill="none" stroke="orange" stroke-dasharray="5,2" d="M235.65,-11.88C269.75,-11.37 309.94,-12.16 346,-16.5 356.92,-17.81 368.44,-19.98 379.43,-22.43"/>
<polygon fill="orange" stroke="orange" points="235.21,-8.38 225.28,-12.07 235.34,-15.38 235.21,-8.38"/>
<text text-anchor="start" x="243" y="-30.5" font-family="Helvetica,sans-Serif" font-size="10.00"> &lt; B, U, Dim2, Dim3,</text>
<text text-anchor="middle" x="294.5" y="-19.5" font-family="Helvetica,sans-Serif" font-size="10.00"> j, l &gt;</text>
</g>
<!-- Node6 -->
<g id="node6" class="node">
<title>Node6</title>
<g id="a_node6"><a xlink:title=" ">
<polygon fill="white" stroke="#bfbfbf" points="0,-6 0,-25 29,-25 29,-6 0,-6"/>
<text text-anchor="middle" x="14.5" y="-13" font-family="Helvetica,sans-Serif" font-size="10.00">A</text>
</a>
</g>
</g>
<!-- Node6&#45;&gt;Node5 -->
<g id="edge5" class="edge">
<title>Node6&#45;&gt;Node5</title>
<path fill="none" stroke="#9a32cd" stroke-dasharray="5,2" d="M39.19,-15.5C51.95,-15.5 68.41,-15.5 84.87,-15.5"/>
<polygon fill="#9a32cd" stroke="#9a32cd" points="39.03,-12 29.03,-15.5 39.03,-19 39.03,-12"/>
<text text-anchor="middle" x="57" y="-18.5" font-family="Helvetica,sans-Serif" font-size="10.00"> iter</text>
</g>
</g>
</svg>
