<?xml version="1.0" encoding="UTF-8" standalone="no"?>
<!DOCTYPE svg PUBLIC "-//W3C//DTD SVG 1.1//EN"
 "http://www.w3.org/Graphics/SVG/1.1/DTD/svg11.dtd">
<!-- Generated by graphviz version 2.43.0 (0)
 -->
<!-- Title: FTensor::Tensor3_times_Tensor3_21&lt; A, B, T, U, Dim0, Dim1, Dim23, Dim4, Dim5, i, j, k, l, m &gt; Pages: 1 -->
<svg width="743pt" height="137pt"
 viewBox="0.00 0.00 743.00 137.00" xmlns="http://www.w3.org/2000/svg" xmlns:xlink="http://www.w3.org/1999/xlink">
<g id="graph0" class="graph" transform="scale(1 1) rotate(0) translate(4 133)">
<title>FTensor::Tensor3_times_Tensor3_21&lt; A, B, T, U, Dim0, Dim1, Dim23, Dim4, Dim5, i, j, k, l, m &gt;</title>
<polygon fill="white" stroke="transparent" points="-4,4 -4,-133 739,-133 739,4 -4,4"/>
<!-- Node1 -->
<g id="node1" class="node">
<title>Node1</title>
<g id="a_node1"><a xlink:title=" ">
<polygon fill="#bfbfbf" stroke="black" points="591,-25 591,-77 735,-77 735,-25 591,-25"/>
<text text-anchor="start" x="599" y="-65" font-family="Helvetica,sans-Serif" font-size="10.00">FTensor::Tensor3_times</text>
<text text-anchor="start" x="599" y="-54" font-family="Helvetica,sans-Serif" font-size="10.00">_Tensor3_21&lt; A, B, T,</text>
<text text-anchor="start" x="599" y="-43" font-family="Helvetica,sans-Serif" font-size="10.00"> U, Dim0, Dim1, Dim23,</text>
<text text-anchor="middle" x="663" y="-32" font-family="Helvetica,sans-Serif" font-size="10.00"> Dim4, Dim5, i, j, k, l, m &gt;</text>
</a>
</g>
</g>
<!-- Node2 -->
<g id="node2" class="node">
<title>Node2</title>
<g id="a_node2"><a xlink:href="classFTensor_1_1Tensor3__Expr.html" target="_top" xlink:title=" ">
<polygon fill="white" stroke="black" points="390,-60.5 390,-101.5 514,-101.5 514,-60.5 390,-60.5"/>
<text text-anchor="start" x="398" y="-89.5" font-family="Helvetica,sans-Serif" font-size="10.00">FTensor::Tensor3_Expr</text>
<text text-anchor="start" x="398" y="-78.5" font-family="Helvetica,sans-Serif" font-size="10.00">&lt; B, U, Dim23, Dim4,</text>
<text text-anchor="middle" x="452" y="-67.5" font-family="Helvetica,sans-Serif" font-size="10.00"> Dim5, k, l, m &gt;</text>
</a>
</g>
</g>
<!-- Node2&#45;&gt;Node1 -->
<g id="edge1" class="edge">
<title>Node2&#45;&gt;Node1</title>
<path fill="none" stroke="#9a32cd" stroke-dasharray="5,2" d="M524.09,-70.8C545.67,-67.7 569.38,-64.29 590.96,-61.2"/>
<polygon fill="#9a32cd" stroke="#9a32cd" points="523.41,-67.36 514.01,-72.24 524.41,-74.29 523.41,-67.36"/>
<text text-anchor="middle" x="559.5" y="-69" font-family="Helvetica,sans-Serif" font-size="10.00"> iterB</text>
</g>
<!-- Node3 -->
<g id="node3" class="node">
<title>Node3</title>
<g id="a_node3"><a xlink:title=" ">
<polygon fill="white" stroke="#bfbfbf" points="143.5,-109.5 143.5,-128.5 172.5,-128.5 172.5,-109.5 143.5,-109.5"/>
<text text-anchor="middle" x="158" y="-116.5" font-family="Helvetica,sans-Serif" font-size="10.00">B</text>
</a>
</g>
</g>
<!-- Node3&#45;&gt;Node2 -->
<g id="edge2" class="edge">
<title>Node3&#45;&gt;Node2</title>
<path fill="none" stroke="#9a32cd" stroke-dasharray="5,2" d="M182.88,-116.35C220.27,-112.15 294.87,-103.56 358,-95 368.27,-93.61 379.17,-92.04 389.76,-90.48"/>
<polygon fill="#9a32cd" stroke="#9a32cd" points="182.08,-112.92 172.53,-117.51 182.86,-119.87 182.08,-112.92"/>
<text text-anchor="middle" x="303.5" y="-111" font-family="Helvetica,sans-Serif" font-size="10.00"> iter</text>
</g>
<!-- Node4 -->
<g id="node4" class="node">
<title>Node4</title>
<g id="a_node4"><a xlink:href="classFTensor_1_1Tensor3__Expr.html" target="_top" xlink:title=" ">
<polygon fill="white" stroke="black" points="85,-25.5 85,-66.5 231,-66.5 231,-25.5 85,-25.5"/>
<text text-anchor="start" x="93" y="-54.5" font-family="Helvetica,sans-Serif" font-size="10.00">FTensor::Tensor3_Expr</text>
<text text-anchor="start" x="93" y="-43.5" font-family="Helvetica,sans-Serif" font-size="10.00">&lt; A, T, Dim0, Dim1, Dim2,</text>
<text text-anchor="middle" x="158" y="-32.5" font-family="Helvetica,sans-Serif" font-size="10.00"> i, j, k &gt;</text>
</a>
</g>
</g>
<!-- Node4&#45;&gt;Node2 -->
<g id="edge3" class="edge">
<title>Node4&#45;&gt;Node2</title>
<path fill="none" stroke="orange" stroke-dasharray="5,2" d="M241.35,-55.87C288.42,-61.51 346.45,-68.47 389.52,-73.63"/>
<polygon fill="orange" stroke="orange" points="241.53,-52.37 231.18,-54.65 240.69,-59.32 241.53,-52.37"/>
<text text-anchor="start" x="249" y="-83" font-family="Helvetica,sans-Serif" font-size="10.00"> &lt; B, U, Dim23, Dim4,</text>
<text text-anchor="middle" x="303.5" y="-72" font-family="Helvetica,sans-Serif" font-size="10.00"> Dim5, k, l, m &gt;</text>
</g>
<!-- Node6 -->
<g id="node6" class="node">
<title>Node6</title>
<g id="a_node6"><a xlink:href="classFTensor_1_1Tensor3__Expr.html" target="_top" xlink:title=" ">
<polygon fill="white" stroke="black" points="376,-0.5 376,-41.5 528,-41.5 528,-0.5 376,-0.5"/>
<text text-anchor="start" x="384" y="-29.5" font-family="Helvetica,sans-Serif" font-size="10.00">FTensor::Tensor3_Expr</text>
<text text-anchor="start" x="384" y="-18.5" font-family="Helvetica,sans-Serif" font-size="10.00">&lt; A, T, Dim0, Dim1, Dim23,</text>
<text text-anchor="middle" x="452" y="-7.5" font-family="Helvetica,sans-Serif" font-size="10.00"> i, j, k &gt;</text>
</a>
</g>
</g>
<!-- Node4&#45;&gt;Node6 -->
<g id="edge7" class="edge">
<title>Node4&#45;&gt;Node6</title>
<path fill="none" stroke="orange" stroke-dasharray="5,2" d="M241.24,-30.93C243.86,-30.59 246.45,-30.28 249,-30 290.87,-25.37 337.87,-23.1 375.99,-22"/>
<polygon fill="orange" stroke="orange" points="240.52,-27.49 231.09,-32.32 241.47,-34.43 240.52,-27.49"/>
<text text-anchor="start" x="253" y="-44" font-family="Helvetica,sans-Serif" font-size="10.00"> &lt; A, T, Dim0, Dim1,</text>
<text text-anchor="middle" x="303.5" y="-33" font-family="Helvetica,sans-Serif" font-size="10.00"> Dim23, i, j, k &gt;</text>
</g>
<!-- Node5 -->
<g id="node5" class="node">
<title>Node5</title>
<g id="a_node5"><a xlink:title=" ">
<polygon fill="white" stroke="#bfbfbf" points="0,-6.5 0,-25.5 29,-25.5 29,-6.5 0,-6.5"/>
<text text-anchor="middle" x="14.5" y="-13.5" font-family="Helvetica,sans-Serif" font-size="10.00">A</text>
</a>
</g>
</g>
<!-- Node5&#45;&gt;Node4 -->
<g id="edge4" class="edge">
<title>Node5&#45;&gt;Node4</title>
<path fill="none" stroke="#9a32cd" stroke-dasharray="5,2" d="M39.18,-21.02C51.88,-23.71 68.27,-27.19 84.77,-30.69"/>
<polygon fill="#9a32cd" stroke="#9a32cd" points="39.58,-17.53 29.07,-18.88 38.12,-24.37 39.58,-17.53"/>
<text text-anchor="middle" x="57" y="-29" font-family="Helvetica,sans-Serif" font-size="10.00"> iter</text>
</g>
<!-- Node5&#45;&gt;Node6 -->
<g id="edge6" class="edge">
<title>Node5&#45;&gt;Node6</title>
<path fill="none" stroke="#9a32cd" stroke-dasharray="5,2" d="M38.86,-11.36C52.3,-8.93 69.53,-6.22 85,-5 185.5,2.9 301.85,-5.11 375.9,-12.37"/>
<polygon fill="#9a32cd" stroke="#9a32cd" points="38.19,-7.93 29.01,-13.22 39.48,-14.81 38.19,-7.93"/>
<text text-anchor="middle" x="158" y="-8" font-family="Helvetica,sans-Serif" font-size="10.00"> iter</text>
</g>
<!-- Node6&#45;&gt;Node1 -->
<g id="edge5" class="edge">
<title>Node6&#45;&gt;Node1</title>
<path fill="none" stroke="#9a32cd" stroke-dasharray="5,2" d="M538.36,-33.25C555.84,-35.76 574.08,-38.38 591,-40.81"/>
<polygon fill="#9a32cd" stroke="#9a32cd" points="538.55,-29.74 528.16,-31.79 537.56,-36.67 538.55,-29.74"/>
<text text-anchor="middle" x="559.5" y="-40" font-family="Helvetica,sans-Serif" font-size="10.00"> iterA</text>
</g>
</g>
</svg>
