<?xml version="1.0" encoding="UTF-8" standalone="no"?>
<!DOCTYPE svg PUBLIC "-//W3C//DTD SVG 1.1//EN"
 "http://www.w3.org/Graphics/SVG/1.1/DTD/svg11.dtd">
<!-- Generated by graphviz version 2.43.0 (0)
 -->
<!-- Title: FTensor::diffusion_Tensor2_symmetric&lt; T, Dim, i, j &gt; Pages: 1 -->
<svg width="361pt" height="295pt"
 viewBox="0.00 0.00 360.50 295.00" xmlns="http://www.w3.org/2000/svg" xmlns:xlink="http://www.w3.org/1999/xlink">
<g id="graph0" class="graph" transform="scale(1 1) rotate(0) translate(4 291)">
<title>FTensor::diffusion_Tensor2_symmetric&lt; T, Dim, i, j &gt;</title>
<polygon fill="white" stroke="transparent" points="-4,4 -4,-291 356.5,-291 356.5,4 -4,4"/>
<!-- Node1 -->
<g id="node1" class="node">
<title>Node1</title>
<g id="a_node1"><a xlink:title=" ">
<polygon fill="#bfbfbf" stroke="black" points="20.5,-0.5 20.5,-41.5 145.5,-41.5 145.5,-0.5 20.5,-0.5"/>
<text text-anchor="start" x="28.5" y="-29.5" font-family="Helvetica,sans-Serif" font-size="10.00">FTensor::diffusion</text>
<text text-anchor="start" x="28.5" y="-18.5" font-family="Helvetica,sans-Serif" font-size="10.00">_Tensor2_symmetric&lt;</text>
<text text-anchor="middle" x="83" y="-7.5" font-family="Helvetica,sans-Serif" font-size="10.00"> T, Dim, i, j &gt;</text>
</a>
</g>
</g>
<!-- Node2 -->
<g id="node2" class="node">
<title>Node2</title>
<g id="a_node2"><a xlink:href="classdouble.html" target="_top" xlink:title=" ">
<polygon fill="white" stroke="black" points="0,-117 0,-136 50,-136 50,-117 0,-117"/>
<text text-anchor="middle" x="25" y="-124" font-family="Helvetica,sans-Serif" font-size="10.00">double</text>
</a>
</g>
</g>
<!-- Node2&#45;&gt;Node1 -->
<g id="edge1" class="edge">
<title>Node2&#45;&gt;Node1</title>
<path fill="none" stroke="#9a32cd" stroke-dasharray="5,2" d="M34.87,-107.89C45.17,-89.51 61.28,-60.75 71.99,-41.65"/>
<polygon fill="#9a32cd" stroke="#9a32cd" points="31.78,-106.24 29.95,-116.68 37.89,-109.66 31.78,-106.24"/>
<text text-anchor="middle" x="69" y="-74" font-family="Helvetica,sans-Serif" font-size="10.00"> dx</text>
</g>
<!-- Node3 -->
<g id="node3" class="node">
<title>Node3</title>
<g id="a_node3"><a xlink:title=" ">
<polygon fill="white" stroke="#bfbfbf" points="68.5,-117 68.5,-136 97.5,-136 97.5,-117 68.5,-117"/>
<text text-anchor="middle" x="83" y="-124" font-family="Helvetica,sans-Serif" font-size="10.00">int</text>
</a>
</g>
</g>
<!-- Node3&#45;&gt;Node1 -->
<g id="edge2" class="edge">
<title>Node3&#45;&gt;Node1</title>
<path fill="none" stroke="#9a32cd" stroke-dasharray="5,2" d="M83,-106.6C83,-88.19 83,-60.31 83,-41.65"/>
<polygon fill="#9a32cd" stroke="#9a32cd" points="79.5,-106.68 83,-116.68 86.5,-106.68 79.5,-106.68"/>
<text text-anchor="middle" x="89.5" y="-85" font-family="Helvetica,sans-Serif" font-size="10.00"> di</text>
<text text-anchor="middle" x="89.5" y="-74" font-family="Helvetica,sans-Serif" font-size="10.00">dj</text>
<text text-anchor="middle" x="89.5" y="-63" font-family="Helvetica,sans-Serif" font-size="10.00">dk</text>
</g>
<!-- Node4 -->
<g id="node4" class="node">
<title>Node4</title>
<g id="a_node4"><a xlink:href="classFTensor_1_1Tensor2__symmetric.html" target="_top" xlink:title=" ">
<polygon fill="white" stroke="black" points="115.5,-111.5 115.5,-141.5 270.5,-141.5 270.5,-111.5 115.5,-111.5"/>
<text text-anchor="start" x="123.5" y="-129.5" font-family="Helvetica,sans-Serif" font-size="10.00">FTensor::Tensor2_symmetric</text>
<text text-anchor="middle" x="193" y="-118.5" font-family="Helvetica,sans-Serif" font-size="10.00">&lt; T *, Dim &gt;</text>
</a>
</g>
</g>
<!-- Node4&#45;&gt;Node1 -->
<g id="edge3" class="edge">
<title>Node4&#45;&gt;Node1</title>
<path fill="none" stroke="#9a32cd" stroke-dasharray="5,2" d="M170.41,-104.24C150.85,-85.84 122.8,-59.45 103.8,-41.57"/>
<polygon fill="#9a32cd" stroke="#9a32cd" points="168.02,-106.81 177.7,-111.11 172.82,-101.71 168.02,-106.81"/>
<text text-anchor="middle" x="163" y="-74" font-family="Helvetica,sans-Serif" font-size="10.00"> a</text>
</g>
<!-- Node5 -->
<g id="node5" class="node">
<title>Node5</title>
<g id="a_node5"><a xlink:title=" ">
<polygon fill="white" stroke="#bfbfbf" points="155.5,-267.5 155.5,-286.5 184.5,-286.5 184.5,-267.5 155.5,-267.5"/>
<text text-anchor="middle" x="170" y="-274.5" font-family="Helvetica,sans-Serif" font-size="10.00">T</text>
</a>
</g>
</g>
<!-- Node5&#45;&gt;Node4 -->
<g id="edge4" class="edge">
<title>Node5&#45;&gt;Node4</title>
<path fill="none" stroke="#9a32cd" stroke-dasharray="5,2" d="M165.3,-257.57C161.51,-239.8 157.63,-212.24 163,-189 166.96,-171.87 176.36,-153.99 183.6,-141.95"/>
<polygon fill="#9a32cd" stroke="#9a32cd" points="161.93,-258.54 167.62,-267.48 168.74,-256.94 161.93,-258.54"/>
<text text-anchor="middle" x="175.5" y="-202" font-family="Helvetica,sans-Serif" font-size="10.00"> data</text>
</g>
<!-- Node6 -->
<g id="node6" class="node">
<title>Node6</title>
<g id="a_node6"><a xlink:href="classFTensor_1_1Tensor2__symmetric.html" target="_top" xlink:title=" ">
<polygon fill="white" stroke="black" points="197.5,-189.5 197.5,-219.5 352.5,-219.5 352.5,-189.5 197.5,-189.5"/>
<text text-anchor="start" x="205.5" y="-207.5" font-family="Helvetica,sans-Serif" font-size="10.00">FTensor::Tensor2_symmetric</text>
<text text-anchor="middle" x="275" y="-196.5" font-family="Helvetica,sans-Serif" font-size="10.00">&lt; T, Tensor_Dim &gt;</text>
</a>
</g>
</g>
<!-- Node5&#45;&gt;Node6 -->
<g id="edge6" class="edge">
<title>Node5&#45;&gt;Node6</title>
<path fill="none" stroke="#9a32cd" stroke-dasharray="5,2" d="M191.4,-261.63C209.69,-249.35 235.87,-231.78 254.04,-219.58"/>
<polygon fill="#9a32cd" stroke="#9a32cd" points="189.23,-258.88 182.88,-267.36 193.13,-264.69 189.23,-258.88"/>
<text text-anchor="middle" x="237.5" y="-241" font-family="Helvetica,sans-Serif" font-size="10.00"> data</text>
</g>
<!-- Node6&#45;&gt;Node4 -->
<g id="edge5" class="edge">
<title>Node6&#45;&gt;Node4</title>
<path fill="none" stroke="orange" stroke-dasharray="5,2" d="M252.23,-182.39C238.24,-169.43 220.7,-153.18 208.35,-141.73"/>
<polygon fill="orange" stroke="orange" points="249.86,-184.97 259.58,-189.2 254.62,-179.84 249.86,-184.97"/>
<text text-anchor="middle" x="271.5" y="-163" font-family="Helvetica,sans-Serif" font-size="10.00"> &lt; T *, Dim &gt;</text>
</g>
</g>
</svg>
