<?xml version="1.0" encoding="UTF-8" standalone="no"?>
<!DOCTYPE svg PUBLIC "-//W3C//DTD SVG 1.1//EN"
 "http://www.w3.org/Graphics/SVG/1.1/DTD/svg11.dtd">
<!-- Generated by graphviz version 2.43.0 (0)
 -->
<!-- Title: FTensor::Tensor2_symmetric_carat_Tensor2&lt; A, B, T, U, Dim, Dim, Dim, j, i, j, k &gt; Pages: 1 -->
<svg width="778pt" height="155pt"
 viewBox="0.00 0.00 778.00 155.00" xmlns="http://www.w3.org/2000/svg" xmlns:xlink="http://www.w3.org/1999/xlink">
<g id="graph0" class="graph" transform="scale(1 1) rotate(0) translate(4 151)">
<title>FTensor::Tensor2_symmetric_carat_Tensor2&lt; A, B, T, U, Dim, Dim, Dim, j, i, j, k &gt;</title>
<polygon fill="white" stroke="transparent" points="-4,4 -4,-151 774,-151 774,4 -4,4"/>
<!-- Node1 -->
<g id="node1" class="node">
<title>Node1</title>
<g id="a_node1"><a xlink:title=" ">
<polygon fill="#bfbfbf" stroke="black" points="614,-57.5 614,-98.5 770,-98.5 770,-57.5 614,-57.5"/>
<text text-anchor="start" x="622" y="-86.5" font-family="Helvetica,sans-Serif" font-size="10.00">FTensor::Tensor2_symmetric</text>
<text text-anchor="start" x="622" y="-75.5" font-family="Helvetica,sans-Serif" font-size="10.00">_carat_Tensor2&lt; A, B, T,</text>
<text text-anchor="middle" x="692" y="-64.5" font-family="Helvetica,sans-Serif" font-size="10.00"> U, Dim, Dim, Dim, j, i, j, k &gt;</text>
</a>
</g>
</g>
<!-- Node2 -->
<g id="node2" class="node">
<title>Node2</title>
<g id="a_node2"><a xlink:href="classFTensor_1_1Tensor2__symmetric__Expr.html" target="_top" xlink:title=" ">
<polygon fill="white" stroke="black" points="396,-88 396,-118 551,-118 551,-88 396,-88"/>
<text text-anchor="start" x="404" y="-106" font-family="Helvetica,sans-Serif" font-size="10.00">FTensor::Tensor2_symmetric</text>
<text text-anchor="middle" x="473.5" y="-95" font-family="Helvetica,sans-Serif" font-size="10.00">_Expr&lt; A, T, Dim, j, i &gt;</text>
</a>
</g>
</g>
<!-- Node2&#45;&gt;Node1 -->
<g id="edge1" class="edge">
<title>Node2&#45;&gt;Node1</title>
<path fill="none" stroke="#9a32cd" stroke-dasharray="5,2" d="M561.25,-92.98C578.61,-90.98 596.73,-88.89 613.74,-86.92"/>
<polygon fill="#9a32cd" stroke="#9a32cd" points="560.67,-89.53 551.13,-94.15 561.47,-96.48 560.67,-89.53"/>
<text text-anchor="middle" x="582.5" y="-94" font-family="Helvetica,sans-Serif" font-size="10.00"> iterA</text>
</g>
<!-- Node3 -->
<g id="node3" class="node">
<title>Node3</title>
<g id="a_node3"><a xlink:title=" ">
<polygon fill="white" stroke="#bfbfbf" points="0,-93.5 0,-112.5 29,-112.5 29,-93.5 0,-93.5"/>
<text text-anchor="middle" x="14.5" y="-100.5" font-family="Helvetica,sans-Serif" font-size="10.00">A</text>
</a>
</g>
</g>
<!-- Node3&#45;&gt;Node2 -->
<g id="edge2" class="edge">
<title>Node3&#45;&gt;Node2</title>
<path fill="none" stroke="#9a32cd" stroke-dasharray="5,2" d="M38.39,-114.51C41.26,-115.77 44.17,-116.97 47,-118 63.4,-124 67.68,-125.76 85,-128 214.22,-144.72 248.56,-132.94 378,-118 383.86,-117.32 389.91,-116.55 395.99,-115.71"/>
<polygon fill="#9a32cd" stroke="#9a32cd" points="39.6,-111.21 29.06,-110.14 36.63,-117.55 39.6,-111.21"/>
<text text-anchor="middle" x="162.5" y="-139" font-family="Helvetica,sans-Serif" font-size="10.00"> iter</text>
</g>
<!-- Node4 -->
<g id="node4" class="node">
<title>Node4</title>
<g id="a_node4"><a xlink:href="classFTensor_1_1Tensor2__symmetric__Expr.html" target="_top" xlink:title=" ">
<polygon fill="white" stroke="black" points="85,-88 85,-118 240,-118 240,-88 85,-88"/>
<text text-anchor="start" x="93" y="-106" font-family="Helvetica,sans-Serif" font-size="10.00">FTensor::Tensor2_symmetric</text>
<text text-anchor="middle" x="162.5" y="-95" font-family="Helvetica,sans-Serif" font-size="10.00">_Expr&lt; A, T, Dim, i, j &gt;</text>
</a>
</g>
</g>
<!-- Node3&#45;&gt;Node4 -->
<g id="edge4" class="edge">
<title>Node3&#45;&gt;Node4</title>
<path fill="none" stroke="#9a32cd" stroke-dasharray="5,2" d="M39.33,-103C52,-103 68.37,-103 84.98,-103"/>
<polygon fill="#9a32cd" stroke="#9a32cd" points="39.24,-99.5 29.24,-103 39.24,-106.5 39.24,-99.5"/>
<text text-anchor="middle" x="57" y="-106" font-family="Helvetica,sans-Serif" font-size="10.00"> iter</text>
</g>
<!-- Node7 -->
<g id="node7" class="node">
<title>Node7</title>
<g id="a_node7"><a xlink:href="classFTensor_1_1Tensor2__Expr.html" target="_top" xlink:title=" ">
<polygon fill="white" stroke="black" points="92.5,-39 92.5,-69 232.5,-69 232.5,-39 92.5,-39"/>
<text text-anchor="start" x="100.5" y="-57" font-family="Helvetica,sans-Serif" font-size="10.00">FTensor::Tensor2_Expr</text>
<text text-anchor="middle" x="162.5" y="-46" font-family="Helvetica,sans-Serif" font-size="10.00">&lt; A, T, Dim0, Dim1, i, j &gt;</text>
</a>
</g>
</g>
<!-- Node3&#45;&gt;Node7 -->
<g id="edge8" class="edge">
<title>Node3&#45;&gt;Node7</title>
<path fill="none" stroke="#9a32cd" stroke-dasharray="5,2" d="M38.43,-91.58C41.28,-90.3 44.19,-89.08 47,-88 65.39,-80.94 85.9,-74.44 104.42,-69.05"/>
<polygon fill="#9a32cd" stroke="#9a32cd" points="36.66,-88.54 29.1,-95.96 39.64,-94.88 36.66,-88.54"/>
<text text-anchor="middle" x="57" y="-91" font-family="Helvetica,sans-Serif" font-size="10.00"> iter</text>
</g>
<!-- Node4&#45;&gt;Node2 -->
<g id="edge3" class="edge">
<title>Node4&#45;&gt;Node2</title>
<path fill="none" stroke="orange" stroke-dasharray="5,2" d="M250.48,-103C296.2,-103 351.75,-103 395.85,-103"/>
<polygon fill="orange" stroke="orange" points="250.28,-99.5 240.28,-103 250.28,-106.5 250.28,-99.5"/>
<text text-anchor="middle" x="318" y="-106" font-family="Helvetica,sans-Serif" font-size="10.00"> &lt; A, T, Dim, j, i &gt;</text>
</g>
<!-- Node5 -->
<g id="node5" class="node">
<title>Node5</title>
<g id="a_node5"><a xlink:href="classFTensor_1_1Tensor2__Expr.html" target="_top" xlink:title=" ">
<polygon fill="white" stroke="black" points="407,-39 407,-69 540,-69 540,-39 407,-39"/>
<text text-anchor="start" x="415" y="-57" font-family="Helvetica,sans-Serif" font-size="10.00">FTensor::Tensor2_Expr</text>
<text text-anchor="middle" x="473.5" y="-46" font-family="Helvetica,sans-Serif" font-size="10.00">&lt; B, U, Dim, Dim, j, k &gt;</text>
</a>
</g>
</g>
<!-- Node5&#45;&gt;Node1 -->
<g id="edge5" class="edge">
<title>Node5&#45;&gt;Node1</title>
<path fill="none" stroke="#9a32cd" stroke-dasharray="5,2" d="M550.45,-61.18C565.55,-62.7 581.28,-64.34 596,-66 601.78,-66.65 607.76,-67.35 613.77,-68.07"/>
<polygon fill="#9a32cd" stroke="#9a32cd" points="550.41,-57.66 540.11,-60.15 549.72,-64.62 550.41,-57.66"/>
<text text-anchor="middle" x="582.5" y="-69" font-family="Helvetica,sans-Serif" font-size="10.00"> iterB</text>
</g>
<!-- Node6 -->
<g id="node6" class="node">
<title>Node6</title>
<g id="a_node6"><a xlink:title=" ">
<polygon fill="white" stroke="#bfbfbf" points="148,-0.5 148,-19.5 177,-19.5 177,-0.5 148,-0.5"/>
<text text-anchor="middle" x="162.5" y="-7.5" font-family="Helvetica,sans-Serif" font-size="10.00">B</text>
</a>
</g>
</g>
<!-- Node6&#45;&gt;Node5 -->
<g id="edge6" class="edge">
<title>Node6&#45;&gt;Node5</title>
<path fill="none" stroke="#9a32cd" stroke-dasharray="5,2" d="M187.03,-13C226.54,-18.08 308.67,-28.81 378,-39 387.37,-40.38 397.25,-41.88 406.95,-43.4"/>
<polygon fill="#9a32cd" stroke="#9a32cd" points="187.43,-9.52 177.07,-11.72 186.54,-16.47 187.43,-9.52"/>
<text text-anchor="middle" x="318" y="-42" font-family="Helvetica,sans-Serif" font-size="10.00"> iter</text>
</g>
<!-- Node7&#45;&gt;Node5 -->
<g id="edge7" class="edge">
<title>Node7&#45;&gt;Node5</title>
<path fill="none" stroke="orange" stroke-dasharray="5,2" d="M243.13,-54C293.94,-54 358.98,-54 406.82,-54"/>
<polygon fill="orange" stroke="orange" points="242.85,-50.5 232.85,-54 242.85,-57.5 242.85,-50.5"/>
<text text-anchor="middle" x="318" y="-57" font-family="Helvetica,sans-Serif" font-size="10.00"> &lt; B, U, Dim, Dim, j, k &gt;</text>
</g>
</g>
</svg>
