<?xml version="1.0" encoding="UTF-8" standalone="no"?>
<!DOCTYPE svg PUBLIC "-//W3C//DTD SVG 1.1//EN"
 "http://www.w3.org/Graphics/SVG/1.1/DTD/svg11.dtd">
<!-- Generated by graphviz version 2.43.0 (0)
 -->
<!-- Title: FTensor::Tensor3_times_Tensor2_symmetric_02&lt; A, B, T, U, Dim1, Dim, i, j, k &gt; Pages: 1 -->
<svg width="731pt" height="185pt"
 viewBox="0.00 0.00 731.00 185.00" xmlns="http://www.w3.org/2000/svg" xmlns:xlink="http://www.w3.org/1999/xlink">
<g id="graph0" class="graph" transform="scale(1 1) rotate(0) translate(4 181)">
<title>FTensor::Tensor3_times_Tensor2_symmetric_02&lt; A, B, T, U, Dim1, Dim, i, j, k &gt;</title>
<polygon fill="white" stroke="transparent" points="-4,4 -4,-181 727,-181 727,4 -4,4"/>
<!-- Node1 -->
<g id="node1" class="node">
<title>Node1</title>
<g id="a_node1"><a xlink:title=" ">
<polygon fill="#bfbfbf" stroke="black" points="589,-76 589,-128 723,-128 723,-76 589,-76"/>
<text text-anchor="start" x="597" y="-116" font-family="Helvetica,sans-Serif" font-size="10.00">FTensor::Tensor3_times</text>
<text text-anchor="start" x="597" y="-105" font-family="Helvetica,sans-Serif" font-size="10.00">_Tensor2_symmetric_02</text>
<text text-anchor="start" x="597" y="-94" font-family="Helvetica,sans-Serif" font-size="10.00">&lt; A, B, T, U, Dim1, Dim,</text>
<text text-anchor="middle" x="656" y="-83" font-family="Helvetica,sans-Serif" font-size="10.00"> i, j, k &gt;</text>
</a>
</g>
</g>
<!-- Node2 -->
<g id="node2" class="node">
<title>Node2</title>
<g id="a_node2"><a xlink:href="classFTensor_1_1Tensor2__symmetric__Expr.html" target="_top" xlink:title=" ">
<polygon fill="white" stroke="black" points="371,-115 371,-145 526,-145 526,-115 371,-115"/>
<text text-anchor="start" x="379" y="-133" font-family="Helvetica,sans-Serif" font-size="10.00">FTensor::Tensor2_symmetric</text>
<text text-anchor="middle" x="448.5" y="-122" font-family="Helvetica,sans-Serif" font-size="10.00">_Expr&lt; B, U, Dim, j, k &gt;</text>
</a>
</g>
</g>
<!-- Node2&#45;&gt;Node1 -->
<g id="edge1" class="edge">
<title>Node2&#45;&gt;Node1</title>
<path fill="none" stroke="#9a32cd" stroke-dasharray="5,2" d="M536.29,-118.17C553.89,-115.78 572.13,-113.29 588.88,-111.01"/>
<polygon fill="#9a32cd" stroke="#9a32cd" points="535.46,-114.76 526.02,-119.57 536.4,-121.69 535.46,-114.76"/>
<text text-anchor="middle" x="557.5" y="-119" font-family="Helvetica,sans-Serif" font-size="10.00"> iterB</text>
</g>
<!-- Node3 -->
<g id="node3" class="node">
<title>Node3</title>
<g id="a_node3"><a xlink:title=" ">
<polygon fill="white" stroke="#bfbfbf" points="148,-157.5 148,-176.5 177,-176.5 177,-157.5 148,-157.5"/>
<text text-anchor="middle" x="162.5" y="-164.5" font-family="Helvetica,sans-Serif" font-size="10.00">B</text>
</a>
</g>
</g>
<!-- Node3&#45;&gt;Node2 -->
<g id="edge2" class="edge">
<title>Node3&#45;&gt;Node2</title>
<path fill="none" stroke="#9a32cd" stroke-dasharray="5,2" d="M187.29,-163.9C227.24,-158.7 309.46,-147.98 370.84,-139.99"/>
<polygon fill="#9a32cd" stroke="#9a32cd" points="186.66,-160.45 177.2,-165.22 187.57,-167.39 186.66,-160.45"/>
<text text-anchor="middle" x="305.5" y="-156" font-family="Helvetica,sans-Serif" font-size="10.00"> iter</text>
</g>
<!-- Node4 -->
<g id="node4" class="node">
<title>Node4</title>
<g id="a_node4"><a xlink:href="classFTensor_1_1Tensor2__symmetric__Expr.html" target="_top" xlink:title=" ">
<polygon fill="white" stroke="black" points="85,-108 85,-138 240,-138 240,-108 85,-108"/>
<text text-anchor="start" x="93" y="-126" font-family="Helvetica,sans-Serif" font-size="10.00">FTensor::Tensor2_symmetric</text>
<text text-anchor="middle" x="162.5" y="-115" font-family="Helvetica,sans-Serif" font-size="10.00">_Expr&lt; A, T, Dim, i, j &gt;</text>
</a>
</g>
</g>
<!-- Node4&#45;&gt;Node2 -->
<g id="edge3" class="edge">
<title>Node4&#45;&gt;Node2</title>
<path fill="none" stroke="orange" stroke-dasharray="5,2" d="M250.47,-125.14C288.81,-126.09 333.48,-127.19 370.58,-128.1"/>
<polygon fill="orange" stroke="orange" points="250.44,-121.64 240.35,-124.89 250.27,-128.64 250.44,-121.64"/>
<text text-anchor="middle" x="305.5" y="-130" font-family="Helvetica,sans-Serif" font-size="10.00"> &lt; B, U, Dim, j, k &gt;</text>
</g>
<!-- Node5 -->
<g id="node5" class="node">
<title>Node5</title>
<g id="a_node5"><a xlink:title=" ">
<polygon fill="white" stroke="#bfbfbf" points="0,-68.5 0,-87.5 29,-87.5 29,-68.5 0,-68.5"/>
<text text-anchor="middle" x="14.5" y="-75.5" font-family="Helvetica,sans-Serif" font-size="10.00">A</text>
</a>
</g>
</g>
<!-- Node5&#45;&gt;Node4 -->
<g id="edge4" class="edge">
<title>Node5&#45;&gt;Node4</title>
<path fill="none" stroke="#9a32cd" stroke-dasharray="5,2" d="M38.44,-88.68C41.3,-89.87 44.2,-91 47,-92 63.69,-97.93 82.09,-103.37 99.16,-107.99"/>
<polygon fill="#9a32cd" stroke="#9a32cd" points="39.68,-85.4 29.11,-84.6 36.87,-91.82 39.68,-85.4"/>
<text text-anchor="middle" x="57" y="-101" font-family="Helvetica,sans-Serif" font-size="10.00"> iter</text>
</g>
<!-- Node6 -->
<g id="node6" class="node">
<title>Node6</title>
<g id="a_node6"><a xlink:href="classFTensor_1_1Tensor3__Expr.html" target="_top" xlink:title=" ">
<polygon fill="white" stroke="black" points="381.5,-54.5 381.5,-95.5 515.5,-95.5 515.5,-54.5 381.5,-54.5"/>
<text text-anchor="start" x="389.5" y="-83.5" font-family="Helvetica,sans-Serif" font-size="10.00">FTensor::Tensor3_Expr</text>
<text text-anchor="start" x="389.5" y="-72.5" font-family="Helvetica,sans-Serif" font-size="10.00">&lt; A, T, Dim, Dim1, Dim,</text>
<text text-anchor="middle" x="448.5" y="-61.5" font-family="Helvetica,sans-Serif" font-size="10.00"> j, i, k &gt;</text>
</a>
</g>
</g>
<!-- Node5&#45;&gt;Node6 -->
<g id="edge6" class="edge">
<title>Node5&#45;&gt;Node6</title>
<path fill="none" stroke="#9a32cd" stroke-dasharray="5,2" d="M39.78,-77.83C104.57,-77.38 283.26,-76.14 381.19,-75.46"/>
<polygon fill="#9a32cd" stroke="#9a32cd" points="39.36,-74.33 29.38,-77.9 39.41,-81.33 39.36,-74.33"/>
<text text-anchor="middle" x="162.5" y="-80" font-family="Helvetica,sans-Serif" font-size="10.00"> iter</text>
</g>
<!-- Node7 -->
<g id="node7" class="node">
<title>Node7</title>
<g id="a_node7"><a xlink:href="classFTensor_1_1Tensor3__Expr.html" target="_top" xlink:title=" ">
<polygon fill="white" stroke="black" points="89.5,-0.5 89.5,-41.5 235.5,-41.5 235.5,-0.5 89.5,-0.5"/>
<text text-anchor="start" x="97.5" y="-29.5" font-family="Helvetica,sans-Serif" font-size="10.00">FTensor::Tensor3_Expr</text>
<text text-anchor="start" x="97.5" y="-18.5" font-family="Helvetica,sans-Serif" font-size="10.00">&lt; A, T, Dim0, Dim1, Dim2,</text>
<text text-anchor="middle" x="162.5" y="-7.5" font-family="Helvetica,sans-Serif" font-size="10.00"> i, j, k &gt;</text>
</a>
</g>
</g>
<!-- Node5&#45;&gt;Node7 -->
<g id="edge8" class="edge">
<title>Node5&#45;&gt;Node7</title>
<path fill="none" stroke="#9a32cd" stroke-dasharray="5,2" d="M33.51,-61.72C37.72,-58.49 42.35,-55.37 47,-53 60.15,-46.29 74.88,-40.84 89.29,-36.46"/>
<polygon fill="#9a32cd" stroke="#9a32cd" points="31.03,-59.23 25.56,-68.3 35.49,-64.62 31.03,-59.23"/>
<text text-anchor="middle" x="57" y="-56" font-family="Helvetica,sans-Serif" font-size="10.00"> iter</text>
</g>
<!-- Node6&#45;&gt;Node1 -->
<g id="edge5" class="edge">
<title>Node6&#45;&gt;Node1</title>
<path fill="none" stroke="#9a32cd" stroke-dasharray="5,2" d="M525.71,-85.01C546.48,-87.74 568.81,-90.68 588.97,-93.32"/>
<polygon fill="#9a32cd" stroke="#9a32cd" points="526.02,-81.52 515.65,-83.69 525.11,-88.46 526.02,-81.52"/>
<text text-anchor="middle" x="557.5" y="-93" font-family="Helvetica,sans-Serif" font-size="10.00"> iterA</text>
</g>
<!-- Node7&#45;&gt;Node6 -->
<g id="edge7" class="edge">
<title>Node7&#45;&gt;Node6</title>
<path fill="none" stroke="orange" stroke-dasharray="5,2" d="M245.89,-26.06C279.41,-29.17 318.33,-34.13 353,-42 366.9,-45.15 381.59,-49.67 395.14,-54.36"/>
<polygon fill="orange" stroke="orange" points="245.94,-22.55 235.67,-25.15 245.33,-29.52 245.94,-22.55"/>
<text text-anchor="start" x="258" y="-56" font-family="Helvetica,sans-Serif" font-size="10.00"> &lt; A, T, Dim, Dim1,</text>
<text text-anchor="middle" x="305.5" y="-45" font-family="Helvetica,sans-Serif" font-size="10.00"> Dim, j, i, k &gt;</text>
</g>
</g>
</svg>
