<?xml version="1.0" encoding="UTF-8" standalone="no"?>
<!DOCTYPE svg PUBLIC "-//W3C//DTD SVG 1.1//EN"
 "http://www.w3.org/Graphics/SVG/1.1/DTD/svg11.dtd">
<!-- Generated by graphviz version 2.43.0 (0)
 -->
<!-- Title: FTensor::Tensor4_times_Tensor2_3_0&lt; A, B, T, U, Dim0, Dim1, Dim2, Dim3, Dim4, i, j, k, l, m &gt; Pages: 1 -->
<svg width="743pt" height="122pt"
 viewBox="0.00 0.00 743.00 121.50" xmlns="http://www.w3.org/2000/svg" xmlns:xlink="http://www.w3.org/1999/xlink">
<g id="graph0" class="graph" transform="scale(1 1) rotate(0) translate(4 117.5)">
<title>FTensor::Tensor4_times_Tensor2_3_0&lt; A, B, T, U, Dim0, Dim1, Dim2, Dim3, Dim4, i, j, k, l, m &gt;</title>
<polygon fill="white" stroke="transparent" points="-4,4 -4,-117.5 739,-117.5 739,4 -4,4"/>
<!-- Node1 -->
<g id="node1" class="node">
<title>Node1</title>
<g id="a_node1"><a xlink:title=" ">
<polygon fill="#bfbfbf" stroke="black" points="576,-39.5 576,-91.5 735,-91.5 735,-39.5 576,-39.5"/>
<text text-anchor="start" x="584" y="-79.5" font-family="Helvetica,sans-Serif" font-size="10.00">FTensor::Tensor4_times</text>
<text text-anchor="start" x="584" y="-68.5" font-family="Helvetica,sans-Serif" font-size="10.00">_Tensor2_3_0&lt; A, B, T,</text>
<text text-anchor="start" x="584" y="-57.5" font-family="Helvetica,sans-Serif" font-size="10.00"> U, Dim0, Dim1, Dim2, Dim3,</text>
<text text-anchor="middle" x="655.5" y="-46.5" font-family="Helvetica,sans-Serif" font-size="10.00"> Dim4, i, j, k, l, m &gt;</text>
</a>
</g>
</g>
<!-- Node2 -->
<g id="node2" class="node">
<title>Node2</title>
<g id="a_node2"><a xlink:title=" ">
<polygon fill="white" stroke="#bfbfbf" points="374.5,-72 374.5,-113 502.5,-113 502.5,-72 374.5,-72"/>
<text text-anchor="start" x="382.5" y="-101" font-family="Helvetica,sans-Serif" font-size="10.00">const Tensor4_Expr</text>
<text text-anchor="start" x="382.5" y="-90" font-family="Helvetica,sans-Serif" font-size="10.00">&lt; A, T, Dim0, Dim1,</text>
<text text-anchor="middle" x="438.5" y="-79" font-family="Helvetica,sans-Serif" font-size="10.00"> Dim2, Dim3, i, j, k, l &gt;</text>
</a>
</g>
</g>
<!-- Node2&#45;&gt;Node1 -->
<g id="edge1" class="edge">
<title>Node2&#45;&gt;Node1</title>
<path fill="none" stroke="#9a32cd" stroke-dasharray="5,2" d="M512.68,-83.31C533.01,-80.76 555.16,-77.98 575.78,-75.39"/>
<polygon fill="#9a32cd" stroke="#9a32cd" points="512.04,-79.86 502.55,-84.58 512.91,-86.81 512.04,-79.86"/>
<text text-anchor="middle" x="544.5" y="-83.5" font-family="Helvetica,sans-Serif" font-size="10.00"> iterA</text>
</g>
<!-- Node3 -->
<g id="node3" class="node">
<title>Node3</title>
<g id="a_node3"><a xlink:href="classFTensor_1_1Tensor2__Expr.html" target="_top" xlink:title=" ">
<polygon fill="white" stroke="black" points="364,-22.5 364,-52.5 513,-52.5 513,-22.5 364,-22.5"/>
<text text-anchor="start" x="372" y="-40.5" font-family="Helvetica,sans-Serif" font-size="10.00">FTensor::Tensor2_Expr</text>
<text text-anchor="middle" x="438.5" y="-29.5" font-family="Helvetica,sans-Serif" font-size="10.00">&lt; B, U, Dim4, Dim3, m, l &gt;</text>
</a>
</g>
</g>
<!-- Node3&#45;&gt;Node1 -->
<g id="edge2" class="edge">
<title>Node3&#45;&gt;Node1</title>
<path fill="none" stroke="#9a32cd" stroke-dasharray="5,2" d="M523.25,-48.41C540.53,-50.66 558.67,-53.02 575.77,-55.25"/>
<polygon fill="#9a32cd" stroke="#9a32cd" points="523.56,-44.92 513.19,-47.1 522.65,-51.86 523.56,-44.92"/>
<text text-anchor="middle" x="544.5" y="-55.5" font-family="Helvetica,sans-Serif" font-size="10.00"> iterB</text>
</g>
<!-- Node4 -->
<g id="node4" class="node">
<title>Node4</title>
<g id="a_node4"><a xlink:title=" ">
<polygon fill="white" stroke="#bfbfbf" points="140.5,-51 140.5,-70 169.5,-70 169.5,-51 140.5,-51"/>
<text text-anchor="middle" x="155" y="-58" font-family="Helvetica,sans-Serif" font-size="10.00">B</text>
</a>
</g>
</g>
<!-- Node4&#45;&gt;Node3 -->
<g id="edge3" class="edge">
<title>Node4&#45;&gt;Node3</title>
<path fill="none" stroke="#9a32cd" stroke-dasharray="5,2" d="M179.71,-58.56C219.85,-55.28 302.75,-48.51 363.76,-43.53"/>
<polygon fill="#9a32cd" stroke="#9a32cd" points="179.26,-55.09 169.58,-59.39 179.83,-62.06 179.26,-55.09"/>
<text text-anchor="middle" x="294.5" y="-56.5" font-family="Helvetica,sans-Serif" font-size="10.00"> iter</text>
</g>
<!-- Node5 -->
<g id="node5" class="node">
<title>Node5</title>
<g id="a_node5"><a xlink:href="classFTensor_1_1Tensor2__Expr.html" target="_top" xlink:title=" ">
<polygon fill="white" stroke="black" points="85,-0.5 85,-30.5 225,-30.5 225,-0.5 85,-0.5"/>
<text text-anchor="start" x="93" y="-18.5" font-family="Helvetica,sans-Serif" font-size="10.00">FTensor::Tensor2_Expr</text>
<text text-anchor="middle" x="155" y="-7.5" font-family="Helvetica,sans-Serif" font-size="10.00">&lt; A, T, Dim0, Dim1, i, j &gt;</text>
</a>
</g>
</g>
<!-- Node5&#45;&gt;Node3 -->
<g id="edge4" class="edge">
<title>Node5&#45;&gt;Node3</title>
<path fill="none" stroke="orange" stroke-dasharray="5,2" d="M235.63,-12.03C269.73,-11.55 309.92,-12.32 346,-16.5 357.33,-17.81 369.31,-19.98 380.73,-22.43"/>
<polygon fill="orange" stroke="orange" points="235.2,-8.54 225.26,-12.22 235.32,-15.53 235.2,-8.54"/>
<text text-anchor="start" x="243" y="-30.5" font-family="Helvetica,sans-Serif" font-size="10.00"> &lt; B, U, Dim4, Dim3,</text>
<text text-anchor="middle" x="294.5" y="-19.5" font-family="Helvetica,sans-Serif" font-size="10.00"> m, l &gt;</text>
</g>
<!-- Node6 -->
<g id="node6" class="node">
<title>Node6</title>
<g id="a_node6"><a xlink:title=" ">
<polygon fill="white" stroke="#bfbfbf" points="0,-6 0,-25 29,-25 29,-6 0,-6"/>
<text text-anchor="middle" x="14.5" y="-13" font-family="Helvetica,sans-Serif" font-size="10.00">A</text>
</a>
</g>
</g>
<!-- Node6&#45;&gt;Node5 -->
<g id="edge5" class="edge">
<title>Node6&#45;&gt;Node5</title>
<path fill="none" stroke="#9a32cd" stroke-dasharray="5,2" d="M39.19,-15.5C51.95,-15.5 68.41,-15.5 84.87,-15.5"/>
<polygon fill="#9a32cd" stroke="#9a32cd" points="39.03,-12 29.03,-15.5 39.03,-19 39.03,-12"/>
<text text-anchor="middle" x="57" y="-18.5" font-family="Helvetica,sans-Serif" font-size="10.00"> iter</text>
</g>
</g>
</svg>
