<?xml version="1.0" encoding="UTF-8" standalone="no"?>
<!DOCTYPE svg PUBLIC "-//W3C//DTD SVG 1.1//EN"
 "http://www.w3.org/Graphics/SVG/1.1/DTD/svg11.dtd">
<!-- Generated by graphviz version 2.43.0 (0)
 -->
<!-- Title: FTensor::Tensor2_minus_Tensor2_symmetric&lt; A, B, T, U, Dim, Dim, Dim, i, j, i, j &gt; Pages: 1 -->
<svg width="755pt" height="175pt"
 viewBox="0.00 0.00 755.00 174.50" xmlns="http://www.w3.org/2000/svg" xmlns:xlink="http://www.w3.org/1999/xlink">
<g id="graph0" class="graph" transform="scale(1 1) rotate(0) translate(4 170.5)">
<title>FTensor::Tensor2_minus_Tensor2_symmetric&lt; A, B, T, U, Dim, Dim, Dim, i, j, i, j &gt;</title>
<polygon fill="white" stroke="transparent" points="-4,4 -4,-170.5 751,-170.5 751,4 -4,4"/>
<!-- Node1 -->
<g id="node1" class="node">
<title>Node1</title>
<g id="a_node1"><a xlink:title=" ">
<polygon fill="#bfbfbf" stroke="black" points="609,-64.5 609,-116.5 747,-116.5 747,-64.5 609,-64.5"/>
<text text-anchor="start" x="617" y="-104.5" font-family="Helvetica,sans-Serif" font-size="10.00">FTensor::Tensor2_minus</text>
<text text-anchor="start" x="617" y="-93.5" font-family="Helvetica,sans-Serif" font-size="10.00">_Tensor2_symmetric&lt; A,</text>
<text text-anchor="start" x="617" y="-82.5" font-family="Helvetica,sans-Serif" font-size="10.00"> B, T, U, Dim, Dim, Dim,</text>
<text text-anchor="middle" x="678" y="-71.5" font-family="Helvetica,sans-Serif" font-size="10.00"> i, j, i, j &gt;</text>
</a>
</g>
</g>
<!-- Node2 -->
<g id="node2" class="node">
<title>Node2</title>
<g id="a_node2"><a xlink:href="classFTensor_1_1Tensor2__symmetric__Expr.html" target="_top" xlink:title=" ">
<polygon fill="white" stroke="black" points="391,-100.5 391,-130.5 546,-130.5 546,-100.5 391,-100.5"/>
<text text-anchor="start" x="399" y="-118.5" font-family="Helvetica,sans-Serif" font-size="10.00">FTensor::Tensor2_symmetric</text>
<text text-anchor="middle" x="468.5" y="-107.5" font-family="Helvetica,sans-Serif" font-size="10.00">_Expr&lt; B, U, Dim, i, j &gt;</text>
</a>
</g>
</g>
<!-- Node2&#45;&gt;Node1 -->
<g id="edge1" class="edge">
<title>Node2&#45;&gt;Node1</title>
<path fill="none" stroke="#9a32cd" stroke-dasharray="5,2" d="M556.4,-105.03C573.91,-102.92 592.09,-100.73 608.85,-98.71"/>
<polygon fill="#9a32cd" stroke="#9a32cd" points="555.69,-101.59 546.18,-106.26 556.52,-108.54 555.69,-101.59"/>
<text text-anchor="middle" x="577.5" y="-106.5" font-family="Helvetica,sans-Serif" font-size="10.00"> iterB</text>
</g>
<!-- Node3 -->
<g id="node3" class="node">
<title>Node3</title>
<g id="a_node3"><a xlink:title=" ">
<polygon fill="white" stroke="#bfbfbf" points="148,-147 148,-166 177,-166 177,-147 148,-147"/>
<text text-anchor="middle" x="162.5" y="-154" font-family="Helvetica,sans-Serif" font-size="10.00">B</text>
</a>
</g>
</g>
<!-- Node3&#45;&gt;Node2 -->
<g id="edge2" class="edge">
<title>Node3&#45;&gt;Node2</title>
<path fill="none" stroke="#9a32cd" stroke-dasharray="5,2" d="M187.55,-153.55C226.52,-148.74 305.88,-138.8 373,-129.5 378.83,-128.69 384.86,-127.84 390.93,-126.97"/>
<polygon fill="#9a32cd" stroke="#9a32cd" points="186.74,-150.12 177.24,-154.82 187.59,-157.07 186.74,-150.12"/>
<text text-anchor="middle" x="315.5" y="-147.5" font-family="Helvetica,sans-Serif" font-size="10.00"> iter</text>
</g>
<!-- Node4 -->
<g id="node4" class="node">
<title>Node4</title>
<g id="a_node4"><a xlink:href="classFTensor_1_1Tensor2__symmetric__Expr.html" target="_top" xlink:title=" ">
<polygon fill="white" stroke="black" points="85,-97.5 85,-127.5 240,-127.5 240,-97.5 85,-97.5"/>
<text text-anchor="start" x="93" y="-115.5" font-family="Helvetica,sans-Serif" font-size="10.00">FTensor::Tensor2_symmetric</text>
<text text-anchor="middle" x="162.5" y="-104.5" font-family="Helvetica,sans-Serif" font-size="10.00">_Expr&lt; A, T, Dim, i, j &gt;</text>
</a>
</g>
</g>
<!-- Node4&#45;&gt;Node2 -->
<g id="edge3" class="edge">
<title>Node4&#45;&gt;Node2</title>
<path fill="none" stroke="orange" stroke-dasharray="5,2" d="M250.39,-113.36C294.68,-113.79 348.06,-114.32 390.81,-114.74"/>
<polygon fill="orange" stroke="orange" points="250.25,-109.86 240.21,-113.26 250.18,-116.86 250.25,-109.86"/>
<text text-anchor="middle" x="315.5" y="-117.5" font-family="Helvetica,sans-Serif" font-size="10.00"> &lt; B, U, Dim, i, j &gt;</text>
</g>
<!-- Node5 -->
<g id="node5" class="node">
<title>Node5</title>
<g id="a_node5"><a xlink:title=" ">
<polygon fill="white" stroke="#bfbfbf" points="0,-58 0,-77 29,-77 29,-58 0,-58"/>
<text text-anchor="middle" x="14.5" y="-65" font-family="Helvetica,sans-Serif" font-size="10.00">A</text>
</a>
</g>
</g>
<!-- Node5&#45;&gt;Node4 -->
<g id="edge4" class="edge">
<title>Node5&#45;&gt;Node4</title>
<path fill="none" stroke="#9a32cd" stroke-dasharray="5,2" d="M38.44,-78.18C41.3,-79.37 44.2,-80.5 47,-81.5 63.69,-87.43 82.09,-92.87 99.16,-97.49"/>
<polygon fill="#9a32cd" stroke="#9a32cd" points="39.68,-74.9 29.11,-74.1 36.87,-81.32 39.68,-74.9"/>
<text text-anchor="middle" x="57" y="-90.5" font-family="Helvetica,sans-Serif" font-size="10.00"> iter</text>
</g>
<!-- Node6 -->
<g id="node6" class="node">
<title>Node6</title>
<g id="a_node6"><a xlink:href="classFTensor_1_1Tensor2__Expr.html" target="_top" xlink:title=" ">
<polygon fill="white" stroke="black" points="404.5,-51.5 404.5,-81.5 532.5,-81.5 532.5,-51.5 404.5,-51.5"/>
<text text-anchor="start" x="412.5" y="-69.5" font-family="Helvetica,sans-Serif" font-size="10.00">FTensor::Tensor2_Expr</text>
<text text-anchor="middle" x="468.5" y="-58.5" font-family="Helvetica,sans-Serif" font-size="10.00">&lt; A, T, Dim, Dim, i, j &gt;</text>
</a>
</g>
</g>
<!-- Node5&#45;&gt;Node6 -->
<g id="edge6" class="edge">
<title>Node5&#45;&gt;Node6</title>
<path fill="none" stroke="#9a32cd" stroke-dasharray="5,2" d="M39.07,-67.45C106.55,-67.3 302.2,-66.87 404.1,-66.64"/>
<polygon fill="#9a32cd" stroke="#9a32cd" points="39.02,-63.95 29.03,-67.47 39.04,-70.95 39.02,-63.95"/>
<text text-anchor="middle" x="162.5" y="-69.5" font-family="Helvetica,sans-Serif" font-size="10.00"> iter</text>
</g>
<!-- Node7 -->
<g id="node7" class="node">
<title>Node7</title>
<g id="a_node7"><a xlink:href="classFTensor_1_1Tensor2__Expr.html" target="_top" xlink:title=" ">
<polygon fill="white" stroke="black" points="92.5,-0.5 92.5,-30.5 232.5,-30.5 232.5,-0.5 92.5,-0.5"/>
<text text-anchor="start" x="100.5" y="-18.5" font-family="Helvetica,sans-Serif" font-size="10.00">FTensor::Tensor2_Expr</text>
<text text-anchor="middle" x="162.5" y="-7.5" font-family="Helvetica,sans-Serif" font-size="10.00">&lt; A, T, Dim0, Dim1, i, j &gt;</text>
</a>
</g>
</g>
<!-- Node5&#45;&gt;Node7 -->
<g id="edge8" class="edge">
<title>Node5&#45;&gt;Node7</title>
<path fill="none" stroke="#9a32cd" stroke-dasharray="5,2" d="M32.9,-51.49C37.26,-48.12 42.1,-44.87 47,-42.5 61.06,-35.69 76.94,-30.53 92.3,-26.66"/>
<polygon fill="#9a32cd" stroke="#9a32cd" points="30.64,-48.82 25.22,-57.92 35.13,-54.19 30.64,-48.82"/>
<text text-anchor="middle" x="57" y="-45.5" font-family="Helvetica,sans-Serif" font-size="10.00"> iter</text>
</g>
<!-- Node6&#45;&gt;Node1 -->
<g id="edge5" class="edge">
<title>Node6&#45;&gt;Node1</title>
<path fill="none" stroke="#9a32cd" stroke-dasharray="5,2" d="M542.91,-73.27C558.78,-74.87 575.46,-76.65 591,-78.5 596.84,-79.2 602.89,-79.96 608.96,-80.75"/>
<polygon fill="#9a32cd" stroke="#9a32cd" points="542.91,-69.75 532.61,-72.25 542.22,-76.72 542.91,-69.75"/>
<text text-anchor="middle" x="577.5" y="-81.5" font-family="Helvetica,sans-Serif" font-size="10.00"> iterA</text>
</g>
<!-- Node7&#45;&gt;Node6 -->
<g id="edge7" class="edge">
<title>Node7&#45;&gt;Node6</title>
<path fill="none" stroke="orange" stroke-dasharray="5,2" d="M242.78,-23.44C282.12,-27.95 330.25,-34.35 373,-42.5 385.97,-44.97 399.81,-48.17 412.78,-51.41"/>
<polygon fill="orange" stroke="orange" points="243.04,-19.94 232.71,-22.3 242.26,-26.9 243.04,-19.94"/>
<text text-anchor="middle" x="315.5" y="-45.5" font-family="Helvetica,sans-Serif" font-size="10.00"> &lt; A, T, Dim, Dim, i, j &gt;</text>
</g>
</g>
</svg>
