<?xml version="1.0" encoding="UTF-8" standalone="no"?>
<!DOCTYPE svg PUBLIC "-//W3C//DTD SVG 1.1//EN"
 "http://www.w3.org/Graphics/SVG/1.1/DTD/svg11.dtd">
<!-- Generated by graphviz version 2.43.0 (0)
 -->
<!-- Title: FTensor::dTensor2_symmetric&lt; T, Dim01, Dim2, i, j, k &gt; Pages: 1 -->
<svg width="764pt" height="227pt"
 viewBox="0.00 0.00 764.00 226.50" xmlns="http://www.w3.org/2000/svg" xmlns:xlink="http://www.w3.org/1999/xlink">
<g id="graph0" class="graph" transform="scale(1 1) rotate(0) translate(4 222.5)">
<title>FTensor::dTensor2_symmetric&lt; T, Dim01, Dim2, i, j, k &gt;</title>
<polygon fill="white" stroke="transparent" points="-4,4 -4,-222.5 760,-222.5 760,4 -4,4"/>
<!-- Node1 -->
<g id="node1" class="node">
<title>Node1</title>
<g id="a_node1"><a xlink:title=" ">
<polygon fill="#bfbfbf" stroke="black" points="595,-106.5 595,-136.5 756,-136.5 756,-106.5 595,-106.5"/>
<text text-anchor="start" x="603" y="-124.5" font-family="Helvetica,sans-Serif" font-size="10.00">FTensor::dTensor2_symmetric</text>
<text text-anchor="middle" x="675.5" y="-113.5" font-family="Helvetica,sans-Serif" font-size="10.00">&lt; T, Dim01, Dim2, i, j, k &gt;</text>
</a>
</g>
</g>
<!-- Node2 -->
<g id="node2" class="node">
<title>Node2</title>
<g id="a_node2"><a xlink:href="classFTensor_1_1Tensor1.html" target="_top" xlink:title=" ">
<polygon fill="white" stroke="black" points="387.5,-159.5 387.5,-189.5 511.5,-189.5 511.5,-159.5 387.5,-159.5"/>
<text text-anchor="start" x="395.5" y="-177.5" font-family="Helvetica,sans-Serif" font-size="10.00">FTensor::Tensor1&lt; int,</text>
<text text-anchor="middle" x="449.5" y="-166.5" font-family="Helvetica,sans-Serif" font-size="10.00"> Dim2 &gt;</text>
</a>
</g>
</g>
<!-- Node2&#45;&gt;Node1 -->
<g id="edge1" class="edge">
<title>Node2&#45;&gt;Node1</title>
<path fill="none" stroke="#9a32cd" stroke-dasharray="5,2" d="M521.67,-157.66C550.35,-150.88 583.17,-143.11 611.02,-136.52"/>
<polygon fill="#9a32cd" stroke="#9a32cd" points="520.63,-154.31 511.71,-160.02 522.25,-161.12 520.63,-154.31"/>
<text text-anchor="middle" x="561" y="-153.5" font-family="Helvetica,sans-Serif" font-size="10.00"> d_ijk</text>
</g>
<!-- Node3 -->
<g id="node3" class="node">
<title>Node3</title>
<g id="a_node3"><a xlink:title=" ">
<polygon fill="white" stroke="#bfbfbf" points="153,-199 153,-218 182,-218 182,-199 153,-199"/>
<text text-anchor="middle" x="167.5" y="-206" font-family="Helvetica,sans-Serif" font-size="10.00">int</text>
</a>
</g>
</g>
<!-- Node3&#45;&gt;Node2 -->
<g id="edge2" class="edge">
<title>Node3&#45;&gt;Node2</title>
<path fill="none" stroke="#9a32cd" stroke-dasharray="5,2" d="M191.98,-205.65C234.65,-200.47 326.12,-189.36 387.5,-181.91"/>
<polygon fill="#9a32cd" stroke="#9a32cd" points="191.51,-202.18 182,-206.86 192.35,-209.13 191.51,-202.18"/>
<text text-anchor="middle" x="308.5" y="-199.5" font-family="Helvetica,sans-Serif" font-size="10.00"> data</text>
</g>
<!-- Node4 -->
<g id="node4" class="node">
<title>Node4</title>
<g id="a_node4"><a xlink:href="classFTensor_1_1Tensor1.html" target="_top" xlink:title=" ">
<polygon fill="white" stroke="black" points="109,-135.5 109,-165.5 226,-165.5 226,-135.5 109,-135.5"/>
<text text-anchor="start" x="117" y="-153.5" font-family="Helvetica,sans-Serif" font-size="10.00">FTensor::Tensor1&lt; T,</text>
<text text-anchor="middle" x="167.5" y="-142.5" font-family="Helvetica,sans-Serif" font-size="10.00"> Tensor_Dim &gt;</text>
</a>
</g>
</g>
<!-- Node4&#45;&gt;Node2 -->
<g id="edge3" class="edge">
<title>Node4&#45;&gt;Node2</title>
<path fill="none" stroke="orange" stroke-dasharray="5,2" d="M236.34,-156.32C282.28,-160.25 342.48,-165.41 387.02,-169.23"/>
<polygon fill="orange" stroke="orange" points="236.44,-152.81 226.18,-155.44 235.84,-159.79 236.44,-152.81"/>
<text text-anchor="middle" x="308.5" y="-168.5" font-family="Helvetica,sans-Serif" font-size="10.00"> &lt; int, Dim2 &gt;</text>
</g>
<!-- Node8 -->
<g id="node8" class="node">
<title>Node8</title>
<g id="a_node8"><a xlink:href="classFTensor_1_1Tensor1.html" target="_top" xlink:title=" ">
<polygon fill="white" stroke="black" points="377.5,-106.5 377.5,-136.5 521.5,-136.5 521.5,-106.5 377.5,-106.5"/>
<text text-anchor="start" x="385.5" y="-124.5" font-family="Helvetica,sans-Serif" font-size="10.00">FTensor::Tensor1&lt; double,</text>
<text text-anchor="middle" x="449.5" y="-113.5" font-family="Helvetica,sans-Serif" font-size="10.00"> Dim2 &gt;</text>
</a>
</g>
</g>
<!-- Node4&#45;&gt;Node8 -->
<g id="edge11" class="edge">
<title>Node4&#45;&gt;Node8</title>
<path fill="none" stroke="orange" stroke-dasharray="5,2" d="M236.21,-143.49C278.96,-139.06 334.11,-133.35 377.48,-128.86"/>
<polygon fill="orange" stroke="orange" points="235.76,-140.01 226.18,-144.53 236.48,-146.98 235.76,-140.01"/>
<text text-anchor="middle" x="308.5" y="-142.5" font-family="Helvetica,sans-Serif" font-size="10.00"> &lt; double, Dim2 &gt;</text>
</g>
<!-- Node5 -->
<g id="node5" class="node">
<title>Node5</title>
<g id="a_node5"><a xlink:title=" ">
<polygon fill="white" stroke="#bfbfbf" points="0,-58 0,-77 29,-77 29,-58 0,-58"/>
<text text-anchor="middle" x="14.5" y="-65" font-family="Helvetica,sans-Serif" font-size="10.00">T</text>
</a>
</g>
</g>
<!-- Node5&#45;&gt;Node4 -->
<g id="edge4" class="edge">
<title>Node5&#45;&gt;Node4</title>
<path fill="none" stroke="#9a32cd" stroke-dasharray="5,2" d="M33.4,-84.34C47.77,-97.11 68.95,-114.31 90,-125.5 97.03,-129.24 104.73,-132.55 112.44,-135.44"/>
<polygon fill="#9a32cd" stroke="#9a32cd" points="35.54,-81.55 25.78,-77.42 30.83,-86.73 35.54,-81.55"/>
<text text-anchor="middle" x="59.5" y="-115.5" font-family="Helvetica,sans-Serif" font-size="10.00"> data</text>
</g>
<!-- Node6 -->
<g id="node6" class="node">
<title>Node6</title>
<g id="a_node6"><a xlink:href="classFTensor_1_1Tensor2__symmetric.html" target="_top" xlink:title=" ">
<polygon fill="white" stroke="black" points="372,-52.5 372,-82.5 527,-82.5 527,-52.5 372,-52.5"/>
<text text-anchor="start" x="380" y="-70.5" font-family="Helvetica,sans-Serif" font-size="10.00">FTensor::Tensor2_symmetric</text>
<text text-anchor="middle" x="449.5" y="-59.5" font-family="Helvetica,sans-Serif" font-size="10.00">&lt; T *, Dim01 &gt;</text>
</a>
</g>
</g>
<!-- Node5&#45;&gt;Node6 -->
<g id="edge6" class="edge">
<title>Node5&#45;&gt;Node6</title>
<path fill="none" stroke="#9a32cd" stroke-dasharray="5,2" d="M39.46,-67.5C101.86,-67.5 271.5,-67.5 371.63,-67.5"/>
<polygon fill="#9a32cd" stroke="#9a32cd" points="39.42,-64 29.42,-67.5 39.42,-71 39.42,-64"/>
<text text-anchor="middle" x="167.5" y="-70.5" font-family="Helvetica,sans-Serif" font-size="10.00"> data</text>
</g>
<!-- Node7 -->
<g id="node7" class="node">
<title>Node7</title>
<g id="a_node7"><a xlink:href="classFTensor_1_1Tensor2__symmetric.html" target="_top" xlink:title=" ">
<polygon fill="white" stroke="black" points="90,-0.5 90,-30.5 245,-30.5 245,-0.5 90,-0.5"/>
<text text-anchor="start" x="98" y="-18.5" font-family="Helvetica,sans-Serif" font-size="10.00">FTensor::Tensor2_symmetric</text>
<text text-anchor="middle" x="167.5" y="-7.5" font-family="Helvetica,sans-Serif" font-size="10.00">&lt; T, Tensor_Dim &gt;</text>
</a>
</g>
</g>
<!-- Node5&#45;&gt;Node7 -->
<g id="edge8" class="edge">
<title>Node5&#45;&gt;Node7</title>
<path fill="none" stroke="#9a32cd" stroke-dasharray="5,2" d="M32.89,-51.46C37.25,-48.09 42.09,-44.85 47,-42.5 60.33,-36.12 75.23,-31.21 89.87,-27.45"/>
<polygon fill="#9a32cd" stroke="#9a32cd" points="30.62,-48.79 25.2,-57.89 35.12,-54.15 30.62,-48.79"/>
<text text-anchor="middle" x="59.5" y="-45.5" font-family="Helvetica,sans-Serif" font-size="10.00"> data</text>
</g>
<!-- Node6&#45;&gt;Node1 -->
<g id="edge5" class="edge">
<title>Node6&#45;&gt;Node1</title>
<path fill="none" stroke="#9a32cd" stroke-dasharray="5,2" d="M522.88,-84.95C551.63,-91.88 584.37,-99.77 612.05,-106.45"/>
<polygon fill="#9a32cd" stroke="#9a32cd" points="523.44,-81.48 512.9,-82.54 521.8,-88.29 523.44,-81.48"/>
<text text-anchor="middle" x="561" y="-100.5" font-family="Helvetica,sans-Serif" font-size="10.00"> a</text>
</g>
<!-- Node7&#45;&gt;Node6 -->
<g id="edge7" class="edge">
<title>Node7&#45;&gt;Node6</title>
<path fill="none" stroke="orange" stroke-dasharray="5,2" d="M255.11,-26.02C286.4,-30.37 321.92,-35.94 354,-42.5 367.63,-45.29 382.23,-48.85 395.77,-52.41"/>
<polygon fill="orange" stroke="orange" points="255.49,-22.54 245.1,-24.65 254.54,-29.48 255.49,-22.54"/>
<text text-anchor="middle" x="308.5" y="-45.5" font-family="Helvetica,sans-Serif" font-size="10.00"> &lt; T *, Dim01 &gt;</text>
</g>
<!-- Node8&#45;&gt;Node1 -->
<g id="edge9" class="edge">
<title>Node8&#45;&gt;Node1</title>
<path fill="none" stroke="#9a32cd" stroke-dasharray="5,2" d="M531.95,-121.5C552.48,-121.5 574.5,-121.5 594.94,-121.5"/>
<polygon fill="#9a32cd" stroke="#9a32cd" points="531.68,-118 521.68,-121.5 531.68,-125 531.68,-118"/>
<text text-anchor="middle" x="561" y="-124.5" font-family="Helvetica,sans-Serif" font-size="10.00"> d_xyz</text>
</g>
<!-- Node9 -->
<g id="node9" class="node">
<title>Node9</title>
<g id="a_node9"><a xlink:href="classdouble.html" target="_top" xlink:title=" ">
<polygon fill="white" stroke="black" points="142.5,-97 142.5,-116 192.5,-116 192.5,-97 142.5,-97"/>
<text text-anchor="middle" x="167.5" y="-104" font-family="Helvetica,sans-Serif" font-size="10.00">double</text>
</a>
</g>
</g>
<!-- Node9&#45;&gt;Node8 -->
<g id="edge10" class="edge">
<title>Node9&#45;&gt;Node8</title>
<path fill="none" stroke="#9a32cd" stroke-dasharray="5,2" d="M202.87,-105.23C240.15,-104.2 301.39,-103.48 354,-107.5 361.61,-108.08 369.53,-108.91 377.41,-109.87"/>
<polygon fill="#9a32cd" stroke="#9a32cd" points="202.45,-101.74 192.56,-105.54 202.66,-108.74 202.45,-101.74"/>
<text text-anchor="middle" x="308.5" y="-110.5" font-family="Helvetica,sans-Serif" font-size="10.00"> data</text>
</g>
</g>
</svg>
