<?xml version="1.0" encoding="UTF-8" standalone="no"?>
<!DOCTYPE svg PUBLIC "-//W3C//DTD SVG 1.1//EN"
 "http://www.w3.org/Graphics/SVG/1.1/DTD/svg11.dtd">
<!-- Generated by graphviz version 2.43.0 (0)
 -->
<!-- Title: FTensor::Tensor3_plus_Tensor3&lt; A, B, T, U, Dim0, Dim1, Dim2, Dim2, Dim0, Dim1, i, j, k, k, i, j &gt; Pages: 1 -->
<svg width="735pt" height="122pt"
 viewBox="0.00 0.00 735.00 122.00" xmlns="http://www.w3.org/2000/svg" xmlns:xlink="http://www.w3.org/1999/xlink">
<g id="graph0" class="graph" transform="scale(1 1) rotate(0) translate(4 118)">
<title>FTensor::Tensor3_plus_Tensor3&lt; A, B, T, U, Dim0, Dim1, Dim2, Dim2, Dim0, Dim1, i, j, k, k, i, j &gt;</title>
<polygon fill="white" stroke="transparent" points="-4,4 -4,-118 731,-118 731,4 -4,4"/>
<!-- Node1 -->
<g id="node1" class="node">
<title>Node1</title>
<g id="a_node1"><a xlink:title=" ">
<polygon fill="#bfbfbf" stroke="black" points="581,-6.5 581,-69.5 727,-69.5 727,-6.5 581,-6.5"/>
<text text-anchor="start" x="589" y="-57.5" font-family="Helvetica,sans-Serif" font-size="10.00">FTensor::Tensor3_plus</text>
<text text-anchor="start" x="589" y="-46.5" font-family="Helvetica,sans-Serif" font-size="10.00">_Tensor3&lt; A, B, T, U,</text>
<text text-anchor="start" x="589" y="-35.5" font-family="Helvetica,sans-Serif" font-size="10.00"> Dim0, Dim1, Dim2, Dim2,</text>
<text text-anchor="start" x="589" y="-24.5" font-family="Helvetica,sans-Serif" font-size="10.00"> Dim0, Dim1, i, j, k, k,</text>
<text text-anchor="middle" x="654" y="-13.5" font-family="Helvetica,sans-Serif" font-size="10.00"> i, j &gt;</text>
</a>
</g>
</g>
<!-- Node2 -->
<g id="node2" class="node">
<title>Node2</title>
<g id="a_node2"><a xlink:href="classFTensor_1_1Tensor3__Expr.html" target="_top" xlink:title=" ">
<polygon fill="white" stroke="black" points="370,-60.5 370,-101.5 518,-101.5 518,-60.5 370,-60.5"/>
<text text-anchor="start" x="378" y="-89.5" font-family="Helvetica,sans-Serif" font-size="10.00">FTensor::Tensor3_Expr</text>
<text text-anchor="start" x="378" y="-78.5" font-family="Helvetica,sans-Serif" font-size="10.00">&lt; B, U, Dim2, Dim0, Dim1,</text>
<text text-anchor="middle" x="444" y="-67.5" font-family="Helvetica,sans-Serif" font-size="10.00"> k, i, j &gt;</text>
</a>
</g>
</g>
<!-- Node2&#45;&gt;Node1 -->
<g id="edge1" class="edge">
<title>Node2&#45;&gt;Node1</title>
<path fill="none" stroke="#9a32cd" stroke-dasharray="5,2" d="M528.19,-63.8C545.62,-60.2 563.85,-56.43 580.84,-52.92"/>
<polygon fill="#9a32cd" stroke="#9a32cd" points="527.12,-60.45 518.04,-65.9 528.54,-67.3 527.12,-60.45"/>
<text text-anchor="middle" x="549.5" y="-65" font-family="Helvetica,sans-Serif" font-size="10.00"> iterB</text>
</g>
<!-- Node3 -->
<g id="node3" class="node">
<title>Node3</title>
<g id="a_node3"><a xlink:title=" ">
<polygon fill="white" stroke="#bfbfbf" points="143.5,-94.5 143.5,-113.5 172.5,-113.5 172.5,-94.5 143.5,-94.5"/>
<text text-anchor="middle" x="158" y="-101.5" font-family="Helvetica,sans-Serif" font-size="10.00">B</text>
</a>
</g>
</g>
<!-- Node3&#45;&gt;Node2 -->
<g id="edge2" class="edge">
<title>Node3&#45;&gt;Node2</title>
<path fill="none" stroke="#9a32cd" stroke-dasharray="5,2" d="M182.73,-102.08C223.43,-98.78 308.13,-91.92 369.89,-86.92"/>
<polygon fill="#9a32cd" stroke="#9a32cd" points="182.38,-98.59 172.7,-102.89 182.95,-105.57 182.38,-98.59"/>
<text text-anchor="middle" x="300.5" y="-99" font-family="Helvetica,sans-Serif" font-size="10.00"> iter</text>
</g>
<!-- Node4 -->
<g id="node4" class="node">
<title>Node4</title>
<g id="a_node4"><a xlink:href="classFTensor_1_1Tensor3__Expr.html" target="_top" xlink:title=" ">
<polygon fill="white" stroke="black" points="85,-34.5 85,-75.5 231,-75.5 231,-34.5 85,-34.5"/>
<text text-anchor="start" x="93" y="-63.5" font-family="Helvetica,sans-Serif" font-size="10.00">FTensor::Tensor3_Expr</text>
<text text-anchor="start" x="93" y="-52.5" font-family="Helvetica,sans-Serif" font-size="10.00">&lt; A, T, Dim0, Dim1, Dim2,</text>
<text text-anchor="middle" x="158" y="-41.5" font-family="Helvetica,sans-Serif" font-size="10.00"> i, j, k &gt;</text>
</a>
</g>
</g>
<!-- Node4&#45;&gt;Node2 -->
<g id="edge3" class="edge">
<title>Node4&#45;&gt;Node2</title>
<path fill="none" stroke="orange" stroke-dasharray="5,2" d="M241.61,-54.92C275.87,-55.69 315.95,-57.62 352,-62 357.77,-62.7 363.71,-63.58 369.67,-64.58"/>
<polygon fill="orange" stroke="orange" points="241.24,-51.42 231.17,-54.72 241.1,-58.41 241.24,-51.42"/>
<text text-anchor="start" x="249" y="-76" font-family="Helvetica,sans-Serif" font-size="10.00"> &lt; B, U, Dim2, Dim0,</text>
<text text-anchor="middle" x="300.5" y="-65" font-family="Helvetica,sans-Serif" font-size="10.00"> Dim1, k, i, j &gt;</text>
</g>
<!-- Node5 -->
<g id="node5" class="node">
<title>Node5</title>
<g id="a_node5"><a xlink:title=" ">
<polygon fill="white" stroke="#bfbfbf" points="0,-45.5 0,-64.5 29,-64.5 29,-45.5 0,-45.5"/>
<text text-anchor="middle" x="14.5" y="-52.5" font-family="Helvetica,sans-Serif" font-size="10.00">A</text>
</a>
</g>
</g>
<!-- Node5&#45;&gt;Node4 -->
<g id="edge4" class="edge">
<title>Node5&#45;&gt;Node4</title>
<path fill="none" stroke="#9a32cd" stroke-dasharray="5,2" d="M39.18,-55C51.88,-55 68.27,-55 84.77,-55"/>
<polygon fill="#9a32cd" stroke="#9a32cd" points="39.07,-51.5 29.07,-55 39.07,-58.5 39.07,-51.5"/>
<text text-anchor="middle" x="57" y="-58" font-family="Helvetica,sans-Serif" font-size="10.00"> iter</text>
</g>
<!-- Node6 -->
<g id="node6" class="node">
<title>Node6</title>
<g id="a_node6"><a xlink:title=" ">
<polygon fill="white" stroke="#bfbfbf" points="383,-0.5 383,-41.5 505,-41.5 505,-0.5 383,-0.5"/>
<text text-anchor="start" x="391" y="-29.5" font-family="Helvetica,sans-Serif" font-size="10.00">Tensor3_Expr&lt; A, T,</text>
<text text-anchor="start" x="391" y="-18.5" font-family="Helvetica,sans-Serif" font-size="10.00"> Dim0, Dim1, Dim2, i,</text>
<text text-anchor="middle" x="444" y="-7.5" font-family="Helvetica,sans-Serif" font-size="10.00"> j, k &gt;</text>
</a>
</g>
</g>
<!-- Node6&#45;&gt;Node1 -->
<g id="edge5" class="edge">
<title>Node6&#45;&gt;Node1</title>
<path fill="none" stroke="#9a32cd" stroke-dasharray="5,2" d="M515.34,-26.75C536.43,-28.47 559.6,-30.37 580.82,-32.1"/>
<polygon fill="#9a32cd" stroke="#9a32cd" points="515.41,-23.24 505.16,-25.92 514.84,-30.22 515.41,-23.24"/>
<text text-anchor="middle" x="549.5" y="-34" font-family="Helvetica,sans-Serif" font-size="10.00"> iterA</text>
</g>
</g>
</svg>
