<?xml version="1.0" encoding="UTF-8" standalone="no"?>
<!DOCTYPE svg PUBLIC "-//W3C//DTD SVG 1.1//EN"
 "http://www.w3.org/Graphics/SVG/1.1/DTD/svg11.dtd">
<!-- Generated by graphviz version 2.43.0 (0)
 -->
<!-- Title: FTensor::Tensor3_or_Tensor3&lt; A, B, T, U, Dim02, Dim1, Dim02, Dim02, Dim1, Dim02, i, j, k, j, i, k &gt; Pages: 1 -->
<svg width="705pt" height="139pt"
 viewBox="0.00 0.00 705.00 139.00" xmlns="http://www.w3.org/2000/svg" xmlns:xlink="http://www.w3.org/1999/xlink">
<g id="graph0" class="graph" transform="scale(1 1) rotate(0) translate(4 135)">
<title>FTensor::Tensor3_or_Tensor3&lt; A, B, T, U, Dim02, Dim1, Dim02, Dim02, Dim1, Dim02, i, j, k, j, i, k &gt;</title>
<polygon fill="white" stroke="transparent" points="-4,4 -4,-135 701,-135 701,4 -4,4"/>
<!-- Node1 -->
<g id="node1" class="node">
<title>Node1</title>
<g id="a_node1"><a xlink:title=" ">
<polygon fill="#bfbfbf" stroke="black" points="563,-34.5 563,-97.5 697,-97.5 697,-34.5 563,-34.5"/>
<text text-anchor="start" x="571" y="-85.5" font-family="Helvetica,sans-Serif" font-size="10.00">FTensor::Tensor3_or</text>
<text text-anchor="start" x="571" y="-74.5" font-family="Helvetica,sans-Serif" font-size="10.00">_Tensor3&lt; A, B, T, U,</text>
<text text-anchor="start" x="571" y="-63.5" font-family="Helvetica,sans-Serif" font-size="10.00"> Dim02, Dim1, Dim02,</text>
<text text-anchor="start" x="571" y="-52.5" font-family="Helvetica,sans-Serif" font-size="10.00"> Dim02, Dim1, Dim02, i,</text>
<text text-anchor="middle" x="630" y="-41.5" font-family="Helvetica,sans-Serif" font-size="10.00"> j, k, j, i, k &gt;</text>
</a>
</g>
</g>
<!-- Node2 -->
<g id="node2" class="node">
<title>Node2</title>
<g id="a_node2"><a xlink:href="classFTensor_1_1Tensor3__Expr.html" target="_top" xlink:title=" ">
<polygon fill="white" stroke="black" points="376,-75.5 376,-116.5 500,-116.5 500,-75.5 376,-75.5"/>
<text text-anchor="start" x="384" y="-104.5" font-family="Helvetica,sans-Serif" font-size="10.00">FTensor::Tensor3_Expr</text>
<text text-anchor="start" x="384" y="-93.5" font-family="Helvetica,sans-Serif" font-size="10.00">&lt; A, T, Dim02, Dim1,</text>
<text text-anchor="middle" x="438" y="-82.5" font-family="Helvetica,sans-Serif" font-size="10.00"> Dim02, i, j, k &gt;</text>
</a>
</g>
</g>
<!-- Node2&#45;&gt;Node1 -->
<g id="edge1" class="edge">
<title>Node2&#45;&gt;Node1</title>
<path fill="none" stroke="#9a32cd" stroke-dasharray="5,2" d="M510.15,-84.77C527.37,-82.05 545.71,-79.15 562.7,-76.47"/>
<polygon fill="#9a32cd" stroke="#9a32cd" points="509.49,-81.33 500.16,-86.34 510.59,-88.24 509.49,-81.33"/>
<text text-anchor="middle" x="531.5" y="-85" font-family="Helvetica,sans-Serif" font-size="10.00"> iterA</text>
</g>
<!-- Node3 -->
<g id="node3" class="node">
<title>Node3</title>
<g id="a_node3"><a xlink:title=" ">
<polygon fill="white" stroke="#bfbfbf" points="0,-88.5 0,-107.5 29,-107.5 29,-88.5 0,-88.5"/>
<text text-anchor="middle" x="14.5" y="-95.5" font-family="Helvetica,sans-Serif" font-size="10.00">A</text>
</a>
</g>
</g>
<!-- Node3&#45;&gt;Node2 -->
<g id="edge2" class="edge">
<title>Node3&#45;&gt;Node2</title>
<path fill="none" stroke="#9a32cd" stroke-dasharray="5,2" d="M39.09,-103.73C41.75,-104.23 44.42,-104.67 47,-105 184.15,-122.46 220.43,-125.79 358,-112 363.85,-111.41 369.9,-110.59 375.94,-109.62"/>
<polygon fill="#9a32cd" stroke="#9a32cd" points="39.71,-100.29 29.2,-101.62 38.25,-107.13 39.71,-100.29"/>
<text text-anchor="middle" x="158" y="-123" font-family="Helvetica,sans-Serif" font-size="10.00"> iter</text>
</g>
<!-- Node4 -->
<g id="node4" class="node">
<title>Node4</title>
<g id="a_node4"><a xlink:href="classFTensor_1_1Tensor3__Expr.html" target="_top" xlink:title=" ">
<polygon fill="white" stroke="black" points="85,-48.5 85,-89.5 231,-89.5 231,-48.5 85,-48.5"/>
<text text-anchor="start" x="93" y="-77.5" font-family="Helvetica,sans-Serif" font-size="10.00">FTensor::Tensor3_Expr</text>
<text text-anchor="start" x="93" y="-66.5" font-family="Helvetica,sans-Serif" font-size="10.00">&lt; A, T, Dim0, Dim1, Dim2,</text>
<text text-anchor="middle" x="158" y="-55.5" font-family="Helvetica,sans-Serif" font-size="10.00"> i, j, k &gt;</text>
</a>
</g>
</g>
<!-- Node3&#45;&gt;Node4 -->
<g id="edge4" class="edge">
<title>Node3&#45;&gt;Node4</title>
<path fill="none" stroke="#9a32cd" stroke-dasharray="5,2" d="M39.18,-93.15C51.88,-90.54 68.27,-87.18 84.77,-83.8"/>
<polygon fill="#9a32cd" stroke="#9a32cd" points="38.16,-89.78 29.07,-95.22 39.57,-96.64 38.16,-89.78"/>
<text text-anchor="middle" x="57" y="-93" font-family="Helvetica,sans-Serif" font-size="10.00"> iter</text>
</g>
<!-- Node4&#45;&gt;Node2 -->
<g id="edge3" class="edge">
<title>Node4&#45;&gt;Node2</title>
<path fill="none" stroke="orange" stroke-dasharray="5,2" d="M241.5,-77.01C284.59,-81.2 336.41,-86.23 375.87,-90.06"/>
<polygon fill="orange" stroke="orange" points="241.61,-73.51 231.32,-76.02 240.93,-80.47 241.61,-73.51"/>
<text text-anchor="start" x="250" y="-102" font-family="Helvetica,sans-Serif" font-size="10.00"> &lt; A, T, Dim02, Dim1,</text>
<text text-anchor="middle" x="303.5" y="-91" font-family="Helvetica,sans-Serif" font-size="10.00"> Dim02, i, j, k &gt;</text>
</g>
<!-- Node5 -->
<g id="node5" class="node">
<title>Node5</title>
<g id="a_node5"><a xlink:href="classFTensor_1_1Tensor3__Expr.html" target="_top" xlink:title=" ">
<polygon fill="white" stroke="black" points="376,-15.5 376,-56.5 500,-56.5 500,-15.5 376,-15.5"/>
<text text-anchor="start" x="384" y="-44.5" font-family="Helvetica,sans-Serif" font-size="10.00">FTensor::Tensor3_Expr</text>
<text text-anchor="start" x="384" y="-33.5" font-family="Helvetica,sans-Serif" font-size="10.00">&lt; B, U, Dim02, Dim1,</text>
<text text-anchor="middle" x="438" y="-22.5" font-family="Helvetica,sans-Serif" font-size="10.00"> Dim02, j, i, k &gt;</text>
</a>
</g>
</g>
<!-- Node4&#45;&gt;Node5 -->
<g id="edge7" class="edge">
<title>Node4&#45;&gt;Node5</title>
<path fill="none" stroke="orange" stroke-dasharray="5,2" d="M241.25,-53.11C243.86,-52.72 246.45,-52.35 249,-52 291.19,-46.24 339.01,-42.2 375.87,-39.62"/>
<polygon fill="orange" stroke="orange" points="240.44,-49.7 231.11,-54.71 241.53,-56.61 240.44,-49.7"/>
<text text-anchor="start" x="249" y="-66" font-family="Helvetica,sans-Serif" font-size="10.00"> &lt; B, U, Dim02, Dim1,</text>
<text text-anchor="middle" x="303.5" y="-55" font-family="Helvetica,sans-Serif" font-size="10.00"> Dim02, j, i, k &gt;</text>
</g>
<!-- Node5&#45;&gt;Node1 -->
<g id="edge5" class="edge">
<title>Node5&#45;&gt;Node1</title>
<path fill="none" stroke="#9a32cd" stroke-dasharray="5,2" d="M510.15,-47.23C527.37,-49.95 545.71,-52.85 562.7,-55.53"/>
<polygon fill="#9a32cd" stroke="#9a32cd" points="510.59,-43.76 500.16,-45.66 509.49,-50.67 510.59,-43.76"/>
<text text-anchor="middle" x="531.5" y="-55" font-family="Helvetica,sans-Serif" font-size="10.00"> iterB</text>
</g>
<!-- Node6 -->
<g id="node6" class="node">
<title>Node6</title>
<g id="a_node6"><a xlink:title=" ">
<polygon fill="white" stroke="#bfbfbf" points="143.5,-0.5 143.5,-19.5 172.5,-19.5 172.5,-0.5 143.5,-0.5"/>
<text text-anchor="middle" x="158" y="-7.5" font-family="Helvetica,sans-Serif" font-size="10.00">B</text>
</a>
</g>
</g>
<!-- Node6&#45;&gt;Node5 -->
<g id="edge6" class="edge">
<title>Node6&#45;&gt;Node5</title>
<path fill="none" stroke="#9a32cd" stroke-dasharray="5,2" d="M183.04,-7.81C220.64,-4.9 295.52,-1.19 358,-11 364.82,-12.07 371.86,-13.62 378.8,-15.43"/>
<polygon fill="#9a32cd" stroke="#9a32cd" points="182.3,-4.36 172.62,-8.67 182.88,-11.33 182.3,-4.36"/>
<text text-anchor="middle" x="303.5" y="-14" font-family="Helvetica,sans-Serif" font-size="10.00"> iter</text>
</g>
</g>
</svg>
