<?xml version="1.0" encoding="UTF-8" standalone="no"?>
<!DOCTYPE svg PUBLIC "-//W3C//DTD SVG 1.1//EN"
 "http://www.w3.org/Graphics/SVG/1.1/DTD/svg11.dtd">
<!-- Generated by graphviz version 2.43.0 (0)
 -->
<!-- Title: User modules Pages: 1 -->
<!--zoomable 581 -->
<svg id="main" version="1.1" xmlns="http://www.w3.org/2000/svg" xmlns:xlink="http://www.w3.org/1999/xlink" xml:space="preserve" onload="init(evt)">
<style type="text/css"><![CDATA[
.edge:hover path { stroke: red; }
.edge:hover polygon { stroke: red; fill: red; }
]]></style>
<script type="text/javascript"><![CDATA[
var edges = document.getElementsByTagName('g');
if (edges && edges.length) {
  for (var i=0;i<edges.length;i++) {
    if (edges[i].id.substr(0,4)=='edge') {
      edges[i].setAttribute('class','edge');
    }
  }
}
]]></script>
        <defs>
                <circle id="rim" cx="0" cy="0" r="7"/>
                <circle id="rim2" cx="0" cy="0" r="3.5"/>
                <g id="zoomPlus">
                        <use xlink:href="#rim" fill="#404040">
                                <set attributeName="fill" to="#808080" begin="zoomplus.mouseover" end="zoomplus.mouseout"/>
                        </use>
                        <path d="M-4,0h8M0,-4v8" fill="none" stroke="white" stroke-width="1.5" pointer-events="none"/>
                </g>
                <g id="zoomMin">
                        <use xlink:href="#rim" fill="#404040">
                                <set attributeName="fill" to="#808080" begin="zoomminus.mouseover" end="zoomminus.mouseout"/>
                        </use>
                        <path d="M-4,0h8" fill="none" stroke="white" stroke-width="1.5" pointer-events="none"/>
                </g>
                <g id="dirArrow">
                        <path fill="none" stroke="white" stroke-width="1.5" d="M0,-3.0v7 M-2.5,-0.5L0,-3.0L2.5,-0.5"/>
                </g>
               <g id="resetDef">
                       <use xlink:href="#rim2" fill="#404040">
                               <set attributeName="fill" to="#808080" begin="reset.mouseover" end="reset.mouseout"/>
                       </use>
               </g>
        </defs>

<script type="text/javascript">
var viewWidth = 273;
var viewHeight = 581;
var sectionId = 'dynsection-0';
</script>
<script xlink:href="svgpan.js"/>
<svg id="graph" class="graph">
<g id="viewport">
<title>User modules</title>
<polygon fill="white" stroke="transparent" points="-4,4 -4,-577 269,-577 269,4 -4,4"/>
<!-- Node16 -->
<g id="node1" class="node">
<title>Node16</title>
<g id="a_node1"><a xlink:href="group__minimal__surface__area.html" target="_top" xlink:title=" ">
<polygon fill="white" stroke="black" points="252.5,-573 132.5,-573 132.5,-554 252.5,-554 252.5,-573"/>
<text text-anchor="middle" x="192.5" y="-561" font-family="Helvetica,sans-Serif" font-size="10.00">Minimal surface area</text>
</a>
</g>
</g>
<!-- Node10 -->
<g id="node2" class="node">
<title>Node10</title>
<g id="a_node2"><a xlink:href="group__mofem__fs__post__proc.html" target="_top" xlink:title=" ">
<polygon fill="white" stroke="black" points="231.5,-536 153.5,-536 153.5,-517 231.5,-517 231.5,-536"/>
<text text-anchor="middle" x="192.5" y="-524" font-family="Helvetica,sans-Serif" font-size="10.00">Post Process</text>
</a>
</g>
</g>
<!-- Node8 -->
<g id="node3" class="node">
<title>Node8</title>
<g id="a_node3"><a xlink:href="group__Dirichlet__bc.html" target="_top" xlink:title=" ">
<polygon fill="white" stroke="black" points="246,-498.5 139,-498.5 139,-468.5 246,-468.5 246,-498.5"/>
<text text-anchor="start" x="147" y="-486.5" font-family="Helvetica,sans-Serif" font-size="10.00">Dirichlet boundary</text>
<text text-anchor="middle" x="192.5" y="-475.5" font-family="Helvetica,sans-Serif" font-size="10.00"> conditions</text>
</a>
</g>
</g>
<!-- Node4 -->
<g id="node4" class="node">
<title>Node4</title>
<g id="a_node4"><a xlink:href="group__arc__length__control.html" target="_top" xlink:title=" ">
<polygon fill="white" stroke="black" points="245.5,-450 139.5,-450 139.5,-431 245.5,-431 245.5,-450"/>
<text text-anchor="middle" x="192.5" y="-438" font-family="Helvetica,sans-Serif" font-size="10.00">Arc&#45;Length control</text>
</a>
</g>
</g>
<!-- Node9 -->
<g id="node5" class="node">
<title>Node9</title>
<g id="a_node5"><a xlink:href="group__nonlinear__elastic__elem.html" target="_top" xlink:title=" ">
<polygon fill="white" stroke="black" points="265,-413 120,-413 120,-394 265,-394 265,-413"/>
<text text-anchor="middle" x="192.5" y="-401" font-family="Helvetica,sans-Serif" font-size="10.00">NonLinear Elastic Element</text>
</a>
</g>
</g>
<!-- Node15 -->
<g id="node6" class="node">
<title>Node15</title>
<g id="a_node6"><a xlink:href="group__nitsche__method.html" target="_top" xlink:title=" ">
<polygon fill="white" stroke="black" points="239,-376 146,-376 146,-357 239,-357 239,-376"/>
<text text-anchor="middle" x="192.5" y="-364" font-family="Helvetica,sans-Serif" font-size="10.00">Nitsche Method</text>
</a>
</g>
</g>
<!-- Node6 -->
<g id="node7" class="node">
<title>Node6</title>
<g id="a_node7"><a xlink:href="group__projection__matrix.html" target="_top" xlink:title=" ">
<polygon fill="white" stroke="black" points="250,-338.5 135,-338.5 135,-308.5 250,-308.5 250,-338.5"/>
<text text-anchor="start" x="143" y="-326.5" font-family="Helvetica,sans-Serif" font-size="10.00">Constrain Projection</text>
<text text-anchor="middle" x="192.5" y="-315.5" font-family="Helvetica,sans-Serif" font-size="10.00"> Matrix</text>
</a>
</g>
</g>
<!-- Node5 -->
<g id="node8" class="node">
<title>Node5</title>
<g id="a_node8"><a xlink:href="group__mofem__body__forces.html" target="_top" xlink:title=" ">
<polygon fill="white" stroke="black" points="254,-290 131,-290 131,-271 254,-271 254,-290"/>
<text text-anchor="middle" x="192.5" y="-278" font-family="Helvetica,sans-Serif" font-size="10.00">Body forces elements</text>
</a>
</g>
</g>
<!-- Node12 -->
<g id="node9" class="node">
<title>Node12</title>
<g id="a_node9"><a xlink:href="group__mofem__thermal__elem.html" target="_top" xlink:title=" ">
<polygon fill="white" stroke="black" points="243,-253 142,-253 142,-234 243,-234 243,-253"/>
<text text-anchor="middle" x="192.5" y="-241" font-family="Helvetica,sans-Serif" font-size="10.00">Thermal element</text>
</a>
</g>
</g>
<!-- Node11 -->
<g id="node10" class="node">
<title>Node11</title>
<g id="a_node10"><a xlink:href="group__mofem__static__boundary__conditions.html" target="_top" xlink:title="conditions">
<polygon fill="white" stroke="black" points="246,-215.5 139,-215.5 139,-185.5 246,-185.5 246,-215.5"/>
<text text-anchor="start" x="147" y="-203.5" font-family="Helvetica,sans-Serif" font-size="10.00">Pressure and force</text>
<text text-anchor="middle" x="192.5" y="-192.5" font-family="Helvetica,sans-Serif" font-size="10.00"> boundary</text>
</a>
</g>
</g>
<!-- Node3 -->
<g id="node11" class="node">
<title>Node3</title>
<g id="a_node11"><a xlink:href="group__adoc__plasticity.html" target="_top" xlink:title=" ">
<polygon fill="white" stroke="black" points="243.5,-167 141.5,-167 141.5,-148 243.5,-148 243.5,-167"/>
<text text-anchor="middle" x="192.5" y="-155" font-family="Helvetica,sans-Serif" font-size="10.00">ADOL&#45;C plasticity</text>
</a>
</g>
</g>
<!-- Node13 -->
<g id="node12" class="node">
<title>Node13</title>
<g id="a_node12"><a xlink:href="group__bone__remodelling.html" target="_top" xlink:title="Bone remodeling module.">
<polygon fill="white" stroke="black" points="242.5,-130 142.5,-130 142.5,-111 242.5,-111 242.5,-130"/>
<text text-anchor="middle" x="192.5" y="-118" font-family="Helvetica,sans-Serif" font-size="10.00">Bone remodeling</text>
</a>
</g>
</g>
<!-- Node7 -->
<g id="node13" class="node">
<title>Node7</title>
<g id="a_node13"><a xlink:href="group__convective__mass__elem.html" target="_top" xlink:title=" ">
<polygon fill="white" stroke="black" points="235.5,-93 149.5,-93 149.5,-74 235.5,-74 235.5,-93"/>
<text text-anchor="middle" x="192.5" y="-81" font-family="Helvetica,sans-Serif" font-size="10.00">Mass Element</text>
</a>
</g>
</g>
<!-- Node14 -->
<g id="node14" class="node">
<title>Node14</title>
<g id="a_node14"><a xlink:href="group__gel.html" target="_top" xlink:title=" ">
<polygon fill="white" stroke="black" points="226,-56 159,-56 159,-37 226,-37 226,-56"/>
<text text-anchor="middle" x="192.5" y="-44" font-family="Helvetica,sans-Serif" font-size="10.00">Gel model</text>
</a>
</g>
</g>
<!-- Node1 -->
<g id="node15" class="node">
<title>Node1</title>
<g id="a_node15"><a xlink:title=" ">
<polygon fill="#bfbfbf" stroke="black" points="84,-290 0,-290 0,-271 84,-271 84,-290"/>
<text text-anchor="middle" x="42" y="-278" font-family="Helvetica,sans-Serif" font-size="10.00">User modules</text>
</a>
</g>
</g>
<!-- Node1&#45;&gt;Node16 -->
<g id="edge15" class="edge">
<title>Node1&#45;&gt;Node16</title>
<path fill="none" stroke="black" d="M42.53,-300.36C42.52,-349.49 49.61,-477.61 120,-545.5 123.59,-548.97 127.75,-551.79 132.22,-554.1"/>
<polygon fill="black" stroke="black" points="46.03,-300.18 42.64,-290.14 39.04,-300.1 46.03,-300.18"/>
</g>
<!-- Node1&#45;&gt;Node10 -->
<g id="edge9" class="edge">
<title>Node1&#45;&gt;Node10</title>
<path fill="none" stroke="black" d="M43.73,-300.42C46.45,-344.48 59.32,-450.77 120,-507.5 129.01,-515.92 141.31,-520.7 153.18,-523.38"/>
<polygon fill="black" stroke="black" points="47.22,-300.22 43.22,-290.41 40.23,-300.57 47.22,-300.22"/>
</g>
<!-- Node1&#45;&gt;Node8 -->
<g id="edge7" class="edge">
<title>Node1&#45;&gt;Node8</title>
<path fill="none" stroke="black" d="M46.06,-300.15C52.77,-336.71 72.19,-415.47 120,-459.5 125.39,-464.47 131.85,-468.41 138.64,-471.54"/>
<polygon fill="black" stroke="black" points="49.5,-299.51 44.37,-290.24 42.6,-300.69 49.5,-299.51"/>
</g>
<!-- Node1&#45;&gt;Node4 -->
<g id="edge3" class="edge">
<title>Node1&#45;&gt;Node4</title>
<path fill="none" stroke="black" d="M48.12,-300.19C57.21,-331.11 79.16,-390.79 120,-422.5 125.66,-426.9 132.27,-430.23 139.13,-432.76"/>
<polygon fill="black" stroke="black" points="51.4,-298.9 45.34,-290.2 44.65,-300.77 51.4,-298.9"/>
</g>
<!-- Node1&#45;&gt;Node9 -->
<g id="edge8" class="edge">
<title>Node1&#45;&gt;Node9</title>
<path fill="none" stroke="black" d="M51.57,-299.11C63.49,-322.87 87.34,-363.52 120,-385.5 125.1,-388.93 130.8,-391.71 136.69,-393.95"/>
<polygon fill="black" stroke="black" points="54.7,-297.55 47.2,-290.06 48.4,-300.59 54.7,-297.55"/>
</g>
<!-- Node1&#45;&gt;Node15 -->
<g id="edge14" class="edge">
<title>Node1&#45;&gt;Node15</title>
<path fill="none" stroke="black" d="M58.57,-297.97C73.06,-313.18 95.96,-334.74 120,-347.5 127.94,-351.71 136.89,-355.04 145.69,-357.66"/>
<polygon fill="black" stroke="black" points="60.8,-295.23 51.44,-290.27 55.67,-299.98 60.8,-295.23"/>
</g>
<!-- Node1&#45;&gt;Node6 -->
<g id="edge5" class="edge">
<title>Node1&#45;&gt;Node6</title>
<path fill="none" stroke="black" d="M86.02,-292.96C102.79,-297.81 122.15,-303.42 139.68,-308.49"/>
<polygon fill="black" stroke="black" points="86.54,-289.46 75.96,-290.04 84.59,-296.19 86.54,-289.46"/>
</g>
<!-- Node1&#45;&gt;Node5 -->
<g id="edge4" class="edge">
<title>Node1&#45;&gt;Node5</title>
<path fill="none" stroke="black" d="M94.45,-280.5C106.21,-280.5 118.82,-280.5 130.93,-280.5"/>
<polygon fill="black" stroke="black" points="94.37,-277 84.37,-280.5 94.37,-284 94.37,-277"/>
</g>
<!-- Node1&#45;&gt;Node12 -->
<g id="edge11" class="edge">
<title>Node1&#45;&gt;Node12</title>
<path fill="none" stroke="black" d="M91.14,-268.51C111.22,-263.5 134.22,-257.77 153.13,-253.06"/>
<polygon fill="black" stroke="black" points="90.1,-265.16 81.24,-270.97 91.79,-271.95 90.1,-265.16"/>
</g>
<!-- Node1&#45;&gt;Node11 -->
<g id="edge10" class="edge">
<title>Node1&#45;&gt;Node11</title>
<path fill="none" stroke="black" d="M62.33,-264.33C77.33,-252.38 99.03,-236.37 120,-225.5 127,-221.87 134.65,-218.57 142.26,-215.64"/>
<polygon fill="black" stroke="black" points="59.89,-261.8 54.33,-270.82 64.3,-267.24 59.89,-261.8"/>
</g>
<!-- Node1&#45;&gt;Node3 -->
<g id="edge2" class="edge">
<title>Node1&#45;&gt;Node3</title>
<path fill="none" stroke="black" d="M51.84,-261.78C63.92,-238.27 87.8,-198.37 120,-176.5 126.38,-172.17 133.69,-168.83 141.15,-166.24"/>
<polygon fill="black" stroke="black" points="48.7,-260.24 47.4,-270.75 54.97,-263.34 48.7,-260.24"/>
</g>
<!-- Node1&#45;&gt;Node13 -->
<g id="edge12" class="edge">
<title>Node1&#45;&gt;Node13</title>
<path fill="none" stroke="black" d="M48.21,-261.01C57.43,-230.39 79.55,-171.24 120,-139.5 126.57,-134.35 134.41,-130.58 142.46,-127.84"/>
<polygon fill="black" stroke="black" points="44.77,-260.32 45.39,-270.9 51.5,-262.24 44.77,-260.32"/>
</g>
<!-- Node1&#45;&gt;Node7 -->
<g id="edge6" class="edge">
<title>Node1&#45;&gt;Node7</title>
<path fill="none" stroke="black" d="M45.84,-260.67C52.17,-223.83 70.99,-144.72 120,-102.5 128.27,-95.37 138.93,-90.89 149.48,-88.07"/>
<polygon fill="black" stroke="black" points="42.36,-260.24 44.25,-270.66 49.27,-261.33 42.36,-260.24"/>
</g>
<!-- Node1&#45;&gt;Node14 -->
<g id="edge13" class="edge">
<title>Node1&#45;&gt;Node14</title>
<path fill="none" stroke="black" d="M44.17,-260.48C47.77,-218.05 62.24,-118.59 120,-65.5 130.5,-55.85 145.33,-51 158.77,-48.6"/>
<polygon fill="black" stroke="black" points="40.67,-260.41 43.43,-270.64 47.65,-260.92 40.67,-260.41"/>
</g>
<!-- Node2 -->
<g id="node16" class="node">
<title>Node2</title>
<g id="a_node16"><a xlink:href="group__mofem__mix__transport__elem.html" target="_top" xlink:title=" ">
<polygon fill="white" stroke="black" points="255,-19 130,-19 130,0 255,0 255,-19"/>
<text text-anchor="middle" x="192.5" y="-7" font-family="Helvetica,sans-Serif" font-size="10.00">Mix transport element</text>
</a>
</g>
</g>
<!-- Node1&#45;&gt;Node2 -->
<g id="edge1" class="edge">
<title>Node1&#45;&gt;Node2</title>
<path fill="none" stroke="black" d="M42.94,-260.7C43.92,-213.38 53.21,-92.88 120,-28.5 123.98,-24.67 128.63,-21.59 133.63,-19.11"/>
<polygon fill="black" stroke="black" points="39.44,-260.81 42.84,-270.84 46.44,-260.88 39.44,-260.81"/>
</g>
</g>
</svg>
        <g id="navigator" transform="translate(0 0)" fill="#404254">
                <rect fill="#f2f5e9" fill-opacity="0.5" stroke="#606060" stroke-width=".5" x="0" y="0" width="60" height="60"/>
                <use id="zoomplus" xlink:href="#zoomPlus" x="17" y="9" onmousedown="handleZoom(evt,'in')"/>
                <use id="zoomminus" xlink:href="#zoomMin" x="42" y="9" onmousedown="handleZoom(evt,'out')"/>
                <use id="reset" xlink:href="#resetDef" x="30" y="36" onmousedown="handleReset()"/>
                <g id="arrowUp" xlink:href="#dirArrow" transform="translate(30 24)" onmousedown="handlePan(0,-1)">
                  <use xlink:href="#rim" fill="#404040">
                        <set attributeName="fill" to="#808080" begin="arrowUp.mouseover" end="arrowUp.mouseout"/>
                  </use>
                  <path fill="none" stroke="white" stroke-width="1.5" d="M0,-3.0v7 M-2.5,-0.5L0,-3.0L2.5,-0.5"/>
                </g>
                <g id="arrowRight" xlink:href="#dirArrow" transform="rotate(90) translate(36 -43)" onmousedown="handlePan(1,0)">
                  <use xlink:href="#rim" fill="#404040">
                        <set attributeName="fill" to="#808080" begin="arrowRight.mouseover" end="arrowRight.mouseout"/>
                  </use>
                  <path fill="none" stroke="white" stroke-width="1.5" d="M0,-3.0v7 M-2.5,-0.5L0,-3.0L2.5,-0.5"/>
                </g>
                <g id="arrowDown" xlink:href="#dirArrow" transform="rotate(180) translate(-30 -48)" onmousedown="handlePan(0,1)">
                  <use xlink:href="#rim" fill="#404040">
                        <set attributeName="fill" to="#808080" begin="arrowDown.mouseover" end="arrowDown.mouseout"/>
                  </use>
                  <path fill="none" stroke="white" stroke-width="1.5" d="M0,-3.0v7 M-2.5,-0.5L0,-3.0L2.5,-0.5"/>
                </g>
                <g id="arrowLeft" xlink:href="#dirArrow" transform="rotate(270) translate(-36 17)" onmousedown="handlePan(-1,0)">
                  <use xlink:href="#rim" fill="#404040">
                        <set attributeName="fill" to="#808080" begin="arrowLeft.mouseover" end="arrowLeft.mouseout"/>
                  </use>
                  <path fill="none" stroke="white" stroke-width="1.5" d="M0,-3.0v7 M-2.5,-0.5L0,-3.0L2.5,-0.5"/>
                </g>
        </g>
        <svg viewBox="0 0 15 15" width="100%" height="30px" preserveAspectRatio="xMaxYMin meet">
         <g id="arrow_out" transform="scale(0.3 0.3)">
          <a xlink:href="group__user__modules_org.svg" target="_base">
           <rect id="button" ry="5" rx="5" y="6" x="6" height="38" width="38"
                fill="#f2f5e9" fill-opacity="0.5" stroke="#606060" stroke-width="1.0"/>
           <path id="arrow"
             d="M 11.500037,31.436501 C 11.940474,20.09759 22.043105,11.32322 32.158766,21.979434 L 37.068811,17.246167 C 37.068811,17.246167 37.088388,32 37.088388,32 L 22.160133,31.978069 C 22.160133,31.978069 26.997745,27.140456 26.997745,27.140456 C 18.528582,18.264221 13.291696,25.230495 11.500037,31.436501 z"
             style="fill:#404040;"/>
          </a>
         </g>
        </svg>
</svg>
