<?xml version="1.0" encoding="UTF-8" standalone="no"?>
<!DOCTYPE svg PUBLIC "-//W3C//DTD SVG 1.1//EN"
 "http://www.w3.org/Graphics/SVG/1.1/DTD/svg11.dtd">
<!-- Generated by graphviz version 2.43.0 (0)
 -->
<!-- Title: PipelineManager interface Pages: 1 -->
<svg width="242pt" height="27pt"
 viewBox="0.00 0.00 242.00 27.00" xmlns="http://www.w3.org/2000/svg" xmlns:xlink="http://www.w3.org/1999/xlink">
<g id="graph0" class="graph" transform="scale(1 1) rotate(0) translate(4 23)">
<title>PipelineManager interface</title>
<polygon fill="white" stroke="transparent" points="-4,4 -4,-23 238,-23 238,4 -4,4"/>
<!-- Node1 -->
<g id="node1" class="node">
<title>Node1</title>
<g id="a_node1"><a xlink:title="Implementation of basic interface for rapid problem implementation.">
<polygon fill="#bfbfbf" stroke="black" points="234,-19 89,-19 89,0 234,0 234,-19"/>
<text text-anchor="middle" x="161.5" y="-7" font-family="Helvetica,sans-Serif" font-size="10.00">PipelineManager interface</text>
</a>
</g>
</g>
<!-- Node2 -->
<g id="node2" class="node">
<title>Node2</title>
<g id="a_node2"><a xlink:href="group__mofem.html" target="_top" xlink:title=" ">
<polygon fill="white" stroke="black" points="53,-19 0,-19 0,0 53,0 53,-19"/>
<text text-anchor="middle" x="26.5" y="-7" font-family="Helvetica,sans-Serif" font-size="10.00">MoFEM</text>
</a>
</g>
</g>
<!-- Node2&#45;&gt;Node1 -->
<g id="edge1" class="edge">
<title>Node2&#45;&gt;Node1</title>
<path fill="none" stroke="black" d="M63.41,-9.5C71.32,-9.5 79.96,-9.5 88.73,-9.5"/>
<polygon fill="black" stroke="black" points="63.14,-6 53.14,-9.5 63.14,-13 63.14,-6"/>
</g>
</g>
</svg>
