<?xml version="1.0" encoding="UTF-8" standalone="no"?>
<!DOCTYPE svg PUBLIC "-//W3C//DTD SVG 1.1//EN"
 "http://www.w3.org/Graphics/SVG/1.1/DTD/svg11.dtd">
<!-- Generated by graphviz version 2.43.0 (0)
 -->
<!-- Title: TetGen interface Pages: 1 -->
<svg width="194pt" height="27pt"
 viewBox="0.00 0.00 194.00 27.00" xmlns="http://www.w3.org/2000/svg" xmlns:xlink="http://www.w3.org/1999/xlink">
<g id="graph0" class="graph" transform="scale(1 1) rotate(0) translate(4 23)">
<title>TetGen interface</title>
<polygon fill="white" stroke="transparent" points="-4,4 -4,-23 190,-23 190,4 -4,4"/>
<!-- Node1 -->
<g id="node1" class="node">
<title>Node1</title>
<g id="a_node1"><a xlink:title="Interface to run TetGen.">
<polygon fill="#bfbfbf" stroke="black" points="186,-19 89,-19 89,0 186,0 186,-19"/>
<text text-anchor="middle" x="137.5" y="-7" font-family="Helvetica,sans-Serif" font-size="10.00">TetGen interface</text>
</a>
</g>
</g>
<!-- Node2 -->
<g id="node2" class="node">
<title>Node2</title>
<g id="a_node2"><a xlink:href="group__mofem.html" target="_top" xlink:title=" ">
<polygon fill="white" stroke="black" points="53,-19 0,-19 0,0 53,0 53,-19"/>
<text text-anchor="middle" x="26.5" y="-7" font-family="Helvetica,sans-Serif" font-size="10.00">MoFEM</text>
</a>
</g>
</g>
<!-- Node2&#45;&gt;Node1 -->
<g id="edge1" class="edge">
<title>Node2&#45;&gt;Node1</title>
<path fill="none" stroke="black" d="M63.07,-9.5C71.31,-9.5 80.2,-9.5 88.86,-9.5"/>
<polygon fill="black" stroke="black" points="63.06,-6 53.06,-9.5 63.06,-13 63.06,-6"/>
</g>
</g>
</svg>
