<?xml version="1.0" encoding="UTF-8" standalone="no"?>
<!DOCTYPE svg PUBLIC "-//W3C//DTD SVG 1.1//EN"
 "http://www.w3.org/Graphics/SVG/1.1/DTD/svg11.dtd">
<!-- Generated by graphviz version 2.43.0 (0)
 -->
<!-- Title: Graphical Class Hierarchy Pages: 1 -->
<svg width="289pt" height="110pt"
 viewBox="0.00 0.00 289.00 110.00" xmlns="http://www.w3.org/2000/svg" xmlns:xlink="http://www.w3.org/1999/xlink">
<g id="graph0" class="graph" transform="scale(1 1) rotate(0) translate(4 106)">
<title>Graphical Class Hierarchy</title>
<polygon fill="white" stroke="transparent" points="-4,4 -4,-106 285,-106 285,4 -4,4"/>
<!-- Node128 -->
<g id="node1" class="node">
<title>Node128</title>
<g id="a_node1"><a xlink:title=" ">
<polygon fill="white" stroke="#bfbfbf" points="0,-41.5 0,-60.5 105,-60.5 105,-41.5 0,-41.5"/>
<text text-anchor="middle" x="52.5" y="-48.5" font-family="Helvetica,sans-Serif" font-size="10.00">UserDataOperator</text>
</a>
</g>
</g>
<!-- Node0 -->
<g id="node2" class="node">
<title>Node0</title>
<g id="a_node2"><a xlink:href="structMinimalSurfaceEquation_1_1MinimalSurfaceElement_1_1OpAssmebleBcLhs.html" target="_top" xlink:title="Integrate vector on lhs,.">
<polygon fill="white" stroke="black" points="141,-60.5 141,-101.5 281,-101.5 281,-60.5 141,-60.5"/>
<text text-anchor="start" x="149" y="-89.5" font-family="Helvetica,sans-Serif" font-size="10.00">MinimalSurfaceEquation</text>
<text text-anchor="start" x="149" y="-78.5" font-family="Helvetica,sans-Serif" font-size="10.00">::MinimalSurfaceElement</text>
<text text-anchor="middle" x="211" y="-67.5" font-family="Helvetica,sans-Serif" font-size="10.00">::OpAssmebleBcLhs</text>
</a>
</g>
</g>
<!-- Node128&#45;&gt;Node0 -->
<g id="edge1" class="edge">
<title>Node128&#45;&gt;Node0</title>
<path fill="none" stroke="midnightblue" d="M113.41,-62.48C122.38,-64.2 131.69,-65.99 140.84,-67.74"/>
<polygon fill="midnightblue" stroke="midnightblue" points="113.93,-59.02 103.45,-60.57 112.61,-65.89 113.93,-59.02"/>
</g>
<!-- Node130 -->
<g id="node3" class="node">
<title>Node130</title>
<g id="a_node3"><a xlink:href="structMinimalSurfaceEquation_1_1MinimalSurfaceElement_1_1OpAssmebleBcRhs.html" target="_top" xlink:title="Integrate vector on rhs,.">
<polygon fill="white" stroke="black" points="141,-0.5 141,-41.5 281,-41.5 281,-0.5 141,-0.5"/>
<text text-anchor="start" x="149" y="-29.5" font-family="Helvetica,sans-Serif" font-size="10.00">MinimalSurfaceEquation</text>
<text text-anchor="start" x="149" y="-18.5" font-family="Helvetica,sans-Serif" font-size="10.00">::MinimalSurfaceElement</text>
<text text-anchor="middle" x="211" y="-7.5" font-family="Helvetica,sans-Serif" font-size="10.00">::OpAssmebleBcRhs</text>
</a>
</g>
</g>
<!-- Node128&#45;&gt;Node130 -->
<g id="edge2" class="edge">
<title>Node128&#45;&gt;Node130</title>
<path fill="none" stroke="midnightblue" d="M113.41,-39.52C122.38,-37.8 131.69,-36.01 140.84,-34.26"/>
<polygon fill="midnightblue" stroke="midnightblue" points="112.61,-36.11 103.45,-41.43 113.93,-42.98 112.61,-36.11"/>
</g>
</g>
</svg>
