<?xml version="1.0" encoding="UTF-8" standalone="no"?>
<!DOCTYPE svg PUBLIC "-//W3C//DTD SVG 1.1//EN"
 "http://www.w3.org/Graphics/SVG/1.1/DTD/svg11.dtd">
<!-- Generated by graphviz version 2.43.0 (0)
 -->
<!-- Title: Graphical Class Hierarchy Pages: 1 -->
<svg width="446pt" height="50pt"
 viewBox="0.00 0.00 446.00 50.00" xmlns="http://www.w3.org/2000/svg" xmlns:xlink="http://www.w3.org/1999/xlink">
<g id="graph0" class="graph" transform="scale(1 1) rotate(0) translate(4 46)">
<title>Graphical Class Hierarchy</title>
<polygon fill="white" stroke="transparent" points="-4,4 -4,-46 442,-46 442,4 -4,4"/>
<!-- Node1175 -->
<g id="node1" class="node">
<title>Node1175</title>
<g id="a_node1"><a xlink:title=" ">
<polygon fill="white" stroke="#bfbfbf" points="0,-11.5 0,-30.5 54,-30.5 54,-11.5 0,-11.5"/>
<text text-anchor="middle" x="27" y="-18.5" font-family="Helvetica,sans-Serif" font-size="10.00">OpBase</text>
</a>
</g>
</g>
<!-- Node0 -->
<g id="node2" class="node">
<title>Node0</title>
<g id="a_node2"><a xlink:href="structMoFEM_1_1OpEssentialRhsImpl_3_01HeatFluxCubitBcData_00_013_00_013_00_01A_00_01GAUSS_00_01OpBase_01_4.html" target="_top" xlink:title=" ">
<polygon fill="white" stroke="black" points="90,-0.5 90,-41.5 246,-41.5 246,-0.5 90,-0.5"/>
<text text-anchor="start" x="98" y="-29.5" font-family="Helvetica,sans-Serif" font-size="10.00">MoFEM::OpEssentialRhsImpl</text>
<text text-anchor="start" x="98" y="-18.5" font-family="Helvetica,sans-Serif" font-size="10.00">&lt; HeatFluxCubitBcData,</text>
<text text-anchor="middle" x="168" y="-7.5" font-family="Helvetica,sans-Serif" font-size="10.00"> 3, 3, A, GAUSS, OpBase &gt;</text>
</a>
</g>
</g>
<!-- Node1175&#45;&gt;Node0 -->
<g id="edge1" class="edge">
<title>Node1175&#45;&gt;Node0</title>
<path fill="none" stroke="midnightblue" d="M64.18,-21C72.19,-21 80.98,-21 89.94,-21"/>
<polygon fill="midnightblue" stroke="midnightblue" points="64.14,-17.5 54.14,-21 64.14,-24.5 64.14,-17.5"/>
</g>
<!-- Node1 -->
<g id="node3" class="node">
<title>Node1</title>
<g id="a_node3"><a xlink:href="structMoFEM_1_1OpEssentialRhsImpl_3_01HeatFluxCubitBcData_00_013_00_012_00_01A_00_01GAUSS_00_01OpBase_01_4.html" target="_top" xlink:title=" ">
<polygon fill="white" stroke="black" points="282,-0.5 282,-41.5 438,-41.5 438,-0.5 282,-0.5"/>
<text text-anchor="start" x="290" y="-29.5" font-family="Helvetica,sans-Serif" font-size="10.00">MoFEM::OpEssentialRhsImpl</text>
<text text-anchor="start" x="290" y="-18.5" font-family="Helvetica,sans-Serif" font-size="10.00">&lt; HeatFluxCubitBcData,</text>
<text text-anchor="middle" x="360" y="-7.5" font-family="Helvetica,sans-Serif" font-size="10.00"> 3, 2, A, GAUSS, OpBase &gt;</text>
</a>
</g>
</g>
<!-- Node0&#45;&gt;Node1 -->
<g id="edge2" class="edge">
<title>Node0&#45;&gt;Node1</title>
<path fill="none" stroke="midnightblue" d="M256.06,-21C264.68,-21 273.38,-21 281.88,-21"/>
<polygon fill="midnightblue" stroke="midnightblue" points="256.01,-17.5 246.01,-21 256.01,-24.5 256.01,-17.5"/>
</g>
</g>
</svg>
