<?xml version="1.0" encoding="UTF-8" standalone="no"?>
<!DOCTYPE svg PUBLIC "-//W3C//DTD SVG 1.1//EN"
 "http://www.w3.org/Graphics/SVG/1.1/DTD/svg11.dtd">
<!-- Generated by graphviz version 2.43.0 (0)
 -->
<!-- Title: Graphical Class Hierarchy Pages: 1 -->
<svg width="603pt" height="50pt"
 viewBox="0.00 0.00 603.00 50.00" xmlns="http://www.w3.org/2000/svg" xmlns:xlink="http://www.w3.org/1999/xlink">
<g id="graph0" class="graph" transform="scale(1 1) rotate(0) translate(4 46)">
<title>Graphical Class Hierarchy</title>
<polygon fill="white" stroke="transparent" points="-4,4 -4,-46 599,-46 599,4 -4,4"/>
<!-- Node0 -->
<g id="node1" class="node">
<title>Node0</title>
<g id="a_node1"><a xlink:href="structNonlinearElasticElement_1_1FunctionsToCalculatePiolaKirchhoffI.html" target="_top" xlink:title=" ">
<polygon fill="white" stroke="black" points="0,-0.5 0,-41.5 193,-41.5 193,-0.5 0,-0.5"/>
<text text-anchor="start" x="8" y="-29.5" font-family="Helvetica,sans-Serif" font-size="10.00">NonlinearElasticElement</text>
<text text-anchor="start" x="8" y="-18.5" font-family="Helvetica,sans-Serif" font-size="10.00">::FunctionsToCalculatePiolaKirchhoff</text>
<text text-anchor="middle" x="96.5" y="-7.5" font-family="Helvetica,sans-Serif" font-size="10.00">I&lt; double &gt;</text>
</a>
</g>
</g>
<!-- Node1 -->
<g id="node2" class="node">
<title>Node1</title>
<g id="a_node2"><a xlink:href="structSmallStrainTranverslyIsotropic.html" target="_top" xlink:title=" ">
<polygon fill="white" stroke="black" points="229,-6 229,-36 394,-36 394,-6 229,-6"/>
<text text-anchor="start" x="237" y="-24" font-family="Helvetica,sans-Serif" font-size="10.00">SmallStrainTranverslyIsotropic</text>
<text text-anchor="middle" x="311.5" y="-13" font-family="Helvetica,sans-Serif" font-size="10.00">&lt; double &gt;</text>
</a>
</g>
</g>
<!-- Node0&#45;&gt;Node1 -->
<g id="edge1" class="edge">
<title>Node0&#45;&gt;Node1</title>
<path fill="none" stroke="midnightblue" d="M203.2,-21C211.83,-21 220.46,-21 228.87,-21"/>
<polygon fill="midnightblue" stroke="midnightblue" points="203.1,-17.5 193.1,-21 203.1,-24.5 203.1,-17.5"/>
</g>
<!-- Node2 -->
<g id="node3" class="node">
<title>Node2</title>
<g id="a_node3"><a xlink:href="structSmallStrainTranverslyIsotropicDouble.html" target="_top" xlink:title=" ">
<polygon fill="white" stroke="black" points="430,-6 430,-36 595,-36 595,-6 430,-6"/>
<text text-anchor="start" x="438" y="-24" font-family="Helvetica,sans-Serif" font-size="10.00">SmallStrainTranverslyIsotropic</text>
<text text-anchor="middle" x="512.5" y="-13" font-family="Helvetica,sans-Serif" font-size="10.00">Double</text>
</a>
</g>
</g>
<!-- Node1&#45;&gt;Node2 -->
<g id="edge2" class="edge">
<title>Node1&#45;&gt;Node2</title>
<path fill="none" stroke="midnightblue" d="M404.04,-21C412.63,-21 421.3,-21 429.79,-21"/>
<polygon fill="midnightblue" stroke="midnightblue" points="404.02,-17.5 394.02,-21 404.02,-24.5 404.02,-17.5"/>
</g>
</g>
</svg>
