<?xml version="1.0" encoding="UTF-8" standalone="no"?>
<!DOCTYPE svg PUBLIC "-//W3C//DTD SVG 1.1//EN"
 "http://www.w3.org/Graphics/SVG/1.1/DTD/svg11.dtd">
<!-- Generated by graphviz version 2.43.0 (0)
 -->
<!-- Title: Graphical Class Hierarchy Pages: 1 -->
<svg width="360pt" height="307pt"
 viewBox="0.00 0.00 360.00 307.00" xmlns="http://www.w3.org/2000/svg" xmlns:xlink="http://www.w3.org/1999/xlink">
<g id="graph0" class="graph" transform="scale(1 1) rotate(0) translate(4 303)">
<title>Graphical Class Hierarchy</title>
<polygon fill="white" stroke="transparent" points="-4,4 -4,-303 356,-303 356,4 -4,4"/>
<!-- Node135 -->
<g id="node1" class="node">
<title>Node135</title>
<g id="a_node1"><a xlink:title=" ">
<polygon fill="white" stroke="#bfbfbf" points="0,-139.5 0,-158.5 105,-158.5 105,-139.5 0,-139.5"/>
<text text-anchor="middle" x="52.5" y="-146.5" font-family="Helvetica,sans-Serif" font-size="10.00">UserDataOperator</text>
</a>
</g>
</g>
<!-- Node0 -->
<g id="node2" class="node">
<title>Node0</title>
<g id="a_node2"><a xlink:href="structCohesiveElement_1_1CohesiveInterfaceElement_1_1OpCalculateGapGlobal.html" target="_top" xlink:title="Operator calculate gap, normal vector and rotation matrix.">
<polygon fill="white" stroke="black" points="154,-257.5 154,-298.5 339,-298.5 339,-257.5 154,-257.5"/>
<text text-anchor="start" x="162" y="-286.5" font-family="Helvetica,sans-Serif" font-size="10.00">CohesiveElement::Cohesive</text>
<text text-anchor="start" x="162" y="-275.5" font-family="Helvetica,sans-Serif" font-size="10.00">InterfaceElement::OpCalculateGap</text>
<text text-anchor="middle" x="246.5" y="-264.5" font-family="Helvetica,sans-Serif" font-size="10.00">Global</text>
</a>
</g>
</g>
<!-- Node135&#45;&gt;Node0 -->
<g id="edge1" class="edge">
<title>Node135&#45;&gt;Node0</title>
<path fill="none" stroke="midnightblue" d="M64.71,-167.03C79.49,-189.32 107.57,-226.89 141,-248 146.59,-251.53 152.6,-254.65 158.81,-257.42"/>
<polygon fill="midnightblue" stroke="midnightblue" points="67.57,-165.01 59.21,-158.51 61.69,-168.81 67.57,-165.01"/>
</g>
<!-- Node137 -->
<g id="node3" class="node">
<title>Node137</title>
<g id="a_node3"><a xlink:href="structCohesiveElement_1_1CohesiveInterfaceElement_1_1OpCalculateGapLocal.html" target="_top" xlink:title="Operator calculate gap in local coordinate system.">
<polygon fill="white" stroke="black" points="141,-208 141,-238 352,-238 352,-208 141,-208"/>
<text text-anchor="start" x="149" y="-226" font-family="Helvetica,sans-Serif" font-size="10.00">CohesiveElement::Cohesive</text>
<text text-anchor="middle" x="246.5" y="-215" font-family="Helvetica,sans-Serif" font-size="10.00">InterfaceElement::OpCalculateGapLocal</text>
</a>
</g>
</g>
<!-- Node135&#45;&gt;Node137 -->
<g id="edge2" class="edge">
<title>Node135&#45;&gt;Node137</title>
<path fill="none" stroke="midnightblue" d="M76.12,-164.4C93.26,-175.44 117.76,-189.92 141,-199 149.67,-202.39 158.94,-205.37 168.24,-207.97"/>
<polygon fill="midnightblue" stroke="midnightblue" points="77.68,-161.24 67.41,-158.67 73.84,-167.09 77.68,-161.24"/>
</g>
<!-- Node138 -->
<g id="node4" class="node">
<title>Node138</title>
<g id="a_node4"><a xlink:href="structCohesiveElement_1_1CohesiveInterfaceElement_1_1OpHistory.html" target="_top" xlink:title="Operator update history variables.">
<polygon fill="white" stroke="black" points="169,-159 169,-189 324,-189 324,-159 169,-159"/>
<text text-anchor="start" x="177" y="-177" font-family="Helvetica,sans-Serif" font-size="10.00">CohesiveElement::Cohesive</text>
<text text-anchor="middle" x="246.5" y="-166" font-family="Helvetica,sans-Serif" font-size="10.00">InterfaceElement::OpHistory</text>
</a>
</g>
</g>
<!-- Node135&#45;&gt;Node138 -->
<g id="edge3" class="edge">
<title>Node135&#45;&gt;Node138</title>
<path fill="none" stroke="midnightblue" d="M115.54,-157.08C132.51,-159.29 151.11,-161.71 168.8,-164.01"/>
<polygon fill="midnightblue" stroke="midnightblue" points="115.57,-153.55 105.21,-155.73 114.67,-160.49 115.57,-153.55"/>
</g>
<!-- Node139 -->
<g id="node5" class="node">
<title>Node139</title>
<g id="a_node5"><a xlink:href="structCohesiveElement_1_1CohesiveInterfaceElement_1_1OpLhs.html" target="_top" xlink:title="Operator calculate element stiffens matrix.">
<polygon fill="white" stroke="black" points="170,-110 170,-140 323,-140 323,-110 170,-110"/>
<text text-anchor="start" x="178" y="-128" font-family="Helvetica,sans-Serif" font-size="10.00">CohesiveElement::Cohesive</text>
<text text-anchor="middle" x="246.5" y="-117" font-family="Helvetica,sans-Serif" font-size="10.00">InterfaceElement::OpLhs</text>
</a>
</g>
</g>
<!-- Node135&#45;&gt;Node139 -->
<g id="edge4" class="edge">
<title>Node135&#45;&gt;Node139</title>
<path fill="none" stroke="midnightblue" d="M115.23,-141.28C132.64,-139.11 151.77,-136.72 169.89,-134.45"/>
<polygon fill="midnightblue" stroke="midnightblue" points="114.69,-137.82 105.21,-142.54 115.56,-144.77 114.69,-137.82"/>
</g>
<!-- Node140 -->
<g id="node6" class="node">
<title>Node140</title>
<g id="a_node6"><a xlink:href="structCohesiveElement_1_1CohesiveInterfaceElement_1_1OpRhs.html" target="_top" xlink:title="Operator calculate right hand side vector.">
<polygon fill="white" stroke="black" points="170,-61 170,-91 323,-91 323,-61 170,-61"/>
<text text-anchor="start" x="178" y="-79" font-family="Helvetica,sans-Serif" font-size="10.00">CohesiveElement::Cohesive</text>
<text text-anchor="middle" x="246.5" y="-68" font-family="Helvetica,sans-Serif" font-size="10.00">InterfaceElement::OpRhs</text>
</a>
</g>
</g>
<!-- Node135&#45;&gt;Node140 -->
<g id="edge5" class="edge">
<title>Node135&#45;&gt;Node140</title>
<path fill="none" stroke="midnightblue" d="M76.84,-133.95C94.01,-123.45 118.22,-109.79 141,-101 150.75,-97.24 161.23,-93.93 171.66,-91.05"/>
<polygon fill="midnightblue" stroke="midnightblue" points="74.72,-131.15 68.09,-139.41 78.42,-137.09 74.72,-131.15"/>
</g>
<!-- Node141 -->
<g id="node7" class="node">
<title>Node141</title>
<g id="a_node7"><a xlink:href="structCohesiveElement_1_1CohesiveInterfaceElement_1_1OpSetSignToShapeFunctions.html" target="_top" xlink:title="Set negative sign to shape functions on face 4.">
<polygon fill="white" stroke="black" points="148,-0.5 148,-41.5 345,-41.5 345,-0.5 148,-0.5"/>
<text text-anchor="start" x="156" y="-29.5" font-family="Helvetica,sans-Serif" font-size="10.00">CohesiveElement::Cohesive</text>
<text text-anchor="start" x="156" y="-18.5" font-family="Helvetica,sans-Serif" font-size="10.00">InterfaceElement::OpSetSignToShape</text>
<text text-anchor="middle" x="246.5" y="-7.5" font-family="Helvetica,sans-Serif" font-size="10.00">Functions</text>
</a>
</g>
</g>
<!-- Node135&#45;&gt;Node141 -->
<g id="edge6" class="edge">
<title>Node135&#45;&gt;Node141</title>
<path fill="none" stroke="midnightblue" d="M65.05,-131.05C80.01,-109.23 108.1,-72.75 141,-52 147.24,-48.06 154.01,-44.61 160.99,-41.58"/>
<polygon fill="midnightblue" stroke="midnightblue" points="62.11,-129.16 59.47,-139.42 67.93,-133.04 62.11,-129.16"/>
</g>
</g>
</svg>
