<?xml version="1.0" encoding="UTF-8" standalone="no"?>
<!DOCTYPE svg PUBLIC "-//W3C//DTD SVG 1.1//EN"
 "http://www.w3.org/Graphics/SVG/1.1/DTD/svg11.dtd">
<!-- Generated by graphviz version 2.43.0 (0)
 -->
<!-- Title: Graphical Class Hierarchy Pages: 1 -->
<svg width="916pt" height="827pt"
 viewBox="0.00 0.00 916.00 826.50" xmlns="http://www.w3.org/2000/svg" xmlns:xlink="http://www.w3.org/1999/xlink">
<g id="graph0" class="graph" transform="scale(1 1) rotate(0) translate(4 822.5)">
<title>Graphical Class Hierarchy</title>
<polygon fill="white" stroke="transparent" points="-4,4 -4,-822.5 912,-822.5 912,4 -4,4"/>
<!-- Node2511 -->
<g id="node1" class="node">
<title>Node2511</title>
<g id="a_node1"><a xlink:href="structConvectiveMassElement_1_1CommonFunctions.html" target="_top" xlink:title=" ">
<polygon fill="white" stroke="black" points="0,-604 0,-634 137,-634 137,-604 0,-604"/>
<text text-anchor="start" x="8" y="-622" font-family="Helvetica,sans-Serif" font-size="10.00">ConvectiveMassElement</text>
<text text-anchor="middle" x="68.5" y="-611" font-family="Helvetica,sans-Serif" font-size="10.00">::CommonFunctions</text>
</a>
</g>
</g>
<!-- Node97 -->
<g id="node2" class="node">
<title>Node97</title>
<g id="a_node2"><a xlink:href="structConvectiveMassElement_1_1OpEnergy.html" target="_top" xlink:title=" ">
<polygon fill="white" stroke="black" points="221,-739 221,-769 358,-769 358,-739 221,-739"/>
<text text-anchor="start" x="229" y="-757" font-family="Helvetica,sans-Serif" font-size="10.00">ConvectiveMassElement</text>
<text text-anchor="middle" x="289.5" y="-746" font-family="Helvetica,sans-Serif" font-size="10.00">::OpEnergy</text>
</a>
</g>
</g>
<!-- Node2511&#45;&gt;Node97 -->
<g id="edge1" class="edge">
<title>Node2511&#45;&gt;Node97</title>
<path fill="none" stroke="midnightblue" d="M85,-642.52C103.04,-667.93 135.22,-707.65 173,-729 187.56,-737.23 204.55,-742.75 220.96,-746.46"/>
<polygon fill="midnightblue" stroke="midnightblue" points="87.79,-640.41 79.22,-634.18 82.04,-644.4 87.79,-640.41"/>
</g>
<!-- Node98 -->
<g id="node3" class="node">
<title>Node98</title>
<g id="a_node3"><a xlink:href="structConvectiveMassElement_1_1OpEshelbyDynamicMaterialMomentumJacobian.html" target="_top" xlink:title=" ">
<polygon fill="white" stroke="black" points="182,-678.5 182,-719.5 397,-719.5 397,-678.5 182,-678.5"/>
<text text-anchor="start" x="190" y="-707.5" font-family="Helvetica,sans-Serif" font-size="10.00">ConvectiveMassElement</text>
<text text-anchor="start" x="190" y="-696.5" font-family="Helvetica,sans-Serif" font-size="10.00">::OpEshelbyDynamicMaterialMomentum</text>
<text text-anchor="middle" x="289.5" y="-685.5" font-family="Helvetica,sans-Serif" font-size="10.00">Jacobian</text>
</a>
</g>
</g>
<!-- Node2511&#45;&gt;Node98 -->
<g id="edge2" class="edge">
<title>Node2511&#45;&gt;Node98</title>
<path fill="none" stroke="midnightblue" d="M106.09,-638.85C125.56,-648.85 150.14,-660.6 173,-669 182.24,-672.39 192.02,-675.56 201.84,-678.47"/>
<polygon fill="midnightblue" stroke="midnightblue" points="107.46,-635.61 96.97,-634.1 104.22,-641.82 107.46,-635.61"/>
</g>
<!-- Node99 -->
<g id="node4" class="node">
<title>Node99</title>
<g id="a_node4"><a xlink:href="structConvectiveMassElement_1_1OpEshelbyDynamicMaterialMomentumRhs.html" target="_top" xlink:title=" ">
<polygon fill="white" stroke="black" points="173,-629 173,-659 406,-659 406,-629 173,-629"/>
<text text-anchor="start" x="181" y="-647" font-family="Helvetica,sans-Serif" font-size="10.00">ConvectiveMassElement</text>
<text text-anchor="middle" x="289.5" y="-636" font-family="Helvetica,sans-Serif" font-size="10.00">::OpEshelbyDynamicMaterialMomentumRhs</text>
</a>
</g>
</g>
<!-- Node2511&#45;&gt;Node99 -->
<g id="edge3" class="edge">
<title>Node2511&#45;&gt;Node99</title>
<path fill="none" stroke="midnightblue" d="M147.26,-627.88C155.55,-628.82 164.1,-629.8 172.71,-630.78"/>
<polygon fill="midnightblue" stroke="midnightblue" points="147.63,-624.4 137.29,-626.74 146.83,-631.35 147.63,-624.4"/>
</g>
<!-- Node102 -->
<g id="node5" class="node">
<title>Node102</title>
<g id="a_node5"><a xlink:href="structConvectiveMassElement_1_1OpMassJacobian.html" target="_top" xlink:title=" ">
<polygon fill="white" stroke="black" points="221,-580 221,-610 358,-610 358,-580 221,-580"/>
<text text-anchor="start" x="229" y="-598" font-family="Helvetica,sans-Serif" font-size="10.00">ConvectiveMassElement</text>
<text text-anchor="middle" x="289.5" y="-587" font-family="Helvetica,sans-Serif" font-size="10.00">::OpMassJacobian</text>
</a>
</g>
</g>
<!-- Node2511&#45;&gt;Node102 -->
<g id="edge4" class="edge">
<title>Node2511&#45;&gt;Node102</title>
<path fill="none" stroke="midnightblue" d="M147.4,-610.46C171.32,-607.84 197.45,-604.98 220.65,-602.44"/>
<polygon fill="midnightblue" stroke="midnightblue" points="146.85,-607 137.29,-611.57 147.61,-613.96 146.85,-607"/>
</g>
<!-- Node103 -->
<g id="node6" class="node">
<title>Node103</title>
<g id="a_node6"><a xlink:href="structConvectiveMassElement_1_1OpMassLhs__dM__dv.html" target="_top" xlink:title=" ">
<polygon fill="white" stroke="black" points="221,-531 221,-561 358,-561 358,-531 221,-531"/>
<text text-anchor="start" x="229" y="-549" font-family="Helvetica,sans-Serif" font-size="10.00">ConvectiveMassElement</text>
<text text-anchor="middle" x="289.5" y="-538" font-family="Helvetica,sans-Serif" font-size="10.00">::OpMassLhs_dM_dv</text>
</a>
</g>
</g>
<!-- Node2511&#45;&gt;Node103 -->
<g id="edge5" class="edge">
<title>Node2511&#45;&gt;Node103</title>
<path fill="none" stroke="midnightblue" d="M106.87,-599.23C126.19,-589.64 150.41,-578.58 173,-571 188.27,-565.88 205.03,-561.55 220.94,-558"/>
<polygon fill="midnightblue" stroke="midnightblue" points="105.15,-596.17 97.8,-603.8 108.31,-602.42 105.15,-596.17"/>
</g>
<!-- Node112 -->
<g id="node15" class="node">
<title>Node112</title>
<g id="a_node15"><a xlink:href="structConvectiveMassElement_1_1OpMassRhs.html" target="_top" xlink:title=" ">
<polygon fill="white" stroke="black" points="221,-482 221,-512 358,-512 358,-482 221,-482"/>
<text text-anchor="start" x="229" y="-500" font-family="Helvetica,sans-Serif" font-size="10.00">ConvectiveMassElement</text>
<text text-anchor="middle" x="289.5" y="-489" font-family="Helvetica,sans-Serif" font-size="10.00">::OpMassRhs</text>
</a>
</g>
</g>
<!-- Node2511&#45;&gt;Node112 -->
<g id="edge14" class="edge">
<title>Node2511&#45;&gt;Node112</title>
<path fill="none" stroke="midnightblue" d="M87.67,-595.87C106.55,-573.46 138.19,-540.26 173,-522 187.63,-514.33 204.47,-509.01 220.7,-505.32"/>
<polygon fill="midnightblue" stroke="midnightblue" points="84.73,-593.93 81.07,-603.87 90.13,-598.38 84.73,-593.93"/>
</g>
<!-- Node113 -->
<g id="node16" class="node">
<title>Node113</title>
<g id="a_node16"><a xlink:href="structConvectiveMassElement_1_1OpVelocityJacobian.html" target="_top" xlink:title=" ">
<polygon fill="white" stroke="black" points="221,-433 221,-463 358,-463 358,-433 221,-433"/>
<text text-anchor="start" x="229" y="-451" font-family="Helvetica,sans-Serif" font-size="10.00">ConvectiveMassElement</text>
<text text-anchor="middle" x="289.5" y="-440" font-family="Helvetica,sans-Serif" font-size="10.00">::OpVelocityJacobian</text>
</a>
</g>
</g>
<!-- Node2511&#45;&gt;Node113 -->
<g id="edge15" class="edge">
<title>Node2511&#45;&gt;Node113</title>
<path fill="none" stroke="midnightblue" d="M79.95,-594.37C95.3,-561.31 127.18,-503.26 173,-473 187.12,-463.67 204.14,-457.76 220.72,-454.03"/>
<polygon fill="midnightblue" stroke="midnightblue" points="76.63,-593.21 75.72,-603.77 83.01,-596.09 76.63,-593.21"/>
</g>
<!-- Node114 -->
<g id="node17" class="node">
<title>Node114</title>
<g id="a_node17"><a xlink:href="structConvectiveMassElement_1_1OpVelocityRhs.html" target="_top" xlink:title=" ">
<polygon fill="white" stroke="black" points="221,-788 221,-818 358,-818 358,-788 221,-788"/>
<text text-anchor="start" x="229" y="-806" font-family="Helvetica,sans-Serif" font-size="10.00">ConvectiveMassElement</text>
<text text-anchor="middle" x="289.5" y="-795" font-family="Helvetica,sans-Serif" font-size="10.00">::OpVelocityRhs</text>
</a>
</g>
</g>
<!-- Node2511&#45;&gt;Node114 -->
<g id="edge16" class="edge">
<title>Node2511&#45;&gt;Node114</title>
<path fill="none" stroke="midnightblue" d="M78.41,-643.91C92.59,-679.76 123.82,-745.3 173,-779 187.02,-788.61 204.09,-794.51 220.76,-798.1"/>
<polygon fill="midnightblue" stroke="midnightblue" points="81.55,-642.31 74.71,-634.22 75.01,-644.81 81.55,-642.31"/>
</g>
<!-- Node104 -->
<g id="node7" class="node">
<title>Node104</title>
<g id="a_node7"><a xlink:href="structConvectiveMassElement_1_1OpEshelbyDynamicMaterialMomentumLhs__dv.html" target="_top" xlink:title=" ">
<polygon fill="white" stroke="black" points="442,-552.5 442,-593.5 657,-593.5 657,-552.5 442,-552.5"/>
<text text-anchor="start" x="450" y="-581.5" font-family="Helvetica,sans-Serif" font-size="10.00">ConvectiveMassElement</text>
<text text-anchor="start" x="450" y="-570.5" font-family="Helvetica,sans-Serif" font-size="10.00">::OpEshelbyDynamicMaterialMomentum</text>
<text text-anchor="middle" x="549.5" y="-559.5" font-family="Helvetica,sans-Serif" font-size="10.00">Lhs_dv</text>
</a>
</g>
</g>
<!-- Node103&#45;&gt;Node104 -->
<g id="edge6" class="edge">
<title>Node103&#45;&gt;Node104</title>
<path fill="none" stroke="midnightblue" d="M368.35,-554.15C391.45,-556.56 417.15,-559.25 441.74,-561.83"/>
<polygon fill="midnightblue" stroke="midnightblue" points="368.6,-550.65 358.29,-553.09 367.87,-557.62 368.6,-550.65"/>
</g>
<!-- Node107 -->
<g id="node10" class="node">
<title>Node107</title>
<g id="a_node10"><a xlink:href="structConvectiveMassElement_1_1OpMassLhs__dM__dx.html" target="_top" xlink:title=" ">
<polygon fill="white" stroke="black" points="481,-503 481,-533 618,-533 618,-503 481,-503"/>
<text text-anchor="start" x="489" y="-521" font-family="Helvetica,sans-Serif" font-size="10.00">ConvectiveMassElement</text>
<text text-anchor="middle" x="549.5" y="-510" font-family="Helvetica,sans-Serif" font-size="10.00">::OpMassLhs_dM_dx</text>
</a>
</g>
</g>
<!-- Node103&#45;&gt;Node107 -->
<g id="edge9" class="edge">
<title>Node103&#45;&gt;Node107</title>
<path fill="none" stroke="midnightblue" d="M368.67,-537.52C404.41,-533.64 446.34,-529.09 480.72,-525.36"/>
<polygon fill="midnightblue" stroke="midnightblue" points="367.85,-534.08 358.29,-538.64 368.61,-541.04 367.85,-534.08"/>
</g>
<!-- Node108 -->
<g id="node11" class="node">
<title>Node108</title>
<g id="a_node11"><a xlink:href="structConvectiveMassElement_1_1OpMassLhs__dM__dX.html" target="_top" xlink:title=" ">
<polygon fill="white" stroke="black" points="481,-454 481,-484 618,-484 618,-454 481,-454"/>
<text text-anchor="start" x="489" y="-472" font-family="Helvetica,sans-Serif" font-size="10.00">ConvectiveMassElement</text>
<text text-anchor="middle" x="549.5" y="-461" font-family="Helvetica,sans-Serif" font-size="10.00">::OpMassLhs_dM_dX</text>
</a>
</g>
</g>
<!-- Node103&#45;&gt;Node108 -->
<g id="edge10" class="edge">
<title>Node103&#45;&gt;Node108</title>
<path fill="none" stroke="midnightblue" d="M368.03,-534.99C381.04,-531.72 394.15,-527.48 406,-522 424.4,-513.5 423.71,-502.74 442,-494 454.08,-488.23 467.58,-483.74 480.81,-480.26"/>
<polygon fill="midnightblue" stroke="midnightblue" points="367.06,-531.62 358.12,-537.31 368.66,-538.44 367.06,-531.62"/>
</g>
<!-- Node109 -->
<g id="node12" class="node">
<title>Node109</title>
<g id="a_node12"><a xlink:href="structConvectiveMassElement_1_1OpVelocityLhs__dV__dv.html" target="_top" xlink:title=" ">
<polygon fill="white" stroke="black" points="481,-613 481,-643 618,-643 618,-613 481,-613"/>
<text text-anchor="start" x="489" y="-631" font-family="Helvetica,sans-Serif" font-size="10.00">ConvectiveMassElement</text>
<text text-anchor="middle" x="549.5" y="-620" font-family="Helvetica,sans-Serif" font-size="10.00">::OpVelocityLhs_dV_dv</text>
</a>
</g>
</g>
<!-- Node103&#45;&gt;Node109 -->
<g id="edge11" class="edge">
<title>Node103&#45;&gt;Node109</title>
<path fill="none" stroke="midnightblue" d="M368.11,-557.04C381.16,-560.5 394.27,-565.04 406,-571 425.09,-580.69 423,-593.14 442,-603 453.97,-609.21 467.49,-613.9 480.78,-617.43"/>
<polygon fill="midnightblue" stroke="midnightblue" points="368.7,-553.58 358.16,-554.59 367.04,-560.38 368.7,-553.58"/>
</g>
<!-- Node105 -->
<g id="node8" class="node">
<title>Node105</title>
<g id="a_node8"><a xlink:href="structConvectiveMassElement_1_1OpEshelbyDynamicMaterialMomentumLhs__dX.html" target="_top" xlink:title=" ">
<polygon fill="white" stroke="black" points="693,-492.5 693,-533.5 908,-533.5 908,-492.5 693,-492.5"/>
<text text-anchor="start" x="701" y="-521.5" font-family="Helvetica,sans-Serif" font-size="10.00">ConvectiveMassElement</text>
<text text-anchor="start" x="701" y="-510.5" font-family="Helvetica,sans-Serif" font-size="10.00">::OpEshelbyDynamicMaterialMomentum</text>
<text text-anchor="middle" x="800.5" y="-499.5" font-family="Helvetica,sans-Serif" font-size="10.00">Lhs_dX</text>
</a>
</g>
</g>
<!-- Node104&#45;&gt;Node105 -->
<g id="edge7" class="edge">
<title>Node104&#45;&gt;Node105</title>
<path fill="none" stroke="midnightblue" d="M645.75,-550.05C668.3,-544.61 692.2,-538.86 714.27,-533.54"/>
<polygon fill="midnightblue" stroke="midnightblue" points="644.75,-546.69 635.84,-552.44 646.38,-553.5 644.75,-546.69"/>
</g>
<!-- Node106 -->
<g id="node9" class="node">
<title>Node106</title>
<g id="a_node9"><a xlink:href="structConvectiveMassElement_1_1OpEshelbyDynamicMaterialMomentumLhs__dx.html" target="_top" xlink:title=" ">
<polygon fill="white" stroke="black" points="693,-552.5 693,-593.5 908,-593.5 908,-552.5 693,-552.5"/>
<text text-anchor="start" x="701" y="-581.5" font-family="Helvetica,sans-Serif" font-size="10.00">ConvectiveMassElement</text>
<text text-anchor="start" x="701" y="-570.5" font-family="Helvetica,sans-Serif" font-size="10.00">::OpEshelbyDynamicMaterialMomentum</text>
<text text-anchor="middle" x="800.5" y="-559.5" font-family="Helvetica,sans-Serif" font-size="10.00">Lhs_dx</text>
</a>
</g>
</g>
<!-- Node104&#45;&gt;Node106 -->
<g id="edge8" class="edge">
<title>Node104&#45;&gt;Node106</title>
<path fill="none" stroke="midnightblue" d="M667.41,-573C675.83,-573 684.29,-573 692.64,-573"/>
<polygon fill="midnightblue" stroke="midnightblue" points="667.18,-569.5 657.18,-573 667.18,-576.5 667.18,-569.5"/>
</g>
<!-- Node110 -->
<g id="node13" class="node">
<title>Node110</title>
<g id="a_node13"><a xlink:href="structConvectiveMassElement_1_1OpVelocityLhs__dV__dX.html" target="_top" xlink:title=" ">
<polygon fill="white" stroke="black" points="732,-613 732,-643 869,-643 869,-613 732,-613"/>
<text text-anchor="start" x="740" y="-631" font-family="Helvetica,sans-Serif" font-size="10.00">ConvectiveMassElement</text>
<text text-anchor="middle" x="800.5" y="-620" font-family="Helvetica,sans-Serif" font-size="10.00">::OpVelocityLhs_dV_dX</text>
</a>
</g>
</g>
<!-- Node109&#45;&gt;Node110 -->
<g id="edge12" class="edge">
<title>Node109&#45;&gt;Node110</title>
<path fill="none" stroke="midnightblue" d="M628.33,-628C661.49,-628 699.83,-628 731.8,-628"/>
<polygon fill="midnightblue" stroke="midnightblue" points="628.21,-624.5 618.21,-628 628.21,-631.5 628.21,-624.5"/>
</g>
<!-- Node111 -->
<g id="node14" class="node">
<title>Node111</title>
<g id="a_node14"><a xlink:href="structConvectiveMassElement_1_1OpVelocityLhs__dV__dx.html" target="_top" xlink:title=" ">
<polygon fill="white" stroke="black" points="732,-662 732,-692 869,-692 869,-662 732,-662"/>
<text text-anchor="start" x="740" y="-680" font-family="Helvetica,sans-Serif" font-size="10.00">ConvectiveMassElement</text>
<text text-anchor="middle" x="800.5" y="-669" font-family="Helvetica,sans-Serif" font-size="10.00">::OpVelocityLhs_dV_dx</text>
</a>
</g>
</g>
<!-- Node109&#45;&gt;Node111 -->
<g id="edge13" class="edge">
<title>Node109&#45;&gt;Node111</title>
<path fill="none" stroke="midnightblue" d="M628.33,-643.32C661.49,-649.84 699.83,-657.39 731.8,-663.68"/>
<polygon fill="midnightblue" stroke="midnightblue" points="628.7,-639.82 618.21,-641.32 627.35,-646.69 628.7,-639.82"/>
</g>
<!-- Node95 -->
<g id="node18" class="node">
<title>Node95</title>
<g id="a_node18"><a xlink:title=" ">
<polygon fill="white" stroke="#bfbfbf" points="16,-383.5 16,-402.5 121,-402.5 121,-383.5 16,-383.5"/>
<text text-anchor="middle" x="68.5" y="-390.5" font-family="Helvetica,sans-Serif" font-size="10.00">UserDataOperator</text>
</a>
</g>
</g>
<!-- Node95&#45;&gt;Node97 -->
<g id="edge18" class="edge">
<title>Node95&#45;&gt;Node97</title>
<path fill="none" stroke="midnightblue" d="M76.36,-412.25C89.02,-448.03 116.61,-527.3 137,-595 154.78,-654.05 128.33,-686.48 173,-729 185.93,-741.31 203.41,-748.14 220.85,-751.79"/>
<polygon fill="midnightblue" stroke="midnightblue" points="79.58,-410.86 72.94,-402.61 72.99,-413.2 79.58,-410.86"/>
</g>
<!-- Node95&#45;&gt;Node98 -->
<g id="edge19" class="edge">
<title>Node95&#45;&gt;Node98</title>
<path fill="none" stroke="midnightblue" d="M75.63,-412.41C94.68,-472.21 152.77,-650.79 173,-669 176.93,-672.54 181.22,-675.66 185.76,-678.43"/>
<polygon fill="midnightblue" stroke="midnightblue" points="78.91,-411.16 72.55,-402.69 72.23,-413.28 78.91,-411.16"/>
</g>
<!-- Node95&#45;&gt;Node99 -->
<g id="edge20" class="edge">
<title>Node95&#45;&gt;Node99</title>
<path fill="none" stroke="midnightblue" d="M72.41,-412.71C80.08,-457.21 105.13,-565.79 173,-620 177.24,-623.39 181.84,-626.33 186.68,-628.88"/>
<polygon fill="midnightblue" stroke="midnightblue" points="75.83,-411.94 70.79,-402.63 68.92,-413.05 75.83,-411.94"/>
</g>
<!-- Node95&#45;&gt;Node102 -->
<g id="edge23" class="edge">
<title>Node95&#45;&gt;Node102</title>
<path fill="none" stroke="midnightblue" d="M74.9,-412.21C86.35,-449.25 116.78,-530.48 173,-571 186.87,-581 203.98,-587.03 220.75,-590.61"/>
<polygon fill="midnightblue" stroke="midnightblue" points="78.25,-411.2 72.05,-402.61 71.54,-413.19 78.25,-411.2"/>
</g>
<!-- Node95&#45;&gt;Node103 -->
<g id="edge24" class="edge">
<title>Node95&#45;&gt;Node103</title>
<path fill="none" stroke="midnightblue" d="M78.92,-411.61C94.42,-440.2 128.1,-494.49 173,-522 187.32,-530.77 204.32,-536.39 220.8,-539.97"/>
<polygon fill="midnightblue" stroke="midnightblue" points="81.97,-409.88 74.21,-402.66 75.77,-413.14 81.97,-409.88"/>
</g>
<!-- Node95&#45;&gt;Node112 -->
<g id="edge25" class="edge">
<title>Node95&#45;&gt;Node112</title>
<path fill="none" stroke="midnightblue" d="M86.1,-409.78C105.3,-428.19 138.7,-457.21 173,-473 187.88,-479.85 204.74,-484.76 220.89,-488.28"/>
<polygon fill="midnightblue" stroke="midnightblue" points="88.37,-407.11 78.78,-402.61 83.47,-412.11 88.37,-407.11"/>
</g>
<!-- Node95&#45;&gt;Node113 -->
<g id="edge26" class="edge">
<title>Node95&#45;&gt;Node113</title>
<path fill="none" stroke="midnightblue" d="M110.41,-405.56C129.36,-411.2 152.24,-417.75 173,-423 188.42,-426.9 205.08,-430.73 220.83,-434.17"/>
<polygon fill="midnightblue" stroke="midnightblue" points="111.18,-402.14 100.6,-402.62 109.17,-408.85 111.18,-402.14"/>
</g>
<!-- Node95&#45;&gt;Node114 -->
<g id="edge27" class="edge">
<title>Node95&#45;&gt;Node114</title>
<path fill="none" stroke="midnightblue" d="M76.82,-412.13C90.21,-447.7 118.97,-526.63 137,-595 158.25,-675.57 114.42,-719.74 173,-779 185.67,-791.82 203.28,-798.66 220.93,-802.12"/>
<polygon fill="midnightblue" stroke="midnightblue" points="80,-410.65 73.18,-402.54 73.45,-413.13 80,-410.65"/>
</g>
<!-- Node0 -->
<g id="node19" class="node">
<title>Node0</title>
<g id="a_node19"><a xlink:href="structBCs__RVEVolume_1_1OpVolumeCal.html" target="_top" xlink:title=" ">
<polygon fill="white" stroke="black" points="205,-110.5 205,-129.5 374,-129.5 374,-110.5 205,-110.5"/>
<text text-anchor="middle" x="289.5" y="-117.5" font-family="Helvetica,sans-Serif" font-size="10.00">BCs_RVEVolume::OpVolumeCal</text>
</a>
</g>
</g>
<!-- Node95&#45;&gt;Node0 -->
<g id="edge17" class="edge">
<title>Node95&#45;&gt;Node0</title>
<path fill="none" stroke="midnightblue" d="M71.17,-373.41C76.4,-325.07 97.02,-199.62 173,-139 182.29,-131.59 193.37,-126.57 204.93,-123.24"/>
<polygon fill="midnightblue" stroke="midnightblue" points="67.67,-373.19 70.18,-383.48 74.64,-373.87 67.67,-373.19"/>
</g>
<!-- Node100 -->
<g id="node20" class="node">
<title>Node100</title>
<g id="a_node20"><a xlink:href="structConvectiveMassElement_1_1OpGetDataAtGaussPts.html" target="_top" xlink:title=" ">
<polygon fill="white" stroke="black" points="221,-61 221,-91 358,-91 358,-61 221,-61"/>
<text text-anchor="start" x="229" y="-79" font-family="Helvetica,sans-Serif" font-size="10.00">ConvectiveMassElement</text>
<text text-anchor="middle" x="289.5" y="-68" font-family="Helvetica,sans-Serif" font-size="10.00">::OpGetDataAtGaussPts</text>
</a>
</g>
</g>
<!-- Node95&#45;&gt;Node100 -->
<g id="edge21" class="edge">
<title>Node95&#45;&gt;Node100</title>
<path fill="none" stroke="midnightblue" d="M70.22,-373.31C73.29,-320.48 89.3,-174.65 173,-101 186.25,-89.34 203.63,-82.7 220.87,-79.01"/>
<polygon fill="midnightblue" stroke="midnightblue" points="66.73,-373.21 69.74,-383.37 73.72,-373.55 66.73,-373.21"/>
</g>
<!-- Node115 -->
<g id="node22" class="node">
<title>Node115</title>
<g id="a_node22"><a xlink:href="structFractureMechanics_1_1OpAleLhsWithDensitySingularElement__dx__dX.html" target="_top" xlink:title=" ">
<polygon fill="white" stroke="black" points="208.5,-0.5 208.5,-41.5 370.5,-41.5 370.5,-0.5 208.5,-0.5"/>
<text text-anchor="start" x="216.5" y="-29.5" font-family="Helvetica,sans-Serif" font-size="10.00">FractureMechanics::</text>
<text text-anchor="start" x="216.5" y="-18.5" font-family="Helvetica,sans-Serif" font-size="10.00">OpAleLhsWithDensitySingular</text>
<text text-anchor="middle" x="289.5" y="-7.5" font-family="Helvetica,sans-Serif" font-size="10.00">Element_dx_dX</text>
</a>
</g>
</g>
<!-- Node95&#45;&gt;Node115 -->
<g id="edge28" class="edge">
<title>Node95&#45;&gt;Node115</title>
<path fill="none" stroke="midnightblue" d="M69.22,-373.37C69.52,-315.12 78.65,-141.67 173,-51 182.86,-41.53 195.31,-34.94 208.36,-30.39"/>
<polygon fill="midnightblue" stroke="midnightblue" points="65.72,-373.44 69.26,-383.42 72.72,-373.41 65.72,-373.44"/>
</g>
<!-- Node116 -->
<g id="node23" class="node">
<title>Node116</title>
<g id="a_node23"><a xlink:href="structFractureMechanics_1_1OpAleLhsWithDensitySingularElement__dX__dX.html" target="_top" xlink:title=" ">
<polygon fill="white" stroke="black" points="208.5,-372.5 208.5,-413.5 370.5,-413.5 370.5,-372.5 208.5,-372.5"/>
<text text-anchor="start" x="216.5" y="-401.5" font-family="Helvetica,sans-Serif" font-size="10.00">FractureMechanics::</text>
<text text-anchor="start" x="216.5" y="-390.5" font-family="Helvetica,sans-Serif" font-size="10.00">OpAleLhsWithDensitySingular</text>
<text text-anchor="middle" x="289.5" y="-379.5" font-family="Helvetica,sans-Serif" font-size="10.00">Element_dX_dX</text>
</a>
</g>
</g>
<!-- Node95&#45;&gt;Node116 -->
<g id="edge29" class="edge">
<title>Node95&#45;&gt;Node116</title>
<path fill="none" stroke="midnightblue" d="M131.43,-393C155.25,-393 182.79,-393 208.09,-393"/>
<polygon fill="midnightblue" stroke="midnightblue" points="131.12,-389.5 121.12,-393 131.12,-396.5 131.12,-389.5"/>
</g>
<!-- Node117 -->
<g id="node24" class="node">
<title>Node117</title>
<g id="a_node24"><a xlink:href="structOpAssembleG.html" target="_top" xlink:title="Assemble G *.">
<polygon fill="white" stroke="black" points="246.5,-334.5 246.5,-353.5 332.5,-353.5 332.5,-334.5 246.5,-334.5"/>
<text text-anchor="middle" x="289.5" y="-341.5" font-family="Helvetica,sans-Serif" font-size="10.00">OpAssembleG</text>
</a>
</g>
</g>
<!-- Node95&#45;&gt;Node117 -->
<g id="edge30" class="edge">
<title>Node95&#45;&gt;Node117</title>
<path fill="none" stroke="midnightblue" d="M108.77,-380.42C127.99,-374.57 151.56,-367.85 173,-363 197.08,-357.55 224.32,-352.99 246.3,-349.71"/>
<polygon fill="midnightblue" stroke="midnightblue" points="107.67,-377.1 99.15,-383.39 109.74,-383.79 107.67,-377.1"/>
</g>
<!-- Node118 -->
<g id="node25" class="node">
<title>Node118</title>
<g id="a_node25"><a xlink:href="structOpAssembleK.html" target="_top" xlink:title="Assemble K *.">
<polygon fill="white" stroke="black" points="247,-296.5 247,-315.5 332,-315.5 332,-296.5 247,-296.5"/>
<text text-anchor="middle" x="289.5" y="-303.5" font-family="Helvetica,sans-Serif" font-size="10.00">OpAssembleK</text>
</a>
</g>
</g>
<!-- Node95&#45;&gt;Node118 -->
<g id="edge31" class="edge">
<title>Node95&#45;&gt;Node118</title>
<path fill="none" stroke="midnightblue" d="M88.62,-376.84C108.42,-361.03 140.9,-337.53 173,-325 196.47,-315.84 224.31,-311.09 246.77,-308.64"/>
<polygon fill="midnightblue" stroke="midnightblue" points="86.25,-374.27 80.71,-383.3 90.67,-379.69 86.25,-374.27"/>
</g>
<!-- Node119 -->
<g id="node26" class="node">
<title>Node119</title>
<g id="a_node26"><a xlink:href="structOpAssembleP.html" target="_top" xlink:title="Assemble P *.">
<polygon fill="white" stroke="black" points="247.5,-258.5 247.5,-277.5 331.5,-277.5 331.5,-258.5 247.5,-258.5"/>
<text text-anchor="middle" x="289.5" y="-265.5" font-family="Helvetica,sans-Serif" font-size="10.00">OpAssembleP</text>
</a>
</g>
</g>
<!-- Node95&#45;&gt;Node119 -->
<g id="edge32" class="edge">
<title>Node95&#45;&gt;Node119</title>
<path fill="none" stroke="midnightblue" d="M81.35,-375.1C98.47,-350.82 132.54,-308.07 173,-287 195.8,-275.12 224.27,-270.35 247.24,-268.55"/>
<polygon fill="midnightblue" stroke="midnightblue" points="78.42,-373.19 75.64,-383.41 84.19,-377.15 78.42,-373.19"/>
</g>
<!-- Node120 -->
<g id="node27" class="node">
<title>Node120</title>
<g id="a_node27"><a xlink:href="structPoissonExample_1_1OpBaseRhs.html" target="_top" xlink:title=" ">
<polygon fill="white" stroke="black" points="192.5,-198.5 192.5,-239.5 386.5,-239.5 386.5,-198.5 192.5,-198.5"/>
<text text-anchor="start" x="200.5" y="-227.5" font-family="Helvetica,sans-Serif" font-size="10.00">PoissonExample::OpBaseRhs</text>
<text text-anchor="start" x="200.5" y="-216.5" font-family="Helvetica,sans-Serif" font-size="10.00">&lt; VolumeElementForcesAndSources</text>
<text text-anchor="middle" x="289.5" y="-205.5" font-family="Helvetica,sans-Serif" font-size="10.00">Core::UserDataOperator &gt;</text>
</a>
</g>
</g>
<!-- Node95&#45;&gt;Node120 -->
<g id="edge33" class="edge">
<title>Node95&#45;&gt;Node120</title>
<path fill="none" stroke="midnightblue" d="M77.89,-373.84C92.54,-342.71 125.77,-281.37 173,-249 178.98,-244.9 185.49,-241.36 192.26,-238.31"/>
<polygon fill="midnightblue" stroke="midnightblue" points="74.61,-372.6 73.65,-383.15 80.98,-375.51 74.61,-372.6"/>
</g>
<!-- Node124 -->
<g id="node31" class="node">
<title>Node124</title>
<g id="a_node31"><a xlink:href="structPeriodicNitscheConstrains_1_1OpGetVolumeData.html" target="_top" xlink:title=" ">
<polygon fill="white" stroke="black" points="217.5,-149 217.5,-179 361.5,-179 361.5,-149 217.5,-149"/>
<text text-anchor="start" x="225.5" y="-167" font-family="Helvetica,sans-Serif" font-size="10.00">PeriodicNitscheConstrains</text>
<text text-anchor="middle" x="289.5" y="-156" font-family="Helvetica,sans-Serif" font-size="10.00">::OpGetVolumeData</text>
</a>
</g>
</g>
<!-- Node95&#45;&gt;Node124 -->
<g id="edge37" class="edge">
<title>Node95&#45;&gt;Node124</title>
<path fill="none" stroke="midnightblue" d="M73.46,-373.64C82.92,-332.67 110.79,-237.01 173,-189 185.75,-179.16 201.54,-173.01 217.31,-169.2"/>
<polygon fill="midnightblue" stroke="midnightblue" points="70.04,-372.94 71.32,-383.45 76.87,-374.43 70.04,-372.94"/>
</g>
<!-- Node101 -->
<g id="node21" class="node">
<title>Node101</title>
<g id="a_node21"><a xlink:href="structConvectiveMassElement_1_1OpGetCommonDataAtGaussPts.html" target="_top" xlink:title=" ">
<polygon fill="white" stroke="black" points="461.5,-61 461.5,-91 637.5,-91 637.5,-61 461.5,-61"/>
<text text-anchor="start" x="469.5" y="-79" font-family="Helvetica,sans-Serif" font-size="10.00">ConvectiveMassElement</text>
<text text-anchor="middle" x="549.5" y="-68" font-family="Helvetica,sans-Serif" font-size="10.00">::OpGetCommonDataAtGaussPts</text>
</a>
</g>
</g>
<!-- Node100&#45;&gt;Node101 -->
<g id="edge22" class="edge">
<title>Node100&#45;&gt;Node101</title>
<path fill="none" stroke="midnightblue" d="M368.45,-76C397.72,-76 431.18,-76 461.24,-76"/>
<polygon fill="midnightblue" stroke="midnightblue" points="368.29,-72.5 358.29,-76 368.29,-79.5 368.29,-72.5"/>
</g>
<!-- Node121 -->
<g id="node28" class="node">
<title>Node121</title>
<g id="a_node28"><a xlink:href="structPoissonExample_1_1OpError.html" target="_top" xlink:title="Evaluate error.">
<polygon fill="white" stroke="black" points="479.5,-190.5 479.5,-209.5 619.5,-209.5 619.5,-190.5 479.5,-190.5"/>
<text text-anchor="middle" x="549.5" y="-197.5" font-family="Helvetica,sans-Serif" font-size="10.00">PoissonExample::OpError</text>
</a>
</g>
</g>
<!-- Node120&#45;&gt;Node121 -->
<g id="edge34" class="edge">
<title>Node120&#45;&gt;Node121</title>
<path fill="none" stroke="midnightblue" d="M396.76,-211.17C424.64,-209.12 453.97,-206.96 479.34,-205.09"/>
<polygon fill="midnightblue" stroke="midnightblue" points="396.29,-207.7 386.57,-211.93 396.8,-214.68 396.29,-207.7"/>
</g>
<!-- Node122 -->
<g id="node29" class="node">
<title>Node122</title>
<g id="a_node29"><a xlink:href="structPoissonExample_1_1OpF.html" target="_top" xlink:title="Operator calculate source term,.">
<polygon fill="white" stroke="black" points="488.5,-228.5 488.5,-247.5 610.5,-247.5 610.5,-228.5 488.5,-228.5"/>
<text text-anchor="middle" x="549.5" y="-235.5" font-family="Helvetica,sans-Serif" font-size="10.00">PoissonExample::OpF</text>
</a>
</g>
</g>
<!-- Node120&#45;&gt;Node122 -->
<g id="edge35" class="edge">
<title>Node120&#45;&gt;Node122</title>
<path fill="none" stroke="midnightblue" d="M396.64,-226.82C427.9,-229.12 461.01,-231.56 488.31,-233.57"/>
<polygon fill="midnightblue" stroke="midnightblue" points="396.8,-223.32 386.57,-226.07 396.29,-230.3 396.8,-223.32"/>
</g>
<!-- Node123 -->
<g id="node30" class="node">
<title>Node123</title>
<g id="a_node30"><a xlink:href="structPoissonExample_1_1OpResF__Domain.html" target="_top" xlink:title=" ">
<polygon fill="white" stroke="black" points="730.5,-223 730.5,-253 870.5,-253 870.5,-223 730.5,-223"/>
<text text-anchor="start" x="738.5" y="-241" font-family="Helvetica,sans-Serif" font-size="10.00">PoissonExample::OpResF</text>
<text text-anchor="middle" x="800.5" y="-230" font-family="Helvetica,sans-Serif" font-size="10.00">_Domain</text>
</a>
</g>
</g>
<!-- Node122&#45;&gt;Node123 -->
<g id="edge36" class="edge">
<title>Node122&#45;&gt;Node123</title>
<path fill="none" stroke="midnightblue" d="M621.14,-238C655.28,-238 696.11,-238 730.09,-238"/>
<polygon fill="midnightblue" stroke="midnightblue" points="620.78,-234.5 610.78,-238 620.78,-241.5 620.78,-234.5"/>
</g>
</g>
</svg>
