<?xml version="1.0" encoding="UTF-8" standalone="no"?>
<!DOCTYPE svg PUBLIC "-//W3C//DTD SVG 1.1//EN"
 "http://www.w3.org/Graphics/SVG/1.1/DTD/svg11.dtd">
<!-- Generated by graphviz version 2.43.0 (0)
 -->
<!-- Title: Graphical Class Hierarchy Pages: 1 -->
<svg width="325pt" height="165pt"
 viewBox="0.00 0.00 325.00 164.50" xmlns="http://www.w3.org/2000/svg" xmlns:xlink="http://www.w3.org/1999/xlink">
<g id="graph0" class="graph" transform="scale(1 1) rotate(0) translate(4 160.5)">
<title>Graphical Class Hierarchy</title>
<polygon fill="white" stroke="transparent" points="-4,4 -4,-160.5 321,-160.5 321,4 -4,4"/>
<!-- Node0 -->
<g id="node1" class="node">
<title>Node0</title>
<g id="a_node1"><a xlink:href="structBCs__RVELagrange__Disp.html" target="_top" xlink:title=" ">
<polygon fill="white" stroke="black" points="0,-77 0,-96 132,-96 132,-77 0,-77"/>
<text text-anchor="middle" x="66" y="-84" font-family="Helvetica,sans-Serif" font-size="10.00">BCs_RVELagrange_Disp</text>
</a>
</g>
</g>
<!-- Node1 -->
<g id="node2" class="node">
<title>Node1</title>
<g id="a_node2"><a xlink:href="structBCs__RVELagrange__Periodic.html" target="_top" xlink:title=" ">
<polygon fill="white" stroke="black" points="168,-137 168,-156 317,-156 317,-137 168,-137"/>
<text text-anchor="middle" x="242.5" y="-144" font-family="Helvetica,sans-Serif" font-size="10.00">BCs_RVELagrange_Periodic</text>
</a>
</g>
</g>
<!-- Node0&#45;&gt;Node1 -->
<g id="edge1" class="edge">
<title>Node0&#45;&gt;Node1</title>
<path fill="none" stroke="midnightblue" d="M97.79,-100.24C117.6,-108.77 144.02,-119.57 168,-127.5 178.39,-130.93 189.76,-134.14 200.4,-136.9"/>
<polygon fill="midnightblue" stroke="midnightblue" points="98.93,-96.92 88.36,-96.14 96.14,-103.34 98.93,-96.92"/>
</g>
<!-- Node2 -->
<g id="node3" class="node">
<title>Node2</title>
<g id="a_node3"><a xlink:href="structBCs__RVELagrange__Trac.html" target="_top" xlink:title=" ">
<polygon fill="white" stroke="black" points="177.5,-99 177.5,-118 307.5,-118 307.5,-99 177.5,-99"/>
<text text-anchor="middle" x="242.5" y="-106" font-family="Helvetica,sans-Serif" font-size="10.00">BCs_RVELagrange_Trac</text>
</a>
</g>
</g>
<!-- Node0&#45;&gt;Node2 -->
<g id="edge2" class="edge">
<title>Node0&#45;&gt;Node2</title>
<path fill="none" stroke="midnightblue" d="M142.58,-96.03C154.19,-97.49 166.07,-98.99 177.4,-100.42"/>
<polygon fill="midnightblue" stroke="midnightblue" points="142.83,-92.53 132.47,-94.75 141.96,-99.48 142.83,-92.53"/>
</g>
<!-- Node3 -->
<g id="node4" class="node">
<title>Node3</title>
<g id="a_node4"><a xlink:href="structBCs__RVELagrange__Trac__Rigid__Rot.html" target="_top" xlink:title=" ">
<polygon fill="white" stroke="black" points="177.5,-49.5 177.5,-79.5 307.5,-79.5 307.5,-49.5 177.5,-49.5"/>
<text text-anchor="start" x="185.5" y="-67.5" font-family="Helvetica,sans-Serif" font-size="10.00">BCs_RVELagrange_Trac</text>
<text text-anchor="middle" x="242.5" y="-56.5" font-family="Helvetica,sans-Serif" font-size="10.00">_Rigid_Rot</text>
</a>
</g>
</g>
<!-- Node0&#45;&gt;Node3 -->
<g id="edge3" class="edge">
<title>Node0&#45;&gt;Node3</title>
<path fill="none" stroke="midnightblue" d="M142.58,-76.97C154.19,-75.51 166.07,-74.01 177.4,-72.58"/>
<polygon fill="midnightblue" stroke="midnightblue" points="141.96,-73.52 132.47,-78.25 142.83,-80.47 141.96,-73.52"/>
</g>
<!-- Node4 -->
<g id="node5" class="node">
<title>Node4</title>
<g id="a_node5"><a xlink:href="structBCs__RVELagrange__Trac__Rigid__Trans.html" target="_top" xlink:title=" ">
<polygon fill="white" stroke="black" points="177.5,-0.5 177.5,-30.5 307.5,-30.5 307.5,-0.5 177.5,-0.5"/>
<text text-anchor="start" x="185.5" y="-18.5" font-family="Helvetica,sans-Serif" font-size="10.00">BCs_RVELagrange_Trac</text>
<text text-anchor="middle" x="242.5" y="-7.5" font-family="Helvetica,sans-Serif" font-size="10.00">_Rigid_Trans</text>
</a>
</g>
</g>
<!-- Node0&#45;&gt;Node4 -->
<g id="edge4" class="edge">
<title>Node0&#45;&gt;Node4</title>
<path fill="none" stroke="midnightblue" d="M95.68,-72.51C115.72,-62.97 143.22,-50.33 168,-40.5 176.64,-37.07 185.97,-33.67 194.98,-30.54"/>
<polygon fill="midnightblue" stroke="midnightblue" points="93.99,-69.44 86.49,-76.92 97.02,-75.75 93.99,-69.44"/>
</g>
</g>
</svg>
