<?xml version="1.0" encoding="UTF-8" standalone="no"?>
<!DOCTYPE svg PUBLIC "-//W3C//DTD SVG 1.1//EN"
 "http://www.w3.org/Graphics/SVG/1.1/DTD/svg11.dtd">
<!-- Generated by graphviz version 2.43.0 (0)
 -->
<!-- Title: Graphical Class Hierarchy Pages: 1 -->
<svg width="529pt" height="110pt"
 viewBox="0.00 0.00 529.00 110.00" xmlns="http://www.w3.org/2000/svg" xmlns:xlink="http://www.w3.org/1999/xlink">
<g id="graph0" class="graph" transform="scale(1 1) rotate(0) translate(4 106)">
<title>Graphical Class Hierarchy</title>
<polygon fill="white" stroke="transparent" points="-4,4 -4,-106 525,-106 525,4 -4,4"/>
<!-- Node0 -->
<g id="node1" class="node">
<title>Node0</title>
<g id="a_node1"><a xlink:href="classMoFEM_1_1VolumeElementForcesAndSourcesCoreOnContactPrismSide_1_1_01UserDataOperator.html" target="_top" xlink:title=" ">
<polygon fill="white" stroke="black" points="0,-41.5 0,-60.5 105,-60.5 105,-41.5 0,-41.5"/>
<text text-anchor="middle" x="52.5" y="-48.5" font-family="Helvetica,sans-Serif" font-size="10.00">UserDataOperator</text>
</a>
</g>
</g>
<!-- Node1 -->
<g id="node2" class="node">
<title>Node1</title>
<g id="a_node2"><a xlink:href="structSimpleContactProblem_1_1OpContactMaterialVolOnSideLhs.html" target="_top" xlink:title="Operator used as base struct for OpContactMaterialVolOnSideLhs_dX_dx OpContactMaterialVolOnSideLhs_dX...">
<polygon fill="white" stroke="black" points="141,-36 141,-66 321,-66 321,-36 141,-36"/>
<text text-anchor="start" x="149" y="-54" font-family="Helvetica,sans-Serif" font-size="10.00">SimpleContactProblem</text>
<text text-anchor="middle" x="231" y="-43" font-family="Helvetica,sans-Serif" font-size="10.00">::OpContactMaterialVolOnSideLhs</text>
</a>
</g>
</g>
<!-- Node0&#45;&gt;Node1 -->
<g id="edge1" class="edge">
<title>Node0&#45;&gt;Node1</title>
<path fill="none" stroke="midnightblue" d="M115.04,-51C123.42,-51 132.14,-51 140.88,-51"/>
<polygon fill="midnightblue" stroke="midnightblue" points="115.03,-47.5 105.03,-51 115.03,-54.5 115.03,-47.5"/>
</g>
<!-- Node2 -->
<g id="node3" class="node">
<title>Node2</title>
<g id="a_node3"><a xlink:href="structSimpleContactProblem_1_1OpContactMaterialVolOnSideLhs__dX__dX.html" target="_top" xlink:title="LHS&#45;operator for the contact element (material configuration)">
<polygon fill="white" stroke="black" points="357,-60.5 357,-101.5 521,-101.5 521,-60.5 357,-60.5"/>
<text text-anchor="start" x="365" y="-89.5" font-family="Helvetica,sans-Serif" font-size="10.00">SimpleContactProblem</text>
<text text-anchor="start" x="365" y="-78.5" font-family="Helvetica,sans-Serif" font-size="10.00">::OpContactMaterialVolOnSide</text>
<text text-anchor="middle" x="439" y="-67.5" font-family="Helvetica,sans-Serif" font-size="10.00">Lhs_dX_dX</text>
</a>
</g>
</g>
<!-- Node1&#45;&gt;Node2 -->
<g id="edge2" class="edge">
<title>Node1&#45;&gt;Node2</title>
<path fill="none" stroke="midnightblue" d="M331.2,-65.45C339.78,-66.7 348.4,-67.95 356.82,-69.18"/>
<polygon fill="midnightblue" stroke="midnightblue" points="331.56,-61.96 321.16,-63.98 330.55,-68.89 331.56,-61.96"/>
</g>
<!-- Node3 -->
<g id="node4" class="node">
<title>Node3</title>
<g id="a_node4"><a xlink:href="structSimpleContactProblem_1_1OpContactMaterialVolOnSideLhs__dX__dx.html" target="_top" xlink:title="LHS&#45;operator (material configuration) on the side volume of either master or slave side.">
<polygon fill="white" stroke="black" points="357,-0.5 357,-41.5 521,-41.5 521,-0.5 357,-0.5"/>
<text text-anchor="start" x="365" y="-29.5" font-family="Helvetica,sans-Serif" font-size="10.00">SimpleContactProblem</text>
<text text-anchor="start" x="365" y="-18.5" font-family="Helvetica,sans-Serif" font-size="10.00">::OpContactMaterialVolOnSide</text>
<text text-anchor="middle" x="439" y="-7.5" font-family="Helvetica,sans-Serif" font-size="10.00">Lhs_dX_dx</text>
</a>
</g>
</g>
<!-- Node1&#45;&gt;Node3 -->
<g id="edge3" class="edge">
<title>Node1&#45;&gt;Node3</title>
<path fill="none" stroke="midnightblue" d="M331.2,-36.55C339.78,-35.3 348.4,-34.05 356.82,-32.82"/>
<polygon fill="midnightblue" stroke="midnightblue" points="330.55,-33.11 321.16,-38.02 331.56,-40.04 330.55,-33.11"/>
</g>
</g>
</svg>
