<?xml version="1.0" encoding="UTF-8" standalone="no"?>
<!DOCTYPE svg PUBLIC "-//W3C//DTD SVG 1.1//EN"
 "http://www.w3.org/Graphics/SVG/1.1/DTD/svg11.dtd">
<!-- Generated by graphviz version 2.43.0 (0)
 -->
<!-- Title: Graphical Class Hierarchy Pages: 1 -->
<svg width="408pt" height="149pt"
 viewBox="0.00 0.00 408.00 148.50" xmlns="http://www.w3.org/2000/svg" xmlns:xlink="http://www.w3.org/1999/xlink">
<g id="graph0" class="graph" transform="scale(1 1) rotate(0) translate(4 144.5)">
<title>Graphical Class Hierarchy</title>
<polygon fill="white" stroke="transparent" points="-4,4 -4,-144.5 404,-144.5 404,4 -4,4"/>
<!-- Node0 -->
<g id="node1" class="node">
<title>Node0</title>
<g id="a_node1"><a xlink:href="classAssemblyDomainEleOp.html" target="_top" xlink:title=" ">
<polygon fill="white" stroke="black" points="0,-77 0,-96 131,-96 131,-77 0,-77"/>
<text text-anchor="middle" x="65.5" y="-84" font-family="Helvetica,sans-Serif" font-size="10.00">AssemblyDomainEleOp</text>
</a>
</g>
</g>
<!-- Node1 -->
<g id="node2" class="node">
<title>Node1</title>
<g id="a_node2"><a xlink:href="structFreeSurfaceOps_1_1OpLhsU__dH.html" target="_top" xlink:title="Lhs for U dH.">
<polygon fill="white" stroke="black" points="206,-121 206,-140 361,-140 361,-121 206,-121"/>
<text text-anchor="middle" x="283.5" y="-128" font-family="Helvetica,sans-Serif" font-size="10.00">FreeSurfaceOps::OpLhsU_dH</text>
</a>
</g>
</g>
<!-- Node0&#45;&gt;Node1 -->
<g id="edge1" class="edge">
<title>Node0&#45;&gt;Node1</title>
<path fill="none" stroke="midnightblue" d="M111.94,-98.63C129.12,-103 148.89,-107.77 167,-111.5 183.72,-114.95 201.9,-118.18 218.79,-120.96"/>
<polygon fill="midnightblue" stroke="midnightblue" points="112.71,-95.21 102.15,-96.11 110.97,-101.99 112.71,-95.21"/>
</g>
<!-- Node2 -->
<g id="node3" class="node">
<title>Node2</title>
<g id="a_node3"><a xlink:href="structPlasticOps_1_1OpCalculateConstraintsRhsImpl_3_01GAUSS_00_01AssemblyDomainEleOp_01_4.html" target="_top" xlink:title=" ">
<polygon fill="white" stroke="black" points="167,-71.5 167,-101.5 400,-101.5 400,-71.5 167,-71.5"/>
<text text-anchor="start" x="175" y="-89.5" font-family="Helvetica,sans-Serif" font-size="10.00">PlasticOps::OpCalculateConstraints</text>
<text text-anchor="middle" x="283.5" y="-78.5" font-family="Helvetica,sans-Serif" font-size="10.00">RhsImpl&lt; GAUSS, AssemblyDomainEleOp &gt;</text>
</a>
</g>
</g>
<!-- Node0&#45;&gt;Node2 -->
<g id="edge2" class="edge">
<title>Node0&#45;&gt;Node2</title>
<path fill="none" stroke="midnightblue" d="M141.28,-86.5C149.51,-86.5 158.03,-86.5 166.62,-86.5"/>
<polygon fill="midnightblue" stroke="midnightblue" points="141.01,-83 131.01,-86.5 141.01,-90 141.01,-83"/>
</g>
<!-- Node3 -->
<g id="node4" class="node">
<title>Node3</title>
<g id="a_node4"><a xlink:href="structPlasticOps_1_1OpCalculatePlasticInternalForceLhs__LogStrain__dEPImpl_3_01DIM_00_01GAUSS_00_01AssemblyDomainEleOp_01_4.html" target="_top" xlink:title=" ">
<polygon fill="white" stroke="black" points="171.5,-0.5 171.5,-52.5 395.5,-52.5 395.5,-0.5 171.5,-0.5"/>
<text text-anchor="start" x="179.5" y="-40.5" font-family="Helvetica,sans-Serif" font-size="10.00">PlasticOps::OpCalculatePlastic</text>
<text text-anchor="start" x="179.5" y="-29.5" font-family="Helvetica,sans-Serif" font-size="10.00">InternalForceLhs_LogStrain</text>
<text text-anchor="start" x="179.5" y="-18.5" font-family="Helvetica,sans-Serif" font-size="10.00">_dEPImpl&lt; DIM, GAUSS, AssemblyDomain</text>
<text text-anchor="middle" x="283.5" y="-7.5" font-family="Helvetica,sans-Serif" font-size="10.00">EleOp &gt;</text>
</a>
</g>
</g>
<!-- Node0&#45;&gt;Node3 -->
<g id="edge3" class="edge">
<title>Node0&#45;&gt;Node3</title>
<path fill="none" stroke="midnightblue" d="M110.66,-74.23C133.24,-67.96 161.62,-60.08 188.77,-52.54"/>
<polygon fill="midnightblue" stroke="midnightblue" points="109.42,-70.94 100.73,-76.99 111.3,-77.69 109.42,-70.94"/>
</g>
</g>
</svg>
