<?xml version="1.0" encoding="UTF-8" standalone="no"?>
<!DOCTYPE svg PUBLIC "-//W3C//DTD SVG 1.1//EN"
 "http://www.w3.org/Graphics/SVG/1.1/DTD/svg11.dtd">
<!-- Generated by graphviz version 2.43.0 (0)
 -->
<!-- Title: FreeSurfaceOps::OpLhsU_dH Pages: 1 -->
<svg width="688pt" height="445pt"
 viewBox="0.00 0.00 688.00 444.86" xmlns="http://www.w3.org/2000/svg" xmlns:xlink="http://www.w3.org/1999/xlink">
<g id="graph0" class="graph" transform="scale(1 1) rotate(0) translate(4 440.86)">
<title>FreeSurfaceOps::OpLhsU_dH</title>
<polygon fill="white" stroke="transparent" points="-4,4 -4,-440.86 684,-440.86 684,4 -4,4"/>
<!-- Node1 -->
<g id="node1" class="node">
<title>Node1</title>
<g id="a_node1"><a xlink:title="Lhs for U dH.">
<polygon fill="#bfbfbf" stroke="black" points="525,-199.36 525,-218.36 680,-218.36 680,-199.36 525,-199.36"/>
<text text-anchor="middle" x="602.5" y="-206.36" font-family="Helvetica,sans-Serif" font-size="10.00">FreeSurfaceOps::OpLhsU_dH</text>
</a>
</g>
</g>
<!-- Node2 -->
<g id="node2" class="node">
<title>Node2</title>
<g id="a_node2"><a xlink:href="structMoFEM_1_1OpBaseImpl.html" target="_top" xlink:title=" ">
<polygon fill="white" stroke="black" points="302,-247.36 302,-266.36 433,-266.36 433,-247.36 302,-247.36"/>
<text text-anchor="middle" x="367.5" y="-254.36" font-family="Helvetica,sans-Serif" font-size="10.00">AssemblyDomainEleOp</text>
</a>
</g>
</g>
<!-- Node2&#45;&gt;Node1 -->
<g id="edge1" class="edge">
<title>Node2&#45;&gt;Node1</title>
<path fill="none" stroke="midnightblue" d="M443.22,-252.68C464.04,-250.6 486.54,-247.5 507,-242.86 532.68,-237.03 560.94,-226.25 579.81,-218.39"/>
<polygon fill="midnightblue" stroke="midnightblue" points="442.79,-249.2 433.16,-253.61 443.44,-256.17 442.79,-249.2"/>
</g>
<!-- Node3 -->
<g id="node3" class="node">
<title>Node3</title>
<g id="a_node3"><a xlink:href="classEleOp.html" target="_top" xlink:title=" ">
<polygon fill="white" stroke="black" points="52,-417.36 52,-436.36 97,-436.36 97,-417.36 52,-417.36"/>
<text text-anchor="middle" x="74.5" y="-424.36" font-family="Helvetica,sans-Serif" font-size="10.00">EleOp</text>
</a>
</g>
</g>
<!-- Node3&#45;&gt;Node2 -->
<g id="edge2" class="edge">
<title>Node3&#45;&gt;Node2</title>
<path fill="none" stroke="midnightblue" d="M107.05,-430.93C148.06,-434.58 220.39,-435.3 271,-403.86 325.03,-370.29 354.49,-293.55 363.49,-266.51"/>
<polygon fill="midnightblue" stroke="midnightblue" points="107.39,-427.44 97.09,-429.93 106.69,-434.41 107.39,-427.44"/>
</g>
<!-- Node4 -->
<g id="node4" class="node">
<title>Node4</title>
<g id="a_node4"><a xlink:href="classUBlasVector_3_01double_01_4.html" target="_top" xlink:title=" ">
<polygon fill="white" stroke="black" points="9,-379.36 9,-398.36 140,-398.36 140,-379.36 9,-379.36"/>
<text text-anchor="middle" x="74.5" y="-386.36" font-family="Helvetica,sans-Serif" font-size="10.00">UBlasVector&lt; double &gt;</text>
</a>
</g>
</g>
<!-- Node4&#45;&gt;Node2 -->
<g id="edge3" class="edge">
<title>Node4&#45;&gt;Node2</title>
<path fill="none" stroke="#9a32cd" stroke-dasharray="5,2" d="M150.09,-390.93C188.19,-389.1 234.15,-382.27 271,-362.86 314.83,-339.77 348.46,-288.06 361.08,-266.54"/>
<polygon fill="#9a32cd" stroke="#9a32cd" points="149.93,-387.43 140.07,-391.31 150.2,-394.43 149.93,-387.43"/>
<text text-anchor="middle" x="219" y="-391.86" font-family="Helvetica,sans-Serif" font-size="10.00"> locF</text>
</g>
<!-- Node5 -->
<g id="node5" class="node">
<title>Node5</title>
<g id="a_node5"><a xlink:title=" ">
<polygon fill="white" stroke="#bfbfbf" points="5,-341.36 5,-360.36 144,-360.36 144,-341.36 5,-341.36"/>
<text text-anchor="middle" x="74.5" y="-348.36" font-family="Helvetica,sans-Serif" font-size="10.00">static MatSetValuesHook</text>
</a>
</g>
</g>
<!-- Node5&#45;&gt;Node2 -->
<g id="edge4" class="edge">
<title>Node5&#45;&gt;Node2</title>
<path fill="none" stroke="#9a32cd" stroke-dasharray="5,2" d="M154.19,-349.67C190.76,-346.91 234.21,-340.4 271,-325.86 306.38,-311.87 340.76,-281.78 356.92,-266.38"/>
<polygon fill="#9a32cd" stroke="#9a32cd" points="153.81,-346.19 144.07,-350.35 154.28,-353.17 153.81,-346.19"/>
<text text-anchor="middle" x="219" y="-350.86" font-family="Helvetica,sans-Serif" font-size="10.00"> matSetValuesHook</text>
</g>
<!-- Node6 -->
<g id="node6" class="node">
<title>Node6</title>
<g id="a_node6"><a xlink:title=" ">
<polygon fill="white" stroke="#bfbfbf" points="40.5,-302.36 40.5,-321.36 108.5,-321.36 108.5,-302.36 40.5,-302.36"/>
<text text-anchor="middle" x="74.5" y="-309.36" font-family="Helvetica,sans-Serif" font-size="10.00">EntityType</text>
</a>
</g>
</g>
<!-- Node6&#45;&gt;Node2 -->
<g id="edge5" class="edge">
<title>Node6&#45;&gt;Node2</title>
<path fill="none" stroke="#9a32cd" stroke-dasharray="5,2" d="M118.72,-306.94C158.51,-302.06 219.05,-293.74 271,-282.86 292.53,-278.35 316.4,-271.85 334.9,-266.47"/>
<polygon fill="#9a32cd" stroke="#9a32cd" points="118.08,-303.49 108.57,-308.17 118.92,-310.44 118.08,-303.49"/>
<text text-anchor="middle" x="219" y="-313.86" font-family="Helvetica,sans-Serif" font-size="10.00"> rowType</text>
<text text-anchor="middle" x="219" y="-302.86" font-family="Helvetica,sans-Serif" font-size="10.00">colType</text>
</g>
<!-- Node7 -->
<g id="node7" class="node">
<title>Node7</title>
<g id="a_node7"><a xlink:title=" ">
<polygon fill="white" stroke="#bfbfbf" points="13.5,-264.36 13.5,-283.36 135.5,-283.36 135.5,-264.36 13.5,-264.36"/>
<text text-anchor="middle" x="74.5" y="-271.36" font-family="Helvetica,sans-Serif" font-size="10.00">shared_ptr&lt; Range &gt;</text>
</a>
</g>
</g>
<!-- Node7&#45;&gt;Node2 -->
<g id="edge6" class="edge">
<title>Node7&#45;&gt;Node2</title>
<path fill="none" stroke="#9a32cd" stroke-dasharray="5,2" d="M146.01,-269.74C193.54,-266.96 255.77,-263.33 301.99,-260.63"/>
<polygon fill="#9a32cd" stroke="#9a32cd" points="145.57,-266.26 135.8,-270.34 145.98,-273.25 145.57,-266.26"/>
<text text-anchor="middle" x="219" y="-270.86" font-family="Helvetica,sans-Serif" font-size="10.00"> entsPtr</text>
</g>
<!-- Node8 -->
<g id="node8" class="node">
<title>Node8</title>
<g id="a_node8"><a xlink:title=" ">
<polygon fill="white" stroke="#bfbfbf" points="9,-214.86 9,-244.86 140,-244.86 140,-214.86 9,-214.86"/>
<text text-anchor="start" x="17" y="-232.86" font-family="Helvetica,sans-Serif" font-size="10.00">function&lt; double(const</text>
<text text-anchor="middle" x="74.5" y="-221.86" font-family="Helvetica,sans-Serif" font-size="10.00"> FEMethod *fe_ptr)&gt;</text>
</a>
</g>
</g>
<!-- Node8&#45;&gt;Node2 -->
<g id="edge7" class="edge">
<title>Node8&#45;&gt;Node2</title>
<path fill="none" stroke="#9a32cd" stroke-dasharray="5,2" d="M150.3,-236.05C186.73,-239.15 231.17,-243.04 271,-246.86 280.96,-247.81 291.49,-248.87 301.79,-249.93"/>
<polygon fill="#9a32cd" stroke="#9a32cd" points="150.51,-232.56 140.25,-235.2 149.92,-239.53 150.51,-232.56"/>
<text text-anchor="middle" x="219" y="-249.86" font-family="Helvetica,sans-Serif" font-size="10.00"> feScalingFun</text>
</g>
<!-- Node9 -->
<g id="node9" class="node">
<title>Node9</title>
<g id="a_node9"><a xlink:title=" ">
<polygon fill="white" stroke="#bfbfbf" points="60,-141.36 60,-160.36 89,-160.36 89,-141.36 60,-141.36"/>
<text text-anchor="middle" x="74.5" y="-148.36" font-family="Helvetica,sans-Serif" font-size="10.00">int</text>
</a>
</g>
</g>
<!-- Node9&#45;&gt;Node2 -->
<g id="edge8" class="edge">
<title>Node9&#45;&gt;Node2</title>
<path fill="none" stroke="#9a32cd" stroke-dasharray="5,2" d="M99.18,-145.07C139.37,-136.75 221.39,-126.51 271,-166.86 292.93,-184.69 269.74,-207.17 289,-227.86 297.32,-236.79 308.66,-242.99 320.1,-247.29"/>
<polygon fill="#9a32cd" stroke="#9a32cd" points="98.24,-141.69 89.24,-147.27 99.76,-148.52 98.24,-141.69"/>
<text text-anchor="middle" x="219" y="-224.86" font-family="Helvetica,sans-Serif" font-size="10.00"> nbIntegrationPts</text>
<text text-anchor="middle" x="219" y="-213.86" font-family="Helvetica,sans-Serif" font-size="10.00">colSide</text>
<text text-anchor="middle" x="219" y="-202.86" font-family="Helvetica,sans-Serif" font-size="10.00">nbCols</text>
<text text-anchor="middle" x="219" y="-191.86" font-family="Helvetica,sans-Serif" font-size="10.00">nbRowBaseFunctions</text>
<text text-anchor="middle" x="219" y="-180.86" font-family="Helvetica,sans-Serif" font-size="10.00">rowSide</text>
<text text-anchor="middle" x="219" y="-169.86" font-family="Helvetica,sans-Serif" font-size="10.00">nbRows</text>
</g>
<!-- Node10 -->
<g id="node10" class="node">
<title>Node10</title>
<g id="a_node10"><a xlink:href="classbool.html" target="_top" xlink:title=" ">
<polygon fill="white" stroke="black" points="55.5,-97.36 55.5,-116.36 93.5,-116.36 93.5,-97.36 55.5,-97.36"/>
<text text-anchor="middle" x="74.5" y="-104.36" font-family="Helvetica,sans-Serif" font-size="10.00">bool</text>
</a>
</g>
</g>
<!-- Node10&#45;&gt;Node2 -->
<g id="edge9" class="edge">
<title>Node10&#45;&gt;Node2</title>
<path fill="none" stroke="#9a32cd" stroke-dasharray="5,2" d="M103.57,-103.37C151.64,-98.06 246.88,-90.65 271,-111.86 310.18,-146.31 256.06,-187.4 289,-227.86 296.26,-236.77 306.55,-242.94 317.26,-247.22"/>
<polygon fill="#9a32cd" stroke="#9a32cd" points="103.06,-99.9 93.52,-104.52 103.86,-106.86 103.06,-99.9"/>
<text text-anchor="middle" x="219" y="-125.86" font-family="Helvetica,sans-Serif" font-size="10.00"> assembleTranspose</text>
<text text-anchor="middle" x="219" y="-114.86" font-family="Helvetica,sans-Serif" font-size="10.00">onlyTranspose</text>
</g>
<!-- Node11 -->
<g id="node11" class="node">
<title>Node11</title>
<g id="a_node11"><a xlink:title=" ">
<polygon fill="white" stroke="#bfbfbf" points="0,-59.36 0,-78.36 149,-78.36 149,-59.36 0,-59.36"/>
<text text-anchor="middle" x="74.5" y="-66.36" font-family="Helvetica,sans-Serif" font-size="10.00">function&lt; double(double)&gt;</text>
</a>
</g>
</g>
<!-- Node11&#45;&gt;Node2 -->
<g id="edge10" class="edge">
<title>Node11&#45;&gt;Node2</title>
<path fill="none" stroke="#9a32cd" stroke-dasharray="5,2" d="M121.44,-57.34C165.76,-49.23 231.73,-45.58 271,-82.86 318.1,-127.57 248.77,-176.88 289,-227.86 296.03,-236.77 306.1,-242.94 316.67,-247.21"/>
<polygon fill="#9a32cd" stroke="#9a32cd" points="120.64,-53.93 111.5,-59.29 121.99,-60.8 120.64,-53.93"/>
<text text-anchor="middle" x="219" y="-85.86" font-family="Helvetica,sans-Serif" font-size="10.00"> timeScalingFun</text>
</g>
<!-- Node12 -->
<g id="node12" class="node">
<title>Node12</title>
<g id="a_node12"><a xlink:href="classUBlasMatrix_3_01double_01_4.html" target="_top" xlink:title=" ">
<polygon fill="white" stroke="black" points="8.5,-15.36 8.5,-34.36 140.5,-34.36 140.5,-15.36 8.5,-15.36"/>
<text text-anchor="middle" x="74.5" y="-22.36" font-family="Helvetica,sans-Serif" font-size="10.00">UBlasMatrix&lt; double &gt;</text>
</a>
</g>
</g>
<!-- Node12&#45;&gt;Node2 -->
<g id="edge11" class="edge">
<title>Node12&#45;&gt;Node2</title>
<path fill="none" stroke="#9a32cd" stroke-dasharray="5,2" d="M111.62,-12.38C155.32,0.17 228.33,12.57 271,-26.86 303.94,-57.29 261.82,-192.18 289,-227.86 295.79,-236.77 305.64,-242.95 316.05,-247.22"/>
<polygon fill="#9a32cd" stroke="#9a32cd" points="110.53,-9.05 101.97,-15.29 112.55,-15.76 110.53,-9.05"/>
<text text-anchor="middle" x="219" y="-40.86" font-family="Helvetica,sans-Serif" font-size="10.00"> locMat</text>
<text text-anchor="middle" x="219" y="-29.86" font-family="Helvetica,sans-Serif" font-size="10.00">locMatTranspose</text>
</g>
<!-- Node13 -->
<g id="node13" class="node">
<title>Node13</title>
<g id="a_node13"><a xlink:title=" ">
<polygon fill="white" stroke="#bfbfbf" points="289,-199.36 289,-218.36 446,-218.36 446,-199.36 289,-199.36"/>
<text text-anchor="middle" x="367.5" y="-206.36" font-family="Helvetica,sans-Serif" font-size="10.00">shared_ptr&lt; MatrixDouble &gt;</text>
</a>
</g>
</g>
<!-- Node13&#45;&gt;Node1 -->
<g id="edge12" class="edge">
<title>Node13&#45;&gt;Node1</title>
<path fill="none" stroke="#9a32cd" stroke-dasharray="5,2" d="M456.29,-208.86C478.77,-208.86 502.77,-208.86 524.65,-208.86"/>
<polygon fill="#9a32cd" stroke="#9a32cd" points="456.09,-205.36 446.09,-208.86 456.09,-212.36 456.09,-205.36"/>
<text text-anchor="middle" x="485.5" y="-233.86" font-family="Helvetica,sans-Serif" font-size="10.00"> dotUPtr</text>
<text text-anchor="middle" x="485.5" y="-222.86" font-family="Helvetica,sans-Serif" font-size="10.00">uPtr</text>
<text text-anchor="middle" x="485.5" y="-211.86" font-family="Helvetica,sans-Serif" font-size="10.00">gradUPtr</text>
</g>
<!-- Node14 -->
<g id="node14" class="node">
<title>Node14</title>
<g id="a_node14"><a xlink:title=" ">
<polygon fill="white" stroke="#bfbfbf" points="289.5,-154.36 289.5,-173.36 445.5,-173.36 445.5,-154.36 289.5,-154.36"/>
<text text-anchor="middle" x="367.5" y="-161.36" font-family="Helvetica,sans-Serif" font-size="10.00">shared_ptr&lt; VectorDouble &gt;</text>
</a>
</g>
</g>
<!-- Node14&#45;&gt;Node1 -->
<g id="edge13" class="edge">
<title>Node14&#45;&gt;Node1</title>
<path fill="none" stroke="#9a32cd" stroke-dasharray="5,2" d="M455.7,-174.03C472.78,-176.53 490.5,-179.47 507,-182.86 528.5,-187.27 552.33,-193.84 570.68,-199.27"/>
<polygon fill="#9a32cd" stroke="#9a32cd" points="456.12,-170.56 445.73,-172.61 455.14,-177.49 456.12,-170.56"/>
<text text-anchor="middle" x="485.5" y="-196.86" font-family="Helvetica,sans-Serif" font-size="10.00"> hPtr</text>
<text text-anchor="middle" x="485.5" y="-185.86" font-family="Helvetica,sans-Serif" font-size="10.00">gPtr</text>
</g>
</g>
</svg>
