<?xml version="1.0" encoding="UTF-8" standalone="no"?>
<!DOCTYPE svg PUBLIC "-//W3C//DTD SVG 1.1//EN"
 "http://www.w3.org/Graphics/SVG/1.1/DTD/svg11.dtd">
<!-- Generated by graphviz version 2.43.0 (0)
 -->
<!-- Title: MoFEM::EntFiniteElement Pages: 1 -->
<!--zoomable 174 -->
<svg id="main" version="1.1" xmlns="http://www.w3.org/2000/svg" xmlns:xlink="http://www.w3.org/1999/xlink" xml:space="preserve" onload="init(evt)">
<style type="text/css"><![CDATA[
.edge:hover path { stroke: red; }
.edge:hover polygon { stroke: red; fill: red; }
]]></style>
<script type="text/javascript"><![CDATA[
var edges = document.getElementsByTagName('g');
if (edges && edges.length) {
  for (var i=0;i<edges.length;i++) {
    if (edges[i].id.substr(0,4)=='edge') {
      edges[i].setAttribute('class','edge');
    }
  }
}
]]></script>
        <defs>
                <circle id="rim" cx="0" cy="0" r="7"/>
                <circle id="rim2" cx="0" cy="0" r="3.5"/>
                <g id="zoomPlus">
                        <use xlink:href="#rim" fill="#404040">
                                <set attributeName="fill" to="#808080" begin="zoomplus.mouseover" end="zoomplus.mouseout"/>
                        </use>
                        <path d="M-4,0h8M0,-4v8" fill="none" stroke="white" stroke-width="1.5" pointer-events="none"/>
                </g>
                <g id="zoomMin">
                        <use xlink:href="#rim" fill="#404040">
                                <set attributeName="fill" to="#808080" begin="zoomminus.mouseover" end="zoomminus.mouseout"/>
                        </use>
                        <path d="M-4,0h8" fill="none" stroke="white" stroke-width="1.5" pointer-events="none"/>
                </g>
                <g id="dirArrow">
                        <path fill="none" stroke="white" stroke-width="1.5" d="M0,-3.0v7 M-2.5,-0.5L0,-3.0L2.5,-0.5"/>
                </g>
               <g id="resetDef">
                       <use xlink:href="#rim2" fill="#404040">
                               <set attributeName="fill" to="#808080" begin="reset.mouseover" end="reset.mouseout"/>
                       </use>
               </g>
        </defs>

<script type="text/javascript">
var viewWidth = 1853;
var viewHeight = 174;
var sectionId = 'dynsection-1';
</script>
<script xlink:href="svgpan.js"/>
<svg id="graph" class="graph">
<g id="viewport">
<title>MoFEM::EntFiniteElement</title>
<polygon fill="white" stroke="transparent" points="-4,4 -4,-169.5 1849,-169.5 1849,4 -4,4"/>
<!-- Node1 -->
<g id="node1" class="node">
<title>Node1</title>
<g id="a_node1"><a xlink:title="Finite element data for entity.">
<polygon fill="#bfbfbf" stroke="black" points="1703,-30 1703,-49 1845,-49 1845,-30 1703,-30"/>
<text text-anchor="middle" x="1774" y="-37" font-family="Helvetica,sans-Serif" font-size="10.00">MoFEM::EntFiniteElement</text>
</a>
</g>
</g>
<!-- Node2 -->
<g id="node2" class="node">
<title>Node2</title>
<g id="a_node2"><a xlink:href="structMoFEM_1_1interface__FiniteElement.html" target="_top" xlink:title=" ">
<polygon fill="white" stroke="black" points="1425,-49.5 1425,-79.5 1600,-79.5 1600,-49.5 1425,-49.5"/>
<text text-anchor="start" x="1433" y="-67.5" font-family="Helvetica,sans-Serif" font-size="10.00">MoFEM::interface_FiniteElement</text>
<text text-anchor="middle" x="1512.5" y="-56.5" font-family="Helvetica,sans-Serif" font-size="10.00">&lt; FiniteElement, RefElement &gt;</text>
</a>
</g>
</g>
<!-- Node2&#45;&gt;Node1 -->
<g id="edge1" class="edge">
<title>Node2&#45;&gt;Node1</title>
<path fill="none" stroke="midnightblue" d="M1610.32,-56.47C1634.71,-54.33 1660.82,-51.93 1685,-49.5 1690.81,-48.92 1696.84,-48.28 1702.89,-47.63"/>
<polygon fill="midnightblue" stroke="midnightblue" points="1610,-52.99 1600.35,-57.34 1610.61,-59.96 1610,-52.99"/>
</g>
<!-- Node3 -->
<g id="node3" class="node">
<title>Node3</title>
<g id="a_node3"><a xlink:href="structMoFEM_1_1interface__RefElement.html" target="_top" xlink:title=" ">
<polygon fill="white" stroke="black" points="767,-47.5 767,-77.5 931,-77.5 931,-47.5 767,-47.5"/>
<text text-anchor="start" x="775" y="-65.5" font-family="Helvetica,sans-Serif" font-size="10.00">MoFEM::interface_RefElement</text>
<text text-anchor="middle" x="849" y="-54.5" font-family="Helvetica,sans-Serif" font-size="10.00">&lt; RefElement &gt;</text>
</a>
</g>
</g>
<!-- Node3&#45;&gt;Node2 -->
<g id="edge2" class="edge">
<title>Node3&#45;&gt;Node2</title>
<path fill="none" stroke="midnightblue" d="M941.27,-62.78C1069.09,-63.16 1299.79,-63.86 1425,-64.24"/>
<polygon fill="midnightblue" stroke="midnightblue" points="941.12,-59.28 931.11,-62.75 941.1,-66.28 941.12,-59.28"/>
</g>
<!-- Node4 -->
<g id="node4" class="node">
<title>Node4</title>
<g id="a_node4"><a xlink:href="structMoFEM_1_1interface__RefEntity.html" target="_top" xlink:title=" ">
<polygon fill="white" stroke="black" points="475.5,-22.5 475.5,-52.5 627.5,-52.5 627.5,-22.5 475.5,-22.5"/>
<text text-anchor="start" x="483.5" y="-40.5" font-family="Helvetica,sans-Serif" font-size="10.00">MoFEM::interface_RefEntity</text>
<text text-anchor="middle" x="551.5" y="-29.5" font-family="Helvetica,sans-Serif" font-size="10.00">&lt; RefElement &gt;</text>
</a>
</g>
</g>
<!-- Node4&#45;&gt;Node3 -->
<g id="edge3" class="edge">
<title>Node4&#45;&gt;Node3</title>
<path fill="none" stroke="midnightblue" d="M637.98,-44.73C678.56,-48.17 726.82,-52.25 766.84,-55.63"/>
<polygon fill="midnightblue" stroke="midnightblue" points="638.09,-41.23 627.83,-43.87 637.5,-48.2 638.09,-41.23"/>
</g>
<!-- Node5 -->
<g id="node5" class="node">
<title>Node5</title>
<g id="a_node5"><a xlink:href="classboost_1_1shared__ptr_3_01RefElement_01_4.html" target="_top" xlink:title=" ">
<polygon fill="white" stroke="black" points="171.5,-15 171.5,-34 319.5,-34 319.5,-15 171.5,-15"/>
<text text-anchor="middle" x="245.5" y="-22" font-family="Helvetica,sans-Serif" font-size="10.00">shared_ptr&lt; RefElement &gt;</text>
</a>
</g>
</g>
<!-- Node5&#45;&gt;Node4 -->
<g id="edge4" class="edge">
<title>Node5&#45;&gt;Node4</title>
<path fill="none" stroke="#9a32cd" stroke-dasharray="5,2" d="M329.98,-23.13C363.3,-23.06 401.99,-23.56 437,-25.5 449.46,-26.19 462.67,-27.27 475.49,-28.5"/>
<polygon fill="#9a32cd" stroke="#9a32cd" points="329.81,-19.63 319.83,-23.17 329.84,-26.63 329.81,-19.63"/>
<text text-anchor="middle" x="395.5" y="-28.5" font-family="Helvetica,sans-Serif" font-size="10.00"> sPtr</text>
</g>
<!-- Node6 -->
<g id="node6" class="node">
<title>Node6</title>
<g id="a_node6"><a xlink:href="structMoFEM_1_1interface__RefEntity.html" target="_top" xlink:title="interface to RefEntity">
<polygon fill="white" stroke="black" points="155,-75 155,-94 336,-94 336,-75 155,-75"/>
<text text-anchor="middle" x="245.5" y="-82" font-family="Helvetica,sans-Serif" font-size="10.00">MoFEM::interface_RefEntity&lt; T &gt;</text>
</a>
</g>
</g>
<!-- Node6&#45;&gt;Node4 -->
<g id="edge5" class="edge">
<title>Node6&#45;&gt;Node4</title>
<path fill="none" stroke="orange" stroke-dasharray="5,2" d="M318.19,-73.42C365.49,-66.1 427.36,-56.54 475.35,-49.12"/>
<polygon fill="orange" stroke="orange" points="317.37,-70 308.02,-74.99 318.44,-76.92 317.37,-70"/>
<text text-anchor="middle" x="395.5" y="-69.5" font-family="Helvetica,sans-Serif" font-size="10.00"> &lt; RefElement &gt;</text>
</g>
<!-- Node8 -->
<g id="node8" class="node">
<title>Node8</title>
<g id="a_node8"><a xlink:href="structMoFEM_1_1interface__RefElement.html" target="_top" xlink:title="intrface to RefElement">
<polygon fill="white" stroke="black" points="455,-75 455,-94 648,-94 648,-75 455,-75"/>
<text text-anchor="middle" x="551.5" y="-82" font-family="Helvetica,sans-Serif" font-size="10.00">MoFEM::interface_RefElement&lt; T &gt;</text>
</a>
</g>
</g>
<!-- Node6&#45;&gt;Node8 -->
<g id="edge8" class="edge">
<title>Node6&#45;&gt;Node8</title>
<path fill="none" stroke="midnightblue" d="M346.28,-84.5C381.23,-84.5 420.37,-84.5 454.96,-84.5"/>
<polygon fill="midnightblue" stroke="midnightblue" points="346.07,-81 336.07,-84.5 346.07,-88 346.07,-81"/>
</g>
<!-- Node12 -->
<g id="node12" class="node">
<title>Node12</title>
<g id="a_node12"><a xlink:href="structMoFEM_1_1interface__RefEntity.html" target="_top" xlink:title=" ">
<polygon fill="white" stroke="black" points="475.5,-115.5 475.5,-145.5 627.5,-145.5 627.5,-115.5 475.5,-115.5"/>
<text text-anchor="start" x="483.5" y="-133.5" font-family="Helvetica,sans-Serif" font-size="10.00">MoFEM::interface_RefEntity</text>
<text text-anchor="middle" x="551.5" y="-122.5" font-family="Helvetica,sans-Serif" font-size="10.00">&lt; REFENT &gt;</text>
</a>
</g>
</g>
<!-- Node6&#45;&gt;Node12 -->
<g id="edge14" class="edge">
<title>Node6&#45;&gt;Node12</title>
<path fill="none" stroke="orange" stroke-dasharray="5,2" d="M319.62,-95.56C366.69,-102.69 427.74,-111.92 475.23,-119.11"/>
<polygon fill="orange" stroke="orange" points="319.9,-92.07 309.49,-94.03 318.85,-98.99 319.9,-92.07"/>
<text text-anchor="middle" x="395.5" y="-115.5" font-family="Helvetica,sans-Serif" font-size="10.00"> &lt; REFENT &gt;</text>
</g>
<!-- Node7 -->
<g id="node7" class="node">
<title>Node7</title>
<g id="a_node7"><a xlink:title=" ">
<polygon fill="white" stroke="#bfbfbf" points="0,-75 0,-94 97,-94 97,-75 0,-75"/>
<text text-anchor="middle" x="48.5" y="-82" font-family="Helvetica,sans-Serif" font-size="10.00">shared_ptr&lt; T &gt;</text>
</a>
</g>
</g>
<!-- Node7&#45;&gt;Node6 -->
<g id="edge6" class="edge">
<title>Node7&#45;&gt;Node6</title>
<path fill="none" stroke="#9a32cd" stroke-dasharray="5,2" d="M107.25,-84.5C122.14,-84.5 138.53,-84.5 154.63,-84.5"/>
<polygon fill="#9a32cd" stroke="#9a32cd" points="107.2,-81 97.2,-84.5 107.2,-88 107.2,-81"/>
<text text-anchor="middle" x="126" y="-87.5" font-family="Helvetica,sans-Serif" font-size="10.00"> sPtr</text>
</g>
<!-- Node8&#45;&gt;Node3 -->
<g id="edge7" class="edge">
<title>Node8&#45;&gt;Node3</title>
<path fill="none" stroke="orange" stroke-dasharray="5,2" d="M639.67,-73.94C648.56,-73.03 657.45,-72.2 666,-71.5 698.95,-68.8 735.32,-66.81 766.84,-65.39"/>
<polygon fill="orange" stroke="orange" points="639.25,-70.46 629.67,-74.98 639.98,-77.42 639.25,-70.46"/>
<text text-anchor="middle" x="707.5" y="-74.5" font-family="Helvetica,sans-Serif" font-size="10.00"> &lt; RefElement &gt;</text>
</g>
<!-- Node11 -->
<g id="node11" class="node">
<title>Node11</title>
<g id="a_node11"><a xlink:href="structMoFEM_1_1interface__RefElement.html" target="_top" xlink:title=" ">
<polygon fill="white" stroke="black" points="767,-96.5 767,-126.5 931,-126.5 931,-96.5 767,-96.5"/>
<text text-anchor="start" x="775" y="-114.5" font-family="Helvetica,sans-Serif" font-size="10.00">MoFEM::interface_RefElement</text>
<text text-anchor="middle" x="849" y="-103.5" font-family="Helvetica,sans-Serif" font-size="10.00">&lt; REFENT &gt;</text>
</a>
</g>
</g>
<!-- Node8&#45;&gt;Node11 -->
<g id="edge15" class="edge">
<title>Node8&#45;&gt;Node11</title>
<path fill="none" stroke="orange" stroke-dasharray="5,2" d="M658.01,-94.14C693.76,-97.41 733.11,-101 766.68,-104.07"/>
<polygon fill="orange" stroke="orange" points="658.31,-90.65 648.03,-93.23 657.67,-97.62 658.31,-90.65"/>
<text text-anchor="middle" x="707.5" y="-104.5" font-family="Helvetica,sans-Serif" font-size="10.00"> &lt; REFENT &gt;</text>
</g>
<!-- Node9 -->
<g id="node9" class="node">
<title>Node9</title>
<g id="a_node9"><a xlink:href="classboost_1_1shared__ptr_3_01FiniteElement_01_4.html" target="_top" xlink:title=" ">
<polygon fill="white" stroke="black" points="1065.5,-17 1065.5,-36 1223.5,-36 1223.5,-17 1065.5,-17"/>
<text text-anchor="middle" x="1144.5" y="-24" font-family="Helvetica,sans-Serif" font-size="10.00">shared_ptr&lt; FiniteElement &gt;</text>
</a>
</g>
</g>
<!-- Node9&#45;&gt;Node2 -->
<g id="edge9" class="edge">
<title>Node9&#45;&gt;Node2</title>
<path fill="none" stroke="#9a32cd" stroke-dasharray="5,2" d="M1233.97,-26.84C1284.81,-28.04 1349.75,-31.3 1407,-39.5 1423.43,-41.85 1441.07,-45.59 1457.09,-49.47"/>
<polygon fill="#9a32cd" stroke="#9a32cd" points="1233.74,-23.33 1223.67,-26.61 1233.59,-30.33 1233.74,-23.33"/>
<text text-anchor="middle" x="1328.5" y="-42.5" font-family="Helvetica,sans-Serif" font-size="10.00"> sFiniteElementPtr</text>
</g>
<!-- Node10 -->
<g id="node10" class="node">
<title>Node10</title>
<g id="a_node10"><a xlink:href="structMoFEM_1_1interface__FiniteElement.html" target="_top" xlink:title=" ">
<polygon fill="white" stroke="black" points="1057,-96.5 1057,-126.5 1232,-126.5 1232,-96.5 1057,-96.5"/>
<text text-anchor="start" x="1065" y="-114.5" font-family="Helvetica,sans-Serif" font-size="10.00">MoFEM::interface_FiniteElement</text>
<text text-anchor="middle" x="1144.5" y="-103.5" font-family="Helvetica,sans-Serif" font-size="10.00">&lt; FE, REFENT &gt;</text>
</a>
</g>
</g>
<!-- Node10&#45;&gt;Node2 -->
<g id="edge10" class="edge">
<title>Node10&#45;&gt;Node2</title>
<path fill="none" stroke="orange" stroke-dasharray="5,2" d="M1242.12,-99.49C1291.46,-93.3 1352.45,-85.6 1407,-78.5 1412.81,-77.74 1418.8,-76.96 1424.83,-76.16"/>
<polygon fill="orange" stroke="orange" points="1241.58,-96.03 1232.09,-100.74 1242.45,-102.97 1241.58,-96.03"/>
<text text-anchor="middle" x="1328.5" y="-100.5" font-family="Helvetica,sans-Serif" font-size="10.00"> &lt; FiniteElement, RefElement &gt;</text>
</g>
<!-- Node11&#45;&gt;Node10 -->
<g id="edge11" class="edge">
<title>Node11&#45;&gt;Node10</title>
<path fill="none" stroke="midnightblue" d="M941.59,-111.5C978.37,-111.5 1020.57,-111.5 1056.84,-111.5"/>
<polygon fill="midnightblue" stroke="midnightblue" points="941.37,-108 931.37,-111.5 941.37,-115 941.37,-108"/>
</g>
<!-- Node12&#45;&gt;Node11 -->
<g id="edge12" class="edge">
<title>Node12&#45;&gt;Node11</title>
<path fill="none" stroke="midnightblue" d="M637.98,-125C678.56,-122.39 726.82,-119.29 766.84,-116.72"/>
<polygon fill="midnightblue" stroke="midnightblue" points="637.59,-121.52 627.83,-125.66 638.04,-128.51 637.59,-121.52"/>
</g>
<!-- Node13 -->
<g id="node13" class="node">
<title>Node13</title>
<g id="a_node13"><a xlink:href="classboost_1_1shared__ptr_3_01REFENT_01_4.html" target="_top" xlink:title=" ">
<polygon fill="white" stroke="black" points="181,-142 181,-161 310,-161 310,-142 181,-142"/>
<text text-anchor="middle" x="245.5" y="-149" font-family="Helvetica,sans-Serif" font-size="10.00">shared_ptr&lt; REFENT &gt;</text>
</a>
</g>
</g>
<!-- Node13&#45;&gt;Node12 -->
<g id="edge13" class="edge">
<title>Node13&#45;&gt;Node12</title>
<path fill="none" stroke="#9a32cd" stroke-dasharray="5,2" d="M320.34,-146.4C367.35,-143.15 428.06,-138.96 475.32,-135.69"/>
<polygon fill="#9a32cd" stroke="#9a32cd" points="319.96,-142.92 310.23,-147.1 320.45,-149.9 319.96,-142.92"/>
<text text-anchor="middle" x="395.5" y="-145.5" font-family="Helvetica,sans-Serif" font-size="10.00"> sPtr</text>
</g>
<!-- Node14 -->
<g id="node14" class="node">
<title>Node14</title>
<g id="a_node14"><a xlink:title=" ">
<polygon fill="white" stroke="#bfbfbf" points="797.5,-146 797.5,-165 900.5,-165 900.5,-146 797.5,-146"/>
<text text-anchor="middle" x="849" y="-153" font-family="Helvetica,sans-Serif" font-size="10.00">shared_ptr&lt; FE &gt;</text>
</a>
</g>
</g>
<!-- Node14&#45;&gt;Node10 -->
<g id="edge16" class="edge">
<title>Node14&#45;&gt;Node10</title>
<path fill="none" stroke="#9a32cd" stroke-dasharray="5,2" d="M910.92,-146.37C953.13,-140.04 1009.95,-131.52 1056.86,-124.49"/>
<polygon fill="#9a32cd" stroke="#9a32cd" points="910.16,-142.94 900.79,-147.89 911.2,-149.86 910.16,-142.94"/>
<text text-anchor="middle" x="994" y="-142.5" font-family="Helvetica,sans-Serif" font-size="10.00"> sFiniteElementPtr</text>
</g>
<!-- Node15 -->
<g id="node15" class="node">
<title>Node15</title>
<g id="a_node15"><a xlink:title=" ">
<polygon fill="white" stroke="#bfbfbf" points="1447,-0.5 1447,-30.5 1578,-30.5 1578,-0.5 1447,-0.5"/>
<text text-anchor="start" x="1455" y="-18.5" font-family="Helvetica,sans-Serif" font-size="10.00">shared_ptr&lt; FieldEntity</text>
<text text-anchor="middle" x="1512.5" y="-7.5" font-family="Helvetica,sans-Serif" font-size="10.00">_vector_view &gt;</text>
</a>
</g>
</g>
<!-- Node15&#45;&gt;Node1 -->
<g id="edge17" class="edge">
<title>Node15&#45;&gt;Node1</title>
<path fill="none" stroke="#9a32cd" stroke-dasharray="5,2" d="M1588.13,-11.9C1618.33,-11.49 1653.44,-12.35 1685,-16.5 1705.04,-19.14 1727.04,-24.89 1744.03,-29.98"/>
<polygon fill="#9a32cd" stroke="#9a32cd" points="1588.03,-8.4 1578.1,-12.08 1588.16,-15.4 1588.03,-8.4"/>
<text text-anchor="middle" x="1651.5" y="-41.5" font-family="Helvetica,sans-Serif" font-size="10.00"> rowFieldEnts</text>
<text text-anchor="middle" x="1651.5" y="-30.5" font-family="Helvetica,sans-Serif" font-size="10.00">dataFieldEnts</text>
<text text-anchor="middle" x="1651.5" y="-19.5" font-family="Helvetica,sans-Serif" font-size="10.00">colFieldEnts</text>
</g>
</g>
</svg>
        <g id="navigator" transform="translate(0 0)" fill="#404254">
                <rect fill="#f2f5e9" fill-opacity="0.5" stroke="#606060" stroke-width=".5" x="0" y="0" width="60" height="60"/>
                <use id="zoomplus" xlink:href="#zoomPlus" x="17" y="9" onmousedown="handleZoom(evt,'in')"/>
                <use id="zoomminus" xlink:href="#zoomMin" x="42" y="9" onmousedown="handleZoom(evt,'out')"/>
                <use id="reset" xlink:href="#resetDef" x="30" y="36" onmousedown="handleReset()"/>
                <g id="arrowUp" xlink:href="#dirArrow" transform="translate(30 24)" onmousedown="handlePan(0,-1)">
                  <use xlink:href="#rim" fill="#404040">
                        <set attributeName="fill" to="#808080" begin="arrowUp.mouseover" end="arrowUp.mouseout"/>
                  </use>
                  <path fill="none" stroke="white" stroke-width="1.5" d="M0,-3.0v7 M-2.5,-0.5L0,-3.0L2.5,-0.5"/>
                </g>
                <g id="arrowRight" xlink:href="#dirArrow" transform="rotate(90) translate(36 -43)" onmousedown="handlePan(1,0)">
                  <use xlink:href="#rim" fill="#404040">
                        <set attributeName="fill" to="#808080" begin="arrowRight.mouseover" end="arrowRight.mouseout"/>
                  </use>
                  <path fill="none" stroke="white" stroke-width="1.5" d="M0,-3.0v7 M-2.5,-0.5L0,-3.0L2.5,-0.5"/>
                </g>
                <g id="arrowDown" xlink:href="#dirArrow" transform="rotate(180) translate(-30 -48)" onmousedown="handlePan(0,1)">
                  <use xlink:href="#rim" fill="#404040">
                        <set attributeName="fill" to="#808080" begin="arrowDown.mouseover" end="arrowDown.mouseout"/>
                  </use>
                  <path fill="none" stroke="white" stroke-width="1.5" d="M0,-3.0v7 M-2.5,-0.5L0,-3.0L2.5,-0.5"/>
                </g>
                <g id="arrowLeft" xlink:href="#dirArrow" transform="rotate(270) translate(-36 17)" onmousedown="handlePan(-1,0)">
                  <use xlink:href="#rim" fill="#404040">
                        <set attributeName="fill" to="#808080" begin="arrowLeft.mouseover" end="arrowLeft.mouseout"/>
                  </use>
                  <path fill="none" stroke="white" stroke-width="1.5" d="M0,-3.0v7 M-2.5,-0.5L0,-3.0L2.5,-0.5"/>
                </g>
        </g>
        <svg viewBox="0 0 15 15" width="100%" height="30px" preserveAspectRatio="xMaxYMin meet">
         <g id="arrow_out" transform="scale(0.3 0.3)">
          <a xlink:href="structMoFEM_1_1EntFiniteElement__coll__graph_org.svg" target="_base">
           <rect id="button" ry="5" rx="5" y="6" x="6" height="38" width="38"
                fill="#f2f5e9" fill-opacity="0.5" stroke="#606060" stroke-width="1.0"/>
           <path id="arrow"
             d="M 11.500037,31.436501 C 11.940474,20.09759 22.043105,11.32322 32.158766,21.979434 L 37.068811,17.246167 C 37.068811,17.246167 37.088388,32 37.088388,32 L 22.160133,31.978069 C 22.160133,31.978069 26.997745,27.140456 26.997745,27.140456 C 18.528582,18.264221 13.291696,25.230495 11.500037,31.436501 z"
             style="fill:#404040;"/>
          </a>
         </g>
        </svg>
</svg>
