<?xml version="1.0" encoding="UTF-8" standalone="no"?>
<!DOCTYPE svg PUBLIC "-//W3C//DTD SVG 1.1//EN"
 "http://www.w3.org/Graphics/SVG/1.1/DTD/svg11.dtd">
<!-- Generated by graphviz version 2.43.0 (0)
 -->
<!-- Title: SkeletonFE::OpFaceSide Pages: 1 -->
<svg width="3702pt" height="1621pt"
 viewBox="0.00 0.00 3702.00 1621.00" xmlns="http://www.w3.org/2000/svg" xmlns:xlink="http://www.w3.org/1999/xlink">
<g id="graph0" class="graph" transform="scale(1 1) rotate(0) translate(4 1617)">
<title>SkeletonFE::OpFaceSide</title>
<polygon fill="white" stroke="transparent" points="-4,4 -4,-1617 3698,-1617 3698,4 -4,4"/>
<!-- Node1 -->
<g id="node1" class="node">
<title>Node1</title>
<g id="a_node1"><a xlink:title=" ">
<polygon fill="#bfbfbf" stroke="black" points="3561,-826.5 3561,-845.5 3694,-845.5 3694,-826.5 3561,-826.5"/>
<text text-anchor="middle" x="3627.5" y="-833.5" font-family="Helvetica,sans-Serif" font-size="10.00">SkeletonFE::OpFaceSide</text>
</a>
</g>
</g>
<!-- Node2 -->
<g id="node2" class="node">
<title>Node2</title>
<g id="a_node2"><a xlink:href="structMoFEM_1_1FaceElementForcesAndSourcesCoreOnSide_1_1UserDataOperator.html" target="_top" xlink:title="default operator for Face element">
<polygon fill="white" stroke="black" points="3372,-913.5 3372,-932.5 3473,-932.5 3473,-913.5 3372,-913.5"/>
<text text-anchor="middle" x="3422.5" y="-920.5" font-family="Helvetica,sans-Serif" font-size="10.00">FaceEleOnSideOp</text>
</a>
</g>
</g>
<!-- Node2&#45;&gt;Node1 -->
<g id="edge1" class="edge">
<title>Node2&#45;&gt;Node1</title>
<path fill="none" stroke="midnightblue" d="M3455.36,-909.35C3496.79,-891.59 3568.12,-861.02 3604.21,-845.55"/>
<polygon fill="midnightblue" stroke="midnightblue" points="3453.81,-906.2 3446,-913.36 3456.57,-912.63 3453.81,-906.2"/>
</g>
<!-- Node3 -->
<g id="node3" class="node">
<title>Node3</title>
<g id="a_node3"><a xlink:href="structMoFEM_1_1FaceElementForcesAndSourcesCore_1_1UserDataOperator.html" target="_top" xlink:title="default operator for TRI element">
<polygon fill="white" stroke="black" points="3088,-1092 3088,-1122 3279,-1122 3279,-1092 3088,-1092"/>
<text text-anchor="start" x="3096" y="-1110" font-family="Helvetica,sans-Serif" font-size="10.00">MoFEM::FaceElementForces</text>
<text text-anchor="middle" x="3183.5" y="-1099" font-family="Helvetica,sans-Serif" font-size="10.00">AndSourcesCore::UserDataOperator</text>
</a>
</g>
</g>
<!-- Node3&#45;&gt;Node2 -->
<g id="edge2" class="edge">
<title>Node3&#45;&gt;Node2</title>
<path fill="none" stroke="midnightblue" d="M3211.93,-1085.71C3263.36,-1045.78 3372.4,-961.12 3409.13,-932.6"/>
<polygon fill="midnightblue" stroke="midnightblue" points="3209.65,-1083.05 3203.89,-1091.94 3213.94,-1088.57 3209.65,-1083.05"/>
</g>
<!-- Node4 -->
<g id="node4" class="node">
<title>Node4</title>
<g id="a_node4"><a xlink:href="structMoFEM_1_1ForcesAndSourcesCore_1_1UserDataOperator.html" target="_top" xlink:title=" ">
<polygon fill="white" stroke="black" points="2837,-1305 2837,-1335 3007,-1335 3007,-1305 2837,-1305"/>
<text text-anchor="start" x="2845" y="-1323" font-family="Helvetica,sans-Serif" font-size="10.00">MoFEM::ForcesAndSourcesCore</text>
<text text-anchor="middle" x="2922" y="-1312" font-family="Helvetica,sans-Serif" font-size="10.00">::UserDataOperator</text>
</a>
</g>
</g>
<!-- Node4&#45;&gt;Node3 -->
<g id="edge3" class="edge">
<title>Node4&#45;&gt;Node3</title>
<path fill="none" stroke="midnightblue" d="M2949.55,-1298.21C3002.21,-1254.98 3118.74,-1159.34 3164.01,-1122.18"/>
<polygon fill="midnightblue" stroke="midnightblue" points="2947.17,-1295.63 2941.66,-1304.68 2951.61,-1301.04 2947.17,-1295.63"/>
</g>
<!-- Node5 -->
<g id="node5" class="node">
<title>Node5</title>
<g id="a_node5"><a xlink:href="structMoFEM_1_1DataOperator.html" target="_top" xlink:title="base operator to do operations at Gauss Pt. level">
<polygon fill="white" stroke="black" points="2579.5,-1400.5 2579.5,-1419.5 2704.5,-1419.5 2704.5,-1400.5 2579.5,-1400.5"/>
<text text-anchor="middle" x="2642" y="-1407.5" font-family="Helvetica,sans-Serif" font-size="10.00">MoFEM::DataOperator</text>
</a>
</g>
</g>
<!-- Node5&#45;&gt;Node4 -->
<g id="edge4" class="edge">
<title>Node5&#45;&gt;Node4</title>
<path fill="none" stroke="midnightblue" d="M2687.6,-1397.75C2723.34,-1387.71 2774.66,-1372.79 2819,-1358 2840.15,-1350.94 2863.48,-1342.32 2882.48,-1335.07"/>
<polygon fill="midnightblue" stroke="midnightblue" points="2686.64,-1394.38 2677.95,-1400.44 2688.53,-1401.12 2686.64,-1394.38"/>
</g>
<!-- Node6 -->
<g id="node6" class="node">
<title>Node6</title>
<g id="a_node6"><a xlink:title=" ">
<polygon fill="white" stroke="#bfbfbf" points="2160,-1499 2160,-1551 2352,-1551 2352,-1499 2160,-1499"/>
<text text-anchor="start" x="2168" y="-1539" font-family="Helvetica,sans-Serif" font-size="10.00">function&lt; MoFEMErrorCode</text>
<text text-anchor="start" x="2168" y="-1528" font-family="Helvetica,sans-Serif" font-size="10.00">(DataOperator *op_ptr,</text>
<text text-anchor="start" x="2168" y="-1517" font-family="Helvetica,sans-Serif" font-size="10.00"> int side, EntityType type,</text>
<text text-anchor="middle" x="2256" y="-1506" font-family="Helvetica,sans-Serif" font-size="10.00"> EntitiesFieldData::EntData &amp;data)&gt;</text>
</a>
</g>
</g>
<!-- Node6&#45;&gt;Node5 -->
<g id="edge5" class="edge">
<title>Node6&#45;&gt;Node5</title>
<path fill="none" stroke="#9a32cd" stroke-dasharray="5,2" d="M2362.3,-1544.57C2420.79,-1549.22 2491.18,-1543.69 2539,-1503 2564.78,-1481.06 2532.87,-1452.74 2557,-1429 2563.29,-1422.81 2571.14,-1418.47 2579.5,-1415.45"/>
<polygon fill="#9a32cd" stroke="#9a32cd" points="2362.55,-1541.08 2352.27,-1543.66 2361.92,-1548.05 2362.55,-1541.08"/>
<text text-anchor="middle" x="2458" y="-1548" font-family="Helvetica,sans-Serif" font-size="10.00"> doWorkRhsHook</text>
</g>
<!-- Node7 -->
<g id="node7" class="node">
<title>Node7</title>
<g id="a_node7"><a xlink:href="classbool.html" target="_top" xlink:title=" ">
<polygon fill="white" stroke="black" points="2237,-1452.5 2237,-1471.5 2275,-1471.5 2275,-1452.5 2237,-1452.5"/>
<text text-anchor="middle" x="2256" y="-1459.5" font-family="Helvetica,sans-Serif" font-size="10.00">bool</text>
</a>
</g>
</g>
<!-- Node7&#45;&gt;Node5 -->
<g id="edge6" class="edge">
<title>Node7&#45;&gt;Node5</title>
<path fill="none" stroke="#9a32cd" stroke-dasharray="5,2" d="M2285.34,-1461.01C2306.61,-1459.28 2335.92,-1454.74 2359,-1443 2368.81,-1438.01 2366.9,-1430.37 2377,-1426 2412.03,-1410.83 2512.9,-1408.62 2579.32,-1408.93"/>
<polygon fill="#9a32cd" stroke="#9a32cd" points="2285.06,-1457.52 2275.31,-1461.67 2285.52,-1464.51 2285.06,-1457.52"/>
<text text-anchor="middle" x="2458" y="-1495" font-family="Helvetica,sans-Serif" font-size="10.00"> doTris</text>
<text text-anchor="middle" x="2458" y="-1484" font-family="Helvetica,sans-Serif" font-size="10.00">doQuads</text>
<text text-anchor="middle" x="2458" y="-1473" font-family="Helvetica,sans-Serif" font-size="10.00">sYmm</text>
<text text-anchor="middle" x="2458" y="-1462" font-family="Helvetica,sans-Serif" font-size="10.00">doPrisms</text>
<text text-anchor="middle" x="2458" y="-1451" font-family="Helvetica,sans-Serif" font-size="10.00">doTets</text>
<text text-anchor="middle" x="2458" y="-1440" font-family="Helvetica,sans-Serif" font-size="10.00">doVertices</text>
<text text-anchor="middle" x="2458" y="-1429" font-family="Helvetica,sans-Serif" font-size="10.00">doEdges</text>
</g>
<!-- Node8 -->
<g id="node8" class="node">
<title>Node8</title>
<g id="a_node8"><a xlink:title=" ">
<polygon fill="white" stroke="#bfbfbf" points="2153,-1348.5 2153,-1433.5 2359,-1433.5 2359,-1348.5 2153,-1348.5"/>
<text text-anchor="start" x="2161" y="-1421.5" font-family="Helvetica,sans-Serif" font-size="10.00">function&lt; MoFEMErrorCode</text>
<text text-anchor="start" x="2161" y="-1410.5" font-family="Helvetica,sans-Serif" font-size="10.00">(DataOperator *op_ptr,</text>
<text text-anchor="start" x="2161" y="-1399.5" font-family="Helvetica,sans-Serif" font-size="10.00"> int row_side, int col_side,</text>
<text text-anchor="start" x="2161" y="-1388.5" font-family="Helvetica,sans-Serif" font-size="10.00"> EntityType row_type, EntityType</text>
<text text-anchor="start" x="2161" y="-1377.5" font-family="Helvetica,sans-Serif" font-size="10.00"> col_type, EntitiesFieldData::EntData</text>
<text text-anchor="start" x="2161" y="-1366.5" font-family="Helvetica,sans-Serif" font-size="10.00"> &amp;row_data, EntitiesFieldData::EntData</text>
<text text-anchor="middle" x="2256" y="-1355.5" font-family="Helvetica,sans-Serif" font-size="10.00"> &amp;col_data)&gt;</text>
</a>
</g>
</g>
<!-- Node8&#45;&gt;Node5 -->
<g id="edge7" class="edge">
<title>Node8&#45;&gt;Node5</title>
<path fill="none" stroke="#9a32cd" stroke-dasharray="5,2" d="M2369.22,-1387C2421,-1386.29 2483.23,-1387.02 2539,-1392 2558.07,-1393.7 2578.93,-1397.11 2596.79,-1400.5"/>
<polygon fill="#9a32cd" stroke="#9a32cd" points="2368.95,-1383.51 2359.01,-1387.17 2369.06,-1390.51 2368.95,-1383.51"/>
<text text-anchor="middle" x="2458" y="-1395" font-family="Helvetica,sans-Serif" font-size="10.00"> doWorkLhsHook</text>
</g>
<!-- Node9 -->
<g id="node9" class="node">
<title>Node9</title>
<g id="a_node9"><a xlink:title=" ">
<polygon fill="white" stroke="#bfbfbf" points="2179,-1570.5 2179,-1589.5 2333,-1589.5 2333,-1570.5 2179,-1570.5"/>
<text text-anchor="middle" x="2256" y="-1577.5" font-family="Helvetica,sans-Serif" font-size="10.00">array&lt; bool, MBMAXTYPE &gt;</text>
</a>
</g>
</g>
<!-- Node9&#45;&gt;Node5 -->
<g id="edge8" class="edge">
<title>Node9&#45;&gt;Node5</title>
<path fill="none" stroke="#9a32cd" stroke-dasharray="5,2" d="M2301.77,-1591.78C2363.77,-1605.13 2475.31,-1617.93 2539,-1558 2581.16,-1518.33 2517.82,-1471.61 2557,-1429 2563.07,-1422.4 2570.91,-1417.84 2579.36,-1414.75"/>
<polygon fill="#9a32cd" stroke="#9a32cd" points="2302.41,-1588.34 2291.89,-1589.56 2300.88,-1595.17 2302.41,-1588.34"/>
<text text-anchor="middle" x="2458" y="-1605" font-family="Helvetica,sans-Serif" font-size="10.00"> doEntities</text>
</g>
<!-- Node10 -->
<g id="node10" class="node">
<title>Node10</title>
<g id="a_node10"><a xlink:title=" ">
<polygon fill="white" stroke="#bfbfbf" points="2607.5,-1348.5 2607.5,-1367.5 2676.5,-1367.5 2676.5,-1348.5 2607.5,-1348.5"/>
<text text-anchor="middle" x="2642" y="-1355.5" font-family="Helvetica,sans-Serif" font-size="10.00">FieldSpace</text>
</a>
</g>
</g>
<!-- Node10&#45;&gt;Node4 -->
<g id="edge9" class="edge">
<title>Node10&#45;&gt;Node4</title>
<path fill="none" stroke="#9a32cd" stroke-dasharray="5,2" d="M2686.8,-1352.04C2722.41,-1347.19 2773.95,-1340.16 2819,-1334 2824.84,-1333.2 2830.88,-1332.37 2836.95,-1331.54"/>
<polygon fill="#9a32cd" stroke="#9a32cd" points="2686.18,-1348.59 2676.74,-1353.41 2687.12,-1355.53 2686.18,-1348.59"/>
<text text-anchor="middle" x="2782" y="-1346" font-family="Helvetica,sans-Serif" font-size="10.00"> sPace</text>
</g>
<!-- Node11 -->
<g id="node11" class="node">
<title>Node11</title>
<g id="a_node11"><a xlink:title=" ">
<polygon fill="white" stroke="#bfbfbf" points="1122.5,-1306.5 1122.5,-1325.5 1160.5,-1325.5 1160.5,-1306.5 1122.5,-1306.5"/>
<text text-anchor="middle" x="1141.5" y="-1313.5" font-family="Helvetica,sans-Serif" font-size="10.00">char</text>
</a>
</g>
</g>
<!-- Node11&#45;&gt;Node4 -->
<g id="edge10" class="edge">
<title>Node11&#45;&gt;Node4</title>
<path fill="none" stroke="#9a32cd" stroke-dasharray="5,2" d="M1170.82,-1316.54C1230.98,-1317.63 1375.94,-1320 1497.5,-1320 1497.5,-1320 1497.5,-1320 2643,-1320 2708.04,-1320 2781.63,-1320 2836.75,-1320"/>
<polygon fill="#9a32cd" stroke="#9a32cd" points="1170.66,-1313.03 1160.6,-1316.35 1170.54,-1320.03 1170.66,-1313.03"/>
<text text-anchor="middle" x="2063" y="-1323" font-family="Helvetica,sans-Serif" font-size="10.00"> opType</text>
</g>
<!-- Node39 -->
<g id="node39" class="node">
<title>Node39</title>
<g id="a_node39"><a xlink:href="structMoFEM_1_1Problem.html" target="_top" xlink:title="keeps basic data about problem">
<polygon fill="white" stroke="black" points="1449,-1050.5 1449,-1069.5 1548,-1069.5 1548,-1050.5 1449,-1050.5"/>
<text text-anchor="middle" x="1498.5" y="-1057.5" font-family="Helvetica,sans-Serif" font-size="10.00">MoFEM::Problem</text>
</a>
</g>
</g>
<!-- Node11&#45;&gt;Node39 -->
<g id="edge54" class="edge">
<title>Node11&#45;&gt;Node39</title>
<path fill="none" stroke="#9a32cd" stroke-dasharray="5,2" d="M1170.41,-1310.99C1194.41,-1306.7 1229.98,-1300.37 1261,-1295 1321.4,-1284.54 1348.12,-1308.99 1397,-1272 1467.48,-1218.66 1490.69,-1103.42 1496.12,-1069.55"/>
<polygon fill="#9a32cd" stroke="#9a32cd" points="1169.79,-1307.55 1160.56,-1312.75 1171.02,-1314.44 1169.79,-1307.55"/>
<text text-anchor="middle" x="1329" y="-1298" font-family="Helvetica,sans-Serif" font-size="10.00"> tagName</text>
</g>
<!-- Node12 -->
<g id="node12" class="node">
<title>Node12</title>
<g id="a_node12"><a xlink:href="structMoFEM_1_1ForcesAndSourcesCore.html" target="_top" xlink:title="structure to get information form mofem into EntitiesFieldData">
<polygon fill="white" stroke="black" points="2557,-499.5 2557,-518.5 2727,-518.5 2727,-499.5 2557,-499.5"/>
<text text-anchor="middle" x="2642" y="-506.5" font-family="Helvetica,sans-Serif" font-size="10.00">MoFEM::ForcesAndSourcesCore</text>
</a>
</g>
</g>
<!-- Node12&#45;&gt;Node4 -->
<g id="edge11" class="edge">
<title>Node12&#45;&gt;Node4</title>
<path fill="none" stroke="#9a32cd" stroke-dasharray="5,2" d="M2649.62,-528.32C2688.01,-640.32 2881.45,-1204.62 2915.78,-1304.79"/>
<polygon fill="#9a32cd" stroke="#9a32cd" points="2652.87,-527 2646.32,-518.67 2646.25,-529.27 2652.87,-527"/>
<text text-anchor="middle" x="2782" y="-1013" font-family="Helvetica,sans-Serif" font-size="10.00"> ptrFE</text>
</g>
<!-- Node12&#45;&gt;Node12 -->
<g id="edge69" class="edge">
<title>Node12&#45;&gt;Node12</title>
<path fill="none" stroke="#9a32cd" stroke-dasharray="5,2" d="M2615.96,-528.03C2617.38,-533.13 2626.06,-537 2642,-537 2666.88,-537 2674.08,-527.57 2663.58,-518.76"/>
<polygon fill="#9a32cd" stroke="#9a32cd" points="2619.24,-529.29 2620.42,-518.76 2612.93,-526.25 2619.24,-529.29"/>
<text text-anchor="middle" x="2642" y="-551" font-family="Helvetica,sans-Serif" font-size="10.00"> sidePtrFE</text>
<text text-anchor="middle" x="2642" y="-540" font-family="Helvetica,sans-Serif" font-size="10.00">refinePtrFE</text>
</g>
<!-- Node13 -->
<g id="node13" class="node">
<title>Node13</title>
<g id="a_node13"><a xlink:href="structMoFEM_1_1FEMethod.html" target="_top" xlink:title="structure for User Loop Methods on finite elements">
<polygon fill="white" stroke="black" points="2202.5,-480.5 2202.5,-499.5 2309.5,-499.5 2309.5,-480.5 2202.5,-480.5"/>
<text text-anchor="middle" x="2256" y="-487.5" font-family="Helvetica,sans-Serif" font-size="10.00">MoFEM::FEMethod</text>
</a>
</g>
</g>
<!-- Node13&#45;&gt;Node12 -->
<g id="edge12" class="edge">
<title>Node13&#45;&gt;Node12</title>
<path fill="none" stroke="midnightblue" d="M2319.62,-493.1C2384.15,-496.29 2485.15,-501.29 2556.68,-504.83"/>
<polygon fill="midnightblue" stroke="midnightblue" points="2319.75,-489.6 2309.59,-492.6 2319.4,-496.59 2319.75,-489.6"/>
</g>
<!-- Node14 -->
<g id="node14" class="node">
<title>Node14</title>
<g id="a_node14"><a xlink:href="structMoFEM_1_1BasicMethod.html" target="_top" xlink:title="Data structure to exchange data between mofem and User Loop Methods.">
<polygon fill="white" stroke="black" points="1825,-506.5 1825,-525.5 1947,-525.5 1947,-506.5 1825,-506.5"/>
<text text-anchor="middle" x="1886" y="-513.5" font-family="Helvetica,sans-Serif" font-size="10.00">MoFEM::BasicMethod</text>
</a>
</g>
</g>
<!-- Node14&#45;&gt;Node13 -->
<g id="edge13" class="edge">
<title>Node14&#45;&gt;Node13</title>
<path fill="none" stroke="midnightblue" d="M1957.63,-511.01C2029.14,-505.96 2138.1,-498.26 2202.37,-493.72"/>
<polygon fill="midnightblue" stroke="midnightblue" points="1957.08,-507.54 1947.36,-511.74 1957.58,-514.52 1957.08,-507.54"/>
</g>
<!-- Node15 -->
<g id="node15" class="node">
<title>Node15</title>
<g id="a_node15"><a xlink:href="structMoFEM_1_1KspMethod.html" target="_top" xlink:title="data structure for ksp (linear solver) context">
<polygon fill="white" stroke="black" points="1442,-424.5 1442,-443.5 1555,-443.5 1555,-424.5 1442,-424.5"/>
<text text-anchor="middle" x="1498.5" y="-431.5" font-family="Helvetica,sans-Serif" font-size="10.00">MoFEM::KspMethod</text>
</a>
</g>
</g>
<!-- Node15&#45;&gt;Node14 -->
<g id="edge14" class="edge">
<title>Node15&#45;&gt;Node14</title>
<path fill="none" stroke="midnightblue" d="M1554.45,-445.69C1631.29,-462.03 1769.4,-491.41 1840.31,-506.49"/>
<polygon fill="midnightblue" stroke="midnightblue" points="1554.99,-442.22 1544.48,-443.57 1553.53,-449.07 1554.99,-442.22"/>
</g>
<!-- Node16 -->
<g id="node16" class="node">
<title>Node16</title>
<g id="a_node16"><a xlink:href="structMoFEM_1_1PetscData.html" target="_top" xlink:title=" ">
<polygon fill="white" stroke="black" points="1087.5,-551.5 1087.5,-570.5 1195.5,-570.5 1195.5,-551.5 1087.5,-551.5"/>
<text text-anchor="middle" x="1141.5" y="-558.5" font-family="Helvetica,sans-Serif" font-size="10.00">MoFEM::PetscData</text>
</a>
</g>
</g>
<!-- Node16&#45;&gt;Node15 -->
<g id="edge15" class="edge">
<title>Node16&#45;&gt;Node15</title>
<path fill="none" stroke="midnightblue" d="M1198.79,-549.13C1213.32,-545.64 1228.84,-541.53 1243,-537 1331.99,-508.55 1433.9,-463.29 1476.78,-443.63"/>
<polygon fill="midnightblue" stroke="midnightblue" points="1197.87,-545.75 1188.93,-551.44 1199.46,-552.57 1197.87,-545.75"/>
</g>
<!-- Node26 -->
<g id="node26" class="node">
<title>Node26</title>
<g id="a_node26"><a xlink:href="structMoFEM_1_1SnesMethod.html" target="_top" xlink:title="data structure for snes (nonlinear solver) context">
<polygon fill="white" stroke="black" points="1439,-386.5 1439,-405.5 1558,-405.5 1558,-386.5 1439,-386.5"/>
<text text-anchor="middle" x="1498.5" y="-393.5" font-family="Helvetica,sans-Serif" font-size="10.00">MoFEM::SnesMethod</text>
</a>
</g>
</g>
<!-- Node16&#45;&gt;Node26 -->
<g id="edge28" class="edge">
<title>Node16&#45;&gt;Node26</title>
<path fill="none" stroke="darkgreen" d="M1205.56,-556.45C1219.29,-552.78 1232.76,-546.76 1243,-537 1263.77,-517.2 1241.63,-496.17 1261,-475 1306.73,-425.01 1384.93,-406.62 1438.81,-399.87"/>
<polygon fill="darkgreen" stroke="darkgreen" points="1204.53,-553.09 1195.55,-558.72 1206.08,-559.92 1204.53,-553.09"/>
</g>
<!-- Node29 -->
<g id="node29" class="node">
<title>Node29</title>
<g id="a_node29"><a xlink:href="structMoFEM_1_1TSMethod.html" target="_top" xlink:title="data structure for TS (time stepping) context">
<polygon fill="white" stroke="black" points="1445,-604.5 1445,-623.5 1552,-623.5 1552,-604.5 1445,-604.5"/>
<text text-anchor="middle" x="1498.5" y="-611.5" font-family="Helvetica,sans-Serif" font-size="10.00">MoFEM::TSMethod</text>
</a>
</g>
</g>
<!-- Node16&#45;&gt;Node29 -->
<g id="edge34" class="edge">
<title>Node16&#45;&gt;Node29</title>
<path fill="none" stroke="darkgreen" d="M1206.01,-564.65C1257.74,-568.3 1332.5,-575.12 1397,-587 1420.81,-591.38 1447.23,-598.58 1467,-604.44"/>
<polygon fill="darkgreen" stroke="darkgreen" points="1206.2,-561.15 1195.98,-563.96 1205.72,-568.13 1206.2,-561.15"/>
</g>
<!-- Node17 -->
<g id="node17" class="node">
<title>Node17</title>
<g id="a_node17"><a xlink:href="structMoFEM_1_1UnknownInterface.html" target="_top" xlink:title="base class for all interface classes">
<polygon fill="white" stroke="black" points="735,-141.5 735,-160.5 883,-160.5 883,-141.5 735,-141.5"/>
<text text-anchor="middle" x="809" y="-148.5" font-family="Helvetica,sans-Serif" font-size="10.00">MoFEM::UnknownInterface</text>
</a>
</g>
</g>
<!-- Node17&#45;&gt;Node16 -->
<g id="edge16" class="edge">
<title>Node17&#45;&gt;Node16</title>
<path fill="none" stroke="midnightblue" d="M838.49,-165.24C886.03,-190.73 980.44,-249.05 1022,-329 1043.4,-370.17 1009.71,-501.86 1040,-537 1051.77,-550.66 1069.79,-557.29 1087.33,-560.31"/>
<polygon fill="midnightblue" stroke="midnightblue" points="840.11,-162.14 829.63,-160.58 836.85,-168.34 840.11,-162.14"/>
</g>
<!-- Node57 -->
<g id="node57" class="node">
<title>Node57</title>
<g id="a_node57"><a xlink:href="structMoFEM_1_1CoreInterface.html" target="_top" xlink:title="Interface.">
<polygon fill="white" stroke="black" points="1079,-0.5 1079,-19.5 1204,-19.5 1204,-0.5 1079,-0.5"/>
<text text-anchor="middle" x="1141.5" y="-7.5" font-family="Helvetica,sans-Serif" font-size="10.00">MoFEM::CoreInterface</text>
</a>
</g>
</g>
<!-- Node17&#45;&gt;Node57 -->
<g id="edge68" class="edge">
<title>Node17&#45;&gt;Node57</title>
<path fill="none" stroke="midnightblue" d="M893.45,-154.52C943.79,-154.95 1001.95,-151.89 1022,-137 1040.29,-123.41 1026.55,-107.39 1040,-89 1062.8,-57.84 1101.04,-32.54 1123.19,-19.53"/>
<polygon fill="midnightblue" stroke="midnightblue" points="893.22,-151.02 883.17,-154.39 893.12,-158.02 893.22,-151.02"/>
</g>
<!-- Node18 -->
<g id="node18" class="node">
<title>Node18</title>
<g id="a_node18"><a xlink:title=" ">
<polygon fill="white" stroke="#bfbfbf" points="386,-93.5 386,-156.5 627,-156.5 627,-93.5 386,-93.5"/>
<text text-anchor="start" x="394" y="-144.5" font-family="Helvetica,sans-Serif" font-size="10.00">multi_index_container</text>
<text text-anchor="start" x="394" y="-133.5" font-family="Helvetica,sans-Serif" font-size="10.00">&lt; UIdTypeMap, indexed</text>
<text text-anchor="start" x="394" y="-122.5" font-family="Helvetica,sans-Serif" font-size="10.00">_by&lt; hashed_unique&lt; member</text>
<text text-anchor="start" x="394" y="-111.5" font-family="Helvetica,sans-Serif" font-size="10.00">&lt; UIdTypeMap, boost::typeindex</text>
<text text-anchor="middle" x="506.5" y="-100.5" font-family="Helvetica,sans-Serif" font-size="10.00">::type_index, &amp;UIdTypeMap::classIdx &gt; &gt; &gt; &gt;</text>
</a>
</g>
</g>
<!-- Node18&#45;&gt;Node17 -->
<g id="edge17" class="edge">
<title>Node18&#45;&gt;Node17</title>
<path fill="none" stroke="#9a32cd" stroke-dasharray="5,2" d="M637.41,-136.24C670.69,-139.12 705.33,-142.12 734.62,-144.65"/>
<polygon fill="#9a32cd" stroke="#9a32cd" points="637.39,-132.73 627.13,-135.35 636.79,-139.7 637.39,-132.73"/>
<text text-anchor="middle" x="681" y="-146" font-family="Helvetica,sans-Serif" font-size="10.00"> iFaceTypeMap</text>
</g>
<!-- Node19 -->
<g id="node19" class="node">
<title>Node19</title>
<g id="a_node19"><a xlink:title=" ">
<polygon fill="white" stroke="#bfbfbf" points="0,-54.5 0,-73.5 125,-73.5 125,-54.5 0,-54.5"/>
<text text-anchor="middle" x="62.5" y="-61.5" font-family="Helvetica,sans-Serif" font-size="10.00">multi_index_container</text>
</a>
</g>
</g>
<!-- Node19&#45;&gt;Node14 -->
<g id="edge41" class="edge">
<title>Node19&#45;&gt;Node14</title>
<path fill="none" stroke="#9a32cd" stroke-dasharray="5,2" d="M135.41,-59.8C222.85,-55.06 374.95,-48 505.5,-48 505.5,-48 505.5,-48 1499.5,-48 1651.19,-48 1705.63,-109.36 1781,-241 1809.34,-290.49 1761.75,-453.82 1799,-497 1805.79,-504.87 1815.04,-509.9 1824.97,-513.05"/>
<polygon fill="#9a32cd" stroke="#9a32cd" points="135.12,-56.31 125.33,-60.35 135.51,-63.3 135.12,-56.31"/>
<text text-anchor="middle" x="961.5" y="-128" font-family="Helvetica,sans-Serif" font-size="10.00"> adjacenciesPtr</text>
<text text-anchor="middle" x="961.5" y="-117" font-family="Helvetica,sans-Serif" font-size="10.00">refinedEntitiesPtr</text>
<text text-anchor="middle" x="961.5" y="-106" font-family="Helvetica,sans-Serif" font-size="10.00">finiteElementsEntitiesPtr</text>
<text text-anchor="middle" x="961.5" y="-95" font-family="Helvetica,sans-Serif" font-size="10.00">dofsPtr</text>
<text text-anchor="middle" x="961.5" y="-84" font-family="Helvetica,sans-Serif" font-size="10.00">entitiesPtr</text>
<text text-anchor="middle" x="961.5" y="-73" font-family="Helvetica,sans-Serif" font-size="10.00">finiteElementsPtr</text>
<text text-anchor="middle" x="961.5" y="-62" font-family="Helvetica,sans-Serif" font-size="10.00">refinedFiniteElementsPtr</text>
<text text-anchor="middle" x="961.5" y="-51" font-family="Helvetica,sans-Serif" font-size="10.00">fieldsPtr</text>
</g>
<!-- Node19&#45;&gt;Node18 -->
<g id="edge18" class="edge">
<title>Node19&#45;&gt;Node18</title>
<path fill="none" stroke="orange" stroke-dasharray="5,2" d="M135.56,-73.95C203.25,-83.29 305.79,-97.44 385.77,-108.48"/>
<polygon fill="orange" stroke="orange" points="135.81,-70.45 125.42,-72.55 134.85,-77.38 135.81,-70.45"/>
<text text-anchor="start" x="143" y="-142" font-family="Helvetica,sans-Serif" font-size="10.00"> &lt; UIdTypeMap, indexed</text>
<text text-anchor="start" x="143" y="-131" font-family="Helvetica,sans-Serif" font-size="10.00">_by&lt; hashed_unique&lt; member</text>
<text text-anchor="start" x="143" y="-120" font-family="Helvetica,sans-Serif" font-size="10.00">&lt; UIdTypeMap, boost::typeindex</text>
<text text-anchor="middle" x="255.5" y="-109" font-family="Helvetica,sans-Serif" font-size="10.00">::type_index, &amp;UIdTypeMap::classIdx &gt; &gt; &gt; &gt;</text>
</g>
<!-- Node20 -->
<g id="node20" class="node">
<title>Node20</title>
<g id="a_node20"><a xlink:title=" ">
<polygon fill="white" stroke="#bfbfbf" points="738.5,-570.5 738.5,-589.5 879.5,-589.5 879.5,-570.5 738.5,-570.5"/>
<text text-anchor="middle" x="809" y="-577.5" font-family="Helvetica,sans-Serif" font-size="10.00">static constexpr Switches</text>
</a>
</g>
</g>
<!-- Node20&#45;&gt;Node16 -->
<g id="edge19" class="edge">
<title>Node20&#45;&gt;Node16</title>
<path fill="none" stroke="#9a32cd" stroke-dasharray="5,2" d="M889.72,-575.42C951.05,-571.89 1034.07,-567.12 1087.47,-564.05"/>
<polygon fill="#9a32cd" stroke="#9a32cd" points="889.47,-571.93 879.69,-575.99 889.87,-578.91 889.47,-571.93"/>
<text text-anchor="middle" x="961.5" y="-654" font-family="Helvetica,sans-Serif" font-size="10.00"> CtxSetX_TT</text>
<text text-anchor="middle" x="961.5" y="-643" font-family="Helvetica,sans-Serif" font-size="10.00">CtxSetX_T</text>
<text text-anchor="middle" x="961.5" y="-632" font-family="Helvetica,sans-Serif" font-size="10.00">CtxSetA</text>
<text text-anchor="middle" x="961.5" y="-621" font-family="Helvetica,sans-Serif" font-size="10.00">CtxSetB</text>
<text text-anchor="middle" x="961.5" y="-610" font-family="Helvetica,sans-Serif" font-size="10.00">CtxSetTime</text>
<text text-anchor="middle" x="961.5" y="-599" font-family="Helvetica,sans-Serif" font-size="10.00">CtxSetNone</text>
<text text-anchor="middle" x="961.5" y="-588" font-family="Helvetica,sans-Serif" font-size="10.00">CtxSetF</text>
<text text-anchor="middle" x="961.5" y="-577" font-family="Helvetica,sans-Serif" font-size="10.00">CtxSetX</text>
</g>
<!-- Node21 -->
<g id="node21" class="node">
<title>Node21</title>
<g id="a_node21"><a xlink:title=" ">
<polygon fill="white" stroke="#bfbfbf" points="791.5,-441.5 791.5,-460.5 826.5,-460.5 826.5,-441.5 791.5,-441.5"/>
<text text-anchor="middle" x="809" y="-448.5" font-family="Helvetica,sans-Serif" font-size="10.00">Mat</text>
</a>
</g>
</g>
<!-- Node21&#45;&gt;Node15 -->
<g id="edge25" class="edge">
<title>Node21&#45;&gt;Node15</title>
<path fill="none" stroke="#9a32cd" stroke-dasharray="5,2" d="M836.92,-450.28C879.87,-449.14 966.53,-446.84 1040,-445 1184.95,-441.37 1355.74,-437.32 1441.86,-435.3"/>
<polygon fill="#9a32cd" stroke="#9a32cd" points="836.64,-446.79 826.74,-450.55 836.83,-453.78 836.64,-446.79"/>
<text text-anchor="middle" x="1141.5" y="-459" font-family="Helvetica,sans-Serif" font-size="10.00"> ksp_A</text>
<text text-anchor="middle" x="1141.5" y="-448" font-family="Helvetica,sans-Serif" font-size="10.00">ksp_B</text>
</g>
<!-- Node21&#45;&gt;Node16 -->
<g id="edge20" class="edge">
<title>Node21&#45;&gt;Node16</title>
<path fill="none" stroke="#9a32cd" stroke-dasharray="5,2" d="M836.67,-455.74C878.46,-464.01 960.92,-483.74 1022,-520 1031.46,-525.62 1030.32,-531.77 1040,-537 1054.52,-544.85 1071.58,-550.16 1087.48,-553.73"/>
<polygon fill="#9a32cd" stroke="#9a32cd" points="837.2,-452.28 826.72,-453.84 835.88,-459.15 837.2,-452.28"/>
<text text-anchor="middle" x="961.5" y="-534" font-family="Helvetica,sans-Serif" font-size="10.00"> A</text>
<text text-anchor="middle" x="961.5" y="-523" font-family="Helvetica,sans-Serif" font-size="10.00">B</text>
</g>
<!-- Node21&#45;&gt;Node26 -->
<g id="edge30" class="edge">
<title>Node21&#45;&gt;Node26</title>
<path fill="none" stroke="#9a32cd" stroke-dasharray="5,2" d="M821.27,-432.98C836.56,-409.95 866.05,-370.42 901,-348 955.32,-313.16 976.16,-315.43 1040,-306 1118.67,-294.37 1335.13,-281.03 1397,-331 1414.08,-344.79 1398.38,-362.66 1415,-377 1421.79,-382.86 1430.02,-387 1438.63,-389.92"/>
<polygon fill="#9a32cd" stroke="#9a32cd" points="818.27,-431.17 815.77,-441.46 824.14,-434.97 818.27,-431.17"/>
<text text-anchor="middle" x="1141.5" y="-320" font-family="Helvetica,sans-Serif" font-size="10.00"> snes_A</text>
<text text-anchor="middle" x="1141.5" y="-309" font-family="Helvetica,sans-Serif" font-size="10.00">snes_B</text>
</g>
<!-- Node21&#45;&gt;Node29 -->
<g id="edge35" class="edge">
<title>Node21&#45;&gt;Node29</title>
<path fill="none" stroke="#9a32cd" stroke-dasharray="5,2" d="M832.61,-466.65C849.48,-479.66 871.52,-499.76 883,-523 911.37,-580.43 857.4,-619.07 901,-666 938.64,-706.51 1345.51,-727.17 1397,-707 1440.83,-689.83 1476.98,-643.59 1491.11,-623.51"/>
<polygon fill="#9a32cd" stroke="#9a32cd" points="834.46,-463.66 824.34,-460.52 830.29,-469.29 834.46,-463.66"/>
<text text-anchor="middle" x="1141.5" y="-727" font-family="Helvetica,sans-Serif" font-size="10.00"> ts_A</text>
<text text-anchor="middle" x="1141.5" y="-716" font-family="Helvetica,sans-Serif" font-size="10.00">ts_B</text>
</g>
<!-- Node22 -->
<g id="node22" class="node">
<title>Node22</title>
<g id="a_node22"><a xlink:title=" ">
<polygon fill="white" stroke="#bfbfbf" points="772.5,-532.5 772.5,-551.5 845.5,-551.5 845.5,-532.5 772.5,-532.5"/>
<text text-anchor="middle" x="809" y="-539.5" font-family="Helvetica,sans-Serif" font-size="10.00">bitset&lt; 8 &gt;</text>
</a>
</g>
</g>
<!-- Node22&#45;&gt;Node16 -->
<g id="edge21" class="edge">
<title>Node22&#45;&gt;Node16</title>
<path fill="none" stroke="#9a32cd" stroke-dasharray="5,2" d="M855.78,-544.17C898.72,-546.25 964.73,-549.58 1022,-553 1043.41,-554.28 1066.98,-555.84 1087.42,-557.24"/>
<polygon fill="#9a32cd" stroke="#9a32cd" points="855.8,-540.67 845.64,-543.68 855.46,-547.66 855.8,-540.67"/>
<text text-anchor="middle" x="961.5" y="-556" font-family="Helvetica,sans-Serif" font-size="10.00"> data_ctx</text>
</g>
<!-- Node23 -->
<g id="node23" class="node">
<title>Node23</title>
<g id="a_node23"><a xlink:title=" ">
<polygon fill="white" stroke="#bfbfbf" points="792,-269.5 792,-288.5 826,-288.5 826,-269.5 792,-269.5"/>
<text text-anchor="middle" x="809" y="-276.5" font-family="Helvetica,sans-Serif" font-size="10.00">Vec</text>
</a>
</g>
</g>
<!-- Node23&#45;&gt;Node15 -->
<g id="edge26" class="edge">
<title>Node23&#45;&gt;Node15</title>
<path fill="none" stroke="#9a32cd" stroke-dasharray="5,2" d="M836.51,-276.3C904.56,-269.99 1090.78,-256.55 1243,-281 1314.05,-292.41 1348.8,-277.57 1397,-331 1422.57,-359.35 1388.21,-387.8 1415,-415 1422.32,-422.44 1431.93,-427.21 1441.99,-430.22"/>
<polygon fill="#9a32cd" stroke="#9a32cd" points="835.89,-272.85 826.27,-277.28 836.56,-279.82 835.89,-272.85"/>
<text text-anchor="middle" x="1141.5" y="-284" font-family="Helvetica,sans-Serif" font-size="10.00"> ksp_f</text>
</g>
<!-- Node23&#45;&gt;Node16 -->
<g id="edge22" class="edge">
<title>Node23&#45;&gt;Node16</title>
<path fill="none" stroke="#9a32cd" stroke-dasharray="5,2" d="M835.04,-292.75C885.91,-321.19 998.53,-386.94 1022,-424 1049.2,-466.97 1005.44,-499.69 1040,-537 1052.13,-550.09 1070.01,-556.64 1087.34,-559.74"/>
<polygon fill="#9a32cd" stroke="#9a32cd" points="836.73,-289.69 826.29,-287.89 833.33,-295.8 836.73,-289.69"/>
<text text-anchor="middle" x="961.5" y="-460" font-family="Helvetica,sans-Serif" font-size="10.00"> f</text>
<text text-anchor="middle" x="961.5" y="-449" font-family="Helvetica,sans-Serif" font-size="10.00">x</text>
<text text-anchor="middle" x="961.5" y="-438" font-family="Helvetica,sans-Serif" font-size="10.00">x_t</text>
<text text-anchor="middle" x="961.5" y="-427" font-family="Helvetica,sans-Serif" font-size="10.00">x_tt</text>
</g>
<!-- Node23&#45;&gt;Node26 -->
<g id="edge31" class="edge">
<title>Node23&#45;&gt;Node26</title>
<path fill="none" stroke="#9a32cd" stroke-dasharray="5,2" d="M832.21,-263.28C871.72,-236.39 957.83,-182.55 1040,-163 1127.77,-142.12 1153.51,-151.57 1243,-163 1313.15,-171.96 1350.91,-149.37 1397,-203 1447.67,-261.97 1363.52,-318.74 1415,-377 1421.33,-384.16 1429.76,-388.91 1438.82,-392.01"/>
<polygon fill="#9a32cd" stroke="#9a32cd" points="829.87,-260.64 823.63,-269.2 833.85,-266.4 829.87,-260.64"/>
<text text-anchor="middle" x="1141.5" y="-177" font-family="Helvetica,sans-Serif" font-size="10.00"> snes_x</text>
<text text-anchor="middle" x="1141.5" y="-166" font-family="Helvetica,sans-Serif" font-size="10.00">snes_f</text>
</g>
<!-- Node23&#45;&gt;Node29 -->
<g id="edge39" class="edge">
<title>Node23&#45;&gt;Node29</title>
<path fill="none" stroke="#9a32cd" stroke-dasharray="5,2" d="M836.39,-281.53C887.54,-286.99 997.33,-301.68 1022,-329 1063.45,-374.91 996.74,-422.79 1040,-467 1071.91,-499.62 1199.16,-485.35 1243,-498 1314.71,-518.7 1329.22,-533.75 1397,-565 1425.56,-578.17 1458.22,-594.29 1478.35,-604.36"/>
<polygon fill="#9a32cd" stroke="#9a32cd" points="836.44,-278.01 826.14,-280.47 835.72,-284.98 836.44,-278.01"/>
<text text-anchor="middle" x="1141.5" y="-534" font-family="Helvetica,sans-Serif" font-size="10.00"> ts_u</text>
<text text-anchor="middle" x="1141.5" y="-523" font-family="Helvetica,sans-Serif" font-size="10.00">ts_F</text>
<text text-anchor="middle" x="1141.5" y="-512" font-family="Helvetica,sans-Serif" font-size="10.00">ts_u_t</text>
<text text-anchor="middle" x="1141.5" y="-501" font-family="Helvetica,sans-Serif" font-size="10.00">ts_u_tt</text>
</g>
<!-- Node24 -->
<g id="node24" class="node">
<title>Node24</title>
<g id="a_node24"><a xlink:title=" ">
<polygon fill="white" stroke="#bfbfbf" points="1124,-375.5 1124,-394.5 1159,-394.5 1159,-375.5 1124,-375.5"/>
<text text-anchor="middle" x="1141.5" y="-382.5" font-family="Helvetica,sans-Serif" font-size="10.00">KSP</text>
</a>
</g>
</g>
<!-- Node24&#45;&gt;Node15 -->
<g id="edge23" class="edge">
<title>Node24&#45;&gt;Node15</title>
<path fill="none" stroke="#9a32cd" stroke-dasharray="5,2" d="M1169.25,-385.53C1215.96,-386.89 1315.19,-391.74 1397,-409 1405.25,-410.74 1406.88,-412.72 1415,-415 1427.03,-418.38 1440.16,-421.61 1452.34,-424.42"/>
<polygon fill="#9a32cd" stroke="#9a32cd" points="1169.16,-382.02 1159.07,-385.26 1168.98,-389.02 1169.16,-382.02"/>
<text text-anchor="middle" x="1329" y="-412" font-family="Helvetica,sans-Serif" font-size="10.00"> ksp</text>
</g>
<!-- Node25 -->
<g id="node25" class="node">
<title>Node25</title>
<g id="a_node25"><a xlink:title=" ">
<polygon fill="white" stroke="#bfbfbf" points="1104.5,-337.5 1104.5,-356.5 1178.5,-356.5 1178.5,-337.5 1104.5,-337.5"/>
<text text-anchor="middle" x="1141.5" y="-344.5" font-family="Helvetica,sans-Serif" font-size="10.00">KSPContext</text>
</a>
</g>
</g>
<!-- Node25&#45;&gt;Node15 -->
<g id="edge24" class="edge">
<title>Node25&#45;&gt;Node15</title>
<path fill="none" stroke="#9a32cd" stroke-dasharray="5,2" d="M1189.09,-339.26C1244.17,-332.78 1336.04,-330.67 1397,-375 1412.77,-386.47 1399.93,-402.63 1415,-415 1422.73,-421.34 1432.17,-425.65 1441.87,-428.57"/>
<polygon fill="#9a32cd" stroke="#9a32cd" points="1188.4,-335.82 1178.92,-340.56 1189.28,-342.76 1188.4,-335.82"/>
<text text-anchor="middle" x="1329" y="-378" font-family="Helvetica,sans-Serif" font-size="10.00"> ksp_ctx</text>
</g>
<!-- Node26&#45;&gt;Node14 -->
<g id="edge27" class="edge">
<title>Node26&#45;&gt;Node14</title>
<path fill="none" stroke="midnightblue" d="M1568.28,-391.84C1630.63,-391.77 1721.6,-401.44 1781,-451 1797.86,-465.07 1782.32,-482.73 1799,-497 1806.44,-503.36 1815.53,-507.73 1824.99,-510.7"/>
<polygon fill="midnightblue" stroke="midnightblue" points="1568.11,-388.34 1558.14,-391.93 1568.17,-395.34 1568.11,-388.34"/>
</g>
<!-- Node27 -->
<g id="node27" class="node">
<title>Node27</title>
<g id="a_node27"><a xlink:title=" ">
<polygon fill="white" stroke="#bfbfbf" points="1120.5,-194.5 1120.5,-213.5 1162.5,-213.5 1162.5,-194.5 1120.5,-194.5"/>
<text text-anchor="middle" x="1141.5" y="-201.5" font-family="Helvetica,sans-Serif" font-size="10.00">SNES</text>
</a>
</g>
</g>
<!-- Node27&#45;&gt;Node26 -->
<g id="edge29" class="edge">
<title>Node27&#45;&gt;Node26</title>
<path fill="none" stroke="#9a32cd" stroke-dasharray="5,2" d="M1172.92,-201.57C1226.71,-199.1 1338.46,-202.5 1397,-266 1430.88,-302.74 1380.84,-340.52 1415,-377 1421.43,-383.87 1429.8,-388.49 1438.74,-391.56"/>
<polygon fill="#9a32cd" stroke="#9a32cd" points="1172.45,-198.09 1162.66,-202.14 1172.84,-205.08 1172.45,-198.09"/>
<text text-anchor="middle" x="1329" y="-269" font-family="Helvetica,sans-Serif" font-size="10.00"> snes</text>
</g>
<!-- Node28 -->
<g id="node28" class="node">
<title>Node28</title>
<g id="a_node28"><a xlink:title=" ">
<polygon fill="white" stroke="#bfbfbf" points="1101.5,-98.5 1101.5,-117.5 1181.5,-117.5 1181.5,-98.5 1101.5,-98.5"/>
<text text-anchor="middle" x="1141.5" y="-105.5" font-family="Helvetica,sans-Serif" font-size="10.00">SNESContext</text>
</a>
</g>
</g>
<!-- Node28&#45;&gt;Node26 -->
<g id="edge32" class="edge">
<title>Node28&#45;&gt;Node26</title>
<path fill="none" stroke="#9a32cd" stroke-dasharray="5,2" d="M1187.35,-96.22C1244.6,-84.19 1342.71,-74.17 1397,-129 1435.88,-168.26 1379.05,-335.04 1415,-377 1421.22,-384.25 1429.59,-389.05 1438.64,-392.17"/>
<polygon fill="#9a32cd" stroke="#9a32cd" points="1186.51,-92.82 1177.5,-98.4 1188.02,-99.66 1186.51,-92.82"/>
<text text-anchor="middle" x="1329" y="-132" font-family="Helvetica,sans-Serif" font-size="10.00"> snes_ctx</text>
</g>
<!-- Node29&#45;&gt;Node14 -->
<g id="edge33" class="edge">
<title>Node29&#45;&gt;Node14</title>
<path fill="none" stroke="midnightblue" d="M1544.6,-601.86C1603.14,-586.19 1708.5,-558.3 1799,-536 1813.29,-532.48 1828.95,-528.79 1842.96,-525.55"/>
<polygon fill="midnightblue" stroke="midnightblue" points="1543.68,-598.48 1534.92,-604.45 1545.49,-605.25 1543.68,-598.48"/>
</g>
<!-- Node30 -->
<g id="node30" class="node">
<title>Node30</title>
<g id="a_node30"><a xlink:title=" ">
<polygon fill="white" stroke="#bfbfbf" points="1109,-665.5 1109,-684.5 1174,-684.5 1174,-665.5 1109,-665.5"/>
<text text-anchor="middle" x="1141.5" y="-672.5" font-family="Helvetica,sans-Serif" font-size="10.00">PetscReal</text>
</a>
</g>
</g>
<!-- Node30&#45;&gt;Node29 -->
<g id="edge36" class="edge">
<title>Node30&#45;&gt;Node29</title>
<path fill="none" stroke="#9a32cd" stroke-dasharray="5,2" d="M1184.26,-670.77C1234.88,-665.29 1322.65,-654.68 1397,-640 1419.81,-635.5 1445.15,-628.93 1464.68,-623.52"/>
<polygon fill="#9a32cd" stroke="#9a32cd" points="1183.61,-667.32 1174.04,-671.86 1184.35,-674.28 1183.61,-667.32"/>
<text text-anchor="middle" x="1329" y="-697" font-family="Helvetica,sans-Serif" font-size="10.00"> ts_a</text>
<text text-anchor="middle" x="1329" y="-686" font-family="Helvetica,sans-Serif" font-size="10.00">ts_t</text>
<text text-anchor="middle" x="1329" y="-675" font-family="Helvetica,sans-Serif" font-size="10.00">ts_dt</text>
<text text-anchor="middle" x="1329" y="-664" font-family="Helvetica,sans-Serif" font-size="10.00">ts_aa</text>
</g>
<!-- Node31 -->
<g id="node31" class="node">
<title>Node31</title>
<g id="a_node31"><a xlink:title=" ">
<polygon fill="white" stroke="#bfbfbf" points="1108,-627.5 1108,-646.5 1175,-646.5 1175,-627.5 1108,-627.5"/>
<text text-anchor="middle" x="1141.5" y="-634.5" font-family="Helvetica,sans-Serif" font-size="10.00">TSContext</text>
</a>
</g>
</g>
<!-- Node31&#45;&gt;Node29 -->
<g id="edge37" class="edge">
<title>Node31&#45;&gt;Node29</title>
<path fill="none" stroke="#9a32cd" stroke-dasharray="5,2" d="M1185.43,-634.06C1207.94,-632.53 1235.95,-630.64 1261,-629 1324.22,-624.86 1396.96,-620.27 1444.89,-617.28"/>
<polygon fill="#9a32cd" stroke="#9a32cd" points="1184.93,-630.59 1175.19,-634.76 1185.41,-637.57 1184.93,-630.59"/>
<text text-anchor="middle" x="1329" y="-632" font-family="Helvetica,sans-Serif" font-size="10.00"> ts_ctx</text>
</g>
<!-- Node32 -->
<g id="node32" class="node">
<title>Node32</title>
<g id="a_node32"><a xlink:title=" ">
<polygon fill="white" stroke="#bfbfbf" points="1113.5,-589.5 1113.5,-608.5 1169.5,-608.5 1169.5,-589.5 1113.5,-589.5"/>
<text text-anchor="middle" x="1141.5" y="-596.5" font-family="Helvetica,sans-Serif" font-size="10.00">PetscInt</text>
</a>
</g>
</g>
<!-- Node32&#45;&gt;Node29 -->
<g id="edge38" class="edge">
<title>Node32&#45;&gt;Node29</title>
<path fill="none" stroke="#9a32cd" stroke-dasharray="5,2" d="M1179.96,-595.87C1229.68,-592.29 1320.15,-587.8 1397,-595 1416.8,-596.86 1438.51,-600.72 1456.67,-604.49"/>
<polygon fill="#9a32cd" stroke="#9a32cd" points="1179.41,-592.4 1169.69,-596.63 1179.93,-599.38 1179.41,-592.4"/>
<text text-anchor="middle" x="1329" y="-598" font-family="Helvetica,sans-Serif" font-size="10.00"> ts_step</text>
</g>
<!-- Node33 -->
<g id="node33" class="node">
<title>Node33</title>
<g id="a_node33"><a xlink:title=" ">
<polygon fill="white" stroke="#bfbfbf" points="1127,-761.5 1127,-780.5 1156,-780.5 1156,-761.5 1127,-761.5"/>
<text text-anchor="middle" x="1141.5" y="-768.5" font-family="Helvetica,sans-Serif" font-size="10.00">TS</text>
</a>
</g>
</g>
<!-- Node33&#45;&gt;Node29 -->
<g id="edge40" class="edge">
<title>Node33&#45;&gt;Node29</title>
<path fill="none" stroke="#9a32cd" stroke-dasharray="5,2" d="M1166.53,-767.78C1228.02,-759.48 1386.94,-737.61 1397,-732 1444.71,-705.4 1479.95,-646.79 1492.5,-623.66"/>
<polygon fill="#9a32cd" stroke="#9a32cd" points="1165.69,-764.36 1156.24,-769.16 1166.62,-771.3 1165.69,-764.36"/>
<text text-anchor="middle" x="1329" y="-757" font-family="Helvetica,sans-Serif" font-size="10.00"> ts</text>
</g>
<!-- Node34 -->
<g id="node34" class="node">
<title>Node34</title>
<g id="a_node34"><a xlink:title=" ">
<polygon fill="white" stroke="#bfbfbf" points="1454,-348.5 1454,-367.5 1543,-367.5 1543,-348.5 1454,-348.5"/>
<text text-anchor="middle" x="1498.5" y="-355.5" font-family="Helvetica,sans-Serif" font-size="10.00">pair&lt; int, int &gt;</text>
</a>
</g>
</g>
<!-- Node34&#45;&gt;Node14 -->
<g id="edge42" class="edge">
<title>Node34&#45;&gt;Node14</title>
<path fill="none" stroke="#9a32cd" stroke-dasharray="5,2" d="M1553.34,-353.97C1625.71,-349.8 1748.99,-347.5 1781,-377 1820.66,-413.55 1762.19,-457.58 1799,-497 1805.89,-504.38 1814.94,-509.21 1824.58,-512.33"/>
<polygon fill="#9a32cd" stroke="#9a32cd" points="1552.82,-350.5 1543.05,-354.6 1553.24,-357.48 1552.82,-350.5"/>
<text text-anchor="middle" x="1690.5" y="-380" font-family="Helvetica,sans-Serif" font-size="10.00"> loHiFERank</text>
</g>
<!-- Node35 -->
<g id="node35" class="node">
<title>Node35</title>
<g id="a_node35"><a xlink:title=" ">
<polygon fill="white" stroke="#bfbfbf" points="1428.5,-310.5 1428.5,-329.5 1568.5,-329.5 1568.5,-310.5 1428.5,-310.5"/>
<text text-anchor="middle" x="1498.5" y="-317.5" font-family="Helvetica,sans-Serif" font-size="10.00">weak_ptr&lt; CacheTuple &gt;</text>
</a>
</g>
</g>
<!-- Node35&#45;&gt;Node14 -->
<g id="edge43" class="edge">
<title>Node35&#45;&gt;Node14</title>
<path fill="none" stroke="#9a32cd" stroke-dasharray="5,2" d="M1578.91,-313.57C1651.88,-309.55 1752.87,-309.36 1781,-336 1807.14,-360.75 1774.93,-470.23 1799,-497 1805.85,-504.62 1815,-509.55 1824.79,-512.68"/>
<polygon fill="#9a32cd" stroke="#9a32cd" points="1578.59,-310.09 1568.81,-314.16 1578.99,-317.07 1578.59,-310.09"/>
<text text-anchor="middle" x="1690.5" y="-339" font-family="Helvetica,sans-Serif" font-size="10.00"> cacheWeakPtr</text>
</g>
<!-- Node36 -->
<g id="node36" class="node">
<title>Node36</title>
<g id="a_node36"><a xlink:title=" ">
<polygon fill="white" stroke="#bfbfbf" points="1442.5,-267.5 1442.5,-286.5 1554.5,-286.5 1554.5,-267.5 1442.5,-267.5"/>
<text text-anchor="middle" x="1498.5" y="-274.5" font-family="Helvetica,sans-Serif" font-size="10.00">unique_ptr&lt; bool &gt;</text>
</a>
</g>
</g>
<!-- Node36&#45;&gt;Node14 -->
<g id="edge44" class="edge">
<title>Node36&#45;&gt;Node14</title>
<path fill="none" stroke="#9a32cd" stroke-dasharray="5,2" d="M1536.55,-264.38C1596.57,-246.55 1715,-222.62 1781,-285 1815.36,-317.48 1767.86,-461.42 1799,-497 1805.75,-504.71 1814.85,-509.68 1824.62,-512.83"/>
<polygon fill="#9a32cd" stroke="#9a32cd" points="1535.27,-261.12 1526.74,-267.4 1537.32,-267.81 1535.27,-261.12"/>
<text text-anchor="middle" x="1690.5" y="-299" font-family="Helvetica,sans-Serif" font-size="10.00"> matAssembleSwitch</text>
<text text-anchor="middle" x="1690.5" y="-288" font-family="Helvetica,sans-Serif" font-size="10.00">vecAssembleSwitch</text>
</g>
<!-- Node37 -->
<g id="node37" class="node">
<title>Node37</title>
<g id="a_node37"><a xlink:title=" ">
<polygon fill="white" stroke="#bfbfbf" points="1127,-801.5 1127,-820.5 1156,-820.5 1156,-801.5 1127,-801.5"/>
<text text-anchor="middle" x="1141.5" y="-808.5" font-family="Helvetica,sans-Serif" font-size="10.00">int</text>
</a>
</g>
</g>
<!-- Node37&#45;&gt;Node14 -->
<g id="edge45" class="edge">
<title>Node37&#45;&gt;Node14</title>
<path fill="none" stroke="#9a32cd" stroke-dasharray="5,2" d="M1166.26,-807.67C1220.89,-799.89 1354.01,-780.06 1397,-766 1577.79,-706.85 1649.47,-714.41 1781,-577 1794.76,-562.62 1783.69,-548.71 1799,-536 1806.43,-529.83 1815.41,-525.49 1824.73,-522.45"/>
<polygon fill="#9a32cd" stroke="#9a32cd" points="1165.55,-804.24 1156.14,-809.11 1166.54,-811.17 1165.55,-804.24"/>
<text text-anchor="middle" x="1498.5" y="-794" font-family="Helvetica,sans-Serif" font-size="10.00"> sIze</text>
<text text-anchor="middle" x="1498.5" y="-783" font-family="Helvetica,sans-Serif" font-size="10.00">loopSize</text>
<text text-anchor="middle" x="1498.5" y="-772" font-family="Helvetica,sans-Serif" font-size="10.00">nInTheLoop</text>
<text text-anchor="middle" x="1498.5" y="-761" font-family="Helvetica,sans-Serif" font-size="10.00">rAnk</text>
</g>
<!-- Node37&#45;&gt;Node39 -->
<g id="edge57" class="edge">
<title>Node37&#45;&gt;Node39</title>
<path fill="none" stroke="#9a32cd" stroke-dasharray="5,2" d="M1166.11,-807.55C1222.12,-799.91 1361.03,-784.23 1397,-811 1419.34,-827.62 1405.41,-844.86 1415,-871 1440.76,-941.25 1479.45,-1022.77 1492.78,-1050.33"/>
<polygon fill="#9a32cd" stroke="#9a32cd" points="1165.48,-804.11 1156.07,-808.96 1166.46,-811.04 1165.48,-804.11"/>
<text text-anchor="middle" x="1329" y="-880" font-family="Helvetica,sans-Serif" font-size="10.00"> tagNameSize</text>
<text text-anchor="middle" x="1329" y="-869" font-family="Helvetica,sans-Serif" font-size="10.00">nbDofsRow</text>
<text text-anchor="middle" x="1329" y="-858" font-family="Helvetica,sans-Serif" font-size="10.00">nbLocDofsCol</text>
<text text-anchor="middle" x="1329" y="-847" font-family="Helvetica,sans-Serif" font-size="10.00">nbDofsCol</text>
<text text-anchor="middle" x="1329" y="-836" font-family="Helvetica,sans-Serif" font-size="10.00">nbGhostDofsRow</text>
<text text-anchor="middle" x="1329" y="-825" font-family="Helvetica,sans-Serif" font-size="10.00">nbGhostDofsCol</text>
<text text-anchor="middle" x="1329" y="-814" font-family="Helvetica,sans-Serif" font-size="10.00">nbLocDofsRow</text>
</g>
<!-- Node38 -->
<g id="node38" class="node">
<title>Node38</title>
<g id="a_node38"><a xlink:title=" ">
<polygon fill="white" stroke="#bfbfbf" points="1415,-842.5 1415,-861.5 1582,-861.5 1582,-842.5 1415,-842.5"/>
<text text-anchor="middle" x="1498.5" y="-849.5" font-family="Helvetica,sans-Serif" font-size="10.00">function&lt; MoFEMErrorCode()&gt;</text>
</a>
</g>
</g>
<!-- Node38&#45;&gt;Node14 -->
<g id="edge46" class="edge">
<title>Node38&#45;&gt;Node14</title>
<path fill="none" stroke="#9a32cd" stroke-dasharray="5,2" d="M1592.56,-859.45C1655.45,-858.95 1735.1,-846.48 1781,-794 1818.84,-750.74 1761.71,-579.74 1799,-536 1805.76,-528.07 1815,-522.94 1824.92,-519.68"/>
<polygon fill="#9a32cd" stroke="#9a32cd" points="1592.23,-855.95 1582.22,-859.43 1592.22,-862.95 1592.23,-855.95"/>
<text text-anchor="middle" x="1690.5" y="-884" font-family="Helvetica,sans-Serif" font-size="10.00"> preProcessHook</text>
<text text-anchor="middle" x="1690.5" y="-873" font-family="Helvetica,sans-Serif" font-size="10.00">operatorHook</text>
<text text-anchor="middle" x="1690.5" y="-862" font-family="Helvetica,sans-Serif" font-size="10.00">postProcessHook</text>
</g>
<!-- Node39&#45;&gt;Node14 -->
<g id="edge47" class="edge">
<title>Node39&#45;&gt;Node14</title>
<path fill="none" stroke="#9a32cd" stroke-dasharray="5,2" d="M1547.28,-1047.59C1612.88,-1027.75 1728.64,-982.06 1781,-896 1801.82,-861.79 1773.32,-566.73 1799,-536 1805.68,-528 1814.89,-522.84 1824.79,-519.58"/>
<polygon fill="#9a32cd" stroke="#9a32cd" points="1546.2,-1044.26 1537.59,-1050.45 1548.17,-1050.98 1546.2,-1044.26"/>
<text text-anchor="middle" x="1690.5" y="-1030" font-family="Helvetica,sans-Serif" font-size="10.00"> problemPtr</text>
</g>
<!-- Node40 -->
<g id="node40" class="node">
<title>Node40</title>
<g id="a_node40"><a xlink:title=" ">
<polygon fill="white" stroke="#bfbfbf" points="1058,-875 1058,-905 1225,-905 1225,-875 1058,-875"/>
<text text-anchor="start" x="1066" y="-893" font-family="Helvetica,sans-Serif" font-size="10.00">shared_ptr&lt; NumeredEntFinite</text>
<text text-anchor="middle" x="1141.5" y="-882" font-family="Helvetica,sans-Serif" font-size="10.00">Element_multiIndex &gt;</text>
</a>
</g>
</g>
<!-- Node40&#45;&gt;Node39 -->
<g id="edge48" class="edge">
<title>Node40&#45;&gt;Node39</title>
<path fill="none" stroke="#9a32cd" stroke-dasharray="5,2" d="M1235.14,-891.46C1296.39,-893.92 1370.16,-900.22 1397,-916 1451.92,-948.3 1484.15,-1023.84 1494.14,-1050.49"/>
<polygon fill="#9a32cd" stroke="#9a32cd" points="1235.17,-887.96 1225.04,-891.08 1234.9,-894.95 1235.17,-887.96"/>
<text text-anchor="middle" x="1329" y="-919" font-family="Helvetica,sans-Serif" font-size="10.00"> numeredFiniteElementsPtr</text>
</g>
<!-- Node41 -->
<g id="node41" class="node">
<title>Node41</title>
<g id="a_node41"><a xlink:title=" ">
<polygon fill="white" stroke="#bfbfbf" points="1112,-1264.5 1112,-1283.5 1171,-1283.5 1171,-1264.5 1112,-1264.5"/>
<text text-anchor="middle" x="1141.5" y="-1271.5" font-family="Helvetica,sans-Serif" font-size="10.00">BitFEId *</text>
</a>
</g>
</g>
<!-- Node41&#45;&gt;Node39 -->
<g id="edge49" class="edge">
<title>Node41&#45;&gt;Node39</title>
<path fill="none" stroke="#9a32cd" stroke-dasharray="5,2" d="M1181.49,-1269.4C1250.59,-1261.12 1388.19,-1244.01 1397,-1238 1459.44,-1195.4 1487.55,-1100.46 1495.23,-1069.77"/>
<polygon fill="#9a32cd" stroke="#9a32cd" points="1180.93,-1265.94 1171.41,-1270.6 1181.76,-1272.89 1180.93,-1265.94"/>
<text text-anchor="middle" x="1329" y="-1262" font-family="Helvetica,sans-Serif" font-size="10.00"> tagBitFEId</text>
</g>
<!-- Node42 -->
<g id="node42" class="node">
<title>Node42</title>
<g id="a_node42"><a xlink:href="classEntityHandle.html" target="_top" xlink:title=" ">
<polygon fill="white" stroke="black" points="1101.5,-1226.5 1101.5,-1245.5 1181.5,-1245.5 1181.5,-1226.5 1101.5,-1226.5"/>
<text text-anchor="middle" x="1141.5" y="-1233.5" font-family="Helvetica,sans-Serif" font-size="10.00">EntityHandle</text>
</a>
</g>
</g>
<!-- Node42&#45;&gt;Node39 -->
<g id="edge50" class="edge">
<title>Node42&#45;&gt;Node39</title>
<path fill="none" stroke="#9a32cd" stroke-dasharray="5,2" d="M1191.93,-1231.74C1260.98,-1225.47 1379.84,-1213.37 1397,-1203 1451.02,-1170.36 1483.6,-1096.36 1493.92,-1069.75"/>
<polygon fill="#9a32cd" stroke="#9a32cd" points="1191.35,-1228.28 1181.7,-1232.66 1191.98,-1235.25 1191.35,-1228.28"/>
<text text-anchor="middle" x="1329" y="-1227" font-family="Helvetica,sans-Serif" font-size="10.00"> meshset</text>
</g>
<!-- Node43 -->
<g id="node43" class="node">
<title>Node43</title>
<g id="a_node43"><a xlink:title=" ">
<polygon fill="white" stroke="#bfbfbf" points="1067,-1177 1067,-1207 1216,-1207 1216,-1177 1067,-1177"/>
<text text-anchor="start" x="1075" y="-1195" font-family="Helvetica,sans-Serif" font-size="10.00">shared_ptr&lt; MoFEM::</text>
<text text-anchor="middle" x="1141.5" y="-1184" font-family="Helvetica,sans-Serif" font-size="10.00">ComposedProblemsData &gt;</text>
</a>
</g>
</g>
<!-- Node43&#45;&gt;Node39 -->
<g id="edge51" class="edge">
<title>Node43&#45;&gt;Node39</title>
<path fill="none" stroke="#9a32cd" stroke-dasharray="5,2" d="M1226.53,-1190.06C1288.85,-1187.46 1367.85,-1181.34 1397,-1167 1442.96,-1144.38 1478.7,-1091.32 1491.94,-1069.56"/>
<polygon fill="#9a32cd" stroke="#9a32cd" points="1226.14,-1186.58 1216.29,-1190.47 1226.42,-1193.57 1226.14,-1186.58"/>
<text text-anchor="middle" x="1329" y="-1191" font-family="Helvetica,sans-Serif" font-size="10.00"> composedProblemsData</text>
</g>
<!-- Node44 -->
<g id="node44" class="node">
<title>Node44</title>
<g id="a_node44"><a xlink:title=" ">
<polygon fill="white" stroke="#bfbfbf" points="1101,-1138.5 1101,-1157.5 1182,-1157.5 1182,-1138.5 1101,-1138.5"/>
<text text-anchor="middle" x="1141.5" y="-1145.5" font-family="Helvetica,sans-Serif" font-size="10.00">BitRefLevel *</text>
</a>
</g>
</g>
<!-- Node44&#45;&gt;Node39 -->
<g id="edge52" class="edge">
<title>Node44&#45;&gt;Node39</title>
<path fill="none" stroke="#9a32cd" stroke-dasharray="5,2" d="M1192.33,-1147.32C1244.55,-1145.33 1328.37,-1138.49 1397,-1116 1430.6,-1104.99 1465.78,-1082.43 1484.29,-1069.56"/>
<polygon fill="#9a32cd" stroke="#9a32cd" points="1192.2,-1143.82 1182.32,-1147.66 1192.44,-1150.82 1192.2,-1143.82"/>
<text text-anchor="middle" x="1329" y="-1155" font-family="Helvetica,sans-Serif" font-size="10.00"> tagBitRefLevelMask</text>
<text text-anchor="middle" x="1329" y="-1144" font-family="Helvetica,sans-Serif" font-size="10.00">tagBitRefLevel</text>
</g>
<!-- Node45 -->
<g id="node45" class="node">
<title>Node45</title>
<g id="a_node45"><a xlink:title=" ">
<polygon fill="white" stroke="#bfbfbf" points="1056.5,-1089 1056.5,-1119 1226.5,-1119 1226.5,-1089 1056.5,-1089"/>
<text text-anchor="start" x="1064.5" y="-1107" font-family="Helvetica,sans-Serif" font-size="10.00">shared_ptr&lt; NumeredDofEntity</text>
<text text-anchor="middle" x="1141.5" y="-1096" font-family="Helvetica,sans-Serif" font-size="10.00">_multiIndex &gt;</text>
</a>
</g>
</g>
<!-- Node45&#45;&gt;Node39 -->
<g id="edge53" class="edge">
<title>Node45&#45;&gt;Node39</title>
<path fill="none" stroke="#9a32cd" stroke-dasharray="5,2" d="M1236.63,-1094.06C1284.67,-1088.79 1344,-1081.97 1397,-1075 1413.97,-1072.77 1432.5,-1070.07 1448.99,-1067.59"/>
<polygon fill="#9a32cd" stroke="#9a32cd" points="1236.12,-1090.6 1226.55,-1095.16 1236.88,-1097.56 1236.12,-1090.6"/>
<text text-anchor="middle" x="1329" y="-1104" font-family="Helvetica,sans-Serif" font-size="10.00"> numeredRowDofsPtr</text>
<text text-anchor="middle" x="1329" y="-1093" font-family="Helvetica,sans-Serif" font-size="10.00">numeredColDofsPtr</text>
</g>
<!-- Node46 -->
<g id="node46" class="node">
<title>Node46</title>
<g id="a_node46"><a xlink:title=" ">
<polygon fill="white" stroke="#bfbfbf" points="1072.5,-1050.5 1072.5,-1069.5 1210.5,-1069.5 1210.5,-1050.5 1072.5,-1050.5"/>
<text text-anchor="middle" x="1141.5" y="-1057.5" font-family="Helvetica,sans-Serif" font-size="10.00">vector&lt; BlockFieldPair &gt;</text>
</a>
</g>
</g>
<!-- Node46&#45;&gt;Node39 -->
<g id="edge55" class="edge">
<title>Node46&#45;&gt;Node39</title>
<path fill="none" stroke="#9a32cd" stroke-dasharray="5,2" d="M1220.57,-1060C1290.2,-1060 1389.95,-1060 1448.8,-1060"/>
<polygon fill="#9a32cd" stroke="#9a32cd" points="1220.53,-1056.5 1210.53,-1060 1220.53,-1063.5 1220.53,-1056.5"/>
<text text-anchor="middle" x="1329" y="-1063" font-family="Helvetica,sans-Serif" font-size="10.00"> emptyFieldBlocks</text>
</g>
<!-- Node47 -->
<g id="node47" class="node">
<title>Node47</title>
<g id="a_node47"><a xlink:title=" ">
<polygon fill="white" stroke="#bfbfbf" points="1063.5,-1001 1063.5,-1031 1219.5,-1031 1219.5,-1001 1063.5,-1001"/>
<text text-anchor="start" x="1071.5" y="-1019" font-family="Helvetica,sans-Serif" font-size="10.00">shared_ptr&lt; MoFEM::</text>
<text text-anchor="middle" x="1141.5" y="-1008" font-family="Helvetica,sans-Serif" font-size="10.00">Problem::SubProblemData &gt;</text>
</a>
</g>
</g>
<!-- Node47&#45;&gt;Node39 -->
<g id="edge56" class="edge">
<title>Node47&#45;&gt;Node39</title>
<path fill="none" stroke="#9a32cd" stroke-dasharray="5,2" d="M1229.68,-1025.18C1278.86,-1030.54 1341.42,-1037.69 1397,-1045 1413.97,-1047.23 1432.5,-1049.93 1448.99,-1052.41"/>
<polygon fill="#9a32cd" stroke="#9a32cd" points="1230.03,-1021.7 1219.71,-1024.09 1229.27,-1028.65 1230.03,-1021.7"/>
<text text-anchor="middle" x="1329" y="-1048" font-family="Helvetica,sans-Serif" font-size="10.00"> subProblemData</text>
</g>
<!-- Node48 -->
<g id="node48" class="node">
<title>Node48</title>
<g id="a_node48"><a xlink:title=" ">
<polygon fill="white" stroke="#bfbfbf" points="1040,-962.5 1040,-981.5 1243,-981.5 1243,-962.5 1040,-962.5"/>
<text text-anchor="middle" x="1141.5" y="-969.5" font-family="Helvetica,sans-Serif" font-size="10.00">shared_ptr&lt; SequenceDofContainer &gt;</text>
</a>
</g>
</g>
<!-- Node48&#45;&gt;Node39 -->
<g id="edge58" class="edge">
<title>Node48&#45;&gt;Node39</title>
<path fill="none" stroke="#9a32cd" stroke-dasharray="5,2" d="M1253.46,-976C1298.84,-980.06 1351.32,-987.93 1397,-1003 1430.91,-1014.18 1466.25,-1037.37 1484.64,-1050.46"/>
<polygon fill="#9a32cd" stroke="#9a32cd" points="1253.55,-972.49 1243.29,-975.14 1252.96,-979.47 1253.55,-972.49"/>
<text text-anchor="middle" x="1329" y="-1017" font-family="Helvetica,sans-Serif" font-size="10.00"> sequenceRowDofContainer</text>
<text text-anchor="middle" x="1329" y="-1006" font-family="Helvetica,sans-Serif" font-size="10.00">sequenceColDofContainer</text>
</g>
<!-- Node49 -->
<g id="node49" class="node">
<title>Node49</title>
<g id="a_node49"><a xlink:title=" ">
<polygon fill="white" stroke="#bfbfbf" points="1097.5,-924.5 1097.5,-943.5 1185.5,-943.5 1185.5,-924.5 1097.5,-924.5"/>
<text text-anchor="middle" x="1141.5" y="-931.5" font-family="Helvetica,sans-Serif" font-size="10.00">BitProblemId *</text>
</a>
</g>
</g>
<!-- Node49&#45;&gt;Node39 -->
<g id="edge59" class="edge">
<title>Node49&#45;&gt;Node39</title>
<path fill="none" stroke="#9a32cd" stroke-dasharray="5,2" d="M1196.05,-930.04C1249.52,-928.29 1332.75,-931.66 1397,-962 1440.63,-982.6 1476.89,-1029.96 1491.08,-1050.36"/>
<polygon fill="#9a32cd" stroke="#9a32cd" points="1195.62,-926.56 1185.77,-930.45 1195.9,-933.55 1195.62,-926.56"/>
<text text-anchor="middle" x="1329" y="-965" font-family="Helvetica,sans-Serif" font-size="10.00"> tagId</text>
</g>
<!-- Node50 -->
<g id="node50" class="node">
<title>Node50</title>
<g id="a_node50"><a xlink:title=" ">
<polygon fill="white" stroke="#bfbfbf" points="1805,-457 1805,-487 1967,-487 1967,-457 1805,-457"/>
<text text-anchor="start" x="1813" y="-475" font-family="Helvetica,sans-Serif" font-size="10.00">shared_ptr&lt; const MoFEM</text>
<text text-anchor="middle" x="1886" y="-464" font-family="Helvetica,sans-Serif" font-size="10.00">::NumeredEntFiniteElement &gt;</text>
</a>
</g>
</g>
<!-- Node50&#45;&gt;Node13 -->
<g id="edge60" class="edge">
<title>Node50&#45;&gt;Node13</title>
<path fill="none" stroke="#9a32cd" stroke-dasharray="5,2" d="M1977.32,-475.07C2024.35,-476.82 2082.79,-479.21 2135,-482 2157.1,-483.18 2181.47,-484.76 2202.45,-486.2"/>
<polygon fill="#9a32cd" stroke="#9a32cd" points="1977.28,-471.57 1967.16,-474.7 1977.03,-478.56 1977.28,-471.57"/>
<text text-anchor="middle" x="2063" y="-485" font-family="Helvetica,sans-Serif" font-size="10.00"> numeredEntFiniteElementPtr</text>
</g>
<!-- Node51 -->
<g id="node51" class="node">
<title>Node51</title>
<g id="a_node51"><a xlink:title=" ">
<polygon fill="white" stroke="#bfbfbf" points="1864,-418.5 1864,-437.5 1908,-437.5 1908,-418.5 1864,-418.5"/>
<text text-anchor="middle" x="1886" y="-425.5" font-family="Helvetica,sans-Serif" font-size="10.00">string</text>
</a>
</g>
</g>
<!-- Node51&#45;&gt;Node4 -->
<g id="edge83" class="edge">
<title>Node51&#45;&gt;Node4</title>
<path fill="none" stroke="#9a32cd" stroke-dasharray="5,2" d="M1915.12,-413.85C1936.02,-403.35 1965.26,-388.71 1991,-376 2062.82,-340.53 2075.46,-317.1 2153,-297 2236.07,-275.47 2460.44,-250.45 2539,-285 2652.16,-334.77 2666.71,-382.07 2727,-490 2800,-620.69 2783.74,-668.52 2819,-814 2865.55,-1006.04 2907.58,-1242.66 2918.34,-1304.59"/>
<polygon fill="#9a32cd" stroke="#9a32cd" points="1913.5,-410.74 1906.14,-418.36 1916.65,-417 1913.5,-410.74"/>
<text text-anchor="middle" x="2458" y="-299" font-family="Helvetica,sans-Serif" font-size="10.00"> colFieldName</text>
<text text-anchor="middle" x="2458" y="-288" font-family="Helvetica,sans-Serif" font-size="10.00">rowFieldName</text>
</g>
<!-- Node51&#45;&gt;Node13 -->
<g id="edge61" class="edge">
<title>Node51&#45;&gt;Node13</title>
<path fill="none" stroke="#9a32cd" stroke-dasharray="5,2" d="M1918.37,-430.09C1965.77,-433.69 2058.25,-442.43 2135,-460 2143.22,-461.88 2144.89,-463.7 2153,-466 2171.73,-471.31 2192.62,-476.38 2210.59,-480.47"/>
<polygon fill="#9a32cd" stroke="#9a32cd" points="1918.37,-426.58 1908.14,-429.34 1917.86,-433.57 1918.37,-426.58"/>
<text text-anchor="middle" x="2063" y="-463" font-family="Helvetica,sans-Serif" font-size="10.00"> feName</text>
</g>
<!-- Node52 -->
<g id="node52" class="node">
<title>Node52</title>
<g id="a_node52"><a xlink:title=" ">
<polygon fill="white" stroke="#bfbfbf" points="1804.5,-545 1804.5,-575 1967.5,-575 1967.5,-545 1804.5,-545"/>
<text text-anchor="start" x="1812.5" y="-563" font-family="Helvetica,sans-Serif" font-size="10.00">function&lt; bool(MoFEM</text>
<text text-anchor="middle" x="1886" y="-552" font-family="Helvetica,sans-Serif" font-size="10.00">::FEMethod *fe_method_ptr)&gt;</text>
</a>
</g>
</g>
<!-- Node52&#45;&gt;Node13 -->
<g id="edge62" class="edge">
<title>Node52&#45;&gt;Node13</title>
<path fill="none" stroke="#9a32cd" stroke-dasharray="5,2" d="M1977.71,-549.74C2025.21,-543 2083.96,-532.51 2135,-517 2143.38,-514.46 2144.64,-511.6 2153,-509 2168.74,-504.11 2186.26,-500.29 2202.27,-497.4"/>
<polygon fill="#9a32cd" stroke="#9a32cd" points="1977.17,-546.28 1967.75,-551.12 1978.13,-553.21 1977.17,-546.28"/>
<text text-anchor="middle" x="2063" y="-550" font-family="Helvetica,sans-Serif" font-size="10.00"> exeTestHook</text>
</g>
<!-- Node53 -->
<g id="node53" class="node">
<title>Node53</title>
<g id="a_node53"><a xlink:href="classdouble.html" target="_top" xlink:title=" ">
<polygon fill="white" stroke="black" points="2231,-404.5 2231,-423.5 2281,-423.5 2281,-404.5 2231,-404.5"/>
<text text-anchor="middle" x="2256" y="-411.5" font-family="Helvetica,sans-Serif" font-size="10.00">double</text>
</a>
</g>
</g>
<!-- Node53&#45;&gt;Node12 -->
<g id="edge63" class="edge">
<title>Node53&#45;&gt;Node12</title>
<path fill="none" stroke="#9a32cd" stroke-dasharray="5,2" d="M2291.16,-408.96C2345.61,-402.36 2454.55,-395.06 2539,-427 2580.02,-442.51 2617.16,-481.24 2632.96,-499.36"/>
<polygon fill="#9a32cd" stroke="#9a32cd" points="2290.5,-405.52 2281.02,-410.26 2291.39,-412.46 2290.5,-405.52"/>
<text text-anchor="middle" x="2458" y="-430" font-family="Helvetica,sans-Serif" font-size="10.00"> elementMeasure</text>
</g>
<!-- Node54 -->
<g id="node54" class="node">
<title>Node54</title>
<g id="a_node54"><a xlink:title=" ">
<polygon fill="white" stroke="#bfbfbf" points="2170,-344.5 2170,-385.5 2342,-385.5 2342,-344.5 2170,-344.5"/>
<text text-anchor="start" x="2178" y="-373.5" font-family="Helvetica,sans-Serif" font-size="10.00">array&lt; boost::shared</text>
<text text-anchor="start" x="2178" y="-362.5" font-family="Helvetica,sans-Serif" font-size="10.00">_ptr&lt; MoFEM::EntitiesFieldData</text>
<text text-anchor="middle" x="2256" y="-351.5" font-family="Helvetica,sans-Serif" font-size="10.00"> &gt;, LASTSPACE &gt;</text>
</a>
</g>
</g>
<!-- Node54&#45;&gt;Node12 -->
<g id="edge64" class="edge">
<title>Node54&#45;&gt;Node12</title>
<path fill="none" stroke="#9a32cd" stroke-dasharray="5,2" d="M2352.41,-349.67C2409.61,-345.04 2482.04,-347.51 2539,-377 2592.24,-404.56 2626.07,-473.86 2637.07,-499.37"/>
<polygon fill="#9a32cd" stroke="#9a32cd" points="2351.93,-346.2 2342.28,-350.57 2352.55,-353.17 2351.93,-346.2"/>
<text text-anchor="middle" x="2458" y="-391" font-family="Helvetica,sans-Serif" font-size="10.00"> derivedDataOnElement</text>
<text text-anchor="middle" x="2458" y="-380" font-family="Helvetica,sans-Serif" font-size="10.00">dataOnElement</text>
</g>
<!-- Node55 -->
<g id="node55" class="node">
<title>Node55</title>
<g id="a_node55"><a xlink:title=" ">
<polygon fill="white" stroke="#bfbfbf" points="2222,-306.5 2222,-325.5 2290,-325.5 2290,-306.5 2222,-306.5"/>
<text text-anchor="middle" x="2256" y="-313.5" font-family="Helvetica,sans-Serif" font-size="10.00">EntityType</text>
</a>
</g>
</g>
<!-- Node55&#45;&gt;Node12 -->
<g id="edge65" class="edge">
<title>Node55&#45;&gt;Node12</title>
<path fill="none" stroke="#9a32cd" stroke-dasharray="5,2" d="M2300.33,-313.55C2369.3,-310.46 2500.24,-308.11 2539,-332 2603.61,-371.82 2631.48,-468.75 2638.88,-499.49"/>
<polygon fill="#9a32cd" stroke="#9a32cd" points="2300.04,-310.06 2290.22,-314.03 2300.37,-317.06 2300.04,-310.06"/>
<text text-anchor="middle" x="2458" y="-335" font-family="Helvetica,sans-Serif" font-size="10.00"> lastEvaluatedElementEntityType</text>
</g>
<!-- Node56 -->
<g id="node56" class="node">
<title>Node56</title>
<g id="a_node56"><a xlink:href="structMoFEM_1_1DeprecatedCoreInterface.html" target="_top" xlink:title="Deprecated interface functions.">
<polygon fill="white" stroke="black" points="1600,-7.5 1600,-26.5 1781,-26.5 1781,-7.5 1600,-7.5"/>
<text text-anchor="middle" x="1690.5" y="-14.5" font-family="Helvetica,sans-Serif" font-size="10.00">MoFEM::DeprecatedCoreInterface</text>
</a>
</g>
</g>
<!-- Node56&#45;&gt;Node12 -->
<g id="edge66" class="edge">
<title>Node56&#45;&gt;Node12</title>
<path fill="none" stroke="#9a32cd" stroke-dasharray="5,2" d="M1780.28,-33.21C1780.52,-33.47 1780.76,-33.73 1781,-34 1818.04,-75.6 1766.34,-238.88 1799,-284 1893.65,-414.78 1991,-349.01 2135,-422 2143.36,-426.24 2144.19,-429.78 2153,-433 2234.51,-462.76 2453.31,-478.31 2539,-492 2553.8,-494.36 2569.8,-497 2584.64,-499.47"/>
<polygon fill="#9a32cd" stroke="#9a32cd" points="1782.44,-30.45 1772.57,-26.59 1777.88,-35.76 1782.44,-30.45"/>
<text text-anchor="middle" x="2063" y="-425" font-family="Helvetica,sans-Serif" font-size="10.00"> mField</text>
</g>
<!-- Node57&#45;&gt;Node56 -->
<g id="edge67" class="edge">
<title>Node57&#45;&gt;Node56</title>
<path fill="none" stroke="midnightblue" d="M1214.39,-10.92C1313.43,-12.19 1491.78,-14.47 1599.54,-15.85"/>
<polygon fill="midnightblue" stroke="midnightblue" points="1214.23,-7.42 1204.18,-10.79 1214.14,-14.42 1214.23,-7.42"/>
</g>
<!-- Node58 -->
<g id="node58" class="node">
<title>Node58</title>
<g id="a_node58"><a xlink:title=" ">
<polygon fill="white" stroke="#bfbfbf" points="2172.5,-716 2172.5,-768 2339.5,-768 2339.5,-716 2172.5,-716"/>
<text text-anchor="start" x="2180.5" y="-756" font-family="Helvetica,sans-Serif" font-size="10.00">function&lt; MoFEMErrorCode</text>
<text text-anchor="start" x="2180.5" y="-745" font-family="Helvetica,sans-Serif" font-size="10.00">(ForcesAndSourcesCore *fe</text>
<text text-anchor="start" x="2180.5" y="-734" font-family="Helvetica,sans-Serif" font-size="10.00">_raw_ptr, int order_row,</text>
<text text-anchor="middle" x="2256" y="-723" font-family="Helvetica,sans-Serif" font-size="10.00"> int order_col, int order_data)&gt;</text>
</a>
</g>
</g>
<!-- Node58&#45;&gt;Node12 -->
<g id="edge70" class="edge">
<title>Node58&#45;&gt;Node12</title>
<path fill="none" stroke="#9a32cd" stroke-dasharray="5,2" d="M2349.6,-748.11C2408.75,-747.43 2484.31,-737.61 2539,-699 2604.45,-652.79 2631.75,-551.07 2638.95,-518.93"/>
<polygon fill="#9a32cd" stroke="#9a32cd" points="2349.5,-744.61 2339.51,-748.14 2349.52,-751.61 2349.5,-744.61"/>
<text text-anchor="middle" x="2458" y="-749" font-family="Helvetica,sans-Serif" font-size="10.00"> setRuleHook</text>
</g>
<!-- Node59 -->
<g id="node59" class="node">
<title>Node59</title>
<g id="a_node59"><a xlink:title=" ">
<polygon fill="white" stroke="#bfbfbf" points="2155,-667 2155,-697 2357,-697 2357,-667 2155,-667"/>
<text text-anchor="start" x="2163" y="-685" font-family="Helvetica,sans-Serif" font-size="10.00">ptr_deque&lt; MoFEM::Forces</text>
<text text-anchor="middle" x="2256" y="-674" font-family="Helvetica,sans-Serif" font-size="10.00">AndSourcesCore::UserDataOperator &gt;</text>
</a>
</g>
</g>
<!-- Node59&#45;&gt;Node12 -->
<g id="edge71" class="edge">
<title>Node59&#45;&gt;Node12</title>
<path fill="none" stroke="#9a32cd" stroke-dasharray="5,2" d="M2367.14,-685.51C2422.06,-682.68 2487.55,-672.06 2539,-642 2590.76,-611.76 2625.27,-544.07 2636.77,-518.78"/>
<polygon fill="#9a32cd" stroke="#9a32cd" points="2366.85,-682.02 2357.01,-685.95 2367.15,-689.01 2366.85,-682.02"/>
<text text-anchor="middle" x="2458" y="-687" font-family="Helvetica,sans-Serif" font-size="10.00"> opPtrVector</text>
</g>
<!-- Node60 -->
<g id="node60" class="node">
<title>Node60</title>
<g id="a_node60"><a xlink:href="structMoFEM_1_1EntitiesFieldData.html" target="_top" xlink:title="data structure for finite element entity">
<polygon fill="white" stroke="black" points="2185,-156.5 2185,-175.5 2327,-175.5 2327,-156.5 2185,-156.5"/>
<text text-anchor="middle" x="2256" y="-163.5" font-family="Helvetica,sans-Serif" font-size="10.00">MoFEM::EntitiesFieldData</text>
</a>
</g>
</g>
<!-- Node60&#45;&gt;Node12 -->
<g id="edge72" class="edge">
<title>Node60&#45;&gt;Node12</title>
<path fill="none" stroke="#9a32cd" stroke-dasharray="5,2" d="M2323.67,-155.41C2386.42,-149.38 2479.41,-151.15 2539,-201 2559.7,-218.32 2548.7,-233.32 2557,-259 2587.41,-353.11 2626.3,-466.39 2637.72,-499.49"/>
<polygon fill="#9a32cd" stroke="#9a32cd" points="2323.06,-151.96 2313.48,-156.48 2323.8,-158.92 2323.06,-151.96"/>
<text text-anchor="middle" x="2458" y="-248" font-family="Helvetica,sans-Serif" font-size="10.00"> dataNoField</text>
<text text-anchor="middle" x="2458" y="-237" font-family="Helvetica,sans-Serif" font-size="10.00">dataL2</text>
<text text-anchor="middle" x="2458" y="-226" font-family="Helvetica,sans-Serif" font-size="10.00">dataH1</text>
<text text-anchor="middle" x="2458" y="-215" font-family="Helvetica,sans-Serif" font-size="10.00">dataHcurl</text>
<text text-anchor="middle" x="2458" y="-204" font-family="Helvetica,sans-Serif" font-size="10.00">dataHdiv</text>
</g>
<!-- Node61 -->
<g id="node61" class="node">
<title>Node61</title>
<g id="a_node61"><a xlink:title=" ">
<polygon fill="white" stroke="#bfbfbf" points="1805,-70 1805,-100 1967,-100 1967,-70 1805,-70"/>
<text text-anchor="start" x="1813" y="-88" font-family="Helvetica,sans-Serif" font-size="10.00">array&lt; std::bitset</text>
<text text-anchor="middle" x="1886" y="-77" font-family="Helvetica,sans-Serif" font-size="10.00">&lt; LASTBASE &gt;, LASTSPACE &gt;</text>
</a>
</g>
</g>
<!-- Node61&#45;&gt;Node60 -->
<g id="edge73" class="edge">
<title>Node61&#45;&gt;Node60</title>
<path fill="none" stroke="#9a32cd" stroke-dasharray="5,2" d="M1977.15,-88.59C2024.74,-92.13 2083.75,-99.14 2135,-113 2173.25,-123.35 2214.94,-144.11 2237.73,-156.36"/>
<polygon fill="#9a32cd" stroke="#9a32cd" points="1977.39,-85.1 1967.17,-87.89 1976.9,-92.08 1977.39,-85.1"/>
<text text-anchor="middle" x="2063" y="-127" font-family="Helvetica,sans-Serif" font-size="10.00"> brokenBasesOnSpaces</text>
<text text-anchor="middle" x="2063" y="-116" font-family="Helvetica,sans-Serif" font-size="10.00">basesOnSpaces</text>
</g>
<!-- Node62 -->
<g id="node62" class="node">
<title>Node62</title>
<g id="a_node62"><a xlink:title=" ">
<polygon fill="white" stroke="#bfbfbf" points="1809.5,-9.5 1809.5,-50.5 1962.5,-50.5 1962.5,-9.5 1809.5,-9.5"/>
<text text-anchor="start" x="1817.5" y="-38.5" font-family="Helvetica,sans-Serif" font-size="10.00">array&lt; boost::ptr_vector</text>
<text text-anchor="start" x="1817.5" y="-27.5" font-family="Helvetica,sans-Serif" font-size="10.00">&lt; MoFEM::EntitiesFieldData</text>
<text text-anchor="middle" x="1886" y="-16.5" font-family="Helvetica,sans-Serif" font-size="10.00">::EntData &gt;, MBMAXTYPE &gt;</text>
</a>
</g>
</g>
<!-- Node62&#45;&gt;Node60 -->
<g id="edge74" class="edge">
<title>Node62&#45;&gt;Node60</title>
<path fill="none" stroke="#9a32cd" stroke-dasharray="5,2" d="M1972.58,-36.12C2021.73,-41.99 2083.7,-53.49 2135,-76 2181.26,-96.3 2226.32,-137.52 2245.43,-156.29"/>
<polygon fill="#9a32cd" stroke="#9a32cd" points="1972.94,-32.64 1962.61,-34.98 1972.15,-39.59 1972.94,-32.64"/>
<text text-anchor="middle" x="2063" y="-79" font-family="Helvetica,sans-Serif" font-size="10.00"> dataOnEntities</text>
</g>
<!-- Node63 -->
<g id="node63" class="node">
<title>Node63</title>
<g id="a_node63"><a xlink:title=" ">
<polygon fill="white" stroke="#bfbfbf" points="1799,-245 1799,-275 1973,-275 1973,-245 1799,-245"/>
<text text-anchor="start" x="1807" y="-263" font-family="Helvetica,sans-Serif" font-size="10.00">array&lt; std::bitset</text>
<text text-anchor="middle" x="1886" y="-252" font-family="Helvetica,sans-Serif" font-size="10.00">&lt; LASTSPACE &gt;, MBMAXTYPE &gt;</text>
</a>
</g>
</g>
<!-- Node63&#45;&gt;Node60 -->
<g id="edge75" class="edge">
<title>Node63&#45;&gt;Node60</title>
<path fill="none" stroke="#9a32cd" stroke-dasharray="5,2" d="M1983.21,-249.83C2029.69,-243.48 2085.91,-233.64 2135,-219 2172.76,-207.74 2214.28,-187.49 2237.24,-175.55"/>
<polygon fill="#9a32cd" stroke="#9a32cd" points="1982.59,-246.39 1973.14,-251.18 1983.52,-253.32 1982.59,-246.39"/>
<text text-anchor="middle" x="2063" y="-252" font-family="Helvetica,sans-Serif" font-size="10.00"> spacesOnEntities</text>
</g>
<!-- Node64 -->
<g id="node64" class="node">
<title>Node64</title>
<g id="a_node64"><a xlink:title=" ">
<polygon fill="white" stroke="#bfbfbf" points="1801.5,-196 1801.5,-226 1970.5,-226 1970.5,-196 1801.5,-196"/>
<text text-anchor="start" x="1809.5" y="-214" font-family="Helvetica,sans-Serif" font-size="10.00">array&lt; std::bitset</text>
<text text-anchor="middle" x="1886" y="-203" font-family="Helvetica,sans-Serif" font-size="10.00">&lt; LASTBASE &gt;, MBMAXTYPE &gt;</text>
</a>
</g>
</g>
<!-- Node64&#45;&gt;Node60 -->
<g id="edge76" class="edge">
<title>Node64&#45;&gt;Node60</title>
<path fill="none" stroke="#9a32cd" stroke-dasharray="5,2" d="M1980.82,-204.92C2027.32,-201.34 2084.25,-196.1 2135,-189 2160.31,-185.46 2188.39,-180.16 2211.01,-175.53"/>
<polygon fill="#9a32cd" stroke="#9a32cd" points="1980.46,-201.44 1970.75,-205.68 1980.99,-208.42 1980.46,-201.44"/>
<text text-anchor="middle" x="2063" y="-207" font-family="Helvetica,sans-Serif" font-size="10.00"> basesOnEntities</text>
</g>
<!-- Node65 -->
<g id="node65" class="node">
<title>Node65</title>
<g id="a_node65"><a xlink:title=" ">
<polygon fill="white" stroke="#bfbfbf" points="1830,-157.5 1830,-176.5 1942,-176.5 1942,-157.5 1830,-157.5"/>
<text text-anchor="middle" x="1886" y="-164.5" font-family="Helvetica,sans-Serif" font-size="10.00">UBlasMatrix&lt; int &gt;</text>
</a>
</g>
</g>
<!-- Node65&#45;&gt;Node60 -->
<g id="edge77" class="edge">
<title>Node65&#45;&gt;Node60</title>
<path fill="none" stroke="#9a32cd" stroke-dasharray="5,2" d="M1952.26,-166.82C2017.56,-166.65 2117.69,-166.37 2184.71,-166.19"/>
<polygon fill="#9a32cd" stroke="#9a32cd" points="1952.08,-163.32 1942.09,-166.85 1952.1,-170.32 1952.08,-163.32"/>
<text text-anchor="middle" x="2063" y="-181" font-family="Helvetica,sans-Serif" font-size="10.00"> facesNodesOrder</text>
<text text-anchor="middle" x="2063" y="-170" font-family="Helvetica,sans-Serif" font-size="10.00">facesNodes</text>
</g>
<!-- Node66 -->
<g id="node66" class="node">
<title>Node66</title>
<g id="a_node66"><a xlink:title=" ">
<polygon fill="white" stroke="#bfbfbf" points="1827.5,-119.5 1827.5,-138.5 1944.5,-138.5 1944.5,-119.5 1827.5,-119.5"/>
<text text-anchor="middle" x="1886" y="-126.5" font-family="Helvetica,sans-Serif" font-size="10.00">bitset&lt; LASTBASE &gt;</text>
</a>
</g>
</g>
<!-- Node66&#45;&gt;Node60 -->
<g id="edge78" class="edge">
<title>Node66&#45;&gt;Node60</title>
<path fill="none" stroke="#9a32cd" stroke-dasharray="5,2" d="M1954.69,-134.84C2004.57,-139.25 2074.05,-145.62 2135,-152 2151.17,-153.69 2168.54,-155.64 2184.91,-157.54"/>
<polygon fill="#9a32cd" stroke="#9a32cd" points="1954.93,-131.35 1944.67,-133.96 1954.32,-138.32 1954.93,-131.35"/>
<text text-anchor="middle" x="2063" y="-155" font-family="Helvetica,sans-Serif" font-size="10.00"> bAse</text>
</g>
<!-- Node67 -->
<g id="node67" class="node">
<title>Node67</title>
<g id="a_node67"><a xlink:title=" ">
<polygon fill="white" stroke="#bfbfbf" points="2193.5,-606.5 2193.5,-647.5 2318.5,-647.5 2318.5,-606.5 2193.5,-606.5"/>
<text text-anchor="start" x="2201.5" y="-635.5" font-family="Helvetica,sans-Serif" font-size="10.00">function&lt; int(int order</text>
<text text-anchor="start" x="2201.5" y="-624.5" font-family="Helvetica,sans-Serif" font-size="10.00">_row, int order_col, int</text>
<text text-anchor="middle" x="2256" y="-613.5" font-family="Helvetica,sans-Serif" font-size="10.00"> order_data)&gt;</text>
</a>
</g>
</g>
<!-- Node67&#45;&gt;Node12 -->
<g id="edge79" class="edge">
<title>Node67&#45;&gt;Node12</title>
<path fill="none" stroke="#9a32cd" stroke-dasharray="5,2" d="M2329.02,-629.71C2387.8,-629.35 2471.81,-622.85 2539,-594 2579.88,-576.45 2617.09,-537.05 2632.94,-518.72"/>
<polygon fill="#9a32cd" stroke="#9a32cd" points="2328.72,-626.21 2318.72,-629.71 2328.72,-633.21 2328.72,-626.21"/>
<text text-anchor="middle" x="2458" y="-630" font-family="Helvetica,sans-Serif" font-size="10.00"> getRuleHook</text>
</g>
<!-- Node68 -->
<g id="node68" class="node">
<title>Node68</title>
<g id="a_node68"><a xlink:title=" ">
<polygon fill="white" stroke="#bfbfbf" points="2195,-557 2195,-587 2317,-587 2317,-557 2195,-557"/>
<text text-anchor="start" x="2203" y="-575" font-family="Helvetica,sans-Serif" font-size="10.00">shared_ptr&lt; MoFEM::</text>
<text text-anchor="middle" x="2256" y="-564" font-family="Helvetica,sans-Serif" font-size="10.00">BaseFunction &gt;</text>
</a>
</g>
</g>
<!-- Node68&#45;&gt;Node12 -->
<g id="edge80" class="edge">
<title>Node68&#45;&gt;Node12</title>
<path fill="none" stroke="#9a32cd" stroke-dasharray="5,2" d="M2327.21,-570.98C2384.76,-568.91 2468,-563.07 2539,-547 2568.12,-540.41 2600.15,-527.48 2620.4,-518.55"/>
<polygon fill="#9a32cd" stroke="#9a32cd" points="2327.01,-567.49 2317.13,-571.32 2327.25,-574.48 2327.01,-567.49"/>
<text text-anchor="middle" x="2458" y="-582" font-family="Helvetica,sans-Serif" font-size="10.00"> userPolynomialBasePtr</text>
<text text-anchor="middle" x="2458" y="-571" font-family="Helvetica,sans-Serif" font-size="10.00">elementPolynomialBasePtr</text>
</g>
<!-- Node69 -->
<g id="node69" class="node">
<title>Node69</title>
<g id="a_node69"><a xlink:href="classUBlasMatrix_3_01double_01_4.html" target="_top" xlink:title=" ">
<polygon fill="white" stroke="black" points="2190,-518.5 2190,-537.5 2322,-537.5 2322,-518.5 2190,-518.5"/>
<text text-anchor="middle" x="2256" y="-525.5" font-family="Helvetica,sans-Serif" font-size="10.00">UBlasMatrix&lt; double &gt;</text>
</a>
</g>
</g>
<!-- Node69&#45;&gt;Node12 -->
<g id="edge81" class="edge">
<title>Node69&#45;&gt;Node12</title>
<path fill="none" stroke="#9a32cd" stroke-dasharray="5,2" d="M2332.25,-524.28C2396.78,-521.08 2489.67,-516.49 2556.69,-513.17"/>
<polygon fill="#9a32cd" stroke="#9a32cd" points="2331.96,-520.79 2322.14,-524.78 2332.3,-527.78 2331.96,-520.79"/>
<text text-anchor="middle" x="2458" y="-535" font-family="Helvetica,sans-Serif" font-size="10.00"> coordsAtGaussPts</text>
<text text-anchor="middle" x="2458" y="-524" font-family="Helvetica,sans-Serif" font-size="10.00">gaussPts</text>
</g>
<!-- Node70 -->
<g id="node70" class="node">
<title>Node70</title>
<g id="a_node70"><a xlink:title=" ">
<polygon fill="white" stroke="#bfbfbf" points="2576.5,-1438.5 2576.5,-1457.5 2707.5,-1457.5 2707.5,-1438.5 2576.5,-1438.5"/>
<text text-anchor="middle" x="2642" y="-1445.5" font-family="Helvetica,sans-Serif" font-size="10.00">static const char *const</text>
</a>
</g>
</g>
<!-- Node70&#45;&gt;Node4 -->
<g id="edge82" class="edge">
<title>Node70&#45;&gt;Node4</title>
<path fill="none" stroke="#9a32cd" stroke-dasharray="5,2" d="M2704.05,-1436.02C2711.86,-1433.95 2719.67,-1431.62 2727,-1429 2794.12,-1405.03 2865.26,-1358.99 2899.76,-1335.15"/>
<polygon fill="#9a32cd" stroke="#9a32cd" points="2703.05,-1432.66 2694.2,-1438.49 2704.75,-1439.45 2703.05,-1432.66"/>
<text text-anchor="middle" x="2782" y="-1423" font-family="Helvetica,sans-Serif" font-size="10.00"> OpTypeNames</text>
</g>
<!-- Node71 -->
<g id="node71" class="node">
<title>Node71</title>
<g id="a_node71"><a xlink:href="structCommonData.html" target="_top" xlink:title=" ">
<polygon fill="white" stroke="black" points="3380.5,-807.5 3380.5,-826.5 3464.5,-826.5 3464.5,-807.5 3380.5,-807.5"/>
<text text-anchor="middle" x="3422.5" y="-814.5" font-family="Helvetica,sans-Serif" font-size="10.00">CommonData</text>
</a>
</g>
</g>
<!-- Node71&#45;&gt;Node1 -->
<g id="edge84" class="edge">
<title>Node71&#45;&gt;Node1</title>
<path fill="none" stroke="#9a32cd" stroke-dasharray="5,2" d="M3474.78,-821.02C3495.92,-822.75 3520.65,-824.86 3543,-827 3548.81,-827.56 3554.84,-828.16 3560.88,-828.78"/>
<polygon fill="#9a32cd" stroke="#9a32cd" points="3474.97,-817.53 3464.72,-820.21 3474.41,-824.5 3474.97,-817.53"/>
<text text-anchor="middle" x="3517" y="-830" font-family="Helvetica,sans-Serif" font-size="10.00"> elemData</text>
</g>
<!-- Node72 -->
<g id="node72" class="node">
<title>Node72</title>
<g id="a_node72"><a xlink:title=" ">
<polygon fill="white" stroke="#bfbfbf" points="3142,-785.5 3142,-804.5 3225,-804.5 3225,-785.5 3142,-785.5"/>
<text text-anchor="middle" x="3183.5" y="-792.5" font-family="Helvetica,sans-Serif" font-size="10.00">MatrixDouble</text>
</a>
</g>
</g>
<!-- Node72&#45;&gt;Node71 -->
<g id="edge85" class="edge">
<title>Node72&#45;&gt;Node71</title>
<path fill="none" stroke="#9a32cd" stroke-dasharray="5,2" d="M3235.29,-791.41C3269.13,-789.97 3314.47,-789.87 3354,-796 3368.55,-798.26 3384.29,-803.01 3396.91,-807.43"/>
<polygon fill="#9a32cd" stroke="#9a32cd" points="3235,-787.92 3225.18,-791.9 3235.34,-794.91 3235,-787.92"/>
<text text-anchor="middle" x="3325.5" y="-821" font-family="Helvetica,sans-Serif" font-size="10.00"> dotEdge</text>
<text text-anchor="middle" x="3325.5" y="-810" font-family="Helvetica,sans-Serif" font-size="10.00">dotEleRight</text>
<text text-anchor="middle" x="3325.5" y="-799" font-family="Helvetica,sans-Serif" font-size="10.00">dotEleLeft</text>
</g>
<!-- Node73 -->
<g id="node73" class="node">
<title>Node73</title>
<g id="a_node73"><a xlink:href="structMoFEM_1_1SmartPetscObj.html" target="_top" xlink:title=" ">
<polygon fill="white" stroke="black" points="3118,-736 3118,-766 3249,-766 3249,-736 3118,-736"/>
<text text-anchor="start" x="3126" y="-754" font-family="Helvetica,sans-Serif" font-size="10.00">MoFEM::SmartPetscObj</text>
<text text-anchor="middle" x="3183.5" y="-743" font-family="Helvetica,sans-Serif" font-size="10.00">&lt; KSP &gt;</text>
</a>
</g>
</g>
<!-- Node73&#45;&gt;Node71 -->
<g id="edge86" class="edge">
<title>Node73&#45;&gt;Node71</title>
<path fill="none" stroke="#9a32cd" stroke-dasharray="5,2" d="M3259.19,-755.54C3289.3,-759.02 3323.96,-765.17 3354,-776 3374.64,-783.44 3395.84,-797.6 3408.85,-807.17"/>
<polygon fill="#9a32cd" stroke="#9a32cd" points="3259.48,-752.05 3249.16,-754.46 3258.73,-759.01 3259.48,-752.05"/>
<text text-anchor="middle" x="3325.5" y="-779" font-family="Helvetica,sans-Serif" font-size="10.00"> ksp</text>
</g>
<!-- Node74 -->
<g id="node74" class="node">
<title>Node74</title>
<g id="a_node74"><a xlink:title=" ">
<polygon fill="white" stroke="#bfbfbf" points="2859,-712.5 2859,-753.5 2985,-753.5 2985,-712.5 2859,-712.5"/>
<text text-anchor="start" x="2867" y="-741.5" font-family="Helvetica,sans-Serif" font-size="10.00">boost::intrusive_ptr</text>
<text text-anchor="start" x="2867" y="-730.5" font-family="Helvetica,sans-Serif" font-size="10.00">&lt; std::remove_pointer</text>
<text text-anchor="middle" x="2922" y="-719.5" font-family="Helvetica,sans-Serif" font-size="10.00">&lt; KSP &gt;::type &gt;</text>
</a>
</g>
</g>
<!-- Node74&#45;&gt;Node73 -->
<g id="edge87" class="edge">
<title>Node74&#45;&gt;Node73</title>
<path fill="none" stroke="midnightblue" d="M2995.24,-738.01C3033.64,-740.67 3080.46,-743.92 3117.69,-746.5"/>
<polygon fill="midnightblue" stroke="midnightblue" points="2995.37,-734.51 2985.16,-737.31 2994.89,-741.5 2995.37,-734.51"/>
</g>
<!-- Node75 -->
<g id="node75" class="node">
<title>Node75</title>
<g id="a_node75"><a xlink:href="structMoFEM_1_1SmartPetscObj.html" target="_top" xlink:title="intrusive_ptr for managing petsc objects">
<polygon fill="white" stroke="black" points="2856.5,-773 2856.5,-803 2987.5,-803 2987.5,-773 2856.5,-773"/>
<text text-anchor="start" x="2864.5" y="-791" font-family="Helvetica,sans-Serif" font-size="10.00">MoFEM::SmartPetscObj</text>
<text text-anchor="middle" x="2922" y="-780" font-family="Helvetica,sans-Serif" font-size="10.00">&lt; OBJ &gt;</text>
</a>
</g>
</g>
<!-- Node75&#45;&gt;Node73 -->
<g id="edge88" class="edge">
<title>Node75&#45;&gt;Node73</title>
<path fill="none" stroke="orange" stroke-dasharray="5,2" d="M2997.77,-777.34C3035.66,-771.94 3081.22,-765.44 3117.61,-760.25"/>
<polygon fill="orange" stroke="orange" points="2997.22,-773.88 2987.81,-778.76 2998.21,-780.81 2997.22,-773.88"/>
<text text-anchor="middle" x="3047.5" y="-775" font-family="Helvetica,sans-Serif" font-size="10.00"> &lt; KSP &gt;</text>
</g>
<!-- Node77 -->
<g id="node77" class="node">
<title>Node77</title>
<g id="a_node77"><a xlink:href="structMoFEM_1_1SmartPetscObj.html" target="_top" xlink:title=" ">
<polygon fill="white" stroke="black" points="3118,-830 3118,-860 3249,-860 3249,-830 3118,-830"/>
<text text-anchor="start" x="3126" y="-848" font-family="Helvetica,sans-Serif" font-size="10.00">MoFEM::SmartPetscObj</text>
<text text-anchor="middle" x="3183.5" y="-837" font-family="Helvetica,sans-Serif" font-size="10.00">&lt; Mat &gt;</text>
</a>
</g>
</g>
<!-- Node75&#45;&gt;Node77 -->
<g id="edge92" class="edge">
<title>Node75&#45;&gt;Node77</title>
<path fill="none" stroke="orange" stroke-dasharray="5,2" d="M2997.77,-804.42C3035.66,-812.75 3081.22,-822.75 3117.61,-830.75"/>
<polygon fill="orange" stroke="orange" points="2998.33,-800.96 2987.81,-802.24 2996.83,-807.8 2998.33,-800.96"/>
<text text-anchor="middle" x="3047.5" y="-822" font-family="Helvetica,sans-Serif" font-size="10.00"> &lt; Mat &gt;</text>
</g>
<!-- Node76 -->
<g id="node76" class="node">
<title>Node76</title>
<g id="a_node76"><a xlink:title=" ">
<polygon fill="white" stroke="#bfbfbf" points="2579,-208.5 2579,-249.5 2705,-249.5 2705,-208.5 2579,-208.5"/>
<text text-anchor="start" x="2587" y="-237.5" font-family="Helvetica,sans-Serif" font-size="10.00">boost::intrusive_ptr</text>
<text text-anchor="start" x="2587" y="-226.5" font-family="Helvetica,sans-Serif" font-size="10.00">&lt; std::remove_pointer</text>
<text text-anchor="middle" x="2642" y="-215.5" font-family="Helvetica,sans-Serif" font-size="10.00">&lt; OBJ &gt;::type &gt;</text>
</a>
</g>
</g>
<!-- Node76&#45;&gt;Node75 -->
<g id="edge89" class="edge">
<title>Node76&#45;&gt;Node75</title>
<path fill="none" stroke="midnightblue" d="M2715.28,-223.86C2751.98,-225.48 2793.99,-234.62 2819,-264 2854.96,-306.24 2803.04,-719.13 2837,-763 2842.12,-769.62 2848.92,-774.55 2856.44,-778.2"/>
<polygon fill="midnightblue" stroke="midnightblue" points="2715.17,-220.36 2705.09,-223.6 2714.99,-227.36 2715.17,-220.36"/>
</g>
<!-- Node77&#45;&gt;Node71 -->
<g id="edge90" class="edge">
<title>Node77&#45;&gt;Node71</title>
<path fill="none" stroke="#9a32cd" stroke-dasharray="5,2" d="M3259.28,-839.27C3288.85,-836.66 3323.08,-833.2 3354,-829 3362.49,-827.85 3371.55,-826.39 3380.18,-824.9"/>
<polygon fill="#9a32cd" stroke="#9a32cd" points="3258.69,-835.81 3249.03,-840.16 3259.3,-842.78 3258.69,-835.81"/>
<text text-anchor="middle" x="3325.5" y="-838" font-family="Helvetica,sans-Serif" font-size="10.00"> M</text>
</g>
<!-- Node78 -->
<g id="node78" class="node">
<title>Node78</title>
<g id="a_node78"><a xlink:title=" ">
<polygon fill="white" stroke="#bfbfbf" points="2859,-824.5 2859,-865.5 2985,-865.5 2985,-824.5 2859,-824.5"/>
<text text-anchor="start" x="2867" y="-853.5" font-family="Helvetica,sans-Serif" font-size="10.00">boost::intrusive_ptr</text>
<text text-anchor="start" x="2867" y="-842.5" font-family="Helvetica,sans-Serif" font-size="10.00">&lt; std::remove_pointer</text>
<text text-anchor="middle" x="2922" y="-831.5" font-family="Helvetica,sans-Serif" font-size="10.00">&lt; Mat &gt;::type &gt;</text>
</a>
</g>
</g>
<!-- Node78&#45;&gt;Node77 -->
<g id="edge91" class="edge">
<title>Node78&#45;&gt;Node77</title>
<path fill="none" stroke="midnightblue" d="M2995.24,-845C3033.64,-845 3080.46,-845 3117.69,-845"/>
<polygon fill="midnightblue" stroke="midnightblue" points="2995.16,-841.5 2985.16,-845 2995.16,-848.5 2995.16,-841.5"/>
</g>
</g>
</svg>
