<?xml version="1.0" encoding="UTF-8" standalone="no"?>
<!DOCTYPE svg PUBLIC "-//W3C//DTD SVG 1.1//EN"
 "http://www.w3.org/Graphics/SVG/1.1/DTD/svg11.dtd">
<!-- Generated by graphviz version 2.43.0 (0)
 -->
<!-- Title: MagneticElement::OpNaturalBC Pages: 1 -->
<svg width="3502pt" height="1473pt"
 viewBox="0.00 0.00 3502.00 1473.31" xmlns="http://www.w3.org/2000/svg" xmlns:xlink="http://www.w3.org/1999/xlink">
<g id="graph0" class="graph" transform="scale(1 1) rotate(0) translate(4 1469.31)">
<title>MagneticElement::OpNaturalBC</title>
<polygon fill="white" stroke="transparent" points="-4,4 -4,-1469.31 3498,-1469.31 3498,4 -4,4"/>
<!-- Node1 -->
<g id="node1" class="node">
<title>Node1</title>
<g id="a_node1"><a xlink:title="calculate essential boundary conditions">
<polygon fill="#bfbfbf" stroke="black" points="3323,-88.81 3323,-107.81 3494,-107.81 3494,-88.81 3323,-88.81"/>
<text text-anchor="middle" x="3408.5" y="-95.81" font-family="Helvetica,sans-Serif" font-size="10.00">MagneticElement::OpNaturalBC</text>
</a>
</g>
</g>
<!-- Node2 -->
<g id="node2" class="node">
<title>Node2</title>
<g id="a_node2"><a xlink:href="structMoFEM_1_1FaceElementForcesAndSourcesCore_1_1UserDataOperator.html" target="_top" xlink:title="default operator for TRI element">
<polygon fill="white" stroke="black" points="3044,-319.31 3044,-349.31 3235,-349.31 3235,-319.31 3044,-319.31"/>
<text text-anchor="start" x="3052" y="-337.31" font-family="Helvetica,sans-Serif" font-size="10.00">MoFEM::FaceElementForces</text>
<text text-anchor="middle" x="3139.5" y="-326.31" font-family="Helvetica,sans-Serif" font-size="10.00">AndSourcesCore::UserDataOperator</text>
</a>
</g>
</g>
<!-- Node2&#45;&gt;Node1 -->
<g id="edge1" class="edge">
<title>Node2&#45;&gt;Node1</title>
<path fill="none" stroke="midnightblue" d="M3165.31,-312.38C3221.57,-262.65 3357,-142.95 3396.51,-108.03"/>
<polygon fill="midnightblue" stroke="midnightblue" points="3162.78,-309.94 3157.61,-319.19 3167.42,-315.19 3162.78,-309.94"/>
</g>
<!-- Node3 -->
<g id="node3" class="node">
<title>Node3</title>
<g id="a_node3"><a xlink:href="structMoFEM_1_1ForcesAndSourcesCore_1_1UserDataOperator.html" target="_top" xlink:title=" ">
<polygon fill="white" stroke="black" points="2837,-527.31 2837,-557.31 3007,-557.31 3007,-527.31 2837,-527.31"/>
<text text-anchor="start" x="2845" y="-545.31" font-family="Helvetica,sans-Serif" font-size="10.00">MoFEM::ForcesAndSourcesCore</text>
<text text-anchor="middle" x="2922" y="-534.31" font-family="Helvetica,sans-Serif" font-size="10.00">::UserDataOperator</text>
</a>
</g>
</g>
<!-- Node3&#45;&gt;Node2 -->
<g id="edge2" class="edge">
<title>Node3&#45;&gt;Node2</title>
<path fill="none" stroke="midnightblue" d="M2946.23,-519.89C2990.42,-477.24 3085.51,-385.46 3122.92,-349.35"/>
<polygon fill="midnightblue" stroke="midnightblue" points="2943.61,-517.55 2938.85,-527.02 2948.47,-522.59 2943.61,-517.55"/>
</g>
<!-- Node4 -->
<g id="node4" class="node">
<title>Node4</title>
<g id="a_node4"><a xlink:href="structMoFEM_1_1DataOperator.html" target="_top" xlink:title="base operator to do operations at Gauss Pt. level">
<polygon fill="white" stroke="black" points="2579.5,-577.81 2579.5,-596.81 2704.5,-596.81 2704.5,-577.81 2579.5,-577.81"/>
<text text-anchor="middle" x="2642" y="-584.81" font-family="Helvetica,sans-Serif" font-size="10.00">MoFEM::DataOperator</text>
</a>
</g>
</g>
<!-- Node4&#45;&gt;Node3 -->
<g id="edge3" class="edge">
<title>Node4&#45;&gt;Node3</title>
<path fill="none" stroke="midnightblue" d="M2711.85,-576.17C2749.65,-570.05 2796.84,-562.41 2836.81,-555.94"/>
<polygon fill="midnightblue" stroke="midnightblue" points="2711.27,-572.71 2701.96,-577.77 2712.39,-579.63 2711.27,-572.71"/>
</g>
<!-- Node5 -->
<g id="node5" class="node">
<title>Node5</title>
<g id="a_node5"><a xlink:title=" ">
<polygon fill="white" stroke="#bfbfbf" points="2160,-669.31 2160,-721.31 2352,-721.31 2352,-669.31 2160,-669.31"/>
<text text-anchor="start" x="2168" y="-709.31" font-family="Helvetica,sans-Serif" font-size="10.00">function&lt; MoFEMErrorCode</text>
<text text-anchor="start" x="2168" y="-698.31" font-family="Helvetica,sans-Serif" font-size="10.00">(DataOperator *op_ptr,</text>
<text text-anchor="start" x="2168" y="-687.31" font-family="Helvetica,sans-Serif" font-size="10.00"> int side, EntityType type,</text>
<text text-anchor="middle" x="2256" y="-676.31" font-family="Helvetica,sans-Serif" font-size="10.00"> EntitiesFieldData::EntData &amp;data)&gt;</text>
</a>
</g>
</g>
<!-- Node5&#45;&gt;Node4 -->
<g id="edge4" class="edge">
<title>Node5&#45;&gt;Node4</title>
<path fill="none" stroke="#9a32cd" stroke-dasharray="5,2" d="M2362.26,-714.47C2420.57,-718.94 2490.79,-713.35 2539,-673.31 2562.72,-653.61 2534.77,-627.67 2557,-606.31 2563.25,-600.3 2570.99,-596.04 2579.2,-593.05"/>
<polygon fill="#9a32cd" stroke="#9a32cd" points="2362.53,-710.98 2352.27,-713.6 2361.92,-717.96 2362.53,-710.98"/>
<text text-anchor="middle" x="2458" y="-718.31" font-family="Helvetica,sans-Serif" font-size="10.00"> doWorkRhsHook</text>
</g>
<!-- Node6 -->
<g id="node6" class="node">
<title>Node6</title>
<g id="a_node6"><a xlink:href="classbool.html" target="_top" xlink:title=" ">
<polygon fill="white" stroke="black" points="2237,-622.81 2237,-641.81 2275,-641.81 2275,-622.81 2237,-622.81"/>
<text text-anchor="middle" x="2256" y="-629.81" font-family="Helvetica,sans-Serif" font-size="10.00">bool</text>
</a>
</g>
</g>
<!-- Node6&#45;&gt;Node4 -->
<g id="edge5" class="edge">
<title>Node6&#45;&gt;Node4</title>
<path fill="none" stroke="#9a32cd" stroke-dasharray="5,2" d="M2285.34,-631.33C2306.61,-629.59 2335.92,-625.05 2359,-613.31 2368.81,-608.32 2366.85,-600.55 2377,-596.31 2443.23,-568.66 2527.15,-571.46 2582.37,-577.8"/>
<polygon fill="#9a32cd" stroke="#9a32cd" points="2285.06,-627.84 2275.31,-631.98 2285.52,-634.82 2285.06,-627.84"/>
<text text-anchor="middle" x="2458" y="-665.31" font-family="Helvetica,sans-Serif" font-size="10.00"> doTris</text>
<text text-anchor="middle" x="2458" y="-654.31" font-family="Helvetica,sans-Serif" font-size="10.00">doQuads</text>
<text text-anchor="middle" x="2458" y="-643.31" font-family="Helvetica,sans-Serif" font-size="10.00">sYmm</text>
<text text-anchor="middle" x="2458" y="-632.31" font-family="Helvetica,sans-Serif" font-size="10.00">doPrisms</text>
<text text-anchor="middle" x="2458" y="-621.31" font-family="Helvetica,sans-Serif" font-size="10.00">doTets</text>
<text text-anchor="middle" x="2458" y="-610.31" font-family="Helvetica,sans-Serif" font-size="10.00">doVertices</text>
<text text-anchor="middle" x="2458" y="-599.31" font-family="Helvetica,sans-Serif" font-size="10.00">doEdges</text>
</g>
<!-- Node7 -->
<g id="node7" class="node">
<title>Node7</title>
<g id="a_node7"><a xlink:title=" ">
<polygon fill="white" stroke="#bfbfbf" points="2153,-518.81 2153,-603.81 2359,-603.81 2359,-518.81 2153,-518.81"/>
<text text-anchor="start" x="2161" y="-591.81" font-family="Helvetica,sans-Serif" font-size="10.00">function&lt; MoFEMErrorCode</text>
<text text-anchor="start" x="2161" y="-580.81" font-family="Helvetica,sans-Serif" font-size="10.00">(DataOperator *op_ptr,</text>
<text text-anchor="start" x="2161" y="-569.81" font-family="Helvetica,sans-Serif" font-size="10.00"> int row_side, int col_side,</text>
<text text-anchor="start" x="2161" y="-558.81" font-family="Helvetica,sans-Serif" font-size="10.00"> EntityType row_type, EntityType</text>
<text text-anchor="start" x="2161" y="-547.81" font-family="Helvetica,sans-Serif" font-size="10.00"> col_type, EntitiesFieldData::EntData</text>
<text text-anchor="start" x="2161" y="-536.81" font-family="Helvetica,sans-Serif" font-size="10.00"> &amp;row_data, EntitiesFieldData::EntData</text>
<text text-anchor="middle" x="2256" y="-525.81" font-family="Helvetica,sans-Serif" font-size="10.00"> &amp;col_data)&gt;</text>
</a>
</g>
</g>
<!-- Node7&#45;&gt;Node4 -->
<g id="edge6" class="edge">
<title>Node7&#45;&gt;Node4</title>
<path fill="none" stroke="#9a32cd" stroke-dasharray="5,2" d="M2369.4,-555.64C2421.21,-554.57 2483.42,-555.5 2539,-562.31 2563.25,-565.28 2590.06,-571.99 2610.11,-577.71"/>
<polygon fill="#9a32cd" stroke="#9a32cd" points="2369.09,-552.14 2359.18,-555.87 2369.25,-559.14 2369.09,-552.14"/>
<text text-anchor="middle" x="2458" y="-565.31" font-family="Helvetica,sans-Serif" font-size="10.00"> doWorkLhsHook</text>
</g>
<!-- Node8 -->
<g id="node8" class="node">
<title>Node8</title>
<g id="a_node8"><a xlink:title=" ">
<polygon fill="white" stroke="#bfbfbf" points="2179,-740.81 2179,-759.81 2333,-759.81 2333,-740.81 2179,-740.81"/>
<text text-anchor="middle" x="2256" y="-747.81" font-family="Helvetica,sans-Serif" font-size="10.00">array&lt; bool, MBMAXTYPE &gt;</text>
</a>
</g>
</g>
<!-- Node8&#45;&gt;Node4 -->
<g id="edge7" class="edge">
<title>Node8&#45;&gt;Node4</title>
<path fill="none" stroke="#9a32cd" stroke-dasharray="5,2" d="M2301.7,-762.02C2363.62,-775.29 2475.08,-787.99 2539,-728.31 2579.06,-690.91 2519.74,-646.51 2557,-606.31 2563.1,-599.73 2570.95,-595.19 2579.4,-592.1"/>
<polygon fill="#9a32cd" stroke="#9a32cd" points="2302.36,-758.58 2291.84,-759.82 2300.83,-765.41 2302.36,-758.58"/>
<text text-anchor="middle" x="2458" y="-775.31" font-family="Helvetica,sans-Serif" font-size="10.00"> doEntities</text>
</g>
<!-- Node9 -->
<g id="node9" class="node">
<title>Node9</title>
<g id="a_node9"><a xlink:title=" ">
<polygon fill="white" stroke="#bfbfbf" points="2607.5,-532.81 2607.5,-551.81 2676.5,-551.81 2676.5,-532.81 2607.5,-532.81"/>
<text text-anchor="middle" x="2642" y="-539.81" font-family="Helvetica,sans-Serif" font-size="10.00">FieldSpace</text>
</a>
</g>
</g>
<!-- Node9&#45;&gt;Node3 -->
<g id="edge8" class="edge">
<title>Node9&#45;&gt;Node3</title>
<path fill="none" stroke="#9a32cd" stroke-dasharray="5,2" d="M2686.79,-542.31C2726.94,-542.31 2787.51,-542.31 2836.99,-542.31"/>
<polygon fill="#9a32cd" stroke="#9a32cd" points="2686.53,-538.81 2676.53,-542.31 2686.53,-545.81 2686.53,-538.81"/>
<text text-anchor="middle" x="2782" y="-545.31" font-family="Helvetica,sans-Serif" font-size="10.00"> sPace</text>
</g>
<!-- Node10 -->
<g id="node10" class="node">
<title>Node10</title>
<g id="a_node10"><a xlink:title=" ">
<polygon fill="white" stroke="#bfbfbf" points="1122.5,-87.81 1122.5,-106.81 1160.5,-106.81 1160.5,-87.81 1122.5,-87.81"/>
<text text-anchor="middle" x="1141.5" y="-94.81" font-family="Helvetica,sans-Serif" font-size="10.00">char</text>
</a>
</g>
</g>
<!-- Node10&#45;&gt;Node3 -->
<g id="edge9" class="edge">
<title>Node10&#45;&gt;Node3</title>
<path fill="none" stroke="#9a32cd" stroke-dasharray="5,2" d="M1171.29,-93.99C1252.59,-84.9 1490.87,-60.31 1689.5,-60.31 1689.5,-60.31 1689.5,-60.31 2459,-60.31 2724.15,-60.31 2884.33,-445.16 2915.42,-527.09"/>
<polygon fill="#9a32cd" stroke="#9a32cd" points="1170.43,-90.56 1160.89,-95.16 1171.22,-97.52 1170.43,-90.56"/>
<text text-anchor="middle" x="2063" y="-63.31" font-family="Helvetica,sans-Serif" font-size="10.00"> opType</text>
</g>
<!-- Node38 -->
<g id="node38" class="node">
<title>Node38</title>
<g id="a_node38"><a xlink:href="structMoFEM_1_1Problem.html" target="_top" xlink:title="keeps basic data about problem">
<polygon fill="white" stroke="black" points="1449,-331.81 1449,-350.81 1548,-350.81 1548,-331.81 1449,-331.81"/>
<text text-anchor="middle" x="1498.5" y="-338.81" font-family="Helvetica,sans-Serif" font-size="10.00">MoFEM::Problem</text>
</a>
</g>
</g>
<!-- Node10&#45;&gt;Node38 -->
<g id="edge53" class="edge">
<title>Node10&#45;&gt;Node38</title>
<path fill="none" stroke="#9a32cd" stroke-dasharray="5,2" d="M1170.91,-97.63C1233.79,-98.59 1380.5,-102.44 1397,-117.31 1429.89,-146.97 1398.55,-174.2 1415,-215.31 1434.04,-262.89 1472.29,-311.47 1489.17,-331.63"/>
<polygon fill="#9a32cd" stroke="#9a32cd" points="1170.58,-94.12 1160.53,-97.48 1170.48,-101.12 1170.58,-94.12"/>
<text text-anchor="middle" x="1329" y="-120.31" font-family="Helvetica,sans-Serif" font-size="10.00"> tagName</text>
</g>
<!-- Node11 -->
<g id="node11" class="node">
<title>Node11</title>
<g id="a_node11"><a xlink:href="structMoFEM_1_1ForcesAndSourcesCore.html" target="_top" xlink:title="structure to get information form mofem into EntitiesFieldData">
<polygon fill="white" stroke="black" points="2557,-1040.81 2557,-1059.81 2727,-1059.81 2727,-1040.81 2557,-1040.81"/>
<text text-anchor="middle" x="2642" y="-1047.81" font-family="Helvetica,sans-Serif" font-size="10.00">MoFEM::ForcesAndSourcesCore</text>
</a>
</g>
</g>
<!-- Node11&#45;&gt;Node3 -->
<g id="edge10" class="edge">
<title>Node11&#45;&gt;Node3</title>
<path fill="none" stroke="#9a32cd" stroke-dasharray="5,2" d="M2653.26,-1031.56C2697.63,-950.48 2872.57,-630.81 2912.75,-557.4"/>
<polygon fill="#9a32cd" stroke="#9a32cd" points="2650.04,-1030.16 2648.31,-1040.62 2656.18,-1033.52 2650.04,-1030.16"/>
<text text-anchor="middle" x="2782" y="-859.31" font-family="Helvetica,sans-Serif" font-size="10.00"> ptrFE</text>
</g>
<!-- Node11&#45;&gt;Node11 -->
<g id="edge68" class="edge">
<title>Node11&#45;&gt;Node11</title>
<path fill="none" stroke="#9a32cd" stroke-dasharray="5,2" d="M2615.96,-1069.34C2617.38,-1074.44 2626.06,-1078.31 2642,-1078.31 2666.88,-1078.31 2674.08,-1068.88 2663.58,-1060.07"/>
<polygon fill="#9a32cd" stroke="#9a32cd" points="2619.24,-1070.6 2620.42,-1060.07 2612.93,-1067.56 2619.24,-1070.6"/>
<text text-anchor="middle" x="2642" y="-1092.31" font-family="Helvetica,sans-Serif" font-size="10.00"> sidePtrFE</text>
<text text-anchor="middle" x="2642" y="-1081.31" font-family="Helvetica,sans-Serif" font-size="10.00">refinePtrFE</text>
</g>
<!-- Node12 -->
<g id="node12" class="node">
<title>Node12</title>
<g id="a_node12"><a xlink:href="structMoFEM_1_1FEMethod.html" target="_top" xlink:title="structure for User Loop Methods on finite elements">
<polygon fill="white" stroke="black" points="2202.5,-969.81 2202.5,-988.81 2309.5,-988.81 2309.5,-969.81 2202.5,-969.81"/>
<text text-anchor="middle" x="2256" y="-976.81" font-family="Helvetica,sans-Serif" font-size="10.00">MoFEM::FEMethod</text>
</a>
</g>
</g>
<!-- Node12&#45;&gt;Node11 -->
<g id="edge11" class="edge">
<title>Node12&#45;&gt;Node11</title>
<path fill="none" stroke="midnightblue" d="M2319.72,-981.9C2377.4,-985.34 2464.94,-993.26 2539,-1011.31 2568.1,-1018.41 2600.14,-1031.6 2620.4,-1040.66"/>
<polygon fill="midnightblue" stroke="midnightblue" points="2319.85,-978.4 2309.67,-981.32 2319.45,-985.39 2319.85,-978.4"/>
</g>
<!-- Node13 -->
<g id="node13" class="node">
<title>Node13</title>
<g id="a_node13"><a xlink:href="structMoFEM_1_1BasicMethod.html" target="_top" xlink:title="Data structure to exchange data between mofem and User Loop Methods.">
<polygon fill="white" stroke="black" points="1825,-585.81 1825,-604.81 1947,-604.81 1947,-585.81 1825,-585.81"/>
<text text-anchor="middle" x="1886" y="-592.81" font-family="Helvetica,sans-Serif" font-size="10.00">MoFEM::BasicMethod</text>
</a>
</g>
</g>
<!-- Node13&#45;&gt;Node12 -->
<g id="edge12" class="edge">
<title>Node13&#45;&gt;Node12</title>
<path fill="none" stroke="midnightblue" d="M1894.63,-614.24C1920.45,-675.68 2010.99,-870.76 2153,-960.31 2167.63,-969.53 2185.63,-974.51 2202.41,-977.13"/>
<polygon fill="midnightblue" stroke="midnightblue" points="1897.85,-612.87 1890.8,-604.96 1891.38,-615.54 1897.85,-612.87"/>
</g>
<!-- Node14 -->
<g id="node14" class="node">
<title>Node14</title>
<g id="a_node14"><a xlink:href="structMoFEM_1_1KspMethod.html" target="_top" xlink:title="data structure for ksp (linear solver) context">
<polygon fill="white" stroke="black" points="1442,-711.81 1442,-730.81 1555,-730.81 1555,-711.81 1442,-711.81"/>
<text text-anchor="middle" x="1498.5" y="-718.81" font-family="Helvetica,sans-Serif" font-size="10.00">MoFEM::KspMethod</text>
</a>
</g>
</g>
<!-- Node14&#45;&gt;Node13 -->
<g id="edge13" class="edge">
<title>Node14&#45;&gt;Node13</title>
<path fill="none" stroke="midnightblue" d="M1565.22,-710.67C1623.27,-700.05 1709.55,-681.26 1781,-653.31 1814.89,-640.06 1851.33,-617.61 1870.81,-604.88"/>
<polygon fill="midnightblue" stroke="midnightblue" points="1564.3,-707.28 1555.08,-712.49 1565.54,-714.17 1564.3,-707.28"/>
</g>
<!-- Node15 -->
<g id="node15" class="node">
<title>Node15</title>
<g id="a_node15"><a xlink:href="structMoFEM_1_1PetscData.html" target="_top" xlink:title=" ">
<polygon fill="white" stroke="black" points="1087.5,-893.81 1087.5,-912.81 1195.5,-912.81 1195.5,-893.81 1087.5,-893.81"/>
<text text-anchor="middle" x="1141.5" y="-900.81" font-family="Helvetica,sans-Serif" font-size="10.00">MoFEM::PetscData</text>
</a>
</g>
</g>
<!-- Node15&#45;&gt;Node14 -->
<g id="edge14" class="edge">
<title>Node15&#45;&gt;Node14</title>
<path fill="none" stroke="midnightblue" d="M1205.63,-899.37C1219.49,-895.7 1233,-889.52 1243,-879.31 1269.41,-852.34 1235.59,-824.22 1261,-796.31 1286.3,-768.52 1387,-743.77 1448.55,-730.83"/>
<polygon fill="midnightblue" stroke="midnightblue" points="1204.52,-896.03 1195.51,-901.62 1206.04,-902.86 1204.52,-896.03"/>
</g>
<!-- Node25 -->
<g id="node25" class="node">
<title>Node25</title>
<g id="a_node25"><a xlink:href="structMoFEM_1_1SnesMethod.html" target="_top" xlink:title="data structure for snes (nonlinear solver) context">
<polygon fill="white" stroke="black" points="1439,-843.81 1439,-862.81 1558,-862.81 1558,-843.81 1439,-843.81"/>
<text text-anchor="middle" x="1498.5" y="-850.81" font-family="Helvetica,sans-Serif" font-size="10.00">MoFEM::SnesMethod</text>
</a>
</g>
</g>
<!-- Node15&#45;&gt;Node25 -->
<g id="edge27" class="edge">
<title>Node15&#45;&gt;Node25</title>
<path fill="none" stroke="darkgreen" d="M1205.93,-894.38C1272.03,-885.07 1374.74,-870.6 1438.96,-861.56"/>
<polygon fill="darkgreen" stroke="darkgreen" points="1205.06,-890.97 1195.65,-895.83 1206.04,-897.9 1205.06,-890.97"/>
</g>
<!-- Node28 -->
<g id="node28" class="node">
<title>Node28</title>
<g id="a_node28"><a xlink:href="structMoFEM_1_1TSMethod.html" target="_top" xlink:title="data structure for TS (time stepping) context">
<polygon fill="white" stroke="black" points="1445,-1128.81 1445,-1147.81 1552,-1147.81 1552,-1128.81 1445,-1128.81"/>
<text text-anchor="middle" x="1498.5" y="-1135.81" font-family="Helvetica,sans-Serif" font-size="10.00">MoFEM::TSMethod</text>
</a>
</g>
</g>
<!-- Node15&#45;&gt;Node28 -->
<g id="edge33" class="edge">
<title>Node15&#45;&gt;Node28</title>
<path fill="none" stroke="darkgreen" d="M1205.47,-908.83C1219.01,-912.47 1232.42,-918.25 1243,-927.31 1259.04,-941.06 1247.84,-954.78 1261,-971.31 1323.28,-1049.58 1431.64,-1107.08 1476.81,-1128.8"/>
<polygon fill="darkgreen" stroke="darkgreen" points="1206.15,-905.39 1195.62,-906.53 1204.56,-912.21 1206.15,-905.39"/>
</g>
<!-- Node16 -->
<g id="node16" class="node">
<title>Node16</title>
<g id="a_node16"><a xlink:href="structMoFEM_1_1UnknownInterface.html" target="_top" xlink:title="base class for all interface classes">
<polygon fill="white" stroke="black" points="735,-1183.81 735,-1202.81 883,-1202.81 883,-1183.81 735,-1183.81"/>
<text text-anchor="middle" x="809" y="-1190.81" font-family="Helvetica,sans-Serif" font-size="10.00">MoFEM::UnknownInterface</text>
</a>
</g>
</g>
<!-- Node16&#45;&gt;Node15 -->
<g id="edge15" class="edge">
<title>Node16&#45;&gt;Node15</title>
<path fill="none" stroke="midnightblue" d="M836.35,-1178.62C881.95,-1151.75 975.16,-1090.11 1022,-1011.31 1041.51,-978.49 1013.32,-954.62 1040,-927.31 1052.41,-914.61 1070.25,-908.14 1087.47,-904.99"/>
<polygon fill="midnightblue" stroke="midnightblue" points="834.53,-1175.63 827.64,-1183.68 838.04,-1181.69 834.53,-1175.63"/>
</g>
<!-- Node56 -->
<g id="node56" class="node">
<title>Node56</title>
<g id="a_node56"><a xlink:href="structMoFEM_1_1CoreInterface.html" target="_top" xlink:title="Interface.">
<polygon fill="white" stroke="black" points="1079,-1344.81 1079,-1363.81 1204,-1363.81 1204,-1344.81 1079,-1344.81"/>
<text text-anchor="middle" x="1141.5" y="-1351.81" font-family="Helvetica,sans-Serif" font-size="10.00">MoFEM::CoreInterface</text>
</a>
</g>
</g>
<!-- Node16&#45;&gt;Node56 -->
<g id="edge67" class="edge">
<title>Node16&#45;&gt;Node56</title>
<path fill="none" stroke="midnightblue" d="M830.41,-1209.56C868.95,-1239.39 956.15,-1302.79 1040,-1335.31 1052.25,-1340.06 1065.82,-1343.65 1078.91,-1346.36"/>
<polygon fill="midnightblue" stroke="midnightblue" points="832.13,-1206.47 822.1,-1203.07 827.82,-1211.98 832.13,-1206.47"/>
</g>
<!-- Node17 -->
<g id="node17" class="node">
<title>Node17</title>
<g id="a_node17"><a xlink:title=" ">
<polygon fill="white" stroke="#bfbfbf" points="386,-624.81 386,-687.81 627,-687.81 627,-624.81 386,-624.81"/>
<text text-anchor="start" x="394" y="-675.81" font-family="Helvetica,sans-Serif" font-size="10.00">multi_index_container</text>
<text text-anchor="start" x="394" y="-664.81" font-family="Helvetica,sans-Serif" font-size="10.00">&lt; UIdTypeMap, indexed</text>
<text text-anchor="start" x="394" y="-653.81" font-family="Helvetica,sans-Serif" font-size="10.00">_by&lt; hashed_unique&lt; member</text>
<text text-anchor="start" x="394" y="-642.81" font-family="Helvetica,sans-Serif" font-size="10.00">&lt; UIdTypeMap, boost::typeindex</text>
<text text-anchor="middle" x="506.5" y="-631.81" font-family="Helvetica,sans-Serif" font-size="10.00">::type_index, &amp;UIdTypeMap::classIdx &gt; &gt; &gt; &gt;</text>
</a>
</g>
</g>
<!-- Node17&#45;&gt;Node16 -->
<g id="edge16" class="edge">
<title>Node17&#45;&gt;Node16</title>
<path fill="none" stroke="#9a32cd" stroke-dasharray="5,2" d="M529.88,-696.89C570.51,-770.46 659.19,-930.72 735,-1065.31 759.98,-1109.67 790.24,-1162.41 802.47,-1183.7"/>
<polygon fill="#9a32cd" stroke="#9a32cd" points="532.84,-695 524.94,-687.93 526.71,-698.38 532.84,-695"/>
<text text-anchor="middle" x="681" y="-1034.31" font-family="Helvetica,sans-Serif" font-size="10.00"> iFaceTypeMap</text>
</g>
<!-- Node18 -->
<g id="node18" class="node">
<title>Node18</title>
<g id="a_node18"><a xlink:title=" ">
<polygon fill="white" stroke="#bfbfbf" points="0,-65.81 0,-84.81 125,-84.81 125,-65.81 0,-65.81"/>
<text text-anchor="middle" x="62.5" y="-72.81" font-family="Helvetica,sans-Serif" font-size="10.00">multi_index_container</text>
</a>
</g>
</g>
<!-- Node18&#45;&gt;Node13 -->
<g id="edge40" class="edge">
<title>Node18&#45;&gt;Node13</title>
<path fill="none" stroke="#9a32cd" stroke-dasharray="5,2" d="M135.41,-71.11C222.85,-66.37 374.95,-59.31 505.5,-59.31 505.5,-59.31 505.5,-59.31 962.5,-59.31 1156.31,-59.31 1226.97,-3.29 1397,-96.31 1510.88,-158.61 1519.33,-208.64 1582,-322.31 1594.21,-344.47 1580.67,-359.99 1600,-376.31 1662.19,-428.83 1724.87,-345.35 1781,-404.31 1834,-459.98 1747.81,-518.98 1799,-576.31 1805.82,-583.95 1814.97,-588.9 1824.75,-592.03"/>
<polygon fill="#9a32cd" stroke="#9a32cd" points="135.12,-67.62 125.33,-71.66 135.51,-74.61 135.12,-67.62"/>
<text text-anchor="middle" x="961.5" y="-139.31" font-family="Helvetica,sans-Serif" font-size="10.00"> adjacenciesPtr</text>
<text text-anchor="middle" x="961.5" y="-128.31" font-family="Helvetica,sans-Serif" font-size="10.00">refinedEntitiesPtr</text>
<text text-anchor="middle" x="961.5" y="-117.31" font-family="Helvetica,sans-Serif" font-size="10.00">finiteElementsEntitiesPtr</text>
<text text-anchor="middle" x="961.5" y="-106.31" font-family="Helvetica,sans-Serif" font-size="10.00">dofsPtr</text>
<text text-anchor="middle" x="961.5" y="-95.31" font-family="Helvetica,sans-Serif" font-size="10.00">entitiesPtr</text>
<text text-anchor="middle" x="961.5" y="-84.31" font-family="Helvetica,sans-Serif" font-size="10.00">finiteElementsPtr</text>
<text text-anchor="middle" x="961.5" y="-73.31" font-family="Helvetica,sans-Serif" font-size="10.00">refinedFiniteElementsPtr</text>
<text text-anchor="middle" x="961.5" y="-62.31" font-family="Helvetica,sans-Serif" font-size="10.00">fieldsPtr</text>
</g>
<!-- Node18&#45;&gt;Node17 -->
<g id="edge17" class="edge">
<title>Node18&#45;&gt;Node17</title>
<path fill="none" stroke="orange" stroke-dasharray="5,2" d="M77.15,-93.25C139.82,-175.63 400.46,-518.24 481.41,-624.64"/>
<polygon fill="orange" stroke="orange" points="79.64,-90.75 70.8,-84.91 74.07,-94.99 79.64,-90.75"/>
<text text-anchor="start" x="143" y="-504.31" font-family="Helvetica,sans-Serif" font-size="10.00"> &lt; UIdTypeMap, indexed</text>
<text text-anchor="start" x="143" y="-493.31" font-family="Helvetica,sans-Serif" font-size="10.00">_by&lt; hashed_unique&lt; member</text>
<text text-anchor="start" x="143" y="-482.31" font-family="Helvetica,sans-Serif" font-size="10.00">&lt; UIdTypeMap, boost::typeindex</text>
<text text-anchor="middle" x="255.5" y="-471.31" font-family="Helvetica,sans-Serif" font-size="10.00">::type_index, &amp;UIdTypeMap::classIdx &gt; &gt; &gt; &gt;</text>
</g>
<!-- Node19 -->
<g id="node19" class="node">
<title>Node19</title>
<g id="a_node19"><a xlink:title=" ">
<polygon fill="white" stroke="#bfbfbf" points="738.5,-807.81 738.5,-826.81 879.5,-826.81 879.5,-807.81 738.5,-807.81"/>
<text text-anchor="middle" x="809" y="-814.81" font-family="Helvetica,sans-Serif" font-size="10.00">static constexpr Switches</text>
</a>
</g>
</g>
<!-- Node19&#45;&gt;Node15 -->
<g id="edge18" class="edge">
<title>Node19&#45;&gt;Node15</title>
<path fill="none" stroke="#9a32cd" stroke-dasharray="5,2" d="M889.83,-808.97C941.02,-805.38 1001.58,-804.97 1022,-820.31 1043.92,-836.78 1020.03,-860.53 1040,-879.31 1052.74,-891.29 1070.36,-897.63 1087.28,-900.88"/>
<polygon fill="#9a32cd" stroke="#9a32cd" points="889.44,-805.49 879.73,-809.73 889.97,-812.47 889.44,-805.49"/>
<text text-anchor="middle" x="961.5" y="-900.31" font-family="Helvetica,sans-Serif" font-size="10.00"> CtxSetX_TT</text>
<text text-anchor="middle" x="961.5" y="-889.31" font-family="Helvetica,sans-Serif" font-size="10.00">CtxSetX_T</text>
<text text-anchor="middle" x="961.5" y="-878.31" font-family="Helvetica,sans-Serif" font-size="10.00">CtxSetA</text>
<text text-anchor="middle" x="961.5" y="-867.31" font-family="Helvetica,sans-Serif" font-size="10.00">CtxSetB</text>
<text text-anchor="middle" x="961.5" y="-856.31" font-family="Helvetica,sans-Serif" font-size="10.00">CtxSetTime</text>
<text text-anchor="middle" x="961.5" y="-845.31" font-family="Helvetica,sans-Serif" font-size="10.00">CtxSetNone</text>
<text text-anchor="middle" x="961.5" y="-834.31" font-family="Helvetica,sans-Serif" font-size="10.00">CtxSetF</text>
<text text-anchor="middle" x="961.5" y="-823.31" font-family="Helvetica,sans-Serif" font-size="10.00">CtxSetX</text>
</g>
<!-- Node20 -->
<g id="node20" class="node">
<title>Node20</title>
<g id="a_node20"><a xlink:title=" ">
<polygon fill="white" stroke="#bfbfbf" points="791.5,-704.81 791.5,-723.81 826.5,-723.81 826.5,-704.81 791.5,-704.81"/>
<text text-anchor="middle" x="809" y="-711.81" font-family="Helvetica,sans-Serif" font-size="10.00">Mat</text>
</a>
</g>
</g>
<!-- Node20&#45;&gt;Node14 -->
<g id="edge24" class="edge">
<title>Node20&#45;&gt;Node14</title>
<path fill="none" stroke="#9a32cd" stroke-dasharray="5,2" d="M835.95,-701.73C877.73,-682.24 963.04,-645.62 1040,-632.31 1128.9,-616.94 1159.65,-597.78 1243,-632.31 1253.45,-636.64 1251.04,-644.94 1261,-650.31 1315.33,-679.58 1338.68,-658.12 1397,-678.31 1405.45,-681.24 1406.86,-683.6 1415,-687.31 1434.32,-696.11 1456.58,-705.23 1473.11,-711.8"/>
<polygon fill="#9a32cd" stroke="#9a32cd" points="834.31,-698.63 826.77,-706.06 837.3,-704.96 834.31,-698.63"/>
<text text-anchor="middle" x="1141.5" y="-646.31" font-family="Helvetica,sans-Serif" font-size="10.00"> ksp_A</text>
<text text-anchor="middle" x="1141.5" y="-635.31" font-family="Helvetica,sans-Serif" font-size="10.00">ksp_B</text>
</g>
<!-- Node20&#45;&gt;Node15 -->
<g id="edge19" class="edge">
<title>Node20&#45;&gt;Node15</title>
<path fill="none" stroke="#9a32cd" stroke-dasharray="5,2" d="M835.8,-725.59C853.84,-733.21 878.61,-743.14 901,-750.31 953.77,-767.21 984.08,-739.92 1022,-780.31 1052.61,-812.92 1009.25,-846.84 1040,-879.31 1052.21,-892.21 1070.01,-898.72 1087.24,-901.85"/>
<polygon fill="#9a32cd" stroke="#9a32cd" points="837.1,-722.34 826.53,-721.63 834.35,-728.77 837.1,-722.34"/>
<text text-anchor="middle" x="961.5" y="-794.31" font-family="Helvetica,sans-Serif" font-size="10.00"> A</text>
<text text-anchor="middle" x="961.5" y="-783.31" font-family="Helvetica,sans-Serif" font-size="10.00">B</text>
</g>
<!-- Node20&#45;&gt;Node25 -->
<g id="edge29" class="edge">
<title>Node20&#45;&gt;Node25</title>
<path fill="none" stroke="#9a32cd" stroke-dasharray="5,2" d="M836.61,-715.18C876.85,-716.69 955.57,-720.43 1022,-728.31 1120.97,-740.06 1146.43,-741.67 1243,-766.31 1329.64,-788.42 1429.07,-826.13 1473.67,-843.74"/>
<polygon fill="#9a32cd" stroke="#9a32cd" points="836.67,-711.68 826.55,-714.82 836.42,-718.67 836.67,-711.68"/>
<text text-anchor="middle" x="1141.5" y="-780.31" font-family="Helvetica,sans-Serif" font-size="10.00"> snes_A</text>
<text text-anchor="middle" x="1141.5" y="-769.31" font-family="Helvetica,sans-Serif" font-size="10.00">snes_B</text>
</g>
<!-- Node20&#45;&gt;Node28 -->
<g id="edge34" class="edge">
<title>Node20&#45;&gt;Node28</title>
<path fill="none" stroke="#9a32cd" stroke-dasharray="5,2" d="M836.89,-717.61C890.92,-724.48 1008.62,-740.71 1022,-753.31 1046.32,-776.22 1015.6,-803.48 1040,-826.31 1106.9,-888.92 1153.66,-841.97 1243,-862.31 1312.29,-878.09 1351.01,-851.14 1397,-905.31 1420.73,-933.26 1397.69,-1036.99 1415,-1069.31 1429.55,-1096.47 1459.62,-1117.28 1479.15,-1128.65"/>
<polygon fill="#9a32cd" stroke="#9a32cd" points="837.05,-714.11 826.69,-716.33 836.18,-721.05 837.05,-714.11"/>
<text text-anchor="middle" x="1141.5" y="-876.31" font-family="Helvetica,sans-Serif" font-size="10.00"> ts_A</text>
<text text-anchor="middle" x="1141.5" y="-865.31" font-family="Helvetica,sans-Serif" font-size="10.00">ts_B</text>
</g>
<!-- Node71 -->
<g id="node71" class="node">
<title>Node71</title>
<g id="a_node71"><a xlink:href="structMagneticElement_1_1BlockData.html" target="_top" xlink:title="data structure storing material constants, model parameters, matrices, etc.">
<polygon fill="white" stroke="black" points="2177,-370.81 2177,-389.81 2335,-389.81 2335,-370.81 2177,-370.81"/>
<text text-anchor="middle" x="2256" y="-377.81" font-family="Helvetica,sans-Serif" font-size="10.00">MagneticElement::BlockData</text>
</a>
</g>
</g>
<!-- Node20&#45;&gt;Node71 -->
<g id="edge90" class="edge">
<title>Node20&#45;&gt;Node71</title>
<path fill="none" stroke="#9a32cd" stroke-dasharray="5,2" d="M811.2,-694.39C817.82,-587.36 851.48,-83.62 901,-37.31 978.92,35.56 1033.82,-21.31 1140.5,-21.31 1140.5,-21.31 1140.5,-21.31 1691.5,-21.31 1959.45,-21.31 2202.65,-313.62 2247.59,-370.71"/>
<polygon fill="#9a32cd" stroke="#9a32cd" points="807.7,-694.28 810.58,-704.47 814.68,-694.7 807.7,-694.28"/>
<text text-anchor="middle" x="1498.5" y="-24.31" font-family="Helvetica,sans-Serif" font-size="10.00"> A</text>
</g>
<!-- Node21 -->
<g id="node21" class="node">
<title>Node21</title>
<g id="a_node21"><a xlink:title=" ">
<polygon fill="white" stroke="#bfbfbf" points="772.5,-918.81 772.5,-937.81 845.5,-937.81 845.5,-918.81 772.5,-918.81"/>
<text text-anchor="middle" x="809" y="-925.81" font-family="Helvetica,sans-Serif" font-size="10.00">bitset&lt; 8 &gt;</text>
</a>
</g>
</g>
<!-- Node21&#45;&gt;Node15 -->
<g id="edge20" class="edge">
<title>Node21&#45;&gt;Node15</title>
<path fill="none" stroke="#9a32cd" stroke-dasharray="5,2" d="M855.72,-924.85C916.35,-920.27 1023.14,-912.19 1087.3,-907.34"/>
<polygon fill="#9a32cd" stroke="#9a32cd" points="855.39,-921.37 845.68,-925.61 855.92,-928.35 855.39,-921.37"/>
<text text-anchor="middle" x="961.5" y="-923.31" font-family="Helvetica,sans-Serif" font-size="10.00"> data_ctx</text>
</g>
<!-- Node22 -->
<g id="node22" class="node">
<title>Node22</title>
<g id="a_node22"><a xlink:title=" ">
<polygon fill="white" stroke="#bfbfbf" points="792,-1036.81 792,-1055.81 826,-1055.81 826,-1036.81 792,-1036.81"/>
<text text-anchor="middle" x="809" y="-1043.81" font-family="Helvetica,sans-Serif" font-size="10.00">Vec</text>
</a>
</g>
</g>
<!-- Node22&#45;&gt;Node14 -->
<g id="edge25" class="edge">
<title>Node22&#45;&gt;Node14</title>
<path fill="none" stroke="#9a32cd" stroke-dasharray="5,2" d="M836.4,-1042.94C890.04,-1035.87 1007.91,-1019.19 1022,-1007.31 1039.74,-992.36 1022.21,-973.21 1040,-958.31 1110.25,-899.48 1178.18,-987.08 1243,-922.31 1275.26,-890.08 1230.34,-855.06 1261,-821.31 1303.2,-774.85 1339.51,-808.48 1397,-783.31 1430.43,-768.68 1465.96,-744.42 1484.51,-731"/>
<polygon fill="#9a32cd" stroke="#9a32cd" points="835.75,-1039.49 826.28,-1044.26 836.65,-1046.43 835.75,-1039.49"/>
<text text-anchor="middle" x="1141.5" y="-961.31" font-family="Helvetica,sans-Serif" font-size="10.00"> ksp_f</text>
</g>
<!-- Node22&#45;&gt;Node15 -->
<g id="edge21" class="edge">
<title>Node22&#45;&gt;Node15</title>
<path fill="none" stroke="#9a32cd" stroke-dasharray="5,2" d="M824.07,-1029C840.51,-1009.95 869.5,-979.85 901,-963.31 949.87,-937.65 969.65,-952.82 1022,-935.31 1030.3,-932.53 1031.71,-930.12 1040,-927.31 1056.91,-921.59 1075.85,-916.69 1092.7,-912.84"/>
<polygon fill="#9a32cd" stroke="#9a32cd" points="821.39,-1026.74 817.63,-1036.65 826.74,-1031.25 821.39,-1026.74"/>
<text text-anchor="middle" x="961.5" y="-999.31" font-family="Helvetica,sans-Serif" font-size="10.00"> f</text>
<text text-anchor="middle" x="961.5" y="-988.31" font-family="Helvetica,sans-Serif" font-size="10.00">x</text>
<text text-anchor="middle" x="961.5" y="-977.31" font-family="Helvetica,sans-Serif" font-size="10.00">x_t</text>
<text text-anchor="middle" x="961.5" y="-966.31" font-family="Helvetica,sans-Serif" font-size="10.00">x_tt</text>
</g>
<!-- Node22&#45;&gt;Node25 -->
<g id="edge30" class="edge">
<title>Node22&#45;&gt;Node25</title>
<path fill="none" stroke="#9a32cd" stroke-dasharray="5,2" d="M836.5,-1045.75C937.93,-1043.19 1300.72,-1030.01 1397,-971.31 1443.41,-943.02 1479.15,-885.91 1492.17,-863.07"/>
<polygon fill="#9a32cd" stroke="#9a32cd" points="836.13,-1042.26 826.22,-1046 836.3,-1049.26 836.13,-1042.26"/>
<text text-anchor="middle" x="1141.5" y="-1049.31" font-family="Helvetica,sans-Serif" font-size="10.00"> snes_x</text>
<text text-anchor="middle" x="1141.5" y="-1038.31" font-family="Helvetica,sans-Serif" font-size="10.00">snes_f</text>
</g>
<!-- Node22&#45;&gt;Node28 -->
<g id="edge38" class="edge">
<title>Node22&#45;&gt;Node28</title>
<path fill="none" stroke="#9a32cd" stroke-dasharray="5,2" d="M833.24,-1061.49C851.21,-1072.75 876.98,-1087.88 901,-1098.31 960.32,-1124.06 976.37,-1129.77 1040,-1141.31 1196.22,-1169.64 1238.72,-1166.83 1397,-1154.31 1413.56,-1153 1431.5,-1150.5 1447.59,-1147.85"/>
<polygon fill="#9a32cd" stroke="#9a32cd" points="834.93,-1058.41 824.61,-1056 831.17,-1064.32 834.93,-1058.41"/>
<text text-anchor="middle" x="1141.5" y="-1199.31" font-family="Helvetica,sans-Serif" font-size="10.00"> ts_u</text>
<text text-anchor="middle" x="1141.5" y="-1188.31" font-family="Helvetica,sans-Serif" font-size="10.00">ts_F</text>
<text text-anchor="middle" x="1141.5" y="-1177.31" font-family="Helvetica,sans-Serif" font-size="10.00">ts_u_t</text>
<text text-anchor="middle" x="1141.5" y="-1166.31" font-family="Helvetica,sans-Serif" font-size="10.00">ts_u_tt</text>
</g>
<!-- Node22&#45;&gt;Node71 -->
<g id="edge91" class="edge">
<title>Node22&#45;&gt;Node71</title>
<path fill="none" stroke="#9a32cd" stroke-dasharray="5,2" d="M836.55,-1051.08C904.71,-1062.5 1091.16,-1088.51 1243,-1061.31 1571.57,-1002.46 2005.5,-768.38 2135,-593.31 2157.71,-562.62 2136.73,-543.85 2153,-509.31 2176.84,-458.68 2223.97,-409.96 2244.75,-389.9"/>
<polygon fill="#9a32cd" stroke="#9a32cd" points="836.74,-1047.57 826.3,-1049.32 835.56,-1054.46 836.74,-1047.57"/>
<text text-anchor="middle" x="1498.5" y="-1030.31" font-family="Helvetica,sans-Serif" font-size="10.00"> D</text>
<text text-anchor="middle" x="1498.5" y="-1019.31" font-family="Helvetica,sans-Serif" font-size="10.00">F</text>
</g>
<!-- Node23 -->
<g id="node23" class="node">
<title>Node23</title>
<g id="a_node23"><a xlink:title=" ">
<polygon fill="white" stroke="#bfbfbf" points="1124,-663.81 1124,-682.81 1159,-682.81 1159,-663.81 1124,-663.81"/>
<text text-anchor="middle" x="1141.5" y="-670.81" font-family="Helvetica,sans-Serif" font-size="10.00">KSP</text>
</a>
</g>
</g>
<!-- Node23&#45;&gt;Node14 -->
<g id="edge22" class="edge">
<title>Node23&#45;&gt;Node14</title>
<path fill="none" stroke="#9a32cd" stroke-dasharray="5,2" d="M1169.43,-675.05C1216.01,-678.29 1314.58,-686.12 1397,-699.31 1417.46,-702.58 1440.01,-707.41 1458.56,-711.71"/>
<polygon fill="#9a32cd" stroke="#9a32cd" points="1169.47,-671.55 1159.26,-674.36 1169,-678.53 1169.47,-671.55"/>
<text text-anchor="middle" x="1329" y="-702.31" font-family="Helvetica,sans-Serif" font-size="10.00"> ksp</text>
</g>
<!-- Node24 -->
<g id="node24" class="node">
<title>Node24</title>
<g id="a_node24"><a xlink:title=" ">
<polygon fill="white" stroke="#bfbfbf" points="1104.5,-701.81 1104.5,-720.81 1178.5,-720.81 1178.5,-701.81 1104.5,-701.81"/>
<text text-anchor="middle" x="1141.5" y="-708.81" font-family="Helvetica,sans-Serif" font-size="10.00">KSPContext</text>
</a>
</g>
</g>
<!-- Node24&#45;&gt;Node14 -->
<g id="edge23" class="edge">
<title>Node24&#45;&gt;Node14</title>
<path fill="none" stroke="#9a32cd" stroke-dasharray="5,2" d="M1189.19,-712.63C1254.3,-714.46 1372.2,-717.78 1441.81,-719.74"/>
<polygon fill="#9a32cd" stroke="#9a32cd" points="1188.92,-709.12 1178.82,-712.33 1188.72,-716.11 1188.92,-709.12"/>
<text text-anchor="middle" x="1329" y="-721.31" font-family="Helvetica,sans-Serif" font-size="10.00"> ksp_ctx</text>
</g>
<!-- Node25&#45;&gt;Node13 -->
<g id="edge26" class="edge">
<title>Node25&#45;&gt;Node13</title>
<path fill="none" stroke="midnightblue" d="M1529.07,-839.25C1581.9,-813.53 1695.02,-755.67 1781,-692.31 1819.36,-664.04 1858.99,-623.27 1876.17,-604.91"/>
<polygon fill="midnightblue" stroke="midnightblue" points="1527.4,-836.17 1519.93,-843.68 1530.45,-842.47 1527.4,-836.17"/>
</g>
<!-- Node26 -->
<g id="node26" class="node">
<title>Node26</title>
<g id="a_node26"><a xlink:title=" ">
<polygon fill="white" stroke="#bfbfbf" points="1120.5,-797.81 1120.5,-816.81 1162.5,-816.81 1162.5,-797.81 1120.5,-797.81"/>
<text text-anchor="middle" x="1141.5" y="-804.81" font-family="Helvetica,sans-Serif" font-size="10.00">SNES</text>
</a>
</g>
</g>
<!-- Node26&#45;&gt;Node25 -->
<g id="edge28" class="edge">
<title>Node26&#45;&gt;Node25</title>
<path fill="none" stroke="#9a32cd" stroke-dasharray="5,2" d="M1172.72,-811.23C1231.53,-818.85 1362.28,-835.79 1438.74,-845.7"/>
<polygon fill="#9a32cd" stroke="#9a32cd" points="1172.97,-807.73 1162.6,-809.92 1172.07,-814.67 1172.97,-807.73"/>
<text text-anchor="middle" x="1329" y="-842.31" font-family="Helvetica,sans-Serif" font-size="10.00"> snes</text>
</g>
<!-- Node27 -->
<g id="node27" class="node">
<title>Node27</title>
<g id="a_node27"><a xlink:title=" ">
<polygon fill="white" stroke="#bfbfbf" points="1101.5,-978.81 1101.5,-997.81 1181.5,-997.81 1181.5,-978.81 1101.5,-978.81"/>
<text text-anchor="middle" x="1141.5" y="-985.81" font-family="Helvetica,sans-Serif" font-size="10.00">SNESContext</text>
</a>
</g>
</g>
<!-- Node27&#45;&gt;Node25 -->
<g id="edge31" class="edge">
<title>Node27&#45;&gt;Node25</title>
<path fill="none" stroke="#9a32cd" stroke-dasharray="5,2" d="M1191.61,-978.41C1208.11,-974.6 1226.52,-969.83 1243,-964.31 1333.97,-933.88 1437.29,-883.69 1478.8,-862.84"/>
<polygon fill="#9a32cd" stroke="#9a32cd" points="1190.6,-975.05 1181.61,-980.66 1192.13,-981.88 1190.6,-975.05"/>
<text text-anchor="middle" x="1329" y="-959.31" font-family="Helvetica,sans-Serif" font-size="10.00"> snes_ctx</text>
</g>
<!-- Node28&#45;&gt;Node13 -->
<g id="edge32" class="edge">
<title>Node28&#45;&gt;Node13</title>
<path fill="none" stroke="midnightblue" d="M1521.94,-1122.49C1539.51,-1109.44 1563.9,-1089.81 1582,-1069.31 1729.37,-902.37 1854.58,-656.81 1880.21,-605.09"/>
<polygon fill="midnightblue" stroke="midnightblue" points="1519.47,-1119.96 1513.45,-1128.68 1523.6,-1125.61 1519.47,-1119.96"/>
</g>
<!-- Node29 -->
<g id="node29" class="node">
<title>Node29</title>
<g id="a_node29"><a xlink:title=" ">
<polygon fill="white" stroke="#bfbfbf" points="1109,-1112.81 1109,-1131.81 1174,-1131.81 1174,-1112.81 1109,-1112.81"/>
<text text-anchor="middle" x="1141.5" y="-1119.81" font-family="Helvetica,sans-Serif" font-size="10.00">PetscReal</text>
</a>
</g>
</g>
<!-- Node29&#45;&gt;Node28 -->
<g id="edge35" class="edge">
<title>Node29&#45;&gt;Node28</title>
<path fill="none" stroke="#9a32cd" stroke-dasharray="5,2" d="M1184.22,-1115.7C1234.8,-1108.75 1322.53,-1100.13 1397,-1110.31 1422.48,-1113.79 1450.62,-1122.03 1470.62,-1128.67"/>
<polygon fill="#9a32cd" stroke="#9a32cd" points="1183.42,-1112.28 1174.01,-1117.15 1184.4,-1119.21 1183.42,-1112.28"/>
<text text-anchor="middle" x="1329" y="-1146.31" font-family="Helvetica,sans-Serif" font-size="10.00"> ts_a</text>
<text text-anchor="middle" x="1329" y="-1135.31" font-family="Helvetica,sans-Serif" font-size="10.00">ts_t</text>
<text text-anchor="middle" x="1329" y="-1124.31" font-family="Helvetica,sans-Serif" font-size="10.00">ts_dt</text>
<text text-anchor="middle" x="1329" y="-1113.31" font-family="Helvetica,sans-Serif" font-size="10.00">ts_aa</text>
</g>
<!-- Node30 -->
<g id="node30" class="node">
<title>Node30</title>
<g id="a_node30"><a xlink:title=" ">
<polygon fill="white" stroke="#bfbfbf" points="1108,-1306.81 1108,-1325.81 1175,-1325.81 1175,-1306.81 1108,-1306.81"/>
<text text-anchor="middle" x="1141.5" y="-1313.81" font-family="Helvetica,sans-Serif" font-size="10.00">TSContext</text>
</a>
</g>
</g>
<!-- Node30&#45;&gt;Node28 -->
<g id="edge36" class="edge">
<title>Node30&#45;&gt;Node28</title>
<path fill="none" stroke="#9a32cd" stroke-dasharray="5,2" d="M1185.56,-1321.09C1239.14,-1324.88 1331.55,-1324.13 1397,-1284.31 1451.95,-1250.89 1484.16,-1174.73 1494.14,-1147.89"/>
<polygon fill="#9a32cd" stroke="#9a32cd" points="1185.62,-1317.59 1175.38,-1320.28 1185.07,-1324.56 1185.62,-1317.59"/>
<text text-anchor="middle" x="1329" y="-1323.31" font-family="Helvetica,sans-Serif" font-size="10.00"> ts_ctx</text>
</g>
<!-- Node31 -->
<g id="node31" class="node">
<title>Node31</title>
<g id="a_node31"><a xlink:title=" ">
<polygon fill="white" stroke="#bfbfbf" points="1113.5,-1268.81 1113.5,-1287.81 1169.5,-1287.81 1169.5,-1268.81 1113.5,-1268.81"/>
<text text-anchor="middle" x="1141.5" y="-1275.81" font-family="Helvetica,sans-Serif" font-size="10.00">PetscInt</text>
</a>
</g>
</g>
<!-- Node31&#45;&gt;Node28 -->
<g id="edge37" class="edge">
<title>Node31&#45;&gt;Node28</title>
<path fill="none" stroke="#9a32cd" stroke-dasharray="5,2" d="M1179.69,-1277.84C1231.15,-1275.8 1325.79,-1267.01 1397,-1231.31 1438.44,-1210.54 1475.06,-1167.45 1490.16,-1148.1"/>
<polygon fill="#9a32cd" stroke="#9a32cd" points="1179.57,-1274.34 1169.69,-1278.17 1179.8,-1281.34 1179.57,-1274.34"/>
<text text-anchor="middle" x="1329" y="-1272.31" font-family="Helvetica,sans-Serif" font-size="10.00"> ts_step</text>
</g>
<!-- Node32 -->
<g id="node32" class="node">
<title>Node32</title>
<g id="a_node32"><a xlink:title=" ">
<polygon fill="white" stroke="#bfbfbf" points="1127,-1230.81 1127,-1249.81 1156,-1249.81 1156,-1230.81 1127,-1230.81"/>
<text text-anchor="middle" x="1141.5" y="-1237.81" font-family="Helvetica,sans-Serif" font-size="10.00">TS</text>
</a>
</g>
</g>
<!-- Node32&#45;&gt;Node28 -->
<g id="edge39" class="edge">
<title>Node32&#45;&gt;Node28</title>
<path fill="none" stroke="#9a32cd" stroke-dasharray="5,2" d="M1166.33,-1236.43C1211.87,-1228.68 1314.1,-1209.63 1397,-1182.31 1426.31,-1172.65 1458.77,-1157.6 1478.65,-1147.85"/>
<polygon fill="#9a32cd" stroke="#9a32cd" points="1165.55,-1233.01 1156.27,-1238.12 1166.71,-1239.92 1165.55,-1233.01"/>
<text text-anchor="middle" x="1329" y="-1219.31" font-family="Helvetica,sans-Serif" font-size="10.00"> ts</text>
</g>
<!-- Node33 -->
<g id="node33" class="node">
<title>Node33</title>
<g id="a_node33"><a xlink:title=" ">
<polygon fill="white" stroke="#bfbfbf" points="1454,-583.81 1454,-602.81 1543,-602.81 1543,-583.81 1454,-583.81"/>
<text text-anchor="middle" x="1498.5" y="-590.81" font-family="Helvetica,sans-Serif" font-size="10.00">pair&lt; int, int &gt;</text>
</a>
</g>
</g>
<!-- Node33&#45;&gt;Node13 -->
<g id="edge41" class="edge">
<title>Node33&#45;&gt;Node13</title>
<path fill="none" stroke="#9a32cd" stroke-dasharray="5,2" d="M1553.48,-593.59C1624.88,-593.96 1750.37,-594.61 1824.78,-595"/>
<polygon fill="#9a32cd" stroke="#9a32cd" points="1553.36,-590.09 1543.35,-593.54 1553.33,-597.09 1553.36,-590.09"/>
<text text-anchor="middle" x="1690.5" y="-597.31" font-family="Helvetica,sans-Serif" font-size="10.00"> loHiFERank</text>
</g>
<!-- Node34 -->
<g id="node34" class="node">
<title>Node34</title>
<g id="a_node34"><a xlink:title=" ">
<polygon fill="white" stroke="#bfbfbf" points="1428.5,-545.81 1428.5,-564.81 1568.5,-564.81 1568.5,-545.81 1428.5,-545.81"/>
<text text-anchor="middle" x="1498.5" y="-552.81" font-family="Helvetica,sans-Serif" font-size="10.00">weak_ptr&lt; CacheTuple &gt;</text>
</a>
</g>
</g>
<!-- Node34&#45;&gt;Node13 -->
<g id="edge42" class="edge">
<title>Node34&#45;&gt;Node13</title>
<path fill="none" stroke="#9a32cd" stroke-dasharray="5,2" d="M1579.07,-560.1C1635.54,-563.91 1713.07,-570 1781,-578.31 1797.62,-580.34 1815.64,-583.1 1831.94,-585.79"/>
<polygon fill="#9a32cd" stroke="#9a32cd" points="1578.99,-556.58 1568.78,-559.41 1578.53,-563.57 1578.99,-556.58"/>
<text text-anchor="middle" x="1690.5" y="-581.31" font-family="Helvetica,sans-Serif" font-size="10.00"> cacheWeakPtr</text>
</g>
<!-- Node35 -->
<g id="node35" class="node">
<title>Node35</title>
<g id="a_node35"><a xlink:title=" ">
<polygon fill="white" stroke="#bfbfbf" points="1442.5,-505.81 1442.5,-524.81 1554.5,-524.81 1554.5,-505.81 1442.5,-505.81"/>
<text text-anchor="middle" x="1498.5" y="-512.81" font-family="Helvetica,sans-Serif" font-size="10.00">unique_ptr&lt; bool &gt;</text>
</a>
</g>
</g>
<!-- Node35&#45;&gt;Node13 -->
<g id="edge43" class="edge">
<title>Node35&#45;&gt;Node13</title>
<path fill="none" stroke="#9a32cd" stroke-dasharray="5,2" d="M1552.28,-504.01C1613.2,-494.11 1713.62,-487.81 1781,-535.31 1797.27,-546.78 1783.62,-563.69 1799,-576.31 1806.45,-582.42 1815.44,-586.68 1824.76,-589.62"/>
<polygon fill="#9a32cd" stroke="#9a32cd" points="1551.39,-500.61 1542.12,-505.76 1552.57,-507.51 1551.39,-500.61"/>
<text text-anchor="middle" x="1690.5" y="-549.31" font-family="Helvetica,sans-Serif" font-size="10.00"> matAssembleSwitch</text>
<text text-anchor="middle" x="1690.5" y="-538.31" font-family="Helvetica,sans-Serif" font-size="10.00">vecAssembleSwitch</text>
</g>
<!-- Node36 -->
<g id="node36" class="node">
<title>Node36</title>
<g id="a_node36"><a xlink:title=" ">
<polygon fill="white" stroke="#bfbfbf" points="1127,-567.81 1127,-586.81 1156,-586.81 1156,-567.81 1127,-567.81"/>
<text text-anchor="middle" x="1141.5" y="-574.81" font-family="Helvetica,sans-Serif" font-size="10.00">int</text>
</a>
</g>
</g>
<!-- Node36&#45;&gt;Node13 -->
<g id="edge44" class="edge">
<title>Node36&#45;&gt;Node13</title>
<path fill="none" stroke="#9a32cd" stroke-dasharray="5,2" d="M1166.38,-581.47C1187.57,-585.88 1218.82,-594.21 1243,-608.31 1252.51,-613.86 1250.77,-621.25 1261,-625.31 1362.29,-665.58 1689.2,-624.12 1824.99,-604.45"/>
<polygon fill="#9a32cd" stroke="#9a32cd" points="1166.79,-577.98 1156.31,-579.51 1165.45,-584.85 1166.79,-577.98"/>
<text text-anchor="middle" x="1498.5" y="-677.31" font-family="Helvetica,sans-Serif" font-size="10.00"> sIze</text>
<text text-anchor="middle" x="1498.5" y="-666.31" font-family="Helvetica,sans-Serif" font-size="10.00">loopSize</text>
<text text-anchor="middle" x="1498.5" y="-655.31" font-family="Helvetica,sans-Serif" font-size="10.00">nInTheLoop</text>
<text text-anchor="middle" x="1498.5" y="-644.31" font-family="Helvetica,sans-Serif" font-size="10.00">rAnk</text>
</g>
<!-- Node36&#45;&gt;Node38 -->
<g id="edge56" class="edge">
<title>Node36&#45;&gt;Node38</title>
<path fill="none" stroke="#9a32cd" stroke-dasharray="5,2" d="M1166.11,-573.33C1187.56,-568.88 1219.37,-560.13 1243,-544.31 1253.22,-537.48 1250.3,-529.36 1261,-523.31 1314.36,-493.13 1353.86,-543.87 1397,-500.31 1432.79,-464.18 1385.86,-428.99 1415,-387.31 1427.31,-369.7 1448.62,-358.07 1466.5,-350.91"/>
<polygon fill="#9a32cd" stroke="#9a32cd" points="1165.37,-569.91 1156.21,-575.23 1166.69,-576.78 1165.37,-569.91"/>
<text text-anchor="middle" x="1329" y="-592.31" font-family="Helvetica,sans-Serif" font-size="10.00"> tagNameSize</text>
<text text-anchor="middle" x="1329" y="-581.31" font-family="Helvetica,sans-Serif" font-size="10.00">nbDofsRow</text>
<text text-anchor="middle" x="1329" y="-570.31" font-family="Helvetica,sans-Serif" font-size="10.00">nbLocDofsCol</text>
<text text-anchor="middle" x="1329" y="-559.31" font-family="Helvetica,sans-Serif" font-size="10.00">nbDofsCol</text>
<text text-anchor="middle" x="1329" y="-548.31" font-family="Helvetica,sans-Serif" font-size="10.00">nbGhostDofsRow</text>
<text text-anchor="middle" x="1329" y="-537.31" font-family="Helvetica,sans-Serif" font-size="10.00">nbGhostDofsCol</text>
<text text-anchor="middle" x="1329" y="-526.31" font-family="Helvetica,sans-Serif" font-size="10.00">nbLocDofsRow</text>
</g>
<!-- Node36&#45;&gt;Node71 -->
<g id="edge88" class="edge">
<title>Node36&#45;&gt;Node71</title>
<path fill="none" stroke="#9a32cd" stroke-dasharray="5,2" d="M1166.06,-583.64C1222.53,-598.15 1363.36,-630.38 1397,-600.31 1423.68,-576.47 1391.9,-467.63 1415,-440.31 1470.22,-375 1515.42,-400.06 1600,-387.31 1806.35,-356.22 2053.42,-366.1 2176.8,-374.2"/>
<polygon fill="#9a32cd" stroke="#9a32cd" points="1166.81,-580.21 1156.25,-581.07 1165.04,-586.99 1166.81,-580.21"/>
<text text-anchor="middle" x="1690.5" y="-390.31" font-family="Helvetica,sans-Serif" font-size="10.00"> oRder</text>
</g>
<!-- Node37 -->
<g id="node37" class="node">
<title>Node37</title>
<g id="a_node37"><a xlink:title=" ">
<polygon fill="white" stroke="#bfbfbf" points="1415,-449.81 1415,-468.81 1582,-468.81 1582,-449.81 1415,-449.81"/>
<text text-anchor="middle" x="1498.5" y="-456.81" font-family="Helvetica,sans-Serif" font-size="10.00">function&lt; MoFEMErrorCode()&gt;</text>
</a>
</g>
</g>
<!-- Node37&#45;&gt;Node13 -->
<g id="edge45" class="edge">
<title>Node37&#45;&gt;Node13</title>
<path fill="none" stroke="#9a32cd" stroke-dasharray="5,2" d="M1575.76,-448.61C1648.51,-440.24 1751.29,-433.82 1781,-459.31 1820.93,-493.57 1763.02,-537.92 1799,-576.31 1805.9,-583.67 1814.96,-588.5 1824.61,-591.62"/>
<polygon fill="#9a32cd" stroke="#9a32cd" points="1575.22,-445.14 1565.7,-449.8 1576.04,-452.1 1575.22,-445.14"/>
<text text-anchor="middle" x="1690.5" y="-484.31" font-family="Helvetica,sans-Serif" font-size="10.00"> preProcessHook</text>
<text text-anchor="middle" x="1690.5" y="-473.31" font-family="Helvetica,sans-Serif" font-size="10.00">operatorHook</text>
<text text-anchor="middle" x="1690.5" y="-462.31" font-family="Helvetica,sans-Serif" font-size="10.00">postProcessHook</text>
</g>
<!-- Node38&#45;&gt;Node13 -->
<g id="edge46" class="edge">
<title>Node38&#45;&gt;Node13</title>
<path fill="none" stroke="#9a32cd" stroke-dasharray="5,2" d="M1519.41,-356.89C1538.82,-371.21 1569.75,-391.75 1600,-402.31 1638.28,-415.68 1752.44,-396.53 1781,-425.31 1828.61,-473.29 1753.63,-526.22 1799,-576.31 1805.88,-583.9 1815.05,-588.82 1824.83,-591.95"/>
<polygon fill="#9a32cd" stroke="#9a32cd" points="1521.43,-354.04 1511.34,-350.81 1517.22,-359.63 1521.43,-354.04"/>
<text text-anchor="middle" x="1690.5" y="-428.31" font-family="Helvetica,sans-Serif" font-size="10.00"> problemPtr</text>
</g>
<!-- Node39 -->
<g id="node39" class="node">
<title>Node39</title>
<g id="a_node39"><a xlink:title=" ">
<polygon fill="white" stroke="#bfbfbf" points="1058,-340.31 1058,-370.31 1225,-370.31 1225,-340.31 1058,-340.31"/>
<text text-anchor="start" x="1066" y="-358.31" font-family="Helvetica,sans-Serif" font-size="10.00">shared_ptr&lt; NumeredEntFinite</text>
<text text-anchor="middle" x="1141.5" y="-347.31" font-family="Helvetica,sans-Serif" font-size="10.00">Element_multiIndex &gt;</text>
</a>
</g>
</g>
<!-- Node39&#45;&gt;Node38 -->
<g id="edge47" class="edge">
<title>Node39&#45;&gt;Node38</title>
<path fill="none" stroke="#9a32cd" stroke-dasharray="5,2" d="M1235.41,-344.18C1244.05,-343.43 1252.68,-342.78 1261,-342.31 1325.97,-338.62 1401.15,-339.12 1448.99,-340.03"/>
<polygon fill="#9a32cd" stroke="#9a32cd" points="1234.92,-340.71 1225.28,-345.11 1235.56,-347.68 1234.92,-340.71"/>
<text text-anchor="middle" x="1329" y="-345.31" font-family="Helvetica,sans-Serif" font-size="10.00"> numeredFiniteElementsPtr</text>
</g>
<!-- Node40 -->
<g id="node40" class="node">
<title>Node40</title>
<g id="a_node40"><a xlink:title=" ">
<polygon fill="white" stroke="#bfbfbf" points="1112,-301.81 1112,-320.81 1171,-320.81 1171,-301.81 1112,-301.81"/>
<text text-anchor="middle" x="1141.5" y="-308.81" font-family="Helvetica,sans-Serif" font-size="10.00">BitFEId *</text>
</a>
</g>
</g>
<!-- Node40&#45;&gt;Node38 -->
<g id="edge48" class="edge">
<title>Node40&#45;&gt;Node38</title>
<path fill="none" stroke="#9a32cd" stroke-dasharray="5,2" d="M1181.26,-311.89C1231.25,-312.95 1320.84,-315.95 1397,-324.31 1413.97,-326.17 1432.43,-329.05 1448.84,-331.91"/>
<polygon fill="#9a32cd" stroke="#9a32cd" points="1181.28,-308.39 1171.21,-311.69 1181.14,-315.39 1181.28,-308.39"/>
<text text-anchor="middle" x="1329" y="-327.31" font-family="Helvetica,sans-Serif" font-size="10.00"> tagBitFEId</text>
</g>
<!-- Node41 -->
<g id="node41" class="node">
<title>Node41</title>
<g id="a_node41"><a xlink:href="classEntityHandle.html" target="_top" xlink:title=" ">
<polygon fill="white" stroke="black" points="1101.5,-263.81 1101.5,-282.81 1181.5,-282.81 1181.5,-263.81 1101.5,-263.81"/>
<text text-anchor="middle" x="1141.5" y="-270.81" font-family="Helvetica,sans-Serif" font-size="10.00">EntityHandle</text>
</a>
</g>
</g>
<!-- Node41&#45;&gt;Node38 -->
<g id="edge49" class="edge">
<title>Node41&#45;&gt;Node38</title>
<path fill="none" stroke="#9a32cd" stroke-dasharray="5,2" d="M1192.18,-274.09C1244.03,-275.9 1327.33,-281.61 1397,-299.31 1426.87,-306.9 1459.45,-321.85 1479.17,-331.72"/>
<polygon fill="#9a32cd" stroke="#9a32cd" points="1192.03,-270.59 1181.93,-273.77 1191.81,-277.58 1192.03,-270.59"/>
<text text-anchor="middle" x="1329" y="-302.31" font-family="Helvetica,sans-Serif" font-size="10.00"> meshset</text>
</g>
<!-- Node42 -->
<g id="node42" class="node">
<title>Node42</title>
<g id="a_node42"><a xlink:title=" ">
<polygon fill="white" stroke="#bfbfbf" points="1067,-214.31 1067,-244.31 1216,-244.31 1216,-214.31 1067,-214.31"/>
<text text-anchor="start" x="1075" y="-232.31" font-family="Helvetica,sans-Serif" font-size="10.00">shared_ptr&lt; MoFEM::</text>
<text text-anchor="middle" x="1141.5" y="-221.31" font-family="Helvetica,sans-Serif" font-size="10.00">ComposedProblemsData &gt;</text>
</a>
</g>
</g>
<!-- Node42&#45;&gt;Node38 -->
<g id="edge50" class="edge">
<title>Node42&#45;&gt;Node38</title>
<path fill="none" stroke="#9a32cd" stroke-dasharray="5,2" d="M1226.18,-229.56C1277.27,-232.33 1342.93,-240.68 1397,-263.31 1435.71,-279.51 1472.32,-314.63 1488.62,-331.66"/>
<polygon fill="#9a32cd" stroke="#9a32cd" points="1226.33,-226.06 1216.17,-229.07 1225.99,-233.05 1226.33,-226.06"/>
<text text-anchor="middle" x="1329" y="-266.31" font-family="Helvetica,sans-Serif" font-size="10.00"> composedProblemsData</text>
</g>
<!-- Node43 -->
<g id="node43" class="node">
<title>Node43</title>
<g id="a_node43"><a xlink:title=" ">
<polygon fill="white" stroke="#bfbfbf" points="1101,-175.81 1101,-194.81 1182,-194.81 1182,-175.81 1101,-175.81"/>
<text text-anchor="middle" x="1141.5" y="-182.81" font-family="Helvetica,sans-Serif" font-size="10.00">BitRefLevel *</text>
</a>
</g>
</g>
<!-- Node43&#45;&gt;Node38 -->
<g id="edge51" class="edge">
<title>Node43&#45;&gt;Node38</title>
<path fill="none" stroke="#9a32cd" stroke-dasharray="5,2" d="M1192.45,-177.87C1246.43,-172.34 1333.27,-170.95 1397,-206.31 1449.89,-235.66 1482.95,-305.81 1493.68,-331.59"/>
<polygon fill="#9a32cd" stroke="#9a32cd" points="1191.99,-174.4 1182.44,-178.98 1192.76,-181.36 1191.99,-174.4"/>
<text text-anchor="middle" x="1329" y="-220.31" font-family="Helvetica,sans-Serif" font-size="10.00"> tagBitRefLevelMask</text>
<text text-anchor="middle" x="1329" y="-209.31" font-family="Helvetica,sans-Serif" font-size="10.00">tagBitRefLevel</text>
</g>
<!-- Node44 -->
<g id="node44" class="node">
<title>Node44</title>
<g id="a_node44"><a xlink:title=" ">
<polygon fill="white" stroke="#bfbfbf" points="1056.5,-126.31 1056.5,-156.31 1226.5,-156.31 1226.5,-126.31 1056.5,-126.31"/>
<text text-anchor="start" x="1064.5" y="-144.31" font-family="Helvetica,sans-Serif" font-size="10.00">shared_ptr&lt; NumeredDofEntity</text>
<text text-anchor="middle" x="1141.5" y="-133.31" font-family="Helvetica,sans-Serif" font-size="10.00">_multiIndex &gt;</text>
</a>
</g>
</g>
<!-- Node44&#45;&gt;Node38 -->
<g id="edge52" class="edge">
<title>Node44&#45;&gt;Node38</title>
<path fill="none" stroke="#9a32cd" stroke-dasharray="5,2" d="M1237,-132.94C1298.91,-129.55 1372.71,-130.15 1397,-149.31 1420.87,-168.14 1402.52,-187.59 1415,-215.31 1436.14,-262.28 1473.6,-311.58 1489.74,-331.8"/>
<polygon fill="#9a32cd" stroke="#9a32cd" points="1236.56,-129.46 1226.78,-133.54 1236.97,-136.45 1236.56,-129.46"/>
<text text-anchor="middle" x="1329" y="-163.31" font-family="Helvetica,sans-Serif" font-size="10.00"> numeredRowDofsPtr</text>
<text text-anchor="middle" x="1329" y="-152.31" font-family="Helvetica,sans-Serif" font-size="10.00">numeredColDofsPtr</text>
</g>
<!-- Node45 -->
<g id="node45" class="node">
<title>Node45</title>
<g id="a_node45"><a xlink:title=" ">
<polygon fill="white" stroke="#bfbfbf" points="1072.5,-515.81 1072.5,-534.81 1210.5,-534.81 1210.5,-515.81 1072.5,-515.81"/>
<text text-anchor="middle" x="1141.5" y="-522.81" font-family="Helvetica,sans-Serif" font-size="10.00">vector&lt; BlockFieldPair &gt;</text>
</a>
</g>
</g>
<!-- Node45&#45;&gt;Node38 -->
<g id="edge54" class="edge">
<title>Node45&#45;&gt;Node38</title>
<path fill="none" stroke="#9a32cd" stroke-dasharray="5,2" d="M1220.64,-515.16C1228.4,-512.79 1235.99,-509.89 1243,-506.31 1252.8,-501.31 1251.15,-494.22 1261,-489.31 1315.87,-461.98 1352.45,-508.42 1397,-466.31 1423.17,-441.58 1393.41,-416.13 1415,-387.31 1428.08,-369.86 1449.84,-358.12 1467.72,-350.88"/>
<polygon fill="#9a32cd" stroke="#9a32cd" points="1219.47,-511.85 1210.75,-517.87 1221.31,-518.6 1219.47,-511.85"/>
<text text-anchor="middle" x="1329" y="-492.31" font-family="Helvetica,sans-Serif" font-size="10.00"> emptyFieldBlocks</text>
</g>
<!-- Node46 -->
<g id="node46" class="node">
<title>Node46</title>
<g id="a_node46"><a xlink:title=" ">
<polygon fill="white" stroke="#bfbfbf" points="1063.5,-466.31 1063.5,-496.31 1219.5,-496.31 1219.5,-466.31 1063.5,-466.31"/>
<text text-anchor="start" x="1071.5" y="-484.31" font-family="Helvetica,sans-Serif" font-size="10.00">shared_ptr&lt; MoFEM::</text>
<text text-anchor="middle" x="1141.5" y="-473.31" font-family="Helvetica,sans-Serif" font-size="10.00">Problem::SubProblemData &gt;</text>
</a>
</g>
</g>
<!-- Node46&#45;&gt;Node38 -->
<g id="edge55" class="edge">
<title>Node46&#45;&gt;Node38</title>
<path fill="none" stroke="#9a32cd" stroke-dasharray="5,2" d="M1218.38,-464.09C1232.52,-461.04 1247.19,-457.99 1261,-455.31 1321.18,-443.63 1349.29,-470.81 1397,-432.31 1413.76,-418.78 1400.77,-403.49 1415,-387.31 1429.84,-370.44 1452.42,-358.45 1470.21,-350.95"/>
<polygon fill="#9a32cd" stroke="#9a32cd" points="1217.23,-460.76 1208.2,-466.3 1218.71,-467.6 1217.23,-460.76"/>
<text text-anchor="middle" x="1329" y="-458.31" font-family="Helvetica,sans-Serif" font-size="10.00"> subProblemData</text>
</g>
<!-- Node47 -->
<g id="node47" class="node">
<title>Node47</title>
<g id="a_node47"><a xlink:title=" ">
<polygon fill="white" stroke="#bfbfbf" points="1040,-427.81 1040,-446.81 1243,-446.81 1243,-427.81 1040,-427.81"/>
<text text-anchor="middle" x="1141.5" y="-434.81" font-family="Helvetica,sans-Serif" font-size="10.00">shared_ptr&lt; SequenceDofContainer &gt;</text>
</a>
</g>
</g>
<!-- Node47&#45;&gt;Node38 -->
<g id="edge57" class="edge">
<title>Node47&#45;&gt;Node38</title>
<path fill="none" stroke="#9a32cd" stroke-dasharray="5,2" d="M1215.08,-425.67C1224.55,-423.54 1234.07,-421.1 1243,-418.31 1251.36,-415.7 1252.62,-412.84 1261,-410.31 1319.69,-392.61 1338.41,-405.33 1397,-387.31 1427.45,-377.95 1460.66,-361.39 1480.26,-350.9"/>
<polygon fill="#9a32cd" stroke="#9a32cd" points="1214.29,-422.26 1205.24,-427.77 1215.75,-429.1 1214.29,-422.26"/>
<text text-anchor="middle" x="1329" y="-424.31" font-family="Helvetica,sans-Serif" font-size="10.00"> sequenceRowDofContainer</text>
<text text-anchor="middle" x="1329" y="-413.31" font-family="Helvetica,sans-Serif" font-size="10.00">sequenceColDofContainer</text>
</g>
<!-- Node48 -->
<g id="node48" class="node">
<title>Node48</title>
<g id="a_node48"><a xlink:title=" ">
<polygon fill="white" stroke="#bfbfbf" points="1097.5,-389.81 1097.5,-408.81 1185.5,-408.81 1185.5,-389.81 1097.5,-389.81"/>
<text text-anchor="middle" x="1141.5" y="-396.81" font-family="Helvetica,sans-Serif" font-size="10.00">BitProblemId *</text>
</a>
</g>
</g>
<!-- Node48&#45;&gt;Node38 -->
<g id="edge58" class="edge">
<title>Node48&#45;&gt;Node38</title>
<path fill="none" stroke="#9a32cd" stroke-dasharray="5,2" d="M1195.45,-389.63C1210.81,-386.73 1227.59,-383.48 1243,-380.31 1251.03,-378.66 1252.94,-377.8 1261,-376.31 1325.69,-364.35 1400.94,-353.79 1448.87,-347.47"/>
<polygon fill="#9a32cd" stroke="#9a32cd" points="1194.78,-386.19 1185.6,-391.48 1196.07,-393.07 1194.78,-386.19"/>
<text text-anchor="middle" x="1329" y="-379.31" font-family="Helvetica,sans-Serif" font-size="10.00"> tagId</text>
</g>
<!-- Node49 -->
<g id="node49" class="node">
<title>Node49</title>
<g id="a_node49"><a xlink:title=" ">
<polygon fill="white" stroke="#bfbfbf" points="1805,-994.31 1805,-1024.31 1967,-1024.31 1967,-994.31 1805,-994.31"/>
<text text-anchor="start" x="1813" y="-1012.31" font-family="Helvetica,sans-Serif" font-size="10.00">shared_ptr&lt; const MoFEM</text>
<text text-anchor="middle" x="1886" y="-1001.31" font-family="Helvetica,sans-Serif" font-size="10.00">::NumeredEntFiniteElement &gt;</text>
</a>
</g>
</g>
<!-- Node49&#45;&gt;Node12 -->
<g id="edge59" class="edge">
<title>Node49&#45;&gt;Node12</title>
<path fill="none" stroke="#9a32cd" stroke-dasharray="5,2" d="M1977.54,-1001.93C2048.18,-996.17 2143.85,-988.37 2202.4,-983.6"/>
<polygon fill="#9a32cd" stroke="#9a32cd" points="1976.99,-998.46 1967.3,-1002.76 1977.56,-1005.44 1976.99,-998.46"/>
<text text-anchor="middle" x="2063" y="-1003.31" font-family="Helvetica,sans-Serif" font-size="10.00"> numeredEntFiniteElementPtr</text>
</g>
<!-- Node50 -->
<g id="node50" class="node">
<title>Node50</title>
<g id="a_node50"><a xlink:title=" ">
<polygon fill="white" stroke="#bfbfbf" points="1864,-480.81 1864,-499.81 1908,-499.81 1908,-480.81 1864,-480.81"/>
<text text-anchor="middle" x="1886" y="-487.81" font-family="Helvetica,sans-Serif" font-size="10.00">string</text>
</a>
</g>
</g>
<!-- Node50&#45;&gt;Node3 -->
<g id="edge82" class="edge">
<title>Node50&#45;&gt;Node3</title>
<path fill="none" stroke="#9a32cd" stroke-dasharray="5,2" d="M1918.25,-490.88C2028.8,-493.04 2411.71,-501.7 2727,-523.31 2762.96,-525.78 2802.57,-529.48 2836.58,-532.96"/>
<polygon fill="#9a32cd" stroke="#9a32cd" points="1918.19,-487.38 1908.12,-490.69 1918.05,-494.38 1918.19,-487.38"/>
<text text-anchor="middle" x="2458" y="-525.31" font-family="Helvetica,sans-Serif" font-size="10.00"> colFieldName</text>
<text text-anchor="middle" x="2458" y="-514.31" font-family="Helvetica,sans-Serif" font-size="10.00">rowFieldName</text>
</g>
<!-- Node50&#45;&gt;Node12 -->
<g id="edge60" class="edge">
<title>Node50&#45;&gt;Node12</title>
<path fill="none" stroke="#9a32cd" stroke-dasharray="5,2" d="M1918.41,-493.83C1984.33,-501.3 2131.36,-518.34 2135,-522.31 2167.91,-558.22 2121.11,-923.5 2153,-960.31 2165.15,-974.33 2184.03,-980.15 2202.27,-982.09"/>
<polygon fill="#9a32cd" stroke="#9a32cd" points="1918.52,-490.32 1908.19,-492.68 1917.74,-497.28 1918.52,-490.32"/>
<text text-anchor="middle" x="2063" y="-525.31" font-family="Helvetica,sans-Serif" font-size="10.00"> feName</text>
</g>
<!-- Node50&#45;&gt;Node71 -->
<g id="edge89" class="edge">
<title>Node50&#45;&gt;Node71</title>
<path fill="none" stroke="#9a32cd" stroke-dasharray="5,2" d="M1913.54,-475.94C1934.11,-465.39 1963.64,-451.52 1991,-443.31 2053.08,-424.69 2072.05,-435.72 2135,-420.31 2168.49,-412.11 2206.04,-398.93 2230.07,-389.95"/>
<polygon fill="#9a32cd" stroke="#9a32cd" points="1911.72,-472.94 1904.48,-480.67 1914.96,-479.14 1911.72,-472.94"/>
<text text-anchor="middle" x="2063" y="-468.31" font-family="Helvetica,sans-Serif" font-size="10.00"> feNaturalBCName</text>
<text text-anchor="middle" x="2063" y="-457.31" font-family="Helvetica,sans-Serif" font-size="10.00">fieldName</text>
<text text-anchor="middle" x="2063" y="-446.31" font-family="Helvetica,sans-Serif" font-size="10.00">feName</text>
</g>
<!-- Node51 -->
<g id="node51" class="node">
<title>Node51</title>
<g id="a_node51"><a xlink:title=" ">
<polygon fill="white" stroke="#bfbfbf" points="1804.5,-1043.31 1804.5,-1073.31 1967.5,-1073.31 1967.5,-1043.31 1804.5,-1043.31"/>
<text text-anchor="start" x="1812.5" y="-1061.31" font-family="Helvetica,sans-Serif" font-size="10.00">function&lt; bool(MoFEM</text>
<text text-anchor="middle" x="1886" y="-1050.31" font-family="Helvetica,sans-Serif" font-size="10.00">::FEMethod *fe_method_ptr)&gt;</text>
</a>
</g>
</g>
<!-- Node51&#45;&gt;Node12 -->
<g id="edge61" class="edge">
<title>Node51&#45;&gt;Node12</title>
<path fill="none" stroke="#9a32cd" stroke-dasharray="5,2" d="M1977.84,-1051.69C2025.88,-1045.95 2085.08,-1035.24 2135,-1015.31 2143.93,-1011.75 2144.18,-1007.14 2153,-1003.31 2168.52,-996.57 2186.22,-991.57 2202.48,-987.92"/>
<polygon fill="#9a32cd" stroke="#9a32cd" points="1977.3,-1048.23 1967.77,-1052.84 1978.1,-1055.18 1977.3,-1048.23"/>
<text text-anchor="middle" x="2063" y="-1051.31" font-family="Helvetica,sans-Serif" font-size="10.00"> exeTestHook</text>
</g>
<!-- Node52 -->
<g id="node52" class="node">
<title>Node52</title>
<g id="a_node52"><a xlink:href="classdouble.html" target="_top" xlink:title=" ">
<polygon fill="white" stroke="black" points="1861,-547.81 1861,-566.81 1911,-566.81 1911,-547.81 1861,-547.81"/>
<text text-anchor="middle" x="1886" y="-554.81" font-family="Helvetica,sans-Serif" font-size="10.00">double</text>
</a>
</g>
</g>
<!-- Node52&#45;&gt;Node11 -->
<g id="edge62" class="edge">
<title>Node52&#45;&gt;Node11</title>
<path fill="none" stroke="#9a32cd" stroke-dasharray="5,2" d="M1921.08,-555.59C1939.33,-556.65 1960.55,-561.45 1973,-576.31 2004.07,-613.39 1957.11,-976.79 1991,-1011.31 1992.23,-1012.56 2381.37,-1035.26 2556.88,-1045.44"/>
<polygon fill="#9a32cd" stroke="#9a32cd" points="1921.13,-552.09 1911.05,-555.35 1920.96,-559.09 1921.13,-552.09"/>
<text text-anchor="middle" x="2256" y="-1036.31" font-family="Helvetica,sans-Serif" font-size="10.00"> elementMeasure</text>
</g>
<!-- Node52&#45;&gt;Node71 -->
<g id="edge85" class="edge">
<title>Node52&#45;&gt;Node71</title>
<path fill="none" stroke="#9a32cd" stroke-dasharray="5,2" d="M1921.27,-562.92C1971.77,-569.38 2067.5,-574.57 2135,-535.31 2147.15,-528.24 2144.64,-520.61 2153,-509.31 2186.81,-463.65 2229.69,-411.03 2247.11,-389.86"/>
<polygon fill="#9a32cd" stroke="#9a32cd" points="1921.58,-559.43 1911.2,-561.54 1920.63,-566.37 1921.58,-559.43"/>
<text text-anchor="middle" x="2063" y="-581.31" font-family="Helvetica,sans-Serif" font-size="10.00"> ePsilon</text>
<text text-anchor="middle" x="2063" y="-570.31" font-family="Helvetica,sans-Serif" font-size="10.00">mU</text>
</g>
<!-- Node53 -->
<g id="node53" class="node">
<title>Node53</title>
<g id="a_node53"><a xlink:title=" ">
<polygon fill="white" stroke="#bfbfbf" points="2170,-1054.81 2170,-1095.81 2342,-1095.81 2342,-1054.81 2170,-1054.81"/>
<text text-anchor="start" x="2178" y="-1083.81" font-family="Helvetica,sans-Serif" font-size="10.00">array&lt; boost::shared</text>
<text text-anchor="start" x="2178" y="-1072.81" font-family="Helvetica,sans-Serif" font-size="10.00">_ptr&lt; MoFEM::EntitiesFieldData</text>
<text text-anchor="middle" x="2256" y="-1061.81" font-family="Helvetica,sans-Serif" font-size="10.00"> &gt;, LASTSPACE &gt;</text>
</a>
</g>
</g>
<!-- Node53&#45;&gt;Node11 -->
<g id="edge63" class="edge">
<title>Node53&#45;&gt;Node11</title>
<path fill="none" stroke="#9a32cd" stroke-dasharray="5,2" d="M2352.51,-1069.09C2415.19,-1065.01 2496.4,-1059.73 2556.68,-1055.8"/>
<polygon fill="#9a32cd" stroke="#9a32cd" points="2351.97,-1065.62 2342.22,-1069.76 2352.43,-1072.61 2351.97,-1065.62"/>
<text text-anchor="middle" x="2458" y="-1080.31" font-family="Helvetica,sans-Serif" font-size="10.00"> derivedDataOnElement</text>
<text text-anchor="middle" x="2458" y="-1069.31" font-family="Helvetica,sans-Serif" font-size="10.00">dataOnElement</text>
</g>
<!-- Node54 -->
<g id="node54" class="node">
<title>Node54</title>
<g id="a_node54"><a xlink:title=" ">
<polygon fill="white" stroke="#bfbfbf" points="2222,-931.81 2222,-950.81 2290,-950.81 2290,-931.81 2222,-931.81"/>
<text text-anchor="middle" x="2256" y="-938.81" font-family="Helvetica,sans-Serif" font-size="10.00">EntityType</text>
</a>
</g>
</g>
<!-- Node54&#45;&gt;Node11 -->
<g id="edge64" class="edge">
<title>Node54&#45;&gt;Node11</title>
<path fill="none" stroke="#9a32cd" stroke-dasharray="5,2" d="M2300.18,-938.75C2357.07,-936.95 2459.23,-939.22 2539,-971.31 2578.69,-987.28 2615.93,-1023.4 2632.29,-1040.71"/>
<polygon fill="#9a32cd" stroke="#9a32cd" points="2299.97,-935.26 2290.1,-939.13 2300.23,-942.25 2299.97,-935.26"/>
<text text-anchor="middle" x="2458" y="-974.31" font-family="Helvetica,sans-Serif" font-size="10.00"> lastEvaluatedElementEntityType</text>
</g>
<!-- Node55 -->
<g id="node55" class="node">
<title>Node55</title>
<g id="a_node55"><a xlink:href="structMoFEM_1_1DeprecatedCoreInterface.html" target="_top" xlink:title="Deprecated interface functions.">
<polygon fill="white" stroke="black" points="1600,-1246.81 1600,-1265.81 1781,-1265.81 1781,-1246.81 1600,-1246.81"/>
<text text-anchor="middle" x="1690.5" y="-1253.81" font-family="Helvetica,sans-Serif" font-size="10.00">MoFEM::DeprecatedCoreInterface</text>
</a>
</g>
</g>
<!-- Node55&#45;&gt;Node11 -->
<g id="edge65" class="edge">
<title>Node55&#45;&gt;Node11</title>
<path fill="none" stroke="#9a32cd" stroke-dasharray="5,2" d="M1708.41,-1239.89C1728.26,-1221.79 1763.05,-1193.63 1799,-1181.31 1954.76,-1127.92 2387.04,-1206.72 2539,-1143.31 2582.57,-1125.13 2619.48,-1079.86 2634.19,-1059.96"/>
<polygon fill="#9a32cd" stroke="#9a32cd" points="1706.01,-1237.34 1701.1,-1246.72 1710.79,-1242.45 1706.01,-1237.34"/>
<text text-anchor="middle" x="2063" y="-1167.31" font-family="Helvetica,sans-Serif" font-size="10.00"> mField</text>
</g>
<!-- Node56&#45;&gt;Node55 -->
<g id="edge66" class="edge">
<title>Node56&#45;&gt;Node55</title>
<path fill="none" stroke="midnightblue" d="M1214.39,-1352.15C1265.6,-1349.77 1335.9,-1344.77 1397,-1334.31 1495.42,-1317.47 1608.87,-1282.66 1660.83,-1265.83"/>
<polygon fill="midnightblue" stroke="midnightblue" points="1213.92,-1348.67 1204.08,-1352.61 1214.23,-1355.66 1213.92,-1348.67"/>
</g>
<!-- Node57 -->
<g id="node57" class="node">
<title>Node57</title>
<g id="a_node57"><a xlink:title=" ">
<polygon fill="white" stroke="#bfbfbf" points="2172.5,-860.31 2172.5,-912.31 2339.5,-912.31 2339.5,-860.31 2172.5,-860.31"/>
<text text-anchor="start" x="2180.5" y="-900.31" font-family="Helvetica,sans-Serif" font-size="10.00">function&lt; MoFEMErrorCode</text>
<text text-anchor="start" x="2180.5" y="-889.31" font-family="Helvetica,sans-Serif" font-size="10.00">(ForcesAndSourcesCore *fe</text>
<text text-anchor="start" x="2180.5" y="-878.31" font-family="Helvetica,sans-Serif" font-size="10.00">_raw_ptr, int order_row,</text>
<text text-anchor="middle" x="2256" y="-867.31" font-family="Helvetica,sans-Serif" font-size="10.00"> int order_col, int order_data)&gt;</text>
</a>
</g>
</g>
<!-- Node57&#45;&gt;Node11 -->
<g id="edge69" class="edge">
<title>Node57&#45;&gt;Node11</title>
<path fill="none" stroke="#9a32cd" stroke-dasharray="5,2" d="M2349.75,-881.89C2407.57,-883.08 2481.62,-892.06 2539,-924.31 2589.29,-952.58 2624.45,-1016.37 2636.46,-1040.67"/>
<polygon fill="#9a32cd" stroke="#9a32cd" points="2349.57,-878.39 2339.52,-881.76 2349.47,-885.39 2349.57,-878.39"/>
<text text-anchor="middle" x="2458" y="-927.31" font-family="Helvetica,sans-Serif" font-size="10.00"> setRuleHook</text>
</g>
<!-- Node58 -->
<g id="node58" class="node">
<title>Node58</title>
<g id="a_node58"><a xlink:title=" ">
<polygon fill="white" stroke="#bfbfbf" points="2155,-811.31 2155,-841.31 2357,-841.31 2357,-811.31 2155,-811.31"/>
<text text-anchor="start" x="2163" y="-829.31" font-family="Helvetica,sans-Serif" font-size="10.00">ptr_deque&lt; MoFEM::Forces</text>
<text text-anchor="middle" x="2256" y="-818.31" font-family="Helvetica,sans-Serif" font-size="10.00">AndSourcesCore::UserDataOperator &gt;</text>
</a>
</g>
</g>
<!-- Node58&#45;&gt;Node11 -->
<g id="edge70" class="edge">
<title>Node58&#45;&gt;Node11</title>
<path fill="none" stroke="#9a32cd" stroke-dasharray="5,2" d="M2367.5,-820.12C2423.28,-822.21 2489.43,-833.16 2539,-867.31 2603.09,-911.48 2631.31,-1009.68 2638.84,-1040.72"/>
<polygon fill="#9a32cd" stroke="#9a32cd" points="2367.31,-816.61 2357.21,-819.83 2367.11,-823.61 2367.31,-816.61"/>
<text text-anchor="middle" x="2458" y="-870.31" font-family="Helvetica,sans-Serif" font-size="10.00"> opPtrVector</text>
</g>
<!-- Node59 -->
<g id="node59" class="node">
<title>Node59</title>
<g id="a_node59"><a xlink:href="structMoFEM_1_1EntitiesFieldData.html" target="_top" xlink:title="data structure for finite element entity">
<polygon fill="white" stroke="black" points="2185,-1255.81 2185,-1274.81 2327,-1274.81 2327,-1255.81 2185,-1255.81"/>
<text text-anchor="middle" x="2256" y="-1262.81" font-family="Helvetica,sans-Serif" font-size="10.00">MoFEM::EntitiesFieldData</text>
</a>
</g>
</g>
<!-- Node59&#45;&gt;Node11 -->
<g id="edge71" class="edge">
<title>Node59&#45;&gt;Node11</title>
<path fill="none" stroke="#9a32cd" stroke-dasharray="5,2" d="M2300.87,-1252.98C2375,-1231.91 2518.97,-1189.96 2539,-1176.31 2586.22,-1144.15 2622.69,-1083.76 2635.77,-1060.14"/>
<polygon fill="#9a32cd" stroke="#9a32cd" points="2299.56,-1249.71 2290.9,-1255.8 2301.47,-1256.44 2299.56,-1249.71"/>
<text text-anchor="middle" x="2458" y="-1276.31" font-family="Helvetica,sans-Serif" font-size="10.00"> dataNoField</text>
<text text-anchor="middle" x="2458" y="-1265.31" font-family="Helvetica,sans-Serif" font-size="10.00">dataL2</text>
<text text-anchor="middle" x="2458" y="-1254.31" font-family="Helvetica,sans-Serif" font-size="10.00">dataH1</text>
<text text-anchor="middle" x="2458" y="-1243.31" font-family="Helvetica,sans-Serif" font-size="10.00">dataHcurl</text>
<text text-anchor="middle" x="2458" y="-1232.31" font-family="Helvetica,sans-Serif" font-size="10.00">dataHdiv</text>
</g>
<!-- Node60 -->
<g id="node60" class="node">
<title>Node60</title>
<g id="a_node60"><a xlink:title=" ">
<polygon fill="white" stroke="#bfbfbf" points="1805,-1251.31 1805,-1281.31 1967,-1281.31 1967,-1251.31 1805,-1251.31"/>
<text text-anchor="start" x="1813" y="-1269.31" font-family="Helvetica,sans-Serif" font-size="10.00">array&lt; std::bitset</text>
<text text-anchor="middle" x="1886" y="-1258.31" font-family="Helvetica,sans-Serif" font-size="10.00">&lt; LASTBASE &gt;, LASTSPACE &gt;</text>
</a>
</g>
</g>
<!-- Node60&#45;&gt;Node59 -->
<g id="edge72" class="edge">
<title>Node60&#45;&gt;Node59</title>
<path fill="none" stroke="#9a32cd" stroke-dasharray="5,2" d="M1977.39,-1266.07C2041.35,-1265.89 2125.88,-1265.66 2184.79,-1265.5"/>
<polygon fill="#9a32cd" stroke="#9a32cd" points="1977.29,-1262.57 1967.3,-1266.09 1977.31,-1269.57 1977.29,-1262.57"/>
<text text-anchor="middle" x="2063" y="-1279.31" font-family="Helvetica,sans-Serif" font-size="10.00"> brokenBasesOnSpaces</text>
<text text-anchor="middle" x="2063" y="-1268.31" font-family="Helvetica,sans-Serif" font-size="10.00">basesOnSpaces</text>
</g>
<!-- Node61 -->
<g id="node61" class="node">
<title>Node61</title>
<g id="a_node61"><a xlink:title=" ">
<polygon fill="white" stroke="#bfbfbf" points="1809.5,-1190.81 1809.5,-1231.81 1962.5,-1231.81 1962.5,-1190.81 1809.5,-1190.81"/>
<text text-anchor="start" x="1817.5" y="-1219.81" font-family="Helvetica,sans-Serif" font-size="10.00">array&lt; boost::ptr_vector</text>
<text text-anchor="start" x="1817.5" y="-1208.81" font-family="Helvetica,sans-Serif" font-size="10.00">&lt; MoFEM::EntitiesFieldData</text>
<text text-anchor="middle" x="1886" y="-1197.81" font-family="Helvetica,sans-Serif" font-size="10.00">::EntData &gt;, MBMAXTYPE &gt;</text>
</a>
</g>
</g>
<!-- Node61&#45;&gt;Node59 -->
<g id="edge73" class="edge">
<title>Node61&#45;&gt;Node59</title>
<path fill="none" stroke="#9a32cd" stroke-dasharray="5,2" d="M1972.83,-1223.91C2039.18,-1233.64 2129.63,-1246.91 2190.06,-1255.78"/>
<polygon fill="#9a32cd" stroke="#9a32cd" points="1973.21,-1220.42 1962.8,-1222.43 1972.19,-1227.35 1973.21,-1220.42"/>
<text text-anchor="middle" x="2063" y="-1248.31" font-family="Helvetica,sans-Serif" font-size="10.00"> dataOnEntities</text>
</g>
<!-- Node62 -->
<g id="node62" class="node">
<title>Node62</title>
<g id="a_node62"><a xlink:title=" ">
<polygon fill="white" stroke="#bfbfbf" points="1799,-1426.31 1799,-1456.31 1973,-1456.31 1973,-1426.31 1799,-1426.31"/>
<text text-anchor="start" x="1807" y="-1444.31" font-family="Helvetica,sans-Serif" font-size="10.00">array&lt; std::bitset</text>
<text text-anchor="middle" x="1886" y="-1433.31" font-family="Helvetica,sans-Serif" font-size="10.00">&lt; LASTSPACE &gt;, MBMAXTYPE &gt;</text>
</a>
</g>
</g>
<!-- Node62&#45;&gt;Node59 -->
<g id="edge74" class="edge">
<title>Node62&#45;&gt;Node59</title>
<path fill="none" stroke="#9a32cd" stroke-dasharray="5,2" d="M1983.34,-1454.61C2035.01,-1456.08 2095.91,-1447.78 2135,-1409.31 2174.69,-1370.25 2114.61,-1325.65 2153,-1285.31 2161.58,-1276.29 2172.95,-1270.68 2184.98,-1267.3"/>
<polygon fill="#9a32cd" stroke="#9a32cd" points="1983.28,-1451.1 1973.14,-1454.19 1982.99,-1458.1 1983.28,-1451.1"/>
<text text-anchor="middle" x="2063" y="-1457.31" font-family="Helvetica,sans-Serif" font-size="10.00"> spacesOnEntities</text>
</g>
<!-- Node63 -->
<g id="node63" class="node">
<title>Node63</title>
<g id="a_node63"><a xlink:title=" ">
<polygon fill="white" stroke="#bfbfbf" points="1801.5,-1377.31 1801.5,-1407.31 1970.5,-1407.31 1970.5,-1377.31 1801.5,-1377.31"/>
<text text-anchor="start" x="1809.5" y="-1395.31" font-family="Helvetica,sans-Serif" font-size="10.00">array&lt; std::bitset</text>
<text text-anchor="middle" x="1886" y="-1384.31" font-family="Helvetica,sans-Serif" font-size="10.00">&lt; LASTBASE &gt;, MBMAXTYPE &gt;</text>
</a>
</g>
</g>
<!-- Node63&#45;&gt;Node59 -->
<g id="edge75" class="edge">
<title>Node63&#45;&gt;Node59</title>
<path fill="none" stroke="#9a32cd" stroke-dasharray="5,2" d="M1981.02,-1395.21C2041.38,-1395.01 2112.53,-1390.23 2135,-1370.31 2163.9,-1344.7 2125.49,-1312.41 2153,-1285.31 2161.74,-1276.7 2173.04,-1271.25 2184.91,-1267.9"/>
<polygon fill="#9a32cd" stroke="#9a32cd" points="1980.67,-1391.71 1970.66,-1395.2 1980.66,-1398.71 1980.67,-1391.71"/>
<text text-anchor="middle" x="2063" y="-1397.31" font-family="Helvetica,sans-Serif" font-size="10.00"> basesOnEntities</text>
</g>
<!-- Node64 -->
<g id="node64" class="node">
<title>Node64</title>
<g id="a_node64"><a xlink:title=" ">
<polygon fill="white" stroke="#bfbfbf" points="1830,-1338.81 1830,-1357.81 1942,-1357.81 1942,-1338.81 1830,-1338.81"/>
<text text-anchor="middle" x="1886" y="-1345.81" font-family="Helvetica,sans-Serif" font-size="10.00">UBlasMatrix&lt; int &gt;</text>
</a>
</g>
</g>
<!-- Node64&#45;&gt;Node59 -->
<g id="edge76" class="edge">
<title>Node64&#45;&gt;Node59</title>
<path fill="none" stroke="#9a32cd" stroke-dasharray="5,2" d="M1952.37,-1346.71C2015.62,-1344.01 2106.04,-1336.76 2135,-1317.31 2148.55,-1308.21 2139.78,-1294.87 2153,-1285.31 2162.43,-1278.49 2173.59,-1273.84 2185,-1270.69"/>
<polygon fill="#9a32cd" stroke="#9a32cd" points="1951.92,-1343.22 1942.07,-1347.12 1952.2,-1350.22 1951.92,-1343.22"/>
<text text-anchor="middle" x="2063" y="-1358.31" font-family="Helvetica,sans-Serif" font-size="10.00"> facesNodesOrder</text>
<text text-anchor="middle" x="2063" y="-1347.31" font-family="Helvetica,sans-Serif" font-size="10.00">facesNodes</text>
</g>
<!-- Node65 -->
<g id="node65" class="node">
<title>Node65</title>
<g id="a_node65"><a xlink:title=" ">
<polygon fill="white" stroke="#bfbfbf" points="1827.5,-1300.81 1827.5,-1319.81 1944.5,-1319.81 1944.5,-1300.81 1827.5,-1300.81"/>
<text text-anchor="middle" x="1886" y="-1307.81" font-family="Helvetica,sans-Serif" font-size="10.00">bitset&lt; LASTBASE &gt;</text>
</a>
</g>
</g>
<!-- Node65&#45;&gt;Node59 -->
<g id="edge77" class="edge">
<title>Node65&#45;&gt;Node59</title>
<path fill="none" stroke="#9a32cd" stroke-dasharray="5,2" d="M1954.85,-1306.15C2004.82,-1302.63 2074.33,-1296.8 2135,-1288.31 2142.25,-1287.3 2176.55,-1280.69 2206.64,-1274.82"/>
<polygon fill="#9a32cd" stroke="#9a32cd" points="1954.55,-1302.66 1944.82,-1306.84 1955.03,-1309.64 1954.55,-1302.66"/>
<text text-anchor="middle" x="2063" y="-1305.31" font-family="Helvetica,sans-Serif" font-size="10.00"> bAse</text>
</g>
<!-- Node66 -->
<g id="node66" class="node">
<title>Node66</title>
<g id="a_node66"><a xlink:title=" ">
<polygon fill="white" stroke="#bfbfbf" points="2193.5,-1343.81 2193.5,-1384.81 2318.5,-1384.81 2318.5,-1343.81 2193.5,-1343.81"/>
<text text-anchor="start" x="2201.5" y="-1372.81" font-family="Helvetica,sans-Serif" font-size="10.00">function&lt; int(int order</text>
<text text-anchor="start" x="2201.5" y="-1361.81" font-family="Helvetica,sans-Serif" font-size="10.00">_row, int order_col, int</text>
<text text-anchor="middle" x="2256" y="-1350.81" font-family="Helvetica,sans-Serif" font-size="10.00"> order_data)&gt;</text>
</a>
</g>
</g>
<!-- Node66&#45;&gt;Node11 -->
<g id="edge78" class="edge">
<title>Node66&#45;&gt;Node11</title>
<path fill="none" stroke="#9a32cd" stroke-dasharray="5,2" d="M2328.71,-1377.23C2390.82,-1384.19 2479.76,-1383.51 2539,-1337.31 2631.78,-1264.95 2640.33,-1101.57 2640.98,-1060.05"/>
<polygon fill="#9a32cd" stroke="#9a32cd" points="2328.94,-1373.73 2318.6,-1376 2328.1,-1380.68 2328.94,-1373.73"/>
<text text-anchor="middle" x="2458" y="-1383.31" font-family="Helvetica,sans-Serif" font-size="10.00"> getRuleHook</text>
</g>
<!-- Node67 -->
<g id="node67" class="node">
<title>Node67</title>
<g id="a_node67"><a xlink:title=" ">
<polygon fill="white" stroke="#bfbfbf" points="2195,-1294.31 2195,-1324.31 2317,-1324.31 2317,-1294.31 2195,-1294.31"/>
<text text-anchor="start" x="2203" y="-1312.31" font-family="Helvetica,sans-Serif" font-size="10.00">shared_ptr&lt; MoFEM::</text>
<text text-anchor="middle" x="2256" y="-1301.31" font-family="Helvetica,sans-Serif" font-size="10.00">BaseFunction &gt;</text>
</a>
</g>
</g>
<!-- Node67&#45;&gt;Node11 -->
<g id="edge79" class="edge">
<title>Node67&#45;&gt;Node11</title>
<path fill="none" stroke="#9a32cd" stroke-dasharray="5,2" d="M2327.48,-1311.91C2399.81,-1313.18 2506.27,-1310.74 2539,-1287.31 2618.96,-1230.09 2636.79,-1096.76 2640.25,-1059.9"/>
<polygon fill="#9a32cd" stroke="#9a32cd" points="2327.14,-1308.4 2317.07,-1311.7 2326.99,-1315.4 2327.14,-1308.4"/>
<text text-anchor="middle" x="2458" y="-1325.31" font-family="Helvetica,sans-Serif" font-size="10.00"> userPolynomialBasePtr</text>
<text text-anchor="middle" x="2458" y="-1314.31" font-family="Helvetica,sans-Serif" font-size="10.00">elementPolynomialBasePtr</text>
</g>
<!-- Node68 -->
<g id="node68" class="node">
<title>Node68</title>
<g id="a_node68"><a xlink:href="classUBlasMatrix_3_01double_01_4.html" target="_top" xlink:title=" ">
<polygon fill="white" stroke="black" points="2190,-1114.81 2190,-1133.81 2322,-1133.81 2322,-1114.81 2190,-1114.81"/>
<text text-anchor="middle" x="2256" y="-1121.81" font-family="Helvetica,sans-Serif" font-size="10.00">UBlasMatrix&lt; double &gt;</text>
</a>
</g>
</g>
<!-- Node68&#45;&gt;Node11 -->
<g id="edge80" class="edge">
<title>Node68&#45;&gt;Node11</title>
<path fill="none" stroke="#9a32cd" stroke-dasharray="5,2" d="M2332.13,-1121.45C2389.54,-1117.91 2470.24,-1110 2539,-1092.31 2569.23,-1084.53 2602.32,-1069.63 2622.37,-1059.83"/>
<polygon fill="#9a32cd" stroke="#9a32cd" points="2331.82,-1117.97 2322.04,-1122.04 2332.23,-1124.95 2331.82,-1117.97"/>
<text text-anchor="middle" x="2458" y="-1131.31" font-family="Helvetica,sans-Serif" font-size="10.00"> coordsAtGaussPts</text>
<text text-anchor="middle" x="2458" y="-1120.31" font-family="Helvetica,sans-Serif" font-size="10.00">gaussPts</text>
</g>
<!-- Node69 -->
<g id="node69" class="node">
<title>Node69</title>
<g id="a_node69"><a xlink:title=" ">
<polygon fill="white" stroke="#bfbfbf" points="2576.5,-615.81 2576.5,-634.81 2707.5,-634.81 2707.5,-615.81 2576.5,-615.81"/>
<text text-anchor="middle" x="2642" y="-622.81" font-family="Helvetica,sans-Serif" font-size="10.00">static const char *const</text>
</a>
</g>
</g>
<!-- Node69&#45;&gt;Node3 -->
<g id="edge81" class="edge">
<title>Node69&#45;&gt;Node3</title>
<path fill="none" stroke="#9a32cd" stroke-dasharray="5,2" d="M2698.01,-613.47C2707.7,-611.22 2717.67,-608.78 2727,-606.31 2780.65,-592.1 2841.21,-571.35 2880.18,-557.36"/>
<polygon fill="#9a32cd" stroke="#9a32cd" points="2697.01,-610.11 2688.05,-615.76 2698.58,-616.93 2697.01,-610.11"/>
<text text-anchor="middle" x="2782" y="-603.31" font-family="Helvetica,sans-Serif" font-size="10.00"> OpTypeNames</text>
</g>
<!-- Node70 -->
<g id="node70" class="node">
<title>Node70</title>
<g id="a_node70"><a xlink:title=" ">
<polygon fill="white" stroke="#bfbfbf" points="3098.5,-50.81 3098.5,-69.81 3180.5,-69.81 3180.5,-50.81 3098.5,-50.81"/>
<text text-anchor="middle" x="3139.5" y="-57.81" font-family="Helvetica,sans-Serif" font-size="10.00">VectorDouble</text>
</a>
</g>
</g>
<!-- Node70&#45;&gt;Node1 -->
<g id="edge83" class="edge">
<title>Node70&#45;&gt;Node1</title>
<path fill="none" stroke="#9a32cd" stroke-dasharray="5,2" d="M3190.82,-62.19C3223.51,-63.93 3266.97,-67.21 3305,-73.31 3328.33,-77.05 3354.18,-83.37 3374.08,-88.72"/>
<polygon fill="#9a32cd" stroke="#9a32cd" points="3190.76,-58.69 3180.6,-61.68 3190.41,-65.68 3190.76,-58.69"/>
<text text-anchor="middle" x="3279" y="-76.31" font-family="Helvetica,sans-Serif" font-size="10.00"> naturalBC</text>
</g>
<!-- Node71&#45;&gt;Node1 -->
<g id="edge84" class="edge">
<title>Node71&#45;&gt;Node1</title>
<path fill="none" stroke="#9a32cd" stroke-dasharray="5,2" d="M2268.88,-362.15C2311.25,-299.8 2462.02,-98.31 2641,-98.31 2641,-98.31 2641,-98.31 3140.5,-98.31 3201.46,-98.31 3270.24,-98.31 3322.73,-98.31"/>
<polygon fill="#9a32cd" stroke="#9a32cd" points="2265.87,-360.35 2263.22,-370.6 2271.69,-364.24 2265.87,-360.35"/>
<text text-anchor="middle" x="2922" y="-101.31" font-family="Helvetica,sans-Serif" font-size="10.00"> blockData</text>
</g>
<!-- Node72 -->
<g id="node72" class="node">
<title>Node72</title>
<g id="a_node72"><a xlink:href="classRange.html" target="_top" xlink:title=" ">
<polygon fill="white" stroke="black" points="1862.5,-392.81 1862.5,-411.81 1909.5,-411.81 1909.5,-392.81 1862.5,-392.81"/>
<text text-anchor="middle" x="1886" y="-399.81" font-family="Helvetica,sans-Serif" font-size="10.00">Range</text>
</a>
</g>
</g>
<!-- Node72&#45;&gt;Node71 -->
<g id="edge86" class="edge">
<title>Node72&#45;&gt;Node71</title>
<path fill="none" stroke="#9a32cd" stroke-dasharray="5,2" d="M1920.04,-400.34C1977.43,-396.91 2097.02,-389.76 2176.66,-384.99"/>
<polygon fill="#9a32cd" stroke="#9a32cd" points="1919.52,-396.86 1909.74,-400.95 1919.93,-403.85 1919.52,-396.86"/>
<text text-anchor="middle" x="2063" y="-409.31" font-family="Helvetica,sans-Serif" font-size="10.00"> essentialBc</text>
<text text-anchor="middle" x="2063" y="-398.31" font-family="Helvetica,sans-Serif" font-size="10.00">naturalBc</text>
</g>
<!-- Node73 -->
<g id="node73" class="node">
<title>Node73</title>
<g id="a_node73"><a xlink:title=" ">
<polygon fill="white" stroke="#bfbfbf" points="1869.5,-316.81 1869.5,-335.81 1902.5,-335.81 1902.5,-316.81 1869.5,-316.81"/>
<text text-anchor="middle" x="1886" y="-323.81" font-family="Helvetica,sans-Serif" font-size="10.00">DM</text>
</a>
</g>
</g>
<!-- Node73&#45;&gt;Node71 -->
<g id="edge87" class="edge">
<title>Node73&#45;&gt;Node71</title>
<path fill="none" stroke="#9a32cd" stroke-dasharray="5,2" d="M1912.68,-325.34C1958.03,-324.14 2055.02,-323.86 2135,-339.31 2170.23,-346.12 2209.25,-360.88 2232.95,-370.7"/>
<polygon fill="#9a32cd" stroke="#9a32cd" points="1912.45,-321.84 1902.56,-325.65 1912.66,-328.84 1912.45,-321.84"/>
<text text-anchor="middle" x="2063" y="-342.31" font-family="Helvetica,sans-Serif" font-size="10.00"> dM</text>
</g>
</g>
</svg>
