<?xml version="1.0" encoding="UTF-8" standalone="no"?>
<!DOCTYPE svg PUBLIC "-//W3C//DTD SVG 1.1//EN"
 "http://www.w3.org/Graphics/SVG/1.1/DTD/svg11.dtd">
<!-- Generated by graphviz version 2.43.0 (0)
 -->
<!-- Title: PhotonDiffusion::Monitor Pages: 1 -->
<svg width="2502pt" height="1297pt"
 viewBox="0.00 0.00 2502.00 1297.45" xmlns="http://www.w3.org/2000/svg" xmlns:xlink="http://www.w3.org/1999/xlink">
<g id="graph0" class="graph" transform="scale(1 1) rotate(0) translate(4 1293.45)">
<title>PhotonDiffusion::Monitor</title>
<polygon fill="white" stroke="transparent" points="-4,4 -4,-1293.45 2498,-1293.45 2498,4 -4,4"/>
<!-- Node1 -->
<g id="node1" class="node">
<title>Node1</title>
<g id="a_node1"><a xlink:title=" ">
<polygon fill="#bfbfbf" stroke="black" points="2357,-207.95 2357,-226.95 2494,-226.95 2494,-207.95 2357,-207.95"/>
<text text-anchor="middle" x="2425.5" y="-214.95" font-family="Helvetica,sans-Serif" font-size="10.00">PhotonDiffusion::Monitor</text>
</a>
</g>
</g>
<!-- Node2 -->
<g id="node2" class="node">
<title>Node2</title>
<g id="a_node2"><a xlink:href="structMoFEM_1_1FEMethod.html" target="_top" xlink:title="structure for User Loop Methods on finite elements">
<polygon fill="white" stroke="black" points="2093.5,-326.95 2093.5,-345.95 2200.5,-345.95 2200.5,-326.95 2093.5,-326.95"/>
<text text-anchor="middle" x="2147" y="-333.95" font-family="Helvetica,sans-Serif" font-size="10.00">MoFEM::FEMethod</text>
</a>
</g>
</g>
<!-- Node2&#45;&gt;Node1 -->
<g id="edge1" class="edge">
<title>Node2&#45;&gt;Node1</title>
<path fill="none" stroke="midnightblue" d="M2206.08,-324.51C2244.95,-315.24 2296.56,-300.41 2339,-279.45 2368.43,-264.92 2398.5,-240.4 2413.93,-226.96"/>
<polygon fill="midnightblue" stroke="midnightblue" points="2204.92,-321.19 2195.98,-326.87 2206.51,-328.01 2204.92,-321.19"/>
</g>
<!-- Node3 -->
<g id="node3" class="node">
<title>Node3</title>
<g id="a_node3"><a xlink:href="structMoFEM_1_1BasicMethod.html" target="_top" xlink:title="Data structure to exchange data between mofem and User Loop Methods.">
<polygon fill="white" stroke="black" points="1741.5,-415.95 1741.5,-434.95 1863.5,-434.95 1863.5,-415.95 1741.5,-415.95"/>
<text text-anchor="middle" x="1802.5" y="-422.95" font-family="Helvetica,sans-Serif" font-size="10.00">MoFEM::BasicMethod</text>
</a>
</g>
</g>
<!-- Node3&#45;&gt;Node2 -->
<g id="edge2" class="edge">
<title>Node3&#45;&gt;Node2</title>
<path fill="none" stroke="midnightblue" d="M1873.8,-418.32C1922.86,-412.14 1989.41,-401.29 2046,-383.45 2076.55,-373.82 2109.8,-356.75 2129.22,-346.05"/>
<polygon fill="midnightblue" stroke="midnightblue" points="1873.11,-414.88 1863.61,-419.57 1873.96,-421.83 1873.11,-414.88"/>
</g>
<!-- Node4 -->
<g id="node4" class="node">
<title>Node4</title>
<g id="a_node4"><a xlink:href="structMoFEM_1_1KspMethod.html" target="_top" xlink:title="data structure for ksp (linear solver) context">
<polygon fill="white" stroke="black" points="1442,-173.95 1442,-192.95 1555,-192.95 1555,-173.95 1442,-173.95"/>
<text text-anchor="middle" x="1498.5" y="-180.95" font-family="Helvetica,sans-Serif" font-size="10.00">MoFEM::KspMethod</text>
</a>
</g>
</g>
<!-- Node4&#45;&gt;Node3 -->
<g id="edge3" class="edge">
<title>Node4&#45;&gt;Node3</title>
<path fill="none" stroke="midnightblue" d="M1552.33,-195.83C1599.63,-209.81 1666.92,-237.43 1703,-287.45 1734.03,-330.48 1685.25,-366.25 1721,-405.45 1726.53,-411.52 1733.59,-415.87 1741.22,-418.98"/>
<polygon fill="midnightblue" stroke="midnightblue" points="1553.13,-192.42 1542.56,-193.05 1551.22,-199.15 1553.13,-192.42"/>
</g>
<!-- Node5 -->
<g id="node5" class="node">
<title>Node5</title>
<g id="a_node5"><a xlink:href="structMoFEM_1_1PetscData.html" target="_top" xlink:title=" ">
<polygon fill="white" stroke="black" points="1087.5,-379.95 1087.5,-398.95 1195.5,-398.95 1195.5,-379.95 1087.5,-379.95"/>
<text text-anchor="middle" x="1141.5" y="-386.95" font-family="Helvetica,sans-Serif" font-size="10.00">MoFEM::PetscData</text>
</a>
</g>
</g>
<!-- Node5&#45;&gt;Node4 -->
<g id="edge4" class="edge">
<title>Node5&#45;&gt;Node4</title>
<path fill="none" stroke="midnightblue" d="M1205.46,-386.34C1219.6,-382.68 1233.27,-376.3 1243,-365.45 1285.76,-317.75 1216.58,-268.6 1261,-222.45 1267.27,-215.94 1373.97,-200.3 1441.89,-190.92"/>
<polygon fill="midnightblue" stroke="midnightblue" points="1204.67,-382.93 1195.64,-388.46 1206.15,-389.77 1204.67,-382.93"/>
</g>
<!-- Node15 -->
<g id="node15" class="node">
<title>Node15</title>
<g id="a_node15"><a xlink:href="structMoFEM_1_1SnesMethod.html" target="_top" xlink:title="data structure for snes (nonlinear solver) context">
<polygon fill="white" stroke="black" points="1439,-415.95 1439,-434.95 1558,-434.95 1558,-415.95 1439,-415.95"/>
<text text-anchor="middle" x="1498.5" y="-422.95" font-family="Helvetica,sans-Serif" font-size="10.00">MoFEM::SnesMethod</text>
</a>
</g>
</g>
<!-- Node5&#45;&gt;Node15 -->
<g id="edge17" class="edge">
<title>Node5&#45;&gt;Node15</title>
<path fill="none" stroke="darkgreen" d="M1205.93,-395.88C1272.03,-402.59 1374.74,-413 1438.96,-419.51"/>
<polygon fill="darkgreen" stroke="darkgreen" points="1205.95,-392.37 1195.65,-394.84 1205.24,-399.33 1205.95,-392.37"/>
</g>
<!-- Node18 -->
<g id="node18" class="node">
<title>Node18</title>
<g id="a_node18"><a xlink:href="structMoFEM_1_1TSMethod.html" target="_top" xlink:title="data structure for TS (time stepping) context">
<polygon fill="white" stroke="black" points="1445,-494.95 1445,-513.95 1552,-513.95 1552,-494.95 1445,-494.95"/>
<text text-anchor="middle" x="1498.5" y="-501.95" font-family="Helvetica,sans-Serif" font-size="10.00">MoFEM::TSMethod</text>
</a>
</g>
</g>
<!-- Node5&#45;&gt;Node18 -->
<g id="edge23" class="edge">
<title>Node5&#45;&gt;Node18</title>
<path fill="none" stroke="darkgreen" d="M1202.02,-401.28C1215.66,-404.65 1229.98,-408.71 1243,-413.45 1251.4,-416.51 1252.76,-418.98 1261,-422.45 1332.69,-452.65 1419.75,-480.71 1465.64,-494.85"/>
<polygon fill="darkgreen" stroke="darkgreen" points="1202.78,-397.86 1192.24,-398.95 1201.16,-404.67 1202.78,-397.86"/>
</g>
<!-- Node6 -->
<g id="node6" class="node">
<title>Node6</title>
<g id="a_node6"><a xlink:href="structMoFEM_1_1UnknownInterface.html" target="_top" xlink:title="base class for all interface classes">
<polygon fill="white" stroke="black" points="735,-392.95 735,-411.95 883,-411.95 883,-392.95 735,-392.95"/>
<text text-anchor="middle" x="809" y="-399.95" font-family="Helvetica,sans-Serif" font-size="10.00">MoFEM::UnknownInterface</text>
</a>
</g>
</g>
<!-- Node6&#45;&gt;Node5 -->
<g id="edge5" class="edge">
<title>Node6&#45;&gt;Node5</title>
<path fill="none" stroke="midnightblue" d="M893.71,-399.16C954.57,-396.76 1035.13,-393.59 1087.38,-391.54"/>
<polygon fill="midnightblue" stroke="midnightblue" points="893.2,-395.67 883.35,-399.56 893.48,-402.67 893.2,-395.67"/>
</g>
<!-- Node7 -->
<g id="node7" class="node">
<title>Node7</title>
<g id="a_node7"><a xlink:title=" ">
<polygon fill="white" stroke="#bfbfbf" points="386,-555.95 386,-618.95 627,-618.95 627,-555.95 386,-555.95"/>
<text text-anchor="start" x="394" y="-606.95" font-family="Helvetica,sans-Serif" font-size="10.00">multi_index_container</text>
<text text-anchor="start" x="394" y="-595.95" font-family="Helvetica,sans-Serif" font-size="10.00">&lt; UIdTypeMap, indexed</text>
<text text-anchor="start" x="394" y="-584.95" font-family="Helvetica,sans-Serif" font-size="10.00">_by&lt; hashed_unique&lt; member</text>
<text text-anchor="start" x="394" y="-573.95" font-family="Helvetica,sans-Serif" font-size="10.00">&lt; UIdTypeMap, boost::typeindex</text>
<text text-anchor="middle" x="506.5" y="-562.95" font-family="Helvetica,sans-Serif" font-size="10.00">::type_index, &amp;UIdTypeMap::classIdx &gt; &gt; &gt; &gt;</text>
</a>
</g>
</g>
<!-- Node7&#45;&gt;Node6 -->
<g id="edge6" class="edge">
<title>Node7&#45;&gt;Node6</title>
<path fill="none" stroke="#9a32cd" stroke-dasharray="5,2" d="M567.65,-550.42C638.34,-506.9 751.23,-437.4 792.36,-412.08"/>
<polygon fill="#9a32cd" stroke="#9a32cd" points="565.5,-547.63 558.82,-555.86 569.17,-553.6 565.5,-547.63"/>
<text text-anchor="middle" x="681" y="-503.45" font-family="Helvetica,sans-Serif" font-size="10.00"> iFaceTypeMap</text>
</g>
<!-- Node8 -->
<g id="node8" class="node">
<title>Node8</title>
<g id="a_node8"><a xlink:title=" ">
<polygon fill="white" stroke="#bfbfbf" points="0,-607.95 0,-626.95 125,-626.95 125,-607.95 0,-607.95"/>
<text text-anchor="middle" x="62.5" y="-614.95" font-family="Helvetica,sans-Serif" font-size="10.00">multi_index_container</text>
</a>
</g>
</g>
<!-- Node8&#45;&gt;Node3 -->
<g id="edge30" class="edge">
<title>Node8&#45;&gt;Node3</title>
<path fill="none" stroke="#9a32cd" stroke-dasharray="5,2" d="M86.19,-632.49C101.56,-641.89 122.7,-653.34 143,-659.45 298.03,-706.14 343.6,-695.45 505.5,-695.45 505.5,-695.45 505.5,-695.45 962.5,-695.45 1156.39,-695.45 1213.01,-717.59 1397,-656.45 1565.07,-600.6 1741.61,-471.25 1789.13,-435.03"/>
<polygon fill="#9a32cd" stroke="#9a32cd" points="87.75,-629.33 77.43,-626.96 84.02,-635.26 87.75,-629.33"/>
<text text-anchor="middle" x="961.5" y="-775.45" font-family="Helvetica,sans-Serif" font-size="10.00"> adjacenciesPtr</text>
<text text-anchor="middle" x="961.5" y="-764.45" font-family="Helvetica,sans-Serif" font-size="10.00">refinedEntitiesPtr</text>
<text text-anchor="middle" x="961.5" y="-753.45" font-family="Helvetica,sans-Serif" font-size="10.00">finiteElementsEntitiesPtr</text>
<text text-anchor="middle" x="961.5" y="-742.45" font-family="Helvetica,sans-Serif" font-size="10.00">dofsPtr</text>
<text text-anchor="middle" x="961.5" y="-731.45" font-family="Helvetica,sans-Serif" font-size="10.00">entitiesPtr</text>
<text text-anchor="middle" x="961.5" y="-720.45" font-family="Helvetica,sans-Serif" font-size="10.00">finiteElementsPtr</text>
<text text-anchor="middle" x="961.5" y="-709.45" font-family="Helvetica,sans-Serif" font-size="10.00">refinedFiniteElementsPtr</text>
<text text-anchor="middle" x="961.5" y="-698.45" font-family="Helvetica,sans-Serif" font-size="10.00">fieldsPtr</text>
</g>
<!-- Node8&#45;&gt;Node7 -->
<g id="edge7" class="edge">
<title>Node8&#45;&gt;Node7</title>
<path fill="none" stroke="orange" stroke-dasharray="5,2" d="M135.56,-612.56C203.25,-607.96 305.79,-601 385.77,-595.58"/>
<polygon fill="orange" stroke="orange" points="135.16,-609.08 125.42,-613.25 135.64,-616.06 135.16,-609.08"/>
<text text-anchor="start" x="143" y="-647.45" font-family="Helvetica,sans-Serif" font-size="10.00"> &lt; UIdTypeMap, indexed</text>
<text text-anchor="start" x="143" y="-636.45" font-family="Helvetica,sans-Serif" font-size="10.00">_by&lt; hashed_unique&lt; member</text>
<text text-anchor="start" x="143" y="-625.45" font-family="Helvetica,sans-Serif" font-size="10.00">&lt; UIdTypeMap, boost::typeindex</text>
<text text-anchor="middle" x="255.5" y="-614.45" font-family="Helvetica,sans-Serif" font-size="10.00">::type_index, &amp;UIdTypeMap::classIdx &gt; &gt; &gt; &gt;</text>
</g>
<!-- Node9 -->
<g id="node9" class="node">
<title>Node9</title>
<g id="a_node9"><a xlink:title=" ">
<polygon fill="white" stroke="#bfbfbf" points="738.5,-276.95 738.5,-295.95 879.5,-295.95 879.5,-276.95 738.5,-276.95"/>
<text text-anchor="middle" x="809" y="-283.95" font-family="Helvetica,sans-Serif" font-size="10.00">static constexpr Switches</text>
</a>
</g>
</g>
<!-- Node9&#45;&gt;Node5 -->
<g id="edge8" class="edge">
<title>Node9&#45;&gt;Node5</title>
<path fill="none" stroke="#9a32cd" stroke-dasharray="5,2" d="M859.62,-275.16C906.72,-267.54 976.83,-264.65 1022,-301.45 1044.91,-320.11 1018.7,-344.98 1040,-365.45 1052.68,-377.63 1070.37,-384 1087.39,-387.23"/>
<polygon fill="#9a32cd" stroke="#9a32cd" points="858.9,-271.73 849.65,-276.9 860.1,-278.63 858.9,-271.73"/>
<text text-anchor="middle" x="961.5" y="-381.45" font-family="Helvetica,sans-Serif" font-size="10.00"> CtxSetX_TT</text>
<text text-anchor="middle" x="961.5" y="-370.45" font-family="Helvetica,sans-Serif" font-size="10.00">CtxSetX_T</text>
<text text-anchor="middle" x="961.5" y="-359.45" font-family="Helvetica,sans-Serif" font-size="10.00">CtxSetA</text>
<text text-anchor="middle" x="961.5" y="-348.45" font-family="Helvetica,sans-Serif" font-size="10.00">CtxSetB</text>
<text text-anchor="middle" x="961.5" y="-337.45" font-family="Helvetica,sans-Serif" font-size="10.00">CtxSetTime</text>
<text text-anchor="middle" x="961.5" y="-326.45" font-family="Helvetica,sans-Serif" font-size="10.00">CtxSetNone</text>
<text text-anchor="middle" x="961.5" y="-315.45" font-family="Helvetica,sans-Serif" font-size="10.00">CtxSetF</text>
<text text-anchor="middle" x="961.5" y="-304.45" font-family="Helvetica,sans-Serif" font-size="10.00">CtxSetX</text>
</g>
<!-- Node10 -->
<g id="node10" class="node">
<title>Node10</title>
<g id="a_node10"><a xlink:title=" ">
<polygon fill="white" stroke="#bfbfbf" points="791.5,-458.95 791.5,-477.95 826.5,-477.95 826.5,-458.95 791.5,-458.95"/>
<text text-anchor="middle" x="809" y="-465.95" font-family="Helvetica,sans-Serif" font-size="10.00">Mat</text>
</a>
</g>
</g>
<!-- Node10&#45;&gt;Node4 -->
<g id="edge14" class="edge">
<title>Node10&#45;&gt;Node4</title>
<path fill="none" stroke="#9a32cd" stroke-dasharray="5,2" d="M835.98,-455.05C853.92,-446.15 878.51,-434.64 901,-426.45 953.38,-407.37 986.22,-436.19 1022,-393.45 1050.78,-359.06 1007.2,-223.04 1040,-192.45 1096.64,-139.62 1332.44,-162.05 1441.6,-175.74"/>
<polygon fill="#9a32cd" stroke="#9a32cd" points="834.12,-452.07 826.75,-459.69 837.26,-458.33 834.12,-452.07"/>
<text text-anchor="middle" x="1141.5" y="-206.45" font-family="Helvetica,sans-Serif" font-size="10.00"> ksp_A</text>
<text text-anchor="middle" x="1141.5" y="-195.45" font-family="Helvetica,sans-Serif" font-size="10.00">ksp_B</text>
</g>
<!-- Node10&#45;&gt;Node5 -->
<g id="edge9" class="edge">
<title>Node10&#45;&gt;Node5</title>
<path fill="none" stroke="#9a32cd" stroke-dasharray="5,2" d="M836.56,-461.66C854.67,-457.13 879.22,-451.15 901,-446.45 954.51,-434.9 970.53,-442.09 1022,-423.45 1030.6,-420.33 1031.47,-416.77 1040,-413.45 1055.47,-407.44 1072.88,-402.64 1088.81,-398.96"/>
<polygon fill="#9a32cd" stroke="#9a32cd" points="835.56,-458.31 826.72,-464.15 837.27,-465.09 835.56,-458.31"/>
<text text-anchor="middle" x="961.5" y="-460.45" font-family="Helvetica,sans-Serif" font-size="10.00"> A</text>
<text text-anchor="middle" x="961.5" y="-449.45" font-family="Helvetica,sans-Serif" font-size="10.00">B</text>
</g>
<!-- Node10&#45;&gt;Node15 -->
<g id="edge19" class="edge">
<title>Node10&#45;&gt;Node15</title>
<path fill="none" stroke="#9a32cd" stroke-dasharray="5,2" d="M836.51,-475.64C878.42,-485.49 961.43,-498.73 1022,-468.45 1033.93,-462.49 1028.2,-450.66 1040,-444.45 1107.54,-408.91 1331.11,-415.99 1438.68,-421.76"/>
<polygon fill="#9a32cd" stroke="#9a32cd" points="837.09,-472.18 826.54,-473.18 835.41,-478.97 837.09,-472.18"/>
<text text-anchor="middle" x="1141.5" y="-458.45" font-family="Helvetica,sans-Serif" font-size="10.00"> snes_A</text>
<text text-anchor="middle" x="1141.5" y="-447.45" font-family="Helvetica,sans-Serif" font-size="10.00">snes_B</text>
</g>
<!-- Node10&#45;&gt;Node18 -->
<g id="edge24" class="edge">
<title>Node10&#45;&gt;Node18</title>
<path fill="none" stroke="#9a32cd" stroke-dasharray="5,2" d="M828.28,-485.18C865.09,-517.7 952.17,-588.85 1040,-618.45 1115.25,-643.81 1325.71,-669.44 1397,-634.45 1450.01,-608.43 1483,-539.49 1493.69,-514.05"/>
<polygon fill="#9a32cd" stroke="#9a32cd" points="830.21,-482.2 820.42,-478.14 825.54,-487.42 830.21,-482.2"/>
<text text-anchor="middle" x="1141.5" y="-663.45" font-family="Helvetica,sans-Serif" font-size="10.00"> ts_A</text>
<text text-anchor="middle" x="1141.5" y="-652.45" font-family="Helvetica,sans-Serif" font-size="10.00">ts_B</text>
</g>
<!-- Node11 -->
<g id="node11" class="node">
<title>Node11</title>
<g id="a_node11"><a xlink:title=" ">
<polygon fill="white" stroke="#bfbfbf" points="772.5,-238.95 772.5,-257.95 845.5,-257.95 845.5,-238.95 772.5,-238.95"/>
<text text-anchor="middle" x="809" y="-245.95" font-family="Helvetica,sans-Serif" font-size="10.00">bitset&lt; 8 &gt;</text>
</a>
</g>
</g>
<!-- Node11&#45;&gt;Node5 -->
<g id="edge10" class="edge">
<title>Node11&#45;&gt;Node5</title>
<path fill="none" stroke="#9a32cd" stroke-dasharray="5,2" d="M855.88,-243.22C910.75,-238.05 998.19,-233.6 1022,-254.45 1059.6,-287.37 1005.99,-328.83 1040,-365.45 1052.15,-378.53 1070.03,-385.06 1087.36,-388.17"/>
<polygon fill="#9a32cd" stroke="#9a32cd" points="855.31,-239.76 845.7,-244.22 856,-246.72 855.31,-239.76"/>
<text text-anchor="middle" x="961.5" y="-257.45" font-family="Helvetica,sans-Serif" font-size="10.00"> data_ctx</text>
</g>
<!-- Node12 -->
<g id="node12" class="node">
<title>Node12</title>
<g id="a_node12"><a xlink:title=" ">
<polygon fill="white" stroke="#bfbfbf" points="792,-128.95 792,-147.95 826,-147.95 826,-128.95 792,-128.95"/>
<text text-anchor="middle" x="809" y="-135.95" font-family="Helvetica,sans-Serif" font-size="10.00">Vec</text>
</a>
</g>
</g>
<!-- Node12&#45;&gt;Node4 -->
<g id="edge15" class="edge">
<title>Node12&#45;&gt;Node4</title>
<path fill="none" stroke="#9a32cd" stroke-dasharray="5,2" d="M830.25,-122.54C868.55,-93.59 955.35,-33.27 1040,-11.45 1127.37,11.07 1152.87,-7.36 1243,-11.45 1311.66,-14.56 1347.49,22.21 1397,-25.45 1441.88,-68.65 1373.15,-118.31 1415,-164.45 1422.11,-172.29 1431.75,-177.22 1441.92,-180.26"/>
<polygon fill="#9a32cd" stroke="#9a32cd" points="827.81,-120 822,-128.86 832.07,-125.56 827.81,-120"/>
<text text-anchor="middle" x="1141.5" y="-14.45" font-family="Helvetica,sans-Serif" font-size="10.00"> ksp_f</text>
</g>
<!-- Node12&#45;&gt;Node5 -->
<g id="edge11" class="edge">
<title>Node12&#45;&gt;Node5</title>
<path fill="none" stroke="#9a32cd" stroke-dasharray="5,2" d="M835.96,-145.1C854.15,-149.74 879.04,-156.04 901,-161.45 954.7,-174.67 985.58,-148.84 1022,-190.45 1073.5,-249.28 988.48,-306.64 1040,-365.45 1051.88,-379.01 1069.92,-385.62 1087.46,-388.65"/>
<polygon fill="#9a32cd" stroke="#9a32cd" points="836.65,-141.67 826.09,-142.58 834.92,-148.45 836.65,-141.67"/>
<text text-anchor="middle" x="961.5" y="-226.45" font-family="Helvetica,sans-Serif" font-size="10.00"> f</text>
<text text-anchor="middle" x="961.5" y="-215.45" font-family="Helvetica,sans-Serif" font-size="10.00">x</text>
<text text-anchor="middle" x="961.5" y="-204.45" font-family="Helvetica,sans-Serif" font-size="10.00">x_t</text>
<text text-anchor="middle" x="961.5" y="-193.45" font-family="Helvetica,sans-Serif" font-size="10.00">x_tt</text>
</g>
<!-- Node12&#45;&gt;Node15 -->
<g id="edge20" class="edge">
<title>Node12&#45;&gt;Node15</title>
<path fill="none" stroke="#9a32cd" stroke-dasharray="5,2" d="M836.27,-133.8C904.48,-122.64 1092.41,-97.73 1243,-132.45 1317.18,-149.55 1353.77,-144.79 1397,-207.45 1422.21,-244 1385.81,-372.99 1415,-406.45 1421.28,-413.65 1429.69,-418.42 1438.74,-421.53"/>
<polygon fill="#9a32cd" stroke="#9a32cd" points="835.3,-130.41 826.02,-135.52 836.46,-137.32 835.3,-130.41"/>
<text text-anchor="middle" x="1141.5" y="-146.45" font-family="Helvetica,sans-Serif" font-size="10.00"> snes_x</text>
<text text-anchor="middle" x="1141.5" y="-135.45" font-family="Helvetica,sans-Serif" font-size="10.00">snes_f</text>
</g>
<!-- Node12&#45;&gt;Node18 -->
<g id="edge28" class="edge">
<title>Node12&#45;&gt;Node18</title>
<path fill="none" stroke="#9a32cd" stroke-dasharray="5,2" d="M836.2,-137.86C887.01,-137.31 996.22,-139.18 1022,-164.45 1062.4,-204.05 1000.68,-249.78 1040,-290.45 1103.69,-356.32 1157.15,-294.43 1243,-326.45 1317.7,-354.31 1338.77,-363.99 1397,-418.45 1407.27,-428.05 1405.18,-434.4 1415,-444.45 1435.3,-465.23 1463.45,-484.01 1481.06,-494.82"/>
<polygon fill="#9a32cd" stroke="#9a32cd" points="835.96,-134.36 826.02,-138.01 836.07,-141.36 835.96,-134.36"/>
<text text-anchor="middle" x="1141.5" y="-362.45" font-family="Helvetica,sans-Serif" font-size="10.00"> ts_u</text>
<text text-anchor="middle" x="1141.5" y="-351.45" font-family="Helvetica,sans-Serif" font-size="10.00">ts_F</text>
<text text-anchor="middle" x="1141.5" y="-340.45" font-family="Helvetica,sans-Serif" font-size="10.00">ts_u_t</text>
<text text-anchor="middle" x="1141.5" y="-329.45" font-family="Helvetica,sans-Serif" font-size="10.00">ts_u_tt</text>
</g>
<!-- Node13 -->
<g id="node13" class="node">
<title>Node13</title>
<g id="a_node13"><a xlink:title=" ">
<polygon fill="white" stroke="#bfbfbf" points="1124,-31.95 1124,-50.95 1159,-50.95 1159,-31.95 1124,-31.95"/>
<text text-anchor="middle" x="1141.5" y="-38.95" font-family="Helvetica,sans-Serif" font-size="10.00">KSP</text>
</a>
</g>
</g>
<!-- Node13&#45;&gt;Node4 -->
<g id="edge12" class="edge">
<title>Node13&#45;&gt;Node4</title>
<path fill="none" stroke="#9a32cd" stroke-dasharray="5,2" d="M1169.31,-37.95C1227.72,-30.97 1363.87,-18.34 1397,-47.45 1436.52,-82.18 1379.19,-125.9 1415,-164.45 1422.1,-172.1 1431.61,-176.96 1441.64,-180"/>
<polygon fill="#9a32cd" stroke="#9a32cd" points="1168.85,-34.48 1159.35,-39.18 1169.7,-41.43 1168.85,-34.48"/>
<text text-anchor="middle" x="1329" y="-50.45" font-family="Helvetica,sans-Serif" font-size="10.00"> ksp</text>
</g>
<!-- Node14 -->
<g id="node14" class="node">
<title>Node14</title>
<g id="a_node14"><a xlink:title=" ">
<polygon fill="white" stroke="#bfbfbf" points="1104.5,-69.95 1104.5,-88.95 1178.5,-88.95 1178.5,-69.95 1104.5,-69.95"/>
<text text-anchor="middle" x="1141.5" y="-76.95" font-family="Helvetica,sans-Serif" font-size="10.00">KSPContext</text>
</a>
</g>
</g>
<!-- Node14&#45;&gt;Node4 -->
<g id="edge13" class="edge">
<title>Node14&#45;&gt;Node4</title>
<path fill="none" stroke="#9a32cd" stroke-dasharray="5,2" d="M1188.83,-68.88C1244.75,-59.04 1338.55,-52.26 1397,-100.45 1419.8,-119.25 1393.61,-144.06 1415,-164.45 1422.45,-171.55 1431.99,-176.19 1441.93,-179.18"/>
<polygon fill="#9a32cd" stroke="#9a32cd" points="1188.03,-65.47 1178.84,-70.74 1189.31,-72.35 1188.03,-65.47"/>
<text text-anchor="middle" x="1329" y="-103.45" font-family="Helvetica,sans-Serif" font-size="10.00"> ksp_ctx</text>
</g>
<!-- Node15&#45;&gt;Node3 -->
<g id="edge16" class="edge">
<title>Node15&#45;&gt;Node3</title>
<path fill="none" stroke="midnightblue" d="M1568.25,-425.45C1620.39,-425.45 1691.35,-425.45 1741.27,-425.45"/>
<polygon fill="midnightblue" stroke="midnightblue" points="1568.09,-421.95 1558.09,-425.45 1568.09,-428.95 1568.09,-421.95"/>
</g>
<!-- Node16 -->
<g id="node16" class="node">
<title>Node16</title>
<g id="a_node16"><a xlink:title=" ">
<polygon fill="white" stroke="#bfbfbf" points="1120.5,-261.95 1120.5,-280.95 1162.5,-280.95 1162.5,-261.95 1120.5,-261.95"/>
<text text-anchor="middle" x="1141.5" y="-268.95" font-family="Helvetica,sans-Serif" font-size="10.00">SNES</text>
</a>
</g>
</g>
<!-- Node16&#45;&gt;Node15 -->
<g id="edge18" class="edge">
<title>Node16&#45;&gt;Node15</title>
<path fill="none" stroke="#9a32cd" stroke-dasharray="5,2" d="M1172.87,-269.49C1233.23,-266.27 1365.2,-262.93 1397,-292.45 1434.59,-327.35 1380.02,-368.94 1415,-406.45 1421.42,-413.33 1429.78,-417.96 1438.72,-421.03"/>
<polygon fill="#9a32cd" stroke="#9a32cd" points="1172.6,-266 1162.81,-270.06 1172.99,-272.98 1172.6,-266"/>
<text text-anchor="middle" x="1329" y="-295.45" font-family="Helvetica,sans-Serif" font-size="10.00"> snes</text>
</g>
<!-- Node17 -->
<g id="node17" class="node">
<title>Node17</title>
<g id="a_node17"><a xlink:title=" ">
<polygon fill="white" stroke="#bfbfbf" points="1101.5,-223.95 1101.5,-242.95 1181.5,-242.95 1181.5,-223.95 1101.5,-223.95"/>
<text text-anchor="middle" x="1141.5" y="-230.95" font-family="Helvetica,sans-Serif" font-size="10.00">SNESContext</text>
</a>
</g>
</g>
<!-- Node17&#45;&gt;Node15 -->
<g id="edge21" class="edge">
<title>Node17&#45;&gt;Node15</title>
<path fill="none" stroke="#9a32cd" stroke-dasharray="5,2" d="M1186.82,-221.66C1243.6,-209.51 1341.31,-199.04 1397,-252.45 1446.74,-300.15 1369.03,-355.12 1415,-406.45 1421.37,-413.57 1429.83,-418.29 1438.9,-421.39"/>
<polygon fill="#9a32cd" stroke="#9a32cd" points="1185.71,-218.32 1176.72,-223.93 1187.24,-225.15 1185.71,-218.32"/>
<text text-anchor="middle" x="1329" y="-255.45" font-family="Helvetica,sans-Serif" font-size="10.00"> snes_ctx</text>
</g>
<!-- Node18&#45;&gt;Node3 -->
<g id="edge22" class="edge">
<title>Node18&#45;&gt;Node3</title>
<path fill="none" stroke="midnightblue" d="M1545.93,-492.31C1606.15,-476.55 1709.99,-449.39 1764.94,-435.01"/>
<polygon fill="midnightblue" stroke="midnightblue" points="1544.72,-489 1535.93,-494.92 1546.49,-495.78 1544.72,-489"/>
</g>
<!-- Node19 -->
<g id="node19" class="node">
<title>Node19</title>
<g id="a_node19"><a xlink:title=" ">
<polygon fill="white" stroke="#bfbfbf" points="1109,-589.95 1109,-608.95 1174,-608.95 1174,-589.95 1109,-589.95"/>
<text text-anchor="middle" x="1141.5" y="-596.95" font-family="Helvetica,sans-Serif" font-size="10.00">PetscReal</text>
</a>
</g>
</g>
<!-- Node19&#45;&gt;Node18 -->
<g id="edge25" class="edge">
<title>Node19&#45;&gt;Node18</title>
<path fill="none" stroke="#9a32cd" stroke-dasharray="5,2" d="M1184.44,-595.95C1246.29,-590.43 1358.75,-578.94 1397,-565.45 1431.65,-553.23 1467.26,-528.03 1485.35,-514.15"/>
<polygon fill="#9a32cd" stroke="#9a32cd" points="1183.89,-592.48 1174.24,-596.85 1184.51,-599.46 1183.89,-592.48"/>
<text text-anchor="middle" x="1329" y="-623.45" font-family="Helvetica,sans-Serif" font-size="10.00"> ts_a</text>
<text text-anchor="middle" x="1329" y="-612.45" font-family="Helvetica,sans-Serif" font-size="10.00">ts_t</text>
<text text-anchor="middle" x="1329" y="-601.45" font-family="Helvetica,sans-Serif" font-size="10.00">ts_dt</text>
<text text-anchor="middle" x="1329" y="-590.45" font-family="Helvetica,sans-Serif" font-size="10.00">ts_aa</text>
</g>
<!-- Node20 -->
<g id="node20" class="node">
<title>Node20</title>
<g id="a_node20"><a xlink:title=" ">
<polygon fill="white" stroke="#bfbfbf" points="1108,-551.95 1108,-570.95 1175,-570.95 1175,-551.95 1108,-551.95"/>
<text text-anchor="middle" x="1141.5" y="-558.95" font-family="Helvetica,sans-Serif" font-size="10.00">TSContext</text>
</a>
</g>
</g>
<!-- Node20&#45;&gt;Node18 -->
<g id="edge26" class="edge">
<title>Node20&#45;&gt;Node18</title>
<path fill="none" stroke="#9a32cd" stroke-dasharray="5,2" d="M1185.56,-558.29C1236.4,-554.12 1323.38,-545.6 1397,-531.45 1420.6,-526.91 1446.8,-519.8 1466.53,-514.02"/>
<polygon fill="#9a32cd" stroke="#9a32cd" points="1184.96,-554.83 1175.27,-559.12 1185.52,-561.81 1184.96,-554.83"/>
<text text-anchor="middle" x="1329" y="-553.45" font-family="Helvetica,sans-Serif" font-size="10.00"> ts_ctx</text>
</g>
<!-- Node21 -->
<g id="node21" class="node">
<title>Node21</title>
<g id="a_node21"><a xlink:title=" ">
<polygon fill="white" stroke="#bfbfbf" points="1113.5,-513.95 1113.5,-532.95 1169.5,-532.95 1169.5,-513.95 1113.5,-513.95"/>
<text text-anchor="middle" x="1141.5" y="-520.95" font-family="Helvetica,sans-Serif" font-size="10.00">PetscInt</text>
</a>
</g>
</g>
<!-- Node21&#45;&gt;Node18 -->
<g id="edge27" class="edge">
<title>Node21&#45;&gt;Node18</title>
<path fill="none" stroke="#9a32cd" stroke-dasharray="5,2" d="M1180.11,-521.44C1243.61,-518.04 1372.23,-511.15 1444.73,-507.27"/>
<polygon fill="#9a32cd" stroke="#9a32cd" points="1179.57,-517.96 1169.77,-521.99 1179.94,-524.95 1179.57,-517.96"/>
<text text-anchor="middle" x="1329" y="-519.45" font-family="Helvetica,sans-Serif" font-size="10.00"> ts_step</text>
</g>
<!-- Node22 -->
<g id="node22" class="node">
<title>Node22</title>
<g id="a_node22"><a xlink:title=" ">
<polygon fill="white" stroke="#bfbfbf" points="1127,-475.95 1127,-494.95 1156,-494.95 1156,-475.95 1127,-475.95"/>
<text text-anchor="middle" x="1141.5" y="-482.95" font-family="Helvetica,sans-Serif" font-size="10.00">TS</text>
</a>
</g>
</g>
<!-- Node22&#45;&gt;Node18 -->
<g id="edge29" class="edge">
<title>Node22&#45;&gt;Node18</title>
<path fill="none" stroke="#9a32cd" stroke-dasharray="5,2" d="M1166.24,-485.78C1211.28,-486.53 1312.21,-488.74 1397,-494.45 1412.57,-495.5 1429.46,-497.03 1444.87,-498.57"/>
<polygon fill="#9a32cd" stroke="#9a32cd" points="1166.09,-482.28 1156.03,-485.62 1165.98,-489.28 1166.09,-482.28"/>
<text text-anchor="middle" x="1329" y="-497.45" font-family="Helvetica,sans-Serif" font-size="10.00"> ts</text>
</g>
<!-- Node23 -->
<g id="node23" class="node">
<title>Node23</title>
<g id="a_node23"><a xlink:title=" ">
<polygon fill="white" stroke="#bfbfbf" points="1454,-377.95 1454,-396.95 1543,-396.95 1543,-377.95 1454,-377.95"/>
<text text-anchor="middle" x="1498.5" y="-384.95" font-family="Helvetica,sans-Serif" font-size="10.00">pair&lt; int, int &gt;</text>
</a>
</g>
</g>
<!-- Node23&#45;&gt;Node3 -->
<g id="edge31" class="edge">
<title>Node23&#45;&gt;Node3</title>
<path fill="none" stroke="#9a32cd" stroke-dasharray="5,2" d="M1553.29,-392.96C1594.35,-397.3 1652.31,-403.73 1703,-410.45 1715.43,-412.1 1728.72,-414.02 1741.39,-415.92"/>
<polygon fill="#9a32cd" stroke="#9a32cd" points="1553.54,-389.46 1543.23,-391.9 1552.81,-396.43 1553.54,-389.46"/>
<text text-anchor="middle" x="1651.5" y="-413.45" font-family="Helvetica,sans-Serif" font-size="10.00"> loHiFERank</text>
</g>
<!-- Node24 -->
<g id="node24" class="node">
<title>Node24</title>
<g id="a_node24"><a xlink:title=" ">
<polygon fill="white" stroke="#bfbfbf" points="1428.5,-339.95 1428.5,-358.95 1568.5,-358.95 1568.5,-339.95 1428.5,-339.95"/>
<text text-anchor="middle" x="1498.5" y="-346.95" font-family="Helvetica,sans-Serif" font-size="10.00">weak_ptr&lt; CacheTuple &gt;</text>
</a>
</g>
</g>
<!-- Node24&#45;&gt;Node3 -->
<g id="edge32" class="edge">
<title>Node24&#45;&gt;Node3</title>
<path fill="none" stroke="#9a32cd" stroke-dasharray="5,2" d="M1578.97,-348.96C1618.6,-351.91 1665.87,-360.51 1703,-382.45 1714.17,-389.05 1710.11,-398.39 1721,-405.45 1727.77,-409.84 1735.43,-413.26 1743.26,-415.93"/>
<polygon fill="#9a32cd" stroke="#9a32cd" points="1579,-345.45 1568.8,-348.31 1578.56,-352.44 1579,-345.45"/>
<text text-anchor="middle" x="1651.5" y="-385.45" font-family="Helvetica,sans-Serif" font-size="10.00"> cacheWeakPtr</text>
</g>
<!-- Node25 -->
<g id="node25" class="node">
<title>Node25</title>
<g id="a_node25"><a xlink:title=" ">
<polygon fill="white" stroke="#bfbfbf" points="1442.5,-296.95 1442.5,-315.95 1554.5,-315.95 1554.5,-296.95 1442.5,-296.95"/>
<text text-anchor="middle" x="1498.5" y="-303.95" font-family="Helvetica,sans-Serif" font-size="10.00">unique_ptr&lt; bool &gt;</text>
</a>
</g>
</g>
<!-- Node25&#45;&gt;Node3 -->
<g id="edge33" class="edge">
<title>Node25&#45;&gt;Node3</title>
<path fill="none" stroke="#9a32cd" stroke-dasharray="5,2" d="M1552.48,-295.4C1597.94,-289.22 1662.35,-288.78 1703,-324.45 1730.72,-348.77 1695.25,-379.05 1721,-405.45 1726.63,-411.22 1733.65,-415.43 1741.18,-418.47"/>
<polygon fill="#9a32cd" stroke="#9a32cd" points="1551.89,-291.95 1542.52,-296.89 1552.92,-298.87 1551.89,-291.95"/>
<text text-anchor="middle" x="1651.5" y="-338.45" font-family="Helvetica,sans-Serif" font-size="10.00"> matAssembleSwitch</text>
<text text-anchor="middle" x="1651.5" y="-327.45" font-family="Helvetica,sans-Serif" font-size="10.00">vecAssembleSwitch</text>
</g>
<!-- Node26 -->
<g id="node26" class="node">
<title>Node26</title>
<g id="a_node26"><a xlink:title=" ">
<polygon fill="white" stroke="#bfbfbf" points="1127,-733.95 1127,-752.95 1156,-752.95 1156,-733.95 1127,-733.95"/>
<text text-anchor="middle" x="1141.5" y="-740.95" font-family="Helvetica,sans-Serif" font-size="10.00">int</text>
</a>
</g>
</g>
<!-- Node26&#45;&gt;Node3 -->
<g id="edge34" class="edge">
<title>Node26&#45;&gt;Node3</title>
<path fill="none" stroke="#9a32cd" stroke-dasharray="5,2" d="M1166.3,-741.37C1271.74,-732.13 1692.15,-694.79 1703,-686.45 1787.84,-621.19 1799.61,-474.1 1801.24,-435.09"/>
<polygon fill="#9a32cd" stroke="#9a32cd" points="1165.72,-737.91 1156.06,-742.27 1166.33,-744.88 1165.72,-737.91"/>
<text text-anchor="middle" x="1498.5" y="-754.45" font-family="Helvetica,sans-Serif" font-size="10.00"> sIze</text>
<text text-anchor="middle" x="1498.5" y="-743.45" font-family="Helvetica,sans-Serif" font-size="10.00">loopSize</text>
<text text-anchor="middle" x="1498.5" y="-732.45" font-family="Helvetica,sans-Serif" font-size="10.00">nInTheLoop</text>
<text text-anchor="middle" x="1498.5" y="-721.45" font-family="Helvetica,sans-Serif" font-size="10.00">rAnk</text>
</g>
<!-- Node28 -->
<g id="node28" class="node">
<title>Node28</title>
<g id="a_node28"><a xlink:href="structMoFEM_1_1Problem.html" target="_top" xlink:title="keeps basic data about problem">
<polygon fill="white" stroke="black" points="1449,-1003.95 1449,-1022.95 1548,-1022.95 1548,-1003.95 1449,-1003.95"/>
<text text-anchor="middle" x="1498.5" y="-1010.95" font-family="Helvetica,sans-Serif" font-size="10.00">MoFEM::Problem</text>
</a>
</g>
</g>
<!-- Node26&#45;&gt;Node28 -->
<g id="edge46" class="edge">
<title>Node26&#45;&gt;Node28</title>
<path fill="none" stroke="#9a32cd" stroke-dasharray="5,2" d="M1166.11,-741.75C1222.13,-738.22 1361.07,-732.47 1397,-759.45 1415.89,-773.63 1406.57,-787.39 1415,-809.45 1443.77,-884.75 1481.16,-974.51 1493.42,-1003.74"/>
<polygon fill="#9a32cd" stroke="#9a32cd" points="1165.82,-738.26 1156.07,-742.42 1166.28,-745.25 1165.82,-738.26"/>
<text text-anchor="middle" x="1329" y="-828.45" font-family="Helvetica,sans-Serif" font-size="10.00"> tagNameSize</text>
<text text-anchor="middle" x="1329" y="-817.45" font-family="Helvetica,sans-Serif" font-size="10.00">nbDofsRow</text>
<text text-anchor="middle" x="1329" y="-806.45" font-family="Helvetica,sans-Serif" font-size="10.00">nbLocDofsCol</text>
<text text-anchor="middle" x="1329" y="-795.45" font-family="Helvetica,sans-Serif" font-size="10.00">nbDofsCol</text>
<text text-anchor="middle" x="1329" y="-784.45" font-family="Helvetica,sans-Serif" font-size="10.00">nbGhostDofsRow</text>
<text text-anchor="middle" x="1329" y="-773.45" font-family="Helvetica,sans-Serif" font-size="10.00">nbGhostDofsCol</text>
<text text-anchor="middle" x="1329" y="-762.45" font-family="Helvetica,sans-Serif" font-size="10.00">nbLocDofsRow</text>
</g>
<!-- Node27 -->
<g id="node27" class="node">
<title>Node27</title>
<g id="a_node27"><a xlink:title=" ">
<polygon fill="white" stroke="#bfbfbf" points="1415,-780.95 1415,-799.95 1582,-799.95 1582,-780.95 1415,-780.95"/>
<text text-anchor="middle" x="1498.5" y="-787.95" font-family="Helvetica,sans-Serif" font-size="10.00">function&lt; MoFEMErrorCode()&gt;</text>
</a>
</g>
</g>
<!-- Node27&#45;&gt;Node3 -->
<g id="edge35" class="edge">
<title>Node27&#45;&gt;Node3</title>
<path fill="none" stroke="#9a32cd" stroke-dasharray="5,2" d="M1592.41,-783.15C1630.97,-775.68 1673.5,-761 1703,-732.45 1792.7,-645.65 1800.87,-477.12 1801.48,-435.11"/>
<polygon fill="#9a32cd" stroke="#9a32cd" points="1591.4,-779.78 1582.18,-784.99 1592.64,-786.67 1591.4,-779.78"/>
<text text-anchor="middle" x="1651.5" y="-805.45" font-family="Helvetica,sans-Serif" font-size="10.00"> preProcessHook</text>
<text text-anchor="middle" x="1651.5" y="-794.45" font-family="Helvetica,sans-Serif" font-size="10.00">operatorHook</text>
<text text-anchor="middle" x="1651.5" y="-783.45" font-family="Helvetica,sans-Serif" font-size="10.00">postProcessHook</text>
</g>
<!-- Node28&#45;&gt;Node3 -->
<g id="edge36" class="edge">
<title>Node28&#45;&gt;Node3</title>
<path fill="none" stroke="#9a32cd" stroke-dasharray="5,2" d="M1522.23,-998.25C1564.62,-968.68 1655.7,-899.07 1703,-817.45 1782.33,-680.54 1798.33,-480.67 1801.02,-434.99"/>
<polygon fill="#9a32cd" stroke="#9a32cd" points="1520.21,-995.39 1513.96,-1003.95 1524.18,-1001.16 1520.21,-995.39"/>
<text text-anchor="middle" x="1651.5" y="-935.45" font-family="Helvetica,sans-Serif" font-size="10.00"> problemPtr</text>
</g>
<!-- Node29 -->
<g id="node29" class="node">
<title>Node29</title>
<g id="a_node29"><a xlink:title=" ">
<polygon fill="white" stroke="#bfbfbf" points="1058,-1123.45 1058,-1153.45 1225,-1153.45 1225,-1123.45 1058,-1123.45"/>
<text text-anchor="start" x="1066" y="-1141.45" font-family="Helvetica,sans-Serif" font-size="10.00">shared_ptr&lt; NumeredEntFinite</text>
<text text-anchor="middle" x="1141.5" y="-1130.45" font-family="Helvetica,sans-Serif" font-size="10.00">Element_multiIndex &gt;</text>
</a>
</g>
</g>
<!-- Node29&#45;&gt;Node28 -->
<g id="edge37" class="edge">
<title>Node29&#45;&gt;Node28</title>
<path fill="none" stroke="#9a32cd" stroke-dasharray="5,2" d="M1235.21,-1135.38C1285.03,-1130.85 1346.43,-1120.52 1397,-1097.45 1436.72,-1079.33 1473.39,-1041.14 1489.24,-1023.18"/>
<polygon fill="#9a32cd" stroke="#9a32cd" points="1234.75,-1131.91 1225.08,-1136.24 1235.34,-1138.88 1234.75,-1131.91"/>
<text text-anchor="middle" x="1329" y="-1134.45" font-family="Helvetica,sans-Serif" font-size="10.00"> numeredFiniteElementsPtr</text>
</g>
<!-- Node30 -->
<g id="node30" class="node">
<title>Node30</title>
<g id="a_node30"><a xlink:title=" ">
<polygon fill="white" stroke="#bfbfbf" points="1112,-1084.95 1112,-1103.95 1171,-1103.95 1171,-1084.95 1112,-1084.95"/>
<text text-anchor="middle" x="1141.5" y="-1091.95" font-family="Helvetica,sans-Serif" font-size="10.00">BitFEId *</text>
</a>
</g>
</g>
<!-- Node30&#45;&gt;Node28 -->
<g id="edge38" class="edge">
<title>Node30&#45;&gt;Node28</title>
<path fill="none" stroke="#9a32cd" stroke-dasharray="5,2" d="M1181.42,-1092.04C1231.94,-1088.19 1322.46,-1078.77 1397,-1057.45 1427.03,-1048.86 1459.83,-1033.22 1479.53,-1023.09"/>
<polygon fill="#9a32cd" stroke="#9a32cd" points="1180.99,-1088.57 1171.27,-1092.78 1181.5,-1095.55 1180.99,-1088.57"/>
<text text-anchor="middle" x="1329" y="-1085.45" font-family="Helvetica,sans-Serif" font-size="10.00"> tagBitFEId</text>
</g>
<!-- Node31 -->
<g id="node31" class="node">
<title>Node31</title>
<g id="a_node31"><a xlink:href="classEntityHandle.html" target="_top" xlink:title=" ">
<polygon fill="white" stroke="black" points="1101.5,-1046.95 1101.5,-1065.95 1181.5,-1065.95 1181.5,-1046.95 1101.5,-1046.95"/>
<text text-anchor="middle" x="1141.5" y="-1053.95" font-family="Helvetica,sans-Serif" font-size="10.00">EntityHandle</text>
</a>
</g>
</g>
<!-- Node31&#45;&gt;Node28 -->
<g id="edge39" class="edge">
<title>Node31&#45;&gt;Node28</title>
<path fill="none" stroke="#9a32cd" stroke-dasharray="5,2" d="M1191.92,-1051.19C1243.23,-1045.64 1325.8,-1036.46 1397,-1027.45 1413.95,-1025.3 1432.49,-1022.77 1448.97,-1020.46"/>
<polygon fill="#9a32cd" stroke="#9a32cd" points="1191.34,-1047.73 1181.78,-1052.28 1192.09,-1054.69 1191.34,-1047.73"/>
<text text-anchor="middle" x="1329" y="-1045.45" font-family="Helvetica,sans-Serif" font-size="10.00"> meshset</text>
</g>
<!-- Node32 -->
<g id="node32" class="node">
<title>Node32</title>
<g id="a_node32"><a xlink:title=" ">
<polygon fill="white" stroke="#bfbfbf" points="1067,-997.45 1067,-1027.45 1216,-1027.45 1216,-997.45 1067,-997.45"/>
<text text-anchor="start" x="1075" y="-1015.45" font-family="Helvetica,sans-Serif" font-size="10.00">shared_ptr&lt; MoFEM::</text>
<text text-anchor="middle" x="1141.5" y="-1004.45" font-family="Helvetica,sans-Serif" font-size="10.00">ComposedProblemsData &gt;</text>
</a>
</g>
</g>
<!-- Node32&#45;&gt;Node28 -->
<g id="edge40" class="edge">
<title>Node32&#45;&gt;Node28</title>
<path fill="none" stroke="#9a32cd" stroke-dasharray="5,2" d="M1226.08,-1012.69C1295.36,-1012.88 1391.47,-1013.15 1448.78,-1013.31"/>
<polygon fill="#9a32cd" stroke="#9a32cd" points="1226.07,-1009.19 1216.06,-1012.66 1226.05,-1016.19 1226.07,-1009.19"/>
<text text-anchor="middle" x="1329" y="-1015.45" font-family="Helvetica,sans-Serif" font-size="10.00"> composedProblemsData</text>
</g>
<!-- Node33 -->
<g id="node33" class="node">
<title>Node33</title>
<g id="a_node33"><a xlink:title=" ">
<polygon fill="white" stroke="#bfbfbf" points="1101,-958.95 1101,-977.95 1182,-977.95 1182,-958.95 1101,-958.95"/>
<text text-anchor="middle" x="1141.5" y="-965.95" font-family="Helvetica,sans-Serif" font-size="10.00">BitRefLevel *</text>
</a>
</g>
</g>
<!-- Node33&#45;&gt;Node28 -->
<g id="edge41" class="edge">
<title>Node33&#45;&gt;Node28</title>
<path fill="none" stroke="#9a32cd" stroke-dasharray="5,2" d="M1192.21,-969.15C1243.75,-970.54 1326.51,-974.6 1397,-986.45 1421.23,-990.52 1448.08,-997.89 1467.93,-1003.9"/>
<polygon fill="#9a32cd" stroke="#9a32cd" points="1192.1,-965.65 1182.02,-968.9 1191.93,-972.65 1192.1,-965.65"/>
<text text-anchor="middle" x="1329" y="-1000.45" font-family="Helvetica,sans-Serif" font-size="10.00"> tagBitRefLevelMask</text>
<text text-anchor="middle" x="1329" y="-989.45" font-family="Helvetica,sans-Serif" font-size="10.00">tagBitRefLevel</text>
</g>
<!-- Node34 -->
<g id="node34" class="node">
<title>Node34</title>
<g id="a_node34"><a xlink:title=" ">
<polygon fill="white" stroke="#bfbfbf" points="1056.5,-909.45 1056.5,-939.45 1226.5,-939.45 1226.5,-909.45 1056.5,-909.45"/>
<text text-anchor="start" x="1064.5" y="-927.45" font-family="Helvetica,sans-Serif" font-size="10.00">shared_ptr&lt; NumeredDofEntity</text>
<text text-anchor="middle" x="1141.5" y="-916.45" font-family="Helvetica,sans-Serif" font-size="10.00">_multiIndex &gt;</text>
</a>
</g>
</g>
<!-- Node34&#45;&gt;Node28 -->
<g id="edge42" class="edge">
<title>Node34&#45;&gt;Node28</title>
<path fill="none" stroke="#9a32cd" stroke-dasharray="5,2" d="M1236.96,-920.92C1285.96,-921.89 1346.05,-927.51 1397,-945.45 1433.96,-958.47 1470.27,-988.46 1487.36,-1003.9"/>
<polygon fill="#9a32cd" stroke="#9a32cd" points="1236.72,-917.42 1226.68,-920.79 1236.63,-924.42 1236.72,-917.42"/>
<text text-anchor="middle" x="1329" y="-959.45" font-family="Helvetica,sans-Serif" font-size="10.00"> numeredRowDofsPtr</text>
<text text-anchor="middle" x="1329" y="-948.45" font-family="Helvetica,sans-Serif" font-size="10.00">numeredColDofsPtr</text>
</g>
<!-- Node35 -->
<g id="node35" class="node">
<title>Node35</title>
<g id="a_node35"><a xlink:title=" ">
<polygon fill="white" stroke="#bfbfbf" points="1122.5,-870.95 1122.5,-889.95 1160.5,-889.95 1160.5,-870.95 1122.5,-870.95"/>
<text text-anchor="middle" x="1141.5" y="-877.95" font-family="Helvetica,sans-Serif" font-size="10.00">char</text>
</a>
</g>
</g>
<!-- Node35&#45;&gt;Node28 -->
<g id="edge43" class="edge">
<title>Node35&#45;&gt;Node28</title>
<path fill="none" stroke="#9a32cd" stroke-dasharray="5,2" d="M1170.78,-877.16C1219.7,-872.77 1322.05,-869.38 1397,-906.45 1442.92,-929.16 1478.69,-982.17 1491.94,-1003.9"/>
<polygon fill="#9a32cd" stroke="#9a32cd" points="1170.25,-873.7 1160.64,-878.16 1170.93,-880.66 1170.25,-873.7"/>
<text text-anchor="middle" x="1329" y="-909.45" font-family="Helvetica,sans-Serif" font-size="10.00"> tagName</text>
</g>
<!-- Node36 -->
<g id="node36" class="node">
<title>Node36</title>
<g id="a_node36"><a xlink:title=" ">
<polygon fill="white" stroke="#bfbfbf" points="1072.5,-832.95 1072.5,-851.95 1210.5,-851.95 1210.5,-832.95 1072.5,-832.95"/>
<text text-anchor="middle" x="1141.5" y="-839.95" font-family="Helvetica,sans-Serif" font-size="10.00">vector&lt; BlockFieldPair &gt;</text>
</a>
</g>
</g>
<!-- Node36&#45;&gt;Node28 -->
<g id="edge44" class="edge">
<title>Node36&#45;&gt;Node28</title>
<path fill="none" stroke="#9a32cd" stroke-dasharray="5,2" d="M1220.76,-840.52C1284.35,-840.3 1368.07,-843.5 1397,-860.45 1454.58,-894.19 1485.32,-975.53 1494.51,-1003.67"/>
<polygon fill="#9a32cd" stroke="#9a32cd" points="1220.71,-837.02 1210.73,-840.58 1220.76,-844.02 1220.71,-837.02"/>
<text text-anchor="middle" x="1329" y="-863.45" font-family="Helvetica,sans-Serif" font-size="10.00"> emptyFieldBlocks</text>
</g>
<!-- Node37 -->
<g id="node37" class="node">
<title>Node37</title>
<g id="a_node37"><a xlink:title=" ">
<polygon fill="white" stroke="#bfbfbf" points="1063.5,-1249.45 1063.5,-1279.45 1219.5,-1279.45 1219.5,-1249.45 1063.5,-1249.45"/>
<text text-anchor="start" x="1071.5" y="-1267.45" font-family="Helvetica,sans-Serif" font-size="10.00">shared_ptr&lt; MoFEM::</text>
<text text-anchor="middle" x="1141.5" y="-1256.45" font-family="Helvetica,sans-Serif" font-size="10.00">Problem::SubProblemData &gt;</text>
</a>
</g>
</g>
<!-- Node37&#45;&gt;Node28 -->
<g id="edge45" class="edge">
<title>Node37&#45;&gt;Node28</title>
<path fill="none" stroke="#9a32cd" stroke-dasharray="5,2" d="M1229.74,-1277.93C1282.77,-1281.36 1349.25,-1276.67 1397,-1242.45 1473.94,-1187.32 1492.72,-1060.02 1496.6,-1023.45"/>
<polygon fill="#9a32cd" stroke="#9a32cd" points="1229.89,-1274.43 1219.66,-1277.17 1229.37,-1281.41 1229.89,-1274.43"/>
<text text-anchor="middle" x="1329" y="-1281.45" font-family="Helvetica,sans-Serif" font-size="10.00"> subProblemData</text>
</g>
<!-- Node38 -->
<g id="node38" class="node">
<title>Node38</title>
<g id="a_node38"><a xlink:title=" ">
<polygon fill="white" stroke="#bfbfbf" points="1040,-1210.95 1040,-1229.95 1243,-1229.95 1243,-1210.95 1040,-1210.95"/>
<text text-anchor="middle" x="1141.5" y="-1217.95" font-family="Helvetica,sans-Serif" font-size="10.00">shared_ptr&lt; SequenceDofContainer &gt;</text>
</a>
</g>
</g>
<!-- Node38&#45;&gt;Node28 -->
<g id="edge47" class="edge">
<title>Node38&#45;&gt;Node28</title>
<path fill="none" stroke="#9a32cd" stroke-dasharray="5,2" d="M1253.46,-1220.58C1310.74,-1218.67 1373.47,-1212.89 1397,-1197.45 1462.13,-1154.73 1488.6,-1054.85 1495.53,-1023.23"/>
<polygon fill="#9a32cd" stroke="#9a32cd" points="1253.1,-1217.09 1243.21,-1220.88 1253.31,-1224.09 1253.1,-1217.09"/>
<text text-anchor="middle" x="1329" y="-1233.45" font-family="Helvetica,sans-Serif" font-size="10.00"> sequenceRowDofContainer</text>
<text text-anchor="middle" x="1329" y="-1222.45" font-family="Helvetica,sans-Serif" font-size="10.00">sequenceColDofContainer</text>
</g>
<!-- Node39 -->
<g id="node39" class="node">
<title>Node39</title>
<g id="a_node39"><a xlink:title=" ">
<polygon fill="white" stroke="#bfbfbf" points="1097.5,-1172.95 1097.5,-1191.95 1185.5,-1191.95 1185.5,-1172.95 1097.5,-1172.95"/>
<text text-anchor="middle" x="1141.5" y="-1179.95" font-family="Helvetica,sans-Serif" font-size="10.00">BitProblemId *</text>
</a>
</g>
</g>
<!-- Node39&#45;&gt;Node28 -->
<g id="edge48" class="edge">
<title>Node39&#45;&gt;Node28</title>
<path fill="none" stroke="#9a32cd" stroke-dasharray="5,2" d="M1195.94,-1186.31C1250.27,-1187.75 1335.04,-1182.93 1397,-1146.45 1448.38,-1116.2 1482.14,-1048.51 1493.38,-1023.23"/>
<polygon fill="#9a32cd" stroke="#9a32cd" points="1195.94,-1182.81 1185.82,-1185.96 1195.7,-1189.81 1195.94,-1182.81"/>
<text text-anchor="middle" x="1329" y="-1186.45" font-family="Helvetica,sans-Serif" font-size="10.00"> tagId</text>
</g>
<!-- Node40 -->
<g id="node40" class="node">
<title>Node40</title>
<g id="a_node40"><a xlink:title=" ">
<polygon fill="white" stroke="#bfbfbf" points="1721.5,-365.45 1721.5,-395.45 1883.5,-395.45 1883.5,-365.45 1721.5,-365.45"/>
<text text-anchor="start" x="1729.5" y="-383.45" font-family="Helvetica,sans-Serif" font-size="10.00">shared_ptr&lt; const MoFEM</text>
<text text-anchor="middle" x="1802.5" y="-372.45" font-family="Helvetica,sans-Serif" font-size="10.00">::NumeredEntFiniteElement &gt;</text>
</a>
</g>
</g>
<!-- Node40&#45;&gt;Node2 -->
<g id="edge49" class="edge">
<title>Node40&#45;&gt;Node2</title>
<path fill="none" stroke="#9a32cd" stroke-dasharray="5,2" d="M1893.75,-370.31C1939.42,-365.01 1995.7,-358.23 2046,-351.45 2061.4,-349.37 2078.1,-346.94 2093.37,-344.65"/>
<polygon fill="#9a32cd" stroke="#9a32cd" points="1893.11,-366.86 1883.58,-371.48 1893.92,-373.81 1893.11,-366.86"/>
<text text-anchor="middle" x="1974" y="-371.45" font-family="Helvetica,sans-Serif" font-size="10.00"> numeredEntFiniteElementPtr</text>
</g>
<!-- Node41 -->
<g id="node41" class="node">
<title>Node41</title>
<g id="a_node41"><a xlink:title=" ">
<polygon fill="white" stroke="#bfbfbf" points="1780.5,-326.95 1780.5,-345.95 1824.5,-345.95 1824.5,-326.95 1780.5,-326.95"/>
<text text-anchor="middle" x="1802.5" y="-333.95" font-family="Helvetica,sans-Serif" font-size="10.00">string</text>
</a>
</g>
</g>
<!-- Node41&#45;&gt;Node2 -->
<g id="edge50" class="edge">
<title>Node41&#45;&gt;Node2</title>
<path fill="none" stroke="#9a32cd" stroke-dasharray="5,2" d="M1834.82,-336.45C1893.62,-336.45 2021.11,-336.45 2093.33,-336.45"/>
<polygon fill="#9a32cd" stroke="#9a32cd" points="1834.67,-332.95 1824.67,-336.45 1834.67,-339.95 1834.67,-332.95"/>
<text text-anchor="middle" x="1974" y="-339.45" font-family="Helvetica,sans-Serif" font-size="10.00"> feName</text>
</g>
<!-- Node42 -->
<g id="node42" class="node">
<title>Node42</title>
<g id="a_node42"><a xlink:title=" ">
<polygon fill="white" stroke="#bfbfbf" points="1721,-277.45 1721,-307.45 1884,-307.45 1884,-277.45 1721,-277.45"/>
<text text-anchor="start" x="1729" y="-295.45" font-family="Helvetica,sans-Serif" font-size="10.00">function&lt; bool(MoFEM</text>
<text text-anchor="middle" x="1802.5" y="-284.45" font-family="Helvetica,sans-Serif" font-size="10.00">::FEMethod *fe_method_ptr)&gt;</text>
</a>
</g>
</g>
<!-- Node42&#45;&gt;Node2 -->
<g id="edge51" class="edge">
<title>Node42&#45;&gt;Node2</title>
<path fill="none" stroke="#9a32cd" stroke-dasharray="5,2" d="M1894.29,-302.66C1939.86,-307.94 1995.9,-314.7 2046,-321.45 2061.4,-323.52 2078.1,-325.96 2093.37,-328.25"/>
<polygon fill="#9a32cd" stroke="#9a32cd" points="1894.47,-299.15 1884.13,-301.48 1893.67,-306.11 1894.47,-299.15"/>
<text text-anchor="middle" x="1974" y="-324.45" font-family="Helvetica,sans-Serif" font-size="10.00"> exeTestHook</text>
</g>
<!-- Node43 -->
<g id="node43" class="node">
<title>Node43</title>
<g id="a_node43"><a xlink:title=" ">
<polygon fill="white" stroke="#bfbfbf" points="2075.5,-268.45 2075.5,-298.45 2218.5,-298.45 2218.5,-268.45 2075.5,-268.45"/>
<text text-anchor="start" x="2083.5" y="-286.45" font-family="Helvetica,sans-Serif" font-size="10.00">shared_ptr&lt; PostProcFace</text>
<text text-anchor="middle" x="2147" y="-275.45" font-family="Helvetica,sans-Serif" font-size="10.00">Ele &gt;</text>
</a>
</g>
</g>
<!-- Node43&#45;&gt;Node1 -->
<g id="edge52" class="edge">
<title>Node43&#45;&gt;Node1</title>
<path fill="none" stroke="#9a32cd" stroke-dasharray="5,2" d="M2228.71,-269.62C2262.94,-263.18 2303.13,-254.85 2339,-245.45 2359.09,-240.18 2381.39,-232.83 2398.17,-226.98"/>
<polygon fill="#9a32cd" stroke="#9a32cd" points="2227.95,-266.2 2218.76,-271.47 2229.23,-273.08 2227.95,-266.2"/>
<text text-anchor="middle" x="2293.5" y="-267.45" font-family="Helvetica,sans-Serif" font-size="10.00"> skinPostProc</text>
</g>
<!-- Node44 -->
<g id="node44" class="node">
<title>Node44</title>
<g id="a_node44"><a xlink:title=" ">
<polygon fill="white" stroke="#bfbfbf" points="2071,-229.95 2071,-248.95 2223,-248.95 2223,-229.95 2071,-229.95"/>
<text text-anchor="middle" x="2147" y="-236.95" font-family="Helvetica,sans-Serif" font-size="10.00">shared_ptr&lt; BoundaryEle &gt;</text>
</a>
</g>
</g>
<!-- Node44&#45;&gt;Node1 -->
<g id="edge53" class="edge">
<title>Node44&#45;&gt;Node1</title>
<path fill="none" stroke="#9a32cd" stroke-dasharray="5,2" d="M2233.39,-232.66C2273.1,-229.5 2319.67,-225.79 2356.89,-222.83"/>
<polygon fill="#9a32cd" stroke="#9a32cd" points="2232.88,-229.19 2223.19,-233.47 2233.44,-236.16 2232.88,-229.19"/>
<text text-anchor="middle" x="2293.5" y="-233.45" font-family="Helvetica,sans-Serif" font-size="10.00"> skinPostProcInteg</text>
</g>
<!-- Node45 -->
<g id="node45" class="node">
<title>Node45</title>
<g id="a_node45"><a xlink:href="structMoFEM_1_1SmartPetscObj.html" target="_top" xlink:title=" ">
<polygon fill="white" stroke="black" points="2081.5,-180.45 2081.5,-210.45 2212.5,-210.45 2212.5,-180.45 2081.5,-180.45"/>
<text text-anchor="start" x="2089.5" y="-198.45" font-family="Helvetica,sans-Serif" font-size="10.00">MoFEM::SmartPetscObj</text>
<text text-anchor="middle" x="2147" y="-187.45" font-family="Helvetica,sans-Serif" font-size="10.00">&lt; DM &gt;</text>
</a>
</g>
</g>
<!-- Node45&#45;&gt;Node1 -->
<g id="edge54" class="edge">
<title>Node45&#45;&gt;Node1</title>
<path fill="none" stroke="#9a32cd" stroke-dasharray="5,2" d="M2222.78,-200.58C2258.05,-203.09 2300.7,-206.25 2339,-209.45 2344.79,-209.93 2350.81,-210.45 2356.84,-210.99"/>
<polygon fill="#9a32cd" stroke="#9a32cd" points="2222.79,-197.07 2212.56,-199.86 2222.29,-204.06 2222.79,-197.07"/>
<text text-anchor="middle" x="2293.5" y="-212.45" font-family="Helvetica,sans-Serif" font-size="10.00"> dM</text>
</g>
<!-- Node46 -->
<g id="node46" class="node">
<title>Node46</title>
<g id="a_node46"><a xlink:title=" ">
<polygon fill="white" stroke="#bfbfbf" points="1739.5,-174.95 1739.5,-215.95 1865.5,-215.95 1865.5,-174.95 1739.5,-174.95"/>
<text text-anchor="start" x="1747.5" y="-203.95" font-family="Helvetica,sans-Serif" font-size="10.00">boost::intrusive_ptr</text>
<text text-anchor="start" x="1747.5" y="-192.95" font-family="Helvetica,sans-Serif" font-size="10.00">&lt; std::remove_pointer</text>
<text text-anchor="middle" x="1802.5" y="-181.95" font-family="Helvetica,sans-Serif" font-size="10.00">&lt; DM &gt;::type &gt;</text>
</a>
</g>
</g>
<!-- Node46&#45;&gt;Node45 -->
<g id="edge55" class="edge">
<title>Node46&#45;&gt;Node45</title>
<path fill="none" stroke="midnightblue" d="M1875.81,-195.45C1936.59,-195.45 2022.68,-195.45 2081.24,-195.45"/>
<polygon fill="midnightblue" stroke="midnightblue" points="1875.52,-191.95 1865.52,-195.45 1875.52,-198.95 1875.52,-191.95"/>
</g>
<!-- Node47 -->
<g id="node47" class="node">
<title>Node47</title>
<g id="a_node47"><a xlink:href="structMoFEM_1_1SmartPetscObj.html" target="_top" xlink:title="intrusive_ptr for managing petsc objects">
<polygon fill="white" stroke="black" points="1737,-121.45 1737,-151.45 1868,-151.45 1868,-121.45 1737,-121.45"/>
<text text-anchor="start" x="1745" y="-139.45" font-family="Helvetica,sans-Serif" font-size="10.00">MoFEM::SmartPetscObj</text>
<text text-anchor="middle" x="1802.5" y="-128.45" font-family="Helvetica,sans-Serif" font-size="10.00">&lt; OBJ &gt;</text>
</a>
</g>
</g>
<!-- Node47&#45;&gt;Node45 -->
<g id="edge56" class="edge">
<title>Node47&#45;&gt;Node45</title>
<path fill="none" stroke="orange" stroke-dasharray="5,2" d="M1878.23,-149.32C1938.93,-159.78 2023.66,-174.37 2081.44,-184.33"/>
<polygon fill="orange" stroke="orange" points="1878.77,-145.87 1868.32,-147.62 1877.58,-152.76 1878.77,-145.87"/>
<text text-anchor="middle" x="1974" y="-180.45" font-family="Helvetica,sans-Serif" font-size="10.00"> &lt; DM &gt;</text>
</g>
<!-- Node48 -->
<g id="node48" class="node">
<title>Node48</title>
<g id="a_node48"><a xlink:title=" ">
<polygon fill="white" stroke="#bfbfbf" points="1435.5,-113.95 1435.5,-154.95 1561.5,-154.95 1561.5,-113.95 1435.5,-113.95"/>
<text text-anchor="start" x="1443.5" y="-142.95" font-family="Helvetica,sans-Serif" font-size="10.00">boost::intrusive_ptr</text>
<text text-anchor="start" x="1443.5" y="-131.95" font-family="Helvetica,sans-Serif" font-size="10.00">&lt; std::remove_pointer</text>
<text text-anchor="middle" x="1498.5" y="-120.95" font-family="Helvetica,sans-Serif" font-size="10.00">&lt; OBJ &gt;::type &gt;</text>
</a>
</g>
</g>
<!-- Node48&#45;&gt;Node47 -->
<g id="edge57" class="edge">
<title>Node48&#45;&gt;Node47</title>
<path fill="none" stroke="midnightblue" d="M1571.84,-134.93C1622.04,-135.26 1688.32,-135.7 1736.77,-136.02"/>
<polygon fill="midnightblue" stroke="midnightblue" points="1571.73,-131.43 1561.71,-134.86 1571.68,-138.43 1571.73,-131.43"/>
</g>
<!-- Node49 -->
<g id="node49" class="node">
<title>Node49</title>
<g id="a_node49"><a xlink:title=" ">
<polygon fill="white" stroke="#bfbfbf" points="2064,-131.45 2064,-161.45 2230,-161.45 2230,-131.45 2064,-131.45"/>
<text text-anchor="start" x="2072" y="-149.45" font-family="Helvetica,sans-Serif" font-size="10.00">shared_ptr&lt; MoFEM::</text>
<text text-anchor="middle" x="2147" y="-138.45" font-family="Helvetica,sans-Serif" font-size="10.00">PostProcBrokenMeshInMoab &gt;</text>
</a>
</g>
</g>
<!-- Node49&#45;&gt;Node1 -->
<g id="edge58" class="edge">
<title>Node49&#45;&gt;Node1</title>
<path fill="none" stroke="#9a32cd" stroke-dasharray="5,2" d="M2239.12,-163.57C2270.93,-170.19 2306.74,-178.37 2339,-187.45 2359.74,-193.29 2382.77,-201.47 2399.7,-207.82"/>
<polygon fill="#9a32cd" stroke="#9a32cd" points="2239.44,-160.06 2228.94,-161.47 2238.03,-166.92 2239.44,-160.06"/>
<text text-anchor="middle" x="2293.5" y="-190.45" font-family="Helvetica,sans-Serif" font-size="10.00"> postProc</text>
</g>
<!-- Node50 -->
<g id="node50" class="node">
<title>Node50</title>
<g id="a_node50"><a xlink:title=" ">
<polygon fill="white" stroke="#bfbfbf" points="2068.5,-82.45 2068.5,-112.45 2225.5,-112.45 2225.5,-82.45 2068.5,-82.45"/>
<text text-anchor="start" x="2076.5" y="-100.45" font-family="Helvetica,sans-Serif" font-size="10.00">shared_ptr&lt; PhotonDiffusion</text>
<text text-anchor="middle" x="2147" y="-89.45" font-family="Helvetica,sans-Serif" font-size="10.00">::CommonData &gt;</text>
</a>
</g>
</g>
<!-- Node50&#45;&gt;Node1 -->
<g id="edge59" class="edge">
<title>Node50&#45;&gt;Node1</title>
<path fill="none" stroke="#9a32cd" stroke-dasharray="5,2" d="M2235.62,-114.09C2269.06,-122.39 2306.85,-134.21 2339,-150.45 2369.64,-165.92 2399.93,-193.26 2414.88,-207.77"/>
<polygon fill="#9a32cd" stroke="#9a32cd" points="2236.39,-110.68 2225.85,-111.74 2234.75,-117.48 2236.39,-110.68"/>
<text text-anchor="middle" x="2293.5" y="-153.45" font-family="Helvetica,sans-Serif" font-size="10.00"> commonDataPtr</text>
</g>
</g>
</svg>
