<?xml version="1.0" encoding="UTF-8" standalone="no"?>
<!DOCTYPE svg PUBLIC "-//W3C//DTD SVG 1.1//EN"
 "http://www.w3.org/Graphics/SVG/1.1/DTD/svg11.dtd">
<!-- Generated by graphviz version 2.43.0 (0)
 -->
<!-- Title: FractureMechanics::GriffithForceElement::OpCalculateRhoAtCrackFrontUsingPrecalulatedCoeffs Pages: 1 -->
<!--zoomable 461 -->
<svg id="main" version="1.1" xmlns="http://www.w3.org/2000/svg" xmlns:xlink="http://www.w3.org/1999/xlink" xml:space="preserve" onload="init(evt)">
<style type="text/css"><![CDATA[
.edge:hover path { stroke: red; }
.edge:hover polygon { stroke: red; fill: red; }
]]></style>
<script type="text/javascript"><![CDATA[
var edges = document.getElementsByTagName('g');
if (edges && edges.length) {
  for (var i=0;i<edges.length;i++) {
    if (edges[i].id.substr(0,4)=='edge') {
      edges[i].setAttribute('class','edge');
    }
  }
}
]]></script>
        <defs>
                <circle id="rim" cx="0" cy="0" r="7"/>
                <circle id="rim2" cx="0" cy="0" r="3.5"/>
                <g id="zoomPlus">
                        <use xlink:href="#rim" fill="#404040">
                                <set attributeName="fill" to="#808080" begin="zoomplus.mouseover" end="zoomplus.mouseout"/>
                        </use>
                        <path d="M-4,0h8M0,-4v8" fill="none" stroke="white" stroke-width="1.5" pointer-events="none"/>
                </g>
                <g id="zoomMin">
                        <use xlink:href="#rim" fill="#404040">
                                <set attributeName="fill" to="#808080" begin="zoomminus.mouseover" end="zoomminus.mouseout"/>
                        </use>
                        <path d="M-4,0h8" fill="none" stroke="white" stroke-width="1.5" pointer-events="none"/>
                </g>
                <g id="dirArrow">
                        <path fill="none" stroke="white" stroke-width="1.5" d="M0,-3.0v7 M-2.5,-0.5L0,-3.0L2.5,-0.5"/>
                </g>
               <g id="resetDef">
                       <use xlink:href="#rim2" fill="#404040">
                               <set attributeName="fill" to="#808080" begin="reset.mouseover" end="reset.mouseout"/>
                       </use>
               </g>
        </defs>

<script type="text/javascript">
var viewWidth = 1788;
var viewHeight = 461;
var sectionId = 'dynsection-1';
</script>
<script xlink:href="svgpan.js"/>
<svg id="graph" class="graph">
<g id="viewport">
<title>FractureMechanics::GriffithForceElement::OpCalculateRhoAtCrackFrontUsingPrecalulatedCoeffs</title>
<polygon fill="white" stroke="transparent" points="-4,4 -4,-457 1784,-457 1784,4 -4,4"/>
<!-- Node1 -->
<g id="node1" class="node">
<title>Node1</title>
<g id="a_node1"><a xlink:title="Calculate density at the crack fron nodes and multiplity gc.">
<polygon fill="#bfbfbf" stroke="black" points="1616,-178 1616,-230 1780,-230 1780,-178 1616,-178"/>
<text text-anchor="start" x="1624" y="-218" font-family="Helvetica,sans-Serif" font-size="10.00">FractureMechanics::</text>
<text text-anchor="start" x="1624" y="-207" font-family="Helvetica,sans-Serif" font-size="10.00">GriffithForceElement</text>
<text text-anchor="start" x="1624" y="-196" font-family="Helvetica,sans-Serif" font-size="10.00">::OpCalculateRhoAtCrackFront</text>
<text text-anchor="middle" x="1698" y="-185" font-family="Helvetica,sans-Serif" font-size="10.00">UsingPrecalulatedCoeffs</text>
</a>
</g>
</g>
<!-- Node2 -->
<g id="node2" class="node">
<title>Node2</title>
<g id="a_node2"><a xlink:title=" ">
<polygon fill="white" stroke="#bfbfbf" points="1372,-433.5 1372,-452.5 1477,-452.5 1477,-433.5 1372,-433.5"/>
<text text-anchor="middle" x="1424.5" y="-440.5" font-family="Helvetica,sans-Serif" font-size="10.00">UserDataOperator</text>
</a>
</g>
</g>
<!-- Node2&#45;&gt;Node1 -->
<g id="edge1" class="edge">
<title>Node2&#45;&gt;Node1</title>
<path fill="none" stroke="midnightblue" d="M1487.42,-448.31C1522.97,-448.19 1566.63,-442.3 1598,-419 1660.68,-372.45 1684.85,-276.57 1693.15,-230.22"/>
<polygon fill="midnightblue" stroke="midnightblue" points="1487.19,-444.81 1477.15,-448.19 1487.11,-451.81 1487.19,-444.81"/>
</g>
<!-- Node3 -->
<g id="node3" class="node">
<title>Node3</title>
<g id="a_node3"><a xlink:href="structFractureMechanics_1_1GriffithForceElement_1_1AuxOp.html" target="_top" xlink:title=" ">
<polygon fill="white" stroke="black" points="1366,-202.5 1366,-243.5 1483,-243.5 1483,-202.5 1366,-202.5"/>
<text text-anchor="start" x="1374" y="-231.5" font-family="Helvetica,sans-Serif" font-size="10.00">FractureMechanics::</text>
<text text-anchor="start" x="1374" y="-220.5" font-family="Helvetica,sans-Serif" font-size="10.00">GriffithForceElement</text>
<text text-anchor="middle" x="1424.5" y="-209.5" font-family="Helvetica,sans-Serif" font-size="10.00">::AuxOp</text>
</a>
</g>
</g>
<!-- Node3&#45;&gt;Node1 -->
<g id="edge2" class="edge">
<title>Node3&#45;&gt;Node1</title>
<path fill="none" stroke="midnightblue" d="M1493.3,-218.26C1530.45,-215.66 1576.75,-212.42 1615.82,-209.68"/>
<polygon fill="midnightblue" stroke="midnightblue" points="1492.81,-214.78 1483.08,-218.97 1493.3,-221.76 1492.81,-214.78"/>
</g>
<!-- Node4 -->
<g id="node4" class="node">
<title>Node4</title>
<g id="a_node4"><a xlink:title=" ">
<polygon fill="white" stroke="#bfbfbf" points="1073.5,-136.5 1073.5,-155.5 1161.5,-155.5 1161.5,-136.5 1073.5,-136.5"/>
<text text-anchor="middle" x="1117.5" y="-143.5" font-family="Helvetica,sans-Serif" font-size="10.00">VectorDouble3</text>
</a>
</g>
</g>
<!-- Node4&#45;&gt;Node3 -->
<g id="edge3" class="edge">
<title>Node4&#45;&gt;Node3</title>
<path fill="none" stroke="#9a32cd" stroke-dasharray="5,2" d="M1171.67,-155.27C1211.66,-162.67 1267.64,-173.93 1316,-187 1316.36,-187.1 1340.59,-195.21 1365.96,-203.71"/>
<polygon fill="#9a32cd" stroke="#9a32cd" points="1172.08,-151.79 1161.61,-153.43 1170.82,-158.67 1172.08,-151.79"/>
<text text-anchor="middle" x="1257" y="-190" font-family="Helvetica,sans-Serif" font-size="10.00"> lambdaAtNodes</text>
</g>
<!-- Node5 -->
<g id="node5" class="node">
<title>Node5</title>
<g id="a_node5"><a xlink:href="structFractureMechanics_1_1GriffithForceElement_1_1BlockData.html" target="_top" xlink:title=" ">
<polygon fill="white" stroke="black" points="1059,-319.5 1059,-360.5 1176,-360.5 1176,-319.5 1059,-319.5"/>
<text text-anchor="start" x="1067" y="-348.5" font-family="Helvetica,sans-Serif" font-size="10.00">FractureMechanics::</text>
<text text-anchor="start" x="1067" y="-337.5" font-family="Helvetica,sans-Serif" font-size="10.00">GriffithForceElement</text>
<text text-anchor="middle" x="1117.5" y="-326.5" font-family="Helvetica,sans-Serif" font-size="10.00">::BlockData</text>
</a>
</g>
</g>
<!-- Node5&#45;&gt;Node3 -->
<g id="edge4" class="edge">
<title>Node5&#45;&gt;Node3</title>
<path fill="none" stroke="#9a32cd" stroke-dasharray="5,2" d="M1186.3,-335.46C1225.51,-330.95 1275.03,-321.95 1316,-304 1349.39,-289.37 1382,-262.49 1402.39,-243.73"/>
<polygon fill="#9a32cd" stroke="#9a32cd" points="1185.88,-331.99 1176.31,-336.54 1186.63,-338.95 1185.88,-331.99"/>
<text text-anchor="middle" x="1257" y="-336" font-family="Helvetica,sans-Serif" font-size="10.00"> blockData</text>
</g>
<!-- Node6 -->
<g id="node6" class="node">
<title>Node6</title>
<g id="a_node6"><a xlink:href="classdouble.html" target="_top" xlink:title=" ">
<polygon fill="white" stroke="black" points="784,-373.5 784,-392.5 834,-392.5 834,-373.5 784,-373.5"/>
<text text-anchor="middle" x="809" y="-380.5" font-family="Helvetica,sans-Serif" font-size="10.00">double</text>
</a>
</g>
</g>
<!-- Node6&#45;&gt;Node1 -->
<g id="edge15" class="edge">
<title>Node6&#45;&gt;Node1</title>
<path fill="none" stroke="#9a32cd" stroke-dasharray="5,2" d="M844.34,-386.73C861.36,-388.4 882.24,-390.18 901,-391 961.39,-393.65 976.72,-395.4 1037,-391 1101.07,-386.32 1116.51,-379.8 1180,-370 1240.51,-360.66 1256.84,-363.79 1316,-348 1433.68,-316.59 1565.49,-262.25 1639.13,-230.06"/>
<polygon fill="#9a32cd" stroke="#9a32cd" points="844.6,-383.24 834.29,-385.72 843.89,-390.21 844.6,-383.24"/>
<text text-anchor="middle" x="1257" y="-370" font-family="Helvetica,sans-Serif" font-size="10.00"> betaGC</text>
</g>
<!-- Node6&#45;&gt;Node5 -->
<g id="edge5" class="edge">
<title>Node6&#45;&gt;Node5</title>
<path fill="none" stroke="#9a32cd" stroke-dasharray="5,2" d="M844.05,-372.04C860.99,-367 881.9,-361.39 901,-358 954.05,-348.58 1015.33,-344.07 1058.96,-341.92"/>
<polygon fill="#9a32cd" stroke="#9a32cd" points="842.6,-368.82 834.05,-375.08 844.64,-375.52 842.6,-368.82"/>
<text text-anchor="middle" x="969" y="-383" font-family="Helvetica,sans-Serif" font-size="10.00"> E</text>
<text text-anchor="middle" x="969" y="-372" font-family="Helvetica,sans-Serif" font-size="10.00">r</text>
<text text-anchor="middle" x="969" y="-361" font-family="Helvetica,sans-Serif" font-size="10.00">gc</text>
</g>
<!-- Node7 -->
<g id="node7" class="node">
<title>Node7</title>
<g id="a_node7"><a xlink:href="classRange.html" target="_top" xlink:title=" ">
<polygon fill="white" stroke="black" points="785.5,-313.5 785.5,-332.5 832.5,-332.5 832.5,-313.5 785.5,-313.5"/>
<text text-anchor="middle" x="809" y="-320.5" font-family="Helvetica,sans-Serif" font-size="10.00">Range</text>
</a>
</g>
</g>
<!-- Node7&#45;&gt;Node5 -->
<g id="edge6" class="edge">
<title>Node7&#45;&gt;Node5</title>
<path fill="none" stroke="#9a32cd" stroke-dasharray="5,2" d="M842.79,-321.16C887.02,-319.12 968.18,-316.99 1037,-324 1044.14,-324.73 1051.6,-325.8 1058.95,-327.05"/>
<polygon fill="#9a32cd" stroke="#9a32cd" points="842.45,-317.67 832.63,-321.65 842.79,-324.66 842.45,-317.67"/>
<text text-anchor="middle" x="969" y="-327" font-family="Helvetica,sans-Serif" font-size="10.00"> frontNodes</text>
</g>
<!-- Node8 -->
<g id="node8" class="node">
<title>Node8</title>
<g id="a_node8"><a xlink:title=" ">
<polygon fill="white" stroke="#bfbfbf" points="1084.5,-98.5 1084.5,-117.5 1150.5,-117.5 1150.5,-98.5 1084.5,-98.5"/>
<text text-anchor="middle" x="1117.5" y="-105.5" font-family="Helvetica,sans-Serif" font-size="10.00">VectorInt3</text>
</a>
</g>
</g>
<!-- Node8&#45;&gt;Node3 -->
<g id="edge7" class="edge">
<title>Node8&#45;&gt;Node3</title>
<path fill="none" stroke="#9a32cd" stroke-dasharray="5,2" d="M1160.78,-101.37C1204.73,-96.99 1273,-97.58 1316,-134 1336.92,-151.72 1314.88,-173.35 1334,-193 1342.69,-201.93 1354.1,-208.2 1365.86,-212.6"/>
<polygon fill="#9a32cd" stroke="#9a32cd" points="1160.25,-97.91 1150.7,-102.5 1161.03,-104.86 1160.25,-97.91"/>
<text text-anchor="middle" x="1257" y="-148" font-family="Helvetica,sans-Serif" font-size="10.00"> rowLambdaIndices</text>
<text text-anchor="middle" x="1257" y="-137" font-family="Helvetica,sans-Serif" font-size="10.00">rowLambdaIndicesLocal</text>
</g>
<!-- Node9 -->
<g id="node9" class="node">
<title>Node9</title>
<g id="a_node9"><a xlink:title=" ">
<polygon fill="white" stroke="#bfbfbf" points="1103,-60.5 1103,-79.5 1132,-79.5 1132,-60.5 1103,-60.5"/>
<text text-anchor="middle" x="1117.5" y="-67.5" font-family="Helvetica,sans-Serif" font-size="10.00">int</text>
</a>
</g>
</g>
<!-- Node9&#45;&gt;Node3 -->
<g id="edge8" class="edge">
<title>Node9&#45;&gt;Node3</title>
<path fill="none" stroke="#9a32cd" stroke-dasharray="5,2" d="M1142.08,-63.55C1183.15,-53.88 1268.01,-41.12 1316,-85 1351.91,-117.84 1302.42,-155.98 1334,-193 1342.3,-202.72 1353.84,-209.31 1365.89,-213.76"/>
<polygon fill="#9a32cd" stroke="#9a32cd" points="1141.03,-60.2 1132.18,-66.02 1142.73,-66.99 1141.03,-60.2"/>
<text text-anchor="middle" x="1257" y="-88" font-family="Helvetica,sans-Serif" font-size="10.00"> tAg</text>
</g>
<!-- Node10 -->
<g id="node10" class="node">
<title>Node10</title>
<g id="a_node10"><a xlink:title=" ">
<polygon fill="white" stroke="#bfbfbf" points="768,-256.5 768,-275.5 850,-275.5 850,-256.5 768,-256.5"/>
<text text-anchor="middle" x="809" y="-263.5" font-family="Helvetica,sans-Serif" font-size="10.00">VectorDouble</text>
</a>
</g>
</g>
<!-- Node10&#45;&gt;Node3 -->
<g id="edge9" class="edge">
<title>Node10&#45;&gt;Node3</title>
<path fill="none" stroke="#9a32cd" stroke-dasharray="5,2" d="M860.36,-272.34C952.12,-282.44 1152.18,-297.83 1316,-264 1337.42,-259.58 1360.18,-251.44 1379.22,-243.57"/>
<polygon fill="#9a32cd" stroke="#9a32cd" points="860.58,-268.84 850.25,-271.19 859.79,-275.79 860.58,-268.84"/>
<text text-anchor="middle" x="1117.5" y="-287" font-family="Helvetica,sans-Serif" font-size="10.00"> activeVariables</text>
</g>
<!-- Node12 -->
<g id="node12" class="node">
<title>Node12</title>
<g id="a_node12"><a xlink:href="structFractureMechanics_1_1GriffithForceElement_1_1CommonData.html" target="_top" xlink:title=" ">
<polygon fill="white" stroke="black" points="1059,-174.5 1059,-215.5 1176,-215.5 1176,-174.5 1059,-174.5"/>
<text text-anchor="start" x="1067" y="-203.5" font-family="Helvetica,sans-Serif" font-size="10.00">FractureMechanics::</text>
<text text-anchor="start" x="1067" y="-192.5" font-family="Helvetica,sans-Serif" font-size="10.00">GriffithForceElement</text>
<text text-anchor="middle" x="1117.5" y="-181.5" font-family="Helvetica,sans-Serif" font-size="10.00">::CommonData</text>
</a>
</g>
</g>
<!-- Node10&#45;&gt;Node12 -->
<g id="edge13" class="edge">
<title>Node10&#45;&gt;Node12</title>
<path fill="none" stroke="#9a32cd" stroke-dasharray="5,2" d="M860.27,-258.72C906.6,-251.48 977.05,-239.14 1037,-223 1045.05,-220.83 1053.46,-218.24 1061.67,-215.52"/>
<polygon fill="#9a32cd" stroke="#9a32cd" points="859.54,-255.29 850.19,-260.27 860.61,-262.21 859.54,-255.29"/>
<text text-anchor="middle" x="969" y="-265" font-family="Helvetica,sans-Serif" font-size="10.00"> griffithForce</text>
<text text-anchor="middle" x="969" y="-254" font-family="Helvetica,sans-Serif" font-size="10.00">densityRho</text>
</g>
<!-- Node11 -->
<g id="node11" class="node">
<title>Node11</title>
<g id="a_node11"><a xlink:title=" ">
<polygon fill="white" stroke="#bfbfbf" points="1076,-234.5 1076,-253.5 1159,-253.5 1159,-234.5 1076,-234.5"/>
<text text-anchor="middle" x="1117.5" y="-241.5" font-family="Helvetica,sans-Serif" font-size="10.00">vector&lt; int &gt;</text>
</a>
</g>
</g>
<!-- Node11&#45;&gt;Node3 -->
<g id="edge10" class="edge">
<title>Node11&#45;&gt;Node3</title>
<path fill="none" stroke="#9a32cd" stroke-dasharray="5,2" d="M1169.07,-240.52C1223.26,-236.79 1309.13,-230.87 1365.89,-226.97"/>
<polygon fill="#9a32cd" stroke="#9a32cd" points="1168.74,-237.03 1159,-241.21 1169.22,-244.02 1168.74,-237.03"/>
<text text-anchor="middle" x="1257" y="-252" font-family="Helvetica,sans-Serif" font-size="10.00"> rowIndices</text>
<text text-anchor="middle" x="1257" y="-241" font-family="Helvetica,sans-Serif" font-size="10.00">rowIndicesLocal</text>
</g>
<!-- Node12&#45;&gt;Node3 -->
<g id="edge11" class="edge">
<title>Node12&#45;&gt;Node3</title>
<path fill="none" stroke="#9a32cd" stroke-dasharray="5,2" d="M1186.37,-201.23C1240.24,-206.18 1314.72,-213.01 1365.75,-217.7"/>
<polygon fill="#9a32cd" stroke="#9a32cd" points="1186.5,-197.73 1176.23,-200.3 1185.86,-204.7 1186.5,-197.73"/>
<text text-anchor="middle" x="1257" y="-215" font-family="Helvetica,sans-Serif" font-size="10.00"> commonData</text>
</g>
<!-- Node13 -->
<g id="node13" class="node">
<title>Node13</title>
<g id="a_node13"><a xlink:title=" ">
<polygon fill="white" stroke="#bfbfbf" points="767.5,-188.5 767.5,-207.5 850.5,-207.5 850.5,-188.5 767.5,-188.5"/>
<text text-anchor="middle" x="809" y="-195.5" font-family="Helvetica,sans-Serif" font-size="10.00">MatrixDouble</text>
</a>
</g>
</g>
<!-- Node13&#45;&gt;Node12 -->
<g id="edge12" class="edge">
<title>Node13&#45;&gt;Node12</title>
<path fill="none" stroke="#9a32cd" stroke-dasharray="5,2" d="M860.83,-197.5C915.38,-196.97 1001.85,-196.12 1058.88,-195.56"/>
<polygon fill="#9a32cd" stroke="#9a32cd" points="860.67,-194 850.7,-197.6 860.73,-201 860.67,-194"/>
<text text-anchor="middle" x="969" y="-211" font-family="Helvetica,sans-Serif" font-size="10.00"> tangentGriffithForce</text>
<text text-anchor="middle" x="969" y="-200" font-family="Helvetica,sans-Serif" font-size="10.00">diffRho</text>
</g>
<!-- Node14 -->
<g id="node14" class="node">
<title>Node14</title>
<g id="a_node14"><a xlink:title=" ">
<polygon fill="white" stroke="#bfbfbf" points="753.5,-150.5 753.5,-169.5 864.5,-169.5 864.5,-150.5 753.5,-150.5"/>
<text text-anchor="middle" x="809" y="-157.5" font-family="Helvetica,sans-Serif" font-size="10.00">vector&lt; double * &gt;</text>
</a>
</g>
</g>
<!-- Node14&#45;&gt;Node12 -->
<g id="edge14" class="edge">
<title>Node14&#45;&gt;Node12</title>
<path fill="none" stroke="#9a32cd" stroke-dasharray="5,2" d="M874.78,-164C920.29,-167.23 982.53,-172.48 1037,-180 1044.1,-180.98 1051.52,-182.16 1058.86,-183.43"/>
<polygon fill="#9a32cd" stroke="#9a32cd" points="874.97,-160.51 864.75,-163.3 874.48,-167.49 874.97,-160.51"/>
<text text-anchor="middle" x="969" y="-183" font-family="Helvetica,sans-Serif" font-size="10.00"> tangentGriffithForceRowPtr</text>
</g>
<!-- Node15 -->
<g id="node15" class="node">
<title>Node15</title>
<g id="a_node15"><a xlink:href="structMoFEM_1_1DeprecatedCoreInterface.html" target="_top" xlink:title="Deprecated interface functions.">
<polygon fill="white" stroke="black" points="1334,-164.5 1334,-183.5 1515,-183.5 1515,-164.5 1334,-164.5"/>
<text text-anchor="middle" x="1424.5" y="-171.5" font-family="Helvetica,sans-Serif" font-size="10.00">MoFEM::DeprecatedCoreInterface</text>
</a>
</g>
</g>
<!-- Node15&#45;&gt;Node1 -->
<g id="edge16" class="edge">
<title>Node15&#45;&gt;Node1</title>
<path fill="none" stroke="#9a32cd" stroke-dasharray="5,2" d="M1522.03,-184.67C1552.63,-188.05 1586.14,-191.75 1615.57,-195"/>
<polygon fill="#9a32cd" stroke="#9a32cd" points="1522.1,-181.15 1511.78,-183.53 1521.33,-188.11 1522.1,-181.15"/>
<text text-anchor="middle" x="1565.5" y="-195" font-family="Helvetica,sans-Serif" font-size="10.00"> mField</text>
</g>
<!-- Node16 -->
<g id="node16" class="node">
<title>Node16</title>
<g id="a_node16"><a xlink:href="structMoFEM_1_1CoreInterface.html" target="_top" xlink:title="Interface.">
<polygon fill="white" stroke="black" points="1055,-22.5 1055,-41.5 1180,-41.5 1180,-22.5 1055,-22.5"/>
<text text-anchor="middle" x="1117.5" y="-29.5" font-family="Helvetica,sans-Serif" font-size="10.00">MoFEM::CoreInterface</text>
</a>
</g>
</g>
<!-- Node16&#45;&gt;Node15 -->
<g id="edge17" class="edge">
<title>Node16&#45;&gt;Node15</title>
<path fill="none" stroke="midnightblue" d="M1169,-20.85C1213.46,-14.24 1277.01,-13.1 1316,-49 1351.15,-81.37 1300.91,-120.53 1334,-155 1337.63,-158.78 1341.81,-161.9 1346.34,-164.47"/>
<polygon fill="midnightblue" stroke="midnightblue" points="1168.29,-17.42 1158.99,-22.48 1169.42,-24.33 1168.29,-17.42"/>
</g>
<!-- Node17 -->
<g id="node17" class="node">
<title>Node17</title>
<g id="a_node17"><a xlink:href="structMoFEM_1_1UnknownInterface.html" target="_top" xlink:title="base class for all interface classes">
<polygon fill="white" stroke="black" points="735,-22.5 735,-41.5 883,-41.5 883,-22.5 735,-22.5"/>
<text text-anchor="middle" x="809" y="-29.5" font-family="Helvetica,sans-Serif" font-size="10.00">MoFEM::UnknownInterface</text>
</a>
</g>
</g>
<!-- Node17&#45;&gt;Node16 -->
<g id="edge18" class="edge">
<title>Node17&#45;&gt;Node16</title>
<path fill="none" stroke="midnightblue" d="M893.05,-32C944.09,-32 1008.38,-32 1054.88,-32"/>
<polygon fill="midnightblue" stroke="midnightblue" points="893.03,-28.5 883.02,-32 893.02,-35.5 893.03,-28.5"/>
</g>
<!-- Node18 -->
<g id="node18" class="node">
<title>Node18</title>
<g id="a_node18"><a xlink:title=" ">
<polygon fill="white" stroke="#bfbfbf" points="386,-0.5 386,-63.5 627,-63.5 627,-0.5 386,-0.5"/>
<text text-anchor="start" x="394" y="-51.5" font-family="Helvetica,sans-Serif" font-size="10.00">multi_index_container</text>
<text text-anchor="start" x="394" y="-40.5" font-family="Helvetica,sans-Serif" font-size="10.00">&lt; UIdTypeMap, indexed</text>
<text text-anchor="start" x="394" y="-29.5" font-family="Helvetica,sans-Serif" font-size="10.00">_by&lt; hashed_unique&lt; member</text>
<text text-anchor="start" x="394" y="-18.5" font-family="Helvetica,sans-Serif" font-size="10.00">&lt; UIdTypeMap, boost::typeindex</text>
<text text-anchor="middle" x="506.5" y="-7.5" font-family="Helvetica,sans-Serif" font-size="10.00">::type_index, &amp;UIdTypeMap::classIdx &gt; &gt; &gt; &gt;</text>
</a>
</g>
</g>
<!-- Node18&#45;&gt;Node17 -->
<g id="edge19" class="edge">
<title>Node18&#45;&gt;Node17</title>
<path fill="none" stroke="#9a32cd" stroke-dasharray="5,2" d="M637.41,-32C670.69,-32 705.33,-32 734.62,-32"/>
<polygon fill="#9a32cd" stroke="#9a32cd" points="637.13,-28.5 627.13,-32 637.13,-35.5 637.13,-28.5"/>
<text text-anchor="middle" x="681" y="-35" font-family="Helvetica,sans-Serif" font-size="10.00"> iFaceTypeMap</text>
</g>
<!-- Node19 -->
<g id="node19" class="node">
<title>Node19</title>
<g id="a_node19"><a xlink:title=" ">
<polygon fill="white" stroke="#bfbfbf" points="0,-22.5 0,-41.5 125,-41.5 125,-22.5 0,-22.5"/>
<text text-anchor="middle" x="62.5" y="-29.5" font-family="Helvetica,sans-Serif" font-size="10.00">multi_index_container</text>
</a>
</g>
</g>
<!-- Node19&#45;&gt;Node18 -->
<g id="edge20" class="edge">
<title>Node19&#45;&gt;Node18</title>
<path fill="none" stroke="orange" stroke-dasharray="5,2" d="M135.56,-32C203.25,-32 305.79,-32 385.77,-32"/>
<polygon fill="orange" stroke="orange" points="135.42,-28.5 125.42,-32 135.42,-35.5 135.42,-28.5"/>
<text text-anchor="start" x="143" y="-68" font-family="Helvetica,sans-Serif" font-size="10.00"> &lt; UIdTypeMap, indexed</text>
<text text-anchor="start" x="143" y="-57" font-family="Helvetica,sans-Serif" font-size="10.00">_by&lt; hashed_unique&lt; member</text>
<text text-anchor="start" x="143" y="-46" font-family="Helvetica,sans-Serif" font-size="10.00">&lt; UIdTypeMap, boost::typeindex</text>
<text text-anchor="middle" x="255.5" y="-35" font-family="Helvetica,sans-Serif" font-size="10.00">::type_index, &amp;UIdTypeMap::classIdx &gt; &gt; &gt; &gt;</text>
</g>
<!-- Node20 -->
<g id="node20" class="node">
<title>Node20</title>
<g id="a_node20"><a xlink:title=" ">
<polygon fill="white" stroke="#bfbfbf" points="1402.5,-126.5 1402.5,-145.5 1446.5,-145.5 1446.5,-126.5 1402.5,-126.5"/>
<text text-anchor="middle" x="1424.5" y="-133.5" font-family="Helvetica,sans-Serif" font-size="10.00">string</text>
</a>
</g>
</g>
<!-- Node20&#45;&gt;Node1 -->
<g id="edge21" class="edge">
<title>Node20&#45;&gt;Node1</title>
<path fill="none" stroke="#9a32cd" stroke-dasharray="5,2" d="M1456.68,-141.15C1491.43,-147.16 1549.17,-157.96 1598,-171 1605.88,-173.1 1614.04,-175.49 1622.15,-177.99"/>
<polygon fill="#9a32cd" stroke="#9a32cd" points="1457.12,-137.67 1446.67,-139.44 1455.94,-144.57 1457.12,-137.67"/>
<text text-anchor="middle" x="1565.5" y="-174" font-family="Helvetica,sans-Serif" font-size="10.00"> rhoTagName</text>
</g>
<!-- Node21 -->
<g id="node21" class="node">
<title>Node21</title>
<g id="a_node21"><a xlink:title=" ">
<polygon fill="white" stroke="#bfbfbf" points="1339,-77 1339,-107 1510,-107 1510,-77 1339,-77"/>
<text text-anchor="start" x="1347" y="-95" font-family="Helvetica,sans-Serif" font-size="10.00">shared_ptr&lt; FractureMechanics</text>
<text text-anchor="middle" x="1424.5" y="-84" font-family="Helvetica,sans-Serif" font-size="10.00">::MWLSApprox &gt;</text>
</a>
</g>
</g>
<!-- Node21&#45;&gt;Node1 -->
<g id="edge22" class="edge">
<title>Node21&#45;&gt;Node1</title>
<path fill="none" stroke="#9a32cd" stroke-dasharray="5,2" d="M1489.82,-109.89C1498.29,-112.27 1506.86,-114.69 1515,-117 1551.94,-127.5 1563,-125.2 1598,-141 1620.1,-150.98 1643.04,-165.29 1661.27,-177.75"/>
<polygon fill="#9a32cd" stroke="#9a32cd" points="1490.52,-106.45 1479.95,-107.12 1488.64,-113.19 1490.52,-106.45"/>
<text text-anchor="middle" x="1565.5" y="-144" font-family="Helvetica,sans-Serif" font-size="10.00"> mwlsApprox</text>
</g>
</g>
</svg>
        <g id="navigator" transform="translate(0 0)" fill="#404254">
                <rect fill="#f2f5e9" fill-opacity="0.5" stroke="#606060" stroke-width=".5" x="0" y="0" width="60" height="60"/>
                <use id="zoomplus" xlink:href="#zoomPlus" x="17" y="9" onmousedown="handleZoom(evt,'in')"/>
                <use id="zoomminus" xlink:href="#zoomMin" x="42" y="9" onmousedown="handleZoom(evt,'out')"/>
                <use id="reset" xlink:href="#resetDef" x="30" y="36" onmousedown="handleReset()"/>
                <g id="arrowUp" xlink:href="#dirArrow" transform="translate(30 24)" onmousedown="handlePan(0,-1)">
                  <use xlink:href="#rim" fill="#404040">
                        <set attributeName="fill" to="#808080" begin="arrowUp.mouseover" end="arrowUp.mouseout"/>
                  </use>
                  <path fill="none" stroke="white" stroke-width="1.5" d="M0,-3.0v7 M-2.5,-0.5L0,-3.0L2.5,-0.5"/>
                </g>
                <g id="arrowRight" xlink:href="#dirArrow" transform="rotate(90) translate(36 -43)" onmousedown="handlePan(1,0)">
                  <use xlink:href="#rim" fill="#404040">
                        <set attributeName="fill" to="#808080" begin="arrowRight.mouseover" end="arrowRight.mouseout"/>
                  </use>
                  <path fill="none" stroke="white" stroke-width="1.5" d="M0,-3.0v7 M-2.5,-0.5L0,-3.0L2.5,-0.5"/>
                </g>
                <g id="arrowDown" xlink:href="#dirArrow" transform="rotate(180) translate(-30 -48)" onmousedown="handlePan(0,1)">
                  <use xlink:href="#rim" fill="#404040">
                        <set attributeName="fill" to="#808080" begin="arrowDown.mouseover" end="arrowDown.mouseout"/>
                  </use>
                  <path fill="none" stroke="white" stroke-width="1.5" d="M0,-3.0v7 M-2.5,-0.5L0,-3.0L2.5,-0.5"/>
                </g>
                <g id="arrowLeft" xlink:href="#dirArrow" transform="rotate(270) translate(-36 17)" onmousedown="handlePan(-1,0)">
                  <use xlink:href="#rim" fill="#404040">
                        <set attributeName="fill" to="#808080" begin="arrowLeft.mouseover" end="arrowLeft.mouseout"/>
                  </use>
                  <path fill="none" stroke="white" stroke-width="1.5" d="M0,-3.0v7 M-2.5,-0.5L0,-3.0L2.5,-0.5"/>
                </g>
        </g>
        <svg viewBox="0 0 15 15" width="100%" height="30px" preserveAspectRatio="xMaxYMin meet">
         <g id="arrow_out" transform="scale(0.3 0.3)">
          <a xlink:href="structFractureMechanics_1_1GriffithForceElement_1_1OpCalculateRhoAtCrackFrontUsingPrecalulatedCoeffs__coll__graph_org.svg" target="_base">
           <rect id="button" ry="5" rx="5" y="6" x="6" height="38" width="38"
                fill="#f2f5e9" fill-opacity="0.5" stroke="#606060" stroke-width="1.0"/>
           <path id="arrow"
             d="M 11.500037,31.436501 C 11.940474,20.09759 22.043105,11.32322 32.158766,21.979434 L 37.068811,17.246167 C 37.068811,17.246167 37.088388,32 37.088388,32 L 22.160133,31.978069 C 22.160133,31.978069 26.997745,27.140456 26.997745,27.140456 C 18.528582,18.264221 13.291696,25.230495 11.500037,31.436501 z"
             style="fill:#404040;"/>
          </a>
         </g>
        </svg>
</svg>
