<?xml version="1.0" encoding="UTF-8" standalone="no"?>
<!DOCTYPE svg PUBLIC "-//W3C//DTD SVG 1.1//EN"
 "http://www.w3.org/Graphics/SVG/1.1/DTD/svg11.dtd">
<!-- Generated by graphviz version 2.43.0 (0)
 -->
<!-- Title: KelvinVoigtDamper::CommonData Pages: 1 -->
<svg width="445pt" height="367pt"
 viewBox="0.00 0.00 445.00 367.06" xmlns="http://www.w3.org/2000/svg" xmlns:xlink="http://www.w3.org/1999/xlink">
<g id="graph0" class="graph" transform="scale(1 1) rotate(0) translate(4 363.06)">
<title>KelvinVoigtDamper::CommonData</title>
<polygon fill="white" stroke="transparent" points="-4,4 -4,-363.06 441,-363.06 441,4 -4,4"/>
<!-- Node1 -->
<g id="node1" class="node">
<title>Node1</title>
<g id="a_node1"><a xlink:title="Common data for nonlinear_elastic_elem model.">
<polygon fill="#bfbfbf" stroke="black" points="321,-151.06 321,-181.06 437,-181.06 437,-151.06 321,-151.06"/>
<text text-anchor="start" x="329" y="-169.06" font-family="Helvetica,sans-Serif" font-size="10.00">KelvinVoigtDamper::</text>
<text text-anchor="middle" x="379" y="-158.06" font-family="Helvetica,sans-Serif" font-size="10.00">CommonData</text>
</a>
</g>
</g>
<!-- Node2 -->
<g id="node2" class="node">
<title>Node2</title>
<g id="a_node2"><a xlink:title=" ">
<polygon fill="white" stroke="#bfbfbf" points="0,-319.56 0,-338.56 157,-338.56 157,-319.56 0,-319.56"/>
<text text-anchor="middle" x="78.5" y="-326.56" font-family="Helvetica,sans-Serif" font-size="10.00">shared_ptr&lt; MatrixDouble &gt;</text>
</a>
</g>
</g>
<!-- Node2&#45;&gt;Node1 -->
<g id="edge1" class="edge">
<title>Node2&#45;&gt;Node1</title>
<path fill="none" stroke="#9a32cd" stroke-dasharray="5,2" d="M167.38,-338.05C211.47,-338.23 263.7,-331.46 303,-305.06 347.16,-275.4 367.46,-210.87 374.7,-181.35"/>
<polygon fill="#9a32cd" stroke="#9a32cd" points="167.29,-334.54 157.23,-337.88 167.17,-341.54 167.29,-334.54"/>
<text text-anchor="middle" x="239" y="-351.06" font-family="Helvetica,sans-Serif" font-size="10.00"> gradDataAtGaussTmpPtr</text>
<text text-anchor="middle" x="239" y="-340.06" font-family="Helvetica,sans-Serif" font-size="10.00">dataAtGaussTmpPtr</text>
</g>
<!-- Node3 -->
<g id="node3" class="node">
<title>Node3</title>
<g id="a_node3"><a xlink:title=" ">
<polygon fill="white" stroke="#bfbfbf" points="32.5,-276.56 32.5,-295.56 124.5,-295.56 124.5,-276.56 32.5,-276.56"/>
<text text-anchor="middle" x="78.5" y="-283.56" font-family="Helvetica,sans-Serif" font-size="10.00">map&lt; int, int &gt;</text>
</a>
</g>
</g>
<!-- Node3&#45;&gt;Node1 -->
<g id="edge2" class="edge">
<title>Node3&#45;&gt;Node1</title>
<path fill="none" stroke="#9a32cd" stroke-dasharray="5,2" d="M135.15,-283.19C191.76,-279.47 275.01,-271.53 303,-256.06 334.69,-238.56 358.57,-201.88 370.18,-181.16"/>
<polygon fill="#9a32cd" stroke="#9a32cd" points="134.67,-279.72 124.91,-283.84 135.11,-286.7 134.67,-279.72"/>
<text text-anchor="middle" x="239" y="-293.06" font-family="Helvetica,sans-Serif" font-size="10.00"> nbActiveVariables</text>
<text text-anchor="middle" x="239" y="-282.06" font-family="Helvetica,sans-Serif" font-size="10.00">nbActiveResults</text>
</g>
<!-- Node4 -->
<g id="node4" class="node">
<title>Node4</title>
<g id="a_node4"><a xlink:title=" ">
<polygon fill="white" stroke="#bfbfbf" points="2.5,-227.06 2.5,-257.06 154.5,-257.06 154.5,-227.06 2.5,-227.06"/>
<text text-anchor="start" x="10.5" y="-245.06" font-family="Helvetica,sans-Serif" font-size="10.00">map&lt; std::string, std</text>
<text text-anchor="middle" x="78.5" y="-234.06" font-family="Helvetica,sans-Serif" font-size="10.00">::vector&lt; VectorDouble &gt; &gt;</text>
</a>
</g>
</g>
<!-- Node4&#45;&gt;Node1 -->
<g id="edge3" class="edge">
<title>Node4&#45;&gt;Node1</title>
<path fill="none" stroke="#9a32cd" stroke-dasharray="5,2" d="M164.68,-242.78C207.36,-240.7 259.16,-234.4 303,-218.06 325.27,-209.77 347.19,-193.34 361.53,-181.16"/>
<polygon fill="#9a32cd" stroke="#9a32cd" points="164.44,-239.28 154.59,-243.2 164.73,-246.28 164.44,-239.28"/>
<text text-anchor="middle" x="239" y="-244.06" font-family="Helvetica,sans-Serif" font-size="10.00"> dataAtGaussPts</text>
</g>
<!-- Node5 -->
<g id="node5" class="node">
<title>Node5</title>
<g id="a_node5"><a xlink:title=" ">
<polygon fill="white" stroke="#bfbfbf" points="10.5,-179.56 10.5,-198.56 146.5,-198.56 146.5,-179.56 10.5,-179.56"/>
<text text-anchor="middle" x="78.5" y="-186.56" font-family="Helvetica,sans-Serif" font-size="10.00">vector&lt; MatrixDouble &gt;</text>
</a>
</g>
</g>
<!-- Node5&#45;&gt;Node1 -->
<g id="edge4" class="edge">
<title>Node5&#45;&gt;Node1</title>
<path fill="none" stroke="#9a32cd" stroke-dasharray="5,2" d="M156.91,-183.1C208.22,-179.15 274.39,-174.05 320.92,-170.46"/>
<polygon fill="#9a32cd" stroke="#9a32cd" points="156.56,-179.62 146.86,-183.87 157.1,-186.59 156.56,-179.62"/>
<text text-anchor="middle" x="239" y="-206.06" font-family="Helvetica,sans-Serif" font-size="10.00"> jacStress</text>
<text text-anchor="start" x="175" y="-195.06" font-family="Helvetica,sans-Serif" font-size="10.00">dashpotFirstPiolaKirchhoff</text>
<text text-anchor="middle" x="239" y="-184.06" font-family="Helvetica,sans-Serif" font-size="10.00">Stress</text>
</g>
<!-- Node6 -->
<g id="node6" class="node">
<title>Node6</title>
<g id="a_node6"><a xlink:href="classbool.html" target="_top" xlink:title=" ">
<polygon fill="white" stroke="black" points="59.5,-138.56 59.5,-157.56 97.5,-157.56 97.5,-138.56 59.5,-138.56"/>
<text text-anchor="middle" x="78.5" y="-145.56" font-family="Helvetica,sans-Serif" font-size="10.00">bool</text>
</a>
</g>
</g>
<!-- Node6&#45;&gt;Node1 -->
<g id="edge5" class="edge">
<title>Node6&#45;&gt;Node1</title>
<path fill="none" stroke="#9a32cd" stroke-dasharray="5,2" d="M107.73,-145C150.3,-140.98 233.33,-135.49 303,-145.06 312.51,-146.37 322.52,-148.57 332.01,-151.06"/>
<polygon fill="#9a32cd" stroke="#9a32cd" points="107.18,-141.53 97.57,-146 107.87,-148.5 107.18,-141.53"/>
<text text-anchor="middle" x="239" y="-159.06" font-family="Helvetica,sans-Serif" font-size="10.00"> skipThis</text>
<text text-anchor="middle" x="239" y="-148.06" font-family="Helvetica,sans-Serif" font-size="10.00">recordOn</text>
</g>
<!-- Node7 -->
<g id="node7" class="node">
<title>Node7</title>
<g id="a_node7"><a xlink:title=" ">
<polygon fill="white" stroke="#bfbfbf" points="2,-89.06 2,-119.06 155,-119.06 155,-89.06 2,-89.06"/>
<text text-anchor="start" x="10" y="-107.06" font-family="Helvetica,sans-Serif" font-size="10.00">map&lt; std::string, std</text>
<text text-anchor="middle" x="78.5" y="-96.06" font-family="Helvetica,sans-Serif" font-size="10.00">::vector&lt; MatrixDouble &gt; &gt;</text>
</a>
</g>
</g>
<!-- Node7&#45;&gt;Node1 -->
<g id="edge6" class="edge">
<title>Node7&#45;&gt;Node1</title>
<path fill="none" stroke="#9a32cd" stroke-dasharray="5,2" d="M165,-103.35C207.33,-105.09 258.72,-110.37 303,-124.06 322.39,-130.06 342.35,-141.54 356.79,-150.98"/>
<polygon fill="#9a32cd" stroke="#9a32cd" points="165.12,-99.85 155.01,-103 164.88,-106.85 165.12,-99.85"/>
<text text-anchor="middle" x="239" y="-127.06" font-family="Helvetica,sans-Serif" font-size="10.00"> gradAtGaussPts</text>
</g>
<!-- Node8 -->
<g id="node8" class="node">
<title>Node8</title>
<g id="a_node8"><a xlink:title=" ">
<polygon fill="white" stroke="#bfbfbf" points="56.5,-44.56 56.5,-63.56 100.5,-63.56 100.5,-44.56 56.5,-44.56"/>
<text text-anchor="middle" x="78.5" y="-51.56" font-family="Helvetica,sans-Serif" font-size="10.00">string</text>
</a>
</g>
</g>
<!-- Node8&#45;&gt;Node1 -->
<g id="edge7" class="edge">
<title>Node8&#45;&gt;Node1</title>
<path fill="none" stroke="#9a32cd" stroke-dasharray="5,2" d="M110.89,-47.85C156.25,-40.54 241.44,-33.19 303,-66.06 338.03,-84.77 361.3,-127.83 371.73,-150.87"/>
<polygon fill="#9a32cd" stroke="#9a32cd" points="110.04,-44.44 100.78,-49.59 111.23,-51.34 110.04,-44.44"/>
<text text-anchor="middle" x="239" y="-91.06" font-family="Helvetica,sans-Serif" font-size="10.00"> spatialPositionName</text>
<text text-anchor="middle" x="239" y="-80.06" font-family="Helvetica,sans-Serif" font-size="10.00">spatialPositionNameDot</text>
<text text-anchor="middle" x="239" y="-69.06" font-family="Helvetica,sans-Serif" font-size="10.00">meshNodePositionName</text>
</g>
<!-- Node9 -->
<g id="node9" class="node">
<title>Node9</title>
<g id="a_node9"><a xlink:title=" ">
<polygon fill="white" stroke="#bfbfbf" points="23,-6.56 23,-25.56 134,-25.56 134,-6.56 23,-6.56"/>
<text text-anchor="middle" x="78.5" y="-13.56" font-family="Helvetica,sans-Serif" font-size="10.00">vector&lt; double * &gt;</text>
</a>
</g>
</g>
<!-- Node9&#45;&gt;Node1 -->
<g id="edge8" class="edge">
<title>Node9&#45;&gt;Node1</title>
<path fill="none" stroke="#9a32cd" stroke-dasharray="5,2" d="M132.22,-4.91C180.47,2.3 251.92,5.15 303,-27.06 348.23,-55.58 368.07,-121.3 374.96,-151.01"/>
<polygon fill="#9a32cd" stroke="#9a32cd" points="131.61,-1.47 122.29,-6.51 132.72,-8.38 131.61,-1.47"/>
<text text-anchor="middle" x="239" y="-30.06" font-family="Helvetica,sans-Serif" font-size="10.00"> jacRowPtr</text>
</g>
</g>
</svg>
