<?xml version="1.0" encoding="UTF-8" standalone="no"?>
<!DOCTYPE svg PUBLIC "-//W3C//DTD SVG 1.1//EN"
 "http://www.w3.org/Graphics/SVG/1.1/DTD/svg11.dtd">
<!-- Generated by graphviz version 2.43.0 (0)
 -->
<!-- Title: Poisson2DiscontGalerkin Pages: 1 -->
<!--zoomable 1741 -->
<svg id="main" version="1.1" xmlns="http://www.w3.org/2000/svg" xmlns:xlink="http://www.w3.org/1999/xlink" xml:space="preserve" onload="init(evt)">
<style type="text/css"><![CDATA[
.edge:hover path { stroke: red; }
.edge:hover polygon { stroke: red; fill: red; }
]]></style>
<script type="text/javascript"><![CDATA[
var edges = document.getElementsByTagName('g');
if (edges && edges.length) {
  for (var i=0;i<edges.length;i++) {
    if (edges[i].id.substr(0,4)=='edge') {
      edges[i].setAttribute('class','edge');
    }
  }
}
]]></script>
        <defs>
                <circle id="rim" cx="0" cy="0" r="7"/>
                <circle id="rim2" cx="0" cy="0" r="3.5"/>
                <g id="zoomPlus">
                        <use xlink:href="#rim" fill="#404040">
                                <set attributeName="fill" to="#808080" begin="zoomplus.mouseover" end="zoomplus.mouseout"/>
                        </use>
                        <path d="M-4,0h8M0,-4v8" fill="none" stroke="white" stroke-width="1.5" pointer-events="none"/>
                </g>
                <g id="zoomMin">
                        <use xlink:href="#rim" fill="#404040">
                                <set attributeName="fill" to="#808080" begin="zoomminus.mouseover" end="zoomminus.mouseout"/>
                        </use>
                        <path d="M-4,0h8" fill="none" stroke="white" stroke-width="1.5" pointer-events="none"/>
                </g>
                <g id="dirArrow">
                        <path fill="none" stroke="white" stroke-width="1.5" d="M0,-3.0v7 M-2.5,-0.5L0,-3.0L2.5,-0.5"/>
                </g>
               <g id="resetDef">
                       <use xlink:href="#rim2" fill="#404040">
                               <set attributeName="fill" to="#808080" begin="reset.mouseover" end="reset.mouseout"/>
                       </use>
               </g>
        </defs>

<script type="text/javascript">
var viewWidth = 4292;
var viewHeight = 1741;
var sectionId = 'dynsection-0';
</script>
<script xlink:href="svgpan.js"/>
<svg id="graph" class="graph">
<g id="viewport">
<title>Poisson2DiscontGalerkin</title>
<polygon fill="white" stroke="transparent" points="-4,4 -4,-1737 4288,-1737 4288,4 -4,4"/>
<!-- Node1 -->
<g id="node1" class="node">
<title>Node1</title>
<g id="a_node1"><a xlink:title=" ">
<polygon fill="#bfbfbf" stroke="black" points="4146,-1298.5 4146,-1317.5 4284,-1317.5 4284,-1298.5 4146,-1298.5"/>
<text text-anchor="middle" x="4215" y="-1305.5" font-family="Helvetica,sans-Serif" font-size="10.00">Poisson2DiscontGalerkin</text>
</a>
</g>
</g>
<!-- Node2 -->
<g id="node2" class="node">
<title>Node2</title>
<g id="a_node2"><a xlink:href="structMoFEM_1_1DeprecatedCoreInterface.html" target="_top" xlink:title="Deprecated interface functions.">
<polygon fill="white" stroke="black" points="3331,-1544.5 3331,-1563.5 3512,-1563.5 3512,-1544.5 3331,-1544.5"/>
<text text-anchor="middle" x="3421.5" y="-1551.5" font-family="Helvetica,sans-Serif" font-size="10.00">MoFEM::DeprecatedCoreInterface</text>
</a>
</g>
</g>
<!-- Node2&#45;&gt;Node1 -->
<g id="edge1" class="edge">
<title>Node2&#45;&gt;Node1</title>
<path fill="none" stroke="#9a32cd" stroke-dasharray="5,2" d="M3522.15,-1563.66C3693.21,-1578.14 4033.47,-1597.15 4128,-1530 4201.46,-1477.82 4212.17,-1353.52 4213.73,-1317.77"/>
<polygon fill="#9a32cd" stroke="#9a32cd" points="3522.4,-1560.17 3512.13,-1562.8 3521.8,-1567.14 3522.4,-1560.17"/>
<text text-anchor="middle" x="3840" y="-1580" font-family="Helvetica,sans-Serif" font-size="10.00"> mField</text>
</g>
<!-- Node3 -->
<g id="node3" class="node">
<title>Node3</title>
<g id="a_node3"><a xlink:href="structMoFEM_1_1CoreInterface.html" target="_top" xlink:title="Interface.">
<polygon fill="white" stroke="black" points="2663.5,-1544.5 2663.5,-1563.5 2788.5,-1563.5 2788.5,-1544.5 2663.5,-1544.5"/>
<text text-anchor="middle" x="2726" y="-1551.5" font-family="Helvetica,sans-Serif" font-size="10.00">MoFEM::CoreInterface</text>
</a>
</g>
</g>
<!-- Node3&#45;&gt;Node2 -->
<g id="edge2" class="edge">
<title>Node3&#45;&gt;Node2</title>
<path fill="none" stroke="midnightblue" d="M2798.58,-1554C2925.92,-1554 3191.5,-1554 3330.81,-1554"/>
<polygon fill="midnightblue" stroke="midnightblue" points="2798.54,-1550.5 2788.54,-1554 2798.54,-1557.5 2798.54,-1550.5"/>
</g>
<!-- Node23 -->
<g id="node23" class="node">
<title>Node23</title>
<g id="a_node23"><a xlink:href="structMoFEM_1_1DeprecatedCoreInterface.html" target="_top" xlink:title="Deprecated interface functions.">
<polygon fill="white" stroke="black" points="3170.5,-1085.5 3170.5,-1104.5 3230.5,-1104.5 3230.5,-1085.5 3170.5,-1085.5"/>
<text text-anchor="middle" x="3200.5" y="-1092.5" font-family="Helvetica,sans-Serif" font-size="10.00">Interface</text>
</a>
</g>
</g>
<!-- Node3&#45;&gt;Node23 -->
<g id="edge26" class="edge">
<title>Node3&#45;&gt;Node23</title>
<path fill="none" stroke="midnightblue" d="M2749.7,-1538.43C2812.12,-1494.28 2987.19,-1361.35 3070,-1205 3089.09,-1168.95 3058.87,-1143.56 3088,-1115 3109.49,-1093.94 3145.12,-1090.91 3170.31,-1091.88"/>
<polygon fill="midnightblue" stroke="midnightblue" points="2747.51,-1535.68 2741.33,-1544.29 2751.53,-1541.42 2747.51,-1535.68"/>
</g>
<!-- Node4 -->
<g id="node4" class="node">
<title>Node4</title>
<g id="a_node4"><a xlink:href="structMoFEM_1_1UnknownInterface.html" target="_top" xlink:title="base class for all interface classes">
<polygon fill="white" stroke="black" points="2166,-1566.5 2166,-1585.5 2314,-1585.5 2314,-1566.5 2166,-1566.5"/>
<text text-anchor="middle" x="2240" y="-1573.5" font-family="Helvetica,sans-Serif" font-size="10.00">MoFEM::UnknownInterface</text>
</a>
</g>
</g>
<!-- Node4&#45;&gt;Node3 -->
<g id="edge3" class="edge">
<title>Node4&#45;&gt;Node3</title>
<path fill="none" stroke="midnightblue" d="M2324.25,-1572.22C2420.69,-1567.83 2577.31,-1560.71 2663.42,-1556.8"/>
<polygon fill="midnightblue" stroke="midnightblue" points="2324.08,-1568.72 2314.25,-1572.67 2324.39,-1575.71 2324.08,-1568.72"/>
</g>
<!-- Node9 -->
<g id="node9" class="node">
<title>Node9</title>
<g id="a_node9"><a xlink:href="structMoFEM_1_1Simple.html" target="_top" xlink:title="Simple interface for fast problem set&#45;up.">
<polygon fill="white" stroke="black" points="3938,-592.5 3938,-611.5 4030,-611.5 4030,-592.5 3938,-592.5"/>
<text text-anchor="middle" x="3984" y="-599.5" font-family="Helvetica,sans-Serif" font-size="10.00">MoFEM::Simple</text>
</a>
</g>
</g>
<!-- Node4&#45;&gt;Node9 -->
<g id="edge9" class="edge">
<title>Node4&#45;&gt;Node9</title>
<path fill="none" stroke="midnightblue" d="M2324.64,-1580.44C2421.1,-1585.18 2584.46,-1592 2725,-1592 2725,-1592 2725,-1592 3637,-1592 3762.93,-1592 3830.29,-1666.38 3920,-1578 3956.4,-1542.14 3980.05,-710.55 3982.74,-611.6"/>
<polygon fill="midnightblue" stroke="midnightblue" points="2324.52,-1576.93 2314.36,-1579.93 2324.18,-1583.93 2324.52,-1576.93"/>
</g>
<!-- Node5 -->
<g id="node5" class="node">
<title>Node5</title>
<g id="a_node5"><a xlink:title=" ">
<polygon fill="white" stroke="#bfbfbf" points="1003.5,-1544.5 1003.5,-1607.5 1244.5,-1607.5 1244.5,-1544.5 1003.5,-1544.5"/>
<text text-anchor="start" x="1011.5" y="-1595.5" font-family="Helvetica,sans-Serif" font-size="10.00">multi_index_container</text>
<text text-anchor="start" x="1011.5" y="-1584.5" font-family="Helvetica,sans-Serif" font-size="10.00">&lt; UIdTypeMap, indexed</text>
<text text-anchor="start" x="1011.5" y="-1573.5" font-family="Helvetica,sans-Serif" font-size="10.00">_by&lt; hashed_unique&lt; member</text>
<text text-anchor="start" x="1011.5" y="-1562.5" font-family="Helvetica,sans-Serif" font-size="10.00">&lt; UIdTypeMap, boost::typeindex</text>
<text text-anchor="middle" x="1124" y="-1551.5" font-family="Helvetica,sans-Serif" font-size="10.00">::type_index, &amp;UIdTypeMap::classIdx &gt; &gt; &gt; &gt;</text>
</a>
</g>
</g>
<!-- Node5&#45;&gt;Node4 -->
<g id="edge4" class="edge">
<title>Node5&#45;&gt;Node4</title>
<path fill="none" stroke="#9a32cd" stroke-dasharray="5,2" d="M1255.08,-1576C1490.62,-1576 1980.52,-1576 2165.84,-1576"/>
<polygon fill="#9a32cd" stroke="#9a32cd" points="1254.75,-1572.5 1244.75,-1576 1254.75,-1579.5 1254.75,-1572.5"/>
<text text-anchor="middle" x="1720.5" y="-1579" font-family="Helvetica,sans-Serif" font-size="10.00"> iFaceTypeMap</text>
</g>
<!-- Node6 -->
<g id="node6" class="node">
<title>Node6</title>
<g id="a_node6"><a xlink:title=" ">
<polygon fill="white" stroke="#bfbfbf" points="0,-906.5 0,-925.5 125,-925.5 125,-906.5 0,-906.5"/>
<text text-anchor="middle" x="62.5" y="-913.5" font-family="Helvetica,sans-Serif" font-size="10.00">multi_index_container</text>
</a>
</g>
</g>
<!-- Node6&#45;&gt;Node5 -->
<g id="edge5" class="edge">
<title>Node6&#45;&gt;Node5</title>
<path fill="none" stroke="orange" stroke-dasharray="5,2" d="M64.47,-936.07C69.68,-1039.75 95.84,-1511.4 143,-1554 393.52,-1780.3 844.25,-1669.09 1034.47,-1607.56"/>
<polygon fill="orange" stroke="orange" points="67.95,-935.59 63.96,-925.77 60.96,-935.93 67.95,-935.59"/>
<text text-anchor="start" x="423" y="-1725" font-family="Helvetica,sans-Serif" font-size="10.00"> &lt; UIdTypeMap, indexed</text>
<text text-anchor="start" x="423" y="-1714" font-family="Helvetica,sans-Serif" font-size="10.00">_by&lt; hashed_unique&lt; member</text>
<text text-anchor="start" x="423" y="-1703" font-family="Helvetica,sans-Serif" font-size="10.00">&lt; UIdTypeMap, boost::typeindex</text>
<text text-anchor="middle" x="535.5" y="-1692" font-family="Helvetica,sans-Serif" font-size="10.00">::type_index, &amp;UIdTypeMap::classIdx &gt; &gt; &gt; &gt;</text>
</g>
<!-- Node24 -->
<g id="node24" class="node">
<title>Node24</title>
<g id="a_node24"><a xlink:title=" ">
<polygon fill="white" stroke="#bfbfbf" points="1320,-1258.5 1320,-1453.5 2121,-1453.5 2121,-1258.5 1320,-1258.5"/>
<text text-anchor="start" x="1328" y="-1441.5" font-family="Helvetica,sans-Serif" font-size="10.00">multi_index_container</text>
<text text-anchor="start" x="1328" y="-1430.5" font-family="Helvetica,sans-Serif" font-size="10.00">&lt; FieldEntityEntFiniteElement</text>
<text text-anchor="start" x="1328" y="-1419.5" font-family="Helvetica,sans-Serif" font-size="10.00">AdjacencyMap, indexed_by&lt;</text>
<text text-anchor="start" x="1328" y="-1408.5" font-family="Helvetica,sans-Serif" font-size="10.00"> ordered_unique&lt; tag&lt; Composite</text>
<text text-anchor="start" x="1328" y="-1397.5" font-family="Helvetica,sans-Serif" font-size="10.00">_Unique_mi_tag &gt;, composite_key</text>
<text text-anchor="start" x="1328" y="-1386.5" font-family="Helvetica,sans-Serif" font-size="10.00">&lt; FieldEntityEntFiniteElementAdjacencyMap,</text>
<text text-anchor="start" x="1328" y="-1375.5" font-family="Helvetica,sans-Serif" font-size="10.00"> const_mem_fun&lt; FieldEntityEntFiniteElementAdjacency</text>
<text text-anchor="start" x="1328" y="-1364.5" font-family="Helvetica,sans-Serif" font-size="10.00">Map, UId, &amp;FieldEntityEntFiniteElementAdjacencyMap</text>
<text text-anchor="start" x="1328" y="-1353.5" font-family="Helvetica,sans-Serif" font-size="10.00">::getEntUniqueId &gt;, const_mem_fun&lt; FieldEntityEntFiniteElementAdjacency</text>
<text text-anchor="start" x="1328" y="-1342.5" font-family="Helvetica,sans-Serif" font-size="10.00">Map, UId, &amp;FieldEntityEntFiniteElementAdjacencyMap::getFeUniqueId</text>
<text text-anchor="start" x="1328" y="-1331.5" font-family="Helvetica,sans-Serif" font-size="10.00"> &gt; &gt; &gt;, ordered_non_unique&lt; tag&lt; Unique_mi_tag &gt;, const_mem_fun</text>
<text text-anchor="start" x="1328" y="-1320.5" font-family="Helvetica,sans-Serif" font-size="10.00">&lt; FieldEntityEntFiniteElementAdjacencyMap, UId, &amp;FieldEntityEntFiniteElementAdjacencyMap</text>
<text text-anchor="start" x="1328" y="-1309.5" font-family="Helvetica,sans-Serif" font-size="10.00">::getEntUniqueId &gt; &gt;, ordered_non_unique&lt; tag&lt; FE_Unique_mi_tag &gt;, const_mem_fun</text>
<text text-anchor="start" x="1328" y="-1298.5" font-family="Helvetica,sans-Serif" font-size="10.00">&lt; FieldEntityEntFiniteElementAdjacencyMap, UId, &amp;FieldEntityEntFiniteElementAdjacencyMap</text>
<text text-anchor="start" x="1328" y="-1287.5" font-family="Helvetica,sans-Serif" font-size="10.00">::getFeUniqueId &gt; &gt;, ordered_non_unique&lt; tag&lt; FEEnt_mi_tag &gt;, const_mem_fun&lt; FieldEntityEntFiniteElementAdjacency</text>
<text text-anchor="start" x="1328" y="-1276.5" font-family="Helvetica,sans-Serif" font-size="10.00">Map, EntityHandle, &amp;FieldEntityEntFiniteElementAdjacencyMap::getFeHandle &gt; &gt;, ordered_non_unique&lt; tag</text>
<text text-anchor="middle" x="1720.5" y="-1265.5" font-family="Helvetica,sans-Serif" font-size="10.00">&lt; Ent_mi_tag &gt;, const_mem_fun&lt; FieldEntityEntFiniteElementAdjacencyMap, EntityHandle, &amp;FieldEntityEntFiniteElementAdjacencyMap::getEntHandle &gt; &gt; &gt; &gt;</text>
</a>
</g>
</g>
<!-- Node6&#45;&gt;Node24 -->
<g id="edge28" class="edge">
<title>Node6&#45;&gt;Node24</title>
<path fill="none" stroke="orange" stroke-dasharray="5,2" d="M66.11,-935.78C74.36,-995.34 101.83,-1171.29 143,-1209 309.27,-1361.32 909.91,-1378.78 1319.89,-1371.68"/>
<polygon fill="orange" stroke="orange" points="69.56,-935.22 64.75,-925.78 62.62,-936.16 69.56,-935.22"/>
<text text-anchor="start" x="143" y="-1536" font-family="Helvetica,sans-Serif" font-size="10.00"> &lt; FieldEntityEntFiniteElement</text>
<text text-anchor="start" x="143" y="-1525" font-family="Helvetica,sans-Serif" font-size="10.00">AdjacencyMap, indexed_by</text>
<text text-anchor="start" x="143" y="-1514" font-family="Helvetica,sans-Serif" font-size="10.00">&lt; ordered_unique&lt; tag&lt; Composite</text>
<text text-anchor="start" x="143" y="-1503" font-family="Helvetica,sans-Serif" font-size="10.00">_Unique_mi_tag &gt;, composite_key</text>
<text text-anchor="start" x="143" y="-1492" font-family="Helvetica,sans-Serif" font-size="10.00">&lt; FieldEntityEntFiniteElementAdjacencyMap,</text>
<text text-anchor="start" x="143" y="-1481" font-family="Helvetica,sans-Serif" font-size="10.00"> const_mem_fun&lt; FieldEntityEntFiniteElementAdjacency</text>
<text text-anchor="start" x="143" y="-1470" font-family="Helvetica,sans-Serif" font-size="10.00">Map, UId, &amp;FieldEntityEntFiniteElementAdjacencyMap</text>
<text text-anchor="start" x="143" y="-1459" font-family="Helvetica,sans-Serif" font-size="10.00">::getEntUniqueId &gt;, const_mem_fun&lt; FieldEntityEntFiniteElementAdjacency</text>
<text text-anchor="start" x="143" y="-1448" font-family="Helvetica,sans-Serif" font-size="10.00">Map, UId, &amp;FieldEntityEntFiniteElementAdjacencyMap::getFeUniqueId</text>
<text text-anchor="start" x="143" y="-1437" font-family="Helvetica,sans-Serif" font-size="10.00"> &gt; &gt; &gt;, ordered_non_unique&lt; tag&lt; Unique_mi_tag &gt;, const_mem_fun</text>
<text text-anchor="start" x="143" y="-1426" font-family="Helvetica,sans-Serif" font-size="10.00">&lt; FieldEntityEntFiniteElementAdjacencyMap, UId, &amp;FieldEntityEntFiniteElementAdjacencyMap</text>
<text text-anchor="start" x="143" y="-1415" font-family="Helvetica,sans-Serif" font-size="10.00">::getEntUniqueId &gt; &gt;, ordered_non_unique&lt; tag&lt; FE_Unique_mi_tag &gt;, const_mem_fun</text>
<text text-anchor="start" x="143" y="-1404" font-family="Helvetica,sans-Serif" font-size="10.00">&lt; FieldEntityEntFiniteElementAdjacencyMap, UId, &amp;FieldEntityEntFiniteElementAdjacencyMap</text>
<text text-anchor="start" x="143" y="-1393" font-family="Helvetica,sans-Serif" font-size="10.00">::getFeUniqueId &gt; &gt;, ordered_non_unique&lt; tag&lt; FEEnt_mi_tag &gt;, const_mem_fun&lt; FieldEntityEntFiniteElementAdjacency</text>
<text text-anchor="start" x="143" y="-1382" font-family="Helvetica,sans-Serif" font-size="10.00">Map, EntityHandle, &amp;FieldEntityEntFiniteElementAdjacencyMap::getFeHandle &gt; &gt;, ordered_non_unique&lt; tag</text>
<text text-anchor="middle" x="535.5" y="-1371" font-family="Helvetica,sans-Serif" font-size="10.00">&lt; Ent_mi_tag &gt;, const_mem_fun&lt; FieldEntityEntFiniteElementAdjacencyMap, EntityHandle, &amp;FieldEntityEntFiniteElementAdjacencyMap::getEntHandle &gt; &gt; &gt; &gt;</text>
</g>
<!-- Node26 -->
<g id="node26" class="node">
<title>Node26</title>
<g id="a_node26"><a xlink:title=" ">
<polygon fill="white" stroke="#bfbfbf" points="2359,-1081 2359,-1243 2645,-1243 2645,-1081 2359,-1081"/>
<text text-anchor="start" x="2367" y="-1231" font-family="Helvetica,sans-Serif" font-size="10.00">multi_index_container</text>
<text text-anchor="start" x="2367" y="-1220" font-family="Helvetica,sans-Serif" font-size="10.00">&lt; boost::shared_ptr&lt;</text>
<text text-anchor="start" x="2367" y="-1209" font-family="Helvetica,sans-Serif" font-size="10.00"> Field &gt;, indexed_by&lt;</text>
<text text-anchor="start" x="2367" y="-1198" font-family="Helvetica,sans-Serif" font-size="10.00"> hashed_unique&lt; tag&lt; BitFieldId</text>
<text text-anchor="start" x="2367" y="-1187" font-family="Helvetica,sans-Serif" font-size="10.00">_mi_tag &gt;, const_mem_fun&lt; Field,</text>
<text text-anchor="start" x="2367" y="-1176" font-family="Helvetica,sans-Serif" font-size="10.00"> const BitFieldId &amp;, &amp;Field::getId</text>
<text text-anchor="start" x="2367" y="-1165" font-family="Helvetica,sans-Serif" font-size="10.00"> &gt;, HashBit&lt; BitFieldId &gt;, EqBit&lt;</text>
<text text-anchor="start" x="2367" y="-1154" font-family="Helvetica,sans-Serif" font-size="10.00"> BitFieldId &gt; &gt;, ordered_unique&lt; tag</text>
<text text-anchor="start" x="2367" y="-1143" font-family="Helvetica,sans-Serif" font-size="10.00">&lt; Meshset_mi_tag &gt;, member&lt; Field, EntityHandle,</text>
<text text-anchor="start" x="2367" y="-1132" font-family="Helvetica,sans-Serif" font-size="10.00"> &amp;Field::meshSet &gt; &gt;, ordered_unique&lt; tag&lt;</text>
<text text-anchor="start" x="2367" y="-1121" font-family="Helvetica,sans-Serif" font-size="10.00"> FieldName_mi_tag &gt;, const_mem_fun&lt; Field, boost</text>
<text text-anchor="start" x="2367" y="-1110" font-family="Helvetica,sans-Serif" font-size="10.00">::string_ref, &amp;Field::getNameRef &gt; &gt;, ordered_non</text>
<text text-anchor="start" x="2367" y="-1099" font-family="Helvetica,sans-Serif" font-size="10.00">_unique&lt; tag&lt; BitFieldId_space_mi_tag &gt;, const_mem</text>
<text text-anchor="middle" x="2502" y="-1088" font-family="Helvetica,sans-Serif" font-size="10.00">_fun&lt; Field, FieldSpace, &amp;Field::getSpace &gt; &gt; &gt; &gt;</text>
</a>
</g>
</g>
<!-- Node6&#45;&gt;Node26 -->
<g id="edge31" class="edge">
<title>Node6&#45;&gt;Node26</title>
<path fill="none" stroke="orange" stroke-dasharray="5,2" d="M66.35,-935.69C72.77,-972.14 91.99,-1049.71 143,-1086 357.27,-1238.43 1057.39,-1194.43 1320,-1208 1675.53,-1226.38 1765.65,-1229.43 2121,-1208 2199.94,-1203.24 2287.6,-1192.97 2358.81,-1183.33"/>
<polygon fill="orange" stroke="orange" points="69.8,-935.1 64.75,-925.79 62.89,-936.22 69.8,-935.1"/>
<text text-anchor="start" x="991.5" y="-1353" font-family="Helvetica,sans-Serif" font-size="10.00"> &lt; boost::shared_ptr</text>
<text text-anchor="start" x="991.5" y="-1342" font-family="Helvetica,sans-Serif" font-size="10.00">&lt; Field &gt;, indexed_by</text>
<text text-anchor="start" x="991.5" y="-1331" font-family="Helvetica,sans-Serif" font-size="10.00">&lt; hashed_unique&lt; tag&lt;</text>
<text text-anchor="start" x="991.5" y="-1320" font-family="Helvetica,sans-Serif" font-size="10.00"> BitFieldId_mi_tag &gt;, const</text>
<text text-anchor="start" x="991.5" y="-1309" font-family="Helvetica,sans-Serif" font-size="10.00">_mem_fun&lt; Field, const BitFieldId</text>
<text text-anchor="start" x="991.5" y="-1298" font-family="Helvetica,sans-Serif" font-size="10.00"> &amp;, &amp;Field::getId &gt;, HashBit&lt; BitFieldId</text>
<text text-anchor="start" x="991.5" y="-1287" font-family="Helvetica,sans-Serif" font-size="10.00"> &gt;, EqBit&lt; BitFieldId &gt; &gt;, ordered_unique</text>
<text text-anchor="start" x="991.5" y="-1276" font-family="Helvetica,sans-Serif" font-size="10.00">&lt; tag&lt; Meshset_mi_tag &gt;, member&lt; Field,</text>
<text text-anchor="start" x="991.5" y="-1265" font-family="Helvetica,sans-Serif" font-size="10.00"> EntityHandle, &amp;Field::meshSet &gt; &gt;, ordered</text>
<text text-anchor="start" x="991.5" y="-1254" font-family="Helvetica,sans-Serif" font-size="10.00">_unique&lt; tag&lt; FieldName_mi_tag &gt;, const_mem</text>
<text text-anchor="start" x="991.5" y="-1243" font-family="Helvetica,sans-Serif" font-size="10.00">_fun&lt; Field, boost::string_ref, &amp;Field::getNameRef</text>
<text text-anchor="start" x="991.5" y="-1232" font-family="Helvetica,sans-Serif" font-size="10.00"> &gt; &gt;, ordered_non_unique&lt; tag&lt; BitFieldId_space</text>
<text text-anchor="start" x="991.5" y="-1221" font-family="Helvetica,sans-Serif" font-size="10.00">_mi_tag &gt;, const_mem_fun&lt; Field, FieldSpace, &amp;Field</text>
<text text-anchor="middle" x="1124" y="-1210" font-family="Helvetica,sans-Serif" font-size="10.00">::getSpace &gt; &gt; &gt; &gt;</text>
</g>
<!-- Node27 -->
<g id="node27" class="node">
<title>Node27</title>
<g id="a_node27"><a xlink:title=" ">
<polygon fill="white" stroke="#bfbfbf" points="2807,-950 2807,-1112 3070,-1112 3070,-950 2807,-950"/>
<text text-anchor="start" x="2815" y="-1100" font-family="Helvetica,sans-Serif" font-size="10.00">multi_index_container</text>
<text text-anchor="start" x="2815" y="-1089" font-family="Helvetica,sans-Serif" font-size="10.00">&lt; boost::shared_ptr&lt;</text>
<text text-anchor="start" x="2815" y="-1078" font-family="Helvetica,sans-Serif" font-size="10.00"> FiniteElement &gt;, indexed</text>
<text text-anchor="start" x="2815" y="-1067" font-family="Helvetica,sans-Serif" font-size="10.00">_by&lt; hashed_unique&lt; tag&lt;</text>
<text text-anchor="start" x="2815" y="-1056" font-family="Helvetica,sans-Serif" font-size="10.00"> FiniteElement_Meshset_mi</text>
<text text-anchor="start" x="2815" y="-1045" font-family="Helvetica,sans-Serif" font-size="10.00">_tag &gt;, member&lt; FiniteElement,</text>
<text text-anchor="start" x="2815" y="-1034" font-family="Helvetica,sans-Serif" font-size="10.00"> EntityHandle, &amp;FiniteElement</text>
<text text-anchor="start" x="2815" y="-1023" font-family="Helvetica,sans-Serif" font-size="10.00">::meshset &gt; &gt;, hashed_unique&lt;</text>
<text text-anchor="start" x="2815" y="-1012" font-family="Helvetica,sans-Serif" font-size="10.00"> tag&lt; BitFEId_mi_tag &gt;, const_mem</text>
<text text-anchor="start" x="2815" y="-1001" font-family="Helvetica,sans-Serif" font-size="10.00">_fun&lt; FiniteElement, BitFEId, &amp;FiniteElement</text>
<text text-anchor="start" x="2815" y="-990" font-family="Helvetica,sans-Serif" font-size="10.00">::getId &gt;, HashBit&lt; BitFEId &gt;, EqBit&lt; BitFEId</text>
<text text-anchor="start" x="2815" y="-979" font-family="Helvetica,sans-Serif" font-size="10.00"> &gt; &gt;, ordered_unique&lt; tag&lt; FiniteElement_name</text>
<text text-anchor="start" x="2815" y="-968" font-family="Helvetica,sans-Serif" font-size="10.00">_mi_tag &gt;, const_mem_fun&lt; FiniteElement, boost</text>
<text text-anchor="middle" x="2938.5" y="-957" font-family="Helvetica,sans-Serif" font-size="10.00">::string_ref, &amp;FiniteElement::getNameRef &gt; &gt; &gt; &gt;</text>
</a>
</g>
</g>
<!-- Node6&#45;&gt;Node27 -->
<g id="edge33" class="edge">
<title>Node6&#45;&gt;Node27</title>
<path fill="none" stroke="orange" stroke-dasharray="5,2" d="M67.78,-935.59C76.02,-967.86 97.43,-1031.29 143,-1058 178.29,-1078.68 1717.4,-1047.43 2121,-1042 2363.04,-1038.75 2645.45,-1034.94 2806.69,-1032.76"/>
<polygon fill="orange" stroke="orange" points="71.12,-934.5 65.4,-925.58 64.31,-936.12 71.12,-934.5"/>
<text text-anchor="start" x="1597" y="-1189" font-family="Helvetica,sans-Serif" font-size="10.00"> &lt; boost::shared_ptr</text>
<text text-anchor="start" x="1597" y="-1178" font-family="Helvetica,sans-Serif" font-size="10.00">&lt; FiniteElement &gt;, indexed</text>
<text text-anchor="start" x="1597" y="-1167" font-family="Helvetica,sans-Serif" font-size="10.00">_by&lt; hashed_unique&lt; tag</text>
<text text-anchor="start" x="1597" y="-1156" font-family="Helvetica,sans-Serif" font-size="10.00">&lt; FiniteElement_Meshset_mi</text>
<text text-anchor="start" x="1597" y="-1145" font-family="Helvetica,sans-Serif" font-size="10.00">_tag &gt;, member&lt; FiniteElement,</text>
<text text-anchor="start" x="1597" y="-1134" font-family="Helvetica,sans-Serif" font-size="10.00"> EntityHandle, &amp;FiniteElement</text>
<text text-anchor="start" x="1597" y="-1123" font-family="Helvetica,sans-Serif" font-size="10.00">::meshset &gt; &gt;, hashed_unique&lt;</text>
<text text-anchor="start" x="1597" y="-1112" font-family="Helvetica,sans-Serif" font-size="10.00"> tag&lt; BitFEId_mi_tag &gt;, const_mem</text>
<text text-anchor="start" x="1597" y="-1101" font-family="Helvetica,sans-Serif" font-size="10.00">_fun&lt; FiniteElement, BitFEId, &amp;FiniteElement</text>
<text text-anchor="start" x="1597" y="-1090" font-family="Helvetica,sans-Serif" font-size="10.00">::getId &gt;, HashBit&lt; BitFEId &gt;, EqBit&lt; BitFEId</text>
<text text-anchor="start" x="1597" y="-1079" font-family="Helvetica,sans-Serif" font-size="10.00"> &gt; &gt;, ordered_unique&lt; tag&lt; FiniteElement_name</text>
<text text-anchor="start" x="1597" y="-1068" font-family="Helvetica,sans-Serif" font-size="10.00">_mi_tag &gt;, const_mem_fun&lt; FiniteElement, boost</text>
<text text-anchor="middle" x="1720.5" y="-1057" font-family="Helvetica,sans-Serif" font-size="10.00">::string_ref, &amp;FiniteElement::getNameRef &gt; &gt; &gt; &gt;</text>
</g>
<!-- Node29 -->
<g id="node29" class="node">
<title>Node29</title>
<g id="a_node29"><a xlink:title=" ">
<polygon fill="white" stroke="#bfbfbf" points="1598,-911.5 1598,-1040.5 1843,-1040.5 1843,-911.5 1598,-911.5"/>
<text text-anchor="start" x="1606" y="-1028.5" font-family="Helvetica,sans-Serif" font-size="10.00">multi_index_container</text>
<text text-anchor="start" x="1606" y="-1017.5" font-family="Helvetica,sans-Serif" font-size="10.00">&lt; boost::shared_ptr&lt;</text>
<text text-anchor="start" x="1606" y="-1006.5" font-family="Helvetica,sans-Serif" font-size="10.00"> EntFiniteElement &gt;, indexed</text>
<text text-anchor="start" x="1606" y="-995.5" font-family="Helvetica,sans-Serif" font-size="10.00">_by&lt; ordered_unique&lt; tag&lt;</text>
<text text-anchor="start" x="1606" y="-984.5" font-family="Helvetica,sans-Serif" font-size="10.00"> Unique_mi_tag &gt;, const_mem</text>
<text text-anchor="start" x="1606" y="-973.5" font-family="Helvetica,sans-Serif" font-size="10.00">_fun&lt; EntFiniteElement, UId,</text>
<text text-anchor="start" x="1606" y="-962.5" font-family="Helvetica,sans-Serif" font-size="10.00"> &amp;EntFiniteElement::getLocalUniqueId</text>
<text text-anchor="start" x="1606" y="-951.5" font-family="Helvetica,sans-Serif" font-size="10.00"> &gt; &gt;, ordered_non_unique&lt; tag&lt; Ent</text>
<text text-anchor="start" x="1606" y="-940.5" font-family="Helvetica,sans-Serif" font-size="10.00">_mi_tag &gt;, const_mem_fun&lt; EntFiniteElement</text>
<text text-anchor="start" x="1606" y="-929.5" font-family="Helvetica,sans-Serif" font-size="10.00">::interface_type_RefEntity, EntityHandle,</text>
<text text-anchor="middle" x="1720.5" y="-918.5" font-family="Helvetica,sans-Serif" font-size="10.00"> &amp;EntFiniteElement::getEnt &gt; &gt; &gt; &gt;</text>
</a>
</g>
</g>
<!-- Node6&#45;&gt;Node29 -->
<g id="edge36" class="edge">
<title>Node6&#45;&gt;Node29</title>
<path fill="none" stroke="orange" stroke-dasharray="5,2" d="M135.37,-915.39C337.33,-913.99 897.33,-912.37 928,-937 954.05,-957.93 919.69,-989.39 946,-1010 1070.55,-1107.57 1143.91,-1016.43 1302,-1010 1401.73,-1005.95 1514.53,-996.47 1597.72,-988.54"/>
<polygon fill="orange" stroke="orange" points="135.14,-911.89 125.16,-915.46 135.19,-918.89 135.14,-911.89"/>
<text text-anchor="start" x="436" y="-1050" font-family="Helvetica,sans-Serif" font-size="10.00"> &lt; boost::shared_ptr</text>
<text text-anchor="start" x="436" y="-1039" font-family="Helvetica,sans-Serif" font-size="10.00">&lt; EntFiniteElement &gt;</text>
<text text-anchor="start" x="436" y="-1028" font-family="Helvetica,sans-Serif" font-size="10.00">, indexed_by&lt; ordered</text>
<text text-anchor="start" x="436" y="-1017" font-family="Helvetica,sans-Serif" font-size="10.00">_unique&lt; tag&lt; Unique_mi</text>
<text text-anchor="start" x="436" y="-1006" font-family="Helvetica,sans-Serif" font-size="10.00">_tag &gt;, const_mem_fun&lt; EntFinite</text>
<text text-anchor="start" x="436" y="-995" font-family="Helvetica,sans-Serif" font-size="10.00">Element, UId, &amp;EntFiniteElement</text>
<text text-anchor="start" x="436" y="-984" font-family="Helvetica,sans-Serif" font-size="10.00">::getLocalUniqueId &gt; &gt;, ordered</text>
<text text-anchor="start" x="436" y="-973" font-family="Helvetica,sans-Serif" font-size="10.00">_non_unique&lt; tag&lt; Ent_mi_tag &gt;,</text>
<text text-anchor="start" x="436" y="-962" font-family="Helvetica,sans-Serif" font-size="10.00"> const_mem_fun&lt; EntFiniteElement</text>
<text text-anchor="start" x="436" y="-951" font-family="Helvetica,sans-Serif" font-size="10.00">::interface_type_RefEntity, EntityHandle,</text>
<text text-anchor="middle" x="535.5" y="-940" font-family="Helvetica,sans-Serif" font-size="10.00"> &amp;EntFiniteElement::getEnt &gt; &gt; &gt; &gt;</text>
</g>
<!-- Node31 -->
<g id="node31" class="node">
<title>Node31</title>
<g id="a_node31"><a xlink:title=" ">
<polygon fill="white" stroke="#bfbfbf" points="2139,-831.5 2139,-960.5 2341,-960.5 2341,-831.5 2139,-831.5"/>
<text text-anchor="start" x="2147" y="-948.5" font-family="Helvetica,sans-Serif" font-size="10.00">multi_index_container</text>
<text text-anchor="start" x="2147" y="-937.5" font-family="Helvetica,sans-Serif" font-size="10.00">&lt; boost::shared_ptr&lt;</text>
<text text-anchor="start" x="2147" y="-926.5" font-family="Helvetica,sans-Serif" font-size="10.00"> DofEntity &gt;, indexed</text>
<text text-anchor="start" x="2147" y="-915.5" font-family="Helvetica,sans-Serif" font-size="10.00">_by&lt; ordered_unique&lt; tag</text>
<text text-anchor="start" x="2147" y="-904.5" font-family="Helvetica,sans-Serif" font-size="10.00">&lt; Unique_mi_tag &gt;, const</text>
<text text-anchor="start" x="2147" y="-893.5" font-family="Helvetica,sans-Serif" font-size="10.00">_mem_fun&lt; DofEntity, UId,</text>
<text text-anchor="start" x="2147" y="-882.5" font-family="Helvetica,sans-Serif" font-size="10.00"> &amp;DofEntity::getLocalUniqueId</text>
<text text-anchor="start" x="2147" y="-871.5" font-family="Helvetica,sans-Serif" font-size="10.00"> &gt; &gt;, ordered_non_unique&lt; tag</text>
<text text-anchor="start" x="2147" y="-860.5" font-family="Helvetica,sans-Serif" font-size="10.00">&lt; Ent_mi_tag &gt;, const_mem_fun</text>
<text text-anchor="start" x="2147" y="-849.5" font-family="Helvetica,sans-Serif" font-size="10.00">&lt; DofEntity, EntityHandle, &amp;DofEntity</text>
<text text-anchor="middle" x="2240" y="-838.5" font-family="Helvetica,sans-Serif" font-size="10.00">::getEnt &gt; &gt; &gt; &gt;</text>
</a>
</g>
</g>
<!-- Node6&#45;&gt;Node31 -->
<g id="edge39" class="edge">
<title>Node6&#45;&gt;Node31</title>
<path fill="none" stroke="orange" stroke-dasharray="5,2" d="M135.26,-910.39C137.87,-910.25 140.46,-910.12 143,-910 499.56,-893.45 589.07,-899.11 946,-896 1390.73,-892.12 1921.54,-894.25 2138.82,-895.41"/>
<polygon fill="orange" stroke="orange" points="134.88,-906.91 125.11,-911 135.3,-913.9 134.88,-906.91"/>
<text text-anchor="start" x="1031" y="-998" font-family="Helvetica,sans-Serif" font-size="10.00"> &lt; boost::shared_ptr</text>
<text text-anchor="start" x="1031" y="-987" font-family="Helvetica,sans-Serif" font-size="10.00">&lt; DofEntity &gt;, indexed</text>
<text text-anchor="start" x="1031" y="-976" font-family="Helvetica,sans-Serif" font-size="10.00">_by&lt; ordered_unique&lt; tag</text>
<text text-anchor="start" x="1031" y="-965" font-family="Helvetica,sans-Serif" font-size="10.00">&lt; Unique_mi_tag &gt;, const</text>
<text text-anchor="start" x="1031" y="-954" font-family="Helvetica,sans-Serif" font-size="10.00">_mem_fun&lt; DofEntity, UId,</text>
<text text-anchor="start" x="1031" y="-943" font-family="Helvetica,sans-Serif" font-size="10.00"> &amp;DofEntity::getLocalUniqueId</text>
<text text-anchor="start" x="1031" y="-932" font-family="Helvetica,sans-Serif" font-size="10.00"> &gt; &gt;, ordered_non_unique&lt; tag</text>
<text text-anchor="start" x="1031" y="-921" font-family="Helvetica,sans-Serif" font-size="10.00">&lt; Ent_mi_tag &gt;, const_mem_fun</text>
<text text-anchor="start" x="1031" y="-910" font-family="Helvetica,sans-Serif" font-size="10.00">&lt; DofEntity, EntityHandle, &amp;DofEntity</text>
<text text-anchor="middle" x="1124" y="-899" font-family="Helvetica,sans-Serif" font-size="10.00">::getEnt &gt; &gt; &gt; &gt;</text>
</g>
<!-- Node33 -->
<g id="node33" class="node">
<title>Node33</title>
<g id="a_node33"><a xlink:title=" ">
<polygon fill="white" stroke="#bfbfbf" points="2418.5,-770 2418.5,-866 2585.5,-866 2585.5,-770 2418.5,-770"/>
<text text-anchor="start" x="2426.5" y="-854" font-family="Helvetica,sans-Serif" font-size="10.00">multi_index_container</text>
<text text-anchor="start" x="2426.5" y="-843" font-family="Helvetica,sans-Serif" font-size="10.00">&lt; boost::shared_ptr&lt;</text>
<text text-anchor="start" x="2426.5" y="-832" font-family="Helvetica,sans-Serif" font-size="10.00"> RefElement &gt;, indexed</text>
<text text-anchor="start" x="2426.5" y="-821" font-family="Helvetica,sans-Serif" font-size="10.00">_by&lt; ordered_unique&lt; tag</text>
<text text-anchor="start" x="2426.5" y="-810" font-family="Helvetica,sans-Serif" font-size="10.00">&lt; Ent_mi_tag &gt;, const_mem</text>
<text text-anchor="start" x="2426.5" y="-799" font-family="Helvetica,sans-Serif" font-size="10.00">_fun&lt; RefElement::interface</text>
<text text-anchor="start" x="2426.5" y="-788" font-family="Helvetica,sans-Serif" font-size="10.00">_type_RefEntity, EntityHandle,</text>
<text text-anchor="middle" x="2502" y="-777" font-family="Helvetica,sans-Serif" font-size="10.00"> &amp;RefElement::getEnt &gt; &gt; &gt; &gt;</text>
</a>
</g>
</g>
<!-- Node6&#45;&gt;Node33 -->
<g id="edge42" class="edge">
<title>Node6&#45;&gt;Node33</title>
<path fill="none" stroke="orange" stroke-dasharray="5,2" d="M100.17,-903.3C113.51,-899.11 128.8,-894.81 143,-892 494.77,-822.29 587.82,-830.58 946,-813 1104.03,-805.25 1160.48,-742.24 1302,-813 1313.93,-818.96 1308.07,-831.04 1320,-837 1399.6,-876.8 2037.32,-867.3 2121,-837 2130.79,-833.45 2129.23,-825.6 2139,-822 2230.12,-788.44 2343.11,-793.93 2418.38,-803.56"/>
<polygon fill="orange" stroke="orange" points="98.84,-900.05 90.4,-906.45 100.99,-906.71 98.84,-900.05"/>
<text text-anchor="start" x="1048.5" y="-882" font-family="Helvetica,sans-Serif" font-size="10.00"> &lt; boost::shared_ptr</text>
<text text-anchor="start" x="1048.5" y="-871" font-family="Helvetica,sans-Serif" font-size="10.00">&lt; RefElement &gt;, indexed</text>
<text text-anchor="start" x="1048.5" y="-860" font-family="Helvetica,sans-Serif" font-size="10.00">_by&lt; ordered_unique&lt; tag</text>
<text text-anchor="start" x="1048.5" y="-849" font-family="Helvetica,sans-Serif" font-size="10.00">&lt; Ent_mi_tag &gt;, const_mem</text>
<text text-anchor="start" x="1048.5" y="-838" font-family="Helvetica,sans-Serif" font-size="10.00">_fun&lt; RefElement::interface</text>
<text text-anchor="start" x="1048.5" y="-827" font-family="Helvetica,sans-Serif" font-size="10.00">_type_RefEntity, EntityHandle,</text>
<text text-anchor="middle" x="1124" y="-816" font-family="Helvetica,sans-Serif" font-size="10.00"> &amp;RefElement::getEnt &gt; &gt; &gt; &gt;</text>
</g>
<!-- Node35 -->
<g id="node35" class="node">
<title>Node35</title>
<g id="a_node35"><a xlink:title=" ">
<polygon fill="white" stroke="#bfbfbf" points="2823.5,-715 2823.5,-833 3053.5,-833 3053.5,-715 2823.5,-715"/>
<text text-anchor="start" x="2831.5" y="-821" font-family="Helvetica,sans-Serif" font-size="10.00">multi_index_container</text>
<text text-anchor="start" x="2831.5" y="-810" font-family="Helvetica,sans-Serif" font-size="10.00">&lt; boost::shared_ptr&lt;</text>
<text text-anchor="start" x="2831.5" y="-799" font-family="Helvetica,sans-Serif" font-size="10.00"> FieldEntity &gt;, indexed</text>
<text text-anchor="start" x="2831.5" y="-788" font-family="Helvetica,sans-Serif" font-size="10.00">_by&lt; ordered_unique&lt; tag</text>
<text text-anchor="start" x="2831.5" y="-777" font-family="Helvetica,sans-Serif" font-size="10.00">&lt; Unique_mi_tag &gt;, member</text>
<text text-anchor="start" x="2831.5" y="-766" font-family="Helvetica,sans-Serif" font-size="10.00">&lt; FieldEntity, UId, &amp;FieldEntity</text>
<text text-anchor="start" x="2831.5" y="-755" font-family="Helvetica,sans-Serif" font-size="10.00">::localUId &gt; &gt;, ordered_non_unique</text>
<text text-anchor="start" x="2831.5" y="-744" font-family="Helvetica,sans-Serif" font-size="10.00">&lt; tag&lt; Ent_mi_tag &gt;, const_mem_fun</text>
<text text-anchor="start" x="2831.5" y="-733" font-family="Helvetica,sans-Serif" font-size="10.00">&lt; FieldEntity::interface_type_RefEntity,</text>
<text text-anchor="middle" x="2938.5" y="-722" font-family="Helvetica,sans-Serif" font-size="10.00"> EntityHandle, &amp;FieldEntity::getEnt &gt; &gt; &gt; &gt;</text>
</a>
</g>
</g>
<!-- Node6&#45;&gt;Node35 -->
<g id="edge49" class="edge">
<title>Node6&#45;&gt;Node35</title>
<path fill="none" stroke="orange" stroke-dasharray="5,2" d="M71.32,-897.16C82.87,-872.05 107.08,-828.52 143,-809 200.57,-777.72 1254.51,-736.08 1320,-734 1675.82,-722.67 1765.11,-725.29 2121,-734 2371.77,-740.14 2665.48,-756.87 2823.3,-766.64"/>
<polygon fill="orange" stroke="orange" points="68.09,-895.82 67.27,-906.38 74.5,-898.63 68.09,-895.82"/>
<text text-anchor="start" x="1613.5" y="-825" font-family="Helvetica,sans-Serif" font-size="10.00"> &lt; boost::shared_ptr</text>
<text text-anchor="start" x="1613.5" y="-814" font-family="Helvetica,sans-Serif" font-size="10.00">&lt; FieldEntity &gt;, indexed</text>
<text text-anchor="start" x="1613.5" y="-803" font-family="Helvetica,sans-Serif" font-size="10.00">_by&lt; ordered_unique&lt; tag</text>
<text text-anchor="start" x="1613.5" y="-792" font-family="Helvetica,sans-Serif" font-size="10.00">&lt; Unique_mi_tag &gt;, member</text>
<text text-anchor="start" x="1613.5" y="-781" font-family="Helvetica,sans-Serif" font-size="10.00">&lt; FieldEntity, UId, &amp;FieldEntity</text>
<text text-anchor="start" x="1613.5" y="-770" font-family="Helvetica,sans-Serif" font-size="10.00">::localUId &gt; &gt;, ordered_non_unique</text>
<text text-anchor="start" x="1613.5" y="-759" font-family="Helvetica,sans-Serif" font-size="10.00">&lt; tag&lt; Ent_mi_tag &gt;, const_mem_fun</text>
<text text-anchor="start" x="1613.5" y="-748" font-family="Helvetica,sans-Serif" font-size="10.00">&lt; FieldEntity::interface_type_RefEntity,</text>
<text text-anchor="middle" x="1720.5" y="-737" font-family="Helvetica,sans-Serif" font-size="10.00"> EntityHandle, &amp;FieldEntity::getEnt &gt; &gt; &gt; &gt;</text>
</g>
<!-- Node38 -->
<g id="node38" class="node">
<title>Node38</title>
<g id="a_node38"><a xlink:title=" ">
<polygon fill="white" stroke="#bfbfbf" points="1596,-573 1596,-713 1845,-713 1845,-573 1596,-573"/>
<text text-anchor="start" x="1604" y="-701" font-family="Helvetica,sans-Serif" font-size="10.00">multi_index_container</text>
<text text-anchor="start" x="1604" y="-690" font-family="Helvetica,sans-Serif" font-size="10.00">&lt; Problem, indexed_by</text>
<text text-anchor="start" x="1604" y="-679" font-family="Helvetica,sans-Serif" font-size="10.00">&lt; ordered_unique&lt; tag</text>
<text text-anchor="start" x="1604" y="-668" font-family="Helvetica,sans-Serif" font-size="10.00">&lt; Meshset_mi_tag &gt;, member</text>
<text text-anchor="start" x="1604" y="-657" font-family="Helvetica,sans-Serif" font-size="10.00">&lt; Problem, EntityHandle, &amp;Problem</text>
<text text-anchor="start" x="1604" y="-646" font-family="Helvetica,sans-Serif" font-size="10.00">::meshset &gt; &gt;, hashed_unique&lt; tag</text>
<text text-anchor="start" x="1604" y="-635" font-family="Helvetica,sans-Serif" font-size="10.00">&lt; BitProblemId_mi_tag &gt;, const_mem</text>
<text text-anchor="start" x="1604" y="-624" font-family="Helvetica,sans-Serif" font-size="10.00">_fun&lt; Problem, BitProblemId, &amp;Problem</text>
<text text-anchor="start" x="1604" y="-613" font-family="Helvetica,sans-Serif" font-size="10.00">::getId &gt;, HashBit&lt; BitProblemId &gt;, EqBit</text>
<text text-anchor="start" x="1604" y="-602" font-family="Helvetica,sans-Serif" font-size="10.00">&lt; BitProblemId &gt; &gt;, hashed_unique&lt; tag&lt;</text>
<text text-anchor="start" x="1604" y="-591" font-family="Helvetica,sans-Serif" font-size="10.00"> Problem_mi_tag &gt;, const_mem_fun&lt; Problem,</text>
<text text-anchor="middle" x="1720.5" y="-580" font-family="Helvetica,sans-Serif" font-size="10.00"> std::string, &amp;Problem::getName &gt; &gt; &gt; &gt;</text>
</a>
</g>
</g>
<!-- Node6&#45;&gt;Node38 -->
<g id="edge53" class="edge">
<title>Node6&#45;&gt;Node38</title>
<path fill="none" stroke="orange" stroke-dasharray="5,2" d="M65.77,-896.29C73.15,-836.14 98.56,-656.99 143,-623 200.34,-579.14 1234.13,-621.17 1595.8,-637.3"/>
<polygon fill="orange" stroke="orange" points="62.28,-896.02 64.57,-906.36 69.23,-896.85 62.28,-896.02"/>
<text text-anchor="start" x="401.5" y="-736" font-family="Helvetica,sans-Serif" font-size="10.00"> &lt; Problem, indexed</text>
<text text-anchor="start" x="401.5" y="-725" font-family="Helvetica,sans-Serif" font-size="10.00">_by&lt; ordered_unique</text>
<text text-anchor="start" x="401.5" y="-714" font-family="Helvetica,sans-Serif" font-size="10.00">&lt; tag&lt; Meshset_mi_tag</text>
<text text-anchor="start" x="401.5" y="-703" font-family="Helvetica,sans-Serif" font-size="10.00"> &gt;, member&lt; Problem, EntityHandle,</text>
<text text-anchor="start" x="401.5" y="-692" font-family="Helvetica,sans-Serif" font-size="10.00"> &amp;Problem::meshset &gt; &gt;, hashed</text>
<text text-anchor="start" x="401.5" y="-681" font-family="Helvetica,sans-Serif" font-size="10.00">_unique&lt; tag&lt; BitProblemId_mi_tag</text>
<text text-anchor="start" x="401.5" y="-670" font-family="Helvetica,sans-Serif" font-size="10.00"> &gt;, const_mem_fun&lt; Problem, BitProblemId,</text>
<text text-anchor="start" x="401.5" y="-659" font-family="Helvetica,sans-Serif" font-size="10.00"> &amp;Problem::getId &gt;, HashBit&lt; BitProblemId</text>
<text text-anchor="start" x="401.5" y="-648" font-family="Helvetica,sans-Serif" font-size="10.00"> &gt;, EqBit&lt; BitProblemId &gt; &gt;, hashed_unique</text>
<text text-anchor="start" x="401.5" y="-637" font-family="Helvetica,sans-Serif" font-size="10.00">&lt; tag&lt; Problem_mi_tag &gt;, const_mem_fun&lt; Problem,</text>
<text text-anchor="middle" x="535.5" y="-626" font-family="Helvetica,sans-Serif" font-size="10.00"> std::string, &amp;Problem::getName &gt; &gt; &gt; &gt;</text>
</g>
<!-- Node39 -->
<g id="node39" class="node">
<title>Node39</title>
<g id="a_node39"><a xlink:title=" ">
<polygon fill="white" stroke="#bfbfbf" points="946,-334.5 946,-551.5 1302,-551.5 1302,-334.5 946,-334.5"/>
<text text-anchor="start" x="954" y="-539.5" font-family="Helvetica,sans-Serif" font-size="10.00">multi_index_container</text>
<text text-anchor="start" x="954" y="-528.5" font-family="Helvetica,sans-Serif" font-size="10.00">&lt; boost::shared_ptr&lt;</text>
<text text-anchor="start" x="954" y="-517.5" font-family="Helvetica,sans-Serif" font-size="10.00"> RefEntity &gt;, indexed</text>
<text text-anchor="start" x="954" y="-506.5" font-family="Helvetica,sans-Serif" font-size="10.00">_by&lt; ordered_unique&lt; tag</text>
<text text-anchor="start" x="954" y="-495.5" font-family="Helvetica,sans-Serif" font-size="10.00">&lt; Ent_mi_tag &gt;, const_mem</text>
<text text-anchor="start" x="954" y="-484.5" font-family="Helvetica,sans-Serif" font-size="10.00">_fun&lt; RefEntity, EntityHandle,</text>
<text text-anchor="start" x="954" y="-473.5" font-family="Helvetica,sans-Serif" font-size="10.00"> &amp;RefEntity::getEnt &gt; &gt;, ordered</text>
<text text-anchor="start" x="954" y="-462.5" font-family="Helvetica,sans-Serif" font-size="10.00">_non_unique&lt; tag&lt; Ent_Ent_mi_tag</text>
<text text-anchor="start" x="954" y="-451.5" font-family="Helvetica,sans-Serif" font-size="10.00"> &gt;, const_mem_fun&lt; RefEntity, EntityHandle,</text>
<text text-anchor="start" x="954" y="-440.5" font-family="Helvetica,sans-Serif" font-size="10.00"> &amp;RefEntity::getParentEnt &gt; &gt;, ordered</text>
<text text-anchor="start" x="954" y="-429.5" font-family="Helvetica,sans-Serif" font-size="10.00">_non_unique&lt; tag&lt; Composite_EntType_and</text>
<text text-anchor="start" x="954" y="-418.5" font-family="Helvetica,sans-Serif" font-size="10.00">_ParentEntType_mi_tag &gt;, composite_key&lt; RefEntity,</text>
<text text-anchor="start" x="954" y="-407.5" font-family="Helvetica,sans-Serif" font-size="10.00"> const_mem_fun&lt; RefEntity, EntityType, &amp;RefEntity</text>
<text text-anchor="start" x="954" y="-396.5" font-family="Helvetica,sans-Serif" font-size="10.00">::getEntType &gt;, const_mem_fun&lt; RefEntity, EntityType,</text>
<text text-anchor="start" x="954" y="-385.5" font-family="Helvetica,sans-Serif" font-size="10.00"> &amp;RefEntity::getParentEntType &gt; &gt; &gt;, ordered_non_unique</text>
<text text-anchor="start" x="954" y="-374.5" font-family="Helvetica,sans-Serif" font-size="10.00">&lt; tag&lt; Composite_ParentEnt_And_EntType_mi_tag &gt;, composite</text>
<text text-anchor="start" x="954" y="-363.5" font-family="Helvetica,sans-Serif" font-size="10.00">_key&lt; RefEntity, const_mem_fun&lt; RefEntity, EntityType, &amp;RefEntity</text>
<text text-anchor="start" x="954" y="-352.5" font-family="Helvetica,sans-Serif" font-size="10.00">::getEntType &gt;, const_mem_fun&lt; RefEntity, EntityHandle, &amp;RefEntity</text>
<text text-anchor="middle" x="1124" y="-341.5" font-family="Helvetica,sans-Serif" font-size="10.00">::getParentEnt &gt; &gt; &gt; &gt; &gt;</text>
</a>
</g>
</g>
<!-- Node6&#45;&gt;Node39 -->
<g id="edge55" class="edge">
<title>Node6&#45;&gt;Node39</title>
<path fill="none" stroke="orange" stroke-dasharray="5,2" d="M63.31,-896.12C62.96,-809.65 66.48,-467.6 143,-402 364.73,-211.93 729.19,-294.93 945.64,-370.42"/>
<polygon fill="orange" stroke="orange" points="59.81,-896.4 63.38,-906.38 66.81,-896.35 59.81,-896.4"/>
<text text-anchor="start" x="365.5" y="-592" font-family="Helvetica,sans-Serif" font-size="10.00"> &lt; boost::shared_ptr</text>
<text text-anchor="start" x="365.5" y="-581" font-family="Helvetica,sans-Serif" font-size="10.00">&lt; RefEntity &gt;, indexed</text>
<text text-anchor="start" x="365.5" y="-570" font-family="Helvetica,sans-Serif" font-size="10.00">_by&lt; ordered_unique&lt; tag</text>
<text text-anchor="start" x="365.5" y="-559" font-family="Helvetica,sans-Serif" font-size="10.00">&lt; Ent_mi_tag &gt;, const_mem</text>
<text text-anchor="start" x="365.5" y="-548" font-family="Helvetica,sans-Serif" font-size="10.00">_fun&lt; RefEntity, EntityHandle,</text>
<text text-anchor="start" x="365.5" y="-537" font-family="Helvetica,sans-Serif" font-size="10.00"> &amp;RefEntity::getEnt &gt; &gt;, ordered</text>
<text text-anchor="start" x="365.5" y="-526" font-family="Helvetica,sans-Serif" font-size="10.00">_non_unique&lt; tag&lt; Ent_Ent_mi_tag</text>
<text text-anchor="start" x="365.5" y="-515" font-family="Helvetica,sans-Serif" font-size="10.00"> &gt;, const_mem_fun&lt; RefEntity, EntityHandle,</text>
<text text-anchor="start" x="365.5" y="-504" font-family="Helvetica,sans-Serif" font-size="10.00"> &amp;RefEntity::getParentEnt &gt; &gt;, ordered</text>
<text text-anchor="start" x="365.5" y="-493" font-family="Helvetica,sans-Serif" font-size="10.00">_non_unique&lt; tag&lt; Composite_EntType_and</text>
<text text-anchor="start" x="365.5" y="-482" font-family="Helvetica,sans-Serif" font-size="10.00">_ParentEntType_mi_tag &gt;, composite_key&lt; RefEntity,</text>
<text text-anchor="start" x="365.5" y="-471" font-family="Helvetica,sans-Serif" font-size="10.00"> const_mem_fun&lt; RefEntity, EntityType, &amp;RefEntity</text>
<text text-anchor="start" x="365.5" y="-460" font-family="Helvetica,sans-Serif" font-size="10.00">::getEntType &gt;, const_mem_fun&lt; RefEntity, EntityType,</text>
<text text-anchor="start" x="365.5" y="-449" font-family="Helvetica,sans-Serif" font-size="10.00"> &amp;RefEntity::getParentEntType &gt; &gt; &gt;, ordered_non_unique</text>
<text text-anchor="start" x="365.5" y="-438" font-family="Helvetica,sans-Serif" font-size="10.00">&lt; tag&lt; Composite_ParentEnt_And_EntType_mi_tag &gt;, composite</text>
<text text-anchor="start" x="365.5" y="-427" font-family="Helvetica,sans-Serif" font-size="10.00">_key&lt; RefEntity, const_mem_fun&lt; RefEntity, EntityType, &amp;RefEntity</text>
<text text-anchor="start" x="365.5" y="-416" font-family="Helvetica,sans-Serif" font-size="10.00">::getEntType &gt;, const_mem_fun&lt; RefEntity, EntityHandle, &amp;RefEntity</text>
<text text-anchor="middle" x="535.5" y="-405" font-family="Helvetica,sans-Serif" font-size="10.00">::getParentEnt &gt; &gt; &gt; &gt; &gt;</text>
</g>
<!-- Node7 -->
<g id="node7" class="node">
<title>Node7</title>
<g id="a_node7"><a xlink:title=" ">
<polygon fill="white" stroke="#bfbfbf" points="3186,-1481.5 3186,-1500.5 3215,-1500.5 3215,-1481.5 3186,-1481.5"/>
<text text-anchor="middle" x="3200.5" y="-1488.5" font-family="Helvetica,sans-Serif" font-size="10.00">int</text>
</a>
</g>
</g>
<!-- Node7&#45;&gt;Node1 -->
<g id="edge6" class="edge">
<title>Node7&#45;&gt;Node1</title>
<path fill="none" stroke="#9a32cd" stroke-dasharray="5,2" d="M3225.11,-1493.13C3251.04,-1495.36 3293.95,-1498.71 3331,-1500 3411.4,-1502.79 3431.63,-1503.49 3512,-1500 3614.51,-1495.55 3641.82,-1502.2 3742,-1480 3923.37,-1439.81 4129.68,-1347.43 4193.87,-1317.53"/>
<polygon fill="#9a32cd" stroke="#9a32cd" points="3225.36,-1489.64 3215.09,-1492.26 3224.75,-1496.62 3225.36,-1489.64"/>
<text text-anchor="middle" x="3840" y="-1478" font-family="Helvetica,sans-Serif" font-size="10.00"> oRder</text>
</g>
<!-- Node7&#45;&gt;Node9 -->
<g id="edge16" class="edge">
<title>Node7&#45;&gt;Node9</title>
<path fill="none" stroke="#9a32cd" stroke-dasharray="5,2" d="M3225.23,-1492.27C3288.79,-1495.32 3461.45,-1501.08 3512,-1477 3758.41,-1359.61 3804.12,-1265.12 3920,-1018 3955.66,-941.94 3978.1,-666.76 3982.29,-611.65"/>
<polygon fill="#9a32cd" stroke="#9a32cd" points="3225.18,-1488.77 3215.01,-1491.76 3224.83,-1495.76 3225.18,-1488.77"/>
<text text-anchor="middle" x="3636" y="-1468" font-family="Helvetica,sans-Serif" font-size="10.00"> dIm</text>
</g>
<!-- Node22 -->
<g id="node22" class="node">
<title>Node22</title>
<g id="a_node22"><a xlink:href="structMoFEM_1_1CoreTmp_3_010_01_4.html" target="_top" xlink:title="Core (interface) class.">
<polygon fill="white" stroke="black" points="3570.5,-848.5 3570.5,-867.5 3701.5,-867.5 3701.5,-848.5 3570.5,-848.5"/>
<text text-anchor="middle" x="3636" y="-855.5" font-family="Helvetica,sans-Serif" font-size="10.00">MoFEM::CoreTmp&lt; 0 &gt;</text>
</a>
</g>
</g>
<!-- Node7&#45;&gt;Node22 -->
<g id="edge43" class="edge">
<title>Node7&#45;&gt;Node22</title>
<path fill="none" stroke="#9a32cd" stroke-dasharray="5,2" d="M3221.14,-1475.09C3245.38,-1456.38 3288.62,-1425.99 3331,-1411 3369.23,-1397.48 3484.67,-1417.95 3512,-1388 3550.23,-1346.12 3493.09,-921.04 3530,-878 3540.15,-866.17 3554.94,-859.95 3570.24,-856.93"/>
<polygon fill="#9a32cd" stroke="#9a32cd" points="3218.8,-1472.47 3213.1,-1481.4 3223.13,-1477.97 3218.8,-1472.47"/>
<text text-anchor="middle" x="3421.5" y="-1469" font-family="Helvetica,sans-Serif" font-size="10.00"> sIze</text>
<text text-anchor="middle" x="3421.5" y="-1458" font-family="Helvetica,sans-Serif" font-size="10.00">mpiInitialised</text>
<text text-anchor="middle" x="3421.5" y="-1447" font-family="Helvetica,sans-Serif" font-size="10.00">value</text>
<text text-anchor="middle" x="3421.5" y="-1436" font-family="Helvetica,sans-Serif" font-size="10.00">verbose</text>
<text text-anchor="middle" x="3421.5" y="-1425" font-family="Helvetica,sans-Serif" font-size="10.00">buildMoFEM</text>
<text text-anchor="middle" x="3421.5" y="-1414" font-family="Helvetica,sans-Serif" font-size="10.00">rAnk</text>
</g>
<!-- Node8 -->
<g id="node8" class="node">
<title>Node8</title>
<g id="a_node8"><a xlink:title=" ">
<polygon fill="white" stroke="#bfbfbf" points="3178.5,-247.5 3178.5,-266.5 3222.5,-266.5 3222.5,-247.5 3178.5,-247.5"/>
<text text-anchor="middle" x="3200.5" y="-254.5" font-family="Helvetica,sans-Serif" font-size="10.00">string</text>
</a>
</g>
</g>
<!-- Node8&#45;&gt;Node1 -->
<g id="edge7" class="edge">
<title>Node8&#45;&gt;Node1</title>
<path fill="none" stroke="#9a32cd" stroke-dasharray="5,2" d="M3223.41,-241.59C3317.5,-177.48 3692.77,57.11 3920,-112 4127.12,-266.15 4205.1,-1193.81 4213.27,-1298.41"/>
<polygon fill="#9a32cd" stroke="#9a32cd" points="3221.21,-238.86 3214.96,-247.41 3225.18,-244.62 3221.21,-238.86"/>
<text text-anchor="middle" x="3840" y="-115" font-family="Helvetica,sans-Serif" font-size="10.00"> domainField</text>
</g>
<!-- Node8&#45;&gt;Node9 -->
<g id="edge17" class="edge">
<title>Node8&#45;&gt;Node9</title>
<path fill="none" stroke="#9a32cd" stroke-dasharray="5,2" d="M3232.95,-255.53C3364.68,-249.65 3867.78,-230.39 3920,-276 3969.38,-319.14 3980.75,-543.06 3982.67,-592.38"/>
<polygon fill="#9a32cd" stroke="#9a32cd" points="3232.57,-252.04 3222.73,-255.99 3232.88,-259.03 3232.57,-252.04"/>
<text text-anchor="middle" x="3636" y="-285" font-family="Helvetica,sans-Serif" font-size="10.00"> boundaryFE</text>
<text text-anchor="middle" x="3636" y="-274" font-family="Helvetica,sans-Serif" font-size="10.00">nameOfProblem</text>
<text text-anchor="middle" x="3636" y="-263" font-family="Helvetica,sans-Serif" font-size="10.00">domainFE</text>
<text text-anchor="middle" x="3636" y="-252" font-family="Helvetica,sans-Serif" font-size="10.00">skeletonFE</text>
</g>
<!-- Node8&#45;&gt;Node22 -->
<g id="edge45" class="edge">
<title>Node8&#45;&gt;Node22</title>
<path fill="none" stroke="#9a32cd" stroke-dasharray="5,2" d="M3232.12,-269.65C3297.37,-298.46 3449.22,-375.83 3512,-495 3529.63,-528.47 3505.51,-806.16 3530,-835 3540.15,-846.95 3554.94,-853.53 3570.24,-856.99"/>
<polygon fill="#9a32cd" stroke="#9a32cd" points="3233.35,-266.37 3222.79,-265.6 3230.57,-272.79 3233.35,-266.37"/>
<text text-anchor="middle" x="3421.5" y="-498" font-family="Helvetica,sans-Serif" font-size="10.00"> optionsPrefix</text>
</g>
<!-- Node9&#45;&gt;Node1 -->
<g id="edge8" class="edge">
<title>Node9&#45;&gt;Node1</title>
<path fill="none" stroke="#9a32cd" stroke-dasharray="5,2" d="M3991.26,-621.31C4025.19,-725.91 4186.37,-1222.81 4210.87,-1298.36"/>
<polygon fill="#9a32cd" stroke="#9a32cd" points="3994.56,-620.14 3988.15,-611.71 3987.91,-622.3 3994.56,-620.14"/>
<text text-anchor="middle" x="4088" y="-1041" font-family="Helvetica,sans-Serif" font-size="10.00"> simpleInterface</text>
</g>
<!-- Node10 -->
<g id="node10" class="node">
<title>Node10</title>
<g id="a_node10"><a xlink:title=" ">
<polygon fill="white" stroke="#bfbfbf" points="3553.5,-553.5 3553.5,-594.5 3718.5,-594.5 3718.5,-553.5 3553.5,-553.5"/>
<text text-anchor="start" x="3561.5" y="-582.5" font-family="Helvetica,sans-Serif" font-size="10.00">shared_ptr&lt; MoFEM::</text>
<text text-anchor="start" x="3561.5" y="-571.5" font-family="Helvetica,sans-Serif" font-size="10.00">ParentFiniteElementAdjacency</text>
<text text-anchor="middle" x="3636" y="-560.5" font-family="Helvetica,sans-Serif" font-size="10.00">FunctionSkeleton&lt; 1 &gt; &gt;</text>
</a>
</g>
</g>
<!-- Node10&#45;&gt;Node9 -->
<g id="edge10" class="edge">
<title>Node10&#45;&gt;Node9</title>
<path fill="none" stroke="#9a32cd" stroke-dasharray="5,2" d="M3728.78,-581.43C3796.31,-586.89 3885.19,-594.08 3937.98,-598.36"/>
<polygon fill="#9a32cd" stroke="#9a32cd" points="3728.81,-577.92 3718.56,-580.6 3728.24,-584.9 3728.81,-577.92"/>
<text text-anchor="middle" x="3840" y="-600" font-family="Helvetica,sans-Serif" font-size="10.00"> parentAdjSkeletonFunctionDim1</text>
</g>
<!-- Node11 -->
<g id="node11" class="node">
<title>Node11</title>
<g id="a_node11"><a xlink:title=" ">
<polygon fill="white" stroke="#bfbfbf" points="3553.5,-493.5 3553.5,-534.5 3718.5,-534.5 3718.5,-493.5 3553.5,-493.5"/>
<text text-anchor="start" x="3561.5" y="-522.5" font-family="Helvetica,sans-Serif" font-size="10.00">shared_ptr&lt; MoFEM::</text>
<text text-anchor="start" x="3561.5" y="-511.5" font-family="Helvetica,sans-Serif" font-size="10.00">ParentFiniteElementAdjacency</text>
<text text-anchor="middle" x="3636" y="-500.5" font-family="Helvetica,sans-Serif" font-size="10.00">Function&lt; 2 &gt; &gt;</text>
</a>
</g>
</g>
<!-- Node11&#45;&gt;Node9 -->
<g id="edge11" class="edge">
<title>Node11&#45;&gt;Node9</title>
<path fill="none" stroke="#9a32cd" stroke-dasharray="5,2" d="M3728.7,-525.62C3784.93,-534.33 3857.81,-548.51 3920,-570 3936.81,-575.81 3954.79,-585.3 3967.22,-592.45"/>
<polygon fill="#9a32cd" stroke="#9a32cd" points="3729.17,-522.15 3718.76,-524.11 3728.12,-529.07 3729.17,-522.15"/>
<text text-anchor="middle" x="3840" y="-573" font-family="Helvetica,sans-Serif" font-size="10.00"> parentAdjFunctionDim2</text>
</g>
<!-- Node12 -->
<g id="node12" class="node">
<title>Node12</title>
<g id="a_node12"><a xlink:title=" ">
<polygon fill="white" stroke="#bfbfbf" points="3553.5,-433.5 3553.5,-474.5 3718.5,-474.5 3718.5,-433.5 3553.5,-433.5"/>
<text text-anchor="start" x="3561.5" y="-462.5" font-family="Helvetica,sans-Serif" font-size="10.00">shared_ptr&lt; MoFEM::</text>
<text text-anchor="start" x="3561.5" y="-451.5" font-family="Helvetica,sans-Serif" font-size="10.00">ParentFiniteElementAdjacency</text>
<text text-anchor="middle" x="3636" y="-440.5" font-family="Helvetica,sans-Serif" font-size="10.00">Function&lt; 3 &gt; &gt;</text>
</a>
</g>
</g>
<!-- Node12&#45;&gt;Node9 -->
<g id="edge12" class="edge">
<title>Node12&#45;&gt;Node9</title>
<path fill="none" stroke="#9a32cd" stroke-dasharray="5,2" d="M3728.53,-457.61C3787.31,-463.7 3863.02,-478.9 3920,-516 3949.94,-535.49 3970.54,-574.47 3978.87,-592.48"/>
<polygon fill="#9a32cd" stroke="#9a32cd" points="3728.8,-454.12 3718.51,-456.64 3728.13,-461.08 3728.8,-454.12"/>
<text text-anchor="middle" x="3840" y="-519" font-family="Helvetica,sans-Serif" font-size="10.00"> parentAdjFunctionDim3</text>
</g>
<!-- Node13 -->
<g id="node13" class="node">
<title>Node13</title>
<g id="a_node13"><a xlink:href="classEntityHandle.html" target="_top" xlink:title=" ">
<polygon fill="white" stroke="black" points="3596,-395.5 3596,-414.5 3676,-414.5 3676,-395.5 3596,-395.5"/>
<text text-anchor="middle" x="3636" y="-402.5" font-family="Helvetica,sans-Serif" font-size="10.00">EntityHandle</text>
</a>
</g>
</g>
<!-- Node13&#45;&gt;Node9 -->
<g id="edge13" class="edge">
<title>Node13&#45;&gt;Node9</title>
<path fill="none" stroke="#9a32cd" stroke-dasharray="5,2" d="M3686.58,-405.78C3762.8,-407.4 3901.91,-412.23 3920,-426 3975.01,-467.87 3982.09,-561.9 3982.92,-592.31"/>
<polygon fill="#9a32cd" stroke="#9a32cd" points="3686.33,-402.27 3676.26,-405.57 3686.19,-409.27 3686.33,-402.27"/>
<text text-anchor="middle" x="3840" y="-451" font-family="Helvetica,sans-Serif" font-size="10.00"> boundaryMeshset</text>
<text text-anchor="middle" x="3840" y="-440" font-family="Helvetica,sans-Serif" font-size="10.00">meshSet</text>
<text text-anchor="middle" x="3840" y="-429" font-family="Helvetica,sans-Serif" font-size="10.00">skeletonMeshset</text>
</g>
<!-- Node14 -->
<g id="node14" class="node">
<title>Node14</title>
<g id="a_node14"><a xlink:title=" ">
<polygon fill="white" stroke="#bfbfbf" points="3617,-357.5 3617,-376.5 3655,-376.5 3655,-357.5 3617,-357.5"/>
<text text-anchor="middle" x="3636" y="-364.5" font-family="Helvetica,sans-Serif" font-size="10.00">char</text>
</a>
</g>
</g>
<!-- Node14&#45;&gt;Node9 -->
<g id="edge14" class="edge">
<title>Node14&#45;&gt;Node9</title>
<path fill="none" stroke="#9a32cd" stroke-dasharray="5,2" d="M3665.69,-367.95C3733.71,-370.44 3900.6,-378.12 3920,-394 3983.07,-445.62 3984.56,-558.21 3983.49,-592.13"/>
<polygon fill="#9a32cd" stroke="#9a32cd" points="3665.4,-364.43 3655.29,-367.58 3665.15,-371.43 3665.4,-364.43"/>
<text text-anchor="middle" x="3840" y="-397" font-family="Helvetica,sans-Serif" font-size="10.00"> meshFileName</text>
</g>
<!-- Node15 -->
<g id="node15" class="node">
<title>Node15</title>
<g id="a_node15"><a xlink:title=" ">
<polygon fill="white" stroke="#bfbfbf" points="3576.5,-319.5 3576.5,-338.5 3695.5,-338.5 3695.5,-319.5 3576.5,-319.5"/>
<text text-anchor="middle" x="3636" y="-326.5" font-family="Helvetica,sans-Serif" font-size="10.00">vector&lt; std::string &gt;</text>
</a>
</g>
</g>
<!-- Node15&#45;&gt;Node9 -->
<g id="edge15" class="edge">
<title>Node15&#45;&gt;Node9</title>
<path fill="none" stroke="#9a32cd" stroke-dasharray="5,2" d="M3705.49,-317.53C3717.93,-314.28 3730.57,-310.17 3742,-305 3750.99,-300.93 3750.61,-295.04 3760,-292 3793.83,-281.06 3892.47,-269.5 3920,-292 3968.27,-331.44 3980.47,-544.68 3982.62,-592.49"/>
<polygon fill="#9a32cd" stroke="#9a32cd" points="3704.46,-314.18 3695.58,-319.95 3706.12,-320.98 3704.46,-314.18"/>
<text text-anchor="middle" x="3840" y="-361" font-family="Helvetica,sans-Serif" font-size="10.00"> boundaryFields</text>
<text text-anchor="middle" x="3840" y="-350" font-family="Helvetica,sans-Serif" font-size="10.00">otherFEs</text>
<text text-anchor="middle" x="3840" y="-339" font-family="Helvetica,sans-Serif" font-size="10.00">noFieldDataFields</text>
<text text-anchor="middle" x="3840" y="-328" font-family="Helvetica,sans-Serif" font-size="10.00">dataFields</text>
<text text-anchor="middle" x="3840" y="-317" font-family="Helvetica,sans-Serif" font-size="10.00">skeletonFields</text>
<text text-anchor="middle" x="3840" y="-306" font-family="Helvetica,sans-Serif" font-size="10.00">noFieldFields</text>
<text text-anchor="middle" x="3840" y="-295" font-family="Helvetica,sans-Serif" font-size="10.00">domainFields</text>
</g>
<!-- Node16 -->
<g id="node16" class="node">
<title>Node16</title>
<g id="a_node16"><a xlink:href="classbool.html" target="_top" xlink:title=" ">
<polygon fill="white" stroke="black" points="3181.5,-549.5 3181.5,-568.5 3219.5,-568.5 3219.5,-549.5 3181.5,-549.5"/>
<text text-anchor="middle" x="3200.5" y="-556.5" font-family="Helvetica,sans-Serif" font-size="10.00">bool</text>
</a>
</g>
</g>
<!-- Node16&#45;&gt;Node9 -->
<g id="edge18" class="edge">
<title>Node16&#45;&gt;Node9</title>
<path fill="none" stroke="#9a32cd" stroke-dasharray="5,2" d="M3229.82,-561.92C3304.52,-569.75 3501.82,-591.25 3512,-601 3544.62,-632.23 3495.35,-672.03 3530,-701 3602.29,-761.44 3648.87,-715.3 3742,-701 3823.97,-688.41 3845.39,-681.21 3920,-645 3939.06,-635.75 3958.91,-621.26 3971.11,-611.7"/>
<polygon fill="#9a32cd" stroke="#9a32cd" points="3230.04,-558.43 3219.73,-560.87 3229.31,-565.39 3230.04,-558.43"/>
<text text-anchor="middle" x="3636" y="-756" font-family="Helvetica,sans-Serif" font-size="10.00"> addParentAdjacencies</text>
<text text-anchor="middle" x="3636" y="-745" font-family="Helvetica,sans-Serif" font-size="10.00">addSkeletonFE</text>
<text text-anchor="middle" x="3636" y="-734" font-family="Helvetica,sans-Serif" font-size="10.00">addBoundaryFE</text>
</g>
<!-- Node16&#45;&gt;Node22 -->
<g id="edge44" class="edge">
<title>Node16&#45;&gt;Node22</title>
<path fill="none" stroke="#9a32cd" stroke-dasharray="5,2" d="M3229.74,-558.77C3253.34,-559.71 3287.19,-563.79 3313,-578 3323.48,-583.77 3320.37,-592.51 3331,-598 3366.98,-616.58 3483.83,-589.91 3512,-619 3545.5,-653.61 3498.27,-798.76 3530,-835 3540.33,-846.79 3555.18,-853.32 3570.48,-856.78"/>
<polygon fill="#9a32cd" stroke="#9a32cd" points="3229.76,-555.27 3219.68,-558.53 3229.59,-562.26 3229.76,-555.27"/>
<text text-anchor="middle" x="3421.5" y="-622" font-family="Helvetica,sans-Serif" font-size="10.00"> isGloballyInitialised</text>
</g>
<!-- Node17 -->
<g id="node17" class="node">
<title>Node17</title>
<g id="a_node17"><a xlink:title=" ">
<polygon fill="white" stroke="#bfbfbf" points="3156.5,-481.5 3156.5,-500.5 3244.5,-500.5 3244.5,-481.5 3156.5,-481.5"/>
<text text-anchor="middle" x="3200.5" y="-488.5" font-family="Helvetica,sans-Serif" font-size="10.00">PetscLogEvent</text>
</a>
</g>
</g>
<!-- Node17&#45;&gt;Node9 -->
<g id="edge19" class="edge">
<title>Node17&#45;&gt;Node9</title>
<path fill="none" stroke="#9a32cd" stroke-dasharray="5,2" d="M3231.44,-477.36C3292.46,-451.86 3432.15,-405.52 3512,-475 3555.67,-513 3487,-565.25 3530,-604 3567.99,-638.24 3708.87,-611.11 3760,-612 3831.1,-613.24 3849.11,-617.59 3920,-612 3925.74,-611.55 3931.75,-610.87 3937.68,-610.07"/>
<polygon fill="#9a32cd" stroke="#9a32cd" points="3229.82,-474.25 3222.01,-481.4 3232.58,-480.68 3229.82,-474.25"/>
<text text-anchor="middle" x="3636" y="-680" font-family="Helvetica,sans-Serif" font-size="10.00"> MOFEM_EVENT_SimpleBuildFields</text>
<text text-anchor="middle" x="3636" y="-669" font-family="Helvetica,sans-Serif" font-size="10.00">MOFEM_EVENT_SimpleLoadMesh</text>
<text text-anchor="middle" x="3636" y="-658" font-family="Helvetica,sans-Serif" font-size="10.00">MOFEM_EVENT_SimpleBuildFiniteElements</text>
<text text-anchor="middle" x="3636" y="-647" font-family="Helvetica,sans-Serif" font-size="10.00">MOFEM_EVENT_SimpleSetUP</text>
<text text-anchor="middle" x="3636" y="-636" font-family="Helvetica,sans-Serif" font-size="10.00">MOFEM_EVENT_SimpleBuildProblem</text>
<text text-anchor="middle" x="3636" y="-625" font-family="Helvetica,sans-Serif" font-size="10.00">MOFEM_EVENT_SimpleKSPSolve</text>
</g>
<!-- Node17&#45;&gt;Node22 -->
<g id="edge47" class="edge">
<title>Node17&#45;&gt;Node22</title>
<path fill="none" stroke="#9a32cd" stroke-dasharray="5,2" d="M3254.67,-497.53C3338.87,-508.39 3495.12,-530.87 3512,-550 3553.99,-597.58 3488.68,-786.84 3530,-835 3540.21,-846.9 3555.02,-853.46 3570.32,-856.92"/>
<polygon fill="#9a32cd" stroke="#9a32cd" points="3254.89,-494.03 3244.53,-496.23 3254.01,-500.97 3254.89,-494.03"/>
<text text-anchor="middle" x="3421.5" y="-586" font-family="Helvetica,sans-Serif" font-size="10.00"> MOFEM_EVENT_createMat</text>
<text text-anchor="middle" x="3421.5" y="-575" font-family="Helvetica,sans-Serif" font-size="10.00">MOFEM_EVENT_postProcess</text>
<text text-anchor="middle" x="3421.5" y="-564" font-family="Helvetica,sans-Serif" font-size="10.00">MOFEM_EVENT_preProcess</text>
<text text-anchor="middle" x="3421.5" y="-553" font-family="Helvetica,sans-Serif" font-size="10.00">MOFEM_EVENT_operator</text>
</g>
<!-- Node18 -->
<g id="node18" class="node">
<title>Node18</title>
<g id="a_node18"><a xlink:href="structMoFEM_1_1SmartPetscObj.html" target="_top" xlink:title=" ">
<polygon fill="white" stroke="black" points="3570.5,-190 3570.5,-220 3701.5,-220 3701.5,-190 3570.5,-190"/>
<text text-anchor="start" x="3578.5" y="-208" font-family="Helvetica,sans-Serif" font-size="10.00">MoFEM::SmartPetscObj</text>
<text text-anchor="middle" x="3636" y="-197" font-family="Helvetica,sans-Serif" font-size="10.00">&lt; DM &gt;</text>
</a>
</g>
</g>
<!-- Node18&#45;&gt;Node9 -->
<g id="edge20" class="edge">
<title>Node18&#45;&gt;Node9</title>
<path fill="none" stroke="#9a32cd" stroke-dasharray="5,2" d="M3711.52,-189.52C3775.16,-180.99 3864.91,-180.82 3920,-232 3974.66,-282.78 3981.94,-538.78 3982.87,-592.22"/>
<polygon fill="#9a32cd" stroke="#9a32cd" points="3710.94,-186.07 3701.54,-190.96 3711.93,-193 3710.94,-186.07"/>
<text text-anchor="middle" x="3840" y="-235" font-family="Helvetica,sans-Serif" font-size="10.00"> dM</text>
</g>
<!-- Node19 -->
<g id="node19" class="node">
<title>Node19</title>
<g id="a_node19"><a xlink:title=" ">
<polygon fill="white" stroke="#bfbfbf" points="3137.5,-55.5 3137.5,-96.5 3263.5,-96.5 3263.5,-55.5 3137.5,-55.5"/>
<text text-anchor="start" x="3145.5" y="-84.5" font-family="Helvetica,sans-Serif" font-size="10.00">boost::intrusive_ptr</text>
<text text-anchor="start" x="3145.5" y="-73.5" font-family="Helvetica,sans-Serif" font-size="10.00">&lt; std::remove_pointer</text>
<text text-anchor="middle" x="3200.5" y="-62.5" font-family="Helvetica,sans-Serif" font-size="10.00">&lt; DM &gt;::type &gt;</text>
</a>
</g>
</g>
<!-- Node19&#45;&gt;Node18 -->
<g id="edge21" class="edge">
<title>Node19&#45;&gt;Node18</title>
<path fill="none" stroke="midnightblue" d="M3271.45,-99.78C3337.66,-121.89 3440.02,-155.08 3530,-180 3543,-183.6 3557,-187.15 3570.4,-190.4"/>
<polygon fill="midnightblue" stroke="midnightblue" points="3272.55,-96.45 3261.95,-96.6 3270.32,-103.09 3272.55,-96.45"/>
</g>
<!-- Node20 -->
<g id="node20" class="node">
<title>Node20</title>
<g id="a_node20"><a xlink:href="structMoFEM_1_1SmartPetscObj.html" target="_top" xlink:title="intrusive_ptr for managing petsc objects">
<polygon fill="white" stroke="black" points="3135,-6 3135,-36 3266,-36 3266,-6 3135,-6"/>
<text text-anchor="start" x="3143" y="-24" font-family="Helvetica,sans-Serif" font-size="10.00">MoFEM::SmartPetscObj</text>
<text text-anchor="middle" x="3200.5" y="-13" font-family="Helvetica,sans-Serif" font-size="10.00">&lt; OBJ &gt;</text>
</a>
</g>
</g>
<!-- Node20&#45;&gt;Node18 -->
<g id="edge22" class="edge">
<title>Node20&#45;&gt;Node18</title>
<path fill="none" stroke="orange" stroke-dasharray="5,2" d="M3276.09,-36.94C3288.45,-39.81 3301.11,-42.88 3313,-46 3402.35,-69.45 3448.47,-38.93 3512,-106 3535.28,-130.57 3506.01,-156.12 3530,-180 3540.83,-190.77 3555.4,-197.22 3570.24,-201"/>
<polygon fill="orange" stroke="orange" points="3276.78,-33.51 3266.25,-34.69 3275.22,-40.33 3276.78,-33.51"/>
<text text-anchor="middle" x="3421.5" y="-109" font-family="Helvetica,sans-Serif" font-size="10.00"> &lt; DM &gt;</text>
</g>
<!-- Node21 -->
<g id="node21" class="node">
<title>Node21</title>
<g id="a_node21"><a xlink:title=" ">
<polygon fill="white" stroke="#bfbfbf" points="2663,-0.5 2663,-41.5 2789,-41.5 2789,-0.5 2663,-0.5"/>
<text text-anchor="start" x="2671" y="-29.5" font-family="Helvetica,sans-Serif" font-size="10.00">boost::intrusive_ptr</text>
<text text-anchor="start" x="2671" y="-18.5" font-family="Helvetica,sans-Serif" font-size="10.00">&lt; std::remove_pointer</text>
<text text-anchor="middle" x="2726" y="-7.5" font-family="Helvetica,sans-Serif" font-size="10.00">&lt; OBJ &gt;::type &gt;</text>
</a>
</g>
</g>
<!-- Node21&#45;&gt;Node20 -->
<g id="edge23" class="edge">
<title>Node21&#45;&gt;Node20</title>
<path fill="none" stroke="midnightblue" d="M2799.27,-21C2890.78,-21 3047.08,-21 3134.83,-21"/>
<polygon fill="midnightblue" stroke="midnightblue" points="2799.26,-17.5 2789.26,-21 2799.26,-24.5 2799.26,-17.5"/>
</g>
<!-- Node22&#45;&gt;Node9 -->
<g id="edge24" class="edge">
<title>Node22&#45;&gt;Node9</title>
<path fill="none" stroke="#9a32cd" stroke-dasharray="5,2" d="M3711.63,-856.69C3784.81,-853.87 3889.67,-845.21 3920,-819 3984.41,-763.34 3984.89,-646.12 3983.54,-611.7"/>
<polygon fill="#9a32cd" stroke="#9a32cd" points="3711.4,-853.2 3701.53,-857.05 3711.65,-860.19 3711.4,-853.2"/>
<text text-anchor="middle" x="3840" y="-857" font-family="Helvetica,sans-Serif" font-size="10.00"> cOre</text>
</g>
<!-- Node23&#45;&gt;Node22 -->
<g id="edge25" class="edge">
<title>Node23&#45;&gt;Node22</title>
<path fill="none" stroke="midnightblue" d="M3240.78,-1093.42C3320.05,-1089.85 3493.25,-1079.96 3512,-1061 3540.73,-1031.95 3502.44,-908.17 3530,-878 3540.45,-866.56 3555.26,-860.46 3570.46,-857.42"/>
<polygon fill="midnightblue" stroke="midnightblue" points="3240.53,-1089.93 3230.69,-1093.87 3240.84,-1096.92 3240.53,-1089.93"/>
</g>
<!-- Node24&#45;&gt;Node22 -->
<g id="edge27" class="edge">
<title>Node24&#45;&gt;Node22</title>
<path fill="none" stroke="#9a32cd" stroke-dasharray="5,2" d="M2131.2,-1317.65C2292.05,-1299.76 2477.84,-1275.57 2645,-1245 2717.95,-1231.66 2734.26,-1219.48 2807,-1205 2864.98,-1193.46 3027.19,-1205.77 3070,-1165 3099.22,-1137.17 3058.79,-1103.85 3088,-1076 3156.98,-1010.21 3445.19,-1078.99 3512,-1011 3553.81,-968.45 3488.97,-921.3 3530,-878 3540.59,-866.82 3555.36,-860.79 3570.47,-857.74"/>
<polygon fill="#9a32cd" stroke="#9a32cd" points="2130.69,-1314.19 2121.13,-1318.77 2131.46,-1321.15 2130.69,-1314.19"/>
<text text-anchor="middle" x="2726" y="-1244" font-family="Helvetica,sans-Serif" font-size="10.00"> entFEAdjacencies</text>
</g>
<!-- Node25 -->
<g id="node25" class="node">
<title>Node25</title>
<g id="a_node25"><a xlink:title=" ">
<polygon fill="white" stroke="#bfbfbf" points="3168,-1344.5 3168,-1363.5 3233,-1363.5 3233,-1344.5 3168,-1344.5"/>
<text text-anchor="middle" x="3200.5" y="-1351.5" font-family="Helvetica,sans-Serif" font-size="10.00">PetscBool</text>
</a>
</g>
</g>
<!-- Node25&#45;&gt;Node22 -->
<g id="edge29" class="edge">
<title>Node25&#45;&gt;Node22</title>
<path fill="none" stroke="#9a32cd" stroke-dasharray="5,2" d="M3243.46,-1354.07C3323.95,-1353.77 3493.71,-1350.87 3512,-1332 3547.14,-1295.75 3497.05,-916.25 3530,-878 3540.17,-866.19 3554.98,-859.98 3570.27,-856.96"/>
<polygon fill="#9a32cd" stroke="#9a32cd" points="3243.17,-1350.57 3233.18,-1354.09 3243.19,-1357.57 3243.17,-1350.57"/>
<text text-anchor="middle" x="3421.5" y="-1377" font-family="Helvetica,sans-Serif" font-size="10.00"> initaliseAndBuildFiniteElements</text>
<text text-anchor="middle" x="3421.5" y="-1366" font-family="Helvetica,sans-Serif" font-size="10.00">isInitialized</text>
<text text-anchor="middle" x="3421.5" y="-1355" font-family="Helvetica,sans-Serif" font-size="10.00">initaliseAndBuildField</text>
</g>
<!-- Node26&#45;&gt;Node22 -->
<g id="edge30" class="edge">
<title>Node26&#45;&gt;Node22</title>
<path fill="none" stroke="#9a32cd" stroke-dasharray="5,2" d="M2655.56,-1158.1C2812.69,-1152.66 3038.95,-1140.34 3070,-1114 3094.83,-1092.94 3063.83,-1064.8 3088,-1043 3158.71,-979.22 3443.74,-1047.39 3512,-981 3545.31,-948.6 3497.39,-911.11 3530,-878 3540.74,-867.09 3555.47,-861.14 3570.49,-858.08"/>
<polygon fill="#9a32cd" stroke="#9a32cd" points="2655.19,-1154.61 2645.32,-1158.45 2655.43,-1161.6 2655.19,-1154.61"/>
<text text-anchor="middle" x="2938.5" y="-1153" font-family="Helvetica,sans-Serif" font-size="10.00"> fIelds</text>
</g>
<!-- Node27&#45;&gt;Node22 -->
<g id="edge32" class="edge">
<title>Node27&#45;&gt;Node22</title>
<path fill="none" stroke="#9a32cd" stroke-dasharray="5,2" d="M3079.94,-995.48C3082.64,-994.97 3085.33,-994.47 3088,-994 3181.31,-977.39 3440.35,-1010.04 3512,-948 3536.29,-926.97 3506.58,-899.98 3530,-878 3540.96,-867.71 3555.5,-861.93 3570.25,-858.84"/>
<polygon fill="#9a32cd" stroke="#9a32cd" points="3079.21,-992.06 3070.07,-997.42 3080.56,-998.93 3079.21,-992.06"/>
<text text-anchor="middle" x="3200.5" y="-997" font-family="Helvetica,sans-Serif" font-size="10.00"> finiteElements</text>
</g>
<!-- Node28 -->
<g id="node28" class="node">
<title>Node28</title>
<g id="a_node28"><a xlink:title=" ">
<polygon fill="white" stroke="#bfbfbf" points="3184,-1261.5 3184,-1280.5 3217,-1280.5 3217,-1261.5 3184,-1261.5"/>
<text text-anchor="middle" x="3200.5" y="-1268.5" font-family="Helvetica,sans-Serif" font-size="10.00">Tag</text>
</a>
</g>
</g>
<!-- Node28&#45;&gt;Node22 -->
<g id="edge34" class="edge">
<title>Node28&#45;&gt;Node22</title>
<path fill="none" stroke="#9a32cd" stroke-dasharray="5,2" d="M3227.01,-1273.17C3251.55,-1273.88 3288.46,-1271.16 3313,-1252 3328.69,-1239.75 3315.06,-1222.91 3331,-1211 3395.96,-1162.46 3456.65,-1247.27 3512,-1188 3559.1,-1137.57 3484.48,-929.87 3530,-878 3540.28,-866.28 3555.12,-860.1 3570.42,-857.09"/>
<polygon fill="#9a32cd" stroke="#9a32cd" points="3227.16,-1269.67 3217,-1272.67 3226.82,-1276.66 3227.16,-1269.67"/>
<text text-anchor="middle" x="3421.5" y="-1324" font-family="Helvetica,sans-Serif" font-size="10.00"> th_FieldId</text>
<text text-anchor="middle" x="3421.5" y="-1313" font-family="Helvetica,sans-Serif" font-size="10.00">th_RefBitLevel_Mask</text>
<text text-anchor="middle" x="3421.5" y="-1302" font-family="Helvetica,sans-Serif" font-size="10.00">th_ProblemName</text>
<text text-anchor="middle" x="3421.5" y="-1291" font-family="Helvetica,sans-Serif" font-size="10.00">th_ProblemFEId</text>
<text text-anchor="middle" x="3421.5" y="-1280" font-family="Helvetica,sans-Serif" font-size="10.00">th_FieldContinuity</text>
<text text-anchor="middle" x="3421.5" y="-1269" font-family="Helvetica,sans-Serif" font-size="10.00">th_FieldBase</text>
<text text-anchor="middle" x="3421.5" y="-1258" font-family="Helvetica,sans-Serif" font-size="10.00">th_ProblemGhostNbDofCol</text>
<text text-anchor="middle" x="3421.5" y="-1247" font-family="Helvetica,sans-Serif" font-size="10.00">th_ProblemGhostNbDofRow</text>
<text text-anchor="middle" x="3421.5" y="-1236" font-family="Helvetica,sans-Serif" font-size="10.00">th_FEIdCol</text>
<text text-anchor="middle" x="3421.5" y="-1225" font-family="Helvetica,sans-Serif" font-size="10.00">th_RefBitEdge</text>
<text text-anchor="middle" x="3421.5" y="-1214" font-family="Helvetica,sans-Serif" font-size="10.00">...</text>
</g>
<!-- Node29&#45;&gt;Node22 -->
<g id="edge35" class="edge">
<title>Node29&#45;&gt;Node22</title>
<path fill="none" stroke="#9a32cd" stroke-dasharray="5,2" d="M1853.26,-977.12C1978.71,-977.62 2172.8,-976.91 2341,-970 2471.34,-964.64 3384.74,-913.68 3512,-885 3520.37,-883.11 3521.75,-880.37 3530,-878 3544.27,-873.9 3559.87,-870.41 3574.59,-867.55"/>
<polygon fill="#9a32cd" stroke="#9a32cd" points="1853.23,-973.62 1843.22,-977.07 1853.2,-980.62 1853.23,-973.62"/>
<text text-anchor="middle" x="2726" y="-955" font-family="Helvetica,sans-Serif" font-size="10.00"> entsFiniteElements</text>
</g>
<!-- Node30 -->
<g id="node30" class="node">
<title>Node30</title>
<g id="a_node30"><a xlink:title=" ">
<polygon fill="white" stroke="#bfbfbf" points="3142.5,-1212 3142.5,-1242 3258.5,-1242 3258.5,-1212 3142.5,-1212"/>
<text text-anchor="start" x="3150.5" y="-1230" font-family="Helvetica,sans-Serif" font-size="10.00">reference_wrapper&lt;</text>
<text text-anchor="middle" x="3200.5" y="-1219" font-family="Helvetica,sans-Serif" font-size="10.00"> moab::Interface &gt;</text>
</a>
</g>
</g>
<!-- Node30&#45;&gt;Node22 -->
<g id="edge37" class="edge">
<title>Node30&#45;&gt;Node22</title>
<path fill="none" stroke="#9a32cd" stroke-dasharray="5,2" d="M3268.61,-1220.14C3284.07,-1216.41 3299.83,-1210.7 3313,-1202 3324.42,-1194.45 3319.23,-1184 3331,-1177 3365.85,-1156.27 3484.22,-1183.53 3512,-1154 3554.11,-1109.23 3489.29,-924.05 3530,-878 3540.32,-866.32 3555.18,-860.15 3570.48,-857.14"/>
<polygon fill="#9a32cd" stroke="#9a32cd" points="3267.56,-1216.79 3258.52,-1222.32 3269.04,-1223.63 3267.56,-1216.79"/>
<text text-anchor="middle" x="3421.5" y="-1180" font-family="Helvetica,sans-Serif" font-size="10.00"> moab</text>
</g>
<!-- Node31&#45;&gt;Node22 -->
<g id="edge38" class="edge">
<title>Node31&#45;&gt;Node22</title>
<path fill="none" stroke="#9a32cd" stroke-dasharray="5,2" d="M2351.46,-895.76C2572.14,-894.8 3083.2,-890.13 3512,-868 3530.94,-867.02 3551.48,-865.53 3570.26,-863.99"/>
<polygon fill="#9a32cd" stroke="#9a32cd" points="2351.16,-892.26 2341.17,-895.8 2351.19,-899.26 2351.16,-892.26"/>
<text text-anchor="middle" x="2938.5" y="-893" font-family="Helvetica,sans-Serif" font-size="10.00"> dofsField</text>
</g>
<!-- Node32 -->
<g id="node32" class="node">
<title>Node32</title>
<g id="a_node32"><a xlink:title=" ">
<polygon fill="white" stroke="#bfbfbf" points="3154,-1173.5 3154,-1192.5 3247,-1192.5 3247,-1173.5 3154,-1173.5"/>
<text text-anchor="middle" x="3200.5" y="-1180.5" font-family="Helvetica,sans-Serif" font-size="10.00">ParallelComm *</text>
</a>
</g>
</g>
<!-- Node32&#45;&gt;Node22 -->
<g id="edge40" class="edge">
<title>Node32&#45;&gt;Node22</title>
<path fill="none" stroke="#9a32cd" stroke-dasharray="5,2" d="M3257.19,-1181.09C3275.87,-1178.52 3296.21,-1173.52 3313,-1164 3323.7,-1157.94 3320.18,-1148.83 3331,-1143 3366.69,-1123.77 3484.09,-1149.41 3512,-1120 3549.12,-1080.89 3494.1,-918.24 3530,-878 3540.31,-866.44 3555.07,-860.29 3570.28,-857.25"/>
<polygon fill="#9a32cd" stroke="#9a32cd" points="3256.54,-1177.64 3247.01,-1182.27 3257.35,-1184.59 3256.54,-1177.64"/>
<text text-anchor="middle" x="3421.5" y="-1146" font-family="Helvetica,sans-Serif" font-size="10.00"> pComm</text>
</g>
<!-- Node33&#45;&gt;Node22 -->
<g id="edge41" class="edge">
<title>Node33&#45;&gt;Node22</title>
<path fill="none" stroke="#9a32cd" stroke-dasharray="5,2" d="M2595.78,-824.28C2655.97,-828.16 2736.1,-832.96 2807,-836 3091.28,-848.19 3430.78,-854.68 3570.29,-857"/>
<polygon fill="#9a32cd" stroke="#9a32cd" points="2595.75,-820.77 2585.54,-823.62 2595.29,-827.76 2595.75,-820.77"/>
<text text-anchor="middle" x="2938.5" y="-848" font-family="Helvetica,sans-Serif" font-size="10.00"> refinedFiniteElements</text>
</g>
<!-- Node34 -->
<g id="node34" class="node">
<title>Node34</title>
<g id="a_node34"><a xlink:title=" ">
<polygon fill="white" stroke="#bfbfbf" points="3139.5,-1124 3139.5,-1154 3261.5,-1154 3261.5,-1124 3139.5,-1124"/>
<text text-anchor="start" x="3147.5" y="-1142" font-family="Helvetica,sans-Serif" font-size="10.00">shared_ptr&lt; MoFEM::</text>
<text text-anchor="middle" x="3200.5" y="-1131" font-family="Helvetica,sans-Serif" font-size="10.00">WrapMPIComm &gt;</text>
</a>
</g>
</g>
<!-- Node34&#45;&gt;Node22 -->
<g id="edge46" class="edge">
<title>Node34&#45;&gt;Node22</title>
<path fill="none" stroke="#9a32cd" stroke-dasharray="5,2" d="M3271.45,-1123.88C3285.25,-1120.74 3299.61,-1117.36 3313,-1114 3321.05,-1111.98 3322.86,-1110.64 3331,-1109 3370.75,-1101 3483.91,-1115.24 3512,-1086 3544.14,-1052.54 3498.91,-912.43 3530,-878 3540.38,-866.5 3555.17,-860.37 3570.37,-857.34"/>
<polygon fill="#9a32cd" stroke="#9a32cd" points="3270.51,-1120.51 3261.52,-1126.12 3272.05,-1127.34 3270.51,-1120.51"/>
<text text-anchor="middle" x="3421.5" y="-1112" font-family="Helvetica,sans-Serif" font-size="10.00"> wrapMPIMOABComm</text>
</g>
<!-- Node35&#45;&gt;Node22 -->
<g id="edge48" class="edge">
<title>Node35&#45;&gt;Node22</title>
<path fill="none" stroke="#9a32cd" stroke-dasharray="5,2" d="M3063.64,-788.99C3212,-806.91 3454.63,-836.22 3570.05,-850.16"/>
<polygon fill="#9a32cd" stroke="#9a32cd" points="3063.92,-785.5 3053.57,-787.78 3063.08,-792.45 3063.92,-785.5"/>
<text text-anchor="middle" x="3200.5" y="-820" font-family="Helvetica,sans-Serif" font-size="10.00"> entsFields</text>
</g>
<!-- Node36 -->
<g id="node36" class="node">
<title>Node36</title>
<g id="a_node36"><a xlink:title=" ">
<polygon fill="white" stroke="#bfbfbf" points="3139.5,-676 3139.5,-706 3261.5,-706 3261.5,-676 3139.5,-676"/>
<text text-anchor="start" x="3147.5" y="-694" font-family="Helvetica,sans-Serif" font-size="10.00">shared_ptr&lt; MoFEM::</text>
<text text-anchor="middle" x="3200.5" y="-683" font-family="Helvetica,sans-Serif" font-size="10.00">BasicEntityData &gt;</text>
</a>
</g>
</g>
<!-- Node36&#45;&gt;Node22 -->
<g id="edge50" class="edge">
<title>Node36&#45;&gt;Node22</title>
<path fill="none" stroke="#9a32cd" stroke-dasharray="5,2" d="M3271.76,-696.08C3360.66,-702.83 3503.36,-714.84 3512,-723 3548.65,-757.63 3495.37,-798.36 3530,-835 3540.58,-846.19 3555.24,-852.55 3570.26,-856.04"/>
<polygon fill="#9a32cd" stroke="#9a32cd" points="3271.96,-692.59 3261.73,-695.33 3271.44,-699.57 3271.96,-692.59"/>
<text text-anchor="middle" x="3421.5" y="-726" font-family="Helvetica,sans-Serif" font-size="10.00"> basicEntityDataPtr</text>
</g>
<!-- Node37 -->
<g id="node37" class="node">
<title>Node37</title>
<g id="a_node37"><a xlink:title=" ">
<polygon fill="white" stroke="#bfbfbf" points="3164.5,-637.5 3164.5,-656.5 3236.5,-656.5 3236.5,-637.5 3164.5,-637.5"/>
<text text-anchor="middle" x="3200.5" y="-644.5" font-family="Helvetica,sans-Serif" font-size="10.00">MPI_Comm</text>
</a>
</g>
</g>
<!-- Node37&#45;&gt;Node22 -->
<g id="edge51" class="edge">
<title>Node37&#45;&gt;Node22</title>
<path fill="none" stroke="#9a32cd" stroke-dasharray="5,2" d="M3246.85,-654C3271.68,-657.74 3303.01,-662.32 3331,-666 3371.15,-671.27 3483.29,-658.45 3512,-687 3558.98,-733.73 3485.41,-785.98 3530,-835 3540.42,-846.46 3555.12,-852.9 3570.23,-856.38"/>
<polygon fill="#9a32cd" stroke="#9a32cd" points="3247.05,-650.49 3236.64,-652.45 3246,-657.41 3247.05,-650.49"/>
<text text-anchor="middle" x="3421.5" y="-690" font-family="Helvetica,sans-Serif" font-size="10.00"> mofemComm</text>
</g>
<!-- Node38&#45;&gt;Node22 -->
<g id="edge52" class="edge">
<title>Node38&#45;&gt;Node22</title>
<path fill="none" stroke="#9a32cd" stroke-dasharray="5,2" d="M1855.31,-642.38C2176.16,-641.97 2970.16,-647.66 3070,-713 3084.97,-722.8 3073.58,-738.42 3088,-749 3126.47,-777.23 3469.51,-795.3 3512,-817 3522.08,-822.15 3520.07,-829.57 3530,-835 3542.36,-841.76 3556.56,-846.53 3570.45,-849.91"/>
<polygon fill="#9a32cd" stroke="#9a32cd" points="1855.02,-638.89 1845.02,-642.4 1855.03,-645.89 1855.02,-638.89"/>
<text text-anchor="middle" x="2726" y="-669" font-family="Helvetica,sans-Serif" font-size="10.00"> pRoblems</text>
</g>
<!-- Node39&#45;&gt;Node22 -->
<g id="edge54" class="edge">
<title>Node39&#45;&gt;Node22</title>
<path fill="none" stroke="#9a32cd" stroke-dasharray="5,2" d="M1312.21,-404.68C1689.9,-338.86 2551.23,-248.47 3070,-664 3089.09,-679.29 3069.16,-700.4 3088,-716 3126.92,-748.23 3263.13,-740.83 3313,-749 3401.7,-763.52 3443.38,-726.95 3512,-785 3530.03,-800.25 3512.25,-819.42 3530,-835 3541.22,-844.85 3555.68,-850.79 3570.26,-854.3"/>
<polygon fill="#9a32cd" stroke="#9a32cd" points="1311.52,-401.25 1302.27,-406.42 1312.73,-408.14 1311.52,-401.25"/>
<text text-anchor="middle" x="2726" y="-497" font-family="Helvetica,sans-Serif" font-size="10.00"> refinedEntities</text>
</g>
<!-- Node40 -->
<g id="node40" class="node">
<title>Node40</title>
<g id="a_node40"><a xlink:title=" ">
<polygon fill="white" stroke="#bfbfbf" points="3088,-588 3088,-618 3313,-618 3313,-588 3088,-588"/>
<text text-anchor="start" x="3096" y="-606" font-family="Helvetica,sans-Serif" font-size="10.00">ptr_map&lt; boost::typeindex</text>
<text text-anchor="middle" x="3200.5" y="-595" font-family="Helvetica,sans-Serif" font-size="10.00">::type_index, MoFEM::UnknownInterface &gt;</text>
</a>
</g>
</g>
<!-- Node40&#45;&gt;Node22 -->
<g id="edge56" class="edge">
<title>Node40&#45;&gt;Node22</title>
<path fill="none" stroke="#9a32cd" stroke-dasharray="5,2" d="M3278.42,-620.25C3306.04,-626.44 3330.6,-631.93 3331,-632 3370.92,-638.77 3483.61,-624.13 3512,-653 3540.49,-681.98 3502.99,-804.63 3530,-835 3540.35,-846.64 3555.13,-853.14 3570.33,-856.61"/>
<polygon fill="#9a32cd" stroke="#9a32cd" points="3279.08,-616.81 3268.56,-618.04 3277.55,-623.64 3279.08,-616.81"/>
<text text-anchor="middle" x="3421.5" y="-656" font-family="Helvetica,sans-Serif" font-size="10.00"> iFaces</text>
</g>
<!-- Node41 -->
<g id="node41" class="node">
<title>Node41</title>
<g id="a_node41"><a xlink:title=" ">
<polygon fill="white" stroke="#bfbfbf" points="3553.5,-129.5 3553.5,-170.5 3718.5,-170.5 3718.5,-129.5 3553.5,-129.5"/>
<text text-anchor="start" x="3561.5" y="-158.5" font-family="Helvetica,sans-Serif" font-size="10.00">shared_ptr&lt; MoFEM::</text>
<text text-anchor="start" x="3561.5" y="-147.5" font-family="Helvetica,sans-Serif" font-size="10.00">ParentFiniteElementAdjacency</text>
<text text-anchor="middle" x="3636" y="-136.5" font-family="Helvetica,sans-Serif" font-size="10.00">FunctionSkeleton&lt; 2 &gt; &gt;</text>
</a>
</g>
</g>
<!-- Node41&#45;&gt;Node9 -->
<g id="edge57" class="edge">
<title>Node41&#45;&gt;Node9</title>
<path fill="none" stroke="#9a32cd" stroke-dasharray="5,2" d="M3728.89,-129.91C3790.75,-122.15 3869.88,-124.32 3920,-171 3983.92,-230.53 3983.78,-533.56 3983.14,-592.17"/>
<polygon fill="#9a32cd" stroke="#9a32cd" points="3728.16,-126.47 3718.72,-131.29 3729.1,-133.41 3728.16,-126.47"/>
<text text-anchor="middle" x="3840" y="-174" font-family="Helvetica,sans-Serif" font-size="10.00"> parentAdjSkeletonFunctionDim2</text>
</g>
<!-- Node42 -->
<g id="node42" class="node">
<title>Node42</title>
<g id="a_node42"><a xlink:title=" ">
<polygon fill="white" stroke="#bfbfbf" points="3553.5,-960.5 3553.5,-1001.5 3718.5,-1001.5 3718.5,-960.5 3553.5,-960.5"/>
<text text-anchor="start" x="3561.5" y="-989.5" font-family="Helvetica,sans-Serif" font-size="10.00">shared_ptr&lt; MoFEM::</text>
<text text-anchor="start" x="3561.5" y="-978.5" font-family="Helvetica,sans-Serif" font-size="10.00">ParentFiniteElementAdjacency</text>
<text text-anchor="middle" x="3636" y="-967.5" font-family="Helvetica,sans-Serif" font-size="10.00">Function&lt; 1 &gt; &gt;</text>
</a>
</g>
</g>
<!-- Node42&#45;&gt;Node9 -->
<g id="edge58" class="edge">
<title>Node42&#45;&gt;Node9</title>
<path fill="none" stroke="#9a32cd" stroke-dasharray="5,2" d="M3728.82,-1000.29C3790.45,-1007.55 3869.35,-1004.95 3920,-959 3973.25,-910.68 3981.63,-664.2 3982.82,-611.8"/>
<polygon fill="#9a32cd" stroke="#9a32cd" points="3729.05,-996.8 3718.69,-999 3728.16,-1003.74 3729.05,-996.8"/>
<text text-anchor="middle" x="3840" y="-1006" font-family="Helvetica,sans-Serif" font-size="10.00"> parentAdjFunctionDim1</text>
</g>
<!-- Node43 -->
<g id="node43" class="node">
<title>Node43</title>
<g id="a_node43"><a xlink:title=" ">
<polygon fill="white" stroke="#bfbfbf" points="3576.5,-887 3576.5,-917 3695.5,-917 3695.5,-887 3576.5,-887"/>
<text text-anchor="start" x="3584.5" y="-905" font-family="Helvetica,sans-Serif" font-size="10.00">bitset&lt; BITREFLEVEL</text>
<text text-anchor="middle" x="3636" y="-894" font-family="Helvetica,sans-Serif" font-size="10.00">_SIZE &gt;</text>
</a>
</g>
</g>
<!-- Node43&#45;&gt;Node9 -->
<g id="edge59" class="edge">
<title>Node43&#45;&gt;Node9</title>
<path fill="none" stroke="#9a32cd" stroke-dasharray="5,2" d="M3705.99,-895.94C3787.19,-888.52 3912.06,-876.07 3920,-869 3959.92,-833.44 3978.28,-654.91 3982.19,-611.52"/>
<polygon fill="#9a32cd" stroke="#9a32cd" points="3705.47,-892.48 3695.83,-896.87 3706.1,-899.45 3705.47,-892.48"/>
<text text-anchor="middle" x="3840" y="-948" font-family="Helvetica,sans-Serif" font-size="10.00"> bitLevel</text>
<text text-anchor="middle" x="3840" y="-937" font-family="Helvetica,sans-Serif" font-size="10.00">bitAdjParent</text>
<text text-anchor="middle" x="3840" y="-926" font-family="Helvetica,sans-Serif" font-size="10.00">bitAdjEnt</text>
<text text-anchor="middle" x="3840" y="-915" font-family="Helvetica,sans-Serif" font-size="10.00">bitAdjEntMask</text>
<text text-anchor="middle" x="3840" y="-904" font-family="Helvetica,sans-Serif" font-size="10.00">bitAdjParentMask</text>
<text text-anchor="middle" x="3840" y="-893" font-family="Helvetica,sans-Serif" font-size="10.00">bitLevelMask</text>
</g>
<!-- Node44 -->
<g id="node44" class="node">
<title>Node44</title>
<g id="a_node44"><a xlink:title=" ">
<polygon fill="white" stroke="#bfbfbf" points="3578.5,-784.5 3578.5,-825.5 3693.5,-825.5 3693.5,-784.5 3578.5,-784.5"/>
<text text-anchor="start" x="3586.5" y="-813.5" font-family="Helvetica,sans-Serif" font-size="10.00">list&lt; std::tuple&lt; std</text>
<text text-anchor="start" x="3586.5" y="-802.5" font-family="Helvetica,sans-Serif" font-size="10.00">::string, int, Range,</text>
<text text-anchor="middle" x="3636" y="-791.5" font-family="Helvetica,sans-Serif" font-size="10.00"> bool &gt; &gt;</text>
</a>
</g>
</g>
<!-- Node44&#45;&gt;Node9 -->
<g id="edge60" class="edge">
<title>Node44&#45;&gt;Node9</title>
<path fill="none" stroke="#9a32cd" stroke-dasharray="5,2" d="M3703.79,-807.94C3766.25,-807.18 3858.85,-796.61 3920,-747 3964.34,-711.03 3978.22,-637.79 3981.86,-611.59"/>
<polygon fill="#9a32cd" stroke="#9a32cd" points="3703.63,-804.44 3693.65,-807.98 3703.66,-811.44 3703.63,-804.44"/>
<text text-anchor="middle" x="3840" y="-807" font-family="Helvetica,sans-Serif" font-size="10.00"> fieldsOrder</text>
</g>
</g>
</svg>
        <g id="navigator" transform="translate(0 0)" fill="#404254">
                <rect fill="#f2f5e9" fill-opacity="0.5" stroke="#606060" stroke-width=".5" x="0" y="0" width="60" height="60"/>
                <use id="zoomplus" xlink:href="#zoomPlus" x="17" y="9" onmousedown="handleZoom(evt,'in')"/>
                <use id="zoomminus" xlink:href="#zoomMin" x="42" y="9" onmousedown="handleZoom(evt,'out')"/>
                <use id="reset" xlink:href="#resetDef" x="30" y="36" onmousedown="handleReset()"/>
                <g id="arrowUp" xlink:href="#dirArrow" transform="translate(30 24)" onmousedown="handlePan(0,-1)">
                  <use xlink:href="#rim" fill="#404040">
                        <set attributeName="fill" to="#808080" begin="arrowUp.mouseover" end="arrowUp.mouseout"/>
                  </use>
                  <path fill="none" stroke="white" stroke-width="1.5" d="M0,-3.0v7 M-2.5,-0.5L0,-3.0L2.5,-0.5"/>
                </g>
                <g id="arrowRight" xlink:href="#dirArrow" transform="rotate(90) translate(36 -43)" onmousedown="handlePan(1,0)">
                  <use xlink:href="#rim" fill="#404040">
                        <set attributeName="fill" to="#808080" begin="arrowRight.mouseover" end="arrowRight.mouseout"/>
                  </use>
                  <path fill="none" stroke="white" stroke-width="1.5" d="M0,-3.0v7 M-2.5,-0.5L0,-3.0L2.5,-0.5"/>
                </g>
                <g id="arrowDown" xlink:href="#dirArrow" transform="rotate(180) translate(-30 -48)" onmousedown="handlePan(0,1)">
                  <use xlink:href="#rim" fill="#404040">
                        <set attributeName="fill" to="#808080" begin="arrowDown.mouseover" end="arrowDown.mouseout"/>
                  </use>
                  <path fill="none" stroke="white" stroke-width="1.5" d="M0,-3.0v7 M-2.5,-0.5L0,-3.0L2.5,-0.5"/>
                </g>
                <g id="arrowLeft" xlink:href="#dirArrow" transform="rotate(270) translate(-36 17)" onmousedown="handlePan(-1,0)">
                  <use xlink:href="#rim" fill="#404040">
                        <set attributeName="fill" to="#808080" begin="arrowLeft.mouseover" end="arrowLeft.mouseout"/>
                  </use>
                  <path fill="none" stroke="white" stroke-width="1.5" d="M0,-3.0v7 M-2.5,-0.5L0,-3.0L2.5,-0.5"/>
                </g>
        </g>
        <svg viewBox="0 0 15 15" width="100%" height="30px" preserveAspectRatio="xMaxYMin meet">
         <g id="arrow_out" transform="scale(0.3 0.3)">
          <a xlink:href="structPoisson2DiscontGalerkin__coll__graph_org.svg" target="_base">
           <rect id="button" ry="5" rx="5" y="6" x="6" height="38" width="38"
                fill="#f2f5e9" fill-opacity="0.5" stroke="#606060" stroke-width="1.0"/>
           <path id="arrow"
             d="M 11.500037,31.436501 C 11.940474,20.09759 22.043105,11.32322 32.158766,21.979434 L 37.068811,17.246167 C 37.068811,17.246167 37.088388,32 37.088388,32 L 22.160133,31.978069 C 22.160133,31.978069 26.997745,27.140456 26.997745,27.140456 C 18.528582,18.264221 13.291696,25.230495 11.500037,31.436501 z"
             style="fill:#404040;"/>
          </a>
         </g>
        </svg>
</svg>
