<?xml version="1.0" encoding="UTF-8" standalone="no"?>
<!DOCTYPE svg PUBLIC "-//W3C//DTD SVG 1.1//EN"
 "http://www.w3.org/Graphics/SVG/1.1/DTD/svg11.dtd">
<!-- Generated by graphviz version 2.43.0 (0)
 -->
<!-- Title: EshelbianPlasticity::OpSpatialRotation_domega_dP Pages: 1 -->
<!--zoomable 363 -->
<svg id="main" version="1.1" xmlns="http://www.w3.org/2000/svg" xmlns:xlink="http://www.w3.org/1999/xlink" xml:space="preserve" onload="init(evt)">
<style type="text/css"><![CDATA[
.edge:hover path { stroke: red; }
.edge:hover polygon { stroke: red; fill: red; }
]]></style>
<script type="text/javascript"><![CDATA[
var edges = document.getElementsByTagName('g');
if (edges && edges.length) {
  for (var i=0;i<edges.length;i++) {
    if (edges[i].id.substr(0,4)=='edge') {
      edges[i].setAttribute('class','edge');
    }
  }
}
]]></script>
        <defs>
                <circle id="rim" cx="0" cy="0" r="7"/>
                <circle id="rim2" cx="0" cy="0" r="3.5"/>
                <g id="zoomPlus">
                        <use xlink:href="#rim" fill="#404040">
                                <set attributeName="fill" to="#808080" begin="zoomplus.mouseover" end="zoomplus.mouseout"/>
                        </use>
                        <path d="M-4,0h8M0,-4v8" fill="none" stroke="white" stroke-width="1.5" pointer-events="none"/>
                </g>
                <g id="zoomMin">
                        <use xlink:href="#rim" fill="#404040">
                                <set attributeName="fill" to="#808080" begin="zoomminus.mouseover" end="zoomminus.mouseout"/>
                        </use>
                        <path d="M-4,0h8" fill="none" stroke="white" stroke-width="1.5" pointer-events="none"/>
                </g>
                <g id="dirArrow">
                        <path fill="none" stroke="white" stroke-width="1.5" d="M0,-3.0v7 M-2.5,-0.5L0,-3.0L2.5,-0.5"/>
                </g>
               <g id="resetDef">
                       <use xlink:href="#rim2" fill="#404040">
                               <set attributeName="fill" to="#808080" begin="reset.mouseover" end="reset.mouseout"/>
                       </use>
               </g>
        </defs>

<script type="text/javascript">
var viewWidth = 1088;
var viewHeight = 363;
var sectionId = 'dynsection-1';
</script>
<script xlink:href="svgpan.js"/>
<svg id="graph" class="graph">
<g id="viewport">
<title>EshelbianPlasticity::OpSpatialRotation_domega_dP</title>
<polygon fill="white" stroke="transparent" points="-4,4 -4,-359 1084,-359 1084,4 -4,4"/>
<!-- Node1 -->
<g id="node1" class="node">
<title>Node1</title>
<g id="a_node1"><a xlink:title=" ">
<polygon fill="#bfbfbf" stroke="black" points="969,-145.5 969,-186.5 1080,-186.5 1080,-145.5 969,-145.5"/>
<text text-anchor="start" x="977" y="-174.5" font-family="Helvetica,sans-Serif" font-size="10.00">EshelbianPlasticity</text>
<text text-anchor="start" x="977" y="-163.5" font-family="Helvetica,sans-Serif" font-size="10.00">::OpSpatialRotation</text>
<text text-anchor="middle" x="1024.5" y="-152.5" font-family="Helvetica,sans-Serif" font-size="10.00">_domega_dP</text>
</a>
</g>
</g>
<!-- Node2 -->
<g id="node2" class="node">
<title>Node2</title>
<g id="a_node2"><a xlink:href="structEshelbianPlasticity_1_1OpAssembleVolume.html" target="_top" xlink:title=" ">
<polygon fill="white" stroke="black" points="811,-151 811,-181 932,-181 932,-151 811,-151"/>
<text text-anchor="start" x="819" y="-169" font-family="Helvetica,sans-Serif" font-size="10.00">EshelbianPlasticity</text>
<text text-anchor="middle" x="871.5" y="-158" font-family="Helvetica,sans-Serif" font-size="10.00">::OpAssembleVolume</text>
</a>
</g>
</g>
<!-- Node2&#45;&gt;Node1 -->
<g id="edge1" class="edge">
<title>Node2&#45;&gt;Node1</title>
<path fill="none" stroke="midnightblue" d="M942.44,-166C951.24,-166 960.15,-166 968.67,-166"/>
<polygon fill="midnightblue" stroke="midnightblue" points="942.18,-162.5 932.18,-166 942.18,-169.5 942.18,-162.5"/>
</g>
<!-- Node3 -->
<g id="node3" class="node">
<title>Node3</title>
<g id="a_node3"><a xlink:href="structEshelbianPlasticity_1_1OpAssembleBasic.html" target="_top" xlink:title=" ">
<polygon fill="white" stroke="black" points="615,-145.5 615,-186.5 774,-186.5 774,-145.5 615,-145.5"/>
<text text-anchor="start" x="623" y="-174.5" font-family="Helvetica,sans-Serif" font-size="10.00">EshelbianPlasticity</text>
<text text-anchor="start" x="623" y="-163.5" font-family="Helvetica,sans-Serif" font-size="10.00">::OpAssembleBasic&lt; VolUser</text>
<text text-anchor="middle" x="694.5" y="-152.5" font-family="Helvetica,sans-Serif" font-size="10.00">DataOperator &gt;</text>
</a>
</g>
</g>
<!-- Node3&#45;&gt;Node2 -->
<g id="edge2" class="edge">
<title>Node3&#45;&gt;Node2</title>
<path fill="none" stroke="midnightblue" d="M784.21,-166C793.23,-166 802.23,-166 810.84,-166"/>
<polygon fill="midnightblue" stroke="midnightblue" points="784.04,-162.5 774.04,-166 784.04,-169.5 784.04,-162.5"/>
</g>
<!-- Node4 -->
<g id="node4" class="node">
<title>Node4</title>
<g id="a_node4"><a xlink:title=" ">
<polygon fill="white" stroke="#bfbfbf" points="319.5,-335.5 319.5,-354.5 439.5,-354.5 439.5,-335.5 319.5,-335.5"/>
<text text-anchor="middle" x="379.5" y="-342.5" font-family="Helvetica,sans-Serif" font-size="10.00">VolUserDataOperator</text>
</a>
</g>
</g>
<!-- Node4&#45;&gt;Node3 -->
<g id="edge3" class="edge">
<title>Node4&#45;&gt;Node3</title>
<path fill="none" stroke="midnightblue" d="M449.68,-347.15C494.85,-345.44 553.34,-337.05 597,-309 643.37,-279.22 672.93,-218.37 685.9,-186.5"/>
<polygon fill="midnightblue" stroke="midnightblue" points="449.57,-343.66 439.67,-347.43 449.76,-350.65 449.57,-343.66"/>
</g>
<!-- Node5 -->
<g id="node5" class="node">
<title>Node5</title>
<g id="a_node5"><a xlink:title=" ">
<polygon fill="white" stroke="#bfbfbf" points="44.5,-266.5 44.5,-285.5 127.5,-285.5 127.5,-266.5 44.5,-266.5"/>
<text text-anchor="middle" x="86" y="-273.5" font-family="Helvetica,sans-Serif" font-size="10.00">MatrixDouble</text>
</a>
</g>
</g>
<!-- Node5&#45;&gt;Node3 -->
<g id="edge4" class="edge">
<title>Node5&#45;&gt;Node3</title>
<path fill="none" stroke="#9a32cd" stroke-dasharray="5,2" d="M137.82,-281.65C179.45,-285.22 239.79,-287.98 292,-281 420.29,-263.86 564.87,-214.71 640.66,-186.52"/>
<polygon fill="#9a32cd" stroke="#9a32cd" points="137.93,-278.14 127.66,-280.73 137.3,-285.12 137.93,-278.14"/>
<text text-anchor="middle" x="379.5" y="-292" font-family="Helvetica,sans-Serif" font-size="10.00"> K</text>
<text text-anchor="middle" x="379.5" y="-281" font-family="Helvetica,sans-Serif" font-size="10.00">transposeK</text>
</g>
<!-- Node10 -->
<g id="node10" class="node">
<title>Node10</title>
<g id="a_node10"><a xlink:href="structEshelbianPlasticity_1_1OpAssembleBasic.html" target="_top" xlink:title=" ">
<polygon fill="white" stroke="black" points="310,-99 310,-129 449,-129 449,-99 310,-99"/>
<text text-anchor="start" x="318" y="-117" font-family="Helvetica,sans-Serif" font-size="10.00">EshelbianPlasticity</text>
<text text-anchor="middle" x="379.5" y="-106" font-family="Helvetica,sans-Serif" font-size="10.00">::OpAssembleBasic&lt; T &gt;</text>
</a>
</g>
</g>
<!-- Node5&#45;&gt;Node10 -->
<g id="edge11" class="edge">
<title>Node5&#45;&gt;Node10</title>
<path fill="none" stroke="#9a32cd" stroke-dasharray="5,2" d="M137.98,-270.44C184.26,-262.76 251.29,-244.6 292,-202 310.65,-182.49 292.01,-164.12 310,-144 315.45,-137.9 322.37,-132.99 329.7,-129.05"/>
<polygon fill="#9a32cd" stroke="#9a32cd" points="137.21,-267.02 127.86,-272.01 138.28,-273.94 137.21,-267.02"/>
<text text-anchor="middle" x="241" y="-272" font-family="Helvetica,sans-Serif" font-size="10.00"> K</text>
<text text-anchor="middle" x="241" y="-261" font-family="Helvetica,sans-Serif" font-size="10.00">transposeK</text>
</g>
<!-- Node6 -->
<g id="node6" class="node">
<title>Node6</title>
<g id="a_node6"><a xlink:title=" ">
<polygon fill="white" stroke="#bfbfbf" points="0,-144 0,-174 172,-174 172,-144 0,-144"/>
<text text-anchor="start" x="8" y="-162" font-family="Helvetica,sans-Serif" font-size="10.00">shared_ptr&lt; EshelbianPlasticity</text>
<text text-anchor="middle" x="86" y="-151" font-family="Helvetica,sans-Serif" font-size="10.00">::DataAtIntegrationPts &gt;</text>
</a>
</g>
</g>
<!-- Node6&#45;&gt;Node3 -->
<g id="edge5" class="edge">
<title>Node6&#45;&gt;Node3</title>
<path fill="none" stroke="#9a32cd" stroke-dasharray="5,2" d="M182.52,-160.1C301.94,-161.48 504.11,-163.81 614.97,-165.09"/>
<polygon fill="#9a32cd" stroke="#9a32cd" points="182.33,-156.6 172.29,-159.98 182.25,-163.6 182.33,-156.6"/>
<text text-anchor="middle" x="379.5" y="-166" font-family="Helvetica,sans-Serif" font-size="10.00"> dataAtPts</text>
</g>
<!-- Node6&#45;&gt;Node10 -->
<g id="edge12" class="edge">
<title>Node6&#45;&gt;Node10</title>
<path fill="none" stroke="#9a32cd" stroke-dasharray="5,2" d="M181.86,-142.31C184.6,-141.86 187.32,-141.43 190,-141 229.67,-134.69 274.14,-128.29 309.93,-123.31"/>
<polygon fill="#9a32cd" stroke="#9a32cd" points="181.14,-138.88 171.84,-143.96 182.27,-145.79 181.14,-138.88"/>
<text text-anchor="middle" x="241" y="-144" font-family="Helvetica,sans-Serif" font-size="10.00"> dataAtPts</text>
</g>
<!-- Node7 -->
<g id="node7" class="node">
<title>Node7</title>
<g id="a_node7"><a xlink:href="classbool.html" target="_top" xlink:title=" ">
<polygon fill="white" stroke="black" points="67,-195.5 67,-214.5 105,-214.5 105,-195.5 67,-195.5"/>
<text text-anchor="middle" x="86" y="-202.5" font-family="Helvetica,sans-Serif" font-size="10.00">bool</text>
</a>
</g>
</g>
<!-- Node7&#45;&gt;Node3 -->
<g id="edge6" class="edge">
<title>Node7&#45;&gt;Node3</title>
<path fill="none" stroke="#9a32cd" stroke-dasharray="5,2" d="M115.32,-205.16C154.89,-205.25 228.95,-204.94 292,-202 427.83,-195.67 461.72,-191.73 597,-178 602.79,-177.41 608.78,-176.76 614.8,-176.08"/>
<polygon fill="#9a32cd" stroke="#9a32cd" points="115.12,-201.66 105.11,-205.12 115.1,-208.66 115.12,-201.66"/>
<text text-anchor="middle" x="379.5" y="-203" font-family="Helvetica,sans-Serif" font-size="10.00"> assembleSymmetry</text>
</g>
<!-- Node7&#45;&gt;Node10 -->
<g id="edge13" class="edge">
<title>Node7&#45;&gt;Node10</title>
<path fill="none" stroke="#9a32cd" stroke-dasharray="5,2" d="M115.18,-201.48C155.65,-195.71 231.96,-182.19 292,-156 300.81,-152.16 301.56,-148.61 310,-144 319.8,-138.64 330.74,-133.5 340.96,-129.03"/>
<polygon fill="#9a32cd" stroke="#9a32cd" points="114.66,-198.01 105.23,-202.84 115.61,-204.95 114.66,-198.01"/>
<text text-anchor="middle" x="241" y="-190" font-family="Helvetica,sans-Serif" font-size="10.00"> assembleSymmetry</text>
</g>
<!-- Node8 -->
<g id="node8" class="node">
<title>Node8</title>
<g id="a_node8"><a xlink:title=" ">
<polygon fill="white" stroke="#bfbfbf" points="28,-0.5 28,-19.5 144,-19.5 144,-0.5 28,-0.5"/>
<text text-anchor="middle" x="86" y="-7.5" font-family="Helvetica,sans-Serif" font-size="10.00">function&lt; double()&gt;</text>
</a>
</g>
</g>
<!-- Node8&#45;&gt;Node3 -->
<g id="edge7" class="edge">
<title>Node8&#45;&gt;Node3</title>
<path fill="none" stroke="#9a32cd" stroke-dasharray="5,2" d="M154.21,-5.42C255.81,-1.37 451.99,-4.99 597,-78 629.61,-94.42 659.37,-124.99 676.97,-145.42"/>
<polygon fill="#9a32cd" stroke="#9a32cd" points="153.92,-1.93 144.09,-5.86 154.23,-8.92 153.92,-1.93"/>
<text text-anchor="middle" x="379.5" y="-30" font-family="Helvetica,sans-Serif" font-size="10.00"> scaleOff</text>
</g>
<!-- Node8&#45;&gt;Node10 -->
<g id="edge14" class="edge">
<title>Node8&#45;&gt;Node10</title>
<path fill="none" stroke="#9a32cd" stroke-dasharray="5,2" d="M152.68,-21.55C193.7,-30 247.07,-43.28 292,-62 315.61,-71.84 340.43,-87.37 357.39,-98.9"/>
<polygon fill="#9a32cd" stroke="#9a32cd" points="153.29,-18.1 142.8,-19.56 151.91,-24.97 153.29,-18.1"/>
<text text-anchor="middle" x="241" y="-65" font-family="Helvetica,sans-Serif" font-size="10.00"> scaleOff</text>
</g>
<!-- Node9 -->
<g id="node9" class="node">
<title>Node9</title>
<g id="a_node9"><a xlink:title=" ">
<polygon fill="white" stroke="#bfbfbf" points="45,-48.5 45,-67.5 127,-67.5 127,-48.5 45,-48.5"/>
<text text-anchor="middle" x="86" y="-55.5" font-family="Helvetica,sans-Serif" font-size="10.00">VectorDouble</text>
</a>
</g>
</g>
<!-- Node9&#45;&gt;Node3 -->
<g id="edge8" class="edge">
<title>Node9&#45;&gt;Node3</title>
<path fill="none" stroke="#9a32cd" stroke-dasharray="5,2" d="M137.53,-57.48C207.83,-57.51 338.91,-60.28 449,-78 516.27,-88.83 533.3,-93.82 597,-118 617.12,-125.64 638.63,-136.1 656.23,-145.31"/>
<polygon fill="#9a32cd" stroke="#9a32cd" points="137.19,-53.98 127.2,-57.5 137.2,-60.98 137.19,-53.98"/>
<text text-anchor="middle" x="379.5" y="-81" font-family="Helvetica,sans-Serif" font-size="10.00"> nF</text>
</g>
<!-- Node9&#45;&gt;Node10 -->
<g id="edge15" class="edge">
<title>Node9&#45;&gt;Node10</title>
<path fill="none" stroke="#9a32cd" stroke-dasharray="5,2" d="M137.03,-66.49C178.6,-73.67 239.25,-84.45 292,-95 298.18,-96.24 304.6,-97.56 311.03,-98.92"/>
<polygon fill="#9a32cd" stroke="#9a32cd" points="137.6,-63.03 127.15,-64.79 136.41,-69.93 137.6,-63.03"/>
<text text-anchor="middle" x="241" y="-98" font-family="Helvetica,sans-Serif" font-size="10.00"> nF</text>
</g>
<!-- Node10&#45;&gt;Node3 -->
<g id="edge9" class="edge">
<title>Node10&#45;&gt;Node3</title>
<path fill="none" stroke="orange" stroke-dasharray="5,2" d="M459.1,-121.33C500.36,-125.8 551.63,-132.33 597,-141 603.88,-142.32 611.01,-143.84 618.12,-145.48"/>
<polygon fill="orange" stroke="orange" points="459.42,-117.84 449.11,-120.26 458.68,-124.8 459.42,-117.84"/>
<text text-anchor="middle" x="532" y="-144" font-family="Helvetica,sans-Serif" font-size="10.00"> &lt; VolUserDataOperator &gt;</text>
</g>
<!-- Node11 -->
<g id="node11" class="node">
<title>Node11</title>
<g id="a_node11"><a xlink:title=" ">
<polygon fill="white" stroke="#bfbfbf" points="71.5,-97.5 71.5,-116.5 100.5,-116.5 100.5,-97.5 71.5,-97.5"/>
<text text-anchor="middle" x="86" y="-104.5" font-family="Helvetica,sans-Serif" font-size="10.00">T</text>
</a>
</g>
</g>
<!-- Node11&#45;&gt;Node10 -->
<g id="edge10" class="edge">
<title>Node11&#45;&gt;Node10</title>
<path fill="none" stroke="midnightblue" d="M110.72,-107.57C153.68,-108.6 245.86,-110.81 309.99,-112.35"/>
<polygon fill="midnightblue" stroke="midnightblue" points="110.75,-104.07 100.67,-107.33 110.58,-111.07 110.75,-104.07"/>
</g>
</g>
</svg>
        <g id="navigator" transform="translate(0 0)" fill="#404254">
                <rect fill="#f2f5e9" fill-opacity="0.5" stroke="#606060" stroke-width=".5" x="0" y="0" width="60" height="60"/>
                <use id="zoomplus" xlink:href="#zoomPlus" x="17" y="9" onmousedown="handleZoom(evt,'in')"/>
                <use id="zoomminus" xlink:href="#zoomMin" x="42" y="9" onmousedown="handleZoom(evt,'out')"/>
                <use id="reset" xlink:href="#resetDef" x="30" y="36" onmousedown="handleReset()"/>
                <g id="arrowUp" xlink:href="#dirArrow" transform="translate(30 24)" onmousedown="handlePan(0,-1)">
                  <use xlink:href="#rim" fill="#404040">
                        <set attributeName="fill" to="#808080" begin="arrowUp.mouseover" end="arrowUp.mouseout"/>
                  </use>
                  <path fill="none" stroke="white" stroke-width="1.5" d="M0,-3.0v7 M-2.5,-0.5L0,-3.0L2.5,-0.5"/>
                </g>
                <g id="arrowRight" xlink:href="#dirArrow" transform="rotate(90) translate(36 -43)" onmousedown="handlePan(1,0)">
                  <use xlink:href="#rim" fill="#404040">
                        <set attributeName="fill" to="#808080" begin="arrowRight.mouseover" end="arrowRight.mouseout"/>
                  </use>
                  <path fill="none" stroke="white" stroke-width="1.5" d="M0,-3.0v7 M-2.5,-0.5L0,-3.0L2.5,-0.5"/>
                </g>
                <g id="arrowDown" xlink:href="#dirArrow" transform="rotate(180) translate(-30 -48)" onmousedown="handlePan(0,1)">
                  <use xlink:href="#rim" fill="#404040">
                        <set attributeName="fill" to="#808080" begin="arrowDown.mouseover" end="arrowDown.mouseout"/>
                  </use>
                  <path fill="none" stroke="white" stroke-width="1.5" d="M0,-3.0v7 M-2.5,-0.5L0,-3.0L2.5,-0.5"/>
                </g>
                <g id="arrowLeft" xlink:href="#dirArrow" transform="rotate(270) translate(-36 17)" onmousedown="handlePan(-1,0)">
                  <use xlink:href="#rim" fill="#404040">
                        <set attributeName="fill" to="#808080" begin="arrowLeft.mouseover" end="arrowLeft.mouseout"/>
                  </use>
                  <path fill="none" stroke="white" stroke-width="1.5" d="M0,-3.0v7 M-2.5,-0.5L0,-3.0L2.5,-0.5"/>
                </g>
        </g>
        <svg viewBox="0 0 15 15" width="100%" height="30px" preserveAspectRatio="xMaxYMin meet">
         <g id="arrow_out" transform="scale(0.3 0.3)">
          <a xlink:href="structEshelbianPlasticity_1_1OpSpatialRotation__domega__dP__coll__graph_org.svg" target="_base">
           <rect id="button" ry="5" rx="5" y="6" x="6" height="38" width="38"
                fill="#f2f5e9" fill-opacity="0.5" stroke="#606060" stroke-width="1.0"/>
           <path id="arrow"
             d="M 11.500037,31.436501 C 11.940474,20.09759 22.043105,11.32322 32.158766,21.979434 L 37.068811,17.246167 C 37.068811,17.246167 37.088388,32 37.088388,32 L 22.160133,31.978069 C 22.160133,31.978069 26.997745,27.140456 26.997745,27.140456 C 18.528582,18.264221 13.291696,25.230495 11.500037,31.436501 z"
             style="fill:#404040;"/>
          </a>
         </g>
        </svg>
</svg>
