<?xml version="1.0" encoding="UTF-8" standalone="no"?>
<!DOCTYPE svg PUBLIC "-//W3C//DTD SVG 1.1//EN"
 "http://www.w3.org/Graphics/SVG/1.1/DTD/svg11.dtd">
<!-- Generated by graphviz version 2.43.0 (0)
 -->
<!-- Title: NavierStokesElement::OpAssembleRhs Pages: 1 -->
<!--zoomable 1503 -->
<svg id="main" version="1.1" xmlns="http://www.w3.org/2000/svg" xmlns:xlink="http://www.w3.org/1999/xlink" xml:space="preserve" onload="init(evt)">
<style type="text/css"><![CDATA[
.edge:hover path { stroke: red; }
.edge:hover polygon { stroke: red; fill: red; }
]]></style>
<script type="text/javascript"><![CDATA[
var edges = document.getElementsByTagName('g');
if (edges && edges.length) {
  for (var i=0;i<edges.length;i++) {
    if (edges[i].id.substr(0,4)=='edge') {
      edges[i].setAttribute('class','edge');
    }
  }
}
]]></script>
        <defs>
                <circle id="rim" cx="0" cy="0" r="7"/>
                <circle id="rim2" cx="0" cy="0" r="3.5"/>
                <g id="zoomPlus">
                        <use xlink:href="#rim" fill="#404040">
                                <set attributeName="fill" to="#808080" begin="zoomplus.mouseover" end="zoomplus.mouseout"/>
                        </use>
                        <path d="M-4,0h8M0,-4v8" fill="none" stroke="white" stroke-width="1.5" pointer-events="none"/>
                </g>
                <g id="zoomMin">
                        <use xlink:href="#rim" fill="#404040">
                                <set attributeName="fill" to="#808080" begin="zoomminus.mouseover" end="zoomminus.mouseout"/>
                        </use>
                        <path d="M-4,0h8" fill="none" stroke="white" stroke-width="1.5" pointer-events="none"/>
                </g>
                <g id="dirArrow">
                        <path fill="none" stroke="white" stroke-width="1.5" d="M0,-3.0v7 M-2.5,-0.5L0,-3.0L2.5,-0.5"/>
                </g>
               <g id="resetDef">
                       <use xlink:href="#rim2" fill="#404040">
                               <set attributeName="fill" to="#808080" begin="reset.mouseover" end="reset.mouseout"/>
                       </use>
               </g>
        </defs>

<script type="text/javascript">
var viewWidth = 3476;
var viewHeight = 1503;
var sectionId = 'dynsection-1';
</script>
<script xlink:href="svgpan.js"/>
<svg id="graph" class="graph">
<g id="viewport">
<title>NavierStokesElement::OpAssembleRhs</title>
<polygon fill="white" stroke="transparent" points="-4,4 -4,-1499 3472,-1499 3472,4 -4,4"/>
<!-- Node1 -->
<g id="node1" class="node">
<title>Node1</title>
<g id="a_node1"><a xlink:title="Base class for operators assembling RHS.">
<polygon fill="#bfbfbf" stroke="black" points="3346,-1344 3346,-1374 3468,-1374 3468,-1344 3346,-1344"/>
<text text-anchor="start" x="3354" y="-1362" font-family="Helvetica,sans-Serif" font-size="10.00">NavierStokesElement</text>
<text text-anchor="middle" x="3407" y="-1351" font-family="Helvetica,sans-Serif" font-size="10.00">::OpAssembleRhs</text>
</a>
</g>
</g>
<!-- Node2 -->
<g id="node2" class="node">
<title>Node2</title>
<g id="a_node2"><a xlink:href="structMoFEM_1_1VolumeElementForcesAndSourcesCore_1_1UserDataOperator.html" target="_top" xlink:title=" ">
<polygon fill="white" stroke="black" points="3115.5,-1349.5 3115.5,-1368.5 3220.5,-1368.5 3220.5,-1349.5 3115.5,-1349.5"/>
<text text-anchor="middle" x="3168" y="-1356.5" font-family="Helvetica,sans-Serif" font-size="10.00">UserDataOperator</text>
</a>
</g>
</g>
<!-- Node2&#45;&gt;Node1 -->
<g id="edge1" class="edge">
<title>Node2&#45;&gt;Node1</title>
<path fill="none" stroke="midnightblue" d="M3230.92,-1359C3266.3,-1359 3310.47,-1359 3345.6,-1359"/>
<polygon fill="midnightblue" stroke="midnightblue" points="3230.72,-1355.5 3220.72,-1359 3230.72,-1362.5 3230.72,-1355.5"/>
</g>
<!-- Node3 -->
<g id="node3" class="node">
<title>Node3</title>
<g id="a_node3"><a xlink:href="structMoFEM_1_1ForcesAndSourcesCore_1_1UserDataOperator.html" target="_top" xlink:title=" ">
<polygon fill="white" stroke="black" points="2837,-1092 2837,-1122 3007,-1122 3007,-1092 2837,-1092"/>
<text text-anchor="start" x="2845" y="-1110" font-family="Helvetica,sans-Serif" font-size="10.00">MoFEM::ForcesAndSourcesCore</text>
<text text-anchor="middle" x="2922" y="-1099" font-family="Helvetica,sans-Serif" font-size="10.00">::UserDataOperator</text>
</a>
</g>
</g>
<!-- Node3&#45;&gt;Node2 -->
<g id="edge2" class="edge">
<title>Node3&#45;&gt;Node2</title>
<path fill="none" stroke="midnightblue" d="M2934.33,-1131.38C2957.63,-1178.82 3015.6,-1283.72 3096,-1339 3102.33,-1343.35 3109.6,-1346.76 3117.01,-1349.44"/>
<polygon fill="midnightblue" stroke="midnightblue" points="2937.38,-1129.65 2929.88,-1122.17 2931.07,-1132.69 2937.38,-1129.65"/>
</g>
<!-- Node4 -->
<g id="node4" class="node">
<title>Node4</title>
<g id="a_node4"><a xlink:href="structMoFEM_1_1DataOperator.html" target="_top" xlink:title="base operator to do operations at Gauss Pt. level">
<polygon fill="white" stroke="black" points="2579.5,-1097.5 2579.5,-1116.5 2704.5,-1116.5 2704.5,-1097.5 2579.5,-1097.5"/>
<text text-anchor="middle" x="2642" y="-1104.5" font-family="Helvetica,sans-Serif" font-size="10.00">MoFEM::DataOperator</text>
</a>
</g>
</g>
<!-- Node4&#45;&gt;Node3 -->
<g id="edge3" class="edge">
<title>Node4&#45;&gt;Node3</title>
<path fill="none" stroke="midnightblue" d="M2714.97,-1107C2752.22,-1107 2797.92,-1107 2836.81,-1107"/>
<polygon fill="midnightblue" stroke="midnightblue" points="2714.7,-1103.5 2704.7,-1107 2714.7,-1110.5 2714.7,-1103.5"/>
</g>
<!-- Node5 -->
<g id="node5" class="node">
<title>Node5</title>
<g id="a_node5"><a xlink:title=" ">
<polygon fill="white" stroke="#bfbfbf" points="2160,-1071 2160,-1123 2352,-1123 2352,-1071 2160,-1071"/>
<text text-anchor="start" x="2168" y="-1111" font-family="Helvetica,sans-Serif" font-size="10.00">function&lt; MoFEMErrorCode</text>
<text text-anchor="start" x="2168" y="-1100" font-family="Helvetica,sans-Serif" font-size="10.00">(DataOperator *op_ptr,</text>
<text text-anchor="start" x="2168" y="-1089" font-family="Helvetica,sans-Serif" font-size="10.00"> int side, EntityType type,</text>
<text text-anchor="middle" x="2256" y="-1078" font-family="Helvetica,sans-Serif" font-size="10.00"> EntitiesFieldData::EntData &amp;data)&gt;</text>
</a>
</g>
</g>
<!-- Node5&#45;&gt;Node4 -->
<g id="edge4" class="edge">
<title>Node5&#45;&gt;Node4</title>
<path fill="none" stroke="#9a32cd" stroke-dasharray="5,2" d="M2362.2,-1089.83C2415.29,-1087.46 2480.64,-1086.45 2539,-1091 2555.8,-1092.31 2574.01,-1094.81 2590.34,-1097.46"/>
<polygon fill="#9a32cd" stroke="#9a32cd" points="2361.92,-1086.33 2352.1,-1090.3 2362.25,-1093.33 2361.92,-1086.33"/>
<text text-anchor="middle" x="2458" y="-1094" font-family="Helvetica,sans-Serif" font-size="10.00"> doWorkRhsHook</text>
</g>
<!-- Node6 -->
<g id="node6" class="node">
<title>Node6</title>
<g id="a_node6"><a xlink:href="classbool.html" target="_top" xlink:title=" ">
<polygon fill="white" stroke="black" points="2237,-1142.5 2237,-1161.5 2275,-1161.5 2275,-1142.5 2237,-1142.5"/>
<text text-anchor="middle" x="2256" y="-1149.5" font-family="Helvetica,sans-Serif" font-size="10.00">bool</text>
</a>
</g>
</g>
<!-- Node6&#45;&gt;Node4 -->
<g id="edge5" class="edge">
<title>Node6&#45;&gt;Node4</title>
<path fill="none" stroke="#9a32cd" stroke-dasharray="5,2" d="M2285.31,-1147.83C2305.96,-1144.46 2334.5,-1139.1 2359,-1132 2367.24,-1129.61 2368.62,-1126.87 2377,-1125 2445.15,-1109.8 2525.44,-1106.3 2579.43,-1105.97"/>
<polygon fill="#9a32cd" stroke="#9a32cd" points="2284.62,-1144.4 2275.29,-1149.42 2285.71,-1151.31 2284.62,-1144.4"/>
<text text-anchor="middle" x="2458" y="-1194" font-family="Helvetica,sans-Serif" font-size="10.00"> doTris</text>
<text text-anchor="middle" x="2458" y="-1183" font-family="Helvetica,sans-Serif" font-size="10.00">doQuads</text>
<text text-anchor="middle" x="2458" y="-1172" font-family="Helvetica,sans-Serif" font-size="10.00">sYmm</text>
<text text-anchor="middle" x="2458" y="-1161" font-family="Helvetica,sans-Serif" font-size="10.00">doPrisms</text>
<text text-anchor="middle" x="2458" y="-1150" font-family="Helvetica,sans-Serif" font-size="10.00">doTets</text>
<text text-anchor="middle" x="2458" y="-1139" font-family="Helvetica,sans-Serif" font-size="10.00">doVertices</text>
<text text-anchor="middle" x="2458" y="-1128" font-family="Helvetica,sans-Serif" font-size="10.00">doEdges</text>
</g>
<!-- Node7 -->
<g id="node7" class="node">
<title>Node7</title>
<g id="a_node7"><a xlink:title=" ">
<polygon fill="white" stroke="#bfbfbf" points="2153,-966.5 2153,-1051.5 2359,-1051.5 2359,-966.5 2153,-966.5"/>
<text text-anchor="start" x="2161" y="-1039.5" font-family="Helvetica,sans-Serif" font-size="10.00">function&lt; MoFEMErrorCode</text>
<text text-anchor="start" x="2161" y="-1028.5" font-family="Helvetica,sans-Serif" font-size="10.00">(DataOperator *op_ptr,</text>
<text text-anchor="start" x="2161" y="-1017.5" font-family="Helvetica,sans-Serif" font-size="10.00"> int row_side, int col_side,</text>
<text text-anchor="start" x="2161" y="-1006.5" font-family="Helvetica,sans-Serif" font-size="10.00"> EntityType row_type, EntityType</text>
<text text-anchor="start" x="2161" y="-995.5" font-family="Helvetica,sans-Serif" font-size="10.00"> col_type, EntitiesFieldData::EntData</text>
<text text-anchor="start" x="2161" y="-984.5" font-family="Helvetica,sans-Serif" font-size="10.00"> &amp;row_data, EntitiesFieldData::EntData</text>
<text text-anchor="middle" x="2256" y="-973.5" font-family="Helvetica,sans-Serif" font-size="10.00"> &amp;col_data)&gt;</text>
</a>
</g>
</g>
<!-- Node7&#45;&gt;Node4 -->
<g id="edge6" class="edge">
<title>Node7&#45;&gt;Node4</title>
<path fill="none" stroke="#9a32cd" stroke-dasharray="5,2" d="M2369.29,-1022.05C2422.7,-1031.32 2486.25,-1046.93 2539,-1073 2548.34,-1077.61 2547.66,-1083.39 2557,-1088 2564.78,-1091.84 2573.34,-1094.91 2581.94,-1097.37"/>
<polygon fill="#9a32cd" stroke="#9a32cd" points="2369.53,-1018.55 2359.09,-1020.34 2368.37,-1025.45 2369.53,-1018.55"/>
<text text-anchor="middle" x="2458" y="-1076" font-family="Helvetica,sans-Serif" font-size="10.00"> doWorkLhsHook</text>
</g>
<!-- Node8 -->
<g id="node8" class="node">
<title>Node8</title>
<g id="a_node8"><a xlink:title=" ">
<polygon fill="white" stroke="#bfbfbf" points="2179,-1250.5 2179,-1269.5 2333,-1269.5 2333,-1250.5 2179,-1250.5"/>
<text text-anchor="middle" x="2256" y="-1257.5" font-family="Helvetica,sans-Serif" font-size="10.00">array&lt; bool, MBMAXTYPE &gt;</text>
</a>
</g>
</g>
<!-- Node8&#45;&gt;Node4 -->
<g id="edge7" class="edge">
<title>Node8&#45;&gt;Node4</title>
<path fill="none" stroke="#9a32cd" stroke-dasharray="5,2" d="M2343.56,-1257.92C2421.11,-1255.21 2524.79,-1249.16 2539,-1236 2575.36,-1202.35 2523.04,-1162.07 2557,-1126 2563.15,-1119.47 2571.03,-1114.95 2579.49,-1111.87"/>
<polygon fill="#9a32cd" stroke="#9a32cd" points="2343.16,-1254.43 2333.28,-1258.27 2343.4,-1261.43 2343.16,-1254.43"/>
<text text-anchor="middle" x="2458" y="-1260" font-family="Helvetica,sans-Serif" font-size="10.00"> doEntities</text>
</g>
<!-- Node9 -->
<g id="node9" class="node">
<title>Node9</title>
<g id="a_node9"><a xlink:title=" ">
<polygon fill="white" stroke="#bfbfbf" points="2607.5,-1135.5 2607.5,-1154.5 2676.5,-1154.5 2676.5,-1135.5 2607.5,-1135.5"/>
<text text-anchor="middle" x="2642" y="-1142.5" font-family="Helvetica,sans-Serif" font-size="10.00">FieldSpace</text>
</a>
</g>
</g>
<!-- Node9&#45;&gt;Node3 -->
<g id="edge8" class="edge">
<title>Node9&#45;&gt;Node3</title>
<path fill="none" stroke="#9a32cd" stroke-dasharray="5,2" d="M2686.8,-1139.04C2722.41,-1134.19 2773.95,-1127.16 2819,-1121 2824.84,-1120.2 2830.88,-1119.37 2836.95,-1118.54"/>
<polygon fill="#9a32cd" stroke="#9a32cd" points="2686.18,-1135.59 2676.74,-1140.41 2687.12,-1142.53 2686.18,-1135.59"/>
<text text-anchor="middle" x="2782" y="-1134" font-family="Helvetica,sans-Serif" font-size="10.00"> sPace</text>
</g>
<!-- Node10 -->
<g id="node10" class="node">
<title>Node10</title>
<g id="a_node10"><a xlink:title=" ">
<polygon fill="white" stroke="#bfbfbf" points="1122.5,-1328.5 1122.5,-1347.5 1160.5,-1347.5 1160.5,-1328.5 1122.5,-1328.5"/>
<text text-anchor="middle" x="1141.5" y="-1335.5" font-family="Helvetica,sans-Serif" font-size="10.00">char</text>
</a>
</g>
</g>
<!-- Node10&#45;&gt;Node3 -->
<g id="edge9" class="edge">
<title>Node10&#45;&gt;Node3</title>
<path fill="none" stroke="#9a32cd" stroke-dasharray="5,2" d="M1171.33,-1339.17C1252.74,-1342.36 1491.27,-1351 1689.5,-1351 1689.5,-1351 1689.5,-1351 2643,-1351 2782.35,-1351 2885.21,-1175.68 2913.31,-1122.26"/>
<polygon fill="#9a32cd" stroke="#9a32cd" points="1171.04,-1335.65 1160.91,-1338.76 1170.77,-1342.65 1171.04,-1335.65"/>
<text text-anchor="middle" x="2063" y="-1354" font-family="Helvetica,sans-Serif" font-size="10.00"> opType</text>
</g>
<!-- Node38 -->
<g id="node38" class="node">
<title>Node38</title>
<g id="a_node38"><a xlink:href="structMoFEM_1_1Problem.html" target="_top" xlink:title="keeps basic data about problem">
<polygon fill="white" stroke="black" points="1449,-985.5 1449,-1004.5 1548,-1004.5 1548,-985.5 1449,-985.5"/>
<text text-anchor="middle" x="1498.5" y="-992.5" font-family="Helvetica,sans-Serif" font-size="10.00">MoFEM::Problem</text>
</a>
</g>
</g>
<!-- Node10&#45;&gt;Node38 -->
<g id="edge53" class="edge">
<title>Node10&#45;&gt;Node38</title>
<path fill="none" stroke="#9a32cd" stroke-dasharray="5,2" d="M1155.2,-1319.92C1174.69,-1293.68 1214.65,-1245.61 1261,-1222 1315.62,-1194.17 1355.21,-1243.85 1397,-1199 1425.16,-1168.78 1387.74,-1045.03 1415,-1014 1423.54,-1004.28 1435.95,-999 1448.57,-996.25"/>
<polygon fill="#9a32cd" stroke="#9a32cd" points="1152.22,-1318.07 1149.18,-1328.22 1157.88,-1322.18 1152.22,-1318.07"/>
<text text-anchor="middle" x="1329" y="-1225" font-family="Helvetica,sans-Serif" font-size="10.00"> tagName</text>
</g>
<!-- Node11 -->
<g id="node11" class="node">
<title>Node11</title>
<g id="a_node11"><a xlink:href="structMoFEM_1_1ForcesAndSourcesCore.html" target="_top" xlink:title="structure to get information form mofem into EntitiesFieldData">
<polygon fill="white" stroke="black" points="2557,-752.5 2557,-771.5 2727,-771.5 2727,-752.5 2557,-752.5"/>
<text text-anchor="middle" x="2642" y="-759.5" font-family="Helvetica,sans-Serif" font-size="10.00">MoFEM::ForcesAndSourcesCore</text>
</a>
</g>
</g>
<!-- Node11&#45;&gt;Node3 -->
<g id="edge10" class="edge">
<title>Node11&#45;&gt;Node3</title>
<path fill="none" stroke="#9a32cd" stroke-dasharray="5,2" d="M2657,-779.38C2705.15,-839.13 2863.41,-1035.53 2908.76,-1091.81"/>
<polygon fill="#9a32cd" stroke="#9a32cd" points="2659.73,-777.18 2650.73,-771.59 2654.27,-781.57 2659.73,-777.18"/>
<text text-anchor="middle" x="2782" y="-979" font-family="Helvetica,sans-Serif" font-size="10.00"> ptrFE</text>
</g>
<!-- Node11&#45;&gt;Node11 -->
<g id="edge68" class="edge">
<title>Node11&#45;&gt;Node11</title>
<path fill="none" stroke="#9a32cd" stroke-dasharray="5,2" d="M2615.96,-781.03C2617.38,-786.13 2626.06,-790 2642,-790 2666.88,-790 2674.08,-780.57 2663.58,-771.76"/>
<polygon fill="#9a32cd" stroke="#9a32cd" points="2619.24,-782.29 2620.42,-771.76 2612.93,-779.25 2619.24,-782.29"/>
<text text-anchor="middle" x="2642" y="-804" font-family="Helvetica,sans-Serif" font-size="10.00"> sidePtrFE</text>
<text text-anchor="middle" x="2642" y="-793" font-family="Helvetica,sans-Serif" font-size="10.00">refinePtrFE</text>
</g>
<!-- Node12 -->
<g id="node12" class="node">
<title>Node12</title>
<g id="a_node12"><a xlink:href="structMoFEM_1_1FEMethod.html" target="_top" xlink:title="structure for User Loop Methods on finite elements">
<polygon fill="white" stroke="black" points="2202.5,-780.5 2202.5,-799.5 2309.5,-799.5 2309.5,-780.5 2202.5,-780.5"/>
<text text-anchor="middle" x="2256" y="-787.5" font-family="Helvetica,sans-Serif" font-size="10.00">MoFEM::FEMethod</text>
</a>
</g>
</g>
<!-- Node12&#45;&gt;Node11 -->
<g id="edge11" class="edge">
<title>Node12&#45;&gt;Node11</title>
<path fill="none" stroke="midnightblue" d="M2319.82,-785.68C2376.98,-781.72 2463.66,-775.63 2539,-770 2544.85,-769.56 2550.88,-769.11 2556.95,-768.64"/>
<polygon fill="midnightblue" stroke="midnightblue" points="2319.24,-782.21 2309.5,-786.39 2319.72,-789.19 2319.24,-782.21"/>
</g>
<!-- Node13 -->
<g id="node13" class="node">
<title>Node13</title>
<g id="a_node13"><a xlink:href="structMoFEM_1_1BasicMethod.html" target="_top" xlink:title="Data structure to exchange data between mofem and User Loop Methods.">
<polygon fill="white" stroke="black" points="1825,-790.5 1825,-809.5 1947,-809.5 1947,-790.5 1825,-790.5"/>
<text text-anchor="middle" x="1886" y="-797.5" font-family="Helvetica,sans-Serif" font-size="10.00">MoFEM::BasicMethod</text>
</a>
</g>
</g>
<!-- Node13&#45;&gt;Node12 -->
<g id="edge12" class="edge">
<title>Node13&#45;&gt;Node12</title>
<path fill="none" stroke="midnightblue" d="M1957.63,-798.08C2029.14,-796.14 2138.1,-793.18 2202.37,-791.43"/>
<polygon fill="midnightblue" stroke="midnightblue" points="1957.26,-794.59 1947.36,-798.36 1957.45,-801.59 1957.26,-794.59"/>
</g>
<!-- Node14 -->
<g id="node14" class="node">
<title>Node14</title>
<g id="a_node14"><a xlink:href="structMoFEM_1_1KspMethod.html" target="_top" xlink:title="data structure for ksp (linear solver) context">
<polygon fill="white" stroke="black" points="1442,-348.5 1442,-367.5 1555,-367.5 1555,-348.5 1442,-348.5"/>
<text text-anchor="middle" x="1498.5" y="-355.5" font-family="Helvetica,sans-Serif" font-size="10.00">MoFEM::KspMethod</text>
</a>
</g>
</g>
<!-- Node14&#45;&gt;Node13 -->
<g id="edge13" class="edge">
<title>Node14&#45;&gt;Node13</title>
<path fill="none" stroke="midnightblue" d="M1523.41,-373.14C1579.54,-410.16 1719.63,-511.38 1781,-636 1809.69,-694.26 1755.29,-732.98 1799,-781 1805.9,-788.58 1815.07,-793.49 1824.86,-796.61"/>
<polygon fill="midnightblue" stroke="midnightblue" points="1525.13,-370.09 1514.84,-367.56 1521.31,-375.95 1525.13,-370.09"/>
</g>
<!-- Node15 -->
<g id="node15" class="node">
<title>Node15</title>
<g id="a_node15"><a xlink:href="structMoFEM_1_1PetscData.html" target="_top" xlink:title=" ">
<polygon fill="white" stroke="black" points="1087.5,-185.5 1087.5,-204.5 1195.5,-204.5 1195.5,-185.5 1087.5,-185.5"/>
<text text-anchor="middle" x="1141.5" y="-192.5" font-family="Helvetica,sans-Serif" font-size="10.00">MoFEM::PetscData</text>
</a>
</g>
</g>
<!-- Node15&#45;&gt;Node14 -->
<g id="edge14" class="edge">
<title>Node15&#45;&gt;Node14</title>
<path fill="none" stroke="midnightblue" d="M1201.08,-206.87C1214.98,-210.27 1229.64,-214.34 1243,-219 1314.33,-243.9 1331.16,-253.94 1397,-291 1429.71,-309.41 1465.81,-334.83 1484.57,-348.46"/>
<polygon fill="midnightblue" stroke="midnightblue" points="1201.66,-203.41 1191.13,-204.52 1200.05,-210.23 1201.66,-203.41"/>
</g>
<!-- Node25 -->
<g id="node25" class="node">
<title>Node25</title>
<g id="a_node25"><a xlink:href="structMoFEM_1_1SnesMethod.html" target="_top" xlink:title="data structure for snes (nonlinear solver) context">
<polygon fill="white" stroke="black" points="1439,-161.5 1439,-180.5 1558,-180.5 1558,-161.5 1439,-161.5"/>
<text text-anchor="middle" x="1498.5" y="-168.5" font-family="Helvetica,sans-Serif" font-size="10.00">MoFEM::SnesMethod</text>
</a>
</g>
</g>
<!-- Node15&#45;&gt;Node25 -->
<g id="edge27" class="edge">
<title>Node15&#45;&gt;Node25</title>
<path fill="none" stroke="darkgreen" d="M1205.93,-190.71C1272.03,-186.24 1374.74,-179.3 1438.96,-174.96"/>
<polygon fill="darkgreen" stroke="darkgreen" points="1205.39,-187.24 1195.65,-191.41 1205.86,-194.22 1205.39,-187.24"/>
</g>
<!-- Node28 -->
<g id="node28" class="node">
<title>Node28</title>
<g id="a_node28"><a xlink:href="structMoFEM_1_1TSMethod.html" target="_top" xlink:title="data structure for TS (time stepping) context">
<polygon fill="white" stroke="black" points="1445,-595.5 1445,-614.5 1552,-614.5 1552,-595.5 1445,-595.5"/>
<text text-anchor="middle" x="1498.5" y="-602.5" font-family="Helvetica,sans-Serif" font-size="10.00">MoFEM::TSMethod</text>
</a>
</g>
</g>
<!-- Node15&#45;&gt;Node28 -->
<g id="edge33" class="edge">
<title>Node15&#45;&gt;Node28</title>
<path fill="none" stroke="darkgreen" d="M1205.82,-199.02C1219.61,-202.69 1233.04,-208.85 1243,-219 1269.14,-245.62 1237.28,-272.19 1261,-301 1302.88,-351.87 1350.88,-312.95 1397,-360 1467.16,-431.58 1490.71,-558.91 1496.15,-595.14"/>
<polygon fill="darkgreen" stroke="darkgreen" points="1206.28,-195.53 1195.76,-196.76 1204.75,-202.36 1206.28,-195.53"/>
</g>
<!-- Node16 -->
<g id="node16" class="node">
<title>Node16</title>
<g id="a_node16"><a xlink:href="structMoFEM_1_1UnknownInterface.html" target="_top" xlink:title="base class for all interface classes">
<polygon fill="white" stroke="black" points="735,-20.5 735,-39.5 883,-39.5 883,-20.5 735,-20.5"/>
<text text-anchor="middle" x="809" y="-27.5" font-family="Helvetica,sans-Serif" font-size="10.00">MoFEM::UnknownInterface</text>
</a>
</g>
</g>
<!-- Node16&#45;&gt;Node15 -->
<g id="edge15" class="edge">
<title>Node16&#45;&gt;Node15</title>
<path fill="none" stroke="midnightblue" d="M893.38,-28.05C944.58,-28.73 1003.74,-33.53 1022,-51 1062.56,-89.8 1001.19,-135.45 1040,-176 1052.22,-188.76 1070.12,-194.48 1087.44,-196.69"/>
<polygon fill="midnightblue" stroke="midnightblue" points="893.28,-24.55 883.26,-27.96 893.23,-31.55 893.28,-24.55"/>
</g>
<!-- Node56 -->
<g id="node56" class="node">
<title>Node56</title>
<g id="a_node56"><a xlink:href="structMoFEM_1_1CoreInterface.html" target="_top" xlink:title="Interface.">
<polygon fill="white" stroke="black" points="1079,-0.5 1079,-19.5 1204,-19.5 1204,-0.5 1079,-0.5"/>
<text text-anchor="middle" x="1141.5" y="-7.5" font-family="Helvetica,sans-Serif" font-size="10.00">MoFEM::CoreInterface</text>
</a>
</g>
</g>
<!-- Node16&#45;&gt;Node56 -->
<g id="edge67" class="edge">
<title>Node16&#45;&gt;Node56</title>
<path fill="none" stroke="midnightblue" d="M893.22,-24.49C895.84,-24.32 898.44,-24.16 901,-24 961.49,-20.24 1030.58,-16.23 1078.96,-13.47"/>
<polygon fill="midnightblue" stroke="midnightblue" points="892.77,-21.01 883.01,-25.14 893.21,-28 892.77,-21.01"/>
</g>
<!-- Node17 -->
<g id="node17" class="node">
<title>Node17</title>
<g id="a_node17"><a xlink:title=" ">
<polygon fill="white" stroke="#bfbfbf" points="386,-501.5 386,-564.5 627,-564.5 627,-501.5 386,-501.5"/>
<text text-anchor="start" x="394" y="-552.5" font-family="Helvetica,sans-Serif" font-size="10.00">multi_index_container</text>
<text text-anchor="start" x="394" y="-541.5" font-family="Helvetica,sans-Serif" font-size="10.00">&lt; UIdTypeMap, indexed</text>
<text text-anchor="start" x="394" y="-530.5" font-family="Helvetica,sans-Serif" font-size="10.00">_by&lt; hashed_unique&lt; member</text>
<text text-anchor="start" x="394" y="-519.5" font-family="Helvetica,sans-Serif" font-size="10.00">&lt; UIdTypeMap, boost::typeindex</text>
<text text-anchor="middle" x="506.5" y="-508.5" font-family="Helvetica,sans-Serif" font-size="10.00">::type_index, &amp;UIdTypeMap::classIdx &gt; &gt; &gt; &gt;</text>
</a>
</g>
</g>
<!-- Node17&#45;&gt;Node16 -->
<g id="edge16" class="edge">
<title>Node17&#45;&gt;Node16</title>
<path fill="none" stroke="#9a32cd" stroke-dasharray="5,2" d="M514.75,-491.37C533.36,-397.42 591.79,-167.92 735,-49 739.63,-45.15 744.96,-42.07 750.58,-39.61"/>
<polygon fill="#9a32cd" stroke="#9a32cd" points="511.28,-490.86 512.82,-501.35 518.16,-492.19 511.28,-490.86"/>
<text text-anchor="middle" x="681" y="-149" font-family="Helvetica,sans-Serif" font-size="10.00"> iFaceTypeMap</text>
</g>
<!-- Node18 -->
<g id="node18" class="node">
<title>Node18</title>
<g id="a_node18"><a xlink:title=" ">
<polygon fill="white" stroke="#bfbfbf" points="0,-637.5 0,-656.5 125,-656.5 125,-637.5 0,-637.5"/>
<text text-anchor="middle" x="62.5" y="-644.5" font-family="Helvetica,sans-Serif" font-size="10.00">multi_index_container</text>
</a>
</g>
</g>
<!-- Node18&#45;&gt;Node13 -->
<g id="edge40" class="edge">
<title>Node18&#45;&gt;Node13</title>
<path fill="none" stroke="#9a32cd" stroke-dasharray="5,2" d="M93.82,-660.62C164.46,-691.07 346.09,-762 505.5,-762 505.5,-762 505.5,-762 1499.5,-762 1615.34,-762 1749.82,-779.2 1825.41,-790.46"/>
<polygon fill="#9a32cd" stroke="#9a32cd" points="95.17,-657.39 84.61,-656.61 92.38,-663.81 95.17,-657.39"/>
<text text-anchor="middle" x="961.5" y="-842" font-family="Helvetica,sans-Serif" font-size="10.00"> adjacenciesPtr</text>
<text text-anchor="middle" x="961.5" y="-831" font-family="Helvetica,sans-Serif" font-size="10.00">refinedEntitiesPtr</text>
<text text-anchor="middle" x="961.5" y="-820" font-family="Helvetica,sans-Serif" font-size="10.00">finiteElementsEntitiesPtr</text>
<text text-anchor="middle" x="961.5" y="-809" font-family="Helvetica,sans-Serif" font-size="10.00">dofsPtr</text>
<text text-anchor="middle" x="961.5" y="-798" font-family="Helvetica,sans-Serif" font-size="10.00">entitiesPtr</text>
<text text-anchor="middle" x="961.5" y="-787" font-family="Helvetica,sans-Serif" font-size="10.00">finiteElementsPtr</text>
<text text-anchor="middle" x="961.5" y="-776" font-family="Helvetica,sans-Serif" font-size="10.00">refinedFiniteElementsPtr</text>
<text text-anchor="middle" x="961.5" y="-765" font-family="Helvetica,sans-Serif" font-size="10.00">fieldsPtr</text>
</g>
<!-- Node18&#45;&gt;Node17 -->
<g id="edge17" class="edge">
<title>Node18&#45;&gt;Node17</title>
<path fill="none" stroke="orange" stroke-dasharray="5,2" d="M110.37,-634.91C175.35,-618.15 295.04,-587.28 385.72,-563.89"/>
<polygon fill="orange" stroke="orange" points="109.23,-631.59 100.42,-637.48 110.98,-638.37 109.23,-631.59"/>
<text text-anchor="start" x="143" y="-662" font-family="Helvetica,sans-Serif" font-size="10.00"> &lt; UIdTypeMap, indexed</text>
<text text-anchor="start" x="143" y="-651" font-family="Helvetica,sans-Serif" font-size="10.00">_by&lt; hashed_unique&lt; member</text>
<text text-anchor="start" x="143" y="-640" font-family="Helvetica,sans-Serif" font-size="10.00">&lt; UIdTypeMap, boost::typeindex</text>
<text text-anchor="middle" x="255.5" y="-629" font-family="Helvetica,sans-Serif" font-size="10.00">::type_index, &amp;UIdTypeMap::classIdx &gt; &gt; &gt; &gt;</text>
</g>
<!-- Node19 -->
<g id="node19" class="node">
<title>Node19</title>
<g id="a_node19"><a xlink:title=" ">
<polygon fill="white" stroke="#bfbfbf" points="738.5,-117.5 738.5,-136.5 879.5,-136.5 879.5,-117.5 738.5,-117.5"/>
<text text-anchor="middle" x="809" y="-124.5" font-family="Helvetica,sans-Serif" font-size="10.00">static constexpr Switches</text>
</a>
</g>
</g>
<!-- Node19&#45;&gt;Node15 -->
<g id="edge18" class="edge">
<title>Node19&#45;&gt;Node15</title>
<path fill="none" stroke="#9a32cd" stroke-dasharray="5,2" d="M849.72,-114.8C895.57,-103.31 971.18,-92.6 1022,-128 1040.7,-141.02 1022.57,-161.33 1040,-176 1053.11,-187.03 1070.62,-192.45 1087.35,-194.91"/>
<polygon fill="#9a32cd" stroke="#9a32cd" points="848.63,-111.47 839.85,-117.4 850.41,-118.24 848.63,-111.47"/>
<text text-anchor="middle" x="961.5" y="-208" font-family="Helvetica,sans-Serif" font-size="10.00"> CtxSetX_TT</text>
<text text-anchor="middle" x="961.5" y="-197" font-family="Helvetica,sans-Serif" font-size="10.00">CtxSetX_T</text>
<text text-anchor="middle" x="961.5" y="-186" font-family="Helvetica,sans-Serif" font-size="10.00">CtxSetA</text>
<text text-anchor="middle" x="961.5" y="-175" font-family="Helvetica,sans-Serif" font-size="10.00">CtxSetB</text>
<text text-anchor="middle" x="961.5" y="-164" font-family="Helvetica,sans-Serif" font-size="10.00">CtxSetTime</text>
<text text-anchor="middle" x="961.5" y="-153" font-family="Helvetica,sans-Serif" font-size="10.00">CtxSetNone</text>
<text text-anchor="middle" x="961.5" y="-142" font-family="Helvetica,sans-Serif" font-size="10.00">CtxSetF</text>
<text text-anchor="middle" x="961.5" y="-131" font-family="Helvetica,sans-Serif" font-size="10.00">CtxSetX</text>
</g>
<!-- Node20 -->
<g id="node20" class="node">
<title>Node20</title>
<g id="a_node20"><a xlink:title=" ">
<polygon fill="white" stroke="#bfbfbf" points="791.5,-384.5 791.5,-403.5 826.5,-403.5 826.5,-384.5 791.5,-384.5"/>
<text text-anchor="middle" x="809" y="-391.5" font-family="Helvetica,sans-Serif" font-size="10.00">Mat</text>
</a>
</g>
</g>
<!-- Node20&#45;&gt;Node14 -->
<g id="edge24" class="edge">
<title>Node20&#45;&gt;Node14</title>
<path fill="none" stroke="#9a32cd" stroke-dasharray="5,2" d="M837.19,-396.42C921.2,-403.28 1183.83,-420.2 1397,-385 1421.24,-381 1448.09,-373.63 1467.93,-367.6"/>
<polygon fill="#9a32cd" stroke="#9a32cd" points="837.23,-392.91 826.97,-395.56 836.65,-399.88 837.23,-392.91"/>
<text text-anchor="middle" x="1141.5" y="-421" font-family="Helvetica,sans-Serif" font-size="10.00"> ksp_A</text>
<text text-anchor="middle" x="1141.5" y="-410" font-family="Helvetica,sans-Serif" font-size="10.00">ksp_B</text>
</g>
<!-- Node20&#45;&gt;Node15 -->
<g id="edge19" class="edge">
<title>Node20&#45;&gt;Node15</title>
<path fill="none" stroke="#9a32cd" stroke-dasharray="5,2" d="M830.07,-378.11C847.96,-364.44 875.23,-344.8 901,-331 952,-303.69 983.26,-325.97 1022,-283 1041.79,-261.05 1018.7,-239.47 1040,-219 1052.68,-206.82 1070.37,-200.45 1087.39,-197.22"/>
<polygon fill="#9a32cd" stroke="#9a32cd" points="827.85,-375.4 822.08,-384.29 832.13,-380.94 827.85,-375.4"/>
<text text-anchor="middle" x="961.5" y="-345" font-family="Helvetica,sans-Serif" font-size="10.00"> A</text>
<text text-anchor="middle" x="961.5" y="-334" font-family="Helvetica,sans-Serif" font-size="10.00">B</text>
</g>
<!-- Node20&#45;&gt;Node25 -->
<g id="edge29" class="edge">
<title>Node20&#45;&gt;Node25</title>
<path fill="none" stroke="#9a32cd" stroke-dasharray="5,2" d="M836.97,-392.5C888.16,-389.09 996.55,-378.91 1022,-353 1054.56,-319.84 1006.72,-282.44 1040,-250 1054.36,-236 1377.35,-200.99 1397,-197 1419.61,-192.41 1444.73,-185.91 1464.21,-180.56"/>
<polygon fill="#9a32cd" stroke="#9a32cd" points="836.44,-389.03 826.68,-393.15 836.88,-396.02 836.44,-389.03"/>
<text text-anchor="middle" x="1141.5" y="-264" font-family="Helvetica,sans-Serif" font-size="10.00"> snes_A</text>
<text text-anchor="middle" x="1141.5" y="-253" font-family="Helvetica,sans-Serif" font-size="10.00">snes_B</text>
</g>
<!-- Node20&#45;&gt;Node28 -->
<g id="edge34" class="edge">
<title>Node20&#45;&gt;Node28</title>
<path fill="none" stroke="#9a32cd" stroke-dasharray="5,2" d="M818.2,-413.04C842.63,-467.13 920.76,-621.84 1040,-685 1110.18,-722.17 1323.29,-730.55 1397,-701 1441.57,-683.13 1477.58,-635.03 1491.4,-614.5"/>
<polygon fill="#9a32cd" stroke="#9a32cd" points="821.28,-411.35 814.03,-403.62 814.88,-414.18 821.28,-411.35"/>
<text text-anchor="middle" x="1141.5" y="-733" font-family="Helvetica,sans-Serif" font-size="10.00"> ts_A</text>
<text text-anchor="middle" x="1141.5" y="-722" font-family="Helvetica,sans-Serif" font-size="10.00">ts_B</text>
</g>
<!-- Node21 -->
<g id="node21" class="node">
<title>Node21</title>
<g id="a_node21"><a xlink:title=" ">
<polygon fill="white" stroke="#bfbfbf" points="772.5,-58.5 772.5,-77.5 845.5,-77.5 845.5,-58.5 772.5,-58.5"/>
<text text-anchor="middle" x="809" y="-65.5" font-family="Helvetica,sans-Serif" font-size="10.00">bitset&lt; 8 &gt;</text>
</a>
</g>
</g>
<!-- Node21&#45;&gt;Node15 -->
<g id="edge20" class="edge">
<title>Node21&#45;&gt;Node15</title>
<path fill="none" stroke="#9a32cd" stroke-dasharray="5,2" d="M855.83,-58.34C903.46,-51.19 977.18,-48.66 1022,-89 1051.35,-115.41 1011.84,-148.32 1040,-176 1052.47,-188.26 1070.23,-193.9 1087.35,-196.2"/>
<polygon fill="#9a32cd" stroke="#9a32cd" points="855.1,-54.91 845.79,-59.97 856.22,-61.82 855.1,-54.91"/>
<text text-anchor="middle" x="961.5" y="-92" font-family="Helvetica,sans-Serif" font-size="10.00"> data_ctx</text>
</g>
<!-- Node22 -->
<g id="node22" class="node">
<title>Node22</title>
<g id="a_node22"><a xlink:title=" ">
<polygon fill="white" stroke="#bfbfbf" points="792,-301.5 792,-320.5 826,-320.5 826,-301.5 792,-301.5"/>
<text text-anchor="middle" x="809" y="-308.5" font-family="Helvetica,sans-Serif" font-size="10.00">Vec</text>
</a>
</g>
</g>
<!-- Node22&#45;&gt;Node14 -->
<g id="edge25" class="edge">
<title>Node22&#45;&gt;Node14</title>
<path fill="none" stroke="#9a32cd" stroke-dasharray="5,2" d="M835.84,-316.79C853.98,-320.61 878.85,-325.39 901,-328 927.56,-331.13 1298.95,-348.71 1441.94,-355.41"/>
<polygon fill="#9a32cd" stroke="#9a32cd" points="836.52,-313.35 826.01,-314.67 835.05,-320.2 836.52,-313.35"/>
<text text-anchor="middle" x="1141.5" y="-349" font-family="Helvetica,sans-Serif" font-size="10.00"> ksp_f</text>
</g>
<!-- Node22&#45;&gt;Node15 -->
<g id="edge21" class="edge">
<title>Node22&#45;&gt;Node15</title>
<path fill="none" stroke="#9a32cd" stroke-dasharray="5,2" d="M826.46,-293.78C843.49,-277.06 871.67,-252.29 901,-239 905.26,-237.07 1018.12,-216.77 1087.37,-204.43"/>
<polygon fill="#9a32cd" stroke="#9a32cd" points="823.59,-291.7 819.04,-301.26 828.56,-296.63 823.59,-291.7"/>
<text text-anchor="middle" x="961.5" y="-275" font-family="Helvetica,sans-Serif" font-size="10.00"> f</text>
<text text-anchor="middle" x="961.5" y="-264" font-family="Helvetica,sans-Serif" font-size="10.00">x</text>
<text text-anchor="middle" x="961.5" y="-253" font-family="Helvetica,sans-Serif" font-size="10.00">x_t</text>
<text text-anchor="middle" x="961.5" y="-242" font-family="Helvetica,sans-Serif" font-size="10.00">x_tt</text>
</g>
<!-- Node22&#45;&gt;Node25 -->
<g id="edge30" class="edge">
<title>Node22&#45;&gt;Node25</title>
<path fill="none" stroke="#9a32cd" stroke-dasharray="5,2" d="M818.41,-291.87C840.55,-241.57 898.9,-109.36 901,-108 994.42,-47.5 1347.69,-131.95 1461.75,-161.48"/>
<polygon fill="#9a32cd" stroke="#9a32cd" points="815.09,-290.72 814.27,-301.29 821.5,-293.54 815.09,-290.72"/>
<text text-anchor="middle" x="1141.5" y="-127" font-family="Helvetica,sans-Serif" font-size="10.00"> snes_x</text>
<text text-anchor="middle" x="1141.5" y="-116" font-family="Helvetica,sans-Serif" font-size="10.00">snes_f</text>
</g>
<!-- Node22&#45;&gt;Node28 -->
<g id="edge38" class="edge">
<title>Node22&#45;&gt;Node28</title>
<path fill="none" stroke="#9a32cd" stroke-dasharray="5,2" d="M834.04,-326.03C874.99,-351.1 961.48,-401.78 1040,-433 1126.97,-467.58 1154.34,-459.03 1243,-489 1312.9,-512.63 1330.18,-519.71 1397,-551 1427.32,-565.19 1461.4,-584.18 1481.07,-595.45"/>
<polygon fill="#9a32cd" stroke="#9a32cd" points="835.68,-322.93 825.33,-320.66 832,-328.88 835.68,-322.93"/>
<text text-anchor="middle" x="1141.5" y="-525" font-family="Helvetica,sans-Serif" font-size="10.00"> ts_u</text>
<text text-anchor="middle" x="1141.5" y="-514" font-family="Helvetica,sans-Serif" font-size="10.00">ts_F</text>
<text text-anchor="middle" x="1141.5" y="-503" font-family="Helvetica,sans-Serif" font-size="10.00">ts_u_t</text>
<text text-anchor="middle" x="1141.5" y="-492" font-family="Helvetica,sans-Serif" font-size="10.00">ts_u_tt</text>
</g>
<!-- Node23 -->
<g id="node23" class="node">
<title>Node23</title>
<g id="a_node23"><a xlink:title=" ">
<polygon fill="white" stroke="#bfbfbf" points="1124,-281.5 1124,-300.5 1159,-300.5 1159,-281.5 1124,-281.5"/>
<text text-anchor="middle" x="1141.5" y="-288.5" font-family="Helvetica,sans-Serif" font-size="10.00">KSP</text>
</a>
</g>
</g>
<!-- Node23&#45;&gt;Node14 -->
<g id="edge22" class="edge">
<title>Node23&#45;&gt;Node14</title>
<path fill="none" stroke="#9a32cd" stroke-dasharray="5,2" d="M1169.42,-290.82C1216.37,-291.11 1315.97,-294.38 1397,-315 1427.35,-322.72 1460.32,-338.35 1479.93,-348.49"/>
<polygon fill="#9a32cd" stroke="#9a32cd" points="1169.18,-287.32 1159.18,-290.8 1169.17,-294.32 1169.18,-287.32"/>
<text text-anchor="middle" x="1329" y="-318" font-family="Helvetica,sans-Serif" font-size="10.00"> ksp</text>
</g>
<!-- Node24 -->
<g id="node24" class="node">
<title>Node24</title>
<g id="a_node24"><a xlink:title=" ">
<polygon fill="white" stroke="#bfbfbf" points="1104.5,-366.5 1104.5,-385.5 1178.5,-385.5 1178.5,-366.5 1104.5,-366.5"/>
<text text-anchor="middle" x="1141.5" y="-373.5" font-family="Helvetica,sans-Serif" font-size="10.00">KSPContext</text>
</a>
</g>
</g>
<!-- Node24&#45;&gt;Node14 -->
<g id="edge23" class="edge">
<title>Node24&#45;&gt;Node14</title>
<path fill="none" stroke="#9a32cd" stroke-dasharray="5,2" d="M1189.19,-373.63C1254.3,-370.33 1372.2,-364.35 1441.81,-360.82"/>
<polygon fill="#9a32cd" stroke="#9a32cd" points="1188.63,-370.16 1178.82,-374.16 1188.99,-377.15 1188.63,-370.16"/>
<text text-anchor="middle" x="1329" y="-373" font-family="Helvetica,sans-Serif" font-size="10.00"> ksp_ctx</text>
</g>
<!-- Node25&#45;&gt;Node13 -->
<g id="edge26" class="edge">
<title>Node25&#45;&gt;Node13</title>
<path fill="none" stroke="midnightblue" d="M1520.49,-186.72C1580.65,-232.27 1751.32,-365.11 1781,-428 1797.76,-463.52 1773.63,-751.02 1799,-781 1805.72,-788.94 1814.93,-794 1824.85,-797.15"/>
<polygon fill="midnightblue" stroke="midnightblue" points="1522.53,-183.88 1512.44,-180.65 1518.32,-189.47 1522.53,-183.88"/>
</g>
<!-- Node26 -->
<g id="node26" class="node">
<title>Node26</title>
<g id="a_node26"><a xlink:title=" ">
<polygon fill="white" stroke="#bfbfbf" points="1120.5,-147.5 1120.5,-166.5 1162.5,-166.5 1162.5,-147.5 1120.5,-147.5"/>
<text text-anchor="middle" x="1141.5" y="-154.5" font-family="Helvetica,sans-Serif" font-size="10.00">SNES</text>
</a>
</g>
</g>
<!-- Node26&#45;&gt;Node25 -->
<g id="edge28" class="edge">
<title>Node26&#45;&gt;Node25</title>
<path fill="none" stroke="#9a32cd" stroke-dasharray="5,2" d="M1172.91,-156.4C1220.68,-155.68 1316.18,-155.11 1397,-160 1410.58,-160.82 1425.15,-162.15 1438.86,-163.61"/>
<polygon fill="#9a32cd" stroke="#9a32cd" points="1172.59,-152.91 1162.65,-156.57 1172.71,-159.91 1172.59,-152.91"/>
<text text-anchor="middle" x="1329" y="-163" font-family="Helvetica,sans-Serif" font-size="10.00"> snes</text>
</g>
<!-- Node27 -->
<g id="node27" class="node">
<title>Node27</title>
<g id="a_node27"><a xlink:title=" ">
<polygon fill="white" stroke="#bfbfbf" points="1101.5,-38.5 1101.5,-57.5 1181.5,-57.5 1181.5,-38.5 1101.5,-38.5"/>
<text text-anchor="middle" x="1141.5" y="-45.5" font-family="Helvetica,sans-Serif" font-size="10.00">SNESContext</text>
</a>
</g>
</g>
<!-- Node27&#45;&gt;Node25 -->
<g id="edge31" class="edge">
<title>Node27&#45;&gt;Node25</title>
<path fill="none" stroke="#9a32cd" stroke-dasharray="5,2" d="M1191.9,-42.25C1245.15,-38.24 1331.12,-38.18 1397,-69 1441.81,-89.96 1477.68,-139.97 1491.44,-161.2"/>
<polygon fill="#9a32cd" stroke="#9a32cd" points="1191.38,-38.79 1181.71,-43.1 1191.96,-45.76 1191.38,-38.79"/>
<text text-anchor="middle" x="1329" y="-72" font-family="Helvetica,sans-Serif" font-size="10.00"> snes_ctx</text>
</g>
<!-- Node28&#45;&gt;Node13 -->
<g id="edge32" class="edge">
<title>Node28&#45;&gt;Node13</title>
<path fill="none" stroke="midnightblue" d="M1542.29,-617.74C1602.02,-637.35 1710.93,-679.95 1781,-748 1792.99,-759.64 1785.64,-770.96 1799,-781 1806.58,-786.7 1815.53,-790.75 1824.75,-793.62"/>
<polygon fill="midnightblue" stroke="midnightblue" points="1543.02,-614.3 1532.43,-614.57 1540.88,-620.97 1543.02,-614.3"/>
</g>
<!-- Node29 -->
<g id="node29" class="node">
<title>Node29</title>
<g id="a_node29"><a xlink:title=" ">
<polygon fill="white" stroke="#bfbfbf" points="1109,-656.5 1109,-675.5 1174,-675.5 1174,-656.5 1109,-656.5"/>
<text text-anchor="middle" x="1141.5" y="-663.5" font-family="Helvetica,sans-Serif" font-size="10.00">PetscReal</text>
</a>
</g>
</g>
<!-- Node29&#45;&gt;Node28 -->
<g id="edge35" class="edge">
<title>Node29&#45;&gt;Node28</title>
<path fill="none" stroke="#9a32cd" stroke-dasharray="5,2" d="M1184.34,-662.75C1235.04,-658.36 1322.89,-649.26 1397,-634 1421.55,-628.95 1448.83,-620.92 1468.77,-614.58"/>
<polygon fill="#9a32cd" stroke="#9a32cd" points="1183.77,-659.29 1174.1,-663.62 1184.36,-666.26 1183.77,-659.29"/>
<text text-anchor="middle" x="1329" y="-691" font-family="Helvetica,sans-Serif" font-size="10.00"> ts_a</text>
<text text-anchor="middle" x="1329" y="-680" font-family="Helvetica,sans-Serif" font-size="10.00">ts_t</text>
<text text-anchor="middle" x="1329" y="-669" font-family="Helvetica,sans-Serif" font-size="10.00">ts_dt</text>
<text text-anchor="middle" x="1329" y="-658" font-family="Helvetica,sans-Serif" font-size="10.00">ts_aa</text>
</g>
<!-- Node30 -->
<g id="node30" class="node">
<title>Node30</title>
<g id="a_node30"><a xlink:title=" ">
<polygon fill="white" stroke="#bfbfbf" points="1108,-618.5 1108,-637.5 1175,-637.5 1175,-618.5 1108,-618.5"/>
<text text-anchor="middle" x="1141.5" y="-625.5" font-family="Helvetica,sans-Serif" font-size="10.00">TSContext</text>
</a>
</g>
</g>
<!-- Node30&#45;&gt;Node28 -->
<g id="edge36" class="edge">
<title>Node30&#45;&gt;Node28</title>
<path fill="none" stroke="#9a32cd" stroke-dasharray="5,2" d="M1185.59,-625.21C1250.81,-620.98 1374.44,-612.97 1444.88,-608.41"/>
<polygon fill="#9a32cd" stroke="#9a32cd" points="1185.01,-621.74 1175.26,-625.88 1185.47,-628.72 1185.01,-621.74"/>
<text text-anchor="middle" x="1329" y="-623" font-family="Helvetica,sans-Serif" font-size="10.00"> ts_ctx</text>
</g>
<!-- Node31 -->
<g id="node31" class="node">
<title>Node31</title>
<g id="a_node31"><a xlink:title=" ">
<polygon fill="white" stroke="#bfbfbf" points="1113.5,-580.5 1113.5,-599.5 1169.5,-599.5 1169.5,-580.5 1113.5,-580.5"/>
<text text-anchor="middle" x="1141.5" y="-587.5" font-family="Helvetica,sans-Serif" font-size="10.00">PetscInt</text>
</a>
</g>
</g>
<!-- Node31&#45;&gt;Node28 -->
<g id="edge37" class="edge">
<title>Node31&#45;&gt;Node28</title>
<path fill="none" stroke="#9a32cd" stroke-dasharray="5,2" d="M1179.93,-587.92C1229.62,-585.6 1320.06,-582.91 1397,-589 1413.56,-590.31 1431.5,-592.81 1447.59,-595.46"/>
<polygon fill="#9a32cd" stroke="#9a32cd" points="1179.49,-584.44 1169.67,-588.42 1179.83,-591.43 1179.49,-584.44"/>
<text text-anchor="middle" x="1329" y="-592" font-family="Helvetica,sans-Serif" font-size="10.00"> ts_step</text>
</g>
<!-- Node32 -->
<g id="node32" class="node">
<title>Node32</title>
<g id="a_node32"><a xlink:title=" ">
<polygon fill="white" stroke="#bfbfbf" points="1127,-542.5 1127,-561.5 1156,-561.5 1156,-542.5 1127,-542.5"/>
<text text-anchor="middle" x="1141.5" y="-549.5" font-family="Helvetica,sans-Serif" font-size="10.00">TS</text>
</a>
</g>
</g>
<!-- Node32&#45;&gt;Node28 -->
<g id="edge39" class="edge">
<title>Node32&#45;&gt;Node28</title>
<path fill="none" stroke="#9a32cd" stroke-dasharray="5,2" d="M1166.2,-551.79C1211.51,-551.83 1313.36,-554.01 1397,-571 1424.44,-576.57 1454.72,-587.51 1474.8,-595.48"/>
<polygon fill="#9a32cd" stroke="#9a32cd" points="1166.17,-548.29 1156.18,-551.82 1166.19,-555.29 1166.17,-548.29"/>
<text text-anchor="middle" x="1329" y="-574" font-family="Helvetica,sans-Serif" font-size="10.00"> ts</text>
</g>
<!-- Node33 -->
<g id="node33" class="node">
<title>Node33</title>
<g id="a_node33"><a xlink:title=" ">
<polygon fill="white" stroke="#bfbfbf" points="1454,-1023.5 1454,-1042.5 1543,-1042.5 1543,-1023.5 1454,-1023.5"/>
<text text-anchor="middle" x="1498.5" y="-1030.5" font-family="Helvetica,sans-Serif" font-size="10.00">pair&lt; int, int &gt;</text>
</a>
</g>
</g>
<!-- Node33&#45;&gt;Node13 -->
<g id="edge41" class="edge">
<title>Node33&#45;&gt;Node13</title>
<path fill="none" stroke="#9a32cd" stroke-dasharray="5,2" d="M1550.91,-1044.31C1614.46,-1054.96 1721.48,-1061.4 1781,-1001 1809.53,-972.05 1772.02,-849.39 1799,-819 1805.8,-811.34 1814.93,-806.39 1824.71,-803.25"/>
<polygon fill="#9a32cd" stroke="#9a32cd" points="1551.17,-1040.81 1540.71,-1042.51 1549.95,-1047.7 1551.17,-1040.81"/>
<text text-anchor="middle" x="1690.5" y="-1055" font-family="Helvetica,sans-Serif" font-size="10.00"> loHiFERank</text>
</g>
<!-- Node34 -->
<g id="node34" class="node">
<title>Node34</title>
<g id="a_node34"><a xlink:title=" ">
<polygon fill="white" stroke="#bfbfbf" points="1428.5,-790.5 1428.5,-809.5 1568.5,-809.5 1568.5,-790.5 1428.5,-790.5"/>
<text text-anchor="middle" x="1498.5" y="-797.5" font-family="Helvetica,sans-Serif" font-size="10.00">weak_ptr&lt; CacheTuple &gt;</text>
</a>
</g>
</g>
<!-- Node34&#45;&gt;Node13 -->
<g id="edge42" class="edge">
<title>Node34&#45;&gt;Node13</title>
<path fill="none" stroke="#9a32cd" stroke-dasharray="5,2" d="M1578.93,-800C1651.93,-800 1758.54,-800 1824.74,-800"/>
<polygon fill="#9a32cd" stroke="#9a32cd" points="1578.86,-796.5 1568.86,-800 1578.86,-803.5 1578.86,-796.5"/>
<text text-anchor="middle" x="1690.5" y="-803" font-family="Helvetica,sans-Serif" font-size="10.00"> cacheWeakPtr</text>
</g>
<!-- Node35 -->
<g id="node35" class="node">
<title>Node35</title>
<g id="a_node35"><a xlink:title=" ">
<polygon fill="white" stroke="#bfbfbf" points="1442.5,-882.5 1442.5,-901.5 1554.5,-901.5 1554.5,-882.5 1442.5,-882.5"/>
<text text-anchor="middle" x="1498.5" y="-889.5" font-family="Helvetica,sans-Serif" font-size="10.00">unique_ptr&lt; bool &gt;</text>
</a>
</g>
</g>
<!-- Node35&#45;&gt;Node13 -->
<g id="edge43" class="edge">
<title>Node35&#45;&gt;Node13</title>
<path fill="none" stroke="#9a32cd" stroke-dasharray="5,2" d="M1553.05,-903.14C1614.57,-912.7 1715.44,-918.03 1781,-868 1799.44,-853.92 1781.53,-834.26 1799,-819 1806.37,-812.56 1815.43,-808.15 1824.87,-805.17"/>
<polygon fill="#9a32cd" stroke="#9a32cd" points="1553.59,-899.68 1543.15,-901.51 1552.45,-906.59 1553.59,-899.68"/>
<text text-anchor="middle" x="1690.5" y="-924" font-family="Helvetica,sans-Serif" font-size="10.00"> matAssembleSwitch</text>
<text text-anchor="middle" x="1690.5" y="-913" font-family="Helvetica,sans-Serif" font-size="10.00">vecAssembleSwitch</text>
</g>
<!-- Node36 -->
<g id="node36" class="node">
<title>Node36</title>
<g id="a_node36"><a xlink:title=" ">
<polygon fill="white" stroke="#bfbfbf" points="1127,-1372.5 1127,-1391.5 1156,-1391.5 1156,-1372.5 1127,-1372.5"/>
<text text-anchor="middle" x="1141.5" y="-1379.5" font-family="Helvetica,sans-Serif" font-size="10.00">int</text>
</a>
</g>
</g>
<!-- Node36&#45;&gt;Node1 -->
<g id="edge87" class="edge">
<title>Node36&#45;&gt;Node1</title>
<path fill="none" stroke="#9a32cd" stroke-dasharray="5,2" d="M1165.34,-1392.13C1220.98,-1415.85 1368.42,-1473 1497.5,-1473 1497.5,-1473 1497.5,-1473 3169,-1473 3259.18,-1473 3351.27,-1405.15 3388.65,-1374.14"/>
<polygon fill="#9a32cd" stroke="#9a32cd" points="1166.62,-1388.87 1156.05,-1388.11 1163.84,-1395.29 1166.62,-1388.87"/>
<text text-anchor="middle" x="2458" y="-1487" font-family="Helvetica,sans-Serif" font-size="10.00"> nbIntegrationPts</text>
<text text-anchor="middle" x="2458" y="-1476" font-family="Helvetica,sans-Serif" font-size="10.00">nbRows</text>
</g>
<!-- Node36&#45;&gt;Node13 -->
<g id="edge44" class="edge">
<title>Node36&#45;&gt;Node13</title>
<path fill="none" stroke="#9a32cd" stroke-dasharray="5,2" d="M1166.25,-1381.87C1221.44,-1381.23 1356.69,-1377.63 1397,-1358 1407.46,-1352.91 1406.3,-1346.72 1415,-1339 1566.59,-1204.49 1683.47,-1244.66 1781,-1067 1807.59,-1018.56 1762.86,-860.8 1799,-819 1805.8,-811.13 1815.06,-806.11 1824.98,-802.96"/>
<polygon fill="#9a32cd" stroke="#9a32cd" points="1166.01,-1378.37 1156.04,-1381.96 1166.07,-1385.37 1166.01,-1378.37"/>
<text text-anchor="middle" x="1498.5" y="-1375" font-family="Helvetica,sans-Serif" font-size="10.00"> sIze</text>
<text text-anchor="middle" x="1498.5" y="-1364" font-family="Helvetica,sans-Serif" font-size="10.00">loopSize</text>
<text text-anchor="middle" x="1498.5" y="-1353" font-family="Helvetica,sans-Serif" font-size="10.00">nInTheLoop</text>
<text text-anchor="middle" x="1498.5" y="-1342" font-family="Helvetica,sans-Serif" font-size="10.00">rAnk</text>
</g>
<!-- Node36&#45;&gt;Node38 -->
<g id="edge56" class="edge">
<title>Node36&#45;&gt;Node38</title>
<path fill="none" stroke="#9a32cd" stroke-dasharray="5,2" d="M1166.2,-1382.71C1189.01,-1382.05 1222.9,-1377.33 1243,-1357 1267.41,-1332.32 1237.8,-1306.82 1261,-1281 1303.84,-1233.32 1357.86,-1283.76 1397,-1233 1426.81,-1194.33 1383.05,-1050.93 1415,-1014 1423.56,-1004.11 1436.14,-998.8 1448.91,-996.08"/>
<polygon fill="#9a32cd" stroke="#9a32cd" points="1165.99,-1379.21 1156.01,-1382.76 1166.02,-1386.21 1165.99,-1379.21"/>
<text text-anchor="middle" x="1329" y="-1350" font-family="Helvetica,sans-Serif" font-size="10.00"> tagNameSize</text>
<text text-anchor="middle" x="1329" y="-1339" font-family="Helvetica,sans-Serif" font-size="10.00">nbDofsRow</text>
<text text-anchor="middle" x="1329" y="-1328" font-family="Helvetica,sans-Serif" font-size="10.00">nbLocDofsCol</text>
<text text-anchor="middle" x="1329" y="-1317" font-family="Helvetica,sans-Serif" font-size="10.00">nbDofsCol</text>
<text text-anchor="middle" x="1329" y="-1306" font-family="Helvetica,sans-Serif" font-size="10.00">nbGhostDofsRow</text>
<text text-anchor="middle" x="1329" y="-1295" font-family="Helvetica,sans-Serif" font-size="10.00">nbGhostDofsCol</text>
<text text-anchor="middle" x="1329" y="-1284" font-family="Helvetica,sans-Serif" font-size="10.00">nbLocDofsRow</text>
</g>
<!-- Node70 -->
<g id="node70" class="node">
<title>Node70</title>
<g id="a_node70"><a xlink:href="structNavierStokesElement_1_1BlockData.html" target="_top" xlink:title=" ">
<polygon fill="white" stroke="black" points="2581,-1382 2581,-1412 2703,-1412 2703,-1382 2581,-1382"/>
<text text-anchor="start" x="2589" y="-1400" font-family="Helvetica,sans-Serif" font-size="10.00">NavierStokesElement</text>
<text text-anchor="middle" x="2642" y="-1389" font-family="Helvetica,sans-Serif" font-size="10.00">::BlockData</text>
</a>
</g>
</g>
<!-- Node36&#45;&gt;Node70 -->
<g id="edge86" class="edge">
<title>Node36&#45;&gt;Node70</title>
<path fill="none" stroke="#9a32cd" stroke-dasharray="5,2" d="M1166.17,-1383.69C1223.16,-1387.61 1372.58,-1397 1497.5,-1397 1497.5,-1397 1497.5,-1397 2257,-1397 2371.5,-1397 2505.2,-1397 2580.81,-1397"/>
<polygon fill="#9a32cd" stroke="#9a32cd" points="1166.25,-1380.19 1156.03,-1382.98 1165.77,-1387.17 1166.25,-1380.19"/>
<text text-anchor="middle" x="1886" y="-1400" font-family="Helvetica,sans-Serif" font-size="10.00"> iD</text>
</g>
<!-- Node37 -->
<g id="node37" class="node">
<title>Node37</title>
<g id="a_node37"><a xlink:title=" ">
<polygon fill="white" stroke="#bfbfbf" points="1415,-828.5 1415,-847.5 1582,-847.5 1582,-828.5 1415,-828.5"/>
<text text-anchor="middle" x="1498.5" y="-835.5" font-family="Helvetica,sans-Serif" font-size="10.00">function&lt; MoFEMErrorCode()&gt;</text>
</a>
</g>
</g>
<!-- Node37&#45;&gt;Node13 -->
<g id="edge45" class="edge">
<title>Node37&#45;&gt;Node13</title>
<path fill="none" stroke="#9a32cd" stroke-dasharray="5,2" d="M1592.2,-831.24C1647.15,-826.95 1718.12,-820.91 1781,-814 1795.22,-812.44 1810.49,-810.52 1824.84,-808.61"/>
<polygon fill="#9a32cd" stroke="#9a32cd" points="1591.83,-827.76 1582.13,-832.02 1592.37,-834.74 1591.83,-827.76"/>
<text text-anchor="middle" x="1690.5" y="-856" font-family="Helvetica,sans-Serif" font-size="10.00"> preProcessHook</text>
<text text-anchor="middle" x="1690.5" y="-845" font-family="Helvetica,sans-Serif" font-size="10.00">operatorHook</text>
<text text-anchor="middle" x="1690.5" y="-834" font-family="Helvetica,sans-Serif" font-size="10.00">postProcessHook</text>
</g>
<!-- Node38&#45;&gt;Node13 -->
<g id="edge46" class="edge">
<title>Node38&#45;&gt;Node13</title>
<path fill="none" stroke="#9a32cd" stroke-dasharray="5,2" d="M1558.07,-990.46C1631.4,-983.51 1751.07,-967.59 1781,-936 1817.19,-897.81 1763.02,-857.39 1799,-819 1805.9,-811.64 1814.96,-806.81 1824.61,-803.69"/>
<polygon fill="#9a32cd" stroke="#9a32cd" points="1557.68,-986.98 1548.04,-991.38 1558.32,-993.95 1557.68,-986.98"/>
<text text-anchor="middle" x="1690.5" y="-989" font-family="Helvetica,sans-Serif" font-size="10.00"> problemPtr</text>
</g>
<!-- Node39 -->
<g id="node39" class="node">
<title>Node39</title>
<g id="a_node39"><a xlink:title=" ">
<polygon fill="white" stroke="#bfbfbf" points="1058,-917 1058,-947 1225,-947 1225,-917 1058,-917"/>
<text text-anchor="start" x="1066" y="-935" font-family="Helvetica,sans-Serif" font-size="10.00">shared_ptr&lt; NumeredEntFinite</text>
<text text-anchor="middle" x="1141.5" y="-924" font-family="Helvetica,sans-Serif" font-size="10.00">Element_multiIndex &gt;</text>
</a>
</g>
</g>
<!-- Node39&#45;&gt;Node38 -->
<g id="edge47" class="edge">
<title>Node39&#45;&gt;Node38</title>
<path fill="none" stroke="#9a32cd" stroke-dasharray="5,2" d="M1235.19,-940.39C1283.7,-945.69 1343.91,-953.71 1397,-965 1421.93,-970.3 1449.65,-978.78 1469.65,-985.37"/>
<polygon fill="#9a32cd" stroke="#9a32cd" points="1235.34,-936.88 1225.02,-939.3 1234.59,-943.84 1235.34,-936.88"/>
<text text-anchor="middle" x="1329" y="-968" font-family="Helvetica,sans-Serif" font-size="10.00"> numeredFiniteElementsPtr</text>
</g>
<!-- Node40 -->
<g id="node40" class="node">
<title>Node40</title>
<g id="a_node40"><a xlink:title=" ">
<polygon fill="white" stroke="#bfbfbf" points="1112,-878.5 1112,-897.5 1171,-897.5 1171,-878.5 1112,-878.5"/>
<text text-anchor="middle" x="1141.5" y="-885.5" font-family="Helvetica,sans-Serif" font-size="10.00">BitFEId *</text>
</a>
</g>
</g>
<!-- Node40&#45;&gt;Node38 -->
<g id="edge48" class="edge">
<title>Node40&#45;&gt;Node38</title>
<path fill="none" stroke="#9a32cd" stroke-dasharray="5,2" d="M1181.66,-889.24C1232.8,-891.99 1324.36,-900.79 1397,-929 1432.61,-942.83 1468.66,-970.61 1486.33,-985.33"/>
<polygon fill="#9a32cd" stroke="#9a32cd" points="1181.54,-885.73 1171.38,-888.74 1181.2,-892.72 1181.54,-885.73"/>
<text text-anchor="middle" x="1329" y="-932" font-family="Helvetica,sans-Serif" font-size="10.00"> tagBitFEId</text>
</g>
<!-- Node41 -->
<g id="node41" class="node">
<title>Node41</title>
<g id="a_node41"><a xlink:href="classEntityHandle.html" target="_top" xlink:title=" ">
<polygon fill="white" stroke="black" points="1101.5,-840.5 1101.5,-859.5 1181.5,-859.5 1181.5,-840.5 1101.5,-840.5"/>
<text text-anchor="middle" x="1141.5" y="-847.5" font-family="Helvetica,sans-Serif" font-size="10.00">EntityHandle</text>
</a>
</g>
</g>
<!-- Node41&#45;&gt;Node38 -->
<g id="edge49" class="edge">
<title>Node41&#45;&gt;Node38</title>
<path fill="none" stroke="#9a32cd" stroke-dasharray="5,2" d="M1191.86,-844.28C1246.43,-840.49 1334.84,-842.14 1397,-882 1409.77,-890.19 1405.63,-899.07 1415,-911 1437.98,-940.25 1469.99,-970.37 1486.57,-985.33"/>
<polygon fill="#9a32cd" stroke="#9a32cd" points="1191.44,-840.8 1181.74,-845.07 1191.99,-847.78 1191.44,-840.8"/>
<text text-anchor="middle" x="1329" y="-885" font-family="Helvetica,sans-Serif" font-size="10.00"> meshset</text>
</g>
<!-- Node42 -->
<g id="node42" class="node">
<title>Node42</title>
<g id="a_node42"><a xlink:title=" ">
<polygon fill="white" stroke="#bfbfbf" points="1067,-791 1067,-821 1216,-821 1216,-791 1067,-791"/>
<text text-anchor="start" x="1075" y="-809" font-family="Helvetica,sans-Serif" font-size="10.00">shared_ptr&lt; MoFEM::</text>
<text text-anchor="middle" x="1141.5" y="-798" font-family="Helvetica,sans-Serif" font-size="10.00">ComposedProblemsData &gt;</text>
</a>
</g>
</g>
<!-- Node42&#45;&gt;Node38 -->
<g id="edge50" class="edge">
<title>Node42&#45;&gt;Node38</title>
<path fill="none" stroke="#9a32cd" stroke-dasharray="5,2" d="M1226.26,-790.71C1281.28,-785.7 1351.27,-789.64 1397,-830 1424.65,-854.4 1397.4,-878.59 1415,-911 1432.46,-943.15 1465.84,-971.41 1484.34,-985.5"/>
<polygon fill="#9a32cd" stroke="#9a32cd" points="1225.77,-787.24 1216.18,-791.74 1226.48,-794.2 1225.77,-787.24"/>
<text text-anchor="middle" x="1329" y="-833" font-family="Helvetica,sans-Serif" font-size="10.00"> composedProblemsData</text>
</g>
<!-- Node43 -->
<g id="node43" class="node">
<title>Node43</title>
<g id="a_node43"><a xlink:title=" ">
<polygon fill="white" stroke="#bfbfbf" points="1101,-1180.5 1101,-1199.5 1182,-1199.5 1182,-1180.5 1101,-1180.5"/>
<text text-anchor="middle" x="1141.5" y="-1187.5" font-family="Helvetica,sans-Serif" font-size="10.00">BitRefLevel *</text>
</a>
</g>
</g>
<!-- Node43&#45;&gt;Node38 -->
<g id="edge51" class="edge">
<title>Node43&#45;&gt;Node38</title>
<path fill="none" stroke="#9a32cd" stroke-dasharray="5,2" d="M1192.44,-1184.5C1264.51,-1176.34 1389.87,-1161.22 1397,-1154 1441.08,-1109.36 1372.88,-1060.49 1415,-1014 1423.68,-1004.42 1436.15,-999.17 1448.76,-996.42"/>
<polygon fill="#9a32cd" stroke="#9a32cd" points="1191.76,-1181.05 1182.22,-1185.65 1192.54,-1188.01 1191.76,-1181.05"/>
<text text-anchor="middle" x="1329" y="-1190" font-family="Helvetica,sans-Serif" font-size="10.00"> tagBitRefLevelMask</text>
<text text-anchor="middle" x="1329" y="-1179" font-family="Helvetica,sans-Serif" font-size="10.00">tagBitRefLevel</text>
</g>
<!-- Node44 -->
<g id="node44" class="node">
<title>Node44</title>
<g id="a_node44"><a xlink:title=" ">
<polygon fill="white" stroke="#bfbfbf" points="1056.5,-1131 1056.5,-1161 1226.5,-1161 1226.5,-1131 1056.5,-1131"/>
<text text-anchor="start" x="1064.5" y="-1149" font-family="Helvetica,sans-Serif" font-size="10.00">shared_ptr&lt; NumeredDofEntity</text>
<text text-anchor="middle" x="1141.5" y="-1138" font-family="Helvetica,sans-Serif" font-size="10.00">_multiIndex &gt;</text>
</a>
</g>
</g>
<!-- Node44&#45;&gt;Node38 -->
<g id="edge52" class="edge">
<title>Node44&#45;&gt;Node38</title>
<path fill="none" stroke="#9a32cd" stroke-dasharray="5,2" d="M1237.02,-1134.47C1306.94,-1125.53 1391.04,-1113.72 1397,-1108 1427.69,-1078.54 1385.49,-1044.63 1415,-1014 1423.87,-1004.79 1436.24,-999.65 1448.71,-996.87"/>
<polygon fill="#9a32cd" stroke="#9a32cd" points="1236.3,-1131.03 1226.82,-1135.77 1237.18,-1137.98 1236.3,-1131.03"/>
<text text-anchor="middle" x="1329" y="-1145" font-family="Helvetica,sans-Serif" font-size="10.00"> numeredRowDofsPtr</text>
<text text-anchor="middle" x="1329" y="-1134" font-family="Helvetica,sans-Serif" font-size="10.00">numeredColDofsPtr</text>
</g>
<!-- Node45 -->
<g id="node45" class="node">
<title>Node45</title>
<g id="a_node45"><a xlink:title=" ">
<polygon fill="white" stroke="#bfbfbf" points="1072.5,-1092.5 1072.5,-1111.5 1210.5,-1111.5 1210.5,-1092.5 1072.5,-1092.5"/>
<text text-anchor="middle" x="1141.5" y="-1099.5" font-family="Helvetica,sans-Serif" font-size="10.00">vector&lt; BlockFieldPair &gt;</text>
</a>
</g>
</g>
<!-- Node45&#45;&gt;Node38 -->
<g id="edge54" class="edge">
<title>Node45&#45;&gt;Node38</title>
<path fill="none" stroke="#9a32cd" stroke-dasharray="5,2" d="M1220.86,-1096.38C1290.56,-1090.7 1383.52,-1081.18 1397,-1070 1417.12,-1053.31 1395.75,-1031.69 1415,-1014 1424.31,-1005.45 1436.67,-1000.5 1448.99,-997.69"/>
<polygon fill="#9a32cd" stroke="#9a32cd" points="1220.44,-1092.9 1210.75,-1097.19 1221,-1099.88 1220.44,-1092.9"/>
<text text-anchor="middle" x="1329" y="-1096" font-family="Helvetica,sans-Serif" font-size="10.00"> emptyFieldBlocks</text>
</g>
<!-- Node46 -->
<g id="node46" class="node">
<title>Node46</title>
<g id="a_node46"><a xlink:title=" ">
<polygon fill="white" stroke="#bfbfbf" points="1063.5,-1043 1063.5,-1073 1219.5,-1073 1219.5,-1043 1063.5,-1043"/>
<text text-anchor="start" x="1071.5" y="-1061" font-family="Helvetica,sans-Serif" font-size="10.00">shared_ptr&lt; MoFEM::</text>
<text text-anchor="middle" x="1141.5" y="-1050" font-family="Helvetica,sans-Serif" font-size="10.00">Problem::SubProblemData &gt;</text>
</a>
</g>
</g>
<!-- Node46&#45;&gt;Node38 -->
<g id="edge55" class="edge">
<title>Node46&#45;&gt;Node38</title>
<path fill="none" stroke="#9a32cd" stroke-dasharray="5,2" d="M1229.95,-1056.47C1291.77,-1054.14 1368.5,-1048.33 1397,-1034 1407.68,-1028.63 1404.7,-1020.07 1415,-1014 1425.26,-1007.96 1437.29,-1003.84 1448.93,-1001.03"/>
<polygon fill="#9a32cd" stroke="#9a32cd" points="1229.64,-1052.98 1219.77,-1056.83 1229.89,-1059.97 1229.64,-1052.98"/>
<text text-anchor="middle" x="1329" y="-1058" font-family="Helvetica,sans-Serif" font-size="10.00"> subProblemData</text>
</g>
<!-- Node47 -->
<g id="node47" class="node">
<title>Node47</title>
<g id="a_node47"><a xlink:title=" ">
<polygon fill="white" stroke="#bfbfbf" points="1040,-1004.5 1040,-1023.5 1243,-1023.5 1243,-1004.5 1040,-1004.5"/>
<text text-anchor="middle" x="1141.5" y="-1011.5" font-family="Helvetica,sans-Serif" font-size="10.00">shared_ptr&lt; SequenceDofContainer &gt;</text>
</a>
</g>
</g>
<!-- Node47&#45;&gt;Node38 -->
<g id="edge57" class="edge">
<title>Node47&#45;&gt;Node38</title>
<path fill="none" stroke="#9a32cd" stroke-dasharray="5,2" d="M1253.66,-1008.05C1319.11,-1004.55 1398.61,-1000.29 1448.65,-997.61"/>
<polygon fill="#9a32cd" stroke="#9a32cd" points="1253.08,-1004.58 1243.28,-1008.61 1253.45,-1011.57 1253.08,-1004.58"/>
<text text-anchor="middle" x="1329" y="-1022" font-family="Helvetica,sans-Serif" font-size="10.00"> sequenceRowDofContainer</text>
<text text-anchor="middle" x="1329" y="-1011" font-family="Helvetica,sans-Serif" font-size="10.00">sequenceColDofContainer</text>
</g>
<!-- Node48 -->
<g id="node48" class="node">
<title>Node48</title>
<g id="a_node48"><a xlink:title=" ">
<polygon fill="white" stroke="#bfbfbf" points="1097.5,-966.5 1097.5,-985.5 1185.5,-985.5 1185.5,-966.5 1097.5,-966.5"/>
<text text-anchor="middle" x="1141.5" y="-973.5" font-family="Helvetica,sans-Serif" font-size="10.00">BitProblemId *</text>
</a>
</g>
</g>
<!-- Node48&#45;&gt;Node38 -->
<g id="edge58" class="edge">
<title>Node48&#45;&gt;Node38</title>
<path fill="none" stroke="#9a32cd" stroke-dasharray="5,2" d="M1195.99,-977.32C1247.52,-978.78 1327.65,-981.53 1397,-986 1413.96,-987.09 1432.49,-988.65 1448.98,-990.16"/>
<polygon fill="#9a32cd" stroke="#9a32cd" points="1195.86,-973.82 1185.76,-977.04 1195.66,-980.82 1195.86,-973.82"/>
<text text-anchor="middle" x="1329" y="-989" font-family="Helvetica,sans-Serif" font-size="10.00"> tagId</text>
</g>
<!-- Node49 -->
<g id="node49" class="node">
<title>Node49</title>
<g id="a_node49"><a xlink:title=" ">
<polygon fill="white" stroke="#bfbfbf" points="1805,-878 1805,-908 1967,-908 1967,-878 1805,-878"/>
<text text-anchor="start" x="1813" y="-896" font-family="Helvetica,sans-Serif" font-size="10.00">shared_ptr&lt; const MoFEM</text>
<text text-anchor="middle" x="1886" y="-885" font-family="Helvetica,sans-Serif" font-size="10.00">::NumeredEntFiniteElement &gt;</text>
</a>
</g>
</g>
<!-- Node49&#45;&gt;Node12 -->
<g id="edge59" class="edge">
<title>Node49&#45;&gt;Node12</title>
<path fill="none" stroke="#9a32cd" stroke-dasharray="5,2" d="M1977.06,-895.08C2028.01,-891.89 2090.28,-880.18 2135,-846 2149.53,-834.89 2138.45,-820.08 2153,-809 2167.04,-798.3 2185.28,-793.01 2202.44,-790.55"/>
<polygon fill="#9a32cd" stroke="#9a32cd" points="1976.83,-891.59 1967.02,-895.61 1977.19,-898.58 1976.83,-891.59"/>
<text text-anchor="middle" x="2063" y="-897" font-family="Helvetica,sans-Serif" font-size="10.00"> numeredEntFiniteElementPtr</text>
</g>
<!-- Node50 -->
<g id="node50" class="node">
<title>Node50</title>
<g id="a_node50"><a xlink:title=" ">
<polygon fill="white" stroke="#bfbfbf" points="1864,-642.5 1864,-661.5 1908,-661.5 1908,-642.5 1864,-642.5"/>
<text text-anchor="middle" x="1886" y="-649.5" font-family="Helvetica,sans-Serif" font-size="10.00">string</text>
</a>
</g>
</g>
<!-- Node50&#45;&gt;Node3 -->
<g id="edge82" class="edge">
<title>Node50&#45;&gt;Node3</title>
<path fill="none" stroke="#9a32cd" stroke-dasharray="5,2" d="M1918.25,-653.15C1936.9,-652.04 1959.51,-647.23 1973,-632 1997.75,-604.06 1963.23,-489.94 1991,-465 2061.17,-401.99 2292.48,-360 2539,-494 2790.47,-630.69 2897.19,-1010.94 2917.37,-1091.77"/>
<polygon fill="#9a32cd" stroke="#9a32cd" points="1918,-649.65 1908.1,-653.42 1918.19,-656.65 1918,-649.65"/>
<text text-anchor="middle" x="2458" y="-508" font-family="Helvetica,sans-Serif" font-size="10.00"> colFieldName</text>
<text text-anchor="middle" x="2458" y="-497" font-family="Helvetica,sans-Serif" font-size="10.00">rowFieldName</text>
</g>
<!-- Node50&#45;&gt;Node12 -->
<g id="edge60" class="edge">
<title>Node50&#45;&gt;Node12</title>
<path fill="none" stroke="#9a32cd" stroke-dasharray="5,2" d="M1918.48,-657.03C1934.99,-660.15 1955.38,-664.76 1973,-671 1981.43,-673.99 1982.63,-676.84 1991,-680 2052.93,-703.37 2086.6,-672.85 2135,-718 2153.19,-734.97 2134.2,-754.71 2153,-771 2166.55,-782.73 2184.97,-788.22 2202.44,-790.54"/>
<polygon fill="#9a32cd" stroke="#9a32cd" points="1918.72,-653.52 1908.26,-655.2 1917.48,-660.41 1918.72,-653.52"/>
<text text-anchor="middle" x="2063" y="-721" font-family="Helvetica,sans-Serif" font-size="10.00"> feName</text>
</g>
<!-- Node51 -->
<g id="node51" class="node">
<title>Node51</title>
<g id="a_node51"><a xlink:title=" ">
<polygon fill="white" stroke="#bfbfbf" points="1804.5,-829 1804.5,-859 1967.5,-859 1967.5,-829 1804.5,-829"/>
<text text-anchor="start" x="1812.5" y="-847" font-family="Helvetica,sans-Serif" font-size="10.00">function&lt; bool(MoFEM</text>
<text text-anchor="middle" x="1886" y="-836" font-family="Helvetica,sans-Serif" font-size="10.00">::FEMethod *fe_method_ptr)&gt;</text>
</a>
</g>
</g>
<!-- Node51&#45;&gt;Node12 -->
<g id="edge61" class="edge">
<title>Node51&#45;&gt;Node12</title>
<path fill="none" stroke="#9a32cd" stroke-dasharray="5,2" d="M1977.66,-832.21C2024.66,-825.94 2082.96,-817.9 2135,-810 2157.13,-806.64 2181.51,-802.63 2202.48,-799.09"/>
<polygon fill="#9a32cd" stroke="#9a32cd" points="1976.95,-828.77 1967.5,-833.56 1977.88,-835.71 1976.95,-828.77"/>
<text text-anchor="middle" x="2063" y="-834" font-family="Helvetica,sans-Serif" font-size="10.00"> exeTestHook</text>
</g>
<!-- Node52 -->
<g id="node52" class="node">
<title>Node52</title>
<g id="a_node52"><a xlink:href="classdouble.html" target="_top" xlink:title=" ">
<polygon fill="white" stroke="black" points="2231,-1212.5 2231,-1231.5 2281,-1231.5 2281,-1212.5 2231,-1212.5"/>
<text text-anchor="middle" x="2256" y="-1219.5" font-family="Helvetica,sans-Serif" font-size="10.00">double</text>
</a>
</g>
</g>
<!-- Node52&#45;&gt;Node11 -->
<g id="edge62" class="edge">
<title>Node52&#45;&gt;Node11</title>
<path fill="none" stroke="#9a32cd" stroke-dasharray="5,2" d="M2291.33,-1221.97C2362.59,-1221.56 2521.44,-1218.76 2539,-1202 2563.61,-1178.52 2550.21,-1083.33 2557,-1050 2579.65,-938.74 2624.64,-808.12 2637.49,-771.8"/>
<polygon fill="#9a32cd" stroke="#9a32cd" points="2291.06,-1218.47 2281.08,-1222.01 2291.09,-1225.47 2291.06,-1218.47"/>
<text text-anchor="middle" x="2458" y="-1224" font-family="Helvetica,sans-Serif" font-size="10.00"> elementMeasure</text>
</g>
<!-- Node52&#45;&gt;Node70 -->
<g id="edge84" class="edge">
<title>Node52&#45;&gt;Node70</title>
<path fill="none" stroke="#9a32cd" stroke-dasharray="5,2" d="M2291.51,-1221.59C2312.63,-1222.91 2339.28,-1227.52 2359,-1241 2371.52,-1249.56 2365.49,-1260.12 2377,-1270 2436.4,-1320.95 2468.87,-1304.27 2539,-1339 2566.02,-1352.38 2595.89,-1369.67 2616.28,-1381.89"/>
<polygon fill="#9a32cd" stroke="#9a32cd" points="2291.47,-1218.09 2281.34,-1221.18 2291.19,-1225.08 2291.47,-1218.09"/>
<text text-anchor="middle" x="2458" y="-1375" font-family="Helvetica,sans-Serif" font-size="10.00"> inertiaCoef</text>
<text text-anchor="middle" x="2458" y="-1364" font-family="Helvetica,sans-Serif" font-size="10.00">viscousCoef</text>
<text text-anchor="middle" x="2458" y="-1353" font-family="Helvetica,sans-Serif" font-size="10.00">fluidDensity</text>
<text text-anchor="middle" x="2458" y="-1342" font-family="Helvetica,sans-Serif" font-size="10.00">fluidViscosity</text>
</g>
<!-- Node53 -->
<g id="node53" class="node">
<title>Node53</title>
<g id="a_node53"><a xlink:title=" ">
<polygon fill="white" stroke="#bfbfbf" points="2170,-720.5 2170,-761.5 2342,-761.5 2342,-720.5 2170,-720.5"/>
<text text-anchor="start" x="2178" y="-749.5" font-family="Helvetica,sans-Serif" font-size="10.00">array&lt; boost::shared</text>
<text text-anchor="start" x="2178" y="-738.5" font-family="Helvetica,sans-Serif" font-size="10.00">_ptr&lt; MoFEM::EntitiesFieldData</text>
<text text-anchor="middle" x="2256" y="-727.5" font-family="Helvetica,sans-Serif" font-size="10.00"> &gt;, LASTSPACE &gt;</text>
</a>
</g>
</g>
<!-- Node53&#45;&gt;Node11 -->
<g id="edge63" class="edge">
<title>Node53&#45;&gt;Node11</title>
<path fill="none" stroke="#9a32cd" stroke-dasharray="5,2" d="M2352.31,-740.72C2407.02,-741.23 2476.96,-742.99 2539,-748 2552.27,-749.07 2566.46,-750.71 2579.9,-752.48"/>
<polygon fill="#9a32cd" stroke="#9a32cd" points="2352.31,-737.22 2342.28,-740.65 2352.25,-744.22 2352.31,-737.22"/>
<text text-anchor="middle" x="2458" y="-762" font-family="Helvetica,sans-Serif" font-size="10.00"> derivedDataOnElement</text>
<text text-anchor="middle" x="2458" y="-751" font-family="Helvetica,sans-Serif" font-size="10.00">dataOnElement</text>
</g>
<!-- Node54 -->
<g id="node54" class="node">
<title>Node54</title>
<g id="a_node54"><a xlink:title=" ">
<polygon fill="white" stroke="#bfbfbf" points="2222,-682.5 2222,-701.5 2290,-701.5 2290,-682.5 2222,-682.5"/>
<text text-anchor="middle" x="2256" y="-689.5" font-family="Helvetica,sans-Serif" font-size="10.00">EntityType</text>
</a>
</g>
</g>
<!-- Node54&#45;&gt;Node11 -->
<g id="edge64" class="edge">
<title>Node54&#45;&gt;Node11</title>
<path fill="none" stroke="#9a32cd" stroke-dasharray="5,2" d="M2300.62,-694.6C2356.46,-698.58 2455.91,-707.81 2539,-727 2566.54,-733.36 2597.08,-744.4 2617.5,-752.38"/>
<polygon fill="#9a32cd" stroke="#9a32cd" points="2300.6,-691.09 2290.38,-693.9 2300.12,-698.08 2300.6,-691.09"/>
<text text-anchor="middle" x="2458" y="-730" font-family="Helvetica,sans-Serif" font-size="10.00"> lastEvaluatedElementEntityType</text>
</g>
<!-- Node55 -->
<g id="node55" class="node">
<title>Node55</title>
<g id="a_node55"><a xlink:href="structMoFEM_1_1DeprecatedCoreInterface.html" target="_top" xlink:title="Deprecated interface functions.">
<polygon fill="white" stroke="black" points="1600,-214.5 1600,-233.5 1781,-233.5 1781,-214.5 1600,-214.5"/>
<text text-anchor="middle" x="1690.5" y="-221.5" font-family="Helvetica,sans-Serif" font-size="10.00">MoFEM::DeprecatedCoreInterface</text>
</a>
</g>
</g>
<!-- Node55&#45;&gt;Node11 -->
<g id="edge65" class="edge">
<title>Node55&#45;&gt;Node11</title>
<path fill="none" stroke="#9a32cd" stroke-dasharray="5,2" d="M1740.41,-236.15C1753.66,-239.7 1767.95,-243.78 1781,-248 2050.68,-335.27 2106.71,-389.64 2377,-475 2447.82,-497.37 2482.81,-467.43 2539,-516 2615.78,-582.37 2635.88,-715.78 2640.05,-752.47"/>
<polygon fill="#9a32cd" stroke="#9a32cd" points="1741.08,-232.71 1730.52,-233.54 1739.3,-239.48 1741.08,-232.71"/>
<text text-anchor="middle" x="2063" y="-389" font-family="Helvetica,sans-Serif" font-size="10.00"> mField</text>
</g>
<!-- Node56&#45;&gt;Node55 -->
<g id="edge66" class="edge">
<title>Node56&#45;&gt;Node55</title>
<path fill="none" stroke="midnightblue" d="M1214.2,-9.12C1266.23,-10.49 1337.61,-16.6 1397,-37 1519.55,-79.11 1642.57,-182.38 1678.83,-214.39"/>
<polygon fill="midnightblue" stroke="midnightblue" points="1214.13,-5.62 1204.06,-8.9 1213.98,-12.61 1214.13,-5.62"/>
</g>
<!-- Node57 -->
<g id="node57" class="node">
<title>Node57</title>
<g id="a_node57"><a xlink:title=" ">
<polygon fill="white" stroke="#bfbfbf" points="2172.5,-611 2172.5,-663 2339.5,-663 2339.5,-611 2172.5,-611"/>
<text text-anchor="start" x="2180.5" y="-651" font-family="Helvetica,sans-Serif" font-size="10.00">function&lt; MoFEMErrorCode</text>
<text text-anchor="start" x="2180.5" y="-640" font-family="Helvetica,sans-Serif" font-size="10.00">(ForcesAndSourcesCore *fe</text>
<text text-anchor="start" x="2180.5" y="-629" font-family="Helvetica,sans-Serif" font-size="10.00">_raw_ptr, int order_row,</text>
<text text-anchor="middle" x="2256" y="-618" font-family="Helvetica,sans-Serif" font-size="10.00"> int order_col, int order_data)&gt;</text>
</a>
</g>
</g>
<!-- Node57&#45;&gt;Node11 -->
<g id="edge69" class="edge">
<title>Node57&#45;&gt;Node11</title>
<path fill="none" stroke="#9a32cd" stroke-dasharray="5,2" d="M2349.75,-642.72C2406.29,-648.79 2478.96,-661.28 2539,-687 2576.98,-703.27 2614.19,-736.09 2631.27,-752.38"/>
<polygon fill="#9a32cd" stroke="#9a32cd" points="2350.05,-639.24 2339.75,-641.7 2349.34,-646.2 2350.05,-639.24"/>
<text text-anchor="middle" x="2458" y="-690" font-family="Helvetica,sans-Serif" font-size="10.00"> setRuleHook</text>
</g>
<!-- Node58 -->
<g id="node58" class="node">
<title>Node58</title>
<g id="a_node58"><a xlink:title=" ">
<polygon fill="white" stroke="#bfbfbf" points="2155,-522 2155,-552 2357,-552 2357,-522 2155,-522"/>
<text text-anchor="start" x="2163" y="-540" font-family="Helvetica,sans-Serif" font-size="10.00">ptr_deque&lt; MoFEM::Forces</text>
<text text-anchor="middle" x="2256" y="-529" font-family="Helvetica,sans-Serif" font-size="10.00">AndSourcesCore::UserDataOperator &gt;</text>
</a>
</g>
</g>
<!-- Node58&#45;&gt;Node11 -->
<g id="edge70" class="edge">
<title>Node58&#45;&gt;Node11</title>
<path fill="none" stroke="#9a32cd" stroke-dasharray="5,2" d="M2353.67,-521.15C2412.01,-516.77 2485.22,-520.99 2539,-557 2610.35,-604.77 2633.91,-717.87 2639.53,-752.05"/>
<polygon fill="#9a32cd" stroke="#9a32cd" points="2353.37,-517.66 2343.7,-521.99 2353.96,-524.64 2353.37,-517.66"/>
<text text-anchor="middle" x="2458" y="-560" font-family="Helvetica,sans-Serif" font-size="10.00"> opPtrVector</text>
</g>
<!-- Node59 -->
<g id="node59" class="node">
<title>Node59</title>
<g id="a_node59"><a xlink:href="structMoFEM_1_1EntitiesFieldData.html" target="_top" xlink:title="data structure for finite element entity">
<polygon fill="white" stroke="black" points="2185,-571.5 2185,-590.5 2327,-590.5 2327,-571.5 2185,-571.5"/>
<text text-anchor="middle" x="2256" y="-578.5" font-family="Helvetica,sans-Serif" font-size="10.00">MoFEM::EntitiesFieldData</text>
</a>
</g>
</g>
<!-- Node59&#45;&gt;Node11 -->
<g id="edge71" class="edge">
<title>Node59&#45;&gt;Node11</title>
<path fill="none" stroke="#9a32cd" stroke-dasharray="5,2" d="M2337.31,-574.5C2408.48,-570.25 2506.08,-568.59 2539,-588 2603.25,-625.88 2631.2,-721.18 2638.77,-752.13"/>
<polygon fill="#9a32cd" stroke="#9a32cd" points="2336.77,-571.02 2327.01,-575.14 2337.21,-578.01 2336.77,-571.02"/>
<text text-anchor="middle" x="2458" y="-635" font-family="Helvetica,sans-Serif" font-size="10.00"> dataNoField</text>
<text text-anchor="middle" x="2458" y="-624" font-family="Helvetica,sans-Serif" font-size="10.00">dataL2</text>
<text text-anchor="middle" x="2458" y="-613" font-family="Helvetica,sans-Serif" font-size="10.00">dataH1</text>
<text text-anchor="middle" x="2458" y="-602" font-family="Helvetica,sans-Serif" font-size="10.00">dataHcurl</text>
<text text-anchor="middle" x="2458" y="-591" font-family="Helvetica,sans-Serif" font-size="10.00">dataHdiv</text>
</g>
<!-- Node60 -->
<g id="node60" class="node">
<title>Node60</title>
<g id="a_node60"><a xlink:title=" ">
<polygon fill="white" stroke="#bfbfbf" points="1805,-467 1805,-497 1967,-497 1967,-467 1805,-467"/>
<text text-anchor="start" x="1813" y="-485" font-family="Helvetica,sans-Serif" font-size="10.00">array&lt; std::bitset</text>
<text text-anchor="middle" x="1886" y="-474" font-family="Helvetica,sans-Serif" font-size="10.00">&lt; LASTBASE &gt;, LASTSPACE &gt;</text>
</a>
</g>
</g>
<!-- Node60&#45;&gt;Node59 -->
<g id="edge72" class="edge">
<title>Node60&#45;&gt;Node59</title>
<path fill="none" stroke="#9a32cd" stroke-dasharray="5,2" d="M1959.28,-465.44C2013.48,-457.47 2086.41,-456.82 2135,-496 2158.34,-514.81 2131.01,-540.63 2153,-561 2161.87,-569.22 2173.08,-574.5 2184.81,-577.83"/>
<polygon fill="#9a32cd" stroke="#9a32cd" points="1958.71,-461.98 1949.38,-467 1959.81,-468.9 1958.71,-461.98"/>
<text text-anchor="middle" x="2063" y="-510" font-family="Helvetica,sans-Serif" font-size="10.00"> brokenBasesOnSpaces</text>
<text text-anchor="middle" x="2063" y="-499" font-family="Helvetica,sans-Serif" font-size="10.00">basesOnSpaces</text>
</g>
<!-- Node61 -->
<g id="node61" class="node">
<title>Node61</title>
<g id="a_node61"><a xlink:title=" ">
<polygon fill="white" stroke="#bfbfbf" points="1809.5,-730.5 1809.5,-771.5 1962.5,-771.5 1962.5,-730.5 1809.5,-730.5"/>
<text text-anchor="start" x="1817.5" y="-759.5" font-family="Helvetica,sans-Serif" font-size="10.00">array&lt; boost::ptr_vector</text>
<text text-anchor="start" x="1817.5" y="-748.5" font-family="Helvetica,sans-Serif" font-size="10.00">&lt; MoFEM::EntitiesFieldData</text>
<text text-anchor="middle" x="1886" y="-737.5" font-family="Helvetica,sans-Serif" font-size="10.00">::EntData &gt;, MBMAXTYPE &gt;</text>
</a>
</g>
</g>
<!-- Node61&#45;&gt;Node59 -->
<g id="edge73" class="edge">
<title>Node61&#45;&gt;Node59</title>
<path fill="none" stroke="#9a32cd" stroke-dasharray="5,2" d="M1972.71,-767.86C2026.23,-773.1 2092.75,-769.14 2135,-729 2176.65,-689.43 2113.49,-642.7 2153,-601 2161.56,-591.96 2172.92,-586.34 2184.94,-582.96"/>
<polygon fill="#9a32cd" stroke="#9a32cd" points="1972.86,-764.36 1962.53,-766.74 1972.09,-771.31 1972.86,-764.36"/>
<text text-anchor="middle" x="2063" y="-773" font-family="Helvetica,sans-Serif" font-size="10.00"> dataOnEntities</text>
</g>
<!-- Node62 -->
<g id="node62" class="node">
<title>Node62</title>
<g id="a_node62"><a xlink:title=" ">
<polygon fill="white" stroke="#bfbfbf" points="1799,-681 1799,-711 1973,-711 1973,-681 1799,-681"/>
<text text-anchor="start" x="1807" y="-699" font-family="Helvetica,sans-Serif" font-size="10.00">array&lt; std::bitset</text>
<text text-anchor="middle" x="1886" y="-688" font-family="Helvetica,sans-Serif" font-size="10.00">&lt; LASTSPACE &gt;, MBMAXTYPE &gt;</text>
</a>
</g>
</g>
<!-- Node62&#45;&gt;Node59 -->
<g id="edge74" class="edge">
<title>Node62&#45;&gt;Node59</title>
<path fill="none" stroke="#9a32cd" stroke-dasharray="5,2" d="M1950.07,-678.01C1957.81,-675.7 1965.6,-673.33 1973,-671 2045.52,-648.16 2068.68,-653.19 2135,-616 2144.08,-610.91 2143.6,-605.47 2153,-601 2162.94,-596.27 2173.93,-592.66 2184.92,-589.9"/>
<polygon fill="#9a32cd" stroke="#9a32cd" points="1948.92,-674.7 1940.33,-680.9 1950.91,-681.42 1948.92,-674.7"/>
<text text-anchor="middle" x="2063" y="-668" font-family="Helvetica,sans-Serif" font-size="10.00"> spacesOnEntities</text>
</g>
<!-- Node63 -->
<g id="node63" class="node">
<title>Node63</title>
<g id="a_node63"><a xlink:title=" ">
<polygon fill="white" stroke="#bfbfbf" points="1801.5,-593 1801.5,-623 1970.5,-623 1970.5,-593 1801.5,-593"/>
<text text-anchor="start" x="1809.5" y="-611" font-family="Helvetica,sans-Serif" font-size="10.00">array&lt; std::bitset</text>
<text text-anchor="middle" x="1886" y="-600" font-family="Helvetica,sans-Serif" font-size="10.00">&lt; LASTBASE &gt;, MBMAXTYPE &gt;</text>
</a>
</g>
</g>
<!-- Node63&#45;&gt;Node59 -->
<g id="edge75" class="edge">
<title>Node63&#45;&gt;Node59</title>
<path fill="none" stroke="#9a32cd" stroke-dasharray="5,2" d="M1980.54,-601.14C2044.11,-596.47 2126.86,-590.4 2184.81,-586.15"/>
<polygon fill="#9a32cd" stroke="#9a32cd" points="1980.22,-597.65 1970.5,-601.87 1980.73,-604.63 1980.22,-597.65"/>
<text text-anchor="middle" x="2063" y="-604" font-family="Helvetica,sans-Serif" font-size="10.00"> basesOnEntities</text>
</g>
<!-- Node64 -->
<g id="node64" class="node">
<title>Node64</title>
<g id="a_node64"><a xlink:title=" ">
<polygon fill="white" stroke="#bfbfbf" points="1830,-554.5 1830,-573.5 1942,-573.5 1942,-554.5 1830,-554.5"/>
<text text-anchor="middle" x="1886" y="-561.5" font-family="Helvetica,sans-Serif" font-size="10.00">UBlasMatrix&lt; int &gt;</text>
</a>
</g>
</g>
<!-- Node64&#45;&gt;Node59 -->
<g id="edge76" class="edge">
<title>Node64&#45;&gt;Node59</title>
<path fill="none" stroke="#9a32cd" stroke-dasharray="5,2" d="M1952.27,-561.98C2002.33,-560.98 2073.11,-560.77 2135,-565 2154.61,-566.34 2175.9,-568.84 2195.03,-571.46"/>
<polygon fill="#9a32cd" stroke="#9a32cd" points="1952.16,-558.48 1942.23,-562.19 1952.31,-565.48 1952.16,-558.48"/>
<text text-anchor="middle" x="2063" y="-579" font-family="Helvetica,sans-Serif" font-size="10.00"> facesNodesOrder</text>
<text text-anchor="middle" x="2063" y="-568" font-family="Helvetica,sans-Serif" font-size="10.00">facesNodes</text>
</g>
<!-- Node65 -->
<g id="node65" class="node">
<title>Node65</title>
<g id="a_node65"><a xlink:title=" ">
<polygon fill="white" stroke="#bfbfbf" points="1827.5,-516.5 1827.5,-535.5 1944.5,-535.5 1944.5,-516.5 1827.5,-516.5"/>
<text text-anchor="middle" x="1886" y="-523.5" font-family="Helvetica,sans-Serif" font-size="10.00">bitset&lt; LASTBASE &gt;</text>
</a>
</g>
</g>
<!-- Node65&#45;&gt;Node59 -->
<g id="edge77" class="edge">
<title>Node65&#45;&gt;Node59</title>
<path fill="none" stroke="#9a32cd" stroke-dasharray="5,2" d="M1955.02,-521.52C2006.22,-520.55 2077.21,-524.4 2135,-547 2144.44,-550.69 2143.78,-556.8 2153,-561 2162.94,-565.52 2173.87,-569.03 2184.78,-571.74"/>
<polygon fill="#9a32cd" stroke="#9a32cd" points="1954.63,-518.03 1944.73,-521.79 1954.81,-525.03 1954.63,-518.03"/>
<text text-anchor="middle" x="2063" y="-550" font-family="Helvetica,sans-Serif" font-size="10.00"> bAse</text>
</g>
<!-- Node66 -->
<g id="node66" class="node">
<title>Node66</title>
<g id="a_node66"><a xlink:title=" ">
<polygon fill="white" stroke="#bfbfbf" points="2193.5,-906.5 2193.5,-947.5 2318.5,-947.5 2318.5,-906.5 2193.5,-906.5"/>
<text text-anchor="start" x="2201.5" y="-935.5" font-family="Helvetica,sans-Serif" font-size="10.00">function&lt; int(int order</text>
<text text-anchor="start" x="2201.5" y="-924.5" font-family="Helvetica,sans-Serif" font-size="10.00">_row, int order_col, int</text>
<text text-anchor="middle" x="2256" y="-913.5" font-family="Helvetica,sans-Serif" font-size="10.00"> order_data)&gt;</text>
</a>
</g>
</g>
<!-- Node66&#45;&gt;Node11 -->
<g id="edge78" class="edge">
<title>Node66&#45;&gt;Node11</title>
<path fill="none" stroke="#9a32cd" stroke-dasharray="5,2" d="M2328.9,-935.63C2388.93,-939.36 2474.76,-936.34 2539,-900 2592.93,-869.49 2626.56,-797.46 2637.28,-771.52"/>
<polygon fill="#9a32cd" stroke="#9a32cd" points="2328.97,-932.12 2318.75,-934.92 2328.48,-939.11 2328.97,-932.12"/>
<text text-anchor="middle" x="2458" y="-940" font-family="Helvetica,sans-Serif" font-size="10.00"> getRuleHook</text>
</g>
<!-- Node67 -->
<g id="node67" class="node">
<title>Node67</title>
<g id="a_node67"><a xlink:title=" ">
<polygon fill="white" stroke="#bfbfbf" points="2195,-857 2195,-887 2317,-887 2317,-857 2195,-857"/>
<text text-anchor="start" x="2203" y="-875" font-family="Helvetica,sans-Serif" font-size="10.00">shared_ptr&lt; MoFEM::</text>
<text text-anchor="middle" x="2256" y="-864" font-family="Helvetica,sans-Serif" font-size="10.00">BaseFunction &gt;</text>
</a>
</g>
</g>
<!-- Node67&#45;&gt;Node11 -->
<g id="edge79" class="edge">
<title>Node67&#45;&gt;Node11</title>
<path fill="none" stroke="#9a32cd" stroke-dasharray="5,2" d="M2327.37,-875.12C2386.06,-875.26 2470.79,-869.68 2539,-842 2578.83,-825.83 2616,-789.26 2632.32,-771.73"/>
<polygon fill="#9a32cd" stroke="#9a32cd" points="2327.12,-871.61 2317.09,-875.03 2327.06,-878.61 2327.12,-871.61"/>
<text text-anchor="middle" x="2458" y="-888" font-family="Helvetica,sans-Serif" font-size="10.00"> userPolynomialBasePtr</text>
<text text-anchor="middle" x="2458" y="-877" font-family="Helvetica,sans-Serif" font-size="10.00">elementPolynomialBasePtr</text>
</g>
<!-- Node68 -->
<g id="node68" class="node">
<title>Node68</title>
<g id="a_node68"><a xlink:href="classUBlasMatrix_3_01double_01_4.html" target="_top" xlink:title=" ">
<polygon fill="white" stroke="black" points="2190,-818.5 2190,-837.5 2322,-837.5 2322,-818.5 2190,-818.5"/>
<text text-anchor="middle" x="2256" y="-825.5" font-family="Helvetica,sans-Serif" font-size="10.00">UBlasMatrix&lt; double &gt;</text>
</a>
</g>
</g>
<!-- Node68&#45;&gt;Node11 -->
<g id="edge80" class="edge">
<title>Node68&#45;&gt;Node11</title>
<path fill="none" stroke="#9a32cd" stroke-dasharray="5,2" d="M2332.12,-820.65C2389.2,-814.39 2469.47,-804.16 2539,-790 2563.29,-785.05 2590.33,-777.54 2610.46,-771.54"/>
<polygon fill="#9a32cd" stroke="#9a32cd" points="2331.66,-817.18 2322.1,-821.73 2332.41,-824.14 2331.66,-817.18"/>
<text text-anchor="middle" x="2458" y="-830" font-family="Helvetica,sans-Serif" font-size="10.00"> coordsAtGaussPts</text>
<text text-anchor="middle" x="2458" y="-819" font-family="Helvetica,sans-Serif" font-size="10.00">gaussPts</text>
</g>
<!-- Node69 -->
<g id="node69" class="node">
<title>Node69</title>
<g id="a_node69"><a xlink:title=" ">
<polygon fill="white" stroke="#bfbfbf" points="2576.5,-1059.5 2576.5,-1078.5 2707.5,-1078.5 2707.5,-1059.5 2576.5,-1059.5"/>
<text text-anchor="middle" x="2642" y="-1066.5" font-family="Helvetica,sans-Serif" font-size="10.00">static const char *const</text>
</a>
</g>
</g>
<!-- Node69&#45;&gt;Node3 -->
<g id="edge81" class="edge">
<title>Node69&#45;&gt;Node3</title>
<path fill="none" stroke="#9a32cd" stroke-dasharray="5,2" d="M2717.77,-1078.5C2749.07,-1082.55 2785.81,-1087.39 2819,-1092 2824.85,-1092.81 2830.89,-1093.66 2836.97,-1094.53"/>
<polygon fill="#9a32cd" stroke="#9a32cd" points="2718.18,-1075.03 2707.81,-1077.22 2717.28,-1081.97 2718.18,-1075.03"/>
<text text-anchor="middle" x="2782" y="-1095" font-family="Helvetica,sans-Serif" font-size="10.00"> OpTypeNames</text>
</g>
<!-- Node70&#45;&gt;Node1 -->
<g id="edge83" class="edge">
<title>Node70&#45;&gt;Node1</title>
<path fill="none" stroke="#9a32cd" stroke-dasharray="5,2" d="M2713.3,-1395.33C2824.95,-1392.55 3049.63,-1386.44 3240,-1378 3279.14,-1376.27 3289.09,-1377.58 3328,-1373 3333.74,-1372.32 3339.69,-1371.49 3345.64,-1370.58"/>
<polygon fill="#9a32cd" stroke="#9a32cd" points="2713.09,-1391.83 2703.18,-1395.58 2713.27,-1398.83 2713.09,-1391.83"/>
<text text-anchor="middle" x="3051.5" y="-1390" font-family="Helvetica,sans-Serif" font-size="10.00"> blockData</text>
</g>
<!-- Node71 -->
<g id="node71" class="node">
<title>Node71</title>
<g id="a_node71"><a xlink:href="classRange.html" target="_top" xlink:title=" ">
<polygon fill="white" stroke="black" points="2232.5,-1425.5 2232.5,-1444.5 2279.5,-1444.5 2279.5,-1425.5 2232.5,-1425.5"/>
<text text-anchor="middle" x="2256" y="-1432.5" font-family="Helvetica,sans-Serif" font-size="10.00">Range</text>
</a>
</g>
</g>
<!-- Node71&#45;&gt;Node70 -->
<g id="edge85" class="edge">
<title>Node71&#45;&gt;Node70</title>
<path fill="none" stroke="#9a32cd" stroke-dasharray="5,2" d="M2289.79,-1432.76C2342.42,-1429.04 2449,-1421 2539,-1411 2552.59,-1409.49 2567.17,-1407.63 2580.93,-1405.77"/>
<polygon fill="#9a32cd" stroke="#9a32cd" points="2289.43,-1429.28 2279.7,-1433.47 2289.92,-1436.26 2289.43,-1429.28"/>
<text text-anchor="middle" x="2458" y="-1430" font-family="Helvetica,sans-Serif" font-size="10.00"> eNts</text>
</g>
<!-- Node72 -->
<g id="node72" class="node">
<title>Node72</title>
<g id="a_node72"><a xlink:title=" ">
<polygon fill="white" stroke="#bfbfbf" points="3096,-1300 3096,-1330 3240,-1330 3240,-1300 3096,-1300"/>
<text text-anchor="start" x="3104" y="-1318" font-family="Helvetica,sans-Serif" font-size="10.00">shared_ptr&lt; NavierStokes</text>
<text text-anchor="middle" x="3168" y="-1307" font-family="Helvetica,sans-Serif" font-size="10.00">Element::CommonData &gt;</text>
</a>
</g>
</g>
<!-- Node72&#45;&gt;Node1 -->
<g id="edge88" class="edge">
<title>Node72&#45;&gt;Node1</title>
<path fill="none" stroke="#9a32cd" stroke-dasharray="5,2" d="M3250.4,-1329.69C3275.31,-1334.23 3302.79,-1339.28 3328,-1344 3333.83,-1345.09 3339.9,-1346.24 3345.97,-1347.4"/>
<polygon fill="#9a32cd" stroke="#9a32cd" points="3250.73,-1326.19 3240.26,-1327.85 3249.47,-1333.08 3250.73,-1326.19"/>
<text text-anchor="middle" x="3293" y="-1347" font-family="Helvetica,sans-Serif" font-size="10.00"> commonData</text>
</g>
<!-- Node73 -->
<g id="node73" class="node">
<title>Node73</title>
<g id="a_node73"><a xlink:title=" ">
<polygon fill="white" stroke="#bfbfbf" points="3127,-1261.5 3127,-1280.5 3209,-1280.5 3209,-1261.5 3127,-1261.5"/>
<text text-anchor="middle" x="3168" y="-1268.5" font-family="Helvetica,sans-Serif" font-size="10.00">VectorDouble</text>
</a>
</g>
</g>
<!-- Node73&#45;&gt;Node1 -->
<g id="edge89" class="edge">
<title>Node73&#45;&gt;Node1</title>
<path fill="none" stroke="#9a32cd" stroke-dasharray="5,2" d="M3215.4,-1283.16C3223.61,-1285.38 3232.07,-1287.72 3240,-1290 3279.32,-1301.29 3290.25,-1301.23 3328,-1317 3346.31,-1324.65 3365.97,-1335.25 3380.97,-1343.89"/>
<polygon fill="#9a32cd" stroke="#9a32cd" points="3216.12,-1279.73 3205.55,-1280.51 3214.3,-1286.49 3216.12,-1279.73"/>
<text text-anchor="middle" x="3293" y="-1320" font-family="Helvetica,sans-Serif" font-size="10.00"> locVec</text>
</g>
</g>
</svg>
        <g id="navigator" transform="translate(0 0)" fill="#404254">
                <rect fill="#f2f5e9" fill-opacity="0.5" stroke="#606060" stroke-width=".5" x="0" y="0" width="60" height="60"/>
                <use id="zoomplus" xlink:href="#zoomPlus" x="17" y="9" onmousedown="handleZoom(evt,'in')"/>
                <use id="zoomminus" xlink:href="#zoomMin" x="42" y="9" onmousedown="handleZoom(evt,'out')"/>
                <use id="reset" xlink:href="#resetDef" x="30" y="36" onmousedown="handleReset()"/>
                <g id="arrowUp" xlink:href="#dirArrow" transform="translate(30 24)" onmousedown="handlePan(0,-1)">
                  <use xlink:href="#rim" fill="#404040">
                        <set attributeName="fill" to="#808080" begin="arrowUp.mouseover" end="arrowUp.mouseout"/>
                  </use>
                  <path fill="none" stroke="white" stroke-width="1.5" d="M0,-3.0v7 M-2.5,-0.5L0,-3.0L2.5,-0.5"/>
                </g>
                <g id="arrowRight" xlink:href="#dirArrow" transform="rotate(90) translate(36 -43)" onmousedown="handlePan(1,0)">
                  <use xlink:href="#rim" fill="#404040">
                        <set attributeName="fill" to="#808080" begin="arrowRight.mouseover" end="arrowRight.mouseout"/>
                  </use>
                  <path fill="none" stroke="white" stroke-width="1.5" d="M0,-3.0v7 M-2.5,-0.5L0,-3.0L2.5,-0.5"/>
                </g>
                <g id="arrowDown" xlink:href="#dirArrow" transform="rotate(180) translate(-30 -48)" onmousedown="handlePan(0,1)">
                  <use xlink:href="#rim" fill="#404040">
                        <set attributeName="fill" to="#808080" begin="arrowDown.mouseover" end="arrowDown.mouseout"/>
                  </use>
                  <path fill="none" stroke="white" stroke-width="1.5" d="M0,-3.0v7 M-2.5,-0.5L0,-3.0L2.5,-0.5"/>
                </g>
                <g id="arrowLeft" xlink:href="#dirArrow" transform="rotate(270) translate(-36 17)" onmousedown="handlePan(-1,0)">
                  <use xlink:href="#rim" fill="#404040">
                        <set attributeName="fill" to="#808080" begin="arrowLeft.mouseover" end="arrowLeft.mouseout"/>
                  </use>
                  <path fill="none" stroke="white" stroke-width="1.5" d="M0,-3.0v7 M-2.5,-0.5L0,-3.0L2.5,-0.5"/>
                </g>
        </g>
        <svg viewBox="0 0 15 15" width="100%" height="30px" preserveAspectRatio="xMaxYMin meet">
         <g id="arrow_out" transform="scale(0.3 0.3)">
          <a xlink:href="structNavierStokesElement_1_1OpAssembleRhs__coll__graph_org.svg" target="_base">
           <rect id="button" ry="5" rx="5" y="6" x="6" height="38" width="38"
                fill="#f2f5e9" fill-opacity="0.5" stroke="#606060" stroke-width="1.0"/>
           <path id="arrow"
             d="M 11.500037,31.436501 C 11.940474,20.09759 22.043105,11.32322 32.158766,21.979434 L 37.068811,17.246167 C 37.068811,17.246167 37.088388,32 37.088388,32 L 22.160133,31.978069 C 22.160133,31.978069 26.997745,27.140456 26.997745,27.140456 C 18.528582,18.264221 13.291696,25.230495 11.500037,31.436501 z"
             style="fill:#404040;"/>
          </a>
         </g>
        </svg>
</svg>
