<?xml version="1.0" encoding="UTF-8" standalone="no"?>
<!DOCTYPE svg PUBLIC "-//W3C//DTD SVG 1.1//EN"
 "http://www.w3.org/Graphics/SVG/1.1/DTD/svg11.dtd">
<!-- Generated by graphviz version 2.43.0 (0)
 -->
<!-- Title: DirichletSpatialRemoveDofsBc Pages: 1 -->
<!--zoomable 1381 -->
<svg id="main" version="1.1" xmlns="http://www.w3.org/2000/svg" xmlns:xlink="http://www.w3.org/1999/xlink" xml:space="preserve" onload="init(evt)">
<style type="text/css"><![CDATA[
.edge:hover path { stroke: red; }
.edge:hover polygon { stroke: red; fill: red; }
]]></style>
<script type="text/javascript"><![CDATA[
var edges = document.getElementsByTagName('g');
if (edges && edges.length) {
  for (var i=0;i<edges.length;i++) {
    if (edges[i].id.substr(0,4)=='edge') {
      edges[i].setAttribute('class','edge');
    }
  }
}
]]></script>
        <defs>
                <circle id="rim" cx="0" cy="0" r="7"/>
                <circle id="rim2" cx="0" cy="0" r="3.5"/>
                <g id="zoomPlus">
                        <use xlink:href="#rim" fill="#404040">
                                <set attributeName="fill" to="#808080" begin="zoomplus.mouseover" end="zoomplus.mouseout"/>
                        </use>
                        <path d="M-4,0h8M0,-4v8" fill="none" stroke="white" stroke-width="1.5" pointer-events="none"/>
                </g>
                <g id="zoomMin">
                        <use xlink:href="#rim" fill="#404040">
                                <set attributeName="fill" to="#808080" begin="zoomminus.mouseover" end="zoomminus.mouseout"/>
                        </use>
                        <path d="M-4,0h8" fill="none" stroke="white" stroke-width="1.5" pointer-events="none"/>
                </g>
                <g id="dirArrow">
                        <path fill="none" stroke="white" stroke-width="1.5" d="M0,-3.0v7 M-2.5,-0.5L0,-3.0L2.5,-0.5"/>
                </g>
               <g id="resetDef">
                       <use xlink:href="#rim2" fill="#404040">
                               <set attributeName="fill" to="#808080" begin="reset.mouseover" end="reset.mouseout"/>
                       </use>
               </g>
        </defs>

<script type="text/javascript">
var viewWidth = 3022;
var viewHeight = 1381;
var sectionId = 'dynsection-1';
</script>
<script xlink:href="svgpan.js"/>
<svg id="graph" class="graph">
<g id="viewport">
<title>DirichletSpatialRemoveDofsBc</title>
<polygon fill="white" stroke="transparent" points="-4,4 -4,-1377.02 3018,-1377.02 3018,4 -4,4"/>
<!-- Node1 -->
<g id="node1" class="node">
<title>Node1</title>
<g id="a_node1"><a xlink:title="Set Dirichlet boundary conditions on spatial positions by removing dofs.">
<polygon fill="#bfbfbf" stroke="black" points="2847,-1248.52 2847,-1267.52 3014,-1267.52 3014,-1248.52 2847,-1248.52"/>
<text text-anchor="middle" x="2930.5" y="-1255.52" font-family="Helvetica,sans-Serif" font-size="10.00">DirichletSpatialRemoveDofsBc</text>
</a>
</g>
</g>
<!-- Node2 -->
<g id="node2" class="node">
<title>Node2</title>
<g id="a_node2"><a xlink:href="structDirichletDisplacementRemoveDofsBc.html" target="_top" xlink:title="Set Dirichlet boundary conditions on displacements by removing dofs.">
<polygon fill="white" stroke="black" points="2644,-1198.02 2644,-1228.02 2810,-1228.02 2810,-1198.02 2644,-1198.02"/>
<text text-anchor="start" x="2652" y="-1216.02" font-family="Helvetica,sans-Serif" font-size="10.00">DirichletDisplacementRemove</text>
<text text-anchor="middle" x="2727" y="-1205.02" font-family="Helvetica,sans-Serif" font-size="10.00">DofsBc</text>
</a>
</g>
</g>
<!-- Node2&#45;&gt;Node1 -->
<g id="edge1" class="edge">
<title>Node2&#45;&gt;Node1</title>
<path fill="none" stroke="midnightblue" d="M2805.43,-1230.31C2833.08,-1236.48 2863.2,-1243.21 2886.84,-1248.49"/>
<polygon fill="midnightblue" stroke="midnightblue" points="2805.9,-1226.83 2795.38,-1228.07 2804.37,-1233.66 2805.9,-1226.83"/>
</g>
<!-- Node3 -->
<g id="node3" class="node">
<title>Node3</title>
<g id="a_node3"><a xlink:href="structDirichletDisplacementBc.html" target="_top" xlink:title="Set Dirichlet boundary conditions on displacements.">
<polygon fill="white" stroke="black" points="2407,-987.52 2407,-1006.52 2544,-1006.52 2544,-987.52 2407,-987.52"/>
<text text-anchor="middle" x="2475.5" y="-994.52" font-family="Helvetica,sans-Serif" font-size="10.00">DirichletDisplacementBc</text>
</a>
</g>
</g>
<!-- Node3&#45;&gt;Node2 -->
<g id="edge2" class="edge">
<title>Node3&#45;&gt;Node2</title>
<path fill="none" stroke="midnightblue" d="M2495.39,-1013.37C2542.21,-1053.91 2663.14,-1158.59 2708.48,-1197.85"/>
<polygon fill="midnightblue" stroke="midnightblue" points="2497.39,-1010.48 2487.54,-1006.58 2492.81,-1015.77 2497.39,-1010.48"/>
</g>
<!-- Node4 -->
<g id="node4" class="node">
<title>Node4</title>
<g id="a_node4"><a xlink:href="structMoFEM_1_1FEMethod.html" target="_top" xlink:title="structure for User Loop Methods on finite elements">
<polygon fill="white" stroke="black" points="2166,-861.52 2166,-880.52 2273,-880.52 2273,-861.52 2166,-861.52"/>
<text text-anchor="middle" x="2219.5" y="-868.52" font-family="Helvetica,sans-Serif" font-size="10.00">MoFEM::FEMethod</text>
</a>
</g>
</g>
<!-- Node4&#45;&gt;Node3 -->
<g id="edge3" class="edge">
<title>Node4&#45;&gt;Node3</title>
<path fill="none" stroke="midnightblue" d="M2283.2,-882.18C2316.21,-889.85 2356.47,-902.14 2389,-921.02 2421.12,-939.66 2451.94,-971.62 2466.21,-987.49"/>
<polygon fill="midnightblue" stroke="midnightblue" points="2283.72,-878.71 2273.2,-879.95 2282.2,-885.54 2283.72,-878.71"/>
</g>
<!-- Node5 -->
<g id="node5" class="node">
<title>Node5</title>
<g id="a_node5"><a xlink:href="structMoFEM_1_1BasicMethod.html" target="_top" xlink:title="Data structure to exchange data between mofem and User Loop Methods.">
<polygon fill="white" stroke="black" points="1819.5,-456.52 1819.5,-475.52 1941.5,-475.52 1941.5,-456.52 1819.5,-456.52"/>
<text text-anchor="middle" x="1880.5" y="-463.52" font-family="Helvetica,sans-Serif" font-size="10.00">MoFEM::BasicMethod</text>
</a>
</g>
</g>
<!-- Node5&#45;&gt;Node4 -->
<g id="edge4" class="edge">
<title>Node5&#45;&gt;Node4</title>
<path fill="none" stroke="midnightblue" d="M1888.58,-485.25C1912.97,-548.64 1999.83,-752.59 2142,-852.02 2149.07,-856.96 2157.29,-860.62 2165.67,-863.33"/>
<polygon fill="midnightblue" stroke="midnightblue" points="1891.79,-483.83 1884.98,-475.71 1885.24,-486.3 1891.79,-483.83"/>
</g>
<!-- Node6 -->
<g id="node6" class="node">
<title>Node6</title>
<g id="a_node6"><a xlink:href="structMoFEM_1_1KspMethod.html" target="_top" xlink:title="data structure for ksp (linear solver) context">
<polygon fill="white" stroke="black" points="1442,-92.52 1442,-111.52 1555,-111.52 1555,-92.52 1442,-92.52"/>
<text text-anchor="middle" x="1498.5" y="-99.52" font-family="Helvetica,sans-Serif" font-size="10.00">MoFEM::KspMethod</text>
</a>
</g>
</g>
<!-- Node6&#45;&gt;Node5 -->
<g id="edge5" class="edge">
<title>Node6&#45;&gt;Node5</title>
<path fill="none" stroke="midnightblue" d="M1530.01,-116C1585.7,-142.74 1705.04,-205.85 1781,-288.02 1831.35,-342.48 1865.38,-427.37 1875.98,-456.12"/>
<polygon fill="midnightblue" stroke="midnightblue" points="1531.23,-112.7 1520.69,-111.58 1528.23,-119.03 1531.23,-112.7"/>
</g>
<!-- Node7 -->
<g id="node7" class="node">
<title>Node7</title>
<g id="a_node7"><a xlink:href="structMoFEM_1_1PetscData.html" target="_top" xlink:title=" ">
<polygon fill="white" stroke="black" points="1087.5,-261.52 1087.5,-280.52 1195.5,-280.52 1195.5,-261.52 1087.5,-261.52"/>
<text text-anchor="middle" x="1141.5" y="-268.52" font-family="Helvetica,sans-Serif" font-size="10.00">MoFEM::PetscData</text>
</a>
</g>
</g>
<!-- Node7&#45;&gt;Node6 -->
<g id="edge6" class="edge">
<title>Node7&#45;&gt;Node6</title>
<path fill="none" stroke="midnightblue" d="M1205.63,-267.41C1218.82,-264.45 1232.03,-259.66 1243,-252.02 1255.76,-243.13 1249.62,-232.62 1261,-222.02 1295.03,-190.32 1422.6,-133.93 1474.91,-111.55"/>
<polygon fill="midnightblue" stroke="midnightblue" points="1204.75,-264.01 1195.59,-269.33 1206.07,-270.89 1204.75,-264.01"/>
</g>
<!-- Node17 -->
<g id="node17" class="node">
<title>Node17</title>
<g id="a_node17"><a xlink:href="structMoFEM_1_1SnesMethod.html" target="_top" xlink:title="data structure for snes (nonlinear solver) context">
<polygon fill="white" stroke="black" points="1439,-418.52 1439,-437.52 1558,-437.52 1558,-418.52 1439,-418.52"/>
<text text-anchor="middle" x="1498.5" y="-425.52" font-family="Helvetica,sans-Serif" font-size="10.00">MoFEM::SnesMethod</text>
</a>
</g>
</g>
<!-- Node7&#45;&gt;Node17 -->
<g id="edge19" class="edge">
<title>Node7&#45;&gt;Node17</title>
<path fill="none" stroke="darkgreen" d="M1206.03,-266.82C1272.29,-263.9 1370.18,-264.22 1397,-289.02 1436.6,-325.63 1378.37,-369.44 1415,-409.02 1421.39,-415.92 1429.74,-420.56 1438.67,-423.64"/>
<polygon fill="darkgreen" stroke="darkgreen" points="1205.51,-263.34 1195.68,-267.31 1205.84,-270.33 1205.51,-263.34"/>
</g>
<!-- Node20 -->
<g id="node20" class="node">
<title>Node20</title>
<g id="a_node20"><a xlink:href="structMoFEM_1_1TSMethod.html" target="_top" xlink:title="data structure for TS (time stepping) context">
<polygon fill="white" stroke="black" points="1445,-504.52 1445,-523.52 1552,-523.52 1552,-504.52 1445,-504.52"/>
<text text-anchor="middle" x="1498.5" y="-511.52" font-family="Helvetica,sans-Serif" font-size="10.00">MoFEM::TSMethod</text>
</a>
</g>
</g>
<!-- Node7&#45;&gt;Node20 -->
<g id="edge25" class="edge">
<title>Node7&#45;&gt;Node20</title>
<path fill="none" stroke="darkgreen" d="M1205.63,-274.63C1218.82,-277.58 1232.03,-282.37 1243,-290.02 1255.76,-298.91 1248.32,-311.03 1261,-320.02 1311.34,-355.71 1354.97,-302.83 1397,-348.02 1438.82,-392.99 1376.3,-437.33 1415,-485.02 1422.65,-494.45 1433.58,-500.82 1444.99,-505.12"/>
<polygon fill="darkgreen" stroke="darkgreen" points="1206.07,-271.15 1195.59,-272.71 1204.75,-278.02 1206.07,-271.15"/>
</g>
<!-- Node8 -->
<g id="node8" class="node">
<title>Node8</title>
<g id="a_node8"><a xlink:href="structMoFEM_1_1UnknownInterface.html" target="_top" xlink:title="base class for all interface classes">
<polygon fill="white" stroke="black" points="735,-1215.52 735,-1234.52 883,-1234.52 883,-1215.52 735,-1215.52"/>
<text text-anchor="middle" x="809" y="-1222.52" font-family="Helvetica,sans-Serif" font-size="10.00">MoFEM::UnknownInterface</text>
</a>
</g>
</g>
<!-- Node8&#45;&gt;Node7 -->
<g id="edge7" class="edge">
<title>Node8&#45;&gt;Node7</title>
<path fill="none" stroke="midnightblue" d="M814.96,-1205.57C838.63,-1112.65 942.21,-704.66 1022,-369.02 1030.33,-333.98 1014.07,-315 1040,-290.02 1052.6,-277.88 1070.38,-272.27 1087.49,-269.96"/>
<polygon fill="midnightblue" stroke="midnightblue" points="811.56,-1204.76 812.48,-1215.31 818.34,-1206.48 811.56,-1204.76"/>
</g>
<!-- Node49 -->
<g id="node49" class="node">
<title>Node49</title>
<g id="a_node49"><a xlink:href="structMoFEM_1_1CoreInterface.html" target="_top" xlink:title="Interface.">
<polygon fill="white" stroke="black" points="1079,-1237.52 1079,-1256.52 1204,-1256.52 1204,-1237.52 1079,-1237.52"/>
<text text-anchor="middle" x="1141.5" y="-1244.52" font-family="Helvetica,sans-Serif" font-size="10.00">MoFEM::CoreInterface</text>
</a>
</g>
</g>
<!-- Node8&#45;&gt;Node49 -->
<g id="edge59" class="edge">
<title>Node8&#45;&gt;Node49</title>
<path fill="none" stroke="midnightblue" d="M893.54,-1230.58C951.26,-1234.42 1026.75,-1239.45 1079,-1242.92"/>
<polygon fill="midnightblue" stroke="midnightblue" points="893.56,-1227.07 883.35,-1229.9 893.09,-1234.06 893.56,-1227.07"/>
</g>
<!-- Node9 -->
<g id="node9" class="node">
<title>Node9</title>
<g id="a_node9"><a xlink:title=" ">
<polygon fill="white" stroke="#bfbfbf" points="386,-1193.52 386,-1256.52 627,-1256.52 627,-1193.52 386,-1193.52"/>
<text text-anchor="start" x="394" y="-1244.52" font-family="Helvetica,sans-Serif" font-size="10.00">multi_index_container</text>
<text text-anchor="start" x="394" y="-1233.52" font-family="Helvetica,sans-Serif" font-size="10.00">&lt; UIdTypeMap, indexed</text>
<text text-anchor="start" x="394" y="-1222.52" font-family="Helvetica,sans-Serif" font-size="10.00">_by&lt; hashed_unique&lt; member</text>
<text text-anchor="start" x="394" y="-1211.52" font-family="Helvetica,sans-Serif" font-size="10.00">&lt; UIdTypeMap, boost::typeindex</text>
<text text-anchor="middle" x="506.5" y="-1200.52" font-family="Helvetica,sans-Serif" font-size="10.00">::type_index, &amp;UIdTypeMap::classIdx &gt; &gt; &gt; &gt;</text>
</a>
</g>
</g>
<!-- Node9&#45;&gt;Node8 -->
<g id="edge8" class="edge">
<title>Node9&#45;&gt;Node8</title>
<path fill="none" stroke="#9a32cd" stroke-dasharray="5,2" d="M637.41,-1225.02C670.69,-1225.02 705.33,-1225.02 734.62,-1225.02"/>
<polygon fill="#9a32cd" stroke="#9a32cd" points="637.13,-1221.52 627.13,-1225.02 637.13,-1228.52 637.13,-1221.52"/>
<text text-anchor="middle" x="681" y="-1228.02" font-family="Helvetica,sans-Serif" font-size="10.00"> iFaceTypeMap</text>
</g>
<!-- Node10 -->
<g id="node10" class="node">
<title>Node10</title>
<g id="a_node10"><a xlink:title=" ">
<polygon fill="white" stroke="#bfbfbf" points="0,-1245.52 0,-1264.52 125,-1264.52 125,-1245.52 0,-1245.52"/>
<text text-anchor="middle" x="62.5" y="-1252.52" font-family="Helvetica,sans-Serif" font-size="10.00">multi_index_container</text>
</a>
</g>
</g>
<!-- Node10&#45;&gt;Node5 -->
<g id="edge32" class="edge">
<title>Node10&#45;&gt;Node5</title>
<path fill="none" stroke="#9a32cd" stroke-dasharray="5,2" d="M114.58,-1266.55C123.99,-1268.32 133.76,-1269.92 143,-1271.02 303.1,-1290.1 344.27,-1285.02 505.5,-1285.02 505.5,-1285.02 505.5,-1285.02 1499.5,-1285.02 1715.8,-1285.02 1692.2,-1085.25 1781,-888.02 1789.98,-868.08 1863.89,-536.28 1877.39,-475.53"/>
<polygon fill="#9a32cd" stroke="#9a32cd" points="115.05,-1263.08 104.56,-1264.58 113.7,-1269.94 115.05,-1263.08"/>
<text text-anchor="middle" x="961.5" y="-1365.02" font-family="Helvetica,sans-Serif" font-size="10.00"> adjacenciesPtr</text>
<text text-anchor="middle" x="961.5" y="-1354.02" font-family="Helvetica,sans-Serif" font-size="10.00">refinedEntitiesPtr</text>
<text text-anchor="middle" x="961.5" y="-1343.02" font-family="Helvetica,sans-Serif" font-size="10.00">finiteElementsEntitiesPtr</text>
<text text-anchor="middle" x="961.5" y="-1332.02" font-family="Helvetica,sans-Serif" font-size="10.00">dofsPtr</text>
<text text-anchor="middle" x="961.5" y="-1321.02" font-family="Helvetica,sans-Serif" font-size="10.00">entitiesPtr</text>
<text text-anchor="middle" x="961.5" y="-1310.02" font-family="Helvetica,sans-Serif" font-size="10.00">finiteElementsPtr</text>
<text text-anchor="middle" x="961.5" y="-1299.02" font-family="Helvetica,sans-Serif" font-size="10.00">refinedFiniteElementsPtr</text>
<text text-anchor="middle" x="961.5" y="-1288.02" font-family="Helvetica,sans-Serif" font-size="10.00">fieldsPtr</text>
</g>
<!-- Node10&#45;&gt;Node9 -->
<g id="edge9" class="edge">
<title>Node10&#45;&gt;Node9</title>
<path fill="none" stroke="orange" stroke-dasharray="5,2" d="M94.05,-1241.57C108.58,-1235.88 126.37,-1229.91 143,-1227.02 223.14,-1213.09 314.76,-1212.72 385.84,-1215.76"/>
<polygon fill="orange" stroke="orange" points="92.52,-1238.42 84.58,-1245.42 95.16,-1244.9 92.52,-1238.42"/>
<text text-anchor="start" x="143" y="-1263.02" font-family="Helvetica,sans-Serif" font-size="10.00"> &lt; UIdTypeMap, indexed</text>
<text text-anchor="start" x="143" y="-1252.02" font-family="Helvetica,sans-Serif" font-size="10.00">_by&lt; hashed_unique&lt; member</text>
<text text-anchor="start" x="143" y="-1241.02" font-family="Helvetica,sans-Serif" font-size="10.00">&lt; UIdTypeMap, boost::typeindex</text>
<text text-anchor="middle" x="255.5" y="-1230.02" font-family="Helvetica,sans-Serif" font-size="10.00">::type_index, &amp;UIdTypeMap::classIdx &gt; &gt; &gt; &gt;</text>
</g>
<!-- Node11 -->
<g id="node11" class="node">
<title>Node11</title>
<g id="a_node11"><a xlink:title=" ">
<polygon fill="white" stroke="#bfbfbf" points="738.5,-138.52 738.5,-157.52 879.5,-157.52 879.5,-138.52 738.5,-138.52"/>
<text text-anchor="middle" x="809" y="-145.52" font-family="Helvetica,sans-Serif" font-size="10.00">static constexpr Switches</text>
</a>
</g>
</g>
<!-- Node11&#45;&gt;Node7 -->
<g id="edge10" class="edge">
<title>Node11&#45;&gt;Node7</title>
<path fill="none" stroke="#9a32cd" stroke-dasharray="5,2" d="M889.75,-141.85C933.89,-142.82 986.77,-151.84 1022,-184.02 1045.08,-205.1 1017.11,-230.72 1040,-252.02 1052.74,-263.87 1070.45,-269.44 1087.47,-271.79"/>
<polygon fill="#9a32cd" stroke="#9a32cd" points="889.64,-138.35 879.61,-141.77 889.58,-145.35 889.64,-138.35"/>
<text text-anchor="middle" x="961.5" y="-264.02" font-family="Helvetica,sans-Serif" font-size="10.00"> CtxSetX_TT</text>
<text text-anchor="middle" x="961.5" y="-253.02" font-family="Helvetica,sans-Serif" font-size="10.00">CtxSetX_T</text>
<text text-anchor="middle" x="961.5" y="-242.02" font-family="Helvetica,sans-Serif" font-size="10.00">CtxSetA</text>
<text text-anchor="middle" x="961.5" y="-231.02" font-family="Helvetica,sans-Serif" font-size="10.00">CtxSetB</text>
<text text-anchor="middle" x="961.5" y="-220.02" font-family="Helvetica,sans-Serif" font-size="10.00">CtxSetTime</text>
<text text-anchor="middle" x="961.5" y="-209.02" font-family="Helvetica,sans-Serif" font-size="10.00">CtxSetNone</text>
<text text-anchor="middle" x="961.5" y="-198.02" font-family="Helvetica,sans-Serif" font-size="10.00">CtxSetF</text>
<text text-anchor="middle" x="961.5" y="-187.02" font-family="Helvetica,sans-Serif" font-size="10.00">CtxSetX</text>
</g>
<!-- Node12 -->
<g id="node12" class="node">
<title>Node12</title>
<g id="a_node12"><a xlink:title=" ">
<polygon fill="white" stroke="#bfbfbf" points="791.5,-369.52 791.5,-388.52 826.5,-388.52 826.5,-369.52 791.5,-369.52"/>
<text text-anchor="middle" x="809" y="-376.52" font-family="Helvetica,sans-Serif" font-size="10.00">Mat</text>
</a>
</g>
</g>
<!-- Node12&#45;&gt;Node6 -->
<g id="edge16" class="edge">
<title>Node12&#45;&gt;Node6</title>
<path fill="none" stroke="#9a32cd" stroke-dasharray="5,2" d="M828.2,-362.45C843.79,-347.73 866.31,-325.17 883,-303.02 892.59,-290.29 888.44,-281.83 901,-272.02 945.12,-237.56 984.44,-278.53 1022,-237.02 1051.71,-204.18 1007.11,-168.67 1040,-139.02 1069.55,-112.37 1357.35,-114.35 1397,-111.02 1411.58,-109.79 1427.34,-108.41 1441.96,-107.1"/>
<polygon fill="#9a32cd" stroke="#9a32cd" points="825.68,-360.02 820.74,-369.4 830.45,-365.14 825.68,-360.02"/>
<text text-anchor="middle" x="1141.5" y="-153.02" font-family="Helvetica,sans-Serif" font-size="10.00"> ksp_A</text>
<text text-anchor="middle" x="1141.5" y="-142.02" font-family="Helvetica,sans-Serif" font-size="10.00">ksp_B</text>
</g>
<!-- Node12&#45;&gt;Node7 -->
<g id="edge11" class="edge">
<title>Node12&#45;&gt;Node7</title>
<path fill="none" stroke="#9a32cd" stroke-dasharray="5,2" d="M836.39,-368.49C892.36,-346.22 1019.55,-295.85 1040,-290.02 1055.2,-285.68 1071.97,-282.06 1087.4,-279.19"/>
<polygon fill="#9a32cd" stroke="#9a32cd" points="834.8,-365.36 826.81,-372.31 837.39,-371.86 834.8,-365.36"/>
<text text-anchor="middle" x="961.5" y="-357.02" font-family="Helvetica,sans-Serif" font-size="10.00"> A</text>
<text text-anchor="middle" x="961.5" y="-346.02" font-family="Helvetica,sans-Serif" font-size="10.00">B</text>
</g>
<!-- Node12&#45;&gt;Node17 -->
<g id="edge21" class="edge">
<title>Node12&#45;&gt;Node17</title>
<path fill="none" stroke="#9a32cd" stroke-dasharray="5,2" d="M836.88,-382.26C879.77,-387.33 966.37,-397.17 1040,-403.02 1183.13,-414.39 1351.86,-422.15 1438.94,-425.74"/>
<polygon fill="#9a32cd" stroke="#9a32cd" points="837.06,-378.75 826.71,-381.05 836.23,-385.71 837.06,-378.75"/>
<text text-anchor="middle" x="1141.5" y="-431.02" font-family="Helvetica,sans-Serif" font-size="10.00"> snes_A</text>
<text text-anchor="middle" x="1141.5" y="-420.02" font-family="Helvetica,sans-Serif" font-size="10.00">snes_B</text>
</g>
<!-- Node12&#45;&gt;Node20 -->
<g id="edge26" class="edge">
<title>Node12&#45;&gt;Node20</title>
<path fill="none" stroke="#9a32cd" stroke-dasharray="5,2" d="M823.07,-396.56C854.83,-437.59 940.78,-539.41 1040,-580.02 1113.47,-610.09 1321.98,-618.97 1397,-593.02 1437.27,-579.09 1473.67,-541.61 1489.35,-523.75"/>
<polygon fill="#9a32cd" stroke="#9a32cd" points="825.82,-394.39 816.97,-388.56 820.25,-398.63 825.82,-394.39"/>
<text text-anchor="middle" x="1141.5" y="-623.02" font-family="Helvetica,sans-Serif" font-size="10.00"> ts_A</text>
<text text-anchor="middle" x="1141.5" y="-612.02" font-family="Helvetica,sans-Serif" font-size="10.00">ts_B</text>
</g>
<!-- Node13 -->
<g id="node13" class="node">
<title>Node13</title>
<g id="a_node13"><a xlink:title=" ">
<polygon fill="white" stroke="#bfbfbf" points="772.5,-274.52 772.5,-293.52 845.5,-293.52 845.5,-274.52 772.5,-274.52"/>
<text text-anchor="middle" x="809" y="-281.52" font-family="Helvetica,sans-Serif" font-size="10.00">bitset&lt; 8 &gt;</text>
</a>
</g>
</g>
<!-- Node13&#45;&gt;Node7 -->
<g id="edge12" class="edge">
<title>Node13&#45;&gt;Node7</title>
<path fill="none" stroke="#9a32cd" stroke-dasharray="5,2" d="M855.72,-282.22C916.35,-279.83 1023.14,-275.63 1087.3,-273.11"/>
<polygon fill="#9a32cd" stroke="#9a32cd" points="855.54,-278.72 845.68,-282.61 855.81,-285.72 855.54,-278.72"/>
<text text-anchor="middle" x="961.5" y="-284.02" font-family="Helvetica,sans-Serif" font-size="10.00"> data_ctx</text>
</g>
<!-- Node14 -->
<g id="node14" class="node">
<title>Node14</title>
<g id="a_node14"><a xlink:title=" ">
<polygon fill="white" stroke="#bfbfbf" points="792,-55.52 792,-74.52 826,-74.52 826,-55.52 792,-55.52"/>
<text text-anchor="middle" x="809" y="-62.52" font-family="Helvetica,sans-Serif" font-size="10.00">Vec</text>
</a>
</g>
</g>
<!-- Node14&#45;&gt;Node6 -->
<g id="edge17" class="edge">
<title>Node14&#45;&gt;Node6</title>
<path fill="none" stroke="#9a32cd" stroke-dasharray="5,2" d="M835.72,-54.99C853.76,-48.27 878.57,-39.65 901,-34.02 1048.75,3.1 1091.77,7.36 1243,-11.02 1312.98,-19.52 1331.11,-23.95 1397,-49.02 1428.53,-61.01 1462.78,-80.63 1482.05,-92.34"/>
<polygon fill="#9a32cd" stroke="#9a32cd" points="834.31,-51.78 826.2,-58.6 836.79,-58.33 834.31,-51.78"/>
<text text-anchor="middle" x="1141.5" y="-14.02" font-family="Helvetica,sans-Serif" font-size="10.00"> ksp_f</text>
</g>
<!-- Node14&#45;&gt;Node7 -->
<g id="edge13" class="edge">
<title>Node14&#45;&gt;Node7</title>
<path fill="none" stroke="#9a32cd" stroke-dasharray="5,2" d="M836.29,-64.9C887.27,-65.25 996.75,-69.09 1022,-95.02 1071,-145.33 992.17,-200.58 1040,-252.02 1052.09,-265.02 1070.07,-270.77 1087.49,-272.94"/>
<polygon fill="#9a32cd" stroke="#9a32cd" points="836.08,-61.39 826.07,-64.87 836.06,-68.39 836.08,-61.39"/>
<text text-anchor="middle" x="961.5" y="-131.02" font-family="Helvetica,sans-Serif" font-size="10.00"> f</text>
<text text-anchor="middle" x="961.5" y="-120.02" font-family="Helvetica,sans-Serif" font-size="10.00">x</text>
<text text-anchor="middle" x="961.5" y="-109.02" font-family="Helvetica,sans-Serif" font-size="10.00">x_t</text>
<text text-anchor="middle" x="961.5" y="-98.02" font-family="Helvetica,sans-Serif" font-size="10.00">x_tt</text>
</g>
<!-- Node14&#45;&gt;Node17 -->
<g id="edge22" class="edge">
<title>Node14&#45;&gt;Node17</title>
<path fill="none" stroke="#9a32cd" stroke-dasharray="5,2" d="M835.71,-55.46C879.46,-41.04 968.81,-19.79 1022,-64.02 1055.71,-92.05 1008.15,-130.88 1040,-161.02 1098.1,-215.99 1341.56,-149.36 1397,-207.02 1428.24,-239.5 1385.4,-375.04 1415,-409.02 1421.28,-416.22 1429.68,-420.99 1438.73,-424.1"/>
<polygon fill="#9a32cd" stroke="#9a32cd" points="834.43,-52.2 826.11,-58.76 836.71,-58.82 834.43,-52.2"/>
<text text-anchor="middle" x="1141.5" y="-199.02" font-family="Helvetica,sans-Serif" font-size="10.00"> snes_x</text>
<text text-anchor="middle" x="1141.5" y="-188.02" font-family="Helvetica,sans-Serif" font-size="10.00">snes_f</text>
</g>
<!-- Node14&#45;&gt;Node20 -->
<g id="edge30" class="edge">
<title>Node14&#45;&gt;Node20</title>
<path fill="none" stroke="#9a32cd" stroke-dasharray="5,2" d="M834.81,-79.54C851.51,-90.78 872.35,-107.95 883,-129.02 904.32,-171.22 866.84,-308.33 901,-341.02 928.47,-367.32 1207.2,-342.19 1243,-355.02 1333.21,-387.34 1330.57,-439.7 1415,-485.02 1429.98,-493.06 1447.65,-499.62 1462.78,-504.45"/>
<polygon fill="#9a32cd" stroke="#9a32cd" points="836.35,-76.38 826.05,-73.93 832.57,-82.27 836.35,-76.38"/>
<text text-anchor="middle" x="1141.5" y="-391.02" font-family="Helvetica,sans-Serif" font-size="10.00"> ts_u</text>
<text text-anchor="middle" x="1141.5" y="-380.02" font-family="Helvetica,sans-Serif" font-size="10.00">ts_F</text>
<text text-anchor="middle" x="1141.5" y="-369.02" font-family="Helvetica,sans-Serif" font-size="10.00">ts_u_t</text>
<text text-anchor="middle" x="1141.5" y="-358.02" font-family="Helvetica,sans-Serif" font-size="10.00">ts_u_tt</text>
</g>
<!-- Node15 -->
<g id="node15" class="node">
<title>Node15</title>
<g id="a_node15"><a xlink:title=" ">
<polygon fill="white" stroke="#bfbfbf" points="1124,-69.52 1124,-88.52 1159,-88.52 1159,-69.52 1124,-69.52"/>
<text text-anchor="middle" x="1141.5" y="-76.52" font-family="Helvetica,sans-Serif" font-size="10.00">KSP</text>
</a>
</g>
</g>
<!-- Node15&#45;&gt;Node6 -->
<g id="edge14" class="edge">
<title>Node15&#45;&gt;Node6</title>
<path fill="none" stroke="#9a32cd" stroke-dasharray="5,2" d="M1169.29,-80.75C1227.06,-84.5 1364.41,-93.4 1441.88,-98.41"/>
<polygon fill="#9a32cd" stroke="#9a32cd" points="1169.35,-77.25 1159.15,-80.1 1168.9,-84.24 1169.35,-77.25"/>
<text text-anchor="middle" x="1329" y="-99.02" font-family="Helvetica,sans-Serif" font-size="10.00"> ksp</text>
</g>
<!-- Node16 -->
<g id="node16" class="node">
<title>Node16</title>
<g id="a_node16"><a xlink:title=" ">
<polygon fill="white" stroke="#bfbfbf" points="1104.5,-31.52 1104.5,-50.52 1178.5,-50.52 1178.5,-31.52 1104.5,-31.52"/>
<text text-anchor="middle" x="1141.5" y="-38.52" font-family="Helvetica,sans-Serif" font-size="10.00">KSPContext</text>
</a>
</g>
</g>
<!-- Node16&#45;&gt;Node6 -->
<g id="edge15" class="edge">
<title>Node16&#45;&gt;Node6</title>
<path fill="none" stroke="#9a32cd" stroke-dasharray="5,2" d="M1188.71,-44.65C1239.98,-49.18 1324.98,-58.19 1397,-73.02 1421.55,-78.07 1448.83,-86.1 1468.77,-92.43"/>
<polygon fill="#9a32cd" stroke="#9a32cd" points="1188.88,-41.15 1178.61,-43.77 1188.28,-48.12 1188.88,-41.15"/>
<text text-anchor="middle" x="1329" y="-76.02" font-family="Helvetica,sans-Serif" font-size="10.00"> ksp_ctx</text>
</g>
<!-- Node17&#45;&gt;Node5 -->
<g id="edge18" class="edge">
<title>Node17&#45;&gt;Node5</title>
<path fill="none" stroke="midnightblue" d="M1568.32,-434.9C1639.96,-442.06 1751.06,-453.17 1819.32,-460"/>
<polygon fill="midnightblue" stroke="midnightblue" points="1568.34,-431.38 1558.04,-433.87 1567.64,-438.35 1568.34,-431.38"/>
</g>
<!-- Node18 -->
<g id="node18" class="node">
<title>Node18</title>
<g id="a_node18"><a xlink:title=" ">
<polygon fill="white" stroke="#bfbfbf" points="1120.5,-223.52 1120.5,-242.52 1162.5,-242.52 1162.5,-223.52 1120.5,-223.52"/>
<text text-anchor="middle" x="1141.5" y="-230.52" font-family="Helvetica,sans-Serif" font-size="10.00">SNES</text>
</a>
</g>
</g>
<!-- Node18&#45;&gt;Node17 -->
<g id="edge20" class="edge">
<title>Node18&#45;&gt;Node17</title>
<path fill="none" stroke="#9a32cd" stroke-dasharray="5,2" d="M1172.54,-224.35C1225.66,-211.05 1336.28,-192.84 1397,-251.02 1448.03,-299.91 1367.92,-356.3 1415,-409.02 1421.36,-416.14 1429.81,-420.88 1438.88,-423.97"/>
<polygon fill="#9a32cd" stroke="#9a32cd" points="1171.5,-221 1162.71,-226.92 1173.27,-227.77 1171.5,-221"/>
<text text-anchor="middle" x="1329" y="-254.02" font-family="Helvetica,sans-Serif" font-size="10.00"> snes</text>
</g>
<!-- Node19 -->
<g id="node19" class="node">
<title>Node19</title>
<g id="a_node19"><a xlink:title=" ">
<polygon fill="white" stroke="#bfbfbf" points="1101.5,-299.52 1101.5,-318.52 1181.5,-318.52 1181.5,-299.52 1101.5,-299.52"/>
<text text-anchor="middle" x="1141.5" y="-306.52" font-family="Helvetica,sans-Serif" font-size="10.00">SNESContext</text>
</a>
</g>
</g>
<!-- Node19&#45;&gt;Node17 -->
<g id="edge23" class="edge">
<title>Node19&#45;&gt;Node17</title>
<path fill="none" stroke="#9a32cd" stroke-dasharray="5,2" d="M1192.06,-298.49C1248.68,-289.57 1340.74,-285.02 1397,-334.02 1422.85,-356.53 1390.65,-384.89 1415,-409.02 1421.58,-415.54 1429.91,-420 1438.75,-423.02"/>
<polygon fill="#9a32cd" stroke="#9a32cd" points="1191.2,-295.09 1181.92,-300.19 1192.36,-301.99 1191.2,-295.09"/>
<text text-anchor="middle" x="1329" y="-337.02" font-family="Helvetica,sans-Serif" font-size="10.00"> snes_ctx</text>
</g>
<!-- Node20&#45;&gt;Node5 -->
<g id="edge24" class="edge">
<title>Node20&#45;&gt;Node5</title>
<path fill="none" stroke="midnightblue" d="M1562.19,-515.93C1619.64,-516.5 1706.79,-514.37 1781,-500.02 1808.18,-494.76 1838.05,-483.64 1857.69,-475.55"/>
<polygon fill="midnightblue" stroke="midnightblue" points="1562.22,-512.43 1552.17,-515.8 1562.12,-519.43 1562.22,-512.43"/>
</g>
<!-- Node21 -->
<g id="node21" class="node">
<title>Node21</title>
<g id="a_node21"><a xlink:title=" ">
<polygon fill="white" stroke="#bfbfbf" points="1109,-551.52 1109,-570.52 1174,-570.52 1174,-551.52 1109,-551.52"/>
<text text-anchor="middle" x="1141.5" y="-558.52" font-family="Helvetica,sans-Serif" font-size="10.00">PetscReal</text>
</a>
</g>
</g>
<!-- Node21&#45;&gt;Node20 -->
<g id="edge27" class="edge">
<title>Node21&#45;&gt;Node20</title>
<path fill="none" stroke="#9a32cd" stroke-dasharray="5,2" d="M1184.25,-555.49C1249.06,-546.91 1373.78,-530.4 1444.73,-521"/>
<polygon fill="#9a32cd" stroke="#9a32cd" points="1183.46,-552.06 1174,-556.85 1184.38,-559 1183.46,-552.06"/>
<text text-anchor="middle" x="1329" y="-581.02" font-family="Helvetica,sans-Serif" font-size="10.00"> ts_a</text>
<text text-anchor="middle" x="1329" y="-570.02" font-family="Helvetica,sans-Serif" font-size="10.00">ts_t</text>
<text text-anchor="middle" x="1329" y="-559.02" font-family="Helvetica,sans-Serif" font-size="10.00">ts_dt</text>
<text text-anchor="middle" x="1329" y="-548.02" font-family="Helvetica,sans-Serif" font-size="10.00">ts_aa</text>
</g>
<!-- Node22 -->
<g id="node22" class="node">
<title>Node22</title>
<g id="a_node22"><a xlink:title=" ">
<polygon fill="white" stroke="#bfbfbf" points="1108,-513.52 1108,-532.52 1175,-532.52 1175,-513.52 1108,-513.52"/>
<text text-anchor="middle" x="1141.5" y="-520.52" font-family="Helvetica,sans-Serif" font-size="10.00">TSContext</text>
</a>
</g>
</g>
<!-- Node22&#45;&gt;Node20 -->
<g id="edge28" class="edge">
<title>Node22&#45;&gt;Node20</title>
<path fill="none" stroke="#9a32cd" stroke-dasharray="5,2" d="M1185.4,-519.47C1207.9,-517.77 1235.92,-515.92 1261,-515.02 1324.19,-512.75 1396.94,-512.85 1444.88,-513.29"/>
<polygon fill="#9a32cd" stroke="#9a32cd" points="1184.87,-516 1175.16,-520.26 1185.4,-522.98 1184.87,-516"/>
<text text-anchor="middle" x="1329" y="-518.02" font-family="Helvetica,sans-Serif" font-size="10.00"> ts_ctx</text>
</g>
<!-- Node23 -->
<g id="node23" class="node">
<title>Node23</title>
<g id="a_node23"><a xlink:title=" ">
<polygon fill="white" stroke="#bfbfbf" points="1113.5,-475.52 1113.5,-494.52 1169.5,-494.52 1169.5,-475.52 1113.5,-475.52"/>
<text text-anchor="middle" x="1141.5" y="-482.52" font-family="Helvetica,sans-Serif" font-size="10.00">PetscInt</text>
</a>
</g>
</g>
<!-- Node23&#45;&gt;Node20 -->
<g id="edge29" class="edge">
<title>Node23&#45;&gt;Node20</title>
<path fill="none" stroke="#9a32cd" stroke-dasharray="5,2" d="M1179.95,-485.99C1229.65,-487.52 1320.1,-491.18 1397,-499.02 1412.62,-500.61 1429.53,-502.91 1444.94,-505.23"/>
<polygon fill="#9a32cd" stroke="#9a32cd" points="1179.78,-482.48 1169.68,-485.68 1179.58,-489.48 1179.78,-482.48"/>
<text text-anchor="middle" x="1329" y="-502.02" font-family="Helvetica,sans-Serif" font-size="10.00"> ts_step</text>
</g>
<!-- Node24 -->
<g id="node24" class="node">
<title>Node24</title>
<g id="a_node24"><a xlink:title=" ">
<polygon fill="white" stroke="#bfbfbf" points="1127,-647.52 1127,-666.52 1156,-666.52 1156,-647.52 1127,-647.52"/>
<text text-anchor="middle" x="1141.5" y="-654.52" font-family="Helvetica,sans-Serif" font-size="10.00">TS</text>
</a>
</g>
</g>
<!-- Node24&#45;&gt;Node20 -->
<g id="edge31" class="edge">
<title>Node24&#45;&gt;Node20</title>
<path fill="none" stroke="#9a32cd" stroke-dasharray="5,2" d="M1166.51,-653.76C1227.95,-645.37 1386.77,-623.31 1397,-618.02 1441.38,-595.07 1477.49,-544.95 1491.37,-523.78"/>
<polygon fill="#9a32cd" stroke="#9a32cd" points="1165.67,-650.34 1156.23,-655.16 1166.61,-657.28 1165.67,-650.34"/>
<text text-anchor="middle" x="1329" y="-643.02" font-family="Helvetica,sans-Serif" font-size="10.00"> ts</text>
</g>
<!-- Node25 -->
<g id="node25" class="node">
<title>Node25</title>
<g id="a_node25"><a xlink:title=" ">
<polygon fill="white" stroke="#bfbfbf" points="1454,-380.52 1454,-399.52 1543,-399.52 1543,-380.52 1454,-380.52"/>
<text text-anchor="middle" x="1498.5" y="-387.52" font-family="Helvetica,sans-Serif" font-size="10.00">pair&lt; int, int &gt;</text>
</a>
</g>
</g>
<!-- Node25&#45;&gt;Node5 -->
<g id="edge33" class="edge">
<title>Node25&#45;&gt;Node5</title>
<path fill="none" stroke="#9a32cd" stroke-dasharray="5,2" d="M1553.42,-392.01C1610.72,-395.17 1703.56,-403.28 1781,-424.02 1810.09,-431.81 1841.81,-446.56 1861.18,-456.34"/>
<polygon fill="#9a32cd" stroke="#9a32cd" points="1553.31,-388.5 1543.14,-391.48 1552.95,-395.49 1553.31,-388.5"/>
<text text-anchor="middle" x="1690.5" y="-427.02" font-family="Helvetica,sans-Serif" font-size="10.00"> loHiFERank</text>
</g>
<!-- Node26 -->
<g id="node26" class="node">
<title>Node26</title>
<g id="a_node26"><a xlink:title=" ">
<polygon fill="white" stroke="#bfbfbf" points="1428.5,-342.52 1428.5,-361.52 1568.5,-361.52 1568.5,-342.52 1428.5,-342.52"/>
<text text-anchor="middle" x="1498.5" y="-349.52" font-family="Helvetica,sans-Serif" font-size="10.00">weak_ptr&lt; CacheTuple &gt;</text>
</a>
</g>
</g>
<!-- Node26&#45;&gt;Node5 -->
<g id="edge34" class="edge">
<title>Node26&#45;&gt;Node5</title>
<path fill="none" stroke="#9a32cd" stroke-dasharray="5,2" d="M1578.88,-347.71C1637.1,-347.46 1716.85,-353.34 1781,-381.02 1821.03,-398.29 1856.69,-437.83 1871.81,-456.25"/>
<polygon fill="#9a32cd" stroke="#9a32cd" points="1578.6,-344.21 1568.64,-347.82 1578.67,-351.21 1578.6,-344.21"/>
<text text-anchor="middle" x="1690.5" y="-384.02" font-family="Helvetica,sans-Serif" font-size="10.00"> cacheWeakPtr</text>
</g>
<!-- Node27 -->
<g id="node27" class="node">
<title>Node27</title>
<g id="a_node27"><a xlink:title=" ">
<polygon fill="white" stroke="#bfbfbf" points="1442.5,-299.52 1442.5,-318.52 1554.5,-318.52 1554.5,-299.52 1442.5,-299.52"/>
<text text-anchor="middle" x="1498.5" y="-306.52" font-family="Helvetica,sans-Serif" font-size="10.00">unique_ptr&lt; bool &gt;</text>
</a>
</g>
</g>
<!-- Node27&#45;&gt;Node5 -->
<g id="edge35" class="edge">
<title>Node27&#45;&gt;Node5</title>
<path fill="none" stroke="#9a32cd" stroke-dasharray="5,2" d="M1554.24,-297.87C1613.98,-288.67 1710.51,-282.73 1781,-322.02 1836.29,-352.84 1866.96,-429.31 1876.35,-456.36"/>
<polygon fill="#9a32cd" stroke="#9a32cd" points="1553.56,-294.44 1544.25,-299.49 1554.68,-301.35 1553.56,-294.44"/>
<text text-anchor="middle" x="1690.5" y="-336.02" font-family="Helvetica,sans-Serif" font-size="10.00"> matAssembleSwitch</text>
<text text-anchor="middle" x="1690.5" y="-325.02" font-family="Helvetica,sans-Serif" font-size="10.00">vecAssembleSwitch</text>
</g>
<!-- Node28 -->
<g id="node28" class="node">
<title>Node28</title>
<g id="a_node28"><a xlink:title=" ">
<polygon fill="white" stroke="#bfbfbf" points="1127,-687.52 1127,-706.52 1156,-706.52 1156,-687.52 1127,-687.52"/>
<text text-anchor="middle" x="1141.5" y="-694.52" font-family="Helvetica,sans-Serif" font-size="10.00">int</text>
</a>
</g>
</g>
<!-- Node28&#45;&gt;Node5 -->
<g id="edge36" class="edge">
<title>Node28&#45;&gt;Node5</title>
<path fill="none" stroke="#9a32cd" stroke-dasharray="5,2" d="M1166.18,-694.05C1211.46,-688.11 1313.28,-673.46 1397,-652.02 1571.55,-607.31 1616.6,-595.77 1781,-522.02 1811.87,-508.17 1845.72,-487.65 1864.62,-475.68"/>
<polygon fill="#9a32cd" stroke="#9a32cd" points="1165.64,-690.59 1156.17,-695.34 1166.54,-697.53 1165.64,-690.59"/>
<text text-anchor="middle" x="1498.5" y="-683.02" font-family="Helvetica,sans-Serif" font-size="10.00"> sIze</text>
<text text-anchor="middle" x="1498.5" y="-672.02" font-family="Helvetica,sans-Serif" font-size="10.00">loopSize</text>
<text text-anchor="middle" x="1498.5" y="-661.02" font-family="Helvetica,sans-Serif" font-size="10.00">nInTheLoop</text>
<text text-anchor="middle" x="1498.5" y="-650.02" font-family="Helvetica,sans-Serif" font-size="10.00">rAnk</text>
</g>
<!-- Node30 -->
<g id="node30" class="node">
<title>Node30</title>
<g id="a_node30"><a xlink:href="structMoFEM_1_1Problem.html" target="_top" xlink:title="keeps basic data about problem">
<polygon fill="white" stroke="black" points="1449,-947.52 1449,-966.52 1548,-966.52 1548,-947.52 1449,-947.52"/>
<text text-anchor="middle" x="1498.5" y="-954.52" font-family="Helvetica,sans-Serif" font-size="10.00">MoFEM::Problem</text>
</a>
</g>
</g>
<!-- Node28&#45;&gt;Node30 -->
<g id="edge48" class="edge">
<title>Node28&#45;&gt;Node30</title>
<path fill="none" stroke="#9a32cd" stroke-dasharray="5,2" d="M1166.01,-694.59C1221.8,-689.32 1360.26,-679.27 1397,-705.02 1482.04,-764.63 1495.15,-908.51 1497.14,-947.26"/>
<polygon fill="#9a32cd" stroke="#9a32cd" points="1165.62,-691.11 1156.01,-695.57 1166.3,-698.08 1165.62,-691.11"/>
<text text-anchor="middle" x="1329" y="-774.02" font-family="Helvetica,sans-Serif" font-size="10.00"> tagNameSize</text>
<text text-anchor="middle" x="1329" y="-763.02" font-family="Helvetica,sans-Serif" font-size="10.00">nbDofsRow</text>
<text text-anchor="middle" x="1329" y="-752.02" font-family="Helvetica,sans-Serif" font-size="10.00">nbLocDofsCol</text>
<text text-anchor="middle" x="1329" y="-741.02" font-family="Helvetica,sans-Serif" font-size="10.00">nbDofsCol</text>
<text text-anchor="middle" x="1329" y="-730.02" font-family="Helvetica,sans-Serif" font-size="10.00">nbGhostDofsRow</text>
<text text-anchor="middle" x="1329" y="-719.02" font-family="Helvetica,sans-Serif" font-size="10.00">nbGhostDofsCol</text>
<text text-anchor="middle" x="1329" y="-708.02" font-family="Helvetica,sans-Serif" font-size="10.00">nbLocDofsRow</text>
</g>
<!-- Node29 -->
<g id="node29" class="node">
<title>Node29</title>
<g id="a_node29"><a xlink:title=" ">
<polygon fill="white" stroke="#bfbfbf" points="1415,-456.52 1415,-475.52 1582,-475.52 1582,-456.52 1415,-456.52"/>
<text text-anchor="middle" x="1498.5" y="-463.52" font-family="Helvetica,sans-Serif" font-size="10.00">function&lt; MoFEMErrorCode()&gt;</text>
</a>
</g>
</g>
<!-- Node29&#45;&gt;Node5 -->
<g id="edge37" class="edge">
<title>Node29&#45;&gt;Node5</title>
<path fill="none" stroke="#9a32cd" stroke-dasharray="5,2" d="M1592.67,-466.02C1663.38,-466.02 1758.51,-466.02 1819.43,-466.02"/>
<polygon fill="#9a32cd" stroke="#9a32cd" points="1592.42,-462.52 1582.42,-466.02 1592.42,-469.52 1592.42,-462.52"/>
<text text-anchor="middle" x="1690.5" y="-491.02" font-family="Helvetica,sans-Serif" font-size="10.00"> preProcessHook</text>
<text text-anchor="middle" x="1690.5" y="-480.02" font-family="Helvetica,sans-Serif" font-size="10.00">operatorHook</text>
<text text-anchor="middle" x="1690.5" y="-469.02" font-family="Helvetica,sans-Serif" font-size="10.00">postProcessHook</text>
</g>
<!-- Node30&#45;&gt;Node5 -->
<g id="edge38" class="edge">
<title>Node30&#45;&gt;Node5</title>
<path fill="none" stroke="#9a32cd" stroke-dasharray="5,2" d="M1520.19,-941.13C1570.49,-901.66 1700.87,-794.07 1781,-680.02 1831.31,-608.4 1866.34,-506.98 1876.48,-475.63"/>
<polygon fill="#9a32cd" stroke="#9a32cd" points="1517.77,-938.59 1512.03,-947.49 1522.07,-944.11 1517.77,-938.59"/>
<text text-anchor="middle" x="1690.5" y="-876.02" font-family="Helvetica,sans-Serif" font-size="10.00"> problemPtr</text>
</g>
<!-- Node31 -->
<g id="node31" class="node">
<title>Node31</title>
<g id="a_node31"><a xlink:title=" ">
<polygon fill="white" stroke="#bfbfbf" points="1058,-986.02 1058,-1016.02 1225,-1016.02 1225,-986.02 1058,-986.02"/>
<text text-anchor="start" x="1066" y="-1004.02" font-family="Helvetica,sans-Serif" font-size="10.00">shared_ptr&lt; NumeredEntFinite</text>
<text text-anchor="middle" x="1141.5" y="-993.02" font-family="Helvetica,sans-Serif" font-size="10.00">Element_multiIndex &gt;</text>
</a>
</g>
</g>
<!-- Node31&#45;&gt;Node30 -->
<g id="edge39" class="edge">
<title>Node31&#45;&gt;Node30</title>
<path fill="none" stroke="#9a32cd" stroke-dasharray="5,2" d="M1235.23,-991.23C1283.51,-985.94 1343.49,-979.06 1397,-972.02 1413.97,-969.79 1432.5,-967.09 1448.99,-964.61"/>
<polygon fill="#9a32cd" stroke="#9a32cd" points="1234.67,-987.77 1225.11,-992.34 1235.43,-994.73 1234.67,-987.77"/>
<text text-anchor="middle" x="1329" y="-991.02" font-family="Helvetica,sans-Serif" font-size="10.00"> numeredFiniteElementsPtr</text>
</g>
<!-- Node32 -->
<g id="node32" class="node">
<title>Node32</title>
<g id="a_node32"><a xlink:title=" ">
<polygon fill="white" stroke="#bfbfbf" points="1112,-947.52 1112,-966.52 1171,-966.52 1171,-947.52 1112,-947.52"/>
<text text-anchor="middle" x="1141.5" y="-954.52" font-family="Helvetica,sans-Serif" font-size="10.00">BitFEId *</text>
</a>
</g>
</g>
<!-- Node32&#45;&gt;Node30 -->
<g id="edge40" class="edge">
<title>Node32&#45;&gt;Node30</title>
<path fill="none" stroke="#9a32cd" stroke-dasharray="5,2" d="M1181.5,-957.02C1246.67,-957.02 1377.54,-957.02 1448.7,-957.02"/>
<polygon fill="#9a32cd" stroke="#9a32cd" points="1181.25,-953.52 1171.25,-957.02 1181.25,-960.52 1181.25,-953.52"/>
<text text-anchor="middle" x="1329" y="-960.02" font-family="Helvetica,sans-Serif" font-size="10.00"> tagBitFEId</text>
</g>
<!-- Node33 -->
<g id="node33" class="node">
<title>Node33</title>
<g id="a_node33"><a xlink:href="classEntityHandle.html" target="_top" xlink:title=" ">
<polygon fill="white" stroke="black" points="1101.5,-909.52 1101.5,-928.52 1181.5,-928.52 1181.5,-909.52 1101.5,-909.52"/>
<text text-anchor="middle" x="1141.5" y="-916.52" font-family="Helvetica,sans-Serif" font-size="10.00">EntityHandle</text>
</a>
</g>
</g>
<!-- Node33&#45;&gt;Node30 -->
<g id="edge41" class="edge">
<title>Node33&#45;&gt;Node30</title>
<path fill="none" stroke="#9a32cd" stroke-dasharray="5,2" d="M1191.97,-922.63C1243.31,-926.59 1325.91,-933.51 1397,-942.02 1413.9,-944.04 1432.34,-946.67 1448.76,-949.16"/>
<polygon fill="#9a32cd" stroke="#9a32cd" points="1192.05,-919.13 1181.81,-921.86 1191.52,-926.11 1192.05,-919.13"/>
<text text-anchor="middle" x="1329" y="-945.02" font-family="Helvetica,sans-Serif" font-size="10.00"> meshset</text>
</g>
<!-- Node34 -->
<g id="node34" class="node">
<title>Node34</title>
<g id="a_node34"><a xlink:title=" ">
<polygon fill="white" stroke="#bfbfbf" points="1067,-860.02 1067,-890.02 1216,-890.02 1216,-860.02 1067,-860.02"/>
<text text-anchor="start" x="1075" y="-878.02" font-family="Helvetica,sans-Serif" font-size="10.00">shared_ptr&lt; MoFEM::</text>
<text text-anchor="middle" x="1141.5" y="-867.02" font-family="Helvetica,sans-Serif" font-size="10.00">ComposedProblemsData &gt;</text>
</a>
</g>
</g>
<!-- Node34&#45;&gt;Node30 -->
<g id="edge42" class="edge">
<title>Node34&#45;&gt;Node30</title>
<path fill="none" stroke="#9a32cd" stroke-dasharray="5,2" d="M1226.38,-882.49C1276.56,-888.28 1341.21,-898.08 1397,-914.02 1426.74,-922.51 1459.36,-937.62 1479.12,-947.48"/>
<polygon fill="#9a32cd" stroke="#9a32cd" points="1226.56,-878.99 1216.23,-881.35 1225.77,-885.94 1226.56,-878.99"/>
<text text-anchor="middle" x="1329" y="-917.02" font-family="Helvetica,sans-Serif" font-size="10.00"> composedProblemsData</text>
</g>
<!-- Node35 -->
<g id="node35" class="node">
<title>Node35</title>
<g id="a_node35"><a xlink:title=" ">
<polygon fill="white" stroke="#bfbfbf" points="1101,-821.52 1101,-840.52 1182,-840.52 1182,-821.52 1101,-821.52"/>
<text text-anchor="middle" x="1141.5" y="-828.52" font-family="Helvetica,sans-Serif" font-size="10.00">BitRefLevel *</text>
</a>
</g>
</g>
<!-- Node35&#45;&gt;Node30 -->
<g id="edge43" class="edge">
<title>Node35&#45;&gt;Node30</title>
<path fill="none" stroke="#9a32cd" stroke-dasharray="5,2" d="M1192.28,-828.12C1245.49,-827 1331.1,-831.05 1397,-862.02 1439.81,-882.13 1476.25,-927.55 1490.77,-947.41"/>
<polygon fill="#9a32cd" stroke="#9a32cd" points="1191.98,-824.62 1182.08,-828.4 1192.18,-831.62 1191.98,-824.62"/>
<text text-anchor="middle" x="1329" y="-876.02" font-family="Helvetica,sans-Serif" font-size="10.00"> tagBitRefLevelMask</text>
<text text-anchor="middle" x="1329" y="-865.02" font-family="Helvetica,sans-Serif" font-size="10.00">tagBitRefLevel</text>
</g>
<!-- Node36 -->
<g id="node36" class="node">
<title>Node36</title>
<g id="a_node36"><a xlink:title=" ">
<polygon fill="white" stroke="#bfbfbf" points="1056.5,-772.02 1056.5,-802.02 1226.5,-802.02 1226.5,-772.02 1056.5,-772.02"/>
<text text-anchor="start" x="1064.5" y="-790.02" font-family="Helvetica,sans-Serif" font-size="10.00">shared_ptr&lt; NumeredDofEntity</text>
<text text-anchor="middle" x="1141.5" y="-779.02" font-family="Helvetica,sans-Serif" font-size="10.00">_multiIndex &gt;</text>
</a>
</g>
</g>
<!-- Node36&#45;&gt;Node30 -->
<g id="edge44" class="edge">
<title>Node36&#45;&gt;Node30</title>
<path fill="none" stroke="#9a32cd" stroke-dasharray="5,2" d="M1236.71,-785.13C1297.66,-785.52 1370.41,-789.49 1397,-805.02 1454.37,-838.52 1485.24,-919.34 1494.49,-947.3"/>
<polygon fill="#9a32cd" stroke="#9a32cd" points="1236.67,-781.63 1226.66,-785.1 1236.64,-788.63 1236.67,-781.63"/>
<text text-anchor="middle" x="1329" y="-819.02" font-family="Helvetica,sans-Serif" font-size="10.00"> numeredRowDofsPtr</text>
<text text-anchor="middle" x="1329" y="-808.02" font-family="Helvetica,sans-Serif" font-size="10.00">numeredColDofsPtr</text>
</g>
<!-- Node37 -->
<g id="node37" class="node">
<title>Node37</title>
<g id="a_node37"><a xlink:title=" ">
<polygon fill="white" stroke="#bfbfbf" points="1122.5,-1199.52 1122.5,-1218.52 1160.5,-1218.52 1160.5,-1199.52 1122.5,-1199.52"/>
<text text-anchor="middle" x="1141.5" y="-1206.52" font-family="Helvetica,sans-Serif" font-size="10.00">char</text>
</a>
</g>
</g>
<!-- Node37&#45;&gt;Node30 -->
<g id="edge45" class="edge">
<title>Node37&#45;&gt;Node30</title>
<path fill="none" stroke="#9a32cd" stroke-dasharray="5,2" d="M1170.55,-1209.97C1229.01,-1211.4 1361.4,-1211.63 1397,-1186.02 1473.83,-1130.74 1492.69,-1003.55 1496.59,-967"/>
<polygon fill="#9a32cd" stroke="#9a32cd" points="1170.63,-1206.47 1160.54,-1209.69 1170.44,-1213.47 1170.63,-1206.47"/>
<text text-anchor="middle" x="1329" y="-1212.02" font-family="Helvetica,sans-Serif" font-size="10.00"> tagName</text>
</g>
<!-- Node38 -->
<g id="node38" class="node">
<title>Node38</title>
<g id="a_node38"><a xlink:title=" ">
<polygon fill="white" stroke="#bfbfbf" points="1072.5,-1161.52 1072.5,-1180.52 1210.5,-1180.52 1210.5,-1161.52 1072.5,-1161.52"/>
<text text-anchor="middle" x="1141.5" y="-1168.52" font-family="Helvetica,sans-Serif" font-size="10.00">vector&lt; BlockFieldPair &gt;</text>
</a>
</g>
</g>
<!-- Node38&#45;&gt;Node30 -->
<g id="edge46" class="edge">
<title>Node38&#45;&gt;Node30</title>
<path fill="none" stroke="#9a32cd" stroke-dasharray="5,2" d="M1220.65,-1172.32C1284.62,-1171.94 1368.97,-1167.68 1397,-1149.02 1464.33,-1104.19 1489.45,-999.23 1495.77,-966.77"/>
<polygon fill="#9a32cd" stroke="#9a32cd" points="1220.56,-1168.82 1210.57,-1172.35 1220.58,-1175.82 1220.56,-1168.82"/>
<text text-anchor="middle" x="1329" y="-1174.02" font-family="Helvetica,sans-Serif" font-size="10.00"> emptyFieldBlocks</text>
</g>
<!-- Node39 -->
<g id="node39" class="node">
<title>Node39</title>
<g id="a_node39"><a xlink:title=" ">
<polygon fill="white" stroke="#bfbfbf" points="1063.5,-1112.02 1063.5,-1142.02 1219.5,-1142.02 1219.5,-1112.02 1063.5,-1112.02"/>
<text text-anchor="start" x="1071.5" y="-1130.02" font-family="Helvetica,sans-Serif" font-size="10.00">shared_ptr&lt; MoFEM::</text>
<text text-anchor="middle" x="1141.5" y="-1119.02" font-family="Helvetica,sans-Serif" font-size="10.00">Problem::SubProblemData &gt;</text>
</a>
</g>
</g>
<!-- Node39&#45;&gt;Node30 -->
<g id="edge47" class="edge">
<title>Node39&#45;&gt;Node30</title>
<path fill="none" stroke="#9a32cd" stroke-dasharray="5,2" d="M1229.97,-1137.44C1281.87,-1139.44 1347.05,-1134.3 1397,-1105.02 1453,-1072.19 1484.55,-994.32 1494.24,-966.83"/>
<polygon fill="#9a32cd" stroke="#9a32cd" points="1229.93,-1133.94 1219.78,-1136.95 1229.6,-1140.93 1229.93,-1133.94"/>
<text text-anchor="middle" x="1329" y="-1141.02" font-family="Helvetica,sans-Serif" font-size="10.00"> subProblemData</text>
</g>
<!-- Node40 -->
<g id="node40" class="node">
<title>Node40</title>
<g id="a_node40"><a xlink:title=" ">
<polygon fill="white" stroke="#bfbfbf" points="1040,-1073.52 1040,-1092.52 1243,-1092.52 1243,-1073.52 1040,-1073.52"/>
<text text-anchor="middle" x="1141.5" y="-1080.52" font-family="Helvetica,sans-Serif" font-size="10.00">shared_ptr&lt; SequenceDofContainer &gt;</text>
</a>
</g>
</g>
<!-- Node40&#45;&gt;Node30 -->
<g id="edge49" class="edge">
<title>Node40&#45;&gt;Node30</title>
<path fill="none" stroke="#9a32cd" stroke-dasharray="5,2" d="M1253.07,-1081.44C1299.31,-1077.27 1352.52,-1067.71 1397,-1047.02 1438.41,-1027.75 1475.05,-985.62 1490.15,-966.63"/>
<polygon fill="#9a32cd" stroke="#9a32cd" points="1252.69,-1077.96 1243.01,-1082.28 1253.27,-1084.94 1252.69,-1077.96"/>
<text text-anchor="middle" x="1329" y="-1095.02" font-family="Helvetica,sans-Serif" font-size="10.00"> sequenceRowDofContainer</text>
<text text-anchor="middle" x="1329" y="-1084.02" font-family="Helvetica,sans-Serif" font-size="10.00">sequenceColDofContainer</text>
</g>
<!-- Node41 -->
<g id="node41" class="node">
<title>Node41</title>
<g id="a_node41"><a xlink:title=" ">
<polygon fill="white" stroke="#bfbfbf" points="1097.5,-1035.52 1097.5,-1054.52 1185.5,-1054.52 1185.5,-1035.52 1097.5,-1035.52"/>
<text text-anchor="middle" x="1141.5" y="-1042.52" font-family="Helvetica,sans-Serif" font-size="10.00">BitProblemId *</text>
</a>
</g>
</g>
<!-- Node41&#45;&gt;Node30 -->
<g id="edge50" class="edge">
<title>Node41&#45;&gt;Node30</title>
<path fill="none" stroke="#9a32cd" stroke-dasharray="5,2" d="M1195.65,-1040.4C1247.8,-1034.9 1329.14,-1023.74 1397,-1003.02 1427.46,-993.71 1460.68,-977.13 1480.27,-966.63"/>
<polygon fill="#9a32cd" stroke="#9a32cd" points="1195.22,-1036.92 1185.62,-1041.42 1195.93,-1043.89 1195.22,-1036.92"/>
<text text-anchor="middle" x="1329" y="-1035.02" font-family="Helvetica,sans-Serif" font-size="10.00"> tagId</text>
</g>
<!-- Node42 -->
<g id="node42" class="node">
<title>Node42</title>
<g id="a_node42"><a xlink:title=" ">
<polygon fill="white" stroke="#bfbfbf" points="1799.5,-881.02 1799.5,-911.02 1961.5,-911.02 1961.5,-881.02 1799.5,-881.02"/>
<text text-anchor="start" x="1807.5" y="-899.02" font-family="Helvetica,sans-Serif" font-size="10.00">shared_ptr&lt; const MoFEM</text>
<text text-anchor="middle" x="1880.5" y="-888.02" font-family="Helvetica,sans-Serif" font-size="10.00">::NumeredEntFiniteElement &gt;</text>
</a>
</g>
</g>
<!-- Node42&#45;&gt;Node4 -->
<g id="edge51" class="edge">
<title>Node42&#45;&gt;Node4</title>
<path fill="none" stroke="#9a32cd" stroke-dasharray="5,2" d="M1971.97,-889.31C2033.97,-884.71 2114.06,-878.77 2165.85,-874.92"/>
<polygon fill="#9a32cd" stroke="#9a32cd" points="1971.51,-885.83 1961.79,-890.06 1972.02,-892.81 1971.51,-885.83"/>
<text text-anchor="middle" x="2052" y="-892.02" font-family="Helvetica,sans-Serif" font-size="10.00"> numeredEntFiniteElementPtr</text>
</g>
<!-- Node43 -->
<g id="node43" class="node">
<title>Node43</title>
<g id="a_node43"><a xlink:title=" ">
<polygon fill="white" stroke="#bfbfbf" points="1858.5,-1096.52 1858.5,-1115.52 1902.5,-1115.52 1902.5,-1096.52 1858.5,-1096.52"/>
<text text-anchor="middle" x="1880.5" y="-1103.52" font-family="Helvetica,sans-Serif" font-size="10.00">string</text>
</a>
</g>
</g>
<!-- Node43&#45;&gt;Node1 -->
<g id="edge66" class="edge">
<title>Node43&#45;&gt;Node1</title>
<path fill="none" stroke="#9a32cd" stroke-dasharray="5,2" d="M1896.54,-1122.91C1940.76,-1170.63 2076.28,-1303.02 2218.5,-1303.02 2218.5,-1303.02 2218.5,-1303.02 2728,-1303.02 2792.52,-1303.02 2865.93,-1280.77 2903.83,-1267.56"/>
<polygon fill="#9a32cd" stroke="#9a32cd" points="1899.12,-1120.55 1889.79,-1115.52 1893.95,-1125.27 1899.12,-1120.55"/>
<text text-anchor="middle" x="2475.5" y="-1306.02" font-family="Helvetica,sans-Serif" font-size="10.00"> materialPositions</text>
</g>
<!-- Node43&#45;&gt;Node2 -->
<g id="edge65" class="edge">
<title>Node43&#45;&gt;Node2</title>
<path fill="none" stroke="#9a32cd" stroke-dasharray="5,2" d="M1912.62,-1112.01C1961.36,-1121.22 2058.76,-1138.97 2142,-1150.02 2319.94,-1173.65 2365.66,-1168.61 2544,-1189.02 2576.61,-1192.75 2612.45,-1197.36 2643.63,-1201.55"/>
<polygon fill="#9a32cd" stroke="#9a32cd" points="1913.17,-1108.55 1902.7,-1110.12 1911.87,-1115.43 1913.17,-1108.55"/>
<text text-anchor="middle" x="2352" y="-1177.02" font-family="Helvetica,sans-Serif" font-size="10.00"> problemName</text>
</g>
<!-- Node43&#45;&gt;Node3 -->
<g id="edge62" class="edge">
<title>Node43&#45;&gt;Node3</title>
<path fill="none" stroke="#9a32cd" stroke-dasharray="5,2" d="M1912.64,-1099.14C1961.42,-1088.46 2058.88,-1067.5 2142,-1052.02 2155.37,-1049.53 2324.84,-1021.62 2416.51,-1006.55"/>
<polygon fill="#9a32cd" stroke="#9a32cd" points="1911.73,-1095.75 1902.72,-1101.32 1913.23,-1102.59 1911.73,-1095.75"/>
<text text-anchor="middle" x="2219.5" y="-1066.02" font-family="Helvetica,sans-Serif" font-size="10.00"> blocksetName</text>
<text text-anchor="middle" x="2219.5" y="-1055.02" font-family="Helvetica,sans-Serif" font-size="10.00">fieldName</text>
</g>
<!-- Node43&#45;&gt;Node4 -->
<g id="edge52" class="edge">
<title>Node43&#45;&gt;Node4</title>
<path fill="none" stroke="#9a32cd" stroke-dasharray="5,2" d="M1890.24,-1087.01C1904.86,-1057.06 1936.99,-998.76 1980,-964.02 2033.93,-920.45 2064.11,-938.94 2124,-904.02 2132.76,-898.91 2132.88,-894.45 2142,-890.02 2149.88,-886.19 2158.6,-883.09 2167.25,-880.59"/>
<polygon fill="#9a32cd" stroke="#9a32cd" points="1886.94,-1085.79 1885.8,-1096.33 1893.26,-1088.8 1886.94,-1085.79"/>
<text text-anchor="middle" x="2052" y="-967.02" font-family="Helvetica,sans-Serif" font-size="10.00"> feName</text>
</g>
<!-- Node44 -->
<g id="node44" class="node">
<title>Node44</title>
<g id="a_node44"><a xlink:title=" ">
<polygon fill="white" stroke="#bfbfbf" points="1799,-832.02 1799,-862.02 1962,-862.02 1962,-832.02 1799,-832.02"/>
<text text-anchor="start" x="1807" y="-850.02" font-family="Helvetica,sans-Serif" font-size="10.00">function&lt; bool(MoFEM</text>
<text text-anchor="middle" x="1880.5" y="-839.02" font-family="Helvetica,sans-Serif" font-size="10.00">::FEMethod *fe_method_ptr)&gt;</text>
</a>
</g>
</g>
<!-- Node44&#45;&gt;Node4 -->
<g id="edge53" class="edge">
<title>Node44&#45;&gt;Node4</title>
<path fill="none" stroke="#9a32cd" stroke-dasharray="5,2" d="M1972.23,-852.6C2017.79,-855.51 2073.84,-859.24 2124,-863.02 2137.46,-864.03 2152,-865.22 2165.53,-866.36"/>
<polygon fill="#9a32cd" stroke="#9a32cd" points="1972.29,-849.1 1962.08,-851.96 1971.84,-856.09 1972.29,-849.1"/>
<text text-anchor="middle" x="2052" y="-866.02" font-family="Helvetica,sans-Serif" font-size="10.00"> exeTestHook</text>
</g>
<!-- Node45 -->
<g id="node45" class="node">
<title>Node45</title>
<g id="a_node45"><a xlink:title=" ">
<polygon fill="white" stroke="#bfbfbf" points="2168,-823.52 2168,-842.52 2271,-842.52 2271,-823.52 2168,-823.52"/>
<text text-anchor="middle" x="2219.5" y="-830.52" font-family="Helvetica,sans-Serif" font-size="10.00">vector&lt; double &gt;</text>
</a>
</g>
</g>
<!-- Node45&#45;&gt;Node3 -->
<g id="edge54" class="edge">
<title>Node45&#45;&gt;Node3</title>
<path fill="none" stroke="#9a32cd" stroke-dasharray="5,2" d="M2281.56,-833.57C2315.67,-836.53 2357.52,-844.81 2389,-866.02 2435.17,-897.13 2462.22,-962.42 2471.17,-987.2"/>
<polygon fill="#9a32cd" stroke="#9a32cd" points="2281.47,-830.06 2271.24,-832.82 2280.96,-837.04 2281.47,-830.06"/>
<text text-anchor="middle" x="2352" y="-880.02" font-family="Helvetica,sans-Serif" font-size="10.00"> dofsValues</text>
<text text-anchor="middle" x="2352" y="-869.02" font-family="Helvetica,sans-Serif" font-size="10.00">dofsXValues</text>
</g>
<!-- Node46 -->
<g id="node46" class="node">
<title>Node46</title>
<g id="a_node46"><a xlink:href="classdouble.html" target="_top" xlink:title=" ">
<polygon fill="white" stroke="black" points="2194.5,-1121.52 2194.5,-1140.52 2244.5,-1140.52 2244.5,-1121.52 2194.5,-1121.52"/>
<text text-anchor="middle" x="2219.5" y="-1128.52" font-family="Helvetica,sans-Serif" font-size="10.00">double</text>
</a>
</g>
</g>
<!-- Node46&#45;&gt;Node3 -->
<g id="edge55" class="edge">
<title>Node46&#45;&gt;Node3</title>
<path fill="none" stroke="#9a32cd" stroke-dasharray="5,2" d="M2254.93,-1129.97C2290.7,-1127.51 2347.18,-1119.63 2389,-1095.02 2427.33,-1072.46 2457.3,-1026.59 2469.08,-1006.64"/>
<polygon fill="#9a32cd" stroke="#9a32cd" points="2254.32,-1126.5 2244.54,-1130.58 2254.72,-1133.49 2254.32,-1126.5"/>
<text text-anchor="middle" x="2352" y="-1124.02" font-family="Helvetica,sans-Serif" font-size="10.00"> dIag</text>
</g>
<!-- Node47 -->
<g id="node47" class="node">
<title>Node47</title>
<g id="a_node47"><a xlink:title=" ">
<polygon fill="white" stroke="#bfbfbf" points="2178,-1083.52 2178,-1102.52 2261,-1102.52 2261,-1083.52 2178,-1083.52"/>
<text text-anchor="middle" x="2219.5" y="-1090.52" font-family="Helvetica,sans-Serif" font-size="10.00">vector&lt; int &gt;</text>
</a>
</g>
</g>
<!-- Node47&#45;&gt;Node3 -->
<g id="edge56" class="edge">
<title>Node47&#45;&gt;Node3</title>
<path fill="none" stroke="#9a32cd" stroke-dasharray="5,2" d="M2271.3,-1087.56C2305.62,-1082.6 2351.35,-1073.43 2389,-1057.02 2418.59,-1044.12 2448.37,-1020.15 2463.77,-1006.74"/>
<polygon fill="#9a32cd" stroke="#9a32cd" points="2270.47,-1084.15 2261.04,-1088.97 2271.43,-1091.08 2270.47,-1084.15"/>
<text text-anchor="middle" x="2352" y="-1083.02" font-family="Helvetica,sans-Serif" font-size="10.00"> dofsIndices</text>
</g>
<!-- Node48 -->
<g id="node48" class="node">
<title>Node48</title>
<g id="a_node48"><a xlink:href="structMoFEM_1_1DeprecatedCoreInterface.html" target="_top" xlink:title="Deprecated interface functions.">
<polygon fill="white" stroke="black" points="1600,-1300.52 1600,-1319.52 1781,-1319.52 1781,-1300.52 1600,-1300.52"/>
<text text-anchor="middle" x="1690.5" y="-1307.52" font-family="Helvetica,sans-Serif" font-size="10.00">MoFEM::DeprecatedCoreInterface</text>
</a>
</g>
</g>
<!-- Node48&#45;&gt;Node3 -->
<g id="edge57" class="edge">
<title>Node48&#45;&gt;Node3</title>
<path fill="none" stroke="#9a32cd" stroke-dasharray="5,2" d="M1782.16,-1292.1C1807.59,-1244.92 1770.72,-1120.33 1799,-1087.02 1876.24,-996.04 2251.28,-992.56 2406.76,-995.17"/>
<polygon fill="#9a32cd" stroke="#9a32cd" points="1779.15,-1290.28 1776.2,-1300.46 1784.85,-1294.34 1779.15,-1290.28"/>
<text text-anchor="middle" x="2052" y="-1021.02" font-family="Helvetica,sans-Serif" font-size="10.00"> mField</text>
</g>
<!-- Node49&#45;&gt;Node48 -->
<g id="edge58" class="edge">
<title>Node49&#45;&gt;Node48</title>
<path fill="none" stroke="midnightblue" d="M1214.32,-1255.29C1315.56,-1266.95 1499.81,-1288.17 1606.69,-1300.48"/>
<polygon fill="midnightblue" stroke="midnightblue" points="1214.52,-1251.79 1204.18,-1254.12 1213.72,-1258.74 1214.52,-1251.79"/>
</g>
<!-- Node50 -->
<g id="node50" class="node">
<title>Node50</title>
<g id="a_node50"><a xlink:title=" ">
<polygon fill="white" stroke="#bfbfbf" points="2142,-938.02 2142,-968.02 2297,-968.02 2297,-938.02 2142,-938.02"/>
<text text-anchor="start" x="2150" y="-956.02" font-family="Helvetica,sans-Serif" font-size="10.00">ptr_vector&lt; MethodForForce</text>
<text text-anchor="middle" x="2219.5" y="-945.02" font-family="Helvetica,sans-Serif" font-size="10.00">Scaling &gt;</text>
</a>
</g>
</g>
<!-- Node50&#45;&gt;Node3 -->
<g id="edge60" class="edge">
<title>Node50&#45;&gt;Node3</title>
<path fill="none" stroke="#9a32cd" stroke-dasharray="5,2" d="M2307.24,-959.91C2333.64,-962.78 2362.64,-966.72 2389,-972.02 2408.41,-975.92 2429.78,-982.17 2446.31,-987.44"/>
<polygon fill="#9a32cd" stroke="#9a32cd" points="2307.57,-956.43 2297.26,-958.86 2306.84,-963.39 2307.57,-956.43"/>
<text text-anchor="middle" x="2352" y="-975.02" font-family="Helvetica,sans-Serif" font-size="10.00"> methodsOp</text>
</g>
<!-- Node51 -->
<g id="node51" class="node">
<title>Node51</title>
<g id="a_node51"><a xlink:title=" ">
<polygon fill="white" stroke="#bfbfbf" points="2146.5,-899.52 2146.5,-918.52 2292.5,-918.52 2292.5,-899.52 2146.5,-899.52"/>
<text text-anchor="middle" x="2219.5" y="-906.52" font-family="Helvetica,sans-Serif" font-size="10.00">map&lt; DofIdx, FieldData &gt;</text>
</a>
</g>
</g>
<!-- Node51&#45;&gt;Node3 -->
<g id="edge61" class="edge">
<title>Node51&#45;&gt;Node3</title>
<path fill="none" stroke="#9a32cd" stroke-dasharray="5,2" d="M2297.36,-920.5C2326.66,-926.26 2359.98,-934.53 2389,-946.02 2416.48,-956.9 2445.4,-976 2461.57,-987.48"/>
<polygon fill="#9a32cd" stroke="#9a32cd" points="2297.65,-916.99 2287.17,-918.56 2296.34,-923.87 2297.65,-916.99"/>
<text text-anchor="middle" x="2352" y="-949.02" font-family="Helvetica,sans-Serif" font-size="10.00"> mapZeroRows</text>
</g>
<!-- Node52 -->
<g id="node52" class="node">
<title>Node52</title>
<g id="a_node52"><a xlink:href="classbool.html" target="_top" xlink:title=" ">
<polygon fill="white" stroke="black" points="2456.5,-1247.52 2456.5,-1266.52 2494.5,-1266.52 2494.5,-1247.52 2456.5,-1247.52"/>
<text text-anchor="middle" x="2475.5" y="-1254.52" font-family="Helvetica,sans-Serif" font-size="10.00">bool</text>
</a>
</g>
</g>
<!-- Node52&#45;&gt;Node2 -->
<g id="edge63" class="edge">
<title>Node52&#45;&gt;Node2</title>
<path fill="none" stroke="#9a32cd" stroke-dasharray="5,2" d="M2504.87,-1252.02C2538.44,-1246.09 2595.83,-1235.97 2643.74,-1227.53"/>
<polygon fill="#9a32cd" stroke="#9a32cd" points="2504.09,-1248.6 2494.85,-1253.78 2505.3,-1255.49 2504.09,-1248.6"/>
<text text-anchor="middle" x="2594" y="-1244.02" font-family="Helvetica,sans-Serif" font-size="10.00"> isPartitioned</text>
</g>
<!-- Node53 -->
<g id="node53" class="node">
<title>Node53</title>
<g id="a_node53"><a xlink:title=" ">
<polygon fill="white" stroke="#bfbfbf" points="2420.5,-1198.02 2420.5,-1228.02 2530.5,-1228.02 2530.5,-1198.02 2420.5,-1198.02"/>
<text text-anchor="start" x="2428.5" y="-1216.02" font-family="Helvetica,sans-Serif" font-size="10.00">shared_ptr&lt; vector</text>
<text text-anchor="middle" x="2475.5" y="-1205.02" font-family="Helvetica,sans-Serif" font-size="10.00">&lt; DataFromBc &gt; &gt;</text>
</a>
</g>
</g>
<!-- Node53&#45;&gt;Node2 -->
<g id="edge64" class="edge">
<title>Node53&#45;&gt;Node2</title>
<path fill="none" stroke="#9a32cd" stroke-dasharray="5,2" d="M2541.01,-1213.02C2572.42,-1213.02 2610.53,-1213.02 2643.97,-1213.02"/>
<polygon fill="#9a32cd" stroke="#9a32cd" points="2540.64,-1209.52 2530.64,-1213.02 2540.64,-1216.52 2540.64,-1209.52"/>
<text text-anchor="middle" x="2594" y="-1216.02" font-family="Helvetica,sans-Serif" font-size="10.00"> bcDataPtr</text>
</g>
</g>
</svg>
        <g id="navigator" transform="translate(0 0)" fill="#404254">
                <rect fill="#f2f5e9" fill-opacity="0.5" stroke="#606060" stroke-width=".5" x="0" y="0" width="60" height="60"/>
                <use id="zoomplus" xlink:href="#zoomPlus" x="17" y="9" onmousedown="handleZoom(evt,'in')"/>
                <use id="zoomminus" xlink:href="#zoomMin" x="42" y="9" onmousedown="handleZoom(evt,'out')"/>
                <use id="reset" xlink:href="#resetDef" x="30" y="36" onmousedown="handleReset()"/>
                <g id="arrowUp" xlink:href="#dirArrow" transform="translate(30 24)" onmousedown="handlePan(0,-1)">
                  <use xlink:href="#rim" fill="#404040">
                        <set attributeName="fill" to="#808080" begin="arrowUp.mouseover" end="arrowUp.mouseout"/>
                  </use>
                  <path fill="none" stroke="white" stroke-width="1.5" d="M0,-3.0v7 M-2.5,-0.5L0,-3.0L2.5,-0.5"/>
                </g>
                <g id="arrowRight" xlink:href="#dirArrow" transform="rotate(90) translate(36 -43)" onmousedown="handlePan(1,0)">
                  <use xlink:href="#rim" fill="#404040">
                        <set attributeName="fill" to="#808080" begin="arrowRight.mouseover" end="arrowRight.mouseout"/>
                  </use>
                  <path fill="none" stroke="white" stroke-width="1.5" d="M0,-3.0v7 M-2.5,-0.5L0,-3.0L2.5,-0.5"/>
                </g>
                <g id="arrowDown" xlink:href="#dirArrow" transform="rotate(180) translate(-30 -48)" onmousedown="handlePan(0,1)">
                  <use xlink:href="#rim" fill="#404040">
                        <set attributeName="fill" to="#808080" begin="arrowDown.mouseover" end="arrowDown.mouseout"/>
                  </use>
                  <path fill="none" stroke="white" stroke-width="1.5" d="M0,-3.0v7 M-2.5,-0.5L0,-3.0L2.5,-0.5"/>
                </g>
                <g id="arrowLeft" xlink:href="#dirArrow" transform="rotate(270) translate(-36 17)" onmousedown="handlePan(-1,0)">
                  <use xlink:href="#rim" fill="#404040">
                        <set attributeName="fill" to="#808080" begin="arrowLeft.mouseover" end="arrowLeft.mouseout"/>
                  </use>
                  <path fill="none" stroke="white" stroke-width="1.5" d="M0,-3.0v7 M-2.5,-0.5L0,-3.0L2.5,-0.5"/>
                </g>
        </g>
        <svg viewBox="0 0 15 15" width="100%" height="30px" preserveAspectRatio="xMaxYMin meet">
         <g id="arrow_out" transform="scale(0.3 0.3)">
          <a xlink:href="structDirichletSpatialRemoveDofsBc__coll__graph_org.svg" target="_base">
           <rect id="button" ry="5" rx="5" y="6" x="6" height="38" width="38"
                fill="#f2f5e9" fill-opacity="0.5" stroke="#606060" stroke-width="1.0"/>
           <path id="arrow"
             d="M 11.500037,31.436501 C 11.940474,20.09759 22.043105,11.32322 32.158766,21.979434 L 37.068811,17.246167 C 37.068811,17.246167 37.088388,32 37.088388,32 L 22.160133,31.978069 C 22.160133,31.978069 26.997745,27.140456 26.997745,27.140456 C 18.528582,18.264221 13.291696,25.230495 11.500037,31.436501 z"
             style="fill:#404040;"/>
          </a>
         </g>
        </svg>
</svg>
