<?xml version="1.0" encoding="UTF-8" standalone="no"?>
<!DOCTYPE svg PUBLIC "-//W3C//DTD SVG 1.1//EN"
 "http://www.w3.org/Graphics/SVG/1.1/DTD/svg11.dtd">
<!-- Generated by graphviz version 2.43.0 (0)
 -->
<!-- Title: Example::BoundaryOp Pages: 1 -->
<svg width="3405pt" height="1354pt"
 viewBox="0.00 0.00 3405.00 1354.00" xmlns="http://www.w3.org/2000/svg" xmlns:xlink="http://www.w3.org/1999/xlink">
<g id="graph0" class="graph" transform="scale(1 1) rotate(0) translate(4 1350)">
<title>Example::BoundaryOp</title>
<polygon fill="white" stroke="transparent" points="-4,4 -4,-1350 3401,-1350 3401,4 -4,4"/>
<!-- Node1 -->
<g id="node1" class="node">
<title>Node1</title>
<g id="a_node1"><a xlink:title=" ">
<polygon fill="#bfbfbf" stroke="black" points="3272,-250.5 3272,-269.5 3397,-269.5 3397,-250.5 3272,-250.5"/>
<text text-anchor="middle" x="3334.5" y="-257.5" font-family="Helvetica,sans-Serif" font-size="10.00">Example::BoundaryOp</text>
</a>
</g>
</g>
<!-- Node2 -->
<g id="node2" class="node">
<title>Node2</title>
<g id="a_node2"><a xlink:href="structMoFEM_1_1EdgeElementForcesAndSourcesCore_1_1UserDataOperator.html" target="_top" xlink:title="default operator for EDGE element">
<polygon fill="white" stroke="black" points="3088,-553.5 3088,-572.5 3157,-572.5 3157,-553.5 3088,-553.5"/>
<text text-anchor="middle" x="3122.5" y="-560.5" font-family="Helvetica,sans-Serif" font-size="10.00">EdgeEleOp</text>
</a>
</g>
</g>
<!-- Node2&#45;&gt;Node1 -->
<g id="edge1" class="edge">
<title>Node2&#45;&gt;Node1</title>
<path fill="none" stroke="midnightblue" d="M3136.08,-544.85C3175.72,-487.66 3297.15,-312.44 3326.88,-269.55"/>
<polygon fill="midnightblue" stroke="midnightblue" points="3133.07,-543.05 3130.25,-553.26 3138.82,-547.04 3133.07,-543.05"/>
</g>
<!-- Node3 -->
<g id="node3" class="node">
<title>Node3</title>
<g id="a_node3"><a xlink:href="structMoFEM_1_1ForcesAndSourcesCore_1_1UserDataOperator.html" target="_top" xlink:title=" ">
<polygon fill="white" stroke="black" points="2837,-840 2837,-870 3007,-870 3007,-840 2837,-840"/>
<text text-anchor="start" x="2845" y="-858" font-family="Helvetica,sans-Serif" font-size="10.00">MoFEM::ForcesAndSourcesCore</text>
<text text-anchor="middle" x="2922" y="-847" font-family="Helvetica,sans-Serif" font-size="10.00">::UserDataOperator</text>
</a>
</g>
</g>
<!-- Node3&#45;&gt;Node2 -->
<g id="edge2" class="edge">
<title>Node3&#45;&gt;Node2</title>
<path fill="none" stroke="midnightblue" d="M2939.18,-831.2C2980.25,-770.79 3087.24,-613.39 3114.9,-572.71"/>
<polygon fill="midnightblue" stroke="midnightblue" points="2936.12,-829.47 2933.39,-839.71 2941.91,-833.41 2936.12,-829.47"/>
</g>
<!-- Node4 -->
<g id="node4" class="node">
<title>Node4</title>
<g id="a_node4"><a xlink:href="structMoFEM_1_1DataOperator.html" target="_top" xlink:title="base operator to do operations at Gauss Pt. level">
<polygon fill="white" stroke="black" points="2579.5,-892.5 2579.5,-911.5 2704.5,-911.5 2704.5,-892.5 2579.5,-892.5"/>
<text text-anchor="middle" x="2642" y="-899.5" font-family="Helvetica,sans-Serif" font-size="10.00">MoFEM::DataOperator</text>
</a>
</g>
</g>
<!-- Node4&#45;&gt;Node3 -->
<g id="edge3" class="edge">
<title>Node4&#45;&gt;Node3</title>
<path fill="none" stroke="midnightblue" d="M2709.25,-890.8C2747.48,-884.34 2795.94,-876.14 2836.85,-869.23"/>
<polygon fill="midnightblue" stroke="midnightblue" points="2708.53,-887.37 2699.26,-892.49 2709.7,-894.27 2708.53,-887.37"/>
</g>
<!-- Node5 -->
<g id="node5" class="node">
<title>Node5</title>
<g id="a_node5"><a xlink:title=" ">
<polygon fill="white" stroke="#bfbfbf" points="2160,-829 2160,-881 2352,-881 2352,-829 2160,-829"/>
<text text-anchor="start" x="2168" y="-869" font-family="Helvetica,sans-Serif" font-size="10.00">function&lt; MoFEMErrorCode</text>
<text text-anchor="start" x="2168" y="-858" font-family="Helvetica,sans-Serif" font-size="10.00">(DataOperator *op_ptr,</text>
<text text-anchor="start" x="2168" y="-847" font-family="Helvetica,sans-Serif" font-size="10.00"> int side, EntityType type,</text>
<text text-anchor="middle" x="2256" y="-836" font-family="Helvetica,sans-Serif" font-size="10.00"> EntitiesFieldData::EntData &amp;data)&gt;</text>
</a>
</g>
</g>
<!-- Node5&#45;&gt;Node4 -->
<g id="edge4" class="edge">
<title>Node5&#45;&gt;Node4</title>
<path fill="none" stroke="#9a32cd" stroke-dasharray="5,2" d="M2362.4,-867.54C2415.4,-873.88 2480.61,-881.76 2539,-889 2552.02,-890.61 2565.97,-892.37 2579.25,-894.06"/>
<polygon fill="#9a32cd" stroke="#9a32cd" points="2362.65,-864.04 2352.31,-866.33 2361.82,-870.99 2362.65,-864.04"/>
<text text-anchor="middle" x="2458" y="-892" font-family="Helvetica,sans-Serif" font-size="10.00"> doWorkRhsHook</text>
</g>
<!-- Node6 -->
<g id="node6" class="node">
<title>Node6</title>
<g id="a_node6"><a xlink:href="classbool.html" target="_top" xlink:title=" ">
<polygon fill="white" stroke="black" points="2237,-1042.5 2237,-1061.5 2275,-1061.5 2275,-1042.5 2237,-1042.5"/>
<text text-anchor="middle" x="2256" y="-1049.5" font-family="Helvetica,sans-Serif" font-size="10.00">bool</text>
</a>
</g>
</g>
<!-- Node6&#45;&gt;Node4 -->
<g id="edge5" class="edge">
<title>Node6&#45;&gt;Node4</title>
<path fill="none" stroke="#9a32cd" stroke-dasharray="5,2" d="M2285.24,-1047.93C2305.86,-1044.67 2334.4,-1039.56 2359,-1033 2440.9,-1011.18 2478.61,-1029.47 2539,-970 2555.53,-953.72 2539.57,-936.31 2557,-921 2563.4,-915.38 2571.12,-911.32 2579.25,-908.4"/>
<polygon fill="#9a32cd" stroke="#9a32cd" points="2284.6,-1044.48 2275.24,-1049.46 2285.66,-1051.4 2284.6,-1044.48"/>
<text text-anchor="middle" x="2458" y="-1097" font-family="Helvetica,sans-Serif" font-size="10.00"> doTris</text>
<text text-anchor="middle" x="2458" y="-1086" font-family="Helvetica,sans-Serif" font-size="10.00">doQuads</text>
<text text-anchor="middle" x="2458" y="-1075" font-family="Helvetica,sans-Serif" font-size="10.00">sYmm</text>
<text text-anchor="middle" x="2458" y="-1064" font-family="Helvetica,sans-Serif" font-size="10.00">doPrisms</text>
<text text-anchor="middle" x="2458" y="-1053" font-family="Helvetica,sans-Serif" font-size="10.00">doTets</text>
<text text-anchor="middle" x="2458" y="-1042" font-family="Helvetica,sans-Serif" font-size="10.00">doVertices</text>
<text text-anchor="middle" x="2458" y="-1031" font-family="Helvetica,sans-Serif" font-size="10.00">doEdges</text>
</g>
<!-- Node7 -->
<g id="node7" class="node">
<title>Node7</title>
<g id="a_node7"><a xlink:title=" ">
<polygon fill="white" stroke="#bfbfbf" points="2153,-938.5 2153,-1023.5 2359,-1023.5 2359,-938.5 2153,-938.5"/>
<text text-anchor="start" x="2161" y="-1011.5" font-family="Helvetica,sans-Serif" font-size="10.00">function&lt; MoFEMErrorCode</text>
<text text-anchor="start" x="2161" y="-1000.5" font-family="Helvetica,sans-Serif" font-size="10.00">(DataOperator *op_ptr,</text>
<text text-anchor="start" x="2161" y="-989.5" font-family="Helvetica,sans-Serif" font-size="10.00"> int row_side, int col_side,</text>
<text text-anchor="start" x="2161" y="-978.5" font-family="Helvetica,sans-Serif" font-size="10.00"> EntityType row_type, EntityType</text>
<text text-anchor="start" x="2161" y="-967.5" font-family="Helvetica,sans-Serif" font-size="10.00"> col_type, EntitiesFieldData::EntData</text>
<text text-anchor="start" x="2161" y="-956.5" font-family="Helvetica,sans-Serif" font-size="10.00"> &amp;row_data, EntitiesFieldData::EntData</text>
<text text-anchor="middle" x="2256" y="-945.5" font-family="Helvetica,sans-Serif" font-size="10.00"> &amp;col_data)&gt;</text>
</a>
</g>
</g>
<!-- Node7&#45;&gt;Node4 -->
<g id="edge6" class="edge">
<title>Node7&#45;&gt;Node4</title>
<path fill="none" stroke="#9a32cd" stroke-dasharray="5,2" d="M2369.15,-957.93C2444.3,-942.47 2539.32,-922.92 2594.82,-911.5"/>
<polygon fill="#9a32cd" stroke="#9a32cd" points="2368.24,-954.54 2359.15,-959.99 2369.65,-961.4 2368.24,-954.54"/>
<text text-anchor="middle" x="2458" y="-958" font-family="Helvetica,sans-Serif" font-size="10.00"> doWorkLhsHook</text>
</g>
<!-- Node8 -->
<g id="node8" class="node">
<title>Node8</title>
<g id="a_node8"><a xlink:title=" ">
<polygon fill="white" stroke="#bfbfbf" points="2179,-900.5 2179,-919.5 2333,-919.5 2333,-900.5 2179,-900.5"/>
<text text-anchor="middle" x="2256" y="-907.5" font-family="Helvetica,sans-Serif" font-size="10.00">array&lt; bool, MBMAXTYPE &gt;</text>
</a>
</g>
</g>
<!-- Node8&#45;&gt;Node4 -->
<g id="edge7" class="edge">
<title>Node8&#45;&gt;Node4</title>
<path fill="none" stroke="#9a32cd" stroke-dasharray="5,2" d="M2343.7,-908.19C2415.44,-906.7 2515.59,-904.61 2579.37,-903.28"/>
<polygon fill="#9a32cd" stroke="#9a32cd" points="2343.25,-904.7 2333.33,-908.41 2343.4,-911.7 2343.25,-904.7"/>
<text text-anchor="middle" x="2458" y="-910" font-family="Helvetica,sans-Serif" font-size="10.00"> doEntities</text>
</g>
<!-- Node9 -->
<g id="node9" class="node">
<title>Node9</title>
<g id="a_node9"><a xlink:title=" ">
<polygon fill="white" stroke="#bfbfbf" points="2607.5,-845.5 2607.5,-864.5 2676.5,-864.5 2676.5,-845.5 2607.5,-845.5"/>
<text text-anchor="middle" x="2642" y="-852.5" font-family="Helvetica,sans-Serif" font-size="10.00">FieldSpace</text>
</a>
</g>
</g>
<!-- Node9&#45;&gt;Node3 -->
<g id="edge8" class="edge">
<title>Node9&#45;&gt;Node3</title>
<path fill="none" stroke="#9a32cd" stroke-dasharray="5,2" d="M2686.79,-855C2726.94,-855 2787.51,-855 2836.99,-855"/>
<polygon fill="#9a32cd" stroke="#9a32cd" points="2686.53,-851.5 2676.53,-855 2686.53,-858.5 2686.53,-851.5"/>
<text text-anchor="middle" x="2782" y="-858" font-family="Helvetica,sans-Serif" font-size="10.00"> sPace</text>
</g>
<!-- Node10 -->
<g id="node10" class="node">
<title>Node10</title>
<g id="a_node10"><a xlink:title=" ">
<polygon fill="white" stroke="#bfbfbf" points="1122.5,-1210.5 1122.5,-1229.5 1160.5,-1229.5 1160.5,-1210.5 1122.5,-1210.5"/>
<text text-anchor="middle" x="1141.5" y="-1217.5" font-family="Helvetica,sans-Serif" font-size="10.00">char</text>
</a>
</g>
</g>
<!-- Node10&#45;&gt;Node3 -->
<g id="edge9" class="edge">
<title>Node10&#45;&gt;Node3</title>
<path fill="none" stroke="#9a32cd" stroke-dasharray="5,2" d="M1170.81,-1221.74C1230.94,-1225.28 1375.87,-1233 1497.5,-1233 1497.5,-1233 1497.5,-1233 2643,-1233 2826.29,-1233 2902.14,-941 2917.82,-870.29"/>
<polygon fill="#9a32cd" stroke="#9a32cd" points="1170.79,-1218.23 1160.59,-1221.13 1170.37,-1225.22 1170.79,-1218.23"/>
<text text-anchor="middle" x="2063" y="-1236" font-family="Helvetica,sans-Serif" font-size="10.00"> opType</text>
</g>
<!-- Node38 -->
<g id="node38" class="node">
<title>Node38</title>
<g id="a_node38"><a xlink:href="structMoFEM_1_1Problem.html" target="_top" xlink:title="keeps basic data about problem">
<polygon fill="white" stroke="black" points="1449,-940.5 1449,-959.5 1548,-959.5 1548,-940.5 1449,-940.5"/>
<text text-anchor="middle" x="1498.5" y="-947.5" font-family="Helvetica,sans-Serif" font-size="10.00">MoFEM::Problem</text>
</a>
</g>
</g>
<!-- Node10&#45;&gt;Node38 -->
<g id="edge53" class="edge">
<title>Node10&#45;&gt;Node38</title>
<path fill="none" stroke="#9a32cd" stroke-dasharray="5,2" d="M1170.83,-1217.06C1235.54,-1210.21 1389.26,-1193.17 1397,-1185 1430.14,-1150.04 1383.47,-1005.41 1415,-969 1423.56,-959.11 1436.15,-953.8 1448.91,-951.08"/>
<polygon fill="#9a32cd" stroke="#9a32cd" points="1170.12,-1213.61 1160.54,-1218.14 1170.85,-1220.58 1170.12,-1213.61"/>
<text text-anchor="middle" x="1329" y="-1209" font-family="Helvetica,sans-Serif" font-size="10.00"> tagName</text>
</g>
<!-- Node11 -->
<g id="node11" class="node">
<title>Node11</title>
<g id="a_node11"><a xlink:href="structMoFEM_1_1ForcesAndSourcesCore.html" target="_top" xlink:title="structure to get information form mofem into EntitiesFieldData">
<polygon fill="white" stroke="black" points="2557,-542.5 2557,-561.5 2727,-561.5 2727,-542.5 2557,-542.5"/>
<text text-anchor="middle" x="2642" y="-549.5" font-family="Helvetica,sans-Serif" font-size="10.00">MoFEM::ForcesAndSourcesCore</text>
</a>
</g>
</g>
<!-- Node11&#45;&gt;Node3 -->
<g id="edge10" class="edge">
<title>Node11&#45;&gt;Node3</title>
<path fill="none" stroke="#9a32cd" stroke-dasharray="5,2" d="M2658.71,-569.12C2708.13,-622.99 2859.97,-788.48 2906.98,-839.72"/>
<polygon fill="#9a32cd" stroke="#9a32cd" points="2661.27,-566.74 2651.93,-561.74 2656.12,-571.47 2661.27,-566.74"/>
<text text-anchor="middle" x="2782" y="-742" font-family="Helvetica,sans-Serif" font-size="10.00"> ptrFE</text>
</g>
<!-- Node11&#45;&gt;Node11 -->
<g id="edge68" class="edge">
<title>Node11&#45;&gt;Node11</title>
<path fill="none" stroke="#9a32cd" stroke-dasharray="5,2" d="M2615.96,-571.03C2617.38,-576.13 2626.06,-580 2642,-580 2666.88,-580 2674.08,-570.57 2663.58,-561.76"/>
<polygon fill="#9a32cd" stroke="#9a32cd" points="2619.24,-572.29 2620.42,-561.76 2612.93,-569.25 2619.24,-572.29"/>
<text text-anchor="middle" x="2642" y="-594" font-family="Helvetica,sans-Serif" font-size="10.00"> sidePtrFE</text>
<text text-anchor="middle" x="2642" y="-583" font-family="Helvetica,sans-Serif" font-size="10.00">refinePtrFE</text>
</g>
<!-- Node12 -->
<g id="node12" class="node">
<title>Node12</title>
<g id="a_node12"><a xlink:href="structMoFEM_1_1FEMethod.html" target="_top" xlink:title="structure for User Loop Methods on finite elements">
<polygon fill="white" stroke="black" points="2202.5,-713.5 2202.5,-732.5 2309.5,-732.5 2309.5,-713.5 2202.5,-713.5"/>
<text text-anchor="middle" x="2256" y="-720.5" font-family="Helvetica,sans-Serif" font-size="10.00">MoFEM::FEMethod</text>
</a>
</g>
</g>
<!-- Node12&#45;&gt;Node11 -->
<g id="edge11" class="edge">
<title>Node12&#45;&gt;Node11</title>
<path fill="none" stroke="midnightblue" d="M2319.89,-723.77C2391.44,-723.6 2503.02,-719.82 2539,-699 2595.19,-666.49 2627.62,-589.08 2637.63,-561.76"/>
<polygon fill="midnightblue" stroke="midnightblue" points="2319.64,-720.27 2309.64,-723.77 2319.64,-727.27 2319.64,-720.27"/>
</g>
<!-- Node13 -->
<g id="node13" class="node">
<title>Node13</title>
<g id="a_node13"><a xlink:href="structMoFEM_1_1BasicMethod.html" target="_top" xlink:title="Data structure to exchange data between mofem and User Loop Methods.">
<polygon fill="white" stroke="black" points="1825,-644.5 1825,-663.5 1947,-663.5 1947,-644.5 1825,-644.5"/>
<text text-anchor="middle" x="1886" y="-651.5" font-family="Helvetica,sans-Serif" font-size="10.00">MoFEM::BasicMethod</text>
</a>
</g>
</g>
<!-- Node13&#45;&gt;Node12 -->
<g id="edge12" class="edge">
<title>Node13&#45;&gt;Node12</title>
<path fill="none" stroke="midnightblue" d="M1947.57,-665.41C2001.48,-675.57 2082.49,-690.81 2153,-704 2169.55,-707.1 2187.62,-710.47 2203.89,-713.5"/>
<polygon fill="midnightblue" stroke="midnightblue" points="1947.97,-661.93 1937.49,-663.52 1946.67,-668.81 1947.97,-661.93"/>
</g>
<!-- Node14 -->
<g id="node14" class="node">
<title>Node14</title>
<g id="a_node14"><a xlink:href="structMoFEM_1_1KspMethod.html" target="_top" xlink:title="data structure for ksp (linear solver) context">
<polygon fill="white" stroke="black" points="1442,-345.5 1442,-364.5 1555,-364.5 1555,-345.5 1442,-345.5"/>
<text text-anchor="middle" x="1498.5" y="-352.5" font-family="Helvetica,sans-Serif" font-size="10.00">MoFEM::KspMethod</text>
</a>
</g>
</g>
<!-- Node14&#45;&gt;Node13 -->
<g id="edge13" class="edge">
<title>Node14&#45;&gt;Node13</title>
<path fill="none" stroke="midnightblue" d="M1517.85,-371.57C1563.65,-412.59 1687.38,-521.32 1799,-601 1822.12,-617.51 1850.42,-634.35 1868.08,-644.49"/>
<polygon fill="midnightblue" stroke="midnightblue" points="1520,-368.8 1510.22,-364.72 1515.32,-374 1520,-368.8"/>
</g>
<!-- Node15 -->
<g id="node15" class="node">
<title>Node15</title>
<g id="a_node15"><a xlink:href="structMoFEM_1_1PetscData.html" target="_top" xlink:title=" ">
<polygon fill="white" stroke="black" points="1087.5,-364.5 1087.5,-383.5 1195.5,-383.5 1195.5,-364.5 1087.5,-364.5"/>
<text text-anchor="middle" x="1141.5" y="-371.5" font-family="Helvetica,sans-Serif" font-size="10.00">MoFEM::PetscData</text>
</a>
</g>
</g>
<!-- Node15&#45;&gt;Node14 -->
<g id="edge14" class="edge">
<title>Node15&#45;&gt;Node14</title>
<path fill="none" stroke="midnightblue" d="M1205.67,-370.62C1272.79,-367.03 1377.87,-361.4 1441.94,-357.97"/>
<polygon fill="midnightblue" stroke="midnightblue" points="1205.45,-367.13 1195.65,-371.16 1205.82,-374.12 1205.45,-367.13"/>
</g>
<!-- Node25 -->
<g id="node25" class="node">
<title>Node25</title>
<g id="a_node25"><a xlink:href="structMoFEM_1_1SnesMethod.html" target="_top" xlink:title="data structure for snes (nonlinear solver) context">
<polygon fill="white" stroke="black" points="1439,-250.5 1439,-269.5 1558,-269.5 1558,-250.5 1439,-250.5"/>
<text text-anchor="middle" x="1498.5" y="-257.5" font-family="Helvetica,sans-Serif" font-size="10.00">MoFEM::SnesMethod</text>
</a>
</g>
</g>
<!-- Node15&#45;&gt;Node25 -->
<g id="edge27" class="edge">
<title>Node15&#45;&gt;Node25</title>
<path fill="none" stroke="darkgreen" d="M1205.46,-372.35C1219.07,-369.36 1232.51,-364.06 1243,-355 1261.51,-339.02 1242.43,-318.92 1261,-303 1287.1,-280.63 1377.56,-269.24 1438.72,-263.97"/>
<polygon fill="darkgreen" stroke="darkgreen" points="1204.78,-368.92 1195.56,-374.14 1206.02,-375.81 1204.78,-368.92"/>
</g>
<!-- Node28 -->
<g id="node28" class="node">
<title>Node28</title>
<g id="a_node28"><a xlink:href="structMoFEM_1_1TSMethod.html" target="_top" xlink:title="data structure for TS (time stepping) context">
<polygon fill="white" stroke="black" points="1445,-568.5 1445,-587.5 1552,-587.5 1552,-568.5 1445,-568.5"/>
<text text-anchor="middle" x="1498.5" y="-575.5" font-family="Helvetica,sans-Serif" font-size="10.00">MoFEM::TSMethod</text>
</a>
</g>
</g>
<!-- Node15&#45;&gt;Node28 -->
<g id="edge33" class="edge">
<title>Node15&#45;&gt;Node28</title>
<path fill="none" stroke="darkgreen" d="M1205.66,-383.53C1260.34,-394.23 1339.48,-415.78 1397,-457 1441.84,-489.13 1478.49,-545.89 1491.96,-568.41"/>
<polygon fill="darkgreen" stroke="darkgreen" points="1206.22,-380.08 1195.74,-381.66 1204.92,-386.96 1206.22,-380.08"/>
</g>
<!-- Node16 -->
<g id="node16" class="node">
<title>Node16</title>
<g id="a_node16"><a xlink:href="structMoFEM_1_1UnknownInterface.html" target="_top" xlink:title="base class for all interface classes">
<polygon fill="white" stroke="black" points="735,-59.5 735,-78.5 883,-78.5 883,-59.5 735,-59.5"/>
<text text-anchor="middle" x="809" y="-66.5" font-family="Helvetica,sans-Serif" font-size="10.00">MoFEM::UnknownInterface</text>
</a>
</g>
</g>
<!-- Node16&#45;&gt;Node15 -->
<g id="edge15" class="edge">
<title>Node16&#45;&gt;Node15</title>
<path fill="none" stroke="midnightblue" d="M853.85,-81.71C903.61,-98.63 982.92,-133.65 1022,-194 1041.57,-224.22 1015.52,-328.6 1040,-355 1052.07,-368.02 1070.05,-373.77 1087.47,-375.94"/>
<polygon fill="midnightblue" stroke="midnightblue" points="854.9,-78.38 844.31,-78.57 852.71,-85.02 854.9,-78.38"/>
</g>
<!-- Node56 -->
<g id="node56" class="node">
<title>Node56</title>
<g id="a_node56"><a xlink:href="structMoFEM_1_1CoreInterface.html" target="_top" xlink:title="Interface.">
<polygon fill="white" stroke="black" points="1079,-0.5 1079,-19.5 1204,-19.5 1204,-0.5 1079,-0.5"/>
<text text-anchor="middle" x="1141.5" y="-7.5" font-family="Helvetica,sans-Serif" font-size="10.00">MoFEM::CoreInterface</text>
</a>
</g>
</g>
<!-- Node16&#45;&gt;Node56 -->
<g id="edge67" class="edge">
<title>Node16&#45;&gt;Node56</title>
<path fill="none" stroke="midnightblue" d="M873.52,-57.66C935.53,-46.59 1028.82,-29.94 1087.11,-19.53"/>
<polygon fill="midnightblue" stroke="midnightblue" points="872.7,-54.25 863.47,-59.46 873.93,-61.14 872.7,-54.25"/>
</g>
<!-- Node17 -->
<g id="node17" class="node">
<title>Node17</title>
<g id="a_node17"><a xlink:title=" ">
<polygon fill="white" stroke="#bfbfbf" points="386,-260.5 386,-323.5 627,-323.5 627,-260.5 386,-260.5"/>
<text text-anchor="start" x="394" y="-311.5" font-family="Helvetica,sans-Serif" font-size="10.00">multi_index_container</text>
<text text-anchor="start" x="394" y="-300.5" font-family="Helvetica,sans-Serif" font-size="10.00">&lt; UIdTypeMap, indexed</text>
<text text-anchor="start" x="394" y="-289.5" font-family="Helvetica,sans-Serif" font-size="10.00">_by&lt; hashed_unique&lt; member</text>
<text text-anchor="start" x="394" y="-278.5" font-family="Helvetica,sans-Serif" font-size="10.00">&lt; UIdTypeMap, boost::typeindex</text>
<text text-anchor="middle" x="506.5" y="-267.5" font-family="Helvetica,sans-Serif" font-size="10.00">::type_index, &amp;UIdTypeMap::classIdx &gt; &gt; &gt; &gt;</text>
</a>
</g>
</g>
<!-- Node17&#45;&gt;Node16 -->
<g id="edge16" class="edge">
<title>Node17&#45;&gt;Node16</title>
<path fill="none" stroke="#9a32cd" stroke-dasharray="5,2" d="M558.65,-254.04C629.88,-201.18 754.75,-108.51 795.06,-78.6"/>
<polygon fill="#9a32cd" stroke="#9a32cd" points="556.18,-251.52 550.24,-260.29 560.35,-257.14 556.18,-251.52"/>
<text text-anchor="middle" x="681" y="-191" font-family="Helvetica,sans-Serif" font-size="10.00"> iFaceTypeMap</text>
</g>
<!-- Node18 -->
<g id="node18" class="node">
<title>Node18</title>
<g id="a_node18"><a xlink:title=" ">
<polygon fill="white" stroke="#bfbfbf" points="0,-1173.5 0,-1192.5 125,-1192.5 125,-1173.5 0,-1173.5"/>
<text text-anchor="middle" x="62.5" y="-1180.5" font-family="Helvetica,sans-Serif" font-size="10.00">multi_index_container</text>
</a>
</g>
</g>
<!-- Node18&#45;&gt;Node13 -->
<g id="edge40" class="edge">
<title>Node18&#45;&gt;Node13</title>
<path fill="none" stroke="#9a32cd" stroke-dasharray="5,2" d="M106.74,-1195.31C185.4,-1216.6 357.45,-1258 505.5,-1258 505.5,-1258 505.5,-1258 1142.5,-1258 1444.73,-1258 1616.87,-1277.78 1781,-1024 1802.15,-991.3 1774.01,-703.86 1799,-674 1805.69,-666.01 1814.89,-660.85 1824.8,-657.58"/>
<polygon fill="#9a32cd" stroke="#9a32cd" points="107.29,-1191.84 96.72,-1192.57 105.44,-1198.59 107.29,-1191.84"/>
<text text-anchor="middle" x="961.5" y="-1338" font-family="Helvetica,sans-Serif" font-size="10.00"> adjacenciesPtr</text>
<text text-anchor="middle" x="961.5" y="-1327" font-family="Helvetica,sans-Serif" font-size="10.00">refinedEntitiesPtr</text>
<text text-anchor="middle" x="961.5" y="-1316" font-family="Helvetica,sans-Serif" font-size="10.00">finiteElementsEntitiesPtr</text>
<text text-anchor="middle" x="961.5" y="-1305" font-family="Helvetica,sans-Serif" font-size="10.00">dofsPtr</text>
<text text-anchor="middle" x="961.5" y="-1294" font-family="Helvetica,sans-Serif" font-size="10.00">entitiesPtr</text>
<text text-anchor="middle" x="961.5" y="-1283" font-family="Helvetica,sans-Serif" font-size="10.00">finiteElementsPtr</text>
<text text-anchor="middle" x="961.5" y="-1272" font-family="Helvetica,sans-Serif" font-size="10.00">refinedFiniteElementsPtr</text>
<text text-anchor="middle" x="961.5" y="-1261" font-family="Helvetica,sans-Serif" font-size="10.00">fieldsPtr</text>
</g>
<!-- Node18&#45;&gt;Node17 -->
<g id="edge17" class="edge">
<title>Node18&#45;&gt;Node17</title>
<path fill="none" stroke="orange" stroke-dasharray="5,2" d="M72.85,-1164.16C128.72,-1051.53 418.45,-467.48 489.67,-323.91"/>
<polygon fill="orange" stroke="orange" points="69.62,-1162.78 68.31,-1173.3 75.89,-1165.89 69.62,-1162.78"/>
<text text-anchor="start" x="143" y="-1048" font-family="Helvetica,sans-Serif" font-size="10.00"> &lt; UIdTypeMap, indexed</text>
<text text-anchor="start" x="143" y="-1037" font-family="Helvetica,sans-Serif" font-size="10.00">_by&lt; hashed_unique&lt; member</text>
<text text-anchor="start" x="143" y="-1026" font-family="Helvetica,sans-Serif" font-size="10.00">&lt; UIdTypeMap, boost::typeindex</text>
<text text-anchor="middle" x="255.5" y="-1015" font-family="Helvetica,sans-Serif" font-size="10.00">::type_index, &amp;UIdTypeMap::classIdx &gt; &gt; &gt; &gt;</text>
</g>
<!-- Node19 -->
<g id="node19" class="node">
<title>Node19</title>
<g id="a_node19"><a xlink:title=" ">
<polygon fill="white" stroke="#bfbfbf" points="738.5,-277.5 738.5,-296.5 879.5,-296.5 879.5,-277.5 738.5,-277.5"/>
<text text-anchor="middle" x="809" y="-284.5" font-family="Helvetica,sans-Serif" font-size="10.00">static constexpr Switches</text>
</a>
</g>
</g>
<!-- Node19&#45;&gt;Node15 -->
<g id="edge18" class="edge">
<title>Node19&#45;&gt;Node15</title>
<path fill="none" stroke="#9a32cd" stroke-dasharray="5,2" d="M860.04,-275.78C906.83,-268.36 976.17,-265.61 1022,-301 1042.02,-316.46 1020.95,-338.36 1040,-355 1052.97,-366.33 1070.54,-371.8 1087.36,-374.23"/>
<polygon fill="#9a32cd" stroke="#9a32cd" points="859.4,-272.34 850.13,-277.48 860.58,-279.24 859.4,-272.34"/>
<text text-anchor="middle" x="961.5" y="-381" font-family="Helvetica,sans-Serif" font-size="10.00"> CtxSetX_TT</text>
<text text-anchor="middle" x="961.5" y="-370" font-family="Helvetica,sans-Serif" font-size="10.00">CtxSetX_T</text>
<text text-anchor="middle" x="961.5" y="-359" font-family="Helvetica,sans-Serif" font-size="10.00">CtxSetA</text>
<text text-anchor="middle" x="961.5" y="-348" font-family="Helvetica,sans-Serif" font-size="10.00">CtxSetB</text>
<text text-anchor="middle" x="961.5" y="-337" font-family="Helvetica,sans-Serif" font-size="10.00">CtxSetTime</text>
<text text-anchor="middle" x="961.5" y="-326" font-family="Helvetica,sans-Serif" font-size="10.00">CtxSetNone</text>
<text text-anchor="middle" x="961.5" y="-315" font-family="Helvetica,sans-Serif" font-size="10.00">CtxSetF</text>
<text text-anchor="middle" x="961.5" y="-304" font-family="Helvetica,sans-Serif" font-size="10.00">CtxSetX</text>
</g>
<!-- Node20 -->
<g id="node20" class="node">
<title>Node20</title>
<g id="a_node20"><a xlink:title=" ">
<polygon fill="white" stroke="#bfbfbf" points="791.5,-190.5 791.5,-209.5 826.5,-209.5 826.5,-190.5 791.5,-190.5"/>
<text text-anchor="middle" x="809" y="-197.5" font-family="Helvetica,sans-Serif" font-size="10.00">Mat</text>
</a>
</g>
</g>
<!-- Node20&#45;&gt;Node14 -->
<g id="edge24" class="edge">
<title>Node20&#45;&gt;Node14</title>
<path fill="none" stroke="#9a32cd" stroke-dasharray="5,2" d="M836.57,-195.4C905.42,-184.5 1094.58,-161.11 1243,-204 1347.14,-234.1 1452.5,-317.16 1486.33,-345.43"/>
<polygon fill="#9a32cd" stroke="#9a32cd" points="835.88,-191.97 826.58,-197.03 837.01,-198.87 835.88,-191.97"/>
<text text-anchor="middle" x="1141.5" y="-218" font-family="Helvetica,sans-Serif" font-size="10.00"> ksp_A</text>
<text text-anchor="middle" x="1141.5" y="-207" font-family="Helvetica,sans-Serif" font-size="10.00">ksp_B</text>
</g>
<!-- Node20&#45;&gt;Node15 -->
<g id="edge19" class="edge">
<title>Node20&#45;&gt;Node15</title>
<path fill="none" stroke="#9a32cd" stroke-dasharray="5,2" d="M836.93,-197.13C882.19,-193.94 973.32,-194.82 1022,-246 1055.84,-281.58 1005.69,-319.88 1040,-355 1052.29,-367.57 1070.1,-373.26 1087.33,-375.51"/>
<polygon fill="#9a32cd" stroke="#9a32cd" points="836.4,-193.66 826.72,-197.98 836.98,-200.64 836.4,-193.66"/>
<text text-anchor="middle" x="961.5" y="-260" font-family="Helvetica,sans-Serif" font-size="10.00"> A</text>
<text text-anchor="middle" x="961.5" y="-249" font-family="Helvetica,sans-Serif" font-size="10.00">B</text>
</g>
<!-- Node20&#45;&gt;Node25 -->
<g id="edge29" class="edge">
<title>Node20&#45;&gt;Node25</title>
<path fill="none" stroke="#9a32cd" stroke-dasharray="5,2" d="M835.07,-185.45C876.22,-162.51 961.38,-118.9 1040,-103 1128.43,-85.12 1152.95,-97.47 1243,-103 1311.83,-107.23 1347.57,-73.91 1397,-122 1435.34,-159.3 1378.65,-201.76 1415,-241 1421.39,-247.9 1429.75,-252.54 1438.68,-255.61"/>
<polygon fill="#9a32cd" stroke="#9a32cd" points="833.27,-182.45 826.28,-190.42 836.71,-188.55 833.27,-182.45"/>
<text text-anchor="middle" x="1141.5" y="-117" font-family="Helvetica,sans-Serif" font-size="10.00"> snes_A</text>
<text text-anchor="middle" x="1141.5" y="-106" font-family="Helvetica,sans-Serif" font-size="10.00">snes_B</text>
</g>
<!-- Node20&#45;&gt;Node28 -->
<g id="edge34" class="edge">
<title>Node20&#45;&gt;Node28</title>
<path fill="none" stroke="#9a32cd" stroke-dasharray="5,2" d="M833.54,-215.5C850.11,-227.73 871.34,-246.3 883,-268 906.03,-310.87 867.68,-340.54 901,-376 938.8,-416.23 979.51,-368.77 1022,-404 1037.32,-416.7 1024.21,-432.89 1040,-445 1076.21,-472.77 1197.94,-468.76 1243,-476 1311.53,-487.02 1333.27,-474.5 1397,-502 1434.96,-518.38 1471.65,-552 1488.25,-568.47"/>
<polygon fill="#9a32cd" stroke="#9a32cd" points="835.55,-212.64 825.37,-209.7 831.5,-218.35 835.55,-212.64"/>
<text text-anchor="middle" x="1141.5" y="-490" font-family="Helvetica,sans-Serif" font-size="10.00"> ts_A</text>
<text text-anchor="middle" x="1141.5" y="-479" font-family="Helvetica,sans-Serif" font-size="10.00">ts_B</text>
</g>
<!-- Node21 -->
<g id="node21" class="node">
<title>Node21</title>
<g id="a_node21"><a xlink:title=" ">
<polygon fill="white" stroke="#bfbfbf" points="772.5,-413.5 772.5,-432.5 845.5,-432.5 845.5,-413.5 772.5,-413.5"/>
<text text-anchor="middle" x="809" y="-420.5" font-family="Helvetica,sans-Serif" font-size="10.00">bitset&lt; 8 &gt;</text>
</a>
</g>
</g>
<!-- Node21&#45;&gt;Node15 -->
<g id="edge20" class="edge">
<title>Node21&#45;&gt;Node15</title>
<path fill="none" stroke="#9a32cd" stroke-dasharray="5,2" d="M855.72,-416.22C916.35,-407.23 1023.14,-391.4 1087.3,-381.89"/>
<polygon fill="#9a32cd" stroke="#9a32cd" points="855.06,-412.78 845.68,-417.71 856.09,-419.71 855.06,-412.78"/>
<text text-anchor="middle" x="961.5" y="-412" font-family="Helvetica,sans-Serif" font-size="10.00"> data_ctx</text>
</g>
<!-- Node22 -->
<g id="node22" class="node">
<title>Node22</title>
<g id="a_node22"><a xlink:title=" ">
<polygon fill="white" stroke="#bfbfbf" points="792,-479.5 792,-498.5 826,-498.5 826,-479.5 792,-479.5"/>
<text text-anchor="middle" x="809" y="-486.5" font-family="Helvetica,sans-Serif" font-size="10.00">Vec</text>
</a>
</g>
</g>
<!-- Node22&#45;&gt;Node14 -->
<g id="edge25" class="edge">
<title>Node22&#45;&gt;Node14</title>
<path fill="none" stroke="#9a32cd" stroke-dasharray="5,2" d="M835.67,-500.36C878.98,-517.6 967.22,-544.17 1022,-502 1046.77,-482.93 1016.78,-454.94 1040,-434 1069.82,-407.11 1357.57,-385.59 1397,-378 1417.39,-374.07 1439.93,-368.98 1458.5,-364.59"/>
<polygon fill="#9a32cd" stroke="#9a32cd" points="836.73,-497.02 826.15,-496.43 834.06,-503.49 836.73,-497.02"/>
<text text-anchor="middle" x="1141.5" y="-437" font-family="Helvetica,sans-Serif" font-size="10.00"> ksp_f</text>
</g>
<!-- Node22&#45;&gt;Node15 -->
<g id="edge21" class="edge">
<title>Node22&#45;&gt;Node15</title>
<path fill="none" stroke="#9a32cd" stroke-dasharray="5,2" d="M835.6,-479.86C853.77,-473.48 878.78,-464.9 901,-458 954.35,-441.43 976.52,-456.44 1022,-424 1033.44,-415.84 1028.4,-405.93 1040,-398 1053.92,-388.48 1071.17,-382.72 1087.42,-379.23"/>
<polygon fill="#9a32cd" stroke="#9a32cd" points="834.29,-476.62 826.02,-483.25 836.62,-483.22 834.29,-476.62"/>
<text text-anchor="middle" x="961.5" y="-494" font-family="Helvetica,sans-Serif" font-size="10.00"> f</text>
<text text-anchor="middle" x="961.5" y="-483" font-family="Helvetica,sans-Serif" font-size="10.00">x</text>
<text text-anchor="middle" x="961.5" y="-472" font-family="Helvetica,sans-Serif" font-size="10.00">x_t</text>
<text text-anchor="middle" x="961.5" y="-461" font-family="Helvetica,sans-Serif" font-size="10.00">x_tt</text>
</g>
<!-- Node22&#45;&gt;Node25 -->
<g id="edge30" class="edge">
<title>Node22&#45;&gt;Node25</title>
<path fill="none" stroke="#9a32cd" stroke-dasharray="5,2" d="M835.78,-479.32C852.15,-471.75 872.22,-459.55 883,-442 903.35,-408.88 873.18,-295.15 901,-268 938.84,-231.06 1296.01,-247.97 1438.87,-256.32"/>
<polygon fill="#9a32cd" stroke="#9a32cd" points="833.99,-476.28 826.18,-483.44 836.75,-482.71 833.99,-476.28"/>
<text text-anchor="middle" x="1141.5" y="-262" font-family="Helvetica,sans-Serif" font-size="10.00"> snes_x</text>
<text text-anchor="middle" x="1141.5" y="-251" font-family="Helvetica,sans-Serif" font-size="10.00">snes_f</text>
</g>
<!-- Node22&#45;&gt;Node28 -->
<g id="edge38" class="edge">
<title>Node22&#45;&gt;Node28</title>
<path fill="none" stroke="#9a32cd" stroke-dasharray="5,2" d="M830.9,-504.82C869.63,-533.03 956.23,-591.01 1040,-612 1193.91,-650.57 1240.37,-635.38 1397,-610 1424.29,-605.58 1454.35,-595.24 1474.42,-587.5"/>
<polygon fill="#9a32cd" stroke="#9a32cd" points="832.66,-501.77 822.54,-498.65 828.51,-507.4 832.66,-501.77"/>
<text text-anchor="middle" x="1141.5" y="-671" font-family="Helvetica,sans-Serif" font-size="10.00"> ts_u</text>
<text text-anchor="middle" x="1141.5" y="-660" font-family="Helvetica,sans-Serif" font-size="10.00">ts_F</text>
<text text-anchor="middle" x="1141.5" y="-649" font-family="Helvetica,sans-Serif" font-size="10.00">ts_u_t</text>
<text text-anchor="middle" x="1141.5" y="-638" font-family="Helvetica,sans-Serif" font-size="10.00">ts_u_tt</text>
</g>
<!-- Node23 -->
<g id="node23" class="node">
<title>Node23</title>
<g id="a_node23"><a xlink:title=" ">
<polygon fill="white" stroke="#bfbfbf" points="1124,-326.5 1124,-345.5 1159,-345.5 1159,-326.5 1124,-326.5"/>
<text text-anchor="middle" x="1141.5" y="-333.5" font-family="Helvetica,sans-Serif" font-size="10.00">KSP</text>
</a>
</g>
</g>
<!-- Node23&#45;&gt;Node14 -->
<g id="edge22" class="edge">
<title>Node23&#45;&gt;Node14</title>
<path fill="none" stroke="#9a32cd" stroke-dasharray="5,2" d="M1169.32,-336.61C1215.74,-337.77 1314.07,-340.66 1397,-346 1411.6,-346.94 1427.36,-348.22 1441.98,-349.53"/>
<polygon fill="#9a32cd" stroke="#9a32cd" points="1169.27,-333.11 1159.19,-336.37 1169.1,-340.11 1169.27,-333.11"/>
<text text-anchor="middle" x="1329" y="-349" font-family="Helvetica,sans-Serif" font-size="10.00"> ksp</text>
</g>
<!-- Node24 -->
<g id="node24" class="node">
<title>Node24</title>
<g id="a_node24"><a xlink:title=" ">
<polygon fill="white" stroke="#bfbfbf" points="1104.5,-288.5 1104.5,-307.5 1178.5,-307.5 1178.5,-288.5 1104.5,-288.5"/>
<text text-anchor="middle" x="1141.5" y="-295.5" font-family="Helvetica,sans-Serif" font-size="10.00">KSPContext</text>
</a>
</g>
</g>
<!-- Node24&#45;&gt;Node14 -->
<g id="edge23" class="edge">
<title>Node24&#45;&gt;Node14</title>
<path fill="none" stroke="#9a32cd" stroke-dasharray="5,2" d="M1188.75,-300.34C1240.04,-303.53 1325.06,-310.58 1397,-325 1422.35,-330.08 1450.5,-338.76 1470.54,-345.48"/>
<polygon fill="#9a32cd" stroke="#9a32cd" points="1188.83,-296.84 1178.64,-299.73 1188.41,-303.82 1188.83,-296.84"/>
<text text-anchor="middle" x="1329" y="-328" font-family="Helvetica,sans-Serif" font-size="10.00"> ksp_ctx</text>
</g>
<!-- Node25&#45;&gt;Node13 -->
<g id="edge26" class="edge">
<title>Node25&#45;&gt;Node13</title>
<path fill="none" stroke="midnightblue" d="M1539.26,-273.08C1602.4,-296.13 1724.26,-350.44 1781,-442 1818.46,-502.45 1760.89,-540.96 1799,-601 1812.35,-622.03 1837.35,-636.03 1856.97,-644.34"/>
<polygon fill="midnightblue" stroke="midnightblue" points="1540.24,-269.71 1529.65,-269.65 1537.89,-276.31 1540.24,-269.71"/>
</g>
<!-- Node26 -->
<g id="node26" class="node">
<title>Node26</title>
<g id="a_node26"><a xlink:title=" ">
<polygon fill="white" stroke="#bfbfbf" points="1120.5,-38.5 1120.5,-57.5 1162.5,-57.5 1162.5,-38.5 1120.5,-38.5"/>
<text text-anchor="middle" x="1141.5" y="-45.5" font-family="Helvetica,sans-Serif" font-size="10.00">SNES</text>
</a>
</g>
</g>
<!-- Node26&#45;&gt;Node25 -->
<g id="edge28" class="edge">
<title>Node26&#45;&gt;Node25</title>
<path fill="none" stroke="#9a32cd" stroke-dasharray="5,2" d="M1172.57,-45.92C1232.96,-42.46 1365.91,-38.58 1397,-69 1424.47,-95.88 1389.53,-212.22 1415,-241 1421.33,-248.15 1429.77,-252.9 1438.83,-256"/>
<polygon fill="#9a32cd" stroke="#9a32cd" points="1172.28,-42.44 1162.51,-46.54 1172.7,-49.42 1172.28,-42.44"/>
<text text-anchor="middle" x="1329" y="-72" font-family="Helvetica,sans-Serif" font-size="10.00"> snes</text>
</g>
<!-- Node27 -->
<g id="node27" class="node">
<title>Node27</title>
<g id="a_node27"><a xlink:title=" ">
<polygon fill="white" stroke="#bfbfbf" points="1101.5,-134.5 1101.5,-153.5 1181.5,-153.5 1181.5,-134.5 1101.5,-134.5"/>
<text text-anchor="middle" x="1141.5" y="-141.5" font-family="Helvetica,sans-Serif" font-size="10.00">SNESContext</text>
</a>
</g>
</g>
<!-- Node27&#45;&gt;Node25 -->
<g id="edge31" class="edge">
<title>Node27&#45;&gt;Node25</title>
<path fill="none" stroke="#9a32cd" stroke-dasharray="5,2" d="M1191.98,-132.53C1248.53,-122.57 1340.52,-116.42 1397,-165 1423.32,-187.63 1390.38,-216.53 1415,-241 1421.57,-247.53 1429.9,-251.99 1438.73,-255.02"/>
<polygon fill="#9a32cd" stroke="#9a32cd" points="1191.04,-129.14 1181.85,-134.42 1192.33,-136.03 1191.04,-129.14"/>
<text text-anchor="middle" x="1329" y="-168" font-family="Helvetica,sans-Serif" font-size="10.00"> snes_ctx</text>
</g>
<!-- Node28&#45;&gt;Node13 -->
<g id="edge32" class="edge">
<title>Node28&#45;&gt;Node13</title>
<path fill="none" stroke="midnightblue" d="M1557.85,-589.5C1634.02,-604.52 1765.95,-630.53 1836.76,-644.49"/>
<polygon fill="midnightblue" stroke="midnightblue" points="1558.42,-586.05 1547.93,-587.55 1557.07,-592.92 1558.42,-586.05"/>
</g>
<!-- Node29 -->
<g id="node29" class="node">
<title>Node29</title>
<g id="a_node29"><a xlink:title=" ">
<polygon fill="white" stroke="#bfbfbf" points="1109,-545.5 1109,-564.5 1174,-564.5 1174,-545.5 1109,-545.5"/>
<text text-anchor="middle" x="1141.5" y="-552.5" font-family="Helvetica,sans-Serif" font-size="10.00">PetscReal</text>
</a>
</g>
</g>
<!-- Node29&#45;&gt;Node28 -->
<g id="edge35" class="edge">
<title>Node29&#45;&gt;Node28</title>
<path fill="none" stroke="#9a32cd" stroke-dasharray="5,2" d="M1184.02,-547.64C1234.68,-539.9 1322.74,-530.44 1397,-543 1425.42,-547.81 1456.52,-559.75 1476.48,-568.35"/>
<polygon fill="#9a32cd" stroke="#9a32cd" points="1183.44,-544.19 1174.1,-549.21 1184.53,-551.1 1183.44,-544.19"/>
<text text-anchor="middle" x="1329" y="-579" font-family="Helvetica,sans-Serif" font-size="10.00"> ts_a</text>
<text text-anchor="middle" x="1329" y="-568" font-family="Helvetica,sans-Serif" font-size="10.00">ts_t</text>
<text text-anchor="middle" x="1329" y="-557" font-family="Helvetica,sans-Serif" font-size="10.00">ts_dt</text>
<text text-anchor="middle" x="1329" y="-546" font-family="Helvetica,sans-Serif" font-size="10.00">ts_aa</text>
</g>
<!-- Node30 -->
<g id="node30" class="node">
<title>Node30</title>
<g id="a_node30"><a xlink:title=" ">
<polygon fill="white" stroke="#bfbfbf" points="1108,-507.5 1108,-526.5 1175,-526.5 1175,-507.5 1108,-507.5"/>
<text text-anchor="middle" x="1141.5" y="-514.5" font-family="Helvetica,sans-Serif" font-size="10.00">TSContext</text>
</a>
</g>
</g>
<!-- Node30&#45;&gt;Node28 -->
<g id="edge36" class="edge">
<title>Node30&#45;&gt;Node28</title>
<path fill="none" stroke="#9a32cd" stroke-dasharray="5,2" d="M1185.43,-511.31C1236.76,-505.94 1324.8,-501.34 1397,-521 1431.84,-530.49 1467.37,-554.81 1485.4,-568.42"/>
<polygon fill="#9a32cd" stroke="#9a32cd" points="1184.92,-507.84 1175.36,-512.42 1185.68,-514.8 1184.92,-507.84"/>
<text text-anchor="middle" x="1329" y="-524" font-family="Helvetica,sans-Serif" font-size="10.00"> ts_ctx</text>
</g>
<!-- Node31 -->
<g id="node31" class="node">
<title>Node31</title>
<g id="a_node31"><a xlink:title=" ">
<polygon fill="white" stroke="#bfbfbf" points="1113.5,-701.5 1113.5,-720.5 1169.5,-720.5 1169.5,-701.5 1113.5,-701.5"/>
<text text-anchor="middle" x="1141.5" y="-708.5" font-family="Helvetica,sans-Serif" font-size="10.00">PetscInt</text>
</a>
</g>
</g>
<!-- Node31&#45;&gt;Node28 -->
<g id="edge37" class="edge">
<title>Node31&#45;&gt;Node28</title>
<path fill="none" stroke="#9a32cd" stroke-dasharray="5,2" d="M1179.63,-706.02C1199.17,-702.46 1223.12,-696.55 1243,-687 1252.14,-682.61 1251.72,-677.08 1261,-673 1317.12,-648.32 1340.41,-673.57 1397,-650 1434.05,-634.57 1470.6,-603.26 1487.61,-587.51"/>
<polygon fill="#9a32cd" stroke="#9a32cd" points="1178.85,-702.61 1169.57,-707.73 1180.02,-709.51 1178.85,-702.61"/>
<text text-anchor="middle" x="1329" y="-676" font-family="Helvetica,sans-Serif" font-size="10.00"> ts_step</text>
</g>
<!-- Node32 -->
<g id="node32" class="node">
<title>Node32</title>
<g id="a_node32"><a xlink:title=" ">
<polygon fill="white" stroke="#bfbfbf" points="1127,-583.5 1127,-602.5 1156,-602.5 1156,-583.5 1127,-583.5"/>
<text text-anchor="middle" x="1141.5" y="-590.5" font-family="Helvetica,sans-Serif" font-size="10.00">TS</text>
</a>
</g>
</g>
<!-- Node32&#45;&gt;Node28 -->
<g id="edge39" class="edge">
<title>Node32&#45;&gt;Node28</title>
<path fill="none" stroke="#9a32cd" stroke-dasharray="5,2" d="M1166.25,-593.77C1211.3,-595.01 1312.27,-596.79 1397,-591 1412.62,-589.93 1429.53,-588.04 1444.94,-586.02"/>
<polygon fill="#9a32cd" stroke="#9a32cd" points="1166.14,-590.26 1156.04,-593.47 1165.93,-597.26 1166.14,-590.26"/>
<text text-anchor="middle" x="1329" y="-598" font-family="Helvetica,sans-Serif" font-size="10.00"> ts</text>
</g>
<!-- Node33 -->
<g id="node33" class="node">
<title>Node33</title>
<g id="a_node33"><a xlink:title=" ">
<polygon fill="white" stroke="#bfbfbf" points="1454,-212.5 1454,-231.5 1543,-231.5 1543,-212.5 1454,-212.5"/>
<text text-anchor="middle" x="1498.5" y="-219.5" font-family="Helvetica,sans-Serif" font-size="10.00">pair&lt; int, int &gt;</text>
</a>
</g>
</g>
<!-- Node33&#45;&gt;Node13 -->
<g id="edge41" class="edge">
<title>Node33&#45;&gt;Node13</title>
<path fill="none" stroke="#9a32cd" stroke-dasharray="5,2" d="M1553.04,-216.87C1617.93,-213.95 1725.46,-220.35 1781,-286 1826.28,-339.53 1763.08,-540.78 1799,-601 1811.67,-622.24 1836.47,-636.16 1856.2,-644.38"/>
<polygon fill="#9a32cd" stroke="#9a32cd" points="1552.8,-213.38 1543,-217.41 1553.18,-220.37 1552.8,-213.38"/>
<text text-anchor="middle" x="1690.5" y="-289" font-family="Helvetica,sans-Serif" font-size="10.00"> loHiFERank</text>
</g>
<!-- Node34 -->
<g id="node34" class="node">
<title>Node34</title>
<g id="a_node34"><a xlink:title=" ">
<polygon fill="white" stroke="#bfbfbf" points="1428.5,-174.5 1428.5,-193.5 1568.5,-193.5 1568.5,-174.5 1428.5,-174.5"/>
<text text-anchor="middle" x="1498.5" y="-181.5" font-family="Helvetica,sans-Serif" font-size="10.00">weak_ptr&lt; CacheTuple &gt;</text>
</a>
</g>
</g>
<!-- Node34&#45;&gt;Node13 -->
<g id="edge42" class="edge">
<title>Node34&#45;&gt;Node13</title>
<path fill="none" stroke="#9a32cd" stroke-dasharray="5,2" d="M1539.98,-171.91C1601.58,-156.29 1718.29,-138.1 1781,-202 1812.08,-233.67 1776.5,-562.75 1799,-601 1811.54,-622.31 1836.35,-636.23 1856.12,-644.43"/>
<polygon fill="#9a32cd" stroke="#9a32cd" points="1539,-168.55 1530.23,-174.48 1540.79,-175.32 1539,-168.55"/>
<text text-anchor="middle" x="1690.5" y="-205" font-family="Helvetica,sans-Serif" font-size="10.00"> cacheWeakPtr</text>
</g>
<!-- Node35 -->
<g id="node35" class="node">
<title>Node35</title>
<g id="a_node35"><a xlink:title=" ">
<polygon fill="white" stroke="#bfbfbf" points="1442.5,-978.5 1442.5,-997.5 1554.5,-997.5 1554.5,-978.5 1442.5,-978.5"/>
<text text-anchor="middle" x="1498.5" y="-985.5" font-family="Helvetica,sans-Serif" font-size="10.00">unique_ptr&lt; bool &gt;</text>
</a>
</g>
</g>
<!-- Node35&#45;&gt;Node13 -->
<g id="edge43" class="edge">
<title>Node35&#45;&gt;Node13</title>
<path fill="none" stroke="#9a32cd" stroke-dasharray="5,2" d="M1564.81,-997.01C1629.88,-1001.92 1727.57,-997.52 1781,-938 1820.28,-894.24 1760.89,-718.78 1799,-674 1805.76,-666.06 1814.99,-660.93 1824.91,-657.67"/>
<polygon fill="#9a32cd" stroke="#9a32cd" points="1564.92,-993.51 1554.66,-996.15 1564.33,-1000.48 1564.92,-993.51"/>
<text text-anchor="middle" x="1690.5" y="-1012" font-family="Helvetica,sans-Serif" font-size="10.00"> matAssembleSwitch</text>
<text text-anchor="middle" x="1690.5" y="-1001" font-family="Helvetica,sans-Serif" font-size="10.00">vecAssembleSwitch</text>
</g>
<!-- Node36 -->
<g id="node36" class="node">
<title>Node36</title>
<g id="a_node36"><a xlink:title=" ">
<polygon fill="white" stroke="#bfbfbf" points="1127,-739.5 1127,-758.5 1156,-758.5 1156,-739.5 1127,-739.5"/>
<text text-anchor="middle" x="1141.5" y="-746.5" font-family="Helvetica,sans-Serif" font-size="10.00">int</text>
</a>
</g>
</g>
<!-- Node36&#45;&gt;Node13 -->
<g id="edge44" class="edge">
<title>Node36&#45;&gt;Node13</title>
<path fill="none" stroke="#9a32cd" stroke-dasharray="5,2" d="M1166.08,-748.44C1187.31,-747.06 1218.8,-742.79 1243,-730 1253,-724.71 1250.76,-716.81 1261,-712 1311.29,-688.38 1678.55,-665.53 1824.98,-657.26"/>
<polygon fill="#9a32cd" stroke="#9a32cd" points="1165.83,-744.95 1156.01,-748.93 1166.16,-751.94 1165.83,-744.95"/>
<text text-anchor="middle" x="1498.5" y="-722" font-family="Helvetica,sans-Serif" font-size="10.00"> sIze</text>
<text text-anchor="middle" x="1498.5" y="-711" font-family="Helvetica,sans-Serif" font-size="10.00">loopSize</text>
<text text-anchor="middle" x="1498.5" y="-700" font-family="Helvetica,sans-Serif" font-size="10.00">nInTheLoop</text>
<text text-anchor="middle" x="1498.5" y="-689" font-family="Helvetica,sans-Serif" font-size="10.00">rAnk</text>
</g>
<!-- Node36&#45;&gt;Node38 -->
<g id="edge56" class="edge">
<title>Node36&#45;&gt;Node38</title>
<path fill="none" stroke="#9a32cd" stroke-dasharray="5,2" d="M1166.16,-743.81C1189.97,-738.86 1227.83,-731.78 1261,-729 1321.23,-723.95 1348.51,-692.92 1397,-729 1419.34,-745.62 1404.61,-763.17 1415,-789 1439.03,-848.73 1477.48,-916.04 1491.84,-940.49"/>
<polygon fill="#9a32cd" stroke="#9a32cd" points="1165.33,-740.41 1156.27,-745.9 1166.78,-747.25 1165.33,-740.41"/>
<text text-anchor="middle" x="1329" y="-798" font-family="Helvetica,sans-Serif" font-size="10.00"> tagNameSize</text>
<text text-anchor="middle" x="1329" y="-787" font-family="Helvetica,sans-Serif" font-size="10.00">nbDofsRow</text>
<text text-anchor="middle" x="1329" y="-776" font-family="Helvetica,sans-Serif" font-size="10.00">nbLocDofsCol</text>
<text text-anchor="middle" x="1329" y="-765" font-family="Helvetica,sans-Serif" font-size="10.00">nbDofsCol</text>
<text text-anchor="middle" x="1329" y="-754" font-family="Helvetica,sans-Serif" font-size="10.00">nbGhostDofsRow</text>
<text text-anchor="middle" x="1329" y="-743" font-family="Helvetica,sans-Serif" font-size="10.00">nbGhostDofsCol</text>
<text text-anchor="middle" x="1329" y="-732" font-family="Helvetica,sans-Serif" font-size="10.00">nbLocDofsRow</text>
</g>
<!-- Node37 -->
<g id="node37" class="node">
<title>Node37</title>
<g id="a_node37"><a xlink:title=" ">
<polygon fill="white" stroke="#bfbfbf" points="1415,-760.5 1415,-779.5 1582,-779.5 1582,-760.5 1415,-760.5"/>
<text text-anchor="middle" x="1498.5" y="-767.5" font-family="Helvetica,sans-Serif" font-size="10.00">function&lt; MoFEMErrorCode()&gt;</text>
</a>
</g>
</g>
<!-- Node37&#45;&gt;Node13 -->
<g id="edge45" class="edge">
<title>Node37&#45;&gt;Node13</title>
<path fill="none" stroke="#9a32cd" stroke-dasharray="5,2" d="M1592.35,-771.32C1651.91,-767.6 1727.77,-753.81 1781,-712 1795.7,-700.46 1784.45,-685.73 1799,-674 1806.52,-667.94 1815.54,-663.65 1824.88,-660.63"/>
<polygon fill="#9a32cd" stroke="#9a32cd" points="1591.98,-767.83 1582.19,-771.87 1592.36,-774.82 1591.98,-767.83"/>
<text text-anchor="middle" x="1690.5" y="-795" font-family="Helvetica,sans-Serif" font-size="10.00"> preProcessHook</text>
<text text-anchor="middle" x="1690.5" y="-784" font-family="Helvetica,sans-Serif" font-size="10.00">operatorHook</text>
<text text-anchor="middle" x="1690.5" y="-773" font-family="Helvetica,sans-Serif" font-size="10.00">postProcessHook</text>
</g>
<!-- Node38&#45;&gt;Node13 -->
<g id="edge46" class="edge">
<title>Node38&#45;&gt;Node13</title>
<path fill="none" stroke="#9a32cd" stroke-dasharray="5,2" d="M1555.71,-938.01C1621.17,-920.9 1727.18,-882.77 1781,-807 1815.54,-758.37 1758.85,-718.11 1799,-674 1805.91,-666.4 1815.1,-661.42 1824.89,-658.19"/>
<polygon fill="#9a32cd" stroke="#9a32cd" points="1554.8,-934.63 1545.97,-940.48 1556.52,-941.42 1554.8,-934.63"/>
<text text-anchor="middle" x="1690.5" y="-926" font-family="Helvetica,sans-Serif" font-size="10.00"> problemPtr</text>
</g>
<!-- Node39 -->
<g id="node39" class="node">
<title>Node39</title>
<g id="a_node39"><a xlink:title=" ">
<polygon fill="white" stroke="#bfbfbf" points="1058,-908 1058,-938 1225,-938 1225,-908 1058,-908"/>
<text text-anchor="start" x="1066" y="-926" font-family="Helvetica,sans-Serif" font-size="10.00">shared_ptr&lt; NumeredEntFinite</text>
<text text-anchor="middle" x="1141.5" y="-915" font-family="Helvetica,sans-Serif" font-size="10.00">Element_multiIndex &gt;</text>
</a>
</g>
</g>
<!-- Node39&#45;&gt;Node38 -->
<g id="edge47" class="edge">
<title>Node39&#45;&gt;Node38</title>
<path fill="none" stroke="#9a32cd" stroke-dasharray="5,2" d="M1235.19,-928.47C1283.46,-931.5 1343.44,-935.55 1397,-940 1413.95,-941.41 1432.48,-943.19 1448.97,-944.85"/>
<polygon fill="#9a32cd" stroke="#9a32cd" points="1235.27,-924.96 1225.07,-927.83 1234.84,-931.95 1235.27,-924.96"/>
<text text-anchor="middle" x="1329" y="-943" font-family="Helvetica,sans-Serif" font-size="10.00"> numeredFiniteElementsPtr</text>
</g>
<!-- Node40 -->
<g id="node40" class="node">
<title>Node40</title>
<g id="a_node40"><a xlink:title=" ">
<polygon fill="white" stroke="#bfbfbf" points="1112,-869.5 1112,-888.5 1171,-888.5 1171,-869.5 1112,-869.5"/>
<text text-anchor="middle" x="1141.5" y="-876.5" font-family="Helvetica,sans-Serif" font-size="10.00">BitFEId *</text>
</a>
</g>
</g>
<!-- Node40&#45;&gt;Node38 -->
<g id="edge48" class="edge">
<title>Node40&#45;&gt;Node38</title>
<path fill="none" stroke="#9a32cd" stroke-dasharray="5,2" d="M1181.19,-882.11C1231.45,-886.69 1321.69,-896.74 1397,-915 1424.11,-921.57 1454.21,-932.57 1474.33,-940.48"/>
<polygon fill="#9a32cd" stroke="#9a32cd" points="1181.36,-878.61 1171.09,-881.22 1180.74,-885.59 1181.36,-878.61"/>
<text text-anchor="middle" x="1329" y="-918" font-family="Helvetica,sans-Serif" font-size="10.00"> tagBitFEId</text>
</g>
<!-- Node41 -->
<g id="node41" class="node">
<title>Node41</title>
<g id="a_node41"><a xlink:href="classEntityHandle.html" target="_top" xlink:title=" ">
<polygon fill="white" stroke="black" points="1101.5,-831.5 1101.5,-850.5 1181.5,-850.5 1181.5,-831.5 1101.5,-831.5"/>
<text text-anchor="middle" x="1141.5" y="-838.5" font-family="Helvetica,sans-Serif" font-size="10.00">EntityHandle</text>
</a>
</g>
</g>
<!-- Node41&#45;&gt;Node38 -->
<g id="edge49" class="edge">
<title>Node41&#45;&gt;Node38</title>
<path fill="none" stroke="#9a32cd" stroke-dasharray="5,2" d="M1191.62,-840.66C1244.27,-841.89 1329.4,-848.55 1397,-876 1434.74,-891.32 1471.25,-924.05 1487.98,-940.35"/>
<polygon fill="#9a32cd" stroke="#9a32cd" points="1191.59,-837.16 1181.53,-840.48 1191.47,-844.16 1191.59,-837.16"/>
<text text-anchor="middle" x="1329" y="-879" font-family="Helvetica,sans-Serif" font-size="10.00"> meshset</text>
</g>
<!-- Node42 -->
<g id="node42" class="node">
<title>Node42</title>
<g id="a_node42"><a xlink:title=" ">
<polygon fill="white" stroke="#bfbfbf" points="1067,-782 1067,-812 1216,-812 1216,-782 1067,-782"/>
<text text-anchor="start" x="1075" y="-800" font-family="Helvetica,sans-Serif" font-size="10.00">shared_ptr&lt; MoFEM::</text>
<text text-anchor="middle" x="1141.5" y="-789" font-family="Helvetica,sans-Serif" font-size="10.00">ComposedProblemsData &gt;</text>
</a>
</g>
</g>
<!-- Node42&#45;&gt;Node38 -->
<g id="edge50" class="edge">
<title>Node42&#45;&gt;Node38</title>
<path fill="none" stroke="#9a32cd" stroke-dasharray="5,2" d="M1226.38,-806.4C1297.59,-814.61 1389.42,-825.85 1397,-830 1445.62,-856.64 1480.57,-917.02 1492.76,-940.46"/>
<polygon fill="#9a32cd" stroke="#9a32cd" points="1226.37,-802.88 1216.04,-805.21 1225.57,-809.83 1226.37,-802.88"/>
<text text-anchor="middle" x="1329" y="-833" font-family="Helvetica,sans-Serif" font-size="10.00"> composedProblemsData</text>
</g>
<!-- Node43 -->
<g id="node43" class="node">
<title>Node43</title>
<g id="a_node43"><a xlink:title=" ">
<polygon fill="white" stroke="#bfbfbf" points="1101,-1171.5 1101,-1190.5 1182,-1190.5 1182,-1171.5 1101,-1171.5"/>
<text text-anchor="middle" x="1141.5" y="-1178.5" font-family="Helvetica,sans-Serif" font-size="10.00">BitRefLevel *</text>
</a>
</g>
</g>
<!-- Node43&#45;&gt;Node38 -->
<g id="edge51" class="edge">
<title>Node43&#45;&gt;Node38</title>
<path fill="none" stroke="#9a32cd" stroke-dasharray="5,2" d="M1192.19,-1173.38C1265.75,-1162.04 1395.24,-1141.86 1397,-1140 1449.53,-1084.5 1364.34,-1026.22 1415,-969 1423.57,-959.32 1436,-954.04 1448.62,-951.3"/>
<polygon fill="#9a32cd" stroke="#9a32cd" points="1191.55,-1169.94 1182.2,-1174.92 1192.61,-1176.85 1191.55,-1169.94"/>
<text text-anchor="middle" x="1329" y="-1176" font-family="Helvetica,sans-Serif" font-size="10.00"> tagBitRefLevelMask</text>
<text text-anchor="middle" x="1329" y="-1165" font-family="Helvetica,sans-Serif" font-size="10.00">tagBitRefLevel</text>
</g>
<!-- Node44 -->
<g id="node44" class="node">
<title>Node44</title>
<g id="a_node44"><a xlink:title=" ">
<polygon fill="white" stroke="#bfbfbf" points="1056.5,-1122 1056.5,-1152 1226.5,-1152 1226.5,-1122 1056.5,-1122"/>
<text text-anchor="start" x="1064.5" y="-1140" font-family="Helvetica,sans-Serif" font-size="10.00">shared_ptr&lt; NumeredDofEntity</text>
<text text-anchor="middle" x="1141.5" y="-1129" font-family="Helvetica,sans-Serif" font-size="10.00">_multiIndex &gt;</text>
</a>
</g>
</g>
<!-- Node44&#45;&gt;Node38 -->
<g id="edge52" class="edge">
<title>Node44&#45;&gt;Node38</title>
<path fill="none" stroke="#9a32cd" stroke-dasharray="5,2" d="M1236.62,-1121.79C1308.8,-1110.08 1396.27,-1095.75 1397,-1095 1436.56,-1054.57 1376.72,-1010.65 1415,-969 1423.75,-959.48 1436.23,-954.25 1448.85,-951.5"/>
<polygon fill="#9a32cd" stroke="#9a32cd" points="1235.86,-1118.37 1226.55,-1123.42 1236.98,-1125.28 1235.86,-1118.37"/>
<text text-anchor="middle" x="1329" y="-1131" font-family="Helvetica,sans-Serif" font-size="10.00"> numeredRowDofsPtr</text>
<text text-anchor="middle" x="1329" y="-1120" font-family="Helvetica,sans-Serif" font-size="10.00">numeredColDofsPtr</text>
</g>
<!-- Node45 -->
<g id="node45" class="node">
<title>Node45</title>
<g id="a_node45"><a xlink:title=" ">
<polygon fill="white" stroke="#bfbfbf" points="1072.5,-1083.5 1072.5,-1102.5 1210.5,-1102.5 1210.5,-1083.5 1072.5,-1083.5"/>
<text text-anchor="middle" x="1141.5" y="-1090.5" font-family="Helvetica,sans-Serif" font-size="10.00">vector&lt; BlockFieldPair &gt;</text>
</a>
</g>
</g>
<!-- Node45&#45;&gt;Node38 -->
<g id="edge54" class="edge">
<title>Node45&#45;&gt;Node38</title>
<path fill="none" stroke="#9a32cd" stroke-dasharray="5,2" d="M1220.64,-1085.4C1293.03,-1078.02 1390.5,-1067.07 1397,-1061 1427.45,-1032.56 1386.03,-998.95 1415,-969 1423.89,-959.81 1436.27,-954.67 1448.73,-951.89"/>
<polygon fill="#9a32cd" stroke="#9a32cd" points="1220.2,-1081.93 1210.6,-1086.42 1220.9,-1088.89 1220.2,-1081.93"/>
<text text-anchor="middle" x="1329" y="-1083" font-family="Helvetica,sans-Serif" font-size="10.00"> emptyFieldBlocks</text>
</g>
<!-- Node46 -->
<g id="node46" class="node">
<title>Node46</title>
<g id="a_node46"><a xlink:title=" ">
<polygon fill="white" stroke="#bfbfbf" points="1063.5,-1034 1063.5,-1064 1219.5,-1064 1219.5,-1034 1063.5,-1034"/>
<text text-anchor="start" x="1071.5" y="-1052" font-family="Helvetica,sans-Serif" font-size="10.00">shared_ptr&lt; MoFEM::</text>
<text text-anchor="middle" x="1141.5" y="-1041" font-family="Helvetica,sans-Serif" font-size="10.00">Problem::SubProblemData &gt;</text>
</a>
</g>
</g>
<!-- Node46&#45;&gt;Node38 -->
<g id="edge55" class="edge">
<title>Node46&#45;&gt;Node38</title>
<path fill="none" stroke="#9a32cd" stroke-dasharray="5,2" d="M1229.76,-1049.94C1293.05,-1048.84 1371.79,-1043.2 1397,-1023 1416.74,-1007.18 1396.28,-986.02 1415,-969 1424.25,-960.6 1436.45,-955.68 1448.62,-952.86"/>
<polygon fill="#9a32cd" stroke="#9a32cd" points="1229.7,-1046.44 1219.75,-1050.08 1229.8,-1053.44 1229.7,-1046.44"/>
<text text-anchor="middle" x="1329" y="-1051" font-family="Helvetica,sans-Serif" font-size="10.00"> subProblemData</text>
</g>
<!-- Node47 -->
<g id="node47" class="node">
<title>Node47</title>
<g id="a_node47"><a xlink:title=" ">
<polygon fill="white" stroke="#bfbfbf" points="1040,-995.5 1040,-1014.5 1243,-1014.5 1243,-995.5 1040,-995.5"/>
<text text-anchor="middle" x="1141.5" y="-1002.5" font-family="Helvetica,sans-Serif" font-size="10.00">shared_ptr&lt; SequenceDofContainer &gt;</text>
</a>
</g>
</g>
<!-- Node47&#45;&gt;Node38 -->
<g id="edge57" class="edge">
<title>Node47&#45;&gt;Node38</title>
<path fill="none" stroke="#9a32cd" stroke-dasharray="5,2" d="M1253.36,-998.61C1298.4,-994.4 1350.64,-987.45 1397,-976 1405.33,-973.94 1406.8,-971.53 1415,-969 1426.38,-965.5 1438.82,-962.31 1450.5,-959.59"/>
<polygon fill="#9a32cd" stroke="#9a32cd" points="1252.92,-995.13 1243.27,-999.51 1253.55,-1002.1 1252.92,-995.13"/>
<text text-anchor="middle" x="1329" y="-1011" font-family="Helvetica,sans-Serif" font-size="10.00"> sequenceRowDofContainer</text>
<text text-anchor="middle" x="1329" y="-1000" font-family="Helvetica,sans-Serif" font-size="10.00">sequenceColDofContainer</text>
</g>
<!-- Node48 -->
<g id="node48" class="node">
<title>Node48</title>
<g id="a_node48"><a xlink:title=" ">
<polygon fill="white" stroke="#bfbfbf" points="1097.5,-957.5 1097.5,-976.5 1185.5,-976.5 1185.5,-957.5 1097.5,-957.5"/>
<text text-anchor="middle" x="1141.5" y="-964.5" font-family="Helvetica,sans-Serif" font-size="10.00">BitProblemId *</text>
</a>
</g>
</g>
<!-- Node48&#45;&gt;Node38 -->
<g id="edge58" class="edge">
<title>Node48&#45;&gt;Node38</title>
<path fill="none" stroke="#9a32cd" stroke-dasharray="5,2" d="M1195.84,-964.45C1264.48,-961.16 1382.73,-955.5 1448.96,-952.32"/>
<polygon fill="#9a32cd" stroke="#9a32cd" points="1195.5,-960.96 1185.68,-964.93 1195.83,-967.95 1195.5,-960.96"/>
<text text-anchor="middle" x="1329" y="-964" font-family="Helvetica,sans-Serif" font-size="10.00"> tagId</text>
</g>
<!-- Node49 -->
<g id="node49" class="node">
<title>Node49</title>
<g id="a_node49"><a xlink:title=" ">
<polygon fill="white" stroke="#bfbfbf" points="1805,-732 1805,-762 1967,-762 1967,-732 1805,-732"/>
<text text-anchor="start" x="1813" y="-750" font-family="Helvetica,sans-Serif" font-size="10.00">shared_ptr&lt; const MoFEM</text>
<text text-anchor="middle" x="1886" y="-739" font-family="Helvetica,sans-Serif" font-size="10.00">::NumeredEntFiniteElement &gt;</text>
</a>
</g>
</g>
<!-- Node49&#45;&gt;Node12 -->
<g id="edge59" class="edge">
<title>Node49&#45;&gt;Node12</title>
<path fill="none" stroke="#9a32cd" stroke-dasharray="5,2" d="M1977.54,-741.1C2048.18,-736.49 2143.85,-730.25 2202.4,-726.43"/>
<polygon fill="#9a32cd" stroke="#9a32cd" points="1977.06,-737.62 1967.3,-741.76 1977.51,-744.6 1977.06,-737.62"/>
<text text-anchor="middle" x="2063" y="-742" font-family="Helvetica,sans-Serif" font-size="10.00"> numeredEntFiniteElementPtr</text>
</g>
<!-- Node50 -->
<g id="node50" class="node">
<title>Node50</title>
<g id="a_node50"><a xlink:title=" ">
<polygon fill="white" stroke="#bfbfbf" points="1864,-786.5 1864,-805.5 1908,-805.5 1908,-786.5 1864,-786.5"/>
<text text-anchor="middle" x="1886" y="-793.5" font-family="Helvetica,sans-Serif" font-size="10.00">string</text>
</a>
</g>
</g>
<!-- Node50&#45;&gt;Node3 -->
<g id="edge82" class="edge">
<title>Node50&#45;&gt;Node3</title>
<path fill="none" stroke="#9a32cd" stroke-dasharray="5,2" d="M1918.25,-796.92C2028.8,-800.31 2411.69,-813.07 2727,-836 2762.95,-838.61 2802.56,-842.34 2836.57,-845.8"/>
<polygon fill="#9a32cd" stroke="#9a32cd" points="1918.22,-793.42 1908.12,-796.62 1918.01,-800.42 1918.22,-793.42"/>
<text text-anchor="middle" x="2458" y="-837" font-family="Helvetica,sans-Serif" font-size="10.00"> colFieldName</text>
<text text-anchor="middle" x="2458" y="-826" font-family="Helvetica,sans-Serif" font-size="10.00">rowFieldName</text>
</g>
<!-- Node50&#45;&gt;Node12 -->
<g id="edge60" class="edge">
<title>Node50&#45;&gt;Node12</title>
<path fill="none" stroke="#9a32cd" stroke-dasharray="5,2" d="M1917.87,-789.42C1938.53,-785.11 1966.34,-779.46 1991,-775 2054.78,-763.47 2073.74,-773.17 2135,-752 2143.65,-749.01 2144.39,-745.1 2153,-742 2168.59,-736.39 2186.15,-732.35 2202.25,-729.49"/>
<polygon fill="#9a32cd" stroke="#9a32cd" points="1917.13,-786 1908.07,-791.48 1918.57,-792.85 1917.13,-786"/>
<text text-anchor="middle" x="2063" y="-778" font-family="Helvetica,sans-Serif" font-size="10.00"> feName</text>
</g>
<!-- Node51 -->
<g id="node51" class="node">
<title>Node51</title>
<g id="a_node51"><a xlink:title=" ">
<polygon fill="white" stroke="#bfbfbf" points="1804.5,-683 1804.5,-713 1967.5,-713 1967.5,-683 1804.5,-683"/>
<text text-anchor="start" x="1812.5" y="-701" font-family="Helvetica,sans-Serif" font-size="10.00">function&lt; bool(MoFEM</text>
<text text-anchor="middle" x="1886" y="-690" font-family="Helvetica,sans-Serif" font-size="10.00">::FEMethod *fe_method_ptr)&gt;</text>
</a>
</g>
</g>
<!-- Node51&#45;&gt;Node12 -->
<g id="edge61" class="edge">
<title>Node51&#45;&gt;Node12</title>
<path fill="none" stroke="#9a32cd" stroke-dasharray="5,2" d="M1977.98,-704.18C2048.52,-708.97 2143.82,-715.45 2202.26,-719.42"/>
<polygon fill="#9a32cd" stroke="#9a32cd" points="1977.97,-700.67 1967.76,-703.49 1977.5,-707.66 1977.97,-700.67"/>
<text text-anchor="middle" x="2063" y="-717" font-family="Helvetica,sans-Serif" font-size="10.00"> exeTestHook</text>
</g>
<!-- Node52 -->
<g id="node52" class="node">
<title>Node52</title>
<g id="a_node52"><a xlink:href="classdouble.html" target="_top" xlink:title=" ">
<polygon fill="white" stroke="black" points="2231,-256.5 2231,-275.5 2281,-275.5 2281,-256.5 2231,-256.5"/>
<text text-anchor="middle" x="2256" y="-263.5" font-family="Helvetica,sans-Serif" font-size="10.00">double</text>
</a>
</g>
</g>
<!-- Node52&#45;&gt;Node1 -->
<g id="edge84" class="edge">
<title>Node52&#45;&gt;Node1</title>
<path fill="none" stroke="#9a32cd" stroke-dasharray="5,2" d="M2291.27,-265.11C2358.39,-263.43 2511.89,-260 2641,-260 2641,-260 2641,-260 3123.5,-260 3173.45,-260 3230.08,-260 3271.93,-260"/>
<polygon fill="#9a32cd" stroke="#9a32cd" points="2291.17,-261.61 2281.26,-265.36 2291.34,-268.6 2291.17,-261.61"/>
<text text-anchor="middle" x="2922" y="-263" font-family="Helvetica,sans-Serif" font-size="10.00"> globFlux</text>
</g>
<!-- Node52&#45;&gt;Node11 -->
<g id="edge62" class="edge">
<title>Node52&#45;&gt;Node11</title>
<path fill="none" stroke="#9a32cd" stroke-dasharray="5,2" d="M2291.56,-267.95C2362.52,-272.23 2519.66,-283.27 2539,-298 2622.35,-361.49 2637.79,-504.05 2640.47,-542.36"/>
<polygon fill="#9a32cd" stroke="#9a32cd" points="2291.53,-264.44 2281.34,-267.34 2291.12,-271.43 2291.53,-264.44"/>
<text text-anchor="middle" x="2458" y="-301" font-family="Helvetica,sans-Serif" font-size="10.00"> elementMeasure</text>
</g>
<!-- Node53 -->
<g id="node53" class="node">
<title>Node53</title>
<g id="a_node53"><a xlink:title=" ">
<polygon fill="white" stroke="#bfbfbf" points="2170,-653.5 2170,-694.5 2342,-694.5 2342,-653.5 2170,-653.5"/>
<text text-anchor="start" x="2178" y="-682.5" font-family="Helvetica,sans-Serif" font-size="10.00">array&lt; boost::shared</text>
<text text-anchor="start" x="2178" y="-671.5" font-family="Helvetica,sans-Serif" font-size="10.00">_ptr&lt; MoFEM::EntitiesFieldData</text>
<text text-anchor="middle" x="2256" y="-660.5" font-family="Helvetica,sans-Serif" font-size="10.00"> &gt;, LASTSPACE &gt;</text>
</a>
</g>
</g>
<!-- Node53&#45;&gt;Node11 -->
<g id="edge63" class="edge">
<title>Node53&#45;&gt;Node11</title>
<path fill="none" stroke="#9a32cd" stroke-dasharray="5,2" d="M2352.11,-675.69C2408.56,-673.46 2480.33,-664.84 2539,-639 2580.32,-620.8 2617.59,-580.22 2633.22,-561.63"/>
<polygon fill="#9a32cd" stroke="#9a32cd" points="2351.99,-672.19 2342.11,-676.03 2352.22,-679.19 2351.99,-672.19"/>
<text text-anchor="middle" x="2458" y="-687" font-family="Helvetica,sans-Serif" font-size="10.00"> derivedDataOnElement</text>
<text text-anchor="middle" x="2458" y="-676" font-family="Helvetica,sans-Serif" font-size="10.00">dataOnElement</text>
</g>
<!-- Node54 -->
<g id="node54" class="node">
<title>Node54</title>
<g id="a_node54"><a xlink:title=" ">
<polygon fill="white" stroke="#bfbfbf" points="2222,-615.5 2222,-634.5 2290,-634.5 2290,-615.5 2222,-615.5"/>
<text text-anchor="middle" x="2256" y="-622.5" font-family="Helvetica,sans-Serif" font-size="10.00">EntityType</text>
</a>
</g>
</g>
<!-- Node54&#45;&gt;Node11 -->
<g id="edge64" class="edge">
<title>Node54&#45;&gt;Node11</title>
<path fill="none" stroke="#9a32cd" stroke-dasharray="5,2" d="M2300.53,-626.12C2356.66,-626.48 2456.84,-623.42 2539,-601 2571.41,-592.16 2606.03,-573.26 2625.45,-561.69"/>
<polygon fill="#9a32cd" stroke="#9a32cd" points="2300.28,-622.62 2290.24,-626.01 2300.2,-629.62 2300.28,-622.62"/>
<text text-anchor="middle" x="2458" y="-627" font-family="Helvetica,sans-Serif" font-size="10.00"> lastEvaluatedElementEntityType</text>
</g>
<!-- Node55 -->
<g id="node55" class="node">
<title>Node55</title>
<g id="a_node55"><a xlink:href="structMoFEM_1_1DeprecatedCoreInterface.html" target="_top" xlink:title="Deprecated interface functions.">
<polygon fill="white" stroke="black" points="1600,-79.5 1600,-98.5 1781,-98.5 1781,-79.5 1600,-79.5"/>
<text text-anchor="middle" x="1690.5" y="-86.5" font-family="Helvetica,sans-Serif" font-size="10.00">MoFEM::DeprecatedCoreInterface</text>
</a>
</g>
</g>
<!-- Node55&#45;&gt;Node11 -->
<g id="edge65" class="edge">
<title>Node55&#45;&gt;Node11</title>
<path fill="none" stroke="#9a32cd" stroke-dasharray="5,2" d="M1724.49,-103.26C1744.61,-113.85 1768.74,-130.39 1781,-153 1802.84,-193.28 1766.12,-533.09 1799,-565 1891.18,-654.47 2248.55,-572.11 2377,-573 2449,-573.5 2467.37,-580.3 2539,-573 2560.76,-570.78 2584.74,-565.97 2603.98,-561.51"/>
<polygon fill="#9a32cd" stroke="#9a32cd" points="1725.81,-100.01 1715.3,-98.68 1722.68,-106.27 1725.81,-100.01"/>
<text text-anchor="middle" x="2063" y="-609" font-family="Helvetica,sans-Serif" font-size="10.00"> mField</text>
</g>
<!-- Node56&#45;&gt;Node55 -->
<g id="edge66" class="edge">
<title>Node56&#45;&gt;Node55</title>
<path fill="none" stroke="midnightblue" d="M1214.01,-17.49C1265.08,-23.07 1335.37,-31.21 1397,-40 1481.36,-52.03 1578.89,-68.99 1637.31,-79.47"/>
<polygon fill="midnightblue" stroke="midnightblue" points="1214.38,-14.01 1204.06,-16.41 1213.63,-20.97 1214.38,-14.01"/>
</g>
<!-- Node57 -->
<g id="node57" class="node">
<title>Node57</title>
<g id="a_node57"><a xlink:title=" ">
<polygon fill="white" stroke="#bfbfbf" points="2172.5,-457 2172.5,-509 2339.5,-509 2339.5,-457 2172.5,-457"/>
<text text-anchor="start" x="2180.5" y="-497" font-family="Helvetica,sans-Serif" font-size="10.00">function&lt; MoFEMErrorCode</text>
<text text-anchor="start" x="2180.5" y="-486" font-family="Helvetica,sans-Serif" font-size="10.00">(ForcesAndSourcesCore *fe</text>
<text text-anchor="start" x="2180.5" y="-475" font-family="Helvetica,sans-Serif" font-size="10.00">_raw_ptr, int order_row,</text>
<text text-anchor="middle" x="2256" y="-464" font-family="Helvetica,sans-Serif" font-size="10.00"> int order_col, int order_data)&gt;</text>
</a>
</g>
</g>
<!-- Node57&#45;&gt;Node11 -->
<g id="edge69" class="edge">
<title>Node57&#45;&gt;Node11</title>
<path fill="none" stroke="#9a32cd" stroke-dasharray="5,2" d="M2349.9,-477.39C2405.69,-476.53 2477.55,-479.86 2539,-497 2573.49,-506.62 2609.33,-529.45 2627.97,-542.47"/>
<polygon fill="#9a32cd" stroke="#9a32cd" points="2349.6,-473.9 2339.67,-477.6 2349.74,-480.9 2349.6,-473.9"/>
<text text-anchor="middle" x="2458" y="-500" font-family="Helvetica,sans-Serif" font-size="10.00"> setRuleHook</text>
</g>
<!-- Node58 -->
<g id="node58" class="node">
<title>Node58</title>
<g id="a_node58"><a xlink:title=" ">
<polygon fill="white" stroke="#bfbfbf" points="2155,-408 2155,-438 2357,-438 2357,-408 2155,-408"/>
<text text-anchor="start" x="2163" y="-426" font-family="Helvetica,sans-Serif" font-size="10.00">ptr_deque&lt; MoFEM::Forces</text>
<text text-anchor="middle" x="2256" y="-415" font-family="Helvetica,sans-Serif" font-size="10.00">AndSourcesCore::UserDataOperator &gt;</text>
</a>
</g>
</g>
<!-- Node58&#45;&gt;Node11 -->
<g id="edge70" class="edge">
<title>Node58&#45;&gt;Node11</title>
<path fill="none" stroke="#9a32cd" stroke-dasharray="5,2" d="M2367.45,-423.52C2421.28,-427.39 2485.72,-437.55 2539,-462 2580.86,-481.21 2618.13,-523.37 2633.52,-542.38"/>
<polygon fill="#9a32cd" stroke="#9a32cd" points="2367.39,-420.01 2357.19,-422.84 2366.94,-426.99 2367.39,-420.01"/>
<text text-anchor="middle" x="2458" y="-465" font-family="Helvetica,sans-Serif" font-size="10.00"> opPtrVector</text>
</g>
<!-- Node59 -->
<g id="node59" class="node">
<title>Node59</title>
<g id="a_node59"><a xlink:href="structMoFEM_1_1EntitiesFieldData.html" target="_top" xlink:title="data structure for finite element entity">
<polygon fill="white" stroke="black" points="2185,-528.5 2185,-547.5 2327,-547.5 2327,-528.5 2185,-528.5"/>
<text text-anchor="middle" x="2256" y="-535.5" font-family="Helvetica,sans-Serif" font-size="10.00">MoFEM::EntitiesFieldData</text>
</a>
</g>
</g>
<!-- Node59&#45;&gt;Node11 -->
<g id="edge71" class="edge">
<title>Node59&#45;&gt;Node11</title>
<path fill="none" stroke="#9a32cd" stroke-dasharray="5,2" d="M2311.62,-526.7C2368.68,-516.63 2460.62,-505.28 2539,-518 2567.56,-522.63 2598.93,-534.12 2619.23,-542.46"/>
<polygon fill="#9a32cd" stroke="#9a32cd" points="2310.95,-523.26 2301.73,-528.49 2312.2,-530.15 2310.95,-523.26"/>
<text text-anchor="middle" x="2458" y="-565" font-family="Helvetica,sans-Serif" font-size="10.00"> dataNoField</text>
<text text-anchor="middle" x="2458" y="-554" font-family="Helvetica,sans-Serif" font-size="10.00">dataL2</text>
<text text-anchor="middle" x="2458" y="-543" font-family="Helvetica,sans-Serif" font-size="10.00">dataH1</text>
<text text-anchor="middle" x="2458" y="-532" font-family="Helvetica,sans-Serif" font-size="10.00">dataHcurl</text>
<text text-anchor="middle" x="2458" y="-521" font-family="Helvetica,sans-Serif" font-size="10.00">dataHdiv</text>
</g>
<!-- Node60 -->
<g id="node60" class="node">
<title>Node60</title>
<g id="a_node60"><a xlink:title=" ">
<polygon fill="white" stroke="#bfbfbf" points="1805,-449 1805,-479 1967,-479 1967,-449 1805,-449"/>
<text text-anchor="start" x="1813" y="-467" font-family="Helvetica,sans-Serif" font-size="10.00">array&lt; std::bitset</text>
<text text-anchor="middle" x="1886" y="-456" font-family="Helvetica,sans-Serif" font-size="10.00">&lt; LASTBASE &gt;, LASTSPACE &gt;</text>
</a>
</g>
</g>
<!-- Node60&#45;&gt;Node59 -->
<g id="edge72" class="edge">
<title>Node60&#45;&gt;Node59</title>
<path fill="none" stroke="#9a32cd" stroke-dasharray="5,2" d="M1977.23,-453.54C2027.37,-452.19 2088.77,-458.33 2135,-488 2148.41,-496.61 2139.98,-509.82 2153,-519 2162.42,-525.65 2173.5,-530.16 2184.83,-533.18"/>
<polygon fill="#9a32cd" stroke="#9a32cd" points="1976.9,-450.05 1967.04,-453.92 1977.16,-457.04 1976.9,-450.05"/>
<text text-anchor="middle" x="2063" y="-502" font-family="Helvetica,sans-Serif" font-size="10.00"> brokenBasesOnSpaces</text>
<text text-anchor="middle" x="2063" y="-491" font-family="Helvetica,sans-Serif" font-size="10.00">basesOnSpaces</text>
</g>
<!-- Node61 -->
<g id="node61" class="node">
<title>Node61</title>
<g id="a_node61"><a xlink:title=" ">
<polygon fill="white" stroke="#bfbfbf" points="1809.5,-388.5 1809.5,-429.5 1962.5,-429.5 1962.5,-388.5 1809.5,-388.5"/>
<text text-anchor="start" x="1817.5" y="-417.5" font-family="Helvetica,sans-Serif" font-size="10.00">array&lt; boost::ptr_vector</text>
<text text-anchor="start" x="1817.5" y="-406.5" font-family="Helvetica,sans-Serif" font-size="10.00">&lt; MoFEM::EntitiesFieldData</text>
<text text-anchor="middle" x="1886" y="-395.5" font-family="Helvetica,sans-Serif" font-size="10.00">::EntData &gt;, MBMAXTYPE &gt;</text>
</a>
</g>
</g>
<!-- Node61&#45;&gt;Node59 -->
<g id="edge73" class="edge">
<title>Node61&#45;&gt;Node59</title>
<path fill="none" stroke="#9a32cd" stroke-dasharray="5,2" d="M1972.78,-395.97C2025.85,-392.95 2091.85,-399.05 2135,-438 2162.38,-462.71 2126.48,-493.38 2153,-519 2161.74,-527.45 2172.97,-532.76 2184.76,-536.01"/>
<polygon fill="#9a32cd" stroke="#9a32cd" points="1972.43,-392.49 1962.69,-396.66 1972.91,-399.47 1972.43,-392.49"/>
<text text-anchor="middle" x="2063" y="-441" font-family="Helvetica,sans-Serif" font-size="10.00"> dataOnEntities</text>
</g>
<!-- Node62 -->
<g id="node62" class="node">
<title>Node62</title>
<g id="a_node62"><a xlink:title=" ">
<polygon fill="white" stroke="#bfbfbf" points="1799,-339 1799,-369 1973,-369 1973,-339 1799,-339"/>
<text text-anchor="start" x="1807" y="-357" font-family="Helvetica,sans-Serif" font-size="10.00">array&lt; std::bitset</text>
<text text-anchor="middle" x="1886" y="-346" font-family="Helvetica,sans-Serif" font-size="10.00">&lt; LASTSPACE &gt;, MBMAXTYPE &gt;</text>
</a>
</g>
</g>
<!-- Node62&#45;&gt;Node59 -->
<g id="edge74" class="edge">
<title>Node62&#45;&gt;Node59</title>
<path fill="none" stroke="#9a32cd" stroke-dasharray="5,2" d="M1983.05,-338.32C2034.78,-335.62 2095.83,-342.65 2135,-381 2179.2,-424.27 2110.47,-474.09 2153,-519 2161.55,-528.02 2172.9,-533.56 2184.92,-536.84"/>
<polygon fill="#9a32cd" stroke="#9a32cd" points="1982.59,-334.84 1972.84,-338.98 1983.04,-341.83 1982.59,-334.84"/>
<text text-anchor="middle" x="2063" y="-384" font-family="Helvetica,sans-Serif" font-size="10.00"> spacesOnEntities</text>
</g>
<!-- Node63 -->
<g id="node63" class="node">
<title>Node63</title>
<g id="a_node63"><a xlink:title=" ">
<polygon fill="white" stroke="#bfbfbf" points="1801.5,-290 1801.5,-320 1970.5,-320 1970.5,-290 1801.5,-290"/>
<text text-anchor="start" x="1809.5" y="-308" font-family="Helvetica,sans-Serif" font-size="10.00">array&lt; std::bitset</text>
<text text-anchor="middle" x="1886" y="-297" font-family="Helvetica,sans-Serif" font-size="10.00">&lt; LASTBASE &gt;, MBMAXTYPE &gt;</text>
</a>
</g>
</g>
<!-- Node63&#45;&gt;Node59 -->
<g id="edge75" class="edge">
<title>Node63&#45;&gt;Node59</title>
<path fill="none" stroke="#9a32cd" stroke-dasharray="5,2" d="M1956.45,-288.24C2012.39,-279.25 2089.02,-277.89 2135,-323 2166.22,-353.63 2123.54,-486.67 2153,-519 2161.43,-528.25 2172.81,-533.88 2184.9,-537.17"/>
<polygon fill="#9a32cd" stroke="#9a32cd" points="1955.52,-284.84 1946.26,-289.99 1956.71,-291.74 1955.52,-284.84"/>
<text text-anchor="middle" x="2063" y="-326" font-family="Helvetica,sans-Serif" font-size="10.00"> basesOnEntities</text>
</g>
<!-- Node64 -->
<g id="node64" class="node">
<title>Node64</title>
<g id="a_node64"><a xlink:title=" ">
<polygon fill="white" stroke="#bfbfbf" points="1830,-536.5 1830,-555.5 1942,-555.5 1942,-536.5 1830,-536.5"/>
<text text-anchor="middle" x="1886" y="-543.5" font-family="Helvetica,sans-Serif" font-size="10.00">UBlasMatrix&lt; int &gt;</text>
</a>
</g>
</g>
<!-- Node64&#45;&gt;Node59 -->
<g id="edge76" class="edge">
<title>Node64&#45;&gt;Node59</title>
<path fill="none" stroke="#9a32cd" stroke-dasharray="5,2" d="M1952.22,-544.02C1965.07,-543.66 1978.46,-543.3 1991,-543 2056.76,-541.43 2131.75,-540.05 2184.96,-539.14"/>
<polygon fill="#9a32cd" stroke="#9a32cd" points="1951.95,-540.53 1942.05,-544.31 1952.15,-547.52 1951.95,-540.53"/>
<text text-anchor="middle" x="2063" y="-557" font-family="Helvetica,sans-Serif" font-size="10.00"> facesNodesOrder</text>
<text text-anchor="middle" x="2063" y="-546" font-family="Helvetica,sans-Serif" font-size="10.00">facesNodes</text>
</g>
<!-- Node65 -->
<g id="node65" class="node">
<title>Node65</title>
<g id="a_node65"><a xlink:title=" ">
<polygon fill="white" stroke="#bfbfbf" points="1827.5,-498.5 1827.5,-517.5 1944.5,-517.5 1944.5,-498.5 1827.5,-498.5"/>
<text text-anchor="middle" x="1886" y="-505.5" font-family="Helvetica,sans-Serif" font-size="10.00">bitset&lt; LASTBASE &gt;</text>
</a>
</g>
</g>
<!-- Node65&#45;&gt;Node59 -->
<g id="edge77" class="edge">
<title>Node65&#45;&gt;Node59</title>
<path fill="none" stroke="#9a32cd" stroke-dasharray="5,2" d="M1954.7,-511.92C2004.59,-514.98 2074.07,-519.61 2135,-525 2151.18,-526.43 2168.56,-528.19 2184.93,-529.94"/>
<polygon fill="#9a32cd" stroke="#9a32cd" points="1954.87,-508.42 1944.68,-511.31 1954.45,-515.41 1954.87,-508.42"/>
<text text-anchor="middle" x="2063" y="-528" font-family="Helvetica,sans-Serif" font-size="10.00"> bAse</text>
</g>
<!-- Node66 -->
<g id="node66" class="node">
<title>Node66</title>
<g id="a_node66"><a xlink:title=" ">
<polygon fill="white" stroke="#bfbfbf" points="2193.5,-347.5 2193.5,-388.5 2318.5,-388.5 2318.5,-347.5 2193.5,-347.5"/>
<text text-anchor="start" x="2201.5" y="-376.5" font-family="Helvetica,sans-Serif" font-size="10.00">function&lt; int(int order</text>
<text text-anchor="start" x="2201.5" y="-365.5" font-family="Helvetica,sans-Serif" font-size="10.00">_row, int order_col, int</text>
<text text-anchor="middle" x="2256" y="-354.5" font-family="Helvetica,sans-Serif" font-size="10.00"> order_data)&gt;</text>
</a>
</g>
</g>
<!-- Node66&#45;&gt;Node11 -->
<g id="edge78" class="edge">
<title>Node66&#45;&gt;Node11</title>
<path fill="none" stroke="#9a32cd" stroke-dasharray="5,2" d="M2328.77,-363.39C2389.1,-362.86 2475.42,-370.21 2539,-409 2593.15,-442.03 2626.64,-515.79 2637.3,-542.29"/>
<polygon fill="#9a32cd" stroke="#9a32cd" points="2328.51,-359.9 2318.57,-363.56 2328.63,-366.9 2328.51,-359.9"/>
<text text-anchor="middle" x="2458" y="-412" font-family="Helvetica,sans-Serif" font-size="10.00"> getRuleHook</text>
</g>
<!-- Node67 -->
<g id="node67" class="node">
<title>Node67</title>
<g id="a_node67"><a xlink:title=" ">
<polygon fill="white" stroke="#bfbfbf" points="2195,-298 2195,-328 2317,-328 2317,-298 2195,-298"/>
<text text-anchor="start" x="2203" y="-316" font-family="Helvetica,sans-Serif" font-size="10.00">shared_ptr&lt; MoFEM::</text>
<text text-anchor="middle" x="2256" y="-305" font-family="Helvetica,sans-Serif" font-size="10.00">BaseFunction &gt;</text>
</a>
</g>
</g>
<!-- Node67&#45;&gt;Node11 -->
<g id="edge79" class="edge">
<title>Node67&#45;&gt;Node11</title>
<path fill="none" stroke="#9a32cd" stroke-dasharray="5,2" d="M2327.66,-311.74C2399.87,-311.79 2505.97,-316.01 2539,-339 2612.02,-389.83 2634.54,-507.53 2639.7,-542.21"/>
<polygon fill="#9a32cd" stroke="#9a32cd" points="2327.26,-308.24 2317.27,-311.76 2327.27,-315.24 2327.26,-308.24"/>
<text text-anchor="middle" x="2458" y="-353" font-family="Helvetica,sans-Serif" font-size="10.00"> userPolynomialBasePtr</text>
<text text-anchor="middle" x="2458" y="-342" font-family="Helvetica,sans-Serif" font-size="10.00">elementPolynomialBasePtr</text>
</g>
<!-- Node68 -->
<g id="node68" class="node">
<title>Node68</title>
<g id="a_node68"><a xlink:href="classUBlasMatrix_3_01double_01_4.html" target="_top" xlink:title=" ">
<polygon fill="white" stroke="black" points="2190,-751.5 2190,-770.5 2322,-770.5 2322,-751.5 2190,-751.5"/>
<text text-anchor="middle" x="2256" y="-758.5" font-family="Helvetica,sans-Serif" font-size="10.00">UBlasMatrix&lt; double &gt;</text>
</a>
</g>
</g>
<!-- Node68&#45;&gt;Node11 -->
<g id="edge80" class="edge">
<title>Node68&#45;&gt;Node11</title>
<path fill="none" stroke="#9a32cd" stroke-dasharray="5,2" d="M2332.47,-758.46C2404.26,-754.75 2506.05,-745.73 2539,-724 2600.44,-683.48 2630.07,-592.12 2638.44,-561.91"/>
<polygon fill="#9a32cd" stroke="#9a32cd" points="2331.92,-754.98 2322.1,-758.97 2332.26,-761.97 2331.92,-754.98"/>
<text text-anchor="middle" x="2458" y="-769" font-family="Helvetica,sans-Serif" font-size="10.00"> coordsAtGaussPts</text>
<text text-anchor="middle" x="2458" y="-758" font-family="Helvetica,sans-Serif" font-size="10.00">gaussPts</text>
</g>
<!-- Node69 -->
<g id="node69" class="node">
<title>Node69</title>
<g id="a_node69"><a xlink:title=" ">
<polygon fill="white" stroke="#bfbfbf" points="2576.5,-930.5 2576.5,-949.5 2707.5,-949.5 2707.5,-930.5 2576.5,-930.5"/>
<text text-anchor="middle" x="2642" y="-937.5" font-family="Helvetica,sans-Serif" font-size="10.00">static const char *const</text>
</a>
</g>
</g>
<!-- Node69&#45;&gt;Node3 -->
<g id="edge81" class="edge">
<title>Node69&#45;&gt;Node3</title>
<path fill="none" stroke="#9a32cd" stroke-dasharray="5,2" d="M2698.36,-928.16C2707.95,-925.92 2717.79,-923.49 2727,-921 2781.44,-906.29 2842.83,-884.5 2881.7,-870.03"/>
<polygon fill="#9a32cd" stroke="#9a32cd" points="2697.47,-924.78 2688.51,-930.43 2699.04,-931.6 2697.47,-924.78"/>
<text text-anchor="middle" x="2782" y="-917" font-family="Helvetica,sans-Serif" font-size="10.00"> OpTypeNames</text>
</g>
<!-- Node70 -->
<g id="node70" class="node">
<title>Node70</title>
<g id="a_node70"><a xlink:title=" ">
<polygon fill="white" stroke="#bfbfbf" points="3044,-212.5 3044,-231.5 3201,-231.5 3201,-212.5 3044,-212.5"/>
<text text-anchor="middle" x="3122.5" y="-219.5" font-family="Helvetica,sans-Serif" font-size="10.00">shared_ptr&lt; MatrixDouble &gt;</text>
</a>
</g>
</g>
<!-- Node70&#45;&gt;Node1 -->
<g id="edge83" class="edge">
<title>Node70&#45;&gt;Node1</title>
<path fill="none" stroke="#9a32cd" stroke-dasharray="5,2" d="M3211.51,-228.27C3225.79,-230.01 3240.36,-232.21 3254,-235 3272.28,-238.74 3292.33,-245.06 3307.72,-250.41"/>
<polygon fill="#9a32cd" stroke="#9a32cd" points="3211.51,-224.75 3201.18,-227.09 3210.72,-231.71 3211.51,-224.75"/>
<text text-anchor="middle" x="3236.5" y="-238" font-family="Helvetica,sans-Serif" font-size="10.00"> fluxPtr</text>
</g>
</g>
</svg>
