<?xml version="1.0" encoding="UTF-8" standalone="no"?>
<!DOCTYPE svg PUBLIC "-//W3C//DTD SVG 1.1//EN"
 "http://www.w3.org/Graphics/SVG/1.1/DTD/svg11.dtd">
<!-- Generated by graphviz version 2.43.0 (0)
 -->
<!-- Title: MoFEM::VolumeElementForcesAndSourcesCoreOnSide::UserDataOperator Pages: 1 -->
<svg width="1230pt" height="348pt"
 viewBox="0.00 0.00 1230.00 347.50" xmlns="http://www.w3.org/2000/svg" xmlns:xlink="http://www.w3.org/1999/xlink">
<g id="graph0" class="graph" transform="scale(1 1) rotate(0) translate(4 343.5)">
<title>MoFEM::VolumeElementForcesAndSourcesCoreOnSide::UserDataOperator</title>
<polygon fill="white" stroke="transparent" points="-4,4 -4,-343.5 1226,-343.5 1226,4 -4,4"/>
<!-- Node1 -->
<g id="node1" class="node">
<title>Node1</title>
<g id="a_node1"><a xlink:title="default operator for TET element">
<polygon fill="#bfbfbf" stroke="black" points="594,-147.5 594,-188.5 776,-188.5 776,-147.5 594,-147.5"/>
<text text-anchor="start" x="602" y="-176.5" font-family="Helvetica,sans-Serif" font-size="10.00">MoFEM::VolumeElementForces</text>
<text text-anchor="start" x="602" y="-165.5" font-family="Helvetica,sans-Serif" font-size="10.00">AndSourcesCoreOnSide::UserData</text>
<text text-anchor="middle" x="685" y="-154.5" font-family="Helvetica,sans-Serif" font-size="10.00">Operator</text>
</a>
</g>
</g>
<!-- Node5 -->
<g id="node5" class="node">
<title>Node5</title>
<g id="a_node5"><a xlink:href="structMetaSpringBC_1_1SpringALEMaterialVolOnSideLhs.html" target="_top" xlink:title="Base class for LHS&#45;operators (material) on side volumes.">
<polygon fill="white" stroke="black" points="815,-279 815,-309 996,-309 996,-279 815,-279"/>
<text text-anchor="start" x="823" y="-297" font-family="Helvetica,sans-Serif" font-size="10.00">MetaSpringBC::SpringALEMaterial</text>
<text text-anchor="middle" x="905.5" y="-286" font-family="Helvetica,sans-Serif" font-size="10.00">VolOnSideLhs</text>
</a>
</g>
</g>
<!-- Node1&#45;&gt;Node5 -->
<g id="edge4" class="edge">
<title>Node1&#45;&gt;Node5</title>
<path fill="none" stroke="midnightblue" d="M713.2,-195.88C737.19,-218.94 774.13,-250.9 812,-270 818.81,-273.44 826.17,-276.41 833.64,-278.99"/>
<polygon fill="midnightblue" stroke="midnightblue" points="715.48,-193.22 705.88,-188.74 710.59,-198.23 715.48,-193.22"/>
</g>
<!-- Node8 -->
<g id="node8" class="node">
<title>Node8</title>
<g id="a_node8"><a xlink:href="structMixTransport_1_1MixTransportElement_1_1OpSkeleton_1_1OpVolSide.html" target="_top" xlink:title="calculate values on adjacent tetrahedra to face">
<polygon fill="white" stroke="black" points="818.5,-230 818.5,-260 992.5,-260 992.5,-230 818.5,-230"/>
<text text-anchor="start" x="826.5" y="-248" font-family="Helvetica,sans-Serif" font-size="10.00">MixTransport::MixTransport</text>
<text text-anchor="middle" x="905.5" y="-237" font-family="Helvetica,sans-Serif" font-size="10.00">Element::OpSkeleton::OpVolSide</text>
</a>
</g>
</g>
<!-- Node1&#45;&gt;Node8 -->
<g id="edge7" class="edge">
<title>Node1&#45;&gt;Node8</title>
<path fill="none" stroke="midnightblue" d="M739.8,-192.65C761.9,-202.24 787.9,-212.85 812,-221 821.43,-224.19 831.52,-227.2 841.45,-229.94"/>
<polygon fill="midnightblue" stroke="midnightblue" points="741.15,-189.42 730.59,-188.61 738.34,-195.83 741.15,-189.42"/>
</g>
<!-- Node9 -->
<g id="node9" class="node">
<title>Node9</title>
<g id="a_node9"><a xlink:href="structNeumannForcesSurface_1_1OpCalculateDeformation.html" target="_top" xlink:title="Operator for computing deformation gradients in side volumes.">
<polygon fill="white" stroke="black" points="834,-181 834,-211 977,-211 977,-181 834,-181"/>
<text text-anchor="start" x="842" y="-199" font-family="Helvetica,sans-Serif" font-size="10.00">NeumannForcesSurface</text>
<text text-anchor="middle" x="905.5" y="-188" font-family="Helvetica,sans-Serif" font-size="10.00">::OpCalculateDeformation</text>
</a>
</g>
</g>
<!-- Node1&#45;&gt;Node9 -->
<g id="edge8" class="edge">
<title>Node1&#45;&gt;Node9</title>
<path fill="none" stroke="midnightblue" d="M786.13,-180.83C802.27,-182.9 818.68,-185 833.93,-186.96"/>
<polygon fill="midnightblue" stroke="midnightblue" points="786.5,-177.35 776.13,-179.55 785.61,-184.29 786.5,-177.35"/>
</g>
<!-- Node10 -->
<g id="node10" class="node">
<title>Node10</title>
<g id="a_node10"><a xlink:href="structNeumannForcesSurface_1_1OpNeumannPressureMaterialVolOnSideLhs.html" target="_top" xlink:title="Base class for LHS&#45;operators (material) on side volumes.">
<polygon fill="white" stroke="black" points="822.5,-120.5 822.5,-161.5 988.5,-161.5 988.5,-120.5 822.5,-120.5"/>
<text text-anchor="start" x="830.5" y="-149.5" font-family="Helvetica,sans-Serif" font-size="10.00">NeumannForcesSurface</text>
<text text-anchor="start" x="830.5" y="-138.5" font-family="Helvetica,sans-Serif" font-size="10.00">::OpNeumannPressureMaterial</text>
<text text-anchor="middle" x="905.5" y="-127.5" font-family="Helvetica,sans-Serif" font-size="10.00">VolOnSideLhs</text>
</a>
</g>
</g>
<!-- Node1&#45;&gt;Node10 -->
<g id="edge9" class="edge">
<title>Node1&#45;&gt;Node10</title>
<path fill="none" stroke="midnightblue" d="M786.22,-155.62C798.29,-154.12 810.51,-152.61 822.28,-151.16"/>
<polygon fill="midnightblue" stroke="midnightblue" points="785.63,-152.16 776.13,-156.86 786.49,-159.11 785.63,-152.16"/>
</g>
<!-- Node13 -->
<g id="node13" class="node">
<title>Node13</title>
<g id="a_node13"><a xlink:href="structNeumannForcesSurface_1_1OpNeumannSurfaceForceMaterialVolOnSideLhs.html" target="_top" xlink:title="Base class for LHS&#45;operators (material) on side volumes.">
<polygon fill="white" stroke="black" points="812,-60.5 812,-101.5 999,-101.5 999,-60.5 812,-60.5"/>
<text text-anchor="start" x="820" y="-89.5" font-family="Helvetica,sans-Serif" font-size="10.00">NeumannForcesSurface</text>
<text text-anchor="start" x="820" y="-78.5" font-family="Helvetica,sans-Serif" font-size="10.00">::OpNeumannSurfaceForceMaterial</text>
<text text-anchor="middle" x="905.5" y="-67.5" font-family="Helvetica,sans-Serif" font-size="10.00">VolOnSideLhs</text>
</a>
</g>
</g>
<!-- Node1&#45;&gt;Node13 -->
<g id="edge12" class="edge">
<title>Node1&#45;&gt;Node13</title>
<path fill="none" stroke="midnightblue" d="M737.45,-143.16C760.07,-132.65 787.11,-120.63 812,-111 820.34,-107.77 829.2,-104.59 837.99,-101.58"/>
<polygon fill="midnightblue" stroke="midnightblue" points="735.94,-140.01 728.36,-147.41 738.9,-146.35 735.94,-140.01"/>
</g>
<!-- Node16 -->
<g id="node16" class="node">
<title>Node16</title>
<g id="a_node16"><a xlink:href="structOpVolumeSide.html" target="_top" xlink:title=" ">
<polygon fill="white" stroke="black" points="861.5,-22.5 861.5,-41.5 949.5,-41.5 949.5,-22.5 861.5,-22.5"/>
<text text-anchor="middle" x="905.5" y="-29.5" font-family="Helvetica,sans-Serif" font-size="10.00">OpVolumeSide</text>
</a>
</g>
</g>
<!-- Node1&#45;&gt;Node16 -->
<g id="edge15" class="edge">
<title>Node1&#45;&gt;Node16</title>
<path fill="none" stroke="midnightblue" d="M708.56,-139.49C731.61,-112.4 769.91,-72.67 812,-51 827.16,-43.2 845.27,-38.6 861.43,-35.89"/>
<polygon fill="midnightblue" stroke="midnightblue" points="705.63,-137.54 701.91,-147.45 711.01,-142.02 705.63,-137.54"/>
</g>
<!-- Node2 -->
<g id="node2" class="node">
<title>Node2</title>
<g id="a_node2"><a xlink:href="structMoFEM_1_1VolumeElementForcesAndSourcesCore_1_1UserDataOperator.html" target="_top" xlink:title=" ">
<polygon fill="white" stroke="black" points="367,-153 367,-183 558,-183 558,-153 367,-153"/>
<text text-anchor="start" x="375" y="-171" font-family="Helvetica,sans-Serif" font-size="10.00">MoFEM::VolumeElementForces</text>
<text text-anchor="middle" x="462.5" y="-160" font-family="Helvetica,sans-Serif" font-size="10.00">AndSourcesCore::UserDataOperator</text>
</a>
</g>
</g>
<!-- Node2&#45;&gt;Node1 -->
<g id="edge1" class="edge">
<title>Node2&#45;&gt;Node1</title>
<path fill="none" stroke="midnightblue" d="M568.56,-168C577.01,-168 585.5,-168 593.83,-168"/>
<polygon fill="midnightblue" stroke="midnightblue" points="568.29,-164.5 558.29,-168 568.29,-171.5 568.29,-164.5"/>
</g>
<!-- Node3 -->
<g id="node3" class="node">
<title>Node3</title>
<g id="a_node3"><a xlink:href="structMoFEM_1_1ForcesAndSourcesCore_1_1UserDataOperator.html" target="_top" xlink:title=" ">
<polygon fill="white" stroke="black" points="161,-153 161,-183 331,-183 331,-153 161,-153"/>
<text text-anchor="start" x="169" y="-171" font-family="Helvetica,sans-Serif" font-size="10.00">MoFEM::ForcesAndSourcesCore</text>
<text text-anchor="middle" x="246" y="-160" font-family="Helvetica,sans-Serif" font-size="10.00">::UserDataOperator</text>
</a>
</g>
</g>
<!-- Node3&#45;&gt;Node2 -->
<g id="edge2" class="edge">
<title>Node3&#45;&gt;Node2</title>
<path fill="none" stroke="midnightblue" d="M341.42,-168C349.89,-168 358.47,-168 366.93,-168"/>
<polygon fill="midnightblue" stroke="midnightblue" points="341.16,-164.5 331.16,-168 341.16,-171.5 341.16,-164.5"/>
</g>
<!-- Node4 -->
<g id="node4" class="node">
<title>Node4</title>
<g id="a_node4"><a xlink:href="structMoFEM_1_1DataOperator.html" target="_top" xlink:title="base operator to do operations at Gauss Pt. level">
<polygon fill="white" stroke="black" points="0,-158.5 0,-177.5 125,-177.5 125,-158.5 0,-158.5"/>
<text text-anchor="middle" x="62.5" y="-165.5" font-family="Helvetica,sans-Serif" font-size="10.00">MoFEM::DataOperator</text>
</a>
</g>
</g>
<!-- Node4&#45;&gt;Node3 -->
<g id="edge3" class="edge">
<title>Node4&#45;&gt;Node3</title>
<path fill="none" stroke="midnightblue" d="M135.34,-168C143.75,-168 152.4,-168 160.97,-168"/>
<polygon fill="midnightblue" stroke="midnightblue" points="135.2,-164.5 125.2,-168 135.2,-171.5 135.2,-164.5"/>
</g>
<!-- Node6 -->
<g id="node6" class="node">
<title>Node6</title>
<g id="a_node6"><a xlink:href="structMetaSpringBC_1_1SpringALEMaterialVolOnSideLhs__dX__dX.html" target="_top" xlink:title="LHS&#45;operator (material configuration) on the side volume.">
<polygon fill="white" stroke="black" points="1038,-309 1038,-339 1219,-339 1219,-309 1038,-309"/>
<text text-anchor="start" x="1046" y="-327" font-family="Helvetica,sans-Serif" font-size="10.00">MetaSpringBC::SpringALEMaterial</text>
<text text-anchor="middle" x="1128.5" y="-316" font-family="Helvetica,sans-Serif" font-size="10.00">VolOnSideLhs_dX_dX</text>
</a>
</g>
</g>
<!-- Node5&#45;&gt;Node6 -->
<g id="edge5" class="edge">
<title>Node5&#45;&gt;Node6</title>
<path fill="none" stroke="midnightblue" d="M1006.13,-307.53C1016.69,-308.96 1027.37,-310.41 1037.8,-311.82"/>
<polygon fill="midnightblue" stroke="midnightblue" points="1006.45,-304.04 996.07,-306.16 1005.51,-310.97 1006.45,-304.04"/>
</g>
<!-- Node7 -->
<g id="node7" class="node">
<title>Node7</title>
<g id="a_node7"><a xlink:href="structMetaSpringBC_1_1SpringALEMaterialVolOnSideLhs__dX__dx.html" target="_top" xlink:title="LHS&#45;operator (material configuration) on the side volume for spring element.">
<polygon fill="white" stroke="black" points="1038,-260 1038,-290 1219,-290 1219,-260 1038,-260"/>
<text text-anchor="start" x="1046" y="-278" font-family="Helvetica,sans-Serif" font-size="10.00">MetaSpringBC::SpringALEMaterial</text>
<text text-anchor="middle" x="1128.5" y="-267" font-family="Helvetica,sans-Serif" font-size="10.00">VolOnSideLhs_dX_dx</text>
</a>
</g>
</g>
<!-- Node5&#45;&gt;Node7 -->
<g id="edge6" class="edge">
<title>Node5&#45;&gt;Node7</title>
<path fill="none" stroke="midnightblue" d="M1006.13,-285.43C1016.69,-284.53 1027.37,-283.61 1037.8,-282.71"/>
<polygon fill="midnightblue" stroke="midnightblue" points="1005.73,-281.96 996.07,-286.3 1006.33,-288.93 1005.73,-281.96"/>
</g>
<!-- Node11 -->
<g id="node11" class="node">
<title>Node11</title>
<g id="a_node11"><a xlink:href="structNeumannForcesSurface_1_1OpNeumannPressureMaterialVolOnSideLhs__dX__dX.html" target="_top" xlink:title="LHS&#45;operator (material configuration) on the side volume.">
<polygon fill="white" stroke="black" points="1045.5,-180.5 1045.5,-221.5 1211.5,-221.5 1211.5,-180.5 1045.5,-180.5"/>
<text text-anchor="start" x="1053.5" y="-209.5" font-family="Helvetica,sans-Serif" font-size="10.00">NeumannForcesSurface</text>
<text text-anchor="start" x="1053.5" y="-198.5" font-family="Helvetica,sans-Serif" font-size="10.00">::OpNeumannPressureMaterial</text>
<text text-anchor="middle" x="1128.5" y="-187.5" font-family="Helvetica,sans-Serif" font-size="10.00">VolOnSideLhs_dX_dX</text>
</a>
</g>
</g>
<!-- Node10&#45;&gt;Node11 -->
<g id="edge10" class="edge">
<title>Node10&#45;&gt;Node11</title>
<path fill="none" stroke="midnightblue" d="M992.12,-164.25C1011.81,-169.59 1032.62,-175.24 1051.85,-180.46"/>
<polygon fill="midnightblue" stroke="midnightblue" points="992.81,-160.81 982.25,-161.56 990.98,-167.56 992.81,-160.81"/>
</g>
<!-- Node12 -->
<g id="node12" class="node">
<title>Node12</title>
<g id="a_node12"><a xlink:href="structNeumannForcesSurface_1_1OpNeumannPressureMaterialVolOnSideLhs__dX__dx.html" target="_top" xlink:title="LHS&#45;operator (material configuration) on the side volume.">
<polygon fill="white" stroke="black" points="1045.5,-120.5 1045.5,-161.5 1211.5,-161.5 1211.5,-120.5 1045.5,-120.5"/>
<text text-anchor="start" x="1053.5" y="-149.5" font-family="Helvetica,sans-Serif" font-size="10.00">NeumannForcesSurface</text>
<text text-anchor="start" x="1053.5" y="-138.5" font-family="Helvetica,sans-Serif" font-size="10.00">::OpNeumannPressureMaterial</text>
<text text-anchor="middle" x="1128.5" y="-127.5" font-family="Helvetica,sans-Serif" font-size="10.00">VolOnSideLhs_dX_dx</text>
</a>
</g>
</g>
<!-- Node10&#45;&gt;Node12 -->
<g id="edge11" class="edge">
<title>Node10&#45;&gt;Node12</title>
<path fill="none" stroke="midnightblue" d="M998.81,-141C1014.18,-141 1030.04,-141 1045.14,-141"/>
<polygon fill="midnightblue" stroke="midnightblue" points="998.79,-137.5 988.79,-141 998.79,-144.5 998.79,-137.5"/>
</g>
<!-- Node14 -->
<g id="node14" class="node">
<title>Node14</title>
<g id="a_node14"><a xlink:href="structNeumannForcesSurface_1_1OpNeumannSurfaceForceMaterialVolOnSideLhs__dX__dX.html" target="_top" xlink:title="LHS&#45;operator (material configuration) on the side volume.">
<polygon fill="white" stroke="black" points="1035,-60.5 1035,-101.5 1222,-101.5 1222,-60.5 1035,-60.5"/>
<text text-anchor="start" x="1043" y="-89.5" font-family="Helvetica,sans-Serif" font-size="10.00">NeumannForcesSurface</text>
<text text-anchor="start" x="1043" y="-78.5" font-family="Helvetica,sans-Serif" font-size="10.00">::OpNeumannSurfaceForceMaterial</text>
<text text-anchor="middle" x="1128.5" y="-67.5" font-family="Helvetica,sans-Serif" font-size="10.00">VolOnSideLhs_dX_dX</text>
</a>
</g>
</g>
<!-- Node13&#45;&gt;Node14 -->
<g id="edge13" class="edge">
<title>Node13&#45;&gt;Node14</title>
<path fill="none" stroke="midnightblue" d="M1009.28,-81C1017.85,-81 1026.49,-81 1034.97,-81"/>
<polygon fill="midnightblue" stroke="midnightblue" points="1009.26,-77.5 999.26,-81 1009.26,-84.5 1009.26,-77.5"/>
</g>
<!-- Node15 -->
<g id="node15" class="node">
<title>Node15</title>
<g id="a_node15"><a xlink:href="structNeumannForcesSurface_1_1OpNeumannSurfaceForceMaterialVolOnSideLhs__dX__dx.html" target="_top" xlink:title="LHS&#45;operator (material configuration) on the side volume.">
<polygon fill="white" stroke="black" points="1035,-0.5 1035,-41.5 1222,-41.5 1222,-0.5 1035,-0.5"/>
<text text-anchor="start" x="1043" y="-29.5" font-family="Helvetica,sans-Serif" font-size="10.00">NeumannForcesSurface</text>
<text text-anchor="start" x="1043" y="-18.5" font-family="Helvetica,sans-Serif" font-size="10.00">::OpNeumannSurfaceForceMaterial</text>
<text text-anchor="middle" x="1128.5" y="-7.5" font-family="Helvetica,sans-Serif" font-size="10.00">VolOnSideLhs_dX_dx</text>
</a>
</g>
</g>
<!-- Node13&#45;&gt;Node15 -->
<g id="edge14" class="edge">
<title>Node13&#45;&gt;Node15</title>
<path fill="none" stroke="midnightblue" d="M992.12,-57.75C1011.81,-52.41 1032.62,-46.76 1051.85,-41.54"/>
<polygon fill="midnightblue" stroke="midnightblue" points="990.98,-54.44 982.25,-60.44 992.81,-61.19 990.98,-54.44"/>
</g>
</g>
</svg>
