<?xml version="1.0" encoding="UTF-8" standalone="no"?>
<!DOCTYPE svg PUBLIC "-//W3C//DTD SVG 1.1//EN"
 "http://www.w3.org/Graphics/SVG/1.1/DTD/svg11.dtd">
<!-- Generated by graphviz version 2.43.0 (0)
 -->
<!-- Title: MoFEM::ProblemsManager Pages: 1 -->
<svg width="4001pt" height="1508pt"
 viewBox="0.00 0.00 4001.00 1507.96" xmlns="http://www.w3.org/2000/svg" xmlns:xlink="http://www.w3.org/1999/xlink">
<g id="graph0" class="graph" transform="scale(1 1) rotate(0) translate(4 1503.96)">
<title>MoFEM::ProblemsManager</title>
<polygon fill="white" stroke="transparent" points="-4,4 -4,-1503.96 3997,-1503.96 3997,4 -4,4"/>
<!-- Node1 -->
<g id="node1" class="node">
<title>Node1</title>
<g id="a_node1"><a xlink:title="Problem manager is used to build and partition problems.">
<polygon fill="#bfbfbf" stroke="black" points="3846,-1238.46 3846,-1257.46 3993,-1257.46 3993,-1238.46 3846,-1238.46"/>
<text text-anchor="middle" x="3919.5" y="-1245.46" font-family="Helvetica,sans-Serif" font-size="10.00">MoFEM::ProblemsManager</text>
</a>
</g>
</g>
<!-- Node2 -->
<g id="node2" class="node">
<title>Node2</title>
<g id="a_node2"><a xlink:href="structMoFEM_1_1UnknownInterface.html" target="_top" xlink:title="base class for all interface classes">
<polygon fill="white" stroke="black" points="2166,-1312.46 2166,-1331.46 2314,-1331.46 2314,-1312.46 2166,-1312.46"/>
<text text-anchor="middle" x="2240" y="-1319.46" font-family="Helvetica,sans-Serif" font-size="10.00">MoFEM::UnknownInterface</text>
</a>
</g>
</g>
<!-- Node2&#45;&gt;Node1 -->
<g id="edge1" class="edge">
<title>Node2&#45;&gt;Node1</title>
<path fill="none" stroke="midnightblue" d="M2324.52,-1321.96C2429.96,-1321.96 2616.92,-1321.96 2777,-1321.96 2777,-1321.96 2777,-1321.96 3699,-1321.96 3778.83,-1321.96 3866.83,-1277.47 3902.34,-1257.48"/>
<polygon fill="midnightblue" stroke="midnightblue" points="2324.26,-1318.46 2314.26,-1321.96 2324.26,-1325.46 2324.26,-1318.46"/>
</g>
<!-- Node9 -->
<g id="node9" class="node">
<title>Node9</title>
<g id="a_node9"><a xlink:href="structMoFEM_1_1CoreInterface.html" target="_top" xlink:title="Interface.">
<polygon fill="white" stroke="black" points="2715.5,-1194.46 2715.5,-1213.46 2840.5,-1213.46 2840.5,-1194.46 2715.5,-1194.46"/>
<text text-anchor="middle" x="2778" y="-1201.46" font-family="Helvetica,sans-Serif" font-size="10.00">MoFEM::CoreInterface</text>
</a>
</g>
</g>
<!-- Node2&#45;&gt;Node9 -->
<g id="edge9" class="edge">
<title>Node2&#45;&gt;Node9</title>
<path fill="none" stroke="midnightblue" d="M2294.26,-1310.23C2400.33,-1286.88 2636.11,-1234.98 2733.56,-1213.52"/>
<polygon fill="midnightblue" stroke="midnightblue" points="2293.42,-1306.83 2284.41,-1312.4 2294.93,-1313.67 2293.42,-1306.83"/>
</g>
<!-- Node3 -->
<g id="node3" class="node">
<title>Node3</title>
<g id="a_node3"><a xlink:title=" ">
<polygon fill="white" stroke="#bfbfbf" points="1003.5,-1306.46 1003.5,-1369.46 1244.5,-1369.46 1244.5,-1306.46 1003.5,-1306.46"/>
<text text-anchor="start" x="1011.5" y="-1357.46" font-family="Helvetica,sans-Serif" font-size="10.00">multi_index_container</text>
<text text-anchor="start" x="1011.5" y="-1346.46" font-family="Helvetica,sans-Serif" font-size="10.00">&lt; UIdTypeMap, indexed</text>
<text text-anchor="start" x="1011.5" y="-1335.46" font-family="Helvetica,sans-Serif" font-size="10.00">_by&lt; hashed_unique&lt; member</text>
<text text-anchor="start" x="1011.5" y="-1324.46" font-family="Helvetica,sans-Serif" font-size="10.00">&lt; UIdTypeMap, boost::typeindex</text>
<text text-anchor="middle" x="1124" y="-1313.46" font-family="Helvetica,sans-Serif" font-size="10.00">::type_index, &amp;UIdTypeMap::classIdx &gt; &gt; &gt; &gt;</text>
</a>
</g>
</g>
<!-- Node3&#45;&gt;Node2 -->
<g id="edge2" class="edge">
<title>Node3&#45;&gt;Node2</title>
<path fill="none" stroke="#9a32cd" stroke-dasharray="5,2" d="M1255.08,-1336.09C1490.62,-1332.71 1980.52,-1325.67 2165.84,-1323.01"/>
<polygon fill="#9a32cd" stroke="#9a32cd" points="1254.69,-1332.6 1244.75,-1336.24 1254.8,-1339.59 1254.69,-1332.6"/>
<text text-anchor="middle" x="1720.5" y="-1336.96" font-family="Helvetica,sans-Serif" font-size="10.00"> iFaceTypeMap</text>
</g>
<!-- Node4 -->
<g id="node4" class="node">
<title>Node4</title>
<g id="a_node4"><a xlink:title=" ">
<polygon fill="white" stroke="#bfbfbf" points="0,-711.46 0,-730.46 125,-730.46 125,-711.46 0,-711.46"/>
<text text-anchor="middle" x="62.5" y="-718.46" font-family="Helvetica,sans-Serif" font-size="10.00">multi_index_container</text>
</a>
</g>
</g>
<!-- Node4&#45;&gt;Node3 -->
<g id="edge3" class="edge">
<title>Node4&#45;&gt;Node3</title>
<path fill="none" stroke="orange" stroke-dasharray="5,2" d="M64.6,-740.87C70.34,-840.77 98.22,-1284.13 143,-1323.96 396.16,-1549.15 848.41,-1432.49 1036.87,-1369.54"/>
<polygon fill="orange" stroke="orange" points="68.09,-740.45 64.03,-730.67 61.1,-740.85 68.09,-740.45"/>
<text text-anchor="start" x="423" y="-1491.96" font-family="Helvetica,sans-Serif" font-size="10.00"> &lt; UIdTypeMap, indexed</text>
<text text-anchor="start" x="423" y="-1480.96" font-family="Helvetica,sans-Serif" font-size="10.00">_by&lt; hashed_unique&lt; member</text>
<text text-anchor="start" x="423" y="-1469.96" font-family="Helvetica,sans-Serif" font-size="10.00">&lt; UIdTypeMap, boost::typeindex</text>
<text text-anchor="middle" x="535.5" y="-1458.96" font-family="Helvetica,sans-Serif" font-size="10.00">::type_index, &amp;UIdTypeMap::classIdx &gt; &gt; &gt; &gt;</text>
</g>
<!-- Node10 -->
<g id="node10" class="node">
<title>Node10</title>
<g id="a_node10"><a xlink:title=" ">
<polygon fill="white" stroke="#bfbfbf" points="1320,-1049.46 1320,-1244.46 2121,-1244.46 2121,-1049.46 1320,-1049.46"/>
<text text-anchor="start" x="1328" y="-1232.46" font-family="Helvetica,sans-Serif" font-size="10.00">multi_index_container</text>
<text text-anchor="start" x="1328" y="-1221.46" font-family="Helvetica,sans-Serif" font-size="10.00">&lt; FieldEntityEntFiniteElement</text>
<text text-anchor="start" x="1328" y="-1210.46" font-family="Helvetica,sans-Serif" font-size="10.00">AdjacencyMap, indexed_by&lt;</text>
<text text-anchor="start" x="1328" y="-1199.46" font-family="Helvetica,sans-Serif" font-size="10.00"> ordered_unique&lt; tag&lt; Composite</text>
<text text-anchor="start" x="1328" y="-1188.46" font-family="Helvetica,sans-Serif" font-size="10.00">_Unique_mi_tag &gt;, composite_key</text>
<text text-anchor="start" x="1328" y="-1177.46" font-family="Helvetica,sans-Serif" font-size="10.00">&lt; FieldEntityEntFiniteElementAdjacencyMap,</text>
<text text-anchor="start" x="1328" y="-1166.46" font-family="Helvetica,sans-Serif" font-size="10.00"> const_mem_fun&lt; FieldEntityEntFiniteElementAdjacency</text>
<text text-anchor="start" x="1328" y="-1155.46" font-family="Helvetica,sans-Serif" font-size="10.00">Map, UId, &amp;FieldEntityEntFiniteElementAdjacencyMap</text>
<text text-anchor="start" x="1328" y="-1144.46" font-family="Helvetica,sans-Serif" font-size="10.00">::getEntUniqueId &gt;, const_mem_fun&lt; FieldEntityEntFiniteElementAdjacency</text>
<text text-anchor="start" x="1328" y="-1133.46" font-family="Helvetica,sans-Serif" font-size="10.00">Map, UId, &amp;FieldEntityEntFiniteElementAdjacencyMap::getFeUniqueId</text>
<text text-anchor="start" x="1328" y="-1122.46" font-family="Helvetica,sans-Serif" font-size="10.00"> &gt; &gt; &gt;, ordered_non_unique&lt; tag&lt; Unique_mi_tag &gt;, const_mem_fun</text>
<text text-anchor="start" x="1328" y="-1111.46" font-family="Helvetica,sans-Serif" font-size="10.00">&lt; FieldEntityEntFiniteElementAdjacencyMap, UId, &amp;FieldEntityEntFiniteElementAdjacencyMap</text>
<text text-anchor="start" x="1328" y="-1100.46" font-family="Helvetica,sans-Serif" font-size="10.00">::getEntUniqueId &gt; &gt;, ordered_non_unique&lt; tag&lt; FE_Unique_mi_tag &gt;, const_mem_fun</text>
<text text-anchor="start" x="1328" y="-1089.46" font-family="Helvetica,sans-Serif" font-size="10.00">&lt; FieldEntityEntFiniteElementAdjacencyMap, UId, &amp;FieldEntityEntFiniteElementAdjacencyMap</text>
<text text-anchor="start" x="1328" y="-1078.46" font-family="Helvetica,sans-Serif" font-size="10.00">::getFeUniqueId &gt; &gt;, ordered_non_unique&lt; tag&lt; FEEnt_mi_tag &gt;, const_mem_fun&lt; FieldEntityEntFiniteElementAdjacency</text>
<text text-anchor="start" x="1328" y="-1067.46" font-family="Helvetica,sans-Serif" font-size="10.00">Map, EntityHandle, &amp;FieldEntityEntFiniteElementAdjacencyMap::getFeHandle &gt; &gt;, ordered_non_unique&lt; tag</text>
<text text-anchor="middle" x="1720.5" y="-1056.46" font-family="Helvetica,sans-Serif" font-size="10.00">&lt; Ent_mi_tag &gt;, const_mem_fun&lt; FieldEntityEntFiniteElementAdjacencyMap, EntityHandle, &amp;FieldEntityEntFiniteElementAdjacencyMap::getEntHandle &gt; &gt; &gt; &gt;</text>
</a>
</g>
</g>
<!-- Node4&#45;&gt;Node10 -->
<g id="edge11" class="edge">
<title>Node4&#45;&gt;Node10</title>
<path fill="none" stroke="orange" stroke-dasharray="5,2" d="M63.15,-740.63C63.42,-789.21 71.36,-915.54 143,-978.96 414.47,-1219.31 585.39,-1085.24 946,-1122.96 1067.1,-1135.63 1199.39,-1142.33 1319.78,-1145.71"/>
<polygon fill="orange" stroke="orange" points="66.65,-740.53 63.2,-730.51 59.65,-740.5 66.65,-740.53"/>
<text text-anchor="start" x="143" y="-1294.96" font-family="Helvetica,sans-Serif" font-size="10.00"> &lt; FieldEntityEntFiniteElement</text>
<text text-anchor="start" x="143" y="-1283.96" font-family="Helvetica,sans-Serif" font-size="10.00">AdjacencyMap, indexed_by</text>
<text text-anchor="start" x="143" y="-1272.96" font-family="Helvetica,sans-Serif" font-size="10.00">&lt; ordered_unique&lt; tag&lt; Composite</text>
<text text-anchor="start" x="143" y="-1261.96" font-family="Helvetica,sans-Serif" font-size="10.00">_Unique_mi_tag &gt;, composite_key</text>
<text text-anchor="start" x="143" y="-1250.96" font-family="Helvetica,sans-Serif" font-size="10.00">&lt; FieldEntityEntFiniteElementAdjacencyMap,</text>
<text text-anchor="start" x="143" y="-1239.96" font-family="Helvetica,sans-Serif" font-size="10.00"> const_mem_fun&lt; FieldEntityEntFiniteElementAdjacency</text>
<text text-anchor="start" x="143" y="-1228.96" font-family="Helvetica,sans-Serif" font-size="10.00">Map, UId, &amp;FieldEntityEntFiniteElementAdjacencyMap</text>
<text text-anchor="start" x="143" y="-1217.96" font-family="Helvetica,sans-Serif" font-size="10.00">::getEntUniqueId &gt;, const_mem_fun&lt; FieldEntityEntFiniteElementAdjacency</text>
<text text-anchor="start" x="143" y="-1206.96" font-family="Helvetica,sans-Serif" font-size="10.00">Map, UId, &amp;FieldEntityEntFiniteElementAdjacencyMap::getFeUniqueId</text>
<text text-anchor="start" x="143" y="-1195.96" font-family="Helvetica,sans-Serif" font-size="10.00"> &gt; &gt; &gt;, ordered_non_unique&lt; tag&lt; Unique_mi_tag &gt;, const_mem_fun</text>
<text text-anchor="start" x="143" y="-1184.96" font-family="Helvetica,sans-Serif" font-size="10.00">&lt; FieldEntityEntFiniteElementAdjacencyMap, UId, &amp;FieldEntityEntFiniteElementAdjacencyMap</text>
<text text-anchor="start" x="143" y="-1173.96" font-family="Helvetica,sans-Serif" font-size="10.00">::getEntUniqueId &gt; &gt;, ordered_non_unique&lt; tag&lt; FE_Unique_mi_tag &gt;, const_mem_fun</text>
<text text-anchor="start" x="143" y="-1162.96" font-family="Helvetica,sans-Serif" font-size="10.00">&lt; FieldEntityEntFiniteElementAdjacencyMap, UId, &amp;FieldEntityEntFiniteElementAdjacencyMap</text>
<text text-anchor="start" x="143" y="-1151.96" font-family="Helvetica,sans-Serif" font-size="10.00">::getFeUniqueId &gt; &gt;, ordered_non_unique&lt; tag&lt; FEEnt_mi_tag &gt;, const_mem_fun&lt; FieldEntityEntFiniteElementAdjacency</text>
<text text-anchor="start" x="143" y="-1140.96" font-family="Helvetica,sans-Serif" font-size="10.00">Map, EntityHandle, &amp;FieldEntityEntFiniteElementAdjacencyMap::getFeHandle &gt; &gt;, ordered_non_unique&lt; tag</text>
<text text-anchor="middle" x="535.5" y="-1129.96" font-family="Helvetica,sans-Serif" font-size="10.00">&lt; Ent_mi_tag &gt;, const_mem_fun&lt; FieldEntityEntFiniteElementAdjacencyMap, EntityHandle, &amp;FieldEntityEntFiniteElementAdjacencyMap::getEntHandle &gt; &gt; &gt; &gt;</text>
</g>
<!-- Node11 -->
<g id="node11" class="node">
<title>Node11</title>
<g id="a_node11"><a xlink:title=" ">
<polygon fill="white" stroke="#bfbfbf" points="2359,-893.96 2359,-1055.96 2645,-1055.96 2645,-893.96 2359,-893.96"/>
<text text-anchor="start" x="2367" y="-1043.96" font-family="Helvetica,sans-Serif" font-size="10.00">multi_index_container</text>
<text text-anchor="start" x="2367" y="-1032.96" font-family="Helvetica,sans-Serif" font-size="10.00">&lt; boost::shared_ptr&lt;</text>
<text text-anchor="start" x="2367" y="-1021.96" font-family="Helvetica,sans-Serif" font-size="10.00"> Field &gt;, indexed_by&lt;</text>
<text text-anchor="start" x="2367" y="-1010.96" font-family="Helvetica,sans-Serif" font-size="10.00"> hashed_unique&lt; tag&lt; BitFieldId</text>
<text text-anchor="start" x="2367" y="-999.96" font-family="Helvetica,sans-Serif" font-size="10.00">_mi_tag &gt;, const_mem_fun&lt; Field,</text>
<text text-anchor="start" x="2367" y="-988.96" font-family="Helvetica,sans-Serif" font-size="10.00"> const BitFieldId &amp;, &amp;Field::getId</text>
<text text-anchor="start" x="2367" y="-977.96" font-family="Helvetica,sans-Serif" font-size="10.00"> &gt;, HashBit&lt; BitFieldId &gt;, EqBit&lt;</text>
<text text-anchor="start" x="2367" y="-966.96" font-family="Helvetica,sans-Serif" font-size="10.00"> BitFieldId &gt; &gt;, ordered_unique&lt; tag</text>
<text text-anchor="start" x="2367" y="-955.96" font-family="Helvetica,sans-Serif" font-size="10.00">&lt; Meshset_mi_tag &gt;, member&lt; Field, EntityHandle,</text>
<text text-anchor="start" x="2367" y="-944.96" font-family="Helvetica,sans-Serif" font-size="10.00"> &amp;Field::meshSet &gt; &gt;, ordered_unique&lt; tag&lt;</text>
<text text-anchor="start" x="2367" y="-933.96" font-family="Helvetica,sans-Serif" font-size="10.00"> FieldName_mi_tag &gt;, const_mem_fun&lt; Field, boost</text>
<text text-anchor="start" x="2367" y="-922.96" font-family="Helvetica,sans-Serif" font-size="10.00">::string_ref, &amp;Field::getNameRef &gt; &gt;, ordered_non</text>
<text text-anchor="start" x="2367" y="-911.96" font-family="Helvetica,sans-Serif" font-size="10.00">_unique&lt; tag&lt; BitFieldId_space_mi_tag &gt;, const_mem</text>
<text text-anchor="middle" x="2502" y="-900.96" font-family="Helvetica,sans-Serif" font-size="10.00">_fun&lt; Field, FieldSpace, &amp;Field::getSpace &gt; &gt; &gt; &gt;</text>
</a>
</g>
</g>
<!-- Node4&#45;&gt;Node11 -->
<g id="edge14" class="edge">
<title>Node4&#45;&gt;Node11</title>
<path fill="none" stroke="orange" stroke-dasharray="5,2" d="M66.22,-740.84C72.42,-777.61 91.29,-855.69 143,-890.96 356.21,-1036.38 1097.98,-806.9 1302,-964.96 1322.33,-980.71 1299.18,-1004.86 1320,-1019.96 1392.06,-1072.2 2032.15,-1025.2 2121,-1019.96 2199.92,-1015.3 2287.58,-1005.25 2358.8,-995.83"/>
<polygon fill="orange" stroke="orange" points="69.66,-740.2 64.68,-730.85 62.74,-741.27 69.66,-740.2"/>
<text text-anchor="start" x="991.5" y="-1110.96" font-family="Helvetica,sans-Serif" font-size="10.00"> &lt; boost::shared_ptr</text>
<text text-anchor="start" x="991.5" y="-1099.96" font-family="Helvetica,sans-Serif" font-size="10.00">&lt; Field &gt;, indexed_by</text>
<text text-anchor="start" x="991.5" y="-1088.96" font-family="Helvetica,sans-Serif" font-size="10.00">&lt; hashed_unique&lt; tag&lt;</text>
<text text-anchor="start" x="991.5" y="-1077.96" font-family="Helvetica,sans-Serif" font-size="10.00"> BitFieldId_mi_tag &gt;, const</text>
<text text-anchor="start" x="991.5" y="-1066.96" font-family="Helvetica,sans-Serif" font-size="10.00">_mem_fun&lt; Field, const BitFieldId</text>
<text text-anchor="start" x="991.5" y="-1055.96" font-family="Helvetica,sans-Serif" font-size="10.00"> &amp;, &amp;Field::getId &gt;, HashBit&lt; BitFieldId</text>
<text text-anchor="start" x="991.5" y="-1044.96" font-family="Helvetica,sans-Serif" font-size="10.00"> &gt;, EqBit&lt; BitFieldId &gt; &gt;, ordered_unique</text>
<text text-anchor="start" x="991.5" y="-1033.96" font-family="Helvetica,sans-Serif" font-size="10.00">&lt; tag&lt; Meshset_mi_tag &gt;, member&lt; Field,</text>
<text text-anchor="start" x="991.5" y="-1022.96" font-family="Helvetica,sans-Serif" font-size="10.00"> EntityHandle, &amp;Field::meshSet &gt; &gt;, ordered</text>
<text text-anchor="start" x="991.5" y="-1011.96" font-family="Helvetica,sans-Serif" font-size="10.00">_unique&lt; tag&lt; FieldName_mi_tag &gt;, const_mem</text>
<text text-anchor="start" x="991.5" y="-1000.96" font-family="Helvetica,sans-Serif" font-size="10.00">_fun&lt; Field, boost::string_ref, &amp;Field::getNameRef</text>
<text text-anchor="start" x="991.5" y="-989.96" font-family="Helvetica,sans-Serif" font-size="10.00"> &gt; &gt;, ordered_non_unique&lt; tag&lt; BitFieldId_space</text>
<text text-anchor="start" x="991.5" y="-978.96" font-family="Helvetica,sans-Serif" font-size="10.00">_mi_tag &gt;, const_mem_fun&lt; Field, FieldSpace, &amp;Field</text>
<text text-anchor="middle" x="1124" y="-967.96" font-family="Helvetica,sans-Serif" font-size="10.00">::getSpace &gt; &gt; &gt; &gt;</text>
</g>
<!-- Node12 -->
<g id="node12" class="node">
<title>Node12</title>
<g id="a_node12"><a xlink:title=" ">
<polygon fill="white" stroke="#bfbfbf" points="2911,-831.96 2911,-993.96 3174,-993.96 3174,-831.96 2911,-831.96"/>
<text text-anchor="start" x="2919" y="-981.96" font-family="Helvetica,sans-Serif" font-size="10.00">multi_index_container</text>
<text text-anchor="start" x="2919" y="-970.96" font-family="Helvetica,sans-Serif" font-size="10.00">&lt; boost::shared_ptr&lt;</text>
<text text-anchor="start" x="2919" y="-959.96" font-family="Helvetica,sans-Serif" font-size="10.00"> FiniteElement &gt;, indexed</text>
<text text-anchor="start" x="2919" y="-948.96" font-family="Helvetica,sans-Serif" font-size="10.00">_by&lt; hashed_unique&lt; tag&lt;</text>
<text text-anchor="start" x="2919" y="-937.96" font-family="Helvetica,sans-Serif" font-size="10.00"> FiniteElement_Meshset_mi</text>
<text text-anchor="start" x="2919" y="-926.96" font-family="Helvetica,sans-Serif" font-size="10.00">_tag &gt;, member&lt; FiniteElement,</text>
<text text-anchor="start" x="2919" y="-915.96" font-family="Helvetica,sans-Serif" font-size="10.00"> EntityHandle, &amp;FiniteElement</text>
<text text-anchor="start" x="2919" y="-904.96" font-family="Helvetica,sans-Serif" font-size="10.00">::meshset &gt; &gt;, hashed_unique&lt;</text>
<text text-anchor="start" x="2919" y="-893.96" font-family="Helvetica,sans-Serif" font-size="10.00"> tag&lt; BitFEId_mi_tag &gt;, const_mem</text>
<text text-anchor="start" x="2919" y="-882.96" font-family="Helvetica,sans-Serif" font-size="10.00">_fun&lt; FiniteElement, BitFEId, &amp;FiniteElement</text>
<text text-anchor="start" x="2919" y="-871.96" font-family="Helvetica,sans-Serif" font-size="10.00">::getId &gt;, HashBit&lt; BitFEId &gt;, EqBit&lt; BitFEId</text>
<text text-anchor="start" x="2919" y="-860.96" font-family="Helvetica,sans-Serif" font-size="10.00"> &gt; &gt;, ordered_unique&lt; tag&lt; FiniteElement_name</text>
<text text-anchor="start" x="2919" y="-849.96" font-family="Helvetica,sans-Serif" font-size="10.00">_mi_tag &gt;, const_mem_fun&lt; FiniteElement, boost</text>
<text text-anchor="middle" x="3042.5" y="-838.96" font-family="Helvetica,sans-Serif" font-size="10.00">::string_ref, &amp;FiniteElement::getNameRef &gt; &gt; &gt; &gt;</text>
</a>
</g>
</g>
<!-- Node4&#45;&gt;Node12 -->
<g id="edge16" class="edge">
<title>Node4&#45;&gt;Node12</title>
<path fill="none" stroke="orange" stroke-dasharray="5,2" d="M67.8,-740.52C76.06,-772.75 97.5,-836.13 143,-862.96 154.83,-869.94 2107.27,-872.7 2121,-872.96 2353.97,-877.33 2412.23,-879.43 2645,-889.96 2733.69,-893.97 2833.46,-899.76 2910.73,-904.53"/>
<polygon fill="orange" stroke="orange" points="71.14,-739.44 65.41,-730.53 64.33,-741.07 71.14,-739.44"/>
<text text-anchor="start" x="1597" y="-1007.96" font-family="Helvetica,sans-Serif" font-size="10.00"> &lt; boost::shared_ptr</text>
<text text-anchor="start" x="1597" y="-996.96" font-family="Helvetica,sans-Serif" font-size="10.00">&lt; FiniteElement &gt;, indexed</text>
<text text-anchor="start" x="1597" y="-985.96" font-family="Helvetica,sans-Serif" font-size="10.00">_by&lt; hashed_unique&lt; tag</text>
<text text-anchor="start" x="1597" y="-974.96" font-family="Helvetica,sans-Serif" font-size="10.00">&lt; FiniteElement_Meshset_mi</text>
<text text-anchor="start" x="1597" y="-963.96" font-family="Helvetica,sans-Serif" font-size="10.00">_tag &gt;, member&lt; FiniteElement,</text>
<text text-anchor="start" x="1597" y="-952.96" font-family="Helvetica,sans-Serif" font-size="10.00"> EntityHandle, &amp;FiniteElement</text>
<text text-anchor="start" x="1597" y="-941.96" font-family="Helvetica,sans-Serif" font-size="10.00">::meshset &gt; &gt;, hashed_unique&lt;</text>
<text text-anchor="start" x="1597" y="-930.96" font-family="Helvetica,sans-Serif" font-size="10.00"> tag&lt; BitFEId_mi_tag &gt;, const_mem</text>
<text text-anchor="start" x="1597" y="-919.96" font-family="Helvetica,sans-Serif" font-size="10.00">_fun&lt; FiniteElement, BitFEId, &amp;FiniteElement</text>
<text text-anchor="start" x="1597" y="-908.96" font-family="Helvetica,sans-Serif" font-size="10.00">::getId &gt;, HashBit&lt; BitFEId &gt;, EqBit&lt; BitFEId</text>
<text text-anchor="start" x="1597" y="-897.96" font-family="Helvetica,sans-Serif" font-size="10.00"> &gt; &gt;, ordered_unique&lt; tag&lt; FiniteElement_name</text>
<text text-anchor="start" x="1597" y="-886.96" font-family="Helvetica,sans-Serif" font-size="10.00">_mi_tag &gt;, const_mem_fun&lt; FiniteElement, boost</text>
<text text-anchor="middle" x="1720.5" y="-875.96" font-family="Helvetica,sans-Serif" font-size="10.00">::string_ref, &amp;FiniteElement::getNameRef &gt; &gt; &gt; &gt;</text>
</g>
<!-- Node14 -->
<g id="node14" class="node">
<title>Node14</title>
<g id="a_node14"><a xlink:title=" ">
<polygon fill="white" stroke="#bfbfbf" points="1598,-723.46 1598,-852.46 1843,-852.46 1843,-723.46 1598,-723.46"/>
<text text-anchor="start" x="1606" y="-840.46" font-family="Helvetica,sans-Serif" font-size="10.00">multi_index_container</text>
<text text-anchor="start" x="1606" y="-829.46" font-family="Helvetica,sans-Serif" font-size="10.00">&lt; boost::shared_ptr&lt;</text>
<text text-anchor="start" x="1606" y="-818.46" font-family="Helvetica,sans-Serif" font-size="10.00"> EntFiniteElement &gt;, indexed</text>
<text text-anchor="start" x="1606" y="-807.46" font-family="Helvetica,sans-Serif" font-size="10.00">_by&lt; ordered_unique&lt; tag&lt;</text>
<text text-anchor="start" x="1606" y="-796.46" font-family="Helvetica,sans-Serif" font-size="10.00"> Unique_mi_tag &gt;, const_mem</text>
<text text-anchor="start" x="1606" y="-785.46" font-family="Helvetica,sans-Serif" font-size="10.00">_fun&lt; EntFiniteElement, UId,</text>
<text text-anchor="start" x="1606" y="-774.46" font-family="Helvetica,sans-Serif" font-size="10.00"> &amp;EntFiniteElement::getLocalUniqueId</text>
<text text-anchor="start" x="1606" y="-763.46" font-family="Helvetica,sans-Serif" font-size="10.00"> &gt; &gt;, ordered_non_unique&lt; tag&lt; Ent</text>
<text text-anchor="start" x="1606" y="-752.46" font-family="Helvetica,sans-Serif" font-size="10.00">_mi_tag &gt;, const_mem_fun&lt; EntFiniteElement</text>
<text text-anchor="start" x="1606" y="-741.46" font-family="Helvetica,sans-Serif" font-size="10.00">::interface_type_RefEntity, EntityHandle,</text>
<text text-anchor="middle" x="1720.5" y="-730.46" font-family="Helvetica,sans-Serif" font-size="10.00"> &amp;EntFiniteElement::getEnt &gt; &gt; &gt; &gt;</text>
</a>
</g>
</g>
<!-- Node4&#45;&gt;Node14 -->
<g id="edge19" class="edge">
<title>Node4&#45;&gt;Node14</title>
<path fill="none" stroke="orange" stroke-dasharray="5,2" d="M135.37,-720.35C337.33,-718.95 897.33,-717.33 928,-741.96 954.05,-762.88 919.69,-794.35 946,-814.96 1070.55,-912.53 1143.86,-820.07 1302,-814.96 1401.64,-811.74 1514.44,-804.21 1597.66,-797.92"/>
<polygon fill="orange" stroke="orange" points="135.14,-716.85 125.16,-720.42 135.19,-723.85 135.14,-716.85"/>
<text text-anchor="start" x="436" y="-854.96" font-family="Helvetica,sans-Serif" font-size="10.00"> &lt; boost::shared_ptr</text>
<text text-anchor="start" x="436" y="-843.96" font-family="Helvetica,sans-Serif" font-size="10.00">&lt; EntFiniteElement &gt;</text>
<text text-anchor="start" x="436" y="-832.96" font-family="Helvetica,sans-Serif" font-size="10.00">, indexed_by&lt; ordered</text>
<text text-anchor="start" x="436" y="-821.96" font-family="Helvetica,sans-Serif" font-size="10.00">_unique&lt; tag&lt; Unique_mi</text>
<text text-anchor="start" x="436" y="-810.96" font-family="Helvetica,sans-Serif" font-size="10.00">_tag &gt;, const_mem_fun&lt; EntFinite</text>
<text text-anchor="start" x="436" y="-799.96" font-family="Helvetica,sans-Serif" font-size="10.00">Element, UId, &amp;EntFiniteElement</text>
<text text-anchor="start" x="436" y="-788.96" font-family="Helvetica,sans-Serif" font-size="10.00">::getLocalUniqueId &gt; &gt;, ordered</text>
<text text-anchor="start" x="436" y="-777.96" font-family="Helvetica,sans-Serif" font-size="10.00">_non_unique&lt; tag&lt; Ent_mi_tag &gt;,</text>
<text text-anchor="start" x="436" y="-766.96" font-family="Helvetica,sans-Serif" font-size="10.00"> const_mem_fun&lt; EntFiniteElement</text>
<text text-anchor="start" x="436" y="-755.96" font-family="Helvetica,sans-Serif" font-size="10.00">::interface_type_RefEntity, EntityHandle,</text>
<text text-anchor="middle" x="535.5" y="-744.96" font-family="Helvetica,sans-Serif" font-size="10.00"> &amp;EntFiniteElement::getEnt &gt; &gt; &gt; &gt;</text>
</g>
<!-- Node16 -->
<g id="node16" class="node">
<title>Node16</title>
<g id="a_node16"><a xlink:title=" ">
<polygon fill="white" stroke="#bfbfbf" points="2139,-645.46 2139,-774.46 2341,-774.46 2341,-645.46 2139,-645.46"/>
<text text-anchor="start" x="2147" y="-762.46" font-family="Helvetica,sans-Serif" font-size="10.00">multi_index_container</text>
<text text-anchor="start" x="2147" y="-751.46" font-family="Helvetica,sans-Serif" font-size="10.00">&lt; boost::shared_ptr&lt;</text>
<text text-anchor="start" x="2147" y="-740.46" font-family="Helvetica,sans-Serif" font-size="10.00"> DofEntity &gt;, indexed</text>
<text text-anchor="start" x="2147" y="-729.46" font-family="Helvetica,sans-Serif" font-size="10.00">_by&lt; ordered_unique&lt; tag</text>
<text text-anchor="start" x="2147" y="-718.46" font-family="Helvetica,sans-Serif" font-size="10.00">&lt; Unique_mi_tag &gt;, const</text>
<text text-anchor="start" x="2147" y="-707.46" font-family="Helvetica,sans-Serif" font-size="10.00">_mem_fun&lt; DofEntity, UId,</text>
<text text-anchor="start" x="2147" y="-696.46" font-family="Helvetica,sans-Serif" font-size="10.00"> &amp;DofEntity::getLocalUniqueId</text>
<text text-anchor="start" x="2147" y="-685.46" font-family="Helvetica,sans-Serif" font-size="10.00"> &gt; &gt;, ordered_non_unique&lt; tag</text>
<text text-anchor="start" x="2147" y="-674.46" font-family="Helvetica,sans-Serif" font-size="10.00">&lt; Ent_mi_tag &gt;, const_mem_fun</text>
<text text-anchor="start" x="2147" y="-663.46" font-family="Helvetica,sans-Serif" font-size="10.00">&lt; DofEntity, EntityHandle, &amp;DofEntity</text>
<text text-anchor="middle" x="2240" y="-652.46" font-family="Helvetica,sans-Serif" font-size="10.00">::getEnt &gt; &gt; &gt; &gt;</text>
</a>
</g>
</g>
<!-- Node4&#45;&gt;Node16 -->
<g id="edge22" class="edge">
<title>Node4&#45;&gt;Node16</title>
<path fill="none" stroke="orange" stroke-dasharray="5,2" d="M135.26,-715.35C137.87,-715.21 140.46,-715.08 143,-714.96 499.56,-698.41 589.07,-704.07 946,-700.96 1390.74,-697.08 1921.55,-704.6 2138.82,-708.19"/>
<polygon fill="orange" stroke="orange" points="134.88,-711.87 125.11,-715.96 135.3,-718.86 134.88,-711.87"/>
<text text-anchor="start" x="1031" y="-802.96" font-family="Helvetica,sans-Serif" font-size="10.00"> &lt; boost::shared_ptr</text>
<text text-anchor="start" x="1031" y="-791.96" font-family="Helvetica,sans-Serif" font-size="10.00">&lt; DofEntity &gt;, indexed</text>
<text text-anchor="start" x="1031" y="-780.96" font-family="Helvetica,sans-Serif" font-size="10.00">_by&lt; ordered_unique&lt; tag</text>
<text text-anchor="start" x="1031" y="-769.96" font-family="Helvetica,sans-Serif" font-size="10.00">&lt; Unique_mi_tag &gt;, const</text>
<text text-anchor="start" x="1031" y="-758.96" font-family="Helvetica,sans-Serif" font-size="10.00">_mem_fun&lt; DofEntity, UId,</text>
<text text-anchor="start" x="1031" y="-747.96" font-family="Helvetica,sans-Serif" font-size="10.00"> &amp;DofEntity::getLocalUniqueId</text>
<text text-anchor="start" x="1031" y="-736.96" font-family="Helvetica,sans-Serif" font-size="10.00"> &gt; &gt;, ordered_non_unique&lt; tag</text>
<text text-anchor="start" x="1031" y="-725.96" font-family="Helvetica,sans-Serif" font-size="10.00">&lt; Ent_mi_tag &gt;, const_mem_fun</text>
<text text-anchor="start" x="1031" y="-714.96" font-family="Helvetica,sans-Serif" font-size="10.00">&lt; DofEntity, EntityHandle, &amp;DofEntity</text>
<text text-anchor="middle" x="1124" y="-703.96" font-family="Helvetica,sans-Serif" font-size="10.00">::getEnt &gt; &gt; &gt; &gt;</text>
</g>
<!-- Node18 -->
<g id="node18" class="node">
<title>Node18</title>
<g id="a_node18"><a xlink:title=" ">
<polygon fill="white" stroke="#bfbfbf" points="2418.5,-570.96 2418.5,-666.96 2585.5,-666.96 2585.5,-570.96 2418.5,-570.96"/>
<text text-anchor="start" x="2426.5" y="-654.96" font-family="Helvetica,sans-Serif" font-size="10.00">multi_index_container</text>
<text text-anchor="start" x="2426.5" y="-643.96" font-family="Helvetica,sans-Serif" font-size="10.00">&lt; boost::shared_ptr&lt;</text>
<text text-anchor="start" x="2426.5" y="-632.96" font-family="Helvetica,sans-Serif" font-size="10.00"> RefElement &gt;, indexed</text>
<text text-anchor="start" x="2426.5" y="-621.96" font-family="Helvetica,sans-Serif" font-size="10.00">_by&lt; ordered_unique&lt; tag</text>
<text text-anchor="start" x="2426.5" y="-610.96" font-family="Helvetica,sans-Serif" font-size="10.00">&lt; Ent_mi_tag &gt;, const_mem</text>
<text text-anchor="start" x="2426.5" y="-599.96" font-family="Helvetica,sans-Serif" font-size="10.00">_fun&lt; RefElement::interface</text>
<text text-anchor="start" x="2426.5" y="-588.96" font-family="Helvetica,sans-Serif" font-size="10.00">_type_RefEntity, EntityHandle,</text>
<text text-anchor="middle" x="2502" y="-577.96" font-family="Helvetica,sans-Serif" font-size="10.00"> &amp;RefElement::getEnt &gt; &gt; &gt; &gt;</text>
</a>
</g>
</g>
<!-- Node4&#45;&gt;Node18 -->
<g id="edge25" class="edge">
<title>Node4&#45;&gt;Node18</title>
<path fill="none" stroke="orange" stroke-dasharray="5,2" d="M100.17,-708.26C113.51,-704.07 128.8,-699.77 143,-696.96 494.77,-627.25 587.82,-635.54 946,-617.96 1508.2,-590.37 2186.11,-608.38 2418.33,-616.02"/>
<polygon fill="orange" stroke="orange" points="98.84,-705.01 90.4,-711.41 100.99,-711.67 98.84,-705.01"/>
<text text-anchor="start" x="1048.5" y="-686.96" font-family="Helvetica,sans-Serif" font-size="10.00"> &lt; boost::shared_ptr</text>
<text text-anchor="start" x="1048.5" y="-675.96" font-family="Helvetica,sans-Serif" font-size="10.00">&lt; RefElement &gt;, indexed</text>
<text text-anchor="start" x="1048.5" y="-664.96" font-family="Helvetica,sans-Serif" font-size="10.00">_by&lt; ordered_unique&lt; tag</text>
<text text-anchor="start" x="1048.5" y="-653.96" font-family="Helvetica,sans-Serif" font-size="10.00">&lt; Ent_mi_tag &gt;, const_mem</text>
<text text-anchor="start" x="1048.5" y="-642.96" font-family="Helvetica,sans-Serif" font-size="10.00">_fun&lt; RefElement::interface</text>
<text text-anchor="start" x="1048.5" y="-631.96" font-family="Helvetica,sans-Serif" font-size="10.00">_type_RefEntity, EntityHandle,</text>
<text text-anchor="middle" x="1124" y="-620.96" font-family="Helvetica,sans-Serif" font-size="10.00"> &amp;RefElement::getEnt &gt; &gt; &gt; &gt;</text>
</g>
<!-- Node23 -->
<g id="node23" class="node">
<title>Node23</title>
<g id="a_node23"><a xlink:title=" ">
<polygon fill="white" stroke="#bfbfbf" points="2663,-398.96 2663,-516.96 2893,-516.96 2893,-398.96 2663,-398.96"/>
<text text-anchor="start" x="2671" y="-504.96" font-family="Helvetica,sans-Serif" font-size="10.00">multi_index_container</text>
<text text-anchor="start" x="2671" y="-493.96" font-family="Helvetica,sans-Serif" font-size="10.00">&lt; boost::shared_ptr&lt;</text>
<text text-anchor="start" x="2671" y="-482.96" font-family="Helvetica,sans-Serif" font-size="10.00"> FieldEntity &gt;, indexed</text>
<text text-anchor="start" x="2671" y="-471.96" font-family="Helvetica,sans-Serif" font-size="10.00">_by&lt; ordered_unique&lt; tag</text>
<text text-anchor="start" x="2671" y="-460.96" font-family="Helvetica,sans-Serif" font-size="10.00">&lt; Unique_mi_tag &gt;, member</text>
<text text-anchor="start" x="2671" y="-449.96" font-family="Helvetica,sans-Serif" font-size="10.00">&lt; FieldEntity, UId, &amp;FieldEntity</text>
<text text-anchor="start" x="2671" y="-438.96" font-family="Helvetica,sans-Serif" font-size="10.00">::localUId &gt; &gt;, ordered_non_unique</text>
<text text-anchor="start" x="2671" y="-427.96" font-family="Helvetica,sans-Serif" font-size="10.00">&lt; tag&lt; Ent_mi_tag &gt;, const_mem_fun</text>
<text text-anchor="start" x="2671" y="-416.96" font-family="Helvetica,sans-Serif" font-size="10.00">&lt; FieldEntity::interface_type_RefEntity,</text>
<text text-anchor="middle" x="2778" y="-405.96" font-family="Helvetica,sans-Serif" font-size="10.00"> EntityHandle, &amp;FieldEntity::getEnt &gt; &gt; &gt; &gt;</text>
</a>
</g>
</g>
<!-- Node4&#45;&gt;Node23 -->
<g id="edge32" class="edge">
<title>Node4&#45;&gt;Node23</title>
<path fill="none" stroke="orange" stroke-dasharray="5,2" d="M71.42,-702.29C83.08,-677.38 107.4,-634.07 143,-613.96 364.55,-488.81 2185.68,-463.39 2662.88,-458.85"/>
<polygon fill="orange" stroke="orange" points="68.22,-700.88 67.32,-711.43 74.61,-703.74 68.22,-700.88"/>
<text text-anchor="start" x="1613.5" y="-580.96" font-family="Helvetica,sans-Serif" font-size="10.00"> &lt; boost::shared_ptr</text>
<text text-anchor="start" x="1613.5" y="-569.96" font-family="Helvetica,sans-Serif" font-size="10.00">&lt; FieldEntity &gt;, indexed</text>
<text text-anchor="start" x="1613.5" y="-558.96" font-family="Helvetica,sans-Serif" font-size="10.00">_by&lt; ordered_unique&lt; tag</text>
<text text-anchor="start" x="1613.5" y="-547.96" font-family="Helvetica,sans-Serif" font-size="10.00">&lt; Unique_mi_tag &gt;, member</text>
<text text-anchor="start" x="1613.5" y="-536.96" font-family="Helvetica,sans-Serif" font-size="10.00">&lt; FieldEntity, UId, &amp;FieldEntity</text>
<text text-anchor="start" x="1613.5" y="-525.96" font-family="Helvetica,sans-Serif" font-size="10.00">::localUId &gt; &gt;, ordered_non_unique</text>
<text text-anchor="start" x="1613.5" y="-514.96" font-family="Helvetica,sans-Serif" font-size="10.00">&lt; tag&lt; Ent_mi_tag &gt;, const_mem_fun</text>
<text text-anchor="start" x="1613.5" y="-503.96" font-family="Helvetica,sans-Serif" font-size="10.00">&lt; FieldEntity::interface_type_RefEntity,</text>
<text text-anchor="middle" x="1720.5" y="-492.96" font-family="Helvetica,sans-Serif" font-size="10.00"> EntityHandle, &amp;FieldEntity::getEnt &gt; &gt; &gt; &gt;</text>
</g>
<!-- Node26 -->
<g id="node26" class="node">
<title>Node26</title>
<g id="a_node26"><a xlink:title=" ">
<polygon fill="white" stroke="#bfbfbf" points="2918,-260.96 2918,-400.96 3167,-400.96 3167,-260.96 2918,-260.96"/>
<text text-anchor="start" x="2926" y="-388.96" font-family="Helvetica,sans-Serif" font-size="10.00">multi_index_container</text>
<text text-anchor="start" x="2926" y="-377.96" font-family="Helvetica,sans-Serif" font-size="10.00">&lt; Problem, indexed_by</text>
<text text-anchor="start" x="2926" y="-366.96" font-family="Helvetica,sans-Serif" font-size="10.00">&lt; ordered_unique&lt; tag</text>
<text text-anchor="start" x="2926" y="-355.96" font-family="Helvetica,sans-Serif" font-size="10.00">&lt; Meshset_mi_tag &gt;, member</text>
<text text-anchor="start" x="2926" y="-344.96" font-family="Helvetica,sans-Serif" font-size="10.00">&lt; Problem, EntityHandle, &amp;Problem</text>
<text text-anchor="start" x="2926" y="-333.96" font-family="Helvetica,sans-Serif" font-size="10.00">::meshset &gt; &gt;, hashed_unique&lt; tag</text>
<text text-anchor="start" x="2926" y="-322.96" font-family="Helvetica,sans-Serif" font-size="10.00">&lt; BitProblemId_mi_tag &gt;, const_mem</text>
<text text-anchor="start" x="2926" y="-311.96" font-family="Helvetica,sans-Serif" font-size="10.00">_fun&lt; Problem, BitProblemId, &amp;Problem</text>
<text text-anchor="start" x="2926" y="-300.96" font-family="Helvetica,sans-Serif" font-size="10.00">::getId &gt;, HashBit&lt; BitProblemId &gt;, EqBit</text>
<text text-anchor="start" x="2926" y="-289.96" font-family="Helvetica,sans-Serif" font-size="10.00">&lt; BitProblemId &gt; &gt;, hashed_unique&lt; tag&lt;</text>
<text text-anchor="start" x="2926" y="-278.96" font-family="Helvetica,sans-Serif" font-size="10.00"> Problem_mi_tag &gt;, const_mem_fun&lt; Problem,</text>
<text text-anchor="middle" x="3042.5" y="-267.96" font-family="Helvetica,sans-Serif" font-size="10.00"> std::string, &amp;Problem::getName &gt; &gt; &gt; &gt;</text>
</a>
</g>
</g>
<!-- Node4&#45;&gt;Node26 -->
<g id="edge36" class="edge">
<title>Node4&#45;&gt;Node26</title>
<path fill="none" stroke="orange" stroke-dasharray="5,2" d="M64.55,-701.14C67.94,-658.28 82.33,-556.72 143,-505.96 312.67,-364.01 901.78,-330.96 1123,-330.96 1123,-330.96 1123,-330.96 2503,-330.96 2645.34,-330.96 2808.84,-330.96 2917.99,-330.96"/>
<polygon fill="orange" stroke="orange" points="61.04,-701.16 63.86,-711.37 68.02,-701.62 61.04,-701.16"/>
<text text-anchor="start" x="1586.5" y="-443.96" font-family="Helvetica,sans-Serif" font-size="10.00"> &lt; Problem, indexed</text>
<text text-anchor="start" x="1586.5" y="-432.96" font-family="Helvetica,sans-Serif" font-size="10.00">_by&lt; ordered_unique</text>
<text text-anchor="start" x="1586.5" y="-421.96" font-family="Helvetica,sans-Serif" font-size="10.00">&lt; tag&lt; Meshset_mi_tag</text>
<text text-anchor="start" x="1586.5" y="-410.96" font-family="Helvetica,sans-Serif" font-size="10.00"> &gt;, member&lt; Problem, EntityHandle,</text>
<text text-anchor="start" x="1586.5" y="-399.96" font-family="Helvetica,sans-Serif" font-size="10.00"> &amp;Problem::meshset &gt; &gt;, hashed</text>
<text text-anchor="start" x="1586.5" y="-388.96" font-family="Helvetica,sans-Serif" font-size="10.00">_unique&lt; tag&lt; BitProblemId_mi_tag</text>
<text text-anchor="start" x="1586.5" y="-377.96" font-family="Helvetica,sans-Serif" font-size="10.00"> &gt;, const_mem_fun&lt; Problem, BitProblemId,</text>
<text text-anchor="start" x="1586.5" y="-366.96" font-family="Helvetica,sans-Serif" font-size="10.00"> &amp;Problem::getId &gt;, HashBit&lt; BitProblemId</text>
<text text-anchor="start" x="1586.5" y="-355.96" font-family="Helvetica,sans-Serif" font-size="10.00"> &gt;, EqBit&lt; BitProblemId &gt; &gt;, hashed_unique</text>
<text text-anchor="start" x="1586.5" y="-344.96" font-family="Helvetica,sans-Serif" font-size="10.00">&lt; tag&lt; Problem_mi_tag &gt;, const_mem_fun&lt; Problem,</text>
<text text-anchor="middle" x="1720.5" y="-333.96" font-family="Helvetica,sans-Serif" font-size="10.00"> std::string, &amp;Problem::getName &gt; &gt; &gt; &gt;</text>
</g>
<!-- Node27 -->
<g id="node27" class="node">
<title>Node27</title>
<g id="a_node27"><a xlink:title=" ">
<polygon fill="white" stroke="#bfbfbf" points="946,-47.46 946,-264.46 1302,-264.46 1302,-47.46 946,-47.46"/>
<text text-anchor="start" x="954" y="-252.46" font-family="Helvetica,sans-Serif" font-size="10.00">multi_index_container</text>
<text text-anchor="start" x="954" y="-241.46" font-family="Helvetica,sans-Serif" font-size="10.00">&lt; boost::shared_ptr&lt;</text>
<text text-anchor="start" x="954" y="-230.46" font-family="Helvetica,sans-Serif" font-size="10.00"> RefEntity &gt;, indexed</text>
<text text-anchor="start" x="954" y="-219.46" font-family="Helvetica,sans-Serif" font-size="10.00">_by&lt; ordered_unique&lt; tag</text>
<text text-anchor="start" x="954" y="-208.46" font-family="Helvetica,sans-Serif" font-size="10.00">&lt; Ent_mi_tag &gt;, const_mem</text>
<text text-anchor="start" x="954" y="-197.46" font-family="Helvetica,sans-Serif" font-size="10.00">_fun&lt; RefEntity, EntityHandle,</text>
<text text-anchor="start" x="954" y="-186.46" font-family="Helvetica,sans-Serif" font-size="10.00"> &amp;RefEntity::getEnt &gt; &gt;, ordered</text>
<text text-anchor="start" x="954" y="-175.46" font-family="Helvetica,sans-Serif" font-size="10.00">_non_unique&lt; tag&lt; Ent_Ent_mi_tag</text>
<text text-anchor="start" x="954" y="-164.46" font-family="Helvetica,sans-Serif" font-size="10.00"> &gt;, const_mem_fun&lt; RefEntity, EntityHandle,</text>
<text text-anchor="start" x="954" y="-153.46" font-family="Helvetica,sans-Serif" font-size="10.00"> &amp;RefEntity::getParentEnt &gt; &gt;, ordered</text>
<text text-anchor="start" x="954" y="-142.46" font-family="Helvetica,sans-Serif" font-size="10.00">_non_unique&lt; tag&lt; Composite_EntType_and</text>
<text text-anchor="start" x="954" y="-131.46" font-family="Helvetica,sans-Serif" font-size="10.00">_ParentEntType_mi_tag &gt;, composite_key&lt; RefEntity,</text>
<text text-anchor="start" x="954" y="-120.46" font-family="Helvetica,sans-Serif" font-size="10.00"> const_mem_fun&lt; RefEntity, EntityType, &amp;RefEntity</text>
<text text-anchor="start" x="954" y="-109.46" font-family="Helvetica,sans-Serif" font-size="10.00">::getEntType &gt;, const_mem_fun&lt; RefEntity, EntityType,</text>
<text text-anchor="start" x="954" y="-98.46" font-family="Helvetica,sans-Serif" font-size="10.00"> &amp;RefEntity::getParentEntType &gt; &gt; &gt;, ordered_non_unique</text>
<text text-anchor="start" x="954" y="-87.46" font-family="Helvetica,sans-Serif" font-size="10.00">&lt; tag&lt; Composite_ParentEnt_And_EntType_mi_tag &gt;, composite</text>
<text text-anchor="start" x="954" y="-76.46" font-family="Helvetica,sans-Serif" font-size="10.00">_key&lt; RefEntity, const_mem_fun&lt; RefEntity, EntityType, &amp;RefEntity</text>
<text text-anchor="start" x="954" y="-65.46" font-family="Helvetica,sans-Serif" font-size="10.00">::getEntType &gt;, const_mem_fun&lt; RefEntity, EntityHandle, &amp;RefEntity</text>
<text text-anchor="middle" x="1124" y="-54.46" font-family="Helvetica,sans-Serif" font-size="10.00">::getParentEnt &gt; &gt; &gt; &gt; &gt;</text>
</a>
</g>
</g>
<!-- Node4&#45;&gt;Node27 -->
<g id="edge38" class="edge">
<title>Node4&#45;&gt;Node27</title>
<path fill="none" stroke="orange" stroke-dasharray="5,2" d="M64.6,-701.07C70.3,-601.27 98.01,-158.4 143,-118.96 362.89,73.8 728.84,-8.74 945.89,-83.94"/>
<polygon fill="orange" stroke="orange" points="61.09,-701.08 64.02,-711.26 68.08,-701.47 61.09,-701.08"/>
<text text-anchor="start" x="365.5" y="-308.96" font-family="Helvetica,sans-Serif" font-size="10.00"> &lt; boost::shared_ptr</text>
<text text-anchor="start" x="365.5" y="-297.96" font-family="Helvetica,sans-Serif" font-size="10.00">&lt; RefEntity &gt;, indexed</text>
<text text-anchor="start" x="365.5" y="-286.96" font-family="Helvetica,sans-Serif" font-size="10.00">_by&lt; ordered_unique&lt; tag</text>
<text text-anchor="start" x="365.5" y="-275.96" font-family="Helvetica,sans-Serif" font-size="10.00">&lt; Ent_mi_tag &gt;, const_mem</text>
<text text-anchor="start" x="365.5" y="-264.96" font-family="Helvetica,sans-Serif" font-size="10.00">_fun&lt; RefEntity, EntityHandle,</text>
<text text-anchor="start" x="365.5" y="-253.96" font-family="Helvetica,sans-Serif" font-size="10.00"> &amp;RefEntity::getEnt &gt; &gt;, ordered</text>
<text text-anchor="start" x="365.5" y="-242.96" font-family="Helvetica,sans-Serif" font-size="10.00">_non_unique&lt; tag&lt; Ent_Ent_mi_tag</text>
<text text-anchor="start" x="365.5" y="-231.96" font-family="Helvetica,sans-Serif" font-size="10.00"> &gt;, const_mem_fun&lt; RefEntity, EntityHandle,</text>
<text text-anchor="start" x="365.5" y="-220.96" font-family="Helvetica,sans-Serif" font-size="10.00"> &amp;RefEntity::getParentEnt &gt; &gt;, ordered</text>
<text text-anchor="start" x="365.5" y="-209.96" font-family="Helvetica,sans-Serif" font-size="10.00">_non_unique&lt; tag&lt; Composite_EntType_and</text>
<text text-anchor="start" x="365.5" y="-198.96" font-family="Helvetica,sans-Serif" font-size="10.00">_ParentEntType_mi_tag &gt;, composite_key&lt; RefEntity,</text>
<text text-anchor="start" x="365.5" y="-187.96" font-family="Helvetica,sans-Serif" font-size="10.00"> const_mem_fun&lt; RefEntity, EntityType, &amp;RefEntity</text>
<text text-anchor="start" x="365.5" y="-176.96" font-family="Helvetica,sans-Serif" font-size="10.00">::getEntType &gt;, const_mem_fun&lt; RefEntity, EntityType,</text>
<text text-anchor="start" x="365.5" y="-165.96" font-family="Helvetica,sans-Serif" font-size="10.00"> &amp;RefEntity::getParentEntType &gt; &gt; &gt;, ordered_non_unique</text>
<text text-anchor="start" x="365.5" y="-154.96" font-family="Helvetica,sans-Serif" font-size="10.00">&lt; tag&lt; Composite_ParentEnt_And_EntType_mi_tag &gt;, composite</text>
<text text-anchor="start" x="365.5" y="-143.96" font-family="Helvetica,sans-Serif" font-size="10.00">_key&lt; RefEntity, const_mem_fun&lt; RefEntity, EntityType, &amp;RefEntity</text>
<text text-anchor="start" x="365.5" y="-132.96" font-family="Helvetica,sans-Serif" font-size="10.00">::getEntType &gt;, const_mem_fun&lt; RefEntity, EntityHandle, &amp;RefEntity</text>
<text text-anchor="middle" x="535.5" y="-121.96" font-family="Helvetica,sans-Serif" font-size="10.00">::getParentEnt &gt; &gt; &gt; &gt; &gt;</text>
</g>
<!-- Node5 -->
<g id="node5" class="node">
<title>Node5</title>
<g id="a_node5"><a xlink:title=" ">
<polygon fill="white" stroke="#bfbfbf" points="3272,-1258.46 3272,-1277.46 3337,-1277.46 3337,-1258.46 3272,-1258.46"/>
<text text-anchor="middle" x="3304.5" y="-1265.46" font-family="Helvetica,sans-Serif" font-size="10.00">PetscBool</text>
</a>
</g>
</g>
<!-- Node5&#45;&gt;Node1 -->
<g id="edge4" class="edge">
<title>Node5&#45;&gt;Node1</title>
<path fill="none" stroke="#9a32cd" stroke-dasharray="5,2" d="M3347.47,-1266.59C3450.44,-1263.23 3716.54,-1254.55 3845.84,-1250.33"/>
<polygon fill="#9a32cd" stroke="#9a32cd" points="3347.05,-1263.1 3337.17,-1266.93 3347.28,-1270.1 3347.05,-1263.1"/>
<text text-anchor="middle" x="3698" y="-1271.96" font-family="Helvetica,sans-Serif" font-size="10.00"> buildProblemFromFields</text>
<text text-anchor="middle" x="3698" y="-1260.96" font-family="Helvetica,sans-Serif" font-size="10.00">synchroniseProblemEntities</text>
</g>
<!-- Node7 -->
<g id="node7" class="node">
<title>Node7</title>
<g id="a_node7"><a xlink:href="structMoFEM_1_1CoreTmp_3_010_01_4.html" target="_top" xlink:title="Core (interface) class.">
<polygon fill="white" stroke="black" points="3632.5,-693.46 3632.5,-712.46 3763.5,-712.46 3763.5,-693.46 3632.5,-693.46"/>
<text text-anchor="middle" x="3698" y="-700.46" font-family="Helvetica,sans-Serif" font-size="10.00">MoFEM::CoreTmp&lt; 0 &gt;</text>
</a>
</g>
</g>
<!-- Node5&#45;&gt;Node7 -->
<g id="edge12" class="edge">
<title>Node5&#45;&gt;Node7</title>
<path fill="none" stroke="#9a32cd" stroke-dasharray="5,2" d="M3343.65,-1255.24C3418.07,-1230.13 3576.87,-1174.86 3594,-1154.96 3654.78,-1084.36 3689.86,-771.82 3696.02,-712.65"/>
<polygon fill="#9a32cd" stroke="#9a32cd" points="3342.52,-1251.93 3334.16,-1258.44 3344.75,-1258.57 3342.52,-1251.93"/>
<text text-anchor="middle" x="3514.5" y="-1245.96" font-family="Helvetica,sans-Serif" font-size="10.00"> initaliseAndBuildFiniteElements</text>
<text text-anchor="middle" x="3514.5" y="-1234.96" font-family="Helvetica,sans-Serif" font-size="10.00">isInitialized</text>
<text text-anchor="middle" x="3514.5" y="-1223.96" font-family="Helvetica,sans-Serif" font-size="10.00">initaliseAndBuildField</text>
</g>
<!-- Node6 -->
<g id="node6" class="node">
<title>Node6</title>
<g id="a_node6"><a xlink:title=" ">
<polygon fill="white" stroke="#bfbfbf" points="3260.5,-1191.46 3260.5,-1210.46 3348.5,-1210.46 3348.5,-1191.46 3260.5,-1191.46"/>
<text text-anchor="middle" x="3304.5" y="-1198.46" font-family="Helvetica,sans-Serif" font-size="10.00">PetscLogEvent</text>
</a>
</g>
</g>
<!-- Node6&#45;&gt;Node1 -->
<g id="edge5" class="edge">
<title>Node6&#45;&gt;Node1</title>
<path fill="none" stroke="#9a32cd" stroke-dasharray="5,2" d="M3358.74,-1205.1C3382.13,-1206.91 3409.93,-1209.06 3435,-1210.96 3590.1,-1222.72 3628.93,-1224.84 3784,-1236.96 3804.09,-1238.53 3825.86,-1240.28 3845.91,-1241.93"/>
<polygon fill="#9a32cd" stroke="#9a32cd" points="3358.91,-1201.6 3348.66,-1204.32 3358.36,-1208.58 3358.91,-1201.6"/>
<text text-anchor="middle" x="3698" y="-1239.96" font-family="Helvetica,sans-Serif" font-size="10.00"> MOFEM_EVENT_ProblemsManager</text>
</g>
<!-- Node6&#45;&gt;Node7 -->
<g id="edge30" class="edge">
<title>Node6&#45;&gt;Node7</title>
<path fill="none" stroke="#9a32cd" stroke-dasharray="5,2" d="M3342.21,-1187.69C3365.69,-1177.82 3395.63,-1162.5 3417,-1141.96 3428.49,-1130.92 3421.8,-1119.88 3435,-1110.96 3494.16,-1070.98 3540.63,-1135.39 3594,-1087.96 3653.35,-1035.22 3689.07,-767.62 3695.83,-712.79"/>
<polygon fill="#9a32cd" stroke="#9a32cd" points="3340.87,-1184.45 3332.92,-1191.46 3343.5,-1190.94 3340.87,-1184.45"/>
<text text-anchor="middle" x="3514.5" y="-1146.96" font-family="Helvetica,sans-Serif" font-size="10.00"> MOFEM_EVENT_createMat</text>
<text text-anchor="middle" x="3514.5" y="-1135.96" font-family="Helvetica,sans-Serif" font-size="10.00">MOFEM_EVENT_postProcess</text>
<text text-anchor="middle" x="3514.5" y="-1124.96" font-family="Helvetica,sans-Serif" font-size="10.00">MOFEM_EVENT_preProcess</text>
<text text-anchor="middle" x="3514.5" y="-1113.96" font-family="Helvetica,sans-Serif" font-size="10.00">MOFEM_EVENT_operator</text>
</g>
<!-- Node7&#45;&gt;Node1 -->
<g id="edge6" class="edge">
<title>Node7&#45;&gt;Node1</title>
<path fill="none" stroke="#9a32cd" stroke-dasharray="5,2" d="M3706.76,-722.24C3742.3,-810.46 3888.78,-1174.16 3914.6,-1238.28"/>
<polygon fill="#9a32cd" stroke="#9a32cd" points="3709.98,-720.85 3703,-712.88 3703.49,-723.47 3709.98,-720.85"/>
<text text-anchor="middle" x="3815" y="-1010.96" font-family="Helvetica,sans-Serif" font-size="10.00"> cOre</text>
</g>
<!-- Node8 -->
<g id="node8" class="node">
<title>Node8</title>
<g id="a_node8"><a xlink:href="structMoFEM_1_1DeprecatedCoreInterface.html" target="_top" xlink:title="Deprecated interface functions.">
<polygon fill="white" stroke="black" points="3274.5,-1113.46 3274.5,-1132.46 3334.5,-1132.46 3334.5,-1113.46 3274.5,-1113.46"/>
<text text-anchor="middle" x="3304.5" y="-1120.46" font-family="Helvetica,sans-Serif" font-size="10.00">Interface</text>
</a>
</g>
</g>
<!-- Node8&#45;&gt;Node7 -->
<g id="edge7" class="edge">
<title>Node8&#45;&gt;Node7</title>
<path fill="none" stroke="midnightblue" d="M3344.4,-1112.61C3370.04,-1105.98 3404.4,-1097.43 3435,-1090.96 3505.2,-1076.12 3540.69,-1110.98 3594,-1062.96 3649.31,-1013.14 3688.09,-764.38 3695.65,-712.47"/>
<polygon fill="midnightblue" stroke="midnightblue" points="3343.48,-1109.24 3334.69,-1115.14 3345.25,-1116.01 3343.48,-1109.24"/>
</g>
<!-- Node9&#45;&gt;Node8 -->
<g id="edge8" class="edge">
<title>Node9&#45;&gt;Node8</title>
<path fill="none" stroke="midnightblue" d="M2850.64,-1192.89C2967.51,-1174.85 3194.2,-1139.84 3274.47,-1127.44"/>
<polygon fill="midnightblue" stroke="midnightblue" points="2850.06,-1189.44 2840.71,-1194.43 2851.13,-1196.36 2850.06,-1189.44"/>
</g>
<!-- Node10&#45;&gt;Node7 -->
<g id="edge10" class="edge">
<title>Node10&#45;&gt;Node7</title>
<path fill="none" stroke="#9a32cd" stroke-dasharray="5,2" d="M2131.37,-1142.62C2647.81,-1133.48 3481.92,-1105.1 3594,-1016.96 3695.02,-937.52 3698.11,-756.69 3697.31,-712.73"/>
<polygon fill="#9a32cd" stroke="#9a32cd" points="2131.07,-1139.13 2121.13,-1142.8 2131.19,-1146.13 2131.07,-1139.13"/>
<text text-anchor="middle" x="2778" y="-1129.96" font-family="Helvetica,sans-Serif" font-size="10.00"> entFEAdjacencies</text>
</g>
<!-- Node11&#45;&gt;Node7 -->
<g id="edge13" class="edge">
<title>Node11&#45;&gt;Node7</title>
<path fill="none" stroke="#9a32cd" stroke-dasharray="5,2" d="M2655.38,-987.1C2937.77,-1008.15 3520.46,-1044.22 3594,-989.96 3688.99,-919.87 3696.65,-754.11 3697.04,-712.54"/>
<polygon fill="#9a32cd" stroke="#9a32cd" points="2655.28,-983.58 2645.05,-986.33 2654.76,-990.56 2655.28,-983.58"/>
<text text-anchor="middle" x="3042.5" y="-1017.96" font-family="Helvetica,sans-Serif" font-size="10.00"> fIelds</text>
</g>
<!-- Node12&#45;&gt;Node7 -->
<g id="edge15" class="edge">
<title>Node12&#45;&gt;Node7</title>
<path fill="none" stroke="#9a32cd" stroke-dasharray="5,2" d="M3184.12,-946.55C3324.87,-976.68 3529.52,-1009.95 3594,-965.96 3683.72,-904.74 3695.29,-752.57 3696.78,-712.67"/>
<polygon fill="#9a32cd" stroke="#9a32cd" points="3184.61,-943.07 3174.1,-944.38 3183.14,-949.91 3184.61,-943.07"/>
<text text-anchor="middle" x="3304.5" y="-985.96" font-family="Helvetica,sans-Serif" font-size="10.00"> finiteElements</text>
</g>
<!-- Node13 -->
<g id="node13" class="node">
<title>Node13</title>
<g id="a_node13"><a xlink:title=" ">
<polygon fill="white" stroke="#bfbfbf" points="3288,-841.46 3288,-860.46 3321,-860.46 3321,-841.46 3288,-841.46"/>
<text text-anchor="middle" x="3304.5" y="-848.46" font-family="Helvetica,sans-Serif" font-size="10.00">Tag</text>
</a>
</g>
</g>
<!-- Node13&#45;&gt;Node7 -->
<g id="edge17" class="edge">
<title>Node13&#45;&gt;Node7</title>
<path fill="none" stroke="#9a32cd" stroke-dasharray="5,2" d="M3331.1,-849.47C3397.36,-845.46 3570.93,-833.93 3594,-821.96 3643.47,-796.28 3679.5,-735.96 3692.1,-712.52"/>
<polygon fill="#9a32cd" stroke="#9a32cd" points="3330.85,-845.98 3321.07,-850.07 3331.26,-852.96 3330.85,-845.98"/>
<text text-anchor="middle" x="3514.5" y="-954.96" font-family="Helvetica,sans-Serif" font-size="10.00"> th_FieldId</text>
<text text-anchor="middle" x="3514.5" y="-943.96" font-family="Helvetica,sans-Serif" font-size="10.00">th_RefBitLevel_Mask</text>
<text text-anchor="middle" x="3514.5" y="-932.96" font-family="Helvetica,sans-Serif" font-size="10.00">th_ProblemName</text>
<text text-anchor="middle" x="3514.5" y="-921.96" font-family="Helvetica,sans-Serif" font-size="10.00">th_ProblemFEId</text>
<text text-anchor="middle" x="3514.5" y="-910.96" font-family="Helvetica,sans-Serif" font-size="10.00">th_FieldContinuity</text>
<text text-anchor="middle" x="3514.5" y="-899.96" font-family="Helvetica,sans-Serif" font-size="10.00">th_FieldBase</text>
<text text-anchor="middle" x="3514.5" y="-888.96" font-family="Helvetica,sans-Serif" font-size="10.00">th_ProblemGhostNbDofCol</text>
<text text-anchor="middle" x="3514.5" y="-877.96" font-family="Helvetica,sans-Serif" font-size="10.00">th_ProblemGhostNbDofRow</text>
<text text-anchor="middle" x="3514.5" y="-866.96" font-family="Helvetica,sans-Serif" font-size="10.00">th_FEIdCol</text>
<text text-anchor="middle" x="3514.5" y="-855.96" font-family="Helvetica,sans-Serif" font-size="10.00">th_RefBitEdge</text>
<text text-anchor="middle" x="3514.5" y="-844.96" font-family="Helvetica,sans-Serif" font-size="10.00">...</text>
</g>
<!-- Node14&#45;&gt;Node7 -->
<g id="edge18" class="edge">
<title>Node14&#45;&gt;Node7</title>
<path fill="none" stroke="#9a32cd" stroke-dasharray="5,2" d="M1853.16,-788.68C2110.42,-790.04 2697.9,-792.95 3192,-793.96 3370.79,-794.32 3426.68,-841.96 3594,-778.96 3633.52,-764.08 3671.11,-729.42 3687.87,-712.54"/>
<polygon fill="#9a32cd" stroke="#9a32cd" points="1853.04,-785.18 1843.02,-788.62 1853.01,-792.18 1853.04,-785.18"/>
<text text-anchor="middle" x="2778" y="-795.96" font-family="Helvetica,sans-Serif" font-size="10.00"> entsFiniteElements</text>
</g>
<!-- Node15 -->
<g id="node15" class="node">
<title>Node15</title>
<g id="a_node15"><a xlink:title=" ">
<polygon fill="white" stroke="#bfbfbf" points="3246.5,-753.96 3246.5,-783.96 3362.5,-783.96 3362.5,-753.96 3246.5,-753.96"/>
<text text-anchor="start" x="3254.5" y="-771.96" font-family="Helvetica,sans-Serif" font-size="10.00">reference_wrapper&lt;</text>
<text text-anchor="middle" x="3304.5" y="-760.96" font-family="Helvetica,sans-Serif" font-size="10.00"> moab::Interface &gt;</text>
</a>
</g>
</g>
<!-- Node15&#45;&gt;Node7 -->
<g id="edge20" class="edge">
<title>Node15&#45;&gt;Node7</title>
<path fill="none" stroke="#9a32cd" stroke-dasharray="5,2" d="M3372.94,-768.2C3431.96,-766.28 3519.63,-760.38 3594,-742.96 3624.07,-735.91 3657.06,-721.91 3677.4,-712.49"/>
<polygon fill="#9a32cd" stroke="#9a32cd" points="3372.53,-764.71 3362.63,-768.51 3372.73,-771.71 3372.53,-764.71"/>
<text text-anchor="middle" x="3514.5" y="-766.96" font-family="Helvetica,sans-Serif" font-size="10.00"> moab</text>
</g>
<!-- Node16&#45;&gt;Node7 -->
<g id="edge21" class="edge">
<title>Node16&#45;&gt;Node7</title>
<path fill="none" stroke="#9a32cd" stroke-dasharray="5,2" d="M2351.38,-710.33C2562.05,-711.01 3036.02,-712.46 3435,-712.96 3505.67,-713.05 3523.42,-716.38 3594,-712.96 3606.38,-712.36 3619.57,-711.36 3632.23,-710.21"/>
<polygon fill="#9a32cd" stroke="#9a32cd" points="2351.25,-706.83 2341.24,-710.3 2351.23,-713.83 2351.25,-706.83"/>
<text text-anchor="middle" x="3042.5" y="-714.96" font-family="Helvetica,sans-Serif" font-size="10.00"> dofsField</text>
</g>
<!-- Node17 -->
<g id="node17" class="node">
<title>Node17</title>
<g id="a_node17"><a xlink:title=" ">
<polygon fill="white" stroke="#bfbfbf" points="3258,-677.46 3258,-696.46 3351,-696.46 3351,-677.46 3258,-677.46"/>
<text text-anchor="middle" x="3304.5" y="-684.46" font-family="Helvetica,sans-Serif" font-size="10.00">ParallelComm *</text>
</a>
</g>
</g>
<!-- Node17&#45;&gt;Node7 -->
<g id="edge23" class="edge">
<title>Node17&#45;&gt;Node7</title>
<path fill="none" stroke="#9a32cd" stroke-dasharray="5,2" d="M3361.35,-689.24C3432.97,-692.17 3556.92,-697.23 3632.49,-700.32"/>
<polygon fill="#9a32cd" stroke="#9a32cd" points="3361.31,-685.74 3351.18,-688.83 3361.02,-692.73 3361.31,-685.74"/>
<text text-anchor="middle" x="3514.5" y="-700.96" font-family="Helvetica,sans-Serif" font-size="10.00"> pComm</text>
</g>
<!-- Node18&#45;&gt;Node7 -->
<g id="edge24" class="edge">
<title>Node18&#45;&gt;Node7</title>
<path fill="none" stroke="#9a32cd" stroke-dasharray="5,2" d="M2595.79,-622.12C2761.07,-628.17 3117.24,-643.01 3417,-667.96 3495.89,-674.53 3515.49,-677.81 3594,-687.96 3606.9,-689.63 3620.7,-691.54 3633.86,-693.44"/>
<polygon fill="#9a32cd" stroke="#9a32cd" points="2595.78,-618.62 2585.66,-621.76 2595.53,-625.62 2595.78,-618.62"/>
<text text-anchor="middle" x="3042.5" y="-651.96" font-family="Helvetica,sans-Serif" font-size="10.00"> refinedFiniteElements</text>
</g>
<!-- Node19 -->
<g id="node19" class="node">
<title>Node19</title>
<g id="a_node19"><a xlink:title=" ">
<polygon fill="white" stroke="#bfbfbf" points="3290,-597.46 3290,-616.46 3319,-616.46 3319,-597.46 3290,-597.46"/>
<text text-anchor="middle" x="3304.5" y="-604.46" font-family="Helvetica,sans-Serif" font-size="10.00">int</text>
</a>
</g>
</g>
<!-- Node19&#45;&gt;Node7 -->
<g id="edge26" class="edge">
<title>Node19&#45;&gt;Node7</title>
<path fill="none" stroke="#9a32cd" stroke-dasharray="5,2" d="M3329.07,-602.83C3389.19,-592.74 3546.79,-569.11 3594,-589.96 3643.29,-611.73 3679.18,-670.03 3691.92,-693.23"/>
<polygon fill="#9a32cd" stroke="#9a32cd" points="3328.3,-599.41 3319.03,-604.55 3329.48,-606.31 3328.3,-599.41"/>
<text text-anchor="middle" x="3514.5" y="-647.96" font-family="Helvetica,sans-Serif" font-size="10.00"> sIze</text>
<text text-anchor="middle" x="3514.5" y="-636.96" font-family="Helvetica,sans-Serif" font-size="10.00">mpiInitialised</text>
<text text-anchor="middle" x="3514.5" y="-625.96" font-family="Helvetica,sans-Serif" font-size="10.00">value</text>
<text text-anchor="middle" x="3514.5" y="-614.96" font-family="Helvetica,sans-Serif" font-size="10.00">verbose</text>
<text text-anchor="middle" x="3514.5" y="-603.96" font-family="Helvetica,sans-Serif" font-size="10.00">buildMoFEM</text>
<text text-anchor="middle" x="3514.5" y="-592.96" font-family="Helvetica,sans-Serif" font-size="10.00">rAnk</text>
</g>
<!-- Node20 -->
<g id="node20" class="node">
<title>Node20</title>
<g id="a_node20"><a xlink:href="classbool.html" target="_top" xlink:title=" ">
<polygon fill="white" stroke="black" points="3285.5,-559.46 3285.5,-578.46 3323.5,-578.46 3323.5,-559.46 3285.5,-559.46"/>
<text text-anchor="middle" x="3304.5" y="-566.46" font-family="Helvetica,sans-Serif" font-size="10.00">bool</text>
</a>
</g>
</g>
<!-- Node20&#45;&gt;Node7 -->
<g id="edge27" class="edge">
<title>Node20&#45;&gt;Node7</title>
<path fill="none" stroke="#9a32cd" stroke-dasharray="5,2" d="M3333.61,-565.48C3396.98,-558.13 3548.99,-543.49 3594,-565.96 3649.38,-593.61 3682.76,-666.77 3693.34,-693.23"/>
<polygon fill="#9a32cd" stroke="#9a32cd" points="3333.05,-562.02 3323.53,-566.67 3333.88,-568.97 3333.05,-562.02"/>
<text text-anchor="middle" x="3514.5" y="-568.96" font-family="Helvetica,sans-Serif" font-size="10.00"> isGloballyInitialised</text>
</g>
<!-- Node21 -->
<g id="node21" class="node">
<title>Node21</title>
<g id="a_node21"><a xlink:title=" ">
<polygon fill="white" stroke="#bfbfbf" points="3282.5,-521.46 3282.5,-540.46 3326.5,-540.46 3326.5,-521.46 3282.5,-521.46"/>
<text text-anchor="middle" x="3304.5" y="-528.46" font-family="Helvetica,sans-Serif" font-size="10.00">string</text>
</a>
</g>
</g>
<!-- Node21&#45;&gt;Node7 -->
<g id="edge28" class="edge">
<title>Node21&#45;&gt;Node7</title>
<path fill="none" stroke="#9a32cd" stroke-dasharray="5,2" d="M3336.6,-528.21C3401.93,-523.02 3550.93,-514.36 3594,-538.96 3655.9,-574.31 3685.91,-663.58 3694.4,-693.22"/>
<polygon fill="#9a32cd" stroke="#9a32cd" points="3336.19,-524.74 3326.5,-529.04 3336.76,-531.71 3336.19,-524.74"/>
<text text-anchor="middle" x="3514.5" y="-541.96" font-family="Helvetica,sans-Serif" font-size="10.00"> optionsPrefix</text>
</g>
<!-- Node22 -->
<g id="node22" class="node">
<title>Node22</title>
<g id="a_node22"><a xlink:title=" ">
<polygon fill="white" stroke="#bfbfbf" points="3243.5,-471.96 3243.5,-501.96 3365.5,-501.96 3365.5,-471.96 3243.5,-471.96"/>
<text text-anchor="start" x="3251.5" y="-489.96" font-family="Helvetica,sans-Serif" font-size="10.00">shared_ptr&lt; MoFEM::</text>
<text text-anchor="middle" x="3304.5" y="-478.96" font-family="Helvetica,sans-Serif" font-size="10.00">WrapMPIComm &gt;</text>
</a>
</g>
</g>
<!-- Node22&#45;&gt;Node7 -->
<g id="edge29" class="edge">
<title>Node22&#45;&gt;Node7</title>
<path fill="none" stroke="#9a32cd" stroke-dasharray="5,2" d="M3375.94,-473.79C3438.36,-466.05 3529.37,-464.79 3594,-506.96 3663.54,-552.33 3689.06,-660.67 3695.34,-693.42"/>
<polygon fill="#9a32cd" stroke="#9a32cd" points="3375.24,-470.35 3365.79,-475.13 3376.16,-477.29 3375.24,-470.35"/>
<text text-anchor="middle" x="3514.5" y="-509.96" font-family="Helvetica,sans-Serif" font-size="10.00"> wrapMPIMOABComm</text>
</g>
<!-- Node23&#45;&gt;Node7 -->
<g id="edge31" class="edge">
<title>Node23&#45;&gt;Node7</title>
<path fill="none" stroke="#9a32cd" stroke-dasharray="5,2" d="M2903.13,-451.33C3117.43,-441.01 3539.25,-426.05 3594,-464.96 3674.56,-522.21 3692.69,-656.25 3696.23,-693.32"/>
<polygon fill="#9a32cd" stroke="#9a32cd" points="2902.9,-447.84 2893.08,-451.82 2903.24,-454.83 2902.9,-447.84"/>
<text text-anchor="middle" x="3304.5" y="-442.96" font-family="Helvetica,sans-Serif" font-size="10.00"> entsFields</text>
</g>
<!-- Node24 -->
<g id="node24" class="node">
<title>Node24</title>
<g id="a_node24"><a xlink:title=" ">
<polygon fill="white" stroke="#bfbfbf" points="3243.5,-374.96 3243.5,-404.96 3365.5,-404.96 3365.5,-374.96 3243.5,-374.96"/>
<text text-anchor="start" x="3251.5" y="-392.96" font-family="Helvetica,sans-Serif" font-size="10.00">shared_ptr&lt; MoFEM::</text>
<text text-anchor="middle" x="3304.5" y="-381.96" font-family="Helvetica,sans-Serif" font-size="10.00">BasicEntityData &gt;</text>
</a>
</g>
</g>
<!-- Node24&#45;&gt;Node7 -->
<g id="edge33" class="edge">
<title>Node24&#45;&gt;Node7</title>
<path fill="none" stroke="#9a32cd" stroke-dasharray="5,2" d="M3375.47,-377.01C3439.08,-369.38 3532.19,-369.07 3594,-416.96 3686.82,-488.88 3696.1,-651.83 3696.94,-693.24"/>
<polygon fill="#9a32cd" stroke="#9a32cd" points="3374.99,-373.55 3365.52,-378.29 3375.89,-380.49 3374.99,-373.55"/>
<text text-anchor="middle" x="3514.5" y="-419.96" font-family="Helvetica,sans-Serif" font-size="10.00"> basicEntityDataPtr</text>
</g>
<!-- Node25 -->
<g id="node25" class="node">
<title>Node25</title>
<g id="a_node25"><a xlink:title=" ">
<polygon fill="white" stroke="#bfbfbf" points="3268.5,-336.46 3268.5,-355.46 3340.5,-355.46 3340.5,-336.46 3268.5,-336.46"/>
<text text-anchor="middle" x="3304.5" y="-343.46" font-family="Helvetica,sans-Serif" font-size="10.00">MPI_Comm</text>
</a>
</g>
</g>
<!-- Node25&#45;&gt;Node7 -->
<g id="edge34" class="edge">
<title>Node25&#45;&gt;Node7</title>
<path fill="none" stroke="#9a32cd" stroke-dasharray="5,2" d="M3350.6,-341.7C3422.13,-335.94 3557.28,-329.39 3594,-357.96 3650.37,-401.81 3688.17,-642.24 3695.64,-693.39"/>
<polygon fill="#9a32cd" stroke="#9a32cd" points="3350.2,-338.22 3340.53,-342.54 3350.78,-345.2 3350.2,-338.22"/>
<text text-anchor="middle" x="3514.5" y="-360.96" font-family="Helvetica,sans-Serif" font-size="10.00"> mofemComm</text>
</g>
<!-- Node26&#45;&gt;Node7 -->
<g id="edge35" class="edge">
<title>Node26&#45;&gt;Node7</title>
<path fill="none" stroke="#9a32cd" stroke-dasharray="5,2" d="M3177.11,-287.67C3299.78,-257.03 3479.39,-236.38 3594,-331.96 3652.91,-381.08 3688.98,-640.3 3695.81,-693.43"/>
<polygon fill="#9a32cd" stroke="#9a32cd" points="3176.1,-284.32 3167.27,-290.18 3177.83,-291.1 3176.1,-284.32"/>
<text text-anchor="middle" x="3304.5" y="-285.96" font-family="Helvetica,sans-Serif" font-size="10.00"> pRoblems</text>
</g>
<!-- Node27&#45;&gt;Node7 -->
<g id="edge37" class="edge">
<title>Node27&#45;&gt;Node7</title>
<path fill="none" stroke="#9a32cd" stroke-dasharray="5,2" d="M1312.23,-180.08C1533.3,-206.44 1912.25,-244.96 2239,-244.96 2239,-244.96 2239,-244.96 3305.5,-244.96 3369.75,-244.96 3544.99,-222.42 3594,-263.96 3663.13,-322.55 3691.46,-634.17 3696.25,-693.28"/>
<polygon fill="#9a32cd" stroke="#9a32cd" points="1312.5,-176.59 1302.15,-178.88 1311.67,-183.54 1312.5,-176.59"/>
<text text-anchor="middle" x="2778" y="-247.96" font-family="Helvetica,sans-Serif" font-size="10.00"> refinedEntities</text>
</g>
<!-- Node28 -->
<g id="node28" class="node">
<title>Node28</title>
<g id="a_node28"><a xlink:title=" ">
<polygon fill="white" stroke="#bfbfbf" points="3192,-185.96 3192,-215.96 3417,-215.96 3417,-185.96 3192,-185.96"/>
<text text-anchor="start" x="3200" y="-203.96" font-family="Helvetica,sans-Serif" font-size="10.00">ptr_map&lt; boost::typeindex</text>
<text text-anchor="middle" x="3304.5" y="-192.96" font-family="Helvetica,sans-Serif" font-size="10.00">::type_index, MoFEM::UnknownInterface &gt;</text>
</a>
</g>
</g>
<!-- Node28&#45;&gt;Node7 -->
<g id="edge39" class="edge">
<title>Node28&#45;&gt;Node7</title>
<path fill="none" stroke="#9a32cd" stroke-dasharray="5,2" d="M3375.3,-184.07C3439.85,-172.91 3534.55,-168.52 3594,-219.96 3669.38,-285.17 3692.8,-630.33 3696.46,-693.14"/>
<polygon fill="#9a32cd" stroke="#9a32cd" points="3374.41,-180.67 3365.2,-185.91 3375.67,-187.56 3374.41,-180.67"/>
<text text-anchor="middle" x="3514.5" y="-222.96" font-family="Helvetica,sans-Serif" font-size="10.00"> iFaces</text>
</g>
</g>
</svg>
