<?xml version="1.0" encoding="UTF-8" standalone="no"?>
<!DOCTYPE svg PUBLIC "-//W3C//DTD SVG 1.1//EN"
 "http://www.w3.org/Graphics/SVG/1.1/DTD/svg11.dtd">
<!-- Generated by graphviz version 2.43.0 (0)
 -->
<!-- Title: CellEngineering::OpVirtualPotentialRho Pages: 1 -->
<svg width="3433pt" height="1870pt"
 viewBox="0.00 0.00 3433.00 1870.07" xmlns="http://www.w3.org/2000/svg" xmlns:xlink="http://www.w3.org/1999/xlink">
<g id="graph0" class="graph" transform="scale(1 1) rotate(0) translate(4 1866.07)">
<title>CellEngineering::OpVirtualPotentialRho</title>
<polygon fill="white" stroke="transparent" points="-4,4 -4,-1866.07 3429,-1866.07 3429,4 -4,4"/>
<!-- Node1 -->
<g id="node1" class="node">
<title>Node1</title>
<g id="a_node1"><a xlink:title="Post&#45;process tractions.">
<polygon fill="#bfbfbf" stroke="black" points="3280,-209.07 3280,-239.07 3425,-239.07 3425,-209.07 3280,-209.07"/>
<text text-anchor="start" x="3288" y="-227.07" font-family="Helvetica,sans-Serif" font-size="10.00">CellEngineering::OpVirtual</text>
<text text-anchor="middle" x="3352.5" y="-216.07" font-family="Helvetica,sans-Serif" font-size="10.00">PotentialRho</text>
</a>
</g>
</g>
<!-- Node2 -->
<g id="node2" class="node">
<title>Node2</title>
<g id="a_node2"><a xlink:href="structMoFEM_1_1FaceElementForcesAndSourcesCore_1_1UserDataOperator.html" target="_top" xlink:title="default operator for TRI element">
<polygon fill="white" stroke="black" points="3052,-889.07 3052,-919.07 3243,-919.07 3243,-889.07 3052,-889.07"/>
<text text-anchor="start" x="3060" y="-907.07" font-family="Helvetica,sans-Serif" font-size="10.00">MoFEM::FaceElementForces</text>
<text text-anchor="middle" x="3147.5" y="-896.07" font-family="Helvetica,sans-Serif" font-size="10.00">AndSourcesCore::UserDataOperator</text>
</a>
</g>
</g>
<!-- Node2&#45;&gt;Node1 -->
<g id="edge1" class="edge">
<title>Node2&#45;&gt;Node1</title>
<path fill="none" stroke="midnightblue" d="M3155.98,-879.01C3188.95,-768.58 3320.78,-326.98 3346.96,-239.26"/>
<polygon fill="midnightblue" stroke="midnightblue" points="3152.53,-878.33 3153.02,-888.91 3159.24,-880.33 3152.53,-878.33"/>
</g>
<!-- Node3 -->
<g id="node3" class="node">
<title>Node3</title>
<g id="a_node3"><a xlink:href="structMoFEM_1_1ForcesAndSourcesCore_1_1UserDataOperator.html" target="_top" xlink:title=" ">
<polygon fill="white" stroke="black" points="2845,-1553.07 2845,-1583.07 3015,-1583.07 3015,-1553.07 2845,-1553.07"/>
<text text-anchor="start" x="2853" y="-1571.07" font-family="Helvetica,sans-Serif" font-size="10.00">MoFEM::ForcesAndSourcesCore</text>
<text text-anchor="middle" x="2930" y="-1560.07" font-family="Helvetica,sans-Serif" font-size="10.00">::UserDataOperator</text>
</a>
</g>
</g>
<!-- Node3&#45;&gt;Node2 -->
<g id="edge2" class="edge">
<title>Node3&#45;&gt;Node2</title>
<path fill="none" stroke="midnightblue" d="M2939.06,-1543.22C2974.23,-1434.88 3113.64,-1005.32 3141.6,-919.16"/>
<polygon fill="midnightblue" stroke="midnightblue" points="2935.66,-1542.36 2935.91,-1552.95 2942.32,-1544.52 2935.66,-1542.36"/>
</g>
<!-- Node4 -->
<g id="node4" class="node">
<title>Node4</title>
<g id="a_node4"><a xlink:href="structMoFEM_1_1DataOperator.html" target="_top" xlink:title="base operator to do operations at Gauss Pt. level">
<polygon fill="white" stroke="black" points="2587.5,-1665.57 2587.5,-1684.57 2712.5,-1684.57 2712.5,-1665.57 2587.5,-1665.57"/>
<text text-anchor="middle" x="2650" y="-1672.57" font-family="Helvetica,sans-Serif" font-size="10.00">MoFEM::DataOperator</text>
</a>
</g>
</g>
<!-- Node4&#45;&gt;Node3 -->
<g id="edge3" class="edge">
<title>Node4&#45;&gt;Node3</title>
<path fill="none" stroke="midnightblue" d="M2685.59,-1661.76C2737.43,-1641.8 2835.01,-1604.25 2889.55,-1583.25"/>
<polygon fill="midnightblue" stroke="midnightblue" points="2684.24,-1658.53 2676.16,-1665.39 2686.75,-1665.06 2684.24,-1658.53"/>
</g>
<!-- Node5 -->
<g id="node5" class="node">
<title>Node5</title>
<g id="a_node5"><a xlink:title=" ">
<polygon fill="white" stroke="#bfbfbf" points="2168,-1667.07 2168,-1719.07 2360,-1719.07 2360,-1667.07 2168,-1667.07"/>
<text text-anchor="start" x="2176" y="-1707.07" font-family="Helvetica,sans-Serif" font-size="10.00">function&lt; MoFEMErrorCode</text>
<text text-anchor="start" x="2176" y="-1696.07" font-family="Helvetica,sans-Serif" font-size="10.00">(DataOperator *op_ptr,</text>
<text text-anchor="start" x="2176" y="-1685.07" font-family="Helvetica,sans-Serif" font-size="10.00"> int side, EntityType type,</text>
<text text-anchor="middle" x="2264" y="-1674.07" font-family="Helvetica,sans-Serif" font-size="10.00"> EntitiesFieldData::EntData &amp;data)&gt;</text>
</a>
</g>
</g>
<!-- Node5&#45;&gt;Node4 -->
<g id="edge4" class="edge">
<title>Node5&#45;&gt;Node4</title>
<path fill="none" stroke="#9a32cd" stroke-dasharray="5,2" d="M2370.41,-1689.7C2423.41,-1687.81 2488.63,-1685.21 2547,-1682.07 2560.03,-1681.37 2573.98,-1680.49 2587.26,-1679.6"/>
<polygon fill="#9a32cd" stroke="#9a32cd" points="2370.19,-1686.2 2360.32,-1690.05 2370.44,-1693.2 2370.19,-1686.2"/>
<text text-anchor="middle" x="2466" y="-1692.07" font-family="Helvetica,sans-Serif" font-size="10.00"> doWorkRhsHook</text>
</g>
<!-- Node6 -->
<g id="node6" class="node">
<title>Node6</title>
<g id="a_node6"><a xlink:href="classbool.html" target="_top" xlink:title=" ">
<polygon fill="white" stroke="black" points="2245,-1596.57 2245,-1615.57 2283,-1615.57 2283,-1596.57 2245,-1596.57"/>
<text text-anchor="middle" x="2264" y="-1603.57" font-family="Helvetica,sans-Serif" font-size="10.00">bool</text>
</a>
</g>
</g>
<!-- Node6&#45;&gt;Node4 -->
<g id="edge5" class="edge">
<title>Node6&#45;&gt;Node4</title>
<path fill="none" stroke="#9a32cd" stroke-dasharray="5,2" d="M2293.3,-1602.31C2355.73,-1594.54 2503.21,-1579.17 2547,-1601.07 2558.93,-1607.03 2555.08,-1616.16 2565,-1625.07 2584.19,-1642.31 2610.2,-1656.71 2628.17,-1665.56"/>
<polygon fill="#9a32cd" stroke="#9a32cd" points="2292.49,-1598.89 2283.01,-1603.62 2293.38,-1605.83 2292.49,-1598.89"/>
<text text-anchor="middle" x="2466" y="-1670.07" font-family="Helvetica,sans-Serif" font-size="10.00"> doTris</text>
<text text-anchor="middle" x="2466" y="-1659.07" font-family="Helvetica,sans-Serif" font-size="10.00">doQuads</text>
<text text-anchor="middle" x="2466" y="-1648.07" font-family="Helvetica,sans-Serif" font-size="10.00">sYmm</text>
<text text-anchor="middle" x="2466" y="-1637.07" font-family="Helvetica,sans-Serif" font-size="10.00">doPrisms</text>
<text text-anchor="middle" x="2466" y="-1626.07" font-family="Helvetica,sans-Serif" font-size="10.00">doTets</text>
<text text-anchor="middle" x="2466" y="-1615.07" font-family="Helvetica,sans-Serif" font-size="10.00">doVertices</text>
<text text-anchor="middle" x="2466" y="-1604.07" font-family="Helvetica,sans-Serif" font-size="10.00">doEdges</text>
</g>
<!-- Node7 -->
<g id="node7" class="node">
<title>Node7</title>
<g id="a_node7"><a xlink:title=" ">
<polygon fill="white" stroke="#bfbfbf" points="2161,-1776.57 2161,-1861.57 2367,-1861.57 2367,-1776.57 2161,-1776.57"/>
<text text-anchor="start" x="2169" y="-1849.57" font-family="Helvetica,sans-Serif" font-size="10.00">function&lt; MoFEMErrorCode</text>
<text text-anchor="start" x="2169" y="-1838.57" font-family="Helvetica,sans-Serif" font-size="10.00">(DataOperator *op_ptr,</text>
<text text-anchor="start" x="2169" y="-1827.57" font-family="Helvetica,sans-Serif" font-size="10.00"> int row_side, int col_side,</text>
<text text-anchor="start" x="2169" y="-1816.57" font-family="Helvetica,sans-Serif" font-size="10.00"> EntityType row_type, EntityType</text>
<text text-anchor="start" x="2169" y="-1805.57" font-family="Helvetica,sans-Serif" font-size="10.00"> col_type, EntitiesFieldData::EntData</text>
<text text-anchor="start" x="2169" y="-1794.57" font-family="Helvetica,sans-Serif" font-size="10.00"> &amp;row_data, EntitiesFieldData::EntData</text>
<text text-anchor="middle" x="2264" y="-1783.57" font-family="Helvetica,sans-Serif" font-size="10.00"> &amp;col_data)&gt;</text>
</a>
</g>
</g>
<!-- Node7&#45;&gt;Node4 -->
<g id="edge6" class="edge">
<title>Node7&#45;&gt;Node4</title>
<path fill="none" stroke="#9a32cd" stroke-dasharray="5,2" d="M2377.54,-1818.37C2434.86,-1812.25 2501.8,-1795.37 2547,-1753.07 2567.02,-1734.34 2544.91,-1712.73 2565,-1694.07 2571.35,-1688.17 2579.14,-1683.97 2587.38,-1680.99"/>
<polygon fill="#9a32cd" stroke="#9a32cd" points="2376.94,-1814.92 2367.33,-1819.36 2377.62,-1821.88 2376.94,-1814.92"/>
<text text-anchor="middle" x="2466" y="-1820.07" font-family="Helvetica,sans-Serif" font-size="10.00"> doWorkLhsHook</text>
</g>
<!-- Node8 -->
<g id="node8" class="node">
<title>Node8</title>
<g id="a_node8"><a xlink:title=" ">
<polygon fill="white" stroke="#bfbfbf" points="2187,-1738.57 2187,-1757.57 2341,-1757.57 2341,-1738.57 2187,-1738.57"/>
<text text-anchor="middle" x="2264" y="-1745.57" font-family="Helvetica,sans-Serif" font-size="10.00">array&lt; bool, MBMAXTYPE &gt;</text>
</a>
</g>
</g>
<!-- Node8&#45;&gt;Node4 -->
<g id="edge7" class="edge">
<title>Node8&#45;&gt;Node4</title>
<path fill="none" stroke="#9a32cd" stroke-dasharray="5,2" d="M2351.28,-1742.52C2408.1,-1736.95 2483.45,-1725.9 2547,-1704.07 2555.66,-1701.1 2556.45,-1697.34 2565,-1694.07 2574.78,-1690.34 2585.49,-1687.22 2595.89,-1684.67"/>
<polygon fill="#9a32cd" stroke="#9a32cd" points="2350.88,-1739.04 2341.25,-1743.46 2351.54,-1746.01 2350.88,-1739.04"/>
<text text-anchor="middle" x="2466" y="-1741.07" font-family="Helvetica,sans-Serif" font-size="10.00"> doEntities</text>
</g>
<!-- Node9 -->
<g id="node9" class="node">
<title>Node9</title>
<g id="a_node9"><a xlink:title=" ">
<polygon fill="white" stroke="#bfbfbf" points="2615.5,-1596.57 2615.5,-1615.57 2684.5,-1615.57 2684.5,-1596.57 2615.5,-1596.57"/>
<text text-anchor="middle" x="2650" y="-1603.57" font-family="Helvetica,sans-Serif" font-size="10.00">FieldSpace</text>
</a>
</g>
</g>
<!-- Node9&#45;&gt;Node3 -->
<g id="edge8" class="edge">
<title>Node9&#45;&gt;Node3</title>
<path fill="none" stroke="#9a32cd" stroke-dasharray="5,2" d="M2694.8,-1600.11C2730.41,-1595.26 2781.95,-1588.23 2827,-1582.07 2832.84,-1581.27 2838.88,-1580.44 2844.95,-1579.61"/>
<polygon fill="#9a32cd" stroke="#9a32cd" points="2694.18,-1596.66 2684.74,-1601.48 2695.12,-1603.6 2694.18,-1596.66"/>
<text text-anchor="middle" x="2790" y="-1594.07" font-family="Helvetica,sans-Serif" font-size="10.00"> sPace</text>
</g>
<!-- Node10 -->
<g id="node10" class="node">
<title>Node10</title>
<g id="a_node10"><a xlink:title=" ">
<polygon fill="white" stroke="#bfbfbf" points="1130.5,-1558.57 1130.5,-1577.57 1168.5,-1577.57 1168.5,-1558.57 1130.5,-1558.57"/>
<text text-anchor="middle" x="1149.5" y="-1565.57" font-family="Helvetica,sans-Serif" font-size="10.00">char</text>
</a>
</g>
</g>
<!-- Node10&#45;&gt;Node3 -->
<g id="edge9" class="edge">
<title>Node10&#45;&gt;Node3</title>
<path fill="none" stroke="#9a32cd" stroke-dasharray="5,2" d="M1178.82,-1568.07C1238.98,-1568.07 1383.95,-1568.07 1505.5,-1568.07 1505.5,-1568.07 1505.5,-1568.07 2651,-1568.07 2716.04,-1568.07 2789.63,-1568.07 2844.75,-1568.07"/>
<polygon fill="#9a32cd" stroke="#9a32cd" points="1178.6,-1564.57 1168.6,-1568.07 1178.6,-1571.57 1178.6,-1564.57"/>
<text text-anchor="middle" x="2071" y="-1571.07" font-family="Helvetica,sans-Serif" font-size="10.00"> opType</text>
</g>
<!-- Node38 -->
<g id="node38" class="node">
<title>Node38</title>
<g id="a_node38"><a xlink:href="structMoFEM_1_1Problem.html" target="_top" xlink:title="keeps basic data about problem">
<polygon fill="white" stroke="black" points="1457,-1265.57 1457,-1284.57 1556,-1284.57 1556,-1265.57 1457,-1265.57"/>
<text text-anchor="middle" x="1506.5" y="-1272.57" font-family="Helvetica,sans-Serif" font-size="10.00">MoFEM::Problem</text>
</a>
</g>
</g>
<!-- Node10&#45;&gt;Node38 -->
<g id="edge53" class="edge">
<title>Node10&#45;&gt;Node38</title>
<path fill="none" stroke="#9a32cd" stroke-dasharray="5,2" d="M1178.84,-1563.01C1199.04,-1559.27 1226.79,-1553.83 1251,-1548.07 1259.08,-1546.15 1260.9,-1544.88 1269,-1543.07 1298.92,-1536.4 1384.3,-1542.68 1405,-1520.07 1439.02,-1482.91 1390.08,-1332.21 1423,-1294.07 1431.55,-1284.17 1444.12,-1278.85 1456.89,-1276.13"/>
<polygon fill="#9a32cd" stroke="#9a32cd" points="1177.95,-1559.62 1168.74,-1564.86 1179.21,-1566.5 1177.95,-1559.62"/>
<text text-anchor="middle" x="1337" y="-1546.07" font-family="Helvetica,sans-Serif" font-size="10.00"> tagName</text>
</g>
<!-- Node11 -->
<g id="node11" class="node">
<title>Node11</title>
<g id="a_node11"><a xlink:href="structMoFEM_1_1ForcesAndSourcesCore.html" target="_top" xlink:title="structure to get information form mofem into EntitiesFieldData">
<polygon fill="white" stroke="black" points="2565,-861.57 2565,-880.57 2735,-880.57 2735,-861.57 2565,-861.57"/>
<text text-anchor="middle" x="2650" y="-868.57" font-family="Helvetica,sans-Serif" font-size="10.00">MoFEM::ForcesAndSourcesCore</text>
</a>
</g>
</g>
<!-- Node11&#45;&gt;Node3 -->
<g id="edge10" class="edge">
<title>Node11&#45;&gt;Node3</title>
<path fill="none" stroke="#9a32cd" stroke-dasharray="5,2" d="M2658.63,-890.2C2698.93,-991.23 2886.57,-1461.68 2922.9,-1552.77"/>
<polygon fill="#9a32cd" stroke="#9a32cd" points="2661.78,-888.65 2654.82,-880.66 2655.28,-891.24 2661.78,-888.65"/>
<text text-anchor="middle" x="2790" y="-1306.07" font-family="Helvetica,sans-Serif" font-size="10.00"> ptrFE</text>
</g>
<!-- Node11&#45;&gt;Node11 -->
<g id="edge68" class="edge">
<title>Node11&#45;&gt;Node11</title>
<path fill="none" stroke="#9a32cd" stroke-dasharray="5,2" d="M2623.96,-890.1C2625.38,-895.2 2634.06,-899.07 2650,-899.07 2674.88,-899.07 2682.08,-889.64 2671.58,-880.83"/>
<polygon fill="#9a32cd" stroke="#9a32cd" points="2627.24,-891.36 2628.42,-880.83 2620.93,-888.32 2627.24,-891.36"/>
<text text-anchor="middle" x="2650" y="-913.07" font-family="Helvetica,sans-Serif" font-size="10.00"> sidePtrFE</text>
<text text-anchor="middle" x="2650" y="-902.07" font-family="Helvetica,sans-Serif" font-size="10.00">refinePtrFE</text>
</g>
<!-- Node12 -->
<g id="node12" class="node">
<title>Node12</title>
<g id="a_node12"><a xlink:href="structMoFEM_1_1FEMethod.html" target="_top" xlink:title="structure for User Loop Methods on finite elements">
<polygon fill="white" stroke="black" points="2210.5,-801.57 2210.5,-820.57 2317.5,-820.57 2317.5,-801.57 2210.5,-801.57"/>
<text text-anchor="middle" x="2264" y="-808.57" font-family="Helvetica,sans-Serif" font-size="10.00">MoFEM::FEMethod</text>
</a>
</g>
</g>
<!-- Node12&#45;&gt;Node11 -->
<g id="edge11" class="edge">
<title>Node12&#45;&gt;Node11</title>
<path fill="none" stroke="midnightblue" d="M2327.68,-814.49C2385.15,-818.4 2472.4,-826.26 2547,-841.07 2572.71,-846.18 2601.28,-854.85 2621.63,-861.56"/>
<polygon fill="midnightblue" stroke="midnightblue" points="2327.87,-811 2317.66,-813.83 2327.41,-817.98 2327.87,-811"/>
</g>
<!-- Node13 -->
<g id="node13" class="node">
<title>Node13</title>
<g id="a_node13"><a xlink:href="structMoFEM_1_1BasicMethod.html" target="_top" xlink:title="Data structure to exchange data between mofem and User Loop Methods.">
<polygon fill="white" stroke="black" points="1833,-901.57 1833,-920.57 1955,-920.57 1955,-901.57 1833,-901.57"/>
<text text-anchor="middle" x="1894" y="-908.57" font-family="Helvetica,sans-Serif" font-size="10.00">MoFEM::BasicMethod</text>
</a>
</g>
</g>
<!-- Node13&#45;&gt;Node12 -->
<g id="edge12" class="edge">
<title>Node13&#45;&gt;Node12</title>
<path fill="none" stroke="midnightblue" d="M1932.3,-898.27C1983.42,-881.06 2078.35,-850.28 2161,-830.07 2176.92,-826.18 2194.41,-822.65 2210.35,-819.72"/>
<polygon fill="midnightblue" stroke="midnightblue" points="1931.03,-895.01 1922.67,-901.53 1933.27,-901.64 1931.03,-895.01"/>
</g>
<!-- Node14 -->
<g id="node14" class="node">
<title>Node14</title>
<g id="a_node14"><a xlink:href="structMoFEM_1_1KspMethod.html" target="_top" xlink:title="data structure for ksp (linear solver) context">
<polygon fill="white" stroke="black" points="1450,-672.57 1450,-691.57 1563,-691.57 1563,-672.57 1450,-672.57"/>
<text text-anchor="middle" x="1506.5" y="-679.57" font-family="Helvetica,sans-Serif" font-size="10.00">MoFEM::KspMethod</text>
</a>
</g>
</g>
<!-- Node14&#45;&gt;Node13 -->
<g id="edge13" class="edge">
<title>Node14&#45;&gt;Node13</title>
<path fill="none" stroke="midnightblue" d="M1532.54,-696.95C1605.54,-740.31 1816.74,-865.77 1876.86,-901.48"/>
<polygon fill="midnightblue" stroke="midnightblue" points="1533.96,-693.72 1523.57,-691.62 1530.38,-699.74 1533.96,-693.72"/>
</g>
<!-- Node15 -->
<g id="node15" class="node">
<title>Node15</title>
<g id="a_node15"><a xlink:href="structMoFEM_1_1PetscData.html" target="_top" xlink:title=" ">
<polygon fill="white" stroke="black" points="1095.5,-728.57 1095.5,-747.57 1203.5,-747.57 1203.5,-728.57 1095.5,-728.57"/>
<text text-anchor="middle" x="1149.5" y="-735.57" font-family="Helvetica,sans-Serif" font-size="10.00">MoFEM::PetscData</text>
</a>
</g>
</g>
<!-- Node15&#45;&gt;Node14 -->
<g id="edge14" class="edge">
<title>Node15&#45;&gt;Node14</title>
<path fill="none" stroke="midnightblue" d="M1213.67,-728.11C1280.79,-717.52 1385.87,-700.94 1449.94,-690.84"/>
<polygon fill="midnightblue" stroke="midnightblue" points="1212.98,-724.67 1203.65,-729.69 1214.07,-731.59 1212.98,-724.67"/>
</g>
<!-- Node25 -->
<g id="node25" class="node">
<title>Node25</title>
<g id="a_node25"><a xlink:href="structMoFEM_1_1SnesMethod.html" target="_top" xlink:title="data structure for snes (nonlinear solver) context">
<polygon fill="white" stroke="black" points="1447,-901.57 1447,-920.57 1566,-920.57 1566,-901.57 1447,-901.57"/>
<text text-anchor="middle" x="1506.5" y="-908.57" font-family="Helvetica,sans-Serif" font-size="10.00">MoFEM::SnesMethod</text>
</a>
</g>
</g>
<!-- Node15&#45;&gt;Node25 -->
<g id="edge27" class="edge">
<title>Node15&#45;&gt;Node25</title>
<path fill="none" stroke="darkgreen" d="M1213.36,-750.06C1226.04,-753.32 1239.11,-757.29 1251,-762.07 1349.82,-801.77 1456.07,-875.32 1492.44,-901.51"/>
<polygon fill="darkgreen" stroke="darkgreen" points="1213.86,-746.58 1203.31,-747.6 1212.2,-753.38 1213.86,-746.58"/>
</g>
<!-- Node28 -->
<g id="node28" class="node">
<title>Node28</title>
<g id="a_node28"><a xlink:href="structMoFEM_1_1TSMethod.html" target="_top" xlink:title="data structure for TS (time stepping) context">
<polygon fill="white" stroke="black" points="1453,-518.57 1453,-537.57 1560,-537.57 1560,-518.57 1453,-518.57"/>
<text text-anchor="middle" x="1506.5" y="-525.57" font-family="Helvetica,sans-Serif" font-size="10.00">MoFEM::TSMethod</text>
</a>
</g>
</g>
<!-- Node15&#45;&gt;Node28 -->
<g id="edge33" class="edge">
<title>Node15&#45;&gt;Node28</title>
<path fill="none" stroke="darkgreen" d="M1213.69,-734.45C1227.62,-730.78 1241.14,-724.52 1251,-714.07 1282.29,-680.91 1239.59,-647.91 1269,-613.07 1314.94,-558.64 1398.47,-539.07 1452.95,-532.02"/>
<polygon fill="darkgreen" stroke="darkgreen" points="1212.54,-731.12 1203.52,-736.68 1214.04,-737.95 1212.54,-731.12"/>
</g>
<!-- Node16 -->
<g id="node16" class="node">
<title>Node16</title>
<g id="a_node16"><a xlink:href="structMoFEM_1_1UnknownInterface.html" target="_top" xlink:title="base class for all interface classes">
<polygon fill="white" stroke="black" points="739,-385.57 739,-404.57 887,-404.57 887,-385.57 739,-385.57"/>
<text text-anchor="middle" x="813" y="-392.57" font-family="Helvetica,sans-Serif" font-size="10.00">MoFEM::UnknownInterface</text>
</a>
</g>
</g>
<!-- Node16&#45;&gt;Node15 -->
<g id="edge15" class="edge">
<title>Node16&#45;&gt;Node15</title>
<path fill="none" stroke="midnightblue" d="M853.49,-408.23C903.89,-427.29 989.4,-467.75 1030,-534.07 1050.99,-568.36 1021.55,-683.8 1048,-714.07 1059.86,-727.65 1077.9,-734.26 1095.43,-737.29"/>
<polygon fill="midnightblue" stroke="midnightblue" points="854.5,-404.87 843.9,-404.7 852.08,-411.44 854.5,-404.87"/>
</g>
<!-- Node56 -->
<g id="node56" class="node">
<title>Node56</title>
<g id="a_node56"><a xlink:href="structMoFEM_1_1CoreInterface.html" target="_top" xlink:title="Interface.">
<polygon fill="white" stroke="black" points="1087,-288.57 1087,-307.57 1212,-307.57 1212,-288.57 1087,-288.57"/>
<text text-anchor="middle" x="1149.5" y="-295.57" font-family="Helvetica,sans-Serif" font-size="10.00">MoFEM::CoreInterface</text>
</a>
</g>
</g>
<!-- Node16&#45;&gt;Node56 -->
<g id="edge67" class="edge">
<title>Node16&#45;&gt;Node56</title>
<path fill="none" stroke="midnightblue" d="M848.56,-381.92C893.84,-365.06 975.95,-335.8 1048,-317.07 1061.75,-313.5 1076.72,-310.3 1090.8,-307.6"/>
<polygon fill="midnightblue" stroke="midnightblue" points="847.08,-378.73 838.94,-385.52 849.54,-385.29 847.08,-378.73"/>
</g>
<!-- Node17 -->
<g id="node17" class="node">
<title>Node17</title>
<g id="a_node17"><a xlink:title=" ">
<polygon fill="white" stroke="#bfbfbf" points="386,-800.57 386,-863.57 627,-863.57 627,-800.57 386,-800.57"/>
<text text-anchor="start" x="394" y="-851.57" font-family="Helvetica,sans-Serif" font-size="10.00">multi_index_container</text>
<text text-anchor="start" x="394" y="-840.57" font-family="Helvetica,sans-Serif" font-size="10.00">&lt; UIdTypeMap, indexed</text>
<text text-anchor="start" x="394" y="-829.57" font-family="Helvetica,sans-Serif" font-size="10.00">_by&lt; hashed_unique&lt; member</text>
<text text-anchor="start" x="394" y="-818.57" font-family="Helvetica,sans-Serif" font-size="10.00">&lt; UIdTypeMap, boost::typeindex</text>
<text text-anchor="middle" x="506.5" y="-807.57" font-family="Helvetica,sans-Serif" font-size="10.00">::type_index, &amp;UIdTypeMap::classIdx &gt; &gt; &gt; &gt;</text>
</a>
</g>
</g>
<!-- Node17&#45;&gt;Node16 -->
<g id="edge16" class="edge">
<title>Node17&#45;&gt;Node16</title>
<path fill="none" stroke="#9a32cd" stroke-dasharray="5,2" d="M530.79,-791.15C569.81,-723.78 652.26,-586.3 735,-479.07 757.12,-450.41 786.96,-419.8 802.18,-404.67"/>
<polygon fill="#9a32cd" stroke="#9a32cd" points="527.55,-789.77 525.58,-800.18 533.61,-793.27 527.55,-789.77"/>
<text text-anchor="middle" x="681" y="-605.07" font-family="Helvetica,sans-Serif" font-size="10.00"> iFaceTypeMap</text>
</g>
<!-- Node18 -->
<g id="node18" class="node">
<title>Node18</title>
<g id="a_node18"><a xlink:title=" ">
<polygon fill="white" stroke="#bfbfbf" points="0,-852.57 0,-871.57 125,-871.57 125,-852.57 0,-852.57"/>
<text text-anchor="middle" x="62.5" y="-859.57" font-family="Helvetica,sans-Serif" font-size="10.00">multi_index_container</text>
</a>
</g>
</g>
<!-- Node18&#45;&gt;Node13 -->
<g id="edge40" class="edge">
<title>Node18&#45;&gt;Node13</title>
<path fill="none" stroke="#9a32cd" stroke-dasharray="5,2" d="M85.09,-877.47C147.19,-920.19 332.83,-1037.07 505.5,-1037.07 505.5,-1037.07 505.5,-1037.07 970.5,-1037.07 1095.45,-1037.07 1126.89,-1032.58 1251,-1018.07 1474.9,-991.89 1739.72,-941.53 1845.71,-920.58"/>
<polygon fill="#9a32cd" stroke="#9a32cd" points="87.05,-874.57 76.85,-871.73 83.05,-880.31 87.05,-874.57"/>
<text text-anchor="middle" x="969.5" y="-1117.07" font-family="Helvetica,sans-Serif" font-size="10.00"> adjacenciesPtr</text>
<text text-anchor="middle" x="969.5" y="-1106.07" font-family="Helvetica,sans-Serif" font-size="10.00">refinedEntitiesPtr</text>
<text text-anchor="middle" x="969.5" y="-1095.07" font-family="Helvetica,sans-Serif" font-size="10.00">finiteElementsEntitiesPtr</text>
<text text-anchor="middle" x="969.5" y="-1084.07" font-family="Helvetica,sans-Serif" font-size="10.00">dofsPtr</text>
<text text-anchor="middle" x="969.5" y="-1073.07" font-family="Helvetica,sans-Serif" font-size="10.00">entitiesPtr</text>
<text text-anchor="middle" x="969.5" y="-1062.07" font-family="Helvetica,sans-Serif" font-size="10.00">finiteElementsPtr</text>
<text text-anchor="middle" x="969.5" y="-1051.07" font-family="Helvetica,sans-Serif" font-size="10.00">refinedFiniteElementsPtr</text>
<text text-anchor="middle" x="969.5" y="-1040.07" font-family="Helvetica,sans-Serif" font-size="10.00">fieldsPtr</text>
</g>
<!-- Node18&#45;&gt;Node17 -->
<g id="edge17" class="edge">
<title>Node18&#45;&gt;Node17</title>
<path fill="none" stroke="orange" stroke-dasharray="5,2" d="M135.56,-857.18C203.25,-852.59 305.79,-845.63 385.77,-840.2"/>
<polygon fill="orange" stroke="orange" points="135.16,-853.7 125.42,-857.87 135.64,-860.68 135.16,-853.7"/>
<text text-anchor="start" x="143" y="-893.07" font-family="Helvetica,sans-Serif" font-size="10.00"> &lt; UIdTypeMap, indexed</text>
<text text-anchor="start" x="143" y="-882.07" font-family="Helvetica,sans-Serif" font-size="10.00">_by&lt; hashed_unique&lt; member</text>
<text text-anchor="start" x="143" y="-871.07" font-family="Helvetica,sans-Serif" font-size="10.00">&lt; UIdTypeMap, boost::typeindex</text>
<text text-anchor="middle" x="255.5" y="-860.07" font-family="Helvetica,sans-Serif" font-size="10.00">::type_index, &amp;UIdTypeMap::classIdx &gt; &gt; &gt; &gt;</text>
</g>
<!-- Node19 -->
<g id="node19" class="node">
<title>Node19</title>
<g id="a_node19"><a xlink:title=" ">
<polygon fill="white" stroke="#bfbfbf" points="742.5,-625.57 742.5,-644.57 883.5,-644.57 883.5,-625.57 742.5,-625.57"/>
<text text-anchor="middle" x="813" y="-632.57" font-family="Helvetica,sans-Serif" font-size="10.00">static constexpr Switches</text>
</a>
</g>
</g>
<!-- Node19&#45;&gt;Node15 -->
<g id="edge18" class="edge">
<title>Node19&#45;&gt;Node15</title>
<path fill="none" stroke="#9a32cd" stroke-dasharray="5,2" d="M862.98,-623.75C910.96,-615.73 983.45,-612.2 1030,-650.07 1052.92,-668.72 1026.7,-693.6 1048,-714.07 1060.68,-726.25 1078.37,-732.62 1095.39,-735.85"/>
<polygon fill="#9a32cd" stroke="#9a32cd" points="862.36,-620.31 853.13,-625.52 863.6,-627.2 862.36,-620.31"/>
<text text-anchor="middle" x="969.5" y="-730.07" font-family="Helvetica,sans-Serif" font-size="10.00"> CtxSetX_TT</text>
<text text-anchor="middle" x="969.5" y="-719.07" font-family="Helvetica,sans-Serif" font-size="10.00">CtxSetX_T</text>
<text text-anchor="middle" x="969.5" y="-708.07" font-family="Helvetica,sans-Serif" font-size="10.00">CtxSetA</text>
<text text-anchor="middle" x="969.5" y="-697.07" font-family="Helvetica,sans-Serif" font-size="10.00">CtxSetB</text>
<text text-anchor="middle" x="969.5" y="-686.07" font-family="Helvetica,sans-Serif" font-size="10.00">CtxSetTime</text>
<text text-anchor="middle" x="969.5" y="-675.07" font-family="Helvetica,sans-Serif" font-size="10.00">CtxSetNone</text>
<text text-anchor="middle" x="969.5" y="-664.07" font-family="Helvetica,sans-Serif" font-size="10.00">CtxSetF</text>
<text text-anchor="middle" x="969.5" y="-653.07" font-family="Helvetica,sans-Serif" font-size="10.00">CtxSetX</text>
</g>
<!-- Node20 -->
<g id="node20" class="node">
<title>Node20</title>
<g id="a_node20"><a xlink:title=" ">
<polygon fill="white" stroke="#bfbfbf" points="795.5,-488.57 795.5,-507.57 830.5,-507.57 830.5,-488.57 795.5,-488.57"/>
<text text-anchor="middle" x="813" y="-495.57" font-family="Helvetica,sans-Serif" font-size="10.00">Mat</text>
</a>
</g>
</g>
<!-- Node20&#45;&gt;Node14 -->
<g id="edge24" class="edge">
<title>Node20&#45;&gt;Node14</title>
<path fill="none" stroke="#9a32cd" stroke-dasharray="5,2" d="M840.73,-494.65C882.72,-490.4 965.95,-486.51 1030,-512.07 1039.67,-515.93 1038.56,-522.68 1048,-527.07 1131.09,-565.69 1162.1,-540.87 1251,-563.07 1320.82,-580.51 1340.45,-581.27 1405,-613.07 1439.55,-630.09 1475.77,-657.79 1493.82,-672.37"/>
<polygon fill="#9a32cd" stroke="#9a32cd" points="840.3,-491.18 830.74,-495.75 841.07,-498.14 840.3,-491.18"/>
<text text-anchor="middle" x="1149.5" y="-577.07" font-family="Helvetica,sans-Serif" font-size="10.00"> ksp_A</text>
<text text-anchor="middle" x="1149.5" y="-566.07" font-family="Helvetica,sans-Serif" font-size="10.00">ksp_B</text>
</g>
<!-- Node20&#45;&gt;Node15 -->
<g id="edge19" class="edge">
<title>Node20&#45;&gt;Node15</title>
<path fill="none" stroke="#9a32cd" stroke-dasharray="5,2" d="M831.28,-514.46C849.28,-530.59 878.98,-554.69 909,-568.07 959.15,-590.43 992.27,-553.17 1030,-593.07 1067.35,-632.58 1011.26,-673.99 1048,-714.07 1060.06,-727.23 1077.93,-733.78 1095.27,-736.88"/>
<polygon fill="#9a32cd" stroke="#9a32cd" points="833.62,-511.85 823.88,-507.68 828.89,-517.01 833.62,-511.85"/>
<text text-anchor="middle" x="969.5" y="-607.07" font-family="Helvetica,sans-Serif" font-size="10.00"> A</text>
<text text-anchor="middle" x="969.5" y="-596.07" font-family="Helvetica,sans-Serif" font-size="10.00">B</text>
</g>
<!-- Node20&#45;&gt;Node25 -->
<g id="edge29" class="edge">
<title>Node20&#45;&gt;Node25</title>
<path fill="none" stroke="#9a32cd" stroke-dasharray="5,2" d="M840.77,-501.15C895.66,-507.7 1016.94,-523.55 1030,-537.07 1068.69,-577.12 1009.24,-621.08 1048,-661.07 1111.77,-726.87 1163.56,-669.66 1251,-697.07 1322.92,-719.61 1347.12,-719.8 1405,-768.07 1453.01,-808.11 1488.83,-876.3 1500.99,-901.42"/>
<polygon fill="#9a32cd" stroke="#9a32cd" points="841.07,-497.66 830.72,-499.96 840.25,-504.61 841.07,-497.66"/>
<text text-anchor="middle" x="1149.5" y="-711.07" font-family="Helvetica,sans-Serif" font-size="10.00"> snes_A</text>
<text text-anchor="middle" x="1149.5" y="-700.07" font-family="Helvetica,sans-Serif" font-size="10.00">snes_B</text>
</g>
<!-- Node20&#45;&gt;Node28 -->
<g id="edge34" class="edge">
<title>Node20&#45;&gt;Node28</title>
<path fill="none" stroke="#9a32cd" stroke-dasharray="5,2" d="M840.01,-487.72C882.63,-471.37 970.38,-440.28 1048,-429.07 1126.67,-417.71 1344.51,-399.51 1405,-451.07 1425.54,-468.58 1403.22,-490.71 1423,-509.07 1431.19,-516.67 1441.78,-521.43 1452.64,-524.37"/>
<polygon fill="#9a32cd" stroke="#9a32cd" points="838.71,-484.47 830.66,-491.35 841.25,-490.99 838.71,-484.47"/>
<text text-anchor="middle" x="1149.5" y="-443.07" font-family="Helvetica,sans-Serif" font-size="10.00"> ts_A</text>
<text text-anchor="middle" x="1149.5" y="-432.07" font-family="Helvetica,sans-Serif" font-size="10.00">ts_B</text>
</g>
<!-- Node70 -->
<g id="node70" class="node">
<title>Node70</title>
<g id="a_node70"><a xlink:href="structCellEngineering_1_1CommonData.html" target="_top" xlink:title=" ">
<polygon fill="white" stroke="black" points="1066,-190.57 1066,-209.57 1233,-209.57 1233,-190.57 1066,-190.57"/>
<text text-anchor="middle" x="1149.5" y="-197.57" font-family="Helvetica,sans-Serif" font-size="10.00">CellEngineering::CommonData</text>
</a>
</g>
</g>
<!-- Node20&#45;&gt;Node70 -->
<g id="edge87" class="edge">
<title>Node20&#45;&gt;Node70</title>
<path fill="none" stroke="#9a32cd" stroke-dasharray="5,2" d="M829.88,-480.73C855.83,-452.42 904.87,-399 909,-395.07 967.29,-339.6 985.47,-329.72 1048,-279.07 1079.39,-253.65 1116.94,-224.44 1136.03,-209.68"/>
<polygon fill="#9a32cd" stroke="#9a32cd" points="827.11,-478.57 822.94,-488.31 832.27,-483.3 827.11,-478.57"/>
<text text-anchor="middle" x="969.5" y="-398.07" font-family="Helvetica,sans-Serif" font-size="10.00"> globA</text>
</g>
<!-- Node21 -->
<g id="node21" class="node">
<title>Node21</title>
<g id="a_node21"><a xlink:title=" ">
<polygon fill="white" stroke="#bfbfbf" points="776.5,-736.57 776.5,-755.57 849.5,-755.57 849.5,-736.57 776.5,-736.57"/>
<text text-anchor="middle" x="813" y="-743.57" font-family="Helvetica,sans-Serif" font-size="10.00">bitset&lt; 8 &gt;</text>
</a>
</g>
</g>
<!-- Node21&#45;&gt;Node15 -->
<g id="edge20" class="edge">
<title>Node21&#45;&gt;Node15</title>
<path fill="none" stroke="#9a32cd" stroke-dasharray="5,2" d="M859.99,-744.97C921.54,-743.5 1030.47,-740.89 1095.43,-739.34"/>
<polygon fill="#9a32cd" stroke="#9a32cd" points="859.71,-741.48 849.8,-745.21 859.88,-748.47 859.71,-741.48"/>
<text text-anchor="middle" x="969.5" y="-747.07" font-family="Helvetica,sans-Serif" font-size="10.00"> data_ctx</text>
</g>
<!-- Node22 -->
<g id="node22" class="node">
<title>Node22</title>
<g id="a_node22"><a xlink:title=" ">
<polygon fill="white" stroke="#bfbfbf" points="796,-829.57 796,-848.57 830,-848.57 830,-829.57 796,-829.57"/>
<text text-anchor="middle" x="813" y="-836.57" font-family="Helvetica,sans-Serif" font-size="10.00">Vec</text>
</a>
</g>
</g>
<!-- Node22&#45;&gt;Node14 -->
<g id="edge25" class="edge">
<title>Node22&#45;&gt;Node14</title>
<path fill="none" stroke="#9a32cd" stroke-dasharray="5,2" d="M839.99,-843.7C908.98,-854.94 1101.67,-879.4 1251,-832.07 1353.67,-799.53 1459.15,-719.44 1493.75,-691.71"/>
<polygon fill="#9a32cd" stroke="#9a32cd" points="840.45,-840.23 830,-842.03 839.29,-847.13 840.45,-840.23"/>
<text text-anchor="middle" x="1149.5" y="-863.07" font-family="Helvetica,sans-Serif" font-size="10.00"> ksp_f</text>
</g>
<!-- Node22&#45;&gt;Node15 -->
<g id="edge21" class="edge">
<title>Node22&#45;&gt;Node15</title>
<path fill="none" stroke="#9a32cd" stroke-dasharray="5,2" d="M834.66,-823.32C853.16,-810.02 881.52,-791.5 909,-781.07 917.69,-777.77 1027.63,-758.68 1095.5,-747.08"/>
<polygon fill="#9a32cd" stroke="#9a32cd" points="832.41,-820.64 826.42,-829.38 836.55,-826.28 832.41,-820.64"/>
<text text-anchor="middle" x="969.5" y="-817.07" font-family="Helvetica,sans-Serif" font-size="10.00"> f</text>
<text text-anchor="middle" x="969.5" y="-806.07" font-family="Helvetica,sans-Serif" font-size="10.00">x</text>
<text text-anchor="middle" x="969.5" y="-795.07" font-family="Helvetica,sans-Serif" font-size="10.00">x_t</text>
<text text-anchor="middle" x="969.5" y="-784.07" font-family="Helvetica,sans-Serif" font-size="10.00">x_tt</text>
</g>
<!-- Node22&#45;&gt;Node25 -->
<g id="edge30" class="edge">
<title>Node22&#45;&gt;Node25</title>
<path fill="none" stroke="#9a32cd" stroke-dasharray="5,2" d="M839.3,-852.18C858.02,-861.2 884.42,-872.51 909,-878.07 1101.97,-921.71 1338.55,-918.64 1446.61,-914.24"/>
<polygon fill="#9a32cd" stroke="#9a32cd" points="840.78,-849.01 830.27,-847.72 837.68,-855.29 840.78,-849.01"/>
<text text-anchor="middle" x="1149.5" y="-930.07" font-family="Helvetica,sans-Serif" font-size="10.00"> snes_x</text>
<text text-anchor="middle" x="1149.5" y="-919.07" font-family="Helvetica,sans-Serif" font-size="10.00">snes_f</text>
</g>
<!-- Node22&#45;&gt;Node28 -->
<g id="edge38" class="edge">
<title>Node22&#45;&gt;Node28</title>
<path fill="none" stroke="#9a32cd" stroke-dasharray="5,2" d="M840.42,-840.67C891.22,-843.23 1000.1,-846.01 1030,-825.07 1046.3,-813.65 1032.09,-796.03 1048,-784.07 1120.75,-729.38 1164.06,-784.01 1251,-757.07 1324.28,-734.36 1347.63,-730.02 1405,-679.07 1453.74,-635.79 1489.37,-563.77 1501.22,-537.79"/>
<polygon fill="#9a32cd" stroke="#9a32cd" points="840.41,-837.17 830.24,-840.12 840.03,-844.16 840.41,-837.17"/>
<text text-anchor="middle" x="1149.5" y="-820.07" font-family="Helvetica,sans-Serif" font-size="10.00"> ts_u</text>
<text text-anchor="middle" x="1149.5" y="-809.07" font-family="Helvetica,sans-Serif" font-size="10.00">ts_F</text>
<text text-anchor="middle" x="1149.5" y="-798.07" font-family="Helvetica,sans-Serif" font-size="10.00">ts_u_t</text>
<text text-anchor="middle" x="1149.5" y="-787.07" font-family="Helvetica,sans-Serif" font-size="10.00">ts_u_tt</text>
</g>
<!-- Node22&#45;&gt;Node70 -->
<g id="edge89" class="edge">
<title>Node22&#45;&gt;Node70</title>
<path fill="none" stroke="#9a32cd" stroke-dasharray="5,2" d="M837.62,-823.61C855.63,-810.4 879.26,-789.66 891,-765.07 931.36,-680.53 873.35,-641.7 909,-555.07 940.95,-477.45 996.08,-486.85 1030,-410.07 1053.75,-356.31 1018.77,-330.05 1048,-279.07 1066.77,-246.34 1104.93,-222.24 1128.45,-209.75"/>
<polygon fill="#9a32cd" stroke="#9a32cd" points="835.46,-820.85 829.31,-829.48 839.5,-826.57 835.46,-820.85"/>
<text text-anchor="middle" x="969.5" y="-558.07" font-family="Helvetica,sans-Serif" font-size="10.00"> globF</text>
</g>
<!-- Node23 -->
<g id="node23" class="node">
<title>Node23</title>
<g id="a_node23"><a xlink:title=" ">
<polygon fill="white" stroke="#bfbfbf" points="1132,-632.57 1132,-651.57 1167,-651.57 1167,-632.57 1132,-632.57"/>
<text text-anchor="middle" x="1149.5" y="-639.57" font-family="Helvetica,sans-Serif" font-size="10.00">KSP</text>
</a>
</g>
</g>
<!-- Node23&#45;&gt;Node14 -->
<g id="edge22" class="edge">
<title>Node23&#45;&gt;Node14</title>
<path fill="none" stroke="#9a32cd" stroke-dasharray="5,2" d="M1177.29,-645.09C1235.06,-651.6 1372.41,-667.07 1449.88,-675.8"/>
<polygon fill="#9a32cd" stroke="#9a32cd" points="1177.48,-641.59 1167.15,-643.95 1176.69,-648.54 1177.48,-641.59"/>
<text text-anchor="middle" x="1337" y="-674.07" font-family="Helvetica,sans-Serif" font-size="10.00"> ksp</text>
</g>
<!-- Node24 -->
<g id="node24" class="node">
<title>Node24</title>
<g id="a_node24"><a xlink:title=" ">
<polygon fill="white" stroke="#bfbfbf" points="1112.5,-594.57 1112.5,-613.57 1186.5,-613.57 1186.5,-594.57 1112.5,-594.57"/>
<text text-anchor="middle" x="1149.5" y="-601.57" font-family="Helvetica,sans-Serif" font-size="10.00">KSPContext</text>
</a>
</g>
</g>
<!-- Node24&#45;&gt;Node14 -->
<g id="edge23" class="edge">
<title>Node24&#45;&gt;Node14</title>
<path fill="none" stroke="#9a32cd" stroke-dasharray="5,2" d="M1197.02,-607.77C1248.55,-612.62 1333.78,-622.86 1405,-642.07 1433.83,-649.85 1465.61,-663.39 1485.56,-672.54"/>
<polygon fill="#9a32cd" stroke="#9a32cd" points="1197.14,-604.27 1186.86,-606.85 1196.5,-611.24 1197.14,-604.27"/>
<text text-anchor="middle" x="1337" y="-645.07" font-family="Helvetica,sans-Serif" font-size="10.00"> ksp_ctx</text>
</g>
<!-- Node25&#45;&gt;Node13 -->
<g id="edge26" class="edge">
<title>Node25&#45;&gt;Node13</title>
<path fill="none" stroke="midnightblue" d="M1576.06,-911.07C1649.05,-911.07 1763.39,-911.07 1832.95,-911.07"/>
<polygon fill="midnightblue" stroke="midnightblue" points="1576.05,-907.57 1566.05,-911.07 1576.05,-914.57 1576.05,-907.57"/>
</g>
<!-- Node26 -->
<g id="node26" class="node">
<title>Node26</title>
<g id="a_node26"><a xlink:title=" ">
<polygon fill="white" stroke="#bfbfbf" points="1128.5,-951.57 1128.5,-970.57 1170.5,-970.57 1170.5,-951.57 1128.5,-951.57"/>
<text text-anchor="middle" x="1149.5" y="-958.57" font-family="Helvetica,sans-Serif" font-size="10.00">SNES</text>
</a>
</g>
</g>
<!-- Node26&#45;&gt;Node25 -->
<g id="edge28" class="edge">
<title>Node26&#45;&gt;Node25</title>
<path fill="none" stroke="#9a32cd" stroke-dasharray="5,2" d="M1180.72,-956.81C1239.53,-948.53 1370.28,-930.11 1446.74,-919.35"/>
<polygon fill="#9a32cd" stroke="#9a32cd" points="1180.02,-953.38 1170.6,-958.24 1180.99,-960.31 1180.02,-953.38"/>
<text text-anchor="middle" x="1337" y="-947.07" font-family="Helvetica,sans-Serif" font-size="10.00"> snes</text>
</g>
<!-- Node27 -->
<g id="node27" class="node">
<title>Node27</title>
<g id="a_node27"><a xlink:title=" ">
<polygon fill="white" stroke="#bfbfbf" points="1109.5,-989.57 1109.5,-1008.57 1189.5,-1008.57 1189.5,-989.57 1109.5,-989.57"/>
<text text-anchor="middle" x="1149.5" y="-996.57" font-family="Helvetica,sans-Serif" font-size="10.00">SNESContext</text>
</a>
</g>
</g>
<!-- Node27&#45;&gt;Node25 -->
<g id="edge31" class="edge">
<title>Node27&#45;&gt;Node25</title>
<path fill="none" stroke="#9a32cd" stroke-dasharray="5,2" d="M1199.67,-990.77C1273.56,-978.3 1404.69,-956.16 1405,-956.07 1435.19,-946.92 1468.21,-930.87 1487.87,-920.62"/>
<polygon fill="#9a32cd" stroke="#9a32cd" points="1198.93,-987.35 1189.65,-992.46 1200.09,-994.25 1198.93,-987.35"/>
<text text-anchor="middle" x="1337" y="-982.07" font-family="Helvetica,sans-Serif" font-size="10.00"> snes_ctx</text>
</g>
<!-- Node28&#45;&gt;Node13 -->
<g id="edge32" class="edge">
<title>Node28&#45;&gt;Node13</title>
<path fill="none" stroke="midnightblue" d="M1538.61,-542C1597.74,-570.2 1726.06,-639.99 1789,-740.07 1810.71,-774.6 1787.22,-794.4 1807,-830.07 1824.51,-861.64 1858.59,-888.09 1878.18,-901.53"/>
<polygon fill="midnightblue" stroke="midnightblue" points="1539.94,-538.76 1529.4,-537.68 1536.97,-545.1 1539.94,-538.76"/>
</g>
<!-- Node29 -->
<g id="node29" class="node">
<title>Node29</title>
<g id="a_node29"><a xlink:title=" ">
<polygon fill="white" stroke="#bfbfbf" points="1117,-460.57 1117,-479.57 1182,-479.57 1182,-460.57 1117,-460.57"/>
<text text-anchor="middle" x="1149.5" y="-467.57" font-family="Helvetica,sans-Serif" font-size="10.00">PetscReal</text>
</a>
</g>
</g>
<!-- Node29&#45;&gt;Node28 -->
<g id="edge35" class="edge">
<title>Node29&#45;&gt;Node28</title>
<path fill="none" stroke="#9a32cd" stroke-dasharray="5,2" d="M1192.22,-464.32C1255.27,-456.52 1371.1,-445.93 1405,-468.07 1421.66,-478.95 1407.67,-496.38 1423,-509.07 1431.49,-516.1 1442.09,-520.64 1452.83,-523.55"/>
<polygon fill="#9a32cd" stroke="#9a32cd" points="1191.68,-460.86 1182.2,-465.59 1192.56,-467.8 1191.68,-460.86"/>
<text text-anchor="middle" x="1337" y="-504.07" font-family="Helvetica,sans-Serif" font-size="10.00"> ts_a</text>
<text text-anchor="middle" x="1337" y="-493.07" font-family="Helvetica,sans-Serif" font-size="10.00">ts_t</text>
<text text-anchor="middle" x="1337" y="-482.07" font-family="Helvetica,sans-Serif" font-size="10.00">ts_dt</text>
<text text-anchor="middle" x="1337" y="-471.07" font-family="Helvetica,sans-Serif" font-size="10.00">ts_aa</text>
</g>
<!-- Node30 -->
<g id="node30" class="node">
<title>Node30</title>
<g id="a_node30"><a xlink:title=" ">
<polygon fill="white" stroke="#bfbfbf" points="1116,-364.57 1116,-383.57 1183,-383.57 1183,-364.57 1116,-364.57"/>
<text text-anchor="middle" x="1149.5" y="-371.57" font-family="Helvetica,sans-Serif" font-size="10.00">TSContext</text>
</a>
</g>
</g>
<!-- Node30&#45;&gt;Node28 -->
<g id="edge36" class="edge">
<title>Node30&#45;&gt;Node28</title>
<path fill="none" stroke="#9a32cd" stroke-dasharray="5,2" d="M1193.18,-363.3C1249.45,-351.92 1347.95,-342.11 1405,-395.07 1442.59,-429.97 1388.02,-471.56 1423,-509.07 1430.82,-517.45 1441.53,-522.49 1452.65,-525.45"/>
<polygon fill="#9a32cd" stroke="#9a32cd" points="1192.24,-359.93 1183.19,-365.43 1193.7,-366.77 1192.24,-359.93"/>
<text text-anchor="middle" x="1337" y="-398.07" font-family="Helvetica,sans-Serif" font-size="10.00"> ts_ctx</text>
</g>
<!-- Node31 -->
<g id="node31" class="node">
<title>Node31</title>
<g id="a_node31"><a xlink:title=" ">
<polygon fill="white" stroke="#bfbfbf" points="1121.5,-326.57 1121.5,-345.57 1177.5,-345.57 1177.5,-326.57 1121.5,-326.57"/>
<text text-anchor="middle" x="1149.5" y="-333.57" font-family="Helvetica,sans-Serif" font-size="10.00">PetscInt</text>
</a>
</g>
</g>
<!-- Node31&#45;&gt;Node28 -->
<g id="edge37" class="edge">
<title>Node31&#45;&gt;Node28</title>
<path fill="none" stroke="#9a32cd" stroke-dasharray="5,2" d="M1187.83,-330.9C1250.79,-323.09 1374.25,-311.98 1405,-340.07 1432.89,-365.54 1397.95,-480.81 1423,-509.07 1430.7,-517.76 1441.51,-522.9 1452.77,-525.84"/>
<polygon fill="#9a32cd" stroke="#9a32cd" points="1187.38,-327.43 1177.9,-332.17 1188.27,-334.37 1187.38,-327.43"/>
<text text-anchor="middle" x="1337" y="-343.07" font-family="Helvetica,sans-Serif" font-size="10.00"> ts_step</text>
</g>
<!-- Node32 -->
<g id="node32" class="node">
<title>Node32</title>
<g id="a_node32"><a xlink:title=" ">
<polygon fill="white" stroke="#bfbfbf" points="1135,-498.57 1135,-517.57 1164,-517.57 1164,-498.57 1135,-498.57"/>
<text text-anchor="middle" x="1149.5" y="-505.57" font-family="Helvetica,sans-Serif" font-size="10.00">TS</text>
</a>
</g>
</g>
<!-- Node32&#45;&gt;Node28 -->
<g id="edge39" class="edge">
<title>Node32&#45;&gt;Node28</title>
<path fill="none" stroke="#9a32cd" stroke-dasharray="5,2" d="M1174.58,-509.43C1231.4,-512.63 1374.9,-520.71 1452.96,-525.11"/>
<polygon fill="#9a32cd" stroke="#9a32cd" points="1174.6,-505.92 1164.42,-508.85 1174.2,-512.91 1174.6,-505.92"/>
<text text-anchor="middle" x="1337" y="-526.07" font-family="Helvetica,sans-Serif" font-size="10.00"> ts</text>
</g>
<!-- Node33 -->
<g id="node33" class="node">
<title>Node33</title>
<g id="a_node33"><a xlink:title=" ">
<polygon fill="white" stroke="#bfbfbf" points="1462,-480.57 1462,-499.57 1551,-499.57 1551,-480.57 1462,-480.57"/>
<text text-anchor="middle" x="1506.5" y="-487.57" font-family="Helvetica,sans-Serif" font-size="10.00">pair&lt; int, int &gt;</text>
</a>
</g>
</g>
<!-- Node33&#45;&gt;Node13 -->
<g id="edge41" class="edge">
<title>Node33&#45;&gt;Node13</title>
<path fill="none" stroke="#9a32cd" stroke-dasharray="5,2" d="M1561.31,-487.18C1626.47,-486.95 1734.29,-497.71 1789,-565.07 1826.21,-610.89 1781.78,-776.71 1807,-830.07 1822.25,-862.34 1856.5,-888.16 1876.88,-901.39"/>
<polygon fill="#9a32cd" stroke="#9a32cd" points="1561.19,-483.69 1551.23,-487.31 1561.27,-490.68 1561.19,-483.69"/>
<text text-anchor="middle" x="1698.5" y="-568.07" font-family="Helvetica,sans-Serif" font-size="10.00"> loHiFERank</text>
</g>
<!-- Node34 -->
<g id="node34" class="node">
<title>Node34</title>
<g id="a_node34"><a xlink:title=" ">
<polygon fill="white" stroke="#bfbfbf" points="1436.5,-1345.57 1436.5,-1364.57 1576.5,-1364.57 1576.5,-1345.57 1436.5,-1345.57"/>
<text text-anchor="middle" x="1506.5" y="-1352.57" font-family="Helvetica,sans-Serif" font-size="10.00">weak_ptr&lt; CacheTuple &gt;</text>
</a>
</g>
</g>
<!-- Node34&#45;&gt;Node13 -->
<g id="edge42" class="edge">
<title>Node34&#45;&gt;Node13</title>
<path fill="none" stroke="#9a32cd" stroke-dasharray="5,2" d="M1550.51,-1367.07C1612.83,-1381.53 1727.5,-1396.66 1789,-1333.07 1820.16,-1300.85 1778.16,-964.38 1807,-930.07 1813.69,-922.11 1822.89,-917.04 1832.8,-913.88"/>
<polygon fill="#9a32cd" stroke="#9a32cd" points="1551.15,-1363.62 1540.6,-1364.67 1549.5,-1370.42 1551.15,-1363.62"/>
<text text-anchor="middle" x="1698.5" y="-1383.07" font-family="Helvetica,sans-Serif" font-size="10.00"> cacheWeakPtr</text>
</g>
<!-- Node35 -->
<g id="node35" class="node">
<title>Node35</title>
<g id="a_node35"><a xlink:title=" ">
<polygon fill="white" stroke="#bfbfbf" points="1450.5,-1303.57 1450.5,-1322.57 1562.5,-1322.57 1562.5,-1303.57 1450.5,-1303.57"/>
<text text-anchor="middle" x="1506.5" y="-1310.57" font-family="Helvetica,sans-Serif" font-size="10.00">unique_ptr&lt; bool &gt;</text>
</a>
</g>
</g>
<!-- Node35&#45;&gt;Node13 -->
<g id="edge43" class="edge">
<title>Node35&#45;&gt;Node13</title>
<path fill="none" stroke="#9a32cd" stroke-dasharray="5,2" d="M1572.84,-1312.29C1646.87,-1309.88 1760.91,-1301.08 1789,-1270.07 1839.8,-1214 1758.08,-987.79 1807,-930.07 1813.72,-922.14 1822.94,-917.08 1832.86,-913.93"/>
<polygon fill="#9a32cd" stroke="#9a32cd" points="1572.57,-1308.79 1562.67,-1312.59 1572.77,-1315.79 1572.57,-1308.79"/>
<text text-anchor="middle" x="1698.5" y="-1325.07" font-family="Helvetica,sans-Serif" font-size="10.00"> matAssembleSwitch</text>
<text text-anchor="middle" x="1698.5" y="-1314.07" font-family="Helvetica,sans-Serif" font-size="10.00">vecAssembleSwitch</text>
</g>
<!-- Node36 -->
<g id="node36" class="node">
<title>Node36</title>
<g id="a_node36"><a xlink:title=" ">
<polygon fill="white" stroke="#bfbfbf" points="1135,-1065.57 1135,-1084.57 1164,-1084.57 1164,-1065.57 1135,-1065.57"/>
<text text-anchor="middle" x="1149.5" y="-1072.57" font-family="Helvetica,sans-Serif" font-size="10.00">int</text>
</a>
</g>
</g>
<!-- Node36&#45;&gt;Node13 -->
<g id="edge44" class="edge">
<title>Node36&#45;&gt;Node13</title>
<path fill="none" stroke="#9a32cd" stroke-dasharray="5,2" d="M1174.15,-1069.03C1197.96,-1063.15 1235.81,-1054.35 1269,-1049.07 1297.67,-1044.51 1766.87,-1015.86 1789,-997.07 1812.5,-977.11 1784.71,-951.38 1807,-930.07 1814.18,-923.2 1823.26,-918.6 1832.81,-915.55"/>
<polygon fill="#9a32cd" stroke="#9a32cd" points="1173.12,-1065.68 1164.27,-1071.5 1174.82,-1072.47 1173.12,-1065.68"/>
<text text-anchor="middle" x="1506.5" y="-1073.07" font-family="Helvetica,sans-Serif" font-size="10.00"> sIze</text>
<text text-anchor="middle" x="1506.5" y="-1062.07" font-family="Helvetica,sans-Serif" font-size="10.00">loopSize</text>
<text text-anchor="middle" x="1506.5" y="-1051.07" font-family="Helvetica,sans-Serif" font-size="10.00">nInTheLoop</text>
<text text-anchor="middle" x="1506.5" y="-1040.07" font-family="Helvetica,sans-Serif" font-size="10.00">rAnk</text>
</g>
<!-- Node36&#45;&gt;Node38 -->
<g id="edge56" class="edge">
<title>Node36&#45;&gt;Node38</title>
<path fill="none" stroke="#9a32cd" stroke-dasharray="5,2" d="M1174.06,-1070.57C1229.97,-1060.44 1368.67,-1038.73 1405,-1065.07 1425.82,-1080.17 1412.92,-1096.41 1423,-1120.07 1447.37,-1177.28 1485.29,-1241.74 1499.69,-1265.56"/>
<polygon fill="#9a32cd" stroke="#9a32cd" points="1173.24,-1067.16 1164.04,-1072.42 1174.51,-1074.05 1173.24,-1067.16"/>
<text text-anchor="middle" x="1337" y="-1134.07" font-family="Helvetica,sans-Serif" font-size="10.00"> tagNameSize</text>
<text text-anchor="middle" x="1337" y="-1123.07" font-family="Helvetica,sans-Serif" font-size="10.00">nbDofsRow</text>
<text text-anchor="middle" x="1337" y="-1112.07" font-family="Helvetica,sans-Serif" font-size="10.00">nbLocDofsCol</text>
<text text-anchor="middle" x="1337" y="-1101.07" font-family="Helvetica,sans-Serif" font-size="10.00">nbDofsCol</text>
<text text-anchor="middle" x="1337" y="-1090.07" font-family="Helvetica,sans-Serif" font-size="10.00">nbGhostDofsRow</text>
<text text-anchor="middle" x="1337" y="-1079.07" font-family="Helvetica,sans-Serif" font-size="10.00">nbGhostDofsCol</text>
<text text-anchor="middle" x="1337" y="-1068.07" font-family="Helvetica,sans-Serif" font-size="10.00">nbLocDofsRow</text>
</g>
<!-- Node37 -->
<g id="node37" class="node">
<title>Node37</title>
<g id="a_node37"><a xlink:title=" ">
<polygon fill="white" stroke="#bfbfbf" points="1423,-1091.57 1423,-1110.57 1590,-1110.57 1590,-1091.57 1423,-1091.57"/>
<text text-anchor="middle" x="1506.5" y="-1098.57" font-family="Helvetica,sans-Serif" font-size="10.00">function&lt; MoFEMErrorCode()&gt;</text>
</a>
</g>
</g>
<!-- Node37&#45;&gt;Node13 -->
<g id="edge45" class="edge">
<title>Node37&#45;&gt;Node13</title>
<path fill="none" stroke="#9a32cd" stroke-dasharray="5,2" d="M1600.42,-1107.21C1662.46,-1105.96 1741.16,-1093.13 1789,-1043.07 1824.14,-1006.31 1772.12,-967.08 1807,-930.07 1813.92,-922.73 1822.99,-917.9 1832.64,-914.8"/>
<polygon fill="#9a32cd" stroke="#9a32cd" points="1600.19,-1103.72 1590.23,-1107.32 1600.26,-1110.71 1600.19,-1103.72"/>
<text text-anchor="middle" x="1698.5" y="-1132.07" font-family="Helvetica,sans-Serif" font-size="10.00"> preProcessHook</text>
<text text-anchor="middle" x="1698.5" y="-1121.07" font-family="Helvetica,sans-Serif" font-size="10.00">operatorHook</text>
<text text-anchor="middle" x="1698.5" y="-1110.07" font-family="Helvetica,sans-Serif" font-size="10.00">postProcessHook</text>
</g>
<!-- Node38&#45;&gt;Node13 -->
<g id="edge46" class="edge">
<title>Node38&#45;&gt;Node13</title>
<path fill="none" stroke="#9a32cd" stroke-dasharray="5,2" d="M1565.9,-1265.62C1631.97,-1251.58 1737.12,-1218.37 1789,-1144.07 1816.32,-1104.94 1775.58,-965.99 1807,-930.07 1813.74,-922.36 1822.85,-917.38 1832.62,-914.24"/>
<polygon fill="#9a32cd" stroke="#9a32cd" points="1565.14,-1262.21 1556.05,-1267.64 1566.54,-1269.07 1565.14,-1262.21"/>
<text text-anchor="middle" x="1698.5" y="-1258.07" font-family="Helvetica,sans-Serif" font-size="10.00"> problemPtr</text>
</g>
<!-- Node39 -->
<g id="node39" class="node">
<title>Node39</title>
<g id="a_node39"><a xlink:title=" ">
<polygon fill="white" stroke="#bfbfbf" points="1066,-1509.07 1066,-1539.07 1233,-1539.07 1233,-1509.07 1066,-1509.07"/>
<text text-anchor="start" x="1074" y="-1527.07" font-family="Helvetica,sans-Serif" font-size="10.00">shared_ptr&lt; NumeredEntFinite</text>
<text text-anchor="middle" x="1149.5" y="-1516.07" font-family="Helvetica,sans-Serif" font-size="10.00">Element_multiIndex &gt;</text>
</a>
</g>
</g>
<!-- Node39&#45;&gt;Node38 -->
<g id="edge47" class="edge">
<title>Node39&#45;&gt;Node38</title>
<path fill="none" stroke="#9a32cd" stroke-dasharray="5,2" d="M1243.18,-1511.57C1314.75,-1501.71 1402.11,-1489.12 1405,-1486.07 1434.46,-1454.95 1394.78,-1326.32 1423,-1294.07 1431.62,-1284.23 1444.21,-1278.93 1456.98,-1276.21"/>
<polygon fill="#9a32cd" stroke="#9a32cd" points="1242.63,-1508.11 1233.2,-1512.94 1243.58,-1515.05 1242.63,-1508.11"/>
<text text-anchor="middle" x="1337" y="-1510.07" font-family="Helvetica,sans-Serif" font-size="10.00"> numeredFiniteElementsPtr</text>
</g>
<!-- Node40 -->
<g id="node40" class="node">
<title>Node40</title>
<g id="a_node40"><a xlink:title=" ">
<polygon fill="white" stroke="#bfbfbf" points="1120,-1470.57 1120,-1489.57 1179,-1489.57 1179,-1470.57 1120,-1470.57"/>
<text text-anchor="middle" x="1149.5" y="-1477.57" font-family="Helvetica,sans-Serif" font-size="10.00">BitFEId *</text>
</a>
</g>
</g>
<!-- Node40&#45;&gt;Node38 -->
<g id="edge48" class="edge">
<title>Node40&#45;&gt;Node38</title>
<path fill="none" stroke="#9a32cd" stroke-dasharray="5,2" d="M1189.71,-1478.41C1257.32,-1475.16 1390.05,-1466.96 1405,-1452.07 1455.07,-1402.19 1375.92,-1346.79 1423,-1294.07 1431.62,-1284.42 1444.06,-1279.16 1456.67,-1276.41"/>
<polygon fill="#9a32cd" stroke="#9a32cd" points="1189.27,-1474.93 1179.45,-1478.89 1189.6,-1481.92 1189.27,-1474.93"/>
<text text-anchor="middle" x="1337" y="-1477.07" font-family="Helvetica,sans-Serif" font-size="10.00"> tagBitFEId</text>
</g>
<!-- Node41 -->
<g id="node41" class="node">
<title>Node41</title>
<g id="a_node41"><a xlink:href="classEntityHandle.html" target="_top" xlink:title=" ">
<polygon fill="white" stroke="black" points="1109.5,-1432.57 1109.5,-1451.57 1189.5,-1451.57 1189.5,-1432.57 1109.5,-1432.57"/>
<text text-anchor="middle" x="1149.5" y="-1439.57" font-family="Helvetica,sans-Serif" font-size="10.00">EntityHandle</text>
</a>
</g>
</g>
<!-- Node41&#45;&gt;Node38 -->
<g id="edge49" class="edge">
<title>Node41&#45;&gt;Node38</title>
<path fill="none" stroke="#9a32cd" stroke-dasharray="5,2" d="M1200.09,-1440.44C1269.95,-1437.65 1390.5,-1430.9 1405,-1417.07 1444.98,-1378.94 1385.55,-1334.69 1423,-1294.07 1431.77,-1284.56 1444.26,-1279.35 1456.87,-1276.59"/>
<polygon fill="#9a32cd" stroke="#9a32cd" points="1199.61,-1436.95 1189.75,-1440.83 1199.88,-1443.95 1199.61,-1436.95"/>
<text text-anchor="middle" x="1337" y="-1440.07" font-family="Helvetica,sans-Serif" font-size="10.00"> meshset</text>
</g>
<!-- Node42 -->
<g id="node42" class="node">
<title>Node42</title>
<g id="a_node42"><a xlink:title=" ">
<polygon fill="white" stroke="#bfbfbf" points="1075,-1383.07 1075,-1413.07 1224,-1413.07 1224,-1383.07 1075,-1383.07"/>
<text text-anchor="start" x="1083" y="-1401.07" font-family="Helvetica,sans-Serif" font-size="10.00">shared_ptr&lt; MoFEM::</text>
<text text-anchor="middle" x="1149.5" y="-1390.07" font-family="Helvetica,sans-Serif" font-size="10.00">ComposedProblemsData &gt;</text>
</a>
</g>
</g>
<!-- Node42&#45;&gt;Node38 -->
<g id="edge50" class="edge">
<title>Node42&#45;&gt;Node38</title>
<path fill="none" stroke="#9a32cd" stroke-dasharray="5,2" d="M1234.28,-1401.55C1298.52,-1402.36 1380.24,-1398.78 1405,-1377.07 1433.38,-1352.19 1396.48,-1320.93 1423,-1294.07 1431.98,-1284.97 1444.39,-1279.86 1456.85,-1277.08"/>
<polygon fill="#9a32cd" stroke="#9a32cd" points="1234.19,-1398.05 1224.13,-1401.38 1234.07,-1405.05 1234.19,-1398.05"/>
<text text-anchor="middle" x="1337" y="-1405.07" font-family="Helvetica,sans-Serif" font-size="10.00"> composedProblemsData</text>
</g>
<!-- Node43 -->
<g id="node43" class="node">
<title>Node43</title>
<g id="a_node43"><a xlink:title=" ">
<polygon fill="white" stroke="#bfbfbf" points="1109,-1344.57 1109,-1363.57 1190,-1363.57 1190,-1344.57 1109,-1344.57"/>
<text text-anchor="middle" x="1149.5" y="-1351.57" font-family="Helvetica,sans-Serif" font-size="10.00">BitRefLevel *</text>
</a>
</g>
</g>
<!-- Node43&#45;&gt;Node38 -->
<g id="edge51" class="edge">
<title>Node43&#45;&gt;Node38</title>
<path fill="none" stroke="#9a32cd" stroke-dasharray="5,2" d="M1200.54,-1353.88C1264.95,-1352.75 1372.46,-1347.57 1405,-1326.07 1418.61,-1317.07 1409.93,-1303.85 1423,-1294.07 1432.77,-1286.76 1444.87,-1282.2 1456.78,-1279.36"/>
<polygon fill="#9a32cd" stroke="#9a32cd" points="1200.15,-1350.39 1190.2,-1354.04 1200.25,-1357.39 1200.15,-1350.39"/>
<text text-anchor="middle" x="1337" y="-1365.07" font-family="Helvetica,sans-Serif" font-size="10.00"> tagBitRefLevelMask</text>
<text text-anchor="middle" x="1337" y="-1354.07" font-family="Helvetica,sans-Serif" font-size="10.00">tagBitRefLevel</text>
</g>
<!-- Node44 -->
<g id="node44" class="node">
<title>Node44</title>
<g id="a_node44"><a xlink:title=" ">
<polygon fill="white" stroke="#bfbfbf" points="1064.5,-1295.07 1064.5,-1325.07 1234.5,-1325.07 1234.5,-1295.07 1064.5,-1295.07"/>
<text text-anchor="start" x="1072.5" y="-1313.07" font-family="Helvetica,sans-Serif" font-size="10.00">shared_ptr&lt; NumeredDofEntity</text>
<text text-anchor="middle" x="1149.5" y="-1302.07" font-family="Helvetica,sans-Serif" font-size="10.00">_multiIndex &gt;</text>
</a>
</g>
</g>
<!-- Node44&#45;&gt;Node38 -->
<g id="edge52" class="edge">
<title>Node44&#45;&gt;Node38</title>
<path fill="none" stroke="#9a32cd" stroke-dasharray="5,2" d="M1244.6,-1302.22C1292.63,-1298.04 1351.97,-1292.63 1405,-1287.07 1421.95,-1285.29 1440.49,-1283.14 1456.97,-1281.15"/>
<polygon fill="#9a32cd" stroke="#9a32cd" points="1244.18,-1298.74 1234.52,-1303.09 1244.79,-1305.71 1244.18,-1298.74"/>
<text text-anchor="middle" x="1337" y="-1314.07" font-family="Helvetica,sans-Serif" font-size="10.00"> numeredRowDofsPtr</text>
<text text-anchor="middle" x="1337" y="-1303.07" font-family="Helvetica,sans-Serif" font-size="10.00">numeredColDofsPtr</text>
</g>
<!-- Node45 -->
<g id="node45" class="node">
<title>Node45</title>
<g id="a_node45"><a xlink:title=" ">
<polygon fill="white" stroke="#bfbfbf" points="1080.5,-1256.57 1080.5,-1275.57 1218.5,-1275.57 1218.5,-1256.57 1080.5,-1256.57"/>
<text text-anchor="middle" x="1149.5" y="-1263.57" font-family="Helvetica,sans-Serif" font-size="10.00">vector&lt; BlockFieldPair &gt;</text>
</a>
</g>
</g>
<!-- Node45&#45;&gt;Node38 -->
<g id="edge54" class="edge">
<title>Node45&#45;&gt;Node38</title>
<path fill="none" stroke="#9a32cd" stroke-dasharray="5,2" d="M1228.57,-1268.05C1298.2,-1269.82 1397.95,-1272.34 1456.8,-1273.84"/>
<polygon fill="#9a32cd" stroke="#9a32cd" points="1228.61,-1264.55 1218.53,-1267.8 1228.44,-1271.55 1228.61,-1264.55"/>
<text text-anchor="middle" x="1337" y="-1276.07" font-family="Helvetica,sans-Serif" font-size="10.00"> emptyFieldBlocks</text>
</g>
<!-- Node46 -->
<g id="node46" class="node">
<title>Node46</title>
<g id="a_node46"><a xlink:title=" ">
<polygon fill="white" stroke="#bfbfbf" points="1071.5,-1207.07 1071.5,-1237.07 1227.5,-1237.07 1227.5,-1207.07 1071.5,-1207.07"/>
<text text-anchor="start" x="1079.5" y="-1225.07" font-family="Helvetica,sans-Serif" font-size="10.00">shared_ptr&lt; MoFEM::</text>
<text text-anchor="middle" x="1149.5" y="-1214.07" font-family="Helvetica,sans-Serif" font-size="10.00">Problem::SubProblemData &gt;</text>
</a>
</g>
</g>
<!-- Node46&#45;&gt;Node38 -->
<g id="edge55" class="edge">
<title>Node46&#45;&gt;Node38</title>
<path fill="none" stroke="#9a32cd" stroke-dasharray="5,2" d="M1237.53,-1231.88C1286.79,-1237.8 1349.47,-1245.96 1405,-1255.07 1423.43,-1258.1 1443.65,-1262 1461.09,-1265.56"/>
<polygon fill="#9a32cd" stroke="#9a32cd" points="1237.89,-1228.4 1227.54,-1230.69 1237.06,-1235.35 1237.89,-1228.4"/>
<text text-anchor="middle" x="1337" y="-1258.07" font-family="Helvetica,sans-Serif" font-size="10.00"> subProblemData</text>
</g>
<!-- Node47 -->
<g id="node47" class="node">
<title>Node47</title>
<g id="a_node47"><a xlink:title=" ">
<polygon fill="white" stroke="#bfbfbf" points="1048,-1168.57 1048,-1187.57 1251,-1187.57 1251,-1168.57 1048,-1168.57"/>
<text text-anchor="middle" x="1149.5" y="-1175.57" font-family="Helvetica,sans-Serif" font-size="10.00">shared_ptr&lt; SequenceDofContainer &gt;</text>
</a>
</g>
</g>
<!-- Node47&#45;&gt;Node38 -->
<g id="edge57" class="edge">
<title>Node47&#45;&gt;Node38</title>
<path fill="none" stroke="#9a32cd" stroke-dasharray="5,2" d="M1261.29,-1181.89C1306.88,-1186.14 1359.54,-1194.58 1405,-1211.07 1440.39,-1223.91 1476.26,-1250.84 1494.03,-1265.34"/>
<polygon fill="#9a32cd" stroke="#9a32cd" points="1261.35,-1178.38 1251.08,-1180.99 1260.74,-1185.35 1261.35,-1178.38"/>
<text text-anchor="middle" x="1337" y="-1225.07" font-family="Helvetica,sans-Serif" font-size="10.00"> sequenceRowDofContainer</text>
<text text-anchor="middle" x="1337" y="-1214.07" font-family="Helvetica,sans-Serif" font-size="10.00">sequenceColDofContainer</text>
</g>
<!-- Node48 -->
<g id="node48" class="node">
<title>Node48</title>
<g id="a_node48"><a xlink:title=" ">
<polygon fill="white" stroke="#bfbfbf" points="1105.5,-1130.57 1105.5,-1149.57 1193.5,-1149.57 1193.5,-1130.57 1105.5,-1130.57"/>
<text text-anchor="middle" x="1149.5" y="-1137.57" font-family="Helvetica,sans-Serif" font-size="10.00">BitProblemId *</text>
</a>
</g>
</g>
<!-- Node48&#45;&gt;Node38 -->
<g id="edge58" class="edge">
<title>Node48&#45;&gt;Node38</title>
<path fill="none" stroke="#9a32cd" stroke-dasharray="5,2" d="M1204.02,-1141.63C1268.04,-1144.25 1370.86,-1151.02 1405,-1168.07 1450.83,-1190.96 1486.65,-1243.87 1499.92,-1265.55"/>
<polygon fill="#9a32cd" stroke="#9a32cd" points="1203.83,-1138.12 1193.71,-1141.23 1203.56,-1145.12 1203.83,-1138.12"/>
<text text-anchor="middle" x="1337" y="-1171.07" font-family="Helvetica,sans-Serif" font-size="10.00"> tagId</text>
</g>
<!-- Node49 -->
<g id="node49" class="node">
<title>Node49</title>
<g id="a_node49"><a xlink:title=" ">
<polygon fill="white" stroke="#bfbfbf" points="1813,-989.07 1813,-1019.07 1975,-1019.07 1975,-989.07 1813,-989.07"/>
<text text-anchor="start" x="1821" y="-1007.07" font-family="Helvetica,sans-Serif" font-size="10.00">shared_ptr&lt; const MoFEM</text>
<text text-anchor="middle" x="1894" y="-996.07" font-family="Helvetica,sans-Serif" font-size="10.00">::NumeredEntFiniteElement &gt;</text>
</a>
</g>
</g>
<!-- Node49&#45;&gt;Node12 -->
<g id="edge59" class="edge">
<title>Node49&#45;&gt;Node12</title>
<path fill="none" stroke="#9a32cd" stroke-dasharray="5,2" d="M1985.34,-1003.66C2038.73,-998.42 2103.43,-982.49 2143,-939.07 2176.07,-902.78 2126.64,-865.14 2161,-830.07 2173.79,-817.01 2192.48,-811.32 2210.37,-809.21"/>
<polygon fill="#9a32cd" stroke="#9a32cd" points="1984.83,-1000.19 1975.17,-1004.54 1985.44,-1007.16 1984.83,-1000.19"/>
<text text-anchor="middle" x="2071" y="-1005.07" font-family="Helvetica,sans-Serif" font-size="10.00"> numeredEntFiniteElementPtr</text>
</g>
<!-- Node50 -->
<g id="node50" class="node">
<title>Node50</title>
<g id="a_node50"><a xlink:title=" ">
<polygon fill="white" stroke="#bfbfbf" points="1872,-801.57 1872,-820.57 1916,-820.57 1916,-801.57 1872,-801.57"/>
<text text-anchor="middle" x="1894" y="-808.57" font-family="Helvetica,sans-Serif" font-size="10.00">string</text>
</a>
</g>
</g>
<!-- Node50&#45;&gt;Node3 -->
<g id="edge82" class="edge">
<title>Node50&#45;&gt;Node3</title>
<path fill="none" stroke="#9a32cd" stroke-dasharray="5,2" d="M1914.84,-795.07C1957.09,-762.06 2060.33,-686.91 2161,-656.07 2243.08,-630.93 2468.67,-605.95 2547,-641.07 2919.06,-807.89 2930.07,-1445.59 2929.25,-1552.75"/>
<polygon fill="#9a32cd" stroke="#9a32cd" points="1912.45,-792.5 1906.77,-801.45 1916.79,-797.99 1912.45,-792.5"/>
<text text-anchor="middle" x="2466" y="-655.07" font-family="Helvetica,sans-Serif" font-size="10.00"> colFieldName</text>
<text text-anchor="middle" x="2466" y="-644.07" font-family="Helvetica,sans-Serif" font-size="10.00">rowFieldName</text>
</g>
<!-- Node50&#45;&gt;Node12 -->
<g id="edge60" class="edge">
<title>Node50&#45;&gt;Node12</title>
<path fill="none" stroke="#9a32cd" stroke-dasharray="5,2" d="M1926.23,-811.07C1989.34,-811.07 2132.69,-811.07 2210.46,-811.07"/>
<polygon fill="#9a32cd" stroke="#9a32cd" points="1926.11,-807.57 1916.11,-811.07 1926.11,-814.57 1926.11,-807.57"/>
<text text-anchor="middle" x="2071" y="-814.07" font-family="Helvetica,sans-Serif" font-size="10.00"> feName</text>
</g>
<!-- Node51 -->
<g id="node51" class="node">
<title>Node51</title>
<g id="a_node51"><a xlink:title=" ">
<polygon fill="white" stroke="#bfbfbf" points="1812.5,-940.07 1812.5,-970.07 1975.5,-970.07 1975.5,-940.07 1812.5,-940.07"/>
<text text-anchor="start" x="1820.5" y="-958.07" font-family="Helvetica,sans-Serif" font-size="10.00">function&lt; bool(MoFEM</text>
<text text-anchor="middle" x="1894" y="-947.07" font-family="Helvetica,sans-Serif" font-size="10.00">::FEMethod *fe_method_ptr)&gt;</text>
</a>
</g>
</g>
<!-- Node51&#45;&gt;Node12 -->
<g id="edge61" class="edge">
<title>Node51&#45;&gt;Node12</title>
<path fill="none" stroke="#9a32cd" stroke-dasharray="5,2" d="M1958.46,-937.18C1966.08,-934.87 1973.73,-932.47 1981,-930.07 2053.91,-906.01 2086.89,-922.48 2143,-870.07 2157.25,-856.76 2145.67,-842.12 2161,-830.07 2174.88,-819.16 2193.08,-813.82 2210.26,-811.38"/>
<polygon fill="#9a32cd" stroke="#9a32cd" points="1957.43,-933.84 1948.86,-940.06 1959.44,-940.54 1957.43,-933.84"/>
<text text-anchor="middle" x="2071" y="-927.07" font-family="Helvetica,sans-Serif" font-size="10.00"> exeTestHook</text>
</g>
<!-- Node52 -->
<g id="node52" class="node">
<title>Node52</title>
<g id="a_node52"><a xlink:href="classdouble.html" target="_top" xlink:title=" ">
<polygon fill="white" stroke="black" points="788,-220.57 788,-239.57 838,-239.57 838,-220.57 788,-220.57"/>
<text text-anchor="middle" x="813" y="-227.57" font-family="Helvetica,sans-Serif" font-size="10.00">double</text>
</a>
</g>
</g>
<!-- Node52&#45;&gt;Node11 -->
<g id="edge62" class="edge">
<title>Node52&#45;&gt;Node11</title>
<path fill="none" stroke="#9a32cd" stroke-dasharray="5,2" d="M848.19,-236.43C866.23,-239.63 888.76,-243.39 909,-246.07 1060.39,-266.1 1099.12,-263.23 1251,-279.07 1401.79,-294.8 1439.78,-296.59 1590,-317.07 1678.76,-329.17 1728.42,-283.08 1789,-349.07 1825.62,-388.96 1771.06,-551.57 1807,-592.07 1859.3,-651 1906.41,-600.66 1981,-626.07 2065.67,-654.91 2075.86,-688.66 2161,-716.07 2326.39,-769.32 2390.49,-702.61 2547,-778.07 2589.31,-798.47 2626.62,-842.15 2641.79,-861.5"/>
<polygon fill="#9a32cd" stroke="#9a32cd" points="848.6,-232.95 838.14,-234.62 847.36,-239.84 848.6,-232.95"/>
<text text-anchor="middle" x="1698.5" y="-352.07" font-family="Helvetica,sans-Serif" font-size="10.00"> elementMeasure</text>
</g>
<!-- Node52&#45;&gt;Node70 -->
<g id="edge85" class="edge">
<title>Node52&#45;&gt;Node70</title>
<path fill="none" stroke="#9a32cd" stroke-dasharray="5,2" d="M847.59,-217.19C865.52,-210.99 888.14,-204.23 909,-201.07 960.7,-193.25 1019.4,-192.87 1065.74,-194.51"/>
<polygon fill="#9a32cd" stroke="#9a32cd" points="846.4,-213.9 838.15,-220.55 848.74,-220.5 846.4,-213.9"/>
<text text-anchor="middle" x="969.5" y="-204.07" font-family="Helvetica,sans-Serif" font-size="10.00"> lAmbda</text>
</g>
<!-- Node53 -->
<g id="node53" class="node">
<title>Node53</title>
<g id="a_node53"><a xlink:title=" ">
<polygon fill="white" stroke="#bfbfbf" points="2178,-665.57 2178,-706.57 2350,-706.57 2350,-665.57 2178,-665.57"/>
<text text-anchor="start" x="2186" y="-694.57" font-family="Helvetica,sans-Serif" font-size="10.00">array&lt; boost::shared</text>
<text text-anchor="start" x="2186" y="-683.57" font-family="Helvetica,sans-Serif" font-size="10.00">_ptr&lt; MoFEM::EntitiesFieldData</text>
<text text-anchor="middle" x="2264" y="-672.57" font-family="Helvetica,sans-Serif" font-size="10.00"> &gt;, LASTSPACE &gt;</text>
</a>
</g>
</g>
<!-- Node53&#45;&gt;Node11 -->
<g id="edge63" class="edge">
<title>Node53&#45;&gt;Node11</title>
<path fill="none" stroke="#9a32cd" stroke-dasharray="5,2" d="M2360.57,-668.8C2418.48,-663.36 2491.61,-665.81 2547,-699.07 2610.39,-737.14 2638.91,-830.93 2646.7,-861.36"/>
<polygon fill="#9a32cd" stroke="#9a32cd" points="2359.9,-665.35 2350.32,-669.86 2360.62,-672.32 2359.9,-665.35"/>
<text text-anchor="middle" x="2466" y="-713.07" font-family="Helvetica,sans-Serif" font-size="10.00"> derivedDataOnElement</text>
<text text-anchor="middle" x="2466" y="-702.07" font-family="Helvetica,sans-Serif" font-size="10.00">dataOnElement</text>
</g>
<!-- Node54 -->
<g id="node54" class="node">
<title>Node54</title>
<g id="a_node54"><a xlink:title=" ">
<polygon fill="white" stroke="#bfbfbf" points="2230,-1108.57 2230,-1127.57 2298,-1127.57 2298,-1108.57 2230,-1108.57"/>
<text text-anchor="middle" x="2264" y="-1115.57" font-family="Helvetica,sans-Serif" font-size="10.00">EntityType</text>
</a>
</g>
</g>
<!-- Node54&#45;&gt;Node11 -->
<g id="edge64" class="edge">
<title>Node54&#45;&gt;Node11</title>
<path fill="none" stroke="#9a32cd" stroke-dasharray="5,2" d="M2308.39,-1123.23C2368.02,-1127.94 2475.99,-1127.68 2547,-1076.07 2616.46,-1025.59 2641.32,-914.35 2647.39,-880.82"/>
<polygon fill="#9a32cd" stroke="#9a32cd" points="2308.45,-1119.72 2298.19,-1122.33 2307.84,-1126.69 2308.45,-1119.72"/>
<text text-anchor="middle" x="2466" y="-1128.07" font-family="Helvetica,sans-Serif" font-size="10.00"> lastEvaluatedElementEntityType</text>
</g>
<!-- Node55 -->
<g id="node55" class="node">
<title>Node55</title>
<g id="a_node55"><a xlink:href="structMoFEM_1_1DeprecatedCoreInterface.html" target="_top" xlink:title="Deprecated interface functions.">
<polygon fill="white" stroke="black" points="1608,-369.57 1608,-388.57 1789,-388.57 1789,-369.57 1608,-369.57"/>
<text text-anchor="middle" x="1698.5" y="-376.57" font-family="Helvetica,sans-Serif" font-size="10.00">MoFEM::DeprecatedCoreInterface</text>
</a>
</g>
</g>
<!-- Node55&#45;&gt;Node11 -->
<g id="edge65" class="edge">
<title>Node55&#45;&gt;Node11</title>
<path fill="none" stroke="#9a32cd" stroke-dasharray="5,2" d="M1718.61,-395.49C1739.71,-414.83 1772.81,-449.05 1789,-486.07 1814.13,-543.55 1767.45,-577.37 1807,-626.07 2021.07,-889.65 2226.12,-705.01 2547,-816.07 2580.27,-827.59 2615.72,-849.06 2634.82,-861.49"/>
<polygon fill="#9a32cd" stroke="#9a32cd" points="1720.7,-392.66 1710.91,-388.6 1716.03,-397.88 1720.7,-392.66"/>
<text text-anchor="middle" x="2071" y="-782.07" font-family="Helvetica,sans-Serif" font-size="10.00"> mField</text>
</g>
<!-- Node56&#45;&gt;Node55 -->
<g id="edge66" class="edge">
<title>Node56&#45;&gt;Node55</title>
<path fill="none" stroke="midnightblue" d="M1222.5,-301.13C1273.62,-303.94 1343.77,-309.07 1405,-318.07 1496.34,-331.5 1517.53,-343.68 1608,-362.07 1620.24,-364.56 1633.45,-367.13 1645.87,-369.5"/>
<polygon fill="midnightblue" stroke="midnightblue" points="1222.39,-297.62 1212.21,-300.59 1222.01,-304.61 1222.39,-297.62"/>
</g>
<!-- Node57 -->
<g id="node57" class="node">
<title>Node57</title>
<g id="a_node57"><a xlink:title=" ">
<polygon fill="white" stroke="#bfbfbf" points="2180.5,-1037.07 2180.5,-1089.07 2347.5,-1089.07 2347.5,-1037.07 2180.5,-1037.07"/>
<text text-anchor="start" x="2188.5" y="-1077.07" font-family="Helvetica,sans-Serif" font-size="10.00">function&lt; MoFEMErrorCode</text>
<text text-anchor="start" x="2188.5" y="-1066.07" font-family="Helvetica,sans-Serif" font-size="10.00">(ForcesAndSourcesCore *fe</text>
<text text-anchor="start" x="2188.5" y="-1055.07" font-family="Helvetica,sans-Serif" font-size="10.00">_raw_ptr, int order_row,</text>
<text text-anchor="middle" x="2264" y="-1044.07" font-family="Helvetica,sans-Serif" font-size="10.00"> int order_col, int order_data)&gt;</text>
</a>
</g>
</g>
<!-- Node57&#45;&gt;Node11 -->
<g id="edge69" class="edge">
<title>Node57&#45;&gt;Node11</title>
<path fill="none" stroke="#9a32cd" stroke-dasharray="5,2" d="M2357.99,-1063.08C2416.23,-1059.13 2490.66,-1046.53 2547,-1011.07 2599.68,-977.91 2633.86,-906.84 2645.01,-880.85"/>
<polygon fill="#9a32cd" stroke="#9a32cd" points="2357.45,-1059.61 2347.68,-1063.7 2357.87,-1066.6 2357.45,-1059.61"/>
<text text-anchor="middle" x="2466" y="-1064.07" font-family="Helvetica,sans-Serif" font-size="10.00"> setRuleHook</text>
</g>
<!-- Node58 -->
<g id="node58" class="node">
<title>Node58</title>
<g id="a_node58"><a xlink:title=" ">
<polygon fill="white" stroke="#bfbfbf" points="2163,-988.07 2163,-1018.07 2365,-1018.07 2365,-988.07 2163,-988.07"/>
<text text-anchor="start" x="2171" y="-1006.07" font-family="Helvetica,sans-Serif" font-size="10.00">ptr_deque&lt; MoFEM::Forces</text>
<text text-anchor="middle" x="2264" y="-995.07" font-family="Helvetica,sans-Serif" font-size="10.00">AndSourcesCore::UserDataOperator &gt;</text>
</a>
</g>
</g>
<!-- Node58&#45;&gt;Node11 -->
<g id="edge70" class="edge">
<title>Node58&#45;&gt;Node11</title>
<path fill="none" stroke="#9a32cd" stroke-dasharray="5,2" d="M2375.52,-997.56C2429.22,-991.61 2493.54,-979.51 2547,-955.07 2587.06,-936.76 2624.4,-898.66 2640.57,-880.76"/>
<polygon fill="#9a32cd" stroke="#9a32cd" points="2374.86,-994.11 2365.28,-998.63 2375.59,-1001.07 2374.86,-994.11"/>
<text text-anchor="middle" x="2466" y="-999.07" font-family="Helvetica,sans-Serif" font-size="10.00"> opPtrVector</text>
</g>
<!-- Node59 -->
<g id="node59" class="node">
<title>Node59</title>
<g id="a_node59"><a xlink:href="structMoFEM_1_1EntitiesFieldData.html" target="_top" xlink:title="data structure for finite element entity">
<polygon fill="white" stroke="black" points="2193,-448.57 2193,-467.57 2335,-467.57 2335,-448.57 2193,-448.57"/>
<text text-anchor="middle" x="2264" y="-455.57" font-family="Helvetica,sans-Serif" font-size="10.00">MoFEM::EntitiesFieldData</text>
</a>
</g>
</g>
<!-- Node59&#45;&gt;Node11 -->
<g id="edge71" class="edge">
<title>Node59&#45;&gt;Node11</title>
<path fill="none" stroke="#9a32cd" stroke-dasharray="5,2" d="M2345.08,-467.78C2407.93,-479.46 2493.49,-504.92 2547,-560.07 2635.24,-651.01 2647.15,-819.5 2648.75,-861.43"/>
<polygon fill="#9a32cd" stroke="#9a32cd" points="2345.65,-464.33 2335.19,-466.02 2344.43,-471.22 2345.65,-464.33"/>
<text text-anchor="middle" x="2466" y="-607.07" font-family="Helvetica,sans-Serif" font-size="10.00"> dataNoField</text>
<text text-anchor="middle" x="2466" y="-596.07" font-family="Helvetica,sans-Serif" font-size="10.00">dataL2</text>
<text text-anchor="middle" x="2466" y="-585.07" font-family="Helvetica,sans-Serif" font-size="10.00">dataH1</text>
<text text-anchor="middle" x="2466" y="-574.07" font-family="Helvetica,sans-Serif" font-size="10.00">dataHcurl</text>
<text text-anchor="middle" x="2466" y="-563.07" font-family="Helvetica,sans-Serif" font-size="10.00">dataHdiv</text>
</g>
<!-- Node60 -->
<g id="node60" class="node">
<title>Node60</title>
<g id="a_node60"><a xlink:title=" ">
<polygon fill="white" stroke="#bfbfbf" points="1813,-553.07 1813,-583.07 1975,-583.07 1975,-553.07 1813,-553.07"/>
<text text-anchor="start" x="1821" y="-571.07" font-family="Helvetica,sans-Serif" font-size="10.00">array&lt; std::bitset</text>
<text text-anchor="middle" x="1894" y="-560.07" font-family="Helvetica,sans-Serif" font-size="10.00">&lt; LASTBASE &gt;, LASTSPACE &gt;</text>
</a>
</g>
</g>
<!-- Node60&#45;&gt;Node59 -->
<g id="edge72" class="edge">
<title>Node60&#45;&gt;Node59</title>
<path fill="none" stroke="#9a32cd" stroke-dasharray="5,2" d="M1985.11,-552.25C2032.69,-542.77 2091.7,-529.21 2143,-512.07 2180.27,-499.62 2221.63,-479.52 2244.76,-467.67"/>
<polygon fill="#9a32cd" stroke="#9a32cd" points="1984.27,-548.85 1975.13,-554.22 1985.62,-555.72 1984.27,-548.85"/>
<text text-anchor="middle" x="2071" y="-563.07" font-family="Helvetica,sans-Serif" font-size="10.00"> brokenBasesOnSpaces</text>
<text text-anchor="middle" x="2071" y="-552.07" font-family="Helvetica,sans-Serif" font-size="10.00">basesOnSpaces</text>
</g>
<!-- Node61 -->
<g id="node61" class="node">
<title>Node61</title>
<g id="a_node61"><a xlink:title=" ">
<polygon fill="white" stroke="#bfbfbf" points="1817.5,-492.57 1817.5,-533.57 1970.5,-533.57 1970.5,-492.57 1817.5,-492.57"/>
<text text-anchor="start" x="1825.5" y="-521.57" font-family="Helvetica,sans-Serif" font-size="10.00">array&lt; boost::ptr_vector</text>
<text text-anchor="start" x="1825.5" y="-510.57" font-family="Helvetica,sans-Serif" font-size="10.00">&lt; MoFEM::EntitiesFieldData</text>
<text text-anchor="middle" x="1894" y="-499.57" font-family="Helvetica,sans-Serif" font-size="10.00">::EntData &gt;, MBMAXTYPE &gt;</text>
</a>
</g>
</g>
<!-- Node61&#45;&gt;Node59 -->
<g id="edge73" class="edge">
<title>Node61&#45;&gt;Node59</title>
<path fill="none" stroke="#9a32cd" stroke-dasharray="5,2" d="M1980.89,-500.23C2047.68,-490.25 2138.84,-476.63 2199.25,-467.6"/>
<polygon fill="#9a32cd" stroke="#9a32cd" points="1980.18,-496.8 1970.8,-501.74 1981.21,-503.72 1980.18,-496.8"/>
<text text-anchor="middle" x="2071" y="-500.07" font-family="Helvetica,sans-Serif" font-size="10.00"> dataOnEntities</text>
</g>
<!-- Node62 -->
<g id="node62" class="node">
<title>Node62</title>
<g id="a_node62"><a xlink:title=" ">
<polygon fill="white" stroke="#bfbfbf" points="1807,-443.07 1807,-473.07 1981,-473.07 1981,-443.07 1807,-443.07"/>
<text text-anchor="start" x="1815" y="-461.07" font-family="Helvetica,sans-Serif" font-size="10.00">array&lt; std::bitset</text>
<text text-anchor="middle" x="1894" y="-450.07" font-family="Helvetica,sans-Serif" font-size="10.00">&lt; LASTSPACE &gt;, MBMAXTYPE &gt;</text>
</a>
</g>
</g>
<!-- Node62&#45;&gt;Node59 -->
<g id="edge74" class="edge">
<title>Node62&#45;&gt;Node59</title>
<path fill="none" stroke="#9a32cd" stroke-dasharray="5,2" d="M1991.66,-458.07C2054.86,-458.07 2135.96,-458.07 2192.97,-458.07"/>
<polygon fill="#9a32cd" stroke="#9a32cd" points="1991.28,-454.57 1981.28,-458.07 1991.28,-461.57 1991.28,-454.57"/>
<text text-anchor="middle" x="2071" y="-461.07" font-family="Helvetica,sans-Serif" font-size="10.00"> spacesOnEntities</text>
</g>
<!-- Node63 -->
<g id="node63" class="node">
<title>Node63</title>
<g id="a_node63"><a xlink:title=" ">
<polygon fill="white" stroke="#bfbfbf" points="1809.5,-394.07 1809.5,-424.07 1978.5,-424.07 1978.5,-394.07 1809.5,-394.07"/>
<text text-anchor="start" x="1817.5" y="-412.07" font-family="Helvetica,sans-Serif" font-size="10.00">array&lt; std::bitset</text>
<text text-anchor="middle" x="1894" y="-401.07" font-family="Helvetica,sans-Serif" font-size="10.00">&lt; LASTBASE &gt;, MBMAXTYPE &gt;</text>
</a>
</g>
</g>
<!-- Node63&#45;&gt;Node59 -->
<g id="edge75" class="edge">
<title>Node63&#45;&gt;Node59</title>
<path fill="none" stroke="#9a32cd" stroke-dasharray="5,2" d="M1988.54,-421.53C2052.11,-429.99 2134.86,-441.01 2192.81,-448.72"/>
<polygon fill="#9a32cd" stroke="#9a32cd" points="1988.88,-418.04 1978.5,-420.19 1987.96,-424.98 1988.88,-418.04"/>
<text text-anchor="middle" x="2071" y="-444.07" font-family="Helvetica,sans-Serif" font-size="10.00"> basesOnEntities</text>
</g>
<!-- Node64 -->
<g id="node64" class="node">
<title>Node64</title>
<g id="a_node64"><a xlink:title=" ">
<polygon fill="white" stroke="#bfbfbf" points="1838,-355.57 1838,-374.57 1950,-374.57 1950,-355.57 1838,-355.57"/>
<text text-anchor="middle" x="1894" y="-362.57" font-family="Helvetica,sans-Serif" font-size="10.00">UBlasMatrix&lt; int &gt;</text>
</a>
</g>
</g>
<!-- Node64&#45;&gt;Node59 -->
<g id="edge76" class="edge">
<title>Node64&#45;&gt;Node59</title>
<path fill="none" stroke="#9a32cd" stroke-dasharray="5,2" d="M1960.48,-367.87C2011.22,-371.45 2082.79,-379.58 2143,-398.07 2182.86,-410.31 2225.64,-434.77 2247.78,-448.37"/>
<polygon fill="#9a32cd" stroke="#9a32cd" points="1960.5,-364.37 1950.29,-367.2 1960.04,-371.35 1960.5,-364.37"/>
<text text-anchor="middle" x="2071" y="-412.07" font-family="Helvetica,sans-Serif" font-size="10.00"> facesNodesOrder</text>
<text text-anchor="middle" x="2071" y="-401.07" font-family="Helvetica,sans-Serif" font-size="10.00">facesNodes</text>
</g>
<!-- Node65 -->
<g id="node65" class="node">
<title>Node65</title>
<g id="a_node65"><a xlink:title=" ">
<polygon fill="white" stroke="#bfbfbf" points="1835.5,-317.57 1835.5,-336.57 1952.5,-336.57 1952.5,-317.57 1835.5,-317.57"/>
<text text-anchor="middle" x="1894" y="-324.57" font-family="Helvetica,sans-Serif" font-size="10.00">bitset&lt; LASTBASE &gt;</text>
</a>
</g>
</g>
<!-- Node65&#45;&gt;Node59 -->
<g id="edge77" class="edge">
<title>Node65&#45;&gt;Node59</title>
<path fill="none" stroke="#9a32cd" stroke-dasharray="5,2" d="M1962.58,-324.97C2014.04,-325.76 2085.58,-332.11 2143,-357.07 2192.7,-378.67 2237.64,-427.72 2255.19,-448.49"/>
<polygon fill="#9a32cd" stroke="#9a32cd" points="1962.6,-321.47 1952.57,-324.88 1962.53,-328.47 1962.6,-321.47"/>
<text text-anchor="middle" x="2071" y="-360.07" font-family="Helvetica,sans-Serif" font-size="10.00"> bAse</text>
</g>
<!-- Node66 -->
<g id="node66" class="node">
<title>Node66</title>
<g id="a_node66"><a xlink:title=" ">
<polygon fill="white" stroke="#bfbfbf" points="2201.5,-927.57 2201.5,-968.57 2326.5,-968.57 2326.5,-927.57 2201.5,-927.57"/>
<text text-anchor="start" x="2209.5" y="-956.57" font-family="Helvetica,sans-Serif" font-size="10.00">function&lt; int(int order</text>
<text text-anchor="start" x="2209.5" y="-945.57" font-family="Helvetica,sans-Serif" font-size="10.00">_row, int order_col, int</text>
<text text-anchor="middle" x="2264" y="-934.57" font-family="Helvetica,sans-Serif" font-size="10.00"> order_data)&gt;</text>
</a>
</g>
</g>
<!-- Node66&#45;&gt;Node11 -->
<g id="edge78" class="edge">
<title>Node66&#45;&gt;Node11</title>
<path fill="none" stroke="#9a32cd" stroke-dasharray="5,2" d="M2336.73,-943.98C2394.31,-939.49 2476.82,-930.33 2547,-912.07 2576.74,-904.33 2609.41,-890.11 2629.57,-880.62"/>
<polygon fill="#9a32cd" stroke="#9a32cd" points="2336.35,-940.5 2326.64,-944.74 2336.87,-947.48 2336.35,-940.5"/>
<text text-anchor="middle" x="2466" y="-943.07" font-family="Helvetica,sans-Serif" font-size="10.00"> getRuleHook</text>
</g>
<!-- Node67 -->
<g id="node67" class="node">
<title>Node67</title>
<g id="a_node67"><a xlink:title=" ">
<polygon fill="white" stroke="#bfbfbf" points="2203,-878.07 2203,-908.07 2325,-908.07 2325,-878.07 2203,-878.07"/>
<text text-anchor="start" x="2211" y="-896.07" font-family="Helvetica,sans-Serif" font-size="10.00">shared_ptr&lt; MoFEM::</text>
<text text-anchor="middle" x="2264" y="-885.07" font-family="Helvetica,sans-Serif" font-size="10.00">BaseFunction &gt;</text>
</a>
</g>
</g>
<!-- Node67&#45;&gt;Node11 -->
<g id="edge79" class="edge">
<title>Node67&#45;&gt;Node11</title>
<path fill="none" stroke="#9a32cd" stroke-dasharray="5,2" d="M2335.52,-889.03C2400.17,-885.33 2496.01,-879.84 2564.68,-875.9"/>
<polygon fill="#9a32cd" stroke="#9a32cd" points="2335.21,-885.54 2325.42,-889.61 2335.61,-892.53 2335.21,-885.54"/>
<text text-anchor="middle" x="2466" y="-900.07" font-family="Helvetica,sans-Serif" font-size="10.00"> userPolynomialBasePtr</text>
<text text-anchor="middle" x="2466" y="-889.07" font-family="Helvetica,sans-Serif" font-size="10.00">elementPolynomialBasePtr</text>
</g>
<!-- Node68 -->
<g id="node68" class="node">
<title>Node68</title>
<g id="a_node68"><a xlink:href="classUBlasMatrix_3_01double_01_4.html" target="_top" xlink:title=" ">
<polygon fill="white" stroke="black" points="2198,-839.57 2198,-858.57 2330,-858.57 2330,-839.57 2198,-839.57"/>
<text text-anchor="middle" x="2264" y="-846.57" font-family="Helvetica,sans-Serif" font-size="10.00">UBlasMatrix&lt; double &gt;</text>
</a>
</g>
</g>
<!-- Node68&#45;&gt;Node11 -->
<g id="edge80" class="edge">
<title>Node68&#45;&gt;Node11</title>
<path fill="none" stroke="#9a32cd" stroke-dasharray="5,2" d="M2340.15,-845.81C2397.08,-844.26 2477.15,-844.04 2547,-851.07 2567.83,-853.17 2590.72,-857.47 2609.54,-861.55"/>
<polygon fill="#9a32cd" stroke="#9a32cd" points="2340.04,-842.31 2330.15,-846.1 2340.25,-849.31 2340.04,-842.31"/>
<text text-anchor="middle" x="2466" y="-865.07" font-family="Helvetica,sans-Serif" font-size="10.00"> coordsAtGaussPts</text>
<text text-anchor="middle" x="2466" y="-854.07" font-family="Helvetica,sans-Serif" font-size="10.00">gaussPts</text>
</g>
<!-- Node69 -->
<g id="node69" class="node">
<title>Node69</title>
<g id="a_node69"><a xlink:title=" ">
<polygon fill="white" stroke="#bfbfbf" points="2584.5,-1703.57 2584.5,-1722.57 2715.5,-1722.57 2715.5,-1703.57 2584.5,-1703.57"/>
<text text-anchor="middle" x="2650" y="-1710.57" font-family="Helvetica,sans-Serif" font-size="10.00">static const char *const</text>
</a>
</g>
</g>
<!-- Node69&#45;&gt;Node3 -->
<g id="edge81" class="edge">
<title>Node69&#45;&gt;Node3</title>
<path fill="none" stroke="#9a32cd" stroke-dasharray="5,2" d="M2715.77,-1700.83C2722.37,-1698.87 2728.88,-1696.63 2735,-1694.07 2805.21,-1664.69 2877.78,-1609.77 2910.74,-1583.21"/>
<polygon fill="#9a32cd" stroke="#9a32cd" points="2714.8,-1697.47 2706.09,-1703.5 2716.66,-1704.22 2714.8,-1697.47"/>
<text text-anchor="middle" x="2790" y="-1686.07" font-family="Helvetica,sans-Serif" font-size="10.00"> OpTypeNames</text>
</g>
<!-- Node70&#45;&gt;Node1 -->
<g id="edge83" class="edge">
<title>Node70&#45;&gt;Node1</title>
<path fill="none" stroke="#9a32cd" stroke-dasharray="5,2" d="M1243.66,-204.94C1315.25,-208.27 1416.6,-212.07 1505.5,-212.07 1505.5,-212.07 1505.5,-212.07 3148.5,-212.07 3192.1,-212.07 3240.88,-214.86 3279.69,-217.75"/>
<polygon fill="#9a32cd" stroke="#9a32cd" points="1243.47,-201.43 1233.32,-204.45 1243.15,-208.42 1243.47,-201.43"/>
<text text-anchor="middle" x="2466" y="-215.07" font-family="Helvetica,sans-Serif" font-size="10.00"> commonData</text>
</g>
<!-- Node71 -->
<g id="node71" class="node">
<title>Node71</title>
<g id="a_node71"><a xlink:title=" ">
<polygon fill="white" stroke="#bfbfbf" points="771.5,-0.57 771.5,-19.57 854.5,-19.57 854.5,-0.57 771.5,-0.57"/>
<text text-anchor="middle" x="813" y="-7.57" font-family="Helvetica,sans-Serif" font-size="10.00">MatrixDouble</text>
</a>
</g>
</g>
<!-- Node71&#45;&gt;Node70 -->
<g id="edge84" class="edge">
<title>Node71&#45;&gt;Node70</title>
<path fill="none" stroke="#9a32cd" stroke-dasharray="5,2" d="M864.95,-2.27C911.17,2.2 979.6,2.08 1030,-27.07 1097.12,-65.89 1134.58,-159.88 1145.27,-190.35"/>
<polygon fill="#9a32cd" stroke="#9a32cd" points="864.43,1.19 854.86,-3.35 865.18,-5.77 864.43,1.19"/>
<text text-anchor="middle" x="969.5" y="-74.07" font-family="Helvetica,sans-Serif" font-size="10.00"> gradForceAtGaussPtrs</text>
<text text-anchor="middle" x="969.5" y="-63.07" font-family="Helvetica,sans-Serif" font-size="10.00">locA</text>
<text text-anchor="middle" x="969.5" y="-52.07" font-family="Helvetica,sans-Serif" font-size="10.00">transLocA</text>
<text text-anchor="middle" x="969.5" y="-41.07" font-family="Helvetica,sans-Serif" font-size="10.00">invJac</text>
<text text-anchor="middle" x="969.5" y="-30.07" font-family="Helvetica,sans-Serif" font-size="10.00">forceAtGaussPts</text>
</g>
<!-- Node72 -->
<g id="node72" class="node">
<title>Node72</title>
<g id="a_node72"><a xlink:title=" ">
<polygon fill="white" stroke="#bfbfbf" points="735,-145.57 735,-164.57 891,-164.57 891,-145.57 735,-145.57"/>
<text text-anchor="middle" x="813" y="-152.57" font-family="Helvetica,sans-Serif" font-size="10.00">shared_ptr&lt; VectorDouble &gt;</text>
</a>
</g>
</g>
<!-- Node72&#45;&gt;Node70 -->
<g id="edge86" class="edge">
<title>Node72&#45;&gt;Node70</title>
<path fill="none" stroke="#9a32cd" stroke-dasharray="5,2" d="M901.28,-156.29C940.79,-157.87 987.96,-161.2 1030,-168.07 1061.13,-173.16 1095.87,-183.06 1119.64,-190.5"/>
<polygon fill="#9a32cd" stroke="#9a32cd" points="901.27,-152.78 891.15,-155.91 901.01,-159.78 901.27,-152.78"/>
<text text-anchor="middle" x="969.5" y="-182.07" font-family="Helvetica,sans-Serif" font-size="10.00"> dispX</text>
<text text-anchor="middle" x="969.5" y="-171.07" font-family="Helvetica,sans-Serif" font-size="10.00">dispY</text>
</g>
<!-- Node73 -->
<g id="node73" class="node">
<title>Node73</title>
<g id="a_node73"><a xlink:title=" ">
<polygon fill="white" stroke="#bfbfbf" points="772,-78.57 772,-97.57 854,-97.57 854,-78.57 772,-78.57"/>
<text text-anchor="middle" x="813" y="-85.57" font-family="Helvetica,sans-Serif" font-size="10.00">VectorDouble</text>
</a>
</g>
</g>
<!-- Node73&#45;&gt;Node70 -->
<g id="edge88" class="edge">
<title>Node73&#45;&gt;Node70</title>
<path fill="none" stroke="#9a32cd" stroke-dasharray="5,2" d="M864.25,-85.26C909.23,-84.52 976.19,-87.83 1030,-109.07 1077.29,-127.73 1121.63,-171.16 1139.82,-190.49"/>
<polygon fill="#9a32cd" stroke="#9a32cd" points="864.06,-81.77 854.15,-85.51 864.23,-88.77 864.06,-81.77"/>
<text text-anchor="middle" x="969.5" y="-145.07" font-family="Helvetica,sans-Serif" font-size="10.00"> locF</text>
<text text-anchor="start" x="915" y="-134.07" font-family="Helvetica,sans-Serif" font-size="10.00">forcePotentialAtGauss</text>
<text text-anchor="middle" x="969.5" y="-123.07" font-family="Helvetica,sans-Serif" font-size="10.00">Points</text>
<text text-anchor="middle" x="969.5" y="-112.07" font-family="Helvetica,sans-Serif" font-size="10.00">dispAtGaussPts</text>
</g>
</g>
</svg>
