<?xml version="1.0" encoding="UTF-8" standalone="no"?>
<!DOCTYPE svg PUBLIC "-//W3C//DTD SVG 1.1//EN"
 "http://www.w3.org/Graphics/SVG/1.1/DTD/svg11.dtd">
<!-- Generated by graphviz version 2.43.0 (0)
 -->
<!-- Title: EigenMatrix::d2MImpl&lt; E, C, G &gt; Pages: 1 -->
<svg width="188pt" height="150pt"
 viewBox="0.00 0.00 188.00 150.00" xmlns="http://www.w3.org/2000/svg" xmlns:xlink="http://www.w3.org/1999/xlink">
<g id="graph0" class="graph" transform="scale(1 1) rotate(0) translate(4 146)">
<title>EigenMatrix::d2MImpl&lt; E, C, G &gt;</title>
<polygon fill="white" stroke="transparent" points="-4,4 -4,-146 184,-146 184,4 -4,4"/>
<!-- Node1 -->
<g id="node1" class="node">
<title>Node1</title>
<g id="a_node1"><a xlink:title=" ">
<polygon fill="#bfbfbf" stroke="black" points="12,-111.5 12,-141.5 136,-141.5 136,-111.5 12,-111.5"/>
<text text-anchor="start" x="20" y="-129.5" font-family="Helvetica,sans-Serif" font-size="10.00">EigenMatrix::d2MImpl</text>
<text text-anchor="middle" x="74" y="-118.5" font-family="Helvetica,sans-Serif" font-size="10.00">&lt; E, C, G &gt;</text>
</a>
</g>
</g>
<!-- Node2 -->
<g id="node2" class="node">
<title>Node2</title>
<g id="a_node2"><a xlink:href="structEigenMatrix_1_1d2MImpl.html" target="_top" xlink:title=" ">
<polygon fill="white" stroke="black" points="0,-0.5 0,-41.5 148,-41.5 148,-0.5 0,-0.5"/>
<text text-anchor="start" x="8" y="-29.5" font-family="Helvetica,sans-Serif" font-size="10.00">EigenMatrix::d2MImpl</text>
<text text-anchor="start" x="8" y="-18.5" font-family="Helvetica,sans-Serif" font-size="10.00">&lt; E, C, EigenMatrix::</text>
<text text-anchor="middle" x="74" y="-7.5" font-family="Helvetica,sans-Serif" font-size="10.00">d2MCoefficients&lt; E, C &gt; &gt;</text>
</a>
</g>
</g>
<!-- Node1&#45;&gt;Node2 -->
<g id="edge1" class="edge">
<title>Node1&#45;&gt;Node2</title>
<path fill="none" stroke="orange" stroke-dasharray="5,2" d="M74,-100.99C74,-82.84 74,-58.42 74,-41.57"/>
<polygon fill="orange" stroke="orange" points="70.5,-101.11 74,-111.11 77.5,-101.11 70.5,-101.11"/>
<text text-anchor="start" x="74" y="-85" font-family="Helvetica,sans-Serif" font-size="10.00"> &lt; E, C, EigenMatrix</text>
<text text-anchor="start" x="74" y="-74" font-family="Helvetica,sans-Serif" font-size="10.00">::d2MCoefficients&lt; E,</text>
<text text-anchor="middle" x="127" y="-63" font-family="Helvetica,sans-Serif" font-size="10.00"> C &gt; &gt;</text>
</g>
</g>
</svg>
