<?xml version="1.0" encoding="UTF-8" standalone="no"?>
<!DOCTYPE svg PUBLIC "-//W3C//DTD SVG 1.1//EN"
 "http://www.w3.org/Graphics/SVG/1.1/DTD/svg11.dtd">
<!-- Generated by graphviz version 2.43.0 (0)
 -->
<!-- Title: AtomTest::CommonData Pages: 1 -->
<svg width="804pt" height="143pt"
 viewBox="0.00 0.00 804.00 143.00" xmlns="http://www.w3.org/2000/svg" xmlns:xlink="http://www.w3.org/1999/xlink">
<g id="graph0" class="graph" transform="scale(1 1) rotate(0) translate(4 139)">
<title>AtomTest::CommonData</title>
<polygon fill="white" stroke="transparent" points="-4,4 -4,-139 800,-139 800,4 -4,4"/>
<!-- Node1 -->
<g id="node1" class="node">
<title>Node1</title>
<g id="a_node1"><a xlink:title="Collected data use d by operator to evaluate errors for the test.">
<polygon fill="#bfbfbf" stroke="black" points="660,-45.5 660,-64.5 796,-64.5 796,-45.5 660,-45.5"/>
<text text-anchor="middle" x="728" y="-52.5" font-family="Helvetica,sans-Serif" font-size="10.00">AtomTest::CommonData</text>
</a>
</g>
</g>
<!-- Node2 -->
<g id="node2" class="node">
<title>Node2</title>
<g id="a_node2"><a xlink:title=" ">
<polygon fill="white" stroke="#bfbfbf" points="373,-90.5 373,-109.5 530,-109.5 530,-90.5 373,-90.5"/>
<text text-anchor="middle" x="451.5" y="-97.5" font-family="Helvetica,sans-Serif" font-size="10.00">shared_ptr&lt; MatrixDouble &gt;</text>
</a>
</g>
</g>
<!-- Node2&#45;&gt;Node1 -->
<g id="edge1" class="edge">
<title>Node2&#45;&gt;Node1</title>
<path fill="none" stroke="#9a32cd" stroke-dasharray="5,2" d="M540.6,-92.52C572.68,-89.08 609.13,-84.32 642,-78 660.17,-74.51 680.15,-69.18 696.17,-64.53"/>
<polygon fill="#9a32cd" stroke="#9a32cd" points="539.93,-89.07 530.35,-93.6 540.66,-96.04 539.93,-89.07"/>
<text text-anchor="middle" x="595" y="-127" font-family="Helvetica,sans-Serif" font-size="10.00"> approxGradVals</text>
<text text-anchor="middle" x="595" y="-116" font-family="Helvetica,sans-Serif" font-size="10.00">divApproxVals</text>
<text text-anchor="middle" x="595" y="-105" font-family="Helvetica,sans-Serif" font-size="10.00">approxHessianVals</text>
<text text-anchor="middle" x="595" y="-94" font-family="Helvetica,sans-Serif" font-size="10.00">invJacPtr</text>
</g>
<!-- Node3 -->
<g id="node3" class="node">
<title>Node3</title>
<g id="a_node3"><a xlink:href="structMoFEM_1_1SmartPetscObj.html" target="_top" xlink:title=" ">
<polygon fill="white" stroke="black" points="386,-41 386,-71 517,-71 517,-41 386,-41"/>
<text text-anchor="start" x="394" y="-59" font-family="Helvetica,sans-Serif" font-size="10.00">MoFEM::SmartPetscObj</text>
<text text-anchor="middle" x="451.5" y="-48" font-family="Helvetica,sans-Serif" font-size="10.00">&lt; Vec &gt;</text>
</a>
</g>
</g>
<!-- Node3&#45;&gt;Node1 -->
<g id="edge2" class="edge">
<title>Node3&#45;&gt;Node1</title>
<path fill="none" stroke="#9a32cd" stroke-dasharray="5,2" d="M527.24,-55.73C568.66,-55.58 619.73,-55.39 659.86,-55.24"/>
<polygon fill="#9a32cd" stroke="#9a32cd" points="527.19,-52.23 517.21,-55.76 527.22,-59.23 527.19,-52.23"/>
<text text-anchor="middle" x="595" y="-69" font-family="Helvetica,sans-Serif" font-size="10.00"> resVec</text>
<text text-anchor="middle" x="595" y="-58" font-family="Helvetica,sans-Serif" font-size="10.00">L2Vec</text>
</g>
<!-- Node4 -->
<g id="node4" class="node">
<title>Node4</title>
<g id="a_node4"><a xlink:title=" ">
<polygon fill="white" stroke="#bfbfbf" points="165.5,-55.5 165.5,-96.5 291.5,-96.5 291.5,-55.5 165.5,-55.5"/>
<text text-anchor="start" x="173.5" y="-84.5" font-family="Helvetica,sans-Serif" font-size="10.00">boost::intrusive_ptr</text>
<text text-anchor="start" x="173.5" y="-73.5" font-family="Helvetica,sans-Serif" font-size="10.00">&lt; std::remove_pointer</text>
<text text-anchor="middle" x="228.5" y="-62.5" font-family="Helvetica,sans-Serif" font-size="10.00">&lt; Vec &gt;::type &gt;</text>
</a>
</g>
</g>
<!-- Node4&#45;&gt;Node3 -->
<g id="edge3" class="edge">
<title>Node4&#45;&gt;Node3</title>
<path fill="none" stroke="midnightblue" d="M301.83,-69.45C328.88,-67.01 359.41,-64.24 385.74,-61.86"/>
<polygon fill="midnightblue" stroke="midnightblue" points="301.29,-65.99 291.65,-70.38 301.92,-72.96 301.29,-65.99"/>
</g>
<!-- Node5 -->
<g id="node5" class="node">
<title>Node5</title>
<g id="a_node5"><a xlink:href="structMoFEM_1_1SmartPetscObj.html" target="_top" xlink:title="intrusive_ptr for managing petsc objects">
<polygon fill="white" stroke="black" points="163,-6 163,-36 294,-36 294,-6 163,-6"/>
<text text-anchor="start" x="171" y="-24" font-family="Helvetica,sans-Serif" font-size="10.00">MoFEM::SmartPetscObj</text>
<text text-anchor="middle" x="228.5" y="-13" font-family="Helvetica,sans-Serif" font-size="10.00">&lt; OBJ &gt;</text>
</a>
</g>
</g>
<!-- Node5&#45;&gt;Node3 -->
<g id="edge4" class="edge">
<title>Node5&#45;&gt;Node3</title>
<path fill="none" stroke="orange" stroke-dasharray="5,2" d="M304.03,-32.8C330.58,-37.01 360.25,-41.71 385.9,-45.77"/>
<polygon fill="orange" stroke="orange" points="304.44,-29.32 294.02,-31.22 303.35,-36.24 304.44,-29.32"/>
<text text-anchor="middle" x="333.5" y="-43" font-family="Helvetica,sans-Serif" font-size="10.00"> &lt; Vec &gt;</text>
</g>
<!-- Node6 -->
<g id="node6" class="node">
<title>Node6</title>
<g id="a_node6"><a xlink:title=" ">
<polygon fill="white" stroke="#bfbfbf" points="0,-0.5 0,-41.5 126,-41.5 126,-0.5 0,-0.5"/>
<text text-anchor="start" x="8" y="-29.5" font-family="Helvetica,sans-Serif" font-size="10.00">boost::intrusive_ptr</text>
<text text-anchor="start" x="8" y="-18.5" font-family="Helvetica,sans-Serif" font-size="10.00">&lt; std::remove_pointer</text>
<text text-anchor="middle" x="63" y="-7.5" font-family="Helvetica,sans-Serif" font-size="10.00">&lt; OBJ &gt;::type &gt;</text>
</a>
</g>
</g>
<!-- Node6&#45;&gt;Node5 -->
<g id="edge5" class="edge">
<title>Node6&#45;&gt;Node5</title>
<path fill="none" stroke="midnightblue" d="M136.52,-21C145.33,-21 154.27,-21 162.95,-21"/>
<polygon fill="midnightblue" stroke="midnightblue" points="136.28,-17.5 126.28,-21 136.28,-24.5 136.28,-17.5"/>
</g>
<!-- Node7 -->
<g id="node7" class="node">
<title>Node7</title>
<g id="a_node7"><a xlink:title=" ">
<polygon fill="white" stroke="#bfbfbf" points="373.5,-2.5 373.5,-21.5 529.5,-21.5 529.5,-2.5 373.5,-2.5"/>
<text text-anchor="middle" x="451.5" y="-9.5" font-family="Helvetica,sans-Serif" font-size="10.00">shared_ptr&lt; VectorDouble &gt;</text>
</a>
</g>
</g>
<!-- Node7&#45;&gt;Node1 -->
<g id="edge6" class="edge">
<title>Node7&#45;&gt;Node1</title>
<path fill="none" stroke="#9a32cd" stroke-dasharray="5,2" d="M530.07,-22.96C564.4,-27.94 605.25,-34.04 642,-40 652.5,-41.7 663.72,-43.61 674.44,-45.49"/>
<polygon fill="#9a32cd" stroke="#9a32cd" points="530.5,-19.49 520.1,-21.52 529.5,-26.42 530.5,-19.49"/>
<text text-anchor="middle" x="595" y="-43" font-family="Helvetica,sans-Serif" font-size="10.00"> approxVals</text>
</g>
</g>
</svg>
