<?xml version="1.0" encoding="UTF-8" standalone="no"?>
<!DOCTYPE svg PUBLIC "-//W3C//DTD SVG 1.1//EN"
 "http://www.w3.org/Graphics/SVG/1.1/DTD/svg11.dtd">
<!-- Generated by graphviz version 2.43.0 (0)
 -->
<!-- Title: BCs_RVELagrange_Disp::OpRVEBCsRhs Pages: 1 -->
<svg width="734pt" height="364pt"
 viewBox="0.00 0.00 734.00 364.00" xmlns="http://www.w3.org/2000/svg" xmlns:xlink="http://www.w3.org/1999/xlink">
<g id="graph0" class="graph" transform="scale(1 1) rotate(0) translate(4 360)">
<title>BCs_RVELagrange_Disp::OpRVEBCsRhs</title>
<polygon fill="white" stroke="transparent" points="-4,4 -4,-360 730,-360 730,4 -4,4"/>
<!-- Node1 -->
<g id="node1" class="node">
<title>Node1</title>
<g id="a_node1"><a xlink:title="\biref operator to calculate the RHS of the constrain for the RVE boundary conditions">
<polygon fill="#bfbfbf" stroke="black" points="594,-65 594,-95 726,-95 726,-65 594,-65"/>
<text text-anchor="start" x="602" y="-83" font-family="Helvetica,sans-Serif" font-size="10.00">BCs_RVELagrange_Disp</text>
<text text-anchor="middle" x="660" y="-72" font-family="Helvetica,sans-Serif" font-size="10.00">::OpRVEBCsRhs</text>
</a>
</g>
</g>
<!-- Node2 -->
<g id="node2" class="node">
<title>Node2</title>
<g id="a_node2"><a xlink:href="structBCs__RVELagrange__Disp_1_1OpDmatRhs.html" target="_top" xlink:title=" ">
<polygon fill="white" stroke="black" points="354.5,-203 354.5,-233 486.5,-233 486.5,-203 354.5,-203"/>
<text text-anchor="start" x="362.5" y="-221" font-family="Helvetica,sans-Serif" font-size="10.00">BCs_RVELagrange_Disp</text>
<text text-anchor="middle" x="420.5" y="-210" font-family="Helvetica,sans-Serif" font-size="10.00">::OpDmatRhs</text>
</a>
</g>
</g>
<!-- Node2&#45;&gt;Node1 -->
<g id="edge1" class="edge">
<title>Node2&#45;&gt;Node1</title>
<path fill="none" stroke="midnightblue" d="M456.18,-197.85C504.31,-169.88 590.27,-119.94 633.16,-95.01"/>
<polygon fill="midnightblue" stroke="midnightblue" points="454.26,-194.92 447.37,-202.97 457.77,-200.97 454.26,-194.92"/>
</g>
<!-- Node3 -->
<g id="node3" class="node">
<title>Node3</title>
<g id="a_node3"><a xlink:title=" ">
<polygon fill="white" stroke="#bfbfbf" points="118.5,-336.5 118.5,-355.5 223.5,-355.5 223.5,-336.5 118.5,-336.5"/>
<text text-anchor="middle" x="171" y="-343.5" font-family="Helvetica,sans-Serif" font-size="10.00">UserDataOperator</text>
</a>
</g>
</g>
<!-- Node3&#45;&gt;Node2 -->
<g id="edge2" class="edge">
<title>Node3&#45;&gt;Node2</title>
<path fill="none" stroke="midnightblue" d="M233.74,-347.26C262.91,-345.49 297.31,-339.84 325,-325 365.41,-303.35 396.77,-257.11 411.05,-233.13"/>
<polygon fill="midnightblue" stroke="midnightblue" points="233.49,-343.77 223.67,-347.73 233.82,-350.76 233.49,-343.77"/>
</g>
<!-- Node4 -->
<g id="node4" class="node">
<title>Node4</title>
<g id="a_node4"><a xlink:title=" ">
<polygon fill="white" stroke="#bfbfbf" points="129.5,-288.5 129.5,-307.5 212.5,-307.5 212.5,-288.5 129.5,-288.5"/>
<text text-anchor="middle" x="171" y="-295.5" font-family="Helvetica,sans-Serif" font-size="10.00">MatrixDouble</text>
</a>
</g>
</g>
<!-- Node4&#45;&gt;Node2 -->
<g id="edge3" class="edge">
<title>Node4&#45;&gt;Node2</title>
<path fill="none" stroke="#9a32cd" stroke-dasharray="5,2" d="M222.52,-293.41C252.87,-289.6 291.91,-282.81 325,-271 351.4,-261.58 379.08,-245.17 397.61,-233.1"/>
<polygon fill="#9a32cd" stroke="#9a32cd" points="222.09,-289.93 212.57,-294.59 222.92,-296.89 222.09,-289.93"/>
<text text-anchor="middle" x="290" y="-313" font-family="Helvetica,sans-Serif" font-size="10.00"> X_mat</text>
<text text-anchor="middle" x="290" y="-302" font-family="Helvetica,sans-Serif" font-size="10.00">N_mat</text>
<text text-anchor="middle" x="290" y="-291" font-family="Helvetica,sans-Serif" font-size="10.00">D_mat</text>
</g>
<!-- Node5 -->
<g id="node5" class="node">
<title>Node5</title>
<g id="a_node5"><a xlink:title=" ">
<polygon fill="white" stroke="#bfbfbf" points="156.5,-250.5 156.5,-269.5 185.5,-269.5 185.5,-250.5 156.5,-250.5"/>
<text text-anchor="middle" x="171" y="-257.5" font-family="Helvetica,sans-Serif" font-size="10.00">int</text>
</a>
</g>
</g>
<!-- Node5&#45;&gt;Node2 -->
<g id="edge4" class="edge">
<title>Node5&#45;&gt;Node2</title>
<path fill="none" stroke="#9a32cd" stroke-dasharray="5,2" d="M195.73,-255.97C231.89,-249.84 302.08,-237.93 354.25,-229.07"/>
<polygon fill="#9a32cd" stroke="#9a32cd" points="194.93,-252.56 185.66,-257.68 196.1,-259.46 194.93,-252.56"/>
<text text-anchor="middle" x="290" y="-259" font-family="Helvetica,sans-Serif" font-size="10.00"> nb_row_dofs</text>
<text text-anchor="middle" x="290" y="-248" font-family="Helvetica,sans-Serif" font-size="10.00">rank</text>
</g>
<!-- Node6 -->
<g id="node6" class="node">
<title>Node6</title>
<g id="a_node6"><a xlink:href="structBCs__RVELagrange__Disp_1_1RVEBC__Data.html" target="_top" xlink:title=" ">
<polygon fill="white" stroke="black" points="105,-201 105,-231 237,-231 237,-201 105,-201"/>
<text text-anchor="start" x="113" y="-219" font-family="Helvetica,sans-Serif" font-size="10.00">BCs_RVELagrange_Disp</text>
<text text-anchor="middle" x="171" y="-208" font-family="Helvetica,sans-Serif" font-size="10.00">::RVEBC_Data</text>
</a>
</g>
</g>
<!-- Node6&#45;&gt;Node2 -->
<g id="edge5" class="edge">
<title>Node6&#45;&gt;Node2</title>
<path fill="none" stroke="#9a32cd" stroke-dasharray="5,2" d="M247.44,-216.61C281.62,-216.89 321.64,-217.21 354.48,-217.47"/>
<polygon fill="#9a32cd" stroke="#9a32cd" points="247.06,-213.11 237.03,-216.53 247,-220.11 247.06,-213.11"/>
<text text-anchor="middle" x="290" y="-220" font-family="Helvetica,sans-Serif" font-size="10.00"> dAta</text>
</g>
<!-- Node7 -->
<g id="node7" class="node">
<title>Node7</title>
<g id="a_node7"><a xlink:href="classRange.html" target="_top" xlink:title=" ">
<polygon fill="white" stroke="black" points="0,-206.5 0,-225.5 47,-225.5 47,-206.5 0,-206.5"/>
<text text-anchor="middle" x="23.5" y="-213.5" font-family="Helvetica,sans-Serif" font-size="10.00">Range</text>
</a>
</g>
</g>
<!-- Node7&#45;&gt;Node6 -->
<g id="edge6" class="edge">
<title>Node7&#45;&gt;Node6</title>
<path fill="none" stroke="#9a32cd" stroke-dasharray="5,2" d="M57.35,-216C71.39,-216 88.3,-216 104.7,-216"/>
<polygon fill="#9a32cd" stroke="#9a32cd" points="57.23,-212.5 47.23,-216 57.23,-219.5 57.23,-212.5"/>
<text text-anchor="middle" x="76" y="-219" font-family="Helvetica,sans-Serif" font-size="10.00"> tRis</text>
</g>
<!-- Node8 -->
<g id="node8" class="node">
<title>Node8</title>
<g id="a_node8"><a xlink:href="classbool.html" target="_top" xlink:title=" ">
<polygon fill="white" stroke="black" points="152,-162.5 152,-181.5 190,-181.5 190,-162.5 152,-162.5"/>
<text text-anchor="middle" x="171" y="-169.5" font-family="Helvetica,sans-Serif" font-size="10.00">bool</text>
</a>
</g>
</g>
<!-- Node8&#45;&gt;Node2 -->
<g id="edge7" class="edge">
<title>Node8&#45;&gt;Node2</title>
<path fill="none" stroke="#9a32cd" stroke-dasharray="5,2" d="M200.34,-177.27C237.63,-184.2 304.29,-196.59 354.33,-205.89"/>
<polygon fill="#9a32cd" stroke="#9a32cd" points="200.67,-173.77 190.2,-175.38 199.39,-180.65 200.67,-173.77"/>
<text text-anchor="middle" x="290" y="-202" font-family="Helvetica,sans-Serif" font-size="10.00"> hoGeometry</text>
</g>
<!-- Node9 -->
<g id="node9" class="node">
<title>Node9</title>
<g id="a_node9"><a xlink:title=" ">
<polygon fill="white" stroke="#bfbfbf" points="130,-111.5 130,-130.5 212,-130.5 212,-111.5 130,-111.5"/>
<text text-anchor="middle" x="171" y="-118.5" font-family="Helvetica,sans-Serif" font-size="10.00">VectorDouble</text>
</a>
</g>
</g>
<!-- Node9&#45;&gt;Node1 -->
<g id="edge10" class="edge">
<title>Node9&#45;&gt;Node1</title>
<path fill="none" stroke="#9a32cd" stroke-dasharray="5,2" d="M222.35,-116.76C311.07,-109.29 495.18,-93.79 593.6,-85.51"/>
<polygon fill="#9a32cd" stroke="#9a32cd" points="221.94,-113.28 212.27,-117.61 222.53,-120.26 221.94,-113.28"/>
<text text-anchor="middle" x="420.5" y="-109" font-family="Helvetica,sans-Serif" font-size="10.00"> givenStrain</text>
</g>
<!-- Node9&#45;&gt;Node2 -->
<g id="edge8" class="edge">
<title>Node9&#45;&gt;Node2</title>
<path fill="none" stroke="#9a32cd" stroke-dasharray="5,2" d="M222.26,-130.83C252.68,-137.66 291.87,-148.05 325,-162 351.37,-173.1 379.28,-190.42 397.87,-202.86"/>
<polygon fill="#9a32cd" stroke="#9a32cd" points="222.81,-127.37 212.3,-128.65 221.32,-134.2 222.81,-127.37"/>
<text text-anchor="middle" x="290" y="-176" font-family="Helvetica,sans-Serif" font-size="10.00"> f</text>
<text text-anchor="middle" x="290" y="-165" font-family="Helvetica,sans-Serif" font-size="10.00">applied_strain</text>
</g>
<!-- Node10 -->
<g id="node10" class="node">
<title>Node10</title>
<g id="a_node10"><a xlink:title=" ">
<polygon fill="white" stroke="#bfbfbf" points="343,-39 343,-69 498,-69 498,-39 343,-39"/>
<text text-anchor="start" x="351" y="-57" font-family="Helvetica,sans-Serif" font-size="10.00">ptr_vector&lt; MethodForForce</text>
<text text-anchor="middle" x="420.5" y="-46" font-family="Helvetica,sans-Serif" font-size="10.00">Scaling &gt; &amp;</text>
</a>
</g>
</g>
<!-- Node10&#45;&gt;Node1 -->
<g id="edge9" class="edge">
<title>Node10&#45;&gt;Node1</title>
<path fill="none" stroke="#9a32cd" stroke-dasharray="5,2" d="M508.52,-63.53C536.65,-66.61 567.35,-69.97 593.64,-72.84"/>
<polygon fill="#9a32cd" stroke="#9a32cd" points="508.6,-60.01 498.28,-62.41 507.84,-66.97 508.6,-60.01"/>
<text text-anchor="middle" x="546" y="-73" font-family="Helvetica,sans-Serif" font-size="10.00"> methodsOp</text>
</g>
<!-- Node11 -->
<g id="node11" class="node">
<title>Node11</title>
<g id="a_node11"><a xlink:title=" ">
<polygon fill="white" stroke="#bfbfbf" points="403.5,-0.5 403.5,-19.5 437.5,-19.5 437.5,-0.5 403.5,-0.5"/>
<text text-anchor="middle" x="420.5" y="-7.5" font-family="Helvetica,sans-Serif" font-size="10.00">Vec</text>
</a>
</g>
</g>
<!-- Node11&#45;&gt;Node1 -->
<g id="edge11" class="edge">
<title>Node11&#45;&gt;Node1</title>
<path fill="none" stroke="#9a32cd" stroke-dasharray="5,2" d="M447.89,-15.73C478.85,-22.66 531.59,-35.15 576,-49 590.98,-53.67 607.2,-59.54 621.29,-64.91"/>
<polygon fill="#9a32cd" stroke="#9a32cd" points="448.42,-12.26 437.9,-13.52 446.91,-19.1 448.42,-12.26"/>
<text text-anchor="middle" x="546" y="-52" font-family="Helvetica,sans-Serif" font-size="10.00"> F</text>
</g>
</g>
</svg>
