<?xml version="1.0" encoding="UTF-8" standalone="no"?>
<!DOCTYPE svg PUBLIC "-//W3C//DTD SVG 1.1//EN"
 "http://www.w3.org/Graphics/SVG/1.1/DTD/svg11.dtd">
<!-- Generated by graphviz version 2.43.0 (0)
 -->
<!-- Title: MoFEM::TetGenInterface Pages: 1 -->
<svg width="3949pt" height="1642pt"
 viewBox="0.00 0.00 3949.00 1642.28" xmlns="http://www.w3.org/2000/svg" xmlns:xlink="http://www.w3.org/1999/xlink">
<g id="graph0" class="graph" transform="scale(1 1) rotate(0) translate(4 1638.28)">
<title>MoFEM::TetGenInterface</title>
<polygon fill="white" stroke="transparent" points="-4,4 -4,-1638.28 3945,-1638.28 3945,4 -4,4"/>
<!-- Node1 -->
<g id="node1" class="node">
<title>Node1</title>
<g id="a_node1"><a xlink:title="TetGen interface.">
<polygon fill="#bfbfbf" stroke="black" points="3805,-960.78 3805,-979.78 3941,-979.78 3941,-960.78 3805,-960.78"/>
<text text-anchor="middle" x="3873" y="-967.78" font-family="Helvetica,sans-Serif" font-size="10.00">MoFEM::TetGenInterface</text>
</a>
</g>
</g>
<!-- Node2 -->
<g id="node2" class="node">
<title>Node2</title>
<g id="a_node2"><a xlink:href="structMoFEM_1_1UnknownInterface.html" target="_top" xlink:title="base class for all interface classes">
<polygon fill="white" stroke="black" points="2166,-1286.78 2166,-1305.78 2314,-1305.78 2314,-1286.78 2166,-1286.78"/>
<text text-anchor="middle" x="2240" y="-1293.78" font-family="Helvetica,sans-Serif" font-size="10.00">MoFEM::UnknownInterface</text>
</a>
</g>
</g>
<!-- Node2&#45;&gt;Node1 -->
<g id="edge1" class="edge">
<title>Node2&#45;&gt;Node1</title>
<path fill="none" stroke="midnightblue" d="M2324.52,-1296.28C2429.96,-1296.28 2616.92,-1296.28 2777,-1296.28 2777,-1296.28 2777,-1296.28 3678.5,-1296.28 3829.55,-1296.28 3865.28,-1034.28 3871.06,-980.04"/>
<polygon fill="midnightblue" stroke="midnightblue" points="2324.26,-1292.78 2314.26,-1296.28 2324.26,-1299.78 2324.26,-1292.78"/>
</g>
<!-- Node7 -->
<g id="node7" class="node">
<title>Node7</title>
<g id="a_node7"><a xlink:href="structMoFEM_1_1CoreInterface.html" target="_top" xlink:title="Interface.">
<polygon fill="white" stroke="black" points="2715.5,-1248.78 2715.5,-1267.78 2840.5,-1267.78 2840.5,-1248.78 2715.5,-1248.78"/>
<text text-anchor="middle" x="2778" y="-1255.78" font-family="Helvetica,sans-Serif" font-size="10.00">MoFEM::CoreInterface</text>
</a>
</g>
</g>
<!-- Node2&#45;&gt;Node7 -->
<g id="edge7" class="edge">
<title>Node2&#45;&gt;Node7</title>
<path fill="none" stroke="midnightblue" d="M2324.4,-1285.75C2336.01,-1284.47 2347.79,-1283.27 2359,-1282.28 2485.35,-1271.17 2633.67,-1264.05 2715.3,-1260.65"/>
<polygon fill="midnightblue" stroke="midnightblue" points="2323.81,-1282.29 2314.26,-1286.89 2324.59,-1289.25 2323.81,-1282.29"/>
</g>
<!-- Node3 -->
<g id="node3" class="node">
<title>Node3</title>
<g id="a_node3"><a xlink:title=" ">
<polygon fill="white" stroke="#bfbfbf" points="1003.5,-1432.78 1003.5,-1495.78 1244.5,-1495.78 1244.5,-1432.78 1003.5,-1432.78"/>
<text text-anchor="start" x="1011.5" y="-1483.78" font-family="Helvetica,sans-Serif" font-size="10.00">multi_index_container</text>
<text text-anchor="start" x="1011.5" y="-1472.78" font-family="Helvetica,sans-Serif" font-size="10.00">&lt; UIdTypeMap, indexed</text>
<text text-anchor="start" x="1011.5" y="-1461.78" font-family="Helvetica,sans-Serif" font-size="10.00">_by&lt; hashed_unique&lt; member</text>
<text text-anchor="start" x="1011.5" y="-1450.78" font-family="Helvetica,sans-Serif" font-size="10.00">&lt; UIdTypeMap, boost::typeindex</text>
<text text-anchor="middle" x="1124" y="-1439.78" font-family="Helvetica,sans-Serif" font-size="10.00">::type_index, &amp;UIdTypeMap::classIdx &gt; &gt; &gt; &gt;</text>
</a>
</g>
</g>
<!-- Node3&#45;&gt;Node2 -->
<g id="edge2" class="edge">
<title>Node3&#45;&gt;Node2</title>
<path fill="none" stroke="#9a32cd" stroke-dasharray="5,2" d="M1254.74,-1479.02C1450.23,-1495.99 1828.55,-1508.26 2121,-1392.28 2169.61,-1373 2213.61,-1326.12 2231.06,-1305.86"/>
<polygon fill="#9a32cd" stroke="#9a32cd" points="1254.98,-1475.53 1244.71,-1478.13 1254.36,-1482.5 1254.98,-1475.53"/>
<text text-anchor="middle" x="1720.5" y="-1492.28" font-family="Helvetica,sans-Serif" font-size="10.00"> iFaceTypeMap</text>
</g>
<!-- Node4 -->
<g id="node4" class="node">
<title>Node4</title>
<g id="a_node4"><a xlink:title=" ">
<polygon fill="white" stroke="#bfbfbf" points="0,-848.78 0,-867.78 125,-867.78 125,-848.78 0,-848.78"/>
<text text-anchor="middle" x="62.5" y="-855.78" font-family="Helvetica,sans-Serif" font-size="10.00">multi_index_container</text>
</a>
</g>
</g>
<!-- Node4&#45;&gt;Node3 -->
<g id="edge3" class="edge">
<title>Node4&#45;&gt;Node3</title>
<path fill="none" stroke="orange" stroke-dasharray="5,2" d="M64.59,-878.24C70.27,-978.35 97.91,-1422.66 143,-1462.28 399.24,-1687.47 855.24,-1561.15 1040.92,-1495.79"/>
<polygon fill="orange" stroke="orange" points="68.07,-877.8 64.02,-868.01 61.08,-878.19 68.07,-877.8"/>
<text text-anchor="start" x="423" y="-1626.28" font-family="Helvetica,sans-Serif" font-size="10.00"> &lt; UIdTypeMap, indexed</text>
<text text-anchor="start" x="423" y="-1615.28" font-family="Helvetica,sans-Serif" font-size="10.00">_by&lt; hashed_unique&lt; member</text>
<text text-anchor="start" x="423" y="-1604.28" font-family="Helvetica,sans-Serif" font-size="10.00">&lt; UIdTypeMap, boost::typeindex</text>
<text text-anchor="middle" x="535.5" y="-1593.28" font-family="Helvetica,sans-Serif" font-size="10.00">::type_index, &amp;UIdTypeMap::classIdx &gt; &gt; &gt; &gt;</text>
</g>
<!-- Node8 -->
<g id="node8" class="node">
<title>Node8</title>
<g id="a_node8"><a xlink:title=" ">
<polygon fill="white" stroke="#bfbfbf" points="1320,-1187.78 1320,-1382.78 2121,-1382.78 2121,-1187.78 1320,-1187.78"/>
<text text-anchor="start" x="1328" y="-1370.78" font-family="Helvetica,sans-Serif" font-size="10.00">multi_index_container</text>
<text text-anchor="start" x="1328" y="-1359.78" font-family="Helvetica,sans-Serif" font-size="10.00">&lt; FieldEntityEntFiniteElement</text>
<text text-anchor="start" x="1328" y="-1348.78" font-family="Helvetica,sans-Serif" font-size="10.00">AdjacencyMap, indexed_by&lt;</text>
<text text-anchor="start" x="1328" y="-1337.78" font-family="Helvetica,sans-Serif" font-size="10.00"> ordered_unique&lt; tag&lt; Composite</text>
<text text-anchor="start" x="1328" y="-1326.78" font-family="Helvetica,sans-Serif" font-size="10.00">_Unique_mi_tag &gt;, composite_key</text>
<text text-anchor="start" x="1328" y="-1315.78" font-family="Helvetica,sans-Serif" font-size="10.00">&lt; FieldEntityEntFiniteElementAdjacencyMap,</text>
<text text-anchor="start" x="1328" y="-1304.78" font-family="Helvetica,sans-Serif" font-size="10.00"> const_mem_fun&lt; FieldEntityEntFiniteElementAdjacency</text>
<text text-anchor="start" x="1328" y="-1293.78" font-family="Helvetica,sans-Serif" font-size="10.00">Map, UId, &amp;FieldEntityEntFiniteElementAdjacencyMap</text>
<text text-anchor="start" x="1328" y="-1282.78" font-family="Helvetica,sans-Serif" font-size="10.00">::getEntUniqueId &gt;, const_mem_fun&lt; FieldEntityEntFiniteElementAdjacency</text>
<text text-anchor="start" x="1328" y="-1271.78" font-family="Helvetica,sans-Serif" font-size="10.00">Map, UId, &amp;FieldEntityEntFiniteElementAdjacencyMap::getFeUniqueId</text>
<text text-anchor="start" x="1328" y="-1260.78" font-family="Helvetica,sans-Serif" font-size="10.00"> &gt; &gt; &gt;, ordered_non_unique&lt; tag&lt; Unique_mi_tag &gt;, const_mem_fun</text>
<text text-anchor="start" x="1328" y="-1249.78" font-family="Helvetica,sans-Serif" font-size="10.00">&lt; FieldEntityEntFiniteElementAdjacencyMap, UId, &amp;FieldEntityEntFiniteElementAdjacencyMap</text>
<text text-anchor="start" x="1328" y="-1238.78" font-family="Helvetica,sans-Serif" font-size="10.00">::getEntUniqueId &gt; &gt;, ordered_non_unique&lt; tag&lt; FE_Unique_mi_tag &gt;, const_mem_fun</text>
<text text-anchor="start" x="1328" y="-1227.78" font-family="Helvetica,sans-Serif" font-size="10.00">&lt; FieldEntityEntFiniteElementAdjacencyMap, UId, &amp;FieldEntityEntFiniteElementAdjacencyMap</text>
<text text-anchor="start" x="1328" y="-1216.78" font-family="Helvetica,sans-Serif" font-size="10.00">::getFeUniqueId &gt; &gt;, ordered_non_unique&lt; tag&lt; FEEnt_mi_tag &gt;, const_mem_fun&lt; FieldEntityEntFiniteElementAdjacency</text>
<text text-anchor="start" x="1328" y="-1205.78" font-family="Helvetica,sans-Serif" font-size="10.00">Map, EntityHandle, &amp;FieldEntityEntFiniteElementAdjacencyMap::getFeHandle &gt; &gt;, ordered_non_unique&lt; tag</text>
<text text-anchor="middle" x="1720.5" y="-1194.78" font-family="Helvetica,sans-Serif" font-size="10.00">&lt; Ent_mi_tag &gt;, const_mem_fun&lt; FieldEntityEntFiniteElementAdjacencyMap, EntityHandle, &amp;FieldEntityEntFiniteElementAdjacencyMap::getEntHandle &gt; &gt; &gt; &gt;</text>
</a>
</g>
</g>
<!-- Node4&#45;&gt;Node8 -->
<g id="edge9" class="edge">
<title>Node4&#45;&gt;Node8</title>
<path fill="none" stroke="orange" stroke-dasharray="5,2" d="M63.12,-878.02C63.33,-926.79 71.14,-1053.59 143,-1117.28 414.34,-1357.78 585.39,-1223.56 946,-1261.28 1067.1,-1273.95 1199.39,-1280.66 1319.78,-1284.03"/>
<polygon fill="orange" stroke="orange" points="66.62,-877.9 63.18,-867.87 59.62,-877.85 66.62,-877.9"/>
<text text-anchor="start" x="143" y="-1433.28" font-family="Helvetica,sans-Serif" font-size="10.00"> &lt; FieldEntityEntFiniteElement</text>
<text text-anchor="start" x="143" y="-1422.28" font-family="Helvetica,sans-Serif" font-size="10.00">AdjacencyMap, indexed_by</text>
<text text-anchor="start" x="143" y="-1411.28" font-family="Helvetica,sans-Serif" font-size="10.00">&lt; ordered_unique&lt; tag&lt; Composite</text>
<text text-anchor="start" x="143" y="-1400.28" font-family="Helvetica,sans-Serif" font-size="10.00">_Unique_mi_tag &gt;, composite_key</text>
<text text-anchor="start" x="143" y="-1389.28" font-family="Helvetica,sans-Serif" font-size="10.00">&lt; FieldEntityEntFiniteElementAdjacencyMap,</text>
<text text-anchor="start" x="143" y="-1378.28" font-family="Helvetica,sans-Serif" font-size="10.00"> const_mem_fun&lt; FieldEntityEntFiniteElementAdjacency</text>
<text text-anchor="start" x="143" y="-1367.28" font-family="Helvetica,sans-Serif" font-size="10.00">Map, UId, &amp;FieldEntityEntFiniteElementAdjacencyMap</text>
<text text-anchor="start" x="143" y="-1356.28" font-family="Helvetica,sans-Serif" font-size="10.00">::getEntUniqueId &gt;, const_mem_fun&lt; FieldEntityEntFiniteElementAdjacency</text>
<text text-anchor="start" x="143" y="-1345.28" font-family="Helvetica,sans-Serif" font-size="10.00">Map, UId, &amp;FieldEntityEntFiniteElementAdjacencyMap::getFeUniqueId</text>
<text text-anchor="start" x="143" y="-1334.28" font-family="Helvetica,sans-Serif" font-size="10.00"> &gt; &gt; &gt;, ordered_non_unique&lt; tag&lt; Unique_mi_tag &gt;, const_mem_fun</text>
<text text-anchor="start" x="143" y="-1323.28" font-family="Helvetica,sans-Serif" font-size="10.00">&lt; FieldEntityEntFiniteElementAdjacencyMap, UId, &amp;FieldEntityEntFiniteElementAdjacencyMap</text>
<text text-anchor="start" x="143" y="-1312.28" font-family="Helvetica,sans-Serif" font-size="10.00">::getEntUniqueId &gt; &gt;, ordered_non_unique&lt; tag&lt; FE_Unique_mi_tag &gt;, const_mem_fun</text>
<text text-anchor="start" x="143" y="-1301.28" font-family="Helvetica,sans-Serif" font-size="10.00">&lt; FieldEntityEntFiniteElementAdjacencyMap, UId, &amp;FieldEntityEntFiniteElementAdjacencyMap</text>
<text text-anchor="start" x="143" y="-1290.28" font-family="Helvetica,sans-Serif" font-size="10.00">::getFeUniqueId &gt; &gt;, ordered_non_unique&lt; tag&lt; FEEnt_mi_tag &gt;, const_mem_fun&lt; FieldEntityEntFiniteElementAdjacency</text>
<text text-anchor="start" x="143" y="-1279.28" font-family="Helvetica,sans-Serif" font-size="10.00">Map, EntityHandle, &amp;FieldEntityEntFiniteElementAdjacencyMap::getFeHandle &gt; &gt;, ordered_non_unique&lt; tag</text>
<text text-anchor="middle" x="535.5" y="-1268.28" font-family="Helvetica,sans-Serif" font-size="10.00">&lt; Ent_mi_tag &gt;, const_mem_fun&lt; FieldEntityEntFiniteElementAdjacencyMap, EntityHandle, &amp;FieldEntityEntFiniteElementAdjacencyMap::getEntHandle &gt; &gt; &gt; &gt;</text>
</g>
<!-- Node10 -->
<g id="node10" class="node">
<title>Node10</title>
<g id="a_node10"><a xlink:title=" ">
<polygon fill="white" stroke="#bfbfbf" points="2359,-1041.28 2359,-1203.28 2645,-1203.28 2645,-1041.28 2359,-1041.28"/>
<text text-anchor="start" x="2367" y="-1191.28" font-family="Helvetica,sans-Serif" font-size="10.00">multi_index_container</text>
<text text-anchor="start" x="2367" y="-1180.28" font-family="Helvetica,sans-Serif" font-size="10.00">&lt; boost::shared_ptr&lt;</text>
<text text-anchor="start" x="2367" y="-1169.28" font-family="Helvetica,sans-Serif" font-size="10.00"> Field &gt;, indexed_by&lt;</text>
<text text-anchor="start" x="2367" y="-1158.28" font-family="Helvetica,sans-Serif" font-size="10.00"> hashed_unique&lt; tag&lt; BitFieldId</text>
<text text-anchor="start" x="2367" y="-1147.28" font-family="Helvetica,sans-Serif" font-size="10.00">_mi_tag &gt;, const_mem_fun&lt; Field,</text>
<text text-anchor="start" x="2367" y="-1136.28" font-family="Helvetica,sans-Serif" font-size="10.00"> const BitFieldId &amp;, &amp;Field::getId</text>
<text text-anchor="start" x="2367" y="-1125.28" font-family="Helvetica,sans-Serif" font-size="10.00"> &gt;, HashBit&lt; BitFieldId &gt;, EqBit&lt;</text>
<text text-anchor="start" x="2367" y="-1114.28" font-family="Helvetica,sans-Serif" font-size="10.00"> BitFieldId &gt; &gt;, ordered_unique&lt; tag</text>
<text text-anchor="start" x="2367" y="-1103.28" font-family="Helvetica,sans-Serif" font-size="10.00">&lt; Meshset_mi_tag &gt;, member&lt; Field, EntityHandle,</text>
<text text-anchor="start" x="2367" y="-1092.28" font-family="Helvetica,sans-Serif" font-size="10.00"> &amp;Field::meshSet &gt; &gt;, ordered_unique&lt; tag&lt;</text>
<text text-anchor="start" x="2367" y="-1081.28" font-family="Helvetica,sans-Serif" font-size="10.00"> FieldName_mi_tag &gt;, const_mem_fun&lt; Field, boost</text>
<text text-anchor="start" x="2367" y="-1070.28" font-family="Helvetica,sans-Serif" font-size="10.00">::string_ref, &amp;Field::getNameRef &gt; &gt;, ordered_non</text>
<text text-anchor="start" x="2367" y="-1059.28" font-family="Helvetica,sans-Serif" font-size="10.00">_unique&lt; tag&lt; BitFieldId_space_mi_tag &gt;, const_mem</text>
<text text-anchor="middle" x="2502" y="-1048.28" font-family="Helvetica,sans-Serif" font-size="10.00">_fun&lt; Field, FieldSpace, &amp;Field::getSpace &gt; &gt; &gt; &gt;</text>
</a>
</g>
</g>
<!-- Node4&#45;&gt;Node10 -->
<g id="edge12" class="edge">
<title>Node4&#45;&gt;Node10</title>
<path fill="none" stroke="orange" stroke-dasharray="5,2" d="M66.22,-878.16C72.42,-914.92 91.3,-992.99 143,-1028.28 356.16,-1173.8 1098.04,-945.13 1302,-1103.28 1322.33,-1119.04 1299.18,-1143.19 1320,-1158.28 1392.06,-1210.52 2032.1,-1162.48 2121,-1158.28 2199.77,-1154.56 2287.42,-1146.52 2358.67,-1138.98"/>
<polygon fill="orange" stroke="orange" points="69.67,-877.52 64.68,-868.17 62.75,-878.59 69.67,-877.52"/>
<text text-anchor="start" x="991.5" y="-1249.28" font-family="Helvetica,sans-Serif" font-size="10.00"> &lt; boost::shared_ptr</text>
<text text-anchor="start" x="991.5" y="-1238.28" font-family="Helvetica,sans-Serif" font-size="10.00">&lt; Field &gt;, indexed_by</text>
<text text-anchor="start" x="991.5" y="-1227.28" font-family="Helvetica,sans-Serif" font-size="10.00">&lt; hashed_unique&lt; tag&lt;</text>
<text text-anchor="start" x="991.5" y="-1216.28" font-family="Helvetica,sans-Serif" font-size="10.00"> BitFieldId_mi_tag &gt;, const</text>
<text text-anchor="start" x="991.5" y="-1205.28" font-family="Helvetica,sans-Serif" font-size="10.00">_mem_fun&lt; Field, const BitFieldId</text>
<text text-anchor="start" x="991.5" y="-1194.28" font-family="Helvetica,sans-Serif" font-size="10.00"> &amp;, &amp;Field::getId &gt;, HashBit&lt; BitFieldId</text>
<text text-anchor="start" x="991.5" y="-1183.28" font-family="Helvetica,sans-Serif" font-size="10.00"> &gt;, EqBit&lt; BitFieldId &gt; &gt;, ordered_unique</text>
<text text-anchor="start" x="991.5" y="-1172.28" font-family="Helvetica,sans-Serif" font-size="10.00">&lt; tag&lt; Meshset_mi_tag &gt;, member&lt; Field,</text>
<text text-anchor="start" x="991.5" y="-1161.28" font-family="Helvetica,sans-Serif" font-size="10.00"> EntityHandle, &amp;Field::meshSet &gt; &gt;, ordered</text>
<text text-anchor="start" x="991.5" y="-1150.28" font-family="Helvetica,sans-Serif" font-size="10.00">_unique&lt; tag&lt; FieldName_mi_tag &gt;, const_mem</text>
<text text-anchor="start" x="991.5" y="-1139.28" font-family="Helvetica,sans-Serif" font-size="10.00">_fun&lt; Field, boost::string_ref, &amp;Field::getNameRef</text>
<text text-anchor="start" x="991.5" y="-1128.28" font-family="Helvetica,sans-Serif" font-size="10.00"> &gt; &gt;, ordered_non_unique&lt; tag&lt; BitFieldId_space</text>
<text text-anchor="start" x="991.5" y="-1117.28" font-family="Helvetica,sans-Serif" font-size="10.00">_mi_tag &gt;, const_mem_fun&lt; Field, FieldSpace, &amp;Field</text>
<text text-anchor="middle" x="1124" y="-1106.28" font-family="Helvetica,sans-Serif" font-size="10.00">::getSpace &gt; &gt; &gt; &gt;</text>
</g>
<!-- Node11 -->
<g id="node11" class="node">
<title>Node11</title>
<g id="a_node11"><a xlink:title=" ">
<polygon fill="white" stroke="#bfbfbf" points="2911,-936.28 2911,-1098.28 3174,-1098.28 3174,-936.28 2911,-936.28"/>
<text text-anchor="start" x="2919" y="-1086.28" font-family="Helvetica,sans-Serif" font-size="10.00">multi_index_container</text>
<text text-anchor="start" x="2919" y="-1075.28" font-family="Helvetica,sans-Serif" font-size="10.00">&lt; boost::shared_ptr&lt;</text>
<text text-anchor="start" x="2919" y="-1064.28" font-family="Helvetica,sans-Serif" font-size="10.00"> FiniteElement &gt;, indexed</text>
<text text-anchor="start" x="2919" y="-1053.28" font-family="Helvetica,sans-Serif" font-size="10.00">_by&lt; hashed_unique&lt; tag&lt;</text>
<text text-anchor="start" x="2919" y="-1042.28" font-family="Helvetica,sans-Serif" font-size="10.00"> FiniteElement_Meshset_mi</text>
<text text-anchor="start" x="2919" y="-1031.28" font-family="Helvetica,sans-Serif" font-size="10.00">_tag &gt;, member&lt; FiniteElement,</text>
<text text-anchor="start" x="2919" y="-1020.28" font-family="Helvetica,sans-Serif" font-size="10.00"> EntityHandle, &amp;FiniteElement</text>
<text text-anchor="start" x="2919" y="-1009.28" font-family="Helvetica,sans-Serif" font-size="10.00">::meshset &gt; &gt;, hashed_unique&lt;</text>
<text text-anchor="start" x="2919" y="-998.28" font-family="Helvetica,sans-Serif" font-size="10.00"> tag&lt; BitFEId_mi_tag &gt;, const_mem</text>
<text text-anchor="start" x="2919" y="-987.28" font-family="Helvetica,sans-Serif" font-size="10.00">_fun&lt; FiniteElement, BitFEId, &amp;FiniteElement</text>
<text text-anchor="start" x="2919" y="-976.28" font-family="Helvetica,sans-Serif" font-size="10.00">::getId &gt;, HashBit&lt; BitFEId &gt;, EqBit&lt; BitFEId</text>
<text text-anchor="start" x="2919" y="-965.28" font-family="Helvetica,sans-Serif" font-size="10.00"> &gt; &gt;, ordered_unique&lt; tag&lt; FiniteElement_name</text>
<text text-anchor="start" x="2919" y="-954.28" font-family="Helvetica,sans-Serif" font-size="10.00">_mi_tag &gt;, const_mem_fun&lt; FiniteElement, boost</text>
<text text-anchor="middle" x="3042.5" y="-943.28" font-family="Helvetica,sans-Serif" font-size="10.00">::string_ref, &amp;FiniteElement::getNameRef &gt; &gt; &gt; &gt;</text>
</a>
</g>
</g>
<!-- Node4&#45;&gt;Node11 -->
<g id="edge14" class="edge">
<title>Node4&#45;&gt;Node11</title>
<path fill="none" stroke="orange" stroke-dasharray="5,2" d="M67.83,-877.8C76.12,-909.96 97.62,-973.24 143,-1000.28 189.78,-1028.15 1068.55,-1014.28 1123,-1014.28 1123,-1014.28 1123,-1014.28 2503,-1014.28 2642.3,-1014.28 2801.87,-1015.3 2910.92,-1016.15"/>
<polygon fill="orange" stroke="orange" points="71.17,-876.73 65.43,-867.83 64.36,-878.37 71.17,-876.73"/>
<text text-anchor="start" x="1597" y="-1149.28" font-family="Helvetica,sans-Serif" font-size="10.00"> &lt; boost::shared_ptr</text>
<text text-anchor="start" x="1597" y="-1138.28" font-family="Helvetica,sans-Serif" font-size="10.00">&lt; FiniteElement &gt;, indexed</text>
<text text-anchor="start" x="1597" y="-1127.28" font-family="Helvetica,sans-Serif" font-size="10.00">_by&lt; hashed_unique&lt; tag</text>
<text text-anchor="start" x="1597" y="-1116.28" font-family="Helvetica,sans-Serif" font-size="10.00">&lt; FiniteElement_Meshset_mi</text>
<text text-anchor="start" x="1597" y="-1105.28" font-family="Helvetica,sans-Serif" font-size="10.00">_tag &gt;, member&lt; FiniteElement,</text>
<text text-anchor="start" x="1597" y="-1094.28" font-family="Helvetica,sans-Serif" font-size="10.00"> EntityHandle, &amp;FiniteElement</text>
<text text-anchor="start" x="1597" y="-1083.28" font-family="Helvetica,sans-Serif" font-size="10.00">::meshset &gt; &gt;, hashed_unique&lt;</text>
<text text-anchor="start" x="1597" y="-1072.28" font-family="Helvetica,sans-Serif" font-size="10.00"> tag&lt; BitFEId_mi_tag &gt;, const_mem</text>
<text text-anchor="start" x="1597" y="-1061.28" font-family="Helvetica,sans-Serif" font-size="10.00">_fun&lt; FiniteElement, BitFEId, &amp;FiniteElement</text>
<text text-anchor="start" x="1597" y="-1050.28" font-family="Helvetica,sans-Serif" font-size="10.00">::getId &gt;, HashBit&lt; BitFEId &gt;, EqBit&lt; BitFEId</text>
<text text-anchor="start" x="1597" y="-1039.28" font-family="Helvetica,sans-Serif" font-size="10.00"> &gt; &gt;, ordered_unique&lt; tag&lt; FiniteElement_name</text>
<text text-anchor="start" x="1597" y="-1028.28" font-family="Helvetica,sans-Serif" font-size="10.00">_mi_tag &gt;, const_mem_fun&lt; FiniteElement, boost</text>
<text text-anchor="middle" x="1720.5" y="-1017.28" font-family="Helvetica,sans-Serif" font-size="10.00">::string_ref, &amp;FiniteElement::getNameRef &gt; &gt; &gt; &gt;</text>
</g>
<!-- Node13 -->
<g id="node13" class="node">
<title>Node13</title>
<g id="a_node13"><a xlink:title=" ">
<polygon fill="white" stroke="#bfbfbf" points="1598,-861.78 1598,-990.78 1843,-990.78 1843,-861.78 1598,-861.78"/>
<text text-anchor="start" x="1606" y="-978.78" font-family="Helvetica,sans-Serif" font-size="10.00">multi_index_container</text>
<text text-anchor="start" x="1606" y="-967.78" font-family="Helvetica,sans-Serif" font-size="10.00">&lt; boost::shared_ptr&lt;</text>
<text text-anchor="start" x="1606" y="-956.78" font-family="Helvetica,sans-Serif" font-size="10.00"> EntFiniteElement &gt;, indexed</text>
<text text-anchor="start" x="1606" y="-945.78" font-family="Helvetica,sans-Serif" font-size="10.00">_by&lt; ordered_unique&lt; tag&lt;</text>
<text text-anchor="start" x="1606" y="-934.78" font-family="Helvetica,sans-Serif" font-size="10.00"> Unique_mi_tag &gt;, const_mem</text>
<text text-anchor="start" x="1606" y="-923.78" font-family="Helvetica,sans-Serif" font-size="10.00">_fun&lt; EntFiniteElement, UId,</text>
<text text-anchor="start" x="1606" y="-912.78" font-family="Helvetica,sans-Serif" font-size="10.00"> &amp;EntFiniteElement::getLocalUniqueId</text>
<text text-anchor="start" x="1606" y="-901.78" font-family="Helvetica,sans-Serif" font-size="10.00"> &gt; &gt;, ordered_non_unique&lt; tag&lt; Ent</text>
<text text-anchor="start" x="1606" y="-890.78" font-family="Helvetica,sans-Serif" font-size="10.00">_mi_tag &gt;, const_mem_fun&lt; EntFiniteElement</text>
<text text-anchor="start" x="1606" y="-879.78" font-family="Helvetica,sans-Serif" font-size="10.00">::interface_type_RefEntity, EntityHandle,</text>
<text text-anchor="middle" x="1720.5" y="-868.78" font-family="Helvetica,sans-Serif" font-size="10.00"> &amp;EntFiniteElement::getEnt &gt; &gt; &gt; &gt;</text>
</a>
</g>
</g>
<!-- Node4&#45;&gt;Node13 -->
<g id="edge17" class="edge">
<title>Node4&#45;&gt;Node13</title>
<path fill="none" stroke="orange" stroke-dasharray="5,2" d="M135.37,-857.67C337.33,-856.27 897.33,-854.65 928,-879.28 954.05,-900.21 919.69,-931.67 946,-952.28 1070.55,-1049.85 1143.85,-957.2 1302,-952.28 1401.63,-949.18 1514.43,-941.93 1597.65,-935.87"/>
<polygon fill="orange" stroke="orange" points="135.14,-854.17 125.16,-857.75 135.19,-861.17 135.14,-854.17"/>
<text text-anchor="start" x="436" y="-992.28" font-family="Helvetica,sans-Serif" font-size="10.00"> &lt; boost::shared_ptr</text>
<text text-anchor="start" x="436" y="-981.28" font-family="Helvetica,sans-Serif" font-size="10.00">&lt; EntFiniteElement &gt;</text>
<text text-anchor="start" x="436" y="-970.28" font-family="Helvetica,sans-Serif" font-size="10.00">, indexed_by&lt; ordered</text>
<text text-anchor="start" x="436" y="-959.28" font-family="Helvetica,sans-Serif" font-size="10.00">_unique&lt; tag&lt; Unique_mi</text>
<text text-anchor="start" x="436" y="-948.28" font-family="Helvetica,sans-Serif" font-size="10.00">_tag &gt;, const_mem_fun&lt; EntFinite</text>
<text text-anchor="start" x="436" y="-937.28" font-family="Helvetica,sans-Serif" font-size="10.00">Element, UId, &amp;EntFiniteElement</text>
<text text-anchor="start" x="436" y="-926.28" font-family="Helvetica,sans-Serif" font-size="10.00">::getLocalUniqueId &gt; &gt;, ordered</text>
<text text-anchor="start" x="436" y="-915.28" font-family="Helvetica,sans-Serif" font-size="10.00">_non_unique&lt; tag&lt; Ent_mi_tag &gt;,</text>
<text text-anchor="start" x="436" y="-904.28" font-family="Helvetica,sans-Serif" font-size="10.00"> const_mem_fun&lt; EntFiniteElement</text>
<text text-anchor="start" x="436" y="-893.28" font-family="Helvetica,sans-Serif" font-size="10.00">::interface_type_RefEntity, EntityHandle,</text>
<text text-anchor="middle" x="535.5" y="-882.28" font-family="Helvetica,sans-Serif" font-size="10.00"> &amp;EntFiniteElement::getEnt &gt; &gt; &gt; &gt;</text>
</g>
<!-- Node15 -->
<g id="node15" class="node">
<title>Node15</title>
<g id="a_node15"><a xlink:title=" ">
<polygon fill="white" stroke="#bfbfbf" points="2139,-772.78 2139,-901.78 2341,-901.78 2341,-772.78 2139,-772.78"/>
<text text-anchor="start" x="2147" y="-889.78" font-family="Helvetica,sans-Serif" font-size="10.00">multi_index_container</text>
<text text-anchor="start" x="2147" y="-878.78" font-family="Helvetica,sans-Serif" font-size="10.00">&lt; boost::shared_ptr&lt;</text>
<text text-anchor="start" x="2147" y="-867.78" font-family="Helvetica,sans-Serif" font-size="10.00"> DofEntity &gt;, indexed</text>
<text text-anchor="start" x="2147" y="-856.78" font-family="Helvetica,sans-Serif" font-size="10.00">_by&lt; ordered_unique&lt; tag</text>
<text text-anchor="start" x="2147" y="-845.78" font-family="Helvetica,sans-Serif" font-size="10.00">&lt; Unique_mi_tag &gt;, const</text>
<text text-anchor="start" x="2147" y="-834.78" font-family="Helvetica,sans-Serif" font-size="10.00">_mem_fun&lt; DofEntity, UId,</text>
<text text-anchor="start" x="2147" y="-823.78" font-family="Helvetica,sans-Serif" font-size="10.00"> &amp;DofEntity::getLocalUniqueId</text>
<text text-anchor="start" x="2147" y="-812.78" font-family="Helvetica,sans-Serif" font-size="10.00"> &gt; &gt;, ordered_non_unique&lt; tag</text>
<text text-anchor="start" x="2147" y="-801.78" font-family="Helvetica,sans-Serif" font-size="10.00">&lt; Ent_mi_tag &gt;, const_mem_fun</text>
<text text-anchor="start" x="2147" y="-790.78" font-family="Helvetica,sans-Serif" font-size="10.00">&lt; DofEntity, EntityHandle, &amp;DofEntity</text>
<text text-anchor="middle" x="2240" y="-779.78" font-family="Helvetica,sans-Serif" font-size="10.00">::getEnt &gt; &gt; &gt; &gt;</text>
</a>
</g>
</g>
<!-- Node4&#45;&gt;Node15 -->
<g id="edge20" class="edge">
<title>Node4&#45;&gt;Node15</title>
<path fill="none" stroke="orange" stroke-dasharray="5,2" d="M135.26,-852.67C137.87,-852.53 140.46,-852.4 143,-852.28 499.56,-835.73 589.07,-841.53 946,-838.28 1390.73,-834.23 1921.54,-835.85 2138.82,-836.79"/>
<polygon fill="orange" stroke="orange" points="134.88,-849.19 125.11,-853.28 135.3,-856.18 134.88,-849.19"/>
<text text-anchor="start" x="1031" y="-940.28" font-family="Helvetica,sans-Serif" font-size="10.00"> &lt; boost::shared_ptr</text>
<text text-anchor="start" x="1031" y="-929.28" font-family="Helvetica,sans-Serif" font-size="10.00">&lt; DofEntity &gt;, indexed</text>
<text text-anchor="start" x="1031" y="-918.28" font-family="Helvetica,sans-Serif" font-size="10.00">_by&lt; ordered_unique&lt; tag</text>
<text text-anchor="start" x="1031" y="-907.28" font-family="Helvetica,sans-Serif" font-size="10.00">&lt; Unique_mi_tag &gt;, const</text>
<text text-anchor="start" x="1031" y="-896.28" font-family="Helvetica,sans-Serif" font-size="10.00">_mem_fun&lt; DofEntity, UId,</text>
<text text-anchor="start" x="1031" y="-885.28" font-family="Helvetica,sans-Serif" font-size="10.00"> &amp;DofEntity::getLocalUniqueId</text>
<text text-anchor="start" x="1031" y="-874.28" font-family="Helvetica,sans-Serif" font-size="10.00"> &gt; &gt;, ordered_non_unique&lt; tag</text>
<text text-anchor="start" x="1031" y="-863.28" font-family="Helvetica,sans-Serif" font-size="10.00">&lt; Ent_mi_tag &gt;, const_mem_fun</text>
<text text-anchor="start" x="1031" y="-852.28" font-family="Helvetica,sans-Serif" font-size="10.00">&lt; DofEntity, EntityHandle, &amp;DofEntity</text>
<text text-anchor="middle" x="1124" y="-841.28" font-family="Helvetica,sans-Serif" font-size="10.00">::getEnt &gt; &gt; &gt; &gt;</text>
</g>
<!-- Node17 -->
<g id="node17" class="node">
<title>Node17</title>
<g id="a_node17"><a xlink:title=" ">
<polygon fill="white" stroke="#bfbfbf" points="2418.5,-703.28 2418.5,-799.28 2585.5,-799.28 2585.5,-703.28 2418.5,-703.28"/>
<text text-anchor="start" x="2426.5" y="-787.28" font-family="Helvetica,sans-Serif" font-size="10.00">multi_index_container</text>
<text text-anchor="start" x="2426.5" y="-776.28" font-family="Helvetica,sans-Serif" font-size="10.00">&lt; boost::shared_ptr&lt;</text>
<text text-anchor="start" x="2426.5" y="-765.28" font-family="Helvetica,sans-Serif" font-size="10.00"> RefElement &gt;, indexed</text>
<text text-anchor="start" x="2426.5" y="-754.28" font-family="Helvetica,sans-Serif" font-size="10.00">_by&lt; ordered_unique&lt; tag</text>
<text text-anchor="start" x="2426.5" y="-743.28" font-family="Helvetica,sans-Serif" font-size="10.00">&lt; Ent_mi_tag &gt;, const_mem</text>
<text text-anchor="start" x="2426.5" y="-732.28" font-family="Helvetica,sans-Serif" font-size="10.00">_fun&lt; RefElement::interface</text>
<text text-anchor="start" x="2426.5" y="-721.28" font-family="Helvetica,sans-Serif" font-size="10.00">_type_RefEntity, EntityHandle,</text>
<text text-anchor="middle" x="2502" y="-710.28" font-family="Helvetica,sans-Serif" font-size="10.00"> &amp;RefElement::getEnt &gt; &gt; &gt; &gt;</text>
</a>
</g>
</g>
<!-- Node4&#45;&gt;Node17 -->
<g id="edge23" class="edge">
<title>Node4&#45;&gt;Node17</title>
<path fill="none" stroke="orange" stroke-dasharray="5,2" d="M100.17,-845.59C113.51,-841.4 128.8,-837.1 143,-834.28 494.77,-764.35 587.79,-772.08 946,-754.28 1104.03,-746.43 1161.18,-682.15 1302,-754.28 1314.19,-760.52 1307.81,-773.04 1320,-779.28 1399.21,-819.86 2037.81,-810.91 2121,-779.28 2131,-775.48 2129.06,-767.25 2139,-763.28 2229.37,-727.2 2342.76,-730.35 2418.32,-738.49"/>
<polygon fill="orange" stroke="orange" points="98.84,-842.34 90.4,-848.74 100.99,-849 98.84,-842.34"/>
<text text-anchor="start" x="1048.5" y="-823.28" font-family="Helvetica,sans-Serif" font-size="10.00"> &lt; boost::shared_ptr</text>
<text text-anchor="start" x="1048.5" y="-812.28" font-family="Helvetica,sans-Serif" font-size="10.00">&lt; RefElement &gt;, indexed</text>
<text text-anchor="start" x="1048.5" y="-801.28" font-family="Helvetica,sans-Serif" font-size="10.00">_by&lt; ordered_unique&lt; tag</text>
<text text-anchor="start" x="1048.5" y="-790.28" font-family="Helvetica,sans-Serif" font-size="10.00">&lt; Ent_mi_tag &gt;, const_mem</text>
<text text-anchor="start" x="1048.5" y="-779.28" font-family="Helvetica,sans-Serif" font-size="10.00">_fun&lt; RefElement::interface</text>
<text text-anchor="start" x="1048.5" y="-768.28" font-family="Helvetica,sans-Serif" font-size="10.00">_type_RefEntity, EntityHandle,</text>
<text text-anchor="middle" x="1124" y="-757.28" font-family="Helvetica,sans-Serif" font-size="10.00"> &amp;RefElement::getEnt &gt; &gt; &gt; &gt;</text>
</g>
<!-- Node23 -->
<g id="node23" class="node">
<title>Node23</title>
<g id="a_node23"><a xlink:title=" ">
<polygon fill="white" stroke="#bfbfbf" points="2663,-624.28 2663,-742.28 2893,-742.28 2893,-624.28 2663,-624.28"/>
<text text-anchor="start" x="2671" y="-730.28" font-family="Helvetica,sans-Serif" font-size="10.00">multi_index_container</text>
<text text-anchor="start" x="2671" y="-719.28" font-family="Helvetica,sans-Serif" font-size="10.00">&lt; boost::shared_ptr&lt;</text>
<text text-anchor="start" x="2671" y="-708.28" font-family="Helvetica,sans-Serif" font-size="10.00"> FieldEntity &gt;, indexed</text>
<text text-anchor="start" x="2671" y="-697.28" font-family="Helvetica,sans-Serif" font-size="10.00">_by&lt; ordered_unique&lt; tag</text>
<text text-anchor="start" x="2671" y="-686.28" font-family="Helvetica,sans-Serif" font-size="10.00">&lt; Unique_mi_tag &gt;, member</text>
<text text-anchor="start" x="2671" y="-675.28" font-family="Helvetica,sans-Serif" font-size="10.00">&lt; FieldEntity, UId, &amp;FieldEntity</text>
<text text-anchor="start" x="2671" y="-664.28" font-family="Helvetica,sans-Serif" font-size="10.00">::localUId &gt; &gt;, ordered_non_unique</text>
<text text-anchor="start" x="2671" y="-653.28" font-family="Helvetica,sans-Serif" font-size="10.00">&lt; tag&lt; Ent_mi_tag &gt;, const_mem_fun</text>
<text text-anchor="start" x="2671" y="-642.28" font-family="Helvetica,sans-Serif" font-size="10.00">&lt; FieldEntity::interface_type_RefEntity,</text>
<text text-anchor="middle" x="2778" y="-631.28" font-family="Helvetica,sans-Serif" font-size="10.00"> EntityHandle, &amp;FieldEntity::getEnt &gt; &gt; &gt; &gt;</text>
</a>
</g>
</g>
<!-- Node4&#45;&gt;Node23 -->
<g id="edge30" class="edge">
<title>Node4&#45;&gt;Node23</title>
<path fill="none" stroke="orange" stroke-dasharray="5,2" d="M71.27,-839.27C82.76,-813.92 106.9,-769.98 143,-750.28 336.06,-644.93 1901.07,-675.11 2121,-676.28 2311.06,-677.3 2532.08,-679.96 2662.94,-681.7"/>
<polygon fill="orange" stroke="orange" points="68,-838 67.24,-848.57 74.43,-840.79 68,-838"/>
<text text-anchor="start" x="1613.5" y="-767.28" font-family="Helvetica,sans-Serif" font-size="10.00"> &lt; boost::shared_ptr</text>
<text text-anchor="start" x="1613.5" y="-756.28" font-family="Helvetica,sans-Serif" font-size="10.00">&lt; FieldEntity &gt;, indexed</text>
<text text-anchor="start" x="1613.5" y="-745.28" font-family="Helvetica,sans-Serif" font-size="10.00">_by&lt; ordered_unique&lt; tag</text>
<text text-anchor="start" x="1613.5" y="-734.28" font-family="Helvetica,sans-Serif" font-size="10.00">&lt; Unique_mi_tag &gt;, member</text>
<text text-anchor="start" x="1613.5" y="-723.28" font-family="Helvetica,sans-Serif" font-size="10.00">&lt; FieldEntity, UId, &amp;FieldEntity</text>
<text text-anchor="start" x="1613.5" y="-712.28" font-family="Helvetica,sans-Serif" font-size="10.00">::localUId &gt; &gt;, ordered_non_unique</text>
<text text-anchor="start" x="1613.5" y="-701.28" font-family="Helvetica,sans-Serif" font-size="10.00">&lt; tag&lt; Ent_mi_tag &gt;, const_mem_fun</text>
<text text-anchor="start" x="1613.5" y="-690.28" font-family="Helvetica,sans-Serif" font-size="10.00">&lt; FieldEntity::interface_type_RefEntity,</text>
<text text-anchor="middle" x="1720.5" y="-679.28" font-family="Helvetica,sans-Serif" font-size="10.00"> EntityHandle, &amp;FieldEntity::getEnt &gt; &gt; &gt; &gt;</text>
</g>
<!-- Node26 -->
<g id="node26" class="node">
<title>Node26</title>
<g id="a_node26"><a xlink:title=" ">
<polygon fill="white" stroke="#bfbfbf" points="2918,-565.28 2918,-705.28 3167,-705.28 3167,-565.28 2918,-565.28"/>
<text text-anchor="start" x="2926" y="-693.28" font-family="Helvetica,sans-Serif" font-size="10.00">multi_index_container</text>
<text text-anchor="start" x="2926" y="-682.28" font-family="Helvetica,sans-Serif" font-size="10.00">&lt; Problem, indexed_by</text>
<text text-anchor="start" x="2926" y="-671.28" font-family="Helvetica,sans-Serif" font-size="10.00">&lt; ordered_unique&lt; tag</text>
<text text-anchor="start" x="2926" y="-660.28" font-family="Helvetica,sans-Serif" font-size="10.00">&lt; Meshset_mi_tag &gt;, member</text>
<text text-anchor="start" x="2926" y="-649.28" font-family="Helvetica,sans-Serif" font-size="10.00">&lt; Problem, EntityHandle, &amp;Problem</text>
<text text-anchor="start" x="2926" y="-638.28" font-family="Helvetica,sans-Serif" font-size="10.00">::meshset &gt; &gt;, hashed_unique&lt; tag</text>
<text text-anchor="start" x="2926" y="-627.28" font-family="Helvetica,sans-Serif" font-size="10.00">&lt; BitProblemId_mi_tag &gt;, const_mem</text>
<text text-anchor="start" x="2926" y="-616.28" font-family="Helvetica,sans-Serif" font-size="10.00">_fun&lt; Problem, BitProblemId, &amp;Problem</text>
<text text-anchor="start" x="2926" y="-605.28" font-family="Helvetica,sans-Serif" font-size="10.00">::getId &gt;, HashBit&lt; BitProblemId &gt;, EqBit</text>
<text text-anchor="start" x="2926" y="-594.28" font-family="Helvetica,sans-Serif" font-size="10.00">&lt; BitProblemId &gt; &gt;, hashed_unique&lt; tag&lt;</text>
<text text-anchor="start" x="2926" y="-583.28" font-family="Helvetica,sans-Serif" font-size="10.00"> Problem_mi_tag &gt;, const_mem_fun&lt; Problem,</text>
<text text-anchor="middle" x="3042.5" y="-572.28" font-family="Helvetica,sans-Serif" font-size="10.00"> std::string, &amp;Problem::getName &gt; &gt; &gt; &gt;</text>
</a>
</g>
</g>
<!-- Node4&#45;&gt;Node26 -->
<g id="edge34" class="edge">
<title>Node4&#45;&gt;Node26</title>
<path fill="none" stroke="orange" stroke-dasharray="5,2" d="M65.53,-838.43C70.67,-799.4 88,-712.95 143,-672.28 354.5,-515.87 1057.32,-560.3 1320,-546.28 1675.49,-527.31 1765.35,-530.42 2121,-546.28 2465.14,-561.63 2550.66,-576.95 2893,-615.28 2901.14,-616.19 2909.53,-617.18 2917.98,-618.22"/>
<polygon fill="orange" stroke="orange" points="62.04,-838.17 64.34,-848.51 68.99,-838.99 62.04,-838.17"/>
<text text-anchor="start" x="1586.5" y="-659.28" font-family="Helvetica,sans-Serif" font-size="10.00"> &lt; Problem, indexed</text>
<text text-anchor="start" x="1586.5" y="-648.28" font-family="Helvetica,sans-Serif" font-size="10.00">_by&lt; ordered_unique</text>
<text text-anchor="start" x="1586.5" y="-637.28" font-family="Helvetica,sans-Serif" font-size="10.00">&lt; tag&lt; Meshset_mi_tag</text>
<text text-anchor="start" x="1586.5" y="-626.28" font-family="Helvetica,sans-Serif" font-size="10.00"> &gt;, member&lt; Problem, EntityHandle,</text>
<text text-anchor="start" x="1586.5" y="-615.28" font-family="Helvetica,sans-Serif" font-size="10.00"> &amp;Problem::meshset &gt; &gt;, hashed</text>
<text text-anchor="start" x="1586.5" y="-604.28" font-family="Helvetica,sans-Serif" font-size="10.00">_unique&lt; tag&lt; BitProblemId_mi_tag</text>
<text text-anchor="start" x="1586.5" y="-593.28" font-family="Helvetica,sans-Serif" font-size="10.00"> &gt;, const_mem_fun&lt; Problem, BitProblemId,</text>
<text text-anchor="start" x="1586.5" y="-582.28" font-family="Helvetica,sans-Serif" font-size="10.00"> &amp;Problem::getId &gt;, HashBit&lt; BitProblemId</text>
<text text-anchor="start" x="1586.5" y="-571.28" font-family="Helvetica,sans-Serif" font-size="10.00"> &gt;, EqBit&lt; BitProblemId &gt; &gt;, hashed_unique</text>
<text text-anchor="start" x="1586.5" y="-560.28" font-family="Helvetica,sans-Serif" font-size="10.00">&lt; tag&lt; Problem_mi_tag &gt;, const_mem_fun&lt; Problem,</text>
<text text-anchor="middle" x="1720.5" y="-549.28" font-family="Helvetica,sans-Serif" font-size="10.00"> std::string, &amp;Problem::getName &gt; &gt; &gt; &gt;</text>
</g>
<!-- Node27 -->
<g id="node27" class="node">
<title>Node27</title>
<g id="a_node27"><a xlink:title=" ">
<polygon fill="white" stroke="#bfbfbf" points="946,-251.78 946,-468.78 1302,-468.78 1302,-251.78 946,-251.78"/>
<text text-anchor="start" x="954" y="-456.78" font-family="Helvetica,sans-Serif" font-size="10.00">multi_index_container</text>
<text text-anchor="start" x="954" y="-445.78" font-family="Helvetica,sans-Serif" font-size="10.00">&lt; boost::shared_ptr&lt;</text>
<text text-anchor="start" x="954" y="-434.78" font-family="Helvetica,sans-Serif" font-size="10.00"> RefEntity &gt;, indexed</text>
<text text-anchor="start" x="954" y="-423.78" font-family="Helvetica,sans-Serif" font-size="10.00">_by&lt; ordered_unique&lt; tag</text>
<text text-anchor="start" x="954" y="-412.78" font-family="Helvetica,sans-Serif" font-size="10.00">&lt; Ent_mi_tag &gt;, const_mem</text>
<text text-anchor="start" x="954" y="-401.78" font-family="Helvetica,sans-Serif" font-size="10.00">_fun&lt; RefEntity, EntityHandle,</text>
<text text-anchor="start" x="954" y="-390.78" font-family="Helvetica,sans-Serif" font-size="10.00"> &amp;RefEntity::getEnt &gt; &gt;, ordered</text>
<text text-anchor="start" x="954" y="-379.78" font-family="Helvetica,sans-Serif" font-size="10.00">_non_unique&lt; tag&lt; Ent_Ent_mi_tag</text>
<text text-anchor="start" x="954" y="-368.78" font-family="Helvetica,sans-Serif" font-size="10.00"> &gt;, const_mem_fun&lt; RefEntity, EntityHandle,</text>
<text text-anchor="start" x="954" y="-357.78" font-family="Helvetica,sans-Serif" font-size="10.00"> &amp;RefEntity::getParentEnt &gt; &gt;, ordered</text>
<text text-anchor="start" x="954" y="-346.78" font-family="Helvetica,sans-Serif" font-size="10.00">_non_unique&lt; tag&lt; Composite_EntType_and</text>
<text text-anchor="start" x="954" y="-335.78" font-family="Helvetica,sans-Serif" font-size="10.00">_ParentEntType_mi_tag &gt;, composite_key&lt; RefEntity,</text>
<text text-anchor="start" x="954" y="-324.78" font-family="Helvetica,sans-Serif" font-size="10.00"> const_mem_fun&lt; RefEntity, EntityType, &amp;RefEntity</text>
<text text-anchor="start" x="954" y="-313.78" font-family="Helvetica,sans-Serif" font-size="10.00">::getEntType &gt;, const_mem_fun&lt; RefEntity, EntityType,</text>
<text text-anchor="start" x="954" y="-302.78" font-family="Helvetica,sans-Serif" font-size="10.00"> &amp;RefEntity::getParentEntType &gt; &gt; &gt;, ordered_non_unique</text>
<text text-anchor="start" x="954" y="-291.78" font-family="Helvetica,sans-Serif" font-size="10.00">&lt; tag&lt; Composite_ParentEnt_And_EntType_mi_tag &gt;, composite</text>
<text text-anchor="start" x="954" y="-280.78" font-family="Helvetica,sans-Serif" font-size="10.00">_key&lt; RefEntity, const_mem_fun&lt; RefEntity, EntityType, &amp;RefEntity</text>
<text text-anchor="start" x="954" y="-269.78" font-family="Helvetica,sans-Serif" font-size="10.00">::getEntType &gt;, const_mem_fun&lt; RefEntity, EntityHandle, &amp;RefEntity</text>
<text text-anchor="middle" x="1124" y="-258.78" font-family="Helvetica,sans-Serif" font-size="10.00">::getParentEnt &gt; &gt; &gt; &gt; &gt;</text>
</a>
</g>
</g>
<!-- Node4&#45;&gt;Node27 -->
<g id="edge36" class="edge">
<title>Node4&#45;&gt;Node27</title>
<path fill="none" stroke="orange" stroke-dasharray="5,2" d="M63.18,-838.45C62.22,-749.89 63.37,-391.95 143,-323.28 364.29,-132.45 729.33,-214.12 945.92,-288.68"/>
<polygon fill="orange" stroke="orange" points="59.69,-838.74 63.32,-848.7 66.68,-838.65 59.69,-838.74"/>
<text text-anchor="start" x="365.5" y="-513.28" font-family="Helvetica,sans-Serif" font-size="10.00"> &lt; boost::shared_ptr</text>
<text text-anchor="start" x="365.5" y="-502.28" font-family="Helvetica,sans-Serif" font-size="10.00">&lt; RefEntity &gt;, indexed</text>
<text text-anchor="start" x="365.5" y="-491.28" font-family="Helvetica,sans-Serif" font-size="10.00">_by&lt; ordered_unique&lt; tag</text>
<text text-anchor="start" x="365.5" y="-480.28" font-family="Helvetica,sans-Serif" font-size="10.00">&lt; Ent_mi_tag &gt;, const_mem</text>
<text text-anchor="start" x="365.5" y="-469.28" font-family="Helvetica,sans-Serif" font-size="10.00">_fun&lt; RefEntity, EntityHandle,</text>
<text text-anchor="start" x="365.5" y="-458.28" font-family="Helvetica,sans-Serif" font-size="10.00"> &amp;RefEntity::getEnt &gt; &gt;, ordered</text>
<text text-anchor="start" x="365.5" y="-447.28" font-family="Helvetica,sans-Serif" font-size="10.00">_non_unique&lt; tag&lt; Ent_Ent_mi_tag</text>
<text text-anchor="start" x="365.5" y="-436.28" font-family="Helvetica,sans-Serif" font-size="10.00"> &gt;, const_mem_fun&lt; RefEntity, EntityHandle,</text>
<text text-anchor="start" x="365.5" y="-425.28" font-family="Helvetica,sans-Serif" font-size="10.00"> &amp;RefEntity::getParentEnt &gt; &gt;, ordered</text>
<text text-anchor="start" x="365.5" y="-414.28" font-family="Helvetica,sans-Serif" font-size="10.00">_non_unique&lt; tag&lt; Composite_EntType_and</text>
<text text-anchor="start" x="365.5" y="-403.28" font-family="Helvetica,sans-Serif" font-size="10.00">_ParentEntType_mi_tag &gt;, composite_key&lt; RefEntity,</text>
<text text-anchor="start" x="365.5" y="-392.28" font-family="Helvetica,sans-Serif" font-size="10.00"> const_mem_fun&lt; RefEntity, EntityType, &amp;RefEntity</text>
<text text-anchor="start" x="365.5" y="-381.28" font-family="Helvetica,sans-Serif" font-size="10.00">::getEntType &gt;, const_mem_fun&lt; RefEntity, EntityType,</text>
<text text-anchor="start" x="365.5" y="-370.28" font-family="Helvetica,sans-Serif" font-size="10.00"> &amp;RefEntity::getParentEntType &gt; &gt; &gt;, ordered_non_unique</text>
<text text-anchor="start" x="365.5" y="-359.28" font-family="Helvetica,sans-Serif" font-size="10.00">&lt; tag&lt; Composite_ParentEnt_And_EntType_mi_tag &gt;, composite</text>
<text text-anchor="start" x="365.5" y="-348.28" font-family="Helvetica,sans-Serif" font-size="10.00">_key&lt; RefEntity, const_mem_fun&lt; RefEntity, EntityType, &amp;RefEntity</text>
<text text-anchor="start" x="365.5" y="-337.28" font-family="Helvetica,sans-Serif" font-size="10.00">::getEntType &gt;, const_mem_fun&lt; RefEntity, EntityHandle, &amp;RefEntity</text>
<text text-anchor="middle" x="535.5" y="-326.28" font-family="Helvetica,sans-Serif" font-size="10.00">::getParentEnt &gt; &gt; &gt; &gt; &gt;</text>
</g>
<!-- Node5 -->
<g id="node5" class="node">
<title>Node5</title>
<g id="a_node5"><a xlink:href="structMoFEM_1_1CoreTmp_3_010_01_4.html" target="_top" xlink:title="Core (interface) class.">
<polygon fill="white" stroke="black" points="3612,-607.78 3612,-626.78 3743,-626.78 3743,-607.78 3612,-607.78"/>
<text text-anchor="middle" x="3677.5" y="-614.78" font-family="Helvetica,sans-Serif" font-size="10.00">MoFEM::CoreTmp&lt; 0 &gt;</text>
</a>
</g>
</g>
<!-- Node5&#45;&gt;Node1 -->
<g id="edge4" class="edge">
<title>Node5&#45;&gt;Node1</title>
<path fill="none" stroke="#9a32cd" stroke-dasharray="5,2" d="M3688.86,-636.18C3724.4,-701.02 3840.59,-912.97 3866.74,-960.68"/>
<polygon fill="#9a32cd" stroke="#9a32cd" points="3691.75,-634.18 3683.88,-627.09 3685.61,-637.54 3691.75,-634.18"/>
<text text-anchor="middle" x="3774" y="-817.28" font-family="Helvetica,sans-Serif" font-size="10.00"> cOre</text>
</g>
<!-- Node6 -->
<g id="node6" class="node">
<title>Node6</title>
<g id="a_node6"><a xlink:href="structMoFEM_1_1DeprecatedCoreInterface.html" target="_top" xlink:title="Deprecated interface functions.">
<polygon fill="white" stroke="black" points="3274.5,-1248.78 3274.5,-1267.78 3334.5,-1267.78 3334.5,-1248.78 3274.5,-1248.78"/>
<text text-anchor="middle" x="3304.5" y="-1255.78" font-family="Helvetica,sans-Serif" font-size="10.00">Interface</text>
</a>
</g>
</g>
<!-- Node6&#45;&gt;Node5 -->
<g id="edge5" class="edge">
<title>Node6&#45;&gt;Node5</title>
<path fill="none" stroke="midnightblue" d="M3344.52,-1268.46C3406.38,-1282 3526.82,-1297.4 3594,-1233.28 3640.05,-1189.33 3671.31,-702.9 3675.91,-627.17"/>
<polygon fill="midnightblue" stroke="midnightblue" points="3345.28,-1265.04 3334.75,-1266.23 3343.72,-1271.87 3345.28,-1265.04"/>
</g>
<!-- Node7&#45;&gt;Node6 -->
<g id="edge6" class="edge">
<title>Node7&#45;&gt;Node6</title>
<path fill="none" stroke="midnightblue" d="M2850.99,-1258.28C2967.97,-1258.28 3194.28,-1258.28 3274.47,-1258.28"/>
<polygon fill="midnightblue" stroke="midnightblue" points="2850.71,-1254.78 2840.71,-1258.28 2850.71,-1261.78 2850.71,-1254.78"/>
</g>
<!-- Node8&#45;&gt;Node5 -->
<g id="edge8" class="edge">
<title>Node8&#45;&gt;Node5</title>
<path fill="none" stroke="#9a32cd" stroke-dasharray="5,2" d="M2131.03,-1237.54C2250.16,-1227.19 2380.62,-1219.28 2501,-1219.28 2501,-1219.28 2501,-1219.28 3305.5,-1219.28 3456.16,-1219.28 3508.3,-1165.2 3594,-1041.28 3643.16,-970.2 3670.68,-683.38 3675.67,-626.95"/>
<polygon fill="#9a32cd" stroke="#9a32cd" points="2130.66,-1234.06 2121.01,-1238.42 2131.28,-1241.03 2130.66,-1234.06"/>
<text text-anchor="middle" x="2778" y="-1222.28" font-family="Helvetica,sans-Serif" font-size="10.00"> entFEAdjacencies</text>
</g>
<!-- Node9 -->
<g id="node9" class="node">
<title>Node9</title>
<g id="a_node9"><a xlink:title=" ">
<polygon fill="white" stroke="#bfbfbf" points="3272,-596.78 3272,-615.78 3337,-615.78 3337,-596.78 3272,-596.78"/>
<text text-anchor="middle" x="3304.5" y="-603.78" font-family="Helvetica,sans-Serif" font-size="10.00">PetscBool</text>
</a>
</g>
</g>
<!-- Node9&#45;&gt;Node5 -->
<g id="edge10" class="edge">
<title>Node9&#45;&gt;Node5</title>
<path fill="none" stroke="#9a32cd" stroke-dasharray="5,2" d="M3347.31,-607.52C3411.71,-609.43 3535.66,-613.11 3611.73,-615.36"/>
<polygon fill="#9a32cd" stroke="#9a32cd" points="3347.23,-604.02 3337.13,-607.22 3347.02,-611.01 3347.23,-604.02"/>
<text text-anchor="middle" x="3514.5" y="-639.28" font-family="Helvetica,sans-Serif" font-size="10.00"> initaliseAndBuildFiniteElements</text>
<text text-anchor="middle" x="3514.5" y="-628.28" font-family="Helvetica,sans-Serif" font-size="10.00">isInitialized</text>
<text text-anchor="middle" x="3514.5" y="-617.28" font-family="Helvetica,sans-Serif" font-size="10.00">initaliseAndBuildField</text>
</g>
<!-- Node10&#45;&gt;Node5 -->
<g id="edge11" class="edge">
<title>Node10&#45;&gt;Node5</title>
<path fill="none" stroke="#9a32cd" stroke-dasharray="5,2" d="M2655.35,-1127.23C2926.03,-1132.36 3473.7,-1125.08 3594,-988.28 3643.89,-931.55 3670.54,-679.44 3675.61,-626.9"/>
<polygon fill="#9a32cd" stroke="#9a32cd" points="2655.12,-1123.72 2645.05,-1127.02 2654.98,-1130.72 2655.12,-1123.72"/>
<text text-anchor="middle" x="3042.5" y="-1129.28" font-family="Helvetica,sans-Serif" font-size="10.00"> fIelds</text>
</g>
<!-- Node11&#45;&gt;Node5 -->
<g id="edge13" class="edge">
<title>Node11&#45;&gt;Node5</title>
<path fill="none" stroke="#9a32cd" stroke-dasharray="5,2" d="M3184.41,-1035.75C3307.65,-1043.62 3483.69,-1033.58 3594,-934.28 3641.97,-891.1 3669.74,-675.25 3675.41,-626.9"/>
<polygon fill="#9a32cd" stroke="#9a32cd" points="3184.37,-1032.24 3174.15,-1035.04 3183.89,-1039.22 3184.37,-1032.24"/>
<text text-anchor="middle" x="3304.5" y="-1040.28" font-family="Helvetica,sans-Serif" font-size="10.00"> finiteElements</text>
</g>
<!-- Node12 -->
<g id="node12" class="node">
<title>Node12</title>
<g id="a_node12"><a xlink:title=" ">
<polygon fill="white" stroke="#bfbfbf" points="3288,-473.78 3288,-492.78 3321,-492.78 3321,-473.78 3288,-473.78"/>
<text text-anchor="middle" x="3304.5" y="-480.78" font-family="Helvetica,sans-Serif" font-size="10.00">Tag</text>
</a>
</g>
</g>
<!-- Node12&#45;&gt;Node5 -->
<g id="edge15" class="edge">
<title>Node12&#45;&gt;Node5</title>
<path fill="none" stroke="#9a32cd" stroke-dasharray="5,2" d="M3331.5,-480.23C3393.76,-473.43 3549.56,-459.45 3594,-484.28 3643.1,-511.72 3666.74,-581.74 3673.99,-607.54"/>
<polygon fill="#9a32cd" stroke="#9a32cd" points="3330.89,-476.78 3321.34,-481.37 3331.67,-483.74 3330.89,-476.78"/>
<text text-anchor="middle" x="3514.5" y="-597.28" font-family="Helvetica,sans-Serif" font-size="10.00"> th_FieldId</text>
<text text-anchor="middle" x="3514.5" y="-586.28" font-family="Helvetica,sans-Serif" font-size="10.00">th_RefBitLevel_Mask</text>
<text text-anchor="middle" x="3514.5" y="-575.28" font-family="Helvetica,sans-Serif" font-size="10.00">th_ProblemName</text>
<text text-anchor="middle" x="3514.5" y="-564.28" font-family="Helvetica,sans-Serif" font-size="10.00">th_ProblemFEId</text>
<text text-anchor="middle" x="3514.5" y="-553.28" font-family="Helvetica,sans-Serif" font-size="10.00">th_FieldContinuity</text>
<text text-anchor="middle" x="3514.5" y="-542.28" font-family="Helvetica,sans-Serif" font-size="10.00">th_FieldBase</text>
<text text-anchor="middle" x="3514.5" y="-531.28" font-family="Helvetica,sans-Serif" font-size="10.00">th_ProblemGhostNbDofCol</text>
<text text-anchor="middle" x="3514.5" y="-520.28" font-family="Helvetica,sans-Serif" font-size="10.00">th_ProblemGhostNbDofRow</text>
<text text-anchor="middle" x="3514.5" y="-509.28" font-family="Helvetica,sans-Serif" font-size="10.00">th_FEIdCol</text>
<text text-anchor="middle" x="3514.5" y="-498.28" font-family="Helvetica,sans-Serif" font-size="10.00">th_RefBitEdge</text>
<text text-anchor="middle" x="3514.5" y="-487.28" font-family="Helvetica,sans-Serif" font-size="10.00">...</text>
</g>
<!-- Node13&#45;&gt;Node5 -->
<g id="edge16" class="edge">
<title>Node13&#45;&gt;Node5</title>
<path fill="none" stroke="#9a32cd" stroke-dasharray="5,2" d="M1853.11,-931.01C2140.04,-938.74 2842.31,-943.73 3417,-835.28 3496.87,-820.21 3531.26,-840.95 3594,-789.28 3648.2,-744.65 3669.21,-655.98 3674.83,-626.82"/>
<polygon fill="#9a32cd" stroke="#9a32cd" points="1853.17,-927.51 1843.08,-930.73 1852.98,-934.5 1853.17,-927.51"/>
<text text-anchor="middle" x="2778" y="-922.28" font-family="Helvetica,sans-Serif" font-size="10.00"> entsFiniteElements</text>
</g>
<!-- Node14 -->
<g id="node14" class="node">
<title>Node14</title>
<g id="a_node14"><a xlink:title=" ">
<polygon fill="white" stroke="#bfbfbf" points="3246.5,-424.28 3246.5,-454.28 3362.5,-454.28 3362.5,-424.28 3246.5,-424.28"/>
<text text-anchor="start" x="3254.5" y="-442.28" font-family="Helvetica,sans-Serif" font-size="10.00">reference_wrapper&lt;</text>
<text text-anchor="middle" x="3304.5" y="-431.28" font-family="Helvetica,sans-Serif" font-size="10.00"> moab::Interface &gt;</text>
</a>
</g>
</g>
<!-- Node14&#45;&gt;Node5 -->
<g id="edge18" class="edge">
<title>Node14&#45;&gt;Node5</title>
<path fill="none" stroke="#9a32cd" stroke-dasharray="5,2" d="M3372.8,-424.87C3435.29,-415.38 3528.3,-411.51 3594,-454.28 3650.35,-490.97 3669.95,-578.68 3675.02,-607.74"/>
<polygon fill="#9a32cd" stroke="#9a32cd" points="3371.97,-421.46 3362.66,-426.5 3373.09,-428.37 3371.97,-421.46"/>
<text text-anchor="middle" x="3514.5" y="-457.28" font-family="Helvetica,sans-Serif" font-size="10.00"> moab</text>
</g>
<!-- Node15&#45;&gt;Node5 -->
<g id="edge19" class="edge">
<title>Node15&#45;&gt;Node5</title>
<path fill="none" stroke="#9a32cd" stroke-dasharray="5,2" d="M2351.53,-842.74C2636.03,-854.83 3385.79,-873.69 3594,-749.28 3642.02,-720.59 3666.32,-651.99 3673.87,-626.78"/>
<polygon fill="#9a32cd" stroke="#9a32cd" points="2351.34,-839.23 2341.2,-842.29 2351.04,-846.22 2351.34,-839.23"/>
<text text-anchor="middle" x="3042.5" y="-852.28" font-family="Helvetica,sans-Serif" font-size="10.00"> dofsField</text>
</g>
<!-- Node16 -->
<g id="node16" class="node">
<title>Node16</title>
<g id="a_node16"><a xlink:title=" ">
<polygon fill="white" stroke="#bfbfbf" points="3258,-385.78 3258,-404.78 3351,-404.78 3351,-385.78 3258,-385.78"/>
<text text-anchor="middle" x="3304.5" y="-392.78" font-family="Helvetica,sans-Serif" font-size="10.00">ParallelComm *</text>
</a>
</g>
</g>
<!-- Node16&#45;&gt;Node5 -->
<g id="edge21" class="edge">
<title>Node16&#45;&gt;Node5</title>
<path fill="none" stroke="#9a32cd" stroke-dasharray="5,2" d="M3361.01,-389.97C3434.18,-384.14 3557.87,-378.69 3594,-404.28 3664.23,-454.02 3674.67,-572.48 3676.23,-607.42"/>
<polygon fill="#9a32cd" stroke="#9a32cd" points="3360.71,-386.48 3351.04,-390.79 3361.29,-393.46 3360.71,-386.48"/>
<text text-anchor="middle" x="3514.5" y="-407.28" font-family="Helvetica,sans-Serif" font-size="10.00"> pComm</text>
</g>
<!-- Node17&#45;&gt;Node5 -->
<g id="edge22" class="edge">
<title>Node17&#45;&gt;Node5</title>
<path fill="none" stroke="#9a32cd" stroke-dasharray="5,2" d="M2595.76,-753C2760.99,-755.44 3117.08,-757.96 3417,-741.28 3495.87,-736.89 3524.85,-763.45 3594,-725.28 3635.52,-702.37 3662.7,-648.86 3672.46,-626.92"/>
<polygon fill="#9a32cd" stroke="#9a32cd" points="2595.69,-749.5 2585.63,-752.84 2595.58,-756.49 2595.69,-749.5"/>
<text text-anchor="middle" x="3042.5" y="-757.28" font-family="Helvetica,sans-Serif" font-size="10.00"> refinedFiniteElements</text>
</g>
<!-- Node18 -->
<g id="node18" class="node">
<title>Node18</title>
<g id="a_node18"><a xlink:title=" ">
<polygon fill="white" stroke="#bfbfbf" points="3290,-312.78 3290,-331.78 3319,-331.78 3319,-312.78 3290,-312.78"/>
<text text-anchor="middle" x="3304.5" y="-319.78" font-family="Helvetica,sans-Serif" font-size="10.00">int</text>
</a>
</g>
</g>
<!-- Node18&#45;&gt;Node5 -->
<g id="edge24" class="edge">
<title>Node18&#45;&gt;Node5</title>
<path fill="none" stroke="#9a32cd" stroke-dasharray="5,2" d="M3328.99,-317.99C3390.23,-307.36 3552.87,-282.86 3594,-314.28 3643.06,-351.77 3669.89,-560.11 3675.42,-607.63"/>
<polygon fill="#9a32cd" stroke="#9a32cd" points="3328.34,-314.55 3319.11,-319.74 3329.56,-321.44 3328.34,-314.55"/>
<text text-anchor="middle" x="3514.5" y="-372.28" font-family="Helvetica,sans-Serif" font-size="10.00"> sIze</text>
<text text-anchor="middle" x="3514.5" y="-361.28" font-family="Helvetica,sans-Serif" font-size="10.00">mpiInitialised</text>
<text text-anchor="middle" x="3514.5" y="-350.28" font-family="Helvetica,sans-Serif" font-size="10.00">value</text>
<text text-anchor="middle" x="3514.5" y="-339.28" font-family="Helvetica,sans-Serif" font-size="10.00">verbose</text>
<text text-anchor="middle" x="3514.5" y="-328.28" font-family="Helvetica,sans-Serif" font-size="10.00">buildMoFEM</text>
<text text-anchor="middle" x="3514.5" y="-317.28" font-family="Helvetica,sans-Serif" font-size="10.00">rAnk</text>
</g>
<!-- Node19 -->
<g id="node19" class="node">
<title>Node19</title>
<g id="a_node19"><a xlink:href="classbool.html" target="_top" xlink:title=" ">
<polygon fill="white" stroke="black" points="3285.5,-274.78 3285.5,-293.78 3323.5,-293.78 3323.5,-274.78 3285.5,-274.78"/>
<text text-anchor="middle" x="3304.5" y="-281.78" font-family="Helvetica,sans-Serif" font-size="10.00">bool</text>
</a>
</g>
</g>
<!-- Node19&#45;&gt;Node5 -->
<g id="edge25" class="edge">
<title>Node19&#45;&gt;Node5</title>
<path fill="none" stroke="#9a32cd" stroke-dasharray="5,2" d="M3333.9,-279.91C3398.58,-270.63 3554.3,-252.19 3594,-283.28 3647.61,-325.26 3671.17,-557.4 3675.68,-607.67"/>
<polygon fill="#9a32cd" stroke="#9a32cd" points="3333.01,-276.51 3323.63,-281.42 3334.03,-283.43 3333.01,-276.51"/>
<text text-anchor="middle" x="3514.5" y="-286.28" font-family="Helvetica,sans-Serif" font-size="10.00"> isGloballyInitialised</text>
</g>
<!-- Node20 -->
<g id="node20" class="node">
<title>Node20</title>
<g id="a_node20"><a xlink:title=" ">
<polygon fill="white" stroke="#bfbfbf" points="3282.5,-236.78 3282.5,-255.78 3326.5,-255.78 3326.5,-236.78 3282.5,-236.78"/>
<text text-anchor="middle" x="3304.5" y="-243.78" font-family="Helvetica,sans-Serif" font-size="10.00">string</text>
</a>
</g>
</g>
<!-- Node20&#45;&gt;Node5 -->
<g id="edge26" class="edge">
<title>Node20&#45;&gt;Node5</title>
<path fill="none" stroke="#9a32cd" stroke-dasharray="5,2" d="M3336.83,-242.05C3403.28,-233.8 3555.41,-218.96 3594,-250.28 3652.06,-297.4 3672.26,-553.89 3675.88,-607.47"/>
<polygon fill="#9a32cd" stroke="#9a32cd" points="3336.04,-238.62 3326.57,-243.36 3336.93,-245.56 3336.04,-238.62"/>
<text text-anchor="middle" x="3514.5" y="-253.28" font-family="Helvetica,sans-Serif" font-size="10.00"> optionsPrefix</text>
</g>
<!-- Node21 -->
<g id="node21" class="node">
<title>Node21</title>
<g id="a_node21"><a xlink:title=" ">
<polygon fill="white" stroke="#bfbfbf" points="3243.5,-187.28 3243.5,-217.28 3365.5,-217.28 3365.5,-187.28 3243.5,-187.28"/>
<text text-anchor="start" x="3251.5" y="-205.28" font-family="Helvetica,sans-Serif" font-size="10.00">shared_ptr&lt; MoFEM::</text>
<text text-anchor="middle" x="3304.5" y="-194.28" font-family="Helvetica,sans-Serif" font-size="10.00">WrapMPIComm &gt;</text>
</a>
</g>
</g>
<!-- Node21&#45;&gt;Node5 -->
<g id="edge27" class="edge">
<title>Node21&#45;&gt;Node5</title>
<path fill="none" stroke="#9a32cd" stroke-dasharray="5,2" d="M3376.06,-195.93C3450.84,-190.81 3562.41,-188.31 3594,-215.28 3656.45,-268.6 3673.32,-551.81 3676.07,-607.7"/>
<polygon fill="#9a32cd" stroke="#9a32cd" points="3375.49,-192.46 3365.77,-196.66 3375.99,-199.44 3375.49,-192.46"/>
<text text-anchor="middle" x="3514.5" y="-218.28" font-family="Helvetica,sans-Serif" font-size="10.00"> wrapMPIMOABComm</text>
</g>
<!-- Node22 -->
<g id="node22" class="node">
<title>Node22</title>
<g id="a_node22"><a xlink:title=" ">
<polygon fill="white" stroke="#bfbfbf" points="3260.5,-147.78 3260.5,-166.78 3348.5,-166.78 3348.5,-147.78 3260.5,-147.78"/>
<text text-anchor="middle" x="3304.5" y="-154.78" font-family="Helvetica,sans-Serif" font-size="10.00">PetscLogEvent</text>
</a>
</g>
</g>
<!-- Node22&#45;&gt;Node5 -->
<g id="edge28" class="edge">
<title>Node22&#45;&gt;Node5</title>
<path fill="none" stroke="#9a32cd" stroke-dasharray="5,2" d="M3358.79,-151.05C3437.24,-142.44 3576.48,-129.56 3594,-144.28 3668.17,-206.64 3675.67,-545.88 3676.42,-607.63"/>
<polygon fill="#9a32cd" stroke="#9a32cd" points="3358.16,-147.6 3348.61,-152.18 3358.93,-154.55 3358.16,-147.6"/>
<text text-anchor="middle" x="3514.5" y="-180.28" font-family="Helvetica,sans-Serif" font-size="10.00"> MOFEM_EVENT_createMat</text>
<text text-anchor="middle" x="3514.5" y="-169.28" font-family="Helvetica,sans-Serif" font-size="10.00">MOFEM_EVENT_postProcess</text>
<text text-anchor="middle" x="3514.5" y="-158.28" font-family="Helvetica,sans-Serif" font-size="10.00">MOFEM_EVENT_preProcess</text>
<text text-anchor="middle" x="3514.5" y="-147.28" font-family="Helvetica,sans-Serif" font-size="10.00">MOFEM_EVENT_operator</text>
</g>
<!-- Node23&#45;&gt;Node5 -->
<g id="edge29" class="edge">
<title>Node23&#45;&gt;Node5</title>
<path fill="none" stroke="#9a32cd" stroke-dasharray="5,2" d="M2903.26,-714.27C2905.86,-714.64 2908.44,-714.98 2911,-715.28 3134.3,-741.96 3192.26,-723.52 3417,-715.28 3495.83,-712.39 3522.53,-735.65 3594,-702.28 3630.15,-685.4 3658.89,-645.29 3670.69,-626.85"/>
<polygon fill="#9a32cd" stroke="#9a32cd" points="2903.59,-710.78 2893.17,-712.72 2902.52,-717.7 2903.59,-710.78"/>
<text text-anchor="middle" x="3304.5" y="-729.28" font-family="Helvetica,sans-Serif" font-size="10.00"> entsFields</text>
</g>
<!-- Node24 -->
<g id="node24" class="node">
<title>Node24</title>
<g id="a_node24"><a xlink:title=" ">
<polygon fill="white" stroke="#bfbfbf" points="3243.5,-98.28 3243.5,-128.28 3365.5,-128.28 3365.5,-98.28 3243.5,-98.28"/>
<text text-anchor="start" x="3251.5" y="-116.28" font-family="Helvetica,sans-Serif" font-size="10.00">shared_ptr&lt; MoFEM::</text>
<text text-anchor="middle" x="3304.5" y="-105.28" font-family="Helvetica,sans-Serif" font-size="10.00">BasicEntityData &gt;</text>
</a>
</g>
</g>
<!-- Node24&#45;&gt;Node5 -->
<g id="edge31" class="edge">
<title>Node24&#45;&gt;Node5</title>
<path fill="none" stroke="#9a32cd" stroke-dasharray="5,2" d="M3375.87,-105.68C3450.75,-99.25 3562.7,-94.91 3594,-122.28 3670.41,-189.09 3676.07,-544.34 3676.47,-607.63"/>
<polygon fill="#9a32cd" stroke="#9a32cd" points="3375.21,-102.22 3365.56,-106.6 3375.83,-109.2 3375.21,-102.22"/>
<text text-anchor="middle" x="3514.5" y="-125.28" font-family="Helvetica,sans-Serif" font-size="10.00"> basicEntityDataPtr</text>
</g>
<!-- Node25 -->
<g id="node25" class="node">
<title>Node25</title>
<g id="a_node25"><a xlink:title=" ">
<polygon fill="white" stroke="#bfbfbf" points="3268.5,-59.78 3268.5,-78.78 3340.5,-78.78 3340.5,-59.78 3268.5,-59.78"/>
<text text-anchor="middle" x="3304.5" y="-66.78" font-family="Helvetica,sans-Serif" font-size="10.00">MPI_Comm</text>
</a>
</g>
</g>
<!-- Node25&#45;&gt;Node5 -->
<g id="edge32" class="edge">
<title>Node25&#45;&gt;Node5</title>
<path fill="none" stroke="#9a32cd" stroke-dasharray="5,2" d="M3350.82,-65.18C3423,-59.7 3559.45,-53.98 3594,-85.28 3674.86,-158.55 3676.85,-540.75 3676.57,-607.37"/>
<polygon fill="#9a32cd" stroke="#9a32cd" points="3350.35,-61.7 3340.66,-65.98 3350.91,-68.68 3350.35,-61.7"/>
<text text-anchor="middle" x="3514.5" y="-88.28" font-family="Helvetica,sans-Serif" font-size="10.00"> mofemComm</text>
</g>
<!-- Node26&#45;&gt;Node5 -->
<g id="edge33" class="edge">
<title>Node26&#45;&gt;Node5</title>
<path fill="none" stroke="#9a32cd" stroke-dasharray="5,2" d="M3176.97,-672.88C3290.56,-698.43 3456.67,-720.33 3594,-676.28 3624.18,-666.6 3652.71,-641.36 3666.98,-627.23"/>
<polygon fill="#9a32cd" stroke="#9a32cd" points="3177.7,-669.46 3167.17,-670.64 3176.14,-676.29 3177.7,-669.46"/>
<text text-anchor="middle" x="3304.5" y="-704.28" font-family="Helvetica,sans-Serif" font-size="10.00"> pRoblems</text>
</g>
<!-- Node27&#45;&gt;Node5 -->
<g id="edge35" class="edge">
<title>Node27&#45;&gt;Node5</title>
<path fill="none" stroke="#9a32cd" stroke-dasharray="5,2" d="M1311.97,-314.82C1707.41,-230.69 2636.27,-98.29 3174,-556.28 3198.13,-576.83 3167.99,-604.6 3192,-625.28 3259.82,-683.71 3506.18,-668.67 3594,-651.28 3617.55,-646.62 3642.83,-635.14 3659.11,-626.8"/>
<polygon fill="#9a32cd" stroke="#9a32cd" points="1311.2,-311.4 1302.15,-316.92 1312.66,-318.25 1311.2,-311.4"/>
<text text-anchor="middle" x="2778" y="-381.28" font-family="Helvetica,sans-Serif" font-size="10.00"> refinedEntities</text>
</g>
<!-- Node28 -->
<g id="node28" class="node">
<title>Node28</title>
<g id="a_node28"><a xlink:title=" ">
<polygon fill="white" stroke="#bfbfbf" points="3192,-10.28 3192,-40.28 3417,-40.28 3417,-10.28 3192,-10.28"/>
<text text-anchor="start" x="3200" y="-28.28" font-family="Helvetica,sans-Serif" font-size="10.00">ptr_map&lt; boost::typeindex</text>
<text text-anchor="middle" x="3304.5" y="-17.28" font-family="Helvetica,sans-Serif" font-size="10.00">::type_index, MoFEM::UnknownInterface &gt;</text>
</a>
</g>
</g>
<!-- Node28&#45;&gt;Node5 -->
<g id="edge37" class="edge">
<title>Node28&#45;&gt;Node5</title>
<path fill="none" stroke="#9a32cd" stroke-dasharray="5,2" d="M3373.47,-8.27C3438.68,3.62 3535.59,8.96 3594,-45.28 3680.21,-125.33 3677.7,-538.68 3676.68,-607.55"/>
<polygon fill="#9a32cd" stroke="#9a32cd" points="3372.45,-4.9 3363.29,-10.22 3373.77,-11.77 3372.45,-4.9"/>
<text text-anchor="middle" x="3514.5" y="-48.28" font-family="Helvetica,sans-Serif" font-size="10.00"> iFaces</text>
</g>
</g>
</svg>
