<?xml version="1.0" encoding="UTF-8" standalone="no"?>
<!DOCTYPE svg PUBLIC "-//W3C//DTD SVG 1.1//EN"
 "http://www.w3.org/Graphics/SVG/1.1/DTD/svg11.dtd">
<!-- Generated by graphviz version 2.43.0 (0)
 -->
<!-- Title: MoFEM::FEDofEntity Pages: 1 -->
<svg width="2261pt" height="197pt"
 viewBox="0.00 0.00 2261.00 197.40" xmlns="http://www.w3.org/2000/svg" xmlns:xlink="http://www.w3.org/1999/xlink">
<g id="graph0" class="graph" transform="scale(1 1) rotate(0) translate(4 193.4)">
<title>MoFEM::FEDofEntity</title>
<polygon fill="white" stroke="transparent" points="-4,4 -4,-193.4 2257,-193.4 2257,4 -4,4"/>
<!-- Node1 -->
<g id="node1" class="node">
<title>Node1</title>
<g id="a_node1"><a xlink:title="keeps information about indexed dofs for the finite element">
<polygon fill="#bfbfbf" stroke="black" points="2137,-40.5 2137,-59.5 2253,-59.5 2253,-40.5 2137,-40.5"/>
<text text-anchor="middle" x="2195" y="-47.5" font-family="Helvetica,sans-Serif" font-size="10.00">MoFEM::FEDofEntity</text>
</a>
</g>
</g>
<!-- Node2 -->
<g id="node2" class="node">
<title>Node2</title>
<g id="a_node2"><a xlink:href="structMoFEM_1_1DofEntity.html" target="_top" xlink:title="keeps information about DOF on the entity">
<polygon fill="white" stroke="black" points="1996,-40.5 1996,-59.5 2100,-59.5 2100,-40.5 1996,-40.5"/>
<text text-anchor="middle" x="2048" y="-47.5" font-family="Helvetica,sans-Serif" font-size="10.00">MoFEM::DofEntity</text>
</a>
</g>
</g>
<!-- Node2&#45;&gt;Node1 -->
<g id="edge1" class="edge">
<title>Node2&#45;&gt;Node1</title>
<path fill="none" stroke="midnightblue" d="M2110.33,-50C2119.15,-50 2128.19,-50 2136.92,-50"/>
<polygon fill="midnightblue" stroke="midnightblue" points="2110.12,-46.5 2100.12,-50 2110.12,-53.5 2110.12,-46.5"/>
</g>
<!-- Node3 -->
<g id="node3" class="node">
<title>Node3</title>
<g id="a_node3"><a xlink:href="structMoFEM_1_1interface__FieldEntity.html" target="_top" xlink:title=" ">
<polygon fill="white" stroke="black" points="1782,-66 1782,-96 1941,-96 1941,-66 1782,-66"/>
<text text-anchor="start" x="1790" y="-84" font-family="Helvetica,sans-Serif" font-size="10.00">MoFEM::interface_FieldEntity</text>
<text text-anchor="middle" x="1861.5" y="-73" font-family="Helvetica,sans-Serif" font-size="10.00">&lt; FieldEntity &gt;</text>
</a>
</g>
</g>
<!-- Node3&#45;&gt;Node2 -->
<g id="edge2" class="edge">
<title>Node3&#45;&gt;Node2</title>
<path fill="none" stroke="midnightblue" d="M1951.06,-66.12C1966.41,-63.54 1981.89,-60.94 1995.81,-58.6"/>
<polygon fill="midnightblue" stroke="midnightblue" points="1950.29,-62.7 1941.01,-67.81 1951.45,-69.6 1950.29,-62.7"/>
</g>
<!-- Node4 -->
<g id="node4" class="node">
<title>Node4</title>
<g id="a_node4"><a xlink:href="structMoFEM_1_1interface__Field.html" target="_top" xlink:title=" ">
<polygon fill="white" stroke="black" points="1294,-44 1294,-74 1443,-74 1443,-44 1294,-44"/>
<text text-anchor="start" x="1302" y="-62" font-family="Helvetica,sans-Serif" font-size="10.00">MoFEM::interface_Field</text>
<text text-anchor="middle" x="1368.5" y="-51" font-family="Helvetica,sans-Serif" font-size="10.00">&lt; FieldEntity, FieldEntity &gt;</text>
</a>
</g>
</g>
<!-- Node4&#45;&gt;Node3 -->
<g id="edge3" class="edge">
<title>Node4&#45;&gt;Node3</title>
<path fill="none" stroke="midnightblue" d="M1453.11,-62.75C1545.03,-66.87 1691.6,-73.43 1781.6,-77.46"/>
<polygon fill="midnightblue" stroke="midnightblue" points="1453.15,-59.24 1443.01,-62.29 1452.84,-66.24 1453.15,-59.24"/>
</g>
<!-- Node5 -->
<g id="node5" class="node">
<title>Node5</title>
<g id="a_node5"><a xlink:href="structMoFEM_1_1interface__FieldImpl.html" target="_top" xlink:title=" ">
<polygon fill="white" stroke="black" points="970,-35 970,-65 1122,-65 1122,-35 970,-35"/>
<text text-anchor="start" x="978" y="-53" font-family="Helvetica,sans-Serif" font-size="10.00">MoFEM::interface_FieldImpl</text>
<text text-anchor="middle" x="1046" y="-42" font-family="Helvetica,sans-Serif" font-size="10.00">&lt; FieldEntity, FieldEntity &gt;</text>
</a>
</g>
</g>
<!-- Node5&#45;&gt;Node4 -->
<g id="edge4" class="edge">
<title>Node5&#45;&gt;Node4</title>
<path fill="none" stroke="midnightblue" d="M1132.36,-52.4C1182.71,-53.81 1245.79,-55.58 1293.93,-56.93"/>
<polygon fill="midnightblue" stroke="midnightblue" points="1132.24,-48.89 1122.14,-52.11 1132.04,-55.89 1132.24,-48.89"/>
</g>
<!-- Node6 -->
<g id="node6" class="node">
<title>Node6</title>
<g id="a_node6"><a xlink:href="structMoFEM_1_1interface__RefEntity.html" target="_top" xlink:title=" ">
<polygon fill="white" stroke="black" points="646,-32 646,-62 798,-62 798,-32 646,-32"/>
<text text-anchor="start" x="654" y="-50" font-family="Helvetica,sans-Serif" font-size="10.00">MoFEM::interface_RefEntity</text>
<text text-anchor="middle" x="722" y="-39" font-family="Helvetica,sans-Serif" font-size="10.00">&lt; FieldEntity &gt;</text>
</a>
</g>
</g>
<!-- Node6&#45;&gt;Node5 -->
<g id="edge5" class="edge">
<title>Node6&#45;&gt;Node5</title>
<path fill="none" stroke="midnightblue" d="M808.28,-47.79C858.49,-48.26 921.44,-48.85 969.79,-49.3"/>
<polygon fill="midnightblue" stroke="midnightblue" points="808.12,-44.29 798.09,-47.7 808.06,-51.29 808.12,-44.29"/>
</g>
<!-- Node7 -->
<g id="node7" class="node">
<title>Node7</title>
<g id="a_node7"><a xlink:href="classboost_1_1shared__ptr_3_01FieldEntity_01_4.html" target="_top" xlink:title=" ">
<polygon fill="white" stroke="black" points="440.5,-0.5 440.5,-19.5 583.5,-19.5 583.5,-0.5 440.5,-0.5"/>
<text text-anchor="middle" x="512" y="-7.5" font-family="Helvetica,sans-Serif" font-size="10.00">shared_ptr&lt; FieldEntity &gt;</text>
</a>
</g>
</g>
<!-- Node7&#45;&gt;Node4 -->
<g id="edge13" class="edge">
<title>Node7&#45;&gt;Node4</title>
<path fill="none" stroke="#9a32cd" stroke-dasharray="5,2" d="M594.22,-9.09C711.11,-8.44 933.47,-9.67 1122,-25 1180,-29.72 1245.24,-38.94 1293.88,-46.59"/>
<polygon fill="#9a32cd" stroke="#9a32cd" points="593.91,-5.59 583.93,-9.15 593.95,-12.59 593.91,-5.59"/>
<text text-anchor="middle" x="884" y="-18" font-family="Helvetica,sans-Serif" font-size="10.00"> sFieldPtr</text>
</g>
<!-- Node7&#45;&gt;Node6 -->
<g id="edge6" class="edge">
<title>Node7&#45;&gt;Node6</title>
<path fill="none" stroke="#9a32cd" stroke-dasharray="5,2" d="M576.69,-21.33C598.47,-25.2 623.05,-29.58 645.67,-33.6"/>
<polygon fill="#9a32cd" stroke="#9a32cd" points="577.02,-17.83 566.57,-19.53 575.8,-24.73 577.02,-17.83"/>
<text text-anchor="middle" x="617" y="-33" font-family="Helvetica,sans-Serif" font-size="10.00"> sPtr</text>
</g>
<!-- Node8 -->
<g id="node8" class="node">
<title>Node8</title>
<g id="a_node8"><a xlink:href="structMoFEM_1_1interface__RefEntity.html" target="_top" xlink:title="interface to RefEntity">
<polygon fill="white" stroke="black" points="155,-97.5 155,-116.5 336,-116.5 336,-97.5 155,-97.5"/>
<text text-anchor="middle" x="245.5" y="-104.5" font-family="Helvetica,sans-Serif" font-size="10.00">MoFEM::interface_RefEntity&lt; T &gt;</text>
</a>
</g>
</g>
<!-- Node8&#45;&gt;Node6 -->
<g id="edge7" class="edge">
<title>Node8&#45;&gt;Node6</title>
<path fill="none" stroke="orange" stroke-dasharray="5,2" d="M299.36,-95.43C337.24,-87.52 389.55,-77.35 436,-71 506.84,-61.31 588.16,-54.93 645.76,-51.2"/>
<polygon fill="orange" stroke="orange" points="298.63,-92.01 289.57,-97.5 300.07,-98.86 298.63,-92.01"/>
<text text-anchor="middle" x="512" y="-74" font-family="Helvetica,sans-Serif" font-size="10.00"> &lt; FieldEntity &gt;</text>
</g>
<!-- Node11 -->
<g id="node11" class="node">
<title>Node11</title>
<g id="a_node11"><a xlink:href="structMoFEM_1_1interface__RefEntity.html" target="_top" xlink:title=" ">
<polygon fill="white" stroke="black" points="436,-92 436,-122 588,-122 588,-92 436,-92"/>
<text text-anchor="start" x="444" y="-110" font-family="Helvetica,sans-Serif" font-size="10.00">MoFEM::interface_RefEntity</text>
<text text-anchor="middle" x="512" y="-99" font-family="Helvetica,sans-Serif" font-size="10.00">&lt; REFENT &gt;</text>
</a>
</g>
</g>
<!-- Node8&#45;&gt;Node11 -->
<g id="edge12" class="edge">
<title>Node8&#45;&gt;Node11</title>
<path fill="none" stroke="orange" stroke-dasharray="5,2" d="M346.41,-107C376,-107 407.89,-107 435.65,-107"/>
<polygon fill="orange" stroke="orange" points="346.05,-103.5 336.05,-107 346.05,-110.5 346.05,-103.5"/>
<text text-anchor="middle" x="386" y="-110" font-family="Helvetica,sans-Serif" font-size="10.00"> &lt; REFENT &gt;</text>
</g>
<!-- Node17 -->
<g id="node17" class="node">
<title>Node17</title>
<g id="a_node17"><a xlink:href="structMoFEM_1_1interface__FieldImpl.html" target="_top" xlink:title=" ">
<polygon fill="white" stroke="black" points="970,-133 970,-163 1122,-163 1122,-133 970,-133"/>
<text text-anchor="start" x="978" y="-151" font-family="Helvetica,sans-Serif" font-size="10.00">MoFEM::interface_FieldImpl</text>
<text text-anchor="middle" x="1046" y="-140" font-family="Helvetica,sans-Serif" font-size="10.00">&lt; T, T &gt;</text>
</a>
</g>
</g>
<!-- Node8&#45;&gt;Node17 -->
<g id="edge20" class="edge">
<title>Node8&#45;&gt;Node17</title>
<path fill="none" stroke="midnightblue" d="M297.82,-118.78C373.53,-135.58 519.81,-165.85 646,-179 721.18,-186.84 740.42,-182.89 816,-184 876.44,-184.89 892.58,-195.1 952,-184 973.61,-179.96 996.67,-171.07 1014.42,-163.14"/>
<polygon fill="midnightblue" stroke="midnightblue" points="298.14,-115.27 287.62,-116.5 296.62,-122.1 298.14,-115.27"/>
</g>
<!-- Node9 -->
<g id="node9" class="node">
<title>Node9</title>
<g id="a_node9"><a xlink:title=" ">
<polygon fill="white" stroke="#bfbfbf" points="0,-97.5 0,-116.5 97,-116.5 97,-97.5 0,-97.5"/>
<text text-anchor="middle" x="48.5" y="-104.5" font-family="Helvetica,sans-Serif" font-size="10.00">shared_ptr&lt; T &gt;</text>
</a>
</g>
</g>
<!-- Node9&#45;&gt;Node8 -->
<g id="edge8" class="edge">
<title>Node9&#45;&gt;Node8</title>
<path fill="none" stroke="#9a32cd" stroke-dasharray="5,2" d="M107.25,-107C122.14,-107 138.53,-107 154.63,-107"/>
<polygon fill="#9a32cd" stroke="#9a32cd" points="107.2,-103.5 97.2,-107 107.2,-110.5 107.2,-103.5"/>
<text text-anchor="middle" x="126" y="-110" font-family="Helvetica,sans-Serif" font-size="10.00"> sPtr</text>
</g>
<!-- Node10 -->
<g id="node10" class="node">
<title>Node10</title>
<g id="a_node10"><a xlink:href="structMoFEM_1_1interface__FieldImpl.html" target="_top" xlink:title="Pointer interface for MoFEM::Field.">
<polygon fill="white" stroke="black" points="646,-86 646,-116 798,-116 798,-86 646,-86"/>
<text text-anchor="start" x="654" y="-104" font-family="Helvetica,sans-Serif" font-size="10.00">MoFEM::interface_FieldImpl</text>
<text text-anchor="middle" x="722" y="-93" font-family="Helvetica,sans-Serif" font-size="10.00">&lt; FIELD, REFENT &gt;</text>
</a>
</g>
</g>
<!-- Node10&#45;&gt;Node5 -->
<g id="edge9" class="edge">
<title>Node10&#45;&gt;Node5</title>
<path fill="none" stroke="orange" stroke-dasharray="5,2" d="M807.98,-86.31C810.68,-85.87 813.36,-85.43 816,-85 867.31,-76.67 925.18,-67.83 969.91,-61.11"/>
<polygon fill="orange" stroke="orange" points="807.39,-82.86 798.1,-87.96 808.54,-89.77 807.39,-82.86"/>
<text text-anchor="middle" x="884" y="-88" font-family="Helvetica,sans-Serif" font-size="10.00"> &lt; FieldEntity, FieldEntity &gt;</text>
</g>
<!-- Node13 -->
<g id="node13" class="node">
<title>Node13</title>
<g id="a_node13"><a xlink:href="structMoFEM_1_1interface__Field.html" target="_top" xlink:title=" ">
<polygon fill="white" stroke="black" points="980.5,-84 980.5,-114 1111.5,-114 1111.5,-84 980.5,-84"/>
<text text-anchor="start" x="988.5" y="-102" font-family="Helvetica,sans-Serif" font-size="10.00">MoFEM::interface_Field</text>
<text text-anchor="middle" x="1046" y="-91" font-family="Helvetica,sans-Serif" font-size="10.00">&lt; FIELD, REFENT &gt;</text>
</a>
</g>
</g>
<!-- Node10&#45;&gt;Node13 -->
<g id="edge15" class="edge">
<title>Node10&#45;&gt;Node13</title>
<path fill="none" stroke="midnightblue" d="M808.33,-100.47C862.3,-100.13 930.96,-99.71 980.41,-99.4"/>
<polygon fill="midnightblue" stroke="midnightblue" points="808.07,-96.97 798.09,-100.53 808.11,-103.97 808.07,-96.97"/>
</g>
<!-- Node10&#45;&gt;Node17 -->
<g id="edge21" class="edge">
<title>Node10&#45;&gt;Node17</title>
<path fill="none" stroke="orange" stroke-dasharray="5,2" d="M808.26,-112.48C851.37,-118.39 904.5,-125.85 952,-133 957.82,-133.88 963.85,-134.8 969.9,-135.75"/>
<polygon fill="orange" stroke="orange" points="808.47,-108.98 798.09,-111.09 807.52,-115.91 808.47,-108.98"/>
<text text-anchor="middle" x="884" y="-136" font-family="Helvetica,sans-Serif" font-size="10.00"> &lt; T, T &gt;</text>
</g>
<!-- Node11&#45;&gt;Node10 -->
<g id="edge10" class="edge">
<title>Node11&#45;&gt;Node10</title>
<path fill="none" stroke="midnightblue" d="M598.31,-104.54C614.01,-104.09 630.29,-103.62 645.67,-103.17"/>
<polygon fill="midnightblue" stroke="midnightblue" points="597.99,-101.05 588.09,-104.83 598.19,-108.04 597.99,-101.05"/>
</g>
<!-- Node12 -->
<g id="node12" class="node">
<title>Node12</title>
<g id="a_node12"><a xlink:href="classboost_1_1shared__ptr_3_01REFENT_01_4.html" target="_top" xlink:title=" ">
<polygon fill="white" stroke="black" points="181,-26.5 181,-45.5 310,-45.5 310,-26.5 181,-26.5"/>
<text text-anchor="middle" x="245.5" y="-33.5" font-family="Helvetica,sans-Serif" font-size="10.00">shared_ptr&lt; REFENT &gt;</text>
</a>
</g>
</g>
<!-- Node12&#45;&gt;Node11 -->
<g id="edge11" class="edge">
<title>Node12&#45;&gt;Node11</title>
<path fill="none" stroke="#9a32cd" stroke-dasharray="5,2" d="M291.71,-48.14C336.88,-60.26 406.42,-78.93 455.04,-91.98"/>
<polygon fill="#9a32cd" stroke="#9a32cd" points="292.46,-44.71 281.9,-45.5 290.65,-51.47 292.46,-44.71"/>
<text text-anchor="middle" x="386" y="-86" font-family="Helvetica,sans-Serif" font-size="10.00"> sPtr</text>
</g>
<!-- Node13&#45;&gt;Node4 -->
<g id="edge14" class="edge">
<title>Node13&#45;&gt;Node4</title>
<path fill="none" stroke="orange" stroke-dasharray="5,2" d="M1121.98,-89.64C1173.75,-83.18 1242.27,-74.63 1293.77,-68.2"/>
<polygon fill="orange" stroke="orange" points="1121.35,-86.19 1111.86,-90.91 1122.21,-93.14 1121.35,-86.19"/>
<text text-anchor="middle" x="1208" y="-91" font-family="Helvetica,sans-Serif" font-size="10.00"> &lt; FieldEntity, FieldEntity &gt;</text>
</g>
<!-- Node14 -->
<g id="node14" class="node">
<title>Node14</title>
<g id="a_node14"><a xlink:title=" ">
<polygon fill="white" stroke="#bfbfbf" points="662.5,-150.5 662.5,-169.5 781.5,-169.5 781.5,-150.5 662.5,-150.5"/>
<text text-anchor="middle" x="722" y="-157.5" font-family="Helvetica,sans-Serif" font-size="10.00">shared_ptr&lt; FIELD &gt;</text>
</a>
</g>
</g>
<!-- Node14&#45;&gt;Node13 -->
<g id="edge16" class="edge">
<title>Node14&#45;&gt;Node13</title>
<path fill="none" stroke="#9a32cd" stroke-dasharray="5,2" d="M791.77,-168.26C839.15,-170.91 902.28,-168.26 952,-144 962.75,-138.76 960,-130.55 970,-124 975.86,-120.16 982.35,-116.87 989.01,-114.04"/>
<polygon fill="#9a32cd" stroke="#9a32cd" points="791.81,-164.75 781.6,-167.6 791.35,-171.74 791.81,-164.75"/>
<text text-anchor="middle" x="884" y="-172" font-family="Helvetica,sans-Serif" font-size="10.00"> sFieldPtr</text>
</g>
<!-- Node15 -->
<g id="node15" class="node">
<title>Node15</title>
<g id="a_node15"><a xlink:href="structMoFEM_1_1interface__FieldEntity.html" target="_top" xlink:title="Interface to FieldEntity.">
<polygon fill="white" stroke="black" points="1480,-95.5 1480,-114.5 1668,-114.5 1668,-95.5 1480,-95.5"/>
<text text-anchor="middle" x="1574" y="-102.5" font-family="Helvetica,sans-Serif" font-size="10.00">MoFEM::interface_FieldEntity&lt; T &gt;</text>
</a>
</g>
</g>
<!-- Node15&#45;&gt;Node3 -->
<g id="edge17" class="edge">
<title>Node15&#45;&gt;Node3</title>
<path fill="none" stroke="orange" stroke-dasharray="5,2" d="M1678.11,-96.33C1712.32,-93.46 1749.83,-90.3 1781.89,-87.61"/>
<polygon fill="orange" stroke="orange" points="1677.76,-92.85 1668.09,-97.17 1678.35,-99.82 1677.76,-92.85"/>
<text text-anchor="middle" x="1725" y="-99" font-family="Helvetica,sans-Serif" font-size="10.00"> &lt; FieldEntity &gt;</text>
</g>
<!-- Node16 -->
<g id="node16" class="node">
<title>Node16</title>
<g id="a_node16"><a xlink:href="structMoFEM_1_1interface__Field_3_01T_00_01T_01_4.html" target="_top" xlink:title=" ">
<polygon fill="white" stroke="black" points="1303,-107 1303,-137 1434,-137 1434,-107 1303,-107"/>
<text text-anchor="start" x="1311" y="-125" font-family="Helvetica,sans-Serif" font-size="10.00">MoFEM::interface_Field</text>
<text text-anchor="middle" x="1368.5" y="-114" font-family="Helvetica,sans-Serif" font-size="10.00">&lt; T, T &gt;</text>
</a>
</g>
</g>
<!-- Node16&#45;&gt;Node15 -->
<g id="edge18" class="edge">
<title>Node16&#45;&gt;Node15</title>
<path fill="none" stroke="midnightblue" d="M1444.22,-115.76C1455.83,-114.79 1467.94,-113.78 1479.89,-112.78"/>
<polygon fill="midnightblue" stroke="midnightblue" points="1443.84,-112.28 1434.17,-116.6 1444.42,-119.25 1443.84,-112.28"/>
</g>
<!-- Node17&#45;&gt;Node16 -->
<g id="edge19" class="edge">
<title>Node17&#45;&gt;Node16</title>
<path fill="none" stroke="midnightblue" d="M1132.3,-141.08C1185.84,-136.74 1253.77,-131.23 1302.85,-127.24"/>
<polygon fill="midnightblue" stroke="midnightblue" points="1131.83,-137.61 1122.14,-141.9 1132.39,-144.58 1131.83,-137.61"/>
</g>
<!-- Node18 -->
<g id="node18" class="node">
<title>Node18</title>
<g id="a_node18"><a xlink:title=" ">
<polygon fill="white" stroke="#bfbfbf" points="1847,-27.5 1847,-46.5 1876,-46.5 1876,-27.5 1847,-27.5"/>
<text text-anchor="middle" x="1861.5" y="-34.5" font-family="Helvetica,sans-Serif" font-size="10.00">int</text>
</a>
</g>
</g>
<!-- Node18&#45;&gt;Node2 -->
<g id="edge22" class="edge">
<title>Node18&#45;&gt;Node2</title>
<path fill="none" stroke="#9a32cd" stroke-dasharray="5,2" d="M1886.32,-38.68C1913.86,-40.62 1960,-43.87 1995.78,-46.39"/>
<polygon fill="#9a32cd" stroke="#9a32cd" points="1886.29,-35.17 1876.07,-37.96 1885.8,-42.15 1886.29,-35.17"/>
<text text-anchor="middle" x="1968.5" y="-49" font-family="Helvetica,sans-Serif" font-size="10.00"> dof</text>
</g>
</g>
</svg>
