<?xml version="1.0" encoding="UTF-8" standalone="no"?>
<!DOCTYPE svg PUBLIC "-//W3C//DTD SVG 1.1//EN"
 "http://www.w3.org/Graphics/SVG/1.1/DTD/svg11.dtd">
<!-- Generated by graphviz version 2.43.0 (0)
 -->
<!-- Title: MoFEM::OpCalculateDivergenceVectorFieldValues&lt; Tensor_Dim, COORDINATE_SYSTEM &gt; Pages: 1 -->
<!--zoomable 1504 -->
<svg id="main" version="1.1" xmlns="http://www.w3.org/2000/svg" xmlns:xlink="http://www.w3.org/1999/xlink" xml:space="preserve" onload="init(evt)">
<style type="text/css"><![CDATA[
.edge:hover path { stroke: red; }
.edge:hover polygon { stroke: red; fill: red; }
]]></style>
<script type="text/javascript"><![CDATA[
var edges = document.getElementsByTagName('g');
if (edges && edges.length) {
  for (var i=0;i<edges.length;i++) {
    if (edges[i].id.substr(0,4)=='edge') {
      edges[i].setAttribute('class','edge');
    }
  }
}
]]></script>
        <defs>
                <circle id="rim" cx="0" cy="0" r="7"/>
                <circle id="rim2" cx="0" cy="0" r="3.5"/>
                <g id="zoomPlus">
                        <use xlink:href="#rim" fill="#404040">
                                <set attributeName="fill" to="#808080" begin="zoomplus.mouseover" end="zoomplus.mouseout"/>
                        </use>
                        <path d="M-4,0h8M0,-4v8" fill="none" stroke="white" stroke-width="1.5" pointer-events="none"/>
                </g>
                <g id="zoomMin">
                        <use xlink:href="#rim" fill="#404040">
                                <set attributeName="fill" to="#808080" begin="zoomminus.mouseover" end="zoomminus.mouseout"/>
                        </use>
                        <path d="M-4,0h8" fill="none" stroke="white" stroke-width="1.5" pointer-events="none"/>
                </g>
                <g id="dirArrow">
                        <path fill="none" stroke="white" stroke-width="1.5" d="M0,-3.0v7 M-2.5,-0.5L0,-3.0L2.5,-0.5"/>
                </g>
               <g id="resetDef">
                       <use xlink:href="#rim2" fill="#404040">
                               <set attributeName="fill" to="#808080" begin="reset.mouseover" end="reset.mouseout"/>
                       </use>
               </g>
        </defs>

<script type="text/javascript">
var viewWidth = 3263;
var viewHeight = 1504;
var sectionId = 'dynsection-1';
</script>
<script xlink:href="svgpan.js"/>
<svg id="graph" class="graph">
<g id="viewport">
<title>MoFEM::OpCalculateDivergenceVectorFieldValues&lt; Tensor_Dim, COORDINATE_SYSTEM &gt;</title>
<polygon fill="white" stroke="transparent" points="-4,4 -4,-1499.5 3259,-1499.5 3259,4 -4,4"/>
<!-- Node1 -->
<g id="node1" class="node">
<title>Node1</title>
<g id="a_node1"><a xlink:title="Calculate field values (template specialization) for tensor field rank 1, i.e. vector field.">
<polygon fill="#bfbfbf" stroke="black" points="3082,-39 3082,-80 3255,-80 3255,-39 3082,-39"/>
<text text-anchor="start" x="3090" y="-68" font-family="Helvetica,sans-Serif" font-size="10.00">MoFEM::OpCalculateDivergence</text>
<text text-anchor="start" x="3090" y="-57" font-family="Helvetica,sans-Serif" font-size="10.00">VectorFieldValues&lt; Tensor</text>
<text text-anchor="middle" x="3168.5" y="-46" font-family="Helvetica,sans-Serif" font-size="10.00">_Dim, COORDINATE_SYSTEM &gt;</text>
</a>
</g>
</g>
<!-- Node2 -->
<g id="node2" class="node">
<title>Node2</title>
<g id="a_node2"><a xlink:href="structMoFEM_1_1ForcesAndSourcesCore_1_1UserDataOperator.html" target="_top" xlink:title=" ">
<polygon fill="white" stroke="black" points="2837,-245.5 2837,-275.5 3007,-275.5 3007,-245.5 2837,-245.5"/>
<text text-anchor="start" x="2845" y="-263.5" font-family="Helvetica,sans-Serif" font-size="10.00">MoFEM::ForcesAndSourcesCore</text>
<text text-anchor="middle" x="2922" y="-252.5" font-family="Helvetica,sans-Serif" font-size="10.00">::UserDataOperator</text>
</a>
</g>
</g>
<!-- Node2&#45;&gt;Node1 -->
<g id="edge1" class="edge">
<title>Node2&#45;&gt;Node1</title>
<path fill="none" stroke="midnightblue" d="M2949.34,-238.84C2996.79,-199.84 3096.01,-118.27 3142.48,-80.07"/>
<polygon fill="midnightblue" stroke="midnightblue" points="2946.88,-236.34 2941.38,-245.39 2951.32,-241.75 2946.88,-236.34"/>
</g>
<!-- Node3 -->
<g id="node3" class="node">
<title>Node3</title>
<g id="a_node3"><a xlink:href="structMoFEM_1_1DataOperator.html" target="_top" xlink:title="base operator to do operations at Gauss Pt. level">
<polygon fill="white" stroke="black" points="2579.5,-251 2579.5,-270 2704.5,-270 2704.5,-251 2579.5,-251"/>
<text text-anchor="middle" x="2642" y="-258" font-family="Helvetica,sans-Serif" font-size="10.00">MoFEM::DataOperator</text>
</a>
</g>
</g>
<!-- Node3&#45;&gt;Node2 -->
<g id="edge2" class="edge">
<title>Node3&#45;&gt;Node2</title>
<path fill="none" stroke="midnightblue" d="M2714.97,-260.5C2752.22,-260.5 2797.92,-260.5 2836.81,-260.5"/>
<polygon fill="midnightblue" stroke="midnightblue" points="2714.7,-257 2704.7,-260.5 2714.7,-264 2714.7,-257"/>
</g>
<!-- Node4 -->
<g id="node4" class="node">
<title>Node4</title>
<g id="a_node4"><a xlink:title=" ">
<polygon fill="white" stroke="#bfbfbf" points="2160,-172.5 2160,-224.5 2352,-224.5 2352,-172.5 2160,-172.5"/>
<text text-anchor="start" x="2168" y="-212.5" font-family="Helvetica,sans-Serif" font-size="10.00">function&lt; MoFEMErrorCode</text>
<text text-anchor="start" x="2168" y="-201.5" font-family="Helvetica,sans-Serif" font-size="10.00">(DataOperator *op_ptr,</text>
<text text-anchor="start" x="2168" y="-190.5" font-family="Helvetica,sans-Serif" font-size="10.00"> int side, EntityType type,</text>
<text text-anchor="middle" x="2256" y="-179.5" font-family="Helvetica,sans-Serif" font-size="10.00"> EntitiesFieldData::EntData &amp;data)&gt;</text>
</a>
</g>
</g>
<!-- Node4&#45;&gt;Node3 -->
<g id="edge3" class="edge">
<title>Node4&#45;&gt;Node3</title>
<path fill="none" stroke="#9a32cd" stroke-dasharray="5,2" d="M2362.39,-219.07C2367.32,-219.92 2372.21,-220.73 2377,-221.5 2448.69,-233.01 2467.23,-231.52 2539,-242.5 2555.53,-245.03 2573.51,-248.1 2589.71,-250.98"/>
<polygon fill="#9a32cd" stroke="#9a32cd" points="2362.67,-215.57 2352.21,-217.29 2361.46,-222.46 2362.67,-215.57"/>
<text text-anchor="middle" x="2458" y="-245.5" font-family="Helvetica,sans-Serif" font-size="10.00"> doWorkRhsHook</text>
</g>
<!-- Node5 -->
<g id="node5" class="node">
<title>Node5</title>
<g id="a_node5"><a xlink:href="classbool.html" target="_top" xlink:title=" ">
<polygon fill="white" stroke="black" points="2237,-134 2237,-153 2275,-153 2275,-134 2237,-134"/>
<text text-anchor="middle" x="2256" y="-141" font-family="Helvetica,sans-Serif" font-size="10.00">bool</text>
</a>
</g>
</g>
<!-- Node5&#45;&gt;Node3 -->
<g id="edge4" class="edge">
<title>Node5&#45;&gt;Node3</title>
<path fill="none" stroke="#9a32cd" stroke-dasharray="5,2" d="M2285.35,-138.75C2349.13,-128.75 2501.3,-108.92 2539,-140.5 2573.96,-169.78 2525.51,-208.52 2557,-241.5 2563.09,-247.88 2570.84,-252.33 2579.15,-255.4"/>
<polygon fill="#9a32cd" stroke="#9a32cd" points="2284.53,-135.34 2275.21,-140.38 2285.63,-142.25 2284.53,-135.34"/>
<text text-anchor="middle" x="2458" y="-209.5" font-family="Helvetica,sans-Serif" font-size="10.00"> doTris</text>
<text text-anchor="middle" x="2458" y="-198.5" font-family="Helvetica,sans-Serif" font-size="10.00">doQuads</text>
<text text-anchor="middle" x="2458" y="-187.5" font-family="Helvetica,sans-Serif" font-size="10.00">sYmm</text>
<text text-anchor="middle" x="2458" y="-176.5" font-family="Helvetica,sans-Serif" font-size="10.00">doPrisms</text>
<text text-anchor="middle" x="2458" y="-165.5" font-family="Helvetica,sans-Serif" font-size="10.00">doTets</text>
<text text-anchor="middle" x="2458" y="-154.5" font-family="Helvetica,sans-Serif" font-size="10.00">doVertices</text>
<text text-anchor="middle" x="2458" y="-143.5" font-family="Helvetica,sans-Serif" font-size="10.00">doEdges</text>
</g>
<!-- Node6 -->
<g id="node6" class="node">
<title>Node6</title>
<g id="a_node6"><a xlink:title=" ">
<polygon fill="white" stroke="#bfbfbf" points="2153,-282 2153,-367 2359,-367 2359,-282 2153,-282"/>
<text text-anchor="start" x="2161" y="-355" font-family="Helvetica,sans-Serif" font-size="10.00">function&lt; MoFEMErrorCode</text>
<text text-anchor="start" x="2161" y="-344" font-family="Helvetica,sans-Serif" font-size="10.00">(DataOperator *op_ptr,</text>
<text text-anchor="start" x="2161" y="-333" font-family="Helvetica,sans-Serif" font-size="10.00"> int row_side, int col_side,</text>
<text text-anchor="start" x="2161" y="-322" font-family="Helvetica,sans-Serif" font-size="10.00"> EntityType row_type, EntityType</text>
<text text-anchor="start" x="2161" y="-311" font-family="Helvetica,sans-Serif" font-size="10.00"> col_type, EntitiesFieldData::EntData</text>
<text text-anchor="start" x="2161" y="-300" font-family="Helvetica,sans-Serif" font-size="10.00"> &amp;row_data, EntitiesFieldData::EntData</text>
<text text-anchor="middle" x="2256" y="-289" font-family="Helvetica,sans-Serif" font-size="10.00"> &amp;col_data)&gt;</text>
</a>
</g>
</g>
<!-- Node6&#45;&gt;Node3 -->
<g id="edge5" class="edge">
<title>Node6&#45;&gt;Node3</title>
<path fill="none" stroke="#9a32cd" stroke-dasharray="5,2" d="M2369.39,-305.77C2439.72,-294.05 2527.37,-279.44 2583.75,-270.04"/>
<polygon fill="#9a32cd" stroke="#9a32cd" points="2368.44,-302.38 2359.15,-307.48 2369.59,-309.28 2368.44,-302.38"/>
<text text-anchor="middle" x="2458" y="-306.5" font-family="Helvetica,sans-Serif" font-size="10.00"> doWorkLhsHook</text>
</g>
<!-- Node7 -->
<g id="node7" class="node">
<title>Node7</title>
<g id="a_node7"><a xlink:title=" ">
<polygon fill="white" stroke="#bfbfbf" points="2179,-244 2179,-263 2333,-263 2333,-244 2179,-244"/>
<text text-anchor="middle" x="2256" y="-251" font-family="Helvetica,sans-Serif" font-size="10.00">array&lt; bool, MBMAXTYPE &gt;</text>
</a>
</g>
</g>
<!-- Node7&#45;&gt;Node3 -->
<g id="edge6" class="edge">
<title>Node7&#45;&gt;Node3</title>
<path fill="none" stroke="#9a32cd" stroke-dasharray="5,2" d="M2343.7,-255.08C2415.44,-256.39 2515.59,-258.21 2579.37,-259.38"/>
<polygon fill="#9a32cd" stroke="#9a32cd" points="2343.39,-251.57 2333.33,-254.89 2343.26,-258.57 2343.39,-251.57"/>
<text text-anchor="middle" x="2458" y="-261.5" font-family="Helvetica,sans-Serif" font-size="10.00"> doEntities</text>
</g>
<!-- Node8 -->
<g id="node8" class="node">
<title>Node8</title>
<g id="a_node8"><a xlink:title=" ">
<polygon fill="white" stroke="#bfbfbf" points="2607.5,-213 2607.5,-232 2676.5,-232 2676.5,-213 2607.5,-213"/>
<text text-anchor="middle" x="2642" y="-220" font-family="Helvetica,sans-Serif" font-size="10.00">FieldSpace</text>
</a>
</g>
</g>
<!-- Node8&#45;&gt;Node2 -->
<g id="edge7" class="edge">
<title>Node8&#45;&gt;Node2</title>
<path fill="none" stroke="#9a32cd" stroke-dasharray="5,2" d="M2686.82,-228.03C2722.45,-232.57 2774,-239.25 2819,-245.5 2824.85,-246.31 2830.89,-247.16 2836.97,-248.03"/>
<polygon fill="#9a32cd" stroke="#9a32cd" points="2687.12,-224.54 2676.76,-226.75 2686.24,-231.48 2687.12,-224.54"/>
<text text-anchor="middle" x="2782" y="-248.5" font-family="Helvetica,sans-Serif" font-size="10.00"> sPace</text>
</g>
<!-- Node9 -->
<g id="node9" class="node">
<title>Node9</title>
<g id="a_node9"><a xlink:title=" ">
<polygon fill="white" stroke="#bfbfbf" points="1122.5,-621 1122.5,-640 1160.5,-640 1160.5,-621 1122.5,-621"/>
<text text-anchor="middle" x="1141.5" y="-628" font-family="Helvetica,sans-Serif" font-size="10.00">char</text>
</a>
</g>
</g>
<!-- Node9&#45;&gt;Node2 -->
<g id="edge8" class="edge">
<title>Node9&#45;&gt;Node2</title>
<path fill="none" stroke="#9a32cd" stroke-dasharray="5,2" d="M1170.76,-635.61C1190.93,-639.31 1218.67,-644.52 1243,-649.5 1311.67,-663.57 1335.99,-648.99 1397,-683.5 1407.12,-689.23 1405.11,-696.38 1415,-702.5 1566.72,-796.37 1626.43,-774.22 1799,-819.5 1836.86,-829.43 1845.86,-838.5 1885,-838.5 1885,-838.5 1885,-838.5 2643,-838.5 2900.5,-838.5 2919.63,-366.86 2920.93,-275.66"/>
<polygon fill="#9a32cd" stroke="#9a32cd" points="1171.15,-632.12 1160.69,-633.77 1169.9,-639.01 1171.15,-632.12"/>
<text text-anchor="middle" x="2063" y="-841.5" font-family="Helvetica,sans-Serif" font-size="10.00"> opType</text>
</g>
<!-- Node37 -->
<g id="node37" class="node">
<title>Node37</title>
<g id="a_node37"><a xlink:href="structMoFEM_1_1Problem.html" target="_top" xlink:title="keeps basic data about problem">
<polygon fill="white" stroke="black" points="1449,-418 1449,-437 1548,-437 1548,-418 1449,-418"/>
<text text-anchor="middle" x="1498.5" y="-425" font-family="Helvetica,sans-Serif" font-size="10.00">MoFEM::Problem</text>
</a>
</g>
</g>
<!-- Node9&#45;&gt;Node37 -->
<g id="edge52" class="edge">
<title>Node9&#45;&gt;Node37</title>
<path fill="none" stroke="#9a32cd" stroke-dasharray="5,2" d="M1170.76,-634.84C1220.83,-640.97 1326.49,-646.79 1397,-600.5 1458.85,-559.9 1487.35,-467.1 1495.18,-437.07"/>
<polygon fill="#9a32cd" stroke="#9a32cd" points="1171.04,-631.34 1160.67,-633.5 1170.13,-638.28 1171.04,-631.34"/>
<text text-anchor="middle" x="1329" y="-640.5" font-family="Helvetica,sans-Serif" font-size="10.00"> tagName</text>
</g>
<!-- Node10 -->
<g id="node10" class="node">
<title>Node10</title>
<g id="a_node10"><a xlink:href="structMoFEM_1_1ForcesAndSourcesCore.html" target="_top" xlink:title="structure to get information form mofem into EntitiesFieldData">
<polygon fill="white" stroke="black" points="2557,-594 2557,-613 2727,-613 2727,-594 2557,-594"/>
<text text-anchor="middle" x="2642" y="-601" font-family="Helvetica,sans-Serif" font-size="10.00">MoFEM::ForcesAndSourcesCore</text>
</a>
</g>
</g>
<!-- Node10&#45;&gt;Node2 -->
<g id="edge9" class="edge">
<title>Node10&#45;&gt;Node2</title>
<path fill="none" stroke="#9a32cd" stroke-dasharray="5,2" d="M2657.3,-585.86C2705.8,-526.02 2863.51,-331.44 2908.76,-275.6"/>
<polygon fill="#9a32cd" stroke="#9a32cd" points="2654.3,-584 2650.73,-593.97 2659.74,-588.4 2654.3,-584"/>
<text text-anchor="middle" x="2782" y="-475.5" font-family="Helvetica,sans-Serif" font-size="10.00"> ptrFE</text>
</g>
<!-- Node10&#45;&gt;Node10 -->
<g id="edge67" class="edge">
<title>Node10&#45;&gt;Node10</title>
<path fill="none" stroke="#9a32cd" stroke-dasharray="5,2" d="M2615.96,-622.53C2617.38,-627.63 2626.06,-631.5 2642,-631.5 2666.88,-631.5 2674.08,-622.07 2663.58,-613.26"/>
<polygon fill="#9a32cd" stroke="#9a32cd" points="2619.24,-623.79 2620.42,-613.26 2612.93,-620.75 2619.24,-623.79"/>
<text text-anchor="middle" x="2642" y="-645.5" font-family="Helvetica,sans-Serif" font-size="10.00"> sidePtrFE</text>
<text text-anchor="middle" x="2642" y="-634.5" font-family="Helvetica,sans-Serif" font-size="10.00">refinePtrFE</text>
</g>
<!-- Node11 -->
<g id="node11" class="node">
<title>Node11</title>
<g id="a_node11"><a xlink:href="structMoFEM_1_1FEMethod.html" target="_top" xlink:title="structure for User Loop Methods on finite elements">
<polygon fill="white" stroke="black" points="2202.5,-791 2202.5,-810 2309.5,-810 2309.5,-791 2202.5,-791"/>
<text text-anchor="middle" x="2256" y="-798" font-family="Helvetica,sans-Serif" font-size="10.00">MoFEM::FEMethod</text>
</a>
</g>
</g>
<!-- Node11&#45;&gt;Node10 -->
<g id="edge10" class="edge">
<title>Node11&#45;&gt;Node10</title>
<path fill="none" stroke="midnightblue" d="M2319.82,-800.99C2380.47,-798.65 2472.62,-787.39 2539,-744.5 2591.53,-710.56 2625.8,-639.32 2636.99,-613.29"/>
<polygon fill="midnightblue" stroke="midnightblue" points="2319.51,-797.5 2309.63,-801.32 2319.73,-804.5 2319.51,-797.5"/>
</g>
<!-- Node12 -->
<g id="node12" class="node">
<title>Node12</title>
<g id="a_node12"><a xlink:href="structMoFEM_1_1BasicMethod.html" target="_top" xlink:title="Data structure to exchange data between mofem and User Loop Methods.">
<polygon fill="white" stroke="black" points="1825,-674 1825,-693 1947,-693 1947,-674 1825,-674"/>
<text text-anchor="middle" x="1886" y="-681" font-family="Helvetica,sans-Serif" font-size="10.00">MoFEM::BasicMethod</text>
</a>
</g>
</g>
<!-- Node12&#45;&gt;Node11 -->
<g id="edge11" class="edge">
<title>Node12&#45;&gt;Node11</title>
<path fill="none" stroke="midnightblue" d="M1957.04,-691.01C2010.01,-699.55 2082.36,-717.61 2135,-755.5 2146.41,-763.71 2141.2,-773.86 2153,-781.5 2167.51,-790.9 2185.49,-795.92 2202.28,-798.53"/>
<polygon fill="midnightblue" stroke="midnightblue" points="1957.47,-687.53 1947.05,-689.47 1956.4,-694.45 1957.47,-687.53"/>
</g>
<!-- Node13 -->
<g id="node13" class="node">
<title>Node13</title>
<g id="a_node13"><a xlink:href="structMoFEM_1_1KspMethod.html" target="_top" xlink:title="data structure for ksp (linear solver) context">
<polygon fill="white" stroke="black" points="1442,-1214 1442,-1233 1555,-1233 1555,-1214 1442,-1214"/>
<text text-anchor="middle" x="1498.5" y="-1221" font-family="Helvetica,sans-Serif" font-size="10.00">MoFEM::KspMethod</text>
</a>
</g>
</g>
<!-- Node13&#45;&gt;Node12 -->
<g id="edge12" class="edge">
<title>Node13&#45;&gt;Node12</title>
<path fill="none" stroke="midnightblue" d="M1508.64,-1204.49C1526.2,-1167.02 1564.45,-1080.57 1582,-1003.5 1592,-959.56 1569.18,-834.38 1600,-801.5 1655.67,-742.11 1718.51,-825.66 1781,-773.5 1799.78,-757.83 1782.44,-739.49 1799,-721.5 1811.49,-707.93 1829.71,-698.93 1846.17,-693.12"/>
<polygon fill="midnightblue" stroke="midnightblue" points="1505.39,-1203.17 1504.27,-1213.71 1511.72,-1206.17 1505.39,-1203.17"/>
</g>
<!-- Node14 -->
<g id="node14" class="node">
<title>Node14</title>
<g id="a_node14"><a xlink:href="structMoFEM_1_1PetscData.html" target="_top" xlink:title=" ">
<polygon fill="white" stroke="black" points="1087.5,-1072 1087.5,-1091 1195.5,-1091 1195.5,-1072 1087.5,-1072"/>
<text text-anchor="middle" x="1141.5" y="-1079" font-family="Helvetica,sans-Serif" font-size="10.00">MoFEM::PetscData</text>
</a>
</g>
</g>
<!-- Node14&#45;&gt;Node13 -->
<g id="edge13" class="edge">
<title>Node14&#45;&gt;Node13</title>
<path fill="none" stroke="midnightblue" d="M1201.07,-1093.4C1214.97,-1096.8 1229.64,-1100.86 1243,-1105.5 1335.47,-1137.62 1439.63,-1192.04 1480.11,-1213.95"/>
<polygon fill="midnightblue" stroke="midnightblue" points="1201.65,-1089.95 1191.12,-1091.05 1200.04,-1096.76 1201.65,-1089.95"/>
</g>
<!-- Node24 -->
<g id="node24" class="node">
<title>Node24</title>
<g id="a_node24"><a xlink:href="structMoFEM_1_1SnesMethod.html" target="_top" xlink:title="data structure for snes (nonlinear solver) context">
<polygon fill="white" stroke="black" points="1439,-975 1439,-994 1558,-994 1558,-975 1439,-975"/>
<text text-anchor="middle" x="1498.5" y="-982" font-family="Helvetica,sans-Serif" font-size="10.00">MoFEM::SnesMethod</text>
</a>
</g>
</g>
<!-- Node14&#45;&gt;Node24 -->
<g id="edge26" class="edge">
<title>Node14&#45;&gt;Node24</title>
<path fill="none" stroke="darkgreen" d="M1194.23,-1069.62C1209.93,-1065.88 1227.2,-1061.65 1243,-1057.5 1323.69,-1036.3 1417.89,-1008.47 1465.89,-994.06"/>
<polygon fill="darkgreen" stroke="darkgreen" points="1193.09,-1066.29 1184.17,-1071.99 1194.7,-1073.1 1193.09,-1066.29"/>
</g>
<!-- Node27 -->
<g id="node27" class="node">
<title>Node27</title>
<g id="a_node27"><a xlink:href="structMoFEM_1_1TSMethod.html" target="_top" xlink:title="data structure for TS (time stepping) context">
<polygon fill="white" stroke="black" points="1445,-785 1445,-804 1552,-804 1552,-785 1445,-785"/>
<text text-anchor="middle" x="1498.5" y="-792" font-family="Helvetica,sans-Serif" font-size="10.00">MoFEM::TSMethod</text>
</a>
</g>
</g>
<!-- Node14&#45;&gt;Node27 -->
<g id="edge32" class="edge">
<title>Node14&#45;&gt;Node27</title>
<path fill="none" stroke="darkgreen" d="M1205.68,-1077.35C1219.48,-1073.67 1232.94,-1067.55 1243,-1057.5 1267.25,-1033.27 1236.37,-1006.34 1261,-982.5 1305.34,-939.58 1346.29,-989.68 1397,-954.5 1453.6,-915.24 1484.97,-832.72 1494.41,-804.34"/>
<polygon fill="darkgreen" stroke="darkgreen" points="1204.61,-1074 1195.62,-1079.6 1206.14,-1080.83 1204.61,-1074"/>
</g>
<!-- Node15 -->
<g id="node15" class="node">
<title>Node15</title>
<g id="a_node15"><a xlink:href="structMoFEM_1_1UnknownInterface.html" target="_top" xlink:title="base class for all interface classes">
<polygon fill="white" stroke="black" points="735,-1338 735,-1357 883,-1357 883,-1338 735,-1338"/>
<text text-anchor="middle" x="809" y="-1345" font-family="Helvetica,sans-Serif" font-size="10.00">MoFEM::UnknownInterface</text>
</a>
</g>
</g>
<!-- Node15&#45;&gt;Node14 -->
<g id="edge14" class="edge">
<title>Node15&#45;&gt;Node14</title>
<path fill="none" stroke="midnightblue" d="M842.85,-1333.74C890.44,-1312.01 977.73,-1265.03 1022,-1196.5 1044.37,-1161.87 1011.42,-1135.22 1040,-1105.5 1052.31,-1092.7 1070.13,-1086.21 1087.35,-1083.06"/>
<polygon fill="midnightblue" stroke="midnightblue" points="841.3,-1330.6 833.6,-1337.88 844.16,-1336.99 841.3,-1330.6"/>
</g>
<!-- Node55 -->
<g id="node55" class="node">
<title>Node55</title>
<g id="a_node55"><a xlink:href="structMoFEM_1_1CoreInterface.html" target="_top" xlink:title="Interface.">
<polygon fill="white" stroke="black" points="1079,-1360 1079,-1379 1204,-1379 1204,-1360 1079,-1360"/>
<text text-anchor="middle" x="1141.5" y="-1367" font-family="Helvetica,sans-Serif" font-size="10.00">MoFEM::CoreInterface</text>
</a>
</g>
</g>
<!-- Node15&#45;&gt;Node55 -->
<g id="edge66" class="edge">
<title>Node15&#45;&gt;Node55</title>
<path fill="none" stroke="midnightblue" d="M893.54,-1353.06C951.26,-1356.9 1026.75,-1361.93 1079,-1365.41"/>
<polygon fill="midnightblue" stroke="midnightblue" points="893.56,-1349.55 883.35,-1352.38 893.09,-1356.54 893.56,-1349.55"/>
</g>
<!-- Node16 -->
<g id="node16" class="node">
<title>Node16</title>
<g id="a_node16"><a xlink:title=" ">
<polygon fill="white" stroke="#bfbfbf" points="386,-1316 386,-1379 627,-1379 627,-1316 386,-1316"/>
<text text-anchor="start" x="394" y="-1367" font-family="Helvetica,sans-Serif" font-size="10.00">multi_index_container</text>
<text text-anchor="start" x="394" y="-1356" font-family="Helvetica,sans-Serif" font-size="10.00">&lt; UIdTypeMap, indexed</text>
<text text-anchor="start" x="394" y="-1345" font-family="Helvetica,sans-Serif" font-size="10.00">_by&lt; hashed_unique&lt; member</text>
<text text-anchor="start" x="394" y="-1334" font-family="Helvetica,sans-Serif" font-size="10.00">&lt; UIdTypeMap, boost::typeindex</text>
<text text-anchor="middle" x="506.5" y="-1323" font-family="Helvetica,sans-Serif" font-size="10.00">::type_index, &amp;UIdTypeMap::classIdx &gt; &gt; &gt; &gt;</text>
</a>
</g>
</g>
<!-- Node16&#45;&gt;Node15 -->
<g id="edge15" class="edge">
<title>Node16&#45;&gt;Node15</title>
<path fill="none" stroke="#9a32cd" stroke-dasharray="5,2" d="M637.41,-1347.5C670.69,-1347.5 705.33,-1347.5 734.62,-1347.5"/>
<polygon fill="#9a32cd" stroke="#9a32cd" points="637.13,-1344 627.13,-1347.5 637.13,-1351 637.13,-1344"/>
<text text-anchor="middle" x="681" y="-1350.5" font-family="Helvetica,sans-Serif" font-size="10.00"> iFaceTypeMap</text>
</g>
<!-- Node17 -->
<g id="node17" class="node">
<title>Node17</title>
<g id="a_node17"><a xlink:title=" ">
<polygon fill="white" stroke="#bfbfbf" points="0,-1368 0,-1387 125,-1387 125,-1368 0,-1368"/>
<text text-anchor="middle" x="62.5" y="-1375" font-family="Helvetica,sans-Serif" font-size="10.00">multi_index_container</text>
</a>
</g>
</g>
<!-- Node17&#45;&gt;Node12 -->
<g id="edge39" class="edge">
<title>Node17&#45;&gt;Node12</title>
<path fill="none" stroke="#9a32cd" stroke-dasharray="5,2" d="M114.58,-1389.03C123.99,-1390.8 133.76,-1392.4 143,-1393.5 303.1,-1412.58 344.27,-1407.5 505.5,-1407.5 505.5,-1407.5 505.5,-1407.5 962.5,-1407.5 1247.43,-1407.5 1382.73,-1446.16 1582,-1242.5 1732.95,-1088.22 1712.18,-1004.08 1781,-799.5 1792.34,-765.78 1776.33,-748.92 1799,-721.5 1810.34,-707.79 1827.61,-698.86 1843.71,-693.13"/>
<polygon fill="#9a32cd" stroke="#9a32cd" points="115.05,-1385.56 104.56,-1387.07 113.7,-1392.43 115.05,-1385.56"/>
<text text-anchor="middle" x="961.5" y="-1487.5" font-family="Helvetica,sans-Serif" font-size="10.00"> adjacenciesPtr</text>
<text text-anchor="middle" x="961.5" y="-1476.5" font-family="Helvetica,sans-Serif" font-size="10.00">refinedEntitiesPtr</text>
<text text-anchor="middle" x="961.5" y="-1465.5" font-family="Helvetica,sans-Serif" font-size="10.00">finiteElementsEntitiesPtr</text>
<text text-anchor="middle" x="961.5" y="-1454.5" font-family="Helvetica,sans-Serif" font-size="10.00">dofsPtr</text>
<text text-anchor="middle" x="961.5" y="-1443.5" font-family="Helvetica,sans-Serif" font-size="10.00">entitiesPtr</text>
<text text-anchor="middle" x="961.5" y="-1432.5" font-family="Helvetica,sans-Serif" font-size="10.00">finiteElementsPtr</text>
<text text-anchor="middle" x="961.5" y="-1421.5" font-family="Helvetica,sans-Serif" font-size="10.00">refinedFiniteElementsPtr</text>
<text text-anchor="middle" x="961.5" y="-1410.5" font-family="Helvetica,sans-Serif" font-size="10.00">fieldsPtr</text>
</g>
<!-- Node17&#45;&gt;Node16 -->
<g id="edge16" class="edge">
<title>Node17&#45;&gt;Node16</title>
<path fill="none" stroke="orange" stroke-dasharray="5,2" d="M94.05,-1364.05C108.58,-1358.36 126.37,-1352.39 143,-1349.5 223.14,-1335.57 314.76,-1335.2 385.84,-1338.24"/>
<polygon fill="orange" stroke="orange" points="92.52,-1360.9 84.58,-1367.9 95.16,-1367.38 92.52,-1360.9"/>
<text text-anchor="start" x="143" y="-1385.5" font-family="Helvetica,sans-Serif" font-size="10.00"> &lt; UIdTypeMap, indexed</text>
<text text-anchor="start" x="143" y="-1374.5" font-family="Helvetica,sans-Serif" font-size="10.00">_by&lt; hashed_unique&lt; member</text>
<text text-anchor="start" x="143" y="-1363.5" font-family="Helvetica,sans-Serif" font-size="10.00">&lt; UIdTypeMap, boost::typeindex</text>
<text text-anchor="middle" x="255.5" y="-1352.5" font-family="Helvetica,sans-Serif" font-size="10.00">::type_index, &amp;UIdTypeMap::classIdx &gt; &gt; &gt; &gt;</text>
</g>
<!-- Node18 -->
<g id="node18" class="node">
<title>Node18</title>
<g id="a_node18"><a xlink:title=" ">
<polygon fill="white" stroke="#bfbfbf" points="738.5,-1051 738.5,-1070 879.5,-1070 879.5,-1051 738.5,-1051"/>
<text text-anchor="middle" x="809" y="-1058" font-family="Helvetica,sans-Serif" font-size="10.00">static constexpr Switches</text>
</a>
</g>
</g>
<!-- Node18&#45;&gt;Node14 -->
<g id="edge17" class="edge">
<title>Node18&#45;&gt;Node14</title>
<path fill="none" stroke="#9a32cd" stroke-dasharray="5,2" d="M889.71,-1059.57C893.53,-1059.55 897.31,-1059.52 901,-1059.5 954.78,-1059.2 968.45,-1054.57 1022,-1059.5 1048.05,-1061.9 1076.91,-1067.2 1099.63,-1072"/>
<polygon fill="#9a32cd" stroke="#9a32cd" points="889.53,-1056.08 879.56,-1059.66 889.59,-1063.07 889.53,-1056.08"/>
<text text-anchor="middle" x="961.5" y="-1139.5" font-family="Helvetica,sans-Serif" font-size="10.00"> CtxSetX_TT</text>
<text text-anchor="middle" x="961.5" y="-1128.5" font-family="Helvetica,sans-Serif" font-size="10.00">CtxSetX_T</text>
<text text-anchor="middle" x="961.5" y="-1117.5" font-family="Helvetica,sans-Serif" font-size="10.00">CtxSetA</text>
<text text-anchor="middle" x="961.5" y="-1106.5" font-family="Helvetica,sans-Serif" font-size="10.00">CtxSetB</text>
<text text-anchor="middle" x="961.5" y="-1095.5" font-family="Helvetica,sans-Serif" font-size="10.00">CtxSetTime</text>
<text text-anchor="middle" x="961.5" y="-1084.5" font-family="Helvetica,sans-Serif" font-size="10.00">CtxSetNone</text>
<text text-anchor="middle" x="961.5" y="-1073.5" font-family="Helvetica,sans-Serif" font-size="10.00">CtxSetF</text>
<text text-anchor="middle" x="961.5" y="-1062.5" font-family="Helvetica,sans-Serif" font-size="10.00">CtxSetX</text>
</g>
<!-- Node19 -->
<g id="node19" class="node">
<title>Node19</title>
<g id="a_node19"><a xlink:title=" ">
<polygon fill="white" stroke="#bfbfbf" points="791.5,-1209 791.5,-1228 826.5,-1228 826.5,-1209 791.5,-1209"/>
<text text-anchor="middle" x="809" y="-1216" font-family="Helvetica,sans-Serif" font-size="10.00">Mat</text>
</a>
</g>
</g>
<!-- Node19&#45;&gt;Node13 -->
<g id="edge23" class="edge">
<title>Node19&#45;&gt;Node13</title>
<path fill="none" stroke="#9a32cd" stroke-dasharray="5,2" d="M836.01,-1227.91C854.01,-1234 878.66,-1241.51 901,-1245.5 1118.02,-1284.22 1178.62,-1275.59 1397,-1245.5 1418.23,-1242.57 1441.64,-1237.56 1460.52,-1233.05"/>
<polygon fill="#9a32cd" stroke="#9a32cd" points="837.1,-1224.58 826.5,-1224.62 834.81,-1231.2 837.1,-1224.58"/>
<text text-anchor="middle" x="1141.5" y="-1284.5" font-family="Helvetica,sans-Serif" font-size="10.00"> ksp_A</text>
<text text-anchor="middle" x="1141.5" y="-1273.5" font-family="Helvetica,sans-Serif" font-size="10.00">ksp_B</text>
</g>
<!-- Node19&#45;&gt;Node14 -->
<g id="edge18" class="edge">
<title>Node19&#45;&gt;Node14</title>
<path fill="none" stroke="#9a32cd" stroke-dasharray="5,2" d="M833.42,-1203.64C851.3,-1192.94 876.88,-1178.94 901,-1170.5 952.67,-1152.42 979.33,-1181.79 1022,-1147.5 1037.83,-1134.78 1024.47,-1118.59 1040,-1105.5 1053.24,-1094.35 1070.78,-1088.19 1087.49,-1084.85"/>
<polygon fill="#9a32cd" stroke="#9a32cd" points="831.53,-1200.7 824.83,-1208.9 835.18,-1206.67 831.53,-1200.7"/>
<text text-anchor="middle" x="961.5" y="-1184.5" font-family="Helvetica,sans-Serif" font-size="10.00"> A</text>
<text text-anchor="middle" x="961.5" y="-1173.5" font-family="Helvetica,sans-Serif" font-size="10.00">B</text>
</g>
<!-- Node19&#45;&gt;Node24 -->
<g id="edge28" class="edge">
<title>Node19&#45;&gt;Node24</title>
<path fill="none" stroke="#9a32cd" stroke-dasharray="5,2" d="M836.46,-1225.38C878.29,-1234.78 961.19,-1247.3 1022,-1217.5 1033.66,-1211.79 1028.95,-1201.32 1040,-1194.5 1118.32,-1146.15 1157.96,-1188.73 1243,-1153.5 1346.39,-1110.67 1452.24,-1023.63 1486.26,-994.36"/>
<polygon fill="#9a32cd" stroke="#9a32cd" points="837.04,-1221.93 826.51,-1223.03 835.43,-1228.74 837.04,-1221.93"/>
<text text-anchor="middle" x="1141.5" y="-1208.5" font-family="Helvetica,sans-Serif" font-size="10.00"> snes_A</text>
<text text-anchor="middle" x="1141.5" y="-1197.5" font-family="Helvetica,sans-Serif" font-size="10.00">snes_B</text>
</g>
<!-- Node19&#45;&gt;Node27 -->
<g id="edge33" class="edge">
<title>Node19&#45;&gt;Node27</title>
<path fill="none" stroke="#9a32cd" stroke-dasharray="5,2" d="M837.02,-1218.8C887.81,-1218.79 994.85,-1215.9 1022,-1192.5 1044.71,-1172.93 1017.39,-1147.19 1040,-1127.5 1108.64,-1067.73 1176.77,-1162.93 1243,-1100.5 1273.63,-1071.62 1231.41,-1037.45 1261,-1007.5 1304.38,-963.6 1347.43,-1016.26 1397,-979.5 1459.83,-932.91 1487.84,-834.94 1495.35,-804.04"/>
<polygon fill="#9a32cd" stroke="#9a32cd" points="836.82,-1215.29 826.81,-1218.76 836.79,-1222.29 836.82,-1215.29"/>
<text text-anchor="middle" x="1141.5" y="-1141.5" font-family="Helvetica,sans-Serif" font-size="10.00"> ts_A</text>
<text text-anchor="middle" x="1141.5" y="-1130.5" font-family="Helvetica,sans-Serif" font-size="10.00">ts_B</text>
</g>
<!-- Node20 -->
<g id="node20" class="node">
<title>Node20</title>
<g id="a_node20"><a xlink:title=" ">
<polygon fill="white" stroke="#bfbfbf" points="772.5,-1013 772.5,-1032 845.5,-1032 845.5,-1013 772.5,-1013"/>
<text text-anchor="middle" x="809" y="-1020" font-family="Helvetica,sans-Serif" font-size="10.00">bitset&lt; 8 &gt;</text>
</a>
</g>
</g>
<!-- Node20&#45;&gt;Node14 -->
<g id="edge19" class="edge">
<title>Node20&#45;&gt;Node14</title>
<path fill="none" stroke="#9a32cd" stroke-dasharray="5,2" d="M855.99,-1018.53C900.35,-1016.53 968.46,-1018.36 1022,-1041.5 1031.82,-1045.75 1030.51,-1052.55 1040,-1057.5 1054.55,-1065.09 1071.54,-1070.32 1087.37,-1073.9"/>
<polygon fill="#9a32cd" stroke="#9a32cd" points="855.59,-1015.05 845.79,-1019.08 855.97,-1022.04 855.59,-1015.05"/>
<text text-anchor="middle" x="961.5" y="-1044.5" font-family="Helvetica,sans-Serif" font-size="10.00"> data_ctx</text>
</g>
<!-- Node21 -->
<g id="node21" class="node">
<title>Node21</title>
<g id="a_node21"><a xlink:title=" ">
<polygon fill="white" stroke="#bfbfbf" points="792,-903 792,-922 826,-922 826,-903 792,-903"/>
<text text-anchor="middle" x="809" y="-910" font-family="Helvetica,sans-Serif" font-size="10.00">Vec</text>
</a>
</g>
</g>
<!-- Node21&#45;&gt;Node13 -->
<g id="edge24" class="edge">
<title>Node21&#45;&gt;Node13</title>
<path fill="none" stroke="#9a32cd" stroke-dasharray="5,2" d="M836.38,-912.11C887.01,-911.92 995.2,-914.44 1022,-938.5 1048.15,-961.98 1014.49,-991.33 1040,-1015.5 1106.52,-1078.52 1154.57,-1027.5 1243,-1051.5 1313.43,-1070.62 1336.91,-1067.08 1397,-1108.5 1440.66,-1138.6 1477.44,-1191.86 1491.44,-1213.72"/>
<polygon fill="#9a32cd" stroke="#9a32cd" points="836.19,-908.61 826.22,-912.19 836.24,-915.61 836.19,-908.61"/>
<text text-anchor="middle" x="1141.5" y="-1054.5" font-family="Helvetica,sans-Serif" font-size="10.00"> ksp_f</text>
</g>
<!-- Node21&#45;&gt;Node14 -->
<g id="edge20" class="edge">
<title>Node21&#45;&gt;Node14</title>
<path fill="none" stroke="#9a32cd" stroke-dasharray="5,2" d="M836.23,-919.17C892.24,-933.47 1018.75,-966.04 1022,-969.5 1049.36,-998.57 1012.24,-1028.81 1040,-1057.5 1052.35,-1070.26 1070.18,-1076.74 1087.4,-1079.89"/>
<polygon fill="#9a32cd" stroke="#9a32cd" points="836.88,-915.73 826.33,-916.65 835.15,-922.51 836.88,-915.73"/>
<text text-anchor="middle" x="961.5" y="-1005.5" font-family="Helvetica,sans-Serif" font-size="10.00"> f</text>
<text text-anchor="middle" x="961.5" y="-994.5" font-family="Helvetica,sans-Serif" font-size="10.00">x</text>
<text text-anchor="middle" x="961.5" y="-983.5" font-family="Helvetica,sans-Serif" font-size="10.00">x_t</text>
<text text-anchor="middle" x="961.5" y="-972.5" font-family="Helvetica,sans-Serif" font-size="10.00">x_tt</text>
</g>
<!-- Node21&#45;&gt;Node24 -->
<g id="edge29" class="edge">
<title>Node21&#45;&gt;Node24</title>
<path fill="none" stroke="#9a32cd" stroke-dasharray="5,2" d="M836.48,-912.51C876.61,-912.55 955.22,-912.74 1022,-913.5 1120.23,-914.62 1145.69,-904.01 1243,-917.5 1327.4,-929.2 1423.9,-959.41 1470.07,-974.95"/>
<polygon fill="#9a32cd" stroke="#9a32cd" points="836.23,-909.01 826.22,-912.5 836.22,-916.01 836.23,-909.01"/>
<text text-anchor="middle" x="1141.5" y="-931.5" font-family="Helvetica,sans-Serif" font-size="10.00"> snes_x</text>
<text text-anchor="middle" x="1141.5" y="-920.5" font-family="Helvetica,sans-Serif" font-size="10.00">snes_f</text>
</g>
<!-- Node21&#45;&gt;Node27 -->
<g id="edge37" class="edge">
<title>Node21&#45;&gt;Node27</title>
<path fill="none" stroke="#9a32cd" stroke-dasharray="5,2" d="M823.84,-894.82C856.35,-854.88 942.29,-758.5 1040,-723.5 1114.93,-696.66 1326.09,-716.35 1397,-752.5 1406.8,-757.5 1405.48,-763.98 1415,-769.5 1426.52,-776.18 1440,-781.24 1452.69,-784.99"/>
<polygon fill="#9a32cd" stroke="#9a32cd" points="820.91,-892.86 817.39,-902.86 826.38,-897.24 820.91,-892.86"/>
<text text-anchor="middle" x="1141.5" y="-759.5" font-family="Helvetica,sans-Serif" font-size="10.00"> ts_u</text>
<text text-anchor="middle" x="1141.5" y="-748.5" font-family="Helvetica,sans-Serif" font-size="10.00">ts_F</text>
<text text-anchor="middle" x="1141.5" y="-737.5" font-family="Helvetica,sans-Serif" font-size="10.00">ts_u_t</text>
<text text-anchor="middle" x="1141.5" y="-726.5" font-family="Helvetica,sans-Serif" font-size="10.00">ts_u_tt</text>
</g>
<!-- Node22 -->
<g id="node22" class="node">
<title>Node22</title>
<g id="a_node22"><a xlink:title=" ">
<polygon fill="white" stroke="#bfbfbf" points="1124,-1226 1124,-1245 1159,-1245 1159,-1226 1124,-1226"/>
<text text-anchor="middle" x="1141.5" y="-1233" font-family="Helvetica,sans-Serif" font-size="10.00">KSP</text>
</a>
</g>
</g>
<!-- Node22&#45;&gt;Node13 -->
<g id="edge21" class="edge">
<title>Node22&#45;&gt;Node13</title>
<path fill="none" stroke="#9a32cd" stroke-dasharray="5,2" d="M1169.29,-1234.59C1227.06,-1232.64 1364.41,-1228 1441.88,-1225.38"/>
<polygon fill="#9a32cd" stroke="#9a32cd" points="1169.02,-1231.1 1159.15,-1234.94 1169.26,-1238.1 1169.02,-1231.1"/>
<text text-anchor="middle" x="1329" y="-1233.5" font-family="Helvetica,sans-Serif" font-size="10.00"> ksp</text>
</g>
<!-- Node23 -->
<g id="node23" class="node">
<title>Node23</title>
<g id="a_node23"><a xlink:title=" ">
<polygon fill="white" stroke="#bfbfbf" points="1104.5,-1322 1104.5,-1341 1178.5,-1341 1178.5,-1322 1104.5,-1322"/>
<text text-anchor="middle" x="1141.5" y="-1329" font-family="Helvetica,sans-Serif" font-size="10.00">KSPContext</text>
</a>
</g>
</g>
<!-- Node23&#45;&gt;Node13 -->
<g id="edge22" class="edge">
<title>Node23&#45;&gt;Node13</title>
<path fill="none" stroke="#9a32cd" stroke-dasharray="5,2" d="M1188.58,-1326.19C1256.64,-1318.16 1378.09,-1303.08 1397,-1295.5 1434.26,-1280.57 1470.71,-1249.03 1487.65,-1233.12"/>
<polygon fill="#9a32cd" stroke="#9a32cd" points="1188.06,-1322.73 1178.54,-1327.37 1188.88,-1329.68 1188.06,-1322.73"/>
<text text-anchor="middle" x="1329" y="-1319.5" font-family="Helvetica,sans-Serif" font-size="10.00"> ksp_ctx</text>
</g>
<!-- Node24&#45;&gt;Node12 -->
<g id="edge25" class="edge">
<title>Node24&#45;&gt;Node12</title>
<path fill="none" stroke="midnightblue" d="M1508.71,-965.53C1524,-934 1555.56,-868.81 1582,-813.5 1590.06,-796.64 1585.02,-786.67 1600,-775.5 1665.25,-726.83 1712,-790.7 1781,-747.5 1792.91,-740.04 1788.17,-730.45 1799,-721.5 1814.6,-708.61 1835.27,-699.29 1852.43,-693.11"/>
<polygon fill="midnightblue" stroke="midnightblue" points="1505.39,-964.34 1504.18,-974.87 1511.69,-967.4 1505.39,-964.34"/>
</g>
<!-- Node25 -->
<g id="node25" class="node">
<title>Node25</title>
<g id="a_node25"><a xlink:title=" ">
<polygon fill="white" stroke="#bfbfbf" points="1120.5,-987 1120.5,-1006 1162.5,-1006 1162.5,-987 1120.5,-987"/>
<text text-anchor="middle" x="1141.5" y="-994" font-family="Helvetica,sans-Serif" font-size="10.00">SNES</text>
</a>
</g>
</g>
<!-- Node25&#45;&gt;Node24 -->
<g id="edge27" class="edge">
<title>Node25&#45;&gt;Node24</title>
<path fill="none" stroke="#9a32cd" stroke-dasharray="5,2" d="M1172.72,-995.48C1231.53,-993.49 1362.28,-989.07 1438.74,-986.49"/>
<polygon fill="#9a32cd" stroke="#9a32cd" points="1172.48,-991.98 1162.6,-995.82 1172.72,-998.98 1172.48,-991.98"/>
<text text-anchor="middle" x="1329" y="-994.5" font-family="Helvetica,sans-Serif" font-size="10.00"> snes</text>
</g>
<!-- Node26 -->
<g id="node26" class="node">
<title>Node26</title>
<g id="a_node26"><a xlink:title=" ">
<polygon fill="white" stroke="#bfbfbf" points="1101.5,-949 1101.5,-968 1181.5,-968 1181.5,-949 1101.5,-949"/>
<text text-anchor="middle" x="1141.5" y="-956" font-family="Helvetica,sans-Serif" font-size="10.00">SNESContext</text>
</a>
</g>
</g>
<!-- Node26&#45;&gt;Node24 -->
<g id="edge30" class="edge">
<title>Node26&#45;&gt;Node24</title>
<path fill="none" stroke="#9a32cd" stroke-dasharray="5,2" d="M1191.94,-960.28C1243.27,-962.35 1325.86,-966.3 1397,-972.5 1410.57,-973.68 1425.13,-975.25 1438.84,-976.86"/>
<polygon fill="#9a32cd" stroke="#9a32cd" points="1191.92,-956.78 1181.79,-959.88 1191.65,-963.77 1191.92,-956.78"/>
<text text-anchor="middle" x="1329" y="-975.5" font-family="Helvetica,sans-Serif" font-size="10.00"> snes_ctx</text>
</g>
<!-- Node27&#45;&gt;Node12 -->
<g id="edge31" class="edge">
<title>Node27&#45;&gt;Node12</title>
<path fill="none" stroke="midnightblue" d="M1525.74,-780.06C1545.57,-769.75 1573.78,-756.36 1600,-748.5 1677.97,-725.12 1702.08,-740.45 1781,-720.5 1809.43,-713.31 1841.02,-701.5 1861.85,-693.16"/>
<polygon fill="midnightblue" stroke="midnightblue" points="1523.92,-777.06 1516.72,-784.83 1527.19,-783.25 1523.92,-777.06"/>
</g>
<!-- Node28 -->
<g id="node28" class="node">
<title>Node28</title>
<g id="a_node28"><a xlink:title=" ">
<polygon fill="white" stroke="#bfbfbf" points="1109,-777 1109,-796 1174,-796 1174,-777 1109,-777"/>
<text text-anchor="middle" x="1141.5" y="-784" font-family="Helvetica,sans-Serif" font-size="10.00">PetscReal</text>
</a>
</g>
</g>
<!-- Node28&#45;&gt;Node27 -->
<g id="edge34" class="edge">
<title>Node28&#45;&gt;Node27</title>
<path fill="none" stroke="#9a32cd" stroke-dasharray="5,2" d="M1184.02,-775.54C1234.67,-763.79 1322.73,-748.57 1397,-762.5 1405.44,-764.08 1406.89,-766.7 1415,-769.5 1430.99,-775.02 1448.93,-780.54 1464,-784.98"/>
<polygon fill="#9a32cd" stroke="#9a32cd" points="1183.01,-772.18 1174.1,-777.91 1184.64,-778.99 1183.01,-772.18"/>
<text text-anchor="middle" x="1329" y="-798.5" font-family="Helvetica,sans-Serif" font-size="10.00"> ts_a</text>
<text text-anchor="middle" x="1329" y="-787.5" font-family="Helvetica,sans-Serif" font-size="10.00">ts_t</text>
<text text-anchor="middle" x="1329" y="-776.5" font-family="Helvetica,sans-Serif" font-size="10.00">ts_dt</text>
<text text-anchor="middle" x="1329" y="-765.5" font-family="Helvetica,sans-Serif" font-size="10.00">ts_aa</text>
</g>
<!-- Node29 -->
<g id="node29" class="node">
<title>Node29</title>
<g id="a_node29"><a xlink:title=" ">
<polygon fill="white" stroke="#bfbfbf" points="1108,-659 1108,-678 1175,-678 1175,-659 1108,-659"/>
<text text-anchor="middle" x="1141.5" y="-666" font-family="Helvetica,sans-Serif" font-size="10.00">TSContext</text>
</a>
</g>
</g>
<!-- Node29&#45;&gt;Node27 -->
<g id="edge35" class="edge">
<title>Node29&#45;&gt;Node27</title>
<path fill="none" stroke="#9a32cd" stroke-dasharray="5,2" d="M1185.59,-673.18C1256.1,-681.01 1389.14,-696.6 1397,-703.5 1419.85,-723.56 1393.8,-747.7 1415,-769.5 1423.03,-777.76 1433.7,-783.32 1444.68,-787.04"/>
<polygon fill="#9a32cd" stroke="#9a32cd" points="1185.58,-669.66 1175.25,-672.04 1184.81,-676.62 1185.58,-669.66"/>
<text text-anchor="middle" x="1329" y="-706.5" font-family="Helvetica,sans-Serif" font-size="10.00"> ts_ctx</text>
</g>
<!-- Node30 -->
<g id="node30" class="node">
<title>Node30</title>
<g id="a_node30"><a xlink:title=" ">
<polygon fill="white" stroke="#bfbfbf" points="1113.5,-853 1113.5,-872 1169.5,-872 1169.5,-853 1113.5,-853"/>
<text text-anchor="middle" x="1141.5" y="-860" font-family="Helvetica,sans-Serif" font-size="10.00">PetscInt</text>
</a>
</g>
</g>
<!-- Node30&#45;&gt;Node27 -->
<g id="edge36" class="edge">
<title>Node30&#45;&gt;Node27</title>
<path fill="none" stroke="#9a32cd" stroke-dasharray="5,2" d="M1179.63,-860.67C1229.62,-857.6 1321.06,-849.84 1397,-831.5 1425.01,-824.73 1455.95,-812.6 1475.99,-804.07"/>
<polygon fill="#9a32cd" stroke="#9a32cd" points="1179.39,-857.18 1169.61,-861.26 1179.8,-864.17 1179.39,-857.18"/>
<text text-anchor="middle" x="1329" y="-855.5" font-family="Helvetica,sans-Serif" font-size="10.00"> ts_step</text>
</g>
<!-- Node31 -->
<g id="node31" class="node">
<title>Node31</title>
<g id="a_node31"><a xlink:title=" ">
<polygon fill="white" stroke="#bfbfbf" points="1127,-815 1127,-834 1156,-834 1156,-815 1127,-815"/>
<text text-anchor="middle" x="1141.5" y="-822" font-family="Helvetica,sans-Serif" font-size="10.00">TS</text>
</a>
</g>
</g>
<!-- Node31&#45;&gt;Node27 -->
<g id="edge38" class="edge">
<title>Node31&#45;&gt;Node27</title>
<path fill="none" stroke="#9a32cd" stroke-dasharray="5,2" d="M1166.24,-823.2C1211.29,-820.66 1312.24,-814.55 1397,-806.5 1412.57,-805.02 1429.46,-803.12 1444.87,-801.27"/>
<polygon fill="#9a32cd" stroke="#9a32cd" points="1165.83,-819.72 1156.04,-823.77 1166.22,-826.71 1165.83,-819.72"/>
<text text-anchor="middle" x="1329" y="-819.5" font-family="Helvetica,sans-Serif" font-size="10.00"> ts</text>
</g>
<!-- Node32 -->
<g id="node32" class="node">
<title>Node32</title>
<g id="a_node32"><a xlink:title=" ">
<polygon fill="white" stroke="#bfbfbf" points="1454,-380 1454,-399 1543,-399 1543,-380 1454,-380"/>
<text text-anchor="middle" x="1498.5" y="-387" font-family="Helvetica,sans-Serif" font-size="10.00">pair&lt; int, int &gt;</text>
</a>
</g>
</g>
<!-- Node32&#45;&gt;Node12 -->
<g id="edge40" class="edge">
<title>Node32&#45;&gt;Node12</title>
<path fill="none" stroke="#9a32cd" stroke-dasharray="5,2" d="M1553.35,-390.12C1615.06,-393.58 1716,-407.98 1781,-462.5 1851.5,-521.64 1877.21,-639.31 1883.4,-673.79"/>
<polygon fill="#9a32cd" stroke="#9a32cd" points="1553.21,-386.61 1543.05,-389.63 1552.87,-393.6 1553.21,-386.61"/>
<text text-anchor="middle" x="1690.5" y="-465.5" font-family="Helvetica,sans-Serif" font-size="10.00"> loHiFERank</text>
</g>
<!-- Node33 -->
<g id="node33" class="node">
<title>Node33</title>
<g id="a_node33"><a xlink:title=" ">
<polygon fill="white" stroke="#bfbfbf" points="1428.5,-342 1428.5,-361 1568.5,-361 1568.5,-342 1428.5,-342"/>
<text text-anchor="middle" x="1498.5" y="-349" font-family="Helvetica,sans-Serif" font-size="10.00">weak_ptr&lt; CacheTuple &gt;</text>
</a>
</g>
</g>
<!-- Node33&#45;&gt;Node12 -->
<g id="edge41" class="edge">
<title>Node33&#45;&gt;Node12</title>
<path fill="none" stroke="#9a32cd" stroke-dasharray="5,2" d="M1556.78,-340.53C1618.83,-332.09 1717.47,-329.15 1781,-379.5 1878.71,-456.93 1885.08,-630.87 1885.12,-673.79"/>
<polygon fill="#9a32cd" stroke="#9a32cd" points="1556.16,-337.08 1546.77,-341.98 1557.16,-344.01 1556.16,-337.08"/>
<text text-anchor="middle" x="1690.5" y="-382.5" font-family="Helvetica,sans-Serif" font-size="10.00"> cacheWeakPtr</text>
</g>
<!-- Node34 -->
<g id="node34" class="node">
<title>Node34</title>
<g id="a_node34"><a xlink:title=" ">
<polygon fill="white" stroke="#bfbfbf" points="1442.5,-299 1442.5,-318 1554.5,-318 1554.5,-299 1442.5,-299"/>
<text text-anchor="middle" x="1498.5" y="-306" font-family="Helvetica,sans-Serif" font-size="10.00">unique_ptr&lt; bool &gt;</text>
</a>
</g>
</g>
<!-- Node34&#45;&gt;Node12 -->
<g id="edge42" class="edge">
<title>Node34&#45;&gt;Node12</title>
<path fill="none" stroke="#9a32cd" stroke-dasharray="5,2" d="M1536.4,-295.87C1594.83,-278.42 1709.33,-254.84 1781,-309.5 1842.49,-356.4 1877.31,-619.79 1883.86,-673.81"/>
<polygon fill="#9a32cd" stroke="#9a32cd" points="1535.03,-292.64 1526.51,-298.93 1537.09,-299.32 1535.03,-292.64"/>
<text text-anchor="middle" x="1690.5" y="-323.5" font-family="Helvetica,sans-Serif" font-size="10.00"> matAssembleSwitch</text>
<text text-anchor="middle" x="1690.5" y="-312.5" font-family="Helvetica,sans-Serif" font-size="10.00">vecAssembleSwitch</text>
</g>
<!-- Node35 -->
<g id="node35" class="node">
<title>Node35</title>
<g id="a_node35"><a xlink:title=" ">
<polygon fill="white" stroke="#bfbfbf" points="1127,-553 1127,-572 1156,-572 1156,-553 1127,-553"/>
<text text-anchor="middle" x="1141.5" y="-560" font-family="Helvetica,sans-Serif" font-size="10.00">int</text>
</a>
</g>
</g>
<!-- Node35&#45;&gt;Node12 -->
<g id="edge43" class="edge">
<title>Node35&#45;&gt;Node12</title>
<path fill="none" stroke="#9a32cd" stroke-dasharray="5,2" d="M1165.65,-570.67C1189.3,-578.65 1227.23,-590.46 1261,-596.5 1401.83,-621.69 1440.33,-600.56 1582,-620.5 1678.3,-634.05 1789.89,-659.93 1847.01,-673.94"/>
<polygon fill="#9a32cd" stroke="#9a32cd" points="1166.74,-567.35 1156.15,-567.41 1164.47,-573.97 1166.74,-567.35"/>
<text text-anchor="middle" x="1498.5" y="-656.5" font-family="Helvetica,sans-Serif" font-size="10.00"> sIze</text>
<text text-anchor="middle" x="1498.5" y="-645.5" font-family="Helvetica,sans-Serif" font-size="10.00">loopSize</text>
<text text-anchor="middle" x="1498.5" y="-634.5" font-family="Helvetica,sans-Serif" font-size="10.00">nInTheLoop</text>
<text text-anchor="middle" x="1498.5" y="-623.5" font-family="Helvetica,sans-Serif" font-size="10.00">rAnk</text>
</g>
<!-- Node35&#45;&gt;Node37 -->
<g id="edge55" class="edge">
<title>Node35&#45;&gt;Node37</title>
<path fill="none" stroke="#9a32cd" stroke-dasharray="5,2" d="M1165.63,-552.86C1189.26,-543.31 1227.18,-528.81 1261,-519.5 1320.33,-503.17 1339.97,-516.61 1397,-493.5 1432.4,-479.15 1468.55,-451.59 1486.28,-437.04"/>
<polygon fill="#9a32cd" stroke="#9a32cd" points="1164.07,-549.72 1156.13,-556.74 1166.72,-556.2 1164.07,-549.72"/>
<text text-anchor="middle" x="1329" y="-588.5" font-family="Helvetica,sans-Serif" font-size="10.00"> tagNameSize</text>
<text text-anchor="middle" x="1329" y="-577.5" font-family="Helvetica,sans-Serif" font-size="10.00">nbDofsRow</text>
<text text-anchor="middle" x="1329" y="-566.5" font-family="Helvetica,sans-Serif" font-size="10.00">nbLocDofsCol</text>
<text text-anchor="middle" x="1329" y="-555.5" font-family="Helvetica,sans-Serif" font-size="10.00">nbDofsCol</text>
<text text-anchor="middle" x="1329" y="-544.5" font-family="Helvetica,sans-Serif" font-size="10.00">nbGhostDofsRow</text>
<text text-anchor="middle" x="1329" y="-533.5" font-family="Helvetica,sans-Serif" font-size="10.00">nbGhostDofsCol</text>
<text text-anchor="middle" x="1329" y="-522.5" font-family="Helvetica,sans-Serif" font-size="10.00">nbLocDofsRow</text>
</g>
<!-- Node36 -->
<g id="node36" class="node">
<title>Node36</title>
<g id="a_node36"><a xlink:title=" ">
<polygon fill="white" stroke="#bfbfbf" points="1415,-674 1415,-693 1582,-693 1582,-674 1415,-674"/>
<text text-anchor="middle" x="1498.5" y="-681" font-family="Helvetica,sans-Serif" font-size="10.00">function&lt; MoFEMErrorCode()&gt;</text>
</a>
</g>
</g>
<!-- Node36&#45;&gt;Node12 -->
<g id="edge44" class="edge">
<title>Node36&#45;&gt;Node12</title>
<path fill="none" stroke="#9a32cd" stroke-dasharray="5,2" d="M1592.21,-683.5C1664.4,-683.5 1762.51,-683.5 1824.8,-683.5"/>
<polygon fill="#9a32cd" stroke="#9a32cd" points="1592.2,-680 1582.2,-683.5 1592.2,-687 1592.2,-680"/>
<text text-anchor="middle" x="1690.5" y="-708.5" font-family="Helvetica,sans-Serif" font-size="10.00"> preProcessHook</text>
<text text-anchor="middle" x="1690.5" y="-697.5" font-family="Helvetica,sans-Serif" font-size="10.00">operatorHook</text>
<text text-anchor="middle" x="1690.5" y="-686.5" font-family="Helvetica,sans-Serif" font-size="10.00">postProcessHook</text>
</g>
<!-- Node37&#45;&gt;Node12 -->
<g id="edge45" class="edge">
<title>Node37&#45;&gt;Node12</title>
<path fill="none" stroke="#9a32cd" stroke-dasharray="5,2" d="M1529.52,-441.33C1582.62,-466.42 1695.54,-522.72 1781,-585.5 1819.59,-613.85 1859.1,-655.15 1876.22,-673.77"/>
<polygon fill="#9a32cd" stroke="#9a32cd" points="1530.87,-438.09 1520.33,-437.01 1527.89,-444.43 1530.87,-438.09"/>
<text text-anchor="middle" x="1690.5" y="-588.5" font-family="Helvetica,sans-Serif" font-size="10.00"> problemPtr</text>
</g>
<!-- Node38 -->
<g id="node38" class="node">
<title>Node38</title>
<g id="a_node38"><a xlink:title=" ">
<polygon fill="white" stroke="#bfbfbf" points="1058,-133.5 1058,-163.5 1225,-163.5 1225,-133.5 1058,-133.5"/>
<text text-anchor="start" x="1066" y="-151.5" font-family="Helvetica,sans-Serif" font-size="10.00">shared_ptr&lt; NumeredEntFinite</text>
<text text-anchor="middle" x="1141.5" y="-140.5" font-family="Helvetica,sans-Serif" font-size="10.00">Element_multiIndex &gt;</text>
</a>
</g>
</g>
<!-- Node38&#45;&gt;Node37 -->
<g id="edge46" class="edge">
<title>Node38&#45;&gt;Node37</title>
<path fill="none" stroke="#9a32cd" stroke-dasharray="5,2" d="M1205.19,-131.28C1263.12,-119.57 1347.48,-113.87 1397,-162.5 1436.11,-200.91 1379.32,-366.89 1415,-408.5 1423.51,-418.43 1436.08,-423.75 1448.85,-426.47"/>
<polygon fill="#9a32cd" stroke="#9a32cd" points="1204.1,-127.94 1195.06,-133.45 1205.57,-134.78 1204.1,-127.94"/>
<text text-anchor="middle" x="1329" y="-165.5" font-family="Helvetica,sans-Serif" font-size="10.00"> numeredFiniteElementsPtr</text>
</g>
<!-- Node39 -->
<g id="node39" class="node">
<title>Node39</title>
<g id="a_node39"><a xlink:title=" ">
<polygon fill="white" stroke="#bfbfbf" points="1112,-485 1112,-504 1171,-504 1171,-485 1112,-485"/>
<text text-anchor="middle" x="1141.5" y="-492" font-family="Helvetica,sans-Serif" font-size="10.00">BitFEId *</text>
</a>
</g>
</g>
<!-- Node39&#45;&gt;Node37 -->
<g id="edge47" class="edge">
<title>Node39&#45;&gt;Node37</title>
<path fill="none" stroke="#9a32cd" stroke-dasharray="5,2" d="M1181.44,-490.31C1231.62,-484.55 1321.41,-472.97 1397,-456.5 1421.31,-451.2 1448.38,-443.27 1468.3,-437.04"/>
<polygon fill="#9a32cd" stroke="#9a32cd" points="1180.89,-486.85 1171.35,-491.46 1181.68,-493.81 1180.89,-486.85"/>
<text text-anchor="middle" x="1329" y="-481.5" font-family="Helvetica,sans-Serif" font-size="10.00"> tagBitFEId</text>
</g>
<!-- Node40 -->
<g id="node40" class="node">
<title>Node40</title>
<g id="a_node40"><a xlink:href="classEntityHandle.html" target="_top" xlink:title=" ">
<polygon fill="white" stroke="black" points="1101.5,-84 1101.5,-103 1181.5,-103 1181.5,-84 1101.5,-84"/>
<text text-anchor="middle" x="1141.5" y="-91" font-family="Helvetica,sans-Serif" font-size="10.00">EntityHandle</text>
</a>
</g>
</g>
<!-- Node40&#45;&gt;Node1 -->
<g id="edge82" class="edge">
<title>Node40&#45;&gt;Node1</title>
<path fill="none" stroke="#9a32cd" stroke-dasharray="5,2" d="M1191.57,-85.81C1259.93,-75.78 1387.82,-59.5 1497.5,-59.5 1497.5,-59.5 1497.5,-59.5 2923,-59.5 2975.74,-59.5 3034.88,-59.5 3081.79,-59.5"/>
<polygon fill="#9a32cd" stroke="#9a32cd" points="1190.9,-82.37 1181.52,-87.3 1191.92,-89.3 1190.9,-82.37"/>
<text text-anchor="middle" x="2256" y="-62.5" font-family="Helvetica,sans-Serif" font-size="10.00"> zeroType</text>
</g>
<!-- Node40&#45;&gt;Node37 -->
<g id="edge48" class="edge">
<title>Node40&#45;&gt;Node37</title>
<path fill="none" stroke="#9a32cd" stroke-dasharray="5,2" d="M1191.77,-89.04C1257.6,-84.26 1369.21,-80.74 1397,-108.5 1444.25,-155.7 1371.86,-357.51 1415,-408.5 1423.45,-418.49 1435.99,-423.83 1448.77,-426.54"/>
<polygon fill="#9a32cd" stroke="#9a32cd" points="1191.32,-85.56 1181.62,-89.81 1191.86,-92.54 1191.32,-85.56"/>
<text text-anchor="middle" x="1329" y="-111.5" font-family="Helvetica,sans-Serif" font-size="10.00"> meshset</text>
</g>
<!-- Node41 -->
<g id="node41" class="node">
<title>Node41</title>
<g id="a_node41"><a xlink:title=" ">
<polygon fill="white" stroke="#bfbfbf" points="1067,-435.5 1067,-465.5 1216,-465.5 1216,-435.5 1067,-435.5"/>
<text text-anchor="start" x="1075" y="-453.5" font-family="Helvetica,sans-Serif" font-size="10.00">shared_ptr&lt; MoFEM::</text>
<text text-anchor="middle" x="1141.5" y="-442.5" font-family="Helvetica,sans-Serif" font-size="10.00">ComposedProblemsData &gt;</text>
</a>
</g>
</g>
<!-- Node41&#45;&gt;Node37 -->
<g id="edge49" class="edge">
<title>Node41&#45;&gt;Node37</title>
<path fill="none" stroke="#9a32cd" stroke-dasharray="5,2" d="M1226.08,-445.09C1295.36,-440.6 1391.47,-434.37 1448.78,-430.66"/>
<polygon fill="#9a32cd" stroke="#9a32cd" points="1225.81,-441.6 1216.06,-445.73 1226.26,-448.58 1225.81,-441.6"/>
<text text-anchor="middle" x="1329" y="-444.5" font-family="Helvetica,sans-Serif" font-size="10.00"> composedProblemsData</text>
</g>
<!-- Node42 -->
<g id="node42" class="node">
<title>Node42</title>
<g id="a_node42"><a xlink:title=" ">
<polygon fill="white" stroke="#bfbfbf" points="1101,-397 1101,-416 1182,-416 1182,-397 1101,-397"/>
<text text-anchor="middle" x="1141.5" y="-404" font-family="Helvetica,sans-Serif" font-size="10.00">BitRefLevel *</text>
</a>
</g>
</g>
<!-- Node42&#45;&gt;Node37 -->
<g id="edge50" class="edge">
<title>Node42&#45;&gt;Node37</title>
<path fill="none" stroke="#9a32cd" stroke-dasharray="5,2" d="M1192.48,-403.47C1243.91,-401.07 1326.28,-399.19 1397,-406.5 1418.45,-408.72 1442.08,-413.53 1461.03,-417.99"/>
<polygon fill="#9a32cd" stroke="#9a32cd" points="1192.12,-399.99 1182.3,-403.98 1192.46,-406.98 1192.12,-399.99"/>
<text text-anchor="middle" x="1329" y="-420.5" font-family="Helvetica,sans-Serif" font-size="10.00"> tagBitRefLevelMask</text>
<text text-anchor="middle" x="1329" y="-409.5" font-family="Helvetica,sans-Serif" font-size="10.00">tagBitRefLevel</text>
</g>
<!-- Node43 -->
<g id="node43" class="node">
<title>Node43</title>
<g id="a_node43"><a xlink:title=" ">
<polygon fill="white" stroke="#bfbfbf" points="1056.5,-347.5 1056.5,-377.5 1226.5,-377.5 1226.5,-347.5 1056.5,-347.5"/>
<text text-anchor="start" x="1064.5" y="-365.5" font-family="Helvetica,sans-Serif" font-size="10.00">shared_ptr&lt; NumeredDofEntity</text>
<text text-anchor="middle" x="1141.5" y="-354.5" font-family="Helvetica,sans-Serif" font-size="10.00">_multiIndex &gt;</text>
</a>
</g>
</g>
<!-- Node43&#45;&gt;Node37 -->
<g id="edge51" class="edge">
<title>Node43&#45;&gt;Node37</title>
<path fill="none" stroke="#9a32cd" stroke-dasharray="5,2" d="M1227.42,-346.37C1280.17,-340.96 1347.18,-342.88 1397,-374.5 1411.44,-383.66 1401.44,-398.08 1415,-408.5 1424.67,-415.93 1436.75,-420.54 1448.65,-423.38"/>
<polygon fill="#9a32cd" stroke="#9a32cd" points="1226.95,-342.9 1217.41,-347.5 1227.74,-349.85 1226.95,-342.9"/>
<text text-anchor="middle" x="1329" y="-388.5" font-family="Helvetica,sans-Serif" font-size="10.00"> numeredRowDofsPtr</text>
<text text-anchor="middle" x="1329" y="-377.5" font-family="Helvetica,sans-Serif" font-size="10.00">numeredColDofsPtr</text>
</g>
<!-- Node44 -->
<g id="node44" class="node">
<title>Node44</title>
<g id="a_node44"><a xlink:title=" ">
<polygon fill="white" stroke="#bfbfbf" points="1072.5,-309 1072.5,-328 1210.5,-328 1210.5,-309 1072.5,-309"/>
<text text-anchor="middle" x="1141.5" y="-316" font-family="Helvetica,sans-Serif" font-size="10.00">vector&lt; BlockFieldPair &gt;</text>
</a>
</g>
</g>
<!-- Node44&#45;&gt;Node37 -->
<g id="edge53" class="edge">
<title>Node44&#45;&gt;Node37</title>
<path fill="none" stroke="#9a32cd" stroke-dasharray="5,2" d="M1220.85,-311.51C1285.64,-307.51 1371.08,-306.91 1397,-328.5 1425.01,-351.82 1389.29,-382.67 1415,-408.5 1424.02,-417.56 1436.44,-422.66 1448.9,-425.44"/>
<polygon fill="#9a32cd" stroke="#9a32cd" points="1220.39,-308.03 1210.64,-312.18 1220.84,-315.02 1220.39,-308.03"/>
<text text-anchor="middle" x="1329" y="-331.5" font-family="Helvetica,sans-Serif" font-size="10.00"> emptyFieldBlocks</text>
</g>
<!-- Node45 -->
<g id="node45" class="node">
<title>Node45</title>
<g id="a_node45"><a xlink:title=" ">
<polygon fill="white" stroke="#bfbfbf" points="1063.5,-259.5 1063.5,-289.5 1219.5,-289.5 1219.5,-259.5 1063.5,-259.5"/>
<text text-anchor="start" x="1071.5" y="-277.5" font-family="Helvetica,sans-Serif" font-size="10.00">shared_ptr&lt; MoFEM::</text>
<text text-anchor="middle" x="1141.5" y="-266.5" font-family="Helvetica,sans-Serif" font-size="10.00">Problem::SubProblemData &gt;</text>
</a>
</g>
</g>
<!-- Node45&#45;&gt;Node37 -->
<g id="edge54" class="edge">
<title>Node45&#45;&gt;Node37</title>
<path fill="none" stroke="#9a32cd" stroke-dasharray="5,2" d="M1215.4,-257.91C1272.14,-249.63 1349.07,-249.29 1397,-293.5 1435.03,-328.57 1379.74,-370.64 1415,-408.5 1423.81,-417.97 1436.32,-423.17 1448.93,-425.92"/>
<polygon fill="#9a32cd" stroke="#9a32cd" points="1214.74,-254.47 1205.4,-259.48 1215.83,-261.39 1214.74,-254.47"/>
<text text-anchor="middle" x="1329" y="-296.5" font-family="Helvetica,sans-Serif" font-size="10.00"> subProblemData</text>
</g>
<!-- Node46 -->
<g id="node46" class="node">
<title>Node46</title>
<g id="a_node46"><a xlink:title=" ">
<polygon fill="white" stroke="#bfbfbf" points="1040,-221 1040,-240 1243,-240 1243,-221 1040,-221"/>
<text text-anchor="middle" x="1141.5" y="-228" font-family="Helvetica,sans-Serif" font-size="10.00">shared_ptr&lt; SequenceDofContainer &gt;</text>
</a>
</g>
</g>
<!-- Node46&#45;&gt;Node37 -->
<g id="edge56" class="edge">
<title>Node46&#45;&gt;Node37</title>
<path fill="none" stroke="#9a32cd" stroke-dasharray="5,2" d="M1211.34,-219.62C1277.34,-210.92 1370.71,-203.7 1397,-227.5 1426.96,-254.63 1388.29,-378.16 1415,-408.5 1423.55,-418.21 1435.96,-423.49 1448.58,-426.24"/>
<polygon fill="#9a32cd" stroke="#9a32cd" points="1210.84,-216.16 1201.41,-220.97 1211.79,-223.1 1210.84,-216.16"/>
<text text-anchor="middle" x="1329" y="-241.5" font-family="Helvetica,sans-Serif" font-size="10.00"> sequenceRowDofContainer</text>
<text text-anchor="middle" x="1329" y="-230.5" font-family="Helvetica,sans-Serif" font-size="10.00">sequenceColDofContainer</text>
</g>
<!-- Node47 -->
<g id="node47" class="node">
<title>Node47</title>
<g id="a_node47"><a xlink:title=" ">
<polygon fill="white" stroke="#bfbfbf" points="1097.5,-183 1097.5,-202 1185.5,-202 1185.5,-183 1097.5,-183"/>
<text text-anchor="middle" x="1141.5" y="-190" font-family="Helvetica,sans-Serif" font-size="10.00">BitProblemId *</text>
</a>
</g>
</g>
<!-- Node47&#45;&gt;Node37 -->
<g id="edge57" class="edge">
<title>Node47&#45;&gt;Node37</title>
<path fill="none" stroke="#9a32cd" stroke-dasharray="5,2" d="M1195.78,-185.13C1261.75,-177.32 1368.9,-169.36 1397,-195.5 1431.78,-227.85 1383.88,-372.61 1415,-408.5 1423.57,-418.38 1436.15,-423.69 1448.92,-426.41"/>
<polygon fill="#9a32cd" stroke="#9a32cd" points="1195.06,-181.69 1185.56,-186.38 1195.91,-188.64 1195.06,-181.69"/>
<text text-anchor="middle" x="1329" y="-198.5" font-family="Helvetica,sans-Serif" font-size="10.00"> tagId</text>
</g>
<!-- Node48 -->
<g id="node48" class="node">
<title>Node48</title>
<g id="a_node48"><a xlink:title=" ">
<polygon fill="white" stroke="#bfbfbf" points="1805,-730.5 1805,-760.5 1967,-760.5 1967,-730.5 1805,-730.5"/>
<text text-anchor="start" x="1813" y="-748.5" font-family="Helvetica,sans-Serif" font-size="10.00">shared_ptr&lt; const MoFEM</text>
<text text-anchor="middle" x="1886" y="-737.5" font-family="Helvetica,sans-Serif" font-size="10.00">::NumeredEntFiniteElement &gt;</text>
</a>
</g>
</g>
<!-- Node48&#45;&gt;Node11 -->
<g id="edge58" class="edge">
<title>Node48&#45;&gt;Node11</title>
<path fill="none" stroke="#9a32cd" stroke-dasharray="5,2" d="M1977.38,-757.7C2024.42,-764.19 2082.85,-772.48 2135,-780.5 2157.13,-783.9 2181.5,-787.92 2202.47,-791.45"/>
<polygon fill="#9a32cd" stroke="#9a32cd" points="1977.6,-754.2 1967.21,-756.3 1976.64,-761.13 1977.6,-754.2"/>
<text text-anchor="middle" x="2063" y="-783.5" font-family="Helvetica,sans-Serif" font-size="10.00"> numeredEntFiniteElementPtr</text>
</g>
<!-- Node49 -->
<g id="node49" class="node">
<title>Node49</title>
<g id="a_node49"><a xlink:title=" ">
<polygon fill="white" stroke="#bfbfbf" points="1864,-244 1864,-263 1908,-263 1908,-244 1864,-244"/>
<text text-anchor="middle" x="1886" y="-251" font-family="Helvetica,sans-Serif" font-size="10.00">string</text>
</a>
</g>
</g>
<!-- Node49&#45;&gt;Node2 -->
<g id="edge81" class="edge">
<title>Node49&#45;&gt;Node2</title>
<path fill="none" stroke="#9a32cd" stroke-dasharray="5,2" d="M1910.94,-238.49C1956.26,-210.86 2058.52,-152.26 2153,-124.5 2318,-76.02 2370.51,-63.05 2539,-97.5 2681.35,-126.6 2836.27,-210.88 2895.79,-245.44"/>
<polygon fill="#9a32cd" stroke="#9a32cd" points="1908.84,-235.67 1902.16,-243.89 1912.51,-241.63 1908.84,-235.67"/>
<text text-anchor="middle" x="2458" y="-111.5" font-family="Helvetica,sans-Serif" font-size="10.00"> colFieldName</text>
<text text-anchor="middle" x="2458" y="-100.5" font-family="Helvetica,sans-Serif" font-size="10.00">rowFieldName</text>
</g>
<!-- Node49&#45;&gt;Node11 -->
<g id="edge59" class="edge">
<title>Node49&#45;&gt;Node11</title>
<path fill="none" stroke="#9a32cd" stroke-dasharray="5,2" d="M1900.49,-271.46C1942.5,-328.31 2071.92,-510.77 2135,-682.5 2150.42,-724.48 2121.45,-749.81 2153,-781.5 2165.9,-794.46 2184.61,-800.13 2202.48,-802.25"/>
<polygon fill="#9a32cd" stroke="#9a32cd" points="1903.09,-269.09 1894.32,-263.15 1897.48,-273.27 1903.09,-269.09"/>
<text text-anchor="middle" x="2063" y="-685.5" font-family="Helvetica,sans-Serif" font-size="10.00"> feName</text>
</g>
<!-- Node50 -->
<g id="node50" class="node">
<title>Node50</title>
<g id="a_node50"><a xlink:title=" ">
<polygon fill="white" stroke="#bfbfbf" points="1804.5,-779.5 1804.5,-809.5 1967.5,-809.5 1967.5,-779.5 1804.5,-779.5"/>
<text text-anchor="start" x="1812.5" y="-797.5" font-family="Helvetica,sans-Serif" font-size="10.00">function&lt; bool(MoFEM</text>
<text text-anchor="middle" x="1886" y="-786.5" font-family="Helvetica,sans-Serif" font-size="10.00">::FEMethod *fe_method_ptr)&gt;</text>
</a>
</g>
</g>
<!-- Node50&#45;&gt;Node11 -->
<g id="edge60" class="edge">
<title>Node50&#45;&gt;Node11</title>
<path fill="none" stroke="#9a32cd" stroke-dasharray="5,2" d="M1977.98,-795.98C2048.52,-797.13 2143.82,-798.69 2202.26,-799.64"/>
<polygon fill="#9a32cd" stroke="#9a32cd" points="1977.81,-792.48 1967.76,-795.82 1977.7,-799.48 1977.81,-792.48"/>
<text text-anchor="middle" x="2063" y="-800.5" font-family="Helvetica,sans-Serif" font-size="10.00"> exeTestHook</text>
</g>
<!-- Node51 -->
<g id="node51" class="node">
<title>Node51</title>
<g id="a_node51"><a xlink:href="classdouble.html" target="_top" xlink:title=" ">
<polygon fill="white" stroke="black" points="2231,-484 2231,-503 2281,-503 2281,-484 2231,-484"/>
<text text-anchor="middle" x="2256" y="-491" font-family="Helvetica,sans-Serif" font-size="10.00">double</text>
</a>
</g>
</g>
<!-- Node51&#45;&gt;Node10 -->
<g id="edge61" class="edge">
<title>Node51&#45;&gt;Node10</title>
<path fill="none" stroke="#9a32cd" stroke-dasharray="5,2" d="M2291.44,-488.67C2346.27,-482.5 2455.72,-476.4 2539,-511.5 2582.29,-529.74 2619.36,-574.39 2634.14,-594"/>
<polygon fill="#9a32cd" stroke="#9a32cd" points="2290.74,-485.23 2281.22,-489.9 2291.57,-492.18 2290.74,-485.23"/>
<text text-anchor="middle" x="2458" y="-514.5" font-family="Helvetica,sans-Serif" font-size="10.00"> elementMeasure</text>
</g>
<!-- Node52 -->
<g id="node52" class="node">
<title>Node52</title>
<g id="a_node52"><a xlink:title=" ">
<polygon fill="white" stroke="#bfbfbf" points="2170,-424 2170,-465 2342,-465 2342,-424 2170,-424"/>
<text text-anchor="start" x="2178" y="-453" font-family="Helvetica,sans-Serif" font-size="10.00">array&lt; boost::shared</text>
<text text-anchor="start" x="2178" y="-442" font-family="Helvetica,sans-Serif" font-size="10.00">_ptr&lt; MoFEM::EntitiesFieldData</text>
<text text-anchor="middle" x="2256" y="-431" font-family="Helvetica,sans-Serif" font-size="10.00"> &gt;, LASTSPACE &gt;</text>
</a>
</g>
</g>
<!-- Node52&#45;&gt;Node10 -->
<g id="edge62" class="edge">
<title>Node52&#45;&gt;Node10</title>
<path fill="none" stroke="#9a32cd" stroke-dasharray="5,2" d="M2352.34,-428.65C2409.84,-423.83 2482.61,-426.43 2539,-457.5 2595.6,-488.68 2627.77,-566.26 2637.67,-593.7"/>
<polygon fill="#9a32cd" stroke="#9a32cd" points="2351.79,-425.19 2342.16,-429.6 2352.44,-432.16 2351.79,-425.19"/>
<text text-anchor="middle" x="2458" y="-471.5" font-family="Helvetica,sans-Serif" font-size="10.00"> derivedDataOnElement</text>
<text text-anchor="middle" x="2458" y="-460.5" font-family="Helvetica,sans-Serif" font-size="10.00">dataOnElement</text>
</g>
<!-- Node53 -->
<g id="node53" class="node">
<title>Node53</title>
<g id="a_node53"><a xlink:title=" ">
<polygon fill="white" stroke="#bfbfbf" points="2222,-386 2222,-405 2290,-405 2290,-386 2222,-386"/>
<text text-anchor="middle" x="2256" y="-393" font-family="Helvetica,sans-Serif" font-size="10.00">EntityType</text>
</a>
</g>
</g>
<!-- Node53&#45;&gt;Node10 -->
<g id="edge63" class="edge">
<title>Node53&#45;&gt;Node10</title>
<path fill="none" stroke="#9a32cd" stroke-dasharray="5,2" d="M2300.23,-385.74C2359.22,-374.95 2465.96,-364.73 2539,-411.5 2607.34,-455.26 2632.83,-560.94 2639.25,-593.67"/>
<polygon fill="#9a32cd" stroke="#9a32cd" points="2299.3,-382.35 2290.14,-387.67 2300.62,-389.23 2299.3,-382.35"/>
<text text-anchor="middle" x="2458" y="-414.5" font-family="Helvetica,sans-Serif" font-size="10.00"> lastEvaluatedElementEntityType</text>
</g>
<!-- Node54 -->
<g id="node54" class="node">
<title>Node54</title>
<g id="a_node54"><a xlink:href="structMoFEM_1_1DeprecatedCoreInterface.html" target="_top" xlink:title="Deprecated interface functions.">
<polygon fill="white" stroke="black" points="1600,-1308 1600,-1327 1781,-1327 1781,-1308 1600,-1308"/>
<text text-anchor="middle" x="1690.5" y="-1315" font-family="Helvetica,sans-Serif" font-size="10.00">MoFEM::DeprecatedCoreInterface</text>
</a>
</g>
</g>
<!-- Node54&#45;&gt;Node10 -->
<g id="edge64" class="edge">
<title>Node54&#45;&gt;Node10</title>
<path fill="none" stroke="#9a32cd" stroke-dasharray="5,2" d="M1775.21,-1306.44C1945.03,-1279.51 2331.47,-1194.65 2539,-960.5 2635.2,-851.96 2641.09,-658.44 2641.11,-613.16"/>
<polygon fill="#9a32cd" stroke="#9a32cd" points="1774.67,-1302.98 1765.32,-1307.98 1775.74,-1309.9 1774.67,-1302.98"/>
<text text-anchor="middle" x="2063" y="-1261.5" font-family="Helvetica,sans-Serif" font-size="10.00"> mField</text>
</g>
<!-- Node55&#45;&gt;Node54 -->
<g id="edge65" class="edge">
<title>Node55&#45;&gt;Node54</title>
<path fill="none" stroke="midnightblue" d="M1214.39,-1362.67C1313.43,-1353.25 1491.78,-1336.3 1599.54,-1326.05"/>
<polygon fill="midnightblue" stroke="midnightblue" points="1213.81,-1359.21 1204.18,-1363.64 1214.47,-1366.17 1213.81,-1359.21"/>
</g>
<!-- Node56 -->
<g id="node56" class="node">
<title>Node56</title>
<g id="a_node56"><a xlink:title=" ">
<polygon fill="white" stroke="#bfbfbf" points="2172.5,-719.5 2172.5,-771.5 2339.5,-771.5 2339.5,-719.5 2172.5,-719.5"/>
<text text-anchor="start" x="2180.5" y="-759.5" font-family="Helvetica,sans-Serif" font-size="10.00">function&lt; MoFEMErrorCode</text>
<text text-anchor="start" x="2180.5" y="-748.5" font-family="Helvetica,sans-Serif" font-size="10.00">(ForcesAndSourcesCore *fe</text>
<text text-anchor="start" x="2180.5" y="-737.5" font-family="Helvetica,sans-Serif" font-size="10.00">_raw_ptr, int order_row,</text>
<text text-anchor="middle" x="2256" y="-726.5" font-family="Helvetica,sans-Serif" font-size="10.00"> int order_col, int order_data)&gt;</text>
</a>
</g>
</g>
<!-- Node56&#45;&gt;Node10 -->
<g id="edge68" class="edge">
<title>Node56&#45;&gt;Node10</title>
<path fill="none" stroke="#9a32cd" stroke-dasharray="5,2" d="M2349.73,-735.22C2406.41,-726.44 2479.25,-710.58 2539,-682.5 2577.31,-664.49 2614.65,-630.01 2631.57,-613.2"/>
<polygon fill="#9a32cd" stroke="#9a32cd" points="2349.07,-731.78 2339.7,-736.73 2350.11,-738.7 2349.07,-731.78"/>
<text text-anchor="middle" x="2458" y="-732.5" font-family="Helvetica,sans-Serif" font-size="10.00"> setRuleHook</text>
</g>
<!-- Node57 -->
<g id="node57" class="node">
<title>Node57</title>
<g id="a_node57"><a xlink:title=" ">
<polygon fill="white" stroke="#bfbfbf" points="2155,-670.5 2155,-700.5 2357,-700.5 2357,-670.5 2155,-670.5"/>
<text text-anchor="start" x="2163" y="-688.5" font-family="Helvetica,sans-Serif" font-size="10.00">ptr_deque&lt; MoFEM::Forces</text>
<text text-anchor="middle" x="2256" y="-677.5" font-family="Helvetica,sans-Serif" font-size="10.00">AndSourcesCore::UserDataOperator &gt;</text>
</a>
</g>
</g>
<!-- Node57&#45;&gt;Node10 -->
<g id="edge69" class="edge">
<title>Node57&#45;&gt;Node10</title>
<path fill="none" stroke="#9a32cd" stroke-dasharray="5,2" d="M2367.22,-670.04C2419.62,-661.75 2482.92,-650.37 2539,-636.5 2565.2,-630.02 2594.44,-620.29 2614.88,-613.08"/>
<polygon fill="#9a32cd" stroke="#9a32cd" points="2366.56,-666.6 2357.23,-671.6 2367.65,-673.51 2366.56,-666.6"/>
<text text-anchor="middle" x="2458" y="-670.5" font-family="Helvetica,sans-Serif" font-size="10.00"> opPtrVector</text>
</g>
<!-- Node58 -->
<g id="node58" class="node">
<title>Node58</title>
<g id="a_node58"><a xlink:href="structMoFEM_1_1EntitiesFieldData.html" target="_top" xlink:title="data structure for finite element entity">
<polygon fill="white" stroke="black" points="2185,-954 2185,-973 2327,-973 2327,-954 2185,-954"/>
<text text-anchor="middle" x="2256" y="-961" font-family="Helvetica,sans-Serif" font-size="10.00">MoFEM::EntitiesFieldData</text>
</a>
</g>
</g>
<!-- Node58&#45;&gt;Node10 -->
<g id="edge70" class="edge">
<title>Node58&#45;&gt;Node10</title>
<path fill="none" stroke="#9a32cd" stroke-dasharray="5,2" d="M2288.76,-949.58C2344.98,-923.69 2463.2,-863.39 2539,-783.5 2591.16,-728.52 2626.63,-641.89 2637.49,-613.13"/>
<polygon fill="#9a32cd" stroke="#9a32cd" points="2286.98,-946.55 2279.33,-953.87 2289.88,-952.92 2286.98,-946.55"/>
<text text-anchor="middle" x="2458" y="-948.5" font-family="Helvetica,sans-Serif" font-size="10.00"> dataNoField</text>
<text text-anchor="middle" x="2458" y="-937.5" font-family="Helvetica,sans-Serif" font-size="10.00">dataL2</text>
<text text-anchor="middle" x="2458" y="-926.5" font-family="Helvetica,sans-Serif" font-size="10.00">dataH1</text>
<text text-anchor="middle" x="2458" y="-915.5" font-family="Helvetica,sans-Serif" font-size="10.00">dataHcurl</text>
<text text-anchor="middle" x="2458" y="-904.5" font-family="Helvetica,sans-Serif" font-size="10.00">dataHdiv</text>
</g>
<!-- Node59 -->
<g id="node59" class="node">
<title>Node59</title>
<g id="a_node59"><a xlink:title=" ">
<polygon fill="white" stroke="#bfbfbf" points="1805,-867.5 1805,-897.5 1967,-897.5 1967,-867.5 1805,-867.5"/>
<text text-anchor="start" x="1813" y="-885.5" font-family="Helvetica,sans-Serif" font-size="10.00">array&lt; std::bitset</text>
<text text-anchor="middle" x="1886" y="-874.5" font-family="Helvetica,sans-Serif" font-size="10.00">&lt; LASTBASE &gt;, LASTSPACE &gt;</text>
</a>
</g>
</g>
<!-- Node59&#45;&gt;Node58 -->
<g id="edge71" class="edge">
<title>Node59&#45;&gt;Node58</title>
<path fill="none" stroke="#9a32cd" stroke-dasharray="5,2" d="M1977.52,-884.93C2025.08,-887.97 2083.94,-894.53 2135,-908.5 2173.9,-919.15 2216.03,-941.15 2238.57,-953.86"/>
<polygon fill="#9a32cd" stroke="#9a32cd" points="1977.43,-881.42 1967.24,-884.32 1977.01,-888.41 1977.43,-881.42"/>
<text text-anchor="middle" x="2063" y="-922.5" font-family="Helvetica,sans-Serif" font-size="10.00"> brokenBasesOnSpaces</text>
<text text-anchor="middle" x="2063" y="-911.5" font-family="Helvetica,sans-Serif" font-size="10.00">basesOnSpaces</text>
</g>
<!-- Node60 -->
<g id="node60" class="node">
<title>Node60</title>
<g id="a_node60"><a xlink:title=" ">
<polygon fill="white" stroke="#bfbfbf" points="1809.5,-1092 1809.5,-1133 1962.5,-1133 1962.5,-1092 1809.5,-1092"/>
<text text-anchor="start" x="1817.5" y="-1121" font-family="Helvetica,sans-Serif" font-size="10.00">array&lt; boost::ptr_vector</text>
<text text-anchor="start" x="1817.5" y="-1110" font-family="Helvetica,sans-Serif" font-size="10.00">&lt; MoFEM::EntitiesFieldData</text>
<text text-anchor="middle" x="1886" y="-1099" font-family="Helvetica,sans-Serif" font-size="10.00">::EntData &gt;, MBMAXTYPE &gt;</text>
</a>
</g>
</g>
<!-- Node60&#45;&gt;Node58 -->
<g id="edge72" class="edge">
<title>Node60&#45;&gt;Node58</title>
<path fill="none" stroke="#9a32cd" stroke-dasharray="5,2" d="M1972.61,-1104.13C2021.91,-1096.92 2084.01,-1083.67 2135,-1059.5 2182.25,-1037.1 2227.49,-992.73 2246.1,-973.16"/>
<polygon fill="#9a32cd" stroke="#9a32cd" points="1972.03,-1100.68 1962.61,-1105.54 1973,-1107.61 1972.03,-1100.68"/>
<text text-anchor="middle" x="2063" y="-1103.5" font-family="Helvetica,sans-Serif" font-size="10.00"> dataOnEntities</text>
</g>
<!-- Node61 -->
<g id="node61" class="node">
<title>Node61</title>
<g id="a_node61"><a xlink:title=" ">
<polygon fill="white" stroke="#bfbfbf" points="1799,-1042.5 1799,-1072.5 1973,-1072.5 1973,-1042.5 1799,-1042.5"/>
<text text-anchor="start" x="1807" y="-1060.5" font-family="Helvetica,sans-Serif" font-size="10.00">array&lt; std::bitset</text>
<text text-anchor="middle" x="1886" y="-1049.5" font-family="Helvetica,sans-Serif" font-size="10.00">&lt; LASTSPACE &gt;, MBMAXTYPE &gt;</text>
</a>
</g>
</g>
<!-- Node61&#45;&gt;Node58 -->
<g id="edge73" class="edge">
<title>Node61&#45;&gt;Node58</title>
<path fill="none" stroke="#9a32cd" stroke-dasharray="5,2" d="M1983.16,-1046.71C2029.64,-1040.12 2085.85,-1030.08 2135,-1015.5 2172.44,-1004.4 2213.74,-984.74 2236.81,-973.03"/>
<polygon fill="#9a32cd" stroke="#9a32cd" points="1982.52,-1043.27 1973.1,-1048.11 1983.48,-1050.2 1982.52,-1043.27"/>
<text text-anchor="middle" x="2063" y="-1047.5" font-family="Helvetica,sans-Serif" font-size="10.00"> spacesOnEntities</text>
</g>
<!-- Node62 -->
<g id="node62" class="node">
<title>Node62</title>
<g id="a_node62"><a xlink:title=" ">
<polygon fill="white" stroke="#bfbfbf" points="1801.5,-993.5 1801.5,-1023.5 1970.5,-1023.5 1970.5,-993.5 1801.5,-993.5"/>
<text text-anchor="start" x="1809.5" y="-1011.5" font-family="Helvetica,sans-Serif" font-size="10.00">array&lt; std::bitset</text>
<text text-anchor="middle" x="1886" y="-1000.5" font-family="Helvetica,sans-Serif" font-size="10.00">&lt; LASTBASE &gt;, MBMAXTYPE &gt;</text>
</a>
</g>
</g>
<!-- Node62&#45;&gt;Node58 -->
<g id="edge74" class="edge">
<title>Node62&#45;&gt;Node58</title>
<path fill="none" stroke="#9a32cd" stroke-dasharray="5,2" d="M1980.82,-1002.42C2027.32,-998.84 2084.25,-993.6 2135,-986.5 2160.31,-982.96 2188.39,-977.66 2211.01,-973.03"/>
<polygon fill="#9a32cd" stroke="#9a32cd" points="1980.46,-998.94 1970.75,-1003.18 1980.99,-1005.92 1980.46,-998.94"/>
<text text-anchor="middle" x="2063" y="-1003.5" font-family="Helvetica,sans-Serif" font-size="10.00"> basesOnEntities</text>
</g>
<!-- Node63 -->
<g id="node63" class="node">
<title>Node63</title>
<g id="a_node63"><a xlink:title=" ">
<polygon fill="white" stroke="#bfbfbf" points="1830,-955 1830,-974 1942,-974 1942,-955 1830,-955"/>
<text text-anchor="middle" x="1886" y="-962" font-family="Helvetica,sans-Serif" font-size="10.00">UBlasMatrix&lt; int &gt;</text>
</a>
</g>
</g>
<!-- Node63&#45;&gt;Node58 -->
<g id="edge75" class="edge">
<title>Node63&#45;&gt;Node58</title>
<path fill="none" stroke="#9a32cd" stroke-dasharray="5,2" d="M1952.26,-964.32C2017.56,-964.15 2117.69,-963.87 2184.71,-963.69"/>
<polygon fill="#9a32cd" stroke="#9a32cd" points="1952.08,-960.82 1942.09,-964.35 1952.1,-967.82 1952.08,-960.82"/>
<text text-anchor="middle" x="2063" y="-977.5" font-family="Helvetica,sans-Serif" font-size="10.00"> facesNodesOrder</text>
<text text-anchor="middle" x="2063" y="-966.5" font-family="Helvetica,sans-Serif" font-size="10.00">facesNodes</text>
</g>
<!-- Node64 -->
<g id="node64" class="node">
<title>Node64</title>
<g id="a_node64"><a xlink:title=" ">
<polygon fill="white" stroke="#bfbfbf" points="1827.5,-917 1827.5,-936 1944.5,-936 1944.5,-917 1827.5,-917"/>
<text text-anchor="middle" x="1886" y="-924" font-family="Helvetica,sans-Serif" font-size="10.00">bitset&lt; LASTBASE &gt;</text>
</a>
</g>
</g>
<!-- Node64&#45;&gt;Node58 -->
<g id="edge76" class="edge">
<title>Node64&#45;&gt;Node58</title>
<path fill="none" stroke="#9a32cd" stroke-dasharray="5,2" d="M1954.71,-931.85C2004.6,-935.95 2074.08,-941.99 2135,-948.5 2151.18,-950.23 2168.56,-952.28 2184.93,-954.31"/>
<polygon fill="#9a32cd" stroke="#9a32cd" points="1954.94,-928.35 1944.69,-931.03 1954.37,-935.33 1954.94,-928.35"/>
<text text-anchor="middle" x="2063" y="-951.5" font-family="Helvetica,sans-Serif" font-size="10.00"> bAse</text>
</g>
<!-- Node65 -->
<g id="node65" class="node">
<title>Node65</title>
<g id="a_node65"><a xlink:title=" ">
<polygon fill="white" stroke="#bfbfbf" points="2193.5,-610 2193.5,-651 2318.5,-651 2318.5,-610 2193.5,-610"/>
<text text-anchor="start" x="2201.5" y="-639" font-family="Helvetica,sans-Serif" font-size="10.00">function&lt; int(int order</text>
<text text-anchor="start" x="2201.5" y="-628" font-family="Helvetica,sans-Serif" font-size="10.00">_row, int order_col, int</text>
<text text-anchor="middle" x="2256" y="-617" font-family="Helvetica,sans-Serif" font-size="10.00"> order_data)&gt;</text>
</a>
</g>
</g>
<!-- Node65&#45;&gt;Node10 -->
<g id="edge77" class="edge">
<title>Node65&#45;&gt;Node10</title>
<path fill="none" stroke="#9a32cd" stroke-dasharray="5,2" d="M2328.81,-625.45C2393.51,-620.9 2488.67,-614.21 2556.91,-609.41"/>
<polygon fill="#9a32cd" stroke="#9a32cd" points="2328.43,-621.97 2318.7,-626.16 2328.92,-628.95 2328.43,-621.97"/>
<text text-anchor="middle" x="2458" y="-624.5" font-family="Helvetica,sans-Serif" font-size="10.00"> getRuleHook</text>
</g>
<!-- Node66 -->
<g id="node66" class="node">
<title>Node66</title>
<g id="a_node66"><a xlink:title=" ">
<polygon fill="white" stroke="#bfbfbf" points="2195,-560.5 2195,-590.5 2317,-590.5 2317,-560.5 2195,-560.5"/>
<text text-anchor="start" x="2203" y="-578.5" font-family="Helvetica,sans-Serif" font-size="10.00">shared_ptr&lt; MoFEM::</text>
<text text-anchor="middle" x="2256" y="-567.5" font-family="Helvetica,sans-Serif" font-size="10.00">BaseFunction &gt;</text>
</a>
</g>
</g>
<!-- Node66&#45;&gt;Node10 -->
<g id="edge78" class="edge">
<title>Node66&#45;&gt;Node10</title>
<path fill="none" stroke="#9a32cd" stroke-dasharray="5,2" d="M2327.16,-574.78C2384.34,-574.91 2467.1,-576.7 2539,-584.5 2558.52,-586.62 2579.91,-590.38 2598.04,-593.99"/>
<polygon fill="#9a32cd" stroke="#9a32cd" points="2327.15,-571.28 2317.15,-574.78 2327.15,-578.28 2327.15,-571.28"/>
<text text-anchor="middle" x="2458" y="-598.5" font-family="Helvetica,sans-Serif" font-size="10.00"> userPolynomialBasePtr</text>
<text text-anchor="middle" x="2458" y="-587.5" font-family="Helvetica,sans-Serif" font-size="10.00">elementPolynomialBasePtr</text>
</g>
<!-- Node67 -->
<g id="node67" class="node">
<title>Node67</title>
<g id="a_node67"><a xlink:href="classUBlasMatrix_3_01double_01_4.html" target="_top" xlink:title=" ">
<polygon fill="white" stroke="black" points="2190,-522 2190,-541 2322,-541 2322,-522 2190,-522"/>
<text text-anchor="middle" x="2256" y="-529" font-family="Helvetica,sans-Serif" font-size="10.00">UBlasMatrix&lt; double &gt;</text>
</a>
</g>
</g>
<!-- Node67&#45;&gt;Node10 -->
<g id="edge79" class="edge">
<title>Node67&#45;&gt;Node10</title>
<path fill="none" stroke="#9a32cd" stroke-dasharray="5,2" d="M2332.29,-527.32C2389.96,-526.19 2470.91,-529.12 2539,-548.5 2573.25,-558.25 2608.9,-580.81 2627.64,-593.81"/>
<polygon fill="#9a32cd" stroke="#9a32cd" points="2332.08,-523.82 2322.17,-527.56 2332.25,-530.82 2332.08,-523.82"/>
<text text-anchor="middle" x="2458" y="-562.5" font-family="Helvetica,sans-Serif" font-size="10.00"> coordsAtGaussPts</text>
<text text-anchor="middle" x="2458" y="-551.5" font-family="Helvetica,sans-Serif" font-size="10.00">gaussPts</text>
</g>
<!-- Node68 -->
<g id="node68" class="node">
<title>Node68</title>
<g id="a_node68"><a xlink:title=" ">
<polygon fill="white" stroke="#bfbfbf" points="2576.5,-289 2576.5,-308 2707.5,-308 2707.5,-289 2576.5,-289"/>
<text text-anchor="middle" x="2642" y="-296" font-family="Helvetica,sans-Serif" font-size="10.00">static const char *const</text>
</a>
</g>
</g>
<!-- Node68&#45;&gt;Node2 -->
<g id="edge80" class="edge">
<title>Node68&#45;&gt;Node2</title>
<path fill="none" stroke="#9a32cd" stroke-dasharray="5,2" d="M2717.74,-288.32C2749.03,-284.06 2785.78,-279.05 2819,-274.5 2824.84,-273.7 2830.88,-272.87 2836.95,-272.04"/>
<polygon fill="#9a32cd" stroke="#9a32cd" points="2717.22,-284.86 2707.78,-289.68 2718.16,-291.8 2717.22,-284.86"/>
<text text-anchor="middle" x="2782" y="-286.5" font-family="Helvetica,sans-Serif" font-size="10.00"> OpTypeNames</text>
</g>
<!-- Node69 -->
<g id="node69" class="node">
<title>Node69</title>
<g id="a_node69"><a xlink:title=" ">
<polygon fill="white" stroke="#bfbfbf" points="2852.5,-0.5 2852.5,-30.5 2991.5,-30.5 2991.5,-0.5 2852.5,-0.5"/>
<text text-anchor="start" x="2860.5" y="-18.5" font-family="Helvetica,sans-Serif" font-size="10.00">shared_ptr&lt; UBlasVector</text>
<text text-anchor="middle" x="2922" y="-7.5" font-family="Helvetica,sans-Serif" font-size="10.00">&lt; double &gt; &gt;</text>
</a>
</g>
</g>
<!-- Node69&#45;&gt;Node1 -->
<g id="edge83" class="edge">
<title>Node69&#45;&gt;Node1</title>
<path fill="none" stroke="#9a32cd" stroke-dasharray="5,2" d="M3001.87,-24.67C3022.18,-27.43 3043.96,-30.74 3064,-34.5 3071.18,-35.85 3078.6,-37.37 3086.03,-38.99"/>
<polygon fill="#9a32cd" stroke="#9a32cd" points="3002.09,-21.17 2991.72,-23.32 3001.17,-28.11 3002.09,-21.17"/>
<text text-anchor="middle" x="3044.5" y="-37.5" font-family="Helvetica,sans-Serif" font-size="10.00"> dataPtr</text>
</g>
</g>
</svg>
        <g id="navigator" transform="translate(0 0)" fill="#404254">
                <rect fill="#f2f5e9" fill-opacity="0.5" stroke="#606060" stroke-width=".5" x="0" y="0" width="60" height="60"/>
                <use id="zoomplus" xlink:href="#zoomPlus" x="17" y="9" onmousedown="handleZoom(evt,'in')"/>
                <use id="zoomminus" xlink:href="#zoomMin" x="42" y="9" onmousedown="handleZoom(evt,'out')"/>
                <use id="reset" xlink:href="#resetDef" x="30" y="36" onmousedown="handleReset()"/>
                <g id="arrowUp" xlink:href="#dirArrow" transform="translate(30 24)" onmousedown="handlePan(0,-1)">
                  <use xlink:href="#rim" fill="#404040">
                        <set attributeName="fill" to="#808080" begin="arrowUp.mouseover" end="arrowUp.mouseout"/>
                  </use>
                  <path fill="none" stroke="white" stroke-width="1.5" d="M0,-3.0v7 M-2.5,-0.5L0,-3.0L2.5,-0.5"/>
                </g>
                <g id="arrowRight" xlink:href="#dirArrow" transform="rotate(90) translate(36 -43)" onmousedown="handlePan(1,0)">
                  <use xlink:href="#rim" fill="#404040">
                        <set attributeName="fill" to="#808080" begin="arrowRight.mouseover" end="arrowRight.mouseout"/>
                  </use>
                  <path fill="none" stroke="white" stroke-width="1.5" d="M0,-3.0v7 M-2.5,-0.5L0,-3.0L2.5,-0.5"/>
                </g>
                <g id="arrowDown" xlink:href="#dirArrow" transform="rotate(180) translate(-30 -48)" onmousedown="handlePan(0,1)">
                  <use xlink:href="#rim" fill="#404040">
                        <set attributeName="fill" to="#808080" begin="arrowDown.mouseover" end="arrowDown.mouseout"/>
                  </use>
                  <path fill="none" stroke="white" stroke-width="1.5" d="M0,-3.0v7 M-2.5,-0.5L0,-3.0L2.5,-0.5"/>
                </g>
                <g id="arrowLeft" xlink:href="#dirArrow" transform="rotate(270) translate(-36 17)" onmousedown="handlePan(-1,0)">
                  <use xlink:href="#rim" fill="#404040">
                        <set attributeName="fill" to="#808080" begin="arrowLeft.mouseover" end="arrowLeft.mouseout"/>
                  </use>
                  <path fill="none" stroke="white" stroke-width="1.5" d="M0,-3.0v7 M-2.5,-0.5L0,-3.0L2.5,-0.5"/>
                </g>
        </g>
        <svg viewBox="0 0 15 15" width="100%" height="30px" preserveAspectRatio="xMaxYMin meet">
         <g id="arrow_out" transform="scale(0.3 0.3)">
          <a xlink:href="structMoFEM_1_1OpCalculateDivergenceVectorFieldValues__coll__graph_org.svg" target="_base">
           <rect id="button" ry="5" rx="5" y="6" x="6" height="38" width="38"
                fill="#f2f5e9" fill-opacity="0.5" stroke="#606060" stroke-width="1.0"/>
           <path id="arrow"
             d="M 11.500037,31.436501 C 11.940474,20.09759 22.043105,11.32322 32.158766,21.979434 L 37.068811,17.246167 C 37.068811,17.246167 37.088388,32 37.088388,32 L 22.160133,31.978069 C 22.160133,31.978069 26.997745,27.140456 26.997745,27.140456 C 18.528582,18.264221 13.291696,25.230495 11.500037,31.436501 z"
             style="fill:#404040;"/>
          </a>
         </g>
        </svg>
</svg>
