<?xml version="1.0" encoding="UTF-8" standalone="no"?>
<!DOCTYPE svg PUBLIC "-//W3C//DTD SVG 1.1//EN"
 "http://www.w3.org/Graphics/SVG/1.1/DTD/svg11.dtd">
<!-- Generated by graphviz version 2.43.0 (0)
 -->
<!-- Title: SimpleContactProblem::OpCalDerIntCompFunOverSpatPosSlaveMaster Pages: 1 -->
<svg width="571pt" height="154pt"
 viewBox="0.00 0.00 571.00 154.00" xmlns="http://www.w3.org/2000/svg" xmlns:xlink="http://www.w3.org/1999/xlink">
<g id="graph0" class="graph" transform="scale(1 1) rotate(0) translate(4 150)">
<title>SimpleContactProblem::OpCalDerIntCompFunOverSpatPosSlaveMaster</title>
<polygon fill="white" stroke="transparent" points="-4,4 -4,-150 567,-150 567,4 -4,4"/>
<!-- Node1 -->
<g id="node1" class="node">
<title>Node1</title>
<g id="a_node1"><a xlink:title="LHS&#45;operator for the simple contact element.">
<polygon fill="#bfbfbf" stroke="black" points="390,-55.5 390,-96.5 563,-96.5 563,-55.5 390,-55.5"/>
<text text-anchor="start" x="398" y="-84.5" font-family="Helvetica,sans-Serif" font-size="10.00">SimpleContactProblem</text>
<text text-anchor="start" x="398" y="-73.5" font-family="Helvetica,sans-Serif" font-size="10.00">::OpCalDerIntCompFunOverSpat</text>
<text text-anchor="middle" x="476.5" y="-62.5" font-family="Helvetica,sans-Serif" font-size="10.00">PosSlaveMaster</text>
</a>
</g>
</g>
<!-- Node2 -->
<g id="node2" class="node">
<title>Node2</title>
<g id="a_node2"><a xlink:href="classContactOp.html" target="_top" xlink:title=" ">
<polygon fill="white" stroke="black" points="72.5,-126.5 72.5,-145.5 140.5,-145.5 140.5,-126.5 72.5,-126.5"/>
<text text-anchor="middle" x="106.5" y="-133.5" font-family="Helvetica,sans-Serif" font-size="10.00">ContactOp</text>
</a>
</g>
</g>
<!-- Node2&#45;&gt;Node1 -->
<g id="edge1" class="edge">
<title>Node2&#45;&gt;Node1</title>
<path fill="none" stroke="midnightblue" d="M150.74,-133.02C203.38,-128.92 294.82,-120.24 372,-105 383.72,-102.69 396.04,-99.72 407.94,-96.57"/>
<polygon fill="midnightblue" stroke="midnightblue" points="150.45,-129.53 140.75,-133.78 150.98,-136.51 150.45,-129.53"/>
</g>
<!-- Node3 -->
<g id="node3" class="node">
<title>Node3</title>
<g id="a_node3"><a xlink:title=" ">
<polygon fill="white" stroke="#bfbfbf" points="65,-88.5 65,-107.5 148,-107.5 148,-88.5 65,-88.5"/>
<text text-anchor="middle" x="106.5" y="-95.5" font-family="Helvetica,sans-Serif" font-size="10.00">MatrixDouble</text>
</a>
</g>
</g>
<!-- Node3&#45;&gt;Node1 -->
<g id="edge2" class="edge">
<title>Node3&#45;&gt;Node1</title>
<path fill="none" stroke="#9a32cd" stroke-dasharray="5,2" d="M158.61,-94.94C218.4,-91.37 318.32,-85.4 389.98,-81.11"/>
<polygon fill="#9a32cd" stroke="#9a32cd" points="158.06,-91.47 148.29,-95.56 158.48,-98.46 158.06,-91.47"/>
<text text-anchor="middle" x="301.5" y="-93" font-family="Helvetica,sans-Serif" font-size="10.00"> NN</text>
</g>
<!-- Node4 -->
<g id="node4" class="node">
<title>Node4</title>
<g id="a_node4"><a xlink:title=" ">
<polygon fill="white" stroke="#bfbfbf" points="0,-39 0,-69 213,-69 213,-39 0,-39"/>
<text text-anchor="start" x="8" y="-57" font-family="Helvetica,sans-Serif" font-size="10.00">shared_ptr&lt; SimpleContact</text>
<text text-anchor="middle" x="106.5" y="-46" font-family="Helvetica,sans-Serif" font-size="10.00">Problem::CommonDataSimpleContact &gt;</text>
</a>
</g>
</g>
<!-- Node4&#45;&gt;Node1 -->
<g id="edge3" class="edge">
<title>Node4&#45;&gt;Node1</title>
<path fill="none" stroke="#9a32cd" stroke-dasharray="5,2" d="M223.16,-58.74C269.46,-60.88 323.28,-63.69 372,-67 377.85,-67.4 383.88,-67.84 389.95,-68.31"/>
<polygon fill="#9a32cd" stroke="#9a32cd" points="223.24,-55.24 213.09,-58.28 222.92,-62.23 223.24,-55.24"/>
<text text-anchor="middle" x="301.5" y="-70" font-family="Helvetica,sans-Serif" font-size="10.00"> commonDataSimpleContact</text>
</g>
<!-- Node5 -->
<g id="node5" class="node">
<title>Node5</title>
<g id="a_node5"><a xlink:title=" ">
<polygon fill="white" stroke="#bfbfbf" points="44.5,-0.5 44.5,-19.5 168.5,-19.5 168.5,-0.5 44.5,-0.5"/>
<text text-anchor="middle" x="106.5" y="-7.5" font-family="Helvetica,sans-Serif" font-size="10.00">shared_ptr&lt; double &gt;</text>
</a>
</g>
</g>
<!-- Node5&#45;&gt;Node1 -->
<g id="edge4" class="edge">
<title>Node5&#45;&gt;Node1</title>
<path fill="none" stroke="#9a32cd" stroke-dasharray="5,2" d="M178.76,-15.81C232.32,-20.98 307.29,-29.95 372,-44 386.15,-47.07 401.15,-51.19 415.22,-55.45"/>
<polygon fill="#9a32cd" stroke="#9a32cd" points="178.96,-12.31 168.68,-14.86 178.3,-19.28 178.96,-12.31"/>
<text text-anchor="middle" x="301.5" y="-47" font-family="Helvetica,sans-Serif" font-size="10.00"> cNPtr</text>
</g>
</g>
</svg>
