<?xml version="1.0" encoding="UTF-8" standalone="no"?>
<!DOCTYPE svg PUBLIC "-//W3C//DTD SVG 1.1//EN"
 "http://www.w3.org/Graphics/SVG/1.1/DTD/svg11.dtd">
<!-- Generated by graphviz version 2.43.0 (0)
 -->
<!-- Title: BoneRemodeling::OpCalculateLhs Pages: 1 -->
<svg width="3554pt" height="1712pt"
 viewBox="0.00 0.00 3554.00 1711.85" xmlns="http://www.w3.org/2000/svg" xmlns:xlink="http://www.w3.org/1999/xlink">
<g id="graph0" class="graph" transform="scale(1 1) rotate(0) translate(4 1707.85)">
<title>BoneRemodeling::OpCalculateLhs</title>
<polygon fill="white" stroke="transparent" points="-4,4 -4,-1707.85 3550,-1707.85 3550,4 -4,4"/>
<!-- Node1 -->
<g id="node1" class="node">
<title>Node1</title>
<g id="a_node1"><a xlink:title="Assemble LHS matrix K.">
<polygon fill="#bfbfbf" stroke="black" points="3364,-1060.35 3364,-1079.35 3546,-1079.35 3546,-1060.35 3364,-1060.35"/>
<text text-anchor="middle" x="3455" y="-1067.35" font-family="Helvetica,sans-Serif" font-size="10.00">BoneRemodeling::OpCalculateLhs</text>
</a>
</g>
</g>
<!-- Node2 -->
<g id="node2" class="node">
<title>Node2</title>
<g id="a_node2"><a xlink:href="structMoFEM_1_1VolumeElementForcesAndSourcesCore_1_1UserDataOperator.html" target="_top" xlink:title=" ">
<polygon fill="white" stroke="black" points="3136,-1054.85 3136,-1084.85 3327,-1084.85 3327,-1054.85 3136,-1054.85"/>
<text text-anchor="start" x="3144" y="-1072.85" font-family="Helvetica,sans-Serif" font-size="10.00">MoFEM::VolumeElementForces</text>
<text text-anchor="middle" x="3231.5" y="-1061.85" font-family="Helvetica,sans-Serif" font-size="10.00">AndSourcesCore::UserDataOperator</text>
</a>
</g>
</g>
<!-- Node2&#45;&gt;Node1 -->
<g id="edge1" class="edge">
<title>Node2&#45;&gt;Node1</title>
<path fill="none" stroke="midnightblue" d="M3337.16,-1069.85C3346.12,-1069.85 3355.13,-1069.85 3363.96,-1069.85"/>
<polygon fill="midnightblue" stroke="midnightblue" points="3337.08,-1066.35 3327.08,-1069.85 3337.08,-1073.35 3337.08,-1066.35"/>
</g>
<!-- Node3 -->
<g id="node3" class="node">
<title>Node3</title>
<g id="a_node3"><a xlink:href="structMoFEM_1_1ForcesAndSourcesCore_1_1UserDataOperator.html" target="_top" xlink:title=" ">
<polygon fill="white" stroke="black" points="2846,-1054.85 2846,-1084.85 3016,-1084.85 3016,-1054.85 2846,-1054.85"/>
<text text-anchor="start" x="2854" y="-1072.85" font-family="Helvetica,sans-Serif" font-size="10.00">MoFEM::ForcesAndSourcesCore</text>
<text text-anchor="middle" x="2931" y="-1061.85" font-family="Helvetica,sans-Serif" font-size="10.00">::UserDataOperator</text>
</a>
</g>
</g>
<!-- Node3&#45;&gt;Node2 -->
<g id="edge2" class="edge">
<title>Node3&#45;&gt;Node2</title>
<path fill="none" stroke="midnightblue" d="M3026.53,-1069.85C3061.43,-1069.85 3100.96,-1069.85 3135.87,-1069.85"/>
<polygon fill="midnightblue" stroke="midnightblue" points="3026.34,-1066.35 3016.34,-1069.85 3026.34,-1073.35 3026.34,-1066.35"/>
</g>
<!-- Node4 -->
<g id="node4" class="node">
<title>Node4</title>
<g id="a_node4"><a xlink:href="structMoFEM_1_1DataOperator.html" target="_top" xlink:title="base operator to do operations at Gauss Pt. level">
<polygon fill="white" stroke="black" points="2588.5,-1341.35 2588.5,-1360.35 2713.5,-1360.35 2713.5,-1341.35 2588.5,-1341.35"/>
<text text-anchor="middle" x="2651" y="-1348.35" font-family="Helvetica,sans-Serif" font-size="10.00">MoFEM::DataOperator</text>
</a>
</g>
</g>
<!-- Node4&#45;&gt;Node3 -->
<g id="edge3" class="edge">
<title>Node4&#45;&gt;Node3</title>
<path fill="none" stroke="midnightblue" d="M2690.26,-1337.62C2728.88,-1322.7 2788.31,-1295.27 2828,-1255.85 2880.39,-1203.81 2913.28,-1119.19 2925.08,-1084.95"/>
<polygon fill="midnightblue" stroke="midnightblue" points="2688.56,-1334.52 2680.44,-1341.32 2691.03,-1341.07 2688.56,-1334.52"/>
</g>
<!-- Node5 -->
<g id="node5" class="node">
<title>Node5</title>
<g id="a_node5"><a xlink:title=" ">
<polygon fill="white" stroke="#bfbfbf" points="2169,-1462.85 2169,-1514.85 2361,-1514.85 2361,-1462.85 2169,-1462.85"/>
<text text-anchor="start" x="2177" y="-1502.85" font-family="Helvetica,sans-Serif" font-size="10.00">function&lt; MoFEMErrorCode</text>
<text text-anchor="start" x="2177" y="-1491.85" font-family="Helvetica,sans-Serif" font-size="10.00">(DataOperator *op_ptr,</text>
<text text-anchor="start" x="2177" y="-1480.85" font-family="Helvetica,sans-Serif" font-size="10.00"> int side, EntityType type,</text>
<text text-anchor="middle" x="2265" y="-1469.85" font-family="Helvetica,sans-Serif" font-size="10.00"> EntitiesFieldData::EntData &amp;data)&gt;</text>
</a>
</g>
</g>
<!-- Node5&#45;&gt;Node4 -->
<g id="edge4" class="edge">
<title>Node5&#45;&gt;Node4</title>
<path fill="none" stroke="#9a32cd" stroke-dasharray="5,2" d="M2371.39,-1499.08C2426.67,-1500.01 2493.94,-1493.89 2548,-1466.85 2596.69,-1442.5 2632.3,-1383.83 2644.96,-1360.58"/>
<polygon fill="#9a32cd" stroke="#9a32cd" points="2371.3,-1495.58 2361.22,-1498.83 2371.13,-1502.57 2371.3,-1495.58"/>
<text text-anchor="middle" x="2467" y="-1501.85" font-family="Helvetica,sans-Serif" font-size="10.00"> doWorkRhsHook</text>
</g>
<!-- Node6 -->
<g id="node6" class="node">
<title>Node6</title>
<g id="a_node6"><a xlink:href="classbool.html" target="_top" xlink:title=" ">
<polygon fill="white" stroke="black" points="2246,-1412.35 2246,-1431.35 2284,-1431.35 2284,-1412.35 2246,-1412.35"/>
<text text-anchor="middle" x="2265" y="-1419.35" font-family="Helvetica,sans-Serif" font-size="10.00">bool</text>
</a>
</g>
</g>
<!-- Node6&#45;&gt;Node4 -->
<g id="edge5" class="edge">
<title>Node6&#45;&gt;Node4</title>
<path fill="none" stroke="#9a32cd" stroke-dasharray="5,2" d="M2294.21,-1419.95C2315.25,-1417.74 2344.31,-1413 2368,-1402.85 2377.07,-1398.96 2376.86,-1393.57 2386,-1389.85 2386.59,-1389.61 2510.44,-1371.37 2588.28,-1359.92"/>
<polygon fill="#9a32cd" stroke="#9a32cd" points="2293.65,-1416.48 2284.01,-1420.88 2294.29,-1423.45 2293.65,-1416.48"/>
<text text-anchor="middle" x="2467" y="-1458.85" font-family="Helvetica,sans-Serif" font-size="10.00"> doTris</text>
<text text-anchor="middle" x="2467" y="-1447.85" font-family="Helvetica,sans-Serif" font-size="10.00">doQuads</text>
<text text-anchor="middle" x="2467" y="-1436.85" font-family="Helvetica,sans-Serif" font-size="10.00">sYmm</text>
<text text-anchor="middle" x="2467" y="-1425.85" font-family="Helvetica,sans-Serif" font-size="10.00">doPrisms</text>
<text text-anchor="middle" x="2467" y="-1414.85" font-family="Helvetica,sans-Serif" font-size="10.00">doTets</text>
<text text-anchor="middle" x="2467" y="-1403.85" font-family="Helvetica,sans-Serif" font-size="10.00">doVertices</text>
<text text-anchor="middle" x="2467" y="-1392.85" font-family="Helvetica,sans-Serif" font-size="10.00">doEdges</text>
</g>
<!-- Node7 -->
<g id="node7" class="node">
<title>Node7</title>
<g id="a_node7"><a xlink:title=" ">
<polygon fill="white" stroke="#bfbfbf" points="2162,-1308.35 2162,-1393.35 2368,-1393.35 2368,-1308.35 2162,-1308.35"/>
<text text-anchor="start" x="2170" y="-1381.35" font-family="Helvetica,sans-Serif" font-size="10.00">function&lt; MoFEMErrorCode</text>
<text text-anchor="start" x="2170" y="-1370.35" font-family="Helvetica,sans-Serif" font-size="10.00">(DataOperator *op_ptr,</text>
<text text-anchor="start" x="2170" y="-1359.35" font-family="Helvetica,sans-Serif" font-size="10.00"> int row_side, int col_side,</text>
<text text-anchor="start" x="2170" y="-1348.35" font-family="Helvetica,sans-Serif" font-size="10.00"> EntityType row_type, EntityType</text>
<text text-anchor="start" x="2170" y="-1337.35" font-family="Helvetica,sans-Serif" font-size="10.00"> col_type, EntitiesFieldData::EntData</text>
<text text-anchor="start" x="2170" y="-1326.35" font-family="Helvetica,sans-Serif" font-size="10.00"> &amp;row_data, EntitiesFieldData::EntData</text>
<text text-anchor="middle" x="2265" y="-1315.35" font-family="Helvetica,sans-Serif" font-size="10.00"> &amp;col_data)&gt;</text>
</a>
</g>
</g>
<!-- Node7&#45;&gt;Node4 -->
<g id="edge6" class="edge">
<title>Node7&#45;&gt;Node4</title>
<path fill="none" stroke="#9a32cd" stroke-dasharray="5,2" d="M2378.56,-1350.85C2447.03,-1350.85 2531.87,-1350.85 2588.3,-1350.85"/>
<polygon fill="#9a32cd" stroke="#9a32cd" points="2378.15,-1347.35 2368.15,-1350.85 2378.15,-1354.35 2378.15,-1347.35"/>
<text text-anchor="middle" x="2467" y="-1353.85" font-family="Helvetica,sans-Serif" font-size="10.00"> doWorkLhsHook</text>
</g>
<!-- Node8 -->
<g id="node8" class="node">
<title>Node8</title>
<g id="a_node8"><a xlink:title=" ">
<polygon fill="white" stroke="#bfbfbf" points="2188,-1270.35 2188,-1289.35 2342,-1289.35 2342,-1270.35 2188,-1270.35"/>
<text text-anchor="middle" x="2265" y="-1277.35" font-family="Helvetica,sans-Serif" font-size="10.00">array&lt; bool, MBMAXTYPE &gt;</text>
</a>
</g>
</g>
<!-- Node8&#45;&gt;Node4 -->
<g id="edge7" class="edge">
<title>Node8&#45;&gt;Node4</title>
<path fill="none" stroke="#9a32cd" stroke-dasharray="5,2" d="M2327.65,-1291.25C2402.8,-1305.15 2528.44,-1328.38 2598.61,-1341.35"/>
<polygon fill="#9a32cd" stroke="#9a32cd" points="2327.86,-1287.73 2317.39,-1289.35 2326.59,-1294.61 2327.86,-1287.73"/>
<text text-anchor="middle" x="2467" y="-1333.85" font-family="Helvetica,sans-Serif" font-size="10.00"> doEntities</text>
</g>
<!-- Node9 -->
<g id="node9" class="node">
<title>Node9</title>
<g id="a_node9"><a xlink:title=" ">
<polygon fill="white" stroke="#bfbfbf" points="2616.5,-1079.35 2616.5,-1098.35 2685.5,-1098.35 2685.5,-1079.35 2616.5,-1079.35"/>
<text text-anchor="middle" x="2651" y="-1086.35" font-family="Helvetica,sans-Serif" font-size="10.00">FieldSpace</text>
</a>
</g>
</g>
<!-- Node9&#45;&gt;Node3 -->
<g id="edge8" class="edge">
<title>Node9&#45;&gt;Node3</title>
<path fill="none" stroke="#9a32cd" stroke-dasharray="5,2" d="M2695.53,-1085.88C2735.69,-1083.13 2796.4,-1078.98 2845.99,-1075.59"/>
<polygon fill="#9a32cd" stroke="#9a32cd" points="2695.27,-1082.39 2685.53,-1086.56 2695.75,-1089.37 2695.27,-1082.39"/>
<text text-anchor="middle" x="2791" y="-1084.85" font-family="Helvetica,sans-Serif" font-size="10.00"> sPace</text>
</g>
<!-- Node10 -->
<g id="node10" class="node">
<title>Node10</title>
<g id="a_node10"><a xlink:title=" ">
<polygon fill="white" stroke="#bfbfbf" points="1131.5,-866.35 1131.5,-885.35 1169.5,-885.35 1169.5,-866.35 1131.5,-866.35"/>
<text text-anchor="middle" x="1150.5" y="-873.35" font-family="Helvetica,sans-Serif" font-size="10.00">char</text>
</a>
</g>
</g>
<!-- Node10&#45;&gt;Node3 -->
<g id="edge9" class="edge">
<title>Node10&#45;&gt;Node3</title>
<path fill="none" stroke="#9a32cd" stroke-dasharray="5,2" d="M1179.72,-875.92C1237.41,-876.45 1366.71,-879.81 1406,-898.85 1416.47,-903.92 1413.94,-912.02 1424,-917.85 1568.82,-1001.83 1680.64,-880.11 1790,-1006.85 1818.57,-1039.97 1777.02,-1171.97 1808,-1202.85 1913.9,-1308.41 1994.48,-1220.78 2144,-1219.85 2323.57,-1218.74 2371.58,-1248.34 2548,-1214.85 2685.64,-1188.73 2838.27,-1116.61 2900.84,-1085.01"/>
<polygon fill="#9a32cd" stroke="#9a32cd" points="1179.53,-872.42 1169.5,-875.85 1179.48,-879.42 1179.53,-872.42"/>
<text text-anchor="middle" x="2072" y="-1245.85" font-family="Helvetica,sans-Serif" font-size="10.00"> opType</text>
</g>
<!-- Node38 -->
<g id="node38" class="node">
<title>Node38</title>
<g id="a_node38"><a xlink:href="structMoFEM_1_1Problem.html" target="_top" xlink:title="keeps basic data about problem">
<polygon fill="white" stroke="black" points="1458,-271.35 1458,-290.35 1557,-290.35 1557,-271.35 1458,-271.35"/>
<text text-anchor="middle" x="1507.5" y="-278.35" font-family="Helvetica,sans-Serif" font-size="10.00">MoFEM::Problem</text>
</a>
</g>
</g>
<!-- Node10&#45;&gt;Node38 -->
<g id="edge53" class="edge">
<title>Node10&#45;&gt;Node38</title>
<path fill="none" stroke="#9a32cd" stroke-dasharray="5,2" d="M1179.79,-872.88C1239.86,-865.93 1377,-846.57 1406,-811.85 1423.07,-791.41 1419.36,-599.07 1424,-572.85 1444.02,-459.77 1489.77,-327.53 1502.91,-290.77"/>
<polygon fill="#9a32cd" stroke="#9a32cd" points="1179.39,-869.4 1169.85,-873.99 1180.18,-876.35 1179.39,-869.4"/>
<text text-anchor="middle" x="1338" y="-862.85" font-family="Helvetica,sans-Serif" font-size="10.00"> tagName</text>
</g>
<!-- Node11 -->
<g id="node11" class="node">
<title>Node11</title>
<g id="a_node11"><a xlink:href="structMoFEM_1_1ForcesAndSourcesCore.html" target="_top" xlink:title="structure to get information form mofem into EntitiesFieldData">
<polygon fill="white" stroke="black" points="2566,-910.35 2566,-929.35 2736,-929.35 2736,-910.35 2566,-910.35"/>
<text text-anchor="middle" x="2651" y="-917.35" font-family="Helvetica,sans-Serif" font-size="10.00">MoFEM::ForcesAndSourcesCore</text>
</a>
</g>
</g>
<!-- Node11&#45;&gt;Node3 -->
<g id="edge10" class="edge">
<title>Node11&#45;&gt;Node3</title>
<path fill="none" stroke="#9a32cd" stroke-dasharray="5,2" d="M2686.14,-933.28C2722.25,-947.96 2780.45,-973 2828,-999.85 2857.92,-1016.75 2890.29,-1039.87 2910.35,-1054.83"/>
<polygon fill="#9a32cd" stroke="#9a32cd" points="2687.15,-929.92 2676.57,-929.42 2684.54,-936.41 2687.15,-929.92"/>
<text text-anchor="middle" x="2791" y="-1002.85" font-family="Helvetica,sans-Serif" font-size="10.00"> ptrFE</text>
</g>
<!-- Node11&#45;&gt;Node11 -->
<g id="edge68" class="edge">
<title>Node11&#45;&gt;Node11</title>
<path fill="none" stroke="#9a32cd" stroke-dasharray="5,2" d="M2624.96,-938.88C2626.38,-943.98 2635.06,-947.85 2651,-947.85 2675.88,-947.85 2683.08,-938.42 2672.58,-929.61"/>
<polygon fill="#9a32cd" stroke="#9a32cd" points="2628.24,-940.14 2629.42,-929.61 2621.93,-937.1 2628.24,-940.14"/>
<text text-anchor="middle" x="2651" y="-961.85" font-family="Helvetica,sans-Serif" font-size="10.00"> sidePtrFE</text>
<text text-anchor="middle" x="2651" y="-950.85" font-family="Helvetica,sans-Serif" font-size="10.00">refinePtrFE</text>
</g>
<!-- Node12 -->
<g id="node12" class="node">
<title>Node12</title>
<g id="a_node12"><a xlink:href="structMoFEM_1_1FEMethod.html" target="_top" xlink:title="structure for User Loop Methods on finite elements">
<polygon fill="white" stroke="black" points="2211.5,-851.35 2211.5,-870.35 2318.5,-870.35 2318.5,-851.35 2211.5,-851.35"/>
<text text-anchor="middle" x="2265" y="-858.35" font-family="Helvetica,sans-Serif" font-size="10.00">MoFEM::FEMethod</text>
</a>
</g>
</g>
<!-- Node12&#45;&gt;Node11 -->
<g id="edge11" class="edge">
<title>Node12&#45;&gt;Node11</title>
<path fill="none" stroke="midnightblue" d="M2328.68,-867.58C2385.97,-874.09 2472.96,-884.86 2548,-897.85 2568.35,-901.37 2590.8,-906.12 2609.45,-910.31"/>
<polygon fill="midnightblue" stroke="midnightblue" points="2329.02,-864.1 2318.69,-866.46 2328.23,-871.06 2329.02,-864.1"/>
</g>
<!-- Node13 -->
<g id="node13" class="node">
<title>Node13</title>
<g id="a_node13"><a xlink:href="structMoFEM_1_1BasicMethod.html" target="_top" xlink:title="Data structure to exchange data between mofem and User Loop Methods.">
<polygon fill="white" stroke="black" points="1834,-851.35 1834,-870.35 1956,-870.35 1956,-851.35 1834,-851.35"/>
<text text-anchor="middle" x="1895" y="-858.35" font-family="Helvetica,sans-Serif" font-size="10.00">MoFEM::BasicMethod</text>
</a>
</g>
</g>
<!-- Node13&#45;&gt;Node12 -->
<g id="edge12" class="edge">
<title>Node13&#45;&gt;Node12</title>
<path fill="none" stroke="midnightblue" d="M1966.63,-860.85C2038.14,-860.85 2147.1,-860.85 2211.37,-860.85"/>
<polygon fill="midnightblue" stroke="midnightblue" points="1966.36,-857.35 1956.36,-860.85 1966.36,-864.35 1966.36,-857.35"/>
</g>
<!-- Node14 -->
<g id="node14" class="node">
<title>Node14</title>
<g id="a_node14"><a xlink:href="structMoFEM_1_1KspMethod.html" target="_top" xlink:title="data structure for ksp (linear solver) context">
<polygon fill="white" stroke="black" points="1451,-1031.35 1451,-1050.35 1564,-1050.35 1564,-1031.35 1451,-1031.35"/>
<text text-anchor="middle" x="1507.5" y="-1038.35" font-family="Helvetica,sans-Serif" font-size="10.00">MoFEM::KspMethod</text>
</a>
</g>
</g>
<!-- Node14&#45;&gt;Node13 -->
<g id="edge13" class="edge">
<title>Node14&#45;&gt;Node13</title>
<path fill="none" stroke="midnightblue" d="M1564.58,-1028.86C1626.66,-1013.01 1726.36,-979.59 1790,-917.85 1803.41,-904.84 1793.39,-891.5 1808,-879.85 1815.53,-873.85 1824.57,-869.65 1833.91,-866.73"/>
<polygon fill="midnightblue" stroke="midnightblue" points="1563.43,-1025.54 1554.57,-1031.35 1565.12,-1032.33 1563.43,-1025.54"/>
</g>
<!-- Node15 -->
<g id="node15" class="node">
<title>Node15</title>
<g id="a_node15"><a xlink:href="structMoFEM_1_1PetscData.html" target="_top" xlink:title=" ">
<polygon fill="white" stroke="black" points="1096.5,-1038.35 1096.5,-1057.35 1204.5,-1057.35 1204.5,-1038.35 1096.5,-1038.35"/>
<text text-anchor="middle" x="1150.5" y="-1045.35" font-family="Helvetica,sans-Serif" font-size="10.00">MoFEM::PetscData</text>
</a>
</g>
</g>
<!-- Node15&#45;&gt;Node14 -->
<g id="edge14" class="edge">
<title>Node15&#45;&gt;Node14</title>
<path fill="none" stroke="midnightblue" d="M1214.67,-1046.61C1281.79,-1045.28 1386.87,-1043.21 1450.94,-1041.95"/>
<polygon fill="midnightblue" stroke="midnightblue" points="1214.58,-1043.11 1204.65,-1046.8 1214.71,-1050.11 1214.58,-1043.11"/>
</g>
<!-- Node25 -->
<g id="node25" class="node">
<title>Node25</title>
<g id="a_node25"><a xlink:href="structMoFEM_1_1SnesMethod.html" target="_top" xlink:title="data structure for snes (nonlinear solver) context">
<polygon fill="white" stroke="black" points="1448,-1375.35 1448,-1394.35 1567,-1394.35 1567,-1375.35 1448,-1375.35"/>
<text text-anchor="middle" x="1507.5" y="-1382.35" font-family="Helvetica,sans-Serif" font-size="10.00">MoFEM::SnesMethod</text>
</a>
</g>
</g>
<!-- Node15&#45;&gt;Node25 -->
<g id="edge27" class="edge">
<title>Node15&#45;&gt;Node25</title>
<path fill="none" stroke="darkgreen" d="M1214.62,-1058.83C1280.63,-1071.47 1378.41,-1093.88 1406,-1119.85 1485,-1194.22 1502.47,-1337.08 1505.8,-1375.27"/>
<polygon fill="darkgreen" stroke="darkgreen" points="1215.2,-1055.37 1204.72,-1056.96 1213.9,-1062.25 1215.2,-1055.37"/>
</g>
<!-- Node28 -->
<g id="node28" class="node">
<title>Node28</title>
<g id="a_node28"><a xlink:href="structMoFEM_1_1TSMethod.html" target="_top" xlink:title="data structure for TS (time stepping) context">
<polygon fill="white" stroke="black" points="1454,-851.35 1454,-870.35 1561,-870.35 1561,-851.35 1454,-851.35"/>
<text text-anchor="middle" x="1507.5" y="-858.35" font-family="Helvetica,sans-Serif" font-size="10.00">MoFEM::TSMethod</text>
</a>
</g>
</g>
<!-- Node15&#45;&gt;Node28 -->
<g id="edge33" class="edge">
<title>Node15&#45;&gt;Node28</title>
<path fill="none" stroke="darkgreen" d="M1214.7,-1041.08C1227.94,-1037.47 1241.16,-1032.03 1252,-1023.85 1265.03,-1014.02 1257.03,-1001.75 1270,-991.85 1319.54,-954.06 1362.35,-1002.31 1406,-957.85 1430.93,-932.47 1398.84,-905 1424,-879.85 1432,-871.85 1442.66,-866.94 1453.64,-863.99"/>
<polygon fill="darkgreen" stroke="darkgreen" points="1213.52,-1037.76 1204.61,-1043.49 1215.15,-1044.57 1213.52,-1037.76"/>
</g>
<!-- Node16 -->
<g id="node16" class="node">
<title>Node16</title>
<g id="a_node16"><a xlink:href="structMoFEM_1_1UnknownInterface.html" target="_top" xlink:title="base class for all interface classes">
<polygon fill="white" stroke="black" points="739.5,-1067.35 739.5,-1086.35 887.5,-1086.35 887.5,-1067.35 739.5,-1067.35"/>
<text text-anchor="middle" x="813.5" y="-1074.35" font-family="Helvetica,sans-Serif" font-size="10.00">MoFEM::UnknownInterface</text>
</a>
</g>
</g>
<!-- Node16&#45;&gt;Node15 -->
<g id="edge15" class="edge">
<title>Node16&#45;&gt;Node15</title>
<path fill="none" stroke="midnightblue" d="M897.79,-1072.66C938.07,-1070.33 987.1,-1067.05 1031,-1062.85 1052.47,-1060.8 1076.05,-1057.94 1096.49,-1055.27"/>
<polygon fill="midnightblue" stroke="midnightblue" points="897.53,-1069.17 887.74,-1073.23 897.93,-1076.16 897.53,-1069.17"/>
</g>
<!-- Node56 -->
<g id="node56" class="node">
<title>Node56</title>
<g id="a_node56"><a xlink:href="structMoFEM_1_1CoreInterface.html" target="_top" xlink:title="Interface.">
<polygon fill="white" stroke="black" points="1088,-1290.35 1088,-1309.35 1213,-1309.35 1213,-1290.35 1088,-1290.35"/>
<text text-anchor="middle" x="1150.5" y="-1297.35" font-family="Helvetica,sans-Serif" font-size="10.00">MoFEM::CoreInterface</text>
</a>
</g>
</g>
<!-- Node16&#45;&gt;Node56 -->
<g id="edge67" class="edge">
<title>Node16&#45;&gt;Node56</title>
<path fill="none" stroke="midnightblue" d="M821.32,-1096.07C833.83,-1128.58 863.49,-1194.43 910,-1230.85 961.53,-1271.21 1035.77,-1287.96 1087.9,-1294.92"/>
<polygon fill="midnightblue" stroke="midnightblue" points="824.5,-1094.58 817.74,-1086.42 817.94,-1097.01 824.5,-1094.58"/>
</g>
<!-- Node17 -->
<g id="node17" class="node">
<title>Node17</title>
<g id="a_node17"><a xlink:title=" ">
<polygon fill="white" stroke="#bfbfbf" points="386,-882.35 386,-945.35 627,-945.35 627,-882.35 386,-882.35"/>
<text text-anchor="start" x="394" y="-933.35" font-family="Helvetica,sans-Serif" font-size="10.00">multi_index_container</text>
<text text-anchor="start" x="394" y="-922.35" font-family="Helvetica,sans-Serif" font-size="10.00">&lt; UIdTypeMap, indexed</text>
<text text-anchor="start" x="394" y="-911.35" font-family="Helvetica,sans-Serif" font-size="10.00">_by&lt; hashed_unique&lt; member</text>
<text text-anchor="start" x="394" y="-900.35" font-family="Helvetica,sans-Serif" font-size="10.00">&lt; UIdTypeMap, boost::typeindex</text>
<text text-anchor="middle" x="506.5" y="-889.35" font-family="Helvetica,sans-Serif" font-size="10.00">::type_index, &amp;UIdTypeMap::classIdx &gt; &gt; &gt; &gt;</text>
</a>
</g>
</g>
<!-- Node17&#45;&gt;Node16 -->
<g id="edge16" class="edge">
<title>Node17&#45;&gt;Node16</title>
<path fill="none" stroke="#9a32cd" stroke-dasharray="5,2" d="M556.69,-951.64C601.09,-984.08 669.34,-1029.91 735,-1057.85 743.92,-1061.65 753.76,-1064.79 763.35,-1067.35"/>
<polygon fill="#9a32cd" stroke="#9a32cd" points="558.53,-948.65 548.4,-945.54 554.38,-954.29 558.53,-948.65"/>
<text text-anchor="middle" x="681" y="-1052.85" font-family="Helvetica,sans-Serif" font-size="10.00"> iFaceTypeMap</text>
</g>
<!-- Node18 -->
<g id="node18" class="node">
<title>Node18</title>
<g id="a_node18"><a xlink:title=" ">
<polygon fill="white" stroke="#bfbfbf" points="0,-706.35 0,-725.35 125,-725.35 125,-706.35 0,-706.35"/>
<text text-anchor="middle" x="62.5" y="-713.35" font-family="Helvetica,sans-Serif" font-size="10.00">multi_index_container</text>
</a>
</g>
</g>
<!-- Node18&#45;&gt;Node13 -->
<g id="edge40" class="edge">
<title>Node18&#45;&gt;Node13</title>
<path fill="none" stroke="#9a32cd" stroke-dasharray="5,2" d="M135.41,-711.65C222.85,-706.91 374.95,-699.85 505.5,-699.85 505.5,-699.85 505.5,-699.85 1151.5,-699.85 1264.78,-699.85 1294.56,-693.52 1406,-713.85 1590.33,-747.48 1627.28,-791.37 1808,-840.85 1821.6,-844.58 1836.53,-848.21 1850.08,-851.33"/>
<polygon fill="#9a32cd" stroke="#9a32cd" points="135.12,-708.16 125.33,-712.2 135.51,-715.15 135.12,-708.16"/>
<text text-anchor="middle" x="970.5" y="-779.85" font-family="Helvetica,sans-Serif" font-size="10.00"> adjacenciesPtr</text>
<text text-anchor="middle" x="970.5" y="-768.85" font-family="Helvetica,sans-Serif" font-size="10.00">refinedEntitiesPtr</text>
<text text-anchor="middle" x="970.5" y="-757.85" font-family="Helvetica,sans-Serif" font-size="10.00">finiteElementsEntitiesPtr</text>
<text text-anchor="middle" x="970.5" y="-746.85" font-family="Helvetica,sans-Serif" font-size="10.00">dofsPtr</text>
<text text-anchor="middle" x="970.5" y="-735.85" font-family="Helvetica,sans-Serif" font-size="10.00">entitiesPtr</text>
<text text-anchor="middle" x="970.5" y="-724.85" font-family="Helvetica,sans-Serif" font-size="10.00">finiteElementsPtr</text>
<text text-anchor="middle" x="970.5" y="-713.85" font-family="Helvetica,sans-Serif" font-size="10.00">refinedFiniteElementsPtr</text>
<text text-anchor="middle" x="970.5" y="-702.85" font-family="Helvetica,sans-Serif" font-size="10.00">fieldsPtr</text>
</g>
<!-- Node18&#45;&gt;Node17 -->
<g id="edge17" class="edge">
<title>Node18&#45;&gt;Node17</title>
<path fill="none" stroke="orange" stroke-dasharray="5,2" d="M93.97,-729.5C163.77,-760.77 336.81,-838.29 434.83,-882.2"/>
<polygon fill="orange" stroke="orange" points="95.38,-726.3 84.82,-725.4 92.51,-732.68 95.38,-726.3"/>
<text text-anchor="start" x="143" y="-885.85" font-family="Helvetica,sans-Serif" font-size="10.00"> &lt; UIdTypeMap, indexed</text>
<text text-anchor="start" x="143" y="-874.85" font-family="Helvetica,sans-Serif" font-size="10.00">_by&lt; hashed_unique&lt; member</text>
<text text-anchor="start" x="143" y="-863.85" font-family="Helvetica,sans-Serif" font-size="10.00">&lt; UIdTypeMap, boost::typeindex</text>
<text text-anchor="middle" x="255.5" y="-852.85" font-family="Helvetica,sans-Serif" font-size="10.00">::type_index, &amp;UIdTypeMap::classIdx &gt; &gt; &gt; &gt;</text>
</g>
<!-- Node19 -->
<g id="node19" class="node">
<title>Node19</title>
<g id="a_node19"><a xlink:title=" ">
<polygon fill="white" stroke="#bfbfbf" points="743,-886.35 743,-905.35 884,-905.35 884,-886.35 743,-886.35"/>
<text text-anchor="middle" x="813.5" y="-893.35" font-family="Helvetica,sans-Serif" font-size="10.00">static constexpr Switches</text>
</a>
</g>
</g>
<!-- Node19&#45;&gt;Node15 -->
<g id="edge18" class="edge">
<title>Node19&#45;&gt;Node15</title>
<path fill="none" stroke="#9a32cd" stroke-dasharray="5,2" d="M894.27,-894.92C940.12,-898.7 995.49,-911.28 1031,-946.85 1055.83,-971.72 1024.21,-998.94 1049,-1023.85 1061.46,-1036.38 1079.22,-1042.81 1096.34,-1046"/>
<polygon fill="#9a32cd" stroke="#9a32cd" points="894.26,-891.41 884.05,-894.21 893.78,-898.4 894.26,-891.41"/>
<text text-anchor="middle" x="970.5" y="-1026.85" font-family="Helvetica,sans-Serif" font-size="10.00"> CtxSetX_TT</text>
<text text-anchor="middle" x="970.5" y="-1015.85" font-family="Helvetica,sans-Serif" font-size="10.00">CtxSetX_T</text>
<text text-anchor="middle" x="970.5" y="-1004.85" font-family="Helvetica,sans-Serif" font-size="10.00">CtxSetA</text>
<text text-anchor="middle" x="970.5" y="-993.85" font-family="Helvetica,sans-Serif" font-size="10.00">CtxSetB</text>
<text text-anchor="middle" x="970.5" y="-982.85" font-family="Helvetica,sans-Serif" font-size="10.00">CtxSetTime</text>
<text text-anchor="middle" x="970.5" y="-971.85" font-family="Helvetica,sans-Serif" font-size="10.00">CtxSetNone</text>
<text text-anchor="middle" x="970.5" y="-960.85" font-family="Helvetica,sans-Serif" font-size="10.00">CtxSetF</text>
<text text-anchor="middle" x="970.5" y="-949.85" font-family="Helvetica,sans-Serif" font-size="10.00">CtxSetX</text>
</g>
<!-- Node20 -->
<g id="node20" class="node">
<title>Node20</title>
<g id="a_node20"><a xlink:title=" ">
<polygon fill="white" stroke="#bfbfbf" points="796,-1029.35 796,-1048.35 831,-1048.35 831,-1029.35 796,-1029.35"/>
<text text-anchor="middle" x="813.5" y="-1036.35" font-family="Helvetica,sans-Serif" font-size="10.00">Mat</text>
</a>
</g>
</g>
<!-- Node20&#45;&gt;Node14 -->
<g id="edge24" class="edge">
<title>Node20&#45;&gt;Node14</title>
<path fill="none" stroke="#9a32cd" stroke-dasharray="5,2" d="M841.22,-1034C884.63,-1026.39 973.23,-1012 1049,-1006.85 1139.01,-1000.74 1161.98,-1000.86 1252,-1006.85 1320.94,-1011.44 1399.7,-1022.93 1451.11,-1031.29"/>
<polygon fill="#9a32cd" stroke="#9a32cd" points="840.43,-1030.59 831.2,-1035.78 841.65,-1037.48 840.43,-1030.59"/>
<text text-anchor="middle" x="1150.5" y="-1020.85" font-family="Helvetica,sans-Serif" font-size="10.00"> ksp_A</text>
<text text-anchor="middle" x="1150.5" y="-1009.85" font-family="Helvetica,sans-Serif" font-size="10.00">ksp_B</text>
</g>
<!-- Node20&#45;&gt;Node15 -->
<g id="edge19" class="edge">
<title>Node20&#45;&gt;Node15</title>
<path fill="none" stroke="#9a32cd" stroke-dasharray="5,2" d="M841.29,-1038.67C882.2,-1038.49 962.69,-1038.52 1031,-1040.85 1052.42,-1041.58 1075.99,-1042.87 1096.44,-1044.15"/>
<polygon fill="#9a32cd" stroke="#9a32cd" points="841.06,-1035.17 831.07,-1038.72 841.09,-1042.17 841.06,-1035.17"/>
<text text-anchor="middle" x="970.5" y="-1054.85" font-family="Helvetica,sans-Serif" font-size="10.00"> A</text>
<text text-anchor="middle" x="970.5" y="-1043.85" font-family="Helvetica,sans-Serif" font-size="10.00">B</text>
</g>
<!-- Node20&#45;&gt;Node25 -->
<g id="edge29" class="edge">
<title>Node20&#45;&gt;Node25</title>
<path fill="none" stroke="#9a32cd" stroke-dasharray="5,2" d="M841.16,-1042.51C856.57,-1045.32 876.01,-1050.07 892,-1057.85 927.3,-1075.02 1008.56,-1134.64 1031,-1166.85 1045.94,-1188.3 1029.31,-1205.66 1049,-1222.85 1118.03,-1283.11 1164.95,-1230.24 1252,-1258.85 1347.55,-1290.26 1452.43,-1351.62 1491.09,-1375.26"/>
<polygon fill="#9a32cd" stroke="#9a32cd" points="841.66,-1039.05 831.22,-1040.86 840.52,-1045.95 841.66,-1039.05"/>
<text text-anchor="middle" x="1150.5" y="-1272.85" font-family="Helvetica,sans-Serif" font-size="10.00"> snes_A</text>
<text text-anchor="middle" x="1150.5" y="-1261.85" font-family="Helvetica,sans-Serif" font-size="10.00">snes_B</text>
</g>
<!-- Node20&#45;&gt;Node28 -->
<g id="edge34" class="edge">
<title>Node20&#45;&gt;Node28</title>
<path fill="none" stroke="#9a32cd" stroke-dasharray="5,2" d="M828.27,-1020.98C845.54,-997.74 874.95,-955.33 892,-914.85 905.14,-883.66 883.84,-862.34 910,-840.85 957.78,-801.6 987.18,-836.19 1049,-834.85 1139.2,-832.91 1165.15,-810.41 1252,-834.85 1261.03,-837.39 1261.06,-843.03 1270,-845.85 1331,-865.12 1405.16,-866.51 1453.98,-864.64"/>
<polygon fill="#9a32cd" stroke="#9a32cd" points="825.32,-1019.08 822.09,-1029.17 830.91,-1023.29 825.32,-1019.08"/>
<text text-anchor="middle" x="1150.5" y="-848.85" font-family="Helvetica,sans-Serif" font-size="10.00"> ts_A</text>
<text text-anchor="middle" x="1150.5" y="-837.85" font-family="Helvetica,sans-Serif" font-size="10.00">ts_B</text>
</g>
<!-- Node73 -->
<g id="node73" class="node">
<title>Node73</title>
<g id="a_node73"><a xlink:href="structBoneRemodeling_1_1CommonData.html" target="_top" xlink:title="Data structure for storing global and local matrix K and vector f.">
<polygon fill="white" stroke="black" points="1064,-1559.35 1064,-1578.35 1237,-1578.35 1237,-1559.35 1064,-1559.35"/>
<text text-anchor="middle" x="1150.5" y="-1566.35" font-family="Helvetica,sans-Serif" font-size="10.00">BoneRemodeling::CommonData</text>
</a>
</g>
</g>
<!-- Node20&#45;&gt;Node73 -->
<g id="edge92" class="edge">
<title>Node20&#45;&gt;Node73</title>
<path fill="none" stroke="#9a32cd" stroke-dasharray="5,2" d="M841.25,-1038.06C858.37,-1039.09 879.61,-1043.54 892,-1057.85 919.18,-1089.25 897.68,-1204.19 910,-1243.85 947.82,-1365.63 964.83,-1399.06 1049,-1494.85 1073.6,-1522.85 1110.51,-1546.63 1132.09,-1559.22"/>
<polygon fill="#9a32cd" stroke="#9a32cd" points="841.33,-1034.56 831.25,-1037.8 841.15,-1041.56 841.33,-1034.56"/>
<text text-anchor="middle" x="970.5" y="-1475.85" font-family="Helvetica,sans-Serif" font-size="10.00"> globA</text>
</g>
<!-- Node21 -->
<g id="node21" class="node">
<title>Node21</title>
<g id="a_node21"><a xlink:title=" ">
<polygon fill="white" stroke="#bfbfbf" points="777,-848.35 777,-867.35 850,-867.35 850,-848.35 777,-848.35"/>
<text text-anchor="middle" x="813.5" y="-855.35" font-family="Helvetica,sans-Serif" font-size="10.00">bitset&lt; 8 &gt;</text>
</a>
</g>
</g>
<!-- Node21&#45;&gt;Node15 -->
<g id="edge20" class="edge">
<title>Node21&#45;&gt;Node15</title>
<path fill="none" stroke="#9a32cd" stroke-dasharray="5,2" d="M860.07,-848.48C909.26,-841.28 986.52,-838.91 1031,-882.85 1075.94,-927.25 1006.79,-976.85 1049,-1023.85 1060.99,-1037.2 1078.94,-1043.78 1096.38,-1046.85"/>
<polygon fill="#9a32cd" stroke="#9a32cd" points="859.34,-845.05 850.02,-850.08 860.44,-851.97 859.34,-845.05"/>
<text text-anchor="middle" x="970.5" y="-885.85" font-family="Helvetica,sans-Serif" font-size="10.00"> data_ctx</text>
</g>
<!-- Node22 -->
<g id="node22" class="node">
<title>Node22</title>
<g id="a_node22"><a xlink:title=" ">
<polygon fill="white" stroke="#bfbfbf" points="796.5,-1336.35 796.5,-1355.35 830.5,-1355.35 830.5,-1336.35 796.5,-1336.35"/>
<text text-anchor="middle" x="813.5" y="-1343.35" font-family="Helvetica,sans-Serif" font-size="10.00">Vec</text>
</a>
</g>
</g>
<!-- Node22&#45;&gt;Node14 -->
<g id="edge25" class="edge">
<title>Node22&#45;&gt;Node14</title>
<path fill="none" stroke="#9a32cd" stroke-dasharray="5,2" d="M840.53,-1348.66C909.62,-1355.21 1102.58,-1367.4 1252,-1318.85 1329.16,-1293.78 1363.06,-1289.69 1406,-1220.85 1444.11,-1159.76 1376.1,-1113.61 1424,-1059.85 1431.04,-1051.95 1440.65,-1046.99 1450.82,-1043.94"/>
<polygon fill="#9a32cd" stroke="#9a32cd" points="840.82,-1345.18 830.53,-1347.67 840.13,-1352.14 840.82,-1345.18"/>
<text text-anchor="middle" x="1150.5" y="-1355.85" font-family="Helvetica,sans-Serif" font-size="10.00"> ksp_f</text>
</g>
<!-- Node22&#45;&gt;Node15 -->
<g id="edge21" class="edge">
<title>Node22&#45;&gt;Node15</title>
<path fill="none" stroke="#9a32cd" stroke-dasharray="5,2" d="M824.12,-1327.38C851.51,-1276.82 935.38,-1135.66 1049,-1071.85 1063.39,-1063.77 1080.42,-1058.4 1096.33,-1054.83"/>
<polygon fill="#9a32cd" stroke="#9a32cd" points="821.01,-1325.77 819.4,-1336.24 827.19,-1329.06 821.01,-1325.77"/>
<text text-anchor="middle" x="970.5" y="-1231.85" font-family="Helvetica,sans-Serif" font-size="10.00"> f</text>
<text text-anchor="middle" x="970.5" y="-1220.85" font-family="Helvetica,sans-Serif" font-size="10.00">x</text>
<text text-anchor="middle" x="970.5" y="-1209.85" font-family="Helvetica,sans-Serif" font-size="10.00">x_t</text>
<text text-anchor="middle" x="970.5" y="-1198.85" font-family="Helvetica,sans-Serif" font-size="10.00">x_tt</text>
</g>
<!-- Node22&#45;&gt;Node25 -->
<g id="edge30" class="edge">
<title>Node22&#45;&gt;Node25</title>
<path fill="none" stroke="#9a32cd" stroke-dasharray="5,2" d="M839.5,-1359.91C881.29,-1382.53 968.71,-1426.05 1049,-1441.85 1204.8,-1472.51 1252.05,-1466.75 1406,-1427.85 1436.36,-1420.18 1469.33,-1404.54 1488.94,-1394.38"/>
<polygon fill="#9a32cd" stroke="#9a32cd" points="841.04,-1356.76 830.58,-1355.03 837.67,-1362.9 841.04,-1356.76"/>
<text text-anchor="middle" x="1150.5" y="-1474.85" font-family="Helvetica,sans-Serif" font-size="10.00"> snes_x</text>
<text text-anchor="middle" x="1150.5" y="-1463.85" font-family="Helvetica,sans-Serif" font-size="10.00">snes_f</text>
</g>
<!-- Node22&#45;&gt;Node28 -->
<g id="edge38" class="edge">
<title>Node22&#45;&gt;Node28</title>
<path fill="none" stroke="#9a32cd" stroke-dasharray="5,2" d="M840.51,-1341.83C887.14,-1333.13 984.41,-1307.92 1031,-1243.85 1068.16,-1192.76 1005.43,-1148.59 1049,-1102.85 1112.2,-1036.51 1165.08,-1095.86 1252,-1066.85 1324.78,-1042.56 1360.62,-1050.72 1406,-988.85 1435.04,-949.26 1390.39,-915.64 1424,-879.85 1431.85,-871.49 1442.57,-866.47 1453.69,-863.51"/>
<polygon fill="#9a32cd" stroke="#9a32cd" points="839.83,-1338.4 830.59,-1343.57 841.04,-1345.29 839.83,-1338.4"/>
<text text-anchor="middle" x="1150.5" y="-1138.85" font-family="Helvetica,sans-Serif" font-size="10.00"> ts_u</text>
<text text-anchor="middle" x="1150.5" y="-1127.85" font-family="Helvetica,sans-Serif" font-size="10.00">ts_F</text>
<text text-anchor="middle" x="1150.5" y="-1116.85" font-family="Helvetica,sans-Serif" font-size="10.00">ts_u_t</text>
<text text-anchor="middle" x="1150.5" y="-1105.85" font-family="Helvetica,sans-Serif" font-size="10.00">ts_u_tt</text>
</g>
<!-- Node22&#45;&gt;Node73 -->
<g id="edge94" class="edge">
<title>Node22&#45;&gt;Node73</title>
<path fill="none" stroke="#9a32cd" stroke-dasharray="5,2" d="M820.06,-1365.65C831.04,-1401 859.01,-1474.85 910,-1512.85 937,-1532.98 1021.67,-1549.57 1082.68,-1559.33"/>
<polygon fill="#9a32cd" stroke="#9a32cd" points="823.28,-1364.2 817.08,-1355.61 816.57,-1366.2 823.28,-1364.2"/>
<text text-anchor="middle" x="970.5" y="-1551.85" font-family="Helvetica,sans-Serif" font-size="10.00"> globF</text>
</g>
<!-- Node23 -->
<g id="node23" class="node">
<title>Node23</title>
<g id="a_node23"><a xlink:title=" ">
<polygon fill="white" stroke="#bfbfbf" points="1133,-1194.35 1133,-1213.35 1168,-1213.35 1168,-1194.35 1133,-1194.35"/>
<text text-anchor="middle" x="1150.5" y="-1201.35" font-family="Helvetica,sans-Serif" font-size="10.00">KSP</text>
</a>
</g>
</g>
<!-- Node23&#45;&gt;Node14 -->
<g id="edge22" class="edge">
<title>Node23&#45;&gt;Node14</title>
<path fill="none" stroke="#9a32cd" stroke-dasharray="5,2" d="M1178.16,-1206.8C1230.04,-1210.92 1344.87,-1211.85 1406,-1148.85 1434.1,-1119.89 1395.85,-1088.77 1424,-1059.85 1431.28,-1052.37 1440.87,-1047.58 1450.92,-1044.56"/>
<polygon fill="#9a32cd" stroke="#9a32cd" points="1178.35,-1203.3 1168.08,-1205.89 1177.73,-1210.27 1178.35,-1203.3"/>
<text text-anchor="middle" x="1338" y="-1208.85" font-family="Helvetica,sans-Serif" font-size="10.00"> ksp</text>
</g>
<!-- Node24 -->
<g id="node24" class="node">
<title>Node24</title>
<g id="a_node24"><a xlink:title=" ">
<polygon fill="white" stroke="#bfbfbf" points="1113.5,-1156.35 1113.5,-1175.35 1187.5,-1175.35 1187.5,-1156.35 1113.5,-1156.35"/>
<text text-anchor="middle" x="1150.5" y="-1163.35" font-family="Helvetica,sans-Serif" font-size="10.00">KSPContext</text>
</a>
</g>
</g>
<!-- Node24&#45;&gt;Node14 -->
<g id="edge23" class="edge">
<title>Node24&#45;&gt;Node14</title>
<path fill="none" stroke="#9a32cd" stroke-dasharray="5,2" d="M1197.71,-1156.96C1214.98,-1153.08 1234.61,-1148 1252,-1141.85 1331.85,-1113.64 1344.04,-1087.74 1424,-1059.85 1434.55,-1056.17 1446.1,-1053 1457.14,-1050.37"/>
<polygon fill="#9a32cd" stroke="#9a32cd" points="1196.87,-1153.56 1187.85,-1159.1 1198.36,-1160.4 1196.87,-1153.56"/>
<text text-anchor="middle" x="1338" y="-1136.85" font-family="Helvetica,sans-Serif" font-size="10.00"> ksp_ctx</text>
</g>
<!-- Node25&#45;&gt;Node13 -->
<g id="edge26" class="edge">
<title>Node25&#45;&gt;Node13</title>
<path fill="none" stroke="midnightblue" d="M1524.03,-1367.95C1543.21,-1347.44 1577.2,-1312.19 1609,-1284.85 1684.9,-1219.6 1742.02,-1238.69 1790,-1150.85 1818.93,-1097.88 1768.67,-925.63 1808,-879.85 1814.78,-871.97 1824.02,-866.93 1833.94,-863.78"/>
<polygon fill="midnightblue" stroke="midnightblue" points="1521.46,-1365.58 1517.22,-1375.29 1526.59,-1370.34 1521.46,-1365.58"/>
</g>
<!-- Node26 -->
<g id="node26" class="node">
<title>Node26</title>
<g id="a_node26"><a xlink:title=" ">
<polygon fill="white" stroke="#bfbfbf" points="1129.5,-1375.35 1129.5,-1394.35 1171.5,-1394.35 1171.5,-1375.35 1129.5,-1375.35"/>
<text text-anchor="middle" x="1150.5" y="-1382.35" font-family="Helvetica,sans-Serif" font-size="10.00">SNES</text>
</a>
</g>
</g>
<!-- Node26&#45;&gt;Node25 -->
<g id="edge28" class="edge">
<title>Node26&#45;&gt;Node25</title>
<path fill="none" stroke="#9a32cd" stroke-dasharray="5,2" d="M1181.72,-1384.85C1240.53,-1384.85 1371.28,-1384.85 1447.74,-1384.85"/>
<polygon fill="#9a32cd" stroke="#9a32cd" points="1181.6,-1381.35 1171.6,-1384.85 1181.6,-1388.35 1181.6,-1381.35"/>
<text text-anchor="middle" x="1338" y="-1387.85" font-family="Helvetica,sans-Serif" font-size="10.00"> snes</text>
</g>
<!-- Node27 -->
<g id="node27" class="node">
<title>Node27</title>
<g id="a_node27"><a xlink:title=" ">
<polygon fill="white" stroke="#bfbfbf" points="1110.5,-1413.35 1110.5,-1432.35 1190.5,-1432.35 1190.5,-1413.35 1110.5,-1413.35"/>
<text text-anchor="middle" x="1150.5" y="-1420.35" font-family="Helvetica,sans-Serif" font-size="10.00">SNESContext</text>
</a>
</g>
</g>
<!-- Node27&#45;&gt;Node25 -->
<g id="edge31" class="edge">
<title>Node27&#45;&gt;Node25</title>
<path fill="none" stroke="#9a32cd" stroke-dasharray="5,2" d="M1200.97,-1419.24C1252.31,-1415.28 1334.91,-1408.36 1406,-1399.85 1419.57,-1398.23 1434.14,-1396.21 1447.85,-1394.19"/>
<polygon fill="#9a32cd" stroke="#9a32cd" points="1200.52,-1415.76 1190.81,-1420.01 1201.05,-1422.74 1200.52,-1415.76"/>
<text text-anchor="middle" x="1338" y="-1415.85" font-family="Helvetica,sans-Serif" font-size="10.00"> snes_ctx</text>
</g>
<!-- Node28&#45;&gt;Node13 -->
<g id="edge32" class="edge">
<title>Node28&#45;&gt;Node13</title>
<path fill="none" stroke="midnightblue" d="M1571.67,-860.85C1644.29,-860.85 1762.64,-860.85 1833.93,-860.85"/>
<polygon fill="midnightblue" stroke="midnightblue" points="1571.29,-857.35 1561.29,-860.85 1571.29,-864.35 1571.29,-857.35"/>
</g>
<!-- Node29 -->
<g id="node29" class="node">
<title>Node29</title>
<g id="a_node29"><a xlink:title=" ">
<polygon fill="white" stroke="#bfbfbf" points="1118,-728.35 1118,-747.35 1183,-747.35 1183,-728.35 1118,-728.35"/>
<text text-anchor="middle" x="1150.5" y="-735.35" font-family="Helvetica,sans-Serif" font-size="10.00">PetscReal</text>
</a>
</g>
</g>
<!-- Node29&#45;&gt;Node28 -->
<g id="edge35" class="edge">
<title>Node29&#45;&gt;Node28</title>
<path fill="none" stroke="#9a32cd" stroke-dasharray="5,2" d="M1192.77,-725.78C1245.26,-712.82 1337.31,-698.29 1406,-731.85 1458.8,-757.65 1491.92,-826.07 1502.67,-851.32"/>
<polygon fill="#9a32cd" stroke="#9a32cd" points="1191.64,-722.45 1182.82,-728.33 1193.38,-729.23 1191.64,-722.45"/>
<text text-anchor="middle" x="1338" y="-767.85" font-family="Helvetica,sans-Serif" font-size="10.00"> ts_a</text>
<text text-anchor="middle" x="1338" y="-756.85" font-family="Helvetica,sans-Serif" font-size="10.00">ts_t</text>
<text text-anchor="middle" x="1338" y="-745.85" font-family="Helvetica,sans-Serif" font-size="10.00">ts_dt</text>
<text text-anchor="middle" x="1338" y="-734.85" font-family="Helvetica,sans-Serif" font-size="10.00">ts_aa</text>
</g>
<!-- Node30 -->
<g id="node30" class="node">
<title>Node30</title>
<g id="a_node30"><a xlink:title=" ">
<polygon fill="white" stroke="#bfbfbf" points="1117,-942.35 1117,-961.35 1184,-961.35 1184,-942.35 1117,-942.35"/>
<text text-anchor="middle" x="1150.5" y="-949.35" font-family="Helvetica,sans-Serif" font-size="10.00">TSContext</text>
</a>
</g>
</g>
<!-- Node30&#45;&gt;Node28 -->
<g id="edge36" class="edge">
<title>Node30&#45;&gt;Node28</title>
<path fill="none" stroke="#9a32cd" stroke-dasharray="5,2" d="M1194.23,-949.36C1257.53,-944.95 1372.37,-933.97 1406,-910.85 1419.13,-901.83 1411.18,-889.31 1424,-879.85 1432.75,-873.4 1443.34,-869.08 1453.97,-866.22"/>
<polygon fill="#9a32cd" stroke="#9a32cd" points="1193.9,-945.88 1184.16,-950.04 1194.37,-952.86 1193.9,-945.88"/>
<text text-anchor="middle" x="1338" y="-945.85" font-family="Helvetica,sans-Serif" font-size="10.00"> ts_ctx</text>
</g>
<!-- Node31 -->
<g id="node31" class="node">
<title>Node31</title>
<g id="a_node31"><a xlink:title=" ">
<polygon fill="white" stroke="#bfbfbf" points="1122.5,-904.35 1122.5,-923.35 1178.5,-923.35 1178.5,-904.35 1122.5,-904.35"/>
<text text-anchor="middle" x="1150.5" y="-911.35" font-family="Helvetica,sans-Serif" font-size="10.00">PetscInt</text>
</a>
</g>
</g>
<!-- Node31&#45;&gt;Node28 -->
<g id="edge37" class="edge">
<title>Node31&#45;&gt;Node28</title>
<path fill="none" stroke="#9a32cd" stroke-dasharray="5,2" d="M1188.72,-908.3C1252.08,-898.84 1381.08,-879.58 1453.73,-868.73"/>
<polygon fill="#9a32cd" stroke="#9a32cd" points="1188.14,-904.84 1178.77,-909.78 1189.17,-911.77 1188.14,-904.84"/>
<text text-anchor="middle" x="1338" y="-898.85" font-family="Helvetica,sans-Serif" font-size="10.00"> ts_step</text>
</g>
<!-- Node32 -->
<g id="node32" class="node">
<title>Node32</title>
<g id="a_node32"><a xlink:title=" ">
<polygon fill="white" stroke="#bfbfbf" points="1136,-770.35 1136,-789.35 1165,-789.35 1165,-770.35 1136,-770.35"/>
<text text-anchor="middle" x="1150.5" y="-777.35" font-family="Helvetica,sans-Serif" font-size="10.00">TS</text>
</a>
</g>
</g>
<!-- Node32&#45;&gt;Node28 -->
<g id="edge39" class="edge">
<title>Node32&#45;&gt;Node28</title>
<path fill="none" stroke="#9a32cd" stroke-dasharray="5,2" d="M1175.29,-778.3C1221.16,-776.06 1324.49,-774.72 1406,-800.85 1441.02,-812.08 1476.76,-837.43 1494.69,-851.31"/>
<polygon fill="#9a32cd" stroke="#9a32cd" points="1174.96,-774.81 1165.16,-778.85 1175.34,-781.8 1174.96,-774.81"/>
<text text-anchor="middle" x="1338" y="-803.85" font-family="Helvetica,sans-Serif" font-size="10.00"> ts</text>
</g>
<!-- Node33 -->
<g id="node33" class="node">
<title>Node33</title>
<g id="a_node33"><a xlink:title=" ">
<polygon fill="white" stroke="#bfbfbf" points="1463,-1107.35 1463,-1126.35 1552,-1126.35 1552,-1107.35 1463,-1107.35"/>
<text text-anchor="middle" x="1507.5" y="-1114.35" font-family="Helvetica,sans-Serif" font-size="10.00">pair&lt; int, int &gt;</text>
</a>
</g>
</g>
<!-- Node33&#45;&gt;Node13 -->
<g id="edge41" class="edge">
<title>Node33&#45;&gt;Node13</title>
<path fill="none" stroke="#9a32cd" stroke-dasharray="5,2" d="M1559.75,-1128.22C1623.38,-1139.01 1730.73,-1145.66 1790,-1084.85 1821.92,-1052.1 1777.83,-914.22 1808,-879.85 1814.76,-872.15 1823.87,-867.18 1833.64,-864.04"/>
<polygon fill="#9a32cd" stroke="#9a32cd" points="1560.01,-1124.72 1549.55,-1126.4 1558.77,-1131.61 1560.01,-1124.72"/>
<text text-anchor="middle" x="1699.5" y="-1138.85" font-family="Helvetica,sans-Serif" font-size="10.00"> loHiFERank</text>
</g>
<!-- Node34 -->
<g id="node34" class="node">
<title>Node34</title>
<g id="a_node34"><a xlink:title=" ">
<polygon fill="white" stroke="#bfbfbf" points="1437.5,-1069.35 1437.5,-1088.35 1577.5,-1088.35 1577.5,-1069.35 1437.5,-1069.35"/>
<text text-anchor="middle" x="1507.5" y="-1076.35" font-family="Helvetica,sans-Serif" font-size="10.00">weak_ptr&lt; CacheTuple &gt;</text>
</a>
</g>
</g>
<!-- Node34&#45;&gt;Node13 -->
<g id="edge42" class="edge">
<title>Node34&#45;&gt;Node13</title>
<path fill="none" stroke="#9a32cd" stroke-dasharray="5,2" d="M1587.8,-1073.33C1652.45,-1064.36 1740.84,-1041.07 1790,-980.85 1818.83,-945.53 1776.43,-912.75 1808,-879.85 1814.99,-872.57 1824.09,-867.78 1833.75,-864.68"/>
<polygon fill="#9a32cd" stroke="#9a32cd" points="1587.1,-1069.89 1577.63,-1074.65 1588,-1076.83 1587.1,-1069.89"/>
<text text-anchor="middle" x="1699.5" y="-1072.85" font-family="Helvetica,sans-Serif" font-size="10.00"> cacheWeakPtr</text>
</g>
<!-- Node35 -->
<g id="node35" class="node">
<title>Node35</title>
<g id="a_node35"><a xlink:title=" ">
<polygon fill="white" stroke="#bfbfbf" points="1451.5,-889.35 1451.5,-908.35 1563.5,-908.35 1563.5,-889.35 1451.5,-889.35"/>
<text text-anchor="middle" x="1507.5" y="-896.35" font-family="Helvetica,sans-Serif" font-size="10.00">unique_ptr&lt; bool &gt;</text>
</a>
</g>
</g>
<!-- Node35&#45;&gt;Node13 -->
<g id="edge43" class="edge">
<title>Node35&#45;&gt;Node13</title>
<path fill="none" stroke="#9a32cd" stroke-dasharray="5,2" d="M1573.57,-894.21C1630.68,-889.92 1715.95,-882.99 1790,-874.85 1804.22,-873.29 1819.49,-871.37 1833.84,-869.46"/>
<polygon fill="#9a32cd" stroke="#9a32cd" points="1573.31,-890.72 1563.6,-894.95 1573.83,-897.7 1573.31,-890.72"/>
<text text-anchor="middle" x="1699.5" y="-905.85" font-family="Helvetica,sans-Serif" font-size="10.00"> matAssembleSwitch</text>
<text text-anchor="middle" x="1699.5" y="-894.85" font-family="Helvetica,sans-Serif" font-size="10.00">vecAssembleSwitch</text>
</g>
<!-- Node36 -->
<g id="node36" class="node">
<title>Node36</title>
<g id="a_node36"><a xlink:title=" ">
<polygon fill="white" stroke="#bfbfbf" points="1136,-515.35 1136,-534.35 1165,-534.35 1165,-515.35 1136,-515.35"/>
<text text-anchor="middle" x="1150.5" y="-522.35" font-family="Helvetica,sans-Serif" font-size="10.00">int</text>
</a>
</g>
</g>
<!-- Node36&#45;&gt;Node13 -->
<g id="edge44" class="edge">
<title>Node36&#45;&gt;Node13</title>
<path fill="none" stroke="#9a32cd" stroke-dasharray="5,2" d="M1174.49,-532.75C1221.18,-548.65 1330.61,-585.18 1424,-610.85 1504.56,-633 1734.15,-634.72 1790,-696.85 1833.12,-744.82 1764.83,-792.93 1808,-840.85 1814.87,-848.48 1824.04,-853.49 1833.83,-856.72"/>
<polygon fill="#9a32cd" stroke="#9a32cd" points="1175.6,-529.43 1165,-529.51 1173.33,-536.05 1175.6,-529.43"/>
<text text-anchor="middle" x="1507.5" y="-670.85" font-family="Helvetica,sans-Serif" font-size="10.00"> sIze</text>
<text text-anchor="middle" x="1507.5" y="-659.85" font-family="Helvetica,sans-Serif" font-size="10.00">loopSize</text>
<text text-anchor="middle" x="1507.5" y="-648.85" font-family="Helvetica,sans-Serif" font-size="10.00">nInTheLoop</text>
<text text-anchor="middle" x="1507.5" y="-637.85" font-family="Helvetica,sans-Serif" font-size="10.00">rAnk</text>
</g>
<!-- Node36&#45;&gt;Node38 -->
<g id="edge56" class="edge">
<title>Node36&#45;&gt;Node38</title>
<path fill="none" stroke="#9a32cd" stroke-dasharray="5,2" d="M1167.85,-507.98C1189.25,-487 1228.89,-451.78 1270,-433.85 1326.19,-409.35 1353.42,-442.38 1406,-410.85 1456.16,-380.78 1490.43,-315.51 1502.1,-290.69"/>
<polygon fill="#9a32cd" stroke="#9a32cd" points="1165.17,-505.71 1160.58,-515.26 1170.13,-510.66 1165.17,-505.71"/>
<text text-anchor="middle" x="1338" y="-502.85" font-family="Helvetica,sans-Serif" font-size="10.00"> tagNameSize</text>
<text text-anchor="middle" x="1338" y="-491.85" font-family="Helvetica,sans-Serif" font-size="10.00">nbDofsRow</text>
<text text-anchor="middle" x="1338" y="-480.85" font-family="Helvetica,sans-Serif" font-size="10.00">nbLocDofsCol</text>
<text text-anchor="middle" x="1338" y="-469.85" font-family="Helvetica,sans-Serif" font-size="10.00">nbDofsCol</text>
<text text-anchor="middle" x="1338" y="-458.85" font-family="Helvetica,sans-Serif" font-size="10.00">nbGhostDofsRow</text>
<text text-anchor="middle" x="1338" y="-447.85" font-family="Helvetica,sans-Serif" font-size="10.00">nbGhostDofsCol</text>
<text text-anchor="middle" x="1338" y="-436.85" font-family="Helvetica,sans-Serif" font-size="10.00">nbLocDofsRow</text>
</g>
<!-- Node70 -->
<g id="node70" class="node">
<title>Node70</title>
<g id="a_node70"><a xlink:href="structBoneRemodeling_1_1DataFromMetaIO.html" target="_top" xlink:title="Load data from MetaImage file, translate grayscale values to densities.">
<polygon fill="white" stroke="black" points="2574,-542.85 2574,-572.85 2728,-572.85 2728,-542.85 2574,-542.85"/>
<text text-anchor="start" x="2582" y="-560.85" font-family="Helvetica,sans-Serif" font-size="10.00">BoneRemodeling::DataFrom</text>
<text text-anchor="middle" x="2651" y="-549.85" font-family="Helvetica,sans-Serif" font-size="10.00">MetaIO</text>
</a>
</g>
</g>
<!-- Node36&#45;&gt;Node70 -->
<g id="edge85" class="edge">
<title>Node36&#45;&gt;Node70</title>
<path fill="none" stroke="#9a32cd" stroke-dasharray="5,2" d="M1175.18,-524.85C1232.21,-524.85 1381.7,-524.85 1506.5,-524.85 1506.5,-524.85 1506.5,-524.85 2266,-524.85 2373.06,-524.85 2496.29,-537.74 2573.67,-547.41"/>
<polygon fill="#9a32cd" stroke="#9a32cd" points="1175.04,-521.35 1165.04,-524.85 1175.04,-528.35 1175.04,-521.35"/>
<text text-anchor="middle" x="1895" y="-527.85" font-family="Helvetica,sans-Serif" font-size="10.00"> fIlter</text>
</g>
<!-- Node37 -->
<g id="node37" class="node">
<title>Node37</title>
<g id="a_node37"><a xlink:title=" ">
<polygon fill="white" stroke="#bfbfbf" points="1424,-582.35 1424,-601.35 1591,-601.35 1591,-582.35 1424,-582.35"/>
<text text-anchor="middle" x="1507.5" y="-589.35" font-family="Helvetica,sans-Serif" font-size="10.00">function&lt; MoFEMErrorCode()&gt;</text>
</a>
</g>
</g>
<!-- Node37&#45;&gt;Node13 -->
<g id="edge45" class="edge">
<title>Node37&#45;&gt;Node13</title>
<path fill="none" stroke="#9a32cd" stroke-dasharray="5,2" d="M1583.91,-581.1C1657.1,-572.55 1761.21,-565.98 1790,-592.85 1830.39,-630.55 1772.09,-798.85 1808,-840.85 1814.77,-848.77 1824.02,-853.9 1833.94,-857.15"/>
<polygon fill="#9a32cd" stroke="#9a32cd" points="1583.31,-577.65 1573.8,-582.32 1584.15,-584.6 1583.31,-577.65"/>
<text text-anchor="middle" x="1699.5" y="-617.85" font-family="Helvetica,sans-Serif" font-size="10.00"> preProcessHook</text>
<text text-anchor="middle" x="1699.5" y="-606.85" font-family="Helvetica,sans-Serif" font-size="10.00">operatorHook</text>
<text text-anchor="middle" x="1699.5" y="-595.85" font-family="Helvetica,sans-Serif" font-size="10.00">postProcessHook</text>
</g>
<!-- Node38&#45;&gt;Node13 -->
<g id="edge46" class="edge">
<title>Node38&#45;&gt;Node13</title>
<path fill="none" stroke="#9a32cd" stroke-dasharray="5,2" d="M1533.31,-296.02C1590.78,-332.73 1732.52,-432.75 1790,-558.85 1816.05,-615.99 1767.4,-792.95 1808,-840.85 1814.74,-848.8 1823.97,-853.94 1833.88,-857.2"/>
<polygon fill="#9a32cd" stroke="#9a32cd" points="1534.85,-292.85 1524.52,-290.48 1531.12,-298.77 1534.85,-292.85"/>
<text text-anchor="middle" x="1699.5" y="-561.85" font-family="Helvetica,sans-Serif" font-size="10.00"> problemPtr</text>
</g>
<!-- Node39 -->
<g id="node39" class="node">
<title>Node39</title>
<g id="a_node39"><a xlink:title=" ">
<polygon fill="white" stroke="#bfbfbf" points="1067,-265.85 1067,-295.85 1234,-295.85 1234,-265.85 1067,-265.85"/>
<text text-anchor="start" x="1075" y="-283.85" font-family="Helvetica,sans-Serif" font-size="10.00">shared_ptr&lt; NumeredEntFinite</text>
<text text-anchor="middle" x="1150.5" y="-272.85" font-family="Helvetica,sans-Serif" font-size="10.00">Element_multiIndex &gt;</text>
</a>
</g>
</g>
<!-- Node39&#45;&gt;Node38 -->
<g id="edge47" class="edge">
<title>Node39&#45;&gt;Node38</title>
<path fill="none" stroke="#9a32cd" stroke-dasharray="5,2" d="M1244.63,-280.85C1312.98,-280.85 1403.08,-280.85 1457.8,-280.85"/>
<polygon fill="#9a32cd" stroke="#9a32cd" points="1244.28,-277.35 1234.28,-280.85 1244.28,-284.35 1244.28,-277.35"/>
<text text-anchor="middle" x="1338" y="-283.85" font-family="Helvetica,sans-Serif" font-size="10.00"> numeredFiniteElementsPtr</text>
</g>
<!-- Node40 -->
<g id="node40" class="node">
<title>Node40</title>
<g id="a_node40"><a xlink:title=" ">
<polygon fill="white" stroke="#bfbfbf" points="1121,-227.35 1121,-246.35 1180,-246.35 1180,-227.35 1121,-227.35"/>
<text text-anchor="middle" x="1150.5" y="-234.35" font-family="Helvetica,sans-Serif" font-size="10.00">BitFEId *</text>
</a>
</g>
</g>
<!-- Node40&#45;&gt;Node38 -->
<g id="edge48" class="edge">
<title>Node40&#45;&gt;Node38</title>
<path fill="none" stroke="#9a32cd" stroke-dasharray="5,2" d="M1190.2,-240.84C1240.13,-246.08 1329.64,-255.81 1406,-265.85 1422.97,-268.08 1441.5,-270.78 1457.99,-273.26"/>
<polygon fill="#9a32cd" stroke="#9a32cd" points="1190.47,-237.35 1180.16,-239.79 1189.75,-244.31 1190.47,-237.35"/>
<text text-anchor="middle" x="1338" y="-268.85" font-family="Helvetica,sans-Serif" font-size="10.00"> tagBitFEId</text>
</g>
<!-- Node41 -->
<g id="node41" class="node">
<title>Node41</title>
<g id="a_node41"><a xlink:href="classEntityHandle.html" target="_top" xlink:title=" ">
<polygon fill="white" stroke="black" points="1110.5,-189.35 1110.5,-208.35 1190.5,-208.35 1190.5,-189.35 1110.5,-189.35"/>
<text text-anchor="middle" x="1150.5" y="-196.35" font-family="Helvetica,sans-Serif" font-size="10.00">EntityHandle</text>
</a>
</g>
</g>
<!-- Node41&#45;&gt;Node38 -->
<g id="edge49" class="edge">
<title>Node41&#45;&gt;Node38</title>
<path fill="none" stroke="#9a32cd" stroke-dasharray="5,2" d="M1200.84,-201.97C1252.75,-206.18 1336.4,-215.64 1406,-235.85 1436.29,-244.65 1469.29,-260.8 1488.91,-271.17"/>
<polygon fill="#9a32cd" stroke="#9a32cd" points="1200.82,-198.46 1190.58,-201.17 1200.28,-205.44 1200.82,-198.46"/>
<text text-anchor="middle" x="1338" y="-238.85" font-family="Helvetica,sans-Serif" font-size="10.00"> meshset</text>
</g>
<!-- Node42 -->
<g id="node42" class="node">
<title>Node42</title>
<g id="a_node42"><a xlink:title=" ">
<polygon fill="white" stroke="#bfbfbf" points="1076,-139.85 1076,-169.85 1225,-169.85 1225,-139.85 1076,-139.85"/>
<text text-anchor="start" x="1084" y="-157.85" font-family="Helvetica,sans-Serif" font-size="10.00">shared_ptr&lt; MoFEM::</text>
<text text-anchor="middle" x="1150.5" y="-146.85" font-family="Helvetica,sans-Serif" font-size="10.00">ComposedProblemsData &gt;</text>
</a>
</g>
</g>
<!-- Node42&#45;&gt;Node38 -->
<g id="edge50" class="edge">
<title>Node42&#45;&gt;Node38</title>
<path fill="none" stroke="#9a32cd" stroke-dasharray="5,2" d="M1235.06,-157.03C1286.39,-161.06 1352.34,-171.19 1406,-195.85 1446.07,-214.27 1482.84,-253.23 1498.52,-271.29"/>
<polygon fill="#9a32cd" stroke="#9a32cd" points="1235.23,-153.53 1225,-156.3 1234.72,-160.51 1235.23,-153.53"/>
<text text-anchor="middle" x="1338" y="-198.85" font-family="Helvetica,sans-Serif" font-size="10.00"> composedProblemsData</text>
</g>
<!-- Node43 -->
<g id="node43" class="node">
<title>Node43</title>
<g id="a_node43"><a xlink:title=" ">
<polygon fill="white" stroke="#bfbfbf" points="1110,-101.35 1110,-120.35 1191,-120.35 1191,-101.35 1110,-101.35"/>
<text text-anchor="middle" x="1150.5" y="-108.35" font-family="Helvetica,sans-Serif" font-size="10.00">BitRefLevel *</text>
</a>
</g>
</g>
<!-- Node43&#45;&gt;Node38 -->
<g id="edge51" class="edge">
<title>Node43&#45;&gt;Node38</title>
<path fill="none" stroke="#9a32cd" stroke-dasharray="5,2" d="M1201.3,-103.73C1255.52,-98.52 1342.9,-97.8 1406,-134.85 1461.46,-167.42 1493.35,-244.12 1503.19,-271.19"/>
<polygon fill="#9a32cd" stroke="#9a32cd" points="1200.83,-100.26 1191.25,-104.78 1201.56,-107.22 1200.83,-100.26"/>
<text text-anchor="middle" x="1338" y="-148.85" font-family="Helvetica,sans-Serif" font-size="10.00"> tagBitRefLevelMask</text>
<text text-anchor="middle" x="1338" y="-137.85" font-family="Helvetica,sans-Serif" font-size="10.00">tagBitRefLevel</text>
</g>
<!-- Node44 -->
<g id="node44" class="node">
<title>Node44</title>
<g id="a_node44"><a xlink:title=" ">
<polygon fill="white" stroke="#bfbfbf" points="1065.5,-51.85 1065.5,-81.85 1235.5,-81.85 1235.5,-51.85 1065.5,-51.85"/>
<text text-anchor="start" x="1073.5" y="-69.85" font-family="Helvetica,sans-Serif" font-size="10.00">shared_ptr&lt; NumeredDofEntity</text>
<text text-anchor="middle" x="1150.5" y="-58.85" font-family="Helvetica,sans-Serif" font-size="10.00">_multiIndex &gt;</text>
</a>
</g>
</g>
<!-- Node44&#45;&gt;Node38 -->
<g id="edge52" class="edge">
<title>Node44&#45;&gt;Node38</title>
<path fill="none" stroke="#9a32cd" stroke-dasharray="5,2" d="M1226.44,-50.32C1280.62,-42.67 1353.26,-41.66 1406,-75.85 1478.17,-122.64 1500.2,-237.4 1505.24,-271.29"/>
<polygon fill="#9a32cd" stroke="#9a32cd" points="1225.91,-46.86 1216.55,-51.82 1226.96,-53.79 1225.91,-46.86"/>
<text text-anchor="middle" x="1338" y="-89.85" font-family="Helvetica,sans-Serif" font-size="10.00"> numeredRowDofsPtr</text>
<text text-anchor="middle" x="1338" y="-78.85" font-family="Helvetica,sans-Serif" font-size="10.00">numeredColDofsPtr</text>
</g>
<!-- Node45 -->
<g id="node45" class="node">
<title>Node45</title>
<g id="a_node45"><a xlink:title=" ">
<polygon fill="white" stroke="#bfbfbf" points="1081.5,-13.35 1081.5,-32.35 1219.5,-32.35 1219.5,-13.35 1081.5,-13.35"/>
<text text-anchor="middle" x="1150.5" y="-20.35" font-family="Helvetica,sans-Serif" font-size="10.00">vector&lt; BlockFieldPair &gt;</text>
</a>
</g>
</g>
<!-- Node45&#45;&gt;Node38 -->
<g id="edge54" class="edge">
<title>Node45&#45;&gt;Node38</title>
<path fill="none" stroke="#9a32cd" stroke-dasharray="5,2" d="M1195.68,-11.01C1250.33,0.86 1343.75,11.77 1406,-31.85 1490.18,-90.84 1503.91,-232.94 1506.09,-271.22"/>
<polygon fill="#9a32cd" stroke="#9a32cd" points="1194.59,-7.67 1185.62,-13.3 1196.15,-14.49 1194.59,-7.67"/>
<text text-anchor="middle" x="1338" y="-34.85" font-family="Helvetica,sans-Serif" font-size="10.00"> emptyFieldBlocks</text>
</g>
<!-- Node46 -->
<g id="node46" class="node">
<title>Node46</title>
<g id="a_node46"><a xlink:title=" ">
<polygon fill="white" stroke="#bfbfbf" points="1072.5,-391.85 1072.5,-421.85 1228.5,-421.85 1228.5,-391.85 1072.5,-391.85"/>
<text text-anchor="start" x="1080.5" y="-409.85" font-family="Helvetica,sans-Serif" font-size="10.00">shared_ptr&lt; MoFEM::</text>
<text text-anchor="middle" x="1150.5" y="-398.85" font-family="Helvetica,sans-Serif" font-size="10.00">Problem::SubProblemData &gt;</text>
</a>
</g>
</g>
<!-- Node46&#45;&gt;Node38 -->
<g id="edge55" class="edge">
<title>Node46&#45;&gt;Node38</title>
<path fill="none" stroke="#9a32cd" stroke-dasharray="5,2" d="M1239.08,-399.28C1306.61,-392.98 1390.95,-383.94 1406,-376.85 1449.01,-356.61 1485.34,-310.67 1499.8,-290.57"/>
<polygon fill="#9a32cd" stroke="#9a32cd" points="1238.46,-395.82 1228.83,-400.23 1239.11,-402.79 1238.46,-395.82"/>
<text text-anchor="middle" x="1338" y="-398.85" font-family="Helvetica,sans-Serif" font-size="10.00"> subProblemData</text>
</g>
<!-- Node47 -->
<g id="node47" class="node">
<title>Node47</title>
<g id="a_node47"><a xlink:title=" ">
<polygon fill="white" stroke="#bfbfbf" points="1049,-353.35 1049,-372.35 1252,-372.35 1252,-353.35 1049,-353.35"/>
<text text-anchor="middle" x="1150.5" y="-360.35" font-family="Helvetica,sans-Serif" font-size="10.00">shared_ptr&lt; SequenceDofContainer &gt;</text>
</a>
</g>
</g>
<!-- Node47&#45;&gt;Node38 -->
<g id="edge57" class="edge">
<title>Node47&#45;&gt;Node38</title>
<path fill="none" stroke="#9a32cd" stroke-dasharray="5,2" d="M1262.15,-354.22C1307.38,-348.9 1359.82,-340.38 1406,-326.85 1436.75,-317.85 1470.15,-301.01 1489.66,-290.4"/>
<polygon fill="#9a32cd" stroke="#9a32cd" points="1261.56,-350.77 1252.02,-355.38 1262.35,-357.72 1261.56,-350.77"/>
<text text-anchor="middle" x="1338" y="-366.85" font-family="Helvetica,sans-Serif" font-size="10.00"> sequenceRowDofContainer</text>
<text text-anchor="middle" x="1338" y="-355.85" font-family="Helvetica,sans-Serif" font-size="10.00">sequenceColDofContainer</text>
</g>
<!-- Node48 -->
<g id="node48" class="node">
<title>Node48</title>
<g id="a_node48"><a xlink:title=" ">
<polygon fill="white" stroke="#bfbfbf" points="1106.5,-315.35 1106.5,-334.35 1194.5,-334.35 1194.5,-315.35 1106.5,-315.35"/>
<text text-anchor="middle" x="1150.5" y="-322.35" font-family="Helvetica,sans-Serif" font-size="10.00">BitProblemId *</text>
</a>
</g>
</g>
<!-- Node48&#45;&gt;Node38 -->
<g id="edge58" class="edge">
<title>Node48&#45;&gt;Node38</title>
<path fill="none" stroke="#9a32cd" stroke-dasharray="5,2" d="M1205.02,-319.3C1256.57,-313.82 1336.7,-304.97 1406,-295.85 1422.97,-293.62 1441.5,-290.93 1457.99,-288.44"/>
<polygon fill="#9a32cd" stroke="#9a32cd" points="1204.36,-315.85 1194.79,-320.38 1205.1,-322.81 1204.36,-315.85"/>
<text text-anchor="middle" x="1338" y="-314.85" font-family="Helvetica,sans-Serif" font-size="10.00"> tagId</text>
</g>
<!-- Node49 -->
<g id="node49" class="node">
<title>Node49</title>
<g id="a_node49"><a xlink:title=" ">
<polygon fill="white" stroke="#bfbfbf" points="1814,-801.85 1814,-831.85 1976,-831.85 1976,-801.85 1814,-801.85"/>
<text text-anchor="start" x="1822" y="-819.85" font-family="Helvetica,sans-Serif" font-size="10.00">shared_ptr&lt; const MoFEM</text>
<text text-anchor="middle" x="1895" y="-808.85" font-family="Helvetica,sans-Serif" font-size="10.00">::NumeredEntFiniteElement &gt;</text>
</a>
</g>
</g>
<!-- Node49&#45;&gt;Node12 -->
<g id="edge59" class="edge">
<title>Node49&#45;&gt;Node12</title>
<path fill="none" stroke="#9a32cd" stroke-dasharray="5,2" d="M1986.32,-827.24C2033.34,-832.69 2091.78,-839.53 2144,-845.85 2166.09,-848.52 2190.47,-851.56 2211.44,-854.19"/>
<polygon fill="#9a32cd" stroke="#9a32cd" points="1986.49,-823.73 1976.16,-826.06 1985.69,-830.69 1986.49,-823.73"/>
<text text-anchor="middle" x="2072" y="-848.85" font-family="Helvetica,sans-Serif" font-size="10.00"> numeredEntFiniteElementPtr</text>
</g>
<!-- Node50 -->
<g id="node50" class="node">
<title>Node50</title>
<g id="a_node50"><a xlink:title=" ">
<polygon fill="white" stroke="#bfbfbf" points="1873,-889.35 1873,-908.35 1917,-908.35 1917,-889.35 1873,-889.35"/>
<text text-anchor="middle" x="1895" y="-896.35" font-family="Helvetica,sans-Serif" font-size="10.00">string</text>
</a>
</g>
</g>
<!-- Node50&#45;&gt;Node3 -->
<g id="edge82" class="edge">
<title>Node50&#45;&gt;Node3</title>
<path fill="none" stroke="#9a32cd" stroke-dasharray="5,2" d="M1927.29,-903.2C1986.31,-911.95 2111.14,-933.23 2144,-960.85 2158.61,-973.13 2146.61,-988.55 2162,-999.85 2189.26,-1019.88 2652.24,-1051.92 2845.9,-1064.52"/>
<polygon fill="#9a32cd" stroke="#9a32cd" points="1927.47,-899.69 1917.07,-901.71 1926.46,-906.62 1927.47,-899.69"/>
<text text-anchor="middle" x="2467" y="-1057.85" font-family="Helvetica,sans-Serif" font-size="10.00"> colFieldName</text>
<text text-anchor="middle" x="2467" y="-1046.85" font-family="Helvetica,sans-Serif" font-size="10.00">rowFieldName</text>
</g>
<!-- Node50&#45;&gt;Node12 -->
<g id="edge60" class="edge">
<title>Node50&#45;&gt;Node12</title>
<path fill="none" stroke="#9a32cd" stroke-dasharray="5,2" d="M1927.41,-896.01C1974.5,-891.71 2066.19,-883.15 2144,-874.85 2166.11,-872.49 2190.48,-869.69 2211.45,-867.21"/>
<polygon fill="#9a32cd" stroke="#9a32cd" points="1926.89,-892.54 1917.25,-896.94 1927.52,-899.52 1926.89,-892.54"/>
<text text-anchor="middle" x="2072" y="-892.85" font-family="Helvetica,sans-Serif" font-size="10.00"> feName</text>
</g>
<!-- Node51 -->
<g id="node51" class="node">
<title>Node51</title>
<g id="a_node51"><a xlink:title=" ">
<polygon fill="white" stroke="#bfbfbf" points="1813.5,-752.85 1813.5,-782.85 1976.5,-782.85 1976.5,-752.85 1813.5,-752.85"/>
<text text-anchor="start" x="1821.5" y="-770.85" font-family="Helvetica,sans-Serif" font-size="10.00">function&lt; bool(MoFEM</text>
<text text-anchor="middle" x="1895" y="-759.85" font-family="Helvetica,sans-Serif" font-size="10.00">::FEMethod *fe_method_ptr)&gt;</text>
</a>
</g>
</g>
<!-- Node51&#45;&gt;Node12 -->
<g id="edge61" class="edge">
<title>Node51&#45;&gt;Node12</title>
<path fill="none" stroke="#9a32cd" stroke-dasharray="5,2" d="M1986.94,-768.28C2036.88,-772.44 2097.86,-784.29 2144,-814.85 2156.02,-822.82 2149.96,-833.91 2162,-841.85 2176.51,-851.43 2194.57,-856.48 2211.45,-859.07"/>
<polygon fill="#9a32cd" stroke="#9a32cd" points="1987.01,-764.78 1976.78,-767.53 1986.5,-771.76 1987.01,-764.78"/>
<text text-anchor="middle" x="2072" y="-817.85" font-family="Helvetica,sans-Serif" font-size="10.00"> exeTestHook</text>
</g>
<!-- Node52 -->
<g id="node52" class="node">
<title>Node52</title>
<g id="a_node52"><a xlink:href="classdouble.html" target="_top" xlink:title=" ">
<polygon fill="white" stroke="black" points="2240,-628.35 2240,-647.35 2290,-647.35 2290,-628.35 2240,-628.35"/>
<text text-anchor="middle" x="2265" y="-635.35" font-family="Helvetica,sans-Serif" font-size="10.00">double</text>
</a>
</g>
</g>
<!-- Node52&#45;&gt;Node11 -->
<g id="edge62" class="edge">
<title>Node52&#45;&gt;Node11</title>
<path fill="none" stroke="#9a32cd" stroke-dasharray="5,2" d="M2297.87,-651.22C2321.75,-660.75 2355.44,-673.19 2386,-680.85 2456.6,-698.55 2489.51,-661.53 2548,-704.85 2620.05,-758.21 2643.24,-875.59 2648.64,-910.12"/>
<polygon fill="#9a32cd" stroke="#9a32cd" points="2299.17,-647.97 2288.59,-647.46 2296.55,-654.46 2299.17,-647.97"/>
<text text-anchor="middle" x="2467" y="-707.85" font-family="Helvetica,sans-Serif" font-size="10.00"> elementMeasure</text>
</g>
<!-- Node52&#45;&gt;Node70 -->
<g id="edge84" class="edge">
<title>Node52&#45;&gt;Node70</title>
<path fill="none" stroke="#9a32cd" stroke-dasharray="5,2" d="M2296.46,-624.23C2320.35,-614.09 2354.7,-600.69 2386,-592.85 2403.91,-588.37 2502.27,-575.85 2573.7,-567.07"/>
<polygon fill="#9a32cd" stroke="#9a32cd" points="2295.01,-621.04 2287.21,-628.22 2297.78,-627.47 2295.01,-621.04"/>
<text text-anchor="middle" x="2467" y="-672.85" font-family="Helvetica,sans-Serif" font-size="10.00"> paramDensity</text>
<text text-anchor="middle" x="2467" y="-661.85" font-family="Helvetica,sans-Serif" font-size="10.00">tHreshold</text>
<text text-anchor="middle" x="2467" y="-650.85" font-family="Helvetica,sans-Serif" font-size="10.00">sCale</text>
<text text-anchor="middle" x="2467" y="-639.85" font-family="Helvetica,sans-Serif" font-size="10.00">dIst_tol</text>
<text text-anchor="middle" x="2467" y="-628.85" font-family="Helvetica,sans-Serif" font-size="10.00">cUbe_size</text>
<text text-anchor="middle" x="2467" y="-617.85" font-family="Helvetica,sans-Serif" font-size="10.00">lAmbda</text>
<text text-anchor="middle" x="2467" y="-606.85" font-family="Helvetica,sans-Serif" font-size="10.00">sIgma</text>
<text text-anchor="middle" x="2467" y="-595.85" font-family="Helvetica,sans-Serif" font-size="10.00">paramElastic</text>
</g>
<!-- Node53 -->
<g id="node53" class="node">
<title>Node53</title>
<g id="a_node53"><a xlink:title=" ">
<polygon fill="white" stroke="#bfbfbf" points="2179,-1124.35 2179,-1165.35 2351,-1165.35 2351,-1124.35 2179,-1124.35"/>
<text text-anchor="start" x="2187" y="-1153.35" font-family="Helvetica,sans-Serif" font-size="10.00">array&lt; boost::shared</text>
<text text-anchor="start" x="2187" y="-1142.35" font-family="Helvetica,sans-Serif" font-size="10.00">_ptr&lt; MoFEM::EntitiesFieldData</text>
<text text-anchor="middle" x="2265" y="-1131.35" font-family="Helvetica,sans-Serif" font-size="10.00"> &gt;, LASTSPACE &gt;</text>
</a>
</g>
</g>
<!-- Node53&#45;&gt;Node11 -->
<g id="edge63" class="edge">
<title>Node53&#45;&gt;Node11</title>
<path fill="none" stroke="#9a32cd" stroke-dasharray="5,2" d="M2361.37,-1162.17C2422.62,-1167.45 2499.5,-1162.27 2548,-1115.85 2587.6,-1077.96 2539.84,-1042.02 2566,-993.85 2581.77,-964.82 2613.64,-941.71 2633.27,-929.46"/>
<polygon fill="#9a32cd" stroke="#9a32cd" points="2361.59,-1158.67 2351.3,-1161.19 2360.91,-1165.64 2361.59,-1158.67"/>
<text text-anchor="middle" x="2467" y="-1177.85" font-family="Helvetica,sans-Serif" font-size="10.00"> derivedDataOnElement</text>
<text text-anchor="middle" x="2467" y="-1166.85" font-family="Helvetica,sans-Serif" font-size="10.00">dataOnElement</text>
</g>
<!-- Node54 -->
<g id="node54" class="node">
<title>Node54</title>
<g id="a_node54"><a xlink:title=" ">
<polygon fill="white" stroke="#bfbfbf" points="2231,-1086.35 2231,-1105.35 2299,-1105.35 2299,-1086.35 2231,-1086.35"/>
<text text-anchor="middle" x="2265" y="-1093.35" font-family="Helvetica,sans-Serif" font-size="10.00">EntityType</text>
</a>
</g>
</g>
<!-- Node54&#45;&gt;Node11 -->
<g id="edge64" class="edge">
<title>Node54&#45;&gt;Node11</title>
<path fill="none" stroke="#9a32cd" stroke-dasharray="5,2" d="M2309.49,-1098.5C2379.64,-1101.81 2513.4,-1103.82 2548,-1073.85 2575.55,-1049.99 2547.42,-1025.2 2566,-993.85 2582.94,-965.26 2614.73,-941.85 2633.97,-929.45"/>
<polygon fill="#9a32cd" stroke="#9a32cd" points="2309.38,-1094.99 2299.22,-1097.98 2309.03,-1101.98 2309.38,-1094.99"/>
<text text-anchor="middle" x="2467" y="-1103.85" font-family="Helvetica,sans-Serif" font-size="10.00"> lastEvaluatedElementEntityType</text>
</g>
<!-- Node55 -->
<g id="node55" class="node">
<title>Node55</title>
<g id="a_node55"><a xlink:href="structMoFEM_1_1DeprecatedCoreInterface.html" target="_top" xlink:title="Deprecated interface functions.">
<polygon fill="white" stroke="black" points="1609,-1294.35 1609,-1313.35 1790,-1313.35 1790,-1294.35 1609,-1294.35"/>
<text text-anchor="middle" x="1699.5" y="-1301.35" font-family="Helvetica,sans-Serif" font-size="10.00">MoFEM::DeprecatedCoreInterface</text>
</a>
</g>
</g>
<!-- Node55&#45;&gt;Node11 -->
<g id="edge65" class="edge">
<title>Node55&#45;&gt;Node11</title>
<path fill="none" stroke="#9a32cd" stroke-dasharray="5,2" d="M1732.66,-1290.44C1786.73,-1268.62 1899.8,-1226.14 2000,-1208.85 2060.04,-1198.49 2503.71,-1231.69 2548,-1189.85 2579.8,-1159.82 2546.19,-1032.85 2566,-993.85 2580.88,-964.57 2612.72,-941.7 2632.64,-929.54"/>
<polygon fill="#9a32cd" stroke="#9a32cd" points="1731.21,-1287.25 1723.26,-1294.26 1733.85,-1293.73 1731.21,-1287.25"/>
<text text-anchor="middle" x="2072" y="-1211.85" font-family="Helvetica,sans-Serif" font-size="10.00"> mField</text>
</g>
<!-- Node56&#45;&gt;Node55 -->
<g id="edge66" class="edge">
<title>Node56&#45;&gt;Node55</title>
<path fill="none" stroke="midnightblue" d="M1223.39,-1300.38C1322.43,-1301.1 1500.78,-1302.41 1608.54,-1303.19"/>
<polygon fill="midnightblue" stroke="midnightblue" points="1223.21,-1296.88 1213.18,-1300.3 1223.16,-1303.88 1223.21,-1296.88"/>
</g>
<!-- Node57 -->
<g id="node57" class="node">
<title>Node57</title>
<g id="a_node57"><a xlink:title=" ">
<polygon fill="white" stroke="#bfbfbf" points="2181.5,-938.85 2181.5,-990.85 2348.5,-990.85 2348.5,-938.85 2181.5,-938.85"/>
<text text-anchor="start" x="2189.5" y="-978.85" font-family="Helvetica,sans-Serif" font-size="10.00">function&lt; MoFEMErrorCode</text>
<text text-anchor="start" x="2189.5" y="-967.85" font-family="Helvetica,sans-Serif" font-size="10.00">(ForcesAndSourcesCore *fe</text>
<text text-anchor="start" x="2189.5" y="-956.85" font-family="Helvetica,sans-Serif" font-size="10.00">_raw_ptr, int order_row,</text>
<text text-anchor="middle" x="2265" y="-945.85" font-family="Helvetica,sans-Serif" font-size="10.00"> int order_col, int order_data)&gt;</text>
</a>
</g>
</g>
<!-- Node57&#45;&gt;Node11 -->
<g id="edge69" class="edge">
<title>Node57&#45;&gt;Node11</title>
<path fill="none" stroke="#9a32cd" stroke-dasharray="5,2" d="M2358.67,-944.3C2367.88,-942.63 2377.1,-941.11 2386,-939.85 2445.85,-931.39 2513.87,-926.34 2565.88,-923.44"/>
<polygon fill="#9a32cd" stroke="#9a32cd" points="2357.89,-940.88 2348.7,-946.16 2359.18,-947.77 2357.89,-940.88"/>
<text text-anchor="middle" x="2467" y="-942.85" font-family="Helvetica,sans-Serif" font-size="10.00"> setRuleHook</text>
</g>
<!-- Node58 -->
<g id="node58" class="node">
<title>Node58</title>
<g id="a_node58"><a xlink:title=" ">
<polygon fill="white" stroke="#bfbfbf" points="2164,-889.85 2164,-919.85 2366,-919.85 2366,-889.85 2164,-889.85"/>
<text text-anchor="start" x="2172" y="-907.85" font-family="Helvetica,sans-Serif" font-size="10.00">ptr_deque&lt; MoFEM::Forces</text>
<text text-anchor="middle" x="2265" y="-896.85" font-family="Helvetica,sans-Serif" font-size="10.00">AndSourcesCore::UserDataOperator &gt;</text>
</a>
</g>
</g>
<!-- Node58&#45;&gt;Node11 -->
<g id="edge70" class="edge">
<title>Node58&#45;&gt;Node11</title>
<path fill="none" stroke="#9a32cd" stroke-dasharray="5,2" d="M2376.55,-901.85C2428.63,-901.31 2491.57,-901.9 2548,-905.85 2561.82,-906.82 2576.62,-908.49 2590.54,-910.34"/>
<polygon fill="#9a32cd" stroke="#9a32cd" points="2376.24,-898.36 2366.29,-901.98 2376.33,-905.36 2376.24,-898.36"/>
<text text-anchor="middle" x="2467" y="-908.85" font-family="Helvetica,sans-Serif" font-size="10.00"> opPtrVector</text>
</g>
<!-- Node59 -->
<g id="node59" class="node">
<title>Node59</title>
<g id="a_node59"><a xlink:href="structMoFEM_1_1EntitiesFieldData.html" target="_top" xlink:title="data structure for finite element entity">
<polygon fill="white" stroke="black" points="2194,-1048.35 2194,-1067.35 2336,-1067.35 2336,-1048.35 2194,-1048.35"/>
<text text-anchor="middle" x="2265" y="-1055.35" font-family="Helvetica,sans-Serif" font-size="10.00">MoFEM::EntitiesFieldData</text>
</a>
</g>
</g>
<!-- Node59&#45;&gt;Node11 -->
<g id="edge71" class="edge">
<title>Node59&#45;&gt;Node11</title>
<path fill="none" stroke="#9a32cd" stroke-dasharray="5,2" d="M2298.68,-1043.93C2319.99,-1033.79 2347.54,-1018.58 2368,-999.85 2378.37,-990.36 2374.04,-981.24 2386,-973.85 2447.88,-935.65 2477,-966.58 2548,-950.85 2573.66,-945.17 2602.24,-936.25 2622.6,-929.44"/>
<polygon fill="#9a32cd" stroke="#9a32cd" points="2296.99,-1040.86 2289.38,-1048.23 2299.93,-1047.21 2296.99,-1040.86"/>
<text text-anchor="middle" x="2467" y="-1020.85" font-family="Helvetica,sans-Serif" font-size="10.00"> dataNoField</text>
<text text-anchor="middle" x="2467" y="-1009.85" font-family="Helvetica,sans-Serif" font-size="10.00">dataL2</text>
<text text-anchor="middle" x="2467" y="-998.85" font-family="Helvetica,sans-Serif" font-size="10.00">dataH1</text>
<text text-anchor="middle" x="2467" y="-987.85" font-family="Helvetica,sans-Serif" font-size="10.00">dataHcurl</text>
<text text-anchor="middle" x="2467" y="-976.85" font-family="Helvetica,sans-Serif" font-size="10.00">dataHdiv</text>
</g>
<!-- Node60 -->
<g id="node60" class="node">
<title>Node60</title>
<g id="a_node60"><a xlink:title=" ">
<polygon fill="white" stroke="#bfbfbf" points="1814,-1086.85 1814,-1116.85 1976,-1116.85 1976,-1086.85 1814,-1086.85"/>
<text text-anchor="start" x="1822" y="-1104.85" font-family="Helvetica,sans-Serif" font-size="10.00">array&lt; std::bitset</text>
<text text-anchor="middle" x="1895" y="-1093.85" font-family="Helvetica,sans-Serif" font-size="10.00">&lt; LASTBASE &gt;, LASTSPACE &gt;</text>
</a>
</g>
</g>
<!-- Node60&#45;&gt;Node59 -->
<g id="edge72" class="edge">
<title>Node60&#45;&gt;Node59</title>
<path fill="none" stroke="#9a32cd" stroke-dasharray="5,2" d="M1986.38,-1086.74C1990.99,-1086.08 1995.54,-1085.44 2000,-1084.85 2065.54,-1076.15 2140.55,-1068.72 2193.83,-1063.87"/>
<polygon fill="#9a32cd" stroke="#9a32cd" points="1985.65,-1083.31 1976.27,-1088.24 1986.67,-1090.24 1985.65,-1083.31"/>
<text text-anchor="middle" x="2072" y="-1098.85" font-family="Helvetica,sans-Serif" font-size="10.00"> brokenBasesOnSpaces</text>
<text text-anchor="middle" x="2072" y="-1087.85" font-family="Helvetica,sans-Serif" font-size="10.00">basesOnSpaces</text>
</g>
<!-- Node61 -->
<g id="node61" class="node">
<title>Node61</title>
<g id="a_node61"><a xlink:title=" ">
<polygon fill="white" stroke="#bfbfbf" points="1818.5,-1026.35 1818.5,-1067.35 1971.5,-1067.35 1971.5,-1026.35 1818.5,-1026.35"/>
<text text-anchor="start" x="1826.5" y="-1055.35" font-family="Helvetica,sans-Serif" font-size="10.00">array&lt; boost::ptr_vector</text>
<text text-anchor="start" x="1826.5" y="-1044.35" font-family="Helvetica,sans-Serif" font-size="10.00">&lt; MoFEM::EntitiesFieldData</text>
<text text-anchor="middle" x="1895" y="-1033.35" font-family="Helvetica,sans-Serif" font-size="10.00">::EntData &gt;, MBMAXTYPE &gt;</text>
</a>
</g>
</g>
<!-- Node61&#45;&gt;Node59 -->
<g id="edge73" class="edge">
<title>Node61&#45;&gt;Node59</title>
<path fill="none" stroke="#9a32cd" stroke-dasharray="5,2" d="M1982.02,-1047.35C2029.75,-1047.85 2090.18,-1048.85 2144,-1050.85 2160.16,-1051.45 2177.54,-1052.33 2193.91,-1053.26"/>
<polygon fill="#9a32cd" stroke="#9a32cd" points="1981.76,-1043.85 1971.73,-1047.25 1981.69,-1050.85 1981.76,-1043.85"/>
<text text-anchor="middle" x="2072" y="-1053.85" font-family="Helvetica,sans-Serif" font-size="10.00"> dataOnEntities</text>
</g>
<!-- Node62 -->
<g id="node62" class="node">
<title>Node62</title>
<g id="a_node62"><a xlink:title=" ">
<polygon fill="white" stroke="#bfbfbf" points="1808,-976.85 1808,-1006.85 1982,-1006.85 1982,-976.85 1808,-976.85"/>
<text text-anchor="start" x="1816" y="-994.85" font-family="Helvetica,sans-Serif" font-size="10.00">array&lt; std::bitset</text>
<text text-anchor="middle" x="1895" y="-983.85" font-family="Helvetica,sans-Serif" font-size="10.00">&lt; LASTSPACE &gt;, MBMAXTYPE &gt;</text>
</a>
</g>
</g>
<!-- Node62&#45;&gt;Node59 -->
<g id="edge74" class="edge">
<title>Node62&#45;&gt;Node59</title>
<path fill="none" stroke="#9a32cd" stroke-dasharray="5,2" d="M1992.2,-1006.8C2038.22,-1014.2 2094.04,-1023.52 2144,-1032.85 2169.42,-1037.6 2197.74,-1043.47 2220.48,-1048.33"/>
<polygon fill="#9a32cd" stroke="#9a32cd" points="1992.66,-1003.33 1982.23,-1005.21 1991.55,-1010.24 1992.66,-1003.33"/>
<text text-anchor="middle" x="2072" y="-1035.85" font-family="Helvetica,sans-Serif" font-size="10.00"> spacesOnEntities</text>
</g>
<!-- Node63 -->
<g id="node63" class="node">
<title>Node63</title>
<g id="a_node63"><a xlink:title=" ">
<polygon fill="white" stroke="#bfbfbf" points="1810.5,-927.85 1810.5,-957.85 1979.5,-957.85 1979.5,-927.85 1810.5,-927.85"/>
<text text-anchor="start" x="1818.5" y="-945.85" font-family="Helvetica,sans-Serif" font-size="10.00">array&lt; std::bitset</text>
<text text-anchor="middle" x="1895" y="-934.85" font-family="Helvetica,sans-Serif" font-size="10.00">&lt; LASTBASE &gt;, MBMAXTYPE &gt;</text>
</a>
</g>
</g>
<!-- Node63&#45;&gt;Node59 -->
<g id="edge75" class="edge">
<title>Node63&#45;&gt;Node59</title>
<path fill="none" stroke="#9a32cd" stroke-dasharray="5,2" d="M1989.64,-957.89C2054.62,-969.04 2131.64,-983.95 2144,-993.85 2159.22,-1006.04 2146.96,-1021.45 2162,-1033.85 2171.19,-1041.43 2182.36,-1046.7 2193.89,-1050.35"/>
<polygon fill="#9a32cd" stroke="#9a32cd" points="1990.19,-954.43 1979.74,-956.2 1989.01,-961.33 1990.19,-954.43"/>
<text text-anchor="middle" x="2072" y="-996.85" font-family="Helvetica,sans-Serif" font-size="10.00"> basesOnEntities</text>
</g>
<!-- Node64 -->
<g id="node64" class="node">
<title>Node64</title>
<g id="a_node64"><a xlink:title=" ">
<polygon fill="white" stroke="#bfbfbf" points="1839,-1174.35 1839,-1193.35 1951,-1193.35 1951,-1174.35 1839,-1174.35"/>
<text text-anchor="middle" x="1895" y="-1181.35" font-family="Helvetica,sans-Serif" font-size="10.00">UBlasMatrix&lt; int &gt;</text>
</a>
</g>
</g>
<!-- Node64&#45;&gt;Node59 -->
<g id="edge76" class="edge">
<title>Node64&#45;&gt;Node59</title>
<path fill="none" stroke="#9a32cd" stroke-dasharray="5,2" d="M1953.99,-1172.36C1968.96,-1169.49 1985.07,-1166.48 2000,-1163.85 2031.92,-1158.24 2119.8,-1162.4 2144,-1140.85 2166.07,-1121.2 2140.19,-1096.78 2162,-1076.85 2170.91,-1068.71 2182.14,-1063.53 2193.87,-1060.32"/>
<polygon fill="#9a32cd" stroke="#9a32cd" points="1952.99,-1168.99 1943.83,-1174.32 1954.32,-1175.86 1952.99,-1168.99"/>
<text text-anchor="middle" x="2072" y="-1177.85" font-family="Helvetica,sans-Serif" font-size="10.00"> facesNodesOrder</text>
<text text-anchor="middle" x="2072" y="-1166.85" font-family="Helvetica,sans-Serif" font-size="10.00">facesNodes</text>
</g>
<!-- Node65 -->
<g id="node65" class="node">
<title>Node65</title>
<g id="a_node65"><a xlink:title=" ">
<polygon fill="white" stroke="#bfbfbf" points="1836.5,-1136.35 1836.5,-1155.35 1953.5,-1155.35 1953.5,-1136.35 1836.5,-1136.35"/>
<text text-anchor="middle" x="1895" y="-1143.35" font-family="Helvetica,sans-Serif" font-size="10.00">bitset&lt; LASTBASE &gt;</text>
</a>
</g>
</g>
<!-- Node65&#45;&gt;Node59 -->
<g id="edge77" class="edge">
<title>Node65&#45;&gt;Node59</title>
<path fill="none" stroke="#9a32cd" stroke-dasharray="5,2" d="M1963.62,-1135.39C2036.73,-1124.06 2143.05,-1107.49 2144,-1106.85 2156.89,-1098.16 2149.23,-1085.72 2162,-1076.85 2171.47,-1070.27 2182.58,-1065.8 2193.91,-1062.78"/>
<polygon fill="#9a32cd" stroke="#9a32cd" points="1962.89,-1131.96 1953.54,-1136.95 1963.96,-1138.88 1962.89,-1131.96"/>
<text text-anchor="middle" x="2072" y="-1132.85" font-family="Helvetica,sans-Serif" font-size="10.00"> bAse</text>
</g>
<!-- Node66 -->
<g id="node66" class="node">
<title>Node66</title>
<g id="a_node66"><a xlink:title=" ">
<polygon fill="white" stroke="#bfbfbf" points="2202.5,-791.35 2202.5,-832.35 2327.5,-832.35 2327.5,-791.35 2202.5,-791.35"/>
<text text-anchor="start" x="2210.5" y="-820.35" font-family="Helvetica,sans-Serif" font-size="10.00">function&lt; int(int order</text>
<text text-anchor="start" x="2210.5" y="-809.35" font-family="Helvetica,sans-Serif" font-size="10.00">_row, int order_col, int</text>
<text text-anchor="middle" x="2265" y="-798.35" font-family="Helvetica,sans-Serif" font-size="10.00"> order_data)&gt;</text>
</a>
</g>
</g>
<!-- Node66&#45;&gt;Node11 -->
<g id="edge78" class="edge">
<title>Node66&#45;&gt;Node11</title>
<path fill="none" stroke="#9a32cd" stroke-dasharray="5,2" d="M2337.79,-816.85C2395.91,-822.59 2479.13,-834.7 2548,-859.85 2582.54,-872.47 2618.65,-896.78 2637.24,-910.26"/>
<polygon fill="#9a32cd" stroke="#9a32cd" points="2337.89,-813.35 2327.6,-815.88 2337.23,-820.31 2337.89,-813.35"/>
<text text-anchor="middle" x="2467" y="-862.85" font-family="Helvetica,sans-Serif" font-size="10.00"> getRuleHook</text>
</g>
<!-- Node67 -->
<g id="node67" class="node">
<title>Node67</title>
<g id="a_node67"><a xlink:title=" ">
<polygon fill="white" stroke="#bfbfbf" points="2204,-741.85 2204,-771.85 2326,-771.85 2326,-741.85 2204,-741.85"/>
<text text-anchor="start" x="2212" y="-759.85" font-family="Helvetica,sans-Serif" font-size="10.00">shared_ptr&lt; MoFEM::</text>
<text text-anchor="middle" x="2265" y="-748.85" font-family="Helvetica,sans-Serif" font-size="10.00">BaseFunction &gt;</text>
</a>
</g>
</g>
<!-- Node67&#45;&gt;Node11 -->
<g id="edge79" class="edge">
<title>Node67&#45;&gt;Node11</title>
<path fill="none" stroke="#9a32cd" stroke-dasharray="5,2" d="M2336.38,-761.35C2407.81,-766.91 2512.75,-778.16 2548,-797.85 2597.17,-825.32 2632.75,-886.48 2645.17,-910.19"/>
<polygon fill="#9a32cd" stroke="#9a32cd" points="2336.33,-757.83 2326.1,-760.56 2335.8,-764.81 2336.33,-757.83"/>
<text text-anchor="middle" x="2467" y="-811.85" font-family="Helvetica,sans-Serif" font-size="10.00"> userPolynomialBasePtr</text>
<text text-anchor="middle" x="2467" y="-800.85" font-family="Helvetica,sans-Serif" font-size="10.00">elementPolynomialBasePtr</text>
</g>
<!-- Node68 -->
<g id="node68" class="node">
<title>Node68</title>
<g id="a_node68"><a xlink:href="classUBlasMatrix_3_01double_01_4.html" target="_top" xlink:title=" ">
<polygon fill="white" stroke="black" points="2199,-703.35 2199,-722.35 2331,-722.35 2331,-703.35 2199,-703.35"/>
<text text-anchor="middle" x="2265" y="-710.35" font-family="Helvetica,sans-Serif" font-size="10.00">UBlasMatrix&lt; double &gt;</text>
</a>
</g>
</g>
<!-- Node68&#45;&gt;Node11 -->
<g id="edge80" class="edge">
<title>Node68&#45;&gt;Node11</title>
<path fill="none" stroke="#9a32cd" stroke-dasharray="5,2" d="M2341.33,-716.49C2418.96,-720.8 2530.99,-728.82 2548,-739.85 2612.49,-781.68 2640.44,-879.36 2647.87,-910.28"/>
<polygon fill="#9a32cd" stroke="#9a32cd" points="2341.27,-712.98 2331.09,-715.93 2340.89,-719.97 2341.27,-712.98"/>
<text text-anchor="middle" x="2467" y="-753.85" font-family="Helvetica,sans-Serif" font-size="10.00"> coordsAtGaussPts</text>
<text text-anchor="middle" x="2467" y="-742.85" font-family="Helvetica,sans-Serif" font-size="10.00">gaussPts</text>
</g>
<!-- Node69 -->
<g id="node69" class="node">
<title>Node69</title>
<g id="a_node69"><a xlink:title=" ">
<polygon fill="white" stroke="#bfbfbf" points="2585.5,-1003.35 2585.5,-1022.35 2716.5,-1022.35 2716.5,-1003.35 2585.5,-1003.35"/>
<text text-anchor="middle" x="2651" y="-1010.35" font-family="Helvetica,sans-Serif" font-size="10.00">static const char *const</text>
</a>
</g>
</g>
<!-- Node69&#45;&gt;Node3 -->
<g id="edge81" class="edge">
<title>Node69&#45;&gt;Node3</title>
<path fill="none" stroke="#9a32cd" stroke-dasharray="5,2" d="M2726.82,-1012.89C2758.42,-1014.32 2795.38,-1017.85 2828,-1025.85 2854.04,-1032.24 2881.87,-1044.66 2901.87,-1054.68"/>
<polygon fill="#9a32cd" stroke="#9a32cd" points="2726.89,-1009.39 2716.76,-1012.5 2726.61,-1016.39 2726.89,-1009.39"/>
<text text-anchor="middle" x="2791" y="-1028.85" font-family="Helvetica,sans-Serif" font-size="10.00"> OpTypeNames</text>
</g>
<!-- Node70&#45;&gt;Node1 -->
<g id="edge83" class="edge">
<title>Node70&#45;&gt;Node1</title>
<path fill="none" stroke="#9a32cd" stroke-dasharray="5,2" d="M2684.32,-578.48C2820.26,-665.27 3343.1,-999.05 3438.88,-1060.2"/>
<polygon fill="#9a32cd" stroke="#9a32cd" points="2685.88,-575.33 2675.57,-572.9 2682.11,-581.23 2685.88,-575.33"/>
<text text-anchor="middle" x="3076" y="-858.85" font-family="Helvetica,sans-Serif" font-size="10.00"> dataFromMetaIo</text>
</g>
<!-- Node71 -->
<g id="node71" class="node">
<title>Node71</title>
<g id="a_node71"><a xlink:title=" ">
<polygon fill="white" stroke="#bfbfbf" points="2223.5,-477.35 2223.5,-496.35 2306.5,-496.35 2306.5,-477.35 2223.5,-477.35"/>
<text text-anchor="middle" x="2265" y="-484.35" font-family="Helvetica,sans-Serif" font-size="10.00">MetaImage &amp;</text>
</a>
</g>
</g>
<!-- Node71&#45;&gt;Node70 -->
<g id="edge86" class="edge">
<title>Node71&#45;&gt;Node70</title>
<path fill="none" stroke="#9a32cd" stroke-dasharray="5,2" d="M2316.91,-482.17C2374.29,-478.49 2469.77,-477.23 2548,-499.85 2578.92,-508.79 2610.53,-528.79 2630.19,-542.79"/>
<polygon fill="#9a32cd" stroke="#9a32cd" points="2316.39,-478.7 2306.65,-482.88 2316.87,-485.68 2316.39,-478.7"/>
<text text-anchor="middle" x="2467" y="-502.85" font-family="Helvetica,sans-Serif" font-size="10.00"> metaFile</text>
</g>
<!-- Node72 -->
<g id="node72" class="node">
<title>Node72</title>
<g id="a_node72"><a xlink:title=" ">
<polygon fill="white" stroke="#bfbfbf" points="2213.5,-553.35 2213.5,-572.35 2316.5,-572.35 2316.5,-553.35 2213.5,-553.35"/>
<text text-anchor="middle" x="2265" y="-560.35" font-family="Helvetica,sans-Serif" font-size="10.00">vector&lt; double &gt;</text>
</a>
</g>
</g>
<!-- Node72&#45;&gt;Node70 -->
<g id="edge87" class="edge">
<title>Node72&#45;&gt;Node70</title>
<path fill="none" stroke="#9a32cd" stroke-dasharray="5,2" d="M2326.8,-560.48C2345.76,-559.83 2366.74,-559.21 2386,-558.85 2449.24,-557.68 2521.01,-557.48 2573.75,-557.54"/>
<polygon fill="#9a32cd" stroke="#9a32cd" points="2326.66,-556.98 2316.79,-560.83 2326.91,-563.97 2326.66,-556.98"/>
<text text-anchor="middle" x="2467" y="-561.85" font-family="Helvetica,sans-Serif" font-size="10.00"> kErnel</text>
</g>
<!-- Node73&#45;&gt;Node1 -->
<g id="edge88" class="edge">
<title>Node73&#45;&gt;Node1</title>
<path fill="none" stroke="#9a32cd" stroke-dasharray="5,2" d="M1247.49,-1561.77C1318.88,-1557.1 1418.73,-1551.85 1506.5,-1551.85 1506.5,-1551.85 1506.5,-1551.85 3232.5,-1551.85 3448.46,-1551.85 3454.63,-1147.41 3454.15,-1079.48"/>
<polygon fill="#9a32cd" stroke="#9a32cd" points="1246.91,-1558.3 1237.17,-1562.45 1247.37,-1565.28 1246.91,-1558.3"/>
<text text-anchor="middle" x="2467" y="-1554.85" font-family="Helvetica,sans-Serif" font-size="10.00"> commonData</text>
</g>
<!-- Node74 -->
<g id="node74" class="node">
<title>Node74</title>
<g id="a_node74"><a xlink:title=" ">
<polygon fill="white" stroke="#bfbfbf" points="735,-1638.35 735,-1657.35 892,-1657.35 892,-1638.35 735,-1638.35"/>
<text text-anchor="middle" x="813.5" y="-1645.35" font-family="Helvetica,sans-Serif" font-size="10.00">shared_ptr&lt; MatrixDouble &gt;</text>
</a>
</g>
</g>
<!-- Node74&#45;&gt;Node73 -->
<g id="edge89" class="edge">
<title>Node74&#45;&gt;Node73</title>
<path fill="none" stroke="#9a32cd" stroke-dasharray="5,2" d="M902.13,-1642.09C941.96,-1638.06 989.39,-1631.26 1031,-1619.85 1068.15,-1609.67 1108.87,-1590.15 1131.6,-1578.43"/>
<polygon fill="#9a32cd" stroke="#9a32cd" points="901.79,-1638.61 892.18,-1643.06 902.47,-1645.57 901.79,-1638.61"/>
<text text-anchor="middle" x="970.5" y="-1642.85" font-family="Helvetica,sans-Serif" font-size="10.00"> distanceGradient</text>
</g>
<!-- Node75 -->
<g id="node75" class="node">
<title>Node75</title>
<g id="a_node75"><a xlink:title=" ">
<polygon fill="white" stroke="#bfbfbf" points="772,-1595.35 772,-1614.35 855,-1614.35 855,-1595.35 772,-1595.35"/>
<text text-anchor="middle" x="813.5" y="-1602.35" font-family="Helvetica,sans-Serif" font-size="10.00">MatrixDouble</text>
</a>
</g>
</g>
<!-- Node75&#45;&gt;Node73 -->
<g id="edge90" class="edge">
<title>Node75&#45;&gt;Node73</title>
<path fill="none" stroke="#9a32cd" stroke-dasharray="5,2" d="M865.34,-1599.39C917.94,-1593.74 1001.02,-1584.81 1063.79,-1578.06"/>
<polygon fill="#9a32cd" stroke="#9a32cd" points="864.81,-1595.92 855.24,-1600.47 865.56,-1602.88 864.81,-1595.92"/>
<text text-anchor="middle" x="970.5" y="-1607.85" font-family="Helvetica,sans-Serif" font-size="10.00"> locA</text>
<text text-anchor="middle" x="970.5" y="-1596.85" font-family="Helvetica,sans-Serif" font-size="10.00">transLocA</text>
</g>
<!-- Node76 -->
<g id="node76" class="node">
<title>Node76</title>
<g id="a_node76"><a xlink:title=" ">
<polygon fill="white" stroke="#bfbfbf" points="735.5,-1557.35 735.5,-1576.35 891.5,-1576.35 891.5,-1557.35 735.5,-1557.35"/>
<text text-anchor="middle" x="813.5" y="-1564.35" font-family="Helvetica,sans-Serif" font-size="10.00">shared_ptr&lt; VectorDouble &gt;</text>
</a>
</g>
</g>
<!-- Node76&#45;&gt;Node73 -->
<g id="edge91" class="edge">
<title>Node76&#45;&gt;Node73</title>
<path fill="none" stroke="#9a32cd" stroke-dasharray="5,2" d="M901.91,-1567.37C951.82,-1567.67 1014.15,-1568.04 1063.78,-1568.34"/>
<polygon fill="#9a32cd" stroke="#9a32cd" points="901.8,-1563.87 891.78,-1567.31 901.76,-1570.87 901.8,-1563.87"/>
<text text-anchor="middle" x="970.5" y="-1570.85" font-family="Helvetica,sans-Serif" font-size="10.00"> distanceValue</text>
</g>
<!-- Node77 -->
<g id="node77" class="node">
<title>Node77</title>
<g id="a_node77"><a xlink:title=" ">
<polygon fill="white" stroke="#bfbfbf" points="772.5,-1676.35 772.5,-1695.35 854.5,-1695.35 854.5,-1676.35 772.5,-1676.35"/>
<text text-anchor="middle" x="813.5" y="-1683.35" font-family="Helvetica,sans-Serif" font-size="10.00">VectorDouble</text>
</a>
</g>
</g>
<!-- Node77&#45;&gt;Node73 -->
<g id="edge93" class="edge">
<title>Node77&#45;&gt;Node73</title>
<path fill="none" stroke="#9a32cd" stroke-dasharray="5,2" d="M864.82,-1685.45C909.87,-1683.53 976.97,-1676.75 1031,-1654.85 1076.47,-1636.43 1120.73,-1596.9 1139.76,-1578.57"/>
<polygon fill="#9a32cd" stroke="#9a32cd" points="864.57,-1681.96 854.7,-1685.82 864.82,-1688.95 864.57,-1681.96"/>
<text text-anchor="middle" x="970.5" y="-1695.85" font-family="Helvetica,sans-Serif" font-size="10.00"> rhoAtGaussPts</text>
<text text-anchor="middle" x="970.5" y="-1684.85" font-family="Helvetica,sans-Serif" font-size="10.00">locF</text>
</g>
</g>
</svg>
