<?xml version="1.0" encoding="UTF-8" standalone="no"?>
<!DOCTYPE svg PUBLIC "-//W3C//DTD SVG 1.1//EN"
 "http://www.w3.org/Graphics/SVG/1.1/DTD/svg11.dtd">
<!-- Generated by graphviz version 2.43.0 (0)
 -->
<!-- Title: Poisson2DHomogeneous Pages: 1 -->
<!--zoomable 1758 -->
<svg id="main" version="1.1" xmlns="http://www.w3.org/2000/svg" xmlns:xlink="http://www.w3.org/1999/xlink" xml:space="preserve" onload="init(evt)">
<style type="text/css"><![CDATA[
.edge:hover path { stroke: red; }
.edge:hover polygon { stroke: red; fill: red; }
]]></style>
<script type="text/javascript"><![CDATA[
var edges = document.getElementsByTagName('g');
if (edges && edges.length) {
  for (var i=0;i<edges.length;i++) {
    if (edges[i].id.substr(0,4)=='edge') {
      edges[i].setAttribute('class','edge');
    }
  }
}
]]></script>
        <defs>
                <circle id="rim" cx="0" cy="0" r="7"/>
                <circle id="rim2" cx="0" cy="0" r="3.5"/>
                <g id="zoomPlus">
                        <use xlink:href="#rim" fill="#404040">
                                <set attributeName="fill" to="#808080" begin="zoomplus.mouseover" end="zoomplus.mouseout"/>
                        </use>
                        <path d="M-4,0h8M0,-4v8" fill="none" stroke="white" stroke-width="1.5" pointer-events="none"/>
                </g>
                <g id="zoomMin">
                        <use xlink:href="#rim" fill="#404040">
                                <set attributeName="fill" to="#808080" begin="zoomminus.mouseover" end="zoomminus.mouseout"/>
                        </use>
                        <path d="M-4,0h8" fill="none" stroke="white" stroke-width="1.5" pointer-events="none"/>
                </g>
                <g id="dirArrow">
                        <path fill="none" stroke="white" stroke-width="1.5" d="M0,-3.0v7 M-2.5,-0.5L0,-3.0L2.5,-0.5"/>
                </g>
               <g id="resetDef">
                       <use xlink:href="#rim2" fill="#404040">
                               <set attributeName="fill" to="#808080" begin="reset.mouseover" end="reset.mouseout"/>
                       </use>
               </g>
        </defs>

<script type="text/javascript">
var viewWidth = 4292;
var viewHeight = 1758;
var sectionId = 'dynsection-0';
</script>
<script xlink:href="svgpan.js"/>
<svg id="graph" class="graph">
<g id="viewport">
<title>Poisson2DHomogeneous</title>
<polygon fill="white" stroke="transparent" points="-4,4 -4,-1754.35 4288,-1754.35 4288,4 -4,4"/>
<!-- Node1 -->
<g id="node1" class="node">
<title>Node1</title>
<g id="a_node1"><a xlink:title=" ">
<polygon fill="#bfbfbf" stroke="black" points="4146,-1553.85 4146,-1572.85 4284,-1572.85 4284,-1553.85 4146,-1553.85"/>
<text text-anchor="middle" x="4215" y="-1560.85" font-family="Helvetica,sans-Serif" font-size="10.00">Poisson2DHomogeneous</text>
</a>
</g>
</g>
<!-- Node2 -->
<g id="node2" class="node">
<title>Node2</title>
<g id="a_node2"><a xlink:href="structMoFEM_1_1SmartPetscObj.html" target="_top" xlink:title=" ">
<polygon fill="white" stroke="black" points="3570.5,-1659.35 3570.5,-1689.35 3701.5,-1689.35 3701.5,-1659.35 3570.5,-1659.35"/>
<text text-anchor="start" x="3578.5" y="-1677.35" font-family="Helvetica,sans-Serif" font-size="10.00">MoFEM::SmartPetscObj</text>
<text text-anchor="middle" x="3636" y="-1666.35" font-family="Helvetica,sans-Serif" font-size="10.00">&lt; Vec &gt;</text>
</a>
</g>
</g>
<!-- Node2&#45;&gt;Node1 -->
<g id="edge1" class="edge">
<title>Node2&#45;&gt;Node1</title>
<path fill="none" stroke="#9a32cd" stroke-dasharray="5,2" d="M3711.64,-1684.05C3811.01,-1693.76 3990.22,-1699.9 4128,-1641.35 4163.43,-1626.29 4193.87,-1590.28 4207.04,-1572.96"/>
<polygon fill="#9a32cd" stroke="#9a32cd" points="3711.99,-1680.57 3701.69,-1683.04 3711.28,-1687.53 3711.99,-1680.57"/>
<text text-anchor="middle" x="3984" y="-1689.35" font-family="Helvetica,sans-Serif" font-size="10.00"> petscVec</text>
</g>
<!-- Node3 -->
<g id="node3" class="node">
<title>Node3</title>
<g id="a_node3"><a xlink:title=" ">
<polygon fill="white" stroke="#bfbfbf" points="3137.5,-1708.85 3137.5,-1749.85 3263.5,-1749.85 3263.5,-1708.85 3137.5,-1708.85"/>
<text text-anchor="start" x="3145.5" y="-1737.85" font-family="Helvetica,sans-Serif" font-size="10.00">boost::intrusive_ptr</text>
<text text-anchor="start" x="3145.5" y="-1726.85" font-family="Helvetica,sans-Serif" font-size="10.00">&lt; std::remove_pointer</text>
<text text-anchor="middle" x="3200.5" y="-1715.85" font-family="Helvetica,sans-Serif" font-size="10.00">&lt; Vec &gt;::type &gt;</text>
</a>
</g>
</g>
<!-- Node3&#45;&gt;Node2 -->
<g id="edge2" class="edge">
<title>Node3&#45;&gt;Node2</title>
<path fill="none" stroke="midnightblue" d="M3273.68,-1720.19C3356.38,-1709.69 3490.69,-1692.65 3570.17,-1682.57"/>
<polygon fill="midnightblue" stroke="midnightblue" points="3273.09,-1716.73 3263.61,-1721.47 3273.97,-1723.68 3273.09,-1716.73"/>
</g>
<!-- Node4 -->
<g id="node4" class="node">
<title>Node4</title>
<g id="a_node4"><a xlink:href="structMoFEM_1_1SmartPetscObj.html" target="_top" xlink:title="intrusive_ptr for managing petsc objects">
<polygon fill="white" stroke="black" points="3135,-1659.35 3135,-1689.35 3266,-1689.35 3266,-1659.35 3135,-1659.35"/>
<text text-anchor="start" x="3143" y="-1677.35" font-family="Helvetica,sans-Serif" font-size="10.00">MoFEM::SmartPetscObj</text>
<text text-anchor="middle" x="3200.5" y="-1666.35" font-family="Helvetica,sans-Serif" font-size="10.00">&lt; OBJ &gt;</text>
</a>
</g>
</g>
<!-- Node4&#45;&gt;Node2 -->
<g id="edge3" class="edge">
<title>Node4&#45;&gt;Node2</title>
<path fill="none" stroke="orange" stroke-dasharray="5,2" d="M3276.52,-1674.35C3359.49,-1674.35 3491.81,-1674.35 3570.37,-1674.35"/>
<polygon fill="orange" stroke="orange" points="3276.4,-1670.85 3266.4,-1674.35 3276.4,-1677.85 3276.4,-1670.85"/>
<text text-anchor="middle" x="3421.5" y="-1677.35" font-family="Helvetica,sans-Serif" font-size="10.00"> &lt; Vec &gt;</text>
</g>
<!-- Node22 -->
<g id="node22" class="node">
<title>Node22</title>
<g id="a_node22"><a xlink:href="structMoFEM_1_1SmartPetscObj.html" target="_top" xlink:title=" ">
<polygon fill="white" stroke="black" points="3570.5,-1567.35 3570.5,-1597.35 3701.5,-1597.35 3701.5,-1567.35 3570.5,-1567.35"/>
<text text-anchor="start" x="3578.5" y="-1585.35" font-family="Helvetica,sans-Serif" font-size="10.00">MoFEM::SmartPetscObj</text>
<text text-anchor="middle" x="3636" y="-1574.35" font-family="Helvetica,sans-Serif" font-size="10.00">&lt; DM &gt;</text>
</a>
</g>
</g>
<!-- Node4&#45;&gt;Node22 -->
<g id="edge25" class="edge">
<title>Node4&#45;&gt;Node22</title>
<path fill="none" stroke="orange" stroke-dasharray="5,2" d="M3235.65,-1654.33C3261.07,-1640.43 3297.09,-1622.76 3331,-1613.35 3353.43,-1607.12 3487.98,-1594.86 3570.38,-1587.77"/>
<polygon fill="orange" stroke="orange" points="3233.83,-1651.34 3226.79,-1659.26 3237.23,-1657.46 3233.83,-1651.34"/>
<text text-anchor="middle" x="3421.5" y="-1616.35" font-family="Helvetica,sans-Serif" font-size="10.00"> &lt; DM &gt;</text>
</g>
<!-- Node5 -->
<g id="node5" class="node">
<title>Node5</title>
<g id="a_node5"><a xlink:title=" ">
<polygon fill="white" stroke="#bfbfbf" points="2663,-1653.85 2663,-1694.85 2789,-1694.85 2789,-1653.85 2663,-1653.85"/>
<text text-anchor="start" x="2671" y="-1682.85" font-family="Helvetica,sans-Serif" font-size="10.00">boost::intrusive_ptr</text>
<text text-anchor="start" x="2671" y="-1671.85" font-family="Helvetica,sans-Serif" font-size="10.00">&lt; std::remove_pointer</text>
<text text-anchor="middle" x="2726" y="-1660.85" font-family="Helvetica,sans-Serif" font-size="10.00">&lt; OBJ &gt;::type &gt;</text>
</a>
</g>
</g>
<!-- Node5&#45;&gt;Node4 -->
<g id="edge4" class="edge">
<title>Node5&#45;&gt;Node4</title>
<path fill="none" stroke="midnightblue" d="M2799.27,-1674.35C2890.78,-1674.35 3047.08,-1674.35 3134.83,-1674.35"/>
<polygon fill="midnightblue" stroke="midnightblue" points="2799.26,-1670.85 2789.26,-1674.35 2799.26,-1677.85 2799.26,-1670.85"/>
</g>
<!-- Node6 -->
<g id="node6" class="node">
<title>Node6</title>
<g id="a_node6"><a xlink:href="structMoFEM_1_1DeprecatedCoreInterface.html" target="_top" xlink:title="Deprecated interface functions.">
<polygon fill="white" stroke="black" points="3331,-1630.85 3331,-1649.85 3512,-1649.85 3512,-1630.85 3331,-1630.85"/>
<text text-anchor="middle" x="3421.5" y="-1637.85" font-family="Helvetica,sans-Serif" font-size="10.00">MoFEM::DeprecatedCoreInterface</text>
</a>
</g>
</g>
<!-- Node6&#45;&gt;Node1 -->
<g id="edge5" class="edge">
<title>Node6&#45;&gt;Node1</title>
<path fill="none" stroke="#9a32cd" stroke-dasharray="5,2" d="M3522.16,-1633.3C3622.68,-1625.92 3782.26,-1613.45 3920,-1599.35 3997.5,-1591.41 4086.24,-1580.26 4145.77,-1572.48"/>
<polygon fill="#9a32cd" stroke="#9a32cd" points="3521.74,-1629.82 3512.02,-1634.04 3522.25,-1636.8 3521.74,-1629.82"/>
<text text-anchor="middle" x="3840" y="-1617.35" font-family="Helvetica,sans-Serif" font-size="10.00"> mField</text>
</g>
<!-- Node7 -->
<g id="node7" class="node">
<title>Node7</title>
<g id="a_node7"><a xlink:href="structMoFEM_1_1CoreInterface.html" target="_top" xlink:title="Interface.">
<polygon fill="white" stroke="black" points="2663.5,-1428.85 2663.5,-1447.85 2788.5,-1447.85 2788.5,-1428.85 2663.5,-1428.85"/>
<text text-anchor="middle" x="2726" y="-1435.85" font-family="Helvetica,sans-Serif" font-size="10.00">MoFEM::CoreInterface</text>
</a>
</g>
</g>
<!-- Node7&#45;&gt;Node6 -->
<g id="edge6" class="edge">
<title>Node7&#45;&gt;Node6</title>
<path fill="none" stroke="midnightblue" d="M2750.53,-1453.37C2806.44,-1488.21 2952.74,-1574.36 3088,-1611.35 3168.21,-1633.28 3262.97,-1639.74 3330.77,-1641.17"/>
<polygon fill="midnightblue" stroke="midnightblue" points="2752.38,-1450.4 2742.05,-1448.04 2748.66,-1456.32 2752.38,-1450.4"/>
</g>
<!-- Node25 -->
<g id="node25" class="node">
<title>Node25</title>
<g id="a_node25"><a xlink:href="structMoFEM_1_1DeprecatedCoreInterface.html" target="_top" xlink:title="Deprecated interface functions.">
<polygon fill="white" stroke="black" points="3170.5,-1142.85 3170.5,-1161.85 3230.5,-1161.85 3230.5,-1142.85 3170.5,-1142.85"/>
<text text-anchor="middle" x="3200.5" y="-1149.85" font-family="Helvetica,sans-Serif" font-size="10.00">Interface</text>
</a>
</g>
</g>
<!-- Node7&#45;&gt;Node25 -->
<g id="edge28" class="edge">
<title>Node7&#45;&gt;Node25</title>
<path fill="none" stroke="midnightblue" d="M2751.38,-1423.59C2835.79,-1372.49 3114.3,-1203.92 3183.72,-1161.9"/>
<polygon fill="midnightblue" stroke="midnightblue" points="2749.46,-1420.66 2742.72,-1428.83 2753.09,-1426.65 2749.46,-1420.66"/>
</g>
<!-- Node8 -->
<g id="node8" class="node">
<title>Node8</title>
<g id="a_node8"><a xlink:href="structMoFEM_1_1UnknownInterface.html" target="_top" xlink:title="base class for all interface classes">
<polygon fill="white" stroke="black" points="2166,-1428.85 2166,-1447.85 2314,-1447.85 2314,-1428.85 2166,-1428.85"/>
<text text-anchor="middle" x="2240" y="-1435.85" font-family="Helvetica,sans-Serif" font-size="10.00">MoFEM::UnknownInterface</text>
</a>
</g>
</g>
<!-- Node8&#45;&gt;Node7 -->
<g id="edge7" class="edge">
<title>Node8&#45;&gt;Node7</title>
<path fill="none" stroke="midnightblue" d="M2324.25,-1438.35C2420.69,-1438.35 2577.31,-1438.35 2663.42,-1438.35"/>
<polygon fill="midnightblue" stroke="midnightblue" points="2324.25,-1434.85 2314.25,-1438.35 2324.25,-1441.85 2324.25,-1434.85"/>
</g>
<!-- Node12 -->
<g id="node12" class="node">
<title>Node12</title>
<g id="a_node12"><a xlink:href="structMoFEM_1_1Simple.html" target="_top" xlink:title="Simple interface for fast problem set&#45;up.">
<polygon fill="white" stroke="black" points="3938,-1052.85 3938,-1071.85 4030,-1071.85 4030,-1052.85 3938,-1052.85"/>
<text text-anchor="middle" x="3984" y="-1059.85" font-family="Helvetica,sans-Serif" font-size="10.00">MoFEM::Simple</text>
</a>
</g>
</g>
<!-- Node8&#45;&gt;Node12 -->
<g id="edge12" class="edge">
<title>Node8&#45;&gt;Node12</title>
<path fill="none" stroke="midnightblue" d="M2324.4,-1448.91C2336.01,-1450.18 2347.79,-1451.38 2359,-1452.35 2445.49,-1459.83 3854.6,-1581.43 3920,-1524.35 3955.52,-1493.34 3978.57,-1136.06 3982.43,-1072.11"/>
<polygon fill="midnightblue" stroke="midnightblue" points="2324.59,-1445.41 2314.26,-1447.77 2323.8,-1452.36 2324.59,-1445.41"/>
</g>
<!-- Node9 -->
<g id="node9" class="node">
<title>Node9</title>
<g id="a_node9"><a xlink:title=" ">
<polygon fill="white" stroke="#bfbfbf" points="1003.5,-1350.85 1003.5,-1413.85 1244.5,-1413.85 1244.5,-1350.85 1003.5,-1350.85"/>
<text text-anchor="start" x="1011.5" y="-1401.85" font-family="Helvetica,sans-Serif" font-size="10.00">multi_index_container</text>
<text text-anchor="start" x="1011.5" y="-1390.85" font-family="Helvetica,sans-Serif" font-size="10.00">&lt; UIdTypeMap, indexed</text>
<text text-anchor="start" x="1011.5" y="-1379.85" font-family="Helvetica,sans-Serif" font-size="10.00">_by&lt; hashed_unique&lt; member</text>
<text text-anchor="start" x="1011.5" y="-1368.85" font-family="Helvetica,sans-Serif" font-size="10.00">&lt; UIdTypeMap, boost::typeindex</text>
<text text-anchor="middle" x="1124" y="-1357.85" font-family="Helvetica,sans-Serif" font-size="10.00">::type_index, &amp;UIdTypeMap::classIdx &gt; &gt; &gt; &gt;</text>
</a>
</g>
</g>
<!-- Node9&#45;&gt;Node8 -->
<g id="edge8" class="edge">
<title>Node9&#45;&gt;Node8</title>
<path fill="none" stroke="#9a32cd" stroke-dasharray="5,2" d="M1255.08,-1388.88C1490.62,-1400.72 1980.52,-1425.35 2165.84,-1434.67"/>
<polygon fill="#9a32cd" stroke="#9a32cd" points="1254.91,-1385.37 1244.75,-1388.36 1254.56,-1392.36 1254.91,-1385.37"/>
<text text-anchor="middle" x="1720.5" y="-1435.35" font-family="Helvetica,sans-Serif" font-size="10.00"> iFaceTypeMap</text>
</g>
<!-- Node10 -->
<g id="node10" class="node">
<title>Node10</title>
<g id="a_node10"><a xlink:title=" ">
<polygon fill="white" stroke="#bfbfbf" points="0,-718.85 0,-737.85 125,-737.85 125,-718.85 0,-718.85"/>
<text text-anchor="middle" x="62.5" y="-725.85" font-family="Helvetica,sans-Serif" font-size="10.00">multi_index_container</text>
</a>
</g>
</g>
<!-- Node10&#45;&gt;Node9 -->
<g id="edge9" class="edge">
<title>Node10&#45;&gt;Node9</title>
<path fill="none" stroke="orange" stroke-dasharray="5,2" d="M64.36,-748.18C68.07,-824.52 85.27,-1098.15 143,-1158.35 371.16,-1396.26 796.1,-1405.05 1003.26,-1393.29"/>
<polygon fill="orange" stroke="orange" points="67.85,-747.86 63.89,-738.04 60.86,-748.19 67.85,-747.86"/>
<text text-anchor="start" x="423" y="-1433.35" font-family="Helvetica,sans-Serif" font-size="10.00"> &lt; UIdTypeMap, indexed</text>
<text text-anchor="start" x="423" y="-1422.35" font-family="Helvetica,sans-Serif" font-size="10.00">_by&lt; hashed_unique&lt; member</text>
<text text-anchor="start" x="423" y="-1411.35" font-family="Helvetica,sans-Serif" font-size="10.00">&lt; UIdTypeMap, boost::typeindex</text>
<text text-anchor="middle" x="535.5" y="-1400.35" font-family="Helvetica,sans-Serif" font-size="10.00">::type_index, &amp;UIdTypeMap::classIdx &gt; &gt; &gt; &gt;</text>
</g>
<!-- Node26 -->
<g id="node26" class="node">
<title>Node26</title>
<g id="a_node26"><a xlink:title=" ">
<polygon fill="white" stroke="#bfbfbf" points="1320,-465.85 1320,-660.85 2121,-660.85 2121,-465.85 1320,-465.85"/>
<text text-anchor="start" x="1328" y="-648.85" font-family="Helvetica,sans-Serif" font-size="10.00">multi_index_container</text>
<text text-anchor="start" x="1328" y="-637.85" font-family="Helvetica,sans-Serif" font-size="10.00">&lt; FieldEntityEntFiniteElement</text>
<text text-anchor="start" x="1328" y="-626.85" font-family="Helvetica,sans-Serif" font-size="10.00">AdjacencyMap, indexed_by&lt;</text>
<text text-anchor="start" x="1328" y="-615.85" font-family="Helvetica,sans-Serif" font-size="10.00"> ordered_unique&lt; tag&lt; Composite</text>
<text text-anchor="start" x="1328" y="-604.85" font-family="Helvetica,sans-Serif" font-size="10.00">_Unique_mi_tag &gt;, composite_key</text>
<text text-anchor="start" x="1328" y="-593.85" font-family="Helvetica,sans-Serif" font-size="10.00">&lt; FieldEntityEntFiniteElementAdjacencyMap,</text>
<text text-anchor="start" x="1328" y="-582.85" font-family="Helvetica,sans-Serif" font-size="10.00"> const_mem_fun&lt; FieldEntityEntFiniteElementAdjacency</text>
<text text-anchor="start" x="1328" y="-571.85" font-family="Helvetica,sans-Serif" font-size="10.00">Map, UId, &amp;FieldEntityEntFiniteElementAdjacencyMap</text>
<text text-anchor="start" x="1328" y="-560.85" font-family="Helvetica,sans-Serif" font-size="10.00">::getEntUniqueId &gt;, const_mem_fun&lt; FieldEntityEntFiniteElementAdjacency</text>
<text text-anchor="start" x="1328" y="-549.85" font-family="Helvetica,sans-Serif" font-size="10.00">Map, UId, &amp;FieldEntityEntFiniteElementAdjacencyMap::getFeUniqueId</text>
<text text-anchor="start" x="1328" y="-538.85" font-family="Helvetica,sans-Serif" font-size="10.00"> &gt; &gt; &gt;, ordered_non_unique&lt; tag&lt; Unique_mi_tag &gt;, const_mem_fun</text>
<text text-anchor="start" x="1328" y="-527.85" font-family="Helvetica,sans-Serif" font-size="10.00">&lt; FieldEntityEntFiniteElementAdjacencyMap, UId, &amp;FieldEntityEntFiniteElementAdjacencyMap</text>
<text text-anchor="start" x="1328" y="-516.85" font-family="Helvetica,sans-Serif" font-size="10.00">::getEntUniqueId &gt; &gt;, ordered_non_unique&lt; tag&lt; FE_Unique_mi_tag &gt;, const_mem_fun</text>
<text text-anchor="start" x="1328" y="-505.85" font-family="Helvetica,sans-Serif" font-size="10.00">&lt; FieldEntityEntFiniteElementAdjacencyMap, UId, &amp;FieldEntityEntFiniteElementAdjacencyMap</text>
<text text-anchor="start" x="1328" y="-494.85" font-family="Helvetica,sans-Serif" font-size="10.00">::getFeUniqueId &gt; &gt;, ordered_non_unique&lt; tag&lt; FEEnt_mi_tag &gt;, const_mem_fun&lt; FieldEntityEntFiniteElementAdjacency</text>
<text text-anchor="start" x="1328" y="-483.85" font-family="Helvetica,sans-Serif" font-size="10.00">Map, EntityHandle, &amp;FieldEntityEntFiniteElementAdjacencyMap::getFeHandle &gt; &gt;, ordered_non_unique&lt; tag</text>
<text text-anchor="middle" x="1720.5" y="-472.85" font-family="Helvetica,sans-Serif" font-size="10.00">&lt; Ent_mi_tag &gt;, const_mem_fun&lt; FieldEntityEntFiniteElementAdjacencyMap, EntityHandle, &amp;FieldEntityEntFiniteElementAdjacencyMap::getEntHandle &gt; &gt; &gt; &gt;</text>
</a>
</g>
</g>
<!-- Node10&#45;&gt;Node26 -->
<g id="edge30" class="edge">
<title>Node10&#45;&gt;Node26</title>
<path fill="none" stroke="orange" stroke-dasharray="5,2" d="M65.46,-708.79C72.14,-646.65 96.22,-455.61 143,-419.35 177.47,-392.62 893.98,-392.06 928,-419.35 956.77,-442.42 918.19,-476.12 946,-500.35 976.33,-526.77 1146.73,-542.25 1319.9,-551.25"/>
<polygon fill="orange" stroke="orange" points="61.97,-708.52 64.42,-718.83 68.93,-709.25 61.97,-708.52"/>
<text text-anchor="start" x="143" y="-587.35" font-family="Helvetica,sans-Serif" font-size="10.00"> &lt; FieldEntityEntFiniteElement</text>
<text text-anchor="start" x="143" y="-576.35" font-family="Helvetica,sans-Serif" font-size="10.00">AdjacencyMap, indexed_by</text>
<text text-anchor="start" x="143" y="-565.35" font-family="Helvetica,sans-Serif" font-size="10.00">&lt; ordered_unique&lt; tag&lt; Composite</text>
<text text-anchor="start" x="143" y="-554.35" font-family="Helvetica,sans-Serif" font-size="10.00">_Unique_mi_tag &gt;, composite_key</text>
<text text-anchor="start" x="143" y="-543.35" font-family="Helvetica,sans-Serif" font-size="10.00">&lt; FieldEntityEntFiniteElementAdjacencyMap,</text>
<text text-anchor="start" x="143" y="-532.35" font-family="Helvetica,sans-Serif" font-size="10.00"> const_mem_fun&lt; FieldEntityEntFiniteElementAdjacency</text>
<text text-anchor="start" x="143" y="-521.35" font-family="Helvetica,sans-Serif" font-size="10.00">Map, UId, &amp;FieldEntityEntFiniteElementAdjacencyMap</text>
<text text-anchor="start" x="143" y="-510.35" font-family="Helvetica,sans-Serif" font-size="10.00">::getEntUniqueId &gt;, const_mem_fun&lt; FieldEntityEntFiniteElementAdjacency</text>
<text text-anchor="start" x="143" y="-499.35" font-family="Helvetica,sans-Serif" font-size="10.00">Map, UId, &amp;FieldEntityEntFiniteElementAdjacencyMap::getFeUniqueId</text>
<text text-anchor="start" x="143" y="-488.35" font-family="Helvetica,sans-Serif" font-size="10.00"> &gt; &gt; &gt;, ordered_non_unique&lt; tag&lt; Unique_mi_tag &gt;, const_mem_fun</text>
<text text-anchor="start" x="143" y="-477.35" font-family="Helvetica,sans-Serif" font-size="10.00">&lt; FieldEntityEntFiniteElementAdjacencyMap, UId, &amp;FieldEntityEntFiniteElementAdjacencyMap</text>
<text text-anchor="start" x="143" y="-466.35" font-family="Helvetica,sans-Serif" font-size="10.00">::getEntUniqueId &gt; &gt;, ordered_non_unique&lt; tag&lt; FE_Unique_mi_tag &gt;, const_mem_fun</text>
<text text-anchor="start" x="143" y="-455.35" font-family="Helvetica,sans-Serif" font-size="10.00">&lt; FieldEntityEntFiniteElementAdjacencyMap, UId, &amp;FieldEntityEntFiniteElementAdjacencyMap</text>
<text text-anchor="start" x="143" y="-444.35" font-family="Helvetica,sans-Serif" font-size="10.00">::getFeUniqueId &gt; &gt;, ordered_non_unique&lt; tag&lt; FEEnt_mi_tag &gt;, const_mem_fun&lt; FieldEntityEntFiniteElementAdjacency</text>
<text text-anchor="start" x="143" y="-433.35" font-family="Helvetica,sans-Serif" font-size="10.00">Map, EntityHandle, &amp;FieldEntityEntFiniteElementAdjacencyMap::getFeHandle &gt; &gt;, ordered_non_unique&lt; tag</text>
<text text-anchor="middle" x="535.5" y="-422.35" font-family="Helvetica,sans-Serif" font-size="10.00">&lt; Ent_mi_tag &gt;, const_mem_fun&lt; FieldEntityEntFiniteElementAdjacencyMap, EntityHandle, &amp;FieldEntityEntFiniteElementAdjacencyMap::getEntHandle &gt; &gt; &gt; &gt;</text>
</g>
<!-- Node28 -->
<g id="node28" class="node">
<title>Node28</title>
<g id="a_node28"><a xlink:title=" ">
<polygon fill="white" stroke="#bfbfbf" points="2359,-249.35 2359,-411.35 2645,-411.35 2645,-249.35 2359,-249.35"/>
<text text-anchor="start" x="2367" y="-399.35" font-family="Helvetica,sans-Serif" font-size="10.00">multi_index_container</text>
<text text-anchor="start" x="2367" y="-388.35" font-family="Helvetica,sans-Serif" font-size="10.00">&lt; boost::shared_ptr&lt;</text>
<text text-anchor="start" x="2367" y="-377.35" font-family="Helvetica,sans-Serif" font-size="10.00"> Field &gt;, indexed_by&lt;</text>
<text text-anchor="start" x="2367" y="-366.35" font-family="Helvetica,sans-Serif" font-size="10.00"> hashed_unique&lt; tag&lt; BitFieldId</text>
<text text-anchor="start" x="2367" y="-355.35" font-family="Helvetica,sans-Serif" font-size="10.00">_mi_tag &gt;, const_mem_fun&lt; Field,</text>
<text text-anchor="start" x="2367" y="-344.35" font-family="Helvetica,sans-Serif" font-size="10.00"> const BitFieldId &amp;, &amp;Field::getId</text>
<text text-anchor="start" x="2367" y="-333.35" font-family="Helvetica,sans-Serif" font-size="10.00"> &gt;, HashBit&lt; BitFieldId &gt;, EqBit&lt;</text>
<text text-anchor="start" x="2367" y="-322.35" font-family="Helvetica,sans-Serif" font-size="10.00"> BitFieldId &gt; &gt;, ordered_unique&lt; tag</text>
<text text-anchor="start" x="2367" y="-311.35" font-family="Helvetica,sans-Serif" font-size="10.00">&lt; Meshset_mi_tag &gt;, member&lt; Field, EntityHandle,</text>
<text text-anchor="start" x="2367" y="-300.35" font-family="Helvetica,sans-Serif" font-size="10.00"> &amp;Field::meshSet &gt; &gt;, ordered_unique&lt; tag&lt;</text>
<text text-anchor="start" x="2367" y="-289.35" font-family="Helvetica,sans-Serif" font-size="10.00"> FieldName_mi_tag &gt;, const_mem_fun&lt; Field, boost</text>
<text text-anchor="start" x="2367" y="-278.35" font-family="Helvetica,sans-Serif" font-size="10.00">::string_ref, &amp;Field::getNameRef &gt; &gt;, ordered_non</text>
<text text-anchor="start" x="2367" y="-267.35" font-family="Helvetica,sans-Serif" font-size="10.00">_unique&lt; tag&lt; BitFieldId_space_mi_tag &gt;, const_mem</text>
<text text-anchor="middle" x="2502" y="-256.35" font-family="Helvetica,sans-Serif" font-size="10.00">_fun&lt; Field, FieldSpace, &amp;Field::getSpace &gt; &gt; &gt; &gt;</text>
</a>
</g>
</g>
<!-- Node10&#45;&gt;Node28 -->
<g id="edge33" class="edge">
<title>Node10&#45;&gt;Node28</title>
<path fill="none" stroke="orange" stroke-dasharray="5,2" d="M64.88,-708.42C70.17,-638.41 91.4,-405.29 143,-355.35 403.52,-103.17 584.84,-243.47 946,-211.35 1466.16,-165.07 2085.2,-256.08 2358.87,-303.77"/>
<polygon fill="orange" stroke="orange" points="61.38,-708.31 64.15,-718.53 68.37,-708.81 61.38,-708.31"/>
<text text-anchor="start" x="991.5" y="-357.35" font-family="Helvetica,sans-Serif" font-size="10.00"> &lt; boost::shared_ptr</text>
<text text-anchor="start" x="991.5" y="-346.35" font-family="Helvetica,sans-Serif" font-size="10.00">&lt; Field &gt;, indexed_by</text>
<text text-anchor="start" x="991.5" y="-335.35" font-family="Helvetica,sans-Serif" font-size="10.00">&lt; hashed_unique&lt; tag&lt;</text>
<text text-anchor="start" x="991.5" y="-324.35" font-family="Helvetica,sans-Serif" font-size="10.00"> BitFieldId_mi_tag &gt;, const</text>
<text text-anchor="start" x="991.5" y="-313.35" font-family="Helvetica,sans-Serif" font-size="10.00">_mem_fun&lt; Field, const BitFieldId</text>
<text text-anchor="start" x="991.5" y="-302.35" font-family="Helvetica,sans-Serif" font-size="10.00"> &amp;, &amp;Field::getId &gt;, HashBit&lt; BitFieldId</text>
<text text-anchor="start" x="991.5" y="-291.35" font-family="Helvetica,sans-Serif" font-size="10.00"> &gt;, EqBit&lt; BitFieldId &gt; &gt;, ordered_unique</text>
<text text-anchor="start" x="991.5" y="-280.35" font-family="Helvetica,sans-Serif" font-size="10.00">&lt; tag&lt; Meshset_mi_tag &gt;, member&lt; Field,</text>
<text text-anchor="start" x="991.5" y="-269.35" font-family="Helvetica,sans-Serif" font-size="10.00"> EntityHandle, &amp;Field::meshSet &gt; &gt;, ordered</text>
<text text-anchor="start" x="991.5" y="-258.35" font-family="Helvetica,sans-Serif" font-size="10.00">_unique&lt; tag&lt; FieldName_mi_tag &gt;, const_mem</text>
<text text-anchor="start" x="991.5" y="-247.35" font-family="Helvetica,sans-Serif" font-size="10.00">_fun&lt; Field, boost::string_ref, &amp;Field::getNameRef</text>
<text text-anchor="start" x="991.5" y="-236.35" font-family="Helvetica,sans-Serif" font-size="10.00"> &gt; &gt;, ordered_non_unique&lt; tag&lt; BitFieldId_space</text>
<text text-anchor="start" x="991.5" y="-225.35" font-family="Helvetica,sans-Serif" font-size="10.00">_mi_tag &gt;, const_mem_fun&lt; Field, FieldSpace, &amp;Field</text>
<text text-anchor="middle" x="1124" y="-214.35" font-family="Helvetica,sans-Serif" font-size="10.00">::getSpace &gt; &gt; &gt; &gt;</text>
</g>
<!-- Node29 -->
<g id="node29" class="node">
<title>Node29</title>
<g id="a_node29"><a xlink:title=" ">
<polygon fill="white" stroke="#bfbfbf" points="2807,-118.35 2807,-280.35 3070,-280.35 3070,-118.35 2807,-118.35"/>
<text text-anchor="start" x="2815" y="-268.35" font-family="Helvetica,sans-Serif" font-size="10.00">multi_index_container</text>
<text text-anchor="start" x="2815" y="-257.35" font-family="Helvetica,sans-Serif" font-size="10.00">&lt; boost::shared_ptr&lt;</text>
<text text-anchor="start" x="2815" y="-246.35" font-family="Helvetica,sans-Serif" font-size="10.00"> FiniteElement &gt;, indexed</text>
<text text-anchor="start" x="2815" y="-235.35" font-family="Helvetica,sans-Serif" font-size="10.00">_by&lt; hashed_unique&lt; tag&lt;</text>
<text text-anchor="start" x="2815" y="-224.35" font-family="Helvetica,sans-Serif" font-size="10.00"> FiniteElement_Meshset_mi</text>
<text text-anchor="start" x="2815" y="-213.35" font-family="Helvetica,sans-Serif" font-size="10.00">_tag &gt;, member&lt; FiniteElement,</text>
<text text-anchor="start" x="2815" y="-202.35" font-family="Helvetica,sans-Serif" font-size="10.00"> EntityHandle, &amp;FiniteElement</text>
<text text-anchor="start" x="2815" y="-191.35" font-family="Helvetica,sans-Serif" font-size="10.00">::meshset &gt; &gt;, hashed_unique&lt;</text>
<text text-anchor="start" x="2815" y="-180.35" font-family="Helvetica,sans-Serif" font-size="10.00"> tag&lt; BitFEId_mi_tag &gt;, const_mem</text>
<text text-anchor="start" x="2815" y="-169.35" font-family="Helvetica,sans-Serif" font-size="10.00">_fun&lt; FiniteElement, BitFEId, &amp;FiniteElement</text>
<text text-anchor="start" x="2815" y="-158.35" font-family="Helvetica,sans-Serif" font-size="10.00">::getId &gt;, HashBit&lt; BitFEId &gt;, EqBit&lt; BitFEId</text>
<text text-anchor="start" x="2815" y="-147.35" font-family="Helvetica,sans-Serif" font-size="10.00"> &gt; &gt;, ordered_unique&lt; tag&lt; FiniteElement_name</text>
<text text-anchor="start" x="2815" y="-136.35" font-family="Helvetica,sans-Serif" font-size="10.00">_mi_tag &gt;, const_mem_fun&lt; FiniteElement, boost</text>
<text text-anchor="middle" x="2938.5" y="-125.35" font-family="Helvetica,sans-Serif" font-size="10.00">::string_ref, &amp;FiniteElement::getNameRef &gt; &gt; &gt; &gt;</text>
</a>
</g>
</g>
<!-- Node10&#45;&gt;Node29 -->
<g id="edge35" class="edge">
<title>Node10&#45;&gt;Node29</title>
<path fill="none" stroke="orange" stroke-dasharray="5,2" d="M63.48,-708.39C63.82,-620.79 69.8,-271.44 143,-197.35 453.1,116.57 681.75,-38.35 1123,-38.35 1123,-38.35 1123,-38.35 2503,-38.35 2609.79,-38.35 2722.67,-81.64 2806.6,-123.32"/>
<polygon fill="orange" stroke="orange" points="59.98,-708.55 63.46,-718.55 66.98,-708.56 59.98,-708.55"/>
<text text-anchor="start" x="1597" y="-173.35" font-family="Helvetica,sans-Serif" font-size="10.00"> &lt; boost::shared_ptr</text>
<text text-anchor="start" x="1597" y="-162.35" font-family="Helvetica,sans-Serif" font-size="10.00">&lt; FiniteElement &gt;, indexed</text>
<text text-anchor="start" x="1597" y="-151.35" font-family="Helvetica,sans-Serif" font-size="10.00">_by&lt; hashed_unique&lt; tag</text>
<text text-anchor="start" x="1597" y="-140.35" font-family="Helvetica,sans-Serif" font-size="10.00">&lt; FiniteElement_Meshset_mi</text>
<text text-anchor="start" x="1597" y="-129.35" font-family="Helvetica,sans-Serif" font-size="10.00">_tag &gt;, member&lt; FiniteElement,</text>
<text text-anchor="start" x="1597" y="-118.35" font-family="Helvetica,sans-Serif" font-size="10.00"> EntityHandle, &amp;FiniteElement</text>
<text text-anchor="start" x="1597" y="-107.35" font-family="Helvetica,sans-Serif" font-size="10.00">::meshset &gt; &gt;, hashed_unique&lt;</text>
<text text-anchor="start" x="1597" y="-96.35" font-family="Helvetica,sans-Serif" font-size="10.00"> tag&lt; BitFEId_mi_tag &gt;, const_mem</text>
<text text-anchor="start" x="1597" y="-85.35" font-family="Helvetica,sans-Serif" font-size="10.00">_fun&lt; FiniteElement, BitFEId, &amp;FiniteElement</text>
<text text-anchor="start" x="1597" y="-74.35" font-family="Helvetica,sans-Serif" font-size="10.00">::getId &gt;, HashBit&lt; BitFEId &gt;, EqBit&lt; BitFEId</text>
<text text-anchor="start" x="1597" y="-63.35" font-family="Helvetica,sans-Serif" font-size="10.00"> &gt; &gt;, ordered_unique&lt; tag&lt; FiniteElement_name</text>
<text text-anchor="start" x="1597" y="-52.35" font-family="Helvetica,sans-Serif" font-size="10.00">_mi_tag &gt;, const_mem_fun&lt; FiniteElement, boost</text>
<text text-anchor="middle" x="1720.5" y="-41.35" font-family="Helvetica,sans-Serif" font-size="10.00">::string_ref, &amp;FiniteElement::getNameRef &gt; &gt; &gt; &gt;</text>
</g>
<!-- Node31 -->
<g id="node31" class="node">
<title>Node31</title>
<g id="a_node31"><a xlink:title=" ">
<polygon fill="white" stroke="#bfbfbf" points="1598,-877.85 1598,-1006.85 1843,-1006.85 1843,-877.85 1598,-877.85"/>
<text text-anchor="start" x="1606" y="-994.85" font-family="Helvetica,sans-Serif" font-size="10.00">multi_index_container</text>
<text text-anchor="start" x="1606" y="-983.85" font-family="Helvetica,sans-Serif" font-size="10.00">&lt; boost::shared_ptr&lt;</text>
<text text-anchor="start" x="1606" y="-972.85" font-family="Helvetica,sans-Serif" font-size="10.00"> EntFiniteElement &gt;, indexed</text>
<text text-anchor="start" x="1606" y="-961.85" font-family="Helvetica,sans-Serif" font-size="10.00">_by&lt; ordered_unique&lt; tag&lt;</text>
<text text-anchor="start" x="1606" y="-950.85" font-family="Helvetica,sans-Serif" font-size="10.00"> Unique_mi_tag &gt;, const_mem</text>
<text text-anchor="start" x="1606" y="-939.85" font-family="Helvetica,sans-Serif" font-size="10.00">_fun&lt; EntFiniteElement, UId,</text>
<text text-anchor="start" x="1606" y="-928.85" font-family="Helvetica,sans-Serif" font-size="10.00"> &amp;EntFiniteElement::getLocalUniqueId</text>
<text text-anchor="start" x="1606" y="-917.85" font-family="Helvetica,sans-Serif" font-size="10.00"> &gt; &gt;, ordered_non_unique&lt; tag&lt; Ent</text>
<text text-anchor="start" x="1606" y="-906.85" font-family="Helvetica,sans-Serif" font-size="10.00">_mi_tag &gt;, const_mem_fun&lt; EntFiniteElement</text>
<text text-anchor="start" x="1606" y="-895.85" font-family="Helvetica,sans-Serif" font-size="10.00">::interface_type_RefEntity, EntityHandle,</text>
<text text-anchor="middle" x="1720.5" y="-884.85" font-family="Helvetica,sans-Serif" font-size="10.00"> &amp;EntFiniteElement::getEnt &gt; &gt; &gt; &gt;</text>
</a>
</g>
</g>
<!-- Node10&#45;&gt;Node31 -->
<g id="edge38" class="edge">
<title>Node10&#45;&gt;Node31</title>
<path fill="none" stroke="orange" stroke-dasharray="5,2" d="M63.44,-747.95C64.49,-793.55 74.24,-906.57 143,-955.35 201.99,-997.19 1238.35,-961.07 1597.87,-947.21"/>
<polygon fill="orange" stroke="orange" points="66.94,-747.85 63.33,-737.88 59.94,-747.92 66.94,-747.85"/>
<text text-anchor="start" x="436" y="-1088.35" font-family="Helvetica,sans-Serif" font-size="10.00"> &lt; boost::shared_ptr</text>
<text text-anchor="start" x="436" y="-1077.35" font-family="Helvetica,sans-Serif" font-size="10.00">&lt; EntFiniteElement &gt;</text>
<text text-anchor="start" x="436" y="-1066.35" font-family="Helvetica,sans-Serif" font-size="10.00">, indexed_by&lt; ordered</text>
<text text-anchor="start" x="436" y="-1055.35" font-family="Helvetica,sans-Serif" font-size="10.00">_unique&lt; tag&lt; Unique_mi</text>
<text text-anchor="start" x="436" y="-1044.35" font-family="Helvetica,sans-Serif" font-size="10.00">_tag &gt;, const_mem_fun&lt; EntFinite</text>
<text text-anchor="start" x="436" y="-1033.35" font-family="Helvetica,sans-Serif" font-size="10.00">Element, UId, &amp;EntFiniteElement</text>
<text text-anchor="start" x="436" y="-1022.35" font-family="Helvetica,sans-Serif" font-size="10.00">::getLocalUniqueId &gt; &gt;, ordered</text>
<text text-anchor="start" x="436" y="-1011.35" font-family="Helvetica,sans-Serif" font-size="10.00">_non_unique&lt; tag&lt; Ent_mi_tag &gt;,</text>
<text text-anchor="start" x="436" y="-1000.35" font-family="Helvetica,sans-Serif" font-size="10.00"> const_mem_fun&lt; EntFiniteElement</text>
<text text-anchor="start" x="436" y="-989.35" font-family="Helvetica,sans-Serif" font-size="10.00">::interface_type_RefEntity, EntityHandle,</text>
<text text-anchor="middle" x="535.5" y="-978.35" font-family="Helvetica,sans-Serif" font-size="10.00"> &amp;EntFiniteElement::getEnt &gt; &gt; &gt; &gt;</text>
</g>
<!-- Node33 -->
<g id="node33" class="node">
<title>Node33</title>
<g id="a_node33"><a xlink:title=" ">
<polygon fill="white" stroke="#bfbfbf" points="2139,-416.85 2139,-545.85 2341,-545.85 2341,-416.85 2139,-416.85"/>
<text text-anchor="start" x="2147" y="-533.85" font-family="Helvetica,sans-Serif" font-size="10.00">multi_index_container</text>
<text text-anchor="start" x="2147" y="-522.85" font-family="Helvetica,sans-Serif" font-size="10.00">&lt; boost::shared_ptr&lt;</text>
<text text-anchor="start" x="2147" y="-511.85" font-family="Helvetica,sans-Serif" font-size="10.00"> DofEntity &gt;, indexed</text>
<text text-anchor="start" x="2147" y="-500.85" font-family="Helvetica,sans-Serif" font-size="10.00">_by&lt; ordered_unique&lt; tag</text>
<text text-anchor="start" x="2147" y="-489.85" font-family="Helvetica,sans-Serif" font-size="10.00">&lt; Unique_mi_tag &gt;, const</text>
<text text-anchor="start" x="2147" y="-478.85" font-family="Helvetica,sans-Serif" font-size="10.00">_mem_fun&lt; DofEntity, UId,</text>
<text text-anchor="start" x="2147" y="-467.85" font-family="Helvetica,sans-Serif" font-size="10.00"> &amp;DofEntity::getLocalUniqueId</text>
<text text-anchor="start" x="2147" y="-456.85" font-family="Helvetica,sans-Serif" font-size="10.00"> &gt; &gt;, ordered_non_unique&lt; tag</text>
<text text-anchor="start" x="2147" y="-445.85" font-family="Helvetica,sans-Serif" font-size="10.00">&lt; Ent_mi_tag &gt;, const_mem_fun</text>
<text text-anchor="start" x="2147" y="-434.85" font-family="Helvetica,sans-Serif" font-size="10.00">&lt; DofEntity, EntityHandle, &amp;DofEntity</text>
<text text-anchor="middle" x="2240" y="-423.85" font-family="Helvetica,sans-Serif" font-size="10.00">::getEnt &gt; &gt; &gt; &gt;</text>
</a>
</g>
</g>
<!-- Node10&#45;&gt;Node33 -->
<g id="edge41" class="edge">
<title>Node10&#45;&gt;Node33</title>
<path fill="none" stroke="orange" stroke-dasharray="5,2" d="M65.21,-708.48C71.26,-643.57 93.92,-439.65 143,-400.35 243.53,-319.84 1173.33,-380.86 1302,-386.35 1667,-401.92 1759.61,-402.83 2121,-456.35 2126.8,-457.2 2132.74,-458.17 2138.73,-459.22"/>
<polygon fill="orange" stroke="orange" points="61.71,-708.33 64.3,-718.6 68.68,-708.96 61.71,-708.33"/>
<text text-anchor="start" x="1031" y="-488.35" font-family="Helvetica,sans-Serif" font-size="10.00"> &lt; boost::shared_ptr</text>
<text text-anchor="start" x="1031" y="-477.35" font-family="Helvetica,sans-Serif" font-size="10.00">&lt; DofEntity &gt;, indexed</text>
<text text-anchor="start" x="1031" y="-466.35" font-family="Helvetica,sans-Serif" font-size="10.00">_by&lt; ordered_unique&lt; tag</text>
<text text-anchor="start" x="1031" y="-455.35" font-family="Helvetica,sans-Serif" font-size="10.00">&lt; Unique_mi_tag &gt;, const</text>
<text text-anchor="start" x="1031" y="-444.35" font-family="Helvetica,sans-Serif" font-size="10.00">_mem_fun&lt; DofEntity, UId,</text>
<text text-anchor="start" x="1031" y="-433.35" font-family="Helvetica,sans-Serif" font-size="10.00"> &amp;DofEntity::getLocalUniqueId</text>
<text text-anchor="start" x="1031" y="-422.35" font-family="Helvetica,sans-Serif" font-size="10.00"> &gt; &gt;, ordered_non_unique&lt; tag</text>
<text text-anchor="start" x="1031" y="-411.35" font-family="Helvetica,sans-Serif" font-size="10.00">&lt; Ent_mi_tag &gt;, const_mem_fun</text>
<text text-anchor="start" x="1031" y="-400.35" font-family="Helvetica,sans-Serif" font-size="10.00">&lt; DofEntity, EntityHandle, &amp;DofEntity</text>
<text text-anchor="middle" x="1124" y="-389.35" font-family="Helvetica,sans-Serif" font-size="10.00">::getEnt &gt; &gt; &gt; &gt;</text>
</g>
<!-- Node35 -->
<g id="node35" class="node">
<title>Node35</title>
<g id="a_node35"><a xlink:title=" ">
<polygon fill="white" stroke="#bfbfbf" points="2418.5,-1062.35 2418.5,-1158.35 2585.5,-1158.35 2585.5,-1062.35 2418.5,-1062.35"/>
<text text-anchor="start" x="2426.5" y="-1146.35" font-family="Helvetica,sans-Serif" font-size="10.00">multi_index_container</text>
<text text-anchor="start" x="2426.5" y="-1135.35" font-family="Helvetica,sans-Serif" font-size="10.00">&lt; boost::shared_ptr&lt;</text>
<text text-anchor="start" x="2426.5" y="-1124.35" font-family="Helvetica,sans-Serif" font-size="10.00"> RefElement &gt;, indexed</text>
<text text-anchor="start" x="2426.5" y="-1113.35" font-family="Helvetica,sans-Serif" font-size="10.00">_by&lt; ordered_unique&lt; tag</text>
<text text-anchor="start" x="2426.5" y="-1102.35" font-family="Helvetica,sans-Serif" font-size="10.00">&lt; Ent_mi_tag &gt;, const_mem</text>
<text text-anchor="start" x="2426.5" y="-1091.35" font-family="Helvetica,sans-Serif" font-size="10.00">_fun&lt; RefElement::interface</text>
<text text-anchor="start" x="2426.5" y="-1080.35" font-family="Helvetica,sans-Serif" font-size="10.00">_type_RefEntity, EntityHandle,</text>
<text text-anchor="middle" x="2502" y="-1069.35" font-family="Helvetica,sans-Serif" font-size="10.00"> &amp;RefElement::getEnt &gt; &gt; &gt; &gt;</text>
</a>
</g>
</g>
<!-- Node10&#45;&gt;Node35 -->
<g id="edge44" class="edge">
<title>Node10&#45;&gt;Node35</title>
<path fill="none" stroke="orange" stroke-dasharray="5,2" d="M64.24,-748.22C67.45,-822.34 82.86,-1080.94 143,-1130.35 185.45,-1165.23 2066.07,-1131.79 2121,-1130.35 2223.53,-1127.65 2341.46,-1120.87 2418.4,-1115.95"/>
<polygon fill="orange" stroke="orange" points="67.73,-747.82 63.82,-737.97 60.73,-748.1 67.73,-747.82"/>
<text text-anchor="start" x="1048.5" y="-1214.35" font-family="Helvetica,sans-Serif" font-size="10.00"> &lt; boost::shared_ptr</text>
<text text-anchor="start" x="1048.5" y="-1203.35" font-family="Helvetica,sans-Serif" font-size="10.00">&lt; RefElement &gt;, indexed</text>
<text text-anchor="start" x="1048.5" y="-1192.35" font-family="Helvetica,sans-Serif" font-size="10.00">_by&lt; ordered_unique&lt; tag</text>
<text text-anchor="start" x="1048.5" y="-1181.35" font-family="Helvetica,sans-Serif" font-size="10.00">&lt; Ent_mi_tag &gt;, const_mem</text>
<text text-anchor="start" x="1048.5" y="-1170.35" font-family="Helvetica,sans-Serif" font-size="10.00">_fun&lt; RefElement::interface</text>
<text text-anchor="start" x="1048.5" y="-1159.35" font-family="Helvetica,sans-Serif" font-size="10.00">_type_RefEntity, EntityHandle,</text>
<text text-anchor="middle" x="1124" y="-1148.35" font-family="Helvetica,sans-Serif" font-size="10.00"> &amp;RefElement::getEnt &gt; &gt; &gt; &gt;</text>
</g>
<!-- Node37 -->
<g id="node37" class="node">
<title>Node37</title>
<g id="a_node37"><a xlink:title=" ">
<polygon fill="white" stroke="#bfbfbf" points="2823.5,-903.35 2823.5,-1021.35 3053.5,-1021.35 3053.5,-903.35 2823.5,-903.35"/>
<text text-anchor="start" x="2831.5" y="-1009.35" font-family="Helvetica,sans-Serif" font-size="10.00">multi_index_container</text>
<text text-anchor="start" x="2831.5" y="-998.35" font-family="Helvetica,sans-Serif" font-size="10.00">&lt; boost::shared_ptr&lt;</text>
<text text-anchor="start" x="2831.5" y="-987.35" font-family="Helvetica,sans-Serif" font-size="10.00"> FieldEntity &gt;, indexed</text>
<text text-anchor="start" x="2831.5" y="-976.35" font-family="Helvetica,sans-Serif" font-size="10.00">_by&lt; ordered_unique&lt; tag</text>
<text text-anchor="start" x="2831.5" y="-965.35" font-family="Helvetica,sans-Serif" font-size="10.00">&lt; Unique_mi_tag &gt;, member</text>
<text text-anchor="start" x="2831.5" y="-954.35" font-family="Helvetica,sans-Serif" font-size="10.00">&lt; FieldEntity, UId, &amp;FieldEntity</text>
<text text-anchor="start" x="2831.5" y="-943.35" font-family="Helvetica,sans-Serif" font-size="10.00">::localUId &gt; &gt;, ordered_non_unique</text>
<text text-anchor="start" x="2831.5" y="-932.35" font-family="Helvetica,sans-Serif" font-size="10.00">&lt; tag&lt; Ent_mi_tag &gt;, const_mem_fun</text>
<text text-anchor="start" x="2831.5" y="-921.35" font-family="Helvetica,sans-Serif" font-size="10.00">&lt; FieldEntity::interface_type_RefEntity,</text>
<text text-anchor="middle" x="2938.5" y="-910.35" font-family="Helvetica,sans-Serif" font-size="10.00"> EntityHandle, &amp;FieldEntity::getEnt &gt; &gt; &gt; &gt;</text>
</a>
</g>
</g>
<!-- Node10&#45;&gt;Node37 -->
<g id="edge51" class="edge">
<title>Node10&#45;&gt;Node37</title>
<path fill="none" stroke="orange" stroke-dasharray="5,2" d="M64.57,-748.09C68.84,-818.46 87.19,-1055.2 143,-1100.35 210.81,-1155.2 841.15,-1108.36 928,-1100.35 1104.47,-1084.05 1143.74,-1045.73 1320,-1027.35 1674.18,-990.41 1765.18,-1022.58 2121,-1008.35 2371.75,-998.31 2665.47,-980.2 2823.29,-969.96"/>
<polygon fill="orange" stroke="orange" points="68.06,-747.73 63.99,-737.95 61.07,-748.13 68.06,-747.73"/>
<text text-anchor="start" x="1613.5" y="-1118.35" font-family="Helvetica,sans-Serif" font-size="10.00"> &lt; boost::shared_ptr</text>
<text text-anchor="start" x="1613.5" y="-1107.35" font-family="Helvetica,sans-Serif" font-size="10.00">&lt; FieldEntity &gt;, indexed</text>
<text text-anchor="start" x="1613.5" y="-1096.35" font-family="Helvetica,sans-Serif" font-size="10.00">_by&lt; ordered_unique&lt; tag</text>
<text text-anchor="start" x="1613.5" y="-1085.35" font-family="Helvetica,sans-Serif" font-size="10.00">&lt; Unique_mi_tag &gt;, member</text>
<text text-anchor="start" x="1613.5" y="-1074.35" font-family="Helvetica,sans-Serif" font-size="10.00">&lt; FieldEntity, UId, &amp;FieldEntity</text>
<text text-anchor="start" x="1613.5" y="-1063.35" font-family="Helvetica,sans-Serif" font-size="10.00">::localUId &gt; &gt;, ordered_non_unique</text>
<text text-anchor="start" x="1613.5" y="-1052.35" font-family="Helvetica,sans-Serif" font-size="10.00">&lt; tag&lt; Ent_mi_tag &gt;, const_mem_fun</text>
<text text-anchor="start" x="1613.5" y="-1041.35" font-family="Helvetica,sans-Serif" font-size="10.00">&lt; FieldEntity::interface_type_RefEntity,</text>
<text text-anchor="middle" x="1720.5" y="-1030.35" font-family="Helvetica,sans-Serif" font-size="10.00"> EntityHandle, &amp;FieldEntity::getEnt &gt; &gt; &gt; &gt;</text>
</g>
<!-- Node40 -->
<g id="node40" class="node">
<title>Node40</title>
<g id="a_node40"><a xlink:title=" ">
<polygon fill="white" stroke="#bfbfbf" points="1596,-731.35 1596,-871.35 1845,-871.35 1845,-731.35 1596,-731.35"/>
<text text-anchor="start" x="1604" y="-859.35" font-family="Helvetica,sans-Serif" font-size="10.00">multi_index_container</text>
<text text-anchor="start" x="1604" y="-848.35" font-family="Helvetica,sans-Serif" font-size="10.00">&lt; Problem, indexed_by</text>
<text text-anchor="start" x="1604" y="-837.35" font-family="Helvetica,sans-Serif" font-size="10.00">&lt; ordered_unique&lt; tag</text>
<text text-anchor="start" x="1604" y="-826.35" font-family="Helvetica,sans-Serif" font-size="10.00">&lt; Meshset_mi_tag &gt;, member</text>
<text text-anchor="start" x="1604" y="-815.35" font-family="Helvetica,sans-Serif" font-size="10.00">&lt; Problem, EntityHandle, &amp;Problem</text>
<text text-anchor="start" x="1604" y="-804.35" font-family="Helvetica,sans-Serif" font-size="10.00">::meshset &gt; &gt;, hashed_unique&lt; tag</text>
<text text-anchor="start" x="1604" y="-793.35" font-family="Helvetica,sans-Serif" font-size="10.00">&lt; BitProblemId_mi_tag &gt;, const_mem</text>
<text text-anchor="start" x="1604" y="-782.35" font-family="Helvetica,sans-Serif" font-size="10.00">_fun&lt; Problem, BitProblemId, &amp;Problem</text>
<text text-anchor="start" x="1604" y="-771.35" font-family="Helvetica,sans-Serif" font-size="10.00">::getId &gt;, HashBit&lt; BitProblemId &gt;, EqBit</text>
<text text-anchor="start" x="1604" y="-760.35" font-family="Helvetica,sans-Serif" font-size="10.00">&lt; BitProblemId &gt; &gt;, hashed_unique&lt; tag&lt;</text>
<text text-anchor="start" x="1604" y="-749.35" font-family="Helvetica,sans-Serif" font-size="10.00"> Problem_mi_tag &gt;, const_mem_fun&lt; Problem,</text>
<text text-anchor="middle" x="1720.5" y="-738.35" font-family="Helvetica,sans-Serif" font-size="10.00"> std::string, &amp;Problem::getName &gt; &gt; &gt; &gt;</text>
</a>
</g>
</g>
<!-- Node10&#45;&gt;Node40 -->
<g id="edge55" class="edge">
<title>Node10&#45;&gt;Node40</title>
<path fill="none" stroke="orange" stroke-dasharray="5,2" d="M73.51,-746.87C86.35,-768.44 110.86,-802.96 143,-817.35 208.85,-846.82 1235.92,-816.88 1595.96,-805.41"/>
<polygon fill="orange" stroke="orange" points="76.44,-744.94 68.45,-737.99 70.36,-748.41 76.44,-744.94"/>
<text text-anchor="start" x="401.5" y="-943.35" font-family="Helvetica,sans-Serif" font-size="10.00"> &lt; Problem, indexed</text>
<text text-anchor="start" x="401.5" y="-932.35" font-family="Helvetica,sans-Serif" font-size="10.00">_by&lt; ordered_unique</text>
<text text-anchor="start" x="401.5" y="-921.35" font-family="Helvetica,sans-Serif" font-size="10.00">&lt; tag&lt; Meshset_mi_tag</text>
<text text-anchor="start" x="401.5" y="-910.35" font-family="Helvetica,sans-Serif" font-size="10.00"> &gt;, member&lt; Problem, EntityHandle,</text>
<text text-anchor="start" x="401.5" y="-899.35" font-family="Helvetica,sans-Serif" font-size="10.00"> &amp;Problem::meshset &gt; &gt;, hashed</text>
<text text-anchor="start" x="401.5" y="-888.35" font-family="Helvetica,sans-Serif" font-size="10.00">_unique&lt; tag&lt; BitProblemId_mi_tag</text>
<text text-anchor="start" x="401.5" y="-877.35" font-family="Helvetica,sans-Serif" font-size="10.00"> &gt;, const_mem_fun&lt; Problem, BitProblemId,</text>
<text text-anchor="start" x="401.5" y="-866.35" font-family="Helvetica,sans-Serif" font-size="10.00"> &amp;Problem::getId &gt;, HashBit&lt; BitProblemId</text>
<text text-anchor="start" x="401.5" y="-855.35" font-family="Helvetica,sans-Serif" font-size="10.00"> &gt;, EqBit&lt; BitProblemId &gt; &gt;, hashed_unique</text>
<text text-anchor="start" x="401.5" y="-844.35" font-family="Helvetica,sans-Serif" font-size="10.00">&lt; tag&lt; Problem_mi_tag &gt;, const_mem_fun&lt; Problem,</text>
<text text-anchor="middle" x="535.5" y="-833.35" font-family="Helvetica,sans-Serif" font-size="10.00"> std::string, &amp;Problem::getName &gt; &gt; &gt; &gt;</text>
</g>
<!-- Node41 -->
<g id="node41" class="node">
<title>Node41</title>
<g id="a_node41"><a xlink:title=" ">
<polygon fill="white" stroke="#bfbfbf" points="946,-572.85 946,-789.85 1302,-789.85 1302,-572.85 946,-572.85"/>
<text text-anchor="start" x="954" y="-777.85" font-family="Helvetica,sans-Serif" font-size="10.00">multi_index_container</text>
<text text-anchor="start" x="954" y="-766.85" font-family="Helvetica,sans-Serif" font-size="10.00">&lt; boost::shared_ptr&lt;</text>
<text text-anchor="start" x="954" y="-755.85" font-family="Helvetica,sans-Serif" font-size="10.00"> RefEntity &gt;, indexed</text>
<text text-anchor="start" x="954" y="-744.85" font-family="Helvetica,sans-Serif" font-size="10.00">_by&lt; ordered_unique&lt; tag</text>
<text text-anchor="start" x="954" y="-733.85" font-family="Helvetica,sans-Serif" font-size="10.00">&lt; Ent_mi_tag &gt;, const_mem</text>
<text text-anchor="start" x="954" y="-722.85" font-family="Helvetica,sans-Serif" font-size="10.00">_fun&lt; RefEntity, EntityHandle,</text>
<text text-anchor="start" x="954" y="-711.85" font-family="Helvetica,sans-Serif" font-size="10.00"> &amp;RefEntity::getEnt &gt; &gt;, ordered</text>
<text text-anchor="start" x="954" y="-700.85" font-family="Helvetica,sans-Serif" font-size="10.00">_non_unique&lt; tag&lt; Ent_Ent_mi_tag</text>
<text text-anchor="start" x="954" y="-689.85" font-family="Helvetica,sans-Serif" font-size="10.00"> &gt;, const_mem_fun&lt; RefEntity, EntityHandle,</text>
<text text-anchor="start" x="954" y="-678.85" font-family="Helvetica,sans-Serif" font-size="10.00"> &amp;RefEntity::getParentEnt &gt; &gt;, ordered</text>
<text text-anchor="start" x="954" y="-667.85" font-family="Helvetica,sans-Serif" font-size="10.00">_non_unique&lt; tag&lt; Composite_EntType_and</text>
<text text-anchor="start" x="954" y="-656.85" font-family="Helvetica,sans-Serif" font-size="10.00">_ParentEntType_mi_tag &gt;, composite_key&lt; RefEntity,</text>
<text text-anchor="start" x="954" y="-645.85" font-family="Helvetica,sans-Serif" font-size="10.00"> const_mem_fun&lt; RefEntity, EntityType, &amp;RefEntity</text>
<text text-anchor="start" x="954" y="-634.85" font-family="Helvetica,sans-Serif" font-size="10.00">::getEntType &gt;, const_mem_fun&lt; RefEntity, EntityType,</text>
<text text-anchor="start" x="954" y="-623.85" font-family="Helvetica,sans-Serif" font-size="10.00"> &amp;RefEntity::getParentEntType &gt; &gt; &gt;, ordered_non_unique</text>
<text text-anchor="start" x="954" y="-612.85" font-family="Helvetica,sans-Serif" font-size="10.00">&lt; tag&lt; Composite_ParentEnt_And_EntType_mi_tag &gt;, composite</text>
<text text-anchor="start" x="954" y="-601.85" font-family="Helvetica,sans-Serif" font-size="10.00">_key&lt; RefEntity, const_mem_fun&lt; RefEntity, EntityType, &amp;RefEntity</text>
<text text-anchor="start" x="954" y="-590.85" font-family="Helvetica,sans-Serif" font-size="10.00">::getEntType &gt;, const_mem_fun&lt; RefEntity, EntityHandle, &amp;RefEntity</text>
<text text-anchor="middle" x="1124" y="-579.85" font-family="Helvetica,sans-Serif" font-size="10.00">::getParentEnt &gt; &gt; &gt; &gt; &gt;</text>
</a>
</g>
</g>
<!-- Node10&#45;&gt;Node41 -->
<g id="edge57" class="edge">
<title>Node10&#45;&gt;Node41</title>
<path fill="none" stroke="orange" stroke-dasharray="5,2" d="M70.88,-709.22C82.04,-683.32 105.93,-638.19 143,-619.35 220.75,-579.82 841.81,-605.97 928,-619.35 933.88,-620.26 939.83,-621.32 945.8,-622.5"/>
<polygon fill="orange" stroke="orange" points="67.54,-708.12 66.99,-718.7 74.02,-710.78 67.54,-708.12"/>
<text text-anchor="start" x="365.5" y="-809.35" font-family="Helvetica,sans-Serif" font-size="10.00"> &lt; boost::shared_ptr</text>
<text text-anchor="start" x="365.5" y="-798.35" font-family="Helvetica,sans-Serif" font-size="10.00">&lt; RefEntity &gt;, indexed</text>
<text text-anchor="start" x="365.5" y="-787.35" font-family="Helvetica,sans-Serif" font-size="10.00">_by&lt; ordered_unique&lt; tag</text>
<text text-anchor="start" x="365.5" y="-776.35" font-family="Helvetica,sans-Serif" font-size="10.00">&lt; Ent_mi_tag &gt;, const_mem</text>
<text text-anchor="start" x="365.5" y="-765.35" font-family="Helvetica,sans-Serif" font-size="10.00">_fun&lt; RefEntity, EntityHandle,</text>
<text text-anchor="start" x="365.5" y="-754.35" font-family="Helvetica,sans-Serif" font-size="10.00"> &amp;RefEntity::getEnt &gt; &gt;, ordered</text>
<text text-anchor="start" x="365.5" y="-743.35" font-family="Helvetica,sans-Serif" font-size="10.00">_non_unique&lt; tag&lt; Ent_Ent_mi_tag</text>
<text text-anchor="start" x="365.5" y="-732.35" font-family="Helvetica,sans-Serif" font-size="10.00"> &gt;, const_mem_fun&lt; RefEntity, EntityHandle,</text>
<text text-anchor="start" x="365.5" y="-721.35" font-family="Helvetica,sans-Serif" font-size="10.00"> &amp;RefEntity::getParentEnt &gt; &gt;, ordered</text>
<text text-anchor="start" x="365.5" y="-710.35" font-family="Helvetica,sans-Serif" font-size="10.00">_non_unique&lt; tag&lt; Composite_EntType_and</text>
<text text-anchor="start" x="365.5" y="-699.35" font-family="Helvetica,sans-Serif" font-size="10.00">_ParentEntType_mi_tag &gt;, composite_key&lt; RefEntity,</text>
<text text-anchor="start" x="365.5" y="-688.35" font-family="Helvetica,sans-Serif" font-size="10.00"> const_mem_fun&lt; RefEntity, EntityType, &amp;RefEntity</text>
<text text-anchor="start" x="365.5" y="-677.35" font-family="Helvetica,sans-Serif" font-size="10.00">::getEntType &gt;, const_mem_fun&lt; RefEntity, EntityType,</text>
<text text-anchor="start" x="365.5" y="-666.35" font-family="Helvetica,sans-Serif" font-size="10.00"> &amp;RefEntity::getParentEntType &gt; &gt; &gt;, ordered_non_unique</text>
<text text-anchor="start" x="365.5" y="-655.35" font-family="Helvetica,sans-Serif" font-size="10.00">&lt; tag&lt; Composite_ParentEnt_And_EntType_mi_tag &gt;, composite</text>
<text text-anchor="start" x="365.5" y="-644.35" font-family="Helvetica,sans-Serif" font-size="10.00">_key&lt; RefEntity, const_mem_fun&lt; RefEntity, EntityType, &amp;RefEntity</text>
<text text-anchor="start" x="365.5" y="-633.35" font-family="Helvetica,sans-Serif" font-size="10.00">::getEntType &gt;, const_mem_fun&lt; RefEntity, EntityHandle, &amp;RefEntity</text>
<text text-anchor="middle" x="535.5" y="-622.35" font-family="Helvetica,sans-Serif" font-size="10.00">::getParentEnt &gt; &gt; &gt; &gt; &gt;</text>
</g>
<!-- Node11 -->
<g id="node11" class="node">
<title>Node11</title>
<g id="a_node11"><a xlink:title=" ">
<polygon fill="white" stroke="#bfbfbf" points="3186,-1451.85 3186,-1470.85 3215,-1470.85 3215,-1451.85 3186,-1451.85"/>
<text text-anchor="middle" x="3200.5" y="-1458.85" font-family="Helvetica,sans-Serif" font-size="10.00">int</text>
</a>
</g>
</g>
<!-- Node11&#45;&gt;Node1 -->
<g id="edge10" class="edge">
<title>Node11&#45;&gt;Node1</title>
<path fill="none" stroke="#9a32cd" stroke-dasharray="5,2" d="M3225.04,-1465.79C3250.93,-1470.53 3293.79,-1477.95 3331,-1482.35 3591.69,-1513.16 3658.8,-1500.17 3920,-1526.35 3997.68,-1534.13 4086.57,-1545.69 4146.09,-1553.81"/>
<polygon fill="#9a32cd" stroke="#9a32cd" points="3225.53,-1462.32 3215.06,-1463.94 3224.25,-1469.2 3225.53,-1462.32"/>
<text text-anchor="middle" x="3840" y="-1540.35" font-family="Helvetica,sans-Serif" font-size="10.00"> atom_test</text>
<text text-anchor="middle" x="3840" y="-1529.35" font-family="Helvetica,sans-Serif" font-size="10.00">oRder</text>
</g>
<!-- Node11&#45;&gt;Node12 -->
<g id="edge19" class="edge">
<title>Node11&#45;&gt;Node12</title>
<path fill="none" stroke="#9a32cd" stroke-dasharray="5,2" d="M3225.52,-1463.24C3302.04,-1468.65 3546.53,-1481.21 3742,-1438.35 3825.52,-1420.03 3865.36,-1431.11 3920,-1365.35 3958.8,-1318.65 3978.19,-1118.26 3982.21,-1071.93"/>
<polygon fill="#9a32cd" stroke="#9a32cd" points="3225.32,-1459.71 3215.09,-1462.47 3224.81,-1466.7 3225.32,-1459.71"/>
<text text-anchor="middle" x="3636" y="-1468.35" font-family="Helvetica,sans-Serif" font-size="10.00"> dIm</text>
</g>
<!-- Node24 -->
<g id="node24" class="node">
<title>Node24</title>
<g id="a_node24"><a xlink:href="structMoFEM_1_1CoreTmp_3_010_01_4.html" target="_top" xlink:title="Core (interface) class.">
<polygon fill="white" stroke="black" points="3570.5,-966.85 3570.5,-985.85 3701.5,-985.85 3701.5,-966.85 3570.5,-966.85"/>
<text text-anchor="middle" x="3636" y="-973.85" font-family="Helvetica,sans-Serif" font-size="10.00">MoFEM::CoreTmp&lt; 0 &gt;</text>
</a>
</g>
</g>
<!-- Node11&#45;&gt;Node24 -->
<g id="edge45" class="edge">
<title>Node11&#45;&gt;Node24</title>
<path fill="none" stroke="#9a32cd" stroke-dasharray="5,2" d="M3223.76,-1448.19C3289.33,-1408.94 3479.19,-1291.47 3512,-1228.35 3535.95,-1182.27 3495.2,-1033.89 3530,-995.35 3540.37,-983.86 3555.14,-977.85 3570.35,-974.96"/>
<polygon fill="#9a32cd" stroke="#9a32cd" points="3221.82,-1445.27 3215.02,-1453.4 3225.4,-1451.29 3221.82,-1445.27"/>
<text text-anchor="middle" x="3421.5" y="-1437.35" font-family="Helvetica,sans-Serif" font-size="10.00"> sIze</text>
<text text-anchor="middle" x="3421.5" y="-1426.35" font-family="Helvetica,sans-Serif" font-size="10.00">mpiInitialised</text>
<text text-anchor="middle" x="3421.5" y="-1415.35" font-family="Helvetica,sans-Serif" font-size="10.00">value</text>
<text text-anchor="middle" x="3421.5" y="-1404.35" font-family="Helvetica,sans-Serif" font-size="10.00">verbose</text>
<text text-anchor="middle" x="3421.5" y="-1393.35" font-family="Helvetica,sans-Serif" font-size="10.00">buildMoFEM</text>
<text text-anchor="middle" x="3421.5" y="-1382.35" font-family="Helvetica,sans-Serif" font-size="10.00">rAnk</text>
</g>
<!-- Node12&#45;&gt;Node1 -->
<g id="edge11" class="edge">
<title>Node12&#45;&gt;Node1</title>
<path fill="none" stroke="#9a32cd" stroke-dasharray="5,2" d="M3993.57,-1081.1C4031.29,-1163.61 4181.82,-1492.93 4209.58,-1553.68"/>
<polygon fill="#9a32cd" stroke="#9a32cd" points="3996.71,-1079.55 3989.37,-1071.91 3990.34,-1082.46 3996.71,-1079.55"/>
<text text-anchor="middle" x="4088" y="-1376.35" font-family="Helvetica,sans-Serif" font-size="10.00"> simpleInterface</text>
</g>
<!-- Node13 -->
<g id="node13" class="node">
<title>Node13</title>
<g id="a_node13"><a xlink:title=" ">
<polygon fill="white" stroke="#bfbfbf" points="3553.5,-846.85 3553.5,-887.85 3718.5,-887.85 3718.5,-846.85 3553.5,-846.85"/>
<text text-anchor="start" x="3561.5" y="-875.85" font-family="Helvetica,sans-Serif" font-size="10.00">shared_ptr&lt; MoFEM::</text>
<text text-anchor="start" x="3561.5" y="-864.85" font-family="Helvetica,sans-Serif" font-size="10.00">ParentFiniteElementAdjacency</text>
<text text-anchor="middle" x="3636" y="-853.85" font-family="Helvetica,sans-Serif" font-size="10.00">FunctionSkeleton&lt; 1 &gt; &gt;</text>
</a>
</g>
</g>
<!-- Node13&#45;&gt;Node12 -->
<g id="edge13" class="edge">
<title>Node13&#45;&gt;Node12</title>
<path fill="none" stroke="#9a32cd" stroke-dasharray="5,2" d="M3729.01,-852.34C3789.22,-847.74 3866.37,-852.34 3920,-893.35 3972.73,-933.67 3981.33,-1023.1 3982.73,-1052.66"/>
<polygon fill="#9a32cd" stroke="#9a32cd" points="3728.4,-848.88 3718.74,-853.23 3729,-855.86 3728.4,-848.88"/>
<text text-anchor="middle" x="3840" y="-896.35" font-family="Helvetica,sans-Serif" font-size="10.00"> parentAdjSkeletonFunctionDim1</text>
</g>
<!-- Node14 -->
<g id="node14" class="node">
<title>Node14</title>
<g id="a_node14"><a xlink:title=" ">
<polygon fill="white" stroke="#bfbfbf" points="3553.5,-786.85 3553.5,-827.85 3718.5,-827.85 3718.5,-786.85 3553.5,-786.85"/>
<text text-anchor="start" x="3561.5" y="-815.85" font-family="Helvetica,sans-Serif" font-size="10.00">shared_ptr&lt; MoFEM::</text>
<text text-anchor="start" x="3561.5" y="-804.85" font-family="Helvetica,sans-Serif" font-size="10.00">ParentFiniteElementAdjacency</text>
<text text-anchor="middle" x="3636" y="-793.85" font-family="Helvetica,sans-Serif" font-size="10.00">Function&lt; 2 &gt; &gt;</text>
</a>
</g>
</g>
<!-- Node14&#45;&gt;Node12 -->
<g id="edge14" class="edge">
<title>Node14&#45;&gt;Node12</title>
<path fill="none" stroke="#9a32cd" stroke-dasharray="5,2" d="M3728.65,-792.15C3789.66,-787.41 3867.87,-792.39 3920,-836.35 3954.49,-865.42 3976.46,-1013.37 3981.75,-1052.72"/>
<polygon fill="#9a32cd" stroke="#9a32cd" points="3728.29,-788.67 3718.63,-793.03 3728.9,-795.64 3728.29,-788.67"/>
<text text-anchor="middle" x="3840" y="-839.35" font-family="Helvetica,sans-Serif" font-size="10.00"> parentAdjFunctionDim2</text>
</g>
<!-- Node15 -->
<g id="node15" class="node">
<title>Node15</title>
<g id="a_node15"><a xlink:title=" ">
<polygon fill="white" stroke="#bfbfbf" points="3553.5,-726.85 3553.5,-767.85 3718.5,-767.85 3718.5,-726.85 3553.5,-726.85"/>
<text text-anchor="start" x="3561.5" y="-755.85" font-family="Helvetica,sans-Serif" font-size="10.00">shared_ptr&lt; MoFEM::</text>
<text text-anchor="start" x="3561.5" y="-744.85" font-family="Helvetica,sans-Serif" font-size="10.00">ParentFiniteElementAdjacency</text>
<text text-anchor="middle" x="3636" y="-733.85" font-family="Helvetica,sans-Serif" font-size="10.00">Function&lt; 3 &gt; &gt;</text>
</a>
</g>
</g>
<!-- Node15&#45;&gt;Node12 -->
<g id="edge15" class="edge">
<title>Node15&#45;&gt;Node12</title>
<path fill="none" stroke="#9a32cd" stroke-dasharray="5,2" d="M3729.02,-745.47C3800.68,-746.02 3892.46,-751.8 3920,-776.35 3962.79,-814.49 3979.08,-1007.35 3982.35,-1052.76"/>
<polygon fill="#9a32cd" stroke="#9a32cd" points="3728.61,-741.97 3718.6,-745.43 3728.58,-748.97 3728.61,-741.97"/>
<text text-anchor="middle" x="3840" y="-779.35" font-family="Helvetica,sans-Serif" font-size="10.00"> parentAdjFunctionDim3</text>
</g>
<!-- Node16 -->
<g id="node16" class="node">
<title>Node16</title>
<g id="a_node16"><a xlink:href="classEntityHandle.html" target="_top" xlink:title=" ">
<polygon fill="white" stroke="black" points="3596,-688.85 3596,-707.85 3676,-707.85 3676,-688.85 3596,-688.85"/>
<text text-anchor="middle" x="3636" y="-695.85" font-family="Helvetica,sans-Serif" font-size="10.00">EntityHandle</text>
</a>
</g>
</g>
<!-- Node16&#45;&gt;Node12 -->
<g id="edge16" class="edge">
<title>Node16&#45;&gt;Node12</title>
<path fill="none" stroke="#9a32cd" stroke-dasharray="5,2" d="M3686.32,-693.16C3758.06,-686.76 3886.34,-680.03 3920,-709.35 3973.63,-756.06 3981.71,-1000.61 3982.83,-1052.62"/>
<polygon fill="#9a32cd" stroke="#9a32cd" points="3685.8,-689.69 3676.16,-694.1 3686.44,-696.66 3685.8,-689.69"/>
<text text-anchor="middle" x="3840" y="-734.35" font-family="Helvetica,sans-Serif" font-size="10.00"> boundaryMeshset</text>
<text text-anchor="middle" x="3840" y="-723.35" font-family="Helvetica,sans-Serif" font-size="10.00">meshSet</text>
<text text-anchor="middle" x="3840" y="-712.35" font-family="Helvetica,sans-Serif" font-size="10.00">skeletonMeshset</text>
</g>
<!-- Node17 -->
<g id="node17" class="node">
<title>Node17</title>
<g id="a_node17"><a xlink:title=" ">
<polygon fill="white" stroke="#bfbfbf" points="3617,-650.85 3617,-669.85 3655,-669.85 3655,-650.85 3617,-650.85"/>
<text text-anchor="middle" x="3636" y="-657.85" font-family="Helvetica,sans-Serif" font-size="10.00">char</text>
</a>
</g>
</g>
<!-- Node17&#45;&gt;Node12 -->
<g id="edge17" class="edge">
<title>Node17&#45;&gt;Node12</title>
<path fill="none" stroke="#9a32cd" stroke-dasharray="5,2" d="M3665.58,-657.32C3729.87,-651.18 3883.12,-640.47 3920,-673.35 3978.73,-725.7 3982.78,-997.98 3983,-1052.74"/>
<polygon fill="#9a32cd" stroke="#9a32cd" points="3664.97,-653.87 3655.36,-658.33 3665.65,-660.83 3664.97,-653.87"/>
<text text-anchor="middle" x="3840" y="-676.35" font-family="Helvetica,sans-Serif" font-size="10.00"> meshFileName</text>
</g>
<!-- Node18 -->
<g id="node18" class="node">
<title>Node18</title>
<g id="a_node18"><a xlink:title=" ">
<polygon fill="white" stroke="#bfbfbf" points="3576.5,-552.85 3576.5,-571.85 3695.5,-571.85 3695.5,-552.85 3576.5,-552.85"/>
<text text-anchor="middle" x="3636" y="-559.85" font-family="Helvetica,sans-Serif" font-size="10.00">vector&lt; std::string &gt;</text>
</a>
</g>
</g>
<!-- Node18&#45;&gt;Node12 -->
<g id="edge18" class="edge">
<title>Node18&#45;&gt;Node12</title>
<path fill="none" stroke="#9a32cd" stroke-dasharray="5,2" d="M3674.4,-549.85C3734.46,-532.38 3852.49,-509.22 3920,-570.35 3957.34,-604.16 3979.06,-987.23 3982.51,-1052.82"/>
<polygon fill="#9a32cd" stroke="#9a32cd" points="3673.15,-546.57 3664.58,-552.8 3675.17,-553.27 3673.15,-546.57"/>
<text text-anchor="middle" x="3840" y="-639.35" font-family="Helvetica,sans-Serif" font-size="10.00"> boundaryFields</text>
<text text-anchor="middle" x="3840" y="-628.35" font-family="Helvetica,sans-Serif" font-size="10.00">otherFEs</text>
<text text-anchor="middle" x="3840" y="-617.35" font-family="Helvetica,sans-Serif" font-size="10.00">noFieldDataFields</text>
<text text-anchor="middle" x="3840" y="-606.35" font-family="Helvetica,sans-Serif" font-size="10.00">dataFields</text>
<text text-anchor="middle" x="3840" y="-595.35" font-family="Helvetica,sans-Serif" font-size="10.00">skeletonFields</text>
<text text-anchor="middle" x="3840" y="-584.35" font-family="Helvetica,sans-Serif" font-size="10.00">noFieldFields</text>
<text text-anchor="middle" x="3840" y="-573.35" font-family="Helvetica,sans-Serif" font-size="10.00">domainFields</text>
</g>
<!-- Node19 -->
<g id="node19" class="node">
<title>Node19</title>
<g id="a_node19"><a xlink:title=" ">
<polygon fill="white" stroke="#bfbfbf" points="3178.5,-1363.85 3178.5,-1382.85 3222.5,-1382.85 3222.5,-1363.85 3178.5,-1363.85"/>
<text text-anchor="middle" x="3200.5" y="-1370.85" font-family="Helvetica,sans-Serif" font-size="10.00">string</text>
</a>
</g>
</g>
<!-- Node19&#45;&gt;Node12 -->
<g id="edge20" class="edge">
<title>Node19&#45;&gt;Node12</title>
<path fill="none" stroke="#9a32cd" stroke-dasharray="5,2" d="M3232.77,-1376.16C3357.69,-1386.69 3819.08,-1418.53 3920,-1324.35 3958.31,-1288.6 3977.81,-1114.81 3982.09,-1071.93"/>
<polygon fill="#9a32cd" stroke="#9a32cd" points="3232.98,-1372.67 3222.72,-1375.3 3232.38,-1379.64 3232.98,-1372.67"/>
<text text-anchor="middle" x="3636" y="-1426.35" font-family="Helvetica,sans-Serif" font-size="10.00"> boundaryFE</text>
<text text-anchor="middle" x="3636" y="-1415.35" font-family="Helvetica,sans-Serif" font-size="10.00">nameOfProblem</text>
<text text-anchor="middle" x="3636" y="-1404.35" font-family="Helvetica,sans-Serif" font-size="10.00">domainFE</text>
<text text-anchor="middle" x="3636" y="-1393.35" font-family="Helvetica,sans-Serif" font-size="10.00">skeletonFE</text>
</g>
<!-- Node19&#45;&gt;Node24 -->
<g id="edge47" class="edge">
<title>Node19&#45;&gt;Node24</title>
<path fill="none" stroke="#9a32cd" stroke-dasharray="5,2" d="M3233.02,-1372.5C3258.49,-1370.03 3293.25,-1362.3 3313,-1339.35 3348.75,-1297.8 3291.86,-1255.71 3331,-1217.35 3388.91,-1160.58 3455.71,-1252.71 3512,-1194.35 3542.82,-1162.38 3500.03,-1028.11 3530,-995.35 3540.44,-983.93 3555.24,-977.94 3570.45,-975.05"/>
<polygon fill="#9a32cd" stroke="#9a32cd" points="3232.46,-1369.03 3222.75,-1373.26 3232.98,-1376.01 3232.46,-1369.03"/>
<text text-anchor="middle" x="3421.5" y="-1220.35" font-family="Helvetica,sans-Serif" font-size="10.00"> optionsPrefix</text>
</g>
<!-- Node20 -->
<g id="node20" class="node">
<title>Node20</title>
<g id="a_node20"><a xlink:href="classbool.html" target="_top" xlink:title=" ">
<polygon fill="white" stroke="black" points="3181.5,-1241.85 3181.5,-1260.85 3219.5,-1260.85 3219.5,-1241.85 3181.5,-1241.85"/>
<text text-anchor="middle" x="3200.5" y="-1248.85" font-family="Helvetica,sans-Serif" font-size="10.00">bool</text>
</a>
</g>
</g>
<!-- Node20&#45;&gt;Node12 -->
<g id="edge21" class="edge">
<title>Node20&#45;&gt;Node12</title>
<path fill="none" stroke="#9a32cd" stroke-dasharray="5,2" d="M3229.36,-1261.1C3252.67,-1269.9 3286.31,-1284.08 3313,-1301.35 3321.99,-1307.16 3321,-1313.54 3331,-1317.35 3368.6,-1331.64 3481.94,-1344.07 3512,-1317.35 3563.17,-1271.85 3481.9,-1213.07 3530,-1164.35 3591.4,-1102.14 3839.68,-1147.81 3920,-1113.35 3942.24,-1103.8 3963.04,-1084.06 3974.29,-1072.13"/>
<polygon fill="#9a32cd" stroke="#9a32cd" points="3230.33,-1257.74 3219.74,-1257.56 3227.91,-1264.3 3230.33,-1257.74"/>
<text text-anchor="middle" x="3636" y="-1189.35" font-family="Helvetica,sans-Serif" font-size="10.00"> addParentAdjacencies</text>
<text text-anchor="middle" x="3636" y="-1178.35" font-family="Helvetica,sans-Serif" font-size="10.00">addSkeletonFE</text>
<text text-anchor="middle" x="3636" y="-1167.35" font-family="Helvetica,sans-Serif" font-size="10.00">addBoundaryFE</text>
</g>
<!-- Node20&#45;&gt;Node24 -->
<g id="edge46" class="edge">
<title>Node20&#45;&gt;Node24</title>
<path fill="none" stroke="#9a32cd" stroke-dasharray="5,2" d="M3228.73,-1238.23C3253.99,-1224.76 3290.9,-1201.51 3313,-1171.35 3328.2,-1150.6 3311.17,-1132.73 3331,-1116.35 3393.52,-1064.7 3453.1,-1149.08 3512,-1093.35 3544.17,-1062.91 3498.65,-1026.62 3530,-995.35 3540.76,-984.62 3555.39,-978.81 3570.32,-975.88"/>
<polygon fill="#9a32cd" stroke="#9a32cd" points="3226.96,-1235.21 3219.68,-1242.91 3230.17,-1241.43 3226.96,-1235.21"/>
<text text-anchor="middle" x="3421.5" y="-1119.35" font-family="Helvetica,sans-Serif" font-size="10.00"> isGloballyInitialised</text>
</g>
<!-- Node21 -->
<g id="node21" class="node">
<title>Node21</title>
<g id="a_node21"><a xlink:title=" ">
<polygon fill="white" stroke="#bfbfbf" points="3156.5,-1310.85 3156.5,-1329.85 3244.5,-1329.85 3244.5,-1310.85 3156.5,-1310.85"/>
<text text-anchor="middle" x="3200.5" y="-1317.85" font-family="Helvetica,sans-Serif" font-size="10.00">PetscLogEvent</text>
</a>
</g>
</g>
<!-- Node21&#45;&gt;Node12 -->
<g id="edge22" class="edge">
<title>Node21&#45;&gt;Node12</title>
<path fill="none" stroke="#9a32cd" stroke-dasharray="5,2" d="M3253.93,-1331.97C3332.19,-1347.95 3474.41,-1371.33 3512,-1339.35 3550.06,-1306.96 3494.39,-1263.41 3530,-1228.35 3563.93,-1194.94 3695.75,-1208.67 3742,-1197.35 3823.37,-1177.42 3850.72,-1182.44 3920,-1135.35 3945.47,-1118.03 3966.88,-1087.89 3976.9,-1072.31"/>
<polygon fill="#9a32cd" stroke="#9a32cd" points="3254.29,-1328.47 3243.79,-1329.86 3252.87,-1335.32 3254.29,-1328.47"/>
<text text-anchor="middle" x="3636" y="-1286.35" font-family="Helvetica,sans-Serif" font-size="10.00"> MOFEM_EVENT_SimpleBuildFields</text>
<text text-anchor="middle" x="3636" y="-1275.35" font-family="Helvetica,sans-Serif" font-size="10.00">MOFEM_EVENT_SimpleLoadMesh</text>
<text text-anchor="middle" x="3636" y="-1264.35" font-family="Helvetica,sans-Serif" font-size="10.00">MOFEM_EVENT_SimpleBuildFiniteElements</text>
<text text-anchor="middle" x="3636" y="-1253.35" font-family="Helvetica,sans-Serif" font-size="10.00">MOFEM_EVENT_SimpleSetUP</text>
<text text-anchor="middle" x="3636" y="-1242.35" font-family="Helvetica,sans-Serif" font-size="10.00">MOFEM_EVENT_SimpleBuildProblem</text>
<text text-anchor="middle" x="3636" y="-1231.35" font-family="Helvetica,sans-Serif" font-size="10.00">MOFEM_EVENT_SimpleKSPSolve</text>
</g>
<!-- Node21&#45;&gt;Node24 -->
<g id="edge49" class="edge">
<title>Node21&#45;&gt;Node24</title>
<path fill="none" stroke="#9a32cd" stroke-dasharray="5,2" d="M3254.34,-1308.54C3275.73,-1301.09 3298.71,-1289.18 3313,-1270.35 3345.6,-1227.38 3292.44,-1188.05 3331,-1150.35 3388.98,-1093.65 3454.4,-1184.42 3512,-1127.35 3554.06,-1085.67 3489.05,-1038.11 3530,-995.35 3540.57,-984.31 3555.23,-978.41 3570.25,-975.49"/>
<polygon fill="#9a32cd" stroke="#9a32cd" points="3253.11,-1305.26 3244.66,-1311.65 3255.25,-1311.92 3253.11,-1305.26"/>
<text text-anchor="middle" x="3421.5" y="-1186.35" font-family="Helvetica,sans-Serif" font-size="10.00"> MOFEM_EVENT_createMat</text>
<text text-anchor="middle" x="3421.5" y="-1175.35" font-family="Helvetica,sans-Serif" font-size="10.00">MOFEM_EVENT_postProcess</text>
<text text-anchor="middle" x="3421.5" y="-1164.35" font-family="Helvetica,sans-Serif" font-size="10.00">MOFEM_EVENT_preProcess</text>
<text text-anchor="middle" x="3421.5" y="-1153.35" font-family="Helvetica,sans-Serif" font-size="10.00">MOFEM_EVENT_operator</text>
</g>
<!-- Node22&#45;&gt;Node12 -->
<g id="edge23" class="edge">
<title>Node22&#45;&gt;Node12</title>
<path fill="none" stroke="#9a32cd" stroke-dasharray="5,2" d="M3711.7,-1584.5C3785.5,-1584.91 3891.37,-1580.35 3920,-1552.35 3955.8,-1517.34 3978.7,-1138.54 3982.46,-1072.22"/>
<polygon fill="#9a32cd" stroke="#9a32cd" points="3711.55,-1581 3701.52,-1584.41 3711.48,-1588 3711.55,-1581"/>
<text text-anchor="middle" x="3840" y="-1587.35" font-family="Helvetica,sans-Serif" font-size="10.00"> dM</text>
</g>
<!-- Node23 -->
<g id="node23" class="node">
<title>Node23</title>
<g id="a_node23"><a xlink:title=" ">
<polygon fill="white" stroke="#bfbfbf" points="3137.5,-1560.85 3137.5,-1601.85 3263.5,-1601.85 3263.5,-1560.85 3137.5,-1560.85"/>
<text text-anchor="start" x="3145.5" y="-1589.85" font-family="Helvetica,sans-Serif" font-size="10.00">boost::intrusive_ptr</text>
<text text-anchor="start" x="3145.5" y="-1578.85" font-family="Helvetica,sans-Serif" font-size="10.00">&lt; std::remove_pointer</text>
<text text-anchor="middle" x="3200.5" y="-1567.85" font-family="Helvetica,sans-Serif" font-size="10.00">&lt; DM &gt;::type &gt;</text>
</a>
</g>
</g>
<!-- Node23&#45;&gt;Node22 -->
<g id="edge24" class="edge">
<title>Node23&#45;&gt;Node22</title>
<path fill="none" stroke="midnightblue" d="M3273.68,-1581.51C3356.38,-1581.7 3490.69,-1582.01 3570.17,-1582.2"/>
<polygon fill="midnightblue" stroke="midnightblue" points="3273.62,-1578.01 3263.61,-1581.49 3273.6,-1585.01 3273.62,-1578.01"/>
</g>
<!-- Node24&#45;&gt;Node12 -->
<g id="edge26" class="edge">
<title>Node24&#45;&gt;Node12</title>
<path fill="none" stroke="#9a32cd" stroke-dasharray="5,2" d="M3689.34,-965.02C3748.64,-954.96 3846.57,-946.86 3920,-983.35 3950.16,-998.33 3970.52,-1035.28 3978.81,-1052.81"/>
<polygon fill="#9a32cd" stroke="#9a32cd" points="3688.68,-961.59 3679.45,-966.78 3689.91,-968.48 3688.68,-961.59"/>
<text text-anchor="middle" x="3840" y="-986.35" font-family="Helvetica,sans-Serif" font-size="10.00"> cOre</text>
</g>
<!-- Node25&#45;&gt;Node24 -->
<g id="edge27" class="edge">
<title>Node25&#45;&gt;Node24</title>
<path fill="none" stroke="midnightblue" d="M3240.59,-1149.68C3263.47,-1146.47 3291.91,-1139.49 3313,-1124.35 3325.02,-1115.72 3318.6,-1104.41 3331,-1096.35 3399.25,-1051.98 3451.96,-1123.31 3512,-1068.35 3536.65,-1045.78 3505.64,-1018.22 3530,-995.35 3541.01,-985.01 3555.65,-979.33 3570.49,-976.39"/>
<polygon fill="midnightblue" stroke="midnightblue" points="3240.02,-1146.22 3230.51,-1150.9 3240.86,-1153.17 3240.02,-1146.22"/>
</g>
<!-- Node26&#45;&gt;Node24 -->
<g id="edge29" class="edge">
<title>Node26&#45;&gt;Node24</title>
<path fill="none" stroke="#9a32cd" stroke-dasharray="5,2" d="M2131.17,-639.44C2250.02,-655.83 2380.3,-668.35 2501,-668.35 2501,-668.35 2501,-668.35 3201.5,-668.35 3270.89,-668.35 3463.82,-651.41 3512,-701.35 3551.6,-742.38 3491.93,-914.89 3530,-957.35 3540.33,-968.86 3555.09,-974.89 3570.29,-977.78"/>
<polygon fill="#9a32cd" stroke="#9a32cd" points="2131.56,-635.96 2121.17,-638.05 2130.6,-642.89 2131.56,-635.96"/>
<text text-anchor="middle" x="2726" y="-671.35" font-family="Helvetica,sans-Serif" font-size="10.00"> entFEAdjacencies</text>
</g>
<!-- Node27 -->
<g id="node27" class="node">
<title>Node27</title>
<g id="a_node27"><a xlink:title=" ">
<polygon fill="white" stroke="#bfbfbf" points="3168,-743.85 3168,-762.85 3233,-762.85 3233,-743.85 3168,-743.85"/>
<text text-anchor="middle" x="3200.5" y="-750.85" font-family="Helvetica,sans-Serif" font-size="10.00">PetscBool</text>
</a>
</g>
</g>
<!-- Node27&#45;&gt;Node24 -->
<g id="edge31" class="edge">
<title>Node27&#45;&gt;Node24</title>
<path fill="none" stroke="#9a32cd" stroke-dasharray="5,2" d="M3243.18,-746.59C3318.7,-735.38 3473.89,-717.44 3512,-752.35 3545.72,-783.24 3499.18,-923.56 3530,-957.35 3540.43,-968.77 3555.22,-974.77 3570.43,-977.66"/>
<polygon fill="#9a32cd" stroke="#9a32cd" points="3242.43,-743.16 3233.07,-748.12 3243.48,-750.08 3242.43,-743.16"/>
<text text-anchor="middle" x="3421.5" y="-777.35" font-family="Helvetica,sans-Serif" font-size="10.00"> initaliseAndBuildFiniteElements</text>
<text text-anchor="middle" x="3421.5" y="-766.35" font-family="Helvetica,sans-Serif" font-size="10.00">isInitialized</text>
<text text-anchor="middle" x="3421.5" y="-755.35" font-family="Helvetica,sans-Serif" font-size="10.00">initaliseAndBuildField</text>
</g>
<!-- Node28&#45;&gt;Node24 -->
<g id="edge32" class="edge">
<title>Node28&#45;&gt;Node24</title>
<path fill="none" stroke="#9a32cd" stroke-dasharray="5,2" d="M2655.22,-359.66C2773.04,-381.68 2940.45,-411.5 3088,-432.35 3111.46,-435.66 3495.85,-461.01 3512,-478.35 3548.31,-517.31 3495.1,-917.12 3530,-957.35 3540.2,-969.1 3555.01,-975.18 3570.31,-978.06"/>
<polygon fill="#9a32cd" stroke="#9a32cd" points="2655.52,-356.16 2645.04,-357.76 2654.23,-363.04 2655.52,-356.16"/>
<text text-anchor="middle" x="2938.5" y="-432.35" font-family="Helvetica,sans-Serif" font-size="10.00"> fIelds</text>
</g>
<!-- Node29&#45;&gt;Node24 -->
<g id="edge34" class="edge">
<title>Node29&#45;&gt;Node24</title>
<path fill="none" stroke="#9a32cd" stroke-dasharray="5,2" d="M2985.2,-289.33C3010.09,-329 3044.72,-372.23 3088,-397.35 3170.13,-445.01 3447.91,-380.29 3512,-450.35 3550.05,-491.94 3493.1,-914.73 3530,-957.35 3540.19,-969.11 3554.99,-975.2 3570.29,-978.07"/>
<polygon fill="#9a32cd" stroke="#9a32cd" points="2987.93,-287.09 2979.72,-280.4 2981.96,-290.75 2987.93,-287.09"/>
<text text-anchor="middle" x="3200.5" y="-420.35" font-family="Helvetica,sans-Serif" font-size="10.00"> finiteElements</text>
</g>
<!-- Node30 -->
<g id="node30" class="node">
<title>Node30</title>
<g id="a_node30"><a xlink:title=" ">
<polygon fill="white" stroke="#bfbfbf" points="3184,-492.85 3184,-511.85 3217,-511.85 3217,-492.85 3184,-492.85"/>
<text text-anchor="middle" x="3200.5" y="-499.85" font-family="Helvetica,sans-Serif" font-size="10.00">Tag</text>
</a>
</g>
</g>
<!-- Node30&#45;&gt;Node24 -->
<g id="edge36" class="edge">
<title>Node30&#45;&gt;Node24</title>
<path fill="none" stroke="#9a32cd" stroke-dasharray="5,2" d="M3227.33,-497.82C3294.44,-486.73 3471.88,-461.77 3512,-500.35 3548.63,-535.56 3496.66,-918.99 3530,-957.35 3540.21,-969.09 3555.02,-975.17 3570.32,-978.04"/>
<polygon fill="#9a32cd" stroke="#9a32cd" points="3226.47,-494.42 3217.19,-499.53 3227.64,-501.32 3226.47,-494.42"/>
<text text-anchor="middle" x="3421.5" y="-613.35" font-family="Helvetica,sans-Serif" font-size="10.00"> th_FieldId</text>
<text text-anchor="middle" x="3421.5" y="-602.35" font-family="Helvetica,sans-Serif" font-size="10.00">th_RefBitLevel_Mask</text>
<text text-anchor="middle" x="3421.5" y="-591.35" font-family="Helvetica,sans-Serif" font-size="10.00">th_ProblemName</text>
<text text-anchor="middle" x="3421.5" y="-580.35" font-family="Helvetica,sans-Serif" font-size="10.00">th_ProblemFEId</text>
<text text-anchor="middle" x="3421.5" y="-569.35" font-family="Helvetica,sans-Serif" font-size="10.00">th_FieldContinuity</text>
<text text-anchor="middle" x="3421.5" y="-558.35" font-family="Helvetica,sans-Serif" font-size="10.00">th_FieldBase</text>
<text text-anchor="middle" x="3421.5" y="-547.35" font-family="Helvetica,sans-Serif" font-size="10.00">th_ProblemGhostNbDofCol</text>
<text text-anchor="middle" x="3421.5" y="-536.35" font-family="Helvetica,sans-Serif" font-size="10.00">th_ProblemGhostNbDofRow</text>
<text text-anchor="middle" x="3421.5" y="-525.35" font-family="Helvetica,sans-Serif" font-size="10.00">th_FEIdCol</text>
<text text-anchor="middle" x="3421.5" y="-514.35" font-family="Helvetica,sans-Serif" font-size="10.00">th_RefBitEdge</text>
<text text-anchor="middle" x="3421.5" y="-503.35" font-family="Helvetica,sans-Serif" font-size="10.00">...</text>
</g>
<!-- Node31&#45;&gt;Node24 -->
<g id="edge37" class="edge">
<title>Node31&#45;&gt;Node24</title>
<path fill="none" stroke="#9a32cd" stroke-dasharray="5,2" d="M1853.18,-926.55C2007.99,-909.38 2272.77,-884.35 2501,-884.35 2501,-884.35 2501,-884.35 3201.5,-884.35 3341.5,-884.35 3389.38,-869.8 3512,-937.35 3522.47,-943.12 3519.55,-951.52 3530,-957.35 3542.22,-964.15 3556.36,-968.6 3570.23,-971.48"/>
<polygon fill="#9a32cd" stroke="#9a32cd" points="1852.69,-923.08 1843.14,-927.67 1853.47,-930.04 1852.69,-923.08"/>
<text text-anchor="middle" x="2726" y="-887.35" font-family="Helvetica,sans-Serif" font-size="10.00"> entsFiniteElements</text>
</g>
<!-- Node32 -->
<g id="node32" class="node">
<title>Node32</title>
<g id="a_node32"><a xlink:title=" ">
<polygon fill="white" stroke="#bfbfbf" points="3142.5,-358.35 3142.5,-388.35 3258.5,-388.35 3258.5,-358.35 3142.5,-358.35"/>
<text text-anchor="start" x="3150.5" y="-376.35" font-family="Helvetica,sans-Serif" font-size="10.00">reference_wrapper&lt;</text>
<text text-anchor="middle" x="3200.5" y="-365.35" font-family="Helvetica,sans-Serif" font-size="10.00"> moab::Interface &gt;</text>
</a>
</g>
</g>
<!-- Node32&#45;&gt;Node24 -->
<g id="edge39" class="edge">
<title>Node32&#45;&gt;Node24</title>
<path fill="none" stroke="#9a32cd" stroke-dasharray="5,2" d="M3268.8,-356.44C3340.16,-342.99 3450.83,-335.75 3512,-400.35 3554.58,-445.31 3489.54,-910.47 3530,-957.35 3540.17,-969.13 3554.97,-975.22 3570.27,-978.09"/>
<polygon fill="#9a32cd" stroke="#9a32cd" points="3267.7,-353.09 3258.57,-358.46 3269.06,-359.95 3267.7,-353.09"/>
<text text-anchor="middle" x="3421.5" y="-403.35" font-family="Helvetica,sans-Serif" font-size="10.00"> moab</text>
</g>
<!-- Node33&#45;&gt;Node24 -->
<g id="edge40" class="edge">
<title>Node33&#45;&gt;Node24</title>
<path fill="none" stroke="#9a32cd" stroke-dasharray="5,2" d="M2351.42,-495.44C2658.73,-534.8 3502.1,-643.66 3512,-654.35 3557.85,-703.82 3485.24,-906.88 3530,-957.35 3540.33,-968.99 3555.18,-975.03 3570.48,-977.91"/>
<polygon fill="#9a32cd" stroke="#9a32cd" points="2351.53,-491.93 2341.16,-494.13 2350.64,-498.87 2351.53,-491.93"/>
<text text-anchor="middle" x="2938.5" y="-591.35" font-family="Helvetica,sans-Serif" font-size="10.00"> dofsField</text>
</g>
<!-- Node34 -->
<g id="node34" class="node">
<title>Node34</title>
<g id="a_node34"><a xlink:title=" ">
<polygon fill="white" stroke="#bfbfbf" points="3154,-319.85 3154,-338.85 3247,-338.85 3247,-319.85 3154,-319.85"/>
<text text-anchor="middle" x="3200.5" y="-326.85" font-family="Helvetica,sans-Serif" font-size="10.00">ParallelComm *</text>
</a>
</g>
</g>
<!-- Node34&#45;&gt;Node24 -->
<g id="edge42" class="edge">
<title>Node34&#45;&gt;Node24</title>
<path fill="none" stroke="#9a32cd" stroke-dasharray="5,2" d="M3235.97,-316.43C3300.15,-294.87 3438.14,-260.66 3512,-333.35 3561.44,-382 3484.77,-904.76 3530,-957.35 3540.15,-969.14 3554.94,-975.24 3570.24,-978.12"/>
<polygon fill="#9a32cd" stroke="#9a32cd" points="3234.63,-313.19 3226.32,-319.76 3236.91,-319.8 3234.63,-313.19"/>
<text text-anchor="middle" x="3421.5" y="-336.35" font-family="Helvetica,sans-Serif" font-size="10.00"> pComm</text>
</g>
<!-- Node35&#45;&gt;Node24 -->
<g id="edge43" class="edge">
<title>Node35&#45;&gt;Node24</title>
<path fill="none" stroke="#9a32cd" stroke-dasharray="5,2" d="M2595.86,-1095.6C2711.08,-1077.63 2913.69,-1047.1 3088,-1026.35 3195.72,-1013.52 3222.97,-1013.26 3331,-1003.35 3413.58,-995.77 3508.8,-987.37 3570.35,-981.98"/>
<polygon fill="#9a32cd" stroke="#9a32cd" points="2595,-1092.19 2585.66,-1097.19 2596.09,-1099.11 2595,-1092.19"/>
<text text-anchor="middle" x="2938.5" y="-1066.35" font-family="Helvetica,sans-Serif" font-size="10.00"> refinedFiniteElements</text>
</g>
<!-- Node36 -->
<g id="node36" class="node">
<title>Node36</title>
<g id="a_node36"><a xlink:title=" ">
<polygon fill="white" stroke="#bfbfbf" points="3139.5,-1085.35 3139.5,-1115.35 3261.5,-1115.35 3261.5,-1085.35 3139.5,-1085.35"/>
<text text-anchor="start" x="3147.5" y="-1103.35" font-family="Helvetica,sans-Serif" font-size="10.00">shared_ptr&lt; MoFEM::</text>
<text text-anchor="middle" x="3200.5" y="-1092.35" font-family="Helvetica,sans-Serif" font-size="10.00">WrapMPIComm &gt;</text>
</a>
</g>
</g>
<!-- Node36&#45;&gt;Node24 -->
<g id="edge48" class="edge">
<title>Node36&#45;&gt;Node24</title>
<path fill="none" stroke="#9a32cd" stroke-dasharray="5,2" d="M3271.45,-1091C3285.74,-1087.38 3300.29,-1082.34 3313,-1075.35 3322.91,-1069.89 3320.84,-1062.33 3331,-1057.35 3403.81,-1021.64 3446.59,-1082.28 3512,-1034.35 3527.4,-1023.06 3514.9,-1007.03 3530,-995.35 3541.57,-986.39 3556,-981.15 3570.42,-978.19"/>
<polygon fill="#9a32cd" stroke="#9a32cd" points="3270.56,-1087.62 3261.61,-1093.3 3272.15,-1094.44 3270.56,-1087.62"/>
<text text-anchor="middle" x="3421.5" y="-1060.35" font-family="Helvetica,sans-Serif" font-size="10.00"> wrapMPIMOABComm</text>
</g>
<!-- Node37&#45;&gt;Node24 -->
<g id="edge50" class="edge">
<title>Node37&#45;&gt;Node24</title>
<path fill="none" stroke="#9a32cd" stroke-dasharray="5,2" d="M3063.65,-941.67C3071.88,-940.75 3080.05,-939.96 3088,-939.35 3265.7,-925.67 3476.1,-951.79 3576.29,-966.81"/>
<polygon fill="#9a32cd" stroke="#9a32cd" points="3063.13,-938.21 3053.61,-942.86 3063.95,-945.16 3063.13,-938.21"/>
<text text-anchor="middle" x="3200.5" y="-942.35" font-family="Helvetica,sans-Serif" font-size="10.00"> entsFields</text>
</g>
<!-- Node38 -->
<g id="node38" class="node">
<title>Node38</title>
<g id="a_node38"><a xlink:title=" ">
<polygon fill="white" stroke="#bfbfbf" points="3139.5,-1036.35 3139.5,-1066.35 3261.5,-1066.35 3261.5,-1036.35 3139.5,-1036.35"/>
<text text-anchor="start" x="3147.5" y="-1054.35" font-family="Helvetica,sans-Serif" font-size="10.00">shared_ptr&lt; MoFEM::</text>
<text text-anchor="middle" x="3200.5" y="-1043.35" font-family="Helvetica,sans-Serif" font-size="10.00">BasicEntityData &gt;</text>
</a>
</g>
</g>
<!-- Node38&#45;&gt;Node24 -->
<g id="edge52" class="edge">
<title>Node38&#45;&gt;Node24</title>
<path fill="none" stroke="#9a32cd" stroke-dasharray="5,2" d="M3271.46,-1035.06C3290.69,-1030.9 3311.6,-1026.67 3331,-1023.35 3410.93,-1009.65 3432.5,-1016.35 3512,-1000.35 3520.14,-998.71 3521.91,-997.2 3530,-995.35 3545.17,-991.87 3561.69,-988.63 3577.04,-985.85"/>
<polygon fill="#9a32cd" stroke="#9a32cd" points="3270.6,-1031.67 3261.58,-1037.22 3272.09,-1038.5 3270.6,-1031.67"/>
<text text-anchor="middle" x="3421.5" y="-1026.35" font-family="Helvetica,sans-Serif" font-size="10.00"> basicEntityDataPtr</text>
</g>
<!-- Node39 -->
<g id="node39" class="node">
<title>Node39</title>
<g id="a_node39"><a xlink:title=" ">
<polygon fill="white" stroke="#bfbfbf" points="3164.5,-959.85 3164.5,-978.85 3236.5,-978.85 3236.5,-959.85 3164.5,-959.85"/>
<text text-anchor="middle" x="3200.5" y="-966.85" font-family="Helvetica,sans-Serif" font-size="10.00">MPI_Comm</text>
</a>
</g>
</g>
<!-- Node39&#45;&gt;Node24 -->
<g id="edge53" class="edge">
<title>Node39&#45;&gt;Node24</title>
<path fill="none" stroke="#9a32cd" stroke-dasharray="5,2" d="M3246.9,-966.78C3307.42,-963.77 3417.83,-959.76 3512,-964.35 3530.97,-965.27 3551.52,-966.99 3570.29,-968.84"/>
<polygon fill="#9a32cd" stroke="#9a32cd" points="3246.72,-963.28 3236.91,-967.29 3247.08,-970.27 3246.72,-963.28"/>
<text text-anchor="middle" x="3421.5" y="-967.35" font-family="Helvetica,sans-Serif" font-size="10.00"> mofemComm</text>
</g>
<!-- Node40&#45;&gt;Node24 -->
<g id="edge54" class="edge">
<title>Node40&#45;&gt;Node24</title>
<path fill="none" stroke="#9a32cd" stroke-dasharray="5,2" d="M1855.51,-799.75C2129.4,-797.1 2773.1,-794 3313,-815.35 3401.59,-818.85 3447.17,-768.87 3512,-829.35 3554.01,-868.53 3490.18,-915.93 3530,-957.35 3540.59,-968.36 3555.26,-974.25 3570.28,-977.17"/>
<polygon fill="#9a32cd" stroke="#9a32cd" points="1855.09,-796.25 1845.12,-799.85 1855.16,-803.25 1855.09,-796.25"/>
<text text-anchor="middle" x="2726" y="-805.35" font-family="Helvetica,sans-Serif" font-size="10.00"> pRoblems</text>
</g>
<!-- Node41&#45;&gt;Node24 -->
<g id="edge56" class="edge">
<title>Node41&#45;&gt;Node24</title>
<path fill="none" stroke="#9a32cd" stroke-dasharray="5,2" d="M1312.55,-690.56C1533.9,-700.63 1913.14,-715.35 2239,-715.35 2239,-715.35 2239,-715.35 3201.5,-715.35 3270.57,-715.35 3462.34,-681.34 3512,-729.35 3548.54,-764.67 3495.91,-919.65 3530,-957.35 3540.38,-968.82 3555.15,-974.83 3570.36,-977.72"/>
<polygon fill="#9a32cd" stroke="#9a32cd" points="1312.6,-687.06 1302.45,-690.1 1312.28,-694.05 1312.6,-687.06"/>
<text text-anchor="middle" x="2726" y="-718.35" font-family="Helvetica,sans-Serif" font-size="10.00"> refinedEntities</text>
</g>
<!-- Node42 -->
<g id="node42" class="node">
<title>Node42</title>
<g id="a_node42"><a xlink:title=" ">
<polygon fill="white" stroke="#bfbfbf" points="3088,-825.35 3088,-855.35 3313,-855.35 3313,-825.35 3088,-825.35"/>
<text text-anchor="start" x="3096" y="-843.35" font-family="Helvetica,sans-Serif" font-size="10.00">ptr_map&lt; boost::typeindex</text>
<text text-anchor="middle" x="3200.5" y="-832.35" font-family="Helvetica,sans-Serif" font-size="10.00">::type_index, MoFEM::UnknownInterface &gt;</text>
</a>
</g>
</g>
<!-- Node42&#45;&gt;Node24 -->
<g id="edge58" class="edge">
<title>Node42&#45;&gt;Node24</title>
<path fill="none" stroke="#9a32cd" stroke-dasharray="5,2" d="M3323.54,-832.91C3398.17,-831.13 3484.45,-834.93 3512,-859.35 3545.14,-888.72 3498.65,-926.07 3530,-957.35 3540.76,-968.07 3555.39,-973.88 3570.32,-976.81"/>
<polygon fill="#9a32cd" stroke="#9a32cd" points="3323,-829.43 3313.1,-833.2 3323.19,-836.42 3323,-829.43"/>
<text text-anchor="middle" x="3421.5" y="-862.35" font-family="Helvetica,sans-Serif" font-size="10.00"> iFaces</text>
</g>
<!-- Node43 -->
<g id="node43" class="node">
<title>Node43</title>
<g id="a_node43"><a xlink:title=" ">
<polygon fill="white" stroke="#bfbfbf" points="3553.5,-1303.85 3553.5,-1344.85 3718.5,-1344.85 3718.5,-1303.85 3553.5,-1303.85"/>
<text text-anchor="start" x="3561.5" y="-1332.85" font-family="Helvetica,sans-Serif" font-size="10.00">shared_ptr&lt; MoFEM::</text>
<text text-anchor="start" x="3561.5" y="-1321.85" font-family="Helvetica,sans-Serif" font-size="10.00">ParentFiniteElementAdjacency</text>
<text text-anchor="middle" x="3636" y="-1310.85" font-family="Helvetica,sans-Serif" font-size="10.00">FunctionSkeleton&lt; 2 &gt; &gt;</text>
</a>
</g>
</g>
<!-- Node43&#45;&gt;Node12 -->
<g id="edge59" class="edge">
<title>Node43&#45;&gt;Node12</title>
<path fill="none" stroke="#9a32cd" stroke-dasharray="5,2" d="M3728.79,-1315.65C3790.03,-1305.33 3868.48,-1282.75 3920,-1233.35 3968.18,-1187.14 3979.74,-1100.93 3982.31,-1072.06"/>
<polygon fill="#9a32cd" stroke="#9a32cd" points="3728.05,-1312.23 3718.73,-1317.27 3729.15,-1319.14 3728.05,-1312.23"/>
<text text-anchor="middle" x="3840" y="-1312.35" font-family="Helvetica,sans-Serif" font-size="10.00"> parentAdjSkeletonFunctionDim2</text>
</g>
<!-- Node44 -->
<g id="node44" class="node">
<title>Node44</title>
<g id="a_node44"><a xlink:title=" ">
<polygon fill="white" stroke="#bfbfbf" points="3553.5,-1072.85 3553.5,-1113.85 3718.5,-1113.85 3718.5,-1072.85 3553.5,-1072.85"/>
<text text-anchor="start" x="3561.5" y="-1101.85" font-family="Helvetica,sans-Serif" font-size="10.00">shared_ptr&lt; MoFEM::</text>
<text text-anchor="start" x="3561.5" y="-1090.85" font-family="Helvetica,sans-Serif" font-size="10.00">ParentFiniteElementAdjacency</text>
<text text-anchor="middle" x="3636" y="-1079.85" font-family="Helvetica,sans-Serif" font-size="10.00">Function&lt; 1 &gt; &gt;</text>
</a>
</g>
</g>
<!-- Node44&#45;&gt;Node12 -->
<g id="edge60" class="edge">
<title>Node44&#45;&gt;Node12</title>
<path fill="none" stroke="#9a32cd" stroke-dasharray="5,2" d="M3728.73,-1097.43C3784.49,-1098.19 3856.87,-1096.09 3920,-1084.35 3934.01,-1081.74 3949.1,-1076.56 3961,-1071.88"/>
<polygon fill="#9a32cd" stroke="#9a32cd" points="3728.58,-1093.93 3718.52,-1097.26 3728.46,-1100.93 3728.58,-1093.93"/>
<text text-anchor="middle" x="3840" y="-1101.35" font-family="Helvetica,sans-Serif" font-size="10.00"> parentAdjFunctionDim1</text>
</g>
<!-- Node45 -->
<g id="node45" class="node">
<title>Node45</title>
<g id="a_node45"><a xlink:title=" ">
<polygon fill="white" stroke="#bfbfbf" points="3576.5,-1005.35 3576.5,-1035.35 3695.5,-1035.35 3695.5,-1005.35 3576.5,-1005.35"/>
<text text-anchor="start" x="3584.5" y="-1023.35" font-family="Helvetica,sans-Serif" font-size="10.00">bitset&lt; BITREFLEVEL</text>
<text text-anchor="middle" x="3636" y="-1012.35" font-family="Helvetica,sans-Serif" font-size="10.00">_SIZE &gt;</text>
</a>
</g>
</g>
<!-- Node45&#45;&gt;Node12 -->
<g id="edge61" class="edge">
<title>Node45&#45;&gt;Node12</title>
<path fill="none" stroke="#9a32cd" stroke-dasharray="5,2" d="M3705.55,-1006.13C3764.12,-996.95 3849.8,-990.65 3920,-1014.35 3942.41,-1021.91 3963.14,-1040.98 3974.34,-1052.68"/>
<polygon fill="#9a32cd" stroke="#9a32cd" points="3704.97,-1002.68 3695.66,-1007.74 3706.1,-1009.58 3704.97,-1002.68"/>
<text text-anchor="middle" x="3840" y="-1072.35" font-family="Helvetica,sans-Serif" font-size="10.00"> bitLevel</text>
<text text-anchor="middle" x="3840" y="-1061.35" font-family="Helvetica,sans-Serif" font-size="10.00">bitAdjParent</text>
<text text-anchor="middle" x="3840" y="-1050.35" font-family="Helvetica,sans-Serif" font-size="10.00">bitAdjEnt</text>
<text text-anchor="middle" x="3840" y="-1039.35" font-family="Helvetica,sans-Serif" font-size="10.00">bitAdjEntMask</text>
<text text-anchor="middle" x="3840" y="-1028.35" font-family="Helvetica,sans-Serif" font-size="10.00">bitAdjParentMask</text>
<text text-anchor="middle" x="3840" y="-1017.35" font-family="Helvetica,sans-Serif" font-size="10.00">bitLevelMask</text>
</g>
<!-- Node46 -->
<g id="node46" class="node">
<title>Node46</title>
<g id="a_node46"><a xlink:title=" ">
<polygon fill="white" stroke="#bfbfbf" points="3578.5,-906.85 3578.5,-947.85 3693.5,-947.85 3693.5,-906.85 3578.5,-906.85"/>
<text text-anchor="start" x="3586.5" y="-935.85" font-family="Helvetica,sans-Serif" font-size="10.00">list&lt; std::tuple&lt; std</text>
<text text-anchor="start" x="3586.5" y="-924.85" font-family="Helvetica,sans-Serif" font-size="10.00">::string, int, Range,</text>
<text text-anchor="middle" x="3636" y="-913.85" font-family="Helvetica,sans-Serif" font-size="10.00"> bool &gt; &gt;</text>
</a>
</g>
</g>
<!-- Node46&#45;&gt;Node12 -->
<g id="edge62" class="edge">
<title>Node46&#45;&gt;Node12</title>
<path fill="none" stroke="#9a32cd" stroke-dasharray="5,2" d="M3703.44,-913.43C3764.64,-904.4 3855.46,-900.96 3920,-942.35 3960.41,-968.25 3976.42,-1029.07 3981.26,-1052.71"/>
<polygon fill="#9a32cd" stroke="#9a32cd" points="3702.84,-909.98 3693.5,-914.98 3703.92,-916.9 3702.84,-909.98"/>
<text text-anchor="middle" x="3840" y="-945.35" font-family="Helvetica,sans-Serif" font-size="10.00"> fieldsOrder</text>
</g>
</g>
</svg>
        <g id="navigator" transform="translate(0 0)" fill="#404254">
                <rect fill="#f2f5e9" fill-opacity="0.5" stroke="#606060" stroke-width=".5" x="0" y="0" width="60" height="60"/>
                <use id="zoomplus" xlink:href="#zoomPlus" x="17" y="9" onmousedown="handleZoom(evt,'in')"/>
                <use id="zoomminus" xlink:href="#zoomMin" x="42" y="9" onmousedown="handleZoom(evt,'out')"/>
                <use id="reset" xlink:href="#resetDef" x="30" y="36" onmousedown="handleReset()"/>
                <g id="arrowUp" xlink:href="#dirArrow" transform="translate(30 24)" onmousedown="handlePan(0,-1)">
                  <use xlink:href="#rim" fill="#404040">
                        <set attributeName="fill" to="#808080" begin="arrowUp.mouseover" end="arrowUp.mouseout"/>
                  </use>
                  <path fill="none" stroke="white" stroke-width="1.5" d="M0,-3.0v7 M-2.5,-0.5L0,-3.0L2.5,-0.5"/>
                </g>
                <g id="arrowRight" xlink:href="#dirArrow" transform="rotate(90) translate(36 -43)" onmousedown="handlePan(1,0)">
                  <use xlink:href="#rim" fill="#404040">
                        <set attributeName="fill" to="#808080" begin="arrowRight.mouseover" end="arrowRight.mouseout"/>
                  </use>
                  <path fill="none" stroke="white" stroke-width="1.5" d="M0,-3.0v7 M-2.5,-0.5L0,-3.0L2.5,-0.5"/>
                </g>
                <g id="arrowDown" xlink:href="#dirArrow" transform="rotate(180) translate(-30 -48)" onmousedown="handlePan(0,1)">
                  <use xlink:href="#rim" fill="#404040">
                        <set attributeName="fill" to="#808080" begin="arrowDown.mouseover" end="arrowDown.mouseout"/>
                  </use>
                  <path fill="none" stroke="white" stroke-width="1.5" d="M0,-3.0v7 M-2.5,-0.5L0,-3.0L2.5,-0.5"/>
                </g>
                <g id="arrowLeft" xlink:href="#dirArrow" transform="rotate(270) translate(-36 17)" onmousedown="handlePan(-1,0)">
                  <use xlink:href="#rim" fill="#404040">
                        <set attributeName="fill" to="#808080" begin="arrowLeft.mouseover" end="arrowLeft.mouseout"/>
                  </use>
                  <path fill="none" stroke="white" stroke-width="1.5" d="M0,-3.0v7 M-2.5,-0.5L0,-3.0L2.5,-0.5"/>
                </g>
        </g>
        <svg viewBox="0 0 15 15" width="100%" height="30px" preserveAspectRatio="xMaxYMin meet">
         <g id="arrow_out" transform="scale(0.3 0.3)">
          <a xlink:href="structPoisson2DHomogeneous__coll__graph_org.svg" target="_base">
           <rect id="button" ry="5" rx="5" y="6" x="6" height="38" width="38"
                fill="#f2f5e9" fill-opacity="0.5" stroke="#606060" stroke-width="1.0"/>
           <path id="arrow"
             d="M 11.500037,31.436501 C 11.940474,20.09759 22.043105,11.32322 32.158766,21.979434 L 37.068811,17.246167 C 37.068811,17.246167 37.088388,32 37.088388,32 L 22.160133,31.978069 C 22.160133,31.978069 26.997745,27.140456 26.997745,27.140456 C 18.528582,18.264221 13.291696,25.230495 11.500037,31.436501 z"
             style="fill:#404040;"/>
          </a>
         </g>
        </svg>
</svg>
