<?xml version="1.0" encoding="UTF-8" standalone="no"?>
<!DOCTYPE svg PUBLIC "-//W3C//DTD SVG 1.1//EN"
 "http://www.w3.org/Graphics/SVG/1.1/DTD/svg11.dtd">
<!-- Generated by graphviz version 2.43.0 (0)
 -->
<!-- Title: MoFEM::Mat_Elastic_TransIso Pages: 1 -->
<svg width="253pt" height="173pt"
 viewBox="0.00 0.00 253.00 173.00" xmlns="http://www.w3.org/2000/svg" xmlns:xlink="http://www.w3.org/1999/xlink">
<g id="graph0" class="graph" transform="scale(1 1) rotate(0) translate(4 169)">
<title>MoFEM::Mat_Elastic_TransIso</title>
<polygon fill="white" stroke="transparent" points="-4,4 -4,-169 249,-169 249,4 -4,4"/>
<!-- Node1 -->
<g id="node1" class="node">
<title>Node1</title>
<g id="a_node1"><a xlink:title="Transverse Isotropic material data structure.">
<polygon fill="#bfbfbf" stroke="black" points="101,-0.5 101,-30.5 216,-30.5 216,-0.5 101,-0.5"/>
<text text-anchor="start" x="109" y="-18.5" font-family="Helvetica,sans-Serif" font-size="10.00">MoFEM::Mat_Elastic</text>
<text text-anchor="middle" x="158.5" y="-7.5" font-family="Helvetica,sans-Serif" font-size="10.00">_TransIso</text>
</a>
</g>
</g>
<!-- Node2 -->
<g id="node2" class="node">
<title>Node2</title>
<g id="a_node2"><a xlink:href="structMoFEM_1_1GenericAttributeData.html" target="_top" xlink:title="Generic attribute data structure.">
<polygon fill="white" stroke="black" points="15.5,-78.5 15.5,-97.5 177.5,-97.5 177.5,-78.5 15.5,-78.5"/>
<text text-anchor="middle" x="96.5" y="-85.5" font-family="Helvetica,sans-Serif" font-size="10.00">MoFEM::GenericAttributeData</text>
</a>
</g>
</g>
<!-- Node2&#45;&gt;Node1 -->
<g id="edge1" class="edge">
<title>Node2&#45;&gt;Node1</title>
<path fill="none" stroke="midnightblue" d="M110.8,-70.74C121.48,-58.6 135.93,-42.16 146.12,-30.58"/>
<polygon fill="midnightblue" stroke="midnightblue" points="108.08,-68.53 104.1,-78.36 113.33,-73.16 108.08,-68.53"/>
</g>
<!-- Node3 -->
<g id="node3" class="node">
<title>Node3</title>
<g id="a_node3"><a xlink:title=" ">
<polygon fill="white" stroke="#bfbfbf" points="0,-145.5 0,-164.5 107,-164.5 107,-145.5 0,-145.5"/>
<text text-anchor="middle" x="53.5" y="-152.5" font-family="Helvetica,sans-Serif" font-size="10.00">const CubitBCType</text>
</a>
</g>
</g>
<!-- Node3&#45;&gt;Node2 -->
<g id="edge2" class="edge">
<title>Node3&#45;&gt;Node2</title>
<path fill="none" stroke="#9a32cd" stroke-dasharray="5,2" d="M65.05,-136.53C73.38,-123.95 84.26,-107.51 90.79,-97.63"/>
<polygon fill="#9a32cd" stroke="#9a32cd" points="61.9,-134.96 59.3,-145.23 67.74,-138.82 61.9,-134.96"/>
<text text-anchor="middle" x="91" y="-119" font-family="Helvetica,sans-Serif" font-size="10.00"> tYpe</text>
</g>
<!-- Node4 -->
<g id="node4" class="node">
<title>Node4</title>
<g id="a_node4"><a xlink:title=" ">
<polygon fill="white" stroke="#bfbfbf" points="125,-145.5 125,-164.5 154,-164.5 154,-145.5 125,-145.5"/>
<text text-anchor="middle" x="139.5" y="-152.5" font-family="Helvetica,sans-Serif" font-size="10.00">int</text>
</a>
</g>
</g>
<!-- Node4&#45;&gt;Node2 -->
<g id="edge3" class="edge">
<title>Node4&#45;&gt;Node2</title>
<path fill="none" stroke="#9a32cd" stroke-dasharray="5,2" d="M127.95,-136.53C119.62,-123.95 108.74,-107.51 102.21,-97.63"/>
<polygon fill="#9a32cd" stroke="#9a32cd" points="125.26,-138.82 133.7,-145.23 131.1,-134.96 125.26,-138.82"/>
<text text-anchor="middle" x="180" y="-119" font-family="Helvetica,sans-Serif" font-size="10.00"> minNumberOfAtributes</text>
</g>
<!-- Node5 -->
<g id="node5" class="node">
<title>Node5</title>
<g id="a_node5"><a xlink:title=" ">
<polygon fill="white" stroke="#bfbfbf" points="196,-78.5 196,-97.5 245,-97.5 245,-78.5 196,-78.5"/>
<text text-anchor="middle" x="220.5" y="-85.5" font-family="Helvetica,sans-Serif" font-size="10.00">_data_</text>
</a>
</g>
</g>
<!-- Node5&#45;&gt;Node1 -->
<g id="edge4" class="edge">
<title>Node5&#45;&gt;Node1</title>
<path fill="none" stroke="#9a32cd" stroke-dasharray="5,2" d="M206.2,-70.74C195.52,-58.6 181.07,-42.16 170.88,-30.58"/>
<polygon fill="#9a32cd" stroke="#9a32cd" points="203.67,-73.16 212.9,-78.36 208.92,-68.53 203.67,-73.16"/>
<text text-anchor="middle" x="207" y="-52" font-family="Helvetica,sans-Serif" font-size="10.00"> data</text>
</g>
</g>
</svg>
