<?xml version="1.0" encoding="UTF-8" standalone="no"?>
<!DOCTYPE svg PUBLIC "-//W3C//DTD SVG 1.1//EN"
 "http://www.w3.org/Graphics/SVG/1.1/DTD/svg11.dtd">
<!-- Generated by graphviz version 2.43.0 (0)
 -->
<!-- Title: FractureMechanics::GriffithForceElement::FrontArcLengthControl::OpAssemble_db Pages: 1 -->
<!--zoomable 1717 -->
<svg id="main" version="1.1" xmlns="http://www.w3.org/2000/svg" xmlns:xlink="http://www.w3.org/1999/xlink" xml:space="preserve" onload="init(evt)">
<style type="text/css"><![CDATA[
.edge:hover path { stroke: red; }
.edge:hover polygon { stroke: red; fill: red; }
]]></style>
<script type="text/javascript"><![CDATA[
var edges = document.getElementsByTagName('g');
if (edges && edges.length) {
  for (var i=0;i<edges.length;i++) {
    if (edges[i].id.substr(0,4)=='edge') {
      edges[i].setAttribute('class','edge');
    }
  }
}
]]></script>
        <defs>
                <circle id="rim" cx="0" cy="0" r="7"/>
                <circle id="rim2" cx="0" cy="0" r="3.5"/>
                <g id="zoomPlus">
                        <use xlink:href="#rim" fill="#404040">
                                <set attributeName="fill" to="#808080" begin="zoomplus.mouseover" end="zoomplus.mouseout"/>
                        </use>
                        <path d="M-4,0h8M0,-4v8" fill="none" stroke="white" stroke-width="1.5" pointer-events="none"/>
                </g>
                <g id="zoomMin">
                        <use xlink:href="#rim" fill="#404040">
                                <set attributeName="fill" to="#808080" begin="zoomminus.mouseover" end="zoomminus.mouseout"/>
                        </use>
                        <path d="M-4,0h8" fill="none" stroke="white" stroke-width="1.5" pointer-events="none"/>
                </g>
                <g id="dirArrow">
                        <path fill="none" stroke="white" stroke-width="1.5" d="M0,-3.0v7 M-2.5,-0.5L0,-3.0L2.5,-0.5"/>
                </g>
               <g id="resetDef">
                       <use xlink:href="#rim2" fill="#404040">
                               <set attributeName="fill" to="#808080" begin="reset.mouseover" end="reset.mouseout"/>
                       </use>
               </g>
        </defs>

<script type="text/javascript">
var viewWidth = 1992;
var viewHeight = 1717;
var sectionId = 'dynsection-1';
</script>
<script xlink:href="svgpan.js"/>
<svg id="graph" class="graph">
<g id="viewport">
<title>FractureMechanics::GriffithForceElement::FrontArcLengthControl::OpAssemble_db</title>
<polygon fill="white" stroke="transparent" points="-4,4 -4,-1713 1988,-1713 1988,4 -4,4"/>
<!-- Node1 -->
<g id="node1" class="node">
<title>Node1</title>
<g id="a_node1"><a xlink:title="assemble internal residual derivative">
<polygon fill="#bfbfbf" stroke="black" points="1853,-513 1853,-565 1984,-565 1984,-513 1853,-513"/>
<text text-anchor="start" x="1861" y="-553" font-family="Helvetica,sans-Serif" font-size="10.00">FractureMechanics::</text>
<text text-anchor="start" x="1861" y="-542" font-family="Helvetica,sans-Serif" font-size="10.00">GriffithForceElement</text>
<text text-anchor="start" x="1861" y="-531" font-family="Helvetica,sans-Serif" font-size="10.00">::FrontArcLengthControl</text>
<text text-anchor="middle" x="1918.5" y="-520" font-family="Helvetica,sans-Serif" font-size="10.00">::OpAssemble_db</text>
</a>
</g>
</g>
<!-- Node2 -->
<g id="node2" class="node">
<title>Node2</title>
<g id="a_node2"><a xlink:href="structFractureMechanics_1_1GriffithForceElement_1_1FrontArcLengthControl_1_1OpIntLambda.html" target="_top" xlink:title="assemble internal residual">
<polygon fill="white" stroke="black" points="1685,-399 1685,-451 1816,-451 1816,-399 1685,-399"/>
<text text-anchor="start" x="1693" y="-439" font-family="Helvetica,sans-Serif" font-size="10.00">FractureMechanics::</text>
<text text-anchor="start" x="1693" y="-428" font-family="Helvetica,sans-Serif" font-size="10.00">GriffithForceElement</text>
<text text-anchor="start" x="1693" y="-417" font-family="Helvetica,sans-Serif" font-size="10.00">::FrontArcLengthControl</text>
<text text-anchor="middle" x="1750.5" y="-406" font-family="Helvetica,sans-Serif" font-size="10.00">::OpIntLambda</text>
</a>
</g>
</g>
<!-- Node2&#45;&gt;Node1 -->
<g id="edge1" class="edge">
<title>Node2&#45;&gt;Node1</title>
<path fill="none" stroke="midnightblue" d="M1798.07,-456.98C1823.81,-474.66 1855.38,-496.34 1879.59,-512.97"/>
<polygon fill="midnightblue" stroke="midnightblue" points="1799.81,-453.93 1789.58,-451.15 1795.85,-459.7 1799.81,-453.93"/>
</g>
<!-- Node3 -->
<g id="node3" class="node">
<title>Node3</title>
<g id="a_node3"><a xlink:title=" ">
<polygon fill="white" stroke="#bfbfbf" points="1463,-464.5 1463,-483.5 1568,-483.5 1568,-464.5 1463,-464.5"/>
<text text-anchor="middle" x="1515.5" y="-471.5" font-family="Helvetica,sans-Serif" font-size="10.00">UserDataOperator</text>
</a>
</g>
</g>
<!-- Node3&#45;&gt;Node2 -->
<g id="edge2" class="edge">
<title>Node3&#45;&gt;Node2</title>
<path fill="none" stroke="midnightblue" d="M1571.87,-462.35C1605.71,-455.24 1649.14,-446.1 1684.59,-438.65"/>
<polygon fill="midnightblue" stroke="midnightblue" points="1570.77,-459.01 1561.7,-464.49 1572.21,-465.86 1570.77,-459.01"/>
</g>
<!-- Node4 -->
<g id="node4" class="node">
<title>Node4</title>
<g id="a_node4"><a xlink:href="structFractureMechanics_1_1GriffithForceElement_1_1AuxOp.html" target="_top" xlink:title=" ">
<polygon fill="white" stroke="black" points="1457,-158.5 1457,-199.5 1574,-199.5 1574,-158.5 1457,-158.5"/>
<text text-anchor="start" x="1465" y="-187.5" font-family="Helvetica,sans-Serif" font-size="10.00">FractureMechanics::</text>
<text text-anchor="start" x="1465" y="-176.5" font-family="Helvetica,sans-Serif" font-size="10.00">GriffithForceElement</text>
<text text-anchor="middle" x="1515.5" y="-165.5" font-family="Helvetica,sans-Serif" font-size="10.00">::AuxOp</text>
</a>
</g>
</g>
<!-- Node4&#45;&gt;Node2 -->
<g id="edge3" class="edge">
<title>Node4&#45;&gt;Node2</title>
<path fill="none" stroke="midnightblue" d="M1583.63,-195.18C1612.19,-204.85 1644.11,-219.72 1667,-242 1712.33,-286.12 1734.85,-359.66 1744.12,-398.73"/>
<polygon fill="midnightblue" stroke="midnightblue" points="1584.69,-191.84 1574.09,-192.09 1582.53,-198.5 1584.69,-191.84"/>
</g>
<!-- Node5 -->
<g id="node5" class="node">
<title>Node5</title>
<g id="a_node5"><a xlink:title=" ">
<polygon fill="white" stroke="#bfbfbf" points="1124,-152.5 1124,-171.5 1212,-171.5 1212,-152.5 1124,-152.5"/>
<text text-anchor="middle" x="1168" y="-159.5" font-family="Helvetica,sans-Serif" font-size="10.00">VectorDouble3</text>
</a>
</g>
</g>
<!-- Node5&#45;&gt;Node4 -->
<g id="edge4" class="edge">
<title>Node5&#45;&gt;Node4</title>
<path fill="none" stroke="#9a32cd" stroke-dasharray="5,2" d="M1222.29,-160.04C1270.58,-158.79 1343.67,-158.18 1407,-163 1423.27,-164.24 1440.82,-166.47 1456.93,-168.88"/>
<polygon fill="#9a32cd" stroke="#9a32cd" points="1221.97,-156.55 1212.07,-160.33 1222.16,-163.55 1221.97,-156.55"/>
<text text-anchor="middle" x="1348" y="-166" font-family="Helvetica,sans-Serif" font-size="10.00"> lambdaAtNodes</text>
</g>
<!-- Node6 -->
<g id="node6" class="node">
<title>Node6</title>
<g id="a_node6"><a xlink:href="structFractureMechanics_1_1GriffithForceElement_1_1BlockData.html" target="_top" xlink:title=" ">
<polygon fill="white" stroke="black" points="1109.5,-340.5 1109.5,-381.5 1226.5,-381.5 1226.5,-340.5 1109.5,-340.5"/>
<text text-anchor="start" x="1117.5" y="-369.5" font-family="Helvetica,sans-Serif" font-size="10.00">FractureMechanics::</text>
<text text-anchor="start" x="1117.5" y="-358.5" font-family="Helvetica,sans-Serif" font-size="10.00">GriffithForceElement</text>
<text text-anchor="middle" x="1168" y="-347.5" font-family="Helvetica,sans-Serif" font-size="10.00">::BlockData</text>
</a>
</g>
</g>
<!-- Node6&#45;&gt;Node4 -->
<g id="edge5" class="edge">
<title>Node6&#45;&gt;Node4</title>
<path fill="none" stroke="#9a32cd" stroke-dasharray="5,2" d="M1236.29,-350.33C1248.88,-345.94 1261.15,-339.74 1271,-331 1286.19,-317.52 1274.3,-303.01 1289,-289 1329.52,-250.38 1356.69,-269.54 1407,-245 1407.49,-244.76 1449.62,-218.88 1480.99,-199.6"/>
<polygon fill="#9a32cd" stroke="#9a32cd" points="1235.14,-347.03 1226.64,-353.35 1237.23,-353.71 1235.14,-347.03"/>
<text text-anchor="middle" x="1348" y="-292" font-family="Helvetica,sans-Serif" font-size="10.00"> blockData</text>
</g>
<!-- Node16 -->
<g id="node16" class="node">
<title>Node16</title>
<g id="a_node16"><a xlink:href="structFractureMechanics_1_1GriffithForceElement_1_1FrontArcLengthControl.html" target="_top" xlink:title="arc&#45;length element">
<polygon fill="white" stroke="black" points="1450,-404.5 1450,-445.5 1581,-445.5 1581,-404.5 1450,-404.5"/>
<text text-anchor="start" x="1458" y="-433.5" font-family="Helvetica,sans-Serif" font-size="10.00">FractureMechanics::</text>
<text text-anchor="start" x="1458" y="-422.5" font-family="Helvetica,sans-Serif" font-size="10.00">GriffithForceElement</text>
<text text-anchor="middle" x="1515.5" y="-411.5" font-family="Helvetica,sans-Serif" font-size="10.00">::FrontArcLengthControl</text>
</a>
</g>
</g>
<!-- Node6&#45;&gt;Node16 -->
<g id="edge19" class="edge">
<title>Node6&#45;&gt;Node16</title>
<path fill="none" stroke="#9a32cd" stroke-dasharray="5,2" d="M1236.85,-370.38C1284.61,-377.33 1349.93,-387.56 1407,-399 1420.93,-401.79 1435.79,-405.14 1449.88,-408.5"/>
<polygon fill="#9a32cd" stroke="#9a32cd" points="1237.34,-366.91 1226.94,-368.94 1236.34,-373.84 1237.34,-366.91"/>
<text text-anchor="middle" x="1348" y="-402" font-family="Helvetica,sans-Serif" font-size="10.00"> blockData</text>
</g>
<!-- Node7 -->
<g id="node7" class="node">
<title>Node7</title>
<g id="a_node7"><a xlink:href="classdouble.html" target="_top" xlink:title=" ">
<polygon fill="white" stroke="black" points="789,-658.5 789,-677.5 839,-677.5 839,-658.5 789,-658.5"/>
<text text-anchor="middle" x="814" y="-665.5" font-family="Helvetica,sans-Serif" font-size="10.00">double</text>
</a>
</g>
</g>
<!-- Node7&#45;&gt;Node6 -->
<g id="edge6" class="edge">
<title>Node7&#45;&gt;Node6</title>
<path fill="none" stroke="#9a32cd" stroke-dasharray="5,2" d="M826.25,-649.88C857.68,-600.75 951.61,-463.87 1065,-392 1078.37,-383.53 1094.18,-377.26 1109.32,-372.66"/>
<polygon fill="#9a32cd" stroke="#9a32cd" points="823.19,-648.17 820.81,-658.49 829.11,-651.91 823.19,-648.17"/>
<text text-anchor="middle" x="979" y="-552" font-family="Helvetica,sans-Serif" font-size="10.00"> E</text>
<text text-anchor="middle" x="979" y="-541" font-family="Helvetica,sans-Serif" font-size="10.00">r</text>
<text text-anchor="middle" x="979" y="-530" font-family="Helvetica,sans-Serif" font-size="10.00">gc</text>
</g>
<!-- Node7&#45;&gt;Node16 -->
<g id="edge18" class="edge">
<title>Node7&#45;&gt;Node16</title>
<path fill="none" stroke="#9a32cd" stroke-dasharray="5,2" d="M849.27,-663.5C897.4,-657.28 987.78,-645.9 1065,-638 1102.94,-634.12 1379.61,-635.53 1407,-609 1456.49,-561.05 1381.57,-508.5 1425,-455 1431.51,-446.98 1440.23,-441.1 1449.69,-436.78"/>
<polygon fill="#9a32cd" stroke="#9a32cd" points="848.57,-660.07 839.1,-664.82 849.47,-667.01 848.57,-660.07"/>
<text text-anchor="middle" x="1168" y="-674" font-family="Helvetica,sans-Serif" font-size="10.00"> intLambdaLambda</text>
<text text-anchor="middle" x="1168" y="-663" font-family="Helvetica,sans-Serif" font-size="10.00">intLambda</text>
<text text-anchor="middle" x="1168" y="-652" font-family="Helvetica,sans-Serif" font-size="10.00">intLambdaDelta</text>
<text text-anchor="middle" x="1168" y="-641" font-family="Helvetica,sans-Serif" font-size="10.00">intLambdaArray</text>
</g>
<!-- Node22 -->
<g id="node22" class="node">
<title>Node22</title>
<g id="a_node22"><a xlink:href="structFractureMechanics_1_1GriffithForceElement_1_1AuxFunctions.html" target="_top" xlink:title=" ">
<polygon fill="white" stroke="black" points="1444,-885.5 1444,-926.5 1587,-926.5 1587,-885.5 1444,-885.5"/>
<text text-anchor="start" x="1452" y="-914.5" font-family="Helvetica,sans-Serif" font-size="10.00">FractureMechanics::</text>
<text text-anchor="start" x="1452" y="-903.5" font-family="Helvetica,sans-Serif" font-size="10.00">GriffithForceElement</text>
<text text-anchor="middle" x="1515.5" y="-892.5" font-family="Helvetica,sans-Serif" font-size="10.00">::AuxFunctions&lt; double &gt;</text>
</a>
</g>
</g>
<!-- Node7&#45;&gt;Node22 -->
<g id="edge27" class="edge">
<title>Node7&#45;&gt;Node22</title>
<path fill="none" stroke="#9a32cd" stroke-dasharray="5,2" d="M849.25,-670.06C968.43,-677.49 1360.28,-704.06 1407,-735 1462.69,-771.89 1495.03,-848.57 1507.93,-885.39"/>
<polygon fill="#9a32cd" stroke="#9a32cd" points="849.42,-666.57 839.22,-669.44 848.99,-673.55 849.42,-666.57"/>
<text text-anchor="middle" x="1168" y="-708" font-family="Helvetica,sans-Serif" font-size="10.00"> currentArea</text>
</g>
<!-- Node30 -->
<g id="node30" class="node">
<title>Node30</title>
<g id="a_node30"><a xlink:href="classFTensor_1_1Tensor1.html" target="_top" xlink:title=" ">
<polygon fill="white" stroke="black" points="1086,-784.5 1086,-803.5 1250,-803.5 1250,-784.5 1086,-784.5"/>
<text text-anchor="middle" x="1168" y="-791.5" font-family="Helvetica,sans-Serif" font-size="10.00">FTensor::Tensor1&lt; double, 3 &gt;</text>
</a>
</g>
</g>
<!-- Node7&#45;&gt;Node30 -->
<g id="edge39" class="edge">
<title>Node7&#45;&gt;Node30</title>
<path fill="none" stroke="#9a32cd" stroke-dasharray="5,2" d="M838.37,-682.99C857.38,-694.72 885.2,-710.87 911,-722 980.52,-751.99 1066.03,-773.11 1118.51,-784.41"/>
<polygon fill="#9a32cd" stroke="#9a32cd" points="840.13,-679.96 829.79,-677.62 836.41,-685.89 840.13,-679.96"/>
<text text-anchor="middle" x="979" y="-768" font-family="Helvetica,sans-Serif" font-size="10.00"> data</text>
</g>
<!-- Node8 -->
<g id="node8" class="node">
<title>Node8</title>
<g id="a_node8"><a xlink:href="classRange.html" target="_top" xlink:title=" ">
<polygon fill="white" stroke="black" points="790.5,-351.5 790.5,-370.5 837.5,-370.5 837.5,-351.5 790.5,-351.5"/>
<text text-anchor="middle" x="814" y="-358.5" font-family="Helvetica,sans-Serif" font-size="10.00">Range</text>
</a>
</g>
</g>
<!-- Node8&#45;&gt;Node6 -->
<g id="edge7" class="edge">
<title>Node8&#45;&gt;Node6</title>
<path fill="none" stroke="#9a32cd" stroke-dasharray="5,2" d="M847.9,-361C907.67,-361 1034.77,-361 1109.26,-361"/>
<polygon fill="#9a32cd" stroke="#9a32cd" points="847.55,-357.5 837.55,-361 847.55,-364.5 847.55,-357.5"/>
<text text-anchor="middle" x="979" y="-364" font-family="Helvetica,sans-Serif" font-size="10.00"> frontNodes</text>
</g>
<!-- Node9 -->
<g id="node9" class="node">
<title>Node9</title>
<g id="a_node9"><a xlink:title=" ">
<polygon fill="white" stroke="#bfbfbf" points="1135,-113.5 1135,-132.5 1201,-132.5 1201,-113.5 1135,-113.5"/>
<text text-anchor="middle" x="1168" y="-120.5" font-family="Helvetica,sans-Serif" font-size="10.00">VectorInt3</text>
</a>
</g>
</g>
<!-- Node9&#45;&gt;Node4 -->
<g id="edge8" class="edge">
<title>Node9&#45;&gt;Node4</title>
<path fill="none" stroke="#9a32cd" stroke-dasharray="5,2" d="M1211.06,-120.56C1259.09,-118.78 1339.7,-118.86 1407,-134 1430.29,-139.24 1454.95,-149.21 1474.77,-158.44"/>
<polygon fill="#9a32cd" stroke="#9a32cd" points="1210.88,-117.06 1201.04,-120.98 1211.17,-124.06 1210.88,-117.06"/>
<text text-anchor="middle" x="1348" y="-148" font-family="Helvetica,sans-Serif" font-size="10.00"> rowLambdaIndices</text>
<text text-anchor="middle" x="1348" y="-137" font-family="Helvetica,sans-Serif" font-size="10.00">rowLambdaIndicesLocal</text>
</g>
<!-- Node10 -->
<g id="node10" class="node">
<title>Node10</title>
<g id="a_node10"><a xlink:title=" ">
<polygon fill="white" stroke="#bfbfbf" points="1153.5,-534.5 1153.5,-553.5 1182.5,-553.5 1182.5,-534.5 1153.5,-534.5"/>
<text text-anchor="middle" x="1168" y="-541.5" font-family="Helvetica,sans-Serif" font-size="10.00">int</text>
</a>
</g>
</g>
<!-- Node10&#45;&gt;Node1 -->
<g id="edge64" class="edge">
<title>Node10&#45;&gt;Node1</title>
<path fill="none" stroke="#9a32cd" stroke-dasharray="5,2" d="M1192.68,-546.3C1216.87,-548.53 1255.51,-551.75 1289,-553 1494.86,-560.71 1738.82,-549.44 1852.79,-542.99"/>
<polygon fill="#9a32cd" stroke="#9a32cd" points="1192.94,-542.81 1182.66,-545.36 1192.29,-549.78 1192.94,-542.81"/>
<text text-anchor="middle" x="1645.5" y="-555" font-family="Helvetica,sans-Serif" font-size="10.00"> tAg</text>
</g>
<!-- Node10&#45;&gt;Node4 -->
<g id="edge9" class="edge">
<title>Node10&#45;&gt;Node4</title>
<path fill="none" stroke="#9a32cd" stroke-dasharray="5,2" d="M1192.84,-545.91C1215.54,-546.41 1249.36,-543.52 1271,-525 1289.26,-509.37 1272.03,-491.02 1289,-474 1328.31,-434.58 1372.88,-475.99 1407,-432 1434.08,-397.09 1401.71,-271.54 1425,-234 1434.04,-219.43 1448.5,-208.15 1463.2,-199.7"/>
<polygon fill="#9a32cd" stroke="#9a32cd" points="1192.84,-542.41 1182.69,-545.45 1192.52,-549.4 1192.84,-542.41"/>
<text text-anchor="middle" x="1348" y="-477" font-family="Helvetica,sans-Serif" font-size="10.00"> tAg</text>
</g>
<!-- Node10&#45;&gt;Node16 -->
<g id="edge20" class="edge">
<title>Node10&#45;&gt;Node16</title>
<path fill="none" stroke="#9a32cd" stroke-dasharray="5,2" d="M1192.94,-543.21C1250.07,-541.11 1390.86,-534.61 1407,-521 1430.25,-501.4 1404.12,-477.11 1425,-455 1431.86,-447.73 1440.54,-442.22 1449.77,-438.05"/>
<polygon fill="#9a32cd" stroke="#9a32cd" points="1192.56,-539.72 1182.69,-543.57 1192.81,-546.72 1192.56,-539.72"/>
<text text-anchor="middle" x="1348" y="-541" font-family="Helvetica,sans-Serif" font-size="10.00"> tAg</text>
</g>
<!-- Node11 -->
<g id="node11" class="node">
<title>Node11</title>
<g id="a_node11"><a xlink:title=" ">
<polygon fill="white" stroke="#bfbfbf" points="773,-74.5 773,-93.5 855,-93.5 855,-74.5 773,-74.5"/>
<text text-anchor="middle" x="814" y="-81.5" font-family="Helvetica,sans-Serif" font-size="10.00">VectorDouble</text>
</a>
</g>
</g>
<!-- Node11&#45;&gt;Node1 -->
<g id="edge65" class="edge">
<title>Node11&#45;&gt;Node1</title>
<path fill="none" stroke="#9a32cd" stroke-dasharray="5,2" d="M848.01,-70.63C909.62,-46.93 1046.78,0 1167,0 1167,0 1167,0 1751.5,0 1860.06,0 1905.1,-404.42 1915.21,-512.64"/>
<polygon fill="#9a32cd" stroke="#9a32cd" points="846.48,-67.47 838.44,-74.36 849.03,-73.99 846.48,-67.47"/>
<text text-anchor="middle" x="1515.5" y="-14" font-family="Helvetica,sans-Serif" font-size="10.00"> gradDelta</text>
<text text-anchor="middle" x="1515.5" y="-3" font-family="Helvetica,sans-Serif" font-size="10.00">activeVariables</text>
</g>
<!-- Node11&#45;&gt;Node4 -->
<g id="edge10" class="edge">
<title>Node11&#45;&gt;Node4</title>
<path fill="none" stroke="#9a32cd" stroke-dasharray="5,2" d="M864.95,-77.35C969.35,-65.45 1216.72,-47.78 1407,-117 1435.14,-127.24 1464.42,-144.64 1485.3,-158.4"/>
<polygon fill="#9a32cd" stroke="#9a32cd" points="864.53,-73.87 855,-78.52 865.34,-80.83 864.53,-73.87"/>
<text text-anchor="middle" x="1168" y="-85" font-family="Helvetica,sans-Serif" font-size="10.00"> activeVariables</text>
</g>
<!-- Node13 -->
<g id="node13" class="node">
<title>Node13</title>
<g id="a_node13"><a xlink:href="structFractureMechanics_1_1GriffithForceElement_1_1CommonData.html" target="_top" xlink:title=" ">
<polygon fill="white" stroke="black" points="1109.5,-190.5 1109.5,-231.5 1226.5,-231.5 1226.5,-190.5 1109.5,-190.5"/>
<text text-anchor="start" x="1117.5" y="-219.5" font-family="Helvetica,sans-Serif" font-size="10.00">FractureMechanics::</text>
<text text-anchor="start" x="1117.5" y="-208.5" font-family="Helvetica,sans-Serif" font-size="10.00">GriffithForceElement</text>
<text text-anchor="middle" x="1168" y="-197.5" font-family="Helvetica,sans-Serif" font-size="10.00">::CommonData</text>
</a>
</g>
</g>
<!-- Node11&#45;&gt;Node13 -->
<g id="edge14" class="edge">
<title>Node11&#45;&gt;Node13</title>
<path fill="none" stroke="#9a32cd" stroke-dasharray="5,2" d="M854.62,-96.85C901.39,-112.48 981.15,-140.57 1047,-171 1055.31,-174.84 1056.56,-177.47 1065,-181 1079.05,-186.88 1094.63,-192.09 1109.31,-196.44"/>
<polygon fill="#9a32cd" stroke="#9a32cd" points="855.47,-93.44 844.87,-93.62 853.26,-100.09 855.47,-93.44"/>
<text text-anchor="middle" x="979" y="-185" font-family="Helvetica,sans-Serif" font-size="10.00"> griffithForce</text>
<text text-anchor="middle" x="979" y="-174" font-family="Helvetica,sans-Serif" font-size="10.00">densityRho</text>
</g>
<!-- Node12 -->
<g id="node12" class="node">
<title>Node12</title>
<g id="a_node12"><a xlink:title=" ">
<polygon fill="white" stroke="#bfbfbf" points="1126.5,-28.5 1126.5,-47.5 1209.5,-47.5 1209.5,-28.5 1126.5,-28.5"/>
<text text-anchor="middle" x="1168" y="-35.5" font-family="Helvetica,sans-Serif" font-size="10.00">vector&lt; int &gt;</text>
</a>
</g>
</g>
<!-- Node12&#45;&gt;Node4 -->
<g id="edge11" class="edge">
<title>Node12&#45;&gt;Node4</title>
<path fill="none" stroke="#9a32cd" stroke-dasharray="5,2" d="M1219.79,-28.64C1270.1,-21.92 1347.97,-18.55 1407,-48 1454.91,-71.91 1489.03,-128.03 1504.76,-158.48"/>
<polygon fill="#9a32cd" stroke="#9a32cd" points="1219.2,-25.19 1209.8,-30.07 1220.19,-32.12 1219.2,-25.19"/>
<text text-anchor="middle" x="1348" y="-62" font-family="Helvetica,sans-Serif" font-size="10.00"> rowIndices</text>
<text text-anchor="middle" x="1348" y="-51" font-family="Helvetica,sans-Serif" font-size="10.00">rowIndicesLocal</text>
</g>
<!-- Node13&#45;&gt;Node4 -->
<g id="edge12" class="edge">
<title>Node13&#45;&gt;Node4</title>
<path fill="none" stroke="#9a32cd" stroke-dasharray="5,2" d="M1237.02,-202.63C1253.99,-200.66 1272.15,-198.66 1289,-197 1346.07,-191.4 1411.39,-186.33 1456.98,-183.01"/>
<polygon fill="#9a32cd" stroke="#9a32cd" points="1236.16,-199.2 1226.63,-203.84 1236.97,-206.16 1236.16,-199.2"/>
<text text-anchor="middle" x="1348" y="-200" font-family="Helvetica,sans-Serif" font-size="10.00"> commonData</text>
</g>
<!-- Node13&#45;&gt;Node16 -->
<g id="edge24" class="edge">
<title>Node13&#45;&gt;Node16</title>
<path fill="none" stroke="#9a32cd" stroke-dasharray="5,2" d="M1236.94,-212.17C1302.87,-213.97 1394.76,-218.54 1407,-230 1447.33,-267.76 1397.58,-305.04 1425,-353 1437.27,-374.47 1458.65,-392.03 1477.44,-404.44"/>
<polygon fill="#9a32cd" stroke="#9a32cd" points="1236.68,-208.66 1226.59,-211.9 1236.5,-215.66 1236.68,-208.66"/>
<text text-anchor="middle" x="1348" y="-233" font-family="Helvetica,sans-Serif" font-size="10.00"> commonData</text>
</g>
<!-- Node14 -->
<g id="node14" class="node">
<title>Node14</title>
<g id="a_node14"><a xlink:title=" ">
<polygon fill="white" stroke="#bfbfbf" points="772.5,-220.5 772.5,-239.5 855.5,-239.5 855.5,-220.5 772.5,-220.5"/>
<text text-anchor="middle" x="814" y="-227.5" font-family="Helvetica,sans-Serif" font-size="10.00">MatrixDouble</text>
</a>
</g>
</g>
<!-- Node14&#45;&gt;Node13 -->
<g id="edge13" class="edge">
<title>Node14&#45;&gt;Node13</title>
<path fill="none" stroke="#9a32cd" stroke-dasharray="5,2" d="M866.08,-227.24C930.76,-223.75 1041.9,-217.75 1109.49,-214.1"/>
<polygon fill="#9a32cd" stroke="#9a32cd" points="865.52,-223.77 855.72,-227.8 865.9,-230.76 865.52,-223.77"/>
<text text-anchor="middle" x="979" y="-239" font-family="Helvetica,sans-Serif" font-size="10.00"> tangentGriffithForce</text>
<text text-anchor="middle" x="979" y="-228" font-family="Helvetica,sans-Serif" font-size="10.00">diffRho</text>
</g>
<!-- Node15 -->
<g id="node15" class="node">
<title>Node15</title>
<g id="a_node15"><a xlink:title=" ">
<polygon fill="white" stroke="#bfbfbf" points="758.5,-182.5 758.5,-201.5 869.5,-201.5 869.5,-182.5 758.5,-182.5"/>
<text text-anchor="middle" x="814" y="-189.5" font-family="Helvetica,sans-Serif" font-size="10.00">vector&lt; double * &gt;</text>
</a>
</g>
</g>
<!-- Node15&#45;&gt;Node13 -->
<g id="edge15" class="edge">
<title>Node15&#45;&gt;Node13</title>
<path fill="none" stroke="#9a32cd" stroke-dasharray="5,2" d="M880.1,-194.75C926.61,-196.8 990.67,-199.79 1047,-203 1067.32,-204.16 1089.57,-205.6 1109.33,-206.93"/>
<polygon fill="#9a32cd" stroke="#9a32cd" points="880,-191.24 869.86,-194.3 879.7,-198.24 880,-191.24"/>
<text text-anchor="middle" x="979" y="-206" font-family="Helvetica,sans-Serif" font-size="10.00"> tangentGriffithForceRowPtr</text>
</g>
<!-- Node16&#45;&gt;Node2 -->
<g id="edge16" class="edge">
<title>Node16&#45;&gt;Node2</title>
<path fill="none" stroke="#9a32cd" stroke-dasharray="5,2" d="M1591.14,-425C1621.27,-425 1655.72,-425 1684.78,-425"/>
<polygon fill="#9a32cd" stroke="#9a32cd" points="1591.09,-421.5 1581.09,-425 1591.09,-428.5 1591.09,-421.5"/>
<text text-anchor="middle" x="1645.5" y="-428" font-family="Helvetica,sans-Serif" font-size="10.00"> arcFront</text>
</g>
<!-- Node17 -->
<g id="node17" class="node">
<title>Node17</title>
<g id="a_node17"><a xlink:href="classFEMethod.html" target="_top" xlink:title=" ">
<polygon fill="white" stroke="black" points="1135.5,-450.5 1135.5,-469.5 1200.5,-469.5 1200.5,-450.5 1135.5,-450.5"/>
<text text-anchor="middle" x="1168" y="-457.5" font-family="Helvetica,sans-Serif" font-size="10.00">FEMethod</text>
</a>
</g>
</g>
<!-- Node17&#45;&gt;Node16 -->
<g id="edge17" class="edge">
<title>Node17&#45;&gt;Node16</title>
<path fill="none" stroke="midnightblue" d="M1210.73,-455.77C1270.19,-449.75 1379.86,-438.64 1449.88,-431.55"/>
<polygon fill="midnightblue" stroke="midnightblue" points="1210.17,-452.31 1200.58,-456.8 1210.88,-459.28 1210.17,-452.31"/>
</g>
<!-- Node18 -->
<g id="node18" class="node">
<title>Node18</title>
<g id="a_node18"><a xlink:title=" ">
<polygon fill="white" stroke="#bfbfbf" points="1146,-257.5 1146,-276.5 1190,-276.5 1190,-257.5 1146,-257.5"/>
<text text-anchor="middle" x="1168" y="-264.5" font-family="Helvetica,sans-Serif" font-size="10.00">string</text>
</a>
</g>
</g>
<!-- Node18&#45;&gt;Node2 -->
<g id="edge63" class="edge">
<title>Node18&#45;&gt;Node2</title>
<path fill="none" stroke="#9a32cd" stroke-dasharray="5,2" d="M1200.44,-262.6C1274.95,-253.64 1466.47,-239.18 1606,-304 1654.91,-326.72 1700.56,-370.64 1726.72,-398.85"/>
<polygon fill="#9a32cd" stroke="#9a32cd" points="1199.8,-259.16 1190.32,-263.88 1200.68,-266.1 1199.8,-259.16"/>
<text text-anchor="middle" x="1515.5" y="-307" font-family="Helvetica,sans-Serif" font-size="10.00"> lambdaFieldName</text>
</g>
<!-- Node18&#45;&gt;Node16 -->
<g id="edge21" class="edge">
<title>Node18&#45;&gt;Node16</title>
<path fill="none" stroke="#9a32cd" stroke-dasharray="5,2" d="M1200.12,-272.42C1220.74,-276.61 1248.1,-283.34 1271,-293 1279.64,-296.64 1280.8,-299.46 1289,-304 1340.28,-332.42 1355.36,-335.23 1407,-363 1431.67,-376.27 1459,-392.05 1479.94,-404.37"/>
<polygon fill="#9a32cd" stroke="#9a32cd" points="1200.79,-268.98 1190.3,-270.51 1199.45,-275.85 1200.79,-268.98"/>
<text text-anchor="middle" x="1348" y="-366" font-family="Helvetica,sans-Serif" font-size="10.00"> lambdaFieldName</text>
</g>
<!-- Node19 -->
<g id="node19" class="node">
<title>Node19</title>
<g id="a_node19"><a xlink:title=" ">
<polygon fill="white" stroke="#bfbfbf" points="1065,-401 1065,-431 1271,-431 1271,-401 1065,-401"/>
<text text-anchor="start" x="1073" y="-419" font-family="Helvetica,sans-Serif" font-size="10.00">shared_ptr&lt; FractureMechanics</text>
<text text-anchor="middle" x="1168" y="-408" font-family="Helvetica,sans-Serif" font-size="10.00">::GriffithForceElement::MyTriangleFE &gt;</text>
</a>
</g>
</g>
<!-- Node19&#45;&gt;Node16 -->
<g id="edge22" class="edge">
<title>Node19&#45;&gt;Node16</title>
<path fill="none" stroke="#9a32cd" stroke-dasharray="5,2" d="M1281.48,-414.86C1321.16,-414.88 1366.07,-415.39 1407,-417 1420.84,-417.54 1435.66,-418.44 1449.74,-419.44"/>
<polygon fill="#9a32cd" stroke="#9a32cd" points="1281.24,-411.36 1271.25,-414.86 1281.25,-418.36 1281.24,-411.36"/>
<text text-anchor="middle" x="1348" y="-420" font-family="Helvetica,sans-Serif" font-size="10.00"> feIntLambda</text>
</g>
<!-- Node20 -->
<g id="node20" class="node">
<title>Node20</title>
<g id="a_node20"><a xlink:title=" ">
<polygon fill="white" stroke="#bfbfbf" points="1090,-572.5 1090,-591.5 1246,-591.5 1246,-572.5 1090,-572.5"/>
<text text-anchor="middle" x="1168" y="-579.5" font-family="Helvetica,sans-Serif" font-size="10.00">shared_ptr&lt; ArcLengthCtx &gt;</text>
</a>
</g>
</g>
<!-- Node20&#45;&gt;Node16 -->
<g id="edge23" class="edge">
<title>Node20&#45;&gt;Node16</title>
<path fill="none" stroke="#9a32cd" stroke-dasharray="5,2" d="M1229.45,-592.72C1283.14,-598.52 1360.16,-597.09 1407,-553 1439.24,-522.65 1395.98,-488.45 1425,-455 1431.66,-447.32 1440.34,-441.61 1449.68,-437.35"/>
<polygon fill="#9a32cd" stroke="#9a32cd" points="1229.72,-589.23 1219.37,-591.52 1228.89,-596.18 1229.72,-589.23"/>
<text text-anchor="middle" x="1348" y="-597" font-family="Helvetica,sans-Serif" font-size="10.00"> arcPtr</text>
</g>
<!-- Node21 -->
<g id="node21" class="node">
<title>Node21</title>
<g id="a_node21"><a xlink:title=" ">
<polygon fill="white" stroke="#bfbfbf" points="1151,-496.5 1151,-515.5 1185,-515.5 1185,-496.5 1151,-496.5"/>
<text text-anchor="middle" x="1168" y="-503.5" font-family="Helvetica,sans-Serif" font-size="10.00">Vec</text>
</a>
</g>
</g>
<!-- Node21&#45;&gt;Node16 -->
<g id="edge25" class="edge">
<title>Node21&#45;&gt;Node16</title>
<path fill="none" stroke="#9a32cd" stroke-dasharray="5,2" d="M1195.28,-506.93C1249.71,-508.39 1372.53,-509.04 1407,-487 1420.75,-478.21 1412.42,-465.4 1425,-455 1432.33,-448.94 1440.93,-444.09 1449.85,-440.21"/>
<polygon fill="#9a32cd" stroke="#9a32cd" points="1195.16,-503.43 1185.06,-506.63 1194.95,-510.43 1195.16,-503.43"/>
<text text-anchor="middle" x="1348" y="-509" font-family="Helvetica,sans-Serif" font-size="10.00"> ghostIntLambda</text>
</g>
<!-- Node22&#45;&gt;Node2 -->
<g id="edge26" class="edge">
<title>Node22&#45;&gt;Node2</title>
<path fill="none" stroke="#9a32cd" stroke-dasharray="5,2" d="M1519.64,-874.84C1527.58,-808 1553.13,-647.87 1624,-536 1645.95,-501.35 1681.79,-471.2 1709.56,-451.1"/>
<polygon fill="#9a32cd" stroke="#9a32cd" points="1516.13,-874.78 1518.47,-885.11 1523.08,-875.57 1516.13,-874.78"/>
<text text-anchor="middle" x="1645.5" y="-539" font-family="Helvetica,sans-Serif" font-size="10.00"> auxFun</text>
</g>
<!-- Node23 -->
<g id="node23" class="node">
<title>Node23</title>
<g id="a_node23"><a xlink:href="classFTensor_1_1Index.html" target="_top" xlink:title=" ">
<polygon fill="white" stroke="black" points="749,-1089.5 749,-1108.5 879,-1108.5 879,-1089.5 749,-1089.5"/>
<text text-anchor="middle" x="814" y="-1096.5" font-family="Helvetica,sans-Serif" font-size="10.00">FTensor::Index&lt; &#39;i&#39;, 3 &gt;</text>
</a>
</g>
</g>
<!-- Node23&#45;&gt;Node22 -->
<g id="edge28" class="edge">
<title>Node23&#45;&gt;Node22</title>
<path fill="none" stroke="#9a32cd" stroke-dasharray="5,2" d="M883.52,-1087.85C992.32,-1069.81 1199.59,-1034.05 1271,-1012 1345.23,-989.07 1427.23,-950.41 1474.62,-926.65"/>
<polygon fill="#9a32cd" stroke="#9a32cd" points="882.92,-1084.4 873.63,-1089.48 884.06,-1091.3 882.92,-1084.4"/>
<text text-anchor="middle" x="1168" y="-1058" font-family="Helvetica,sans-Serif" font-size="10.00"> i</text>
</g>
<!-- Node36 -->
<g id="node36" class="node">
<title>Node36</title>
<g id="a_node36"><a xlink:href="structFractureMechanics_1_1GriffithForceElement_1_1AuxFunctions.html" target="_top" xlink:title=" ">
<polygon fill="white" stroke="black" points="1101,-1261.5 1101,-1302.5 1235,-1302.5 1235,-1261.5 1101,-1261.5"/>
<text text-anchor="start" x="1109" y="-1290.5" font-family="Helvetica,sans-Serif" font-size="10.00">FractureMechanics::</text>
<text text-anchor="start" x="1109" y="-1279.5" font-family="Helvetica,sans-Serif" font-size="10.00">GriffithForceElement</text>
<text text-anchor="middle" x="1168" y="-1268.5" font-family="Helvetica,sans-Serif" font-size="10.00">::AuxFunctions&lt; TYPE &gt;</text>
</a>
</g>
</g>
<!-- Node23&#45;&gt;Node36 -->
<g id="edge46" class="edge">
<title>Node23&#45;&gt;Node36</title>
<path fill="none" stroke="#9a32cd" stroke-dasharray="5,2" d="M840.71,-1113.7C859.99,-1124.66 887.06,-1139.93 911,-1153 971.03,-1185.77 994.08,-1181.68 1047,-1225 1056.78,-1233 1054.63,-1239.79 1065,-1247 1075.76,-1254.48 1088.26,-1260.49 1100.75,-1265.27"/>
<polygon fill="#9a32cd" stroke="#9a32cd" points="842.34,-1110.6 831.92,-1108.69 838.88,-1116.68 842.34,-1110.6"/>
<text text-anchor="middle" x="979" y="-1228" font-family="Helvetica,sans-Serif" font-size="10.00"> i</text>
</g>
<!-- Node46 -->
<g id="node46" class="node">
<title>Node46</title>
<g id="a_node46"><a xlink:href="structFractureMechanics_1_1GriffithForceElement_1_1AuxFunctions.html" target="_top" xlink:title=" ">
<polygon fill="white" stroke="black" points="1441,-1340.5 1441,-1381.5 1590,-1381.5 1590,-1340.5 1441,-1340.5"/>
<text text-anchor="start" x="1449" y="-1369.5" font-family="Helvetica,sans-Serif" font-size="10.00">FractureMechanics::</text>
<text text-anchor="start" x="1449" y="-1358.5" font-family="Helvetica,sans-Serif" font-size="10.00">GriffithForceElement</text>
<text text-anchor="middle" x="1515.5" y="-1347.5" font-family="Helvetica,sans-Serif" font-size="10.00">::AuxFunctions&lt; adouble &gt;</text>
</a>
</g>
</g>
<!-- Node23&#45;&gt;Node46 -->
<g id="edge70" class="edge">
<title>Node23&#45;&gt;Node46</title>
<path fill="none" stroke="#9a32cd" stroke-dasharray="5,2" d="M889.25,-1100.95C1029.25,-1105.97 1325.52,-1123.4 1407,-1182 1463.36,-1222.53 1495.55,-1302.59 1508.2,-1340.36"/>
<polygon fill="#9a32cd" stroke="#9a32cd" points="889.15,-1097.44 879.04,-1100.6 888.91,-1104.44 889.15,-1097.44"/>
<text text-anchor="middle" x="1168" y="-1138" font-family="Helvetica,sans-Serif" font-size="10.00"> i</text>
</g>
<!-- Node24 -->
<g id="node24" class="node">
<title>Node24</title>
<g id="a_node24"><a xlink:href="classFTensor_1_1Index.html" target="_top" xlink:title=" ">
<polygon fill="white" stroke="black" points="454.5,-1040 454.5,-1070 558.5,-1070 558.5,-1040 454.5,-1040"/>
<text text-anchor="start" x="462.5" y="-1058" font-family="Helvetica,sans-Serif" font-size="10.00">FTensor::Index&lt; i,</text>
<text text-anchor="middle" x="506.5" y="-1047" font-family="Helvetica,sans-Serif" font-size="10.00"> Dim &gt;</text>
</a>
</g>
</g>
<!-- Node24&#45;&gt;Node23 -->
<g id="edge29" class="edge">
<title>Node24&#45;&gt;Node23</title>
<path fill="none" stroke="orange" stroke-dasharray="5,2" d="M568.77,-1063.82C621.03,-1071.35 695.91,-1082.14 748.95,-1089.78"/>
<polygon fill="orange" stroke="orange" points="569.03,-1060.33 558.63,-1062.36 568.03,-1067.25 569.03,-1060.33"/>
<text text-anchor="middle" x="681" y="-1087" font-family="Helvetica,sans-Serif" font-size="10.00"> &lt; &#39;i&#39;, 3 &gt;</text>
</g>
<!-- Node25 -->
<g id="node25" class="node">
<title>Node25</title>
<g id="a_node25"><a xlink:href="classFTensor_1_1Index.html" target="_top" xlink:title=" ">
<polygon fill="white" stroke="black" points="749,-1045.5 749,-1064.5 879,-1064.5 879,-1045.5 749,-1045.5"/>
<text text-anchor="middle" x="814" y="-1052.5" font-family="Helvetica,sans-Serif" font-size="10.00">FTensor::Index&lt; &#39;j&#39;, 3 &gt;</text>
</a>
</g>
</g>
<!-- Node24&#45;&gt;Node25 -->
<g id="edge31" class="edge">
<title>Node24&#45;&gt;Node25</title>
<path fill="none" stroke="orange" stroke-dasharray="5,2" d="M568.77,-1055C621.03,-1055 695.91,-1055 748.95,-1055"/>
<polygon fill="orange" stroke="orange" points="568.63,-1051.5 558.63,-1055 568.63,-1058.5 568.63,-1051.5"/>
<text text-anchor="middle" x="681" y="-1058" font-family="Helvetica,sans-Serif" font-size="10.00"> &lt; &#39;j&#39;, 3 &gt;</text>
</g>
<!-- Node26 -->
<g id="node26" class="node">
<title>Node26</title>
<g id="a_node26"><a xlink:href="classFTensor_1_1Index.html" target="_top" xlink:title=" ">
<polygon fill="white" stroke="black" points="747.5,-942.5 747.5,-961.5 880.5,-961.5 880.5,-942.5 747.5,-942.5"/>
<text text-anchor="middle" x="814" y="-949.5" font-family="Helvetica,sans-Serif" font-size="10.00">FTensor::Index&lt; &#39;k&#39;, 3 &gt;</text>
</a>
</g>
</g>
<!-- Node24&#45;&gt;Node26 -->
<g id="edge33" class="edge">
<title>Node24&#45;&gt;Node26</title>
<path fill="none" stroke="orange" stroke-dasharray="5,2" d="M538.36,-1034.24C565.36,-1017.06 606.2,-993.39 645,-980 677.7,-968.72 715.61,-961.9 747.12,-957.82"/>
<polygon fill="orange" stroke="orange" points="536.27,-1031.42 529.76,-1039.79 540.06,-1037.3 536.27,-1031.42"/>
<text text-anchor="middle" x="681" y="-983" font-family="Helvetica,sans-Serif" font-size="10.00"> &lt; &#39;k&#39;, 3 &gt;</text>
</g>
<!-- Node25&#45;&gt;Node22 -->
<g id="edge30" class="edge">
<title>Node25&#45;&gt;Node22</title>
<path fill="none" stroke="#9a32cd" stroke-dasharray="5,2" d="M888.96,-1044.75C954.77,-1035.29 1041.48,-1021.86 1047,-1016 1072.6,-988.84 1037.23,-873.94 1065,-849 1121.64,-798.13 1333.03,-851 1407,-869 1424.93,-873.36 1444.1,-879.48 1461.22,-885.48"/>
<polygon fill="#9a32cd" stroke="#9a32cd" points="888.41,-1041.29 879.01,-1046.17 889.4,-1048.22 888.41,-1041.29"/>
<text text-anchor="middle" x="1168" y="-852" font-family="Helvetica,sans-Serif" font-size="10.00"> j</text>
</g>
<!-- Node25&#45;&gt;Node36 -->
<g id="edge47" class="edge">
<title>Node25&#45;&gt;Node36</title>
<path fill="none" stroke="#9a32cd" stroke-dasharray="5,2" d="M867.09,-1067.03C928.1,-1082.2 1023.8,-1109.73 1047,-1138 1078.15,-1175.96 1033.3,-1209.51 1065,-1247 1074.31,-1258.01 1087.25,-1265.56 1100.79,-1270.74"/>
<polygon fill="#9a32cd" stroke="#9a32cd" points="867.79,-1063.6 857.24,-1064.61 866.12,-1070.39 867.79,-1063.6"/>
<text text-anchor="middle" x="979" y="-1141" font-family="Helvetica,sans-Serif" font-size="10.00"> j</text>
</g>
<!-- Node25&#45;&gt;Node46 -->
<g id="edge71" class="edge">
<title>Node25&#45;&gt;Node46</title>
<path fill="none" stroke="#9a32cd" stroke-dasharray="5,2" d="M889.36,-1059.84C999.32,-1067.32 1199.96,-1082.25 1271,-1096 1332.98,-1108 1359.04,-1095.94 1407,-1137 1471.88,-1192.55 1500.7,-1296.17 1510.44,-1340.27"/>
<polygon fill="#9a32cd" stroke="#9a32cd" points="889.54,-1056.35 879.33,-1059.16 889.07,-1063.33 889.54,-1056.35"/>
<text text-anchor="middle" x="1168" y="-1099" font-family="Helvetica,sans-Serif" font-size="10.00"> j</text>
</g>
<!-- Node26&#45;&gt;Node22 -->
<g id="edge32" class="edge">
<title>Node26&#45;&gt;Node22</title>
<path fill="none" stroke="#9a32cd" stroke-dasharray="5,2" d="M818.63,-932.23C827,-893.06 851.67,-806.2 911,-769 1004.38,-710.45 1308.88,-719.79 1407,-770 1456.03,-795.09 1489.89,-853.81 1505.22,-885.25"/>
<polygon fill="#9a32cd" stroke="#9a32cd" points="815.18,-931.64 816.65,-942.13 822.05,-933.01 815.18,-931.64"/>
<text text-anchor="middle" x="1168" y="-738" font-family="Helvetica,sans-Serif" font-size="10.00"> k</text>
</g>
<!-- Node26&#45;&gt;Node36 -->
<g id="edge49" class="edge">
<title>Node26&#45;&gt;Node36</title>
<path fill="none" stroke="#9a32cd" stroke-dasharray="5,2" d="M878.89,-963.97C933.36,-977.82 1008.74,-1006.42 1047,-1063 1093.03,-1131.07 1014.05,-1182.54 1065,-1247 1074.06,-1258.46 1087.06,-1266.18 1100.77,-1271.38"/>
<polygon fill="#9a32cd" stroke="#9a32cd" points="879.52,-960.52 868.97,-961.55 877.86,-967.32 879.52,-960.52"/>
<text text-anchor="middle" x="979" y="-1066" font-family="Helvetica,sans-Serif" font-size="10.00"> k</text>
</g>
<!-- Node26&#45;&gt;Node46 -->
<g id="edge72" class="edge">
<title>Node26&#45;&gt;Node46</title>
<path fill="none" stroke="#9a32cd" stroke-dasharray="5,2" d="M890.64,-956.56C936.02,-959.54 994.88,-963.84 1047,-969 1146.84,-978.89 1177.62,-960.31 1271,-997 1340.34,-1024.25 1361.01,-1036.38 1407,-1095 1468.8,-1173.77 1499.82,-1292.83 1510.3,-1340.35"/>
<polygon fill="#9a32cd" stroke="#9a32cd" points="890.78,-953.06 880.58,-955.91 890.33,-960.05 890.78,-953.06"/>
<text text-anchor="middle" x="1168" y="-1000" font-family="Helvetica,sans-Serif" font-size="10.00"> k</text>
</g>
<!-- Node27 -->
<g id="node27" class="node">
<title>Node27</title>
<g id="a_node27"><a xlink:href="classFTensor_1_1Number.html" target="_top" xlink:title=" ">
<polygon fill="white" stroke="black" points="750.5,-1536.5 750.5,-1555.5 877.5,-1555.5 877.5,-1536.5 750.5,-1536.5"/>
<text text-anchor="middle" x="814" y="-1543.5" font-family="Helvetica,sans-Serif" font-size="10.00">FTensor::Number&lt; 1 &gt;</text>
</a>
</g>
</g>
<!-- Node27&#45;&gt;Node22 -->
<g id="edge34" class="edge">
<title>Node27&#45;&gt;Node22</title>
<path fill="none" stroke="#9a32cd" stroke-dasharray="5,2" d="M887.12,-1534.63C889.15,-1533.52 891.12,-1532.32 893,-1531 905.74,-1522.09 898.32,-1509.99 911,-1501 961.34,-1465.31 1004.56,-1517.8 1047,-1473 1084.09,-1433.85 1027.78,-1392.03 1065,-1353 1129.42,-1285.44 1185.04,-1348.41 1271,-1312 1338.66,-1283.34 1362.6,-1276.54 1407,-1218 1478.15,-1124.2 1504.34,-979.94 1511.91,-926.68"/>
<polygon fill="#9a32cd" stroke="#9a32cd" points="885.47,-1531.54 877.83,-1538.89 888.38,-1537.9 885.47,-1531.54"/>
<text text-anchor="middle" x="1168" y="-1356" font-family="Helvetica,sans-Serif" font-size="10.00"> N1</text>
</g>
<!-- Node27&#45;&gt;Node36 -->
<g id="edge50" class="edge">
<title>Node27&#45;&gt;Node36</title>
<path fill="none" stroke="#9a32cd" stroke-dasharray="5,2" d="M855.59,-1532.43C868.89,-1526.36 882.85,-1518.03 893,-1507 907.59,-1491.15 894.33,-1475.65 911,-1462 958.55,-1423.07 1004.26,-1481.17 1047,-1437 1084.5,-1398.24 1030.48,-1358.44 1065,-1317 1074.29,-1305.85 1087.3,-1298.25 1100.93,-1293.06"/>
<polygon fill="#9a32cd" stroke="#9a32cd" points="853.92,-1529.33 846.07,-1536.45 856.65,-1535.78 853.92,-1529.33"/>
<text text-anchor="middle" x="979" y="-1465" font-family="Helvetica,sans-Serif" font-size="10.00"> N1</text>
</g>
<!-- Node27&#45;&gt;Node46 -->
<g id="edge73" class="edge">
<title>Node27&#45;&gt;Node46</title>
<path fill="none" stroke="#9a32cd" stroke-dasharray="5,2" d="M854,-1558.44C954.92,-1588.08 1229.13,-1652.28 1407,-1538 1465.08,-1500.69 1496.51,-1419.78 1508.59,-1381.66"/>
<polygon fill="#9a32cd" stroke="#9a32cd" points="854.81,-1555.03 844.23,-1555.51 852.81,-1561.73 854.81,-1555.03"/>
<text text-anchor="middle" x="1168" y="-1606" font-family="Helvetica,sans-Serif" font-size="10.00"> N1</text>
</g>
<!-- Node28 -->
<g id="node28" class="node">
<title>Node28</title>
<g id="a_node28"><a xlink:href="classFTensor_1_1Number.html" target="_top" xlink:title=" ">
<polygon fill="white" stroke="black" points="442.5,-1558.5 442.5,-1577.5 570.5,-1577.5 570.5,-1558.5 442.5,-1558.5"/>
<text text-anchor="middle" x="506.5" y="-1565.5" font-family="Helvetica,sans-Serif" font-size="10.00">FTensor::Number&lt; N &gt;</text>
</a>
</g>
</g>
<!-- Node28&#45;&gt;Node27 -->
<g id="edge35" class="edge">
<title>Node28&#45;&gt;Node27</title>
<path fill="none" stroke="orange" stroke-dasharray="5,2" d="M580.75,-1559.09C601.5,-1556.82 624.11,-1554.57 645,-1553 679.79,-1550.38 718.7,-1548.68 750.31,-1547.61"/>
<polygon fill="orange" stroke="orange" points="580.29,-1555.62 570.74,-1560.2 581.06,-1562.58 580.29,-1555.62"/>
<text text-anchor="middle" x="681" y="-1556" font-family="Helvetica,sans-Serif" font-size="10.00"> &lt; 1 &gt;</text>
</g>
<!-- Node29 -->
<g id="node29" class="node">
<title>Node29</title>
<g id="a_node29"><a xlink:href="classFTensor_1_1Number.html" target="_top" xlink:title=" ">
<polygon fill="white" stroke="black" points="750.5,-1581.5 750.5,-1600.5 877.5,-1600.5 877.5,-1581.5 750.5,-1581.5"/>
<text text-anchor="middle" x="814" y="-1588.5" font-family="Helvetica,sans-Serif" font-size="10.00">FTensor::Number&lt; 0 &gt;</text>
</a>
</g>
</g>
<!-- Node28&#45;&gt;Node29 -->
<g id="edge37" class="edge">
<title>Node28&#45;&gt;Node29</title>
<path fill="none" stroke="orange" stroke-dasharray="5,2" d="M580.91,-1573.53C632.63,-1577.42 701.14,-1582.58 750.3,-1586.28"/>
<polygon fill="orange" stroke="orange" points="581.03,-1570.03 570.8,-1572.77 580.51,-1577.01 581.03,-1570.03"/>
<text text-anchor="middle" x="681" y="-1586" font-family="Helvetica,sans-Serif" font-size="10.00"> &lt; 0 &gt;</text>
</g>
<!-- Node29&#45;&gt;Node22 -->
<g id="edge36" class="edge">
<title>Node29&#45;&gt;Node22</title>
<path fill="none" stroke="#9a32cd" stroke-dasharray="5,2" d="M887.78,-1598.17C947.16,-1602.26 1024.73,-1603.03 1047,-1582 1077.35,-1553.34 1036,-1425.03 1065,-1395 1118.25,-1339.86 1349.98,-1401.24 1407,-1350 1471.82,-1291.76 1504.57,-1006.34 1512.54,-926.68"/>
<polygon fill="#9a32cd" stroke="#9a32cd" points="887.9,-1594.67 877.67,-1597.43 887.39,-1601.65 887.9,-1594.67"/>
<text text-anchor="middle" x="1168" y="-1398" font-family="Helvetica,sans-Serif" font-size="10.00"> N0</text>
</g>
<!-- Node29&#45;&gt;Node36 -->
<g id="edge52" class="edge">
<title>Node29&#45;&gt;Node36</title>
<path fill="none" stroke="#9a32cd" stroke-dasharray="5,2" d="M876.64,-1579C931.46,-1564.77 1008.69,-1535.24 1047,-1477 1086.33,-1417.22 1020.22,-1372.82 1065,-1317 1074.14,-1305.61 1087.18,-1297.91 1100.89,-1292.71"/>
<polygon fill="#9a32cd" stroke="#9a32cd" points="875.54,-1575.66 866.68,-1581.48 877.23,-1582.46 875.54,-1575.66"/>
<text text-anchor="middle" x="979" y="-1570" font-family="Helvetica,sans-Serif" font-size="10.00"> N0</text>
</g>
<!-- Node29&#45;&gt;Node46 -->
<g id="edge74" class="edge">
<title>Node29&#45;&gt;Node46</title>
<path fill="none" stroke="#9a32cd" stroke-dasharray="5,2" d="M875.82,-1604.28C881.92,-1606.95 887.78,-1610.15 893,-1614 904.61,-1622.55 898.28,-1634.19 911,-1641 1009.04,-1693.47 1322.37,-1647.12 1407,-1575 1469.18,-1522.01 1499.24,-1424.28 1509.86,-1381.72"/>
<polygon fill="#9a32cd" stroke="#9a32cd" points="876.68,-1600.86 866.09,-1600.5 874.15,-1607.38 876.68,-1600.86"/>
<text text-anchor="middle" x="1168" y="-1666" font-family="Helvetica,sans-Serif" font-size="10.00"> N0</text>
</g>
<!-- Node30&#45;&gt;Node22 -->
<g id="edge38" class="edge">
<title>Node30&#45;&gt;Node22</title>
<path fill="none" stroke="#9a32cd" stroke-dasharray="5,2" d="M1219.13,-782.61C1268.94,-773.8 1346.43,-767.02 1407,-793 1450.8,-811.78 1485.18,-858.15 1502.4,-885.29"/>
<polygon fill="#9a32cd" stroke="#9a32cd" points="1218.44,-779.18 1209.24,-784.45 1219.72,-786.06 1218.44,-779.18"/>
<text text-anchor="middle" x="1348" y="-818" font-family="Helvetica,sans-Serif" font-size="10.00"> t_Tangent2_eta</text>
<text text-anchor="middle" x="1348" y="-807" font-family="Helvetica,sans-Serif" font-size="10.00">t_Tangent1_ksi</text>
<text text-anchor="middle" x="1348" y="-796" font-family="Helvetica,sans-Serif" font-size="10.00">t_Normal</text>
</g>
<!-- Node31 -->
<g id="node31" class="node">
<title>Node31</title>
<g id="a_node31"><a xlink:href="classFTensor_1_1Tensor1.html" target="_top" xlink:title=" ">
<polygon fill="white" stroke="black" points="448,-1238 448,-1268 565,-1268 565,-1238 448,-1238"/>
<text text-anchor="start" x="456" y="-1256" font-family="Helvetica,sans-Serif" font-size="10.00">FTensor::Tensor1&lt; T,</text>
<text text-anchor="middle" x="506.5" y="-1245" font-family="Helvetica,sans-Serif" font-size="10.00"> Tensor_Dim &gt;</text>
</a>
</g>
</g>
<!-- Node31&#45;&gt;Node30 -->
<g id="edge40" class="edge">
<title>Node31&#45;&gt;Node30</title>
<path fill="none" stroke="orange" stroke-dasharray="5,2" d="M524.37,-1229.37C547.86,-1196.29 591.53,-1134.15 627,-1080 635.31,-1067.31 632.91,-1060.16 645,-1051 678.19,-1025.86 694.15,-1033.06 735,-1025 769.21,-1018.25 1022.36,-1015.68 1047,-991 1073.53,-964.43 1040.8,-851.71 1065,-823 1072.41,-814.2 1082.29,-807.97 1092.98,-803.58"/>
<polygon fill="orange" stroke="orange" points="521.25,-1227.72 518.3,-1237.9 526.95,-1231.78 521.25,-1227.72"/>
<text text-anchor="middle" x="814" y="-1028" font-family="Helvetica,sans-Serif" font-size="10.00"> &lt; double, 3 &gt;</text>
</g>
<!-- Node39 -->
<g id="node39" class="node">
<title>Node39</title>
<g id="a_node39"><a xlink:href="classFTensor_1_1Tensor1.html" target="_top" xlink:title=" ">
<polygon fill="white" stroke="black" points="736.5,-1280.5 736.5,-1299.5 891.5,-1299.5 891.5,-1280.5 736.5,-1280.5"/>
<text text-anchor="middle" x="814" y="-1287.5" font-family="Helvetica,sans-Serif" font-size="10.00">FTensor::Tensor1&lt; TYPE, 3 &gt;</text>
</a>
</g>
</g>
<!-- Node31&#45;&gt;Node39 -->
<g id="edge55" class="edge">
<title>Node31&#45;&gt;Node39</title>
<path fill="none" stroke="orange" stroke-dasharray="5,2" d="M575.58,-1247.3C616.83,-1245.33 670.34,-1245.42 717,-1254 731.36,-1256.64 766.72,-1270.67 790.28,-1280.42"/>
<polygon fill="orange" stroke="orange" points="575.16,-1243.81 565.36,-1247.84 575.53,-1250.8 575.16,-1243.81"/>
<text text-anchor="middle" x="681" y="-1257" font-family="Helvetica,sans-Serif" font-size="10.00"> &lt; TYPE, 3 &gt;</text>
</g>
<!-- Node50 -->
<g id="node50" class="node">
<title>Node50</title>
<g id="a_node50"><a xlink:href="classFTensor_1_1Tensor1.html" target="_top" xlink:title=" ">
<polygon fill="white" stroke="black" points="1083,-1453.5 1083,-1472.5 1253,-1472.5 1253,-1453.5 1083,-1453.5"/>
<text text-anchor="middle" x="1168" y="-1460.5" font-family="Helvetica,sans-Serif" font-size="10.00">FTensor::Tensor1&lt; adouble, 3 &gt;</text>
</a>
</g>
</g>
<!-- Node31&#45;&gt;Node50 -->
<g id="edge77" class="edge">
<title>Node31&#45;&gt;Node50</title>
<path fill="none" stroke="orange" stroke-dasharray="5,2" d="M575.28,-1258.71C629.04,-1264.73 698.18,-1276.3 717,-1297 765.14,-1349.95 690.97,-1400.59 735,-1457 781.12,-1516.09 828.79,-1477.33 893,-1516 902.17,-1521.52 901,-1528.2 911,-1532 967.5,-1553.48 997.44,-1566.6 1047,-1532 1066.02,-1518.72 1047.35,-1498.06 1065,-1483 1070.35,-1478.43 1076.45,-1474.79 1082.92,-1471.9"/>
<polygon fill="orange" stroke="orange" points="575.41,-1255.2 565.09,-1257.61 574.66,-1262.16 575.41,-1255.2"/>
<text text-anchor="middle" x="814" y="-1519" font-family="Helvetica,sans-Serif" font-size="10.00"> &lt; adouble, 3 &gt;</text>
</g>
<!-- Node32 -->
<g id="node32" class="node">
<title>Node32</title>
<g id="a_node32"><a xlink:title=" ">
<polygon fill="white" stroke="#bfbfbf" points="48,-1243.5 48,-1262.5 77,-1262.5 77,-1243.5 48,-1243.5"/>
<text text-anchor="middle" x="62.5" y="-1250.5" font-family="Helvetica,sans-Serif" font-size="10.00">T</text>
</a>
</g>
</g>
<!-- Node32&#45;&gt;Node31 -->
<g id="edge41" class="edge">
<title>Node32&#45;&gt;Node31</title>
<path fill="none" stroke="#9a32cd" stroke-dasharray="5,2" d="M87.29,-1253C154.95,-1253 349.89,-1253 447.86,-1253"/>
<polygon fill="#9a32cd" stroke="#9a32cd" points="87.21,-1249.5 77.21,-1253 87.21,-1256.5 87.21,-1249.5"/>
<text text-anchor="middle" x="255.5" y="-1256" font-family="Helvetica,sans-Serif" font-size="10.00"> data</text>
</g>
<!-- Node33 -->
<g id="node33" class="node">
<title>Node33</title>
<g id="a_node33"><a xlink:title=" ">
<polygon fill="white" stroke="#bfbfbf" points="735,-1197 735,-1249 893,-1249 893,-1197 735,-1197"/>
<text text-anchor="start" x="743" y="-1237" font-family="Helvetica,sans-Serif" font-size="10.00">function&lt; FTensor::</text>
<text text-anchor="start" x="743" y="-1226" font-family="Helvetica,sans-Serif" font-size="10.00">Tensor1&lt; FTensor::PackPtr</text>
<text text-anchor="start" x="743" y="-1215" font-family="Helvetica,sans-Serif" font-size="10.00">&lt; const double *, 2 &gt;, 2</text>
<text text-anchor="middle" x="814" y="-1204" font-family="Helvetica,sans-Serif" font-size="10.00"> &gt; const MatrixDouble &amp;m)&gt;</text>
</a>
</g>
</g>
<!-- Node33&#45;&gt;Node22 -->
<g id="edge42" class="edge">
<title>Node33&#45;&gt;Node22</title>
<path fill="none" stroke="#9a32cd" stroke-dasharray="5,2" d="M871.17,-1192.57C883.95,-1186.82 897.68,-1181.51 911,-1178 1066.17,-1137.06 1125.26,-1217.2 1271,-1150 1381.33,-1099.13 1469.79,-975.51 1501.7,-926.5"/>
<polygon fill="#9a32cd" stroke="#9a32cd" points="869.65,-1189.42 862.07,-1196.81 872.61,-1195.76 869.65,-1189.42"/>
<text text-anchor="middle" x="1168" y="-1181" font-family="Helvetica,sans-Serif" font-size="10.00"> get_ftensor_from_mat_2d</text>
</g>
<!-- Node33&#45;&gt;Node36 -->
<g id="edge57" class="edge">
<title>Node33&#45;&gt;Node36</title>
<path fill="none" stroke="#9a32cd" stroke-dasharray="5,2" d="M903.18,-1237.78C964.54,-1248.07 1045.05,-1261.56 1100.92,-1270.92"/>
<polygon fill="#9a32cd" stroke="#9a32cd" points="903.56,-1234.3 893.12,-1236.09 902.4,-1241.2 903.56,-1234.3"/>
<text text-anchor="middle" x="979" y="-1264" font-family="Helvetica,sans-Serif" font-size="10.00"> get_ftensor_from_mat_2d</text>
</g>
<!-- Node33&#45;&gt;Node46 -->
<g id="edge78" class="edge">
<title>Node33&#45;&gt;Node46</title>
<path fill="none" stroke="#9a32cd" stroke-dasharray="5,2" d="M903.57,-1216.19C996.52,-1211.42 1146.19,-1210.5 1271,-1241 1352.95,-1261.02 1439.35,-1311.71 1483.91,-1340.4"/>
<polygon fill="#9a32cd" stroke="#9a32cd" points="903.15,-1212.71 893.36,-1216.74 903.53,-1219.7 903.15,-1212.71"/>
<text text-anchor="middle" x="1168" y="-1244" font-family="Helvetica,sans-Serif" font-size="10.00"> get_ftensor_from_mat_2d</text>
</g>
<!-- Node34 -->
<g id="node34" class="node">
<title>Node34</title>
<g id="a_node34"><a xlink:title=" ">
<polygon fill="white" stroke="#bfbfbf" points="1100.5,-908 1100.5,-960 1235.5,-960 1235.5,-908 1100.5,-908"/>
<text text-anchor="start" x="1108.5" y="-948" font-family="Helvetica,sans-Serif" font-size="10.00">function&lt; FTensor::</text>
<text text-anchor="start" x="1108.5" y="-937" font-family="Helvetica,sans-Serif" font-size="10.00">Tensor1&lt; double *, 3</text>
<text text-anchor="start" x="1108.5" y="-926" font-family="Helvetica,sans-Serif" font-size="10.00"> &gt;ublas::vector&lt; double</text>
<text text-anchor="middle" x="1168" y="-915" font-family="Helvetica,sans-Serif" font-size="10.00"> &gt; &amp;v)&gt;</text>
</a>
</g>
</g>
<!-- Node34&#45;&gt;Node22 -->
<g id="edge43" class="edge">
<title>Node34&#45;&gt;Node22</title>
<path fill="none" stroke="#9a32cd" stroke-dasharray="5,2" d="M1245.67,-927.79C1304.92,-922.99 1386.28,-916.39 1443.93,-911.72"/>
<polygon fill="#9a32cd" stroke="#9a32cd" points="1245.3,-924.3 1235.62,-928.6 1245.87,-931.28 1245.3,-924.3"/>
<text text-anchor="middle" x="1348" y="-927" font-family="Helvetica,sans-Serif" font-size="10.00"> get_ftensor_from_vec</text>
</g>
<!-- Node35 -->
<g id="node35" class="node">
<title>Node35</title>
<g id="a_node35"><a xlink:title=" ">
<polygon fill="white" stroke="#bfbfbf" points="1116.5,-869.5 1116.5,-888.5 1219.5,-888.5 1219.5,-869.5 1116.5,-869.5"/>
<text text-anchor="middle" x="1168" y="-876.5" font-family="Helvetica,sans-Serif" font-size="10.00">vector&lt; double &gt;</text>
</a>
</g>
</g>
<!-- Node35&#45;&gt;Node22 -->
<g id="edge44" class="edge">
<title>Node35&#45;&gt;Node22</title>
<path fill="none" stroke="#9a32cd" stroke-dasharray="5,2" d="M1230.1,-874.89C1278.33,-872.63 1347.21,-871.61 1407,-879 1419.03,-880.49 1431.65,-882.88 1443.84,-885.64"/>
<polygon fill="#9a32cd" stroke="#9a32cd" points="1229.64,-871.41 1219.83,-875.4 1229.99,-878.4 1229.64,-871.41"/>
<text text-anchor="middle" x="1348" y="-904" font-family="Helvetica,sans-Serif" font-size="10.00"> referenceCoords</text>
<text text-anchor="middle" x="1348" y="-893" font-family="Helvetica,sans-Serif" font-size="10.00">griffithForce</text>
<text text-anchor="middle" x="1348" y="-882" font-family="Helvetica,sans-Serif" font-size="10.00">currentCoords</text>
</g>
<!-- Node36&#45;&gt;Node22 -->
<g id="edge45" class="edge">
<title>Node36&#45;&gt;Node22</title>
<path fill="none" stroke="orange" stroke-dasharray="5,2" d="M1244.46,-1264.15C1254.11,-1259.65 1263.29,-1254.03 1271,-1247 1285.41,-1233.87 1275.06,-1220.63 1289,-1207 1329.72,-1167.17 1366.65,-1197.2 1407,-1157 1474.34,-1089.92 1502.14,-973.95 1511.03,-926.82"/>
<polygon fill="orange" stroke="orange" points="1242.93,-1261 1235.1,-1268.13 1245.67,-1267.44 1242.93,-1261"/>
<text text-anchor="middle" x="1348" y="-1210" font-family="Helvetica,sans-Serif" font-size="10.00"> &lt; double &gt;</text>
</g>
<!-- Node36&#45;&gt;Node46 -->
<g id="edge79" class="edge">
<title>Node36&#45;&gt;Node46</title>
<path fill="none" stroke="orange" stroke-dasharray="5,2" d="M1245.08,-1299.4C1303.3,-1312.71 1383.11,-1330.96 1440.74,-1344.13"/>
<polygon fill="orange" stroke="orange" points="1245.74,-1295.96 1235.21,-1297.14 1244.18,-1302.78 1245.74,-1295.96"/>
<text text-anchor="middle" x="1348" y="-1338" font-family="Helvetica,sans-Serif" font-size="10.00"> &lt; adouble &gt;</text>
</g>
<!-- Node37 -->
<g id="node37" class="node">
<title>Node37</title>
<g id="a_node37"><a xlink:title=" ">
<polygon fill="white" stroke="#bfbfbf" points="767,-1367.5 767,-1386.5 861,-1386.5 861,-1367.5 767,-1367.5"/>
<text text-anchor="middle" x="814" y="-1374.5" font-family="Helvetica,sans-Serif" font-size="10.00">vector&lt; TYPE &gt;</text>
</a>
</g>
</g>
<!-- Node37&#45;&gt;Node36 -->
<g id="edge48" class="edge">
<title>Node37&#45;&gt;Node36</title>
<path fill="none" stroke="#9a32cd" stroke-dasharray="5,2" d="M871.6,-1372.85C935.57,-1367.74 1032.7,-1358.56 1047,-1349 1060.57,-1339.93 1052.46,-1327.44 1065,-1317 1075.43,-1308.31 1088.13,-1301.74 1100.98,-1296.78"/>
<polygon fill="#9a32cd" stroke="#9a32cd" points="870.94,-1369.39 861.24,-1373.66 871.49,-1376.37 870.94,-1369.39"/>
<text text-anchor="middle" x="979" y="-1394" font-family="Helvetica,sans-Serif" font-size="10.00"> referenceCoords</text>
<text text-anchor="middle" x="979" y="-1383" font-family="Helvetica,sans-Serif" font-size="10.00">griffithForce</text>
<text text-anchor="middle" x="979" y="-1372" font-family="Helvetica,sans-Serif" font-size="10.00">currentCoords</text>
</g>
<!-- Node38 -->
<g id="node38" class="node">
<title>Node38</title>
<g id="a_node38"><a xlink:title=" ">
<polygon fill="white" stroke="#bfbfbf" points="486,-1315.5 486,-1334.5 527,-1334.5 527,-1315.5 486,-1315.5"/>
<text text-anchor="middle" x="506.5" y="-1322.5" font-family="Helvetica,sans-Serif" font-size="10.00">TYPE</text>
</a>
</g>
</g>
<!-- Node38&#45;&gt;Node36 -->
<g id="edge51" class="edge">
<title>Node38&#45;&gt;Node36</title>
<path fill="none" stroke="#9a32cd" stroke-dasharray="5,2" d="M537.48,-1328.76C619.79,-1338.27 855.85,-1360.04 1047,-1324 1055.44,-1322.41 1056.94,-1319.95 1065,-1317 1078.19,-1312.18 1092.4,-1307.17 1105.91,-1302.51"/>
<polygon fill="#9a32cd" stroke="#9a32cd" points="537.68,-1325.26 527.34,-1327.56 536.86,-1332.21 537.68,-1325.26"/>
<text text-anchor="middle" x="814" y="-1347" font-family="Helvetica,sans-Serif" font-size="10.00"> currentArea</text>
</g>
<!-- Node38&#45;&gt;Node39 -->
<g id="edge54" class="edge">
<title>Node38&#45;&gt;Node39</title>
<path fill="none" stroke="#9a32cd" stroke-dasharray="5,2" d="M537.19,-1321.6C582.84,-1316.37 671.77,-1306.18 736.34,-1298.78"/>
<polygon fill="#9a32cd" stroke="#9a32cd" points="536.61,-1318.14 527.08,-1322.76 537.41,-1325.1 536.61,-1318.14"/>
<text text-anchor="middle" x="681" y="-1311" font-family="Helvetica,sans-Serif" font-size="10.00"> data</text>
</g>
<!-- Node39&#45;&gt;Node36 -->
<g id="edge53" class="edge">
<title>Node39&#45;&gt;Node36</title>
<path fill="none" stroke="#9a32cd" stroke-dasharray="5,2" d="M901.88,-1288.03C963.33,-1286.63 1044.46,-1284.78 1100.72,-1283.51"/>
<polygon fill="#9a32cd" stroke="#9a32cd" points="901.73,-1284.53 891.81,-1288.25 901.89,-1291.53 901.73,-1284.53"/>
<text text-anchor="middle" x="979" y="-1312" font-family="Helvetica,sans-Serif" font-size="10.00"> t_Tangent2_eta</text>
<text text-anchor="middle" x="979" y="-1301" font-family="Helvetica,sans-Serif" font-size="10.00">t_Tangent1_ksi</text>
<text text-anchor="middle" x="979" y="-1290" font-family="Helvetica,sans-Serif" font-size="10.00">t_Normal</text>
</g>
<!-- Node40 -->
<g id="node40" class="node">
<title>Node40</title>
<g id="a_node40"><a xlink:title=" ">
<polygon fill="white" stroke="#bfbfbf" points="736.5,-1406.5 736.5,-1447.5 891.5,-1447.5 891.5,-1406.5 736.5,-1406.5"/>
<text text-anchor="start" x="744.5" y="-1435.5" font-family="Helvetica,sans-Serif" font-size="10.00">function&lt; FTensor::</text>
<text text-anchor="start" x="744.5" y="-1424.5" font-family="Helvetica,sans-Serif" font-size="10.00">Tensor1&lt; TYPE *, 3 &gt;</text>
<text text-anchor="middle" x="814" y="-1413.5" font-family="Helvetica,sans-Serif" font-size="10.00">ublas::vector&lt; TYPE &gt; &amp;v)&gt;</text>
</a>
</g>
</g>
<!-- Node40&#45;&gt;Node36 -->
<g id="edge56" class="edge">
<title>Node40&#45;&gt;Node36</title>
<path fill="none" stroke="#9a32cd" stroke-dasharray="5,2" d="M901.66,-1423.72C962.94,-1420.57 1036.08,-1414.81 1047,-1405 1076.7,-1378.32 1038.65,-1346.99 1065,-1317 1074.45,-1306.24 1087.37,-1298.79 1100.83,-1293.62"/>
<polygon fill="#9a32cd" stroke="#9a32cd" points="901.36,-1420.23 891.55,-1424.22 901.71,-1427.22 901.36,-1420.23"/>
<text text-anchor="middle" x="979" y="-1425" font-family="Helvetica,sans-Serif" font-size="10.00"> get_ftensor_from_vec</text>
</g>
<!-- Node41 -->
<g id="node41" class="node">
<title>Node41</title>
<g id="a_node41"><a xlink:href="structMoFEM_1_1DeprecatedCoreInterface.html" target="_top" xlink:title="Deprecated interface functions.">
<polygon fill="white" stroke="black" points="1425,-324.5 1425,-343.5 1606,-343.5 1606,-324.5 1425,-324.5"/>
<text text-anchor="middle" x="1515.5" y="-331.5" font-family="Helvetica,sans-Serif" font-size="10.00">MoFEM::DeprecatedCoreInterface</text>
</a>
</g>
</g>
<!-- Node41&#45;&gt;Node2 -->
<g id="edge58" class="edge">
<title>Node41&#45;&gt;Node2</title>
<path fill="none" stroke="#9a32cd" stroke-dasharray="5,2" d="M1550.75,-347.38C1585.8,-361.07 1641.12,-382.67 1684.51,-399.62"/>
<polygon fill="#9a32cd" stroke="#9a32cd" points="1551.58,-343.94 1540.99,-343.57 1549.04,-350.46 1551.58,-343.94"/>
<text text-anchor="middle" x="1645.5" y="-393" font-family="Helvetica,sans-Serif" font-size="10.00"> mField</text>
</g>
<!-- Node42 -->
<g id="node42" class="node">
<title>Node42</title>
<g id="a_node42"><a xlink:href="structMoFEM_1_1CoreInterface.html" target="_top" xlink:title="Interface.">
<polygon fill="white" stroke="black" points="1105.5,-302.5 1105.5,-321.5 1230.5,-321.5 1230.5,-302.5 1105.5,-302.5"/>
<text text-anchor="middle" x="1168" y="-309.5" font-family="Helvetica,sans-Serif" font-size="10.00">MoFEM::CoreInterface</text>
</a>
</g>
</g>
<!-- Node42&#45;&gt;Node41 -->
<g id="edge59" class="edge">
<title>Node42&#45;&gt;Node41</title>
<path fill="none" stroke="midnightblue" d="M1240.84,-316.57C1294.23,-319.97 1367.43,-324.64 1424.69,-328.28"/>
<polygon fill="midnightblue" stroke="midnightblue" points="1240.97,-313.08 1230.77,-315.93 1240.53,-320.06 1240.97,-313.08"/>
</g>
<!-- Node43 -->
<g id="node43" class="node">
<title>Node43</title>
<g id="a_node43"><a xlink:href="structMoFEM_1_1UnknownInterface.html" target="_top" xlink:title="base class for all interface classes">
<polygon fill="white" stroke="black" points="740,-302.5 740,-321.5 888,-321.5 888,-302.5 740,-302.5"/>
<text text-anchor="middle" x="814" y="-309.5" font-family="Helvetica,sans-Serif" font-size="10.00">MoFEM::UnknownInterface</text>
</a>
</g>
</g>
<!-- Node43&#45;&gt;Node42 -->
<g id="edge60" class="edge">
<title>Node43&#45;&gt;Node42</title>
<path fill="none" stroke="midnightblue" d="M898.36,-312C961.93,-312 1048.05,-312 1105.47,-312"/>
<polygon fill="midnightblue" stroke="midnightblue" points="898.36,-308.5 888.36,-312 898.36,-315.5 898.36,-308.5"/>
</g>
<!-- Node44 -->
<g id="node44" class="node">
<title>Node44</title>
<g id="a_node44"><a xlink:title=" ">
<polygon fill="white" stroke="#bfbfbf" points="386,-280.5 386,-343.5 627,-343.5 627,-280.5 386,-280.5"/>
<text text-anchor="start" x="394" y="-331.5" font-family="Helvetica,sans-Serif" font-size="10.00">multi_index_container</text>
<text text-anchor="start" x="394" y="-320.5" font-family="Helvetica,sans-Serif" font-size="10.00">&lt; UIdTypeMap, indexed</text>
<text text-anchor="start" x="394" y="-309.5" font-family="Helvetica,sans-Serif" font-size="10.00">_by&lt; hashed_unique&lt; member</text>
<text text-anchor="start" x="394" y="-298.5" font-family="Helvetica,sans-Serif" font-size="10.00">&lt; UIdTypeMap, boost::typeindex</text>
<text text-anchor="middle" x="506.5" y="-287.5" font-family="Helvetica,sans-Serif" font-size="10.00">::type_index, &amp;UIdTypeMap::classIdx &gt; &gt; &gt; &gt;</text>
</a>
</g>
</g>
<!-- Node44&#45;&gt;Node43 -->
<g id="edge61" class="edge">
<title>Node44&#45;&gt;Node43</title>
<path fill="none" stroke="#9a32cd" stroke-dasharray="5,2" d="M637.65,-312C672.58,-312 709.12,-312 739.75,-312"/>
<polygon fill="#9a32cd" stroke="#9a32cd" points="637.36,-308.5 627.36,-312 637.36,-315.5 637.36,-308.5"/>
<text text-anchor="middle" x="681" y="-315" font-family="Helvetica,sans-Serif" font-size="10.00"> iFaceTypeMap</text>
</g>
<!-- Node45 -->
<g id="node45" class="node">
<title>Node45</title>
<g id="a_node45"><a xlink:title=" ">
<polygon fill="white" stroke="#bfbfbf" points="0,-302.5 0,-321.5 125,-321.5 125,-302.5 0,-302.5"/>
<text text-anchor="middle" x="62.5" y="-309.5" font-family="Helvetica,sans-Serif" font-size="10.00">multi_index_container</text>
</a>
</g>
</g>
<!-- Node45&#45;&gt;Node44 -->
<g id="edge62" class="edge">
<title>Node45&#45;&gt;Node44</title>
<path fill="none" stroke="orange" stroke-dasharray="5,2" d="M135.56,-312C203.25,-312 305.79,-312 385.77,-312"/>
<polygon fill="orange" stroke="orange" points="135.42,-308.5 125.42,-312 135.42,-315.5 135.42,-308.5"/>
<text text-anchor="start" x="143" y="-348" font-family="Helvetica,sans-Serif" font-size="10.00"> &lt; UIdTypeMap, indexed</text>
<text text-anchor="start" x="143" y="-337" font-family="Helvetica,sans-Serif" font-size="10.00">_by&lt; hashed_unique&lt; member</text>
<text text-anchor="start" x="143" y="-326" font-family="Helvetica,sans-Serif" font-size="10.00">&lt; UIdTypeMap, boost::typeindex</text>
<text text-anchor="middle" x="255.5" y="-315" font-family="Helvetica,sans-Serif" font-size="10.00">::type_index, &amp;UIdTypeMap::classIdx &gt; &gt; &gt; &gt;</text>
</g>
<!-- Node46&#45;&gt;Node1 -->
<g id="edge66" class="edge">
<title>Node46&#45;&gt;Node1</title>
<path fill="none" stroke="#9a32cd" stroke-dasharray="5,2" d="M1531,-1331.28C1594.19,-1201.74 1845.05,-687.52 1904.72,-565.21"/>
<polygon fill="#9a32cd" stroke="#9a32cd" points="1527.85,-1329.75 1526.61,-1340.27 1534.14,-1332.82 1527.85,-1329.75"/>
<text text-anchor="middle" x="1750.5" y="-1017" font-family="Helvetica,sans-Serif" font-size="10.00"> a_auxFun</text>
</g>
<!-- Node47 -->
<g id="node47" class="node">
<title>Node47</title>
<g id="a_node47"><a xlink:title=" ">
<polygon fill="white" stroke="#bfbfbf" points="1093,-1492 1093,-1544 1243,-1544 1243,-1492 1093,-1492"/>
<text text-anchor="start" x="1101" y="-1532" font-family="Helvetica,sans-Serif" font-size="10.00">function&lt; FTensor::</text>
<text text-anchor="start" x="1101" y="-1521" font-family="Helvetica,sans-Serif" font-size="10.00">Tensor1&lt; adouble *,</text>
<text text-anchor="start" x="1101" y="-1510" font-family="Helvetica,sans-Serif" font-size="10.00"> 3 &gt;ublas::vector&lt; adouble</text>
<text text-anchor="middle" x="1168" y="-1499" font-family="Helvetica,sans-Serif" font-size="10.00"> &gt; &amp;v)&gt;</text>
</a>
</g>
</g>
<!-- Node47&#45;&gt;Node46 -->
<g id="edge67" class="edge">
<title>Node47&#45;&gt;Node46</title>
<path fill="none" stroke="#9a32cd" stroke-dasharray="5,2" d="M1253.04,-1524.97C1300.83,-1525.28 1360.28,-1519.27 1407,-1494 1454.4,-1468.37 1488.62,-1412.23 1504.53,-1381.72"/>
<polygon fill="#9a32cd" stroke="#9a32cd" points="1253.08,-1521.47 1243.03,-1524.81 1252.97,-1528.47 1253.08,-1521.47"/>
<text text-anchor="middle" x="1348" y="-1526" font-family="Helvetica,sans-Serif" font-size="10.00"> get_ftensor_from_vec</text>
</g>
<!-- Node48 -->
<g id="node48" class="node">
<title>Node48</title>
<g id="a_node48"><a xlink:href="classadouble.html" target="_top" xlink:title=" ">
<polygon fill="white" stroke="black" points="786,-1623.5 786,-1642.5 842,-1642.5 842,-1623.5 786,-1623.5"/>
<text text-anchor="middle" x="814" y="-1630.5" font-family="Helvetica,sans-Serif" font-size="10.00">adouble</text>
</a>
</g>
</g>
<!-- Node48&#45;&gt;Node46 -->
<g id="edge68" class="edge">
<title>Node48&#45;&gt;Node46</title>
<path fill="none" stroke="#9a32cd" stroke-dasharray="5,2" d="M846.8,-1646.21C865.23,-1653.28 889.06,-1661.45 911,-1666 1067.76,-1698.5 1114.66,-1712.45 1271,-1678 1336.05,-1663.66 1360.69,-1662.88 1407,-1615 1473.91,-1545.81 1502.02,-1428.69 1511.01,-1381.55"/>
<polygon fill="#9a32cd" stroke="#9a32cd" points="848.02,-1642.93 837.43,-1642.53 845.46,-1649.44 848.02,-1642.93"/>
<text text-anchor="middle" x="1168" y="-1701" font-family="Helvetica,sans-Serif" font-size="10.00"> currentArea</text>
</g>
<!-- Node48&#45;&gt;Node50 -->
<g id="edge76" class="edge">
<title>Node48&#45;&gt;Node50</title>
<path fill="none" stroke="#9a32cd" stroke-dasharray="5,2" d="M852.26,-1641.24C903.5,-1650.17 995.24,-1657.11 1047,-1607 1087.01,-1568.27 1026.61,-1523.34 1065,-1483 1070.1,-1477.64 1076.18,-1473.48 1082.8,-1470.28"/>
<polygon fill="#9a32cd" stroke="#9a32cd" points="852.75,-1637.77 842.28,-1639.39 851.47,-1644.65 852.75,-1637.77"/>
<text text-anchor="middle" x="979" y="-1650" font-family="Helvetica,sans-Serif" font-size="10.00"> data</text>
</g>
<!-- Node49 -->
<g id="node49" class="node">
<title>Node49</title>
<g id="a_node49"><a xlink:title=" ">
<polygon fill="white" stroke="#bfbfbf" points="1113.5,-1415.5 1113.5,-1434.5 1222.5,-1434.5 1222.5,-1415.5 1113.5,-1415.5"/>
<text text-anchor="middle" x="1168" y="-1422.5" font-family="Helvetica,sans-Serif" font-size="10.00">vector&lt; adouble &gt;</text>
</a>
</g>
</g>
<!-- Node49&#45;&gt;Node46 -->
<g id="edge69" class="edge">
<title>Node49&#45;&gt;Node46</title>
<path fill="none" stroke="#9a32cd" stroke-dasharray="5,2" d="M1232.5,-1415.27C1280.54,-1407.68 1348.07,-1396.52 1407,-1385 1417.98,-1382.85 1429.55,-1380.43 1440.88,-1377.98"/>
<polygon fill="#9a32cd" stroke="#9a32cd" points="1231.89,-1411.82 1222.55,-1416.83 1232.98,-1418.74 1231.89,-1411.82"/>
<text text-anchor="middle" x="1348" y="-1430" font-family="Helvetica,sans-Serif" font-size="10.00"> referenceCoords</text>
<text text-anchor="middle" x="1348" y="-1419" font-family="Helvetica,sans-Serif" font-size="10.00">griffithForce</text>
<text text-anchor="middle" x="1348" y="-1408" font-family="Helvetica,sans-Serif" font-size="10.00">currentCoords</text>
</g>
<!-- Node50&#45;&gt;Node46 -->
<g id="edge75" class="edge">
<title>Node50&#45;&gt;Node46</title>
<path fill="none" stroke="#9a32cd" stroke-dasharray="5,2" d="M1263.22,-1459.48C1318.03,-1456.43 1381.24,-1450.87 1407,-1441 1441.11,-1427.93 1473.81,-1400.8 1494.01,-1381.77"/>
<polygon fill="#9a32cd" stroke="#9a32cd" points="1262.89,-1455.99 1253.09,-1460.02 1263.27,-1462.98 1262.89,-1455.99"/>
<text text-anchor="middle" x="1348" y="-1482" font-family="Helvetica,sans-Serif" font-size="10.00"> t_Tangent2_eta</text>
<text text-anchor="middle" x="1348" y="-1471" font-family="Helvetica,sans-Serif" font-size="10.00">t_Tangent1_ksi</text>
<text text-anchor="middle" x="1348" y="-1460" font-family="Helvetica,sans-Serif" font-size="10.00">t_Normal</text>
</g>
</g>
</svg>
        <g id="navigator" transform="translate(0 0)" fill="#404254">
                <rect fill="#f2f5e9" fill-opacity="0.5" stroke="#606060" stroke-width=".5" x="0" y="0" width="60" height="60"/>
                <use id="zoomplus" xlink:href="#zoomPlus" x="17" y="9" onmousedown="handleZoom(evt,'in')"/>
                <use id="zoomminus" xlink:href="#zoomMin" x="42" y="9" onmousedown="handleZoom(evt,'out')"/>
                <use id="reset" xlink:href="#resetDef" x="30" y="36" onmousedown="handleReset()"/>
                <g id="arrowUp" xlink:href="#dirArrow" transform="translate(30 24)" onmousedown="handlePan(0,-1)">
                  <use xlink:href="#rim" fill="#404040">
                        <set attributeName="fill" to="#808080" begin="arrowUp.mouseover" end="arrowUp.mouseout"/>
                  </use>
                  <path fill="none" stroke="white" stroke-width="1.5" d="M0,-3.0v7 M-2.5,-0.5L0,-3.0L2.5,-0.5"/>
                </g>
                <g id="arrowRight" xlink:href="#dirArrow" transform="rotate(90) translate(36 -43)" onmousedown="handlePan(1,0)">
                  <use xlink:href="#rim" fill="#404040">
                        <set attributeName="fill" to="#808080" begin="arrowRight.mouseover" end="arrowRight.mouseout"/>
                  </use>
                  <path fill="none" stroke="white" stroke-width="1.5" d="M0,-3.0v7 M-2.5,-0.5L0,-3.0L2.5,-0.5"/>
                </g>
                <g id="arrowDown" xlink:href="#dirArrow" transform="rotate(180) translate(-30 -48)" onmousedown="handlePan(0,1)">
                  <use xlink:href="#rim" fill="#404040">
                        <set attributeName="fill" to="#808080" begin="arrowDown.mouseover" end="arrowDown.mouseout"/>
                  </use>
                  <path fill="none" stroke="white" stroke-width="1.5" d="M0,-3.0v7 M-2.5,-0.5L0,-3.0L2.5,-0.5"/>
                </g>
                <g id="arrowLeft" xlink:href="#dirArrow" transform="rotate(270) translate(-36 17)" onmousedown="handlePan(-1,0)">
                  <use xlink:href="#rim" fill="#404040">
                        <set attributeName="fill" to="#808080" begin="arrowLeft.mouseover" end="arrowLeft.mouseout"/>
                  </use>
                  <path fill="none" stroke="white" stroke-width="1.5" d="M0,-3.0v7 M-2.5,-0.5L0,-3.0L2.5,-0.5"/>
                </g>
        </g>
        <svg viewBox="0 0 15 15" width="100%" height="30px" preserveAspectRatio="xMaxYMin meet">
         <g id="arrow_out" transform="scale(0.3 0.3)">
          <a xlink:href="structFractureMechanics_1_1GriffithForceElement_1_1FrontArcLengthControl_1_1OpAssemble__db__coll__graph_org.svg" target="_base">
           <rect id="button" ry="5" rx="5" y="6" x="6" height="38" width="38"
                fill="#f2f5e9" fill-opacity="0.5" stroke="#606060" stroke-width="1.0"/>
           <path id="arrow"
             d="M 11.500037,31.436501 C 11.940474,20.09759 22.043105,11.32322 32.158766,21.979434 L 37.068811,17.246167 C 37.068811,17.246167 37.088388,32 37.088388,32 L 22.160133,31.978069 C 22.160133,31.978069 26.997745,27.140456 26.997745,27.140456 C 18.528582,18.264221 13.291696,25.230495 11.500037,31.436501 z"
             style="fill:#404040;"/>
          </a>
         </g>
        </svg>
</svg>
