<?xml version="1.0" encoding="UTF-8" standalone="no"?>
<!DOCTYPE svg PUBLIC "-//W3C//DTD SVG 1.1//EN"
 "http://www.w3.org/Graphics/SVG/1.1/DTD/svg11.dtd">
<!-- Generated by graphviz version 2.43.0 (0)
 -->
<!-- Title: OpURhs Pages: 1 -->
<!--zoomable 441 -->
<svg id="main" version="1.1" xmlns="http://www.w3.org/2000/svg" xmlns:xlink="http://www.w3.org/1999/xlink" xml:space="preserve" onload="init(evt)">
<style type="text/css"><![CDATA[
.edge:hover path { stroke: red; }
.edge:hover polygon { stroke: red; fill: red; }
]]></style>
<script type="text/javascript"><![CDATA[
var edges = document.getElementsByTagName('g');
if (edges && edges.length) {
  for (var i=0;i<edges.length;i++) {
    if (edges[i].id.substr(0,4)=='edge') {
      edges[i].setAttribute('class','edge');
    }
  }
}
]]></script>
        <defs>
                <circle id="rim" cx="0" cy="0" r="7"/>
                <circle id="rim2" cx="0" cy="0" r="3.5"/>
                <g id="zoomPlus">
                        <use xlink:href="#rim" fill="#404040">
                                <set attributeName="fill" to="#808080" begin="zoomplus.mouseover" end="zoomplus.mouseout"/>
                        </use>
                        <path d="M-4,0h8M0,-4v8" fill="none" stroke="white" stroke-width="1.5" pointer-events="none"/>
                </g>
                <g id="zoomMin">
                        <use xlink:href="#rim" fill="#404040">
                                <set attributeName="fill" to="#808080" begin="zoomminus.mouseover" end="zoomminus.mouseout"/>
                        </use>
                        <path d="M-4,0h8" fill="none" stroke="white" stroke-width="1.5" pointer-events="none"/>
                </g>
                <g id="dirArrow">
                        <path fill="none" stroke="white" stroke-width="1.5" d="M0,-3.0v7 M-2.5,-0.5L0,-3.0L2.5,-0.5"/>
                </g>
               <g id="resetDef">
                       <use xlink:href="#rim2" fill="#404040">
                               <set attributeName="fill" to="#808080" begin="reset.mouseover" end="reset.mouseout"/>
                       </use>
               </g>
        </defs>

<script type="text/javascript">
var viewWidth = 592;
var viewHeight = 441;
var sectionId = 'dynsection-1';
</script>
<script xlink:href="svgpan.js"/>
<svg id="graph" class="graph">
<g id="viewport">
<title>OpURhs</title>
<polygon fill="white" stroke="transparent" points="-4,4 -4,-437.25 588,-437.25 588,4 -4,4"/>
<!-- Node1 -->
<g id="node1" class="node">
<title>Node1</title>
<g id="a_node1"><a xlink:title=" ">
<polygon fill="#bfbfbf" stroke="black" points="528,-213.75 528,-232.75 584,-232.75 584,-213.75 528,-213.75"/>
<text text-anchor="middle" x="556" y="-220.75" font-family="Helvetica,sans-Serif" font-size="10.00">OpURhs</text>
</a>
</g>
</g>
<!-- Node2 -->
<g id="node2" class="node">
<title>Node2</title>
<g id="a_node2"><a xlink:href="structMoFEM_1_1OpBaseImpl.html" target="_top" xlink:title=" ">
<polygon fill="white" stroke="black" points="302,-243.75 302,-262.75 433,-262.75 433,-243.75 302,-243.75"/>
<text text-anchor="middle" x="367.5" y="-250.75" font-family="Helvetica,sans-Serif" font-size="10.00">AssemblyDomainEleOp</text>
</a>
</g>
</g>
<!-- Node2&#45;&gt;Node1 -->
<g id="edge1" class="edge">
<title>Node2&#45;&gt;Node1</title>
<path fill="none" stroke="midnightblue" d="M443.27,-249.27C464.97,-247.2 488.58,-244.04 510,-239.25 517.12,-237.66 524.66,-235.27 531.5,-232.82"/>
<polygon fill="midnightblue" stroke="midnightblue" points="442.77,-245.8 433.12,-250.18 443.4,-252.77 442.77,-245.8"/>
</g>
<!-- Node3 -->
<g id="node3" class="node">
<title>Node3</title>
<g id="a_node3"><a xlink:href="classEleOp.html" target="_top" xlink:title=" ">
<polygon fill="white" stroke="black" points="52,-413.75 52,-432.75 97,-432.75 97,-413.75 52,-413.75"/>
<text text-anchor="middle" x="74.5" y="-420.75" font-family="Helvetica,sans-Serif" font-size="10.00">EleOp</text>
</a>
</g>
</g>
<!-- Node3&#45;&gt;Node2 -->
<g id="edge2" class="edge">
<title>Node3&#45;&gt;Node2</title>
<path fill="none" stroke="midnightblue" d="M107.05,-427.32C148.06,-430.98 220.39,-431.69 271,-400.25 325.03,-366.69 354.49,-289.95 363.49,-262.9"/>
<polygon fill="midnightblue" stroke="midnightblue" points="107.39,-423.84 97.09,-426.32 106.69,-430.8 107.39,-423.84"/>
</g>
<!-- Node4 -->
<g id="node4" class="node">
<title>Node4</title>
<g id="a_node4"><a xlink:href="classUBlasVector_3_01double_01_4.html" target="_top" xlink:title=" ">
<polygon fill="white" stroke="black" points="9,-375.75 9,-394.75 140,-394.75 140,-375.75 9,-375.75"/>
<text text-anchor="middle" x="74.5" y="-382.75" font-family="Helvetica,sans-Serif" font-size="10.00">UBlasVector&lt; double &gt;</text>
</a>
</g>
</g>
<!-- Node4&#45;&gt;Node2 -->
<g id="edge3" class="edge">
<title>Node4&#45;&gt;Node2</title>
<path fill="none" stroke="#9a32cd" stroke-dasharray="5,2" d="M150.09,-387.32C188.19,-385.5 234.15,-378.66 271,-359.25 314.83,-336.16 348.46,-284.45 361.08,-262.93"/>
<polygon fill="#9a32cd" stroke="#9a32cd" points="149.93,-383.83 140.07,-387.7 150.2,-390.82 149.93,-383.83"/>
<text text-anchor="middle" x="219" y="-388.25" font-family="Helvetica,sans-Serif" font-size="10.00"> locF</text>
</g>
<!-- Node5 -->
<g id="node5" class="node">
<title>Node5</title>
<g id="a_node5"><a xlink:title=" ">
<polygon fill="white" stroke="#bfbfbf" points="5,-337.75 5,-356.75 144,-356.75 144,-337.75 5,-337.75"/>
<text text-anchor="middle" x="74.5" y="-344.75" font-family="Helvetica,sans-Serif" font-size="10.00">static MatSetValuesHook</text>
</a>
</g>
</g>
<!-- Node5&#45;&gt;Node2 -->
<g id="edge4" class="edge">
<title>Node5&#45;&gt;Node2</title>
<path fill="none" stroke="#9a32cd" stroke-dasharray="5,2" d="M154.19,-346.06C190.76,-343.3 234.21,-336.8 271,-322.25 306.38,-308.27 340.76,-278.18 356.92,-262.77"/>
<polygon fill="#9a32cd" stroke="#9a32cd" points="153.81,-342.58 144.07,-346.75 154.28,-349.57 153.81,-342.58"/>
<text text-anchor="middle" x="219" y="-347.25" font-family="Helvetica,sans-Serif" font-size="10.00"> matSetValuesHook</text>
</g>
<!-- Node6 -->
<g id="node6" class="node">
<title>Node6</title>
<g id="a_node6"><a xlink:title=" ">
<polygon fill="white" stroke="#bfbfbf" points="40.5,-298.75 40.5,-317.75 108.5,-317.75 108.5,-298.75 40.5,-298.75"/>
<text text-anchor="middle" x="74.5" y="-305.75" font-family="Helvetica,sans-Serif" font-size="10.00">EntityType</text>
</a>
</g>
</g>
<!-- Node6&#45;&gt;Node2 -->
<g id="edge5" class="edge">
<title>Node6&#45;&gt;Node2</title>
<path fill="none" stroke="#9a32cd" stroke-dasharray="5,2" d="M118.72,-303.33C158.51,-298.45 219.05,-290.14 271,-279.25 292.53,-274.74 316.4,-268.24 334.9,-262.87"/>
<polygon fill="#9a32cd" stroke="#9a32cd" points="118.08,-299.89 108.57,-304.56 118.92,-306.84 118.08,-299.89"/>
<text text-anchor="middle" x="219" y="-310.25" font-family="Helvetica,sans-Serif" font-size="10.00"> rowType</text>
<text text-anchor="middle" x="219" y="-299.25" font-family="Helvetica,sans-Serif" font-size="10.00">colType</text>
</g>
<!-- Node7 -->
<g id="node7" class="node">
<title>Node7</title>
<g id="a_node7"><a xlink:title=" ">
<polygon fill="white" stroke="#bfbfbf" points="13.5,-260.75 13.5,-279.75 135.5,-279.75 135.5,-260.75 13.5,-260.75"/>
<text text-anchor="middle" x="74.5" y="-267.75" font-family="Helvetica,sans-Serif" font-size="10.00">shared_ptr&lt; Range &gt;</text>
</a>
</g>
</g>
<!-- Node7&#45;&gt;Node2 -->
<g id="edge6" class="edge">
<title>Node7&#45;&gt;Node2</title>
<path fill="none" stroke="#9a32cd" stroke-dasharray="5,2" d="M146.01,-266.13C193.54,-263.36 255.77,-259.72 301.99,-257.02"/>
<polygon fill="#9a32cd" stroke="#9a32cd" points="145.57,-262.65 135.8,-266.73 145.98,-269.64 145.57,-262.65"/>
<text text-anchor="middle" x="219" y="-267.25" font-family="Helvetica,sans-Serif" font-size="10.00"> entsPtr</text>
</g>
<!-- Node8 -->
<g id="node8" class="node">
<title>Node8</title>
<g id="a_node8"><a xlink:title=" ">
<polygon fill="white" stroke="#bfbfbf" points="9,-211.25 9,-241.25 140,-241.25 140,-211.25 9,-211.25"/>
<text text-anchor="start" x="17" y="-229.25" font-family="Helvetica,sans-Serif" font-size="10.00">function&lt; double(const</text>
<text text-anchor="middle" x="74.5" y="-218.25" font-family="Helvetica,sans-Serif" font-size="10.00"> FEMethod *fe_ptr)&gt;</text>
</a>
</g>
</g>
<!-- Node8&#45;&gt;Node2 -->
<g id="edge7" class="edge">
<title>Node8&#45;&gt;Node2</title>
<path fill="none" stroke="#9a32cd" stroke-dasharray="5,2" d="M150.3,-232.45C186.73,-235.54 231.17,-239.43 271,-243.25 280.96,-244.21 291.49,-245.26 301.79,-246.32"/>
<polygon fill="#9a32cd" stroke="#9a32cd" points="150.51,-228.95 140.25,-231.59 149.92,-235.93 150.51,-228.95"/>
<text text-anchor="middle" x="219" y="-246.25" font-family="Helvetica,sans-Serif" font-size="10.00"> feScalingFun</text>
</g>
<!-- Node9 -->
<g id="node9" class="node">
<title>Node9</title>
<g id="a_node9"><a xlink:title=" ">
<polygon fill="white" stroke="#bfbfbf" points="60,-137.75 60,-156.75 89,-156.75 89,-137.75 60,-137.75"/>
<text text-anchor="middle" x="74.5" y="-144.75" font-family="Helvetica,sans-Serif" font-size="10.00">int</text>
</a>
</g>
</g>
<!-- Node9&#45;&gt;Node2 -->
<g id="edge8" class="edge">
<title>Node9&#45;&gt;Node2</title>
<path fill="none" stroke="#9a32cd" stroke-dasharray="5,2" d="M98.93,-141.77C138.75,-133.92 220.23,-124.38 271,-163.25 289.75,-177.61 273.43,-195.49 289,-213.25 301.48,-227.48 320.25,-237.35 336.19,-243.73"/>
<polygon fill="#9a32cd" stroke="#9a32cd" points="98.15,-138.36 89.09,-143.85 99.59,-145.21 98.15,-138.36"/>
<text text-anchor="middle" x="219" y="-221.25" font-family="Helvetica,sans-Serif" font-size="10.00"> nbIntegrationPts</text>
<text text-anchor="middle" x="219" y="-210.25" font-family="Helvetica,sans-Serif" font-size="10.00">colSide</text>
<text text-anchor="middle" x="219" y="-199.25" font-family="Helvetica,sans-Serif" font-size="10.00">nbCols</text>
<text text-anchor="middle" x="219" y="-188.25" font-family="Helvetica,sans-Serif" font-size="10.00">nbRowBaseFunctions</text>
<text text-anchor="middle" x="219" y="-177.25" font-family="Helvetica,sans-Serif" font-size="10.00">rowSide</text>
<text text-anchor="middle" x="219" y="-166.25" font-family="Helvetica,sans-Serif" font-size="10.00">nbRows</text>
</g>
<!-- Node10 -->
<g id="node10" class="node">
<title>Node10</title>
<g id="a_node10"><a xlink:href="classbool.html" target="_top" xlink:title=" ">
<polygon fill="white" stroke="black" points="55.5,-93.75 55.5,-112.75 93.5,-112.75 93.5,-93.75 55.5,-93.75"/>
<text text-anchor="middle" x="74.5" y="-100.75" font-family="Helvetica,sans-Serif" font-size="10.00">bool</text>
</a>
</g>
</g>
<!-- Node10&#45;&gt;Node2 -->
<g id="edge9" class="edge">
<title>Node10&#45;&gt;Node2</title>
<path fill="none" stroke="#9a32cd" stroke-dasharray="5,2" d="M103.32,-94.32C145.15,-82.8 224.32,-68.72 271,-109.25 306.42,-140.01 261.26,-175.43 289,-213.25 299.66,-227.78 317.15,-237.44 332.83,-243.63"/>
<polygon fill="#9a32cd" stroke="#9a32cd" points="102.16,-91.01 93.53,-97.16 104.11,-97.74 102.16,-91.01"/>
<text text-anchor="middle" x="219" y="-123.25" font-family="Helvetica,sans-Serif" font-size="10.00"> assembleTranspose</text>
<text text-anchor="middle" x="219" y="-112.25" font-family="Helvetica,sans-Serif" font-size="10.00">onlyTranspose</text>
</g>
<!-- Node11 -->
<g id="node11" class="node">
<title>Node11</title>
<g id="a_node11"><a xlink:title=" ">
<polygon fill="white" stroke="#bfbfbf" points="0,-55.75 0,-74.75 149,-74.75 149,-55.75 0,-55.75"/>
<text text-anchor="middle" x="74.5" y="-62.75" font-family="Helvetica,sans-Serif" font-size="10.00">function&lt; double(double)&gt;</text>
</a>
</g>
</g>
<!-- Node11&#45;&gt;Node2 -->
<g id="edge10" class="edge">
<title>Node11&#45;&gt;Node2</title>
<path fill="none" stroke="#9a32cd" stroke-dasharray="5,2" d="M159.35,-55.99C204.66,-52.98 254.62,-53.55 271,-68.25 295.17,-89.94 270.43,-186.62 289,-213.25 299.22,-227.91 316.48,-237.55 332.13,-243.69"/>
<polygon fill="#9a32cd" stroke="#9a32cd" points="158.88,-52.51 149.16,-56.73 159.39,-59.49 158.88,-52.51"/>
<text text-anchor="middle" x="219" y="-71.25" font-family="Helvetica,sans-Serif" font-size="10.00"> timeScalingFun</text>
</g>
<!-- Node12 -->
<g id="node12" class="node">
<title>Node12</title>
<g id="a_node12"><a xlink:href="classUBlasMatrix_3_01double_01_4.html" target="_top" xlink:title=" ">
<polygon fill="white" stroke="black" points="8.5,-11.75 8.5,-30.75 140.5,-30.75 140.5,-11.75 8.5,-11.75"/>
<text text-anchor="middle" x="74.5" y="-18.75" font-family="Helvetica,sans-Serif" font-size="10.00">UBlasMatrix&lt; double &gt;</text>
</a>
</g>
</g>
<!-- Node12&#45;&gt;Node2 -->
<g id="edge11" class="edge">
<title>Node12&#45;&gt;Node2</title>
<path fill="none" stroke="#9a32cd" stroke-dasharray="5,2" d="M115.38,-9.26C159.53,1.29 229.88,9.6 271,-29.25 300.86,-57.47 265.94,-179.25 289,-213.25 298.94,-227.91 315.99,-237.53 331.56,-243.65"/>
<polygon fill="#9a32cd" stroke="#9a32cd" points="114.4,-5.9 105.57,-11.75 116.12,-12.69 114.4,-5.9"/>
<text text-anchor="middle" x="219" y="-43.25" font-family="Helvetica,sans-Serif" font-size="10.00"> locMat</text>
<text text-anchor="middle" x="219" y="-32.25" font-family="Helvetica,sans-Serif" font-size="10.00">locMatTranspose</text>
</g>
<!-- Node13 -->
<g id="node13" class="node">
<title>Node13</title>
<g id="a_node13"><a xlink:title=" ">
<polygon fill="white" stroke="#bfbfbf" points="289,-184.75 289,-203.75 446,-203.75 446,-184.75 289,-184.75"/>
<text text-anchor="middle" x="367.5" y="-191.75" font-family="Helvetica,sans-Serif" font-size="10.00">shared_ptr&lt; MatrixDouble &gt;</text>
</a>
</g>
</g>
<!-- Node13&#45;&gt;Node1 -->
<g id="edge12" class="edge">
<title>Node13&#45;&gt;Node1</title>
<path fill="none" stroke="#9a32cd" stroke-dasharray="5,2" d="M456.53,-187.44C474.48,-188.11 493.06,-190.35 510,-195.25 522.55,-198.89 535.02,-207.1 543.64,-213.7"/>
<polygon fill="#9a32cd" stroke="#9a32cd" points="456.42,-183.94 446.34,-187.22 456.26,-190.94 456.42,-183.94"/>
<text text-anchor="middle" x="487" y="-231.25" font-family="Helvetica,sans-Serif" font-size="10.00"> hGradPtr</text>
<text text-anchor="middle" x="487" y="-220.25" font-family="Helvetica,sans-Serif" font-size="10.00">uGradPtr</text>
<text text-anchor="middle" x="487" y="-209.25" font-family="Helvetica,sans-Serif" font-size="10.00">uDotPtr</text>
<text text-anchor="middle" x="487" y="-198.25" font-family="Helvetica,sans-Serif" font-size="10.00">uPtr</text>
</g>
</g>
</svg>
        <g id="navigator" transform="translate(0 0)" fill="#404254">
                <rect fill="#f2f5e9" fill-opacity="0.5" stroke="#606060" stroke-width=".5" x="0" y="0" width="60" height="60"/>
                <use id="zoomplus" xlink:href="#zoomPlus" x="17" y="9" onmousedown="handleZoom(evt,'in')"/>
                <use id="zoomminus" xlink:href="#zoomMin" x="42" y="9" onmousedown="handleZoom(evt,'out')"/>
                <use id="reset" xlink:href="#resetDef" x="30" y="36" onmousedown="handleReset()"/>
                <g id="arrowUp" xlink:href="#dirArrow" transform="translate(30 24)" onmousedown="handlePan(0,-1)">
                  <use xlink:href="#rim" fill="#404040">
                        <set attributeName="fill" to="#808080" begin="arrowUp.mouseover" end="arrowUp.mouseout"/>
                  </use>
                  <path fill="none" stroke="white" stroke-width="1.5" d="M0,-3.0v7 M-2.5,-0.5L0,-3.0L2.5,-0.5"/>
                </g>
                <g id="arrowRight" xlink:href="#dirArrow" transform="rotate(90) translate(36 -43)" onmousedown="handlePan(1,0)">
                  <use xlink:href="#rim" fill="#404040">
                        <set attributeName="fill" to="#808080" begin="arrowRight.mouseover" end="arrowRight.mouseout"/>
                  </use>
                  <path fill="none" stroke="white" stroke-width="1.5" d="M0,-3.0v7 M-2.5,-0.5L0,-3.0L2.5,-0.5"/>
                </g>
                <g id="arrowDown" xlink:href="#dirArrow" transform="rotate(180) translate(-30 -48)" onmousedown="handlePan(0,1)">
                  <use xlink:href="#rim" fill="#404040">
                        <set attributeName="fill" to="#808080" begin="arrowDown.mouseover" end="arrowDown.mouseout"/>
                  </use>
                  <path fill="none" stroke="white" stroke-width="1.5" d="M0,-3.0v7 M-2.5,-0.5L0,-3.0L2.5,-0.5"/>
                </g>
                <g id="arrowLeft" xlink:href="#dirArrow" transform="rotate(270) translate(-36 17)" onmousedown="handlePan(-1,0)">
                  <use xlink:href="#rim" fill="#404040">
                        <set attributeName="fill" to="#808080" begin="arrowLeft.mouseover" end="arrowLeft.mouseout"/>
                  </use>
                  <path fill="none" stroke="white" stroke-width="1.5" d="M0,-3.0v7 M-2.5,-0.5L0,-3.0L2.5,-0.5"/>
                </g>
        </g>
        <svg viewBox="0 0 15 15" width="100%" height="30px" preserveAspectRatio="xMaxYMin meet">
         <g id="arrow_out" transform="scale(0.3 0.3)">
          <a xlink:href="structOpURhs__coll__graph_org.svg" target="_base">
           <rect id="button" ry="5" rx="5" y="6" x="6" height="38" width="38"
                fill="#f2f5e9" fill-opacity="0.5" stroke="#606060" stroke-width="1.0"/>
           <path id="arrow"
             d="M 11.500037,31.436501 C 11.940474,20.09759 22.043105,11.32322 32.158766,21.979434 L 37.068811,17.246167 C 37.068811,17.246167 37.088388,32 37.088388,32 L 22.160133,31.978069 C 22.160133,31.978069 26.997745,27.140456 26.997745,27.140456 C 18.528582,18.264221 13.291696,25.230495 11.500037,31.436501 z"
             style="fill:#404040;"/>
          </a>
         </g>
        </svg>
</svg>
