<?xml version="1.0" encoding="UTF-8" standalone="no"?>
<!DOCTYPE svg PUBLIC "-//W3C//DTD SVG 1.1//EN"
 "http://www.w3.org/Graphics/SVG/1.1/DTD/svg11.dtd">
<!-- Generated by graphviz version 2.43.0 (0)
 -->
<!-- Title: MoFEM::OpSetInvJacH1 Pages: 1 -->
<svg width="795pt" height="432pt"
 viewBox="0.00 0.00 795.00 431.50" xmlns="http://www.w3.org/2000/svg" xmlns:xlink="http://www.w3.org/1999/xlink">
<g id="graph0" class="graph" transform="scale(1 1) rotate(0) translate(4 427.5)">
<title>MoFEM::OpSetInvJacH1</title>
<polygon fill="white" stroke="transparent" points="-4,4 -4,-427.5 791,-427.5 791,4 -4,4"/>
<!-- Node1 -->
<g id="node1" class="node">
<title>Node1</title>
<g id="a_node1"><a xlink:title="Transform local reference derivatives of shape function to global derivatives.">
<polygon fill="#bfbfbf" stroke="black" points="656,-107.5 656,-126.5 787,-126.5 787,-107.5 656,-107.5"/>
<text text-anchor="middle" x="721.5" y="-114.5" font-family="Helvetica,sans-Serif" font-size="10.00">MoFEM::OpSetInvJacH1</text>
</a>
</g>
</g>
<!-- Node2 -->
<g id="node2" class="node">
<title>Node2</title>
<g id="a_node2"><a xlink:href="structMoFEM_1_1DataOperator.html" target="_top" xlink:title="base operator to do operations at Gauss Pt. level">
<polygon fill="white" stroke="black" points="431,-235.5 431,-254.5 556,-254.5 556,-235.5 431,-235.5"/>
<text text-anchor="middle" x="493.5" y="-242.5" font-family="Helvetica,sans-Serif" font-size="10.00">MoFEM::DataOperator</text>
</a>
</g>
</g>
<!-- Node2&#45;&gt;Node1 -->
<g id="edge1" class="edge">
<title>Node2&#45;&gt;Node1</title>
<path fill="none" stroke="midnightblue" d="M520.4,-230.33C567.15,-203.85 664.45,-148.74 703.62,-126.56"/>
<polygon fill="midnightblue" stroke="midnightblue" points="518.46,-227.41 511.49,-235.38 521.91,-233.5 518.46,-227.41"/>
</g>
<!-- Node3 -->
<g id="node3" class="node">
<title>Node3</title>
<g id="a_node3"><a xlink:title=" ">
<polygon fill="white" stroke="#bfbfbf" points="97,-371 97,-423 289,-423 289,-371 97,-371"/>
<text text-anchor="start" x="105" y="-411" font-family="Helvetica,sans-Serif" font-size="10.00">function&lt; MoFEMErrorCode</text>
<text text-anchor="start" x="105" y="-400" font-family="Helvetica,sans-Serif" font-size="10.00">(DataOperator *op_ptr,</text>
<text text-anchor="start" x="105" y="-389" font-family="Helvetica,sans-Serif" font-size="10.00"> int side, EntityType type,</text>
<text text-anchor="middle" x="193" y="-378" font-family="Helvetica,sans-Serif" font-size="10.00"> EntitiesFieldData::EntData &amp;data)&gt;</text>
</a>
</g>
</g>
<!-- Node3&#45;&gt;Node2 -->
<g id="edge2" class="edge">
<title>Node3&#45;&gt;Node2</title>
<path fill="none" stroke="#9a32cd" stroke-dasharray="5,2" d="M299.03,-402.27C334.78,-399.76 373.61,-391.91 405,-373 452.27,-344.52 479.94,-279.57 489.09,-254.83"/>
<polygon fill="#9a32cd" stroke="#9a32cd" points="298.82,-398.78 289.03,-402.85 299.22,-405.77 298.82,-398.78"/>
<text text-anchor="middle" x="359.5" y="-403" font-family="Helvetica,sans-Serif" font-size="10.00"> doWorkRhsHook</text>
</g>
<!-- Node4 -->
<g id="node4" class="node">
<title>Node4</title>
<g id="a_node4"><a xlink:href="classbool.html" target="_top" xlink:title=" ">
<polygon fill="white" stroke="black" points="174,-306.5 174,-325.5 212,-325.5 212,-306.5 174,-306.5"/>
<text text-anchor="middle" x="193" y="-313.5" font-family="Helvetica,sans-Serif" font-size="10.00">bool</text>
</a>
</g>
</g>
<!-- Node4&#45;&gt;Node2 -->
<g id="edge3" class="edge">
<title>Node4&#45;&gt;Node2</title>
<path fill="none" stroke="#9a32cd" stroke-dasharray="5,2" d="M222.1,-311.35C242.65,-307.8 271.16,-302.59 296,-297 353.84,-283.98 420.39,-265.65 459.31,-254.59"/>
<polygon fill="#9a32cd" stroke="#9a32cd" points="221.41,-307.91 212.14,-313.04 222.59,-314.81 221.41,-307.91"/>
<text text-anchor="middle" x="359.5" y="-361" font-family="Helvetica,sans-Serif" font-size="10.00"> doTris</text>
<text text-anchor="middle" x="359.5" y="-350" font-family="Helvetica,sans-Serif" font-size="10.00">doQuads</text>
<text text-anchor="middle" x="359.5" y="-339" font-family="Helvetica,sans-Serif" font-size="10.00">sYmm</text>
<text text-anchor="middle" x="359.5" y="-328" font-family="Helvetica,sans-Serif" font-size="10.00">doPrisms</text>
<text text-anchor="middle" x="359.5" y="-317" font-family="Helvetica,sans-Serif" font-size="10.00">doTets</text>
<text text-anchor="middle" x="359.5" y="-306" font-family="Helvetica,sans-Serif" font-size="10.00">doVertices</text>
<text text-anchor="middle" x="359.5" y="-295" font-family="Helvetica,sans-Serif" font-size="10.00">doEdges</text>
</g>
<!-- Node5 -->
<g id="node5" class="node">
<title>Node5</title>
<g id="a_node5"><a xlink:title=" ">
<polygon fill="white" stroke="#bfbfbf" points="90,-202.5 90,-287.5 296,-287.5 296,-202.5 90,-202.5"/>
<text text-anchor="start" x="98" y="-275.5" font-family="Helvetica,sans-Serif" font-size="10.00">function&lt; MoFEMErrorCode</text>
<text text-anchor="start" x="98" y="-264.5" font-family="Helvetica,sans-Serif" font-size="10.00">(DataOperator *op_ptr,</text>
<text text-anchor="start" x="98" y="-253.5" font-family="Helvetica,sans-Serif" font-size="10.00"> int row_side, int col_side,</text>
<text text-anchor="start" x="98" y="-242.5" font-family="Helvetica,sans-Serif" font-size="10.00"> EntityType row_type, EntityType</text>
<text text-anchor="start" x="98" y="-231.5" font-family="Helvetica,sans-Serif" font-size="10.00"> col_type, EntitiesFieldData::EntData</text>
<text text-anchor="start" x="98" y="-220.5" font-family="Helvetica,sans-Serif" font-size="10.00"> &amp;row_data, EntitiesFieldData::EntData</text>
<text text-anchor="middle" x="193" y="-209.5" font-family="Helvetica,sans-Serif" font-size="10.00"> &amp;col_data)&gt;</text>
</a>
</g>
</g>
<!-- Node5&#45;&gt;Node2 -->
<g id="edge4" class="edge">
<title>Node5&#45;&gt;Node2</title>
<path fill="none" stroke="#9a32cd" stroke-dasharray="5,2" d="M306.36,-245C348.53,-245 394.9,-245 430.8,-245"/>
<polygon fill="#9a32cd" stroke="#9a32cd" points="306.31,-241.5 296.31,-245 306.31,-248.5 306.31,-241.5"/>
<text text-anchor="middle" x="359.5" y="-248" font-family="Helvetica,sans-Serif" font-size="10.00"> doWorkLhsHook</text>
</g>
<!-- Node6 -->
<g id="node6" class="node">
<title>Node6</title>
<g id="a_node6"><a xlink:title=" ">
<polygon fill="white" stroke="#bfbfbf" points="116,-164.5 116,-183.5 270,-183.5 270,-164.5 116,-164.5"/>
<text text-anchor="middle" x="193" y="-171.5" font-family="Helvetica,sans-Serif" font-size="10.00">array&lt; bool, MBMAXTYPE &gt;</text>
</a>
</g>
</g>
<!-- Node6&#45;&gt;Node2 -->
<g id="edge5" class="edge">
<title>Node6&#45;&gt;Node2</title>
<path fill="none" stroke="#9a32cd" stroke-dasharray="5,2" d="M259.34,-185.42C271.56,-187.77 284.19,-190.34 296,-193 353.84,-206.02 420.39,-224.35 459.31,-235.41"/>
<polygon fill="#9a32cd" stroke="#9a32cd" points="259.68,-181.93 249.21,-183.51 258.38,-188.8 259.68,-181.93"/>
<text text-anchor="middle" x="359.5" y="-222" font-family="Helvetica,sans-Serif" font-size="10.00"> doEntities</text>
</g>
<!-- Node7 -->
<g id="node7" class="node">
<title>Node7</title>
<g id="a_node7"><a xlink:href="classFTensor_1_1Index.html" target="_top" xlink:title=" ">
<polygon fill="white" stroke="black" points="428.5,-145.5 428.5,-164.5 558.5,-164.5 558.5,-145.5 428.5,-145.5"/>
<text text-anchor="middle" x="493.5" y="-152.5" font-family="Helvetica,sans-Serif" font-size="10.00">FTensor::Index&lt; &#39;i&#39;, 3 &gt;</text>
</a>
</g>
</g>
<!-- Node7&#45;&gt;Node1 -->
<g id="edge6" class="edge">
<title>Node7&#45;&gt;Node1</title>
<path fill="none" stroke="#9a32cd" stroke-dasharray="5,2" d="M561.85,-143.77C585.88,-139.75 613.15,-135.19 638,-131 646.6,-129.55 655.69,-128.01 664.59,-126.51"/>
<polygon fill="#9a32cd" stroke="#9a32cd" points="561.05,-140.35 551.76,-145.45 562.2,-147.26 561.05,-140.35"/>
<text text-anchor="middle" x="610" y="-143" font-family="Helvetica,sans-Serif" font-size="10.00"> i</text>
</g>
<!-- Node8 -->
<g id="node8" class="node">
<title>Node8</title>
<g id="a_node8"><a xlink:href="classFTensor_1_1Index.html" target="_top" xlink:title=" ">
<polygon fill="white" stroke="black" points="141,-105 141,-135 245,-135 245,-105 141,-105"/>
<text text-anchor="start" x="149" y="-123" font-family="Helvetica,sans-Serif" font-size="10.00">FTensor::Index&lt; i,</text>
<text text-anchor="middle" x="193" y="-112" font-family="Helvetica,sans-Serif" font-size="10.00"> Dim &gt;</text>
</a>
</g>
</g>
<!-- Node8&#45;&gt;Node7 -->
<g id="edge7" class="edge">
<title>Node8&#45;&gt;Node7</title>
<path fill="none" stroke="orange" stroke-dasharray="5,2" d="M255.43,-127.2C305.9,-133.12 377.16,-141.48 428.35,-147.48"/>
<polygon fill="orange" stroke="orange" points="255.65,-123.71 245.31,-126.02 254.84,-130.66 255.65,-123.71"/>
<text text-anchor="middle" x="359.5" y="-147" font-family="Helvetica,sans-Serif" font-size="10.00"> &lt; &#39;i&#39;, 3 &gt;</text>
</g>
<!-- Node9 -->
<g id="node9" class="node">
<title>Node9</title>
<g id="a_node9"><a xlink:href="classFTensor_1_1Index.html" target="_top" xlink:title=" ">
<polygon fill="white" stroke="black" points="428.5,-107.5 428.5,-126.5 558.5,-126.5 558.5,-107.5 428.5,-107.5"/>
<text text-anchor="middle" x="493.5" y="-114.5" font-family="Helvetica,sans-Serif" font-size="10.00">FTensor::Index&lt; &#39;j&#39;, 3 &gt;</text>
</a>
</g>
</g>
<!-- Node8&#45;&gt;Node9 -->
<g id="edge9" class="edge">
<title>Node8&#45;&gt;Node9</title>
<path fill="none" stroke="orange" stroke-dasharray="5,2" d="M255.32,-118.85C274.15,-118.53 294.93,-118.21 314,-118 351.96,-117.58 394.46,-117.33 428.47,-117.19"/>
<polygon fill="orange" stroke="orange" points="255.03,-115.35 245.09,-119.02 255.15,-122.35 255.03,-115.35"/>
<text text-anchor="middle" x="359.5" y="-121" font-family="Helvetica,sans-Serif" font-size="10.00"> &lt; &#39;j&#39;, 3 &gt;</text>
</g>
<!-- Node9&#45;&gt;Node1 -->
<g id="edge8" class="edge">
<title>Node9&#45;&gt;Node1</title>
<path fill="none" stroke="#9a32cd" stroke-dasharray="5,2" d="M568.83,-117C596.92,-117 628.65,-117 655.79,-117"/>
<polygon fill="#9a32cd" stroke="#9a32cd" points="568.66,-113.5 558.66,-117 568.66,-120.5 568.66,-113.5"/>
<text text-anchor="middle" x="610" y="-120" font-family="Helvetica,sans-Serif" font-size="10.00"> j</text>
</g>
<!-- Node10 -->
<g id="node10" class="node">
<title>Node10</title>
<g id="a_node10"><a xlink:href="classUBlasMatrix_3_01double_01_4.html" target="_top" xlink:title=" ">
<polygon fill="white" stroke="black" points="427.5,-69.5 427.5,-88.5 559.5,-88.5 559.5,-69.5 427.5,-69.5"/>
<text text-anchor="middle" x="493.5" y="-76.5" font-family="Helvetica,sans-Serif" font-size="10.00">UBlasMatrix&lt; double &gt;</text>
</a>
</g>
</g>
<!-- Node10&#45;&gt;Node1 -->
<g id="edge10" class="edge">
<title>Node10&#45;&gt;Node1</title>
<path fill="none" stroke="#9a32cd" stroke-dasharray="5,2" d="M565.7,-90.11C588.79,-93.79 614.49,-97.98 638,-102 648.04,-103.72 658.76,-105.62 669.04,-107.47"/>
<polygon fill="#9a32cd" stroke="#9a32cd" points="566.07,-86.63 555.65,-88.51 564.97,-93.54 566.07,-86.63"/>
<text text-anchor="middle" x="610" y="-105" font-family="Helvetica,sans-Serif" font-size="10.00"> diffNinvJac</text>
</g>
<!-- Node11 -->
<g id="node11" class="node">
<title>Node11</title>
<g id="a_node11"><a xlink:href="classFTensor_1_1Tensor2.html" target="_top" xlink:title=" ">
<polygon fill="white" stroke="black" points="423,-20 423,-50 564,-50 564,-20 423,-20"/>
<text text-anchor="start" x="431" y="-38" font-family="Helvetica,sans-Serif" font-size="10.00">FTensor::Tensor2&lt; double</text>
<text text-anchor="middle" x="493.5" y="-27" font-family="Helvetica,sans-Serif" font-size="10.00"> *, 3, 3 &gt;</text>
</a>
</g>
</g>
<!-- Node11&#45;&gt;Node1 -->
<g id="edge11" class="edge">
<title>Node11&#45;&gt;Node1</title>
<path fill="none" stroke="#9a32cd" stroke-dasharray="5,2" d="M563.89,-52.79C587.67,-59.55 614.27,-67.85 638,-77 661.02,-85.88 686.41,-98.67 702.86,-107.38"/>
<polygon fill="#9a32cd" stroke="#9a32cd" points="564.81,-49.41 554.23,-50.08 562.92,-56.15 564.81,-49.41"/>
<text text-anchor="middle" x="610" y="-80" font-family="Helvetica,sans-Serif" font-size="10.00"> tInvJac</text>
</g>
<!-- Node12 -->
<g id="node12" class="node">
<title>Node12</title>
<g id="a_node12"><a xlink:href="classdouble.html" target="_top" xlink:title=" ">
<polygon fill="white" stroke="black" points="168,-60.5 168,-79.5 218,-79.5 218,-60.5 168,-60.5"/>
<text text-anchor="middle" x="193" y="-67.5" font-family="Helvetica,sans-Serif" font-size="10.00">double</text>
</a>
</g>
</g>
<!-- Node12&#45;&gt;Node11 -->
<g id="edge12" class="edge">
<title>Node12&#45;&gt;Node11</title>
<path fill="none" stroke="#9a32cd" stroke-dasharray="5,2" d="M228.23,-66.23C269.98,-61.61 342.7,-53.46 405,-46 410.78,-45.31 416.77,-44.58 422.78,-43.84"/>
<polygon fill="#9a32cd" stroke="#9a32cd" points="227.61,-62.78 218.06,-67.36 228.38,-69.74 227.61,-62.78"/>
<text text-anchor="middle" x="359.5" y="-59" font-family="Helvetica,sans-Serif" font-size="10.00"> data</text>
</g>
<!-- Node13 -->
<g id="node13" class="node">
<title>Node13</title>
<g id="a_node13"><a xlink:href="classFTensor_1_1Tensor2.html" target="_top" xlink:title=" ">
<polygon fill="white" stroke="black" points="133,-0.5 133,-41.5 253,-41.5 253,-0.5 133,-0.5"/>
<text text-anchor="start" x="141" y="-29.5" font-family="Helvetica,sans-Serif" font-size="10.00">FTensor::Tensor2&lt; T,</text>
<text text-anchor="start" x="141" y="-18.5" font-family="Helvetica,sans-Serif" font-size="10.00"> Tensor_Dim0, Tensor</text>
<text text-anchor="middle" x="193" y="-7.5" font-family="Helvetica,sans-Serif" font-size="10.00">_Dim1 &gt;</text>
</a>
</g>
</g>
<!-- Node13&#45;&gt;Node11 -->
<g id="edge13" class="edge">
<title>Node13&#45;&gt;Node11</title>
<path fill="none" stroke="orange" stroke-dasharray="5,2" d="M263.61,-24.26C311.51,-26.51 374.88,-29.48 422.8,-31.73"/>
<polygon fill="orange" stroke="orange" points="263.48,-20.76 253.33,-23.78 263.16,-27.75 263.48,-20.76"/>
<text text-anchor="middle" x="359.5" y="-34" font-family="Helvetica,sans-Serif" font-size="10.00"> &lt; double *, 3, 3 &gt;</text>
</g>
<!-- Node14 -->
<g id="node14" class="node">
<title>Node14</title>
<g id="a_node14"><a xlink:title=" ">
<polygon fill="white" stroke="#bfbfbf" points="0,-11.5 0,-30.5 29,-30.5 29,-11.5 0,-11.5"/>
<text text-anchor="middle" x="14.5" y="-18.5" font-family="Helvetica,sans-Serif" font-size="10.00">T</text>
</a>
</g>
</g>
<!-- Node14&#45;&gt;Node13 -->
<g id="edge14" class="edge">
<title>Node14&#45;&gt;Node13</title>
<path fill="none" stroke="#9a32cd" stroke-dasharray="5,2" d="M39.26,-21C63.07,-21 100.69,-21 132.63,-21"/>
<polygon fill="#9a32cd" stroke="#9a32cd" points="39.06,-17.5 29.06,-21 39.06,-24.5 39.06,-17.5"/>
<text text-anchor="middle" x="59.5" y="-24" font-family="Helvetica,sans-Serif" font-size="10.00"> data</text>
</g>
</g>
</svg>
