<?xml version="1.0" encoding="UTF-8" standalone="no"?>
<!DOCTYPE svg PUBLIC "-//W3C//DTD SVG 1.1//EN"
 "http://www.w3.org/Graphics/SVG/1.1/DTD/svg11.dtd">
<!-- Generated by graphviz version 2.43.0 (0)
 -->
<!-- Title: FreeSurfaceOps::OpWettingAngleLhs Pages: 1 -->
<svg width="470pt" height="279pt"
 viewBox="0.00 0.00 470.00 278.50" xmlns="http://www.w3.org/2000/svg" xmlns:xlink="http://www.w3.org/1999/xlink">
<g id="graph0" class="graph" transform="scale(1 1) rotate(0) translate(4 274.5)">
<title>FreeSurfaceOps::OpWettingAngleLhs</title>
<polygon fill="white" stroke="transparent" points="-4,4 -4,-274.5 466,-274.5 466,4 -4,4"/>
<!-- Node1 -->
<g id="node1" class="node">
<title>Node1</title>
<g id="a_node1"><a xlink:title=" ">
<polygon fill="#bfbfbf" stroke="black" points="312,-131.5 312,-161.5 462,-161.5 462,-131.5 312,-131.5"/>
<text text-anchor="start" x="320" y="-149.5" font-family="Helvetica,sans-Serif" font-size="10.00">FreeSurfaceOps::OpWetting</text>
<text text-anchor="middle" x="387" y="-138.5" font-family="Helvetica,sans-Serif" font-size="10.00">AngleLhs</text>
</a>
</g>
</g>
<!-- Node2 -->
<g id="node2" class="node">
<title>Node2</title>
<g id="a_node2"><a xlink:href="classBoundaryEleOp.html" target="_top" xlink:title=" ">
<polygon fill="white" stroke="black" points="32.5,-251 32.5,-270 124.5,-270 124.5,-251 32.5,-251"/>
<text text-anchor="middle" x="78.5" y="-258" font-family="Helvetica,sans-Serif" font-size="10.00">BoundaryEleOp</text>
</a>
</g>
</g>
<!-- Node2&#45;&gt;Node1 -->
<g id="edge1" class="edge">
<title>Node2&#45;&gt;Node1</title>
<path fill="none" stroke="midnightblue" d="M134.87,-260.44C179.71,-258.45 243.49,-251.11 294,-227.5 327.35,-211.91 357.64,-180.4 373.78,-161.61"/>
<polygon fill="midnightblue" stroke="midnightblue" points="134.62,-256.95 124.75,-260.82 134.87,-263.95 134.62,-256.95"/>
</g>
<!-- Node3 -->
<g id="node3" class="node">
<title>Node3</title>
<g id="a_node3"><a xlink:title=" ">
<polygon fill="white" stroke="#bfbfbf" points="0,-213 0,-232 157,-232 157,-213 0,-213"/>
<text text-anchor="middle" x="78.5" y="-220" font-family="Helvetica,sans-Serif" font-size="10.00">shared_ptr&lt; MatrixDouble &gt;</text>
</a>
</g>
</g>
<!-- Node3&#45;&gt;Node1 -->
<g id="edge2" class="edge">
<title>Node3&#45;&gt;Node1</title>
<path fill="none" stroke="#9a32cd" stroke-dasharray="5,2" d="M167.23,-214.72C206.57,-209.78 253.21,-201.89 294,-189.5 316.77,-182.58 341.11,-171 359.03,-161.6"/>
<polygon fill="#9a32cd" stroke="#9a32cd" points="166.63,-211.26 157.13,-215.94 167.47,-218.21 166.63,-211.26"/>
<text text-anchor="middle" x="234.5" y="-215.5" font-family="Helvetica,sans-Serif" font-size="10.00"> gradHPtr</text>
</g>
<!-- Node4 -->
<g id="node4" class="node">
<title>Node4</title>
<g id="a_node4"><a xlink:title=" ">
<polygon fill="white" stroke="#bfbfbf" points="37,-175 37,-194 120,-194 120,-175 37,-175"/>
<text text-anchor="middle" x="78.5" y="-182" font-family="Helvetica,sans-Serif" font-size="10.00">MatrixDouble</text>
</a>
</g>
</g>
<!-- Node4&#45;&gt;Node1 -->
<g id="edge3" class="edge">
<title>Node4&#45;&gt;Node1</title>
<path fill="none" stroke="#9a32cd" stroke-dasharray="5,2" d="M130.35,-179.84C173.88,-175.66 238.16,-169.04 294,-161.5 299.77,-160.72 305.74,-159.86 311.74,-158.97"/>
<polygon fill="#9a32cd" stroke="#9a32cd" points="129.93,-176.36 120.3,-180.8 130.59,-183.33 129.93,-176.36"/>
<text text-anchor="middle" x="234.5" y="-177.5" font-family="Helvetica,sans-Serif" font-size="10.00"> locMat</text>
</g>
<!-- Node5 -->
<g id="node5" class="node">
<title>Node5</title>
<g id="a_node5"><a xlink:href="classdouble.html" target="_top" xlink:title=" ">
<polygon fill="white" stroke="black" points="53.5,-137 53.5,-156 103.5,-156 103.5,-137 53.5,-137"/>
<text text-anchor="middle" x="78.5" y="-144" font-family="Helvetica,sans-Serif" font-size="10.00">double</text>
</a>
</g>
</g>
<!-- Node5&#45;&gt;Node1 -->
<g id="edge4" class="edge">
<title>Node5&#45;&gt;Node1</title>
<path fill="none" stroke="#9a32cd" stroke-dasharray="5,2" d="M113.64,-146.5C161.25,-146.5 248.82,-146.5 311.83,-146.5"/>
<polygon fill="#9a32cd" stroke="#9a32cd" points="113.55,-143 103.55,-146.5 113.55,-150 113.55,-143"/>
<text text-anchor="middle" x="234.5" y="-149.5" font-family="Helvetica,sans-Serif" font-size="10.00"> wettingAngle</text>
</g>
<!-- Node6 -->
<g id="node6" class="node">
<title>Node6</title>
<g id="a_node6"><a xlink:title=" ">
<polygon fill="white" stroke="#bfbfbf" points="17.5,-99 17.5,-118 139.5,-118 139.5,-99 17.5,-99"/>
<text text-anchor="middle" x="78.5" y="-106" font-family="Helvetica,sans-Serif" font-size="10.00">shared_ptr&lt; Range &gt;</text>
</a>
</g>
</g>
<!-- Node6&#45;&gt;Node1 -->
<g id="edge5" class="edge">
<title>Node6&#45;&gt;Node1</title>
<path fill="none" stroke="#9a32cd" stroke-dasharray="5,2" d="M149.82,-115.06C191.75,-119.21 246,-125.02 294,-131.5 299.77,-132.28 305.74,-133.14 311.74,-134.03"/>
<polygon fill="#9a32cd" stroke="#9a32cd" points="150,-111.56 139.7,-114.07 149.31,-118.53 150,-111.56"/>
<text text-anchor="middle" x="234.5" y="-134.5" font-family="Helvetica,sans-Serif" font-size="10.00"> entsPtr</text>
</g>
<!-- Node7 -->
<g id="node7" class="node">
<title>Node7</title>
<g id="a_node7"><a xlink:title=" ">
<polygon fill="white" stroke="#bfbfbf" points="13,-49.5 13,-79.5 144,-79.5 144,-49.5 13,-49.5"/>
<text text-anchor="start" x="21" y="-67.5" font-family="Helvetica,sans-Serif" font-size="10.00">shared_ptr&lt; std::vector</text>
<text text-anchor="middle" x="78.5" y="-56.5" font-family="Helvetica,sans-Serif" font-size="10.00">&lt; MatrixDouble &gt; &gt;</text>
</a>
</g>
</g>
<!-- Node7&#45;&gt;Node1 -->
<g id="edge6" class="edge">
<title>Node7&#45;&gt;Node1</title>
<path fill="none" stroke="#9a32cd" stroke-dasharray="5,2" d="M154.52,-72.72C196.26,-78.55 248.76,-87.97 294,-102.5 316.93,-109.86 341.46,-121.82 359.42,-131.41"/>
<polygon fill="#9a32cd" stroke="#9a32cd" points="154.81,-69.23 144.43,-71.35 153.87,-76.17 154.81,-69.23"/>
<text text-anchor="middle" x="234.5" y="-105.5" font-family="Helvetica,sans-Serif" font-size="10.00"> colDiffBaseFunctionsPtr</text>
</g>
<!-- Node8 -->
<g id="node8" class="node">
<title>Node8</title>
<g id="a_node8"><a xlink:title=" ">
<polygon fill="white" stroke="#bfbfbf" points="13,-0.5 13,-30.5 144,-30.5 144,-0.5 13,-0.5"/>
<text text-anchor="start" x="21" y="-18.5" font-family="Helvetica,sans-Serif" font-size="10.00">shared_ptr&lt; std::vector</text>
<text text-anchor="middle" x="78.5" y="-7.5" font-family="Helvetica,sans-Serif" font-size="10.00">&lt; VectorInt &gt; &gt;</text>
</a>
</g>
</g>
<!-- Node8&#45;&gt;Node1 -->
<g id="edge7" class="edge">
<title>Node8&#45;&gt;Node1</title>
<path fill="none" stroke="#9a32cd" stroke-dasharray="5,2" d="M154.12,-21.13C196.97,-26.75 250.71,-38 294,-60.5 327.95,-78.14 358.48,-111.85 374.39,-131.42"/>
<polygon fill="#9a32cd" stroke="#9a32cd" points="154.38,-17.63 144.03,-19.88 153.52,-24.58 154.38,-17.63"/>
<text text-anchor="middle" x="234.5" y="-63.5" font-family="Helvetica,sans-Serif" font-size="10.00"> colIndicesPtr</text>
</g>
</g>
</svg>
