<?xml version="1.0" encoding="UTF-8" standalone="no"?>
<!DOCTYPE svg PUBLIC "-//W3C//DTD SVG 1.1//EN"
 "http://www.w3.org/Graphics/SVG/1.1/DTD/svg11.dtd">
<!-- Generated by graphviz version 2.43.0 (0)
 -->
<!-- Title: BoneRemodeling::OpMassCalculationFromApprox Pages: 1 -->
<svg width="3480pt" height="1617pt"
 viewBox="0.00 0.00 3480.00 1617.00" xmlns="http://www.w3.org/2000/svg" xmlns:xlink="http://www.w3.org/1999/xlink">
<g id="graph0" class="graph" transform="scale(1 1) rotate(0) translate(4 1613)">
<title>BoneRemodeling::OpMassCalculationFromApprox</title>
<polygon fill="white" stroke="transparent" points="-4,4 -4,-1613 3476,-1613 3476,4 -4,4"/>
<!-- Node1 -->
<g id="node1" class="node">
<title>Node1</title>
<g id="a_node1"><a xlink:title="Calculate mass after approximation.">
<polygon fill="#bfbfbf" stroke="black" points="3272,-161 3272,-191 3472,-191 3472,-161 3272,-161"/>
<text text-anchor="start" x="3280" y="-179" font-family="Helvetica,sans-Serif" font-size="10.00">BoneRemodeling::OpMassCalculation</text>
<text text-anchor="middle" x="3372" y="-168" font-family="Helvetica,sans-Serif" font-size="10.00">FromApprox</text>
</a>
</g>
</g>
<!-- Node2 -->
<g id="node2" class="node">
<title>Node2</title>
<g id="a_node2"><a xlink:href="structMoFEM_1_1VolumeElementForcesAndSourcesCore_1_1UserDataOperator.html" target="_top" xlink:title=" ">
<polygon fill="white" stroke="black" points="3044,-665 3044,-695 3235,-695 3235,-665 3044,-665"/>
<text text-anchor="start" x="3052" y="-683" font-family="Helvetica,sans-Serif" font-size="10.00">MoFEM::VolumeElementForces</text>
<text text-anchor="middle" x="3139.5" y="-672" font-family="Helvetica,sans-Serif" font-size="10.00">AndSourcesCore::UserDataOperator</text>
</a>
</g>
</g>
<!-- Node2&#45;&gt;Node1 -->
<g id="edge1" class="edge">
<title>Node2&#45;&gt;Node1</title>
<path fill="none" stroke="midnightblue" d="M3151.64,-655.64C3192.23,-566.9 3331.51,-262.34 3364.13,-191.02"/>
<polygon fill="midnightblue" stroke="midnightblue" points="3148.37,-654.37 3147.4,-664.92 3154.74,-657.28 3148.37,-654.37"/>
</g>
<!-- Node3 -->
<g id="node3" class="node">
<title>Node3</title>
<g id="a_node3"><a xlink:href="structMoFEM_1_1ForcesAndSourcesCore_1_1UserDataOperator.html" target="_top" xlink:title=" ">
<polygon fill="white" stroke="black" points="2837,-1301 2837,-1331 3007,-1331 3007,-1301 2837,-1301"/>
<text text-anchor="start" x="2845" y="-1319" font-family="Helvetica,sans-Serif" font-size="10.00">MoFEM::ForcesAndSourcesCore</text>
<text text-anchor="middle" x="2922" y="-1308" font-family="Helvetica,sans-Serif" font-size="10.00">::UserDataOperator</text>
</a>
</g>
</g>
<!-- Node3&#45;&gt;Node2 -->
<g id="edge2" class="edge">
<title>Node3&#45;&gt;Node2</title>
<path fill="none" stroke="midnightblue" d="M2931.41,-1291.17C2967.03,-1186.05 3104.87,-779.25 3133.34,-695.24"/>
<polygon fill="midnightblue" stroke="midnightblue" points="2928.01,-1290.31 2928.11,-1300.91 2934.64,-1292.56 2928.01,-1290.31"/>
</g>
<!-- Node4 -->
<g id="node4" class="node">
<title>Node4</title>
<g id="a_node4"><a xlink:href="structMoFEM_1_1DataOperator.html" target="_top" xlink:title="base operator to do operations at Gauss Pt. level">
<polygon fill="white" stroke="black" points="2579.5,-1411.5 2579.5,-1430.5 2704.5,-1430.5 2704.5,-1411.5 2579.5,-1411.5"/>
<text text-anchor="middle" x="2642" y="-1418.5" font-family="Helvetica,sans-Serif" font-size="10.00">MoFEM::DataOperator</text>
</a>
</g>
</g>
<!-- Node4&#45;&gt;Node3 -->
<g id="edge3" class="edge">
<title>Node4&#45;&gt;Node3</title>
<path fill="none" stroke="midnightblue" d="M2677.56,-1407.95C2729.25,-1388.42 2826.43,-1351.72 2881.07,-1331.08"/>
<polygon fill="midnightblue" stroke="midnightblue" points="2676.28,-1404.69 2668.16,-1411.5 2678.75,-1411.24 2676.28,-1404.69"/>
</g>
<!-- Node5 -->
<g id="node5" class="node">
<title>Node5</title>
<g id="a_node5"><a xlink:title=" ">
<polygon fill="white" stroke="#bfbfbf" points="2160,-1414 2160,-1466 2352,-1466 2352,-1414 2160,-1414"/>
<text text-anchor="start" x="2168" y="-1454" font-family="Helvetica,sans-Serif" font-size="10.00">function&lt; MoFEMErrorCode</text>
<text text-anchor="start" x="2168" y="-1443" font-family="Helvetica,sans-Serif" font-size="10.00">(DataOperator *op_ptr,</text>
<text text-anchor="start" x="2168" y="-1432" font-family="Helvetica,sans-Serif" font-size="10.00"> int side, EntityType type,</text>
<text text-anchor="middle" x="2256" y="-1421" font-family="Helvetica,sans-Serif" font-size="10.00"> EntitiesFieldData::EntData &amp;data)&gt;</text>
</a>
</g>
</g>
<!-- Node5&#45;&gt;Node4 -->
<g id="edge4" class="edge">
<title>Node5&#45;&gt;Node4</title>
<path fill="none" stroke="#9a32cd" stroke-dasharray="5,2" d="M2362.11,-1436.88C2415.17,-1435.06 2480.53,-1432.43 2539,-1429 2552.03,-1428.23 2565.99,-1427.25 2579.27,-1426.23"/>
<polygon fill="#9a32cd" stroke="#9a32cd" points="2361.89,-1433.39 2352.01,-1437.22 2362.12,-1440.38 2361.89,-1433.39"/>
<text text-anchor="middle" x="2458" y="-1439" font-family="Helvetica,sans-Serif" font-size="10.00"> doWorkRhsHook</text>
</g>
<!-- Node6 -->
<g id="node6" class="node">
<title>Node6</title>
<g id="a_node6"><a xlink:href="classbool.html" target="_top" xlink:title=" ">
<polygon fill="white" stroke="black" points="2237,-1344.5 2237,-1363.5 2275,-1363.5 2275,-1344.5 2237,-1344.5"/>
<text text-anchor="middle" x="2256" y="-1351.5" font-family="Helvetica,sans-Serif" font-size="10.00">bool</text>
</a>
</g>
</g>
<!-- Node6&#45;&gt;Node4 -->
<g id="edge5" class="edge">
<title>Node6&#45;&gt;Node4</title>
<path fill="none" stroke="#9a32cd" stroke-dasharray="5,2" d="M2285.33,-1350.06C2347.82,-1341.89 2495.42,-1325.68 2539,-1348 2551.19,-1354.24 2546.82,-1363.84 2557,-1373 2575.47,-1389.63 2600.66,-1403.08 2618.63,-1411.46"/>
<polygon fill="#9a32cd" stroke="#9a32cd" points="2284.48,-1346.64 2275.03,-1351.43 2285.41,-1353.58 2284.48,-1346.64"/>
<text text-anchor="middle" x="2458" y="-1417" font-family="Helvetica,sans-Serif" font-size="10.00"> doTris</text>
<text text-anchor="middle" x="2458" y="-1406" font-family="Helvetica,sans-Serif" font-size="10.00">doQuads</text>
<text text-anchor="middle" x="2458" y="-1395" font-family="Helvetica,sans-Serif" font-size="10.00">sYmm</text>
<text text-anchor="middle" x="2458" y="-1384" font-family="Helvetica,sans-Serif" font-size="10.00">doPrisms</text>
<text text-anchor="middle" x="2458" y="-1373" font-family="Helvetica,sans-Serif" font-size="10.00">doTets</text>
<text text-anchor="middle" x="2458" y="-1362" font-family="Helvetica,sans-Serif" font-size="10.00">doVertices</text>
<text text-anchor="middle" x="2458" y="-1351" font-family="Helvetica,sans-Serif" font-size="10.00">doEdges</text>
</g>
<!-- Node7 -->
<g id="node7" class="node">
<title>Node7</title>
<g id="a_node7"><a xlink:title=" ">
<polygon fill="white" stroke="#bfbfbf" points="2153,-1523.5 2153,-1608.5 2359,-1608.5 2359,-1523.5 2153,-1523.5"/>
<text text-anchor="start" x="2161" y="-1596.5" font-family="Helvetica,sans-Serif" font-size="10.00">function&lt; MoFEMErrorCode</text>
<text text-anchor="start" x="2161" y="-1585.5" font-family="Helvetica,sans-Serif" font-size="10.00">(DataOperator *op_ptr,</text>
<text text-anchor="start" x="2161" y="-1574.5" font-family="Helvetica,sans-Serif" font-size="10.00"> int row_side, int col_side,</text>
<text text-anchor="start" x="2161" y="-1563.5" font-family="Helvetica,sans-Serif" font-size="10.00"> EntityType row_type, EntityType</text>
<text text-anchor="start" x="2161" y="-1552.5" font-family="Helvetica,sans-Serif" font-size="10.00"> col_type, EntitiesFieldData::EntData</text>
<text text-anchor="start" x="2161" y="-1541.5" font-family="Helvetica,sans-Serif" font-size="10.00"> &amp;row_data, EntitiesFieldData::EntData</text>
<text text-anchor="middle" x="2256" y="-1530.5" font-family="Helvetica,sans-Serif" font-size="10.00"> &amp;col_data)&gt;</text>
</a>
</g>
</g>
<!-- Node7&#45;&gt;Node4 -->
<g id="edge6" class="edge">
<title>Node7&#45;&gt;Node4</title>
<path fill="none" stroke="#9a32cd" stroke-dasharray="5,2" d="M2369.34,-1565.94C2426.77,-1560.11 2493.88,-1543.48 2539,-1501 2559.58,-1481.62 2536.38,-1459.33 2557,-1440 2563.33,-1434.07 2571.1,-1429.85 2579.34,-1426.87"/>
<polygon fill="#9a32cd" stroke="#9a32cd" points="2368.75,-1562.48 2359.11,-1566.88 2369.39,-1569.46 2368.75,-1562.48"/>
<text text-anchor="middle" x="2458" y="-1568" font-family="Helvetica,sans-Serif" font-size="10.00"> doWorkLhsHook</text>
</g>
<!-- Node8 -->
<g id="node8" class="node">
<title>Node8</title>
<g id="a_node8"><a xlink:title=" ">
<polygon fill="white" stroke="#bfbfbf" points="2179,-1485.5 2179,-1504.5 2333,-1504.5 2333,-1485.5 2179,-1485.5"/>
<text text-anchor="middle" x="2256" y="-1492.5" font-family="Helvetica,sans-Serif" font-size="10.00">array&lt; bool, MBMAXTYPE &gt;</text>
</a>
</g>
</g>
<!-- Node8&#45;&gt;Node4 -->
<g id="edge7" class="edge">
<title>Node8&#45;&gt;Node4</title>
<path fill="none" stroke="#9a32cd" stroke-dasharray="5,2" d="M2343.29,-1490.34C2400.28,-1485.15 2475.81,-1474.19 2539,-1451 2547.8,-1447.77 2548.31,-1443.53 2557,-1440 2566.42,-1436.18 2576.76,-1433.04 2586.87,-1430.51"/>
<polygon fill="#9a32cd" stroke="#9a32cd" points="2342.9,-1486.86 2333.24,-1491.22 2343.5,-1493.84 2342.9,-1486.86"/>
<text text-anchor="middle" x="2458" y="-1489" font-family="Helvetica,sans-Serif" font-size="10.00"> doEntities</text>
</g>
<!-- Node9 -->
<g id="node9" class="node">
<title>Node9</title>
<g id="a_node9"><a xlink:title=" ">
<polygon fill="white" stroke="#bfbfbf" points="2607.5,-1344.5 2607.5,-1363.5 2676.5,-1363.5 2676.5,-1344.5 2607.5,-1344.5"/>
<text text-anchor="middle" x="2642" y="-1351.5" font-family="Helvetica,sans-Serif" font-size="10.00">FieldSpace</text>
</a>
</g>
</g>
<!-- Node9&#45;&gt;Node3 -->
<g id="edge8" class="edge">
<title>Node9&#45;&gt;Node3</title>
<path fill="none" stroke="#9a32cd" stroke-dasharray="5,2" d="M2686.8,-1348.04C2722.41,-1343.19 2773.95,-1336.16 2819,-1330 2824.84,-1329.2 2830.88,-1328.37 2836.95,-1327.54"/>
<polygon fill="#9a32cd" stroke="#9a32cd" points="2686.18,-1344.59 2676.74,-1349.41 2687.12,-1351.53 2686.18,-1344.59"/>
<text text-anchor="middle" x="2782" y="-1342" font-family="Helvetica,sans-Serif" font-size="10.00"> sPace</text>
</g>
<!-- Node10 -->
<g id="node10" class="node">
<title>Node10</title>
<g id="a_node10"><a xlink:title=" ">
<polygon fill="white" stroke="#bfbfbf" points="1122.5,-1306.5 1122.5,-1325.5 1160.5,-1325.5 1160.5,-1306.5 1122.5,-1306.5"/>
<text text-anchor="middle" x="1141.5" y="-1313.5" font-family="Helvetica,sans-Serif" font-size="10.00">char</text>
</a>
</g>
</g>
<!-- Node10&#45;&gt;Node3 -->
<g id="edge9" class="edge">
<title>Node10&#45;&gt;Node3</title>
<path fill="none" stroke="#9a32cd" stroke-dasharray="5,2" d="M1170.82,-1316C1230.98,-1316 1375.95,-1316 1497.5,-1316 1497.5,-1316 1497.5,-1316 2643,-1316 2708.04,-1316 2781.63,-1316 2836.75,-1316"/>
<polygon fill="#9a32cd" stroke="#9a32cd" points="1170.6,-1312.5 1160.6,-1316 1170.6,-1319.5 1170.6,-1312.5"/>
<text text-anchor="middle" x="2063" y="-1319" font-family="Helvetica,sans-Serif" font-size="10.00"> opType</text>
</g>
<!-- Node38 -->
<g id="node38" class="node">
<title>Node38</title>
<g id="a_node38"><a xlink:href="structMoFEM_1_1Problem.html" target="_top" xlink:title="keeps basic data about problem">
<polygon fill="white" stroke="black" points="1449,-1030.5 1449,-1049.5 1548,-1049.5 1548,-1030.5 1449,-1030.5"/>
<text text-anchor="middle" x="1498.5" y="-1037.5" font-family="Helvetica,sans-Serif" font-size="10.00">MoFEM::Problem</text>
</a>
</g>
</g>
<!-- Node10&#45;&gt;Node38 -->
<g id="edge53" class="edge">
<title>Node10&#45;&gt;Node38</title>
<path fill="none" stroke="#9a32cd" stroke-dasharray="5,2" d="M1170.84,-1310.94C1191.04,-1307.2 1218.79,-1301.76 1243,-1296 1251.08,-1294.08 1252.9,-1292.81 1261,-1291 1290.92,-1284.33 1376.23,-1290.54 1397,-1268 1428.59,-1233.72 1384.43,-1094.19 1415,-1059 1423.58,-1049.12 1436.16,-1043.82 1448.93,-1041.1"/>
<polygon fill="#9a32cd" stroke="#9a32cd" points="1169.95,-1307.55 1160.74,-1312.79 1171.21,-1314.43 1169.95,-1307.55"/>
<text text-anchor="middle" x="1329" y="-1294" font-family="Helvetica,sans-Serif" font-size="10.00"> tagName</text>
</g>
<!-- Node11 -->
<g id="node11" class="node">
<title>Node11</title>
<g id="a_node11"><a xlink:href="structMoFEM_1_1ForcesAndSourcesCore.html" target="_top" xlink:title="structure to get information form mofem into EntitiesFieldData">
<polygon fill="white" stroke="black" points="2557,-628.5 2557,-647.5 2727,-647.5 2727,-628.5 2557,-628.5"/>
<text text-anchor="middle" x="2642" y="-635.5" font-family="Helvetica,sans-Serif" font-size="10.00">MoFEM::ForcesAndSourcesCore</text>
</a>
</g>
</g>
<!-- Node11&#45;&gt;Node3 -->
<g id="edge10" class="edge">
<title>Node11&#45;&gt;Node3</title>
<path fill="none" stroke="#9a32cd" stroke-dasharray="5,2" d="M2650.76,-656.94C2691.31,-755.81 2878.23,-1211.7 2914.79,-1300.85"/>
<polygon fill="#9a32cd" stroke="#9a32cd" points="2653.96,-655.51 2646.93,-647.58 2647.49,-658.16 2653.96,-655.51"/>
<text text-anchor="middle" x="2782" y="-1061" font-family="Helvetica,sans-Serif" font-size="10.00"> ptrFE</text>
</g>
<!-- Node11&#45;&gt;Node11 -->
<g id="edge68" class="edge">
<title>Node11&#45;&gt;Node11</title>
<path fill="none" stroke="#9a32cd" stroke-dasharray="5,2" d="M2615.96,-657.03C2617.38,-662.13 2626.06,-666 2642,-666 2666.88,-666 2674.08,-656.57 2663.58,-647.76"/>
<polygon fill="#9a32cd" stroke="#9a32cd" points="2619.24,-658.29 2620.42,-647.76 2612.93,-655.25 2619.24,-658.29"/>
<text text-anchor="middle" x="2642" y="-680" font-family="Helvetica,sans-Serif" font-size="10.00"> sidePtrFE</text>
<text text-anchor="middle" x="2642" y="-669" font-family="Helvetica,sans-Serif" font-size="10.00">refinePtrFE</text>
</g>
<!-- Node12 -->
<g id="node12" class="node">
<title>Node12</title>
<g id="a_node12"><a xlink:href="structMoFEM_1_1FEMethod.html" target="_top" xlink:title="structure for User Loop Methods on finite elements">
<polygon fill="white" stroke="black" points="2202.5,-753.5 2202.5,-772.5 2309.5,-772.5 2309.5,-753.5 2202.5,-753.5"/>
<text text-anchor="middle" x="2256" y="-760.5" font-family="Helvetica,sans-Serif" font-size="10.00">MoFEM::FEMethod</text>
</a>
</g>
</g>
<!-- Node12&#45;&gt;Node11 -->
<g id="edge11" class="edge">
<title>Node12&#45;&gt;Node11</title>
<path fill="none" stroke="midnightblue" d="M2319.99,-763.05C2378.94,-760.96 2468.29,-752.19 2539,-721 2579.11,-703.31 2616.43,-665.47 2632.58,-647.65"/>
<polygon fill="midnightblue" stroke="midnightblue" points="2319.6,-759.56 2309.71,-763.36 2319.81,-766.56 2319.6,-759.56"/>
</g>
<!-- Node13 -->
<g id="node13" class="node">
<title>Node13</title>
<g id="a_node13"><a xlink:href="structMoFEM_1_1BasicMethod.html" target="_top" xlink:title="Data structure to exchange data between mofem and User Loop Methods.">
<polygon fill="white" stroke="black" points="1825,-633.5 1825,-652.5 1947,-652.5 1947,-633.5 1825,-633.5"/>
<text text-anchor="middle" x="1886" y="-640.5" font-family="Helvetica,sans-Serif" font-size="10.00">MoFEM::BasicMethod</text>
</a>
</g>
</g>
<!-- Node13&#45;&gt;Node12 -->
<g id="edge12" class="edge">
<title>Node13&#45;&gt;Node12</title>
<path fill="none" stroke="midnightblue" d="M1917.65,-656.71C1966.54,-678.09 2065.57,-719.47 2153,-744 2168.87,-748.45 2186.42,-752.15 2202.43,-755.06"/>
<polygon fill="midnightblue" stroke="midnightblue" points="1918.85,-653.41 1908.28,-652.58 1916.03,-659.81 1918.85,-653.41"/>
</g>
<!-- Node14 -->
<g id="node14" class="node">
<title>Node14</title>
<g id="a_node14"><a xlink:href="structMoFEM_1_1KspMethod.html" target="_top" xlink:title="data structure for ksp (linear solver) context">
<polygon fill="white" stroke="black" points="1442,-633.5 1442,-652.5 1555,-652.5 1555,-633.5 1442,-633.5"/>
<text text-anchor="middle" x="1498.5" y="-640.5" font-family="Helvetica,sans-Serif" font-size="10.00">MoFEM::KspMethod</text>
</a>
</g>
</g>
<!-- Node14&#45;&gt;Node13 -->
<g id="edge13" class="edge">
<title>Node14&#45;&gt;Node13</title>
<path fill="none" stroke="midnightblue" d="M1565.57,-643C1638.41,-643 1754.58,-643 1824.93,-643"/>
<polygon fill="midnightblue" stroke="midnightblue" points="1565.14,-639.5 1555.14,-643 1565.14,-646.5 1565.14,-639.5"/>
</g>
<!-- Node15 -->
<g id="node15" class="node">
<title>Node15</title>
<g id="a_node15"><a xlink:href="structMoFEM_1_1PetscData.html" target="_top" xlink:title=" ">
<polygon fill="white" stroke="black" points="1087.5,-452.5 1087.5,-471.5 1195.5,-471.5 1195.5,-452.5 1087.5,-452.5"/>
<text text-anchor="middle" x="1141.5" y="-459.5" font-family="Helvetica,sans-Serif" font-size="10.00">MoFEM::PetscData</text>
</a>
</g>
</g>
<!-- Node15&#45;&gt;Node14 -->
<g id="edge14" class="edge">
<title>Node15&#45;&gt;Node14</title>
<path fill="none" stroke="midnightblue" d="M1205.87,-468.12C1276.55,-475.51 1382.86,-488.49 1397,-501 1419.13,-520.58 1399.71,-539.71 1415,-565 1432.85,-594.52 1464.85,-620.13 1483.31,-633.38"/>
<polygon fill="midnightblue" stroke="midnightblue" points="1206.03,-464.62 1195.72,-467.07 1205.31,-471.58 1206.03,-464.62"/>
</g>
<!-- Node25 -->
<g id="node25" class="node">
<title>Node25</title>
<g id="a_node25"><a xlink:href="structMoFEM_1_1SnesMethod.html" target="_top" xlink:title="data structure for snes (nonlinear solver) context">
<polygon fill="white" stroke="black" points="1439,-536.5 1439,-555.5 1558,-555.5 1558,-536.5 1439,-536.5"/>
<text text-anchor="middle" x="1498.5" y="-543.5" font-family="Helvetica,sans-Serif" font-size="10.00">MoFEM::SnesMethod</text>
</a>
</g>
</g>
<!-- Node15&#45;&gt;Node25 -->
<g id="edge27" class="edge">
<title>Node15&#45;&gt;Node25</title>
<path fill="none" stroke="darkgreen" d="M1205.98,-457.7C1271.43,-454.61 1367.93,-454.21 1397,-476 1416.23,-490.42 1397.07,-510.99 1415,-527 1421.8,-533.07 1430.14,-537.31 1438.88,-540.26"/>
<polygon fill="darkgreen" stroke="darkgreen" points="1205.56,-454.22 1195.75,-458.22 1205.92,-461.21 1205.56,-454.22"/>
</g>
<!-- Node28 -->
<g id="node28" class="node">
<title>Node28</title>
<g id="a_node28"><a xlink:href="structMoFEM_1_1TSMethod.html" target="_top" xlink:title="data structure for TS (time stepping) context">
<polygon fill="white" stroke="black" points="1445,-243.5 1445,-262.5 1552,-262.5 1552,-243.5 1445,-243.5"/>
<text text-anchor="middle" x="1498.5" y="-250.5" font-family="Helvetica,sans-Serif" font-size="10.00">MoFEM::TSMethod</text>
</a>
</g>
</g>
<!-- Node15&#45;&gt;Node28 -->
<g id="edge33" class="edge">
<title>Node15&#45;&gt;Node28</title>
<path fill="none" stroke="darkgreen" d="M1205.65,-455.17C1275.82,-447.14 1381.38,-433.56 1397,-423 1427.68,-402.26 1478.13,-295.49 1493.15,-262.64"/>
<polygon fill="darkgreen" stroke="darkgreen" points="1205.11,-451.71 1195.57,-456.32 1205.9,-458.67 1205.11,-451.71"/>
</g>
<!-- Node16 -->
<g id="node16" class="node">
<title>Node16</title>
<g id="a_node16"><a xlink:href="structMoFEM_1_1UnknownInterface.html" target="_top" xlink:title="base class for all interface classes">
<polygon fill="white" stroke="black" points="735,-367.5 735,-386.5 883,-386.5 883,-367.5 735,-367.5"/>
<text text-anchor="middle" x="809" y="-374.5" font-family="Helvetica,sans-Serif" font-size="10.00">MoFEM::UnknownInterface</text>
</a>
</g>
</g>
<!-- Node16&#45;&gt;Node15 -->
<g id="edge15" class="edge">
<title>Node16&#45;&gt;Node15</title>
<path fill="none" stroke="midnightblue" d="M849.69,-389.6C895.3,-403.8 972.55,-426.98 1040,-443 1055.29,-446.63 1072.02,-450.02 1087.36,-452.91"/>
<polygon fill="midnightblue" stroke="midnightblue" points="850.49,-386.19 839.9,-386.54 848.4,-392.87 850.49,-386.19"/>
</g>
<!-- Node56 -->
<g id="node56" class="node">
<title>Node56</title>
<g id="a_node56"><a xlink:href="structMoFEM_1_1CoreInterface.html" target="_top" xlink:title="Interface.">
<polygon fill="white" stroke="black" points="1079,-28.5 1079,-47.5 1204,-47.5 1204,-28.5 1079,-28.5"/>
<text text-anchor="middle" x="1141.5" y="-35.5" font-family="Helvetica,sans-Serif" font-size="10.00">MoFEM::CoreInterface</text>
</a>
</g>
</g>
<!-- Node16&#45;&gt;Node56 -->
<g id="edge67" class="edge">
<title>Node16&#45;&gt;Node56</title>
<path fill="none" stroke="midnightblue" d="M823.32,-359.27C838.02,-339.68 862.31,-307.18 883,-279 953.45,-183.04 941.05,-128.17 1040,-62 1051.56,-54.27 1065.33,-49.02 1078.91,-45.46"/>
<polygon fill="midnightblue" stroke="midnightblue" points="820.5,-357.2 817.3,-367.3 826.1,-361.4 820.5,-357.2"/>
</g>
<!-- Node17 -->
<g id="node17" class="node">
<title>Node17</title>
<g id="a_node17"><a xlink:title=" ">
<polygon fill="white" stroke="#bfbfbf" points="386,-607.5 386,-670.5 627,-670.5 627,-607.5 386,-607.5"/>
<text text-anchor="start" x="394" y="-658.5" font-family="Helvetica,sans-Serif" font-size="10.00">multi_index_container</text>
<text text-anchor="start" x="394" y="-647.5" font-family="Helvetica,sans-Serif" font-size="10.00">&lt; UIdTypeMap, indexed</text>
<text text-anchor="start" x="394" y="-636.5" font-family="Helvetica,sans-Serif" font-size="10.00">_by&lt; hashed_unique&lt; member</text>
<text text-anchor="start" x="394" y="-625.5" font-family="Helvetica,sans-Serif" font-size="10.00">&lt; UIdTypeMap, boost::typeindex</text>
<text text-anchor="middle" x="506.5" y="-614.5" font-family="Helvetica,sans-Serif" font-size="10.00">::type_index, &amp;UIdTypeMap::classIdx &gt; &gt; &gt; &gt;</text>
</a>
</g>
</g>
<!-- Node17&#45;&gt;Node16 -->
<g id="edge16" class="edge">
<title>Node17&#45;&gt;Node16</title>
<path fill="none" stroke="#9a32cd" stroke-dasharray="5,2" d="M541.23,-599.67C583.3,-552.19 658.97,-471.79 735,-416 751.1,-404.18 771.24,-393.7 786.28,-386.59"/>
<polygon fill="#9a32cd" stroke="#9a32cd" points="538.51,-597.46 534.53,-607.28 543.76,-602.09 538.51,-597.46"/>
<text text-anchor="middle" x="681" y="-493" font-family="Helvetica,sans-Serif" font-size="10.00"> iFaceTypeMap</text>
</g>
<!-- Node18 -->
<g id="node18" class="node">
<title>Node18</title>
<g id="a_node18"><a xlink:title=" ">
<polygon fill="white" stroke="#bfbfbf" points="0,-698.5 0,-717.5 125,-717.5 125,-698.5 0,-698.5"/>
<text text-anchor="middle" x="62.5" y="-705.5" font-family="Helvetica,sans-Serif" font-size="10.00">multi_index_container</text>
</a>
</g>
</g>
<!-- Node18&#45;&gt;Node13 -->
<g id="edge40" class="edge">
<title>Node18&#45;&gt;Node13</title>
<path fill="none" stroke="#9a32cd" stroke-dasharray="5,2" d="M90.13,-722.3C105.22,-729.74 124.68,-738.24 143,-743 299.62,-783.68 343.68,-777 505.5,-777 505.5,-777 505.5,-777 962.5,-777 1309.24,-777 1721.74,-683.14 1847.06,-652.53"/>
<polygon fill="#9a32cd" stroke="#9a32cd" points="91.41,-719.03 80.91,-717.62 88.24,-725.27 91.41,-719.03"/>
<text text-anchor="middle" x="961.5" y="-857" font-family="Helvetica,sans-Serif" font-size="10.00"> adjacenciesPtr</text>
<text text-anchor="middle" x="961.5" y="-846" font-family="Helvetica,sans-Serif" font-size="10.00">refinedEntitiesPtr</text>
<text text-anchor="middle" x="961.5" y="-835" font-family="Helvetica,sans-Serif" font-size="10.00">finiteElementsEntitiesPtr</text>
<text text-anchor="middle" x="961.5" y="-824" font-family="Helvetica,sans-Serif" font-size="10.00">dofsPtr</text>
<text text-anchor="middle" x="961.5" y="-813" font-family="Helvetica,sans-Serif" font-size="10.00">entitiesPtr</text>
<text text-anchor="middle" x="961.5" y="-802" font-family="Helvetica,sans-Serif" font-size="10.00">finiteElementsPtr</text>
<text text-anchor="middle" x="961.5" y="-791" font-family="Helvetica,sans-Serif" font-size="10.00">refinedFiniteElementsPtr</text>
<text text-anchor="middle" x="961.5" y="-780" font-family="Helvetica,sans-Serif" font-size="10.00">fieldsPtr</text>
</g>
<!-- Node18&#45;&gt;Node17 -->
<g id="edge17" class="edge">
<title>Node18&#45;&gt;Node17</title>
<path fill="none" stroke="orange" stroke-dasharray="5,2" d="M134.62,-696.9C202.28,-686.34 305.36,-670.24 385.69,-657.7"/>
<polygon fill="orange" stroke="orange" points="133.83,-693.48 124.49,-698.48 134.91,-700.39 133.83,-693.48"/>
<text text-anchor="start" x="143" y="-731" font-family="Helvetica,sans-Serif" font-size="10.00"> &lt; UIdTypeMap, indexed</text>
<text text-anchor="start" x="143" y="-720" font-family="Helvetica,sans-Serif" font-size="10.00">_by&lt; hashed_unique&lt; member</text>
<text text-anchor="start" x="143" y="-709" font-family="Helvetica,sans-Serif" font-size="10.00">&lt; UIdTypeMap, boost::typeindex</text>
<text text-anchor="middle" x="255.5" y="-698" font-family="Helvetica,sans-Serif" font-size="10.00">::type_index, &amp;UIdTypeMap::classIdx &gt; &gt; &gt; &gt;</text>
</g>
<!-- Node19 -->
<g id="node19" class="node">
<title>Node19</title>
<g id="a_node19"><a xlink:title=" ">
<polygon fill="white" stroke="#bfbfbf" points="738.5,-484.5 738.5,-503.5 879.5,-503.5 879.5,-484.5 738.5,-484.5"/>
<text text-anchor="middle" x="809" y="-491.5" font-family="Helvetica,sans-Serif" font-size="10.00">static constexpr Switches</text>
</a>
</g>
</g>
<!-- Node19&#45;&gt;Node15 -->
<g id="edge18" class="edge">
<title>Node19&#45;&gt;Node15</title>
<path fill="none" stroke="#9a32cd" stroke-dasharray="5,2" d="M889.72,-486.28C951.05,-480.34 1034.07,-472.3 1087.47,-467.13"/>
<polygon fill="#9a32cd" stroke="#9a32cd" points="889.3,-482.81 879.69,-487.25 889.98,-489.77 889.3,-482.81"/>
<text text-anchor="middle" x="961.5" y="-565" font-family="Helvetica,sans-Serif" font-size="10.00"> CtxSetX_TT</text>
<text text-anchor="middle" x="961.5" y="-554" font-family="Helvetica,sans-Serif" font-size="10.00">CtxSetX_T</text>
<text text-anchor="middle" x="961.5" y="-543" font-family="Helvetica,sans-Serif" font-size="10.00">CtxSetA</text>
<text text-anchor="middle" x="961.5" y="-532" font-family="Helvetica,sans-Serif" font-size="10.00">CtxSetB</text>
<text text-anchor="middle" x="961.5" y="-521" font-family="Helvetica,sans-Serif" font-size="10.00">CtxSetTime</text>
<text text-anchor="middle" x="961.5" y="-510" font-family="Helvetica,sans-Serif" font-size="10.00">CtxSetNone</text>
<text text-anchor="middle" x="961.5" y="-499" font-family="Helvetica,sans-Serif" font-size="10.00">CtxSetF</text>
<text text-anchor="middle" x="961.5" y="-488" font-family="Helvetica,sans-Serif" font-size="10.00">CtxSetX</text>
</g>
<!-- Node20 -->
<g id="node20" class="node">
<title>Node20</title>
<g id="a_node20"><a xlink:title=" ">
<polygon fill="white" stroke="#bfbfbf" points="791.5,-614.5 791.5,-633.5 826.5,-633.5 826.5,-614.5 791.5,-614.5"/>
<text text-anchor="middle" x="809" y="-621.5" font-family="Helvetica,sans-Serif" font-size="10.00">Mat</text>
</a>
</g>
</g>
<!-- Node20&#45;&gt;Node14 -->
<g id="edge24" class="edge">
<title>Node20&#45;&gt;Node14</title>
<path fill="none" stroke="#9a32cd" stroke-dasharray="5,2" d="M835.73,-635.64C877.52,-653.84 963.24,-688.14 1040,-700 1196.91,-724.24 1243.1,-726.04 1397,-687 1427.65,-679.23 1460.81,-663.03 1480.33,-652.61"/>
<polygon fill="#9a32cd" stroke="#9a32cd" points="837.11,-632.43 826.55,-631.6 834.29,-638.84 837.11,-632.43"/>
<text text-anchor="middle" x="1141.5" y="-732" font-family="Helvetica,sans-Serif" font-size="10.00"> ksp_A</text>
<text text-anchor="middle" x="1141.5" y="-721" font-family="Helvetica,sans-Serif" font-size="10.00">ksp_B</text>
</g>
<!-- Node20&#45;&gt;Node15 -->
<g id="edge19" class="edge">
<title>Node20&#45;&gt;Node15</title>
<path fill="none" stroke="#9a32cd" stroke-dasharray="5,2" d="M836.62,-618.49C892.83,-606.82 1018.74,-580.36 1022,-577 1052.19,-545.8 1009.33,-511.72 1040,-481 1052.42,-468.56 1070.27,-462.9 1087.48,-460.64"/>
<polygon fill="#9a32cd" stroke="#9a32cd" points="835.76,-615.1 826.68,-620.56 837.18,-621.95 835.76,-615.1"/>
<text text-anchor="middle" x="961.5" y="-619" font-family="Helvetica,sans-Serif" font-size="10.00"> A</text>
<text text-anchor="middle" x="961.5" y="-608" font-family="Helvetica,sans-Serif" font-size="10.00">B</text>
</g>
<!-- Node20&#45;&gt;Node25 -->
<g id="edge29" class="edge">
<title>Node20&#45;&gt;Node25</title>
<path fill="none" stroke="#9a32cd" stroke-dasharray="5,2" d="M836.33,-633.97C879.9,-648.6 967.58,-669.89 1022,-628 1046.77,-608.93 1015.52,-579.45 1040,-560 1070.49,-535.78 1322.47,-540.44 1438.91,-543.96"/>
<polygon fill="#9a32cd" stroke="#9a32cd" points="837.34,-630.62 826.74,-630.62 835.03,-637.22 837.34,-630.62"/>
<text text-anchor="middle" x="1141.5" y="-574" font-family="Helvetica,sans-Serif" font-size="10.00"> snes_A</text>
<text text-anchor="middle" x="1141.5" y="-563" font-family="Helvetica,sans-Serif" font-size="10.00">snes_B</text>
</g>
<!-- Node20&#45;&gt;Node28 -->
<g id="edge34" class="edge">
<title>Node20&#45;&gt;Node28</title>
<path fill="none" stroke="#9a32cd" stroke-dasharray="5,2" d="M824.47,-606.27C840.94,-585.23 867.55,-548.53 883,-513 896.5,-481.96 878.85,-464.6 901,-439 911.89,-426.41 1023.94,-387.4 1040,-383 1128.03,-358.9 1154.83,-375.57 1243,-352 1333.23,-327.88 1435.3,-282.25 1477.55,-262.51"/>
<polygon fill="#9a32cd" stroke="#9a32cd" points="821.59,-604.27 818.1,-614.27 827.06,-608.63 821.59,-604.27"/>
<text text-anchor="middle" x="1141.5" y="-397" font-family="Helvetica,sans-Serif" font-size="10.00"> ts_A</text>
<text text-anchor="middle" x="1141.5" y="-386" font-family="Helvetica,sans-Serif" font-size="10.00">ts_B</text>
</g>
<!-- Node21 -->
<g id="node21" class="node">
<title>Node21</title>
<g id="a_node21"><a xlink:title=" ">
<polygon fill="white" stroke="#bfbfbf" points="772.5,-425.5 772.5,-444.5 845.5,-444.5 845.5,-425.5 772.5,-425.5"/>
<text text-anchor="middle" x="809" y="-432.5" font-family="Helvetica,sans-Serif" font-size="10.00">bitset&lt; 8 &gt;</text>
</a>
</g>
</g>
<!-- Node21&#45;&gt;Node15 -->
<g id="edge20" class="edge">
<title>Node21&#45;&gt;Node15</title>
<path fill="none" stroke="#9a32cd" stroke-dasharray="5,2" d="M855.72,-438.74C916.35,-443.69 1023.14,-452.41 1087.3,-457.65"/>
<polygon fill="#9a32cd" stroke="#9a32cd" points="855.94,-435.24 845.68,-437.92 855.37,-442.22 855.94,-435.24"/>
<text text-anchor="middle" x="961.5" y="-455" font-family="Helvetica,sans-Serif" font-size="10.00"> data_ctx</text>
</g>
<!-- Node22 -->
<g id="node22" class="node">
<title>Node22</title>
<g id="a_node22"><a xlink:title=" ">
<polygon fill="white" stroke="#bfbfbf" points="792,-250.5 792,-269.5 826,-269.5 826,-250.5 792,-250.5"/>
<text text-anchor="middle" x="809" y="-257.5" font-family="Helvetica,sans-Serif" font-size="10.00">Vec</text>
</a>
</g>
</g>
<!-- Node22&#45;&gt;Node1 -->
<g id="edge83" class="edge">
<title>Node22&#45;&gt;Node1</title>
<path fill="none" stroke="#9a32cd" stroke-dasharray="5,2" d="M816.79,-240.62C829.13,-207.66 858.01,-140.08 901,-97 982.12,-15.7 1025.66,0 1140.5,0 1140.5,0 1140.5,0 3140.5,0 3246.23,0 3333.6,-118.43 3361.59,-160.99"/>
<polygon fill="#9a32cd" stroke="#9a32cd" points="813.36,-239.79 813.24,-250.38 819.94,-242.18 813.36,-239.79"/>
<text text-anchor="middle" x="2256" y="-3" font-family="Helvetica,sans-Serif" font-size="10.00"> massVec_approx</text>
</g>
<!-- Node22&#45;&gt;Node14 -->
<g id="edge25" class="edge">
<title>Node22&#45;&gt;Node14</title>
<path fill="none" stroke="#9a32cd" stroke-dasharray="5,2" d="M826.35,-276.94C843.2,-295.37 868.91,-326.44 883,-358 899.45,-394.85 872.86,-418.07 901,-447 939.48,-486.57 984.17,-434.8 1022,-475 1055.05,-510.12 1005.32,-548.49 1040,-582 1047.19,-588.95 1321.7,-622.19 1441.98,-636.47"/>
<polygon fill="#9a32cd" stroke="#9a32cd" points="828.91,-274.55 819.53,-269.63 823.79,-279.32 828.91,-274.55"/>
<text text-anchor="middle" x="1141.5" y="-616" font-family="Helvetica,sans-Serif" font-size="10.00"> ksp_f</text>
</g>
<!-- Node22&#45;&gt;Node15 -->
<g id="edge21" class="edge">
<title>Node22&#45;&gt;Node15</title>
<path fill="none" stroke="#9a32cd" stroke-dasharray="5,2" d="M835.91,-264.27C881.12,-273.14 974.13,-297.98 1022,-358 1046.08,-388.19 1012.4,-415.99 1040,-443 1052.5,-455.23 1070.26,-460.86 1087.38,-463.16"/>
<polygon fill="#9a32cd" stroke="#9a32cd" points="836.48,-260.81 826.01,-262.43 835.2,-267.7 836.48,-260.81"/>
<text text-anchor="middle" x="961.5" y="-394" font-family="Helvetica,sans-Serif" font-size="10.00"> f</text>
<text text-anchor="middle" x="961.5" y="-383" font-family="Helvetica,sans-Serif" font-size="10.00">x</text>
<text text-anchor="middle" x="961.5" y="-372" font-family="Helvetica,sans-Serif" font-size="10.00">x_t</text>
<text text-anchor="middle" x="961.5" y="-361" font-family="Helvetica,sans-Serif" font-size="10.00">x_tt</text>
</g>
<!-- Node22&#45;&gt;Node25 -->
<g id="edge30" class="edge">
<title>Node22&#45;&gt;Node25</title>
<path fill="none" stroke="#9a32cd" stroke-dasharray="5,2" d="M836.29,-258.9C877.03,-257.96 957.45,-259.16 1022,-279 1030.75,-281.69 1031.41,-285.83 1040,-289 1126.36,-320.84 1155.43,-301.66 1243,-330 1314.53,-353.15 1351.95,-339.81 1397,-400 1431.16,-445.64 1376.45,-485 1415,-527 1421.36,-533.93 1429.7,-538.58 1438.62,-541.66"/>
<polygon fill="#9a32cd" stroke="#9a32cd" points="836.02,-255.41 826.12,-259.2 836.22,-262.41 836.02,-255.41"/>
<text text-anchor="middle" x="1141.5" y="-344" font-family="Helvetica,sans-Serif" font-size="10.00"> snes_x</text>
<text text-anchor="middle" x="1141.5" y="-333" font-family="Helvetica,sans-Serif" font-size="10.00">snes_f</text>
</g>
<!-- Node22&#45;&gt;Node28 -->
<g id="edge38" class="edge">
<title>Node22&#45;&gt;Node28</title>
<path fill="none" stroke="#9a32cd" stroke-dasharray="5,2" d="M825.75,-242.83C860.28,-206.59 947.06,-123.18 1040,-93 1115.93,-68.34 1329.53,-90.33 1397,-133 1443.62,-162.48 1479.5,-220.66 1492.36,-243.49"/>
<polygon fill="#9a32cd" stroke="#9a32cd" points="823.12,-240.51 818.83,-250.2 828.22,-245.3 823.12,-240.51"/>
<text text-anchor="middle" x="1141.5" y="-129" font-family="Helvetica,sans-Serif" font-size="10.00"> ts_u</text>
<text text-anchor="middle" x="1141.5" y="-118" font-family="Helvetica,sans-Serif" font-size="10.00">ts_F</text>
<text text-anchor="middle" x="1141.5" y="-107" font-family="Helvetica,sans-Serif" font-size="10.00">ts_u_t</text>
<text text-anchor="middle" x="1141.5" y="-96" font-family="Helvetica,sans-Serif" font-size="10.00">ts_u_tt</text>
</g>
<!-- Node23 -->
<g id="node23" class="node">
<title>Node23</title>
<g id="a_node23"><a xlink:title=" ">
<polygon fill="white" stroke="#bfbfbf" points="1124,-671.5 1124,-690.5 1159,-690.5 1159,-671.5 1124,-671.5"/>
<text text-anchor="middle" x="1141.5" y="-678.5" font-family="Helvetica,sans-Serif" font-size="10.00">KSP</text>
</a>
</g>
</g>
<!-- Node23&#45;&gt;Node14 -->
<g id="edge22" class="edge">
<title>Node23&#45;&gt;Node14</title>
<path fill="none" stroke="#9a32cd" stroke-dasharray="5,2" d="M1169.35,-679.09C1215.82,-675.67 1314.22,-667.91 1397,-658 1411.54,-656.26 1427.21,-654.07 1441.76,-651.91"/>
<polygon fill="#9a32cd" stroke="#9a32cd" points="1168.93,-675.61 1159.21,-679.83 1169.44,-682.59 1168.93,-675.61"/>
<text text-anchor="middle" x="1329" y="-675" font-family="Helvetica,sans-Serif" font-size="10.00"> ksp</text>
</g>
<!-- Node24 -->
<g id="node24" class="node">
<title>Node24</title>
<g id="a_node24"><a xlink:title=" ">
<polygon fill="white" stroke="#bfbfbf" points="1104.5,-633.5 1104.5,-652.5 1178.5,-652.5 1178.5,-633.5 1104.5,-633.5"/>
<text text-anchor="middle" x="1141.5" y="-640.5" font-family="Helvetica,sans-Serif" font-size="10.00">KSPContext</text>
</a>
</g>
</g>
<!-- Node24&#45;&gt;Node14 -->
<g id="edge23" class="edge">
<title>Node24&#45;&gt;Node14</title>
<path fill="none" stroke="#9a32cd" stroke-dasharray="5,2" d="M1189.19,-643C1254.3,-643 1372.2,-643 1441.81,-643"/>
<polygon fill="#9a32cd" stroke="#9a32cd" points="1188.82,-639.5 1178.82,-643 1188.82,-646.5 1188.82,-639.5"/>
<text text-anchor="middle" x="1329" y="-646" font-family="Helvetica,sans-Serif" font-size="10.00"> ksp_ctx</text>
</g>
<!-- Node25&#45;&gt;Node13 -->
<g id="edge26" class="edge">
<title>Node25&#45;&gt;Node13</title>
<path fill="none" stroke="midnightblue" d="M1547.5,-558.08C1625.06,-577.59 1776.36,-615.66 1846.98,-633.43"/>
<polygon fill="midnightblue" stroke="midnightblue" points="1548.07,-554.61 1537.52,-555.57 1546.36,-561.4 1548.07,-554.61"/>
</g>
<!-- Node26 -->
<g id="node26" class="node">
<title>Node26</title>
<g id="a_node26"><a xlink:title=" ">
<polygon fill="white" stroke="#bfbfbf" points="1120.5,-414.5 1120.5,-433.5 1162.5,-433.5 1162.5,-414.5 1120.5,-414.5"/>
<text text-anchor="middle" x="1141.5" y="-421.5" font-family="Helvetica,sans-Serif" font-size="10.00">SNES</text>
</a>
</g>
</g>
<!-- Node26&#45;&gt;Node25 -->
<g id="edge28" class="edge">
<title>Node26&#45;&gt;Node25</title>
<path fill="none" stroke="#9a32cd" stroke-dasharray="5,2" d="M1172.71,-415.75C1225.26,-403.41 1333.87,-387.03 1397,-442 1426.12,-467.36 1387.94,-499.45 1415,-527 1421.49,-533.61 1429.78,-538.11 1438.6,-541.15"/>
<polygon fill="#9a32cd" stroke="#9a32cd" points="1171.56,-412.43 1162.69,-418.22 1173.23,-419.23 1171.56,-412.43"/>
<text text-anchor="middle" x="1329" y="-445" font-family="Helvetica,sans-Serif" font-size="10.00"> snes</text>
</g>
<!-- Node27 -->
<g id="node27" class="node">
<title>Node27</title>
<g id="a_node27"><a xlink:title=" ">
<polygon fill="white" stroke="#bfbfbf" points="1101.5,-490.5 1101.5,-509.5 1181.5,-509.5 1181.5,-490.5 1101.5,-490.5"/>
<text text-anchor="middle" x="1141.5" y="-497.5" font-family="Helvetica,sans-Serif" font-size="10.00">SNESContext</text>
</a>
</g>
</g>
<!-- Node27&#45;&gt;Node25 -->
<g id="edge31" class="edge">
<title>Node27&#45;&gt;Node25</title>
<path fill="none" stroke="#9a32cd" stroke-dasharray="5,2" d="M1191.93,-500.59C1243.57,-502.02 1326.7,-506.6 1397,-521 1405.26,-522.69 1406.88,-524.72 1415,-527 1427.03,-530.38 1440.16,-533.61 1452.34,-536.42"/>
<polygon fill="#9a32cd" stroke="#9a32cd" points="1191.8,-497.09 1181.72,-500.34 1191.63,-504.08 1191.8,-497.09"/>
<text text-anchor="middle" x="1329" y="-524" font-family="Helvetica,sans-Serif" font-size="10.00"> snes_ctx</text>
</g>
<!-- Node28&#45;&gt;Node13 -->
<g id="edge32" class="edge">
<title>Node28&#45;&gt;Node13</title>
<path fill="none" stroke="midnightblue" d="M1559.34,-264.96C1625.52,-281.6 1729.57,-318.63 1781,-394 1830.55,-466.62 1752.37,-516.46 1799,-591 1811.96,-611.71 1836.46,-625.32 1856.01,-633.4"/>
<polygon fill="midnightblue" stroke="midnightblue" points="1560,-261.52 1549.46,-262.55 1558.35,-268.32 1560,-261.52"/>
</g>
<!-- Node29 -->
<g id="node29" class="node">
<title>Node29</title>
<g id="a_node29"><a xlink:title=" ">
<polygon fill="white" stroke="#bfbfbf" points="1109,-146.5 1109,-165.5 1174,-165.5 1174,-146.5 1109,-146.5"/>
<text text-anchor="middle" x="1141.5" y="-153.5" font-family="Helvetica,sans-Serif" font-size="10.00">PetscReal</text>
</a>
</g>
</g>
<!-- Node29&#45;&gt;Node28 -->
<g id="edge35" class="edge">
<title>Node29&#45;&gt;Node28</title>
<path fill="none" stroke="#9a32cd" stroke-dasharray="5,2" d="M1183.96,-146.5C1235.89,-136.66 1326.59,-126.35 1397,-155 1441.92,-173.28 1477.73,-222.36 1491.45,-243.31"/>
<polygon fill="#9a32cd" stroke="#9a32cd" points="1183.23,-143.08 1174.1,-148.45 1184.59,-149.94 1183.23,-143.08"/>
<text text-anchor="middle" x="1329" y="-191" font-family="Helvetica,sans-Serif" font-size="10.00"> ts_a</text>
<text text-anchor="middle" x="1329" y="-180" font-family="Helvetica,sans-Serif" font-size="10.00">ts_t</text>
<text text-anchor="middle" x="1329" y="-169" font-family="Helvetica,sans-Serif" font-size="10.00">ts_dt</text>
<text text-anchor="middle" x="1329" y="-158" font-family="Helvetica,sans-Serif" font-size="10.00">ts_aa</text>
</g>
<!-- Node30 -->
<g id="node30" class="node">
<title>Node30</title>
<g id="a_node30"><a xlink:title=" ">
<polygon fill="white" stroke="#bfbfbf" points="1108,-260.5 1108,-279.5 1175,-279.5 1175,-260.5 1108,-260.5"/>
<text text-anchor="middle" x="1141.5" y="-267.5" font-family="Helvetica,sans-Serif" font-size="10.00">TSContext</text>
</a>
</g>
</g>
<!-- Node30&#45;&gt;Node28 -->
<g id="edge36" class="edge">
<title>Node30&#45;&gt;Node28</title>
<path fill="none" stroke="#9a32cd" stroke-dasharray="5,2" d="M1185.59,-267.94C1250.81,-264.81 1374.44,-258.89 1444.88,-255.52"/>
<polygon fill="#9a32cd" stroke="#9a32cd" points="1185.08,-264.46 1175.26,-268.43 1185.42,-271.45 1185.08,-264.46"/>
<text text-anchor="middle" x="1329" y="-268" font-family="Helvetica,sans-Serif" font-size="10.00"> ts_ctx</text>
</g>
<!-- Node31 -->
<g id="node31" class="node">
<title>Node31</title>
<g id="a_node31"><a xlink:title=" ">
<polygon fill="white" stroke="#bfbfbf" points="1113.5,-222.5 1113.5,-241.5 1169.5,-241.5 1169.5,-222.5 1113.5,-222.5"/>
<text text-anchor="middle" x="1141.5" y="-229.5" font-family="Helvetica,sans-Serif" font-size="10.00">PetscInt</text>
</a>
</g>
</g>
<!-- Node31&#45;&gt;Node28 -->
<g id="edge37" class="edge">
<title>Node31&#45;&gt;Node28</title>
<path fill="none" stroke="#9a32cd" stroke-dasharray="5,2" d="M1179.89,-233.27C1229.53,-235.07 1319.91,-238.73 1397,-244 1412.55,-245.06 1429.44,-246.47 1444.85,-247.86"/>
<polygon fill="#9a32cd" stroke="#9a32cd" points="1179.76,-229.76 1169.64,-232.9 1179.51,-236.76 1179.76,-229.76"/>
<text text-anchor="middle" x="1329" y="-247" font-family="Helvetica,sans-Serif" font-size="10.00"> ts_step</text>
</g>
<!-- Node32 -->
<g id="node32" class="node">
<title>Node32</title>
<g id="a_node32"><a xlink:title=" ">
<polygon fill="white" stroke="#bfbfbf" points="1127,-184.5 1127,-203.5 1156,-203.5 1156,-184.5 1127,-184.5"/>
<text text-anchor="middle" x="1141.5" y="-191.5" font-family="Helvetica,sans-Serif" font-size="10.00">TS</text>
</a>
</g>
</g>
<!-- Node32&#45;&gt;Node28 -->
<g id="edge39" class="edge">
<title>Node32&#45;&gt;Node28</title>
<path fill="none" stroke="#9a32cd" stroke-dasharray="5,2" d="M1166.16,-195.1C1211.41,-197.54 1313.16,-204.62 1397,-222 1422.75,-227.34 1451.33,-236.48 1471.41,-243.46"/>
<polygon fill="#9a32cd" stroke="#9a32cd" points="1166.33,-191.61 1156.16,-194.59 1165.97,-198.6 1166.33,-191.61"/>
<text text-anchor="middle" x="1329" y="-225" font-family="Helvetica,sans-Serif" font-size="10.00"> ts</text>
</g>
<!-- Node33 -->
<g id="node33" class="node">
<title>Node33</title>
<g id="a_node33"><a xlink:title=" ">
<polygon fill="white" stroke="#bfbfbf" points="1454,-498.5 1454,-517.5 1543,-517.5 1543,-498.5 1454,-498.5"/>
<text text-anchor="middle" x="1498.5" y="-505.5" font-family="Helvetica,sans-Serif" font-size="10.00">pair&lt; int, int &gt;</text>
</a>
</g>
</g>
<!-- Node33&#45;&gt;Node13 -->
<g id="edge41" class="edge">
<title>Node33&#45;&gt;Node13</title>
<path fill="none" stroke="#9a32cd" stroke-dasharray="5,2" d="M1553.16,-504.38C1614.04,-503.04 1713.58,-509.5 1781,-558 1794.56,-567.76 1787.45,-578.93 1799,-591 1817.09,-609.91 1843.51,-624.52 1862.28,-633.36"/>
<polygon fill="#9a32cd" stroke="#9a32cd" points="1552.89,-500.89 1543,-504.69 1553.1,-507.89 1552.89,-500.89"/>
<text text-anchor="middle" x="1690.5" y="-561" font-family="Helvetica,sans-Serif" font-size="10.00"> loHiFERank</text>
</g>
<!-- Node34 -->
<g id="node34" class="node">
<title>Node34</title>
<g id="a_node34"><a xlink:title=" ">
<polygon fill="white" stroke="#bfbfbf" points="1428.5,-460.5 1428.5,-479.5 1568.5,-479.5 1568.5,-460.5 1428.5,-460.5"/>
<text text-anchor="middle" x="1498.5" y="-467.5" font-family="Helvetica,sans-Serif" font-size="10.00">weak_ptr&lt; CacheTuple &gt;</text>
</a>
</g>
</g>
<!-- Node34&#45;&gt;Node13 -->
<g id="edge42" class="edge">
<title>Node34&#45;&gt;Node13</title>
<path fill="none" stroke="#9a32cd" stroke-dasharray="5,2" d="M1578.61,-465.49C1651.37,-463.15 1752.19,-465.03 1781,-491 1814.54,-521.24 1773.41,-553.79 1799,-591 1813.04,-611.41 1837.97,-625.18 1857.38,-633.39"/>
<polygon fill="#9a32cd" stroke="#9a32cd" points="1578.41,-462 1568.54,-465.85 1578.66,-468.99 1578.41,-462"/>
<text text-anchor="middle" x="1690.5" y="-494" font-family="Helvetica,sans-Serif" font-size="10.00"> cacheWeakPtr</text>
</g>
<!-- Node35 -->
<g id="node35" class="node">
<title>Node35</title>
<g id="a_node35"><a xlink:title=" ">
<polygon fill="white" stroke="#bfbfbf" points="1442.5,-417.5 1442.5,-436.5 1554.5,-436.5 1554.5,-417.5 1442.5,-417.5"/>
<text text-anchor="middle" x="1498.5" y="-424.5" font-family="Helvetica,sans-Serif" font-size="10.00">unique_ptr&lt; bool &gt;</text>
</a>
</g>
</g>
<!-- Node35&#45;&gt;Node13 -->
<g id="edge43" class="edge">
<title>Node35&#45;&gt;Node13</title>
<path fill="none" stroke="#9a32cd" stroke-dasharray="5,2" d="M1538.72,-414.63C1599.23,-398.24 1715.23,-378 1781,-439 1805.94,-462.13 1780.58,-562.41 1799,-591 1812.33,-611.68 1837.06,-625.35 1856.6,-633.47"/>
<polygon fill="#9a32cd" stroke="#9a32cd" points="1537.47,-411.34 1528.79,-417.42 1539.37,-418.08 1537.47,-411.34"/>
<text text-anchor="middle" x="1690.5" y="-453" font-family="Helvetica,sans-Serif" font-size="10.00"> matAssembleSwitch</text>
<text text-anchor="middle" x="1690.5" y="-442" font-family="Helvetica,sans-Serif" font-size="10.00">vecAssembleSwitch</text>
</g>
<!-- Node36 -->
<g id="node36" class="node">
<title>Node36</title>
<g id="a_node36"><a xlink:title=" ">
<polygon fill="white" stroke="#bfbfbf" points="1127,-805.5 1127,-824.5 1156,-824.5 1156,-805.5 1127,-805.5"/>
<text text-anchor="middle" x="1141.5" y="-812.5" font-family="Helvetica,sans-Serif" font-size="10.00">int</text>
</a>
</g>
</g>
<!-- Node36&#45;&gt;Node13 -->
<g id="edge44" class="edge">
<title>Node36&#45;&gt;Node13</title>
<path fill="none" stroke="#9a32cd" stroke-dasharray="5,2" d="M1166.23,-810.48C1190.1,-806.06 1228,-799.37 1261,-795 1376.09,-779.77 1683.28,-807.67 1781,-745 1794.41,-736.4 1788.7,-726.15 1799,-714 1820.54,-688.6 1851.96,-665.28 1870.26,-652.71"/>
<polygon fill="#9a32cd" stroke="#9a32cd" points="1165.5,-807.06 1156.32,-812.34 1166.79,-813.94 1165.5,-807.06"/>
<text text-anchor="middle" x="1498.5" y="-826" font-family="Helvetica,sans-Serif" font-size="10.00"> sIze</text>
<text text-anchor="middle" x="1498.5" y="-815" font-family="Helvetica,sans-Serif" font-size="10.00">loopSize</text>
<text text-anchor="middle" x="1498.5" y="-804" font-family="Helvetica,sans-Serif" font-size="10.00">nInTheLoop</text>
<text text-anchor="middle" x="1498.5" y="-793" font-family="Helvetica,sans-Serif" font-size="10.00">rAnk</text>
</g>
<!-- Node36&#45;&gt;Node38 -->
<g id="edge56" class="edge">
<title>Node36&#45;&gt;Node38</title>
<path fill="none" stroke="#9a32cd" stroke-dasharray="5,2" d="M1166.29,-811.34C1222.1,-803.28 1359.54,-786.53 1397,-811 1437.35,-837.36 1483.29,-990.21 1494.79,-1030.35"/>
<polygon fill="#9a32cd" stroke="#9a32cd" points="1165.65,-807.9 1156.27,-812.83 1166.68,-814.82 1165.65,-807.9"/>
<text text-anchor="middle" x="1329" y="-880" font-family="Helvetica,sans-Serif" font-size="10.00"> tagNameSize</text>
<text text-anchor="middle" x="1329" y="-869" font-family="Helvetica,sans-Serif" font-size="10.00">nbDofsRow</text>
<text text-anchor="middle" x="1329" y="-858" font-family="Helvetica,sans-Serif" font-size="10.00">nbLocDofsCol</text>
<text text-anchor="middle" x="1329" y="-847" font-family="Helvetica,sans-Serif" font-size="10.00">nbDofsCol</text>
<text text-anchor="middle" x="1329" y="-836" font-family="Helvetica,sans-Serif" font-size="10.00">nbGhostDofsRow</text>
<text text-anchor="middle" x="1329" y="-825" font-family="Helvetica,sans-Serif" font-size="10.00">nbGhostDofsCol</text>
<text text-anchor="middle" x="1329" y="-814" font-family="Helvetica,sans-Serif" font-size="10.00">nbLocDofsRow</text>
</g>
<!-- Node37 -->
<g id="node37" class="node">
<title>Node37</title>
<g id="a_node37"><a xlink:title=" ">
<polygon fill="white" stroke="#bfbfbf" points="1415,-1068.5 1415,-1087.5 1582,-1087.5 1582,-1068.5 1415,-1068.5"/>
<text text-anchor="middle" x="1498.5" y="-1075.5" font-family="Helvetica,sans-Serif" font-size="10.00">function&lt; MoFEMErrorCode()&gt;</text>
</a>
</g>
</g>
<!-- Node37&#45;&gt;Node13 -->
<g id="edge45" class="edge">
<title>Node37&#45;&gt;Node13</title>
<path fill="none" stroke="#9a32cd" stroke-dasharray="5,2" d="M1592.13,-1075.48C1656.07,-1068.35 1737.18,-1047.51 1781,-990 1818.25,-941.11 1771.01,-768.72 1799,-714 1813.64,-685.39 1845.45,-664.03 1866.01,-652.55"/>
<polygon fill="#9a32cd" stroke="#9a32cd" points="1591.61,-1072.01 1582.02,-1076.51 1592.32,-1078.97 1591.61,-1072.01"/>
<text text-anchor="middle" x="1690.5" y="-1100" font-family="Helvetica,sans-Serif" font-size="10.00"> preProcessHook</text>
<text text-anchor="middle" x="1690.5" y="-1089" font-family="Helvetica,sans-Serif" font-size="10.00">operatorHook</text>
<text text-anchor="middle" x="1690.5" y="-1078" font-family="Helvetica,sans-Serif" font-size="10.00">postProcessHook</text>
</g>
<!-- Node38&#45;&gt;Node13 -->
<g id="edge46" class="edge">
<title>Node38&#45;&gt;Node13</title>
<path fill="none" stroke="#9a32cd" stroke-dasharray="5,2" d="M1525.26,-1025.04C1581.28,-991.1 1714.46,-902.49 1781,-791 1799.01,-760.82 1780.48,-743.87 1799,-714 1816.14,-686.36 1847.82,-664.42 1867.58,-652.6"/>
<polygon fill="#9a32cd" stroke="#9a32cd" points="1523.13,-1022.24 1516.35,-1030.38 1526.72,-1028.25 1523.13,-1022.24"/>
<text text-anchor="middle" x="1690.5" y="-978" font-family="Helvetica,sans-Serif" font-size="10.00"> problemPtr</text>
</g>
<!-- Node39 -->
<g id="node39" class="node">
<title>Node39</title>
<g id="a_node39"><a xlink:title=" ">
<polygon fill="white" stroke="#bfbfbf" points="1058,-1257 1058,-1287 1225,-1287 1225,-1257 1058,-1257"/>
<text text-anchor="start" x="1066" y="-1275" font-family="Helvetica,sans-Serif" font-size="10.00">shared_ptr&lt; NumeredEntFinite</text>
<text text-anchor="middle" x="1141.5" y="-1264" font-family="Helvetica,sans-Serif" font-size="10.00">Element_multiIndex &gt;</text>
</a>
</g>
</g>
<!-- Node39&#45;&gt;Node38 -->
<g id="edge47" class="edge">
<title>Node39&#45;&gt;Node38</title>
<path fill="none" stroke="#9a32cd" stroke-dasharray="5,2" d="M1235.17,-1259.49C1306.74,-1249.63 1394.1,-1237.04 1397,-1234 1424,-1205.73 1389.12,-1088.3 1415,-1059 1423.56,-1049.31 1435.99,-1044.03 1448.61,-1041.28"/>
<polygon fill="#9a32cd" stroke="#9a32cd" points="1234.62,-1256.03 1225.19,-1260.86 1235.57,-1262.97 1234.62,-1256.03"/>
<text text-anchor="middle" x="1329" y="-1258" font-family="Helvetica,sans-Serif" font-size="10.00"> numeredFiniteElementsPtr</text>
</g>
<!-- Node40 -->
<g id="node40" class="node">
<title>Node40</title>
<g id="a_node40"><a xlink:title=" ">
<polygon fill="white" stroke="#bfbfbf" points="1112,-1218.5 1112,-1237.5 1171,-1237.5 1171,-1218.5 1112,-1218.5"/>
<text text-anchor="middle" x="1141.5" y="-1225.5" font-family="Helvetica,sans-Serif" font-size="10.00">BitFEId *</text>
</a>
</g>
</g>
<!-- Node40&#45;&gt;Node38 -->
<g id="edge48" class="edge">
<title>Node40&#45;&gt;Node38</title>
<path fill="none" stroke="#9a32cd" stroke-dasharray="5,2" d="M1181.69,-1226.32C1249.26,-1223.04 1381.95,-1214.79 1397,-1200 1442.06,-1155.72 1372.6,-1105.84 1415,-1059 1423.68,-1049.41 1436.14,-1044.17 1448.76,-1041.42"/>
<polygon fill="#9a32cd" stroke="#9a32cd" points="1181.26,-1222.84 1171.43,-1226.8 1181.58,-1229.83 1181.26,-1222.84"/>
<text text-anchor="middle" x="1329" y="-1225" font-family="Helvetica,sans-Serif" font-size="10.00"> tagBitFEId</text>
</g>
<!-- Node41 -->
<g id="node41" class="node">
<title>Node41</title>
<g id="a_node41"><a xlink:href="classEntityHandle.html" target="_top" xlink:title=" ">
<polygon fill="white" stroke="black" points="1101.5,-1180.5 1101.5,-1199.5 1181.5,-1199.5 1181.5,-1180.5 1101.5,-1180.5"/>
<text text-anchor="middle" x="1141.5" y="-1187.5" font-family="Helvetica,sans-Serif" font-size="10.00">EntityHandle</text>
</a>
</g>
</g>
<!-- Node41&#45;&gt;Node38 -->
<g id="edge49" class="edge">
<title>Node41&#45;&gt;Node38</title>
<path fill="none" stroke="#9a32cd" stroke-dasharray="5,2" d="M1192.05,-1188.12C1261.86,-1184.99 1382.36,-1177.68 1397,-1164 1431.6,-1131.68 1382.48,-1093.41 1415,-1059 1423.78,-1049.71 1436.12,-1044.53 1448.59,-1041.76"/>
<polygon fill="#9a32cd" stroke="#9a32cd" points="1191.56,-1184.64 1181.72,-1188.57 1191.86,-1191.63 1191.56,-1184.64"/>
<text text-anchor="middle" x="1329" y="-1188" font-family="Helvetica,sans-Serif" font-size="10.00"> meshset</text>
</g>
<!-- Node42 -->
<g id="node42" class="node">
<title>Node42</title>
<g id="a_node42"><a xlink:title=" ">
<polygon fill="white" stroke="#bfbfbf" points="1067,-1131 1067,-1161 1216,-1161 1216,-1131 1067,-1131"/>
<text text-anchor="start" x="1075" y="-1149" font-family="Helvetica,sans-Serif" font-size="10.00">shared_ptr&lt; MoFEM::</text>
<text text-anchor="middle" x="1141.5" y="-1138" font-family="Helvetica,sans-Serif" font-size="10.00">ComposedProblemsData &gt;</text>
</a>
</g>
</g>
<!-- Node42&#45;&gt;Node38 -->
<g id="edge50" class="edge">
<title>Node42&#45;&gt;Node38</title>
<path fill="none" stroke="#9a32cd" stroke-dasharray="5,2" d="M1226.29,-1149.13C1290.3,-1149.73 1371.72,-1146.01 1397,-1125 1420.38,-1105.57 1393.08,-1080.07 1415,-1059 1424.11,-1050.24 1436.42,-1045.22 1448.73,-1042.42"/>
<polygon fill="#9a32cd" stroke="#9a32cd" points="1226.22,-1145.63 1216.17,-1149 1226.13,-1152.63 1226.22,-1145.63"/>
<text text-anchor="middle" x="1329" y="-1152" font-family="Helvetica,sans-Serif" font-size="10.00"> composedProblemsData</text>
</g>
<!-- Node43 -->
<g id="node43" class="node">
<title>Node43</title>
<g id="a_node43"><a xlink:title=" ">
<polygon fill="white" stroke="#bfbfbf" points="1101,-1092.5 1101,-1111.5 1182,-1111.5 1182,-1092.5 1101,-1092.5"/>
<text text-anchor="middle" x="1141.5" y="-1099.5" font-family="Helvetica,sans-Serif" font-size="10.00">BitRefLevel *</text>
</a>
</g>
</g>
<!-- Node43&#45;&gt;Node38 -->
<g id="edge51" class="edge">
<title>Node43&#45;&gt;Node38</title>
<path fill="none" stroke="#9a32cd" stroke-dasharray="5,2" d="M1192.32,-1101.42C1255.97,-1099.98 1362.09,-1095 1397,-1078 1407.46,-1072.91 1404.9,-1064.77 1415,-1059 1425.21,-1053.16 1437.09,-1049.12 1448.61,-1046.32"/>
<polygon fill="#9a32cd" stroke="#9a32cd" points="1192.03,-1097.92 1182.1,-1101.63 1192.17,-1104.92 1192.03,-1097.92"/>
<text text-anchor="middle" x="1329" y="-1113" font-family="Helvetica,sans-Serif" font-size="10.00"> tagBitRefLevelMask</text>
<text text-anchor="middle" x="1329" y="-1102" font-family="Helvetica,sans-Serif" font-size="10.00">tagBitRefLevel</text>
</g>
<!-- Node44 -->
<g id="node44" class="node">
<title>Node44</title>
<g id="a_node44"><a xlink:title=" ">
<polygon fill="white" stroke="#bfbfbf" points="1056.5,-1043 1056.5,-1073 1226.5,-1073 1226.5,-1043 1056.5,-1043"/>
<text text-anchor="start" x="1064.5" y="-1061" font-family="Helvetica,sans-Serif" font-size="10.00">shared_ptr&lt; NumeredDofEntity</text>
<text text-anchor="middle" x="1141.5" y="-1050" font-family="Helvetica,sans-Serif" font-size="10.00">_multiIndex &gt;</text>
</a>
</g>
</g>
<!-- Node44&#45;&gt;Node38 -->
<g id="edge52" class="edge">
<title>Node44&#45;&gt;Node38</title>
<path fill="none" stroke="#9a32cd" stroke-dasharray="5,2" d="M1236.96,-1053.21C1305.2,-1049.75 1394.57,-1045.22 1448.92,-1042.46"/>
<polygon fill="#9a32cd" stroke="#9a32cd" points="1236.44,-1049.73 1226.63,-1053.73 1236.79,-1056.72 1236.44,-1049.73"/>
<text text-anchor="middle" x="1329" y="-1066" font-family="Helvetica,sans-Serif" font-size="10.00"> numeredRowDofsPtr</text>
<text text-anchor="middle" x="1329" y="-1055" font-family="Helvetica,sans-Serif" font-size="10.00">numeredColDofsPtr</text>
</g>
<!-- Node45 -->
<g id="node45" class="node">
<title>Node45</title>
<g id="a_node45"><a xlink:title=" ">
<polygon fill="white" stroke="#bfbfbf" points="1072.5,-1004.5 1072.5,-1023.5 1210.5,-1023.5 1210.5,-1004.5 1072.5,-1004.5"/>
<text text-anchor="middle" x="1141.5" y="-1011.5" font-family="Helvetica,sans-Serif" font-size="10.00">vector&lt; BlockFieldPair &gt;</text>
</a>
</g>
</g>
<!-- Node45&#45;&gt;Node38 -->
<g id="edge54" class="edge">
<title>Node45&#45;&gt;Node38</title>
<path fill="none" stroke="#9a32cd" stroke-dasharray="5,2" d="M1220.75,-1018.77C1271.1,-1021.95 1337.94,-1026.38 1397,-1031 1413.94,-1032.32 1432.47,-1033.94 1448.96,-1035.43"/>
<polygon fill="#9a32cd" stroke="#9a32cd" points="1220.78,-1015.26 1210.58,-1018.13 1220.34,-1022.25 1220.78,-1015.26"/>
<text text-anchor="middle" x="1329" y="-1034" font-family="Helvetica,sans-Serif" font-size="10.00"> emptyFieldBlocks</text>
</g>
<!-- Node46 -->
<g id="node46" class="node">
<title>Node46</title>
<g id="a_node46"><a xlink:title=" ">
<polygon fill="white" stroke="#bfbfbf" points="1063.5,-955 1063.5,-985 1219.5,-985 1219.5,-955 1063.5,-955"/>
<text text-anchor="start" x="1071.5" y="-973" font-family="Helvetica,sans-Serif" font-size="10.00">shared_ptr&lt; MoFEM::</text>
<text text-anchor="middle" x="1141.5" y="-962" font-family="Helvetica,sans-Serif" font-size="10.00">Problem::SubProblemData &gt;</text>
</a>
</g>
</g>
<!-- Node46&#45;&gt;Node38 -->
<g id="edge55" class="edge">
<title>Node46&#45;&gt;Node38</title>
<path fill="none" stroke="#9a32cd" stroke-dasharray="5,2" d="M1229.74,-978.9C1279.2,-984.89 1342,-994.08 1397,-1007 1423.1,-1013.13 1452.12,-1023 1472.24,-1030.36"/>
<polygon fill="#9a32cd" stroke="#9a32cd" points="1230.06,-975.41 1219.71,-977.71 1229.23,-982.37 1230.06,-975.41"/>
<text text-anchor="middle" x="1329" y="-1010" font-family="Helvetica,sans-Serif" font-size="10.00"> subProblemData</text>
</g>
<!-- Node47 -->
<g id="node47" class="node">
<title>Node47</title>
<g id="a_node47"><a xlink:title=" ">
<polygon fill="white" stroke="#bfbfbf" points="1040,-916.5 1040,-935.5 1243,-935.5 1243,-916.5 1040,-916.5"/>
<text text-anchor="middle" x="1141.5" y="-923.5" font-family="Helvetica,sans-Serif" font-size="10.00">shared_ptr&lt; SequenceDofContainer &gt;</text>
</a>
</g>
</g>
<!-- Node47&#45;&gt;Node38 -->
<g id="edge57" class="edge">
<title>Node47&#45;&gt;Node38</title>
<path fill="none" stroke="#9a32cd" stroke-dasharray="5,2" d="M1253.15,-926.58C1299.17,-930.17 1352.19,-938.8 1397,-958 1436.74,-975.02 1473.4,-1012.64 1489.25,-1030.38"/>
<polygon fill="#9a32cd" stroke="#9a32cd" points="1253.36,-923.09 1243.14,-925.87 1252.87,-930.07 1253.36,-923.09"/>
<text text-anchor="middle" x="1329" y="-972" font-family="Helvetica,sans-Serif" font-size="10.00"> sequenceRowDofContainer</text>
<text text-anchor="middle" x="1329" y="-961" font-family="Helvetica,sans-Serif" font-size="10.00">sequenceColDofContainer</text>
</g>
<!-- Node48 -->
<g id="node48" class="node">
<title>Node48</title>
<g id="a_node48"><a xlink:title=" ">
<polygon fill="white" stroke="#bfbfbf" points="1097.5,-878.5 1097.5,-897.5 1185.5,-897.5 1185.5,-878.5 1097.5,-878.5"/>
<text text-anchor="middle" x="1141.5" y="-885.5" font-family="Helvetica,sans-Serif" font-size="10.00">BitProblemId *</text>
</a>
</g>
</g>
<!-- Node48&#45;&gt;Node38 -->
<g id="edge58" class="edge">
<title>Node48&#45;&gt;Node38</title>
<path fill="none" stroke="#9a32cd" stroke-dasharray="5,2" d="M1195.98,-888.4C1260.21,-889.71 1363.5,-894.71 1397,-913 1447.59,-940.62 1481.6,-1005.44 1493.15,-1030.18"/>
<polygon fill="#9a32cd" stroke="#9a32cd" points="1195.69,-884.9 1185.63,-888.22 1195.57,-891.89 1195.69,-884.9"/>
<text text-anchor="middle" x="1329" y="-916" font-family="Helvetica,sans-Serif" font-size="10.00"> tagId</text>
</g>
<!-- Node49 -->
<g id="node49" class="node">
<title>Node49</title>
<g id="a_node49"><a xlink:title=" ">
<polygon fill="white" stroke="#bfbfbf" points="1805,-724 1805,-754 1967,-754 1967,-724 1805,-724"/>
<text text-anchor="start" x="1813" y="-742" font-family="Helvetica,sans-Serif" font-size="10.00">shared_ptr&lt; const MoFEM</text>
<text text-anchor="middle" x="1886" y="-731" font-family="Helvetica,sans-Serif" font-size="10.00">::NumeredEntFiniteElement &gt;</text>
</a>
</g>
</g>
<!-- Node49&#45;&gt;Node12 -->
<g id="edge59" class="edge">
<title>Node49&#45;&gt;Node12</title>
<path fill="none" stroke="#9a32cd" stroke-dasharray="5,2" d="M1977.3,-744.78C2024.32,-747.8 2082.76,-751.57 2135,-755 2157.08,-756.45 2181.45,-758.07 2202.43,-759.47"/>
<polygon fill="#9a32cd" stroke="#9a32cd" points="1977.34,-741.27 1967.14,-744.13 1976.89,-748.26 1977.34,-741.27"/>
<text text-anchor="middle" x="2063" y="-758" font-family="Helvetica,sans-Serif" font-size="10.00"> numeredEntFiniteElementPtr</text>
</g>
<!-- Node50 -->
<g id="node50" class="node">
<title>Node50</title>
<g id="a_node50"><a xlink:title=" ">
<polygon fill="white" stroke="#bfbfbf" points="1864,-1094.5 1864,-1113.5 1908,-1113.5 1908,-1094.5 1864,-1094.5"/>
<text text-anchor="middle" x="1886" y="-1101.5" font-family="Helvetica,sans-Serif" font-size="10.00">string</text>
</a>
</g>
</g>
<!-- Node50&#45;&gt;Node3 -->
<g id="edge82" class="edge">
<title>Node50&#45;&gt;Node3</title>
<path fill="none" stroke="#9a32cd" stroke-dasharray="5,2" d="M1918.26,-1110.41C2059.55,-1139.38 2640.62,-1258.51 2847.47,-1300.92"/>
<polygon fill="#9a32cd" stroke="#9a32cd" points="1918.62,-1106.91 1908.12,-1108.33 1917.22,-1113.77 1918.62,-1106.91"/>
<text text-anchor="middle" x="2458" y="-1251" font-family="Helvetica,sans-Serif" font-size="10.00"> colFieldName</text>
<text text-anchor="middle" x="2458" y="-1240" font-family="Helvetica,sans-Serif" font-size="10.00">rowFieldName</text>
</g>
<!-- Node50&#45;&gt;Node12 -->
<g id="edge60" class="edge">
<title>Node50&#45;&gt;Node12</title>
<path fill="none" stroke="#9a32cd" stroke-dasharray="5,2" d="M1900.43,-1086.36C1949.63,-1021.93 2118.91,-802.08 2153,-782 2167.82,-773.27 2185.78,-768.41 2202.47,-765.75"/>
<polygon fill="#9a32cd" stroke="#9a32cd" points="1897.6,-1084.31 1894.31,-1094.38 1903.16,-1088.55 1897.6,-1084.31"/>
<text text-anchor="middle" x="2063" y="-965" font-family="Helvetica,sans-Serif" font-size="10.00"> feName</text>
</g>
<!-- Node51 -->
<g id="node51" class="node">
<title>Node51</title>
<g id="a_node51"><a xlink:title=" ">
<polygon fill="white" stroke="#bfbfbf" points="1804.5,-773 1804.5,-803 1967.5,-803 1967.5,-773 1804.5,-773"/>
<text text-anchor="start" x="1812.5" y="-791" font-family="Helvetica,sans-Serif" font-size="10.00">function&lt; bool(MoFEM</text>
<text text-anchor="middle" x="1886" y="-780" font-family="Helvetica,sans-Serif" font-size="10.00">::FEMethod *fe_method_ptr)&gt;</text>
</a>
</g>
</g>
<!-- Node51&#45;&gt;Node12 -->
<g id="edge61" class="edge">
<title>Node51&#45;&gt;Node12</title>
<path fill="none" stroke="#9a32cd" stroke-dasharray="5,2" d="M1977.98,-781.82C2048.52,-777.03 2143.82,-770.55 2202.26,-766.58"/>
<polygon fill="#9a32cd" stroke="#9a32cd" points="1977.5,-778.34 1967.76,-782.51 1977.97,-785.33 1977.5,-778.34"/>
<text text-anchor="middle" x="2063" y="-784" font-family="Helvetica,sans-Serif" font-size="10.00"> exeTestHook</text>
</g>
<!-- Node52 -->
<g id="node52" class="node">
<title>Node52</title>
<g id="a_node52"><a xlink:href="classdouble.html" target="_top" xlink:title=" ">
<polygon fill="white" stroke="black" points="2231,-529.5 2231,-548.5 2281,-548.5 2281,-529.5 2231,-529.5"/>
<text text-anchor="middle" x="2256" y="-536.5" font-family="Helvetica,sans-Serif" font-size="10.00">double</text>
</a>
</g>
</g>
<!-- Node52&#45;&gt;Node11 -->
<g id="edge62" class="edge">
<title>Node52&#45;&gt;Node11</title>
<path fill="none" stroke="#9a32cd" stroke-dasharray="5,2" d="M2291.25,-533.73C2345.83,-526.8 2454.93,-519.08 2539,-552 2581.06,-568.47 2618.22,-609.75 2633.55,-628.48"/>
<polygon fill="#9a32cd" stroke="#9a32cd" points="2290.53,-530.29 2281.09,-535.09 2291.46,-537.23 2290.53,-530.29"/>
<text text-anchor="middle" x="2458" y="-555" font-family="Helvetica,sans-Serif" font-size="10.00"> elementMeasure</text>
</g>
<!-- Node53 -->
<g id="node53" class="node">
<title>Node53</title>
<g id="a_node53"><a xlink:title=" ">
<polygon fill="white" stroke="#bfbfbf" points="2170,-469.5 2170,-510.5 2342,-510.5 2342,-469.5 2170,-469.5"/>
<text text-anchor="start" x="2178" y="-498.5" font-family="Helvetica,sans-Serif" font-size="10.00">array&lt; boost::shared</text>
<text text-anchor="start" x="2178" y="-487.5" font-family="Helvetica,sans-Serif" font-size="10.00">_ptr&lt; MoFEM::EntitiesFieldData</text>
<text text-anchor="middle" x="2256" y="-476.5" font-family="Helvetica,sans-Serif" font-size="10.00"> &gt;, LASTSPACE &gt;</text>
</a>
</g>
</g>
<!-- Node53&#45;&gt;Node11 -->
<g id="edge63" class="edge">
<title>Node53&#45;&gt;Node11</title>
<path fill="none" stroke="#9a32cd" stroke-dasharray="5,2" d="M2352.26,-474.4C2409.55,-469.63 2482.15,-472.05 2539,-502 2593.31,-530.62 2626.7,-602.51 2637.32,-628.47"/>
<polygon fill="#9a32cd" stroke="#9a32cd" points="2351.75,-470.93 2342.11,-475.33 2352.39,-477.9 2351.75,-470.93"/>
<text text-anchor="middle" x="2458" y="-516" font-family="Helvetica,sans-Serif" font-size="10.00"> derivedDataOnElement</text>
<text text-anchor="middle" x="2458" y="-505" font-family="Helvetica,sans-Serif" font-size="10.00">dataOnElement</text>
</g>
<!-- Node54 -->
<g id="node54" class="node">
<title>Node54</title>
<g id="a_node54"><a xlink:title=" ">
<polygon fill="white" stroke="#bfbfbf" points="2222,-431.5 2222,-450.5 2290,-450.5 2290,-431.5 2222,-431.5"/>
<text text-anchor="middle" x="2256" y="-438.5" font-family="Helvetica,sans-Serif" font-size="10.00">EntityType</text>
</a>
</g>
</g>
<!-- Node54&#45;&gt;Node11 -->
<g id="edge64" class="edge">
<title>Node54&#45;&gt;Node11</title>
<path fill="none" stroke="#9a32cd" stroke-dasharray="5,2" d="M2300.36,-438.69C2369.37,-435.82 2500.36,-433.9 2539,-458 2604.22,-498.68 2631.68,-597.13 2638.93,-628.34"/>
<polygon fill="#9a32cd" stroke="#9a32cd" points="2300.08,-435.2 2290.24,-439.14 2300.39,-442.19 2300.08,-435.2"/>
<text text-anchor="middle" x="2458" y="-461" font-family="Helvetica,sans-Serif" font-size="10.00"> lastEvaluatedElementEntityType</text>
</g>
<!-- Node55 -->
<g id="node55" class="node">
<title>Node55</title>
<g id="a_node55"><a xlink:href="structMoFEM_1_1DeprecatedCoreInterface.html" target="_top" xlink:title="Deprecated interface functions.">
<polygon fill="white" stroke="black" points="1600,-181.5 1600,-200.5 1781,-200.5 1781,-181.5 1600,-181.5"/>
<text text-anchor="middle" x="1690.5" y="-188.5" font-family="Helvetica,sans-Serif" font-size="10.00">MoFEM::DeprecatedCoreInterface</text>
</a>
</g>
</g>
<!-- Node55&#45;&gt;Node11 -->
<g id="edge65" class="edge">
<title>Node55&#45;&gt;Node11</title>
<path fill="none" stroke="#9a32cd" stroke-dasharray="5,2" d="M1716.38,-206.29C1737.6,-220.84 1766.84,-244.8 1781,-274 1802.88,-319.13 1765.08,-462.05 1799,-499 1911.42,-621.44 2376.34,-573.77 2539,-608 2564.29,-613.32 2592.42,-621.8 2612.73,-628.38"/>
<polygon fill="#9a32cd" stroke="#9a32cd" points="1718.12,-203.25 1707.85,-200.65 1714.26,-209.08 1718.12,-203.25"/>
<text text-anchor="middle" x="2063" y="-589" font-family="Helvetica,sans-Serif" font-size="10.00"> mField</text>
</g>
<!-- Node56&#45;&gt;Node55 -->
<g id="edge66" class="edge">
<title>Node56&#45;&gt;Node55</title>
<path fill="none" stroke="midnightblue" d="M1214.09,-41.88C1265.64,-45.91 1336.46,-53.98 1397,-70 1505.11,-98.61 1626.17,-158.19 1671.28,-181.43"/>
<polygon fill="midnightblue" stroke="midnightblue" points="1214.29,-38.38 1204.05,-41.13 1213.76,-45.36 1214.29,-38.38"/>
</g>
<!-- Node57 -->
<g id="node57" class="node">
<title>Node57</title>
<g id="a_node57"><a xlink:title=" ">
<polygon fill="white" stroke="#bfbfbf" points="2172.5,-841 2172.5,-893 2339.5,-893 2339.5,-841 2172.5,-841"/>
<text text-anchor="start" x="2180.5" y="-881" font-family="Helvetica,sans-Serif" font-size="10.00">function&lt; MoFEMErrorCode</text>
<text text-anchor="start" x="2180.5" y="-870" font-family="Helvetica,sans-Serif" font-size="10.00">(ForcesAndSourcesCore *fe</text>
<text text-anchor="start" x="2180.5" y="-859" font-family="Helvetica,sans-Serif" font-size="10.00">_raw_ptr, int order_row,</text>
<text text-anchor="middle" x="2256" y="-848" font-family="Helvetica,sans-Serif" font-size="10.00"> int order_col, int order_data)&gt;</text>
</a>
</g>
</g>
<!-- Node57&#45;&gt;Node11 -->
<g id="edge69" class="edge">
<title>Node57&#45;&gt;Node11</title>
<path fill="none" stroke="#9a32cd" stroke-dasharray="5,2" d="M2349.75,-869.97C2408.78,-867.46 2484.17,-855.67 2539,-817 2601.26,-773.1 2630.53,-678.33 2638.6,-647.74"/>
<polygon fill="#9a32cd" stroke="#9a32cd" points="2349.55,-866.48 2339.68,-870.32 2349.79,-873.47 2349.55,-866.48"/>
<text text-anchor="middle" x="2458" y="-871" font-family="Helvetica,sans-Serif" font-size="10.00"> setRuleHook</text>
</g>
<!-- Node58 -->
<g id="node58" class="node">
<title>Node58</title>
<g id="a_node58"><a xlink:title=" ">
<polygon fill="white" stroke="#bfbfbf" points="2155,-792 2155,-822 2357,-822 2357,-792 2155,-792"/>
<text text-anchor="start" x="2163" y="-810" font-family="Helvetica,sans-Serif" font-size="10.00">ptr_deque&lt; MoFEM::Forces</text>
<text text-anchor="middle" x="2256" y="-799" font-family="Helvetica,sans-Serif" font-size="10.00">AndSourcesCore::UserDataOperator &gt;</text>
</a>
</g>
</g>
<!-- Node58&#45;&gt;Node11 -->
<g id="edge70" class="edge">
<title>Node58&#45;&gt;Node11</title>
<path fill="none" stroke="#9a32cd" stroke-dasharray="5,2" d="M2367.18,-803.07C2421.81,-797.08 2487.04,-783.59 2539,-754 2586.07,-727.19 2622.37,-670.47 2635.58,-647.73"/>
<polygon fill="#9a32cd" stroke="#9a32cd" points="2366.7,-799.6 2357.11,-804.1 2367.41,-806.56 2366.7,-799.6"/>
<text text-anchor="middle" x="2458" y="-805" font-family="Helvetica,sans-Serif" font-size="10.00"> opPtrVector</text>
</g>
<!-- Node59 -->
<g id="node59" class="node">
<title>Node59</title>
<g id="a_node59"><a xlink:href="structMoFEM_1_1EntitiesFieldData.html" target="_top" xlink:title="data structure for finite element entity">
<polygon fill="white" stroke="black" points="2185,-360.5 2185,-379.5 2327,-379.5 2327,-360.5 2185,-360.5"/>
<text text-anchor="middle" x="2256" y="-367.5" font-family="Helvetica,sans-Serif" font-size="10.00">MoFEM::EntitiesFieldData</text>
</a>
</g>
</g>
<!-- Node59&#45;&gt;Node11 -->
<g id="edge71" class="edge">
<title>Node59&#45;&gt;Node11</title>
<path fill="none" stroke="#9a32cd" stroke-dasharray="5,2" d="M2299.54,-358.06C2359,-344.08 2467.65,-328.73 2539,-379 2626.31,-440.51 2638.89,-588.84 2640.7,-628.25"/>
<polygon fill="#9a32cd" stroke="#9a32cd" points="2298.62,-354.68 2289.73,-360.46 2300.28,-361.48 2298.62,-354.68"/>
<text text-anchor="middle" x="2458" y="-426" font-family="Helvetica,sans-Serif" font-size="10.00"> dataNoField</text>
<text text-anchor="middle" x="2458" y="-415" font-family="Helvetica,sans-Serif" font-size="10.00">dataL2</text>
<text text-anchor="middle" x="2458" y="-404" font-family="Helvetica,sans-Serif" font-size="10.00">dataH1</text>
<text text-anchor="middle" x="2458" y="-393" font-family="Helvetica,sans-Serif" font-size="10.00">dataHcurl</text>
<text text-anchor="middle" x="2458" y="-382" font-family="Helvetica,sans-Serif" font-size="10.00">dataHdiv</text>
</g>
<!-- Node60 -->
<g id="node60" class="node">
<title>Node60</title>
<g id="a_node60"><a xlink:title=" ">
<polygon fill="white" stroke="#bfbfbf" points="1805,-383 1805,-413 1967,-413 1967,-383 1805,-383"/>
<text text-anchor="start" x="1813" y="-401" font-family="Helvetica,sans-Serif" font-size="10.00">array&lt; std::bitset</text>
<text text-anchor="middle" x="1886" y="-390" font-family="Helvetica,sans-Serif" font-size="10.00">&lt; LASTBASE &gt;, LASTSPACE &gt;</text>
</a>
</g>
</g>
<!-- Node60&#45;&gt;Node59 -->
<g id="edge72" class="edge">
<title>Node60&#45;&gt;Node59</title>
<path fill="none" stroke="#9a32cd" stroke-dasharray="5,2" d="M1977.39,-391.12C2041.35,-386.26 2125.88,-379.82 2184.79,-375.34"/>
<polygon fill="#9a32cd" stroke="#9a32cd" points="1977.01,-387.64 1967.3,-391.89 1977.54,-394.62 1977.01,-387.64"/>
<text text-anchor="middle" x="2063" y="-404" font-family="Helvetica,sans-Serif" font-size="10.00"> brokenBasesOnSpaces</text>
<text text-anchor="middle" x="2063" y="-393" font-family="Helvetica,sans-Serif" font-size="10.00">basesOnSpaces</text>
</g>
<!-- Node61 -->
<g id="node61" class="node">
<title>Node61</title>
<g id="a_node61"><a xlink:title=" ">
<polygon fill="white" stroke="#bfbfbf" points="1809.5,-322.5 1809.5,-363.5 1962.5,-363.5 1962.5,-322.5 1809.5,-322.5"/>
<text text-anchor="start" x="1817.5" y="-351.5" font-family="Helvetica,sans-Serif" font-size="10.00">array&lt; boost::ptr_vector</text>
<text text-anchor="start" x="1817.5" y="-340.5" font-family="Helvetica,sans-Serif" font-size="10.00">&lt; MoFEM::EntitiesFieldData</text>
<text text-anchor="middle" x="1886" y="-329.5" font-family="Helvetica,sans-Serif" font-size="10.00">::EntData &gt;, MBMAXTYPE &gt;</text>
</a>
</g>
</g>
<!-- Node61&#45;&gt;Node59 -->
<g id="edge73" class="edge">
<title>Node61&#45;&gt;Node59</title>
<path fill="none" stroke="#9a32cd" stroke-dasharray="5,2" d="M1972.95,-349.31C2037.43,-354.04 2124.61,-360.43 2184.9,-364.86"/>
<polygon fill="#9a32cd" stroke="#9a32cd" points="1973.03,-345.8 1962.8,-348.56 1972.52,-352.78 1973.03,-345.8"/>
<text text-anchor="middle" x="2063" y="-364" font-family="Helvetica,sans-Serif" font-size="10.00"> dataOnEntities</text>
</g>
<!-- Node62 -->
<g id="node62" class="node">
<title>Node62</title>
<g id="a_node62"><a xlink:title=" ">
<polygon fill="white" stroke="#bfbfbf" points="1799,-273 1799,-303 1973,-303 1973,-273 1799,-273"/>
<text text-anchor="start" x="1807" y="-291" font-family="Helvetica,sans-Serif" font-size="10.00">array&lt; std::bitset</text>
<text text-anchor="middle" x="1886" y="-280" font-family="Helvetica,sans-Serif" font-size="10.00">&lt; LASTSPACE &gt;, MBMAXTYPE &gt;</text>
</a>
</g>
</g>
<!-- Node62&#45;&gt;Node59 -->
<g id="edge74" class="edge">
<title>Node62&#45;&gt;Node59</title>
<path fill="none" stroke="#9a32cd" stroke-dasharray="5,2" d="M1983.17,-304.65C2029.29,-313.13 2085.22,-324.15 2135,-336 2165.54,-343.27 2199.99,-353.21 2224.11,-360.47"/>
<polygon fill="#9a32cd" stroke="#9a32cd" points="1983.64,-301.18 1973.18,-302.82 1982.39,-308.06 1983.64,-301.18"/>
<text text-anchor="middle" x="2063" y="-339" font-family="Helvetica,sans-Serif" font-size="10.00"> spacesOnEntities</text>
</g>
<!-- Node63 -->
<g id="node63" class="node">
<title>Node63</title>
<g id="a_node63"><a xlink:title=" ">
<polygon fill="white" stroke="#bfbfbf" points="1801.5,-224 1801.5,-254 1970.5,-254 1970.5,-224 1801.5,-224"/>
<text text-anchor="start" x="1809.5" y="-242" font-family="Helvetica,sans-Serif" font-size="10.00">array&lt; std::bitset</text>
<text text-anchor="middle" x="1886" y="-231" font-family="Helvetica,sans-Serif" font-size="10.00">&lt; LASTBASE &gt;, MBMAXTYPE &gt;</text>
</a>
</g>
</g>
<!-- Node63&#45;&gt;Node59 -->
<g id="edge75" class="edge">
<title>Node63&#45;&gt;Node59</title>
<path fill="none" stroke="#9a32cd" stroke-dasharray="5,2" d="M1980.51,-250.7C2028.02,-258.69 2085.93,-271.63 2135,-292 2178.37,-310 2223.11,-343.94 2243.56,-360.47"/>
<polygon fill="#9a32cd" stroke="#9a32cd" points="1980.97,-247.23 1970.53,-249.07 1979.84,-254.14 1980.97,-247.23"/>
<text text-anchor="middle" x="2063" y="-295" font-family="Helvetica,sans-Serif" font-size="10.00"> basesOnEntities</text>
</g>
<!-- Node64 -->
<g id="node64" class="node">
<title>Node64</title>
<g id="a_node64"><a xlink:title=" ">
<polygon fill="white" stroke="#bfbfbf" points="1830,-470.5 1830,-489.5 1942,-489.5 1942,-470.5 1830,-470.5"/>
<text text-anchor="middle" x="1886" y="-477.5" font-family="Helvetica,sans-Serif" font-size="10.00">UBlasMatrix&lt; int &gt;</text>
</a>
</g>
</g>
<!-- Node64&#45;&gt;Node59 -->
<g id="edge76" class="edge">
<title>Node64&#45;&gt;Node59</title>
<path fill="none" stroke="#9a32cd" stroke-dasharray="5,2" d="M1952.15,-487.7C2005.45,-490.68 2080.65,-486.95 2135,-452 2148.08,-443.59 2141.63,-432.61 2153,-422 2174.22,-402.2 2204.41,-388.07 2226.44,-379.58"/>
<polygon fill="#9a32cd" stroke="#9a32cd" points="1952.33,-484.21 1942.13,-487.05 1951.88,-491.19 1952.33,-484.21"/>
<text text-anchor="middle" x="2063" y="-503" font-family="Helvetica,sans-Serif" font-size="10.00"> facesNodesOrder</text>
<text text-anchor="middle" x="2063" y="-492" font-family="Helvetica,sans-Serif" font-size="10.00">facesNodes</text>
</g>
<!-- Node65 -->
<g id="node65" class="node">
<title>Node65</title>
<g id="a_node65"><a xlink:title=" ">
<polygon fill="white" stroke="#bfbfbf" points="1827.5,-432.5 1827.5,-451.5 1944.5,-451.5 1944.5,-432.5 1827.5,-432.5"/>
<text text-anchor="middle" x="1886" y="-439.5" font-family="Helvetica,sans-Serif" font-size="10.00">bitset&lt; LASTBASE &gt;</text>
</a>
</g>
</g>
<!-- Node65&#45;&gt;Node59 -->
<g id="edge77" class="edge">
<title>Node65&#45;&gt;Node59</title>
<path fill="none" stroke="#9a32cd" stroke-dasharray="5,2" d="M1954.96,-439.66C2005.25,-436.78 2075.13,-430.35 2135,-416 2171.23,-407.31 2211.26,-390.39 2234.71,-379.66"/>
<polygon fill="#9a32cd" stroke="#9a32cd" points="1954.65,-436.17 1944.85,-440.21 1955.03,-443.16 1954.65,-436.17"/>
<text text-anchor="middle" x="2063" y="-440" font-family="Helvetica,sans-Serif" font-size="10.00"> bAse</text>
</g>
<!-- Node66 -->
<g id="node66" class="node">
<title>Node66</title>
<g id="a_node66"><a xlink:title=" ">
<polygon fill="white" stroke="#bfbfbf" points="2193.5,-693.5 2193.5,-734.5 2318.5,-734.5 2318.5,-693.5 2193.5,-693.5"/>
<text text-anchor="start" x="2201.5" y="-722.5" font-family="Helvetica,sans-Serif" font-size="10.00">function&lt; int(int order</text>
<text text-anchor="start" x="2201.5" y="-711.5" font-family="Helvetica,sans-Serif" font-size="10.00">_row, int order_col, int</text>
<text text-anchor="middle" x="2256" y="-700.5" font-family="Helvetica,sans-Serif" font-size="10.00"> order_data)&gt;</text>
</a>
</g>
</g>
<!-- Node66&#45;&gt;Node11 -->
<g id="edge78" class="edge">
<title>Node66&#45;&gt;Node11</title>
<path fill="none" stroke="#9a32cd" stroke-dasharray="5,2" d="M2328.73,-710.23C2386.3,-705.98 2468.82,-697.13 2539,-679 2568.75,-671.31 2601.42,-657.08 2621.58,-647.57"/>
<polygon fill="#9a32cd" stroke="#9a32cd" points="2328.37,-706.75 2318.64,-710.94 2328.86,-713.73 2328.37,-706.75"/>
<text text-anchor="middle" x="2458" y="-709" font-family="Helvetica,sans-Serif" font-size="10.00"> getRuleHook</text>
</g>
<!-- Node67 -->
<g id="node67" class="node">
<title>Node67</title>
<g id="a_node67"><a xlink:title=" ">
<polygon fill="white" stroke="#bfbfbf" points="2195,-644 2195,-674 2317,-674 2317,-644 2195,-644"/>
<text text-anchor="start" x="2203" y="-662" font-family="Helvetica,sans-Serif" font-size="10.00">shared_ptr&lt; MoFEM::</text>
<text text-anchor="middle" x="2256" y="-651" font-family="Helvetica,sans-Serif" font-size="10.00">BaseFunction &gt;</text>
</a>
</g>
</g>
<!-- Node67&#45;&gt;Node11 -->
<g id="edge79" class="edge">
<title>Node67&#45;&gt;Node11</title>
<path fill="none" stroke="#9a32cd" stroke-dasharray="5,2" d="M2327.52,-655.14C2392.17,-651.61 2488.01,-646.37 2556.68,-642.61"/>
<polygon fill="#9a32cd" stroke="#9a32cd" points="2327.22,-651.65 2317.42,-655.7 2327.6,-658.64 2327.22,-651.65"/>
<text text-anchor="middle" x="2458" y="-667" font-family="Helvetica,sans-Serif" font-size="10.00"> userPolynomialBasePtr</text>
<text text-anchor="middle" x="2458" y="-656" font-family="Helvetica,sans-Serif" font-size="10.00">elementPolynomialBasePtr</text>
</g>
<!-- Node68 -->
<g id="node68" class="node">
<title>Node68</title>
<g id="a_node68"><a xlink:href="classUBlasMatrix_3_01double_01_4.html" target="_top" xlink:title=" ">
<polygon fill="white" stroke="black" points="2190,-605.5 2190,-624.5 2322,-624.5 2322,-605.5 2190,-605.5"/>
<text text-anchor="middle" x="2256" y="-612.5" font-family="Helvetica,sans-Serif" font-size="10.00">UBlasMatrix&lt; double &gt;</text>
</a>
</g>
</g>
<!-- Node68&#45;&gt;Node11 -->
<g id="edge80" class="edge">
<title>Node68&#45;&gt;Node11</title>
<path fill="none" stroke="#9a32cd" stroke-dasharray="5,2" d="M2332.15,-612.08C2389.08,-610.76 2469.16,-610.84 2539,-618 2559.64,-620.12 2582.32,-624.37 2601.05,-628.41"/>
<polygon fill="#9a32cd" stroke="#9a32cd" points="2332.06,-608.58 2322.15,-612.33 2332.24,-615.57 2332.06,-608.58"/>
<text text-anchor="middle" x="2458" y="-632" font-family="Helvetica,sans-Serif" font-size="10.00"> coordsAtGaussPts</text>
<text text-anchor="middle" x="2458" y="-621" font-family="Helvetica,sans-Serif" font-size="10.00">gaussPts</text>
</g>
<!-- Node69 -->
<g id="node69" class="node">
<title>Node69</title>
<g id="a_node69"><a xlink:title=" ">
<polygon fill="white" stroke="#bfbfbf" points="2576.5,-1449.5 2576.5,-1468.5 2707.5,-1468.5 2707.5,-1449.5 2576.5,-1449.5"/>
<text text-anchor="middle" x="2642" y="-1456.5" font-family="Helvetica,sans-Serif" font-size="10.00">static const char *const</text>
</a>
</g>
</g>
<!-- Node69&#45;&gt;Node3 -->
<g id="edge81" class="edge">
<title>Node69&#45;&gt;Node3</title>
<path fill="none" stroke="#9a32cd" stroke-dasharray="5,2" d="M2707.45,-1446.8C2714.15,-1444.83 2720.78,-1442.57 2727,-1440 2796.8,-1411.1 2869.28,-1357.29 2902.43,-1331.1"/>
<polygon fill="#9a32cd" stroke="#9a32cd" points="2706.34,-1443.48 2697.62,-1449.49 2708.18,-1450.23 2706.34,-1443.48"/>
<text text-anchor="middle" x="2782" y="-1432" font-family="Helvetica,sans-Serif" font-size="10.00"> OpTypeNames</text>
</g>
</g>
</svg>
