<?xml version="1.0" encoding="UTF-8" standalone="no"?>
<!DOCTYPE svg PUBLIC "-//W3C//DTD SVG 1.1//EN"
 "http://www.w3.org/Graphics/SVG/1.1/DTD/svg11.dtd">
<!-- Generated by graphviz version 2.43.0 (0)
 -->
<!-- Title: MoFEM::OpCalculateHVecVectorField&lt; Base_Dim, Field_Dim &gt; Pages: 1 -->
<svg width="730pt" height="68pt"
 viewBox="0.00 0.00 730.00 67.50" xmlns="http://www.w3.org/2000/svg" xmlns:xlink="http://www.w3.org/1999/xlink">
<g id="graph0" class="graph" transform="scale(1 1) rotate(0) translate(4 63.5)">
<title>MoFEM::OpCalculateHVecVectorField&lt; Base_Dim, Field_Dim &gt;</title>
<polygon fill="white" stroke="transparent" points="-4,4 -4,-63.5 726,-63.5 726,4 -4,4"/>
<!-- Node1 -->
<g id="node1" class="node">
<title>Node1</title>
<g id="a_node1"><a xlink:title="Get vector field for H&#45;div approximation.">
<polygon fill="#bfbfbf" stroke="black" points="549,-11.5 549,-41.5 722,-41.5 722,-11.5 549,-11.5"/>
<text text-anchor="start" x="557" y="-29.5" font-family="Helvetica,sans-Serif" font-size="10.00">MoFEM::OpCalculateHVecVector</text>
<text text-anchor="middle" x="635.5" y="-18.5" font-family="Helvetica,sans-Serif" font-size="10.00">Field&lt; Base_Dim, Field_Dim &gt;</text>
</a>
</g>
</g>
<!-- Node2 -->
<g id="node2" class="node">
<title>Node2</title>
<g id="a_node2"><a xlink:href="structMoFEM_1_1OpCalculateHVecVectorField__General.html" target="_top" xlink:title=" ">
<polygon fill="white" stroke="black" points="339,-0.5 339,-52.5 512,-52.5 512,-0.5 339,-0.5"/>
<text text-anchor="start" x="347" y="-40.5" font-family="Helvetica,sans-Serif" font-size="10.00">MoFEM::OpCalculateHVecVector</text>
<text text-anchor="start" x="347" y="-29.5" font-family="Helvetica,sans-Serif" font-size="10.00">Field_General&lt; Base_Dim,</text>
<text text-anchor="start" x="347" y="-18.5" font-family="Helvetica,sans-Serif" font-size="10.00"> Base_Dim, double, ublas</text>
<text text-anchor="middle" x="425.5" y="-7.5" font-family="Helvetica,sans-Serif" font-size="10.00">::row_major, DoubleAllocator &gt;</text>
</a>
</g>
</g>
<!-- Node2&#45;&gt;Node1 -->
<g id="edge1" class="edge">
<title>Node2&#45;&gt;Node1</title>
<path fill="none" stroke="midnightblue" d="M522.09,-26.5C531.06,-26.5 540.12,-26.5 548.99,-26.5"/>
<polygon fill="midnightblue" stroke="midnightblue" points="522,-23 512,-26.5 522,-30 522,-23"/>
</g>
<!-- Node3 -->
<g id="node3" class="node">
<title>Node3</title>
<g id="a_node3"><a xlink:href="structMoFEM_1_1OpCalculateHVecVectorField__General.html" target="_top" xlink:title="Get vector field for H&#45;div approximation.">
<polygon fill="white" stroke="black" points="0,-6 0,-47 173,-47 173,-6 0,-6"/>
<text text-anchor="start" x="8" y="-35" font-family="Helvetica,sans-Serif" font-size="10.00">MoFEM::OpCalculateHVecVector</text>
<text text-anchor="start" x="8" y="-24" font-family="Helvetica,sans-Serif" font-size="10.00">Field_General&lt; Base_Dim,</text>
<text text-anchor="middle" x="86.5" y="-13" font-family="Helvetica,sans-Serif" font-size="10.00"> Field_Dim, T, L, A &gt;</text>
</a>
</g>
</g>
<!-- Node3&#45;&gt;Node2 -->
<g id="edge2" class="edge">
<title>Node3&#45;&gt;Node2</title>
<path fill="none" stroke="orange" stroke-dasharray="5,2" d="M183.68,-26.5C232.55,-26.5 291.44,-26.5 338.75,-26.5"/>
<polygon fill="orange" stroke="orange" points="183.41,-23 173.41,-26.5 183.41,-30 183.41,-23"/>
<text text-anchor="start" x="191" y="-51.5" font-family="Helvetica,sans-Serif" font-size="10.00"> &lt; Base_Dim, Base_Dim,</text>
<text text-anchor="start" x="191" y="-40.5" font-family="Helvetica,sans-Serif" font-size="10.00"> double, ublas::row_major,</text>
<text text-anchor="middle" x="256" y="-29.5" font-family="Helvetica,sans-Serif" font-size="10.00"> DoubleAllocator &gt;</text>
</g>
</g>
</svg>
