<?xml version="1.0" encoding="UTF-8" standalone="no"?>
<!DOCTYPE svg PUBLIC "-//W3C//DTD SVG 1.1//EN"
 "http://www.w3.org/Graphics/SVG/1.1/DTD/svg11.dtd">
<!-- Generated by graphviz version 2.43.0 (0)
 -->
<!-- Title: MoFEM::PetscData Pages: 1 -->
<svg width="1095pt" height="312pt"
 viewBox="0.00 0.00 1095.00 312.00" xmlns="http://www.w3.org/2000/svg" xmlns:xlink="http://www.w3.org/1999/xlink">
<g id="graph0" class="graph" transform="scale(1 1) rotate(0) translate(4 308)">
<title>MoFEM::PetscData</title>
<polygon fill="white" stroke="transparent" points="-4,4 -4,-308 1091,-308 1091,4 -4,4"/>
<!-- Node1 -->
<g id="node1" class="node">
<title>Node1</title>
<g id="a_node1"><a xlink:title=" ">
<polygon fill="#bfbfbf" stroke="black" points="979,-102.5 979,-121.5 1087,-121.5 1087,-102.5 979,-102.5"/>
<text text-anchor="middle" x="1033" y="-109.5" font-family="Helvetica,sans-Serif" font-size="10.00">MoFEM::PetscData</text>
</a>
</g>
</g>
<!-- Node2 -->
<g id="node2" class="node">
<title>Node2</title>
<g id="a_node2"><a xlink:href="structMoFEM_1_1UnknownInterface.html" target="_top" xlink:title="base class for all interface classes">
<polygon fill="white" stroke="black" points="735,-250.5 735,-269.5 883,-269.5 883,-250.5 735,-250.5"/>
<text text-anchor="middle" x="809" y="-257.5" font-family="Helvetica,sans-Serif" font-size="10.00">MoFEM::UnknownInterface</text>
</a>
</g>
</g>
<!-- Node2&#45;&gt;Node1 -->
<g id="edge1" class="edge">
<title>Node2&#45;&gt;Node1</title>
<path fill="none" stroke="midnightblue" d="M893.23,-261.27C916.77,-258.23 941.31,-251.5 961,-238 1003.45,-208.89 1023.44,-145.6 1029.72,-121.54"/>
<polygon fill="midnightblue" stroke="midnightblue" points="892.79,-257.8 883.22,-262.36 893.54,-264.76 892.79,-257.8"/>
</g>
<!-- Node3 -->
<g id="node3" class="node">
<title>Node3</title>
<g id="a_node3"><a xlink:title=" ">
<polygon fill="white" stroke="#bfbfbf" points="386,-228.5 386,-291.5 627,-291.5 627,-228.5 386,-228.5"/>
<text text-anchor="start" x="394" y="-279.5" font-family="Helvetica,sans-Serif" font-size="10.00">multi_index_container</text>
<text text-anchor="start" x="394" y="-268.5" font-family="Helvetica,sans-Serif" font-size="10.00">&lt; UIdTypeMap, indexed</text>
<text text-anchor="start" x="394" y="-257.5" font-family="Helvetica,sans-Serif" font-size="10.00">_by&lt; hashed_unique&lt; member</text>
<text text-anchor="start" x="394" y="-246.5" font-family="Helvetica,sans-Serif" font-size="10.00">&lt; UIdTypeMap, boost::typeindex</text>
<text text-anchor="middle" x="506.5" y="-235.5" font-family="Helvetica,sans-Serif" font-size="10.00">::type_index, &amp;UIdTypeMap::classIdx &gt; &gt; &gt; &gt;</text>
</a>
</g>
</g>
<!-- Node3&#45;&gt;Node2 -->
<g id="edge2" class="edge">
<title>Node3&#45;&gt;Node2</title>
<path fill="none" stroke="#9a32cd" stroke-dasharray="5,2" d="M637.41,-260C670.69,-260 705.33,-260 734.62,-260"/>
<polygon fill="#9a32cd" stroke="#9a32cd" points="637.13,-256.5 627.13,-260 637.13,-263.5 637.13,-256.5"/>
<text text-anchor="middle" x="681" y="-263" font-family="Helvetica,sans-Serif" font-size="10.00"> iFaceTypeMap</text>
</g>
<!-- Node4 -->
<g id="node4" class="node">
<title>Node4</title>
<g id="a_node4"><a xlink:title=" ">
<polygon fill="white" stroke="#bfbfbf" points="0,-250.5 0,-269.5 125,-269.5 125,-250.5 0,-250.5"/>
<text text-anchor="middle" x="62.5" y="-257.5" font-family="Helvetica,sans-Serif" font-size="10.00">multi_index_container</text>
</a>
</g>
</g>
<!-- Node4&#45;&gt;Node3 -->
<g id="edge3" class="edge">
<title>Node4&#45;&gt;Node3</title>
<path fill="none" stroke="orange" stroke-dasharray="5,2" d="M135.56,-260C203.25,-260 305.79,-260 385.77,-260"/>
<polygon fill="orange" stroke="orange" points="135.42,-256.5 125.42,-260 135.42,-263.5 135.42,-256.5"/>
<text text-anchor="start" x="143" y="-296" font-family="Helvetica,sans-Serif" font-size="10.00"> &lt; UIdTypeMap, indexed</text>
<text text-anchor="start" x="143" y="-285" font-family="Helvetica,sans-Serif" font-size="10.00">_by&lt; hashed_unique&lt; member</text>
<text text-anchor="start" x="143" y="-274" font-family="Helvetica,sans-Serif" font-size="10.00">&lt; UIdTypeMap, boost::typeindex</text>
<text text-anchor="middle" x="255.5" y="-263" font-family="Helvetica,sans-Serif" font-size="10.00">::type_index, &amp;UIdTypeMap::classIdx &gt; &gt; &gt; &gt;</text>
</g>
<!-- Node5 -->
<g id="node5" class="node">
<title>Node5</title>
<g id="a_node5"><a xlink:title=" ">
<polygon fill="white" stroke="#bfbfbf" points="738.5,-147.5 738.5,-166.5 879.5,-166.5 879.5,-147.5 738.5,-147.5"/>
<text text-anchor="middle" x="809" y="-154.5" font-family="Helvetica,sans-Serif" font-size="10.00">static constexpr Switches</text>
</a>
</g>
</g>
<!-- Node5&#45;&gt;Node1 -->
<g id="edge4" class="edge">
<title>Node5&#45;&gt;Node1</title>
<path fill="none" stroke="#9a32cd" stroke-dasharray="5,2" d="M889.74,-147.94C912.87,-144.63 938.08,-140.34 961,-135 976.14,-131.47 992.69,-126.2 1006,-121.59"/>
<polygon fill="#9a32cd" stroke="#9a32cd" points="889.04,-144.51 879.62,-149.35 890,-151.44 889.04,-144.51"/>
<text text-anchor="middle" x="931" y="-226" font-family="Helvetica,sans-Serif" font-size="10.00"> CtxSetX_TT</text>
<text text-anchor="middle" x="931" y="-215" font-family="Helvetica,sans-Serif" font-size="10.00">CtxSetX_T</text>
<text text-anchor="middle" x="931" y="-204" font-family="Helvetica,sans-Serif" font-size="10.00">CtxSetA</text>
<text text-anchor="middle" x="931" y="-193" font-family="Helvetica,sans-Serif" font-size="10.00">CtxSetB</text>
<text text-anchor="middle" x="931" y="-182" font-family="Helvetica,sans-Serif" font-size="10.00">CtxSetTime</text>
<text text-anchor="middle" x="931" y="-171" font-family="Helvetica,sans-Serif" font-size="10.00">CtxSetNone</text>
<text text-anchor="middle" x="931" y="-160" font-family="Helvetica,sans-Serif" font-size="10.00">CtxSetF</text>
<text text-anchor="middle" x="931" y="-149" font-family="Helvetica,sans-Serif" font-size="10.00">CtxSetX</text>
</g>
<!-- Node6 -->
<g id="node6" class="node">
<title>Node6</title>
<g id="a_node6"><a xlink:title=" ">
<polygon fill="white" stroke="#bfbfbf" points="791.5,-103.5 791.5,-122.5 826.5,-122.5 826.5,-103.5 791.5,-103.5"/>
<text text-anchor="middle" x="809" y="-110.5" font-family="Helvetica,sans-Serif" font-size="10.00">Mat</text>
</a>
</g>
</g>
<!-- Node6&#45;&gt;Node1 -->
<g id="edge5" class="edge">
<title>Node6&#45;&gt;Node1</title>
<path fill="none" stroke="#9a32cd" stroke-dasharray="5,2" d="M837.08,-112.88C872.16,-112.72 934.12,-112.44 978.78,-112.24"/>
<polygon fill="#9a32cd" stroke="#9a32cd" points="836.67,-109.38 826.69,-112.92 836.7,-116.38 836.67,-109.38"/>
<text text-anchor="middle" x="931" y="-127" font-family="Helvetica,sans-Serif" font-size="10.00"> A</text>
<text text-anchor="middle" x="931" y="-116" font-family="Helvetica,sans-Serif" font-size="10.00">B</text>
</g>
<!-- Node7 -->
<g id="node7" class="node">
<title>Node7</title>
<g id="a_node7"><a xlink:title=" ">
<polygon fill="white" stroke="#bfbfbf" points="772.5,-65.5 772.5,-84.5 845.5,-84.5 845.5,-65.5 772.5,-65.5"/>
<text text-anchor="middle" x="809" y="-72.5" font-family="Helvetica,sans-Serif" font-size="10.00">bitset&lt; 8 &gt;</text>
</a>
</g>
</g>
<!-- Node7&#45;&gt;Node1 -->
<g id="edge6" class="edge">
<title>Node7&#45;&gt;Node1</title>
<path fill="none" stroke="#9a32cd" stroke-dasharray="5,2" d="M855.93,-81.47C885.89,-85.81 925.83,-91.86 961,-98 968.8,-99.36 977.06,-100.9 985.08,-102.45"/>
<polygon fill="#9a32cd" stroke="#9a32cd" points="856.16,-77.96 845.77,-80 855.17,-84.89 856.16,-77.96"/>
<text text-anchor="middle" x="931" y="-101" font-family="Helvetica,sans-Serif" font-size="10.00"> data_ctx</text>
</g>
<!-- Node8 -->
<g id="node8" class="node">
<title>Node8</title>
<g id="a_node8"><a xlink:title=" ">
<polygon fill="white" stroke="#bfbfbf" points="792,-0.5 792,-19.5 826,-19.5 826,-0.5 792,-0.5"/>
<text text-anchor="middle" x="809" y="-7.5" font-family="Helvetica,sans-Serif" font-size="10.00">Vec</text>
</a>
</g>
</g>
<!-- Node8&#45;&gt;Node1 -->
<g id="edge7" class="edge">
<title>Node8&#45;&gt;Node1</title>
<path fill="none" stroke="#9a32cd" stroke-dasharray="5,2" d="M836.13,-10.84C867.52,-12.84 920.95,-19.44 961,-41 989.55,-56.37 1014.09,-86.89 1025.38,-102.43"/>
<polygon fill="#9a32cd" stroke="#9a32cd" points="836.18,-7.34 826.01,-10.31 835.81,-14.33 836.18,-7.34"/>
<text text-anchor="middle" x="931" y="-77" font-family="Helvetica,sans-Serif" font-size="10.00"> f</text>
<text text-anchor="middle" x="931" y="-66" font-family="Helvetica,sans-Serif" font-size="10.00">x</text>
<text text-anchor="middle" x="931" y="-55" font-family="Helvetica,sans-Serif" font-size="10.00">x_t</text>
<text text-anchor="middle" x="931" y="-44" font-family="Helvetica,sans-Serif" font-size="10.00">x_tt</text>
</g>
</g>
</svg>
