<?xml version="1.0" encoding="UTF-8" standalone="no"?>
<!DOCTYPE svg PUBLIC "-//W3C//DTD SVG 1.1//EN"
 "http://www.w3.org/Graphics/SVG/1.1/DTD/svg11.dtd">
<!-- Generated by graphviz version 2.43.0 (0)
 -->
<!-- Title: NavierStokesElement::OpAssembleRhs Pages: 1 -->
<svg width="849pt" height="137pt"
 viewBox="0.00 0.00 849.00 137.00" xmlns="http://www.w3.org/2000/svg" xmlns:xlink="http://www.w3.org/1999/xlink">
<g id="graph0" class="graph" transform="scale(1 1) rotate(0) translate(4 133)">
<title>NavierStokesElement::OpAssembleRhs</title>
<polygon fill="white" stroke="transparent" points="-4,4 -4,-133 845,-133 845,4 -4,4"/>
<!-- Node1 -->
<g id="node1" class="node">
<title>Node1</title>
<g id="a_node1"><a xlink:title="Base class for operators assembling RHS.">
<polygon fill="#bfbfbf" stroke="black" points="508,-49.5 508,-79.5 630,-79.5 630,-49.5 508,-49.5"/>
<text text-anchor="start" x="516" y="-67.5" font-family="Helvetica,sans-Serif" font-size="10.00">NavierStokesElement</text>
<text text-anchor="middle" x="569" y="-56.5" font-family="Helvetica,sans-Serif" font-size="10.00">::OpAssembleRhs</text>
</a>
</g>
</g>
<!-- Node5 -->
<g id="node5" class="node">
<title>Node5</title>
<g id="a_node5"><a xlink:href="structNavierStokesElement_1_1OpAssembleRhsPressure.html" target="_top" xlink:title="Assemble the pressure component of the RHS vector.">
<polygon fill="white" stroke="black" points="681.5,-98.5 681.5,-128.5 825.5,-128.5 825.5,-98.5 681.5,-98.5"/>
<text text-anchor="start" x="689.5" y="-116.5" font-family="Helvetica,sans-Serif" font-size="10.00">NavierStokesElement</text>
<text text-anchor="middle" x="753.5" y="-105.5" font-family="Helvetica,sans-Serif" font-size="10.00">::OpAssembleRhsPressure</text>
</a>
</g>
</g>
<!-- Node1&#45;&gt;Node5 -->
<g id="edge4" class="edge">
<title>Node1&#45;&gt;Node5</title>
<path fill="none" stroke="midnightblue" d="M636.1,-82.25C655.88,-87.56 677.37,-93.33 696.44,-98.45"/>
<polygon fill="midnightblue" stroke="midnightblue" points="636.81,-78.81 626.25,-79.6 635,-85.57 636.81,-78.81"/>
</g>
<!-- Node6 -->
<g id="node6" class="node">
<title>Node6</title>
<g id="a_node6"><a xlink:href="structNavierStokesElement_1_1OpAssembleRhsVelocityLin.html" target="_top" xlink:title="Assemble linear part of the velocity component of the RHS vector.">
<polygon fill="white" stroke="black" points="676,-49.5 676,-79.5 831,-79.5 831,-49.5 676,-49.5"/>
<text text-anchor="start" x="684" y="-67.5" font-family="Helvetica,sans-Serif" font-size="10.00">NavierStokesElement</text>
<text text-anchor="middle" x="753.5" y="-56.5" font-family="Helvetica,sans-Serif" font-size="10.00">::OpAssembleRhsVelocityLin</text>
</a>
</g>
</g>
<!-- Node1&#45;&gt;Node6 -->
<g id="edge5" class="edge">
<title>Node1&#45;&gt;Node6</title>
<path fill="none" stroke="midnightblue" d="M640.13,-64.5C651.82,-64.5 664,-64.5 675.84,-64.5"/>
<polygon fill="midnightblue" stroke="midnightblue" points="640.01,-61 630.01,-64.5 640.01,-68 640.01,-61"/>
</g>
<!-- Node7 -->
<g id="node7" class="node">
<title>Node7</title>
<g id="a_node7"><a xlink:href="structNavierStokesElement_1_1OpAssembleRhsVelocityNonLin.html" target="_top" xlink:title="Assemble non&#45;linear part of the velocity component of the RHS vector.">
<polygon fill="white" stroke="black" points="666,-0.5 666,-30.5 841,-30.5 841,-0.5 666,-0.5"/>
<text text-anchor="start" x="674" y="-18.5" font-family="Helvetica,sans-Serif" font-size="10.00">NavierStokesElement</text>
<text text-anchor="middle" x="753.5" y="-7.5" font-family="Helvetica,sans-Serif" font-size="10.00">::OpAssembleRhsVelocityNonLin</text>
</a>
</g>
</g>
<!-- Node1&#45;&gt;Node7 -->
<g id="edge6" class="edge">
<title>Node1&#45;&gt;Node7</title>
<path fill="none" stroke="midnightblue" d="M636.1,-46.75C655.88,-41.44 677.37,-35.67 696.44,-30.55"/>
<polygon fill="midnightblue" stroke="midnightblue" points="635,-43.43 626.25,-49.4 636.81,-50.19 635,-43.43"/>
</g>
<!-- Node2 -->
<g id="node2" class="node">
<title>Node2</title>
<g id="a_node2"><a xlink:href="structMoFEM_1_1VolumeElementForcesAndSourcesCore_1_1UserDataOperator.html" target="_top" xlink:title=" ">
<polygon fill="white" stroke="black" points="367,-55 367,-74 472,-74 472,-55 367,-55"/>
<text text-anchor="middle" x="419.5" y="-62" font-family="Helvetica,sans-Serif" font-size="10.00">UserDataOperator</text>
</a>
</g>
</g>
<!-- Node2&#45;&gt;Node1 -->
<g id="edge1" class="edge">
<title>Node2&#45;&gt;Node1</title>
<path fill="none" stroke="midnightblue" d="M482.27,-64.5C490.73,-64.5 499.41,-64.5 507.84,-64.5"/>
<polygon fill="midnightblue" stroke="midnightblue" points="482.09,-61 472.09,-64.5 482.09,-68 482.09,-61"/>
</g>
<!-- Node3 -->
<g id="node3" class="node">
<title>Node3</title>
<g id="a_node3"><a xlink:href="structMoFEM_1_1ForcesAndSourcesCore_1_1UserDataOperator.html" target="_top" xlink:title=" ">
<polygon fill="white" stroke="black" points="161,-49.5 161,-79.5 331,-79.5 331,-49.5 161,-49.5"/>
<text text-anchor="start" x="169" y="-67.5" font-family="Helvetica,sans-Serif" font-size="10.00">MoFEM::ForcesAndSourcesCore</text>
<text text-anchor="middle" x="246" y="-56.5" font-family="Helvetica,sans-Serif" font-size="10.00">::UserDataOperator</text>
</a>
</g>
</g>
<!-- Node3&#45;&gt;Node2 -->
<g id="edge2" class="edge">
<title>Node3&#45;&gt;Node2</title>
<path fill="none" stroke="midnightblue" d="M341.52,-64.5C350.25,-64.5 358.86,-64.5 366.97,-64.5"/>
<polygon fill="midnightblue" stroke="midnightblue" points="341.24,-61 331.24,-64.5 341.24,-68 341.24,-61"/>
</g>
<!-- Node4 -->
<g id="node4" class="node">
<title>Node4</title>
<g id="a_node4"><a xlink:href="structMoFEM_1_1DataOperator.html" target="_top" xlink:title="base operator to do operations at Gauss Pt. level">
<polygon fill="white" stroke="black" points="0,-55 0,-74 125,-74 125,-55 0,-55"/>
<text text-anchor="middle" x="62.5" y="-62" font-family="Helvetica,sans-Serif" font-size="10.00">MoFEM::DataOperator</text>
</a>
</g>
</g>
<!-- Node4&#45;&gt;Node3 -->
<g id="edge3" class="edge">
<title>Node4&#45;&gt;Node3</title>
<path fill="none" stroke="midnightblue" d="M135.34,-64.5C143.75,-64.5 152.4,-64.5 160.97,-64.5"/>
<polygon fill="midnightblue" stroke="midnightblue" points="135.2,-61 125.2,-64.5 135.2,-68 135.2,-61"/>
</g>
</g>
</svg>
