<?xml version="1.0" encoding="UTF-8" standalone="no"?>
<!DOCTYPE svg PUBLIC "-//W3C//DTD SVG 1.1//EN"
 "http://www.w3.org/Graphics/SVG/1.1/DTD/svg11.dtd">
<!-- Generated by graphviz version 2.43.0 (0)
 -->
<!-- Title: PoissonExample::OpC Pages: 1 -->
<!--zoomable 1369 -->
<svg id="main" version="1.1" xmlns="http://www.w3.org/2000/svg" xmlns:xlink="http://www.w3.org/1999/xlink" xml:space="preserve" onload="init(evt)">
<style type="text/css"><![CDATA[
.edge:hover path { stroke: red; }
.edge:hover polygon { stroke: red; fill: red; }
]]></style>
<script type="text/javascript"><![CDATA[
var edges = document.getElementsByTagName('g');
if (edges && edges.length) {
  for (var i=0;i<edges.length;i++) {
    if (edges[i].id.substr(0,4)=='edge') {
      edges[i].setAttribute('class','edge');
    }
  }
}
]]></script>
        <defs>
                <circle id="rim" cx="0" cy="0" r="7"/>
                <circle id="rim2" cx="0" cy="0" r="3.5"/>
                <g id="zoomPlus">
                        <use xlink:href="#rim" fill="#404040">
                                <set attributeName="fill" to="#808080" begin="zoomplus.mouseover" end="zoomplus.mouseout"/>
                        </use>
                        <path d="M-4,0h8M0,-4v8" fill="none" stroke="white" stroke-width="1.5" pointer-events="none"/>
                </g>
                <g id="zoomMin">
                        <use xlink:href="#rim" fill="#404040">
                                <set attributeName="fill" to="#808080" begin="zoomminus.mouseover" end="zoomminus.mouseout"/>
                        </use>
                        <path d="M-4,0h8" fill="none" stroke="white" stroke-width="1.5" pointer-events="none"/>
                </g>
                <g id="dirArrow">
                        <path fill="none" stroke="white" stroke-width="1.5" d="M0,-3.0v7 M-2.5,-0.5L0,-3.0L2.5,-0.5"/>
                </g>
               <g id="resetDef">
                       <use xlink:href="#rim2" fill="#404040">
                               <set attributeName="fill" to="#808080" begin="reset.mouseover" end="reset.mouseout"/>
                       </use>
               </g>
        </defs>

<script type="text/javascript">
var viewWidth = 3439;
var viewHeight = 1369;
var sectionId = 'dynsection-1';
</script>
<script xlink:href="svgpan.js"/>
<svg id="graph" class="graph">
<g id="viewport">
<title>PoissonExample::OpC</title>
<polygon fill="white" stroke="transparent" points="-4,4 -4,-1365 3435,-1365 3435,4 -4,4"/>
<!-- Node1 -->
<g id="node1" class="node">
<title>Node1</title>
<g id="a_node1"><a xlink:title="Calculate constrains matrix.">
<polygon fill="#bfbfbf" stroke="black" points="3308,-62.5 3308,-81.5 3431,-81.5 3431,-62.5 3308,-62.5"/>
<text text-anchor="middle" x="3369.5" y="-69.5" font-family="Helvetica,sans-Serif" font-size="10.00">PoissonExample::OpC</text>
</a>
</g>
</g>
<!-- Node2 -->
<g id="node2" class="node">
<title>Node2</title>
<g id="a_node2"><a xlink:href="structMoFEM_1_1FaceElementForcesAndSourcesCore_1_1UserDataOperator.html" target="_top" xlink:title="default operator for TRI element">
<polygon fill="white" stroke="black" points="3044,-371 3044,-401 3235,-401 3235,-371 3044,-371"/>
<text text-anchor="start" x="3052" y="-389" font-family="Helvetica,sans-Serif" font-size="10.00">MoFEM::FaceElementForces</text>
<text text-anchor="middle" x="3139.5" y="-378" font-family="Helvetica,sans-Serif" font-size="10.00">AndSourcesCore::UserDataOperator</text>
</a>
</g>
</g>
<!-- Node2&#45;&gt;Node1 -->
<g id="edge1" class="edge">
<title>Node2&#45;&gt;Node1</title>
<path fill="none" stroke="midnightblue" d="M3157.46,-362.64C3203.65,-299.03 3330.29,-124.62 3361.49,-81.66"/>
<polygon fill="midnightblue" stroke="midnightblue" points="3154.54,-360.71 3151.5,-370.86 3160.2,-364.82 3154.54,-360.71"/>
</g>
<!-- Node3 -->
<g id="node3" class="node">
<title>Node3</title>
<g id="a_node3"><a xlink:href="structMoFEM_1_1ForcesAndSourcesCore_1_1UserDataOperator.html" target="_top" xlink:title=" ">
<polygon fill="white" stroke="black" points="2837,-578 2837,-608 3007,-608 3007,-578 2837,-578"/>
<text text-anchor="start" x="2845" y="-596" font-family="Helvetica,sans-Serif" font-size="10.00">MoFEM::ForcesAndSourcesCore</text>
<text text-anchor="middle" x="2922" y="-585" font-family="Helvetica,sans-Serif" font-size="10.00">::UserDataOperator</text>
</a>
</g>
</g>
<!-- Node3&#45;&gt;Node2 -->
<g id="edge2" class="edge">
<title>Node3&#45;&gt;Node2</title>
<path fill="none" stroke="midnightblue" d="M2946.21,-570.7C2990.28,-528.37 3085.01,-437.38 3122.63,-401.24"/>
<polygon fill="midnightblue" stroke="midnightblue" points="2943.63,-568.33 2938.85,-577.78 2948.48,-573.38 2943.63,-568.33"/>
</g>
<!-- Node4 -->
<g id="node4" class="node">
<title>Node4</title>
<g id="a_node4"><a xlink:href="structMoFEM_1_1DataOperator.html" target="_top" xlink:title="base operator to do operations at Gauss Pt. level">
<polygon fill="white" stroke="black" points="2579.5,-254.5 2579.5,-273.5 2704.5,-273.5 2704.5,-254.5 2579.5,-254.5"/>
<text text-anchor="middle" x="2642" y="-261.5" font-family="Helvetica,sans-Serif" font-size="10.00">MoFEM::DataOperator</text>
</a>
</g>
</g>
<!-- Node4&#45;&gt;Node3 -->
<g id="edge3" class="edge">
<title>Node4&#45;&gt;Node3</title>
<path fill="none" stroke="midnightblue" d="M2658.01,-281.77C2707.13,-339.89 2862.47,-523.73 2908.21,-577.86"/>
<polygon fill="midnightblue" stroke="midnightblue" points="2660.45,-279.23 2651.32,-273.85 2655.1,-283.74 2660.45,-279.23"/>
</g>
<!-- Node5 -->
<g id="node5" class="node">
<title>Node5</title>
<g id="a_node5"><a xlink:title=" ">
<polygon fill="white" stroke="#bfbfbf" points="2160,-196 2160,-248 2352,-248 2352,-196 2160,-196"/>
<text text-anchor="start" x="2168" y="-236" font-family="Helvetica,sans-Serif" font-size="10.00">function&lt; MoFEMErrorCode</text>
<text text-anchor="start" x="2168" y="-225" font-family="Helvetica,sans-Serif" font-size="10.00">(DataOperator *op_ptr,</text>
<text text-anchor="start" x="2168" y="-214" font-family="Helvetica,sans-Serif" font-size="10.00"> int side, EntityType type,</text>
<text text-anchor="middle" x="2256" y="-203" font-family="Helvetica,sans-Serif" font-size="10.00"> EntitiesFieldData::EntData &amp;data)&gt;</text>
</a>
</g>
</g>
<!-- Node5&#45;&gt;Node4 -->
<g id="edge4" class="edge">
<title>Node5&#45;&gt;Node4</title>
<path fill="none" stroke="#9a32cd" stroke-dasharray="5,2" d="M2362.38,-240.06C2367.32,-240.75 2372.21,-241.4 2377,-242 2446.03,-250.61 2525.64,-256.73 2579.24,-260.29"/>
<polygon fill="#9a32cd" stroke="#9a32cd" points="2362.6,-236.56 2352.2,-238.6 2361.6,-243.49 2362.6,-236.56"/>
<text text-anchor="middle" x="2458" y="-260" font-family="Helvetica,sans-Serif" font-size="10.00"> doWorkRhsHook</text>
</g>
<!-- Node6 -->
<g id="node6" class="node">
<title>Node6</title>
<g id="a_node6"><a xlink:href="classbool.html" target="_top" xlink:title=" ">
<polygon fill="white" stroke="black" points="2237,-156.5 2237,-175.5 2275,-175.5 2275,-156.5 2237,-156.5"/>
<text text-anchor="middle" x="2256" y="-163.5" font-family="Helvetica,sans-Serif" font-size="10.00">bool</text>
</a>
</g>
</g>
<!-- Node6&#45;&gt;Node1 -->
<g id="edge85" class="edge">
<title>Node6&#45;&gt;Node1</title>
<path fill="none" stroke="#9a32cd" stroke-dasharray="5,2" d="M2285.29,-167.33C2307.45,-166.93 2337.94,-163.04 2359,-147 2373.55,-135.92 2361.76,-120.11 2377,-110 2425.96,-77.53 2582.25,-96 2641,-96 2641,-96 2641,-96 3140.5,-96 3198.41,-96 3264.15,-88.25 3310.1,-81.55"/>
<polygon fill="#9a32cd" stroke="#9a32cd" points="2285.18,-163.83 2275.16,-167.28 2285.15,-170.83 2285.18,-163.83"/>
<text text-anchor="middle" x="2922" y="-99" font-family="Helvetica,sans-Serif" font-size="10.00"> assembleTranspose</text>
</g>
<!-- Node6&#45;&gt;Node4 -->
<g id="edge5" class="edge">
<title>Node6&#45;&gt;Node4</title>
<path fill="none" stroke="#9a32cd" stroke-dasharray="5,2" d="M2285.54,-162.63C2347.81,-155.74 2493.92,-142.2 2539,-161 2585.69,-180.47 2621.94,-232.86 2635.36,-254.48"/>
<polygon fill="#9a32cd" stroke="#9a32cd" points="2284.81,-159.19 2275.27,-163.79 2285.6,-166.15 2284.81,-159.19"/>
<text text-anchor="middle" x="2458" y="-230" font-family="Helvetica,sans-Serif" font-size="10.00"> doTris</text>
<text text-anchor="middle" x="2458" y="-219" font-family="Helvetica,sans-Serif" font-size="10.00">doQuads</text>
<text text-anchor="middle" x="2458" y="-208" font-family="Helvetica,sans-Serif" font-size="10.00">sYmm</text>
<text text-anchor="middle" x="2458" y="-197" font-family="Helvetica,sans-Serif" font-size="10.00">doPrisms</text>
<text text-anchor="middle" x="2458" y="-186" font-family="Helvetica,sans-Serif" font-size="10.00">doTets</text>
<text text-anchor="middle" x="2458" y="-175" font-family="Helvetica,sans-Serif" font-size="10.00">doVertices</text>
<text text-anchor="middle" x="2458" y="-164" font-family="Helvetica,sans-Serif" font-size="10.00">doEdges</text>
</g>
<!-- Node7 -->
<g id="node7" class="node">
<title>Node7</title>
<g id="a_node7"><a xlink:title=" ">
<polygon fill="white" stroke="#bfbfbf" points="2153,-267.5 2153,-352.5 2359,-352.5 2359,-267.5 2153,-267.5"/>
<text text-anchor="start" x="2161" y="-340.5" font-family="Helvetica,sans-Serif" font-size="10.00">function&lt; MoFEMErrorCode</text>
<text text-anchor="start" x="2161" y="-329.5" font-family="Helvetica,sans-Serif" font-size="10.00">(DataOperator *op_ptr,</text>
<text text-anchor="start" x="2161" y="-318.5" font-family="Helvetica,sans-Serif" font-size="10.00"> int row_side, int col_side,</text>
<text text-anchor="start" x="2161" y="-307.5" font-family="Helvetica,sans-Serif" font-size="10.00"> EntityType row_type, EntityType</text>
<text text-anchor="start" x="2161" y="-296.5" font-family="Helvetica,sans-Serif" font-size="10.00"> col_type, EntitiesFieldData::EntData</text>
<text text-anchor="start" x="2161" y="-285.5" font-family="Helvetica,sans-Serif" font-size="10.00"> &amp;row_data, EntitiesFieldData::EntData</text>
<text text-anchor="middle" x="2256" y="-274.5" font-family="Helvetica,sans-Serif" font-size="10.00"> &amp;col_data)&gt;</text>
</a>
</g>
</g>
<!-- Node7&#45;&gt;Node4 -->
<g id="edge6" class="edge">
<title>Node7&#45;&gt;Node4</title>
<path fill="none" stroke="#9a32cd" stroke-dasharray="5,2" d="M2369.14,-296.57C2437.68,-288.36 2522.76,-278.16 2579.3,-271.39"/>
<polygon fill="#9a32cd" stroke="#9a32cd" points="2368.66,-293.1 2359.15,-297.76 2369.49,-300.05 2368.66,-293.1"/>
<text text-anchor="middle" x="2458" y="-298" font-family="Helvetica,sans-Serif" font-size="10.00"> doWorkLhsHook</text>
</g>
<!-- Node8 -->
<g id="node8" class="node">
<title>Node8</title>
<g id="a_node8"><a xlink:title=" ">
<polygon fill="white" stroke="#bfbfbf" points="2179,-118.5 2179,-137.5 2333,-137.5 2333,-118.5 2179,-118.5"/>
<text text-anchor="middle" x="2256" y="-125.5" font-family="Helvetica,sans-Serif" font-size="10.00">array&lt; bool, MBMAXTYPE &gt;</text>
</a>
</g>
</g>
<!-- Node8&#45;&gt;Node4 -->
<g id="edge7" class="edge">
<title>Node8&#45;&gt;Node4</title>
<path fill="none" stroke="#9a32cd" stroke-dasharray="5,2" d="M2311.71,-116.83C2371.04,-107.56 2466.91,-101.01 2539,-137 2591.12,-163.02 2625.41,-229.4 2636.81,-254.34"/>
<polygon fill="#9a32cd" stroke="#9a32cd" points="2311.09,-113.39 2301.79,-118.46 2312.23,-120.29 2311.09,-113.39"/>
<text text-anchor="middle" x="2458" y="-140" font-family="Helvetica,sans-Serif" font-size="10.00"> doEntities</text>
</g>
<!-- Node9 -->
<g id="node9" class="node">
<title>Node9</title>
<g id="a_node9"><a xlink:title=" ">
<polygon fill="white" stroke="#bfbfbf" points="2607.5,-545.5 2607.5,-564.5 2676.5,-564.5 2676.5,-545.5 2607.5,-545.5"/>
<text text-anchor="middle" x="2642" y="-552.5" font-family="Helvetica,sans-Serif" font-size="10.00">FieldSpace</text>
</a>
</g>
</g>
<!-- Node9&#45;&gt;Node3 -->
<g id="edge8" class="edge">
<title>Node9&#45;&gt;Node3</title>
<path fill="none" stroke="#9a32cd" stroke-dasharray="5,2" d="M2686.82,-560.53C2722.45,-565.07 2774,-571.75 2819,-578 2824.85,-578.81 2830.89,-579.66 2836.97,-580.53"/>
<polygon fill="#9a32cd" stroke="#9a32cd" points="2687.12,-557.04 2676.76,-559.25 2686.24,-563.98 2687.12,-557.04"/>
<text text-anchor="middle" x="2782" y="-581" font-family="Helvetica,sans-Serif" font-size="10.00"> sPace</text>
</g>
<!-- Node10 -->
<g id="node10" class="node">
<title>Node10</title>
<g id="a_node10"><a xlink:title=" ">
<polygon fill="white" stroke="#bfbfbf" points="1122.5,-1221.5 1122.5,-1240.5 1160.5,-1240.5 1160.5,-1221.5 1122.5,-1221.5"/>
<text text-anchor="middle" x="1141.5" y="-1228.5" font-family="Helvetica,sans-Serif" font-size="10.00">char</text>
</a>
</g>
</g>
<!-- Node10&#45;&gt;Node3 -->
<g id="edge9" class="edge">
<title>Node10&#45;&gt;Node3</title>
<path fill="none" stroke="#9a32cd" stroke-dasharray="5,2" d="M1170.82,-1231.54C1230.98,-1232.63 1375.94,-1235 1497.5,-1235 1497.5,-1235 1497.5,-1235 2643,-1235 2784.2,-1235 2898.23,-705.46 2917.97,-608.24"/>
<polygon fill="#9a32cd" stroke="#9a32cd" points="1170.66,-1228.03 1160.6,-1231.35 1170.54,-1235.03 1170.66,-1228.03"/>
<text text-anchor="middle" x="2063" y="-1238" font-family="Helvetica,sans-Serif" font-size="10.00"> opType</text>
</g>
<!-- Node38 -->
<g id="node38" class="node">
<title>Node38</title>
<g id="a_node38"><a xlink:href="structMoFEM_1_1Problem.html" target="_top" xlink:title="keeps basic data about problem">
<polygon fill="white" stroke="black" points="1449,-912.5 1449,-931.5 1548,-931.5 1548,-912.5 1449,-912.5"/>
<text text-anchor="middle" x="1498.5" y="-919.5" font-family="Helvetica,sans-Serif" font-size="10.00">MoFEM::Problem</text>
</a>
</g>
</g>
<!-- Node10&#45;&gt;Node38 -->
<g id="edge53" class="edge">
<title>Node10&#45;&gt;Node38</title>
<path fill="none" stroke="#9a32cd" stroke-dasharray="5,2" d="M1170.41,-1225.99C1194.41,-1221.7 1229.98,-1215.37 1261,-1210 1291.2,-1204.77 1376.37,-1209.67 1397,-1187 1433.88,-1146.45 1379.32,-982.61 1415,-941 1423.51,-931.07 1436.08,-925.75 1448.85,-923.03"/>
<polygon fill="#9a32cd" stroke="#9a32cd" points="1169.79,-1222.55 1160.56,-1227.75 1171.02,-1229.44 1169.79,-1222.55"/>
<text text-anchor="middle" x="1329" y="-1213" font-family="Helvetica,sans-Serif" font-size="10.00"> tagName</text>
</g>
<!-- Node11 -->
<g id="node11" class="node">
<title>Node11</title>
<g id="a_node11"><a xlink:href="structMoFEM_1_1ForcesAndSourcesCore.html" target="_top" xlink:title="structure to get information form mofem into EntitiesFieldData">
<polygon fill="white" stroke="black" points="2557,-621.5 2557,-640.5 2727,-640.5 2727,-621.5 2557,-621.5"/>
<text text-anchor="middle" x="2642" y="-628.5" font-family="Helvetica,sans-Serif" font-size="10.00">MoFEM::ForcesAndSourcesCore</text>
</a>
</g>
</g>
<!-- Node11&#45;&gt;Node3 -->
<g id="edge10" class="edge">
<title>Node11&#45;&gt;Node3</title>
<path fill="none" stroke="#9a32cd" stroke-dasharray="5,2" d="M2722.84,-620.13C2752.98,-616.02 2787.57,-611.3 2819,-607 2824.84,-606.2 2830.88,-605.37 2836.95,-604.54"/>
<polygon fill="#9a32cd" stroke="#9a32cd" points="2722.24,-616.68 2712.81,-621.5 2723.19,-623.61 2722.24,-616.68"/>
<text text-anchor="middle" x="2782" y="-619" font-family="Helvetica,sans-Serif" font-size="10.00"> ptrFE</text>
</g>
<!-- Node11&#45;&gt;Node11 -->
<g id="edge68" class="edge">
<title>Node11&#45;&gt;Node11</title>
<path fill="none" stroke="#9a32cd" stroke-dasharray="5,2" d="M2615.96,-650.03C2617.38,-655.13 2626.06,-659 2642,-659 2666.88,-659 2674.08,-649.57 2663.58,-640.76"/>
<polygon fill="#9a32cd" stroke="#9a32cd" points="2619.24,-651.29 2620.42,-640.76 2612.93,-648.25 2619.24,-651.29"/>
<text text-anchor="middle" x="2642" y="-673" font-family="Helvetica,sans-Serif" font-size="10.00"> sidePtrFE</text>
<text text-anchor="middle" x="2642" y="-662" font-family="Helvetica,sans-Serif" font-size="10.00">refinePtrFE</text>
</g>
<!-- Node12 -->
<g id="node12" class="node">
<title>Node12</title>
<g id="a_node12"><a xlink:href="structMoFEM_1_1FEMethod.html" target="_top" xlink:title="structure for User Loop Methods on finite elements">
<polygon fill="white" stroke="black" points="2202.5,-852.5 2202.5,-871.5 2309.5,-871.5 2309.5,-852.5 2202.5,-852.5"/>
<text text-anchor="middle" x="2256" y="-859.5" font-family="Helvetica,sans-Serif" font-size="10.00">MoFEM::FEMethod</text>
</a>
</g>
</g>
<!-- Node12&#45;&gt;Node11 -->
<g id="edge11" class="edge">
<title>Node12&#45;&gt;Node11</title>
<path fill="none" stroke="midnightblue" d="M2319.97,-870.59C2381.33,-875.55 2474.55,-873.64 2539,-829 2607.66,-781.44 2633.07,-673.18 2639.34,-640.51"/>
<polygon fill="midnightblue" stroke="midnightblue" points="2319.93,-867.08 2309.65,-869.67 2319.3,-874.05 2319.93,-867.08"/>
</g>
<!-- Node13 -->
<g id="node13" class="node">
<title>Node13</title>
<g id="a_node13"><a xlink:href="structMoFEM_1_1BasicMethod.html" target="_top" xlink:title="Data structure to exchange data between mofem and User Loop Methods.">
<polygon fill="white" stroke="black" points="1825,-820.5 1825,-839.5 1947,-839.5 1947,-820.5 1825,-820.5"/>
<text text-anchor="middle" x="1886" y="-827.5" font-family="Helvetica,sans-Serif" font-size="10.00">MoFEM::BasicMethod</text>
</a>
</g>
</g>
<!-- Node13&#45;&gt;Node12 -->
<g id="edge12" class="edge">
<title>Node13&#45;&gt;Node12</title>
<path fill="none" stroke="midnightblue" d="M1957.63,-836.14C2029.14,-842.36 2138.1,-851.83 2202.37,-857.42"/>
<polygon fill="midnightblue" stroke="midnightblue" points="1957.62,-832.63 1947.36,-835.25 1957.01,-839.6 1957.62,-832.63"/>
</g>
<!-- Node14 -->
<g id="node14" class="node">
<title>Node14</title>
<g id="a_node14"><a xlink:href="structMoFEM_1_1KspMethod.html" target="_top" xlink:title="data structure for ksp (linear solver) context">
<polygon fill="white" stroke="black" points="1442,-193.5 1442,-212.5 1555,-212.5 1555,-193.5 1442,-193.5"/>
<text text-anchor="middle" x="1498.5" y="-200.5" font-family="Helvetica,sans-Serif" font-size="10.00">MoFEM::KspMethod</text>
</a>
</g>
</g>
<!-- Node14&#45;&gt;Node13 -->
<g id="edge13" class="edge">
<title>Node14&#45;&gt;Node13</title>
<path fill="none" stroke="midnightblue" d="M1525.2,-217.99C1583.35,-253.56 1724.34,-349.37 1781,-473 1796.67,-507.19 1774.68,-782.31 1799,-811 1805.72,-818.93 1814.94,-823.99 1824.86,-827.14"/>
<polygon fill="midnightblue" stroke="midnightblue" points="1526.66,-214.79 1516.29,-212.62 1523.04,-220.78 1526.66,-214.79"/>
</g>
<!-- Node15 -->
<g id="node15" class="node">
<title>Node15</title>
<g id="a_node15"><a xlink:href="structMoFEM_1_1PetscData.html" target="_top" xlink:title=" ">
<polygon fill="white" stroke="black" points="1087.5,-391.5 1087.5,-410.5 1195.5,-410.5 1195.5,-391.5 1087.5,-391.5"/>
<text text-anchor="middle" x="1141.5" y="-398.5" font-family="Helvetica,sans-Serif" font-size="10.00">MoFEM::PetscData</text>
</a>
</g>
</g>
<!-- Node15&#45;&gt;Node14 -->
<g id="edge14" class="edge">
<title>Node15&#45;&gt;Node14</title>
<path fill="none" stroke="midnightblue" d="M1205.64,-399.56C1219.25,-396.56 1232.63,-391.2 1243,-382 1262.87,-364.37 1243.88,-345.32 1261,-325 1290.92,-289.49 1419.65,-234.53 1473.58,-212.56"/>
<polygon fill="midnightblue" stroke="midnightblue" points="1204.96,-396.12 1195.74,-401.35 1206.2,-403.01 1204.96,-396.12"/>
</g>
<!-- Node25 -->
<g id="node25" class="node">
<title>Node25</title>
<g id="a_node25"><a xlink:href="structMoFEM_1_1SnesMethod.html" target="_top" xlink:title="data structure for snes (nonlinear solver) context">
<polygon fill="white" stroke="black" points="1439,-366.5 1439,-385.5 1558,-385.5 1558,-366.5 1439,-366.5"/>
<text text-anchor="middle" x="1498.5" y="-373.5" font-family="Helvetica,sans-Serif" font-size="10.00">MoFEM::SnesMethod</text>
</a>
</g>
</g>
<!-- Node15&#45;&gt;Node25 -->
<g id="edge27" class="edge">
<title>Node15&#45;&gt;Node25</title>
<path fill="none" stroke="darkgreen" d="M1205.93,-396.53C1272.03,-391.88 1374.74,-384.64 1438.96,-380.12"/>
<polygon fill="darkgreen" stroke="darkgreen" points="1205.38,-393.06 1195.65,-397.26 1205.87,-400.05 1205.38,-393.06"/>
</g>
<!-- Node28 -->
<g id="node28" class="node">
<title>Node28</title>
<g id="a_node28"><a xlink:href="structMoFEM_1_1TSMethod.html" target="_top" xlink:title="data structure for TS (time stepping) context">
<polygon fill="white" stroke="black" points="1445,-675.5 1445,-694.5 1552,-694.5 1552,-675.5 1445,-675.5"/>
<text text-anchor="middle" x="1498.5" y="-682.5" font-family="Helvetica,sans-Serif" font-size="10.00">MoFEM::TSMethod</text>
</a>
</g>
</g>
<!-- Node15&#45;&gt;Node28 -->
<g id="edge33" class="edge">
<title>Node15&#45;&gt;Node28</title>
<path fill="none" stroke="darkgreen" d="M1205.73,-400.93C1271.23,-402.11 1367.99,-407.74 1397,-430 1480.25,-493.87 1494.65,-636.89 1497.04,-675.33"/>
<polygon fill="darkgreen" stroke="darkgreen" points="1205.55,-397.43 1195.5,-400.78 1205.45,-404.43 1205.55,-397.43"/>
</g>
<!-- Node16 -->
<g id="node16" class="node">
<title>Node16</title>
<g id="a_node16"><a xlink:href="structMoFEM_1_1UnknownInterface.html" target="_top" xlink:title="base class for all interface classes">
<polygon fill="white" stroke="black" points="735,-251.5 735,-270.5 883,-270.5 883,-251.5 735,-251.5"/>
<text text-anchor="middle" x="809" y="-258.5" font-family="Helvetica,sans-Serif" font-size="10.00">MoFEM::UnknownInterface</text>
</a>
</g>
</g>
<!-- Node16&#45;&gt;Node15 -->
<g id="edge15" class="edge">
<title>Node16&#45;&gt;Node15</title>
<path fill="none" stroke="midnightblue" d="M872.08,-250.4C919.24,-246.13 982.52,-249.11 1022,-286 1053.72,-315.63 1009.33,-351.28 1040,-382 1052.42,-394.44 1070.27,-400.1 1087.48,-402.36"/>
<polygon fill="midnightblue" stroke="midnightblue" points="871.56,-246.94 861.98,-251.45 872.28,-253.9 871.56,-246.94"/>
</g>
<!-- Node56 -->
<g id="node56" class="node">
<title>Node56</title>
<g id="a_node56"><a xlink:href="structMoFEM_1_1CoreInterface.html" target="_top" xlink:title="Interface.">
<polygon fill="white" stroke="black" points="1079,-0.5 1079,-19.5 1204,-19.5 1204,-0.5 1079,-0.5"/>
<text text-anchor="middle" x="1141.5" y="-7.5" font-family="Helvetica,sans-Serif" font-size="10.00">MoFEM::CoreInterface</text>
</a>
</g>
</g>
<!-- Node16&#45;&gt;Node56 -->
<g id="edge67" class="edge">
<title>Node16&#45;&gt;Node56</title>
<path fill="none" stroke="midnightblue" d="M818.62,-242.23C832.69,-213.06 862.9,-156.21 901,-118 952.8,-66.06 971.83,-56.09 1040,-29 1052.21,-24.15 1065.76,-20.51 1078.85,-17.8"/>
<polygon fill="midnightblue" stroke="midnightblue" points="815.43,-240.78 814.32,-251.32 821.76,-243.77 815.43,-240.78"/>
</g>
<!-- Node17 -->
<g id="node17" class="node">
<title>Node17</title>
<g id="a_node17"><a xlink:title=" ">
<polygon fill="white" stroke="#bfbfbf" points="386,-943.5 386,-1006.5 627,-1006.5 627,-943.5 386,-943.5"/>
<text text-anchor="start" x="394" y="-994.5" font-family="Helvetica,sans-Serif" font-size="10.00">multi_index_container</text>
<text text-anchor="start" x="394" y="-983.5" font-family="Helvetica,sans-Serif" font-size="10.00">&lt; UIdTypeMap, indexed</text>
<text text-anchor="start" x="394" y="-972.5" font-family="Helvetica,sans-Serif" font-size="10.00">_by&lt; hashed_unique&lt; member</text>
<text text-anchor="start" x="394" y="-961.5" font-family="Helvetica,sans-Serif" font-size="10.00">&lt; UIdTypeMap, boost::typeindex</text>
<text text-anchor="middle" x="506.5" y="-950.5" font-family="Helvetica,sans-Serif" font-size="10.00">::type_index, &amp;UIdTypeMap::classIdx &gt; &gt; &gt; &gt;</text>
</a>
</g>
</g>
<!-- Node17&#45;&gt;Node16 -->
<g id="edge16" class="edge">
<title>Node17&#45;&gt;Node16</title>
<path fill="none" stroke="#9a32cd" stroke-dasharray="5,2" d="M509.51,-933.37C517.37,-816.31 555.26,-480.39 735,-290 743.43,-281.08 754.95,-274.84 766.35,-270.51"/>
<polygon fill="#9a32cd" stroke="#9a32cd" points="506.02,-933.16 508.88,-943.36 513.01,-933.61 506.02,-933.16"/>
<text text-anchor="middle" x="681" y="-401" font-family="Helvetica,sans-Serif" font-size="10.00"> iFaceTypeMap</text>
</g>
<!-- Node18 -->
<g id="node18" class="node">
<title>Node18</title>
<g id="a_node18"><a xlink:title=" ">
<polygon fill="white" stroke="#bfbfbf" points="0,-995.5 0,-1014.5 125,-1014.5 125,-995.5 0,-995.5"/>
<text text-anchor="middle" x="62.5" y="-1002.5" font-family="Helvetica,sans-Serif" font-size="10.00">multi_index_container</text>
</a>
</g>
</g>
<!-- Node18&#45;&gt;Node13 -->
<g id="edge40" class="edge">
<title>Node18&#45;&gt;Node13</title>
<path fill="none" stroke="#9a32cd" stroke-dasharray="5,2" d="M78.05,-1022.29C129.66,-1081.57 311.34,-1273 505.5,-1273 505.5,-1273 505.5,-1273 1330,-1273 1549.45,-1273 1654.17,-1251.09 1781,-1072 1809.61,-1031.61 1766.68,-887.48 1799,-850 1805.81,-842.11 1815.07,-836.99 1824.99,-833.74"/>
<polygon fill="#9a32cd" stroke="#9a32cd" points="80.56,-1019.84 71.39,-1014.54 75.25,-1024.4 80.56,-1019.84"/>
<text text-anchor="middle" x="961.5" y="-1353" font-family="Helvetica,sans-Serif" font-size="10.00"> adjacenciesPtr</text>
<text text-anchor="middle" x="961.5" y="-1342" font-family="Helvetica,sans-Serif" font-size="10.00">refinedEntitiesPtr</text>
<text text-anchor="middle" x="961.5" y="-1331" font-family="Helvetica,sans-Serif" font-size="10.00">finiteElementsEntitiesPtr</text>
<text text-anchor="middle" x="961.5" y="-1320" font-family="Helvetica,sans-Serif" font-size="10.00">dofsPtr</text>
<text text-anchor="middle" x="961.5" y="-1309" font-family="Helvetica,sans-Serif" font-size="10.00">entitiesPtr</text>
<text text-anchor="middle" x="961.5" y="-1298" font-family="Helvetica,sans-Serif" font-size="10.00">finiteElementsPtr</text>
<text text-anchor="middle" x="961.5" y="-1287" font-family="Helvetica,sans-Serif" font-size="10.00">refinedFiniteElementsPtr</text>
<text text-anchor="middle" x="961.5" y="-1276" font-family="Helvetica,sans-Serif" font-size="10.00">fieldsPtr</text>
</g>
<!-- Node18&#45;&gt;Node17 -->
<g id="edge17" class="edge">
<title>Node18&#45;&gt;Node17</title>
<path fill="none" stroke="orange" stroke-dasharray="5,2" d="M135.56,-1000.11C203.25,-995.51 305.79,-988.55 385.77,-983.13"/>
<polygon fill="orange" stroke="orange" points="135.16,-996.63 125.42,-1000.8 135.64,-1003.61 135.16,-996.63"/>
<text text-anchor="start" x="143" y="-1035" font-family="Helvetica,sans-Serif" font-size="10.00"> &lt; UIdTypeMap, indexed</text>
<text text-anchor="start" x="143" y="-1024" font-family="Helvetica,sans-Serif" font-size="10.00">_by&lt; hashed_unique&lt; member</text>
<text text-anchor="start" x="143" y="-1013" font-family="Helvetica,sans-Serif" font-size="10.00">&lt; UIdTypeMap, boost::typeindex</text>
<text text-anchor="middle" x="255.5" y="-1002" font-family="Helvetica,sans-Serif" font-size="10.00">::type_index, &amp;UIdTypeMap::classIdx &gt; &gt; &gt; &gt;</text>
</g>
<!-- Node19 -->
<g id="node19" class="node">
<title>Node19</title>
<g id="a_node19"><a xlink:title=" ">
<polygon fill="white" stroke="#bfbfbf" points="738.5,-379.5 738.5,-398.5 879.5,-398.5 879.5,-379.5 738.5,-379.5"/>
<text text-anchor="middle" x="809" y="-386.5" font-family="Helvetica,sans-Serif" font-size="10.00">static constexpr Switches</text>
</a>
</g>
</g>
<!-- Node19&#45;&gt;Node15 -->
<g id="edge18" class="edge">
<title>Node19&#45;&gt;Node15</title>
<path fill="none" stroke="#9a32cd" stroke-dasharray="5,2" d="M889.91,-387.72C929.64,-387.51 978.37,-387.88 1022,-390 1043.46,-391.04 1067.04,-393.06 1087.48,-395.08"/>
<polygon fill="#9a32cd" stroke="#9a32cd" points="889.72,-384.22 879.74,-387.79 889.77,-391.22 889.72,-384.22"/>
<text text-anchor="middle" x="961.5" y="-470" font-family="Helvetica,sans-Serif" font-size="10.00"> CtxSetX_TT</text>
<text text-anchor="middle" x="961.5" y="-459" font-family="Helvetica,sans-Serif" font-size="10.00">CtxSetX_T</text>
<text text-anchor="middle" x="961.5" y="-448" font-family="Helvetica,sans-Serif" font-size="10.00">CtxSetA</text>
<text text-anchor="middle" x="961.5" y="-437" font-family="Helvetica,sans-Serif" font-size="10.00">CtxSetB</text>
<text text-anchor="middle" x="961.5" y="-426" font-family="Helvetica,sans-Serif" font-size="10.00">CtxSetTime</text>
<text text-anchor="middle" x="961.5" y="-415" font-family="Helvetica,sans-Serif" font-size="10.00">CtxSetNone</text>
<text text-anchor="middle" x="961.5" y="-404" font-family="Helvetica,sans-Serif" font-size="10.00">CtxSetF</text>
<text text-anchor="middle" x="961.5" y="-393" font-family="Helvetica,sans-Serif" font-size="10.00">CtxSetX</text>
</g>
<!-- Node20 -->
<g id="node20" class="node">
<title>Node20</title>
<g id="a_node20"><a xlink:title=" ">
<polygon fill="white" stroke="#bfbfbf" points="791.5,-299.5 791.5,-318.5 826.5,-318.5 826.5,-299.5 791.5,-299.5"/>
<text text-anchor="middle" x="809" y="-306.5" font-family="Helvetica,sans-Serif" font-size="10.00">Mat</text>
</a>
</g>
</g>
<!-- Node20&#45;&gt;Node14 -->
<g id="edge24" class="edge">
<title>Node20&#45;&gt;Node14</title>
<path fill="none" stroke="#9a32cd" stroke-dasharray="5,2" d="M836.41,-303.83C851.67,-299.65 870.3,-292.37 883,-280 897.55,-265.83 888.18,-253.75 901,-238 948.56,-179.58 968.14,-163.6 1040,-141 1201.72,-90.15 1408.49,-165.64 1475.49,-193.42"/>
<polygon fill="#9a32cd" stroke="#9a32cd" points="835.39,-300.47 826.5,-306.25 837.05,-307.28 835.39,-300.47"/>
<text text-anchor="middle" x="1141.5" y="-155" font-family="Helvetica,sans-Serif" font-size="10.00"> ksp_A</text>
<text text-anchor="middle" x="1141.5" y="-144" font-family="Helvetica,sans-Serif" font-size="10.00">ksp_B</text>
</g>
<!-- Node20&#45;&gt;Node15 -->
<g id="edge19" class="edge">
<title>Node20&#45;&gt;Node15</title>
<path fill="none" stroke="#9a32cd" stroke-dasharray="5,2" d="M836.4,-301.57C880.13,-291 968.09,-277.29 1022,-320 1044.49,-337.82 1018.76,-362.7 1040,-382 1052.81,-393.64 1070.44,-399.17 1087.37,-401.56"/>
<polygon fill="#9a32cd" stroke="#9a32cd" points="835.35,-298.23 826.53,-304.09 837.08,-305.01 835.35,-298.23"/>
<text text-anchor="middle" x="961.5" y="-334" font-family="Helvetica,sans-Serif" font-size="10.00"> A</text>
<text text-anchor="middle" x="961.5" y="-323" font-family="Helvetica,sans-Serif" font-size="10.00">B</text>
</g>
<!-- Node20&#45;&gt;Node25 -->
<g id="edge29" class="edge">
<title>Node20&#45;&gt;Node25</title>
<path fill="none" stroke="#9a32cd" stroke-dasharray="5,2" d="M836.23,-297.81C904.2,-270.34 1091.28,-204.5 1243,-242 1344.07,-266.98 1449.33,-340.16 1484.9,-366.45"/>
<polygon fill="#9a32cd" stroke="#9a32cd" points="834.65,-294.68 826.73,-301.72 837.31,-301.15 834.65,-294.68"/>
<text text-anchor="middle" x="1141.5" y="-256" font-family="Helvetica,sans-Serif" font-size="10.00"> snes_A</text>
<text text-anchor="middle" x="1141.5" y="-245" font-family="Helvetica,sans-Serif" font-size="10.00">snes_B</text>
</g>
<!-- Node20&#45;&gt;Node28 -->
<g id="edge34" class="edge">
<title>Node20&#45;&gt;Node28</title>
<path fill="none" stroke="#9a32cd" stroke-dasharray="5,2" d="M836.33,-318.72C854.48,-325.37 879.16,-334.34 901,-342 954.58,-360.79 979.4,-345.46 1022,-383 1035.72,-395.09 1025.17,-409.3 1040,-420 1076.9,-446.63 1198.04,-439.93 1243,-447 1311.72,-457.81 1341.71,-432.78 1397,-475 1466.39,-527.98 1490.23,-641.06 1495.99,-675.1"/>
<polygon fill="#9a32cd" stroke="#9a32cd" points="837.33,-315.35 826.73,-315.19 834.91,-321.92 837.33,-315.35"/>
<text text-anchor="middle" x="1141.5" y="-461" font-family="Helvetica,sans-Serif" font-size="10.00"> ts_A</text>
<text text-anchor="middle" x="1141.5" y="-450" font-family="Helvetica,sans-Serif" font-size="10.00">ts_B</text>
</g>
<!-- Node21 -->
<g id="node21" class="node">
<title>Node21</title>
<g id="a_node21"><a xlink:title=" ">
<polygon fill="white" stroke="#bfbfbf" points="772.5,-490.5 772.5,-509.5 845.5,-509.5 845.5,-490.5 772.5,-490.5"/>
<text text-anchor="middle" x="809" y="-497.5" font-family="Helvetica,sans-Serif" font-size="10.00">bitset&lt; 8 &gt;</text>
</a>
</g>
</g>
<!-- Node21&#45;&gt;Node15 -->
<g id="edge20" class="edge">
<title>Node21&#45;&gt;Node15</title>
<path fill="none" stroke="#9a32cd" stroke-dasharray="5,2" d="M855.99,-500.86C910.53,-500.94 997.2,-497.78 1022,-478 1041.45,-462.49 1021.61,-441.75 1040,-425 1052.93,-413.22 1070.59,-406.93 1087.5,-403.66"/>
<polygon fill="#9a32cd" stroke="#9a32cd" points="855.88,-497.36 845.86,-500.81 855.85,-504.36 855.88,-497.36"/>
<text text-anchor="middle" x="961.5" y="-503" font-family="Helvetica,sans-Serif" font-size="10.00"> data_ctx</text>
</g>
<!-- Node22 -->
<g id="node22" class="node">
<title>Node22</title>
<g id="a_node22"><a xlink:title=" ">
<polygon fill="white" stroke="#bfbfbf" points="792,-556.5 792,-575.5 826,-575.5 826,-556.5 792,-556.5"/>
<text text-anchor="middle" x="809" y="-563.5" font-family="Helvetica,sans-Serif" font-size="10.00">Vec</text>
</a>
</g>
</g>
<!-- Node22&#45;&gt;Node14 -->
<g id="edge25" class="edge">
<title>Node22&#45;&gt;Node14</title>
<path fill="none" stroke="#9a32cd" stroke-dasharray="5,2" d="M835.9,-556.39C852.32,-548.86 872.4,-536.66 883,-519 908.12,-477.13 866.87,-334.92 901,-300 954.42,-245.35 1175.34,-299.53 1243,-264 1253.88,-258.29 1250.3,-249.05 1261,-243 1291.13,-225.96 1381.87,-214.18 1441.79,-208.02"/>
<polygon fill="#9a32cd" stroke="#9a32cd" points="834.1,-553.36 826.26,-560.49 836.84,-559.8 834.1,-553.36"/>
<text text-anchor="middle" x="1141.5" y="-280" font-family="Helvetica,sans-Serif" font-size="10.00"> ksp_f</text>
</g>
<!-- Node22&#45;&gt;Node15 -->
<g id="edge21" class="edge">
<title>Node22&#45;&gt;Node15</title>
<path fill="none" stroke="#9a32cd" stroke-dasharray="5,2" d="M835.76,-556.14C853.82,-549.5 878.64,-540.9 901,-535 953.93,-521.03 982.98,-550.39 1022,-512 1050.15,-484.31 1012.51,-453.34 1040,-425 1052.37,-412.25 1070.2,-405.78 1087.42,-402.63"/>
<polygon fill="#9a32cd" stroke="#9a32cd" points="834.37,-552.92 826.23,-559.7 836.82,-559.48 834.37,-552.92"/>
<text text-anchor="middle" x="961.5" y="-571" font-family="Helvetica,sans-Serif" font-size="10.00"> f</text>
<text text-anchor="middle" x="961.5" y="-560" font-family="Helvetica,sans-Serif" font-size="10.00">x</text>
<text text-anchor="middle" x="961.5" y="-549" font-family="Helvetica,sans-Serif" font-size="10.00">x_t</text>
<text text-anchor="middle" x="961.5" y="-538" font-family="Helvetica,sans-Serif" font-size="10.00">x_tt</text>
</g>
<!-- Node22&#45;&gt;Node25 -->
<g id="edge30" class="edge">
<title>Node22&#45;&gt;Node25</title>
<path fill="none" stroke="#9a32cd" stroke-dasharray="5,2" d="M835.61,-577.29C878.85,-594.44 966.98,-620.85 1022,-579 1045.86,-560.85 1018.07,-534.43 1040,-514 1107.35,-451.26 1154.58,-498.59 1243,-473 1331.57,-447.37 1432.87,-404.5 1476.12,-385.53"/>
<polygon fill="#9a32cd" stroke="#9a32cd" points="836.7,-573.96 826.12,-573.39 834.04,-580.43 836.7,-573.96"/>
<text text-anchor="middle" x="1141.5" y="-528" font-family="Helvetica,sans-Serif" font-size="10.00"> snes_x</text>
<text text-anchor="middle" x="1141.5" y="-517" font-family="Helvetica,sans-Serif" font-size="10.00">snes_f</text>
</g>
<!-- Node22&#45;&gt;Node28 -->
<g id="edge38" class="edge">
<title>Node22&#45;&gt;Node28</title>
<path fill="none" stroke="#9a32cd" stroke-dasharray="5,2" d="M835.33,-577.79C853.51,-586.17 878.65,-597.55 901,-607 962.19,-632.87 976.08,-643.89 1040,-662 1128.16,-686.98 1158.62,-662.28 1243,-698 1252.09,-701.85 1251.61,-707.96 1261,-711 1334.89,-734.89 1427.8,-709.67 1471.94,-694.59"/>
<polygon fill="#9a32cd" stroke="#9a32cd" points="836.56,-574.5 826.01,-573.49 833.62,-580.86 836.56,-574.5"/>
<text text-anchor="middle" x="1141.5" y="-734" font-family="Helvetica,sans-Serif" font-size="10.00"> ts_u</text>
<text text-anchor="middle" x="1141.5" y="-723" font-family="Helvetica,sans-Serif" font-size="10.00">ts_F</text>
<text text-anchor="middle" x="1141.5" y="-712" font-family="Helvetica,sans-Serif" font-size="10.00">ts_u_t</text>
<text text-anchor="middle" x="1141.5" y="-701" font-family="Helvetica,sans-Serif" font-size="10.00">ts_u_tt</text>
</g>
<!-- Node23 -->
<g id="node23" class="node">
<title>Node23</title>
<g id="a_node23"><a xlink:title=" ">
<polygon fill="white" stroke="#bfbfbf" points="1124,-172.5 1124,-191.5 1159,-191.5 1159,-172.5 1124,-172.5"/>
<text text-anchor="middle" x="1141.5" y="-179.5" font-family="Helvetica,sans-Serif" font-size="10.00">KSP</text>
</a>
</g>
</g>
<!-- Node23&#45;&gt;Node14 -->
<g id="edge22" class="edge">
<title>Node23&#45;&gt;Node14</title>
<path fill="none" stroke="#9a32cd" stroke-dasharray="5,2" d="M1169.29,-183.58C1227.06,-187 1364.41,-195.13 1441.88,-199.71"/>
<polygon fill="#9a32cd" stroke="#9a32cd" points="1169.34,-180.08 1159.15,-182.98 1168.92,-187.07 1169.34,-180.08"/>
<text text-anchor="middle" x="1329" y="-199" font-family="Helvetica,sans-Serif" font-size="10.00"> ksp</text>
</g>
<!-- Node24 -->
<g id="node24" class="node">
<title>Node24</title>
<g id="a_node24"><a xlink:title=" ">
<polygon fill="white" stroke="#bfbfbf" points="1104.5,-76.5 1104.5,-95.5 1178.5,-95.5 1178.5,-76.5 1104.5,-76.5"/>
<text text-anchor="middle" x="1141.5" y="-83.5" font-family="Helvetica,sans-Serif" font-size="10.00">KSPContext</text>
</a>
</g>
</g>
<!-- Node24&#45;&gt;Node14 -->
<g id="edge23" class="edge">
<title>Node24&#45;&gt;Node14</title>
<path fill="none" stroke="#9a32cd" stroke-dasharray="5,2" d="M1188.8,-84.48C1252.83,-83.25 1364.25,-84.59 1397,-107 1412.09,-117.33 1403.2,-130.03 1415,-144 1433.18,-165.52 1460.86,-183.19 1479.07,-193.41"/>
<polygon fill="#9a32cd" stroke="#9a32cd" points="1188.49,-80.98 1178.57,-84.7 1188.64,-87.98 1188.49,-80.98"/>
<text text-anchor="middle" x="1329" y="-110" font-family="Helvetica,sans-Serif" font-size="10.00"> ksp_ctx</text>
</g>
<!-- Node25&#45;&gt;Node13 -->
<g id="edge26" class="edge">
<title>Node25&#45;&gt;Node13</title>
<path fill="none" stroke="midnightblue" d="M1517.43,-392.53C1567.6,-439.84 1710.37,-581.98 1781,-730 1796.88,-763.28 1772.91,-784.94 1799,-811 1806.03,-818.02 1815.04,-822.71 1824.56,-825.78"/>
<polygon fill="midnightblue" stroke="midnightblue" points="1519.63,-389.79 1509.94,-385.52 1514.85,-394.91 1519.63,-389.79"/>
</g>
<!-- Node26 -->
<g id="node26" class="node">
<title>Node26</title>
<g id="a_node26"><a xlink:title=" ">
<polygon fill="white" stroke="#bfbfbf" points="1120.5,-315.5 1120.5,-334.5 1162.5,-334.5 1162.5,-315.5 1120.5,-315.5"/>
<text text-anchor="middle" x="1141.5" y="-322.5" font-family="Helvetica,sans-Serif" font-size="10.00">SNES</text>
</a>
</g>
</g>
<!-- Node26&#45;&gt;Node25 -->
<g id="edge28" class="edge">
<title>Node26&#45;&gt;Node25</title>
<path fill="none" stroke="#9a32cd" stroke-dasharray="5,2" d="M1172.85,-325.47C1220.84,-326.67 1317,-330.93 1397,-346 1422.59,-350.82 1450.95,-359.62 1471,-366.44"/>
<polygon fill="#9a32cd" stroke="#9a32cd" points="1172.89,-321.97 1162.82,-325.25 1172.74,-328.97 1172.89,-321.97"/>
<text text-anchor="middle" x="1329" y="-349" font-family="Helvetica,sans-Serif" font-size="10.00"> snes</text>
</g>
<!-- Node27 -->
<g id="node27" class="node">
<title>Node27</title>
<g id="a_node27"><a xlink:title=" ">
<polygon fill="white" stroke="#bfbfbf" points="1101.5,-353.5 1101.5,-372.5 1181.5,-372.5 1181.5,-353.5 1101.5,-353.5"/>
<text text-anchor="middle" x="1141.5" y="-360.5" font-family="Helvetica,sans-Serif" font-size="10.00">SNESContext</text>
</a>
</g>
</g>
<!-- Node27&#45;&gt;Node25 -->
<g id="edge31" class="edge">
<title>Node27&#45;&gt;Node25</title>
<path fill="none" stroke="#9a32cd" stroke-dasharray="5,2" d="M1191.93,-361.91C1243.24,-361.13 1325.81,-360.84 1397,-365 1410.58,-365.79 1425.15,-367.12 1438.86,-368.57"/>
<polygon fill="#9a32cd" stroke="#9a32cd" points="1191.72,-358.41 1181.78,-362.08 1191.84,-365.41 1191.72,-358.41"/>
<text text-anchor="middle" x="1329" y="-368" font-family="Helvetica,sans-Serif" font-size="10.00"> snes_ctx</text>
</g>
<!-- Node28&#45;&gt;Node13 -->
<g id="edge32" class="edge">
<title>Node28&#45;&gt;Node13</title>
<path fill="none" stroke="midnightblue" d="M1527.67,-698.89C1580.01,-724.22 1696.26,-778.34 1799,-811 1810.37,-814.61 1822.79,-817.79 1834.57,-820.46"/>
<polygon fill="midnightblue" stroke="midnightblue" points="1529.19,-695.73 1518.66,-694.5 1526.12,-702.03 1529.19,-695.73"/>
</g>
<!-- Node29 -->
<g id="node29" class="node">
<title>Node29</title>
<g id="a_node29"><a xlink:title=" ">
<polygon fill="white" stroke="#bfbfbf" points="1109,-545.5 1109,-564.5 1174,-564.5 1174,-545.5 1109,-545.5"/>
<text text-anchor="middle" x="1141.5" y="-552.5" font-family="Helvetica,sans-Serif" font-size="10.00">PetscReal</text>
</a>
</g>
</g>
<!-- Node29&#45;&gt;Node28 -->
<g id="edge35" class="edge">
<title>Node29&#45;&gt;Node28</title>
<path fill="none" stroke="#9a32cd" stroke-dasharray="5,2" d="M1184.17,-552.31C1203.53,-549.34 1225.98,-543.28 1243,-531 1255.3,-522.13 1247.74,-509.37 1261,-502 1313.82,-472.62 1344.98,-471.22 1397,-502 1464.07,-541.68 1489.37,-643.79 1495.75,-675.48"/>
<polygon fill="#9a32cd" stroke="#9a32cd" points="1183.54,-548.87 1174.08,-553.63 1184.45,-555.81 1183.54,-548.87"/>
<text text-anchor="middle" x="1329" y="-538" font-family="Helvetica,sans-Serif" font-size="10.00"> ts_a</text>
<text text-anchor="middle" x="1329" y="-527" font-family="Helvetica,sans-Serif" font-size="10.00">ts_t</text>
<text text-anchor="middle" x="1329" y="-516" font-family="Helvetica,sans-Serif" font-size="10.00">ts_dt</text>
<text text-anchor="middle" x="1329" y="-505" font-family="Helvetica,sans-Serif" font-size="10.00">ts_aa</text>
</g>
<!-- Node30 -->
<g id="node30" class="node">
<title>Node30</title>
<g id="a_node30"><a xlink:title=" ">
<polygon fill="white" stroke="#bfbfbf" points="1108,-751.5 1108,-770.5 1175,-770.5 1175,-751.5 1108,-751.5"/>
<text text-anchor="middle" x="1141.5" y="-758.5" font-family="Helvetica,sans-Serif" font-size="10.00">TSContext</text>
</a>
</g>
</g>
<!-- Node30&#45;&gt;Node28 -->
<g id="edge36" class="edge">
<title>Node30&#45;&gt;Node28</title>
<path fill="none" stroke="#9a32cd" stroke-dasharray="5,2" d="M1185.08,-762.51C1236.43,-763.16 1324.83,-760.51 1397,-739 1430.41,-729.04 1465.38,-707.25 1483.98,-694.61"/>
<polygon fill="#9a32cd" stroke="#9a32cd" points="1185.08,-759.01 1175.02,-762.34 1184.95,-766.01 1185.08,-759.01"/>
<text text-anchor="middle" x="1329" y="-763" font-family="Helvetica,sans-Serif" font-size="10.00"> ts_ctx</text>
</g>
<!-- Node31 -->
<g id="node31" class="node">
<title>Node31</title>
<g id="a_node31"><a xlink:title=" ">
<polygon fill="white" stroke="#bfbfbf" points="1113.5,-633.5 1113.5,-652.5 1169.5,-652.5 1169.5,-633.5 1113.5,-633.5"/>
<text text-anchor="middle" x="1141.5" y="-640.5" font-family="Helvetica,sans-Serif" font-size="10.00">PetscInt</text>
</a>
</g>
</g>
<!-- Node31&#45;&gt;Node28 -->
<g id="edge37" class="edge">
<title>Node31&#45;&gt;Node28</title>
<path fill="none" stroke="#9a32cd" stroke-dasharray="5,2" d="M1179.9,-648.34C1199.33,-651.99 1223.1,-657.87 1243,-667 1251.97,-671.11 1251.64,-676.86 1261,-680 1321.55,-700.29 1395.8,-697.77 1444.77,-692.67"/>
<polygon fill="#9a32cd" stroke="#9a32cd" points="1180.35,-644.86 1169.89,-646.58 1179.14,-651.76 1180.35,-644.86"/>
<text text-anchor="middle" x="1329" y="-699" font-family="Helvetica,sans-Serif" font-size="10.00"> ts_step</text>
</g>
<!-- Node32 -->
<g id="node32" class="node">
<title>Node32</title>
<g id="a_node32"><a xlink:title=" ">
<polygon fill="white" stroke="#bfbfbf" points="1127,-595.5 1127,-614.5 1156,-614.5 1156,-595.5 1127,-595.5"/>
<text text-anchor="middle" x="1141.5" y="-602.5" font-family="Helvetica,sans-Serif" font-size="10.00">TS</text>
</a>
</g>
</g>
<!-- Node32&#45;&gt;Node28 -->
<g id="edge39" class="edge">
<title>Node32&#45;&gt;Node28</title>
<path fill="none" stroke="#9a32cd" stroke-dasharray="5,2" d="M1166.4,-604.99C1187.84,-605.99 1219.47,-610.02 1243,-624 1253.86,-630.45 1250.03,-639.73 1261,-646 1314.1,-676.34 1336.67,-656.94 1397,-667 1412.82,-669.64 1430.02,-672.66 1445.64,-675.47"/>
<polygon fill="#9a32cd" stroke="#9a32cd" points="1166.3,-601.49 1156.21,-604.71 1166.11,-608.49 1166.3,-601.49"/>
<text text-anchor="middle" x="1329" y="-670" font-family="Helvetica,sans-Serif" font-size="10.00"> ts</text>
</g>
<!-- Node33 -->
<g id="node33" class="node">
<title>Node33</title>
<g id="a_node33"><a xlink:title=" ">
<polygon fill="white" stroke="#bfbfbf" points="1454,-1026.5 1454,-1045.5 1543,-1045.5 1543,-1026.5 1454,-1026.5"/>
<text text-anchor="middle" x="1498.5" y="-1033.5" font-family="Helvetica,sans-Serif" font-size="10.00">pair&lt; int, int &gt;</text>
</a>
</g>
</g>
<!-- Node33&#45;&gt;Node13 -->
<g id="edge41" class="edge">
<title>Node33&#45;&gt;Node13</title>
<path fill="none" stroke="#9a32cd" stroke-dasharray="5,2" d="M1546.51,-1047.64C1609.15,-1060.06 1719.25,-1070.53 1781,-1010 1832.1,-959.91 1751.43,-903.46 1799,-850 1805.83,-842.33 1814.97,-837.3 1824.75,-834.06"/>
<polygon fill="#9a32cd" stroke="#9a32cd" points="1547.01,-1044.17 1536.51,-1045.57 1545.59,-1051.03 1547.01,-1044.17"/>
<text text-anchor="middle" x="1690.5" y="-1060" font-family="Helvetica,sans-Serif" font-size="10.00"> loHiFERank</text>
</g>
<!-- Node34 -->
<g id="node34" class="node">
<title>Node34</title>
<g id="a_node34"><a xlink:title=" ">
<polygon fill="white" stroke="#bfbfbf" points="1428.5,-988.5 1428.5,-1007.5 1568.5,-1007.5 1568.5,-988.5 1428.5,-988.5"/>
<text text-anchor="middle" x="1498.5" y="-995.5" font-family="Helvetica,sans-Serif" font-size="10.00">weak_ptr&lt; CacheTuple &gt;</text>
</a>
</g>
</g>
<!-- Node34&#45;&gt;Node13 -->
<g id="edge42" class="edge">
<title>Node34&#45;&gt;Node13</title>
<path fill="none" stroke="#9a32cd" stroke-dasharray="5,2" d="M1578.97,-996.79C1657.03,-994.81 1766.48,-989.62 1781,-976 1822.26,-937.3 1760.77,-891.69 1799,-850 1805.94,-842.43 1815.14,-837.45 1824.94,-834.23"/>
<polygon fill="#9a32cd" stroke="#9a32cd" points="1578.58,-993.3 1568.66,-997.04 1578.74,-1000.3 1578.58,-993.3"/>
<text text-anchor="middle" x="1690.5" y="-998" font-family="Helvetica,sans-Serif" font-size="10.00"> cacheWeakPtr</text>
</g>
<!-- Node35 -->
<g id="node35" class="node">
<title>Node35</title>
<g id="a_node35"><a xlink:title=" ">
<polygon fill="white" stroke="#bfbfbf" points="1442.5,-950.5 1442.5,-969.5 1554.5,-969.5 1554.5,-950.5 1442.5,-950.5"/>
<text text-anchor="middle" x="1498.5" y="-957.5" font-family="Helvetica,sans-Serif" font-size="10.00">unique_ptr&lt; bool &gt;</text>
</a>
</g>
</g>
<!-- Node35&#45;&gt;Node13 -->
<g id="edge43" class="edge">
<title>Node35&#45;&gt;Node13</title>
<path fill="none" stroke="#9a32cd" stroke-dasharray="5,2" d="M1564.78,-954.96C1645.41,-948.45 1773.01,-937.12 1781,-930 1808.21,-905.76 1773.32,-875.86 1799,-850 1806.13,-842.82 1815.3,-838.01 1824.98,-834.83"/>
<polygon fill="#9a32cd" stroke="#9a32cd" points="1564.39,-951.48 1554.7,-955.77 1564.95,-958.46 1564.39,-951.48"/>
<text text-anchor="middle" x="1690.5" y="-965" font-family="Helvetica,sans-Serif" font-size="10.00"> matAssembleSwitch</text>
<text text-anchor="middle" x="1690.5" y="-954" font-family="Helvetica,sans-Serif" font-size="10.00">vecAssembleSwitch</text>
</g>
<!-- Node36 -->
<g id="node36" class="node">
<title>Node36</title>
<g id="a_node36"><a xlink:title=" ">
<polygon fill="white" stroke="#bfbfbf" points="1127,-38.5 1127,-57.5 1156,-57.5 1156,-38.5 1127,-38.5"/>
<text text-anchor="middle" x="1141.5" y="-45.5" font-family="Helvetica,sans-Serif" font-size="10.00">int</text>
</a>
</g>
</g>
<!-- Node36&#45;&gt;Node1 -->
<g id="edge84" class="edge">
<title>Node36&#45;&gt;Node1</title>
<path fill="none" stroke="#9a32cd" stroke-dasharray="5,2" d="M1166.18,-48C1223.21,-48 1372.7,-48 1497.5,-48 1497.5,-48 1497.5,-48 3140.5,-48 3198.41,-48 3264.15,-55.75 3310.1,-62.45"/>
<polygon fill="#9a32cd" stroke="#9a32cd" points="1166.04,-44.5 1156.04,-48 1166.04,-51.5 1166.04,-44.5"/>
<text text-anchor="middle" x="2458" y="-73" font-family="Helvetica,sans-Serif" font-size="10.00"> nbIntegrationPts</text>
<text text-anchor="middle" x="2458" y="-62" font-family="Helvetica,sans-Serif" font-size="10.00">nbCols</text>
<text text-anchor="middle" x="2458" y="-51" font-family="Helvetica,sans-Serif" font-size="10.00">nbRows</text>
</g>
<!-- Node36&#45;&gt;Node13 -->
<g id="edge44" class="edge">
<title>Node36&#45;&gt;Node13</title>
<path fill="none" stroke="#9a32cd" stroke-dasharray="5,2" d="M1166.11,-50.6C1211.27,-55.8 1312.89,-68.59 1397,-87 1581.5,-127.39 1688.07,-104.58 1781,-269 1810.65,-321.46 1760.49,-764.65 1799,-811 1805.64,-819 1814.83,-824.09 1824.73,-827.25"/>
<polygon fill="#9a32cd" stroke="#9a32cd" points="1166.46,-47.12 1156.13,-49.47 1165.67,-54.07 1166.46,-47.12"/>
<text text-anchor="middle" x="1498.5" y="-157" font-family="Helvetica,sans-Serif" font-size="10.00"> sIze</text>
<text text-anchor="middle" x="1498.5" y="-146" font-family="Helvetica,sans-Serif" font-size="10.00">loopSize</text>
<text text-anchor="middle" x="1498.5" y="-135" font-family="Helvetica,sans-Serif" font-size="10.00">nInTheLoop</text>
<text text-anchor="middle" x="1498.5" y="-124" font-family="Helvetica,sans-Serif" font-size="10.00">rAnk</text>
</g>
<!-- Node36&#45;&gt;Node38 -->
<g id="edge56" class="edge">
<title>Node36&#45;&gt;Node38</title>
<path fill="none" stroke="#9a32cd" stroke-dasharray="5,2" d="M1166.23,-44.94C1189.59,-43.41 1224.4,-45.39 1243,-67 1277.75,-107.36 1225.29,-506.48 1261,-546 1301.92,-591.28 1355.5,-520.25 1397,-565 1440,-611.37 1387.22,-792.19 1415,-849 1429.2,-878.03 1460.61,-900.55 1480.31,-912.5"/>
<polygon fill="#9a32cd" stroke="#9a32cd" points="1165.74,-41.47 1156.1,-45.87 1166.38,-48.45 1165.74,-41.47"/>
<text text-anchor="middle" x="1329" y="-634" font-family="Helvetica,sans-Serif" font-size="10.00"> tagNameSize</text>
<text text-anchor="middle" x="1329" y="-623" font-family="Helvetica,sans-Serif" font-size="10.00">nbDofsRow</text>
<text text-anchor="middle" x="1329" y="-612" font-family="Helvetica,sans-Serif" font-size="10.00">nbLocDofsCol</text>
<text text-anchor="middle" x="1329" y="-601" font-family="Helvetica,sans-Serif" font-size="10.00">nbDofsCol</text>
<text text-anchor="middle" x="1329" y="-590" font-family="Helvetica,sans-Serif" font-size="10.00">nbGhostDofsRow</text>
<text text-anchor="middle" x="1329" y="-579" font-family="Helvetica,sans-Serif" font-size="10.00">nbGhostDofsCol</text>
<text text-anchor="middle" x="1329" y="-568" font-family="Helvetica,sans-Serif" font-size="10.00">nbLocDofsRow</text>
</g>
<!-- Node37 -->
<g id="node37" class="node">
<title>Node37</title>
<g id="a_node37"><a xlink:title=" ">
<polygon fill="white" stroke="#bfbfbf" points="1415,-820.5 1415,-839.5 1582,-839.5 1582,-820.5 1415,-820.5"/>
<text text-anchor="middle" x="1498.5" y="-827.5" font-family="Helvetica,sans-Serif" font-size="10.00">function&lt; MoFEMErrorCode()&gt;</text>
</a>
</g>
</g>
<!-- Node37&#45;&gt;Node13 -->
<g id="edge45" class="edge">
<title>Node37&#45;&gt;Node13</title>
<path fill="none" stroke="#9a32cd" stroke-dasharray="5,2" d="M1592.21,-830C1664.4,-830 1762.51,-830 1824.8,-830"/>
<polygon fill="#9a32cd" stroke="#9a32cd" points="1592.2,-826.5 1582.2,-830 1592.2,-833.5 1592.2,-826.5"/>
<text text-anchor="middle" x="1690.5" y="-855" font-family="Helvetica,sans-Serif" font-size="10.00"> preProcessHook</text>
<text text-anchor="middle" x="1690.5" y="-844" font-family="Helvetica,sans-Serif" font-size="10.00">operatorHook</text>
<text text-anchor="middle" x="1690.5" y="-833" font-family="Helvetica,sans-Serif" font-size="10.00">postProcessHook</text>
</g>
<!-- Node38&#45;&gt;Node13 -->
<g id="edge46" class="edge">
<title>Node38&#45;&gt;Node13</title>
<path fill="none" stroke="#9a32cd" stroke-dasharray="5,2" d="M1558.53,-919.98C1617.74,-915.83 1710.08,-903.46 1781,-867 1790.79,-861.97 1789.3,-855.2 1799,-850 1807.1,-845.65 1816.13,-842.24 1825.21,-839.57"/>
<polygon fill="#9a32cd" stroke="#9a32cd" points="1557.98,-916.5 1548.23,-920.64 1558.43,-923.49 1557.98,-916.5"/>
<text text-anchor="middle" x="1690.5" y="-918" font-family="Helvetica,sans-Serif" font-size="10.00"> problemPtr</text>
</g>
<!-- Node39 -->
<g id="node39" class="node">
<title>Node39</title>
<g id="a_node39"><a xlink:title=" ">
<polygon fill="white" stroke="#bfbfbf" points="1058,-828 1058,-858 1225,-858 1225,-828 1058,-828"/>
<text text-anchor="start" x="1066" y="-846" font-family="Helvetica,sans-Serif" font-size="10.00">shared_ptr&lt; NumeredEntFinite</text>
<text text-anchor="middle" x="1141.5" y="-835" font-family="Helvetica,sans-Serif" font-size="10.00">Element_multiIndex &gt;</text>
</a>
</g>
</g>
<!-- Node39&#45;&gt;Node38 -->
<g id="edge47" class="edge">
<title>Node39&#45;&gt;Node38</title>
<path fill="none" stroke="#9a32cd" stroke-dasharray="5,2" d="M1235.23,-850.19C1284.01,-855.45 1344.44,-864.32 1397,-879 1426.79,-887.32 1459.39,-902.48 1479.14,-912.39"/>
<polygon fill="#9a32cd" stroke="#9a32cd" points="1235.32,-846.68 1225.01,-849.12 1234.59,-853.64 1235.32,-846.68"/>
<text text-anchor="middle" x="1329" y="-882" font-family="Helvetica,sans-Serif" font-size="10.00"> numeredFiniteElementsPtr</text>
</g>
<!-- Node40 -->
<g id="node40" class="node">
<title>Node40</title>
<g id="a_node40"><a xlink:title=" ">
<polygon fill="white" stroke="#bfbfbf" points="1112,-789.5 1112,-808.5 1171,-808.5 1171,-789.5 1112,-789.5"/>
<text text-anchor="middle" x="1141.5" y="-796.5" font-family="Helvetica,sans-Serif" font-size="10.00">BitFEId *</text>
</a>
</g>
</g>
<!-- Node40&#45;&gt;Node38 -->
<g id="edge48" class="edge">
<title>Node40&#45;&gt;Node38</title>
<path fill="none" stroke="#9a32cd" stroke-dasharray="5,2" d="M1181.03,-798.57C1232.52,-799.37 1325.54,-805.73 1397,-838 1417.52,-847.26 1466.42,-892.45 1487.52,-912.45"/>
<polygon fill="#9a32cd" stroke="#9a32cd" points="1181.04,-795.07 1171.01,-798.47 1180.97,-802.07 1181.04,-795.07"/>
<text text-anchor="middle" x="1329" y="-841" font-family="Helvetica,sans-Serif" font-size="10.00"> tagBitFEId</text>
</g>
<!-- Node41 -->
<g id="node41" class="node">
<title>Node41</title>
<g id="a_node41"><a xlink:href="classEntityHandle.html" target="_top" xlink:title=" ">
<polygon fill="white" stroke="black" points="1101.5,-1179.5 1101.5,-1198.5 1181.5,-1198.5 1181.5,-1179.5 1101.5,-1179.5"/>
<text text-anchor="middle" x="1141.5" y="-1186.5" font-family="Helvetica,sans-Serif" font-size="10.00">EntityHandle</text>
</a>
</g>
</g>
<!-- Node41&#45;&gt;Node38 -->
<g id="edge49" class="edge">
<title>Node41&#45;&gt;Node38</title>
<path fill="none" stroke="#9a32cd" stroke-dasharray="5,2" d="M1191.91,-1183.6C1263.94,-1175.51 1390.01,-1160.39 1397,-1153 1429.49,-1118.65 1384.02,-976.71 1415,-941 1423.57,-931.12 1436.16,-925.81 1448.92,-923.09"/>
<polygon fill="#9a32cd" stroke="#9a32cd" points="1191.25,-1180.15 1181.7,-1184.74 1192.03,-1187.11 1191.25,-1180.15"/>
<text text-anchor="middle" x="1329" y="-1177" font-family="Helvetica,sans-Serif" font-size="10.00"> meshset</text>
</g>
<!-- Node42 -->
<g id="node42" class="node">
<title>Node42</title>
<g id="a_node42"><a xlink:title=" ">
<polygon fill="white" stroke="#bfbfbf" points="1067,-1130 1067,-1160 1216,-1160 1216,-1130 1067,-1130"/>
<text text-anchor="start" x="1075" y="-1148" font-family="Helvetica,sans-Serif" font-size="10.00">shared_ptr&lt; MoFEM::</text>
<text text-anchor="middle" x="1141.5" y="-1137" font-family="Helvetica,sans-Serif" font-size="10.00">ComposedProblemsData &gt;</text>
</a>
</g>
</g>
<!-- Node42&#45;&gt;Node38 -->
<g id="edge50" class="edge">
<title>Node42&#45;&gt;Node38</title>
<path fill="none" stroke="#9a32cd" stroke-dasharray="5,2" d="M1226.17,-1141.65C1295.63,-1138.02 1384.94,-1131.07 1397,-1119 1425.1,-1090.87 1388.71,-970.82 1415,-941 1423.55,-931.3 1435.98,-926.02 1448.6,-923.27"/>
<polygon fill="#9a32cd" stroke="#9a32cd" points="1225.89,-1138.16 1216.08,-1142.16 1226.25,-1145.15 1225.89,-1138.16"/>
<text text-anchor="middle" x="1329" y="-1142" font-family="Helvetica,sans-Serif" font-size="10.00"> composedProblemsData</text>
</g>
<!-- Node43 -->
<g id="node43" class="node">
<title>Node43</title>
<g id="a_node43"><a xlink:title=" ">
<polygon fill="white" stroke="#bfbfbf" points="1101,-1091.5 1101,-1110.5 1182,-1110.5 1182,-1091.5 1101,-1091.5"/>
<text text-anchor="middle" x="1141.5" y="-1098.5" font-family="Helvetica,sans-Serif" font-size="10.00">BitRefLevel *</text>
</a>
</g>
</g>
<!-- Node43&#45;&gt;Node38 -->
<g id="edge51" class="edge">
<title>Node43&#45;&gt;Node38</title>
<path fill="none" stroke="#9a32cd" stroke-dasharray="5,2" d="M1192.4,-1098.56C1262.35,-1094.67 1382.67,-1086.01 1397,-1072 1439.03,-1030.93 1375.35,-984.38 1415,-941 1423.73,-931.45 1436.2,-926.22 1448.82,-923.47"/>
<polygon fill="#9a32cd" stroke="#9a32cd" points="1191.84,-1095.09 1182.05,-1099.13 1192.22,-1102.08 1191.84,-1095.09"/>
<text text-anchor="middle" x="1329" y="-1107" font-family="Helvetica,sans-Serif" font-size="10.00"> tagBitRefLevelMask</text>
<text text-anchor="middle" x="1329" y="-1096" font-family="Helvetica,sans-Serif" font-size="10.00">tagBitRefLevel</text>
</g>
<!-- Node44 -->
<g id="node44" class="node">
<title>Node44</title>
<g id="a_node44"><a xlink:title=" ">
<polygon fill="white" stroke="#bfbfbf" points="1056.5,-1042 1056.5,-1072 1226.5,-1072 1226.5,-1042 1056.5,-1042"/>
<text text-anchor="start" x="1064.5" y="-1060" font-family="Helvetica,sans-Serif" font-size="10.00">shared_ptr&lt; NumeredDofEntity</text>
<text text-anchor="middle" x="1141.5" y="-1049" font-family="Helvetica,sans-Serif" font-size="10.00">_multiIndex &gt;</text>
</a>
</g>
</g>
<!-- Node44&#45;&gt;Node38 -->
<g id="edge52" class="edge">
<title>Node44&#45;&gt;Node38</title>
<path fill="none" stroke="#9a32cd" stroke-dasharray="5,2" d="M1236.78,-1049.25C1304.19,-1042.83 1385.05,-1033.01 1397,-1022 1424.12,-997.01 1389.02,-967.18 1415,-941 1424.01,-931.92 1436.42,-926.82 1448.88,-924.04"/>
<polygon fill="#9a32cd" stroke="#9a32cd" points="1236.14,-1045.79 1226.51,-1050.21 1236.79,-1052.76 1236.14,-1045.79"/>
<text text-anchor="middle" x="1329" y="-1060" font-family="Helvetica,sans-Serif" font-size="10.00"> numeredRowDofsPtr</text>
<text text-anchor="middle" x="1329" y="-1049" font-family="Helvetica,sans-Serif" font-size="10.00">numeredColDofsPtr</text>
</g>
<!-- Node45 -->
<g id="node45" class="node">
<title>Node45</title>
<g id="a_node45"><a xlink:title=" ">
<polygon fill="white" stroke="#bfbfbf" points="1072.5,-1003.5 1072.5,-1022.5 1210.5,-1022.5 1210.5,-1003.5 1072.5,-1003.5"/>
<text text-anchor="middle" x="1141.5" y="-1010.5" font-family="Helvetica,sans-Serif" font-size="10.00">vector&lt; BlockFieldPair &gt;</text>
</a>
</g>
</g>
<!-- Node45&#45;&gt;Node38 -->
<g id="edge54" class="edge">
<title>Node45&#45;&gt;Node38</title>
<path fill="none" stroke="#9a32cd" stroke-dasharray="5,2" d="M1220.69,-1010.62C1284.92,-1007.23 1369.62,-998.99 1397,-979 1412.09,-967.98 1400.44,-952.71 1415,-941 1424.62,-933.26 1436.81,-928.56 1448.85,-925.73"/>
<polygon fill="#9a32cd" stroke="#9a32cd" points="1220.38,-1007.13 1210.57,-1011.13 1220.73,-1014.13 1220.38,-1007.13"/>
<text text-anchor="middle" x="1329" y="-1010" font-family="Helvetica,sans-Serif" font-size="10.00"> emptyFieldBlocks</text>
</g>
<!-- Node46 -->
<g id="node46" class="node">
<title>Node46</title>
<g id="a_node46"><a xlink:title=" ">
<polygon fill="white" stroke="#bfbfbf" points="1063.5,-954 1063.5,-984 1219.5,-984 1219.5,-954 1063.5,-954"/>
<text text-anchor="start" x="1071.5" y="-972" font-family="Helvetica,sans-Serif" font-size="10.00">shared_ptr&lt; MoFEM::</text>
<text text-anchor="middle" x="1141.5" y="-961" font-family="Helvetica,sans-Serif" font-size="10.00">Problem::SubProblemData &gt;</text>
</a>
</g>
</g>
<!-- Node46&#45;&gt;Node38 -->
<g id="edge55" class="edge">
<title>Node46&#45;&gt;Node38</title>
<path fill="none" stroke="#9a32cd" stroke-dasharray="5,2" d="M1229.77,-966.53C1279.24,-963.87 1342.05,-958.37 1397,-947 1405.26,-945.29 1406.88,-943.28 1415,-941 1427.03,-937.62 1440.16,-934.39 1452.34,-931.58"/>
<polygon fill="#9a32cd" stroke="#9a32cd" points="1229.55,-963.04 1219.75,-967.04 1229.91,-970.03 1229.55,-963.04"/>
<text text-anchor="middle" x="1329" y="-967" font-family="Helvetica,sans-Serif" font-size="10.00"> subProblemData</text>
</g>
<!-- Node47 -->
<g id="node47" class="node">
<title>Node47</title>
<g id="a_node47"><a xlink:title=" ">
<polygon fill="white" stroke="#bfbfbf" points="1040,-915.5 1040,-934.5 1243,-934.5 1243,-915.5 1040,-915.5"/>
<text text-anchor="middle" x="1141.5" y="-922.5" font-family="Helvetica,sans-Serif" font-size="10.00">shared_ptr&lt; SequenceDofContainer &gt;</text>
</a>
</g>
</g>
<!-- Node47&#45;&gt;Node38 -->
<g id="edge57" class="edge">
<title>Node47&#45;&gt;Node38</title>
<path fill="none" stroke="#9a32cd" stroke-dasharray="5,2" d="M1253.66,-924.06C1319.11,-923.51 1398.61,-922.84 1448.65,-922.41"/>
<polygon fill="#9a32cd" stroke="#9a32cd" points="1253.25,-920.56 1243.28,-924.15 1253.31,-927.56 1253.25,-920.56"/>
<text text-anchor="middle" x="1329" y="-937" font-family="Helvetica,sans-Serif" font-size="10.00"> sequenceRowDofContainer</text>
<text text-anchor="middle" x="1329" y="-926" font-family="Helvetica,sans-Serif" font-size="10.00">sequenceColDofContainer</text>
</g>
<!-- Node48 -->
<g id="node48" class="node">
<title>Node48</title>
<g id="a_node48"><a xlink:title=" ">
<polygon fill="white" stroke="#bfbfbf" points="1097.5,-877.5 1097.5,-896.5 1185.5,-896.5 1185.5,-877.5 1097.5,-877.5"/>
<text text-anchor="middle" x="1141.5" y="-884.5" font-family="Helvetica,sans-Serif" font-size="10.00">BitProblemId *</text>
</a>
</g>
</g>
<!-- Node48&#45;&gt;Node38 -->
<g id="edge58" class="edge">
<title>Node48&#45;&gt;Node38</title>
<path fill="none" stroke="#9a32cd" stroke-dasharray="5,2" d="M1196.06,-890.12C1247.63,-893.38 1327.79,-899.13 1397,-907 1413.91,-908.92 1432.36,-911.53 1448.77,-914.03"/>
<polygon fill="#9a32cd" stroke="#9a32cd" points="1196.02,-886.61 1185.82,-889.48 1195.58,-893.6 1196.02,-886.61"/>
<text text-anchor="middle" x="1329" y="-910" font-family="Helvetica,sans-Serif" font-size="10.00"> tagId</text>
</g>
<!-- Node49 -->
<g id="node49" class="node">
<title>Node49</title>
<g id="a_node49"><a xlink:title=" ">
<polygon fill="white" stroke="#bfbfbf" points="1805,-771 1805,-801 1967,-801 1967,-771 1805,-771"/>
<text text-anchor="start" x="1813" y="-789" font-family="Helvetica,sans-Serif" font-size="10.00">shared_ptr&lt; const MoFEM</text>
<text text-anchor="middle" x="1886" y="-778" font-family="Helvetica,sans-Serif" font-size="10.00">::NumeredEntFiniteElement &gt;</text>
</a>
</g>
</g>
<!-- Node49&#45;&gt;Node12 -->
<g id="edge59" class="edge">
<title>Node49&#45;&gt;Node12</title>
<path fill="none" stroke="#9a32cd" stroke-dasharray="5,2" d="M1977.34,-785.82C2026.41,-789.08 2086.72,-798.73 2135,-824 2145.31,-829.39 2142.78,-837.44 2153,-843 2167.95,-851.14 2185.76,-855.85 2202.29,-858.57"/>
<polygon fill="#9a32cd" stroke="#9a32cd" points="1977.24,-782.31 1967.05,-785.22 1976.83,-789.3 1977.24,-782.31"/>
<text text-anchor="middle" x="2063" y="-827" font-family="Helvetica,sans-Serif" font-size="10.00"> numeredEntFiniteElementPtr</text>
</g>
<!-- Node50 -->
<g id="node50" class="node">
<title>Node50</title>
<g id="a_node50"><a xlink:title=" ">
<polygon fill="white" stroke="#bfbfbf" points="1864,-911.5 1864,-930.5 1908,-930.5 1908,-911.5 1864,-911.5"/>
<text text-anchor="middle" x="1886" y="-918.5" font-family="Helvetica,sans-Serif" font-size="10.00">string</text>
</a>
</g>
</g>
<!-- Node50&#45;&gt;Node3 -->
<g id="edge82" class="edge">
<title>Node50&#45;&gt;Node3</title>
<path fill="none" stroke="#9a32cd" stroke-dasharray="5,2" d="M1918.44,-924.15C2014.95,-932.59 2314.07,-949.69 2539,-864 2700.85,-802.34 2857.82,-655.68 2905.99,-608.15"/>
<polygon fill="#9a32cd" stroke="#9a32cd" points="1918.47,-920.64 1908.2,-923.21 1917.84,-927.61 1918.47,-920.64"/>
<text text-anchor="middle" x="2458" y="-921" font-family="Helvetica,sans-Serif" font-size="10.00"> colFieldName</text>
<text text-anchor="middle" x="2458" y="-910" font-family="Helvetica,sans-Serif" font-size="10.00">rowFieldName</text>
</g>
<!-- Node50&#45;&gt;Node12 -->
<g id="edge60" class="edge">
<title>Node50&#45;&gt;Node12</title>
<path fill="none" stroke="#9a32cd" stroke-dasharray="5,2" d="M1917.8,-913.49C1938.43,-908.63 1966.24,-902.42 1991,-898 2063.86,-885 2148.77,-874.19 2202.21,-867.91"/>
<polygon fill="#9a32cd" stroke="#9a32cd" points="1916.93,-910.1 1908.01,-915.82 1918.55,-916.91 1916.93,-910.1"/>
<text text-anchor="middle" x="2063" y="-901" font-family="Helvetica,sans-Serif" font-size="10.00"> feName</text>
</g>
<!-- Node51 -->
<g id="node51" class="node">
<title>Node51</title>
<g id="a_node51"><a xlink:title=" ">
<polygon fill="white" stroke="#bfbfbf" points="1804.5,-859 1804.5,-889 1967.5,-889 1967.5,-859 1804.5,-859"/>
<text text-anchor="start" x="1812.5" y="-877" font-family="Helvetica,sans-Serif" font-size="10.00">function&lt; bool(MoFEM</text>
<text text-anchor="middle" x="1886" y="-866" font-family="Helvetica,sans-Serif" font-size="10.00">::FEMethod *fe_method_ptr)&gt;</text>
</a>
</g>
</g>
<!-- Node51&#45;&gt;Node12 -->
<g id="edge61" class="edge">
<title>Node51&#45;&gt;Node12</title>
<path fill="none" stroke="#9a32cd" stroke-dasharray="5,2" d="M1977.56,-864.81C1982.1,-864.5 1986.6,-864.23 1991,-864 2064.24,-860.21 2149.05,-860.38 2202.37,-861.03"/>
<polygon fill="#9a32cd" stroke="#9a32cd" points="1977.29,-861.32 1967.57,-865.54 1977.8,-868.3 1977.29,-861.32"/>
<text text-anchor="middle" x="2063" y="-867" font-family="Helvetica,sans-Serif" font-size="10.00"> exeTestHook</text>
</g>
<!-- Node52 -->
<g id="node52" class="node">
<title>Node52</title>
<g id="a_node52"><a xlink:href="classdouble.html" target="_top" xlink:title=" ">
<polygon fill="white" stroke="black" points="2231,-666.5 2231,-685.5 2281,-685.5 2281,-666.5 2231,-666.5"/>
<text text-anchor="middle" x="2256" y="-673.5" font-family="Helvetica,sans-Serif" font-size="10.00">double</text>
</a>
</g>
</g>
<!-- Node52&#45;&gt;Node11 -->
<g id="edge62" class="edge">
<title>Node52&#45;&gt;Node11</title>
<path fill="none" stroke="#9a32cd" stroke-dasharray="5,2" d="M2291.53,-674.91C2344.88,-672.86 2450.42,-667.37 2539,-654 2560.9,-650.69 2585.09,-645.32 2604.42,-640.59"/>
<polygon fill="#9a32cd" stroke="#9a32cd" points="2291.14,-671.42 2281.28,-675.28 2291.4,-678.41 2291.14,-671.42"/>
<text text-anchor="middle" x="2458" y="-673" font-family="Helvetica,sans-Serif" font-size="10.00"> elementMeasure</text>
</g>
<!-- Node53 -->
<g id="node53" class="node">
<title>Node53</title>
<g id="a_node53"><a xlink:title=" ">
<polygon fill="white" stroke="#bfbfbf" points="2170,-606.5 2170,-647.5 2342,-647.5 2342,-606.5 2170,-606.5"/>
<text text-anchor="start" x="2178" y="-635.5" font-family="Helvetica,sans-Serif" font-size="10.00">array&lt; boost::shared</text>
<text text-anchor="start" x="2178" y="-624.5" font-family="Helvetica,sans-Serif" font-size="10.00">_ptr&lt; MoFEM::EntitiesFieldData</text>
<text text-anchor="middle" x="2256" y="-613.5" font-family="Helvetica,sans-Serif" font-size="10.00"> &gt;, LASTSPACE &gt;</text>
</a>
</g>
</g>
<!-- Node53&#45;&gt;Node11 -->
<g id="edge63" class="edge">
<title>Node53&#45;&gt;Node11</title>
<path fill="none" stroke="#9a32cd" stroke-dasharray="5,2" d="M2352.51,-627.99C2415.19,-628.65 2496.4,-629.49 2556.68,-630.12"/>
<polygon fill="#9a32cd" stroke="#9a32cd" points="2352.26,-624.49 2342.22,-627.89 2352.19,-631.49 2352.26,-624.49"/>
<text text-anchor="middle" x="2458" y="-643" font-family="Helvetica,sans-Serif" font-size="10.00"> derivedDataOnElement</text>
<text text-anchor="middle" x="2458" y="-632" font-family="Helvetica,sans-Serif" font-size="10.00">dataOnElement</text>
</g>
<!-- Node54 -->
<g id="node54" class="node">
<title>Node54</title>
<g id="a_node54"><a xlink:title=" ">
<polygon fill="white" stroke="#bfbfbf" points="2222,-568.5 2222,-587.5 2290,-587.5 2290,-568.5 2222,-568.5"/>
<text text-anchor="middle" x="2256" y="-575.5" font-family="Helvetica,sans-Serif" font-size="10.00">EntityType</text>
</a>
</g>
</g>
<!-- Node54&#45;&gt;Node11 -->
<g id="edge64" class="edge">
<title>Node54&#45;&gt;Node11</title>
<path fill="none" stroke="#9a32cd" stroke-dasharray="5,2" d="M2300.23,-582.67C2355.65,-588.82 2454.67,-600.33 2539,-613 2555.63,-615.5 2573.71,-618.57 2589.98,-621.47"/>
<polygon fill="#9a32cd" stroke="#9a32cd" points="2300.39,-579.17 2290.07,-581.55 2299.63,-586.12 2300.39,-579.17"/>
<text text-anchor="middle" x="2458" y="-616" font-family="Helvetica,sans-Serif" font-size="10.00"> lastEvaluatedElementEntityType</text>
</g>
<!-- Node55 -->
<g id="node55" class="node">
<title>Node55</title>
<g id="a_node55"><a xlink:href="structMoFEM_1_1DeprecatedCoreInterface.html" target="_top" xlink:title="Deprecated interface functions.">
<polygon fill="white" stroke="black" points="1600,-63.5 1600,-82.5 1781,-82.5 1781,-63.5 1600,-63.5"/>
<text text-anchor="middle" x="1690.5" y="-70.5" font-family="Helvetica,sans-Serif" font-size="10.00">MoFEM::DeprecatedCoreInterface</text>
</a>
</g>
</g>
<!-- Node55&#45;&gt;Node11 -->
<g id="edge65" class="edge">
<title>Node55&#45;&gt;Node11</title>
<path fill="none" stroke="#9a32cd" stroke-dasharray="5,2" d="M1719.15,-87.47C1736.98,-96.97 1760.58,-109.84 1781,-122 1950.07,-222.64 1966.8,-298.41 2153,-362 2234.47,-389.83 2478.2,-334.05 2539,-395 2573.17,-429.26 2525.26,-575.48 2557,-612 2560.24,-615.72 2564.04,-618.8 2568.2,-621.34"/>
<polygon fill="#9a32cd" stroke="#9a32cd" points="1720.36,-84.16 1709.89,-82.57 1717.09,-90.34 1720.36,-84.16"/>
<text text-anchor="middle" x="2063" y="-358" font-family="Helvetica,sans-Serif" font-size="10.00"> mField</text>
</g>
<!-- Node56&#45;&gt;Node55 -->
<g id="edge66" class="edge">
<title>Node56&#45;&gt;Node55</title>
<path fill="none" stroke="midnightblue" d="M1214.32,-18.27C1315.56,-29.93 1499.81,-51.15 1606.69,-63.46"/>
<polygon fill="midnightblue" stroke="midnightblue" points="1214.52,-14.77 1204.18,-17.1 1213.72,-21.73 1214.52,-14.77"/>
</g>
<!-- Node57 -->
<g id="node57" class="node">
<title>Node57</title>
<g id="a_node57"><a xlink:title=" ">
<polygon fill="white" stroke="#bfbfbf" points="2172.5,-459 2172.5,-511 2339.5,-511 2339.5,-459 2172.5,-459"/>
<text text-anchor="start" x="2180.5" y="-499" font-family="Helvetica,sans-Serif" font-size="10.00">function&lt; MoFEMErrorCode</text>
<text text-anchor="start" x="2180.5" y="-488" font-family="Helvetica,sans-Serif" font-size="10.00">(ForcesAndSourcesCore *fe</text>
<text text-anchor="start" x="2180.5" y="-477" font-family="Helvetica,sans-Serif" font-size="10.00">_raw_ptr, int order_row,</text>
<text text-anchor="middle" x="2256" y="-466" font-family="Helvetica,sans-Serif" font-size="10.00"> int order_col, int order_data)&gt;</text>
</a>
</g>
</g>
<!-- Node57&#45;&gt;Node11 -->
<g id="edge69" class="edge">
<title>Node57&#45;&gt;Node11</title>
<path fill="none" stroke="#9a32cd" stroke-dasharray="5,2" d="M2349.7,-463.16C2410.9,-454.6 2488.79,-455.76 2539,-501 2576.13,-534.45 2522.77,-575.59 2557,-612 2560.58,-615.81 2564.76,-618.94 2569.3,-621.49"/>
<polygon fill="#9a32cd" stroke="#9a32cd" points="2349,-459.73 2339.64,-464.68 2350.05,-466.65 2349,-459.73"/>
<text text-anchor="middle" x="2458" y="-504" font-family="Helvetica,sans-Serif" font-size="10.00"> setRuleHook</text>
</g>
<!-- Node58 -->
<g id="node58" class="node">
<title>Node58</title>
<g id="a_node58"><a xlink:title=" ">
<polygon fill="white" stroke="#bfbfbf" points="2155,-410 2155,-440 2357,-440 2357,-410 2155,-410"/>
<text text-anchor="start" x="2163" y="-428" font-family="Helvetica,sans-Serif" font-size="10.00">ptr_deque&lt; MoFEM::Forces</text>
<text text-anchor="middle" x="2256" y="-417" font-family="Helvetica,sans-Serif" font-size="10.00">AndSourcesCore::UserDataOperator &gt;</text>
</a>
</g>
</g>
<!-- Node58&#45;&gt;Node11 -->
<g id="edge70" class="edge">
<title>Node58&#45;&gt;Node11</title>
<path fill="none" stroke="#9a32cd" stroke-dasharray="5,2" d="M2322.7,-407.99C2386.75,-395.75 2482.5,-389.69 2539,-444 2566.07,-470.02 2532.03,-583.96 2557,-612 2560.38,-615.8 2564.35,-618.92 2568.68,-621.48"/>
<polygon fill="#9a32cd" stroke="#9a32cd" points="2321.82,-404.6 2312.71,-410 2323.2,-411.46 2321.82,-404.6"/>
<text text-anchor="middle" x="2458" y="-447" font-family="Helvetica,sans-Serif" font-size="10.00"> opPtrVector</text>
</g>
<!-- Node59 -->
<g id="node59" class="node">
<title>Node59</title>
<g id="a_node59"><a xlink:href="structMoFEM_1_1EntitiesFieldData.html" target="_top" xlink:title="data structure for finite element entity">
<polygon fill="white" stroke="black" points="2185,-530.5 2185,-549.5 2327,-549.5 2327,-530.5 2185,-530.5"/>
<text text-anchor="middle" x="2256" y="-537.5" font-family="Helvetica,sans-Serif" font-size="10.00">MoFEM::EntitiesFieldData</text>
</a>
</g>
</g>
<!-- Node59&#45;&gt;Node11 -->
<g id="edge71" class="edge">
<title>Node59&#45;&gt;Node11</title>
<path fill="none" stroke="#9a32cd" stroke-dasharray="5,2" d="M2321,-528.95C2393.75,-517.95 2506.63,-506.1 2539,-532 2567.46,-554.77 2531.24,-586.22 2557,-612 2560.8,-615.81 2565.2,-618.92 2569.94,-621.46"/>
<polygon fill="#9a32cd" stroke="#9a32cd" points="2320.36,-525.51 2311.02,-530.5 2321.43,-532.43 2320.36,-525.51"/>
<text text-anchor="middle" x="2458" y="-579" font-family="Helvetica,sans-Serif" font-size="10.00"> dataNoField</text>
<text text-anchor="middle" x="2458" y="-568" font-family="Helvetica,sans-Serif" font-size="10.00">dataL2</text>
<text text-anchor="middle" x="2458" y="-557" font-family="Helvetica,sans-Serif" font-size="10.00">dataH1</text>
<text text-anchor="middle" x="2458" y="-546" font-family="Helvetica,sans-Serif" font-size="10.00">dataHcurl</text>
<text text-anchor="middle" x="2458" y="-535" font-family="Helvetica,sans-Serif" font-size="10.00">dataHdiv</text>
</g>
<!-- Node60 -->
<g id="node60" class="node">
<title>Node60</title>
<g id="a_node60"><a xlink:title=" ">
<polygon fill="white" stroke="#bfbfbf" points="1805,-422 1805,-452 1967,-452 1967,-422 1805,-422"/>
<text text-anchor="start" x="1813" y="-440" font-family="Helvetica,sans-Serif" font-size="10.00">array&lt; std::bitset</text>
<text text-anchor="middle" x="1886" y="-429" font-family="Helvetica,sans-Serif" font-size="10.00">&lt; LASTBASE &gt;, LASTSPACE &gt;</text>
</a>
</g>
</g>
<!-- Node60&#45;&gt;Node59 -->
<g id="edge72" class="edge">
<title>Node60&#45;&gt;Node59</title>
<path fill="none" stroke="#9a32cd" stroke-dasharray="5,2" d="M1956.59,-420.25C2011.18,-411.47 2085.91,-409.69 2135,-450 2160.16,-470.66 2129.25,-498.73 2153,-521 2161.87,-529.32 2173.15,-534.57 2184.96,-537.79"/>
<polygon fill="#9a32cd" stroke="#9a32cd" points="1955.9,-416.82 1946.64,-421.96 1957.09,-423.71 1955.9,-416.82"/>
<text text-anchor="middle" x="2063" y="-464" font-family="Helvetica,sans-Serif" font-size="10.00"> brokenBasesOnSpaces</text>
<text text-anchor="middle" x="2063" y="-453" font-family="Helvetica,sans-Serif" font-size="10.00">basesOnSpaces</text>
</g>
<!-- Node61 -->
<g id="node61" class="node">
<title>Node61</title>
<g id="a_node61"><a xlink:title=" ">
<polygon fill="white" stroke="#bfbfbf" points="1809.5,-648.5 1809.5,-689.5 1962.5,-689.5 1962.5,-648.5 1809.5,-648.5"/>
<text text-anchor="start" x="1817.5" y="-677.5" font-family="Helvetica,sans-Serif" font-size="10.00">array&lt; boost::ptr_vector</text>
<text text-anchor="start" x="1817.5" y="-666.5" font-family="Helvetica,sans-Serif" font-size="10.00">&lt; MoFEM::EntitiesFieldData</text>
<text text-anchor="middle" x="1886" y="-655.5" font-family="Helvetica,sans-Serif" font-size="10.00">::EntData &gt;, MBMAXTYPE &gt;</text>
</a>
</g>
</g>
<!-- Node61&#45;&gt;Node59 -->
<g id="edge73" class="edge">
<title>Node61&#45;&gt;Node59</title>
<path fill="none" stroke="#9a32cd" stroke-dasharray="5,2" d="M1972.7,-675.91C2025.73,-675.43 2091.72,-665.51 2135,-626 2157.77,-605.21 2130.36,-579.93 2153,-559 2161.86,-550.81 2173.07,-545.6 2184.79,-542.38"/>
<polygon fill="#9a32cd" stroke="#9a32cd" points="1972.62,-672.41 1962.62,-675.89 1972.61,-679.41 1972.62,-672.41"/>
<text text-anchor="middle" x="2063" y="-678" font-family="Helvetica,sans-Serif" font-size="10.00"> dataOnEntities</text>
</g>
<!-- Node62 -->
<g id="node62" class="node">
<title>Node62</title>
<g id="a_node62"><a xlink:title=" ">
<polygon fill="white" stroke="#bfbfbf" points="1799,-599 1799,-629 1973,-629 1973,-599 1799,-599"/>
<text text-anchor="start" x="1807" y="-617" font-family="Helvetica,sans-Serif" font-size="10.00">array&lt; std::bitset</text>
<text text-anchor="middle" x="1886" y="-606" font-family="Helvetica,sans-Serif" font-size="10.00">&lt; LASTSPACE &gt;, MBMAXTYPE &gt;</text>
</a>
</g>
</g>
<!-- Node62&#45;&gt;Node59 -->
<g id="edge74" class="edge">
<title>Node62&#45;&gt;Node59</title>
<path fill="none" stroke="#9a32cd" stroke-dasharray="5,2" d="M1983.16,-612.62C2030.86,-608.68 2088.14,-598.89 2135,-576 2144.89,-571.17 2143.19,-563.99 2153,-559 2162.87,-553.98 2173.89,-550.27 2184.93,-547.54"/>
<polygon fill="#9a32cd" stroke="#9a32cd" points="1982.85,-609.14 1973.14,-613.38 1983.37,-616.12 1982.85,-609.14"/>
<text text-anchor="middle" x="2063" y="-614" font-family="Helvetica,sans-Serif" font-size="10.00"> spacesOnEntities</text>
</g>
<!-- Node63 -->
<g id="node63" class="node">
<title>Node63</title>
<g id="a_node63"><a xlink:title=" ">
<polygon fill="white" stroke="#bfbfbf" points="1801.5,-511 1801.5,-541 1970.5,-541 1970.5,-511 1801.5,-511"/>
<text text-anchor="start" x="1809.5" y="-529" font-family="Helvetica,sans-Serif" font-size="10.00">array&lt; std::bitset</text>
<text text-anchor="middle" x="1886" y="-518" font-family="Helvetica,sans-Serif" font-size="10.00">&lt; LASTBASE &gt;, MBMAXTYPE &gt;</text>
</a>
</g>
</g>
<!-- Node63&#45;&gt;Node59 -->
<g id="edge75" class="edge">
<title>Node63&#45;&gt;Node59</title>
<path fill="none" stroke="#9a32cd" stroke-dasharray="5,2" d="M1980.54,-529.56C2044.11,-531.98 2126.86,-535.13 2184.81,-537.33"/>
<polygon fill="#9a32cd" stroke="#9a32cd" points="1980.63,-526.06 1970.5,-529.18 1980.36,-533.05 1980.63,-526.06"/>
<text text-anchor="middle" x="2063" y="-538" font-family="Helvetica,sans-Serif" font-size="10.00"> basesOnEntities</text>
</g>
<!-- Node64 -->
<g id="node64" class="node">
<title>Node64</title>
<g id="a_node64"><a xlink:title=" ">
<polygon fill="white" stroke="#bfbfbf" points="1830,-472.5 1830,-491.5 1942,-491.5 1942,-472.5 1830,-472.5"/>
<text text-anchor="middle" x="1886" y="-479.5" font-family="Helvetica,sans-Serif" font-size="10.00">UBlasMatrix&lt; int &gt;</text>
</a>
</g>
</g>
<!-- Node64&#45;&gt;Node59 -->
<g id="edge76" class="edge">
<title>Node64&#45;&gt;Node59</title>
<path fill="none" stroke="#9a32cd" stroke-dasharray="5,2" d="M1952.37,-476.38C2004.16,-474.56 2077.16,-477.99 2135,-504 2145.04,-508.51 2143.19,-516.01 2153,-521 2162.87,-526.02 2173.89,-529.73 2184.93,-532.46"/>
<polygon fill="#9a32cd" stroke="#9a32cd" points="1952.15,-472.89 1942.31,-476.81 1952.45,-479.88 1952.15,-472.89"/>
<text text-anchor="middle" x="2063" y="-518" font-family="Helvetica,sans-Serif" font-size="10.00"> facesNodesOrder</text>
<text text-anchor="middle" x="2063" y="-507" font-family="Helvetica,sans-Serif" font-size="10.00">facesNodes</text>
</g>
<!-- Node65 -->
<g id="node65" class="node">
<title>Node65</title>
<g id="a_node65"><a xlink:title=" ">
<polygon fill="white" stroke="#bfbfbf" points="1827.5,-560.5 1827.5,-579.5 1944.5,-579.5 1944.5,-560.5 1827.5,-560.5"/>
<text text-anchor="middle" x="1886" y="-567.5" font-family="Helvetica,sans-Serif" font-size="10.00">bitset&lt; LASTBASE &gt;</text>
</a>
</g>
</g>
<!-- Node65&#45;&gt;Node59 -->
<g id="edge77" class="edge">
<title>Node65&#45;&gt;Node59</title>
<path fill="none" stroke="#9a32cd" stroke-dasharray="5,2" d="M1955.11,-564.45C2020.49,-559.12 2118.8,-551.1 2184.86,-545.72"/>
<polygon fill="#9a32cd" stroke="#9a32cd" points="1954.59,-560.98 1944.9,-565.28 1955.16,-567.96 1954.59,-560.98"/>
<text text-anchor="middle" x="2063" y="-564" font-family="Helvetica,sans-Serif" font-size="10.00"> bAse</text>
</g>
<!-- Node66 -->
<g id="node66" class="node">
<title>Node66</title>
<g id="a_node66"><a xlink:title=" ">
<polygon fill="white" stroke="#bfbfbf" points="2193.5,-792.5 2193.5,-833.5 2318.5,-833.5 2318.5,-792.5 2193.5,-792.5"/>
<text text-anchor="start" x="2201.5" y="-821.5" font-family="Helvetica,sans-Serif" font-size="10.00">function&lt; int(int order</text>
<text text-anchor="start" x="2201.5" y="-810.5" font-family="Helvetica,sans-Serif" font-size="10.00">_row, int order_col, int</text>
<text text-anchor="middle" x="2256" y="-799.5" font-family="Helvetica,sans-Serif" font-size="10.00"> order_data)&gt;</text>
</a>
</g>
</g>
<!-- Node66&#45;&gt;Node11 -->
<g id="edge78" class="edge">
<title>Node66&#45;&gt;Node11</title>
<path fill="none" stroke="#9a32cd" stroke-dasharray="5,2" d="M2328.99,-814.56C2400.68,-814.85 2504.84,-811.5 2539,-791 2598.6,-755.23 2629.24,-669.73 2638.18,-640.78"/>
<polygon fill="#9a32cd" stroke="#9a32cd" points="2328.68,-811.06 2318.66,-814.49 2328.64,-818.06 2328.68,-811.06"/>
<text text-anchor="middle" x="2458" y="-817" font-family="Helvetica,sans-Serif" font-size="10.00"> getRuleHook</text>
</g>
<!-- Node67 -->
<g id="node67" class="node">
<title>Node67</title>
<g id="a_node67"><a xlink:title=" ">
<polygon fill="white" stroke="#bfbfbf" points="2195,-743 2195,-773 2317,-773 2317,-743 2195,-743"/>
<text text-anchor="start" x="2203" y="-761" font-family="Helvetica,sans-Serif" font-size="10.00">shared_ptr&lt; MoFEM::</text>
<text text-anchor="middle" x="2256" y="-750" font-family="Helvetica,sans-Serif" font-size="10.00">BaseFunction &gt;</text>
</a>
</g>
</g>
<!-- Node67&#45;&gt;Node11 -->
<g id="edge79" class="edge">
<title>Node67&#45;&gt;Node11</title>
<path fill="none" stroke="#9a32cd" stroke-dasharray="5,2" d="M2327.07,-765.87C2386.35,-769.49 2472.08,-767.41 2539,-736 2585.01,-714.4 2621.39,-662.46 2635.1,-640.77"/>
<polygon fill="#9a32cd" stroke="#9a32cd" points="2327.27,-762.37 2317.06,-765.19 2326.8,-769.36 2327.27,-762.37"/>
<text text-anchor="middle" x="2458" y="-781" font-family="Helvetica,sans-Serif" font-size="10.00"> userPolynomialBasePtr</text>
<text text-anchor="middle" x="2458" y="-770" font-family="Helvetica,sans-Serif" font-size="10.00">elementPolynomialBasePtr</text>
</g>
<!-- Node68 -->
<g id="node68" class="node">
<title>Node68</title>
<g id="a_node68"><a xlink:href="classUBlasMatrix_3_01double_01_4.html" target="_top" xlink:title=" ">
<polygon fill="white" stroke="black" points="2190,-704.5 2190,-723.5 2322,-723.5 2322,-704.5 2190,-704.5"/>
<text text-anchor="middle" x="2256" y="-711.5" font-family="Helvetica,sans-Serif" font-size="10.00">UBlasMatrix&lt; double &gt;</text>
</a>
</g>
</g>
<!-- Node68&#45;&gt;Node11 -->
<g id="edge80" class="edge">
<title>Node68&#45;&gt;Node11</title>
<path fill="none" stroke="#9a32cd" stroke-dasharray="5,2" d="M2332.36,-714.04C2390.06,-712.22 2471.03,-705.63 2539,-685 2572.74,-674.76 2608.3,-653.08 2627.23,-640.52"/>
<polygon fill="#9a32cd" stroke="#9a32cd" points="2332.12,-710.54 2322.22,-714.32 2332.32,-717.54 2332.12,-710.54"/>
<text text-anchor="middle" x="2458" y="-725" font-family="Helvetica,sans-Serif" font-size="10.00"> coordsAtGaussPts</text>
<text text-anchor="middle" x="2458" y="-714" font-family="Helvetica,sans-Serif" font-size="10.00">gaussPts</text>
</g>
<!-- Node69 -->
<g id="node69" class="node">
<title>Node69</title>
<g id="a_node69"><a xlink:title=" ">
<polygon fill="white" stroke="#bfbfbf" points="2576.5,-583.5 2576.5,-602.5 2707.5,-602.5 2707.5,-583.5 2576.5,-583.5"/>
<text text-anchor="middle" x="2642" y="-590.5" font-family="Helvetica,sans-Serif" font-size="10.00">static const char *const</text>
</a>
</g>
</g>
<!-- Node69&#45;&gt;Node3 -->
<g id="edge81" class="edge">
<title>Node69&#45;&gt;Node3</title>
<path fill="none" stroke="#9a32cd" stroke-dasharray="5,2" d="M2717.96,-593C2754.64,-593 2798.93,-593 2836.78,-593"/>
<polygon fill="#9a32cd" stroke="#9a32cd" points="2717.83,-589.5 2707.83,-593 2717.83,-596.5 2717.83,-589.5"/>
<text text-anchor="middle" x="2782" y="-596" font-family="Helvetica,sans-Serif" font-size="10.00"> OpTypeNames</text>
</g>
<!-- Node70 -->
<g id="node70" class="node">
<title>Node70</title>
<g id="a_node70"><a xlink:title=" ">
<polygon fill="white" stroke="#bfbfbf" points="3098,-0.5 3098,-19.5 3181,-19.5 3181,-0.5 3098,-0.5"/>
<text text-anchor="middle" x="3139.5" y="-7.5" font-family="Helvetica,sans-Serif" font-size="10.00">MatrixDouble</text>
</a>
</g>
</g>
<!-- Node70&#45;&gt;Node1 -->
<g id="edge83" class="edge">
<title>Node70&#45;&gt;Node1</title>
<path fill="none" stroke="#9a32cd" stroke-dasharray="5,2" d="M3191.28,-8.57C3220.78,-9.17 3258.28,-12.4 3290,-23 3316.21,-31.75 3342.64,-50.86 3357.16,-62.46"/>
<polygon fill="#9a32cd" stroke="#9a32cd" points="3191.23,-5.07 3181.19,-8.46 3191.16,-12.07 3191.23,-5.07"/>
<text text-anchor="middle" x="3271.5" y="-26" font-family="Helvetica,sans-Serif" font-size="10.00"> locMat</text>
</g>
</g>
</svg>
        <g id="navigator" transform="translate(0 0)" fill="#404254">
                <rect fill="#f2f5e9" fill-opacity="0.5" stroke="#606060" stroke-width=".5" x="0" y="0" width="60" height="60"/>
                <use id="zoomplus" xlink:href="#zoomPlus" x="17" y="9" onmousedown="handleZoom(evt,'in')"/>
                <use id="zoomminus" xlink:href="#zoomMin" x="42" y="9" onmousedown="handleZoom(evt,'out')"/>
                <use id="reset" xlink:href="#resetDef" x="30" y="36" onmousedown="handleReset()"/>
                <g id="arrowUp" xlink:href="#dirArrow" transform="translate(30 24)" onmousedown="handlePan(0,-1)">
                  <use xlink:href="#rim" fill="#404040">
                        <set attributeName="fill" to="#808080" begin="arrowUp.mouseover" end="arrowUp.mouseout"/>
                  </use>
                  <path fill="none" stroke="white" stroke-width="1.5" d="M0,-3.0v7 M-2.5,-0.5L0,-3.0L2.5,-0.5"/>
                </g>
                <g id="arrowRight" xlink:href="#dirArrow" transform="rotate(90) translate(36 -43)" onmousedown="handlePan(1,0)">
                  <use xlink:href="#rim" fill="#404040">
                        <set attributeName="fill" to="#808080" begin="arrowRight.mouseover" end="arrowRight.mouseout"/>
                  </use>
                  <path fill="none" stroke="white" stroke-width="1.5" d="M0,-3.0v7 M-2.5,-0.5L0,-3.0L2.5,-0.5"/>
                </g>
                <g id="arrowDown" xlink:href="#dirArrow" transform="rotate(180) translate(-30 -48)" onmousedown="handlePan(0,1)">
                  <use xlink:href="#rim" fill="#404040">
                        <set attributeName="fill" to="#808080" begin="arrowDown.mouseover" end="arrowDown.mouseout"/>
                  </use>
                  <path fill="none" stroke="white" stroke-width="1.5" d="M0,-3.0v7 M-2.5,-0.5L0,-3.0L2.5,-0.5"/>
                </g>
                <g id="arrowLeft" xlink:href="#dirArrow" transform="rotate(270) translate(-36 17)" onmousedown="handlePan(-1,0)">
                  <use xlink:href="#rim" fill="#404040">
                        <set attributeName="fill" to="#808080" begin="arrowLeft.mouseover" end="arrowLeft.mouseout"/>
                  </use>
                  <path fill="none" stroke="white" stroke-width="1.5" d="M0,-3.0v7 M-2.5,-0.5L0,-3.0L2.5,-0.5"/>
                </g>
        </g>
        <svg viewBox="0 0 15 15" width="100%" height="30px" preserveAspectRatio="xMaxYMin meet">
         <g id="arrow_out" transform="scale(0.3 0.3)">
          <a xlink:href="structPoissonExample_1_1OpC__coll__graph_org.svg" target="_base">
           <rect id="button" ry="5" rx="5" y="6" x="6" height="38" width="38"
                fill="#f2f5e9" fill-opacity="0.5" stroke="#606060" stroke-width="1.0"/>
           <path id="arrow"
             d="M 11.500037,31.436501 C 11.940474,20.09759 22.043105,11.32322 32.158766,21.979434 L 37.068811,17.246167 C 37.068811,17.246167 37.088388,32 37.088388,32 L 22.160133,31.978069 C 22.160133,31.978069 26.997745,27.140456 26.997745,27.140456 C 18.528582,18.264221 13.291696,25.230495 11.500037,31.436501 z"
             style="fill:#404040;"/>
          </a>
         </g>
        </svg>
</svg>
