<?xml version="1.0" encoding="UTF-8" standalone="no"?>
<!DOCTYPE svg PUBLIC "-//W3C//DTD SVG 1.1//EN"
 "http://www.w3.org/Graphics/SVG/1.1/DTD/svg11.dtd">
<!-- Generated by graphviz version 2.43.0 (0)
 -->
<!-- Title: PostProcTemplateVolumeOnRefinedMesh&lt; VOLUME_ELEMENT &gt; Pages: 1 -->
<svg width="1174pt" height="583pt"
 viewBox="0.00 0.00 1174.00 582.76" xmlns="http://www.w3.org/2000/svg" xmlns:xlink="http://www.w3.org/1999/xlink">
<g id="graph0" class="graph" transform="scale(1 1) rotate(0) translate(4 578.76)">
<title>PostProcTemplateVolumeOnRefinedMesh&lt; VOLUME_ELEMENT &gt;</title>
<polygon fill="white" stroke="transparent" points="-4,4 -4,-578.76 1170,-578.76 1170,4 -4,4"/>
<!-- Node1 -->
<g id="node1" class="node">
<title>Node1</title>
<g id="a_node1"><a xlink:title=" ">
<polygon fill="#bfbfbf" stroke="black" points="971,-199.76 971,-229.76 1166,-229.76 1166,-199.76 971,-199.76"/>
<text text-anchor="start" x="979" y="-217.76" font-family="Helvetica,sans-Serif" font-size="10.00">PostProcTemplateVolumeOn</text>
<text text-anchor="middle" x="1068.5" y="-206.76" font-family="Helvetica,sans-Serif" font-size="10.00">RefinedMesh&lt; VOLUME_ELEMENT &gt;</text>
</a>
</g>
</g>
<!-- Node2 -->
<g id="node2" class="node">
<title>Node2</title>
<g id="a_node2"><a xlink:href="structPostProcTemplateOnRefineMesh.html" target="_top" xlink:title=" ">
<polygon fill="white" stroke="black" points="620.5,-410.76 620.5,-440.76 778.5,-440.76 778.5,-410.76 620.5,-410.76"/>
<text text-anchor="start" x="628.5" y="-428.76" font-family="Helvetica,sans-Serif" font-size="10.00">PostProcTemplateOnRefine</text>
<text text-anchor="middle" x="699.5" y="-417.76" font-family="Helvetica,sans-Serif" font-size="10.00">Mesh&lt; VOLUME_ELEMENT &gt;</text>
</a>
</g>
</g>
<!-- Node2&#45;&gt;Node1 -->
<g id="edge1" class="edge">
<title>Node2&#45;&gt;Node1</title>
<path fill="none" stroke="midnightblue" d="M788.7,-433.35C840.25,-433.6 904.51,-426.33 953,-395.76 1016.69,-355.6 1051.27,-265.72 1062.93,-229.91"/>
<polygon fill="midnightblue" stroke="midnightblue" points="788.61,-429.85 778.56,-433.21 788.51,-436.85 788.61,-429.85"/>
</g>
<!-- Node3 -->
<g id="node3" class="node">
<title>Node3</title>
<g id="a_node3"><a xlink:title=" ">
<polygon fill="white" stroke="#bfbfbf" points="330.5,-555.26 330.5,-574.26 440.5,-574.26 440.5,-555.26 330.5,-555.26"/>
<text text-anchor="middle" x="385.5" y="-562.26" font-family="Helvetica,sans-Serif" font-size="10.00">VOLUME_ELEMENT</text>
</a>
</g>
</g>
<!-- Node3&#45;&gt;Node2 -->
<g id="edge2" class="edge">
<title>Node3&#45;&gt;Node2</title>
<path fill="none" stroke="midnightblue" d="M450.88,-569.35C495.75,-569.78 555.65,-564.6 602,-539.76 644.74,-516.85 676.53,-466.58 690.56,-441.15"/>
<polygon fill="midnightblue" stroke="midnightblue" points="450.74,-565.85 440.68,-569.16 450.61,-572.85 450.74,-565.85"/>
</g>
<!-- Node4 -->
<g id="node4" class="node">
<title>Node4</title>
<g id="a_node4"><a xlink:title=" ">
<polygon fill="white" stroke="#bfbfbf" points="17,-292.26 17,-311.26 150,-311.26 150,-292.26 17,-292.26"/>
<text text-anchor="middle" x="83.5" y="-299.26" font-family="Helvetica,sans-Serif" font-size="10.00">vector&lt; EntityHandle &gt;</text>
</a>
</g>
</g>
<!-- Node4&#45;&gt;Node2 -->
<g id="edge3" class="edge">
<title>Node4&#45;&gt;Node2</title>
<path fill="none" stroke="#9a32cd" stroke-dasharray="5,2" d="M160.22,-303.08C198.59,-304.26 245.85,-306.5 288,-310.76 430.07,-325.09 468.8,-327.3 602,-378.76 625.81,-387.96 651.78,-400.77 670.77,-410.7"/>
<polygon fill="#9a32cd" stroke="#9a32cd" points="160.26,-299.58 150.16,-302.79 160.06,-306.57 160.26,-299.58"/>
<text text-anchor="middle" x="385.5" y="-336.76" font-family="Helvetica,sans-Serif" font-size="10.00"> mapGaussPts</text>
</g>
<!-- Node8 -->
<g id="node8" class="node">
<title>Node8</title>
<g id="a_node8"><a xlink:href="structPostProcTemplateOnRefineMesh.html" target="_top" xlink:title="Generic post&#45;processing class.">
<polygon fill="white" stroke="black" points="311.5,-358.76 311.5,-388.76 459.5,-388.76 459.5,-358.76 311.5,-358.76"/>
<text text-anchor="start" x="319.5" y="-376.76" font-family="Helvetica,sans-Serif" font-size="10.00">PostProcTemplateOnRefine</text>
<text text-anchor="middle" x="385.5" y="-365.76" font-family="Helvetica,sans-Serif" font-size="10.00">Mesh&lt; ELEMENT &gt;</text>
</a>
</g>
</g>
<!-- Node4&#45;&gt;Node8 -->
<g id="edge9" class="edge">
<title>Node4&#45;&gt;Node8</title>
<path fill="none" stroke="#9a32cd" stroke-dasharray="5,2" d="M160.41,-311.21C199.01,-316.92 246.43,-325.33 288,-336.76 309.11,-342.56 332.01,-351.23 350.21,-358.73"/>
<polygon fill="#9a32cd" stroke="#9a32cd" points="160.68,-307.71 150.29,-309.74 159.68,-314.64 160.68,-307.71"/>
<text text-anchor="middle" x="236.5" y="-339.76" font-family="Helvetica,sans-Serif" font-size="10.00"> mapGaussPts</text>
</g>
<!-- Node5 -->
<g id="node5" class="node">
<title>Node5</title>
<g id="a_node5"><a xlink:title=" ">
<polygon fill="white" stroke="#bfbfbf" points="0,-448.26 0,-467.26 167,-467.26 167,-448.26 0,-448.26"/>
<text text-anchor="middle" x="83.5" y="-455.26" font-family="Helvetica,sans-Serif" font-size="10.00">shared_ptr&lt; WrapMPIComm &gt;</text>
</a>
</g>
</g>
<!-- Node5&#45;&gt;Node2 -->
<g id="edge4" class="edge">
<title>Node5&#45;&gt;Node2</title>
<path fill="none" stroke="#9a32cd" stroke-dasharray="5,2" d="M177.44,-461.16C281.31,-463.71 454.31,-464.23 602,-446.76 613.75,-445.37 626.17,-443.2 638.06,-440.78"/>
<polygon fill="#9a32cd" stroke="#9a32cd" points="177.38,-457.65 167.3,-460.9 177.2,-464.65 177.38,-457.65"/>
<text text-anchor="middle" x="385.5" y="-464.76" font-family="Helvetica,sans-Serif" font-size="10.00"> wrapRefMeshComm</text>
</g>
<!-- Node5&#45;&gt;Node8 -->
<g id="edge10" class="edge">
<title>Node5&#45;&gt;Node8</title>
<path fill="none" stroke="#9a32cd" stroke-dasharray="5,2" d="M128.52,-445.43C182.2,-430.4 272.91,-405 330.69,-388.82"/>
<polygon fill="#9a32cd" stroke="#9a32cd" points="127.31,-442.14 118.62,-448.2 129.2,-448.88 127.31,-442.14"/>
<text text-anchor="middle" x="236.5" y="-430.76" font-family="Helvetica,sans-Serif" font-size="10.00"> wrapRefMeshComm</text>
</g>
<!-- Node6 -->
<g id="node6" class="node">
<title>Node6</title>
<g id="a_node6"><a xlink:title=" ">
<polygon fill="white" stroke="#bfbfbf" points="48,-499.26 48,-518.26 119,-518.26 119,-499.26 48,-499.26"/>
<text text-anchor="middle" x="83.5" y="-506.26" font-family="Helvetica,sans-Serif" font-size="10.00">Interface &amp;</text>
</a>
</g>
</g>
<!-- Node6&#45;&gt;Node2 -->
<g id="edge5" class="edge">
<title>Node6&#45;&gt;Node2</title>
<path fill="none" stroke="#9a32cd" stroke-dasharray="5,2" d="M129.35,-510.37C220.26,-512.49 432.01,-511.52 602,-465.76 624.77,-459.63 649.3,-449.41 667.93,-440.83"/>
<polygon fill="#9a32cd" stroke="#9a32cd" points="129.22,-506.87 119.14,-510.11 129.04,-513.86 129.22,-506.87"/>
<text text-anchor="middle" x="385.5" y="-509.76" font-family="Helvetica,sans-Serif" font-size="10.00"> postProcMesh</text>
</g>
<!-- Node6&#45;&gt;Node8 -->
<g id="edge11" class="edge">
<title>Node6&#45;&gt;Node8</title>
<path fill="none" stroke="#9a32cd" stroke-dasharray="5,2" d="M129.33,-504.63C174.35,-498.32 243.29,-482.45 288,-442.76 302.28,-430.08 292.05,-416.79 306,-403.76 312.5,-397.68 320.36,-392.8 328.56,-388.88"/>
<polygon fill="#9a32cd" stroke="#9a32cd" points="128.73,-501.18 119.27,-505.94 129.63,-508.12 128.73,-501.18"/>
<text text-anchor="middle" x="236.5" y="-495.76" font-family="Helvetica,sans-Serif" font-size="10.00"> postProcMesh</text>
</g>
<!-- Node7 -->
<g id="node7" class="node">
<title>Node7</title>
<g id="a_node7"><a xlink:title=" ">
<polygon fill="white" stroke="#bfbfbf" points="64,-385.26 64,-404.26 103,-404.26 103,-385.26 64,-385.26"/>
<text text-anchor="middle" x="83.5" y="-392.26" font-family="Helvetica,sans-Serif" font-size="10.00">Core</text>
</a>
</g>
</g>
<!-- Node7&#45;&gt;Node2 -->
<g id="edge6" class="edge">
<title>Node7&#45;&gt;Node2</title>
<path fill="none" stroke="#9a32cd" stroke-dasharray="5,2" d="M112.84,-403.68C132.79,-409.5 160.25,-416.58 185,-419.76 338.2,-439.44 519.23,-435.23 620.25,-430.45"/>
<polygon fill="#9a32cd" stroke="#9a32cd" points="113.73,-400.29 103.14,-400.78 111.72,-407 113.73,-400.29"/>
<text text-anchor="middle" x="385.5" y="-436.76" font-family="Helvetica,sans-Serif" font-size="10.00"> coreMesh</text>
</g>
<!-- Node7&#45;&gt;Node8 -->
<g id="edge12" class="edge">
<title>Node7&#45;&gt;Node8</title>
<path fill="none" stroke="#9a32cd" stroke-dasharray="5,2" d="M112.96,-387.58C132.96,-382.91 160.43,-377.24 185,-374.76 226.7,-370.54 273.55,-370.09 311.36,-370.78"/>
<polygon fill="#9a32cd" stroke="#9a32cd" points="112.14,-384.18 103.23,-389.91 113.77,-390.99 112.14,-384.18"/>
<text text-anchor="middle" x="236.5" y="-377.76" font-family="Helvetica,sans-Serif" font-size="10.00"> coreMesh</text>
</g>
<!-- Node8&#45;&gt;Node2 -->
<g id="edge7" class="edge">
<title>Node8&#45;&gt;Node2</title>
<path fill="none" stroke="orange" stroke-dasharray="5,2" d="M469.7,-381.65C509.87,-386.11 558.64,-392.46 602,-400.76 616.19,-403.47 631.39,-407.08 645.44,-410.7"/>
<polygon fill="orange" stroke="orange" points="470,-378.16 459.68,-380.56 469.25,-385.12 470,-378.16"/>
<text text-anchor="middle" x="542.5" y="-403.76" font-family="Helvetica,sans-Serif" font-size="10.00"> &lt; VOLUME_ELEMENT &gt;</text>
</g>
<!-- Node9 -->
<g id="node9" class="node">
<title>Node9</title>
<g id="a_node9"><a xlink:href="classELEMENT.html" target="_top" xlink:title=" ">
<polygon fill="white" stroke="black" points="52.5,-331.26 52.5,-350.26 114.5,-350.26 114.5,-331.26 52.5,-331.26"/>
<text text-anchor="middle" x="83.5" y="-338.26" font-family="Helvetica,sans-Serif" font-size="10.00">ELEMENT</text>
</a>
</g>
</g>
<!-- Node9&#45;&gt;Node8 -->
<g id="edge8" class="edge">
<title>Node9&#45;&gt;Node8</title>
<path fill="none" stroke="midnightblue" d="M124.87,-345.2C172.5,-350.44 252.63,-359.25 311.3,-365.7"/>
<polygon fill="midnightblue" stroke="midnightblue" points="124.96,-341.69 114.64,-344.07 124.2,-348.64 124.96,-341.69"/>
</g>
<!-- Node10 -->
<g id="node10" class="node">
<title>Node10</title>
<g id="a_node10"><a xlink:href="classEntityHandle.html" target="_top" xlink:title=" ">
<polygon fill="white" stroke="black" points="659.5,-318.26 659.5,-337.26 739.5,-337.26 739.5,-318.26 659.5,-318.26"/>
<text text-anchor="middle" x="699.5" y="-325.26" font-family="Helvetica,sans-Serif" font-size="10.00">EntityHandle</text>
</a>
</g>
</g>
<!-- Node10&#45;&gt;Node1 -->
<g id="edge13" class="edge">
<title>Node10&#45;&gt;Node1</title>
<path fill="none" stroke="#9a32cd" stroke-dasharray="5,2" d="M749.89,-328.49C802.08,-327.68 885.96,-321.83 953,-295.76 992.26,-280.49 1030.75,-248.87 1051.58,-229.96"/>
<polygon fill="#9a32cd" stroke="#9a32cd" points="749.53,-324.99 739.57,-328.59 749.6,-331.99 749.53,-324.99"/>
<text text-anchor="middle" x="875" y="-383.76" font-family="Helvetica,sans-Serif" font-size="10.00"> hexConn</text>
<text text-anchor="middle" x="875" y="-372.76" font-family="Helvetica,sans-Serif" font-size="10.00">startingVertHexHandle</text>
<text text-anchor="middle" x="875" y="-361.76" font-family="Helvetica,sans-Serif" font-size="10.00">startingEleTetHandle</text>
<text text-anchor="middle" x="875" y="-350.76" font-family="Helvetica,sans-Serif" font-size="10.00">startingEleHexHandle</text>
<text text-anchor="middle" x="875" y="-339.76" font-family="Helvetica,sans-Serif" font-size="10.00">tetConn</text>
<text text-anchor="middle" x="875" y="-328.76" font-family="Helvetica,sans-Serif" font-size="10.00">startingVertTetHandle</text>
</g>
<!-- Node11 -->
<g id="node11" class="node">
<title>Node11</title>
<g id="a_node11"><a xlink:title=" ">
<polygon fill="white" stroke="#bfbfbf" points="638,-267.76 638,-297.76 761,-297.76 761,-267.76 638,-267.76"/>
<text text-anchor="start" x="646" y="-285.76" font-family="Helvetica,sans-Serif" font-size="10.00">vector&lt; ublas::matrix</text>
<text text-anchor="middle" x="699.5" y="-274.76" font-family="Helvetica,sans-Serif" font-size="10.00">&lt; int &gt; &gt;</text>
</a>
</g>
</g>
<!-- Node11&#45;&gt;Node1 -->
<g id="edge14" class="edge">
<title>Node11&#45;&gt;Node1</title>
<path fill="none" stroke="#9a32cd" stroke-dasharray="5,2" d="M771.24,-274.17C822.06,-267.5 892.07,-257.29 953,-244.76 973.43,-240.56 995.66,-234.97 1015.05,-229.76"/>
<polygon fill="#9a32cd" stroke="#9a32cd" points="770.49,-270.74 761.02,-275.5 771.39,-277.68 770.49,-270.74"/>
<text text-anchor="middle" x="875" y="-283.76" font-family="Helvetica,sans-Serif" font-size="10.00"> levelRefTets</text>
<text text-anchor="middle" x="875" y="-272.76" font-family="Helvetica,sans-Serif" font-size="10.00">levelRefHexes</text>
</g>
<!-- Node12 -->
<g id="node12" class="node">
<title>Node12</title>
<g id="a_node12"><a xlink:href="structPostProcCommonOnRefMesh_1_1CommonDataForVolume.html" target="_top" xlink:title=" ">
<polygon fill="white" stroke="black" points="620,-214.76 620,-244.76 779,-244.76 779,-214.76 620,-214.76"/>
<text text-anchor="start" x="628" y="-232.76" font-family="Helvetica,sans-Serif" font-size="10.00">PostProcCommonOnRefMesh</text>
<text text-anchor="middle" x="699.5" y="-221.76" font-family="Helvetica,sans-Serif" font-size="10.00">::CommonDataForVolume</text>
</a>
</g>
</g>
<!-- Node12&#45;&gt;Node1 -->
<g id="edge15" class="edge">
<title>Node12&#45;&gt;Node1</title>
<path fill="none" stroke="#9a32cd" stroke-dasharray="5,2" d="M789.18,-230.71C837.63,-230.72 898.66,-229.92 953,-226.76 958.79,-226.42 964.73,-226.01 970.72,-225.54"/>
<polygon fill="#9a32cd" stroke="#9a32cd" points="789.05,-227.21 779.04,-230.69 789.04,-234.21 789.05,-227.21"/>
<text text-anchor="middle" x="875" y="-232.76" font-family="Helvetica,sans-Serif" font-size="10.00"> commonData</text>
</g>
<!-- Node13 -->
<g id="node13" class="node">
<title>Node13</title>
<g id="a_node13"><a xlink:href="structPostProcCommonOnRefMesh_1_1CommonData.html" target="_top" xlink:title=" ">
<polygon fill="white" stroke="black" points="306,-214.76 306,-244.76 465,-244.76 465,-214.76 306,-214.76"/>
<text text-anchor="start" x="314" y="-232.76" font-family="Helvetica,sans-Serif" font-size="10.00">PostProcCommonOnRefMesh</text>
<text text-anchor="middle" x="385.5" y="-221.76" font-family="Helvetica,sans-Serif" font-size="10.00">::CommonData</text>
</a>
</g>
</g>
<!-- Node13&#45;&gt;Node12 -->
<g id="edge16" class="edge">
<title>Node13&#45;&gt;Node12</title>
<path fill="none" stroke="midnightblue" d="M475.39,-229.76C520.9,-229.76 575.83,-229.76 619.79,-229.76"/>
<polygon fill="midnightblue" stroke="midnightblue" points="475.23,-226.26 465.23,-229.76 475.23,-233.26 475.23,-226.26"/>
</g>
<!-- Node14 -->
<g id="node14" class="node">
<title>Node14</title>
<g id="a_node14"><a xlink:title=" ">
<polygon fill="white" stroke="#bfbfbf" points="7.5,-178.76 7.5,-208.76 159.5,-208.76 159.5,-178.76 7.5,-178.76"/>
<text text-anchor="start" x="15.5" y="-196.76" font-family="Helvetica,sans-Serif" font-size="10.00">map&lt; std::string, std</text>
<text text-anchor="middle" x="83.5" y="-185.76" font-family="Helvetica,sans-Serif" font-size="10.00">::vector&lt; VectorDouble &gt; &gt;</text>
</a>
</g>
</g>
<!-- Node14&#45;&gt;Node13 -->
<g id="edge17" class="edge">
<title>Node14&#45;&gt;Node13</title>
<path fill="none" stroke="#9a32cd" stroke-dasharray="5,2" d="M169.91,-204.01C212.63,-209.13 263.99,-215.3 305.75,-220.31"/>
<polygon fill="#9a32cd" stroke="#9a32cd" points="170.16,-200.51 159.82,-202.8 169.33,-207.46 170.16,-200.51"/>
<text text-anchor="middle" x="236.5" y="-220.76" font-family="Helvetica,sans-Serif" font-size="10.00"> fieldMap</text>
</g>
<!-- Node15 -->
<g id="node15" class="node">
<title>Node15</title>
<g id="a_node15"><a xlink:title=" ">
<polygon fill="white" stroke="#bfbfbf" points="7,-227.76 7,-257.76 160,-257.76 160,-227.76 7,-227.76"/>
<text text-anchor="start" x="15" y="-245.76" font-family="Helvetica,sans-Serif" font-size="10.00">map&lt; std::string, std</text>
<text text-anchor="middle" x="83.5" y="-234.76" font-family="Helvetica,sans-Serif" font-size="10.00">::vector&lt; MatrixDouble &gt; &gt;</text>
</a>
</g>
</g>
<!-- Node15&#45;&gt;Node13 -->
<g id="edge18" class="edge">
<title>Node15&#45;&gt;Node13</title>
<path fill="none" stroke="#9a32cd" stroke-dasharray="5,2" d="M170.3,-239.04C213.01,-237.19 264.27,-234.97 305.94,-233.16"/>
<polygon fill="#9a32cd" stroke="#9a32cd" points="170.04,-235.55 160.2,-239.48 170.34,-242.54 170.04,-235.55"/>
<text text-anchor="middle" x="236.5" y="-240.76" font-family="Helvetica,sans-Serif" font-size="10.00"> gradMap</text>
</g>
<!-- Node16 -->
<g id="node16" class="node">
<title>Node16</title>
<g id="a_node16"><a xlink:href="classRange.html" target="_top" xlink:title=" ">
<polygon fill="white" stroke="black" points="362,-176.26 362,-195.26 409,-195.26 409,-176.26 362,-176.26"/>
<text text-anchor="middle" x="385.5" y="-183.26" font-family="Helvetica,sans-Serif" font-size="10.00">Range</text>
</a>
</g>
</g>
<!-- Node16&#45;&gt;Node12 -->
<g id="edge19" class="edge">
<title>Node16&#45;&gt;Node12</title>
<path fill="none" stroke="#9a32cd" stroke-dasharray="5,2" d="M419.16,-189.94C461.4,-195.4 537.25,-205.37 602,-214.76 607.79,-215.6 613.77,-216.48 619.79,-217.39"/>
<polygon fill="#9a32cd" stroke="#9a32cd" points="419.54,-186.46 409.17,-188.65 418.64,-193.4 419.54,-186.46"/>
<text text-anchor="middle" x="542.5" y="-217.76" font-family="Helvetica,sans-Serif" font-size="10.00"> tEts</text>
</g>
<!-- Node17 -->
<g id="node17" class="node">
<title>Node17</title>
<g id="a_node17"><a xlink:title=" ">
<polygon fill="white" stroke="#bfbfbf" points="631.5,-172.26 631.5,-191.26 767.5,-191.26 767.5,-172.26 631.5,-172.26"/>
<text text-anchor="middle" x="699.5" y="-179.26" font-family="Helvetica,sans-Serif" font-size="10.00">vector&lt; MatrixDouble &gt;</text>
</a>
</g>
</g>
<!-- Node17&#45;&gt;Node1 -->
<g id="edge20" class="edge">
<title>Node17&#45;&gt;Node1</title>
<path fill="none" stroke="#9a32cd" stroke-dasharray="5,2" d="M777.77,-174.32C827.99,-171.09 894.72,-169.81 953,-178.76 979.26,-182.79 1007.77,-191.73 1029.76,-199.7"/>
<polygon fill="#9a32cd" stroke="#9a32cd" points="777.38,-170.84 767.64,-175.02 777.85,-177.83 777.38,-170.84"/>
<text text-anchor="middle" x="875" y="-214.76" font-family="Helvetica,sans-Serif" font-size="10.00"> levelShapeFunctionsTets</text>
<text text-anchor="middle" x="875" y="-203.76" font-family="Helvetica,sans-Serif" font-size="10.00">levelGaussPtsOnRefMeshTets</text>
<text text-anchor="middle" x="875" y="-192.76" font-family="Helvetica,sans-Serif" font-size="10.00">levelShapeFunctionsHexes</text>
<text text-anchor="middle" x="875" y="-181.76" font-family="Helvetica,sans-Serif" font-size="10.00">levelGaussPtsOnRefMeshHexes</text>
</g>
<!-- Node18 -->
<g id="node18" class="node">
<title>Node18</title>
<g id="a_node18"><a xlink:title=" ">
<polygon fill="white" stroke="#bfbfbf" points="685,-95.26 685,-114.26 714,-114.26 714,-95.26 685,-95.26"/>
<text text-anchor="middle" x="699.5" y="-102.26" font-family="Helvetica,sans-Serif" font-size="10.00">int</text>
</a>
</g>
</g>
<!-- Node18&#45;&gt;Node1 -->
<g id="edge21" class="edge">
<title>Node18&#45;&gt;Node1</title>
<path fill="none" stroke="#9a32cd" stroke-dasharray="5,2" d="M723.89,-100.38C769.77,-92.88 873.99,-81.23 953,-112.76 998.5,-130.91 1037.74,-175.66 1056.22,-199.4"/>
<polygon fill="#9a32cd" stroke="#9a32cd" points="723.28,-96.94 714.02,-102.08 724.47,-103.83 723.28,-96.94"/>
<text text-anchor="middle" x="875" y="-159.76" font-family="Helvetica,sans-Serif" font-size="10.00"> countTet</text>
<text text-anchor="middle" x="875" y="-148.76" font-family="Helvetica,sans-Serif" font-size="10.00">countHex</text>
<text text-anchor="middle" x="875" y="-137.76" font-family="Helvetica,sans-Serif" font-size="10.00">nbOfRefLevels</text>
<text text-anchor="middle" x="875" y="-126.76" font-family="Helvetica,sans-Serif" font-size="10.00">countVertTet</text>
<text text-anchor="middle" x="875" y="-115.76" font-family="Helvetica,sans-Serif" font-size="10.00">countVertHex</text>
</g>
<!-- Node19 -->
<g id="node19" class="node">
<title>Node19</title>
<g id="a_node19"><a xlink:href="classbool.html" target="_top" xlink:title=" ">
<polygon fill="white" stroke="black" points="680.5,-57.26 680.5,-76.26 718.5,-76.26 718.5,-57.26 680.5,-57.26"/>
<text text-anchor="middle" x="699.5" y="-64.26" font-family="Helvetica,sans-Serif" font-size="10.00">bool</text>
</a>
</g>
</g>
<!-- Node19&#45;&gt;Node1 -->
<g id="edge22" class="edge">
<title>Node19&#45;&gt;Node1</title>
<path fill="none" stroke="#9a32cd" stroke-dasharray="5,2" d="M728.63,-60.8C777.26,-51.99 878.95,-40.17 953,-76.76 1007.43,-103.65 1045.37,-169.64 1060.37,-199.57"/>
<polygon fill="#9a32cd" stroke="#9a32cd" points="727.7,-57.42 718.54,-62.73 729.02,-64.29 727.7,-57.42"/>
<text text-anchor="middle" x="875" y="-79.76" font-family="Helvetica,sans-Serif" font-size="10.00"> tenNodesPostProcTets</text>
</g>
<!-- Node20 -->
<g id="node20" class="node">
<title>Node20</title>
<g id="a_node20"><a xlink:title=" ">
<polygon fill="white" stroke="#bfbfbf" points="644,-13.26 644,-32.26 755,-32.26 755,-13.26 644,-13.26"/>
<text text-anchor="middle" x="699.5" y="-20.26" font-family="Helvetica,sans-Serif" font-size="10.00">vector&lt; double * &gt;</text>
</a>
</g>
</g>
<!-- Node20&#45;&gt;Node1 -->
<g id="edge23" class="edge">
<title>Node20&#45;&gt;Node1</title>
<path fill="none" stroke="#9a32cd" stroke-dasharray="5,2" d="M744.89,-11.04C798.13,0.4 888.27,11.22 953,-25.76 1021.12,-64.67 1053.47,-162.02 1063.73,-199.61"/>
<polygon fill="#9a32cd" stroke="#9a32cd" points="744.07,-7.64 735.08,-13.24 745.6,-14.47 744.07,-7.64"/>
<text text-anchor="middle" x="875" y="-39.76" font-family="Helvetica,sans-Serif" font-size="10.00"> verticesOnTetArrays</text>
<text text-anchor="middle" x="875" y="-28.76" font-family="Helvetica,sans-Serif" font-size="10.00">verticesOnHexArrays</text>
</g>
</g>
</svg>
