<?xml version="1.0" encoding="UTF-8" standalone="no"?>
<!DOCTYPE svg PUBLIC "-//W3C//DTD SVG 1.1//EN"
 "http://www.w3.org/Graphics/SVG/1.1/DTD/svg11.dtd">
<!-- Generated by graphviz version 2.43.0 (0)
 -->
<!-- Title: MoFEM::OpCalculateTensor2SymmetricFieldValues&lt; Tensor_Dim &gt; Pages: 1 -->
<svg width="3306pt" height="1380pt"
 viewBox="0.00 0.00 3306.00 1380.00" xmlns="http://www.w3.org/2000/svg" xmlns:xlink="http://www.w3.org/1999/xlink">
<g id="graph0" class="graph" transform="scale(1 1) rotate(0) translate(4 1376)">
<title>MoFEM::OpCalculateTensor2SymmetricFieldValues&lt; Tensor_Dim &gt;</title>
<polygon fill="white" stroke="transparent" points="-4,4 -4,-1376 3302,-1376 3302,4 -4,4"/>
<!-- Node1 -->
<g id="node1" class="node">
<title>Node1</title>
<g id="a_node1"><a xlink:title="Calculate symmetric tensor field values at integration pts.">
<polygon fill="#bfbfbf" stroke="black" points="3093,-392 3093,-422 3298,-422 3298,-392 3093,-392"/>
<text text-anchor="start" x="3101" y="-410" font-family="Helvetica,sans-Serif" font-size="10.00">MoFEM::OpCalculateTensor2</text>
<text text-anchor="middle" x="3195.5" y="-399" font-family="Helvetica,sans-Serif" font-size="10.00">SymmetricFieldValues&lt; Tensor_Dim &gt;</text>
</a>
</g>
</g>
<!-- Node2 -->
<g id="node2" class="node">
<title>Node2</title>
<g id="a_node2"><a xlink:href="structMoFEM_1_1ForcesAndSourcesCore_1_1UserDataOperator.html" target="_top" xlink:title=" ">
<polygon fill="white" stroke="black" points="2837,-915 2837,-945 3007,-945 3007,-915 2837,-915"/>
<text text-anchor="start" x="2845" y="-933" font-family="Helvetica,sans-Serif" font-size="10.00">MoFEM::ForcesAndSourcesCore</text>
<text text-anchor="middle" x="2922" y="-922" font-family="Helvetica,sans-Serif" font-size="10.00">::UserDataOperator</text>
</a>
</g>
</g>
<!-- Node2&#45;&gt;Node1 -->
<g id="edge1" class="edge">
<title>Node2&#45;&gt;Node1</title>
<path fill="none" stroke="midnightblue" d="M2935.49,-905.93C2982.57,-815.26 3148.48,-495.65 3186.64,-422.15"/>
<polygon fill="midnightblue" stroke="midnightblue" points="2932.33,-904.42 2930.83,-914.91 2938.55,-907.65 2932.33,-904.42"/>
</g>
<!-- Node3 -->
<g id="node3" class="node">
<title>Node3</title>
<g id="a_node3"><a xlink:href="structMoFEM_1_1DataOperator.html" target="_top" xlink:title="base operator to do operations at Gauss Pt. level">
<polygon fill="white" stroke="black" points="2579.5,-583.5 2579.5,-602.5 2704.5,-602.5 2704.5,-583.5 2579.5,-583.5"/>
<text text-anchor="middle" x="2642" y="-590.5" font-family="Helvetica,sans-Serif" font-size="10.00">MoFEM::DataOperator</text>
</a>
</g>
</g>
<!-- Node3&#45;&gt;Node2 -->
<g id="edge2" class="edge">
<title>Node3&#45;&gt;Node2</title>
<path fill="none" stroke="midnightblue" d="M2657.66,-610.77C2706.46,-669.93 2862.98,-859.67 2908.48,-914.83"/>
<polygon fill="midnightblue" stroke="midnightblue" points="2660.08,-608.21 2651.02,-602.72 2654.68,-612.66 2660.08,-608.21"/>
</g>
<!-- Node4 -->
<g id="node4" class="node">
<title>Node4</title>
<g id="a_node4"><a xlink:title=" ">
<polygon fill="white" stroke="#bfbfbf" points="2160,-450 2160,-502 2352,-502 2352,-450 2160,-450"/>
<text text-anchor="start" x="2168" y="-490" font-family="Helvetica,sans-Serif" font-size="10.00">function&lt; MoFEMErrorCode</text>
<text text-anchor="start" x="2168" y="-479" font-family="Helvetica,sans-Serif" font-size="10.00">(DataOperator *op_ptr,</text>
<text text-anchor="start" x="2168" y="-468" font-family="Helvetica,sans-Serif" font-size="10.00"> int side, EntityType type,</text>
<text text-anchor="middle" x="2256" y="-457" font-family="Helvetica,sans-Serif" font-size="10.00"> EntitiesFieldData::EntData &amp;data)&gt;</text>
</a>
</g>
</g>
<!-- Node4&#45;&gt;Node3 -->
<g id="edge3" class="edge">
<title>Node4&#45;&gt;Node3</title>
<path fill="none" stroke="#9a32cd" stroke-dasharray="5,2" d="M2362.05,-490.01C2416.07,-499.19 2482.3,-513.55 2539,-535 2572.72,-547.76 2608.57,-570.6 2627.49,-583.48"/>
<polygon fill="#9a32cd" stroke="#9a32cd" points="2362.55,-486.54 2352.11,-488.35 2361.4,-493.45 2362.55,-486.54"/>
<text text-anchor="middle" x="2458" y="-538" font-family="Helvetica,sans-Serif" font-size="10.00"> doWorkRhsHook</text>
</g>
<!-- Node5 -->
<g id="node5" class="node">
<title>Node5</title>
<g id="a_node5"><a xlink:href="classbool.html" target="_top" xlink:title=" ">
<polygon fill="white" stroke="black" points="2237,-663.5 2237,-682.5 2275,-682.5 2275,-663.5 2237,-663.5"/>
<text text-anchor="middle" x="2256" y="-670.5" font-family="Helvetica,sans-Serif" font-size="10.00">bool</text>
</a>
</g>
</g>
<!-- Node5&#45;&gt;Node3 -->
<g id="edge4" class="edge">
<title>Node5&#45;&gt;Node3</title>
<path fill="none" stroke="#9a32cd" stroke-dasharray="5,2" d="M2285.34,-673.4C2307.09,-672.43 2337.01,-668.24 2359,-654 2370.8,-646.36 2365.01,-635.33 2377,-628 2381.31,-625.37 2502.75,-610.02 2579.4,-600.54"/>
<polygon fill="#9a32cd" stroke="#9a32cd" points="2285.01,-669.9 2275.1,-673.64 2285.18,-676.9 2285.01,-669.9"/>
<text text-anchor="middle" x="2458" y="-697" font-family="Helvetica,sans-Serif" font-size="10.00"> doTris</text>
<text text-anchor="middle" x="2458" y="-686" font-family="Helvetica,sans-Serif" font-size="10.00">doQuads</text>
<text text-anchor="middle" x="2458" y="-675" font-family="Helvetica,sans-Serif" font-size="10.00">sYmm</text>
<text text-anchor="middle" x="2458" y="-664" font-family="Helvetica,sans-Serif" font-size="10.00">doPrisms</text>
<text text-anchor="middle" x="2458" y="-653" font-family="Helvetica,sans-Serif" font-size="10.00">doTets</text>
<text text-anchor="middle" x="2458" y="-642" font-family="Helvetica,sans-Serif" font-size="10.00">doVertices</text>
<text text-anchor="middle" x="2458" y="-631" font-family="Helvetica,sans-Serif" font-size="10.00">doEdges</text>
</g>
<!-- Node6 -->
<g id="node6" class="node">
<title>Node6</title>
<g id="a_node6"><a xlink:title=" ">
<polygon fill="white" stroke="#bfbfbf" points="2153,-559.5 2153,-644.5 2359,-644.5 2359,-559.5 2153,-559.5"/>
<text text-anchor="start" x="2161" y="-632.5" font-family="Helvetica,sans-Serif" font-size="10.00">function&lt; MoFEMErrorCode</text>
<text text-anchor="start" x="2161" y="-621.5" font-family="Helvetica,sans-Serif" font-size="10.00">(DataOperator *op_ptr,</text>
<text text-anchor="start" x="2161" y="-610.5" font-family="Helvetica,sans-Serif" font-size="10.00"> int row_side, int col_side,</text>
<text text-anchor="start" x="2161" y="-599.5" font-family="Helvetica,sans-Serif" font-size="10.00"> EntityType row_type, EntityType</text>
<text text-anchor="start" x="2161" y="-588.5" font-family="Helvetica,sans-Serif" font-size="10.00"> col_type, EntitiesFieldData::EntData</text>
<text text-anchor="start" x="2161" y="-577.5" font-family="Helvetica,sans-Serif" font-size="10.00"> &amp;row_data, EntitiesFieldData::EntData</text>
<text text-anchor="middle" x="2256" y="-566.5" font-family="Helvetica,sans-Serif" font-size="10.00"> &amp;col_data)&gt;</text>
</a>
</g>
</g>
<!-- Node6&#45;&gt;Node3 -->
<g id="edge5" class="edge">
<title>Node6&#45;&gt;Node3</title>
<path fill="none" stroke="#9a32cd" stroke-dasharray="5,2" d="M2369.25,-594.3C2371.86,-594.19 2374.44,-594.09 2377,-594 2446.28,-591.56 2525.85,-591.66 2579.37,-592.14"/>
<polygon fill="#9a32cd" stroke="#9a32cd" points="2368.94,-590.81 2359.1,-594.76 2369.25,-597.8 2368.94,-590.81"/>
<text text-anchor="middle" x="2458" y="-597" font-family="Helvetica,sans-Serif" font-size="10.00"> doWorkLhsHook</text>
</g>
<!-- Node7 -->
<g id="node7" class="node">
<title>Node7</title>
<g id="a_node7"><a xlink:title=" ">
<polygon fill="white" stroke="#bfbfbf" points="2179,-521.5 2179,-540.5 2333,-540.5 2333,-521.5 2179,-521.5"/>
<text text-anchor="middle" x="2256" y="-528.5" font-family="Helvetica,sans-Serif" font-size="10.00">array&lt; bool, MBMAXTYPE &gt;</text>
</a>
</g>
</g>
<!-- Node7&#45;&gt;Node3 -->
<g id="edge6" class="edge">
<title>Node7&#45;&gt;Node3</title>
<path fill="none" stroke="#9a32cd" stroke-dasharray="5,2" d="M2327.53,-542.12C2384.58,-551.14 2466.99,-564.25 2539,-576 2553.71,-578.4 2569.6,-581.03 2584.36,-583.49"/>
<polygon fill="#9a32cd" stroke="#9a32cd" points="2327.95,-538.64 2317.53,-540.54 2326.86,-545.55 2327.95,-538.64"/>
<text text-anchor="middle" x="2458" y="-579" font-family="Helvetica,sans-Serif" font-size="10.00"> doEntities</text>
</g>
<!-- Node8 -->
<g id="node8" class="node">
<title>Node8</title>
<g id="a_node8"><a xlink:title=" ">
<polygon fill="white" stroke="#bfbfbf" points="2607.5,-882.5 2607.5,-901.5 2676.5,-901.5 2676.5,-882.5 2607.5,-882.5"/>
<text text-anchor="middle" x="2642" y="-889.5" font-family="Helvetica,sans-Serif" font-size="10.00">FieldSpace</text>
</a>
</g>
</g>
<!-- Node8&#45;&gt;Node2 -->
<g id="edge7" class="edge">
<title>Node8&#45;&gt;Node2</title>
<path fill="none" stroke="#9a32cd" stroke-dasharray="5,2" d="M2686.82,-897.53C2722.45,-902.07 2774,-908.75 2819,-915 2824.85,-915.81 2830.89,-916.66 2836.97,-917.53"/>
<polygon fill="#9a32cd" stroke="#9a32cd" points="2687.12,-894.04 2676.76,-896.25 2686.24,-900.98 2687.12,-894.04"/>
<text text-anchor="middle" x="2782" y="-918" font-family="Helvetica,sans-Serif" font-size="10.00"> sPace</text>
</g>
<!-- Node9 -->
<g id="node9" class="node">
<title>Node9</title>
<g id="a_node9"><a xlink:title=" ">
<polygon fill="white" stroke="#bfbfbf" points="1122.5,-1247.5 1122.5,-1266.5 1160.5,-1266.5 1160.5,-1247.5 1122.5,-1247.5"/>
<text text-anchor="middle" x="1141.5" y="-1254.5" font-family="Helvetica,sans-Serif" font-size="10.00">char</text>
</a>
</g>
</g>
<!-- Node9&#45;&gt;Node2 -->
<g id="edge8" class="edge">
<title>Node9&#45;&gt;Node2</title>
<path fill="none" stroke="#9a32cd" stroke-dasharray="5,2" d="M1169.91,-1268.78C1193.55,-1278.32 1228.86,-1291.1 1261,-1297 1448.45,-1331.39 1498.92,-1313 1689.5,-1313 1689.5,-1313 1689.5,-1313 2643,-1313 2828.28,-1313 2902.85,-1015.83 2917.99,-945.01"/>
<polygon fill="#9a32cd" stroke="#9a32cd" points="1171.12,-1265.49 1160.54,-1264.92 1168.45,-1271.96 1171.12,-1265.49"/>
<text text-anchor="middle" x="2063" y="-1316" font-family="Helvetica,sans-Serif" font-size="10.00"> opType</text>
</g>
<!-- Node37 -->
<g id="node37" class="node">
<title>Node37</title>
<g id="a_node37"><a xlink:href="structMoFEM_1_1Problem.html" target="_top" xlink:title="keeps basic data about problem">
<polygon fill="white" stroke="black" points="1449,-962.5 1449,-981.5 1548,-981.5 1548,-962.5 1449,-962.5"/>
<text text-anchor="middle" x="1498.5" y="-969.5" font-family="Helvetica,sans-Serif" font-size="10.00">MoFEM::Problem</text>
</a>
</g>
</g>
<!-- Node9&#45;&gt;Node37 -->
<g id="edge52" class="edge">
<title>Node9&#45;&gt;Node37</title>
<path fill="none" stroke="#9a32cd" stroke-dasharray="5,2" d="M1166.76,-1242.15C1199.94,-1221.89 1255.96,-1187.86 1261,-1186 1318.51,-1164.77 1355.04,-1207.7 1397,-1163 1449.6,-1106.96 1364.07,-1048.56 1415,-991 1423.57,-981.31 1436,-976.04 1448.62,-973.29"/>
<polygon fill="#9a32cd" stroke="#9a32cd" points="1164.78,-1239.26 1158.07,-1247.46 1168.43,-1245.23 1164.78,-1239.26"/>
<text text-anchor="middle" x="1329" y="-1189" font-family="Helvetica,sans-Serif" font-size="10.00"> tagName</text>
</g>
<!-- Node10 -->
<g id="node10" class="node">
<title>Node10</title>
<g id="a_node10"><a xlink:href="structMoFEM_1_1ForcesAndSourcesCore.html" target="_top" xlink:title="structure to get information form mofem into EntitiesFieldData">
<polygon fill="white" stroke="black" points="2557,-920.5 2557,-939.5 2727,-939.5 2727,-920.5 2557,-920.5"/>
<text text-anchor="middle" x="2642" y="-927.5" font-family="Helvetica,sans-Serif" font-size="10.00">MoFEM::ForcesAndSourcesCore</text>
</a>
</g>
</g>
<!-- Node10&#45;&gt;Node2 -->
<g id="edge9" class="edge">
<title>Node10&#45;&gt;Node2</title>
<path fill="none" stroke="#9a32cd" stroke-dasharray="5,2" d="M2737.47,-930C2769.62,-930 2805.33,-930 2836.64,-930"/>
<polygon fill="#9a32cd" stroke="#9a32cd" points="2737.16,-926.5 2727.16,-930 2737.16,-933.5 2737.16,-926.5"/>
<text text-anchor="middle" x="2782" y="-933" font-family="Helvetica,sans-Serif" font-size="10.00"> ptrFE</text>
</g>
<!-- Node10&#45;&gt;Node10 -->
<g id="edge67" class="edge">
<title>Node10&#45;&gt;Node10</title>
<path fill="none" stroke="#9a32cd" stroke-dasharray="5,2" d="M2615.96,-949.03C2617.38,-954.13 2626.06,-958 2642,-958 2666.88,-958 2674.08,-948.57 2663.58,-939.76"/>
<polygon fill="#9a32cd" stroke="#9a32cd" points="2619.24,-950.29 2620.42,-939.76 2612.93,-947.25 2619.24,-950.29"/>
<text text-anchor="middle" x="2642" y="-972" font-family="Helvetica,sans-Serif" font-size="10.00"> sidePtrFE</text>
<text text-anchor="middle" x="2642" y="-961" font-family="Helvetica,sans-Serif" font-size="10.00">refinePtrFE</text>
</g>
<!-- Node11 -->
<g id="node11" class="node">
<title>Node11</title>
<g id="a_node11"><a xlink:href="structMoFEM_1_1FEMethod.html" target="_top" xlink:title="structure for User Loop Methods on finite elements">
<polygon fill="white" stroke="black" points="2202.5,-837.5 2202.5,-856.5 2309.5,-856.5 2309.5,-837.5 2202.5,-837.5"/>
<text text-anchor="middle" x="2256" y="-844.5" font-family="Helvetica,sans-Serif" font-size="10.00">MoFEM::FEMethod</text>
</a>
</g>
</g>
<!-- Node11&#45;&gt;Node10 -->
<g id="edge10" class="edge">
<title>Node11&#45;&gt;Node10</title>
<path fill="none" stroke="midnightblue" d="M2319.88,-838.63C2380.96,-833.84 2473.79,-835.74 2539,-879 2552.6,-888.02 2543.92,-901.25 2557,-911 2562.16,-914.84 2567.95,-917.93 2574.02,-920.41"/>
<polygon fill="midnightblue" stroke="midnightblue" points="2319.26,-835.17 2309.6,-839.52 2319.87,-842.15 2319.26,-835.17"/>
</g>
<!-- Node12 -->
<g id="node12" class="node">
<title>Node12</title>
<g id="a_node12"><a xlink:href="structMoFEM_1_1BasicMethod.html" target="_top" xlink:title="Data structure to exchange data between mofem and User Loop Methods.">
<polygon fill="white" stroke="black" points="1825,-739.5 1825,-758.5 1947,-758.5 1947,-739.5 1825,-739.5"/>
<text text-anchor="middle" x="1886" y="-746.5" font-family="Helvetica,sans-Serif" font-size="10.00">MoFEM::BasicMethod</text>
</a>
</g>
</g>
<!-- Node12&#45;&gt;Node11 -->
<g id="edge11" class="edge">
<title>Node12&#45;&gt;Node11</title>
<path fill="none" stroke="midnightblue" d="M1930.57,-761.32C1980.21,-775.47 2063.69,-799.63 2135,-822 2143.05,-824.52 2144.84,-825.89 2153,-828 2168.87,-832.1 2186.35,-835.69 2202.28,-838.61"/>
<polygon fill="midnightblue" stroke="midnightblue" points="1931.39,-757.91 1920.81,-758.54 1929.47,-764.64 1931.39,-757.91"/>
</g>
<!-- Node13 -->
<g id="node13" class="node">
<title>Node13</title>
<g id="a_node13"><a xlink:href="structMoFEM_1_1KspMethod.html" target="_top" xlink:title="data structure for ksp (linear solver) context">
<polygon fill="white" stroke="black" points="1442,-701.5 1442,-720.5 1555,-720.5 1555,-701.5 1442,-701.5"/>
<text text-anchor="middle" x="1498.5" y="-708.5" font-family="Helvetica,sans-Serif" font-size="10.00">MoFEM::KspMethod</text>
</a>
</g>
</g>
<!-- Node13&#45;&gt;Node12 -->
<g id="edge12" class="edge">
<title>Node13&#45;&gt;Node12</title>
<path fill="none" stroke="midnightblue" d="M1565.1,-715.68C1622.21,-719.98 1707.18,-726.89 1781,-735 1795.22,-736.56 1810.49,-738.48 1824.84,-740.39"/>
<polygon fill="midnightblue" stroke="midnightblue" points="1565.36,-712.19 1555.13,-714.94 1564.84,-719.17 1565.36,-712.19"/>
</g>
<!-- Node14 -->
<g id="node14" class="node">
<title>Node14</title>
<g id="a_node14"><a xlink:href="structMoFEM_1_1PetscData.html" target="_top" xlink:title=" ">
<polygon fill="white" stroke="black" points="1087.5,-248.5 1087.5,-267.5 1195.5,-267.5 1195.5,-248.5 1087.5,-248.5"/>
<text text-anchor="middle" x="1141.5" y="-255.5" font-family="Helvetica,sans-Serif" font-size="10.00">MoFEM::PetscData</text>
</a>
</g>
</g>
<!-- Node14&#45;&gt;Node13 -->
<g id="edge13" class="edge">
<title>Node14&#45;&gt;Node13</title>
<path fill="none" stroke="midnightblue" d="M1205.36,-261.19C1219.5,-264.85 1233.2,-271.21 1243,-282 1282.2,-325.19 1224.26,-366.69 1261,-412 1301.46,-461.91 1358.05,-409.91 1397,-461 1428.22,-501.95 1381.39,-652.99 1415,-692 1421.91,-700.02 1431.45,-705.03 1441.61,-708.09"/>
<polygon fill="midnightblue" stroke="midnightblue" points="1206.06,-257.76 1195.55,-259.08 1204.58,-264.61 1206.06,-257.76"/>
</g>
<!-- Node24 -->
<g id="node24" class="node">
<title>Node24</title>
<g id="a_node24"><a xlink:href="structMoFEM_1_1SnesMethod.html" target="_top" xlink:title="data structure for snes (nonlinear solver) context">
<polygon fill="white" stroke="black" points="1439,-425.5 1439,-444.5 1558,-444.5 1558,-425.5 1439,-425.5"/>
<text text-anchor="middle" x="1498.5" y="-432.5" font-family="Helvetica,sans-Serif" font-size="10.00">MoFEM::SnesMethod</text>
</a>
</g>
</g>
<!-- Node14&#45;&gt;Node24 -->
<g id="edge26" class="edge">
<title>Node14&#45;&gt;Node24</title>
<path fill="none" stroke="darkgreen" d="M1205.62,-269.94C1218.22,-273.19 1231.21,-277.18 1243,-282 1342.51,-322.65 1448.74,-398.58 1484.74,-425.35"/>
<polygon fill="darkgreen" stroke="darkgreen" points="1206.16,-266.47 1195.62,-267.48 1204.5,-273.27 1206.16,-266.47"/>
</g>
<!-- Node27 -->
<g id="node27" class="node">
<title>Node27</title>
<g id="a_node27"><a xlink:href="structMoFEM_1_1TSMethod.html" target="_top" xlink:title="data structure for TS (time stepping) context">
<polygon fill="white" stroke="black" points="1445,-189.5 1445,-208.5 1552,-208.5 1552,-189.5 1445,-189.5"/>
<text text-anchor="middle" x="1498.5" y="-196.5" font-family="Helvetica,sans-Serif" font-size="10.00">MoFEM::TSMethod</text>
</a>
</g>
</g>
<!-- Node14&#45;&gt;Node27 -->
<g id="edge32" class="edge">
<title>Node14&#45;&gt;Node27</title>
<path fill="none" stroke="darkgreen" d="M1205.95,-268.6C1258.25,-275.02 1333.83,-278.92 1397,-261 1433.29,-250.71 1469.33,-223.18 1486.73,-208.51"/>
<polygon fill="darkgreen" stroke="darkgreen" points="1206.17,-265.1 1195.81,-267.29 1205.28,-272.05 1206.17,-265.1"/>
</g>
<!-- Node15 -->
<g id="node15" class="node">
<title>Node15</title>
<g id="a_node15"><a xlink:href="structMoFEM_1_1UnknownInterface.html" target="_top" xlink:title="base class for all interface classes">
<polygon fill="white" stroke="black" points="735,-20.5 735,-39.5 883,-39.5 883,-20.5 735,-20.5"/>
<text text-anchor="middle" x="809" y="-27.5" font-family="Helvetica,sans-Serif" font-size="10.00">MoFEM::UnknownInterface</text>
</a>
</g>
</g>
<!-- Node15&#45;&gt;Node14 -->
<g id="edge14" class="edge">
<title>Node15&#45;&gt;Node14</title>
<path fill="none" stroke="midnightblue" d="M893.04,-30.88C937.88,-35.98 990.38,-50.28 1022,-87 1066.39,-138.55 993.58,-189.27 1040,-239 1052.06,-251.92 1069.92,-257.66 1087.26,-259.86"/>
<polygon fill="midnightblue" stroke="midnightblue" points="893.31,-27.39 883.01,-29.87 892.61,-34.35 893.31,-27.39"/>
</g>
<!-- Node55 -->
<g id="node55" class="node">
<title>Node55</title>
<g id="a_node55"><a xlink:href="structMoFEM_1_1CoreInterface.html" target="_top" xlink:title="Interface.">
<polygon fill="white" stroke="black" points="1079,-0.5 1079,-19.5 1204,-19.5 1204,-0.5 1079,-0.5"/>
<text text-anchor="middle" x="1141.5" y="-7.5" font-family="Helvetica,sans-Serif" font-size="10.00">MoFEM::CoreInterface</text>
</a>
</g>
</g>
<!-- Node15&#45;&gt;Node55 -->
<g id="edge66" class="edge">
<title>Node15&#45;&gt;Node55</title>
<path fill="none" stroke="midnightblue" d="M893.22,-24.49C895.84,-24.32 898.44,-24.16 901,-24 961.49,-20.24 1030.58,-16.23 1078.96,-13.47"/>
<polygon fill="midnightblue" stroke="midnightblue" points="892.77,-21.01 883.01,-25.14 893.21,-28 892.77,-21.01"/>
</g>
<!-- Node16 -->
<g id="node16" class="node">
<title>Node16</title>
<g id="a_node16"><a xlink:title=" ">
<polygon fill="white" stroke="#bfbfbf" points="386,-492.5 386,-555.5 627,-555.5 627,-492.5 386,-492.5"/>
<text text-anchor="start" x="394" y="-543.5" font-family="Helvetica,sans-Serif" font-size="10.00">multi_index_container</text>
<text text-anchor="start" x="394" y="-532.5" font-family="Helvetica,sans-Serif" font-size="10.00">&lt; UIdTypeMap, indexed</text>
<text text-anchor="start" x="394" y="-521.5" font-family="Helvetica,sans-Serif" font-size="10.00">_by&lt; hashed_unique&lt; member</text>
<text text-anchor="start" x="394" y="-510.5" font-family="Helvetica,sans-Serif" font-size="10.00">&lt; UIdTypeMap, boost::typeindex</text>
<text text-anchor="middle" x="506.5" y="-499.5" font-family="Helvetica,sans-Serif" font-size="10.00">::type_index, &amp;UIdTypeMap::classIdx &gt; &gt; &gt; &gt;</text>
</a>
</g>
</g>
<!-- Node16&#45;&gt;Node15 -->
<g id="edge15" class="edge">
<title>Node16&#45;&gt;Node15</title>
<path fill="none" stroke="#9a32cd" stroke-dasharray="5,2" d="M515.14,-482.46C534.41,-389.81 593.89,-165.32 735,-49 739.65,-45.17 744.98,-42.1 750.61,-39.64"/>
<polygon fill="#9a32cd" stroke="#9a32cd" points="511.7,-481.81 513.14,-492.31 518.56,-483.2 511.7,-481.81"/>
<text text-anchor="middle" x="681" y="-147" font-family="Helvetica,sans-Serif" font-size="10.00"> iFaceTypeMap</text>
</g>
<!-- Node17 -->
<g id="node17" class="node">
<title>Node17</title>
<g id="a_node17"><a xlink:title=" ">
<polygon fill="white" stroke="#bfbfbf" points="0,-626.5 0,-645.5 125,-645.5 125,-626.5 0,-626.5"/>
<text text-anchor="middle" x="62.5" y="-633.5" font-family="Helvetica,sans-Serif" font-size="10.00">multi_index_container</text>
</a>
</g>
</g>
<!-- Node17&#45;&gt;Node12 -->
<g id="edge39" class="edge">
<title>Node17&#45;&gt;Node12</title>
<path fill="none" stroke="#9a32cd" stroke-dasharray="5,2" d="M94.35,-649.6C165.4,-679.64 346.64,-749 505.5,-749 505.5,-749 505.5,-749 1499.5,-749 1614.61,-749 1749.06,-749 1824.9,-749"/>
<polygon fill="#9a32cd" stroke="#9a32cd" points="95.64,-646.35 85.07,-645.63 92.89,-652.78 95.64,-646.35"/>
<text text-anchor="middle" x="961.5" y="-829" font-family="Helvetica,sans-Serif" font-size="10.00"> adjacenciesPtr</text>
<text text-anchor="middle" x="961.5" y="-818" font-family="Helvetica,sans-Serif" font-size="10.00">refinedEntitiesPtr</text>
<text text-anchor="middle" x="961.5" y="-807" font-family="Helvetica,sans-Serif" font-size="10.00">finiteElementsEntitiesPtr</text>
<text text-anchor="middle" x="961.5" y="-796" font-family="Helvetica,sans-Serif" font-size="10.00">dofsPtr</text>
<text text-anchor="middle" x="961.5" y="-785" font-family="Helvetica,sans-Serif" font-size="10.00">entitiesPtr</text>
<text text-anchor="middle" x="961.5" y="-774" font-family="Helvetica,sans-Serif" font-size="10.00">finiteElementsPtr</text>
<text text-anchor="middle" x="961.5" y="-763" font-family="Helvetica,sans-Serif" font-size="10.00">refinedFiniteElementsPtr</text>
<text text-anchor="middle" x="961.5" y="-752" font-family="Helvetica,sans-Serif" font-size="10.00">fieldsPtr</text>
</g>
<!-- Node17&#45;&gt;Node16 -->
<g id="edge16" class="edge">
<title>Node17&#45;&gt;Node16</title>
<path fill="none" stroke="orange" stroke-dasharray="5,2" d="M111.17,-623.92C176.33,-607.41 295.41,-577.23 385.73,-554.35"/>
<polygon fill="orange" stroke="orange" points="110.02,-620.6 101.18,-626.45 111.74,-627.39 110.02,-620.6"/>
<text text-anchor="start" x="143" y="-650" font-family="Helvetica,sans-Serif" font-size="10.00"> &lt; UIdTypeMap, indexed</text>
<text text-anchor="start" x="143" y="-639" font-family="Helvetica,sans-Serif" font-size="10.00">_by&lt; hashed_unique&lt; member</text>
<text text-anchor="start" x="143" y="-628" font-family="Helvetica,sans-Serif" font-size="10.00">&lt; UIdTypeMap, boost::typeindex</text>
<text text-anchor="middle" x="255.5" y="-617" font-family="Helvetica,sans-Serif" font-size="10.00">::type_index, &amp;UIdTypeMap::classIdx &gt; &gt; &gt; &gt;</text>
</g>
<!-- Node18 -->
<g id="node18" class="node">
<title>Node18</title>
<g id="a_node18"><a xlink:title=" ">
<polygon fill="white" stroke="#bfbfbf" points="738.5,-58.5 738.5,-77.5 879.5,-77.5 879.5,-58.5 738.5,-58.5"/>
<text text-anchor="middle" x="809" y="-65.5" font-family="Helvetica,sans-Serif" font-size="10.00">static constexpr Switches</text>
</a>
</g>
</g>
<!-- Node18&#45;&gt;Node14 -->
<g id="edge17" class="edge">
<title>Node18&#45;&gt;Node14</title>
<path fill="none" stroke="#9a32cd" stroke-dasharray="5,2" d="M867.99,-80.08C916.2,-93.13 983.01,-118.74 1022,-166 1043.26,-191.78 1015.73,-216.03 1040,-239 1052.64,-250.96 1070.33,-256.55 1087.35,-258.89"/>
<polygon fill="#9a32cd" stroke="#9a32cd" points="868.86,-76.69 858.3,-77.55 867.1,-83.46 868.86,-76.69"/>
<text text-anchor="middle" x="961.5" y="-246" font-family="Helvetica,sans-Serif" font-size="10.00"> CtxSetX_TT</text>
<text text-anchor="middle" x="961.5" y="-235" font-family="Helvetica,sans-Serif" font-size="10.00">CtxSetX_T</text>
<text text-anchor="middle" x="961.5" y="-224" font-family="Helvetica,sans-Serif" font-size="10.00">CtxSetA</text>
<text text-anchor="middle" x="961.5" y="-213" font-family="Helvetica,sans-Serif" font-size="10.00">CtxSetB</text>
<text text-anchor="middle" x="961.5" y="-202" font-family="Helvetica,sans-Serif" font-size="10.00">CtxSetTime</text>
<text text-anchor="middle" x="961.5" y="-191" font-family="Helvetica,sans-Serif" font-size="10.00">CtxSetNone</text>
<text text-anchor="middle" x="961.5" y="-180" font-family="Helvetica,sans-Serif" font-size="10.00">CtxSetF</text>
<text text-anchor="middle" x="961.5" y="-169" font-family="Helvetica,sans-Serif" font-size="10.00">CtxSetX</text>
</g>
<!-- Node19 -->
<g id="node19" class="node">
<title>Node19</title>
<g id="a_node19"><a xlink:title=" ">
<polygon fill="white" stroke="#bfbfbf" points="791.5,-289.5 791.5,-308.5 826.5,-308.5 826.5,-289.5 791.5,-289.5"/>
<text text-anchor="middle" x="809" y="-296.5" font-family="Helvetica,sans-Serif" font-size="10.00">Mat</text>
</a>
</g>
</g>
<!-- Node19&#45;&gt;Node13 -->
<g id="edge23" class="edge">
<title>Node19&#45;&gt;Node13</title>
<path fill="none" stroke="#9a32cd" stroke-dasharray="5,2" d="M819.7,-317.72C834.28,-344.31 864.08,-393.2 901,-424 953.66,-467.94 974.3,-471.34 1040,-491 1127.2,-517.09 1156.91,-488.46 1243,-518 1317.98,-543.73 1350.52,-543.78 1397,-608 1419.39,-638.93 1388.21,-664.8 1415,-692 1422.32,-699.44 1431.93,-704.21 1441.99,-707.22"/>
<polygon fill="#9a32cd" stroke="#9a32cd" points="822.68,-315.87 814.88,-308.7 816.51,-319.17 822.68,-315.87"/>
<text text-anchor="middle" x="1141.5" y="-532" font-family="Helvetica,sans-Serif" font-size="10.00"> ksp_A</text>
<text text-anchor="middle" x="1141.5" y="-521" font-family="Helvetica,sans-Serif" font-size="10.00">ksp_B</text>
</g>
<!-- Node19&#45;&gt;Node14 -->
<g id="edge18" class="edge">
<title>Node19&#45;&gt;Node14</title>
<path fill="none" stroke="#9a32cd" stroke-dasharray="5,2" d="M836.83,-295.74C877.07,-290.85 955.43,-281.3 1022,-273 1043.4,-270.33 1066.97,-267.36 1087.42,-264.76"/>
<polygon fill="#9a32cd" stroke="#9a32cd" points="836.27,-292.29 826.77,-296.97 837.12,-299.23 836.27,-292.29"/>
<text text-anchor="middle" x="961.5" y="-302" font-family="Helvetica,sans-Serif" font-size="10.00"> A</text>
<text text-anchor="middle" x="961.5" y="-291" font-family="Helvetica,sans-Serif" font-size="10.00">B</text>
</g>
<!-- Node19&#45;&gt;Node24 -->
<g id="edge28" class="edge">
<title>Node19&#45;&gt;Node24</title>
<path fill="none" stroke="#9a32cd" stroke-dasharray="5,2" d="M819.53,-317.47C833.56,-342.45 862.36,-386.05 901,-405 924.86,-416.7 1293.01,-428.9 1438.75,-433.3"/>
<polygon fill="#9a32cd" stroke="#9a32cd" points="822.57,-315.73 814.73,-308.6 816.42,-319.06 822.57,-315.73"/>
<text text-anchor="middle" x="1141.5" y="-440" font-family="Helvetica,sans-Serif" font-size="10.00"> snes_A</text>
<text text-anchor="middle" x="1141.5" y="-429" font-family="Helvetica,sans-Serif" font-size="10.00">snes_B</text>
</g>
<!-- Node19&#45;&gt;Node27 -->
<g id="edge33" class="edge">
<title>Node19&#45;&gt;Node27</title>
<path fill="none" stroke="#9a32cd" stroke-dasharray="5,2" d="M836.59,-295.05C851.24,-291.92 869.2,-286.44 883,-277 893.72,-269.67 891.88,-263.23 901,-254 949.45,-204.98 986.32,-215.97 1022,-157 1043.57,-121.35 1007.83,-91.48 1040,-65 1101.59,-14.29 1327.07,-64.6 1397,-103 1438.45,-125.77 1475.34,-169.94 1490.36,-189.4"/>
<polygon fill="#9a32cd" stroke="#9a32cd" points="835.79,-291.64 826.61,-296.94 837.09,-298.52 835.79,-291.64"/>
<text text-anchor="middle" x="1141.5" y="-79" font-family="Helvetica,sans-Serif" font-size="10.00"> ts_A</text>
<text text-anchor="middle" x="1141.5" y="-68" font-family="Helvetica,sans-Serif" font-size="10.00">ts_B</text>
</g>
<!-- Node20 -->
<g id="node20" class="node">
<title>Node20</title>
<g id="a_node20"><a xlink:title=" ">
<polygon fill="white" stroke="#bfbfbf" points="772.5,-248.5 772.5,-267.5 845.5,-267.5 845.5,-248.5 772.5,-248.5"/>
<text text-anchor="middle" x="809" y="-255.5" font-family="Helvetica,sans-Serif" font-size="10.00">bitset&lt; 8 &gt;</text>
</a>
</g>
</g>
<!-- Node20&#45;&gt;Node14 -->
<g id="edge19" class="edge">
<title>Node20&#45;&gt;Node14</title>
<path fill="none" stroke="#9a32cd" stroke-dasharray="5,2" d="M855.72,-258C916.35,-258 1023.14,-258 1087.3,-258"/>
<polygon fill="#9a32cd" stroke="#9a32cd" points="855.68,-254.5 845.68,-258 855.68,-261.5 855.68,-254.5"/>
<text text-anchor="middle" x="961.5" y="-261" font-family="Helvetica,sans-Serif" font-size="10.00"> data_ctx</text>
</g>
<!-- Node21 -->
<g id="node21" class="node">
<title>Node21</title>
<g id="a_node21"><a xlink:title=" ">
<polygon fill="white" stroke="#bfbfbf" points="792,-500.5 792,-519.5 826,-519.5 826,-500.5 792,-500.5"/>
<text text-anchor="middle" x="809" y="-507.5" font-family="Helvetica,sans-Serif" font-size="10.00">Vec</text>
</a>
</g>
</g>
<!-- Node21&#45;&gt;Node13 -->
<g id="edge24" class="edge">
<title>Node21&#45;&gt;Node13</title>
<path fill="none" stroke="#9a32cd" stroke-dasharray="5,2" d="M830.99,-526.17C869.85,-555.19 956.67,-615.8 1040,-645 1077.3,-658.07 1328.11,-690.11 1441.74,-704.18"/>
<polygon fill="#9a32cd" stroke="#9a32cd" points="832.68,-523.06 822.59,-519.83 828.47,-528.65 832.68,-523.06"/>
<text text-anchor="middle" x="1141.5" y="-680" font-family="Helvetica,sans-Serif" font-size="10.00"> ksp_f</text>
</g>
<!-- Node21&#45;&gt;Node14 -->
<g id="edge20" class="edge">
<title>Node21&#45;&gt;Node14</title>
<path fill="none" stroke="#9a32cd" stroke-dasharray="5,2" d="M820.34,-491.48C835.48,-465.54 865.77,-417.99 901,-386 947.33,-343.93 978.29,-358.79 1022,-314 1033.4,-302.32 1026.97,-291.83 1040,-282 1053.6,-271.74 1070.95,-265.78 1087.39,-262.36"/>
<polygon fill="#9a32cd" stroke="#9a32cd" points="817.23,-489.87 815.29,-500.28 823.3,-493.35 817.23,-489.87"/>
<text text-anchor="middle" x="961.5" y="-422" font-family="Helvetica,sans-Serif" font-size="10.00"> f</text>
<text text-anchor="middle" x="961.5" y="-411" font-family="Helvetica,sans-Serif" font-size="10.00">x</text>
<text text-anchor="middle" x="961.5" y="-400" font-family="Helvetica,sans-Serif" font-size="10.00">x_t</text>
<text text-anchor="middle" x="961.5" y="-389" font-family="Helvetica,sans-Serif" font-size="10.00">x_tt</text>
</g>
<!-- Node21&#45;&gt;Node24 -->
<g id="edge29" class="edge">
<title>Node21&#45;&gt;Node24</title>
<path fill="none" stroke="#9a32cd" stroke-dasharray="5,2" d="M836.17,-517.08C904.08,-534.37 1091.2,-575.14 1243,-544 1338.58,-524.39 1442.61,-467.34 1481.58,-444.56"/>
<polygon fill="#9a32cd" stroke="#9a32cd" points="836.88,-513.65 826.32,-514.52 835.12,-520.42 836.88,-513.65"/>
<text text-anchor="middle" x="1141.5" y="-569" font-family="Helvetica,sans-Serif" font-size="10.00"> snes_x</text>
<text text-anchor="middle" x="1141.5" y="-558" font-family="Helvetica,sans-Serif" font-size="10.00">snes_f</text>
</g>
<!-- Node21&#45;&gt;Node27 -->
<g id="edge37" class="edge">
<title>Node21&#45;&gt;Node27</title>
<path fill="none" stroke="#9a32cd" stroke-dasharray="5,2" d="M836.11,-508.32C881.62,-503.89 975.09,-487.85 1022,-430 1055.14,-389.13 1001.59,-348.95 1040,-313 1098.14,-258.58 1323.3,-312.16 1397,-282 1437.42,-265.46 1474.02,-226.68 1489.58,-208.6"/>
<polygon fill="#9a32cd" stroke="#9a32cd" points="835.8,-504.83 826.14,-509.18 836.4,-511.81 835.8,-504.83"/>
<text text-anchor="middle" x="1141.5" y="-349" font-family="Helvetica,sans-Serif" font-size="10.00"> ts_u</text>
<text text-anchor="middle" x="1141.5" y="-338" font-family="Helvetica,sans-Serif" font-size="10.00">ts_F</text>
<text text-anchor="middle" x="1141.5" y="-327" font-family="Helvetica,sans-Serif" font-size="10.00">ts_u_t</text>
<text text-anchor="middle" x="1141.5" y="-316" font-family="Helvetica,sans-Serif" font-size="10.00">ts_u_tt</text>
</g>
<!-- Node22 -->
<g id="node22" class="node">
<title>Node22</title>
<g id="a_node22"><a xlink:title=" ">
<polygon fill="white" stroke="#bfbfbf" points="1124,-616.5 1124,-635.5 1159,-635.5 1159,-616.5 1124,-616.5"/>
<text text-anchor="middle" x="1141.5" y="-623.5" font-family="Helvetica,sans-Serif" font-size="10.00">KSP</text>
</a>
</g>
</g>
<!-- Node22&#45;&gt;Node13 -->
<g id="edge21" class="edge">
<title>Node22&#45;&gt;Node13</title>
<path fill="none" stroke="#9a32cd" stroke-dasharray="5,2" d="M1169.39,-622.3C1227.43,-614.93 1362.03,-601.29 1397,-628 1420.48,-645.93 1393.61,-671.61 1415,-692 1422.45,-699.1 1431.99,-703.74 1441.93,-706.73"/>
<polygon fill="#9a32cd" stroke="#9a32cd" points="1168.63,-618.87 1159.17,-623.64 1169.54,-625.81 1168.63,-618.87"/>
<text text-anchor="middle" x="1329" y="-631" font-family="Helvetica,sans-Serif" font-size="10.00"> ksp</text>
</g>
<!-- Node23 -->
<g id="node23" class="node">
<title>Node23</title>
<g id="a_node23"><a xlink:title=" ">
<polygon fill="white" stroke="#bfbfbf" points="1104.5,-701.5 1104.5,-720.5 1178.5,-720.5 1178.5,-701.5 1104.5,-701.5"/>
<text text-anchor="middle" x="1141.5" y="-708.5" font-family="Helvetica,sans-Serif" font-size="10.00">KSPContext</text>
</a>
</g>
</g>
<!-- Node23&#45;&gt;Node13 -->
<g id="edge22" class="edge">
<title>Node23&#45;&gt;Node13</title>
<path fill="none" stroke="#9a32cd" stroke-dasharray="5,2" d="M1189.19,-711C1254.3,-711 1372.2,-711 1441.81,-711"/>
<polygon fill="#9a32cd" stroke="#9a32cd" points="1188.82,-707.5 1178.82,-711 1188.82,-714.5 1188.82,-707.5"/>
<text text-anchor="middle" x="1329" y="-714" font-family="Helvetica,sans-Serif" font-size="10.00"> ksp_ctx</text>
</g>
<!-- Node24&#45;&gt;Node12 -->
<g id="edge25" class="edge">
<title>Node24&#45;&gt;Node12</title>
<path fill="none" stroke="midnightblue" d="M1568.1,-444.81C1633.99,-458.12 1730.71,-488.65 1781,-557 1825.5,-617.49 1750.47,-667.7 1799,-725 1805.71,-732.93 1814.8,-738.35 1824.56,-742.03"/>
<polygon fill="midnightblue" stroke="midnightblue" points="1568.69,-441.36 1558.21,-442.89 1567.36,-448.23 1568.69,-441.36"/>
</g>
<!-- Node25 -->
<g id="node25" class="node">
<title>Node25</title>
<g id="a_node25"><a xlink:title=" ">
<polygon fill="white" stroke="#bfbfbf" points="1120.5,-366.5 1120.5,-385.5 1162.5,-385.5 1162.5,-366.5 1120.5,-366.5"/>
<text text-anchor="middle" x="1141.5" y="-373.5" font-family="Helvetica,sans-Serif" font-size="10.00">SNES</text>
</a>
</g>
</g>
<!-- Node25&#45;&gt;Node24 -->
<g id="edge27" class="edge">
<title>Node25&#45;&gt;Node24</title>
<path fill="none" stroke="#9a32cd" stroke-dasharray="5,2" d="M1172.63,-375.79C1220.68,-376.05 1317.39,-379.04 1397,-397 1425.75,-403.49 1457.29,-416.44 1477.23,-425.41"/>
<polygon fill="#9a32cd" stroke="#9a32cd" points="1172.59,-372.29 1162.59,-375.77 1172.58,-379.29 1172.59,-372.29"/>
<text text-anchor="middle" x="1329" y="-400" font-family="Helvetica,sans-Serif" font-size="10.00"> snes</text>
</g>
<!-- Node26 -->
<g id="node26" class="node">
<title>Node26</title>
<g id="a_node26"><a xlink:title=" ">
<polygon fill="white" stroke="#bfbfbf" points="1101.5,-462.5 1101.5,-481.5 1181.5,-481.5 1181.5,-462.5 1101.5,-462.5"/>
<text text-anchor="middle" x="1141.5" y="-469.5" font-family="Helvetica,sans-Serif" font-size="10.00">SNESContext</text>
</a>
</g>
</g>
<!-- Node26&#45;&gt;Node24 -->
<g id="edge30" class="edge">
<title>Node26&#45;&gt;Node24</title>
<path fill="none" stroke="#9a32cd" stroke-dasharray="5,2" d="M1191.84,-466.86C1256.48,-460.12 1369.71,-448.32 1438.73,-441.13"/>
<polygon fill="#9a32cd" stroke="#9a32cd" points="1191.09,-463.42 1181.51,-467.93 1191.82,-470.38 1191.09,-463.42"/>
<text text-anchor="middle" x="1329" y="-461" font-family="Helvetica,sans-Serif" font-size="10.00"> snes_ctx</text>
</g>
<!-- Node27&#45;&gt;Node12 -->
<g id="edge31" class="edge">
<title>Node27&#45;&gt;Node12</title>
<path fill="none" stroke="midnightblue" d="M1527.14,-213.46C1586.21,-246.09 1724.01,-331.73 1781,-448 1808.15,-503.39 1760.13,-677.1 1799,-725 1805.64,-733.18 1814.82,-738.71 1824.73,-742.42"/>
<polygon fill="midnightblue" stroke="midnightblue" points="1528.49,-210.22 1518.03,-208.51 1525.15,-216.36 1528.49,-210.22"/>
</g>
<!-- Node28 -->
<g id="node28" class="node">
<title>Node28</title>
<g id="a_node28"><a xlink:title=" ">
<polygon fill="white" stroke="#bfbfbf" points="1109,-210.5 1109,-229.5 1174,-229.5 1174,-210.5 1109,-210.5"/>
<text text-anchor="middle" x="1141.5" y="-217.5" font-family="Helvetica,sans-Serif" font-size="10.00">PetscReal</text>
</a>
</g>
</g>
<!-- Node28&#45;&gt;Node27 -->
<g id="edge34" class="edge">
<title>Node28&#45;&gt;Node27</title>
<path fill="none" stroke="#9a32cd" stroke-dasharray="5,2" d="M1184.25,-217.53C1249.06,-213.7 1373.78,-206.32 1444.73,-202.12"/>
<polygon fill="#9a32cd" stroke="#9a32cd" points="1183.78,-214.05 1174,-218.14 1184.19,-221.04 1183.78,-214.05"/>
<text text-anchor="middle" x="1329" y="-249" font-family="Helvetica,sans-Serif" font-size="10.00"> ts_a</text>
<text text-anchor="middle" x="1329" y="-238" font-family="Helvetica,sans-Serif" font-size="10.00">ts_t</text>
<text text-anchor="middle" x="1329" y="-227" font-family="Helvetica,sans-Serif" font-size="10.00">ts_dt</text>
<text text-anchor="middle" x="1329" y="-216" font-family="Helvetica,sans-Serif" font-size="10.00">ts_aa</text>
</g>
<!-- Node29 -->
<g id="node29" class="node">
<title>Node29</title>
<g id="a_node29"><a xlink:title=" ">
<polygon fill="white" stroke="#bfbfbf" points="1108,-172.5 1108,-191.5 1175,-191.5 1175,-172.5 1108,-172.5"/>
<text text-anchor="middle" x="1141.5" y="-179.5" font-family="Helvetica,sans-Serif" font-size="10.00">TSContext</text>
</a>
</g>
</g>
<!-- Node29&#45;&gt;Node27 -->
<g id="edge35" class="edge">
<title>Node29&#45;&gt;Node27</title>
<path fill="none" stroke="#9a32cd" stroke-dasharray="5,2" d="M1185.35,-180.16C1236,-178.45 1322.79,-176.98 1397,-183 1413.55,-184.34 1431.5,-186.86 1447.59,-189.5"/>
<polygon fill="#9a32cd" stroke="#9a32cd" points="1184.98,-176.67 1175.11,-180.53 1185.23,-183.67 1184.98,-176.67"/>
<text text-anchor="middle" x="1329" y="-186" font-family="Helvetica,sans-Serif" font-size="10.00"> ts_ctx</text>
</g>
<!-- Node30 -->
<g id="node30" class="node">
<title>Node30</title>
<g id="a_node30"><a xlink:title=" ">
<polygon fill="white" stroke="#bfbfbf" points="1113.5,-134.5 1113.5,-153.5 1169.5,-153.5 1169.5,-134.5 1113.5,-134.5"/>
<text text-anchor="middle" x="1141.5" y="-141.5" font-family="Helvetica,sans-Serif" font-size="10.00">PetscInt</text>
</a>
</g>
</g>
<!-- Node30&#45;&gt;Node27 -->
<g id="edge36" class="edge">
<title>Node30&#45;&gt;Node27</title>
<path fill="none" stroke="#9a32cd" stroke-dasharray="5,2" d="M1179.57,-143.95C1229.5,-144.56 1320.87,-148.03 1397,-164 1424.67,-169.8 1455.16,-181.17 1475.22,-189.38"/>
<polygon fill="#9a32cd" stroke="#9a32cd" points="1179.6,-140.45 1169.57,-143.86 1179.54,-147.45 1179.6,-140.45"/>
<text text-anchor="middle" x="1329" y="-167" font-family="Helvetica,sans-Serif" font-size="10.00"> ts_step</text>
</g>
<!-- Node31 -->
<g id="node31" class="node">
<title>Node31</title>
<g id="a_node31"><a xlink:title=" ">
<polygon fill="white" stroke="#bfbfbf" points="1127,-96.5 1127,-115.5 1156,-115.5 1156,-96.5 1127,-96.5"/>
<text text-anchor="middle" x="1141.5" y="-103.5" font-family="Helvetica,sans-Serif" font-size="10.00">TS</text>
</a>
</g>
</g>
<!-- Node31&#45;&gt;Node27 -->
<g id="edge38" class="edge">
<title>Node31&#45;&gt;Node27</title>
<path fill="none" stroke="#9a32cd" stroke-dasharray="5,2" d="M1166.42,-104.86C1212.52,-103.44 1316.22,-104.12 1397,-133 1433.17,-145.93 1469.26,-174.37 1486.7,-189.34"/>
<polygon fill="#9a32cd" stroke="#9a32cd" points="1166.11,-101.37 1156.24,-105.23 1166.37,-108.36 1166.11,-101.37"/>
<text text-anchor="middle" x="1329" y="-136" font-family="Helvetica,sans-Serif" font-size="10.00"> ts</text>
</g>
<!-- Node32 -->
<g id="node32" class="node">
<title>Node32</title>
<g id="a_node32"><a xlink:title=" ">
<polygon fill="white" stroke="#bfbfbf" points="1454,-663.5 1454,-682.5 1543,-682.5 1543,-663.5 1454,-663.5"/>
<text text-anchor="middle" x="1498.5" y="-670.5" font-family="Helvetica,sans-Serif" font-size="10.00">pair&lt; int, int &gt;</text>
</a>
</g>
</g>
<!-- Node32&#45;&gt;Node12 -->
<g id="edge40" class="edge">
<title>Node32&#45;&gt;Node12</title>
<path fill="none" stroke="#9a32cd" stroke-dasharray="5,2" d="M1553.78,-667.06C1613.24,-663.12 1709.63,-664.41 1781,-703 1792.11,-709.01 1788.42,-718.09 1799,-725 1808.6,-731.27 1819.84,-735.92 1830.97,-739.37"/>
<polygon fill="#9a32cd" stroke="#9a32cd" points="1553.2,-663.6 1543.49,-667.82 1553.72,-670.58 1553.2,-663.6"/>
<text text-anchor="middle" x="1690.5" y="-706" font-family="Helvetica,sans-Serif" font-size="10.00"> loHiFERank</text>
</g>
<!-- Node33 -->
<g id="node33" class="node">
<title>Node33</title>
<g id="a_node33"><a xlink:title=" ">
<polygon fill="white" stroke="#bfbfbf" points="1428.5,-625.5 1428.5,-644.5 1568.5,-644.5 1568.5,-625.5 1428.5,-625.5"/>
<text text-anchor="middle" x="1498.5" y="-632.5" font-family="Helvetica,sans-Serif" font-size="10.00">weak_ptr&lt; CacheTuple &gt;</text>
</a>
</g>
</g>
<!-- Node33&#45;&gt;Node12 -->
<g id="edge41" class="edge">
<title>Node33&#45;&gt;Node12</title>
<path fill="none" stroke="#9a32cd" stroke-dasharray="5,2" d="M1578.85,-629.02C1651.24,-625.35 1751.32,-625.29 1781,-650 1807.35,-671.93 1775.21,-700.32 1799,-725 1806.1,-732.37 1815.26,-737.53 1824.94,-741.13"/>
<polygon fill="#9a32cd" stroke="#9a32cd" points="1578.62,-625.53 1568.83,-629.56 1579,-632.52 1578.62,-625.53"/>
<text text-anchor="middle" x="1690.5" y="-653" font-family="Helvetica,sans-Serif" font-size="10.00"> cacheWeakPtr</text>
</g>
<!-- Node34 -->
<g id="node34" class="node">
<title>Node34</title>
<g id="a_node34"><a xlink:title=" ">
<polygon fill="white" stroke="#bfbfbf" points="1442.5,-582.5 1442.5,-601.5 1554.5,-601.5 1554.5,-582.5 1442.5,-582.5"/>
<text text-anchor="middle" x="1498.5" y="-589.5" font-family="Helvetica,sans-Serif" font-size="10.00">unique_ptr&lt; bool &gt;</text>
</a>
</g>
</g>
<!-- Node34&#45;&gt;Node12 -->
<g id="edge42" class="edge">
<title>Node34&#45;&gt;Node12</title>
<path fill="none" stroke="#9a32cd" stroke-dasharray="5,2" d="M1537.53,-579.6C1597.42,-562.71 1713.79,-540.94 1781,-601 1822.52,-638.11 1762.22,-683.18 1799,-725 1805.86,-732.8 1815.02,-738.16 1824.8,-741.82"/>
<polygon fill="#9a32cd" stroke="#9a32cd" points="1536.34,-576.3 1527.72,-582.47 1538.3,-583.02 1536.34,-576.3"/>
<text text-anchor="middle" x="1690.5" y="-615" font-family="Helvetica,sans-Serif" font-size="10.00"> matAssembleSwitch</text>
<text text-anchor="middle" x="1690.5" y="-604" font-family="Helvetica,sans-Serif" font-size="10.00">vecAssembleSwitch</text>
</g>
<!-- Node35 -->
<g id="node35" class="node">
<title>Node35</title>
<g id="a_node35"><a xlink:title=" ">
<polygon fill="white" stroke="#bfbfbf" points="1127,-1326.5 1127,-1345.5 1156,-1345.5 1156,-1326.5 1127,-1326.5"/>
<text text-anchor="middle" x="1141.5" y="-1333.5" font-family="Helvetica,sans-Serif" font-size="10.00">int</text>
</a>
</g>
</g>
<!-- Node35&#45;&gt;Node1 -->
<g id="edge88" class="edge">
<title>Node35&#45;&gt;Node1</title>
<path fill="none" stroke="#9a32cd" stroke-dasharray="5,2" d="M1166.14,-1338.82C1223.08,-1345.36 1372.39,-1361 1497.5,-1361 1497.5,-1361 1497.5,-1361 2923,-1361 3126.84,-1361 3185.86,-545.08 3193.58,-422.37"/>
<polygon fill="#9a32cd" stroke="#9a32cd" points="1166.36,-1335.32 1156.02,-1337.64 1165.55,-1342.27 1166.36,-1335.32"/>
<text text-anchor="middle" x="2256" y="-1364" font-family="Helvetica,sans-Serif" font-size="10.00"> zeroSide</text>
</g>
<!-- Node35&#45;&gt;Node12 -->
<g id="edge43" class="edge">
<title>Node35&#45;&gt;Node12</title>
<path fill="none" stroke="#9a32cd" stroke-dasharray="5,2" d="M1166.05,-1340.24C1212.66,-1347.47 1318.93,-1358.15 1397,-1322 1407.56,-1317.11 1406.22,-1310.63 1415,-1303 1565.74,-1171.87 1683.14,-1216.18 1781,-1042 1808.07,-993.83 1768.69,-840.2 1799,-794 1810.46,-776.53 1831,-765.42 1849.13,-758.62"/>
<polygon fill="#9a32cd" stroke="#9a32cd" points="1166.47,-1336.76 1156.03,-1338.59 1165.33,-1343.67 1166.47,-1336.76"/>
<text text-anchor="middle" x="1498.5" y="-1339" font-family="Helvetica,sans-Serif" font-size="10.00"> sIze</text>
<text text-anchor="middle" x="1498.5" y="-1328" font-family="Helvetica,sans-Serif" font-size="10.00">loopSize</text>
<text text-anchor="middle" x="1498.5" y="-1317" font-family="Helvetica,sans-Serif" font-size="10.00">nInTheLoop</text>
<text text-anchor="middle" x="1498.5" y="-1306" font-family="Helvetica,sans-Serif" font-size="10.00">rAnk</text>
</g>
<!-- Node35&#45;&gt;Node37 -->
<g id="edge55" class="edge">
<title>Node35&#45;&gt;Node37</title>
<path fill="none" stroke="#9a32cd" stroke-dasharray="5,2" d="M1165.56,-1326.36C1187.51,-1316.3 1220.46,-1298.82 1243,-1276 1254.2,-1264.67 1248.73,-1255.17 1261,-1245 1310.35,-1204.1 1357.73,-1247.66 1397,-1197 1425.15,-1160.68 1384.85,-1025.67 1415,-991 1423.58,-981.13 1436.17,-975.83 1448.94,-973.11"/>
<polygon fill="#9a32cd" stroke="#9a32cd" points="1164.05,-1323.2 1156.32,-1330.45 1166.88,-1329.6 1164.05,-1323.2"/>
<text text-anchor="middle" x="1329" y="-1314" font-family="Helvetica,sans-Serif" font-size="10.00"> tagNameSize</text>
<text text-anchor="middle" x="1329" y="-1303" font-family="Helvetica,sans-Serif" font-size="10.00">nbDofsRow</text>
<text text-anchor="middle" x="1329" y="-1292" font-family="Helvetica,sans-Serif" font-size="10.00">nbLocDofsCol</text>
<text text-anchor="middle" x="1329" y="-1281" font-family="Helvetica,sans-Serif" font-size="10.00">nbDofsCol</text>
<text text-anchor="middle" x="1329" y="-1270" font-family="Helvetica,sans-Serif" font-size="10.00">nbGhostDofsRow</text>
<text text-anchor="middle" x="1329" y="-1259" font-family="Helvetica,sans-Serif" font-size="10.00">nbGhostDofsCol</text>
<text text-anchor="middle" x="1329" y="-1248" font-family="Helvetica,sans-Serif" font-size="10.00">nbLocDofsRow</text>
</g>
<!-- Node36 -->
<g id="node36" class="node">
<title>Node36</title>
<g id="a_node36"><a xlink:title=" ">
<polygon fill="white" stroke="#bfbfbf" points="1415,-1000.5 1415,-1019.5 1582,-1019.5 1582,-1000.5 1415,-1000.5"/>
<text text-anchor="middle" x="1498.5" y="-1007.5" font-family="Helvetica,sans-Serif" font-size="10.00">function&lt; MoFEMErrorCode()&gt;</text>
</a>
</g>
</g>
<!-- Node36&#45;&gt;Node12 -->
<g id="edge44" class="edge">
<title>Node36&#45;&gt;Node12</title>
<path fill="none" stroke="#9a32cd" stroke-dasharray="5,2" d="M1592.13,-1006.31C1655.26,-998.56 1735.38,-977.46 1781,-922 1817.5,-877.63 1765.89,-840.95 1799,-794 1811.24,-776.65 1832.26,-765.48 1850.46,-758.6"/>
<polygon fill="#9a32cd" stroke="#9a32cd" points="1591.69,-1002.84 1582.15,-1007.44 1592.48,-1009.79 1591.69,-1002.84"/>
<text text-anchor="middle" x="1690.5" y="-1030" font-family="Helvetica,sans-Serif" font-size="10.00"> preProcessHook</text>
<text text-anchor="middle" x="1690.5" y="-1019" font-family="Helvetica,sans-Serif" font-size="10.00">operatorHook</text>
<text text-anchor="middle" x="1690.5" y="-1008" font-family="Helvetica,sans-Serif" font-size="10.00">postProcessHook</text>
</g>
<!-- Node37&#45;&gt;Node12 -->
<g id="edge45" class="edge">
<title>Node37&#45;&gt;Node12</title>
<path fill="none" stroke="#9a32cd" stroke-dasharray="5,2" d="M1523.5,-957.13C1573.99,-926 1695.09,-852.01 1799,-794 1821.81,-781.27 1848.52,-767.46 1866.05,-758.54"/>
<polygon fill="#9a32cd" stroke="#9a32cd" points="1521.59,-954.2 1514.92,-962.43 1525.26,-960.16 1521.59,-954.2"/>
<text text-anchor="middle" x="1690.5" y="-910" font-family="Helvetica,sans-Serif" font-size="10.00"> problemPtr</text>
</g>
<!-- Node38 -->
<g id="node38" class="node">
<title>Node38</title>
<g id="a_node38"><a xlink:title=" ">
<polygon fill="white" stroke="#bfbfbf" points="1058,-1156 1058,-1186 1225,-1186 1225,-1156 1058,-1156"/>
<text text-anchor="start" x="1066" y="-1174" font-family="Helvetica,sans-Serif" font-size="10.00">shared_ptr&lt; NumeredEntFinite</text>
<text text-anchor="middle" x="1141.5" y="-1163" font-family="Helvetica,sans-Serif" font-size="10.00">Element_multiIndex &gt;</text>
</a>
</g>
</g>
<!-- Node38&#45;&gt;Node37 -->
<g id="edge46" class="edge">
<title>Node38&#45;&gt;Node37</title>
<path fill="none" stroke="#9a32cd" stroke-dasharray="5,2" d="M1235.25,-1156.02C1307.69,-1144.26 1396.26,-1129.76 1397,-1129 1439.99,-1084.53 1373.43,-1036.8 1415,-991 1423.69,-981.42 1436.16,-976.19 1448.78,-973.43"/>
<polygon fill="#9a32cd" stroke="#9a32cd" points="1234.45,-1152.6 1225.14,-1157.65 1235.58,-1159.51 1234.45,-1152.6"/>
<text text-anchor="middle" x="1329" y="-1154" font-family="Helvetica,sans-Serif" font-size="10.00"> numeredFiniteElementsPtr</text>
</g>
<!-- Node39 -->
<g id="node39" class="node">
<title>Node39</title>
<g id="a_node39"><a xlink:title=" ">
<polygon fill="white" stroke="#bfbfbf" points="1112,-1117.5 1112,-1136.5 1171,-1136.5 1171,-1117.5 1112,-1117.5"/>
<text text-anchor="middle" x="1141.5" y="-1124.5" font-family="Helvetica,sans-Serif" font-size="10.00">BitFEId *</text>
</a>
</g>
</g>
<!-- Node39&#45;&gt;Node37 -->
<g id="edge47" class="edge">
<title>Node39&#45;&gt;Node37</title>
<path fill="none" stroke="#9a32cd" stroke-dasharray="5,2" d="M1181.64,-1124.3C1249.15,-1119.27 1381.73,-1107.64 1397,-1093 1430.22,-1061.14 1383.3,-1024.38 1415,-991 1423.81,-981.73 1436.15,-976.56 1448.62,-973.79"/>
<polygon fill="#9a32cd" stroke="#9a32cd" points="1181.12,-1120.82 1171.4,-1125.05 1181.63,-1127.81 1181.12,-1120.82"/>
<text text-anchor="middle" x="1329" y="-1120" font-family="Helvetica,sans-Serif" font-size="10.00"> tagBitFEId</text>
</g>
<!-- Node40 -->
<g id="node40" class="node">
<title>Node40</title>
<g id="a_node40"><a xlink:href="classEntityHandle.html" target="_top" xlink:title=" ">
<polygon fill="white" stroke="black" points="1101.5,-777.5 1101.5,-796.5 1181.5,-796.5 1181.5,-777.5 1101.5,-777.5"/>
<text text-anchor="middle" x="1141.5" y="-784.5" font-family="Helvetica,sans-Serif" font-size="10.00">EntityHandle</text>
</a>
</g>
</g>
<!-- Node40&#45;&gt;Node1 -->
<g id="edge87" class="edge">
<title>Node40&#45;&gt;Node1</title>
<path fill="none" stroke="#9a32cd" stroke-dasharray="5,2" d="M1173.96,-773.13C1194.86,-763.01 1222.18,-747.94 1243,-730 1252.83,-721.53 1250.85,-715.09 1261,-707 1313.22,-665.34 1354.41,-694.47 1397,-643 1417.48,-618.25 1391.61,-595.02 1415,-573 1585.4,-412.57 2222.96,-420 2457,-420 2457,-420 2457,-420 2923,-420 2979.16,-420 3041.77,-417.19 3092.7,-414.18"/>
<polygon fill="#9a32cd" stroke="#9a32cd" points="1172.4,-770 1164.85,-777.43 1175.39,-776.33 1172.4,-770"/>
<text text-anchor="middle" x="2256" y="-425" font-family="Helvetica,sans-Serif" font-size="10.00"> zeroType</text>
</g>
<!-- Node40&#45;&gt;Node37 -->
<g id="edge48" class="edge">
<title>Node40&#45;&gt;Node37</title>
<path fill="none" stroke="#9a32cd" stroke-dasharray="5,2" d="M1191.67,-776.51C1246.07,-767.68 1334.33,-761.87 1397,-800 1459.94,-838.29 1487.72,-931.93 1495.27,-962.31"/>
<polygon fill="#9a32cd" stroke="#9a32cd" points="1190.85,-773.1 1181.59,-778.24 1192.03,-780 1190.85,-773.1"/>
<text text-anchor="middle" x="1329" y="-803" font-family="Helvetica,sans-Serif" font-size="10.00"> meshset</text>
</g>
<!-- Node41 -->
<g id="node41" class="node">
<title>Node41</title>
<g id="a_node41"><a xlink:title=" ">
<polygon fill="white" stroke="#bfbfbf" points="1067,-1068 1067,-1098 1216,-1098 1216,-1068 1067,-1068"/>
<text text-anchor="start" x="1075" y="-1086" font-family="Helvetica,sans-Serif" font-size="10.00">shared_ptr&lt; MoFEM::</text>
<text text-anchor="middle" x="1141.5" y="-1075" font-family="Helvetica,sans-Serif" font-size="10.00">ComposedProblemsData &gt;</text>
</a>
</g>
</g>
<!-- Node41&#45;&gt;Node37 -->
<g id="edge49" class="edge">
<title>Node41&#45;&gt;Node37</title>
<path fill="none" stroke="#9a32cd" stroke-dasharray="5,2" d="M1226.04,-1080.18C1295.15,-1077.08 1384.01,-1071 1397,-1060 1421.18,-1039.51 1392.27,-1013.08 1415,-991 1424.07,-982.19 1436.35,-977.16 1448.67,-974.36"/>
<polygon fill="#9a32cd" stroke="#9a32cd" points="1225.84,-1076.69 1216,-1080.62 1226.14,-1083.68 1225.84,-1076.69"/>
<text text-anchor="middle" x="1329" y="-1081" font-family="Helvetica,sans-Serif" font-size="10.00"> composedProblemsData</text>
</g>
<!-- Node42 -->
<g id="node42" class="node">
<title>Node42</title>
<g id="a_node42"><a xlink:title=" ">
<polygon fill="white" stroke="#bfbfbf" points="1101,-1029.5 1101,-1048.5 1182,-1048.5 1182,-1029.5 1101,-1029.5"/>
<text text-anchor="middle" x="1141.5" y="-1036.5" font-family="Helvetica,sans-Serif" font-size="10.00">BitRefLevel *</text>
</a>
</g>
</g>
<!-- Node42&#45;&gt;Node37 -->
<g id="edge50" class="edge">
<title>Node42&#45;&gt;Node37</title>
<path fill="none" stroke="#9a32cd" stroke-dasharray="5,2" d="M1192.47,-1038.03C1256.29,-1036.06 1362.58,-1030.09 1397,-1012 1407.88,-1006.28 1404.48,-997.37 1415,-991 1425.19,-984.84 1437.18,-980.67 1448.83,-977.86"/>
<polygon fill="#9a32cd" stroke="#9a32cd" points="1192.12,-1034.54 1182.23,-1038.33 1192.32,-1041.54 1192.12,-1034.54"/>
<text text-anchor="middle" x="1329" y="-1048" font-family="Helvetica,sans-Serif" font-size="10.00"> tagBitRefLevelMask</text>
<text text-anchor="middle" x="1329" y="-1037" font-family="Helvetica,sans-Serif" font-size="10.00">tagBitRefLevel</text>
</g>
<!-- Node43 -->
<g id="node43" class="node">
<title>Node43</title>
<g id="a_node43"><a xlink:title=" ">
<polygon fill="white" stroke="#bfbfbf" points="1056.5,-980 1056.5,-1010 1226.5,-1010 1226.5,-980 1056.5,-980"/>
<text text-anchor="start" x="1064.5" y="-998" font-family="Helvetica,sans-Serif" font-size="10.00">shared_ptr&lt; NumeredDofEntity</text>
<text text-anchor="middle" x="1141.5" y="-987" font-family="Helvetica,sans-Serif" font-size="10.00">_multiIndex &gt;</text>
</a>
</g>
</g>
<!-- Node43&#45;&gt;Node37 -->
<g id="edge51" class="edge">
<title>Node43&#45;&gt;Node37</title>
<path fill="none" stroke="#9a32cd" stroke-dasharray="5,2" d="M1236.96,-988.88C1305.2,-984.46 1394.57,-978.67 1448.92,-975.15"/>
<polygon fill="#9a32cd" stroke="#9a32cd" points="1236.38,-985.41 1226.63,-989.55 1236.84,-992.4 1236.38,-985.41"/>
<text text-anchor="middle" x="1329" y="-1000" font-family="Helvetica,sans-Serif" font-size="10.00"> numeredRowDofsPtr</text>
<text text-anchor="middle" x="1329" y="-989" font-family="Helvetica,sans-Serif" font-size="10.00">numeredColDofsPtr</text>
</g>
<!-- Node44 -->
<g id="node44" class="node">
<title>Node44</title>
<g id="a_node44"><a xlink:title=" ">
<polygon fill="white" stroke="#bfbfbf" points="1072.5,-941.5 1072.5,-960.5 1210.5,-960.5 1210.5,-941.5 1072.5,-941.5"/>
<text text-anchor="middle" x="1141.5" y="-948.5" font-family="Helvetica,sans-Serif" font-size="10.00">vector&lt; BlockFieldPair &gt;</text>
</a>
</g>
</g>
<!-- Node44&#45;&gt;Node37 -->
<g id="edge53" class="edge">
<title>Node44&#45;&gt;Node37</title>
<path fill="none" stroke="#9a32cd" stroke-dasharray="5,2" d="M1220.81,-952.08C1271.19,-953.19 1338.03,-955.44 1397,-960 1413.91,-961.31 1432.35,-963.33 1448.76,-965.35"/>
<polygon fill="#9a32cd" stroke="#9a32cd" points="1220.71,-948.58 1210.64,-951.87 1220.56,-955.58 1220.71,-948.58"/>
<text text-anchor="middle" x="1329" y="-963" font-family="Helvetica,sans-Serif" font-size="10.00"> emptyFieldBlocks</text>
</g>
<!-- Node45 -->
<g id="node45" class="node">
<title>Node45</title>
<g id="a_node45"><a xlink:title=" ">
<polygon fill="white" stroke="#bfbfbf" points="1063.5,-892 1063.5,-922 1219.5,-922 1219.5,-892 1063.5,-892"/>
<text text-anchor="start" x="1071.5" y="-910" font-family="Helvetica,sans-Serif" font-size="10.00">shared_ptr&lt; MoFEM::</text>
<text text-anchor="middle" x="1141.5" y="-899" font-family="Helvetica,sans-Serif" font-size="10.00">Problem::SubProblemData &gt;</text>
</a>
</g>
</g>
<!-- Node45&#45;&gt;Node37 -->
<g id="edge54" class="edge">
<title>Node45&#45;&gt;Node37</title>
<path fill="none" stroke="#9a32cd" stroke-dasharray="5,2" d="M1229.8,-913.18C1279.28,-917.79 1342.08,-925.51 1397,-938 1423.94,-944.13 1453.81,-954.75 1473.93,-962.49"/>
<polygon fill="#9a32cd" stroke="#9a32cd" points="1230.05,-909.69 1219.77,-912.27 1229.41,-916.66 1230.05,-909.69"/>
<text text-anchor="middle" x="1329" y="-941" font-family="Helvetica,sans-Serif" font-size="10.00"> subProblemData</text>
</g>
<!-- Node46 -->
<g id="node46" class="node">
<title>Node46</title>
<g id="a_node46"><a xlink:title=" ">
<polygon fill="white" stroke="#bfbfbf" points="1040,-853.5 1040,-872.5 1243,-872.5 1243,-853.5 1040,-853.5"/>
<text text-anchor="middle" x="1141.5" y="-860.5" font-family="Helvetica,sans-Serif" font-size="10.00">shared_ptr&lt; SequenceDofContainer &gt;</text>
</a>
</g>
</g>
<!-- Node46&#45;&gt;Node37 -->
<g id="edge56" class="edge">
<title>Node46&#45;&gt;Node37</title>
<path fill="none" stroke="#9a32cd" stroke-dasharray="5,2" d="M1253.07,-861.01C1299.07,-863.63 1352.11,-871.28 1397,-890 1436.91,-906.64 1473.48,-944.44 1489.28,-962.31"/>
<polygon fill="#9a32cd" stroke="#9a32cd" points="1253.22,-857.52 1243.06,-860.52 1252.87,-864.51 1253.22,-857.52"/>
<text text-anchor="middle" x="1329" y="-904" font-family="Helvetica,sans-Serif" font-size="10.00"> sequenceRowDofContainer</text>
<text text-anchor="middle" x="1329" y="-893" font-family="Helvetica,sans-Serif" font-size="10.00">sequenceColDofContainer</text>
</g>
<!-- Node47 -->
<g id="node47" class="node">
<title>Node47</title>
<g id="a_node47"><a xlink:title=" ">
<polygon fill="white" stroke="#bfbfbf" points="1097.5,-815.5 1097.5,-834.5 1185.5,-834.5 1185.5,-815.5 1097.5,-815.5"/>
<text text-anchor="middle" x="1141.5" y="-822.5" font-family="Helvetica,sans-Serif" font-size="10.00">BitProblemId *</text>
</a>
</g>
</g>
<!-- Node47&#45;&gt;Node37 -->
<g id="edge57" class="edge">
<title>Node47&#45;&gt;Node37</title>
<path fill="none" stroke="#9a32cd" stroke-dasharray="5,2" d="M1195.97,-817.62C1249.97,-812.76 1334.16,-812.49 1397,-846 1447.61,-872.99 1481.61,-937.55 1493.15,-962.2"/>
<polygon fill="#9a32cd" stroke="#9a32cd" points="1195.53,-814.15 1185.92,-818.61 1196.21,-821.11 1195.53,-814.15"/>
<text text-anchor="middle" x="1329" y="-849" font-family="Helvetica,sans-Serif" font-size="10.00"> tagId</text>
</g>
<!-- Node48 -->
<g id="node48" class="node">
<title>Node48</title>
<g id="a_node48"><a xlink:title=" ">
<polygon fill="white" stroke="#bfbfbf" points="1805,-852 1805,-882 1967,-882 1967,-852 1805,-852"/>
<text text-anchor="start" x="1813" y="-870" font-family="Helvetica,sans-Serif" font-size="10.00">shared_ptr&lt; const MoFEM</text>
<text text-anchor="middle" x="1886" y="-859" font-family="Helvetica,sans-Serif" font-size="10.00">::NumeredEntFiniteElement &gt;</text>
</a>
</g>
</g>
<!-- Node48&#45;&gt;Node11 -->
<g id="edge58" class="edge">
<title>Node48&#45;&gt;Node11</title>
<path fill="none" stroke="#9a32cd" stroke-dasharray="5,2" d="M1977.54,-862.08C2048.18,-858.24 2143.85,-853.04 2202.4,-849.86"/>
<polygon fill="#9a32cd" stroke="#9a32cd" points="1977.1,-858.6 1967.3,-862.64 1977.48,-865.59 1977.1,-858.6"/>
<text text-anchor="middle" x="2063" y="-864" font-family="Helvetica,sans-Serif" font-size="10.00"> numeredEntFiniteElementPtr</text>
</g>
<!-- Node49 -->
<g id="node49" class="node">
<title>Node49</title>
<g id="a_node49"><a xlink:title=" ">
<polygon fill="white" stroke="#bfbfbf" points="1864,-1177.5 1864,-1196.5 1908,-1196.5 1908,-1177.5 1864,-1177.5"/>
<text text-anchor="middle" x="1886" y="-1184.5" font-family="Helvetica,sans-Serif" font-size="10.00">string</text>
</a>
</g>
</g>
<!-- Node49&#45;&gt;Node2 -->
<g id="edge81" class="edge">
<title>Node49&#45;&gt;Node2</title>
<path fill="none" stroke="#9a32cd" stroke-dasharray="5,2" d="M1918.12,-1190C1935.06,-1192.57 1955.97,-1197.31 1973,-1206 1982.53,-1210.87 1981,-1218.2 1991,-1222 2031.08,-1237.24 2431.43,-1250.79 2539,-1214 2707.11,-1156.5 2862.29,-995.27 2907.68,-945.1"/>
<polygon fill="#9a32cd" stroke="#9a32cd" points="1918.53,-1186.53 1908.16,-1188.67 1917.6,-1193.47 1918.53,-1186.53"/>
<text text-anchor="middle" x="2458" y="-1248" font-family="Helvetica,sans-Serif" font-size="10.00"> colFieldName</text>
<text text-anchor="middle" x="2458" y="-1237" font-family="Helvetica,sans-Serif" font-size="10.00">rowFieldName</text>
</g>
<!-- Node49&#45;&gt;Node11 -->
<g id="edge59" class="edge">
<title>Node49&#45;&gt;Node11</title>
<path fill="none" stroke="#9a32cd" stroke-dasharray="5,2" d="M1918.32,-1188.63C1937,-1187.79 1959.61,-1183.25 1973,-1168 2003.17,-1133.63 1966.73,-1001.76 1991,-963 1993.78,-958.55 2148.09,-867.86 2153,-866 2168.58,-860.1 2186.22,-855.99 2202.4,-853.13"/>
<polygon fill="#9a32cd" stroke="#9a32cd" points="1918.11,-1185.14 1908.15,-1188.76 1918.19,-1192.14 1918.11,-1185.14"/>
<text text-anchor="middle" x="2063" y="-966" font-family="Helvetica,sans-Serif" font-size="10.00"> feName</text>
</g>
<!-- Node50 -->
<g id="node50" class="node">
<title>Node50</title>
<g id="a_node50"><a xlink:title=" ">
<polygon fill="white" stroke="#bfbfbf" points="1804.5,-803 1804.5,-833 1967.5,-833 1967.5,-803 1804.5,-803"/>
<text text-anchor="start" x="1812.5" y="-821" font-family="Helvetica,sans-Serif" font-size="10.00">function&lt; bool(MoFEM</text>
<text text-anchor="middle" x="1886" y="-810" font-family="Helvetica,sans-Serif" font-size="10.00">::FEMethod *fe_method_ptr)&gt;</text>
</a>
</g>
</g>
<!-- Node50&#45;&gt;Node11 -->
<g id="edge60" class="edge">
<title>Node50&#45;&gt;Node11</title>
<path fill="none" stroke="#9a32cd" stroke-dasharray="5,2" d="M1977.98,-825.17C2048.52,-830.73 2143.82,-838.24 2202.26,-842.84"/>
<polygon fill="#9a32cd" stroke="#9a32cd" points="1978,-821.66 1967.76,-824.36 1977.45,-828.64 1978,-821.66"/>
<text text-anchor="middle" x="2063" y="-839" font-family="Helvetica,sans-Serif" font-size="10.00"> exeTestHook</text>
</g>
<!-- Node51 -->
<g id="node51" class="node">
<title>Node51</title>
<g id="a_node51"><a xlink:href="classdouble.html" target="_top" xlink:title=" ">
<polygon fill="white" stroke="black" points="2231,-799.5 2231,-818.5 2281,-818.5 2281,-799.5 2231,-799.5"/>
<text text-anchor="middle" x="2256" y="-806.5" font-family="Helvetica,sans-Serif" font-size="10.00">double</text>
</a>
</g>
</g>
<!-- Node51&#45;&gt;Node10 -->
<g id="edge61" class="edge">
<title>Node51&#45;&gt;Node10</title>
<path fill="none" stroke="#9a32cd" stroke-dasharray="5,2" d="M2291.16,-805.57C2357.99,-799.64 2502.71,-790.89 2539,-822 2569.64,-848.26 2528.79,-882.14 2557,-911 2560.66,-914.74 2564.89,-917.82 2569.46,-920.34"/>
<polygon fill="#9a32cd" stroke="#9a32cd" points="2290.77,-802.09 2281.13,-806.49 2291.41,-809.06 2290.77,-802.09"/>
<text text-anchor="middle" x="2458" y="-825" font-family="Helvetica,sans-Serif" font-size="10.00"> elementMeasure</text>
</g>
<!-- Node52 -->
<g id="node52" class="node">
<title>Node52</title>
<g id="a_node52"><a xlink:title=" ">
<polygon fill="white" stroke="#bfbfbf" points="2170,-739.5 2170,-780.5 2342,-780.5 2342,-739.5 2170,-739.5"/>
<text text-anchor="start" x="2178" y="-768.5" font-family="Helvetica,sans-Serif" font-size="10.00">array&lt; boost::shared</text>
<text text-anchor="start" x="2178" y="-757.5" font-family="Helvetica,sans-Serif" font-size="10.00">_ptr&lt; MoFEM::EntitiesFieldData</text>
<text text-anchor="middle" x="2256" y="-746.5" font-family="Helvetica,sans-Serif" font-size="10.00"> &gt;, LASTSPACE &gt;</text>
</a>
</g>
</g>
<!-- Node52&#45;&gt;Node10 -->
<g id="edge62" class="edge">
<title>Node52&#45;&gt;Node10</title>
<path fill="none" stroke="#9a32cd" stroke-dasharray="5,2" d="M2352.39,-751.8C2423.41,-747.95 2512.48,-748.61 2539,-773 2584.53,-814.87 2515.34,-865.28 2557,-911 2560.42,-914.76 2564.42,-917.85 2568.78,-920.39"/>
<polygon fill="#9a32cd" stroke="#9a32cd" points="2351.83,-748.33 2342.05,-752.4 2352.23,-755.32 2351.83,-748.33"/>
<text text-anchor="middle" x="2458" y="-787" font-family="Helvetica,sans-Serif" font-size="10.00"> derivedDataOnElement</text>
<text text-anchor="middle" x="2458" y="-776" font-family="Helvetica,sans-Serif" font-size="10.00">dataOnElement</text>
</g>
<!-- Node53 -->
<g id="node53" class="node">
<title>Node53</title>
<g id="a_node53"><a xlink:title=" ">
<polygon fill="white" stroke="#bfbfbf" points="2222,-1144.5 2222,-1163.5 2290,-1163.5 2290,-1144.5 2222,-1144.5"/>
<text text-anchor="middle" x="2256" y="-1151.5" font-family="Helvetica,sans-Serif" font-size="10.00">EntityType</text>
</a>
</g>
</g>
<!-- Node53&#45;&gt;Node10 -->
<g id="edge63" class="edge">
<title>Node53&#45;&gt;Node10</title>
<path fill="none" stroke="#9a32cd" stroke-dasharray="5,2" d="M2300.23,-1149.1C2318.7,-1146.21 2340.27,-1141.75 2359,-1135 2367.61,-1131.9 2368.33,-1127.94 2377,-1125 2445.93,-1101.61 2487.22,-1152.15 2539,-1101 2574.87,-1065.57 2530.27,-1031.74 2557,-989 2571.55,-965.73 2598.99,-949.11 2618.55,-939.55"/>
<polygon fill="#9a32cd" stroke="#9a32cd" points="2299.71,-1145.64 2290.33,-1150.55 2300.73,-1152.57 2299.71,-1145.64"/>
<text text-anchor="middle" x="2458" y="-1128" font-family="Helvetica,sans-Serif" font-size="10.00"> lastEvaluatedElementEntityType</text>
</g>
<!-- Node54 -->
<g id="node54" class="node">
<title>Node54</title>
<g id="a_node54"><a xlink:href="structMoFEM_1_1DeprecatedCoreInterface.html" target="_top" xlink:title="Deprecated interface functions.">
<polygon fill="white" stroke="black" points="1600,-218.5 1600,-237.5 1781,-237.5 1781,-218.5 1600,-218.5"/>
<text text-anchor="middle" x="1690.5" y="-225.5" font-family="Helvetica,sans-Serif" font-size="10.00">MoFEM::DeprecatedCoreInterface</text>
</a>
</g>
</g>
<!-- Node54&#45;&gt;Node10 -->
<g id="edge64" class="edge">
<title>Node54&#45;&gt;Node10</title>
<path fill="none" stroke="#9a32cd" stroke-dasharray="5,2" d="M1743.47,-240.84C1756.38,-245.39 1769.73,-251.34 1781,-259 1990.79,-401.68 1930.35,-570.36 2153,-692 2229.01,-733.53 2478.69,-683.83 2539,-746 2590.37,-798.95 2507.89,-855.96 2557,-911 2560.38,-914.79 2564.35,-917.91 2568.69,-920.47"/>
<polygon fill="#9a32cd" stroke="#9a32cd" points="1744.33,-237.44 1733.73,-237.64 1742.14,-244.09 1744.33,-237.44"/>
<text text-anchor="middle" x="2063" y="-681" font-family="Helvetica,sans-Serif" font-size="10.00"> mField</text>
</g>
<!-- Node55&#45;&gt;Node54 -->
<g id="edge65" class="edge">
<title>Node55&#45;&gt;Node54</title>
<path fill="none" stroke="midnightblue" d="M1214.3,-10.67C1266.39,-13.14 1337.79,-20.67 1397,-42 1518.45,-85.75 1641.73,-186.77 1678.51,-218.37"/>
<polygon fill="midnightblue" stroke="midnightblue" points="1214.29,-7.17 1204.15,-10.24 1214,-14.16 1214.29,-7.17"/>
</g>
<!-- Node56 -->
<g id="node56" class="node">
<title>Node56</title>
<g id="a_node56"><a xlink:title=" ">
<polygon fill="white" stroke="#bfbfbf" points="2172.5,-1073 2172.5,-1125 2339.5,-1125 2339.5,-1073 2172.5,-1073"/>
<text text-anchor="start" x="2180.5" y="-1113" font-family="Helvetica,sans-Serif" font-size="10.00">function&lt; MoFEMErrorCode</text>
<text text-anchor="start" x="2180.5" y="-1102" font-family="Helvetica,sans-Serif" font-size="10.00">(ForcesAndSourcesCore *fe</text>
<text text-anchor="start" x="2180.5" y="-1091" font-family="Helvetica,sans-Serif" font-size="10.00">_raw_ptr, int order_row,</text>
<text text-anchor="middle" x="2256" y="-1080" font-family="Helvetica,sans-Serif" font-size="10.00"> int order_col, int order_data)&gt;</text>
</a>
</g>
</g>
<!-- Node56&#45;&gt;Node10 -->
<g id="edge68" class="edge">
<title>Node56&#45;&gt;Node10</title>
<path fill="none" stroke="#9a32cd" stroke-dasharray="5,2" d="M2350.1,-1090.2C2421.07,-1081.69 2511.21,-1066.45 2539,-1042 2557.68,-1025.57 2542.09,-1008.91 2557,-989 2573.77,-966.61 2601.57,-949.49 2620.56,-939.6"/>
<polygon fill="#9a32cd" stroke="#9a32cd" points="2349.3,-1086.76 2339.78,-1091.4 2350.12,-1093.72 2349.3,-1086.76"/>
<text text-anchor="middle" x="2458" y="-1089" font-family="Helvetica,sans-Serif" font-size="10.00"> setRuleHook</text>
</g>
<!-- Node57 -->
<g id="node57" class="node">
<title>Node57</title>
<g id="a_node57"><a xlink:title=" ">
<polygon fill="white" stroke="#bfbfbf" points="2155,-1024 2155,-1054 2357,-1054 2357,-1024 2155,-1024"/>
<text text-anchor="start" x="2163" y="-1042" font-family="Helvetica,sans-Serif" font-size="10.00">ptr_deque&lt; MoFEM::Forces</text>
<text text-anchor="middle" x="2256" y="-1031" font-family="Helvetica,sans-Serif" font-size="10.00">AndSourcesCore::UserDataOperator &gt;</text>
</a>
</g>
</g>
<!-- Node57&#45;&gt;Node10 -->
<g id="edge69" class="edge">
<title>Node57&#45;&gt;Node10</title>
<path fill="none" stroke="#9a32cd" stroke-dasharray="5,2" d="M2367.27,-1029.15C2420.36,-1022.08 2484.22,-1010.11 2539,-990 2573.52,-977.32 2609.64,-953.04 2628.24,-939.58"/>
<polygon fill="#9a32cd" stroke="#9a32cd" points="2366.62,-1025.71 2357.15,-1030.46 2367.52,-1032.65 2366.62,-1025.71"/>
<text text-anchor="middle" x="2458" y="-1030" font-family="Helvetica,sans-Serif" font-size="10.00"> opPtrVector</text>
</g>
<!-- Node58 -->
<g id="node58" class="node">
<title>Node58</title>
<g id="a_node58"><a xlink:href="structMoFEM_1_1EntitiesFieldData.html" target="_top" xlink:title="data structure for finite element entity">
<polygon fill="white" stroke="black" points="2185,-1182.5 2185,-1201.5 2327,-1201.5 2327,-1182.5 2185,-1182.5"/>
<text text-anchor="middle" x="2256" y="-1189.5" font-family="Helvetica,sans-Serif" font-size="10.00">MoFEM::EntitiesFieldData</text>
</a>
</g>
</g>
<!-- Node58&#45;&gt;Node10 -->
<g id="edge70" class="edge">
<title>Node58&#45;&gt;Node10</title>
<path fill="none" stroke="#9a32cd" stroke-dasharray="5,2" d="M2336.91,-1180.95C2344.53,-1178.77 2352.01,-1176.14 2359,-1173 2368.24,-1168.84 2367.67,-1162.96 2377,-1159 2443.95,-1130.61 2488.07,-1187.91 2539,-1136 2585.09,-1089.01 2523.15,-1045.45 2557,-989 2571.02,-965.62 2598.29,-949.11 2617.96,-939.61"/>
<polygon fill="#9a32cd" stroke="#9a32cd" points="2336,-1177.58 2327.21,-1183.5 2337.77,-1184.35 2336,-1177.58"/>
<text text-anchor="middle" x="2458" y="-1206" font-family="Helvetica,sans-Serif" font-size="10.00"> dataNoField</text>
<text text-anchor="middle" x="2458" y="-1195" font-family="Helvetica,sans-Serif" font-size="10.00">dataL2</text>
<text text-anchor="middle" x="2458" y="-1184" font-family="Helvetica,sans-Serif" font-size="10.00">dataH1</text>
<text text-anchor="middle" x="2458" y="-1173" font-family="Helvetica,sans-Serif" font-size="10.00">dataHcurl</text>
<text text-anchor="middle" x="2458" y="-1162" font-family="Helvetica,sans-Serif" font-size="10.00">dataHdiv</text>
</g>
<!-- Node59 -->
<g id="node59" class="node">
<title>Node59</title>
<g id="a_node59"><a xlink:title=" ">
<polygon fill="white" stroke="#bfbfbf" points="1805,-1090 1805,-1120 1967,-1120 1967,-1090 1805,-1090"/>
<text text-anchor="start" x="1813" y="-1108" font-family="Helvetica,sans-Serif" font-size="10.00">array&lt; std::bitset</text>
<text text-anchor="middle" x="1886" y="-1097" font-family="Helvetica,sans-Serif" font-size="10.00">&lt; LASTBASE &gt;, LASTSPACE &gt;</text>
</a>
</g>
</g>
<!-- Node59&#45;&gt;Node58 -->
<g id="edge71" class="edge">
<title>Node59&#45;&gt;Node58</title>
<path fill="none" stroke="#9a32cd" stroke-dasharray="5,2" d="M1977.58,-1095.66C2028.25,-1095.08 2090.07,-1102.62 2135,-1135 2150.16,-1145.93 2138.19,-1161.6 2153,-1173 2162.28,-1180.14 2173.42,-1184.89 2184.88,-1187.98"/>
<polygon fill="#9a32cd" stroke="#9a32cd" points="1977.19,-1092.16 1967.27,-1095.88 1977.35,-1099.16 1977.19,-1092.16"/>
<text text-anchor="middle" x="2063" y="-1149" font-family="Helvetica,sans-Serif" font-size="10.00"> brokenBasesOnSpaces</text>
<text text-anchor="middle" x="2063" y="-1138" font-family="Helvetica,sans-Serif" font-size="10.00">basesOnSpaces</text>
</g>
<!-- Node60 -->
<g id="node60" class="node">
<title>Node60</title>
<g id="a_node60"><a xlink:title=" ">
<polygon fill="white" stroke="#bfbfbf" points="1809.5,-1029.5 1809.5,-1070.5 1962.5,-1070.5 1962.5,-1029.5 1809.5,-1029.5"/>
<text text-anchor="start" x="1817.5" y="-1058.5" font-family="Helvetica,sans-Serif" font-size="10.00">array&lt; boost::ptr_vector</text>
<text text-anchor="start" x="1817.5" y="-1047.5" font-family="Helvetica,sans-Serif" font-size="10.00">&lt; MoFEM::EntitiesFieldData</text>
<text text-anchor="middle" x="1886" y="-1036.5" font-family="Helvetica,sans-Serif" font-size="10.00">::EntData &gt;, MBMAXTYPE &gt;</text>
</a>
</g>
</g>
<!-- Node60&#45;&gt;Node58 -->
<g id="edge72" class="edge">
<title>Node60&#45;&gt;Node58</title>
<path fill="none" stroke="#9a32cd" stroke-dasharray="5,2" d="M1972.91,-1036.98C2026.19,-1033.99 2092.37,-1040.29 2135,-1080 2165.8,-1108.7 2123.13,-1143.34 2153,-1173 2161.69,-1181.63 2172.96,-1187.02 2184.83,-1190.27"/>
<polygon fill="#9a32cd" stroke="#9a32cd" points="1972.52,-1033.5 1962.78,-1037.67 1972.99,-1040.48 1972.52,-1033.5"/>
<text text-anchor="middle" x="2063" y="-1083" font-family="Helvetica,sans-Serif" font-size="10.00"> dataOnEntities</text>
</g>
<!-- Node61 -->
<g id="node61" class="node">
<title>Node61</title>
<g id="a_node61"><a xlink:title=" ">
<polygon fill="white" stroke="#bfbfbf" points="1799,-980 1799,-1010 1973,-1010 1973,-980 1799,-980"/>
<text text-anchor="start" x="1807" y="-998" font-family="Helvetica,sans-Serif" font-size="10.00">array&lt; std::bitset</text>
<text text-anchor="middle" x="1886" y="-987" font-family="Helvetica,sans-Serif" font-size="10.00">&lt; LASTSPACE &gt;, MBMAXTYPE &gt;</text>
</a>
</g>
</g>
<!-- Node61&#45;&gt;Node58 -->
<g id="edge73" class="edge">
<title>Node61&#45;&gt;Node58</title>
<path fill="none" stroke="#9a32cd" stroke-dasharray="5,2" d="M1976.85,-979.12C2029.89,-975.23 2094.4,-980.94 2135,-1021 2183.42,-1068.78 2106.52,-1123.33 2153,-1173 2161.49,-1182.08 2172.82,-1187.64 2184.83,-1190.92"/>
<polygon fill="#9a32cd" stroke="#9a32cd" points="1976.41,-975.64 1966.75,-979.99 1977.01,-982.62 1976.41,-975.64"/>
<text text-anchor="middle" x="2063" y="-1024" font-family="Helvetica,sans-Serif" font-size="10.00"> spacesOnEntities</text>
</g>
<!-- Node62 -->
<g id="node62" class="node">
<title>Node62</title>
<g id="a_node62"><a xlink:title=" ">
<polygon fill="white" stroke="#bfbfbf" points="1801.5,-1254 1801.5,-1284 1970.5,-1284 1970.5,-1254 1801.5,-1254"/>
<text text-anchor="start" x="1809.5" y="-1272" font-family="Helvetica,sans-Serif" font-size="10.00">array&lt; std::bitset</text>
<text text-anchor="middle" x="1886" y="-1261" font-family="Helvetica,sans-Serif" font-size="10.00">&lt; LASTBASE &gt;, MBMAXTYPE &gt;</text>
</a>
</g>
</g>
<!-- Node62&#45;&gt;Node58 -->
<g id="edge74" class="edge">
<title>Node62&#45;&gt;Node58</title>
<path fill="none" stroke="#9a32cd" stroke-dasharray="5,2" d="M1980.84,-1264.51C2027.7,-1260.74 2084.94,-1253.79 2135,-1241 2172.07,-1231.53 2212.82,-1213.03 2236.02,-1201.67"/>
<polygon fill="#9a32cd" stroke="#9a32cd" points="1980.4,-1261.04 1970.7,-1265.29 1980.94,-1268.01 1980.4,-1261.04"/>
<text text-anchor="middle" x="2063" y="-1266" font-family="Helvetica,sans-Serif" font-size="10.00"> basesOnEntities</text>
</g>
<!-- Node63 -->
<g id="node63" class="node">
<title>Node63</title>
<g id="a_node63"><a xlink:title=" ">
<polygon fill="white" stroke="#bfbfbf" points="1830,-1215.5 1830,-1234.5 1942,-1234.5 1942,-1215.5 1830,-1215.5"/>
<text text-anchor="middle" x="1886" y="-1222.5" font-family="Helvetica,sans-Serif" font-size="10.00">UBlasMatrix&lt; int &gt;</text>
</a>
</g>
</g>
<!-- Node63&#45;&gt;Node58 -->
<g id="edge75" class="edge">
<title>Node63&#45;&gt;Node58</title>
<path fill="none" stroke="#9a32cd" stroke-dasharray="5,2" d="M1952.26,-1219.15C2017.56,-1213.29 2117.69,-1204.31 2184.71,-1198.3"/>
<polygon fill="#9a32cd" stroke="#9a32cd" points="1951.74,-1215.68 1942.09,-1220.06 1952.37,-1222.65 1951.74,-1215.68"/>
<text text-anchor="middle" x="2063" y="-1229" font-family="Helvetica,sans-Serif" font-size="10.00"> facesNodesOrder</text>
<text text-anchor="middle" x="2063" y="-1218" font-family="Helvetica,sans-Serif" font-size="10.00">facesNodes</text>
</g>
<!-- Node64 -->
<g id="node64" class="node">
<title>Node64</title>
<g id="a_node64"><a xlink:title=" ">
<polygon fill="white" stroke="#bfbfbf" points="1827.5,-1139.5 1827.5,-1158.5 1944.5,-1158.5 1944.5,-1139.5 1827.5,-1139.5"/>
<text text-anchor="middle" x="1886" y="-1146.5" font-family="Helvetica,sans-Serif" font-size="10.00">bitset&lt; LASTBASE &gt;</text>
</a>
</g>
</g>
<!-- Node64&#45;&gt;Node58 -->
<g id="edge76" class="edge">
<title>Node64&#45;&gt;Node58</title>
<path fill="none" stroke="#9a32cd" stroke-dasharray="5,2" d="M1955.11,-1156.96C2020.49,-1164.6 2118.8,-1176.09 2184.86,-1183.8"/>
<polygon fill="#9a32cd" stroke="#9a32cd" points="1955.24,-1153.45 1944.9,-1155.77 1954.43,-1160.4 1955.24,-1153.45"/>
<text text-anchor="middle" x="2063" y="-1179" font-family="Helvetica,sans-Serif" font-size="10.00"> bAse</text>
</g>
<!-- Node65 -->
<g id="node65" class="node">
<title>Node65</title>
<g id="a_node65"><a xlink:title=" ">
<polygon fill="white" stroke="#bfbfbf" points="2193.5,-963.5 2193.5,-1004.5 2318.5,-1004.5 2318.5,-963.5 2193.5,-963.5"/>
<text text-anchor="start" x="2201.5" y="-992.5" font-family="Helvetica,sans-Serif" font-size="10.00">function&lt; int(int order</text>
<text text-anchor="start" x="2201.5" y="-981.5" font-family="Helvetica,sans-Serif" font-size="10.00">_row, int order_col, int</text>
<text text-anchor="middle" x="2256" y="-970.5" font-family="Helvetica,sans-Serif" font-size="10.00"> order_data)&gt;</text>
</a>
</g>
</g>
<!-- Node65&#45;&gt;Node10 -->
<g id="edge77" class="edge">
<title>Node65&#45;&gt;Node10</title>
<path fill="none" stroke="#9a32cd" stroke-dasharray="5,2" d="M2328.7,-979.37C2385.92,-975.01 2467.98,-967.3 2539,-955 2562,-951.02 2587.5,-944.77 2607.25,-939.51"/>
<polygon fill="#9a32cd" stroke="#9a32cd" points="2328.38,-975.88 2318.67,-980.12 2328.9,-982.86 2328.38,-975.88"/>
<text text-anchor="middle" x="2458" y="-978" font-family="Helvetica,sans-Serif" font-size="10.00"> getRuleHook</text>
</g>
<!-- Node66 -->
<g id="node66" class="node">
<title>Node66</title>
<g id="a_node66"><a xlink:title=" ">
<polygon fill="white" stroke="#bfbfbf" points="2195,-914 2195,-944 2317,-944 2317,-914 2195,-914"/>
<text text-anchor="start" x="2203" y="-932" font-family="Helvetica,sans-Serif" font-size="10.00">shared_ptr&lt; MoFEM::</text>
<text text-anchor="middle" x="2256" y="-921" font-family="Helvetica,sans-Serif" font-size="10.00">BaseFunction &gt;</text>
</a>
</g>
</g>
<!-- Node66&#45;&gt;Node10 -->
<g id="edge78" class="edge">
<title>Node66&#45;&gt;Node10</title>
<path fill="none" stroke="#9a32cd" stroke-dasharray="5,2" d="M2327.52,-929.18C2392.17,-929.35 2488.01,-929.6 2556.68,-929.78"/>
<polygon fill="#9a32cd" stroke="#9a32cd" points="2327.43,-925.68 2317.42,-929.16 2327.41,-932.68 2327.43,-925.68"/>
<text text-anchor="middle" x="2458" y="-943" font-family="Helvetica,sans-Serif" font-size="10.00"> userPolynomialBasePtr</text>
<text text-anchor="middle" x="2458" y="-932" font-family="Helvetica,sans-Serif" font-size="10.00">elementPolynomialBasePtr</text>
</g>
<!-- Node67 -->
<g id="node67" class="node">
<title>Node67</title>
<g id="a_node67"><a xlink:href="classUBlasMatrix_3_01double_01_4.html" target="_top" xlink:title=" ">
<polygon fill="white" stroke="black" points="2190,-875.5 2190,-894.5 2322,-894.5 2322,-875.5 2190,-875.5"/>
<text text-anchor="middle" x="2256" y="-882.5" font-family="Helvetica,sans-Serif" font-size="10.00">UBlasMatrix&lt; double &gt;</text>
</a>
</g>
</g>
<!-- Node67&#45;&gt;Node10 -->
<g id="edge79" class="edge">
<title>Node67&#45;&gt;Node10</title>
<path fill="none" stroke="#9a32cd" stroke-dasharray="5,2" d="M2332.19,-882.64C2389.64,-882.55 2470.35,-886.13 2539,-903 2547.5,-905.09 2548.69,-908.24 2557,-911 2567.93,-914.63 2579.88,-917.79 2591.25,-920.44"/>
<polygon fill="#9a32cd" stroke="#9a32cd" points="2332.08,-879.14 2322.1,-882.69 2332.12,-886.14 2332.08,-879.14"/>
<text text-anchor="middle" x="2458" y="-917" font-family="Helvetica,sans-Serif" font-size="10.00"> coordsAtGaussPts</text>
<text text-anchor="middle" x="2458" y="-906" font-family="Helvetica,sans-Serif" font-size="10.00">gaussPts</text>
</g>
<!-- Node68 -->
<g id="node68" class="node">
<title>Node68</title>
<g id="a_node68"><a xlink:title=" ">
<polygon fill="white" stroke="#bfbfbf" points="2576.5,-998.5 2576.5,-1017.5 2707.5,-1017.5 2707.5,-998.5 2576.5,-998.5"/>
<text text-anchor="middle" x="2642" y="-1005.5" font-family="Helvetica,sans-Serif" font-size="10.00">static const char *const</text>
</a>
</g>
</g>
<!-- Node68&#45;&gt;Node2 -->
<g id="edge80" class="edge">
<title>Node68&#45;&gt;Node2</title>
<path fill="none" stroke="#9a32cd" stroke-dasharray="5,2" d="M2698.01,-996.16C2707.7,-993.9 2717.67,-991.47 2727,-989 2778.05,-975.48 2835.88,-957.55 2875.02,-945.02"/>
<polygon fill="#9a32cd" stroke="#9a32cd" points="2697.01,-992.8 2688.05,-998.44 2698.58,-999.62 2697.01,-992.8"/>
<text text-anchor="middle" x="2782" y="-986" font-family="Helvetica,sans-Serif" font-size="10.00"> OpTypeNames</text>
</g>
<!-- Node69 -->
<g id="node69" class="node">
<title>Node69</title>
<g id="a_node69"><a xlink:href="structMoFEM_1_1SmartPetscObj.html" target="_top" xlink:title=" ">
<polygon fill="white" stroke="black" points="2856.5,-361 2856.5,-391 2987.5,-391 2987.5,-361 2856.5,-361"/>
<text text-anchor="start" x="2864.5" y="-379" font-family="Helvetica,sans-Serif" font-size="10.00">MoFEM::SmartPetscObj</text>
<text text-anchor="middle" x="2922" y="-368" font-family="Helvetica,sans-Serif" font-size="10.00">&lt; Vec &gt;</text>
</a>
</g>
</g>
<!-- Node69&#45;&gt;Node1 -->
<g id="edge82" class="edge">
<title>Node69&#45;&gt;Node1</title>
<path fill="none" stroke="#9a32cd" stroke-dasharray="5,2" d="M2997.86,-384.55C3027.22,-387.9 3061.38,-391.8 3092.91,-395.4"/>
<polygon fill="#9a32cd" stroke="#9a32cd" points="2998.02,-381.04 2987.69,-383.39 2997.22,-388 2998.02,-381.04"/>
<text text-anchor="middle" x="3050" y="-395" font-family="Helvetica,sans-Serif" font-size="10.00"> dataVec</text>
</g>
<!-- Node70 -->
<g id="node70" class="node">
<title>Node70</title>
<g id="a_node70"><a xlink:title=" ">
<polygon fill="white" stroke="#bfbfbf" points="2579,-350.5 2579,-391.5 2705,-391.5 2705,-350.5 2579,-350.5"/>
<text text-anchor="start" x="2587" y="-379.5" font-family="Helvetica,sans-Serif" font-size="10.00">boost::intrusive_ptr</text>
<text text-anchor="start" x="2587" y="-368.5" font-family="Helvetica,sans-Serif" font-size="10.00">&lt; std::remove_pointer</text>
<text text-anchor="middle" x="2642" y="-357.5" font-family="Helvetica,sans-Serif" font-size="10.00">&lt; Vec &gt;::type &gt;</text>
</a>
</g>
</g>
<!-- Node70&#45;&gt;Node69 -->
<g id="edge83" class="edge">
<title>Node70&#45;&gt;Node69</title>
<path fill="none" stroke="midnightblue" d="M2715.3,-372.3C2758.93,-373.09 2814.05,-374.08 2856.25,-374.84"/>
<polygon fill="midnightblue" stroke="midnightblue" points="2715.1,-368.8 2705.04,-372.12 2714.98,-375.8 2715.1,-368.8"/>
</g>
<!-- Node71 -->
<g id="node71" class="node">
<title>Node71</title>
<g id="a_node71"><a xlink:href="structMoFEM_1_1SmartPetscObj.html" target="_top" xlink:title="intrusive_ptr for managing petsc objects">
<polygon fill="white" stroke="black" points="2576.5,-301 2576.5,-331 2707.5,-331 2707.5,-301 2576.5,-301"/>
<text text-anchor="start" x="2584.5" y="-319" font-family="Helvetica,sans-Serif" font-size="10.00">MoFEM::SmartPetscObj</text>
<text text-anchor="middle" x="2642" y="-308" font-family="Helvetica,sans-Serif" font-size="10.00">&lt; OBJ &gt;</text>
</a>
</g>
</g>
<!-- Node71&#45;&gt;Node69 -->
<g id="edge84" class="edge">
<title>Node71&#45;&gt;Node69</title>
<path fill="none" stroke="orange" stroke-dasharray="5,2" d="M2717.71,-332.13C2760.89,-341.44 2814.67,-353.05 2856.07,-361.99"/>
<polygon fill="orange" stroke="orange" points="2718.34,-328.68 2707.83,-329.99 2716.86,-335.52 2718.34,-328.68"/>
<text text-anchor="middle" x="2782" y="-356" font-family="Helvetica,sans-Serif" font-size="10.00"> &lt; Vec &gt;</text>
</g>
<!-- Node72 -->
<g id="node72" class="node">
<title>Node72</title>
<g id="a_node72"><a xlink:title=" ">
<polygon fill="white" stroke="#bfbfbf" points="2193,-295.5 2193,-336.5 2319,-336.5 2319,-295.5 2193,-295.5"/>
<text text-anchor="start" x="2201" y="-324.5" font-family="Helvetica,sans-Serif" font-size="10.00">boost::intrusive_ptr</text>
<text text-anchor="start" x="2201" y="-313.5" font-family="Helvetica,sans-Serif" font-size="10.00">&lt; std::remove_pointer</text>
<text text-anchor="middle" x="2256" y="-302.5" font-family="Helvetica,sans-Serif" font-size="10.00">&lt; OBJ &gt;::type &gt;</text>
</a>
</g>
</g>
<!-- Node72&#45;&gt;Node71 -->
<g id="edge85" class="edge">
<title>Node72&#45;&gt;Node71</title>
<path fill="none" stroke="midnightblue" d="M2329.35,-316C2400.48,-316 2508.06,-316 2576.4,-316"/>
<polygon fill="midnightblue" stroke="midnightblue" points="2329.12,-312.5 2319.12,-316 2329.12,-319.5 2329.12,-312.5"/>
</g>
<!-- Node73 -->
<g id="node73" class="node">
<title>Node73</title>
<g id="a_node73"><a xlink:href="classUBlasVector_3_01double_01_4.html" target="_top" xlink:title=" ">
<polygon fill="white" stroke="black" points="2856.5,-322.5 2856.5,-341.5 2987.5,-341.5 2987.5,-322.5 2856.5,-322.5"/>
<text text-anchor="middle" x="2922" y="-329.5" font-family="Helvetica,sans-Serif" font-size="10.00">UBlasVector&lt; double &gt;</text>
</a>
</g>
</g>
<!-- Node73&#45;&gt;Node1 -->
<g id="edge86" class="edge">
<title>Node73&#45;&gt;Node1</title>
<path fill="none" stroke="#9a32cd" stroke-dasharray="5,2" d="M2974.98,-343.93C2985.6,-346.5 2996.68,-349.26 3007,-352 3054.38,-364.58 3108.01,-380.48 3145.74,-391.95"/>
<polygon fill="#9a32cd" stroke="#9a32cd" points="2975.52,-340.46 2964.98,-341.55 2973.89,-347.27 2975.52,-340.46"/>
<text text-anchor="middle" x="3050" y="-373" font-family="Helvetica,sans-Serif" font-size="10.00"> dotVector</text>
</g>
<!-- Node74 -->
<g id="node74" class="node">
<title>Node74</title>
<g id="a_node74"><a xlink:title=" ">
<polygon fill="white" stroke="#bfbfbf" points="2852,-273 2852,-303 2992,-303 2992,-273 2852,-273"/>
<text text-anchor="start" x="2860" y="-291" font-family="Helvetica,sans-Serif" font-size="10.00">shared_ptr&lt; UBlasMatrix</text>
<text text-anchor="middle" x="2922" y="-280" font-family="Helvetica,sans-Serif" font-size="10.00">&lt; double &gt; &gt;</text>
</a>
</g>
</g>
<!-- Node74&#45;&gt;Node1 -->
<g id="edge89" class="edge">
<title>Node74&#45;&gt;Node1</title>
<path fill="none" stroke="#9a32cd" stroke-dasharray="5,2" d="M2986.99,-306.22C2993.78,-308.4 3000.56,-310.68 3007,-313 3067.63,-334.87 3134.05,-371.43 3169.27,-391.92"/>
<polygon fill="#9a32cd" stroke="#9a32cd" points="2987.66,-302.76 2977.07,-303.1 2985.56,-309.44 2987.66,-302.76"/>
<text text-anchor="middle" x="3050" y="-342" font-family="Helvetica,sans-Serif" font-size="10.00"> dataPtr</text>
</g>
</g>
</svg>
