<?xml version="1.0" encoding="UTF-8" standalone="no"?>
<!DOCTYPE svg PUBLIC "-//W3C//DTD SVG 1.1//EN"
 "http://www.w3.org/Graphics/SVG/1.1/DTD/svg11.dtd">
<!-- Generated by graphviz version 2.43.0 (0)
 -->
<!-- Title: EdgeSlidingConstrains::MyEdgeFE Pages: 1 -->
<svg width="383pt" height="442pt"
 viewBox="0.00 0.00 383.00 442.00" xmlns="http://www.w3.org/2000/svg" xmlns:xlink="http://www.w3.org/1999/xlink">
<g id="graph0" class="graph" transform="scale(1 1) rotate(0) translate(4 438)">
<title>EdgeSlidingConstrains::MyEdgeFE</title>
<polygon fill="white" stroke="transparent" points="-4,4 -4,-438 379,-438 379,4 -4,4"/>
<!-- Node1 -->
<g id="node1" class="node">
<title>Node1</title>
<g id="a_node1"><a xlink:title=" ">
<polygon fill="#bfbfbf" stroke="black" points="128,-0.5 128,-30.5 253,-30.5 253,-0.5 128,-0.5"/>
<text text-anchor="start" x="136" y="-18.5" font-family="Helvetica,sans-Serif" font-size="10.00">EdgeSlidingConstrains</text>
<text text-anchor="middle" x="190.5" y="-7.5" font-family="Helvetica,sans-Serif" font-size="10.00">::MyEdgeFE</text>
</a>
</g>
</g>
<!-- Node2 -->
<g id="node2" class="node">
<title>Node2</title>
<g id="a_node2"><a xlink:href="structMoFEM_1_1EdgeElementForcesAndSourcesCore.html" target="_top" xlink:title="Edge finite element.">
<polygon fill="white" stroke="black" points="113,-67.5 113,-97.5 268,-97.5 268,-67.5 113,-67.5"/>
<text text-anchor="start" x="121" y="-85.5" font-family="Helvetica,sans-Serif" font-size="10.00">MoFEM::EdgeElementForces</text>
<text text-anchor="middle" x="190.5" y="-74.5" font-family="Helvetica,sans-Serif" font-size="10.00">AndSourcesCore</text>
</a>
</g>
</g>
<!-- Node2&#45;&gt;Node1 -->
<g id="edge1" class="edge">
<title>Node2&#45;&gt;Node1</title>
<path fill="none" stroke="midnightblue" d="M190.5,-57.11C190.5,-48.15 190.5,-38.32 190.5,-30.58"/>
<polygon fill="midnightblue" stroke="midnightblue" points="187,-57.4 190.5,-67.4 194,-57.4 187,-57.4"/>
</g>
<!-- Node3 -->
<g id="node3" class="node">
<title>Node3</title>
<g id="a_node3"><a xlink:href="structMoFEM_1_1ForcesAndSourcesCore.html" target="_top" xlink:title="structure to get information form mofem into EntitiesFieldData">
<polygon fill="white" stroke="black" points="105.5,-134.5 105.5,-153.5 275.5,-153.5 275.5,-134.5 105.5,-134.5"/>
<text text-anchor="middle" x="190.5" y="-141.5" font-family="Helvetica,sans-Serif" font-size="10.00">MoFEM::ForcesAndSourcesCore</text>
</a>
</g>
</g>
<!-- Node3&#45;&gt;Node2 -->
<g id="edge2" class="edge">
<title>Node3&#45;&gt;Node2</title>
<path fill="none" stroke="midnightblue" d="M190.5,-124.23C190.5,-115.59 190.5,-105.5 190.5,-97.52"/>
<polygon fill="midnightblue" stroke="midnightblue" points="187,-124.48 190.5,-134.48 194,-124.48 187,-124.48"/>
</g>
<!-- Node4 -->
<g id="node4" class="node">
<title>Node4</title>
<g id="a_node4"><a xlink:href="structMoFEM_1_1FEMethod.html" target="_top" xlink:title="structure for User Loop Methods on finite elements">
<polygon fill="white" stroke="black" points="137,-190.5 137,-209.5 244,-209.5 244,-190.5 137,-190.5"/>
<text text-anchor="middle" x="190.5" y="-197.5" font-family="Helvetica,sans-Serif" font-size="10.00">MoFEM::FEMethod</text>
</a>
</g>
</g>
<!-- Node4&#45;&gt;Node3 -->
<g id="edge3" class="edge">
<title>Node4&#45;&gt;Node3</title>
<path fill="none" stroke="midnightblue" d="M190.5,-179.8C190.5,-170.91 190.5,-160.78 190.5,-153.75"/>
<polygon fill="midnightblue" stroke="midnightblue" points="187,-180.08 190.5,-190.08 194,-180.08 187,-180.08"/>
</g>
<!-- Node5 -->
<g id="node5" class="node">
<title>Node5</title>
<g id="a_node5"><a xlink:href="structMoFEM_1_1BasicMethod.html" target="_top" xlink:title="Data structure to exchange data between mofem and User Loop Methods.">
<polygon fill="white" stroke="black" points="129.5,-246.5 129.5,-265.5 251.5,-265.5 251.5,-246.5 129.5,-246.5"/>
<text text-anchor="middle" x="190.5" y="-253.5" font-family="Helvetica,sans-Serif" font-size="10.00">MoFEM::BasicMethod</text>
</a>
</g>
</g>
<!-- Node5&#45;&gt;Node4 -->
<g id="edge4" class="edge">
<title>Node5&#45;&gt;Node4</title>
<path fill="none" stroke="midnightblue" d="M190.5,-235.8C190.5,-226.91 190.5,-216.78 190.5,-209.75"/>
<polygon fill="midnightblue" stroke="midnightblue" points="187,-236.08 190.5,-246.08 194,-236.08 187,-236.08"/>
</g>
<!-- Node6 -->
<g id="node6" class="node">
<title>Node6</title>
<g id="a_node6"><a xlink:href="structMoFEM_1_1KspMethod.html" target="_top" xlink:title="data structure for ksp (linear solver) context">
<polygon fill="white" stroke="black" points="0,-302.5 0,-321.5 113,-321.5 113,-302.5 0,-302.5"/>
<text text-anchor="middle" x="56.5" y="-309.5" font-family="Helvetica,sans-Serif" font-size="10.00">MoFEM::KspMethod</text>
</a>
</g>
</g>
<!-- Node6&#45;&gt;Node5 -->
<g id="edge5" class="edge">
<title>Node6&#45;&gt;Node5</title>
<path fill="none" stroke="midnightblue" d="M87.18,-298.64C112.32,-288.5 147.25,-274.43 169.37,-265.52"/>
<polygon fill="midnightblue" stroke="midnightblue" points="85.7,-295.46 77.73,-302.44 88.32,-301.95 85.7,-295.46"/>
</g>
<!-- Node7 -->
<g id="node7" class="node">
<title>Node7</title>
<g id="a_node7"><a xlink:href="structMoFEM_1_1PetscData.html" target="_top" xlink:title=" ">
<polygon fill="white" stroke="black" points="136.5,-358.5 136.5,-377.5 244.5,-377.5 244.5,-358.5 136.5,-358.5"/>
<text text-anchor="middle" x="190.5" y="-365.5" font-family="Helvetica,sans-Serif" font-size="10.00">MoFEM::PetscData</text>
</a>
</g>
</g>
<!-- Node7&#45;&gt;Node6 -->
<g id="edge6" class="edge">
<title>Node7&#45;&gt;Node6</title>
<path fill="none" stroke="midnightblue" d="M159.82,-354.64C134.68,-344.5 99.75,-330.43 77.63,-321.52"/>
<polygon fill="midnightblue" stroke="midnightblue" points="158.68,-357.95 169.27,-358.44 161.3,-351.46 158.68,-357.95"/>
</g>
<!-- Node9 -->
<g id="node9" class="node">
<title>Node9</title>
<g id="a_node9"><a xlink:href="structMoFEM_1_1SnesMethod.html" target="_top" xlink:title="data structure for snes (nonlinear solver) context">
<polygon fill="white" stroke="black" points="131,-302.5 131,-321.5 250,-321.5 250,-302.5 131,-302.5"/>
<text text-anchor="middle" x="190.5" y="-309.5" font-family="Helvetica,sans-Serif" font-size="10.00">MoFEM::SnesMethod</text>
</a>
</g>
</g>
<!-- Node7&#45;&gt;Node9 -->
<g id="edge9" class="edge">
<title>Node7&#45;&gt;Node9</title>
<path fill="none" stroke="darkgreen" d="M190.5,-347.8C190.5,-338.91 190.5,-328.78 190.5,-321.75"/>
<polygon fill="darkgreen" stroke="darkgreen" points="187,-348.08 190.5,-358.08 194,-348.08 187,-348.08"/>
</g>
<!-- Node10 -->
<g id="node10" class="node">
<title>Node10</title>
<g id="a_node10"><a xlink:href="structMoFEM_1_1TSMethod.html" target="_top" xlink:title="data structure for TS (time stepping) context">
<polygon fill="white" stroke="black" points="268,-302.5 268,-321.5 375,-321.5 375,-302.5 268,-302.5"/>
<text text-anchor="middle" x="321.5" y="-309.5" font-family="Helvetica,sans-Serif" font-size="10.00">MoFEM::TSMethod</text>
</a>
</g>
</g>
<!-- Node7&#45;&gt;Node10 -->
<g id="edge11" class="edge">
<title>Node7&#45;&gt;Node10</title>
<path fill="none" stroke="darkgreen" d="M220.82,-354.5C245.38,-344.38 279.32,-330.39 300.84,-321.52"/>
<polygon fill="darkgreen" stroke="darkgreen" points="219.17,-351.4 211.26,-358.44 221.84,-357.87 219.17,-351.4"/>
</g>
<!-- Node8 -->
<g id="node8" class="node">
<title>Node8</title>
<g id="a_node8"><a xlink:href="structMoFEM_1_1UnknownInterface.html" target="_top" xlink:title="base class for all interface classes">
<polygon fill="white" stroke="black" points="116.5,-414.5 116.5,-433.5 264.5,-433.5 264.5,-414.5 116.5,-414.5"/>
<text text-anchor="middle" x="190.5" y="-421.5" font-family="Helvetica,sans-Serif" font-size="10.00">MoFEM::UnknownInterface</text>
</a>
</g>
</g>
<!-- Node8&#45;&gt;Node7 -->
<g id="edge7" class="edge">
<title>Node8&#45;&gt;Node7</title>
<path fill="none" stroke="midnightblue" d="M190.5,-403.8C190.5,-394.91 190.5,-384.78 190.5,-377.75"/>
<polygon fill="midnightblue" stroke="midnightblue" points="187,-404.08 190.5,-414.08 194,-404.08 187,-404.08"/>
</g>
<!-- Node9&#45;&gt;Node5 -->
<g id="edge8" class="edge">
<title>Node9&#45;&gt;Node5</title>
<path fill="none" stroke="midnightblue" d="M190.5,-291.8C190.5,-282.91 190.5,-272.78 190.5,-265.75"/>
<polygon fill="midnightblue" stroke="midnightblue" points="187,-292.08 190.5,-302.08 194,-292.08 187,-292.08"/>
</g>
<!-- Node10&#45;&gt;Node5 -->
<g id="edge10" class="edge">
<title>Node10&#45;&gt;Node5</title>
<path fill="none" stroke="midnightblue" d="M291.18,-298.5C266.62,-288.38 232.68,-274.39 211.16,-265.52"/>
<polygon fill="midnightblue" stroke="midnightblue" points="290.16,-301.87 300.74,-302.44 292.83,-295.4 290.16,-301.87"/>
</g>
</g>
</svg>
