<?xml version="1.0" encoding="UTF-8" standalone="no"?>
<!DOCTYPE svg PUBLIC "-//W3C//DTD SVG 1.1//EN"
 "http://www.w3.org/Graphics/SVG/1.1/DTD/svg11.dtd">
<!-- Generated by graphviz version 2.43.0 (0)
 -->
<!-- Title: ElasticMaterials Pages: 1 -->
<svg width="1569pt" height="381pt"
 viewBox="0.00 0.00 1569.00 380.50" xmlns="http://www.w3.org/2000/svg" xmlns:xlink="http://www.w3.org/1999/xlink">
<g id="graph0" class="graph" transform="scale(1 1) rotate(0) translate(4 376.5)">
<title>ElasticMaterials</title>
<polygon fill="white" stroke="transparent" points="-4,4 -4,-376.5 1565,-376.5 1565,4 -4,4"/>
<!-- Node1 -->
<g id="node1" class="node">
<title>Node1</title>
<g id="a_node1"><a xlink:title="Manage setting parameters and constitutive equations for nonlinear/linear elastic materials.">
<polygon fill="#bfbfbf" stroke="black" points="1466,-178 1466,-197 1561,-197 1561,-178 1466,-178"/>
<text text-anchor="middle" x="1513.5" y="-185" font-family="Helvetica,sans-Serif" font-size="10.00">ElasticMaterials</text>
</a>
</g>
</g>
<!-- Node2 -->
<g id="node2" class="node">
<title>Node2</title>
<g id="a_node2"><a xlink:title=" ">
<polygon fill="white" stroke="#bfbfbf" points="1154,-345 1154,-364 1243,-364 1243,-345 1154,-345"/>
<text text-anchor="middle" x="1198.5" y="-352" font-family="Helvetica,sans-Serif" font-size="10.00">variables_map</text>
</a>
</g>
</g>
<!-- Node2&#45;&gt;Node1 -->
<g id="edge1" class="edge">
<title>Node2&#45;&gt;Node1</title>
<path fill="none" stroke="#9a32cd" stroke-dasharray="5,2" d="M1253.21,-361.8C1307.49,-366.2 1391.24,-364.54 1448,-323.5 1491.83,-291.81 1506.95,-222.45 1511.13,-197.06"/>
<polygon fill="#9a32cd" stroke="#9a32cd" points="1253.38,-358.3 1243.1,-360.88 1252.74,-365.27 1253.38,-358.3"/>
<text text-anchor="middle" x="1390.5" y="-364.5" font-family="Helvetica,sans-Serif" font-size="10.00"> vM</text>
</g>
<!-- Node3 -->
<g id="node3" class="node">
<title>Node3</title>
<g id="a_node3"><a xlink:title=" ">
<polygon fill="white" stroke="#bfbfbf" points="1166,-307 1166,-326 1231,-326 1231,-307 1166,-307"/>
<text text-anchor="middle" x="1198.5" y="-314" font-family="Helvetica,sans-Serif" font-size="10.00">PetscBool</text>
</a>
</g>
</g>
<!-- Node3&#45;&gt;Node1 -->
<g id="edge2" class="edge">
<title>Node3&#45;&gt;Node1</title>
<path fill="none" stroke="#9a32cd" stroke-dasharray="5,2" d="M1241.37,-317.74C1293.59,-317.38 1383.82,-310.31 1448,-270.5 1477.78,-252.03 1499.17,-214.58 1508,-197.01"/>
<polygon fill="#9a32cd" stroke="#9a32cd" points="1241.14,-314.24 1231.13,-317.73 1241.13,-321.24 1241.14,-314.24"/>
<text text-anchor="middle" x="1390.5" y="-311.5" font-family="Helvetica,sans-Serif" font-size="10.00"> isConfigFileSet</text>
</g>
<!-- Node4 -->
<g id="node4" class="node">
<title>Node4</title>
<g id="a_node4"><a xlink:href="structMoFEM_1_1DeprecatedCoreInterface.html" target="_top" xlink:title="Deprecated interface functions.">
<polygon fill="white" stroke="black" points="1108,-269 1108,-288 1289,-288 1289,-269 1108,-269"/>
<text text-anchor="middle" x="1198.5" y="-276" font-family="Helvetica,sans-Serif" font-size="10.00">MoFEM::DeprecatedCoreInterface</text>
</a>
</g>
</g>
<!-- Node4&#45;&gt;Node1 -->
<g id="edge3" class="edge">
<title>Node4&#45;&gt;Node1</title>
<path fill="none" stroke="#9a32cd" stroke-dasharray="5,2" d="M1279.41,-267.29C1329.13,-258.67 1393.73,-244.45 1448,-222.5 1465.6,-215.38 1484.56,-204.69 1497.34,-197"/>
<polygon fill="#9a32cd" stroke="#9a32cd" points="1278.63,-263.87 1269.35,-268.99 1279.79,-270.77 1278.63,-263.87"/>
<text text-anchor="middle" x="1390.5" y="-258.5" font-family="Helvetica,sans-Serif" font-size="10.00"> mField</text>
</g>
<!-- Node5 -->
<g id="node5" class="node">
<title>Node5</title>
<g id="a_node5"><a xlink:href="structMoFEM_1_1CoreInterface.html" target="_top" xlink:title="Interface.">
<polygon fill="white" stroke="black" points="920,-269 920,-288 1045,-288 1045,-269 920,-269"/>
<text text-anchor="middle" x="982.5" y="-276" font-family="Helvetica,sans-Serif" font-size="10.00">MoFEM::CoreInterface</text>
</a>
</g>
</g>
<!-- Node5&#45;&gt;Node4 -->
<g id="edge4" class="edge">
<title>Node5&#45;&gt;Node4</title>
<path fill="none" stroke="midnightblue" d="M1055.37,-278.5C1072.15,-278.5 1090.22,-278.5 1107.67,-278.5"/>
<polygon fill="midnightblue" stroke="midnightblue" points="1055.11,-275 1045.11,-278.5 1055.11,-282 1055.11,-275"/>
</g>
<!-- Node6 -->
<g id="node6" class="node">
<title>Node6</title>
<g id="a_node6"><a xlink:href="structMoFEM_1_1UnknownInterface.html" target="_top" xlink:title="base class for all interface classes">
<polygon fill="white" stroke="black" points="735,-269 735,-288 883,-288 883,-269 735,-269"/>
<text text-anchor="middle" x="809" y="-276" font-family="Helvetica,sans-Serif" font-size="10.00">MoFEM::UnknownInterface</text>
</a>
</g>
</g>
<!-- Node6&#45;&gt;Node5 -->
<g id="edge5" class="edge">
<title>Node6&#45;&gt;Node5</title>
<path fill="none" stroke="midnightblue" d="M893.29,-278.5C902.24,-278.5 911.22,-278.5 919.85,-278.5"/>
<polygon fill="midnightblue" stroke="midnightblue" points="893.23,-275 883.23,-278.5 893.23,-282 893.23,-275"/>
</g>
<!-- Node7 -->
<g id="node7" class="node">
<title>Node7</title>
<g id="a_node7"><a xlink:title=" ">
<polygon fill="white" stroke="#bfbfbf" points="386,-247 386,-310 627,-310 627,-247 386,-247"/>
<text text-anchor="start" x="394" y="-298" font-family="Helvetica,sans-Serif" font-size="10.00">multi_index_container</text>
<text text-anchor="start" x="394" y="-287" font-family="Helvetica,sans-Serif" font-size="10.00">&lt; UIdTypeMap, indexed</text>
<text text-anchor="start" x="394" y="-276" font-family="Helvetica,sans-Serif" font-size="10.00">_by&lt; hashed_unique&lt; member</text>
<text text-anchor="start" x="394" y="-265" font-family="Helvetica,sans-Serif" font-size="10.00">&lt; UIdTypeMap, boost::typeindex</text>
<text text-anchor="middle" x="506.5" y="-254" font-family="Helvetica,sans-Serif" font-size="10.00">::type_index, &amp;UIdTypeMap::classIdx &gt; &gt; &gt; &gt;</text>
</a>
</g>
</g>
<!-- Node7&#45;&gt;Node6 -->
<g id="edge6" class="edge">
<title>Node7&#45;&gt;Node6</title>
<path fill="none" stroke="#9a32cd" stroke-dasharray="5,2" d="M637.41,-278.5C670.69,-278.5 705.33,-278.5 734.62,-278.5"/>
<polygon fill="#9a32cd" stroke="#9a32cd" points="637.13,-275 627.13,-278.5 637.13,-282 637.13,-275"/>
<text text-anchor="middle" x="681" y="-281.5" font-family="Helvetica,sans-Serif" font-size="10.00"> iFaceTypeMap</text>
</g>
<!-- Node8 -->
<g id="node8" class="node">
<title>Node8</title>
<g id="a_node8"><a xlink:title=" ">
<polygon fill="white" stroke="#bfbfbf" points="0,-269 0,-288 125,-288 125,-269 0,-269"/>
<text text-anchor="middle" x="62.5" y="-276" font-family="Helvetica,sans-Serif" font-size="10.00">multi_index_container</text>
</a>
</g>
</g>
<!-- Node8&#45;&gt;Node7 -->
<g id="edge7" class="edge">
<title>Node8&#45;&gt;Node7</title>
<path fill="none" stroke="orange" stroke-dasharray="5,2" d="M135.56,-278.5C203.25,-278.5 305.79,-278.5 385.77,-278.5"/>
<polygon fill="orange" stroke="orange" points="135.42,-275 125.42,-278.5 135.42,-282 135.42,-275"/>
<text text-anchor="start" x="143" y="-314.5" font-family="Helvetica,sans-Serif" font-size="10.00"> &lt; UIdTypeMap, indexed</text>
<text text-anchor="start" x="143" y="-303.5" font-family="Helvetica,sans-Serif" font-size="10.00">_by&lt; hashed_unique&lt; member</text>
<text text-anchor="start" x="143" y="-292.5" font-family="Helvetica,sans-Serif" font-size="10.00">&lt; UIdTypeMap, boost::typeindex</text>
<text text-anchor="middle" x="255.5" y="-281.5" font-family="Helvetica,sans-Serif" font-size="10.00">::type_index, &amp;UIdTypeMap::classIdx &gt; &gt; &gt; &gt;</text>
</g>
<!-- Node9 -->
<g id="node9" class="node">
<title>Node9</title>
<g id="a_node9"><a xlink:title=" ">
<polygon fill="white" stroke="#bfbfbf" points="1082,-197.5 1082,-249.5 1315,-249.5 1315,-197.5 1082,-197.5"/>
<text text-anchor="start" x="1090" y="-237.5" font-family="Helvetica,sans-Serif" font-size="10.00">map&lt; std::string, boost</text>
<text text-anchor="start" x="1090" y="-226.5" font-family="Helvetica,sans-Serif" font-size="10.00">::shared_ptr&lt; NonlinearElastic</text>
<text text-anchor="start" x="1090" y="-215.5" font-family="Helvetica,sans-Serif" font-size="10.00">Element::FunctionsToCalculatePiolaKirchhoff</text>
<text text-anchor="middle" x="1198.5" y="-204.5" font-family="Helvetica,sans-Serif" font-size="10.00">I&lt; double &gt; &gt; &gt;</text>
</a>
</g>
</g>
<!-- Node9&#45;&gt;Node1 -->
<g id="edge8" class="edge">
<title>Node9&#45;&gt;Node1</title>
<path fill="none" stroke="#9a32cd" stroke-dasharray="5,2" d="M1325.34,-209.03C1374.9,-203.33 1428.74,-197.13 1465.89,-192.86"/>
<polygon fill="#9a32cd" stroke="#9a32cd" points="1324.69,-205.58 1315.16,-210.2 1325.49,-212.53 1324.69,-205.58"/>
<text text-anchor="middle" x="1390.5" y="-210.5" font-family="Helvetica,sans-Serif" font-size="10.00"> doubleMaterialModel</text>
</g>
<!-- Node10 -->
<g id="node10" class="node">
<title>Node10</title>
<g id="a_node10"><a xlink:title=" ">
<polygon fill="white" stroke="#bfbfbf" points="1082,-126.5 1082,-178.5 1315,-178.5 1315,-126.5 1082,-126.5"/>
<text text-anchor="start" x="1090" y="-166.5" font-family="Helvetica,sans-Serif" font-size="10.00">map&lt; std::string, boost</text>
<text text-anchor="start" x="1090" y="-155.5" font-family="Helvetica,sans-Serif" font-size="10.00">::shared_ptr&lt; NonlinearElastic</text>
<text text-anchor="start" x="1090" y="-144.5" font-family="Helvetica,sans-Serif" font-size="10.00">Element::FunctionsToCalculatePiolaKirchhoff</text>
<text text-anchor="middle" x="1198.5" y="-133.5" font-family="Helvetica,sans-Serif" font-size="10.00">I&lt; adouble &gt; &gt; &gt;</text>
</a>
</g>
</g>
<!-- Node10&#45;&gt;Node1 -->
<g id="edge9" class="edge">
<title>Node10&#45;&gt;Node1</title>
<path fill="none" stroke="#9a32cd" stroke-dasharray="5,2" d="M1325.34,-166.57C1374.9,-172.11 1428.74,-178.13 1465.89,-182.29"/>
<polygon fill="#9a32cd" stroke="#9a32cd" points="1325.49,-163.07 1315.16,-165.43 1324.71,-170.02 1325.49,-163.07"/>
<text text-anchor="middle" x="1390.5" y="-182.5" font-family="Helvetica,sans-Serif" font-size="10.00"> aDoubleMaterialModel</text>
</g>
<!-- Node11 -->
<g id="node11" class="node">
<title>Node11</title>
<g id="a_node11"><a xlink:href="classbool.html" target="_top" xlink:title=" ">
<polygon fill="white" stroke="black" points="1179.5,-88 1179.5,-107 1217.5,-107 1217.5,-88 1179.5,-88"/>
<text text-anchor="middle" x="1198.5" y="-95" font-family="Helvetica,sans-Serif" font-size="10.00">bool</text>
</a>
</g>
</g>
<!-- Node11&#45;&gt;Node1 -->
<g id="edge10" class="edge">
<title>Node11&#45;&gt;Node1</title>
<path fill="none" stroke="#9a32cd" stroke-dasharray="5,2" d="M1227.58,-100.75C1274.54,-106.83 1371.4,-122.15 1448,-152.5 1465.65,-159.49 1484.6,-170.2 1497.36,-177.93"/>
<polygon fill="#9a32cd" stroke="#9a32cd" points="1227.91,-97.26 1217.55,-99.49 1227.04,-104.21 1227.91,-97.26"/>
<text text-anchor="middle" x="1390.5" y="-155.5" font-family="Helvetica,sans-Serif" font-size="10.00"> iNitialized</text>
</g>
<!-- Node12 -->
<g id="node12" class="node">
<title>Node12</title>
<g id="a_node12"><a xlink:title=" ">
<polygon fill="white" stroke="#bfbfbf" points="1176.5,-50 1176.5,-69 1220.5,-69 1220.5,-50 1176.5,-50"/>
<text text-anchor="middle" x="1198.5" y="-57" font-family="Helvetica,sans-Serif" font-size="10.00">string</text>
</a>
</g>
</g>
<!-- Node12&#45;&gt;Node1 -->
<g id="edge11" class="edge">
<title>Node12&#45;&gt;Node1</title>
<path fill="none" stroke="#9a32cd" stroke-dasharray="5,2" d="M1230.87,-55.91C1280.8,-51.79 1379.69,-50.32 1448,-92.5 1481.42,-113.13 1501.6,-158.27 1509.13,-177.98"/>
<polygon fill="#9a32cd" stroke="#9a32cd" points="1230.33,-52.44 1220.7,-56.84 1230.97,-59.41 1230.33,-52.44"/>
<text text-anchor="middle" x="1390.5" y="-106.5" font-family="Helvetica,sans-Serif" font-size="10.00"> defMaterial</text>
<text text-anchor="middle" x="1390.5" y="-95.5" font-family="Helvetica,sans-Serif" font-size="10.00">configFile</text>
</g>
<!-- Node13 -->
<g id="node13" class="node">
<title>Node13</title>
<g id="a_node13"><a xlink:title=" ">
<polygon fill="white" stroke="#bfbfbf" points="1125.5,-0.5 1125.5,-30.5 1271.5,-30.5 1271.5,-0.5 1125.5,-0.5"/>
<text text-anchor="start" x="1133.5" y="-18.5" font-family="Helvetica,sans-Serif" font-size="10.00">map&lt; int, ElasticMaterials</text>
<text text-anchor="middle" x="1198.5" y="-7.5" font-family="Helvetica,sans-Serif" font-size="10.00">::BlockOptionData &gt;</text>
</a>
</g>
</g>
<!-- Node13&#45;&gt;Node1 -->
<g id="edge12" class="edge">
<title>Node13&#45;&gt;Node1</title>
<path fill="none" stroke="#9a32cd" stroke-dasharray="5,2" d="M1281.85,-4.75C1334.15,-2.35 1400.67,-7.97 1448,-42.5 1494.3,-76.27 1507.94,-150.89 1511.43,-177.68"/>
<polygon fill="#9a32cd" stroke="#9a32cd" points="1281.37,-1.27 1271.58,-5.33 1281.77,-8.26 1281.37,-1.27"/>
<text text-anchor="middle" x="1390.5" y="-45.5" font-family="Helvetica,sans-Serif" font-size="10.00"> blockData</text>
</g>
</g>
</svg>
