<?xml version="1.0" encoding="UTF-8" standalone="no"?>
<!DOCTYPE svg PUBLIC "-//W3C//DTD SVG 1.1//EN"
 "http://www.w3.org/Graphics/SVG/1.1/DTD/svg11.dtd">
<!-- Generated by graphviz version 2.43.0 (0)
 -->
<!-- Title: OpAnalyticalInternalAleStrain_dx&lt; S &gt; Pages: 1 -->
<!--zoomable 1500 -->
<svg id="main" version="1.1" xmlns="http://www.w3.org/2000/svg" xmlns:xlink="http://www.w3.org/1999/xlink" xml:space="preserve" onload="init(evt)">
<style type="text/css"><![CDATA[
.edge:hover path { stroke: red; }
.edge:hover polygon { stroke: red; fill: red; }
]]></style>
<script type="text/javascript"><![CDATA[
var edges = document.getElementsByTagName('g');
if (edges && edges.length) {
  for (var i=0;i<edges.length;i++) {
    if (edges[i].id.substr(0,4)=='edge') {
      edges[i].setAttribute('class','edge');
    }
  }
}
]]></script>
        <defs>
                <circle id="rim" cx="0" cy="0" r="7"/>
                <circle id="rim2" cx="0" cy="0" r="3.5"/>
                <g id="zoomPlus">
                        <use xlink:href="#rim" fill="#404040">
                                <set attributeName="fill" to="#808080" begin="zoomplus.mouseover" end="zoomplus.mouseout"/>
                        </use>
                        <path d="M-4,0h8M0,-4v8" fill="none" stroke="white" stroke-width="1.5" pointer-events="none"/>
                </g>
                <g id="zoomMin">
                        <use xlink:href="#rim" fill="#404040">
                                <set attributeName="fill" to="#808080" begin="zoomminus.mouseover" end="zoomminus.mouseout"/>
                        </use>
                        <path d="M-4,0h8" fill="none" stroke="white" stroke-width="1.5" pointer-events="none"/>
                </g>
                <g id="dirArrow">
                        <path fill="none" stroke="white" stroke-width="1.5" d="M0,-3.0v7 M-2.5,-0.5L0,-3.0L2.5,-0.5"/>
                </g>
               <g id="resetDef">
                       <use xlink:href="#rim2" fill="#404040">
                               <set attributeName="fill" to="#808080" begin="reset.mouseover" end="reset.mouseout"/>
                       </use>
               </g>
        </defs>

<script type="text/javascript">
var viewWidth = 3755;
var viewHeight = 1500;
var sectionId = 'dynsection-1';
</script>
<script xlink:href="svgpan.js"/>
<svg id="graph" class="graph">
<g id="viewport">
<title>OpAnalyticalInternalAleStrain_dx&lt; S &gt;</title>
<polygon fill="white" stroke="transparent" points="-4,4 -4,-1496 3751,-1496 3751,4 -4,4"/>
<!-- Node1 -->
<g id="node1" class="node">
<title>Node1</title>
<g id="a_node1"><a xlink:title=" ">
<polygon fill="#bfbfbf" stroke="black" points="3586,-85 3586,-115 3747,-115 3747,-85 3586,-85"/>
<text text-anchor="start" x="3594" y="-103" font-family="Helvetica,sans-Serif" font-size="10.00">OpAnalyticalInternalAleStrain</text>
<text text-anchor="middle" x="3666.5" y="-92" font-family="Helvetica,sans-Serif" font-size="10.00">_dx&lt; S &gt;</text>
</a>
</g>
</g>
<!-- Node2 -->
<g id="node2" class="node">
<title>Node2</title>
<g id="a_node2"><a xlink:href="structOpAssemble.html" target="_top" xlink:title=" ">
<polygon fill="white" stroke="black" points="3348,-128.5 3348,-147.5 3426,-147.5 3426,-128.5 3348,-128.5"/>
<text text-anchor="middle" x="3387" y="-135.5" font-family="Helvetica,sans-Serif" font-size="10.00">OpAssemble</text>
</a>
</g>
</g>
<!-- Node2&#45;&gt;Node1 -->
<g id="edge1" class="edge">
<title>Node2&#45;&gt;Node1</title>
<path fill="none" stroke="midnightblue" d="M3436.6,-132.13C3472.85,-127.67 3523.56,-121.26 3568,-115 3573.85,-114.18 3579.9,-113.3 3585.98,-112.41"/>
<polygon fill="midnightblue" stroke="midnightblue" points="3435.81,-128.7 3426.31,-133.39 3436.66,-135.65 3435.81,-128.7"/>
</g>
<!-- Node3 -->
<g id="node3" class="node">
<title>Node3</title>
<g id="a_node3"><a xlink:href="structMoFEM_1_1VolumeElementForcesAndSourcesCore_1_1UserDataOperator.html" target="_top" xlink:title=" ">
<polygon fill="white" stroke="black" points="3067.5,-486.5 3067.5,-505.5 3187.5,-505.5 3187.5,-486.5 3067.5,-486.5"/>
<text text-anchor="middle" x="3127.5" y="-493.5" font-family="Helvetica,sans-Serif" font-size="10.00">VolUserDataOperator</text>
</a>
</g>
</g>
<!-- Node3&#45;&gt;Node2 -->
<g id="edge2" class="edge">
<title>Node3&#45;&gt;Node2</title>
<path fill="none" stroke="midnightblue" d="M3141.37,-478.11C3187.53,-413.93 3343.88,-196.56 3378.97,-147.77"/>
<polygon fill="midnightblue" stroke="midnightblue" points="3138.39,-476.26 3135.39,-486.42 3144.07,-480.35 3138.39,-476.26"/>
</g>
<!-- Node4 -->
<g id="node4" class="node">
<title>Node4</title>
<g id="a_node4"><a xlink:href="structMoFEM_1_1ForcesAndSourcesCore_1_1UserDataOperator.html" target="_top" xlink:title=" ">
<polygon fill="white" stroke="black" points="2837,-710 2837,-740 3007,-740 3007,-710 2837,-710"/>
<text text-anchor="start" x="2845" y="-728" font-family="Helvetica,sans-Serif" font-size="10.00">MoFEM::ForcesAndSourcesCore</text>
<text text-anchor="middle" x="2922" y="-717" font-family="Helvetica,sans-Serif" font-size="10.00">::UserDataOperator</text>
</a>
</g>
</g>
<!-- Node4&#45;&gt;Node3 -->
<g id="edge3" class="edge">
<title>Node4&#45;&gt;Node3</title>
<path fill="none" stroke="midnightblue" d="M2943.03,-702.46C2986.37,-653.69 3087.37,-540.03 3117.72,-505.88"/>
<polygon fill="midnightblue" stroke="midnightblue" points="2940.38,-700.17 2936.35,-709.97 2945.61,-704.82 2940.38,-700.17"/>
</g>
<!-- Node5 -->
<g id="node5" class="node">
<title>Node5</title>
<g id="a_node5"><a xlink:href="structMoFEM_1_1DataOperator.html" target="_top" xlink:title="base operator to do operations at Gauss Pt. level">
<polygon fill="white" stroke="black" points="2579.5,-388.5 2579.5,-407.5 2704.5,-407.5 2704.5,-388.5 2579.5,-388.5"/>
<text text-anchor="middle" x="2642" y="-395.5" font-family="Helvetica,sans-Serif" font-size="10.00">MoFEM::DataOperator</text>
</a>
</g>
</g>
<!-- Node5&#45;&gt;Node4 -->
<g id="edge4" class="edge">
<title>Node5&#45;&gt;Node4</title>
<path fill="none" stroke="midnightblue" d="M2658.01,-415.66C2707.13,-473.43 2862.47,-656.15 2908.21,-709.95"/>
<polygon fill="midnightblue" stroke="midnightblue" points="2660.46,-413.14 2651.32,-407.79 2655.13,-417.67 2660.46,-413.14"/>
</g>
<!-- Node6 -->
<g id="node6" class="node">
<title>Node6</title>
<g id="a_node6"><a xlink:title=" ">
<polygon fill="white" stroke="#bfbfbf" points="2160,-328 2160,-380 2352,-380 2352,-328 2160,-328"/>
<text text-anchor="start" x="2168" y="-368" font-family="Helvetica,sans-Serif" font-size="10.00">function&lt; MoFEMErrorCode</text>
<text text-anchor="start" x="2168" y="-357" font-family="Helvetica,sans-Serif" font-size="10.00">(DataOperator *op_ptr,</text>
<text text-anchor="start" x="2168" y="-346" font-family="Helvetica,sans-Serif" font-size="10.00"> int side, EntityType type,</text>
<text text-anchor="middle" x="2256" y="-335" font-family="Helvetica,sans-Serif" font-size="10.00"> EntitiesFieldData::EntData &amp;data)&gt;</text>
</a>
</g>
</g>
<!-- Node6&#45;&gt;Node5 -->
<g id="edge5" class="edge">
<title>Node6&#45;&gt;Node5</title>
<path fill="none" stroke="#9a32cd" stroke-dasharray="5,2" d="M2362.36,-373.92C2367.3,-374.66 2372.2,-375.36 2377,-376 2446.07,-385.19 2525.85,-391.21 2579.47,-394.59"/>
<polygon fill="#9a32cd" stroke="#9a32cd" points="2362.59,-370.41 2352.17,-372.33 2361.51,-377.33 2362.59,-370.41"/>
<text text-anchor="middle" x="2458" y="-394" font-family="Helvetica,sans-Serif" font-size="10.00"> doWorkRhsHook</text>
</g>
<!-- Node7 -->
<g id="node7" class="node">
<title>Node7</title>
<g id="a_node7"><a xlink:href="classbool.html" target="_top" xlink:title=" ">
<polygon fill="white" stroke="black" points="2237,-289.5 2237,-308.5 2275,-308.5 2275,-289.5 2237,-289.5"/>
<text text-anchor="middle" x="2256" y="-296.5" font-family="Helvetica,sans-Serif" font-size="10.00">bool</text>
</a>
</g>
</g>
<!-- Node7&#45;&gt;Node2 -->
<g id="edge87" class="edge">
<title>Node7&#45;&gt;Node2</title>
<path fill="none" stroke="#9a32cd" stroke-dasharray="5,2" d="M2285.29,-300.33C2307.45,-299.93 2337.94,-296.04 2359,-280 2373.55,-268.92 2361.76,-253.11 2377,-243 2425.96,-210.53 2582.25,-229 2641,-229 2641,-229 2641,-229 3128.5,-229 3199.68,-229 3218.48,-220.33 3285,-195 3318.12,-182.39 3353.44,-160.18 3372.28,-147.53"/>
<polygon fill="#9a32cd" stroke="#9a32cd" points="2285.18,-296.83 2275.16,-300.28 2285.15,-303.83 2285.18,-296.83"/>
<text text-anchor="middle" x="2922" y="-232" font-family="Helvetica,sans-Serif" font-size="10.00"> isDiag</text>
</g>
<!-- Node7&#45;&gt;Node5 -->
<g id="edge6" class="edge">
<title>Node7&#45;&gt;Node5</title>
<path fill="none" stroke="#9a32cd" stroke-dasharray="5,2" d="M2285.54,-295.76C2347.81,-289.13 2493.92,-276.2 2539,-295 2585.69,-314.47 2621.94,-366.86 2635.36,-388.48"/>
<polygon fill="#9a32cd" stroke="#9a32cd" points="2284.83,-292.31 2275.27,-296.87 2285.59,-299.27 2284.83,-292.31"/>
<text text-anchor="middle" x="2458" y="-364" font-family="Helvetica,sans-Serif" font-size="10.00"> doTris</text>
<text text-anchor="middle" x="2458" y="-353" font-family="Helvetica,sans-Serif" font-size="10.00">doQuads</text>
<text text-anchor="middle" x="2458" y="-342" font-family="Helvetica,sans-Serif" font-size="10.00">sYmm</text>
<text text-anchor="middle" x="2458" y="-331" font-family="Helvetica,sans-Serif" font-size="10.00">doPrisms</text>
<text text-anchor="middle" x="2458" y="-320" font-family="Helvetica,sans-Serif" font-size="10.00">doTets</text>
<text text-anchor="middle" x="2458" y="-309" font-family="Helvetica,sans-Serif" font-size="10.00">doVertices</text>
<text text-anchor="middle" x="2458" y="-298" font-family="Helvetica,sans-Serif" font-size="10.00">doEdges</text>
</g>
<!-- Node8 -->
<g id="node8" class="node">
<title>Node8</title>
<g id="a_node8"><a xlink:title=" ">
<polygon fill="white" stroke="#bfbfbf" points="2153,-399.5 2153,-484.5 2359,-484.5 2359,-399.5 2153,-399.5"/>
<text text-anchor="start" x="2161" y="-472.5" font-family="Helvetica,sans-Serif" font-size="10.00">function&lt; MoFEMErrorCode</text>
<text text-anchor="start" x="2161" y="-461.5" font-family="Helvetica,sans-Serif" font-size="10.00">(DataOperator *op_ptr,</text>
<text text-anchor="start" x="2161" y="-450.5" font-family="Helvetica,sans-Serif" font-size="10.00"> int row_side, int col_side,</text>
<text text-anchor="start" x="2161" y="-439.5" font-family="Helvetica,sans-Serif" font-size="10.00"> EntityType row_type, EntityType</text>
<text text-anchor="start" x="2161" y="-428.5" font-family="Helvetica,sans-Serif" font-size="10.00"> col_type, EntitiesFieldData::EntData</text>
<text text-anchor="start" x="2161" y="-417.5" font-family="Helvetica,sans-Serif" font-size="10.00"> &amp;row_data, EntitiesFieldData::EntData</text>
<text text-anchor="middle" x="2256" y="-406.5" font-family="Helvetica,sans-Serif" font-size="10.00"> &amp;col_data)&gt;</text>
</a>
</g>
</g>
<!-- Node8&#45;&gt;Node5 -->
<g id="edge7" class="edge">
<title>Node8&#45;&gt;Node5</title>
<path fill="none" stroke="#9a32cd" stroke-dasharray="5,2" d="M2369.14,-429.15C2437.68,-421.3 2522.76,-411.55 2579.3,-405.07"/>
<polygon fill="#9a32cd" stroke="#9a32cd" points="2368.69,-425.68 2359.15,-430.3 2369.48,-432.63 2368.69,-425.68"/>
<text text-anchor="middle" x="2458" y="-430" font-family="Helvetica,sans-Serif" font-size="10.00"> doWorkLhsHook</text>
</g>
<!-- Node9 -->
<g id="node9" class="node">
<title>Node9</title>
<g id="a_node9"><a xlink:title=" ">
<polygon fill="white" stroke="#bfbfbf" points="2179,-251.5 2179,-270.5 2333,-270.5 2333,-251.5 2179,-251.5"/>
<text text-anchor="middle" x="2256" y="-258.5" font-family="Helvetica,sans-Serif" font-size="10.00">array&lt; bool, MBMAXTYPE &gt;</text>
</a>
</g>
</g>
<!-- Node9&#45;&gt;Node5 -->
<g id="edge8" class="edge">
<title>Node9&#45;&gt;Node5</title>
<path fill="none" stroke="#9a32cd" stroke-dasharray="5,2" d="M2311.74,-249.78C2371.09,-240.46 2466.98,-233.88 2539,-270 2591.32,-296.24 2625.49,-363.13 2636.83,-388.26"/>
<polygon fill="#9a32cd" stroke="#9a32cd" points="2311.11,-246.33 2301.81,-251.42 2312.25,-253.24 2311.11,-246.33"/>
<text text-anchor="middle" x="2458" y="-273" font-family="Helvetica,sans-Serif" font-size="10.00"> doEntities</text>
</g>
<!-- Node10 -->
<g id="node10" class="node">
<title>Node10</title>
<g id="a_node10"><a xlink:title=" ">
<polygon fill="white" stroke="#bfbfbf" points="2607.5,-677.5 2607.5,-696.5 2676.5,-696.5 2676.5,-677.5 2607.5,-677.5"/>
<text text-anchor="middle" x="2642" y="-684.5" font-family="Helvetica,sans-Serif" font-size="10.00">FieldSpace</text>
</a>
</g>
</g>
<!-- Node10&#45;&gt;Node4 -->
<g id="edge9" class="edge">
<title>Node10&#45;&gt;Node4</title>
<path fill="none" stroke="#9a32cd" stroke-dasharray="5,2" d="M2686.82,-692.53C2722.45,-697.07 2774,-703.75 2819,-710 2824.85,-710.81 2830.89,-711.66 2836.97,-712.53"/>
<polygon fill="#9a32cd" stroke="#9a32cd" points="2687.12,-689.04 2676.76,-691.25 2686.24,-695.98 2687.12,-689.04"/>
<text text-anchor="middle" x="2782" y="-713" font-family="Helvetica,sans-Serif" font-size="10.00"> sPace</text>
</g>
<!-- Node11 -->
<g id="node11" class="node">
<title>Node11</title>
<g id="a_node11"><a xlink:title=" ">
<polygon fill="white" stroke="#bfbfbf" points="1122.5,-1352.5 1122.5,-1371.5 1160.5,-1371.5 1160.5,-1352.5 1122.5,-1352.5"/>
<text text-anchor="middle" x="1141.5" y="-1359.5" font-family="Helvetica,sans-Serif" font-size="10.00">char</text>
</a>
</g>
</g>
<!-- Node11&#45;&gt;Node4 -->
<g id="edge10" class="edge">
<title>Node11&#45;&gt;Node4</title>
<path fill="none" stroke="#9a32cd" stroke-dasharray="5,2" d="M1170.82,-1362.54C1230.98,-1363.63 1375.94,-1366 1497.5,-1366 1497.5,-1366 1497.5,-1366 2643,-1366 2925.02,-1366 2924.08,-837.28 2921.53,-740.21"/>
<polygon fill="#9a32cd" stroke="#9a32cd" points="1170.66,-1359.03 1160.6,-1362.35 1170.54,-1366.03 1170.66,-1359.03"/>
<text text-anchor="middle" x="2063" y="-1369" font-family="Helvetica,sans-Serif" font-size="10.00"> opType</text>
</g>
<!-- Node39 -->
<g id="node39" class="node">
<title>Node39</title>
<g id="a_node39"><a xlink:href="structMoFEM_1_1Problem.html" target="_top" xlink:title="keeps basic data about problem">
<polygon fill="white" stroke="black" points="1449,-1045.5 1449,-1064.5 1548,-1064.5 1548,-1045.5 1449,-1045.5"/>
<text text-anchor="middle" x="1498.5" y="-1052.5" font-family="Helvetica,sans-Serif" font-size="10.00">MoFEM::Problem</text>
</a>
</g>
</g>
<!-- Node11&#45;&gt;Node39 -->
<g id="edge54" class="edge">
<title>Node11&#45;&gt;Node39</title>
<path fill="none" stroke="#9a32cd" stroke-dasharray="5,2" d="M1170.41,-1356.99C1194.41,-1352.7 1229.98,-1346.37 1261,-1341 1291.2,-1335.77 1376.37,-1340.67 1397,-1318 1433.6,-1277.79 1379.6,-1115.27 1415,-1074 1423.52,-1064.07 1436.08,-1058.75 1448.85,-1056.03"/>
<polygon fill="#9a32cd" stroke="#9a32cd" points="1169.79,-1353.55 1160.56,-1358.75 1171.02,-1360.44 1169.79,-1353.55"/>
<text text-anchor="middle" x="1329" y="-1344" font-family="Helvetica,sans-Serif" font-size="10.00"> tagName</text>
</g>
<!-- Node12 -->
<g id="node12" class="node">
<title>Node12</title>
<g id="a_node12"><a xlink:href="structMoFEM_1_1ForcesAndSourcesCore.html" target="_top" xlink:title="structure to get information form mofem into EntitiesFieldData">
<polygon fill="white" stroke="black" points="2557,-753.5 2557,-772.5 2727,-772.5 2727,-753.5 2557,-753.5"/>
<text text-anchor="middle" x="2642" y="-760.5" font-family="Helvetica,sans-Serif" font-size="10.00">MoFEM::ForcesAndSourcesCore</text>
</a>
</g>
</g>
<!-- Node12&#45;&gt;Node4 -->
<g id="edge11" class="edge">
<title>Node12&#45;&gt;Node4</title>
<path fill="none" stroke="#9a32cd" stroke-dasharray="5,2" d="M2722.84,-752.13C2752.98,-748.02 2787.57,-743.3 2819,-739 2824.84,-738.2 2830.88,-737.37 2836.95,-736.54"/>
<polygon fill="#9a32cd" stroke="#9a32cd" points="2722.24,-748.68 2712.81,-753.5 2723.19,-755.61 2722.24,-748.68"/>
<text text-anchor="middle" x="2782" y="-751" font-family="Helvetica,sans-Serif" font-size="10.00"> ptrFE</text>
</g>
<!-- Node12&#45;&gt;Node12 -->
<g id="edge69" class="edge">
<title>Node12&#45;&gt;Node12</title>
<path fill="none" stroke="#9a32cd" stroke-dasharray="5,2" d="M2615.96,-782.03C2617.38,-787.13 2626.06,-791 2642,-791 2666.88,-791 2674.08,-781.57 2663.58,-772.76"/>
<polygon fill="#9a32cd" stroke="#9a32cd" points="2619.24,-783.29 2620.42,-772.76 2612.93,-780.25 2619.24,-783.29"/>
<text text-anchor="middle" x="2642" y="-805" font-family="Helvetica,sans-Serif" font-size="10.00"> sidePtrFE</text>
<text text-anchor="middle" x="2642" y="-794" font-family="Helvetica,sans-Serif" font-size="10.00">refinePtrFE</text>
</g>
<!-- Node13 -->
<g id="node13" class="node">
<title>Node13</title>
<g id="a_node13"><a xlink:href="structMoFEM_1_1FEMethod.html" target="_top" xlink:title="structure for User Loop Methods on finite elements">
<polygon fill="white" stroke="black" points="2202.5,-984.5 2202.5,-1003.5 2309.5,-1003.5 2309.5,-984.5 2202.5,-984.5"/>
<text text-anchor="middle" x="2256" y="-991.5" font-family="Helvetica,sans-Serif" font-size="10.00">MoFEM::FEMethod</text>
</a>
</g>
</g>
<!-- Node13&#45;&gt;Node12 -->
<g id="edge12" class="edge">
<title>Node13&#45;&gt;Node12</title>
<path fill="none" stroke="midnightblue" d="M2319.97,-1002.59C2381.33,-1007.55 2474.55,-1005.64 2539,-961 2607.66,-913.44 2633.07,-805.18 2639.34,-772.51"/>
<polygon fill="midnightblue" stroke="midnightblue" points="2319.93,-999.08 2309.65,-1001.67 2319.3,-1006.05 2319.93,-999.08"/>
</g>
<!-- Node14 -->
<g id="node14" class="node">
<title>Node14</title>
<g id="a_node14"><a xlink:href="structMoFEM_1_1BasicMethod.html" target="_top" xlink:title="Data structure to exchange data between mofem and User Loop Methods.">
<polygon fill="white" stroke="black" points="1825,-984.5 1825,-1003.5 1947,-1003.5 1947,-984.5 1825,-984.5"/>
<text text-anchor="middle" x="1886" y="-991.5" font-family="Helvetica,sans-Serif" font-size="10.00">MoFEM::BasicMethod</text>
</a>
</g>
</g>
<!-- Node14&#45;&gt;Node13 -->
<g id="edge13" class="edge">
<title>Node14&#45;&gt;Node13</title>
<path fill="none" stroke="midnightblue" d="M1957.63,-994C2029.14,-994 2138.1,-994 2202.37,-994"/>
<polygon fill="midnightblue" stroke="midnightblue" points="1957.36,-990.5 1947.36,-994 1957.36,-997.5 1957.36,-990.5"/>
</g>
<!-- Node15 -->
<g id="node15" class="node">
<title>Node15</title>
<g id="a_node15"><a xlink:href="structMoFEM_1_1KspMethod.html" target="_top" xlink:title="data structure for ksp (linear solver) context">
<polygon fill="white" stroke="black" points="1442,-320.5 1442,-339.5 1555,-339.5 1555,-320.5 1442,-320.5"/>
<text text-anchor="middle" x="1498.5" y="-327.5" font-family="Helvetica,sans-Serif" font-size="10.00">MoFEM::KspMethod</text>
</a>
</g>
</g>
<!-- Node15&#45;&gt;Node14 -->
<g id="edge14" class="edge">
<title>Node15&#45;&gt;Node14</title>
<path fill="none" stroke="midnightblue" d="M1524.08,-344.96C1581.59,-381.55 1724.34,-481.94 1781,-609 1797.58,-646.19 1772.73,-943.89 1799,-975 1805.71,-982.94 1814.92,-988.01 1824.83,-991.16"/>
<polygon fill="midnightblue" stroke="midnightblue" points="1525.94,-341.99 1515.61,-339.64 1522.21,-347.92 1525.94,-341.99"/>
</g>
<!-- Node16 -->
<g id="node16" class="node">
<title>Node16</title>
<g id="a_node16"><a xlink:href="structMoFEM_1_1PetscData.html" target="_top" xlink:title=" ">
<polygon fill="white" stroke="black" points="1087.5,-524.5 1087.5,-543.5 1195.5,-543.5 1195.5,-524.5 1087.5,-524.5"/>
<text text-anchor="middle" x="1141.5" y="-531.5" font-family="Helvetica,sans-Serif" font-size="10.00">MoFEM::PetscData</text>
</a>
</g>
</g>
<!-- Node16&#45;&gt;Node15 -->
<g id="edge15" class="edge">
<title>Node16&#45;&gt;Node15</title>
<path fill="none" stroke="midnightblue" d="M1205.64,-532.56C1219.25,-529.56 1232.63,-524.2 1243,-515 1262.87,-497.37 1244.08,-478.48 1261,-458 1291.1,-421.55 1421.56,-362.68 1474.77,-339.66"/>
<polygon fill="midnightblue" stroke="midnightblue" points="1204.96,-529.12 1195.74,-534.35 1206.2,-536.01 1204.96,-529.12"/>
</g>
<!-- Node26 -->
<g id="node26" class="node">
<title>Node26</title>
<g id="a_node26"><a xlink:href="structMoFEM_1_1SnesMethod.html" target="_top" xlink:title="data structure for snes (nonlinear solver) context">
<polygon fill="white" stroke="black" points="1439,-499.5 1439,-518.5 1558,-518.5 1558,-499.5 1439,-499.5"/>
<text text-anchor="middle" x="1498.5" y="-506.5" font-family="Helvetica,sans-Serif" font-size="10.00">MoFEM::SnesMethod</text>
</a>
</g>
</g>
<!-- Node16&#45;&gt;Node26 -->
<g id="edge28" class="edge">
<title>Node16&#45;&gt;Node26</title>
<path fill="none" stroke="darkgreen" d="M1205.93,-529.53C1272.03,-524.88 1374.74,-517.64 1438.96,-513.12"/>
<polygon fill="darkgreen" stroke="darkgreen" points="1205.38,-526.06 1195.65,-530.26 1205.87,-533.05 1205.38,-526.06"/>
</g>
<!-- Node29 -->
<g id="node29" class="node">
<title>Node29</title>
<g id="a_node29"><a xlink:href="structMoFEM_1_1TSMethod.html" target="_top" xlink:title="data structure for TS (time stepping) context">
<polygon fill="white" stroke="black" points="1445,-806.5 1445,-825.5 1552,-825.5 1552,-806.5 1445,-806.5"/>
<text text-anchor="middle" x="1498.5" y="-813.5" font-family="Helvetica,sans-Serif" font-size="10.00">MoFEM::TSMethod</text>
</a>
</g>
</g>
<!-- Node16&#45;&gt;Node29 -->
<g id="edge34" class="edge">
<title>Node16&#45;&gt;Node29</title>
<path fill="none" stroke="darkgreen" d="M1206,-533.95C1271.48,-535.16 1368,-540.81 1397,-563 1479.77,-626.32 1494.51,-768.26 1497.01,-806.41"/>
<polygon fill="darkgreen" stroke="darkgreen" points="1205.83,-530.45 1195.78,-533.8 1205.72,-537.45 1205.83,-530.45"/>
</g>
<!-- Node17 -->
<g id="node17" class="node">
<title>Node17</title>
<g id="a_node17"><a xlink:href="structMoFEM_1_1UnknownInterface.html" target="_top" xlink:title="base class for all interface classes">
<polygon fill="white" stroke="black" points="735,-384.5 735,-403.5 883,-403.5 883,-384.5 735,-384.5"/>
<text text-anchor="middle" x="809" y="-391.5" font-family="Helvetica,sans-Serif" font-size="10.00">MoFEM::UnknownInterface</text>
</a>
</g>
</g>
<!-- Node17&#45;&gt;Node16 -->
<g id="edge16" class="edge">
<title>Node17&#45;&gt;Node16</title>
<path fill="none" stroke="midnightblue" d="M872.08,-383.4C919.24,-379.13 982.52,-382.11 1022,-419 1053.72,-448.63 1009.33,-484.28 1040,-515 1052.42,-527.44 1070.27,-533.1 1087.48,-535.36"/>
<polygon fill="midnightblue" stroke="midnightblue" points="871.56,-379.94 861.98,-384.45 872.28,-386.9 871.56,-379.94"/>
</g>
<!-- Node57 -->
<g id="node57" class="node">
<title>Node57</title>
<g id="a_node57"><a xlink:href="structMoFEM_1_1CoreInterface.html" target="_top" xlink:title="Interface.">
<polygon fill="white" stroke="black" points="1079,-133.5 1079,-152.5 1204,-152.5 1204,-133.5 1079,-133.5"/>
<text text-anchor="middle" x="1141.5" y="-140.5" font-family="Helvetica,sans-Serif" font-size="10.00">MoFEM::CoreInterface</text>
</a>
</g>
</g>
<!-- Node17&#45;&gt;Node57 -->
<g id="edge68" class="edge">
<title>Node17&#45;&gt;Node57</title>
<path fill="none" stroke="midnightblue" d="M818.62,-375.23C832.69,-346.06 862.9,-289.21 901,-251 952.8,-199.06 971.83,-189.09 1040,-162 1052.21,-157.15 1065.76,-153.51 1078.85,-150.8"/>
<polygon fill="midnightblue" stroke="midnightblue" points="815.43,-373.78 814.32,-384.32 821.76,-376.77 815.43,-373.78"/>
</g>
<!-- Node18 -->
<g id="node18" class="node">
<title>Node18</title>
<g id="a_node18"><a xlink:title=" ">
<polygon fill="white" stroke="#bfbfbf" points="386,-1073.5 386,-1136.5 627,-1136.5 627,-1073.5 386,-1073.5"/>
<text text-anchor="start" x="394" y="-1124.5" font-family="Helvetica,sans-Serif" font-size="10.00">multi_index_container</text>
<text text-anchor="start" x="394" y="-1113.5" font-family="Helvetica,sans-Serif" font-size="10.00">&lt; UIdTypeMap, indexed</text>
<text text-anchor="start" x="394" y="-1102.5" font-family="Helvetica,sans-Serif" font-size="10.00">_by&lt; hashed_unique&lt; member</text>
<text text-anchor="start" x="394" y="-1091.5" font-family="Helvetica,sans-Serif" font-size="10.00">&lt; UIdTypeMap, boost::typeindex</text>
<text text-anchor="middle" x="506.5" y="-1080.5" font-family="Helvetica,sans-Serif" font-size="10.00">::type_index, &amp;UIdTypeMap::classIdx &gt; &gt; &gt; &gt;</text>
</a>
</g>
</g>
<!-- Node18&#45;&gt;Node17 -->
<g id="edge17" class="edge">
<title>Node18&#45;&gt;Node17</title>
<path fill="none" stroke="#9a32cd" stroke-dasharray="5,2" d="M509.6,-1063.15C517.67,-946.22 556.05,-612.3 735,-423 743.43,-414.08 754.96,-407.85 766.36,-403.52"/>
<polygon fill="#9a32cd" stroke="#9a32cd" points="506.11,-1062.92 508.95,-1073.13 513.09,-1063.38 506.11,-1062.92"/>
<text text-anchor="middle" x="681" y="-551" font-family="Helvetica,sans-Serif" font-size="10.00"> iFaceTypeMap</text>
</g>
<!-- Node19 -->
<g id="node19" class="node">
<title>Node19</title>
<g id="a_node19"><a xlink:title=" ">
<polygon fill="white" stroke="#bfbfbf" points="0,-1244.5 0,-1263.5 125,-1263.5 125,-1244.5 0,-1244.5"/>
<text text-anchor="middle" x="62.5" y="-1251.5" font-family="Helvetica,sans-Serif" font-size="10.00">multi_index_container</text>
</a>
</g>
</g>
<!-- Node19&#45;&gt;Node14 -->
<g id="edge41" class="edge">
<title>Node19&#45;&gt;Node14</title>
<path fill="none" stroke="#9a32cd" stroke-dasharray="5,2" d="M88.06,-1268.74C153.46,-1306.54 338.28,-1404 505.5,-1404 505.5,-1404 505.5,-1404 1330,-1404 1548.91,-1404 1652.86,-1383.49 1781,-1206 1806.08,-1171.25 1770.81,-1046.28 1799,-1014 1805.76,-1006.26 1814.87,-1001.21 1824.64,-997.96"/>
<polygon fill="#9a32cd" stroke="#9a32cd" points="89.69,-1265.64 79.29,-1263.61 86.16,-1271.68 89.69,-1265.64"/>
<text text-anchor="middle" x="961.5" y="-1484" font-family="Helvetica,sans-Serif" font-size="10.00"> adjacenciesPtr</text>
<text text-anchor="middle" x="961.5" y="-1473" font-family="Helvetica,sans-Serif" font-size="10.00">refinedEntitiesPtr</text>
<text text-anchor="middle" x="961.5" y="-1462" font-family="Helvetica,sans-Serif" font-size="10.00">finiteElementsEntitiesPtr</text>
<text text-anchor="middle" x="961.5" y="-1451" font-family="Helvetica,sans-Serif" font-size="10.00">dofsPtr</text>
<text text-anchor="middle" x="961.5" y="-1440" font-family="Helvetica,sans-Serif" font-size="10.00">entitiesPtr</text>
<text text-anchor="middle" x="961.5" y="-1429" font-family="Helvetica,sans-Serif" font-size="10.00">finiteElementsPtr</text>
<text text-anchor="middle" x="961.5" y="-1418" font-family="Helvetica,sans-Serif" font-size="10.00">refinedFiniteElementsPtr</text>
<text text-anchor="middle" x="961.5" y="-1407" font-family="Helvetica,sans-Serif" font-size="10.00">fieldsPtr</text>
</g>
<!-- Node19&#45;&gt;Node18 -->
<g id="edge18" class="edge">
<title>Node19&#45;&gt;Node18</title>
<path fill="none" stroke="orange" stroke-dasharray="5,2" d="M101.32,-1241.25C169.64,-1218.22 315.45,-1169.07 411.98,-1136.53"/>
<polygon fill="orange" stroke="orange" points="100.18,-1237.94 91.82,-1244.45 102.42,-1244.57 100.18,-1237.94"/>
<text text-anchor="start" x="143" y="-1261" font-family="Helvetica,sans-Serif" font-size="10.00"> &lt; UIdTypeMap, indexed</text>
<text text-anchor="start" x="143" y="-1250" font-family="Helvetica,sans-Serif" font-size="10.00">_by&lt; hashed_unique&lt; member</text>
<text text-anchor="start" x="143" y="-1239" font-family="Helvetica,sans-Serif" font-size="10.00">&lt; UIdTypeMap, boost::typeindex</text>
<text text-anchor="middle" x="255.5" y="-1228" font-family="Helvetica,sans-Serif" font-size="10.00">::type_index, &amp;UIdTypeMap::classIdx &gt; &gt; &gt; &gt;</text>
</g>
<!-- Node20 -->
<g id="node20" class="node">
<title>Node20</title>
<g id="a_node20"><a xlink:title=" ">
<polygon fill="white" stroke="#bfbfbf" points="738.5,-512.5 738.5,-531.5 879.5,-531.5 879.5,-512.5 738.5,-512.5"/>
<text text-anchor="middle" x="809" y="-519.5" font-family="Helvetica,sans-Serif" font-size="10.00">static constexpr Switches</text>
</a>
</g>
</g>
<!-- Node20&#45;&gt;Node16 -->
<g id="edge19" class="edge">
<title>Node20&#45;&gt;Node16</title>
<path fill="none" stroke="#9a32cd" stroke-dasharray="5,2" d="M889.91,-520.72C929.64,-520.51 978.37,-520.88 1022,-523 1043.46,-524.04 1067.04,-526.06 1087.48,-528.08"/>
<polygon fill="#9a32cd" stroke="#9a32cd" points="889.72,-517.22 879.74,-520.79 889.77,-524.22 889.72,-517.22"/>
<text text-anchor="middle" x="961.5" y="-603" font-family="Helvetica,sans-Serif" font-size="10.00"> CtxSetX_TT</text>
<text text-anchor="middle" x="961.5" y="-592" font-family="Helvetica,sans-Serif" font-size="10.00">CtxSetX_T</text>
<text text-anchor="middle" x="961.5" y="-581" font-family="Helvetica,sans-Serif" font-size="10.00">CtxSetA</text>
<text text-anchor="middle" x="961.5" y="-570" font-family="Helvetica,sans-Serif" font-size="10.00">CtxSetB</text>
<text text-anchor="middle" x="961.5" y="-559" font-family="Helvetica,sans-Serif" font-size="10.00">CtxSetTime</text>
<text text-anchor="middle" x="961.5" y="-548" font-family="Helvetica,sans-Serif" font-size="10.00">CtxSetNone</text>
<text text-anchor="middle" x="961.5" y="-537" font-family="Helvetica,sans-Serif" font-size="10.00">CtxSetF</text>
<text text-anchor="middle" x="961.5" y="-526" font-family="Helvetica,sans-Serif" font-size="10.00">CtxSetX</text>
</g>
<!-- Node21 -->
<g id="node21" class="node">
<title>Node21</title>
<g id="a_node21"><a xlink:title=" ">
<polygon fill="white" stroke="#bfbfbf" points="791.5,-432.5 791.5,-451.5 826.5,-451.5 826.5,-432.5 791.5,-432.5"/>
<text text-anchor="middle" x="809" y="-439.5" font-family="Helvetica,sans-Serif" font-size="10.00">Mat</text>
</a>
</g>
</g>
<!-- Node21&#45;&gt;Node15 -->
<g id="edge25" class="edge">
<title>Node21&#45;&gt;Node15</title>
<path fill="none" stroke="#9a32cd" stroke-dasharray="5,2" d="M836.41,-436.83C851.67,-432.65 870.3,-425.37 883,-413 897.55,-398.83 888.18,-386.75 901,-371 948.56,-312.58 968.14,-296.6 1040,-274 1200.3,-223.6 1405.47,-293.57 1474.02,-320.34"/>
<polygon fill="#9a32cd" stroke="#9a32cd" points="835.39,-433.47 826.5,-439.25 837.05,-440.28 835.39,-433.47"/>
<text text-anchor="middle" x="1141.5" y="-288" font-family="Helvetica,sans-Serif" font-size="10.00"> ksp_A</text>
<text text-anchor="middle" x="1141.5" y="-277" font-family="Helvetica,sans-Serif" font-size="10.00">ksp_B</text>
</g>
<!-- Node21&#45;&gt;Node16 -->
<g id="edge20" class="edge">
<title>Node21&#45;&gt;Node16</title>
<path fill="none" stroke="#9a32cd" stroke-dasharray="5,2" d="M836.4,-434.57C880.13,-424 968.09,-410.29 1022,-453 1044.49,-470.82 1018.76,-495.7 1040,-515 1052.81,-526.64 1070.44,-532.17 1087.37,-534.56"/>
<polygon fill="#9a32cd" stroke="#9a32cd" points="835.35,-431.23 826.53,-437.09 837.08,-438.01 835.35,-431.23"/>
<text text-anchor="middle" x="961.5" y="-467" font-family="Helvetica,sans-Serif" font-size="10.00"> A</text>
<text text-anchor="middle" x="961.5" y="-456" font-family="Helvetica,sans-Serif" font-size="10.00">B</text>
</g>
<!-- Node21&#45;&gt;Node26 -->
<g id="edge30" class="edge">
<title>Node21&#45;&gt;Node26</title>
<path fill="none" stroke="#9a32cd" stroke-dasharray="5,2" d="M836.23,-430.81C904.2,-403.34 1091.28,-337.5 1243,-375 1344.07,-399.98 1449.33,-473.16 1484.9,-499.45"/>
<polygon fill="#9a32cd" stroke="#9a32cd" points="834.65,-427.68 826.73,-434.72 837.31,-434.15 834.65,-427.68"/>
<text text-anchor="middle" x="1141.5" y="-389" font-family="Helvetica,sans-Serif" font-size="10.00"> snes_A</text>
<text text-anchor="middle" x="1141.5" y="-378" font-family="Helvetica,sans-Serif" font-size="10.00">snes_B</text>
</g>
<!-- Node21&#45;&gt;Node29 -->
<g id="edge35" class="edge">
<title>Node21&#45;&gt;Node29</title>
<path fill="none" stroke="#9a32cd" stroke-dasharray="5,2" d="M836.33,-451.72C854.48,-458.37 879.16,-467.34 901,-475 954.58,-493.79 979.4,-478.46 1022,-516 1035.72,-528.09 1025.17,-542.3 1040,-553 1105.04,-599.93 1332.95,-557.73 1397,-606 1466.72,-658.55 1490.33,-771.92 1496.01,-806.07"/>
<polygon fill="#9a32cd" stroke="#9a32cd" points="837.33,-448.35 826.73,-448.19 834.91,-454.92 837.33,-448.35"/>
<text text-anchor="middle" x="1141.5" y="-593" font-family="Helvetica,sans-Serif" font-size="10.00"> ts_A</text>
<text text-anchor="middle" x="1141.5" y="-582" font-family="Helvetica,sans-Serif" font-size="10.00">ts_B</text>
</g>
<!-- Node22 -->
<g id="node22" class="node">
<title>Node22</title>
<g id="a_node22"><a xlink:title=" ">
<polygon fill="white" stroke="#bfbfbf" points="772.5,-623.5 772.5,-642.5 845.5,-642.5 845.5,-623.5 772.5,-623.5"/>
<text text-anchor="middle" x="809" y="-630.5" font-family="Helvetica,sans-Serif" font-size="10.00">bitset&lt; 8 &gt;</text>
</a>
</g>
</g>
<!-- Node22&#45;&gt;Node16 -->
<g id="edge21" class="edge">
<title>Node22&#45;&gt;Node16</title>
<path fill="none" stroke="#9a32cd" stroke-dasharray="5,2" d="M855.99,-633.86C910.53,-633.94 997.2,-630.78 1022,-611 1041.45,-595.49 1021.61,-574.75 1040,-558 1052.93,-546.22 1070.59,-539.93 1087.5,-536.66"/>
<polygon fill="#9a32cd" stroke="#9a32cd" points="855.88,-630.36 845.86,-633.81 855.85,-637.36 855.88,-630.36"/>
<text text-anchor="middle" x="961.5" y="-636" font-family="Helvetica,sans-Serif" font-size="10.00"> data_ctx</text>
</g>
<!-- Node23 -->
<g id="node23" class="node">
<title>Node23</title>
<g id="a_node23"><a xlink:title=" ">
<polygon fill="white" stroke="#bfbfbf" points="792,-689.5 792,-708.5 826,-708.5 826,-689.5 792,-689.5"/>
<text text-anchor="middle" x="809" y="-696.5" font-family="Helvetica,sans-Serif" font-size="10.00">Vec</text>
</a>
</g>
</g>
<!-- Node23&#45;&gt;Node15 -->
<g id="edge26" class="edge">
<title>Node23&#45;&gt;Node15</title>
<path fill="none" stroke="#9a32cd" stroke-dasharray="5,2" d="M835.9,-689.39C852.32,-681.86 872.4,-669.66 883,-652 908.12,-610.13 866.87,-467.92 901,-433 954.42,-378.35 1176.15,-434.03 1243,-397 1254.36,-390.71 1249.9,-380.73 1261,-374 1290.72,-355.97 1381.83,-342.78 1441.89,-335.76"/>
<polygon fill="#9a32cd" stroke="#9a32cd" points="834.1,-686.36 826.26,-693.49 836.84,-692.8 834.1,-686.36"/>
<text text-anchor="middle" x="1141.5" y="-413" font-family="Helvetica,sans-Serif" font-size="10.00"> ksp_f</text>
</g>
<!-- Node23&#45;&gt;Node16 -->
<g id="edge22" class="edge">
<title>Node23&#45;&gt;Node16</title>
<path fill="none" stroke="#9a32cd" stroke-dasharray="5,2" d="M835.76,-689.14C853.82,-682.5 878.64,-673.9 901,-668 953.93,-654.03 982.98,-683.39 1022,-645 1050.15,-617.31 1012.51,-586.34 1040,-558 1052.37,-545.25 1070.2,-538.78 1087.42,-535.63"/>
<polygon fill="#9a32cd" stroke="#9a32cd" points="834.37,-685.92 826.23,-692.7 836.82,-692.48 834.37,-685.92"/>
<text text-anchor="middle" x="961.5" y="-704" font-family="Helvetica,sans-Serif" font-size="10.00"> f</text>
<text text-anchor="middle" x="961.5" y="-693" font-family="Helvetica,sans-Serif" font-size="10.00">x</text>
<text text-anchor="middle" x="961.5" y="-682" font-family="Helvetica,sans-Serif" font-size="10.00">x_t</text>
<text text-anchor="middle" x="961.5" y="-671" font-family="Helvetica,sans-Serif" font-size="10.00">x_tt</text>
</g>
<!-- Node23&#45;&gt;Node26 -->
<g id="edge31" class="edge">
<title>Node23&#45;&gt;Node26</title>
<path fill="none" stroke="#9a32cd" stroke-dasharray="5,2" d="M835.61,-710.29C878.85,-727.44 966.98,-753.85 1022,-712 1045.86,-693.85 1018.07,-667.43 1040,-647 1107.35,-584.26 1154.58,-631.59 1243,-606 1331.57,-580.37 1432.87,-537.5 1476.12,-518.53"/>
<polygon fill="#9a32cd" stroke="#9a32cd" points="836.7,-706.96 826.12,-706.39 834.04,-713.43 836.7,-706.96"/>
<text text-anchor="middle" x="1141.5" y="-661" font-family="Helvetica,sans-Serif" font-size="10.00"> snes_x</text>
<text text-anchor="middle" x="1141.5" y="-650" font-family="Helvetica,sans-Serif" font-size="10.00">snes_f</text>
</g>
<!-- Node23&#45;&gt;Node29 -->
<g id="edge39" class="edge">
<title>Node23&#45;&gt;Node29</title>
<path fill="none" stroke="#9a32cd" stroke-dasharray="5,2" d="M835.63,-711.03C853.76,-719.43 878.72,-730.74 901,-740 962.06,-765.37 976.28,-775.37 1040,-793 1128.31,-817.43 1158.62,-793.28 1243,-829 1252.09,-832.85 1251.61,-838.96 1261,-842 1334.89,-865.89 1427.8,-840.67 1471.94,-825.59"/>
<polygon fill="#9a32cd" stroke="#9a32cd" points="836.86,-707.75 826.31,-706.7 833.9,-714.09 836.86,-707.75"/>
<text text-anchor="middle" x="1141.5" y="-865" font-family="Helvetica,sans-Serif" font-size="10.00"> ts_u</text>
<text text-anchor="middle" x="1141.5" y="-854" font-family="Helvetica,sans-Serif" font-size="10.00">ts_F</text>
<text text-anchor="middle" x="1141.5" y="-843" font-family="Helvetica,sans-Serif" font-size="10.00">ts_u_t</text>
<text text-anchor="middle" x="1141.5" y="-832" font-family="Helvetica,sans-Serif" font-size="10.00">ts_u_tt</text>
</g>
<!-- Node24 -->
<g id="node24" class="node">
<title>Node24</title>
<g id="a_node24"><a xlink:title=" ">
<polygon fill="white" stroke="#bfbfbf" points="1124,-305.5 1124,-324.5 1159,-324.5 1159,-305.5 1124,-305.5"/>
<text text-anchor="middle" x="1141.5" y="-312.5" font-family="Helvetica,sans-Serif" font-size="10.00">KSP</text>
</a>
</g>
</g>
<!-- Node24&#45;&gt;Node15 -->
<g id="edge23" class="edge">
<title>Node24&#45;&gt;Node15</title>
<path fill="none" stroke="#9a32cd" stroke-dasharray="5,2" d="M1169.29,-316.13C1227.06,-318.57 1364.41,-324.38 1441.88,-327.65"/>
<polygon fill="#9a32cd" stroke="#9a32cd" points="1169.29,-312.63 1159.15,-315.7 1168.99,-319.62 1169.29,-312.63"/>
<text text-anchor="middle" x="1329" y="-328" font-family="Helvetica,sans-Serif" font-size="10.00"> ksp</text>
</g>
<!-- Node25 -->
<g id="node25" class="node">
<title>Node25</title>
<g id="a_node25"><a xlink:title=" ">
<polygon fill="white" stroke="#bfbfbf" points="1104.5,-209.5 1104.5,-228.5 1178.5,-228.5 1178.5,-209.5 1104.5,-209.5"/>
<text text-anchor="middle" x="1141.5" y="-216.5" font-family="Helvetica,sans-Serif" font-size="10.00">KSPContext</text>
</a>
</g>
</g>
<!-- Node25&#45;&gt;Node15 -->
<g id="edge24" class="edge">
<title>Node25&#45;&gt;Node15</title>
<path fill="none" stroke="#9a32cd" stroke-dasharray="5,2" d="M1188.8,-217.48C1252.83,-216.25 1364.25,-217.59 1397,-240 1412.09,-250.33 1402.86,-263.33 1415,-277 1432.18,-296.35 1458.05,-311.4 1476.22,-320.44"/>
<polygon fill="#9a32cd" stroke="#9a32cd" points="1188.49,-213.98 1178.57,-217.7 1188.64,-220.98 1188.49,-213.98"/>
<text text-anchor="middle" x="1329" y="-243" font-family="Helvetica,sans-Serif" font-size="10.00"> ksp_ctx</text>
</g>
<!-- Node26&#45;&gt;Node14 -->
<g id="edge27" class="edge">
<title>Node26&#45;&gt;Node14</title>
<path fill="none" stroke="midnightblue" d="M1517.37,-525.75C1567.99,-574.32 1713.05,-721.56 1781,-875 1799.28,-916.29 1767.7,-942.45 1799,-975 1805.99,-982.27 1815.1,-987.06 1824.76,-990.16"/>
<polygon fill="midnightblue" stroke="midnightblue" points="1519.48,-522.93 1509.82,-518.57 1514.66,-528 1519.48,-522.93"/>
</g>
<!-- Node27 -->
<g id="node27" class="node">
<title>Node27</title>
<g id="a_node27"><a xlink:title=" ">
<polygon fill="white" stroke="#bfbfbf" points="1120.5,-448.5 1120.5,-467.5 1162.5,-467.5 1162.5,-448.5 1120.5,-448.5"/>
<text text-anchor="middle" x="1141.5" y="-455.5" font-family="Helvetica,sans-Serif" font-size="10.00">SNES</text>
</a>
</g>
</g>
<!-- Node27&#45;&gt;Node26 -->
<g id="edge29" class="edge">
<title>Node27&#45;&gt;Node26</title>
<path fill="none" stroke="#9a32cd" stroke-dasharray="5,2" d="M1172.85,-458.47C1220.84,-459.67 1317,-463.93 1397,-479 1422.59,-483.82 1450.95,-492.62 1471,-499.44"/>
<polygon fill="#9a32cd" stroke="#9a32cd" points="1172.89,-454.97 1162.82,-458.25 1172.74,-461.97 1172.89,-454.97"/>
<text text-anchor="middle" x="1329" y="-482" font-family="Helvetica,sans-Serif" font-size="10.00"> snes</text>
</g>
<!-- Node28 -->
<g id="node28" class="node">
<title>Node28</title>
<g id="a_node28"><a xlink:title=" ">
<polygon fill="white" stroke="#bfbfbf" points="1101.5,-486.5 1101.5,-505.5 1181.5,-505.5 1181.5,-486.5 1101.5,-486.5"/>
<text text-anchor="middle" x="1141.5" y="-493.5" font-family="Helvetica,sans-Serif" font-size="10.00">SNESContext</text>
</a>
</g>
</g>
<!-- Node28&#45;&gt;Node26 -->
<g id="edge32" class="edge">
<title>Node28&#45;&gt;Node26</title>
<path fill="none" stroke="#9a32cd" stroke-dasharray="5,2" d="M1191.93,-494.91C1243.24,-494.13 1325.81,-493.84 1397,-498 1410.58,-498.79 1425.15,-500.12 1438.86,-501.57"/>
<polygon fill="#9a32cd" stroke="#9a32cd" points="1191.72,-491.41 1181.78,-495.08 1191.84,-498.41 1191.72,-491.41"/>
<text text-anchor="middle" x="1329" y="-501" font-family="Helvetica,sans-Serif" font-size="10.00"> snes_ctx</text>
</g>
<!-- Node29&#45;&gt;Node14 -->
<g id="edge33" class="edge">
<title>Node29&#45;&gt;Node14</title>
<path fill="none" stroke="midnightblue" d="M1522.69,-831.15C1571.7,-862.51 1690.27,-934.97 1799,-975 1809.19,-978.75 1820.34,-981.88 1831.14,-984.45"/>
<polygon fill="midnightblue" stroke="midnightblue" points="1524.4,-828.09 1514.1,-825.61 1520.61,-833.97 1524.4,-828.09"/>
</g>
<!-- Node30 -->
<g id="node30" class="node">
<title>Node30</title>
<g id="a_node30"><a xlink:title=" ">
<polygon fill="white" stroke="#bfbfbf" points="1109,-678.5 1109,-697.5 1174,-697.5 1174,-678.5 1109,-678.5"/>
<text text-anchor="middle" x="1141.5" y="-685.5" font-family="Helvetica,sans-Serif" font-size="10.00">PetscReal</text>
</a>
</g>
</g>
<!-- Node30&#45;&gt;Node29 -->
<g id="edge36" class="edge">
<title>Node30&#45;&gt;Node29</title>
<path fill="none" stroke="#9a32cd" stroke-dasharray="5,2" d="M1184.33,-685.53C1203.73,-682.61 1226.16,-676.52 1243,-664 1255.78,-654.49 1247.19,-640.95 1261,-633 1313.38,-602.84 1344.98,-602.22 1397,-633 1464.07,-672.68 1489.37,-774.79 1495.75,-806.48"/>
<polygon fill="#9a32cd" stroke="#9a32cd" points="1183.69,-682.09 1174.21,-686.82 1184.57,-689.03 1183.69,-682.09"/>
<text text-anchor="middle" x="1329" y="-669" font-family="Helvetica,sans-Serif" font-size="10.00"> ts_a</text>
<text text-anchor="middle" x="1329" y="-658" font-family="Helvetica,sans-Serif" font-size="10.00">ts_t</text>
<text text-anchor="middle" x="1329" y="-647" font-family="Helvetica,sans-Serif" font-size="10.00">ts_dt</text>
<text text-anchor="middle" x="1329" y="-636" font-family="Helvetica,sans-Serif" font-size="10.00">ts_aa</text>
</g>
<!-- Node31 -->
<g id="node31" class="node">
<title>Node31</title>
<g id="a_node31"><a xlink:title=" ">
<polygon fill="white" stroke="#bfbfbf" points="1108,-882.5 1108,-901.5 1175,-901.5 1175,-882.5 1108,-882.5"/>
<text text-anchor="middle" x="1141.5" y="-889.5" font-family="Helvetica,sans-Serif" font-size="10.00">TSContext</text>
</a>
</g>
</g>
<!-- Node31&#45;&gt;Node29 -->
<g id="edge37" class="edge">
<title>Node31&#45;&gt;Node29</title>
<path fill="none" stroke="#9a32cd" stroke-dasharray="5,2" d="M1185.08,-893.51C1236.43,-894.16 1324.83,-891.51 1397,-870 1430.41,-860.04 1465.38,-838.25 1483.98,-825.61"/>
<polygon fill="#9a32cd" stroke="#9a32cd" points="1185.08,-890.01 1175.02,-893.34 1184.95,-897.01 1185.08,-890.01"/>
<text text-anchor="middle" x="1329" y="-894" font-family="Helvetica,sans-Serif" font-size="10.00"> ts_ctx</text>
</g>
<!-- Node32 -->
<g id="node32" class="node">
<title>Node32</title>
<g id="a_node32"><a xlink:title=" ">
<polygon fill="white" stroke="#bfbfbf" points="1113.5,-764.5 1113.5,-783.5 1169.5,-783.5 1169.5,-764.5 1113.5,-764.5"/>
<text text-anchor="middle" x="1141.5" y="-771.5" font-family="Helvetica,sans-Serif" font-size="10.00">PetscInt</text>
</a>
</g>
</g>
<!-- Node32&#45;&gt;Node29 -->
<g id="edge38" class="edge">
<title>Node32&#45;&gt;Node29</title>
<path fill="none" stroke="#9a32cd" stroke-dasharray="5,2" d="M1179.9,-779.34C1199.33,-782.99 1223.1,-788.87 1243,-798 1251.97,-802.11 1251.64,-807.86 1261,-811 1321.55,-831.29 1395.8,-828.77 1444.77,-823.67"/>
<polygon fill="#9a32cd" stroke="#9a32cd" points="1180.35,-775.86 1169.89,-777.58 1179.14,-782.76 1180.35,-775.86"/>
<text text-anchor="middle" x="1329" y="-830" font-family="Helvetica,sans-Serif" font-size="10.00"> ts_step</text>
</g>
<!-- Node33 -->
<g id="node33" class="node">
<title>Node33</title>
<g id="a_node33"><a xlink:title=" ">
<polygon fill="white" stroke="#bfbfbf" points="1127,-726.5 1127,-745.5 1156,-745.5 1156,-726.5 1127,-726.5"/>
<text text-anchor="middle" x="1141.5" y="-733.5" font-family="Helvetica,sans-Serif" font-size="10.00">TS</text>
</a>
</g>
</g>
<!-- Node33&#45;&gt;Node29 -->
<g id="edge40" class="edge">
<title>Node33&#45;&gt;Node29</title>
<path fill="none" stroke="#9a32cd" stroke-dasharray="5,2" d="M1166.4,-735.99C1187.84,-736.99 1219.47,-741.02 1243,-755 1253.86,-761.45 1250.03,-770.73 1261,-777 1314.1,-807.34 1336.67,-787.94 1397,-798 1412.82,-800.64 1430.02,-803.66 1445.64,-806.47"/>
<polygon fill="#9a32cd" stroke="#9a32cd" points="1166.3,-732.49 1156.21,-735.71 1166.11,-739.49 1166.3,-732.49"/>
<text text-anchor="middle" x="1329" y="-801" font-family="Helvetica,sans-Serif" font-size="10.00"> ts</text>
</g>
<!-- Node34 -->
<g id="node34" class="node">
<title>Node34</title>
<g id="a_node34"><a xlink:title=" ">
<polygon fill="white" stroke="#bfbfbf" points="1454,-1159.5 1454,-1178.5 1543,-1178.5 1543,-1159.5 1454,-1159.5"/>
<text text-anchor="middle" x="1498.5" y="-1166.5" font-family="Helvetica,sans-Serif" font-size="10.00">pair&lt; int, int &gt;</text>
</a>
</g>
</g>
<!-- Node34&#45;&gt;Node14 -->
<g id="edge42" class="edge">
<title>Node34&#45;&gt;Node14</title>
<path fill="none" stroke="#9a32cd" stroke-dasharray="5,2" d="M1544.22,-1180.79C1606.15,-1194.14 1717.55,-1206.96 1781,-1147 1824.35,-1106.03 1758.85,-1058.11 1799,-1014 1805.91,-1006.4 1815.1,-1001.42 1824.89,-998.19"/>
<polygon fill="#9a32cd" stroke="#9a32cd" points="1544.88,-1177.35 1534.36,-1178.57 1543.34,-1184.18 1544.88,-1177.35"/>
<text text-anchor="middle" x="1690.5" y="-1194" font-family="Helvetica,sans-Serif" font-size="10.00"> loHiFERank</text>
</g>
<!-- Node35 -->
<g id="node35" class="node">
<title>Node35</title>
<g id="a_node35"><a xlink:title=" ">
<polygon fill="white" stroke="#bfbfbf" points="1428.5,-1121.5 1428.5,-1140.5 1568.5,-1140.5 1568.5,-1121.5 1428.5,-1121.5"/>
<text text-anchor="middle" x="1498.5" y="-1128.5" font-family="Helvetica,sans-Serif" font-size="10.00">weak_ptr&lt; CacheTuple &gt;</text>
</a>
</g>
</g>
<!-- Node35&#45;&gt;Node14 -->
<g id="edge43" class="edge">
<title>Node35&#45;&gt;Node14</title>
<path fill="none" stroke="#9a32cd" stroke-dasharray="5,2" d="M1578.58,-1135.15C1651.3,-1137.18 1752.11,-1134.9 1781,-1109 1813,-1080.32 1769.25,-1045.01 1799,-1014 1806,-1006.7 1815.11,-1001.83 1824.78,-998.63"/>
<polygon fill="#9a32cd" stroke="#9a32cd" points="1578.61,-1131.65 1568.51,-1134.84 1578.4,-1138.64 1578.61,-1131.65"/>
<text text-anchor="middle" x="1690.5" y="-1138" font-family="Helvetica,sans-Serif" font-size="10.00"> cacheWeakPtr</text>
</g>
<!-- Node36 -->
<g id="node36" class="node">
<title>Node36</title>
<g id="a_node36"><a xlink:title=" ">
<polygon fill="white" stroke="#bfbfbf" points="1442.5,-1083.5 1442.5,-1102.5 1554.5,-1102.5 1554.5,-1083.5 1442.5,-1083.5"/>
<text text-anchor="middle" x="1498.5" y="-1090.5" font-family="Helvetica,sans-Serif" font-size="10.00">unique_ptr&lt; bool &gt;</text>
</a>
</g>
</g>
<!-- Node36&#45;&gt;Node14 -->
<g id="edge44" class="edge">
<title>Node36&#45;&gt;Node14</title>
<path fill="none" stroke="#9a32cd" stroke-dasharray="5,2" d="M1564.64,-1088.04C1645.13,-1081.65 1772.57,-1070.6 1781,-1064 1799.6,-1049.45 1781.35,-1029.7 1799,-1014 1806.33,-1007.48 1815.37,-1002.97 1824.81,-999.87"/>
<polygon fill="#9a32cd" stroke="#9a32cd" points="1564.28,-1084.56 1554.59,-1088.83 1564.83,-1091.54 1564.28,-1084.56"/>
<text text-anchor="middle" x="1690.5" y="-1098" font-family="Helvetica,sans-Serif" font-size="10.00"> matAssembleSwitch</text>
<text text-anchor="middle" x="1690.5" y="-1087" font-family="Helvetica,sans-Serif" font-size="10.00">vecAssembleSwitch</text>
</g>
<!-- Node37 -->
<g id="node37" class="node">
<title>Node37</title>
<g id="a_node37"><a xlink:title=" ">
<polygon fill="white" stroke="#bfbfbf" points="1127,-171.5 1127,-190.5 1156,-190.5 1156,-171.5 1127,-171.5"/>
<text text-anchor="middle" x="1141.5" y="-178.5" font-family="Helvetica,sans-Serif" font-size="10.00">int</text>
</a>
</g>
</g>
<!-- Node37&#45;&gt;Node2 -->
<g id="edge86" class="edge">
<title>Node37&#45;&gt;Node2</title>
<path fill="none" stroke="#9a32cd" stroke-dasharray="5,2" d="M1166.18,-181C1223.21,-181 1372.7,-181 1497.5,-181 1497.5,-181 1497.5,-181 3128.5,-181 3209.18,-181 3302.15,-160.21 3351.32,-147.54"/>
<polygon fill="#9a32cd" stroke="#9a32cd" points="1166.04,-177.5 1156.04,-181 1166.04,-184.5 1166.04,-177.5"/>
<text text-anchor="middle" x="2458" y="-206" font-family="Helvetica,sans-Serif" font-size="10.00"> nbIntegrationPts</text>
<text text-anchor="middle" x="2458" y="-195" font-family="Helvetica,sans-Serif" font-size="10.00">nbCols</text>
<text text-anchor="middle" x="2458" y="-184" font-family="Helvetica,sans-Serif" font-size="10.00">nbRows</text>
</g>
<!-- Node37&#45;&gt;Node14 -->
<g id="edge45" class="edge">
<title>Node37&#45;&gt;Node14</title>
<path fill="none" stroke="#9a32cd" stroke-dasharray="5,2" d="M1166.06,-183.84C1211.14,-189.43 1312.62,-202.86 1397,-220 1581.53,-257.49 1689.38,-234.5 1781,-399 1812.16,-454.94 1758.13,-925.71 1799,-975 1805.64,-983 1814.82,-988.1 1824.72,-991.26"/>
<polygon fill="#9a32cd" stroke="#9a32cd" points="1166.45,-180.36 1156.1,-182.61 1165.6,-187.31 1166.45,-180.36"/>
<text text-anchor="middle" x="1498.5" y="-286" font-family="Helvetica,sans-Serif" font-size="10.00"> sIze</text>
<text text-anchor="middle" x="1498.5" y="-275" font-family="Helvetica,sans-Serif" font-size="10.00">loopSize</text>
<text text-anchor="middle" x="1498.5" y="-264" font-family="Helvetica,sans-Serif" font-size="10.00">nInTheLoop</text>
<text text-anchor="middle" x="1498.5" y="-253" font-family="Helvetica,sans-Serif" font-size="10.00">rAnk</text>
</g>
<!-- Node37&#45;&gt;Node39 -->
<g id="edge57" class="edge">
<title>Node37&#45;&gt;Node39</title>
<path fill="none" stroke="#9a32cd" stroke-dasharray="5,2" d="M1166.23,-177.94C1189.59,-176.42 1224.4,-178.39 1243,-200 1277.61,-240.19 1225.44,-637.65 1261,-677 1301.92,-722.28 1355.65,-651.11 1397,-696 1444.8,-747.9 1376.43,-953.92 1415,-1013 1425.37,-1028.88 1443.7,-1039.05 1460.46,-1045.39"/>
<polygon fill="#9a32cd" stroke="#9a32cd" points="1165.74,-174.47 1156.1,-178.87 1166.38,-181.45 1165.74,-174.47"/>
<text text-anchor="middle" x="1329" y="-765" font-family="Helvetica,sans-Serif" font-size="10.00"> tagNameSize</text>
<text text-anchor="middle" x="1329" y="-754" font-family="Helvetica,sans-Serif" font-size="10.00">nbDofsRow</text>
<text text-anchor="middle" x="1329" y="-743" font-family="Helvetica,sans-Serif" font-size="10.00">nbLocDofsCol</text>
<text text-anchor="middle" x="1329" y="-732" font-family="Helvetica,sans-Serif" font-size="10.00">nbDofsCol</text>
<text text-anchor="middle" x="1329" y="-721" font-family="Helvetica,sans-Serif" font-size="10.00">nbGhostDofsRow</text>
<text text-anchor="middle" x="1329" y="-710" font-family="Helvetica,sans-Serif" font-size="10.00">nbGhostDofsCol</text>
<text text-anchor="middle" x="1329" y="-699" font-family="Helvetica,sans-Serif" font-size="10.00">nbLocDofsRow</text>
</g>
<!-- Node38 -->
<g id="node38" class="node">
<title>Node38</title>
<g id="a_node38"><a xlink:title=" ">
<polygon fill="white" stroke="#bfbfbf" points="1415,-984.5 1415,-1003.5 1582,-1003.5 1582,-984.5 1415,-984.5"/>
<text text-anchor="middle" x="1498.5" y="-991.5" font-family="Helvetica,sans-Serif" font-size="10.00">function&lt; MoFEMErrorCode()&gt;</text>
</a>
</g>
</g>
<!-- Node38&#45;&gt;Node14 -->
<g id="edge46" class="edge">
<title>Node38&#45;&gt;Node14</title>
<path fill="none" stroke="#9a32cd" stroke-dasharray="5,2" d="M1592.21,-994C1664.4,-994 1762.51,-994 1824.8,-994"/>
<polygon fill="#9a32cd" stroke="#9a32cd" points="1592.2,-990.5 1582.2,-994 1592.2,-997.5 1592.2,-990.5"/>
<text text-anchor="middle" x="1690.5" y="-1019" font-family="Helvetica,sans-Serif" font-size="10.00"> preProcessHook</text>
<text text-anchor="middle" x="1690.5" y="-1008" font-family="Helvetica,sans-Serif" font-size="10.00">operatorHook</text>
<text text-anchor="middle" x="1690.5" y="-997" font-family="Helvetica,sans-Serif" font-size="10.00">postProcessHook</text>
</g>
<!-- Node39&#45;&gt;Node14 -->
<g id="edge47" class="edge">
<title>Node39&#45;&gt;Node14</title>
<path fill="none" stroke="#9a32cd" stroke-dasharray="5,2" d="M1558.19,-1053.66C1628.61,-1051.34 1742.06,-1045.16 1781,-1029 1790.62,-1025.01 1789.68,-1018.64 1799,-1014 1807.78,-1009.63 1817.55,-1006.2 1827.26,-1003.5"/>
<polygon fill="#9a32cd" stroke="#9a32cd" points="1558.01,-1050.16 1548.12,-1053.97 1558.23,-1057.16 1558.01,-1050.16"/>
<text text-anchor="middle" x="1690.5" y="-1054" font-family="Helvetica,sans-Serif" font-size="10.00"> problemPtr</text>
</g>
<!-- Node40 -->
<g id="node40" class="node">
<title>Node40</title>
<g id="a_node40"><a xlink:title=" ">
<polygon fill="white" stroke="#bfbfbf" points="1058,-959 1058,-989 1225,-989 1225,-959 1058,-959"/>
<text text-anchor="start" x="1066" y="-977" font-family="Helvetica,sans-Serif" font-size="10.00">shared_ptr&lt; NumeredEntFinite</text>
<text text-anchor="middle" x="1141.5" y="-966" font-family="Helvetica,sans-Serif" font-size="10.00">Element_multiIndex &gt;</text>
</a>
</g>
</g>
<!-- Node40&#45;&gt;Node39 -->
<g id="edge48" class="edge">
<title>Node40&#45;&gt;Node39</title>
<path fill="none" stroke="#9a32cd" stroke-dasharray="5,2" d="M1235.23,-982.07C1284.01,-987.76 1344.44,-997.1 1397,-1012 1426.76,-1020.44 1459.37,-1035.56 1479.13,-1045.44"/>
<polygon fill="#9a32cd" stroke="#9a32cd" points="1235.34,-978.56 1225.01,-980.92 1234.55,-985.52 1235.34,-978.56"/>
<text text-anchor="middle" x="1329" y="-1015" font-family="Helvetica,sans-Serif" font-size="10.00"> numeredFiniteElementsPtr</text>
</g>
<!-- Node41 -->
<g id="node41" class="node">
<title>Node41</title>
<g id="a_node41"><a xlink:title=" ">
<polygon fill="white" stroke="#bfbfbf" points="1112,-920.5 1112,-939.5 1171,-939.5 1171,-920.5 1112,-920.5"/>
<text text-anchor="middle" x="1141.5" y="-927.5" font-family="Helvetica,sans-Serif" font-size="10.00">BitFEId *</text>
</a>
</g>
</g>
<!-- Node41&#45;&gt;Node39 -->
<g id="edge49" class="edge">
<title>Node41&#45;&gt;Node39</title>
<path fill="none" stroke="#9a32cd" stroke-dasharray="5,2" d="M1181.38,-925.46C1235.56,-921.31 1334.16,-921.95 1397,-971 1413.01,-983.5 1401.12,-998.17 1415,-1013 1429.17,-1028.14 1450.01,-1038.68 1467.19,-1045.42"/>
<polygon fill="#9a32cd" stroke="#9a32cd" points="1180.82,-921.99 1171.16,-926.34 1181.42,-928.97 1180.82,-921.99"/>
<text text-anchor="middle" x="1329" y="-974" font-family="Helvetica,sans-Serif" font-size="10.00"> tagBitFEId</text>
</g>
<!-- Node42 -->
<g id="node42" class="node">
<title>Node42</title>
<g id="a_node42"><a xlink:href="classEntityHandle.html" target="_top" xlink:title=" ">
<polygon fill="white" stroke="black" points="1101.5,-1310.5 1101.5,-1329.5 1181.5,-1329.5 1181.5,-1310.5 1101.5,-1310.5"/>
<text text-anchor="middle" x="1141.5" y="-1317.5" font-family="Helvetica,sans-Serif" font-size="10.00">EntityHandle</text>
</a>
</g>
</g>
<!-- Node42&#45;&gt;Node39 -->
<g id="edge50" class="edge">
<title>Node42&#45;&gt;Node39</title>
<path fill="none" stroke="#9a32cd" stroke-dasharray="5,2" d="M1191.91,-1314.6C1263.94,-1306.51 1390.01,-1291.38 1397,-1284 1429.2,-1249.98 1384.29,-1109.37 1415,-1074 1423.58,-1064.12 1436.16,-1058.82 1448.93,-1056.1"/>
<polygon fill="#9a32cd" stroke="#9a32cd" points="1191.25,-1311.15 1181.7,-1315.74 1192.03,-1318.11 1191.25,-1311.15"/>
<text text-anchor="middle" x="1329" y="-1308" font-family="Helvetica,sans-Serif" font-size="10.00"> meshset</text>
</g>
<!-- Node43 -->
<g id="node43" class="node">
<title>Node43</title>
<g id="a_node43"><a xlink:title=" ">
<polygon fill="white" stroke="#bfbfbf" points="1067,-1261 1067,-1291 1216,-1291 1216,-1261 1067,-1261"/>
<text text-anchor="start" x="1075" y="-1279" font-family="Helvetica,sans-Serif" font-size="10.00">shared_ptr&lt; MoFEM::</text>
<text text-anchor="middle" x="1141.5" y="-1268" font-family="Helvetica,sans-Serif" font-size="10.00">ComposedProblemsData &gt;</text>
</a>
</g>
</g>
<!-- Node43&#45;&gt;Node39 -->
<g id="edge51" class="edge">
<title>Node43&#45;&gt;Node39</title>
<path fill="none" stroke="#9a32cd" stroke-dasharray="5,2" d="M1226.17,-1272.64C1295.63,-1269.02 1384.93,-1262.07 1397,-1250 1424.8,-1222.2 1388.98,-1103.47 1415,-1074 1423.56,-1064.3 1435.98,-1059.03 1448.6,-1056.28"/>
<polygon fill="#9a32cd" stroke="#9a32cd" points="1225.89,-1269.15 1216.08,-1273.15 1226.24,-1276.14 1225.89,-1269.15"/>
<text text-anchor="middle" x="1329" y="-1273" font-family="Helvetica,sans-Serif" font-size="10.00"> composedProblemsData</text>
</g>
<!-- Node44 -->
<g id="node44" class="node">
<title>Node44</title>
<g id="a_node44"><a xlink:title=" ">
<polygon fill="white" stroke="#bfbfbf" points="1101,-1222.5 1101,-1241.5 1182,-1241.5 1182,-1222.5 1101,-1222.5"/>
<text text-anchor="middle" x="1141.5" y="-1229.5" font-family="Helvetica,sans-Serif" font-size="10.00">BitRefLevel *</text>
</a>
</g>
</g>
<!-- Node44&#45;&gt;Node39 -->
<g id="edge52" class="edge">
<title>Node44&#45;&gt;Node39</title>
<path fill="none" stroke="#9a32cd" stroke-dasharray="5,2" d="M1192.39,-1229.97C1262.33,-1226.63 1382.63,-1218.94 1397,-1205 1439.19,-1164.09 1375.35,-1117.38 1415,-1074 1423.73,-1064.45 1436.2,-1059.22 1448.82,-1056.47"/>
<polygon fill="#9a32cd" stroke="#9a32cd" points="1191.87,-1226.49 1182.04,-1230.45 1192.19,-1233.48 1191.87,-1226.49"/>
<text text-anchor="middle" x="1329" y="-1239" font-family="Helvetica,sans-Serif" font-size="10.00"> tagBitRefLevelMask</text>
<text text-anchor="middle" x="1329" y="-1228" font-family="Helvetica,sans-Serif" font-size="10.00">tagBitRefLevel</text>
</g>
<!-- Node45 -->
<g id="node45" class="node">
<title>Node45</title>
<g id="a_node45"><a xlink:title=" ">
<polygon fill="white" stroke="#bfbfbf" points="1056.5,-1173 1056.5,-1203 1226.5,-1203 1226.5,-1173 1056.5,-1173"/>
<text text-anchor="start" x="1064.5" y="-1191" font-family="Helvetica,sans-Serif" font-size="10.00">shared_ptr&lt; NumeredDofEntity</text>
<text text-anchor="middle" x="1141.5" y="-1180" font-family="Helvetica,sans-Serif" font-size="10.00">_multiIndex &gt;</text>
</a>
</g>
</g>
<!-- Node45&#45;&gt;Node39 -->
<g id="edge53" class="edge">
<title>Node45&#45;&gt;Node39</title>
<path fill="none" stroke="#9a32cd" stroke-dasharray="5,2" d="M1237.08,-1182.93C1304.42,-1178.43 1385.02,-1170.87 1397,-1160 1425.92,-1133.75 1387.67,-1101.89 1415,-1074 1423.95,-1064.87 1436.35,-1059.75 1448.81,-1056.97"/>
<polygon fill="#9a32cd" stroke="#9a32cd" points="1236.58,-1179.46 1226.83,-1183.6 1237.04,-1186.44 1236.58,-1179.46"/>
<text text-anchor="middle" x="1329" y="-1195" font-family="Helvetica,sans-Serif" font-size="10.00"> numeredRowDofsPtr</text>
<text text-anchor="middle" x="1329" y="-1184" font-family="Helvetica,sans-Serif" font-size="10.00">numeredColDofsPtr</text>
</g>
<!-- Node46 -->
<g id="node46" class="node">
<title>Node46</title>
<g id="a_node46"><a xlink:title=" ">
<polygon fill="white" stroke="#bfbfbf" points="1072.5,-1134.5 1072.5,-1153.5 1210.5,-1153.5 1210.5,-1134.5 1072.5,-1134.5"/>
<text text-anchor="middle" x="1141.5" y="-1141.5" font-family="Helvetica,sans-Serif" font-size="10.00">vector&lt; BlockFieldPair &gt;</text>
</a>
</g>
</g>
<!-- Node46&#45;&gt;Node39 -->
<g id="edge55" class="edge">
<title>Node46&#45;&gt;Node39</title>
<path fill="none" stroke="#9a32cd" stroke-dasharray="5,2" d="M1220.87,-1150.09C1274.89,-1150.37 1345.87,-1142.58 1397,-1107 1410.71,-1097.46 1401.69,-1084.1 1415,-1074 1424.72,-1066.63 1436.81,-1062.04 1448.71,-1059.2"/>
<polygon fill="#9a32cd" stroke="#9a32cd" points="1220.7,-1146.59 1210.65,-1149.94 1220.6,-1153.58 1220.7,-1146.59"/>
<text text-anchor="middle" x="1329" y="-1151" font-family="Helvetica,sans-Serif" font-size="10.00"> emptyFieldBlocks</text>
</g>
<!-- Node47 -->
<g id="node47" class="node">
<title>Node47</title>
<g id="a_node47"><a xlink:title=" ">
<polygon fill="white" stroke="#bfbfbf" points="1063.5,-1085 1063.5,-1115 1219.5,-1115 1219.5,-1085 1063.5,-1085"/>
<text text-anchor="start" x="1071.5" y="-1103" font-family="Helvetica,sans-Serif" font-size="10.00">shared_ptr&lt; MoFEM::</text>
<text text-anchor="middle" x="1141.5" y="-1092" font-family="Helvetica,sans-Serif" font-size="10.00">Problem::SubProblemData &gt;</text>
</a>
</g>
</g>
<!-- Node47&#45;&gt;Node39 -->
<g id="edge56" class="edge">
<title>Node47&#45;&gt;Node39</title>
<path fill="none" stroke="#9a32cd" stroke-dasharray="5,2" d="M1229.67,-1095.47C1278.98,-1092.15 1341.66,-1086.68 1397,-1078 1398.56,-1077.75 1429.1,-1070.75 1456.11,-1064.54"/>
<polygon fill="#9a32cd" stroke="#9a32cd" points="1229.43,-1091.97 1219.68,-1096.12 1229.89,-1098.96 1229.43,-1091.97"/>
<text text-anchor="middle" x="1329" y="-1095" font-family="Helvetica,sans-Serif" font-size="10.00"> subProblemData</text>
</g>
<!-- Node48 -->
<g id="node48" class="node">
<title>Node48</title>
<g id="a_node48"><a xlink:title=" ">
<polygon fill="white" stroke="#bfbfbf" points="1040,-1046.5 1040,-1065.5 1243,-1065.5 1243,-1046.5 1040,-1046.5"/>
<text text-anchor="middle" x="1141.5" y="-1053.5" font-family="Helvetica,sans-Serif" font-size="10.00">shared_ptr&lt; SequenceDofContainer &gt;</text>
</a>
</g>
</g>
<!-- Node48&#45;&gt;Node39 -->
<g id="edge58" class="edge">
<title>Node48&#45;&gt;Node39</title>
<path fill="none" stroke="#9a32cd" stroke-dasharray="5,2" d="M1253.66,-1055.69C1319.11,-1055.5 1398.61,-1055.28 1448.65,-1055.14"/>
<polygon fill="#9a32cd" stroke="#9a32cd" points="1253.27,-1052.19 1243.28,-1055.72 1253.29,-1059.19 1253.27,-1052.19"/>
<text text-anchor="middle" x="1329" y="-1069" font-family="Helvetica,sans-Serif" font-size="10.00"> sequenceRowDofContainer</text>
<text text-anchor="middle" x="1329" y="-1058" font-family="Helvetica,sans-Serif" font-size="10.00">sequenceColDofContainer</text>
</g>
<!-- Node49 -->
<g id="node49" class="node">
<title>Node49</title>
<g id="a_node49"><a xlink:title=" ">
<polygon fill="white" stroke="#bfbfbf" points="1097.5,-1008.5 1097.5,-1027.5 1185.5,-1027.5 1185.5,-1008.5 1097.5,-1008.5"/>
<text text-anchor="middle" x="1141.5" y="-1015.5" font-family="Helvetica,sans-Serif" font-size="10.00">BitProblemId *</text>
</a>
</g>
</g>
<!-- Node49&#45;&gt;Node39 -->
<g id="edge59" class="edge">
<title>Node49&#45;&gt;Node39</title>
<path fill="none" stroke="#9a32cd" stroke-dasharray="5,2" d="M1196.05,-1021.66C1247.62,-1025.41 1327.77,-1031.85 1397,-1040 1413.91,-1041.99 1432.35,-1044.61 1448.76,-1047.11"/>
<polygon fill="#9a32cd" stroke="#9a32cd" points="1196.04,-1018.15 1185.81,-1020.92 1195.54,-1025.13 1196.04,-1018.15"/>
<text text-anchor="middle" x="1329" y="-1043" font-family="Helvetica,sans-Serif" font-size="10.00"> tagId</text>
</g>
<!-- Node50 -->
<g id="node50" class="node">
<title>Node50</title>
<g id="a_node50"><a xlink:title=" ">
<polygon fill="white" stroke="#bfbfbf" points="1805,-935 1805,-965 1967,-965 1967,-935 1805,-935"/>
<text text-anchor="start" x="1813" y="-953" font-family="Helvetica,sans-Serif" font-size="10.00">shared_ptr&lt; const MoFEM</text>
<text text-anchor="middle" x="1886" y="-942" font-family="Helvetica,sans-Serif" font-size="10.00">::NumeredEntFiniteElement &gt;</text>
</a>
</g>
</g>
<!-- Node50&#45;&gt;Node13 -->
<g id="edge60" class="edge">
<title>Node50&#45;&gt;Node13</title>
<path fill="none" stroke="#9a32cd" stroke-dasharray="5,2" d="M1977.32,-960.39C2024.34,-965.84 2082.78,-972.68 2135,-979 2157.09,-981.67 2181.47,-984.7 2202.44,-987.34"/>
<polygon fill="#9a32cd" stroke="#9a32cd" points="1977.49,-956.88 1967.16,-959.21 1976.69,-963.84 1977.49,-956.88"/>
<text text-anchor="middle" x="2063" y="-982" font-family="Helvetica,sans-Serif" font-size="10.00"> numeredEntFiniteElementPtr</text>
</g>
<!-- Node51 -->
<g id="node51" class="node">
<title>Node51</title>
<g id="a_node51"><a xlink:title=" ">
<polygon fill="white" stroke="#bfbfbf" points="1864,-1075.5 1864,-1094.5 1908,-1094.5 1908,-1075.5 1864,-1075.5"/>
<text text-anchor="middle" x="1886" y="-1082.5" font-family="Helvetica,sans-Serif" font-size="10.00">string</text>
</a>
</g>
</g>
<!-- Node51&#45;&gt;Node4 -->
<g id="edge83" class="edge">
<title>Node51&#45;&gt;Node4</title>
<path fill="none" stroke="#9a32cd" stroke-dasharray="5,2" d="M1918.31,-1086.42C2015.05,-1089.66 2316.09,-1090.95 2539,-996 2697.6,-928.45 2855.49,-786.93 2905.08,-740.28"/>
<polygon fill="#9a32cd" stroke="#9a32cd" points="1918.17,-1082.92 1908.05,-1086.05 1917.91,-1089.91 1918.17,-1082.92"/>
<text text-anchor="middle" x="2458" y="-1060" font-family="Helvetica,sans-Serif" font-size="10.00"> colFieldName</text>
<text text-anchor="middle" x="2458" y="-1049" font-family="Helvetica,sans-Serif" font-size="10.00">rowFieldName</text>
</g>
<!-- Node51&#45;&gt;Node13 -->
<g id="edge61" class="edge">
<title>Node51&#45;&gt;Node13</title>
<path fill="none" stroke="#9a32cd" stroke-dasharray="5,2" d="M1917.84,-1077.68C1938.48,-1072.9 1966.29,-1066.7 1991,-1062 2054.67,-1049.89 2072.34,-1055.57 2135,-1039 2170.28,-1029.67 2209.6,-1013.83 2233.31,-1003.64"/>
<polygon fill="#9a32cd" stroke="#9a32cd" points="1916.98,-1074.28 1908.04,-1079.96 1918.57,-1081.1 1916.98,-1074.28"/>
<text text-anchor="middle" x="2063" y="-1065" font-family="Helvetica,sans-Serif" font-size="10.00"> feName</text>
</g>
<!-- Node52 -->
<g id="node52" class="node">
<title>Node52</title>
<g id="a_node52"><a xlink:title=" ">
<polygon fill="white" stroke="#bfbfbf" points="1804.5,-1023 1804.5,-1053 1967.5,-1053 1967.5,-1023 1804.5,-1023"/>
<text text-anchor="start" x="1812.5" y="-1041" font-family="Helvetica,sans-Serif" font-size="10.00">function&lt; bool(MoFEM</text>
<text text-anchor="middle" x="1886" y="-1030" font-family="Helvetica,sans-Serif" font-size="10.00">::FEMethod *fe_method_ptr)&gt;</text>
</a>
</g>
</g>
<!-- Node52&#45;&gt;Node13 -->
<g id="edge62" class="edge">
<title>Node52&#45;&gt;Node13</title>
<path fill="none" stroke="#9a32cd" stroke-dasharray="5,2" d="M1977.98,-1027.12C2048.52,-1018.69 2143.82,-1007.29 2202.26,-1000.31"/>
<polygon fill="#9a32cd" stroke="#9a32cd" points="1977.27,-1023.68 1967.76,-1028.34 1978.1,-1030.63 1977.27,-1023.68"/>
<text text-anchor="middle" x="2063" y="-1027" font-family="Helvetica,sans-Serif" font-size="10.00"> exeTestHook</text>
</g>
<!-- Node53 -->
<g id="node53" class="node">
<title>Node53</title>
<g id="a_node53"><a xlink:href="classdouble.html" target="_top" xlink:title=" ">
<polygon fill="white" stroke="black" points="2231,-798.5 2231,-817.5 2281,-817.5 2281,-798.5 2231,-798.5"/>
<text text-anchor="middle" x="2256" y="-805.5" font-family="Helvetica,sans-Serif" font-size="10.00">double</text>
</a>
</g>
</g>
<!-- Node53&#45;&gt;Node12 -->
<g id="edge63" class="edge">
<title>Node53&#45;&gt;Node12</title>
<path fill="none" stroke="#9a32cd" stroke-dasharray="5,2" d="M2291.53,-806.91C2344.88,-804.86 2450.42,-799.37 2539,-786 2560.9,-782.69 2585.09,-777.32 2604.42,-772.59"/>
<polygon fill="#9a32cd" stroke="#9a32cd" points="2291.14,-803.42 2281.28,-807.28 2291.4,-810.41 2291.14,-803.42"/>
<text text-anchor="middle" x="2458" y="-805" font-family="Helvetica,sans-Serif" font-size="10.00"> elementMeasure</text>
</g>
<!-- Node54 -->
<g id="node54" class="node">
<title>Node54</title>
<g id="a_node54"><a xlink:title=" ">
<polygon fill="white" stroke="#bfbfbf" points="2170,-738.5 2170,-779.5 2342,-779.5 2342,-738.5 2170,-738.5"/>
<text text-anchor="start" x="2178" y="-767.5" font-family="Helvetica,sans-Serif" font-size="10.00">array&lt; boost::shared</text>
<text text-anchor="start" x="2178" y="-756.5" font-family="Helvetica,sans-Serif" font-size="10.00">_ptr&lt; MoFEM::EntitiesFieldData</text>
<text text-anchor="middle" x="2256" y="-745.5" font-family="Helvetica,sans-Serif" font-size="10.00"> &gt;, LASTSPACE &gt;</text>
</a>
</g>
</g>
<!-- Node54&#45;&gt;Node12 -->
<g id="edge64" class="edge">
<title>Node54&#45;&gt;Node12</title>
<path fill="none" stroke="#9a32cd" stroke-dasharray="5,2" d="M2352.51,-759.99C2415.19,-760.65 2496.4,-761.49 2556.68,-762.12"/>
<polygon fill="#9a32cd" stroke="#9a32cd" points="2352.26,-756.49 2342.22,-759.89 2352.19,-763.49 2352.26,-756.49"/>
<text text-anchor="middle" x="2458" y="-775" font-family="Helvetica,sans-Serif" font-size="10.00"> derivedDataOnElement</text>
<text text-anchor="middle" x="2458" y="-764" font-family="Helvetica,sans-Serif" font-size="10.00">dataOnElement</text>
</g>
<!-- Node55 -->
<g id="node55" class="node">
<title>Node55</title>
<g id="a_node55"><a xlink:title=" ">
<polygon fill="white" stroke="#bfbfbf" points="2222,-700.5 2222,-719.5 2290,-719.5 2290,-700.5 2222,-700.5"/>
<text text-anchor="middle" x="2256" y="-707.5" font-family="Helvetica,sans-Serif" font-size="10.00">EntityType</text>
</a>
</g>
</g>
<!-- Node55&#45;&gt;Node12 -->
<g id="edge65" class="edge">
<title>Node55&#45;&gt;Node12</title>
<path fill="none" stroke="#9a32cd" stroke-dasharray="5,2" d="M2300.23,-714.67C2355.65,-720.82 2454.67,-732.33 2539,-745 2555.63,-747.5 2573.71,-750.57 2589.98,-753.47"/>
<polygon fill="#9a32cd" stroke="#9a32cd" points="2300.39,-711.17 2290.07,-713.55 2299.63,-718.12 2300.39,-711.17"/>
<text text-anchor="middle" x="2458" y="-748" font-family="Helvetica,sans-Serif" font-size="10.00"> lastEvaluatedElementEntityType</text>
</g>
<!-- Node56 -->
<g id="node56" class="node">
<title>Node56</title>
<g id="a_node56"><a xlink:href="structMoFEM_1_1DeprecatedCoreInterface.html" target="_top" xlink:title="Deprecated interface functions.">
<polygon fill="white" stroke="black" points="1600,-196.5 1600,-215.5 1781,-215.5 1781,-196.5 1600,-196.5"/>
<text text-anchor="middle" x="1690.5" y="-203.5" font-family="Helvetica,sans-Serif" font-size="10.00">MoFEM::DeprecatedCoreInterface</text>
</a>
</g>
</g>
<!-- Node56&#45;&gt;Node12 -->
<g id="edge66" class="edge">
<title>Node56&#45;&gt;Node12</title>
<path fill="none" stroke="#9a32cd" stroke-dasharray="5,2" d="M1721.33,-219.95C1738.95,-228.45 1761.54,-239.8 1781,-251 1952.16,-349.51 1966.3,-429.64 2153,-494 2234.39,-522.06 2478.2,-466.05 2539,-527 2573.17,-561.26 2525.26,-707.48 2557,-744 2560.24,-747.72 2564.04,-750.8 2568.2,-753.34"/>
<polygon fill="#9a32cd" stroke="#9a32cd" points="1722.64,-216.7 1712.11,-215.55 1719.62,-223.02 1722.64,-216.7"/>
<text text-anchor="middle" x="2063" y="-489" font-family="Helvetica,sans-Serif" font-size="10.00"> mField</text>
</g>
<!-- Node57&#45;&gt;Node56 -->
<g id="edge67" class="edge">
<title>Node57&#45;&gt;Node56</title>
<path fill="none" stroke="midnightblue" d="M1214.32,-151.27C1315.56,-162.93 1499.81,-184.15 1606.69,-196.46"/>
<polygon fill="midnightblue" stroke="midnightblue" points="1214.52,-147.77 1204.18,-150.1 1213.72,-154.73 1214.52,-147.77"/>
</g>
<!-- Node58 -->
<g id="node58" class="node">
<title>Node58</title>
<g id="a_node58"><a xlink:title=" ">
<polygon fill="white" stroke="#bfbfbf" points="2172.5,-591 2172.5,-643 2339.5,-643 2339.5,-591 2172.5,-591"/>
<text text-anchor="start" x="2180.5" y="-631" font-family="Helvetica,sans-Serif" font-size="10.00">function&lt; MoFEMErrorCode</text>
<text text-anchor="start" x="2180.5" y="-620" font-family="Helvetica,sans-Serif" font-size="10.00">(ForcesAndSourcesCore *fe</text>
<text text-anchor="start" x="2180.5" y="-609" font-family="Helvetica,sans-Serif" font-size="10.00">_raw_ptr, int order_row,</text>
<text text-anchor="middle" x="2256" y="-598" font-family="Helvetica,sans-Serif" font-size="10.00"> int order_col, int order_data)&gt;</text>
</a>
</g>
</g>
<!-- Node58&#45;&gt;Node12 -->
<g id="edge70" class="edge">
<title>Node58&#45;&gt;Node12</title>
<path fill="none" stroke="#9a32cd" stroke-dasharray="5,2" d="M2349.7,-595.16C2410.9,-586.6 2488.79,-587.76 2539,-633 2576.13,-666.45 2522.77,-707.59 2557,-744 2560.58,-747.81 2564.76,-750.94 2569.3,-753.49"/>
<polygon fill="#9a32cd" stroke="#9a32cd" points="2349,-591.73 2339.64,-596.68 2350.05,-598.65 2349,-591.73"/>
<text text-anchor="middle" x="2458" y="-636" font-family="Helvetica,sans-Serif" font-size="10.00"> setRuleHook</text>
</g>
<!-- Node59 -->
<g id="node59" class="node">
<title>Node59</title>
<g id="a_node59"><a xlink:title=" ">
<polygon fill="white" stroke="#bfbfbf" points="2155,-542 2155,-572 2357,-572 2357,-542 2155,-542"/>
<text text-anchor="start" x="2163" y="-560" font-family="Helvetica,sans-Serif" font-size="10.00">ptr_deque&lt; MoFEM::Forces</text>
<text text-anchor="middle" x="2256" y="-549" font-family="Helvetica,sans-Serif" font-size="10.00">AndSourcesCore::UserDataOperator &gt;</text>
</a>
</g>
</g>
<!-- Node59&#45;&gt;Node12 -->
<g id="edge71" class="edge">
<title>Node59&#45;&gt;Node12</title>
<path fill="none" stroke="#9a32cd" stroke-dasharray="5,2" d="M2322.7,-539.99C2386.75,-527.75 2482.5,-521.69 2539,-576 2566.07,-602.02 2532.03,-715.96 2557,-744 2560.38,-747.8 2564.35,-750.92 2568.68,-753.48"/>
<polygon fill="#9a32cd" stroke="#9a32cd" points="2321.82,-536.6 2312.71,-542 2323.2,-543.46 2321.82,-536.6"/>
<text text-anchor="middle" x="2458" y="-579" font-family="Helvetica,sans-Serif" font-size="10.00"> opPtrVector</text>
</g>
<!-- Node60 -->
<g id="node60" class="node">
<title>Node60</title>
<g id="a_node60"><a xlink:href="structMoFEM_1_1EntitiesFieldData.html" target="_top" xlink:title="data structure for finite element entity">
<polygon fill="white" stroke="black" points="2185,-662.5 2185,-681.5 2327,-681.5 2327,-662.5 2185,-662.5"/>
<text text-anchor="middle" x="2256" y="-669.5" font-family="Helvetica,sans-Serif" font-size="10.00">MoFEM::EntitiesFieldData</text>
</a>
</g>
</g>
<!-- Node60&#45;&gt;Node12 -->
<g id="edge72" class="edge">
<title>Node60&#45;&gt;Node12</title>
<path fill="none" stroke="#9a32cd" stroke-dasharray="5,2" d="M2321,-660.95C2393.75,-649.95 2506.63,-638.1 2539,-664 2567.46,-686.77 2531.24,-718.22 2557,-744 2560.8,-747.81 2565.2,-750.92 2569.94,-753.46"/>
<polygon fill="#9a32cd" stroke="#9a32cd" points="2320.36,-657.51 2311.02,-662.5 2321.43,-664.43 2320.36,-657.51"/>
<text text-anchor="middle" x="2458" y="-711" font-family="Helvetica,sans-Serif" font-size="10.00"> dataNoField</text>
<text text-anchor="middle" x="2458" y="-700" font-family="Helvetica,sans-Serif" font-size="10.00">dataL2</text>
<text text-anchor="middle" x="2458" y="-689" font-family="Helvetica,sans-Serif" font-size="10.00">dataH1</text>
<text text-anchor="middle" x="2458" y="-678" font-family="Helvetica,sans-Serif" font-size="10.00">dataHcurl</text>
<text text-anchor="middle" x="2458" y="-667" font-family="Helvetica,sans-Serif" font-size="10.00">dataHdiv</text>
</g>
<!-- Node61 -->
<g id="node61" class="node">
<title>Node61</title>
<g id="a_node61"><a xlink:title=" ">
<polygon fill="white" stroke="#bfbfbf" points="1805,-555 1805,-585 1967,-585 1967,-555 1805,-555"/>
<text text-anchor="start" x="1813" y="-573" font-family="Helvetica,sans-Serif" font-size="10.00">array&lt; std::bitset</text>
<text text-anchor="middle" x="1886" y="-562" font-family="Helvetica,sans-Serif" font-size="10.00">&lt; LASTBASE &gt;, LASTSPACE &gt;</text>
</a>
</g>
</g>
<!-- Node61&#45;&gt;Node60 -->
<g id="edge73" class="edge">
<title>Node61&#45;&gt;Node60</title>
<path fill="none" stroke="#9a32cd" stroke-dasharray="5,2" d="M1954.98,-553.18C2009.69,-543.94 2085.36,-541.41 2135,-582 2160.2,-602.61 2129.25,-630.73 2153,-653 2161.87,-661.32 2173.15,-666.57 2184.96,-669.79"/>
<polygon fill="#9a32cd" stroke="#9a32cd" points="1954.25,-549.76 1945.02,-554.98 1955.49,-556.65 1954.25,-549.76"/>
<text text-anchor="middle" x="2063" y="-596" font-family="Helvetica,sans-Serif" font-size="10.00"> brokenBasesOnSpaces</text>
<text text-anchor="middle" x="2063" y="-585" font-family="Helvetica,sans-Serif" font-size="10.00">basesOnSpaces</text>
</g>
<!-- Node62 -->
<g id="node62" class="node">
<title>Node62</title>
<g id="a_node62"><a xlink:title=" ">
<polygon fill="white" stroke="#bfbfbf" points="1809.5,-781.5 1809.5,-822.5 1962.5,-822.5 1962.5,-781.5 1809.5,-781.5"/>
<text text-anchor="start" x="1817.5" y="-810.5" font-family="Helvetica,sans-Serif" font-size="10.00">array&lt; boost::ptr_vector</text>
<text text-anchor="start" x="1817.5" y="-799.5" font-family="Helvetica,sans-Serif" font-size="10.00">&lt; MoFEM::EntitiesFieldData</text>
<text text-anchor="middle" x="1886" y="-788.5" font-family="Helvetica,sans-Serif" font-size="10.00">::EntData &gt;, MBMAXTYPE &gt;</text>
</a>
</g>
</g>
<!-- Node62&#45;&gt;Node60 -->
<g id="edge74" class="edge">
<title>Node62&#45;&gt;Node60</title>
<path fill="none" stroke="#9a32cd" stroke-dasharray="5,2" d="M1972.75,-808.97C2025.8,-808.51 2091.8,-798.59 2135,-759 2158.05,-737.88 2130.08,-712.27 2153,-691 2161.85,-682.79 2173.05,-677.58 2184.77,-674.35"/>
<polygon fill="#9a32cd" stroke="#9a32cd" points="1972.67,-805.47 1962.66,-808.94 1972.65,-812.47 1972.67,-805.47"/>
<text text-anchor="middle" x="2063" y="-811" font-family="Helvetica,sans-Serif" font-size="10.00"> dataOnEntities</text>
</g>
<!-- Node63 -->
<g id="node63" class="node">
<title>Node63</title>
<g id="a_node63"><a xlink:title=" ">
<polygon fill="white" stroke="#bfbfbf" points="1799,-732 1799,-762 1973,-762 1973,-732 1799,-732"/>
<text text-anchor="start" x="1807" y="-750" font-family="Helvetica,sans-Serif" font-size="10.00">array&lt; std::bitset</text>
<text text-anchor="middle" x="1886" y="-739" font-family="Helvetica,sans-Serif" font-size="10.00">&lt; LASTSPACE &gt;, MBMAXTYPE &gt;</text>
</a>
</g>
</g>
<!-- Node63&#45;&gt;Node60 -->
<g id="edge75" class="edge">
<title>Node63&#45;&gt;Node60</title>
<path fill="none" stroke="#9a32cd" stroke-dasharray="5,2" d="M1983.18,-745.16C2030.88,-741.02 2088.16,-731 2135,-708 2144.88,-703.15 2143.19,-695.99 2153,-691 2162.87,-685.98 2173.89,-682.27 2184.93,-679.54"/>
<polygon fill="#9a32cd" stroke="#9a32cd" points="1982.84,-741.68 1973.15,-745.96 1983.4,-748.66 1982.84,-741.68"/>
<text text-anchor="middle" x="2063" y="-747" font-family="Helvetica,sans-Serif" font-size="10.00"> spacesOnEntities</text>
</g>
<!-- Node64 -->
<g id="node64" class="node">
<title>Node64</title>
<g id="a_node64"><a xlink:title=" ">
<polygon fill="white" stroke="#bfbfbf" points="1801.5,-644 1801.5,-674 1970.5,-674 1970.5,-644 1801.5,-644"/>
<text text-anchor="start" x="1809.5" y="-662" font-family="Helvetica,sans-Serif" font-size="10.00">array&lt; std::bitset</text>
<text text-anchor="middle" x="1886" y="-651" font-family="Helvetica,sans-Serif" font-size="10.00">&lt; LASTBASE &gt;, MBMAXTYPE &gt;</text>
</a>
</g>
</g>
<!-- Node64&#45;&gt;Node60 -->
<g id="edge76" class="edge">
<title>Node64&#45;&gt;Node60</title>
<path fill="none" stroke="#9a32cd" stroke-dasharray="5,2" d="M1980.54,-662.3C2044.11,-664.55 2126.86,-667.47 2184.81,-669.52"/>
<polygon fill="#9a32cd" stroke="#9a32cd" points="1980.62,-658.81 1970.5,-661.95 1980.38,-665.8 1980.62,-658.81"/>
<text text-anchor="middle" x="2063" y="-670" font-family="Helvetica,sans-Serif" font-size="10.00"> basesOnEntities</text>
</g>
<!-- Node65 -->
<g id="node65" class="node">
<title>Node65</title>
<g id="a_node65"><a xlink:title=" ">
<polygon fill="white" stroke="#bfbfbf" points="1830,-605.5 1830,-624.5 1942,-624.5 1942,-605.5 1830,-605.5"/>
<text text-anchor="middle" x="1886" y="-612.5" font-family="Helvetica,sans-Serif" font-size="10.00">UBlasMatrix&lt; int &gt;</text>
</a>
</g>
</g>
<!-- Node65&#45;&gt;Node60 -->
<g id="edge77" class="edge">
<title>Node65&#45;&gt;Node60</title>
<path fill="none" stroke="#9a32cd" stroke-dasharray="5,2" d="M1952.36,-609.06C2004.13,-607 2077.13,-610.11 2135,-636 2145.04,-640.49 2143.19,-648.01 2153,-653 2162.87,-658.02 2173.89,-661.73 2184.93,-664.46"/>
<polygon fill="#9a32cd" stroke="#9a32cd" points="1952.12,-605.57 1942.3,-609.54 1952.45,-612.56 1952.12,-605.57"/>
<text text-anchor="middle" x="2063" y="-650" font-family="Helvetica,sans-Serif" font-size="10.00"> facesNodesOrder</text>
<text text-anchor="middle" x="2063" y="-639" font-family="Helvetica,sans-Serif" font-size="10.00">facesNodes</text>
</g>
<!-- Node66 -->
<g id="node66" class="node">
<title>Node66</title>
<g id="a_node66"><a xlink:title=" ">
<polygon fill="white" stroke="#bfbfbf" points="1827.5,-693.5 1827.5,-712.5 1944.5,-712.5 1944.5,-693.5 1827.5,-693.5"/>
<text text-anchor="middle" x="1886" y="-700.5" font-family="Helvetica,sans-Serif" font-size="10.00">bitset&lt; LASTBASE &gt;</text>
</a>
</g>
</g>
<!-- Node66&#45;&gt;Node60 -->
<g id="edge78" class="edge">
<title>Node66&#45;&gt;Node60</title>
<path fill="none" stroke="#9a32cd" stroke-dasharray="5,2" d="M1955.11,-697.26C2020.49,-691.75 2118.8,-683.47 2184.86,-677.91"/>
<polygon fill="#9a32cd" stroke="#9a32cd" points="1954.58,-693.79 1944.9,-698.12 1955.16,-700.77 1954.58,-693.79"/>
<text text-anchor="middle" x="2063" y="-696" font-family="Helvetica,sans-Serif" font-size="10.00"> bAse</text>
</g>
<!-- Node67 -->
<g id="node67" class="node">
<title>Node67</title>
<g id="a_node67"><a xlink:title=" ">
<polygon fill="white" stroke="#bfbfbf" points="2193.5,-924.5 2193.5,-965.5 2318.5,-965.5 2318.5,-924.5 2193.5,-924.5"/>
<text text-anchor="start" x="2201.5" y="-953.5" font-family="Helvetica,sans-Serif" font-size="10.00">function&lt; int(int order</text>
<text text-anchor="start" x="2201.5" y="-942.5" font-family="Helvetica,sans-Serif" font-size="10.00">_row, int order_col, int</text>
<text text-anchor="middle" x="2256" y="-931.5" font-family="Helvetica,sans-Serif" font-size="10.00"> order_data)&gt;</text>
</a>
</g>
</g>
<!-- Node67&#45;&gt;Node12 -->
<g id="edge79" class="edge">
<title>Node67&#45;&gt;Node12</title>
<path fill="none" stroke="#9a32cd" stroke-dasharray="5,2" d="M2328.99,-946.56C2400.68,-946.85 2504.84,-943.5 2539,-923 2598.6,-887.23 2629.24,-801.73 2638.18,-772.78"/>
<polygon fill="#9a32cd" stroke="#9a32cd" points="2328.68,-943.06 2318.66,-946.49 2328.64,-950.06 2328.68,-943.06"/>
<text text-anchor="middle" x="2458" y="-949" font-family="Helvetica,sans-Serif" font-size="10.00"> getRuleHook</text>
</g>
<!-- Node68 -->
<g id="node68" class="node">
<title>Node68</title>
<g id="a_node68"><a xlink:title=" ">
<polygon fill="white" stroke="#bfbfbf" points="2195,-875 2195,-905 2317,-905 2317,-875 2195,-875"/>
<text text-anchor="start" x="2203" y="-893" font-family="Helvetica,sans-Serif" font-size="10.00">shared_ptr&lt; MoFEM::</text>
<text text-anchor="middle" x="2256" y="-882" font-family="Helvetica,sans-Serif" font-size="10.00">BaseFunction &gt;</text>
</a>
</g>
</g>
<!-- Node68&#45;&gt;Node12 -->
<g id="edge80" class="edge">
<title>Node68&#45;&gt;Node12</title>
<path fill="none" stroke="#9a32cd" stroke-dasharray="5,2" d="M2327.07,-897.87C2386.35,-901.49 2472.08,-899.41 2539,-868 2585.01,-846.4 2621.39,-794.46 2635.1,-772.77"/>
<polygon fill="#9a32cd" stroke="#9a32cd" points="2327.27,-894.37 2317.06,-897.19 2326.8,-901.36 2327.27,-894.37"/>
<text text-anchor="middle" x="2458" y="-913" font-family="Helvetica,sans-Serif" font-size="10.00"> userPolynomialBasePtr</text>
<text text-anchor="middle" x="2458" y="-902" font-family="Helvetica,sans-Serif" font-size="10.00">elementPolynomialBasePtr</text>
</g>
<!-- Node69 -->
<g id="node69" class="node">
<title>Node69</title>
<g id="a_node69"><a xlink:href="classUBlasMatrix_3_01double_01_4.html" target="_top" xlink:title=" ">
<polygon fill="white" stroke="black" points="2190,-836.5 2190,-855.5 2322,-855.5 2322,-836.5 2190,-836.5"/>
<text text-anchor="middle" x="2256" y="-843.5" font-family="Helvetica,sans-Serif" font-size="10.00">UBlasMatrix&lt; double &gt;</text>
</a>
</g>
</g>
<!-- Node69&#45;&gt;Node12 -->
<g id="edge81" class="edge">
<title>Node69&#45;&gt;Node12</title>
<path fill="none" stroke="#9a32cd" stroke-dasharray="5,2" d="M2332.36,-846.04C2390.06,-844.22 2471.03,-837.63 2539,-817 2572.74,-806.76 2608.3,-785.08 2627.23,-772.52"/>
<polygon fill="#9a32cd" stroke="#9a32cd" points="2332.12,-842.54 2322.22,-846.32 2332.32,-849.54 2332.12,-842.54"/>
<text text-anchor="middle" x="2458" y="-857" font-family="Helvetica,sans-Serif" font-size="10.00"> coordsAtGaussPts</text>
<text text-anchor="middle" x="2458" y="-846" font-family="Helvetica,sans-Serif" font-size="10.00">gaussPts</text>
</g>
<!-- Node70 -->
<g id="node70" class="node">
<title>Node70</title>
<g id="a_node70"><a xlink:title=" ">
<polygon fill="white" stroke="#bfbfbf" points="2576.5,-715.5 2576.5,-734.5 2707.5,-734.5 2707.5,-715.5 2576.5,-715.5"/>
<text text-anchor="middle" x="2642" y="-722.5" font-family="Helvetica,sans-Serif" font-size="10.00">static const char *const</text>
</a>
</g>
</g>
<!-- Node70&#45;&gt;Node4 -->
<g id="edge82" class="edge">
<title>Node70&#45;&gt;Node4</title>
<path fill="none" stroke="#9a32cd" stroke-dasharray="5,2" d="M2717.96,-725C2754.64,-725 2798.93,-725 2836.78,-725"/>
<polygon fill="#9a32cd" stroke="#9a32cd" points="2717.83,-721.5 2707.83,-725 2717.83,-728.5 2717.83,-721.5"/>
<text text-anchor="middle" x="2782" y="-728" font-family="Helvetica,sans-Serif" font-size="10.00"> OpTypeNames</text>
</g>
<!-- Node71 -->
<g id="node71" class="node">
<title>Node71</title>
<g id="a_node71"><a xlink:title=" ">
<polygon fill="white" stroke="#bfbfbf" points="3044,-122 3044,-152 3211,-152 3211,-122 3044,-122"/>
<text text-anchor="start" x="3052" y="-140" font-family="Helvetica,sans-Serif" font-size="10.00">shared_ptr&lt; DataAtIntegration</text>
<text text-anchor="middle" x="3127.5" y="-129" font-family="Helvetica,sans-Serif" font-size="10.00">Pts &gt;</text>
</a>
</g>
</g>
<!-- Node71&#45;&gt;Node2 -->
<g id="edge84" class="edge">
<title>Node71&#45;&gt;Node2</title>
<path fill="none" stroke="#9a32cd" stroke-dasharray="5,2" d="M3221.12,-137.36C3264.77,-137.53 3314.46,-137.72 3347.78,-137.85"/>
<polygon fill="#9a32cd" stroke="#9a32cd" points="3221.05,-133.86 3211.04,-137.32 3221.02,-140.86 3221.05,-133.86"/>
<text text-anchor="middle" x="3257" y="-140" font-family="Helvetica,sans-Serif" font-size="10.00"> dataAtPts</text>
</g>
<!-- Node72 -->
<g id="node72" class="node">
<title>Node72</title>
<g id="a_node72"><a xlink:title=" ">
<polygon fill="white" stroke="#bfbfbf" points="3086,-83.5 3086,-102.5 3169,-102.5 3169,-83.5 3086,-83.5"/>
<text text-anchor="middle" x="3127.5" y="-90.5" font-family="Helvetica,sans-Serif" font-size="10.00">MatrixDouble</text>
</a>
</g>
</g>
<!-- Node72&#45;&gt;Node2 -->
<g id="edge85" class="edge">
<title>Node72&#45;&gt;Node2</title>
<path fill="none" stroke="#9a32cd" stroke-dasharray="5,2" d="M3179.16,-94.93C3210.16,-97.06 3250.39,-101.56 3285,-111 3293.45,-113.3 3294.69,-116.23 3303,-119 3317.45,-123.81 3333.7,-127.83 3347.98,-130.91"/>
<polygon fill="#9a32cd" stroke="#9a32cd" points="3179.22,-91.43 3169.02,-94.29 3178.78,-98.41 3179.22,-91.43"/>
<text text-anchor="middle" x="3257" y="-125" font-family="Helvetica,sans-Serif" font-size="10.00"> transK</text>
<text text-anchor="middle" x="3257" y="-114" font-family="Helvetica,sans-Serif" font-size="10.00">K</text>
</g>
<!-- Node73 -->
<g id="node73" class="node">
<title>Node73</title>
<g id="a_node73"><a xlink:title=" ">
<polygon fill="white" stroke="#bfbfbf" points="3097.5,-38.5 3097.5,-57.5 3157.5,-57.5 3157.5,-38.5 3097.5,-38.5"/>
<text text-anchor="middle" x="3127.5" y="-45.5" font-family="Helvetica,sans-Serif" font-size="10.00">VectorInt</text>
</a>
</g>
</g>
<!-- Node73&#45;&gt;Node2 -->
<g id="edge88" class="edge">
<title>Node73&#45;&gt;Node2</title>
<path fill="none" stroke="#9a32cd" stroke-dasharray="5,2" d="M3167.76,-44.42C3202.28,-43.43 3252.04,-47.48 3285,-74 3301.78,-87.5 3286.63,-105 3303,-119 3315.36,-129.57 3332.42,-134.56 3347.86,-136.82"/>
<polygon fill="#9a32cd" stroke="#9a32cd" points="3167.4,-40.94 3157.57,-44.88 3167.71,-47.93 3167.4,-40.94"/>
<text text-anchor="middle" x="3257" y="-88" font-family="Helvetica,sans-Serif" font-size="10.00"> rowIndices</text>
<text text-anchor="middle" x="3257" y="-77" font-family="Helvetica,sans-Serif" font-size="10.00">colIndices</text>
</g>
<!-- Node74 -->
<g id="node74" class="node">
<title>Node74</title>
<g id="a_node74"><a xlink:title=" ">
<polygon fill="white" stroke="#bfbfbf" points="3086.5,-0.5 3086.5,-19.5 3168.5,-19.5 3168.5,-0.5 3086.5,-0.5"/>
<text text-anchor="middle" x="3127.5" y="-7.5" font-family="Helvetica,sans-Serif" font-size="10.00">VectorDouble</text>
</a>
</g>
</g>
<!-- Node74&#45;&gt;Node2 -->
<g id="edge89" class="edge">
<title>Node74&#45;&gt;Node2</title>
<path fill="none" stroke="#9a32cd" stroke-dasharray="5,2" d="M3178.89,-4.41C3213.15,-3.53 3257.14,-8.57 3285,-35 3312.7,-61.28 3276.19,-91.81 3303,-119 3314.63,-130.79 3331.97,-135.9 3347.79,-137.92"/>
<polygon fill="#9a32cd" stroke="#9a32cd" points="3178.43,-0.93 3168.6,-4.86 3178.74,-7.92 3178.43,-0.93"/>
<text text-anchor="middle" x="3257" y="-38" font-family="Helvetica,sans-Serif" font-size="10.00"> nF</text>
</g>
<!-- Node75 -->
<g id="node75" class="node">
<title>Node75</title>
<g id="a_node75"><a xlink:title=" ">
<polygon fill="white" stroke="#bfbfbf" points="3308.5,-90.5 3308.5,-109.5 3465.5,-109.5 3465.5,-90.5 3308.5,-90.5"/>
<text text-anchor="middle" x="3387" y="-97.5" font-family="Helvetica,sans-Serif" font-size="10.00">shared_ptr&lt; MatrixDouble &gt;</text>
</a>
</g>
</g>
<!-- Node75&#45;&gt;Node1 -->
<g id="edge90" class="edge">
<title>Node75&#45;&gt;Node1</title>
<path fill="none" stroke="#9a32cd" stroke-dasharray="5,2" d="M3475.95,-100C3511.21,-100 3551.55,-100 3585.92,-100"/>
<polygon fill="#9a32cd" stroke="#9a32cd" points="3475.67,-96.5 3465.67,-100 3475.67,-103.5 3475.67,-96.5"/>
<text text-anchor="middle" x="3528.5" y="-103" font-family="Helvetica,sans-Serif" font-size="10.00"> matPosAtPtsPtr</text>
</g>
<!-- Node76 -->
<g id="node76" class="node">
<title>Node76</title>
<g id="a_node76"><a xlink:title=" ">
<polygon fill="white" stroke="#bfbfbf" points="3303,-8.5 3303,-71.5 3471,-71.5 3471,-8.5 3303,-8.5"/>
<text text-anchor="start" x="3311" y="-59.5" font-family="Helvetica,sans-Serif" font-size="10.00">function&lt; FTensor::</text>
<text text-anchor="start" x="3311" y="-48.5" font-family="Helvetica,sans-Serif" font-size="10.00">Tensor2_symmetric&lt; double,</text>
<text text-anchor="start" x="3311" y="-37.5" font-family="Helvetica,sans-Serif" font-size="10.00"> 3 &gt; FTensor::Tensor1&lt; FTensor</text>
<text text-anchor="start" x="3311" y="-26.5" font-family="Helvetica,sans-Serif" font-size="10.00">::PackPtr&lt; double *, 1 &gt;, 3</text>
<text text-anchor="middle" x="3387" y="-15.5" font-family="Helvetica,sans-Serif" font-size="10.00"> &gt; &amp;t_coords) &gt;</text>
</a>
</g>
</g>
<!-- Node76&#45;&gt;Node1 -->
<g id="edge91" class="edge">
<title>Node76&#45;&gt;Node1</title>
<path fill="none" stroke="#9a32cd" stroke-dasharray="5,2" d="M3481.18,-60.15C3518.66,-68.25 3561.14,-77.44 3595.86,-84.94"/>
<polygon fill="#9a32cd" stroke="#9a32cd" points="3481.77,-56.69 3471.26,-58 3480.29,-63.54 3481.77,-56.69"/>
<text text-anchor="middle" x="3528.5" y="-81" font-family="Helvetica,sans-Serif" font-size="10.00"> strainFun</text>
</g>
</g>
</svg>
        <g id="navigator" transform="translate(0 0)" fill="#404254">
                <rect fill="#f2f5e9" fill-opacity="0.5" stroke="#606060" stroke-width=".5" x="0" y="0" width="60" height="60"/>
                <use id="zoomplus" xlink:href="#zoomPlus" x="17" y="9" onmousedown="handleZoom(evt,'in')"/>
                <use id="zoomminus" xlink:href="#zoomMin" x="42" y="9" onmousedown="handleZoom(evt,'out')"/>
                <use id="reset" xlink:href="#resetDef" x="30" y="36" onmousedown="handleReset()"/>
                <g id="arrowUp" xlink:href="#dirArrow" transform="translate(30 24)" onmousedown="handlePan(0,-1)">
                  <use xlink:href="#rim" fill="#404040">
                        <set attributeName="fill" to="#808080" begin="arrowUp.mouseover" end="arrowUp.mouseout"/>
                  </use>
                  <path fill="none" stroke="white" stroke-width="1.5" d="M0,-3.0v7 M-2.5,-0.5L0,-3.0L2.5,-0.5"/>
                </g>
                <g id="arrowRight" xlink:href="#dirArrow" transform="rotate(90) translate(36 -43)" onmousedown="handlePan(1,0)">
                  <use xlink:href="#rim" fill="#404040">
                        <set attributeName="fill" to="#808080" begin="arrowRight.mouseover" end="arrowRight.mouseout"/>
                  </use>
                  <path fill="none" stroke="white" stroke-width="1.5" d="M0,-3.0v7 M-2.5,-0.5L0,-3.0L2.5,-0.5"/>
                </g>
                <g id="arrowDown" xlink:href="#dirArrow" transform="rotate(180) translate(-30 -48)" onmousedown="handlePan(0,1)">
                  <use xlink:href="#rim" fill="#404040">
                        <set attributeName="fill" to="#808080" begin="arrowDown.mouseover" end="arrowDown.mouseout"/>
                  </use>
                  <path fill="none" stroke="white" stroke-width="1.5" d="M0,-3.0v7 M-2.5,-0.5L0,-3.0L2.5,-0.5"/>
                </g>
                <g id="arrowLeft" xlink:href="#dirArrow" transform="rotate(270) translate(-36 17)" onmousedown="handlePan(-1,0)">
                  <use xlink:href="#rim" fill="#404040">
                        <set attributeName="fill" to="#808080" begin="arrowLeft.mouseover" end="arrowLeft.mouseout"/>
                  </use>
                  <path fill="none" stroke="white" stroke-width="1.5" d="M0,-3.0v7 M-2.5,-0.5L0,-3.0L2.5,-0.5"/>
                </g>
        </g>
        <svg viewBox="0 0 15 15" width="100%" height="30px" preserveAspectRatio="xMaxYMin meet">
         <g id="arrow_out" transform="scale(0.3 0.3)">
          <a xlink:href="structOpAnalyticalInternalAleStrain__dx__coll__graph_org.svg" target="_base">
           <rect id="button" ry="5" rx="5" y="6" x="6" height="38" width="38"
                fill="#f2f5e9" fill-opacity="0.5" stroke="#606060" stroke-width="1.0"/>
           <path id="arrow"
             d="M 11.500037,31.436501 C 11.940474,20.09759 22.043105,11.32322 32.158766,21.979434 L 37.068811,17.246167 C 37.068811,17.246167 37.088388,32 37.088388,32 L 22.160133,31.978069 C 22.160133,31.978069 26.997745,27.140456 26.997745,27.140456 C 18.528582,18.264221 13.291696,25.230495 11.500037,31.436501 z"
             style="fill:#404040;"/>
          </a>
         </g>
        </svg>
</svg>
