<?xml version="1.0" encoding="UTF-8" standalone="no"?>
<!DOCTYPE svg PUBLIC "-//W3C//DTD SVG 1.1//EN"
 "http://www.w3.org/Graphics/SVG/1.1/DTD/svg11.dtd">
<!-- Generated by graphviz version 2.43.0 (0)
 -->
<!-- Title: MoFEM::SeriesRecorder Pages: 1 -->
<!--zoomable 1766 -->
<svg id="main" version="1.1" xmlns="http://www.w3.org/2000/svg" xmlns:xlink="http://www.w3.org/1999/xlink" xml:space="preserve" onload="init(evt)">
<style type="text/css"><![CDATA[
.edge:hover path { stroke: red; }
.edge:hover polygon { stroke: red; fill: red; }
]]></style>
<script type="text/javascript"><![CDATA[
var edges = document.getElementsByTagName('g');
if (edges && edges.length) {
  for (var i=0;i<edges.length;i++) {
    if (edges[i].id.substr(0,4)=='edge') {
      edges[i].setAttribute('class','edge');
    }
  }
}
]]></script>
        <defs>
                <circle id="rim" cx="0" cy="0" r="7"/>
                <circle id="rim2" cx="0" cy="0" r="3.5"/>
                <g id="zoomPlus">
                        <use xlink:href="#rim" fill="#404040">
                                <set attributeName="fill" to="#808080" begin="zoomplus.mouseover" end="zoomplus.mouseout"/>
                        </use>
                        <path d="M-4,0h8M0,-4v8" fill="none" stroke="white" stroke-width="1.5" pointer-events="none"/>
                </g>
                <g id="zoomMin">
                        <use xlink:href="#rim" fill="#404040">
                                <set attributeName="fill" to="#808080" begin="zoomminus.mouseover" end="zoomminus.mouseout"/>
                        </use>
                        <path d="M-4,0h8" fill="none" stroke="white" stroke-width="1.5" pointer-events="none"/>
                </g>
                <g id="dirArrow">
                        <path fill="none" stroke="white" stroke-width="1.5" d="M0,-3.0v7 M-2.5,-0.5L0,-3.0L2.5,-0.5"/>
                </g>
               <g id="resetDef">
                       <use xlink:href="#rim2" fill="#404040">
                               <set attributeName="fill" to="#808080" begin="reset.mouseover" end="reset.mouseout"/>
                       </use>
               </g>
        </defs>

<script type="text/javascript">
var viewWidth = 4323;
var viewHeight = 1766;
var sectionId = 'dynsection-1';
</script>
<script xlink:href="svgpan.js"/>
<svg id="graph" class="graph">
<g id="viewport">
<title>MoFEM::SeriesRecorder</title>
<polygon fill="white" stroke="transparent" points="-4,4 -4,-1761.62 4319,-1761.62 4319,4 -4,4"/>
<!-- Node1 -->
<g id="node1" class="node">
<title>Node1</title>
<g id="a_node1"><a xlink:title=" ">
<polygon fill="#bfbfbf" stroke="black" points="4183,-1465.12 4183,-1484.12 4315,-1484.12 4315,-1465.12 4183,-1465.12"/>
<text text-anchor="middle" x="4249" y="-1472.12" font-family="Helvetica,sans-Serif" font-size="10.00">MoFEM::SeriesRecorder</text>
</a>
</g>
</g>
<!-- Node2 -->
<g id="node2" class="node">
<title>Node2</title>
<g id="a_node2"><a xlink:href="structMoFEM_1_1UnknownInterface.html" target="_top" xlink:title="base class for all interface classes">
<polygon fill="white" stroke="black" points="2235,-1550.12 2235,-1569.12 2383,-1569.12 2383,-1550.12 2235,-1550.12"/>
<text text-anchor="middle" x="2309" y="-1557.12" font-family="Helvetica,sans-Serif" font-size="10.00">MoFEM::UnknownInterface</text>
</a>
</g>
</g>
<!-- Node2&#45;&gt;Node1 -->
<g id="edge1" class="edge">
<title>Node2&#45;&gt;Node1</title>
<path fill="none" stroke="midnightblue" d="M2393.74,-1559.62C2506.73,-1559.62 2714.3,-1559.62 2891.5,-1559.62 2891.5,-1559.62 2891.5,-1559.62 4056.5,-1559.62 4129.98,-1559.62 4206.73,-1506.7 4235.84,-1484.37"/>
<polygon fill="midnightblue" stroke="midnightblue" points="2393.44,-1556.12 2383.44,-1559.62 2393.44,-1563.12 2393.44,-1556.12"/>
</g>
<!-- Node9 -->
<g id="node9" class="node">
<title>Node9</title>
<g id="a_node9"><a xlink:href="structMoFEM_1_1CoreInterface.html" target="_top" xlink:title="Interface.">
<polygon fill="white" stroke="black" points="2830,-1331.12 2830,-1350.12 2955,-1350.12 2955,-1331.12 2830,-1331.12"/>
<text text-anchor="middle" x="2892.5" y="-1338.12" font-family="Helvetica,sans-Serif" font-size="10.00">MoFEM::CoreInterface</text>
</a>
</g>
</g>
<!-- Node2&#45;&gt;Node9 -->
<g id="edge10" class="edge">
<title>Node2&#45;&gt;Node9</title>
<path fill="none" stroke="midnightblue" d="M2328.17,-1543.27C2361.97,-1513.79 2437.9,-1451.79 2513,-1419.62 2618.98,-1374.22 2753.12,-1354.18 2829.93,-1345.9"/>
<polygon fill="midnightblue" stroke="midnightblue" points="2325.69,-1540.79 2320.51,-1550.03 2330.33,-1546.04 2325.69,-1540.79"/>
</g>
<!-- Node3 -->
<g id="node3" class="node">
<title>Node3</title>
<g id="a_node3"><a xlink:title=" ">
<polygon fill="white" stroke="#bfbfbf" points="995.5,-1628.12 995.5,-1691.12 1236.5,-1691.12 1236.5,-1628.12 995.5,-1628.12"/>
<text text-anchor="start" x="1003.5" y="-1679.12" font-family="Helvetica,sans-Serif" font-size="10.00">multi_index_container</text>
<text text-anchor="start" x="1003.5" y="-1668.12" font-family="Helvetica,sans-Serif" font-size="10.00">&lt; UIdTypeMap, indexed</text>
<text text-anchor="start" x="1003.5" y="-1657.12" font-family="Helvetica,sans-Serif" font-size="10.00">_by&lt; hashed_unique&lt; member</text>
<text text-anchor="start" x="1003.5" y="-1646.12" font-family="Helvetica,sans-Serif" font-size="10.00">&lt; UIdTypeMap, boost::typeindex</text>
<text text-anchor="middle" x="1116" y="-1635.12" font-family="Helvetica,sans-Serif" font-size="10.00">::type_index, &amp;UIdTypeMap::classIdx &gt; &gt; &gt; &gt;</text>
</a>
</g>
</g>
<!-- Node3&#45;&gt;Node2 -->
<g id="edge2" class="edge">
<title>Node3&#45;&gt;Node2</title>
<path fill="none" stroke="#9a32cd" stroke-dasharray="5,2" d="M1246.88,-1648.71C1496.96,-1627.72 2037.99,-1582.29 2234.65,-1565.78"/>
<polygon fill="#9a32cd" stroke="#9a32cd" points="1246.32,-1645.25 1236.65,-1649.57 1246.91,-1652.22 1246.32,-1645.25"/>
<text text-anchor="middle" x="1704.5" y="-1645.62" font-family="Helvetica,sans-Serif" font-size="10.00"> iFaceTypeMap</text>
</g>
<!-- Node4 -->
<g id="node4" class="node">
<title>Node4</title>
<g id="a_node4"><a xlink:title=" ">
<polygon fill="white" stroke="#bfbfbf" points="0,-867.12 0,-886.12 125,-886.12 125,-867.12 0,-867.12"/>
<text text-anchor="middle" x="62.5" y="-874.12" font-family="Helvetica,sans-Serif" font-size="10.00">multi_index_container</text>
</a>
</g>
</g>
<!-- Node4&#45;&gt;Node3 -->
<g id="edge3" class="edge">
<title>Node4&#45;&gt;Node3</title>
<path fill="none" stroke="orange" stroke-dasharray="5,2" d="M64.45,-896.27C69.71,-1000.83 96.62,-1488.92 143,-1535.62 369.12,-1763.29 789.72,-1722.78 995.45,-1685.68"/>
<polygon fill="orange" stroke="orange" points="67.94,-895.98 63.95,-886.17 60.95,-896.33 67.94,-895.98"/>
<text text-anchor="start" x="423" y="-1749.62" font-family="Helvetica,sans-Serif" font-size="10.00"> &lt; UIdTypeMap, indexed</text>
<text text-anchor="start" x="423" y="-1738.62" font-family="Helvetica,sans-Serif" font-size="10.00">_by&lt; hashed_unique&lt; member</text>
<text text-anchor="start" x="423" y="-1727.62" font-family="Helvetica,sans-Serif" font-size="10.00">&lt; UIdTypeMap, boost::typeindex</text>
<text text-anchor="middle" x="535.5" y="-1716.62" font-family="Helvetica,sans-Serif" font-size="10.00">::type_index, &amp;UIdTypeMap::classIdx &gt; &gt; &gt; &gt;</text>
</g>
<!-- Node6 -->
<g id="node6" class="node">
<title>Node6</title>
<g id="a_node6"><a xlink:title=" ">
<polygon fill="white" stroke="#bfbfbf" points="2513,-1429.12 2513,-1536.12 2791,-1536.12 2791,-1429.12 2513,-1429.12"/>
<text text-anchor="start" x="2521" y="-1524.12" font-family="Helvetica,sans-Serif" font-size="10.00">multi_index_container</text>
<text text-anchor="start" x="2521" y="-1513.12" font-family="Helvetica,sans-Serif" font-size="10.00">&lt; FieldSeries, indexed</text>
<text text-anchor="start" x="2521" y="-1502.12" font-family="Helvetica,sans-Serif" font-size="10.00">_by&lt; ordered_unique&lt; tag</text>
<text text-anchor="start" x="2521" y="-1491.12" font-family="Helvetica,sans-Serif" font-size="10.00">&lt; SeriesID_mi_tag &gt;, const</text>
<text text-anchor="start" x="2521" y="-1480.12" font-family="Helvetica,sans-Serif" font-size="10.00">_mem_fun&lt; FieldSeries, EntityID,</text>
<text text-anchor="start" x="2521" y="-1469.12" font-family="Helvetica,sans-Serif" font-size="10.00"> &amp;FieldSeries::get_meshset_id</text>
<text text-anchor="start" x="2521" y="-1458.12" font-family="Helvetica,sans-Serif" font-size="10.00"> &gt; &gt;, ordered_unique&lt; tag&lt; SeriesName</text>
<text text-anchor="start" x="2521" y="-1447.12" font-family="Helvetica,sans-Serif" font-size="10.00">_mi_tag &gt;, const_mem_fun&lt; FieldSeries,</text>
<text text-anchor="middle" x="2652" y="-1436.12" font-family="Helvetica,sans-Serif" font-size="10.00"> boost::string_ref, &amp;FieldSeries::getNameRef &gt; &gt; &gt; &gt;</text>
</a>
</g>
</g>
<!-- Node4&#45;&gt;Node6 -->
<g id="edge6" class="edge">
<title>Node4&#45;&gt;Node6</title>
<path fill="none" stroke="orange" stroke-dasharray="5,2" d="M64.48,-896.4C69.74,-998.54 96.12,-1463.19 143,-1504.62 183.84,-1540.71 2050.51,-1508.87 2105,-1507.62 2243.86,-1504.44 2402.43,-1496.72 2512.77,-1490.7"/>
<polygon fill="orange" stroke="orange" points="67.97,-896.06 63.97,-886.25 60.98,-896.41 67.97,-896.06"/>
<text text-anchor="start" x="985" y="-1600.62" font-family="Helvetica,sans-Serif" font-size="10.00"> &lt; FieldSeries, indexed</text>
<text text-anchor="start" x="985" y="-1589.62" font-family="Helvetica,sans-Serif" font-size="10.00">_by&lt; ordered_unique&lt; tag</text>
<text text-anchor="start" x="985" y="-1578.62" font-family="Helvetica,sans-Serif" font-size="10.00">&lt; SeriesID_mi_tag &gt;, const</text>
<text text-anchor="start" x="985" y="-1567.62" font-family="Helvetica,sans-Serif" font-size="10.00">_mem_fun&lt; FieldSeries, EntityID,</text>
<text text-anchor="start" x="985" y="-1556.62" font-family="Helvetica,sans-Serif" font-size="10.00"> &amp;FieldSeries::get_meshset_id</text>
<text text-anchor="start" x="985" y="-1545.62" font-family="Helvetica,sans-Serif" font-size="10.00"> &gt; &gt;, ordered_unique&lt; tag&lt; SeriesName</text>
<text text-anchor="start" x="985" y="-1534.62" font-family="Helvetica,sans-Serif" font-size="10.00">_mi_tag &gt;, const_mem_fun&lt; FieldSeries,</text>
<text text-anchor="middle" x="1116" y="-1523.62" font-family="Helvetica,sans-Serif" font-size="10.00"> boost::string_ref, &amp;FieldSeries::getNameRef &gt; &gt; &gt; &gt;</text>
</g>
<!-- Node10 -->
<g id="node10" class="node">
<title>Node10</title>
<g id="a_node10"><a xlink:title=" ">
<polygon fill="white" stroke="#bfbfbf" points="1304,-1311.12 1304,-1506.12 2105,-1506.12 2105,-1311.12 1304,-1311.12"/>
<text text-anchor="start" x="1312" y="-1494.12" font-family="Helvetica,sans-Serif" font-size="10.00">multi_index_container</text>
<text text-anchor="start" x="1312" y="-1483.12" font-family="Helvetica,sans-Serif" font-size="10.00">&lt; FieldEntityEntFiniteElement</text>
<text text-anchor="start" x="1312" y="-1472.12" font-family="Helvetica,sans-Serif" font-size="10.00">AdjacencyMap, indexed_by&lt;</text>
<text text-anchor="start" x="1312" y="-1461.12" font-family="Helvetica,sans-Serif" font-size="10.00"> ordered_unique&lt; tag&lt; Composite</text>
<text text-anchor="start" x="1312" y="-1450.12" font-family="Helvetica,sans-Serif" font-size="10.00">_Unique_mi_tag &gt;, composite_key</text>
<text text-anchor="start" x="1312" y="-1439.12" font-family="Helvetica,sans-Serif" font-size="10.00">&lt; FieldEntityEntFiniteElementAdjacencyMap,</text>
<text text-anchor="start" x="1312" y="-1428.12" font-family="Helvetica,sans-Serif" font-size="10.00"> const_mem_fun&lt; FieldEntityEntFiniteElementAdjacency</text>
<text text-anchor="start" x="1312" y="-1417.12" font-family="Helvetica,sans-Serif" font-size="10.00">Map, UId, &amp;FieldEntityEntFiniteElementAdjacencyMap</text>
<text text-anchor="start" x="1312" y="-1406.12" font-family="Helvetica,sans-Serif" font-size="10.00">::getEntUniqueId &gt;, const_mem_fun&lt; FieldEntityEntFiniteElementAdjacency</text>
<text text-anchor="start" x="1312" y="-1395.12" font-family="Helvetica,sans-Serif" font-size="10.00">Map, UId, &amp;FieldEntityEntFiniteElementAdjacencyMap::getFeUniqueId</text>
<text text-anchor="start" x="1312" y="-1384.12" font-family="Helvetica,sans-Serif" font-size="10.00"> &gt; &gt; &gt;, ordered_non_unique&lt; tag&lt; Unique_mi_tag &gt;, const_mem_fun</text>
<text text-anchor="start" x="1312" y="-1373.12" font-family="Helvetica,sans-Serif" font-size="10.00">&lt; FieldEntityEntFiniteElementAdjacencyMap, UId, &amp;FieldEntityEntFiniteElementAdjacencyMap</text>
<text text-anchor="start" x="1312" y="-1362.12" font-family="Helvetica,sans-Serif" font-size="10.00">::getEntUniqueId &gt; &gt;, ordered_non_unique&lt; tag&lt; FE_Unique_mi_tag &gt;, const_mem_fun</text>
<text text-anchor="start" x="1312" y="-1351.12" font-family="Helvetica,sans-Serif" font-size="10.00">&lt; FieldEntityEntFiniteElementAdjacencyMap, UId, &amp;FieldEntityEntFiniteElementAdjacencyMap</text>
<text text-anchor="start" x="1312" y="-1340.12" font-family="Helvetica,sans-Serif" font-size="10.00">::getFeUniqueId &gt; &gt;, ordered_non_unique&lt; tag&lt; FEEnt_mi_tag &gt;, const_mem_fun&lt; FieldEntityEntFiniteElementAdjacency</text>
<text text-anchor="start" x="1312" y="-1329.12" font-family="Helvetica,sans-Serif" font-size="10.00">Map, EntityHandle, &amp;FieldEntityEntFiniteElementAdjacencyMap::getFeHandle &gt; &gt;, ordered_non_unique&lt; tag</text>
<text text-anchor="middle" x="1704.5" y="-1318.12" font-family="Helvetica,sans-Serif" font-size="10.00">&lt; Ent_mi_tag &gt;, const_mem_fun&lt; FieldEntityEntFiniteElementAdjacencyMap, EntityHandle, &amp;FieldEntityEntFiniteElementAdjacencyMap::getEntHandle &gt; &gt; &gt; &gt;</text>
</a>
</g>
</g>
<!-- Node4&#45;&gt;Node10 -->
<g id="edge12" class="edge">
<title>Node4&#45;&gt;Node10</title>
<path fill="none" stroke="orange" stroke-dasharray="5,2" d="M66.16,-896.54C74.48,-955.78 101.95,-1129 143,-1165.62 228.68,-1242.05 870.3,-1322.49 1303.67,-1368.98"/>
<polygon fill="orange" stroke="orange" points="69.58,-895.72 64.75,-886.28 62.65,-896.67 69.58,-895.72"/>
<text text-anchor="start" x="143" y="-1492.62" font-family="Helvetica,sans-Serif" font-size="10.00"> &lt; FieldEntityEntFiniteElement</text>
<text text-anchor="start" x="143" y="-1481.62" font-family="Helvetica,sans-Serif" font-size="10.00">AdjacencyMap, indexed_by</text>
<text text-anchor="start" x="143" y="-1470.62" font-family="Helvetica,sans-Serif" font-size="10.00">&lt; ordered_unique&lt; tag&lt; Composite</text>
<text text-anchor="start" x="143" y="-1459.62" font-family="Helvetica,sans-Serif" font-size="10.00">_Unique_mi_tag &gt;, composite_key</text>
<text text-anchor="start" x="143" y="-1448.62" font-family="Helvetica,sans-Serif" font-size="10.00">&lt; FieldEntityEntFiniteElementAdjacencyMap,</text>
<text text-anchor="start" x="143" y="-1437.62" font-family="Helvetica,sans-Serif" font-size="10.00"> const_mem_fun&lt; FieldEntityEntFiniteElementAdjacency</text>
<text text-anchor="start" x="143" y="-1426.62" font-family="Helvetica,sans-Serif" font-size="10.00">Map, UId, &amp;FieldEntityEntFiniteElementAdjacencyMap</text>
<text text-anchor="start" x="143" y="-1415.62" font-family="Helvetica,sans-Serif" font-size="10.00">::getEntUniqueId &gt;, const_mem_fun&lt; FieldEntityEntFiniteElementAdjacency</text>
<text text-anchor="start" x="143" y="-1404.62" font-family="Helvetica,sans-Serif" font-size="10.00">Map, UId, &amp;FieldEntityEntFiniteElementAdjacencyMap::getFeUniqueId</text>
<text text-anchor="start" x="143" y="-1393.62" font-family="Helvetica,sans-Serif" font-size="10.00"> &gt; &gt; &gt;, ordered_non_unique&lt; tag&lt; Unique_mi_tag &gt;, const_mem_fun</text>
<text text-anchor="start" x="143" y="-1382.62" font-family="Helvetica,sans-Serif" font-size="10.00">&lt; FieldEntityEntFiniteElementAdjacencyMap, UId, &amp;FieldEntityEntFiniteElementAdjacencyMap</text>
<text text-anchor="start" x="143" y="-1371.62" font-family="Helvetica,sans-Serif" font-size="10.00">::getEntUniqueId &gt; &gt;, ordered_non_unique&lt; tag&lt; FE_Unique_mi_tag &gt;, const_mem_fun</text>
<text text-anchor="start" x="143" y="-1360.62" font-family="Helvetica,sans-Serif" font-size="10.00">&lt; FieldEntityEntFiniteElementAdjacencyMap, UId, &amp;FieldEntityEntFiniteElementAdjacencyMap</text>
<text text-anchor="start" x="143" y="-1349.62" font-family="Helvetica,sans-Serif" font-size="10.00">::getFeUniqueId &gt; &gt;, ordered_non_unique&lt; tag&lt; FEEnt_mi_tag &gt;, const_mem_fun&lt; FieldEntityEntFiniteElementAdjacency</text>
<text text-anchor="start" x="143" y="-1338.62" font-family="Helvetica,sans-Serif" font-size="10.00">Map, EntityHandle, &amp;FieldEntityEntFiniteElementAdjacencyMap::getFeHandle &gt; &gt;, ordered_non_unique&lt; tag</text>
<text text-anchor="middle" x="535.5" y="-1327.62" font-family="Helvetica,sans-Serif" font-size="10.00">&lt; Ent_mi_tag &gt;, const_mem_fun&lt; FieldEntityEntFiniteElementAdjacencyMap, EntityHandle, &amp;FieldEntityEntFiniteElementAdjacencyMap::getEntHandle &gt; &gt; &gt; &gt;</text>
</g>
<!-- Node12 -->
<g id="node12" class="node">
<title>Node12</title>
<g id="a_node12"><a xlink:title=" ">
<polygon fill="white" stroke="#bfbfbf" points="2994,-1102.62 2994,-1264.62 3280,-1264.62 3280,-1102.62 2994,-1102.62"/>
<text text-anchor="start" x="3002" y="-1252.62" font-family="Helvetica,sans-Serif" font-size="10.00">multi_index_container</text>
<text text-anchor="start" x="3002" y="-1241.62" font-family="Helvetica,sans-Serif" font-size="10.00">&lt; boost::shared_ptr&lt;</text>
<text text-anchor="start" x="3002" y="-1230.62" font-family="Helvetica,sans-Serif" font-size="10.00"> Field &gt;, indexed_by&lt;</text>
<text text-anchor="start" x="3002" y="-1219.62" font-family="Helvetica,sans-Serif" font-size="10.00"> hashed_unique&lt; tag&lt; BitFieldId</text>
<text text-anchor="start" x="3002" y="-1208.62" font-family="Helvetica,sans-Serif" font-size="10.00">_mi_tag &gt;, const_mem_fun&lt; Field,</text>
<text text-anchor="start" x="3002" y="-1197.62" font-family="Helvetica,sans-Serif" font-size="10.00"> const BitFieldId &amp;, &amp;Field::getId</text>
<text text-anchor="start" x="3002" y="-1186.62" font-family="Helvetica,sans-Serif" font-size="10.00"> &gt;, HashBit&lt; BitFieldId &gt;, EqBit&lt;</text>
<text text-anchor="start" x="3002" y="-1175.62" font-family="Helvetica,sans-Serif" font-size="10.00"> BitFieldId &gt; &gt;, ordered_unique&lt; tag</text>
<text text-anchor="start" x="3002" y="-1164.62" font-family="Helvetica,sans-Serif" font-size="10.00">&lt; Meshset_mi_tag &gt;, member&lt; Field, EntityHandle,</text>
<text text-anchor="start" x="3002" y="-1153.62" font-family="Helvetica,sans-Serif" font-size="10.00"> &amp;Field::meshSet &gt; &gt;, ordered_unique&lt; tag&lt;</text>
<text text-anchor="start" x="3002" y="-1142.62" font-family="Helvetica,sans-Serif" font-size="10.00"> FieldName_mi_tag &gt;, const_mem_fun&lt; Field, boost</text>
<text text-anchor="start" x="3002" y="-1131.62" font-family="Helvetica,sans-Serif" font-size="10.00">::string_ref, &amp;Field::getNameRef &gt; &gt;, ordered_non</text>
<text text-anchor="start" x="3002" y="-1120.62" font-family="Helvetica,sans-Serif" font-size="10.00">_unique&lt; tag&lt; BitFieldId_space_mi_tag &gt;, const_mem</text>
<text text-anchor="middle" x="3137" y="-1109.62" font-family="Helvetica,sans-Serif" font-size="10.00">_fun&lt; Field, FieldSpace, &amp;Field::getSpace &gt; &gt; &gt; &gt;</text>
</a>
</g>
</g>
<!-- Node4&#45;&gt;Node12 -->
<g id="edge15" class="edge">
<title>Node4&#45;&gt;Node12</title>
<path fill="none" stroke="orange" stroke-dasharray="5,2" d="M66.48,-896.32C75.33,-951.9 103.33,-1107.79 143,-1137.62 186.16,-1170.08 1060.99,-1151.62 1115,-1151.62 1115,-1151.62 1115,-1151.62 2653,-1151.62 2767.82,-1151.62 2897.65,-1160.73 2993.77,-1169.23"/>
<polygon fill="orange" stroke="orange" points="69.93,-895.68 64.93,-886.34 63.01,-896.76 69.93,-895.68"/>
<text text-anchor="start" x="1572" y="-1297.62" font-family="Helvetica,sans-Serif" font-size="10.00"> &lt; boost::shared_ptr</text>
<text text-anchor="start" x="1572" y="-1286.62" font-family="Helvetica,sans-Serif" font-size="10.00">&lt; Field &gt;, indexed_by</text>
<text text-anchor="start" x="1572" y="-1275.62" font-family="Helvetica,sans-Serif" font-size="10.00">&lt; hashed_unique&lt; tag&lt;</text>
<text text-anchor="start" x="1572" y="-1264.62" font-family="Helvetica,sans-Serif" font-size="10.00"> BitFieldId_mi_tag &gt;, const</text>
<text text-anchor="start" x="1572" y="-1253.62" font-family="Helvetica,sans-Serif" font-size="10.00">_mem_fun&lt; Field, const BitFieldId</text>
<text text-anchor="start" x="1572" y="-1242.62" font-family="Helvetica,sans-Serif" font-size="10.00"> &amp;, &amp;Field::getId &gt;, HashBit&lt; BitFieldId</text>
<text text-anchor="start" x="1572" y="-1231.62" font-family="Helvetica,sans-Serif" font-size="10.00"> &gt;, EqBit&lt; BitFieldId &gt; &gt;, ordered_unique</text>
<text text-anchor="start" x="1572" y="-1220.62" font-family="Helvetica,sans-Serif" font-size="10.00">&lt; tag&lt; Meshset_mi_tag &gt;, member&lt; Field,</text>
<text text-anchor="start" x="1572" y="-1209.62" font-family="Helvetica,sans-Serif" font-size="10.00"> EntityHandle, &amp;Field::meshSet &gt; &gt;, ordered</text>
<text text-anchor="start" x="1572" y="-1198.62" font-family="Helvetica,sans-Serif" font-size="10.00">_unique&lt; tag&lt; FieldName_mi_tag &gt;, const_mem</text>
<text text-anchor="start" x="1572" y="-1187.62" font-family="Helvetica,sans-Serif" font-size="10.00">_fun&lt; Field, boost::string_ref, &amp;Field::getNameRef</text>
<text text-anchor="start" x="1572" y="-1176.62" font-family="Helvetica,sans-Serif" font-size="10.00"> &gt; &gt;, ordered_non_unique&lt; tag&lt; BitFieldId_space</text>
<text text-anchor="start" x="1572" y="-1165.62" font-family="Helvetica,sans-Serif" font-size="10.00">_mi_tag &gt;, const_mem_fun&lt; Field, FieldSpace, &amp;Field</text>
<text text-anchor="middle" x="1704.5" y="-1154.62" font-family="Helvetica,sans-Serif" font-size="10.00">::getSpace &gt; &gt; &gt; &gt;</text>
</g>
<!-- Node13 -->
<g id="node13" class="node">
<title>Node13</title>
<g id="a_node13"><a xlink:title=" ">
<polygon fill="white" stroke="#bfbfbf" points="1573,-965.62 1573,-1127.62 1836,-1127.62 1836,-965.62 1573,-965.62"/>
<text text-anchor="start" x="1581" y="-1115.62" font-family="Helvetica,sans-Serif" font-size="10.00">multi_index_container</text>
<text text-anchor="start" x="1581" y="-1104.62" font-family="Helvetica,sans-Serif" font-size="10.00">&lt; boost::shared_ptr&lt;</text>
<text text-anchor="start" x="1581" y="-1093.62" font-family="Helvetica,sans-Serif" font-size="10.00"> FiniteElement &gt;, indexed</text>
<text text-anchor="start" x="1581" y="-1082.62" font-family="Helvetica,sans-Serif" font-size="10.00">_by&lt; hashed_unique&lt; tag&lt;</text>
<text text-anchor="start" x="1581" y="-1071.62" font-family="Helvetica,sans-Serif" font-size="10.00"> FiniteElement_Meshset_mi</text>
<text text-anchor="start" x="1581" y="-1060.62" font-family="Helvetica,sans-Serif" font-size="10.00">_tag &gt;, member&lt; FiniteElement,</text>
<text text-anchor="start" x="1581" y="-1049.62" font-family="Helvetica,sans-Serif" font-size="10.00"> EntityHandle, &amp;FiniteElement</text>
<text text-anchor="start" x="1581" y="-1038.62" font-family="Helvetica,sans-Serif" font-size="10.00">::meshset &gt; &gt;, hashed_unique&lt;</text>
<text text-anchor="start" x="1581" y="-1027.62" font-family="Helvetica,sans-Serif" font-size="10.00"> tag&lt; BitFEId_mi_tag &gt;, const_mem</text>
<text text-anchor="start" x="1581" y="-1016.62" font-family="Helvetica,sans-Serif" font-size="10.00">_fun&lt; FiniteElement, BitFEId, &amp;FiniteElement</text>
<text text-anchor="start" x="1581" y="-1005.62" font-family="Helvetica,sans-Serif" font-size="10.00">::getId &gt;, HashBit&lt; BitFEId &gt;, EqBit&lt; BitFEId</text>
<text text-anchor="start" x="1581" y="-994.62" font-family="Helvetica,sans-Serif" font-size="10.00"> &gt; &gt;, ordered_unique&lt; tag&lt; FiniteElement_name</text>
<text text-anchor="start" x="1581" y="-983.62" font-family="Helvetica,sans-Serif" font-size="10.00">_mi_tag &gt;, const_mem_fun&lt; FiniteElement, boost</text>
<text text-anchor="middle" x="1704.5" y="-972.62" font-family="Helvetica,sans-Serif" font-size="10.00">::string_ref, &amp;FiniteElement::getNameRef &gt; &gt; &gt; &gt;</text>
</a>
</g>
</g>
<!-- Node4&#45;&gt;Node13 -->
<g id="edge17" class="edge">
<title>Node4&#45;&gt;Node13</title>
<path fill="none" stroke="orange" stroke-dasharray="5,2" d="M73.92,-894.85C87.01,-915.76 111.62,-949.04 143,-963.62 222.16,-1000.4 860.93,-938.75 928,-994.62 956,-1017.94 917.54,-1051.85 946,-1074.62 1064,-1169.02 1134.97,-1079.68 1286,-1074.62 1382.2,-1071.4 1490.66,-1064.01 1572.92,-1057.63"/>
<polygon fill="orange" stroke="orange" points="76.88,-892.99 68.73,-886.22 70.88,-896.59 76.88,-892.99"/>
<text text-anchor="start" x="412" y="-1129.62" font-family="Helvetica,sans-Serif" font-size="10.00"> &lt; boost::shared_ptr</text>
<text text-anchor="start" x="412" y="-1118.62" font-family="Helvetica,sans-Serif" font-size="10.00">&lt; FiniteElement &gt;, indexed</text>
<text text-anchor="start" x="412" y="-1107.62" font-family="Helvetica,sans-Serif" font-size="10.00">_by&lt; hashed_unique&lt; tag</text>
<text text-anchor="start" x="412" y="-1096.62" font-family="Helvetica,sans-Serif" font-size="10.00">&lt; FiniteElement_Meshset_mi</text>
<text text-anchor="start" x="412" y="-1085.62" font-family="Helvetica,sans-Serif" font-size="10.00">_tag &gt;, member&lt; FiniteElement,</text>
<text text-anchor="start" x="412" y="-1074.62" font-family="Helvetica,sans-Serif" font-size="10.00"> EntityHandle, &amp;FiniteElement</text>
<text text-anchor="start" x="412" y="-1063.62" font-family="Helvetica,sans-Serif" font-size="10.00">::meshset &gt; &gt;, hashed_unique&lt;</text>
<text text-anchor="start" x="412" y="-1052.62" font-family="Helvetica,sans-Serif" font-size="10.00"> tag&lt; BitFEId_mi_tag &gt;, const_mem</text>
<text text-anchor="start" x="412" y="-1041.62" font-family="Helvetica,sans-Serif" font-size="10.00">_fun&lt; FiniteElement, BitFEId, &amp;FiniteElement</text>
<text text-anchor="start" x="412" y="-1030.62" font-family="Helvetica,sans-Serif" font-size="10.00">::getId &gt;, HashBit&lt; BitFEId &gt;, EqBit&lt; BitFEId</text>
<text text-anchor="start" x="412" y="-1019.62" font-family="Helvetica,sans-Serif" font-size="10.00"> &gt; &gt;, ordered_unique&lt; tag&lt; FiniteElement_name</text>
<text text-anchor="start" x="412" y="-1008.62" font-family="Helvetica,sans-Serif" font-size="10.00">_mi_tag &gt;, const_mem_fun&lt; FiniteElement, boost</text>
<text text-anchor="middle" x="535.5" y="-997.62" font-family="Helvetica,sans-Serif" font-size="10.00">::string_ref, &amp;FiniteElement::getNameRef &gt; &gt; &gt; &gt;</text>
</g>
<!-- Node14 -->
<g id="node14" class="node">
<title>Node14</title>
<g id="a_node14"><a xlink:title=" ">
<polygon fill="white" stroke="#bfbfbf" points="2186.5,-907.12 2186.5,-1036.12 2431.5,-1036.12 2431.5,-907.12 2186.5,-907.12"/>
<text text-anchor="start" x="2194.5" y="-1024.12" font-family="Helvetica,sans-Serif" font-size="10.00">multi_index_container</text>
<text text-anchor="start" x="2194.5" y="-1013.12" font-family="Helvetica,sans-Serif" font-size="10.00">&lt; boost::shared_ptr&lt;</text>
<text text-anchor="start" x="2194.5" y="-1002.12" font-family="Helvetica,sans-Serif" font-size="10.00"> EntFiniteElement &gt;, indexed</text>
<text text-anchor="start" x="2194.5" y="-991.12" font-family="Helvetica,sans-Serif" font-size="10.00">_by&lt; ordered_unique&lt; tag&lt;</text>
<text text-anchor="start" x="2194.5" y="-980.12" font-family="Helvetica,sans-Serif" font-size="10.00"> Unique_mi_tag &gt;, const_mem</text>
<text text-anchor="start" x="2194.5" y="-969.12" font-family="Helvetica,sans-Serif" font-size="10.00">_fun&lt; EntFiniteElement, UId,</text>
<text text-anchor="start" x="2194.5" y="-958.12" font-family="Helvetica,sans-Serif" font-size="10.00"> &amp;EntFiniteElement::getLocalUniqueId</text>
<text text-anchor="start" x="2194.5" y="-947.12" font-family="Helvetica,sans-Serif" font-size="10.00"> &gt; &gt;, ordered_non_unique&lt; tag&lt; Ent</text>
<text text-anchor="start" x="2194.5" y="-936.12" font-family="Helvetica,sans-Serif" font-size="10.00">_mi_tag &gt;, const_mem_fun&lt; EntFiniteElement</text>
<text text-anchor="start" x="2194.5" y="-925.12" font-family="Helvetica,sans-Serif" font-size="10.00">::interface_type_RefEntity, EntityHandle,</text>
<text text-anchor="middle" x="2309" y="-914.12" font-family="Helvetica,sans-Serif" font-size="10.00"> &amp;EntFiniteElement::getEnt &gt; &gt; &gt; &gt;</text>
</a>
</g>
</g>
<!-- Node4&#45;&gt;Node14 -->
<g id="edge20" class="edge">
<title>Node4&#45;&gt;Node14</title>
<path fill="none" stroke="orange" stroke-dasharray="5,2" d="M135.03,-880.11C285.25,-887.4 644.54,-904.64 946,-917.62 1007.32,-920.26 1864.05,-954.1 2186.47,-966.82"/>
<polygon fill="orange" stroke="orange" points="135.17,-876.61 125.01,-879.62 134.83,-883.6 135.17,-876.61"/>
<text text-anchor="start" x="1016.5" y="-1043.62" font-family="Helvetica,sans-Serif" font-size="10.00"> &lt; boost::shared_ptr</text>
<text text-anchor="start" x="1016.5" y="-1032.62" font-family="Helvetica,sans-Serif" font-size="10.00">&lt; EntFiniteElement &gt;</text>
<text text-anchor="start" x="1016.5" y="-1021.62" font-family="Helvetica,sans-Serif" font-size="10.00">, indexed_by&lt; ordered</text>
<text text-anchor="start" x="1016.5" y="-1010.62" font-family="Helvetica,sans-Serif" font-size="10.00">_unique&lt; tag&lt; Unique_mi</text>
<text text-anchor="start" x="1016.5" y="-999.62" font-family="Helvetica,sans-Serif" font-size="10.00">_tag &gt;, const_mem_fun&lt; EntFinite</text>
<text text-anchor="start" x="1016.5" y="-988.62" font-family="Helvetica,sans-Serif" font-size="10.00">Element, UId, &amp;EntFiniteElement</text>
<text text-anchor="start" x="1016.5" y="-977.62" font-family="Helvetica,sans-Serif" font-size="10.00">::getLocalUniqueId &gt; &gt;, ordered</text>
<text text-anchor="start" x="1016.5" y="-966.62" font-family="Helvetica,sans-Serif" font-size="10.00">_non_unique&lt; tag&lt; Ent_mi_tag &gt;,</text>
<text text-anchor="start" x="1016.5" y="-955.62" font-family="Helvetica,sans-Serif" font-size="10.00"> const_mem_fun&lt; EntFiniteElement</text>
<text text-anchor="start" x="1016.5" y="-944.62" font-family="Helvetica,sans-Serif" font-size="10.00">::interface_type_RefEntity, EntityHandle,</text>
<text text-anchor="middle" x="1116" y="-933.62" font-family="Helvetica,sans-Serif" font-size="10.00"> &amp;EntFiniteElement::getEnt &gt; &gt; &gt; &gt;</text>
</g>
<!-- Node16 -->
<g id="node16" class="node">
<title>Node16</title>
<g id="a_node16"><a xlink:title=" ">
<polygon fill="white" stroke="#bfbfbf" points="2551,-841.12 2551,-970.12 2753,-970.12 2753,-841.12 2551,-841.12"/>
<text text-anchor="start" x="2559" y="-958.12" font-family="Helvetica,sans-Serif" font-size="10.00">multi_index_container</text>
<text text-anchor="start" x="2559" y="-947.12" font-family="Helvetica,sans-Serif" font-size="10.00">&lt; boost::shared_ptr&lt;</text>
<text text-anchor="start" x="2559" y="-936.12" font-family="Helvetica,sans-Serif" font-size="10.00"> DofEntity &gt;, indexed</text>
<text text-anchor="start" x="2559" y="-925.12" font-family="Helvetica,sans-Serif" font-size="10.00">_by&lt; ordered_unique&lt; tag</text>
<text text-anchor="start" x="2559" y="-914.12" font-family="Helvetica,sans-Serif" font-size="10.00">&lt; Unique_mi_tag &gt;, const</text>
<text text-anchor="start" x="2559" y="-903.12" font-family="Helvetica,sans-Serif" font-size="10.00">_mem_fun&lt; DofEntity, UId,</text>
<text text-anchor="start" x="2559" y="-892.12" font-family="Helvetica,sans-Serif" font-size="10.00"> &amp;DofEntity::getLocalUniqueId</text>
<text text-anchor="start" x="2559" y="-881.12" font-family="Helvetica,sans-Serif" font-size="10.00"> &gt; &gt;, ordered_non_unique&lt; tag</text>
<text text-anchor="start" x="2559" y="-870.12" font-family="Helvetica,sans-Serif" font-size="10.00">&lt; Ent_mi_tag &gt;, const_mem_fun</text>
<text text-anchor="start" x="2559" y="-859.12" font-family="Helvetica,sans-Serif" font-size="10.00">&lt; DofEntity, EntityHandle, &amp;DofEntity</text>
<text text-anchor="middle" x="2652" y="-848.12" font-family="Helvetica,sans-Serif" font-size="10.00">::getEnt &gt; &gt; &gt; &gt;</text>
</a>
</g>
</g>
<!-- Node4&#45;&gt;Node16 -->
<g id="edge23" class="edge">
<title>Node4&#45;&gt;Node16</title>
<path fill="none" stroke="orange" stroke-dasharray="5,2" d="M135.2,-868.67C285.35,-852.46 644,-816.09 946,-803.62 1021.49,-800.5 1220.78,-765.47 1286,-803.62 1300.09,-811.86 1290.13,-827.02 1304,-835.62 1304.83,-836.13 2238.96,-884.36 2550.93,-900.46"/>
<polygon fill="orange" stroke="orange" points="134.74,-865.2 125.18,-869.75 135.5,-872.16 134.74,-865.2"/>
<text text-anchor="start" x="1023" y="-905.62" font-family="Helvetica,sans-Serif" font-size="10.00"> &lt; boost::shared_ptr</text>
<text text-anchor="start" x="1023" y="-894.62" font-family="Helvetica,sans-Serif" font-size="10.00">&lt; DofEntity &gt;, indexed</text>
<text text-anchor="start" x="1023" y="-883.62" font-family="Helvetica,sans-Serif" font-size="10.00">_by&lt; ordered_unique&lt; tag</text>
<text text-anchor="start" x="1023" y="-872.62" font-family="Helvetica,sans-Serif" font-size="10.00">&lt; Unique_mi_tag &gt;, const</text>
<text text-anchor="start" x="1023" y="-861.62" font-family="Helvetica,sans-Serif" font-size="10.00">_mem_fun&lt; DofEntity, UId,</text>
<text text-anchor="start" x="1023" y="-850.62" font-family="Helvetica,sans-Serif" font-size="10.00"> &amp;DofEntity::getLocalUniqueId</text>
<text text-anchor="start" x="1023" y="-839.62" font-family="Helvetica,sans-Serif" font-size="10.00"> &gt; &gt;, ordered_non_unique&lt; tag</text>
<text text-anchor="start" x="1023" y="-828.62" font-family="Helvetica,sans-Serif" font-size="10.00">&lt; Ent_mi_tag &gt;, const_mem_fun</text>
<text text-anchor="start" x="1023" y="-817.62" font-family="Helvetica,sans-Serif" font-size="10.00">&lt; DofEntity, EntityHandle, &amp;DofEntity</text>
<text text-anchor="middle" x="1116" y="-806.62" font-family="Helvetica,sans-Serif" font-size="10.00">::getEnt &gt; &gt; &gt; &gt;</text>
</g>
<!-- Node18 -->
<g id="node18" class="node">
<title>Node18</title>
<g id="a_node18"><a xlink:title=" ">
<polygon fill="white" stroke="#bfbfbf" points="2809,-772.62 2809,-868.62 2976,-868.62 2976,-772.62 2809,-772.62"/>
<text text-anchor="start" x="2817" y="-856.62" font-family="Helvetica,sans-Serif" font-size="10.00">multi_index_container</text>
<text text-anchor="start" x="2817" y="-845.62" font-family="Helvetica,sans-Serif" font-size="10.00">&lt; boost::shared_ptr&lt;</text>
<text text-anchor="start" x="2817" y="-834.62" font-family="Helvetica,sans-Serif" font-size="10.00"> RefElement &gt;, indexed</text>
<text text-anchor="start" x="2817" y="-823.62" font-family="Helvetica,sans-Serif" font-size="10.00">_by&lt; ordered_unique&lt; tag</text>
<text text-anchor="start" x="2817" y="-812.62" font-family="Helvetica,sans-Serif" font-size="10.00">&lt; Ent_mi_tag &gt;, const_mem</text>
<text text-anchor="start" x="2817" y="-801.62" font-family="Helvetica,sans-Serif" font-size="10.00">_fun&lt; RefElement::interface</text>
<text text-anchor="start" x="2817" y="-790.62" font-family="Helvetica,sans-Serif" font-size="10.00">_type_RefEntity, EntityHandle,</text>
<text text-anchor="middle" x="2892.5" y="-779.62" font-family="Helvetica,sans-Serif" font-size="10.00"> &amp;RefElement::getEnt &gt; &gt; &gt; &gt;</text>
</a>
</g>
</g>
<!-- Node4&#45;&gt;Node18 -->
<g id="edge26" class="edge">
<title>Node4&#45;&gt;Node18</title>
<path fill="none" stroke="orange" stroke-dasharray="5,2" d="M75.66,-858.78C89.51,-840.17 114,-812.02 143,-799.62 343.5,-713.88 1887.13,-745.49 2105,-754.62 2362.38,-765.4 2665.9,-795.94 2808.98,-811.4"/>
<polygon fill="orange" stroke="orange" points="72.72,-856.87 69.75,-867.04 78.42,-860.95 72.72,-856.87"/>
<text text-anchor="start" x="1629" y="-823.62" font-family="Helvetica,sans-Serif" font-size="10.00"> &lt; boost::shared_ptr</text>
<text text-anchor="start" x="1629" y="-812.62" font-family="Helvetica,sans-Serif" font-size="10.00">&lt; RefElement &gt;, indexed</text>
<text text-anchor="start" x="1629" y="-801.62" font-family="Helvetica,sans-Serif" font-size="10.00">_by&lt; ordered_unique&lt; tag</text>
<text text-anchor="start" x="1629" y="-790.62" font-family="Helvetica,sans-Serif" font-size="10.00">&lt; Ent_mi_tag &gt;, const_mem</text>
<text text-anchor="start" x="1629" y="-779.62" font-family="Helvetica,sans-Serif" font-size="10.00">_fun&lt; RefElement::interface</text>
<text text-anchor="start" x="1629" y="-768.62" font-family="Helvetica,sans-Serif" font-size="10.00">_type_RefEntity, EntityHandle,</text>
<text text-anchor="middle" x="1704.5" y="-757.62" font-family="Helvetica,sans-Serif" font-size="10.00"> &amp;RefElement::getEnt &gt; &gt; &gt; &gt;</text>
</g>
<!-- Node24 -->
<g id="node24" class="node">
<title>Node24</title>
<g id="a_node24"><a xlink:title=" ">
<polygon fill="white" stroke="#bfbfbf" points="3022,-576.62 3022,-694.62 3252,-694.62 3252,-576.62 3022,-576.62"/>
<text text-anchor="start" x="3030" y="-682.62" font-family="Helvetica,sans-Serif" font-size="10.00">multi_index_container</text>
<text text-anchor="start" x="3030" y="-671.62" font-family="Helvetica,sans-Serif" font-size="10.00">&lt; boost::shared_ptr&lt;</text>
<text text-anchor="start" x="3030" y="-660.62" font-family="Helvetica,sans-Serif" font-size="10.00"> FieldEntity &gt;, indexed</text>
<text text-anchor="start" x="3030" y="-649.62" font-family="Helvetica,sans-Serif" font-size="10.00">_by&lt; ordered_unique&lt; tag</text>
<text text-anchor="start" x="3030" y="-638.62" font-family="Helvetica,sans-Serif" font-size="10.00">&lt; Unique_mi_tag &gt;, member</text>
<text text-anchor="start" x="3030" y="-627.62" font-family="Helvetica,sans-Serif" font-size="10.00">&lt; FieldEntity, UId, &amp;FieldEntity</text>
<text text-anchor="start" x="3030" y="-616.62" font-family="Helvetica,sans-Serif" font-size="10.00">::localUId &gt; &gt;, ordered_non_unique</text>
<text text-anchor="start" x="3030" y="-605.62" font-family="Helvetica,sans-Serif" font-size="10.00">&lt; tag&lt; Ent_mi_tag &gt;, const_mem_fun</text>
<text text-anchor="start" x="3030" y="-594.62" font-family="Helvetica,sans-Serif" font-size="10.00">&lt; FieldEntity::interface_type_RefEntity,</text>
<text text-anchor="middle" x="3137" y="-583.62" font-family="Helvetica,sans-Serif" font-size="10.00"> EntityHandle, &amp;FieldEntity::getEnt &gt; &gt; &gt; &gt;</text>
</a>
</g>
</g>
<!-- Node4&#45;&gt;Node24 -->
<g id="edge33" class="edge">
<title>Node4&#45;&gt;Node24</title>
<path fill="none" stroke="orange" stroke-dasharray="5,2" d="M68.48,-857.09C77.52,-826.05 99.83,-766.14 143,-738.62 361.39,-599.42 1045.28,-648.99 1304,-637.62 1953.4,-609.07 2733.53,-624.83 3021.77,-632.35"/>
<polygon fill="orange" stroke="orange" points="65.09,-856.2 65.82,-866.77 71.84,-858.05 65.09,-856.2"/>
<text text-anchor="start" x="1597.5" y="-728.62" font-family="Helvetica,sans-Serif" font-size="10.00"> &lt; boost::shared_ptr</text>
<text text-anchor="start" x="1597.5" y="-717.62" font-family="Helvetica,sans-Serif" font-size="10.00">&lt; FieldEntity &gt;, indexed</text>
<text text-anchor="start" x="1597.5" y="-706.62" font-family="Helvetica,sans-Serif" font-size="10.00">_by&lt; ordered_unique&lt; tag</text>
<text text-anchor="start" x="1597.5" y="-695.62" font-family="Helvetica,sans-Serif" font-size="10.00">&lt; Unique_mi_tag &gt;, member</text>
<text text-anchor="start" x="1597.5" y="-684.62" font-family="Helvetica,sans-Serif" font-size="10.00">&lt; FieldEntity, UId, &amp;FieldEntity</text>
<text text-anchor="start" x="1597.5" y="-673.62" font-family="Helvetica,sans-Serif" font-size="10.00">::localUId &gt; &gt;, ordered_non_unique</text>
<text text-anchor="start" x="1597.5" y="-662.62" font-family="Helvetica,sans-Serif" font-size="10.00">&lt; tag&lt; Ent_mi_tag &gt;, const_mem_fun</text>
<text text-anchor="start" x="1597.5" y="-651.62" font-family="Helvetica,sans-Serif" font-size="10.00">&lt; FieldEntity::interface_type_RefEntity,</text>
<text text-anchor="middle" x="1704.5" y="-640.62" font-family="Helvetica,sans-Serif" font-size="10.00"> EntityHandle, &amp;FieldEntity::getEnt &gt; &gt; &gt; &gt;</text>
</g>
<!-- Node27 -->
<g id="node27" class="node">
<title>Node27</title>
<g id="a_node27"><a xlink:title=" ">
<polygon fill="white" stroke="#bfbfbf" points="1580,-430.62 1580,-570.62 1829,-570.62 1829,-430.62 1580,-430.62"/>
<text text-anchor="start" x="1588" y="-558.62" font-family="Helvetica,sans-Serif" font-size="10.00">multi_index_container</text>
<text text-anchor="start" x="1588" y="-547.62" font-family="Helvetica,sans-Serif" font-size="10.00">&lt; Problem, indexed_by</text>
<text text-anchor="start" x="1588" y="-536.62" font-family="Helvetica,sans-Serif" font-size="10.00">&lt; ordered_unique&lt; tag</text>
<text text-anchor="start" x="1588" y="-525.62" font-family="Helvetica,sans-Serif" font-size="10.00">&lt; Meshset_mi_tag &gt;, member</text>
<text text-anchor="start" x="1588" y="-514.62" font-family="Helvetica,sans-Serif" font-size="10.00">&lt; Problem, EntityHandle, &amp;Problem</text>
<text text-anchor="start" x="1588" y="-503.62" font-family="Helvetica,sans-Serif" font-size="10.00">::meshset &gt; &gt;, hashed_unique&lt; tag</text>
<text text-anchor="start" x="1588" y="-492.62" font-family="Helvetica,sans-Serif" font-size="10.00">&lt; BitProblemId_mi_tag &gt;, const_mem</text>
<text text-anchor="start" x="1588" y="-481.62" font-family="Helvetica,sans-Serif" font-size="10.00">_fun&lt; Problem, BitProblemId, &amp;Problem</text>
<text text-anchor="start" x="1588" y="-470.62" font-family="Helvetica,sans-Serif" font-size="10.00">::getId &gt;, HashBit&lt; BitProblemId &gt;, EqBit</text>
<text text-anchor="start" x="1588" y="-459.62" font-family="Helvetica,sans-Serif" font-size="10.00">&lt; BitProblemId &gt; &gt;, hashed_unique&lt; tag&lt;</text>
<text text-anchor="start" x="1588" y="-448.62" font-family="Helvetica,sans-Serif" font-size="10.00"> Problem_mi_tag &gt;, const_mem_fun&lt; Problem,</text>
<text text-anchor="middle" x="1704.5" y="-437.62" font-family="Helvetica,sans-Serif" font-size="10.00"> std::string, &amp;Problem::getName &gt; &gt; &gt; &gt;</text>
</a>
</g>
</g>
<!-- Node4&#45;&gt;Node27 -->
<g id="edge37" class="edge">
<title>Node4&#45;&gt;Node27</title>
<path fill="none" stroke="orange" stroke-dasharray="5,2" d="M64.54,-856.72C68.72,-785.79 86.81,-547.18 143,-501.62 198.46,-456.66 1220.8,-485.07 1579.99,-496.5"/>
<polygon fill="orange" stroke="orange" points="61.04,-856.76 63.97,-866.94 68.03,-857.15 61.04,-856.76"/>
<text text-anchor="start" x="401.5" y="-614.62" font-family="Helvetica,sans-Serif" font-size="10.00"> &lt; Problem, indexed</text>
<text text-anchor="start" x="401.5" y="-603.62" font-family="Helvetica,sans-Serif" font-size="10.00">_by&lt; ordered_unique</text>
<text text-anchor="start" x="401.5" y="-592.62" font-family="Helvetica,sans-Serif" font-size="10.00">&lt; tag&lt; Meshset_mi_tag</text>
<text text-anchor="start" x="401.5" y="-581.62" font-family="Helvetica,sans-Serif" font-size="10.00"> &gt;, member&lt; Problem, EntityHandle,</text>
<text text-anchor="start" x="401.5" y="-570.62" font-family="Helvetica,sans-Serif" font-size="10.00"> &amp;Problem::meshset &gt; &gt;, hashed</text>
<text text-anchor="start" x="401.5" y="-559.62" font-family="Helvetica,sans-Serif" font-size="10.00">_unique&lt; tag&lt; BitProblemId_mi_tag</text>
<text text-anchor="start" x="401.5" y="-548.62" font-family="Helvetica,sans-Serif" font-size="10.00"> &gt;, const_mem_fun&lt; Problem, BitProblemId,</text>
<text text-anchor="start" x="401.5" y="-537.62" font-family="Helvetica,sans-Serif" font-size="10.00"> &amp;Problem::getId &gt;, HashBit&lt; BitProblemId</text>
<text text-anchor="start" x="401.5" y="-526.62" font-family="Helvetica,sans-Serif" font-size="10.00"> &gt;, EqBit&lt; BitProblemId &gt; &gt;, hashed_unique</text>
<text text-anchor="start" x="401.5" y="-515.62" font-family="Helvetica,sans-Serif" font-size="10.00">&lt; tag&lt; Problem_mi_tag &gt;, const_mem_fun&lt; Problem,</text>
<text text-anchor="middle" x="535.5" y="-504.62" font-family="Helvetica,sans-Serif" font-size="10.00"> std::string, &amp;Problem::getName &gt; &gt; &gt; &gt;</text>
</g>
<!-- Node28 -->
<g id="node28" class="node">
<title>Node28</title>
<g id="a_node28"><a xlink:title=" ">
<polygon fill="white" stroke="#bfbfbf" points="2131,-255.12 2131,-472.12 2487,-472.12 2487,-255.12 2131,-255.12"/>
<text text-anchor="start" x="2139" y="-460.12" font-family="Helvetica,sans-Serif" font-size="10.00">multi_index_container</text>
<text text-anchor="start" x="2139" y="-449.12" font-family="Helvetica,sans-Serif" font-size="10.00">&lt; boost::shared_ptr&lt;</text>
<text text-anchor="start" x="2139" y="-438.12" font-family="Helvetica,sans-Serif" font-size="10.00"> RefEntity &gt;, indexed</text>
<text text-anchor="start" x="2139" y="-427.12" font-family="Helvetica,sans-Serif" font-size="10.00">_by&lt; ordered_unique&lt; tag</text>
<text text-anchor="start" x="2139" y="-416.12" font-family="Helvetica,sans-Serif" font-size="10.00">&lt; Ent_mi_tag &gt;, const_mem</text>
<text text-anchor="start" x="2139" y="-405.12" font-family="Helvetica,sans-Serif" font-size="10.00">_fun&lt; RefEntity, EntityHandle,</text>
<text text-anchor="start" x="2139" y="-394.12" font-family="Helvetica,sans-Serif" font-size="10.00"> &amp;RefEntity::getEnt &gt; &gt;, ordered</text>
<text text-anchor="start" x="2139" y="-383.12" font-family="Helvetica,sans-Serif" font-size="10.00">_non_unique&lt; tag&lt; Ent_Ent_mi_tag</text>
<text text-anchor="start" x="2139" y="-372.12" font-family="Helvetica,sans-Serif" font-size="10.00"> &gt;, const_mem_fun&lt; RefEntity, EntityHandle,</text>
<text text-anchor="start" x="2139" y="-361.12" font-family="Helvetica,sans-Serif" font-size="10.00"> &amp;RefEntity::getParentEnt &gt; &gt;, ordered</text>
<text text-anchor="start" x="2139" y="-350.12" font-family="Helvetica,sans-Serif" font-size="10.00">_non_unique&lt; tag&lt; Composite_EntType_and</text>
<text text-anchor="start" x="2139" y="-339.12" font-family="Helvetica,sans-Serif" font-size="10.00">_ParentEntType_mi_tag &gt;, composite_key&lt; RefEntity,</text>
<text text-anchor="start" x="2139" y="-328.12" font-family="Helvetica,sans-Serif" font-size="10.00"> const_mem_fun&lt; RefEntity, EntityType, &amp;RefEntity</text>
<text text-anchor="start" x="2139" y="-317.12" font-family="Helvetica,sans-Serif" font-size="10.00">::getEntType &gt;, const_mem_fun&lt; RefEntity, EntityType,</text>
<text text-anchor="start" x="2139" y="-306.12" font-family="Helvetica,sans-Serif" font-size="10.00"> &amp;RefEntity::getParentEntType &gt; &gt; &gt;, ordered_non_unique</text>
<text text-anchor="start" x="2139" y="-295.12" font-family="Helvetica,sans-Serif" font-size="10.00">&lt; tag&lt; Composite_ParentEnt_And_EntType_mi_tag &gt;, composite</text>
<text text-anchor="start" x="2139" y="-284.12" font-family="Helvetica,sans-Serif" font-size="10.00">_key&lt; RefEntity, const_mem_fun&lt; RefEntity, EntityType, &amp;RefEntity</text>
<text text-anchor="start" x="2139" y="-273.12" font-family="Helvetica,sans-Serif" font-size="10.00">::getEntType &gt;, const_mem_fun&lt; RefEntity, EntityHandle, &amp;RefEntity</text>
<text text-anchor="middle" x="2309" y="-262.12" font-family="Helvetica,sans-Serif" font-size="10.00">::getParentEnt &gt; &gt; &gt; &gt; &gt;</text>
</a>
</g>
</g>
<!-- Node4&#45;&gt;Node28 -->
<g id="edge39" class="edge">
<title>Node4&#45;&gt;Node28</title>
<path fill="none" stroke="orange" stroke-dasharray="5,2" d="M64.65,-856.6C69.29,-783.03 89.01,-528.96 143,-472.62 397.01,-207.51 581.42,-322.03 946,-278.62 1369.31,-228.21 1870.43,-290.66 2130.85,-332.22"/>
<polygon fill="orange" stroke="orange" points="61.14,-856.61 64.03,-866.8 68.13,-857.03 61.14,-856.61"/>
<text text-anchor="start" x="946" y="-468.62" font-family="Helvetica,sans-Serif" font-size="10.00"> &lt; boost::shared_ptr</text>
<text text-anchor="start" x="946" y="-457.62" font-family="Helvetica,sans-Serif" font-size="10.00">&lt; RefEntity &gt;, indexed</text>
<text text-anchor="start" x="946" y="-446.62" font-family="Helvetica,sans-Serif" font-size="10.00">_by&lt; ordered_unique&lt; tag</text>
<text text-anchor="start" x="946" y="-435.62" font-family="Helvetica,sans-Serif" font-size="10.00">&lt; Ent_mi_tag &gt;, const_mem</text>
<text text-anchor="start" x="946" y="-424.62" font-family="Helvetica,sans-Serif" font-size="10.00">_fun&lt; RefEntity, EntityHandle,</text>
<text text-anchor="start" x="946" y="-413.62" font-family="Helvetica,sans-Serif" font-size="10.00"> &amp;RefEntity::getEnt &gt; &gt;, ordered</text>
<text text-anchor="start" x="946" y="-402.62" font-family="Helvetica,sans-Serif" font-size="10.00">_non_unique&lt; tag&lt; Ent_Ent_mi_tag</text>
<text text-anchor="start" x="946" y="-391.62" font-family="Helvetica,sans-Serif" font-size="10.00"> &gt;, const_mem_fun&lt; RefEntity, EntityHandle,</text>
<text text-anchor="start" x="946" y="-380.62" font-family="Helvetica,sans-Serif" font-size="10.00"> &amp;RefEntity::getParentEnt &gt; &gt;, ordered</text>
<text text-anchor="start" x="946" y="-369.62" font-family="Helvetica,sans-Serif" font-size="10.00">_non_unique&lt; tag&lt; Composite_EntType_and</text>
<text text-anchor="start" x="946" y="-358.62" font-family="Helvetica,sans-Serif" font-size="10.00">_ParentEntType_mi_tag &gt;, composite_key&lt; RefEntity,</text>
<text text-anchor="start" x="946" y="-347.62" font-family="Helvetica,sans-Serif" font-size="10.00"> const_mem_fun&lt; RefEntity, EntityType, &amp;RefEntity</text>
<text text-anchor="start" x="946" y="-336.62" font-family="Helvetica,sans-Serif" font-size="10.00">::getEntType &gt;, const_mem_fun&lt; RefEntity, EntityType,</text>
<text text-anchor="start" x="946" y="-325.62" font-family="Helvetica,sans-Serif" font-size="10.00"> &amp;RefEntity::getParentEntType &gt; &gt; &gt;, ordered_non_unique</text>
<text text-anchor="start" x="946" y="-314.62" font-family="Helvetica,sans-Serif" font-size="10.00">&lt; tag&lt; Composite_ParentEnt_And_EntType_mi_tag &gt;, composite</text>
<text text-anchor="start" x="946" y="-303.62" font-family="Helvetica,sans-Serif" font-size="10.00">_key&lt; RefEntity, const_mem_fun&lt; RefEntity, EntityType, &amp;RefEntity</text>
<text text-anchor="start" x="946" y="-292.62" font-family="Helvetica,sans-Serif" font-size="10.00">::getEntType &gt;, const_mem_fun&lt; RefEntity, EntityHandle, &amp;RefEntity</text>
<text text-anchor="middle" x="1116" y="-281.62" font-family="Helvetica,sans-Serif" font-size="10.00">::getParentEnt &gt; &gt; &gt; &gt; &gt;</text>
</g>
<!-- Node30 -->
<g id="node30" class="node">
<title>Node30</title>
<g id="a_node30"><a xlink:title=" ">
<polygon fill="white" stroke="#bfbfbf" points="3541,-17.12 3541,-256.12 3972,-256.12 3972,-17.12 3541,-17.12"/>
<text text-anchor="start" x="3549" y="-244.12" font-family="Helvetica,sans-Serif" font-size="10.00">multi_index_container</text>
<text text-anchor="start" x="3549" y="-233.12" font-family="Helvetica,sans-Serif" font-size="10.00">&lt; FieldSeriesStep, indexed</text>
<text text-anchor="start" x="3549" y="-222.12" font-family="Helvetica,sans-Serif" font-size="10.00">_by&lt; ordered_unique&lt; tag</text>
<text text-anchor="start" x="3549" y="-211.12" font-family="Helvetica,sans-Serif" font-size="10.00">&lt; Composite_SeriesID_And_Step</text>
<text text-anchor="start" x="3549" y="-200.12" font-family="Helvetica,sans-Serif" font-size="10.00">_mi_tag &gt;, composite_key&lt; FieldSeriesStep,</text>
<text text-anchor="start" x="3549" y="-189.12" font-family="Helvetica,sans-Serif" font-size="10.00"> const_mem_fun&lt; FieldSeriesStep::interface</text>
<text text-anchor="start" x="3549" y="-178.12" font-family="Helvetica,sans-Serif" font-size="10.00">_type_FieldSeries, EntityID, &amp;FieldSeriesStep</text>
<text text-anchor="start" x="3549" y="-167.12" font-family="Helvetica,sans-Serif" font-size="10.00">::get_meshset_id &gt;, member&lt; FieldSeriesStep,</text>
<text text-anchor="start" x="3549" y="-156.12" font-family="Helvetica,sans-Serif" font-size="10.00"> int, &amp;FieldSeriesStep::step_number &gt; &gt; &gt;, ordered</text>
<text text-anchor="start" x="3549" y="-145.12" font-family="Helvetica,sans-Serif" font-size="10.00">_unique&lt; tag&lt; Composite_SeriesName_And_Step_mi_tag</text>
<text text-anchor="start" x="3549" y="-134.12" font-family="Helvetica,sans-Serif" font-size="10.00"> &gt;, composite_key&lt; FieldSeriesStep, const_mem_fun&lt;</text>
<text text-anchor="start" x="3549" y="-123.12" font-family="Helvetica,sans-Serif" font-size="10.00"> FieldSeriesStep::interface_type_FieldSeries, boost</text>
<text text-anchor="start" x="3549" y="-112.12" font-family="Helvetica,sans-Serif" font-size="10.00">::string_ref, &amp;FieldSeriesStep::getNameRef &gt;, member</text>
<text text-anchor="start" x="3549" y="-101.12" font-family="Helvetica,sans-Serif" font-size="10.00">&lt; FieldSeriesStep, int, &amp;FieldSeriesStep::step_number</text>
<text text-anchor="start" x="3549" y="-90.12" font-family="Helvetica,sans-Serif" font-size="10.00"> &gt; &gt; &gt;, ordered_non_unique&lt; tag&lt; SeriesName_mi_tag &gt;, const</text>
<text text-anchor="start" x="3549" y="-79.12" font-family="Helvetica,sans-Serif" font-size="10.00">_mem_fun&lt; FieldSeriesStep::interface_type_FieldSeries, boost</text>
<text text-anchor="start" x="3549" y="-68.12" font-family="Helvetica,sans-Serif" font-size="10.00">::string_ref, &amp;FieldSeriesStep::getNameRef &gt; &gt;, ordered_non</text>
<text text-anchor="start" x="3549" y="-57.12" font-family="Helvetica,sans-Serif" font-size="10.00">_unique&lt; tag&lt; Composite_SeriesName_And_Time_mi_tag &gt;, composite</text>
<text text-anchor="start" x="3549" y="-46.12" font-family="Helvetica,sans-Serif" font-size="10.00">_key&lt; FieldSeriesStep, const_mem_fun&lt; FieldSeriesStep::interface</text>
<text text-anchor="start" x="3549" y="-35.12" font-family="Helvetica,sans-Serif" font-size="10.00">_type_FieldSeries, boost::string_ref, &amp;FieldSeriesStep::getNameRef</text>
<text text-anchor="middle" x="3756.5" y="-24.12" font-family="Helvetica,sans-Serif" font-size="10.00"> &gt;, const_mem_fun&lt; FieldSeriesStep, double, &amp;FieldSeriesStep::get_time &gt; &gt; &gt; &gt; &gt;</text>
</a>
</g>
</g>
<!-- Node4&#45;&gt;Node30 -->
<g id="edge42" class="edge">
<title>Node4&#45;&gt;Node30</title>
<path fill="none" stroke="orange" stroke-dasharray="5,2" d="M63.32,-857.05C62.84,-763.99 65.43,-366.97 143,-277.62 437.09,61.13 666.4,-5.62 1115,-5.62 1115,-5.62 1115,-5.62 3138,-5.62 3273.89,-5.62 3423.02,-36.35 3540.67,-68.05"/>
<polygon fill="orange" stroke="orange" points="59.82,-857.09 63.39,-867.07 66.81,-857.04 59.82,-857.09"/>
<text text-anchor="start" x="2123" y="-228.62" font-family="Helvetica,sans-Serif" font-size="10.00"> &lt; FieldSeriesStep,</text>
<text text-anchor="start" x="2123" y="-217.62" font-family="Helvetica,sans-Serif" font-size="10.00"> indexed_by&lt; ordered</text>
<text text-anchor="start" x="2123" y="-206.62" font-family="Helvetica,sans-Serif" font-size="10.00">_unique&lt; tag&lt; Composite</text>
<text text-anchor="start" x="2123" y="-195.62" font-family="Helvetica,sans-Serif" font-size="10.00">_SeriesID_And_Step_mi_tag</text>
<text text-anchor="start" x="2123" y="-184.62" font-family="Helvetica,sans-Serif" font-size="10.00"> &gt;, composite_key&lt; FieldSeriesStep,</text>
<text text-anchor="start" x="2123" y="-173.62" font-family="Helvetica,sans-Serif" font-size="10.00"> const_mem_fun&lt; FieldSeriesStep</text>
<text text-anchor="start" x="2123" y="-162.62" font-family="Helvetica,sans-Serif" font-size="10.00">::interface_type_FieldSeries, EntityID,</text>
<text text-anchor="start" x="2123" y="-151.62" font-family="Helvetica,sans-Serif" font-size="10.00"> &amp;FieldSeriesStep::get_meshset_id &gt;,</text>
<text text-anchor="start" x="2123" y="-140.62" font-family="Helvetica,sans-Serif" font-size="10.00"> member&lt; FieldSeriesStep, int, &amp;FieldSeriesStep</text>
<text text-anchor="start" x="2123" y="-129.62" font-family="Helvetica,sans-Serif" font-size="10.00">::step_number &gt; &gt; &gt;, ordered_unique&lt; tag&lt; Composite</text>
<text text-anchor="start" x="2123" y="-118.62" font-family="Helvetica,sans-Serif" font-size="10.00">_SeriesName_And_Step_mi_tag &gt;, composite_key&lt; FieldSeriesStep,</text>
<text text-anchor="start" x="2123" y="-107.62" font-family="Helvetica,sans-Serif" font-size="10.00"> const_mem_fun&lt; FieldSeriesStep::interface_type_FieldSeries,</text>
<text text-anchor="start" x="2123" y="-96.62" font-family="Helvetica,sans-Serif" font-size="10.00"> boost::string_ref, &amp;FieldSeriesStep::getNameRef &gt;, member</text>
<text text-anchor="start" x="2123" y="-85.62" font-family="Helvetica,sans-Serif" font-size="10.00">&lt; FieldSeriesStep, int, &amp;FieldSeriesStep::step_number &gt; &gt; &gt;,</text>
<text text-anchor="start" x="2123" y="-74.62" font-family="Helvetica,sans-Serif" font-size="10.00"> ordered_non_unique&lt; tag&lt; SeriesName_mi_tag &gt;, const_mem_fun</text>
<text text-anchor="start" x="2123" y="-63.62" font-family="Helvetica,sans-Serif" font-size="10.00">&lt; FieldSeriesStep::interface_type_FieldSeries, boost::string_ref,</text>
<text text-anchor="start" x="2123" y="-52.62" font-family="Helvetica,sans-Serif" font-size="10.00"> &amp;FieldSeriesStep::getNameRef &gt; &gt;, ordered_non_unique&lt; tag&lt; Composite</text>
<text text-anchor="start" x="2123" y="-41.62" font-family="Helvetica,sans-Serif" font-size="10.00">_SeriesName_And_Time_mi_tag &gt;, composite_key&lt; FieldSeriesStep, const</text>
<text text-anchor="start" x="2123" y="-30.62" font-family="Helvetica,sans-Serif" font-size="10.00">_mem_fun&lt; FieldSeriesStep::interface_type_FieldSeries, boost::string</text>
<text text-anchor="start" x="2123" y="-19.62" font-family="Helvetica,sans-Serif" font-size="10.00">_ref, &amp;FieldSeriesStep::getNameRef &gt;, const_mem_fun&lt; FieldSeriesStep,</text>
<text text-anchor="middle" x="2309" y="-8.62" font-family="Helvetica,sans-Serif" font-size="10.00"> double, &amp;FieldSeriesStep::get_time &gt; &gt; &gt; &gt; &gt;</text>
</g>
<!-- Node5 -->
<g id="node5" class="node">
<title>Node5</title>
<g id="a_node5"><a xlink:title=" ">
<polygon fill="white" stroke="#bfbfbf" points="3394,-1507.12 3394,-1526.12 3427,-1526.12 3427,-1507.12 3394,-1507.12"/>
<text text-anchor="middle" x="3410.5" y="-1514.12" font-family="Helvetica,sans-Serif" font-size="10.00">Tag</text>
</a>
</g>
</g>
<!-- Node5&#45;&gt;Node1 -->
<g id="edge4" class="edge">
<title>Node5&#45;&gt;Node1</title>
<path fill="none" stroke="#9a32cd" stroke-dasharray="5,2" d="M3437.46,-1516.87C3533.95,-1517.56 3880.96,-1517.73 4165,-1488.62 4175.61,-1487.53 4186.92,-1485.93 4197.67,-1484.19"/>
<polygon fill="#9a32cd" stroke="#9a32cd" points="3437.23,-1513.37 3427.2,-1516.79 3437.17,-1520.37 3437.23,-1513.37"/>
<text text-anchor="middle" x="4055.5" y="-1504.62" font-family="Helvetica,sans-Serif" font-size="10.00"> th_SeriesName</text>
</g>
<!-- Node7 -->
<g id="node7" class="node">
<title>Node7</title>
<g id="a_node7"><a xlink:href="structMoFEM_1_1CoreTmp_3_010_01_4.html" target="_top" xlink:title="Core (interface) class.">
<polygon fill="white" stroke="black" points="3990,-902.12 3990,-921.12 4121,-921.12 4121,-902.12 3990,-902.12"/>
<text text-anchor="middle" x="4055.5" y="-909.12" font-family="Helvetica,sans-Serif" font-size="10.00">MoFEM::CoreTmp&lt; 0 &gt;</text>
</a>
</g>
</g>
<!-- Node5&#45;&gt;Node7 -->
<g id="edge18" class="edge">
<title>Node5&#45;&gt;Node7</title>
<path fill="none" stroke="#9a32cd" stroke-dasharray="5,2" d="M3437.12,-1517.9C3462.64,-1517.67 3501.09,-1513.03 3523,-1489.62 3555.05,-1455.37 3507.62,-1418.58 3541,-1385.62 3679.04,-1249.31 3831.96,-1450.87 3972,-1316.62 4031.7,-1259.39 4050.78,-976.88 4053.98,-921.17"/>
<polygon fill="#9a32cd" stroke="#9a32cd" points="3437.1,-1514.4 3427.06,-1517.76 3437.01,-1521.4 3437.1,-1514.4"/>
<text text-anchor="middle" x="3756.5" y="-1498.62" font-family="Helvetica,sans-Serif" font-size="10.00"> th_FieldId</text>
<text text-anchor="middle" x="3756.5" y="-1487.62" font-family="Helvetica,sans-Serif" font-size="10.00">th_RefBitLevel_Mask</text>
<text text-anchor="middle" x="3756.5" y="-1476.62" font-family="Helvetica,sans-Serif" font-size="10.00">th_ProblemName</text>
<text text-anchor="middle" x="3756.5" y="-1465.62" font-family="Helvetica,sans-Serif" font-size="10.00">th_ProblemFEId</text>
<text text-anchor="middle" x="3756.5" y="-1454.62" font-family="Helvetica,sans-Serif" font-size="10.00">th_FieldContinuity</text>
<text text-anchor="middle" x="3756.5" y="-1443.62" font-family="Helvetica,sans-Serif" font-size="10.00">th_FieldBase</text>
<text text-anchor="middle" x="3756.5" y="-1432.62" font-family="Helvetica,sans-Serif" font-size="10.00">th_ProblemGhostNbDofCol</text>
<text text-anchor="middle" x="3756.5" y="-1421.62" font-family="Helvetica,sans-Serif" font-size="10.00">th_ProblemGhostNbDofRow</text>
<text text-anchor="middle" x="3756.5" y="-1410.62" font-family="Helvetica,sans-Serif" font-size="10.00">th_FEIdCol</text>
<text text-anchor="middle" x="3756.5" y="-1399.62" font-family="Helvetica,sans-Serif" font-size="10.00">th_RefBitEdge</text>
<text text-anchor="middle" x="3756.5" y="-1388.62" font-family="Helvetica,sans-Serif" font-size="10.00">...</text>
</g>
<!-- Node6&#45;&gt;Node1 -->
<g id="edge5" class="edge">
<title>Node6&#45;&gt;Node1</title>
<path fill="none" stroke="#9a32cd" stroke-dasharray="5,2" d="M2801.21,-1478.89C2896.77,-1476.81 3023.71,-1474.62 3136,-1474.62 3136,-1474.62 3136,-1474.62 4056.5,-1474.62 4098.56,-1474.62 4145.81,-1474.62 4182.85,-1474.62"/>
<polygon fill="#9a32cd" stroke="#9a32cd" points="2801.1,-1475.4 2791.18,-1479.12 2801.25,-1482.39 2801.1,-1475.4"/>
<text text-anchor="middle" x="3410.5" y="-1477.62" font-family="Helvetica,sans-Serif" font-size="10.00"> sEries</text>
</g>
<!-- Node7&#45;&gt;Node1 -->
<g id="edge7" class="edge">
<title>Node7&#45;&gt;Node1</title>
<path fill="none" stroke="#9a32cd" stroke-dasharray="5,2" d="M4063.07,-930.93C4093.76,-1021.17 4222.53,-1399.75 4244.73,-1465.02"/>
<polygon fill="#9a32cd" stroke="#9a32cd" points="4066.36,-929.73 4059.82,-921.39 4059.73,-931.99 4066.36,-929.73"/>
<text text-anchor="middle" x="4152" y="-1229.62" font-family="Helvetica,sans-Serif" font-size="10.00"> cOre</text>
</g>
<!-- Node8 -->
<g id="node8" class="node">
<title>Node8</title>
<g id="a_node8"><a xlink:href="structMoFEM_1_1DeprecatedCoreInterface.html" target="_top" xlink:title="Deprecated interface functions.">
<polygon fill="white" stroke="black" points="3380.5,-1320.12 3380.5,-1339.12 3440.5,-1339.12 3440.5,-1320.12 3380.5,-1320.12"/>
<text text-anchor="middle" x="3410.5" y="-1327.12" font-family="Helvetica,sans-Serif" font-size="10.00">Interface</text>
</a>
</g>
</g>
<!-- Node8&#45;&gt;Node7 -->
<g id="edge8" class="edge">
<title>Node8&#45;&gt;Node7</title>
<path fill="none" stroke="midnightblue" d="M3450.64,-1326.47C3476.33,-1324.44 3510.65,-1321.78 3541,-1319.62 3588.87,-1316.22 3935.64,-1322.93 3972,-1291.62 4030.7,-1241.07 4050.46,-975.75 4053.92,-921.37"/>
<polygon fill="midnightblue" stroke="midnightblue" points="3450.24,-1322.99 3440.55,-1327.27 3450.8,-1329.97 3450.24,-1322.99"/>
</g>
<!-- Node9&#45;&gt;Node8 -->
<g id="edge9" class="edge">
<title>Node9&#45;&gt;Node8</title>
<path fill="none" stroke="midnightblue" d="M2965.36,-1339.09C3080.51,-1336.63 3301.45,-1331.92 3380.49,-1330.24"/>
<polygon fill="midnightblue" stroke="midnightblue" points="2965.15,-1335.59 2955.23,-1339.3 2965.3,-1342.59 2965.15,-1335.59"/>
</g>
<!-- Node10&#45;&gt;Node7 -->
<g id="edge11" class="edge">
<title>Node10&#45;&gt;Node7</title>
<path fill="none" stroke="#9a32cd" stroke-dasharray="5,2" d="M2115.37,-1328.7C2281.02,-1302.81 2474.45,-1280.62 2651,-1280.62 2651,-1280.62 2651,-1280.62 3411.5,-1280.62 3473.83,-1280.62 3923.9,-1296.27 3972,-1256.62 4026.29,-1211.86 4049.39,-972.14 4053.73,-921.16"/>
<polygon fill="#9a32cd" stroke="#9a32cd" points="2114.34,-1325.32 2105,-1330.34 2115.43,-1332.24 2114.34,-1325.32"/>
<text text-anchor="middle" x="2892.5" y="-1283.62" font-family="Helvetica,sans-Serif" font-size="10.00"> entFEAdjacencies</text>
</g>
<!-- Node11 -->
<g id="node11" class="node">
<title>Node11</title>
<g id="a_node11"><a xlink:title=" ">
<polygon fill="white" stroke="#bfbfbf" points="3378,-1162.12 3378,-1181.12 3443,-1181.12 3443,-1162.12 3378,-1162.12"/>
<text text-anchor="middle" x="3410.5" y="-1169.12" font-family="Helvetica,sans-Serif" font-size="10.00">PetscBool</text>
</a>
</g>
</g>
<!-- Node11&#45;&gt;Node7 -->
<g id="edge13" class="edge">
<title>Node11&#45;&gt;Node7</title>
<path fill="none" stroke="#9a32cd" stroke-dasharray="5,2" d="M3452.81,-1183.9C3553.14,-1211.02 3813.06,-1264.68 3972,-1146.62 4048.19,-1090.02 4054.38,-957.71 4054.59,-921.14"/>
<polygon fill="#9a32cd" stroke="#9a32cd" points="3453.62,-1180.49 3443.05,-1181.21 3451.76,-1187.24 3453.62,-1180.49"/>
<text text-anchor="middle" x="3756.5" y="-1244.62" font-family="Helvetica,sans-Serif" font-size="10.00"> initaliseAndBuildFiniteElements</text>
<text text-anchor="middle" x="3756.5" y="-1233.62" font-family="Helvetica,sans-Serif" font-size="10.00">isInitialized</text>
<text text-anchor="middle" x="3756.5" y="-1222.62" font-family="Helvetica,sans-Serif" font-size="10.00">initaliseAndBuildField</text>
</g>
<!-- Node12&#45;&gt;Node7 -->
<g id="edge14" class="edge">
<title>Node12&#45;&gt;Node7</title>
<path fill="none" stroke="#9a32cd" stroke-dasharray="5,2" d="M3290.32,-1142.91C3292.9,-1142.46 3295.46,-1142.03 3298,-1141.62 3446.17,-1117.9 3849.01,-1186.58 3972,-1100.62 4035.09,-1056.52 4050.4,-953.19 4053.68,-921.22"/>
<polygon fill="#9a32cd" stroke="#9a32cd" points="3289.53,-1139.49 3280.33,-1144.75 3290.8,-1146.38 3289.53,-1139.49"/>
<text text-anchor="middle" x="3410.5" y="-1144.62" font-family="Helvetica,sans-Serif" font-size="10.00"> fIelds</text>
</g>
<!-- Node13&#45;&gt;Node7 -->
<g id="edge16" class="edge">
<title>Node13&#45;&gt;Node7</title>
<path fill="none" stroke="#9a32cd" stroke-dasharray="5,2" d="M1846.23,-1056.29C2030.88,-1068.13 2365.05,-1086.62 2651,-1086.62 2651,-1086.62 2651,-1086.62 3411.5,-1086.62 3536.2,-1086.62 3866.03,-1125.35 3972,-1059.62 4024.25,-1027.21 4046.17,-949.07 4052.46,-921.48"/>
<polygon fill="#9a32cd" stroke="#9a32cd" points="1846.4,-1052.8 1836.2,-1055.65 1845.95,-1059.78 1846.4,-1052.8"/>
<text text-anchor="middle" x="2892.5" y="-1089.62" font-family="Helvetica,sans-Serif" font-size="10.00"> finiteElements</text>
</g>
<!-- Node14&#45;&gt;Node7 -->
<g id="edge19" class="edge">
<title>Node14&#45;&gt;Node7</title>
<path fill="none" stroke="#9a32cd" stroke-dasharray="5,2" d="M2441.57,-981.8C2630.82,-995.89 2990.91,-1020.61 3298,-1029.62 3397.96,-1032.55 3423,-1030.06 3523,-1029.62 3722.56,-1028.73 3794.68,-1117.18 3972,-1025.62 4016.07,-1002.87 4042.12,-944.51 4051.02,-921.33"/>
<polygon fill="#9a32cd" stroke="#9a32cd" points="2441.81,-978.31 2431.58,-981.06 2441.29,-985.29 2441.81,-978.31"/>
<text text-anchor="middle" x="3137" y="-1031.62" font-family="Helvetica,sans-Serif" font-size="10.00"> entsFiniteElements</text>
</g>
<!-- Node15 -->
<g id="node15" class="node">
<title>Node15</title>
<g id="a_node15"><a xlink:title=" ">
<polygon fill="white" stroke="#bfbfbf" points="3352.5,-989.62 3352.5,-1019.62 3468.5,-1019.62 3468.5,-989.62 3352.5,-989.62"/>
<text text-anchor="start" x="3360.5" y="-1007.62" font-family="Helvetica,sans-Serif" font-size="10.00">reference_wrapper&lt;</text>
<text text-anchor="middle" x="3410.5" y="-996.62" font-family="Helvetica,sans-Serif" font-size="10.00"> moab::Interface &gt;</text>
</a>
</g>
</g>
<!-- Node15&#45;&gt;Node7 -->
<g id="edge21" class="edge">
<title>Node15&#45;&gt;Node7</title>
<path fill="none" stroke="#9a32cd" stroke-dasharray="5,2" d="M3478.74,-1007.46C3607.55,-1012.01 3884.1,-1017.21 3972,-982.62 4005.06,-969.61 4034.05,-937.42 4047.13,-921.23"/>
<polygon fill="#9a32cd" stroke="#9a32cd" points="3478.73,-1003.96 3468.61,-1007.09 3478.48,-1010.95 3478.73,-1003.96"/>
<text text-anchor="middle" x="3756.5" y="-1013.62" font-family="Helvetica,sans-Serif" font-size="10.00"> moab</text>
</g>
<!-- Node16&#45;&gt;Node7 -->
<g id="edge22" class="edge">
<title>Node16&#45;&gt;Node7</title>
<path fill="none" stroke="#9a32cd" stroke-dasharray="5,2" d="M2763.44,-913.25C2891.84,-921.77 3110.15,-935.22 3298,-941.62 3405.95,-945.3 3432.99,-943.95 3541,-944.62 3732.55,-945.8 3783.9,-980.84 3972,-944.62 3995.18,-940.16 4020.12,-929.24 4036.44,-921.18"/>
<polygon fill="#9a32cd" stroke="#9a32cd" points="2763.42,-909.74 2753.21,-912.56 2762.96,-916.72 2763.42,-909.74"/>
<text text-anchor="middle" x="3137" y="-943.62" font-family="Helvetica,sans-Serif" font-size="10.00"> dofsField</text>
</g>
<!-- Node17 -->
<g id="node17" class="node">
<title>Node17</title>
<g id="a_node17"><a xlink:title=" ">
<polygon fill="white" stroke="#bfbfbf" points="3364,-913.12 3364,-932.12 3457,-932.12 3457,-913.12 3364,-913.12"/>
<text text-anchor="middle" x="3410.5" y="-920.12" font-family="Helvetica,sans-Serif" font-size="10.00">ParallelComm *</text>
</a>
</g>
</g>
<!-- Node17&#45;&gt;Node7 -->
<g id="edge24" class="edge">
<title>Node17&#45;&gt;Node7</title>
<path fill="none" stroke="#9a32cd" stroke-dasharray="5,2" d="M3467.61,-925.07C3568.63,-928.95 3787.73,-934.85 3972,-922.62 3977.77,-922.24 3983.75,-921.7 3989.73,-921.08"/>
<polygon fill="#9a32cd" stroke="#9a32cd" points="3467.47,-921.57 3457.34,-924.67 3467.2,-928.56 3467.47,-921.57"/>
<text text-anchor="middle" x="3756.5" y="-932.62" font-family="Helvetica,sans-Serif" font-size="10.00"> pComm</text>
</g>
<!-- Node18&#45;&gt;Node7 -->
<g id="edge25" class="edge">
<title>Node18&#45;&gt;Node7</title>
<path fill="none" stroke="#9a32cd" stroke-dasharray="5,2" d="M2986.28,-826.65C3109.69,-835.72 3334.23,-855.84 3523,-892.62 3531.15,-894.21 3532.79,-896.39 3541,-897.62 3700.85,-921.63 3891.75,-918.66 3989.61,-914.88"/>
<polygon fill="#9a32cd" stroke="#9a32cd" points="2986.35,-823.15 2976.12,-825.91 2985.84,-830.13 2986.35,-823.15"/>
<text text-anchor="middle" x="3410.5" y="-895.62" font-family="Helvetica,sans-Serif" font-size="10.00"> refinedFiniteElements</text>
</g>
<!-- Node19 -->
<g id="node19" class="node">
<title>Node19</title>
<g id="a_node19"><a xlink:title=" ">
<polygon fill="white" stroke="#bfbfbf" points="3396,-828.12 3396,-847.12 3425,-847.12 3425,-828.12 3396,-828.12"/>
<text text-anchor="middle" x="3410.5" y="-835.12" font-family="Helvetica,sans-Serif" font-size="10.00">int</text>
</a>
</g>
</g>
<!-- Node19&#45;&gt;Node7 -->
<g id="edge27" class="edge">
<title>Node19&#45;&gt;Node7</title>
<path fill="none" stroke="#9a32cd" stroke-dasharray="5,2" d="M3435.39,-834.95C3529.29,-824.83 3872.66,-791.37 3972,-831.62 4007.69,-846.08 4036.46,-884.21 4048.45,-902.1"/>
<polygon fill="#9a32cd" stroke="#9a32cd" points="3435,-831.47 3425.44,-836.04 3435.76,-838.43 3435,-831.47"/>
<text text-anchor="middle" x="3756.5" y="-889.62" font-family="Helvetica,sans-Serif" font-size="10.00"> sIze</text>
<text text-anchor="middle" x="3756.5" y="-878.62" font-family="Helvetica,sans-Serif" font-size="10.00">mpiInitialised</text>
<text text-anchor="middle" x="3756.5" y="-867.62" font-family="Helvetica,sans-Serif" font-size="10.00">value</text>
<text text-anchor="middle" x="3756.5" y="-856.62" font-family="Helvetica,sans-Serif" font-size="10.00">verbose</text>
<text text-anchor="middle" x="3756.5" y="-845.62" font-family="Helvetica,sans-Serif" font-size="10.00">buildMoFEM</text>
<text text-anchor="middle" x="3756.5" y="-834.62" font-family="Helvetica,sans-Serif" font-size="10.00">rAnk</text>
</g>
<!-- Node20 -->
<g id="node20" class="node">
<title>Node20</title>
<g id="a_node20"><a xlink:href="classbool.html" target="_top" xlink:title=" ">
<polygon fill="white" stroke="black" points="3391.5,-790.12 3391.5,-809.12 3429.5,-809.12 3429.5,-790.12 3391.5,-790.12"/>
<text text-anchor="middle" x="3410.5" y="-797.12" font-family="Helvetica,sans-Serif" font-size="10.00">bool</text>
</a>
</g>
</g>
<!-- Node20&#45;&gt;Node7 -->
<g id="edge28" class="edge">
<title>Node20&#45;&gt;Node7</title>
<path fill="none" stroke="#9a32cd" stroke-dasharray="5,2" d="M3439.59,-797.96C3546.52,-791.86 3924.5,-772.24 3972,-796.62 4016.38,-819.4 4042.25,-878.36 4051.06,-901.8"/>
<polygon fill="#9a32cd" stroke="#9a32cd" points="3439.34,-794.47 3429.56,-798.54 3439.74,-801.46 3439.34,-794.47"/>
<text text-anchor="middle" x="3756.5" y="-799.62" font-family="Helvetica,sans-Serif" font-size="10.00"> isGloballyInitialised</text>
</g>
<!-- Node21 -->
<g id="node21" class="node">
<title>Node21</title>
<g id="a_node21"><a xlink:title=" ">
<polygon fill="white" stroke="#bfbfbf" points="3388.5,-752.12 3388.5,-771.12 3432.5,-771.12 3432.5,-752.12 3388.5,-752.12"/>
<text text-anchor="middle" x="3410.5" y="-759.12" font-family="Helvetica,sans-Serif" font-size="10.00">string</text>
</a>
</g>
</g>
<!-- Node21&#45;&gt;Node7 -->
<g id="edge29" class="edge">
<title>Node21&#45;&gt;Node7</title>
<path fill="none" stroke="#9a32cd" stroke-dasharray="5,2" d="M3442.98,-760.28C3554.48,-755.78 3926.38,-742.92 3972,-769.62 4023.43,-799.71 4045.87,-875.31 4052.38,-902.06"/>
<polygon fill="#9a32cd" stroke="#9a32cd" points="3442.58,-756.79 3432.73,-760.7 3442.86,-763.79 3442.58,-756.79"/>
<text text-anchor="middle" x="3756.5" y="-772.62" font-family="Helvetica,sans-Serif" font-size="10.00"> optionsPrefix</text>
</g>
<!-- Node22 -->
<g id="node22" class="node">
<title>Node22</title>
<g id="a_node22"><a xlink:title=" ">
<polygon fill="white" stroke="#bfbfbf" points="3349.5,-702.62 3349.5,-732.62 3471.5,-732.62 3471.5,-702.62 3349.5,-702.62"/>
<text text-anchor="start" x="3357.5" y="-720.62" font-family="Helvetica,sans-Serif" font-size="10.00">shared_ptr&lt; MoFEM::</text>
<text text-anchor="middle" x="3410.5" y="-709.62" font-family="Helvetica,sans-Serif" font-size="10.00">WrapMPIComm &gt;</text>
</a>
</g>
</g>
<!-- Node22&#45;&gt;Node7 -->
<g id="edge30" class="edge">
<title>Node22&#45;&gt;Node7</title>
<path fill="none" stroke="#9a32cd" stroke-dasharray="5,2" d="M3481.87,-716.1C3623.32,-713.61 3932.05,-711.34 3972,-737.62 4031.49,-776.75 4049.1,-871.22 4053.33,-901.85"/>
<polygon fill="#9a32cd" stroke="#9a32cd" points="3481.51,-712.6 3471.57,-716.28 3481.64,-719.6 3481.51,-712.6"/>
<text text-anchor="middle" x="3756.5" y="-740.62" font-family="Helvetica,sans-Serif" font-size="10.00"> wrapMPIMOABComm</text>
</g>
<!-- Node23 -->
<g id="node23" class="node">
<title>Node23</title>
<g id="a_node23"><a xlink:title=" ">
<polygon fill="white" stroke="#bfbfbf" points="3366.5,-664.12 3366.5,-683.12 3454.5,-683.12 3454.5,-664.12 3366.5,-664.12"/>
<text text-anchor="middle" x="3410.5" y="-671.12" font-family="Helvetica,sans-Serif" font-size="10.00">PetscLogEvent</text>
</a>
</g>
</g>
<!-- Node23&#45;&gt;Node7 -->
<g id="edge31" class="edge">
<title>Node23&#45;&gt;Node7</title>
<path fill="none" stroke="#9a32cd" stroke-dasharray="5,2" d="M3465.12,-669.39C3597.4,-659.45 3931.55,-637.56 3972,-666.62 4052.19,-724.23 4055.48,-863.76 4054.82,-901.86"/>
<polygon fill="#9a32cd" stroke="#9a32cd" points="3464.53,-665.92 3454.82,-670.17 3465.06,-672.9 3464.53,-665.92"/>
<text text-anchor="middle" x="3756.5" y="-702.62" font-family="Helvetica,sans-Serif" font-size="10.00"> MOFEM_EVENT_createMat</text>
<text text-anchor="middle" x="3756.5" y="-691.62" font-family="Helvetica,sans-Serif" font-size="10.00">MOFEM_EVENT_postProcess</text>
<text text-anchor="middle" x="3756.5" y="-680.62" font-family="Helvetica,sans-Serif" font-size="10.00">MOFEM_EVENT_preProcess</text>
<text text-anchor="middle" x="3756.5" y="-669.62" font-family="Helvetica,sans-Serif" font-size="10.00">MOFEM_EVENT_operator</text>
</g>
<!-- Node24&#45;&gt;Node7 -->
<g id="edge32" class="edge">
<title>Node24&#45;&gt;Node7</title>
<path fill="none" stroke="#9a32cd" stroke-dasharray="5,2" d="M3262.66,-629.49C3481.44,-619.88 3916.7,-606.35 3972,-647.62 4057.24,-711.24 4056.74,-862.4 4055.05,-901.99"/>
<polygon fill="#9a32cd" stroke="#9a32cd" points="3262.24,-626 3252.4,-629.94 3262.55,-633 3262.24,-626"/>
<text text-anchor="middle" x="3410.5" y="-630.62" font-family="Helvetica,sans-Serif" font-size="10.00"> entsFields</text>
</g>
<!-- Node25 -->
<g id="node25" class="node">
<title>Node25</title>
<g id="a_node25"><a xlink:title=" ">
<polygon fill="white" stroke="#bfbfbf" points="3349.5,-567.62 3349.5,-597.62 3471.5,-597.62 3471.5,-567.62 3349.5,-567.62"/>
<text text-anchor="start" x="3357.5" y="-585.62" font-family="Helvetica,sans-Serif" font-size="10.00">shared_ptr&lt; MoFEM::</text>
<text text-anchor="middle" x="3410.5" y="-574.62" font-family="Helvetica,sans-Serif" font-size="10.00">BasicEntityData &gt;</text>
</a>
</g>
</g>
<!-- Node25&#45;&gt;Node7 -->
<g id="edge34" class="edge">
<title>Node25&#45;&gt;Node7</title>
<path fill="none" stroke="#9a32cd" stroke-dasharray="5,2" d="M3481.82,-575.3C3615.21,-562.97 3898.27,-544.81 3972,-603.62 4021.01,-642.71 4047.88,-853.73 4053.42,-901.85"/>
<polygon fill="#9a32cd" stroke="#9a32cd" points="3481.34,-571.83 3471.71,-576.25 3481.99,-578.8 3481.34,-571.83"/>
<text text-anchor="middle" x="3756.5" y="-606.62" font-family="Helvetica,sans-Serif" font-size="10.00"> basicEntityDataPtr</text>
</g>
<!-- Node26 -->
<g id="node26" class="node">
<title>Node26</title>
<g id="a_node26"><a xlink:title=" ">
<polygon fill="white" stroke="#bfbfbf" points="3374.5,-529.12 3374.5,-548.12 3446.5,-548.12 3446.5,-529.12 3374.5,-529.12"/>
<text text-anchor="middle" x="3410.5" y="-536.12" font-family="Helvetica,sans-Serif" font-size="10.00">MPI_Comm</text>
</a>
</g>
</g>
<!-- Node26&#45;&gt;Node7 -->
<g id="edge35" class="edge">
<title>Node26&#45;&gt;Node7</title>
<path fill="none" stroke="#9a32cd" stroke-dasharray="5,2" d="M3457.03,-536.19C3583.52,-529.87 3932.5,-515.55 3972,-547.62 4029.6,-594.39 4050.16,-848.75 4053.86,-901.89"/>
<polygon fill="#9a32cd" stroke="#9a32cd" points="3456.71,-532.7 3446.9,-536.7 3457.06,-539.69 3456.71,-532.7"/>
<text text-anchor="middle" x="3756.5" y="-550.62" font-family="Helvetica,sans-Serif" font-size="10.00"> mofemComm</text>
</g>
<!-- Node27&#45;&gt;Node7 -->
<g id="edge36" class="edge">
<title>Node27&#45;&gt;Node7</title>
<path fill="none" stroke="#9a32cd" stroke-dasharray="5,2" d="M1839.24,-500.62C2022.42,-500.62 2361.62,-500.62 2651,-500.62 2651,-500.62 2651,-500.62 3411.5,-500.62 3473.83,-500.62 3926.49,-480.03 3972,-522.62 3999.74,-548.58 3982.6,-655.36 3990,-692.62 4006.36,-775.04 4039.86,-871.14 4050.89,-901.74"/>
<polygon fill="#9a32cd" stroke="#9a32cd" points="1839.02,-497.12 1829.02,-500.62 1839.02,-504.12 1839.02,-497.12"/>
<text text-anchor="middle" x="2892.5" y="-503.62" font-family="Helvetica,sans-Serif" font-size="10.00"> pRoblems</text>
</g>
<!-- Node28&#45;&gt;Node7 -->
<g id="edge38" class="edge">
<title>Node28&#45;&gt;Node7</title>
<path fill="none" stroke="#9a32cd" stroke-dasharray="5,2" d="M2497.41,-377.29C2931.72,-409.01 3970.37,-485.01 3972,-486.62 3988.35,-502.76 3985.73,-670.04 3990,-692.62 4005.6,-775.18 4039.6,-871.19 4050.82,-901.75"/>
<polygon fill="#9a32cd" stroke="#9a32cd" points="2497.49,-373.79 2487.27,-376.55 2496.99,-380.77 2497.49,-373.79"/>
<text text-anchor="middle" x="3137" y="-436.62" font-family="Helvetica,sans-Serif" font-size="10.00"> refinedEntities</text>
</g>
<!-- Node29 -->
<g id="node29" class="node">
<title>Node29</title>
<g id="a_node29"><a xlink:title=" ">
<polygon fill="white" stroke="#bfbfbf" points="3298,-395.62 3298,-425.62 3523,-425.62 3523,-395.62 3298,-395.62"/>
<text text-anchor="start" x="3306" y="-413.62" font-family="Helvetica,sans-Serif" font-size="10.00">ptr_map&lt; boost::typeindex</text>
<text text-anchor="middle" x="3410.5" y="-402.62" font-family="Helvetica,sans-Serif" font-size="10.00">::type_index, MoFEM::UnknownInterface &gt;</text>
</a>
</g>
</g>
<!-- Node29&#45;&gt;Node7 -->
<g id="edge40" class="edge">
<title>Node29&#45;&gt;Node7</title>
<path fill="none" stroke="#9a32cd" stroke-dasharray="5,2" d="M3465.6,-392.62C3575.84,-359.71 3828.16,-304.08 3972,-429.62 3976.69,-433.71 4042.01,-834.74 4052.95,-902.08"/>
<polygon fill="#9a32cd" stroke="#9a32cd" points="3464.57,-389.28 3456.02,-395.54 3466.6,-395.98 3464.57,-389.28"/>
<text text-anchor="middle" x="3756.5" y="-432.62" font-family="Helvetica,sans-Serif" font-size="10.00"> iFaces</text>
</g>
<!-- Node30&#45;&gt;Node1 -->
<g id="edge41" class="edge">
<title>Node30&#45;&gt;Node1</title>
<path fill="none" stroke="#9a32cd" stroke-dasharray="5,2" d="M3907.65,-263.72C3931.75,-289.53 3954.49,-317.93 3972,-347.62 4215.81,-761.01 4244.86,-1381.08 4247.72,-1465.08"/>
<polygon fill="#9a32cd" stroke="#9a32cd" points="3909.9,-261 3900.48,-256.15 3904.82,-265.82 3909.9,-261"/>
<text text-anchor="middle" x="4055.5" y="-680.62" font-family="Helvetica,sans-Serif" font-size="10.00"> seriesSteps</text>
</g>
</g>
</svg>
        <g id="navigator" transform="translate(0 0)" fill="#404254">
                <rect fill="#f2f5e9" fill-opacity="0.5" stroke="#606060" stroke-width=".5" x="0" y="0" width="60" height="60"/>
                <use id="zoomplus" xlink:href="#zoomPlus" x="17" y="9" onmousedown="handleZoom(evt,'in')"/>
                <use id="zoomminus" xlink:href="#zoomMin" x="42" y="9" onmousedown="handleZoom(evt,'out')"/>
                <use id="reset" xlink:href="#resetDef" x="30" y="36" onmousedown="handleReset()"/>
                <g id="arrowUp" xlink:href="#dirArrow" transform="translate(30 24)" onmousedown="handlePan(0,-1)">
                  <use xlink:href="#rim" fill="#404040">
                        <set attributeName="fill" to="#808080" begin="arrowUp.mouseover" end="arrowUp.mouseout"/>
                  </use>
                  <path fill="none" stroke="white" stroke-width="1.5" d="M0,-3.0v7 M-2.5,-0.5L0,-3.0L2.5,-0.5"/>
                </g>
                <g id="arrowRight" xlink:href="#dirArrow" transform="rotate(90) translate(36 -43)" onmousedown="handlePan(1,0)">
                  <use xlink:href="#rim" fill="#404040">
                        <set attributeName="fill" to="#808080" begin="arrowRight.mouseover" end="arrowRight.mouseout"/>
                  </use>
                  <path fill="none" stroke="white" stroke-width="1.5" d="M0,-3.0v7 M-2.5,-0.5L0,-3.0L2.5,-0.5"/>
                </g>
                <g id="arrowDown" xlink:href="#dirArrow" transform="rotate(180) translate(-30 -48)" onmousedown="handlePan(0,1)">
                  <use xlink:href="#rim" fill="#404040">
                        <set attributeName="fill" to="#808080" begin="arrowDown.mouseover" end="arrowDown.mouseout"/>
                  </use>
                  <path fill="none" stroke="white" stroke-width="1.5" d="M0,-3.0v7 M-2.5,-0.5L0,-3.0L2.5,-0.5"/>
                </g>
                <g id="arrowLeft" xlink:href="#dirArrow" transform="rotate(270) translate(-36 17)" onmousedown="handlePan(-1,0)">
                  <use xlink:href="#rim" fill="#404040">
                        <set attributeName="fill" to="#808080" begin="arrowLeft.mouseover" end="arrowLeft.mouseout"/>
                  </use>
                  <path fill="none" stroke="white" stroke-width="1.5" d="M0,-3.0v7 M-2.5,-0.5L0,-3.0L2.5,-0.5"/>
                </g>
        </g>
        <svg viewBox="0 0 15 15" width="100%" height="30px" preserveAspectRatio="xMaxYMin meet">
         <g id="arrow_out" transform="scale(0.3 0.3)">
          <a xlink:href="structMoFEM_1_1SeriesRecorder__coll__graph_org.svg" target="_base">
           <rect id="button" ry="5" rx="5" y="6" x="6" height="38" width="38"
                fill="#f2f5e9" fill-opacity="0.5" stroke="#606060" stroke-width="1.0"/>
           <path id="arrow"
             d="M 11.500037,31.436501 C 11.940474,20.09759 22.043105,11.32322 32.158766,21.979434 L 37.068811,17.246167 C 37.068811,17.246167 37.088388,32 37.088388,32 L 22.160133,31.978069 C 22.160133,31.978069 26.997745,27.140456 26.997745,27.140456 C 18.528582,18.264221 13.291696,25.230495 11.500037,31.436501 z"
             style="fill:#404040;"/>
          </a>
         </g>
        </svg>
</svg>
