<?xml version="1.0" encoding="UTF-8" standalone="no"?>
<!DOCTYPE svg PUBLIC "-//W3C//DTD SVG 1.1//EN"
 "http://www.w3.org/Graphics/SVG/1.1/DTD/svg11.dtd">
<!-- Generated by graphviz version 2.43.0 (0)
 -->
<!-- Title: FractureMechanics::GriffithForceElement Pages: 1 -->
<!--zoomable 364 -->
<svg id="main" version="1.1" xmlns="http://www.w3.org/2000/svg" xmlns:xlink="http://www.w3.org/1999/xlink" xml:space="preserve" onload="init(evt)">
<style type="text/css"><![CDATA[
.edge:hover path { stroke: red; }
.edge:hover polygon { stroke: red; fill: red; }
]]></style>
<script type="text/javascript"><![CDATA[
var edges = document.getElementsByTagName('g');
if (edges && edges.length) {
  for (var i=0;i<edges.length;i++) {
    if (edges[i].id.substr(0,4)=='edge') {
      edges[i].setAttribute('class','edge');
    }
  }
}
]]></script>
        <defs>
                <circle id="rim" cx="0" cy="0" r="7"/>
                <circle id="rim2" cx="0" cy="0" r="3.5"/>
                <g id="zoomPlus">
                        <use xlink:href="#rim" fill="#404040">
                                <set attributeName="fill" to="#808080" begin="zoomplus.mouseover" end="zoomplus.mouseout"/>
                        </use>
                        <path d="M-4,0h8M0,-4v8" fill="none" stroke="white" stroke-width="1.5" pointer-events="none"/>
                </g>
                <g id="zoomMin">
                        <use xlink:href="#rim" fill="#404040">
                                <set attributeName="fill" to="#808080" begin="zoomminus.mouseover" end="zoomminus.mouseout"/>
                        </use>
                        <path d="M-4,0h8" fill="none" stroke="white" stroke-width="1.5" pointer-events="none"/>
                </g>
                <g id="dirArrow">
                        <path fill="none" stroke="white" stroke-width="1.5" d="M0,-3.0v7 M-2.5,-0.5L0,-3.0L2.5,-0.5"/>
                </g>
               <g id="resetDef">
                       <use xlink:href="#rim2" fill="#404040">
                               <set attributeName="fill" to="#808080" begin="reset.mouseover" end="reset.mouseout"/>
                       </use>
               </g>
        </defs>

<script type="text/javascript">
var viewWidth = 1719;
var viewHeight = 364;
var sectionId = 'dynsection-0';
</script>
<script xlink:href="svgpan.js"/>
<svg id="graph" class="graph">
<g id="viewport">
<title>FractureMechanics::GriffithForceElement</title>
<polygon fill="white" stroke="transparent" points="-4,4 -4,-360 1715,-360 1715,4 -4,4"/>
<!-- Node1 -->
<g id="node1" class="node">
<title>Node1</title>
<g id="a_node1"><a xlink:title="Implementation of Griffith element.">
<polygon fill="#bfbfbf" stroke="black" points="1594,-198 1594,-228 1711,-228 1711,-198 1594,-198"/>
<text text-anchor="start" x="1602" y="-216" font-family="Helvetica,sans-Serif" font-size="10.00">FractureMechanics::</text>
<text text-anchor="middle" x="1652.5" y="-205" font-family="Helvetica,sans-Serif" font-size="10.00">GriffithForceElement</text>
</a>
</g>
</g>
<!-- Node2 -->
<g id="node2" class="node">
<title>Node2</title>
<g id="a_node2"><a xlink:href="structMoFEM_1_1DeprecatedCoreInterface.html" target="_top" xlink:title="Deprecated interface functions.">
<polygon fill="white" stroke="black" points="1294.5,-302.5 1294.5,-321.5 1475.5,-321.5 1475.5,-302.5 1294.5,-302.5"/>
<text text-anchor="middle" x="1385" y="-309.5" font-family="Helvetica,sans-Serif" font-size="10.00">MoFEM::DeprecatedCoreInterface</text>
</a>
</g>
</g>
<!-- Node2&#45;&gt;Node1 -->
<g id="edge1" class="edge">
<title>Node2&#45;&gt;Node1</title>
<path fill="none" stroke="#9a32cd" stroke-dasharray="5,2" d="M1472.42,-300.49C1505.91,-293.88 1543.86,-283.65 1576,-268 1597.87,-257.35 1620.03,-240.3 1634.64,-228"/>
<polygon fill="#9a32cd" stroke="#9a32cd" points="1471.35,-297.13 1462.18,-302.43 1472.65,-304.01 1471.35,-297.13"/>
<text text-anchor="middle" x="1541" y="-294" font-family="Helvetica,sans-Serif" font-size="10.00"> mField</text>
</g>
<!-- Node3 -->
<g id="node3" class="node">
<title>Node3</title>
<g id="a_node3"><a xlink:href="structMoFEM_1_1CoreInterface.html" target="_top" xlink:title="Interface.">
<polygon fill="white" stroke="black" points="952.5,-302.5 952.5,-321.5 1077.5,-321.5 1077.5,-302.5 952.5,-302.5"/>
<text text-anchor="middle" x="1015" y="-309.5" font-family="Helvetica,sans-Serif" font-size="10.00">MoFEM::CoreInterface</text>
</a>
</g>
</g>
<!-- Node3&#45;&gt;Node2 -->
<g id="edge2" class="edge">
<title>Node3&#45;&gt;Node2</title>
<path fill="none" stroke="midnightblue" d="M1087.95,-312C1146.97,-312 1230.85,-312 1294.26,-312"/>
<polygon fill="midnightblue" stroke="midnightblue" points="1087.59,-308.5 1077.59,-312 1087.59,-315.5 1087.59,-308.5"/>
</g>
<!-- Node4 -->
<g id="node4" class="node">
<title>Node4</title>
<g id="a_node4"><a xlink:href="structMoFEM_1_1UnknownInterface.html" target="_top" xlink:title="base class for all interface classes">
<polygon fill="white" stroke="black" points="735,-302.5 735,-321.5 883,-321.5 883,-302.5 735,-302.5"/>
<text text-anchor="middle" x="809" y="-309.5" font-family="Helvetica,sans-Serif" font-size="10.00">MoFEM::UnknownInterface</text>
</a>
</g>
</g>
<!-- Node4&#45;&gt;Node3 -->
<g id="edge3" class="edge">
<title>Node4&#45;&gt;Node3</title>
<path fill="none" stroke="midnightblue" d="M893.27,-312C912.98,-312 933.65,-312 952.21,-312"/>
<polygon fill="midnightblue" stroke="midnightblue" points="893.07,-308.5 883.07,-312 893.07,-315.5 893.07,-308.5"/>
</g>
<!-- Node5 -->
<g id="node5" class="node">
<title>Node5</title>
<g id="a_node5"><a xlink:title=" ">
<polygon fill="white" stroke="#bfbfbf" points="386,-280.5 386,-343.5 627,-343.5 627,-280.5 386,-280.5"/>
<text text-anchor="start" x="394" y="-331.5" font-family="Helvetica,sans-Serif" font-size="10.00">multi_index_container</text>
<text text-anchor="start" x="394" y="-320.5" font-family="Helvetica,sans-Serif" font-size="10.00">&lt; UIdTypeMap, indexed</text>
<text text-anchor="start" x="394" y="-309.5" font-family="Helvetica,sans-Serif" font-size="10.00">_by&lt; hashed_unique&lt; member</text>
<text text-anchor="start" x="394" y="-298.5" font-family="Helvetica,sans-Serif" font-size="10.00">&lt; UIdTypeMap, boost::typeindex</text>
<text text-anchor="middle" x="506.5" y="-287.5" font-family="Helvetica,sans-Serif" font-size="10.00">::type_index, &amp;UIdTypeMap::classIdx &gt; &gt; &gt; &gt;</text>
</a>
</g>
</g>
<!-- Node5&#45;&gt;Node4 -->
<g id="edge4" class="edge">
<title>Node5&#45;&gt;Node4</title>
<path fill="none" stroke="#9a32cd" stroke-dasharray="5,2" d="M637.41,-312C670.69,-312 705.33,-312 734.62,-312"/>
<polygon fill="#9a32cd" stroke="#9a32cd" points="637.13,-308.5 627.13,-312 637.13,-315.5 637.13,-308.5"/>
<text text-anchor="middle" x="681" y="-315" font-family="Helvetica,sans-Serif" font-size="10.00"> iFaceTypeMap</text>
</g>
<!-- Node6 -->
<g id="node6" class="node">
<title>Node6</title>
<g id="a_node6"><a xlink:title=" ">
<polygon fill="white" stroke="#bfbfbf" points="0,-302.5 0,-321.5 125,-321.5 125,-302.5 0,-302.5"/>
<text text-anchor="middle" x="62.5" y="-309.5" font-family="Helvetica,sans-Serif" font-size="10.00">multi_index_container</text>
</a>
</g>
</g>
<!-- Node6&#45;&gt;Node5 -->
<g id="edge5" class="edge">
<title>Node6&#45;&gt;Node5</title>
<path fill="none" stroke="orange" stroke-dasharray="5,2" d="M135.56,-312C203.25,-312 305.79,-312 385.77,-312"/>
<polygon fill="orange" stroke="orange" points="135.42,-308.5 125.42,-312 135.42,-315.5 135.42,-308.5"/>
<text text-anchor="start" x="143" y="-348" font-family="Helvetica,sans-Serif" font-size="10.00"> &lt; UIdTypeMap, indexed</text>
<text text-anchor="start" x="143" y="-337" font-family="Helvetica,sans-Serif" font-size="10.00">_by&lt; hashed_unique&lt; member</text>
<text text-anchor="start" x="143" y="-326" font-family="Helvetica,sans-Serif" font-size="10.00">&lt; UIdTypeMap, boost::typeindex</text>
<text text-anchor="middle" x="255.5" y="-315" font-family="Helvetica,sans-Serif" font-size="10.00">::type_index, &amp;UIdTypeMap::classIdx &gt; &gt; &gt; &gt;</text>
</g>
<!-- Node7 -->
<g id="node7" class="node">
<title>Node7</title>
<g id="a_node7"><a xlink:title=" ">
<polygon fill="white" stroke="#bfbfbf" points="1282,-253 1282,-283 1488,-283 1488,-253 1282,-253"/>
<text text-anchor="start" x="1290" y="-271" font-family="Helvetica,sans-Serif" font-size="10.00">shared_ptr&lt; FractureMechanics</text>
<text text-anchor="middle" x="1385" y="-260" font-family="Helvetica,sans-Serif" font-size="10.00">::GriffithForceElement::MyTriangleFE &gt;</text>
</a>
</g>
</g>
<!-- Node7&#45;&gt;Node1 -->
<g id="edge6" class="edge">
<title>Node7&#45;&gt;Node1</title>
<path fill="none" stroke="#9a32cd" stroke-dasharray="5,2" d="M1468.44,-250.92C1509.07,-242.5 1557.09,-232.56 1593.75,-224.96"/>
<polygon fill="#9a32cd" stroke="#9a32cd" points="1467.63,-247.52 1458.55,-252.97 1469.05,-254.37 1467.63,-247.52"/>
<text text-anchor="middle" x="1541" y="-256" font-family="Helvetica,sans-Serif" font-size="10.00"> feRhsPtr</text>
<text text-anchor="middle" x="1541" y="-245" font-family="Helvetica,sans-Serif" font-size="10.00">feLhsPtr</text>
</g>
<!-- Node8 -->
<g id="node8" class="node">
<title>Node8</title>
<g id="a_node8"><a xlink:title=" ">
<polygon fill="white" stroke="#bfbfbf" points="1305,-192.5 1305,-233.5 1465,-233.5 1465,-192.5 1305,-192.5"/>
<text text-anchor="start" x="1313" y="-221.5" font-family="Helvetica,sans-Serif" font-size="10.00">map&lt; int, FractureMechanics</text>
<text text-anchor="start" x="1313" y="-210.5" font-family="Helvetica,sans-Serif" font-size="10.00">::GriffithForceElement::</text>
<text text-anchor="middle" x="1385" y="-199.5" font-family="Helvetica,sans-Serif" font-size="10.00">BlockData &gt;</text>
</a>
</g>
</g>
<!-- Node8&#45;&gt;Node1 -->
<g id="edge7" class="edge">
<title>Node8&#45;&gt;Node1</title>
<path fill="none" stroke="#9a32cd" stroke-dasharray="5,2" d="M1475.61,-213C1514.6,-213 1559.16,-213 1593.68,-213"/>
<polygon fill="#9a32cd" stroke="#9a32cd" points="1475.3,-209.5 1465.3,-213 1475.3,-216.5 1475.3,-209.5"/>
<text text-anchor="middle" x="1541" y="-216" font-family="Helvetica,sans-Serif" font-size="10.00"> blockData</text>
</g>
<!-- Node9 -->
<g id="node9" class="node">
<title>Node9</title>
<g id="a_node9"><a xlink:href="structFractureMechanics_1_1GriffithForceElement_1_1MyTriangleFE.html" target="_top" xlink:title=" ">
<polygon fill="white" stroke="black" points="1326.5,-132.5 1326.5,-173.5 1443.5,-173.5 1443.5,-132.5 1326.5,-132.5"/>
<text text-anchor="start" x="1334.5" y="-161.5" font-family="Helvetica,sans-Serif" font-size="10.00">FractureMechanics::</text>
<text text-anchor="start" x="1334.5" y="-150.5" font-family="Helvetica,sans-Serif" font-size="10.00">GriffithForceElement</text>
<text text-anchor="middle" x="1385" y="-139.5" font-family="Helvetica,sans-Serif" font-size="10.00">::MyTriangleFE</text>
</a>
</g>
</g>
<!-- Node9&#45;&gt;Node1 -->
<g id="edge8" class="edge">
<title>Node9&#45;&gt;Node1</title>
<path fill="none" stroke="#9a32cd" stroke-dasharray="5,2" d="M1453.91,-162.54C1490.39,-168.32 1535.98,-176.59 1576,-187 1587.67,-190.03 1600.13,-194.01 1611.49,-197.94"/>
<polygon fill="#9a32cd" stroke="#9a32cd" points="1454.29,-159.06 1443.87,-160.98 1453.21,-165.98 1454.29,-159.06"/>
<text text-anchor="middle" x="1541" y="-201" font-family="Helvetica,sans-Serif" font-size="10.00"> feLhs</text>
<text text-anchor="middle" x="1541" y="-190" font-family="Helvetica,sans-Serif" font-size="10.00">feRhs</text>
</g>
<!-- Node10 -->
<g id="node10" class="node">
<title>Node10</title>
<g id="a_node10"><a xlink:href="classFaceElementForcesAndSourcesCore.html" target="_top" xlink:title=" ">
<polygon fill="white" stroke="black" points="920,-202.5 920,-221.5 1110,-221.5 1110,-202.5 920,-202.5"/>
<text text-anchor="middle" x="1015" y="-209.5" font-family="Helvetica,sans-Serif" font-size="10.00">FaceElementForcesAndSourcesCore</text>
</a>
</g>
</g>
<!-- Node10&#45;&gt;Node9 -->
<g id="edge9" class="edge">
<title>Node10&#45;&gt;Node9</title>
<path fill="none" stroke="midnightblue" d="M1119.97,-202.16C1164.5,-197.23 1216.98,-190.5 1264,-182 1284.46,-178.3 1306.64,-173.24 1326.31,-168.39"/>
<polygon fill="midnightblue" stroke="midnightblue" points="1119.57,-198.68 1110.01,-203.24 1120.33,-205.64 1119.57,-198.68"/>
</g>
<!-- Node11 -->
<g id="node11" class="node">
<title>Node11</title>
<g id="a_node11"><a xlink:title=" ">
<polygon fill="white" stroke="#bfbfbf" points="997.5,-164.5 997.5,-183.5 1032.5,-183.5 1032.5,-164.5 997.5,-164.5"/>
<text text-anchor="middle" x="1015" y="-171.5" font-family="Helvetica,sans-Serif" font-size="10.00">Mat</text>
</a>
</g>
</g>
<!-- Node11&#45;&gt;Node9 -->
<g id="edge10" class="edge">
<title>Node11&#45;&gt;Node9</title>
<path fill="none" stroke="#9a32cd" stroke-dasharray="5,2" d="M1042.84,-172.47C1102.2,-169.08 1245.76,-160.89 1326.46,-156.28"/>
<polygon fill="#9a32cd" stroke="#9a32cd" points="1042.55,-168.98 1032.77,-173.04 1042.95,-175.97 1042.55,-168.98"/>
<text text-anchor="middle" x="1196" y="-170" font-family="Helvetica,sans-Serif" font-size="10.00"> B</text>
</g>
<!-- Node12 -->
<g id="node12" class="node">
<title>Node12</title>
<g id="a_node12"><a xlink:title=" ">
<polygon fill="white" stroke="#bfbfbf" points="998,-126.5 998,-145.5 1032,-145.5 1032,-126.5 998,-126.5"/>
<text text-anchor="middle" x="1015" y="-133.5" font-family="Helvetica,sans-Serif" font-size="10.00">Vec</text>
</a>
</g>
</g>
<!-- Node12&#45;&gt;Node9 -->
<g id="edge11" class="edge">
<title>Node12&#45;&gt;Node9</title>
<path fill="none" stroke="#9a32cd" stroke-dasharray="5,2" d="M1042.43,-135.84C1087.79,-135.73 1183.38,-136.16 1264,-141 1284.38,-142.22 1306.64,-144.25 1326.39,-146.3"/>
<polygon fill="#9a32cd" stroke="#9a32cd" points="1042.25,-132.34 1032.27,-135.88 1042.28,-139.34 1042.25,-132.34"/>
<text text-anchor="middle" x="1196" y="-144" font-family="Helvetica,sans-Serif" font-size="10.00"> F</text>
</g>
<!-- Node13 -->
<g id="node13" class="node">
<title>Node13</title>
<g id="a_node13"><a xlink:href="structFractureMechanics_1_1GriffithForceElement_1_1CommonData.html" target="_top" xlink:title=" ">
<polygon fill="white" stroke="black" points="1326.5,-57.5 1326.5,-98.5 1443.5,-98.5 1443.5,-57.5 1326.5,-57.5"/>
<text text-anchor="start" x="1334.5" y="-86.5" font-family="Helvetica,sans-Serif" font-size="10.00">FractureMechanics::</text>
<text text-anchor="start" x="1334.5" y="-75.5" font-family="Helvetica,sans-Serif" font-size="10.00">GriffithForceElement</text>
<text text-anchor="middle" x="1385" y="-64.5" font-family="Helvetica,sans-Serif" font-size="10.00">::CommonData</text>
</a>
</g>
</g>
<!-- Node13&#45;&gt;Node1 -->
<g id="edge12" class="edge">
<title>Node13&#45;&gt;Node1</title>
<path fill="none" stroke="#9a32cd" stroke-dasharray="5,2" d="M1453.56,-101.47C1490.73,-115.52 1537.07,-134.91 1576,-157 1597.01,-168.92 1618.96,-185.77 1633.74,-197.87"/>
<polygon fill="#9a32cd" stroke="#9a32cd" points="1454.42,-98.06 1443.83,-97.84 1451.97,-104.62 1454.42,-98.06"/>
<text text-anchor="middle" x="1541" y="-160" font-family="Helvetica,sans-Serif" font-size="10.00"> commonData</text>
</g>
<!-- Node14 -->
<g id="node14" class="node">
<title>Node14</title>
<g id="a_node14"><a xlink:title=" ">
<polygon fill="white" stroke="#bfbfbf" points="973.5,-83.5 973.5,-102.5 1056.5,-102.5 1056.5,-83.5 973.5,-83.5"/>
<text text-anchor="middle" x="1015" y="-90.5" font-family="Helvetica,sans-Serif" font-size="10.00">MatrixDouble</text>
</a>
</g>
</g>
<!-- Node14&#45;&gt;Node13 -->
<g id="edge13" class="edge">
<title>Node14&#45;&gt;Node13</title>
<path fill="none" stroke="#9a32cd" stroke-dasharray="5,2" d="M1066.84,-90.93C1134.86,-88.16 1255.17,-83.25 1326.45,-80.35"/>
<polygon fill="#9a32cd" stroke="#9a32cd" points="1066.64,-87.43 1056.79,-91.34 1066.92,-94.43 1066.64,-87.43"/>
<text text-anchor="middle" x="1196" y="-102" font-family="Helvetica,sans-Serif" font-size="10.00"> tangentGriffithForce</text>
<text text-anchor="middle" x="1196" y="-91" font-family="Helvetica,sans-Serif" font-size="10.00">diffRho</text>
</g>
<!-- Node15 -->
<g id="node15" class="node">
<title>Node15</title>
<g id="a_node15"><a xlink:title=" ">
<polygon fill="white" stroke="#bfbfbf" points="974,-38.5 974,-57.5 1056,-57.5 1056,-38.5 974,-38.5"/>
<text text-anchor="middle" x="1015" y="-45.5" font-family="Helvetica,sans-Serif" font-size="10.00">VectorDouble</text>
</a>
</g>
</g>
<!-- Node15&#45;&gt;Node13 -->
<g id="edge14" class="edge">
<title>Node15&#45;&gt;Node13</title>
<path fill="none" stroke="#9a32cd" stroke-dasharray="5,2" d="M1066.32,-47.81C1116.53,-48.1 1195.8,-49.83 1264,-57 1284.4,-59.15 1306.57,-62.68 1326.24,-66.24"/>
<polygon fill="#9a32cd" stroke="#9a32cd" points="1066.08,-44.31 1056.06,-47.77 1066.05,-51.31 1066.08,-44.31"/>
<text text-anchor="middle" x="1196" y="-71" font-family="Helvetica,sans-Serif" font-size="10.00"> griffithForce</text>
<text text-anchor="middle" x="1196" y="-60" font-family="Helvetica,sans-Serif" font-size="10.00">densityRho</text>
</g>
<!-- Node16 -->
<g id="node16" class="node">
<title>Node16</title>
<g id="a_node16"><a xlink:title=" ">
<polygon fill="white" stroke="#bfbfbf" points="959.5,-0.5 959.5,-19.5 1070.5,-19.5 1070.5,-0.5 959.5,-0.5"/>
<text text-anchor="middle" x="1015" y="-7.5" font-family="Helvetica,sans-Serif" font-size="10.00">vector&lt; double * &gt;</text>
</a>
</g>
</g>
<!-- Node16&#45;&gt;Node13 -->
<g id="edge15" class="edge">
<title>Node16&#45;&gt;Node13</title>
<path fill="none" stroke="#9a32cd" stroke-dasharray="5,2" d="M1080.97,-11.31C1131.43,-13.46 1202.89,-18.97 1264,-33 1289.05,-38.75 1315.92,-48.47 1337.87,-57.41"/>
<polygon fill="#9a32cd" stroke="#9a32cd" points="1080.97,-7.81 1070.84,-10.91 1080.7,-14.8 1080.97,-7.81"/>
<text text-anchor="middle" x="1196" y="-36" font-family="Helvetica,sans-Serif" font-size="10.00"> tangentGriffithForceRowPtr</text>
</g>
</g>
</svg>
        <g id="navigator" transform="translate(0 0)" fill="#404254">
                <rect fill="#f2f5e9" fill-opacity="0.5" stroke="#606060" stroke-width=".5" x="0" y="0" width="60" height="60"/>
                <use id="zoomplus" xlink:href="#zoomPlus" x="17" y="9" onmousedown="handleZoom(evt,'in')"/>
                <use id="zoomminus" xlink:href="#zoomMin" x="42" y="9" onmousedown="handleZoom(evt,'out')"/>
                <use id="reset" xlink:href="#resetDef" x="30" y="36" onmousedown="handleReset()"/>
                <g id="arrowUp" xlink:href="#dirArrow" transform="translate(30 24)" onmousedown="handlePan(0,-1)">
                  <use xlink:href="#rim" fill="#404040">
                        <set attributeName="fill" to="#808080" begin="arrowUp.mouseover" end="arrowUp.mouseout"/>
                  </use>
                  <path fill="none" stroke="white" stroke-width="1.5" d="M0,-3.0v7 M-2.5,-0.5L0,-3.0L2.5,-0.5"/>
                </g>
                <g id="arrowRight" xlink:href="#dirArrow" transform="rotate(90) translate(36 -43)" onmousedown="handlePan(1,0)">
                  <use xlink:href="#rim" fill="#404040">
                        <set attributeName="fill" to="#808080" begin="arrowRight.mouseover" end="arrowRight.mouseout"/>
                  </use>
                  <path fill="none" stroke="white" stroke-width="1.5" d="M0,-3.0v7 M-2.5,-0.5L0,-3.0L2.5,-0.5"/>
                </g>
                <g id="arrowDown" xlink:href="#dirArrow" transform="rotate(180) translate(-30 -48)" onmousedown="handlePan(0,1)">
                  <use xlink:href="#rim" fill="#404040">
                        <set attributeName="fill" to="#808080" begin="arrowDown.mouseover" end="arrowDown.mouseout"/>
                  </use>
                  <path fill="none" stroke="white" stroke-width="1.5" d="M0,-3.0v7 M-2.5,-0.5L0,-3.0L2.5,-0.5"/>
                </g>
                <g id="arrowLeft" xlink:href="#dirArrow" transform="rotate(270) translate(-36 17)" onmousedown="handlePan(-1,0)">
                  <use xlink:href="#rim" fill="#404040">
                        <set attributeName="fill" to="#808080" begin="arrowLeft.mouseover" end="arrowLeft.mouseout"/>
                  </use>
                  <path fill="none" stroke="white" stroke-width="1.5" d="M0,-3.0v7 M-2.5,-0.5L0,-3.0L2.5,-0.5"/>
                </g>
        </g>
        <svg viewBox="0 0 15 15" width="100%" height="30px" preserveAspectRatio="xMaxYMin meet">
         <g id="arrow_out" transform="scale(0.3 0.3)">
          <a xlink:href="structFractureMechanics_1_1GriffithForceElement__coll__graph_org.svg" target="_base">
           <rect id="button" ry="5" rx="5" y="6" x="6" height="38" width="38"
                fill="#f2f5e9" fill-opacity="0.5" stroke="#606060" stroke-width="1.0"/>
           <path id="arrow"
             d="M 11.500037,31.436501 C 11.940474,20.09759 22.043105,11.32322 32.158766,21.979434 L 37.068811,17.246167 C 37.068811,17.246167 37.088388,32 37.088388,32 L 22.160133,31.978069 C 22.160133,31.978069 26.997745,27.140456 26.997745,27.140456 C 18.528582,18.264221 13.291696,25.230495 11.500037,31.436501 z"
             style="fill:#404040;"/>
          </a>
         </g>
        </svg>
</svg>
