<?xml version="1.0" encoding="UTF-8" standalone="no"?>
<!DOCTYPE svg PUBLIC "-//W3C//DTD SVG 1.1//EN"
 "http://www.w3.org/Graphics/SVG/1.1/DTD/svg11.dtd">
<!-- Generated by graphviz version 2.43.0 (0)
 -->
<!-- Title: NavierStokesElement::OpAssembleLhsDiagLin Pages: 1 -->
<svg width="3650pt" height="1811pt"
 viewBox="0.00 0.00 3650.00 1811.00" xmlns="http://www.w3.org/2000/svg" xmlns:xlink="http://www.w3.org/1999/xlink">
<g id="graph0" class="graph" transform="scale(1 1) rotate(0) translate(4 1807)">
<title>NavierStokesElement::OpAssembleLhsDiagLin</title>
<polygon fill="white" stroke="transparent" points="-4,4 -4,-1807 3646,-1807 3646,4 -4,4"/>
<!-- Node1 -->
<g id="node1" class="node">
<title>Node1</title>
<g id="a_node1"><a xlink:title="Assemble linear (symmetric) part of the diagonal block of the LHS Operator for assembling linear (sym...">
<polygon fill="#bfbfbf" stroke="black" points="3505,-792 3505,-822 3642,-822 3642,-792 3505,-792"/>
<text text-anchor="start" x="3513" y="-810" font-family="Helvetica,sans-Serif" font-size="10.00">NavierStokesElement</text>
<text text-anchor="middle" x="3573.5" y="-799" font-family="Helvetica,sans-Serif" font-size="10.00">::OpAssembleLhsDiagLin</text>
</a>
</g>
</g>
<!-- Node2 -->
<g id="node2" class="node">
<title>Node2</title>
<g id="a_node2"><a xlink:href="structNavierStokesElement_1_1OpAssembleLhs.html" target="_top" xlink:title="Base class for operators assembling LHS.">
<polygon fill="white" stroke="black" points="3346,-1002 3346,-1032 3468,-1032 3468,-1002 3346,-1002"/>
<text text-anchor="start" x="3354" y="-1020" font-family="Helvetica,sans-Serif" font-size="10.00">NavierStokesElement</text>
<text text-anchor="middle" x="3407" y="-1009" font-family="Helvetica,sans-Serif" font-size="10.00">::OpAssembleLhs</text>
</a>
</g>
</g>
<!-- Node2&#45;&gt;Node1 -->
<g id="edge1" class="edge">
<title>Node2&#45;&gt;Node1</title>
<path fill="none" stroke="midnightblue" d="M3426.07,-993.94C3459.92,-950.72 3532.05,-858.63 3560.56,-822.25"/>
<polygon fill="midnightblue" stroke="midnightblue" points="3423.24,-991.87 3419.83,-1001.9 3428.75,-996.18 3423.24,-991.87"/>
</g>
<!-- Node3 -->
<g id="node3" class="node">
<title>Node3</title>
<g id="a_node3"><a xlink:href="structMoFEM_1_1VolumeElementForcesAndSourcesCore_1_1UserDataOperator.html" target="_top" xlink:title=" ">
<polygon fill="white" stroke="black" points="3115.5,-1295.5 3115.5,-1314.5 3220.5,-1314.5 3220.5,-1295.5 3115.5,-1295.5"/>
<text text-anchor="middle" x="3168" y="-1302.5" font-family="Helvetica,sans-Serif" font-size="10.00">UserDataOperator</text>
</a>
</g>
</g>
<!-- Node3&#45;&gt;Node2 -->
<g id="edge2" class="edge">
<title>Node3&#45;&gt;Node2</title>
<path fill="none" stroke="midnightblue" d="M3183.48,-1287.4C3226.53,-1235.1 3353.17,-1081.2 3393.51,-1032.18"/>
<polygon fill="midnightblue" stroke="midnightblue" points="3180.54,-1285.47 3176.89,-1295.42 3185.94,-1289.92 3180.54,-1285.47"/>
</g>
<!-- Node4 -->
<g id="node4" class="node">
<title>Node4</title>
<g id="a_node4"><a xlink:href="structMoFEM_1_1ForcesAndSourcesCore_1_1UserDataOperator.html" target="_top" xlink:title=" ">
<polygon fill="white" stroke="black" points="2837,-1384 2837,-1414 3007,-1414 3007,-1384 2837,-1384"/>
<text text-anchor="start" x="2845" y="-1402" font-family="Helvetica,sans-Serif" font-size="10.00">MoFEM::ForcesAndSourcesCore</text>
<text text-anchor="middle" x="2922" y="-1391" font-family="Helvetica,sans-Serif" font-size="10.00">::UserDataOperator</text>
</a>
</g>
</g>
<!-- Node4&#45;&gt;Node3 -->
<g id="edge3" class="edge">
<title>Node4&#45;&gt;Node3</title>
<path fill="none" stroke="midnightblue" d="M2971.78,-1380.21C3023.19,-1360.4 3102.13,-1329.99 3142.05,-1314.61"/>
<polygon fill="midnightblue" stroke="midnightblue" points="2970.28,-1377.04 2962.2,-1383.9 2972.79,-1383.57 2970.28,-1377.04"/>
</g>
<!-- Node5 -->
<g id="node5" class="node">
<title>Node5</title>
<g id="a_node5"><a xlink:href="structMoFEM_1_1DataOperator.html" target="_top" xlink:title="base operator to do operations at Gauss Pt. level">
<polygon fill="white" stroke="black" points="2579.5,-1546.5 2579.5,-1565.5 2704.5,-1565.5 2704.5,-1546.5 2579.5,-1546.5"/>
<text text-anchor="middle" x="2642" y="-1553.5" font-family="Helvetica,sans-Serif" font-size="10.00">MoFEM::DataOperator</text>
</a>
</g>
</g>
<!-- Node5&#45;&gt;Node4 -->
<g id="edge4" class="edge">
<title>Node5&#45;&gt;Node4</title>
<path fill="none" stroke="midnightblue" d="M2668.68,-1541.5C2721.21,-1511.83 2840.49,-1444.47 2894.06,-1414.21"/>
<polygon fill="midnightblue" stroke="midnightblue" points="2666.96,-1538.45 2659.97,-1546.42 2670.4,-1544.55 2666.96,-1538.45"/>
</g>
<!-- Node6 -->
<g id="node6" class="node">
<title>Node6</title>
<g id="a_node6"><a xlink:title=" ">
<polygon fill="white" stroke="#bfbfbf" points="2160,-1530 2160,-1582 2352,-1582 2352,-1530 2160,-1530"/>
<text text-anchor="start" x="2168" y="-1570" font-family="Helvetica,sans-Serif" font-size="10.00">function&lt; MoFEMErrorCode</text>
<text text-anchor="start" x="2168" y="-1559" font-family="Helvetica,sans-Serif" font-size="10.00">(DataOperator *op_ptr,</text>
<text text-anchor="start" x="2168" y="-1548" font-family="Helvetica,sans-Serif" font-size="10.00"> int side, EntityType type,</text>
<text text-anchor="middle" x="2256" y="-1537" font-family="Helvetica,sans-Serif" font-size="10.00"> EntitiesFieldData::EntData &amp;data)&gt;</text>
</a>
</g>
</g>
<!-- Node6&#45;&gt;Node5 -->
<g id="edge5" class="edge">
<title>Node6&#45;&gt;Node5</title>
<path fill="none" stroke="#9a32cd" stroke-dasharray="5,2" d="M2362.55,-1556C2432.19,-1556 2521.03,-1556 2579.39,-1556"/>
<polygon fill="#9a32cd" stroke="#9a32cd" points="2362.41,-1552.5 2352.41,-1556 2362.41,-1559.5 2362.41,-1552.5"/>
<text text-anchor="middle" x="2458" y="-1559" font-family="Helvetica,sans-Serif" font-size="10.00"> doWorkRhsHook</text>
</g>
<!-- Node7 -->
<g id="node7" class="node">
<title>Node7</title>
<g id="a_node7"><a xlink:href="classbool.html" target="_top" xlink:title=" ">
<polygon fill="white" stroke="black" points="2237,-1705.5 2237,-1724.5 2275,-1724.5 2275,-1705.5 2237,-1705.5"/>
<text text-anchor="middle" x="2256" y="-1712.5" font-family="Helvetica,sans-Serif" font-size="10.00">bool</text>
</a>
</g>
</g>
<!-- Node7&#45;&gt;Node2 -->
<g id="edge91" class="edge">
<title>Node7&#45;&gt;Node2</title>
<path fill="none" stroke="#9a32cd" stroke-dasharray="5,2" d="M2285.17,-1715C2363.67,-1715 2591.59,-1715 2781,-1715 2781,-1715 2781,-1715 3169,-1715 3318.41,-1715 3392.43,-1134.3 3404.29,-1032.23"/>
<polygon fill="#9a32cd" stroke="#9a32cd" points="2285.1,-1711.5 2275.1,-1715 2285.1,-1718.5 2285.1,-1711.5"/>
<text text-anchor="middle" x="2922" y="-1729" font-family="Helvetica,sans-Serif" font-size="10.00"> diagonalBlock</text>
<text text-anchor="middle" x="2922" y="-1718" font-family="Helvetica,sans-Serif" font-size="10.00">isOnDiagonal</text>
</g>
<!-- Node7&#45;&gt;Node5 -->
<g id="edge6" class="edge">
<title>Node7&#45;&gt;Node5</title>
<path fill="none" stroke="#9a32cd" stroke-dasharray="5,2" d="M2285.14,-1717.44C2307.94,-1717.8 2339.38,-1714.4 2359,-1696 2382.75,-1673.73 2352.78,-1646.75 2377,-1625 2404.05,-1600.7 2504.08,-1612.13 2539,-1602 2570.16,-1592.96 2604.07,-1576.14 2623.88,-1565.54"/>
<polygon fill="#9a32cd" stroke="#9a32cd" points="2285.18,-1713.94 2275.05,-1717.03 2284.89,-1720.93 2285.18,-1713.94"/>
<text text-anchor="middle" x="2458" y="-1694" font-family="Helvetica,sans-Serif" font-size="10.00"> doTris</text>
<text text-anchor="middle" x="2458" y="-1683" font-family="Helvetica,sans-Serif" font-size="10.00">doQuads</text>
<text text-anchor="middle" x="2458" y="-1672" font-family="Helvetica,sans-Serif" font-size="10.00">sYmm</text>
<text text-anchor="middle" x="2458" y="-1661" font-family="Helvetica,sans-Serif" font-size="10.00">doPrisms</text>
<text text-anchor="middle" x="2458" y="-1650" font-family="Helvetica,sans-Serif" font-size="10.00">doTets</text>
<text text-anchor="middle" x="2458" y="-1639" font-family="Helvetica,sans-Serif" font-size="10.00">doVertices</text>
<text text-anchor="middle" x="2458" y="-1628" font-family="Helvetica,sans-Serif" font-size="10.00">doEdges</text>
</g>
<!-- Node8 -->
<g id="node8" class="node">
<title>Node8</title>
<g id="a_node8"><a xlink:title=" ">
<polygon fill="white" stroke="#bfbfbf" points="2153,-1601.5 2153,-1686.5 2359,-1686.5 2359,-1601.5 2153,-1601.5"/>
<text text-anchor="start" x="2161" y="-1674.5" font-family="Helvetica,sans-Serif" font-size="10.00">function&lt; MoFEMErrorCode</text>
<text text-anchor="start" x="2161" y="-1663.5" font-family="Helvetica,sans-Serif" font-size="10.00">(DataOperator *op_ptr,</text>
<text text-anchor="start" x="2161" y="-1652.5" font-family="Helvetica,sans-Serif" font-size="10.00"> int row_side, int col_side,</text>
<text text-anchor="start" x="2161" y="-1641.5" font-family="Helvetica,sans-Serif" font-size="10.00"> EntityType row_type, EntityType</text>
<text text-anchor="start" x="2161" y="-1630.5" font-family="Helvetica,sans-Serif" font-size="10.00"> col_type, EntitiesFieldData::EntData</text>
<text text-anchor="start" x="2161" y="-1619.5" font-family="Helvetica,sans-Serif" font-size="10.00"> &amp;row_data, EntitiesFieldData::EntData</text>
<text text-anchor="middle" x="2256" y="-1608.5" font-family="Helvetica,sans-Serif" font-size="10.00"> &amp;col_data)&gt;</text>
</a>
</g>
</g>
<!-- Node8&#45;&gt;Node5 -->
<g id="edge7" class="edge">
<title>Node8&#45;&gt;Node5</title>
<path fill="none" stroke="#9a32cd" stroke-dasharray="5,2" d="M2355.52,-1597.88C2362.71,-1595.32 2369.92,-1592.99 2377,-1591 2396.03,-1585.65 2507.43,-1571.83 2579.31,-1563.25"/>
<polygon fill="#9a32cd" stroke="#9a32cd" points="2353.91,-1594.74 2345.74,-1601.49 2356.34,-1601.31 2353.91,-1594.74"/>
<text text-anchor="middle" x="2458" y="-1594" font-family="Helvetica,sans-Serif" font-size="10.00"> doWorkLhsHook</text>
</g>
<!-- Node9 -->
<g id="node9" class="node">
<title>Node9</title>
<g id="a_node9"><a xlink:title=" ">
<polygon fill="white" stroke="#bfbfbf" points="2179,-1491.5 2179,-1510.5 2333,-1510.5 2333,-1491.5 2179,-1491.5"/>
<text text-anchor="middle" x="2256" y="-1498.5" font-family="Helvetica,sans-Serif" font-size="10.00">array&lt; bool, MBMAXTYPE &gt;</text>
</a>
</g>
</g>
<!-- Node9&#45;&gt;Node5 -->
<g id="edge8" class="edge">
<title>Node9&#45;&gt;Node5</title>
<path fill="none" stroke="#9a32cd" stroke-dasharray="5,2" d="M2334.78,-1511.92C2391.42,-1519.9 2469.98,-1531.03 2539,-1541 2552.02,-1542.88 2565.97,-1544.92 2579.25,-1546.87"/>
<polygon fill="#9a32cd" stroke="#9a32cd" points="2335.21,-1508.45 2324.82,-1510.52 2334.23,-1515.38 2335.21,-1508.45"/>
<text text-anchor="middle" x="2458" y="-1544" font-family="Helvetica,sans-Serif" font-size="10.00"> doEntities</text>
</g>
<!-- Node10 -->
<g id="node10" class="node">
<title>Node10</title>
<g id="a_node10"><a xlink:title=" ">
<polygon fill="white" stroke="#bfbfbf" points="2607.5,-1351.5 2607.5,-1370.5 2676.5,-1370.5 2676.5,-1351.5 2607.5,-1351.5"/>
<text text-anchor="middle" x="2642" y="-1358.5" font-family="Helvetica,sans-Serif" font-size="10.00">FieldSpace</text>
</a>
</g>
</g>
<!-- Node10&#45;&gt;Node4 -->
<g id="edge9" class="edge">
<title>Node10&#45;&gt;Node4</title>
<path fill="none" stroke="#9a32cd" stroke-dasharray="5,2" d="M2686.7,-1362.21C2722.46,-1363.68 2774.24,-1366.91 2819,-1374 2834.67,-1376.48 2851.47,-1380.16 2866.82,-1383.94"/>
<polygon fill="#9a32cd" stroke="#9a32cd" points="2686.73,-1358.7 2676.6,-1361.82 2686.46,-1365.7 2686.73,-1358.7"/>
<text text-anchor="middle" x="2782" y="-1377" font-family="Helvetica,sans-Serif" font-size="10.00"> sPace</text>
</g>
<!-- Node11 -->
<g id="node11" class="node">
<title>Node11</title>
<g id="a_node11"><a xlink:title=" ">
<polygon fill="white" stroke="#bfbfbf" points="1122.5,-1661.5 1122.5,-1680.5 1160.5,-1680.5 1160.5,-1661.5 1122.5,-1661.5"/>
<text text-anchor="middle" x="1141.5" y="-1668.5" font-family="Helvetica,sans-Serif" font-size="10.00">char</text>
</a>
</g>
</g>
<!-- Node11&#45;&gt;Node4 -->
<g id="edge10" class="edge">
<title>Node11&#45;&gt;Node4</title>
<path fill="none" stroke="#9a32cd" stroke-dasharray="5,2" d="M1170.62,-1678.24C1250.97,-1698.29 1488.7,-1753 1689.5,-1753 1689.5,-1753 1689.5,-1753 2459,-1753 2685.35,-1753 2869.31,-1481.97 2911.76,-1414.21"/>
<polygon fill="#9a32cd" stroke="#9a32cd" points="1171.32,-1674.81 1160.77,-1675.76 1169.61,-1681.6 1171.32,-1674.81"/>
<text text-anchor="middle" x="2063" y="-1756" font-family="Helvetica,sans-Serif" font-size="10.00"> opType</text>
</g>
<!-- Node39 -->
<g id="node39" class="node">
<title>Node39</title>
<g id="a_node39"><a xlink:href="structMoFEM_1_1Problem.html" target="_top" xlink:title="keeps basic data about problem">
<polygon fill="white" stroke="black" points="1449,-1149.5 1449,-1168.5 1548,-1168.5 1548,-1149.5 1449,-1149.5"/>
<text text-anchor="middle" x="1498.5" y="-1156.5" font-family="Helvetica,sans-Serif" font-size="10.00">MoFEM::Problem</text>
</a>
</g>
</g>
<!-- Node11&#45;&gt;Node39 -->
<g id="edge54" class="edge">
<title>Node11&#45;&gt;Node39</title>
<path fill="none" stroke="#9a32cd" stroke-dasharray="5,2" d="M1168.13,-1656.08C1221.86,-1623.2 1345.56,-1538.71 1397,-1430 1421.01,-1379.25 1378.49,-1220.65 1415,-1178 1423.51,-1168.06 1436.07,-1162.74 1448.84,-1160.02"/>
<polygon fill="#9a32cd" stroke="#9a32cd" points="1166,-1653.28 1159.24,-1661.44 1169.61,-1659.28 1166,-1653.28"/>
<text text-anchor="middle" x="1329" y="-1591" font-family="Helvetica,sans-Serif" font-size="10.00"> tagName</text>
</g>
<!-- Node12 -->
<g id="node12" class="node">
<title>Node12</title>
<g id="a_node12"><a xlink:href="structMoFEM_1_1ForcesAndSourcesCore.html" target="_top" xlink:title="structure to get information form mofem into EntitiesFieldData">
<polygon fill="white" stroke="black" points="2557,-1176.5 2557,-1195.5 2727,-1195.5 2727,-1176.5 2557,-1176.5"/>
<text text-anchor="middle" x="2642" y="-1183.5" font-family="Helvetica,sans-Serif" font-size="10.00">MoFEM::ForcesAndSourcesCore</text>
</a>
</g>
</g>
<!-- Node12&#45;&gt;Node4 -->
<g id="edge11" class="edge">
<title>Node12&#45;&gt;Node4</title>
<path fill="none" stroke="#9a32cd" stroke-dasharray="5,2" d="M2663.81,-1201.95C2715.71,-1241.71 2850.34,-1344.86 2901.17,-1383.81"/>
<polygon fill="#9a32cd" stroke="#9a32cd" points="2665.73,-1199.01 2655.67,-1195.71 2661.48,-1204.57 2665.73,-1199.01"/>
<text text-anchor="middle" x="2782" y="-1321" font-family="Helvetica,sans-Serif" font-size="10.00"> ptrFE</text>
</g>
<!-- Node12&#45;&gt;Node12 -->
<g id="edge69" class="edge">
<title>Node12&#45;&gt;Node12</title>
<path fill="none" stroke="#9a32cd" stroke-dasharray="5,2" d="M2615.96,-1205.03C2617.38,-1210.13 2626.06,-1214 2642,-1214 2666.88,-1214 2674.08,-1204.57 2663.58,-1195.76"/>
<polygon fill="#9a32cd" stroke="#9a32cd" points="2619.24,-1206.29 2620.42,-1195.76 2612.93,-1203.25 2619.24,-1206.29"/>
<text text-anchor="middle" x="2642" y="-1228" font-family="Helvetica,sans-Serif" font-size="10.00"> sidePtrFE</text>
<text text-anchor="middle" x="2642" y="-1217" font-family="Helvetica,sans-Serif" font-size="10.00">refinePtrFE</text>
</g>
<!-- Node13 -->
<g id="node13" class="node">
<title>Node13</title>
<g id="a_node13"><a xlink:href="structMoFEM_1_1FEMethod.html" target="_top" xlink:title="structure for User Loop Methods on finite elements">
<polygon fill="white" stroke="black" points="2202.5,-1097.5 2202.5,-1116.5 2309.5,-1116.5 2309.5,-1097.5 2202.5,-1097.5"/>
<text text-anchor="middle" x="2256" y="-1104.5" font-family="Helvetica,sans-Serif" font-size="10.00">MoFEM::FEMethod</text>
</a>
</g>
</g>
<!-- Node13&#45;&gt;Node12 -->
<g id="edge12" class="edge">
<title>Node13&#45;&gt;Node12</title>
<path fill="none" stroke="midnightblue" d="M2319.73,-1117.15C2377.07,-1126.77 2464.07,-1142.2 2539,-1159 2562.06,-1164.17 2587.78,-1170.99 2607.62,-1176.48"/>
<polygon fill="midnightblue" stroke="midnightblue" points="2320.18,-1113.68 2309.74,-1115.49 2319.02,-1120.58 2320.18,-1113.68"/>
</g>
<!-- Node14 -->
<g id="node14" class="node">
<title>Node14</title>
<g id="a_node14"><a xlink:href="structMoFEM_1_1BasicMethod.html" target="_top" xlink:title="Data structure to exchange data between mofem and User Loop Methods.">
<polygon fill="white" stroke="black" points="1825,-725.5 1825,-744.5 1947,-744.5 1947,-725.5 1825,-725.5"/>
<text text-anchor="middle" x="1886" y="-732.5" font-family="Helvetica,sans-Serif" font-size="10.00">MoFEM::BasicMethod</text>
</a>
</g>
</g>
<!-- Node14&#45;&gt;Node13 -->
<g id="edge13" class="edge">
<title>Node14&#45;&gt;Node13</title>
<path fill="none" stroke="midnightblue" d="M1905.23,-751.82C1923.34,-768.93 1951.43,-796.61 1973,-823 2063.11,-933.24 2033.84,-1010.07 2153,-1088 2167.55,-1097.51 2185.62,-1102.55 2202.5,-1105.14"/>
<polygon fill="midnightblue" stroke="midnightblue" points="1907.37,-749.03 1897.68,-744.75 1902.59,-754.14 1907.37,-749.03"/>
</g>
<!-- Node15 -->
<g id="node15" class="node">
<title>Node15</title>
<g id="a_node15"><a xlink:href="structMoFEM_1_1KspMethod.html" target="_top" xlink:title="data structure for ksp (linear solver) context">
<polygon fill="white" stroke="black" points="1442,-679.5 1442,-698.5 1555,-698.5 1555,-679.5 1442,-679.5"/>
<text text-anchor="middle" x="1498.5" y="-686.5" font-family="Helvetica,sans-Serif" font-size="10.00">MoFEM::KspMethod</text>
</a>
</g>
</g>
<!-- Node15&#45;&gt;Node14 -->
<g id="edge14" class="edge">
<title>Node15&#45;&gt;Node14</title>
<path fill="none" stroke="midnightblue" d="M1565.06,-696.07C1622.14,-702.31 1707.09,-711.83 1781,-721 1795.19,-722.76 1810.46,-724.76 1824.81,-726.68"/>
<polygon fill="midnightblue" stroke="midnightblue" points="1565.41,-692.58 1555.09,-694.98 1564.65,-699.54 1565.41,-692.58"/>
</g>
<!-- Node16 -->
<g id="node16" class="node">
<title>Node16</title>
<g id="a_node16"><a xlink:href="structMoFEM_1_1PetscData.html" target="_top" xlink:title=" ">
<polygon fill="white" stroke="black" points="1087.5,-305.5 1087.5,-324.5 1195.5,-324.5 1195.5,-305.5 1087.5,-305.5"/>
<text text-anchor="middle" x="1141.5" y="-312.5" font-family="Helvetica,sans-Serif" font-size="10.00">MoFEM::PetscData</text>
</a>
</g>
</g>
<!-- Node16&#45;&gt;Node15 -->
<g id="edge15" class="edge">
<title>Node16&#45;&gt;Node15</title>
<path fill="none" stroke="midnightblue" d="M1205.72,-318.6C1219.65,-322.27 1233.16,-328.54 1243,-339 1274.84,-372.85 1232.02,-405.67 1261,-442 1301.88,-493.23 1357.89,-446.41 1397,-499 1442.6,-560.32 1364.34,-612.78 1415,-670 1422.01,-677.92 1431.61,-682.89 1441.78,-685.94"/>
<polygon fill="midnightblue" stroke="midnightblue" points="1206.06,-315.09 1195.55,-316.36 1204.56,-321.93 1206.06,-315.09"/>
</g>
<!-- Node26 -->
<g id="node26" class="node">
<title>Node26</title>
<g id="a_node26"><a xlink:href="structMoFEM_1_1SnesMethod.html" target="_top" xlink:title="data structure for snes (nonlinear solver) context">
<polygon fill="white" stroke="black" points="1439,-482.5 1439,-501.5 1558,-501.5 1558,-482.5 1439,-482.5"/>
<text text-anchor="middle" x="1498.5" y="-489.5" font-family="Helvetica,sans-Serif" font-size="10.00">MoFEM::SnesMethod</text>
</a>
</g>
</g>
<!-- Node16&#45;&gt;Node26 -->
<g id="edge28" class="edge">
<title>Node16&#45;&gt;Node26</title>
<path fill="none" stroke="darkgreen" d="M1205.62,-326.94C1218.22,-330.19 1231.21,-334.18 1243,-339 1342.51,-379.65 1448.74,-455.58 1484.74,-482.35"/>
<polygon fill="darkgreen" stroke="darkgreen" points="1206.16,-323.47 1195.62,-324.48 1204.5,-330.27 1206.16,-323.47"/>
</g>
<!-- Node29 -->
<g id="node29" class="node">
<title>Node29</title>
<g id="a_node29"><a xlink:href="structMoFEM_1_1TSMethod.html" target="_top" xlink:title="data structure for TS (time stepping) context">
<polygon fill="white" stroke="black" points="1445,-246.5 1445,-265.5 1552,-265.5 1552,-246.5 1445,-246.5"/>
<text text-anchor="middle" x="1498.5" y="-253.5" font-family="Helvetica,sans-Serif" font-size="10.00">MoFEM::TSMethod</text>
</a>
</g>
</g>
<!-- Node16&#45;&gt;Node29 -->
<g id="edge34" class="edge">
<title>Node16&#45;&gt;Node29</title>
<path fill="none" stroke="darkgreen" d="M1205.95,-325.6C1258.25,-332.02 1333.83,-335.92 1397,-318 1433.29,-307.71 1469.33,-280.18 1486.73,-265.51"/>
<polygon fill="darkgreen" stroke="darkgreen" points="1206.17,-322.1 1195.81,-324.29 1205.28,-329.05 1206.17,-322.1"/>
</g>
<!-- Node17 -->
<g id="node17" class="node">
<title>Node17</title>
<g id="a_node17"><a xlink:href="structMoFEM_1_1UnknownInterface.html" target="_top" xlink:title="base class for all interface classes">
<polygon fill="white" stroke="black" points="735,-873.5 735,-892.5 883,-892.5 883,-873.5 735,-873.5"/>
<text text-anchor="middle" x="809" y="-880.5" font-family="Helvetica,sans-Serif" font-size="10.00">MoFEM::UnknownInterface</text>
</a>
</g>
</g>
<!-- Node17&#45;&gt;Node16 -->
<g id="edge16" class="edge">
<title>Node17&#45;&gt;Node16</title>
<path fill="none" stroke="midnightblue" d="M827.34,-865.97C869.68,-823.09 978.1,-705.38 1022,-583 1040.36,-531.82 1004.77,-380.41 1040,-339 1051.74,-325.2 1069.86,-318.55 1087.5,-315.57"/>
<polygon fill="midnightblue" stroke="midnightblue" points="824.6,-863.75 820.01,-873.3 829.55,-868.7 824.6,-863.75"/>
</g>
<!-- Node57 -->
<g id="node57" class="node">
<title>Node57</title>
<g id="a_node57"><a xlink:href="structMoFEM_1_1CoreInterface.html" target="_top" xlink:title="Interface.">
<polygon fill="white" stroke="black" points="1079,-873.5 1079,-892.5 1204,-892.5 1204,-873.5 1079,-873.5"/>
<text text-anchor="middle" x="1141.5" y="-880.5" font-family="Helvetica,sans-Serif" font-size="10.00">MoFEM::CoreInterface</text>
</a>
</g>
</g>
<!-- Node17&#45;&gt;Node57 -->
<g id="edge68" class="edge">
<title>Node17&#45;&gt;Node57</title>
<path fill="none" stroke="midnightblue" d="M893.54,-883C951.26,-883 1026.75,-883 1079,-883"/>
<polygon fill="midnightblue" stroke="midnightblue" points="893.35,-879.5 883.35,-883 893.35,-886.5 893.35,-879.5"/>
</g>
<!-- Node18 -->
<g id="node18" class="node">
<title>Node18</title>
<g id="a_node18"><a xlink:title=" ">
<polygon fill="white" stroke="#bfbfbf" points="386,-1431.5 386,-1494.5 627,-1494.5 627,-1431.5 386,-1431.5"/>
<text text-anchor="start" x="394" y="-1482.5" font-family="Helvetica,sans-Serif" font-size="10.00">multi_index_container</text>
<text text-anchor="start" x="394" y="-1471.5" font-family="Helvetica,sans-Serif" font-size="10.00">&lt; UIdTypeMap, indexed</text>
<text text-anchor="start" x="394" y="-1460.5" font-family="Helvetica,sans-Serif" font-size="10.00">_by&lt; hashed_unique&lt; member</text>
<text text-anchor="start" x="394" y="-1449.5" font-family="Helvetica,sans-Serif" font-size="10.00">&lt; UIdTypeMap, boost::typeindex</text>
<text text-anchor="middle" x="506.5" y="-1438.5" font-family="Helvetica,sans-Serif" font-size="10.00">::type_index, &amp;UIdTypeMap::classIdx &gt; &gt; &gt; &gt;</text>
</a>
</g>
</g>
<!-- Node18&#45;&gt;Node17 -->
<g id="edge17" class="edge">
<title>Node18&#45;&gt;Node17</title>
<path fill="none" stroke="#9a32cd" stroke-dasharray="5,2" d="M528.65,-1422.17C590.78,-1302.26 770.38,-955.62 802.91,-892.82"/>
<polygon fill="#9a32cd" stroke="#9a32cd" points="525.36,-1420.92 523.87,-1431.4 531.58,-1424.14 525.36,-1420.92"/>
<text text-anchor="middle" x="681" y="-1194" font-family="Helvetica,sans-Serif" font-size="10.00"> iFaceTypeMap</text>
</g>
<!-- Node19 -->
<g id="node19" class="node">
<title>Node19</title>
<g id="a_node19"><a xlink:title=" ">
<polygon fill="white" stroke="#bfbfbf" points="0,-1579.5 0,-1598.5 125,-1598.5 125,-1579.5 0,-1579.5"/>
<text text-anchor="middle" x="62.5" y="-1586.5" font-family="Helvetica,sans-Serif" font-size="10.00">multi_index_container</text>
</a>
</g>
</g>
<!-- Node19&#45;&gt;Node14 -->
<g id="edge41" class="edge">
<title>Node19&#45;&gt;Node14</title>
<path fill="none" stroke="#9a32cd" stroke-dasharray="5,2" d="M92.13,-1603.19C161.33,-1636.13 343.89,-1715 505.5,-1715 505.5,-1715 505.5,-1715 1499.5,-1715 1724.22,-1715 1711.53,-1508.71 1781,-1295 1813.45,-1195.18 1757.54,-919.43 1799,-823 1814.1,-787.87 1850.13,-758.84 1870.44,-744.56"/>
<polygon fill="#9a32cd" stroke="#9a32cd" points="93.29,-1599.86 82.76,-1598.68 90.25,-1606.17 93.29,-1599.86"/>
<text text-anchor="middle" x="961.5" y="-1795" font-family="Helvetica,sans-Serif" font-size="10.00"> adjacenciesPtr</text>
<text text-anchor="middle" x="961.5" y="-1784" font-family="Helvetica,sans-Serif" font-size="10.00">refinedEntitiesPtr</text>
<text text-anchor="middle" x="961.5" y="-1773" font-family="Helvetica,sans-Serif" font-size="10.00">finiteElementsEntitiesPtr</text>
<text text-anchor="middle" x="961.5" y="-1762" font-family="Helvetica,sans-Serif" font-size="10.00">dofsPtr</text>
<text text-anchor="middle" x="961.5" y="-1751" font-family="Helvetica,sans-Serif" font-size="10.00">entitiesPtr</text>
<text text-anchor="middle" x="961.5" y="-1740" font-family="Helvetica,sans-Serif" font-size="10.00">finiteElementsPtr</text>
<text text-anchor="middle" x="961.5" y="-1729" font-family="Helvetica,sans-Serif" font-size="10.00">refinedFiniteElementsPtr</text>
<text text-anchor="middle" x="961.5" y="-1718" font-family="Helvetica,sans-Serif" font-size="10.00">fieldsPtr</text>
</g>
<!-- Node19&#45;&gt;Node18 -->
<g id="edge18" class="edge">
<title>Node19&#45;&gt;Node18</title>
<path fill="none" stroke="orange" stroke-dasharray="5,2" d="M106.77,-1576.67C172.91,-1557.81 301.31,-1521.21 394.58,-1494.62"/>
<polygon fill="orange" stroke="orange" points="105.74,-1573.32 97.08,-1579.43 107.66,-1580.05 105.74,-1573.32"/>
<text text-anchor="start" x="143" y="-1601" font-family="Helvetica,sans-Serif" font-size="10.00"> &lt; UIdTypeMap, indexed</text>
<text text-anchor="start" x="143" y="-1590" font-family="Helvetica,sans-Serif" font-size="10.00">_by&lt; hashed_unique&lt; member</text>
<text text-anchor="start" x="143" y="-1579" font-family="Helvetica,sans-Serif" font-size="10.00">&lt; UIdTypeMap, boost::typeindex</text>
<text text-anchor="middle" x="255.5" y="-1568" font-family="Helvetica,sans-Serif" font-size="10.00">::type_index, &amp;UIdTypeMap::classIdx &gt; &gt; &gt; &gt;</text>
</g>
<!-- Node20 -->
<g id="node20" class="node">
<title>Node20</title>
<g id="a_node20"><a xlink:title=" ">
<polygon fill="white" stroke="#bfbfbf" points="738.5,-0.5 738.5,-19.5 879.5,-19.5 879.5,-0.5 738.5,-0.5"/>
<text text-anchor="middle" x="809" y="-7.5" font-family="Helvetica,sans-Serif" font-size="10.00">static constexpr Switches</text>
</a>
</g>
</g>
<!-- Node20&#45;&gt;Node16 -->
<g id="edge19" class="edge">
<title>Node20&#45;&gt;Node16</title>
<path fill="none" stroke="#9a32cd" stroke-dasharray="5,2" d="M832.15,-25.61C875.63,-57.48 972.22,-134.51 1022,-223 1038.38,-252.12 1015.73,-273.03 1040,-296 1052.64,-307.96 1070.33,-313.55 1087.35,-315.89"/>
<polygon fill="#9a32cd" stroke="#9a32cd" points="834.11,-22.71 823.95,-19.68 830,-28.38 834.11,-22.71"/>
<text text-anchor="middle" x="961.5" y="-303" font-family="Helvetica,sans-Serif" font-size="10.00"> CtxSetX_TT</text>
<text text-anchor="middle" x="961.5" y="-292" font-family="Helvetica,sans-Serif" font-size="10.00">CtxSetX_T</text>
<text text-anchor="middle" x="961.5" y="-281" font-family="Helvetica,sans-Serif" font-size="10.00">CtxSetA</text>
<text text-anchor="middle" x="961.5" y="-270" font-family="Helvetica,sans-Serif" font-size="10.00">CtxSetB</text>
<text text-anchor="middle" x="961.5" y="-259" font-family="Helvetica,sans-Serif" font-size="10.00">CtxSetTime</text>
<text text-anchor="middle" x="961.5" y="-248" font-family="Helvetica,sans-Serif" font-size="10.00">CtxSetNone</text>
<text text-anchor="middle" x="961.5" y="-237" font-family="Helvetica,sans-Serif" font-size="10.00">CtxSetF</text>
<text text-anchor="middle" x="961.5" y="-226" font-family="Helvetica,sans-Serif" font-size="10.00">CtxSetX</text>
</g>
<!-- Node21 -->
<g id="node21" class="node">
<title>Node21</title>
<g id="a_node21"><a xlink:title=" ">
<polygon fill="white" stroke="#bfbfbf" points="791.5,-428.5 791.5,-447.5 826.5,-447.5 826.5,-428.5 791.5,-428.5"/>
<text text-anchor="middle" x="809" y="-435.5" font-family="Helvetica,sans-Serif" font-size="10.00">Mat</text>
</a>
</g>
</g>
<!-- Node21&#45;&gt;Node15 -->
<g id="edge25" class="edge">
<title>Node21&#45;&gt;Node15</title>
<path fill="none" stroke="#9a32cd" stroke-dasharray="5,2" d="M817.88,-457.03C830.65,-485.09 858.78,-536.68 901,-559 968.26,-594.56 1169.79,-554.29 1243,-575 1327.03,-598.77 1333.44,-638.79 1415,-670 1424.75,-673.73 1435.43,-676.85 1445.79,-679.42"/>
<polygon fill="#9a32cd" stroke="#9a32cd" points="821.08,-455.61 813.87,-447.85 814.67,-458.41 821.08,-455.61"/>
<text text-anchor="middle" x="1141.5" y="-589" font-family="Helvetica,sans-Serif" font-size="10.00"> ksp_A</text>
<text text-anchor="middle" x="1141.5" y="-578" font-family="Helvetica,sans-Serif" font-size="10.00">ksp_B</text>
</g>
<!-- Node21&#45;&gt;Node16 -->
<g id="edge20" class="edge">
<title>Node21&#45;&gt;Node16</title>
<path fill="none" stroke="#9a32cd" stroke-dasharray="5,2" d="M835.86,-425.12C877.83,-404.62 963.8,-364.29 1040,-339 1057.11,-333.32 1076.28,-328.4 1093.24,-324.52"/>
<polygon fill="#9a32cd" stroke="#9a32cd" points="834.07,-422.1 826.64,-429.65 837.15,-428.38 834.07,-422.1"/>
<text text-anchor="middle" x="961.5" y="-409" font-family="Helvetica,sans-Serif" font-size="10.00"> A</text>
<text text-anchor="middle" x="961.5" y="-398" font-family="Helvetica,sans-Serif" font-size="10.00">B</text>
</g>
<!-- Node21&#45;&gt;Node26 -->
<g id="edge30" class="edge">
<title>Node21&#45;&gt;Node26</title>
<path fill="none" stroke="#9a32cd" stroke-dasharray="5,2" d="M836.91,-440.11C938.02,-448.06 1296.59,-476.22 1438.78,-487.39"/>
<polygon fill="#9a32cd" stroke="#9a32cd" points="836.9,-436.6 826.65,-439.31 836.35,-443.58 836.9,-436.6"/>
<text text-anchor="middle" x="1141.5" y="-486" font-family="Helvetica,sans-Serif" font-size="10.00"> snes_A</text>
<text text-anchor="middle" x="1141.5" y="-475" font-family="Helvetica,sans-Serif" font-size="10.00">snes_B</text>
</g>
<!-- Node21&#45;&gt;Node29 -->
<g id="edge35" class="edge">
<title>Node21&#45;&gt;Node29</title>
<path fill="none" stroke="#9a32cd" stroke-dasharray="5,2" d="M822.69,-420.11C869.71,-353.87 1031.72,-126.19 1040,-122 1182.38,-49.97 1257.14,-83.19 1397,-160 1438.45,-182.77 1475.34,-226.94 1490.36,-246.4"/>
<polygon fill="#9a32cd" stroke="#9a32cd" points="819.78,-418.16 816.85,-428.34 825.49,-422.21 819.78,-418.16"/>
<text text-anchor="middle" x="1141.5" y="-136" font-family="Helvetica,sans-Serif" font-size="10.00"> ts_A</text>
<text text-anchor="middle" x="1141.5" y="-125" font-family="Helvetica,sans-Serif" font-size="10.00">ts_B</text>
</g>
<!-- Node22 -->
<g id="node22" class="node">
<title>Node22</title>
<g id="a_node22"><a xlink:title=" ">
<polygon fill="white" stroke="#bfbfbf" points="772.5,-305.5 772.5,-324.5 845.5,-324.5 845.5,-305.5 772.5,-305.5"/>
<text text-anchor="middle" x="809" y="-312.5" font-family="Helvetica,sans-Serif" font-size="10.00">bitset&lt; 8 &gt;</text>
</a>
</g>
</g>
<!-- Node22&#45;&gt;Node16 -->
<g id="edge21" class="edge">
<title>Node22&#45;&gt;Node16</title>
<path fill="none" stroke="#9a32cd" stroke-dasharray="5,2" d="M855.72,-315C916.35,-315 1023.14,-315 1087.3,-315"/>
<polygon fill="#9a32cd" stroke="#9a32cd" points="855.68,-311.5 845.68,-315 855.68,-318.5 855.68,-311.5"/>
<text text-anchor="middle" x="961.5" y="-318" font-family="Helvetica,sans-Serif" font-size="10.00"> data_ctx</text>
</g>
<!-- Node23 -->
<g id="node23" class="node">
<title>Node23</title>
<g id="a_node23"><a xlink:title=" ">
<polygon fill="white" stroke="#bfbfbf" points="792,-606.5 792,-625.5 826,-625.5 826,-606.5 792,-606.5"/>
<text text-anchor="middle" x="809" y="-613.5" font-family="Helvetica,sans-Serif" font-size="10.00">Vec</text>
</a>
</g>
</g>
<!-- Node23&#45;&gt;Node15 -->
<g id="edge26" class="edge">
<title>Node23&#45;&gt;Node15</title>
<path fill="none" stroke="#9a32cd" stroke-dasharray="5,2" d="M835.25,-628.85C876.71,-649.14 962.36,-687.78 1040,-702 1182.83,-728.16 1354.88,-710.35 1441.65,-698.01"/>
<polygon fill="#9a32cd" stroke="#9a32cd" points="836.68,-625.64 826.16,-624.34 833.57,-631.92 836.68,-625.64"/>
<text text-anchor="middle" x="1141.5" y="-719" font-family="Helvetica,sans-Serif" font-size="10.00"> ksp_f</text>
</g>
<!-- Node23&#45;&gt;Node16 -->
<g id="edge22" class="edge">
<title>Node23&#45;&gt;Node16</title>
<path fill="none" stroke="#9a32cd" stroke-dasharray="5,2" d="M828.89,-599.78C878.42,-557.11 1009.1,-443.44 1022,-421 1040.59,-388.65 1013.86,-365.62 1040,-339 1052.38,-326.39 1070.11,-319.93 1087.24,-316.76"/>
<polygon fill="#9a32cd" stroke="#9a32cd" points="826.45,-597.27 821.15,-606.44 831.01,-602.58 826.45,-597.27"/>
<text text-anchor="middle" x="961.5" y="-571" font-family="Helvetica,sans-Serif" font-size="10.00"> f</text>
<text text-anchor="middle" x="961.5" y="-560" font-family="Helvetica,sans-Serif" font-size="10.00">x</text>
<text text-anchor="middle" x="961.5" y="-549" font-family="Helvetica,sans-Serif" font-size="10.00">x_t</text>
<text text-anchor="middle" x="961.5" y="-538" font-family="Helvetica,sans-Serif" font-size="10.00">x_tt</text>
</g>
<!-- Node23&#45;&gt;Node26 -->
<g id="edge31" class="edge">
<title>Node23&#45;&gt;Node26</title>
<path fill="none" stroke="#9a32cd" stroke-dasharray="5,2" d="M836.26,-618.54C904.46,-624.4 1092.36,-635.83 1243,-601 1337.6,-579.13 1441.37,-523.91 1480.93,-501.58"/>
<polygon fill="#9a32cd" stroke="#9a32cd" points="836.29,-615.03 826.01,-617.62 835.66,-622 836.29,-615.03"/>
<text text-anchor="middle" x="1141.5" y="-639" font-family="Helvetica,sans-Serif" font-size="10.00"> snes_x</text>
<text text-anchor="middle" x="1141.5" y="-628" font-family="Helvetica,sans-Serif" font-size="10.00">snes_f</text>
</g>
<!-- Node23&#45;&gt;Node29 -->
<g id="edge39" class="edge">
<title>Node23&#45;&gt;Node29</title>
<path fill="none" stroke="#9a32cd" stroke-dasharray="5,2" d="M836.38,-615.79C887.52,-614.79 997.27,-609.53 1022,-583 1054.39,-548.25 1006.45,-403.63 1040,-370 1096.24,-313.63 1323.3,-369.16 1397,-339 1437.42,-322.46 1474.02,-283.68 1489.58,-265.6"/>
<polygon fill="#9a32cd" stroke="#9a32cd" points="836.07,-612.3 826.13,-615.95 836.18,-619.3 836.07,-612.3"/>
<text text-anchor="middle" x="1141.5" y="-406" font-family="Helvetica,sans-Serif" font-size="10.00"> ts_u</text>
<text text-anchor="middle" x="1141.5" y="-395" font-family="Helvetica,sans-Serif" font-size="10.00">ts_F</text>
<text text-anchor="middle" x="1141.5" y="-384" font-family="Helvetica,sans-Serif" font-size="10.00">ts_u_t</text>
<text text-anchor="middle" x="1141.5" y="-373" font-family="Helvetica,sans-Serif" font-size="10.00">ts_u_tt</text>
</g>
<!-- Node24 -->
<g id="node24" class="node">
<title>Node24</title>
<g id="a_node24"><a xlink:title=" ">
<polygon fill="white" stroke="#bfbfbf" points="1124,-673.5 1124,-692.5 1159,-692.5 1159,-673.5 1124,-673.5"/>
<text text-anchor="middle" x="1141.5" y="-680.5" font-family="Helvetica,sans-Serif" font-size="10.00">KSP</text>
</a>
</g>
</g>
<!-- Node24&#45;&gt;Node15 -->
<g id="edge23" class="edge">
<title>Node24&#45;&gt;Node15</title>
<path fill="none" stroke="#9a32cd" stroke-dasharray="5,2" d="M1169.29,-683.45C1227.06,-684.43 1364.41,-686.75 1441.88,-688.06"/>
<polygon fill="#9a32cd" stroke="#9a32cd" points="1169.2,-679.95 1159.15,-683.28 1169.09,-686.95 1169.2,-679.95"/>
<text text-anchor="middle" x="1329" y="-691" font-family="Helvetica,sans-Serif" font-size="10.00"> ksp</text>
</g>
<!-- Node25 -->
<g id="node25" class="node">
<title>Node25</title>
<g id="a_node25"><a xlink:title=" ">
<polygon fill="white" stroke="#bfbfbf" points="1104.5,-758.5 1104.5,-777.5 1178.5,-777.5 1178.5,-758.5 1104.5,-758.5"/>
<text text-anchor="middle" x="1141.5" y="-765.5" font-family="Helvetica,sans-Serif" font-size="10.00">KSPContext</text>
</a>
</g>
</g>
<!-- Node25&#45;&gt;Node15 -->
<g id="edge24" class="edge">
<title>Node25&#45;&gt;Node15</title>
<path fill="none" stroke="#9a32cd" stroke-dasharray="5,2" d="M1188.83,-763.62C1257.23,-756.87 1379.12,-743.71 1397,-734 1407.8,-728.13 1404.67,-719.66 1415,-713 1424.78,-706.7 1436.26,-702 1447.49,-698.53"/>
<polygon fill="#9a32cd" stroke="#9a32cd" points="1188.35,-760.15 1178.74,-764.6 1189.03,-767.11 1188.35,-760.15"/>
<text text-anchor="middle" x="1329" y="-759" font-family="Helvetica,sans-Serif" font-size="10.00"> ksp_ctx</text>
</g>
<!-- Node26&#45;&gt;Node14 -->
<g id="edge27" class="edge">
<title>Node26&#45;&gt;Node14</title>
<path fill="none" stroke="midnightblue" d="M1567.42,-481.5C1632.02,-475.75 1727.11,-479.04 1781,-536 1808.63,-565.2 1772.3,-685.95 1799,-716 1805.81,-723.66 1814.94,-728.61 1824.72,-731.75"/>
<polygon fill="midnightblue" stroke="midnightblue" points="1566.94,-478.04 1557.33,-482.5 1567.62,-485 1566.94,-478.04"/>
</g>
<!-- Node27 -->
<g id="node27" class="node">
<title>Node27</title>
<g id="a_node27"><a xlink:title=" ">
<polygon fill="white" stroke="#bfbfbf" points="1120.5,-423.5 1120.5,-442.5 1162.5,-442.5 1162.5,-423.5 1120.5,-423.5"/>
<text text-anchor="middle" x="1141.5" y="-430.5" font-family="Helvetica,sans-Serif" font-size="10.00">SNES</text>
</a>
</g>
</g>
<!-- Node27&#45;&gt;Node26 -->
<g id="edge29" class="edge">
<title>Node27&#45;&gt;Node26</title>
<path fill="none" stroke="#9a32cd" stroke-dasharray="5,2" d="M1172.59,-433.26C1220.6,-434.23 1317.25,-438.41 1397,-456 1425.05,-462.19 1455.98,-474.08 1476.01,-482.5"/>
<polygon fill="#9a32cd" stroke="#9a32cd" points="1172.62,-429.76 1162.56,-433.09 1172.5,-436.76 1172.62,-429.76"/>
<text text-anchor="middle" x="1329" y="-459" font-family="Helvetica,sans-Serif" font-size="10.00"> snes</text>
</g>
<!-- Node28 -->
<g id="node28" class="node">
<title>Node28</title>
<g id="a_node28"><a xlink:title=" ">
<polygon fill="white" stroke="#bfbfbf" points="1101.5,-519.5 1101.5,-538.5 1181.5,-538.5 1181.5,-519.5 1101.5,-519.5"/>
<text text-anchor="middle" x="1141.5" y="-526.5" font-family="Helvetica,sans-Serif" font-size="10.00">SNESContext</text>
</a>
</g>
</g>
<!-- Node28&#45;&gt;Node26 -->
<g id="edge32" class="edge">
<title>Node28&#45;&gt;Node26</title>
<path fill="none" stroke="#9a32cd" stroke-dasharray="5,2" d="M1191.84,-523.86C1256.48,-517.12 1369.71,-505.32 1438.73,-498.13"/>
<polygon fill="#9a32cd" stroke="#9a32cd" points="1191.09,-520.42 1181.51,-524.93 1191.82,-527.38 1191.09,-520.42"/>
<text text-anchor="middle" x="1329" y="-519" font-family="Helvetica,sans-Serif" font-size="10.00"> snes_ctx</text>
</g>
<!-- Node29&#45;&gt;Node14 -->
<g id="edge33" class="edge">
<title>Node29&#45;&gt;Node14</title>
<path fill="none" stroke="midnightblue" d="M1530.94,-269.74C1591.69,-298.18 1724.21,-369.83 1781,-476 1806.22,-523.16 1763.97,-675.58 1799,-716 1805.81,-723.86 1815.07,-728.88 1825,-732.02"/>
<polygon fill="midnightblue" stroke="midnightblue" points="1532.38,-266.55 1521.83,-265.55 1529.45,-272.91 1532.38,-266.55"/>
</g>
<!-- Node30 -->
<g id="node30" class="node">
<title>Node30</title>
<g id="a_node30"><a xlink:title=" ">
<polygon fill="white" stroke="#bfbfbf" points="1109,-267.5 1109,-286.5 1174,-286.5 1174,-267.5 1109,-267.5"/>
<text text-anchor="middle" x="1141.5" y="-274.5" font-family="Helvetica,sans-Serif" font-size="10.00">PetscReal</text>
</a>
</g>
</g>
<!-- Node30&#45;&gt;Node29 -->
<g id="edge36" class="edge">
<title>Node30&#45;&gt;Node29</title>
<path fill="none" stroke="#9a32cd" stroke-dasharray="5,2" d="M1184.25,-274.53C1249.06,-270.7 1373.78,-263.32 1444.73,-259.12"/>
<polygon fill="#9a32cd" stroke="#9a32cd" points="1183.78,-271.05 1174,-275.14 1184.19,-278.04 1183.78,-271.05"/>
<text text-anchor="middle" x="1329" y="-306" font-family="Helvetica,sans-Serif" font-size="10.00"> ts_a</text>
<text text-anchor="middle" x="1329" y="-295" font-family="Helvetica,sans-Serif" font-size="10.00">ts_t</text>
<text text-anchor="middle" x="1329" y="-284" font-family="Helvetica,sans-Serif" font-size="10.00">ts_dt</text>
<text text-anchor="middle" x="1329" y="-273" font-family="Helvetica,sans-Serif" font-size="10.00">ts_aa</text>
</g>
<!-- Node31 -->
<g id="node31" class="node">
<title>Node31</title>
<g id="a_node31"><a xlink:title=" ">
<polygon fill="white" stroke="#bfbfbf" points="1108,-229.5 1108,-248.5 1175,-248.5 1175,-229.5 1108,-229.5"/>
<text text-anchor="middle" x="1141.5" y="-236.5" font-family="Helvetica,sans-Serif" font-size="10.00">TSContext</text>
</a>
</g>
</g>
<!-- Node31&#45;&gt;Node29 -->
<g id="edge37" class="edge">
<title>Node31&#45;&gt;Node29</title>
<path fill="none" stroke="#9a32cd" stroke-dasharray="5,2" d="M1185.35,-237.16C1236,-235.45 1322.79,-233.98 1397,-240 1413.55,-241.34 1431.5,-243.86 1447.59,-246.5"/>
<polygon fill="#9a32cd" stroke="#9a32cd" points="1184.98,-233.67 1175.11,-237.53 1185.23,-240.67 1184.98,-233.67"/>
<text text-anchor="middle" x="1329" y="-243" font-family="Helvetica,sans-Serif" font-size="10.00"> ts_ctx</text>
</g>
<!-- Node32 -->
<g id="node32" class="node">
<title>Node32</title>
<g id="a_node32"><a xlink:title=" ">
<polygon fill="white" stroke="#bfbfbf" points="1113.5,-191.5 1113.5,-210.5 1169.5,-210.5 1169.5,-191.5 1113.5,-191.5"/>
<text text-anchor="middle" x="1141.5" y="-198.5" font-family="Helvetica,sans-Serif" font-size="10.00">PetscInt</text>
</a>
</g>
</g>
<!-- Node32&#45;&gt;Node29 -->
<g id="edge38" class="edge">
<title>Node32&#45;&gt;Node29</title>
<path fill="none" stroke="#9a32cd" stroke-dasharray="5,2" d="M1179.57,-200.95C1229.5,-201.56 1320.87,-205.03 1397,-221 1424.67,-226.8 1455.16,-238.17 1475.22,-246.38"/>
<polygon fill="#9a32cd" stroke="#9a32cd" points="1179.6,-197.45 1169.57,-200.86 1179.54,-204.45 1179.6,-197.45"/>
<text text-anchor="middle" x="1329" y="-224" font-family="Helvetica,sans-Serif" font-size="10.00"> ts_step</text>
</g>
<!-- Node33 -->
<g id="node33" class="node">
<title>Node33</title>
<g id="a_node33"><a xlink:title=" ">
<polygon fill="white" stroke="#bfbfbf" points="1127,-153.5 1127,-172.5 1156,-172.5 1156,-153.5 1127,-153.5"/>
<text text-anchor="middle" x="1141.5" y="-160.5" font-family="Helvetica,sans-Serif" font-size="10.00">TS</text>
</a>
</g>
</g>
<!-- Node33&#45;&gt;Node29 -->
<g id="edge40" class="edge">
<title>Node33&#45;&gt;Node29</title>
<path fill="none" stroke="#9a32cd" stroke-dasharray="5,2" d="M1166.42,-161.86C1212.52,-160.44 1316.22,-161.12 1397,-190 1433.17,-202.93 1469.26,-231.37 1486.7,-246.34"/>
<polygon fill="#9a32cd" stroke="#9a32cd" points="1166.11,-158.37 1156.24,-162.23 1166.37,-165.36 1166.11,-158.37"/>
<text text-anchor="middle" x="1329" y="-193" font-family="Helvetica,sans-Serif" font-size="10.00"> ts</text>
</g>
<!-- Node34 -->
<g id="node34" class="node">
<title>Node34</title>
<g id="a_node34"><a xlink:title=" ">
<polygon fill="white" stroke="#bfbfbf" points="1454,-641.5 1454,-660.5 1543,-660.5 1543,-641.5 1454,-641.5"/>
<text text-anchor="middle" x="1498.5" y="-648.5" font-family="Helvetica,sans-Serif" font-size="10.00">pair&lt; int, int &gt;</text>
</a>
</g>
</g>
<!-- Node34&#45;&gt;Node14 -->
<g id="edge42" class="edge">
<title>Node34&#45;&gt;Node14</title>
<path fill="none" stroke="#9a32cd" stroke-dasharray="5,2" d="M1553.19,-644.06C1613.65,-639.09 1712.41,-639.82 1781,-685 1794.3,-693.76 1786.14,-706.6 1799,-716 1806.65,-721.59 1815.65,-725.59 1824.88,-728.44"/>
<polygon fill="#9a32cd" stroke="#9a32cd" points="1552.73,-640.59 1543.09,-644.97 1553.36,-647.56 1552.73,-640.59"/>
<text text-anchor="middle" x="1690.5" y="-688" font-family="Helvetica,sans-Serif" font-size="10.00"> loHiFERank</text>
</g>
<!-- Node35 -->
<g id="node35" class="node">
<title>Node35</title>
<g id="a_node35"><a xlink:title=" ">
<polygon fill="white" stroke="#bfbfbf" points="1428.5,-603.5 1428.5,-622.5 1568.5,-622.5 1568.5,-603.5 1428.5,-603.5"/>
<text text-anchor="middle" x="1498.5" y="-610.5" font-family="Helvetica,sans-Serif" font-size="10.00">weak_ptr&lt; CacheTuple &gt;</text>
</a>
</g>
</g>
<!-- Node35&#45;&gt;Node14 -->
<g id="edge43" class="edge">
<title>Node35&#45;&gt;Node14</title>
<path fill="none" stroke="#9a32cd" stroke-dasharray="5,2" d="M1578.71,-606.82C1651.26,-602.97 1751.7,-602.75 1781,-628 1811.24,-654.06 1770.99,-687.55 1799,-716 1806.08,-723.19 1815.23,-727.94 1824.9,-731.02"/>
<polygon fill="#9a32cd" stroke="#9a32cd" points="1578.45,-603.33 1568.66,-607.39 1578.84,-610.32 1578.45,-603.33"/>
<text text-anchor="middle" x="1690.5" y="-631" font-family="Helvetica,sans-Serif" font-size="10.00"> cacheWeakPtr</text>
</g>
<!-- Node36 -->
<g id="node36" class="node">
<title>Node36</title>
<g id="a_node36"><a xlink:title=" ">
<polygon fill="white" stroke="#bfbfbf" points="1442.5,-560.5 1442.5,-579.5 1554.5,-579.5 1554.5,-560.5 1442.5,-560.5"/>
<text text-anchor="middle" x="1498.5" y="-567.5" font-family="Helvetica,sans-Serif" font-size="10.00">unique_ptr&lt; bool &gt;</text>
</a>
</g>
</g>
<!-- Node36&#45;&gt;Node14 -->
<g id="edge44" class="edge">
<title>Node36&#45;&gt;Node14</title>
<path fill="none" stroke="#9a32cd" stroke-dasharray="5,2" d="M1537.62,-557.49C1597.65,-540.45 1714.2,-518.49 1781,-579 1826.51,-620.23 1757.5,-670.73 1799,-716 1805.92,-723.55 1815.11,-728.45 1824.91,-731.57"/>
<polygon fill="#9a32cd" stroke="#9a32cd" points="1536.4,-554.21 1527.8,-560.39 1538.38,-560.92 1536.4,-554.21"/>
<text text-anchor="middle" x="1690.5" y="-593" font-family="Helvetica,sans-Serif" font-size="10.00"> matAssembleSwitch</text>
<text text-anchor="middle" x="1690.5" y="-582" font-family="Helvetica,sans-Serif" font-size="10.00">vecAssembleSwitch</text>
</g>
<!-- Node37 -->
<g id="node37" class="node">
<title>Node37</title>
<g id="a_node37"><a xlink:title=" ">
<polygon fill="white" stroke="#bfbfbf" points="1127,-819.5 1127,-838.5 1156,-838.5 1156,-819.5 1127,-819.5"/>
<text text-anchor="middle" x="1141.5" y="-826.5" font-family="Helvetica,sans-Serif" font-size="10.00">int</text>
</a>
</g>
</g>
<!-- Node37&#45;&gt;Node2 -->
<g id="edge89" class="edge">
<title>Node37&#45;&gt;Node2</title>
<path fill="none" stroke="#9a32cd" stroke-dasharray="5,2" d="M1166.36,-827.19C1232.45,-822.16 1423.44,-807.4 1582,-793 1755.92,-777.2 1807.45,-809.6 1973,-754 1981.89,-751.02 1982.05,-745.78 1991,-743 2103.22,-708.19 2137.5,-729 2255,-729 2255,-729 2255,-729 3052.5,-729 3136.51,-729 3169.2,-707.78 3240,-753 3336.73,-814.78 3387.09,-955.29 3401.55,-1001.76"/>
<polygon fill="#9a32cd" stroke="#9a32cd" points="1165.88,-823.72 1156.18,-827.97 1166.41,-830.7 1165.88,-823.72"/>
<text text-anchor="middle" x="2458" y="-754" font-family="Helvetica,sans-Serif" font-size="10.00"> row_nb_dofs</text>
<text text-anchor="middle" x="2458" y="-743" font-family="Helvetica,sans-Serif" font-size="10.00">col_nb_dofs</text>
<text text-anchor="middle" x="2458" y="-732" font-family="Helvetica,sans-Serif" font-size="10.00">row_nb_gauss_pts</text>
</g>
<!-- Node37&#45;&gt;Node14 -->
<g id="edge45" class="edge">
<title>Node37&#45;&gt;Node14</title>
<path fill="none" stroke="#9a32cd" stroke-dasharray="5,2" d="M1166.18,-821.89C1190.01,-814.86 1227.88,-804.01 1261,-796 1320.98,-781.49 1343.07,-798 1397,-768 1407.16,-762.34 1404.38,-753.75 1415,-749 1486.52,-716.97 1715.14,-725.11 1824.97,-731.18"/>
<polygon fill="#9a32cd" stroke="#9a32cd" points="1164.87,-818.63 1156.28,-824.83 1166.87,-825.34 1164.87,-818.63"/>
<text text-anchor="middle" x="1498.5" y="-785" font-family="Helvetica,sans-Serif" font-size="10.00"> sIze</text>
<text text-anchor="middle" x="1498.5" y="-774" font-family="Helvetica,sans-Serif" font-size="10.00">loopSize</text>
<text text-anchor="middle" x="1498.5" y="-763" font-family="Helvetica,sans-Serif" font-size="10.00">nInTheLoop</text>
<text text-anchor="middle" x="1498.5" y="-752" font-family="Helvetica,sans-Serif" font-size="10.00">rAnk</text>
</g>
<!-- Node37&#45;&gt;Node39 -->
<g id="edge57" class="edge">
<title>Node37&#45;&gt;Node39</title>
<path fill="none" stroke="#9a32cd" stroke-dasharray="5,2" d="M1165.96,-835.07C1222.18,-850 1362.51,-889.76 1397,-923 1466.9,-990.37 1490.63,-1114.14 1496.13,-1149.4"/>
<polygon fill="#9a32cd" stroke="#9a32cd" points="1166.75,-831.65 1156.19,-832.5 1164.97,-838.42 1166.75,-831.65"/>
<text text-anchor="middle" x="1329" y="-992" font-family="Helvetica,sans-Serif" font-size="10.00"> tagNameSize</text>
<text text-anchor="middle" x="1329" y="-981" font-family="Helvetica,sans-Serif" font-size="10.00">nbDofsRow</text>
<text text-anchor="middle" x="1329" y="-970" font-family="Helvetica,sans-Serif" font-size="10.00">nbLocDofsCol</text>
<text text-anchor="middle" x="1329" y="-959" font-family="Helvetica,sans-Serif" font-size="10.00">nbDofsCol</text>
<text text-anchor="middle" x="1329" y="-948" font-family="Helvetica,sans-Serif" font-size="10.00">nbGhostDofsRow</text>
<text text-anchor="middle" x="1329" y="-937" font-family="Helvetica,sans-Serif" font-size="10.00">nbGhostDofsCol</text>
<text text-anchor="middle" x="1329" y="-926" font-family="Helvetica,sans-Serif" font-size="10.00">nbLocDofsRow</text>
</g>
<!-- Node72 -->
<g id="node72" class="node">
<title>Node72</title>
<g id="a_node72"><a xlink:href="structNavierStokesElement_1_1BlockData.html" target="_top" xlink:title=" ">
<polygon fill="white" stroke="black" points="2581,-879 2581,-909 2703,-909 2703,-879 2581,-879"/>
<text text-anchor="start" x="2589" y="-897" font-family="Helvetica,sans-Serif" font-size="10.00">NavierStokesElement</text>
<text text-anchor="middle" x="2642" y="-886" font-family="Helvetica,sans-Serif" font-size="10.00">::BlockData</text>
</a>
</g>
</g>
<!-- Node37&#45;&gt;Node72 -->
<g id="edge88" class="edge">
<title>Node37&#45;&gt;Node72</title>
<path fill="none" stroke="#9a32cd" stroke-dasharray="5,2" d="M1166.16,-830.8C1223.16,-834.99 1372.57,-845 1497.5,-845 1497.5,-845 1497.5,-845 2257,-845 2382.91,-845 2414.58,-852.69 2539,-872 2552.61,-874.11 2567.12,-876.91 2580.81,-879.8"/>
<polygon fill="#9a32cd" stroke="#9a32cd" points="1166.26,-827.3 1156.03,-830.05 1165.74,-834.28 1166.26,-827.3"/>
<text text-anchor="middle" x="1886" y="-848" font-family="Helvetica,sans-Serif" font-size="10.00"> iD</text>
</g>
<!-- Node38 -->
<g id="node38" class="node">
<title>Node38</title>
<g id="a_node38"><a xlink:title=" ">
<polygon fill="white" stroke="#bfbfbf" points="1415,-1187.5 1415,-1206.5 1582,-1206.5 1582,-1187.5 1415,-1187.5"/>
<text text-anchor="middle" x="1498.5" y="-1194.5" font-family="Helvetica,sans-Serif" font-size="10.00">function&lt; MoFEMErrorCode()&gt;</text>
</a>
</g>
</g>
<!-- Node38&#45;&gt;Node14 -->
<g id="edge46" class="edge">
<title>Node38&#45;&gt;Node14</title>
<path fill="none" stroke="#9a32cd" stroke-dasharray="5,2" d="M1561.66,-1185.1C1629.2,-1168.47 1733.77,-1131.07 1781,-1053 1807.54,-1009.13 1777.81,-869.69 1799,-823 1814.8,-788.18 1850.55,-759.03 1870.63,-744.64"/>
<polygon fill="#9a32cd" stroke="#9a32cd" points="1560.48,-1181.78 1551.56,-1187.5 1562.1,-1188.59 1560.48,-1181.78"/>
<text text-anchor="middle" x="1690.5" y="-1198" font-family="Helvetica,sans-Serif" font-size="10.00"> preProcessHook</text>
<text text-anchor="middle" x="1690.5" y="-1187" font-family="Helvetica,sans-Serif" font-size="10.00">operatorHook</text>
<text text-anchor="middle" x="1690.5" y="-1176" font-family="Helvetica,sans-Serif" font-size="10.00">postProcessHook</text>
</g>
<!-- Node39&#45;&gt;Node14 -->
<g id="edge47" class="edge">
<title>Node39&#45;&gt;Node14</title>
<path fill="none" stroke="#9a32cd" stroke-dasharray="5,2" d="M1514.57,-1141.53C1557.98,-1091.34 1687.35,-942.61 1799,-823 1826.11,-793.95 1859.23,-760.66 1875.31,-744.63"/>
<polygon fill="#9a32cd" stroke="#9a32cd" points="1511.81,-1139.38 1507.92,-1149.23 1517.1,-1143.95 1511.81,-1139.38"/>
<text text-anchor="middle" x="1690.5" y="-1041" font-family="Helvetica,sans-Serif" font-size="10.00"> problemPtr</text>
</g>
<!-- Node40 -->
<g id="node40" class="node">
<title>Node40</title>
<g id="a_node40"><a xlink:title=" ">
<polygon fill="white" stroke="#bfbfbf" points="1058,-1381 1058,-1411 1225,-1411 1225,-1381 1058,-1381"/>
<text text-anchor="start" x="1066" y="-1399" font-family="Helvetica,sans-Serif" font-size="10.00">shared_ptr&lt; NumeredEntFinite</text>
<text text-anchor="middle" x="1141.5" y="-1388" font-family="Helvetica,sans-Serif" font-size="10.00">Element_multiIndex &gt;</text>
</a>
</g>
</g>
<!-- Node40&#45;&gt;Node39 -->
<g id="edge48" class="edge">
<title>Node40&#45;&gt;Node39</title>
<path fill="none" stroke="#9a32cd" stroke-dasharray="5,2" d="M1223.38,-1412.23C1279.85,-1418.46 1352.76,-1415.46 1397,-1371 1427.38,-1340.47 1386.64,-1210.42 1415,-1178 1423.61,-1168.15 1436.21,-1162.86 1448.98,-1160.14"/>
<polygon fill="#9a32cd" stroke="#9a32cd" points="1223.74,-1408.74 1213.39,-1411.01 1222.9,-1415.69 1223.74,-1408.74"/>
<text text-anchor="middle" x="1329" y="-1418" font-family="Helvetica,sans-Serif" font-size="10.00"> numeredFiniteElementsPtr</text>
</g>
<!-- Node41 -->
<g id="node41" class="node">
<title>Node41</title>
<g id="a_node41"><a xlink:title=" ">
<polygon fill="white" stroke="#bfbfbf" points="1112,-1342.5 1112,-1361.5 1171,-1361.5 1171,-1342.5 1112,-1342.5"/>
<text text-anchor="middle" x="1141.5" y="-1349.5" font-family="Helvetica,sans-Serif" font-size="10.00">BitFEId *</text>
</a>
</g>
</g>
<!-- Node41&#45;&gt;Node39 -->
<g id="edge49" class="edge">
<title>Node41&#45;&gt;Node39</title>
<path fill="none" stroke="#9a32cd" stroke-dasharray="5,2" d="M1181.42,-1354.35C1245.04,-1357.29 1367.21,-1358.87 1397,-1330 1445.86,-1282.66 1369.58,-1228.64 1415,-1178 1423.64,-1168.37 1436.08,-1163.12 1448.7,-1160.37"/>
<polygon fill="#9a32cd" stroke="#9a32cd" points="1181.53,-1350.85 1171.37,-1353.85 1181.18,-1357.84 1181.53,-1350.85"/>
<text text-anchor="middle" x="1329" y="-1359" font-family="Helvetica,sans-Serif" font-size="10.00"> tagBitFEId</text>
</g>
<!-- Node42 -->
<g id="node42" class="node">
<title>Node42</title>
<g id="a_node42"><a xlink:href="classEntityHandle.html" target="_top" xlink:title=" ">
<polygon fill="white" stroke="black" points="1101.5,-1304.5 1101.5,-1323.5 1181.5,-1323.5 1181.5,-1304.5 1101.5,-1304.5"/>
<text text-anchor="middle" x="1141.5" y="-1311.5" font-family="Helvetica,sans-Serif" font-size="10.00">EntityHandle</text>
</a>
</g>
</g>
<!-- Node42&#45;&gt;Node39 -->
<g id="edge50" class="edge">
<title>Node42&#45;&gt;Node39</title>
<path fill="none" stroke="#9a32cd" stroke-dasharray="5,2" d="M1191.78,-1315.79C1257.34,-1317.06 1368.34,-1314.98 1397,-1288 1433.07,-1254.04 1381.11,-1214.13 1415,-1178 1423.85,-1168.57 1436.36,-1163.37 1448.97,-1160.62"/>
<polygon fill="#9a32cd" stroke="#9a32cd" points="1191.74,-1312.29 1181.66,-1315.56 1191.58,-1319.29 1191.74,-1312.29"/>
<text text-anchor="middle" x="1329" y="-1319" font-family="Helvetica,sans-Serif" font-size="10.00"> meshset</text>
</g>
<!-- Node43 -->
<g id="node43" class="node">
<title>Node43</title>
<g id="a_node43"><a xlink:title=" ">
<polygon fill="white" stroke="#bfbfbf" points="1067,-1255 1067,-1285 1216,-1285 1216,-1255 1067,-1255"/>
<text text-anchor="start" x="1075" y="-1273" font-family="Helvetica,sans-Serif" font-size="10.00">shared_ptr&lt; MoFEM::</text>
<text text-anchor="middle" x="1141.5" y="-1262" font-family="Helvetica,sans-Serif" font-size="10.00">ComposedProblemsData &gt;</text>
</a>
</g>
</g>
<!-- Node43&#45;&gt;Node39 -->
<g id="edge51" class="edge">
<title>Node43&#45;&gt;Node39</title>
<path fill="none" stroke="#9a32cd" stroke-dasharray="5,2" d="M1226.39,-1272.88C1290.46,-1273.27 1371.9,-1269.25 1397,-1248 1421.51,-1227.24 1392,-1200.43 1415,-1178 1424.05,-1169.18 1436.33,-1164.14 1448.65,-1161.33"/>
<polygon fill="#9a32cd" stroke="#9a32cd" points="1226.3,-1269.38 1216.26,-1272.78 1226.23,-1276.38 1226.3,-1269.38"/>
<text text-anchor="middle" x="1329" y="-1276" font-family="Helvetica,sans-Serif" font-size="10.00"> composedProblemsData</text>
</g>
<!-- Node44 -->
<g id="node44" class="node">
<title>Node44</title>
<g id="a_node44"><a xlink:title=" ">
<polygon fill="white" stroke="#bfbfbf" points="1101,-1216.5 1101,-1235.5 1182,-1235.5 1182,-1216.5 1101,-1216.5"/>
<text text-anchor="middle" x="1141.5" y="-1223.5" font-family="Helvetica,sans-Serif" font-size="10.00">BitRefLevel *</text>
</a>
</g>
</g>
<!-- Node44&#45;&gt;Node39 -->
<g id="edge52" class="edge">
<title>Node44&#45;&gt;Node39</title>
<path fill="none" stroke="#9a32cd" stroke-dasharray="5,2" d="M1192.27,-1225.37C1256.12,-1223.81 1362.73,-1218.43 1397,-1200 1408.13,-1194.02 1404.27,-1184.66 1415,-1178 1425.11,-1171.72 1437.09,-1167.51 1448.73,-1164.69"/>
<polygon fill="#9a32cd" stroke="#9a32cd" points="1191.94,-1221.88 1182.02,-1225.6 1192.1,-1228.88 1191.94,-1221.88"/>
<text text-anchor="middle" x="1329" y="-1237" font-family="Helvetica,sans-Serif" font-size="10.00"> tagBitRefLevelMask</text>
<text text-anchor="middle" x="1329" y="-1226" font-family="Helvetica,sans-Serif" font-size="10.00">tagBitRefLevel</text>
</g>
<!-- Node45 -->
<g id="node45" class="node">
<title>Node45</title>
<g id="a_node45"><a xlink:title=" ">
<polygon fill="white" stroke="#bfbfbf" points="1056.5,-1167 1056.5,-1197 1226.5,-1197 1226.5,-1167 1056.5,-1167"/>
<text text-anchor="start" x="1064.5" y="-1185" font-family="Helvetica,sans-Serif" font-size="10.00">shared_ptr&lt; NumeredDofEntity</text>
<text text-anchor="middle" x="1141.5" y="-1174" font-family="Helvetica,sans-Serif" font-size="10.00">_multiIndex &gt;</text>
</a>
</g>
</g>
<!-- Node45&#45;&gt;Node39 -->
<g id="edge53" class="edge">
<title>Node45&#45;&gt;Node39</title>
<path fill="none" stroke="#9a32cd" stroke-dasharray="5,2" d="M1236.96,-1175.88C1305.2,-1171.46 1394.57,-1165.67 1448.92,-1162.15"/>
<polygon fill="#9a32cd" stroke="#9a32cd" points="1236.38,-1172.41 1226.63,-1176.55 1236.84,-1179.4 1236.38,-1172.41"/>
<text text-anchor="middle" x="1329" y="-1188" font-family="Helvetica,sans-Serif" font-size="10.00"> numeredRowDofsPtr</text>
<text text-anchor="middle" x="1329" y="-1177" font-family="Helvetica,sans-Serif" font-size="10.00">numeredColDofsPtr</text>
</g>
<!-- Node46 -->
<g id="node46" class="node">
<title>Node46</title>
<g id="a_node46"><a xlink:title=" ">
<polygon fill="white" stroke="#bfbfbf" points="1072.5,-1128.5 1072.5,-1147.5 1210.5,-1147.5 1210.5,-1128.5 1072.5,-1128.5"/>
<text text-anchor="middle" x="1141.5" y="-1135.5" font-family="Helvetica,sans-Serif" font-size="10.00">vector&lt; BlockFieldPair &gt;</text>
</a>
</g>
</g>
<!-- Node46&#45;&gt;Node39 -->
<g id="edge55" class="edge">
<title>Node46&#45;&gt;Node39</title>
<path fill="none" stroke="#9a32cd" stroke-dasharray="5,2" d="M1220.81,-1139.08C1271.19,-1140.19 1338.03,-1142.44 1397,-1147 1413.91,-1148.31 1432.35,-1150.33 1448.76,-1152.35"/>
<polygon fill="#9a32cd" stroke="#9a32cd" points="1220.71,-1135.58 1210.64,-1138.87 1220.56,-1142.58 1220.71,-1135.58"/>
<text text-anchor="middle" x="1329" y="-1150" font-family="Helvetica,sans-Serif" font-size="10.00"> emptyFieldBlocks</text>
</g>
<!-- Node47 -->
<g id="node47" class="node">
<title>Node47</title>
<g id="a_node47"><a xlink:title=" ">
<polygon fill="white" stroke="#bfbfbf" points="1063.5,-1079 1063.5,-1109 1219.5,-1109 1219.5,-1079 1063.5,-1079"/>
<text text-anchor="start" x="1071.5" y="-1097" font-family="Helvetica,sans-Serif" font-size="10.00">shared_ptr&lt; MoFEM::</text>
<text text-anchor="middle" x="1141.5" y="-1086" font-family="Helvetica,sans-Serif" font-size="10.00">Problem::SubProblemData &gt;</text>
</a>
</g>
</g>
<!-- Node47&#45;&gt;Node39 -->
<g id="edge56" class="edge">
<title>Node47&#45;&gt;Node39</title>
<path fill="none" stroke="#9a32cd" stroke-dasharray="5,2" d="M1229.76,-1100.79C1279.22,-1105.68 1342.03,-1113.64 1397,-1126 1423.34,-1131.92 1452.57,-1141.92 1472.68,-1149.37"/>
<polygon fill="#9a32cd" stroke="#9a32cd" points="1230.02,-1097.3 1219.73,-1099.82 1229.35,-1104.27 1230.02,-1097.3"/>
<text text-anchor="middle" x="1329" y="-1129" font-family="Helvetica,sans-Serif" font-size="10.00"> subProblemData</text>
</g>
<!-- Node48 -->
<g id="node48" class="node">
<title>Node48</title>
<g id="a_node48"><a xlink:title=" ">
<polygon fill="white" stroke="#bfbfbf" points="1040,-1040.5 1040,-1059.5 1243,-1059.5 1243,-1040.5 1040,-1040.5"/>
<text text-anchor="middle" x="1141.5" y="-1047.5" font-family="Helvetica,sans-Serif" font-size="10.00">shared_ptr&lt; SequenceDofContainer &gt;</text>
</a>
</g>
</g>
<!-- Node48&#45;&gt;Node39 -->
<g id="edge58" class="edge">
<title>Node48&#45;&gt;Node39</title>
<path fill="none" stroke="#9a32cd" stroke-dasharray="5,2" d="M1253.28,-1049.33C1299.21,-1052.4 1352.12,-1060.4 1397,-1079 1436.35,-1095.31 1472.93,-1131.81 1488.96,-1149.3"/>
<polygon fill="#9a32cd" stroke="#9a32cd" points="1253.48,-1045.83 1243.29,-1048.73 1253.07,-1052.82 1253.48,-1045.83"/>
<text text-anchor="middle" x="1329" y="-1093" font-family="Helvetica,sans-Serif" font-size="10.00"> sequenceRowDofContainer</text>
<text text-anchor="middle" x="1329" y="-1082" font-family="Helvetica,sans-Serif" font-size="10.00">sequenceColDofContainer</text>
</g>
<!-- Node49 -->
<g id="node49" class="node">
<title>Node49</title>
<g id="a_node49"><a xlink:title=" ">
<polygon fill="white" stroke="#bfbfbf" points="1097.5,-1002.5 1097.5,-1021.5 1185.5,-1021.5 1185.5,-1002.5 1097.5,-1002.5"/>
<text text-anchor="middle" x="1141.5" y="-1009.5" font-family="Helvetica,sans-Serif" font-size="10.00">BitProblemId *</text>
</a>
</g>
</g>
<!-- Node49&#45;&gt;Node39 -->
<g id="edge59" class="edge">
<title>Node49&#45;&gt;Node39</title>
<path fill="none" stroke="#9a32cd" stroke-dasharray="5,2" d="M1195.95,-1005.24C1249.93,-1000.96 1334.11,-1001.46 1397,-1035 1447.12,-1061.73 1481.42,-1125.17 1493.09,-1149.38"/>
<polygon fill="#9a32cd" stroke="#9a32cd" points="1195.56,-1001.76 1185.9,-1006.12 1196.17,-1008.73 1195.56,-1001.76"/>
<text text-anchor="middle" x="1329" y="-1038" font-family="Helvetica,sans-Serif" font-size="10.00"> tagId</text>
</g>
<!-- Node50 -->
<g id="node50" class="node">
<title>Node50</title>
<g id="a_node50"><a xlink:title=" ">
<polygon fill="white" stroke="#bfbfbf" points="1805,-1067 1805,-1097 1967,-1097 1967,-1067 1805,-1067"/>
<text text-anchor="start" x="1813" y="-1085" font-family="Helvetica,sans-Serif" font-size="10.00">shared_ptr&lt; const MoFEM</text>
<text text-anchor="middle" x="1886" y="-1074" font-family="Helvetica,sans-Serif" font-size="10.00">::NumeredEntFiniteElement &gt;</text>
</a>
</g>
</g>
<!-- Node50&#45;&gt;Node13 -->
<g id="edge60" class="edge">
<title>Node50&#45;&gt;Node13</title>
<path fill="none" stroke="#9a32cd" stroke-dasharray="5,2" d="M1977.54,-1088.15C2048.18,-1092.95 2143.85,-1099.45 2202.4,-1103.43"/>
<polygon fill="#9a32cd" stroke="#9a32cd" points="1977.52,-1084.64 1967.3,-1087.46 1977.04,-1091.63 1977.52,-1084.64"/>
<text text-anchor="middle" x="2063" y="-1102" font-family="Helvetica,sans-Serif" font-size="10.00"> numeredEntFiniteElementPtr</text>
</g>
<!-- Node51 -->
<g id="node51" class="node">
<title>Node51</title>
<g id="a_node51"><a xlink:title=" ">
<polygon fill="white" stroke="#bfbfbf" points="1864,-1362.5 1864,-1381.5 1908,-1381.5 1908,-1362.5 1864,-1362.5"/>
<text text-anchor="middle" x="1886" y="-1369.5" font-family="Helvetica,sans-Serif" font-size="10.00">string</text>
</a>
</g>
</g>
<!-- Node51&#45;&gt;Node4 -->
<g id="edge83" class="edge">
<title>Node51&#45;&gt;Node4</title>
<path fill="none" stroke="#9a32cd" stroke-dasharray="5,2" d="M1918.08,-1377.95C1938.68,-1381.61 1966.35,-1385.97 1991,-1388 2032.66,-1391.43 2615.7,-1396.51 2836.8,-1398.33"/>
<polygon fill="#9a32cd" stroke="#9a32cd" points="1918.48,-1374.47 1908.01,-1376.12 1917.22,-1381.36 1918.48,-1374.47"/>
<text text-anchor="middle" x="2458" y="-1410" font-family="Helvetica,sans-Serif" font-size="10.00"> colFieldName</text>
<text text-anchor="middle" x="2458" y="-1399" font-family="Helvetica,sans-Serif" font-size="10.00">rowFieldName</text>
</g>
<!-- Node51&#45;&gt;Node13 -->
<g id="edge61" class="edge">
<title>Node51&#45;&gt;Node13</title>
<path fill="none" stroke="#9a32cd" stroke-dasharray="5,2" d="M1918.1,-1373.84C1977.86,-1376.65 2105.47,-1378.89 2135,-1349 2169.94,-1313.64 2119.71,-1162.93 2153,-1126 2165.36,-1112.29 2184.18,-1106.51 2202.29,-1104.51"/>
<polygon fill="#9a32cd" stroke="#9a32cd" points="1918.27,-1370.35 1908.1,-1373.34 1917.91,-1377.34 1918.27,-1370.35"/>
<text text-anchor="middle" x="2063" y="-1379" font-family="Helvetica,sans-Serif" font-size="10.00"> feName</text>
</g>
<!-- Node52 -->
<g id="node52" class="node">
<title>Node52</title>
<g id="a_node52"><a xlink:title=" ">
<polygon fill="white" stroke="#bfbfbf" points="1804.5,-1116 1804.5,-1146 1967.5,-1146 1967.5,-1116 1804.5,-1116"/>
<text text-anchor="start" x="1812.5" y="-1134" font-family="Helvetica,sans-Serif" font-size="10.00">function&lt; bool(MoFEM</text>
<text text-anchor="middle" x="1886" y="-1123" font-family="Helvetica,sans-Serif" font-size="10.00">::FEMethod *fe_method_ptr)&gt;</text>
</a>
</g>
</g>
<!-- Node52&#45;&gt;Node13 -->
<g id="edge62" class="edge">
<title>Node52&#45;&gt;Node13</title>
<path fill="none" stroke="#9a32cd" stroke-dasharray="5,2" d="M1977.98,-1125.07C2048.52,-1120.47 2143.82,-1114.25 2202.26,-1110.44"/>
<polygon fill="#9a32cd" stroke="#9a32cd" points="1977.51,-1121.59 1967.76,-1125.73 1977.97,-1128.57 1977.51,-1121.59"/>
<text text-anchor="middle" x="2063" y="-1127" font-family="Helvetica,sans-Serif" font-size="10.00"> exeTestHook</text>
</g>
<!-- Node53 -->
<g id="node53" class="node">
<title>Node53</title>
<g id="a_node53"><a xlink:href="classdouble.html" target="_top" xlink:title=" ">
<polygon fill="white" stroke="black" points="2231,-873.5 2231,-892.5 2281,-892.5 2281,-873.5 2231,-873.5"/>
<text text-anchor="middle" x="2256" y="-880.5" font-family="Helvetica,sans-Serif" font-size="10.00">double</text>
</a>
</g>
</g>
<!-- Node53&#45;&gt;Node12 -->
<g id="edge63" class="edge">
<title>Node53&#45;&gt;Node12</title>
<path fill="none" stroke="#9a32cd" stroke-dasharray="5,2" d="M2291.22,-881.43C2312.84,-882.21 2340.15,-886.66 2359,-902 2375.38,-915.34 2360.69,-932.57 2377,-946 2433.66,-992.65 2480.79,-933.3 2539,-978 2607.9,-1030.92 2633.15,-1142.61 2639.35,-1176.23"/>
<polygon fill="#9a32cd" stroke="#9a32cd" points="2291.17,-877.93 2281.13,-881.32 2291.08,-884.93 2291.17,-877.93"/>
<text text-anchor="middle" x="2458" y="-981" font-family="Helvetica,sans-Serif" font-size="10.00"> elementMeasure</text>
</g>
<!-- Node53&#45;&gt;Node72 -->
<g id="edge86" class="edge">
<title>Node53&#45;&gt;Node72</title>
<path fill="none" stroke="#9a32cd" stroke-dasharray="5,2" d="M2291.41,-880.58C2344.59,-877.29 2449.91,-872.48 2539,-879 2552.57,-879.99 2567.07,-881.72 2580.75,-883.65"/>
<polygon fill="#9a32cd" stroke="#9a32cd" points="2290.94,-877.11 2281.18,-881.24 2291.39,-884.09 2290.94,-877.11"/>
<text text-anchor="middle" x="2458" y="-915" font-family="Helvetica,sans-Serif" font-size="10.00"> inertiaCoef</text>
<text text-anchor="middle" x="2458" y="-904" font-family="Helvetica,sans-Serif" font-size="10.00">viscousCoef</text>
<text text-anchor="middle" x="2458" y="-893" font-family="Helvetica,sans-Serif" font-size="10.00">fluidDensity</text>
<text text-anchor="middle" x="2458" y="-882" font-family="Helvetica,sans-Serif" font-size="10.00">fluidViscosity</text>
</g>
<!-- Node75 -->
<g id="node75" class="node">
<title>Node75</title>
<g id="a_node75"><a xlink:href="classFTensor_1_1Tensor2.html" target="_top" xlink:title=" ">
<polygon fill="white" stroke="black" points="2570,-770 2570,-800 2714,-800 2714,-770 2570,-770"/>
<text text-anchor="start" x="2578" y="-788" font-family="Helvetica,sans-Serif" font-size="10.00">FTensor::Tensor2&lt; double,</text>
<text text-anchor="middle" x="2642" y="-777" font-family="Helvetica,sans-Serif" font-size="10.00"> 3, 3 &gt;</text>
</a>
</g>
</g>
<!-- Node53&#45;&gt;Node75 -->
<g id="edge93" class="edge">
<title>Node53&#45;&gt;Node75</title>
<path fill="none" stroke="#9a32cd" stroke-dasharray="5,2" d="M2290.81,-874.37C2356.17,-857.69 2500.59,-820.83 2582.07,-800.04"/>
<polygon fill="#9a32cd" stroke="#9a32cd" points="2289.84,-871.01 2281.02,-876.87 2291.58,-877.79 2289.84,-871.01"/>
<text text-anchor="middle" x="2458" y="-855" font-family="Helvetica,sans-Serif" font-size="10.00"> data</text>
</g>
<!-- Node54 -->
<g id="node54" class="node">
<title>Node54</title>
<g id="a_node54"><a xlink:title=" ">
<polygon fill="white" stroke="#bfbfbf" points="2170,-1294.5 2170,-1335.5 2342,-1335.5 2342,-1294.5 2170,-1294.5"/>
<text text-anchor="start" x="2178" y="-1323.5" font-family="Helvetica,sans-Serif" font-size="10.00">array&lt; boost::shared</text>
<text text-anchor="start" x="2178" y="-1312.5" font-family="Helvetica,sans-Serif" font-size="10.00">_ptr&lt; MoFEM::EntitiesFieldData</text>
<text text-anchor="middle" x="2256" y="-1301.5" font-family="Helvetica,sans-Serif" font-size="10.00"> &gt;, LASTSPACE &gt;</text>
</a>
</g>
</g>
<!-- Node54&#45;&gt;Node12 -->
<g id="edge64" class="edge">
<title>Node54&#45;&gt;Node12</title>
<path fill="none" stroke="#9a32cd" stroke-dasharray="5,2" d="M2352.07,-1309.05C2408.36,-1302.82 2479.97,-1290.07 2539,-1264 2577.54,-1246.98 2614.77,-1212.58 2631.62,-1195.73"/>
<polygon fill="#9a32cd" stroke="#9a32cd" points="2351.68,-1305.57 2342.11,-1310.1 2352.42,-1312.53 2351.68,-1305.57"/>
<text text-anchor="middle" x="2458" y="-1320" font-family="Helvetica,sans-Serif" font-size="10.00"> derivedDataOnElement</text>
<text text-anchor="middle" x="2458" y="-1309" font-family="Helvetica,sans-Serif" font-size="10.00">dataOnElement</text>
</g>
<!-- Node55 -->
<g id="node55" class="node">
<title>Node55</title>
<g id="a_node55"><a xlink:title=" ">
<polygon fill="white" stroke="#bfbfbf" points="2222,-1256.5 2222,-1275.5 2290,-1275.5 2290,-1256.5 2222,-1256.5"/>
<text text-anchor="middle" x="2256" y="-1263.5" font-family="Helvetica,sans-Serif" font-size="10.00">EntityType</text>
</a>
</g>
</g>
<!-- Node55&#45;&gt;Node12 -->
<g id="edge65" class="edge">
<title>Node55&#45;&gt;Node12</title>
<path fill="none" stroke="#9a32cd" stroke-dasharray="5,2" d="M2300.5,-1260.46C2356.21,-1252.94 2455.54,-1238.1 2539,-1218 2564.8,-1211.79 2593.61,-1202.53 2614.01,-1195.57"/>
<polygon fill="#9a32cd" stroke="#9a32cd" points="2299.74,-1257.03 2290.29,-1261.82 2300.67,-1263.97 2299.74,-1257.03"/>
<text text-anchor="middle" x="2458" y="-1252" font-family="Helvetica,sans-Serif" font-size="10.00"> lastEvaluatedElementEntityType</text>
</g>
<!-- Node56 -->
<g id="node56" class="node">
<title>Node56</title>
<g id="a_node56"><a xlink:href="structMoFEM_1_1DeprecatedCoreInterface.html" target="_top" xlink:title="Deprecated interface functions.">
<polygon fill="white" stroke="black" points="1600,-1266.5 1600,-1285.5 1781,-1285.5 1781,-1266.5 1600,-1266.5"/>
<text text-anchor="middle" x="1690.5" y="-1273.5" font-family="Helvetica,sans-Serif" font-size="10.00">MoFEM::DeprecatedCoreInterface</text>
</a>
</g>
</g>
<!-- Node56&#45;&gt;Node12 -->
<g id="edge66" class="edge">
<title>Node56&#45;&gt;Node12</title>
<path fill="none" stroke="#9a32cd" stroke-dasharray="5,2" d="M1791.23,-1277.26C1882.96,-1281.14 2021.54,-1293.96 2135,-1334 2143.84,-1337.12 2143.97,-1342.46 2153,-1345 2241.13,-1369.8 2267.5,-1348.3 2359,-1345 2439.16,-1342.11 2469.26,-1371.61 2539,-1332 2595.19,-1300.08 2627.62,-1222.97 2637.63,-1195.73"/>
<polygon fill="#9a32cd" stroke="#9a32cd" points="1791.25,-1273.76 1781.12,-1276.86 1790.97,-1280.75 1791.25,-1273.76"/>
<text text-anchor="middle" x="2063" y="-1337" font-family="Helvetica,sans-Serif" font-size="10.00"> mField</text>
</g>
<!-- Node57&#45;&gt;Node56 -->
<g id="edge67" class="edge">
<title>Node57&#45;&gt;Node56</title>
<path fill="none" stroke="midnightblue" d="M1206.51,-872.28C1260.5,-866.45 1338.14,-865.79 1397,-897 1516.92,-960.58 1522.81,-1017.85 1582,-1140 1596.01,-1168.91 1582.03,-1183.37 1600,-1210 1617.49,-1235.93 1648.69,-1255.47 1669.24,-1266.33"/>
<polygon fill="midnightblue" stroke="midnightblue" points="1205.91,-868.83 1196.38,-873.47 1206.72,-875.78 1205.91,-868.83"/>
</g>
<!-- Node58 -->
<g id="node58" class="node">
<title>Node58</title>
<g id="a_node58"><a xlink:title=" ">
<polygon fill="white" stroke="#bfbfbf" points="2172.5,-1185 2172.5,-1237 2339.5,-1237 2339.5,-1185 2172.5,-1185"/>
<text text-anchor="start" x="2180.5" y="-1225" font-family="Helvetica,sans-Serif" font-size="10.00">function&lt; MoFEMErrorCode</text>
<text text-anchor="start" x="2180.5" y="-1214" font-family="Helvetica,sans-Serif" font-size="10.00">(ForcesAndSourcesCore *fe</text>
<text text-anchor="start" x="2180.5" y="-1203" font-family="Helvetica,sans-Serif" font-size="10.00">_raw_ptr, int order_row,</text>
<text text-anchor="middle" x="2256" y="-1192" font-family="Helvetica,sans-Serif" font-size="10.00"> int order_col, int order_data)&gt;</text>
</a>
</g>
</g>
<!-- Node58&#45;&gt;Node12 -->
<g id="edge70" class="edge">
<title>Node58&#45;&gt;Node12</title>
<path fill="none" stroke="#9a32cd" stroke-dasharray="5,2" d="M2350.2,-1204.93C2413.28,-1200.83 2495.92,-1195.45 2556.97,-1191.47"/>
<polygon fill="#9a32cd" stroke="#9a32cd" points="2349.6,-1201.46 2339.85,-1205.61 2350.06,-1208.45 2349.6,-1201.46"/>
<text text-anchor="middle" x="2458" y="-1206" font-family="Helvetica,sans-Serif" font-size="10.00"> setRuleHook</text>
</g>
<!-- Node59 -->
<g id="node59" class="node">
<title>Node59</title>
<g id="a_node59"><a xlink:title=" ">
<polygon fill="white" stroke="#bfbfbf" points="2155,-1136 2155,-1166 2357,-1166 2357,-1136 2155,-1136"/>
<text text-anchor="start" x="2163" y="-1154" font-family="Helvetica,sans-Serif" font-size="10.00">ptr_deque&lt; MoFEM::Forces</text>
<text text-anchor="middle" x="2256" y="-1143" font-family="Helvetica,sans-Serif" font-size="10.00">AndSourcesCore::UserDataOperator &gt;</text>
</a>
</g>
</g>
<!-- Node59&#45;&gt;Node12 -->
<g id="edge71" class="edge">
<title>Node59&#45;&gt;Node12</title>
<path fill="none" stroke="#9a32cd" stroke-dasharray="5,2" d="M2367.1,-1161.04C2427.51,-1166.54 2501.24,-1173.26 2556.98,-1178.34"/>
<polygon fill="#9a32cd" stroke="#9a32cd" points="2367.42,-1157.55 2357.14,-1160.13 2366.78,-1164.52 2367.42,-1157.55"/>
<text text-anchor="middle" x="2458" y="-1180" font-family="Helvetica,sans-Serif" font-size="10.00"> opPtrVector</text>
</g>
<!-- Node60 -->
<g id="node60" class="node">
<title>Node60</title>
<g id="a_node60"><a xlink:href="structMoFEM_1_1EntitiesFieldData.html" target="_top" xlink:title="data structure for finite element entity">
<polygon fill="white" stroke="black" points="2185,-1453.5 2185,-1472.5 2327,-1472.5 2327,-1453.5 2185,-1453.5"/>
<text text-anchor="middle" x="2256" y="-1460.5" font-family="Helvetica,sans-Serif" font-size="10.00">MoFEM::EntitiesFieldData</text>
</a>
</g>
</g>
<!-- Node60&#45;&gt;Node12 -->
<g id="edge72" class="edge">
<title>Node60&#45;&gt;Node12</title>
<path fill="none" stroke="#9a32cd" stroke-dasharray="5,2" d="M2337.3,-1461.22C2410.15,-1457.9 2510.4,-1448.48 2539,-1422 2565.74,-1397.24 2544.24,-1376.14 2557,-1342 2578.86,-1283.51 2618.87,-1219.69 2634.5,-1195.77"/>
<polygon fill="#9a32cd" stroke="#9a32cd" points="2337.05,-1457.73 2327.21,-1461.65 2337.35,-1464.72 2337.05,-1457.73"/>
<text text-anchor="middle" x="2458" y="-1506" font-family="Helvetica,sans-Serif" font-size="10.00"> dataNoField</text>
<text text-anchor="middle" x="2458" y="-1495" font-family="Helvetica,sans-Serif" font-size="10.00">dataL2</text>
<text text-anchor="middle" x="2458" y="-1484" font-family="Helvetica,sans-Serif" font-size="10.00">dataH1</text>
<text text-anchor="middle" x="2458" y="-1473" font-family="Helvetica,sans-Serif" font-size="10.00">dataHcurl</text>
<text text-anchor="middle" x="2458" y="-1462" font-family="Helvetica,sans-Serif" font-size="10.00">dataHdiv</text>
</g>
<!-- Node61 -->
<g id="node61" class="node">
<title>Node61</title>
<g id="a_node61"><a xlink:title=" ">
<polygon fill="white" stroke="#bfbfbf" points="1805,-1461 1805,-1491 1967,-1491 1967,-1461 1805,-1461"/>
<text text-anchor="start" x="1813" y="-1479" font-family="Helvetica,sans-Serif" font-size="10.00">array&lt; std::bitset</text>
<text text-anchor="middle" x="1886" y="-1468" font-family="Helvetica,sans-Serif" font-size="10.00">&lt; LASTBASE &gt;, LASTSPACE &gt;</text>
</a>
</g>
</g>
<!-- Node61&#45;&gt;Node60 -->
<g id="edge73" class="edge">
<title>Node61&#45;&gt;Node60</title>
<path fill="none" stroke="#9a32cd" stroke-dasharray="5,2" d="M1977.39,-1472.81C2041.35,-1470.55 2125.88,-1467.56 2184.79,-1465.48"/>
<polygon fill="#9a32cd" stroke="#9a32cd" points="1977.17,-1469.31 1967.3,-1473.16 1977.42,-1476.31 1977.17,-1469.31"/>
<text text-anchor="middle" x="2063" y="-1487" font-family="Helvetica,sans-Serif" font-size="10.00"> brokenBasesOnSpaces</text>
<text text-anchor="middle" x="2063" y="-1476" font-family="Helvetica,sans-Serif" font-size="10.00">basesOnSpaces</text>
</g>
<!-- Node62 -->
<g id="node62" class="node">
<title>Node62</title>
<g id="a_node62"><a xlink:title=" ">
<polygon fill="white" stroke="#bfbfbf" points="1809.5,-1400.5 1809.5,-1441.5 1962.5,-1441.5 1962.5,-1400.5 1809.5,-1400.5"/>
<text text-anchor="start" x="1817.5" y="-1429.5" font-family="Helvetica,sans-Serif" font-size="10.00">array&lt; boost::ptr_vector</text>
<text text-anchor="start" x="1817.5" y="-1418.5" font-family="Helvetica,sans-Serif" font-size="10.00">&lt; MoFEM::EntitiesFieldData</text>
<text text-anchor="middle" x="1886" y="-1407.5" font-family="Helvetica,sans-Serif" font-size="10.00">::EntData &gt;, MBMAXTYPE &gt;</text>
</a>
</g>
</g>
<!-- Node62&#45;&gt;Node60 -->
<g id="edge74" class="edge">
<title>Node62&#45;&gt;Node60</title>
<path fill="none" stroke="#9a32cd" stroke-dasharray="5,2" d="M1972.95,-1430.81C2037.43,-1438.17 2124.61,-1448.12 2184.9,-1455"/>
<polygon fill="#9a32cd" stroke="#9a32cd" points="1973.14,-1427.31 1962.8,-1429.65 1972.34,-1434.26 1973.14,-1427.31"/>
<text text-anchor="middle" x="2063" y="-1452" font-family="Helvetica,sans-Serif" font-size="10.00"> dataOnEntities</text>
</g>
<!-- Node63 -->
<g id="node63" class="node">
<title>Node63</title>
<g id="a_node63"><a xlink:title=" ">
<polygon fill="white" stroke="#bfbfbf" points="1799,-1636 1799,-1666 1973,-1666 1973,-1636 1799,-1636"/>
<text text-anchor="start" x="1807" y="-1654" font-family="Helvetica,sans-Serif" font-size="10.00">array&lt; std::bitset</text>
<text text-anchor="middle" x="1886" y="-1643" font-family="Helvetica,sans-Serif" font-size="10.00">&lt; LASTSPACE &gt;, MBMAXTYPE &gt;</text>
</a>
</g>
</g>
<!-- Node63&#45;&gt;Node60 -->
<g id="edge75" class="edge">
<title>Node63&#45;&gt;Node60</title>
<path fill="none" stroke="#9a32cd" stroke-dasharray="5,2" d="M1983.23,-1664.94C2035.01,-1666.74 2096.06,-1658.73 2135,-1620 2178.85,-1576.38 2110.47,-1526.91 2153,-1482 2161.55,-1472.98 2172.9,-1467.44 2184.92,-1464.16"/>
<polygon fill="#9a32cd" stroke="#9a32cd" points="1983.16,-1661.43 1973,-1664.46 1982.83,-1668.43 1983.16,-1661.43"/>
<text text-anchor="middle" x="2063" y="-1668" font-family="Helvetica,sans-Serif" font-size="10.00"> spacesOnEntities</text>
</g>
<!-- Node64 -->
<g id="node64" class="node">
<title>Node64</title>
<g id="a_node64"><a xlink:title=" ">
<polygon fill="white" stroke="#bfbfbf" points="1801.5,-1587 1801.5,-1617 1970.5,-1617 1970.5,-1587 1801.5,-1587"/>
<text text-anchor="start" x="1809.5" y="-1605" font-family="Helvetica,sans-Serif" font-size="10.00">array&lt; std::bitset</text>
<text text-anchor="middle" x="1886" y="-1594" font-family="Helvetica,sans-Serif" font-size="10.00">&lt; LASTBASE &gt;, MBMAXTYPE &gt;</text>
</a>
</g>
</g>
<!-- Node64&#45;&gt;Node60 -->
<g id="edge76" class="edge">
<title>Node64&#45;&gt;Node60</title>
<path fill="none" stroke="#9a32cd" stroke-dasharray="5,2" d="M1980.51,-1604.68C2041.1,-1604.34 2112.73,-1599.33 2135,-1579 2167.38,-1549.44 2122.01,-1513.02 2153,-1482 2161.66,-1473.34 2172.91,-1467.93 2184.78,-1464.67"/>
<polygon fill="#9a32cd" stroke="#9a32cd" points="1980.5,-1601.18 1970.51,-1604.69 1980.51,-1608.18 1980.5,-1601.18"/>
<text text-anchor="middle" x="2063" y="-1608" font-family="Helvetica,sans-Serif" font-size="10.00"> basesOnEntities</text>
</g>
<!-- Node65 -->
<g id="node65" class="node">
<title>Node65</title>
<g id="a_node65"><a xlink:title=" ">
<polygon fill="white" stroke="#bfbfbf" points="1830,-1548.5 1830,-1567.5 1942,-1567.5 1942,-1548.5 1830,-1548.5"/>
<text text-anchor="middle" x="1886" y="-1555.5" font-family="Helvetica,sans-Serif" font-size="10.00">UBlasMatrix&lt; int &gt;</text>
</a>
</g>
</g>
<!-- Node65&#45;&gt;Node60 -->
<g id="edge77" class="edge">
<title>Node65&#45;&gt;Node60</title>
<path fill="none" stroke="#9a32cd" stroke-dasharray="5,2" d="M1952.49,-1555C2021.11,-1551.29 2120.9,-1544.08 2135,-1533 2153.9,-1518.15 2134.74,-1497.63 2153,-1482 2162.03,-1474.27 2173.19,-1469.26 2184.77,-1466.09"/>
<polygon fill="#9a32cd" stroke="#9a32cd" points="1951.98,-1551.52 1942.18,-1555.54 1952.35,-1558.51 1951.98,-1551.52"/>
<text text-anchor="middle" x="2063" y="-1567" font-family="Helvetica,sans-Serif" font-size="10.00"> facesNodesOrder</text>
<text text-anchor="middle" x="2063" y="-1556" font-family="Helvetica,sans-Serif" font-size="10.00">facesNodes</text>
</g>
<!-- Node66 -->
<g id="node66" class="node">
<title>Node66</title>
<g id="a_node66"><a xlink:title=" ">
<polygon fill="white" stroke="#bfbfbf" points="1827.5,-1510.5 1827.5,-1529.5 1944.5,-1529.5 1944.5,-1510.5 1827.5,-1510.5"/>
<text text-anchor="middle" x="1886" y="-1517.5" font-family="Helvetica,sans-Serif" font-size="10.00">bitset&lt; LASTBASE &gt;</text>
</a>
</g>
</g>
<!-- Node66&#45;&gt;Node60 -->
<g id="edge78" class="edge">
<title>Node66&#45;&gt;Node60</title>
<path fill="none" stroke="#9a32cd" stroke-dasharray="5,2" d="M1954.75,-1518.74C2016.84,-1516.72 2103.71,-1511.51 2135,-1498 2144.83,-1493.76 2143.39,-1486.71 2153,-1482 2162.87,-1477.17 2173.82,-1473.56 2184.79,-1470.87"/>
<polygon fill="#9a32cd" stroke="#9a32cd" points="1954.52,-1515.24 1944.63,-1519.04 1954.73,-1522.24 1954.52,-1515.24"/>
<text text-anchor="middle" x="2063" y="-1521" font-family="Helvetica,sans-Serif" font-size="10.00"> bAse</text>
</g>
<!-- Node67 -->
<g id="node67" class="node">
<title>Node67</title>
<g id="a_node67"><a xlink:title=" ">
<polygon fill="white" stroke="#bfbfbf" points="2193.5,-1037.5 2193.5,-1078.5 2318.5,-1078.5 2318.5,-1037.5 2193.5,-1037.5"/>
<text text-anchor="start" x="2201.5" y="-1066.5" font-family="Helvetica,sans-Serif" font-size="10.00">function&lt; int(int order</text>
<text text-anchor="start" x="2201.5" y="-1055.5" font-family="Helvetica,sans-Serif" font-size="10.00">_row, int order_col, int</text>
<text text-anchor="middle" x="2256" y="-1044.5" font-family="Helvetica,sans-Serif" font-size="10.00"> order_data)&gt;</text>
</a>
</g>
</g>
<!-- Node67&#45;&gt;Node12 -->
<g id="edge79" class="edge">
<title>Node67&#45;&gt;Node12</title>
<path fill="none" stroke="#9a32cd" stroke-dasharray="5,2" d="M2328.4,-1071.73C2411.13,-1087.68 2536.55,-1111.94 2539,-1113 2576.4,-1129.12 2613.58,-1160.64 2630.91,-1176.46"/>
<polygon fill="#9a32cd" stroke="#9a32cd" points="2329.01,-1068.29 2318.53,-1069.83 2327.69,-1075.16 2329.01,-1068.29"/>
<text text-anchor="middle" x="2458" y="-1116" font-family="Helvetica,sans-Serif" font-size="10.00"> getRuleHook</text>
</g>
<!-- Node68 -->
<g id="node68" class="node">
<title>Node68</title>
<g id="a_node68"><a xlink:title=" ">
<polygon fill="white" stroke="#bfbfbf" points="2195,-988 2195,-1018 2317,-1018 2317,-988 2195,-988"/>
<text text-anchor="start" x="2203" y="-1006" font-family="Helvetica,sans-Serif" font-size="10.00">shared_ptr&lt; MoFEM::</text>
<text text-anchor="middle" x="2256" y="-995" font-family="Helvetica,sans-Serif" font-size="10.00">BaseFunction &gt;</text>
</a>
</g>
</g>
<!-- Node68&#45;&gt;Node12 -->
<g id="edge80" class="edge">
<title>Node68&#45;&gt;Node12</title>
<path fill="none" stroke="#9a32cd" stroke-dasharray="5,2" d="M2326.98,-1018.4C2337.79,-1021.28 2348.76,-1024.5 2359,-1028 2367.28,-1030.83 2368.56,-1033.66 2377,-1036 2446.91,-1055.39 2475.83,-1020.32 2539,-1056 2590.45,-1085.06 2625.15,-1151.53 2636.74,-1176.39"/>
<polygon fill="#9a32cd" stroke="#9a32cd" points="2327.67,-1014.96 2317.11,-1015.85 2325.92,-1021.74 2327.67,-1014.96"/>
<text text-anchor="middle" x="2458" y="-1070" font-family="Helvetica,sans-Serif" font-size="10.00"> userPolynomialBasePtr</text>
<text text-anchor="middle" x="2458" y="-1059" font-family="Helvetica,sans-Serif" font-size="10.00">elementPolynomialBasePtr</text>
</g>
<!-- Node69 -->
<g id="node69" class="node">
<title>Node69</title>
<g id="a_node69"><a xlink:href="classUBlasMatrix_3_01double_01_4.html" target="_top" xlink:title=" ">
<polygon fill="white" stroke="black" points="2190,-949.5 2190,-968.5 2322,-968.5 2322,-949.5 2190,-949.5"/>
<text text-anchor="middle" x="2256" y="-956.5" font-family="Helvetica,sans-Serif" font-size="10.00">UBlasMatrix&lt; double &gt;</text>
</a>
</g>
</g>
<!-- Node69&#45;&gt;Node12 -->
<g id="edge81" class="edge">
<title>Node69&#45;&gt;Node12</title>
<path fill="none" stroke="#9a32cd" stroke-dasharray="5,2" d="M2332.2,-969.07C2341.41,-971.45 2350.55,-974.38 2359,-978 2368.07,-981.89 2367.8,-987.42 2377,-991 2444.56,-1017.29 2478.41,-970.2 2539,-1010 2601.87,-1051.3 2630.73,-1145.71 2638.66,-1176.27"/>
<polygon fill="#9a32cd" stroke="#9a32cd" points="2332.74,-965.6 2322.21,-966.71 2331.13,-972.42 2332.74,-965.6"/>
<text text-anchor="middle" x="2458" y="-1024" font-family="Helvetica,sans-Serif" font-size="10.00"> coordsAtGaussPts</text>
<text text-anchor="middle" x="2458" y="-1013" font-family="Helvetica,sans-Serif" font-size="10.00">gaussPts</text>
</g>
<!-- Node70 -->
<g id="node70" class="node">
<title>Node70</title>
<g id="a_node70"><a xlink:title=" ">
<polygon fill="white" stroke="#bfbfbf" points="2576.5,-1427.5 2576.5,-1446.5 2707.5,-1446.5 2707.5,-1427.5 2576.5,-1427.5"/>
<text text-anchor="middle" x="2642" y="-1434.5" font-family="Helvetica,sans-Serif" font-size="10.00">static const char *const</text>
</a>
</g>
</g>
<!-- Node70&#45;&gt;Node4 -->
<g id="edge82" class="edge">
<title>Node70&#45;&gt;Node4</title>
<path fill="none" stroke="#9a32cd" stroke-dasharray="5,2" d="M2717.74,-1426.82C2749.03,-1422.56 2785.78,-1417.55 2819,-1413 2824.84,-1412.2 2830.88,-1411.37 2836.95,-1410.54"/>
<polygon fill="#9a32cd" stroke="#9a32cd" points="2717.22,-1423.36 2707.78,-1428.18 2718.16,-1430.3 2717.22,-1423.36"/>
<text text-anchor="middle" x="2782" y="-1426" font-family="Helvetica,sans-Serif" font-size="10.00"> OpTypeNames</text>
</g>
<!-- Node71 -->
<g id="node71" class="node">
<title>Node71</title>
<g id="a_node71"><a xlink:title=" ">
<polygon fill="white" stroke="#bfbfbf" points="3126.5,-969.5 3126.5,-988.5 3209.5,-988.5 3209.5,-969.5 3126.5,-969.5"/>
<text text-anchor="middle" x="3168" y="-976.5" font-family="Helvetica,sans-Serif" font-size="10.00">MatrixDouble</text>
</a>
</g>
</g>
<!-- Node71&#45;&gt;Node2 -->
<g id="edge84" class="edge">
<title>Node71&#45;&gt;Node2</title>
<path fill="none" stroke="#9a32cd" stroke-dasharray="5,2" d="M3219.81,-980.2C3251.22,-981.67 3292.24,-984.91 3328,-992 3340.27,-994.44 3353.33,-998.15 3365.17,-1001.98"/>
<polygon fill="#9a32cd" stroke="#9a32cd" points="3219.68,-976.69 3209.54,-979.77 3219.38,-983.69 3219.68,-976.69"/>
<text text-anchor="middle" x="3293" y="-995" font-family="Helvetica,sans-Serif" font-size="10.00"> locMat</text>
</g>
<!-- Node72&#45;&gt;Node2 -->
<g id="edge85" class="edge">
<title>Node72&#45;&gt;Node2</title>
<path fill="none" stroke="#9a32cd" stroke-dasharray="5,2" d="M2705.16,-911.7C2791.89,-935.6 2954.51,-977.56 3096,-998 3182.32,-1010.47 3283.32,-1014.77 3345.98,-1016.24"/>
<polygon fill="#9a32cd" stroke="#9a32cd" points="2706.04,-908.31 2695.47,-909.02 2704.18,-915.06 2706.04,-908.31"/>
<text text-anchor="middle" x="3051.5" y="-999" font-family="Helvetica,sans-Serif" font-size="10.00"> blockData</text>
</g>
<!-- Node73 -->
<g id="node73" class="node">
<title>Node73</title>
<g id="a_node73"><a xlink:href="classRange.html" target="_top" xlink:title=" ">
<polygon fill="white" stroke="black" points="2232.5,-911.5 2232.5,-930.5 2279.5,-930.5 2279.5,-911.5 2232.5,-911.5"/>
<text text-anchor="middle" x="2256" y="-918.5" font-family="Helvetica,sans-Serif" font-size="10.00">Range</text>
</a>
</g>
</g>
<!-- Node73&#45;&gt;Node72 -->
<g id="edge87" class="edge">
<title>Node73&#45;&gt;Node72</title>
<path fill="none" stroke="#9a32cd" stroke-dasharray="5,2" d="M2289.94,-924.31C2342.78,-928.94 2449.63,-935.46 2539,-923 2558.69,-920.25 2579.92,-914.66 2597.89,-909.12"/>
<polygon fill="#9a32cd" stroke="#9a32cd" points="2290.09,-920.81 2279.81,-923.39 2289.45,-927.78 2290.09,-920.81"/>
<text text-anchor="middle" x="2458" y="-934" font-family="Helvetica,sans-Serif" font-size="10.00"> eNts</text>
</g>
<!-- Node74 -->
<g id="node74" class="node">
<title>Node74</title>
<g id="a_node74"><a xlink:title=" ">
<polygon fill="white" stroke="#bfbfbf" points="3096,-1744 3096,-1774 3240,-1774 3240,-1744 3096,-1744"/>
<text text-anchor="start" x="3104" y="-1762" font-family="Helvetica,sans-Serif" font-size="10.00">shared_ptr&lt; NavierStokes</text>
<text text-anchor="middle" x="3168" y="-1751" font-family="Helvetica,sans-Serif" font-size="10.00">Element::CommonData &gt;</text>
</a>
</g>
</g>
<!-- Node74&#45;&gt;Node2 -->
<g id="edge90" class="edge">
<title>Node74&#45;&gt;Node2</title>
<path fill="none" stroke="#9a32cd" stroke-dasharray="5,2" d="M3250.17,-1762.45C3278.59,-1759.29 3308.29,-1750.3 3328,-1729 3377.15,-1675.9 3401.4,-1130.81 3405.4,-1032.24"/>
<polygon fill="#9a32cd" stroke="#9a32cd" points="3249.85,-1758.96 3240.19,-1763.33 3250.46,-1765.93 3249.85,-1758.96"/>
<text text-anchor="middle" x="3293" y="-1764" font-family="Helvetica,sans-Serif" font-size="10.00"> commonData</text>
</g>
<!-- Node75&#45;&gt;Node1 -->
<g id="edge92" class="edge">
<title>Node75&#45;&gt;Node1</title>
<path fill="none" stroke="#9a32cd" stroke-dasharray="5,2" d="M2724.22,-780.54C2779.64,-777.87 2854.73,-775 2921,-775 2921,-775 2921,-775 3408,-775 3446.7,-775 3489.58,-783.64 3521.87,-791.94"/>
<polygon fill="#9a32cd" stroke="#9a32cd" points="2723.92,-777.05 2714.11,-781.03 2724.27,-784.04 2723.92,-777.05"/>
<text text-anchor="middle" x="3168" y="-778" font-family="Helvetica,sans-Serif" font-size="10.00"> diffDiff</text>
</g>
<!-- Node76 -->
<g id="node76" class="node">
<title>Node76</title>
<g id="a_node76"><a xlink:href="classFTensor_1_1Tensor2.html" target="_top" xlink:title=" ">
<polygon fill="white" stroke="black" points="2196,-761.5 2196,-802.5 2316,-802.5 2316,-761.5 2196,-761.5"/>
<text text-anchor="start" x="2204" y="-790.5" font-family="Helvetica,sans-Serif" font-size="10.00">FTensor::Tensor2&lt; T,</text>
<text text-anchor="start" x="2204" y="-779.5" font-family="Helvetica,sans-Serif" font-size="10.00"> Tensor_Dim0, Tensor</text>
<text text-anchor="middle" x="2256" y="-768.5" font-family="Helvetica,sans-Serif" font-size="10.00">_Dim1 &gt;</text>
</a>
</g>
</g>
<!-- Node76&#45;&gt;Node75 -->
<g id="edge94" class="edge">
<title>Node76&#45;&gt;Node75</title>
<path fill="none" stroke="orange" stroke-dasharray="5,2" d="M2326.46,-782.54C2395.29,-783.08 2500.21,-783.9 2569.68,-784.44"/>
<polygon fill="orange" stroke="orange" points="2326.19,-779.04 2316.16,-782.46 2326.13,-786.04 2326.19,-779.04"/>
<text text-anchor="middle" x="2458" y="-788" font-family="Helvetica,sans-Serif" font-size="10.00"> &lt; double, 3, 3 &gt;</text>
</g>
<!-- Node77 -->
<g id="node77" class="node">
<title>Node77</title>
<g id="a_node77"><a xlink:title=" ">
<polygon fill="white" stroke="#bfbfbf" points="1871.5,-687.5 1871.5,-706.5 1900.5,-706.5 1900.5,-687.5 1871.5,-687.5"/>
<text text-anchor="middle" x="1886" y="-694.5" font-family="Helvetica,sans-Serif" font-size="10.00">T</text>
</a>
</g>
</g>
<!-- Node77&#45;&gt;Node76 -->
<g id="edge95" class="edge">
<title>Node77&#45;&gt;Node76</title>
<path fill="none" stroke="#9a32cd" stroke-dasharray="5,2" d="M1910.52,-702.11C1927.82,-705.89 1951.89,-711.2 1973,-716 2050.1,-733.54 2138.88,-754.43 2195.91,-767.94"/>
<polygon fill="#9a32cd" stroke="#9a32cd" points="1911.23,-698.69 1900.71,-699.97 1909.74,-705.53 1911.23,-698.69"/>
<text text-anchor="middle" x="2063" y="-757" font-family="Helvetica,sans-Serif" font-size="10.00"> data</text>
</g>
</g>
</svg>
