<?xml version="1.0" encoding="UTF-8" standalone="no"?>
<!DOCTYPE svg PUBLIC "-//W3C//DTD SVG 1.1//EN"
 "http://www.w3.org/Graphics/SVG/1.1/DTD/svg11.dtd">
<!-- Generated by graphviz version 2.43.0 (0)
 -->
<!-- Title: ConvectiveMassElement::OpVelocityLhs_dV_dv Pages: 1 -->
<svg width="664pt" height="88pt"
 viewBox="0.00 0.00 664.00 88.00" xmlns="http://www.w3.org/2000/svg" xmlns:xlink="http://www.w3.org/1999/xlink">
<g id="graph0" class="graph" transform="scale(1 1) rotate(0) translate(4 84)">
<title>ConvectiveMassElement::OpVelocityLhs_dV_dv</title>
<polygon fill="white" stroke="transparent" points="-4,4 -4,-84 660,-84 660,4 -4,4"/>
<!-- Node1 -->
<g id="node1" class="node">
<title>Node1</title>
<g id="a_node1"><a xlink:title=" ">
<polygon fill="#bfbfbf" stroke="black" points="346,-24.5 346,-54.5 483,-54.5 483,-24.5 346,-24.5"/>
<text text-anchor="start" x="354" y="-42.5" font-family="Helvetica,sans-Serif" font-size="10.00">ConvectiveMassElement</text>
<text text-anchor="middle" x="414.5" y="-31.5" font-family="Helvetica,sans-Serif" font-size="10.00">::OpVelocityLhs_dV_dv</text>
</a>
</g>
</g>
<!-- Node5 -->
<g id="node5" class="node">
<title>Node5</title>
<g id="a_node5"><a xlink:href="structConvectiveMassElement_1_1OpVelocityLhs__dV__dX.html" target="_top" xlink:title=" ">
<polygon fill="white" stroke="black" points="519,-49.5 519,-79.5 656,-79.5 656,-49.5 519,-49.5"/>
<text text-anchor="start" x="527" y="-67.5" font-family="Helvetica,sans-Serif" font-size="10.00">ConvectiveMassElement</text>
<text text-anchor="middle" x="587.5" y="-56.5" font-family="Helvetica,sans-Serif" font-size="10.00">::OpVelocityLhs_dV_dX</text>
</a>
</g>
</g>
<!-- Node1&#45;&gt;Node5 -->
<g id="edge4" class="edge">
<title>Node1&#45;&gt;Node5</title>
<path fill="none" stroke="midnightblue" d="M493.1,-50.85C501.69,-52.1 510.39,-53.37 518.85,-54.61"/>
<polygon fill="midnightblue" stroke="midnightblue" points="493.48,-47.36 483.08,-49.38 492.47,-54.29 493.48,-47.36"/>
</g>
<!-- Node6 -->
<g id="node6" class="node">
<title>Node6</title>
<g id="a_node6"><a xlink:href="structConvectiveMassElement_1_1OpVelocityLhs__dV__dx.html" target="_top" xlink:title=" ">
<polygon fill="white" stroke="black" points="519,-0.5 519,-30.5 656,-30.5 656,-0.5 519,-0.5"/>
<text text-anchor="start" x="527" y="-18.5" font-family="Helvetica,sans-Serif" font-size="10.00">ConvectiveMassElement</text>
<text text-anchor="middle" x="587.5" y="-7.5" font-family="Helvetica,sans-Serif" font-size="10.00">::OpVelocityLhs_dV_dx</text>
</a>
</g>
</g>
<!-- Node1&#45;&gt;Node6 -->
<g id="edge5" class="edge">
<title>Node1&#45;&gt;Node6</title>
<path fill="none" stroke="midnightblue" d="M493.1,-28.61C501.69,-27.4 510.39,-26.18 518.85,-25"/>
<polygon fill="midnightblue" stroke="midnightblue" points="492.5,-25.16 483.08,-30.01 493.47,-32.09 492.5,-25.16"/>
</g>
<!-- Node2 -->
<g id="node2" class="node">
<title>Node2</title>
<g id="a_node2"><a xlink:href="structConvectiveMassElement_1_1OpMassLhs__dM__dv.html" target="_top" xlink:title=" ">
<polygon fill="white" stroke="black" points="173,-24.5 173,-54.5 310,-54.5 310,-24.5 173,-24.5"/>
<text text-anchor="start" x="181" y="-42.5" font-family="Helvetica,sans-Serif" font-size="10.00">ConvectiveMassElement</text>
<text text-anchor="middle" x="241.5" y="-31.5" font-family="Helvetica,sans-Serif" font-size="10.00">::OpMassLhs_dM_dv</text>
</a>
</g>
</g>
<!-- Node2&#45;&gt;Node1 -->
<g id="edge1" class="edge">
<title>Node2&#45;&gt;Node1</title>
<path fill="none" stroke="midnightblue" d="M320.1,-39.5C328.69,-39.5 337.39,-39.5 345.85,-39.5"/>
<polygon fill="midnightblue" stroke="midnightblue" points="320.08,-36 310.08,-39.5 320.08,-43 320.08,-36"/>
</g>
<!-- Node3 -->
<g id="node3" class="node">
<title>Node3</title>
<g id="a_node3"><a xlink:title=" ">
<polygon fill="white" stroke="#bfbfbf" points="16,-52 16,-71 121,-71 121,-52 16,-52"/>
<text text-anchor="middle" x="68.5" y="-59" font-family="Helvetica,sans-Serif" font-size="10.00">UserDataOperator</text>
</a>
</g>
</g>
<!-- Node3&#45;&gt;Node2 -->
<g id="edge2" class="edge">
<title>Node3&#45;&gt;Node2</title>
<path fill="none" stroke="midnightblue" d="M131.37,-53.54C144.82,-51.81 159.12,-49.97 172.79,-48.21"/>
<polygon fill="midnightblue" stroke="midnightblue" points="130.74,-50.09 121.27,-54.84 131.63,-57.03 130.74,-50.09"/>
</g>
<!-- Node4 -->
<g id="node4" class="node">
<title>Node4</title>
<g id="a_node4"><a xlink:href="structConvectiveMassElement_1_1CommonFunctions.html" target="_top" xlink:title=" ">
<polygon fill="white" stroke="black" points="0,-2.5 0,-32.5 137,-32.5 137,-2.5 0,-2.5"/>
<text text-anchor="start" x="8" y="-20.5" font-family="Helvetica,sans-Serif" font-size="10.00">ConvectiveMassElement</text>
<text text-anchor="middle" x="68.5" y="-9.5" font-family="Helvetica,sans-Serif" font-size="10.00">::CommonFunctions</text>
</a>
</g>
</g>
<!-- Node4&#45;&gt;Node2 -->
<g id="edge3" class="edge">
<title>Node4&#45;&gt;Node2</title>
<path fill="none" stroke="midnightblue" d="M147.1,-27.48C155.69,-28.59 164.39,-29.71 172.85,-30.8"/>
<polygon fill="midnightblue" stroke="midnightblue" points="147.45,-24 137.08,-26.19 146.56,-30.94 147.45,-24"/>
</g>
</g>
</svg>
