<?xml version="1.0" encoding="UTF-8" standalone="no"?>
<!DOCTYPE svg PUBLIC "-//W3C//DTD SVG 1.1//EN"
 "http://www.w3.org/Graphics/SVG/1.1/DTD/svg11.dtd">
<!-- Generated by graphviz version 2.43.0 (0)
 -->
<!-- Title: MoFEM::DofMethod Pages: 1 -->
<!--zoomable 149 -->
<svg id="main" version="1.1" xmlns="http://www.w3.org/2000/svg" xmlns:xlink="http://www.w3.org/1999/xlink" xml:space="preserve" onload="init(evt)">
<style type="text/css"><![CDATA[
.edge:hover path { stroke: red; }
.edge:hover polygon { stroke: red; fill: red; }
]]></style>
<script type="text/javascript"><![CDATA[
var edges = document.getElementsByTagName('g');
if (edges && edges.length) {
  for (var i=0;i<edges.length;i++) {
    if (edges[i].id.substr(0,4)=='edge') {
      edges[i].setAttribute('class','edge');
    }
  }
}
]]></script>
        <defs>
                <circle id="rim" cx="0" cy="0" r="7"/>
                <circle id="rim2" cx="0" cy="0" r="3.5"/>
                <g id="zoomPlus">
                        <use xlink:href="#rim" fill="#404040">
                                <set attributeName="fill" to="#808080" begin="zoomplus.mouseover" end="zoomplus.mouseout"/>
                        </use>
                        <path d="M-4,0h8M0,-4v8" fill="none" stroke="white" stroke-width="1.5" pointer-events="none"/>
                </g>
                <g id="zoomMin">
                        <use xlink:href="#rim" fill="#404040">
                                <set attributeName="fill" to="#808080" begin="zoomminus.mouseover" end="zoomminus.mouseout"/>
                        </use>
                        <path d="M-4,0h8" fill="none" stroke="white" stroke-width="1.5" pointer-events="none"/>
                </g>
                <g id="dirArrow">
                        <path fill="none" stroke="white" stroke-width="1.5" d="M0,-3.0v7 M-2.5,-0.5L0,-3.0L2.5,-0.5"/>
                </g>
               <g id="resetDef">
                       <use xlink:href="#rim2" fill="#404040">
                               <set attributeName="fill" to="#808080" begin="reset.mouseover" end="reset.mouseout"/>
                       </use>
               </g>
        </defs>

<script type="text/javascript">
var viewWidth = 1169;
var viewHeight = 149;
var sectionId = 'dynsection-0';
</script>
<script xlink:href="svgpan.js"/>
<svg id="graph" class="graph">
<g id="viewport">
<title>MoFEM::DofMethod</title>
<polygon fill="white" stroke="transparent" points="-4,4 -4,-145 1165,-145 1165,4 -4,4"/>
<!-- Node1 -->
<g id="node1" class="node">
<title>Node1</title>
<g id="a_node1"><a xlink:title="Data structure to exchange data between mofem and User Loop Methods on entities.">
<polygon fill="#bfbfbf" stroke="black" points="641,-61 641,-80 754,-80 754,-61 641,-61"/>
<text text-anchor="middle" x="697.5" y="-68" font-family="Helvetica,sans-Serif" font-size="10.00">MoFEM::DofMethod</text>
</a>
</g>
</g>
<!-- Node8 -->
<g id="node8" class="node">
<title>Node8</title>
<g id="a_node8"><a xlink:href="structBasicFiniteElements_1_1SaveVertexDofOnTag.html" target="_top" xlink:title="Save field DOFS on vertices/tags.">
<polygon fill="white" stroke="black" points="817,-110.5 817,-140.5 942,-140.5 942,-110.5 817,-110.5"/>
<text text-anchor="start" x="825" y="-128.5" font-family="Helvetica,sans-Serif" font-size="10.00">BasicFiniteElements</text>
<text text-anchor="middle" x="879.5" y="-117.5" font-family="Helvetica,sans-Serif" font-size="10.00">::SaveVertexDofOnTag</text>
</a>
</g>
</g>
<!-- Node1&#45;&gt;Node8 -->
<g id="edge9" class="edge">
<title>Node1&#45;&gt;Node8</title>
<path fill="none" stroke="midnightblue" d="M736.61,-83.39C752.99,-88.83 772.39,-95.13 790,-100.5 800.84,-103.81 812.48,-107.2 823.63,-110.38"/>
<polygon fill="midnightblue" stroke="midnightblue" points="737.44,-79.97 726.84,-80.13 735.22,-86.61 737.44,-79.97"/>
</g>
<!-- Node9 -->
<g id="node9" class="node">
<title>Node9</title>
<g id="a_node9"><a xlink:href="structFractureMechanics_1_1CrackPropagation_1_1PostProcVertexMethod.html" target="_top" xlink:title="operator to post&#45;process results on crack front nodes">
<polygon fill="white" stroke="black" points="804,-50 804,-91 955,-91 955,-50 804,-50"/>
<text text-anchor="start" x="812" y="-79" font-family="Helvetica,sans-Serif" font-size="10.00">FractureMechanics::</text>
<text text-anchor="start" x="812" y="-68" font-family="Helvetica,sans-Serif" font-size="10.00">CrackPropagation::PostProc</text>
<text text-anchor="middle" x="879.5" y="-57" font-family="Helvetica,sans-Serif" font-size="10.00">VertexMethod</text>
</a>
</g>
</g>
<!-- Node1&#45;&gt;Node9 -->
<g id="edge10" class="edge">
<title>Node1&#45;&gt;Node9</title>
<path fill="none" stroke="midnightblue" d="M764.52,-70.5C777.27,-70.5 790.71,-70.5 803.71,-70.5"/>
<polygon fill="midnightblue" stroke="midnightblue" points="764.47,-67 754.47,-70.5 764.47,-74 764.47,-67"/>
</g>
<!-- Node10 -->
<g id="node10" class="node">
<title>Node10</title>
<g id="a_node10"><a xlink:href="structMoFEM_1_1Projection10NodeCoordsOnField.html" target="_top" xlink:title="Projection of edge entities with one mid&#45;node on hierarchical basis.">
<polygon fill="white" stroke="black" points="790,-0.5 790,-30.5 969,-30.5 969,-0.5 790,-0.5"/>
<text text-anchor="start" x="798" y="-18.5" font-family="Helvetica,sans-Serif" font-size="10.00">MoFEM::Projection10NodeCoords</text>
<text text-anchor="middle" x="879.5" y="-7.5" font-family="Helvetica,sans-Serif" font-size="10.00">OnField</text>
</a>
</g>
</g>
<!-- Node1&#45;&gt;Node10 -->
<g id="edge11" class="edge">
<title>Node1&#45;&gt;Node10</title>
<path fill="none" stroke="midnightblue" d="M736.61,-57.61C752.99,-52.17 772.39,-45.87 790,-40.5 800.84,-37.19 812.48,-33.8 823.63,-30.62"/>
<polygon fill="midnightblue" stroke="midnightblue" points="735.22,-54.39 726.84,-60.87 737.44,-61.03 735.22,-54.39"/>
</g>
<!-- Node2 -->
<g id="node2" class="node">
<title>Node2</title>
<g id="a_node2"><a xlink:href="structMoFEM_1_1BasicMethod.html" target="_top" xlink:title="Data structure to exchange data between mofem and User Loop Methods.">
<polygon fill="white" stroke="black" points="483,-61 483,-80 605,-80 605,-61 483,-61"/>
<text text-anchor="middle" x="544" y="-68" font-family="Helvetica,sans-Serif" font-size="10.00">MoFEM::BasicMethod</text>
</a>
</g>
</g>
<!-- Node2&#45;&gt;Node1 -->
<g id="edge1" class="edge">
<title>Node2&#45;&gt;Node1</title>
<path fill="none" stroke="midnightblue" d="M615.57,-70.5C624.04,-70.5 632.6,-70.5 640.82,-70.5"/>
<polygon fill="midnightblue" stroke="midnightblue" points="615.31,-67 605.31,-70.5 615.31,-74 615.31,-67"/>
</g>
<!-- Node3 -->
<g id="node3" class="node">
<title>Node3</title>
<g id="a_node3"><a xlink:href="structMoFEM_1_1KspMethod.html" target="_top" xlink:title="data structure for ksp (linear solver) context">
<polygon fill="white" stroke="black" points="331,-99 331,-118 444,-118 444,-99 331,-99"/>
<text text-anchor="middle" x="387.5" y="-106" font-family="Helvetica,sans-Serif" font-size="10.00">MoFEM::KspMethod</text>
</a>
</g>
</g>
<!-- Node3&#45;&gt;Node2 -->
<g id="edge2" class="edge">
<title>Node3&#45;&gt;Node2</title>
<path fill="none" stroke="midnightblue" d="M437.45,-96.46C459.04,-91.15 484.04,-85 504.29,-80.02"/>
<polygon fill="midnightblue" stroke="midnightblue" points="436.36,-93.12 427.49,-98.91 438.03,-99.92 436.36,-93.12"/>
</g>
<!-- Node4 -->
<g id="node4" class="node">
<title>Node4</title>
<g id="a_node4"><a xlink:href="structMoFEM_1_1PetscData.html" target="_top" xlink:title=" ">
<polygon fill="white" stroke="black" points="184,-61 184,-80 292,-80 292,-61 184,-61"/>
<text text-anchor="middle" x="238" y="-68" font-family="Helvetica,sans-Serif" font-size="10.00">MoFEM::PetscData</text>
</a>
</g>
</g>
<!-- Node4&#45;&gt;Node3 -->
<g id="edge3" class="edge">
<title>Node4&#45;&gt;Node3</title>
<path fill="none" stroke="midnightblue" d="M286.01,-82.61C306.56,-87.9 330.3,-94.02 349.55,-98.98"/>
<polygon fill="midnightblue" stroke="midnightblue" points="286.78,-79.19 276.22,-80.09 285.03,-85.97 286.78,-79.19"/>
</g>
<!-- Node6 -->
<g id="node6" class="node">
<title>Node6</title>
<g id="a_node6"><a xlink:href="structMoFEM_1_1SnesMethod.html" target="_top" xlink:title="data structure for snes (nonlinear solver) context">
<polygon fill="white" stroke="black" points="328,-61 328,-80 447,-80 447,-61 328,-61"/>
<text text-anchor="middle" x="387.5" y="-68" font-family="Helvetica,sans-Serif" font-size="10.00">MoFEM::SnesMethod</text>
</a>
</g>
</g>
<!-- Node4&#45;&gt;Node6 -->
<g id="edge6" class="edge">
<title>Node4&#45;&gt;Node6</title>
<path fill="none" stroke="darkgreen" d="M302.42,-70.5C310.86,-70.5 319.48,-70.5 327.83,-70.5"/>
<polygon fill="darkgreen" stroke="darkgreen" points="302.25,-67 292.25,-70.5 302.25,-74 302.25,-67"/>
</g>
<!-- Node7 -->
<g id="node7" class="node">
<title>Node7</title>
<g id="a_node7"><a xlink:href="structMoFEM_1_1TSMethod.html" target="_top" xlink:title="data structure for TS (time stepping) context">
<polygon fill="white" stroke="black" points="334,-23 334,-42 441,-42 441,-23 334,-23"/>
<text text-anchor="middle" x="387.5" y="-30" font-family="Helvetica,sans-Serif" font-size="10.00">MoFEM::TSMethod</text>
</a>
</g>
</g>
<!-- Node4&#45;&gt;Node7 -->
<g id="edge8" class="edge">
<title>Node4&#45;&gt;Node7</title>
<path fill="none" stroke="darkgreen" d="M286.01,-58.39C306.56,-53.1 330.3,-46.98 349.55,-42.02"/>
<polygon fill="darkgreen" stroke="darkgreen" points="285.03,-55.03 276.22,-60.91 286.78,-61.81 285.03,-55.03"/>
</g>
<!-- Node5 -->
<g id="node5" class="node">
<title>Node5</title>
<g id="a_node5"><a xlink:href="structMoFEM_1_1UnknownInterface.html" target="_top" xlink:title="base class for all interface classes">
<polygon fill="white" stroke="black" points="0,-61 0,-80 148,-80 148,-61 0,-61"/>
<text text-anchor="middle" x="74" y="-68" font-family="Helvetica,sans-Serif" font-size="10.00">MoFEM::UnknownInterface</text>
</a>
</g>
</g>
<!-- Node5&#45;&gt;Node4 -->
<g id="edge4" class="edge">
<title>Node5&#45;&gt;Node4</title>
<path fill="none" stroke="midnightblue" d="M158.48,-70.5C167.05,-70.5 175.59,-70.5 183.7,-70.5"/>
<polygon fill="midnightblue" stroke="midnightblue" points="158.42,-67 148.42,-70.5 158.42,-74 158.42,-67"/>
</g>
<!-- Node6&#45;&gt;Node2 -->
<g id="edge5" class="edge">
<title>Node6&#45;&gt;Node2</title>
<path fill="none" stroke="midnightblue" d="M457.53,-70.5C465.95,-70.5 474.5,-70.5 482.78,-70.5"/>
<polygon fill="midnightblue" stroke="midnightblue" points="457.35,-67 447.35,-70.5 457.35,-74 457.35,-67"/>
</g>
<!-- Node7&#45;&gt;Node2 -->
<g id="edge7" class="edge">
<title>Node7&#45;&gt;Node2</title>
<path fill="none" stroke="midnightblue" d="M437.45,-44.54C459.04,-49.85 484.04,-56 504.29,-60.98"/>
<polygon fill="midnightblue" stroke="midnightblue" points="438.03,-41.08 427.49,-42.09 436.36,-47.88 438.03,-41.08"/>
</g>
<!-- Node11 -->
<g id="node11" class="node">
<title>Node11</title>
<g id="a_node11"><a xlink:href="structMoFEM_1_1ProjectionFieldOn10NodeTet.html" target="_top" xlink:title=" ">
<polygon fill="white" stroke="black" points="1005,-0.5 1005,-30.5 1161,-30.5 1161,-0.5 1005,-0.5"/>
<text text-anchor="start" x="1013" y="-18.5" font-family="Helvetica,sans-Serif" font-size="10.00">MoFEM::ProjectionFieldOn10</text>
<text text-anchor="middle" x="1083" y="-7.5" font-family="Helvetica,sans-Serif" font-size="10.00">NodeTet</text>
</a>
</g>
</g>
<!-- Node10&#45;&gt;Node11 -->
<g id="edge12" class="edge">
<title>Node10&#45;&gt;Node11</title>
<path fill="none" stroke="midnightblue" d="M979.28,-15.5C987.91,-15.5 996.56,-15.5 1004.97,-15.5"/>
<polygon fill="midnightblue" stroke="midnightblue" points="979.17,-12 969.17,-15.5 979.17,-19 979.17,-12"/>
</g>
</g>
</svg>
        <g id="navigator" transform="translate(0 0)" fill="#404254">
                <rect fill="#f2f5e9" fill-opacity="0.5" stroke="#606060" stroke-width=".5" x="0" y="0" width="60" height="60"/>
                <use id="zoomplus" xlink:href="#zoomPlus" x="17" y="9" onmousedown="handleZoom(evt,'in')"/>
                <use id="zoomminus" xlink:href="#zoomMin" x="42" y="9" onmousedown="handleZoom(evt,'out')"/>
                <use id="reset" xlink:href="#resetDef" x="30" y="36" onmousedown="handleReset()"/>
                <g id="arrowUp" xlink:href="#dirArrow" transform="translate(30 24)" onmousedown="handlePan(0,-1)">
                  <use xlink:href="#rim" fill="#404040">
                        <set attributeName="fill" to="#808080" begin="arrowUp.mouseover" end="arrowUp.mouseout"/>
                  </use>
                  <path fill="none" stroke="white" stroke-width="1.5" d="M0,-3.0v7 M-2.5,-0.5L0,-3.0L2.5,-0.5"/>
                </g>
                <g id="arrowRight" xlink:href="#dirArrow" transform="rotate(90) translate(36 -43)" onmousedown="handlePan(1,0)">
                  <use xlink:href="#rim" fill="#404040">
                        <set attributeName="fill" to="#808080" begin="arrowRight.mouseover" end="arrowRight.mouseout"/>
                  </use>
                  <path fill="none" stroke="white" stroke-width="1.5" d="M0,-3.0v7 M-2.5,-0.5L0,-3.0L2.5,-0.5"/>
                </g>
                <g id="arrowDown" xlink:href="#dirArrow" transform="rotate(180) translate(-30 -48)" onmousedown="handlePan(0,1)">
                  <use xlink:href="#rim" fill="#404040">
                        <set attributeName="fill" to="#808080" begin="arrowDown.mouseover" end="arrowDown.mouseout"/>
                  </use>
                  <path fill="none" stroke="white" stroke-width="1.5" d="M0,-3.0v7 M-2.5,-0.5L0,-3.0L2.5,-0.5"/>
                </g>
                <g id="arrowLeft" xlink:href="#dirArrow" transform="rotate(270) translate(-36 17)" onmousedown="handlePan(-1,0)">
                  <use xlink:href="#rim" fill="#404040">
                        <set attributeName="fill" to="#808080" begin="arrowLeft.mouseover" end="arrowLeft.mouseout"/>
                  </use>
                  <path fill="none" stroke="white" stroke-width="1.5" d="M0,-3.0v7 M-2.5,-0.5L0,-3.0L2.5,-0.5"/>
                </g>
        </g>
        <svg viewBox="0 0 15 15" width="100%" height="30px" preserveAspectRatio="xMaxYMin meet">
         <g id="arrow_out" transform="scale(0.3 0.3)">
          <a xlink:href="structMoFEM_1_1DofMethod__inherit__graph_org.svg" target="_base">
           <rect id="button" ry="5" rx="5" y="6" x="6" height="38" width="38"
                fill="#f2f5e9" fill-opacity="0.5" stroke="#606060" stroke-width="1.0"/>
           <path id="arrow"
             d="M 11.500037,31.436501 C 11.940474,20.09759 22.043105,11.32322 32.158766,21.979434 L 37.068811,17.246167 C 37.068811,17.246167 37.088388,32 37.088388,32 L 22.160133,31.978069 C 22.160133,31.978069 26.997745,27.140456 26.997745,27.140456 C 18.528582,18.264221 13.291696,25.230495 11.500037,31.436501 z"
             style="fill:#404040;"/>
          </a>
         </g>
        </svg>
</svg>
