<?xml version="1.0" encoding="UTF-8" standalone="no"?>
<!DOCTYPE svg PUBLIC "-//W3C//DTD SVG 1.1//EN"
 "http://www.w3.org/Graphics/SVG/1.1/DTD/svg11.dtd">
<!-- Generated by graphviz version 2.43.0 (0)
 -->
<!-- Title: MoFEM::EssentialPostProcRhs&lt; MPCsType &gt; Pages: 1 -->
<svg width="1537pt" height="208pt"
 viewBox="0.00 0.00 1537.00 208.00" xmlns="http://www.w3.org/2000/svg" xmlns:xlink="http://www.w3.org/1999/xlink">
<g id="graph0" class="graph" transform="scale(1 1) rotate(0) translate(4 204)">
<title>MoFEM::EssentialPostProcRhs&lt; MPCsType &gt;</title>
<polygon fill="white" stroke="transparent" points="-4,4 -4,-204 1533,-204 1533,4 -4,4"/>
<!-- Node1 -->
<g id="node1" class="node">
<title>Node1</title>
<g id="a_node1"><a xlink:title="Specialization for DisplacementCubitBcData.">
<polygon fill="#bfbfbf" stroke="black" points="1384,-74 1384,-104 1529,-104 1529,-74 1384,-74"/>
<text text-anchor="start" x="1392" y="-92" font-family="Helvetica,sans-Serif" font-size="10.00">MoFEM::EssentialPostProc</text>
<text text-anchor="middle" x="1456.5" y="-81" font-family="Helvetica,sans-Serif" font-size="10.00">Rhs&lt; MPCsType &gt;</text>
</a>
</g>
</g>
<!-- Node2 -->
<g id="node2" class="node">
<title>Node2</title>
<g id="a_node2"><a xlink:href="structMoFEM_1_1SmartPetscObj.html" target="_top" xlink:title=" ">
<polygon fill="white" stroke="black" points="1155,-137 1155,-167 1286,-167 1286,-137 1155,-137"/>
<text text-anchor="start" x="1163" y="-155" font-family="Helvetica,sans-Serif" font-size="10.00">MoFEM::SmartPetscObj</text>
<text text-anchor="middle" x="1220.5" y="-144" font-family="Helvetica,sans-Serif" font-size="10.00">&lt; Vec &gt;</text>
</a>
</g>
</g>
<!-- Node2&#45;&gt;Node1 -->
<g id="edge1" class="edge">
<title>Node2&#45;&gt;Node1</title>
<path fill="none" stroke="#9a32cd" stroke-dasharray="5,2" d="M1289.37,-134.38C1313.57,-128.04 1341.03,-120.77 1366,-114 1377.68,-110.83 1390.2,-107.38 1402.06,-104.07"/>
<polygon fill="#9a32cd" stroke="#9a32cd" points="1288.35,-131.03 1279.56,-136.95 1290.12,-137.8 1288.35,-131.03"/>
<text text-anchor="middle" x="1347.5" y="-126" font-family="Helvetica,sans-Serif" font-size="10.00"> vRhs</text>
</g>
<!-- Node3 -->
<g id="node3" class="node">
<title>Node3</title>
<g id="a_node3"><a xlink:title=" ">
<polygon fill="white" stroke="#bfbfbf" points="922.5,-158.5 922.5,-199.5 1048.5,-199.5 1048.5,-158.5 922.5,-158.5"/>
<text text-anchor="start" x="930.5" y="-187.5" font-family="Helvetica,sans-Serif" font-size="10.00">boost::intrusive_ptr</text>
<text text-anchor="start" x="930.5" y="-176.5" font-family="Helvetica,sans-Serif" font-size="10.00">&lt; std::remove_pointer</text>
<text text-anchor="middle" x="985.5" y="-165.5" font-family="Helvetica,sans-Serif" font-size="10.00">&lt; Vec &gt;::type &gt;</text>
</a>
</g>
</g>
<!-- Node3&#45;&gt;Node2 -->
<g id="edge2" class="edge">
<title>Node3&#45;&gt;Node2</title>
<path fill="none" stroke="midnightblue" d="M1058.83,-170.62C1089.48,-167.07 1124.91,-162.96 1154.69,-159.51"/>
<polygon fill="midnightblue" stroke="midnightblue" points="1058.16,-167.17 1048.63,-171.8 1058.97,-174.13 1058.16,-167.17"/>
</g>
<!-- Node4 -->
<g id="node4" class="node">
<title>Node4</title>
<g id="a_node4"><a xlink:href="structMoFEM_1_1SmartPetscObj.html" target="_top" xlink:title="intrusive_ptr for managing petsc objects">
<polygon fill="white" stroke="black" points="920,-109 920,-139 1051,-139 1051,-109 920,-109"/>
<text text-anchor="start" x="928" y="-127" font-family="Helvetica,sans-Serif" font-size="10.00">MoFEM::SmartPetscObj</text>
<text text-anchor="middle" x="985.5" y="-116" font-family="Helvetica,sans-Serif" font-size="10.00">&lt; OBJ &gt;</text>
</a>
</g>
</g>
<!-- Node4&#45;&gt;Node2 -->
<g id="edge3" class="edge">
<title>Node4&#45;&gt;Node2</title>
<path fill="none" stroke="orange" stroke-dasharray="5,2" d="M1061.14,-132.97C1091.27,-136.59 1125.72,-140.73 1154.78,-144.22"/>
<polygon fill="orange" stroke="orange" points="1061.44,-129.48 1051.09,-131.76 1060.61,-136.43 1061.44,-129.48"/>
<text text-anchor="middle" x="1090.5" y="-141" font-family="Helvetica,sans-Serif" font-size="10.00"> &lt; Vec &gt;</text>
</g>
<!-- Node5 -->
<g id="node5" class="node">
<title>Node5</title>
<g id="a_node5"><a xlink:title=" ">
<polygon fill="white" stroke="#bfbfbf" points="746,-103.5 746,-144.5 872,-144.5 872,-103.5 746,-103.5"/>
<text text-anchor="start" x="754" y="-132.5" font-family="Helvetica,sans-Serif" font-size="10.00">boost::intrusive_ptr</text>
<text text-anchor="start" x="754" y="-121.5" font-family="Helvetica,sans-Serif" font-size="10.00">&lt; std::remove_pointer</text>
<text text-anchor="middle" x="809" y="-110.5" font-family="Helvetica,sans-Serif" font-size="10.00">&lt; OBJ &gt;::type &gt;</text>
</a>
</g>
</g>
<!-- Node5&#45;&gt;Node4 -->
<g id="edge4" class="edge">
<title>Node5&#45;&gt;Node4</title>
<path fill="none" stroke="midnightblue" d="M882.31,-124C894.72,-124 907.54,-124 919.74,-124"/>
<polygon fill="midnightblue" stroke="midnightblue" points="882.01,-120.5 872.01,-124 882.01,-127.5 882.01,-120.5"/>
</g>
<!-- Node6 -->
<g id="node6" class="node">
<title>Node6</title>
<g id="a_node6"><a xlink:href="classdouble.html" target="_top" xlink:title=" ">
<polygon fill="white" stroke="black" points="1195.5,-98.5 1195.5,-117.5 1245.5,-117.5 1245.5,-98.5 1195.5,-98.5"/>
<text text-anchor="middle" x="1220.5" y="-105.5" font-family="Helvetica,sans-Serif" font-size="10.00">double</text>
</a>
</g>
</g>
<!-- Node6&#45;&gt;Node1 -->
<g id="edge5" class="edge">
<title>Node6&#45;&gt;Node1</title>
<path fill="none" stroke="#9a32cd" stroke-dasharray="5,2" d="M1255.86,-105.21C1289.37,-102.49 1341.38,-98.27 1383.9,-94.81"/>
<polygon fill="#9a32cd" stroke="#9a32cd" points="1255.34,-101.74 1245.66,-106.04 1255.91,-108.72 1255.34,-101.74"/>
<text text-anchor="middle" x="1347.5" y="-102" font-family="Helvetica,sans-Serif" font-size="10.00"> vDiag</text>
</g>
<!-- Node7 -->
<g id="node7" class="node">
<title>Node7</title>
<g id="a_node7"><a xlink:title=" ">
<polygon fill="white" stroke="#bfbfbf" points="1133,-60.5 1133,-79.5 1308,-79.5 1308,-60.5 1133,-60.5"/>
<text text-anchor="middle" x="1220.5" y="-67.5" font-family="Helvetica,sans-Serif" font-size="10.00">weak_ptr&lt; MoFEM::FEMethod &gt;</text>
</a>
</g>
</g>
<!-- Node7&#45;&gt;Node1 -->
<g id="edge6" class="edge">
<title>Node7&#45;&gt;Node1</title>
<path fill="none" stroke="#9a32cd" stroke-dasharray="5,2" d="M1318.59,-77.21C1334.43,-78.44 1350.68,-79.73 1366,-81 1371.75,-81.48 1377.71,-81.98 1383.7,-82.5"/>
<polygon fill="#9a32cd" stroke="#9a32cd" points="1318.48,-73.7 1308.24,-76.42 1317.94,-80.67 1318.48,-73.7"/>
<text text-anchor="middle" x="1347.5" y="-84" font-family="Helvetica,sans-Serif" font-size="10.00"> fePtr</text>
</g>
<!-- Node8 -->
<g id="node8" class="node">
<title>Node8</title>
<g id="a_node8"><a xlink:href="structMoFEM_1_1DeprecatedCoreInterface.html" target="_top" xlink:title="Deprecated interface functions.">
<polygon fill="white" stroke="black" points="1130,-22.5 1130,-41.5 1311,-41.5 1311,-22.5 1130,-22.5"/>
<text text-anchor="middle" x="1220.5" y="-29.5" font-family="Helvetica,sans-Serif" font-size="10.00">MoFEM::DeprecatedCoreInterface</text>
</a>
</g>
</g>
<!-- Node8&#45;&gt;Node1 -->
<g id="edge7" class="edge">
<title>Node8&#45;&gt;Node1</title>
<path fill="none" stroke="#9a32cd" stroke-dasharray="5,2" d="M1276.45,-43.61C1287.87,-46.04 1299.83,-48.6 1311,-51 1335.46,-56.26 1341.75,-56.84 1366,-63 1379.02,-66.31 1393,-70.2 1405.96,-73.96"/>
<polygon fill="#9a32cd" stroke="#9a32cd" points="1277.09,-40.17 1266.58,-41.52 1275.64,-47.02 1277.09,-40.17"/>
<text text-anchor="middle" x="1347.5" y="-66" font-family="Helvetica,sans-Serif" font-size="10.00"> mField</text>
</g>
<!-- Node9 -->
<g id="node9" class="node">
<title>Node9</title>
<g id="a_node9"><a xlink:href="structMoFEM_1_1CoreInterface.html" target="_top" xlink:title="Interface.">
<polygon fill="white" stroke="black" points="923,-22.5 923,-41.5 1048,-41.5 1048,-22.5 923,-22.5"/>
<text text-anchor="middle" x="985.5" y="-29.5" font-family="Helvetica,sans-Serif" font-size="10.00">MoFEM::CoreInterface</text>
</a>
</g>
</g>
<!-- Node9&#45;&gt;Node8 -->
<g id="edge8" class="edge">
<title>Node9&#45;&gt;Node8</title>
<path fill="none" stroke="midnightblue" d="M1058.23,-32C1080.9,-32 1106.22,-32 1129.97,-32"/>
<polygon fill="midnightblue" stroke="midnightblue" points="1058.02,-28.5 1048.02,-32 1058.02,-35.5 1058.02,-28.5"/>
</g>
<!-- Node10 -->
<g id="node10" class="node">
<title>Node10</title>
<g id="a_node10"><a xlink:href="structMoFEM_1_1UnknownInterface.html" target="_top" xlink:title="base class for all interface classes">
<polygon fill="white" stroke="black" points="735,-22.5 735,-41.5 883,-41.5 883,-22.5 735,-22.5"/>
<text text-anchor="middle" x="809" y="-29.5" font-family="Helvetica,sans-Serif" font-size="10.00">MoFEM::UnknownInterface</text>
</a>
</g>
</g>
<!-- Node10&#45;&gt;Node9 -->
<g id="edge9" class="edge">
<title>Node10&#45;&gt;Node9</title>
<path fill="none" stroke="midnightblue" d="M893.48,-32C903.35,-32 913.28,-32 922.77,-32"/>
<polygon fill="midnightblue" stroke="midnightblue" points="893.25,-28.5 883.25,-32 893.25,-35.5 893.25,-28.5"/>
</g>
<!-- Node11 -->
<g id="node11" class="node">
<title>Node11</title>
<g id="a_node11"><a xlink:title=" ">
<polygon fill="white" stroke="#bfbfbf" points="386,-0.5 386,-63.5 627,-63.5 627,-0.5 386,-0.5"/>
<text text-anchor="start" x="394" y="-51.5" font-family="Helvetica,sans-Serif" font-size="10.00">multi_index_container</text>
<text text-anchor="start" x="394" y="-40.5" font-family="Helvetica,sans-Serif" font-size="10.00">&lt; UIdTypeMap, indexed</text>
<text text-anchor="start" x="394" y="-29.5" font-family="Helvetica,sans-Serif" font-size="10.00">_by&lt; hashed_unique&lt; member</text>
<text text-anchor="start" x="394" y="-18.5" font-family="Helvetica,sans-Serif" font-size="10.00">&lt; UIdTypeMap, boost::typeindex</text>
<text text-anchor="middle" x="506.5" y="-7.5" font-family="Helvetica,sans-Serif" font-size="10.00">::type_index, &amp;UIdTypeMap::classIdx &gt; &gt; &gt; &gt;</text>
</a>
</g>
</g>
<!-- Node11&#45;&gt;Node10 -->
<g id="edge10" class="edge">
<title>Node11&#45;&gt;Node10</title>
<path fill="none" stroke="#9a32cd" stroke-dasharray="5,2" d="M637.41,-32C670.69,-32 705.33,-32 734.62,-32"/>
<polygon fill="#9a32cd" stroke="#9a32cd" points="637.13,-28.5 627.13,-32 637.13,-35.5 637.13,-28.5"/>
<text text-anchor="middle" x="681" y="-35" font-family="Helvetica,sans-Serif" font-size="10.00"> iFaceTypeMap</text>
</g>
<!-- Node12 -->
<g id="node12" class="node">
<title>Node12</title>
<g id="a_node12"><a xlink:title=" ">
<polygon fill="white" stroke="#bfbfbf" points="0,-22.5 0,-41.5 125,-41.5 125,-22.5 0,-22.5"/>
<text text-anchor="middle" x="62.5" y="-29.5" font-family="Helvetica,sans-Serif" font-size="10.00">multi_index_container</text>
</a>
</g>
</g>
<!-- Node12&#45;&gt;Node11 -->
<g id="edge11" class="edge">
<title>Node12&#45;&gt;Node11</title>
<path fill="none" stroke="orange" stroke-dasharray="5,2" d="M135.56,-32C203.25,-32 305.79,-32 385.77,-32"/>
<polygon fill="orange" stroke="orange" points="135.42,-28.5 125.42,-32 135.42,-35.5 135.42,-28.5"/>
<text text-anchor="start" x="143" y="-68" font-family="Helvetica,sans-Serif" font-size="10.00"> &lt; UIdTypeMap, indexed</text>
<text text-anchor="start" x="143" y="-57" font-family="Helvetica,sans-Serif" font-size="10.00">_by&lt; hashed_unique&lt; member</text>
<text text-anchor="start" x="143" y="-46" font-family="Helvetica,sans-Serif" font-size="10.00">&lt; UIdTypeMap, boost::typeindex</text>
<text text-anchor="middle" x="255.5" y="-35" font-family="Helvetica,sans-Serif" font-size="10.00">::type_index, &amp;UIdTypeMap::classIdx &gt; &gt; &gt; &gt;</text>
</g>
</g>
</svg>
