<?xml version="1.0" encoding="UTF-8" standalone="no"?>
<!DOCTYPE svg PUBLIC "-//W3C//DTD SVG 1.1//EN"
 "http://www.w3.org/Graphics/SVG/1.1/DTD/svg11.dtd">
<!-- Generated by graphviz version 2.43.0 (0)
 -->
<!-- Title: MoFEM::MedInterface::FieldData Pages: 1 -->
<svg width="370pt" height="128pt"
 viewBox="0.00 0.00 369.50 128.00" xmlns="http://www.w3.org/2000/svg" xmlns:xlink="http://www.w3.org/1999/xlink">
<g id="graph0" class="graph" transform="scale(1 1) rotate(0) translate(4 124)">
<title>MoFEM::MedInterface::FieldData</title>
<polygon fill="white" stroke="transparent" points="-4,4 -4,-124 365.5,-124 365.5,4 -4,4"/>
<!-- Node1 -->
<g id="node1" class="node">
<title>Node1</title>
<g id="a_node1"><a xlink:title=" ">
<polygon fill="#bfbfbf" stroke="black" points="143,-0.5 143,-30.5 266,-30.5 266,-0.5 143,-0.5"/>
<text text-anchor="start" x="151" y="-18.5" font-family="Helvetica,sans-Serif" font-size="10.00">MoFEM::MedInterface</text>
<text text-anchor="middle" x="204.5" y="-7.5" font-family="Helvetica,sans-Serif" font-size="10.00">::FieldData</text>
</a>
</g>
</g>
<!-- Node2 -->
<g id="node2" class="node">
<title>Node2</title>
<g id="a_node2"><a xlink:title=" ">
<polygon fill="white" stroke="#bfbfbf" points="0,-100.5 0,-119.5 119,-119.5 119,-100.5 0,-100.5"/>
<text text-anchor="middle" x="59.5" y="-107.5" font-family="Helvetica,sans-Serif" font-size="10.00">vector&lt; std::string &gt;</text>
</a>
</g>
</g>
<!-- Node2&#45;&gt;Node1 -->
<g id="edge1" class="edge">
<title>Node2&#45;&gt;Node1</title>
<path fill="none" stroke="#9a32cd" stroke-dasharray="5,2" d="M59.39,-89.97C60.34,-76.76 63.81,-59.69 74.5,-49 92.43,-31.07 118.66,-22.52 142.87,-18.6"/>
<polygon fill="#9a32cd" stroke="#9a32cd" points="55.88,-90.22 59.07,-100.32 62.87,-90.43 55.88,-90.22"/>
<text text-anchor="middle" x="119.5" y="-68.5" font-family="Helvetica,sans-Serif" font-size="10.00"> componentUnits</text>
<text text-anchor="middle" x="119.5" y="-57.5" font-family="Helvetica,sans-Serif" font-size="10.00">componentNames</text>
</g>
<!-- Node3 -->
<g id="node3" class="node">
<title>Node3</title>
<g id="a_node3"><a xlink:title=" ">
<polygon fill="white" stroke="#bfbfbf" points="158,-100.5 158,-119.5 187,-119.5 187,-100.5 158,-100.5"/>
<text text-anchor="middle" x="172.5" y="-107.5" font-family="Helvetica,sans-Serif" font-size="10.00">int</text>
</a>
</g>
</g>
<!-- Node3&#45;&gt;Node1 -->
<g id="edge2" class="edge">
<title>Node3&#45;&gt;Node1</title>
<path fill="none" stroke="#9a32cd" stroke-dasharray="5,2" d="M169.42,-90.53C168.18,-78.29 168.11,-62.14 173.5,-49 176.34,-42.07 181.41,-35.77 186.64,-30.6"/>
<polygon fill="#9a32cd" stroke="#9a32cd" points="165.95,-91.02 170.76,-100.46 172.89,-90.08 165.95,-91.02"/>
<text text-anchor="middle" x="194.5" y="-63" font-family="Helvetica,sans-Serif" font-size="10.00"> ncSteps</text>
</g>
<!-- Node4 -->
<g id="node4" class="node">
<title>Node4</title>
<g id="a_node4"><a xlink:href="classbool.html" target="_top" xlink:title=" ">
<polygon fill="white" stroke="black" points="218.5,-100.5 218.5,-119.5 256.5,-119.5 256.5,-100.5 218.5,-100.5"/>
<text text-anchor="middle" x="237.5" y="-107.5" font-family="Helvetica,sans-Serif" font-size="10.00">bool</text>
</a>
</g>
</g>
<!-- Node4&#45;&gt;Node1 -->
<g id="edge3" class="edge">
<title>Node4&#45;&gt;Node1</title>
<path fill="none" stroke="#9a32cd" stroke-dasharray="5,2" d="M231,-90.79C224.72,-73.17 215.32,-46.82 209.57,-30.7"/>
<polygon fill="#9a32cd" stroke="#9a32cd" points="227.8,-92.22 234.45,-100.46 234.39,-89.87 227.8,-92.22"/>
<text text-anchor="middle" x="254" y="-63" font-family="Helvetica,sans-Serif" font-size="10.00"> localMesh</text>
</g>
<!-- Node5 -->
<g id="node5" class="node">
<title>Node5</title>
<g id="a_node5"><a xlink:title=" ">
<polygon fill="white" stroke="#bfbfbf" points="291.5,-100.5 291.5,-119.5 335.5,-119.5 335.5,-100.5 291.5,-100.5"/>
<text text-anchor="middle" x="313.5" y="-107.5" font-family="Helvetica,sans-Serif" font-size="10.00">string</text>
</a>
</g>
</g>
<!-- Node5&#45;&gt;Node1 -->
<g id="edge4" class="edge">
<title>Node5&#45;&gt;Node1</title>
<path fill="none" stroke="#9a32cd" stroke-dasharray="5,2" d="M308.52,-90.64C304.12,-77.51 296.5,-60.25 284.5,-49 276.19,-41.21 265.76,-35.18 255.21,-30.55"/>
<polygon fill="#9a32cd" stroke="#9a32cd" points="305.24,-91.91 311.48,-100.47 311.94,-89.88 305.24,-91.91"/>
<text text-anchor="middle" x="333" y="-74" font-family="Helvetica,sans-Serif" font-size="10.00"> dtUnit</text>
<text text-anchor="middle" x="333" y="-63" font-family="Helvetica,sans-Serif" font-size="10.00">meshName</text>
<text text-anchor="middle" x="333" y="-52" font-family="Helvetica,sans-Serif" font-size="10.00">fieldName</text>
</g>
</g>
</svg>
