<?xml version="1.0" encoding="UTF-8" standalone="no"?>
<!DOCTYPE svg PUBLIC "-//W3C//DTD SVG 1.1//EN"
 "http://www.w3.org/Graphics/SVG/1.1/DTD/svg11.dtd">
<!-- Generated by graphviz version 2.43.0 (0)
 -->
<!-- Title: EdgeSlidingConstrains::MyEdgeFE Pages: 1 -->
<!--zoomable 1445 -->
<svg id="main" version="1.1" xmlns="http://www.w3.org/2000/svg" xmlns:xlink="http://www.w3.org/1999/xlink" xml:space="preserve" onload="init(evt)">
<style type="text/css"><![CDATA[
.edge:hover path { stroke: red; }
.edge:hover polygon { stroke: red; fill: red; }
]]></style>
<script type="text/javascript"><![CDATA[
var edges = document.getElementsByTagName('g');
if (edges && edges.length) {
  for (var i=0;i<edges.length;i++) {
    if (edges[i].id.substr(0,4)=='edge') {
      edges[i].setAttribute('class','edge');
    }
  }
}
]]></script>
        <defs>
                <circle id="rim" cx="0" cy="0" r="7"/>
                <circle id="rim2" cx="0" cy="0" r="3.5"/>
                <g id="zoomPlus">
                        <use xlink:href="#rim" fill="#404040">
                                <set attributeName="fill" to="#808080" begin="zoomplus.mouseover" end="zoomplus.mouseout"/>
                        </use>
                        <path d="M-4,0h8M0,-4v8" fill="none" stroke="white" stroke-width="1.5" pointer-events="none"/>
                </g>
                <g id="zoomMin">
                        <use xlink:href="#rim" fill="#404040">
                                <set attributeName="fill" to="#808080" begin="zoomminus.mouseover" end="zoomminus.mouseout"/>
                        </use>
                        <path d="M-4,0h8" fill="none" stroke="white" stroke-width="1.5" pointer-events="none"/>
                </g>
                <g id="dirArrow">
                        <path fill="none" stroke="white" stroke-width="1.5" d="M0,-3.0v7 M-2.5,-0.5L0,-3.0L2.5,-0.5"/>
                </g>
               <g id="resetDef">
                       <use xlink:href="#rim2" fill="#404040">
                               <set attributeName="fill" to="#808080" begin="reset.mouseover" end="reset.mouseout"/>
                       </use>
               </g>
        </defs>

<script type="text/javascript">
var viewWidth = 3168;
var viewHeight = 1445;
var sectionId = 'dynsection-1';
</script>
<script xlink:href="svgpan.js"/>
<svg id="graph" class="graph">
<g id="viewport">
<title>EdgeSlidingConstrains::MyEdgeFE</title>
<polygon fill="white" stroke="transparent" points="-4,4 -4,-1441.03 3164,-1441.03 3164,4 -4,4"/>
<!-- Node1 -->
<g id="node1" class="node">
<title>Node1</title>
<g id="a_node1"><a xlink:title=" ">
<polygon fill="#bfbfbf" stroke="black" points="3035,-1274.22 3035,-1304.22 3160,-1304.22 3160,-1274.22 3035,-1274.22"/>
<text text-anchor="start" x="3043" y="-1292.22" font-family="Helvetica,sans-Serif" font-size="10.00">EdgeSlidingConstrains</text>
<text text-anchor="middle" x="3097.5" y="-1281.22" font-family="Helvetica,sans-Serif" font-size="10.00">::MyEdgeFE</text>
</a>
</g>
</g>
<!-- Node2 -->
<g id="node2" class="node">
<title>Node2</title>
<g id="a_node2"><a xlink:href="structMoFEM_1_1EdgeElementForcesAndSourcesCore.html" target="_top" xlink:title="Edge finite element.">
<polygon fill="white" stroke="black" points="2843,-1109.22 2843,-1139.22 2998,-1139.22 2998,-1109.22 2843,-1109.22"/>
<text text-anchor="start" x="2851" y="-1127.22" font-family="Helvetica,sans-Serif" font-size="10.00">MoFEM::EdgeElementForces</text>
<text text-anchor="middle" x="2920.5" y="-1116.22" font-family="Helvetica,sans-Serif" font-size="10.00">AndSourcesCore</text>
</a>
</g>
</g>
<!-- Node2&#45;&gt;Node1 -->
<g id="edge1" class="edge">
<title>Node2&#45;&gt;Node1</title>
<path fill="none" stroke="midnightblue" d="M2945.29,-1146.65C2981.48,-1180.77 3049.43,-1244.84 3080.39,-1274.03"/>
<polygon fill="midnightblue" stroke="midnightblue" points="2947.33,-1143.76 2937.65,-1139.45 2942.52,-1148.85 2947.33,-1143.76"/>
</g>
<!-- Node3 -->
<g id="node3" class="node">
<title>Node3</title>
<g id="a_node3"><a xlink:href="structMoFEM_1_1ForcesAndSourcesCore.html" target="_top" xlink:title="structure to get information form mofem into EntitiesFieldData">
<polygon fill="white" stroke="black" points="2553,-812.72 2553,-831.72 2723,-831.72 2723,-812.72 2553,-812.72"/>
<text text-anchor="middle" x="2638" y="-819.72" font-family="Helvetica,sans-Serif" font-size="10.00">MoFEM::ForcesAndSourcesCore</text>
</a>
</g>
</g>
<!-- Node3&#45;&gt;Node2 -->
<g id="edge2" class="edge">
<title>Node3&#45;&gt;Node2</title>
<path fill="none" stroke="midnightblue" d="M2662.54,-837.88C2699.95,-863.53 2773.95,-917.46 2825,-975.22 2863.95,-1019.29 2897.63,-1081.07 2912.04,-1109.2"/>
<polygon fill="midnightblue" stroke="midnightblue" points="2664.1,-834.71 2653.86,-831.99 2660.16,-840.5 2664.1,-834.71"/>
</g>
<!-- Node3&#45;&gt;Node3 -->
<g id="edge60" class="edge">
<title>Node3&#45;&gt;Node3</title>
<path fill="none" stroke="#9a32cd" stroke-dasharray="5,2" d="M2611.12,-840.87C2612.24,-846.16 2621.2,-850.22 2638,-850.22 2663.59,-850.22 2670.99,-840.79 2660.19,-831.98"/>
<polygon fill="#9a32cd" stroke="#9a32cd" points="2614.24,-842.46 2615.81,-831.98 2608.05,-839.19 2614.24,-842.46"/>
<text text-anchor="middle" x="2638" y="-864.22" font-family="Helvetica,sans-Serif" font-size="10.00"> sidePtrFE</text>
<text text-anchor="middle" x="2638" y="-853.22" font-family="Helvetica,sans-Serif" font-size="10.00">refinePtrFE</text>
</g>
<!-- Node4 -->
<g id="node4" class="node">
<title>Node4</title>
<g id="a_node4"><a xlink:href="structMoFEM_1_1FEMethod.html" target="_top" xlink:title="structure for User Loop Methods on finite elements">
<polygon fill="white" stroke="black" points="2200.5,-650.72 2200.5,-669.72 2307.5,-669.72 2307.5,-650.72 2200.5,-650.72"/>
<text text-anchor="middle" x="2254" y="-657.72" font-family="Helvetica,sans-Serif" font-size="10.00">MoFEM::FEMethod</text>
</a>
</g>
</g>
<!-- Node4&#45;&gt;Node3 -->
<g id="edge3" class="edge">
<title>Node4&#45;&gt;Node3</title>
<path fill="none" stroke="midnightblue" d="M2311.24,-649.17C2370.79,-640.49 2465.58,-635.51 2535,-674.22 2592.24,-706.13 2624.21,-785.28 2633.85,-812.69"/>
<polygon fill="midnightblue" stroke="midnightblue" points="2310.63,-645.73 2301.28,-650.71 2311.69,-652.64 2310.63,-645.73"/>
</g>
<!-- Node5 -->
<g id="node5" class="node">
<title>Node5</title>
<g id="a_node5"><a xlink:href="structMoFEM_1_1BasicMethod.html" target="_top" xlink:title="Data structure to exchange data between mofem and User Loop Methods.">
<polygon fill="white" stroke="black" points="1825,-454.72 1825,-473.72 1947,-473.72 1947,-454.72 1825,-454.72"/>
<text text-anchor="middle" x="1886" y="-461.72" font-family="Helvetica,sans-Serif" font-size="10.00">MoFEM::BasicMethod</text>
</a>
</g>
</g>
<!-- Node5&#45;&gt;Node4 -->
<g id="edge4" class="edge">
<title>Node5&#45;&gt;Node4</title>
<path fill="none" stroke="midnightblue" d="M1957.35,-460.45C2013.63,-461.54 2090.29,-472.92 2135,-521.22 2171.64,-560.79 2115.61,-602.35 2153,-641.22 2165.19,-653.89 2183.01,-659.58 2200.24,-661.81"/>
<polygon fill="midnightblue" stroke="midnightblue" points="1957.12,-456.95 1947.09,-460.37 1957.06,-463.95 1957.12,-456.95"/>
</g>
<!-- Node6 -->
<g id="node6" class="node">
<title>Node6</title>
<g id="a_node6"><a xlink:href="structMoFEM_1_1KspMethod.html" target="_top" xlink:title="data structure for ksp (linear solver) context">
<polygon fill="white" stroke="black" points="1442,-340.72 1442,-359.72 1555,-359.72 1555,-340.72 1442,-340.72"/>
<text text-anchor="middle" x="1498.5" y="-347.72" font-family="Helvetica,sans-Serif" font-size="10.00">MoFEM::KspMethod</text>
</a>
</g>
</g>
<!-- Node6&#45;&gt;Node5 -->
<g id="edge5" class="edge">
<title>Node6&#45;&gt;Node5</title>
<path fill="none" stroke="midnightblue" d="M1565.29,-352.03C1623.75,-355.54 1710.6,-365.48 1781,-393.22 1818.83,-408.13 1856.59,-438.85 1874.41,-454.54"/>
<polygon fill="midnightblue" stroke="midnightblue" points="1565.26,-348.52 1555.08,-351.47 1564.87,-355.51 1565.26,-348.52"/>
</g>
<!-- Node7 -->
<g id="node7" class="node">
<title>Node7</title>
<g id="a_node7"><a xlink:href="structMoFEM_1_1PetscData.html" target="_top" xlink:title=" ">
<polygon fill="white" stroke="black" points="1087.5,-350.72 1087.5,-369.72 1195.5,-369.72 1195.5,-350.72 1087.5,-350.72"/>
<text text-anchor="middle" x="1141.5" y="-357.72" font-family="Helvetica,sans-Serif" font-size="10.00">MoFEM::PetscData</text>
</a>
</g>
</g>
<!-- Node7&#45;&gt;Node6 -->
<g id="edge6" class="edge">
<title>Node7&#45;&gt;Node6</title>
<path fill="none" stroke="midnightblue" d="M1205.63,-357.99C1223.53,-357.39 1243.03,-356.75 1261,-356.22 1322.79,-354.39 1393.66,-352.64 1441.59,-351.51"/>
<polygon fill="midnightblue" stroke="midnightblue" points="1205.46,-354.49 1195.59,-358.33 1205.7,-361.49 1205.46,-354.49"/>
</g>
<!-- Node17 -->
<g id="node17" class="node">
<title>Node17</title>
<g id="a_node17"><a xlink:href="structMoFEM_1_1SnesMethod.html" target="_top" xlink:title="data structure for snes (nonlinear solver) context">
<polygon fill="white" stroke="black" points="1439,-454.72 1439,-473.72 1558,-473.72 1558,-454.72 1439,-454.72"/>
<text text-anchor="middle" x="1498.5" y="-461.72" font-family="Helvetica,sans-Serif" font-size="10.00">MoFEM::SnesMethod</text>
</a>
</g>
</g>
<!-- Node7&#45;&gt;Node17 -->
<g id="edge19" class="edge">
<title>Node7&#45;&gt;Node17</title>
<path fill="none" stroke="darkgreen" d="M1205.87,-362.62C1260.3,-367.3 1338.93,-380.52 1397,-417.22 1407.97,-424.15 1404.25,-432.95 1415,-440.22 1424.27,-446.49 1435.18,-451.15 1445.99,-454.6"/>
<polygon fill="darkgreen" stroke="darkgreen" points="1205.91,-359.11 1195.66,-361.82 1205.36,-366.09 1205.91,-359.11"/>
</g>
<!-- Node20 -->
<g id="node20" class="node">
<title>Node20</title>
<g id="a_node20"><a xlink:href="structMoFEM_1_1TSMethod.html" target="_top" xlink:title="data structure for TS (time stepping) context">
<polygon fill="white" stroke="black" points="1445,-550.72 1445,-569.72 1552,-569.72 1552,-550.72 1445,-550.72"/>
<text text-anchor="middle" x="1498.5" y="-557.72" font-family="Helvetica,sans-Serif" font-size="10.00">MoFEM::TSMethod</text>
</a>
</g>
</g>
<!-- Node7&#45;&gt;Node20 -->
<g id="edge25" class="edge">
<title>Node7&#45;&gt;Node20</title>
<path fill="none" stroke="darkgreen" d="M1205.57,-368.25C1218.64,-371.79 1231.83,-376.89 1243,-384.22 1254.15,-391.54 1250.23,-400.36 1261,-408.22 1312.67,-445.9 1346.72,-415.7 1397,-455.22 1408.63,-464.36 1405.52,-471.86 1415,-483.22 1437.35,-509.99 1468.5,-536.76 1485.41,-550.59"/>
<polygon fill="darkgreen" stroke="darkgreen" points="1206.17,-364.79 1195.62,-365.83 1204.52,-371.59 1206.17,-364.79"/>
</g>
<!-- Node8 -->
<g id="node8" class="node">
<title>Node8</title>
<g id="a_node8"><a xlink:href="structMoFEM_1_1UnknownInterface.html" target="_top" xlink:title="base class for all interface classes">
<polygon fill="white" stroke="black" points="735,-1278.72 735,-1297.72 883,-1297.72 883,-1278.72 735,-1278.72"/>
<text text-anchor="middle" x="809" y="-1285.72" font-family="Helvetica,sans-Serif" font-size="10.00">MoFEM::UnknownInterface</text>
</a>
</g>
</g>
<!-- Node8&#45;&gt;Node7 -->
<g id="edge7" class="edge">
<title>Node8&#45;&gt;Node7</title>
<path fill="none" stroke="midnightblue" d="M815.85,-1268.79C842.43,-1179.99 953.5,-803.53 1022,-489.22 1032.08,-442.96 1007.62,-418.76 1040,-384.22 1052.21,-371.2 1070.11,-364.67 1087.43,-361.56"/>
<polygon fill="midnightblue" stroke="midnightblue" points="812.49,-1267.79 812.97,-1278.38 819.2,-1269.8 812.49,-1267.79"/>
</g>
<!-- Node49 -->
<g id="node49" class="node">
<title>Node49</title>
<g id="a_node49"><a xlink:href="structMoFEM_1_1CoreInterface.html" target="_top" xlink:title="Interface.">
<polygon fill="white" stroke="black" points="1079,-1405.72 1079,-1424.72 1204,-1424.72 1204,-1405.72 1079,-1405.72"/>
<text text-anchor="middle" x="1141.5" y="-1412.72" font-family="Helvetica,sans-Serif" font-size="10.00">MoFEM::CoreInterface</text>
</a>
</g>
</g>
<!-- Node8&#45;&gt;Node49 -->
<g id="edge59" class="edge">
<title>Node8&#45;&gt;Node49</title>
<path fill="none" stroke="midnightblue" d="M817.12,-1307.55C829.18,-1337.11 856.73,-1392.48 901,-1415.22 966.65,-1448.94 1056.4,-1435.9 1105.27,-1424.73"/>
<polygon fill="midnightblue" stroke="midnightblue" points="820.26,-1305.99 813.37,-1297.94 813.74,-1308.53 820.26,-1305.99"/>
</g>
<!-- Node9 -->
<g id="node9" class="node">
<title>Node9</title>
<g id="a_node9"><a xlink:title=" ">
<polygon fill="white" stroke="#bfbfbf" points="386,-1234.72 386,-1297.72 627,-1297.72 627,-1234.72 386,-1234.72"/>
<text text-anchor="start" x="394" y="-1285.72" font-family="Helvetica,sans-Serif" font-size="10.00">multi_index_container</text>
<text text-anchor="start" x="394" y="-1274.72" font-family="Helvetica,sans-Serif" font-size="10.00">&lt; UIdTypeMap, indexed</text>
<text text-anchor="start" x="394" y="-1263.72" font-family="Helvetica,sans-Serif" font-size="10.00">_by&lt; hashed_unique&lt; member</text>
<text text-anchor="start" x="394" y="-1252.72" font-family="Helvetica,sans-Serif" font-size="10.00">&lt; UIdTypeMap, boost::typeindex</text>
<text text-anchor="middle" x="506.5" y="-1241.72" font-family="Helvetica,sans-Serif" font-size="10.00">::type_index, &amp;UIdTypeMap::classIdx &gt; &gt; &gt; &gt;</text>
</a>
</g>
</g>
<!-- Node9&#45;&gt;Node8 -->
<g id="edge8" class="edge">
<title>Node9&#45;&gt;Node8</title>
<path fill="none" stroke="#9a32cd" stroke-dasharray="5,2" d="M637.41,-1275.73C670.69,-1278.17 705.33,-1280.7 734.62,-1282.85"/>
<polygon fill="#9a32cd" stroke="#9a32cd" points="637.36,-1272.22 627.13,-1274.98 636.85,-1279.2 637.36,-1272.22"/>
<text text-anchor="middle" x="681" y="-1283.22" font-family="Helvetica,sans-Serif" font-size="10.00"> iFaceTypeMap</text>
</g>
<!-- Node10 -->
<g id="node10" class="node">
<title>Node10</title>
<g id="a_node10"><a xlink:title=" ">
<polygon fill="white" stroke="#bfbfbf" points="0,-1286.72 0,-1305.72 125,-1305.72 125,-1286.72 0,-1286.72"/>
<text text-anchor="middle" x="62.5" y="-1293.72" font-family="Helvetica,sans-Serif" font-size="10.00">multi_index_container</text>
</a>
</g>
</g>
<!-- Node10&#45;&gt;Node5 -->
<g id="edge32" class="edge">
<title>Node10&#45;&gt;Node5</title>
<path fill="none" stroke="#9a32cd" stroke-dasharray="5,2" d="M114.58,-1307.75C123.99,-1309.52 133.76,-1311.12 143,-1312.22 303.1,-1331.3 344.27,-1326.22 505.5,-1326.22 505.5,-1326.22 505.5,-1326.22 962.5,-1326.22 1358.84,-1326.22 1600.26,-1324.95 1781,-972.22 1804.12,-927.09 1773.23,-559.89 1799,-516.22 1811.33,-495.33 1835.62,-481.8 1855.25,-473.79"/>
<polygon fill="#9a32cd" stroke="#9a32cd" points="115.05,-1304.28 104.56,-1305.79 113.7,-1311.15 115.05,-1304.28"/>
<text text-anchor="middle" x="961.5" y="-1406.22" font-family="Helvetica,sans-Serif" font-size="10.00"> adjacenciesPtr</text>
<text text-anchor="middle" x="961.5" y="-1395.22" font-family="Helvetica,sans-Serif" font-size="10.00">refinedEntitiesPtr</text>
<text text-anchor="middle" x="961.5" y="-1384.22" font-family="Helvetica,sans-Serif" font-size="10.00">finiteElementsEntitiesPtr</text>
<text text-anchor="middle" x="961.5" y="-1373.22" font-family="Helvetica,sans-Serif" font-size="10.00">dofsPtr</text>
<text text-anchor="middle" x="961.5" y="-1362.22" font-family="Helvetica,sans-Serif" font-size="10.00">entitiesPtr</text>
<text text-anchor="middle" x="961.5" y="-1351.22" font-family="Helvetica,sans-Serif" font-size="10.00">finiteElementsPtr</text>
<text text-anchor="middle" x="961.5" y="-1340.22" font-family="Helvetica,sans-Serif" font-size="10.00">refinedFiniteElementsPtr</text>
<text text-anchor="middle" x="961.5" y="-1329.22" font-family="Helvetica,sans-Serif" font-size="10.00">fieldsPtr</text>
</g>
<!-- Node10&#45;&gt;Node9 -->
<g id="edge9" class="edge">
<title>Node10&#45;&gt;Node9</title>
<path fill="none" stroke="orange" stroke-dasharray="5,2" d="M94.05,-1282.77C108.58,-1277.08 126.37,-1271.11 143,-1268.22 223.14,-1254.29 314.76,-1253.92 385.84,-1256.96"/>
<polygon fill="orange" stroke="orange" points="92.52,-1279.62 84.58,-1286.62 95.16,-1286.1 92.52,-1279.62"/>
<text text-anchor="start" x="143" y="-1304.22" font-family="Helvetica,sans-Serif" font-size="10.00"> &lt; UIdTypeMap, indexed</text>
<text text-anchor="start" x="143" y="-1293.22" font-family="Helvetica,sans-Serif" font-size="10.00">_by&lt; hashed_unique&lt; member</text>
<text text-anchor="start" x="143" y="-1282.22" font-family="Helvetica,sans-Serif" font-size="10.00">&lt; UIdTypeMap, boost::typeindex</text>
<text text-anchor="middle" x="255.5" y="-1271.22" font-family="Helvetica,sans-Serif" font-size="10.00">::type_index, &amp;UIdTypeMap::classIdx &gt; &gt; &gt; &gt;</text>
</g>
<!-- Node11 -->
<g id="node11" class="node">
<title>Node11</title>
<g id="a_node11"><a xlink:title=" ">
<polygon fill="white" stroke="#bfbfbf" points="738.5,-343.72 738.5,-362.72 879.5,-362.72 879.5,-343.72 738.5,-343.72"/>
<text text-anchor="middle" x="809" y="-350.72" font-family="Helvetica,sans-Serif" font-size="10.00">static constexpr Switches</text>
</a>
</g>
</g>
<!-- Node11&#45;&gt;Node7 -->
<g id="edge10" class="edge">
<title>Node11&#45;&gt;Node7</title>
<path fill="none" stroke="#9a32cd" stroke-dasharray="5,2" d="M889.71,-352.29C893.53,-352.27 897.31,-352.24 901,-352.22 954.78,-351.92 968.25,-350.41 1022,-352.22 1043.43,-352.94 1067.01,-354.4 1087.45,-355.87"/>
<polygon fill="#9a32cd" stroke="#9a32cd" points="889.53,-348.8 879.56,-352.38 889.59,-355.79 889.53,-348.8"/>
<text text-anchor="middle" x="961.5" y="-432.22" font-family="Helvetica,sans-Serif" font-size="10.00"> CtxSetX_TT</text>
<text text-anchor="middle" x="961.5" y="-421.22" font-family="Helvetica,sans-Serif" font-size="10.00">CtxSetX_T</text>
<text text-anchor="middle" x="961.5" y="-410.22" font-family="Helvetica,sans-Serif" font-size="10.00">CtxSetA</text>
<text text-anchor="middle" x="961.5" y="-399.22" font-family="Helvetica,sans-Serif" font-size="10.00">CtxSetB</text>
<text text-anchor="middle" x="961.5" y="-388.22" font-family="Helvetica,sans-Serif" font-size="10.00">CtxSetTime</text>
<text text-anchor="middle" x="961.5" y="-377.22" font-family="Helvetica,sans-Serif" font-size="10.00">CtxSetNone</text>
<text text-anchor="middle" x="961.5" y="-366.22" font-family="Helvetica,sans-Serif" font-size="10.00">CtxSetF</text>
<text text-anchor="middle" x="961.5" y="-355.22" font-family="Helvetica,sans-Serif" font-size="10.00">CtxSetX</text>
</g>
<!-- Node12 -->
<g id="node12" class="node">
<title>Node12</title>
<g id="a_node12"><a xlink:title=" ">
<polygon fill="white" stroke="#bfbfbf" points="791.5,-514.72 791.5,-533.72 826.5,-533.72 826.5,-514.72 791.5,-514.72"/>
<text text-anchor="middle" x="809" y="-521.72" font-family="Helvetica,sans-Serif" font-size="10.00">Mat</text>
</a>
</g>
</g>
<!-- Node12&#45;&gt;Node1 -->
<g id="edge83" class="edge">
<title>Node12&#45;&gt;Node1</title>
<path fill="none" stroke="#9a32cd" stroke-dasharray="5,2" d="M813,-543.95C830.21,-654.65 919.9,-1197.51 1040,-1307.22 1136.34,-1395.23 1197.52,-1364.22 1328,-1364.22 1328,-1364.22 1328,-1364.22 2921.5,-1364.22 2981.66,-1364.22 3044.73,-1326.31 3076.17,-1304.4"/>
<polygon fill="#9a32cd" stroke="#9a32cd" points="816.42,-543.21 811.44,-533.86 809.51,-544.27 816.42,-543.21"/>
<text text-anchor="middle" x="2063" y="-1367.22" font-family="Helvetica,sans-Serif" font-size="10.00"> B</text>
</g>
<!-- Node12&#45;&gt;Node6 -->
<g id="edge16" class="edge">
<title>Node12&#45;&gt;Node6</title>
<path fill="none" stroke="#9a32cd" stroke-dasharray="5,2" d="M836.88,-520.91C890.89,-514.02 1008.56,-497.76 1022,-485.22 1045.49,-463.31 1015.93,-436.49 1040,-415.22 1069.97,-388.74 1357.5,-375.49 1397,-369.22 1414.45,-366.45 1433.52,-362.96 1450.31,-359.73"/>
<polygon fill="#9a32cd" stroke="#9a32cd" points="836.17,-517.47 826.68,-522.19 837.04,-524.41 836.17,-517.47"/>
<text text-anchor="middle" x="1141.5" y="-429.22" font-family="Helvetica,sans-Serif" font-size="10.00"> ksp_A</text>
<text text-anchor="middle" x="1141.5" y="-418.22" font-family="Helvetica,sans-Serif" font-size="10.00">ksp_B</text>
</g>
<!-- Node12&#45;&gt;Node7 -->
<g id="edge11" class="edge">
<title>Node12&#45;&gt;Node7</title>
<path fill="none" stroke="#9a32cd" stroke-dasharray="5,2" d="M828.69,-508.37C846.23,-494.33 873.78,-474.38 901,-463.22 951.65,-442.45 980.98,-476.47 1022,-440.22 1041.59,-422.91 1020.82,-401.98 1040,-384.22 1052.83,-372.34 1070.47,-366.02 1087.39,-362.76"/>
<polygon fill="#9a32cd" stroke="#9a32cd" points="826.45,-505.68 820.92,-514.72 830.88,-511.09 826.45,-505.68"/>
<text text-anchor="middle" x="961.5" y="-477.22" font-family="Helvetica,sans-Serif" font-size="10.00"> A</text>
<text text-anchor="middle" x="961.5" y="-466.22" font-family="Helvetica,sans-Serif" font-size="10.00">B</text>
</g>
<!-- Node12&#45;&gt;Node17 -->
<g id="edge21" class="edge">
<title>Node12&#45;&gt;Node17</title>
<path fill="none" stroke="#9a32cd" stroke-dasharray="5,2" d="M836.54,-522.65C876.7,-520.24 955.3,-515.36 1022,-510.22 1188.82,-497.37 1230.67,-495.29 1397,-477.22 1410.56,-475.75 1425.11,-473.98 1438.83,-472.22"/>
<polygon fill="#9a32cd" stroke="#9a32cd" points="836.28,-519.16 826.5,-523.25 836.69,-526.15 836.28,-519.16"/>
<text text-anchor="middle" x="1141.5" y="-523.22" font-family="Helvetica,sans-Serif" font-size="10.00"> snes_A</text>
<text text-anchor="middle" x="1141.5" y="-512.22" font-family="Helvetica,sans-Serif" font-size="10.00">snes_B</text>
</g>
<!-- Node12&#45;&gt;Node20 -->
<g id="edge26" class="edge">
<title>Node12&#45;&gt;Node20</title>
<path fill="none" stroke="#9a32cd" stroke-dasharray="5,2" d="M826.43,-541.12C861.66,-576.02 948.71,-655.3 1040,-685.22 1115.4,-709.93 1325.78,-725.18 1397,-690.22 1450.01,-664.2 1483,-595.26 1493.69,-569.82"/>
<polygon fill="#9a32cd" stroke="#9a32cd" points="828.88,-538.62 819.35,-534 823.92,-543.56 828.88,-538.62"/>
<text text-anchor="middle" x="1141.5" y="-725.22" font-family="Helvetica,sans-Serif" font-size="10.00"> ts_A</text>
<text text-anchor="middle" x="1141.5" y="-714.22" font-family="Helvetica,sans-Serif" font-size="10.00">ts_B</text>
</g>
<!-- Node13 -->
<g id="node13" class="node">
<title>Node13</title>
<g id="a_node13"><a xlink:title=" ">
<polygon fill="white" stroke="#bfbfbf" points="772.5,-305.72 772.5,-324.72 845.5,-324.72 845.5,-305.72 772.5,-305.72"/>
<text text-anchor="middle" x="809" y="-312.72" font-family="Helvetica,sans-Serif" font-size="10.00">bitset&lt; 8 &gt;</text>
</a>
</g>
</g>
<!-- Node13&#45;&gt;Node7 -->
<g id="edge12" class="edge">
<title>Node13&#45;&gt;Node7</title>
<path fill="none" stroke="#9a32cd" stroke-dasharray="5,2" d="M855.91,-318.81C898.95,-322.45 965.02,-328.75 1022,-337.22 1046.77,-340.9 1074.24,-346.16 1096.48,-350.72"/>
<polygon fill="#9a32cd" stroke="#9a32cd" points="856.01,-315.3 845.76,-317.96 855.43,-322.28 856.01,-315.3"/>
<text text-anchor="middle" x="961.5" y="-340.22" font-family="Helvetica,sans-Serif" font-size="10.00"> data_ctx</text>
</g>
<!-- Node14 -->
<g id="node14" class="node">
<title>Node14</title>
<g id="a_node14"><a xlink:title=" ">
<polygon fill="white" stroke="#bfbfbf" points="792,-182.72 792,-201.72 826,-201.72 826,-182.72 792,-182.72"/>
<text text-anchor="middle" x="809" y="-189.72" font-family="Helvetica,sans-Serif" font-size="10.00">Vec</text>
</a>
</g>
</g>
<!-- Node14&#45;&gt;Node1 -->
<g id="edge84" class="edge">
<title>Node14&#45;&gt;Node1</title>
<path fill="none" stroke="#9a32cd" stroke-dasharray="5,2" d="M836.04,-184.39C854.09,-179.35 878.78,-173.19 901,-170.22 1010.25,-155.6 1317.85,-96.51 1397,-173.22 1434.45,-209.52 1380.93,-367.73 1415,-407.22 1464.73,-464.85 1521.81,-398.63 1582,-445.22 1620.08,-474.7 1768.23,-783.79 1781,-830.22 1798.72,-894.61 1766.66,-1071.79 1799,-1130.22 1902.53,-1317.28 2039.21,-1289.22 2253,-1289.22 2253,-1289.22 2253,-1289.22 2921.5,-1289.22 2959.17,-1289.22 3001.41,-1289.22 3034.95,-1289.22"/>
<polygon fill="#9a32cd" stroke="#9a32cd" points="834.89,-181.08 826.24,-187.2 836.82,-187.81 834.89,-181.08"/>
<text text-anchor="middle" x="2063" y="-1293.22" font-family="Helvetica,sans-Serif" font-size="10.00"> F</text>
</g>
<!-- Node14&#45;&gt;Node6 -->
<g id="edge17" class="edge">
<title>Node14&#45;&gt;Node6</title>
<path fill="none" stroke="#9a32cd" stroke-dasharray="5,2" d="M828.18,-176.17C845.56,-161.88 873.16,-141.78 901,-132.22 1005.27,-96.4 1320.87,-63.47 1397,-143.22 1425.98,-173.58 1387.33,-299.67 1415,-331.22 1421.98,-339.18 1431.56,-344.16 1441.72,-347.21"/>
<polygon fill="#9a32cd" stroke="#9a32cd" points="825.89,-173.52 820.51,-182.65 830.41,-178.87 825.89,-173.52"/>
<text text-anchor="middle" x="1141.5" y="-106.22" font-family="Helvetica,sans-Serif" font-size="10.00"> ksp_f</text>
</g>
<!-- Node14&#45;&gt;Node7 -->
<g id="edge13" class="edge">
<title>Node14&#45;&gt;Node7</title>
<path fill="none" stroke="#9a32cd" stroke-dasharray="5,2" d="M835.46,-202.34C853.69,-209.58 878.84,-219.53 901,-228.22 954.71,-249.28 982.94,-232.76 1022,-275.22 1041.14,-296.02 1019.49,-316.76 1040,-336.22 1052.75,-348.32 1070.47,-354.67 1087.48,-357.91"/>
<polygon fill="#9a32cd" stroke="#9a32cd" points="836.68,-199.06 826.1,-198.62 834.1,-205.57 836.68,-199.06"/>
<text text-anchor="middle" x="961.5" y="-311.22" font-family="Helvetica,sans-Serif" font-size="10.00"> f</text>
<text text-anchor="middle" x="961.5" y="-300.22" font-family="Helvetica,sans-Serif" font-size="10.00">x</text>
<text text-anchor="middle" x="961.5" y="-289.22" font-family="Helvetica,sans-Serif" font-size="10.00">x_t</text>
<text text-anchor="middle" x="961.5" y="-278.22" font-family="Helvetica,sans-Serif" font-size="10.00">x_tt</text>
</g>
<!-- Node14&#45;&gt;Node17 -->
<g id="edge22" class="edge">
<title>Node14&#45;&gt;Node17</title>
<path fill="none" stroke="#9a32cd" stroke-dasharray="5,2" d="M836.3,-189.04C940.09,-177.12 1319.36,-139.84 1397,-221.22 1430.71,-256.55 1384.11,-402.4 1415,-440.22 1421.23,-447.85 1429.73,-453.13 1438.91,-456.78"/>
<polygon fill="#9a32cd" stroke="#9a32cd" points="835.61,-185.59 826.08,-190.23 836.42,-192.55 835.61,-185.59"/>
<text text-anchor="middle" x="1141.5" y="-188.22" font-family="Helvetica,sans-Serif" font-size="10.00"> snes_x</text>
<text text-anchor="middle" x="1141.5" y="-177.22" font-family="Helvetica,sans-Serif" font-size="10.00">snes_f</text>
</g>
<!-- Node14&#45;&gt;Node20 -->
<g id="edge30" class="edge">
<title>Node14&#45;&gt;Node20</title>
<path fill="none" stroke="#9a32cd" stroke-dasharray="5,2" d="M836.17,-190.47C878.96,-188.95 964.85,-191.6 1022,-231.22 1034.78,-240.08 1027.19,-252.4 1040,-261.22 1115.47,-313.18 1158.3,-262.27 1243,-297.22 1320.04,-329.01 1350.37,-335.14 1397,-404.22 1417.15,-434.07 1397.05,-452 1415,-483.22 1432,-512.77 1464,-537.72 1482.76,-550.68"/>
<polygon fill="#9a32cd" stroke="#9a32cd" points="835.85,-186.98 826.03,-190.94 836.18,-193.98 835.85,-186.98"/>
<text text-anchor="middle" x="1141.5" y="-333.22" font-family="Helvetica,sans-Serif" font-size="10.00"> ts_u</text>
<text text-anchor="middle" x="1141.5" y="-322.22" font-family="Helvetica,sans-Serif" font-size="10.00">ts_F</text>
<text text-anchor="middle" x="1141.5" y="-311.22" font-family="Helvetica,sans-Serif" font-size="10.00">ts_u_t</text>
<text text-anchor="middle" x="1141.5" y="-300.22" font-family="Helvetica,sans-Serif" font-size="10.00">ts_u_tt</text>
</g>
<!-- Node15 -->
<g id="node15" class="node">
<title>Node15</title>
<g id="a_node15"><a xlink:title=" ">
<polygon fill="white" stroke="#bfbfbf" points="1124,-51.72 1124,-70.72 1159,-70.72 1159,-51.72 1124,-51.72"/>
<text text-anchor="middle" x="1141.5" y="-58.72" font-family="Helvetica,sans-Serif" font-size="10.00">KSP</text>
</a>
</g>
</g>
<!-- Node15&#45;&gt;Node6 -->
<g id="edge14" class="edge">
<title>Node15&#45;&gt;Node6</title>
<path fill="none" stroke="#9a32cd" stroke-dasharray="5,2" d="M1169.19,-59.27C1227.95,-55.62 1365.8,-50.7 1397,-82.22 1436.03,-121.65 1378.91,-289.09 1415,-331.22 1421.98,-339.37 1431.69,-344.41 1442,-347.47"/>
<polygon fill="#9a32cd" stroke="#9a32cd" points="1168.93,-55.78 1159.18,-59.93 1169.39,-62.77 1168.93,-55.78"/>
<text text-anchor="middle" x="1329" y="-85.22" font-family="Helvetica,sans-Serif" font-size="10.00"> ksp</text>
</g>
<!-- Node16 -->
<g id="node16" class="node">
<title>Node16</title>
<g id="a_node16"><a xlink:title=" ">
<polygon fill="white" stroke="#bfbfbf" points="1104.5,-13.72 1104.5,-32.72 1178.5,-32.72 1178.5,-13.72 1104.5,-13.72"/>
<text text-anchor="middle" x="1141.5" y="-20.72" font-family="Helvetica,sans-Serif" font-size="10.00">KSPContext</text>
</a>
</g>
</g>
<!-- Node16&#45;&gt;Node6 -->
<g id="edge15" class="edge">
<title>Node16&#45;&gt;Node6</title>
<path fill="none" stroke="#9a32cd" stroke-dasharray="5,2" d="M1185.53,-11.36C1242.53,1.44 1342.22,13.24 1397,-42.22 1442.22,-88 1373.38,-282.14 1415,-331.22 1421.94,-339.4 1431.63,-344.46 1441.94,-347.52"/>
<polygon fill="#9a32cd" stroke="#9a32cd" points="1184.68,-7.96 1175.75,-13.66 1186.28,-14.78 1184.68,-7.96"/>
<text text-anchor="middle" x="1329" y="-45.22" font-family="Helvetica,sans-Serif" font-size="10.00"> ksp_ctx</text>
</g>
<!-- Node17&#45;&gt;Node5 -->
<g id="edge18" class="edge">
<title>Node17&#45;&gt;Node5</title>
<path fill="none" stroke="midnightblue" d="M1568.06,-464.22C1641.05,-464.22 1755.39,-464.22 1824.95,-464.22"/>
<polygon fill="midnightblue" stroke="midnightblue" points="1568.05,-460.72 1558.05,-464.22 1568.05,-467.72 1568.05,-460.72"/>
</g>
<!-- Node18 -->
<g id="node18" class="node">
<title>Node18</title>
<g id="a_node18"><a xlink:title=" ">
<polygon fill="white" stroke="#bfbfbf" points="1120.5,-446.72 1120.5,-465.72 1162.5,-465.72 1162.5,-446.72 1120.5,-446.72"/>
<text text-anchor="middle" x="1141.5" y="-453.72" font-family="Helvetica,sans-Serif" font-size="10.00">SNES</text>
</a>
</g>
</g>
<!-- Node18&#45;&gt;Node17 -->
<g id="edge20" class="edge">
<title>Node18&#45;&gt;Node17</title>
<path fill="none" stroke="#9a32cd" stroke-dasharray="5,2" d="M1172.72,-456.9C1231.53,-458.23 1362.28,-461.17 1438.74,-462.9"/>
<polygon fill="#9a32cd" stroke="#9a32cd" points="1172.68,-453.4 1162.6,-456.67 1172.52,-460.4 1172.68,-453.4"/>
<text text-anchor="middle" x="1329" y="-465.22" font-family="Helvetica,sans-Serif" font-size="10.00"> snes</text>
</g>
<!-- Node19 -->
<g id="node19" class="node">
<title>Node19</title>
<g id="a_node19"><a xlink:title=" ">
<polygon fill="white" stroke="#bfbfbf" points="1101.5,-232.72 1101.5,-251.72 1181.5,-251.72 1181.5,-232.72 1101.5,-232.72"/>
<text text-anchor="middle" x="1141.5" y="-239.72" font-family="Helvetica,sans-Serif" font-size="10.00">SNESContext</text>
</a>
</g>
</g>
<!-- Node19&#45;&gt;Node17 -->
<g id="edge23" class="edge">
<title>Node19&#45;&gt;Node17</title>
<path fill="none" stroke="#9a32cd" stroke-dasharray="5,2" d="M1191.47,-230.96C1249.07,-220.91 1343.61,-214.96 1397,-268.22 1424.21,-295.36 1390.36,-410.73 1415,-440.22 1421.22,-447.66 1429.59,-452.87 1438.64,-456.5"/>
<polygon fill="#9a32cd" stroke="#9a32cd" points="1190.7,-227.54 1181.51,-232.81 1191.98,-234.43 1190.7,-227.54"/>
<text text-anchor="middle" x="1329" y="-271.22" font-family="Helvetica,sans-Serif" font-size="10.00"> snes_ctx</text>
</g>
<!-- Node20&#45;&gt;Node5 -->
<g id="edge24" class="edge">
<title>Node20&#45;&gt;Node5</title>
<path fill="none" stroke="midnightblue" d="M1547.87,-548.18C1625.46,-528.85 1776.18,-491.32 1846.78,-473.74"/>
<polygon fill="midnightblue" stroke="midnightblue" points="1546.73,-544.85 1537.87,-550.66 1548.42,-551.64 1546.73,-544.85"/>
</g>
<!-- Node21 -->
<g id="node21" class="node">
<title>Node21</title>
<g id="a_node21"><a xlink:title=" ">
<polygon fill="white" stroke="#bfbfbf" points="1109,-656.72 1109,-675.72 1174,-675.72 1174,-656.72 1109,-656.72"/>
<text text-anchor="middle" x="1141.5" y="-663.72" font-family="Helvetica,sans-Serif" font-size="10.00">PetscReal</text>
</a>
</g>
</g>
<!-- Node21&#45;&gt;Node20 -->
<g id="edge27" class="edge">
<title>Node21&#45;&gt;Node20</title>
<path fill="none" stroke="#9a32cd" stroke-dasharray="5,2" d="M1184.33,-659.16C1256.51,-646.97 1396.84,-623.28 1397,-623.22 1431.84,-609.96 1467.65,-583.96 1485.65,-569.86"/>
<polygon fill="#9a32cd" stroke="#9a32cd" points="1183.47,-655.75 1174.19,-660.87 1184.64,-662.66 1183.47,-655.75"/>
<text text-anchor="middle" x="1329" y="-682.22" font-family="Helvetica,sans-Serif" font-size="10.00"> ts_a</text>
<text text-anchor="middle" x="1329" y="-671.22" font-family="Helvetica,sans-Serif" font-size="10.00">ts_t</text>
<text text-anchor="middle" x="1329" y="-660.22" font-family="Helvetica,sans-Serif" font-size="10.00">ts_dt</text>
<text text-anchor="middle" x="1329" y="-649.22" font-family="Helvetica,sans-Serif" font-size="10.00">ts_aa</text>
</g>
<!-- Node22 -->
<g id="node22" class="node">
<title>Node22</title>
<g id="a_node22"><a xlink:title=" ">
<polygon fill="white" stroke="#bfbfbf" points="1108,-618.72 1108,-637.72 1175,-637.72 1175,-618.72 1108,-618.72"/>
<text text-anchor="middle" x="1141.5" y="-625.72" font-family="Helvetica,sans-Serif" font-size="10.00">TSContext</text>
</a>
</g>
</g>
<!-- Node22&#45;&gt;Node20 -->
<g id="edge28" class="edge">
<title>Node22&#45;&gt;Node20</title>
<path fill="none" stroke="#9a32cd" stroke-dasharray="5,2" d="M1185.51,-622.31C1247.17,-613.73 1357.59,-597.89 1397,-589.22 1421.3,-583.88 1448.37,-575.95 1468.29,-569.73"/>
<polygon fill="#9a32cd" stroke="#9a32cd" points="1184.75,-618.89 1175.33,-623.73 1185.71,-625.82 1184.75,-618.89"/>
<text text-anchor="middle" x="1329" y="-615.22" font-family="Helvetica,sans-Serif" font-size="10.00"> ts_ctx</text>
</g>
<!-- Node23 -->
<g id="node23" class="node">
<title>Node23</title>
<g id="a_node23"><a xlink:title=" ">
<polygon fill="white" stroke="#bfbfbf" points="1113.5,-580.72 1113.5,-599.72 1169.5,-599.72 1169.5,-580.72 1113.5,-580.72"/>
<text text-anchor="middle" x="1141.5" y="-587.72" font-family="Helvetica,sans-Serif" font-size="10.00">PetscInt</text>
</a>
</g>
</g>
<!-- Node23&#45;&gt;Node20 -->
<g id="edge29" class="edge">
<title>Node23&#45;&gt;Node20</title>
<path fill="none" stroke="#9a32cd" stroke-dasharray="5,2" d="M1179.94,-586.19C1203.24,-583.74 1233.85,-580.63 1261,-578.22 1324.17,-572.62 1396.92,-567.24 1444.87,-563.85"/>
<polygon fill="#9a32cd" stroke="#9a32cd" points="1179.36,-582.73 1169.78,-587.26 1180.09,-589.69 1179.36,-582.73"/>
<text text-anchor="middle" x="1329" y="-581.22" font-family="Helvetica,sans-Serif" font-size="10.00"> ts_step</text>
</g>
<!-- Node24 -->
<g id="node24" class="node">
<title>Node24</title>
<g id="a_node24"><a xlink:title=" ">
<polygon fill="white" stroke="#bfbfbf" points="1127,-542.72 1127,-561.72 1156,-561.72 1156,-542.72 1127,-542.72"/>
<text text-anchor="middle" x="1141.5" y="-549.72" font-family="Helvetica,sans-Serif" font-size="10.00">TS</text>
</a>
</g>
</g>
<!-- Node24&#45;&gt;Node20 -->
<g id="edge31" class="edge">
<title>Node24&#45;&gt;Node20</title>
<path fill="none" stroke="#9a32cd" stroke-dasharray="5,2" d="M1166.25,-549.73C1211.32,-545.39 1312.3,-537.52 1397,-544.22 1413.56,-545.53 1431.5,-548.03 1447.59,-550.68"/>
<polygon fill="#9a32cd" stroke="#9a32cd" points="1165.65,-546.27 1156.04,-550.75 1166.34,-553.24 1165.65,-546.27"/>
<text text-anchor="middle" x="1329" y="-547.22" font-family="Helvetica,sans-Serif" font-size="10.00"> ts</text>
</g>
<!-- Node25 -->
<g id="node25" class="node">
<title>Node25</title>
<g id="a_node25"><a xlink:title=" ">
<polygon fill="white" stroke="#bfbfbf" points="1454,-302.72 1454,-321.72 1543,-321.72 1543,-302.72 1454,-302.72"/>
<text text-anchor="middle" x="1498.5" y="-309.72" font-family="Helvetica,sans-Serif" font-size="10.00">pair&lt; int, int &gt;</text>
</a>
</g>
</g>
<!-- Node25&#45;&gt;Node5 -->
<g id="edge33" class="edge">
<title>Node25&#45;&gt;Node5</title>
<path fill="none" stroke="#9a32cd" stroke-dasharray="5,2" d="M1553.67,-305.98C1613.02,-301.68 1709.31,-302.35 1781,-340.22 1831.93,-367.12 1867.98,-430.45 1880.33,-454.62"/>
<polygon fill="#9a32cd" stroke="#9a32cd" points="1553.08,-302.51 1543.39,-306.8 1553.63,-309.49 1553.08,-302.51"/>
<text text-anchor="middle" x="1690.5" y="-343.22" font-family="Helvetica,sans-Serif" font-size="10.00"> loHiFERank</text>
</g>
<!-- Node26 -->
<g id="node26" class="node">
<title>Node26</title>
<g id="a_node26"><a xlink:title=" ">
<polygon fill="white" stroke="#bfbfbf" points="1428.5,-264.72 1428.5,-283.72 1568.5,-283.72 1568.5,-264.72 1428.5,-264.72"/>
<text text-anchor="middle" x="1498.5" y="-271.72" font-family="Helvetica,sans-Serif" font-size="10.00">weak_ptr&lt; CacheTuple &gt;</text>
</a>
</g>
</g>
<!-- Node26&#45;&gt;Node5 -->
<g id="edge34" class="edge">
<title>Node26&#45;&gt;Node5</title>
<path fill="none" stroke="#9a32cd" stroke-dasharray="5,2" d="M1553.23,-262.95C1613.32,-253.38 1711.33,-247.08 1781,-289.22 1845.42,-328.18 1874.64,-423.45 1882.64,-454.36"/>
<polygon fill="#9a32cd" stroke="#9a32cd" points="1552.48,-259.53 1543.2,-264.64 1553.64,-266.43 1552.48,-259.53"/>
<text text-anchor="middle" x="1690.5" y="-292.22" font-family="Helvetica,sans-Serif" font-size="10.00"> cacheWeakPtr</text>
</g>
<!-- Node27 -->
<g id="node27" class="node">
<title>Node27</title>
<g id="a_node27"><a xlink:title=" ">
<polygon fill="white" stroke="#bfbfbf" points="1442.5,-221.72 1442.5,-240.72 1554.5,-240.72 1554.5,-221.72 1442.5,-221.72"/>
<text text-anchor="middle" x="1498.5" y="-228.72" font-family="Helvetica,sans-Serif" font-size="10.00">unique_ptr&lt; bool &gt;</text>
</a>
</g>
</g>
<!-- Node27&#45;&gt;Node5 -->
<g id="edge35" class="edge">
<title>Node27&#45;&gt;Node5</title>
<path fill="none" stroke="#9a32cd" stroke-dasharray="5,2" d="M1538.16,-218.76C1596.09,-202.61 1706.58,-181.86 1781,-230.22 1862.82,-283.39 1880.79,-417.41 1884.25,-454.55"/>
<polygon fill="#9a32cd" stroke="#9a32cd" points="1536.94,-215.47 1528.31,-221.6 1538.89,-222.19 1536.94,-215.47"/>
<text text-anchor="middle" x="1690.5" y="-244.22" font-family="Helvetica,sans-Serif" font-size="10.00"> matAssembleSwitch</text>
<text text-anchor="middle" x="1690.5" y="-233.22" font-family="Helvetica,sans-Serif" font-size="10.00">vecAssembleSwitch</text>
</g>
<!-- Node28 -->
<g id="node28" class="node">
<title>Node28</title>
<g id="a_node28"><a xlink:title=" ">
<polygon fill="white" stroke="#bfbfbf" points="1127,-752.72 1127,-771.72 1156,-771.72 1156,-752.72 1127,-752.72"/>
<text text-anchor="middle" x="1141.5" y="-759.72" font-family="Helvetica,sans-Serif" font-size="10.00">int</text>
</a>
</g>
</g>
<!-- Node28&#45;&gt;Node2 -->
<g id="edge76" class="edge">
<title>Node28&#45;&gt;Node2</title>
<path fill="none" stroke="#9a32cd" stroke-dasharray="5,2" d="M1166.22,-757.14C1212.74,-748.38 1318.24,-734.39 1397,-768.22 1514.52,-818.7 1504.64,-886.97 1600,-972.22 1684.19,-1047.48 1693.68,-1089.46 1799,-1130.22 1990.78,-1204.45 2517.44,-1187.26 2723,-1181.22 2768.39,-1179.89 2781.32,-1187.63 2825,-1175.22 2851.9,-1167.58 2879.72,-1151.38 2898.15,-1139.28"/>
<polygon fill="#9a32cd" stroke="#9a32cd" points="1165.35,-753.75 1156.22,-759.12 1166.71,-760.62 1165.35,-753.75"/>
<text text-anchor="middle" x="2063" y="-1183.22" font-family="Helvetica,sans-Serif" font-size="10.00"> numNodes</text>
</g>
<!-- Node28&#45;&gt;Node5 -->
<g id="edge36" class="edge">
<title>Node28&#45;&gt;Node5</title>
<path fill="none" stroke="#9a32cd" stroke-dasharray="5,2" d="M1166.35,-758.19C1225.38,-748.18 1375.15,-722.41 1397,-715.22 1577.32,-655.89 1616.32,-622.64 1781,-528.22 1789.34,-523.44 1790.88,-521.38 1799,-516.22 1823.01,-500.97 1851.31,-484.06 1868.7,-473.78"/>
<polygon fill="#9a32cd" stroke="#9a32cd" points="1165.4,-754.81 1156.12,-759.93 1166.56,-761.71 1165.4,-754.81"/>
<text text-anchor="middle" x="1498.5" y="-744.22" font-family="Helvetica,sans-Serif" font-size="10.00"> sIze</text>
<text text-anchor="middle" x="1498.5" y="-733.22" font-family="Helvetica,sans-Serif" font-size="10.00">loopSize</text>
<text text-anchor="middle" x="1498.5" y="-722.22" font-family="Helvetica,sans-Serif" font-size="10.00">nInTheLoop</text>
<text text-anchor="middle" x="1498.5" y="-711.22" font-family="Helvetica,sans-Serif" font-size="10.00">rAnk</text>
</g>
<!-- Node30 -->
<g id="node30" class="node">
<title>Node30</title>
<g id="a_node30"><a xlink:href="structMoFEM_1_1Problem.html" target="_top" xlink:title="keeps basic data about problem">
<polygon fill="white" stroke="black" points="1449,-1024.72 1449,-1043.72 1548,-1043.72 1548,-1024.72 1449,-1024.72"/>
<text text-anchor="middle" x="1498.5" y="-1031.72" font-family="Helvetica,sans-Serif" font-size="10.00">MoFEM::Problem</text>
</a>
</g>
</g>
<!-- Node28&#45;&gt;Node30 -->
<g id="edge48" class="edge">
<title>Node28&#45;&gt;Node30</title>
<path fill="none" stroke="#9a32cd" stroke-dasharray="5,2" d="M1166.21,-763.2C1226.23,-765.91 1380.55,-774.35 1397,-790.22 1436.76,-828.58 1394.93,-861.75 1415,-913.22 1432.92,-959.17 1471.06,-1004.97 1488.48,-1024.45"/>
<polygon fill="#9a32cd" stroke="#9a32cd" points="1166.3,-759.7 1156.16,-762.76 1166,-766.69 1166.3,-759.7"/>
<text text-anchor="middle" x="1329" y="-859.22" font-family="Helvetica,sans-Serif" font-size="10.00"> tagNameSize</text>
<text text-anchor="middle" x="1329" y="-848.22" font-family="Helvetica,sans-Serif" font-size="10.00">nbDofsRow</text>
<text text-anchor="middle" x="1329" y="-837.22" font-family="Helvetica,sans-Serif" font-size="10.00">nbLocDofsCol</text>
<text text-anchor="middle" x="1329" y="-826.22" font-family="Helvetica,sans-Serif" font-size="10.00">nbDofsCol</text>
<text text-anchor="middle" x="1329" y="-815.22" font-family="Helvetica,sans-Serif" font-size="10.00">nbGhostDofsRow</text>
<text text-anchor="middle" x="1329" y="-804.22" font-family="Helvetica,sans-Serif" font-size="10.00">nbGhostDofsCol</text>
<text text-anchor="middle" x="1329" y="-793.22" font-family="Helvetica,sans-Serif" font-size="10.00">nbLocDofsRow</text>
</g>
<!-- Node29 -->
<g id="node29" class="node">
<title>Node29</title>
<g id="a_node29"><a xlink:title=" ">
<polygon fill="white" stroke="#bfbfbf" points="1415,-378.72 1415,-397.72 1582,-397.72 1582,-378.72 1415,-378.72"/>
<text text-anchor="middle" x="1498.5" y="-385.72" font-family="Helvetica,sans-Serif" font-size="10.00">function&lt; MoFEMErrorCode()&gt;</text>
</a>
</g>
</g>
<!-- Node29&#45;&gt;Node5 -->
<g id="edge37" class="edge">
<title>Node29&#45;&gt;Node5</title>
<path fill="none" stroke="#9a32cd" stroke-dasharray="5,2" d="M1592.38,-396.27C1647.69,-402.26 1718.96,-412.06 1781,-427.22 1809.67,-434.23 1841.48,-446.19 1862.28,-454.62"/>
<polygon fill="#9a32cd" stroke="#9a32cd" points="1592.56,-392.77 1582.25,-395.2 1591.82,-399.73 1592.56,-392.77"/>
<text text-anchor="middle" x="1690.5" y="-452.22" font-family="Helvetica,sans-Serif" font-size="10.00"> preProcessHook</text>
<text text-anchor="middle" x="1690.5" y="-441.22" font-family="Helvetica,sans-Serif" font-size="10.00">operatorHook</text>
<text text-anchor="middle" x="1690.5" y="-430.22" font-family="Helvetica,sans-Serif" font-size="10.00">postProcessHook</text>
</g>
<!-- Node30&#45;&gt;Node5 -->
<g id="edge38" class="edge">
<title>Node30&#45;&gt;Node5</title>
<path fill="none" stroke="#9a32cd" stroke-dasharray="5,2" d="M1523,-1018.8C1579.42,-980.25 1722.25,-873.4 1781,-743.22 1801.82,-697.1 1772.42,-559.28 1799,-516.22 1811.83,-495.43 1836.35,-481.83 1855.93,-473.77"/>
<polygon fill="#9a32cd" stroke="#9a32cd" points="1520.74,-1016.1 1514.4,-1024.59 1524.65,-1021.9 1520.74,-1016.1"/>
<text text-anchor="middle" x="1690.5" y="-960.22" font-family="Helvetica,sans-Serif" font-size="10.00"> problemPtr</text>
</g>
<!-- Node31 -->
<g id="node31" class="node">
<title>Node31</title>
<g id="a_node31"><a xlink:title=" ">
<polygon fill="white" stroke="#bfbfbf" points="1058,-1229.22 1058,-1259.22 1225,-1259.22 1225,-1229.22 1058,-1229.22"/>
<text text-anchor="start" x="1066" y="-1247.22" font-family="Helvetica,sans-Serif" font-size="10.00">shared_ptr&lt; NumeredEntFinite</text>
<text text-anchor="middle" x="1141.5" y="-1236.22" font-family="Helvetica,sans-Serif" font-size="10.00">Element_multiIndex &gt;</text>
</a>
</g>
</g>
<!-- Node31&#45;&gt;Node30 -->
<g id="edge39" class="edge">
<title>Node31&#45;&gt;Node30</title>
<path fill="none" stroke="#9a32cd" stroke-dasharray="5,2" d="M1235.22,-1230.58C1306.54,-1219.94 1393.53,-1206.58 1397,-1204.22 1427.64,-1183.42 1478.12,-1076.7 1493.15,-1043.85"/>
<polygon fill="#9a32cd" stroke="#9a32cd" points="1234.64,-1227.12 1225.27,-1232.06 1235.67,-1234.05 1234.64,-1227.12"/>
<text text-anchor="middle" x="1329" y="-1228.22" font-family="Helvetica,sans-Serif" font-size="10.00"> numeredFiniteElementsPtr</text>
</g>
<!-- Node32 -->
<g id="node32" class="node">
<title>Node32</title>
<g id="a_node32"><a xlink:title=" ">
<polygon fill="white" stroke="#bfbfbf" points="1112,-1190.72 1112,-1209.72 1171,-1209.72 1171,-1190.72 1112,-1190.72"/>
<text text-anchor="middle" x="1141.5" y="-1197.72" font-family="Helvetica,sans-Serif" font-size="10.00">BitFEId *</text>
</a>
</g>
</g>
<!-- Node32&#45;&gt;Node30 -->
<g id="edge40" class="edge">
<title>Node32&#45;&gt;Node30</title>
<path fill="none" stroke="#9a32cd" stroke-dasharray="5,2" d="M1181.55,-1197.33C1248.26,-1192.14 1378.78,-1180.79 1397,-1170.22 1449.56,-1139.71 1482.83,-1069.62 1493.64,-1043.91"/>
<polygon fill="#9a32cd" stroke="#9a32cd" points="1181.12,-1193.85 1171.41,-1198.11 1181.65,-1200.83 1181.12,-1193.85"/>
<text text-anchor="middle" x="1329" y="-1192.22" font-family="Helvetica,sans-Serif" font-size="10.00"> tagBitFEId</text>
</g>
<!-- Node33 -->
<g id="node33" class="node">
<title>Node33</title>
<g id="a_node33"><a xlink:href="classEntityHandle.html" target="_top" xlink:title=" ">
<polygon fill="white" stroke="black" points="1101.5,-1278.72 1101.5,-1297.72 1181.5,-1297.72 1181.5,-1278.72 1101.5,-1278.72"/>
<text text-anchor="middle" x="1141.5" y="-1285.72" font-family="Helvetica,sans-Serif" font-size="10.00">EntityHandle</text>
</a>
</g>
</g>
<!-- Node33&#45;&gt;Node2 -->
<g id="edge74" class="edge">
<title>Node33&#45;&gt;Node2</title>
<path fill="none" stroke="#9a32cd" stroke-dasharray="5,2" d="M1191.62,-1286.39C1466.82,-1276.09 2805.75,-1225.58 2825,-1217.22 2863,-1200.71 2894.28,-1161.44 2909.51,-1139.58"/>
<polygon fill="#9a32cd" stroke="#9a32cd" points="1191.4,-1282.89 1181.53,-1286.76 1191.66,-1289.89 1191.4,-1282.89"/>
<text text-anchor="middle" x="2063" y="-1258.22" font-family="Helvetica,sans-Serif" font-size="10.00"> cOnn</text>
</g>
<!-- Node33&#45;&gt;Node30 -->
<g id="edge41" class="edge">
<title>Node33&#45;&gt;Node30</title>
<path fill="none" stroke="#9a32cd" stroke-dasharray="5,2" d="M1191.68,-1281.27C1208.19,-1278.31 1226.58,-1274.35 1243,-1269.22 1251.36,-1266.61 1252.62,-1263.75 1261,-1261.22 1319.69,-1243.52 1350.09,-1277.69 1397,-1238.22 1415.39,-1222.74 1405.27,-1209.2 1415,-1187.22 1439.81,-1131.21 1477.15,-1067.82 1491.55,-1043.98"/>
<polygon fill="#9a32cd" stroke="#9a32cd" points="1190.94,-1277.84 1181.67,-1282.97 1192.12,-1284.74 1190.94,-1277.84"/>
<text text-anchor="middle" x="1329" y="-1264.22" font-family="Helvetica,sans-Serif" font-size="10.00"> meshset</text>
</g>
<!-- Node34 -->
<g id="node34" class="node">
<title>Node34</title>
<g id="a_node34"><a xlink:title=" ">
<polygon fill="white" stroke="#bfbfbf" points="1067,-1103.22 1067,-1133.22 1216,-1133.22 1216,-1103.22 1067,-1103.22"/>
<text text-anchor="start" x="1075" y="-1121.22" font-family="Helvetica,sans-Serif" font-size="10.00">shared_ptr&lt; MoFEM::</text>
<text text-anchor="middle" x="1141.5" y="-1110.22" font-family="Helvetica,sans-Serif" font-size="10.00">ComposedProblemsData &gt;</text>
</a>
</g>
</g>
<!-- Node34&#45;&gt;Node30 -->
<g id="edge42" class="edge">
<title>Node34&#45;&gt;Node30</title>
<path fill="none" stroke="#9a32cd" stroke-dasharray="5,2" d="M1226.36,-1120.1C1276.94,-1118.94 1342,-1113.31 1397,-1095.22 1432.09,-1083.68 1467.8,-1057.96 1485.71,-1043.89"/>
<polygon fill="#9a32cd" stroke="#9a32cd" points="1226.06,-1116.61 1216.12,-1120.28 1226.18,-1123.61 1226.06,-1116.61"/>
<text text-anchor="middle" x="1329" y="-1120.22" font-family="Helvetica,sans-Serif" font-size="10.00"> composedProblemsData</text>
</g>
<!-- Node35 -->
<g id="node35" class="node">
<title>Node35</title>
<g id="a_node35"><a xlink:title=" ">
<polygon fill="white" stroke="#bfbfbf" points="1101,-1064.72 1101,-1083.72 1182,-1083.72 1182,-1064.72 1101,-1064.72"/>
<text text-anchor="middle" x="1141.5" y="-1071.72" font-family="Helvetica,sans-Serif" font-size="10.00">BitRefLevel *</text>
</a>
</g>
</g>
<!-- Node35&#45;&gt;Node30 -->
<g id="edge43" class="edge">
<title>Node35&#45;&gt;Node30</title>
<path fill="none" stroke="#9a32cd" stroke-dasharray="5,2" d="M1192.57,-1073.21C1244.08,-1071.63 1326.5,-1067.58 1397,-1057.22 1418.78,-1054.02 1442.83,-1048.59 1461.94,-1043.8"/>
<polygon fill="#9a32cd" stroke="#9a32cd" points="1192.28,-1069.72 1182.38,-1073.51 1192.48,-1076.72 1192.28,-1069.72"/>
<text text-anchor="middle" x="1329" y="-1083.22" font-family="Helvetica,sans-Serif" font-size="10.00"> tagBitRefLevelMask</text>
<text text-anchor="middle" x="1329" y="-1072.22" font-family="Helvetica,sans-Serif" font-size="10.00">tagBitRefLevel</text>
</g>
<!-- Node36 -->
<g id="node36" class="node">
<title>Node36</title>
<g id="a_node36"><a xlink:title=" ">
<polygon fill="white" stroke="#bfbfbf" points="1056.5,-1015.22 1056.5,-1045.22 1226.5,-1045.22 1226.5,-1015.22 1056.5,-1015.22"/>
<text text-anchor="start" x="1064.5" y="-1033.22" font-family="Helvetica,sans-Serif" font-size="10.00">shared_ptr&lt; NumeredDofEntity</text>
<text text-anchor="middle" x="1141.5" y="-1022.22" font-family="Helvetica,sans-Serif" font-size="10.00">_multiIndex &gt;</text>
</a>
</g>
</g>
<!-- Node36&#45;&gt;Node30 -->
<g id="edge44" class="edge">
<title>Node36&#45;&gt;Node30</title>
<path fill="none" stroke="#9a32cd" stroke-dasharray="5,2" d="M1236.96,-1031.28C1305.2,-1032.05 1394.57,-1033.06 1448.92,-1033.67"/>
<polygon fill="#9a32cd" stroke="#9a32cd" points="1236.67,-1027.78 1226.63,-1031.17 1236.59,-1034.78 1236.67,-1027.78"/>
<text text-anchor="middle" x="1329" y="-1046.22" font-family="Helvetica,sans-Serif" font-size="10.00"> numeredRowDofsPtr</text>
<text text-anchor="middle" x="1329" y="-1035.22" font-family="Helvetica,sans-Serif" font-size="10.00">numeredColDofsPtr</text>
</g>
<!-- Node37 -->
<g id="node37" class="node">
<title>Node37</title>
<g id="a_node37"><a xlink:title=" ">
<polygon fill="white" stroke="#bfbfbf" points="1122.5,-976.72 1122.5,-995.72 1160.5,-995.72 1160.5,-976.72 1122.5,-976.72"/>
<text text-anchor="middle" x="1141.5" y="-983.72" font-family="Helvetica,sans-Serif" font-size="10.00">char</text>
</a>
</g>
</g>
<!-- Node37&#45;&gt;Node30 -->
<g id="edge45" class="edge">
<title>Node37&#45;&gt;Node30</title>
<path fill="none" stroke="#9a32cd" stroke-dasharray="5,2" d="M1170.81,-989C1217.88,-993.74 1315.14,-1004.08 1397,-1016.22 1413.92,-1018.73 1432.36,-1021.91 1448.78,-1024.89"/>
<polygon fill="#9a32cd" stroke="#9a32cd" points="1171.06,-985.5 1160.76,-987.99 1170.36,-992.47 1171.06,-985.5"/>
<text text-anchor="middle" x="1329" y="-1019.22" font-family="Helvetica,sans-Serif" font-size="10.00"> tagName</text>
</g>
<!-- Node38 -->
<g id="node38" class="node">
<title>Node38</title>
<g id="a_node38"><a xlink:title=" ">
<polygon fill="white" stroke="#bfbfbf" points="1072.5,-938.72 1072.5,-957.72 1210.5,-957.72 1210.5,-938.72 1072.5,-938.72"/>
<text text-anchor="middle" x="1141.5" y="-945.72" font-family="Helvetica,sans-Serif" font-size="10.00">vector&lt; BlockFieldPair &gt;</text>
</a>
</g>
</g>
<!-- Node38&#45;&gt;Node30 -->
<g id="edge46" class="edge">
<title>Node38&#45;&gt;Node30</title>
<path fill="none" stroke="#9a32cd" stroke-dasharray="5,2" d="M1220.5,-952.75C1271.6,-957.29 1339.37,-966.32 1397,-984.22 1428.83,-994.1 1462.98,-1013.09 1482.14,-1024.61"/>
<polygon fill="#9a32cd" stroke="#9a32cd" points="1220.77,-949.26 1210.51,-951.9 1220.17,-956.23 1220.77,-949.26"/>
<text text-anchor="middle" x="1329" y="-987.22" font-family="Helvetica,sans-Serif" font-size="10.00"> emptyFieldBlocks</text>
</g>
<!-- Node39 -->
<g id="node39" class="node">
<title>Node39</title>
<g id="a_node39"><a xlink:title=" ">
<polygon fill="white" stroke="#bfbfbf" points="1063.5,-889.22 1063.5,-919.22 1219.5,-919.22 1219.5,-889.22 1063.5,-889.22"/>
<text text-anchor="start" x="1071.5" y="-907.22" font-family="Helvetica,sans-Serif" font-size="10.00">shared_ptr&lt; MoFEM::</text>
<text text-anchor="middle" x="1141.5" y="-896.22" font-family="Helvetica,sans-Serif" font-size="10.00">Problem::SubProblemData &gt;</text>
</a>
</g>
</g>
<!-- Node39&#45;&gt;Node30 -->
<g id="edge47" class="edge">
<title>Node39&#45;&gt;Node30</title>
<path fill="none" stroke="#9a32cd" stroke-dasharray="5,2" d="M1229.65,-912.18C1291.31,-918.82 1367.99,-929.42 1397,-943.22 1438.45,-962.93 1475.06,-1005.41 1490.16,-1024.54"/>
<polygon fill="#9a32cd" stroke="#9a32cd" points="1229.82,-908.68 1219.5,-911.11 1229.08,-915.64 1229.82,-908.68"/>
<text text-anchor="middle" x="1329" y="-946.22" font-family="Helvetica,sans-Serif" font-size="10.00"> subProblemData</text>
</g>
<!-- Node40 -->
<g id="node40" class="node">
<title>Node40</title>
<g id="a_node40"><a xlink:title=" ">
<polygon fill="white" stroke="#bfbfbf" points="1040,-850.72 1040,-869.72 1243,-869.72 1243,-850.72 1040,-850.72"/>
<text text-anchor="middle" x="1141.5" y="-857.72" font-family="Helvetica,sans-Serif" font-size="10.00">shared_ptr&lt; SequenceDofContainer &gt;</text>
</a>
</g>
</g>
<!-- Node40&#45;&gt;Node30 -->
<g id="edge49" class="edge">
<title>Node40&#45;&gt;Node30</title>
<path fill="none" stroke="#9a32cd" stroke-dasharray="5,2" d="M1253.33,-869.06C1315.98,-874.81 1384.3,-882.61 1397,-890.22 1400.51,-892.32 1469.01,-992.46 1490.86,-1024.48"/>
<polygon fill="#9a32cd" stroke="#9a32cd" points="1253.6,-865.57 1243.33,-868.16 1252.97,-872.55 1253.6,-865.57"/>
<text text-anchor="middle" x="1329" y="-904.22" font-family="Helvetica,sans-Serif" font-size="10.00"> sequenceRowDofContainer</text>
<text text-anchor="middle" x="1329" y="-893.22" font-family="Helvetica,sans-Serif" font-size="10.00">sequenceColDofContainer</text>
</g>
<!-- Node41 -->
<g id="node41" class="node">
<title>Node41</title>
<g id="a_node41"><a xlink:title=" ">
<polygon fill="white" stroke="#bfbfbf" points="1097.5,-1152.72 1097.5,-1171.72 1185.5,-1171.72 1185.5,-1152.72 1097.5,-1152.72"/>
<text text-anchor="middle" x="1141.5" y="-1159.72" font-family="Helvetica,sans-Serif" font-size="10.00">BitProblemId *</text>
</a>
</g>
</g>
<!-- Node41&#45;&gt;Node30 -->
<g id="edge50" class="edge">
<title>Node41&#45;&gt;Node30</title>
<path fill="none" stroke="#9a32cd" stroke-dasharray="5,2" d="M1195.91,-1159.95C1259.82,-1156.54 1362.53,-1148.66 1397,-1132.22 1440.55,-1111.45 1476.85,-1064.18 1491.07,-1043.83"/>
<polygon fill="#9a32cd" stroke="#9a32cd" points="1195.42,-1156.47 1185.62,-1160.48 1195.78,-1163.46 1195.42,-1156.47"/>
<text text-anchor="middle" x="1329" y="-1158.22" font-family="Helvetica,sans-Serif" font-size="10.00"> tagId</text>
</g>
<!-- Node42 -->
<g id="node42" class="node">
<title>Node42</title>
<g id="a_node42"><a xlink:title=" ">
<polygon fill="white" stroke="#bfbfbf" points="1805,-526.22 1805,-556.22 1967,-556.22 1967,-526.22 1805,-526.22"/>
<text text-anchor="start" x="1813" y="-544.22" font-family="Helvetica,sans-Serif" font-size="10.00">shared_ptr&lt; const MoFEM</text>
<text text-anchor="middle" x="1886" y="-533.22" font-family="Helvetica,sans-Serif" font-size="10.00">::NumeredEntFiniteElement &gt;</text>
</a>
</g>
</g>
<!-- Node42&#45;&gt;Node4 -->
<g id="edge51" class="edge">
<title>Node42&#45;&gt;Node4</title>
<path fill="none" stroke="#9a32cd" stroke-dasharray="5,2" d="M1977.48,-525.6C2029.48,-521.95 2092.67,-527.33 2135,-564.22 2161.5,-587.31 2127.63,-616.89 2153,-641.22 2165.56,-653.27 2183.26,-658.86 2200.29,-661.17"/>
<polygon fill="#9a32cd" stroke="#9a32cd" points="1976.92,-522.13 1967.24,-526.44 1977.5,-529.11 1976.92,-522.13"/>
<text text-anchor="middle" x="2063" y="-567.22" font-family="Helvetica,sans-Serif" font-size="10.00"> numeredEntFiniteElementPtr</text>
</g>
<!-- Node43 -->
<g id="node43" class="node">
<title>Node43</title>
<g id="a_node43"><a xlink:title=" ">
<polygon fill="white" stroke="#bfbfbf" points="1864,-749.72 1864,-768.72 1908,-768.72 1908,-749.72 1864,-749.72"/>
<text text-anchor="middle" x="1886" y="-756.72" font-family="Helvetica,sans-Serif" font-size="10.00">string</text>
</a>
</g>
</g>
<!-- Node43&#45;&gt;Node2 -->
<g id="edge77" class="edge">
<title>Node43&#45;&gt;Node2</title>
<path fill="none" stroke="#9a32cd" stroke-dasharray="5,2" d="M1918.2,-757.69C1936.84,-758.57 1959.45,-763.12 1973,-778.22 2021.97,-832.8 1944.46,-885.55 1991,-942.22 2038.91,-1000.55 2079.43,-976.33 2153,-993.22 2447.24,-1060.76 2531.51,-1021.52 2825,-1092.22 2843.36,-1096.64 2863.21,-1103.1 2879.96,-1109.06"/>
<polygon fill="#9a32cd" stroke="#9a32cd" points="1918.12,-754.19 1908.07,-757.54 1918.01,-761.18 1918.12,-754.19"/>
<text text-anchor="middle" x="2454" y="-1047.22" font-family="Helvetica,sans-Serif" font-size="10.00"> meshPositionsFieldName</text>
</g>
<!-- Node43&#45;&gt;Node4 -->
<g id="edge52" class="edge">
<title>Node43&#45;&gt;Node4</title>
<path fill="none" stroke="#9a32cd" stroke-dasharray="5,2" d="M1918.33,-761.19C1977.43,-764.23 2102.36,-767.27 2135,-741.22 2156.43,-724.12 2132.86,-700.82 2153,-682.22 2165.8,-670.4 2183.45,-664.41 2200.37,-661.51"/>
<polygon fill="#9a32cd" stroke="#9a32cd" points="1918.27,-757.68 1908.1,-760.62 1917.89,-764.67 1918.27,-757.68"/>
<text text-anchor="middle" x="2063" y="-766.22" font-family="Helvetica,sans-Serif" font-size="10.00"> feName</text>
</g>
<!-- Node44 -->
<g id="node44" class="node">
<title>Node44</title>
<g id="a_node44"><a xlink:title=" ">
<polygon fill="white" stroke="#bfbfbf" points="1804.5,-575.22 1804.5,-605.22 1967.5,-605.22 1967.5,-575.22 1804.5,-575.22"/>
<text text-anchor="start" x="1812.5" y="-593.22" font-family="Helvetica,sans-Serif" font-size="10.00">function&lt; bool(MoFEM</text>
<text text-anchor="middle" x="1886" y="-582.22" font-family="Helvetica,sans-Serif" font-size="10.00">::FEMethod *fe_method_ptr)&gt;</text>
</a>
</g>
</g>
<!-- Node44&#45;&gt;Node4 -->
<g id="edge53" class="edge">
<title>Node44&#45;&gt;Node4</title>
<path fill="none" stroke="#9a32cd" stroke-dasharray="5,2" d="M1977.67,-579.4C2027.53,-577.86 2088.51,-583.6 2135,-612.22 2147.92,-620.17 2140.49,-632.64 2153,-641.22 2166.77,-650.67 2184,-655.73 2200.26,-658.36"/>
<polygon fill="#9a32cd" stroke="#9a32cd" points="1977.38,-575.91 1967.54,-579.81 1977.67,-582.9 1977.38,-575.91"/>
<text text-anchor="middle" x="2063" y="-615.22" font-family="Helvetica,sans-Serif" font-size="10.00"> exeTestHook</text>
</g>
<!-- Node45 -->
<g id="node45" class="node">
<title>Node45</title>
<g id="a_node45"><a xlink:href="classdouble.html" target="_top" xlink:title=" ">
<polygon fill="white" stroke="black" points="2229,-1067.72 2229,-1086.72 2279,-1086.72 2279,-1067.72 2229,-1067.72"/>
<text text-anchor="middle" x="2254" y="-1074.72" font-family="Helvetica,sans-Serif" font-size="10.00">double</text>
</a>
</g>
</g>
<!-- Node45&#45;&gt;Node2 -->
<g id="edge75" class="edge">
<title>Node45&#45;&gt;Node2</title>
<path fill="none" stroke="#9a32cd" stroke-dasharray="5,2" d="M2289.6,-1077.12C2367.28,-1077.18 2561.42,-1079 2723,-1094.22 2762.68,-1097.96 2806.56,-1104.43 2842.76,-1110.41"/>
<polygon fill="#9a32cd" stroke="#9a32cd" points="2289.42,-1073.62 2279.42,-1077.12 2289.43,-1080.62 2289.42,-1073.62"/>
<text text-anchor="middle" x="2638" y="-1097.22" font-family="Helvetica,sans-Serif" font-size="10.00"> lEngth</text>
</g>
<!-- Node45&#45;&gt;Node3 -->
<g id="edge54" class="edge">
<title>Node45&#45;&gt;Node3</title>
<path fill="none" stroke="#9a32cd" stroke-dasharray="5,2" d="M2277.59,-1062.13C2300.9,-1046.93 2338.61,-1023.33 2373,-1006.22 2442.46,-971.67 2471.94,-986.41 2535,-941.22 2579.45,-909.36 2616.98,-854.17 2631.05,-831.93"/>
<polygon fill="#9a32cd" stroke="#9a32cd" points="2275.55,-1059.29 2269.11,-1067.71 2279.39,-1065.14 2275.55,-1059.29"/>
<text text-anchor="middle" x="2454" y="-1009.22" font-family="Helvetica,sans-Serif" font-size="10.00"> elementMeasure</text>
</g>
<!-- Node63 -->
<g id="node63" class="node">
<title>Node63</title>
<g id="a_node63"><a xlink:href="classFTensor_1_1Tensor1.html" target="_top" xlink:title=" ">
<polygon fill="white" stroke="black" points="2556,-1114.72 2556,-1133.72 2720,-1133.72 2720,-1114.72 2556,-1114.72"/>
<text text-anchor="middle" x="2638" y="-1121.72" font-family="Helvetica,sans-Serif" font-size="10.00">FTensor::Tensor1&lt; double, 3 &gt;</text>
</a>
</g>
</g>
<!-- Node45&#45;&gt;Node63 -->
<g id="edge79" class="edge">
<title>Node45&#45;&gt;Node63</title>
<path fill="none" stroke="#9a32cd" stroke-dasharray="5,2" d="M2289.51,-1083.28C2313,-1087.28 2344.82,-1092.46 2373,-1096.22 2434.22,-1104.39 2503.68,-1111.68 2555.98,-1116.77"/>
<polygon fill="#9a32cd" stroke="#9a32cd" points="2289.8,-1079.78 2279.35,-1081.53 2288.61,-1086.68 2289.8,-1079.78"/>
<text text-anchor="middle" x="2454" y="-1116.22" font-family="Helvetica,sans-Serif" font-size="10.00"> data</text>
</g>
<!-- Node46 -->
<g id="node46" class="node">
<title>Node46</title>
<g id="a_node46"><a xlink:title=" ">
<polygon fill="white" stroke="#bfbfbf" points="2168,-888.72 2168,-929.72 2340,-929.72 2340,-888.72 2168,-888.72"/>
<text text-anchor="start" x="2176" y="-917.72" font-family="Helvetica,sans-Serif" font-size="10.00">array&lt; boost::shared</text>
<text text-anchor="start" x="2176" y="-906.72" font-family="Helvetica,sans-Serif" font-size="10.00">_ptr&lt; MoFEM::EntitiesFieldData</text>
<text text-anchor="middle" x="2254" y="-895.72" font-family="Helvetica,sans-Serif" font-size="10.00"> &gt;, LASTSPACE &gt;</text>
</a>
</g>
</g>
<!-- Node46&#45;&gt;Node3 -->
<g id="edge55" class="edge">
<title>Node46&#45;&gt;Node3</title>
<path fill="none" stroke="#9a32cd" stroke-dasharray="5,2" d="M2333.39,-885.74C2353.65,-879.72 2370.52,-874.76 2373,-874.22 2444.05,-858.73 2463.86,-866.31 2535,-851.22 2559.67,-845.99 2587.15,-838.05 2607.36,-831.8"/>
<polygon fill="#9a32cd" stroke="#9a32cd" points="2332.15,-882.46 2323.56,-888.66 2334.15,-889.16 2332.15,-882.46"/>
<text text-anchor="middle" x="2454" y="-888.22" font-family="Helvetica,sans-Serif" font-size="10.00"> derivedDataOnElement</text>
<text text-anchor="middle" x="2454" y="-877.22" font-family="Helvetica,sans-Serif" font-size="10.00">dataOnElement</text>
</g>
<!-- Node47 -->
<g id="node47" class="node">
<title>Node47</title>
<g id="a_node47"><a xlink:title=" ">
<polygon fill="white" stroke="#bfbfbf" points="2220,-850.72 2220,-869.72 2288,-869.72 2288,-850.72 2220,-850.72"/>
<text text-anchor="middle" x="2254" y="-857.72" font-family="Helvetica,sans-Serif" font-size="10.00">EntityType</text>
</a>
</g>
</g>
<!-- Node47&#45;&gt;Node3 -->
<g id="edge56" class="edge">
<title>Node47&#45;&gt;Node3</title>
<path fill="none" stroke="#9a32cd" stroke-dasharray="5,2" d="M2298.02,-851.87C2320.32,-847.81 2348.04,-843.18 2373,-840.22 2432.99,-833.11 2501.01,-828.55 2552.98,-825.81"/>
<polygon fill="#9a32cd" stroke="#9a32cd" points="2297.38,-848.42 2288.19,-853.68 2298.66,-855.31 2297.38,-848.42"/>
<text text-anchor="middle" x="2454" y="-843.22" font-family="Helvetica,sans-Serif" font-size="10.00"> lastEvaluatedElementEntityType</text>
</g>
<!-- Node48 -->
<g id="node48" class="node">
<title>Node48</title>
<g id="a_node48"><a xlink:href="structMoFEM_1_1DeprecatedCoreInterface.html" target="_top" xlink:title="Deprecated interface functions.">
<polygon fill="white" stroke="black" points="1600,-1304.72 1600,-1323.72 1781,-1323.72 1781,-1304.72 1600,-1304.72"/>
<text text-anchor="middle" x="1690.5" y="-1311.72" font-family="Helvetica,sans-Serif" font-size="10.00">MoFEM::DeprecatedCoreInterface</text>
</a>
</g>
</g>
<!-- Node48&#45;&gt;Node3 -->
<g id="edge57" class="edge">
<title>Node48&#45;&gt;Node3</title>
<path fill="none" stroke="#9a32cd" stroke-dasharray="5,2" d="M1727.79,-1301.27C1783.68,-1281.73 1894.48,-1244.64 1991,-1222.22 2054.13,-1207.56 2071.09,-1209.99 2135,-1199.22 2137.78,-1198.75 2533.06,-1130.27 2535,-1128.22 2557.35,-1104.67 2543.34,-1014.22 2553,-983.22 2572.14,-921.82 2614.12,-856.04 2630.38,-831.85"/>
<polygon fill="#9a32cd" stroke="#9a32cd" points="1726.28,-1298.09 1718.01,-1304.7 1728.6,-1304.69 1726.28,-1298.09"/>
<text text-anchor="middle" x="2063" y="-1225.22" font-family="Helvetica,sans-Serif" font-size="10.00"> mField</text>
</g>
<!-- Node49&#45;&gt;Node48 -->
<g id="edge58" class="edge">
<title>Node49&#45;&gt;Node48</title>
<path fill="none" stroke="midnightblue" d="M1204.11,-1403.84C1312.78,-1383.78 1536.57,-1342.46 1637.78,-1323.77"/>
<polygon fill="midnightblue" stroke="midnightblue" points="1203.16,-1400.46 1193.96,-1405.72 1204.43,-1407.34 1203.16,-1400.46"/>
</g>
<!-- Node50 -->
<g id="node50" class="node">
<title>Node50</title>
<g id="a_node50"><a xlink:title=" ">
<polygon fill="white" stroke="#bfbfbf" points="2170.5,-779.22 2170.5,-831.22 2337.5,-831.22 2337.5,-779.22 2170.5,-779.22"/>
<text text-anchor="start" x="2178.5" y="-819.22" font-family="Helvetica,sans-Serif" font-size="10.00">function&lt; MoFEMErrorCode</text>
<text text-anchor="start" x="2178.5" y="-808.22" font-family="Helvetica,sans-Serif" font-size="10.00">(ForcesAndSourcesCore *fe</text>
<text text-anchor="start" x="2178.5" y="-797.22" font-family="Helvetica,sans-Serif" font-size="10.00">_raw_ptr, int order_row,</text>
<text text-anchor="middle" x="2254" y="-786.22" font-family="Helvetica,sans-Serif" font-size="10.00"> int order_col, int order_data)&gt;</text>
</a>
</g>
</g>
<!-- Node50&#45;&gt;Node3 -->
<g id="edge61" class="edge">
<title>Node50&#45;&gt;Node3</title>
<path fill="none" stroke="#9a32cd" stroke-dasharray="5,2" d="M2347.54,-802.03C2402.17,-801.02 2472.62,-801.24 2535,-806.22 2551.8,-807.56 2570.01,-810.07 2586.34,-812.72"/>
<polygon fill="#9a32cd" stroke="#9a32cd" points="2347.46,-798.53 2337.53,-802.23 2347.6,-805.53 2347.46,-798.53"/>
<text text-anchor="middle" x="2454" y="-809.22" font-family="Helvetica,sans-Serif" font-size="10.00"> setRuleHook</text>
</g>
<!-- Node51 -->
<g id="node51" class="node">
<title>Node51</title>
<g id="a_node51"><a xlink:title=" ">
<polygon fill="white" stroke="#bfbfbf" points="2153,-730.22 2153,-760.22 2355,-760.22 2355,-730.22 2153,-730.22"/>
<text text-anchor="start" x="2161" y="-748.22" font-family="Helvetica,sans-Serif" font-size="10.00">ptr_deque&lt; MoFEM::Forces</text>
<text text-anchor="middle" x="2254" y="-737.22" font-family="Helvetica,sans-Serif" font-size="10.00">AndSourcesCore::UserDataOperator &gt;</text>
</a>
</g>
</g>
<!-- Node51&#45;&gt;Node3 -->
<g id="edge62" class="edge">
<title>Node51&#45;&gt;Node3</title>
<path fill="none" stroke="#9a32cd" stroke-dasharray="5,2" d="M2365.54,-757.1C2417.42,-763.87 2479.83,-773.73 2535,-787.22 2562.28,-793.89 2592.61,-804.76 2613.05,-812.62"/>
<polygon fill="#9a32cd" stroke="#9a32cd" points="2365.68,-753.59 2355.31,-755.78 2364.79,-760.53 2365.68,-753.59"/>
<text text-anchor="middle" x="2454" y="-790.22" font-family="Helvetica,sans-Serif" font-size="10.00"> opPtrVector</text>
</g>
<!-- Node52 -->
<g id="node52" class="node">
<title>Node52</title>
<g id="a_node52"><a xlink:href="structMoFEM_1_1EntitiesFieldData.html" target="_top" xlink:title="data structure for finite element entity">
<polygon fill="white" stroke="black" points="2183,-691.72 2183,-710.72 2325,-710.72 2325,-691.72 2183,-691.72"/>
<text text-anchor="middle" x="2254" y="-698.72" font-family="Helvetica,sans-Serif" font-size="10.00">MoFEM::EntitiesFieldData</text>
</a>
</g>
</g>
<!-- Node52&#45;&gt;Node3 -->
<g id="edge63" class="edge">
<title>Node52&#45;&gt;Node3</title>
<path fill="none" stroke="#9a32cd" stroke-dasharray="5,2" d="M2301.5,-689.47C2359.26,-677.39 2459.39,-664.88 2535,-700.22 2586.27,-724.18 2620.84,-788 2632.57,-812.48"/>
<polygon fill="#9a32cd" stroke="#9a32cd" points="2300.6,-686.08 2291.57,-691.63 2302.09,-692.92 2300.6,-686.08"/>
<text text-anchor="middle" x="2454" y="-747.22" font-family="Helvetica,sans-Serif" font-size="10.00"> dataNoField</text>
<text text-anchor="middle" x="2454" y="-736.22" font-family="Helvetica,sans-Serif" font-size="10.00">dataL2</text>
<text text-anchor="middle" x="2454" y="-725.22" font-family="Helvetica,sans-Serif" font-size="10.00">dataH1</text>
<text text-anchor="middle" x="2454" y="-714.22" font-family="Helvetica,sans-Serif" font-size="10.00">dataHcurl</text>
<text text-anchor="middle" x="2454" y="-703.22" font-family="Helvetica,sans-Serif" font-size="10.00">dataHdiv</text>
</g>
<!-- Node53 -->
<g id="node53" class="node">
<title>Node53</title>
<g id="a_node53"><a xlink:title=" ">
<polygon fill="white" stroke="#bfbfbf" points="1805,-624.22 1805,-654.22 1967,-654.22 1967,-624.22 1805,-624.22"/>
<text text-anchor="start" x="1813" y="-642.22" font-family="Helvetica,sans-Serif" font-size="10.00">array&lt; std::bitset</text>
<text text-anchor="middle" x="1886" y="-631.22" font-family="Helvetica,sans-Serif" font-size="10.00">&lt; LASTBASE &gt;, LASTSPACE &gt;</text>
</a>
</g>
</g>
<!-- Node53&#45;&gt;Node52 -->
<g id="edge64" class="edge">
<title>Node53&#45;&gt;Node52</title>
<path fill="none" stroke="#9a32cd" stroke-dasharray="5,2" d="M1977.11,-627.39C2026.52,-625.09 2087.25,-629.39 2135,-655.22 2146.73,-661.56 2141.79,-672 2153,-679.22 2162.04,-685.04 2172.4,-689.34 2182.94,-692.51"/>
<polygon fill="#9a32cd" stroke="#9a32cd" points="1976.86,-623.9 1967.07,-627.95 1977.25,-630.89 1976.86,-623.9"/>
<text text-anchor="middle" x="2063" y="-669.22" font-family="Helvetica,sans-Serif" font-size="10.00"> brokenBasesOnSpaces</text>
<text text-anchor="middle" x="2063" y="-658.22" font-family="Helvetica,sans-Serif" font-size="10.00">basesOnSpaces</text>
</g>
<!-- Node54 -->
<g id="node54" class="node">
<title>Node54</title>
<g id="a_node54"><a xlink:title=" ">
<polygon fill="white" stroke="#bfbfbf" points="1809.5,-886.72 1809.5,-927.72 1962.5,-927.72 1962.5,-886.72 1809.5,-886.72"/>
<text text-anchor="start" x="1817.5" y="-915.72" font-family="Helvetica,sans-Serif" font-size="10.00">array&lt; boost::ptr_vector</text>
<text text-anchor="start" x="1817.5" y="-904.72" font-family="Helvetica,sans-Serif" font-size="10.00">&lt; MoFEM::EntitiesFieldData</text>
<text text-anchor="middle" x="1886" y="-893.72" font-family="Helvetica,sans-Serif" font-size="10.00">::EntData &gt;, MBMAXTYPE &gt;</text>
</a>
</g>
</g>
<!-- Node54&#45;&gt;Node52 -->
<g id="edge65" class="edge">
<title>Node54&#45;&gt;Node52</title>
<path fill="none" stroke="#9a32cd" stroke-dasharray="5,2" d="M1972.85,-924.49C2026.59,-929.95 2093.31,-926.08 2135,-885.22 2161.34,-859.4 2127.97,-747.31 2153,-720.22 2160.97,-711.59 2171.55,-706.16 2182.85,-702.85"/>
<polygon fill="#9a32cd" stroke="#9a32cd" points="1972.96,-920.98 1962.63,-923.32 1972.17,-927.93 1972.96,-920.98"/>
<text text-anchor="middle" x="2063" y="-930.22" font-family="Helvetica,sans-Serif" font-size="10.00"> dataOnEntities</text>
</g>
<!-- Node55 -->
<g id="node55" class="node">
<title>Node55</title>
<g id="a_node55"><a xlink:title=" ">
<polygon fill="white" stroke="#bfbfbf" points="1799,-837.22 1799,-867.22 1973,-867.22 1973,-837.22 1799,-837.22"/>
<text text-anchor="start" x="1807" y="-855.22" font-family="Helvetica,sans-Serif" font-size="10.00">array&lt; std::bitset</text>
<text text-anchor="middle" x="1886" y="-844.22" font-family="Helvetica,sans-Serif" font-size="10.00">&lt; LASTSPACE &gt;, MBMAXTYPE &gt;</text>
</a>
</g>
</g>
<!-- Node55&#45;&gt;Node52 -->
<g id="edge66" class="edge">
<title>Node55&#45;&gt;Node52</title>
<path fill="none" stroke="#9a32cd" stroke-dasharray="5,2" d="M1969.08,-868.43C2023.01,-874.02 2091.41,-870.71 2135,-830.22 2171.3,-796.51 2118.42,-755.69 2153,-720.22 2161.14,-711.87 2171.73,-706.56 2182.97,-703.28"/>
<polygon fill="#9a32cd" stroke="#9a32cd" points="1969.17,-864.92 1958.84,-867.24 1968.37,-871.87 1969.17,-864.92"/>
<text text-anchor="middle" x="2063" y="-874.22" font-family="Helvetica,sans-Serif" font-size="10.00"> spacesOnEntities</text>
</g>
<!-- Node56 -->
<g id="node56" class="node">
<title>Node56</title>
<g id="a_node56"><a xlink:title=" ">
<polygon fill="white" stroke="#bfbfbf" points="1801.5,-788.22 1801.5,-818.22 1970.5,-818.22 1970.5,-788.22 1801.5,-788.22"/>
<text text-anchor="start" x="1809.5" y="-806.22" font-family="Helvetica,sans-Serif" font-size="10.00">array&lt; std::bitset</text>
<text text-anchor="middle" x="1886" y="-795.22" font-family="Helvetica,sans-Serif" font-size="10.00">&lt; LASTBASE &gt;, MBMAXTYPE &gt;</text>
</a>
</g>
</g>
<!-- Node56&#45;&gt;Node52 -->
<g id="edge67" class="edge">
<title>Node56&#45;&gt;Node52</title>
<path fill="none" stroke="#9a32cd" stroke-dasharray="5,2" d="M1980.56,-817.09C2031.5,-819.38 2092.59,-812.88 2135,-778.22 2155.9,-761.14 2132.87,-738.2 2153,-720.22 2161.44,-712.69 2171.91,-707.73 2182.86,-704.54"/>
<polygon fill="#9a32cd" stroke="#9a32cd" points="1980.7,-813.59 1970.52,-816.52 1980.31,-820.58 1980.7,-813.59"/>
<text text-anchor="middle" x="2063" y="-821.22" font-family="Helvetica,sans-Serif" font-size="10.00"> basesOnEntities</text>
</g>
<!-- Node57 -->
<g id="node57" class="node">
<title>Node57</title>
<g id="a_node57"><a xlink:title=" ">
<polygon fill="white" stroke="#bfbfbf" points="1830,-711.72 1830,-730.72 1942,-730.72 1942,-711.72 1830,-711.72"/>
<text text-anchor="middle" x="1886" y="-718.72" font-family="Helvetica,sans-Serif" font-size="10.00">UBlasMatrix&lt; int &gt;</text>
</a>
</g>
</g>
<!-- Node57&#45;&gt;Node52 -->
<g id="edge68" class="edge">
<title>Node57&#45;&gt;Node52</title>
<path fill="none" stroke="#9a32cd" stroke-dasharray="5,2" d="M1952.3,-717.65C2017.2,-714.11 2116.41,-708.68 2182.93,-705.05"/>
<polygon fill="#9a32cd" stroke="#9a32cd" points="1951.98,-714.16 1942.19,-718.2 1952.37,-721.15 1951.98,-714.16"/>
<text text-anchor="middle" x="2063" y="-730.22" font-family="Helvetica,sans-Serif" font-size="10.00"> facesNodesOrder</text>
<text text-anchor="middle" x="2063" y="-719.22" font-family="Helvetica,sans-Serif" font-size="10.00">facesNodes</text>
</g>
<!-- Node58 -->
<g id="node58" class="node">
<title>Node58</title>
<g id="a_node58"><a xlink:title=" ">
<polygon fill="white" stroke="#bfbfbf" points="1827.5,-673.72 1827.5,-692.72 1944.5,-692.72 1944.5,-673.72 1827.5,-673.72"/>
<text text-anchor="middle" x="1886" y="-680.72" font-family="Helvetica,sans-Serif" font-size="10.00">bitset&lt; LASTBASE &gt;</text>
</a>
</g>
</g>
<!-- Node58&#45;&gt;Node52 -->
<g id="edge69" class="edge">
<title>Node58&#45;&gt;Node52</title>
<path fill="none" stroke="#9a32cd" stroke-dasharray="5,2" d="M1954.74,-681.46C2004.64,-680.72 2074.13,-680.87 2135,-685.22 2154.18,-686.59 2174.99,-689.08 2193.73,-691.69"/>
<polygon fill="#9a32cd" stroke="#9a32cd" points="1954.65,-677.96 1944.71,-681.62 1954.77,-684.96 1954.65,-677.96"/>
<text text-anchor="middle" x="2063" y="-688.22" font-family="Helvetica,sans-Serif" font-size="10.00"> bAse</text>
</g>
<!-- Node59 -->
<g id="node59" class="node">
<title>Node59</title>
<g id="a_node59"><a xlink:title=" ">
<polygon fill="white" stroke="#bfbfbf" points="2191.5,-590.72 2191.5,-631.72 2316.5,-631.72 2316.5,-590.72 2191.5,-590.72"/>
<text text-anchor="start" x="2199.5" y="-619.72" font-family="Helvetica,sans-Serif" font-size="10.00">function&lt; int(int order</text>
<text text-anchor="start" x="2199.5" y="-608.72" font-family="Helvetica,sans-Serif" font-size="10.00">_row, int order_col, int</text>
<text text-anchor="middle" x="2254" y="-597.72" font-family="Helvetica,sans-Serif" font-size="10.00"> order_data)&gt;</text>
</a>
</g>
</g>
<!-- Node59&#45;&gt;Node3 -->
<g id="edge70" class="edge">
<title>Node59&#45;&gt;Node3</title>
<path fill="none" stroke="#9a32cd" stroke-dasharray="5,2" d="M2326.77,-597.28C2387.17,-589.56 2473.33,-588.37 2535,-628.22 2603.71,-672.62 2628.95,-779.28 2635.28,-812.3"/>
<polygon fill="#9a32cd" stroke="#9a32cd" points="2325.99,-593.85 2316.55,-598.67 2326.93,-600.79 2325.99,-593.85"/>
<text text-anchor="middle" x="2454" y="-631.22" font-family="Helvetica,sans-Serif" font-size="10.00"> getRuleHook</text>
</g>
<!-- Node60 -->
<g id="node60" class="node">
<title>Node60</title>
<g id="a_node60"><a xlink:title=" ">
<polygon fill="white" stroke="#bfbfbf" points="2193,-541.22 2193,-571.22 2315,-571.22 2315,-541.22 2193,-541.22"/>
<text text-anchor="start" x="2201" y="-559.22" font-family="Helvetica,sans-Serif" font-size="10.00">shared_ptr&lt; MoFEM::</text>
<text text-anchor="middle" x="2254" y="-548.22" font-family="Helvetica,sans-Serif" font-size="10.00">BaseFunction &gt;</text>
</a>
</g>
</g>
<!-- Node60&#45;&gt;Node3 -->
<g id="edge71" class="edge">
<title>Node60&#45;&gt;Node3</title>
<path fill="none" stroke="#9a32cd" stroke-dasharray="5,2" d="M2324.43,-539.37C2385.53,-528.77 2474.01,-524.16 2535,-567.22 2621.08,-628 2634.55,-773.88 2636.63,-812.63"/>
<polygon fill="#9a32cd" stroke="#9a32cd" points="2323.7,-535.95 2314.49,-541.19 2324.96,-542.84 2323.7,-535.95"/>
<text text-anchor="middle" x="2454" y="-581.22" font-family="Helvetica,sans-Serif" font-size="10.00"> userPolynomialBasePtr</text>
<text text-anchor="middle" x="2454" y="-570.22" font-family="Helvetica,sans-Serif" font-size="10.00">elementPolynomialBasePtr</text>
</g>
<!-- Node61 -->
<g id="node61" class="node">
<title>Node61</title>
<g id="a_node61"><a xlink:href="classUBlasMatrix_3_01double_01_4.html" target="_top" xlink:title=" ">
<polygon fill="white" stroke="black" points="2188,-964.72 2188,-983.72 2320,-983.72 2320,-964.72 2188,-964.72"/>
<text text-anchor="middle" x="2254" y="-971.72" font-family="Helvetica,sans-Serif" font-size="10.00">UBlasMatrix&lt; double &gt;</text>
</a>
</g>
</g>
<!-- Node61&#45;&gt;Node2 -->
<g id="edge82" class="edge">
<title>Node61&#45;&gt;Node2</title>
<path fill="none" stroke="#9a32cd" stroke-dasharray="5,2" d="M2330.17,-975.4C2422.91,-977.65 2585.23,-984.2 2723,-1003.22 2768.94,-1009.56 2784.54,-1002.56 2825,-1025.22 2862.52,-1046.24 2894.23,-1087.02 2909.58,-1109.12"/>
<polygon fill="#9a32cd" stroke="#9a32cd" points="2330.11,-971.9 2320.03,-975.16 2329.95,-978.9 2330.11,-971.9"/>
<text text-anchor="middle" x="2638" y="-1017.22" font-family="Helvetica,sans-Serif" font-size="10.00"> tangentAtGaussPts</text>
<text text-anchor="middle" x="2638" y="-1006.22" font-family="Helvetica,sans-Serif" font-size="10.00">normalsAtGaussPts</text>
</g>
<!-- Node61&#45;&gt;Node3 -->
<g id="edge72" class="edge">
<title>Node61&#45;&gt;Node3</title>
<path fill="none" stroke="#9a32cd" stroke-dasharray="5,2" d="M2306.95,-961.49C2323.15,-956.13 2340.55,-948.84 2355,-939.22 2364.95,-932.59 2362.45,-924.84 2373,-919.22 2437.18,-885.03 2467.58,-923.49 2535,-896.22 2573.13,-880.8 2610.27,-848.12 2627.3,-831.85"/>
<polygon fill="#9a32cd" stroke="#9a32cd" points="2305.56,-958.26 2297.06,-964.59 2307.65,-964.94 2305.56,-958.26"/>
<text text-anchor="middle" x="2454" y="-933.22" font-family="Helvetica,sans-Serif" font-size="10.00"> coordsAtGaussPts</text>
<text text-anchor="middle" x="2454" y="-922.22" font-family="Helvetica,sans-Serif" font-size="10.00">gaussPts</text>
</g>
<!-- Node62 -->
<g id="node62" class="node">
<title>Node62</title>
<g id="a_node62"><a xlink:href="classUBlasVector_3_01double_01_4.html" target="_top" xlink:title=" ">
<polygon fill="white" stroke="black" points="2572.5,-1152.72 2572.5,-1171.72 2703.5,-1171.72 2703.5,-1152.72 2572.5,-1152.72"/>
<text text-anchor="middle" x="2638" y="-1159.72" font-family="Helvetica,sans-Serif" font-size="10.00">UBlasVector&lt; double &gt;</text>
</a>
</g>
</g>
<!-- Node62&#45;&gt;Node2 -->
<g id="edge73" class="edge">
<title>Node62&#45;&gt;Node2</title>
<path fill="none" stroke="#9a32cd" stroke-dasharray="5,2" d="M2713.94,-1153.55C2747.89,-1149.47 2788.5,-1144.37 2825,-1139.22 2830.84,-1138.4 2836.88,-1137.51 2842.94,-1136.6"/>
<polygon fill="#9a32cd" stroke="#9a32cd" points="2713.15,-1150.12 2703.63,-1154.78 2713.98,-1157.07 2713.15,-1150.12"/>
<text text-anchor="middle" x="2783" y="-1163.22" font-family="Helvetica,sans-Serif" font-size="10.00"> dIrection</text>
<text text-anchor="middle" x="2783" y="-1152.22" font-family="Helvetica,sans-Serif" font-size="10.00">cOords</text>
</g>
<!-- Node63&#45;&gt;Node2 -->
<g id="edge78" class="edge">
<title>Node63&#45;&gt;Node2</title>
<path fill="none" stroke="#9a32cd" stroke-dasharray="5,2" d="M2730.25,-1124.22C2766.65,-1124.22 2808.08,-1124.22 2842.88,-1124.22"/>
<polygon fill="#9a32cd" stroke="#9a32cd" points="2730.13,-1120.72 2720.13,-1124.22 2730.13,-1127.72 2730.13,-1120.72"/>
<text text-anchor="middle" x="2783" y="-1127.22" font-family="Helvetica,sans-Serif" font-size="10.00"> tFaceOrientation</text>
</g>
<!-- Node64 -->
<g id="node64" class="node">
<title>Node64</title>
<g id="a_node64"><a xlink:href="classFTensor_1_1Tensor1.html" target="_top" xlink:title=" ">
<polygon fill="white" stroke="black" points="2195.5,-1106.22 2195.5,-1136.22 2312.5,-1136.22 2312.5,-1106.22 2195.5,-1106.22"/>
<text text-anchor="start" x="2203.5" y="-1124.22" font-family="Helvetica,sans-Serif" font-size="10.00">FTensor::Tensor1&lt; T,</text>
<text text-anchor="middle" x="2254" y="-1113.22" font-family="Helvetica,sans-Serif" font-size="10.00"> Tensor_Dim &gt;</text>
</a>
</g>
</g>
<!-- Node64&#45;&gt;Node63 -->
<g id="edge80" class="edge">
<title>Node64&#45;&gt;Node63</title>
<path fill="none" stroke="orange" stroke-dasharray="5,2" d="M2322.61,-1129.28C2339.08,-1130.92 2356.65,-1132.39 2373,-1133.22 2444.91,-1136.87 2463.07,-1136.39 2535,-1133.22 2541.75,-1132.92 2548.74,-1132.52 2555.76,-1132.04"/>
<polygon fill="orange" stroke="orange" points="2322.83,-1125.79 2312.53,-1128.25 2322.12,-1132.75 2322.83,-1125.79"/>
<text text-anchor="middle" x="2454" y="-1138.22" font-family="Helvetica,sans-Serif" font-size="10.00"> &lt; double, 3 &gt;</text>
</g>
<!-- Node65 -->
<g id="node65" class="node">
<title>Node65</title>
<g id="a_node65"><a xlink:title=" ">
<polygon fill="white" stroke="#bfbfbf" points="1871.5,-1101.72 1871.5,-1120.72 1900.5,-1120.72 1900.5,-1101.72 1871.5,-1101.72"/>
<text text-anchor="middle" x="1886" y="-1108.72" font-family="Helvetica,sans-Serif" font-size="10.00">T</text>
</a>
</g>
</g>
<!-- Node65&#45;&gt;Node64 -->
<g id="edge81" class="edge">
<title>Node65&#45;&gt;Node64</title>
<path fill="none" stroke="#9a32cd" stroke-dasharray="5,2" d="M1911.14,-1111.88C1968.44,-1113.45 2113.95,-1117.42 2195.45,-1119.65"/>
<polygon fill="#9a32cd" stroke="#9a32cd" points="1910.99,-1108.37 1900.9,-1111.6 1910.8,-1115.37 1910.99,-1108.37"/>
<text text-anchor="middle" x="2063" y="-1120.22" font-family="Helvetica,sans-Serif" font-size="10.00"> data</text>
</g>
</g>
</svg>
        <g id="navigator" transform="translate(0 0)" fill="#404254">
                <rect fill="#f2f5e9" fill-opacity="0.5" stroke="#606060" stroke-width=".5" x="0" y="0" width="60" height="60"/>
                <use id="zoomplus" xlink:href="#zoomPlus" x="17" y="9" onmousedown="handleZoom(evt,'in')"/>
                <use id="zoomminus" xlink:href="#zoomMin" x="42" y="9" onmousedown="handleZoom(evt,'out')"/>
                <use id="reset" xlink:href="#resetDef" x="30" y="36" onmousedown="handleReset()"/>
                <g id="arrowUp" xlink:href="#dirArrow" transform="translate(30 24)" onmousedown="handlePan(0,-1)">
                  <use xlink:href="#rim" fill="#404040">
                        <set attributeName="fill" to="#808080" begin="arrowUp.mouseover" end="arrowUp.mouseout"/>
                  </use>
                  <path fill="none" stroke="white" stroke-width="1.5" d="M0,-3.0v7 M-2.5,-0.5L0,-3.0L2.5,-0.5"/>
                </g>
                <g id="arrowRight" xlink:href="#dirArrow" transform="rotate(90) translate(36 -43)" onmousedown="handlePan(1,0)">
                  <use xlink:href="#rim" fill="#404040">
                        <set attributeName="fill" to="#808080" begin="arrowRight.mouseover" end="arrowRight.mouseout"/>
                  </use>
                  <path fill="none" stroke="white" stroke-width="1.5" d="M0,-3.0v7 M-2.5,-0.5L0,-3.0L2.5,-0.5"/>
                </g>
                <g id="arrowDown" xlink:href="#dirArrow" transform="rotate(180) translate(-30 -48)" onmousedown="handlePan(0,1)">
                  <use xlink:href="#rim" fill="#404040">
                        <set attributeName="fill" to="#808080" begin="arrowDown.mouseover" end="arrowDown.mouseout"/>
                  </use>
                  <path fill="none" stroke="white" stroke-width="1.5" d="M0,-3.0v7 M-2.5,-0.5L0,-3.0L2.5,-0.5"/>
                </g>
                <g id="arrowLeft" xlink:href="#dirArrow" transform="rotate(270) translate(-36 17)" onmousedown="handlePan(-1,0)">
                  <use xlink:href="#rim" fill="#404040">
                        <set attributeName="fill" to="#808080" begin="arrowLeft.mouseover" end="arrowLeft.mouseout"/>
                  </use>
                  <path fill="none" stroke="white" stroke-width="1.5" d="M0,-3.0v7 M-2.5,-0.5L0,-3.0L2.5,-0.5"/>
                </g>
        </g>
        <svg viewBox="0 0 15 15" width="100%" height="30px" preserveAspectRatio="xMaxYMin meet">
         <g id="arrow_out" transform="scale(0.3 0.3)">
          <a xlink:href="structEdgeSlidingConstrains_1_1MyEdgeFE__coll__graph_org.svg" target="_base">
           <rect id="button" ry="5" rx="5" y="6" x="6" height="38" width="38"
                fill="#f2f5e9" fill-opacity="0.5" stroke="#606060" stroke-width="1.0"/>
           <path id="arrow"
             d="M 11.500037,31.436501 C 11.940474,20.09759 22.043105,11.32322 32.158766,21.979434 L 37.068811,17.246167 C 37.068811,17.246167 37.088388,32 37.088388,32 L 22.160133,31.978069 C 22.160133,31.978069 26.997745,27.140456 26.997745,27.140456 C 18.528582,18.264221 13.291696,25.230495 11.500037,31.436501 z"
             style="fill:#404040;"/>
          </a>
         </g>
        </svg>
</svg>
