<?xml version="1.0" encoding="UTF-8" standalone="no"?>
<!DOCTYPE svg PUBLIC "-//W3C//DTD SVG 1.1//EN"
 "http://www.w3.org/Graphics/SVG/1.1/DTD/svg11.dtd">
<!-- Generated by graphviz version 2.43.0 (0)
 -->
<!-- Title: MoFEM::OpSetInvJacSpaceForFaceImpl&lt; 2, 1 &gt; Pages: 1 -->
<svg width="1176pt" height="308pt"
 viewBox="0.00 0.00 1176.00 308.00" xmlns="http://www.w3.org/2000/svg" xmlns:xlink="http://www.w3.org/1999/xlink">
<g id="graph0" class="graph" transform="scale(1 1) rotate(0) translate(4 304)">
<title>MoFEM::OpSetInvJacSpaceForFaceImpl&lt; 2, 1 &gt;</title>
<polygon fill="white" stroke="transparent" points="-4,4 -4,-304 1172,-304 1172,4 -4,4"/>
<!-- Node1 -->
<g id="node1" class="node">
<title>Node1</title>
<g id="a_node1"><a xlink:title=" ">
<polygon fill="#bfbfbf" stroke="black" points="561,-146.5 561,-176.5 722,-176.5 722,-146.5 561,-146.5"/>
<text text-anchor="start" x="569" y="-164.5" font-family="Helvetica,sans-Serif" font-size="10.00">MoFEM::OpSetInvJacSpaceFor</text>
<text text-anchor="middle" x="641.5" y="-153.5" font-family="Helvetica,sans-Serif" font-size="10.00">FaceImpl&lt; 2, 1 &gt;</text>
</a>
</g>
</g>
<!-- Node5 -->
<g id="node5" class="node">
<title>Node5</title>
<g id="a_node5"><a xlink:href="structMoFEM_1_1OpBaseDerivativesSetHOInvJacobian_3_012_01_4.html" target="_top" xlink:title=" ">
<polygon fill="white" stroke="black" points="768.5,-269.5 768.5,-299.5 920.5,-299.5 920.5,-269.5 768.5,-269.5"/>
<text text-anchor="start" x="776.5" y="-287.5" font-family="Helvetica,sans-Serif" font-size="10.00">MoFEM::OpBaseDerivatives</text>
<text text-anchor="middle" x="844.5" y="-276.5" font-family="Helvetica,sans-Serif" font-size="10.00">SetHOInvJacobian&lt; 2 &gt;</text>
</a>
</g>
</g>
<!-- Node1&#45;&gt;Node5 -->
<g id="edge4" class="edge">
<title>Node1&#45;&gt;Node5</title>
<path fill="none" stroke="midnightblue" d="M662.92,-183.99C684.48,-206.45 720.5,-240.44 758,-260.5 764.39,-263.92 771.32,-266.89 778.36,-269.46"/>
<polygon fill="midnightblue" stroke="midnightblue" points="665.32,-181.44 655.91,-176.57 660.23,-186.24 665.32,-181.44"/>
</g>
<!-- Node6 -->
<g id="node6" class="node">
<title>Node6</title>
<g id="a_node6"><a xlink:href="structMoFEM_1_1OpSetHOInvJacToScalarBases_3_012_01_4.html" target="_top" xlink:title=" ">
<polygon fill="white" stroke="black" points="758,-220.5 758,-250.5 931,-250.5 931,-220.5 758,-220.5"/>
<text text-anchor="start" x="766" y="-238.5" font-family="Helvetica,sans-Serif" font-size="10.00">MoFEM::OpSetHOInvJacToScalar</text>
<text text-anchor="middle" x="844.5" y="-227.5" font-family="Helvetica,sans-Serif" font-size="10.00">Bases&lt; 2 &gt;</text>
</a>
</g>
</g>
<!-- Node1&#45;&gt;Node6 -->
<g id="edge5" class="edge">
<title>Node1&#45;&gt;Node6</title>
<path fill="none" stroke="midnightblue" d="M683.68,-180.94C705.49,-190.82 732.89,-202.59 758,-211.5 766.86,-214.65 776.36,-217.66 785.68,-220.41"/>
<polygon fill="midnightblue" stroke="midnightblue" points="684.95,-177.67 674.4,-176.69 682.03,-184.03 684.95,-177.67"/>
</g>
<!-- Node7 -->
<g id="node7" class="node">
<title>Node7</title>
<g id="a_node7"><a xlink:href="structMoFEM_1_1OpSetInvJacH1ForFace.html" target="_top" xlink:title=" ">
<polygon fill="white" stroke="black" points="761,-171.5 761,-201.5 928,-201.5 928,-171.5 761,-171.5"/>
<text text-anchor="start" x="769" y="-189.5" font-family="Helvetica,sans-Serif" font-size="10.00">MoFEM::OpSetInvJacH1ForFace</text>
<text text-anchor="middle" x="844.5" y="-178.5" font-family="Helvetica,sans-Serif" font-size="10.00">&lt; DERIVARIVE &gt;</text>
</a>
</g>
</g>
<!-- Node1&#45;&gt;Node7 -->
<g id="edge6" class="edge">
<title>Node1&#45;&gt;Node7</title>
<path fill="none" stroke="midnightblue" d="M732.44,-172.69C741.92,-173.87 751.52,-175.06 760.9,-176.23"/>
<polygon fill="midnightblue" stroke="midnightblue" points="732.58,-169.18 722.23,-171.42 731.72,-176.12 732.58,-169.18"/>
</g>
<!-- Node8 -->
<g id="node8" class="node">
<title>Node8</title>
<g id="a_node8"><a xlink:href="structMoFEM_1_1OpSetInvJacL2ForFace.html" target="_top" xlink:title=" ">
<polygon fill="white" stroke="black" points="762,-122.5 762,-152.5 927,-152.5 927,-122.5 762,-122.5"/>
<text text-anchor="start" x="770" y="-140.5" font-family="Helvetica,sans-Serif" font-size="10.00">MoFEM::OpSetInvJacL2ForFace</text>
<text text-anchor="middle" x="844.5" y="-129.5" font-family="Helvetica,sans-Serif" font-size="10.00">&lt; DERIVARIVE &gt;</text>
</a>
</g>
</g>
<!-- Node1&#45;&gt;Node8 -->
<g id="edge7" class="edge">
<title>Node1&#45;&gt;Node8</title>
<path fill="none" stroke="midnightblue" d="M732.4,-150.77C742.22,-149.59 752.18,-148.4 761.89,-147.24"/>
<polygon fill="midnightblue" stroke="midnightblue" points="731.74,-147.32 722.23,-151.98 732.57,-154.27 731.74,-147.32"/>
</g>
<!-- Node9 -->
<g id="node9" class="node">
<title>Node9</title>
<g id="a_node9"><a xlink:href="structMoFEM_1_1OpSetInvJacSpaceForFaceImpl_3_012_00_012_01_4.html" target="_top" xlink:title=" ">
<polygon fill="white" stroke="black" points="764,-73.5 764,-103.5 925,-103.5 925,-73.5 764,-73.5"/>
<text text-anchor="start" x="772" y="-91.5" font-family="Helvetica,sans-Serif" font-size="10.00">MoFEM::OpSetInvJacSpaceFor</text>
<text text-anchor="middle" x="844.5" y="-80.5" font-family="Helvetica,sans-Serif" font-size="10.00">FaceImpl&lt; 2, 2 &gt;</text>
</a>
</g>
</g>
<!-- Node1&#45;&gt;Node9 -->
<g id="edge8" class="edge">
<title>Node1&#45;&gt;Node9</title>
<path fill="none" stroke="midnightblue" d="M684.19,-142.29C705.93,-132.67 733.11,-121.23 758,-112.5 767.02,-109.34 776.69,-106.3 786.16,-103.51"/>
<polygon fill="midnightblue" stroke="midnightblue" points="682.62,-139.16 674.92,-146.43 685.48,-145.55 682.62,-139.16"/>
</g>
<!-- Node10 -->
<g id="node10" class="node">
<title>Node10</title>
<g id="a_node10"><a xlink:href="structMoFEM_1_1OpSetInvJacSpaceForFaceImpl_3_013_00_011_01_4.html" target="_top" xlink:title=" ">
<polygon fill="white" stroke="black" points="764,-24.5 764,-54.5 925,-54.5 925,-24.5 764,-24.5"/>
<text text-anchor="start" x="772" y="-42.5" font-family="Helvetica,sans-Serif" font-size="10.00">MoFEM::OpSetInvJacSpaceFor</text>
<text text-anchor="middle" x="844.5" y="-31.5" font-family="Helvetica,sans-Serif" font-size="10.00">FaceImpl&lt; 3, 1 &gt;</text>
</a>
</g>
</g>
<!-- Node1&#45;&gt;Node10 -->
<g id="edge9" class="edge">
<title>Node1&#45;&gt;Node10</title>
<path fill="none" stroke="midnightblue" d="M663.32,-138.88C684.96,-116.65 720.82,-83.27 758,-63.5 764.4,-60.1 771.33,-57.14 778.38,-54.57"/>
<polygon fill="midnightblue" stroke="midnightblue" points="660.67,-136.59 656.28,-146.23 665.72,-141.43 660.67,-136.59"/>
</g>
<!-- Node2 -->
<g id="node2" class="node">
<title>Node2</title>
<g id="a_node2"><a xlink:href="structMoFEM_1_1OpSetInvJacToScalarBasesBasic.html" target="_top" xlink:title=" ">
<polygon fill="white" stroke="black" points="367,-146.5 367,-176.5 525,-176.5 525,-146.5 367,-146.5"/>
<text text-anchor="start" x="375" y="-164.5" font-family="Helvetica,sans-Serif" font-size="10.00">MoFEM::OpSetInvJacToScalar</text>
<text text-anchor="middle" x="446" y="-153.5" font-family="Helvetica,sans-Serif" font-size="10.00">BasesBasic</text>
</a>
</g>
</g>
<!-- Node2&#45;&gt;Node1 -->
<g id="edge1" class="edge">
<title>Node2&#45;&gt;Node1</title>
<path fill="none" stroke="midnightblue" d="M535.41,-161.5C543.88,-161.5 552.43,-161.5 560.8,-161.5"/>
<polygon fill="midnightblue" stroke="midnightblue" points="535.15,-158 525.15,-161.5 535.15,-165 535.15,-158"/>
</g>
<!-- Node3 -->
<g id="node3" class="node">
<title>Node3</title>
<g id="a_node3"><a xlink:href="structMoFEM_1_1ForcesAndSourcesCore_1_1UserDataOperator.html" target="_top" xlink:title=" ">
<polygon fill="white" stroke="black" points="161,-146.5 161,-176.5 331,-176.5 331,-146.5 161,-146.5"/>
<text text-anchor="start" x="169" y="-164.5" font-family="Helvetica,sans-Serif" font-size="10.00">MoFEM::ForcesAndSourcesCore</text>
<text text-anchor="middle" x="246" y="-153.5" font-family="Helvetica,sans-Serif" font-size="10.00">::UserDataOperator</text>
</a>
</g>
</g>
<!-- Node3&#45;&gt;Node2 -->
<g id="edge2" class="edge">
<title>Node3&#45;&gt;Node2</title>
<path fill="none" stroke="midnightblue" d="M341.53,-161.5C349.99,-161.5 358.49,-161.5 366.79,-161.5"/>
<polygon fill="midnightblue" stroke="midnightblue" points="341.26,-158 331.26,-161.5 341.26,-165 341.26,-158"/>
</g>
<!-- Node4 -->
<g id="node4" class="node">
<title>Node4</title>
<g id="a_node4"><a xlink:href="structMoFEM_1_1DataOperator.html" target="_top" xlink:title="base operator to do operations at Gauss Pt. level">
<polygon fill="white" stroke="black" points="0,-152 0,-171 125,-171 125,-152 0,-152"/>
<text text-anchor="middle" x="62.5" y="-159" font-family="Helvetica,sans-Serif" font-size="10.00">MoFEM::DataOperator</text>
</a>
</g>
</g>
<!-- Node4&#45;&gt;Node3 -->
<g id="edge3" class="edge">
<title>Node4&#45;&gt;Node3</title>
<path fill="none" stroke="midnightblue" d="M135.34,-161.5C143.75,-161.5 152.4,-161.5 160.97,-161.5"/>
<polygon fill="midnightblue" stroke="midnightblue" points="135.2,-158 125.2,-161.5 135.2,-165 135.2,-158"/>
</g>
<!-- Node11 -->
<g id="node11" class="node">
<title>Node11</title>
<g id="a_node11"><a xlink:href="structMoFEM_1_1OpSetInvJacH1ForFaceEmbeddedIn3DSpace.html" target="_top" xlink:title=" ">
<polygon fill="white" stroke="black" points="967,-49.5 967,-79.5 1168,-79.5 1168,-49.5 967,-49.5"/>
<text text-anchor="start" x="975" y="-67.5" font-family="Helvetica,sans-Serif" font-size="10.00">MoFEM::OpSetInvJacH1ForFace</text>
<text text-anchor="middle" x="1067.5" y="-56.5" font-family="Helvetica,sans-Serif" font-size="10.00">EmbeddedIn3DSpace&lt; DERIVARIVE &gt;</text>
</a>
</g>
</g>
<!-- Node10&#45;&gt;Node11 -->
<g id="edge10" class="edge">
<title>Node10&#45;&gt;Node11</title>
<path fill="none" stroke="midnightblue" d="M935.5,-49.68C945.82,-50.85 956.38,-52.04 966.81,-53.22"/>
<polygon fill="midnightblue" stroke="midnightblue" points="935.62,-46.17 925.29,-48.53 934.83,-53.13 935.62,-46.17"/>
</g>
<!-- Node12 -->
<g id="node12" class="node">
<title>Node12</title>
<g id="a_node12"><a xlink:href="structMoFEM_1_1OpSetInvJacL2ForFaceEmbeddedIn3DSpace.html" target="_top" xlink:title=" ">
<polygon fill="white" stroke="black" points="967,-0.5 967,-30.5 1168,-30.5 1168,-0.5 967,-0.5"/>
<text text-anchor="start" x="975" y="-18.5" font-family="Helvetica,sans-Serif" font-size="10.00">MoFEM::OpSetInvJacL2ForFace</text>
<text text-anchor="middle" x="1067.5" y="-7.5" font-family="Helvetica,sans-Serif" font-size="10.00">EmbeddedIn3DSpace&lt; DERIVARIVE &gt;</text>
</a>
</g>
</g>
<!-- Node10&#45;&gt;Node12 -->
<g id="edge11" class="edge">
<title>Node10&#45;&gt;Node12</title>
<path fill="none" stroke="midnightblue" d="M935.5,-29.73C945.82,-28.61 956.38,-27.46 966.81,-26.33"/>
<polygon fill="midnightblue" stroke="midnightblue" points="934.85,-26.28 925.29,-30.84 935.61,-33.24 934.85,-26.28"/>
</g>
</g>
</svg>
