<?xml version="1.0" encoding="UTF-8" standalone="no"?>
<!DOCTYPE svg PUBLIC "-//W3C//DTD SVG 1.1//EN"
 "http://www.w3.org/Graphics/SVG/1.1/DTD/svg11.dtd">
<!-- Generated by graphviz version 2.43.0 (0)
 -->
<!-- Title: PlasticOps::OpCalculatePlasticInternalForceLhs_LogStrain_dEPImpl&lt; DIM, GAUSS, AssemblyDomainEleOp &gt; Pages: 1 -->
<svg width="544pt" height="206pt"
 viewBox="0.00 0.00 544.00 205.50" xmlns="http://www.w3.org/2000/svg" xmlns:xlink="http://www.w3.org/1999/xlink">
<g id="graph0" class="graph" transform="scale(1 1) rotate(0) translate(4 201.5)">
<title>PlasticOps::OpCalculatePlasticInternalForceLhs_LogStrain_dEPImpl&lt; DIM, GAUSS, AssemblyDomainEleOp &gt;</title>
<polygon fill="white" stroke="transparent" points="-4,4 -4,-201.5 540,-201.5 540,4 -4,4"/>
<!-- Node1 -->
<g id="node1" class="node">
<title>Node1</title>
<g id="a_node1"><a xlink:title=" ">
<polygon fill="#bfbfbf" stroke="black" points="312,-78.5 312,-130.5 536,-130.5 536,-78.5 312,-78.5"/>
<text text-anchor="start" x="320" y="-118.5" font-family="Helvetica,sans-Serif" font-size="10.00">PlasticOps::OpCalculatePlastic</text>
<text text-anchor="start" x="320" y="-107.5" font-family="Helvetica,sans-Serif" font-size="10.00">InternalForceLhs_LogStrain</text>
<text text-anchor="start" x="320" y="-96.5" font-family="Helvetica,sans-Serif" font-size="10.00">_dEPImpl&lt; DIM, GAUSS, AssemblyDomain</text>
<text text-anchor="middle" x="424" y="-85.5" font-family="Helvetica,sans-Serif" font-size="10.00">EleOp &gt;</text>
</a>
</g>
</g>
<!-- Node2 -->
<g id="node2" class="node">
<title>Node2</title>
<g id="a_node2"><a xlink:href="classAssemblyDomainEleOp.html" target="_top" xlink:title=" ">
<polygon fill="white" stroke="black" points="13,-178 13,-197 144,-197 144,-178 13,-178"/>
<text text-anchor="middle" x="78.5" y="-185" font-family="Helvetica,sans-Serif" font-size="10.00">AssemblyDomainEleOp</text>
</a>
</g>
</g>
<!-- Node2&#45;&gt;Node1 -->
<g id="edge1" class="edge">
<title>Node2&#45;&gt;Node1</title>
<path fill="none" stroke="midnightblue" d="M154.17,-180.6C195.8,-175.7 248.31,-167.77 294,-155.5 317.84,-149.1 343.27,-139.65 365.19,-130.62"/>
<polygon fill="midnightblue" stroke="midnightblue" points="153.65,-177.14 144.11,-181.75 154.44,-184.09 153.65,-177.14"/>
</g>
<!-- Node3 -->
<g id="node3" class="node">
<title>Node3</title>
<g id="a_node3"><a xlink:title=" ">
<polygon fill="white" stroke="#bfbfbf" points="0,-140 0,-159 157,-159 157,-140 0,-140"/>
<text text-anchor="middle" x="78.5" y="-147" font-family="Helvetica,sans-Serif" font-size="10.00">shared_ptr&lt; MatrixDouble &gt;</text>
</a>
</g>
</g>
<!-- Node3&#45;&gt;Node1 -->
<g id="edge2" class="edge">
<title>Node3&#45;&gt;Node1</title>
<path fill="none" stroke="#9a32cd" stroke-dasharray="5,2" d="M167.35,-141.97C206.24,-138.26 252.48,-133.32 294,-127.5 299.86,-126.68 305.86,-125.79 311.91,-124.85"/>
<polygon fill="#9a32cd" stroke="#9a32cd" points="166.74,-138.52 157.11,-142.94 167.39,-145.49 166.74,-138.52"/>
<text text-anchor="middle" x="234.5" y="-143.5" font-family="Helvetica,sans-Serif" font-size="10.00"> mDPtr</text>
</g>
<!-- Node4 -->
<g id="node4" class="node">
<title>Node4</title>
<g id="a_node4"><a xlink:title=" ">
<polygon fill="white" stroke="#bfbfbf" points="37,-99 37,-118 120,-118 120,-99 37,-99"/>
<text text-anchor="middle" x="78.5" y="-106" font-family="Helvetica,sans-Serif" font-size="10.00">MatrixDouble</text>
</a>
</g>
</g>
<!-- Node4&#45;&gt;Node1 -->
<g id="edge3" class="edge">
<title>Node4&#45;&gt;Node1</title>
<path fill="none" stroke="#9a32cd" stroke-dasharray="5,2" d="M130.59,-106.64C144.95,-106.18 160.59,-105.76 175,-105.5 219.77,-104.71 269.1,-104.39 311.88,-104.3"/>
<polygon fill="#9a32cd" stroke="#9a32cd" points="130.27,-103.15 120.39,-106.97 130.5,-110.14 130.27,-103.15"/>
<text text-anchor="middle" x="234.5" y="-119.5" font-family="Helvetica,sans-Serif" font-size="10.00"> locMat</text>
<text text-anchor="middle" x="234.5" y="-108.5" font-family="Helvetica,sans-Serif" font-size="10.00">resDiff</text>
</g>
<!-- Node5 -->
<g id="node5" class="node">
<title>Node5</title>
<g id="a_node5"><a xlink:title=" ">
<polygon fill="white" stroke="#bfbfbf" points="13,-49.5 13,-79.5 144,-79.5 144,-49.5 13,-49.5"/>
<text text-anchor="start" x="21" y="-67.5" font-family="Helvetica,sans-Serif" font-size="10.00">shared_ptr&lt; PlasticOps</text>
<text text-anchor="middle" x="78.5" y="-56.5" font-family="Helvetica,sans-Serif" font-size="10.00">::CommonData &gt;</text>
</a>
</g>
</g>
<!-- Node5&#45;&gt;Node1 -->
<g id="edge4" class="edge">
<title>Node5&#45;&gt;Node1</title>
<path fill="none" stroke="#9a32cd" stroke-dasharray="5,2" d="M154.26,-72.64C195.49,-77.19 247.59,-83.03 294,-88.5 299.83,-89.19 305.8,-89.9 311.83,-90.63"/>
<polygon fill="#9a32cd" stroke="#9a32cd" points="154.61,-69.16 144.29,-71.54 153.85,-76.12 154.61,-69.16"/>
<text text-anchor="middle" x="234.5" y="-91.5" font-family="Helvetica,sans-Serif" font-size="10.00"> commonDataPtr</text>
</g>
<!-- Node6 -->
<g id="node6" class="node">
<title>Node6</title>
<g id="a_node6"><a xlink:title=" ">
<polygon fill="white" stroke="#bfbfbf" points="11.5,-0.5 11.5,-30.5 145.5,-30.5 145.5,-0.5 11.5,-0.5"/>
<text text-anchor="start" x="19.5" y="-18.5" font-family="Helvetica,sans-Serif" font-size="10.00">shared_ptr&lt; HenckyOps</text>
<text text-anchor="middle" x="78.5" y="-7.5" font-family="Helvetica,sans-Serif" font-size="10.00">::CommonData &gt;</text>
</a>
</g>
</g>
<!-- Node6&#45;&gt;Node1 -->
<g id="edge5" class="edge">
<title>Node6&#45;&gt;Node1</title>
<path fill="none" stroke="#9a32cd" stroke-dasharray="5,2" d="M155.74,-28.58C196.98,-36.29 248.63,-46.99 294,-59.5 313.67,-64.92 334.68,-71.78 353.91,-78.49"/>
<polygon fill="#9a32cd" stroke="#9a32cd" points="156.23,-25.11 145.76,-26.73 154.95,-31.99 156.23,-25.11"/>
<text text-anchor="middle" x="234.5" y="-62.5" font-family="Helvetica,sans-Serif" font-size="10.00"> commonHenckyDataPtr</text>
</g>
</g>
</svg>
