<?xml version="1.0" encoding="UTF-8" standalone="no"?>
<!DOCTYPE svg PUBLIC "-//W3C//DTD SVG 1.1//EN"
 "http://www.w3.org/Graphics/SVG/1.1/DTD/svg11.dtd">
<!-- Generated by graphviz version 2.43.0 (0)
 -->
<!-- Title: SimpleContactProblem::ConvectMasterContactElement Pages: 1 -->
<svg width="1057pt" height="94pt"
 viewBox="0.00 0.00 1057.00 93.50" xmlns="http://www.w3.org/2000/svg" xmlns:xlink="http://www.w3.org/1999/xlink">
<g id="graph0" class="graph" transform="scale(1 1) rotate(0) translate(4 89.5)">
<title>SimpleContactProblem::ConvectMasterContactElement</title>
<polygon fill="white" stroke="transparent" points="-4,4 -4,-89.5 1053,-89.5 1053,4 -4,4"/>
<!-- Node1 -->
<g id="node1" class="node">
<title>Node1</title>
<g id="a_node1"><a xlink:title="Element used to integrate on slave surfaces. It convects integration points on slaves,...">
<polygon fill="#bfbfbf" stroke="black" points="275,-24.5 275,-54.5 449,-54.5 449,-24.5 275,-24.5"/>
<text text-anchor="start" x="283" y="-42.5" font-family="Helvetica,sans-Serif" font-size="10.00">SimpleContactProblem</text>
<text text-anchor="middle" x="362" y="-31.5" font-family="Helvetica,sans-Serif" font-size="10.00">::ConvectMasterContactElement</text>
</a>
</g>
</g>
<!-- Node4 -->
<g id="node4" class="node">
<title>Node4</title>
<g id="a_node4"><a xlink:href="structMortarContactProblem_1_1MortarContactElement.html" target="_top" xlink:title=" ">
<polygon fill="white" stroke="black" points="502,-49.5 502,-79.5 635,-79.5 635,-49.5 502,-49.5"/>
<text text-anchor="start" x="510" y="-67.5" font-family="Helvetica,sans-Serif" font-size="10.00">MortarContactProblem</text>
<text text-anchor="middle" x="568.5" y="-56.5" font-family="Helvetica,sans-Serif" font-size="10.00">::MortarContactElement</text>
</a>
</g>
</g>
<!-- Node1&#45;&gt;Node4 -->
<g id="edge3" class="edge">
<title>Node1&#45;&gt;Node4</title>
<path fill="none" stroke="midnightblue" d="M459.14,-51.25C473.64,-53.03 488.31,-54.82 501.98,-56.49"/>
<polygon fill="midnightblue" stroke="midnightblue" points="459.48,-47.77 449.13,-50.03 458.64,-54.72 459.48,-47.77"/>
</g>
<!-- Node7 -->
<g id="node7" class="node">
<title>Node7</title>
<g id="a_node7"><a xlink:href="structSimpleContactProblem_1_1ConvectSlaveContactElement.html" target="_top" xlink:title="Element used to integrate on master surfaces. It convects integration points on slaves,...">
<polygon fill="white" stroke="black" points="485,-0.5 485,-30.5 652,-30.5 652,-0.5 485,-0.5"/>
<text text-anchor="start" x="493" y="-18.5" font-family="Helvetica,sans-Serif" font-size="10.00">SimpleContactProblem</text>
<text text-anchor="middle" x="568.5" y="-7.5" font-family="Helvetica,sans-Serif" font-size="10.00">::ConvectSlaveContactElement</text>
</a>
</g>
</g>
<!-- Node1&#45;&gt;Node7 -->
<g id="edge6" class="edge">
<title>Node1&#45;&gt;Node7</title>
<path fill="none" stroke="midnightblue" d="M459.14,-28.22C467.69,-27.21 476.3,-26.2 484.73,-25.21"/>
<polygon fill="midnightblue" stroke="midnightblue" points="458.66,-24.75 449.13,-29.39 459.47,-31.7 458.66,-24.75"/>
</g>
<!-- Node2 -->
<g id="node2" class="node">
<title>Node2</title>
<g id="a_node2"><a xlink:href="structSimpleContactProblem_1_1SimpleContactElement.html" target="_top" xlink:title=" ">
<polygon fill="white" stroke="black" points="105,-24.5 105,-54.5 239,-54.5 239,-24.5 105,-24.5"/>
<text text-anchor="start" x="113" y="-42.5" font-family="Helvetica,sans-Serif" font-size="10.00">SimpleContactProblem</text>
<text text-anchor="middle" x="172" y="-31.5" font-family="Helvetica,sans-Serif" font-size="10.00">::SimpleContactElement</text>
</a>
</g>
</g>
<!-- Node2&#45;&gt;Node1 -->
<g id="edge1" class="edge">
<title>Node2&#45;&gt;Node1</title>
<path fill="none" stroke="midnightblue" d="M249.15,-39.5C257.56,-39.5 266.16,-39.5 274.68,-39.5"/>
<polygon fill="midnightblue" stroke="midnightblue" points="249.02,-36 239.02,-39.5 249.02,-43 249.02,-36"/>
</g>
<!-- Node3 -->
<g id="node3" class="node">
<title>Node3</title>
<g id="a_node3"><a xlink:href="classContactEle.html" target="_top" xlink:title=" ">
<polygon fill="white" stroke="black" points="0,-30 0,-49 69,-49 69,-30 0,-30"/>
<text text-anchor="middle" x="34.5" y="-37" font-family="Helvetica,sans-Serif" font-size="10.00">ContactEle</text>
</a>
</g>
</g>
<!-- Node3&#45;&gt;Node2 -->
<g id="edge2" class="edge">
<title>Node3&#45;&gt;Node2</title>
<path fill="none" stroke="midnightblue" d="M79.35,-39.5C87.5,-39.5 96.18,-39.5 104.83,-39.5"/>
<polygon fill="midnightblue" stroke="midnightblue" points="79.34,-36 69.34,-39.5 79.34,-43 79.34,-36"/>
</g>
<!-- Node5 -->
<g id="node5" class="node">
<title>Node5</title>
<g id="a_node5"><a xlink:href="structMortarContactProblem_1_1MortarConvectMasterContactElement.html" target="_top" xlink:title="Element used to integrate on slave surfaces. It convects integration points on slaves,...">
<polygon fill="white" stroke="black" points="688,-44 688,-85 854,-85 854,-44 688,-44"/>
<text text-anchor="start" x="696" y="-73" font-family="Helvetica,sans-Serif" font-size="10.00">MortarContactProblem</text>
<text text-anchor="start" x="696" y="-62" font-family="Helvetica,sans-Serif" font-size="10.00">::MortarConvectMasterContact</text>
<text text-anchor="middle" x="771" y="-51" font-family="Helvetica,sans-Serif" font-size="10.00">Element</text>
</a>
</g>
</g>
<!-- Node4&#45;&gt;Node5 -->
<g id="edge4" class="edge">
<title>Node4&#45;&gt;Node5</title>
<path fill="none" stroke="midnightblue" d="M645.55,-64.5C659.33,-64.5 673.76,-64.5 687.71,-64.5"/>
<polygon fill="midnightblue" stroke="midnightblue" points="645.15,-61 635.15,-64.5 645.15,-68 645.15,-61"/>
</g>
<!-- Node6 -->
<g id="node6" class="node">
<title>Node6</title>
<g id="a_node6"><a xlink:href="structMortarContactProblem_1_1MortarConvectSlaveContactElement.html" target="_top" xlink:title="Element used to integrate on master surfaces. It convects integration points on slaves,...">
<polygon fill="white" stroke="black" points="890,-44 890,-85 1049,-85 1049,-44 890,-44"/>
<text text-anchor="start" x="898" y="-73" font-family="Helvetica,sans-Serif" font-size="10.00">MortarContactProblem</text>
<text text-anchor="start" x="898" y="-62" font-family="Helvetica,sans-Serif" font-size="10.00">::MortarConvectSlaveContact</text>
<text text-anchor="middle" x="969.5" y="-51" font-family="Helvetica,sans-Serif" font-size="10.00">Element</text>
</a>
</g>
</g>
<!-- Node5&#45;&gt;Node6 -->
<g id="edge5" class="edge">
<title>Node5&#45;&gt;Node6</title>
<path fill="none" stroke="midnightblue" d="M864.47,-64.5C872.93,-64.5 881.45,-64.5 889.78,-64.5"/>
<polygon fill="midnightblue" stroke="midnightblue" points="864.2,-61 854.2,-64.5 864.2,-68 864.2,-61"/>
</g>
</g>
</svg>
