<?xml version="1.0" encoding="UTF-8" standalone="no"?>
<!DOCTYPE svg PUBLIC "-//W3C//DTD SVG 1.1//EN"
 "http://www.w3.org/Graphics/SVG/1.1/DTD/svg11.dtd">
<!-- Generated by graphviz version 2.43.0 (0)
 -->
<!-- Title: NeumannForcesSurface::OpNeumannSurfaceForceMaterialVolOnSideLhs_dX_dX Pages: 1 -->
<!--zoomable 1485 -->
<svg id="main" version="1.1" xmlns="http://www.w3.org/2000/svg" xmlns:xlink="http://www.w3.org/1999/xlink" xml:space="preserve" onload="init(evt)">
<style type="text/css"><![CDATA[
.edge:hover path { stroke: red; }
.edge:hover polygon { stroke: red; fill: red; }
]]></style>
<script type="text/javascript"><![CDATA[
var edges = document.getElementsByTagName('g');
if (edges && edges.length) {
  for (var i=0;i<edges.length;i++) {
    if (edges[i].id.substr(0,4)=='edge') {
      edges[i].setAttribute('class','edge');
    }
  }
}
]]></script>
        <defs>
                <circle id="rim" cx="0" cy="0" r="7"/>
                <circle id="rim2" cx="0" cy="0" r="3.5"/>
                <g id="zoomPlus">
                        <use xlink:href="#rim" fill="#404040">
                                <set attributeName="fill" to="#808080" begin="zoomplus.mouseover" end="zoomplus.mouseout"/>
                        </use>
                        <path d="M-4,0h8M0,-4v8" fill="none" stroke="white" stroke-width="1.5" pointer-events="none"/>
                </g>
                <g id="zoomMin">
                        <use xlink:href="#rim" fill="#404040">
                                <set attributeName="fill" to="#808080" begin="zoomminus.mouseover" end="zoomminus.mouseout"/>
                        </use>
                        <path d="M-4,0h8" fill="none" stroke="white" stroke-width="1.5" pointer-events="none"/>
                </g>
                <g id="dirArrow">
                        <path fill="none" stroke="white" stroke-width="1.5" d="M0,-3.0v7 M-2.5,-0.5L0,-3.0L2.5,-0.5"/>
                </g>
               <g id="resetDef">
                       <use xlink:href="#rim2" fill="#404040">
                               <set attributeName="fill" to="#808080" begin="reset.mouseover" end="reset.mouseout"/>
                       </use>
               </g>
        </defs>

<script type="text/javascript">
var viewWidth = 4053;
var viewHeight = 1485;
var sectionId = 'dynsection-1';
</script>
<script xlink:href="svgpan.js"/>
<svg id="graph" class="graph">
<g id="viewport">
<title>NeumannForcesSurface::OpNeumannSurfaceForceMaterialVolOnSideLhs_dX_dX</title>
<polygon fill="white" stroke="transparent" points="-4,4 -4,-1481 4049,-1481 4049,4 -4,4"/>
<!-- Node1 -->
<g id="node1" class="node">
<title>Node1</title>
<g id="a_node1"><a xlink:title="LHS&#45;operator (material configuration) on the side volume.">
<polygon fill="#bfbfbf" stroke="black" points="3858,-779.5 3858,-820.5 4045,-820.5 4045,-779.5 3858,-779.5"/>
<text text-anchor="start" x="3866" y="-808.5" font-family="Helvetica,sans-Serif" font-size="10.00">NeumannForcesSurface</text>
<text text-anchor="start" x="3866" y="-797.5" font-family="Helvetica,sans-Serif" font-size="10.00">::OpNeumannSurfaceForceMaterial</text>
<text text-anchor="middle" x="3951.5" y="-786.5" font-family="Helvetica,sans-Serif" font-size="10.00">VolOnSideLhs_dX_dX</text>
</a>
</g>
</g>
<!-- Node2 -->
<g id="node2" class="node">
<title>Node2</title>
<g id="a_node2"><a xlink:href="structNeumannForcesSurface_1_1OpNeumannSurfaceForceMaterialVolOnSideLhs.html" target="_top" xlink:title="Base class for LHS&#45;operators (material) on side volumes.">
<polygon fill="white" stroke="black" points="3634,-779.5 3634,-820.5 3821,-820.5 3821,-779.5 3634,-779.5"/>
<text text-anchor="start" x="3642" y="-808.5" font-family="Helvetica,sans-Serif" font-size="10.00">NeumannForcesSurface</text>
<text text-anchor="start" x="3642" y="-797.5" font-family="Helvetica,sans-Serif" font-size="10.00">::OpNeumannSurfaceForceMaterial</text>
<text text-anchor="middle" x="3727.5" y="-786.5" font-family="Helvetica,sans-Serif" font-size="10.00">VolOnSideLhs</text>
</a>
</g>
</g>
<!-- Node2&#45;&gt;Node1 -->
<g id="edge1" class="edge">
<title>Node2&#45;&gt;Node1</title>
<path fill="none" stroke="midnightblue" d="M3831.05,-800C3839.96,-800 3848.93,-800 3857.75,-800"/>
<polygon fill="midnightblue" stroke="midnightblue" points="3831.04,-796.5 3821.04,-800 3831.04,-803.5 3831.04,-796.5"/>
</g>
<!-- Node3 -->
<g id="node3" class="node">
<title>Node3</title>
<g id="a_node3"><a xlink:href="structMoFEM_1_1VolumeElementForcesAndSourcesCoreOnSide_1_1UserDataOperator.html" target="_top" xlink:title="default operator for TET element">
<polygon fill="white" stroke="black" points="3378,-809.5 3378,-828.5 3533,-828.5 3533,-809.5 3378,-809.5"/>
<text text-anchor="middle" x="3455.5" y="-816.5" font-family="Helvetica,sans-Serif" font-size="10.00">VolOnSideUserDataOperator</text>
</a>
</g>
</g>
<!-- Node3&#45;&gt;Node2 -->
<g id="edge2" class="edge">
<title>Node3&#45;&gt;Node2</title>
<path fill="none" stroke="midnightblue" d="M3543.23,-812.9C3572.15,-810.86 3604.48,-808.59 3633.84,-806.52"/>
<polygon fill="midnightblue" stroke="midnightblue" points="3542.88,-809.41 3533.15,-813.61 3543.37,-816.4 3542.88,-809.41"/>
</g>
<!-- Node4 -->
<g id="node4" class="node">
<title>Node4</title>
<g id="a_node4"><a xlink:href="structMoFEM_1_1VolumeElementForcesAndSourcesCore_1_1UserDataOperator.html" target="_top" xlink:title=" ">
<polygon fill="white" stroke="black" points="3117,-769 3117,-799 3308,-799 3308,-769 3117,-769"/>
<text text-anchor="start" x="3125" y="-787" font-family="Helvetica,sans-Serif" font-size="10.00">MoFEM::VolumeElementForces</text>
<text text-anchor="middle" x="3212.5" y="-776" font-family="Helvetica,sans-Serif" font-size="10.00">AndSourcesCore::UserDataOperator</text>
</a>
</g>
</g>
<!-- Node4&#45;&gt;Node3 -->
<g id="edge3" class="edge">
<title>Node4&#45;&gt;Node3</title>
<path fill="none" stroke="midnightblue" d="M3318.27,-799.22C3342.24,-802.7 3367.06,-806.3 3388.85,-809.47"/>
<polygon fill="midnightblue" stroke="midnightblue" points="3318.46,-795.71 3308.06,-797.73 3317.45,-802.63 3318.46,-795.71"/>
</g>
<!-- Node5 -->
<g id="node5" class="node">
<title>Node5</title>
<g id="a_node5"><a xlink:href="structMoFEM_1_1ForcesAndSourcesCore_1_1UserDataOperator.html" target="_top" xlink:title=" ">
<polygon fill="white" stroke="black" points="2837,-605 2837,-635 3007,-635 3007,-605 2837,-605"/>
<text text-anchor="start" x="2845" y="-623" font-family="Helvetica,sans-Serif" font-size="10.00">MoFEM::ForcesAndSourcesCore</text>
<text text-anchor="middle" x="2922" y="-612" font-family="Helvetica,sans-Serif" font-size="10.00">::UserDataOperator</text>
</a>
</g>
</g>
<!-- Node5&#45;&gt;Node4 -->
<g id="edge4" class="edge">
<title>Node5&#45;&gt;Node4</title>
<path fill="none" stroke="midnightblue" d="M2958.52,-640.19C3017.14,-673.52 3132.82,-739.28 3184.94,-768.9"/>
<polygon fill="midnightblue" stroke="midnightblue" points="2960.05,-637.03 2949.62,-635.13 2956.59,-643.12 2960.05,-637.03"/>
</g>
<!-- Node6 -->
<g id="node6" class="node">
<title>Node6</title>
<g id="a_node6"><a xlink:href="structMoFEM_1_1DataOperator.html" target="_top" xlink:title="base operator to do operations at Gauss Pt. level">
<polygon fill="white" stroke="black" points="2579.5,-657.5 2579.5,-676.5 2704.5,-676.5 2704.5,-657.5 2579.5,-657.5"/>
<text text-anchor="middle" x="2642" y="-664.5" font-family="Helvetica,sans-Serif" font-size="10.00">MoFEM::DataOperator</text>
</a>
</g>
</g>
<!-- Node6&#45;&gt;Node5 -->
<g id="edge5" class="edge">
<title>Node6&#45;&gt;Node5</title>
<path fill="none" stroke="midnightblue" d="M2709.25,-655.8C2747.48,-649.34 2795.94,-641.14 2836.85,-634.23"/>
<polygon fill="midnightblue" stroke="midnightblue" points="2708.53,-652.37 2699.26,-657.49 2709.7,-659.27 2708.53,-652.37"/>
</g>
<!-- Node7 -->
<g id="node7" class="node">
<title>Node7</title>
<g id="a_node7"><a xlink:title=" ">
<polygon fill="white" stroke="#bfbfbf" points="2160,-641 2160,-693 2352,-693 2352,-641 2160,-641"/>
<text text-anchor="start" x="2168" y="-681" font-family="Helvetica,sans-Serif" font-size="10.00">function&lt; MoFEMErrorCode</text>
<text text-anchor="start" x="2168" y="-670" font-family="Helvetica,sans-Serif" font-size="10.00">(DataOperator *op_ptr,</text>
<text text-anchor="start" x="2168" y="-659" font-family="Helvetica,sans-Serif" font-size="10.00"> int side, EntityType type,</text>
<text text-anchor="middle" x="2256" y="-648" font-family="Helvetica,sans-Serif" font-size="10.00"> EntitiesFieldData::EntData &amp;data)&gt;</text>
</a>
</g>
</g>
<!-- Node7&#45;&gt;Node6 -->
<g id="edge6" class="edge">
<title>Node7&#45;&gt;Node6</title>
<path fill="none" stroke="#9a32cd" stroke-dasharray="5,2" d="M2362.55,-667C2432.19,-667 2521.03,-667 2579.39,-667"/>
<polygon fill="#9a32cd" stroke="#9a32cd" points="2362.41,-663.5 2352.41,-667 2362.41,-670.5 2362.41,-663.5"/>
<text text-anchor="middle" x="2458" y="-670" font-family="Helvetica,sans-Serif" font-size="10.00"> doWorkRhsHook</text>
</g>
<!-- Node8 -->
<g id="node8" class="node">
<title>Node8</title>
<g id="a_node8"><a xlink:href="classbool.html" target="_top" xlink:title=" ">
<polygon fill="white" stroke="black" points="2237,-816.5 2237,-835.5 2275,-835.5 2275,-816.5 2237,-816.5"/>
<text text-anchor="middle" x="2256" y="-823.5" font-family="Helvetica,sans-Serif" font-size="10.00">bool</text>
</a>
</g>
</g>
<!-- Node8&#45;&gt;Node2 -->
<g id="edge91" class="edge">
<title>Node8&#45;&gt;Node2</title>
<path fill="none" stroke="#9a32cd" stroke-dasharray="5,2" d="M2285.19,-830.71C2309.45,-834.59 2345.44,-839.93 2377,-843 2493.95,-854.36 2523.5,-857 2641,-857 2641,-857 2641,-857 3456.5,-857 3529.32,-857 3610.85,-836.91 3665.08,-820.58"/>
<polygon fill="#9a32cd" stroke="#9a32cd" points="2285.67,-827.24 2275.24,-829.09 2284.55,-834.15 2285.67,-827.24"/>
<text text-anchor="middle" x="3062" y="-871" font-family="Helvetica,sans-Serif" font-size="10.00"> hoGeometry</text>
<text text-anchor="middle" x="3062" y="-860" font-family="Helvetica,sans-Serif" font-size="10.00">diagonal_block</text>
</g>
<!-- Node8&#45;&gt;Node6 -->
<g id="edge7" class="edge">
<title>Node8&#45;&gt;Node6</title>
<path fill="none" stroke="#9a32cd" stroke-dasharray="5,2" d="M2285.47,-827.55C2307.72,-827.28 2338.26,-823.45 2359,-807 2374.59,-794.63 2361.22,-778.12 2377,-766 2434.77,-721.61 2471.63,-768.72 2539,-741 2577.04,-725.35 2614.22,-692.78 2631.28,-676.58"/>
<polygon fill="#9a32cd" stroke="#9a32cd" points="2285.32,-824.05 2275.29,-827.44 2285.25,-831.05 2285.32,-824.05"/>
<text text-anchor="middle" x="2458" y="-835" font-family="Helvetica,sans-Serif" font-size="10.00"> doTris</text>
<text text-anchor="middle" x="2458" y="-824" font-family="Helvetica,sans-Serif" font-size="10.00">doQuads</text>
<text text-anchor="middle" x="2458" y="-813" font-family="Helvetica,sans-Serif" font-size="10.00">sYmm</text>
<text text-anchor="middle" x="2458" y="-802" font-family="Helvetica,sans-Serif" font-size="10.00">doPrisms</text>
<text text-anchor="middle" x="2458" y="-791" font-family="Helvetica,sans-Serif" font-size="10.00">doTets</text>
<text text-anchor="middle" x="2458" y="-780" font-family="Helvetica,sans-Serif" font-size="10.00">doVertices</text>
<text text-anchor="middle" x="2458" y="-769" font-family="Helvetica,sans-Serif" font-size="10.00">doEdges</text>
</g>
<!-- Node9 -->
<g id="node9" class="node">
<title>Node9</title>
<g id="a_node9"><a xlink:title=" ">
<polygon fill="white" stroke="#bfbfbf" points="2153,-712.5 2153,-797.5 2359,-797.5 2359,-712.5 2153,-712.5"/>
<text text-anchor="start" x="2161" y="-785.5" font-family="Helvetica,sans-Serif" font-size="10.00">function&lt; MoFEMErrorCode</text>
<text text-anchor="start" x="2161" y="-774.5" font-family="Helvetica,sans-Serif" font-size="10.00">(DataOperator *op_ptr,</text>
<text text-anchor="start" x="2161" y="-763.5" font-family="Helvetica,sans-Serif" font-size="10.00"> int row_side, int col_side,</text>
<text text-anchor="start" x="2161" y="-752.5" font-family="Helvetica,sans-Serif" font-size="10.00"> EntityType row_type, EntityType</text>
<text text-anchor="start" x="2161" y="-741.5" font-family="Helvetica,sans-Serif" font-size="10.00"> col_type, EntitiesFieldData::EntData</text>
<text text-anchor="start" x="2161" y="-730.5" font-family="Helvetica,sans-Serif" font-size="10.00"> &amp;row_data, EntitiesFieldData::EntData</text>
<text text-anchor="middle" x="2256" y="-719.5" font-family="Helvetica,sans-Serif" font-size="10.00"> &amp;col_data)&gt;</text>
</a>
</g>
</g>
<!-- Node9&#45;&gt;Node6 -->
<g id="edge8" class="edge">
<title>Node9&#45;&gt;Node6</title>
<path fill="none" stroke="#9a32cd" stroke-dasharray="5,2" d="M2368.95,-729.34C2446.3,-711.62 2544.77,-689.05 2599.51,-676.51"/>
<polygon fill="#9a32cd" stroke="#9a32cd" points="2368.11,-725.95 2359.15,-731.59 2369.68,-732.77 2368.11,-725.95"/>
<text text-anchor="middle" x="2458" y="-729" font-family="Helvetica,sans-Serif" font-size="10.00"> doWorkLhsHook</text>
</g>
<!-- Node10 -->
<g id="node10" class="node">
<title>Node10</title>
<g id="a_node10"><a xlink:title=" ">
<polygon fill="white" stroke="#bfbfbf" points="2179,-602.5 2179,-621.5 2333,-621.5 2333,-602.5 2179,-602.5"/>
<text text-anchor="middle" x="2256" y="-609.5" font-family="Helvetica,sans-Serif" font-size="10.00">array&lt; bool, MBMAXTYPE &gt;</text>
</a>
</g>
</g>
<!-- Node10&#45;&gt;Node6 -->
<g id="edge9" class="edge">
<title>Node10&#45;&gt;Node6</title>
<path fill="none" stroke="#9a32cd" stroke-dasharray="5,2" d="M2334.78,-622.92C2391.42,-630.9 2469.98,-642.03 2539,-652 2552.02,-653.88 2565.97,-655.92 2579.25,-657.87"/>
<polygon fill="#9a32cd" stroke="#9a32cd" points="2335.21,-619.45 2324.82,-621.52 2334.23,-626.38 2335.21,-619.45"/>
<text text-anchor="middle" x="2458" y="-655" font-family="Helvetica,sans-Serif" font-size="10.00"> doEntities</text>
</g>
<!-- Node11 -->
<g id="node11" class="node">
<title>Node11</title>
<g id="a_node11"><a xlink:title=" ">
<polygon fill="white" stroke="#bfbfbf" points="2607.5,-610.5 2607.5,-629.5 2676.5,-629.5 2676.5,-610.5 2607.5,-610.5"/>
<text text-anchor="middle" x="2642" y="-617.5" font-family="Helvetica,sans-Serif" font-size="10.00">FieldSpace</text>
</a>
</g>
</g>
<!-- Node11&#45;&gt;Node5 -->
<g id="edge10" class="edge">
<title>Node11&#45;&gt;Node5</title>
<path fill="none" stroke="#9a32cd" stroke-dasharray="5,2" d="M2686.79,-620C2726.94,-620 2787.51,-620 2836.99,-620"/>
<polygon fill="#9a32cd" stroke="#9a32cd" points="2686.53,-616.5 2676.53,-620 2686.53,-623.5 2686.53,-616.5"/>
<text text-anchor="middle" x="2782" y="-623" font-family="Helvetica,sans-Serif" font-size="10.00"> sPace</text>
</g>
<!-- Node12 -->
<g id="node12" class="node">
<title>Node12</title>
<g id="a_node12"><a xlink:title=" ">
<polygon fill="white" stroke="#bfbfbf" points="1122.5,-652.5 1122.5,-671.5 1160.5,-671.5 1160.5,-652.5 1122.5,-652.5"/>
<text text-anchor="middle" x="1141.5" y="-659.5" font-family="Helvetica,sans-Serif" font-size="10.00">char</text>
</a>
</g>
</g>
<!-- Node12&#45;&gt;Node5 -->
<g id="edge11" class="edge">
<title>Node12&#45;&gt;Node5</title>
<path fill="none" stroke="#9a32cd" stroke-dasharray="5,2" d="M1170.58,-661.19C1191.23,-659.79 1219.65,-656.18 1243,-647 1329.27,-613.07 1327.41,-559.35 1415,-529 1612.8,-460.46 1675.66,-498 1885,-498 1885,-498 1885,-498 2643,-498 2722.59,-498 2747.39,-496.28 2819,-531 2856.43,-549.15 2890.86,-584.75 2908.55,-604.99"/>
<polygon fill="#9a32cd" stroke="#9a32cd" points="1170.35,-657.69 1160.55,-661.73 1170.73,-664.68 1170.35,-657.69"/>
<text text-anchor="middle" x="2063" y="-501" font-family="Helvetica,sans-Serif" font-size="10.00"> opType</text>
</g>
<!-- Node40 -->
<g id="node40" class="node">
<title>Node40</title>
<g id="a_node40"><a xlink:href="structMoFEM_1_1Problem.html" target="_top" xlink:title="keeps basic data about problem">
<polygon fill="white" stroke="black" points="1449,-1009.5 1449,-1028.5 1548,-1028.5 1548,-1009.5 1449,-1009.5"/>
<text text-anchor="middle" x="1498.5" y="-1016.5" font-family="Helvetica,sans-Serif" font-size="10.00">MoFEM::Problem</text>
</a>
</g>
</g>
<!-- Node12&#45;&gt;Node40 -->
<g id="edge55" class="edge">
<title>Node12&#45;&gt;Node40</title>
<path fill="none" stroke="#9a32cd" stroke-dasharray="5,2" d="M1170.77,-659.85C1193.08,-659.75 1223.57,-663.35 1243,-681 1264.24,-700.3 1244.79,-719.32 1261,-743 1303.98,-805.79 1346.63,-789.96 1397,-847 1444.84,-901.18 1481.55,-981.54 1493.42,-1009.21"/>
<polygon fill="#9a32cd" stroke="#9a32cd" points="1170.45,-656.36 1160.56,-660.16 1170.66,-663.36 1170.45,-656.36"/>
<text text-anchor="middle" x="1329" y="-850" font-family="Helvetica,sans-Serif" font-size="10.00"> tagName</text>
</g>
<!-- Node13 -->
<g id="node13" class="node">
<title>Node13</title>
<g id="a_node13"><a xlink:href="structMoFEM_1_1ForcesAndSourcesCore.html" target="_top" xlink:title="structure to get information form mofem into EntitiesFieldData">
<polygon fill="white" stroke="black" points="2557,-1049.5 2557,-1068.5 2727,-1068.5 2727,-1049.5 2557,-1049.5"/>
<text text-anchor="middle" x="2642" y="-1056.5" font-family="Helvetica,sans-Serif" font-size="10.00">MoFEM::ForcesAndSourcesCore</text>
</a>
</g>
</g>
<!-- Node13&#45;&gt;Node5 -->
<g id="edge12" class="edge">
<title>Node13&#45;&gt;Node5</title>
<path fill="none" stroke="#9a32cd" stroke-dasharray="5,2" d="M2654.45,-1040.92C2700.12,-968.79 2868.87,-702.31 2911.28,-635.35"/>
<polygon fill="#9a32cd" stroke="#9a32cd" points="2651.46,-1039.1 2649.06,-1049.42 2657.37,-1042.85 2651.46,-1039.1"/>
<text text-anchor="middle" x="2782" y="-894" font-family="Helvetica,sans-Serif" font-size="10.00"> ptrFE</text>
</g>
<!-- Node13&#45;&gt;Node13 -->
<g id="edge70" class="edge">
<title>Node13&#45;&gt;Node13</title>
<path fill="none" stroke="#9a32cd" stroke-dasharray="5,2" d="M2615.96,-1078.03C2617.38,-1083.13 2626.06,-1087 2642,-1087 2666.88,-1087 2674.08,-1077.57 2663.58,-1068.76"/>
<polygon fill="#9a32cd" stroke="#9a32cd" points="2619.24,-1079.29 2620.42,-1068.76 2612.93,-1076.25 2619.24,-1079.29"/>
<text text-anchor="middle" x="2642" y="-1101" font-family="Helvetica,sans-Serif" font-size="10.00"> sidePtrFE</text>
<text text-anchor="middle" x="2642" y="-1090" font-family="Helvetica,sans-Serif" font-size="10.00">refinePtrFE</text>
</g>
<!-- Node14 -->
<g id="node14" class="node">
<title>Node14</title>
<g id="a_node14"><a xlink:href="structMoFEM_1_1FEMethod.html" target="_top" xlink:title="structure for User Loop Methods on finite elements">
<polygon fill="white" stroke="black" points="2202.5,-854.5 2202.5,-873.5 2309.5,-873.5 2309.5,-854.5 2202.5,-854.5"/>
<text text-anchor="middle" x="2256" y="-861.5" font-family="Helvetica,sans-Serif" font-size="10.00">MoFEM::FEMethod</text>
</a>
</g>
</g>
<!-- Node14&#45;&gt;Node13 -->
<g id="edge13" class="edge">
<title>Node14&#45;&gt;Node13</title>
<path fill="none" stroke="midnightblue" d="M2319.76,-868.23C2397.19,-873.9 2520.87,-884.58 2539,-896 2598.59,-933.55 2629.24,-1019.93 2638.18,-1049.14"/>
<polygon fill="midnightblue" stroke="midnightblue" points="2319.85,-864.73 2309.63,-867.5 2319.35,-871.71 2319.85,-864.73"/>
</g>
<!-- Node15 -->
<g id="node15" class="node">
<title>Node15</title>
<g id="a_node15"><a xlink:href="structMoFEM_1_1BasicMethod.html" target="_top" xlink:title="Data structure to exchange data between mofem and User Loop Methods.">
<polygon fill="white" stroke="black" points="1825,-662.5 1825,-681.5 1947,-681.5 1947,-662.5 1825,-662.5"/>
<text text-anchor="middle" x="1886" y="-669.5" font-family="Helvetica,sans-Serif" font-size="10.00">MoFEM::BasicMethod</text>
</a>
</g>
</g>
<!-- Node15&#45;&gt;Node14 -->
<g id="edge14" class="edge">
<title>Node15&#45;&gt;Node14</title>
<path fill="none" stroke="midnightblue" d="M1905.97,-688.2C1947.63,-722.88 2051.55,-804.43 2153,-845 2168.47,-851.19 2186.08,-855.38 2202.26,-858.22"/>
<polygon fill="midnightblue" stroke="midnightblue" points="1908.17,-685.48 1898.26,-681.73 1903.67,-690.84 1908.17,-685.48"/>
</g>
<!-- Node16 -->
<g id="node16" class="node">
<title>Node16</title>
<g id="a_node16"><a xlink:href="structMoFEM_1_1KspMethod.html" target="_top" xlink:title="data structure for ksp (linear solver) context">
<polygon fill="white" stroke="black" points="1442,-652.5 1442,-671.5 1555,-671.5 1555,-652.5 1442,-652.5"/>
<text text-anchor="middle" x="1498.5" y="-659.5" font-family="Helvetica,sans-Serif" font-size="10.00">MoFEM::KspMethod</text>
</a>
</g>
</g>
<!-- Node16&#45;&gt;Node15 -->
<g id="edge15" class="edge">
<title>Node16&#45;&gt;Node15</title>
<path fill="none" stroke="midnightblue" d="M1565.57,-663.71C1638.41,-665.6 1754.58,-668.62 1824.93,-670.44"/>
<polygon fill="midnightblue" stroke="midnightblue" points="1565.23,-660.2 1555.14,-663.44 1565.05,-667.2 1565.23,-660.2"/>
</g>
<!-- Node17 -->
<g id="node17" class="node">
<title>Node17</title>
<g id="a_node17"><a xlink:href="structMoFEM_1_1PetscData.html" target="_top" xlink:title=" ">
<polygon fill="white" stroke="black" points="1087.5,-498.5 1087.5,-517.5 1195.5,-517.5 1195.5,-498.5 1087.5,-498.5"/>
<text text-anchor="middle" x="1141.5" y="-505.5" font-family="Helvetica,sans-Serif" font-size="10.00">MoFEM::PetscData</text>
</a>
</g>
</g>
<!-- Node17&#45;&gt;Node16 -->
<g id="edge16" class="edge">
<title>Node17&#45;&gt;Node16</title>
<path fill="none" stroke="midnightblue" d="M1205.62,-502.67C1263.27,-501.47 1346.92,-509.58 1397,-559 1424.18,-585.82 1388.21,-615.8 1415,-643 1422.32,-650.44 1431.93,-655.21 1441.99,-658.22"/>
<polygon fill="midnightblue" stroke="midnightblue" points="1205.42,-499.17 1195.53,-502.98 1205.63,-506.17 1205.42,-499.17"/>
</g>
<!-- Node27 -->
<g id="node27" class="node">
<title>Node27</title>
<g id="a_node27"><a xlink:href="structMoFEM_1_1SnesMethod.html" target="_top" xlink:title="data structure for snes (nonlinear solver) context">
<polygon fill="white" stroke="black" points="1439,-690.5 1439,-709.5 1558,-709.5 1558,-690.5 1439,-690.5"/>
<text text-anchor="middle" x="1498.5" y="-697.5" font-family="Helvetica,sans-Serif" font-size="10.00">MoFEM::SnesMethod</text>
</a>
</g>
</g>
<!-- Node17&#45;&gt;Node27 -->
<g id="edge29" class="edge">
<title>Node17&#45;&gt;Node27</title>
<path fill="none" stroke="darkgreen" d="M1205.33,-518.1C1218.2,-521.51 1231.36,-526.03 1243,-532 1248.62,-534.89 1409.36,-678.14 1415,-681 1422.6,-684.86 1430.99,-687.95 1439.42,-690.41"/>
<polygon fill="darkgreen" stroke="darkgreen" points="1206.12,-514.69 1195.57,-515.71 1204.45,-521.49 1206.12,-514.69"/>
</g>
<!-- Node30 -->
<g id="node30" class="node">
<title>Node30</title>
<g id="a_node30"><a xlink:href="structMoFEM_1_1TSMethod.html" target="_top" xlink:title="data structure for TS (time stepping) context">
<polygon fill="white" stroke="black" points="1445,-256.5 1445,-275.5 1552,-275.5 1552,-256.5 1445,-256.5"/>
<text text-anchor="middle" x="1498.5" y="-263.5" font-family="Helvetica,sans-Serif" font-size="10.00">MoFEM::TSMethod</text>
</a>
</g>
</g>
<!-- Node17&#45;&gt;Node30 -->
<g id="edge35" class="edge">
<title>Node17&#45;&gt;Node30</title>
<path fill="none" stroke="darkgreen" d="M1205.5,-502.82C1219.11,-499.16 1232.53,-493.3 1243,-484 1260.34,-468.59 1244.33,-451.14 1261,-435 1306.75,-390.72 1344.62,-426.19 1397,-390 1443.28,-358.02 1479.36,-298.79 1492.31,-275.63"/>
<polygon fill="darkgreen" stroke="darkgreen" points="1204.55,-499.44 1195.6,-505.1 1206.13,-506.26 1204.55,-499.44"/>
</g>
<!-- Node18 -->
<g id="node18" class="node">
<title>Node18</title>
<g id="a_node18"><a xlink:href="structMoFEM_1_1UnknownInterface.html" target="_top" xlink:title="base class for all interface classes">
<polygon fill="white" stroke="black" points="735,-587.5 735,-606.5 883,-606.5 883,-587.5 735,-587.5"/>
<text text-anchor="middle" x="809" y="-594.5" font-family="Helvetica,sans-Serif" font-size="10.00">MoFEM::UnknownInterface</text>
</a>
</g>
</g>
<!-- Node18&#45;&gt;Node17 -->
<g id="edge17" class="edge">
<title>Node18&#45;&gt;Node17</title>
<path fill="none" stroke="midnightblue" d="M893.55,-600.65C943.93,-601.13 1002.1,-598.09 1022,-583 1041.15,-568.48 1022.14,-548.08 1040,-532 1052.93,-520.36 1070.49,-514.09 1087.32,-510.8"/>
<polygon fill="midnightblue" stroke="midnightblue" points="893.31,-597.15 883.26,-600.5 893.21,-604.15 893.31,-597.15"/>
</g>
<!-- Node58 -->
<g id="node58" class="node">
<title>Node58</title>
<g id="a_node58"><a xlink:href="structMoFEM_1_1CoreInterface.html" target="_top" xlink:title="Interface.">
<polygon fill="white" stroke="black" points="1079,-766.5 1079,-785.5 1204,-785.5 1204,-766.5 1079,-766.5"/>
<text text-anchor="middle" x="1141.5" y="-773.5" font-family="Helvetica,sans-Serif" font-size="10.00">MoFEM::CoreInterface</text>
</a>
</g>
</g>
<!-- Node18&#45;&gt;Node58 -->
<g id="edge69" class="edge">
<title>Node18&#45;&gt;Node58</title>
<path fill="none" stroke="midnightblue" d="M827.92,-613.55C864.66,-646.5 952.43,-720.25 1040,-757 1052.2,-762.12 1065.81,-765.87 1078.98,-768.61"/>
<polygon fill="midnightblue" stroke="midnightblue" points="830.25,-610.94 820.49,-606.81 825.54,-616.12 830.25,-610.94"/>
</g>
<!-- Node19 -->
<g id="node19" class="node">
<title>Node19</title>
<g id="a_node19"><a xlink:title=" ">
<polygon fill="white" stroke="#bfbfbf" points="386,-296.5 386,-359.5 627,-359.5 627,-296.5 386,-296.5"/>
<text text-anchor="start" x="394" y="-347.5" font-family="Helvetica,sans-Serif" font-size="10.00">multi_index_container</text>
<text text-anchor="start" x="394" y="-336.5" font-family="Helvetica,sans-Serif" font-size="10.00">&lt; UIdTypeMap, indexed</text>
<text text-anchor="start" x="394" y="-325.5" font-family="Helvetica,sans-Serif" font-size="10.00">_by&lt; hashed_unique&lt; member</text>
<text text-anchor="start" x="394" y="-314.5" font-family="Helvetica,sans-Serif" font-size="10.00">&lt; UIdTypeMap, boost::typeindex</text>
<text text-anchor="middle" x="506.5" y="-303.5" font-family="Helvetica,sans-Serif" font-size="10.00">::type_index, &amp;UIdTypeMap::classIdx &gt; &gt; &gt; &gt;</text>
</a>
</g>
</g>
<!-- Node19&#45;&gt;Node18 -->
<g id="edge18" class="edge">
<title>Node19&#45;&gt;Node18</title>
<path fill="none" stroke="#9a32cd" stroke-dasharray="5,2" d="M550.73,-366.7C621.48,-430.03 758.05,-552.28 797.24,-587.37"/>
<polygon fill="#9a32cd" stroke="#9a32cd" points="552.64,-363.71 542.85,-359.65 547.97,-368.93 552.64,-363.71"/>
<text text-anchor="middle" x="681" y="-513" font-family="Helvetica,sans-Serif" font-size="10.00"> iFaceTypeMap</text>
</g>
<!-- Node20 -->
<g id="node20" class="node">
<title>Node20</title>
<g id="a_node20"><a xlink:title=" ">
<polygon fill="white" stroke="#bfbfbf" points="0,-6.5 0,-25.5 125,-25.5 125,-6.5 0,-6.5"/>
<text text-anchor="middle" x="62.5" y="-13.5" font-family="Helvetica,sans-Serif" font-size="10.00">multi_index_container</text>
</a>
</g>
</g>
<!-- Node20&#45;&gt;Node15 -->
<g id="edge42" class="edge">
<title>Node20&#45;&gt;Node15</title>
<path fill="none" stroke="#9a32cd" stroke-dasharray="5,2" d="M135.41,-11.8C222.85,-7.06 374.95,0 505.5,0 505.5,0 505.5,0 1499.5,0 1693.98,0 1708.75,-154.44 1781,-335 1804.82,-394.54 1765.06,-568.59 1799,-623 1811.09,-642.39 1833.83,-654.86 1852.89,-662.36"/>
<polygon fill="#9a32cd" stroke="#9a32cd" points="135.12,-8.31 125.33,-12.35 135.51,-15.3 135.12,-8.31"/>
<text text-anchor="middle" x="961.5" y="-80" font-family="Helvetica,sans-Serif" font-size="10.00"> adjacenciesPtr</text>
<text text-anchor="middle" x="961.5" y="-69" font-family="Helvetica,sans-Serif" font-size="10.00">refinedEntitiesPtr</text>
<text text-anchor="middle" x="961.5" y="-58" font-family="Helvetica,sans-Serif" font-size="10.00">finiteElementsEntitiesPtr</text>
<text text-anchor="middle" x="961.5" y="-47" font-family="Helvetica,sans-Serif" font-size="10.00">dofsPtr</text>
<text text-anchor="middle" x="961.5" y="-36" font-family="Helvetica,sans-Serif" font-size="10.00">entitiesPtr</text>
<text text-anchor="middle" x="961.5" y="-25" font-family="Helvetica,sans-Serif" font-size="10.00">finiteElementsPtr</text>
<text text-anchor="middle" x="961.5" y="-14" font-family="Helvetica,sans-Serif" font-size="10.00">refinedFiniteElementsPtr</text>
<text text-anchor="middle" x="961.5" y="-3" font-family="Helvetica,sans-Serif" font-size="10.00">fieldsPtr</text>
</g>
<!-- Node20&#45;&gt;Node19 -->
<g id="edge19" class="edge">
<title>Node20&#45;&gt;Node19</title>
<path fill="none" stroke="orange" stroke-dasharray="5,2" d="M85.62,-31.62C154.67,-80.36 367.17,-230.36 460.62,-296.32"/>
<polygon fill="orange" stroke="orange" points="87.4,-28.59 77.21,-25.68 83.36,-34.31 87.4,-28.59"/>
<text text-anchor="start" x="143" y="-264" font-family="Helvetica,sans-Serif" font-size="10.00"> &lt; UIdTypeMap, indexed</text>
<text text-anchor="start" x="143" y="-253" font-family="Helvetica,sans-Serif" font-size="10.00">_by&lt; hashed_unique&lt; member</text>
<text text-anchor="start" x="143" y="-242" font-family="Helvetica,sans-Serif" font-size="10.00">&lt; UIdTypeMap, boost::typeindex</text>
<text text-anchor="middle" x="255.5" y="-231" font-family="Helvetica,sans-Serif" font-size="10.00">::type_index, &amp;UIdTypeMap::classIdx &gt; &gt; &gt; &gt;</text>
</g>
<!-- Node21 -->
<g id="node21" class="node">
<title>Node21</title>
<g id="a_node21"><a xlink:title=" ">
<polygon fill="white" stroke="#bfbfbf" points="738.5,-486.5 738.5,-505.5 879.5,-505.5 879.5,-486.5 738.5,-486.5"/>
<text text-anchor="middle" x="809" y="-493.5" font-family="Helvetica,sans-Serif" font-size="10.00">static constexpr Switches</text>
</a>
</g>
</g>
<!-- Node21&#45;&gt;Node17 -->
<g id="edge20" class="edge">
<title>Node21&#45;&gt;Node17</title>
<path fill="none" stroke="#9a32cd" stroke-dasharray="5,2" d="M889.71,-495.07C893.53,-495.05 897.31,-495.02 901,-495 954.78,-494.7 968.3,-492.06 1022,-495 1043.39,-496.17 1066.85,-498.52 1087.22,-500.9"/>
<polygon fill="#9a32cd" stroke="#9a32cd" points="889.53,-491.58 879.56,-495.16 889.59,-498.57 889.53,-491.58"/>
<text text-anchor="middle" x="961.5" y="-575" font-family="Helvetica,sans-Serif" font-size="10.00"> CtxSetX_TT</text>
<text text-anchor="middle" x="961.5" y="-564" font-family="Helvetica,sans-Serif" font-size="10.00">CtxSetX_T</text>
<text text-anchor="middle" x="961.5" y="-553" font-family="Helvetica,sans-Serif" font-size="10.00">CtxSetA</text>
<text text-anchor="middle" x="961.5" y="-542" font-family="Helvetica,sans-Serif" font-size="10.00">CtxSetB</text>
<text text-anchor="middle" x="961.5" y="-531" font-family="Helvetica,sans-Serif" font-size="10.00">CtxSetTime</text>
<text text-anchor="middle" x="961.5" y="-520" font-family="Helvetica,sans-Serif" font-size="10.00">CtxSetNone</text>
<text text-anchor="middle" x="961.5" y="-509" font-family="Helvetica,sans-Serif" font-size="10.00">CtxSetF</text>
<text text-anchor="middle" x="961.5" y="-498" font-family="Helvetica,sans-Serif" font-size="10.00">CtxSetX</text>
</g>
<!-- Node22 -->
<g id="node22" class="node">
<title>Node22</title>
<g id="a_node22"><a xlink:title=" ">
<polygon fill="white" stroke="#bfbfbf" points="791.5,-707.5 791.5,-726.5 826.5,-726.5 826.5,-707.5 791.5,-707.5"/>
<text text-anchor="middle" x="809" y="-714.5" font-family="Helvetica,sans-Serif" font-size="10.00">Mat</text>
</a>
</g>
</g>
<!-- Node22&#45;&gt;Node2 -->
<g id="edge92" class="edge">
<title>Node22&#45;&gt;Node2</title>
<path fill="none" stroke="#9a32cd" stroke-dasharray="5,2" d="M809.45,-736.95C807.27,-855.85 812.1,-1466 1140.5,-1466 1140.5,-1466 1140.5,-1466 3456.5,-1466 3548.52,-1466 3569.1,-1413.17 3616,-1334 3720.94,-1156.84 3727.33,-895.25 3726.87,-820.58"/>
<polygon fill="#9a32cd" stroke="#9a32cd" points="812.95,-736.82 809.68,-726.74 805.95,-736.66 812.95,-736.82"/>
<text text-anchor="middle" x="2458" y="-1469" font-family="Helvetica,sans-Serif" font-size="10.00"> Aij</text>
</g>
<!-- Node22&#45;&gt;Node16 -->
<g id="edge26" class="edge">
<title>Node22&#45;&gt;Node16</title>
<path fill="none" stroke="#9a32cd" stroke-dasharray="5,2" d="M836.78,-720.67C881.05,-725.14 969.8,-727.13 1022,-681 1042.86,-662.56 1017.66,-637.62 1040,-621 1112.38,-567.14 1153.07,-613.8 1243,-621 1316.83,-626.91 1401.57,-642.31 1452.25,-652.47"/>
<polygon fill="#9a32cd" stroke="#9a32cd" points="837.11,-717.18 826.78,-719.54 836.32,-724.14 837.11,-717.18"/>
<text text-anchor="middle" x="1141.5" y="-635" font-family="Helvetica,sans-Serif" font-size="10.00"> ksp_A</text>
<text text-anchor="middle" x="1141.5" y="-624" font-family="Helvetica,sans-Serif" font-size="10.00">ksp_B</text>
</g>
<!-- Node22&#45;&gt;Node17 -->
<g id="edge21" class="edge">
<title>Node22&#45;&gt;Node17</title>
<path fill="none" stroke="#9a32cd" stroke-dasharray="5,2" d="M823.35,-699.53C839.5,-679.69 868.59,-647.89 901,-631 949.7,-605.62 982.5,-644.15 1022,-606 1046.35,-582.49 1016.02,-555.88 1040,-532 1052.52,-519.53 1070.28,-513.11 1087.4,-509.92"/>
<polygon fill="#9a32cd" stroke="#9a32cd" points="820.53,-697.45 817.06,-707.46 826.02,-701.8 820.53,-697.45"/>
<text text-anchor="middle" x="961.5" y="-645" font-family="Helvetica,sans-Serif" font-size="10.00"> A</text>
<text text-anchor="middle" x="961.5" y="-634" font-family="Helvetica,sans-Serif" font-size="10.00">B</text>
</g>
<!-- Node22&#45;&gt;Node27 -->
<g id="edge31" class="edge">
<title>Node22&#45;&gt;Node27</title>
<path fill="none" stroke="#9a32cd" stroke-dasharray="5,2" d="M835.71,-728.83C877.48,-747.34 963.16,-782.33 1040,-795 1129.02,-809.68 1153.97,-809.63 1243,-795 1335.84,-779.75 1438.54,-730.57 1479.35,-709.61"/>
<polygon fill="#9a32cd" stroke="#9a32cd" points="837.09,-725.62 826.54,-724.72 834.23,-732.01 837.09,-725.62"/>
<text text-anchor="middle" x="1141.5" y="-819" font-family="Helvetica,sans-Serif" font-size="10.00"> snes_A</text>
<text text-anchor="middle" x="1141.5" y="-808" font-family="Helvetica,sans-Serif" font-size="10.00">snes_B</text>
</g>
<!-- Node22&#45;&gt;Node30 -->
<g id="edge36" class="edge">
<title>Node22&#45;&gt;Node30</title>
<path fill="none" stroke="#9a32cd" stroke-dasharray="5,2" d="M835.76,-705.61C853.79,-697.95 878.55,-687.99 901,-681 953.7,-664.58 983.24,-692.3 1022,-653 1048.51,-626.13 1013.24,-596.63 1040,-570 1105.37,-504.95 1175.69,-590.04 1243,-527 1264.57,-506.8 1239.95,-483.73 1261,-463 1305.55,-419.13 1346.69,-464.13 1397,-427 1452.68,-385.91 1484.64,-303.9 1494.32,-275.75"/>
<polygon fill="#9a32cd" stroke="#9a32cd" points="834.3,-702.43 826.5,-709.61 837.07,-708.86 834.3,-702.43"/>
<text text-anchor="middle" x="1141.5" y="-584" font-family="Helvetica,sans-Serif" font-size="10.00"> ts_A</text>
<text text-anchor="middle" x="1141.5" y="-573" font-family="Helvetica,sans-Serif" font-size="10.00">ts_B</text>
</g>
<!-- Node23 -->
<g id="node23" class="node">
<title>Node23</title>
<g id="a_node23"><a xlink:title=" ">
<polygon fill="white" stroke="#bfbfbf" points="772.5,-448.5 772.5,-467.5 845.5,-467.5 845.5,-448.5 772.5,-448.5"/>
<text text-anchor="middle" x="809" y="-455.5" font-family="Helvetica,sans-Serif" font-size="10.00">bitset&lt; 8 &gt;</text>
</a>
</g>
</g>
<!-- Node23&#45;&gt;Node17 -->
<g id="edge22" class="edge">
<title>Node23&#45;&gt;Node17</title>
<path fill="none" stroke="#9a32cd" stroke-dasharray="5,2" d="M855.71,-460.25C898.86,-462.91 965.24,-468.39 1022,-479 1030.16,-480.53 1031.96,-481.92 1040,-484 1059.28,-488.98 1080.73,-494.15 1098.85,-498.41"/>
<polygon fill="#9a32cd" stroke="#9a32cd" points="855.71,-456.74 845.52,-459.65 855.3,-463.73 855.71,-456.74"/>
<text text-anchor="middle" x="961.5" y="-482" font-family="Helvetica,sans-Serif" font-size="10.00"> data_ctx</text>
</g>
<!-- Node24 -->
<g id="node24" class="node">
<title>Node24</title>
<g id="a_node24"><a xlink:title=" ">
<polygon fill="white" stroke="#bfbfbf" points="792,-337.5 792,-356.5 826,-356.5 826,-337.5 792,-337.5"/>
<text text-anchor="middle" x="809" y="-344.5" font-family="Helvetica,sans-Serif" font-size="10.00">Vec</text>
</a>
</g>
</g>
<!-- Node24&#45;&gt;Node16 -->
<g id="edge27" class="edge">
<title>Node24&#45;&gt;Node16</title>
<path fill="none" stroke="#9a32cd" stroke-dasharray="5,2" d="M836.39,-345.29C945.47,-338.5 1357.33,-315.72 1397,-356 1441.84,-401.53 1373.66,-594.27 1415,-643 1421.94,-651.18 1431.63,-656.24 1441.94,-659.3"/>
<polygon fill="#9a32cd" stroke="#9a32cd" points="836.01,-341.81 826.25,-345.93 836.45,-348.79 836.01,-341.81"/>
<text text-anchor="middle" x="1141.5" y="-339" font-family="Helvetica,sans-Serif" font-size="10.00"> ksp_f</text>
</g>
<!-- Node24&#45;&gt;Node17 -->
<g id="edge23" class="edge">
<title>Node24&#45;&gt;Node17</title>
<path fill="none" stroke="#9a32cd" stroke-dasharray="5,2" d="M835.84,-353.92C889.44,-368.48 1008.85,-402.09 1022,-416 1043.48,-438.72 1017.63,-462.16 1040,-484 1052.58,-496.28 1070.26,-502.67 1087.28,-505.89"/>
<polygon fill="#9a32cd" stroke="#9a32cd" points="836.62,-350.5 826.05,-351.27 834.79,-357.26 836.62,-350.5"/>
<text text-anchor="middle" x="961.5" y="-452" font-family="Helvetica,sans-Serif" font-size="10.00"> f</text>
<text text-anchor="middle" x="961.5" y="-441" font-family="Helvetica,sans-Serif" font-size="10.00">x</text>
<text text-anchor="middle" x="961.5" y="-430" font-family="Helvetica,sans-Serif" font-size="10.00">x_t</text>
<text text-anchor="middle" x="961.5" y="-419" font-family="Helvetica,sans-Serif" font-size="10.00">x_tt</text>
</g>
<!-- Node24&#45;&gt;Node27 -->
<g id="edge32" class="edge">
<title>Node24&#45;&gt;Node27</title>
<path fill="none" stroke="#9a32cd" stroke-dasharray="5,2" d="M836.23,-346.92C886.6,-347.31 994.34,-350.9 1022,-374 1042.39,-391.03 1020.03,-413.48 1040,-431 1108.87,-491.43 1170.44,-411.04 1243,-467 1258.12,-478.66 1246.59,-493.48 1261,-506 1308.65,-547.42 1356.05,-498.95 1397,-547 1435.98,-592.74 1374.53,-636.58 1415,-681 1421.34,-687.95 1429.66,-692.62 1438.58,-695.7"/>
<polygon fill="#9a32cd" stroke="#9a32cd" points="836.14,-343.42 826.12,-346.88 836.11,-350.42 836.14,-343.42"/>
<text text-anchor="middle" x="1141.5" y="-481" font-family="Helvetica,sans-Serif" font-size="10.00"> snes_x</text>
<text text-anchor="middle" x="1141.5" y="-470" font-family="Helvetica,sans-Serif" font-size="10.00">snes_f</text>
</g>
<!-- Node24&#45;&gt;Node30 -->
<g id="edge40" class="edge">
<title>Node24&#45;&gt;Node30</title>
<path fill="none" stroke="#9a32cd" stroke-dasharray="5,2" d="M820.74,-328.41C849.21,-281.24 931.92,-157.45 1040,-112 1188.31,-49.63 1260.83,-86.3 1397,-172 1436.22,-196.69 1473.71,-237.94 1489.57,-256.47"/>
<polygon fill="#9a32cd" stroke="#9a32cd" points="817.58,-326.87 815.5,-337.25 823.61,-330.44 817.58,-326.87"/>
<text text-anchor="middle" x="1141.5" y="-148" font-family="Helvetica,sans-Serif" font-size="10.00"> ts_u</text>
<text text-anchor="middle" x="1141.5" y="-137" font-family="Helvetica,sans-Serif" font-size="10.00">ts_F</text>
<text text-anchor="middle" x="1141.5" y="-126" font-family="Helvetica,sans-Serif" font-size="10.00">ts_u_t</text>
<text text-anchor="middle" x="1141.5" y="-115" font-family="Helvetica,sans-Serif" font-size="10.00">ts_u_tt</text>
</g>
<!-- Node25 -->
<g id="node25" class="node">
<title>Node25</title>
<g id="a_node25"><a xlink:title=" ">
<polygon fill="white" stroke="#bfbfbf" points="1124,-364.5 1124,-383.5 1159,-383.5 1159,-364.5 1124,-364.5"/>
<text text-anchor="middle" x="1141.5" y="-371.5" font-family="Helvetica,sans-Serif" font-size="10.00">KSP</text>
</a>
</g>
</g>
<!-- Node25&#45;&gt;Node16 -->
<g id="edge24" class="edge">
<title>Node25&#45;&gt;Node16</title>
<path fill="none" stroke="#9a32cd" stroke-dasharray="5,2" d="M1169.09,-367.81C1221.29,-357.4 1337.25,-343.23 1397,-406 1433.42,-444.26 1380.57,-602.95 1415,-643 1421.9,-651.02 1431.44,-656.04 1441.6,-659.1"/>
<polygon fill="#9a32cd" stroke="#9a32cd" points="1168.32,-364.39 1159.25,-369.88 1169.76,-371.24 1168.32,-364.39"/>
<text text-anchor="middle" x="1329" y="-409" font-family="Helvetica,sans-Serif" font-size="10.00"> ksp</text>
</g>
<!-- Node26 -->
<g id="node26" class="node">
<title>Node26</title>
<g id="a_node26"><a xlink:title=" ">
<polygon fill="white" stroke="#bfbfbf" points="1104.5,-402.5 1104.5,-421.5 1178.5,-421.5 1178.5,-402.5 1104.5,-402.5"/>
<text text-anchor="middle" x="1141.5" y="-409.5" font-family="Helvetica,sans-Serif" font-size="10.00">KSPContext</text>
</a>
</g>
</g>
<!-- Node26&#45;&gt;Node16 -->
<g id="edge25" class="edge">
<title>Node26&#45;&gt;Node16</title>
<path fill="none" stroke="#9a32cd" stroke-dasharray="5,2" d="M1188.62,-411.74C1247.23,-414.17 1346.82,-428.03 1397,-491 1439.39,-544.2 1369.58,-592.36 1415,-643 1422.07,-650.88 1431.68,-655.83 1441.86,-658.87"/>
<polygon fill="#9a32cd" stroke="#9a32cd" points="1188.63,-408.24 1178.52,-411.42 1188.4,-415.24 1188.63,-408.24"/>
<text text-anchor="middle" x="1329" y="-494" font-family="Helvetica,sans-Serif" font-size="10.00"> ksp_ctx</text>
</g>
<!-- Node27&#45;&gt;Node15 -->
<g id="edge28" class="edge">
<title>Node27&#45;&gt;Node15</title>
<path fill="none" stroke="midnightblue" d="M1567.98,-695.25C1624.99,-691.26 1708.29,-685.38 1781,-680 1795.18,-678.95 1810.44,-677.79 1824.79,-676.69"/>
<polygon fill="midnightblue" stroke="midnightblue" points="1567.74,-691.76 1558,-695.94 1568.22,-698.74 1567.74,-691.76"/>
</g>
<!-- Node28 -->
<g id="node28" class="node">
<title>Node28</title>
<g id="a_node28"><a xlink:title=" ">
<polygon fill="white" stroke="#bfbfbf" points="1120.5,-728.5 1120.5,-747.5 1162.5,-747.5 1162.5,-728.5 1120.5,-728.5"/>
<text text-anchor="middle" x="1141.5" y="-735.5" font-family="Helvetica,sans-Serif" font-size="10.00">SNES</text>
</a>
</g>
</g>
<!-- Node28&#45;&gt;Node27 -->
<g id="edge30" class="edge">
<title>Node28&#45;&gt;Node27</title>
<path fill="none" stroke="#9a32cd" stroke-dasharray="5,2" d="M1172.94,-735.82C1220.74,-732.28 1316.29,-724.66 1397,-715 1410.57,-713.37 1425.14,-711.36 1438.85,-709.34"/>
<polygon fill="#9a32cd" stroke="#9a32cd" points="1172.38,-732.35 1162.67,-736.58 1172.9,-739.34 1172.38,-732.35"/>
<text text-anchor="middle" x="1329" y="-731" font-family="Helvetica,sans-Serif" font-size="10.00"> snes</text>
</g>
<!-- Node29 -->
<g id="node29" class="node">
<title>Node29</title>
<g id="a_node29"><a xlink:title=" ">
<polygon fill="white" stroke="#bfbfbf" points="1101.5,-690.5 1101.5,-709.5 1181.5,-709.5 1181.5,-690.5 1101.5,-690.5"/>
<text text-anchor="middle" x="1141.5" y="-697.5" font-family="Helvetica,sans-Serif" font-size="10.00">SNESContext</text>
</a>
</g>
</g>
<!-- Node29&#45;&gt;Node27 -->
<g id="edge33" class="edge">
<title>Node29&#45;&gt;Node27</title>
<path fill="none" stroke="#9a32cd" stroke-dasharray="5,2" d="M1191.84,-700C1256.48,-700 1369.71,-700 1438.73,-700"/>
<polygon fill="#9a32cd" stroke="#9a32cd" points="1191.51,-696.5 1181.51,-700 1191.51,-703.5 1191.51,-696.5"/>
<text text-anchor="middle" x="1329" y="-703" font-family="Helvetica,sans-Serif" font-size="10.00"> snes_ctx</text>
</g>
<!-- Node30&#45;&gt;Node15 -->
<g id="edge34" class="edge">
<title>Node30&#45;&gt;Node15</title>
<path fill="none" stroke="midnightblue" d="M1523.13,-281.21C1578.06,-317.91 1714.74,-417.23 1781,-537 1799.91,-571.17 1776.01,-591.44 1799,-623 1812.86,-642.03 1836.52,-654.72 1855.51,-662.41"/>
<polygon fill="midnightblue" stroke="midnightblue" points="1525.01,-278.26 1514.74,-275.67 1521.15,-284.1 1525.01,-278.26"/>
</g>
<!-- Node31 -->
<g id="node31" class="node">
<title>Node31</title>
<g id="a_node31"><a xlink:title=" ">
<polygon fill="white" stroke="#bfbfbf" points="1109,-279.5 1109,-298.5 1174,-298.5 1174,-279.5 1109,-279.5"/>
<text text-anchor="middle" x="1141.5" y="-286.5" font-family="Helvetica,sans-Serif" font-size="10.00">PetscReal</text>
</a>
</g>
</g>
<!-- Node31&#45;&gt;Node30 -->
<g id="edge37" class="edge">
<title>Node31&#45;&gt;Node30</title>
<path fill="none" stroke="#9a32cd" stroke-dasharray="5,2" d="M1184.25,-286.29C1249.06,-282.1 1373.78,-274.02 1444.73,-269.42"/>
<polygon fill="#9a32cd" stroke="#9a32cd" points="1183.76,-282.82 1174,-286.96 1184.21,-289.8 1183.76,-282.82"/>
<text text-anchor="middle" x="1329" y="-317" font-family="Helvetica,sans-Serif" font-size="10.00"> ts_a</text>
<text text-anchor="middle" x="1329" y="-306" font-family="Helvetica,sans-Serif" font-size="10.00">ts_t</text>
<text text-anchor="middle" x="1329" y="-295" font-family="Helvetica,sans-Serif" font-size="10.00">ts_dt</text>
<text text-anchor="middle" x="1329" y="-284" font-family="Helvetica,sans-Serif" font-size="10.00">ts_aa</text>
</g>
<!-- Node32 -->
<g id="node32" class="node">
<title>Node32</title>
<g id="a_node32"><a xlink:title=" ">
<polygon fill="white" stroke="#bfbfbf" points="1108,-241.5 1108,-260.5 1175,-260.5 1175,-241.5 1108,-241.5"/>
<text text-anchor="middle" x="1141.5" y="-248.5" font-family="Helvetica,sans-Serif" font-size="10.00">TSContext</text>
</a>
</g>
</g>
<!-- Node32&#45;&gt;Node30 -->
<g id="edge38" class="edge">
<title>Node32&#45;&gt;Node30</title>
<path fill="none" stroke="#9a32cd" stroke-dasharray="5,2" d="M1185.35,-248.67C1235.99,-246.42 1322.78,-244.13 1397,-250 1413.56,-251.31 1431.5,-253.81 1447.59,-256.46"/>
<polygon fill="#9a32cd" stroke="#9a32cd" points="1184.93,-245.19 1175.11,-249.15 1185.26,-252.18 1184.93,-245.19"/>
<text text-anchor="middle" x="1329" y="-253" font-family="Helvetica,sans-Serif" font-size="10.00"> ts_ctx</text>
</g>
<!-- Node33 -->
<g id="node33" class="node">
<title>Node33</title>
<g id="a_node33"><a xlink:title=" ">
<polygon fill="white" stroke="#bfbfbf" points="1113.5,-203.5 1113.5,-222.5 1169.5,-222.5 1169.5,-203.5 1113.5,-203.5"/>
<text text-anchor="middle" x="1141.5" y="-210.5" font-family="Helvetica,sans-Serif" font-size="10.00">PetscInt</text>
</a>
</g>
</g>
<!-- Node33&#45;&gt;Node30 -->
<g id="edge39" class="edge">
<title>Node33&#45;&gt;Node30</title>
<path fill="none" stroke="#9a32cd" stroke-dasharray="5,2" d="M1179.86,-212.87C1229.83,-213.35 1320.95,-216.55 1397,-232 1424.44,-237.57 1454.72,-248.51 1474.8,-256.48"/>
<polygon fill="#9a32cd" stroke="#9a32cd" points="1179.57,-209.36 1169.55,-212.8 1179.53,-216.36 1179.57,-209.36"/>
<text text-anchor="middle" x="1329" y="-235" font-family="Helvetica,sans-Serif" font-size="10.00"> ts_step</text>
</g>
<!-- Node34 -->
<g id="node34" class="node">
<title>Node34</title>
<g id="a_node34"><a xlink:title=" ">
<polygon fill="white" stroke="#bfbfbf" points="1127,-165.5 1127,-184.5 1156,-184.5 1156,-165.5 1127,-165.5"/>
<text text-anchor="middle" x="1141.5" y="-172.5" font-family="Helvetica,sans-Serif" font-size="10.00">TS</text>
</a>
</g>
</g>
<!-- Node34&#45;&gt;Node30 -->
<g id="edge41" class="edge">
<title>Node34&#45;&gt;Node30</title>
<path fill="none" stroke="#9a32cd" stroke-dasharray="5,2" d="M1166.4,-173.79C1212.46,-172.23 1316.1,-172.57 1397,-201 1433.07,-213.68 1469.21,-241.71 1486.68,-256.48"/>
<polygon fill="#9a32cd" stroke="#9a32cd" points="1166.08,-170.3 1156.23,-174.2 1166.36,-177.29 1166.08,-170.3"/>
<text text-anchor="middle" x="1329" y="-204" font-family="Helvetica,sans-Serif" font-size="10.00"> ts</text>
</g>
<!-- Node35 -->
<g id="node35" class="node">
<title>Node35</title>
<g id="a_node35"><a xlink:title=" ">
<polygon fill="white" stroke="#bfbfbf" points="1454,-576.5 1454,-595.5 1543,-595.5 1543,-576.5 1454,-576.5"/>
<text text-anchor="middle" x="1498.5" y="-583.5" font-family="Helvetica,sans-Serif" font-size="10.00">pair&lt; int, int &gt;</text>
</a>
</g>
</g>
<!-- Node35&#45;&gt;Node15 -->
<g id="edge43" class="edge">
<title>Node35&#45;&gt;Node15</title>
<path fill="none" stroke="#9a32cd" stroke-dasharray="5,2" d="M1553.29,-576.03C1612.6,-567.79 1709.13,-562.75 1781,-600 1792.52,-605.97 1789.18,-614.52 1799,-623 1818.51,-639.85 1844.68,-653.77 1863.01,-662.42"/>
<polygon fill="#9a32cd" stroke="#9a32cd" points="1552.76,-572.57 1543.38,-577.48 1553.78,-579.49 1552.76,-572.57"/>
<text text-anchor="middle" x="1690.5" y="-603" font-family="Helvetica,sans-Serif" font-size="10.00"> loHiFERank</text>
</g>
<!-- Node36 -->
<g id="node36" class="node">
<title>Node36</title>
<g id="a_node36"><a xlink:title=" ">
<polygon fill="white" stroke="#bfbfbf" points="1428.5,-538.5 1428.5,-557.5 1568.5,-557.5 1568.5,-538.5 1428.5,-538.5"/>
<text text-anchor="middle" x="1498.5" y="-545.5" font-family="Helvetica,sans-Serif" font-size="10.00">weak_ptr&lt; CacheTuple &gt;</text>
</a>
</g>
</g>
<!-- Node36&#45;&gt;Node15 -->
<g id="edge44" class="edge">
<title>Node36&#45;&gt;Node15</title>
<path fill="none" stroke="#9a32cd" stroke-dasharray="5,2" d="M1578.58,-540.08C1650.78,-534.62 1750.72,-532.09 1781,-556 1805.2,-575.11 1780.15,-598.6 1799,-623 1813.6,-641.9 1837.7,-654.72 1856.68,-662.5"/>
<polygon fill="#9a32cd" stroke="#9a32cd" points="1578.29,-536.59 1568.59,-540.87 1578.84,-543.57 1578.29,-536.59"/>
<text text-anchor="middle" x="1690.5" y="-559" font-family="Helvetica,sans-Serif" font-size="10.00"> cacheWeakPtr</text>
</g>
<!-- Node37 -->
<g id="node37" class="node">
<title>Node37</title>
<g id="a_node37"><a xlink:title=" ">
<polygon fill="white" stroke="#bfbfbf" points="1442.5,-1047.5 1442.5,-1066.5 1554.5,-1066.5 1554.5,-1047.5 1442.5,-1047.5"/>
<text text-anchor="middle" x="1498.5" y="-1054.5" font-family="Helvetica,sans-Serif" font-size="10.00">unique_ptr&lt; bool &gt;</text>
</a>
</g>
</g>
<!-- Node37&#45;&gt;Node15 -->
<g id="edge45" class="edge">
<title>Node37&#45;&gt;Node15</title>
<path fill="none" stroke="#9a32cd" stroke-dasharray="5,2" d="M1564.61,-1049.41C1630.77,-1037.94 1730.49,-1009.55 1781,-940 1813.98,-894.58 1780.16,-867.87 1799,-815 1818.44,-760.42 1860,-703.84 1877.25,-681.7"/>
<polygon fill="#9a32cd" stroke="#9a32cd" points="1563.99,-1045.96 1554.69,-1051.04 1565.13,-1052.87 1563.99,-1045.96"/>
<text text-anchor="middle" x="1690.5" y="-1055" font-family="Helvetica,sans-Serif" font-size="10.00"> matAssembleSwitch</text>
<text text-anchor="middle" x="1690.5" y="-1044" font-family="Helvetica,sans-Serif" font-size="10.00">vecAssembleSwitch</text>
</g>
<!-- Node38 -->
<g id="node38" class="node">
<title>Node38</title>
<g id="a_node38"><a xlink:title=" ">
<polygon fill="white" stroke="#bfbfbf" points="1127,-1348.5 1127,-1367.5 1156,-1367.5 1156,-1348.5 1127,-1348.5"/>
<text text-anchor="middle" x="1141.5" y="-1355.5" font-family="Helvetica,sans-Serif" font-size="10.00">int</text>
</a>
</g>
</g>
<!-- Node38&#45;&gt;Node2 -->
<g id="edge90" class="edge">
<title>Node38&#45;&gt;Node2</title>
<path fill="none" stroke="#9a32cd" stroke-dasharray="5,2" d="M1166.14,-1360.82C1223.08,-1367.36 1372.39,-1383 1497.5,-1383 1497.5,-1383 1497.5,-1383 3456.5,-1383 3709.7,-1383 3726.16,-924.6 3726.64,-820.75"/>
<polygon fill="#9a32cd" stroke="#9a32cd" points="1166.36,-1357.32 1156.02,-1359.64 1165.55,-1364.27 1166.36,-1357.32"/>
<text text-anchor="middle" x="2642" y="-1430" font-family="Helvetica,sans-Serif" font-size="10.00"> row_nb_dofs</text>
<text text-anchor="middle" x="2642" y="-1419" font-family="Helvetica,sans-Serif" font-size="10.00">col_nb_dofs</text>
<text text-anchor="middle" x="2642" y="-1408" font-family="Helvetica,sans-Serif" font-size="10.00">nb_gauss_pts</text>
<text text-anchor="middle" x="2642" y="-1397" font-family="Helvetica,sans-Serif" font-size="10.00">nb_base_fun_row</text>
<text text-anchor="middle" x="2642" y="-1386" font-family="Helvetica,sans-Serif" font-size="10.00">nb_base_fun_col</text>
</g>
<!-- Node38&#45;&gt;Node15 -->
<g id="edge46" class="edge">
<title>Node38&#45;&gt;Node15</title>
<path fill="none" stroke="#9a32cd" stroke-dasharray="5,2" d="M1166.05,-1362.24C1212.66,-1369.47 1318.93,-1380.15 1397,-1344 1407.56,-1339.11 1406.2,-1332.61 1415,-1325 1565.51,-1194.79 1683.14,-1240.3 1781,-1067 1808.61,-1018.11 1782.07,-868.53 1799,-815 1816.48,-759.76 1859.14,-703.55 1876.96,-681.6"/>
<polygon fill="#9a32cd" stroke="#9a32cd" points="1166.47,-1358.76 1156.03,-1360.59 1165.33,-1365.67 1166.47,-1358.76"/>
<text text-anchor="middle" x="1498.5" y="-1361" font-family="Helvetica,sans-Serif" font-size="10.00"> sIze</text>
<text text-anchor="middle" x="1498.5" y="-1350" font-family="Helvetica,sans-Serif" font-size="10.00">loopSize</text>
<text text-anchor="middle" x="1498.5" y="-1339" font-family="Helvetica,sans-Serif" font-size="10.00">nInTheLoop</text>
<text text-anchor="middle" x="1498.5" y="-1328" font-family="Helvetica,sans-Serif" font-size="10.00">rAnk</text>
</g>
<!-- Node38&#45;&gt;Node40 -->
<g id="edge58" class="edge">
<title>Node38&#45;&gt;Node40</title>
<path fill="none" stroke="#9a32cd" stroke-dasharray="5,2" d="M1163.18,-1342.23C1183.52,-1326.69 1215.44,-1302.27 1243,-1281 1251.02,-1274.81 1251.72,-1271.08 1261,-1267 1317.12,-1242.32 1355.43,-1289.05 1397,-1244 1428.16,-1210.23 1384.85,-1072.67 1415,-1038 1423.58,-1028.13 1436.17,-1022.83 1448.94,-1020.11"/>
<polygon fill="#9a32cd" stroke="#9a32cd" points="1161.04,-1339.46 1155.21,-1348.31 1165.29,-1345.02 1161.04,-1339.46"/>
<text text-anchor="middle" x="1329" y="-1336" font-family="Helvetica,sans-Serif" font-size="10.00"> tagNameSize</text>
<text text-anchor="middle" x="1329" y="-1325" font-family="Helvetica,sans-Serif" font-size="10.00">nbDofsRow</text>
<text text-anchor="middle" x="1329" y="-1314" font-family="Helvetica,sans-Serif" font-size="10.00">nbLocDofsCol</text>
<text text-anchor="middle" x="1329" y="-1303" font-family="Helvetica,sans-Serif" font-size="10.00">nbDofsCol</text>
<text text-anchor="middle" x="1329" y="-1292" font-family="Helvetica,sans-Serif" font-size="10.00">nbGhostDofsRow</text>
<text text-anchor="middle" x="1329" y="-1281" font-family="Helvetica,sans-Serif" font-size="10.00">nbGhostDofsCol</text>
<text text-anchor="middle" x="1329" y="-1270" font-family="Helvetica,sans-Serif" font-size="10.00">nbLocDofsRow</text>
</g>
<!-- Node39 -->
<g id="node39" class="node">
<title>Node39</title>
<g id="a_node39"><a xlink:title=" ">
<polygon fill="white" stroke="#bfbfbf" points="1415,-614.5 1415,-633.5 1582,-633.5 1582,-614.5 1415,-614.5"/>
<text text-anchor="middle" x="1498.5" y="-621.5" font-family="Helvetica,sans-Serif" font-size="10.00">function&lt; MoFEMErrorCode()&gt;</text>
</a>
</g>
</g>
<!-- Node39&#45;&gt;Node15 -->
<g id="edge47" class="edge">
<title>Node39&#45;&gt;Node15</title>
<path fill="none" stroke="#9a32cd" stroke-dasharray="5,2" d="M1592.2,-615.84C1647.59,-613.22 1719.01,-613.82 1781,-627 1813.52,-633.91 1848.43,-651.31 1868.4,-662.34"/>
<polygon fill="#9a32cd" stroke="#9a32cd" points="1591.85,-612.35 1582.05,-616.37 1592.22,-619.35 1591.85,-612.35"/>
<text text-anchor="middle" x="1690.5" y="-652" font-family="Helvetica,sans-Serif" font-size="10.00"> preProcessHook</text>
<text text-anchor="middle" x="1690.5" y="-641" font-family="Helvetica,sans-Serif" font-size="10.00">operatorHook</text>
<text text-anchor="middle" x="1690.5" y="-630" font-family="Helvetica,sans-Serif" font-size="10.00">postProcessHook</text>
</g>
<!-- Node40&#45;&gt;Node15 -->
<g id="edge48" class="edge">
<title>Node40&#45;&gt;Node15</title>
<path fill="none" stroke="#9a32cd" stroke-dasharray="5,2" d="M1517.99,-1002.36C1585.96,-941.17 1820.8,-729.79 1874.16,-681.76"/>
<polygon fill="#9a32cd" stroke="#9a32cd" points="1515.3,-1000.07 1510.21,-1009.36 1519.99,-1005.27 1515.3,-1000.07"/>
<text text-anchor="middle" x="1690.5" y="-928" font-family="Helvetica,sans-Serif" font-size="10.00"> problemPtr</text>
</g>
<!-- Node41 -->
<g id="node41" class="node">
<title>Node41</title>
<g id="a_node41"><a xlink:title=" ">
<polygon fill="white" stroke="#bfbfbf" points="1058,-1241 1058,-1271 1225,-1271 1225,-1241 1058,-1241"/>
<text text-anchor="start" x="1066" y="-1259" font-family="Helvetica,sans-Serif" font-size="10.00">shared_ptr&lt; NumeredEntFinite</text>
<text text-anchor="middle" x="1141.5" y="-1248" font-family="Helvetica,sans-Serif" font-size="10.00">Element_multiIndex &gt;</text>
</a>
</g>
</g>
<!-- Node41&#45;&gt;Node40 -->
<g id="edge49" class="edge">
<title>Node41&#45;&gt;Node40</title>
<path fill="none" stroke="#9a32cd" stroke-dasharray="5,2" d="M1228.59,-1239.04C1239.49,-1236.96 1250.5,-1234.91 1261,-1233 1291.16,-1227.52 1376.02,-1232.35 1397,-1210 1449.6,-1153.96 1364.07,-1095.56 1415,-1038 1423.57,-1028.31 1436,-1023.04 1448.62,-1020.29"/>
<polygon fill="#9a32cd" stroke="#9a32cd" points="1227.79,-1235.63 1218.63,-1240.94 1229.1,-1242.5 1227.79,-1235.63"/>
<text text-anchor="middle" x="1329" y="-1236" font-family="Helvetica,sans-Serif" font-size="10.00"> numeredFiniteElementsPtr</text>
</g>
<!-- Node42 -->
<g id="node42" class="node">
<title>Node42</title>
<g id="a_node42"><a xlink:title=" ">
<polygon fill="white" stroke="#bfbfbf" points="1112,-1202.5 1112,-1221.5 1171,-1221.5 1171,-1202.5 1112,-1202.5"/>
<text text-anchor="middle" x="1141.5" y="-1209.5" font-family="Helvetica,sans-Serif" font-size="10.00">BitFEId *</text>
</a>
</g>
</g>
<!-- Node42&#45;&gt;Node40 -->
<g id="edge50" class="edge">
<title>Node42&#45;&gt;Node40</title>
<path fill="none" stroke="#9a32cd" stroke-dasharray="5,2" d="M1181.22,-1207.76C1250.57,-1200 1389.48,-1183.6 1397,-1176 1440.5,-1132.03 1373.43,-1083.8 1415,-1038 1423.69,-1028.42 1436.16,-1023.19 1448.78,-1020.43"/>
<polygon fill="#9a32cd" stroke="#9a32cd" points="1180.67,-1204.3 1171.12,-1208.89 1181.44,-1211.26 1180.67,-1204.3"/>
<text text-anchor="middle" x="1329" y="-1200" font-family="Helvetica,sans-Serif" font-size="10.00"> tagBitFEId</text>
</g>
<!-- Node43 -->
<g id="node43" class="node">
<title>Node43</title>
<g id="a_node43"><a xlink:href="classEntityHandle.html" target="_top" xlink:title=" ">
<polygon fill="white" stroke="black" points="1101.5,-1164.5 1101.5,-1183.5 1181.5,-1183.5 1181.5,-1164.5 1101.5,-1164.5"/>
<text text-anchor="middle" x="1141.5" y="-1171.5" font-family="Helvetica,sans-Serif" font-size="10.00">EntityHandle</text>
</a>
</g>
</g>
<!-- Node43&#45;&gt;Node40 -->
<g id="edge51" class="edge">
<title>Node43&#45;&gt;Node40</title>
<path fill="none" stroke="#9a32cd" stroke-dasharray="5,2" d="M1192.08,-1170.5C1261.94,-1165.11 1382.48,-1153.92 1397,-1140 1430.22,-1108.14 1383.3,-1071.38 1415,-1038 1423.81,-1028.73 1436.15,-1023.56 1448.62,-1020.79"/>
<polygon fill="#9a32cd" stroke="#9a32cd" points="1191.45,-1167.04 1181.74,-1171.29 1191.98,-1174.02 1191.45,-1167.04"/>
<text text-anchor="middle" x="1329" y="-1167" font-family="Helvetica,sans-Serif" font-size="10.00"> meshset</text>
</g>
<!-- Node44 -->
<g id="node44" class="node">
<title>Node44</title>
<g id="a_node44"><a xlink:title=" ">
<polygon fill="white" stroke="#bfbfbf" points="1067,-1115 1067,-1145 1216,-1145 1216,-1115 1067,-1115"/>
<text text-anchor="start" x="1075" y="-1133" font-family="Helvetica,sans-Serif" font-size="10.00">shared_ptr&lt; MoFEM::</text>
<text text-anchor="middle" x="1141.5" y="-1122" font-family="Helvetica,sans-Serif" font-size="10.00">ComposedProblemsData &gt;</text>
</a>
</g>
</g>
<!-- Node44&#45;&gt;Node40 -->
<g id="edge52" class="edge">
<title>Node44&#45;&gt;Node40</title>
<path fill="none" stroke="#9a32cd" stroke-dasharray="5,2" d="M1226.04,-1127.18C1295.15,-1124.08 1384.01,-1118 1397,-1107 1421.18,-1086.51 1392.27,-1060.08 1415,-1038 1424.07,-1029.19 1436.35,-1024.16 1448.67,-1021.36"/>
<polygon fill="#9a32cd" stroke="#9a32cd" points="1225.84,-1123.69 1216,-1127.62 1226.14,-1130.68 1225.84,-1123.69"/>
<text text-anchor="middle" x="1329" y="-1128" font-family="Helvetica,sans-Serif" font-size="10.00"> composedProblemsData</text>
</g>
<!-- Node45 -->
<g id="node45" class="node">
<title>Node45</title>
<g id="a_node45"><a xlink:title=" ">
<polygon fill="white" stroke="#bfbfbf" points="1101,-1076.5 1101,-1095.5 1182,-1095.5 1182,-1076.5 1101,-1076.5"/>
<text text-anchor="middle" x="1141.5" y="-1083.5" font-family="Helvetica,sans-Serif" font-size="10.00">BitRefLevel *</text>
</a>
</g>
</g>
<!-- Node45&#45;&gt;Node40 -->
<g id="edge53" class="edge">
<title>Node45&#45;&gt;Node40</title>
<path fill="none" stroke="#9a32cd" stroke-dasharray="5,2" d="M1192.47,-1085.03C1256.29,-1083.06 1362.58,-1077.09 1397,-1059 1407.88,-1053.28 1404.48,-1044.37 1415,-1038 1425.19,-1031.84 1437.18,-1027.67 1448.83,-1024.86"/>
<polygon fill="#9a32cd" stroke="#9a32cd" points="1192.12,-1081.54 1182.23,-1085.33 1192.32,-1088.54 1192.12,-1081.54"/>
<text text-anchor="middle" x="1329" y="-1095" font-family="Helvetica,sans-Serif" font-size="10.00"> tagBitRefLevelMask</text>
<text text-anchor="middle" x="1329" y="-1084" font-family="Helvetica,sans-Serif" font-size="10.00">tagBitRefLevel</text>
</g>
<!-- Node46 -->
<g id="node46" class="node">
<title>Node46</title>
<g id="a_node46"><a xlink:title=" ">
<polygon fill="white" stroke="#bfbfbf" points="1056.5,-1027 1056.5,-1057 1226.5,-1057 1226.5,-1027 1056.5,-1027"/>
<text text-anchor="start" x="1064.5" y="-1045" font-family="Helvetica,sans-Serif" font-size="10.00">shared_ptr&lt; NumeredDofEntity</text>
<text text-anchor="middle" x="1141.5" y="-1034" font-family="Helvetica,sans-Serif" font-size="10.00">_multiIndex &gt;</text>
</a>
</g>
</g>
<!-- Node46&#45;&gt;Node40 -->
<g id="edge54" class="edge">
<title>Node46&#45;&gt;Node40</title>
<path fill="none" stroke="#9a32cd" stroke-dasharray="5,2" d="M1236.96,-1035.88C1305.2,-1031.46 1394.57,-1025.67 1448.92,-1022.15"/>
<polygon fill="#9a32cd" stroke="#9a32cd" points="1236.38,-1032.41 1226.63,-1036.55 1236.84,-1039.4 1236.38,-1032.41"/>
<text text-anchor="middle" x="1329" y="-1047" font-family="Helvetica,sans-Serif" font-size="10.00"> numeredRowDofsPtr</text>
<text text-anchor="middle" x="1329" y="-1036" font-family="Helvetica,sans-Serif" font-size="10.00">numeredColDofsPtr</text>
</g>
<!-- Node47 -->
<g id="node47" class="node">
<title>Node47</title>
<g id="a_node47"><a xlink:title=" ">
<polygon fill="white" stroke="#bfbfbf" points="1072.5,-988.5 1072.5,-1007.5 1210.5,-1007.5 1210.5,-988.5 1072.5,-988.5"/>
<text text-anchor="middle" x="1141.5" y="-995.5" font-family="Helvetica,sans-Serif" font-size="10.00">vector&lt; BlockFieldPair &gt;</text>
</a>
</g>
</g>
<!-- Node47&#45;&gt;Node40 -->
<g id="edge56" class="edge">
<title>Node47&#45;&gt;Node40</title>
<path fill="none" stroke="#9a32cd" stroke-dasharray="5,2" d="M1220.81,-999.08C1271.19,-1000.19 1338.03,-1002.44 1397,-1007 1413.91,-1008.31 1432.35,-1010.33 1448.76,-1012.35"/>
<polygon fill="#9a32cd" stroke="#9a32cd" points="1220.71,-995.58 1210.64,-998.87 1220.56,-1002.58 1220.71,-995.58"/>
<text text-anchor="middle" x="1329" y="-1010" font-family="Helvetica,sans-Serif" font-size="10.00"> emptyFieldBlocks</text>
</g>
<!-- Node48 -->
<g id="node48" class="node">
<title>Node48</title>
<g id="a_node48"><a xlink:title=" ">
<polygon fill="white" stroke="#bfbfbf" points="1063.5,-939 1063.5,-969 1219.5,-969 1219.5,-939 1063.5,-939"/>
<text text-anchor="start" x="1071.5" y="-957" font-family="Helvetica,sans-Serif" font-size="10.00">shared_ptr&lt; MoFEM::</text>
<text text-anchor="middle" x="1141.5" y="-946" font-family="Helvetica,sans-Serif" font-size="10.00">Problem::SubProblemData &gt;</text>
</a>
</g>
</g>
<!-- Node48&#45;&gt;Node40 -->
<g id="edge57" class="edge">
<title>Node48&#45;&gt;Node40</title>
<path fill="none" stroke="#9a32cd" stroke-dasharray="5,2" d="M1229.8,-960.18C1279.28,-964.79 1342.08,-972.51 1397,-985 1423.94,-991.13 1453.81,-1001.75 1473.93,-1009.49"/>
<polygon fill="#9a32cd" stroke="#9a32cd" points="1230.05,-956.69 1219.77,-959.27 1229.41,-963.66 1230.05,-956.69"/>
<text text-anchor="middle" x="1329" y="-988" font-family="Helvetica,sans-Serif" font-size="10.00"> subProblemData</text>
</g>
<!-- Node49 -->
<g id="node49" class="node">
<title>Node49</title>
<g id="a_node49"><a xlink:title=" ">
<polygon fill="white" stroke="#bfbfbf" points="1040,-900.5 1040,-919.5 1243,-919.5 1243,-900.5 1040,-900.5"/>
<text text-anchor="middle" x="1141.5" y="-907.5" font-family="Helvetica,sans-Serif" font-size="10.00">shared_ptr&lt; SequenceDofContainer &gt;</text>
</a>
</g>
</g>
<!-- Node49&#45;&gt;Node40 -->
<g id="edge59" class="edge">
<title>Node49&#45;&gt;Node40</title>
<path fill="none" stroke="#9a32cd" stroke-dasharray="5,2" d="M1253.07,-908.01C1299.07,-910.63 1352.11,-918.28 1397,-937 1436.91,-953.64 1473.48,-991.44 1489.28,-1009.31"/>
<polygon fill="#9a32cd" stroke="#9a32cd" points="1253.22,-904.52 1243.06,-907.52 1252.87,-911.51 1253.22,-904.52"/>
<text text-anchor="middle" x="1329" y="-951" font-family="Helvetica,sans-Serif" font-size="10.00"> sequenceRowDofContainer</text>
<text text-anchor="middle" x="1329" y="-940" font-family="Helvetica,sans-Serif" font-size="10.00">sequenceColDofContainer</text>
</g>
<!-- Node50 -->
<g id="node50" class="node">
<title>Node50</title>
<g id="a_node50"><a xlink:title=" ">
<polygon fill="white" stroke="#bfbfbf" points="1097.5,-862.5 1097.5,-881.5 1185.5,-881.5 1185.5,-862.5 1097.5,-862.5"/>
<text text-anchor="middle" x="1141.5" y="-869.5" font-family="Helvetica,sans-Serif" font-size="10.00">BitProblemId *</text>
</a>
</g>
</g>
<!-- Node50&#45;&gt;Node40 -->
<g id="edge60" class="edge">
<title>Node50&#45;&gt;Node40</title>
<path fill="none" stroke="#9a32cd" stroke-dasharray="5,2" d="M1195.97,-864.62C1249.97,-859.76 1334.16,-859.49 1397,-893 1447.61,-919.99 1481.61,-984.55 1493.15,-1009.2"/>
<polygon fill="#9a32cd" stroke="#9a32cd" points="1195.53,-861.15 1185.92,-865.61 1196.21,-868.11 1195.53,-861.15"/>
<text text-anchor="middle" x="1329" y="-896" font-family="Helvetica,sans-Serif" font-size="10.00"> tagId</text>
</g>
<!-- Node51 -->
<g id="node51" class="node">
<title>Node51</title>
<g id="a_node51"><a xlink:title=" ">
<polygon fill="white" stroke="#bfbfbf" points="1805,-824 1805,-854 1967,-854 1967,-824 1805,-824"/>
<text text-anchor="start" x="1813" y="-842" font-family="Helvetica,sans-Serif" font-size="10.00">shared_ptr&lt; const MoFEM</text>
<text text-anchor="middle" x="1886" y="-831" font-family="Helvetica,sans-Serif" font-size="10.00">::NumeredEntFiniteElement &gt;</text>
</a>
</g>
</g>
<!-- Node51&#45;&gt;Node14 -->
<g id="edge61" class="edge">
<title>Node51&#45;&gt;Node14</title>
<path fill="none" stroke="#9a32cd" stroke-dasharray="5,2" d="M1977.54,-845.15C2048.18,-849.95 2143.85,-856.45 2202.4,-860.43"/>
<polygon fill="#9a32cd" stroke="#9a32cd" points="1977.52,-841.64 1967.3,-844.46 1977.04,-848.63 1977.52,-841.64"/>
<text text-anchor="middle" x="2063" y="-858" font-family="Helvetica,sans-Serif" font-size="10.00"> numeredEntFiniteElementPtr</text>
</g>
<!-- Node52 -->
<g id="node52" class="node">
<title>Node52</title>
<g id="a_node52"><a xlink:title=" ">
<polygon fill="white" stroke="#bfbfbf" points="1864,-594.5 1864,-613.5 1908,-613.5 1908,-594.5 1864,-594.5"/>
<text text-anchor="middle" x="1886" y="-601.5" font-family="Helvetica,sans-Serif" font-size="10.00">string</text>
</a>
</g>
</g>
<!-- Node52&#45;&gt;Node5 -->
<g id="edge84" class="edge">
<title>Node52&#45;&gt;Node5</title>
<path fill="none" stroke="#9a32cd" stroke-dasharray="5,2" d="M1918.11,-602.3C1967.76,-599.67 2067.97,-594.76 2153,-593 2408.08,-587.73 2472.32,-585.78 2727,-601 2762.98,-603.15 2802.6,-606.8 2836.6,-610.33"/>
<polygon fill="#9a32cd" stroke="#9a32cd" points="1917.82,-598.81 1908.03,-602.83 1918.2,-605.8 1917.82,-598.81"/>
<text text-anchor="middle" x="2458" y="-606" font-family="Helvetica,sans-Serif" font-size="10.00"> colFieldName</text>
<text text-anchor="middle" x="2458" y="-595" font-family="Helvetica,sans-Serif" font-size="10.00">rowFieldName</text>
</g>
<!-- Node52&#45;&gt;Node14 -->
<g id="edge62" class="edge">
<title>Node52&#45;&gt;Node14</title>
<path fill="none" stroke="#9a32cd" stroke-dasharray="5,2" d="M1918.07,-611.7C1971.71,-626.72 2081.11,-665.31 2135,-741 2162.21,-779.21 2120.04,-811.62 2153,-845 2165.85,-858.01 2184.54,-863.69 2202.42,-865.81"/>
<polygon fill="#9a32cd" stroke="#9a32cd" points="1918.68,-608.24 1908.12,-609.01 1916.86,-615 1918.68,-608.24"/>
<text text-anchor="middle" x="2063" y="-744" font-family="Helvetica,sans-Serif" font-size="10.00"> feName</text>
</g>
<!-- Node53 -->
<g id="node53" class="node">
<title>Node53</title>
<g id="a_node53"><a xlink:title=" ">
<polygon fill="white" stroke="#bfbfbf" points="1804.5,-873 1804.5,-903 1967.5,-903 1967.5,-873 1804.5,-873"/>
<text text-anchor="start" x="1812.5" y="-891" font-family="Helvetica,sans-Serif" font-size="10.00">function&lt; bool(MoFEM</text>
<text text-anchor="middle" x="1886" y="-880" font-family="Helvetica,sans-Serif" font-size="10.00">::FEMethod *fe_method_ptr)&gt;</text>
</a>
</g>
</g>
<!-- Node53&#45;&gt;Node14 -->
<g id="edge63" class="edge">
<title>Node53&#45;&gt;Node14</title>
<path fill="none" stroke="#9a32cd" stroke-dasharray="5,2" d="M1977.98,-882.07C2048.52,-877.47 2143.82,-871.25 2202.26,-867.44"/>
<polygon fill="#9a32cd" stroke="#9a32cd" points="1977.51,-878.59 1967.76,-882.73 1977.97,-885.57 1977.51,-878.59"/>
<text text-anchor="middle" x="2063" y="-883" font-family="Helvetica,sans-Serif" font-size="10.00"> exeTestHook</text>
</g>
<!-- Node54 -->
<g id="node54" class="node">
<title>Node54</title>
<g id="a_node54"><a xlink:href="classdouble.html" target="_top" xlink:title=" ">
<polygon fill="white" stroke="black" points="2231,-952.5 2231,-971.5 2281,-971.5 2281,-952.5 2231,-952.5"/>
<text text-anchor="middle" x="2256" y="-959.5" font-family="Helvetica,sans-Serif" font-size="10.00">double</text>
</a>
</g>
</g>
<!-- Node54&#45;&gt;Node13 -->
<g id="edge64" class="edge">
<title>Node54&#45;&gt;Node13</title>
<path fill="none" stroke="#9a32cd" stroke-dasharray="5,2" d="M2291.21,-956.84C2345.72,-950.08 2454.74,-942.56 2539,-975 2580.53,-990.99 2617.69,-1030.98 2633.26,-1049.42"/>
<polygon fill="#9a32cd" stroke="#9a32cd" points="2290.51,-953.4 2281.05,-958.17 2291.42,-960.34 2290.51,-953.4"/>
<text text-anchor="middle" x="2458" y="-978" font-family="Helvetica,sans-Serif" font-size="10.00"> elementMeasure</text>
</g>
<!-- Node55 -->
<g id="node55" class="node">
<title>Node55</title>
<g id="a_node55"><a xlink:title=" ">
<polygon fill="white" stroke="#bfbfbf" points="2170,-892.5 2170,-933.5 2342,-933.5 2342,-892.5 2170,-892.5"/>
<text text-anchor="start" x="2178" y="-921.5" font-family="Helvetica,sans-Serif" font-size="10.00">array&lt; boost::shared</text>
<text text-anchor="start" x="2178" y="-910.5" font-family="Helvetica,sans-Serif" font-size="10.00">_ptr&lt; MoFEM::EntitiesFieldData</text>
<text text-anchor="middle" x="2256" y="-899.5" font-family="Helvetica,sans-Serif" font-size="10.00"> &gt;, LASTSPACE &gt;</text>
</a>
</g>
</g>
<!-- Node55&#45;&gt;Node13 -->
<g id="edge65" class="edge">
<title>Node55&#45;&gt;Node13</title>
<path fill="none" stroke="#9a32cd" stroke-dasharray="5,2" d="M2352.19,-897.07C2409.46,-892.1 2482.05,-894.25 2539,-924 2592.9,-952.15 2626.32,-1023.04 2637.14,-1049.15"/>
<polygon fill="#9a32cd" stroke="#9a32cd" points="2351.66,-893.6 2342.04,-898.03 2352.33,-900.57 2351.66,-893.6"/>
<text text-anchor="middle" x="2458" y="-938" font-family="Helvetica,sans-Serif" font-size="10.00"> derivedDataOnElement</text>
<text text-anchor="middle" x="2458" y="-927" font-family="Helvetica,sans-Serif" font-size="10.00">dataOnElement</text>
</g>
<!-- Node56 -->
<g id="node56" class="node">
<title>Node56</title>
<g id="a_node56"><a xlink:title=" ">
<polygon fill="white" stroke="#bfbfbf" points="2222,-1335.5 2222,-1354.5 2290,-1354.5 2290,-1335.5 2222,-1335.5"/>
<text text-anchor="middle" x="2256" y="-1342.5" font-family="Helvetica,sans-Serif" font-size="10.00">EntityType</text>
</a>
</g>
</g>
<!-- Node56&#45;&gt;Node13 -->
<g id="edge66" class="edge">
<title>Node56&#45;&gt;Node13</title>
<path fill="none" stroke="#9a32cd" stroke-dasharray="5,2" d="M2300.31,-1346.22C2369.88,-1347.31 2502.43,-1345.55 2539,-1318 2624.31,-1253.74 2638.34,-1107.41 2640.59,-1068.6"/>
<polygon fill="#9a32cd" stroke="#9a32cd" points="2300.18,-1342.71 2290.12,-1346.03 2300.05,-1349.71 2300.18,-1342.71"/>
<text text-anchor="middle" x="2458" y="-1348" font-family="Helvetica,sans-Serif" font-size="10.00"> lastEvaluatedElementEntityType</text>
</g>
<!-- Node57 -->
<g id="node57" class="node">
<title>Node57</title>
<g id="a_node57"><a xlink:href="structMoFEM_1_1DeprecatedCoreInterface.html" target="_top" xlink:title="Deprecated interface functions.">
<polygon fill="white" stroke="black" points="1600,-1326.5 1600,-1345.5 1781,-1345.5 1781,-1326.5 1600,-1326.5"/>
<text text-anchor="middle" x="1690.5" y="-1333.5" font-family="Helvetica,sans-Serif" font-size="10.00">MoFEM::DeprecatedCoreInterface</text>
</a>
</g>
</g>
<!-- Node57&#45;&gt;Node13 -->
<g id="edge67" class="edge">
<title>Node57&#45;&gt;Node13</title>
<path fill="none" stroke="#9a32cd" stroke-dasharray="5,2" d="M1703.05,-1317.8C1722.46,-1286.34 1761.39,-1219.16 1781,-1157 1789.18,-1131.08 1778.84,-1054.24 1799,-1036 1983.63,-868.92 2110.07,-1012.78 2359,-1019 2439.07,-1021 2460.09,-1014.25 2539,-1028 2565.8,-1032.67 2595.46,-1042.2 2615.85,-1049.47"/>
<polygon fill="#9a32cd" stroke="#9a32cd" points="1700.03,-1316.04 1697.7,-1326.38 1705.97,-1319.75 1700.03,-1316.04"/>
<text text-anchor="middle" x="2063" y="-983" font-family="Helvetica,sans-Serif" font-size="10.00"> mField</text>
</g>
<!-- Node58&#45;&gt;Node57 -->
<g id="edge68" class="edge">
<title>Node58&#45;&gt;Node57</title>
<path fill="none" stroke="midnightblue" d="M1213.74,-785.08C1224.23,-788.59 1234.38,-793.41 1243,-800 1256.27,-810.15 1247.57,-823.06 1261,-833 1310.6,-869.72 1340.74,-835.63 1397,-861 1490.75,-903.28 1524.4,-914.8 1582,-1000 1599.27,-1025.54 1591.13,-1037.47 1600,-1067 1630.73,-1169.29 1673.67,-1291.45 1686.04,-1326.29"/>
<polygon fill="midnightblue" stroke="midnightblue" points="1214.63,-781.69 1204.05,-782.21 1212.64,-788.41 1214.63,-781.69"/>
</g>
<!-- Node59 -->
<g id="node59" class="node">
<title>Node59</title>
<g id="a_node59"><a xlink:title=" ">
<polygon fill="white" stroke="#bfbfbf" points="2172.5,-1264 2172.5,-1316 2339.5,-1316 2339.5,-1264 2172.5,-1264"/>
<text text-anchor="start" x="2180.5" y="-1304" font-family="Helvetica,sans-Serif" font-size="10.00">function&lt; MoFEMErrorCode</text>
<text text-anchor="start" x="2180.5" y="-1293" font-family="Helvetica,sans-Serif" font-size="10.00">(ForcesAndSourcesCore *fe</text>
<text text-anchor="start" x="2180.5" y="-1282" font-family="Helvetica,sans-Serif" font-size="10.00">_raw_ptr, int order_row,</text>
<text text-anchor="middle" x="2256" y="-1271" font-family="Helvetica,sans-Serif" font-size="10.00"> int order_col, int order_data)&gt;</text>
</a>
</g>
</g>
<!-- Node59&#45;&gt;Node13 -->
<g id="edge71" class="edge">
<title>Node59&#45;&gt;Node13</title>
<path fill="none" stroke="#9a32cd" stroke-dasharray="5,2" d="M2349.83,-1302.78C2408.89,-1306.01 2484.27,-1300.55 2539,-1263 2609.53,-1214.61 2633.66,-1102.65 2639.47,-1068.84"/>
<polygon fill="#9a32cd" stroke="#9a32cd" points="2349.95,-1299.29 2339.75,-1302.14 2349.5,-1306.27 2349.95,-1299.29"/>
<text text-anchor="middle" x="2458" y="-1306" font-family="Helvetica,sans-Serif" font-size="10.00"> setRuleHook</text>
</g>
<!-- Node60 -->
<g id="node60" class="node">
<title>Node60</title>
<g id="a_node60"><a xlink:title=" ">
<polygon fill="white" stroke="#bfbfbf" points="2155,-1215 2155,-1245 2357,-1245 2357,-1215 2155,-1215"/>
<text text-anchor="start" x="2163" y="-1233" font-family="Helvetica,sans-Serif" font-size="10.00">ptr_deque&lt; MoFEM::Forces</text>
<text text-anchor="middle" x="2256" y="-1222" font-family="Helvetica,sans-Serif" font-size="10.00">AndSourcesCore::UserDataOperator &gt;</text>
</a>
</g>
</g>
<!-- Node60&#45;&gt;Node13 -->
<g id="edge72" class="edge">
<title>Node60&#45;&gt;Node13</title>
<path fill="none" stroke="#9a32cd" stroke-dasharray="5,2" d="M2347.46,-1246.08C2405.89,-1251.8 2481.46,-1250.08 2539,-1217 2598.72,-1182.66 2629.29,-1097.59 2638.19,-1068.75"/>
<polygon fill="#9a32cd" stroke="#9a32cd" points="2347.82,-1242.6 2337.5,-1245.02 2347.07,-1249.56 2347.82,-1242.6"/>
<text text-anchor="middle" x="2458" y="-1251" font-family="Helvetica,sans-Serif" font-size="10.00"> opPtrVector</text>
</g>
<!-- Node61 -->
<g id="node61" class="node">
<title>Node61</title>
<g id="a_node61"><a xlink:href="structMoFEM_1_1EntitiesFieldData.html" target="_top" xlink:title="data structure for finite element entity">
<polygon fill="white" stroke="black" points="2185,-1176.5 2185,-1195.5 2327,-1195.5 2327,-1176.5 2185,-1176.5"/>
<text text-anchor="middle" x="2256" y="-1183.5" font-family="Helvetica,sans-Serif" font-size="10.00">MoFEM::EntitiesFieldData</text>
</a>
</g>
</g>
<!-- Node61&#45;&gt;Node13 -->
<g id="edge73" class="edge">
<title>Node61&#45;&gt;Node13</title>
<path fill="none" stroke="#9a32cd" stroke-dasharray="5,2" d="M2323.01,-1174.57C2335.02,-1172.25 2347.42,-1169.68 2359,-1167 2367.09,-1165.13 2368.87,-1163.7 2377,-1162 2448.18,-1147.13 2472.11,-1167.52 2539,-1139 2578.54,-1122.14 2615.86,-1085.91 2632.26,-1068.59"/>
<polygon fill="#9a32cd" stroke="#9a32cd" points="2322.2,-1171.16 2313.03,-1176.47 2323.51,-1178.04 2322.2,-1171.16"/>
<text text-anchor="middle" x="2458" y="-1209" font-family="Helvetica,sans-Serif" font-size="10.00"> dataNoField</text>
<text text-anchor="middle" x="2458" y="-1198" font-family="Helvetica,sans-Serif" font-size="10.00">dataL2</text>
<text text-anchor="middle" x="2458" y="-1187" font-family="Helvetica,sans-Serif" font-size="10.00">dataH1</text>
<text text-anchor="middle" x="2458" y="-1176" font-family="Helvetica,sans-Serif" font-size="10.00">dataHcurl</text>
<text text-anchor="middle" x="2458" y="-1165" font-family="Helvetica,sans-Serif" font-size="10.00">dataHdiv</text>
</g>
<!-- Node62 -->
<g id="node62" class="node">
<title>Node62</title>
<g id="a_node62"><a xlink:title=" ">
<polygon fill="white" stroke="#bfbfbf" points="1805,-1155 1805,-1185 1967,-1185 1967,-1155 1805,-1155"/>
<text text-anchor="start" x="1813" y="-1173" font-family="Helvetica,sans-Serif" font-size="10.00">array&lt; std::bitset</text>
<text text-anchor="middle" x="1886" y="-1162" font-family="Helvetica,sans-Serif" font-size="10.00">&lt; LASTBASE &gt;, LASTSPACE &gt;</text>
</a>
</g>
</g>
<!-- Node62&#45;&gt;Node61 -->
<g id="edge74" class="edge">
<title>Node62&#45;&gt;Node61</title>
<path fill="none" stroke="#9a32cd" stroke-dasharray="5,2" d="M1977.38,-1167.76C2024.43,-1167.25 2082.86,-1167.65 2135,-1171 2153.02,-1172.16 2172.47,-1174.23 2190.37,-1176.47"/>
<polygon fill="#9a32cd" stroke="#9a32cd" points="1977.18,-1164.26 1967.22,-1167.88 1977.26,-1171.26 1977.18,-1164.26"/>
<text text-anchor="middle" x="2063" y="-1185" font-family="Helvetica,sans-Serif" font-size="10.00"> brokenBasesOnSpaces</text>
<text text-anchor="middle" x="2063" y="-1174" font-family="Helvetica,sans-Serif" font-size="10.00">basesOnSpaces</text>
</g>
<!-- Node63 -->
<g id="node63" class="node">
<title>Node63</title>
<g id="a_node63"><a xlink:title=" ">
<polygon fill="white" stroke="#bfbfbf" points="1809.5,-1094.5 1809.5,-1135.5 1962.5,-1135.5 1962.5,-1094.5 1809.5,-1094.5"/>
<text text-anchor="start" x="1817.5" y="-1123.5" font-family="Helvetica,sans-Serif" font-size="10.00">array&lt; boost::ptr_vector</text>
<text text-anchor="start" x="1817.5" y="-1112.5" font-family="Helvetica,sans-Serif" font-size="10.00">&lt; MoFEM::EntitiesFieldData</text>
<text text-anchor="middle" x="1886" y="-1101.5" font-family="Helvetica,sans-Serif" font-size="10.00">::EntData &gt;, MBMAXTYPE &gt;</text>
</a>
</g>
</g>
<!-- Node63&#45;&gt;Node61 -->
<g id="edge75" class="edge">
<title>Node63&#45;&gt;Node61</title>
<path fill="none" stroke="#9a32cd" stroke-dasharray="5,2" d="M1972.67,-1116.39C2021.99,-1119.93 2084.09,-1129.18 2135,-1152 2144.5,-1156.26 2143.58,-1162.57 2153,-1167 2162.94,-1171.67 2173.94,-1175.2 2184.92,-1177.86"/>
<polygon fill="#9a32cd" stroke="#9a32cd" points="1972.87,-1112.9 1962.67,-1115.74 1972.42,-1119.88 1972.87,-1112.9"/>
<text text-anchor="middle" x="2063" y="-1155" font-family="Helvetica,sans-Serif" font-size="10.00"> dataOnEntities</text>
</g>
<!-- Node64 -->
<g id="node64" class="node">
<title>Node64</title>
<g id="a_node64"><a xlink:title=" ">
<polygon fill="white" stroke="#bfbfbf" points="1799,-1045 1799,-1075 1973,-1075 1973,-1045 1799,-1045"/>
<text text-anchor="start" x="1807" y="-1063" font-family="Helvetica,sans-Serif" font-size="10.00">array&lt; std::bitset</text>
<text text-anchor="middle" x="1886" y="-1052" font-family="Helvetica,sans-Serif" font-size="10.00">&lt; LASTSPACE &gt;, MBMAXTYPE &gt;</text>
</a>
</g>
</g>
<!-- Node64&#45;&gt;Node61 -->
<g id="edge76" class="edge">
<title>Node64&#45;&gt;Node61</title>
<path fill="none" stroke="#9a32cd" stroke-dasharray="5,2" d="M1983.33,-1053C2034.25,-1054.53 2094.43,-1065.38 2135,-1102 2157.25,-1122.08 2130.91,-1146.73 2153,-1167 2161.89,-1175.16 2173.12,-1180.35 2184.84,-1183.56"/>
<polygon fill="#9a32cd" stroke="#9a32cd" points="1983.35,-1049.5 1973.28,-1052.82 1983.22,-1056.5 1983.35,-1049.5"/>
<text text-anchor="middle" x="2063" y="-1105" font-family="Helvetica,sans-Serif" font-size="10.00"> spacesOnEntities</text>
</g>
<!-- Node65 -->
<g id="node65" class="node">
<title>Node65</title>
<g id="a_node65"><a xlink:title=" ">
<polygon fill="white" stroke="#bfbfbf" points="1801.5,-1281 1801.5,-1311 1970.5,-1311 1970.5,-1281 1801.5,-1281"/>
<text text-anchor="start" x="1809.5" y="-1299" font-family="Helvetica,sans-Serif" font-size="10.00">array&lt; std::bitset</text>
<text text-anchor="middle" x="1886" y="-1288" font-family="Helvetica,sans-Serif" font-size="10.00">&lt; LASTBASE &gt;, MBMAXTYPE &gt;</text>
</a>
</g>
</g>
<!-- Node65&#45;&gt;Node61 -->
<g id="edge77" class="edge">
<title>Node65&#45;&gt;Node61</title>
<path fill="none" stroke="#9a32cd" stroke-dasharray="5,2" d="M1979.87,-1311.78C2031.18,-1315.11 2092.86,-1309.51 2135,-1274 2158.91,-1253.85 2130.19,-1227.37 2153,-1206 2161.89,-1197.67 2173.18,-1192.35 2184.99,-1189.02"/>
<polygon fill="#9a32cd" stroke="#9a32cd" points="1980,-1308.28 1969.76,-1311 1979.46,-1315.26 1980,-1308.28"/>
<text text-anchor="middle" x="2063" y="-1315" font-family="Helvetica,sans-Serif" font-size="10.00"> basesOnEntities</text>
</g>
<!-- Node66 -->
<g id="node66" class="node">
<title>Node66</title>
<g id="a_node66"><a xlink:title=" ">
<polygon fill="white" stroke="#bfbfbf" points="1830,-1242.5 1830,-1261.5 1942,-1261.5 1942,-1242.5 1830,-1242.5"/>
<text text-anchor="middle" x="1886" y="-1249.5" font-family="Helvetica,sans-Serif" font-size="10.00">UBlasMatrix&lt; int &gt;</text>
</a>
</g>
</g>
<!-- Node66&#45;&gt;Node61 -->
<g id="edge78" class="edge">
<title>Node66&#45;&gt;Node61</title>
<path fill="none" stroke="#9a32cd" stroke-dasharray="5,2" d="M1952.34,-1252.86C2003.81,-1251.38 2076.39,-1244.41 2135,-1220 2144.36,-1216.1 2143.78,-1210.2 2153,-1206 2162.94,-1201.48 2173.87,-1197.97 2184.78,-1195.26"/>
<polygon fill="#9a32cd" stroke="#9a32cd" points="1952.26,-1249.36 1942.34,-1253.09 1952.42,-1256.36 1952.26,-1249.36"/>
<text text-anchor="middle" x="2063" y="-1264" font-family="Helvetica,sans-Serif" font-size="10.00"> facesNodesOrder</text>
<text text-anchor="middle" x="2063" y="-1253" font-family="Helvetica,sans-Serif" font-size="10.00">facesNodes</text>
</g>
<!-- Node67 -->
<g id="node67" class="node">
<title>Node67</title>
<g id="a_node67"><a xlink:title=" ">
<polygon fill="white" stroke="#bfbfbf" points="1827.5,-1204.5 1827.5,-1223.5 1944.5,-1223.5 1944.5,-1204.5 1827.5,-1204.5"/>
<text text-anchor="middle" x="1886" y="-1211.5" font-family="Helvetica,sans-Serif" font-size="10.00">bitset&lt; LASTBASE &gt;</text>
</a>
</g>
</g>
<!-- Node67&#45;&gt;Node61 -->
<g id="edge79" class="edge">
<title>Node67&#45;&gt;Node61</title>
<path fill="none" stroke="#9a32cd" stroke-dasharray="5,2" d="M1955.11,-1208.82C2020.49,-1203.84 2118.8,-1196.36 2184.86,-1191.34"/>
<polygon fill="#9a32cd" stroke="#9a32cd" points="1954.61,-1205.35 1944.9,-1209.59 1955.14,-1212.33 1954.61,-1205.35"/>
<text text-anchor="middle" x="2063" y="-1208" font-family="Helvetica,sans-Serif" font-size="10.00"> bAse</text>
</g>
<!-- Node68 -->
<g id="node68" class="node">
<title>Node68</title>
<g id="a_node68"><a xlink:title=" ">
<polygon fill="white" stroke="#bfbfbf" points="2193.5,-1116.5 2193.5,-1157.5 2318.5,-1157.5 2318.5,-1116.5 2193.5,-1116.5"/>
<text text-anchor="start" x="2201.5" y="-1145.5" font-family="Helvetica,sans-Serif" font-size="10.00">function&lt; int(int order</text>
<text text-anchor="start" x="2201.5" y="-1134.5" font-family="Helvetica,sans-Serif" font-size="10.00">_row, int order_col, int</text>
<text text-anchor="middle" x="2256" y="-1123.5" font-family="Helvetica,sans-Serif" font-size="10.00"> order_data)&gt;</text>
</a>
</g>
</g>
<!-- Node68&#45;&gt;Node13 -->
<g id="edge80" class="edge">
<title>Node68&#45;&gt;Node13</title>
<path fill="none" stroke="#9a32cd" stroke-dasharray="5,2" d="M2328.73,-1132.59C2386.31,-1127.86 2468.82,-1118.39 2539,-1100 2568.72,-1092.21 2601.4,-1078 2621.57,-1068.53"/>
<polygon fill="#9a32cd" stroke="#9a32cd" points="2328.33,-1129.11 2318.64,-1133.39 2328.89,-1136.09 2328.33,-1129.11"/>
<text text-anchor="middle" x="2458" y="-1130" font-family="Helvetica,sans-Serif" font-size="10.00"> getRuleHook</text>
</g>
<!-- Node69 -->
<g id="node69" class="node">
<title>Node69</title>
<g id="a_node69"><a xlink:title=" ">
<polygon fill="white" stroke="#bfbfbf" points="2195,-1067 2195,-1097 2317,-1097 2317,-1067 2195,-1067"/>
<text text-anchor="start" x="2203" y="-1085" font-family="Helvetica,sans-Serif" font-size="10.00">shared_ptr&lt; MoFEM::</text>
<text text-anchor="middle" x="2256" y="-1074" font-family="Helvetica,sans-Serif" font-size="10.00">BaseFunction &gt;</text>
</a>
</g>
</g>
<!-- Node69&#45;&gt;Node13 -->
<g id="edge81" class="edge">
<title>Node69&#45;&gt;Node13</title>
<path fill="none" stroke="#9a32cd" stroke-dasharray="5,2" d="M2327.52,-1077.78C2392.17,-1073.9 2488.01,-1068.16 2556.68,-1064.05"/>
<polygon fill="#9a32cd" stroke="#9a32cd" points="2327.2,-1074.29 2317.42,-1078.38 2327.61,-1081.28 2327.2,-1074.29"/>
<text text-anchor="middle" x="2458" y="-1088" font-family="Helvetica,sans-Serif" font-size="10.00"> userPolynomialBasePtr</text>
<text text-anchor="middle" x="2458" y="-1077" font-family="Helvetica,sans-Serif" font-size="10.00">elementPolynomialBasePtr</text>
</g>
<!-- Node70 -->
<g id="node70" class="node">
<title>Node70</title>
<g id="a_node70"><a xlink:href="classUBlasMatrix_3_01double_01_4.html" target="_top" xlink:title=" ">
<polygon fill="white" stroke="black" points="2190,-1028.5 2190,-1047.5 2322,-1047.5 2322,-1028.5 2190,-1028.5"/>
<text text-anchor="middle" x="2256" y="-1035.5" font-family="Helvetica,sans-Serif" font-size="10.00">UBlasMatrix&lt; double &gt;</text>
</a>
</g>
</g>
<!-- Node70&#45;&gt;Node13 -->
<g id="edge82" class="edge">
<title>Node70&#45;&gt;Node13</title>
<path fill="none" stroke="#9a32cd" stroke-dasharray="5,2" d="M2332.15,-1033.87C2389.08,-1031.74 2469.16,-1030.89 2539,-1038 2560.76,-1040.22 2584.74,-1045.03 2603.98,-1049.49"/>
<polygon fill="#9a32cd" stroke="#9a32cd" points="2332.01,-1030.37 2322.15,-1034.27 2332.28,-1037.37 2332.01,-1030.37"/>
<text text-anchor="middle" x="2458" y="-1052" font-family="Helvetica,sans-Serif" font-size="10.00"> coordsAtGaussPts</text>
<text text-anchor="middle" x="2458" y="-1041" font-family="Helvetica,sans-Serif" font-size="10.00">gaussPts</text>
</g>
<!-- Node71 -->
<g id="node71" class="node">
<title>Node71</title>
<g id="a_node71"><a xlink:title=" ">
<polygon fill="white" stroke="#bfbfbf" points="2576.5,-526.5 2576.5,-545.5 2707.5,-545.5 2707.5,-526.5 2576.5,-526.5"/>
<text text-anchor="middle" x="2642" y="-533.5" font-family="Helvetica,sans-Serif" font-size="10.00">static const char *const</text>
</a>
</g>
</g>
<!-- Node71&#45;&gt;Node5 -->
<g id="edge83" class="edge">
<title>Node71&#45;&gt;Node5</title>
<path fill="none" stroke="#9a32cd" stroke-dasharray="5,2" d="M2717.98,-532.85C2749.91,-533.71 2787.08,-537.68 2819,-549 2853.16,-561.12 2886.41,-587.91 2905.24,-604.9"/>
<polygon fill="#9a32cd" stroke="#9a32cd" points="2717.87,-529.35 2707.81,-532.68 2717.75,-536.35 2717.87,-529.35"/>
<text text-anchor="middle" x="2782" y="-552" font-family="Helvetica,sans-Serif" font-size="10.00"> OpTypeNames</text>
</g>
<!-- Node72 -->
<g id="node72" class="node">
<title>Node72</title>
<g id="a_node72"><a xlink:title=" ">
<polygon fill="white" stroke="#bfbfbf" points="3414,-771.5 3414,-790.5 3497,-790.5 3497,-771.5 3414,-771.5"/>
<text text-anchor="middle" x="3455.5" y="-778.5" font-family="Helvetica,sans-Serif" font-size="10.00">MatrixDouble</text>
</a>
</g>
</g>
<!-- Node72&#45;&gt;Node2 -->
<g id="edge85" class="edge">
<title>Node72&#45;&gt;Node2</title>
<path fill="none" stroke="#9a32cd" stroke-dasharray="5,2" d="M3507.38,-784.46C3538.71,-786.61 3579.68,-789.43 3616,-792 3621.85,-792.41 3627.88,-792.84 3633.95,-793.28"/>
<polygon fill="#9a32cd" stroke="#9a32cd" points="3507.36,-780.96 3497.15,-783.76 3506.89,-787.94 3507.36,-780.96"/>
<text text-anchor="middle" x="3588" y="-795" font-family="Helvetica,sans-Serif" font-size="10.00"> NN</text>
</g>
<!-- Node73 -->
<g id="node73" class="node">
<title>Node73</title>
<g id="a_node73"><a xlink:title=" ">
<polygon fill="white" stroke="#bfbfbf" points="3369,-722 3369,-752 3542,-752 3542,-722 3369,-722"/>
<text text-anchor="start" x="3377" y="-740" font-family="Helvetica,sans-Serif" font-size="10.00">shared_ptr&lt; NeumannForces</text>
<text text-anchor="middle" x="3455.5" y="-729" font-family="Helvetica,sans-Serif" font-size="10.00">Surface::DataAtIntegrationPts &gt;</text>
</a>
</g>
</g>
<!-- Node73&#45;&gt;Node2 -->
<g id="edge86" class="edge">
<title>Node73&#45;&gt;Node2</title>
<path fill="none" stroke="#9a32cd" stroke-dasharray="5,2" d="M3534.27,-754.27C3560.28,-760.12 3589.41,-766.75 3616,-773 3624.84,-775.08 3634.08,-777.28 3643.27,-779.5"/>
<polygon fill="#9a32cd" stroke="#9a32cd" points="3535,-750.84 3524.47,-752.06 3533.46,-757.67 3535,-750.84"/>
<text text-anchor="middle" x="3588" y="-776" font-family="Helvetica,sans-Serif" font-size="10.00"> dataAtPts</text>
</g>
<!-- Node74 -->
<g id="node74" class="node">
<title>Node74</title>
<g id="a_node74"><a xlink:href="structNeumannForcesSurface_1_1bCForce.html" target="_top" xlink:title=" ">
<polygon fill="white" stroke="black" points="3389.5,-673 3389.5,-703 3521.5,-703 3521.5,-673 3389.5,-673"/>
<text text-anchor="start" x="3397.5" y="-691" font-family="Helvetica,sans-Serif" font-size="10.00">NeumannForcesSurface</text>
<text text-anchor="middle" x="3455.5" y="-680" font-family="Helvetica,sans-Serif" font-size="10.00">::bCForce</text>
</a>
</g>
</g>
<!-- Node74&#45;&gt;Node2 -->
<g id="edge87" class="edge">
<title>Node74&#45;&gt;Node2</title>
<path fill="none" stroke="#9a32cd" stroke-dasharray="5,2" d="M3521.17,-705.98C3528.24,-708.22 3535.3,-710.58 3542,-713 3594.3,-731.87 3651.84,-760.32 3688.53,-779.5"/>
<polygon fill="#9a32cd" stroke="#9a32cd" points="3522.15,-702.62 3511.56,-703.01 3520.08,-709.31 3522.15,-702.62"/>
<text text-anchor="middle" x="3588" y="-746" font-family="Helvetica,sans-Serif" font-size="10.00"> dAta</text>
</g>
<!-- Node75 -->
<g id="node75" class="node">
<title>Node75</title>
<g id="a_node75"><a xlink:title=" ">
<polygon fill="white" stroke="#bfbfbf" points="3160.5,-690.5 3160.5,-709.5 3264.5,-709.5 3264.5,-690.5 3160.5,-690.5"/>
<text text-anchor="middle" x="3212.5" y="-697.5" font-family="Helvetica,sans-Serif" font-size="10.00">ForceCubitBcData</text>
</a>
</g>
</g>
<!-- Node75&#45;&gt;Node74 -->
<g id="edge88" class="edge">
<title>Node75&#45;&gt;Node74</title>
<path fill="none" stroke="#9a32cd" stroke-dasharray="5,2" d="M3274.7,-696.95C3309.69,-695.21 3353.58,-693.03 3389.23,-691.25"/>
<polygon fill="#9a32cd" stroke="#9a32cd" points="3274.42,-693.46 3264.61,-697.46 3274.77,-700.45 3274.42,-693.46"/>
<text text-anchor="middle" x="3338.5" y="-697" font-family="Helvetica,sans-Serif" font-size="10.00"> data</text>
</g>
<!-- Node76 -->
<g id="node76" class="node">
<title>Node76</title>
<g id="a_node76"><a xlink:href="classRange.html" target="_top" xlink:title=" ">
<polygon fill="white" stroke="black" points="3189,-652.5 3189,-671.5 3236,-671.5 3236,-652.5 3189,-652.5"/>
<text text-anchor="middle" x="3212.5" y="-659.5" font-family="Helvetica,sans-Serif" font-size="10.00">Range</text>
</a>
</g>
</g>
<!-- Node76&#45;&gt;Node74 -->
<g id="edge89" class="edge">
<title>Node76&#45;&gt;Node74</title>
<path fill="none" stroke="#9a32cd" stroke-dasharray="5,2" d="M3246.3,-665.54C3282.95,-669.49 3343.21,-675.99 3389.49,-680.99"/>
<polygon fill="#9a32cd" stroke="#9a32cd" points="3246.49,-662.04 3236.17,-664.45 3245.74,-669 3246.49,-662.04"/>
<text text-anchor="middle" x="3338.5" y="-679" font-family="Helvetica,sans-Serif" font-size="10.00"> tRis</text>
</g>
<!-- Node77 -->
<g id="node77" class="node">
<title>Node77</title>
<g id="a_node77"><a xlink:title=" ">
<polygon fill="white" stroke="#bfbfbf" points="3425.5,-634.5 3425.5,-653.5 3485.5,-653.5 3485.5,-634.5 3425.5,-634.5"/>
<text text-anchor="middle" x="3455.5" y="-641.5" font-family="Helvetica,sans-Serif" font-size="10.00">VectorInt</text>
</a>
</g>
</g>
<!-- Node77&#45;&gt;Node2 -->
<g id="edge93" class="edge">
<title>Node77&#45;&gt;Node2</title>
<path fill="none" stroke="#9a32cd" stroke-dasharray="5,2" d="M3495.5,-651.78C3510.21,-655.07 3527.01,-659.24 3542,-664 3575.82,-674.74 3586.22,-674.7 3616,-694 3653.26,-718.14 3688.93,-755.89 3709.23,-779.23"/>
<polygon fill="#9a32cd" stroke="#9a32cd" points="3496.21,-648.36 3485.69,-649.65 3494.72,-655.2 3496.21,-648.36"/>
<text text-anchor="middle" x="3588" y="-708" font-family="Helvetica,sans-Serif" font-size="10.00"> rowIndices</text>
<text text-anchor="middle" x="3588" y="-697" font-family="Helvetica,sans-Serif" font-size="10.00">colIndices</text>
</g>
</g>
</svg>
        <g id="navigator" transform="translate(0 0)" fill="#404254">
                <rect fill="#f2f5e9" fill-opacity="0.5" stroke="#606060" stroke-width=".5" x="0" y="0" width="60" height="60"/>
                <use id="zoomplus" xlink:href="#zoomPlus" x="17" y="9" onmousedown="handleZoom(evt,'in')"/>
                <use id="zoomminus" xlink:href="#zoomMin" x="42" y="9" onmousedown="handleZoom(evt,'out')"/>
                <use id="reset" xlink:href="#resetDef" x="30" y="36" onmousedown="handleReset()"/>
                <g id="arrowUp" xlink:href="#dirArrow" transform="translate(30 24)" onmousedown="handlePan(0,-1)">
                  <use xlink:href="#rim" fill="#404040">
                        <set attributeName="fill" to="#808080" begin="arrowUp.mouseover" end="arrowUp.mouseout"/>
                  </use>
                  <path fill="none" stroke="white" stroke-width="1.5" d="M0,-3.0v7 M-2.5,-0.5L0,-3.0L2.5,-0.5"/>
                </g>
                <g id="arrowRight" xlink:href="#dirArrow" transform="rotate(90) translate(36 -43)" onmousedown="handlePan(1,0)">
                  <use xlink:href="#rim" fill="#404040">
                        <set attributeName="fill" to="#808080" begin="arrowRight.mouseover" end="arrowRight.mouseout"/>
                  </use>
                  <path fill="none" stroke="white" stroke-width="1.5" d="M0,-3.0v7 M-2.5,-0.5L0,-3.0L2.5,-0.5"/>
                </g>
                <g id="arrowDown" xlink:href="#dirArrow" transform="rotate(180) translate(-30 -48)" onmousedown="handlePan(0,1)">
                  <use xlink:href="#rim" fill="#404040">
                        <set attributeName="fill" to="#808080" begin="arrowDown.mouseover" end="arrowDown.mouseout"/>
                  </use>
                  <path fill="none" stroke="white" stroke-width="1.5" d="M0,-3.0v7 M-2.5,-0.5L0,-3.0L2.5,-0.5"/>
                </g>
                <g id="arrowLeft" xlink:href="#dirArrow" transform="rotate(270) translate(-36 17)" onmousedown="handlePan(-1,0)">
                  <use xlink:href="#rim" fill="#404040">
                        <set attributeName="fill" to="#808080" begin="arrowLeft.mouseover" end="arrowLeft.mouseout"/>
                  </use>
                  <path fill="none" stroke="white" stroke-width="1.5" d="M0,-3.0v7 M-2.5,-0.5L0,-3.0L2.5,-0.5"/>
                </g>
        </g>
        <svg viewBox="0 0 15 15" width="100%" height="30px" preserveAspectRatio="xMaxYMin meet">
         <g id="arrow_out" transform="scale(0.3 0.3)">
          <a xlink:href="structNeumannForcesSurface_1_1OpNeumannSurfaceForceMaterialVolOnSideLhs__dX__dX__coll__graph_org.svg" target="_base">
           <rect id="button" ry="5" rx="5" y="6" x="6" height="38" width="38"
                fill="#f2f5e9" fill-opacity="0.5" stroke="#606060" stroke-width="1.0"/>
           <path id="arrow"
             d="M 11.500037,31.436501 C 11.940474,20.09759 22.043105,11.32322 32.158766,21.979434 L 37.068811,17.246167 C 37.068811,17.246167 37.088388,32 37.088388,32 L 22.160133,31.978069 C 22.160133,31.978069 26.997745,27.140456 26.997745,27.140456 C 18.528582,18.264221 13.291696,25.230495 11.500037,31.436501 z"
             style="fill:#404040;"/>
          </a>
         </g>
        </svg>
</svg>
