<?xml version="1.0" encoding="UTF-8" standalone="no"?>
<!DOCTYPE svg PUBLIC "-//W3C//DTD SVG 1.1//EN"
 "http://www.w3.org/Graphics/SVG/1.1/DTD/svg11.dtd">
<!-- Generated by graphviz version 2.43.0 (0)
 -->
<!-- Title: AnalyticalDirichletBC Pages: 1 -->
<svg width="3563pt" height="1561pt"
 viewBox="0.00 0.00 3563.00 1561.00" xmlns="http://www.w3.org/2000/svg" xmlns:xlink="http://www.w3.org/1999/xlink">
<g id="graph0" class="graph" transform="scale(1 1) rotate(0) translate(4 1557)">
<title>AnalyticalDirichletBC</title>
<polygon fill="white" stroke="transparent" points="-4,4 -4,-1557 3559,-1557 3559,4 -4,4"/>
<!-- Node1 -->
<g id="node1" class="node">
<title>Node1</title>
<g id="a_node1"><a xlink:title="Analytical Dirichlet boundary conditions.">
<polygon fill="#bfbfbf" stroke="black" points="3435,-653.5 3435,-672.5 3555,-672.5 3555,-653.5 3435,-653.5"/>
<text text-anchor="middle" x="3495" y="-660.5" font-family="Helvetica,sans-Serif" font-size="10.00">AnalyticalDirichletBC</text>
</a>
</g>
</g>
<!-- Node2 -->
<g id="node2" class="node">
<title>Node2</title>
<g id="a_node2"><a xlink:href="structAnalyticalDirichletBC_1_1ApproxField.html" target="_top" xlink:title="finite element to approximate analytical solution on surface">
<polygon fill="white" stroke="black" points="3218,-550 3218,-580 3338,-580 3338,-550 3218,-550"/>
<text text-anchor="start" x="3226" y="-568" font-family="Helvetica,sans-Serif" font-size="10.00">AnalyticalDirichletBC</text>
<text text-anchor="middle" x="3278" y="-557" font-family="Helvetica,sans-Serif" font-size="10.00">::ApproxField</text>
</a>
</g>
</g>
<!-- Node2&#45;&gt;Node1 -->
<g id="edge1" class="edge">
<title>Node2&#45;&gt;Node1</title>
<path fill="none" stroke="#9a32cd" stroke-dasharray="5,2" d="M3347.94,-581.1C3370.56,-587.65 3395.42,-596.25 3417,-607 3442.74,-619.82 3469.06,-641.09 3483.28,-653.39"/>
<polygon fill="#9a32cd" stroke="#9a32cd" points="3348.63,-577.66 3338.06,-578.32 3346.74,-584.4 3348.63,-577.66"/>
<text text-anchor="middle" x="3386.5" y="-610" font-family="Helvetica,sans-Serif" font-size="10.00"> approxField</text>
</g>
<!-- Node3 -->
<g id="node3" class="node">
<title>Node3</title>
<g id="a_node3"><a xlink:href="structAnalyticalDirichletBC_1_1ApproxField_1_1MyTriFE.html" target="_top" xlink:title=" ">
<polygon fill="white" stroke="black" points="3009,-480 3009,-510 3134,-510 3134,-480 3009,-480"/>
<text text-anchor="start" x="3017" y="-498" font-family="Helvetica,sans-Serif" font-size="10.00">AnalyticalDirichletBC</text>
<text text-anchor="middle" x="3071.5" y="-487" font-family="Helvetica,sans-Serif" font-size="10.00">::ApproxField::MyTriFE</text>
</a>
</g>
</g>
<!-- Node3&#45;&gt;Node2 -->
<g id="edge2" class="edge">
<title>Node3&#45;&gt;Node2</title>
<path fill="none" stroke="#9a32cd" stroke-dasharray="5,2" d="M3125.94,-513.29C3159.21,-524.68 3201.49,-539.15 3232.85,-549.89"/>
<polygon fill="#9a32cd" stroke="#9a32cd" points="3126.96,-509.94 3116.37,-510.02 3124.7,-516.57 3126.96,-509.94"/>
<text text-anchor="middle" x="3176" y="-541" font-family="Helvetica,sans-Serif" font-size="10.00"> feApprox</text>
</g>
<!-- Node4 -->
<g id="node4" class="node">
<title>Node4</title>
<g id="a_node4"><a xlink:href="structMoFEM_1_1FaceElementForcesAndSourcesCore.html" target="_top" xlink:title="Face finite element.">
<polygon fill="white" stroke="black" points="2820,-480 2820,-510 2972,-510 2972,-480 2820,-480"/>
<text text-anchor="start" x="2828" y="-498" font-family="Helvetica,sans-Serif" font-size="10.00">MoFEM::FaceElementForces</text>
<text text-anchor="middle" x="2896" y="-487" font-family="Helvetica,sans-Serif" font-size="10.00">AndSourcesCore</text>
</a>
</g>
</g>
<!-- Node4&#45;&gt;Node3 -->
<g id="edge3" class="edge">
<title>Node4&#45;&gt;Node3</title>
<path fill="none" stroke="midnightblue" d="M2982.21,-495C2991.2,-495 3000.21,-495 3008.85,-495"/>
<polygon fill="midnightblue" stroke="midnightblue" points="2982.09,-491.5 2972.09,-495 2982.09,-498.5 2982.09,-491.5"/>
</g>
<!-- Node5 -->
<g id="node5" class="node">
<title>Node5</title>
<g id="a_node5"><a xlink:href="structMoFEM_1_1ForcesAndSourcesCore.html" target="_top" xlink:title="structure to get information form mofem into EntitiesFieldData">
<polygon fill="white" stroke="black" points="2553,-851.5 2553,-870.5 2723,-870.5 2723,-851.5 2553,-851.5"/>
<text text-anchor="middle" x="2638" y="-858.5" font-family="Helvetica,sans-Serif" font-size="10.00">MoFEM::ForcesAndSourcesCore</text>
</a>
</g>
</g>
<!-- Node5&#45;&gt;Node4 -->
<g id="edge4" class="edge">
<title>Node5&#45;&gt;Node4</title>
<path fill="none" stroke="midnightblue" d="M2651.59,-843C2695.75,-779.87 2843.16,-569.11 2884.27,-510.34"/>
<polygon fill="midnightblue" stroke="midnightblue" points="2648.71,-841.01 2645.85,-851.21 2654.45,-845.02 2648.71,-841.01"/>
</g>
<!-- Node5&#45;&gt;Node5 -->
<g id="edge62" class="edge">
<title>Node5&#45;&gt;Node5</title>
<path fill="none" stroke="#9a32cd" stroke-dasharray="5,2" d="M2613.45,-880.03C2614.79,-885.13 2622.97,-889 2638,-889 2661.46,-889 2668.24,-879.57 2658.35,-870.76"/>
<polygon fill="#9a32cd" stroke="#9a32cd" points="2616.71,-881.31 2617.65,-870.76 2610.33,-878.42 2616.71,-881.31"/>
<text text-anchor="middle" x="2638" y="-903" font-family="Helvetica,sans-Serif" font-size="10.00"> sidePtrFE</text>
<text text-anchor="middle" x="2638" y="-892" font-family="Helvetica,sans-Serif" font-size="10.00">refinePtrFE</text>
</g>
<!-- Node6 -->
<g id="node6" class="node">
<title>Node6</title>
<g id="a_node6"><a xlink:href="structMoFEM_1_1FEMethod.html" target="_top" xlink:title="structure for User Loop Methods on finite elements">
<polygon fill="white" stroke="black" points="2200.5,-582.5 2200.5,-601.5 2307.5,-601.5 2307.5,-582.5 2200.5,-582.5"/>
<text text-anchor="middle" x="2254" y="-589.5" font-family="Helvetica,sans-Serif" font-size="10.00">MoFEM::FEMethod</text>
</a>
</g>
</g>
<!-- Node6&#45;&gt;Node5 -->
<g id="edge5" class="edge">
<title>Node6&#45;&gt;Node5</title>
<path fill="none" stroke="midnightblue" d="M2280.52,-606.66C2304.14,-619.99 2340.44,-639.83 2373,-655 2443.32,-687.76 2473.86,-672.25 2535,-720 2584.05,-758.31 2620.21,-826.27 2632.46,-851.35"/>
<polygon fill="midnightblue" stroke="midnightblue" points="2281.94,-603.45 2271.51,-601.56 2278.48,-609.53 2281.94,-603.45"/>
</g>
<!-- Node7 -->
<g id="node7" class="node">
<title>Node7</title>
<g id="a_node7"><a xlink:href="structMoFEM_1_1BasicMethod.html" target="_top" xlink:title="Data structure to exchange data between mofem and User Loop Methods.">
<polygon fill="white" stroke="black" points="1825,-865.5 1825,-884.5 1947,-884.5 1947,-865.5 1825,-865.5"/>
<text text-anchor="middle" x="1886" y="-872.5" font-family="Helvetica,sans-Serif" font-size="10.00">MoFEM::BasicMethod</text>
</a>
</g>
</g>
<!-- Node7&#45;&gt;Node6 -->
<g id="edge6" class="edge">
<title>Node7&#45;&gt;Node6</title>
<path fill="none" stroke="midnightblue" d="M1907.78,-858.93C1975.22,-806.79 2186.66,-643.29 2240.45,-601.7"/>
<polygon fill="midnightblue" stroke="midnightblue" points="1905.37,-856.37 1899.6,-865.26 1909.65,-861.91 1905.37,-856.37"/>
</g>
<!-- Node8 -->
<g id="node8" class="node">
<title>Node8</title>
<g id="a_node8"><a xlink:href="structMoFEM_1_1KspMethod.html" target="_top" xlink:title="data structure for ksp (linear solver) context">
<polygon fill="white" stroke="black" points="1442,-775.5 1442,-794.5 1555,-794.5 1555,-775.5 1442,-775.5"/>
<text text-anchor="middle" x="1498.5" y="-782.5" font-family="Helvetica,sans-Serif" font-size="10.00">MoFEM::KspMethod</text>
</a>
</g>
</g>
<!-- Node8&#45;&gt;Node7 -->
<g id="edge7" class="edge">
<title>Node8&#45;&gt;Node7</title>
<path fill="none" stroke="midnightblue" d="M1550.38,-796.88C1627.74,-814.94 1773.4,-848.94 1844.24,-865.48"/>
<polygon fill="midnightblue" stroke="midnightblue" points="1550.92,-793.41 1540.39,-794.55 1549.33,-800.23 1550.92,-793.41"/>
</g>
<!-- Node9 -->
<g id="node9" class="node">
<title>Node9</title>
<g id="a_node9"><a xlink:href="structMoFEM_1_1PetscData.html" target="_top" xlink:title=" ">
<polygon fill="white" stroke="black" points="1087.5,-977.5 1087.5,-996.5 1195.5,-996.5 1195.5,-977.5 1087.5,-977.5"/>
<text text-anchor="middle" x="1141.5" y="-984.5" font-family="Helvetica,sans-Serif" font-size="10.00">MoFEM::PetscData</text>
</a>
</g>
</g>
<!-- Node9&#45;&gt;Node8 -->
<g id="edge8" class="edge">
<title>Node9&#45;&gt;Node8</title>
<path fill="none" stroke="midnightblue" d="M1205.77,-983.45C1219.7,-979.78 1233.2,-973.5 1243,-963 1276.2,-927.42 1228.76,-891.45 1261,-855 1306.39,-803.68 1387.42,-789.16 1441.82,-785.5"/>
<polygon fill="midnightblue" stroke="midnightblue" points="1204.62,-980.12 1195.6,-985.69 1206.12,-986.96 1204.62,-980.12"/>
</g>
<!-- Node19 -->
<g id="node19" class="node">
<title>Node19</title>
<g id="a_node19"><a xlink:href="structMoFEM_1_1SnesMethod.html" target="_top" xlink:title="data structure for snes (nonlinear solver) context">
<polygon fill="white" stroke="black" points="1439,-845.5 1439,-864.5 1558,-864.5 1558,-845.5 1439,-845.5"/>
<text text-anchor="middle" x="1498.5" y="-852.5" font-family="Helvetica,sans-Serif" font-size="10.00">MoFEM::SnesMethod</text>
</a>
</g>
</g>
<!-- Node9&#45;&gt;Node19 -->
<g id="edge21" class="edge">
<title>Node9&#45;&gt;Node19</title>
<path fill="none" stroke="darkgreen" d="M1203.1,-975.04C1216.43,-971.72 1230.34,-967.71 1243,-963 1323.68,-933 1334.2,-903.67 1415,-874 1425.07,-870.3 1436.11,-867.17 1446.74,-864.58"/>
<polygon fill="darkgreen" stroke="darkgreen" points="1201.97,-971.72 1193.06,-977.45 1203.6,-978.53 1201.97,-971.72"/>
</g>
<!-- Node22 -->
<g id="node22" class="node">
<title>Node22</title>
<g id="a_node22"><a xlink:href="structMoFEM_1_1TSMethod.html" target="_top" xlink:title="data structure for TS (time stepping) context">
<polygon fill="white" stroke="black" points="1445,-1186.5 1445,-1205.5 1552,-1205.5 1552,-1186.5 1445,-1186.5"/>
<text text-anchor="middle" x="1498.5" y="-1193.5" font-family="Helvetica,sans-Serif" font-size="10.00">MoFEM::TSMethod</text>
</a>
</g>
</g>
<!-- Node9&#45;&gt;Node22 -->
<g id="edge27" class="edge">
<title>Node9&#45;&gt;Node22</title>
<path fill="none" stroke="darkgreen" d="M1205.7,-990.87C1219.56,-994.55 1233.05,-1000.74 1243,-1011 1270.49,-1039.34 1235.84,-1067.57 1261,-1098 1287.98,-1130.62 1405.77,-1168.96 1464.27,-1186.44"/>
<polygon fill="darkgreen" stroke="darkgreen" points="1206.1,-987.38 1195.58,-988.63 1204.58,-994.21 1206.1,-987.38"/>
</g>
<!-- Node10 -->
<g id="node10" class="node">
<title>Node10</title>
<g id="a_node10"><a xlink:href="structMoFEM_1_1UnknownInterface.html" target="_top" xlink:title="base class for all interface classes">
<polygon fill="white" stroke="black" points="735,-1395.5 735,-1414.5 883,-1414.5 883,-1395.5 735,-1395.5"/>
<text text-anchor="middle" x="809" y="-1402.5" font-family="Helvetica,sans-Serif" font-size="10.00">MoFEM::UnknownInterface</text>
</a>
</g>
</g>
<!-- Node10&#45;&gt;Node9 -->
<g id="edge9" class="edge">
<title>Node10&#45;&gt;Node9</title>
<path fill="none" stroke="midnightblue" d="M827.2,-1387.87C868.34,-1345.78 972.67,-1232.24 1022,-1116 1040.5,-1072.41 1007.62,-1045.54 1040,-1011 1052.21,-997.98 1070.11,-991.45 1087.43,-988.34"/>
<polygon fill="midnightblue" stroke="midnightblue" points="824.6,-1385.52 820.06,-1395.1 829.58,-1390.44 824.6,-1385.52"/>
</g>
<!-- Node51 -->
<g id="node51" class="node">
<title>Node51</title>
<g id="a_node51"><a xlink:href="structMoFEM_1_1CoreInterface.html" target="_top" xlink:title="Interface.">
<polygon fill="white" stroke="black" points="1079,-1417.5 1079,-1436.5 1204,-1436.5 1204,-1417.5 1079,-1417.5"/>
<text text-anchor="middle" x="1141.5" y="-1424.5" font-family="Helvetica,sans-Serif" font-size="10.00">MoFEM::CoreInterface</text>
</a>
</g>
</g>
<!-- Node10&#45;&gt;Node51 -->
<g id="edge61" class="edge">
<title>Node10&#45;&gt;Node51</title>
<path fill="none" stroke="midnightblue" d="M893.54,-1410.56C951.26,-1414.4 1026.75,-1419.43 1079,-1422.91"/>
<polygon fill="midnightblue" stroke="midnightblue" points="893.56,-1407.05 883.35,-1409.88 893.09,-1414.04 893.56,-1407.05"/>
</g>
<!-- Node11 -->
<g id="node11" class="node">
<title>Node11</title>
<g id="a_node11"><a xlink:title=" ">
<polygon fill="white" stroke="#bfbfbf" points="386,-1373.5 386,-1436.5 627,-1436.5 627,-1373.5 386,-1373.5"/>
<text text-anchor="start" x="394" y="-1424.5" font-family="Helvetica,sans-Serif" font-size="10.00">multi_index_container</text>
<text text-anchor="start" x="394" y="-1413.5" font-family="Helvetica,sans-Serif" font-size="10.00">&lt; UIdTypeMap, indexed</text>
<text text-anchor="start" x="394" y="-1402.5" font-family="Helvetica,sans-Serif" font-size="10.00">_by&lt; hashed_unique&lt; member</text>
<text text-anchor="start" x="394" y="-1391.5" font-family="Helvetica,sans-Serif" font-size="10.00">&lt; UIdTypeMap, boost::typeindex</text>
<text text-anchor="middle" x="506.5" y="-1380.5" font-family="Helvetica,sans-Serif" font-size="10.00">::type_index, &amp;UIdTypeMap::classIdx &gt; &gt; &gt; &gt;</text>
</a>
</g>
</g>
<!-- Node11&#45;&gt;Node10 -->
<g id="edge10" class="edge">
<title>Node11&#45;&gt;Node10</title>
<path fill="none" stroke="#9a32cd" stroke-dasharray="5,2" d="M637.41,-1405C670.69,-1405 705.33,-1405 734.62,-1405"/>
<polygon fill="#9a32cd" stroke="#9a32cd" points="637.13,-1401.5 627.13,-1405 637.13,-1408.5 637.13,-1401.5"/>
<text text-anchor="middle" x="681" y="-1408" font-family="Helvetica,sans-Serif" font-size="10.00"> iFaceTypeMap</text>
</g>
<!-- Node12 -->
<g id="node12" class="node">
<title>Node12</title>
<g id="a_node12"><a xlink:title=" ">
<polygon fill="white" stroke="#bfbfbf" points="0,-1425.5 0,-1444.5 125,-1444.5 125,-1425.5 0,-1425.5"/>
<text text-anchor="middle" x="62.5" y="-1432.5" font-family="Helvetica,sans-Serif" font-size="10.00">multi_index_container</text>
</a>
</g>
</g>
<!-- Node12&#45;&gt;Node7 -->
<g id="edge34" class="edge">
<title>Node12&#45;&gt;Node7</title>
<path fill="none" stroke="#9a32cd" stroke-dasharray="5,2" d="M114.58,-1446.53C123.99,-1448.3 133.76,-1449.9 143,-1451 303.1,-1470.08 344.27,-1465 505.5,-1465 505.5,-1465 505.5,-1465 962.5,-1465 1332.5,-1465 1546.72,-1599.37 1781,-1313 1810.51,-1276.93 1769.05,-929.7 1799,-894 1805.68,-886.04 1814.88,-880.96 1824.79,-877.8"/>
<polygon fill="#9a32cd" stroke="#9a32cd" points="115.05,-1443.06 104.56,-1444.57 113.7,-1449.93 115.05,-1443.06"/>
<text text-anchor="middle" x="961.5" y="-1545" font-family="Helvetica,sans-Serif" font-size="10.00"> adjacenciesPtr</text>
<text text-anchor="middle" x="961.5" y="-1534" font-family="Helvetica,sans-Serif" font-size="10.00">refinedEntitiesPtr</text>
<text text-anchor="middle" x="961.5" y="-1523" font-family="Helvetica,sans-Serif" font-size="10.00">finiteElementsEntitiesPtr</text>
<text text-anchor="middle" x="961.5" y="-1512" font-family="Helvetica,sans-Serif" font-size="10.00">dofsPtr</text>
<text text-anchor="middle" x="961.5" y="-1501" font-family="Helvetica,sans-Serif" font-size="10.00">entitiesPtr</text>
<text text-anchor="middle" x="961.5" y="-1490" font-family="Helvetica,sans-Serif" font-size="10.00">finiteElementsPtr</text>
<text text-anchor="middle" x="961.5" y="-1479" font-family="Helvetica,sans-Serif" font-size="10.00">refinedFiniteElementsPtr</text>
<text text-anchor="middle" x="961.5" y="-1468" font-family="Helvetica,sans-Serif" font-size="10.00">fieldsPtr</text>
</g>
<!-- Node12&#45;&gt;Node11 -->
<g id="edge11" class="edge">
<title>Node12&#45;&gt;Node11</title>
<path fill="none" stroke="orange" stroke-dasharray="5,2" d="M94.05,-1421.55C108.58,-1415.86 126.37,-1409.89 143,-1407 223.14,-1393.07 314.76,-1392.7 385.84,-1395.74"/>
<polygon fill="orange" stroke="orange" points="92.52,-1418.4 84.58,-1425.4 95.16,-1424.88 92.52,-1418.4"/>
<text text-anchor="start" x="143" y="-1443" font-family="Helvetica,sans-Serif" font-size="10.00"> &lt; UIdTypeMap, indexed</text>
<text text-anchor="start" x="143" y="-1432" font-family="Helvetica,sans-Serif" font-size="10.00">_by&lt; hashed_unique&lt; member</text>
<text text-anchor="start" x="143" y="-1421" font-family="Helvetica,sans-Serif" font-size="10.00">&lt; UIdTypeMap, boost::typeindex</text>
<text text-anchor="middle" x="255.5" y="-1410" font-family="Helvetica,sans-Serif" font-size="10.00">::type_index, &amp;UIdTypeMap::classIdx &gt; &gt; &gt; &gt;</text>
</g>
<!-- Node13 -->
<g id="node13" class="node">
<title>Node13</title>
<g id="a_node13"><a xlink:title=" ">
<polygon fill="white" stroke="#bfbfbf" points="738.5,-970.5 738.5,-989.5 879.5,-989.5 879.5,-970.5 738.5,-970.5"/>
<text text-anchor="middle" x="809" y="-977.5" font-family="Helvetica,sans-Serif" font-size="10.00">static constexpr Switches</text>
</a>
</g>
</g>
<!-- Node13&#45;&gt;Node9 -->
<g id="edge12" class="edge">
<title>Node13&#45;&gt;Node9</title>
<path fill="none" stroke="#9a32cd" stroke-dasharray="5,2" d="M889.71,-979.07C893.53,-979.05 897.31,-979.02 901,-979 954.78,-978.7 968.25,-977.19 1022,-979 1043.43,-979.72 1067.01,-981.18 1087.45,-982.65"/>
<polygon fill="#9a32cd" stroke="#9a32cd" points="889.53,-975.58 879.56,-979.16 889.59,-982.57 889.53,-975.58"/>
<text text-anchor="middle" x="961.5" y="-1059" font-family="Helvetica,sans-Serif" font-size="10.00"> CtxSetX_TT</text>
<text text-anchor="middle" x="961.5" y="-1048" font-family="Helvetica,sans-Serif" font-size="10.00">CtxSetX_T</text>
<text text-anchor="middle" x="961.5" y="-1037" font-family="Helvetica,sans-Serif" font-size="10.00">CtxSetA</text>
<text text-anchor="middle" x="961.5" y="-1026" font-family="Helvetica,sans-Serif" font-size="10.00">CtxSetB</text>
<text text-anchor="middle" x="961.5" y="-1015" font-family="Helvetica,sans-Serif" font-size="10.00">CtxSetTime</text>
<text text-anchor="middle" x="961.5" y="-1004" font-family="Helvetica,sans-Serif" font-size="10.00">CtxSetNone</text>
<text text-anchor="middle" x="961.5" y="-993" font-family="Helvetica,sans-Serif" font-size="10.00">CtxSetF</text>
<text text-anchor="middle" x="961.5" y="-982" font-family="Helvetica,sans-Serif" font-size="10.00">CtxSetX</text>
</g>
<!-- Node14 -->
<g id="node14" class="node">
<title>Node14</title>
<g id="a_node14"><a xlink:title=" ">
<polygon fill="white" stroke="#bfbfbf" points="791.5,-1166.5 791.5,-1185.5 826.5,-1185.5 826.5,-1166.5 791.5,-1166.5"/>
<text text-anchor="middle" x="809" y="-1173.5" font-family="Helvetica,sans-Serif" font-size="10.00">Mat</text>
</a>
</g>
</g>
<!-- Node14&#45;&gt;Node1 -->
<g id="edge83" class="edge">
<title>Node14&#45;&gt;Node1</title>
<path fill="none" stroke="#9a32cd" stroke-dasharray="5,2" d="M821.54,-1194.29C837.3,-1218.22 867.46,-1260.47 901,-1289 955.13,-1335.04 971.81,-1348 1040,-1368 1178.7,-1408.68 1544.96,-1403 1689.5,-1403 1689.5,-1403 1689.5,-1403 3279,-1403 3438.71,-1403 3487.52,-759.37 3493.38,-672.63"/>
<polygon fill="#9a32cd" stroke="#9a32cd" points="824.42,-1192.29 816.05,-1185.8 818.54,-1196.09 824.42,-1192.29"/>
<text text-anchor="middle" x="2454" y="-1406" font-family="Helvetica,sans-Serif" font-size="10.00"> A</text>
</g>
<!-- Node14&#45;&gt;Node8 -->
<g id="edge18" class="edge">
<title>Node14&#45;&gt;Node8</title>
<path fill="none" stroke="#9a32cd" stroke-dasharray="5,2" d="M835.76,-1164.61C853.79,-1156.95 878.55,-1146.99 901,-1140 953.7,-1123.58 982.5,-1150.55 1022,-1112 1044.99,-1089.56 1016.44,-1063.83 1040,-1042 1107.21,-979.72 1159.81,-1044.41 1243,-1006 1323.55,-968.81 1344.1,-950.22 1397,-879 1409.35,-862.37 1401.55,-851.76 1415,-836 1431.07,-817.18 1455.89,-803.15 1474.11,-794.63"/>
<polygon fill="#9a32cd" stroke="#9a32cd" points="834.3,-1161.43 826.5,-1168.61 837.07,-1167.86 834.3,-1161.43"/>
<text text-anchor="middle" x="1141.5" y="-1056" font-family="Helvetica,sans-Serif" font-size="10.00"> ksp_A</text>
<text text-anchor="middle" x="1141.5" y="-1045" font-family="Helvetica,sans-Serif" font-size="10.00">ksp_B</text>
</g>
<!-- Node14&#45;&gt;Node9 -->
<g id="edge13" class="edge">
<title>Node14&#45;&gt;Node9</title>
<path fill="none" stroke="#9a32cd" stroke-dasharray="5,2" d="M823.3,-1158.43C839.41,-1138.51 868.46,-1106.63 901,-1090 949.74,-1065.09 980.98,-1103.25 1022,-1067 1041.59,-1049.69 1020.82,-1028.76 1040,-1011 1052.83,-999.12 1070.47,-992.8 1087.39,-989.54"/>
<polygon fill="#9a32cd" stroke="#9a32cd" points="820.46,-1156.38 817.03,-1166.41 825.97,-1160.71 820.46,-1156.38"/>
<text text-anchor="middle" x="961.5" y="-1104" font-family="Helvetica,sans-Serif" font-size="10.00"> A</text>
<text text-anchor="middle" x="961.5" y="-1093" font-family="Helvetica,sans-Serif" font-size="10.00">B</text>
</g>
<!-- Node14&#45;&gt;Node19 -->
<g id="edge23" class="edge">
<title>Node14&#45;&gt;Node19</title>
<path fill="none" stroke="#9a32cd" stroke-dasharray="5,2" d="M836.6,-1171.29C879.39,-1163.78 966.17,-1148.85 1040,-1138 1119.14,-1126.37 1341.75,-1149.84 1397,-1092 1430.58,-1056.85 1383.19,-910.76 1415,-874 1421.25,-866.78 1429.65,-862 1438.7,-858.88"/>
<polygon fill="#9a32cd" stroke="#9a32cd" points="835.95,-1167.85 826.71,-1173.03 837.16,-1174.74 835.95,-1167.85"/>
<text text-anchor="middle" x="1141.5" y="-1152" font-family="Helvetica,sans-Serif" font-size="10.00"> snes_A</text>
<text text-anchor="middle" x="1141.5" y="-1141" font-family="Helvetica,sans-Serif" font-size="10.00">snes_B</text>
</g>
<!-- Node14&#45;&gt;Node22 -->
<g id="edge28" class="edge">
<title>Node14&#45;&gt;Node22</title>
<path fill="none" stroke="#9a32cd" stroke-dasharray="5,2" d="M829.64,-1192.07C867.55,-1222.03 954.63,-1285.72 1040,-1312 1115.88,-1335.36 1325.73,-1360.99 1397,-1326 1450.01,-1299.98 1483,-1231.04 1493.69,-1205.6"/>
<polygon fill="#9a32cd" stroke="#9a32cd" points="831.49,-1189.07 821.5,-1185.56 827.12,-1194.54 831.49,-1189.07"/>
<text text-anchor="middle" x="1141.5" y="-1356" font-family="Helvetica,sans-Serif" font-size="10.00"> ts_A</text>
<text text-anchor="middle" x="1141.5" y="-1345" font-family="Helvetica,sans-Serif" font-size="10.00">ts_B</text>
</g>
<!-- Node15 -->
<g id="node15" class="node">
<title>Node15</title>
<g id="a_node15"><a xlink:title=" ">
<polygon fill="white" stroke="#bfbfbf" points="772.5,-932.5 772.5,-951.5 845.5,-951.5 845.5,-932.5 772.5,-932.5"/>
<text text-anchor="middle" x="809" y="-939.5" font-family="Helvetica,sans-Serif" font-size="10.00">bitset&lt; 8 &gt;</text>
</a>
</g>
</g>
<!-- Node15&#45;&gt;Node9 -->
<g id="edge14" class="edge">
<title>Node15&#45;&gt;Node9</title>
<path fill="none" stroke="#9a32cd" stroke-dasharray="5,2" d="M855.93,-945.2C898.99,-948.52 965.07,-954.44 1022,-963 1047.64,-966.86 1076.11,-972.58 1098.73,-977.47"/>
<polygon fill="#9a32cd" stroke="#9a32cd" points="856.01,-941.7 845.77,-944.43 855.48,-948.68 856.01,-941.7"/>
<text text-anchor="middle" x="961.5" y="-966" font-family="Helvetica,sans-Serif" font-size="10.00"> data_ctx</text>
</g>
<!-- Node16 -->
<g id="node16" class="node">
<title>Node16</title>
<g id="a_node16"><a xlink:title=" ">
<polygon fill="white" stroke="#bfbfbf" points="792,-809.5 792,-828.5 826,-828.5 826,-809.5 792,-809.5"/>
<text text-anchor="middle" x="809" y="-816.5" font-family="Helvetica,sans-Serif" font-size="10.00">Vec</text>
</a>
</g>
</g>
<!-- Node16&#45;&gt;Node1 -->
<g id="edge84" class="edge">
<title>Node16&#45;&gt;Node1</title>
<path fill="none" stroke="#9a32cd" stroke-dasharray="5,2" d="M826.93,-802.14C862.54,-768.11 949.42,-692.45 1040,-669 1211.83,-624.51 2459.51,-632 2637,-632 2637,-632 2637,-632 3279,-632 3339.91,-632 3409.53,-644.34 3452.64,-653.45"/>
<polygon fill="#9a32cd" stroke="#9a32cd" points="824.11,-800 819.38,-809.47 828.99,-805.02 824.11,-800"/>
<text text-anchor="middle" x="2454" y="-645" font-family="Helvetica,sans-Serif" font-size="10.00"> D</text>
<text text-anchor="middle" x="2454" y="-634" font-family="Helvetica,sans-Serif" font-size="10.00">F</text>
</g>
<!-- Node16&#45;&gt;Node8 -->
<g id="edge19" class="edge">
<title>Node16&#45;&gt;Node8</title>
<path fill="none" stroke="#9a32cd" stroke-dasharray="5,2" d="M835.38,-807.62C877.07,-789.63 963.09,-755.38 1040,-743 1195.33,-718 1382.9,-756.46 1460.82,-775.43"/>
<polygon fill="#9a32cd" stroke="#9a32cd" points="833.77,-804.51 826.01,-811.72 836.57,-810.92 833.77,-804.51"/>
<text text-anchor="middle" x="1141.5" y="-746" font-family="Helvetica,sans-Serif" font-size="10.00"> ksp_f</text>
</g>
<!-- Node16&#45;&gt;Node9 -->
<g id="edge15" class="edge">
<title>Node16&#45;&gt;Node9</title>
<path fill="none" stroke="#9a32cd" stroke-dasharray="5,2" d="M835.44,-829.17C853.66,-836.43 878.81,-846.39 901,-855 954.64,-875.8 982.99,-858.71 1022,-901 1041.45,-922.09 1019.23,-943.2 1040,-963 1052.73,-975.13 1070.44,-981.49 1087.45,-984.72"/>
<polygon fill="#9a32cd" stroke="#9a32cd" points="836.67,-825.89 826.08,-825.44 834.08,-832.39 836.67,-825.89"/>
<text text-anchor="middle" x="961.5" y="-937" font-family="Helvetica,sans-Serif" font-size="10.00"> f</text>
<text text-anchor="middle" x="961.5" y="-926" font-family="Helvetica,sans-Serif" font-size="10.00">x</text>
<text text-anchor="middle" x="961.5" y="-915" font-family="Helvetica,sans-Serif" font-size="10.00">x_t</text>
<text text-anchor="middle" x="961.5" y="-904" font-family="Helvetica,sans-Serif" font-size="10.00">x_tt</text>
</g>
<!-- Node16&#45;&gt;Node19 -->
<g id="edge24" class="edge">
<title>Node16&#45;&gt;Node19</title>
<path fill="none" stroke="#9a32cd" stroke-dasharray="5,2" d="M836.31,-818.77C903.9,-818.35 1089.11,-818.26 1243,-828 1310.4,-832.27 1387.49,-840.99 1438.99,-847.37"/>
<polygon fill="#9a32cd" stroke="#9a32cd" points="836.12,-815.27 826.14,-818.84 836.17,-822.27 836.12,-815.27"/>
<text text-anchor="middle" x="1141.5" y="-842" font-family="Helvetica,sans-Serif" font-size="10.00"> snes_x</text>
<text text-anchor="middle" x="1141.5" y="-831" font-family="Helvetica,sans-Serif" font-size="10.00">snes_f</text>
</g>
<!-- Node16&#45;&gt;Node22 -->
<g id="edge32" class="edge">
<title>Node16&#45;&gt;Node22</title>
<path fill="none" stroke="#9a32cd" stroke-dasharray="5,2" d="M836.23,-822.59C889.56,-830.08 1006.86,-847.5 1022,-858 1034.78,-866.86 1027.19,-879.18 1040,-888 1115.47,-939.96 1158.6,-888.32 1243,-924 1320.71,-956.86 1339.36,-973.39 1397,-1035 1443.82,-1085.05 1480.9,-1160.05 1493.16,-1186.42"/>
<polygon fill="#9a32cd" stroke="#9a32cd" points="836.56,-819.11 826.18,-821.19 835.6,-826.04 836.56,-819.11"/>
<text text-anchor="middle" x="1141.5" y="-960" font-family="Helvetica,sans-Serif" font-size="10.00"> ts_u</text>
<text text-anchor="middle" x="1141.5" y="-949" font-family="Helvetica,sans-Serif" font-size="10.00">ts_F</text>
<text text-anchor="middle" x="1141.5" y="-938" font-family="Helvetica,sans-Serif" font-size="10.00">ts_u_t</text>
<text text-anchor="middle" x="1141.5" y="-927" font-family="Helvetica,sans-Serif" font-size="10.00">ts_u_tt</text>
</g>
<!-- Node17 -->
<g id="node17" class="node">
<title>Node17</title>
<g id="a_node17"><a xlink:title=" ">
<polygon fill="white" stroke="#bfbfbf" points="1124,-678.5 1124,-697.5 1159,-697.5 1159,-678.5 1124,-678.5"/>
<text text-anchor="middle" x="1141.5" y="-685.5" font-family="Helvetica,sans-Serif" font-size="10.00">KSP</text>
</a>
</g>
</g>
<!-- Node17&#45;&gt;Node1 -->
<g id="edge82" class="edge">
<title>Node17&#45;&gt;Node1</title>
<path fill="none" stroke="#9a32cd" stroke-dasharray="5,2" d="M1169.48,-686.59C1228.79,-683.63 1374.98,-677 1497.5,-677 1497.5,-677 1497.5,-677 2064,-677 2318.78,-677 2382.22,-694 2637,-694 2637,-694 2637,-694 3279,-694 3339.91,-694 3409.53,-681.66 3452.64,-672.55"/>
<polygon fill="#9a32cd" stroke="#9a32cd" points="1168.94,-683.12 1159.13,-687.12 1169.29,-690.11 1168.94,-683.12"/>
<text text-anchor="middle" x="2638" y="-697" font-family="Helvetica,sans-Serif" font-size="10.00"> kspSolver</text>
</g>
<!-- Node17&#45;&gt;Node8 -->
<g id="edge16" class="edge">
<title>Node17&#45;&gt;Node8</title>
<path fill="none" stroke="#9a32cd" stroke-dasharray="5,2" d="M1169.61,-688.61C1226.39,-690.2 1355.97,-695.44 1397,-711 1435.29,-725.52 1471.82,-758.93 1488.32,-775.43"/>
<polygon fill="#9a32cd" stroke="#9a32cd" points="1169.36,-685.11 1159.27,-688.34 1169.18,-692.1 1169.36,-685.11"/>
<text text-anchor="middle" x="1329" y="-714" font-family="Helvetica,sans-Serif" font-size="10.00"> ksp</text>
</g>
<!-- Node18 -->
<g id="node18" class="node">
<title>Node18</title>
<g id="a_node18"><a xlink:title=" ">
<polygon fill="white" stroke="#bfbfbf" points="1104.5,-763.5 1104.5,-782.5 1178.5,-782.5 1178.5,-763.5 1104.5,-763.5"/>
<text text-anchor="middle" x="1141.5" y="-770.5" font-family="Helvetica,sans-Serif" font-size="10.00">KSPContext</text>
</a>
</g>
</g>
<!-- Node18&#45;&gt;Node8 -->
<g id="edge17" class="edge">
<title>Node18&#45;&gt;Node8</title>
<path fill="none" stroke="#9a32cd" stroke-dasharray="5,2" d="M1188.84,-771.35C1239.89,-769.92 1324.38,-768.68 1397,-773 1411.56,-773.87 1427.24,-775.43 1441.79,-777.15"/>
<polygon fill="#9a32cd" stroke="#9a32cd" points="1188.68,-767.85 1178.78,-771.65 1188.88,-774.85 1188.68,-767.85"/>
<text text-anchor="middle" x="1329" y="-776" font-family="Helvetica,sans-Serif" font-size="10.00"> ksp_ctx</text>
</g>
<!-- Node19&#45;&gt;Node7 -->
<g id="edge20" class="edge">
<title>Node19&#45;&gt;Node7</title>
<path fill="none" stroke="midnightblue" d="M1568.06,-858.56C1641.05,-862.34 1755.39,-868.28 1824.95,-871.88"/>
<polygon fill="midnightblue" stroke="midnightblue" points="1568.22,-855.06 1558.05,-858.04 1567.85,-862.05 1568.22,-855.06"/>
</g>
<!-- Node20 -->
<g id="node20" class="node">
<title>Node20</title>
<g id="a_node20"><a xlink:title=" ">
<polygon fill="white" stroke="#bfbfbf" points="1120.5,-1073.5 1120.5,-1092.5 1162.5,-1092.5 1162.5,-1073.5 1120.5,-1073.5"/>
<text text-anchor="middle" x="1141.5" y="-1080.5" font-family="Helvetica,sans-Serif" font-size="10.00">SNES</text>
</a>
</g>
</g>
<!-- Node20&#45;&gt;Node19 -->
<g id="edge22" class="edge">
<title>Node20&#45;&gt;Node19</title>
<path fill="none" stroke="#9a32cd" stroke-dasharray="5,2" d="M1172.67,-1084.29C1226.97,-1084.8 1340.7,-1077.23 1397,-1010 1436.15,-963.26 1373.98,-919.11 1415,-874 1421.43,-866.93 1429.91,-862.23 1438.99,-859.14"/>
<polygon fill="#9a32cd" stroke="#9a32cd" points="1172.71,-1080.79 1162.64,-1084.1 1172.57,-1087.79 1172.71,-1080.79"/>
<text text-anchor="middle" x="1329" y="-1080" font-family="Helvetica,sans-Serif" font-size="10.00"> snes</text>
</g>
<!-- Node21 -->
<g id="node21" class="node">
<title>Node21</title>
<g id="a_node21"><a xlink:title=" ">
<polygon fill="white" stroke="#bfbfbf" points="1101.5,-859.5 1101.5,-878.5 1181.5,-878.5 1181.5,-859.5 1101.5,-859.5"/>
<text text-anchor="middle" x="1141.5" y="-866.5" font-family="Helvetica,sans-Serif" font-size="10.00">SNESContext</text>
</a>
</g>
</g>
<!-- Node21&#45;&gt;Node19 -->
<g id="edge25" class="edge">
<title>Node21&#45;&gt;Node19</title>
<path fill="none" stroke="#9a32cd" stroke-dasharray="5,2" d="M1191.84,-867.05C1256.48,-864.5 1369.71,-860.04 1438.73,-857.32"/>
<polygon fill="#9a32cd" stroke="#9a32cd" points="1191.36,-863.57 1181.51,-867.46 1191.64,-870.56 1191.36,-863.57"/>
<text text-anchor="middle" x="1329" y="-867" font-family="Helvetica,sans-Serif" font-size="10.00"> snes_ctx</text>
</g>
<!-- Node22&#45;&gt;Node7 -->
<g id="edge26" class="edge">
<title>Node22&#45;&gt;Node7</title>
<path fill="none" stroke="midnightblue" d="M1562.15,-1185.6C1628.15,-1171.08 1729.52,-1137.93 1781,-1066 1803.37,-1034.75 1773.41,-922.67 1799,-894 1805.82,-886.36 1814.97,-881.41 1824.75,-878.28"/>
<polygon fill="midnightblue" stroke="midnightblue" points="1561.33,-1182.19 1552.27,-1187.69 1562.78,-1189.04 1561.33,-1182.19"/>
</g>
<!-- Node23 -->
<g id="node23" class="node">
<title>Node23</title>
<g id="a_node23"><a xlink:title=" ">
<polygon fill="white" stroke="#bfbfbf" points="1109,-1283.5 1109,-1302.5 1174,-1302.5 1174,-1283.5 1109,-1283.5"/>
<text text-anchor="middle" x="1141.5" y="-1290.5" font-family="Helvetica,sans-Serif" font-size="10.00">PetscReal</text>
</a>
</g>
</g>
<!-- Node23&#45;&gt;Node22 -->
<g id="edge29" class="edge">
<title>Node23&#45;&gt;Node22</title>
<path fill="none" stroke="#9a32cd" stroke-dasharray="5,2" d="M1184.45,-1289.35C1246.32,-1283.62 1358.81,-1271.71 1397,-1258 1431.92,-1245.46 1467.7,-1219.66 1485.67,-1205.62"/>
<polygon fill="#9a32cd" stroke="#9a32cd" points="1183.89,-1285.89 1174.25,-1290.29 1184.53,-1292.86 1183.89,-1285.89"/>
<text text-anchor="middle" x="1329" y="-1317" font-family="Helvetica,sans-Serif" font-size="10.00"> ts_a</text>
<text text-anchor="middle" x="1329" y="-1306" font-family="Helvetica,sans-Serif" font-size="10.00">ts_t</text>
<text text-anchor="middle" x="1329" y="-1295" font-family="Helvetica,sans-Serif" font-size="10.00">ts_dt</text>
<text text-anchor="middle" x="1329" y="-1284" font-family="Helvetica,sans-Serif" font-size="10.00">ts_aa</text>
</g>
<!-- Node24 -->
<g id="node24" class="node">
<title>Node24</title>
<g id="a_node24"><a xlink:title=" ">
<polygon fill="white" stroke="#bfbfbf" points="1108,-1245.5 1108,-1264.5 1175,-1264.5 1175,-1245.5 1108,-1245.5"/>
<text text-anchor="middle" x="1141.5" y="-1252.5" font-family="Helvetica,sans-Serif" font-size="10.00">TSContext</text>
</a>
</g>
</g>
<!-- Node24&#45;&gt;Node22 -->
<g id="edge30" class="edge">
<title>Node24&#45;&gt;Node22</title>
<path fill="none" stroke="#9a32cd" stroke-dasharray="5,2" d="M1185.26,-1251.77C1236.08,-1247.48 1323.28,-1238.67 1397,-1224 1421.16,-1219.19 1448.01,-1211.59 1467.88,-1205.52"/>
<polygon fill="#9a32cd" stroke="#9a32cd" points="1184.97,-1248.28 1175.29,-1252.59 1185.54,-1255.26 1184.97,-1248.28"/>
<text text-anchor="middle" x="1329" y="-1246" font-family="Helvetica,sans-Serif" font-size="10.00"> ts_ctx</text>
</g>
<!-- Node25 -->
<g id="node25" class="node">
<title>Node25</title>
<g id="a_node25"><a xlink:title=" ">
<polygon fill="white" stroke="#bfbfbf" points="1113.5,-1207.5 1113.5,-1226.5 1169.5,-1226.5 1169.5,-1207.5 1113.5,-1207.5"/>
<text text-anchor="middle" x="1141.5" y="-1214.5" font-family="Helvetica,sans-Serif" font-size="10.00">PetscInt</text>
</a>
</g>
</g>
<!-- Node25&#45;&gt;Node22 -->
<g id="edge31" class="edge">
<title>Node25&#45;&gt;Node22</title>
<path fill="none" stroke="#9a32cd" stroke-dasharray="5,2" d="M1180.11,-1214.78C1243.61,-1211.02 1372.23,-1203.41 1444.73,-1199.12"/>
<polygon fill="#9a32cd" stroke="#9a32cd" points="1179.54,-1211.3 1169.77,-1215.39 1179.96,-1218.29 1179.54,-1211.3"/>
<text text-anchor="middle" x="1329" y="-1212" font-family="Helvetica,sans-Serif" font-size="10.00"> ts_step</text>
</g>
<!-- Node26 -->
<g id="node26" class="node">
<title>Node26</title>
<g id="a_node26"><a xlink:title=" ">
<polygon fill="white" stroke="#bfbfbf" points="1127,-1169.5 1127,-1188.5 1156,-1188.5 1156,-1169.5 1127,-1169.5"/>
<text text-anchor="middle" x="1141.5" y="-1176.5" font-family="Helvetica,sans-Serif" font-size="10.00">TS</text>
</a>
</g>
</g>
<!-- Node26&#45;&gt;Node22 -->
<g id="edge33" class="edge">
<title>Node26&#45;&gt;Node22</title>
<path fill="none" stroke="#9a32cd" stroke-dasharray="5,2" d="M1166.26,-1177.88C1211.34,-1176.02 1312.35,-1173.14 1397,-1180 1413.55,-1181.34 1431.5,-1183.86 1447.59,-1186.5"/>
<polygon fill="#9a32cd" stroke="#9a32cd" points="1165.89,-1174.39 1156.05,-1178.32 1166.19,-1181.38 1165.89,-1174.39"/>
<text text-anchor="middle" x="1329" y="-1183" font-family="Helvetica,sans-Serif" font-size="10.00"> ts</text>
</g>
<!-- Node27 -->
<g id="node27" class="node">
<title>Node27</title>
<g id="a_node27"><a xlink:title=" ">
<polygon fill="white" stroke="#bfbfbf" points="1454,-960.5 1454,-979.5 1543,-979.5 1543,-960.5 1454,-960.5"/>
<text text-anchor="middle" x="1498.5" y="-967.5" font-family="Helvetica,sans-Serif" font-size="10.00">pair&lt; int, int &gt;</text>
</a>
</g>
</g>
<!-- Node27&#45;&gt;Node7 -->
<g id="edge35" class="edge">
<title>Node27&#45;&gt;Node7</title>
<path fill="none" stroke="#9a32cd" stroke-dasharray="5,2" d="M1553.25,-972.16C1624.9,-973.93 1746.69,-972.7 1781,-946 1800.3,-930.98 1780.73,-910.26 1799,-894 1806.31,-887.49 1815.34,-883.05 1824.77,-880.05"/>
<polygon fill="#9a32cd" stroke="#9a32cd" points="1553.15,-968.66 1543.06,-971.88 1552.96,-975.66 1553.15,-968.66"/>
<text text-anchor="middle" x="1690.5" y="-975" font-family="Helvetica,sans-Serif" font-size="10.00"> loHiFERank</text>
</g>
<!-- Node28 -->
<g id="node28" class="node">
<title>Node28</title>
<g id="a_node28"><a xlink:title=" ">
<polygon fill="white" stroke="#bfbfbf" points="1428.5,-922.5 1428.5,-941.5 1568.5,-941.5 1568.5,-922.5 1428.5,-922.5"/>
<text text-anchor="middle" x="1498.5" y="-929.5" font-family="Helvetica,sans-Serif" font-size="10.00">weak_ptr&lt; CacheTuple &gt;</text>
</a>
</g>
</g>
<!-- Node28&#45;&gt;Node7 -->
<g id="edge36" class="edge">
<title>Node28&#45;&gt;Node7</title>
<path fill="none" stroke="#9a32cd" stroke-dasharray="5,2" d="M1578.69,-931.96C1649.06,-930.86 1746.01,-926.44 1781,-911 1791.07,-906.56 1789.28,-899.15 1799,-894 1806.97,-889.78 1815.84,-886.49 1824.76,-883.94"/>
<polygon fill="#9a32cd" stroke="#9a32cd" points="1578.47,-928.46 1568.52,-932.1 1578.56,-935.46 1578.47,-928.46"/>
<text text-anchor="middle" x="1690.5" y="-934" font-family="Helvetica,sans-Serif" font-size="10.00"> cacheWeakPtr</text>
</g>
<!-- Node29 -->
<g id="node29" class="node">
<title>Node29</title>
<g id="a_node29"><a xlink:title=" ">
<polygon fill="white" stroke="#bfbfbf" points="1442.5,-883.5 1442.5,-902.5 1554.5,-902.5 1554.5,-883.5 1442.5,-883.5"/>
<text text-anchor="middle" x="1498.5" y="-890.5" font-family="Helvetica,sans-Serif" font-size="10.00">unique_ptr&lt; bool &gt;</text>
</a>
</g>
</g>
<!-- Node29&#45;&gt;Node7 -->
<g id="edge37" class="edge">
<title>Node29&#45;&gt;Node7</title>
<path fill="none" stroke="#9a32cd" stroke-dasharray="5,2" d="M1565.14,-889.94C1637.91,-886.54 1754.29,-881.1 1824.79,-877.81"/>
<polygon fill="#9a32cd" stroke="#9a32cd" points="1564.56,-886.46 1554.73,-890.42 1564.89,-893.45 1564.56,-886.46"/>
<text text-anchor="middle" x="1690.5" y="-902" font-family="Helvetica,sans-Serif" font-size="10.00"> matAssembleSwitch</text>
<text text-anchor="middle" x="1690.5" y="-891" font-family="Helvetica,sans-Serif" font-size="10.00">vecAssembleSwitch</text>
</g>
<!-- Node30 -->
<g id="node30" class="node">
<title>Node30</title>
<g id="a_node30"><a xlink:title=" ">
<polygon fill="white" stroke="#bfbfbf" points="1127,-42.5 1127,-61.5 1156,-61.5 1156,-42.5 1127,-42.5"/>
<text text-anchor="middle" x="1141.5" y="-49.5" font-family="Helvetica,sans-Serif" font-size="10.00">int</text>
</a>
</g>
</g>
<!-- Node30&#45;&gt;Node3 -->
<g id="edge81" class="edge">
<title>Node30&#45;&gt;Node3</title>
<path fill="none" stroke="#9a32cd" stroke-dasharray="5,2" d="M1166.05,-46.13C1222.72,-32.52 1371.39,0 1497.5,0 1497.5,0 1497.5,0 2897,0 3001.38,0 3057.95,-396.96 3068.63,-479.92"/>
<polygon fill="#9a32cd" stroke="#9a32cd" points="1165.15,-42.74 1156.26,-48.51 1166.81,-49.54 1165.15,-42.74"/>
<text text-anchor="middle" x="2254" y="-3" font-family="Helvetica,sans-Serif" font-size="10.00"> addToRule</text>
</g>
<!-- Node30&#45;&gt;Node4 -->
<g id="edge78" class="edge">
<title>Node30&#45;&gt;Node4</title>
<path fill="none" stroke="#9a32cd" stroke-dasharray="5,2" d="M1166.17,-50.53C1223.18,-47.13 1372.61,-39 1497.5,-39 1497.5,-39 1497.5,-39 2639,-39 2721.54,-39 2754.44,-60.54 2802,-128 2883.99,-244.31 2893.82,-426.38 2894.9,-479.79"/>
<polygon fill="#9a32cd" stroke="#9a32cd" points="1165.81,-47.05 1156.04,-51.15 1166.23,-54.04 1165.81,-47.05"/>
<text text-anchor="middle" x="2063" y="-42" font-family="Helvetica,sans-Serif" font-size="10.00"> num_nodes</text>
</g>
<!-- Node30&#45;&gt;Node7 -->
<g id="edge38" class="edge">
<title>Node30&#45;&gt;Node7</title>
<path fill="none" stroke="#9a32cd" stroke-dasharray="5,2" d="M1166.46,-51.96C1222.1,-52.26 1358.26,-55.36 1397,-78 1563.87,-175.52 1842.81,-781.83 1880.69,-865.44"/>
<polygon fill="#9a32cd" stroke="#9a32cd" points="1166.17,-48.46 1156.17,-51.93 1166.16,-55.46 1166.17,-48.46"/>
<text text-anchor="middle" x="1498.5" y="-333" font-family="Helvetica,sans-Serif" font-size="10.00"> sIze</text>
<text text-anchor="middle" x="1498.5" y="-322" font-family="Helvetica,sans-Serif" font-size="10.00">loopSize</text>
<text text-anchor="middle" x="1498.5" y="-311" font-family="Helvetica,sans-Serif" font-size="10.00">nInTheLoop</text>
<text text-anchor="middle" x="1498.5" y="-300" font-family="Helvetica,sans-Serif" font-size="10.00">rAnk</text>
</g>
<!-- Node32 -->
<g id="node32" class="node">
<title>Node32</title>
<g id="a_node32"><a xlink:href="structMoFEM_1_1Problem.html" target="_top" xlink:title="keeps basic data about problem">
<polygon fill="white" stroke="black" points="1449,-393.5 1449,-412.5 1548,-412.5 1548,-393.5 1449,-393.5"/>
<text text-anchor="middle" x="1498.5" y="-400.5" font-family="Helvetica,sans-Serif" font-size="10.00">MoFEM::Problem</text>
</a>
</g>
</g>
<!-- Node30&#45;&gt;Node32 -->
<g id="edge50" class="edge">
<title>Node30&#45;&gt;Node32</title>
<path fill="none" stroke="#9a32cd" stroke-dasharray="5,2" d="M1165.99,-57.43C1227.54,-71.74 1389.27,-110.05 1397,-119 1420.67,-146.42 1402.49,-247.01 1415,-281 1432.22,-327.79 1471.07,-374.09 1488.61,-393.49"/>
<polygon fill="#9a32cd" stroke="#9a32cd" points="1166.58,-53.97 1156.05,-55.12 1165,-60.79 1166.58,-53.97"/>
<text text-anchor="middle" x="1329" y="-188" font-family="Helvetica,sans-Serif" font-size="10.00"> tagNameSize</text>
<text text-anchor="middle" x="1329" y="-177" font-family="Helvetica,sans-Serif" font-size="10.00">nbDofsRow</text>
<text text-anchor="middle" x="1329" y="-166" font-family="Helvetica,sans-Serif" font-size="10.00">nbLocDofsCol</text>
<text text-anchor="middle" x="1329" y="-155" font-family="Helvetica,sans-Serif" font-size="10.00">nbDofsCol</text>
<text text-anchor="middle" x="1329" y="-144" font-family="Helvetica,sans-Serif" font-size="10.00">nbGhostDofsRow</text>
<text text-anchor="middle" x="1329" y="-133" font-family="Helvetica,sans-Serif" font-size="10.00">nbGhostDofsCol</text>
<text text-anchor="middle" x="1329" y="-122" font-family="Helvetica,sans-Serif" font-size="10.00">nbLocDofsRow</text>
</g>
<!-- Node31 -->
<g id="node31" class="node">
<title>Node31</title>
<g id="a_node31"><a xlink:title=" ">
<polygon fill="white" stroke="#bfbfbf" points="1415,-998.5 1415,-1017.5 1582,-1017.5 1582,-998.5 1415,-998.5"/>
<text text-anchor="middle" x="1498.5" y="-1005.5" font-family="Helvetica,sans-Serif" font-size="10.00">function&lt; MoFEMErrorCode()&gt;</text>
</a>
</g>
</g>
<!-- Node31&#45;&gt;Node7 -->
<g id="edge39" class="edge">
<title>Node31&#45;&gt;Node7</title>
<path fill="none" stroke="#9a32cd" stroke-dasharray="5,2" d="M1545.72,-1019.67C1607.45,-1032.24 1716.51,-1043.46 1781,-986 1812.11,-958.28 1769.9,-923.82 1799,-894 1806.05,-886.78 1815.18,-882.02 1824.85,-878.93"/>
<polygon fill="#9a32cd" stroke="#9a32cd" points="1546.37,-1016.23 1535.86,-1017.57 1544.91,-1023.08 1546.37,-1016.23"/>
<text text-anchor="middle" x="1690.5" y="-1054" font-family="Helvetica,sans-Serif" font-size="10.00"> preProcessHook</text>
<text text-anchor="middle" x="1690.5" y="-1043" font-family="Helvetica,sans-Serif" font-size="10.00">operatorHook</text>
<text text-anchor="middle" x="1690.5" y="-1032" font-family="Helvetica,sans-Serif" font-size="10.00">postProcessHook</text>
</g>
<!-- Node32&#45;&gt;Node7 -->
<g id="edge40" class="edge">
<title>Node32&#45;&gt;Node7</title>
<path fill="none" stroke="#9a32cd" stroke-dasharray="5,2" d="M1500.37,-422.81C1503.76,-476.77 1520.29,-628.22 1600,-716 1658.89,-780.85 1705.61,-749.39 1781,-794 1817.83,-815.79 1856.35,-848.97 1874.43,-865.27"/>
<polygon fill="#9a32cd" stroke="#9a32cd" points="1503.85,-422.36 1499.81,-412.57 1496.86,-422.74 1503.85,-422.36"/>
<text text-anchor="middle" x="1690.5" y="-797" font-family="Helvetica,sans-Serif" font-size="10.00"> problemPtr</text>
</g>
<!-- Node33 -->
<g id="node33" class="node">
<title>Node33</title>
<g id="a_node33"><a xlink:title=" ">
<polygon fill="white" stroke="#bfbfbf" points="1058,-515 1058,-545 1225,-545 1225,-515 1058,-515"/>
<text text-anchor="start" x="1066" y="-533" font-family="Helvetica,sans-Serif" font-size="10.00">shared_ptr&lt; NumeredEntFinite</text>
<text text-anchor="middle" x="1141.5" y="-522" font-family="Helvetica,sans-Serif" font-size="10.00">Element_multiIndex &gt;</text>
</a>
</g>
</g>
<!-- Node33&#45;&gt;Node32 -->
<g id="edge41" class="edge">
<title>Node33&#45;&gt;Node32</title>
<path fill="none" stroke="#9a32cd" stroke-dasharray="5,2" d="M1235.19,-529.37C1285.15,-525.93 1346.67,-516.53 1397,-493 1438.37,-473.66 1475.03,-431.56 1490.15,-412.6"/>
<polygon fill="#9a32cd" stroke="#9a32cd" points="1234.81,-525.89 1225.04,-530 1235.24,-532.88 1234.81,-525.89"/>
<text text-anchor="middle" x="1329" y="-529" font-family="Helvetica,sans-Serif" font-size="10.00"> numeredFiniteElementsPtr</text>
</g>
<!-- Node34 -->
<g id="node34" class="node">
<title>Node34</title>
<g id="a_node34"><a xlink:title=" ">
<polygon fill="white" stroke="#bfbfbf" points="1112,-476.5 1112,-495.5 1171,-495.5 1171,-476.5 1112,-476.5"/>
<text text-anchor="middle" x="1141.5" y="-483.5" font-family="Helvetica,sans-Serif" font-size="10.00">BitFEId *</text>
</a>
</g>
</g>
<!-- Node34&#45;&gt;Node32 -->
<g id="edge42" class="edge">
<title>Node34&#45;&gt;Node32</title>
<path fill="none" stroke="#9a32cd" stroke-dasharray="5,2" d="M1181.18,-484.96C1231.79,-482.71 1322.78,-475.58 1397,-453 1428.88,-443.3 1463.01,-424.25 1482.16,-412.67"/>
<polygon fill="#9a32cd" stroke="#9a32cd" points="1180.86,-481.47 1171.01,-485.37 1181.14,-488.46 1180.86,-481.47"/>
<text text-anchor="middle" x="1329" y="-481" font-family="Helvetica,sans-Serif" font-size="10.00"> tagBitFEId</text>
</g>
<!-- Node35 -->
<g id="node35" class="node">
<title>Node35</title>
<g id="a_node35"><a xlink:href="classEntityHandle.html" target="_top" xlink:title=" ">
<polygon fill="white" stroke="black" points="1101.5,-135.5 1101.5,-154.5 1181.5,-154.5 1181.5,-135.5 1101.5,-135.5"/>
<text text-anchor="middle" x="1141.5" y="-142.5" font-family="Helvetica,sans-Serif" font-size="10.00">EntityHandle</text>
</a>
</g>
</g>
<!-- Node35&#45;&gt;Node4 -->
<g id="edge76" class="edge">
<title>Node35&#45;&gt;Node4</title>
<path fill="none" stroke="#9a32cd" stroke-dasharray="5,2" d="M1173.26,-131.4C1196.79,-121.66 1230.3,-109.22 1261,-103 1364.2,-82.09 1392.2,-89 1497.5,-89 1497.5,-89 1497.5,-89 2639,-89 2827.32,-89 2882.65,-405.42 2893.04,-479.58"/>
<polygon fill="#9a32cd" stroke="#9a32cd" points="1171.67,-128.27 1163.82,-135.38 1174.39,-134.72 1171.67,-128.27"/>
<text text-anchor="middle" x="2063" y="-92" font-family="Helvetica,sans-Serif" font-size="10.00"> conn</text>
</g>
<!-- Node35&#45;&gt;Node32 -->
<g id="edge43" class="edge">
<title>Node35&#45;&gt;Node32</title>
<path fill="none" stroke="#9a32cd" stroke-dasharray="5,2" d="M1168.13,-159.41C1191.6,-171.98 1227.65,-189.78 1261,-200 1319.54,-217.95 1350.87,-181.74 1397,-222 1417.66,-240.03 1403.19,-256.26 1415,-281 1436.59,-326.23 1473.48,-373.71 1489.59,-393.49"/>
<polygon fill="#9a32cd" stroke="#9a32cd" points="1169.64,-156.25 1159.19,-154.54 1166.3,-162.39 1169.64,-156.25"/>
<text text-anchor="middle" x="1329" y="-225" font-family="Helvetica,sans-Serif" font-size="10.00"> meshset</text>
</g>
<!-- Node36 -->
<g id="node36" class="node">
<title>Node36</title>
<g id="a_node36"><a xlink:title=" ">
<polygon fill="white" stroke="#bfbfbf" points="1067,-427 1067,-457 1216,-457 1216,-427 1067,-427"/>
<text text-anchor="start" x="1075" y="-445" font-family="Helvetica,sans-Serif" font-size="10.00">shared_ptr&lt; MoFEM::</text>
<text text-anchor="middle" x="1141.5" y="-434" font-family="Helvetica,sans-Serif" font-size="10.00">ComposedProblemsData &gt;</text>
</a>
</g>
</g>
<!-- Node36&#45;&gt;Node32 -->
<g id="edge44" class="edge">
<title>Node36&#45;&gt;Node32</title>
<path fill="none" stroke="#9a32cd" stroke-dasharray="5,2" d="M1226.14,-440.16C1275.96,-438.21 1340.33,-434.21 1397,-426 1418.97,-422.82 1443.23,-417.32 1462.42,-412.5"/>
<polygon fill="#9a32cd" stroke="#9a32cd" points="1225.92,-436.66 1216.05,-440.53 1226.18,-443.66 1225.92,-436.66"/>
<text text-anchor="middle" x="1329" y="-441" font-family="Helvetica,sans-Serif" font-size="10.00"> composedProblemsData</text>
</g>
<!-- Node37 -->
<g id="node37" class="node">
<title>Node37</title>
<g id="a_node37"><a xlink:title=" ">
<polygon fill="white" stroke="#bfbfbf" points="1101,-388.5 1101,-407.5 1182,-407.5 1182,-388.5 1101,-388.5"/>
<text text-anchor="middle" x="1141.5" y="-395.5" font-family="Helvetica,sans-Serif" font-size="10.00">BitRefLevel *</text>
</a>
</g>
</g>
<!-- Node37&#45;&gt;Node32 -->
<g id="edge45" class="edge">
<title>Node37&#45;&gt;Node32</title>
<path fill="none" stroke="#9a32cd" stroke-dasharray="5,2" d="M1192.22,-398.7C1260.17,-399.66 1381.29,-401.36 1448.74,-402.31"/>
<polygon fill="#9a32cd" stroke="#9a32cd" points="1192.24,-395.2 1182.19,-398.56 1192.14,-402.2 1192.24,-395.2"/>
<text text-anchor="middle" x="1329" y="-416" font-family="Helvetica,sans-Serif" font-size="10.00"> tagBitRefLevelMask</text>
<text text-anchor="middle" x="1329" y="-405" font-family="Helvetica,sans-Serif" font-size="10.00">tagBitRefLevel</text>
</g>
<!-- Node38 -->
<g id="node38" class="node">
<title>Node38</title>
<g id="a_node38"><a xlink:title=" ">
<polygon fill="white" stroke="#bfbfbf" points="1056.5,-339 1056.5,-369 1226.5,-369 1226.5,-339 1056.5,-339"/>
<text text-anchor="start" x="1064.5" y="-357" font-family="Helvetica,sans-Serif" font-size="10.00">shared_ptr&lt; NumeredDofEntity</text>
<text text-anchor="middle" x="1141.5" y="-346" font-family="Helvetica,sans-Serif" font-size="10.00">_multiIndex &gt;</text>
</a>
</g>
</g>
<!-- Node38&#45;&gt;Node32 -->
<g id="edge46" class="edge">
<title>Node38&#45;&gt;Node32</title>
<path fill="none" stroke="#9a32cd" stroke-dasharray="5,2" d="M1236.84,-356.86C1285.05,-359.47 1344.48,-364.46 1397,-374 1422.19,-378.58 1450.12,-386.91 1470.13,-393.47"/>
<polygon fill="#9a32cd" stroke="#9a32cd" points="1236.89,-353.36 1226.73,-356.34 1236.53,-360.35 1236.89,-353.36"/>
<text text-anchor="middle" x="1329" y="-388" font-family="Helvetica,sans-Serif" font-size="10.00"> numeredRowDofsPtr</text>
<text text-anchor="middle" x="1329" y="-377" font-family="Helvetica,sans-Serif" font-size="10.00">numeredColDofsPtr</text>
</g>
<!-- Node39 -->
<g id="node39" class="node">
<title>Node39</title>
<g id="a_node39"><a xlink:title=" ">
<polygon fill="white" stroke="#bfbfbf" points="1122.5,-300.5 1122.5,-319.5 1160.5,-319.5 1160.5,-300.5 1122.5,-300.5"/>
<text text-anchor="middle" x="1141.5" y="-307.5" font-family="Helvetica,sans-Serif" font-size="10.00">char</text>
</a>
</g>
</g>
<!-- Node39&#45;&gt;Node32 -->
<g id="edge47" class="edge">
<title>Node39&#45;&gt;Node32</title>
<path fill="none" stroke="#9a32cd" stroke-dasharray="5,2" d="M1170.87,-310.16C1218.78,-311.22 1318.22,-316.85 1397,-344 1431.24,-355.8 1466.73,-379.94 1484.99,-393.4"/>
<polygon fill="#9a32cd" stroke="#9a32cd" points="1170.7,-306.66 1160.65,-309.99 1170.59,-313.66 1170.7,-306.66"/>
<text text-anchor="middle" x="1329" y="-347" font-family="Helvetica,sans-Serif" font-size="10.00"> tagName</text>
</g>
<!-- Node40 -->
<g id="node40" class="node">
<title>Node40</title>
<g id="a_node40"><a xlink:title=" ">
<polygon fill="white" stroke="#bfbfbf" points="1072.5,-262.5 1072.5,-281.5 1210.5,-281.5 1210.5,-262.5 1072.5,-262.5"/>
<text text-anchor="middle" x="1141.5" y="-269.5" font-family="Helvetica,sans-Serif" font-size="10.00">vector&lt; BlockFieldPair &gt;</text>
</a>
</g>
</g>
<!-- Node40&#45;&gt;Node32 -->
<g id="edge48" class="edge">
<title>Node40&#45;&gt;Node32</title>
<path fill="none" stroke="#9a32cd" stroke-dasharray="5,2" d="M1220.96,-268.14C1273.28,-268.64 1342.24,-275.37 1397,-302 1441.27,-323.53 1477.44,-372.62 1491.36,-393.41"/>
<polygon fill="#9a32cd" stroke="#9a32cd" points="1220.74,-264.64 1210.73,-268.12 1220.72,-271.64 1220.74,-264.64"/>
<text text-anchor="middle" x="1329" y="-305" font-family="Helvetica,sans-Serif" font-size="10.00"> emptyFieldBlocks</text>
</g>
<!-- Node41 -->
<g id="node41" class="node">
<title>Node41</title>
<g id="a_node41"><a xlink:title=" ">
<polygon fill="white" stroke="#bfbfbf" points="1063.5,-213 1063.5,-243 1219.5,-243 1219.5,-213 1063.5,-213"/>
<text text-anchor="start" x="1071.5" y="-231" font-family="Helvetica,sans-Serif" font-size="10.00">shared_ptr&lt; MoFEM::</text>
<text text-anchor="middle" x="1141.5" y="-220" font-family="Helvetica,sans-Serif" font-size="10.00">Problem::SubProblemData &gt;</text>
</a>
</g>
</g>
<!-- Node41&#45;&gt;Node32 -->
<g id="edge49" class="edge">
<title>Node41&#45;&gt;Node32</title>
<path fill="none" stroke="#9a32cd" stroke-dasharray="5,2" d="M1229.85,-233.64C1297.74,-238.63 1382.7,-246.43 1397,-255 1397.9,-255.54 1468.83,-360.53 1490.97,-393.33"/>
<polygon fill="#9a32cd" stroke="#9a32cd" points="1229.77,-230.13 1219.54,-232.9 1229.27,-237.11 1229.77,-230.13"/>
<text text-anchor="middle" x="1329" y="-258" font-family="Helvetica,sans-Serif" font-size="10.00"> subProblemData</text>
</g>
<!-- Node42 -->
<g id="node42" class="node">
<title>Node42</title>
<g id="a_node42"><a xlink:title=" ">
<polygon fill="white" stroke="#bfbfbf" points="1040,-602.5 1040,-621.5 1243,-621.5 1243,-602.5 1040,-602.5"/>
<text text-anchor="middle" x="1141.5" y="-609.5" font-family="Helvetica,sans-Serif" font-size="10.00">shared_ptr&lt; SequenceDofContainer &gt;</text>
</a>
</g>
</g>
<!-- Node42&#45;&gt;Node32 -->
<g id="edge51" class="edge">
<title>Node42&#45;&gt;Node32</title>
<path fill="none" stroke="#9a32cd" stroke-dasharray="5,2" d="M1253.48,-612.66C1310.77,-611 1373.5,-605.46 1397,-590 1463.2,-546.44 1489.09,-444.15 1495.69,-412.5"/>
<polygon fill="#9a32cd" stroke="#9a32cd" points="1253.14,-609.17 1243.23,-612.91 1253.31,-616.16 1253.14,-609.17"/>
<text text-anchor="middle" x="1329" y="-626" font-family="Helvetica,sans-Serif" font-size="10.00"> sequenceRowDofContainer</text>
<text text-anchor="middle" x="1329" y="-615" font-family="Helvetica,sans-Serif" font-size="10.00">sequenceColDofContainer</text>
</g>
<!-- Node43 -->
<g id="node43" class="node">
<title>Node43</title>
<g id="a_node43"><a xlink:title=" ">
<polygon fill="white" stroke="#bfbfbf" points="1097.5,-564.5 1097.5,-583.5 1185.5,-583.5 1185.5,-564.5 1097.5,-564.5"/>
<text text-anchor="middle" x="1141.5" y="-571.5" font-family="Helvetica,sans-Serif" font-size="10.00">BitProblemId *</text>
</a>
</g>
</g>
<!-- Node43&#45;&gt;Node32 -->
<g id="edge52" class="edge">
<title>Node43&#45;&gt;Node32</title>
<path fill="none" stroke="#9a32cd" stroke-dasharray="5,2" d="M1196.02,-578.85C1250.42,-581.21 1335.25,-577.61 1397,-541 1449.77,-509.71 1482.91,-438.8 1493.66,-412.79"/>
<polygon fill="#9a32cd" stroke="#9a32cd" points="1196.06,-575.34 1185.9,-578.32 1195.7,-582.34 1196.06,-575.34"/>
<text text-anchor="middle" x="1329" y="-580" font-family="Helvetica,sans-Serif" font-size="10.00"> tagId</text>
</g>
<!-- Node44 -->
<g id="node44" class="node">
<title>Node44</title>
<g id="a_node44"><a xlink:title=" ">
<polygon fill="white" stroke="#bfbfbf" points="1805,-573 1805,-603 1967,-603 1967,-573 1805,-573"/>
<text text-anchor="start" x="1813" y="-591" font-family="Helvetica,sans-Serif" font-size="10.00">shared_ptr&lt; const MoFEM</text>
<text text-anchor="middle" x="1886" y="-580" font-family="Helvetica,sans-Serif" font-size="10.00">::NumeredEntFiniteElement &gt;</text>
</a>
</g>
</g>
<!-- Node44&#45;&gt;Node6 -->
<g id="edge53" class="edge">
<title>Node44&#45;&gt;Node6</title>
<path fill="none" stroke="#9a32cd" stroke-dasharray="5,2" d="M1977.3,-587.9C2024.32,-587.97 2082.76,-588.23 2135,-589 2156.41,-589.32 2180.01,-589.87 2200.43,-590.42"/>
<polygon fill="#9a32cd" stroke="#9a32cd" points="1977.14,-584.4 1967.14,-587.89 1977.14,-591.4 1977.14,-584.4"/>
<text text-anchor="middle" x="2063" y="-592" font-family="Helvetica,sans-Serif" font-size="10.00"> numeredEntFiniteElementPtr</text>
</g>
<!-- Node45 -->
<g id="node45" class="node">
<title>Node45</title>
<g id="a_node45"><a xlink:title=" ">
<polygon fill="white" stroke="#bfbfbf" points="1864,-471.5 1864,-490.5 1908,-490.5 1908,-471.5 1864,-471.5"/>
<text text-anchor="middle" x="1886" y="-478.5" font-family="Helvetica,sans-Serif" font-size="10.00">string</text>
</a>
</g>
</g>
<!-- Node45&#45;&gt;Node4 -->
<g id="edge79" class="edge">
<title>Node45&#45;&gt;Node4</title>
<path fill="none" stroke="#9a32cd" stroke-dasharray="5,2" d="M1918.09,-479.83C2028.08,-475.94 2409.05,-464.43 2723,-479 2754.76,-480.47 2789.7,-483.47 2819.75,-486.48"/>
<polygon fill="#9a32cd" stroke="#9a32cd" points="1917.88,-476.34 1908.01,-480.2 1918.13,-483.33 1917.88,-476.34"/>
<text text-anchor="middle" x="2454" y="-476" font-family="Helvetica,sans-Serif" font-size="10.00"> meshPositionsFieldName</text>
</g>
<!-- Node45&#45;&gt;Node6 -->
<g id="edge54" class="edge">
<title>Node45&#45;&gt;Node6</title>
<path fill="none" stroke="#9a32cd" stroke-dasharray="5,2" d="M1918.17,-479.91C1968.98,-479.76 2070.45,-486.42 2135,-537 2149.08,-548.03 2138.73,-562.21 2153,-573 2166.53,-583.23 2183.98,-588.46 2200.5,-591"/>
<polygon fill="#9a32cd" stroke="#9a32cd" points="1918.08,-476.41 1908.13,-480.04 1918.17,-483.41 1918.08,-476.41"/>
<text text-anchor="middle" x="2063" y="-540" font-family="Helvetica,sans-Serif" font-size="10.00"> feName</text>
</g>
<!-- Node46 -->
<g id="node46" class="node">
<title>Node46</title>
<g id="a_node46"><a xlink:title=" ">
<polygon fill="white" stroke="#bfbfbf" points="1804.5,-524 1804.5,-554 1967.5,-554 1967.5,-524 1804.5,-524"/>
<text text-anchor="start" x="1812.5" y="-542" font-family="Helvetica,sans-Serif" font-size="10.00">function&lt; bool(MoFEM</text>
<text text-anchor="middle" x="1886" y="-531" font-family="Helvetica,sans-Serif" font-size="10.00">::FEMethod *fe_method_ptr)&gt;</text>
</a>
</g>
</g>
<!-- Node46&#45;&gt;Node6 -->
<g id="edge55" class="edge">
<title>Node46&#45;&gt;Node6</title>
<path fill="none" stroke="#9a32cd" stroke-dasharray="5,2" d="M1977.68,-550.28C2024.68,-556.32 2082.99,-564.13 2135,-572 2156.47,-575.25 2180.07,-579.18 2200.49,-582.69"/>
<polygon fill="#9a32cd" stroke="#9a32cd" points="1977.88,-546.78 1967.52,-548.98 1976.99,-553.72 1977.88,-546.78"/>
<text text-anchor="middle" x="2063" y="-575" font-family="Helvetica,sans-Serif" font-size="10.00"> exeTestHook</text>
</g>
<!-- Node47 -->
<g id="node47" class="node">
<title>Node47</title>
<g id="a_node47"><a xlink:href="classdouble.html" target="_top" xlink:title=" ">
<polygon fill="white" stroke="black" points="2229,-1237.5 2229,-1256.5 2279,-1256.5 2279,-1237.5 2229,-1237.5"/>
<text text-anchor="middle" x="2254" y="-1244.5" font-family="Helvetica,sans-Serif" font-size="10.00">double</text>
</a>
</g>
</g>
<!-- Node47&#45;&gt;Node4 -->
<g id="edge77" class="edge">
<title>Node47&#45;&gt;Node4</title>
<path fill="none" stroke="#9a32cd" stroke-dasharray="5,2" d="M2288.91,-1256.52C2344.58,-1270.08 2456.96,-1288.62 2535,-1243 2822.41,-1074.99 2884.26,-601.15 2893.59,-510.2"/>
<polygon fill="#9a32cd" stroke="#9a32cd" points="2289.75,-1253.12 2279.2,-1254.06 2288.03,-1259.91 2289.75,-1253.12"/>
<text text-anchor="middle" x="2638" y="-1233" font-family="Helvetica,sans-Serif" font-size="10.00"> aRea</text>
</g>
<!-- Node47&#45;&gt;Node5 -->
<g id="edge56" class="edge">
<title>Node47&#45;&gt;Node5</title>
<path fill="none" stroke="#9a32cd" stroke-dasharray="5,2" d="M2289.36,-1242.58C2363.63,-1233 2532.68,-1211 2535,-1209 2589.54,-1162.1 2627.98,-921.67 2635.61,-870.56"/>
<polygon fill="#9a32cd" stroke="#9a32cd" points="2288.59,-1239.15 2279.12,-1243.9 2289.48,-1246.09 2288.59,-1239.15"/>
<text text-anchor="middle" x="2454" y="-1234" font-family="Helvetica,sans-Serif" font-size="10.00"> elementMeasure</text>
</g>
<!-- Node48 -->
<g id="node48" class="node">
<title>Node48</title>
<g id="a_node48"><a xlink:title=" ">
<polygon fill="white" stroke="#bfbfbf" points="2168,-974.5 2168,-1015.5 2340,-1015.5 2340,-974.5 2168,-974.5"/>
<text text-anchor="start" x="2176" y="-1003.5" font-family="Helvetica,sans-Serif" font-size="10.00">array&lt; boost::shared</text>
<text text-anchor="start" x="2176" y="-992.5" font-family="Helvetica,sans-Serif" font-size="10.00">_ptr&lt; MoFEM::EntitiesFieldData</text>
<text text-anchor="middle" x="2254" y="-981.5" font-family="Helvetica,sans-Serif" font-size="10.00"> &gt;, LASTSPACE &gt;</text>
</a>
</g>
</g>
<!-- Node48&#45;&gt;Node5 -->
<g id="edge57" class="edge">
<title>Node48&#45;&gt;Node5</title>
<path fill="none" stroke="#9a32cd" stroke-dasharray="5,2" d="M2350.29,-988.98C2406.16,-982.65 2476.94,-969.65 2535,-943 2574.44,-924.89 2611.81,-888.16 2628.24,-870.67"/>
<polygon fill="#9a32cd" stroke="#9a32cd" points="2349.61,-985.54 2340.04,-990.09 2350.36,-992.5 2349.61,-985.54"/>
<text text-anchor="middle" x="2454" y="-999" font-family="Helvetica,sans-Serif" font-size="10.00"> derivedDataOnElement</text>
<text text-anchor="middle" x="2454" y="-988" font-family="Helvetica,sans-Serif" font-size="10.00">dataOnElement</text>
</g>
<!-- Node49 -->
<g id="node49" class="node">
<title>Node49</title>
<g id="a_node49"><a xlink:title=" ">
<polygon fill="white" stroke="#bfbfbf" points="2220,-936.5 2220,-955.5 2288,-955.5 2288,-936.5 2220,-936.5"/>
<text text-anchor="middle" x="2254" y="-943.5" font-family="Helvetica,sans-Serif" font-size="10.00">EntityType</text>
</a>
</g>
</g>
<!-- Node49&#45;&gt;Node5 -->
<g id="edge58" class="edge">
<title>Node49&#45;&gt;Node5</title>
<path fill="none" stroke="#9a32cd" stroke-dasharray="5,2" d="M2298.27,-940.38C2353.67,-932.71 2452.37,-917.42 2535,-896 2562,-889 2592.13,-878.29 2612.59,-870.56"/>
<polygon fill="#9a32cd" stroke="#9a32cd" points="2297.55,-936.95 2288.12,-941.77 2298.5,-943.88 2297.55,-936.95"/>
<text text-anchor="middle" x="2454" y="-931" font-family="Helvetica,sans-Serif" font-size="10.00"> lastEvaluatedElementEntityType</text>
</g>
<!-- Node50 -->
<g id="node50" class="node">
<title>Node50</title>
<g id="a_node50"><a xlink:href="structMoFEM_1_1DeprecatedCoreInterface.html" target="_top" xlink:title="Deprecated interface functions.">
<polygon fill="white" stroke="black" points="1600,-1284.5 1600,-1303.5 1781,-1303.5 1781,-1284.5 1600,-1284.5"/>
<text text-anchor="middle" x="1690.5" y="-1291.5" font-family="Helvetica,sans-Serif" font-size="10.00">MoFEM::DeprecatedCoreInterface</text>
</a>
</g>
</g>
<!-- Node50&#45;&gt;Node5 -->
<g id="edge59" class="edge">
<title>Node50&#45;&gt;Node5</title>
<path fill="none" stroke="#9a32cd" stroke-dasharray="5,2" d="M1761.89,-1282.86C1954.2,-1251.86 2477.91,-1163.35 2535,-1110 2555.97,-1090.41 2543.1,-1074.93 2553,-1048 2578.67,-978.19 2618.41,-897.73 2632.14,-870.54"/>
<polygon fill="#9a32cd" stroke="#9a32cd" points="1761.21,-1279.43 1751.89,-1284.47 1762.32,-1286.34 1761.21,-1279.43"/>
<text text-anchor="middle" x="2063" y="-1245" font-family="Helvetica,sans-Serif" font-size="10.00"> mField</text>
</g>
<!-- Node51&#45;&gt;Node50 -->
<g id="edge60" class="edge">
<title>Node51&#45;&gt;Node50</title>
<path fill="none" stroke="midnightblue" d="M1191.77,-1415.02C1299.15,-1388.91 1552.49,-1327.31 1650.15,-1303.57"/>
<polygon fill="midnightblue" stroke="midnightblue" points="1190.73,-1411.67 1181.84,-1417.43 1192.38,-1418.47 1190.73,-1411.67"/>
</g>
<!-- Node52 -->
<g id="node52" class="node">
<title>Node52</title>
<g id="a_node52"><a xlink:title=" ">
<polygon fill="white" stroke="#bfbfbf" points="2170.5,-865 2170.5,-917 2337.5,-917 2337.5,-865 2170.5,-865"/>
<text text-anchor="start" x="2178.5" y="-905" font-family="Helvetica,sans-Serif" font-size="10.00">function&lt; MoFEMErrorCode</text>
<text text-anchor="start" x="2178.5" y="-894" font-family="Helvetica,sans-Serif" font-size="10.00">(ForcesAndSourcesCore *fe</text>
<text text-anchor="start" x="2178.5" y="-883" font-family="Helvetica,sans-Serif" font-size="10.00">_raw_ptr, int order_row,</text>
<text text-anchor="middle" x="2254" y="-872" font-family="Helvetica,sans-Serif" font-size="10.00"> int order_col, int order_data)&gt;</text>
</a>
</g>
</g>
<!-- Node52&#45;&gt;Node5 -->
<g id="edge63" class="edge">
<title>Node52&#45;&gt;Node5</title>
<path fill="none" stroke="#9a32cd" stroke-dasharray="5,2" d="M2348.15,-883.68C2410.69,-878.77 2492.4,-872.36 2552.95,-867.6"/>
<polygon fill="#9a32cd" stroke="#9a32cd" points="2347.58,-880.22 2337.89,-884.49 2348.13,-887.2 2347.58,-880.22"/>
<text text-anchor="middle" x="2454" y="-884" font-family="Helvetica,sans-Serif" font-size="10.00"> setRuleHook</text>
</g>
<!-- Node53 -->
<g id="node53" class="node">
<title>Node53</title>
<g id="a_node53"><a xlink:title=" ">
<polygon fill="white" stroke="#bfbfbf" points="2153,-816 2153,-846 2355,-846 2355,-816 2153,-816"/>
<text text-anchor="start" x="2161" y="-834" font-family="Helvetica,sans-Serif" font-size="10.00">ptr_deque&lt; MoFEM::Forces</text>
<text text-anchor="middle" x="2254" y="-823" font-family="Helvetica,sans-Serif" font-size="10.00">AndSourcesCore::UserDataOperator &gt;</text>
</a>
</g>
</g>
<!-- Node53&#45;&gt;Node5 -->
<g id="edge64" class="edge">
<title>Node53&#45;&gt;Node5</title>
<path fill="none" stroke="#9a32cd" stroke-dasharray="5,2" d="M2365.59,-839.68C2425.26,-844.37 2497.75,-850.06 2552.8,-854.39"/>
<polygon fill="#9a32cd" stroke="#9a32cd" points="2365.61,-836.18 2355.37,-838.88 2365.06,-843.15 2365.61,-836.18"/>
<text text-anchor="middle" x="2454" y="-855" font-family="Helvetica,sans-Serif" font-size="10.00"> opPtrVector</text>
</g>
<!-- Node54 -->
<g id="node54" class="node">
<title>Node54</title>
<g id="a_node54"><a xlink:href="structMoFEM_1_1EntitiesFieldData.html" target="_top" xlink:title="data structure for finite element entity">
<polygon fill="white" stroke="black" points="2183,-1034.5 2183,-1053.5 2325,-1053.5 2325,-1034.5 2183,-1034.5"/>
<text text-anchor="middle" x="2254" y="-1041.5" font-family="Helvetica,sans-Serif" font-size="10.00">MoFEM::EntitiesFieldData</text>
</a>
</g>
</g>
<!-- Node54&#45;&gt;Node5 -->
<g id="edge65" class="edge">
<title>Node54&#45;&gt;Node5</title>
<path fill="none" stroke="#9a32cd" stroke-dasharray="5,2" d="M2335.26,-1051.61C2394.57,-1053.37 2475.07,-1047.37 2535,-1011 2591.27,-976.85 2623.65,-898.48 2633.64,-870.86"/>
<polygon fill="#9a32cd" stroke="#9a32cd" points="2335.31,-1048.11 2325.19,-1051.23 2335.05,-1055.1 2335.31,-1048.11"/>
<text text-anchor="middle" x="2454" y="-1098" font-family="Helvetica,sans-Serif" font-size="10.00"> dataNoField</text>
<text text-anchor="middle" x="2454" y="-1087" font-family="Helvetica,sans-Serif" font-size="10.00">dataL2</text>
<text text-anchor="middle" x="2454" y="-1076" font-family="Helvetica,sans-Serif" font-size="10.00">dataH1</text>
<text text-anchor="middle" x="2454" y="-1065" font-family="Helvetica,sans-Serif" font-size="10.00">dataHcurl</text>
<text text-anchor="middle" x="2454" y="-1054" font-family="Helvetica,sans-Serif" font-size="10.00">dataHdiv</text>
</g>
<!-- Node55 -->
<g id="node55" class="node">
<title>Node55</title>
<g id="a_node55"><a xlink:title=" ">
<polygon fill="white" stroke="#bfbfbf" points="1805,-1139 1805,-1169 1967,-1169 1967,-1139 1805,-1139"/>
<text text-anchor="start" x="1813" y="-1157" font-family="Helvetica,sans-Serif" font-size="10.00">array&lt; std::bitset</text>
<text text-anchor="middle" x="1886" y="-1146" font-family="Helvetica,sans-Serif" font-size="10.00">&lt; LASTBASE &gt;, LASTSPACE &gt;</text>
</a>
</g>
</g>
<!-- Node55&#45;&gt;Node54 -->
<g id="edge66" class="edge">
<title>Node55&#45;&gt;Node54</title>
<path fill="none" stroke="#9a32cd" stroke-dasharray="5,2" d="M1977.09,-1137.73C2024.67,-1128.03 2083.68,-1114.24 2135,-1097 2171.4,-1084.77 2211.82,-1065.23 2234.65,-1053.6"/>
<polygon fill="#9a32cd" stroke="#9a32cd" points="1976.23,-1134.33 1967.12,-1139.74 1977.61,-1141.2 1976.23,-1134.33"/>
<text text-anchor="middle" x="2063" y="-1147" font-family="Helvetica,sans-Serif" font-size="10.00"> brokenBasesOnSpaces</text>
<text text-anchor="middle" x="2063" y="-1136" font-family="Helvetica,sans-Serif" font-size="10.00">basesOnSpaces</text>
</g>
<!-- Node56 -->
<g id="node56" class="node">
<title>Node56</title>
<g id="a_node56"><a xlink:title=" ">
<polygon fill="white" stroke="#bfbfbf" points="1809.5,-1078.5 1809.5,-1119.5 1962.5,-1119.5 1962.5,-1078.5 1809.5,-1078.5"/>
<text text-anchor="start" x="1817.5" y="-1107.5" font-family="Helvetica,sans-Serif" font-size="10.00">array&lt; boost::ptr_vector</text>
<text text-anchor="start" x="1817.5" y="-1096.5" font-family="Helvetica,sans-Serif" font-size="10.00">&lt; MoFEM::EntitiesFieldData</text>
<text text-anchor="middle" x="1886" y="-1085.5" font-family="Helvetica,sans-Serif" font-size="10.00">::EntData &gt;, MBMAXTYPE &gt;</text>
</a>
</g>
</g>
<!-- Node56&#45;&gt;Node54 -->
<g id="edge67" class="edge">
<title>Node56&#45;&gt;Node54</title>
<path fill="none" stroke="#9a32cd" stroke-dasharray="5,2" d="M1972.87,-1086.1C2039.31,-1076.11 2129.81,-1062.51 2189.75,-1053.5"/>
<polygon fill="#9a32cd" stroke="#9a32cd" points="1972.2,-1082.66 1962.84,-1087.6 1973.24,-1089.58 1972.2,-1082.66"/>
<text text-anchor="middle" x="2063" y="-1085" font-family="Helvetica,sans-Serif" font-size="10.00"> dataOnEntities</text>
</g>
<!-- Node57 -->
<g id="node57" class="node">
<title>Node57</title>
<g id="a_node57"><a xlink:title=" ">
<polygon fill="white" stroke="#bfbfbf" points="1799,-1029 1799,-1059 1973,-1059 1973,-1029 1799,-1029"/>
<text text-anchor="start" x="1807" y="-1047" font-family="Helvetica,sans-Serif" font-size="10.00">array&lt; std::bitset</text>
<text text-anchor="middle" x="1886" y="-1036" font-family="Helvetica,sans-Serif" font-size="10.00">&lt; LASTSPACE &gt;, MBMAXTYPE &gt;</text>
</a>
</g>
</g>
<!-- Node57&#45;&gt;Node54 -->
<g id="edge68" class="edge">
<title>Node57&#45;&gt;Node54</title>
<path fill="none" stroke="#9a32cd" stroke-dasharray="5,2" d="M1983.56,-1044C2046.2,-1044 2126.38,-1044 2182.94,-1044"/>
<polygon fill="#9a32cd" stroke="#9a32cd" points="1983.27,-1040.5 1973.27,-1044 1983.27,-1047.5 1983.27,-1040.5"/>
<text text-anchor="middle" x="2063" y="-1047" font-family="Helvetica,sans-Serif" font-size="10.00"> spacesOnEntities</text>
</g>
<!-- Node58 -->
<g id="node58" class="node">
<title>Node58</title>
<g id="a_node58"><a xlink:title=" ">
<polygon fill="white" stroke="#bfbfbf" points="1801.5,-980 1801.5,-1010 1970.5,-1010 1970.5,-980 1801.5,-980"/>
<text text-anchor="start" x="1809.5" y="-998" font-family="Helvetica,sans-Serif" font-size="10.00">array&lt; std::bitset</text>
<text text-anchor="middle" x="1886" y="-987" font-family="Helvetica,sans-Serif" font-size="10.00">&lt; LASTBASE &gt;, MBMAXTYPE &gt;</text>
</a>
</g>
</g>
<!-- Node58&#45;&gt;Node54 -->
<g id="edge69" class="edge">
<title>Node58&#45;&gt;Node54</title>
<path fill="none" stroke="#9a32cd" stroke-dasharray="5,2" d="M1980.45,-1007.51C2043.47,-1015.95 2125.29,-1026.9 2182.77,-1034.6"/>
<polygon fill="#9a32cd" stroke="#9a32cd" points="1980.89,-1004.04 1970.51,-1006.18 1979.96,-1010.98 1980.89,-1004.04"/>
<text text-anchor="middle" x="2063" y="-1031" font-family="Helvetica,sans-Serif" font-size="10.00"> basesOnEntities</text>
</g>
<!-- Node59 -->
<g id="node59" class="node">
<title>Node59</title>
<g id="a_node59"><a xlink:title=" ">
<polygon fill="white" stroke="#bfbfbf" points="1830,-941.5 1830,-960.5 1942,-960.5 1942,-941.5 1830,-941.5"/>
<text text-anchor="middle" x="1886" y="-948.5" font-family="Helvetica,sans-Serif" font-size="10.00">UBlasMatrix&lt; int &gt;</text>
</a>
</g>
</g>
<!-- Node59&#45;&gt;Node54 -->
<g id="edge70" class="edge">
<title>Node59&#45;&gt;Node54</title>
<path fill="none" stroke="#9a32cd" stroke-dasharray="5,2" d="M1952.29,-942.74C2006.51,-939.48 2082.94,-943.66 2135,-983 2151.2,-995.24 2137.17,-1012.28 2153,-1025 2161.68,-1031.97 2172.14,-1036.66 2182.99,-1039.78"/>
<polygon fill="#9a32cd" stroke="#9a32cd" points="1951.82,-939.27 1942.09,-943.46 1952.31,-946.25 1951.82,-939.27"/>
<text text-anchor="middle" x="2063" y="-997" font-family="Helvetica,sans-Serif" font-size="10.00"> facesNodesOrder</text>
<text text-anchor="middle" x="2063" y="-986" font-family="Helvetica,sans-Serif" font-size="10.00">facesNodes</text>
</g>
<!-- Node60 -->
<g id="node60" class="node">
<title>Node60</title>
<g id="a_node60"><a xlink:title=" ">
<polygon fill="white" stroke="#bfbfbf" points="1827.5,-903.5 1827.5,-922.5 1944.5,-922.5 1944.5,-903.5 1827.5,-903.5"/>
<text text-anchor="middle" x="1886" y="-910.5" font-family="Helvetica,sans-Serif" font-size="10.00">bitset&lt; LASTBASE &gt;</text>
</a>
</g>
</g>
<!-- Node60&#45;&gt;Node54 -->
<g id="edge71" class="edge">
<title>Node60&#45;&gt;Node54</title>
<path fill="none" stroke="#9a32cd" stroke-dasharray="5,2" d="M1954.62,-907.8C2018.78,-904.42 2109.14,-904.19 2135,-927 2168.21,-956.29 2121.78,-993.59 2153,-1025 2161.16,-1033.21 2171.69,-1038.46 2182.84,-1041.73"/>
<polygon fill="#9a32cd" stroke="#9a32cd" points="1954.35,-904.31 1944.56,-908.37 1954.74,-911.3 1954.35,-904.31"/>
<text text-anchor="middle" x="2063" y="-930" font-family="Helvetica,sans-Serif" font-size="10.00"> bAse</text>
</g>
<!-- Node61 -->
<g id="node61" class="node">
<title>Node61</title>
<g id="a_node61"><a xlink:title=" ">
<polygon fill="white" stroke="#bfbfbf" points="2191.5,-755.5 2191.5,-796.5 2316.5,-796.5 2316.5,-755.5 2191.5,-755.5"/>
<text text-anchor="start" x="2199.5" y="-784.5" font-family="Helvetica,sans-Serif" font-size="10.00">function&lt; int(int order</text>
<text text-anchor="start" x="2199.5" y="-773.5" font-family="Helvetica,sans-Serif" font-size="10.00">_row, int order_col, int</text>
<text text-anchor="middle" x="2254" y="-762.5" font-family="Helvetica,sans-Serif" font-size="10.00"> order_data)&gt;</text>
</a>
</g>
</g>
<!-- Node61&#45;&gt;Node5 -->
<g id="edge72" class="edge">
<title>Node61&#45;&gt;Node5</title>
<path fill="none" stroke="#9a32cd" stroke-dasharray="5,2" d="M2326.52,-785.17C2383.52,-793.28 2465.08,-806.68 2535,-825 2562.43,-832.19 2592.99,-843.42 2613.44,-851.43"/>
<polygon fill="#9a32cd" stroke="#9a32cd" points="2326.92,-781.7 2316.53,-783.77 2325.95,-788.63 2326.92,-781.7"/>
<text text-anchor="middle" x="2454" y="-828" font-family="Helvetica,sans-Serif" font-size="10.00"> getRuleHook</text>
</g>
<!-- Node62 -->
<g id="node62" class="node">
<title>Node62</title>
<g id="a_node62"><a xlink:title=" ">
<polygon fill="white" stroke="#bfbfbf" points="2193,-706 2193,-736 2315,-736 2315,-706 2193,-706"/>
<text text-anchor="start" x="2201" y="-724" font-family="Helvetica,sans-Serif" font-size="10.00">shared_ptr&lt; MoFEM::</text>
<text text-anchor="middle" x="2254" y="-713" font-family="Helvetica,sans-Serif" font-size="10.00">BaseFunction &gt;</text>
</a>
</g>
</g>
<!-- Node62&#45;&gt;Node5 -->
<g id="edge73" class="edge">
<title>Node62&#45;&gt;Node5</title>
<path fill="none" stroke="#9a32cd" stroke-dasharray="5,2" d="M2325.42,-721.09C2384.2,-723.73 2468.76,-733.62 2535,-766 2577.61,-786.83 2614.77,-831.45 2629.84,-851.22"/>
<polygon fill="#9a32cd" stroke="#9a32cd" points="2325.25,-717.58 2315.12,-720.69 2324.98,-724.57 2325.25,-717.58"/>
<text text-anchor="middle" x="2454" y="-780" font-family="Helvetica,sans-Serif" font-size="10.00"> userPolynomialBasePtr</text>
<text text-anchor="middle" x="2454" y="-769" font-family="Helvetica,sans-Serif" font-size="10.00">elementPolynomialBasePtr</text>
</g>
<!-- Node63 -->
<g id="node63" class="node">
<title>Node63</title>
<g id="a_node63"><a xlink:href="classUBlasMatrix_3_01double_01_4.html" target="_top" xlink:title=" ">
<polygon fill="white" stroke="black" points="2188,-544.5 2188,-563.5 2320,-563.5 2320,-544.5 2188,-544.5"/>
<text text-anchor="middle" x="2254" y="-551.5" font-family="Helvetica,sans-Serif" font-size="10.00">UBlasMatrix&lt; double &gt;</text>
</a>
</g>
</g>
<!-- Node63&#45;&gt;Node4 -->
<g id="edge80" class="edge">
<title>Node63&#45;&gt;Node4</title>
<path fill="none" stroke="#9a32cd" stroke-dasharray="5,2" d="M2330.6,-555.99C2459.16,-558.72 2714.93,-561.14 2802,-540 2826.93,-533.95 2853.02,-520.62 2871.21,-510.03"/>
<polygon fill="#9a32cd" stroke="#9a32cd" points="2330.51,-552.49 2320.44,-555.77 2330.36,-559.49 2330.51,-552.49"/>
<text text-anchor="middle" x="2638" y="-582" font-family="Helvetica,sans-Serif" font-size="10.00"> tangentOneAtGaussPts</text>
<text text-anchor="middle" x="2638" y="-571" font-family="Helvetica,sans-Serif" font-size="10.00">tangentTwoAtGaussPts</text>
<text text-anchor="middle" x="2638" y="-560" font-family="Helvetica,sans-Serif" font-size="10.00">normalsAtGaussPts</text>
</g>
<!-- Node63&#45;&gt;Node5 -->
<g id="edge74" class="edge">
<title>Node63&#45;&gt;Node5</title>
<path fill="none" stroke="#9a32cd" stroke-dasharray="5,2" d="M2330.19,-560.87C2410.61,-568.56 2527.67,-580.87 2535,-588 2554.48,-606.96 2544.29,-683.25 2553,-709 2572.52,-766.69 2613.54,-827.98 2629.97,-851.26"/>
<polygon fill="#9a32cd" stroke="#9a32cd" points="2330.37,-557.37 2320.09,-559.91 2329.71,-564.34 2330.37,-557.37"/>
<text text-anchor="middle" x="2454" y="-602" font-family="Helvetica,sans-Serif" font-size="10.00"> coordsAtGaussPts</text>
<text text-anchor="middle" x="2454" y="-591" font-family="Helvetica,sans-Serif" font-size="10.00">gaussPts</text>
</g>
<!-- Node64 -->
<g id="node64" class="node">
<title>Node64</title>
<g id="a_node64"><a xlink:href="classUBlasVector_3_01double_01_4.html" target="_top" xlink:title=" ">
<polygon fill="white" stroke="black" points="2572.5,-488.5 2572.5,-507.5 2703.5,-507.5 2703.5,-488.5 2572.5,-488.5"/>
<text text-anchor="middle" x="2638" y="-495.5" font-family="Helvetica,sans-Serif" font-size="10.00">UBlasVector&lt; double &gt;</text>
</a>
</g>
</g>
<!-- Node64&#45;&gt;Node4 -->
<g id="edge75" class="edge">
<title>Node64&#45;&gt;Node4</title>
<path fill="none" stroke="#9a32cd" stroke-dasharray="5,2" d="M2713.97,-496.42C2723.08,-496.26 2732.25,-496.11 2741,-496 2766.67,-495.67 2794.74,-495.44 2819.8,-495.29"/>
<polygon fill="#9a32cd" stroke="#9a32cd" points="2713.68,-492.92 2703.75,-496.6 2713.81,-499.92 2713.68,-492.92"/>
<text text-anchor="middle" x="2771.5" y="-532" font-family="Helvetica,sans-Serif" font-size="10.00"> tangentOne</text>
<text text-anchor="middle" x="2771.5" y="-521" font-family="Helvetica,sans-Serif" font-size="10.00">tangentTwo</text>
<text text-anchor="middle" x="2771.5" y="-510" font-family="Helvetica,sans-Serif" font-size="10.00">nOrmal</text>
<text text-anchor="middle" x="2771.5" y="-499" font-family="Helvetica,sans-Serif" font-size="10.00">coords</text>
</g>
</g>
</svg>
