<?xml version="1.0" encoding="UTF-8" standalone="no"?>
<!DOCTYPE svg PUBLIC "-//W3C//DTD SVG 1.1//EN"
 "http://www.w3.org/Graphics/SVG/1.1/DTD/svg11.dtd">
<!-- Generated by graphviz version 2.43.0 (0)
 -->
<!-- Title: MoFEM::interface_DofEntity&lt; T &gt; Pages: 1 -->
<svg width="336pt" height="501pt"
 viewBox="0.00 0.00 336.00 501.00" xmlns="http://www.w3.org/2000/svg" xmlns:xlink="http://www.w3.org/1999/xlink">
<g id="graph0" class="graph" transform="scale(1 1) rotate(0) translate(4 497)">
<title>MoFEM::interface_DofEntity&lt; T &gt;</title>
<polygon fill="white" stroke="transparent" points="-4,4 -4,-497 332,-497 332,4 -4,4"/>
<!-- Node1 -->
<g id="node1" class="node">
<title>Node1</title>
<g id="a_node1"><a xlink:title="Interface to DofEntity.">
<polygon fill="#bfbfbf" stroke="black" points="94.5,-0.5 94.5,-19.5 276.5,-19.5 276.5,-0.5 94.5,-0.5"/>
<text text-anchor="middle" x="185.5" y="-7.5" font-family="Helvetica,sans-Serif" font-size="10.00">MoFEM::interface_DofEntity&lt; T &gt;</text>
</a>
</g>
</g>
<!-- Node2 -->
<g id="node2" class="node">
<title>Node2</title>
<g id="a_node2"><a xlink:href="structMoFEM_1_1interface__FieldEntity.html" target="_top" xlink:title="Interface to FieldEntity.">
<polygon fill="white" stroke="black" points="91.5,-57.5 91.5,-76.5 279.5,-76.5 279.5,-57.5 91.5,-57.5"/>
<text text-anchor="middle" x="185.5" y="-64.5" font-family="Helvetica,sans-Serif" font-size="10.00">MoFEM::interface_FieldEntity&lt; T &gt;</text>
</a>
</g>
</g>
<!-- Node2&#45;&gt;Node1 -->
<g id="edge1" class="edge">
<title>Node2&#45;&gt;Node1</title>
<path fill="none" stroke="midnightblue" d="M185.5,-47.12C185.5,-37.82 185.5,-27.06 185.5,-19.71"/>
<polygon fill="midnightblue" stroke="midnightblue" points="182,-47.41 185.5,-57.41 189,-47.41 182,-47.41"/>
</g>
<!-- Node3 -->
<g id="node3" class="node">
<title>Node3</title>
<g id="a_node3"><a xlink:href="structMoFEM_1_1interface__Field_3_01T_00_01T_01_4.html" target="_top" xlink:title=" ">
<polygon fill="white" stroke="black" points="120,-114.5 120,-144.5 251,-144.5 251,-114.5 120,-114.5"/>
<text text-anchor="start" x="128" y="-132.5" font-family="Helvetica,sans-Serif" font-size="10.00">MoFEM::interface_Field</text>
<text text-anchor="middle" x="185.5" y="-121.5" font-family="Helvetica,sans-Serif" font-size="10.00">&lt; T, T &gt;</text>
</a>
</g>
</g>
<!-- Node3&#45;&gt;Node2 -->
<g id="edge2" class="edge">
<title>Node3&#45;&gt;Node2</title>
<path fill="none" stroke="midnightblue" d="M185.5,-104.35C185.5,-94.51 185.5,-83.78 185.5,-76.54"/>
<polygon fill="midnightblue" stroke="midnightblue" points="182,-104.47 185.5,-114.47 189,-104.47 182,-104.47"/>
</g>
<!-- Node4 -->
<g id="node4" class="node">
<title>Node4</title>
<g id="a_node4"><a xlink:href="structMoFEM_1_1interface__FieldImpl.html" target="_top" xlink:title=" ">
<polygon fill="white" stroke="black" points="109.5,-182.5 109.5,-212.5 261.5,-212.5 261.5,-182.5 109.5,-182.5"/>
<text text-anchor="start" x="117.5" y="-200.5" font-family="Helvetica,sans-Serif" font-size="10.00">MoFEM::interface_FieldImpl</text>
<text text-anchor="middle" x="185.5" y="-189.5" font-family="Helvetica,sans-Serif" font-size="10.00">&lt; T, T &gt;</text>
</a>
</g>
</g>
<!-- Node4&#45;&gt;Node3 -->
<g id="edge3" class="edge">
<title>Node4&#45;&gt;Node3</title>
<path fill="none" stroke="midnightblue" d="M185.5,-172.03C185.5,-162.86 185.5,-152.74 185.5,-144.79"/>
<polygon fill="midnightblue" stroke="midnightblue" points="182,-172.18 185.5,-182.18 189,-172.18 182,-172.18"/>
</g>
<!-- Node5 -->
<g id="node5" class="node">
<title>Node5</title>
<g id="a_node5"><a xlink:href="structMoFEM_1_1interface__RefEntity.html" target="_top" xlink:title="interface to RefEntity">
<polygon fill="white" stroke="black" points="147,-406.5 147,-425.5 328,-425.5 328,-406.5 147,-406.5"/>
<text text-anchor="middle" x="237.5" y="-413.5" font-family="Helvetica,sans-Serif" font-size="10.00">MoFEM::interface_RefEntity&lt; T &gt;</text>
</a>
</g>
</g>
<!-- Node5&#45;&gt;Node4 -->
<g id="edge4" class="edge">
<title>Node5&#45;&gt;Node4</title>
<path fill="none" stroke="midnightblue" d="M238.48,-396.31C239.51,-361.74 238.06,-286.3 210.5,-231 207.26,-224.5 202.63,-218.02 198.24,-212.58"/>
<polygon fill="midnightblue" stroke="midnightblue" points="234.98,-396.25 238.07,-406.38 241.97,-396.53 234.98,-396.25"/>
</g>
<!-- Node8 -->
<g id="node8" class="node">
<title>Node8</title>
<g id="a_node8"><a xlink:href="structMoFEM_1_1interface__RefEntity.html" target="_top" xlink:title=" ">
<polygon fill="white" stroke="black" points="57.5,-328.5 57.5,-358.5 209.5,-358.5 209.5,-328.5 57.5,-328.5"/>
<text text-anchor="start" x="65.5" y="-346.5" font-family="Helvetica,sans-Serif" font-size="10.00">MoFEM::interface_RefEntity</text>
<text text-anchor="middle" x="133.5" y="-335.5" font-family="Helvetica,sans-Serif" font-size="10.00">&lt; REFENT &gt;</text>
</a>
</g>
</g>
<!-- Node5&#45;&gt;Node8 -->
<g id="edge9" class="edge">
<title>Node5&#45;&gt;Node8</title>
<path fill="none" stroke="orange" stroke-dasharray="5,2" d="M186.34,-403.05C176.78,-399.28 167.34,-394.37 159.5,-388 150.08,-380.34 143.26,-368.3 138.98,-358.82"/>
<polygon fill="orange" stroke="orange" points="185.29,-406.4 195.88,-406.46 187.64,-399.8 185.29,-406.4"/>
<text text-anchor="middle" x="191.5" y="-380" font-family="Helvetica,sans-Serif" font-size="10.00"> &lt; REFENT &gt;</text>
</g>
<!-- Node6 -->
<g id="node6" class="node">
<title>Node6</title>
<g id="a_node6"><a xlink:title=" ">
<polygon fill="white" stroke="#bfbfbf" points="189,-473.5 189,-492.5 286,-492.5 286,-473.5 189,-473.5"/>
<text text-anchor="middle" x="237.5" y="-480.5" font-family="Helvetica,sans-Serif" font-size="10.00">shared_ptr&lt; T &gt;</text>
</a>
</g>
</g>
<!-- Node6&#45;&gt;Node5 -->
<g id="edge5" class="edge">
<title>Node6&#45;&gt;Node5</title>
<path fill="none" stroke="#9a32cd" stroke-dasharray="5,2" d="M237.5,-463.04C237.5,-450.67 237.5,-435.12 237.5,-425.63"/>
<polygon fill="#9a32cd" stroke="#9a32cd" points="234,-463.23 237.5,-473.23 241,-463.23 234,-463.23"/>
<text text-anchor="middle" x="248.5" y="-447" font-family="Helvetica,sans-Serif" font-size="10.00"> sPtr</text>
</g>
<!-- Node7 -->
<g id="node7" class="node">
<title>Node7</title>
<g id="a_node7"><a xlink:href="structMoFEM_1_1interface__FieldImpl.html" target="_top" xlink:title="Pointer interface for MoFEM::Field.">
<polygon fill="white" stroke="black" points="57.5,-260.5 57.5,-290.5 209.5,-290.5 209.5,-260.5 57.5,-260.5"/>
<text text-anchor="start" x="65.5" y="-278.5" font-family="Helvetica,sans-Serif" font-size="10.00">MoFEM::interface_FieldImpl</text>
<text text-anchor="middle" x="133.5" y="-267.5" font-family="Helvetica,sans-Serif" font-size="10.00">&lt; FIELD, REFENT &gt;</text>
</a>
</g>
</g>
<!-- Node7&#45;&gt;Node4 -->
<g id="edge6" class="edge">
<title>Node7&#45;&gt;Node4</title>
<path fill="none" stroke="orange" stroke-dasharray="5,2" d="M148.94,-251.94C157.63,-239.23 168.22,-223.75 175.76,-212.73"/>
<polygon fill="orange" stroke="orange" points="146.04,-249.98 143.28,-260.2 151.82,-253.93 146.04,-249.98"/>
<text text-anchor="middle" x="184.5" y="-234" font-family="Helvetica,sans-Serif" font-size="10.00"> &lt; T, T &gt;</text>
</g>
<!-- Node8&#45;&gt;Node7 -->
<g id="edge7" class="edge">
<title>Node8&#45;&gt;Node7</title>
<path fill="none" stroke="midnightblue" d="M133.5,-318.03C133.5,-308.86 133.5,-298.74 133.5,-290.79"/>
<polygon fill="midnightblue" stroke="midnightblue" points="130,-318.18 133.5,-328.18 137,-318.18 130,-318.18"/>
</g>
<!-- Node9 -->
<g id="node9" class="node">
<title>Node9</title>
<g id="a_node9"><a xlink:href="classboost_1_1shared__ptr_3_01REFENT_01_4.html" target="_top" xlink:title=" ">
<polygon fill="white" stroke="black" points="0,-406.5 0,-425.5 129,-425.5 129,-406.5 0,-406.5"/>
<text text-anchor="middle" x="64.5" y="-413.5" font-family="Helvetica,sans-Serif" font-size="10.00">shared_ptr&lt; REFENT &gt;</text>
</a>
</g>
</g>
<!-- Node9&#45;&gt;Node8 -->
<g id="edge8" class="edge">
<title>Node9&#45;&gt;Node8</title>
<path fill="none" stroke="#9a32cd" stroke-dasharray="5,2" d="M80.07,-399.09C91.99,-386.91 108.27,-370.27 119.72,-358.58"/>
<polygon fill="#9a32cd" stroke="#9a32cd" points="77.45,-396.76 72.96,-406.36 82.46,-401.66 77.45,-396.76"/>
<text text-anchor="middle" x="111.5" y="-380" font-family="Helvetica,sans-Serif" font-size="10.00"> sPtr</text>
</g>
</g>
</svg>
