<?xml version="1.0" encoding="UTF-8" standalone="no"?>
<!DOCTYPE svg PUBLIC "-//W3C//DTD SVG 1.1//EN"
 "http://www.w3.org/Graphics/SVG/1.1/DTD/svg11.dtd">
<!-- Generated by graphviz version 2.43.0 (0)
 -->
<!-- Title: GelModule::Gel::OpRhsStrainHat Pages: 1 -->
<svg width="3653pt" height="2140pt"
 viewBox="0.00 0.00 3653.00 2139.76" xmlns="http://www.w3.org/2000/svg" xmlns:xlink="http://www.w3.org/1999/xlink">
<g id="graph0" class="graph" transform="scale(1 1) rotate(0) translate(4 2135.76)">
<title>GelModule::Gel::OpRhsStrainHat</title>
<polygon fill="white" stroke="transparent" points="-4,4 -4,-2135.76 3649,-2135.76 3649,4 -4,4"/>
<!-- Node1 -->
<g id="node1" class="node">
<title>Node1</title>
<g id="a_node1"><a xlink:title="Residual strain hat.">
<polygon fill="#bfbfbf" stroke="black" points="3470,-392.26 3470,-411.26 3645,-411.26 3645,-392.26 3470,-392.26"/>
<text text-anchor="middle" x="3557.5" y="-399.26" font-family="Helvetica,sans-Serif" font-size="10.00">GelModule::Gel::OpRhsStrainHat</text>
</a>
</g>
</g>
<!-- Node2 -->
<g id="node2" class="node">
<title>Node2</title>
<g id="a_node2"><a xlink:href="structGelModule_1_1Gel_1_1AssembleVector.html" target="_top" xlink:title=" ">
<polygon fill="white" stroke="black" points="3287,-568.76 3287,-598.76 3433,-598.76 3433,-568.76 3287,-568.76"/>
<text text-anchor="start" x="3295" y="-586.76" font-family="Helvetica,sans-Serif" font-size="10.00">GelModule::Gel::Assemble</text>
<text text-anchor="middle" x="3360" y="-575.76" font-family="Helvetica,sans-Serif" font-size="10.00">Vector</text>
</a>
</g>
</g>
<!-- Node2&#45;&gt;Node1 -->
<g id="edge1" class="edge">
<title>Node2&#45;&gt;Node1</title>
<path fill="none" stroke="midnightblue" d="M3384.75,-561.65C3427.43,-521.92 3515.47,-439.95 3545.89,-411.64"/>
<polygon fill="midnightblue" stroke="midnightblue" points="3382.27,-559.18 3377.33,-568.55 3387.04,-564.3 3382.27,-559.18"/>
</g>
<!-- Node3 -->
<g id="node3" class="node">
<title>Node3</title>
<g id="a_node3"><a xlink:href="structMoFEM_1_1VolumeElementForcesAndSourcesCore_1_1UserDataOperator.html" target="_top" xlink:title=" ">
<polygon fill="white" stroke="black" points="3044,-568.76 3044,-598.76 3235,-598.76 3235,-568.76 3044,-568.76"/>
<text text-anchor="start" x="3052" y="-586.76" font-family="Helvetica,sans-Serif" font-size="10.00">MoFEM::VolumeElementForces</text>
<text text-anchor="middle" x="3139.5" y="-575.76" font-family="Helvetica,sans-Serif" font-size="10.00">AndSourcesCore::UserDataOperator</text>
</a>
</g>
</g>
<!-- Node3&#45;&gt;Node2 -->
<g id="edge2" class="edge">
<title>Node3&#45;&gt;Node2</title>
<path fill="none" stroke="midnightblue" d="M3245.25,-583.76C3259.27,-583.76 3273.39,-583.76 3286.69,-583.76"/>
<polygon fill="midnightblue" stroke="midnightblue" points="3245.07,-580.26 3235.07,-583.76 3245.07,-587.26 3245.07,-580.26"/>
</g>
<!-- Node4 -->
<g id="node4" class="node">
<title>Node4</title>
<g id="a_node4"><a xlink:href="structMoFEM_1_1ForcesAndSourcesCore_1_1UserDataOperator.html" target="_top" xlink:title=" ">
<polygon fill="white" stroke="black" points="2837,-990.76 2837,-1020.76 3007,-1020.76 3007,-990.76 2837,-990.76"/>
<text text-anchor="start" x="2845" y="-1008.76" font-family="Helvetica,sans-Serif" font-size="10.00">MoFEM::ForcesAndSourcesCore</text>
<text text-anchor="middle" x="2922" y="-997.76" font-family="Helvetica,sans-Serif" font-size="10.00">::UserDataOperator</text>
</a>
</g>
</g>
<!-- Node4&#45;&gt;Node3 -->
<g id="edge3" class="edge">
<title>Node4&#45;&gt;Node3</title>
<path fill="none" stroke="midnightblue" d="M2922.78,-980.45C2923.61,-910.5 2935.89,-712.92 3044,-608.76 3048.03,-604.87 3052.6,-601.57 3057.49,-598.77"/>
<polygon fill="midnightblue" stroke="midnightblue" points="2919.28,-980.52 2922.73,-990.54 2926.28,-980.56 2919.28,-980.52"/>
</g>
<!-- Node5 -->
<g id="node5" class="node">
<title>Node5</title>
<g id="a_node5"><a xlink:href="structMoFEM_1_1DataOperator.html" target="_top" xlink:title="base operator to do operations at Gauss Pt. level">
<polygon fill="white" stroke="black" points="2579.5,-647.26 2579.5,-666.26 2704.5,-666.26 2704.5,-647.26 2579.5,-647.26"/>
<text text-anchor="middle" x="2642" y="-654.26" font-family="Helvetica,sans-Serif" font-size="10.00">MoFEM::DataOperator</text>
</a>
</g>
</g>
<!-- Node5&#45;&gt;Node4 -->
<g id="edge4" class="edge">
<title>Node5&#45;&gt;Node4</title>
<path fill="none" stroke="midnightblue" d="M2657,-674.34C2705.15,-734.78 2863.41,-933.46 2908.76,-990.39"/>
<polygon fill="midnightblue" stroke="midnightblue" points="2659.69,-672.1 2650.73,-666.46 2654.22,-676.46 2659.69,-672.1"/>
</g>
<!-- Node6 -->
<g id="node6" class="node">
<title>Node6</title>
<g id="a_node6"><a xlink:title=" ">
<polygon fill="white" stroke="#bfbfbf" points="2160,-706.76 2160,-758.76 2352,-758.76 2352,-706.76 2160,-706.76"/>
<text text-anchor="start" x="2168" y="-746.76" font-family="Helvetica,sans-Serif" font-size="10.00">function&lt; MoFEMErrorCode</text>
<text text-anchor="start" x="2168" y="-735.76" font-family="Helvetica,sans-Serif" font-size="10.00">(DataOperator *op_ptr,</text>
<text text-anchor="start" x="2168" y="-724.76" font-family="Helvetica,sans-Serif" font-size="10.00"> int side, EntityType type,</text>
<text text-anchor="middle" x="2256" y="-713.76" font-family="Helvetica,sans-Serif" font-size="10.00"> EntitiesFieldData::EntData &amp;data)&gt;</text>
</a>
</g>
</g>
<!-- Node6&#45;&gt;Node5 -->
<g id="edge5" class="edge">
<title>Node6&#45;&gt;Node5</title>
<path fill="none" stroke="#9a32cd" stroke-dasharray="5,2" d="M2362.41,-711.9C2437.68,-697 2535.41,-677.66 2592.86,-666.29"/>
<polygon fill="#9a32cd" stroke="#9a32cd" points="2361.54,-708.5 2352.41,-713.87 2362.9,-715.37 2361.54,-708.5"/>
<text text-anchor="middle" x="2458" y="-710.76" font-family="Helvetica,sans-Serif" font-size="10.00"> doWorkRhsHook</text>
</g>
<!-- Node7 -->
<g id="node7" class="node">
<title>Node7</title>
<g id="a_node7"><a xlink:href="classbool.html" target="_top" xlink:title=" ">
<polygon fill="white" stroke="black" points="2237,-424.26 2237,-443.26 2275,-443.26 2275,-424.26 2237,-424.26"/>
<text text-anchor="middle" x="2256" y="-431.26" font-family="Helvetica,sans-Serif" font-size="10.00">bool</text>
</a>
</g>
</g>
<!-- Node7&#45;&gt;Node5 -->
<g id="edge6" class="edge">
<title>Node7&#45;&gt;Node5</title>
<path fill="none" stroke="#9a32cd" stroke-dasharray="5,2" d="M2285.2,-430.85C2349.34,-424.89 2503.38,-414.59 2539,-448.76 2569.45,-477.96 2529.13,-606.09 2557,-637.76 2562.93,-644.49 2570.69,-649.11 2579.1,-652.24"/>
<polygon fill="#9a32cd" stroke="#9a32cd" points="2284.63,-427.38 2275.01,-431.83 2285.3,-434.35 2284.63,-427.38"/>
<text text-anchor="middle" x="2458" y="-517.76" font-family="Helvetica,sans-Serif" font-size="10.00"> doTris</text>
<text text-anchor="middle" x="2458" y="-506.76" font-family="Helvetica,sans-Serif" font-size="10.00">doQuads</text>
<text text-anchor="middle" x="2458" y="-495.76" font-family="Helvetica,sans-Serif" font-size="10.00">sYmm</text>
<text text-anchor="middle" x="2458" y="-484.76" font-family="Helvetica,sans-Serif" font-size="10.00">doPrisms</text>
<text text-anchor="middle" x="2458" y="-473.76" font-family="Helvetica,sans-Serif" font-size="10.00">doTets</text>
<text text-anchor="middle" x="2458" y="-462.76" font-family="Helvetica,sans-Serif" font-size="10.00">doVertices</text>
<text text-anchor="middle" x="2458" y="-451.76" font-family="Helvetica,sans-Serif" font-size="10.00">doEdges</text>
</g>
<!-- Node72 -->
<g id="node72" class="node">
<title>Node72</title>
<g id="a_node72"><a xlink:href="structGelModule_1_1Gel_1_1CommonData.html" target="_top" xlink:title="Common data for gel model.">
<polygon fill="white" stroke="black" points="2559.5,-260.26 2559.5,-279.26 2724.5,-279.26 2724.5,-260.26 2559.5,-260.26"/>
<text text-anchor="middle" x="2642" y="-267.26" font-family="Helvetica,sans-Serif" font-size="10.00">GelModule::Gel::CommonData</text>
</a>
</g>
</g>
<!-- Node7&#45;&gt;Node72 -->
<g id="edge90" class="edge">
<title>Node7&#45;&gt;Node72</title>
<path fill="none" stroke="#9a32cd" stroke-dasharray="5,2" d="M2285.23,-428.55C2309.52,-424.14 2345.52,-417.75 2377,-412.76 2448.83,-401.38 2475.31,-424.86 2539,-389.76 2587.85,-362.84 2623.62,-302.62 2636.13,-279.27"/>
<polygon fill="#9a32cd" stroke="#9a32cd" points="2284.48,-425.13 2275.27,-430.37 2285.73,-432.02 2284.48,-425.13"/>
<text text-anchor="middle" x="2458" y="-415.76" font-family="Helvetica,sans-Serif" font-size="10.00"> recordOn</text>
</g>
<!-- Node8 -->
<g id="node8" class="node">
<title>Node8</title>
<g id="a_node8"><a xlink:title=" ">
<polygon fill="white" stroke="#bfbfbf" points="2153,-462.26 2153,-547.26 2359,-547.26 2359,-462.26 2153,-462.26"/>
<text text-anchor="start" x="2161" y="-535.26" font-family="Helvetica,sans-Serif" font-size="10.00">function&lt; MoFEMErrorCode</text>
<text text-anchor="start" x="2161" y="-524.26" font-family="Helvetica,sans-Serif" font-size="10.00">(DataOperator *op_ptr,</text>
<text text-anchor="start" x="2161" y="-513.26" font-family="Helvetica,sans-Serif" font-size="10.00"> int row_side, int col_side,</text>
<text text-anchor="start" x="2161" y="-502.26" font-family="Helvetica,sans-Serif" font-size="10.00"> EntityType row_type, EntityType</text>
<text text-anchor="start" x="2161" y="-491.26" font-family="Helvetica,sans-Serif" font-size="10.00"> col_type, EntitiesFieldData::EntData</text>
<text text-anchor="start" x="2161" y="-480.26" font-family="Helvetica,sans-Serif" font-size="10.00"> &amp;row_data, EntitiesFieldData::EntData</text>
<text text-anchor="middle" x="2256" y="-469.26" font-family="Helvetica,sans-Serif" font-size="10.00"> &amp;col_data)&gt;</text>
</a>
</g>
</g>
<!-- Node8&#45;&gt;Node5 -->
<g id="edge7" class="edge">
<title>Node8&#45;&gt;Node5</title>
<path fill="none" stroke="#9a32cd" stroke-dasharray="5,2" d="M2369.13,-526.91C2436.49,-542.23 2513.87,-564.07 2539,-587.76 2556.19,-603.96 2539.3,-622.12 2557,-637.76 2563.39,-643.4 2571.09,-647.47 2579.21,-650.4"/>
<polygon fill="#9a32cd" stroke="#9a32cd" points="2369.8,-523.47 2359.27,-524.69 2368.26,-530.3 2369.8,-523.47"/>
<text text-anchor="middle" x="2458" y="-590.76" font-family="Helvetica,sans-Serif" font-size="10.00"> doWorkLhsHook</text>
</g>
<!-- Node9 -->
<g id="node9" class="node">
<title>Node9</title>
<g id="a_node9"><a xlink:title=" ">
<polygon fill="white" stroke="#bfbfbf" points="2179,-566.26 2179,-585.26 2333,-585.26 2333,-566.26 2179,-566.26"/>
<text text-anchor="middle" x="2256" y="-573.26" font-family="Helvetica,sans-Serif" font-size="10.00">array&lt; bool, MBMAXTYPE &gt;</text>
</a>
</g>
</g>
<!-- Node9&#45;&gt;Node5 -->
<g id="edge8" class="edge">
<title>Node9&#45;&gt;Node5</title>
<path fill="none" stroke="#9a32cd" stroke-dasharray="5,2" d="M2312.09,-587.38C2388.42,-603.48 2524.94,-632.28 2595.7,-647.2"/>
<polygon fill="#9a32cd" stroke="#9a32cd" points="2312.69,-583.93 2302.18,-585.29 2311.24,-590.78 2312.69,-583.93"/>
<text text-anchor="middle" x="2458" y="-637.76" font-family="Helvetica,sans-Serif" font-size="10.00"> doEntities</text>
</g>
<!-- Node10 -->
<g id="node10" class="node">
<title>Node10</title>
<g id="a_node10"><a xlink:title=" ">
<polygon fill="white" stroke="#bfbfbf" points="2607.5,-609.26 2607.5,-628.26 2676.5,-628.26 2676.5,-609.26 2607.5,-609.26"/>
<text text-anchor="middle" x="2642" y="-616.26" font-family="Helvetica,sans-Serif" font-size="10.00">FieldSpace</text>
</a>
</g>
</g>
<!-- Node10&#45;&gt;Node4 -->
<g id="edge9" class="edge">
<title>Node10&#45;&gt;Node4</title>
<path fill="none" stroke="#9a32cd" stroke-dasharray="5,2" d="M2687.04,-622.36C2700.73,-625.08 2715.29,-629.76 2727,-637.76 2857.61,-726.97 2906.73,-932.86 2918.2,-990.51"/>
<polygon fill="#9a32cd" stroke="#9a32cd" points="2687.24,-618.84 2676.8,-620.64 2686.08,-625.75 2687.24,-618.84"/>
<text text-anchor="middle" x="2782" y="-736.76" font-family="Helvetica,sans-Serif" font-size="10.00"> sPace</text>
</g>
<!-- Node11 -->
<g id="node11" class="node">
<title>Node11</title>
<g id="a_node11"><a xlink:title=" ">
<polygon fill="white" stroke="#bfbfbf" points="1122.5,-2062.26 1122.5,-2081.26 1160.5,-2081.26 1160.5,-2062.26 1122.5,-2062.26"/>
<text text-anchor="middle" x="1141.5" y="-2069.26" font-family="Helvetica,sans-Serif" font-size="10.00">char</text>
</a>
</g>
</g>
<!-- Node11&#45;&gt;Node4 -->
<g id="edge10" class="edge">
<title>Node11&#45;&gt;Node4</title>
<path fill="none" stroke="#9a32cd" stroke-dasharray="5,2" d="M1170.82,-2072.29C1230.98,-2073.38 1375.94,-2075.76 1497.5,-2075.76 1497.5,-2075.76 1497.5,-2075.76 2643,-2075.76 2871.4,-2075.76 2915.4,-1150.94 2920.46,-1020.88"/>
<polygon fill="#9a32cd" stroke="#9a32cd" points="1170.66,-2068.79 1160.6,-2072.11 1170.54,-2075.79 1170.66,-2068.79"/>
<text text-anchor="middle" x="2063" y="-2078.76" font-family="Helvetica,sans-Serif" font-size="10.00"> opType</text>
</g>
<!-- Node39 -->
<g id="node39" class="node">
<title>Node39</title>
<g id="a_node39"><a xlink:href="structMoFEM_1_1Problem.html" target="_top" xlink:title="keeps basic data about problem">
<polygon fill="white" stroke="black" points="1449,-1806.26 1449,-1825.26 1548,-1825.26 1548,-1806.26 1449,-1806.26"/>
<text text-anchor="middle" x="1498.5" y="-1813.26" font-family="Helvetica,sans-Serif" font-size="10.00">MoFEM::Problem</text>
</a>
</g>
</g>
<!-- Node11&#45;&gt;Node39 -->
<g id="edge54" class="edge">
<title>Node11&#45;&gt;Node39</title>
<path fill="none" stroke="#9a32cd" stroke-dasharray="5,2" d="M1170.41,-2066.75C1194.41,-2062.45 1229.98,-2056.13 1261,-2050.76 1321.4,-2040.3 1348.12,-2064.75 1397,-2027.76 1467.48,-1974.42 1490.69,-1859.18 1496.12,-1825.31"/>
<polygon fill="#9a32cd" stroke="#9a32cd" points="1169.79,-2063.3 1160.56,-2068.51 1171.02,-2070.19 1169.79,-2063.3"/>
<text text-anchor="middle" x="1329" y="-2053.76" font-family="Helvetica,sans-Serif" font-size="10.00"> tagName</text>
</g>
<!-- Node12 -->
<g id="node12" class="node">
<title>Node12</title>
<g id="a_node12"><a xlink:href="structMoFEM_1_1ForcesAndSourcesCore.html" target="_top" xlink:title="structure to get information form mofem into EntitiesFieldData">
<polygon fill="white" stroke="black" points="2557,-996.26 2557,-1015.26 2727,-1015.26 2727,-996.26 2557,-996.26"/>
<text text-anchor="middle" x="2642" y="-1003.26" font-family="Helvetica,sans-Serif" font-size="10.00">MoFEM::ForcesAndSourcesCore</text>
</a>
</g>
</g>
<!-- Node12&#45;&gt;Node4 -->
<g id="edge11" class="edge">
<title>Node12&#45;&gt;Node4</title>
<path fill="none" stroke="#9a32cd" stroke-dasharray="5,2" d="M2737.47,-1005.76C2769.62,-1005.76 2805.33,-1005.76 2836.64,-1005.76"/>
<polygon fill="#9a32cd" stroke="#9a32cd" points="2737.16,-1002.26 2727.16,-1005.76 2737.16,-1009.26 2737.16,-1002.26"/>
<text text-anchor="middle" x="2782" y="-1008.76" font-family="Helvetica,sans-Serif" font-size="10.00"> ptrFE</text>
</g>
<!-- Node12&#45;&gt;Node12 -->
<g id="edge69" class="edge">
<title>Node12&#45;&gt;Node12</title>
<path fill="none" stroke="#9a32cd" stroke-dasharray="5,2" d="M2615.96,-1024.79C2617.38,-1029.89 2626.06,-1033.76 2642,-1033.76 2666.88,-1033.76 2674.08,-1024.32 2663.58,-1015.52"/>
<polygon fill="#9a32cd" stroke="#9a32cd" points="2619.24,-1026.04 2620.42,-1015.52 2612.93,-1023.01 2619.24,-1026.04"/>
<text text-anchor="middle" x="2642" y="-1047.76" font-family="Helvetica,sans-Serif" font-size="10.00"> sidePtrFE</text>
<text text-anchor="middle" x="2642" y="-1036.76" font-family="Helvetica,sans-Serif" font-size="10.00">refinePtrFE</text>
</g>
<!-- Node13 -->
<g id="node13" class="node">
<title>Node13</title>
<g id="a_node13"><a xlink:href="structMoFEM_1_1FEMethod.html" target="_top" xlink:title="structure for User Loop Methods on finite elements">
<polygon fill="white" stroke="black" points="2202.5,-1259.26 2202.5,-1278.26 2309.5,-1278.26 2309.5,-1259.26 2202.5,-1259.26"/>
<text text-anchor="middle" x="2256" y="-1266.26" font-family="Helvetica,sans-Serif" font-size="10.00">MoFEM::FEMethod</text>
</a>
</g>
</g>
<!-- Node13&#45;&gt;Node12 -->
<g id="edge12" class="edge">
<title>Node13&#45;&gt;Node12</title>
<path fill="none" stroke="midnightblue" d="M2303.41,-1280.45C2363.62,-1292.73 2469.21,-1304.14 2539,-1254.76 2623.09,-1195.26 2637.99,-1053.53 2640.51,-1015.36"/>
<polygon fill="midnightblue" stroke="midnightblue" points="2303.94,-1276.98 2293.43,-1278.32 2302.48,-1283.83 2303.94,-1276.98"/>
</g>
<!-- Node14 -->
<g id="node14" class="node">
<title>Node14</title>
<g id="a_node14"><a xlink:href="structMoFEM_1_1BasicMethod.html" target="_top" xlink:title="Data structure to exchange data between mofem and User Loop Methods.">
<polygon fill="white" stroke="black" points="1825,-1301.26 1825,-1320.26 1947,-1320.26 1947,-1301.26 1825,-1301.26"/>
<text text-anchor="middle" x="1886" y="-1308.26" font-family="Helvetica,sans-Serif" font-size="10.00">MoFEM::BasicMethod</text>
</a>
</g>
</g>
<!-- Node14&#45;&gt;Node13 -->
<g id="edge13" class="edge">
<title>Node14&#45;&gt;Node13</title>
<path fill="none" stroke="midnightblue" d="M1957.14,-1302.91C2006.81,-1297.33 2074.99,-1289.65 2135,-1282.76 2157.09,-1280.22 2181.46,-1277.39 2202.43,-1274.93"/>
<polygon fill="midnightblue" stroke="midnightblue" points="1956.69,-1299.44 1947.14,-1304.03 1957.47,-1306.39 1956.69,-1299.44"/>
</g>
<!-- Node15 -->
<g id="node15" class="node">
<title>Node15</title>
<g id="a_node15"><a xlink:href="structMoFEM_1_1KspMethod.html" target="_top" xlink:title="data structure for ksp (linear solver) context">
<polygon fill="white" stroke="black" points="1442,-1246.26 1442,-1265.26 1555,-1265.26 1555,-1246.26 1442,-1246.26"/>
<text text-anchor="middle" x="1498.5" y="-1253.26" font-family="Helvetica,sans-Serif" font-size="10.00">MoFEM::KspMethod</text>
</a>
</g>
</g>
<!-- Node15&#45;&gt;Node14 -->
<g id="edge14" class="edge">
<title>Node15&#45;&gt;Node14</title>
<path fill="none" stroke="midnightblue" d="M1565.12,-1265.12C1637.93,-1275.51 1754.43,-1292.13 1824.93,-1302.19"/>
<polygon fill="midnightblue" stroke="midnightblue" points="1565.54,-1261.64 1555.14,-1263.7 1564.55,-1268.57 1565.54,-1261.64"/>
</g>
<!-- Node16 -->
<g id="node16" class="node">
<title>Node16</title>
<g id="a_node16"><a xlink:href="structMoFEM_1_1PetscData.html" target="_top" xlink:title=" ">
<polygon fill="white" stroke="black" points="1087.5,-1066.26 1087.5,-1085.26 1195.5,-1085.26 1195.5,-1066.26 1087.5,-1066.26"/>
<text text-anchor="middle" x="1141.5" y="-1073.26" font-family="Helvetica,sans-Serif" font-size="10.00">MoFEM::PetscData</text>
</a>
</g>
</g>
<!-- Node16&#45;&gt;Node15 -->
<g id="edge15" class="edge">
<title>Node16&#45;&gt;Node15</title>
<path fill="none" stroke="midnightblue" d="M1197.85,-1087.72C1212.62,-1091.25 1228.49,-1095.36 1243,-1099.76 1312.84,-1120.94 1348.94,-1101.83 1397,-1156.76 1421,-1184.19 1389.29,-1210.92 1415,-1236.76 1422.26,-1244.05 1431.71,-1248.78 1441.62,-1251.79"/>
<polygon fill="midnightblue" stroke="midnightblue" points="1198.37,-1084.24 1187.84,-1085.37 1196.77,-1091.06 1198.37,-1084.24"/>
</g>
<!-- Node26 -->
<g id="node26" class="node">
<title>Node26</title>
<g id="a_node26"><a xlink:href="structMoFEM_1_1SnesMethod.html" target="_top" xlink:title="data structure for snes (nonlinear solver) context">
<polygon fill="white" stroke="black" points="1439,-1053.26 1439,-1072.26 1558,-1072.26 1558,-1053.26 1439,-1053.26"/>
<text text-anchor="middle" x="1498.5" y="-1060.26" font-family="Helvetica,sans-Serif" font-size="10.00">MoFEM::SnesMethod</text>
</a>
</g>
</g>
<!-- Node16&#45;&gt;Node26 -->
<g id="edge28" class="edge">
<title>Node16&#45;&gt;Node26</title>
<path fill="none" stroke="darkgreen" d="M1205.93,-1073.44C1272.03,-1071.01 1374.74,-1067.25 1438.96,-1064.9"/>
<polygon fill="darkgreen" stroke="darkgreen" points="1205.51,-1069.95 1195.65,-1073.81 1205.77,-1076.94 1205.51,-1069.95"/>
</g>
<!-- Node29 -->
<g id="node29" class="node">
<title>Node29</title>
<g id="a_node29"><a xlink:href="structMoFEM_1_1TSMethod.html" target="_top" xlink:title="data structure for TS (time stepping) context">
<polygon fill="white" stroke="black" points="1445,-1317.26 1445,-1336.26 1552,-1336.26 1552,-1317.26 1445,-1317.26"/>
<text text-anchor="middle" x="1498.5" y="-1324.26" font-family="Helvetica,sans-Serif" font-size="10.00">MoFEM::TSMethod</text>
</a>
</g>
</g>
<!-- Node16&#45;&gt;Node29 -->
<g id="edge34" class="edge">
<title>Node16&#45;&gt;Node29</title>
<path fill="none" stroke="darkgreen" d="M1205.63,-1079.7C1219.49,-1083.37 1233,-1089.55 1243,-1099.76 1269.41,-1126.73 1234.17,-1156.21 1261,-1182.76 1304.87,-1226.17 1351.84,-1168.7 1397,-1210.76 1418.62,-1230.9 1397.32,-1251.08 1415,-1274.76 1429.79,-1294.57 1454.54,-1308.69 1473.08,-1317.18"/>
<polygon fill="darkgreen" stroke="darkgreen" points="1206.04,-1076.2 1195.51,-1077.45 1204.52,-1083.04 1206.04,-1076.2"/>
</g>
<!-- Node17 -->
<g id="node17" class="node">
<title>Node17</title>
<g id="a_node17"><a xlink:href="structMoFEM_1_1UnknownInterface.html" target="_top" xlink:title="base class for all interface classes">
<polygon fill="white" stroke="black" points="735,-933.26 735,-952.26 883,-952.26 883,-933.26 735,-933.26"/>
<text text-anchor="middle" x="809" y="-940.26" font-family="Helvetica,sans-Serif" font-size="10.00">MoFEM::UnknownInterface</text>
</a>
</g>
</g>
<!-- Node17&#45;&gt;Node16 -->
<g id="edge16" class="edge">
<title>Node17&#45;&gt;Node16</title>
<path fill="none" stroke="midnightblue" d="M893.13,-948.44C936.31,-955.42 987.18,-970.5 1022,-1002.76 1039.02,-1018.53 1022.66,-1036.35 1040,-1051.76 1053.01,-1063.32 1070.58,-1069.56 1087.4,-1072.86"/>
<polygon fill="midnightblue" stroke="midnightblue" points="893.6,-944.97 883.19,-946.95 892.56,-951.89 893.6,-944.97"/>
</g>
<!-- Node57 -->
<g id="node57" class="node">
<title>Node57</title>
<g id="a_node57"><a xlink:href="structMoFEM_1_1CoreInterface.html" target="_top" xlink:title="Interface.">
<polygon fill="white" stroke="black" points="1079,-778.26 1079,-797.26 1204,-797.26 1204,-778.26 1079,-778.26"/>
<text text-anchor="middle" x="1141.5" y="-785.26" font-family="Helvetica,sans-Serif" font-size="10.00">MoFEM::CoreInterface</text>
</a>
</g>
</g>
<!-- Node17&#45;&gt;Node57 -->
<g id="edge68" class="edge">
<title>Node17&#45;&gt;Node57</title>
<path fill="none" stroke="midnightblue" d="M824.65,-925.43C841.42,-906.54 870.52,-876.51 901,-857.76 955.98,-823.94 1028.09,-805.77 1078.77,-796.5"/>
<polygon fill="midnightblue" stroke="midnightblue" points="821.98,-923.17 818.05,-933.01 827.26,-927.77 821.98,-923.17"/>
</g>
<!-- Node18 -->
<g id="node18" class="node">
<title>Node18</title>
<g id="a_node18"><a xlink:title=" ">
<polygon fill="white" stroke="#bfbfbf" points="386,-1304.26 386,-1367.26 627,-1367.26 627,-1304.26 386,-1304.26"/>
<text text-anchor="start" x="394" y="-1355.26" font-family="Helvetica,sans-Serif" font-size="10.00">multi_index_container</text>
<text text-anchor="start" x="394" y="-1344.26" font-family="Helvetica,sans-Serif" font-size="10.00">&lt; UIdTypeMap, indexed</text>
<text text-anchor="start" x="394" y="-1333.26" font-family="Helvetica,sans-Serif" font-size="10.00">_by&lt; hashed_unique&lt; member</text>
<text text-anchor="start" x="394" y="-1322.26" font-family="Helvetica,sans-Serif" font-size="10.00">&lt; UIdTypeMap, boost::typeindex</text>
<text text-anchor="middle" x="506.5" y="-1311.26" font-family="Helvetica,sans-Serif" font-size="10.00">::type_index, &amp;UIdTypeMap::classIdx &gt; &gt; &gt; &gt;</text>
</a>
</g>
</g>
<!-- Node18&#45;&gt;Node17 -->
<g id="edge17" class="edge">
<title>Node18&#45;&gt;Node17</title>
<path fill="none" stroke="#9a32cd" stroke-dasharray="5,2" d="M522.18,-1294.42C551.11,-1218.73 622.63,-1057.43 735,-967.76 743.48,-960.99 753.9,-956 764.19,-952.35"/>
<polygon fill="#9a32cd" stroke="#9a32cd" points="518.79,-1293.49 518.54,-1304.09 525.34,-1295.96 518.79,-1293.49"/>
<text text-anchor="middle" x="681" y="-1063.76" font-family="Helvetica,sans-Serif" font-size="10.00"> iFaceTypeMap</text>
</g>
<!-- Node19 -->
<g id="node19" class="node">
<title>Node19</title>
<g id="a_node19"><a xlink:title=" ">
<polygon fill="white" stroke="#bfbfbf" points="0,-1487.26 0,-1506.26 125,-1506.26 125,-1487.26 0,-1487.26"/>
<text text-anchor="middle" x="62.5" y="-1494.26" font-family="Helvetica,sans-Serif" font-size="10.00">multi_index_container</text>
</a>
</g>
</g>
<!-- Node19&#45;&gt;Node14 -->
<g id="edge41" class="edge">
<title>Node19&#45;&gt;Node14</title>
<path fill="none" stroke="#9a32cd" stroke-dasharray="5,2" d="M114.58,-1508.29C123.99,-1510.06 133.76,-1511.66 143,-1512.76 303.1,-1531.84 344.27,-1526.76 505.5,-1526.76 505.5,-1526.76 505.5,-1526.76 962.5,-1526.76 1087.55,-1526.76 1119.74,-1525.82 1243,-1504.76 1397.68,-1478.33 1784.46,-1334.85 1799,-1330.76 1812.43,-1326.98 1827.18,-1323.37 1840.61,-1320.27"/>
<polygon fill="#9a32cd" stroke="#9a32cd" points="115.05,-1504.82 104.56,-1506.32 113.7,-1511.68 115.05,-1504.82"/>
<text text-anchor="middle" x="961.5" y="-1606.76" font-family="Helvetica,sans-Serif" font-size="10.00"> adjacenciesPtr</text>
<text text-anchor="middle" x="961.5" y="-1595.76" font-family="Helvetica,sans-Serif" font-size="10.00">refinedEntitiesPtr</text>
<text text-anchor="middle" x="961.5" y="-1584.76" font-family="Helvetica,sans-Serif" font-size="10.00">finiteElementsEntitiesPtr</text>
<text text-anchor="middle" x="961.5" y="-1573.76" font-family="Helvetica,sans-Serif" font-size="10.00">dofsPtr</text>
<text text-anchor="middle" x="961.5" y="-1562.76" font-family="Helvetica,sans-Serif" font-size="10.00">entitiesPtr</text>
<text text-anchor="middle" x="961.5" y="-1551.76" font-family="Helvetica,sans-Serif" font-size="10.00">finiteElementsPtr</text>
<text text-anchor="middle" x="961.5" y="-1540.76" font-family="Helvetica,sans-Serif" font-size="10.00">refinedFiniteElementsPtr</text>
<text text-anchor="middle" x="961.5" y="-1529.76" font-family="Helvetica,sans-Serif" font-size="10.00">fieldsPtr</text>
</g>
<!-- Node19&#45;&gt;Node18 -->
<g id="edge18" class="edge">
<title>Node19&#45;&gt;Node18</title>
<path fill="none" stroke="orange" stroke-dasharray="5,2" d="M99.38,-1483.69C168.38,-1458.56 321.32,-1402.84 418.58,-1367.42"/>
<polygon fill="orange" stroke="orange" points="98.02,-1480.46 89.83,-1487.17 100.42,-1487.03 98.02,-1480.46"/>
<text text-anchor="start" x="143" y="-1501.76" font-family="Helvetica,sans-Serif" font-size="10.00"> &lt; UIdTypeMap, indexed</text>
<text text-anchor="start" x="143" y="-1490.76" font-family="Helvetica,sans-Serif" font-size="10.00">_by&lt; hashed_unique&lt; member</text>
<text text-anchor="start" x="143" y="-1479.76" font-family="Helvetica,sans-Serif" font-size="10.00">&lt; UIdTypeMap, boost::typeindex</text>
<text text-anchor="middle" x="255.5" y="-1468.76" font-family="Helvetica,sans-Serif" font-size="10.00">::type_index, &amp;UIdTypeMap::classIdx &gt; &gt; &gt; &gt;</text>
</g>
<!-- Node20 -->
<g id="node20" class="node">
<title>Node20</title>
<g id="a_node20"><a xlink:title=" ">
<polygon fill="white" stroke="#bfbfbf" points="738.5,-1097.26 738.5,-1116.26 879.5,-1116.26 879.5,-1097.26 738.5,-1097.26"/>
<text text-anchor="middle" x="809" y="-1104.26" font-family="Helvetica,sans-Serif" font-size="10.00">static constexpr Switches</text>
</a>
</g>
</g>
<!-- Node20&#45;&gt;Node16 -->
<g id="edge19" class="edge">
<title>Node20&#45;&gt;Node16</title>
<path fill="none" stroke="#9a32cd" stroke-dasharray="5,2" d="M889.72,-1099.28C951.05,-1093.53 1034.07,-1085.74 1087.47,-1080.73"/>
<polygon fill="#9a32cd" stroke="#9a32cd" points="889.32,-1095.8 879.69,-1100.22 889.97,-1102.77 889.32,-1095.8"/>
<text text-anchor="middle" x="961.5" y="-1176.76" font-family="Helvetica,sans-Serif" font-size="10.00"> CtxSetX_TT</text>
<text text-anchor="middle" x="961.5" y="-1165.76" font-family="Helvetica,sans-Serif" font-size="10.00">CtxSetX_T</text>
<text text-anchor="middle" x="961.5" y="-1154.76" font-family="Helvetica,sans-Serif" font-size="10.00">CtxSetA</text>
<text text-anchor="middle" x="961.5" y="-1143.76" font-family="Helvetica,sans-Serif" font-size="10.00">CtxSetB</text>
<text text-anchor="middle" x="961.5" y="-1132.76" font-family="Helvetica,sans-Serif" font-size="10.00">CtxSetTime</text>
<text text-anchor="middle" x="961.5" y="-1121.76" font-family="Helvetica,sans-Serif" font-size="10.00">CtxSetNone</text>
<text text-anchor="middle" x="961.5" y="-1110.76" font-family="Helvetica,sans-Serif" font-size="10.00">CtxSetF</text>
<text text-anchor="middle" x="961.5" y="-1099.76" font-family="Helvetica,sans-Serif" font-size="10.00">CtxSetX</text>
</g>
<!-- Node21 -->
<g id="node21" class="node">
<title>Node21</title>
<g id="a_node21"><a xlink:title=" ">
<polygon fill="white" stroke="#bfbfbf" points="791.5,-977.26 791.5,-996.26 826.5,-996.26 826.5,-977.26 791.5,-977.26"/>
<text text-anchor="middle" x="809" y="-984.26" font-family="Helvetica,sans-Serif" font-size="10.00">Mat</text>
</a>
</g>
</g>
<!-- Node21&#45;&gt;Node15 -->
<g id="edge25" class="edge">
<title>Node21&#45;&gt;Node15</title>
<path fill="none" stroke="#9a32cd" stroke-dasharray="5,2" d="M836.83,-980.43C906.29,-965.29 1096.79,-931.85 1243,-981.76 1324.86,-1009.7 1353.85,-1025.79 1397,-1100.76 1427.41,-1153.6 1373.98,-1191.65 1415,-1236.76 1422.12,-1244.59 1431.76,-1249.52 1441.94,-1252.55"/>
<polygon fill="#9a32cd" stroke="#9a32cd" points="835.74,-977.08 826.74,-982.68 837.27,-983.91 835.74,-977.08"/>
<text text-anchor="middle" x="1141.5" y="-995.76" font-family="Helvetica,sans-Serif" font-size="10.00"> ksp_A</text>
<text text-anchor="middle" x="1141.5" y="-984.76" font-family="Helvetica,sans-Serif" font-size="10.00">ksp_B</text>
</g>
<!-- Node21&#45;&gt;Node16 -->
<g id="edge20" class="edge">
<title>Node21&#45;&gt;Node16</title>
<path fill="none" stroke="#9a32cd" stroke-dasharray="5,2" d="M836.51,-991.93C877.18,-1000.27 957.1,-1018.26 1022,-1042.76 1030.37,-1045.92 1031.6,-1048.7 1040,-1051.76 1056.18,-1057.65 1074.36,-1062.49 1090.76,-1066.25"/>
<polygon fill="#9a32cd" stroke="#9a32cd" points="837.08,-988.47 826.58,-989.93 835.69,-995.33 837.08,-988.47"/>
<text text-anchor="middle" x="961.5" y="-1056.76" font-family="Helvetica,sans-Serif" font-size="10.00"> A</text>
<text text-anchor="middle" x="961.5" y="-1045.76" font-family="Helvetica,sans-Serif" font-size="10.00">B</text>
</g>
<!-- Node21&#45;&gt;Node26 -->
<g id="edge30" class="edge">
<title>Node21&#45;&gt;Node26</title>
<path fill="none" stroke="#9a32cd" stroke-dasharray="5,2" d="M836.32,-978.77C850.37,-974.26 867.83,-968.23 883,-961.76 955.22,-930.96 963.7,-899.28 1040,-880.76 1127.68,-859.47 1152.91,-875.8 1243,-880.76 1311.76,-884.54 1348,-849.38 1397,-897.76 1443.52,-943.69 1371.23,-995.19 1415,-1043.76 1421.4,-1050.85 1429.86,-1055.57 1438.94,-1058.66"/>
<polygon fill="#9a32cd" stroke="#9a32cd" points="835.27,-975.43 826.79,-981.78 837.38,-982.11 835.27,-975.43"/>
<text text-anchor="middle" x="1141.5" y="-894.76" font-family="Helvetica,sans-Serif" font-size="10.00"> snes_A</text>
<text text-anchor="middle" x="1141.5" y="-883.76" font-family="Helvetica,sans-Serif" font-size="10.00">snes_B</text>
</g>
<!-- Node21&#45;&gt;Node29 -->
<g id="edge35" class="edge">
<title>Node21&#45;&gt;Node29</title>
<path fill="none" stroke="#9a32cd" stroke-dasharray="5,2" d="M837,-988.51C926.18,-994.47 1207.64,-1014.68 1243,-1034.76 1254.29,-1041.17 1251.66,-1048.74 1261,-1057.76 1314.78,-1109.7 1358.15,-1092.88 1397,-1156.76 1424.57,-1202.08 1385.93,-1230.38 1415,-1274.76 1428.27,-1295.01 1452.45,-1308.86 1471.22,-1317.15"/>
<polygon fill="#9a32cd" stroke="#9a32cd" points="837.09,-985.01 826.88,-987.84 836.63,-991.99 837.09,-985.01"/>
<text text-anchor="middle" x="1141.5" y="-1048.76" font-family="Helvetica,sans-Serif" font-size="10.00"> ts_A</text>
<text text-anchor="middle" x="1141.5" y="-1037.76" font-family="Helvetica,sans-Serif" font-size="10.00">ts_B</text>
</g>
<!-- Node22 -->
<g id="node22" class="node">
<title>Node22</title>
<g id="a_node22"><a xlink:title=" ">
<polygon fill="white" stroke="#bfbfbf" points="772.5,-1059.26 772.5,-1078.26 845.5,-1078.26 845.5,-1059.26 772.5,-1059.26"/>
<text text-anchor="middle" x="809" y="-1066.26" font-family="Helvetica,sans-Serif" font-size="10.00">bitset&lt; 8 &gt;</text>
</a>
</g>
</g>
<!-- Node22&#45;&gt;Node16 -->
<g id="edge21" class="edge">
<title>Node22&#45;&gt;Node16</title>
<path fill="none" stroke="#9a32cd" stroke-dasharray="5,2" d="M855.77,-1069.15C898.71,-1069.57 964.72,-1070.39 1022,-1071.76 1043.4,-1072.27 1066.97,-1073.03 1087.42,-1073.74"/>
<polygon fill="#9a32cd" stroke="#9a32cd" points="855.67,-1065.65 845.64,-1069.05 855.6,-1072.65 855.67,-1065.65"/>
<text text-anchor="middle" x="961.5" y="-1074.76" font-family="Helvetica,sans-Serif" font-size="10.00"> data_ctx</text>
</g>
<!-- Node23 -->
<g id="node23" class="node">
<title>Node23</title>
<g id="a_node23"><a xlink:title=" ">
<polygon fill="white" stroke="#bfbfbf" points="792,-1278.26 792,-1297.26 826,-1297.26 826,-1278.26 792,-1278.26"/>
<text text-anchor="middle" x="809" y="-1285.26" font-family="Helvetica,sans-Serif" font-size="10.00">Vec</text>
</a>
</g>
</g>
<!-- Node23&#45;&gt;Node15 -->
<g id="edge26" class="edge">
<title>Node23&#45;&gt;Node15</title>
<path fill="none" stroke="#9a32cd" stroke-dasharray="5,2" d="M836.01,-1294.09C877.55,-1302.82 960.46,-1314.42 1022,-1285.76 1033.14,-1280.57 1028.88,-1270 1040,-1264.76 1109.6,-1231.91 1335.9,-1243.63 1441.85,-1251.27"/>
<polygon fill="#9a32cd" stroke="#9a32cd" points="836.66,-1290.65 826.14,-1291.91 835.15,-1297.49 836.66,-1290.65"/>
<text text-anchor="middle" x="1141.5" y="-1267.76" font-family="Helvetica,sans-Serif" font-size="10.00"> ksp_f</text>
</g>
<!-- Node23&#45;&gt;Node16 -->
<g id="edge22" class="edge">
<title>Node23&#45;&gt;Node16</title>
<path fill="none" stroke="#9a32cd" stroke-dasharray="5,2" d="M827.19,-1270.54C844.41,-1254.28 872.4,-1230.4 901,-1216.76 950.82,-1193 983.52,-1228.33 1022,-1188.76 1050.14,-1159.83 1011.97,-1128.79 1040,-1099.76 1052.34,-1086.98 1070.16,-1080.5 1087.39,-1077.35"/>
<polygon fill="#9a32cd" stroke="#9a32cd" points="824.4,-1268.37 819.65,-1277.83 829.27,-1273.4 824.4,-1268.37"/>
<text text-anchor="middle" x="961.5" y="-1252.76" font-family="Helvetica,sans-Serif" font-size="10.00"> f</text>
<text text-anchor="middle" x="961.5" y="-1241.76" font-family="Helvetica,sans-Serif" font-size="10.00">x</text>
<text text-anchor="middle" x="961.5" y="-1230.76" font-family="Helvetica,sans-Serif" font-size="10.00">x_t</text>
<text text-anchor="middle" x="961.5" y="-1219.76" font-family="Helvetica,sans-Serif" font-size="10.00">x_tt</text>
</g>
<!-- Node23&#45;&gt;Node26 -->
<g id="edge31" class="edge">
<title>Node23&#45;&gt;Node26</title>
<path fill="none" stroke="#9a32cd" stroke-dasharray="5,2" d="M836.22,-1288.22C887.06,-1288.54 996.32,-1286.16 1022,-1260.76 1063.47,-1219.74 998.67,-1171.92 1040,-1130.76 1068.36,-1102.51 1357.52,-1089.33 1397,-1082.76 1415.25,-1079.72 1435.26,-1075.85 1452.58,-1072.32"/>
<polygon fill="#9a32cd" stroke="#9a32cd" points="836.06,-1284.72 826.03,-1288.12 835.99,-1291.72 836.06,-1284.72"/>
<text text-anchor="middle" x="1141.5" y="-1144.76" font-family="Helvetica,sans-Serif" font-size="10.00"> snes_x</text>
<text text-anchor="middle" x="1141.5" y="-1133.76" font-family="Helvetica,sans-Serif" font-size="10.00">snes_f</text>
</g>
<!-- Node23&#45;&gt;Node29 -->
<g id="edge39" class="edge">
<title>Node23&#45;&gt;Node29</title>
<path fill="none" stroke="#9a32cd" stroke-dasharray="5,2" d="M829.55,-1304.31C867.31,-1335.15 954.14,-1400.72 1040,-1427.76 1115.73,-1451.6 1324.71,-1474.59 1397,-1441.76 1446.25,-1419.39 1480.83,-1359.65 1492.84,-1336.3"/>
<polygon fill="#9a32cd" stroke="#9a32cd" points="831.38,-1301.28 821.44,-1297.6 826.92,-1306.67 831.38,-1301.28"/>
<text text-anchor="middle" x="1141.5" y="-1492.76" font-family="Helvetica,sans-Serif" font-size="10.00"> ts_u</text>
<text text-anchor="middle" x="1141.5" y="-1481.76" font-family="Helvetica,sans-Serif" font-size="10.00">ts_F</text>
<text text-anchor="middle" x="1141.5" y="-1470.76" font-family="Helvetica,sans-Serif" font-size="10.00">ts_u_t</text>
<text text-anchor="middle" x="1141.5" y="-1459.76" font-family="Helvetica,sans-Serif" font-size="10.00">ts_u_tt</text>
</g>
<!-- Node24 -->
<g id="node24" class="node">
<title>Node24</title>
<g id="a_node24"><a xlink:title=" ">
<polygon fill="white" stroke="#bfbfbf" points="1124,-1162.26 1124,-1181.26 1159,-1181.26 1159,-1162.26 1124,-1162.26"/>
<text text-anchor="middle" x="1141.5" y="-1169.26" font-family="Helvetica,sans-Serif" font-size="10.00">KSP</text>
</a>
</g>
</g>
<!-- Node24&#45;&gt;Node15 -->
<g id="edge23" class="edge">
<title>Node24&#45;&gt;Node15</title>
<path fill="none" stroke="#9a32cd" stroke-dasharray="5,2" d="M1169.28,-1166.71C1219.15,-1158.88 1327.45,-1149.42 1397,-1198.76 1412.24,-1209.57 1400.44,-1225.05 1415,-1236.76 1422.79,-1243.02 1432.26,-1247.3 1441.97,-1250.2"/>
<polygon fill="#9a32cd" stroke="#9a32cd" points="1168.57,-1163.28 1159.29,-1168.38 1169.73,-1170.18 1168.57,-1163.28"/>
<text text-anchor="middle" x="1329" y="-1201.76" font-family="Helvetica,sans-Serif" font-size="10.00"> ksp</text>
</g>
<!-- Node25 -->
<g id="node25" class="node">
<title>Node25</title>
<g id="a_node25"><a xlink:title=" ">
<polygon fill="white" stroke="#bfbfbf" points="1104.5,-1200.26 1104.5,-1219.26 1178.5,-1219.26 1178.5,-1200.26 1104.5,-1200.26"/>
<text text-anchor="middle" x="1141.5" y="-1207.26" font-family="Helvetica,sans-Serif" font-size="10.00">KSPContext</text>
</a>
</g>
</g>
<!-- Node25&#45;&gt;Node15 -->
<g id="edge24" class="edge">
<title>Node25&#45;&gt;Node15</title>
<path fill="none" stroke="#9a32cd" stroke-dasharray="5,2" d="M1188.83,-1210.26C1240.2,-1211.59 1325.28,-1216.07 1397,-1230.76 1405.26,-1232.45 1406.88,-1234.48 1415,-1236.76 1427.03,-1240.14 1440.16,-1243.37 1452.34,-1246.18"/>
<polygon fill="#9a32cd" stroke="#9a32cd" points="1188.79,-1206.76 1178.71,-1210.03 1188.63,-1213.76 1188.79,-1206.76"/>
<text text-anchor="middle" x="1329" y="-1233.76" font-family="Helvetica,sans-Serif" font-size="10.00"> ksp_ctx</text>
</g>
<!-- Node26&#45;&gt;Node14 -->
<g id="edge27" class="edge">
<title>Node26&#45;&gt;Node14</title>
<path fill="none" stroke="midnightblue" d="M1568.35,-1062.85C1642.16,-1064.53 1752.6,-1072.11 1781,-1101.76 1810.33,-1132.39 1770.91,-1259.98 1799,-1291.76 1805.79,-1299.43 1814.91,-1304.39 1824.68,-1307.53"/>
<polygon fill="midnightblue" stroke="midnightblue" points="1568.26,-1059.35 1558.19,-1062.65 1568.12,-1066.35 1568.26,-1059.35"/>
</g>
<!-- Node27 -->
<g id="node27" class="node">
<title>Node27</title>
<g id="a_node27"><a xlink:title=" ">
<polygon fill="white" stroke="#bfbfbf" points="1120.5,-816.26 1120.5,-835.26 1162.5,-835.26 1162.5,-816.26 1120.5,-816.26"/>
<text text-anchor="middle" x="1141.5" y="-823.26" font-family="Helvetica,sans-Serif" font-size="10.00">SNES</text>
</a>
</g>
</g>
<!-- Node27&#45;&gt;Node26 -->
<g id="edge29" class="edge">
<title>Node27&#45;&gt;Node26</title>
<path fill="none" stroke="#9a32cd" stroke-dasharray="5,2" d="M1172.6,-823.65C1233.06,-820.12 1366.11,-816.14 1397,-846.76 1428.22,-877.71 1386.09,-1010.64 1415,-1043.76 1421.28,-1050.95 1429.69,-1055.72 1438.75,-1058.83"/>
<polygon fill="#9a32cd" stroke="#9a32cd" points="1172.3,-820.16 1162.53,-824.27 1172.73,-827.15 1172.3,-820.16"/>
<text text-anchor="middle" x="1329" y="-849.76" font-family="Helvetica,sans-Serif" font-size="10.00"> snes</text>
</g>
<!-- Node28 -->
<g id="node28" class="node">
<title>Node28</title>
<g id="a_node28"><a xlink:title=" ">
<polygon fill="white" stroke="#bfbfbf" points="1101.5,-912.26 1101.5,-931.26 1181.5,-931.26 1181.5,-912.26 1101.5,-912.26"/>
<text text-anchor="middle" x="1141.5" y="-919.26" font-family="Helvetica,sans-Serif" font-size="10.00">SNESContext</text>
</a>
</g>
</g>
<!-- Node28&#45;&gt;Node26 -->
<g id="edge32" class="edge">
<title>Node28&#45;&gt;Node26</title>
<path fill="none" stroke="#9a32cd" stroke-dasharray="5,2" d="M1190.1,-910.17C1246.88,-899.45 1341.13,-891.91 1397,-942.76 1430.72,-973.45 1383.57,-1010.72 1415,-1043.76 1421.48,-1050.57 1429.88,-1055.17 1438.83,-1058.23"/>
<polygon fill="#9a32cd" stroke="#9a32cd" points="1189.07,-906.81 1179.95,-912.2 1190.44,-913.68 1189.07,-906.81"/>
<text text-anchor="middle" x="1329" y="-945.76" font-family="Helvetica,sans-Serif" font-size="10.00"> snes_ctx</text>
</g>
<!-- Node29&#45;&gt;Node14 -->
<g id="edge33" class="edge">
<title>Node29&#45;&gt;Node14</title>
<path fill="none" stroke="midnightblue" d="M1562.67,-1324.14C1635.29,-1321.12 1753.64,-1316.21 1824.93,-1313.25"/>
<polygon fill="midnightblue" stroke="midnightblue" points="1562.14,-1320.66 1552.29,-1324.57 1562.43,-1327.65 1562.14,-1320.66"/>
</g>
<!-- Node30 -->
<g id="node30" class="node">
<title>Node30</title>
<g id="a_node30"><a xlink:title=" ">
<polygon fill="white" stroke="#bfbfbf" points="1109,-1399.26 1109,-1418.26 1174,-1418.26 1174,-1399.26 1109,-1399.26"/>
<text text-anchor="middle" x="1141.5" y="-1406.26" font-family="Helvetica,sans-Serif" font-size="10.00">PetscReal</text>
</a>
</g>
</g>
<!-- Node30&#45;&gt;Node29 -->
<g id="edge36" class="edge">
<title>Node30&#45;&gt;Node29</title>
<path fill="none" stroke="#9a32cd" stroke-dasharray="5,2" d="M1184.25,-1404.11C1245.84,-1397.01 1357.99,-1383.09 1397,-1371.76 1427.29,-1362.96 1460.29,-1346.81 1479.91,-1336.44"/>
<polygon fill="#9a32cd" stroke="#9a32cd" points="1183.63,-1400.66 1174.09,-1405.27 1184.42,-1407.61 1183.63,-1400.66"/>
<text text-anchor="middle" x="1329" y="-1429.76" font-family="Helvetica,sans-Serif" font-size="10.00"> ts_a</text>
<text text-anchor="middle" x="1329" y="-1418.76" font-family="Helvetica,sans-Serif" font-size="10.00">ts_t</text>
<text text-anchor="middle" x="1329" y="-1407.76" font-family="Helvetica,sans-Serif" font-size="10.00">ts_dt</text>
<text text-anchor="middle" x="1329" y="-1396.76" font-family="Helvetica,sans-Serif" font-size="10.00">ts_aa</text>
</g>
<!-- Node31 -->
<g id="node31" class="node">
<title>Node31</title>
<g id="a_node31"><a xlink:title=" ">
<polygon fill="white" stroke="#bfbfbf" points="1108,-1361.26 1108,-1380.26 1175,-1380.26 1175,-1361.26 1108,-1361.26"/>
<text text-anchor="middle" x="1141.5" y="-1368.26" font-family="Helvetica,sans-Serif" font-size="10.00">TSContext</text>
</a>
</g>
</g>
<!-- Node31&#45;&gt;Node29 -->
<g id="edge37" class="edge">
<title>Node31&#45;&gt;Node29</title>
<path fill="none" stroke="#9a32cd" stroke-dasharray="5,2" d="M1185.3,-1365.99C1235.9,-1360.29 1322.64,-1350.32 1397,-1340.76 1412.55,-1338.76 1429.44,-1336.46 1444.85,-1334.31"/>
<polygon fill="#9a32cd" stroke="#9a32cd" points="1184.61,-1362.55 1175.07,-1367.14 1185.4,-1369.5 1184.61,-1362.55"/>
<text text-anchor="middle" x="1329" y="-1359.76" font-family="Helvetica,sans-Serif" font-size="10.00"> ts_ctx</text>
</g>
<!-- Node32 -->
<g id="node32" class="node">
<title>Node32</title>
<g id="a_node32"><a xlink:title=" ">
<polygon fill="white" stroke="#bfbfbf" points="1113.5,-1323.26 1113.5,-1342.26 1169.5,-1342.26 1169.5,-1323.26 1113.5,-1323.26"/>
<text text-anchor="middle" x="1141.5" y="-1330.26" font-family="Helvetica,sans-Serif" font-size="10.00">PetscInt</text>
</a>
</g>
</g>
<!-- Node32&#45;&gt;Node29 -->
<g id="edge38" class="edge">
<title>Node32&#45;&gt;Node29</title>
<path fill="none" stroke="#9a32cd" stroke-dasharray="5,2" d="M1179.96,-1331.69C1203.27,-1331.05 1233.88,-1330.27 1261,-1329.76 1324.22,-1328.56 1396.97,-1327.72 1444.89,-1327.24"/>
<polygon fill="#9a32cd" stroke="#9a32cd" points="1179.7,-1328.19 1169.8,-1331.97 1179.89,-1335.19 1179.7,-1328.19"/>
<text text-anchor="middle" x="1329" y="-1332.76" font-family="Helvetica,sans-Serif" font-size="10.00"> ts_step</text>
</g>
<!-- Node33 -->
<g id="node33" class="node">
<title>Node33</title>
<g id="a_node33"><a xlink:title=" ">
<polygon fill="white" stroke="#bfbfbf" points="1127,-1285.26 1127,-1304.26 1156,-1304.26 1156,-1285.26 1127,-1285.26"/>
<text text-anchor="middle" x="1141.5" y="-1292.26" font-family="Helvetica,sans-Serif" font-size="10.00">TS</text>
</a>
</g>
</g>
<!-- Node33&#45;&gt;Node29 -->
<g id="edge40" class="edge">
<title>Node33&#45;&gt;Node29</title>
<path fill="none" stroke="#9a32cd" stroke-dasharray="5,2" d="M1166.26,-1295.9C1211.33,-1298.18 1312.33,-1303.88 1397,-1312.76 1412.59,-1314.39 1429.49,-1316.58 1444.9,-1318.75"/>
<polygon fill="#9a32cd" stroke="#9a32cd" points="1166.21,-1292.39 1156.05,-1295.39 1165.86,-1299.38 1166.21,-1292.39"/>
<text text-anchor="middle" x="1329" y="-1315.76" font-family="Helvetica,sans-Serif" font-size="10.00"> ts</text>
</g>
<!-- Node34 -->
<g id="node34" class="node">
<title>Node34</title>
<g id="a_node34"><a xlink:title=" ">
<polygon fill="white" stroke="#bfbfbf" points="1454,-1208.26 1454,-1227.26 1543,-1227.26 1543,-1208.26 1454,-1208.26"/>
<text text-anchor="middle" x="1498.5" y="-1215.26" font-family="Helvetica,sans-Serif" font-size="10.00">pair&lt; int, int &gt;</text>
</a>
</g>
</g>
<!-- Node34&#45;&gt;Node14 -->
<g id="edge42" class="edge">
<title>Node34&#45;&gt;Node14</title>
<path fill="none" stroke="#9a32cd" stroke-dasharray="5,2" d="M1553.35,-1210.65C1614.39,-1205.55 1714.08,-1206.55 1781,-1254.76 1795.84,-1265.45 1784.64,-1280.43 1799,-1291.76 1806.56,-1297.72 1815.61,-1301.9 1824.96,-1304.81"/>
<polygon fill="#9a32cd" stroke="#9a32cd" points="1552.79,-1207.18 1543.15,-1211.58 1553.43,-1214.15 1552.79,-1207.18"/>
<text text-anchor="middle" x="1690.5" y="-1257.76" font-family="Helvetica,sans-Serif" font-size="10.00"> loHiFERank</text>
</g>
<!-- Node35 -->
<g id="node35" class="node">
<title>Node35</title>
<g id="a_node35"><a xlink:title=" ">
<polygon fill="white" stroke="#bfbfbf" points="1428.5,-1170.26 1428.5,-1189.26 1568.5,-1189.26 1568.5,-1170.26 1428.5,-1170.26"/>
<text text-anchor="middle" x="1498.5" y="-1177.26" font-family="Helvetica,sans-Serif" font-size="10.00">weak_ptr&lt; CacheTuple &gt;</text>
</a>
</g>
</g>
<!-- Node35&#45;&gt;Node14 -->
<g id="edge43" class="edge">
<title>Node35&#45;&gt;Node14</title>
<path fill="none" stroke="#9a32cd" stroke-dasharray="5,2" d="M1578.79,-1172.83C1651.41,-1168.33 1751.89,-1167.3 1781,-1192.76 1814.66,-1222.2 1767.98,-1259.55 1799,-1291.76 1806,-1299.03 1815.11,-1303.81 1824.77,-1306.91"/>
<polygon fill="#9a32cd" stroke="#9a32cd" points="1578.49,-1169.35 1568.74,-1173.49 1578.95,-1176.33 1578.49,-1169.35"/>
<text text-anchor="middle" x="1690.5" y="-1195.76" font-family="Helvetica,sans-Serif" font-size="10.00"> cacheWeakPtr</text>
</g>
<!-- Node36 -->
<g id="node36" class="node">
<title>Node36</title>
<g id="a_node36"><a xlink:title=" ">
<polygon fill="white" stroke="#bfbfbf" points="1442.5,-1127.26 1442.5,-1146.26 1554.5,-1146.26 1554.5,-1127.26 1442.5,-1127.26"/>
<text text-anchor="middle" x="1498.5" y="-1134.26" font-family="Helvetica,sans-Serif" font-size="10.00">unique_ptr&lt; bool &gt;</text>
</a>
</g>
</g>
<!-- Node36&#45;&gt;Node14 -->
<g id="edge44" class="edge">
<title>Node36&#45;&gt;Node14</title>
<path fill="none" stroke="#9a32cd" stroke-dasharray="5,2" d="M1536.27,-1124.26C1595.9,-1106.57 1713.78,-1082.71 1781,-1143.76 1830.05,-1188.31 1754.46,-1242.7 1799,-1291.76 1805.89,-1299.34 1815.06,-1304.26 1824.85,-1307.38"/>
<polygon fill="#9a32cd" stroke="#9a32cd" points="1535.06,-1120.97 1526.53,-1127.25 1537.11,-1127.66 1535.06,-1120.97"/>
<text text-anchor="middle" x="1690.5" y="-1157.76" font-family="Helvetica,sans-Serif" font-size="10.00"> matAssembleSwitch</text>
<text text-anchor="middle" x="1690.5" y="-1146.76" font-family="Helvetica,sans-Serif" font-size="10.00">vecAssembleSwitch</text>
</g>
<!-- Node37 -->
<g id="node37" class="node">
<title>Node37</title>
<g id="a_node37"><a xlink:title=" ">
<polygon fill="white" stroke="#bfbfbf" points="1127,-1555.26 1127,-1574.26 1156,-1574.26 1156,-1555.26 1127,-1555.26"/>
<text text-anchor="middle" x="1141.5" y="-1562.26" font-family="Helvetica,sans-Serif" font-size="10.00">int</text>
</a>
</g>
</g>
<!-- Node37&#45;&gt;Node14 -->
<g id="edge45" class="edge">
<title>Node37&#45;&gt;Node14</title>
<path fill="none" stroke="#9a32cd" stroke-dasharray="5,2" d="M1166.26,-1560.99C1190.15,-1557.29 1228.07,-1551.64 1261,-1547.76 1318.62,-1540.97 1739.68,-1540.5 1781,-1499.76 1807.89,-1473.24 1773.98,-1359.05 1799,-1330.76 1805.8,-1323.07 1814.94,-1318.03 1824.72,-1314.79"/>
<polygon fill="#9a32cd" stroke="#9a32cd" points="1165.67,-1557.54 1156.34,-1562.54 1166.76,-1564.45 1165.67,-1557.54"/>
<text text-anchor="middle" x="1498.5" y="-1576.76" font-family="Helvetica,sans-Serif" font-size="10.00"> sIze</text>
<text text-anchor="middle" x="1498.5" y="-1565.76" font-family="Helvetica,sans-Serif" font-size="10.00">loopSize</text>
<text text-anchor="middle" x="1498.5" y="-1554.76" font-family="Helvetica,sans-Serif" font-size="10.00">nInTheLoop</text>
<text text-anchor="middle" x="1498.5" y="-1543.76" font-family="Helvetica,sans-Serif" font-size="10.00">rAnk</text>
</g>
<!-- Node37&#45;&gt;Node39 -->
<g id="edge57" class="edge">
<title>Node37&#45;&gt;Node39</title>
<path fill="none" stroke="#9a32cd" stroke-dasharray="5,2" d="M1166.35,-1561.69C1222.3,-1554.99 1360.01,-1541.59 1397,-1566.76 1481.98,-1624.59 1495.13,-1767.53 1497.14,-1806.06"/>
<polygon fill="#9a32cd" stroke="#9a32cd" points="1165.81,-1558.23 1156.31,-1562.92 1166.66,-1565.17 1165.81,-1558.23"/>
<text text-anchor="middle" x="1329" y="-1635.76" font-family="Helvetica,sans-Serif" font-size="10.00"> tagNameSize</text>
<text text-anchor="middle" x="1329" y="-1624.76" font-family="Helvetica,sans-Serif" font-size="10.00">nbDofsRow</text>
<text text-anchor="middle" x="1329" y="-1613.76" font-family="Helvetica,sans-Serif" font-size="10.00">nbLocDofsCol</text>
<text text-anchor="middle" x="1329" y="-1602.76" font-family="Helvetica,sans-Serif" font-size="10.00">nbDofsCol</text>
<text text-anchor="middle" x="1329" y="-1591.76" font-family="Helvetica,sans-Serif" font-size="10.00">nbGhostDofsRow</text>
<text text-anchor="middle" x="1329" y="-1580.76" font-family="Helvetica,sans-Serif" font-size="10.00">nbGhostDofsCol</text>
<text text-anchor="middle" x="1329" y="-1569.76" font-family="Helvetica,sans-Serif" font-size="10.00">nbLocDofsRow</text>
</g>
<!-- Node38 -->
<g id="node38" class="node">
<title>Node38</title>
<g id="a_node38"><a xlink:title=" ">
<polygon fill="white" stroke="#bfbfbf" points="1415,-1015.26 1415,-1034.26 1582,-1034.26 1582,-1015.26 1415,-1015.26"/>
<text text-anchor="middle" x="1498.5" y="-1022.26" font-family="Helvetica,sans-Serif" font-size="10.00">function&lt; MoFEMErrorCode()&gt;</text>
</a>
</g>
</g>
<!-- Node38&#45;&gt;Node14 -->
<g id="edge46" class="edge">
<title>Node38&#45;&gt;Node14</title>
<path fill="none" stroke="#9a32cd" stroke-dasharray="5,2" d="M1533.81,-1011.96C1592.88,-992.41 1713.88,-963.59 1781,-1026.76 1823.98,-1067.21 1760.5,-1247.02 1799,-1291.76 1805.78,-1299.64 1815.03,-1304.67 1824.95,-1307.82"/>
<polygon fill="#9a32cd" stroke="#9a32cd" points="1532.54,-1008.7 1524.21,-1015.24 1534.8,-1015.32 1532.54,-1008.7"/>
<text text-anchor="middle" x="1690.5" y="-1051.76" font-family="Helvetica,sans-Serif" font-size="10.00"> preProcessHook</text>
<text text-anchor="middle" x="1690.5" y="-1040.76" font-family="Helvetica,sans-Serif" font-size="10.00">operatorHook</text>
<text text-anchor="middle" x="1690.5" y="-1029.76" font-family="Helvetica,sans-Serif" font-size="10.00">postProcessHook</text>
</g>
<!-- Node39&#45;&gt;Node14 -->
<g id="edge47" class="edge">
<title>Node39&#45;&gt;Node14</title>
<path fill="none" stroke="#9a32cd" stroke-dasharray="5,2" d="M1524.94,-1800.64C1582.54,-1764.83 1722.48,-1668.51 1781,-1545.76 1801.63,-1502.48 1767.64,-1367.03 1799,-1330.76 1805.72,-1322.99 1814.81,-1317.92 1824.57,-1314.66"/>
<polygon fill="#9a32cd" stroke="#9a32cd" points="1522.81,-1797.84 1516.11,-1806.06 1526.47,-1803.81 1522.81,-1797.84"/>
<text text-anchor="middle" x="1690.5" y="-1747.76" font-family="Helvetica,sans-Serif" font-size="10.00"> problemPtr</text>
</g>
<!-- Node40 -->
<g id="node40" class="node">
<title>Node40</title>
<g id="a_node40"><a xlink:title=" ">
<polygon fill="white" stroke="#bfbfbf" points="1058,-1630.76 1058,-1660.76 1225,-1660.76 1225,-1630.76 1058,-1630.76"/>
<text text-anchor="start" x="1066" y="-1648.76" font-family="Helvetica,sans-Serif" font-size="10.00">shared_ptr&lt; NumeredEntFinite</text>
<text text-anchor="middle" x="1141.5" y="-1637.76" font-family="Helvetica,sans-Serif" font-size="10.00">Element_multiIndex &gt;</text>
</a>
</g>
</g>
<!-- Node40&#45;&gt;Node39 -->
<g id="edge48" class="edge">
<title>Node40&#45;&gt;Node39</title>
<path fill="none" stroke="#9a32cd" stroke-dasharray="5,2" d="M1235.14,-1647.22C1296.39,-1649.68 1370.16,-1655.98 1397,-1671.76 1451.92,-1704.06 1484.15,-1779.6 1494.14,-1806.25"/>
<polygon fill="#9a32cd" stroke="#9a32cd" points="1235.17,-1643.72 1225.04,-1646.84 1234.9,-1650.71 1235.17,-1643.72"/>
<text text-anchor="middle" x="1329" y="-1674.76" font-family="Helvetica,sans-Serif" font-size="10.00"> numeredFiniteElementsPtr</text>
</g>
<!-- Node41 -->
<g id="node41" class="node">
<title>Node41</title>
<g id="a_node41"><a xlink:title=" ">
<polygon fill="white" stroke="#bfbfbf" points="1112,-2020.26 1112,-2039.26 1171,-2039.26 1171,-2020.26 1112,-2020.26"/>
<text text-anchor="middle" x="1141.5" y="-2027.26" font-family="Helvetica,sans-Serif" font-size="10.00">BitFEId *</text>
</a>
</g>
</g>
<!-- Node41&#45;&gt;Node39 -->
<g id="edge49" class="edge">
<title>Node41&#45;&gt;Node39</title>
<path fill="none" stroke="#9a32cd" stroke-dasharray="5,2" d="M1181.49,-2025.16C1250.59,-2016.88 1388.19,-1999.77 1397,-1993.76 1459.44,-1951.16 1487.55,-1856.22 1495.23,-1825.53"/>
<polygon fill="#9a32cd" stroke="#9a32cd" points="1180.93,-2021.7 1171.41,-2026.36 1181.76,-2028.65 1180.93,-2021.7"/>
<text text-anchor="middle" x="1329" y="-2017.76" font-family="Helvetica,sans-Serif" font-size="10.00"> tagBitFEId</text>
</g>
<!-- Node42 -->
<g id="node42" class="node">
<title>Node42</title>
<g id="a_node42"><a xlink:href="classEntityHandle.html" target="_top" xlink:title=" ">
<polygon fill="white" stroke="black" points="1101.5,-1982.26 1101.5,-2001.26 1181.5,-2001.26 1181.5,-1982.26 1101.5,-1982.26"/>
<text text-anchor="middle" x="1141.5" y="-1989.26" font-family="Helvetica,sans-Serif" font-size="10.00">EntityHandle</text>
</a>
</g>
</g>
<!-- Node42&#45;&gt;Node39 -->
<g id="edge50" class="edge">
<title>Node42&#45;&gt;Node39</title>
<path fill="none" stroke="#9a32cd" stroke-dasharray="5,2" d="M1191.93,-1987.5C1260.98,-1981.23 1379.84,-1969.13 1397,-1958.76 1451.02,-1926.11 1483.6,-1852.11 1493.92,-1825.51"/>
<polygon fill="#9a32cd" stroke="#9a32cd" points="1191.35,-1984.04 1181.7,-1988.42 1191.98,-1991.01 1191.35,-1984.04"/>
<text text-anchor="middle" x="1329" y="-1982.76" font-family="Helvetica,sans-Serif" font-size="10.00"> meshset</text>
</g>
<!-- Node43 -->
<g id="node43" class="node">
<title>Node43</title>
<g id="a_node43"><a xlink:title=" ">
<polygon fill="white" stroke="#bfbfbf" points="1067,-1932.76 1067,-1962.76 1216,-1962.76 1216,-1932.76 1067,-1932.76"/>
<text text-anchor="start" x="1075" y="-1950.76" font-family="Helvetica,sans-Serif" font-size="10.00">shared_ptr&lt; MoFEM::</text>
<text text-anchor="middle" x="1141.5" y="-1939.76" font-family="Helvetica,sans-Serif" font-size="10.00">ComposedProblemsData &gt;</text>
</a>
</g>
</g>
<!-- Node43&#45;&gt;Node39 -->
<g id="edge51" class="edge">
<title>Node43&#45;&gt;Node39</title>
<path fill="none" stroke="#9a32cd" stroke-dasharray="5,2" d="M1226.53,-1945.82C1288.85,-1943.22 1367.85,-1937.1 1397,-1922.76 1442.96,-1900.14 1478.7,-1847.08 1491.94,-1825.32"/>
<polygon fill="#9a32cd" stroke="#9a32cd" points="1226.14,-1942.34 1216.29,-1946.23 1226.42,-1949.33 1226.14,-1942.34"/>
<text text-anchor="middle" x="1329" y="-1946.76" font-family="Helvetica,sans-Serif" font-size="10.00"> composedProblemsData</text>
</g>
<!-- Node44 -->
<g id="node44" class="node">
<title>Node44</title>
<g id="a_node44"><a xlink:title=" ">
<polygon fill="white" stroke="#bfbfbf" points="1101,-1894.26 1101,-1913.26 1182,-1913.26 1182,-1894.26 1101,-1894.26"/>
<text text-anchor="middle" x="1141.5" y="-1901.26" font-family="Helvetica,sans-Serif" font-size="10.00">BitRefLevel *</text>
</a>
</g>
</g>
<!-- Node44&#45;&gt;Node39 -->
<g id="edge52" class="edge">
<title>Node44&#45;&gt;Node39</title>
<path fill="none" stroke="#9a32cd" stroke-dasharray="5,2" d="M1192.33,-1903.08C1244.55,-1901.09 1328.37,-1894.25 1397,-1871.76 1430.6,-1860.75 1465.78,-1838.19 1484.29,-1825.32"/>
<polygon fill="#9a32cd" stroke="#9a32cd" points="1192.2,-1899.58 1182.32,-1903.41 1192.44,-1906.58 1192.2,-1899.58"/>
<text text-anchor="middle" x="1329" y="-1910.76" font-family="Helvetica,sans-Serif" font-size="10.00"> tagBitRefLevelMask</text>
<text text-anchor="middle" x="1329" y="-1899.76" font-family="Helvetica,sans-Serif" font-size="10.00">tagBitRefLevel</text>
</g>
<!-- Node45 -->
<g id="node45" class="node">
<title>Node45</title>
<g id="a_node45"><a xlink:title=" ">
<polygon fill="white" stroke="#bfbfbf" points="1056.5,-1844.76 1056.5,-1874.76 1226.5,-1874.76 1226.5,-1844.76 1056.5,-1844.76"/>
<text text-anchor="start" x="1064.5" y="-1862.76" font-family="Helvetica,sans-Serif" font-size="10.00">shared_ptr&lt; NumeredDofEntity</text>
<text text-anchor="middle" x="1141.5" y="-1851.76" font-family="Helvetica,sans-Serif" font-size="10.00">_multiIndex &gt;</text>
</a>
</g>
</g>
<!-- Node45&#45;&gt;Node39 -->
<g id="edge53" class="edge">
<title>Node45&#45;&gt;Node39</title>
<path fill="none" stroke="#9a32cd" stroke-dasharray="5,2" d="M1236.63,-1849.82C1284.67,-1844.55 1344,-1837.73 1397,-1830.76 1413.97,-1828.53 1432.5,-1825.83 1448.99,-1823.35"/>
<polygon fill="#9a32cd" stroke="#9a32cd" points="1236.12,-1846.36 1226.55,-1850.92 1236.88,-1853.31 1236.12,-1846.36"/>
<text text-anchor="middle" x="1329" y="-1859.76" font-family="Helvetica,sans-Serif" font-size="10.00"> numeredRowDofsPtr</text>
<text text-anchor="middle" x="1329" y="-1848.76" font-family="Helvetica,sans-Serif" font-size="10.00">numeredColDofsPtr</text>
</g>
<!-- Node46 -->
<g id="node46" class="node">
<title>Node46</title>
<g id="a_node46"><a xlink:title=" ">
<polygon fill="white" stroke="#bfbfbf" points="1072.5,-1806.26 1072.5,-1825.26 1210.5,-1825.26 1210.5,-1806.26 1072.5,-1806.26"/>
<text text-anchor="middle" x="1141.5" y="-1813.26" font-family="Helvetica,sans-Serif" font-size="10.00">vector&lt; BlockFieldPair &gt;</text>
</a>
</g>
</g>
<!-- Node46&#45;&gt;Node39 -->
<g id="edge55" class="edge">
<title>Node46&#45;&gt;Node39</title>
<path fill="none" stroke="#9a32cd" stroke-dasharray="5,2" d="M1220.57,-1815.76C1290.2,-1815.76 1389.95,-1815.76 1448.8,-1815.76"/>
<polygon fill="#9a32cd" stroke="#9a32cd" points="1220.53,-1812.26 1210.53,-1815.76 1220.53,-1819.26 1220.53,-1812.26"/>
<text text-anchor="middle" x="1329" y="-1818.76" font-family="Helvetica,sans-Serif" font-size="10.00"> emptyFieldBlocks</text>
</g>
<!-- Node47 -->
<g id="node47" class="node">
<title>Node47</title>
<g id="a_node47"><a xlink:title=" ">
<polygon fill="white" stroke="#bfbfbf" points="1063.5,-1756.76 1063.5,-1786.76 1219.5,-1786.76 1219.5,-1756.76 1063.5,-1756.76"/>
<text text-anchor="start" x="1071.5" y="-1774.76" font-family="Helvetica,sans-Serif" font-size="10.00">shared_ptr&lt; MoFEM::</text>
<text text-anchor="middle" x="1141.5" y="-1763.76" font-family="Helvetica,sans-Serif" font-size="10.00">Problem::SubProblemData &gt;</text>
</a>
</g>
</g>
<!-- Node47&#45;&gt;Node39 -->
<g id="edge56" class="edge">
<title>Node47&#45;&gt;Node39</title>
<path fill="none" stroke="#9a32cd" stroke-dasharray="5,2" d="M1229.68,-1780.94C1278.86,-1786.3 1341.42,-1793.45 1397,-1800.76 1413.97,-1802.99 1432.5,-1805.68 1448.99,-1808.17"/>
<polygon fill="#9a32cd" stroke="#9a32cd" points="1230.03,-1777.45 1219.71,-1779.85 1229.27,-1784.41 1230.03,-1777.45"/>
<text text-anchor="middle" x="1329" y="-1803.76" font-family="Helvetica,sans-Serif" font-size="10.00"> subProblemData</text>
</g>
<!-- Node48 -->
<g id="node48" class="node">
<title>Node48</title>
<g id="a_node48"><a xlink:title=" ">
<polygon fill="white" stroke="#bfbfbf" points="1040,-1718.26 1040,-1737.26 1243,-1737.26 1243,-1718.26 1040,-1718.26"/>
<text text-anchor="middle" x="1141.5" y="-1725.26" font-family="Helvetica,sans-Serif" font-size="10.00">shared_ptr&lt; SequenceDofContainer &gt;</text>
</a>
</g>
</g>
<!-- Node48&#45;&gt;Node39 -->
<g id="edge58" class="edge">
<title>Node48&#45;&gt;Node39</title>
<path fill="none" stroke="#9a32cd" stroke-dasharray="5,2" d="M1253.46,-1731.76C1298.84,-1735.82 1351.32,-1743.69 1397,-1758.76 1430.91,-1769.94 1466.25,-1793.13 1484.64,-1806.22"/>
<polygon fill="#9a32cd" stroke="#9a32cd" points="1253.55,-1728.25 1243.29,-1730.9 1252.96,-1735.23 1253.55,-1728.25"/>
<text text-anchor="middle" x="1329" y="-1772.76" font-family="Helvetica,sans-Serif" font-size="10.00"> sequenceRowDofContainer</text>
<text text-anchor="middle" x="1329" y="-1761.76" font-family="Helvetica,sans-Serif" font-size="10.00">sequenceColDofContainer</text>
</g>
<!-- Node49 -->
<g id="node49" class="node">
<title>Node49</title>
<g id="a_node49"><a xlink:title=" ">
<polygon fill="white" stroke="#bfbfbf" points="1097.5,-1680.26 1097.5,-1699.26 1185.5,-1699.26 1185.5,-1680.26 1097.5,-1680.26"/>
<text text-anchor="middle" x="1141.5" y="-1687.26" font-family="Helvetica,sans-Serif" font-size="10.00">BitProblemId *</text>
</a>
</g>
</g>
<!-- Node49&#45;&gt;Node39 -->
<g id="edge59" class="edge">
<title>Node49&#45;&gt;Node39</title>
<path fill="none" stroke="#9a32cd" stroke-dasharray="5,2" d="M1196.05,-1685.8C1249.52,-1684.05 1332.75,-1687.42 1397,-1717.76 1440.63,-1738.36 1476.89,-1785.72 1491.08,-1806.12"/>
<polygon fill="#9a32cd" stroke="#9a32cd" points="1195.62,-1682.31 1185.77,-1686.21 1195.9,-1689.31 1195.62,-1682.31"/>
<text text-anchor="middle" x="1329" y="-1720.76" font-family="Helvetica,sans-Serif" font-size="10.00"> tagId</text>
</g>
<!-- Node50 -->
<g id="node50" class="node">
<title>Node50</title>
<g id="a_node50"><a xlink:title=" ">
<polygon fill="white" stroke="#bfbfbf" points="1805,-1202.76 1805,-1232.76 1967,-1232.76 1967,-1202.76 1805,-1202.76"/>
<text text-anchor="start" x="1813" y="-1220.76" font-family="Helvetica,sans-Serif" font-size="10.00">shared_ptr&lt; const MoFEM</text>
<text text-anchor="middle" x="1886" y="-1209.76" font-family="Helvetica,sans-Serif" font-size="10.00">::NumeredEntFiniteElement &gt;</text>
</a>
</g>
</g>
<!-- Node50&#45;&gt;Node13 -->
<g id="edge60" class="edge">
<title>Node50&#45;&gt;Node13</title>
<path fill="none" stroke="#9a32cd" stroke-dasharray="5,2" d="M1977.31,-1230.04C2024.33,-1236.46 2082.77,-1244.48 2135,-1251.76 2157.09,-1254.84 2181.46,-1258.28 2202.44,-1261.26"/>
<polygon fill="#9a32cd" stroke="#9a32cd" points="1977.53,-1226.54 1967.15,-1228.65 1976.58,-1233.47 1977.53,-1226.54"/>
<text text-anchor="middle" x="2063" y="-1254.76" font-family="Helvetica,sans-Serif" font-size="10.00"> numeredEntFiniteElementPtr</text>
</g>
<!-- Node51 -->
<g id="node51" class="node">
<title>Node51</title>
<g id="a_node51"><a xlink:title=" ">
<polygon fill="white" stroke="#bfbfbf" points="1864,-1160.26 1864,-1179.26 1908,-1179.26 1908,-1160.26 1864,-1160.26"/>
<text text-anchor="middle" x="1886" y="-1167.26" font-family="Helvetica,sans-Serif" font-size="10.00">string</text>
</a>
</g>
</g>
<!-- Node51&#45;&gt;Node4 -->
<g id="edge83" class="edge">
<title>Node51&#45;&gt;Node4</title>
<path fill="none" stroke="#9a32cd" stroke-dasharray="5,2" d="M1918.17,-1163.04C1967.83,-1154.09 2066.28,-1143.69 2135,-1183.76 2147.78,-1191.21 2140.02,-1204.67 2153,-1211.76 2228.5,-1252.98 2456.74,-1207.92 2539,-1182.76 2679.49,-1139.79 2834.86,-1055.18 2895.13,-1020.81"/>
<polygon fill="#9a32cd" stroke="#9a32cd" points="1917.23,-1159.66 1908.06,-1164.96 1918.54,-1166.53 1917.23,-1159.66"/>
<text text-anchor="middle" x="2458" y="-1230.76" font-family="Helvetica,sans-Serif" font-size="10.00"> colFieldName</text>
<text text-anchor="middle" x="2458" y="-1219.76" font-family="Helvetica,sans-Serif" font-size="10.00">rowFieldName</text>
</g>
<!-- Node51&#45;&gt;Node13 -->
<g id="edge61" class="edge">
<title>Node51&#45;&gt;Node13</title>
<path fill="none" stroke="#9a32cd" stroke-dasharray="5,2" d="M1918.31,-1172.6C1976.8,-1178.41 2099.94,-1193.11 2135,-1216.76 2147.27,-1225.03 2140.92,-1236.22 2153,-1244.76 2167.34,-1254.89 2185.36,-1260.79 2202.25,-1264.22"/>
<polygon fill="#9a32cd" stroke="#9a32cd" points="1918.46,-1169.1 1908.17,-1171.62 1917.79,-1176.07 1918.46,-1169.1"/>
<text text-anchor="middle" x="2063" y="-1219.76" font-family="Helvetica,sans-Serif" font-size="10.00"> feName</text>
</g>
<!-- Node51&#45;&gt;Node72 -->
<g id="edge91" class="edge">
<title>Node51&#45;&gt;Node72</title>
<path fill="none" stroke="#9a32cd" stroke-dasharray="5,2" d="M1903.17,-1152.56C1948.95,-1102.7 2079.69,-951.94 2135,-799.76 2147.83,-764.47 2125.86,-657.71 2153,-631.76 2215.11,-572.36 2471.63,-661.12 2539,-607.76 2593.77,-564.37 2631.89,-330.16 2639.57,-279.45"/>
<polygon fill="#9a32cd" stroke="#9a32cd" points="1900.34,-1150.47 1896.11,-1160.18 1905.47,-1155.22 1900.34,-1150.47"/>
<text text-anchor="middle" x="2256" y="-689.76" font-family="Helvetica,sans-Serif" font-size="10.00"> muName</text>
<text text-anchor="middle" x="2256" y="-678.76" font-family="Helvetica,sans-Serif" font-size="10.00">spatialPositionName</text>
<text text-anchor="middle" x="2256" y="-667.76" font-family="Helvetica,sans-Serif" font-size="10.00">strainHatNameDot</text>
<text text-anchor="middle" x="2256" y="-656.76" font-family="Helvetica,sans-Serif" font-size="10.00">muNameDot</text>
<text text-anchor="middle" x="2256" y="-645.76" font-family="Helvetica,sans-Serif" font-size="10.00">spatialPositionNameDot</text>
<text text-anchor="middle" x="2256" y="-634.76" font-family="Helvetica,sans-Serif" font-size="10.00">strainHatName</text>
</g>
<!-- Node52 -->
<g id="node52" class="node">
<title>Node52</title>
<g id="a_node52"><a xlink:title=" ">
<polygon fill="white" stroke="#bfbfbf" points="1804.5,-1251.76 1804.5,-1281.76 1967.5,-1281.76 1967.5,-1251.76 1804.5,-1251.76"/>
<text text-anchor="start" x="1812.5" y="-1269.76" font-family="Helvetica,sans-Serif" font-size="10.00">function&lt; bool(MoFEM</text>
<text text-anchor="middle" x="1886" y="-1258.76" font-family="Helvetica,sans-Serif" font-size="10.00">::FEMethod *fe_method_ptr)&gt;</text>
</a>
</g>
</g>
<!-- Node52&#45;&gt;Node13 -->
<g id="edge62" class="edge">
<title>Node52&#45;&gt;Node13</title>
<path fill="none" stroke="#9a32cd" stroke-dasharray="5,2" d="M1977.98,-1267.25C2048.52,-1267.64 2143.82,-1268.15 2202.26,-1268.47"/>
<polygon fill="#9a32cd" stroke="#9a32cd" points="1977.78,-1263.75 1967.76,-1267.2 1977.74,-1270.75 1977.78,-1263.75"/>
<text text-anchor="middle" x="2063" y="-1270.76" font-family="Helvetica,sans-Serif" font-size="10.00"> exeTestHook</text>
</g>
<!-- Node53 -->
<g id="node53" class="node">
<title>Node53</title>
<g id="a_node53"><a xlink:href="classdouble.html" target="_top" xlink:title=" ">
<polygon fill="white" stroke="black" points="2231,-952.26 2231,-971.26 2281,-971.26 2281,-952.26 2231,-952.26"/>
<text text-anchor="middle" x="2256" y="-959.26" font-family="Helvetica,sans-Serif" font-size="10.00">double</text>
</a>
</g>
</g>
<!-- Node53&#45;&gt;Node12 -->
<g id="edge63" class="edge">
<title>Node53&#45;&gt;Node12</title>
<path fill="none" stroke="#9a32cd" stroke-dasharray="5,2" d="M2291.41,-964.81C2344.58,-969.64 2449.91,-979.63 2539,-990.76 2552.05,-992.39 2566.02,-994.32 2579.3,-996.24"/>
<polygon fill="#9a32cd" stroke="#9a32cd" points="2291.46,-961.3 2281.18,-963.89 2290.83,-968.27 2291.46,-961.3"/>
<text text-anchor="middle" x="2458" y="-993.76" font-family="Helvetica,sans-Serif" font-size="10.00"> elementMeasure</text>
</g>
<!-- Node54 -->
<g id="node54" class="node">
<title>Node54</title>
<g id="a_node54"><a xlink:title=" ">
<polygon fill="white" stroke="#bfbfbf" points="2170,-892.26 2170,-933.26 2342,-933.26 2342,-892.26 2170,-892.26"/>
<text text-anchor="start" x="2178" y="-921.26" font-family="Helvetica,sans-Serif" font-size="10.00">array&lt; boost::shared</text>
<text text-anchor="start" x="2178" y="-910.26" font-family="Helvetica,sans-Serif" font-size="10.00">_ptr&lt; MoFEM::EntitiesFieldData</text>
<text text-anchor="middle" x="2256" y="-899.26" font-family="Helvetica,sans-Serif" font-size="10.00"> &gt;, LASTSPACE &gt;</text>
</a>
</g>
</g>
<!-- Node54&#45;&gt;Node12 -->
<g id="edge64" class="edge">
<title>Node54&#45;&gt;Node12</title>
<path fill="none" stroke="#9a32cd" stroke-dasharray="5,2" d="M2352.44,-914.73C2408.07,-918.2 2478.89,-926.69 2539,-946.76 2573.73,-958.35 2609.76,-982.58 2628.29,-996.1"/>
<polygon fill="#9a32cd" stroke="#9a32cd" points="2352.42,-911.22 2342.24,-914.13 2352.02,-918.21 2352.42,-911.22"/>
<text text-anchor="middle" x="2458" y="-960.76" font-family="Helvetica,sans-Serif" font-size="10.00"> derivedDataOnElement</text>
<text text-anchor="middle" x="2458" y="-949.76" font-family="Helvetica,sans-Serif" font-size="10.00">dataOnElement</text>
</g>
<!-- Node55 -->
<g id="node55" class="node">
<title>Node55</title>
<g id="a_node55"><a xlink:title=" ">
<polygon fill="white" stroke="#bfbfbf" points="2222,-854.26 2222,-873.26 2290,-873.26 2290,-854.26 2222,-854.26"/>
<text text-anchor="middle" x="2256" y="-861.26" font-family="Helvetica,sans-Serif" font-size="10.00">EntityType</text>
</a>
</g>
</g>
<!-- Node55&#45;&gt;Node12 -->
<g id="edge65" class="edge">
<title>Node55&#45;&gt;Node12</title>
<path fill="none" stroke="#9a32cd" stroke-dasharray="5,2" d="M2300.52,-861.13C2358.19,-859.49 2461.66,-863.01 2539,-901.76 2583.99,-924.3 2620.67,-974.64 2634.77,-995.94"/>
<polygon fill="#9a32cd" stroke="#9a32cd" points="2300.17,-857.64 2290.3,-861.49 2300.41,-864.64 2300.17,-857.64"/>
<text text-anchor="middle" x="2458" y="-904.76" font-family="Helvetica,sans-Serif" font-size="10.00"> lastEvaluatedElementEntityType</text>
</g>
<!-- Node56 -->
<g id="node56" class="node">
<title>Node56</title>
<g id="a_node56"><a xlink:href="structMoFEM_1_1DeprecatedCoreInterface.html" target="_top" xlink:title="Deprecated interface functions.">
<polygon fill="white" stroke="black" points="1600,-778.26 1600,-797.26 1781,-797.26 1781,-778.26 1600,-778.26"/>
<text text-anchor="middle" x="1690.5" y="-785.26" font-family="Helvetica,sans-Serif" font-size="10.00">MoFEM::DeprecatedCoreInterface</text>
</a>
</g>
</g>
<!-- Node56&#45;&gt;Node12 -->
<g id="edge66" class="edge">
<title>Node56&#45;&gt;Node12</title>
<path fill="none" stroke="#9a32cd" stroke-dasharray="5,2" d="M1791.21,-783.67C2001.7,-775.86 2477.2,-762.85 2539,-801.76 2611.72,-847.53 2634.45,-962.28 2639.68,-996.18"/>
<polygon fill="#9a32cd" stroke="#9a32cd" points="1790.95,-780.18 1781.08,-784.05 1791.21,-787.17 1790.95,-780.18"/>
<text text-anchor="middle" x="2063" y="-779.76" font-family="Helvetica,sans-Serif" font-size="10.00"> mField</text>
</g>
<!-- Node57&#45;&gt;Node56 -->
<g id="edge67" class="edge">
<title>Node57&#45;&gt;Node56</title>
<path fill="none" stroke="midnightblue" d="M1214.39,-787.76C1313.43,-787.76 1491.78,-787.76 1599.54,-787.76"/>
<polygon fill="midnightblue" stroke="midnightblue" points="1214.18,-784.26 1204.18,-787.76 1214.18,-791.26 1214.18,-784.26"/>
</g>
<!-- Node58 -->
<g id="node58" class="node">
<title>Node58</title>
<g id="a_node58"><a xlink:title=" ">
<polygon fill="white" stroke="#bfbfbf" points="2172.5,-1149.76 2172.5,-1201.76 2339.5,-1201.76 2339.5,-1149.76 2172.5,-1149.76"/>
<text text-anchor="start" x="2180.5" y="-1189.76" font-family="Helvetica,sans-Serif" font-size="10.00">function&lt; MoFEMErrorCode</text>
<text text-anchor="start" x="2180.5" y="-1178.76" font-family="Helvetica,sans-Serif" font-size="10.00">(ForcesAndSourcesCore *fe</text>
<text text-anchor="start" x="2180.5" y="-1167.76" font-family="Helvetica,sans-Serif" font-size="10.00">_raw_ptr, int order_row,</text>
<text text-anchor="middle" x="2256" y="-1156.76" font-family="Helvetica,sans-Serif" font-size="10.00"> int order_col, int order_data)&gt;</text>
</a>
</g>
</g>
<!-- Node58&#45;&gt;Node12 -->
<g id="edge70" class="edge">
<title>Node58&#45;&gt;Node12</title>
<path fill="none" stroke="#9a32cd" stroke-dasharray="5,2" d="M2349.75,-1171.71C2407.41,-1165.75 2481.28,-1151.65 2539,-1118.76 2585.15,-1092.46 2621.71,-1037.8 2635.29,-1015.52"/>
<polygon fill="#9a32cd" stroke="#9a32cd" points="2349.17,-1168.25 2339.55,-1172.7 2349.84,-1175.22 2349.17,-1168.25"/>
<text text-anchor="middle" x="2458" y="-1170.76" font-family="Helvetica,sans-Serif" font-size="10.00"> setRuleHook</text>
</g>
<!-- Node59 -->
<g id="node59" class="node">
<title>Node59</title>
<g id="a_node59"><a xlink:title=" ">
<polygon fill="white" stroke="#bfbfbf" points="2155,-1100.76 2155,-1130.76 2357,-1130.76 2357,-1100.76 2155,-1100.76"/>
<text text-anchor="start" x="2163" y="-1118.76" font-family="Helvetica,sans-Serif" font-size="10.00">ptr_deque&lt; MoFEM::Forces</text>
<text text-anchor="middle" x="2256" y="-1107.76" font-family="Helvetica,sans-Serif" font-size="10.00">AndSourcesCore::UserDataOperator &gt;</text>
</a>
</g>
</g>
<!-- Node59&#45;&gt;Node12 -->
<g id="edge71" class="edge">
<title>Node59&#45;&gt;Node12</title>
<path fill="none" stroke="#9a32cd" stroke-dasharray="5,2" d="M2367.34,-1106.08C2420.44,-1099.06 2484.29,-1087.07 2539,-1066.76 2573.82,-1053.83 2610.1,-1028.92 2628.57,-1015.28"/>
<polygon fill="#9a32cd" stroke="#9a32cd" points="2366.69,-1102.64 2357.21,-1107.38 2367.58,-1109.58 2366.69,-1102.64"/>
<text text-anchor="middle" x="2458" y="-1106.76" font-family="Helvetica,sans-Serif" font-size="10.00"> opPtrVector</text>
</g>
<!-- Node60 -->
<g id="node60" class="node">
<title>Node60</title>
<g id="a_node60"><a xlink:href="structMoFEM_1_1EntitiesFieldData.html" target="_top" xlink:title="data structure for finite element entity">
<polygon fill="white" stroke="black" points="2185,-1449.26 2185,-1468.26 2327,-1468.26 2327,-1449.26 2185,-1449.26"/>
<text text-anchor="middle" x="2256" y="-1456.26" font-family="Helvetica,sans-Serif" font-size="10.00">MoFEM::EntitiesFieldData</text>
</a>
</g>
</g>
<!-- Node60&#45;&gt;Node12 -->
<g id="edge72" class="edge">
<title>Node60&#45;&gt;Node12</title>
<path fill="none" stroke="#9a32cd" stroke-dasharray="5,2" d="M2293.9,-1445.6C2353.63,-1422.51 2471.58,-1369.17 2539,-1286.76 2611.46,-1198.18 2634.77,-1053.72 2639.84,-1015.36"/>
<polygon fill="#9a32cd" stroke="#9a32cd" points="2292.59,-1442.36 2284.48,-1449.18 2295.07,-1448.9 2292.59,-1442.36"/>
<text text-anchor="middle" x="2458" y="-1454.76" font-family="Helvetica,sans-Serif" font-size="10.00"> dataNoField</text>
<text text-anchor="middle" x="2458" y="-1443.76" font-family="Helvetica,sans-Serif" font-size="10.00">dataL2</text>
<text text-anchor="middle" x="2458" y="-1432.76" font-family="Helvetica,sans-Serif" font-size="10.00">dataH1</text>
<text text-anchor="middle" x="2458" y="-1421.76" font-family="Helvetica,sans-Serif" font-size="10.00">dataHcurl</text>
<text text-anchor="middle" x="2458" y="-1410.76" font-family="Helvetica,sans-Serif" font-size="10.00">dataHdiv</text>
</g>
<!-- Node61 -->
<g id="node61" class="node">
<title>Node61</title>
<g id="a_node61"><a xlink:title=" ">
<polygon fill="white" stroke="#bfbfbf" points="1805,-1498.76 1805,-1528.76 1967,-1528.76 1967,-1498.76 1805,-1498.76"/>
<text text-anchor="start" x="1813" y="-1516.76" font-family="Helvetica,sans-Serif" font-size="10.00">array&lt; std::bitset</text>
<text text-anchor="middle" x="1886" y="-1505.76" font-family="Helvetica,sans-Serif" font-size="10.00">&lt; LASTBASE &gt;, LASTSPACE &gt;</text>
</a>
</g>
</g>
<!-- Node61&#45;&gt;Node60 -->
<g id="edge73" class="edge">
<title>Node61&#45;&gt;Node60</title>
<path fill="none" stroke="#9a32cd" stroke-dasharray="5,2" d="M1977.35,-1500.26C2043.73,-1490.33 2132.28,-1477.1 2191.35,-1468.27"/>
<polygon fill="#9a32cd" stroke="#9a32cd" points="1976.68,-1496.82 1967.3,-1501.76 1977.71,-1503.74 1976.68,-1496.82"/>
<text text-anchor="middle" x="2063" y="-1510.76" font-family="Helvetica,sans-Serif" font-size="10.00"> brokenBasesOnSpaces</text>
<text text-anchor="middle" x="2063" y="-1499.76" font-family="Helvetica,sans-Serif" font-size="10.00">basesOnSpaces</text>
</g>
<!-- Node62 -->
<g id="node62" class="node">
<title>Node62</title>
<g id="a_node62"><a xlink:title=" ">
<polygon fill="white" stroke="#bfbfbf" points="1809.5,-1438.26 1809.5,-1479.26 1962.5,-1479.26 1962.5,-1438.26 1809.5,-1438.26"/>
<text text-anchor="start" x="1817.5" y="-1467.26" font-family="Helvetica,sans-Serif" font-size="10.00">array&lt; boost::ptr_vector</text>
<text text-anchor="start" x="1817.5" y="-1456.26" font-family="Helvetica,sans-Serif" font-size="10.00">&lt; MoFEM::EntitiesFieldData</text>
<text text-anchor="middle" x="1886" y="-1445.26" font-family="Helvetica,sans-Serif" font-size="10.00">::EntData &gt;, MBMAXTYPE &gt;</text>
</a>
</g>
</g>
<!-- Node62&#45;&gt;Node60 -->
<g id="edge74" class="edge">
<title>Node62&#45;&gt;Node60</title>
<path fill="none" stroke="#9a32cd" stroke-dasharray="5,2" d="M1972.95,-1458.76C2037.43,-1458.76 2124.61,-1458.76 2184.9,-1458.76"/>
<polygon fill="#9a32cd" stroke="#9a32cd" points="1972.8,-1455.26 1962.8,-1458.76 1972.8,-1462.26 1972.8,-1455.26"/>
<text text-anchor="middle" x="2063" y="-1461.76" font-family="Helvetica,sans-Serif" font-size="10.00"> dataOnEntities</text>
</g>
<!-- Node63 -->
<g id="node63" class="node">
<title>Node63</title>
<g id="a_node63"><a xlink:title=" ">
<polygon fill="white" stroke="#bfbfbf" points="1799,-1388.76 1799,-1418.76 1973,-1418.76 1973,-1388.76 1799,-1388.76"/>
<text text-anchor="start" x="1807" y="-1406.76" font-family="Helvetica,sans-Serif" font-size="10.00">array&lt; std::bitset</text>
<text text-anchor="middle" x="1886" y="-1395.76" font-family="Helvetica,sans-Serif" font-size="10.00">&lt; LASTSPACE &gt;, MBMAXTYPE &gt;</text>
</a>
</g>
</g>
<!-- Node63&#45;&gt;Node60 -->
<g id="edge75" class="edge">
<title>Node63&#45;&gt;Node60</title>
<path fill="none" stroke="#9a32cd" stroke-dasharray="5,2" d="M1983.23,-1418.14C2048.91,-1427.96 2134.06,-1440.68 2191.41,-1449.25"/>
<polygon fill="#9a32cd" stroke="#9a32cd" points="1983.69,-1414.67 1973.28,-1416.65 1982.65,-1421.59 1983.69,-1414.67"/>
<text text-anchor="middle" x="2063" y="-1441.76" font-family="Helvetica,sans-Serif" font-size="10.00"> spacesOnEntities</text>
</g>
<!-- Node64 -->
<g id="node64" class="node">
<title>Node64</title>
<g id="a_node64"><a xlink:title=" ">
<polygon fill="white" stroke="#bfbfbf" points="1801.5,-1339.76 1801.5,-1369.76 1970.5,-1369.76 1970.5,-1339.76 1801.5,-1339.76"/>
<text text-anchor="start" x="1809.5" y="-1357.76" font-family="Helvetica,sans-Serif" font-size="10.00">array&lt; std::bitset</text>
<text text-anchor="middle" x="1886" y="-1346.76" font-family="Helvetica,sans-Serif" font-size="10.00">&lt; LASTBASE &gt;, MBMAXTYPE &gt;</text>
</a>
</g>
</g>
<!-- Node64&#45;&gt;Node60 -->
<g id="edge76" class="edge">
<title>Node64&#45;&gt;Node60</title>
<path fill="none" stroke="#9a32cd" stroke-dasharray="5,2" d="M1980.44,-1368.5C2027.45,-1376.69 2084.93,-1388.67 2135,-1404.76 2172.63,-1416.85 2214.2,-1437.26 2237.2,-1449.22"/>
<polygon fill="#9a32cd" stroke="#9a32cd" points="1981.02,-1365.05 1970.57,-1366.81 1979.84,-1371.95 1981.02,-1365.05"/>
<text text-anchor="middle" x="2063" y="-1407.76" font-family="Helvetica,sans-Serif" font-size="10.00"> basesOnEntities</text>
</g>
<!-- Node65 -->
<g id="node65" class="node">
<title>Node65</title>
<g id="a_node65"><a xlink:title=" ">
<polygon fill="white" stroke="#bfbfbf" points="1830,-1586.26 1830,-1605.26 1942,-1605.26 1942,-1586.26 1830,-1586.26"/>
<text text-anchor="middle" x="1886" y="-1593.26" font-family="Helvetica,sans-Serif" font-size="10.00">UBlasMatrix&lt; int &gt;</text>
</a>
</g>
</g>
<!-- Node65&#45;&gt;Node60 -->
<g id="edge77" class="edge">
<title>Node65&#45;&gt;Node60</title>
<path fill="none" stroke="#9a32cd" stroke-dasharray="5,2" d="M1952.27,-1597.95C2004,-1597.3 2076.97,-1590.95 2135,-1564.76 2185.67,-1541.89 2230.41,-1490.06 2247.56,-1468.47"/>
<polygon fill="#9a32cd" stroke="#9a32cd" points="1952.2,-1594.45 1942.22,-1598.01 1952.24,-1601.45 1952.2,-1594.45"/>
<text text-anchor="middle" x="2063" y="-1609.76" font-family="Helvetica,sans-Serif" font-size="10.00"> facesNodesOrder</text>
<text text-anchor="middle" x="2063" y="-1598.76" font-family="Helvetica,sans-Serif" font-size="10.00">facesNodes</text>
</g>
<!-- Node66 -->
<g id="node66" class="node">
<title>Node66</title>
<g id="a_node66"><a xlink:title=" ">
<polygon fill="white" stroke="#bfbfbf" points="1827.5,-1548.26 1827.5,-1567.26 1944.5,-1567.26 1944.5,-1548.26 1827.5,-1548.26"/>
<text text-anchor="middle" x="1886" y="-1555.26" font-family="Helvetica,sans-Serif" font-size="10.00">bitset&lt; LASTBASE &gt;</text>
</a>
</g>
</g>
<!-- Node66&#45;&gt;Node60 -->
<g id="edge78" class="edge">
<title>Node66&#45;&gt;Node60</title>
<path fill="none" stroke="#9a32cd" stroke-dasharray="5,2" d="M1954.85,-1554.58C2005.52,-1550.68 2075.92,-1542.01 2135,-1522.76 2175.86,-1509.44 2219.27,-1482.71 2240.96,-1468.37"/>
<polygon fill="#9a32cd" stroke="#9a32cd" points="1954.39,-1551.1 1944.67,-1555.31 1954.89,-1558.08 1954.39,-1551.1"/>
<text text-anchor="middle" x="2063" y="-1552.76" font-family="Helvetica,sans-Serif" font-size="10.00"> bAse</text>
</g>
<!-- Node67 -->
<g id="node67" class="node">
<title>Node67</title>
<g id="a_node67"><a xlink:title=" ">
<polygon fill="white" stroke="#bfbfbf" points="2193.5,-1040.26 2193.5,-1081.26 2318.5,-1081.26 2318.5,-1040.26 2193.5,-1040.26"/>
<text text-anchor="start" x="2201.5" y="-1069.26" font-family="Helvetica,sans-Serif" font-size="10.00">function&lt; int(int order</text>
<text text-anchor="start" x="2201.5" y="-1058.26" font-family="Helvetica,sans-Serif" font-size="10.00">_row, int order_col, int</text>
<text text-anchor="middle" x="2256" y="-1047.26" font-family="Helvetica,sans-Serif" font-size="10.00"> order_data)&gt;</text>
</a>
</g>
</g>
<!-- Node67&#45;&gt;Node12 -->
<g id="edge79" class="edge">
<title>Node67&#45;&gt;Node12</title>
<path fill="none" stroke="#9a32cd" stroke-dasharray="5,2" d="M2328.73,-1056.31C2385.97,-1052.05 2468.03,-1044.38 2539,-1031.76 2562.57,-1027.57 2588.73,-1020.86 2608.65,-1015.3"/>
<polygon fill="#9a32cd" stroke="#9a32cd" points="2328.42,-1052.82 2318.7,-1057.04 2328.93,-1059.8 2328.42,-1052.82"/>
<text text-anchor="middle" x="2458" y="-1054.76" font-family="Helvetica,sans-Serif" font-size="10.00"> getRuleHook</text>
</g>
<!-- Node68 -->
<g id="node68" class="node">
<title>Node68</title>
<g id="a_node68"><a xlink:title=" ">
<polygon fill="white" stroke="#bfbfbf" points="2195,-990.76 2195,-1020.76 2317,-1020.76 2317,-990.76 2195,-990.76"/>
<text text-anchor="start" x="2203" y="-1008.76" font-family="Helvetica,sans-Serif" font-size="10.00">shared_ptr&lt; MoFEM::</text>
<text text-anchor="middle" x="2256" y="-997.76" font-family="Helvetica,sans-Serif" font-size="10.00">BaseFunction &gt;</text>
</a>
</g>
</g>
<!-- Node68&#45;&gt;Node12 -->
<g id="edge80" class="edge">
<title>Node68&#45;&gt;Node12</title>
<path fill="none" stroke="#9a32cd" stroke-dasharray="5,2" d="M2327.52,-1005.76C2392.17,-1005.76 2488.01,-1005.76 2556.68,-1005.76"/>
<polygon fill="#9a32cd" stroke="#9a32cd" points="2327.42,-1002.26 2317.42,-1005.76 2327.42,-1009.26 2327.42,-1002.26"/>
<text text-anchor="middle" x="2458" y="-1019.76" font-family="Helvetica,sans-Serif" font-size="10.00"> userPolynomialBasePtr</text>
<text text-anchor="middle" x="2458" y="-1008.76" font-family="Helvetica,sans-Serif" font-size="10.00">elementPolynomialBasePtr</text>
</g>
<!-- Node69 -->
<g id="node69" class="node">
<title>Node69</title>
<g id="a_node69"><a xlink:href="classUBlasMatrix_3_01double_01_4.html" target="_top" xlink:title=" ">
<polygon fill="white" stroke="black" points="2190,-816.26 2190,-835.26 2322,-835.26 2322,-816.26 2190,-816.26"/>
<text text-anchor="middle" x="2256" y="-823.26" font-family="Helvetica,sans-Serif" font-size="10.00">UBlasMatrix&lt; double &gt;</text>
</a>
</g>
</g>
<!-- Node69&#45;&gt;Node12 -->
<g id="edge81" class="edge">
<title>Node69&#45;&gt;Node12</title>
<path fill="none" stroke="#9a32cd" stroke-dasharray="5,2" d="M2306.65,-814.34C2366.27,-803.47 2467.21,-794.37 2539,-836.76 2601.86,-873.87 2630.73,-966.22 2638.65,-996.2"/>
<polygon fill="#9a32cd" stroke="#9a32cd" points="2305.89,-810.92 2296.73,-816.23 2307.2,-817.8 2305.89,-810.92"/>
<text text-anchor="middle" x="2458" y="-850.76" font-family="Helvetica,sans-Serif" font-size="10.00"> coordsAtGaussPts</text>
<text text-anchor="middle" x="2458" y="-839.76" font-family="Helvetica,sans-Serif" font-size="10.00">gaussPts</text>
</g>
<!-- Node70 -->
<g id="node70" class="node">
<title>Node70</title>
<g id="a_node70"><a xlink:title=" ">
<polygon fill="white" stroke="#bfbfbf" points="2576.5,-2104.26 2576.5,-2123.26 2707.5,-2123.26 2707.5,-2104.26 2576.5,-2104.26"/>
<text text-anchor="middle" x="2642" y="-2111.26" font-family="Helvetica,sans-Serif" font-size="10.00">static const char *const</text>
</a>
</g>
</g>
<!-- Node70&#45;&gt;Node4 -->
<g id="edge82" class="edge">
<title>Node70&#45;&gt;Node4</title>
<path fill="none" stroke="#9a32cd" stroke-dasharray="5,2" d="M2718.24,-2123.25C2753.63,-2123.32 2793.55,-2116.29 2819,-2089.76 2896.61,-2008.84 2917.97,-1146.88 2920.69,-1021.05"/>
<polygon fill="#9a32cd" stroke="#9a32cd" points="2717.98,-2119.74 2707.91,-2123.03 2717.83,-2126.74 2717.98,-2119.74"/>
<text text-anchor="middle" x="2782" y="-2123.76" font-family="Helvetica,sans-Serif" font-size="10.00"> OpTypeNames</text>
</g>
<!-- Node71 -->
<g id="node71" class="node">
<title>Node71</title>
<g id="a_node71"><a xlink:title=" ">
<polygon fill="white" stroke="#bfbfbf" points="3098.5,-618.26 3098.5,-637.26 3180.5,-637.26 3180.5,-618.26 3098.5,-618.26"/>
<text text-anchor="middle" x="3139.5" y="-625.26" font-family="Helvetica,sans-Serif" font-size="10.00">VectorDouble</text>
</a>
</g>
</g>
<!-- Node71&#45;&gt;Node2 -->
<g id="edge84" class="edge">
<title>Node71&#45;&gt;Node2</title>
<path fill="none" stroke="#9a32cd" stroke-dasharray="5,2" d="M3190.71,-617.65C3219.23,-611.9 3255.41,-604.62 3286.91,-598.27"/>
<polygon fill="#9a32cd" stroke="#9a32cd" points="3189.69,-614.28 3180.58,-619.69 3191.07,-621.14 3189.69,-614.28"/>
<text text-anchor="middle" x="3261" y="-607.76" font-family="Helvetica,sans-Serif" font-size="10.00"> nF</text>
</g>
<!-- Node72&#45;&gt;Node1 -->
<g id="edge85" class="edge">
<title>Node72&#45;&gt;Node1</title>
<path fill="none" stroke="#9a32cd" stroke-dasharray="5,2" d="M2663.4,-285.51C2707.68,-318.07 2816.98,-389.76 2921,-389.76 2921,-389.76 2921,-389.76 3361,-389.76 3396.71,-389.76 3436.01,-391.78 3469.95,-394.16"/>
<polygon fill="#9a32cd" stroke="#9a32cd" points="2665.31,-282.56 2655.2,-279.38 2661.11,-288.17 2665.31,-282.56"/>
<text text-anchor="middle" x="3139.5" y="-392.76" font-family="Helvetica,sans-Serif" font-size="10.00"> commonData</text>
</g>
<!-- Node73 -->
<g id="node73" class="node">
<title>Node73</title>
<g id="a_node73"><a xlink:title=" ">
<polygon fill="white" stroke="#bfbfbf" points="2176,-172.26 2176,-191.26 2336,-191.26 2336,-172.26 2176,-172.26"/>
<text text-anchor="middle" x="2256" y="-179.26" font-family="Helvetica,sans-Serif" font-size="10.00">vector&lt; MatrixDouble3by3 &gt;</text>
</a>
</g>
</g>
<!-- Node73&#45;&gt;Node72 -->
<g id="edge86" class="edge">
<title>Node73&#45;&gt;Node72</title>
<path fill="none" stroke="#9a32cd" stroke-dasharray="5,2" d="M2346.38,-188.14C2402.55,-193.77 2476.04,-204.1 2539,-222.76 2570.41,-232.06 2604.52,-249.4 2624.26,-260.21"/>
<polygon fill="#9a32cd" stroke="#9a32cd" points="2346.39,-184.63 2336.1,-187.15 2345.72,-191.6 2346.39,-184.63"/>
<text text-anchor="middle" x="2458" y="-225.76" font-family="Helvetica,sans-Serif" font-size="10.00"> stressTotal</text>
</g>
<!-- Node74 -->
<g id="node74" class="node">
<title>Node74</title>
<g id="a_node74"><a xlink:title=" ">
<polygon fill="white" stroke="#bfbfbf" points="2210,-134.26 2210,-153.26 2302,-153.26 2302,-134.26 2210,-134.26"/>
<text text-anchor="middle" x="2256" y="-141.26" font-family="Helvetica,sans-Serif" font-size="10.00">map&lt; int, int &gt;</text>
</a>
</g>
</g>
<!-- Node74&#45;&gt;Node72 -->
<g id="edge87" class="edge">
<title>Node74&#45;&gt;Node72</title>
<path fill="none" stroke="#9a32cd" stroke-dasharray="5,2" d="M2312.4,-137.31C2371.43,-132.87 2466.22,-132.87 2539,-166.76 2584.63,-188.01 2621.22,-238.92 2635.04,-260.18"/>
<polygon fill="#9a32cd" stroke="#9a32cd" points="2311.84,-133.85 2302.16,-138.15 2312.42,-140.82 2311.84,-133.85"/>
<text text-anchor="middle" x="2458" y="-180.76" font-family="Helvetica,sans-Serif" font-size="10.00"> nbActiveVariables</text>
<text text-anchor="middle" x="2458" y="-169.76" font-family="Helvetica,sans-Serif" font-size="10.00">nbActiveResults</text>
</g>
<!-- Node75 -->
<g id="node75" class="node">
<title>Node75</title>
<g id="a_node75"><a xlink:title=" ">
<polygon fill="white" stroke="#bfbfbf" points="2188,-88.26 2188,-107.26 2324,-107.26 2324,-88.26 2188,-88.26"/>
<text text-anchor="middle" x="2256" y="-95.26" font-family="Helvetica,sans-Serif" font-size="10.00">vector&lt; MatrixDouble &gt;</text>
</a>
</g>
</g>
<!-- Node75&#45;&gt;Node72 -->
<g id="edge88" class="edge">
<title>Node75&#45;&gt;Node72</title>
<path fill="none" stroke="#9a32cd" stroke-dasharray="5,2" d="M2334.59,-89.66C2405.88,-83.71 2505.41,-79.6 2539,-98.76 2602.96,-135.23 2631.1,-229.39 2638.75,-259.99"/>
<polygon fill="#9a32cd" stroke="#9a32cd" points="2333.95,-86.2 2324.29,-90.55 2334.55,-93.18 2333.95,-86.2"/>
<text text-anchor="middle" x="2458" y="-123.76" font-family="Helvetica,sans-Serif" font-size="10.00"> jacSolventFlux</text>
<text text-anchor="middle" x="2458" y="-112.76" font-family="Helvetica,sans-Serif" font-size="10.00">jacStressTotal</text>
<text text-anchor="middle" x="2458" y="-101.76" font-family="Helvetica,sans-Serif" font-size="10.00">jacStrainHat</text>
</g>
<!-- Node76 -->
<g id="node76" class="node">
<title>Node76</title>
<g id="a_node76"><a xlink:title=" ">
<polygon fill="white" stroke="#bfbfbf" points="2185.5,-50.26 2185.5,-69.26 2326.5,-69.26 2326.5,-50.26 2185.5,-50.26"/>
<text text-anchor="middle" x="2256" y="-57.26" font-family="Helvetica,sans-Serif" font-size="10.00">vector&lt; VectorDouble9 &gt;</text>
</a>
</g>
</g>
<!-- Node76&#45;&gt;Node72 -->
<g id="edge89" class="edge">
<title>Node76&#45;&gt;Node72</title>
<path fill="none" stroke="#9a32cd" stroke-dasharray="5,2" d="M2336.97,-53.78C2408.42,-50.01 2506.66,-49.15 2539,-69.76 2610,-115 2633.8,-226.28 2639.51,-259.95"/>
<polygon fill="#9a32cd" stroke="#9a32cd" points="2336.42,-50.31 2326.63,-54.36 2336.81,-57.3 2336.42,-50.31"/>
<text text-anchor="middle" x="2458" y="-72.76" font-family="Helvetica,sans-Serif" font-size="10.00"> residualStrainHat</text>
</g>
<!-- Node77 -->
<g id="node77" class="node">
<title>Node77</title>
<g id="a_node77"><a xlink:title=" ">
<polygon fill="white" stroke="#bfbfbf" points="2185.5,-12.26 2185.5,-31.26 2326.5,-31.26 2326.5,-12.26 2185.5,-12.26"/>
<text text-anchor="middle" x="2256" y="-19.26" font-family="Helvetica,sans-Serif" font-size="10.00">vector&lt; VectorDouble3 &gt;</text>
</a>
</g>
</g>
<!-- Node77&#45;&gt;Node72 -->
<g id="edge92" class="edge">
<title>Node77&#45;&gt;Node72</title>
<path fill="none" stroke="#9a32cd" stroke-dasharray="5,2" d="M2305.22,-10.14C2365.58,1.46 2469.46,11.39 2539,-36.76 2618.5,-91.81 2636.63,-223.19 2640.21,-260.01"/>
<polygon fill="#9a32cd" stroke="#9a32cd" points="2304.31,-6.75 2295.2,-12.16 2305.69,-13.62 2304.31,-6.75"/>
<text text-anchor="middle" x="2458" y="-39.76" font-family="Helvetica,sans-Serif" font-size="10.00"> solventFlux</text>
</g>
<!-- Node78 -->
<g id="node78" class="node">
<title>Node78</title>
<g id="a_node78"><a xlink:title=" ">
<polygon fill="white" stroke="#bfbfbf" points="2198,-374.76 2198,-404.76 2314,-404.76 2314,-374.76 2198,-374.76"/>
<text text-anchor="start" x="2206" y="-392.76" font-family="Helvetica,sans-Serif" font-size="10.00">map&lt; string, vector</text>
<text text-anchor="middle" x="2256" y="-381.76" font-family="Helvetica,sans-Serif" font-size="10.00">&lt; MatrixDouble &gt; &gt;</text>
</a>
</g>
</g>
<!-- Node78&#45;&gt;Node72 -->
<g id="edge93" class="edge">
<title>Node78&#45;&gt;Node72</title>
<path fill="none" stroke="#9a32cd" stroke-dasharray="5,2" d="M2324.43,-383.67C2401.58,-376.38 2519.77,-364.12 2539,-355.76 2580.21,-337.84 2617.54,-297.69 2633.2,-279.29"/>
<polygon fill="#9a32cd" stroke="#9a32cd" points="2323.93,-380.2 2314.3,-384.62 2324.59,-387.17 2323.93,-380.2"/>
<text text-anchor="middle" x="2458" y="-381.76" font-family="Helvetica,sans-Serif" font-size="10.00"> gradAtGaussPts</text>
</g>
<!-- Node79 -->
<g id="node79" class="node">
<title>Node79</title>
<g id="a_node79"><a xlink:title=" ">
<polygon fill="white" stroke="#bfbfbf" points="2200.5,-336.26 2200.5,-355.26 2311.5,-355.26 2311.5,-336.26 2200.5,-336.26"/>
<text text-anchor="middle" x="2256" y="-343.26" font-family="Helvetica,sans-Serif" font-size="10.00">vector&lt; double * &gt;</text>
</a>
</g>
</g>
<!-- Node79&#45;&gt;Node72 -->
<g id="edge94" class="edge">
<title>Node79&#45;&gt;Node72</title>
<path fill="none" stroke="#9a32cd" stroke-dasharray="5,2" d="M2321.81,-344.24C2379.64,-341.57 2466.2,-334.32 2539,-314.76 2570.03,-306.42 2603.71,-289.97 2623.55,-279.44"/>
<polygon fill="#9a32cd" stroke="#9a32cd" points="2321.55,-340.75 2311.71,-344.67 2321.85,-347.74 2321.55,-340.75"/>
<text text-anchor="middle" x="2458" y="-343.76" font-family="Helvetica,sans-Serif" font-size="10.00"> jacRowPtr</text>
</g>
<!-- Node80 -->
<g id="node80" class="node">
<title>Node80</title>
<g id="a_node80"><a xlink:title=" ">
<polygon fill="white" stroke="#bfbfbf" points="2188.5,-298.26 2188.5,-317.26 2323.5,-317.26 2323.5,-298.26 2188.5,-298.26"/>
<text text-anchor="middle" x="2256" y="-305.26" font-family="Helvetica,sans-Serif" font-size="10.00">vector&lt; VectorDouble &gt;</text>
</a>
</g>
</g>
<!-- Node80&#45;&gt;Node72 -->
<g id="edge95" class="edge">
<title>Node80&#45;&gt;Node72</title>
<path fill="none" stroke="#9a32cd" stroke-dasharray="5,2" d="M2333.76,-302.84C2390.54,-298.88 2469.71,-292.67 2539,-284.76 2552.52,-283.21 2567,-281.27 2580.68,-279.29"/>
<polygon fill="#9a32cd" stroke="#9a32cd" points="2333.52,-299.35 2323.78,-303.53 2334,-306.33 2333.52,-299.35"/>
<text text-anchor="middle" x="2458" y="-302.76" font-family="Helvetica,sans-Serif" font-size="10.00"> jacSolventDot</text>
</g>
<!-- Node81 -->
<g id="node81" class="node">
<title>Node81</title>
<g id="a_node81"><a xlink:title=" ">
<polygon fill="white" stroke="#bfbfbf" points="2204.5,-260.26 2204.5,-279.26 2307.5,-279.26 2307.5,-260.26 2204.5,-260.26"/>
<text text-anchor="middle" x="2256" y="-267.26" font-family="Helvetica,sans-Serif" font-size="10.00">vector&lt; double &gt;</text>
</a>
</g>
</g>
<!-- Node81&#45;&gt;Node72 -->
<g id="edge96" class="edge">
<title>Node81&#45;&gt;Node72</title>
<path fill="none" stroke="#9a32cd" stroke-dasharray="5,2" d="M2317.72,-269.76C2382.97,-269.76 2487.03,-269.76 2559.4,-269.76"/>
<polygon fill="#9a32cd" stroke="#9a32cd" points="2317.6,-266.26 2307.6,-269.76 2317.6,-273.26 2317.6,-266.26"/>
<text text-anchor="middle" x="2458" y="-272.76" font-family="Helvetica,sans-Serif" font-size="10.00"> solventConcentrationDot</text>
</g>
<!-- Node82 -->
<g id="node82" class="node">
<title>Node82</title>
<g id="a_node82"><a xlink:title=" ">
<polygon fill="white" stroke="#bfbfbf" points="2198,-210.76 2198,-240.76 2314,-240.76 2314,-210.76 2198,-210.76"/>
<text text-anchor="start" x="2206" y="-228.76" font-family="Helvetica,sans-Serif" font-size="10.00">map&lt; string, vector</text>
<text text-anchor="middle" x="2256" y="-217.76" font-family="Helvetica,sans-Serif" font-size="10.00">&lt; VectorDouble &gt; &gt;</text>
</a>
</g>
</g>
<!-- Node82&#45;&gt;Node72 -->
<g id="edge97" class="edge">
<title>Node82&#45;&gt;Node72</title>
<path fill="none" stroke="#9a32cd" stroke-dasharray="5,2" d="M2324.06,-231.83C2381.26,-237.2 2465.63,-245.6 2539,-254.76 2552.05,-256.39 2566.02,-258.32 2579.3,-260.24"/>
<polygon fill="#9a32cd" stroke="#9a32cd" points="2324.35,-228.34 2314.06,-230.89 2323.7,-235.31 2324.35,-228.34"/>
<text text-anchor="middle" x="2458" y="-257.76" font-family="Helvetica,sans-Serif" font-size="10.00"> dataAtGaussPts</text>
</g>
</g>
</svg>
