<?xml version="1.0" encoding="UTF-8" standalone="no"?>
<!DOCTYPE svg PUBLIC "-//W3C//DTD SVG 1.1//EN"
 "http://www.w3.org/Graphics/SVG/1.1/DTD/svg11.dtd">
<!-- Generated by graphviz version 2.43.0 (0)
 -->
<!-- Title: MoFEM::interface_FiniteElement&lt; FE, REFENT &gt; Pages: 1 -->
<svg width="1787pt" height="88pt"
 viewBox="0.00 0.00 1787.00 88.00" xmlns="http://www.w3.org/2000/svg" xmlns:xlink="http://www.w3.org/1999/xlink">
<g id="graph0" class="graph" transform="scale(1 1) rotate(0) translate(4 84)">
<title>MoFEM::interface_FiniteElement&lt; FE, REFENT &gt;</title>
<polygon fill="white" stroke="transparent" points="-4,4 -4,-84 1783,-84 1783,4 -4,4"/>
<!-- Node1 -->
<g id="node1" class="node">
<title>Node1</title>
<g id="a_node1"><a xlink:title=" ">
<polygon fill="#bfbfbf" stroke="black" points="775,-24.5 775,-54.5 950,-54.5 950,-24.5 775,-24.5"/>
<text text-anchor="start" x="783" y="-42.5" font-family="Helvetica,sans-Serif" font-size="10.00">MoFEM::interface_FiniteElement</text>
<text text-anchor="middle" x="862.5" y="-31.5" font-family="Helvetica,sans-Serif" font-size="10.00">&lt; FE, REFENT &gt;</text>
</a>
</g>
</g>
<!-- Node6 -->
<g id="node6" class="node">
<title>Node6</title>
<g id="a_node6"><a xlink:href="structMoFEM_1_1interface__FiniteElement.html" target="_top" xlink:title=" ">
<polygon fill="white" stroke="black" points="1161.5,-49.5 1161.5,-79.5 1336.5,-79.5 1336.5,-49.5 1161.5,-49.5"/>
<text text-anchor="start" x="1169.5" y="-67.5" font-family="Helvetica,sans-Serif" font-size="10.00">MoFEM::interface_FiniteElement</text>
<text text-anchor="middle" x="1249" y="-56.5" font-family="Helvetica,sans-Serif" font-size="10.00">&lt; FiniteElement, RefElement &gt;</text>
</a>
</g>
</g>
<!-- Node1&#45;&gt;Node6 -->
<g id="edge6" class="edge">
<title>Node1&#45;&gt;Node6</title>
<path fill="none" stroke="orange" stroke-dasharray="5,2" d="M960.41,-45.8C1022.18,-49.82 1101.52,-54.98 1161.21,-58.86"/>
<polygon fill="orange" stroke="orange" points="960.47,-42.3 950.27,-45.14 960.02,-49.28 960.47,-42.3"/>
<text text-anchor="middle" x="1046.5" y="-59.5" font-family="Helvetica,sans-Serif" font-size="10.00"> &lt; FiniteElement, RefElement &gt;</text>
</g>
<!-- Node8 -->
<g id="node8" class="node">
<title>Node8</title>
<g id="a_node8"><a xlink:href="structMoFEM_1_1interface__FiniteElement.html" target="_top" xlink:title=" ">
<polygon fill="white" stroke="black" points="1143,-0.5 1143,-30.5 1355,-30.5 1355,-0.5 1143,-0.5"/>
<text text-anchor="start" x="1151" y="-18.5" font-family="Helvetica,sans-Serif" font-size="10.00">MoFEM::interface_FiniteElement</text>
<text text-anchor="middle" x="1249" y="-7.5" font-family="Helvetica,sans-Serif" font-size="10.00">&lt; EntFiniteElement, EntFiniteElement &gt;</text>
</a>
</g>
</g>
<!-- Node1&#45;&gt;Node8 -->
<g id="edge8" class="edge">
<title>Node1&#45;&gt;Node8</title>
<path fill="none" stroke="orange" stroke-dasharray="5,2" d="M942.84,-22.82C951.31,-21.49 959.81,-20.34 968,-19.5 1025.55,-13.63 1090.1,-12.35 1142.71,-12.66"/>
<polygon fill="orange" stroke="orange" points="942.25,-19.37 932.95,-24.45 943.39,-26.27 942.25,-19.37"/>
<text text-anchor="start" x="996" y="-33.5" font-family="Helvetica,sans-Serif" font-size="10.00"> &lt; EntFiniteElement,</text>
<text text-anchor="middle" x="1046.5" y="-22.5" font-family="Helvetica,sans-Serif" font-size="10.00"> EntFiniteElement &gt;</text>
</g>
<!-- Node2 -->
<g id="node2" class="node">
<title>Node2</title>
<g id="a_node2"><a xlink:href="structMoFEM_1_1interface__RefElement.html" target="_top" xlink:title=" ">
<polygon fill="white" stroke="black" points="574,-24.5 574,-54.5 738,-54.5 738,-24.5 574,-24.5"/>
<text text-anchor="start" x="582" y="-42.5" font-family="Helvetica,sans-Serif" font-size="10.00">MoFEM::interface_RefElement</text>
<text text-anchor="middle" x="656" y="-31.5" font-family="Helvetica,sans-Serif" font-size="10.00">&lt; REFENT &gt;</text>
</a>
</g>
</g>
<!-- Node2&#45;&gt;Node1 -->
<g id="edge1" class="edge">
<title>Node2&#45;&gt;Node1</title>
<path fill="none" stroke="midnightblue" d="M748.36,-39.5C757.14,-39.5 766.03,-39.5 774.77,-39.5"/>
<polygon fill="midnightblue" stroke="midnightblue" points="748.12,-36 738.12,-39.5 748.12,-43 748.12,-36"/>
</g>
<!-- Node3 -->
<g id="node3" class="node">
<title>Node3</title>
<g id="a_node3"><a xlink:href="structMoFEM_1_1interface__RefEntity.html" target="_top" xlink:title=" ">
<polygon fill="white" stroke="black" points="301.5,-44.5 301.5,-74.5 453.5,-74.5 453.5,-44.5 301.5,-44.5"/>
<text text-anchor="start" x="309.5" y="-62.5" font-family="Helvetica,sans-Serif" font-size="10.00">MoFEM::interface_RefEntity</text>
<text text-anchor="middle" x="377.5" y="-51.5" font-family="Helvetica,sans-Serif" font-size="10.00">&lt; REFENT &gt;</text>
</a>
</g>
</g>
<!-- Node3&#45;&gt;Node2 -->
<g id="edge2" class="edge">
<title>Node3&#45;&gt;Node2</title>
<path fill="none" stroke="midnightblue" d="M463.87,-53.33C498.79,-50.8 539.01,-47.89 573.52,-45.39"/>
<polygon fill="midnightblue" stroke="midnightblue" points="463.41,-49.85 453.69,-54.06 463.92,-56.83 463.41,-49.85"/>
</g>
<!-- Node4 -->
<g id="node4" class="node">
<title>Node4</title>
<g id="a_node4"><a xlink:href="structMoFEM_1_1interface__RefEntity.html" target="_top" xlink:title="interface to RefEntity">
<polygon fill="white" stroke="black" points="0,-27 0,-46 181,-46 181,-27 0,-27"/>
<text text-anchor="middle" x="90.5" y="-34" font-family="Helvetica,sans-Serif" font-size="10.00">MoFEM::interface_RefEntity&lt; T &gt;</text>
</a>
</g>
</g>
<!-- Node4&#45;&gt;Node3 -->
<g id="edge3" class="edge">
<title>Node4&#45;&gt;Node3</title>
<path fill="none" stroke="orange" stroke-dasharray="5,2" d="M191.34,-44.56C227.38,-47.47 267.44,-50.7 301.05,-53.41"/>
<polygon fill="orange" stroke="orange" points="191.53,-41.06 181.28,-43.75 190.97,-48.04 191.53,-41.06"/>
<text text-anchor="middle" x="231" y="-53.5" font-family="Helvetica,sans-Serif" font-size="10.00"> &lt; REFENT &gt;</text>
</g>
<!-- Node5 -->
<g id="node5" class="node">
<title>Node5</title>
<g id="a_node5"><a xlink:href="structMoFEM_1_1interface__RefElement.html" target="_top" xlink:title="intrface to RefElement">
<polygon fill="white" stroke="black" points="281,-6 281,-25 474,-25 474,-6 281,-6"/>
<text text-anchor="middle" x="377.5" y="-13" font-family="Helvetica,sans-Serif" font-size="10.00">MoFEM::interface_RefElement&lt; T &gt;</text>
</a>
</g>
</g>
<!-- Node4&#45;&gt;Node5 -->
<g id="edge5" class="edge">
<title>Node4&#45;&gt;Node5</title>
<path fill="none" stroke="midnightblue" d="M191.43,-29.14C220.43,-27 252.02,-24.67 280.76,-22.55"/>
<polygon fill="midnightblue" stroke="midnightblue" points="191,-25.66 181.28,-29.88 191.51,-32.64 191,-25.66"/>
</g>
<!-- Node5&#45;&gt;Node2 -->
<g id="edge4" class="edge">
<title>Node5&#45;&gt;Node2</title>
<path fill="none" stroke="orange" stroke-dasharray="5,2" d="M484.03,-24.66C513.77,-27.24 545.64,-30.01 573.71,-32.44"/>
<polygon fill="orange" stroke="orange" points="484.31,-21.17 474.04,-23.79 483.7,-28.14 484.31,-21.17"/>
<text text-anchor="middle" x="524" y="-33.5" font-family="Helvetica,sans-Serif" font-size="10.00"> &lt; REFENT &gt;</text>
</g>
<!-- Node7 -->
<g id="node7" class="node">
<title>Node7</title>
<g id="a_node7"><a xlink:href="structMoFEM_1_1EntFiniteElement.html" target="_top" xlink:title="Finite element data for entity.">
<polygon fill="white" stroke="black" points="1402.5,-55 1402.5,-74 1544.5,-74 1544.5,-55 1402.5,-55"/>
<text text-anchor="middle" x="1473.5" y="-62" font-family="Helvetica,sans-Serif" font-size="10.00">MoFEM::EntFiniteElement</text>
</a>
</g>
</g>
<!-- Node6&#45;&gt;Node7 -->
<g id="edge7" class="edge">
<title>Node6&#45;&gt;Node7</title>
<path fill="none" stroke="midnightblue" d="M1346.67,-64.5C1365.35,-64.5 1384.59,-64.5 1402.23,-64.5"/>
<polygon fill="midnightblue" stroke="midnightblue" points="1346.66,-61 1336.66,-64.5 1346.66,-68 1346.66,-61"/>
</g>
<!-- Node9 -->
<g id="node9" class="node">
<title>Node9</title>
<g id="a_node9"><a xlink:href="structMoFEM_1_1interface__EntFiniteElement.html" target="_top" xlink:title=" ">
<polygon fill="white" stroke="black" points="1392,-0.5 1392,-30.5 1555,-30.5 1555,-0.5 1392,-0.5"/>
<text text-anchor="start" x="1400" y="-18.5" font-family="Helvetica,sans-Serif" font-size="10.00">MoFEM::interface_EntFinite</text>
<text text-anchor="middle" x="1473.5" y="-7.5" font-family="Helvetica,sans-Serif" font-size="10.00">Element&lt; EntFiniteElement &gt;</text>
</a>
</g>
</g>
<!-- Node8&#45;&gt;Node9 -->
<g id="edge9" class="edge">
<title>Node8&#45;&gt;Node9</title>
<path fill="none" stroke="midnightblue" d="M1365.22,-15.5C1374.22,-15.5 1383.19,-15.5 1391.88,-15.5"/>
<polygon fill="midnightblue" stroke="midnightblue" points="1365.06,-12 1355.06,-15.5 1365.06,-19 1365.06,-12"/>
</g>
<!-- Node10 -->
<g id="node10" class="node">
<title>Node10</title>
<g id="a_node10"><a xlink:href="structMoFEM_1_1NumeredEntFiniteElement.html" target="_top" xlink:title="Partitioned (Indexed) Finite Element in Problem.">
<polygon fill="white" stroke="black" points="1592,-6 1592,-25 1779,-25 1779,-6 1592,-6"/>
<text text-anchor="middle" x="1685.5" y="-13" font-family="Helvetica,sans-Serif" font-size="10.00">MoFEM::NumeredEntFiniteElement</text>
</a>
</g>
</g>
<!-- Node9&#45;&gt;Node10 -->
<g id="edge10" class="edge">
<title>Node9&#45;&gt;Node10</title>
<path fill="none" stroke="midnightblue" d="M1565.33,-15.5C1574.12,-15.5 1583.05,-15.5 1591.86,-15.5"/>
<polygon fill="midnightblue" stroke="midnightblue" points="1565.09,-12 1555.09,-15.5 1565.09,-19 1565.09,-12"/>
</g>
</g>
</svg>
