<?xml version="1.0" encoding="UTF-8" standalone="no"?>
<!DOCTYPE svg PUBLIC "-//W3C//DTD SVG 1.1//EN"
 "http://www.w3.org/Graphics/SVG/1.1/DTD/svg11.dtd">
<!-- Generated by graphviz version 2.43.0 (0)
 -->
<!-- Title: MetaSpringBC::SpringALEMaterialVolOnSideLhs_dX_dx Pages: 1 -->
<!--zoomable 1455 -->
<svg id="main" version="1.1" xmlns="http://www.w3.org/2000/svg" xmlns:xlink="http://www.w3.org/1999/xlink" xml:space="preserve" onload="init(evt)">
<style type="text/css"><![CDATA[
.edge:hover path { stroke: red; }
.edge:hover polygon { stroke: red; fill: red; }
]]></style>
<script type="text/javascript"><![CDATA[
var edges = document.getElementsByTagName('g');
if (edges && edges.length) {
  for (var i=0;i<edges.length;i++) {
    if (edges[i].id.substr(0,4)=='edge') {
      edges[i].setAttribute('class','edge');
    }
  }
}
]]></script>
        <defs>
                <circle id="rim" cx="0" cy="0" r="7"/>
                <circle id="rim2" cx="0" cy="0" r="3.5"/>
                <g id="zoomPlus">
                        <use xlink:href="#rim" fill="#404040">
                                <set attributeName="fill" to="#808080" begin="zoomplus.mouseover" end="zoomplus.mouseout"/>
                        </use>
                        <path d="M-4,0h8M0,-4v8" fill="none" stroke="white" stroke-width="1.5" pointer-events="none"/>
                </g>
                <g id="zoomMin">
                        <use xlink:href="#rim" fill="#404040">
                                <set attributeName="fill" to="#808080" begin="zoomminus.mouseover" end="zoomminus.mouseout"/>
                        </use>
                        <path d="M-4,0h8" fill="none" stroke="white" stroke-width="1.5" pointer-events="none"/>
                </g>
                <g id="dirArrow">
                        <path fill="none" stroke="white" stroke-width="1.5" d="M0,-3.0v7 M-2.5,-0.5L0,-3.0L2.5,-0.5"/>
                </g>
               <g id="resetDef">
                       <use xlink:href="#rim2" fill="#404040">
                               <set attributeName="fill" to="#808080" begin="reset.mouseover" end="reset.mouseout"/>
                       </use>
               </g>
        </defs>

<script type="text/javascript">
var viewWidth = 4045;
var viewHeight = 1455;
var sectionId = 'dynsection-1';
</script>
<script xlink:href="svgpan.js"/>
<svg id="graph" class="graph">
<g id="viewport">
<title>MetaSpringBC::SpringALEMaterialVolOnSideLhs_dX_dx</title>
<polygon fill="white" stroke="transparent" points="-4,4 -4,-1450.5 4041,-1450.5 4041,4 -4,4"/>
<!-- Node1 -->
<g id="node1" class="node">
<title>Node1</title>
<g id="a_node1"><a xlink:title="LHS&#45;operator (material configuration) on the side volume for spring element.">
<polygon fill="#bfbfbf" stroke="black" points="3856,-104.5 3856,-134.5 4037,-134.5 4037,-104.5 3856,-104.5"/>
<text text-anchor="start" x="3864" y="-122.5" font-family="Helvetica,sans-Serif" font-size="10.00">MetaSpringBC::SpringALEMaterial</text>
<text text-anchor="middle" x="3946.5" y="-111.5" font-family="Helvetica,sans-Serif" font-size="10.00">VolOnSideLhs_dX_dx</text>
</a>
</g>
</g>
<!-- Node2 -->
<g id="node2" class="node">
<title>Node2</title>
<g id="a_node2"><a xlink:href="structMetaSpringBC_1_1SpringALEMaterialVolOnSideLhs.html" target="_top" xlink:title="Base class for LHS&#45;operators (material) on side volumes.">
<polygon fill="white" stroke="black" points="3638,-104.5 3638,-134.5 3819,-134.5 3819,-104.5 3638,-104.5"/>
<text text-anchor="start" x="3646" y="-122.5" font-family="Helvetica,sans-Serif" font-size="10.00">MetaSpringBC::SpringALEMaterial</text>
<text text-anchor="middle" x="3728.5" y="-111.5" font-family="Helvetica,sans-Serif" font-size="10.00">VolOnSideLhs</text>
</a>
</g>
</g>
<!-- Node2&#45;&gt;Node1 -->
<g id="edge1" class="edge">
<title>Node2&#45;&gt;Node1</title>
<path fill="none" stroke="midnightblue" d="M3829.46,-119.5C3838.21,-119.5 3847.04,-119.5 3855.7,-119.5"/>
<polygon fill="midnightblue" stroke="midnightblue" points="3829.23,-116 3819.23,-119.5 3829.23,-123 3829.23,-116"/>
</g>
<!-- Node3 -->
<g id="node3" class="node">
<title>Node3</title>
<g id="a_node3"><a xlink:href="structMoFEM_1_1VolumeElementForcesAndSourcesCoreOnSide_1_1UserDataOperator.html" target="_top" xlink:title="default operator for TET element">
<polygon fill="white" stroke="black" points="3356.5,-250 3356.5,-269 3511.5,-269 3511.5,-250 3356.5,-250"/>
<text text-anchor="middle" x="3434" y="-257" font-family="Helvetica,sans-Serif" font-size="10.00">VolOnSideUserDataOperator</text>
</a>
</g>
</g>
<!-- Node3&#45;&gt;Node2 -->
<g id="edge2" class="edge">
<title>Node3&#45;&gt;Node2</title>
<path fill="none" stroke="midnightblue" d="M3522.14,-258.59C3554.34,-255.29 3590.22,-247.92 3620,-232.5 3664.97,-209.22 3701.6,-159.66 3718.08,-134.63"/>
<polygon fill="midnightblue" stroke="midnightblue" points="3521.47,-255.14 3511.83,-259.53 3522.1,-262.11 3521.47,-255.14"/>
</g>
<!-- Node4 -->
<g id="node4" class="node">
<title>Node4</title>
<g id="a_node4"><a xlink:href="structMoFEM_1_1VolumeElementForcesAndSourcesCore_1_1UserDataOperator.html" target="_top" xlink:title=" ">
<polygon fill="white" stroke="black" points="3120,-472.5 3120,-502.5 3311,-502.5 3311,-472.5 3120,-472.5"/>
<text text-anchor="start" x="3128" y="-490.5" font-family="Helvetica,sans-Serif" font-size="10.00">MoFEM::VolumeElementForces</text>
<text text-anchor="middle" x="3215.5" y="-479.5" font-family="Helvetica,sans-Serif" font-size="10.00">AndSourcesCore::UserDataOperator</text>
</a>
</g>
</g>
<!-- Node4&#45;&gt;Node3 -->
<g id="edge3" class="edge">
<title>Node4&#45;&gt;Node3</title>
<path fill="none" stroke="midnightblue" d="M3238.19,-464.66C3284.53,-415.86 3391.55,-303.15 3423.7,-269.29"/>
<polygon fill="midnightblue" stroke="midnightblue" points="3235.39,-462.52 3231.04,-472.19 3240.47,-467.34 3235.39,-462.52"/>
</g>
<!-- Node5 -->
<g id="node5" class="node">
<title>Node5</title>
<g id="a_node5"><a xlink:href="structMoFEM_1_1ForcesAndSourcesCore_1_1UserDataOperator.html" target="_top" xlink:title=" ">
<polygon fill="white" stroke="black" points="2837,-698.5 2837,-728.5 3007,-728.5 3007,-698.5 2837,-698.5"/>
<text text-anchor="start" x="2845" y="-716.5" font-family="Helvetica,sans-Serif" font-size="10.00">MoFEM::ForcesAndSourcesCore</text>
<text text-anchor="middle" x="2922" y="-705.5" font-family="Helvetica,sans-Serif" font-size="10.00">::UserDataOperator</text>
</a>
</g>
</g>
<!-- Node5&#45;&gt;Node4 -->
<g id="edge4" class="edge">
<title>Node5&#45;&gt;Node4</title>
<path fill="none" stroke="midnightblue" d="M2950.64,-692.07C3009.19,-646.67 3144.49,-541.78 3195.01,-502.61"/>
<polygon fill="midnightblue" stroke="midnightblue" points="2948.34,-689.43 2942.58,-698.32 2952.63,-694.96 2948.34,-689.43"/>
</g>
<!-- Node6 -->
<g id="node6" class="node">
<title>Node6</title>
<g id="a_node6"><a xlink:href="structMoFEM_1_1DataOperator.html" target="_top" xlink:title="base operator to do operations at Gauss Pt. level">
<polygon fill="white" stroke="black" points="2579.5,-377 2579.5,-396 2704.5,-396 2704.5,-377 2579.5,-377"/>
<text text-anchor="middle" x="2642" y="-384" font-family="Helvetica,sans-Serif" font-size="10.00">MoFEM::DataOperator</text>
</a>
</g>
</g>
<!-- Node6&#45;&gt;Node5 -->
<g id="edge5" class="edge">
<title>Node6&#45;&gt;Node5</title>
<path fill="none" stroke="midnightblue" d="M2658.01,-404.16C2707.13,-461.93 2862.47,-644.65 2908.21,-698.45"/>
<polygon fill="midnightblue" stroke="midnightblue" points="2660.46,-401.64 2651.32,-396.29 2655.13,-406.17 2660.46,-401.64"/>
</g>
<!-- Node7 -->
<g id="node7" class="node">
<title>Node7</title>
<g id="a_node7"><a xlink:title=" ">
<polygon fill="white" stroke="#bfbfbf" points="2160,-316.5 2160,-368.5 2352,-368.5 2352,-316.5 2160,-316.5"/>
<text text-anchor="start" x="2168" y="-356.5" font-family="Helvetica,sans-Serif" font-size="10.00">function&lt; MoFEMErrorCode</text>
<text text-anchor="start" x="2168" y="-345.5" font-family="Helvetica,sans-Serif" font-size="10.00">(DataOperator *op_ptr,</text>
<text text-anchor="start" x="2168" y="-334.5" font-family="Helvetica,sans-Serif" font-size="10.00"> int side, EntityType type,</text>
<text text-anchor="middle" x="2256" y="-323.5" font-family="Helvetica,sans-Serif" font-size="10.00"> EntitiesFieldData::EntData &amp;data)&gt;</text>
</a>
</g>
</g>
<!-- Node7&#45;&gt;Node6 -->
<g id="edge6" class="edge">
<title>Node7&#45;&gt;Node6</title>
<path fill="none" stroke="#9a32cd" stroke-dasharray="5,2" d="M2362.36,-362.42C2367.3,-363.16 2372.2,-363.86 2377,-364.5 2446.07,-373.69 2525.85,-379.71 2579.47,-383.09"/>
<polygon fill="#9a32cd" stroke="#9a32cd" points="2362.59,-358.91 2352.17,-360.83 2361.51,-365.83 2362.59,-358.91"/>
<text text-anchor="middle" x="2458" y="-382.5" font-family="Helvetica,sans-Serif" font-size="10.00"> doWorkRhsHook</text>
</g>
<!-- Node8 -->
<g id="node8" class="node">
<title>Node8</title>
<g id="a_node8"><a xlink:href="classbool.html" target="_top" xlink:title=" ">
<polygon fill="white" stroke="black" points="2237,-278 2237,-297 2275,-297 2275,-278 2237,-278"/>
<text text-anchor="middle" x="2256" y="-285" font-family="Helvetica,sans-Serif" font-size="10.00">bool</text>
</a>
</g>
</g>
<!-- Node8&#45;&gt;Node2 -->
<g id="edge87" class="edge">
<title>Node8&#45;&gt;Node2</title>
<path fill="none" stroke="#9a32cd" stroke-dasharray="5,2" d="M2285.25,-288.76C2307.38,-288.33 2337.86,-284.43 2359,-268.5 2373.29,-257.74 2362.04,-242.3 2377,-232.5 2475.28,-168.1 2523.5,-218.5 2641,-218.5 2641,-218.5 2641,-218.5 3435,-218.5 3538.47,-218.5 3652.18,-162.23 3701.87,-134.54"/>
<polygon fill="#9a32cd" stroke="#9a32cd" points="2285.14,-285.26 2275.13,-288.74 2285.12,-292.26 2285.14,-285.26"/>
<text text-anchor="middle" x="3063.5" y="-221.5" font-family="Helvetica,sans-Serif" font-size="10.00"> diagonal_block</text>
</g>
<!-- Node8&#45;&gt;Node6 -->
<g id="edge7" class="edge">
<title>Node8&#45;&gt;Node6</title>
<path fill="none" stroke="#9a32cd" stroke-dasharray="5,2" d="M2285.54,-284.26C2347.81,-277.63 2493.92,-264.7 2539,-283.5 2585.69,-302.97 2621.94,-355.36 2635.36,-376.98"/>
<polygon fill="#9a32cd" stroke="#9a32cd" points="2284.83,-280.81 2275.27,-285.37 2285.59,-287.77 2284.83,-280.81"/>
<text text-anchor="middle" x="2458" y="-352.5" font-family="Helvetica,sans-Serif" font-size="10.00"> doTris</text>
<text text-anchor="middle" x="2458" y="-341.5" font-family="Helvetica,sans-Serif" font-size="10.00">doQuads</text>
<text text-anchor="middle" x="2458" y="-330.5" font-family="Helvetica,sans-Serif" font-size="10.00">sYmm</text>
<text text-anchor="middle" x="2458" y="-319.5" font-family="Helvetica,sans-Serif" font-size="10.00">doPrisms</text>
<text text-anchor="middle" x="2458" y="-308.5" font-family="Helvetica,sans-Serif" font-size="10.00">doTets</text>
<text text-anchor="middle" x="2458" y="-297.5" font-family="Helvetica,sans-Serif" font-size="10.00">doVertices</text>
<text text-anchor="middle" x="2458" y="-286.5" font-family="Helvetica,sans-Serif" font-size="10.00">doEdges</text>
</g>
<!-- Node9 -->
<g id="node9" class="node">
<title>Node9</title>
<g id="a_node9"><a xlink:title=" ">
<polygon fill="white" stroke="#bfbfbf" points="2153,-388 2153,-473 2359,-473 2359,-388 2153,-388"/>
<text text-anchor="start" x="2161" y="-461" font-family="Helvetica,sans-Serif" font-size="10.00">function&lt; MoFEMErrorCode</text>
<text text-anchor="start" x="2161" y="-450" font-family="Helvetica,sans-Serif" font-size="10.00">(DataOperator *op_ptr,</text>
<text text-anchor="start" x="2161" y="-439" font-family="Helvetica,sans-Serif" font-size="10.00"> int row_side, int col_side,</text>
<text text-anchor="start" x="2161" y="-428" font-family="Helvetica,sans-Serif" font-size="10.00"> EntityType row_type, EntityType</text>
<text text-anchor="start" x="2161" y="-417" font-family="Helvetica,sans-Serif" font-size="10.00"> col_type, EntitiesFieldData::EntData</text>
<text text-anchor="start" x="2161" y="-406" font-family="Helvetica,sans-Serif" font-size="10.00"> &amp;row_data, EntitiesFieldData::EntData</text>
<text text-anchor="middle" x="2256" y="-395" font-family="Helvetica,sans-Serif" font-size="10.00"> &amp;col_data)&gt;</text>
</a>
</g>
</g>
<!-- Node9&#45;&gt;Node6 -->
<g id="edge8" class="edge">
<title>Node9&#45;&gt;Node6</title>
<path fill="none" stroke="#9a32cd" stroke-dasharray="5,2" d="M2369.14,-417.65C2437.68,-409.8 2522.76,-400.05 2579.3,-393.57"/>
<polygon fill="#9a32cd" stroke="#9a32cd" points="2368.69,-414.18 2359.15,-418.8 2369.48,-421.13 2368.69,-414.18"/>
<text text-anchor="middle" x="2458" y="-418.5" font-family="Helvetica,sans-Serif" font-size="10.00"> doWorkLhsHook</text>
</g>
<!-- Node10 -->
<g id="node10" class="node">
<title>Node10</title>
<g id="a_node10"><a xlink:title=" ">
<polygon fill="white" stroke="#bfbfbf" points="2179,-240 2179,-259 2333,-259 2333,-240 2179,-240"/>
<text text-anchor="middle" x="2256" y="-247" font-family="Helvetica,sans-Serif" font-size="10.00">array&lt; bool, MBMAXTYPE &gt;</text>
</a>
</g>
</g>
<!-- Node10&#45;&gt;Node6 -->
<g id="edge9" class="edge">
<title>Node10&#45;&gt;Node6</title>
<path fill="none" stroke="#9a32cd" stroke-dasharray="5,2" d="M2311.74,-238.28C2371.09,-228.96 2466.98,-222.38 2539,-258.5 2591.32,-284.74 2625.49,-351.63 2636.83,-376.76"/>
<polygon fill="#9a32cd" stroke="#9a32cd" points="2311.11,-234.83 2301.81,-239.92 2312.25,-241.74 2311.11,-234.83"/>
<text text-anchor="middle" x="2458" y="-261.5" font-family="Helvetica,sans-Serif" font-size="10.00"> doEntities</text>
</g>
<!-- Node11 -->
<g id="node11" class="node">
<title>Node11</title>
<g id="a_node11"><a xlink:title=" ">
<polygon fill="white" stroke="#bfbfbf" points="2607.5,-666 2607.5,-685 2676.5,-685 2676.5,-666 2607.5,-666"/>
<text text-anchor="middle" x="2642" y="-673" font-family="Helvetica,sans-Serif" font-size="10.00">FieldSpace</text>
</a>
</g>
</g>
<!-- Node11&#45;&gt;Node5 -->
<g id="edge10" class="edge">
<title>Node11&#45;&gt;Node5</title>
<path fill="none" stroke="#9a32cd" stroke-dasharray="5,2" d="M2686.82,-681.03C2722.45,-685.57 2774,-692.25 2819,-698.5 2824.85,-699.31 2830.89,-700.16 2836.97,-701.03"/>
<polygon fill="#9a32cd" stroke="#9a32cd" points="2687.12,-677.54 2676.76,-679.75 2686.24,-684.48 2687.12,-677.54"/>
<text text-anchor="middle" x="2782" y="-701.5" font-family="Helvetica,sans-Serif" font-size="10.00"> sPace</text>
</g>
<!-- Node12 -->
<g id="node12" class="node">
<title>Node12</title>
<g id="a_node12"><a xlink:title=" ">
<polygon fill="white" stroke="#bfbfbf" points="1122.5,-1307 1122.5,-1326 1160.5,-1326 1160.5,-1307 1122.5,-1307"/>
<text text-anchor="middle" x="1141.5" y="-1314" font-family="Helvetica,sans-Serif" font-size="10.00">char</text>
</a>
</g>
</g>
<!-- Node12&#45;&gt;Node5 -->
<g id="edge11" class="edge">
<title>Node12&#45;&gt;Node5</title>
<path fill="none" stroke="#9a32cd" stroke-dasharray="5,2" d="M1170.82,-1317.04C1230.98,-1318.13 1375.94,-1320.5 1497.5,-1320.5 1497.5,-1320.5 1497.5,-1320.5 2643,-1320.5 2911.91,-1320.5 2921.74,-821.98 2921.22,-728.5"/>
<polygon fill="#9a32cd" stroke="#9a32cd" points="1170.66,-1313.53 1160.6,-1316.85 1170.54,-1320.53 1170.66,-1313.53"/>
<text text-anchor="middle" x="2063" y="-1323.5" font-family="Helvetica,sans-Serif" font-size="10.00"> opType</text>
</g>
<!-- Node40 -->
<g id="node40" class="node">
<title>Node40</title>
<g id="a_node40"><a xlink:href="structMoFEM_1_1Problem.html" target="_top" xlink:title="keeps basic data about problem">
<polygon fill="white" stroke="black" points="1449,-999 1449,-1018 1548,-1018 1548,-999 1449,-999"/>
<text text-anchor="middle" x="1498.5" y="-1006" font-family="Helvetica,sans-Serif" font-size="10.00">MoFEM::Problem</text>
</a>
</g>
</g>
<!-- Node12&#45;&gt;Node40 -->
<g id="edge55" class="edge">
<title>Node12&#45;&gt;Node40</title>
<path fill="none" stroke="#9a32cd" stroke-dasharray="5,2" d="M1170.41,-1311.49C1194.41,-1307.2 1229.98,-1300.87 1261,-1295.5 1291.2,-1290.27 1376.37,-1295.17 1397,-1272.5 1433.74,-1232.12 1379.46,-1068.94 1415,-1027.5 1423.52,-1017.57 1436.08,-1012.25 1448.85,-1009.53"/>
<polygon fill="#9a32cd" stroke="#9a32cd" points="1169.79,-1308.05 1160.56,-1313.25 1171.02,-1314.94 1169.79,-1308.05"/>
<text text-anchor="middle" x="1329" y="-1298.5" font-family="Helvetica,sans-Serif" font-size="10.00"> tagName</text>
</g>
<!-- Node13 -->
<g id="node13" class="node">
<title>Node13</title>
<g id="a_node13"><a xlink:href="structMoFEM_1_1ForcesAndSourcesCore.html" target="_top" xlink:title="structure to get information form mofem into EntitiesFieldData">
<polygon fill="white" stroke="black" points="2557,-742 2557,-761 2727,-761 2727,-742 2557,-742"/>
<text text-anchor="middle" x="2642" y="-749" font-family="Helvetica,sans-Serif" font-size="10.00">MoFEM::ForcesAndSourcesCore</text>
</a>
</g>
</g>
<!-- Node13&#45;&gt;Node5 -->
<g id="edge12" class="edge">
<title>Node13&#45;&gt;Node5</title>
<path fill="none" stroke="#9a32cd" stroke-dasharray="5,2" d="M2722.84,-740.63C2752.98,-736.52 2787.57,-731.8 2819,-727.5 2824.84,-726.7 2830.88,-725.87 2836.95,-725.04"/>
<polygon fill="#9a32cd" stroke="#9a32cd" points="2722.24,-737.18 2712.81,-742 2723.19,-744.11 2722.24,-737.18"/>
<text text-anchor="middle" x="2782" y="-739.5" font-family="Helvetica,sans-Serif" font-size="10.00"> ptrFE</text>
</g>
<!-- Node13&#45;&gt;Node13 -->
<g id="edge70" class="edge">
<title>Node13&#45;&gt;Node13</title>
<path fill="none" stroke="#9a32cd" stroke-dasharray="5,2" d="M2615.96,-770.53C2617.38,-775.63 2626.06,-779.5 2642,-779.5 2666.88,-779.5 2674.08,-770.07 2663.58,-761.26"/>
<polygon fill="#9a32cd" stroke="#9a32cd" points="2619.24,-771.79 2620.42,-761.26 2612.93,-768.75 2619.24,-771.79"/>
<text text-anchor="middle" x="2642" y="-793.5" font-family="Helvetica,sans-Serif" font-size="10.00"> sidePtrFE</text>
<text text-anchor="middle" x="2642" y="-782.5" font-family="Helvetica,sans-Serif" font-size="10.00">refinePtrFE</text>
</g>
<!-- Node14 -->
<g id="node14" class="node">
<title>Node14</title>
<g id="a_node14"><a xlink:href="structMoFEM_1_1FEMethod.html" target="_top" xlink:title="structure for User Loop Methods on finite elements">
<polygon fill="white" stroke="black" points="2202.5,-973 2202.5,-992 2309.5,-992 2309.5,-973 2202.5,-973"/>
<text text-anchor="middle" x="2256" y="-980" font-family="Helvetica,sans-Serif" font-size="10.00">MoFEM::FEMethod</text>
</a>
</g>
</g>
<!-- Node14&#45;&gt;Node13 -->
<g id="edge13" class="edge">
<title>Node14&#45;&gt;Node13</title>
<path fill="none" stroke="midnightblue" d="M2319.97,-991.09C2381.33,-996.05 2474.55,-994.14 2539,-949.5 2607.66,-901.94 2633.07,-793.68 2639.34,-761.01"/>
<polygon fill="midnightblue" stroke="midnightblue" points="2319.93,-987.58 2309.65,-990.17 2319.3,-994.55 2319.93,-987.58"/>
</g>
<!-- Node15 -->
<g id="node15" class="node">
<title>Node15</title>
<g id="a_node15"><a xlink:href="structMoFEM_1_1BasicMethod.html" target="_top" xlink:title="Data structure to exchange data between mofem and User Loop Methods.">
<polygon fill="white" stroke="black" points="1825,-940 1825,-959 1947,-959 1947,-940 1825,-940"/>
<text text-anchor="middle" x="1886" y="-947" font-family="Helvetica,sans-Serif" font-size="10.00">MoFEM::BasicMethod</text>
</a>
</g>
</g>
<!-- Node15&#45;&gt;Node14 -->
<g id="edge14" class="edge">
<title>Node15&#45;&gt;Node14</title>
<path fill="none" stroke="midnightblue" d="M1957.63,-955.83C2029.14,-962.25 2138.1,-972.02 2202.37,-977.78"/>
<polygon fill="midnightblue" stroke="midnightblue" points="1957.63,-952.32 1947.36,-954.91 1957,-959.29 1957.63,-952.32"/>
</g>
<!-- Node16 -->
<g id="node16" class="node">
<title>Node16</title>
<g id="a_node16"><a xlink:href="structMoFEM_1_1KspMethod.html" target="_top" xlink:title="data structure for ksp (linear solver) context">
<polygon fill="white" stroke="black" points="1442,-290 1442,-309 1555,-309 1555,-290 1442,-290"/>
<text text-anchor="middle" x="1498.5" y="-297" font-family="Helvetica,sans-Serif" font-size="10.00">MoFEM::KspMethod</text>
</a>
</g>
</g>
<!-- Node16&#45;&gt;Node15 -->
<g id="edge15" class="edge">
<title>Node16&#45;&gt;Node15</title>
<path fill="none" stroke="midnightblue" d="M1525.69,-314.26C1584.17,-348.89 1724.66,-441.71 1781,-563.5 1798.14,-600.55 1772.66,-899.31 1799,-930.5 1805.71,-938.44 1814.92,-943.51 1824.83,-946.66"/>
<polygon fill="midnightblue" stroke="midnightblue" points="1527.44,-311.23 1517.03,-309.21 1523.91,-317.27 1527.44,-311.23"/>
</g>
<!-- Node17 -->
<g id="node17" class="node">
<title>Node17</title>
<g id="a_node17"><a xlink:href="structMoFEM_1_1PetscData.html" target="_top" xlink:title=" ">
<polygon fill="white" stroke="black" points="1087.5,-479 1087.5,-498 1195.5,-498 1195.5,-479 1087.5,-479"/>
<text text-anchor="middle" x="1141.5" y="-486" font-family="Helvetica,sans-Serif" font-size="10.00">MoFEM::PetscData</text>
</a>
</g>
</g>
<!-- Node17&#45;&gt;Node16 -->
<g id="edge16" class="edge">
<title>Node17&#45;&gt;Node16</title>
<path fill="none" stroke="midnightblue" d="M1205.64,-487.06C1219.25,-484.06 1232.63,-478.7 1243,-469.5 1262.87,-451.87 1243.57,-432.55 1261,-412.5 1312.19,-353.6 1400.94,-322.9 1453.94,-309.05"/>
<polygon fill="midnightblue" stroke="midnightblue" points="1204.96,-483.62 1195.74,-488.85 1206.2,-490.51 1204.96,-483.62"/>
</g>
<!-- Node27 -->
<g id="node27" class="node">
<title>Node27</title>
<g id="a_node27"><a xlink:href="structMoFEM_1_1SnesMethod.html" target="_top" xlink:title="data structure for snes (nonlinear solver) context">
<polygon fill="white" stroke="black" points="1439,-454 1439,-473 1558,-473 1558,-454 1439,-454"/>
<text text-anchor="middle" x="1498.5" y="-461" font-family="Helvetica,sans-Serif" font-size="10.00">MoFEM::SnesMethod</text>
</a>
</g>
</g>
<!-- Node17&#45;&gt;Node27 -->
<g id="edge29" class="edge">
<title>Node17&#45;&gt;Node27</title>
<path fill="none" stroke="darkgreen" d="M1205.93,-484.03C1272.03,-479.38 1374.74,-472.14 1438.96,-467.62"/>
<polygon fill="darkgreen" stroke="darkgreen" points="1205.38,-480.56 1195.65,-484.76 1205.87,-487.55 1205.38,-480.56"/>
</g>
<!-- Node30 -->
<g id="node30" class="node">
<title>Node30</title>
<g id="a_node30"><a xlink:href="structMoFEM_1_1TSMethod.html" target="_top" xlink:title="data structure for TS (time stepping) context">
<polygon fill="white" stroke="black" points="1445,-761 1445,-780 1552,-780 1552,-761 1445,-761"/>
<text text-anchor="middle" x="1498.5" y="-768" font-family="Helvetica,sans-Serif" font-size="10.00">MoFEM::TSMethod</text>
</a>
</g>
</g>
<!-- Node17&#45;&gt;Node30 -->
<g id="edge35" class="edge">
<title>Node17&#45;&gt;Node30</title>
<path fill="none" stroke="darkgreen" d="M1206,-488.45C1271.48,-489.66 1368,-495.31 1397,-517.5 1479.77,-580.82 1494.51,-722.76 1497.01,-760.91"/>
<polygon fill="darkgreen" stroke="darkgreen" points="1205.83,-484.95 1195.78,-488.3 1205.72,-491.95 1205.83,-484.95"/>
</g>
<!-- Node18 -->
<g id="node18" class="node">
<title>Node18</title>
<g id="a_node18"><a xlink:href="structMoFEM_1_1UnknownInterface.html" target="_top" xlink:title="base class for all interface classes">
<polygon fill="white" stroke="black" points="735,-339 735,-358 883,-358 883,-339 735,-339"/>
<text text-anchor="middle" x="809" y="-346" font-family="Helvetica,sans-Serif" font-size="10.00">MoFEM::UnknownInterface</text>
</a>
</g>
</g>
<!-- Node18&#45;&gt;Node17 -->
<g id="edge17" class="edge">
<title>Node18&#45;&gt;Node17</title>
<path fill="none" stroke="midnightblue" d="M872.08,-337.9C919.24,-333.63 982.52,-336.61 1022,-373.5 1053.72,-403.13 1009.33,-438.78 1040,-469.5 1052.42,-481.94 1070.27,-487.6 1087.48,-489.86"/>
<polygon fill="midnightblue" stroke="midnightblue" points="871.56,-334.44 861.98,-338.95 872.28,-341.4 871.56,-334.44"/>
</g>
<!-- Node58 -->
<g id="node58" class="node">
<title>Node58</title>
<g id="a_node58"><a xlink:href="structMoFEM_1_1CoreInterface.html" target="_top" xlink:title="Interface.">
<polygon fill="white" stroke="black" points="1079,-88 1079,-107 1204,-107 1204,-88 1079,-88"/>
<text text-anchor="middle" x="1141.5" y="-95" font-family="Helvetica,sans-Serif" font-size="10.00">MoFEM::CoreInterface</text>
</a>
</g>
</g>
<!-- Node18&#45;&gt;Node58 -->
<g id="edge69" class="edge">
<title>Node18&#45;&gt;Node58</title>
<path fill="none" stroke="midnightblue" d="M818.62,-329.73C832.69,-300.56 862.9,-243.71 901,-205.5 952.8,-153.56 971.83,-143.59 1040,-116.5 1052.21,-111.65 1065.76,-108.01 1078.85,-105.3"/>
<polygon fill="midnightblue" stroke="midnightblue" points="815.43,-328.28 814.32,-338.82 821.76,-331.27 815.43,-328.28"/>
</g>
<!-- Node19 -->
<g id="node19" class="node">
<title>Node19</title>
<g id="a_node19"><a xlink:title=" ">
<polygon fill="white" stroke="#bfbfbf" points="386,-1028 386,-1091 627,-1091 627,-1028 386,-1028"/>
<text text-anchor="start" x="394" y="-1079" font-family="Helvetica,sans-Serif" font-size="10.00">multi_index_container</text>
<text text-anchor="start" x="394" y="-1068" font-family="Helvetica,sans-Serif" font-size="10.00">&lt; UIdTypeMap, indexed</text>
<text text-anchor="start" x="394" y="-1057" font-family="Helvetica,sans-Serif" font-size="10.00">_by&lt; hashed_unique&lt; member</text>
<text text-anchor="start" x="394" y="-1046" font-family="Helvetica,sans-Serif" font-size="10.00">&lt; UIdTypeMap, boost::typeindex</text>
<text text-anchor="middle" x="506.5" y="-1035" font-family="Helvetica,sans-Serif" font-size="10.00">::type_index, &amp;UIdTypeMap::classIdx &gt; &gt; &gt; &gt;</text>
</a>
</g>
</g>
<!-- Node19&#45;&gt;Node18 -->
<g id="edge18" class="edge">
<title>Node19&#45;&gt;Node18</title>
<path fill="none" stroke="#9a32cd" stroke-dasharray="5,2" d="M509.6,-1017.65C517.67,-900.72 556.05,-566.8 735,-377.5 743.43,-368.58 754.96,-362.35 766.36,-358.02"/>
<polygon fill="#9a32cd" stroke="#9a32cd" points="506.11,-1017.42 508.95,-1027.63 513.09,-1017.88 506.11,-1017.42"/>
<text text-anchor="middle" x="681" y="-505.5" font-family="Helvetica,sans-Serif" font-size="10.00"> iFaceTypeMap</text>
</g>
<!-- Node20 -->
<g id="node20" class="node">
<title>Node20</title>
<g id="a_node20"><a xlink:title=" ">
<polygon fill="white" stroke="#bfbfbf" points="0,-1199 0,-1218 125,-1218 125,-1199 0,-1199"/>
<text text-anchor="middle" x="62.5" y="-1206" font-family="Helvetica,sans-Serif" font-size="10.00">multi_index_container</text>
</a>
</g>
</g>
<!-- Node20&#45;&gt;Node15 -->
<g id="edge42" class="edge">
<title>Node20&#45;&gt;Node15</title>
<path fill="none" stroke="#9a32cd" stroke-dasharray="5,2" d="M88.06,-1223.24C153.46,-1261.04 338.28,-1358.5 505.5,-1358.5 505.5,-1358.5 505.5,-1358.5 1330,-1358.5 1549.09,-1358.5 1652.84,-1337.19 1781,-1159.5 1805.81,-1125.1 1771.09,-1001.43 1799,-969.5 1805.76,-961.77 1814.87,-956.71 1824.64,-953.46"/>
<polygon fill="#9a32cd" stroke="#9a32cd" points="89.69,-1220.14 79.29,-1218.11 86.16,-1226.18 89.69,-1220.14"/>
<text text-anchor="middle" x="961.5" y="-1438.5" font-family="Helvetica,sans-Serif" font-size="10.00"> adjacenciesPtr</text>
<text text-anchor="middle" x="961.5" y="-1427.5" font-family="Helvetica,sans-Serif" font-size="10.00">refinedEntitiesPtr</text>
<text text-anchor="middle" x="961.5" y="-1416.5" font-family="Helvetica,sans-Serif" font-size="10.00">finiteElementsEntitiesPtr</text>
<text text-anchor="middle" x="961.5" y="-1405.5" font-family="Helvetica,sans-Serif" font-size="10.00">dofsPtr</text>
<text text-anchor="middle" x="961.5" y="-1394.5" font-family="Helvetica,sans-Serif" font-size="10.00">entitiesPtr</text>
<text text-anchor="middle" x="961.5" y="-1383.5" font-family="Helvetica,sans-Serif" font-size="10.00">finiteElementsPtr</text>
<text text-anchor="middle" x="961.5" y="-1372.5" font-family="Helvetica,sans-Serif" font-size="10.00">refinedFiniteElementsPtr</text>
<text text-anchor="middle" x="961.5" y="-1361.5" font-family="Helvetica,sans-Serif" font-size="10.00">fieldsPtr</text>
</g>
<!-- Node20&#45;&gt;Node19 -->
<g id="edge19" class="edge">
<title>Node20&#45;&gt;Node19</title>
<path fill="none" stroke="orange" stroke-dasharray="5,2" d="M101.32,-1195.75C169.64,-1172.72 315.45,-1123.57 411.98,-1091.03"/>
<polygon fill="orange" stroke="orange" points="100.18,-1192.44 91.82,-1198.95 102.42,-1199.07 100.18,-1192.44"/>
<text text-anchor="start" x="143" y="-1215.5" font-family="Helvetica,sans-Serif" font-size="10.00"> &lt; UIdTypeMap, indexed</text>
<text text-anchor="start" x="143" y="-1204.5" font-family="Helvetica,sans-Serif" font-size="10.00">_by&lt; hashed_unique&lt; member</text>
<text text-anchor="start" x="143" y="-1193.5" font-family="Helvetica,sans-Serif" font-size="10.00">&lt; UIdTypeMap, boost::typeindex</text>
<text text-anchor="middle" x="255.5" y="-1182.5" font-family="Helvetica,sans-Serif" font-size="10.00">::type_index, &amp;UIdTypeMap::classIdx &gt; &gt; &gt; &gt;</text>
</g>
<!-- Node21 -->
<g id="node21" class="node">
<title>Node21</title>
<g id="a_node21"><a xlink:title=" ">
<polygon fill="white" stroke="#bfbfbf" points="738.5,-467 738.5,-486 879.5,-486 879.5,-467 738.5,-467"/>
<text text-anchor="middle" x="809" y="-474" font-family="Helvetica,sans-Serif" font-size="10.00">static constexpr Switches</text>
</a>
</g>
</g>
<!-- Node21&#45;&gt;Node17 -->
<g id="edge20" class="edge">
<title>Node21&#45;&gt;Node17</title>
<path fill="none" stroke="#9a32cd" stroke-dasharray="5,2" d="M889.91,-475.22C929.64,-475.01 978.37,-475.38 1022,-477.5 1043.46,-478.54 1067.04,-480.56 1087.48,-482.58"/>
<polygon fill="#9a32cd" stroke="#9a32cd" points="889.72,-471.72 879.74,-475.29 889.77,-478.72 889.72,-471.72"/>
<text text-anchor="middle" x="961.5" y="-557.5" font-family="Helvetica,sans-Serif" font-size="10.00"> CtxSetX_TT</text>
<text text-anchor="middle" x="961.5" y="-546.5" font-family="Helvetica,sans-Serif" font-size="10.00">CtxSetX_T</text>
<text text-anchor="middle" x="961.5" y="-535.5" font-family="Helvetica,sans-Serif" font-size="10.00">CtxSetA</text>
<text text-anchor="middle" x="961.5" y="-524.5" font-family="Helvetica,sans-Serif" font-size="10.00">CtxSetB</text>
<text text-anchor="middle" x="961.5" y="-513.5" font-family="Helvetica,sans-Serif" font-size="10.00">CtxSetTime</text>
<text text-anchor="middle" x="961.5" y="-502.5" font-family="Helvetica,sans-Serif" font-size="10.00">CtxSetNone</text>
<text text-anchor="middle" x="961.5" y="-491.5" font-family="Helvetica,sans-Serif" font-size="10.00">CtxSetF</text>
<text text-anchor="middle" x="961.5" y="-480.5" font-family="Helvetica,sans-Serif" font-size="10.00">CtxSetX</text>
</g>
<!-- Node22 -->
<g id="node22" class="node">
<title>Node22</title>
<g id="a_node22"><a xlink:title=" ">
<polygon fill="white" stroke="#bfbfbf" points="791.5,-387 791.5,-406 826.5,-406 826.5,-387 791.5,-387"/>
<text text-anchor="middle" x="809" y="-394" font-family="Helvetica,sans-Serif" font-size="10.00">Mat</text>
</a>
</g>
</g>
<!-- Node22&#45;&gt;Node16 -->
<g id="edge26" class="edge">
<title>Node22&#45;&gt;Node16</title>
<path fill="none" stroke="#9a32cd" stroke-dasharray="5,2" d="M836.41,-391.33C851.67,-387.15 870.3,-379.87 883,-367.5 897.55,-353.33 888.18,-341.25 901,-325.5 948.56,-267.08 968.14,-251.1 1040,-228.5 1203.32,-177.15 1411.58,-260.4 1476.94,-289.82"/>
<polygon fill="#9a32cd" stroke="#9a32cd" points="835.39,-387.97 826.5,-393.75 837.05,-394.78 835.39,-387.97"/>
<text text-anchor="middle" x="1141.5" y="-242.5" font-family="Helvetica,sans-Serif" font-size="10.00"> ksp_A</text>
<text text-anchor="middle" x="1141.5" y="-231.5" font-family="Helvetica,sans-Serif" font-size="10.00">ksp_B</text>
</g>
<!-- Node22&#45;&gt;Node17 -->
<g id="edge21" class="edge">
<title>Node22&#45;&gt;Node17</title>
<path fill="none" stroke="#9a32cd" stroke-dasharray="5,2" d="M836.4,-389.07C880.13,-378.5 968.09,-364.79 1022,-407.5 1044.49,-425.32 1018.76,-450.2 1040,-469.5 1052.81,-481.14 1070.44,-486.67 1087.37,-489.06"/>
<polygon fill="#9a32cd" stroke="#9a32cd" points="835.35,-385.73 826.53,-391.59 837.08,-392.51 835.35,-385.73"/>
<text text-anchor="middle" x="961.5" y="-421.5" font-family="Helvetica,sans-Serif" font-size="10.00"> A</text>
<text text-anchor="middle" x="961.5" y="-410.5" font-family="Helvetica,sans-Serif" font-size="10.00">B</text>
</g>
<!-- Node22&#45;&gt;Node27 -->
<g id="edge31" class="edge">
<title>Node22&#45;&gt;Node27</title>
<path fill="none" stroke="#9a32cd" stroke-dasharray="5,2" d="M836.23,-385.31C904.2,-357.84 1091.28,-292 1243,-329.5 1344.07,-354.48 1449.33,-427.66 1484.9,-453.95"/>
<polygon fill="#9a32cd" stroke="#9a32cd" points="834.65,-382.18 826.73,-389.22 837.31,-388.65 834.65,-382.18"/>
<text text-anchor="middle" x="1141.5" y="-343.5" font-family="Helvetica,sans-Serif" font-size="10.00"> snes_A</text>
<text text-anchor="middle" x="1141.5" y="-332.5" font-family="Helvetica,sans-Serif" font-size="10.00">snes_B</text>
</g>
<!-- Node22&#45;&gt;Node30 -->
<g id="edge36" class="edge">
<title>Node22&#45;&gt;Node30</title>
<path fill="none" stroke="#9a32cd" stroke-dasharray="5,2" d="M836.33,-406.22C854.48,-412.87 879.16,-421.84 901,-429.5 954.58,-448.29 979.4,-432.96 1022,-470.5 1035.72,-482.59 1025.17,-496.8 1040,-507.5 1105.04,-554.43 1332.95,-512.23 1397,-560.5 1466.72,-613.05 1490.33,-726.42 1496.01,-760.57"/>
<polygon fill="#9a32cd" stroke="#9a32cd" points="837.33,-402.85 826.73,-402.69 834.91,-409.42 837.33,-402.85"/>
<text text-anchor="middle" x="1141.5" y="-547.5" font-family="Helvetica,sans-Serif" font-size="10.00"> ts_A</text>
<text text-anchor="middle" x="1141.5" y="-536.5" font-family="Helvetica,sans-Serif" font-size="10.00">ts_B</text>
</g>
<!-- Node23 -->
<g id="node23" class="node">
<title>Node23</title>
<g id="a_node23"><a xlink:title=" ">
<polygon fill="white" stroke="#bfbfbf" points="772.5,-578 772.5,-597 845.5,-597 845.5,-578 772.5,-578"/>
<text text-anchor="middle" x="809" y="-585" font-family="Helvetica,sans-Serif" font-size="10.00">bitset&lt; 8 &gt;</text>
</a>
</g>
</g>
<!-- Node23&#45;&gt;Node17 -->
<g id="edge22" class="edge">
<title>Node23&#45;&gt;Node17</title>
<path fill="none" stroke="#9a32cd" stroke-dasharray="5,2" d="M855.99,-588.36C910.53,-588.44 997.2,-585.28 1022,-565.5 1041.45,-549.99 1021.61,-529.25 1040,-512.5 1052.93,-500.72 1070.59,-494.43 1087.5,-491.16"/>
<polygon fill="#9a32cd" stroke="#9a32cd" points="855.88,-584.86 845.86,-588.31 855.85,-591.86 855.88,-584.86"/>
<text text-anchor="middle" x="961.5" y="-590.5" font-family="Helvetica,sans-Serif" font-size="10.00"> data_ctx</text>
</g>
<!-- Node24 -->
<g id="node24" class="node">
<title>Node24</title>
<g id="a_node24"><a xlink:title=" ">
<polygon fill="white" stroke="#bfbfbf" points="792,-644 792,-663 826,-663 826,-644 792,-644"/>
<text text-anchor="middle" x="809" y="-651" font-family="Helvetica,sans-Serif" font-size="10.00">Vec</text>
</a>
</g>
</g>
<!-- Node24&#45;&gt;Node16 -->
<g id="edge27" class="edge">
<title>Node24&#45;&gt;Node16</title>
<path fill="none" stroke="#9a32cd" stroke-dasharray="5,2" d="M835.9,-643.89C852.32,-636.36 872.4,-624.16 883,-606.5 908.12,-564.63 866.87,-422.42 901,-387.5 954.42,-332.85 1176.15,-388.53 1243,-351.5 1254.36,-345.21 1249.7,-334.89 1261,-328.5 1290.98,-311.56 1382,-304.39 1441.99,-301.44"/>
<polygon fill="#9a32cd" stroke="#9a32cd" points="834.1,-640.86 826.26,-647.99 836.84,-647.3 834.1,-640.86"/>
<text text-anchor="middle" x="1141.5" y="-367.5" font-family="Helvetica,sans-Serif" font-size="10.00"> ksp_f</text>
</g>
<!-- Node24&#45;&gt;Node17 -->
<g id="edge23" class="edge">
<title>Node24&#45;&gt;Node17</title>
<path fill="none" stroke="#9a32cd" stroke-dasharray="5,2" d="M835.76,-643.64C853.82,-637 878.64,-628.4 901,-622.5 953.93,-608.53 982.98,-637.89 1022,-599.5 1050.15,-571.81 1012.51,-540.84 1040,-512.5 1052.37,-499.75 1070.2,-493.28 1087.42,-490.13"/>
<polygon fill="#9a32cd" stroke="#9a32cd" points="834.37,-640.42 826.23,-647.2 836.82,-646.98 834.37,-640.42"/>
<text text-anchor="middle" x="961.5" y="-658.5" font-family="Helvetica,sans-Serif" font-size="10.00"> f</text>
<text text-anchor="middle" x="961.5" y="-647.5" font-family="Helvetica,sans-Serif" font-size="10.00">x</text>
<text text-anchor="middle" x="961.5" y="-636.5" font-family="Helvetica,sans-Serif" font-size="10.00">x_t</text>
<text text-anchor="middle" x="961.5" y="-625.5" font-family="Helvetica,sans-Serif" font-size="10.00">x_tt</text>
</g>
<!-- Node24&#45;&gt;Node27 -->
<g id="edge32" class="edge">
<title>Node24&#45;&gt;Node27</title>
<path fill="none" stroke="#9a32cd" stroke-dasharray="5,2" d="M835.61,-664.79C878.85,-681.94 966.98,-708.35 1022,-666.5 1045.86,-648.35 1018.07,-621.93 1040,-601.5 1107.35,-538.76 1154.58,-586.09 1243,-560.5 1331.57,-534.87 1432.87,-492 1476.12,-473.03"/>
<polygon fill="#9a32cd" stroke="#9a32cd" points="836.7,-661.46 826.12,-660.89 834.04,-667.93 836.7,-661.46"/>
<text text-anchor="middle" x="1141.5" y="-615.5" font-family="Helvetica,sans-Serif" font-size="10.00"> snes_x</text>
<text text-anchor="middle" x="1141.5" y="-604.5" font-family="Helvetica,sans-Serif" font-size="10.00">snes_f</text>
</g>
<!-- Node24&#45;&gt;Node30 -->
<g id="edge40" class="edge">
<title>Node24&#45;&gt;Node30</title>
<path fill="none" stroke="#9a32cd" stroke-dasharray="5,2" d="M835.63,-665.53C853.76,-673.93 878.72,-685.24 901,-694.5 962.06,-719.87 976.28,-729.87 1040,-747.5 1128.31,-771.93 1158.62,-747.78 1243,-783.5 1252.09,-787.35 1251.61,-793.46 1261,-796.5 1334.89,-820.39 1427.8,-795.17 1471.94,-780.09"/>
<polygon fill="#9a32cd" stroke="#9a32cd" points="836.86,-662.25 826.31,-661.2 833.9,-668.59 836.86,-662.25"/>
<text text-anchor="middle" x="1141.5" y="-819.5" font-family="Helvetica,sans-Serif" font-size="10.00"> ts_u</text>
<text text-anchor="middle" x="1141.5" y="-808.5" font-family="Helvetica,sans-Serif" font-size="10.00">ts_F</text>
<text text-anchor="middle" x="1141.5" y="-797.5" font-family="Helvetica,sans-Serif" font-size="10.00">ts_u_t</text>
<text text-anchor="middle" x="1141.5" y="-786.5" font-family="Helvetica,sans-Serif" font-size="10.00">ts_u_tt</text>
</g>
<!-- Node25 -->
<g id="node25" class="node">
<title>Node25</title>
<g id="a_node25"><a xlink:title=" ">
<polygon fill="white" stroke="#bfbfbf" points="1124,-260 1124,-279 1159,-279 1159,-260 1124,-260"/>
<text text-anchor="middle" x="1141.5" y="-267" font-family="Helvetica,sans-Serif" font-size="10.00">KSP</text>
</a>
</g>
</g>
<!-- Node25&#45;&gt;Node16 -->
<g id="edge24" class="edge">
<title>Node25&#45;&gt;Node16</title>
<path fill="none" stroke="#9a32cd" stroke-dasharray="5,2" d="M1169.31,-271.42C1215.73,-274.79 1314.04,-282.11 1397,-289.5 1411.58,-290.8 1427.35,-292.31 1441.97,-293.77"/>
<polygon fill="#9a32cd" stroke="#9a32cd" points="1169.41,-267.92 1159.19,-270.69 1168.91,-274.9 1169.41,-267.92"/>
<text text-anchor="middle" x="1329" y="-292.5" font-family="Helvetica,sans-Serif" font-size="10.00"> ksp</text>
</g>
<!-- Node26 -->
<g id="node26" class="node">
<title>Node26</title>
<g id="a_node26"><a xlink:title=" ">
<polygon fill="white" stroke="#bfbfbf" points="1104.5,-164 1104.5,-183 1178.5,-183 1178.5,-164 1104.5,-164"/>
<text text-anchor="middle" x="1141.5" y="-171" font-family="Helvetica,sans-Serif" font-size="10.00">KSPContext</text>
</a>
</g>
</g>
<!-- Node26&#45;&gt;Node16 -->
<g id="edge25" class="edge">
<title>Node26&#45;&gt;Node16</title>
<path fill="none" stroke="#9a32cd" stroke-dasharray="5,2" d="M1188.8,-171.98C1252.83,-170.75 1364.25,-172.09 1397,-194.5 1412.09,-204.83 1403.69,-217.13 1415,-231.5 1434.41,-256.14 1464.15,-277.88 1482.12,-289.82"/>
<polygon fill="#9a32cd" stroke="#9a32cd" points="1188.49,-168.48 1178.57,-172.2 1188.64,-175.48 1188.49,-168.48"/>
<text text-anchor="middle" x="1329" y="-197.5" font-family="Helvetica,sans-Serif" font-size="10.00"> ksp_ctx</text>
</g>
<!-- Node27&#45;&gt;Node15 -->
<g id="edge28" class="edge">
<title>Node27&#45;&gt;Node15</title>
<path fill="none" stroke="midnightblue" d="M1517.37,-480.3C1567.98,-529.04 1713.04,-676.75 1781,-830.5 1799.26,-871.8 1767.7,-897.95 1799,-930.5 1805.99,-937.77 1815.1,-942.56 1824.76,-945.66"/>
<polygon fill="midnightblue" stroke="midnightblue" points="1519.47,-477.48 1509.82,-473.1 1514.64,-482.54 1519.47,-477.48"/>
</g>
<!-- Node28 -->
<g id="node28" class="node">
<title>Node28</title>
<g id="a_node28"><a xlink:title=" ">
<polygon fill="white" stroke="#bfbfbf" points="1120.5,-403 1120.5,-422 1162.5,-422 1162.5,-403 1120.5,-403"/>
<text text-anchor="middle" x="1141.5" y="-410" font-family="Helvetica,sans-Serif" font-size="10.00">SNES</text>
</a>
</g>
</g>
<!-- Node28&#45;&gt;Node27 -->
<g id="edge30" class="edge">
<title>Node28&#45;&gt;Node27</title>
<path fill="none" stroke="#9a32cd" stroke-dasharray="5,2" d="M1172.85,-412.97C1220.84,-414.17 1317,-418.43 1397,-433.5 1422.59,-438.32 1450.95,-447.12 1471,-453.94"/>
<polygon fill="#9a32cd" stroke="#9a32cd" points="1172.89,-409.47 1162.82,-412.75 1172.74,-416.47 1172.89,-409.47"/>
<text text-anchor="middle" x="1329" y="-436.5" font-family="Helvetica,sans-Serif" font-size="10.00"> snes</text>
</g>
<!-- Node29 -->
<g id="node29" class="node">
<title>Node29</title>
<g id="a_node29"><a xlink:title=" ">
<polygon fill="white" stroke="#bfbfbf" points="1101.5,-441 1101.5,-460 1181.5,-460 1181.5,-441 1101.5,-441"/>
<text text-anchor="middle" x="1141.5" y="-448" font-family="Helvetica,sans-Serif" font-size="10.00">SNESContext</text>
</a>
</g>
</g>
<!-- Node29&#45;&gt;Node27 -->
<g id="edge33" class="edge">
<title>Node29&#45;&gt;Node27</title>
<path fill="none" stroke="#9a32cd" stroke-dasharray="5,2" d="M1191.93,-449.41C1243.24,-448.63 1325.81,-448.34 1397,-452.5 1410.58,-453.29 1425.15,-454.62 1438.86,-456.07"/>
<polygon fill="#9a32cd" stroke="#9a32cd" points="1191.72,-445.91 1181.78,-449.58 1191.84,-452.91 1191.72,-445.91"/>
<text text-anchor="middle" x="1329" y="-455.5" font-family="Helvetica,sans-Serif" font-size="10.00"> snes_ctx</text>
</g>
<!-- Node30&#45;&gt;Node15 -->
<g id="edge34" class="edge">
<title>Node30&#45;&gt;Node15</title>
<path fill="none" stroke="midnightblue" d="M1522.67,-785.75C1571.65,-817.33 1690.17,-890.27 1799,-930.5 1809.18,-934.26 1820.33,-937.4 1831.13,-939.97"/>
<polygon fill="midnightblue" stroke="midnightblue" points="1524.38,-782.69 1514.09,-780.18 1520.57,-788.56 1524.38,-782.69"/>
</g>
<!-- Node31 -->
<g id="node31" class="node">
<title>Node31</title>
<g id="a_node31"><a xlink:title=" ">
<polygon fill="white" stroke="#bfbfbf" points="1109,-633 1109,-652 1174,-652 1174,-633 1109,-633"/>
<text text-anchor="middle" x="1141.5" y="-640" font-family="Helvetica,sans-Serif" font-size="10.00">PetscReal</text>
</a>
</g>
</g>
<!-- Node31&#45;&gt;Node30 -->
<g id="edge37" class="edge">
<title>Node31&#45;&gt;Node30</title>
<path fill="none" stroke="#9a32cd" stroke-dasharray="5,2" d="M1184.33,-640.03C1203.73,-637.11 1226.16,-631.02 1243,-618.5 1255.78,-608.99 1247.19,-595.45 1261,-587.5 1313.38,-557.34 1344.98,-556.72 1397,-587.5 1464.07,-627.18 1489.37,-729.29 1495.75,-760.98"/>
<polygon fill="#9a32cd" stroke="#9a32cd" points="1183.69,-636.59 1174.21,-641.32 1184.57,-643.53 1183.69,-636.59"/>
<text text-anchor="middle" x="1329" y="-623.5" font-family="Helvetica,sans-Serif" font-size="10.00"> ts_a</text>
<text text-anchor="middle" x="1329" y="-612.5" font-family="Helvetica,sans-Serif" font-size="10.00">ts_t</text>
<text text-anchor="middle" x="1329" y="-601.5" font-family="Helvetica,sans-Serif" font-size="10.00">ts_dt</text>
<text text-anchor="middle" x="1329" y="-590.5" font-family="Helvetica,sans-Serif" font-size="10.00">ts_aa</text>
</g>
<!-- Node32 -->
<g id="node32" class="node">
<title>Node32</title>
<g id="a_node32"><a xlink:title=" ">
<polygon fill="white" stroke="#bfbfbf" points="1108,-837 1108,-856 1175,-856 1175,-837 1108,-837"/>
<text text-anchor="middle" x="1141.5" y="-844" font-family="Helvetica,sans-Serif" font-size="10.00">TSContext</text>
</a>
</g>
</g>
<!-- Node32&#45;&gt;Node30 -->
<g id="edge38" class="edge">
<title>Node32&#45;&gt;Node30</title>
<path fill="none" stroke="#9a32cd" stroke-dasharray="5,2" d="M1185.08,-848.01C1236.43,-848.66 1324.83,-846.01 1397,-824.5 1430.41,-814.54 1465.38,-792.75 1483.98,-780.11"/>
<polygon fill="#9a32cd" stroke="#9a32cd" points="1185.08,-844.51 1175.02,-847.84 1184.95,-851.51 1185.08,-844.51"/>
<text text-anchor="middle" x="1329" y="-848.5" font-family="Helvetica,sans-Serif" font-size="10.00"> ts_ctx</text>
</g>
<!-- Node33 -->
<g id="node33" class="node">
<title>Node33</title>
<g id="a_node33"><a xlink:title=" ">
<polygon fill="white" stroke="#bfbfbf" points="1113.5,-719 1113.5,-738 1169.5,-738 1169.5,-719 1113.5,-719"/>
<text text-anchor="middle" x="1141.5" y="-726" font-family="Helvetica,sans-Serif" font-size="10.00">PetscInt</text>
</a>
</g>
</g>
<!-- Node33&#45;&gt;Node30 -->
<g id="edge39" class="edge">
<title>Node33&#45;&gt;Node30</title>
<path fill="none" stroke="#9a32cd" stroke-dasharray="5,2" d="M1179.9,-733.84C1199.33,-737.49 1223.1,-743.37 1243,-752.5 1251.97,-756.61 1251.64,-762.36 1261,-765.5 1321.55,-785.79 1395.8,-783.27 1444.77,-778.17"/>
<polygon fill="#9a32cd" stroke="#9a32cd" points="1180.35,-730.36 1169.89,-732.08 1179.14,-737.26 1180.35,-730.36"/>
<text text-anchor="middle" x="1329" y="-784.5" font-family="Helvetica,sans-Serif" font-size="10.00"> ts_step</text>
</g>
<!-- Node34 -->
<g id="node34" class="node">
<title>Node34</title>
<g id="a_node34"><a xlink:title=" ">
<polygon fill="white" stroke="#bfbfbf" points="1127,-681 1127,-700 1156,-700 1156,-681 1127,-681"/>
<text text-anchor="middle" x="1141.5" y="-688" font-family="Helvetica,sans-Serif" font-size="10.00">TS</text>
</a>
</g>
</g>
<!-- Node34&#45;&gt;Node30 -->
<g id="edge41" class="edge">
<title>Node34&#45;&gt;Node30</title>
<path fill="none" stroke="#9a32cd" stroke-dasharray="5,2" d="M1166.4,-690.49C1187.84,-691.49 1219.47,-695.52 1243,-709.5 1253.86,-715.95 1250.03,-725.23 1261,-731.5 1314.1,-761.84 1336.67,-742.44 1397,-752.5 1412.82,-755.14 1430.02,-758.16 1445.64,-760.97"/>
<polygon fill="#9a32cd" stroke="#9a32cd" points="1166.3,-686.99 1156.21,-690.21 1166.11,-693.99 1166.3,-686.99"/>
<text text-anchor="middle" x="1329" y="-755.5" font-family="Helvetica,sans-Serif" font-size="10.00"> ts</text>
</g>
<!-- Node35 -->
<g id="node35" class="node">
<title>Node35</title>
<g id="a_node35"><a xlink:title=" ">
<polygon fill="white" stroke="#bfbfbf" points="1454,-1113 1454,-1132 1543,-1132 1543,-1113 1454,-1113"/>
<text text-anchor="middle" x="1498.5" y="-1120" font-family="Helvetica,sans-Serif" font-size="10.00">pair&lt; int, int &gt;</text>
</a>
</g>
</g>
<!-- Node35&#45;&gt;Node15 -->
<g id="edge43" class="edge">
<title>Node35&#45;&gt;Node15</title>
<path fill="none" stroke="#9a32cd" stroke-dasharray="5,2" d="M1544.21,-1134.27C1606.12,-1147.61 1717.49,-1160.4 1781,-1100.5 1823.75,-1060.18 1759.4,-1012.92 1799,-969.5 1805.92,-961.91 1815.11,-956.93 1824.91,-953.7"/>
<polygon fill="#9a32cd" stroke="#9a32cd" points="1544.87,-1130.83 1534.34,-1132.05 1543.33,-1137.66 1544.87,-1130.83"/>
<text text-anchor="middle" x="1690.5" y="-1147.5" font-family="Helvetica,sans-Serif" font-size="10.00"> loHiFERank</text>
</g>
<!-- Node36 -->
<g id="node36" class="node">
<title>Node36</title>
<g id="a_node36"><a xlink:title=" ">
<polygon fill="white" stroke="#bfbfbf" points="1428.5,-1075 1428.5,-1094 1568.5,-1094 1568.5,-1075 1428.5,-1075"/>
<text text-anchor="middle" x="1498.5" y="-1082" font-family="Helvetica,sans-Serif" font-size="10.00">weak_ptr&lt; CacheTuple &gt;</text>
</a>
</g>
</g>
<!-- Node36&#45;&gt;Node15 -->
<g id="edge44" class="edge">
<title>Node36&#45;&gt;Node15</title>
<path fill="none" stroke="#9a32cd" stroke-dasharray="5,2" d="M1578.88,-1088.63C1651.57,-1090.63 1752.1,-1088.3 1781,-1062.5 1812.41,-1034.46 1769.79,-999.82 1799,-969.5 1806.02,-962.21 1815.14,-957.36 1824.8,-954.16"/>
<polygon fill="#9a32cd" stroke="#9a32cd" points="1578.92,-1085.13 1568.82,-1088.32 1578.71,-1092.13 1578.92,-1085.13"/>
<text text-anchor="middle" x="1690.5" y="-1091.5" font-family="Helvetica,sans-Serif" font-size="10.00"> cacheWeakPtr</text>
</g>
<!-- Node37 -->
<g id="node37" class="node">
<title>Node37</title>
<g id="a_node37"><a xlink:title=" ">
<polygon fill="white" stroke="#bfbfbf" points="1442.5,-1037 1442.5,-1056 1554.5,-1056 1554.5,-1037 1442.5,-1037"/>
<text text-anchor="middle" x="1498.5" y="-1044" font-family="Helvetica,sans-Serif" font-size="10.00">unique_ptr&lt; bool &gt;</text>
</a>
</g>
</g>
<!-- Node37&#45;&gt;Node15 -->
<g id="edge45" class="edge">
<title>Node37&#45;&gt;Node15</title>
<path fill="none" stroke="#9a32cd" stroke-dasharray="5,2" d="M1564.63,-1041.52C1645.1,-1035.12 1772.53,-1024.04 1781,-1017.5 1799.04,-1003.58 1781.87,-984.53 1799,-969.5 1806.37,-963.03 1815.44,-958.54 1824.88,-955.46"/>
<polygon fill="#9a32cd" stroke="#9a32cd" points="1564.27,-1038.04 1554.58,-1042.32 1564.82,-1045.02 1564.27,-1038.04"/>
<text text-anchor="middle" x="1690.5" y="-1051.5" font-family="Helvetica,sans-Serif" font-size="10.00"> matAssembleSwitch</text>
<text text-anchor="middle" x="1690.5" y="-1040.5" font-family="Helvetica,sans-Serif" font-size="10.00">vecAssembleSwitch</text>
</g>
<!-- Node38 -->
<g id="node38" class="node">
<title>Node38</title>
<g id="a_node38"><a xlink:title=" ">
<polygon fill="white" stroke="#bfbfbf" points="1127,-126 1127,-145 1156,-145 1156,-126 1127,-126"/>
<text text-anchor="middle" x="1141.5" y="-133" font-family="Helvetica,sans-Serif" font-size="10.00">int</text>
</a>
</g>
</g>
<!-- Node38&#45;&gt;Node2 -->
<g id="edge86" class="edge">
<title>Node38&#45;&gt;Node2</title>
<path fill="none" stroke="#9a32cd" stroke-dasharray="5,2" d="M1166.18,-135.5C1223.21,-135.5 1372.7,-135.5 1497.5,-135.5 1497.5,-135.5 1497.5,-135.5 3435,-135.5 3503.15,-135.5 3580.1,-131.12 3637.96,-126.94"/>
<polygon fill="#9a32cd" stroke="#9a32cd" points="1166.04,-132 1156.04,-135.5 1166.04,-139 1166.04,-132"/>
<text text-anchor="middle" x="2642" y="-182.5" font-family="Helvetica,sans-Serif" font-size="10.00"> row_nb_dofs</text>
<text text-anchor="middle" x="2642" y="-171.5" font-family="Helvetica,sans-Serif" font-size="10.00">col_nb_dofs</text>
<text text-anchor="middle" x="2642" y="-160.5" font-family="Helvetica,sans-Serif" font-size="10.00">nb_gauss_pts</text>
<text text-anchor="middle" x="2642" y="-149.5" font-family="Helvetica,sans-Serif" font-size="10.00">nb_base_fun_row</text>
<text text-anchor="middle" x="2642" y="-138.5" font-family="Helvetica,sans-Serif" font-size="10.00">nb_base_fun_col</text>
</g>
<!-- Node38&#45;&gt;Node15 -->
<g id="edge46" class="edge">
<title>Node38&#45;&gt;Node15</title>
<path fill="none" stroke="#9a32cd" stroke-dasharray="5,2" d="M1166.19,-137.76C1211.49,-142.38 1313.32,-154.22 1397,-174.5 1581.87,-219.29 1686.94,-198.17 1781,-363.5 1812.17,-418.29 1758.75,-881.99 1799,-930.5 1805.64,-938.5 1814.82,-943.59 1824.72,-946.76"/>
<polygon fill="#9a32cd" stroke="#9a32cd" points="1166.48,-134.27 1156.18,-136.76 1165.78,-141.24 1166.48,-134.27"/>
<text text-anchor="middle" x="1498.5" y="-247.5" font-family="Helvetica,sans-Serif" font-size="10.00"> sIze</text>
<text text-anchor="middle" x="1498.5" y="-236.5" font-family="Helvetica,sans-Serif" font-size="10.00">loopSize</text>
<text text-anchor="middle" x="1498.5" y="-225.5" font-family="Helvetica,sans-Serif" font-size="10.00">nInTheLoop</text>
<text text-anchor="middle" x="1498.5" y="-214.5" font-family="Helvetica,sans-Serif" font-size="10.00">rAnk</text>
</g>
<!-- Node38&#45;&gt;Node40 -->
<g id="edge58" class="edge">
<title>Node38&#45;&gt;Node40</title>
<path fill="none" stroke="#9a32cd" stroke-dasharray="5,2" d="M1166.23,-132.44C1189.59,-130.92 1224.4,-132.89 1243,-154.5 1277.61,-194.69 1225.44,-592.15 1261,-631.5 1301.92,-676.78 1355.66,-605.61 1397,-650.5 1444.95,-702.56 1375.74,-909.61 1415,-968.5 1424.89,-983.33 1441.92,-992.84 1457.94,-998.85"/>
<polygon fill="#9a32cd" stroke="#9a32cd" points="1165.74,-128.97 1156.1,-133.37 1166.38,-135.95 1165.74,-128.97"/>
<text text-anchor="middle" x="1329" y="-719.5" font-family="Helvetica,sans-Serif" font-size="10.00"> tagNameSize</text>
<text text-anchor="middle" x="1329" y="-708.5" font-family="Helvetica,sans-Serif" font-size="10.00">nbDofsRow</text>
<text text-anchor="middle" x="1329" y="-697.5" font-family="Helvetica,sans-Serif" font-size="10.00">nbLocDofsCol</text>
<text text-anchor="middle" x="1329" y="-686.5" font-family="Helvetica,sans-Serif" font-size="10.00">nbDofsCol</text>
<text text-anchor="middle" x="1329" y="-675.5" font-family="Helvetica,sans-Serif" font-size="10.00">nbGhostDofsRow</text>
<text text-anchor="middle" x="1329" y="-664.5" font-family="Helvetica,sans-Serif" font-size="10.00">nbGhostDofsCol</text>
<text text-anchor="middle" x="1329" y="-653.5" font-family="Helvetica,sans-Serif" font-size="10.00">nbLocDofsRow</text>
</g>
<!-- Node39 -->
<g id="node39" class="node">
<title>Node39</title>
<g id="a_node39"><a xlink:title=" ">
<polygon fill="white" stroke="#bfbfbf" points="1415,-940 1415,-959 1582,-959 1582,-940 1415,-940"/>
<text text-anchor="middle" x="1498.5" y="-947" font-family="Helvetica,sans-Serif" font-size="10.00">function&lt; MoFEMErrorCode()&gt;</text>
</a>
</g>
</g>
<!-- Node39&#45;&gt;Node15 -->
<g id="edge47" class="edge">
<title>Node39&#45;&gt;Node15</title>
<path fill="none" stroke="#9a32cd" stroke-dasharray="5,2" d="M1592.21,-949.5C1664.4,-949.5 1762.51,-949.5 1824.8,-949.5"/>
<polygon fill="#9a32cd" stroke="#9a32cd" points="1592.2,-946 1582.2,-949.5 1592.2,-953 1592.2,-946"/>
<text text-anchor="middle" x="1690.5" y="-974.5" font-family="Helvetica,sans-Serif" font-size="10.00"> preProcessHook</text>
<text text-anchor="middle" x="1690.5" y="-963.5" font-family="Helvetica,sans-Serif" font-size="10.00">operatorHook</text>
<text text-anchor="middle" x="1690.5" y="-952.5" font-family="Helvetica,sans-Serif" font-size="10.00">postProcessHook</text>
</g>
<!-- Node40&#45;&gt;Node15 -->
<g id="edge48" class="edge">
<title>Node40&#45;&gt;Node15</title>
<path fill="none" stroke="#9a32cd" stroke-dasharray="5,2" d="M1558.1,-1007.17C1628.42,-1004.91 1741.78,-998.93 1781,-983.5 1790.43,-979.79 1789.85,-973.86 1799,-969.5 1808.13,-965.15 1818.27,-961.71 1828.29,-959"/>
<polygon fill="#9a32cd" stroke="#9a32cd" points="1557.93,-1003.68 1548.05,-1007.48 1558.15,-1010.67 1557.93,-1003.68"/>
<text text-anchor="middle" x="1690.5" y="-1007.5" font-family="Helvetica,sans-Serif" font-size="10.00"> problemPtr</text>
</g>
<!-- Node41 -->
<g id="node41" class="node">
<title>Node41</title>
<g id="a_node41"><a xlink:title=" ">
<polygon fill="white" stroke="#bfbfbf" points="1058,-913.5 1058,-943.5 1225,-943.5 1225,-913.5 1058,-913.5"/>
<text text-anchor="start" x="1066" y="-931.5" font-family="Helvetica,sans-Serif" font-size="10.00">shared_ptr&lt; NumeredEntFinite</text>
<text text-anchor="middle" x="1141.5" y="-920.5" font-family="Helvetica,sans-Serif" font-size="10.00">Element_multiIndex &gt;</text>
</a>
</g>
</g>
<!-- Node41&#45;&gt;Node40 -->
<g id="edge49" class="edge">
<title>Node41&#45;&gt;Node40</title>
<path fill="none" stroke="#9a32cd" stroke-dasharray="5,2" d="M1235.23,-936.13C1284.01,-941.6 1344.44,-950.71 1397,-965.5 1426.78,-973.88 1459.38,-989.02 1479.14,-998.92"/>
<polygon fill="#9a32cd" stroke="#9a32cd" points="1235.33,-932.62 1225.01,-935.02 1234.57,-939.58 1235.33,-932.62"/>
<text text-anchor="middle" x="1329" y="-968.5" font-family="Helvetica,sans-Serif" font-size="10.00"> numeredFiniteElementsPtr</text>
</g>
<!-- Node42 -->
<g id="node42" class="node">
<title>Node42</title>
<g id="a_node42"><a xlink:title=" ">
<polygon fill="white" stroke="#bfbfbf" points="1112,-875 1112,-894 1171,-894 1171,-875 1112,-875"/>
<text text-anchor="middle" x="1141.5" y="-882" font-family="Helvetica,sans-Serif" font-size="10.00">BitFEId *</text>
</a>
</g>
</g>
<!-- Node42&#45;&gt;Node40 -->
<g id="edge50" class="edge">
<title>Node42&#45;&gt;Node40</title>
<path fill="none" stroke="#9a32cd" stroke-dasharray="5,2" d="M1181.48,-879.63C1235.77,-875.07 1334.51,-875.08 1397,-924.5 1413.57,-937.61 1400.54,-953.1 1415,-968.5 1428.4,-982.77 1447.97,-992.57 1464.69,-998.89"/>
<polygon fill="#9a32cd" stroke="#9a32cd" points="1180.86,-876.17 1171.23,-880.59 1181.52,-883.14 1180.86,-876.17"/>
<text text-anchor="middle" x="1329" y="-927.5" font-family="Helvetica,sans-Serif" font-size="10.00"> tagBitFEId</text>
</g>
<!-- Node43 -->
<g id="node43" class="node">
<title>Node43</title>
<g id="a_node43"><a xlink:href="classEntityHandle.html" target="_top" xlink:title=" ">
<polygon fill="white" stroke="black" points="1101.5,-1265 1101.5,-1284 1181.5,-1284 1181.5,-1265 1101.5,-1265"/>
<text text-anchor="middle" x="1141.5" y="-1272" font-family="Helvetica,sans-Serif" font-size="10.00">EntityHandle</text>
</a>
</g>
</g>
<!-- Node43&#45;&gt;Node40 -->
<g id="edge51" class="edge">
<title>Node43&#45;&gt;Node40</title>
<path fill="none" stroke="#9a32cd" stroke-dasharray="5,2" d="M1191.91,-1269.1C1263.94,-1261.01 1390.01,-1245.89 1397,-1238.5 1429.34,-1204.31 1384.16,-1063.04 1415,-1027.5 1423.57,-1017.62 1436.16,-1012.31 1448.93,-1009.59"/>
<polygon fill="#9a32cd" stroke="#9a32cd" points="1191.25,-1265.65 1181.7,-1270.24 1192.03,-1272.61 1191.25,-1265.65"/>
<text text-anchor="middle" x="1329" y="-1262.5" font-family="Helvetica,sans-Serif" font-size="10.00"> meshset</text>
</g>
<!-- Node44 -->
<g id="node44" class="node">
<title>Node44</title>
<g id="a_node44"><a xlink:title=" ">
<polygon fill="white" stroke="#bfbfbf" points="1067,-1215.5 1067,-1245.5 1216,-1245.5 1216,-1215.5 1067,-1215.5"/>
<text text-anchor="start" x="1075" y="-1233.5" font-family="Helvetica,sans-Serif" font-size="10.00">shared_ptr&lt; MoFEM::</text>
<text text-anchor="middle" x="1141.5" y="-1222.5" font-family="Helvetica,sans-Serif" font-size="10.00">ComposedProblemsData &gt;</text>
</a>
</g>
</g>
<!-- Node44&#45;&gt;Node40 -->
<g id="edge52" class="edge">
<title>Node44&#45;&gt;Node40</title>
<path fill="none" stroke="#9a32cd" stroke-dasharray="5,2" d="M1226.17,-1227.14C1295.63,-1223.52 1384.94,-1216.57 1397,-1204.5 1424.95,-1176.54 1388.84,-1057.15 1415,-1027.5 1423.56,-1017.8 1435.98,-1012.52 1448.6,-1009.78"/>
<polygon fill="#9a32cd" stroke="#9a32cd" points="1225.89,-1223.65 1216.08,-1227.66 1226.25,-1230.65 1225.89,-1223.65"/>
<text text-anchor="middle" x="1329" y="-1227.5" font-family="Helvetica,sans-Serif" font-size="10.00"> composedProblemsData</text>
</g>
<!-- Node45 -->
<g id="node45" class="node">
<title>Node45</title>
<g id="a_node45"><a xlink:title=" ">
<polygon fill="white" stroke="#bfbfbf" points="1101,-1177 1101,-1196 1182,-1196 1182,-1177 1101,-1177"/>
<text text-anchor="middle" x="1141.5" y="-1184" font-family="Helvetica,sans-Serif" font-size="10.00">BitRefLevel *</text>
</a>
</g>
</g>
<!-- Node45&#45;&gt;Node40 -->
<g id="edge53" class="edge">
<title>Node45&#45;&gt;Node40</title>
<path fill="none" stroke="#9a32cd" stroke-dasharray="5,2" d="M1192.4,-1184.06C1262.35,-1180.16 1382.66,-1171.5 1397,-1157.5 1438.74,-1116.76 1375.63,-1070.53 1415,-1027.5 1423.73,-1017.96 1436.21,-1012.73 1448.82,-1009.98"/>
<polygon fill="#9a32cd" stroke="#9a32cd" points="1191.84,-1180.59 1182.05,-1184.63 1192.22,-1187.58 1191.84,-1180.59"/>
<text text-anchor="middle" x="1329" y="-1192.5" font-family="Helvetica,sans-Serif" font-size="10.00"> tagBitRefLevelMask</text>
<text text-anchor="middle" x="1329" y="-1181.5" font-family="Helvetica,sans-Serif" font-size="10.00">tagBitRefLevel</text>
</g>
<!-- Node46 -->
<g id="node46" class="node">
<title>Node46</title>
<g id="a_node46"><a xlink:title=" ">
<polygon fill="white" stroke="#bfbfbf" points="1056.5,-1127.5 1056.5,-1157.5 1226.5,-1157.5 1226.5,-1127.5 1056.5,-1127.5"/>
<text text-anchor="start" x="1064.5" y="-1145.5" font-family="Helvetica,sans-Serif" font-size="10.00">shared_ptr&lt; NumeredDofEntity</text>
<text text-anchor="middle" x="1141.5" y="-1134.5" font-family="Helvetica,sans-Serif" font-size="10.00">_multiIndex &gt;</text>
</a>
</g>
</g>
<!-- Node46&#45;&gt;Node40 -->
<g id="edge54" class="edge">
<title>Node46&#45;&gt;Node40</title>
<path fill="none" stroke="#9a32cd" stroke-dasharray="5,2" d="M1236.77,-1134.35C1304.18,-1127.65 1385.03,-1117.51 1397,-1106.5 1423.5,-1082.12 1389.57,-1052.99 1415,-1027.5 1424.03,-1018.45 1436.45,-1013.35 1448.92,-1010.57"/>
<polygon fill="#9a32cd" stroke="#9a32cd" points="1236.12,-1130.89 1226.5,-1135.35 1236.8,-1137.86 1236.12,-1130.89"/>
<text text-anchor="middle" x="1329" y="-1145.5" font-family="Helvetica,sans-Serif" font-size="10.00"> numeredRowDofsPtr</text>
<text text-anchor="middle" x="1329" y="-1134.5" font-family="Helvetica,sans-Serif" font-size="10.00">numeredColDofsPtr</text>
</g>
<!-- Node47 -->
<g id="node47" class="node">
<title>Node47</title>
<g id="a_node47"><a xlink:title=" ">
<polygon fill="white" stroke="#bfbfbf" points="1072.5,-1089 1072.5,-1108 1210.5,-1108 1210.5,-1089 1072.5,-1089"/>
<text text-anchor="middle" x="1141.5" y="-1096" font-family="Helvetica,sans-Serif" font-size="10.00">vector&lt; BlockFieldPair &gt;</text>
</a>
</g>
</g>
<!-- Node47&#45;&gt;Node40 -->
<g id="edge56" class="edge">
<title>Node47&#45;&gt;Node40</title>
<path fill="none" stroke="#9a32cd" stroke-dasharray="5,2" d="M1220.85,-1095.22C1284.96,-1091.15 1369.38,-1082.14 1397,-1062.5 1411.26,-1052.36 1401.19,-1038.24 1415,-1027.5 1424.63,-1020.01 1436.69,-1015.38 1448.59,-1012.54"/>
<polygon fill="#9a32cd" stroke="#9a32cd" points="1220.52,-1091.74 1210.75,-1095.84 1220.95,-1098.73 1220.52,-1091.74"/>
<text text-anchor="middle" x="1329" y="-1094.5" font-family="Helvetica,sans-Serif" font-size="10.00"> emptyFieldBlocks</text>
</g>
<!-- Node48 -->
<g id="node48" class="node">
<title>Node48</title>
<g id="a_node48"><a xlink:title=" ">
<polygon fill="white" stroke="#bfbfbf" points="1063.5,-1039.5 1063.5,-1069.5 1219.5,-1069.5 1219.5,-1039.5 1063.5,-1039.5"/>
<text text-anchor="start" x="1071.5" y="-1057.5" font-family="Helvetica,sans-Serif" font-size="10.00">shared_ptr&lt; MoFEM::</text>
<text text-anchor="middle" x="1141.5" y="-1046.5" font-family="Helvetica,sans-Serif" font-size="10.00">Problem::SubProblemData &gt;</text>
</a>
</g>
</g>
<!-- Node48&#45;&gt;Node40 -->
<g id="edge57" class="edge">
<title>Node48&#45;&gt;Node40</title>
<path fill="none" stroke="#9a32cd" stroke-dasharray="5,2" d="M1229.57,-1050.96C1278.97,-1047.96 1341.78,-1042.47 1397,-1032.5 1405.17,-1031.03 1406.95,-1029.54 1415,-1027.5 1427.68,-1024.28 1441.51,-1021 1454.17,-1018.1"/>
<polygon fill="#9a32cd" stroke="#9a32cd" points="1229.33,-1047.47 1219.55,-1051.55 1229.74,-1054.46 1229.33,-1047.47"/>
<text text-anchor="middle" x="1329" y="-1050.5" font-family="Helvetica,sans-Serif" font-size="10.00"> subProblemData</text>
</g>
<!-- Node49 -->
<g id="node49" class="node">
<title>Node49</title>
<g id="a_node49"><a xlink:title=" ">
<polygon fill="white" stroke="#bfbfbf" points="1040,-1001 1040,-1020 1243,-1020 1243,-1001 1040,-1001"/>
<text text-anchor="middle" x="1141.5" y="-1008" font-family="Helvetica,sans-Serif" font-size="10.00">shared_ptr&lt; SequenceDofContainer &gt;</text>
</a>
</g>
</g>
<!-- Node49&#45;&gt;Node40 -->
<g id="edge59" class="edge">
<title>Node49&#45;&gt;Node40</title>
<path fill="none" stroke="#9a32cd" stroke-dasharray="5,2" d="M1253.66,-1009.87C1319.11,-1009.51 1398.61,-1009.06 1448.65,-1008.78"/>
<polygon fill="#9a32cd" stroke="#9a32cd" points="1253.26,-1006.38 1243.28,-1009.93 1253.3,-1013.38 1253.26,-1006.38"/>
<text text-anchor="middle" x="1329" y="-1023.5" font-family="Helvetica,sans-Serif" font-size="10.00"> sequenceRowDofContainer</text>
<text text-anchor="middle" x="1329" y="-1012.5" font-family="Helvetica,sans-Serif" font-size="10.00">sequenceColDofContainer</text>
</g>
<!-- Node50 -->
<g id="node50" class="node">
<title>Node50</title>
<g id="a_node50"><a xlink:title=" ">
<polygon fill="white" stroke="#bfbfbf" points="1097.5,-963 1097.5,-982 1185.5,-982 1185.5,-963 1097.5,-963"/>
<text text-anchor="middle" x="1141.5" y="-970" font-family="Helvetica,sans-Serif" font-size="10.00">BitProblemId *</text>
</a>
</g>
</g>
<!-- Node50&#45;&gt;Node40 -->
<g id="edge60" class="edge">
<title>Node50&#45;&gt;Node40</title>
<path fill="none" stroke="#9a32cd" stroke-dasharray="5,2" d="M1196.05,-975.89C1247.63,-979.4 1327.78,-985.49 1397,-993.5 1413.91,-995.46 1432.35,-998.07 1448.77,-1000.57"/>
<polygon fill="#9a32cd" stroke="#9a32cd" points="1196.03,-972.38 1185.82,-975.2 1195.56,-979.36 1196.03,-972.38"/>
<text text-anchor="middle" x="1329" y="-996.5" font-family="Helvetica,sans-Serif" font-size="10.00"> tagId</text>
</g>
<!-- Node51 -->
<g id="node51" class="node">
<title>Node51</title>
<g id="a_node51"><a xlink:title=" ">
<polygon fill="white" stroke="#bfbfbf" points="1805,-890.5 1805,-920.5 1967,-920.5 1967,-890.5 1805,-890.5"/>
<text text-anchor="start" x="1813" y="-908.5" font-family="Helvetica,sans-Serif" font-size="10.00">shared_ptr&lt; const MoFEM</text>
<text text-anchor="middle" x="1886" y="-897.5" font-family="Helvetica,sans-Serif" font-size="10.00">::NumeredEntFiniteElement &gt;</text>
</a>
</g>
</g>
<!-- Node51&#45;&gt;Node14 -->
<g id="edge61" class="edge">
<title>Node51&#45;&gt;Node14</title>
<path fill="none" stroke="#9a32cd" stroke-dasharray="5,2" d="M1977.02,-904.8C2026.26,-907.88 2086.86,-917.51 2135,-943.5 2145.52,-949.18 2142.57,-957.65 2153,-963.5 2167.93,-971.87 2185.82,-976.64 2202.42,-979.34"/>
<polygon fill="#9a32cd" stroke="#9a32cd" points="1977.18,-901.31 1967.01,-904.26 1976.8,-908.3 1977.18,-901.31"/>
<text text-anchor="middle" x="2063" y="-946.5" font-family="Helvetica,sans-Serif" font-size="10.00"> numeredEntFiniteElementPtr</text>
</g>
<!-- Node52 -->
<g id="node52" class="node">
<title>Node52</title>
<g id="a_node52"><a xlink:title=" ">
<polygon fill="white" stroke="#bfbfbf" points="1864,-1031 1864,-1050 1908,-1050 1908,-1031 1864,-1031"/>
<text text-anchor="middle" x="1886" y="-1038" font-family="Helvetica,sans-Serif" font-size="10.00">string</text>
</a>
</g>
</g>
<!-- Node52&#45;&gt;Node5 -->
<g id="edge84" class="edge">
<title>Node52&#45;&gt;Node5</title>
<path fill="none" stroke="#9a32cd" stroke-dasharray="5,2" d="M1918.43,-1043.7C2014.92,-1052.31 2313.99,-1069.9 2539,-984.5 2700.93,-923.04 2857.85,-776.25 2905.99,-728.67"/>
<polygon fill="#9a32cd" stroke="#9a32cd" points="1918.47,-1040.19 1908.19,-1042.75 1917.83,-1047.16 1918.47,-1040.19"/>
<text text-anchor="middle" x="2458" y="-1041.5" font-family="Helvetica,sans-Serif" font-size="10.00"> colFieldName</text>
<text text-anchor="middle" x="2458" y="-1030.5" font-family="Helvetica,sans-Serif" font-size="10.00">rowFieldName</text>
</g>
<!-- Node52&#45;&gt;Node14 -->
<g id="edge62" class="edge">
<title>Node52&#45;&gt;Node14</title>
<path fill="none" stroke="#9a32cd" stroke-dasharray="5,2" d="M1917.8,-1032.96C1938.42,-1028.09 1966.23,-1021.87 1991,-1017.5 2063.85,-1004.64 2148.76,-994.18 2202.2,-988.15"/>
<polygon fill="#9a32cd" stroke="#9a32cd" points="1916.92,-1029.57 1908.01,-1035.3 1918.55,-1036.38 1916.92,-1029.57"/>
<text text-anchor="middle" x="2063" y="-1020.5" font-family="Helvetica,sans-Serif" font-size="10.00"> feName</text>
</g>
<!-- Node53 -->
<g id="node53" class="node">
<title>Node53</title>
<g id="a_node53"><a xlink:title=" ">
<polygon fill="white" stroke="#bfbfbf" points="1804.5,-978.5 1804.5,-1008.5 1967.5,-1008.5 1967.5,-978.5 1804.5,-978.5"/>
<text text-anchor="start" x="1812.5" y="-996.5" font-family="Helvetica,sans-Serif" font-size="10.00">function&lt; bool(MoFEM</text>
<text text-anchor="middle" x="1886" y="-985.5" font-family="Helvetica,sans-Serif" font-size="10.00">::FEMethod *fe_method_ptr)&gt;</text>
</a>
</g>
</g>
<!-- Node53&#45;&gt;Node14 -->
<g id="edge63" class="edge">
<title>Node53&#45;&gt;Node14</title>
<path fill="none" stroke="#9a32cd" stroke-dasharray="5,2" d="M1977.56,-984.29C1982.1,-983.99 1986.6,-983.72 1991,-983.5 2064.24,-979.85 2149.06,-980.37 2202.37,-981.28"/>
<polygon fill="#9a32cd" stroke="#9a32cd" points="1977.29,-980.8 1967.57,-985.01 1977.8,-987.78 1977.29,-980.8"/>
<text text-anchor="middle" x="2063" y="-986.5" font-family="Helvetica,sans-Serif" font-size="10.00"> exeTestHook</text>
</g>
<!-- Node54 -->
<g id="node54" class="node">
<title>Node54</title>
<g id="a_node54"><a xlink:href="classdouble.html" target="_top" xlink:title=" ">
<polygon fill="white" stroke="black" points="2231,-787 2231,-806 2281,-806 2281,-787 2231,-787"/>
<text text-anchor="middle" x="2256" y="-794" font-family="Helvetica,sans-Serif" font-size="10.00">double</text>
</a>
</g>
</g>
<!-- Node54&#45;&gt;Node13 -->
<g id="edge64" class="edge">
<title>Node54&#45;&gt;Node13</title>
<path fill="none" stroke="#9a32cd" stroke-dasharray="5,2" d="M2291.53,-795.41C2344.88,-793.36 2450.42,-787.87 2539,-774.5 2560.9,-771.19 2585.09,-765.82 2604.42,-761.09"/>
<polygon fill="#9a32cd" stroke="#9a32cd" points="2291.14,-791.92 2281.28,-795.78 2291.4,-798.91 2291.14,-791.92"/>
<text text-anchor="middle" x="2458" y="-793.5" font-family="Helvetica,sans-Serif" font-size="10.00"> elementMeasure</text>
</g>
<!-- Node55 -->
<g id="node55" class="node">
<title>Node55</title>
<g id="a_node55"><a xlink:title=" ">
<polygon fill="white" stroke="#bfbfbf" points="2170,-727 2170,-768 2342,-768 2342,-727 2170,-727"/>
<text text-anchor="start" x="2178" y="-756" font-family="Helvetica,sans-Serif" font-size="10.00">array&lt; boost::shared</text>
<text text-anchor="start" x="2178" y="-745" font-family="Helvetica,sans-Serif" font-size="10.00">_ptr&lt; MoFEM::EntitiesFieldData</text>
<text text-anchor="middle" x="2256" y="-734" font-family="Helvetica,sans-Serif" font-size="10.00"> &gt;, LASTSPACE &gt;</text>
</a>
</g>
</g>
<!-- Node55&#45;&gt;Node13 -->
<g id="edge65" class="edge">
<title>Node55&#45;&gt;Node13</title>
<path fill="none" stroke="#9a32cd" stroke-dasharray="5,2" d="M2352.51,-748.49C2415.19,-749.15 2496.4,-749.99 2556.68,-750.62"/>
<polygon fill="#9a32cd" stroke="#9a32cd" points="2352.26,-744.99 2342.22,-748.39 2352.19,-751.99 2352.26,-744.99"/>
<text text-anchor="middle" x="2458" y="-763.5" font-family="Helvetica,sans-Serif" font-size="10.00"> derivedDataOnElement</text>
<text text-anchor="middle" x="2458" y="-752.5" font-family="Helvetica,sans-Serif" font-size="10.00">dataOnElement</text>
</g>
<!-- Node56 -->
<g id="node56" class="node">
<title>Node56</title>
<g id="a_node56"><a xlink:title=" ">
<polygon fill="white" stroke="#bfbfbf" points="2222,-689 2222,-708 2290,-708 2290,-689 2222,-689"/>
<text text-anchor="middle" x="2256" y="-696" font-family="Helvetica,sans-Serif" font-size="10.00">EntityType</text>
</a>
</g>
</g>
<!-- Node56&#45;&gt;Node13 -->
<g id="edge66" class="edge">
<title>Node56&#45;&gt;Node13</title>
<path fill="none" stroke="#9a32cd" stroke-dasharray="5,2" d="M2300.23,-703.17C2355.65,-709.32 2454.67,-720.83 2539,-733.5 2555.63,-736 2573.71,-739.07 2589.98,-741.97"/>
<polygon fill="#9a32cd" stroke="#9a32cd" points="2300.39,-699.67 2290.07,-702.05 2299.63,-706.62 2300.39,-699.67"/>
<text text-anchor="middle" x="2458" y="-736.5" font-family="Helvetica,sans-Serif" font-size="10.00"> lastEvaluatedElementEntityType</text>
</g>
<!-- Node57 -->
<g id="node57" class="node">
<title>Node57</title>
<g id="a_node57"><a xlink:href="structMoFEM_1_1DeprecatedCoreInterface.html" target="_top" xlink:title="Deprecated interface functions.">
<polygon fill="white" stroke="black" points="1600,-151 1600,-170 1781,-170 1781,-151 1600,-151"/>
<text text-anchor="middle" x="1690.5" y="-158" font-family="Helvetica,sans-Serif" font-size="10.00">MoFEM::DeprecatedCoreInterface</text>
</a>
</g>
</g>
<!-- Node57&#45;&gt;Node13 -->
<g id="edge67" class="edge">
<title>Node57&#45;&gt;Node13</title>
<path fill="none" stroke="#9a32cd" stroke-dasharray="5,2" d="M1718.12,-175.03C1736.15,-185.1 1760.35,-199.06 1781,-212.5 1952.21,-323.96 1961.56,-411.19 2153,-482.5 2233.68,-512.55 2478.2,-454.55 2539,-515.5 2573.17,-549.76 2525.26,-695.98 2557,-732.5 2560.24,-736.22 2564.04,-739.3 2568.2,-741.84"/>
<polygon fill="#9a32cd" stroke="#9a32cd" points="1719.75,-171.93 1709.31,-170.15 1716.36,-178.06 1719.75,-171.93"/>
<text text-anchor="middle" x="2063" y="-477.5" font-family="Helvetica,sans-Serif" font-size="10.00"> mField</text>
</g>
<!-- Node58&#45;&gt;Node57 -->
<g id="edge68" class="edge">
<title>Node58&#45;&gt;Node57</title>
<path fill="none" stroke="midnightblue" d="M1214.32,-105.77C1315.56,-117.43 1499.81,-138.65 1606.69,-150.96"/>
<polygon fill="midnightblue" stroke="midnightblue" points="1214.52,-102.27 1204.18,-104.6 1213.72,-109.23 1214.52,-102.27"/>
</g>
<!-- Node59 -->
<g id="node59" class="node">
<title>Node59</title>
<g id="a_node59"><a xlink:title=" ">
<polygon fill="white" stroke="#bfbfbf" points="2172.5,-579.5 2172.5,-631.5 2339.5,-631.5 2339.5,-579.5 2172.5,-579.5"/>
<text text-anchor="start" x="2180.5" y="-619.5" font-family="Helvetica,sans-Serif" font-size="10.00">function&lt; MoFEMErrorCode</text>
<text text-anchor="start" x="2180.5" y="-608.5" font-family="Helvetica,sans-Serif" font-size="10.00">(ForcesAndSourcesCore *fe</text>
<text text-anchor="start" x="2180.5" y="-597.5" font-family="Helvetica,sans-Serif" font-size="10.00">_raw_ptr, int order_row,</text>
<text text-anchor="middle" x="2256" y="-586.5" font-family="Helvetica,sans-Serif" font-size="10.00"> int order_col, int order_data)&gt;</text>
</a>
</g>
</g>
<!-- Node59&#45;&gt;Node13 -->
<g id="edge71" class="edge">
<title>Node59&#45;&gt;Node13</title>
<path fill="none" stroke="#9a32cd" stroke-dasharray="5,2" d="M2349.7,-583.66C2410.9,-575.1 2488.79,-576.26 2539,-621.5 2576.13,-654.95 2522.77,-696.09 2557,-732.5 2560.58,-736.31 2564.76,-739.44 2569.3,-741.99"/>
<polygon fill="#9a32cd" stroke="#9a32cd" points="2349,-580.23 2339.64,-585.18 2350.05,-587.15 2349,-580.23"/>
<text text-anchor="middle" x="2458" y="-624.5" font-family="Helvetica,sans-Serif" font-size="10.00"> setRuleHook</text>
</g>
<!-- Node60 -->
<g id="node60" class="node">
<title>Node60</title>
<g id="a_node60"><a xlink:title=" ">
<polygon fill="white" stroke="#bfbfbf" points="2155,-530.5 2155,-560.5 2357,-560.5 2357,-530.5 2155,-530.5"/>
<text text-anchor="start" x="2163" y="-548.5" font-family="Helvetica,sans-Serif" font-size="10.00">ptr_deque&lt; MoFEM::Forces</text>
<text text-anchor="middle" x="2256" y="-537.5" font-family="Helvetica,sans-Serif" font-size="10.00">AndSourcesCore::UserDataOperator &gt;</text>
</a>
</g>
</g>
<!-- Node60&#45;&gt;Node13 -->
<g id="edge72" class="edge">
<title>Node60&#45;&gt;Node13</title>
<path fill="none" stroke="#9a32cd" stroke-dasharray="5,2" d="M2322.7,-528.49C2386.75,-516.25 2482.5,-510.19 2539,-564.5 2566.07,-590.52 2532.03,-704.46 2557,-732.5 2560.38,-736.3 2564.35,-739.42 2568.68,-741.98"/>
<polygon fill="#9a32cd" stroke="#9a32cd" points="2321.82,-525.1 2312.71,-530.5 2323.2,-531.96 2321.82,-525.1"/>
<text text-anchor="middle" x="2458" y="-567.5" font-family="Helvetica,sans-Serif" font-size="10.00"> opPtrVector</text>
</g>
<!-- Node61 -->
<g id="node61" class="node">
<title>Node61</title>
<g id="a_node61"><a xlink:href="structMoFEM_1_1EntitiesFieldData.html" target="_top" xlink:title="data structure for finite element entity">
<polygon fill="white" stroke="black" points="2185,-651 2185,-670 2327,-670 2327,-651 2185,-651"/>
<text text-anchor="middle" x="2256" y="-658" font-family="Helvetica,sans-Serif" font-size="10.00">MoFEM::EntitiesFieldData</text>
</a>
</g>
</g>
<!-- Node61&#45;&gt;Node13 -->
<g id="edge73" class="edge">
<title>Node61&#45;&gt;Node13</title>
<path fill="none" stroke="#9a32cd" stroke-dasharray="5,2" d="M2321,-649.45C2393.75,-638.45 2506.63,-626.6 2539,-652.5 2567.46,-675.27 2531.24,-706.72 2557,-732.5 2560.8,-736.31 2565.2,-739.42 2569.94,-741.96"/>
<polygon fill="#9a32cd" stroke="#9a32cd" points="2320.36,-646.01 2311.02,-651 2321.43,-652.93 2320.36,-646.01"/>
<text text-anchor="middle" x="2458" y="-699.5" font-family="Helvetica,sans-Serif" font-size="10.00"> dataNoField</text>
<text text-anchor="middle" x="2458" y="-688.5" font-family="Helvetica,sans-Serif" font-size="10.00">dataL2</text>
<text text-anchor="middle" x="2458" y="-677.5" font-family="Helvetica,sans-Serif" font-size="10.00">dataH1</text>
<text text-anchor="middle" x="2458" y="-666.5" font-family="Helvetica,sans-Serif" font-size="10.00">dataHcurl</text>
<text text-anchor="middle" x="2458" y="-655.5" font-family="Helvetica,sans-Serif" font-size="10.00">dataHdiv</text>
</g>
<!-- Node62 -->
<g id="node62" class="node">
<title>Node62</title>
<g id="a_node62"><a xlink:title=" ">
<polygon fill="white" stroke="#bfbfbf" points="1805,-543.5 1805,-573.5 1967,-573.5 1967,-543.5 1805,-543.5"/>
<text text-anchor="start" x="1813" y="-561.5" font-family="Helvetica,sans-Serif" font-size="10.00">array&lt; std::bitset</text>
<text text-anchor="middle" x="1886" y="-550.5" font-family="Helvetica,sans-Serif" font-size="10.00">&lt; LASTBASE &gt;, LASTSPACE &gt;</text>
</a>
</g>
</g>
<!-- Node62&#45;&gt;Node61 -->
<g id="edge74" class="edge">
<title>Node62&#45;&gt;Node61</title>
<path fill="none" stroke="#9a32cd" stroke-dasharray="5,2" d="M1954.98,-541.68C2009.69,-532.44 2085.36,-529.91 2135,-570.5 2160.2,-591.11 2129.25,-619.23 2153,-641.5 2161.87,-649.82 2173.15,-655.07 2184.96,-658.29"/>
<polygon fill="#9a32cd" stroke="#9a32cd" points="1954.25,-538.26 1945.02,-543.48 1955.49,-545.15 1954.25,-538.26"/>
<text text-anchor="middle" x="2063" y="-584.5" font-family="Helvetica,sans-Serif" font-size="10.00"> brokenBasesOnSpaces</text>
<text text-anchor="middle" x="2063" y="-573.5" font-family="Helvetica,sans-Serif" font-size="10.00">basesOnSpaces</text>
</g>
<!-- Node63 -->
<g id="node63" class="node">
<title>Node63</title>
<g id="a_node63"><a xlink:title=" ">
<polygon fill="white" stroke="#bfbfbf" points="1809.5,-770 1809.5,-811 1962.5,-811 1962.5,-770 1809.5,-770"/>
<text text-anchor="start" x="1817.5" y="-799" font-family="Helvetica,sans-Serif" font-size="10.00">array&lt; boost::ptr_vector</text>
<text text-anchor="start" x="1817.5" y="-788" font-family="Helvetica,sans-Serif" font-size="10.00">&lt; MoFEM::EntitiesFieldData</text>
<text text-anchor="middle" x="1886" y="-777" font-family="Helvetica,sans-Serif" font-size="10.00">::EntData &gt;, MBMAXTYPE &gt;</text>
</a>
</g>
</g>
<!-- Node63&#45;&gt;Node61 -->
<g id="edge75" class="edge">
<title>Node63&#45;&gt;Node61</title>
<path fill="none" stroke="#9a32cd" stroke-dasharray="5,2" d="M1972.75,-797.47C2025.8,-797.01 2091.8,-787.09 2135,-747.5 2158.05,-726.38 2130.08,-700.77 2153,-679.5 2161.85,-671.29 2173.05,-666.08 2184.77,-662.85"/>
<polygon fill="#9a32cd" stroke="#9a32cd" points="1972.67,-793.97 1962.66,-797.44 1972.65,-800.97 1972.67,-793.97"/>
<text text-anchor="middle" x="2063" y="-799.5" font-family="Helvetica,sans-Serif" font-size="10.00"> dataOnEntities</text>
</g>
<!-- Node64 -->
<g id="node64" class="node">
<title>Node64</title>
<g id="a_node64"><a xlink:title=" ">
<polygon fill="white" stroke="#bfbfbf" points="1799,-720.5 1799,-750.5 1973,-750.5 1973,-720.5 1799,-720.5"/>
<text text-anchor="start" x="1807" y="-738.5" font-family="Helvetica,sans-Serif" font-size="10.00">array&lt; std::bitset</text>
<text text-anchor="middle" x="1886" y="-727.5" font-family="Helvetica,sans-Serif" font-size="10.00">&lt; LASTSPACE &gt;, MBMAXTYPE &gt;</text>
</a>
</g>
</g>
<!-- Node64&#45;&gt;Node61 -->
<g id="edge76" class="edge">
<title>Node64&#45;&gt;Node61</title>
<path fill="none" stroke="#9a32cd" stroke-dasharray="5,2" d="M1983.18,-733.66C2030.88,-729.52 2088.16,-719.5 2135,-696.5 2144.88,-691.65 2143.19,-684.49 2153,-679.5 2162.87,-674.48 2173.89,-670.77 2184.93,-668.04"/>
<polygon fill="#9a32cd" stroke="#9a32cd" points="1982.84,-730.18 1973.15,-734.46 1983.4,-737.16 1982.84,-730.18"/>
<text text-anchor="middle" x="2063" y="-735.5" font-family="Helvetica,sans-Serif" font-size="10.00"> spacesOnEntities</text>
</g>
<!-- Node65 -->
<g id="node65" class="node">
<title>Node65</title>
<g id="a_node65"><a xlink:title=" ">
<polygon fill="white" stroke="#bfbfbf" points="1801.5,-632.5 1801.5,-662.5 1970.5,-662.5 1970.5,-632.5 1801.5,-632.5"/>
<text text-anchor="start" x="1809.5" y="-650.5" font-family="Helvetica,sans-Serif" font-size="10.00">array&lt; std::bitset</text>
<text text-anchor="middle" x="1886" y="-639.5" font-family="Helvetica,sans-Serif" font-size="10.00">&lt; LASTBASE &gt;, MBMAXTYPE &gt;</text>
</a>
</g>
</g>
<!-- Node65&#45;&gt;Node61 -->
<g id="edge77" class="edge">
<title>Node65&#45;&gt;Node61</title>
<path fill="none" stroke="#9a32cd" stroke-dasharray="5,2" d="M1980.54,-650.8C2044.11,-653.05 2126.86,-655.97 2184.81,-658.02"/>
<polygon fill="#9a32cd" stroke="#9a32cd" points="1980.62,-647.31 1970.5,-650.45 1980.38,-654.3 1980.62,-647.31"/>
<text text-anchor="middle" x="2063" y="-658.5" font-family="Helvetica,sans-Serif" font-size="10.00"> basesOnEntities</text>
</g>
<!-- Node66 -->
<g id="node66" class="node">
<title>Node66</title>
<g id="a_node66"><a xlink:title=" ">
<polygon fill="white" stroke="#bfbfbf" points="1830,-594 1830,-613 1942,-613 1942,-594 1830,-594"/>
<text text-anchor="middle" x="1886" y="-601" font-family="Helvetica,sans-Serif" font-size="10.00">UBlasMatrix&lt; int &gt;</text>
</a>
</g>
</g>
<!-- Node66&#45;&gt;Node61 -->
<g id="edge78" class="edge">
<title>Node66&#45;&gt;Node61</title>
<path fill="none" stroke="#9a32cd" stroke-dasharray="5,2" d="M1952.36,-597.56C2004.13,-595.5 2077.13,-598.61 2135,-624.5 2145.04,-628.99 2143.19,-636.51 2153,-641.5 2162.87,-646.52 2173.89,-650.23 2184.93,-652.96"/>
<polygon fill="#9a32cd" stroke="#9a32cd" points="1952.12,-594.07 1942.3,-598.04 1952.45,-601.06 1952.12,-594.07"/>
<text text-anchor="middle" x="2063" y="-638.5" font-family="Helvetica,sans-Serif" font-size="10.00"> facesNodesOrder</text>
<text text-anchor="middle" x="2063" y="-627.5" font-family="Helvetica,sans-Serif" font-size="10.00">facesNodes</text>
</g>
<!-- Node67 -->
<g id="node67" class="node">
<title>Node67</title>
<g id="a_node67"><a xlink:title=" ">
<polygon fill="white" stroke="#bfbfbf" points="1827.5,-682 1827.5,-701 1944.5,-701 1944.5,-682 1827.5,-682"/>
<text text-anchor="middle" x="1886" y="-689" font-family="Helvetica,sans-Serif" font-size="10.00">bitset&lt; LASTBASE &gt;</text>
</a>
</g>
</g>
<!-- Node67&#45;&gt;Node61 -->
<g id="edge79" class="edge">
<title>Node67&#45;&gt;Node61</title>
<path fill="none" stroke="#9a32cd" stroke-dasharray="5,2" d="M1955.11,-685.76C2020.49,-680.25 2118.8,-671.97 2184.86,-666.41"/>
<polygon fill="#9a32cd" stroke="#9a32cd" points="1954.58,-682.29 1944.9,-686.62 1955.16,-689.27 1954.58,-682.29"/>
<text text-anchor="middle" x="2063" y="-684.5" font-family="Helvetica,sans-Serif" font-size="10.00"> bAse</text>
</g>
<!-- Node68 -->
<g id="node68" class="node">
<title>Node68</title>
<g id="a_node68"><a xlink:title=" ">
<polygon fill="white" stroke="#bfbfbf" points="2193.5,-913 2193.5,-954 2318.5,-954 2318.5,-913 2193.5,-913"/>
<text text-anchor="start" x="2201.5" y="-942" font-family="Helvetica,sans-Serif" font-size="10.00">function&lt; int(int order</text>
<text text-anchor="start" x="2201.5" y="-931" font-family="Helvetica,sans-Serif" font-size="10.00">_row, int order_col, int</text>
<text text-anchor="middle" x="2256" y="-920" font-family="Helvetica,sans-Serif" font-size="10.00"> order_data)&gt;</text>
</a>
</g>
</g>
<!-- Node68&#45;&gt;Node13 -->
<g id="edge80" class="edge">
<title>Node68&#45;&gt;Node13</title>
<path fill="none" stroke="#9a32cd" stroke-dasharray="5,2" d="M2328.99,-935.06C2400.68,-935.35 2504.84,-932 2539,-911.5 2598.6,-875.73 2629.24,-790.23 2638.18,-761.28"/>
<polygon fill="#9a32cd" stroke="#9a32cd" points="2328.68,-931.56 2318.66,-934.99 2328.64,-938.56 2328.68,-931.56"/>
<text text-anchor="middle" x="2458" y="-937.5" font-family="Helvetica,sans-Serif" font-size="10.00"> getRuleHook</text>
</g>
<!-- Node69 -->
<g id="node69" class="node">
<title>Node69</title>
<g id="a_node69"><a xlink:title=" ">
<polygon fill="white" stroke="#bfbfbf" points="2195,-863.5 2195,-893.5 2317,-893.5 2317,-863.5 2195,-863.5"/>
<text text-anchor="start" x="2203" y="-881.5" font-family="Helvetica,sans-Serif" font-size="10.00">shared_ptr&lt; MoFEM::</text>
<text text-anchor="middle" x="2256" y="-870.5" font-family="Helvetica,sans-Serif" font-size="10.00">BaseFunction &gt;</text>
</a>
</g>
</g>
<!-- Node69&#45;&gt;Node13 -->
<g id="edge81" class="edge">
<title>Node69&#45;&gt;Node13</title>
<path fill="none" stroke="#9a32cd" stroke-dasharray="5,2" d="M2327.07,-886.37C2386.35,-889.99 2472.08,-887.91 2539,-856.5 2585.01,-834.9 2621.39,-782.96 2635.1,-761.27"/>
<polygon fill="#9a32cd" stroke="#9a32cd" points="2327.27,-882.87 2317.06,-885.69 2326.8,-889.86 2327.27,-882.87"/>
<text text-anchor="middle" x="2458" y="-901.5" font-family="Helvetica,sans-Serif" font-size="10.00"> userPolynomialBasePtr</text>
<text text-anchor="middle" x="2458" y="-890.5" font-family="Helvetica,sans-Serif" font-size="10.00">elementPolynomialBasePtr</text>
</g>
<!-- Node70 -->
<g id="node70" class="node">
<title>Node70</title>
<g id="a_node70"><a xlink:href="classUBlasMatrix_3_01double_01_4.html" target="_top" xlink:title=" ">
<polygon fill="white" stroke="black" points="2190,-825 2190,-844 2322,-844 2322,-825 2190,-825"/>
<text text-anchor="middle" x="2256" y="-832" font-family="Helvetica,sans-Serif" font-size="10.00">UBlasMatrix&lt; double &gt;</text>
</a>
</g>
</g>
<!-- Node70&#45;&gt;Node13 -->
<g id="edge82" class="edge">
<title>Node70&#45;&gt;Node13</title>
<path fill="none" stroke="#9a32cd" stroke-dasharray="5,2" d="M2332.36,-834.54C2390.06,-832.72 2471.03,-826.13 2539,-805.5 2572.74,-795.26 2608.3,-773.58 2627.23,-761.02"/>
<polygon fill="#9a32cd" stroke="#9a32cd" points="2332.12,-831.04 2322.22,-834.82 2332.32,-838.04 2332.12,-831.04"/>
<text text-anchor="middle" x="2458" y="-845.5" font-family="Helvetica,sans-Serif" font-size="10.00"> coordsAtGaussPts</text>
<text text-anchor="middle" x="2458" y="-834.5" font-family="Helvetica,sans-Serif" font-size="10.00">gaussPts</text>
</g>
<!-- Node71 -->
<g id="node71" class="node">
<title>Node71</title>
<g id="a_node71"><a xlink:title=" ">
<polygon fill="white" stroke="#bfbfbf" points="2576.5,-704 2576.5,-723 2707.5,-723 2707.5,-704 2576.5,-704"/>
<text text-anchor="middle" x="2642" y="-711" font-family="Helvetica,sans-Serif" font-size="10.00">static const char *const</text>
</a>
</g>
</g>
<!-- Node71&#45;&gt;Node5 -->
<g id="edge83" class="edge">
<title>Node71&#45;&gt;Node5</title>
<path fill="none" stroke="#9a32cd" stroke-dasharray="5,2" d="M2717.96,-713.5C2754.64,-713.5 2798.93,-713.5 2836.78,-713.5"/>
<polygon fill="#9a32cd" stroke="#9a32cd" points="2717.83,-710 2707.83,-713.5 2717.83,-717 2717.83,-710"/>
<text text-anchor="middle" x="2782" y="-716.5" font-family="Helvetica,sans-Serif" font-size="10.00"> OpTypeNames</text>
</g>
<!-- Node72 -->
<g id="node72" class="node">
<title>Node72</title>
<g id="a_node72"><a xlink:title=" ">
<polygon fill="white" stroke="#bfbfbf" points="3392.5,-88 3392.5,-107 3475.5,-107 3475.5,-88 3392.5,-88"/>
<text text-anchor="middle" x="3434" y="-95" font-family="Helvetica,sans-Serif" font-size="10.00">MatrixDouble</text>
</a>
</g>
</g>
<!-- Node72&#45;&gt;Node2 -->
<g id="edge85" class="edge">
<title>Node72&#45;&gt;Node2</title>
<path fill="none" stroke="#9a32cd" stroke-dasharray="5,2" d="M3485.88,-100.89C3523.05,-103.41 3574.66,-107.01 3620,-110.5 3625.79,-110.95 3631.75,-111.42 3637.76,-111.9"/>
<polygon fill="#9a32cd" stroke="#9a32cd" points="3486.01,-97.39 3475.79,-100.21 3485.54,-104.38 3486.01,-97.39"/>
<text text-anchor="middle" x="3579" y="-113.5" font-family="Helvetica,sans-Serif" font-size="10.00"> NN</text>
</g>
<!-- Node73 -->
<g id="node73" class="node">
<title>Node73</title>
<g id="a_node73"><a xlink:title=" ">
<polygon fill="white" stroke="#bfbfbf" points="3404,-50 3404,-69 3464,-69 3464,-50 3404,-50"/>
<text text-anchor="middle" x="3434" y="-57" font-family="Helvetica,sans-Serif" font-size="10.00">VectorInt</text>
</a>
</g>
</g>
<!-- Node73&#45;&gt;Node2 -->
<g id="edge88" class="edge">
<title>Node73&#45;&gt;Node2</title>
<path fill="none" stroke="#9a32cd" stroke-dasharray="5,2" d="M3474.32,-60.56C3512.11,-62.28 3570.61,-66.76 3620,-78.5 3645.85,-84.64 3673.85,-95.47 3694.8,-104.46"/>
<polygon fill="#9a32cd" stroke="#9a32cd" points="3474.37,-57.06 3464.23,-60.15 3474.08,-64.05 3474.37,-57.06"/>
<text text-anchor="middle" x="3579" y="-92.5" font-family="Helvetica,sans-Serif" font-size="10.00"> rowIndices</text>
<text text-anchor="middle" x="3579" y="-81.5" font-family="Helvetica,sans-Serif" font-size="10.00">colIndices</text>
</g>
<!-- Node74 -->
<g id="node74" class="node">
<title>Node74</title>
<g id="a_node74"><a xlink:title=" ">
<polygon fill="white" stroke="#bfbfbf" points="3348,-0.5 3348,-30.5 3520,-30.5 3520,-0.5 3348,-0.5"/>
<text text-anchor="start" x="3356" y="-18.5" font-family="Helvetica,sans-Serif" font-size="10.00">shared_ptr&lt; MetaSpringBC</text>
<text text-anchor="middle" x="3434" y="-7.5" font-family="Helvetica,sans-Serif" font-size="10.00">::DataAtIntegrationPtsSprings &gt;</text>
</a>
</g>
</g>
<!-- Node74&#45;&gt;Node2 -->
<g id="edge89" class="edge">
<title>Node74&#45;&gt;Node2</title>
<path fill="none" stroke="#9a32cd" stroke-dasharray="5,2" d="M3530.2,-25.62C3559.67,-30.69 3591.79,-38.25 3620,-49.5 3654.13,-63.11 3688.92,-88.26 3709.35,-104.41"/>
<polygon fill="#9a32cd" stroke="#9a32cd" points="3530.75,-22.16 3520.31,-23.99 3529.61,-29.07 3530.75,-22.16"/>
<text text-anchor="middle" x="3579" y="-52.5" font-family="Helvetica,sans-Serif" font-size="10.00"> dataAtSpringPts</text>
</g>
</g>
</svg>
        <g id="navigator" transform="translate(0 0)" fill="#404254">
                <rect fill="#f2f5e9" fill-opacity="0.5" stroke="#606060" stroke-width=".5" x="0" y="0" width="60" height="60"/>
                <use id="zoomplus" xlink:href="#zoomPlus" x="17" y="9" onmousedown="handleZoom(evt,'in')"/>
                <use id="zoomminus" xlink:href="#zoomMin" x="42" y="9" onmousedown="handleZoom(evt,'out')"/>
                <use id="reset" xlink:href="#resetDef" x="30" y="36" onmousedown="handleReset()"/>
                <g id="arrowUp" xlink:href="#dirArrow" transform="translate(30 24)" onmousedown="handlePan(0,-1)">
                  <use xlink:href="#rim" fill="#404040">
                        <set attributeName="fill" to="#808080" begin="arrowUp.mouseover" end="arrowUp.mouseout"/>
                  </use>
                  <path fill="none" stroke="white" stroke-width="1.5" d="M0,-3.0v7 M-2.5,-0.5L0,-3.0L2.5,-0.5"/>
                </g>
                <g id="arrowRight" xlink:href="#dirArrow" transform="rotate(90) translate(36 -43)" onmousedown="handlePan(1,0)">
                  <use xlink:href="#rim" fill="#404040">
                        <set attributeName="fill" to="#808080" begin="arrowRight.mouseover" end="arrowRight.mouseout"/>
                  </use>
                  <path fill="none" stroke="white" stroke-width="1.5" d="M0,-3.0v7 M-2.5,-0.5L0,-3.0L2.5,-0.5"/>
                </g>
                <g id="arrowDown" xlink:href="#dirArrow" transform="rotate(180) translate(-30 -48)" onmousedown="handlePan(0,1)">
                  <use xlink:href="#rim" fill="#404040">
                        <set attributeName="fill" to="#808080" begin="arrowDown.mouseover" end="arrowDown.mouseout"/>
                  </use>
                  <path fill="none" stroke="white" stroke-width="1.5" d="M0,-3.0v7 M-2.5,-0.5L0,-3.0L2.5,-0.5"/>
                </g>
                <g id="arrowLeft" xlink:href="#dirArrow" transform="rotate(270) translate(-36 17)" onmousedown="handlePan(-1,0)">
                  <use xlink:href="#rim" fill="#404040">
                        <set attributeName="fill" to="#808080" begin="arrowLeft.mouseover" end="arrowLeft.mouseout"/>
                  </use>
                  <path fill="none" stroke="white" stroke-width="1.5" d="M0,-3.0v7 M-2.5,-0.5L0,-3.0L2.5,-0.5"/>
                </g>
        </g>
        <svg viewBox="0 0 15 15" width="100%" height="30px" preserveAspectRatio="xMaxYMin meet">
         <g id="arrow_out" transform="scale(0.3 0.3)">
          <a xlink:href="structMetaSpringBC_1_1SpringALEMaterialVolOnSideLhs__dX__dx__coll__graph_org.svg" target="_base">
           <rect id="button" ry="5" rx="5" y="6" x="6" height="38" width="38"
                fill="#f2f5e9" fill-opacity="0.5" stroke="#606060" stroke-width="1.0"/>
           <path id="arrow"
             d="M 11.500037,31.436501 C 11.940474,20.09759 22.043105,11.32322 32.158766,21.979434 L 37.068811,17.246167 C 37.068811,17.246167 37.088388,32 37.088388,32 L 22.160133,31.978069 C 22.160133,31.978069 26.997745,27.140456 26.997745,27.140456 C 18.528582,18.264221 13.291696,25.230495 11.500037,31.436501 z"
             style="fill:#404040;"/>
          </a>
         </g>
        </svg>
</svg>
