<?xml version="1.0" encoding="UTF-8" standalone="no"?>
<!DOCTYPE svg PUBLIC "-//W3C//DTD SVG 1.1//EN"
 "http://www.w3.org/Graphics/SVG/1.1/DTD/svg11.dtd">
<!-- Generated by graphviz version 2.43.0 (0)
 -->
<!-- Title: MoFEM::OpCalculateHTensorTensorField&lt; Tensor_Dim0, Tensor_Dim1 &gt; Pages: 1 -->
<!--zoomable 1506 -->
<svg id="main" version="1.1" xmlns="http://www.w3.org/2000/svg" xmlns:xlink="http://www.w3.org/1999/xlink" xml:space="preserve" onload="init(evt)">
<style type="text/css"><![CDATA[
.edge:hover path { stroke: red; }
.edge:hover polygon { stroke: red; fill: red; }
]]></style>
<script type="text/javascript"><![CDATA[
var edges = document.getElementsByTagName('g');
if (edges && edges.length) {
  for (var i=0;i<edges.length;i++) {
    if (edges[i].id.substr(0,4)=='edge') {
      edges[i].setAttribute('class','edge');
    }
  }
}
]]></script>
        <defs>
                <circle id="rim" cx="0" cy="0" r="7"/>
                <circle id="rim2" cx="0" cy="0" r="3.5"/>
                <g id="zoomPlus">
                        <use xlink:href="#rim" fill="#404040">
                                <set attributeName="fill" to="#808080" begin="zoomplus.mouseover" end="zoomplus.mouseout"/>
                        </use>
                        <path d="M-4,0h8M0,-4v8" fill="none" stroke="white" stroke-width="1.5" pointer-events="none"/>
                </g>
                <g id="zoomMin">
                        <use xlink:href="#rim" fill="#404040">
                                <set attributeName="fill" to="#808080" begin="zoomminus.mouseover" end="zoomminus.mouseout"/>
                        </use>
                        <path d="M-4,0h8" fill="none" stroke="white" stroke-width="1.5" pointer-events="none"/>
                </g>
                <g id="dirArrow">
                        <path fill="none" stroke="white" stroke-width="1.5" d="M0,-3.0v7 M-2.5,-0.5L0,-3.0L2.5,-0.5"/>
                </g>
               <g id="resetDef">
                       <use xlink:href="#rim2" fill="#404040">
                               <set attributeName="fill" to="#808080" begin="reset.mouseover" end="reset.mouseout"/>
                       </use>
               </g>
        </defs>

<script type="text/javascript">
var viewWidth = 3247;
var viewHeight = 1506;
var sectionId = 'dynsection-1';
</script>
<script xlink:href="svgpan.js"/>
<svg id="graph" class="graph">
<g id="viewport">
<title>MoFEM::OpCalculateHTensorTensorField&lt; Tensor_Dim0, Tensor_Dim1 &gt;</title>
<polygon fill="white" stroke="transparent" points="-4,4 -4,-1502 3243,-1502 3243,4 -4,4"/>
<!-- Node1 -->
<g id="node1" class="node">
<title>Node1</title>
<g id="a_node1"><a xlink:title="Calculate tenor field using tensor base, i.e. Hdiv/Hcurl.">
<polygon fill="#bfbfbf" stroke="black" points="3082,-837.5 3082,-878.5 3239,-878.5 3239,-837.5 3082,-837.5"/>
<text text-anchor="start" x="3090" y="-866.5" font-family="Helvetica,sans-Serif" font-size="10.00">MoFEM::OpCalculateHTensor</text>
<text text-anchor="start" x="3090" y="-855.5" font-family="Helvetica,sans-Serif" font-size="10.00">TensorField&lt; Tensor_Dim0,</text>
<text text-anchor="middle" x="3160.5" y="-844.5" font-family="Helvetica,sans-Serif" font-size="10.00"> Tensor_Dim1 &gt;</text>
</a>
</g>
</g>
<!-- Node2 -->
<g id="node2" class="node">
<title>Node2</title>
<g id="a_node2"><a xlink:href="structMoFEM_1_1ForcesAndSourcesCore_1_1UserDataOperator.html" target="_top" xlink:title=" ">
<polygon fill="white" stroke="black" points="2837,-1155 2837,-1185 3007,-1185 3007,-1155 2837,-1155"/>
<text text-anchor="start" x="2845" y="-1173" font-family="Helvetica,sans-Serif" font-size="10.00">MoFEM::ForcesAndSourcesCore</text>
<text text-anchor="middle" x="2922" y="-1162" font-family="Helvetica,sans-Serif" font-size="10.00">::UserDataOperator</text>
</a>
</g>
</g>
<!-- Node2&#45;&gt;Node1 -->
<g id="edge1" class="edge">
<title>Node2&#45;&gt;Node1</title>
<path fill="none" stroke="midnightblue" d="M2940.68,-1146.68C2985.19,-1087.96 3101.37,-934.68 3143.74,-878.78"/>
<polygon fill="midnightblue" stroke="midnightblue" points="2937.66,-1144.87 2934.41,-1154.95 2943.24,-1149.1 2937.66,-1144.87"/>
</g>
<!-- Node3 -->
<g id="node3" class="node">
<title>Node3</title>
<g id="a_node3"><a xlink:href="structMoFEM_1_1DataOperator.html" target="_top" xlink:title="base operator to do operations at Gauss Pt. level">
<polygon fill="white" stroke="black" points="2579.5,-1265.5 2579.5,-1284.5 2704.5,-1284.5 2704.5,-1265.5 2579.5,-1265.5"/>
<text text-anchor="middle" x="2642" y="-1272.5" font-family="Helvetica,sans-Serif" font-size="10.00">MoFEM::DataOperator</text>
</a>
</g>
</g>
<!-- Node3&#45;&gt;Node2 -->
<g id="edge2" class="edge">
<title>Node3&#45;&gt;Node2</title>
<path fill="none" stroke="midnightblue" d="M2677.56,-1261.95C2729.25,-1242.42 2826.43,-1205.72 2881.07,-1185.08"/>
<polygon fill="midnightblue" stroke="midnightblue" points="2676.28,-1258.69 2668.16,-1265.5 2678.75,-1265.24 2676.28,-1258.69"/>
</g>
<!-- Node4 -->
<g id="node4" class="node">
<title>Node4</title>
<g id="a_node4"><a xlink:title=" ">
<polygon fill="white" stroke="#bfbfbf" points="2160,-1256 2160,-1308 2352,-1308 2352,-1256 2160,-1256"/>
<text text-anchor="start" x="2168" y="-1296" font-family="Helvetica,sans-Serif" font-size="10.00">function&lt; MoFEMErrorCode</text>
<text text-anchor="start" x="2168" y="-1285" font-family="Helvetica,sans-Serif" font-size="10.00">(DataOperator *op_ptr,</text>
<text text-anchor="start" x="2168" y="-1274" font-family="Helvetica,sans-Serif" font-size="10.00"> int side, EntityType type,</text>
<text text-anchor="middle" x="2256" y="-1263" font-family="Helvetica,sans-Serif" font-size="10.00"> EntitiesFieldData::EntData &amp;data)&gt;</text>
</a>
</g>
</g>
<!-- Node4&#45;&gt;Node3 -->
<g id="edge3" class="edge">
<title>Node4&#45;&gt;Node3</title>
<path fill="none" stroke="#9a32cd" stroke-dasharray="5,2" d="M2362.4,-1283.01C2415.4,-1283.16 2480.62,-1282.82 2539,-1281 2552.03,-1280.59 2565.99,-1279.93 2579.26,-1279.18"/>
<polygon fill="#9a32cd" stroke="#9a32cd" points="2362.32,-1279.51 2352.31,-1282.97 2362.3,-1286.5 2362.32,-1279.51"/>
<text text-anchor="middle" x="2458" y="-1286" font-family="Helvetica,sans-Serif" font-size="10.00"> doWorkRhsHook</text>
</g>
<!-- Node5 -->
<g id="node5" class="node">
<title>Node5</title>
<g id="a_node5"><a xlink:href="classbool.html" target="_top" xlink:title=" ">
<polygon fill="white" stroke="black" points="2237,-1198.5 2237,-1217.5 2275,-1217.5 2275,-1198.5 2237,-1198.5"/>
<text text-anchor="middle" x="2256" y="-1205.5" font-family="Helvetica,sans-Serif" font-size="10.00">bool</text>
</a>
</g>
</g>
<!-- Node5&#45;&gt;Node3 -->
<g id="edge4" class="edge">
<title>Node5&#45;&gt;Node3</title>
<path fill="none" stroke="#9a32cd" stroke-dasharray="5,2" d="M2285,-1203.76C2347.39,-1194.84 2495.73,-1176.84 2539,-1200 2551.72,-1206.81 2546.46,-1217.16 2557,-1227 2575.05,-1243.85 2600.07,-1257.17 2618.1,-1265.47"/>
<polygon fill="#9a32cd" stroke="#9a32cd" points="2284.46,-1200.3 2275.07,-1205.2 2285.47,-1207.22 2284.46,-1200.3"/>
<text text-anchor="middle" x="2458" y="-1269" font-family="Helvetica,sans-Serif" font-size="10.00"> doTris</text>
<text text-anchor="middle" x="2458" y="-1258" font-family="Helvetica,sans-Serif" font-size="10.00">doQuads</text>
<text text-anchor="middle" x="2458" y="-1247" font-family="Helvetica,sans-Serif" font-size="10.00">sYmm</text>
<text text-anchor="middle" x="2458" y="-1236" font-family="Helvetica,sans-Serif" font-size="10.00">doPrisms</text>
<text text-anchor="middle" x="2458" y="-1225" font-family="Helvetica,sans-Serif" font-size="10.00">doTets</text>
<text text-anchor="middle" x="2458" y="-1214" font-family="Helvetica,sans-Serif" font-size="10.00">doVertices</text>
<text text-anchor="middle" x="2458" y="-1203" font-family="Helvetica,sans-Serif" font-size="10.00">doEdges</text>
</g>
<!-- Node6 -->
<g id="node6" class="node">
<title>Node6</title>
<g id="a_node6"><a xlink:title=" ">
<polygon fill="white" stroke="#bfbfbf" points="2153,-1365.5 2153,-1450.5 2359,-1450.5 2359,-1365.5 2153,-1365.5"/>
<text text-anchor="start" x="2161" y="-1438.5" font-family="Helvetica,sans-Serif" font-size="10.00">function&lt; MoFEMErrorCode</text>
<text text-anchor="start" x="2161" y="-1427.5" font-family="Helvetica,sans-Serif" font-size="10.00">(DataOperator *op_ptr,</text>
<text text-anchor="start" x="2161" y="-1416.5" font-family="Helvetica,sans-Serif" font-size="10.00"> int row_side, int col_side,</text>
<text text-anchor="start" x="2161" y="-1405.5" font-family="Helvetica,sans-Serif" font-size="10.00"> EntityType row_type, EntityType</text>
<text text-anchor="start" x="2161" y="-1394.5" font-family="Helvetica,sans-Serif" font-size="10.00"> col_type, EntitiesFieldData::EntData</text>
<text text-anchor="start" x="2161" y="-1383.5" font-family="Helvetica,sans-Serif" font-size="10.00"> &amp;row_data, EntitiesFieldData::EntData</text>
<text text-anchor="middle" x="2256" y="-1372.5" font-family="Helvetica,sans-Serif" font-size="10.00"> &amp;col_data)&gt;</text>
</a>
</g>
</g>
<!-- Node6&#45;&gt;Node3 -->
<g id="edge5" class="edge">
<title>Node6&#45;&gt;Node3</title>
<path fill="none" stroke="#9a32cd" stroke-dasharray="5,2" d="M2369.3,-1403.06C2425.9,-1395.23 2492.25,-1377.23 2539,-1337 2554.7,-1323.49 2541.13,-1307.32 2557,-1294 2563.53,-1288.52 2571.31,-1284.54 2579.47,-1281.66"/>
<polygon fill="#9a32cd" stroke="#9a32cd" points="2368.69,-1399.61 2359.22,-1404.36 2369.58,-1406.55 2368.69,-1399.61"/>
<text text-anchor="middle" x="2458" y="-1404" font-family="Helvetica,sans-Serif" font-size="10.00"> doWorkLhsHook</text>
</g>
<!-- Node7 -->
<g id="node7" class="node">
<title>Node7</title>
<g id="a_node7"><a xlink:title=" ">
<polygon fill="white" stroke="#bfbfbf" points="2179,-1327.5 2179,-1346.5 2333,-1346.5 2333,-1327.5 2179,-1327.5"/>
<text text-anchor="middle" x="2256" y="-1334.5" font-family="Helvetica,sans-Serif" font-size="10.00">array&lt; bool, MBMAXTYPE &gt;</text>
</a>
</g>
</g>
<!-- Node7&#45;&gt;Node3 -->
<g id="edge6" class="edge">
<title>Node7&#45;&gt;Node3</title>
<path fill="none" stroke="#9a32cd" stroke-dasharray="5,2" d="M2343.51,-1326.95C2399.46,-1319.98 2473.76,-1309.84 2539,-1298 2540.58,-1297.71 2571.58,-1290.72 2598.99,-1284.52"/>
<polygon fill="#9a32cd" stroke="#9a32cd" points="2342.77,-1323.52 2333.28,-1328.22 2343.63,-1330.47 2342.77,-1323.52"/>
<text text-anchor="middle" x="2458" y="-1325" font-family="Helvetica,sans-Serif" font-size="10.00"> doEntities</text>
</g>
<!-- Node8 -->
<g id="node8" class="node">
<title>Node8</title>
<g id="a_node8"><a xlink:title=" ">
<polygon fill="white" stroke="#bfbfbf" points="2607.5,-1198.5 2607.5,-1217.5 2676.5,-1217.5 2676.5,-1198.5 2607.5,-1198.5"/>
<text text-anchor="middle" x="2642" y="-1205.5" font-family="Helvetica,sans-Serif" font-size="10.00">FieldSpace</text>
</a>
</g>
</g>
<!-- Node8&#45;&gt;Node2 -->
<g id="edge7" class="edge">
<title>Node8&#45;&gt;Node2</title>
<path fill="none" stroke="#9a32cd" stroke-dasharray="5,2" d="M2686.8,-1202.04C2722.41,-1197.19 2773.95,-1190.16 2819,-1184 2824.84,-1183.2 2830.88,-1182.37 2836.95,-1181.54"/>
<polygon fill="#9a32cd" stroke="#9a32cd" points="2686.18,-1198.59 2676.74,-1203.41 2687.12,-1205.53 2686.18,-1198.59"/>
<text text-anchor="middle" x="2782" y="-1196" font-family="Helvetica,sans-Serif" font-size="10.00"> sPace</text>
</g>
<!-- Node9 -->
<g id="node9" class="node">
<title>Node9</title>
<g id="a_node9"><a xlink:title=" ">
<polygon fill="white" stroke="#bfbfbf" points="1122.5,-1242.5 1122.5,-1261.5 1160.5,-1261.5 1160.5,-1242.5 1122.5,-1242.5"/>
<text text-anchor="middle" x="1141.5" y="-1249.5" font-family="Helvetica,sans-Serif" font-size="10.00">char</text>
</a>
</g>
</g>
<!-- Node9&#45;&gt;Node2 -->
<g id="edge8" class="edge">
<title>Node9&#45;&gt;Node2</title>
<path fill="none" stroke="#9a32cd" stroke-dasharray="5,2" d="M1169.95,-1263.18C1193.62,-1272.18 1228.93,-1284.11 1261,-1289 1402.04,-1310.51 1439.87,-1301.35 1582,-1289 1838.67,-1266.69 1896.62,-1214.48 2153,-1189 2400.69,-1164.38 2695.4,-1165.56 2836.94,-1168.01"/>
<polygon fill="#9a32cd" stroke="#9a32cd" points="1171.15,-1259.89 1160.57,-1259.53 1168.62,-1266.42 1171.15,-1259.89"/>
<text text-anchor="middle" x="2063" y="-1214" font-family="Helvetica,sans-Serif" font-size="10.00"> opType</text>
</g>
<!-- Node37 -->
<g id="node37" class="node">
<title>Node37</title>
<g id="a_node37"><a xlink:href="structMoFEM_1_1Problem.html" target="_top" xlink:title="keeps basic data about problem">
<polygon fill="white" stroke="black" points="1449,-958.5 1449,-977.5 1548,-977.5 1548,-958.5 1449,-958.5"/>
<text text-anchor="middle" x="1498.5" y="-965.5" font-family="Helvetica,sans-Serif" font-size="10.00">MoFEM::Problem</text>
</a>
</g>
</g>
<!-- Node9&#45;&gt;Node37 -->
<g id="edge52" class="edge">
<title>Node9&#45;&gt;Node37</title>
<path fill="none" stroke="#9a32cd" stroke-dasharray="5,2" d="M1170.12,-1239.21C1191.05,-1228.92 1220.02,-1213.36 1243,-1196 1252.03,-1189.18 1250.95,-1183.19 1261,-1178 1315.47,-1149.88 1354.99,-1199.65 1397,-1155 1448.46,-1100.31 1365.17,-1043.18 1415,-987 1423.58,-977.32 1436.01,-972.05 1448.63,-969.31"/>
<polygon fill="#9a32cd" stroke="#9a32cd" points="1168.33,-1236.19 1160.84,-1243.69 1171.37,-1242.5 1168.33,-1236.19"/>
<text text-anchor="middle" x="1329" y="-1181" font-family="Helvetica,sans-Serif" font-size="10.00"> tagName</text>
</g>
<!-- Node10 -->
<g id="node10" class="node">
<title>Node10</title>
<g id="a_node10"><a xlink:href="structMoFEM_1_1ForcesAndSourcesCore.html" target="_top" xlink:title="structure to get information form mofem into EntitiesFieldData">
<polygon fill="white" stroke="black" points="2557,-846.5 2557,-865.5 2727,-865.5 2727,-846.5 2557,-846.5"/>
<text text-anchor="middle" x="2642" y="-853.5" font-family="Helvetica,sans-Serif" font-size="10.00">MoFEM::ForcesAndSourcesCore</text>
</a>
</g>
</g>
<!-- Node10&#45;&gt;Node2 -->
<g id="edge9" class="edge">
<title>Node10&#45;&gt;Node2</title>
<path fill="none" stroke="#9a32cd" stroke-dasharray="5,2" d="M2658.36,-873.35C2707.63,-929 2861.21,-1102.47 2907.6,-1154.86"/>
<polygon fill="#9a32cd" stroke="#9a32cd" points="2660.87,-870.91 2651.62,-865.74 2655.63,-875.55 2660.87,-870.91"/>
<text text-anchor="middle" x="2782" y="-1053" font-family="Helvetica,sans-Serif" font-size="10.00"> ptrFE</text>
</g>
<!-- Node10&#45;&gt;Node10 -->
<g id="edge67" class="edge">
<title>Node10&#45;&gt;Node10</title>
<path fill="none" stroke="#9a32cd" stroke-dasharray="5,2" d="M2615.96,-875.03C2617.38,-880.13 2626.06,-884 2642,-884 2666.88,-884 2674.08,-874.57 2663.58,-865.76"/>
<polygon fill="#9a32cd" stroke="#9a32cd" points="2619.24,-876.29 2620.42,-865.76 2612.93,-873.25 2619.24,-876.29"/>
<text text-anchor="middle" x="2642" y="-898" font-family="Helvetica,sans-Serif" font-size="10.00"> sidePtrFE</text>
<text text-anchor="middle" x="2642" y="-887" font-family="Helvetica,sans-Serif" font-size="10.00">refinePtrFE</text>
</g>
<!-- Node11 -->
<g id="node11" class="node">
<title>Node11</title>
<g id="a_node11"><a xlink:href="structMoFEM_1_1FEMethod.html" target="_top" xlink:title="structure for User Loop Methods on finite elements">
<polygon fill="white" stroke="black" points="2202.5,-963.5 2202.5,-982.5 2309.5,-982.5 2309.5,-963.5 2202.5,-963.5"/>
<text text-anchor="middle" x="2256" y="-970.5" font-family="Helvetica,sans-Serif" font-size="10.00">MoFEM::FEMethod</text>
</a>
</g>
</g>
<!-- Node11&#45;&gt;Node10 -->
<g id="edge10" class="edge">
<title>Node11&#45;&gt;Node10</title>
<path fill="none" stroke="midnightblue" d="M2319.84,-971.48C2378.51,-968.17 2467.5,-958.22 2539,-929 2576.7,-913.59 2613.75,-881.74 2630.98,-865.69"/>
<polygon fill="midnightblue" stroke="midnightblue" points="2319.42,-968 2309.61,-972.01 2319.78,-974.99 2319.42,-968"/>
</g>
<!-- Node12 -->
<g id="node12" class="node">
<title>Node12</title>
<g id="a_node12"><a xlink:href="structMoFEM_1_1BasicMethod.html" target="_top" xlink:title="Data structure to exchange data between mofem and User Loop Methods.">
<polygon fill="white" stroke="black" points="1825,-873.5 1825,-892.5 1947,-892.5 1947,-873.5 1825,-873.5"/>
<text text-anchor="middle" x="1886" y="-880.5" font-family="Helvetica,sans-Serif" font-size="10.00">MoFEM::BasicMethod</text>
</a>
</g>
</g>
<!-- Node12&#45;&gt;Node11 -->
<g id="edge11" class="edge">
<title>Node12&#45;&gt;Node11</title>
<path fill="none" stroke="midnightblue" d="M1929.48,-895.42C1981.78,-910.46 2073.46,-936 2153,-954 2168.99,-957.62 2186.5,-961.06 2202.43,-964"/>
<polygon fill="midnightblue" stroke="midnightblue" points="1930.14,-891.97 1919.56,-892.56 1928.2,-898.69 1930.14,-891.97"/>
</g>
<!-- Node13 -->
<g id="node13" class="node">
<title>Node13</title>
<g id="a_node13"><a xlink:href="structMoFEM_1_1KspMethod.html" target="_top" xlink:title="data structure for ksp (linear solver) context">
<polygon fill="white" stroke="black" points="1442,-701.5 1442,-720.5 1555,-720.5 1555,-701.5 1442,-701.5"/>
<text text-anchor="middle" x="1498.5" y="-708.5" font-family="Helvetica,sans-Serif" font-size="10.00">MoFEM::KspMethod</text>
</a>
</g>
</g>
<!-- Node13&#45;&gt;Node12 -->
<g id="edge12" class="edge">
<title>Node13&#45;&gt;Node12</title>
<path fill="none" stroke="midnightblue" d="M1565.39,-707.52C1638.77,-705.17 1751.04,-706.6 1781,-735 1823.02,-774.82 1759.71,-821.49 1799,-864 1805.95,-871.52 1815.16,-876.41 1824.96,-879.53"/>
<polygon fill="midnightblue" stroke="midnightblue" points="1565.17,-704.03 1555.3,-707.88 1565.42,-711.03 1565.17,-704.03"/>
</g>
<!-- Node14 -->
<g id="node14" class="node">
<title>Node14</title>
<g id="a_node14"><a xlink:href="structMoFEM_1_1PetscData.html" target="_top" xlink:title=" ">
<polygon fill="white" stroke="black" points="1087.5,-248.5 1087.5,-267.5 1195.5,-267.5 1195.5,-248.5 1087.5,-248.5"/>
<text text-anchor="middle" x="1141.5" y="-255.5" font-family="Helvetica,sans-Serif" font-size="10.00">MoFEM::PetscData</text>
</a>
</g>
</g>
<!-- Node14&#45;&gt;Node13 -->
<g id="edge13" class="edge">
<title>Node14&#45;&gt;Node13</title>
<path fill="none" stroke="midnightblue" d="M1205.36,-261.19C1219.5,-264.85 1233.2,-271.21 1243,-282 1282.2,-325.19 1224.26,-366.69 1261,-412 1301.46,-461.91 1358.05,-409.91 1397,-461 1428.22,-501.95 1381.39,-652.99 1415,-692 1421.91,-700.02 1431.45,-705.03 1441.61,-708.09"/>
<polygon fill="midnightblue" stroke="midnightblue" points="1206.06,-257.76 1195.55,-259.08 1204.58,-264.61 1206.06,-257.76"/>
</g>
<!-- Node24 -->
<g id="node24" class="node">
<title>Node24</title>
<g id="a_node24"><a xlink:href="structMoFEM_1_1SnesMethod.html" target="_top" xlink:title="data structure for snes (nonlinear solver) context">
<polygon fill="white" stroke="black" points="1439,-441.5 1439,-460.5 1558,-460.5 1558,-441.5 1439,-441.5"/>
<text text-anchor="middle" x="1498.5" y="-448.5" font-family="Helvetica,sans-Serif" font-size="10.00">MoFEM::SnesMethod</text>
</a>
</g>
</g>
<!-- Node14&#45;&gt;Node24 -->
<g id="edge26" class="edge">
<title>Node14&#45;&gt;Node24</title>
<path fill="none" stroke="darkgreen" d="M1205.59,-270.01C1218.2,-273.25 1231.19,-277.23 1243,-282 1347.25,-324.13 1453.37,-412.38 1486.77,-441.47"/>
<polygon fill="darkgreen" stroke="darkgreen" points="1206.13,-266.54 1195.59,-267.56 1204.47,-273.34 1206.13,-266.54"/>
</g>
<!-- Node27 -->
<g id="node27" class="node">
<title>Node27</title>
<g id="a_node27"><a xlink:href="structMoFEM_1_1TSMethod.html" target="_top" xlink:title="data structure for TS (time stepping) context">
<polygon fill="white" stroke="black" points="1445,-189.5 1445,-208.5 1552,-208.5 1552,-189.5 1445,-189.5"/>
<text text-anchor="middle" x="1498.5" y="-196.5" font-family="Helvetica,sans-Serif" font-size="10.00">MoFEM::TSMethod</text>
</a>
</g>
</g>
<!-- Node14&#45;&gt;Node27 -->
<g id="edge32" class="edge">
<title>Node14&#45;&gt;Node27</title>
<path fill="none" stroke="darkgreen" d="M1205.95,-268.6C1258.25,-275.02 1333.83,-278.92 1397,-261 1433.29,-250.71 1469.33,-223.18 1486.73,-208.51"/>
<polygon fill="darkgreen" stroke="darkgreen" points="1206.17,-265.1 1195.81,-267.29 1205.28,-272.05 1206.17,-265.1"/>
</g>
<!-- Node15 -->
<g id="node15" class="node">
<title>Node15</title>
<g id="a_node15"><a xlink:href="structMoFEM_1_1UnknownInterface.html" target="_top" xlink:title="base class for all interface classes">
<polygon fill="white" stroke="black" points="735,-20.5 735,-39.5 883,-39.5 883,-20.5 735,-20.5"/>
<text text-anchor="middle" x="809" y="-27.5" font-family="Helvetica,sans-Serif" font-size="10.00">MoFEM::UnknownInterface</text>
</a>
</g>
</g>
<!-- Node15&#45;&gt;Node14 -->
<g id="edge14" class="edge">
<title>Node15&#45;&gt;Node14</title>
<path fill="none" stroke="midnightblue" d="M893.04,-30.88C937.88,-35.98 990.38,-50.28 1022,-87 1066.39,-138.55 993.58,-189.27 1040,-239 1052.06,-251.92 1069.92,-257.66 1087.26,-259.86"/>
<polygon fill="midnightblue" stroke="midnightblue" points="893.31,-27.39 883.01,-29.87 892.61,-34.35 893.31,-27.39"/>
</g>
<!-- Node55 -->
<g id="node55" class="node">
<title>Node55</title>
<g id="a_node55"><a xlink:href="structMoFEM_1_1CoreInterface.html" target="_top" xlink:title="Interface.">
<polygon fill="white" stroke="black" points="1079,-0.5 1079,-19.5 1204,-19.5 1204,-0.5 1079,-0.5"/>
<text text-anchor="middle" x="1141.5" y="-7.5" font-family="Helvetica,sans-Serif" font-size="10.00">MoFEM::CoreInterface</text>
</a>
</g>
</g>
<!-- Node15&#45;&gt;Node55 -->
<g id="edge66" class="edge">
<title>Node15&#45;&gt;Node55</title>
<path fill="none" stroke="midnightblue" d="M893.22,-24.49C895.84,-24.32 898.44,-24.16 901,-24 961.49,-20.24 1030.58,-16.23 1078.96,-13.47"/>
<polygon fill="midnightblue" stroke="midnightblue" points="892.77,-21.01 883.01,-25.14 893.21,-28 892.77,-21.01"/>
</g>
<!-- Node16 -->
<g id="node16" class="node">
<title>Node16</title>
<g id="a_node16"><a xlink:title=" ">
<polygon fill="white" stroke="#bfbfbf" points="386,-492.5 386,-555.5 627,-555.5 627,-492.5 386,-492.5"/>
<text text-anchor="start" x="394" y="-543.5" font-family="Helvetica,sans-Serif" font-size="10.00">multi_index_container</text>
<text text-anchor="start" x="394" y="-532.5" font-family="Helvetica,sans-Serif" font-size="10.00">&lt; UIdTypeMap, indexed</text>
<text text-anchor="start" x="394" y="-521.5" font-family="Helvetica,sans-Serif" font-size="10.00">_by&lt; hashed_unique&lt; member</text>
<text text-anchor="start" x="394" y="-510.5" font-family="Helvetica,sans-Serif" font-size="10.00">&lt; UIdTypeMap, boost::typeindex</text>
<text text-anchor="middle" x="506.5" y="-499.5" font-family="Helvetica,sans-Serif" font-size="10.00">::type_index, &amp;UIdTypeMap::classIdx &gt; &gt; &gt; &gt;</text>
</a>
</g>
</g>
<!-- Node16&#45;&gt;Node15 -->
<g id="edge15" class="edge">
<title>Node16&#45;&gt;Node15</title>
<path fill="none" stroke="#9a32cd" stroke-dasharray="5,2" d="M515.14,-482.46C534.41,-389.81 593.89,-165.32 735,-49 739.65,-45.17 744.98,-42.1 750.61,-39.64"/>
<polygon fill="#9a32cd" stroke="#9a32cd" points="511.7,-481.81 513.14,-492.31 518.56,-483.2 511.7,-481.81"/>
<text text-anchor="middle" x="681" y="-147" font-family="Helvetica,sans-Serif" font-size="10.00"> iFaceTypeMap</text>
</g>
<!-- Node17 -->
<g id="node17" class="node">
<title>Node17</title>
<g id="a_node17"><a xlink:title=" ">
<polygon fill="white" stroke="#bfbfbf" points="0,-544.5 0,-563.5 125,-563.5 125,-544.5 0,-544.5"/>
<text text-anchor="middle" x="62.5" y="-551.5" font-family="Helvetica,sans-Serif" font-size="10.00">multi_index_container</text>
</a>
</g>
</g>
<!-- Node17&#45;&gt;Node12 -->
<g id="edge39" class="edge">
<title>Node17&#45;&gt;Node12</title>
<path fill="none" stroke="#9a32cd" stroke-dasharray="5,2" d="M83.17,-569.88C142.81,-616.38 328.43,-749 505.5,-749 505.5,-749 505.5,-749 1499.5,-749 1642.09,-749 1662.45,-822.95 1799,-864 1810.71,-867.52 1823.51,-870.7 1835.56,-873.4"/>
<polygon fill="#9a32cd" stroke="#9a32cd" points="85.32,-567.12 75.3,-563.67 80.98,-572.61 85.32,-567.12"/>
<text text-anchor="middle" x="961.5" y="-829" font-family="Helvetica,sans-Serif" font-size="10.00"> adjacenciesPtr</text>
<text text-anchor="middle" x="961.5" y="-818" font-family="Helvetica,sans-Serif" font-size="10.00">refinedEntitiesPtr</text>
<text text-anchor="middle" x="961.5" y="-807" font-family="Helvetica,sans-Serif" font-size="10.00">finiteElementsEntitiesPtr</text>
<text text-anchor="middle" x="961.5" y="-796" font-family="Helvetica,sans-Serif" font-size="10.00">dofsPtr</text>
<text text-anchor="middle" x="961.5" y="-785" font-family="Helvetica,sans-Serif" font-size="10.00">entitiesPtr</text>
<text text-anchor="middle" x="961.5" y="-774" font-family="Helvetica,sans-Serif" font-size="10.00">finiteElementsPtr</text>
<text text-anchor="middle" x="961.5" y="-763" font-family="Helvetica,sans-Serif" font-size="10.00">refinedFiniteElementsPtr</text>
<text text-anchor="middle" x="961.5" y="-752" font-family="Helvetica,sans-Serif" font-size="10.00">fieldsPtr</text>
</g>
<!-- Node17&#45;&gt;Node16 -->
<g id="edge16" class="edge">
<title>Node17&#45;&gt;Node16</title>
<path fill="none" stroke="orange" stroke-dasharray="5,2" d="M135.56,-549.11C203.25,-544.51 305.79,-537.55 385.77,-532.13"/>
<polygon fill="orange" stroke="orange" points="135.16,-545.63 125.42,-549.8 135.64,-552.61 135.16,-545.63"/>
<text text-anchor="start" x="143" y="-585" font-family="Helvetica,sans-Serif" font-size="10.00"> &lt; UIdTypeMap, indexed</text>
<text text-anchor="start" x="143" y="-574" font-family="Helvetica,sans-Serif" font-size="10.00">_by&lt; hashed_unique&lt; member</text>
<text text-anchor="start" x="143" y="-563" font-family="Helvetica,sans-Serif" font-size="10.00">&lt; UIdTypeMap, boost::typeindex</text>
<text text-anchor="middle" x="255.5" y="-552" font-family="Helvetica,sans-Serif" font-size="10.00">::type_index, &amp;UIdTypeMap::classIdx &gt; &gt; &gt; &gt;</text>
</g>
<!-- Node18 -->
<g id="node18" class="node">
<title>Node18</title>
<g id="a_node18"><a xlink:title=" ">
<polygon fill="white" stroke="#bfbfbf" points="738.5,-58.5 738.5,-77.5 879.5,-77.5 879.5,-58.5 738.5,-58.5"/>
<text text-anchor="middle" x="809" y="-65.5" font-family="Helvetica,sans-Serif" font-size="10.00">static constexpr Switches</text>
</a>
</g>
</g>
<!-- Node18&#45;&gt;Node14 -->
<g id="edge17" class="edge">
<title>Node18&#45;&gt;Node14</title>
<path fill="none" stroke="#9a32cd" stroke-dasharray="5,2" d="M867.99,-80.08C916.2,-93.13 983.01,-118.74 1022,-166 1043.26,-191.78 1015.73,-216.03 1040,-239 1052.64,-250.96 1070.33,-256.55 1087.35,-258.89"/>
<polygon fill="#9a32cd" stroke="#9a32cd" points="868.86,-76.69 858.3,-77.55 867.1,-83.46 868.86,-76.69"/>
<text text-anchor="middle" x="961.5" y="-246" font-family="Helvetica,sans-Serif" font-size="10.00"> CtxSetX_TT</text>
<text text-anchor="middle" x="961.5" y="-235" font-family="Helvetica,sans-Serif" font-size="10.00">CtxSetX_T</text>
<text text-anchor="middle" x="961.5" y="-224" font-family="Helvetica,sans-Serif" font-size="10.00">CtxSetA</text>
<text text-anchor="middle" x="961.5" y="-213" font-family="Helvetica,sans-Serif" font-size="10.00">CtxSetB</text>
<text text-anchor="middle" x="961.5" y="-202" font-family="Helvetica,sans-Serif" font-size="10.00">CtxSetTime</text>
<text text-anchor="middle" x="961.5" y="-191" font-family="Helvetica,sans-Serif" font-size="10.00">CtxSetNone</text>
<text text-anchor="middle" x="961.5" y="-180" font-family="Helvetica,sans-Serif" font-size="10.00">CtxSetF</text>
<text text-anchor="middle" x="961.5" y="-169" font-family="Helvetica,sans-Serif" font-size="10.00">CtxSetX</text>
</g>
<!-- Node19 -->
<g id="node19" class="node">
<title>Node19</title>
<g id="a_node19"><a xlink:title=" ">
<polygon fill="white" stroke="#bfbfbf" points="791.5,-375.5 791.5,-394.5 826.5,-394.5 826.5,-375.5 791.5,-375.5"/>
<text text-anchor="middle" x="809" y="-382.5" font-family="Helvetica,sans-Serif" font-size="10.00">Mat</text>
</a>
</g>
</g>
<!-- Node19&#45;&gt;Node13 -->
<g id="edge23" class="edge">
<title>Node19&#45;&gt;Node13</title>
<path fill="none" stroke="#9a32cd" stroke-dasharray="5,2" d="M835.18,-399.68C876.47,-423.05 961.84,-468.35 1040,-491 1127.42,-516.33 1156.98,-488.25 1243,-518 1318.13,-543.98 1350.46,-544.54 1397,-609 1419.1,-639.6 1388.48,-665.14 1415,-692 1422.23,-699.32 1431.67,-704.06 1441.58,-707.08"/>
<polygon fill="#9a32cd" stroke="#9a32cd" points="836.77,-396.56 826.35,-394.64 833.3,-402.64 836.77,-396.56"/>
<text text-anchor="middle" x="1141.5" y="-532" font-family="Helvetica,sans-Serif" font-size="10.00"> ksp_A</text>
<text text-anchor="middle" x="1141.5" y="-521" font-family="Helvetica,sans-Serif" font-size="10.00">ksp_B</text>
</g>
<!-- Node19&#45;&gt;Node14 -->
<g id="edge18" class="edge">
<title>Node19&#45;&gt;Node14</title>
<path fill="none" stroke="#9a32cd" stroke-dasharray="5,2" d="M825.86,-367.8C842.8,-350.52 871.24,-324.43 901,-310 933.3,-294.33 1027.09,-276.73 1087.26,-266.54"/>
<polygon fill="#9a32cd" stroke="#9a32cd" points="822.9,-365.84 818.52,-375.49 827.96,-370.68 822.9,-365.84"/>
<text text-anchor="middle" x="961.5" y="-324" font-family="Helvetica,sans-Serif" font-size="10.00"> A</text>
<text text-anchor="middle" x="961.5" y="-313" font-family="Helvetica,sans-Serif" font-size="10.00">B</text>
</g>
<!-- Node19&#45;&gt;Node24 -->
<g id="edge28" class="edge">
<title>Node19&#45;&gt;Node24</title>
<path fill="none" stroke="#9a32cd" stroke-dasharray="5,2" d="M836.46,-391.85C854.52,-396.27 879.06,-401.77 901,-405 1051.81,-427.19 1091.01,-419.25 1243,-431 1310.17,-436.19 1387.29,-442.27 1438.87,-446.35"/>
<polygon fill="#9a32cd" stroke="#9a32cd" points="837.19,-388.42 826.64,-389.4 835.5,-395.21 837.19,-388.42"/>
<text text-anchor="middle" x="1141.5" y="-445" font-family="Helvetica,sans-Serif" font-size="10.00"> snes_A</text>
<text text-anchor="middle" x="1141.5" y="-434" font-family="Helvetica,sans-Serif" font-size="10.00">snes_B</text>
</g>
<!-- Node19&#45;&gt;Node27 -->
<g id="edge33" class="edge">
<title>Node19&#45;&gt;Node27</title>
<path fill="none" stroke="#9a32cd" stroke-dasharray="5,2" d="M822.21,-366.81C844.85,-333.17 891.89,-263.76 901,-254 948.04,-203.62 986.32,-215.97 1022,-157 1043.57,-121.35 1007.83,-91.48 1040,-65 1101.59,-14.29 1327.07,-64.6 1397,-103 1402.42,-105.98 1463.61,-165.75 1487.77,-189.44"/>
<polygon fill="#9a32cd" stroke="#9a32cd" points="819.2,-365.02 816.52,-375.27 825.01,-368.92 819.2,-365.02"/>
<text text-anchor="middle" x="1141.5" y="-79" font-family="Helvetica,sans-Serif" font-size="10.00"> ts_A</text>
<text text-anchor="middle" x="1141.5" y="-68" font-family="Helvetica,sans-Serif" font-size="10.00">ts_B</text>
</g>
<!-- Node20 -->
<g id="node20" class="node">
<title>Node20</title>
<g id="a_node20"><a xlink:title=" ">
<polygon fill="white" stroke="#bfbfbf" points="772.5,-248.5 772.5,-267.5 845.5,-267.5 845.5,-248.5 772.5,-248.5"/>
<text text-anchor="middle" x="809" y="-255.5" font-family="Helvetica,sans-Serif" font-size="10.00">bitset&lt; 8 &gt;</text>
</a>
</g>
</g>
<!-- Node20&#45;&gt;Node14 -->
<g id="edge19" class="edge">
<title>Node20&#45;&gt;Node14</title>
<path fill="none" stroke="#9a32cd" stroke-dasharray="5,2" d="M855.72,-258C916.35,-258 1023.14,-258 1087.3,-258"/>
<polygon fill="#9a32cd" stroke="#9a32cd" points="855.68,-254.5 845.68,-258 855.68,-261.5 855.68,-254.5"/>
<text text-anchor="middle" x="961.5" y="-261" font-family="Helvetica,sans-Serif" font-size="10.00"> data_ctx</text>
</g>
<!-- Node21 -->
<g id="node21" class="node">
<title>Node21</title>
<g id="a_node21"><a xlink:title=" ">
<polygon fill="white" stroke="#bfbfbf" points="792,-468.5 792,-487.5 826,-487.5 826,-468.5 792,-468.5"/>
<text text-anchor="middle" x="809" y="-475.5" font-family="Helvetica,sans-Serif" font-size="10.00">Vec</text>
</a>
</g>
</g>
<!-- Node21&#45;&gt;Node13 -->
<g id="edge24" class="edge">
<title>Node21&#45;&gt;Node13</title>
<path fill="none" stroke="#9a32cd" stroke-dasharray="5,2" d="M826.62,-494.65C862.2,-529.18 949.88,-608.42 1040,-645 1076.62,-659.87 1327.8,-690.94 1441.63,-704.47"/>
<polygon fill="#9a32cd" stroke="#9a32cd" points="829.04,-492.13 819.46,-487.62 824.14,-497.12 829.04,-492.13"/>
<text text-anchor="middle" x="1141.5" y="-682" font-family="Helvetica,sans-Serif" font-size="10.00"> ksp_f</text>
</g>
<!-- Node21&#45;&gt;Node14 -->
<g id="edge20" class="edge">
<title>Node21&#45;&gt;Node14</title>
<path fill="none" stroke="#9a32cd" stroke-dasharray="5,2" d="M826.92,-460.81C852.95,-434.39 899.93,-386.74 901,-386 949.43,-352.49 981.93,-375.16 1022,-332 1038.07,-314.69 1022.4,-297.75 1040,-282 1052.97,-270.4 1070.54,-264.14 1087.36,-260.85"/>
<polygon fill="#9a32cd" stroke="#9a32cd" points="824.12,-458.67 819.59,-468.26 829.1,-463.59 824.12,-458.67"/>
<text text-anchor="middle" x="961.5" y="-422" font-family="Helvetica,sans-Serif" font-size="10.00"> f</text>
<text text-anchor="middle" x="961.5" y="-411" font-family="Helvetica,sans-Serif" font-size="10.00">x</text>
<text text-anchor="middle" x="961.5" y="-400" font-family="Helvetica,sans-Serif" font-size="10.00">x_t</text>
<text text-anchor="middle" x="961.5" y="-389" font-family="Helvetica,sans-Serif" font-size="10.00">x_tt</text>
</g>
<!-- Node21&#45;&gt;Node24 -->
<g id="edge29" class="edge">
<title>Node21&#45;&gt;Node24</title>
<path fill="none" stroke="#9a32cd" stroke-dasharray="5,2" d="M835.54,-487.89C877.46,-503.52 963.8,-533.28 1040,-544 1129.34,-556.57 1154.16,-559.72 1243,-544 1334.95,-527.73 1437.32,-480.78 1478.67,-460.5"/>
<polygon fill="#9a32cd" stroke="#9a32cd" points="836.71,-484.58 826.11,-484.33 834.23,-491.13 836.71,-484.58"/>
<text text-anchor="middle" x="1141.5" y="-569" font-family="Helvetica,sans-Serif" font-size="10.00"> snes_x</text>
<text text-anchor="middle" x="1141.5" y="-558" font-family="Helvetica,sans-Serif" font-size="10.00">snes_f</text>
</g>
<!-- Node21&#45;&gt;Node27 -->
<g id="edge37" class="edge">
<title>Node21&#45;&gt;Node27</title>
<path fill="none" stroke="#9a32cd" stroke-dasharray="5,2" d="M836.35,-480.6C881.52,-483.46 973.5,-482.02 1022,-430 1057.88,-391.52 1001.59,-348.95 1040,-313 1098.14,-258.58 1323.3,-312.16 1397,-282 1437.42,-265.46 1474.02,-226.68 1489.58,-208.6"/>
<polygon fill="#9a32cd" stroke="#9a32cd" points="836.43,-477.1 826.19,-479.83 835.9,-484.08 836.43,-477.1"/>
<text text-anchor="middle" x="1141.5" y="-349" font-family="Helvetica,sans-Serif" font-size="10.00"> ts_u</text>
<text text-anchor="middle" x="1141.5" y="-338" font-family="Helvetica,sans-Serif" font-size="10.00">ts_F</text>
<text text-anchor="middle" x="1141.5" y="-327" font-family="Helvetica,sans-Serif" font-size="10.00">ts_u_t</text>
<text text-anchor="middle" x="1141.5" y="-316" font-family="Helvetica,sans-Serif" font-size="10.00">ts_u_tt</text>
</g>
<!-- Node22 -->
<g id="node22" class="node">
<title>Node22</title>
<g id="a_node22"><a xlink:title=" ">
<polygon fill="white" stroke="#bfbfbf" points="1124,-616.5 1124,-635.5 1159,-635.5 1159,-616.5 1124,-616.5"/>
<text text-anchor="middle" x="1141.5" y="-623.5" font-family="Helvetica,sans-Serif" font-size="10.00">KSP</text>
</a>
</g>
</g>
<!-- Node22&#45;&gt;Node13 -->
<g id="edge21" class="edge">
<title>Node22&#45;&gt;Node13</title>
<path fill="none" stroke="#9a32cd" stroke-dasharray="5,2" d="M1169.39,-622.3C1227.43,-614.93 1362.03,-601.29 1397,-628 1420.48,-645.93 1393.61,-671.61 1415,-692 1422.45,-699.1 1431.99,-703.74 1441.93,-706.73"/>
<polygon fill="#9a32cd" stroke="#9a32cd" points="1168.63,-618.87 1159.17,-623.64 1169.54,-625.81 1168.63,-618.87"/>
<text text-anchor="middle" x="1329" y="-631" font-family="Helvetica,sans-Serif" font-size="10.00"> ksp</text>
</g>
<!-- Node23 -->
<g id="node23" class="node">
<title>Node23</title>
<g id="a_node23"><a xlink:title=" ">
<polygon fill="white" stroke="#bfbfbf" points="1104.5,-701.5 1104.5,-720.5 1178.5,-720.5 1178.5,-701.5 1104.5,-701.5"/>
<text text-anchor="middle" x="1141.5" y="-708.5" font-family="Helvetica,sans-Serif" font-size="10.00">KSPContext</text>
</a>
</g>
</g>
<!-- Node23&#45;&gt;Node13 -->
<g id="edge22" class="edge">
<title>Node23&#45;&gt;Node13</title>
<path fill="none" stroke="#9a32cd" stroke-dasharray="5,2" d="M1189.19,-711C1254.3,-711 1372.2,-711 1441.81,-711"/>
<polygon fill="#9a32cd" stroke="#9a32cd" points="1188.82,-707.5 1178.82,-711 1188.82,-714.5 1188.82,-707.5"/>
<text text-anchor="middle" x="1329" y="-714" font-family="Helvetica,sans-Serif" font-size="10.00"> ksp_ctx</text>
</g>
<!-- Node24&#45;&gt;Node12 -->
<g id="edge25" class="edge">
<title>Node24&#45;&gt;Node12</title>
<path fill="none" stroke="midnightblue" d="M1568.23,-461.22C1634.67,-475.06 1732.25,-506.69 1781,-577 1817.41,-629.51 1757.44,-815.46 1799,-864 1805.76,-871.9 1815,-876.94 1824.92,-880.09"/>
<polygon fill="midnightblue" stroke="midnightblue" points="1568.74,-457.75 1558.25,-459.23 1567.37,-464.62 1568.74,-457.75"/>
</g>
<!-- Node25 -->
<g id="node25" class="node">
<title>Node25</title>
<g id="a_node25"><a xlink:title=" ">
<polygon fill="white" stroke="#bfbfbf" points="1120.5,-366.5 1120.5,-385.5 1162.5,-385.5 1162.5,-366.5 1120.5,-366.5"/>
<text text-anchor="middle" x="1141.5" y="-373.5" font-family="Helvetica,sans-Serif" font-size="10.00">SNES</text>
</a>
</g>
</g>
<!-- Node25&#45;&gt;Node24 -->
<g id="edge27" class="edge">
<title>Node25&#45;&gt;Node24</title>
<path fill="none" stroke="#9a32cd" stroke-dasharray="5,2" d="M1172.95,-374.56C1221.44,-373.13 1318.74,-373.84 1397,-397 1430.43,-406.89 1465.39,-428.71 1483.98,-441.37"/>
<polygon fill="#9a32cd" stroke="#9a32cd" points="1172.68,-371.07 1162.81,-374.91 1172.92,-378.06 1172.68,-371.07"/>
<text text-anchor="middle" x="1329" y="-400" font-family="Helvetica,sans-Serif" font-size="10.00"> snes</text>
</g>
<!-- Node26 -->
<g id="node26" class="node">
<title>Node26</title>
<g id="a_node26"><a xlink:title=" ">
<polygon fill="white" stroke="#bfbfbf" points="1101.5,-462.5 1101.5,-481.5 1181.5,-481.5 1181.5,-462.5 1101.5,-462.5"/>
<text text-anchor="middle" x="1141.5" y="-469.5" font-family="Helvetica,sans-Serif" font-size="10.00">SNESContext</text>
</a>
</g>
</g>
<!-- Node26&#45;&gt;Node24 -->
<g id="edge30" class="edge">
<title>Node26&#45;&gt;Node24</title>
<path fill="none" stroke="#9a32cd" stroke-dasharray="5,2" d="M1191.84,-469.08C1256.48,-465.26 1369.71,-458.56 1438.73,-454.48"/>
<polygon fill="#9a32cd" stroke="#9a32cd" points="1191.28,-465.61 1181.51,-469.69 1191.7,-472.6 1191.28,-465.61"/>
<text text-anchor="middle" x="1329" y="-468" font-family="Helvetica,sans-Serif" font-size="10.00"> snes_ctx</text>
</g>
<!-- Node27&#45;&gt;Node12 -->
<g id="edge31" class="edge">
<title>Node27&#45;&gt;Node12</title>
<path fill="none" stroke="midnightblue" d="M1519.7,-214.78C1579.19,-261.74 1751.46,-401.33 1781,-466 1799.39,-506.26 1770.51,-830.12 1799,-864 1805.69,-871.96 1814.9,-877.03 1824.81,-880.18"/>
<polygon fill="midnightblue" stroke="midnightblue" points="1521.79,-211.97 1511.77,-208.54 1517.47,-217.48 1521.79,-211.97"/>
</g>
<!-- Node28 -->
<g id="node28" class="node">
<title>Node28</title>
<g id="a_node28"><a xlink:title=" ">
<polygon fill="white" stroke="#bfbfbf" points="1109,-210.5 1109,-229.5 1174,-229.5 1174,-210.5 1109,-210.5"/>
<text text-anchor="middle" x="1141.5" y="-217.5" font-family="Helvetica,sans-Serif" font-size="10.00">PetscReal</text>
</a>
</g>
</g>
<!-- Node28&#45;&gt;Node27 -->
<g id="edge34" class="edge">
<title>Node28&#45;&gt;Node27</title>
<path fill="none" stroke="#9a32cd" stroke-dasharray="5,2" d="M1184.25,-217.53C1249.06,-213.7 1373.78,-206.32 1444.73,-202.12"/>
<polygon fill="#9a32cd" stroke="#9a32cd" points="1183.78,-214.05 1174,-218.14 1184.19,-221.04 1183.78,-214.05"/>
<text text-anchor="middle" x="1329" y="-249" font-family="Helvetica,sans-Serif" font-size="10.00"> ts_a</text>
<text text-anchor="middle" x="1329" y="-238" font-family="Helvetica,sans-Serif" font-size="10.00">ts_t</text>
<text text-anchor="middle" x="1329" y="-227" font-family="Helvetica,sans-Serif" font-size="10.00">ts_dt</text>
<text text-anchor="middle" x="1329" y="-216" font-family="Helvetica,sans-Serif" font-size="10.00">ts_aa</text>
</g>
<!-- Node29 -->
<g id="node29" class="node">
<title>Node29</title>
<g id="a_node29"><a xlink:title=" ">
<polygon fill="white" stroke="#bfbfbf" points="1108,-172.5 1108,-191.5 1175,-191.5 1175,-172.5 1108,-172.5"/>
<text text-anchor="middle" x="1141.5" y="-179.5" font-family="Helvetica,sans-Serif" font-size="10.00">TSContext</text>
</a>
</g>
</g>
<!-- Node29&#45;&gt;Node27 -->
<g id="edge35" class="edge">
<title>Node29&#45;&gt;Node27</title>
<path fill="none" stroke="#9a32cd" stroke-dasharray="5,2" d="M1185.35,-180.16C1236,-178.45 1322.79,-176.98 1397,-183 1413.55,-184.34 1431.5,-186.86 1447.59,-189.5"/>
<polygon fill="#9a32cd" stroke="#9a32cd" points="1184.98,-176.67 1175.11,-180.53 1185.23,-183.67 1184.98,-176.67"/>
<text text-anchor="middle" x="1329" y="-186" font-family="Helvetica,sans-Serif" font-size="10.00"> ts_ctx</text>
</g>
<!-- Node30 -->
<g id="node30" class="node">
<title>Node30</title>
<g id="a_node30"><a xlink:title=" ">
<polygon fill="white" stroke="#bfbfbf" points="1113.5,-134.5 1113.5,-153.5 1169.5,-153.5 1169.5,-134.5 1113.5,-134.5"/>
<text text-anchor="middle" x="1141.5" y="-141.5" font-family="Helvetica,sans-Serif" font-size="10.00">PetscInt</text>
</a>
</g>
</g>
<!-- Node30&#45;&gt;Node27 -->
<g id="edge36" class="edge">
<title>Node30&#45;&gt;Node27</title>
<path fill="none" stroke="#9a32cd" stroke-dasharray="5,2" d="M1179.57,-143.95C1229.5,-144.56 1320.87,-148.03 1397,-164 1424.67,-169.8 1455.16,-181.17 1475.22,-189.38"/>
<polygon fill="#9a32cd" stroke="#9a32cd" points="1179.6,-140.45 1169.57,-143.86 1179.54,-147.45 1179.6,-140.45"/>
<text text-anchor="middle" x="1329" y="-167" font-family="Helvetica,sans-Serif" font-size="10.00"> ts_step</text>
</g>
<!-- Node31 -->
<g id="node31" class="node">
<title>Node31</title>
<g id="a_node31"><a xlink:title=" ">
<polygon fill="white" stroke="#bfbfbf" points="1127,-96.5 1127,-115.5 1156,-115.5 1156,-96.5 1127,-96.5"/>
<text text-anchor="middle" x="1141.5" y="-103.5" font-family="Helvetica,sans-Serif" font-size="10.00">TS</text>
</a>
</g>
</g>
<!-- Node31&#45;&gt;Node27 -->
<g id="edge38" class="edge">
<title>Node31&#45;&gt;Node27</title>
<path fill="none" stroke="#9a32cd" stroke-dasharray="5,2" d="M1166.42,-104.86C1212.52,-103.44 1316.22,-104.12 1397,-133 1433.17,-145.93 1469.26,-174.37 1486.7,-189.34"/>
<polygon fill="#9a32cd" stroke="#9a32cd" points="1166.11,-101.37 1156.24,-105.23 1166.37,-108.36 1166.11,-101.37"/>
<text text-anchor="middle" x="1329" y="-136" font-family="Helvetica,sans-Serif" font-size="10.00"> ts</text>
</g>
<!-- Node32 -->
<g id="node32" class="node">
<title>Node32</title>
<g id="a_node32"><a xlink:title=" ">
<polygon fill="white" stroke="#bfbfbf" points="1454,-663.5 1454,-682.5 1543,-682.5 1543,-663.5 1454,-663.5"/>
<text text-anchor="middle" x="1498.5" y="-670.5" font-family="Helvetica,sans-Serif" font-size="10.00">pair&lt; int, int &gt;</text>
</a>
</g>
</g>
<!-- Node32&#45;&gt;Node12 -->
<g id="edge40" class="edge">
<title>Node32&#45;&gt;Node12</title>
<path fill="none" stroke="#9a32cd" stroke-dasharray="5,2" d="M1553.53,-668.77C1626.12,-664.37 1749.65,-661.79 1781,-692 1808.67,-718.67 1773.41,-835.33 1799,-864 1805.82,-871.64 1814.97,-876.59 1824.75,-879.72"/>
<polygon fill="#9a32cd" stroke="#9a32cd" points="1552.96,-665.3 1543.21,-669.43 1553.41,-672.29 1552.96,-665.3"/>
<text text-anchor="middle" x="1690.5" y="-695" font-family="Helvetica,sans-Serif" font-size="10.00"> loHiFERank</text>
</g>
<!-- Node33 -->
<g id="node33" class="node">
<title>Node33</title>
<g id="a_node33"><a xlink:title=" ">
<polygon fill="white" stroke="#bfbfbf" points="1428.5,-625.5 1428.5,-644.5 1568.5,-644.5 1568.5,-625.5 1428.5,-625.5"/>
<text text-anchor="middle" x="1498.5" y="-632.5" font-family="Helvetica,sans-Serif" font-size="10.00">weak_ptr&lt; CacheTuple &gt;</text>
</a>
</g>
</g>
<!-- Node33&#45;&gt;Node12 -->
<g id="edge41" class="edge">
<title>Node33&#45;&gt;Node12</title>
<path fill="none" stroke="#9a32cd" stroke-dasharray="5,2" d="M1578.75,-628.73C1651.88,-624.84 1753.22,-624.89 1781,-652 1814.84,-685.02 1767.86,-828.42 1799,-864 1805.75,-871.71 1814.85,-876.68 1824.62,-879.83"/>
<polygon fill="#9a32cd" stroke="#9a32cd" points="1578.42,-625.24 1568.63,-629.3 1578.81,-632.23 1578.42,-625.24"/>
<text text-anchor="middle" x="1690.5" y="-655" font-family="Helvetica,sans-Serif" font-size="10.00"> cacheWeakPtr</text>
</g>
<!-- Node34 -->
<g id="node34" class="node">
<title>Node34</title>
<g id="a_node34"><a xlink:title=" ">
<polygon fill="white" stroke="#bfbfbf" points="1442.5,-587.5 1442.5,-606.5 1554.5,-606.5 1554.5,-587.5 1442.5,-587.5"/>
<text text-anchor="middle" x="1498.5" y="-594.5" font-family="Helvetica,sans-Serif" font-size="10.00">unique_ptr&lt; bool &gt;</text>
</a>
</g>
</g>
<!-- Node34&#45;&gt;Node12 -->
<g id="edge42" class="edge">
<title>Node34&#45;&gt;Node12</title>
<path fill="none" stroke="#9a32cd" stroke-dasharray="5,2" d="M1564.8,-588.2C1638.2,-579.94 1751.05,-572.63 1781,-601 1823.53,-641.29 1760.78,-819.61 1799,-864 1805.78,-871.88 1815.03,-876.91 1824.96,-880.06"/>
<polygon fill="#9a32cd" stroke="#9a32cd" points="1564.24,-584.74 1554.71,-589.37 1565.05,-591.7 1564.24,-584.74"/>
<text text-anchor="middle" x="1690.5" y="-615" font-family="Helvetica,sans-Serif" font-size="10.00"> matAssembleSwitch</text>
<text text-anchor="middle" x="1690.5" y="-604" font-family="Helvetica,sans-Serif" font-size="10.00">vecAssembleSwitch</text>
</g>
<!-- Node35 -->
<g id="node35" class="node">
<title>Node35</title>
<g id="a_node35"><a xlink:title=" ">
<polygon fill="white" stroke="#bfbfbf" points="1127,-1318.5 1127,-1337.5 1156,-1337.5 1156,-1318.5 1127,-1318.5"/>
<text text-anchor="middle" x="1141.5" y="-1325.5" font-family="Helvetica,sans-Serif" font-size="10.00">int</text>
</a>
</g>
</g>
<!-- Node35&#45;&gt;Node1 -->
<g id="edge83" class="edge">
<title>Node35&#45;&gt;Node1</title>
<path fill="none" stroke="#9a32cd" stroke-dasharray="5,2" d="M1162.21,-1344.06C1213.84,-1384.44 1358.65,-1487 1497.5,-1487 1497.5,-1487 1497.5,-1487 2923,-1487 3056.14,-1487 3139.87,-986.97 3156.46,-878.57"/>
<polygon fill="#9a32cd" stroke="#9a32cd" points="1164.22,-1341.18 1154.21,-1337.71 1159.86,-1346.66 1164.22,-1341.18"/>
<text text-anchor="middle" x="2256" y="-1490" font-family="Helvetica,sans-Serif" font-size="10.00"> zeroSide</text>
</g>
<!-- Node35&#45;&gt;Node12 -->
<g id="edge43" class="edge">
<title>Node35&#45;&gt;Node12</title>
<path fill="none" stroke="#9a32cd" stroke-dasharray="5,2" d="M1166.44,-1330.95C1212.55,-1335.73 1316.28,-1342 1397,-1314 1594.11,-1245.63 1670.03,-1220.67 1781,-1044 1807.12,-1002.42 1771.47,-975.65 1799,-935 1812.89,-914.49 1837.83,-900.73 1857.29,-892.55"/>
<polygon fill="#9a32cd" stroke="#9a32cd" points="1166.57,-1327.45 1156.25,-1329.82 1165.8,-1334.4 1166.57,-1327.45"/>
<text text-anchor="middle" x="1498.5" y="-1343" font-family="Helvetica,sans-Serif" font-size="10.00"> sIze</text>
<text text-anchor="middle" x="1498.5" y="-1332" font-family="Helvetica,sans-Serif" font-size="10.00">loopSize</text>
<text text-anchor="middle" x="1498.5" y="-1321" font-family="Helvetica,sans-Serif" font-size="10.00">nInTheLoop</text>
<text text-anchor="middle" x="1498.5" y="-1310" font-family="Helvetica,sans-Serif" font-size="10.00">rAnk</text>
</g>
<!-- Node35&#45;&gt;Node37 -->
<g id="edge55" class="edge">
<title>Node35&#45;&gt;Node37</title>
<path fill="none" stroke="#9a32cd" stroke-dasharray="5,2" d="M1165.41,-1319.45C1187.52,-1310.26 1220.82,-1293.83 1243,-1271 1254.91,-1258.74 1248.05,-1248.17 1261,-1237 1309.54,-1195.14 1357.69,-1239.63 1397,-1189 1424.64,-1153.4 1385.4,-1020.98 1415,-987 1423.59,-977.14 1436.18,-971.84 1448.95,-969.12"/>
<polygon fill="#9a32cd" stroke="#9a32cd" points="1164.11,-1316.2 1156.12,-1323.16 1166.7,-1322.7 1164.11,-1316.2"/>
<text text-anchor="middle" x="1329" y="-1306" font-family="Helvetica,sans-Serif" font-size="10.00"> tagNameSize</text>
<text text-anchor="middle" x="1329" y="-1295" font-family="Helvetica,sans-Serif" font-size="10.00">nbDofsRow</text>
<text text-anchor="middle" x="1329" y="-1284" font-family="Helvetica,sans-Serif" font-size="10.00">nbLocDofsCol</text>
<text text-anchor="middle" x="1329" y="-1273" font-family="Helvetica,sans-Serif" font-size="10.00">nbDofsCol</text>
<text text-anchor="middle" x="1329" y="-1262" font-family="Helvetica,sans-Serif" font-size="10.00">nbGhostDofsRow</text>
<text text-anchor="middle" x="1329" y="-1251" font-family="Helvetica,sans-Serif" font-size="10.00">nbGhostDofsCol</text>
<text text-anchor="middle" x="1329" y="-1240" font-family="Helvetica,sans-Serif" font-size="10.00">nbLocDofsRow</text>
</g>
<!-- Node36 -->
<g id="node36" class="node">
<title>Node36</title>
<g id="a_node36"><a xlink:title=" ">
<polygon fill="white" stroke="#bfbfbf" points="1415,-996.5 1415,-1015.5 1582,-1015.5 1582,-996.5 1415,-996.5"/>
<text text-anchor="middle" x="1498.5" y="-1003.5" font-family="Helvetica,sans-Serif" font-size="10.00">function&lt; MoFEMErrorCode()&gt;</text>
</a>
</g>
</g>
<!-- Node36&#45;&gt;Node12 -->
<g id="edge44" class="edge">
<title>Node36&#45;&gt;Node12</title>
<path fill="none" stroke="#9a32cd" stroke-dasharray="5,2" d="M1592.59,-1008.39C1650.67,-1005.81 1724.8,-994.8 1781,-960 1792.64,-952.79 1788.94,-944.29 1799,-935 1818.75,-916.78 1845.86,-901.66 1864.33,-892.51"/>
<polygon fill="#9a32cd" stroke="#9a32cd" points="1592.18,-1004.9 1582.31,-1008.76 1592.43,-1011.89 1592.18,-1004.9"/>
<text text-anchor="middle" x="1690.5" y="-1032" font-family="Helvetica,sans-Serif" font-size="10.00"> preProcessHook</text>
<text text-anchor="middle" x="1690.5" y="-1021" font-family="Helvetica,sans-Serif" font-size="10.00">operatorHook</text>
<text text-anchor="middle" x="1690.5" y="-1010" font-family="Helvetica,sans-Serif" font-size="10.00">postProcessHook</text>
</g>
<!-- Node37&#45;&gt;Node12 -->
<g id="edge45" class="edge">
<title>Node37&#45;&gt;Node12</title>
<path fill="none" stroke="#9a32cd" stroke-dasharray="5,2" d="M1552.57,-956.3C1629.6,-939.31 1770.89,-908.16 1841.88,-892.51"/>
<polygon fill="#9a32cd" stroke="#9a32cd" points="1551.61,-952.93 1542.6,-958.5 1553.12,-959.76 1551.61,-952.93"/>
<text text-anchor="middle" x="1690.5" y="-948" font-family="Helvetica,sans-Serif" font-size="10.00"> problemPtr</text>
</g>
<!-- Node38 -->
<g id="node38" class="node">
<title>Node38</title>
<g id="a_node38"><a xlink:title=" ">
<polygon fill="white" stroke="#bfbfbf" points="1058,-1156 1058,-1186 1225,-1186 1225,-1156 1058,-1156"/>
<text text-anchor="start" x="1066" y="-1174" font-family="Helvetica,sans-Serif" font-size="10.00">shared_ptr&lt; NumeredEntFinite</text>
<text text-anchor="middle" x="1141.5" y="-1163" font-family="Helvetica,sans-Serif" font-size="10.00">Element_multiIndex &gt;</text>
</a>
</g>
</g>
<!-- Node38&#45;&gt;Node37 -->
<g id="edge46" class="edge">
<title>Node38&#45;&gt;Node37</title>
<path fill="none" stroke="#9a32cd" stroke-dasharray="5,2" d="M1215.2,-1153.75C1230.3,-1150.36 1246.14,-1146.95 1261,-1144 1291.07,-1138.04 1375.7,-1143.04 1397,-1121 1438.76,-1077.79 1374.53,-1031.42 1415,-987 1423.71,-977.44 1436.18,-972.21 1448.8,-969.46"/>
<polygon fill="#9a32cd" stroke="#9a32cd" points="1214.37,-1150.35 1205.39,-1155.97 1215.92,-1157.18 1214.37,-1150.35"/>
<text text-anchor="middle" x="1329" y="-1147" font-family="Helvetica,sans-Serif" font-size="10.00"> numeredFiniteElementsPtr</text>
</g>
<!-- Node39 -->
<g id="node39" class="node">
<title>Node39</title>
<g id="a_node39"><a xlink:title=" ">
<polygon fill="white" stroke="#bfbfbf" points="1112,-1117.5 1112,-1136.5 1171,-1136.5 1171,-1117.5 1112,-1117.5"/>
<text text-anchor="middle" x="1141.5" y="-1124.5" font-family="Helvetica,sans-Serif" font-size="10.00">BitFEId *</text>
</a>
</g>
</g>
<!-- Node39&#45;&gt;Node37 -->
<g id="edge47" class="edge">
<title>Node39&#45;&gt;Node37</title>
<path fill="none" stroke="#9a32cd" stroke-dasharray="5,2" d="M1181.4,-1121.48C1251.72,-1111.41 1393.16,-1090.76 1397,-1087 1429.28,-1055.42 1383.85,-1019.69 1415,-987 1423.82,-977.74 1436.17,-972.58 1448.64,-969.81"/>
<polygon fill="#9a32cd" stroke="#9a32cd" points="1180.56,-1118.06 1171.16,-1122.94 1181.55,-1124.99 1180.56,-1118.06"/>
<text text-anchor="middle" x="1329" y="-1111" font-family="Helvetica,sans-Serif" font-size="10.00"> tagBitFEId</text>
</g>
<!-- Node40 -->
<g id="node40" class="node">
<title>Node40</title>
<g id="a_node40"><a xlink:href="classEntityHandle.html" target="_top" xlink:title=" ">
<polygon fill="white" stroke="black" points="1101.5,-777.5 1101.5,-796.5 1181.5,-796.5 1181.5,-777.5 1101.5,-777.5"/>
<text text-anchor="middle" x="1141.5" y="-784.5" font-family="Helvetica,sans-Serif" font-size="10.00">EntityHandle</text>
</a>
</g>
</g>
<!-- Node40&#45;&gt;Node1 -->
<g id="edge82" class="edge">
<title>Node40&#45;&gt;Node1</title>
<path fill="none" stroke="#9a32cd" stroke-dasharray="5,2" d="M1173.96,-773.13C1194.86,-763.01 1222.18,-747.94 1243,-730 1252.83,-721.53 1250.85,-715.09 1261,-707 1313.22,-665.34 1353.94,-694.07 1397,-643 1416.32,-620.08 1391.4,-596.48 1415,-578 1460.6,-542.3 2399.09,-549 2457,-549 2457,-549 2457,-549 2923,-549 3068.58,-549 3136.65,-767.96 3154.55,-837.25"/>
<polygon fill="#9a32cd" stroke="#9a32cd" points="1172.4,-770 1164.85,-777.43 1175.39,-776.33 1172.4,-770"/>
<text text-anchor="middle" x="2256" y="-552" font-family="Helvetica,sans-Serif" font-size="10.00"> zeroType</text>
</g>
<!-- Node40&#45;&gt;Node37 -->
<g id="edge48" class="edge">
<title>Node40&#45;&gt;Node37</title>
<path fill="none" stroke="#9a32cd" stroke-dasharray="5,2" d="M1191.59,-776.36C1245.93,-767.37 1334.12,-761.25 1397,-799 1459.34,-836.43 1487.52,-928.57 1495.22,-958.47"/>
<polygon fill="#9a32cd" stroke="#9a32cd" points="1190.77,-772.95 1181.52,-778.13 1191.98,-779.85 1190.77,-772.95"/>
<text text-anchor="middle" x="1329" y="-802" font-family="Helvetica,sans-Serif" font-size="10.00"> meshset</text>
</g>
<!-- Node41 -->
<g id="node41" class="node">
<title>Node41</title>
<g id="a_node41"><a xlink:title=" ">
<polygon fill="white" stroke="#bfbfbf" points="1067,-1068 1067,-1098 1216,-1098 1216,-1068 1067,-1068"/>
<text text-anchor="start" x="1075" y="-1086" font-family="Helvetica,sans-Serif" font-size="10.00">shared_ptr&lt; MoFEM::</text>
<text text-anchor="middle" x="1141.5" y="-1075" font-family="Helvetica,sans-Serif" font-size="10.00">ComposedProblemsData &gt;</text>
</a>
</g>
</g>
<!-- Node41&#45;&gt;Node37 -->
<g id="edge49" class="edge">
<title>Node41&#45;&gt;Node37</title>
<path fill="none" stroke="#9a32cd" stroke-dasharray="5,2" d="M1226.07,-1077.78C1295.19,-1072.7 1384.07,-1064.14 1397,-1053 1420.04,-1033.16 1393.08,-1008.07 1415,-987 1424.11,-978.24 1436.42,-973.22 1448.73,-970.42"/>
<polygon fill="#9a32cd" stroke="#9a32cd" points="1225.75,-1074.29 1216.02,-1078.5 1226.25,-1081.27 1225.75,-1074.29"/>
<text text-anchor="middle" x="1329" y="-1077" font-family="Helvetica,sans-Serif" font-size="10.00"> composedProblemsData</text>
</g>
<!-- Node42 -->
<g id="node42" class="node">
<title>Node42</title>
<g id="a_node42"><a xlink:title=" ">
<polygon fill="white" stroke="#bfbfbf" points="1101,-1029.5 1101,-1048.5 1182,-1048.5 1182,-1029.5 1101,-1029.5"/>
<text text-anchor="middle" x="1141.5" y="-1036.5" font-family="Helvetica,sans-Serif" font-size="10.00">BitRefLevel *</text>
</a>
</g>
</g>
<!-- Node42&#45;&gt;Node37 -->
<g id="edge50" class="edge">
<title>Node42&#45;&gt;Node37</title>
<path fill="none" stroke="#9a32cd" stroke-dasharray="5,2" d="M1192.34,-1034.88C1261.31,-1028.88 1379.39,-1017.43 1397,-1008 1407.84,-1002.2 1404.48,-993.37 1415,-987 1425.19,-980.84 1437.18,-976.67 1448.83,-973.86"/>
<polygon fill="#9a32cd" stroke="#9a32cd" points="1191.79,-1031.41 1182.13,-1035.76 1192.39,-1038.39 1191.79,-1031.41"/>
<text text-anchor="middle" x="1329" y="-1041" font-family="Helvetica,sans-Serif" font-size="10.00"> tagBitRefLevelMask</text>
<text text-anchor="middle" x="1329" y="-1030" font-family="Helvetica,sans-Serif" font-size="10.00">tagBitRefLevel</text>
</g>
<!-- Node43 -->
<g id="node43" class="node">
<title>Node43</title>
<g id="a_node43"><a xlink:title=" ">
<polygon fill="white" stroke="#bfbfbf" points="1056.5,-980 1056.5,-1010 1226.5,-1010 1226.5,-980 1056.5,-980"/>
<text text-anchor="start" x="1064.5" y="-998" font-family="Helvetica,sans-Serif" font-size="10.00">shared_ptr&lt; NumeredDofEntity</text>
<text text-anchor="middle" x="1141.5" y="-987" font-family="Helvetica,sans-Serif" font-size="10.00">_multiIndex &gt;</text>
</a>
</g>
</g>
<!-- Node43&#45;&gt;Node37 -->
<g id="edge51" class="edge">
<title>Node43&#45;&gt;Node37</title>
<path fill="none" stroke="#9a32cd" stroke-dasharray="5,2" d="M1236.96,-987.82C1305.2,-982.63 1394.57,-975.83 1448.92,-971.69"/>
<polygon fill="#9a32cd" stroke="#9a32cd" points="1236.34,-984.35 1226.63,-988.6 1236.87,-991.33 1236.34,-984.35"/>
<text text-anchor="middle" x="1329" y="-999" font-family="Helvetica,sans-Serif" font-size="10.00"> numeredRowDofsPtr</text>
<text text-anchor="middle" x="1329" y="-988" font-family="Helvetica,sans-Serif" font-size="10.00">numeredColDofsPtr</text>
</g>
<!-- Node44 -->
<g id="node44" class="node">
<title>Node44</title>
<g id="a_node44"><a xlink:title=" ">
<polygon fill="white" stroke="#bfbfbf" points="1072.5,-941.5 1072.5,-960.5 1210.5,-960.5 1210.5,-941.5 1072.5,-941.5"/>
<text text-anchor="middle" x="1141.5" y="-948.5" font-family="Helvetica,sans-Serif" font-size="10.00">vector&lt; BlockFieldPair &gt;</text>
</a>
</g>
</g>
<!-- Node44&#45;&gt;Node37 -->
<g id="edge53" class="edge">
<title>Node44&#45;&gt;Node37</title>
<path fill="none" stroke="#9a32cd" stroke-dasharray="5,2" d="M1220.85,-948.2C1271.24,-947.17 1338.08,-947.22 1397,-952 1413.99,-953.38 1432.46,-955.99 1448.87,-958.71"/>
<polygon fill="#9a32cd" stroke="#9a32cd" points="1220.59,-944.7 1210.67,-948.43 1220.75,-951.7 1220.59,-944.7"/>
<text text-anchor="middle" x="1329" y="-955" font-family="Helvetica,sans-Serif" font-size="10.00"> emptyFieldBlocks</text>
</g>
<!-- Node45 -->
<g id="node45" class="node">
<title>Node45</title>
<g id="a_node45"><a xlink:title=" ">
<polygon fill="white" stroke="#bfbfbf" points="1063.5,-892 1063.5,-922 1219.5,-922 1219.5,-892 1063.5,-892"/>
<text text-anchor="start" x="1071.5" y="-910" font-family="Helvetica,sans-Serif" font-size="10.00">shared_ptr&lt; MoFEM::</text>
<text text-anchor="middle" x="1141.5" y="-899" font-family="Helvetica,sans-Serif" font-size="10.00">Problem::SubProblemData &gt;</text>
</a>
</g>
</g>
<!-- Node45&#45;&gt;Node37 -->
<g id="edge54" class="edge">
<title>Node45&#45;&gt;Node37</title>
<path fill="none" stroke="#9a32cd" stroke-dasharray="5,2" d="M1229.61,-910.25C1279.15,-913.42 1342.09,-919.67 1397,-932 1424.85,-938.25 1455.56,-950.01 1475.61,-958.39"/>
<polygon fill="#9a32cd" stroke="#9a32cd" points="1229.76,-906.75 1219.56,-909.64 1229.33,-913.74 1229.76,-906.75"/>
<text text-anchor="middle" x="1329" y="-935" font-family="Helvetica,sans-Serif" font-size="10.00"> subProblemData</text>
</g>
<!-- Node46 -->
<g id="node46" class="node">
<title>Node46</title>
<g id="a_node46"><a xlink:title=" ">
<polygon fill="white" stroke="#bfbfbf" points="1040,-853.5 1040,-872.5 1243,-872.5 1243,-853.5 1040,-853.5"/>
<text text-anchor="middle" x="1141.5" y="-860.5" font-family="Helvetica,sans-Serif" font-size="10.00">shared_ptr&lt; SequenceDofContainer &gt;</text>
</a>
</g>
</g>
<!-- Node46&#45;&gt;Node37 -->
<g id="edge56" class="edge">
<title>Node46&#45;&gt;Node37</title>
<path fill="none" stroke="#9a32cd" stroke-dasharray="5,2" d="M1253.58,-858.98C1299.43,-860.86 1352.22,-867.74 1397,-886 1437.03,-902.33 1473.55,-940.29 1489.3,-958.25"/>
<polygon fill="#9a32cd" stroke="#9a32cd" points="1253.41,-855.47 1243.3,-858.63 1253.17,-862.47 1253.41,-855.47"/>
<text text-anchor="middle" x="1329" y="-900" font-family="Helvetica,sans-Serif" font-size="10.00"> sequenceRowDofContainer</text>
<text text-anchor="middle" x="1329" y="-889" font-family="Helvetica,sans-Serif" font-size="10.00">sequenceColDofContainer</text>
</g>
<!-- Node47 -->
<g id="node47" class="node">
<title>Node47</title>
<g id="a_node47"><a xlink:title=" ">
<polygon fill="white" stroke="#bfbfbf" points="1097.5,-815.5 1097.5,-834.5 1185.5,-834.5 1185.5,-815.5 1097.5,-815.5"/>
<text text-anchor="middle" x="1141.5" y="-822.5" font-family="Helvetica,sans-Serif" font-size="10.00">BitProblemId *</text>
</a>
</g>
</g>
<!-- Node47&#45;&gt;Node37 -->
<g id="edge57" class="edge">
<title>Node47&#45;&gt;Node37</title>
<path fill="none" stroke="#9a32cd" stroke-dasharray="5,2" d="M1195.87,-817.21C1249.8,-811.93 1333.94,-811 1397,-844 1447.33,-870.34 1481.5,-934.01 1493.12,-958.33"/>
<polygon fill="#9a32cd" stroke="#9a32cd" points="1195.41,-813.74 1185.84,-818.27 1196.15,-820.7 1195.41,-813.74"/>
<text text-anchor="middle" x="1329" y="-847" font-family="Helvetica,sans-Serif" font-size="10.00"> tagId</text>
</g>
<!-- Node48 -->
<g id="node48" class="node">
<title>Node48</title>
<g id="a_node48"><a xlink:title=" ">
<polygon fill="white" stroke="#bfbfbf" points="1805,-944 1805,-974 1967,-974 1967,-944 1805,-944"/>
<text text-anchor="start" x="1813" y="-962" font-family="Helvetica,sans-Serif" font-size="10.00">shared_ptr&lt; const MoFEM</text>
<text text-anchor="middle" x="1886" y="-951" font-family="Helvetica,sans-Serif" font-size="10.00">::NumeredEntFiniteElement &gt;</text>
</a>
</g>
</g>
<!-- Node48&#45;&gt;Node11 -->
<g id="edge58" class="edge">
<title>Node48&#45;&gt;Node11</title>
<path fill="none" stroke="#9a32cd" stroke-dasharray="5,2" d="M1977.54,-962.44C2048.18,-965.13 2143.85,-968.77 2202.4,-971"/>
<polygon fill="#9a32cd" stroke="#9a32cd" points="1977.43,-958.94 1967.3,-962.06 1977.16,-965.93 1977.43,-958.94"/>
<text text-anchor="middle" x="2063" y="-971" font-family="Helvetica,sans-Serif" font-size="10.00"> numeredEntFiniteElementPtr</text>
</g>
<!-- Node49 -->
<g id="node49" class="node">
<title>Node49</title>
<g id="a_node49"><a xlink:title=" ">
<polygon fill="white" stroke="#bfbfbf" points="1864,-1097.5 1864,-1116.5 1908,-1116.5 1908,-1097.5 1864,-1097.5"/>
<text text-anchor="middle" x="1886" y="-1104.5" font-family="Helvetica,sans-Serif" font-size="10.00">string</text>
</a>
</g>
</g>
<!-- Node49&#45;&gt;Node2 -->
<g id="edge81" class="edge">
<title>Node49&#45;&gt;Node2</title>
<path fill="none" stroke="#9a32cd" stroke-dasharray="5,2" d="M1918.2,-1107.4C2036.24,-1109.17 2466.73,-1118.02 2819,-1156 2824.86,-1156.63 2830.91,-1157.33 2837,-1158.08"/>
<polygon fill="#9a32cd" stroke="#9a32cd" points="1918.12,-1103.9 1908.07,-1107.25 1918.01,-1110.9 1918.12,-1103.9"/>
<text text-anchor="middle" x="2458" y="-1145" font-family="Helvetica,sans-Serif" font-size="10.00"> colFieldName</text>
<text text-anchor="middle" x="2458" y="-1134" font-family="Helvetica,sans-Serif" font-size="10.00">rowFieldName</text>
</g>
<!-- Node49&#45;&gt;Node11 -->
<g id="edge59" class="edge">
<title>Node49&#45;&gt;Node11</title>
<path fill="none" stroke="#9a32cd" stroke-dasharray="5,2" d="M1918.08,-1099.87C1967.21,-1087.59 2064.47,-1059.14 2135,-1012 2144.67,-1005.54 2142.81,-998.61 2153,-993 2167.94,-984.78 2185.75,-979.9 2202.27,-977.02"/>
<polygon fill="#9a32cd" stroke="#9a32cd" points="1916.96,-1096.54 1908.07,-1102.31 1918.62,-1103.34 1916.96,-1096.54"/>
<text text-anchor="middle" x="2063" y="-1081" font-family="Helvetica,sans-Serif" font-size="10.00"> feName</text>
</g>
<!-- Node50 -->
<g id="node50" class="node">
<title>Node50</title>
<g id="a_node50"><a xlink:title=" ">
<polygon fill="white" stroke="#bfbfbf" points="1804.5,-993 1804.5,-1023 1967.5,-1023 1967.5,-993 1804.5,-993"/>
<text text-anchor="start" x="1812.5" y="-1011" font-family="Helvetica,sans-Serif" font-size="10.00">function&lt; bool(MoFEM</text>
<text text-anchor="middle" x="1886" y="-1000" font-family="Helvetica,sans-Serif" font-size="10.00">::FEMethod *fe_method_ptr)&gt;</text>
</a>
</g>
</g>
<!-- Node50&#45;&gt;Node11 -->
<g id="edge60" class="edge">
<title>Node50&#45;&gt;Node11</title>
<path fill="none" stroke="#9a32cd" stroke-dasharray="5,2" d="M1977.98,-999.35C2048.52,-992.64 2143.82,-983.57 2202.26,-978.02"/>
<polygon fill="#9a32cd" stroke="#9a32cd" points="1977.38,-995.89 1967.76,-1000.32 1978.05,-1002.86 1977.38,-995.89"/>
<text text-anchor="middle" x="2063" y="-1000" font-family="Helvetica,sans-Serif" font-size="10.00"> exeTestHook</text>
</g>
<!-- Node51 -->
<g id="node51" class="node">
<title>Node51</title>
<g id="a_node51"><a xlink:href="classdouble.html" target="_top" xlink:title=" ">
<polygon fill="white" stroke="black" points="2231,-714.5 2231,-733.5 2281,-733.5 2281,-714.5 2231,-714.5"/>
<text text-anchor="middle" x="2256" y="-721.5" font-family="Helvetica,sans-Serif" font-size="10.00">double</text>
</a>
</g>
</g>
<!-- Node51&#45;&gt;Node10 -->
<g id="edge61" class="edge">
<title>Node51&#45;&gt;Node10</title>
<path fill="none" stroke="#9a32cd" stroke-dasharray="5,2" d="M2291.39,-720.89C2356.81,-715.55 2496.42,-707.11 2539,-728 2591.55,-753.78 2625.58,-820.95 2636.86,-846.21"/>
<polygon fill="#9a32cd" stroke="#9a32cd" points="2290.86,-717.42 2281.19,-721.74 2291.45,-724.39 2290.86,-717.42"/>
<text text-anchor="middle" x="2458" y="-731" font-family="Helvetica,sans-Serif" font-size="10.00"> elementMeasure</text>
</g>
<!-- Node52 -->
<g id="node52" class="node">
<title>Node52</title>
<g id="a_node52"><a xlink:title=" ">
<polygon fill="white" stroke="#bfbfbf" points="2170,-654.5 2170,-695.5 2342,-695.5 2342,-654.5 2170,-654.5"/>
<text text-anchor="start" x="2178" y="-683.5" font-family="Helvetica,sans-Serif" font-size="10.00">array&lt; boost::shared</text>
<text text-anchor="start" x="2178" y="-672.5" font-family="Helvetica,sans-Serif" font-size="10.00">_ptr&lt; MoFEM::EntitiesFieldData</text>
<text text-anchor="middle" x="2256" y="-661.5" font-family="Helvetica,sans-Serif" font-size="10.00"> &gt;, LASTSPACE &gt;</text>
</a>
</g>
</g>
<!-- Node52&#45;&gt;Node10 -->
<g id="edge62" class="edge">
<title>Node52&#45;&gt;Node10</title>
<path fill="none" stroke="#9a32cd" stroke-dasharray="5,2" d="M2352.45,-657.94C2410.31,-652.56 2483.44,-655.02 2539,-688 2601.21,-724.92 2630.33,-815.9 2638.51,-846.09"/>
<polygon fill="#9a32cd" stroke="#9a32cd" points="2351.79,-654.48 2342.2,-658.98 2352.51,-661.45 2351.79,-654.48"/>
<text text-anchor="middle" x="2458" y="-702" font-family="Helvetica,sans-Serif" font-size="10.00"> derivedDataOnElement</text>
<text text-anchor="middle" x="2458" y="-691" font-family="Helvetica,sans-Serif" font-size="10.00">dataOnElement</text>
</g>
<!-- Node53 -->
<g id="node53" class="node">
<title>Node53</title>
<g id="a_node53"><a xlink:title=" ">
<polygon fill="white" stroke="#bfbfbf" points="2222,-616.5 2222,-635.5 2290,-635.5 2290,-616.5 2222,-616.5"/>
<text text-anchor="middle" x="2256" y="-623.5" font-family="Helvetica,sans-Serif" font-size="10.00">EntityType</text>
</a>
</g>
</g>
<!-- Node53&#45;&gt;Node10 -->
<g id="edge63" class="edge">
<title>Node53&#45;&gt;Node10</title>
<path fill="none" stroke="#9a32cd" stroke-dasharray="5,2" d="M2300.52,-615.58C2359.85,-603.99 2466.96,-592.72 2539,-641 2613.47,-690.91 2634.98,-810.69 2639.8,-846.03"/>
<polygon fill="#9a32cd" stroke="#9a32cd" points="2299.46,-612.22 2290.36,-617.65 2300.86,-619.08 2299.46,-612.22"/>
<text text-anchor="middle" x="2458" y="-644" font-family="Helvetica,sans-Serif" font-size="10.00"> lastEvaluatedElementEntityType</text>
</g>
<!-- Node54 -->
<g id="node54" class="node">
<title>Node54</title>
<g id="a_node54"><a xlink:href="structMoFEM_1_1DeprecatedCoreInterface.html" target="_top" xlink:title="Deprecated interface functions.">
<polygon fill="white" stroke="black" points="1600,-251.5 1600,-270.5 1781,-270.5 1781,-251.5 1600,-251.5"/>
<text text-anchor="middle" x="1690.5" y="-258.5" font-family="Helvetica,sans-Serif" font-size="10.00">MoFEM::DeprecatedCoreInterface</text>
</a>
</g>
</g>
<!-- Node54&#45;&gt;Node10 -->
<g id="edge64" class="edge">
<title>Node54&#45;&gt;Node10</title>
<path fill="none" stroke="#9a32cd" stroke-dasharray="5,2" d="M1764.13,-273.51C1769.94,-275.39 1775.64,-277.54 1781,-280 1970.02,-366.83 1959.45,-487.8 2153,-564 2313.4,-627.15 2401.1,-498.56 2539,-602 2622.82,-664.87 2637.92,-807.88 2640.5,-846.33"/>
<polygon fill="#9a32cd" stroke="#9a32cd" points="1764.86,-270.08 1754.28,-270.61 1762.88,-276.79 1764.86,-270.08"/>
<text text-anchor="middle" x="2063" y="-559" font-family="Helvetica,sans-Serif" font-size="10.00"> mField</text>
</g>
<!-- Node55&#45;&gt;Node54 -->
<g id="edge65" class="edge">
<title>Node55&#45;&gt;Node54</title>
<path fill="none" stroke="midnightblue" d="M1214.29,-9.33C1266.66,-11.13 1338.43,-18.4 1397,-42 1525.27,-93.68 1647.19,-216.15 1680.56,-251.37"/>
<polygon fill="midnightblue" stroke="midnightblue" points="1214.18,-5.83 1204.08,-9.05 1213.98,-12.83 1214.18,-5.83"/>
</g>
<!-- Node56 -->
<g id="node56" class="node">
<title>Node56</title>
<g id="a_node56"><a xlink:title=" ">
<polygon fill="white" stroke="#bfbfbf" points="2172.5,-1051 2172.5,-1103 2339.5,-1103 2339.5,-1051 2172.5,-1051"/>
<text text-anchor="start" x="2180.5" y="-1091" font-family="Helvetica,sans-Serif" font-size="10.00">function&lt; MoFEMErrorCode</text>
<text text-anchor="start" x="2180.5" y="-1080" font-family="Helvetica,sans-Serif" font-size="10.00">(ForcesAndSourcesCore *fe</text>
<text text-anchor="start" x="2180.5" y="-1069" font-family="Helvetica,sans-Serif" font-size="10.00">_raw_ptr, int order_row,</text>
<text text-anchor="middle" x="2256" y="-1058" font-family="Helvetica,sans-Serif" font-size="10.00"> int order_col, int order_data)&gt;</text>
</a>
</g>
</g>
<!-- Node56&#45;&gt;Node10 -->
<g id="edge68" class="edge">
<title>Node56&#45;&gt;Node10</title>
<path fill="none" stroke="#9a32cd" stroke-dasharray="5,2" d="M2349.75,-1077.87C2408.61,-1074.19 2483.8,-1061.24 2539,-1023 2597.93,-982.18 2629.01,-895.2 2638.12,-865.88"/>
<polygon fill="#9a32cd" stroke="#9a32cd" points="2349.5,-1074.38 2339.71,-1078.42 2349.89,-1081.37 2349.5,-1074.38"/>
<text text-anchor="middle" x="2458" y="-1078" font-family="Helvetica,sans-Serif" font-size="10.00"> setRuleHook</text>
</g>
<!-- Node57 -->
<g id="node57" class="node">
<title>Node57</title>
<g id="a_node57"><a xlink:title=" ">
<polygon fill="white" stroke="#bfbfbf" points="2155,-1002 2155,-1032 2357,-1032 2357,-1002 2155,-1002"/>
<text text-anchor="start" x="2163" y="-1020" font-family="Helvetica,sans-Serif" font-size="10.00">ptr_deque&lt; MoFEM::Forces</text>
<text text-anchor="middle" x="2256" y="-1009" font-family="Helvetica,sans-Serif" font-size="10.00">AndSourcesCore::UserDataOperator &gt;</text>
</a>
</g>
</g>
<!-- Node57&#45;&gt;Node10 -->
<g id="edge69" class="edge">
<title>Node57&#45;&gt;Node10</title>
<path fill="none" stroke="#9a32cd" stroke-dasharray="5,2" d="M2367.25,-1010.52C2421.6,-1003.6 2486.57,-989.5 2539,-961 2583.43,-936.84 2620.42,-886.8 2634.69,-865.71"/>
<polygon fill="#9a32cd" stroke="#9a32cd" points="2366.73,-1007.06 2357.23,-1011.74 2367.58,-1014.01 2366.73,-1007.06"/>
<text text-anchor="middle" x="2458" y="-1011" font-family="Helvetica,sans-Serif" font-size="10.00"> opPtrVector</text>
</g>
<!-- Node58 -->
<g id="node58" class="node">
<title>Node58</title>
<g id="a_node58"><a xlink:href="structMoFEM_1_1EntitiesFieldData.html" target="_top" xlink:title="data structure for finite element entity">
<polygon fill="white" stroke="black" points="2185,-752.5 2185,-771.5 2327,-771.5 2327,-752.5 2185,-752.5"/>
<text text-anchor="middle" x="2256" y="-759.5" font-family="Helvetica,sans-Serif" font-size="10.00">MoFEM::EntitiesFieldData</text>
</a>
</g>
</g>
<!-- Node58&#45;&gt;Node10 -->
<g id="edge70" class="edge">
<title>Node58&#45;&gt;Node10</title>
<path fill="none" stroke="#9a32cd" stroke-dasharray="5,2" d="M2313.98,-750.88C2372.57,-742.05 2465.38,-735.4 2539,-764 2582.79,-781.01 2619.59,-826.32 2634.22,-846.3"/>
<polygon fill="#9a32cd" stroke="#9a32cd" points="2313.14,-747.47 2303.81,-752.49 2314.24,-754.39 2313.14,-747.47"/>
<text text-anchor="middle" x="2458" y="-811" font-family="Helvetica,sans-Serif" font-size="10.00"> dataNoField</text>
<text text-anchor="middle" x="2458" y="-800" font-family="Helvetica,sans-Serif" font-size="10.00">dataL2</text>
<text text-anchor="middle" x="2458" y="-789" font-family="Helvetica,sans-Serif" font-size="10.00">dataH1</text>
<text text-anchor="middle" x="2458" y="-778" font-family="Helvetica,sans-Serif" font-size="10.00">dataHcurl</text>
<text text-anchor="middle" x="2458" y="-767" font-family="Helvetica,sans-Serif" font-size="10.00">dataHdiv</text>
</g>
<!-- Node59 -->
<g id="node59" class="node">
<title>Node59</title>
<g id="a_node59"><a xlink:title=" ">
<polygon fill="white" stroke="#bfbfbf" points="1805,-698 1805,-728 1967,-728 1967,-698 1805,-698"/>
<text text-anchor="start" x="1813" y="-716" font-family="Helvetica,sans-Serif" font-size="10.00">array&lt; std::bitset</text>
<text text-anchor="middle" x="1886" y="-705" font-family="Helvetica,sans-Serif" font-size="10.00">&lt; LASTBASE &gt;, LASTSPACE &gt;</text>
</a>
</g>
</g>
<!-- Node59&#45;&gt;Node58 -->
<g id="edge71" class="edge">
<title>Node59&#45;&gt;Node58</title>
<path fill="none" stroke="#9a32cd" stroke-dasharray="5,2" d="M1977.06,-709.83C2025.01,-710.63 2084.36,-715.64 2135,-732 2143.92,-734.88 2144.25,-739.64 2153,-743 2163.09,-746.87 2174.05,-749.97 2184.93,-752.45"/>
<polygon fill="#9a32cd" stroke="#9a32cd" points="1977.05,-706.33 1967.01,-709.72 1976.97,-713.33 1977.05,-706.33"/>
<text text-anchor="middle" x="2063" y="-746" font-family="Helvetica,sans-Serif" font-size="10.00"> brokenBasesOnSpaces</text>
<text text-anchor="middle" x="2063" y="-735" font-family="Helvetica,sans-Serif" font-size="10.00">basesOnSpaces</text>
</g>
<!-- Node60 -->
<g id="node60" class="node">
<title>Node60</title>
<g id="a_node60"><a xlink:title=" ">
<polygon fill="white" stroke="#bfbfbf" points="1809.5,-637.5 1809.5,-678.5 1962.5,-678.5 1962.5,-637.5 1809.5,-637.5"/>
<text text-anchor="start" x="1817.5" y="-666.5" font-family="Helvetica,sans-Serif" font-size="10.00">array&lt; boost::ptr_vector</text>
<text text-anchor="start" x="1817.5" y="-655.5" font-family="Helvetica,sans-Serif" font-size="10.00">&lt; MoFEM::EntitiesFieldData</text>
<text text-anchor="middle" x="1886" y="-644.5" font-family="Helvetica,sans-Serif" font-size="10.00">::EntData &gt;, MBMAXTYPE &gt;</text>
</a>
</g>
</g>
<!-- Node60&#45;&gt;Node58 -->
<g id="edge72" class="edge">
<title>Node60&#45;&gt;Node58</title>
<path fill="none" stroke="#9a32cd" stroke-dasharray="5,2" d="M1972.97,-650.2C2025.14,-650.07 2090.1,-658.69 2135,-695 2152.72,-709.33 2135.55,-728.36 2153,-743 2162.11,-750.64 2173.3,-755.61 2184.89,-758.77"/>
<polygon fill="#9a32cd" stroke="#9a32cd" points="1972.66,-646.7 1962.71,-650.34 1972.76,-653.7 1972.66,-646.7"/>
<text text-anchor="middle" x="2063" y="-698" font-family="Helvetica,sans-Serif" font-size="10.00"> dataOnEntities</text>
</g>
<!-- Node61 -->
<g id="node61" class="node">
<title>Node61</title>
<g id="a_node61"><a xlink:title=" ">
<polygon fill="white" stroke="#bfbfbf" points="1799,-588 1799,-618 1973,-618 1973,-588 1799,-588"/>
<text text-anchor="start" x="1807" y="-606" font-family="Helvetica,sans-Serif" font-size="10.00">array&lt; std::bitset</text>
<text text-anchor="middle" x="1886" y="-595" font-family="Helvetica,sans-Serif" font-size="10.00">&lt; LASTSPACE &gt;, MBMAXTYPE &gt;</text>
</a>
</g>
</g>
<!-- Node61&#45;&gt;Node58 -->
<g id="edge73" class="edge">
<title>Node61&#45;&gt;Node58</title>
<path fill="none" stroke="#9a32cd" stroke-dasharray="5,2" d="M1983.34,-590.47C2034.86,-589.37 2095.61,-597.94 2135,-636 2169.68,-669.51 2119.2,-708.6 2153,-743 2161.65,-751.8 2172.97,-757.25 2184.92,-760.52"/>
<polygon fill="#9a32cd" stroke="#9a32cd" points="1983.05,-586.98 1973.17,-590.81 1983.28,-593.97 1983.05,-586.98"/>
<text text-anchor="middle" x="2063" y="-639" font-family="Helvetica,sans-Serif" font-size="10.00"> spacesOnEntities</text>
</g>
<!-- Node62 -->
<g id="node62" class="node">
<title>Node62</title>
<g id="a_node62"><a xlink:title=" ">
<polygon fill="white" stroke="#bfbfbf" points="1801.5,-824 1801.5,-854 1970.5,-854 1970.5,-824 1801.5,-824"/>
<text text-anchor="start" x="1809.5" y="-842" font-family="Helvetica,sans-Serif" font-size="10.00">array&lt; std::bitset</text>
<text text-anchor="middle" x="1886" y="-831" font-family="Helvetica,sans-Serif" font-size="10.00">&lt; LASTBASE &gt;, MBMAXTYPE &gt;</text>
</a>
</g>
</g>
<!-- Node62&#45;&gt;Node58 -->
<g id="edge74" class="edge">
<title>Node62&#45;&gt;Node58</title>
<path fill="none" stroke="#9a32cd" stroke-dasharray="5,2" d="M1980.84,-834.51C2027.7,-830.74 2084.94,-823.79 2135,-811 2172.07,-801.53 2212.82,-783.03 2236.02,-771.67"/>
<polygon fill="#9a32cd" stroke="#9a32cd" points="1980.4,-831.04 1970.7,-835.29 1980.94,-838.01 1980.4,-831.04"/>
<text text-anchor="middle" x="2063" y="-836" font-family="Helvetica,sans-Serif" font-size="10.00"> basesOnEntities</text>
</g>
<!-- Node63 -->
<g id="node63" class="node">
<title>Node63</title>
<g id="a_node63"><a xlink:title=" ">
<polygon fill="white" stroke="#bfbfbf" points="1830,-785.5 1830,-804.5 1942,-804.5 1942,-785.5 1830,-785.5"/>
<text text-anchor="middle" x="1886" y="-792.5" font-family="Helvetica,sans-Serif" font-size="10.00">UBlasMatrix&lt; int &gt;</text>
</a>
</g>
</g>
<!-- Node63&#45;&gt;Node58 -->
<g id="edge75" class="edge">
<title>Node63&#45;&gt;Node58</title>
<path fill="none" stroke="#9a32cd" stroke-dasharray="5,2" d="M1952.26,-789.15C2017.56,-783.29 2117.69,-774.31 2184.71,-768.3"/>
<polygon fill="#9a32cd" stroke="#9a32cd" points="1951.74,-785.68 1942.09,-790.06 1952.37,-792.65 1951.74,-785.68"/>
<text text-anchor="middle" x="2063" y="-799" font-family="Helvetica,sans-Serif" font-size="10.00"> facesNodesOrder</text>
<text text-anchor="middle" x="2063" y="-788" font-family="Helvetica,sans-Serif" font-size="10.00">facesNodes</text>
</g>
<!-- Node64 -->
<g id="node64" class="node">
<title>Node64</title>
<g id="a_node64"><a xlink:title=" ">
<polygon fill="white" stroke="#bfbfbf" points="1827.5,-747.5 1827.5,-766.5 1944.5,-766.5 1944.5,-747.5 1827.5,-747.5"/>
<text text-anchor="middle" x="1886" y="-754.5" font-family="Helvetica,sans-Serif" font-size="10.00">bitset&lt; LASTBASE &gt;</text>
</a>
</g>
</g>
<!-- Node64&#45;&gt;Node58 -->
<g id="edge76" class="edge">
<title>Node64&#45;&gt;Node58</title>
<path fill="none" stroke="#9a32cd" stroke-dasharray="5,2" d="M1955.11,-757.93C2020.49,-758.81 2118.8,-760.15 2184.86,-761.05"/>
<polygon fill="#9a32cd" stroke="#9a32cd" points="1954.95,-754.42 1944.9,-757.79 1954.86,-761.42 1954.95,-754.42"/>
<text text-anchor="middle" x="2063" y="-763" font-family="Helvetica,sans-Serif" font-size="10.00"> bAse</text>
</g>
<!-- Node65 -->
<g id="node65" class="node">
<title>Node65</title>
<g id="a_node65"><a xlink:title=" ">
<polygon fill="white" stroke="#bfbfbf" points="2193.5,-903.5 2193.5,-944.5 2318.5,-944.5 2318.5,-903.5 2193.5,-903.5"/>
<text text-anchor="start" x="2201.5" y="-932.5" font-family="Helvetica,sans-Serif" font-size="10.00">function&lt; int(int order</text>
<text text-anchor="start" x="2201.5" y="-921.5" font-family="Helvetica,sans-Serif" font-size="10.00">_row, int order_col, int</text>
<text text-anchor="middle" x="2256" y="-910.5" font-family="Helvetica,sans-Serif" font-size="10.00"> order_data)&gt;</text>
</a>
</g>
</g>
<!-- Node65&#45;&gt;Node10 -->
<g id="edge77" class="edge">
<title>Node65&#45;&gt;Node10</title>
<path fill="none" stroke="#9a32cd" stroke-dasharray="5,2" d="M2328.73,-919.37C2386.13,-914.7 2468.42,-905.85 2539,-890 2566.32,-883.87 2596.64,-873.25 2617.07,-865.51"/>
<polygon fill="#9a32cd" stroke="#9a32cd" points="2328.36,-915.88 2318.67,-920.16 2328.91,-922.86 2328.36,-915.88"/>
<text text-anchor="middle" x="2458" y="-917" font-family="Helvetica,sans-Serif" font-size="10.00"> getRuleHook</text>
</g>
<!-- Node66 -->
<g id="node66" class="node">
<title>Node66</title>
<g id="a_node66"><a xlink:title=" ">
<polygon fill="white" stroke="#bfbfbf" points="2195,-854 2195,-884 2317,-884 2317,-854 2195,-854"/>
<text text-anchor="start" x="2203" y="-872" font-family="Helvetica,sans-Serif" font-size="10.00">shared_ptr&lt; MoFEM::</text>
<text text-anchor="middle" x="2256" y="-861" font-family="Helvetica,sans-Serif" font-size="10.00">BaseFunction &gt;</text>
</a>
</g>
</g>
<!-- Node66&#45;&gt;Node10 -->
<g id="edge78" class="edge">
<title>Node66&#45;&gt;Node10</title>
<path fill="none" stroke="#9a32cd" stroke-dasharray="5,2" d="M2327.52,-866.61C2392.17,-864.42 2488.01,-861.18 2556.68,-858.85"/>
<polygon fill="#9a32cd" stroke="#9a32cd" points="2327.3,-863.12 2317.42,-866.95 2327.54,-870.11 2327.3,-863.12"/>
<text text-anchor="middle" x="2458" y="-878" font-family="Helvetica,sans-Serif" font-size="10.00"> userPolynomialBasePtr</text>
<text text-anchor="middle" x="2458" y="-867" font-family="Helvetica,sans-Serif" font-size="10.00">elementPolynomialBasePtr</text>
</g>
<!-- Node67 -->
<g id="node67" class="node">
<title>Node67</title>
<g id="a_node67"><a xlink:href="classUBlasMatrix_3_01double_01_4.html" target="_top" xlink:title=" ">
<polygon fill="white" stroke="black" points="2190,-815.5 2190,-834.5 2322,-834.5 2322,-815.5 2190,-815.5"/>
<text text-anchor="middle" x="2256" y="-822.5" font-family="Helvetica,sans-Serif" font-size="10.00">UBlasMatrix&lt; double &gt;</text>
</a>
</g>
</g>
<!-- Node67&#45;&gt;Node10 -->
<g id="edge79" class="edge">
<title>Node67&#45;&gt;Node10</title>
<path fill="none" stroke="#9a32cd" stroke-dasharray="5,2" d="M2332.24,-823.2C2389.22,-822.78 2469.32,-824.24 2539,-833 2561.69,-835.85 2586.76,-841.47 2606.36,-846.44"/>
<polygon fill="#9a32cd" stroke="#9a32cd" points="2332.2,-819.7 2322.24,-823.29 2332.27,-826.7 2332.2,-819.7"/>
<text text-anchor="middle" x="2458" y="-847" font-family="Helvetica,sans-Serif" font-size="10.00"> coordsAtGaussPts</text>
<text text-anchor="middle" x="2458" y="-836" font-family="Helvetica,sans-Serif" font-size="10.00">gaussPts</text>
</g>
<!-- Node68 -->
<g id="node68" class="node">
<title>Node68</title>
<g id="a_node68"><a xlink:title=" ">
<polygon fill="white" stroke="#bfbfbf" points="2576.5,-1303.5 2576.5,-1322.5 2707.5,-1322.5 2707.5,-1303.5 2576.5,-1303.5"/>
<text text-anchor="middle" x="2642" y="-1310.5" font-family="Helvetica,sans-Serif" font-size="10.00">static const char *const</text>
</a>
</g>
</g>
<!-- Node68&#45;&gt;Node2 -->
<g id="edge80" class="edge">
<title>Node68&#45;&gt;Node2</title>
<path fill="none" stroke="#9a32cd" stroke-dasharray="5,2" d="M2707.45,-1300.8C2714.15,-1298.83 2720.78,-1296.57 2727,-1294 2796.8,-1265.1 2869.28,-1211.29 2902.43,-1185.1"/>
<polygon fill="#9a32cd" stroke="#9a32cd" points="2706.34,-1297.48 2697.62,-1303.49 2708.18,-1304.23 2706.34,-1297.48"/>
<text text-anchor="middle" x="2782" y="-1286" font-family="Helvetica,sans-Serif" font-size="10.00"> OpTypeNames</text>
</g>
<!-- Node69 -->
<g id="node69" class="node">
<title>Node69</title>
<g id="a_node69"><a xlink:title=" ">
<polygon fill="white" stroke="#bfbfbf" points="2852,-490 2852,-520 2992,-520 2992,-490 2852,-490"/>
<text text-anchor="start" x="2860" y="-508" font-family="Helvetica,sans-Serif" font-size="10.00">shared_ptr&lt; UBlasMatrix</text>
<text text-anchor="middle" x="2922" y="-497" font-family="Helvetica,sans-Serif" font-size="10.00">&lt; double &gt; &gt;</text>
</a>
</g>
</g>
<!-- Node69&#45;&gt;Node1 -->
<g id="edge84" class="edge">
<title>Node69&#45;&gt;Node1</title>
<path fill="none" stroke="#9a32cd" stroke-dasharray="5,2" d="M3002.31,-500.21C3024.46,-502.7 3047.07,-509.36 3064,-524 3112.81,-566.22 3146.75,-771.25 3156.57,-837.39"/>
<polygon fill="#9a32cd" stroke="#9a32cd" points="3002.45,-496.71 2992.19,-499.35 3001.85,-503.68 3002.45,-496.71"/>
<text text-anchor="middle" x="3044.5" y="-527" font-family="Helvetica,sans-Serif" font-size="10.00"> dataPtr</text>
</g>
</g>
</svg>
        <g id="navigator" transform="translate(0 0)" fill="#404254">
                <rect fill="#f2f5e9" fill-opacity="0.5" stroke="#606060" stroke-width=".5" x="0" y="0" width="60" height="60"/>
                <use id="zoomplus" xlink:href="#zoomPlus" x="17" y="9" onmousedown="handleZoom(evt,'in')"/>
                <use id="zoomminus" xlink:href="#zoomMin" x="42" y="9" onmousedown="handleZoom(evt,'out')"/>
                <use id="reset" xlink:href="#resetDef" x="30" y="36" onmousedown="handleReset()"/>
                <g id="arrowUp" xlink:href="#dirArrow" transform="translate(30 24)" onmousedown="handlePan(0,-1)">
                  <use xlink:href="#rim" fill="#404040">
                        <set attributeName="fill" to="#808080" begin="arrowUp.mouseover" end="arrowUp.mouseout"/>
                  </use>
                  <path fill="none" stroke="white" stroke-width="1.5" d="M0,-3.0v7 M-2.5,-0.5L0,-3.0L2.5,-0.5"/>
                </g>
                <g id="arrowRight" xlink:href="#dirArrow" transform="rotate(90) translate(36 -43)" onmousedown="handlePan(1,0)">
                  <use xlink:href="#rim" fill="#404040">
                        <set attributeName="fill" to="#808080" begin="arrowRight.mouseover" end="arrowRight.mouseout"/>
                  </use>
                  <path fill="none" stroke="white" stroke-width="1.5" d="M0,-3.0v7 M-2.5,-0.5L0,-3.0L2.5,-0.5"/>
                </g>
                <g id="arrowDown" xlink:href="#dirArrow" transform="rotate(180) translate(-30 -48)" onmousedown="handlePan(0,1)">
                  <use xlink:href="#rim" fill="#404040">
                        <set attributeName="fill" to="#808080" begin="arrowDown.mouseover" end="arrowDown.mouseout"/>
                  </use>
                  <path fill="none" stroke="white" stroke-width="1.5" d="M0,-3.0v7 M-2.5,-0.5L0,-3.0L2.5,-0.5"/>
                </g>
                <g id="arrowLeft" xlink:href="#dirArrow" transform="rotate(270) translate(-36 17)" onmousedown="handlePan(-1,0)">
                  <use xlink:href="#rim" fill="#404040">
                        <set attributeName="fill" to="#808080" begin="arrowLeft.mouseover" end="arrowLeft.mouseout"/>
                  </use>
                  <path fill="none" stroke="white" stroke-width="1.5" d="M0,-3.0v7 M-2.5,-0.5L0,-3.0L2.5,-0.5"/>
                </g>
        </g>
        <svg viewBox="0 0 15 15" width="100%" height="30px" preserveAspectRatio="xMaxYMin meet">
         <g id="arrow_out" transform="scale(0.3 0.3)">
          <a xlink:href="structMoFEM_1_1OpCalculateHTensorTensorField__coll__graph_org.svg" target="_base">
           <rect id="button" ry="5" rx="5" y="6" x="6" height="38" width="38"
                fill="#f2f5e9" fill-opacity="0.5" stroke="#606060" stroke-width="1.0"/>
           <path id="arrow"
             d="M 11.500037,31.436501 C 11.940474,20.09759 22.043105,11.32322 32.158766,21.979434 L 37.068811,17.246167 C 37.068811,17.246167 37.088388,32 37.088388,32 L 22.160133,31.978069 C 22.160133,31.978069 26.997745,27.140456 26.997745,27.140456 C 18.528582,18.264221 13.291696,25.230495 11.500037,31.436501 z"
             style="fill:#404040;"/>
          </a>
         </g>
        </svg>
</svg>
