<?xml version="1.0" encoding="UTF-8" standalone="no"?>
<!DOCTYPE svg PUBLIC "-//W3C//DTD SVG 1.1//EN"
 "http://www.w3.org/Graphics/SVG/1.1/DTD/svg11.dtd">
<!-- Generated by graphviz version 2.43.0 (0)
 -->
<!-- Title: AnalyticalDirichletBC::ApproxField::MyTriFE Pages: 1 -->
<svg width="3142pt" height="1349pt"
 viewBox="0.00 0.00 3142.00 1348.75" xmlns="http://www.w3.org/2000/svg" xmlns:xlink="http://www.w3.org/1999/xlink">
<g id="graph0" class="graph" transform="scale(1 1) rotate(0) translate(4 1344.75)">
<title>AnalyticalDirichletBC::ApproxField::MyTriFE</title>
<polygon fill="white" stroke="transparent" points="-4,4 -4,-1344.75 3138,-1344.75 3138,4 -4,4"/>
<!-- Node1 -->
<g id="node1" class="node">
<title>Node1</title>
<g id="a_node1"><a xlink:title=" ">
<polygon fill="#bfbfbf" stroke="black" points="3009,-691.75 3009,-721.75 3134,-721.75 3134,-691.75 3009,-691.75"/>
<text text-anchor="start" x="3017" y="-709.75" font-family="Helvetica,sans-Serif" font-size="10.00">AnalyticalDirichletBC</text>
<text text-anchor="middle" x="3071.5" y="-698.75" font-family="Helvetica,sans-Serif" font-size="10.00">::ApproxField::MyTriFE</text>
</a>
</g>
</g>
<!-- Node2 -->
<g id="node2" class="node">
<title>Node2</title>
<g id="a_node2"><a xlink:href="structMoFEM_1_1FaceElementForcesAndSourcesCore.html" target="_top" xlink:title="Face finite element.">
<polygon fill="white" stroke="black" points="2820,-1074.75 2820,-1104.75 2972,-1104.75 2972,-1074.75 2820,-1074.75"/>
<text text-anchor="start" x="2828" y="-1092.75" font-family="Helvetica,sans-Serif" font-size="10.00">MoFEM::FaceElementForces</text>
<text text-anchor="middle" x="2896" y="-1081.75" font-family="Helvetica,sans-Serif" font-size="10.00">AndSourcesCore</text>
</a>
</g>
</g>
<!-- Node2&#45;&gt;Node1 -->
<g id="edge1" class="edge">
<title>Node2&#45;&gt;Node1</title>
<path fill="none" stroke="midnightblue" d="M2907.98,-1065.5C2940.69,-993.29 3036.86,-781 3063.56,-722.07"/>
<polygon fill="midnightblue" stroke="midnightblue" points="2904.74,-1064.18 2903.8,-1074.73 2911.12,-1067.07 2904.74,-1064.18"/>
</g>
<!-- Node3 -->
<g id="node3" class="node">
<title>Node3</title>
<g id="a_node3"><a xlink:href="structMoFEM_1_1ForcesAndSourcesCore.html" target="_top" xlink:title="structure to get information form mofem into EntitiesFieldData">
<polygon fill="white" stroke="black" points="2553,-873.25 2553,-892.25 2723,-892.25 2723,-873.25 2553,-873.25"/>
<text text-anchor="middle" x="2638" y="-880.25" font-family="Helvetica,sans-Serif" font-size="10.00">MoFEM::ForcesAndSourcesCore</text>
</a>
</g>
</g>
<!-- Node3&#45;&gt;Node2 -->
<g id="edge2" class="edge">
<title>Node3&#45;&gt;Node2</title>
<path fill="none" stroke="midnightblue" d="M2658.82,-898.78C2706.87,-937.63 2829.03,-1036.4 2876.1,-1074.47"/>
<polygon fill="midnightblue" stroke="midnightblue" points="2660.98,-896.02 2651,-892.45 2656.58,-901.46 2660.98,-896.02"/>
</g>
<!-- Node3&#45;&gt;Node3 -->
<g id="edge60" class="edge">
<title>Node3&#45;&gt;Node3</title>
<path fill="none" stroke="#9a32cd" stroke-dasharray="5,2" d="M2613.45,-901.78C2614.79,-906.88 2622.97,-910.75 2638,-910.75 2661.46,-910.75 2668.24,-901.31 2658.35,-892.5"/>
<polygon fill="#9a32cd" stroke="#9a32cd" points="2616.71,-903.06 2617.65,-892.5 2610.33,-900.16 2616.71,-903.06"/>
<text text-anchor="middle" x="2638" y="-924.75" font-family="Helvetica,sans-Serif" font-size="10.00"> sidePtrFE</text>
<text text-anchor="middle" x="2638" y="-913.75" font-family="Helvetica,sans-Serif" font-size="10.00">refinePtrFE</text>
</g>
<!-- Node4 -->
<g id="node4" class="node">
<title>Node4</title>
<g id="a_node4"><a xlink:href="structMoFEM_1_1FEMethod.html" target="_top" xlink:title="structure for User Loop Methods on finite elements">
<polygon fill="white" stroke="black" points="2200.5,-881.25 2200.5,-900.25 2307.5,-900.25 2307.5,-881.25 2200.5,-881.25"/>
<text text-anchor="middle" x="2254" y="-888.25" font-family="Helvetica,sans-Serif" font-size="10.00">MoFEM::FEMethod</text>
</a>
</g>
</g>
<!-- Node4&#45;&gt;Node3 -->
<g id="edge3" class="edge">
<title>Node4&#45;&gt;Node3</title>
<path fill="none" stroke="midnightblue" d="M2318.09,-889.43C2382.27,-888.08 2482.09,-885.99 2552.94,-884.51"/>
<polygon fill="midnightblue" stroke="midnightblue" points="2317.64,-885.94 2307.71,-889.64 2317.79,-892.93 2317.64,-885.94"/>
</g>
<!-- Node5 -->
<g id="node5" class="node">
<title>Node5</title>
<g id="a_node5"><a xlink:href="structMoFEM_1_1BasicMethod.html" target="_top" xlink:title="Data structure to exchange data between mofem and User Loop Methods.">
<polygon fill="white" stroke="black" points="1825,-590.25 1825,-609.25 1947,-609.25 1947,-590.25 1825,-590.25"/>
<text text-anchor="middle" x="1886" y="-597.25" font-family="Helvetica,sans-Serif" font-size="10.00">MoFEM::BasicMethod</text>
</a>
</g>
</g>
<!-- Node5&#45;&gt;Node4 -->
<g id="edge4" class="edge">
<title>Node5&#45;&gt;Node4</title>
<path fill="none" stroke="midnightblue" d="M1898.79,-617.81C1932.09,-667.25 2032.35,-805.45 2153,-870.75 2167.4,-878.54 2184.45,-883.32 2200.36,-886.23"/>
<polygon fill="midnightblue" stroke="midnightblue" points="1901.65,-615.79 1893.19,-609.4 1895.82,-619.67 1901.65,-615.79"/>
</g>
<!-- Node6 -->
<g id="node6" class="node">
<title>Node6</title>
<g id="a_node6"><a xlink:href="structMoFEM_1_1KspMethod.html" target="_top" xlink:title="data structure for ksp (linear solver) context">
<polygon fill="white" stroke="black" points="1442,-577.25 1442,-596.25 1555,-596.25 1555,-577.25 1442,-577.25"/>
<text text-anchor="middle" x="1498.5" y="-584.25" font-family="Helvetica,sans-Serif" font-size="10.00">MoFEM::KspMethod</text>
</a>
</g>
</g>
<!-- Node6&#45;&gt;Node5 -->
<g id="edge5" class="edge">
<title>Node6&#45;&gt;Node5</title>
<path fill="none" stroke="midnightblue" d="M1565.57,-588.98C1638.41,-591.43 1754.58,-595.35 1824.93,-597.72"/>
<polygon fill="midnightblue" stroke="midnightblue" points="1565.26,-585.46 1555.14,-588.62 1565.02,-592.46 1565.26,-585.46"/>
</g>
<!-- Node7 -->
<g id="node7" class="node">
<title>Node7</title>
<g id="a_node7"><a xlink:href="structMoFEM_1_1PetscData.html" target="_top" xlink:title=" ">
<polygon fill="white" stroke="black" points="1087.5,-366.25 1087.5,-385.25 1195.5,-385.25 1195.5,-366.25 1087.5,-366.25"/>
<text text-anchor="middle" x="1141.5" y="-373.25" font-family="Helvetica,sans-Serif" font-size="10.00">MoFEM::PetscData</text>
</a>
</g>
</g>
<!-- Node7&#45;&gt;Node6 -->
<g id="edge6" class="edge">
<title>Node7&#45;&gt;Node6</title>
<path fill="none" stroke="midnightblue" d="M1205.76,-379.82C1219.56,-383.49 1233,-389.64 1243,-399.75 1268.33,-425.34 1238.27,-450.82 1261,-478.75 1307.73,-536.16 1391.65,-564.33 1445.93,-577.17"/>
<polygon fill="midnightblue" stroke="midnightblue" points="1206.22,-376.34 1195.7,-377.56 1204.69,-383.17 1206.22,-376.34"/>
</g>
<!-- Node17 -->
<g id="node17" class="node">
<title>Node17</title>
<g id="a_node17"><a xlink:href="structMoFEM_1_1SnesMethod.html" target="_top" xlink:title="data structure for snes (nonlinear solver) context">
<polygon fill="white" stroke="black" points="1439,-159.25 1439,-178.25 1558,-178.25 1558,-159.25 1439,-159.25"/>
<text text-anchor="middle" x="1498.5" y="-166.25" font-family="Helvetica,sans-Serif" font-size="10.00">MoFEM::SnesMethod</text>
</a>
</g>
</g>
<!-- Node7&#45;&gt;Node17 -->
<g id="edge19" class="edge">
<title>Node7&#45;&gt;Node17</title>
<path fill="none" stroke="darkgreen" d="M1205.77,-372.2C1219.7,-368.53 1233.2,-362.25 1243,-351.75 1276.2,-316.17 1227.25,-278.8 1261,-243.75 1303.8,-199.29 1338.43,-235.17 1397,-215.75 1427.35,-205.68 1460.6,-188.91 1480.22,-178.36"/>
<polygon fill="darkgreen" stroke="darkgreen" points="1204.62,-368.87 1195.6,-374.44 1206.12,-375.71 1204.62,-368.87"/>
</g>
<!-- Node20 -->
<g id="node20" class="node">
<title>Node20</title>
<g id="a_node20"><a xlink:href="structMoFEM_1_1TSMethod.html" target="_top" xlink:title="data structure for TS (time stepping) context">
<polygon fill="white" stroke="black" points="1445,-457.25 1445,-476.25 1552,-476.25 1552,-457.25 1445,-457.25"/>
<text text-anchor="middle" x="1498.5" y="-464.25" font-family="Helvetica,sans-Serif" font-size="10.00">MoFEM::TSMethod</text>
</a>
</g>
</g>
<!-- Node7&#45;&gt;Node20 -->
<g id="edge25" class="edge">
<title>Node7&#45;&gt;Node20</title>
<path fill="none" stroke="darkgreen" d="M1194.21,-387.7C1209.91,-391.44 1227.19,-395.65 1243,-399.75 1319.83,-419.64 1338.09,-428.17 1415,-447.75 1427.68,-450.97 1441.51,-454.25 1454.16,-457.16"/>
<polygon fill="darkgreen" stroke="darkgreen" points="1194.69,-384.22 1184.15,-385.32 1193.08,-391.03 1194.69,-384.22"/>
</g>
<!-- Node8 -->
<g id="node8" class="node">
<title>Node8</title>
<g id="a_node8"><a xlink:href="structMoFEM_1_1UnknownInterface.html" target="_top" xlink:title="base class for all interface classes">
<polygon fill="white" stroke="black" points="735,-1183.25 735,-1202.25 883,-1202.25 883,-1183.25 735,-1183.25"/>
<text text-anchor="middle" x="809" y="-1190.25" font-family="Helvetica,sans-Serif" font-size="10.00">MoFEM::UnknownInterface</text>
</a>
</g>
</g>
<!-- Node8&#45;&gt;Node7 -->
<g id="edge7" class="edge">
<title>Node8&#45;&gt;Node7</title>
<path fill="none" stroke="midnightblue" d="M815.58,-1173.25C850.39,-1051.74 1036.24,-403.33 1040,-399.75 1052.72,-387.62 1070.43,-381.26 1087.45,-378.03"/>
<polygon fill="midnightblue" stroke="midnightblue" points="812.16,-1172.48 812.78,-1183.06 818.89,-1174.41 812.16,-1172.48"/>
</g>
<!-- Node49 -->
<g id="node49" class="node">
<title>Node49</title>
<g id="a_node49"><a xlink:href="structMoFEM_1_1CoreInterface.html" target="_top" xlink:title="Interface.">
<polygon fill="white" stroke="black" points="1079,-1319.25 1079,-1338.25 1204,-1338.25 1204,-1319.25 1079,-1319.25"/>
<text text-anchor="middle" x="1141.5" y="-1326.25" font-family="Helvetica,sans-Serif" font-size="10.00">MoFEM::CoreInterface</text>
</a>
</g>
</g>
<!-- Node8&#45;&gt;Node49 -->
<g id="edge59" class="edge">
<title>Node8&#45;&gt;Node49</title>
<path fill="none" stroke="midnightblue" d="M893.15,-1187.06C936.84,-1188.66 988.18,-1198.47 1022,-1230.75 1048.05,-1255.61 1014.07,-1284.76 1040,-1309.75 1050.49,-1319.85 1064.57,-1325.43 1078.86,-1328.35"/>
<polygon fill="midnightblue" stroke="midnightblue" points="893.17,-1183.56 883.09,-1186.84 893.01,-1190.56 893.17,-1183.56"/>
</g>
<!-- Node9 -->
<g id="node9" class="node">
<title>Node9</title>
<g id="a_node9"><a xlink:title=" ">
<polygon fill="white" stroke="#bfbfbf" points="386,-1161.25 386,-1224.25 627,-1224.25 627,-1161.25 386,-1161.25"/>
<text text-anchor="start" x="394" y="-1212.25" font-family="Helvetica,sans-Serif" font-size="10.00">multi_index_container</text>
<text text-anchor="start" x="394" y="-1201.25" font-family="Helvetica,sans-Serif" font-size="10.00">&lt; UIdTypeMap, indexed</text>
<text text-anchor="start" x="394" y="-1190.25" font-family="Helvetica,sans-Serif" font-size="10.00">_by&lt; hashed_unique&lt; member</text>
<text text-anchor="start" x="394" y="-1179.25" font-family="Helvetica,sans-Serif" font-size="10.00">&lt; UIdTypeMap, boost::typeindex</text>
<text text-anchor="middle" x="506.5" y="-1168.25" font-family="Helvetica,sans-Serif" font-size="10.00">::type_index, &amp;UIdTypeMap::classIdx &gt; &gt; &gt; &gt;</text>
</a>
</g>
</g>
<!-- Node9&#45;&gt;Node8 -->
<g id="edge8" class="edge">
<title>Node9&#45;&gt;Node8</title>
<path fill="none" stroke="#9a32cd" stroke-dasharray="5,2" d="M637.41,-1192.75C670.69,-1192.75 705.33,-1192.75 734.62,-1192.75"/>
<polygon fill="#9a32cd" stroke="#9a32cd" points="637.13,-1189.25 627.13,-1192.75 637.13,-1196.25 637.13,-1189.25"/>
<text text-anchor="middle" x="681" y="-1195.75" font-family="Helvetica,sans-Serif" font-size="10.00"> iFaceTypeMap</text>
</g>
<!-- Node10 -->
<g id="node10" class="node">
<title>Node10</title>
<g id="a_node10"><a xlink:title=" ">
<polygon fill="white" stroke="#bfbfbf" points="0,-1213.25 0,-1232.25 125,-1232.25 125,-1213.25 0,-1213.25"/>
<text text-anchor="middle" x="62.5" y="-1220.25" font-family="Helvetica,sans-Serif" font-size="10.00">multi_index_container</text>
</a>
</g>
</g>
<!-- Node10&#45;&gt;Node5 -->
<g id="edge32" class="edge">
<title>Node10&#45;&gt;Node5</title>
<path fill="none" stroke="#9a32cd" stroke-dasharray="5,2" d="M114.58,-1234.28C123.99,-1236.05 133.76,-1237.65 143,-1238.75 303.1,-1257.83 344.27,-1252.75 505.5,-1252.75 505.5,-1252.75 505.5,-1252.75 962.5,-1252.75 1059.1,-1252.75 1319.33,-1297.18 1397,-1239.75 1417,-1224.96 1401.7,-1207.77 1415,-1186.75 1470.28,-1099.36 1514.6,-1103.17 1582,-1024.75 1715.49,-869.44 1849.43,-657.12 1878.99,-609.49"/>
<polygon fill="#9a32cd" stroke="#9a32cd" points="115.05,-1230.81 104.56,-1232.31 113.7,-1237.67 115.05,-1230.81"/>
<text text-anchor="middle" x="961.5" y="-1332.75" font-family="Helvetica,sans-Serif" font-size="10.00"> adjacenciesPtr</text>
<text text-anchor="middle" x="961.5" y="-1321.75" font-family="Helvetica,sans-Serif" font-size="10.00">refinedEntitiesPtr</text>
<text text-anchor="middle" x="961.5" y="-1310.75" font-family="Helvetica,sans-Serif" font-size="10.00">finiteElementsEntitiesPtr</text>
<text text-anchor="middle" x="961.5" y="-1299.75" font-family="Helvetica,sans-Serif" font-size="10.00">dofsPtr</text>
<text text-anchor="middle" x="961.5" y="-1288.75" font-family="Helvetica,sans-Serif" font-size="10.00">entitiesPtr</text>
<text text-anchor="middle" x="961.5" y="-1277.75" font-family="Helvetica,sans-Serif" font-size="10.00">finiteElementsPtr</text>
<text text-anchor="middle" x="961.5" y="-1266.75" font-family="Helvetica,sans-Serif" font-size="10.00">refinedFiniteElementsPtr</text>
<text text-anchor="middle" x="961.5" y="-1255.75" font-family="Helvetica,sans-Serif" font-size="10.00">fieldsPtr</text>
</g>
<!-- Node10&#45;&gt;Node9 -->
<g id="edge9" class="edge">
<title>Node10&#45;&gt;Node9</title>
<path fill="none" stroke="orange" stroke-dasharray="5,2" d="M94.05,-1209.3C108.58,-1203.61 126.37,-1197.64 143,-1194.75 223.14,-1180.82 314.76,-1180.45 385.84,-1183.49"/>
<polygon fill="orange" stroke="orange" points="92.52,-1206.14 84.58,-1213.15 95.16,-1212.63 92.52,-1206.14"/>
<text text-anchor="start" x="143" y="-1230.75" font-family="Helvetica,sans-Serif" font-size="10.00"> &lt; UIdTypeMap, indexed</text>
<text text-anchor="start" x="143" y="-1219.75" font-family="Helvetica,sans-Serif" font-size="10.00">_by&lt; hashed_unique&lt; member</text>
<text text-anchor="start" x="143" y="-1208.75" font-family="Helvetica,sans-Serif" font-size="10.00">&lt; UIdTypeMap, boost::typeindex</text>
<text text-anchor="middle" x="255.5" y="-1197.75" font-family="Helvetica,sans-Serif" font-size="10.00">::type_index, &amp;UIdTypeMap::classIdx &gt; &gt; &gt; &gt;</text>
</g>
<!-- Node11 -->
<g id="node11" class="node">
<title>Node11</title>
<g id="a_node11"><a xlink:title=" ">
<polygon fill="white" stroke="#bfbfbf" points="738.5,-254.25 738.5,-273.25 879.5,-273.25 879.5,-254.25 738.5,-254.25"/>
<text text-anchor="middle" x="809" y="-261.25" font-family="Helvetica,sans-Serif" font-size="10.00">static constexpr Switches</text>
</a>
</g>
</g>
<!-- Node11&#45;&gt;Node7 -->
<g id="edge10" class="edge">
<title>Node11&#45;&gt;Node7</title>
<path fill="none" stroke="#9a32cd" stroke-dasharray="5,2" d="M866.31,-252.86C913.37,-247.18 979.43,-247.67 1022,-283.75 1045.85,-303.96 1017.63,-329.91 1040,-351.75 1052.58,-364.03 1070.26,-370.42 1087.28,-373.64"/>
<polygon fill="#9a32cd" stroke="#9a32cd" points="865.73,-249.41 856.28,-254.2 866.65,-256.34 865.73,-249.41"/>
<text text-anchor="middle" x="961.5" y="-363.75" font-family="Helvetica,sans-Serif" font-size="10.00"> CtxSetX_TT</text>
<text text-anchor="middle" x="961.5" y="-352.75" font-family="Helvetica,sans-Serif" font-size="10.00">CtxSetX_T</text>
<text text-anchor="middle" x="961.5" y="-341.75" font-family="Helvetica,sans-Serif" font-size="10.00">CtxSetA</text>
<text text-anchor="middle" x="961.5" y="-330.75" font-family="Helvetica,sans-Serif" font-size="10.00">CtxSetB</text>
<text text-anchor="middle" x="961.5" y="-319.75" font-family="Helvetica,sans-Serif" font-size="10.00">CtxSetTime</text>
<text text-anchor="middle" x="961.5" y="-308.75" font-family="Helvetica,sans-Serif" font-size="10.00">CtxSetNone</text>
<text text-anchor="middle" x="961.5" y="-297.75" font-family="Helvetica,sans-Serif" font-size="10.00">CtxSetF</text>
<text text-anchor="middle" x="961.5" y="-286.75" font-family="Helvetica,sans-Serif" font-size="10.00">CtxSetX</text>
</g>
<!-- Node12 -->
<g id="node12" class="node">
<title>Node12</title>
<g id="a_node12"><a xlink:title=" ">
<polygon fill="white" stroke="#bfbfbf" points="791.5,-160.25 791.5,-179.25 826.5,-179.25 826.5,-160.25 791.5,-160.25"/>
<text text-anchor="middle" x="809" y="-167.25" font-family="Helvetica,sans-Serif" font-size="10.00">Mat</text>
</a>
</g>
</g>
<!-- Node12&#45;&gt;Node6 -->
<g id="edge16" class="edge">
<title>Node12&#45;&gt;Node6</title>
<path fill="none" stroke="#9a32cd" stroke-dasharray="5,2" d="M836.88,-169.78C887.91,-170.42 996.04,-174.79 1022,-199.75 1054.24,-230.74 1008.31,-267.19 1040,-298.75 1104.93,-363.4 1175.89,-272.36 1243,-334.75 1266.84,-356.91 1239.91,-380.95 1261,-405.75 1303.69,-455.93 1344.37,-425.11 1397,-464.75 1399.89,-466.93 1466.29,-548.39 1489.54,-576.97"/>
<polygon fill="#9a32cd" stroke="#9a32cd" points="836.66,-166.28 826.63,-169.69 836.59,-173.28 836.66,-166.28"/>
<text text-anchor="middle" x="1141.5" y="-348.75" font-family="Helvetica,sans-Serif" font-size="10.00"> ksp_A</text>
<text text-anchor="middle" x="1141.5" y="-337.75" font-family="Helvetica,sans-Serif" font-size="10.00">ksp_B</text>
</g>
<!-- Node12&#45;&gt;Node7 -->
<g id="edge11" class="edge">
<title>Node12&#45;&gt;Node7</title>
<path fill="none" stroke="#9a32cd" stroke-dasharray="5,2" d="M836.27,-178C854.38,-183.58 879.05,-190.96 901,-196.75 954.37,-210.83 984.69,-184.06 1022,-224.75 1060.53,-266.77 1001.62,-309.59 1040,-351.75 1052.08,-365.01 1070.05,-371.58 1087.48,-374.65"/>
<polygon fill="#9a32cd" stroke="#9a32cd" points="837.27,-174.65 826.69,-175.03 835.2,-181.34 837.27,-174.65"/>
<text text-anchor="middle" x="961.5" y="-238.75" font-family="Helvetica,sans-Serif" font-size="10.00"> A</text>
<text text-anchor="middle" x="961.5" y="-227.75" font-family="Helvetica,sans-Serif" font-size="10.00">B</text>
</g>
<!-- Node12&#45;&gt;Node17 -->
<g id="edge21" class="edge">
<title>Node12&#45;&gt;Node17</title>
<path fill="none" stroke="#9a32cd" stroke-dasharray="5,2" d="M828.84,-153.03C866.02,-121.31 952.78,-53.35 1040,-28.75 1193.52,14.56 1258.31,13.06 1397,-65.75 1440.01,-90.19 1476.61,-138.44 1490.98,-159.05"/>
<polygon fill="#9a32cd" stroke="#9a32cd" points="826.15,-150.73 820.88,-159.92 830.74,-156.02 826.15,-150.73"/>
<text text-anchor="middle" x="1141.5" y="-42.75" font-family="Helvetica,sans-Serif" font-size="10.00"> snes_A</text>
<text text-anchor="middle" x="1141.5" y="-31.75" font-family="Helvetica,sans-Serif" font-size="10.00">snes_B</text>
</g>
<!-- Node12&#45;&gt;Node20 -->
<g id="edge26" class="edge">
<title>Node12&#45;&gt;Node20</title>
<path fill="none" stroke="#9a32cd" stroke-dasharray="5,2" d="M836.77,-167.99C946.48,-161.09 1357.81,-138.09 1397,-178.75 1438.58,-221.88 1376.15,-402.14 1415,-447.75 1422.63,-456.7 1433.54,-461.91 1444.95,-464.85"/>
<polygon fill="#9a32cd" stroke="#9a32cd" points="836.32,-164.51 826.56,-168.64 836.76,-171.5 836.32,-164.51"/>
<text text-anchor="middle" x="1141.5" y="-171.75" font-family="Helvetica,sans-Serif" font-size="10.00"> ts_A</text>
<text text-anchor="middle" x="1141.5" y="-160.75" font-family="Helvetica,sans-Serif" font-size="10.00">ts_B</text>
</g>
<!-- Node13 -->
<g id="node13" class="node">
<title>Node13</title>
<g id="a_node13"><a xlink:title=" ">
<polygon fill="white" stroke="#bfbfbf" points="772.5,-365.25 772.5,-384.25 845.5,-384.25 845.5,-365.25 772.5,-365.25"/>
<text text-anchor="middle" x="809" y="-372.25" font-family="Helvetica,sans-Serif" font-size="10.00">bitset&lt; 8 &gt;</text>
</a>
</g>
</g>
<!-- Node13&#45;&gt;Node7 -->
<g id="edge12" class="edge">
<title>Node13&#45;&gt;Node7</title>
<path fill="none" stroke="#9a32cd" stroke-dasharray="5,2" d="M855.72,-374.89C916.35,-375.07 1023.14,-375.39 1087.3,-375.59"/>
<polygon fill="#9a32cd" stroke="#9a32cd" points="855.69,-371.39 845.68,-374.86 855.67,-378.39 855.69,-371.39"/>
<text text-anchor="middle" x="961.5" y="-378.75" font-family="Helvetica,sans-Serif" font-size="10.00"> data_ctx</text>
</g>
<!-- Node14 -->
<g id="node14" class="node">
<title>Node14</title>
<g id="a_node14"><a xlink:title=" ">
<polygon fill="white" stroke="#bfbfbf" points="792,-483.25 792,-502.25 826,-502.25 826,-483.25 792,-483.25"/>
<text text-anchor="middle" x="809" y="-490.25" font-family="Helvetica,sans-Serif" font-size="10.00">Vec</text>
</a>
</g>
</g>
<!-- Node14&#45;&gt;Node6 -->
<g id="edge17" class="edge">
<title>Node14&#45;&gt;Node6</title>
<path fill="none" stroke="#9a32cd" stroke-dasharray="5,2" d="M832.21,-508.47C871.72,-535.36 957.83,-589.2 1040,-608.75 1190.08,-644.45 1375.43,-613.41 1456.4,-596.28"/>
<polygon fill="#9a32cd" stroke="#9a32cd" points="833.85,-505.35 823.63,-502.55 829.87,-511.11 833.85,-505.35"/>
<text text-anchor="middle" x="1141.5" y="-628.75" font-family="Helvetica,sans-Serif" font-size="10.00"> ksp_f</text>
</g>
<!-- Node14&#45;&gt;Node7 -->
<g id="edge13" class="edge">
<title>Node14&#45;&gt;Node7</title>
<path fill="none" stroke="#9a32cd" stroke-dasharray="5,2" d="M823.56,-475.23C839.73,-455.74 868.65,-424.99 901,-409.75 917.5,-401.97 1021.93,-389.09 1087.33,-381.61"/>
<polygon fill="#9a32cd" stroke="#9a32cd" points="820.8,-473.08 817.25,-483.06 826.26,-477.47 820.8,-473.08"/>
<text text-anchor="middle" x="961.5" y="-445.75" font-family="Helvetica,sans-Serif" font-size="10.00"> f</text>
<text text-anchor="middle" x="961.5" y="-434.75" font-family="Helvetica,sans-Serif" font-size="10.00">x</text>
<text text-anchor="middle" x="961.5" y="-423.75" font-family="Helvetica,sans-Serif" font-size="10.00">x_t</text>
<text text-anchor="middle" x="961.5" y="-412.75" font-family="Helvetica,sans-Serif" font-size="10.00">x_tt</text>
</g>
<!-- Node14&#45;&gt;Node17 -->
<g id="edge22" class="edge">
<title>Node14&#45;&gt;Node17</title>
<path fill="none" stroke="#9a32cd" stroke-dasharray="5,2" d="M836.27,-493.69C878.52,-494 962.8,-489.58 1022,-453.75 1033.1,-447.03 1028.67,-437.08 1040,-430.75 1179.41,-352.92 1274.88,-493.59 1397,-390.75 1418.95,-372.27 1404.38,-355.4 1415,-328.75 1438.61,-269.52 1476.98,-203.09 1491.59,-178.54"/>
<polygon fill="#9a32cd" stroke="#9a32cd" points="836.3,-490.19 826.24,-493.51 836.18,-497.19 836.3,-490.19"/>
<text text-anchor="middle" x="1141.5" y="-444.75" font-family="Helvetica,sans-Serif" font-size="10.00"> snes_x</text>
<text text-anchor="middle" x="1141.5" y="-433.75" font-family="Helvetica,sans-Serif" font-size="10.00">snes_f</text>
</g>
<!-- Node14&#45;&gt;Node20 -->
<g id="edge30" class="edge">
<title>Node14&#45;&gt;Node20</title>
<path fill="none" stroke="#9a32cd" stroke-dasharray="5,2" d="M836.48,-494.27C919.48,-498.63 1181.77,-509.44 1397,-485.75 1416.24,-483.63 1437.31,-479.87 1455.17,-476.25"/>
<polygon fill="#9a32cd" stroke="#9a32cd" points="836.59,-490.77 826.41,-493.72 836.21,-497.76 836.59,-490.77"/>
<text text-anchor="middle" x="1141.5" y="-536.75" font-family="Helvetica,sans-Serif" font-size="10.00"> ts_u</text>
<text text-anchor="middle" x="1141.5" y="-525.75" font-family="Helvetica,sans-Serif" font-size="10.00">ts_F</text>
<text text-anchor="middle" x="1141.5" y="-514.75" font-family="Helvetica,sans-Serif" font-size="10.00">ts_u_t</text>
<text text-anchor="middle" x="1141.5" y="-503.75" font-family="Helvetica,sans-Serif" font-size="10.00">ts_u_tt</text>
</g>
<!-- Node15 -->
<g id="node15" class="node">
<title>Node15</title>
<g id="a_node15"><a xlink:title=" ">
<polygon fill="white" stroke="#bfbfbf" points="1124,-665.25 1124,-684.25 1159,-684.25 1159,-665.25 1124,-665.25"/>
<text text-anchor="middle" x="1141.5" y="-672.25" font-family="Helvetica,sans-Serif" font-size="10.00">KSP</text>
</a>
</g>
</g>
<!-- Node15&#45;&gt;Node6 -->
<g id="edge14" class="edge">
<title>Node15&#45;&gt;Node6</title>
<path fill="none" stroke="#9a32cd" stroke-dasharray="5,2" d="M1169.25,-668.33C1201.37,-660.64 1252.06,-648.56 1261,-646.75 1321.08,-634.58 1337.76,-639.52 1397,-623.75 1424.49,-616.43 1455.02,-604.64 1475.13,-596.34"/>
<polygon fill="#9a32cd" stroke="#9a32cd" points="1168.06,-665.02 1159.15,-670.75 1169.69,-671.82 1168.06,-665.02"/>
<text text-anchor="middle" x="1329" y="-649.75" font-family="Helvetica,sans-Serif" font-size="10.00"> ksp</text>
</g>
<!-- Node16 -->
<g id="node16" class="node">
<title>Node16</title>
<g id="a_node16"><a xlink:title=" ">
<polygon fill="white" stroke="#bfbfbf" points="1104.5,-580.25 1104.5,-599.25 1178.5,-599.25 1178.5,-580.25 1104.5,-580.25"/>
<text text-anchor="middle" x="1141.5" y="-587.25" font-family="Helvetica,sans-Serif" font-size="10.00">KSPContext</text>
</a>
</g>
</g>
<!-- Node16&#45;&gt;Node6 -->
<g id="edge15" class="edge">
<title>Node16&#45;&gt;Node6</title>
<path fill="none" stroke="#9a32cd" stroke-dasharray="5,2" d="M1188.58,-588.83C1210.51,-588.43 1237.11,-588 1261,-587.75 1322.79,-587.1 1393.67,-586.86 1441.59,-586.79"/>
<polygon fill="#9a32cd" stroke="#9a32cd" points="1188.47,-585.34 1178.54,-589.02 1188.6,-592.33 1188.47,-585.34"/>
<text text-anchor="middle" x="1329" y="-590.75" font-family="Helvetica,sans-Serif" font-size="10.00"> ksp_ctx</text>
</g>
<!-- Node17&#45;&gt;Node5 -->
<g id="edge18" class="edge">
<title>Node17&#45;&gt;Node5</title>
<path fill="none" stroke="midnightblue" d="M1556.63,-180.74C1622.97,-197.98 1729.84,-236.68 1781,-314.75 1813.35,-364.12 1760.75,-534.8 1799,-579.75 1805.76,-587.69 1814.99,-592.82 1824.91,-596.08"/>
<polygon fill="midnightblue" stroke="midnightblue" points="1557.29,-177.3 1546.74,-178.26 1555.58,-184.09 1557.29,-177.3"/>
</g>
<!-- Node18 -->
<g id="node18" class="node">
<title>Node18</title>
<g id="a_node18"><a xlink:title=" ">
<polygon fill="white" stroke="#bfbfbf" points="1120.5,-60.25 1120.5,-79.25 1162.5,-79.25 1162.5,-60.25 1120.5,-60.25"/>
<text text-anchor="middle" x="1141.5" y="-67.25" font-family="Helvetica,sans-Serif" font-size="10.00">SNES</text>
</a>
</g>
</g>
<!-- Node18&#45;&gt;Node17 -->
<g id="edge20" class="edge">
<title>Node18&#45;&gt;Node17</title>
<path fill="none" stroke="#9a32cd" stroke-dasharray="5,2" d="M1173.02,-67.86C1222.01,-65.9 1320.44,-66.49 1397,-95.75 1434.87,-110.22 1471.32,-142.81 1488.01,-159.1"/>
<polygon fill="#9a32cd" stroke="#9a32cd" points="1172.61,-64.37 1162.79,-68.33 1172.94,-71.36 1172.61,-64.37"/>
<text text-anchor="middle" x="1329" y="-98.75" font-family="Helvetica,sans-Serif" font-size="10.00"> snes</text>
</g>
<!-- Node19 -->
<g id="node19" class="node">
<title>Node19</title>
<g id="a_node19"><a xlink:title=" ">
<polygon fill="white" stroke="#bfbfbf" points="1101.5,-98.25 1101.5,-117.25 1181.5,-117.25 1181.5,-98.25 1101.5,-98.25"/>
<text text-anchor="middle" x="1141.5" y="-105.25" font-family="Helvetica,sans-Serif" font-size="10.00">SNESContext</text>
</a>
</g>
</g>
<!-- Node19&#45;&gt;Node17 -->
<g id="edge23" class="edge">
<title>Node19&#45;&gt;Node17</title>
<path fill="none" stroke="#9a32cd" stroke-dasharray="5,2" d="M1192.1,-107.53C1243.89,-108.29 1327.14,-112.35 1397,-128.75 1426.43,-135.66 1458.6,-149.7 1478.41,-159.17"/>
<polygon fill="#9a32cd" stroke="#9a32cd" points="1191.9,-104.02 1181.86,-107.41 1191.82,-111.02 1191.9,-104.02"/>
<text text-anchor="middle" x="1329" y="-131.75" font-family="Helvetica,sans-Serif" font-size="10.00"> snes_ctx</text>
</g>
<!-- Node20&#45;&gt;Node5 -->
<g id="edge24" class="edge">
<title>Node20&#45;&gt;Node5</title>
<path fill="none" stroke="midnightblue" d="M1531.08,-480.25C1585.17,-503.02 1699.37,-549.51 1799,-579.75 1811.76,-583.62 1825.78,-587.17 1838.73,-590.17"/>
<polygon fill="midnightblue" stroke="midnightblue" points="1532.27,-476.95 1521.69,-476.28 1529.54,-483.4 1532.27,-476.95"/>
</g>
<!-- Node21 -->
<g id="node21" class="node">
<title>Node21</title>
<g id="a_node21"><a xlink:title=" ">
<polygon fill="white" stroke="#bfbfbf" points="1109,-270.25 1109,-289.25 1174,-289.25 1174,-270.25 1109,-270.25"/>
<text text-anchor="middle" x="1141.5" y="-277.25" font-family="Helvetica,sans-Serif" font-size="10.00">PetscReal</text>
</a>
</g>
</g>
<!-- Node21&#45;&gt;Node20 -->
<g id="edge27" class="edge">
<title>Node21&#45;&gt;Node20</title>
<path fill="none" stroke="#9a32cd" stroke-dasharray="5,2" d="M1184.38,-288.74C1202.52,-292.89 1223.92,-298.14 1243,-303.75 1312.59,-324.2 1349.42,-303 1397,-357.75 1423.76,-388.54 1386.58,-418.49 1415,-447.75 1422.99,-455.97 1433.77,-460.95 1444.9,-463.89"/>
<polygon fill="#9a32cd" stroke="#9a32cd" points="1184.93,-285.27 1174.4,-286.49 1183.39,-292.1 1184.93,-285.27"/>
<text text-anchor="middle" x="1329" y="-393.75" font-family="Helvetica,sans-Serif" font-size="10.00"> ts_a</text>
<text text-anchor="middle" x="1329" y="-382.75" font-family="Helvetica,sans-Serif" font-size="10.00">ts_t</text>
<text text-anchor="middle" x="1329" y="-371.75" font-family="Helvetica,sans-Serif" font-size="10.00">ts_dt</text>
<text text-anchor="middle" x="1329" y="-360.75" font-family="Helvetica,sans-Serif" font-size="10.00">ts_aa</text>
</g>
<!-- Node22 -->
<g id="node22" class="node">
<title>Node22</title>
<g id="a_node22"><a xlink:title=" ">
<polygon fill="white" stroke="#bfbfbf" points="1108,-232.25 1108,-251.25 1175,-251.25 1175,-232.25 1108,-232.25"/>
<text text-anchor="middle" x="1141.5" y="-239.25" font-family="Helvetica,sans-Serif" font-size="10.00">TSContext</text>
</a>
</g>
</g>
<!-- Node22&#45;&gt;Node20 -->
<g id="edge28" class="edge">
<title>Node22&#45;&gt;Node20</title>
<path fill="none" stroke="#9a32cd" stroke-dasharray="5,2" d="M1185.41,-236.82C1242.82,-232.86 1343.56,-235.67 1397,-294.75 1442.93,-345.53 1369.3,-396.76 1415,-447.75 1422.75,-456.39 1433.57,-461.51 1444.83,-464.46"/>
<polygon fill="#9a32cd" stroke="#9a32cd" points="1184.91,-233.34 1175.22,-237.62 1185.47,-240.32 1184.91,-233.34"/>
<text text-anchor="middle" x="1329" y="-297.75" font-family="Helvetica,sans-Serif" font-size="10.00"> ts_ctx</text>
</g>
<!-- Node23 -->
<g id="node23" class="node">
<title>Node23</title>
<g id="a_node23"><a xlink:title=" ">
<polygon fill="white" stroke="#bfbfbf" points="1113.5,-194.25 1113.5,-213.25 1169.5,-213.25 1169.5,-194.25 1113.5,-194.25"/>
<text text-anchor="middle" x="1141.5" y="-201.25" font-family="Helvetica,sans-Serif" font-size="10.00">PetscInt</text>
</a>
</g>
</g>
<!-- Node23&#45;&gt;Node20 -->
<g id="edge29" class="edge">
<title>Node23&#45;&gt;Node20</title>
<path fill="none" stroke="#9a32cd" stroke-dasharray="5,2" d="M1179.54,-193.54C1235.18,-180.72 1339.86,-166.71 1397,-223.75 1432.34,-259.03 1382.36,-409.95 1415,-447.75 1422.59,-456.54 1433.35,-461.71 1444.6,-464.66"/>
<polygon fill="#9a32cd" stroke="#9a32cd" points="1178.65,-190.16 1169.75,-195.91 1180.29,-196.96 1178.65,-190.16"/>
<text text-anchor="middle" x="1329" y="-226.75" font-family="Helvetica,sans-Serif" font-size="10.00"> ts_step</text>
</g>
<!-- Node24 -->
<g id="node24" class="node">
<title>Node24</title>
<g id="a_node24"><a xlink:title=" ">
<polygon fill="white" stroke="#bfbfbf" points="1127,-462.25 1127,-481.25 1156,-481.25 1156,-462.25 1127,-462.25"/>
<text text-anchor="middle" x="1141.5" y="-469.25" font-family="Helvetica,sans-Serif" font-size="10.00">TS</text>
</a>
</g>
</g>
<!-- Node24&#45;&gt;Node20 -->
<g id="edge31" class="edge">
<title>Node24&#45;&gt;Node20</title>
<path fill="none" stroke="#9a32cd" stroke-dasharray="5,2" d="M1166.58,-471.41C1223.4,-470.61 1366.9,-468.59 1444.96,-467.49"/>
<polygon fill="#9a32cd" stroke="#9a32cd" points="1166.37,-467.91 1156.42,-471.55 1166.46,-474.91 1166.37,-467.91"/>
<text text-anchor="middle" x="1329" y="-473.75" font-family="Helvetica,sans-Serif" font-size="10.00"> ts</text>
</g>
<!-- Node25 -->
<g id="node25" class="node">
<title>Node25</title>
<g id="a_node25"><a xlink:title=" ">
<polygon fill="white" stroke="#bfbfbf" points="1454,-419.25 1454,-438.25 1543,-438.25 1543,-419.25 1454,-419.25"/>
<text text-anchor="middle" x="1498.5" y="-426.25" font-family="Helvetica,sans-Serif" font-size="10.00">pair&lt; int, int &gt;</text>
</a>
</g>
</g>
<!-- Node25&#45;&gt;Node5 -->
<g id="edge33" class="edge">
<title>Node25&#45;&gt;Node5</title>
<path fill="none" stroke="#9a32cd" stroke-dasharray="5,2" d="M1553.24,-425.65C1616.77,-425.11 1721.38,-434.58 1781,-495.75 1807.65,-523.09 1772.24,-552.52 1799,-579.75 1806.09,-586.96 1815.24,-591.79 1824.92,-594.97"/>
<polygon fill="#9a32cd" stroke="#9a32cd" points="1552.97,-422.15 1543.03,-425.82 1553.09,-429.15 1552.97,-422.15"/>
<text text-anchor="middle" x="1690.5" y="-498.75" font-family="Helvetica,sans-Serif" font-size="10.00"> loHiFERank</text>
</g>
<!-- Node26 -->
<g id="node26" class="node">
<title>Node26</title>
<g id="a_node26"><a xlink:title=" ">
<polygon fill="white" stroke="#bfbfbf" points="1428.5,-381.25 1428.5,-400.25 1568.5,-400.25 1568.5,-381.25 1428.5,-381.25"/>
<text text-anchor="middle" x="1498.5" y="-388.25" font-family="Helvetica,sans-Serif" font-size="10.00">weak_ptr&lt; CacheTuple &gt;</text>
</a>
</g>
</g>
<!-- Node26&#45;&gt;Node5 -->
<g id="edge34" class="edge">
<title>Node26&#45;&gt;Node5</title>
<path fill="none" stroke="#9a32cd" stroke-dasharray="5,2" d="M1578.71,-386.12C1651.81,-383.7 1753.12,-385.68 1781,-412.75 1807.78,-438.75 1774.25,-551.81 1799,-579.75 1805.81,-587.44 1814.95,-592.47 1824.72,-595.71"/>
<polygon fill="#9a32cd" stroke="#9a32cd" points="1578.46,-382.62 1568.59,-386.48 1578.71,-389.62 1578.46,-382.62"/>
<text text-anchor="middle" x="1690.5" y="-415.75" font-family="Helvetica,sans-Serif" font-size="10.00"> cacheWeakPtr</text>
</g>
<!-- Node27 -->
<g id="node27" class="node">
<title>Node27</title>
<g id="a_node27"><a xlink:title=" ">
<polygon fill="white" stroke="#bfbfbf" points="1442.5,-338.25 1442.5,-357.25 1554.5,-357.25 1554.5,-338.25 1442.5,-338.25"/>
<text text-anchor="middle" x="1498.5" y="-345.25" font-family="Helvetica,sans-Serif" font-size="10.00">unique_ptr&lt; bool &gt;</text>
</a>
</g>
</g>
<!-- Node27&#45;&gt;Node5 -->
<g id="edge35" class="edge">
<title>Node27&#45;&gt;Node5</title>
<path fill="none" stroke="#9a32cd" stroke-dasharray="5,2" d="M1538.05,-335.35C1598.66,-318.53 1716.01,-297.24 1781,-359.75 1816.36,-393.75 1766.95,-542.61 1799,-579.75 1805.81,-587.64 1815.07,-592.75 1825,-596"/>
<polygon fill="#9a32cd" stroke="#9a32cd" points="1536.76,-332.08 1528.12,-338.2 1538.7,-338.8 1536.76,-332.08"/>
<text text-anchor="middle" x="1690.5" y="-373.75" font-family="Helvetica,sans-Serif" font-size="10.00"> matAssembleSwitch</text>
<text text-anchor="middle" x="1690.5" y="-362.75" font-family="Helvetica,sans-Serif" font-size="10.00">vecAssembleSwitch</text>
</g>
<!-- Node28 -->
<g id="node28" class="node">
<title>Node28</title>
<g id="a_node28"><a xlink:title=" ">
<polygon fill="white" stroke="#bfbfbf" points="1127,-709.25 1127,-728.25 1156,-728.25 1156,-709.25 1127,-709.25"/>
<text text-anchor="middle" x="1141.5" y="-716.25" font-family="Helvetica,sans-Serif" font-size="10.00">int</text>
</a>
</g>
</g>
<!-- Node28&#45;&gt;Node1 -->
<g id="edge79" class="edge">
<title>Node28&#45;&gt;Node1</title>
<path fill="none" stroke="#9a32cd" stroke-dasharray="5,2" d="M1166.23,-717.45C1190.15,-716.22 1228.12,-714.44 1261,-713.75 1411.64,-710.57 1449.33,-715.63 1600,-716.75 1680.44,-717.34 1701.66,-730.02 1781,-716.75 1953.45,-687.91 1980.55,-617.59 2153,-588.75 2320.45,-560.74 2365.9,-574.55 2535,-589.75 2717.21,-606.13 2927.75,-663.89 3021.31,-691.64"/>
<polygon fill="#9a32cd" stroke="#9a32cd" points="1165.8,-713.97 1156,-717.99 1166.17,-720.96 1165.8,-713.97"/>
<text text-anchor="middle" x="2254" y="-591.75" font-family="Helvetica,sans-Serif" font-size="10.00"> addToRule</text>
</g>
<!-- Node28&#45;&gt;Node2 -->
<g id="edge76" class="edge">
<title>Node28&#45;&gt;Node2</title>
<path fill="none" stroke="#9a32cd" stroke-dasharray="5,2" d="M1166.44,-717.75C1222.03,-715.86 1358.08,-713.67 1397,-735.75 1409.22,-742.68 1405.6,-751.3 1415,-761.75 1490.34,-845.51 1695.92,-1047.29 1799,-1092.75 2098.6,-1224.86 2207.97,-1142.06 2535,-1125.75 2633.65,-1120.83 2746.94,-1108.37 2819.66,-1099.49"/>
<polygon fill="#9a32cd" stroke="#9a32cd" points="1166.02,-714.27 1156.15,-718.14 1166.27,-721.26 1166.02,-714.27"/>
<text text-anchor="middle" x="2063" y="-1168.75" font-family="Helvetica,sans-Serif" font-size="10.00"> num_nodes</text>
</g>
<!-- Node28&#45;&gt;Node5 -->
<g id="edge36" class="edge">
<title>Node28&#45;&gt;Node5</title>
<path fill="none" stroke="#9a32cd" stroke-dasharray="5,2" d="M1166.1,-714.1C1186.68,-709.75 1217.2,-702.61 1243,-693.75 1251.28,-690.9 1252.63,-688.31 1261,-685.75 1297.58,-674.56 1562.09,-630.82 1600,-625.75 1677.32,-615.4 1766.99,-607.96 1824.79,-603.76"/>
<polygon fill="#9a32cd" stroke="#9a32cd" points="1165.14,-710.72 1156.05,-716.16 1166.55,-717.58 1165.14,-710.72"/>
<text text-anchor="middle" x="1498.5" y="-691.75" font-family="Helvetica,sans-Serif" font-size="10.00"> sIze</text>
<text text-anchor="middle" x="1498.5" y="-680.75" font-family="Helvetica,sans-Serif" font-size="10.00">loopSize</text>
<text text-anchor="middle" x="1498.5" y="-669.75" font-family="Helvetica,sans-Serif" font-size="10.00">nInTheLoop</text>
<text text-anchor="middle" x="1498.5" y="-658.75" font-family="Helvetica,sans-Serif" font-size="10.00">rAnk</text>
</g>
<!-- Node30 -->
<g id="node30" class="node">
<title>Node30</title>
<g id="a_node30"><a xlink:href="structMoFEM_1_1Problem.html" target="_top" xlink:title="keeps basic data about problem">
<polygon fill="white" stroke="black" points="1449,-958.25 1449,-977.25 1548,-977.25 1548,-958.25 1449,-958.25"/>
<text text-anchor="middle" x="1498.5" y="-965.25" font-family="Helvetica,sans-Serif" font-size="10.00">MoFEM::Problem</text>
</a>
</g>
</g>
<!-- Node28&#45;&gt;Node30 -->
<g id="edge48" class="edge">
<title>Node28&#45;&gt;Node30</title>
<path fill="none" stroke="#9a32cd" stroke-dasharray="5,2" d="M1166.32,-721.44C1228.02,-728.51 1388.81,-747.63 1397,-755.75 1434.07,-792.46 1393.16,-824.37 1415,-871.75 1432.02,-908.67 1467.52,-942.36 1485.91,-958.21"/>
<polygon fill="#9a32cd" stroke="#9a32cd" points="1166.35,-717.92 1156.01,-720.26 1165.55,-724.87 1166.35,-717.92"/>
<text text-anchor="middle" x="1329" y="-824.75" font-family="Helvetica,sans-Serif" font-size="10.00"> tagNameSize</text>
<text text-anchor="middle" x="1329" y="-813.75" font-family="Helvetica,sans-Serif" font-size="10.00">nbDofsRow</text>
<text text-anchor="middle" x="1329" y="-802.75" font-family="Helvetica,sans-Serif" font-size="10.00">nbLocDofsCol</text>
<text text-anchor="middle" x="1329" y="-791.75" font-family="Helvetica,sans-Serif" font-size="10.00">nbDofsCol</text>
<text text-anchor="middle" x="1329" y="-780.75" font-family="Helvetica,sans-Serif" font-size="10.00">nbGhostDofsRow</text>
<text text-anchor="middle" x="1329" y="-769.75" font-family="Helvetica,sans-Serif" font-size="10.00">nbGhostDofsCol</text>
<text text-anchor="middle" x="1329" y="-758.75" font-family="Helvetica,sans-Serif" font-size="10.00">nbLocDofsRow</text>
</g>
<!-- Node29 -->
<g id="node29" class="node">
<title>Node29</title>
<g id="a_node29"><a xlink:title=" ">
<polygon fill="white" stroke="#bfbfbf" points="1415,-996.25 1415,-1015.25 1582,-1015.25 1582,-996.25 1415,-996.25"/>
<text text-anchor="middle" x="1498.5" y="-1003.25" font-family="Helvetica,sans-Serif" font-size="10.00">function&lt; MoFEMErrorCode()&gt;</text>
</a>
</g>
</g>
<!-- Node29&#45;&gt;Node5 -->
<g id="edge37" class="edge">
<title>Node29&#45;&gt;Node5</title>
<path fill="none" stroke="#9a32cd" stroke-dasharray="5,2" d="M1579.23,-989.72C1580.19,-988.78 1581.12,-987.79 1582,-986.75 1626.1,-934.55 1553.34,-729.68 1600,-679.75 1627.68,-650.12 1742.44,-669.27 1781,-656.75 1815.66,-645.5 1852.11,-622.55 1871.3,-609.47"/>
<polygon fill="#9a32cd" stroke="#9a32cd" points="1576.85,-987.14 1571.12,-996.05 1581.15,-992.66 1576.85,-987.14"/>
<text text-anchor="middle" x="1690.5" y="-704.75" font-family="Helvetica,sans-Serif" font-size="10.00"> preProcessHook</text>
<text text-anchor="middle" x="1690.5" y="-693.75" font-family="Helvetica,sans-Serif" font-size="10.00">operatorHook</text>
<text text-anchor="middle" x="1690.5" y="-682.75" font-family="Helvetica,sans-Serif" font-size="10.00">postProcessHook</text>
</g>
<!-- Node30&#45;&gt;Node5 -->
<g id="edge38" class="edge">
<title>Node30&#45;&gt;Node5</title>
<path fill="none" stroke="#9a32cd" stroke-dasharray="5,2" d="M1505.43,-948.51C1526.77,-879.3 1598.47,-647.03 1600,-645.75 1631.08,-619.71 1741.05,-629.69 1781,-622.75 1802.5,-619.01 1826.27,-613.83 1845.66,-609.34"/>
<polygon fill="#9a32cd" stroke="#9a32cd" points="1502.06,-947.57 1502.46,-958.15 1508.75,-949.63 1502.06,-947.57"/>
<text text-anchor="middle" x="1690.5" y="-648.75" font-family="Helvetica,sans-Serif" font-size="10.00"> problemPtr</text>
</g>
<!-- Node31 -->
<g id="node31" class="node">
<title>Node31</title>
<g id="a_node31"><a xlink:title=" ">
<polygon fill="white" stroke="#bfbfbf" points="1058,-851.75 1058,-881.75 1225,-881.75 1225,-851.75 1058,-851.75"/>
<text text-anchor="start" x="1066" y="-869.75" font-family="Helvetica,sans-Serif" font-size="10.00">shared_ptr&lt; NumeredEntFinite</text>
<text text-anchor="middle" x="1141.5" y="-858.75" font-family="Helvetica,sans-Serif" font-size="10.00">Element_multiIndex &gt;</text>
</a>
</g>
</g>
<!-- Node31&#45;&gt;Node30 -->
<g id="edge39" class="edge">
<title>Node31&#45;&gt;Node30</title>
<path fill="none" stroke="#9a32cd" stroke-dasharray="5,2" d="M1235.3,-869.65C1284.62,-873.61 1345.53,-882.44 1397,-901.75 1432.96,-915.24 1469.15,-943.43 1486.66,-958.22"/>
<polygon fill="#9a32cd" stroke="#9a32cd" points="1235.51,-866.15 1225.28,-868.89 1234.99,-873.13 1235.51,-866.15"/>
<text text-anchor="middle" x="1329" y="-904.75" font-family="Helvetica,sans-Serif" font-size="10.00"> numeredFiniteElementsPtr</text>
</g>
<!-- Node32 -->
<g id="node32" class="node">
<title>Node32</title>
<g id="a_node32"><a xlink:title=" ">
<polygon fill="white" stroke="#bfbfbf" points="1112,-813.25 1112,-832.25 1171,-832.25 1171,-813.25 1112,-813.25"/>
<text text-anchor="middle" x="1141.5" y="-820.25" font-family="Helvetica,sans-Serif" font-size="10.00">BitFEId *</text>
</a>
</g>
</g>
<!-- Node32&#45;&gt;Node30 -->
<g id="edge40" class="edge">
<title>Node32&#45;&gt;Node30</title>
<path fill="none" stroke="#9a32cd" stroke-dasharray="5,2" d="M1181.45,-826.63C1248.01,-833.49 1378.31,-847.93 1397,-857.75 1408.85,-863.97 1467.25,-932.05 1489.17,-957.88"/>
<polygon fill="#9a32cd" stroke="#9a32cd" points="1181.64,-823.13 1171.34,-825.6 1180.93,-830.1 1181.64,-823.13"/>
<text text-anchor="middle" x="1329" y="-860.75" font-family="Helvetica,sans-Serif" font-size="10.00"> tagBitFEId</text>
</g>
<!-- Node33 -->
<g id="node33" class="node">
<title>Node33</title>
<g id="a_node33"><a xlink:href="classEntityHandle.html" target="_top" xlink:title=" ">
<polygon fill="white" stroke="black" points="1101.5,-1281.25 1101.5,-1300.25 1181.5,-1300.25 1181.5,-1281.25 1101.5,-1281.25"/>
<text text-anchor="middle" x="1141.5" y="-1288.25" font-family="Helvetica,sans-Serif" font-size="10.00">EntityHandle</text>
</a>
</g>
</g>
<!-- Node33&#45;&gt;Node2 -->
<g id="edge74" class="edge">
<title>Node33&#45;&gt;Node2</title>
<path fill="none" stroke="#9a32cd" stroke-dasharray="5,2" d="M1191.7,-1289.16C1260.23,-1287.1 1388.29,-1283.75 1497.5,-1283.75 1497.5,-1283.75 1497.5,-1283.75 2639,-1283.75 2757.22,-1283.75 2855.2,-1150.7 2885.39,-1104.97"/>
<polygon fill="#9a32cd" stroke="#9a32cd" points="1191.52,-1285.67 1181.63,-1289.47 1191.73,-1292.67 1191.52,-1285.67"/>
<text text-anchor="middle" x="2063" y="-1286.75" font-family="Helvetica,sans-Serif" font-size="10.00"> conn</text>
</g>
<!-- Node33&#45;&gt;Node30 -->
<g id="edge41" class="edge">
<title>Node33&#45;&gt;Node30</title>
<path fill="none" stroke="#9a32cd" stroke-dasharray="5,2" d="M1187.94,-1278.49C1257.5,-1259.31 1383.74,-1222.65 1397,-1205.75 1427.14,-1167.33 1383.05,-1023.68 1415,-986.75 1423.56,-976.86 1436.14,-971.54 1448.91,-968.83"/>
<polygon fill="#9a32cd" stroke="#9a32cd" points="1186.83,-1275.17 1178.11,-1281.19 1188.68,-1281.92 1186.83,-1275.17"/>
<text text-anchor="middle" x="1329" y="-1259.75" font-family="Helvetica,sans-Serif" font-size="10.00"> meshset</text>
</g>
<!-- Node34 -->
<g id="node34" class="node">
<title>Node34</title>
<g id="a_node34"><a xlink:title=" ">
<polygon fill="white" stroke="#bfbfbf" points="1067,-1153.75 1067,-1183.75 1216,-1183.75 1216,-1153.75 1067,-1153.75"/>
<text text-anchor="start" x="1075" y="-1171.75" font-family="Helvetica,sans-Serif" font-size="10.00">shared_ptr&lt; MoFEM::</text>
<text text-anchor="middle" x="1141.5" y="-1160.75" font-family="Helvetica,sans-Serif" font-size="10.00">ComposedProblemsData &gt;</text>
</a>
</g>
</g>
<!-- Node34&#45;&gt;Node30 -->
<g id="edge42" class="edge">
<title>Node34&#45;&gt;Node30</title>
<path fill="none" stroke="#9a32cd" stroke-dasharray="5,2" d="M1226.3,-1161.02C1298.09,-1154.02 1390.88,-1143.88 1397,-1137.75 1444.73,-1089.9 1369.85,-1037.04 1415,-986.75 1423.64,-977.12 1436.09,-971.87 1448.71,-969.12"/>
<polygon fill="#9a32cd" stroke="#9a32cd" points="1225.94,-1157.54 1216.32,-1161.99 1226.61,-1164.51 1225.94,-1157.54"/>
<text text-anchor="middle" x="1329" y="-1159.75" font-family="Helvetica,sans-Serif" font-size="10.00"> composedProblemsData</text>
</g>
<!-- Node35 -->
<g id="node35" class="node">
<title>Node35</title>
<g id="a_node35"><a xlink:title=" ">
<polygon fill="white" stroke="#bfbfbf" points="1101,-1115.25 1101,-1134.25 1182,-1134.25 1182,-1115.25 1101,-1115.25"/>
<text text-anchor="middle" x="1141.5" y="-1122.25" font-family="Helvetica,sans-Serif" font-size="10.00">BitRefLevel *</text>
</a>
</g>
</g>
<!-- Node35&#45;&gt;Node30 -->
<g id="edge43" class="edge">
<title>Node35&#45;&gt;Node30</title>
<path fill="none" stroke="#9a32cd" stroke-dasharray="5,2" d="M1192.4,-1120.01C1264.4,-1112.95 1389.69,-1099.75 1397,-1092.75 1431.51,-1059.69 1382.21,-1021.51 1415,-986.75 1423.78,-977.45 1436.11,-972.27 1448.58,-969.5"/>
<polygon fill="#9a32cd" stroke="#9a32cd" points="1191.79,-1116.55 1182.18,-1121 1192.47,-1123.52 1191.79,-1116.55"/>
<text text-anchor="middle" x="1329" y="-1125.75" font-family="Helvetica,sans-Serif" font-size="10.00"> tagBitRefLevelMask</text>
<text text-anchor="middle" x="1329" y="-1114.75" font-family="Helvetica,sans-Serif" font-size="10.00">tagBitRefLevel</text>
</g>
<!-- Node36 -->
<g id="node36" class="node">
<title>Node36</title>
<g id="a_node36"><a xlink:title=" ">
<polygon fill="white" stroke="#bfbfbf" points="1056.5,-1065.75 1056.5,-1095.75 1226.5,-1095.75 1226.5,-1065.75 1056.5,-1065.75"/>
<text text-anchor="start" x="1064.5" y="-1083.75" font-family="Helvetica,sans-Serif" font-size="10.00">shared_ptr&lt; NumeredDofEntity</text>
<text text-anchor="middle" x="1141.5" y="-1072.75" font-family="Helvetica,sans-Serif" font-size="10.00">_multiIndex &gt;</text>
</a>
</g>
</g>
<!-- Node36&#45;&gt;Node30 -->
<g id="edge44" class="edge">
<title>Node36&#45;&gt;Node30</title>
<path fill="none" stroke="#9a32cd" stroke-dasharray="5,2" d="M1236.87,-1072.3C1304.09,-1065.46 1384.64,-1055.27 1397,-1044.75 1417.55,-1027.25 1395.22,-1005.11 1415,-986.75 1424.26,-978.15 1436.62,-973.18 1448.93,-970.38"/>
<polygon fill="#9a32cd" stroke="#9a32cd" points="1236.23,-1068.85 1226.63,-1073.33 1236.93,-1075.81 1236.23,-1068.85"/>
<text text-anchor="middle" x="1329" y="-1082.75" font-family="Helvetica,sans-Serif" font-size="10.00"> numeredRowDofsPtr</text>
<text text-anchor="middle" x="1329" y="-1071.75" font-family="Helvetica,sans-Serif" font-size="10.00">numeredColDofsPtr</text>
</g>
<!-- Node37 -->
<g id="node37" class="node">
<title>Node37</title>
<g id="a_node37"><a xlink:title=" ">
<polygon fill="white" stroke="#bfbfbf" points="1122.5,-1027.25 1122.5,-1046.25 1160.5,-1046.25 1160.5,-1027.25 1122.5,-1027.25"/>
<text text-anchor="middle" x="1141.5" y="-1034.25" font-family="Helvetica,sans-Serif" font-size="10.00">char</text>
</a>
</g>
</g>
<!-- Node37&#45;&gt;Node30 -->
<g id="edge45" class="edge">
<title>Node37&#45;&gt;Node30</title>
<path fill="none" stroke="#9a32cd" stroke-dasharray="5,2" d="M1170.75,-1035.7C1228.49,-1033.19 1357.88,-1025.46 1397,-1005.75 1407.39,-1000.51 1404.9,-992.52 1415,-986.75 1425.21,-980.91 1437.09,-976.87 1448.61,-974.07"/>
<polygon fill="#9a32cd" stroke="#9a32cd" points="1170.37,-1032.22 1160.52,-1036.13 1170.66,-1039.21 1170.37,-1032.22"/>
<text text-anchor="middle" x="1329" y="-1032.75" font-family="Helvetica,sans-Serif" font-size="10.00"> tagName</text>
</g>
<!-- Node38 -->
<g id="node38" class="node">
<title>Node38</title>
<g id="a_node38"><a xlink:title=" ">
<polygon fill="white" stroke="#bfbfbf" points="1072.5,-989.25 1072.5,-1008.25 1210.5,-1008.25 1210.5,-989.25 1072.5,-989.25"/>
<text text-anchor="middle" x="1141.5" y="-996.25" font-family="Helvetica,sans-Serif" font-size="10.00">vector&lt; BlockFieldPair &gt;</text>
</a>
</g>
</g>
<!-- Node38&#45;&gt;Node30 -->
<g id="edge46" class="edge">
<title>Node38&#45;&gt;Node30</title>
<path fill="none" stroke="#9a32cd" stroke-dasharray="5,2" d="M1220.79,-993.8C1271.16,-990.4 1338,-985.47 1397,-979.75 1413.97,-978.1 1432.5,-975.98 1448.99,-973.98"/>
<polygon fill="#9a32cd" stroke="#9a32cd" points="1220.37,-990.32 1210.62,-994.49 1220.83,-997.31 1220.37,-990.32"/>
<text text-anchor="middle" x="1329" y="-993.75" font-family="Helvetica,sans-Serif" font-size="10.00"> emptyFieldBlocks</text>
</g>
<!-- Node39 -->
<g id="node39" class="node">
<title>Node39</title>
<g id="a_node39"><a xlink:title=" ">
<polygon fill="white" stroke="#bfbfbf" points="1063.5,-939.75 1063.5,-969.75 1219.5,-969.75 1219.5,-939.75 1063.5,-939.75"/>
<text text-anchor="start" x="1071.5" y="-957.75" font-family="Helvetica,sans-Serif" font-size="10.00">shared_ptr&lt; MoFEM::</text>
<text text-anchor="middle" x="1141.5" y="-946.75" font-family="Helvetica,sans-Serif" font-size="10.00">Problem::SubProblemData &gt;</text>
</a>
</g>
</g>
<!-- Node39&#45;&gt;Node30 -->
<g id="edge47" class="edge">
<title>Node39&#45;&gt;Node30</title>
<path fill="none" stroke="#9a32cd" stroke-dasharray="5,2" d="M1229.53,-957.94C1298.61,-960.46 1392.64,-963.91 1448.98,-965.97"/>
<polygon fill="#9a32cd" stroke="#9a32cd" points="1229.65,-954.44 1219.53,-957.57 1229.39,-961.43 1229.65,-954.44"/>
<text text-anchor="middle" x="1329" y="-967.75" font-family="Helvetica,sans-Serif" font-size="10.00"> subProblemData</text>
</g>
<!-- Node40 -->
<g id="node40" class="node">
<title>Node40</title>
<g id="a_node40"><a xlink:title=" ">
<polygon fill="white" stroke="#bfbfbf" points="1040,-901.25 1040,-920.25 1243,-920.25 1243,-901.25 1040,-901.25"/>
<text text-anchor="middle" x="1141.5" y="-908.25" font-family="Helvetica,sans-Serif" font-size="10.00">shared_ptr&lt; SequenceDofContainer &gt;</text>
</a>
</g>
</g>
<!-- Node40&#45;&gt;Node30 -->
<g id="edge49" class="edge">
<title>Node40&#45;&gt;Node30</title>
<path fill="none" stroke="#9a32cd" stroke-dasharray="5,2" d="M1253.11,-915.05C1298.11,-918.27 1350.39,-923.9 1397,-933.75 1424.21,-939.5 1454.29,-950.29 1474.38,-958.18"/>
<polygon fill="#9a32cd" stroke="#9a32cd" points="1253.24,-911.55 1243.03,-914.36 1252.77,-918.53 1253.24,-911.55"/>
<text text-anchor="middle" x="1329" y="-947.75" font-family="Helvetica,sans-Serif" font-size="10.00"> sequenceRowDofContainer</text>
<text text-anchor="middle" x="1329" y="-936.75" font-family="Helvetica,sans-Serif" font-size="10.00">sequenceColDofContainer</text>
</g>
<!-- Node41 -->
<g id="node41" class="node">
<title>Node41</title>
<g id="a_node41"><a xlink:title=" ">
<polygon fill="white" stroke="#bfbfbf" points="1097.5,-1203.25 1097.5,-1222.25 1185.5,-1222.25 1185.5,-1203.25 1097.5,-1203.25"/>
<text text-anchor="middle" x="1141.5" y="-1210.25" font-family="Helvetica,sans-Serif" font-size="10.00">BitProblemId *</text>
</a>
</g>
</g>
<!-- Node41&#45;&gt;Node30 -->
<g id="edge50" class="edge">
<title>Node41&#45;&gt;Node30</title>
<path fill="none" stroke="#9a32cd" stroke-dasharray="5,2" d="M1195.68,-1204.59C1269.78,-1193.17 1395.27,-1173.59 1397,-1171.75 1425.28,-1141.64 1387.74,-1017.78 1415,-986.75 1423.54,-977.03 1435.95,-971.75 1448.57,-969"/>
<polygon fill="#9a32cd" stroke="#9a32cd" points="1194.94,-1201.16 1185.59,-1206.14 1196,-1208.08 1194.94,-1201.16"/>
<text text-anchor="middle" x="1329" y="-1196.75" font-family="Helvetica,sans-Serif" font-size="10.00"> tagId</text>
</g>
<!-- Node42 -->
<g id="node42" class="node">
<title>Node42</title>
<g id="a_node42"><a xlink:title=" ">
<polygon fill="white" stroke="#bfbfbf" points="1805,-900.75 1805,-930.75 1967,-930.75 1967,-900.75 1805,-900.75"/>
<text text-anchor="start" x="1813" y="-918.75" font-family="Helvetica,sans-Serif" font-size="10.00">shared_ptr&lt; const MoFEM</text>
<text text-anchor="middle" x="1886" y="-907.75" font-family="Helvetica,sans-Serif" font-size="10.00">::NumeredEntFiniteElement &gt;</text>
</a>
</g>
</g>
<!-- Node42&#45;&gt;Node4 -->
<g id="edge51" class="edge">
<title>Node42&#45;&gt;Node4</title>
<path fill="none" stroke="#9a32cd" stroke-dasharray="5,2" d="M1977.47,-909.57C2047.52,-904.78 2142.12,-898.32 2200.27,-894.35"/>
<polygon fill="#9a32cd" stroke="#9a32cd" points="1977.06,-906.09 1967.32,-910.26 1977.54,-913.07 1977.06,-906.09"/>
<text text-anchor="middle" x="2063" y="-911.75" font-family="Helvetica,sans-Serif" font-size="10.00"> numeredEntFiniteElementPtr</text>
</g>
<!-- Node43 -->
<g id="node43" class="node">
<title>Node43</title>
<g id="a_node43"><a xlink:title=" ">
<polygon fill="white" stroke="#bfbfbf" points="1864,-1064.25 1864,-1083.25 1908,-1083.25 1908,-1064.25 1864,-1064.25"/>
<text text-anchor="middle" x="1886" y="-1071.25" font-family="Helvetica,sans-Serif" font-size="10.00">string</text>
</a>
</g>
</g>
<!-- Node43&#45;&gt;Node2 -->
<g id="edge77" class="edge">
<title>Node43&#45;&gt;Node2</title>
<path fill="none" stroke="#9a32cd" stroke-dasharray="5,2" d="M1918.32,-1079.04C2032.44,-1098.23 2425.98,-1163.59 2553,-1173.75 2636.29,-1180.41 2657.44,-1175.3 2741,-1175.75 2768.11,-1175.89 2776.75,-1185.63 2802,-1175.75 2838.45,-1161.48 2869.17,-1125.47 2884.51,-1104.86"/>
<polygon fill="#9a32cd" stroke="#9a32cd" points="1918.61,-1075.54 1908.16,-1077.33 1917.44,-1082.44 1918.61,-1075.54"/>
<text text-anchor="middle" x="2454" y="-1174.75" font-family="Helvetica,sans-Serif" font-size="10.00"> meshPositionsFieldName</text>
</g>
<!-- Node43&#45;&gt;Node4 -->
<g id="edge52" class="edge">
<title>Node43&#45;&gt;Node4</title>
<path fill="none" stroke="#9a32cd" stroke-dasharray="5,2" d="M1918.4,-1074.25C1978.2,-1074.49 2105.13,-1071.41 2135,-1041.75 2177.02,-1000.03 2112.24,-952.69 2153,-909.75 2165.17,-896.93 2183.09,-891.23 2200.41,-889.04"/>
<polygon fill="#9a32cd" stroke="#9a32cd" points="1918.08,-1070.74 1908.05,-1074.17 1918.03,-1077.74 1918.08,-1070.74"/>
<text text-anchor="middle" x="2063" y="-1074.75" font-family="Helvetica,sans-Serif" font-size="10.00"> feName</text>
</g>
<!-- Node44 -->
<g id="node44" class="node">
<title>Node44</title>
<g id="a_node44"><a xlink:title=" ">
<polygon fill="white" stroke="#bfbfbf" points="1804.5,-851.75 1804.5,-881.75 1967.5,-881.75 1967.5,-851.75 1804.5,-851.75"/>
<text text-anchor="start" x="1812.5" y="-869.75" font-family="Helvetica,sans-Serif" font-size="10.00">function&lt; bool(MoFEM</text>
<text text-anchor="middle" x="1886" y="-858.75" font-family="Helvetica,sans-Serif" font-size="10.00">::FEMethod *fe_method_ptr)&gt;</text>
</a>
</g>
</g>
<!-- Node44&#45;&gt;Node4 -->
<g id="edge53" class="edge">
<title>Node44&#45;&gt;Node4</title>
<path fill="none" stroke="#9a32cd" stroke-dasharray="5,2" d="M1977.84,-872.54C2024.77,-875.55 2082.96,-879.31 2135,-882.75 2156.41,-884.16 2180,-885.76 2200.43,-887.15"/>
<polygon fill="#9a32cd" stroke="#9a32cd" points="1977.9,-869.03 1967.7,-871.89 1977.46,-876.02 1977.9,-869.03"/>
<text text-anchor="middle" x="2063" y="-885.75" font-family="Helvetica,sans-Serif" font-size="10.00"> exeTestHook</text>
</g>
<!-- Node45 -->
<g id="node45" class="node">
<title>Node45</title>
<g id="a_node45"><a xlink:href="classdouble.html" target="_top" xlink:title=" ">
<polygon fill="white" stroke="black" points="2229,-1055.25 2229,-1074.25 2279,-1074.25 2279,-1055.25 2229,-1055.25"/>
<text text-anchor="middle" x="2254" y="-1062.25" font-family="Helvetica,sans-Serif" font-size="10.00">double</text>
</a>
</g>
</g>
<!-- Node45&#45;&gt;Node2 -->
<g id="edge75" class="edge">
<title>Node45&#45;&gt;Node2</title>
<path fill="none" stroke="#9a32cd" stroke-dasharray="5,2" d="M2289.45,-1066.09C2389.34,-1070 2680.86,-1081.38 2819.74,-1086.81"/>
<polygon fill="#9a32cd" stroke="#9a32cd" points="2289.44,-1062.59 2279.31,-1065.7 2289.16,-1069.59 2289.44,-1062.59"/>
<text text-anchor="middle" x="2638" y="-1085.75" font-family="Helvetica,sans-Serif" font-size="10.00"> aRea</text>
</g>
<!-- Node45&#45;&gt;Node3 -->
<g id="edge54" class="edge">
<title>Node45&#45;&gt;Node3</title>
<path fill="none" stroke="#9a32cd" stroke-dasharray="5,2" d="M2289.21,-1061.22C2361.61,-1053.66 2524.59,-1036.05 2535,-1029.75 2590.54,-996.13 2623.38,-919.43 2633.56,-892.39"/>
<polygon fill="#9a32cd" stroke="#9a32cd" points="2288.8,-1057.75 2279.21,-1062.26 2289.52,-1064.71 2288.8,-1057.75"/>
<text text-anchor="middle" x="2454" y="-1054.75" font-family="Helvetica,sans-Serif" font-size="10.00"> elementMeasure</text>
</g>
<!-- Node46 -->
<g id="node46" class="node">
<title>Node46</title>
<g id="a_node46"><a xlink:title=" ">
<polygon fill="white" stroke="#bfbfbf" points="2168,-957.25 2168,-998.25 2340,-998.25 2340,-957.25 2168,-957.25"/>
<text text-anchor="start" x="2176" y="-986.25" font-family="Helvetica,sans-Serif" font-size="10.00">array&lt; boost::shared</text>
<text text-anchor="start" x="2176" y="-975.25" font-family="Helvetica,sans-Serif" font-size="10.00">_ptr&lt; MoFEM::EntitiesFieldData</text>
<text text-anchor="middle" x="2254" y="-964.25" font-family="Helvetica,sans-Serif" font-size="10.00"> &gt;, LASTSPACE &gt;</text>
</a>
</g>
</g>
<!-- Node46&#45;&gt;Node3 -->
<g id="edge55" class="edge">
<title>Node46&#45;&gt;Node3</title>
<path fill="none" stroke="#9a32cd" stroke-dasharray="5,2" d="M2350.27,-970.12C2405.24,-963.91 2475.11,-952.92 2535,-933.75 2567.43,-923.37 2602.33,-903.91 2621.74,-892.26"/>
<polygon fill="#9a32cd" stroke="#9a32cd" points="2349.75,-966.65 2340.19,-971.22 2350.51,-973.61 2349.75,-966.65"/>
<text text-anchor="middle" x="2454" y="-981.75" font-family="Helvetica,sans-Serif" font-size="10.00"> derivedDataOnElement</text>
<text text-anchor="middle" x="2454" y="-970.75" font-family="Helvetica,sans-Serif" font-size="10.00">dataOnElement</text>
</g>
<!-- Node47 -->
<g id="node47" class="node">
<title>Node47</title>
<g id="a_node47"><a xlink:title=" ">
<polygon fill="white" stroke="#bfbfbf" points="2220,-919.25 2220,-938.25 2288,-938.25 2288,-919.25 2220,-919.25"/>
<text text-anchor="middle" x="2254" y="-926.25" font-family="Helvetica,sans-Serif" font-size="10.00">EntityType</text>
</a>
</g>
</g>
<!-- Node47&#45;&gt;Node3 -->
<g id="edge56" class="edge">
<title>Node47&#45;&gt;Node3</title>
<path fill="none" stroke="#9a32cd" stroke-dasharray="5,2" d="M2298.4,-925.42C2353.53,-920.97 2451.57,-912.26 2535,-900.75 2552.1,-898.39 2570.72,-895.27 2587.31,-892.29"/>
<polygon fill="#9a32cd" stroke="#9a32cd" points="2297.97,-921.95 2288.28,-926.23 2298.53,-928.92 2297.97,-921.95"/>
<text text-anchor="middle" x="2454" y="-921.75" font-family="Helvetica,sans-Serif" font-size="10.00"> lastEvaluatedElementEntityType</text>
</g>
<!-- Node48 -->
<g id="node48" class="node">
<title>Node48</title>
<g id="a_node48"><a xlink:href="structMoFEM_1_1DeprecatedCoreInterface.html" target="_top" xlink:title="Deprecated interface functions.">
<polygon fill="white" stroke="black" points="1600,-1127.25 1600,-1146.25 1781,-1146.25 1781,-1127.25 1600,-1127.25"/>
<text text-anchor="middle" x="1690.5" y="-1134.25" font-family="Helvetica,sans-Serif" font-size="10.00">MoFEM::DeprecatedCoreInterface</text>
</a>
</g>
</g>
<!-- Node48&#45;&gt;Node3 -->
<g id="edge57" class="edge">
<title>Node48&#45;&gt;Node3</title>
<path fill="none" stroke="#9a32cd" stroke-dasharray="5,2" d="M1707.73,-1120.02C1727.4,-1100.85 1762.49,-1070.11 1799,-1054.75 1904.55,-1010.34 2342.7,-1008.55 2355,-1007.75 2435.07,-1002.55 2462.84,-1028.84 2535,-993.75 2582.54,-970.63 2618.56,-914.88 2631.65,-892.39"/>
<polygon fill="#9a32cd" stroke="#9a32cd" points="1705.12,-1117.67 1700.51,-1127.21 1710.06,-1122.63 1705.12,-1117.67"/>
<text text-anchor="middle" x="2063" y="-1025.75" font-family="Helvetica,sans-Serif" font-size="10.00"> mField</text>
</g>
<!-- Node49&#45;&gt;Node48 -->
<g id="edge58" class="edge">
<title>Node49&#45;&gt;Node48</title>
<path fill="none" stroke="midnightblue" d="M1207.1,-1317.32C1219.07,-1314.98 1231.44,-1312.41 1243,-1309.75 1312.13,-1293.81 1330.2,-1291.65 1397,-1267.75 1503.35,-1229.69 1624.96,-1169.62 1670.75,-1146.37"/>
<polygon fill="midnightblue" stroke="midnightblue" points="1206.33,-1313.9 1197.17,-1319.23 1207.65,-1320.78 1206.33,-1313.9"/>
</g>
<!-- Node50 -->
<g id="node50" class="node">
<title>Node50</title>
<g id="a_node50"><a xlink:title=" ">
<polygon fill="white" stroke="#bfbfbf" points="2170.5,-809.75 2170.5,-861.75 2337.5,-861.75 2337.5,-809.75 2170.5,-809.75"/>
<text text-anchor="start" x="2178.5" y="-849.75" font-family="Helvetica,sans-Serif" font-size="10.00">function&lt; MoFEMErrorCode</text>
<text text-anchor="start" x="2178.5" y="-838.75" font-family="Helvetica,sans-Serif" font-size="10.00">(ForcesAndSourcesCore *fe</text>
<text text-anchor="start" x="2178.5" y="-827.75" font-family="Helvetica,sans-Serif" font-size="10.00">_raw_ptr, int order_row,</text>
<text text-anchor="middle" x="2254" y="-816.75" font-family="Helvetica,sans-Serif" font-size="10.00"> int order_col, int order_data)&gt;</text>
</a>
</g>
</g>
<!-- Node50&#45;&gt;Node3 -->
<g id="edge61" class="edge">
<title>Node50&#45;&gt;Node3</title>
<path fill="none" stroke="#9a32cd" stroke-dasharray="5,2" d="M2348.11,-847.2C2412.93,-855.18 2498.36,-865.69 2559.48,-873.21"/>
<polygon fill="#9a32cd" stroke="#9a32cd" points="2348.24,-843.69 2337.89,-845.95 2347.39,-850.64 2348.24,-843.69"/>
<text text-anchor="middle" x="2454" y="-873.75" font-family="Helvetica,sans-Serif" font-size="10.00"> setRuleHook</text>
</g>
<!-- Node51 -->
<g id="node51" class="node">
<title>Node51</title>
<g id="a_node51"><a xlink:title=" ">
<polygon fill="white" stroke="#bfbfbf" points="2153,-760.75 2153,-790.75 2355,-790.75 2355,-760.75 2153,-760.75"/>
<text text-anchor="start" x="2161" y="-778.75" font-family="Helvetica,sans-Serif" font-size="10.00">ptr_deque&lt; MoFEM::Forces</text>
<text text-anchor="middle" x="2254" y="-767.75" font-family="Helvetica,sans-Serif" font-size="10.00">AndSourcesCore::UserDataOperator &gt;</text>
</a>
</g>
</g>
<!-- Node51&#45;&gt;Node3 -->
<g id="edge62" class="edge">
<title>Node51&#45;&gt;Node3</title>
<path fill="none" stroke="#9a32cd" stroke-dasharray="5,2" d="M2341.77,-794.1C2346.31,-795.82 2350.75,-797.7 2355,-799.75 2364.13,-804.14 2363.67,-809.79 2373,-813.75 2439.95,-842.14 2465.16,-816.49 2535,-836.75 2566.16,-845.79 2600.07,-862.61 2619.88,-873.21"/>
<polygon fill="#9a32cd" stroke="#9a32cd" points="2342.92,-790.8 2332.32,-790.77 2340.59,-797.4 2342.92,-790.8"/>
<text text-anchor="middle" x="2454" y="-839.75" font-family="Helvetica,sans-Serif" font-size="10.00"> opPtrVector</text>
</g>
<!-- Node52 -->
<g id="node52" class="node">
<title>Node52</title>
<g id="a_node52"><a xlink:href="structMoFEM_1_1EntitiesFieldData.html" target="_top" xlink:title="data structure for finite element entity">
<polygon fill="white" stroke="black" points="2183,-452.25 2183,-471.25 2325,-471.25 2325,-452.25 2183,-452.25"/>
<text text-anchor="middle" x="2254" y="-459.25" font-family="Helvetica,sans-Serif" font-size="10.00">MoFEM::EntitiesFieldData</text>
</a>
</g>
</g>
<!-- Node52&#45;&gt;Node3 -->
<g id="edge63" class="edge">
<title>Node52&#45;&gt;Node3</title>
<path fill="none" stroke="#9a32cd" stroke-dasharray="5,2" d="M2291.67,-474.99C2350.61,-498 2466.73,-550.71 2535,-630.75 2569.07,-670.7 2620.97,-831.57 2633.97,-872.98"/>
<polygon fill="#9a32cd" stroke="#9a32cd" points="2292.62,-471.61 2282.03,-471.29 2290.12,-478.14 2292.62,-471.61"/>
<text text-anchor="middle" x="2454" y="-677.75" font-family="Helvetica,sans-Serif" font-size="10.00"> dataNoField</text>
<text text-anchor="middle" x="2454" y="-666.75" font-family="Helvetica,sans-Serif" font-size="10.00">dataL2</text>
<text text-anchor="middle" x="2454" y="-655.75" font-family="Helvetica,sans-Serif" font-size="10.00">dataH1</text>
<text text-anchor="middle" x="2454" y="-644.75" font-family="Helvetica,sans-Serif" font-size="10.00">dataHcurl</text>
<text text-anchor="middle" x="2454" y="-633.75" font-family="Helvetica,sans-Serif" font-size="10.00">dataHdiv</text>
</g>
<!-- Node53 -->
<g id="node53" class="node">
<title>Node53</title>
<g id="a_node53"><a xlink:title=" ">
<polygon fill="white" stroke="#bfbfbf" points="1805,-365.75 1805,-395.75 1967,-395.75 1967,-365.75 1805,-365.75"/>
<text text-anchor="start" x="1813" y="-383.75" font-family="Helvetica,sans-Serif" font-size="10.00">array&lt; std::bitset</text>
<text text-anchor="middle" x="1886" y="-372.75" font-family="Helvetica,sans-Serif" font-size="10.00">&lt; LASTBASE &gt;, LASTSPACE &gt;</text>
</a>
</g>
</g>
<!-- Node53&#45;&gt;Node52 -->
<g id="edge64" class="edge">
<title>Node53&#45;&gt;Node52</title>
<path fill="none" stroke="#9a32cd" stroke-dasharray="5,2" d="M1977.18,-384.21C2024.79,-387.71 2083.79,-394.73 2135,-408.75 2172.69,-419.07 2213.66,-439.84 2236.04,-452.09"/>
<polygon fill="#9a32cd" stroke="#9a32cd" points="1977.42,-380.72 1967.2,-383.51 1976.94,-387.7 1977.42,-380.72"/>
<text text-anchor="middle" x="2063" y="-422.75" font-family="Helvetica,sans-Serif" font-size="10.00"> brokenBasesOnSpaces</text>
<text text-anchor="middle" x="2063" y="-411.75" font-family="Helvetica,sans-Serif" font-size="10.00">basesOnSpaces</text>
</g>
<!-- Node54 -->
<g id="node54" class="node">
<title>Node54</title>
<g id="a_node54"><a xlink:title=" ">
<polygon fill="white" stroke="#bfbfbf" points="1809.5,-305.25 1809.5,-346.25 1962.5,-346.25 1962.5,-305.25 1809.5,-305.25"/>
<text text-anchor="start" x="1817.5" y="-334.25" font-family="Helvetica,sans-Serif" font-size="10.00">array&lt; boost::ptr_vector</text>
<text text-anchor="start" x="1817.5" y="-323.25" font-family="Helvetica,sans-Serif" font-size="10.00">&lt; MoFEM::EntitiesFieldData</text>
<text text-anchor="middle" x="1886" y="-312.25" font-family="Helvetica,sans-Serif" font-size="10.00">::EntData &gt;, MBMAXTYPE &gt;</text>
</a>
</g>
</g>
<!-- Node54&#45;&gt;Node52 -->
<g id="edge65" class="edge">
<title>Node54&#45;&gt;Node52</title>
<path fill="none" stroke="#9a32cd" stroke-dasharray="5,2" d="M1972.69,-331.2C2021.88,-336.76 2083.84,-348.01 2135,-370.75 2181.1,-391.24 2225.43,-433.31 2243.95,-452.2"/>
<polygon fill="#9a32cd" stroke="#9a32cd" points="1973.02,-327.71 1962.71,-330.12 1972.28,-334.67 1973.02,-327.71"/>
<text text-anchor="middle" x="2063" y="-373.75" font-family="Helvetica,sans-Serif" font-size="10.00"> dataOnEntities</text>
</g>
<!-- Node55 -->
<g id="node55" class="node">
<title>Node55</title>
<g id="a_node55"><a xlink:title=" ">
<polygon fill="white" stroke="#bfbfbf" points="1799,-540.75 1799,-570.75 1973,-570.75 1973,-540.75 1799,-540.75"/>
<text text-anchor="start" x="1807" y="-558.75" font-family="Helvetica,sans-Serif" font-size="10.00">array&lt; std::bitset</text>
<text text-anchor="middle" x="1886" y="-547.75" font-family="Helvetica,sans-Serif" font-size="10.00">&lt; LASTSPACE &gt;, MBMAXTYPE &gt;</text>
</a>
</g>
</g>
<!-- Node55&#45;&gt;Node52 -->
<g id="edge66" class="edge">
<title>Node55&#45;&gt;Node52</title>
<path fill="none" stroke="#9a32cd" stroke-dasharray="5,2" d="M1983.25,-545.72C2029.74,-539.39 2085.96,-529.54 2135,-514.75 2172.2,-503.53 2213.01,-483.27 2235.56,-471.31"/>
<polygon fill="#9a32cd" stroke="#9a32cd" points="1982.63,-542.27 1973.18,-547.05 1983.55,-549.21 1982.63,-542.27"/>
<text text-anchor="middle" x="2063" y="-547.75" font-family="Helvetica,sans-Serif" font-size="10.00"> spacesOnEntities</text>
</g>
<!-- Node56 -->
<g id="node56" class="node">
<title>Node56</title>
<g id="a_node56"><a xlink:title=" ">
<polygon fill="white" stroke="#bfbfbf" points="1801.5,-491.75 1801.5,-521.75 1970.5,-521.75 1970.5,-491.75 1801.5,-491.75"/>
<text text-anchor="start" x="1809.5" y="-509.75" font-family="Helvetica,sans-Serif" font-size="10.00">array&lt; std::bitset</text>
<text text-anchor="middle" x="1886" y="-498.75" font-family="Helvetica,sans-Serif" font-size="10.00">&lt; LASTBASE &gt;, MBMAXTYPE &gt;</text>
</a>
</g>
</g>
<!-- Node56&#45;&gt;Node52 -->
<g id="edge67" class="edge">
<title>Node56&#45;&gt;Node52</title>
<path fill="none" stroke="#9a32cd" stroke-dasharray="5,2" d="M1980.83,-500.74C2027.33,-497.17 2084.26,-491.92 2135,-484.75 2159.9,-481.23 2187.51,-475.92 2209.75,-471.3"/>
<polygon fill="#9a32cd" stroke="#9a32cd" points="1980.47,-497.25 1970.76,-501.5 1981,-504.23 1980.47,-497.25"/>
<text text-anchor="middle" x="2063" y="-502.75" font-family="Helvetica,sans-Serif" font-size="10.00"> basesOnEntities</text>
</g>
<!-- Node57 -->
<g id="node57" class="node">
<title>Node57</title>
<g id="a_node57"><a xlink:title=" ">
<polygon fill="white" stroke="#bfbfbf" points="1830,-453.25 1830,-472.25 1942,-472.25 1942,-453.25 1830,-453.25"/>
<text text-anchor="middle" x="1886" y="-460.25" font-family="Helvetica,sans-Serif" font-size="10.00">UBlasMatrix&lt; int &gt;</text>
</a>
</g>
</g>
<!-- Node57&#45;&gt;Node52 -->
<g id="edge68" class="edge">
<title>Node57&#45;&gt;Node52</title>
<path fill="none" stroke="#9a32cd" stroke-dasharray="5,2" d="M1952.3,-462.57C2017.2,-462.39 2116.41,-462.12 2182.93,-461.94"/>
<polygon fill="#9a32cd" stroke="#9a32cd" points="1952.18,-459.07 1942.19,-462.6 1952.2,-466.07 1952.18,-459.07"/>
<text text-anchor="middle" x="2063" y="-476.75" font-family="Helvetica,sans-Serif" font-size="10.00"> facesNodesOrder</text>
<text text-anchor="middle" x="2063" y="-465.75" font-family="Helvetica,sans-Serif" font-size="10.00">facesNodes</text>
</g>
<!-- Node58 -->
<g id="node58" class="node">
<title>Node58</title>
<g id="a_node58"><a xlink:title=" ">
<polygon fill="white" stroke="#bfbfbf" points="1827.5,-415.25 1827.5,-434.25 1944.5,-434.25 1944.5,-415.25 1827.5,-415.25"/>
<text text-anchor="middle" x="1886" y="-422.25" font-family="Helvetica,sans-Serif" font-size="10.00">bitset&lt; LASTBASE &gt;</text>
</a>
</g>
</g>
<!-- Node58&#45;&gt;Node52 -->
<g id="edge69" class="edge">
<title>Node58&#45;&gt;Node52</title>
<path fill="none" stroke="#9a32cd" stroke-dasharray="5,2" d="M1954.69,-430.55C2004.57,-434.95 2074.05,-441.31 2135,-447.75 2150.49,-449.38 2167.11,-451.27 2182.84,-453.12"/>
<polygon fill="#9a32cd" stroke="#9a32cd" points="1954.94,-427.06 1944.67,-429.68 1954.32,-434.04 1954.94,-427.06"/>
<text text-anchor="middle" x="2063" y="-450.75" font-family="Helvetica,sans-Serif" font-size="10.00"> bAse</text>
</g>
<!-- Node59 -->
<g id="node59" class="node">
<title>Node59</title>
<g id="a_node59"><a xlink:title=" ">
<polygon fill="white" stroke="#bfbfbf" points="2191.5,-700.25 2191.5,-741.25 2316.5,-741.25 2316.5,-700.25 2191.5,-700.25"/>
<text text-anchor="start" x="2199.5" y="-729.25" font-family="Helvetica,sans-Serif" font-size="10.00">function&lt; int(int order</text>
<text text-anchor="start" x="2199.5" y="-718.25" font-family="Helvetica,sans-Serif" font-size="10.00">_row, int order_col, int</text>
<text text-anchor="middle" x="2254" y="-707.25" font-family="Helvetica,sans-Serif" font-size="10.00"> order_data)&gt;</text>
</a>
</g>
</g>
<!-- Node59&#45;&gt;Node3 -->
<g id="edge70" class="edge">
<title>Node59&#45;&gt;Node3</title>
<path fill="none" stroke="#9a32cd" stroke-dasharray="5,2" d="M2326.06,-735.01C2336.38,-739.03 2346.41,-744.17 2355,-750.75 2367.05,-759.97 2360.25,-771.53 2373,-779.75 2434.04,-819.06 2468.21,-772.27 2535,-800.75 2575.13,-817.86 2612.44,-855.43 2628.59,-873.14"/>
<polygon fill="#9a32cd" stroke="#9a32cd" points="2327.12,-731.67 2316.52,-731.63 2324.78,-738.27 2327.12,-731.67"/>
<text text-anchor="middle" x="2454" y="-803.75" font-family="Helvetica,sans-Serif" font-size="10.00"> getRuleHook</text>
</g>
<!-- Node60 -->
<g id="node60" class="node">
<title>Node60</title>
<g id="a_node60"><a xlink:title=" ">
<polygon fill="white" stroke="#bfbfbf" points="2193,-650.75 2193,-680.75 2315,-680.75 2315,-650.75 2193,-650.75"/>
<text text-anchor="start" x="2201" y="-668.75" font-family="Helvetica,sans-Serif" font-size="10.00">shared_ptr&lt; MoFEM::</text>
<text text-anchor="middle" x="2254" y="-657.75" font-family="Helvetica,sans-Serif" font-size="10.00">BaseFunction &gt;</text>
</a>
</g>
</g>
<!-- Node60&#45;&gt;Node3 -->
<g id="edge71" class="edge">
<title>Node60&#45;&gt;Node3</title>
<path fill="none" stroke="#9a32cd" stroke-dasharray="5,2" d="M2324.86,-674.22C2335.83,-677.97 2346.37,-683.27 2355,-690.75 2370.97,-704.58 2356.17,-721.97 2373,-734.75 2430.73,-778.6 2471.71,-718.41 2535,-753.75 2586.35,-782.42 2621.11,-848.48 2632.72,-873.19"/>
<polygon fill="#9a32cd" stroke="#9a32cd" points="2325.74,-670.83 2315.16,-671.31 2323.73,-677.54 2325.74,-670.83"/>
<text text-anchor="middle" x="2454" y="-767.75" font-family="Helvetica,sans-Serif" font-size="10.00"> userPolynomialBasePtr</text>
<text text-anchor="middle" x="2454" y="-756.75" font-family="Helvetica,sans-Serif" font-size="10.00">elementPolynomialBasePtr</text>
</g>
<!-- Node61 -->
<g id="node61" class="node">
<title>Node61</title>
<g id="a_node61"><a xlink:href="classUBlasMatrix_3_01double_01_4.html" target="_top" xlink:title=" ">
<polygon fill="white" stroke="black" points="2188,-609.25 2188,-628.25 2320,-628.25 2320,-609.25 2188,-609.25"/>
<text text-anchor="middle" x="2254" y="-616.25" font-family="Helvetica,sans-Serif" font-size="10.00">UBlasMatrix&lt; double &gt;</text>
</a>
</g>
</g>
<!-- Node61&#45;&gt;Node2 -->
<g id="edge78" class="edge">
<title>Node61&#45;&gt;Node2</title>
<path fill="none" stroke="#9a32cd" stroke-dasharray="5,2" d="M2299.5,-606.9C2356.82,-594.07 2458.2,-579.78 2535,-614.75 2746.41,-711.02 2863.88,-1003.74 2889.59,-1074.32"/>
<polygon fill="#9a32cd" stroke="#9a32cd" points="2298.62,-603.51 2289.67,-609.18 2300.2,-610.33 2298.62,-603.51"/>
<text text-anchor="middle" x="2638" y="-791.75" font-family="Helvetica,sans-Serif" font-size="10.00"> tangentOneAtGaussPts</text>
<text text-anchor="middle" x="2638" y="-780.75" font-family="Helvetica,sans-Serif" font-size="10.00">tangentTwoAtGaussPts</text>
<text text-anchor="middle" x="2638" y="-769.75" font-family="Helvetica,sans-Serif" font-size="10.00">normalsAtGaussPts</text>
</g>
<!-- Node61&#45;&gt;Node3 -->
<g id="edge72" class="edge">
<title>Node61&#45;&gt;Node3</title>
<path fill="none" stroke="#9a32cd" stroke-dasharray="5,2" d="M2329.93,-626.4C2339.08,-629.78 2347.74,-634.41 2355,-640.75 2372.48,-656.01 2354.78,-675.38 2373,-689.75 2429.92,-734.64 2474.31,-669.1 2535,-708.75 2597.44,-749.54 2626.59,-842.91 2634.62,-873.12"/>
<polygon fill="#9a32cd" stroke="#9a32cd" points="2330.85,-623.02 2320.26,-623.32 2328.72,-629.69 2330.85,-623.02"/>
<text text-anchor="middle" x="2454" y="-722.75" font-family="Helvetica,sans-Serif" font-size="10.00"> coordsAtGaussPts</text>
<text text-anchor="middle" x="2454" y="-711.75" font-family="Helvetica,sans-Serif" font-size="10.00">gaussPts</text>
</g>
<!-- Node62 -->
<g id="node62" class="node">
<title>Node62</title>
<g id="a_node62"><a xlink:href="classUBlasVector_3_01double_01_4.html" target="_top" xlink:title=" ">
<polygon fill="white" stroke="black" points="2572.5,-1145.25 2572.5,-1164.25 2703.5,-1164.25 2703.5,-1145.25 2572.5,-1145.25"/>
<text text-anchor="middle" x="2638" y="-1152.25" font-family="Helvetica,sans-Serif" font-size="10.00">UBlasVector&lt; double &gt;</text>
</a>
</g>
</g>
<!-- Node62&#45;&gt;Node2 -->
<g id="edge73" class="edge">
<title>Node62&#45;&gt;Node2</title>
<path fill="none" stroke="#9a32cd" stroke-dasharray="5,2" d="M2687.34,-1142.67C2719.78,-1134.55 2763.47,-1123.56 2802,-1113.75 2813.31,-1110.87 2825.39,-1107.77 2836.97,-1104.78"/>
<polygon fill="#9a32cd" stroke="#9a32cd" points="2686.07,-1139.38 2677.22,-1145.2 2687.77,-1146.17 2686.07,-1139.38"/>
<text text-anchor="middle" x="2771.5" y="-1163.75" font-family="Helvetica,sans-Serif" font-size="10.00"> tangentOne</text>
<text text-anchor="middle" x="2771.5" y="-1152.75" font-family="Helvetica,sans-Serif" font-size="10.00">tangentTwo</text>
<text text-anchor="middle" x="2771.5" y="-1141.75" font-family="Helvetica,sans-Serif" font-size="10.00">nOrmal</text>
<text text-anchor="middle" x="2771.5" y="-1130.75" font-family="Helvetica,sans-Serif" font-size="10.00">coords</text>
</g>
</g>
</svg>
