<?xml version="1.0" encoding="UTF-8" standalone="no"?>
<!DOCTYPE svg PUBLIC "-//W3C//DTD SVG 1.1//EN"
 "http://www.w3.org/Graphics/SVG/1.1/DTD/svg11.dtd">
<!-- Generated by graphviz version 2.43.0 (0)
 -->
<!-- Title: MoFEM::OpBaseDerivativesBase Pages: 1 -->
<svg width="1005pt" height="176pt"
 viewBox="0.00 0.00 1005.00 176.00" xmlns="http://www.w3.org/2000/svg" xmlns:xlink="http://www.w3.org/1999/xlink">
<g id="graph0" class="graph" transform="scale(1 1) rotate(0) translate(4 172)">
<title>MoFEM::OpBaseDerivativesBase</title>
<polygon fill="white" stroke="transparent" points="-4,4 -4,-172 1001,-172 1001,4 -4,4"/>
<!-- Node1 -->
<g id="node1" class="node">
<title>Node1</title>
<g id="a_node1"><a xlink:title=" ">
<polygon fill="#bfbfbf" stroke="black" points="367,-72 367,-91 543,-91 543,-72 367,-72"/>
<text text-anchor="middle" x="455" y="-79" font-family="Helvetica,sans-Serif" font-size="10.00">MoFEM::OpBaseDerivativesBase</text>
</a>
</g>
</g>
<!-- Node4 -->
<g id="node4" class="node">
<title>Node4</title>
<g id="a_node4"><a xlink:href="structMoFEM_1_1OpBaseDerivativesMass_3_011_01_4.html" target="_top" xlink:title=" ">
<polygon fill="white" stroke="black" points="600,-137.5 600,-167.5 752,-167.5 752,-137.5 600,-137.5"/>
<text text-anchor="start" x="608" y="-155.5" font-family="Helvetica,sans-Serif" font-size="10.00">MoFEM::OpBaseDerivatives</text>
<text text-anchor="middle" x="676" y="-144.5" font-family="Helvetica,sans-Serif" font-size="10.00">Mass&lt; 1 &gt;</text>
</a>
</g>
</g>
<!-- Node1&#45;&gt;Node4 -->
<g id="edge3" class="edge">
<title>Node1&#45;&gt;Node4</title>
<path fill="none" stroke="midnightblue" d="M488.89,-94.86C513.48,-104.58 548.05,-117.71 579,-127.5 590.08,-131.01 602,-134.4 613.53,-137.5"/>
<polygon fill="midnightblue" stroke="midnightblue" points="489.91,-91.5 479.33,-91.05 487.32,-98 489.91,-91.5"/>
</g>
<!-- Node6 -->
<g id="node6" class="node">
<title>Node6</title>
<g id="a_node6"><a xlink:href="structMoFEM_1_1OpBaseDerivativesNext_3_011_01_4.html" target="_top" xlink:title="Specialisation for calculate derivatives for scalar base functions.">
<polygon fill="white" stroke="black" points="600,-88.5 600,-118.5 752,-118.5 752,-88.5 600,-88.5"/>
<text text-anchor="start" x="608" y="-106.5" font-family="Helvetica,sans-Serif" font-size="10.00">MoFEM::OpBaseDerivatives</text>
<text text-anchor="middle" x="676" y="-95.5" font-family="Helvetica,sans-Serif" font-size="10.00">Next&lt; 1 &gt;</text>
</a>
</g>
</g>
<!-- Node1&#45;&gt;Node6 -->
<g id="edge5" class="edge">
<title>Node1&#45;&gt;Node6</title>
<path fill="none" stroke="midnightblue" d="M553.35,-91.28C568.92,-92.84 584.82,-94.44 599.78,-95.94"/>
<polygon fill="midnightblue" stroke="midnightblue" points="553.48,-87.78 543.18,-90.26 552.78,-94.74 553.48,-87.78"/>
</g>
<!-- Node8 -->
<g id="node8" class="node">
<title>Node8</title>
<g id="a_node8"><a xlink:href="structMoFEM_1_1OpDGProjectionCoefficients.html" target="_top" xlink:title=" ">
<polygon fill="white" stroke="black" points="579,-50 579,-69 773,-69 773,-50 579,-50"/>
<text text-anchor="middle" x="676" y="-57" font-family="Helvetica,sans-Serif" font-size="10.00">MoFEM::OpDGProjectionCoefficients</text>
</a>
</g>
</g>
<!-- Node1&#45;&gt;Node8 -->
<g id="edge7" class="edge">
<title>Node1&#45;&gt;Node8</title>
<path fill="none" stroke="midnightblue" d="M553.24,-71.73C562.2,-70.83 571.26,-69.92 580.2,-69.02"/>
<polygon fill="midnightblue" stroke="midnightblue" points="552.78,-68.26 543.18,-72.74 553.48,-75.22 552.78,-68.26"/>
</g>
<!-- Node10 -->
<g id="node10" class="node">
<title>Node10</title>
<g id="a_node10"><a xlink:href="structMoFEM_1_1OpDGProjectionMassMatrix.html" target="_top" xlink:title=" ">
<polygon fill="white" stroke="black" points="595.5,-0.5 595.5,-30.5 756.5,-30.5 756.5,-0.5 595.5,-0.5"/>
<text text-anchor="start" x="603.5" y="-18.5" font-family="Helvetica,sans-Serif" font-size="10.00">MoFEM::OpDGProjectionMass</text>
<text text-anchor="middle" x="676" y="-7.5" font-family="Helvetica,sans-Serif" font-size="10.00">Matrix</text>
</a>
</g>
</g>
<!-- Node1&#45;&gt;Node10 -->
<g id="edge9" class="edge">
<title>Node1&#45;&gt;Node10</title>
<path fill="none" stroke="midnightblue" d="M492.74,-68.54C517.08,-60.12 549.79,-49.16 579,-40.5 590.48,-37.1 602.8,-33.7 614.66,-30.55"/>
<polygon fill="midnightblue" stroke="midnightblue" points="491.49,-65.27 483.19,-71.85 493.79,-71.88 491.49,-65.27"/>
</g>
<!-- Node2 -->
<g id="node2" class="node">
<title>Node2</title>
<g id="a_node2"><a xlink:href="structMoFEM_1_1ForcesAndSourcesCore_1_1UserDataOperator.html" target="_top" xlink:title=" ">
<polygon fill="white" stroke="black" points="161,-66.5 161,-96.5 331,-96.5 331,-66.5 161,-66.5"/>
<text text-anchor="start" x="169" y="-84.5" font-family="Helvetica,sans-Serif" font-size="10.00">MoFEM::ForcesAndSourcesCore</text>
<text text-anchor="middle" x="246" y="-73.5" font-family="Helvetica,sans-Serif" font-size="10.00">::UserDataOperator</text>
</a>
</g>
</g>
<!-- Node2&#45;&gt;Node1 -->
<g id="edge1" class="edge">
<title>Node2&#45;&gt;Node1</title>
<path fill="none" stroke="midnightblue" d="M341.46,-81.5C349.92,-81.5 358.46,-81.5 366.85,-81.5"/>
<polygon fill="midnightblue" stroke="midnightblue" points="341.19,-78 331.19,-81.5 341.19,-85 341.19,-78"/>
</g>
<!-- Node3 -->
<g id="node3" class="node">
<title>Node3</title>
<g id="a_node3"><a xlink:href="structMoFEM_1_1DataOperator.html" target="_top" xlink:title="base operator to do operations at Gauss Pt. level">
<polygon fill="white" stroke="black" points="0,-72 0,-91 125,-91 125,-72 0,-72"/>
<text text-anchor="middle" x="62.5" y="-79" font-family="Helvetica,sans-Serif" font-size="10.00">MoFEM::DataOperator</text>
</a>
</g>
</g>
<!-- Node3&#45;&gt;Node2 -->
<g id="edge2" class="edge">
<title>Node3&#45;&gt;Node2</title>
<path fill="none" stroke="midnightblue" d="M135.34,-81.5C143.75,-81.5 152.4,-81.5 160.97,-81.5"/>
<polygon fill="midnightblue" stroke="midnightblue" points="135.2,-78 125.2,-81.5 135.2,-85 135.2,-78"/>
</g>
<!-- Node5 -->
<g id="node5" class="node">
<title>Node5</title>
<g id="a_node5"><a xlink:href="structMoFEM_1_1OpBaseDerivativesMass_3_013_01_4.html" target="_top" xlink:title=" ">
<polygon fill="white" stroke="black" points="827,-137.5 827,-167.5 979,-167.5 979,-137.5 827,-137.5"/>
<text text-anchor="start" x="835" y="-155.5" font-family="Helvetica,sans-Serif" font-size="10.00">MoFEM::OpBaseDerivatives</text>
<text text-anchor="middle" x="903" y="-144.5" font-family="Helvetica,sans-Serif" font-size="10.00">Mass&lt; 3 &gt;</text>
</a>
</g>
</g>
<!-- Node4&#45;&gt;Node5 -->
<g id="edge4" class="edge">
<title>Node4&#45;&gt;Node5</title>
<path fill="none" stroke="midnightblue" d="M762.5,-152.5C783.67,-152.5 806.2,-152.5 826.84,-152.5"/>
<polygon fill="midnightblue" stroke="midnightblue" points="762.23,-149 752.23,-152.5 762.23,-156 762.23,-149"/>
</g>
<!-- Node7 -->
<g id="node7" class="node">
<title>Node7</title>
<g id="a_node7"><a xlink:href="structMoFEM_1_1OpBaseDerivativesNext_3_013_01_4.html" target="_top" xlink:title="Specialisation for calculate derivatives for scalar base functions.">
<polygon fill="white" stroke="black" points="827,-88.5 827,-118.5 979,-118.5 979,-88.5 827,-88.5"/>
<text text-anchor="start" x="835" y="-106.5" font-family="Helvetica,sans-Serif" font-size="10.00">MoFEM::OpBaseDerivatives</text>
<text text-anchor="middle" x="903" y="-95.5" font-family="Helvetica,sans-Serif" font-size="10.00">Next&lt; 3 &gt;</text>
</a>
</g>
</g>
<!-- Node6&#45;&gt;Node7 -->
<g id="edge6" class="edge">
<title>Node6&#45;&gt;Node7</title>
<path fill="none" stroke="midnightblue" d="M762.5,-103.5C783.67,-103.5 806.2,-103.5 826.84,-103.5"/>
<polygon fill="midnightblue" stroke="midnightblue" points="762.23,-100 752.23,-103.5 762.23,-107 762.23,-100"/>
</g>
<!-- Node9 -->
<g id="node9" class="node">
<title>Node9</title>
<g id="a_node9"><a xlink:href="structMoFEM_1_1OpDGProjectionEvaluation.html" target="_top" xlink:title=" ">
<polygon fill="white" stroke="black" points="809,-50 809,-69 997,-69 997,-50 809,-50"/>
<text text-anchor="middle" x="903" y="-57" font-family="Helvetica,sans-Serif" font-size="10.00">MoFEM::OpDGProjectionEvaluation</text>
</a>
</g>
</g>
<!-- Node8&#45;&gt;Node9 -->
<g id="edge8" class="edge">
<title>Node8&#45;&gt;Node9</title>
<path fill="none" stroke="midnightblue" d="M783.1,-59.5C791.67,-59.5 800.28,-59.5 808.75,-59.5"/>
<polygon fill="midnightblue" stroke="midnightblue" points="783.07,-56 773.07,-59.5 783.07,-63 783.07,-56"/>
</g>
</g>
</svg>
