<?xml version="1.0" encoding="UTF-8" standalone="no"?>
<!DOCTYPE svg PUBLIC "-//W3C//DTD SVG 1.1//EN"
 "http://www.w3.org/Graphics/SVG/1.1/DTD/svg11.dtd">
<!-- Generated by graphviz version 2.43.0 (0)
 -->
<!-- Title: MoFEM::OpCalculateVectorFieldValues_General&lt; Tensor_Dim, double, ublas::row_major, DoubleAllocator &gt; Pages: 1 -->
<svg width="952pt" height="159pt"
 viewBox="0.00 0.00 952.00 159.00" xmlns="http://www.w3.org/2000/svg" xmlns:xlink="http://www.w3.org/1999/xlink">
<g id="graph0" class="graph" transform="scale(1 1) rotate(0) translate(4 155)">
<title>MoFEM::OpCalculateVectorFieldValues_General&lt; Tensor_Dim, double, ublas::row_major, DoubleAllocator &gt;</title>
<polygon fill="white" stroke="transparent" points="-4,4 -4,-155 948,-155 948,4 -4,4"/>
<!-- Node1 -->
<g id="node1" class="node">
<title>Node1</title>
<g id="a_node1"><a xlink:title="Calculate field values (template specialization) for tensor field rank 1, i.e. vector field.">
<polygon fill="#bfbfbf" stroke="black" points="367,-38.5 367,-90.5 541,-90.5 541,-38.5 367,-38.5"/>
<text text-anchor="start" x="375" y="-78.5" font-family="Helvetica,sans-Serif" font-size="10.00">MoFEM::OpCalculateVector</text>
<text text-anchor="start" x="375" y="-67.5" font-family="Helvetica,sans-Serif" font-size="10.00">FieldValues_General&lt; Tensor</text>
<text text-anchor="start" x="375" y="-56.5" font-family="Helvetica,sans-Serif" font-size="10.00">_Dim, double, ublas::row_major,</text>
<text text-anchor="middle" x="454" y="-45.5" font-family="Helvetica,sans-Serif" font-size="10.00"> DoubleAllocator &gt;</text>
</a>
</g>
</g>
<!-- Node4 -->
<g id="node4" class="node">
<title>Node4</title>
<g id="a_node4"><a xlink:href="structMoFEM_1_1OpCalculateScalarFieldGradient__General_3_01Tensor__Dim_00_01double_00_01ublas_1_def4d9fd57dc33d1dc16a6bb31c26129.html" target="_top" xlink:title="Evaluate field gradient values for scalar field, i.e. gradient is tensor rank 1 (vector),...">
<polygon fill="white" stroke="black" points="577,-98.5 577,-150.5 747,-150.5 747,-98.5 577,-98.5"/>
<text text-anchor="start" x="585" y="-138.5" font-family="Helvetica,sans-Serif" font-size="10.00">MoFEM::OpCalculateScalar</text>
<text text-anchor="start" x="585" y="-127.5" font-family="Helvetica,sans-Serif" font-size="10.00">FieldGradient_General</text>
<text text-anchor="start" x="585" y="-116.5" font-family="Helvetica,sans-Serif" font-size="10.00">&lt; Tensor_Dim, double, ublas</text>
<text text-anchor="middle" x="662" y="-105.5" font-family="Helvetica,sans-Serif" font-size="10.00">::row_major, DoubleAllocator &gt;</text>
</a>
</g>
</g>
<!-- Node1&#45;&gt;Node4 -->
<g id="edge3" class="edge">
<title>Node1&#45;&gt;Node4</title>
<path fill="none" stroke="midnightblue" d="M550.9,-92.43C559.56,-94.95 568.28,-97.49 576.83,-99.98"/>
<polygon fill="midnightblue" stroke="midnightblue" points="551.75,-89.03 541.17,-89.6 549.79,-95.75 551.75,-89.03"/>
</g>
<!-- Node6 -->
<g id="node6" class="node">
<title>Node6</title>
<g id="a_node6"><a xlink:href="structMoFEM_1_1OpCalculateScalarFieldHessian.html" target="_top" xlink:title="Evaluate field gradient values for scalar field, i.e. gradient is tensor rank 1 (vector),...">
<polygon fill="white" stroke="black" points="583,-49.5 583,-79.5 741,-79.5 741,-49.5 583,-49.5"/>
<text text-anchor="start" x="591" y="-67.5" font-family="Helvetica,sans-Serif" font-size="10.00">MoFEM::OpCalculateScalar</text>
<text text-anchor="middle" x="662" y="-56.5" font-family="Helvetica,sans-Serif" font-size="10.00">FieldHessian&lt; Tensor_Dim &gt;</text>
</a>
</g>
</g>
<!-- Node1&#45;&gt;Node6 -->
<g id="edge5" class="edge">
<title>Node1&#45;&gt;Node6</title>
<path fill="none" stroke="midnightblue" d="M551.24,-64.5C561.79,-64.5 572.44,-64.5 582.73,-64.5"/>
<polygon fill="midnightblue" stroke="midnightblue" points="551.17,-61 541.17,-64.5 551.17,-68 551.17,-61"/>
</g>
<!-- Node7 -->
<g id="node7" class="node">
<title>Node7</title>
<g id="a_node7"><a xlink:href="structMoFEM_1_1OpCalculateVectorFieldValues.html" target="_top" xlink:title="Get values at integration pts for tensor filed rank 1, i.e. vector field.">
<polygon fill="white" stroke="black" points="586,-0.5 586,-30.5 738,-30.5 738,-0.5 586,-0.5"/>
<text text-anchor="start" x="594" y="-18.5" font-family="Helvetica,sans-Serif" font-size="10.00">MoFEM::OpCalculateVector</text>
<text text-anchor="middle" x="662" y="-7.5" font-family="Helvetica,sans-Serif" font-size="10.00">FieldValues&lt; Tensor_Dim &gt;</text>
</a>
</g>
</g>
<!-- Node1&#45;&gt;Node7 -->
<g id="edge6" class="edge">
<title>Node1&#45;&gt;Node7</title>
<path fill="none" stroke="midnightblue" d="M551,-41.66C566.86,-37.89 582.95,-34.07 597.74,-30.55"/>
<polygon fill="midnightblue" stroke="midnightblue" points="550.09,-38.28 541.17,-44 551.71,-45.09 550.09,-38.28"/>
</g>
<!-- Node2 -->
<g id="node2" class="node">
<title>Node2</title>
<g id="a_node2"><a xlink:href="structMoFEM_1_1ForcesAndSourcesCore_1_1UserDataOperator.html" target="_top" xlink:title=" ">
<polygon fill="white" stroke="black" points="161,-49.5 161,-79.5 331,-79.5 331,-49.5 161,-49.5"/>
<text text-anchor="start" x="169" y="-67.5" font-family="Helvetica,sans-Serif" font-size="10.00">MoFEM::ForcesAndSourcesCore</text>
<text text-anchor="middle" x="246" y="-56.5" font-family="Helvetica,sans-Serif" font-size="10.00">::UserDataOperator</text>
</a>
</g>
</g>
<!-- Node2&#45;&gt;Node1 -->
<g id="edge1" class="edge">
<title>Node2&#45;&gt;Node1</title>
<path fill="none" stroke="midnightblue" d="M341.1,-64.5C349.68,-64.5 358.34,-64.5 366.84,-64.5"/>
<polygon fill="midnightblue" stroke="midnightblue" points="341.09,-61 331.09,-64.5 341.09,-68 341.09,-61"/>
</g>
<!-- Node3 -->
<g id="node3" class="node">
<title>Node3</title>
<g id="a_node3"><a xlink:href="structMoFEM_1_1DataOperator.html" target="_top" xlink:title="base operator to do operations at Gauss Pt. level">
<polygon fill="white" stroke="black" points="0,-55 0,-74 125,-74 125,-55 0,-55"/>
<text text-anchor="middle" x="62.5" y="-62" font-family="Helvetica,sans-Serif" font-size="10.00">MoFEM::DataOperator</text>
</a>
</g>
</g>
<!-- Node3&#45;&gt;Node2 -->
<g id="edge2" class="edge">
<title>Node3&#45;&gt;Node2</title>
<path fill="none" stroke="midnightblue" d="M135.34,-64.5C143.75,-64.5 152.4,-64.5 160.97,-64.5"/>
<polygon fill="midnightblue" stroke="midnightblue" points="135.2,-61 125.2,-64.5 135.2,-68 135.2,-61"/>
</g>
<!-- Node5 -->
<g id="node5" class="node">
<title>Node5</title>
<g id="a_node5"><a xlink:href="structMoFEM_1_1OpCalculateScalarFieldGradient.html" target="_top" xlink:title="Get field gradients at integration pts for scalar filed rank 0, i.e. vector field.">
<polygon fill="white" stroke="black" points="783,-109.5 783,-139.5 944,-139.5 944,-109.5 783,-109.5"/>
<text text-anchor="start" x="791" y="-127.5" font-family="Helvetica,sans-Serif" font-size="10.00">MoFEM::OpCalculateScalar</text>
<text text-anchor="middle" x="863.5" y="-116.5" font-family="Helvetica,sans-Serif" font-size="10.00">FieldGradient&lt; Tensor_Dim &gt;</text>
</a>
</g>
</g>
<!-- Node4&#45;&gt;Node5 -->
<g id="edge4" class="edge">
<title>Node4&#45;&gt;Node5</title>
<path fill="none" stroke="midnightblue" d="M757.06,-124.5C765.64,-124.5 774.27,-124.5 782.71,-124.5"/>
<polygon fill="midnightblue" stroke="midnightblue" points="757.03,-121 747.03,-124.5 757.03,-128 757.03,-121"/>
</g>
</g>
</svg>
