<?xml version="1.0" encoding="UTF-8" standalone="no"?>
<!DOCTYPE svg PUBLIC "-//W3C//DTD SVG 1.1//EN"
 "http://www.w3.org/Graphics/SVG/1.1/DTD/svg11.dtd">
<!-- Generated by graphviz version 2.43.0 (0)
 -->
<!-- Title: BCs_RVELagrange_Periodic::OpRVEHomoStress Pages: 1 -->
<svg width="1031pt" height="454pt"
 viewBox="0.00 0.00 1031.00 453.68" xmlns="http://www.w3.org/2000/svg" xmlns:xlink="http://www.w3.org/1999/xlink">
<g id="graph0" class="graph" transform="scale(1 1) rotate(0) translate(4 449.68)">
<title>BCs_RVELagrange_Periodic::OpRVEHomoStress</title>
<polygon fill="white" stroke="transparent" points="-4,4 -4,-449.68 1027,-449.68 1027,4 -4,4"/>
<!-- Node1 -->
<g id="node1" class="node">
<title>Node1</title>
<g id="a_node1"><a xlink:title="\biref operator to calculate the RVE homogenised stress">
<polygon fill="#bfbfbf" stroke="black" points="874,-134.68 874,-164.68 1023,-164.68 1023,-134.68 874,-134.68"/>
<text text-anchor="start" x="882" y="-152.68" font-family="Helvetica,sans-Serif" font-size="10.00">BCs_RVELagrange_Periodic</text>
<text text-anchor="middle" x="948.5" y="-141.68" font-family="Helvetica,sans-Serif" font-size="10.00">::OpRVEHomoStress</text>
</a>
</g>
</g>
<!-- Node2 -->
<g id="node2" class="node">
<title>Node2</title>
<g id="a_node2"><a xlink:href="structBCs__RVELagrange__Periodic_1_1OpDmatRhs.html" target="_top" xlink:title="\biref operator to calculate the RHS of the constrain for the RVE boundary conditions">
<polygon fill="white" stroke="black" points="621,-156.68 621,-186.68 770,-186.68 770,-156.68 621,-156.68"/>
<text text-anchor="start" x="629" y="-174.68" font-family="Helvetica,sans-Serif" font-size="10.00">BCs_RVELagrange_Periodic</text>
<text text-anchor="middle" x="695.5" y="-163.68" font-family="Helvetica,sans-Serif" font-size="10.00">::OpDmatRhs</text>
</a>
</g>
</g>
<!-- Node2&#45;&gt;Node1 -->
<g id="edge1" class="edge">
<title>Node2&#45;&gt;Node1</title>
<path fill="none" stroke="midnightblue" d="M780.24,-164.34C810.54,-161.69 844.52,-158.71 873.89,-156.13"/>
<polygon fill="midnightblue" stroke="midnightblue" points="779.77,-160.87 770.11,-165.23 780.38,-167.84 779.77,-160.87"/>
</g>
<!-- Node3 -->
<g id="node3" class="node">
<title>Node3</title>
<g id="a_node3"><a xlink:title=" ">
<polygon fill="white" stroke="#bfbfbf" points="324.5,-181.18 324.5,-200.18 429.5,-200.18 429.5,-181.18 324.5,-181.18"/>
<text text-anchor="middle" x="377" y="-188.18" font-family="Helvetica,sans-Serif" font-size="10.00">UserDataOperator</text>
</a>
</g>
</g>
<!-- Node3&#45;&gt;Node2 -->
<g id="edge2" class="edge">
<title>Node3&#45;&gt;Node2</title>
<path fill="none" stroke="midnightblue" d="M439.62,-186.98C491.49,-183.87 565.79,-179.41 620.8,-176.11"/>
<polygon fill="midnightblue" stroke="midnightblue" points="439.33,-183.49 429.56,-187.59 439.75,-190.48 439.33,-183.49"/>
</g>
<!-- Node4 -->
<g id="node4" class="node">
<title>Node4</title>
<g id="a_node4"><a xlink:title=" ">
<polygon fill="white" stroke="#bfbfbf" points="335.5,-143.18 335.5,-162.18 418.5,-162.18 418.5,-143.18 335.5,-143.18"/>
<text text-anchor="middle" x="377" y="-150.18" font-family="Helvetica,sans-Serif" font-size="10.00">MatrixDouble</text>
</a>
</g>
</g>
<!-- Node4&#45;&gt;Node2 -->
<g id="edge3" class="edge">
<title>Node4&#45;&gt;Node2</title>
<path fill="none" stroke="#9a32cd" stroke-dasharray="5,2" d="M428.92,-153.72C474.57,-154.89 543.32,-157.23 603,-161.68 608.74,-162.11 614.67,-162.62 620.63,-163.17"/>
<polygon fill="#9a32cd" stroke="#9a32cd" points="428.78,-150.21 418.69,-153.47 428.61,-157.21 428.78,-150.21"/>
<text text-anchor="middle" x="537" y="-164.68" font-family="Helvetica,sans-Serif" font-size="10.00"> N_mat</text>
</g>
<!-- Node5 -->
<g id="node5" class="node">
<title>Node5</title>
<g id="a_node5"><a xlink:title=" ">
<polygon fill="white" stroke="#bfbfbf" points="17.5,-106.18 17.5,-125.18 153.5,-125.18 153.5,-106.18 17.5,-106.18"/>
<text text-anchor="middle" x="85.5" y="-113.18" font-family="Helvetica,sans-Serif" font-size="10.00">vector&lt; MatrixDouble &gt;</text>
</a>
</g>
</g>
<!-- Node5&#45;&gt;Node2 -->
<g id="edge4" class="edge">
<title>Node5&#45;&gt;Node2</title>
<path fill="none" stroke="#9a32cd" stroke-dasharray="5,2" d="M163.79,-113.46C238.11,-112.19 353.53,-112.52 453,-122.68 520.47,-129.58 536.6,-136.87 603,-150.68 611.94,-152.54 621.34,-154.59 630.58,-156.66"/>
<polygon fill="#9a32cd" stroke="#9a32cd" points="163.51,-109.96 153.58,-113.65 163.64,-116.96 163.51,-109.96"/>
<text text-anchor="middle" x="377" y="-125.68" font-family="Helvetica,sans-Serif" font-size="10.00"> X_mat</text>
</g>
<!-- Node6 -->
<g id="node6" class="node">
<title>Node6</title>
<g id="a_node6"><a xlink:href="structBCs__RVELagrange__Periodic_1_1CommonDataPeriodic.html" target="_top" xlink:title=" ">
<polygon fill="white" stroke="black" points="302.5,-219.68 302.5,-249.68 451.5,-249.68 451.5,-219.68 302.5,-219.68"/>
<text text-anchor="start" x="310.5" y="-237.68" font-family="Helvetica,sans-Serif" font-size="10.00">BCs_RVELagrange_Periodic</text>
<text text-anchor="middle" x="377" y="-226.68" font-family="Helvetica,sans-Serif" font-size="10.00">::CommonDataPeriodic</text>
</a>
</g>
</g>
<!-- Node5&#45;&gt;Node6 -->
<g id="edge7" class="edge">
<title>Node5&#45;&gt;Node6</title>
<path fill="none" stroke="#9a32cd" stroke-dasharray="5,2" d="M163.5,-124.76C210.61,-131.76 265.16,-142.93 283,-158.68 301.02,-174.59 283.85,-192.84 301,-209.68 304.92,-213.53 309.44,-216.79 314.28,-219.54"/>
<polygon fill="#9a32cd" stroke="#9a32cd" points="163.98,-121.29 153.58,-123.33 162.98,-128.22 163.98,-121.29"/>
<text text-anchor="middle" x="236" y="-161.68" font-family="Helvetica,sans-Serif" font-size="10.00"> D_mat</text>
</g>
<!-- Node6&#45;&gt;Node2 -->
<g id="edge5" class="edge">
<title>Node6&#45;&gt;Node2</title>
<path fill="none" stroke="#9a32cd" stroke-dasharray="5,2" d="M461.74,-221.24C504.2,-214.05 556.49,-204.65 603,-194.68 614.05,-192.31 625.79,-189.55 637.05,-186.78"/>
<polygon fill="#9a32cd" stroke="#9a32cd" points="461,-217.81 451.72,-222.92 462.16,-224.71 461,-217.81"/>
<text text-anchor="middle" x="537" y="-221.68" font-family="Helvetica,sans-Serif" font-size="10.00"> commonDataPeriodic</text>
</g>
<!-- Node7 -->
<g id="node7" class="node">
<title>Node7</title>
<g id="a_node7"><a xlink:title=" ">
<polygon fill="white" stroke="#bfbfbf" points="6.5,-304.68 6.5,-356.68 164.5,-356.68 164.5,-304.68 6.5,-304.68"/>
<text text-anchor="start" x="14.5" y="-344.68" font-family="Helvetica,sans-Serif" font-size="10.00">vector&lt; map&lt; EntityType,</text>
<text text-anchor="start" x="14.5" y="-333.68" font-family="Helvetica,sans-Serif" font-size="10.00"> map&lt; int, map&lt; EntityType,</text>
<text text-anchor="start" x="14.5" y="-322.68" font-family="Helvetica,sans-Serif" font-size="10.00"> map&lt; int, MatrixDouble &gt;</text>
<text text-anchor="middle" x="85.5" y="-311.68" font-family="Helvetica,sans-Serif" font-size="10.00"> &gt; &gt; &gt; &gt;</text>
</a>
</g>
</g>
<!-- Node7&#45;&gt;Node6 -->
<g id="edge6" class="edge">
<title>Node7&#45;&gt;Node6</title>
<path fill="none" stroke="#9a32cd" stroke-dasharray="5,2" d="M174.57,-307.46C208.71,-297.86 247.95,-286.07 283,-273.68 303.14,-266.57 325.2,-257.37 342.79,-249.7"/>
<polygon fill="#9a32cd" stroke="#9a32cd" points="173.3,-304.18 164.61,-310.24 175.19,-310.92 173.3,-304.18"/>
<text text-anchor="middle" x="236" y="-304.68" font-family="Helvetica,sans-Serif" font-size="10.00"> Cmat</text>
</g>
<!-- Node8 -->
<g id="node8" class="node">
<title>Node8</title>
<g id="a_node8"><a xlink:title=" ">
<polygon fill="white" stroke="#bfbfbf" points="24.5,-255.68 24.5,-285.68 146.5,-285.68 146.5,-255.68 24.5,-255.68"/>
<text text-anchor="start" x="32.5" y="-273.68" font-family="Helvetica,sans-Serif" font-size="10.00">vector&lt; ublas::vector</text>
<text text-anchor="middle" x="85.5" y="-262.68" font-family="Helvetica,sans-Serif" font-size="10.00">&lt; VectorDouble &gt; &gt;</text>
</a>
</g>
</g>
<!-- Node8&#45;&gt;Node6 -->
<g id="edge8" class="edge">
<title>Node8&#45;&gt;Node6</title>
<path fill="none" stroke="#9a32cd" stroke-dasharray="5,2" d="M157.08,-263.44C194.53,-259.42 241.31,-254.15 283,-248.68 289.31,-247.85 295.86,-246.95 302.43,-246.02"/>
<polygon fill="#9a32cd" stroke="#9a32cd" points="156.35,-259.99 146.77,-264.53 157.09,-266.95 156.35,-259.99"/>
<text text-anchor="middle" x="236" y="-261.68" font-family="Helvetica,sans-Serif" font-size="10.00"> DispAtGaussPts</text>
</g>
<!-- Node9 -->
<g id="node9" class="node">
<title>Node9</title>
<g id="a_node9"><a xlink:title=" ">
<polygon fill="white" stroke="#bfbfbf" points="0,-206.68 0,-236.68 171,-236.68 171,-206.68 0,-206.68"/>
<text text-anchor="start" x="8" y="-224.68" font-family="Helvetica,sans-Serif" font-size="10.00">vector&lt; map&lt; EntityType,</text>
<text text-anchor="middle" x="85.5" y="-213.68" font-family="Helvetica,sans-Serif" font-size="10.00"> map&lt; int, MatrixDouble &gt; &gt; &gt;</text>
</a>
</g>
</g>
<!-- Node9&#45;&gt;Node6 -->
<g id="edge9" class="edge">
<title>Node9&#45;&gt;Node6</title>
<path fill="none" stroke="#9a32cd" stroke-dasharray="5,2" d="M181.49,-222.94C213.73,-223.68 249.95,-224.84 283,-226.68 289.31,-227.03 295.86,-227.46 302.42,-227.94"/>
<polygon fill="#9a32cd" stroke="#9a32cd" points="181.25,-219.44 171.18,-222.72 181.1,-226.44 181.25,-219.44"/>
<text text-anchor="middle" x="236" y="-240.68" font-family="Helvetica,sans-Serif" font-size="10.00"> RowN</text>
<text text-anchor="middle" x="236" y="-229.68" font-family="Helvetica,sans-Serif" font-size="10.00">ColN</text>
</g>
<!-- Node10 -->
<g id="node10" class="node">
<title>Node10</title>
<g id="a_node10"><a xlink:title=" ">
<polygon fill="white" stroke="#bfbfbf" points="18,-376.18 18,-395.18 153,-395.18 153,-376.18 18,-376.18"/>
<text text-anchor="middle" x="85.5" y="-383.18" font-family="Helvetica,sans-Serif" font-size="10.00">vector&lt; VectorDouble &gt;</text>
</a>
</g>
</g>
<!-- Node10&#45;&gt;Node1 -->
<g id="edge16" class="edge">
<title>Node10&#45;&gt;Node1</title>
<path fill="none" stroke="#9a32cd" stroke-dasharray="5,2" d="M163.53,-383.16C200.03,-380.91 244.06,-376.67 283,-368.68 530.2,-317.97 813.8,-205.34 911.93,-164.68"/>
<polygon fill="#9a32cd" stroke="#9a32cd" points="163.23,-379.67 153.45,-383.74 163.64,-386.66 163.23,-379.67"/>
<text text-anchor="middle" x="537" y="-322.68" font-family="Helvetica,sans-Serif" font-size="10.00"> Stress_Homo_elem</text>
</g>
<!-- Node10&#45;&gt;Node6 -->
<g id="edge10" class="edge">
<title>Node10&#45;&gt;Node6</title>
<path fill="none" stroke="#9a32cd" stroke-dasharray="5,2" d="M148.23,-373.64C155.98,-371.59 163.73,-369.27 171,-366.68 179.43,-363.68 180.9,-361.47 189,-357.68 230.29,-338.37 244.55,-341.16 283,-316.68 313.69,-297.14 344.39,-267.67 361.71,-249.89"/>
<polygon fill="#9a32cd" stroke="#9a32cd" points="147.3,-370.26 138.46,-376.09 149.01,-377.05 147.3,-370.26"/>
<text text-anchor="middle" x="236" y="-360.68" font-family="Helvetica,sans-Serif" font-size="10.00"> LagMulAtGaussPts</text>
</g>
<!-- Node11 -->
<g id="node11" class="node">
<title>Node11</title>
<g id="a_node11"><a xlink:title=" ">
<polygon fill="white" stroke="#bfbfbf" points="12.5,-146.18 12.5,-187.18 158.5,-187.18 158.5,-146.18 12.5,-146.18"/>
<text text-anchor="start" x="20.5" y="-175.18" font-family="Helvetica,sans-Serif" font-size="10.00">vector&lt; map&lt; EntityType,</text>
<text text-anchor="start" x="20.5" y="-164.18" font-family="Helvetica,sans-Serif" font-size="10.00"> map&lt; int, ublas::vector</text>
<text text-anchor="middle" x="85.5" y="-153.18" font-family="Helvetica,sans-Serif" font-size="10.00">&lt; int &gt; &gt; &gt; &gt;</text>
</a>
</g>
</g>
<!-- Node11&#45;&gt;Node6 -->
<g id="edge11" class="edge">
<title>Node11&#45;&gt;Node6</title>
<path fill="none" stroke="#9a32cd" stroke-dasharray="5,2" d="M168.71,-170.54C204.82,-174.41 247.09,-181.99 283,-196.68 292.13,-200.42 292.22,-205.18 301,-209.68 308.21,-213.38 316.07,-216.69 323.92,-219.62"/>
<polygon fill="#9a32cd" stroke="#9a32cd" points="168.99,-167.05 158.69,-169.54 168.3,-174.01 168.99,-167.05"/>
<text text-anchor="middle" x="236" y="-210.68" font-family="Helvetica,sans-Serif" font-size="10.00"> RowInd</text>
<text text-anchor="middle" x="236" y="-199.68" font-family="Helvetica,sans-Serif" font-size="10.00">ColInd</text>
</g>
<!-- Node12 -->
<g id="node12" class="node">
<title>Node12</title>
<g id="a_node12"><a xlink:href="structBCs__RVELagrange__Periodic_1_1CommonFunctionsPeriodic.html" target="_top" xlink:title=" ">
<polygon fill="white" stroke="black" points="301,-46.68 301,-76.68 453,-76.68 453,-46.68 301,-46.68"/>
<text text-anchor="start" x="309" y="-64.68" font-family="Helvetica,sans-Serif" font-size="10.00">BCs_RVELagrange_Periodic</text>
<text text-anchor="middle" x="377" y="-53.68" font-family="Helvetica,sans-Serif" font-size="10.00">::CommonFunctionsPeriodic</text>
</a>
</g>
</g>
<!-- Node12&#45;&gt;Node2 -->
<g id="edge12" class="edge">
<title>Node12&#45;&gt;Node2</title>
<path fill="none" stroke="#9a32cd" stroke-dasharray="5,2" d="M463.16,-50.96C509.4,-49.86 564.77,-56.83 603,-88.68 623.74,-105.96 602.17,-127.34 621,-146.68 624.76,-150.55 629.14,-153.81 633.85,-156.57"/>
<polygon fill="#9a32cd" stroke="#9a32cd" points="463,-47.47 453.13,-51.33 463.26,-54.46 463,-47.47"/>
<text text-anchor="middle" x="537" y="-91.68" font-family="Helvetica,sans-Serif" font-size="10.00"> commonFunctionsPeriodic</text>
</g>
<!-- Node13 -->
<g id="node13" class="node">
<title>Node13</title>
<g id="a_node13"><a xlink:href="structBCs__RVELagrange__Periodic_1_1RVEBC__Data__Periodic.html" target="_top" xlink:title=" ">
<polygon fill="white" stroke="black" points="302.5,-411.68 302.5,-441.68 451.5,-441.68 451.5,-411.68 302.5,-411.68"/>
<text text-anchor="start" x="310.5" y="-429.68" font-family="Helvetica,sans-Serif" font-size="10.00">BCs_RVELagrange_Periodic</text>
<text text-anchor="middle" x="377" y="-418.68" font-family="Helvetica,sans-Serif" font-size="10.00">::RVEBC_Data_Periodic</text>
</a>
</g>
</g>
<!-- Node13&#45;&gt;Node2 -->
<g id="edge13" class="edge">
<title>Node13&#45;&gt;Node2</title>
<path fill="none" stroke="#9a32cd" stroke-dasharray="5,2" d="M462.01,-435.29C508,-435.57 563.5,-428.16 603,-397.68 672.71,-343.9 689.55,-228.32 693.41,-186.87"/>
<polygon fill="#9a32cd" stroke="#9a32cd" points="461.81,-431.79 451.75,-435.1 461.68,-438.79 461.81,-431.79"/>
<text text-anchor="middle" x="537" y="-437.68" font-family="Helvetica,sans-Serif" font-size="10.00"> dAta</text>
</g>
<!-- Node14 -->
<g id="node14" class="node">
<title>Node14</title>
<g id="a_node14"><a xlink:href="classRange.html" target="_top" xlink:title=" ">
<polygon fill="white" stroke="black" points="62,-417.18 62,-436.18 109,-436.18 109,-417.18 62,-417.18"/>
<text text-anchor="middle" x="85.5" y="-424.18" font-family="Helvetica,sans-Serif" font-size="10.00">Range</text>
</a>
</g>
</g>
<!-- Node14&#45;&gt;Node13 -->
<g id="edge14" class="edge">
<title>Node14&#45;&gt;Node13</title>
<path fill="none" stroke="#9a32cd" stroke-dasharray="5,2" d="M119.39,-426.68C163.57,-426.68 243.33,-426.68 302.24,-426.68"/>
<polygon fill="#9a32cd" stroke="#9a32cd" points="119.22,-423.18 109.22,-426.68 119.22,-430.18 119.22,-423.18"/>
<text text-anchor="middle" x="236" y="-429.68" font-family="Helvetica,sans-Serif" font-size="10.00"> pRisms</text>
</g>
<!-- Node15 -->
<g id="node15" class="node">
<title>Node15</title>
<g id="a_node15"><a xlink:href="classbool.html" target="_top" xlink:title=" ">
<polygon fill="white" stroke="black" points="358,-8.18 358,-27.18 396,-27.18 396,-8.18 358,-8.18"/>
<text text-anchor="middle" x="377" y="-15.18" font-family="Helvetica,sans-Serif" font-size="10.00">bool</text>
</a>
</g>
</g>
<!-- Node15&#45;&gt;Node2 -->
<g id="edge15" class="edge">
<title>Node15&#45;&gt;Node2</title>
<path fill="none" stroke="#9a32cd" stroke-dasharray="5,2" d="M405.89,-10.37C453.12,0.18 548.95,13.31 603,-36.68 639.37,-70.32 588.99,-108.87 621,-146.68 624.31,-150.59 628.26,-153.89 632.58,-156.68"/>
<polygon fill="#9a32cd" stroke="#9a32cd" points="404.98,-6.98 396.05,-12.68 406.59,-13.8 404.98,-6.98"/>
<text text-anchor="middle" x="537" y="-39.68" font-family="Helvetica,sans-Serif" font-size="10.00"> hoGeometry</text>
</g>
<!-- Node16 -->
<g id="node16" class="node">
<title>Node16</title>
<g id="a_node16"><a xlink:title=" ">
<polygon fill="white" stroke="#bfbfbf" points="654.5,-118.18 654.5,-137.18 736.5,-137.18 736.5,-118.18 654.5,-118.18"/>
<text text-anchor="middle" x="695.5" y="-125.18" font-family="Helvetica,sans-Serif" font-size="10.00">VectorDouble</text>
</a>
</g>
</g>
<!-- Node16&#45;&gt;Node1 -->
<g id="edge17" class="edge">
<title>Node16&#45;&gt;Node1</title>
<path fill="none" stroke="#9a32cd" stroke-dasharray="5,2" d="M746.92,-132.1C783.35,-135.29 833.11,-139.66 873.95,-143.24"/>
<polygon fill="#9a32cd" stroke="#9a32cd" points="746.82,-128.58 736.55,-131.19 746.21,-135.55 746.82,-128.58"/>
<text text-anchor="middle" x="822" y="-143.68" font-family="Helvetica,sans-Serif" font-size="10.00"> field_data</text>
</g>
<!-- Node17 -->
<g id="node17" class="node">
<title>Node17</title>
<g id="a_node17"><a xlink:title=" ">
<polygon fill="white" stroke="#bfbfbf" points="678.5,-80.18 678.5,-99.18 712.5,-99.18 712.5,-80.18 678.5,-80.18"/>
<text text-anchor="middle" x="695.5" y="-87.18" font-family="Helvetica,sans-Serif" font-size="10.00">Vec</text>
</a>
</g>
</g>
<!-- Node17&#45;&gt;Node1 -->
<g id="edge18" class="edge">
<title>Node17&#45;&gt;Node1</title>
<path fill="none" stroke="#9a32cd" stroke-dasharray="5,2" d="M723.2,-93.91C755.05,-99.17 809.78,-108.91 856,-120.68 871.66,-124.67 888.59,-129.8 903.58,-134.64"/>
<polygon fill="#9a32cd" stroke="#9a32cd" points="723.37,-90.39 712.94,-92.24 722.25,-97.3 723.37,-90.39"/>
<text text-anchor="middle" x="822" y="-123.68" font-family="Helvetica,sans-Serif" font-size="10.00"> Stress_Homo</text>
</g>
</g>
</svg>
