<?xml version="1.0" encoding="UTF-8" standalone="no"?>
<!DOCTYPE svg PUBLIC "-//W3C//DTD SVG 1.1//EN"
 "http://www.w3.org/Graphics/SVG/1.1/DTD/svg11.dtd">
<!-- Generated by graphviz version 2.43.0 (0)
 -->
<!-- Title: CellEngineering::OpGetDispX Pages: 1 -->
<svg width="4021pt" height="1644pt"
 viewBox="0.00 0.00 4021.00 1644.00" xmlns="http://www.w3.org/2000/svg" xmlns:xlink="http://www.w3.org/1999/xlink">
<g id="graph0" class="graph" transform="scale(1 1) rotate(0) translate(4 1640)">
<title>CellEngineering::OpGetDispX</title>
<polygon fill="white" stroke="transparent" points="-4,4 -4,-1640 4017,-1640 4017,4 -4,4"/>
<!-- Node1 -->
<g id="node1" class="node">
<title>Node1</title>
<g id="a_node1"><a xlink:title=" ">
<polygon fill="#bfbfbf" stroke="black" points="3855,-987.5 3855,-1006.5 4013,-1006.5 4013,-987.5 3855,-987.5"/>
<text text-anchor="middle" x="3934" y="-994.5" font-family="Helvetica,sans-Serif" font-size="10.00">CellEngineering::OpGetDispX</text>
</a>
</g>
</g>
<!-- Node2 -->
<g id="node2" class="node">
<title>Node2</title>
<g id="a_node2"><a xlink:href="structMoFEM_1_1OpCalculateScalarFieldValues.html" target="_top" xlink:title="Get value at integration points for scalar field.">
<polygon fill="white" stroke="black" points="3670,-982 3670,-1012 3818,-1012 3818,-982 3670,-982"/>
<text text-anchor="start" x="3678" y="-1000" font-family="Helvetica,sans-Serif" font-size="10.00">MoFEM::OpCalculateScalar</text>
<text text-anchor="middle" x="3744" y="-989" font-family="Helvetica,sans-Serif" font-size="10.00">FieldValues</text>
</a>
</g>
</g>
<!-- Node2&#45;&gt;Node1 -->
<g id="edge1" class="edge">
<title>Node2&#45;&gt;Node1</title>
<path fill="none" stroke="midnightblue" d="M3828.41,-997C3837.15,-997 3846.01,-997 3854.69,-997"/>
<polygon fill="midnightblue" stroke="midnightblue" points="3828.22,-993.5 3818.22,-997 3828.22,-1000.5 3828.22,-993.5"/>
</g>
<!-- Node3 -->
<g id="node3" class="node">
<title>Node3</title>
<g id="a_node3"><a xlink:href="structMoFEM_1_1OpCalculateScalarFieldValues__General.html" target="_top" xlink:title=" ">
<polygon fill="white" stroke="black" points="3470,-976.5 3470,-1017.5 3633,-1017.5 3633,-976.5 3470,-976.5"/>
<text text-anchor="start" x="3478" y="-1005.5" font-family="Helvetica,sans-Serif" font-size="10.00">MoFEM::OpCalculateScalar</text>
<text text-anchor="start" x="3478" y="-994.5" font-family="Helvetica,sans-Serif" font-size="10.00">FieldValues_General&lt; double,</text>
<text text-anchor="middle" x="3551.5" y="-983.5" font-family="Helvetica,sans-Serif" font-size="10.00"> DoubleAllocator &gt;</text>
</a>
</g>
</g>
<!-- Node3&#45;&gt;Node2 -->
<g id="edge2" class="edge">
<title>Node3&#45;&gt;Node2</title>
<path fill="none" stroke="midnightblue" d="M3643.07,-997C3652.01,-997 3661,-997 3669.74,-997"/>
<polygon fill="midnightblue" stroke="midnightblue" points="3643.01,-993.5 3633.01,-997 3643.01,-1000.5 3643.01,-993.5"/>
</g>
<!-- Node4 -->
<g id="node4" class="node">
<title>Node4</title>
<g id="a_node4"><a xlink:href="structMoFEM_1_1ForcesAndSourcesCore_1_1UserDataOperator.html" target="_top" xlink:title=" ">
<polygon fill="white" stroke="black" points="2837,-955 2837,-985 3007,-985 3007,-955 2837,-955"/>
<text text-anchor="start" x="2845" y="-973" font-family="Helvetica,sans-Serif" font-size="10.00">MoFEM::ForcesAndSourcesCore</text>
<text text-anchor="middle" x="2922" y="-962" font-family="Helvetica,sans-Serif" font-size="10.00">::UserDataOperator</text>
</a>
</g>
</g>
<!-- Node4&#45;&gt;Node3 -->
<g id="edge3" class="edge">
<title>Node4&#45;&gt;Node3</title>
<path fill="none" stroke="midnightblue" d="M3017.46,-974.06C3140.52,-979.36 3353.61,-988.53 3469.6,-993.52"/>
<polygon fill="midnightblue" stroke="midnightblue" points="3017.44,-970.56 3007.3,-973.63 3017.14,-977.55 3017.44,-970.56"/>
</g>
<!-- Node77 -->
<g id="node77" class="node">
<title>Node77</title>
<g id="a_node77"><a xlink:href="structMoFEM_1_1OpCalculateScalarFieldValues__General.html" target="_top" xlink:title="Scalar field values at integration points.">
<polygon fill="white" stroke="black" points="3113.5,-1024 3113.5,-1054 3270.5,-1054 3270.5,-1024 3113.5,-1024"/>
<text text-anchor="start" x="3121.5" y="-1042" font-family="Helvetica,sans-Serif" font-size="10.00">MoFEM::OpCalculateScalar</text>
<text text-anchor="middle" x="3192" y="-1031" font-family="Helvetica,sans-Serif" font-size="10.00">FieldValues_General&lt; T, A &gt;</text>
</a>
</g>
</g>
<!-- Node4&#45;&gt;Node77 -->
<g id="edge92" class="edge">
<title>Node4&#45;&gt;Node77</title>
<path fill="none" stroke="midnightblue" d="M2962.83,-989.46C2981.35,-997.81 3003.91,-1007 3025,-1013 3053.34,-1021.06 3085.15,-1026.81 3113.29,-1030.81"/>
<polygon fill="midnightblue" stroke="midnightblue" points="2964.09,-986.18 2953.54,-985.19 2961.17,-992.54 2964.09,-986.18"/>
</g>
<!-- Node5 -->
<g id="node5" class="node">
<title>Node5</title>
<g id="a_node5"><a xlink:href="structMoFEM_1_1DataOperator.html" target="_top" xlink:title="base operator to do operations at Gauss Pt. level">
<polygon fill="white" stroke="black" points="2579.5,-1081.5 2579.5,-1100.5 2704.5,-1100.5 2704.5,-1081.5 2579.5,-1081.5"/>
<text text-anchor="middle" x="2642" y="-1088.5" font-family="Helvetica,sans-Serif" font-size="10.00">MoFEM::DataOperator</text>
</a>
</g>
</g>
<!-- Node5&#45;&gt;Node4 -->
<g id="edge4" class="edge">
<title>Node5&#45;&gt;Node4</title>
<path fill="none" stroke="midnightblue" d="M2674.76,-1077.18C2727.28,-1054.32 2831.82,-1008.81 2886.25,-985.13"/>
<polygon fill="midnightblue" stroke="midnightblue" points="2673.05,-1074.1 2665.28,-1081.3 2675.85,-1080.52 2673.05,-1074.1"/>
</g>
<!-- Node6 -->
<g id="node6" class="node">
<title>Node6</title>
<g id="a_node6"><a xlink:title=" ">
<polygon fill="white" stroke="#bfbfbf" points="2160,-1262 2160,-1314 2352,-1314 2352,-1262 2160,-1262"/>
<text text-anchor="start" x="2168" y="-1302" font-family="Helvetica,sans-Serif" font-size="10.00">function&lt; MoFEMErrorCode</text>
<text text-anchor="start" x="2168" y="-1291" font-family="Helvetica,sans-Serif" font-size="10.00">(DataOperator *op_ptr,</text>
<text text-anchor="start" x="2168" y="-1280" font-family="Helvetica,sans-Serif" font-size="10.00"> int side, EntityType type,</text>
<text text-anchor="middle" x="2256" y="-1269" font-family="Helvetica,sans-Serif" font-size="10.00"> EntitiesFieldData::EntData &amp;data)&gt;</text>
</a>
</g>
</g>
<!-- Node6&#45;&gt;Node5 -->
<g id="edge5" class="edge">
<title>Node6&#45;&gt;Node5</title>
<path fill="none" stroke="#9a32cd" stroke-dasharray="5,2" d="M2362.58,-1286.15C2437.2,-1283.78 2526.17,-1278.37 2539,-1266 2589.26,-1217.57 2510.37,-1161.93 2557,-1110 2562.99,-1103.32 2570.79,-1098.73 2579.22,-1095.62"/>
<polygon fill="#9a32cd" stroke="#9a32cd" points="2362.05,-1282.67 2352.16,-1286.47 2362.26,-1289.67 2362.05,-1282.67"/>
<text text-anchor="middle" x="2458" y="-1288" font-family="Helvetica,sans-Serif" font-size="10.00"> doWorkRhsHook</text>
</g>
<!-- Node7 -->
<g id="node7" class="node">
<title>Node7</title>
<g id="a_node7"><a xlink:href="classbool.html" target="_top" xlink:title=" ">
<polygon fill="white" stroke="black" points="2237,-1223.5 2237,-1242.5 2275,-1242.5 2275,-1223.5 2237,-1223.5"/>
<text text-anchor="middle" x="2256" y="-1230.5" font-family="Helvetica,sans-Serif" font-size="10.00">bool</text>
</a>
</g>
</g>
<!-- Node7&#45;&gt;Node5 -->
<g id="edge6" class="edge">
<title>Node7&#45;&gt;Node5</title>
<path fill="none" stroke="#9a32cd" stroke-dasharray="5,2" d="M2285.27,-1233.28C2306.98,-1232.26 2336.88,-1228.04 2359,-1214 2370.56,-1206.66 2365.55,-1196.5 2377,-1189 2438.62,-1148.65 2482.55,-1201.32 2539,-1154 2555.19,-1140.43 2540.87,-1123.65 2557,-1110 2563.5,-1104.49 2571.28,-1100.5 2579.43,-1097.61"/>
<polygon fill="#9a32cd" stroke="#9a32cd" points="2284.95,-1229.79 2275.05,-1233.56 2285.14,-1236.79 2284.95,-1229.79"/>
<text text-anchor="middle" x="2458" y="-1258" font-family="Helvetica,sans-Serif" font-size="10.00"> doTris</text>
<text text-anchor="middle" x="2458" y="-1247" font-family="Helvetica,sans-Serif" font-size="10.00">doQuads</text>
<text text-anchor="middle" x="2458" y="-1236" font-family="Helvetica,sans-Serif" font-size="10.00">sYmm</text>
<text text-anchor="middle" x="2458" y="-1225" font-family="Helvetica,sans-Serif" font-size="10.00">doPrisms</text>
<text text-anchor="middle" x="2458" y="-1214" font-family="Helvetica,sans-Serif" font-size="10.00">doTets</text>
<text text-anchor="middle" x="2458" y="-1203" font-family="Helvetica,sans-Serif" font-size="10.00">doVertices</text>
<text text-anchor="middle" x="2458" y="-1192" font-family="Helvetica,sans-Serif" font-size="10.00">doEdges</text>
</g>
<!-- Node8 -->
<g id="node8" class="node">
<title>Node8</title>
<g id="a_node8"><a xlink:title=" ">
<polygon fill="white" stroke="#bfbfbf" points="2153,-1119.5 2153,-1204.5 2359,-1204.5 2359,-1119.5 2153,-1119.5"/>
<text text-anchor="start" x="2161" y="-1192.5" font-family="Helvetica,sans-Serif" font-size="10.00">function&lt; MoFEMErrorCode</text>
<text text-anchor="start" x="2161" y="-1181.5" font-family="Helvetica,sans-Serif" font-size="10.00">(DataOperator *op_ptr,</text>
<text text-anchor="start" x="2161" y="-1170.5" font-family="Helvetica,sans-Serif" font-size="10.00"> int row_side, int col_side,</text>
<text text-anchor="start" x="2161" y="-1159.5" font-family="Helvetica,sans-Serif" font-size="10.00"> EntityType row_type, EntityType</text>
<text text-anchor="start" x="2161" y="-1148.5" font-family="Helvetica,sans-Serif" font-size="10.00"> col_type, EntitiesFieldData::EntData</text>
<text text-anchor="start" x="2161" y="-1137.5" font-family="Helvetica,sans-Serif" font-size="10.00"> &amp;row_data, EntitiesFieldData::EntData</text>
<text text-anchor="middle" x="2256" y="-1126.5" font-family="Helvetica,sans-Serif" font-size="10.00"> &amp;col_data)&gt;</text>
</a>
</g>
</g>
<!-- Node8&#45;&gt;Node5 -->
<g id="edge7" class="edge">
<title>Node8&#45;&gt;Node5</title>
<path fill="none" stroke="#9a32cd" stroke-dasharray="5,2" d="M2369.28,-1141.24C2442.02,-1127.79 2533.33,-1110.91 2589.4,-1100.54"/>
<polygon fill="#9a32cd" stroke="#9a32cd" points="2368.35,-1137.85 2359.15,-1143.11 2369.62,-1144.74 2368.35,-1137.85"/>
<text text-anchor="middle" x="2458" y="-1142" font-family="Helvetica,sans-Serif" font-size="10.00"> doWorkLhsHook</text>
</g>
<!-- Node9 -->
<g id="node9" class="node">
<title>Node9</title>
<g id="a_node9"><a xlink:title=" ">
<polygon fill="white" stroke="#bfbfbf" points="2179,-1081.5 2179,-1100.5 2333,-1100.5 2333,-1081.5 2179,-1081.5"/>
<text text-anchor="middle" x="2256" y="-1088.5" font-family="Helvetica,sans-Serif" font-size="10.00">array&lt; bool, MBMAXTYPE &gt;</text>
</a>
</g>
</g>
<!-- Node9&#45;&gt;Node5 -->
<g id="edge8" class="edge">
<title>Node9&#45;&gt;Node5</title>
<path fill="none" stroke="#9a32cd" stroke-dasharray="5,2" d="M2343.7,-1091C2415.44,-1091 2515.59,-1091 2579.37,-1091"/>
<polygon fill="#9a32cd" stroke="#9a32cd" points="2343.33,-1087.5 2333.33,-1091 2343.33,-1094.5 2343.33,-1087.5"/>
<text text-anchor="middle" x="2458" y="-1094" font-family="Helvetica,sans-Serif" font-size="10.00"> doEntities</text>
</g>
<!-- Node10 -->
<g id="node10" class="node">
<title>Node10</title>
<g id="a_node10"><a xlink:title=" ">
<polygon fill="white" stroke="#bfbfbf" points="2607.5,-515.5 2607.5,-534.5 2676.5,-534.5 2676.5,-515.5 2607.5,-515.5"/>
<text text-anchor="middle" x="2642" y="-522.5" font-family="Helvetica,sans-Serif" font-size="10.00">FieldSpace</text>
</a>
</g>
</g>
<!-- Node10&#45;&gt;Node4 -->
<g id="edge9" class="edge">
<title>Node10&#45;&gt;Node4</title>
<path fill="none" stroke="#9a32cd" stroke-dasharray="5,2" d="M2686.43,-513.87C2726.75,-506.42 2785.45,-503.45 2819,-538 2850.53,-570.48 2809.14,-909.32 2837,-945 2840,-948.84 2843.56,-952.11 2847.49,-954.89"/>
<polygon fill="#9a32cd" stroke="#9a32cd" points="2685.72,-510.44 2676.61,-515.84 2687.1,-517.31 2685.72,-510.44"/>
<text text-anchor="middle" x="2782" y="-541" font-family="Helvetica,sans-Serif" font-size="10.00"> sPace</text>
</g>
<!-- Node11 -->
<g id="node11" class="node">
<title>Node11</title>
<g id="a_node11"><a xlink:title=" ">
<polygon fill="white" stroke="#bfbfbf" points="1122.5,-917.5 1122.5,-936.5 1160.5,-936.5 1160.5,-917.5 1122.5,-917.5"/>
<text text-anchor="middle" x="1141.5" y="-924.5" font-family="Helvetica,sans-Serif" font-size="10.00">char</text>
</a>
</g>
</g>
<!-- Node11&#45;&gt;Node4 -->
<g id="edge10" class="edge">
<title>Node11&#45;&gt;Node4</title>
<path fill="none" stroke="#9a32cd" stroke-dasharray="5,2" d="M1159.57,-910.37C1181.44,-889.86 1221.29,-855.14 1261,-834 1317.08,-804.15 1337.86,-813.21 1397,-790 1577.87,-719.01 1676.55,-744.85 1781,-581 1799.28,-552.32 1774.4,-452.49 1799,-429 1883.74,-348.05 1944.81,-410 2062,-410 2062,-410 2062,-410 2643,-410 2732.1,-410 2771.96,-430.33 2819,-506 2844.78,-547.46 2807.02,-906.47 2837,-945 2839.99,-948.84 2843.55,-952.12 2847.48,-954.9"/>
<polygon fill="#9a32cd" stroke="#9a32cd" points="1156.93,-908.04 1152.1,-917.47 1161.76,-913.11 1156.93,-908.04"/>
<text text-anchor="middle" x="2063" y="-413" font-family="Helvetica,sans-Serif" font-size="10.00"> opType</text>
</g>
<!-- Node39 -->
<g id="node39" class="node">
<title>Node39</title>
<g id="a_node39"><a xlink:href="structMoFEM_1_1Problem.html" target="_top" xlink:title="keeps basic data about problem">
<polygon fill="white" stroke="black" points="1449,-1347.5 1449,-1366.5 1548,-1366.5 1548,-1347.5 1449,-1347.5"/>
<text text-anchor="middle" x="1498.5" y="-1354.5" font-family="Helvetica,sans-Serif" font-size="10.00">MoFEM::Problem</text>
</a>
</g>
</g>
<!-- Node11&#45;&gt;Node39 -->
<g id="edge54" class="edge">
<title>Node11&#45;&gt;Node39</title>
<path fill="none" stroke="#9a32cd" stroke-dasharray="5,2" d="M1170.44,-932.63C1222.55,-944.56 1334.93,-977.33 1397,-1048 1479.83,-1142.3 1494.6,-1306.1 1497.04,-1347.36"/>
<polygon fill="#9a32cd" stroke="#9a32cd" points="1171.08,-929.18 1160.56,-930.45 1169.57,-936.02 1171.08,-929.18"/>
<text text-anchor="middle" x="1329" y="-1051" font-family="Helvetica,sans-Serif" font-size="10.00"> tagName</text>
</g>
<!-- Node12 -->
<g id="node12" class="node">
<title>Node12</title>
<g id="a_node12"><a xlink:href="structMoFEM_1_1ForcesAndSourcesCore.html" target="_top" xlink:title="structure to get information form mofem into EntitiesFieldData">
<polygon fill="white" stroke="black" points="2557,-785.5 2557,-804.5 2727,-804.5 2727,-785.5 2557,-785.5"/>
<text text-anchor="middle" x="2642" y="-792.5" font-family="Helvetica,sans-Serif" font-size="10.00">MoFEM::ForcesAndSourcesCore</text>
</a>
</g>
</g>
<!-- Node12&#45;&gt;Node4 -->
<g id="edge11" class="edge">
<title>Node12&#45;&gt;Node4</title>
<path fill="none" stroke="#9a32cd" stroke-dasharray="5,2" d="M2659.8,-811.56C2691.69,-842.15 2764.35,-907.76 2837,-945 2844.31,-948.75 2852.28,-952.03 2860.29,-954.87"/>
<polygon fill="#9a32cd" stroke="#9a32cd" points="2662.21,-809.03 2652.59,-804.58 2657.34,-814.05 2662.21,-809.03"/>
<text text-anchor="middle" x="2782" y="-936" font-family="Helvetica,sans-Serif" font-size="10.00"> ptrFE</text>
</g>
<!-- Node12&#45;&gt;Node12 -->
<g id="edge69" class="edge">
<title>Node12&#45;&gt;Node12</title>
<path fill="none" stroke="#9a32cd" stroke-dasharray="5,2" d="M2615.96,-814.03C2617.38,-819.13 2626.06,-823 2642,-823 2666.88,-823 2674.08,-813.57 2663.58,-804.76"/>
<polygon fill="#9a32cd" stroke="#9a32cd" points="2619.24,-815.29 2620.42,-804.76 2612.93,-812.25 2619.24,-815.29"/>
<text text-anchor="middle" x="2642" y="-837" font-family="Helvetica,sans-Serif" font-size="10.00"> sidePtrFE</text>
<text text-anchor="middle" x="2642" y="-826" font-family="Helvetica,sans-Serif" font-size="10.00">refinePtrFE</text>
</g>
<!-- Node13 -->
<g id="node13" class="node">
<title>Node13</title>
<g id="a_node13"><a xlink:href="structMoFEM_1_1FEMethod.html" target="_top" xlink:title="structure for User Loop Methods on finite elements">
<polygon fill="white" stroke="black" points="2202.5,-848.5 2202.5,-867.5 2309.5,-867.5 2309.5,-848.5 2202.5,-848.5"/>
<text text-anchor="middle" x="2256" y="-855.5" font-family="Helvetica,sans-Serif" font-size="10.00">MoFEM::FEMethod</text>
</a>
</g>
</g>
<!-- Node13&#45;&gt;Node12 -->
<g id="edge12" class="edge">
<title>Node13&#45;&gt;Node12</title>
<path fill="none" stroke="midnightblue" d="M2319.74,-854.61C2377.26,-850.68 2464.54,-842.62 2539,-827 2565.52,-821.44 2594.97,-811.81 2615.38,-804.57"/>
<polygon fill="midnightblue" stroke="midnightblue" points="2319.46,-851.12 2309.71,-855.27 2319.92,-858.11 2319.46,-851.12"/>
</g>
<!-- Node14 -->
<g id="node14" class="node">
<title>Node14</title>
<g id="a_node14"><a xlink:href="structMoFEM_1_1BasicMethod.html" target="_top" xlink:title="Data structure to exchange data between mofem and User Loop Methods.">
<polygon fill="white" stroke="black" points="1825,-804.5 1825,-823.5 1947,-823.5 1947,-804.5 1825,-804.5"/>
<text text-anchor="middle" x="1886" y="-811.5" font-family="Helvetica,sans-Serif" font-size="10.00">MoFEM::BasicMethod</text>
</a>
</g>
</g>
<!-- Node14&#45;&gt;Node13 -->
<g id="edge13" class="edge">
<title>Node14&#45;&gt;Node13</title>
<path fill="none" stroke="midnightblue" d="M1957.63,-822.44C2029.14,-831 2138.1,-844.02 2202.37,-851.71"/>
<polygon fill="midnightblue" stroke="midnightblue" points="1957.7,-818.93 1947.36,-821.22 1956.87,-825.88 1957.7,-818.93"/>
</g>
<!-- Node15 -->
<g id="node15" class="node">
<title>Node15</title>
<g id="a_node15"><a xlink:href="structMoFEM_1_1KspMethod.html" target="_top" xlink:title="data structure for ksp (linear solver) context">
<polygon fill="white" stroke="black" points="1442,-524.5 1442,-543.5 1555,-543.5 1555,-524.5 1442,-524.5"/>
<text text-anchor="middle" x="1498.5" y="-531.5" font-family="Helvetica,sans-Serif" font-size="10.00">MoFEM::KspMethod</text>
</a>
</g>
</g>
<!-- Node15&#45;&gt;Node14 -->
<g id="edge14" class="edge">
<title>Node15&#45;&gt;Node14</title>
<path fill="none" stroke="midnightblue" d="M1534.96,-547.42C1594.63,-571.81 1715.04,-629.03 1781,-716 1797.31,-737.5 1781.24,-753.68 1799,-774 1811.79,-788.63 1831.06,-798.27 1848.12,-804.42"/>
<polygon fill="midnightblue" stroke="midnightblue" points="1536.16,-544.13 1525.58,-543.66 1533.55,-550.63 1536.16,-544.13"/>
</g>
<!-- Node16 -->
<g id="node16" class="node">
<title>Node16</title>
<g id="a_node16"><a xlink:href="structMoFEM_1_1PetscData.html" target="_top" xlink:title=" ">
<polygon fill="white" stroke="black" points="1087.5,-428.5 1087.5,-447.5 1195.5,-447.5 1195.5,-428.5 1087.5,-428.5"/>
<text text-anchor="middle" x="1141.5" y="-435.5" font-family="Helvetica,sans-Serif" font-size="10.00">MoFEM::PetscData</text>
</a>
</g>
</g>
<!-- Node16&#45;&gt;Node15 -->
<g id="edge15" class="edge">
<title>Node16&#45;&gt;Node15</title>
<path fill="none" stroke="midnightblue" d="M1195.13,-449.89C1210.6,-453.57 1227.53,-457.77 1243,-462 1320.16,-483.08 1337.75,-494.23 1415,-515 1427.35,-518.32 1440.83,-521.58 1453.25,-524.43"/>
<polygon fill="midnightblue" stroke="midnightblue" points="1195.73,-446.44 1185.2,-447.56 1194.13,-453.25 1195.73,-446.44"/>
</g>
<!-- Node26 -->
<g id="node26" class="node">
<title>Node26</title>
<g id="a_node26"><a xlink:href="structMoFEM_1_1SnesMethod.html" target="_top" xlink:title="data structure for snes (nonlinear solver) context">
<polygon fill="white" stroke="black" points="1439,-290.5 1439,-309.5 1558,-309.5 1558,-290.5 1439,-290.5"/>
<text text-anchor="middle" x="1498.5" y="-297.5" font-family="Helvetica,sans-Serif" font-size="10.00">MoFEM::SnesMethod</text>
</a>
</g>
</g>
<!-- Node16&#45;&gt;Node26 -->
<g id="edge28" class="edge">
<title>Node16&#45;&gt;Node26</title>
<path fill="none" stroke="darkgreen" d="M1205.74,-426.89C1218.39,-423.57 1231.36,-419.34 1243,-414 1251.97,-409.89 1252.2,-405.46 1261,-401 1317.66,-372.27 1338.85,-382.58 1397,-357 1428.76,-343.03 1463.49,-321.91 1482.67,-309.68"/>
<polygon fill="darkgreen" stroke="darkgreen" points="1204.57,-423.57 1195.7,-429.36 1206.25,-430.37 1204.57,-423.57"/>
</g>
<!-- Node29 -->
<g id="node29" class="node">
<title>Node29</title>
<g id="a_node29"><a xlink:href="structMoFEM_1_1TSMethod.html" target="_top" xlink:title="data structure for TS (time stepping) context">
<polygon fill="white" stroke="black" points="1445,-675.5 1445,-694.5 1552,-694.5 1552,-675.5 1445,-675.5"/>
<text text-anchor="middle" x="1498.5" y="-682.5" font-family="Helvetica,sans-Serif" font-size="10.00">MoFEM::TSMethod</text>
</a>
</g>
</g>
<!-- Node16&#45;&gt;Node29 -->
<g id="edge34" class="edge">
<title>Node16&#45;&gt;Node29</title>
<path fill="none" stroke="darkgreen" d="M1205.7,-441.87C1219.56,-445.55 1233.05,-451.74 1243,-462 1270.49,-490.34 1235.42,-518.92 1261,-549 1302.93,-598.29 1341.19,-568.25 1397,-601 1434.26,-622.87 1471.57,-658.55 1488.33,-675.49"/>
<polygon fill="darkgreen" stroke="darkgreen" points="1206.1,-438.38 1195.58,-439.63 1204.58,-445.21 1206.1,-438.38"/>
</g>
<!-- Node17 -->
<g id="node17" class="node">
<title>Node17</title>
<g id="a_node17"><a xlink:href="structMoFEM_1_1UnknownInterface.html" target="_top" xlink:title="base class for all interface classes">
<polygon fill="white" stroke="black" points="735,-134.5 735,-153.5 883,-153.5 883,-134.5 735,-134.5"/>
<text text-anchor="middle" x="809" y="-141.5" font-family="Helvetica,sans-Serif" font-size="10.00">MoFEM::UnknownInterface</text>
</a>
</g>
</g>
<!-- Node17&#45;&gt;Node16 -->
<g id="edge16" class="edge">
<title>Node17&#45;&gt;Node16</title>
<path fill="none" stroke="midnightblue" d="M833.4,-159.1C877.43,-188.79 972.6,-259.19 1022,-343 1038.53,-371.04 1016.82,-391.14 1040,-414 1052.58,-426.41 1070.36,-432.82 1087.47,-436.01"/>
<polygon fill="midnightblue" stroke="midnightblue" points="835.32,-156.18 825.06,-153.56 831.45,-162.01 835.32,-156.18"/>
</g>
<!-- Node57 -->
<g id="node57" class="node">
<title>Node57</title>
<g id="a_node57"><a xlink:href="structMoFEM_1_1CoreInterface.html" target="_top" xlink:title="Interface.">
<polygon fill="white" stroke="black" points="1079,-91.5 1079,-110.5 1204,-110.5 1204,-91.5 1079,-91.5"/>
<text text-anchor="middle" x="1141.5" y="-98.5" font-family="Helvetica,sans-Serif" font-size="10.00">MoFEM::CoreInterface</text>
</a>
</g>
</g>
<!-- Node17&#45;&gt;Node57 -->
<g id="edge68" class="edge">
<title>Node17&#45;&gt;Node57</title>
<path fill="none" stroke="midnightblue" d="M893.48,-141.84C932.67,-139.97 979.91,-136.49 1022,-130 1051.52,-125.45 1084.47,-117.11 1108.11,-110.54"/>
<polygon fill="midnightblue" stroke="midnightblue" points="893.27,-138.35 883.44,-142.29 893.59,-145.34 893.27,-138.35"/>
</g>
<!-- Node18 -->
<g id="node18" class="node">
<title>Node18</title>
<g id="a_node18"><a xlink:title=" ">
<polygon fill="white" stroke="#bfbfbf" points="386,-90.5 386,-153.5 627,-153.5 627,-90.5 386,-90.5"/>
<text text-anchor="start" x="394" y="-141.5" font-family="Helvetica,sans-Serif" font-size="10.00">multi_index_container</text>
<text text-anchor="start" x="394" y="-130.5" font-family="Helvetica,sans-Serif" font-size="10.00">&lt; UIdTypeMap, indexed</text>
<text text-anchor="start" x="394" y="-119.5" font-family="Helvetica,sans-Serif" font-size="10.00">_by&lt; hashed_unique&lt; member</text>
<text text-anchor="start" x="394" y="-108.5" font-family="Helvetica,sans-Serif" font-size="10.00">&lt; UIdTypeMap, boost::typeindex</text>
<text text-anchor="middle" x="506.5" y="-97.5" font-family="Helvetica,sans-Serif" font-size="10.00">::type_index, &amp;UIdTypeMap::classIdx &gt; &gt; &gt; &gt;</text>
</a>
</g>
</g>
<!-- Node18&#45;&gt;Node17 -->
<g id="edge17" class="edge">
<title>Node18&#45;&gt;Node17</title>
<path fill="none" stroke="#9a32cd" stroke-dasharray="5,2" d="M637.41,-131.51C670.69,-133.95 705.33,-136.48 734.62,-138.63"/>
<polygon fill="#9a32cd" stroke="#9a32cd" points="637.36,-128 627.13,-130.76 636.85,-134.98 637.36,-128"/>
<text text-anchor="middle" x="681" y="-140" font-family="Helvetica,sans-Serif" font-size="10.00"> iFaceTypeMap</text>
</g>
<!-- Node19 -->
<g id="node19" class="node">
<title>Node19</title>
<g id="a_node19"><a xlink:title=" ">
<polygon fill="white" stroke="#bfbfbf" points="0,-47.5 0,-66.5 125,-66.5 125,-47.5 0,-47.5"/>
<text text-anchor="middle" x="62.5" y="-54.5" font-family="Helvetica,sans-Serif" font-size="10.00">multi_index_container</text>
</a>
</g>
</g>
<!-- Node19&#45;&gt;Node14 -->
<g id="edge41" class="edge">
<title>Node19&#45;&gt;Node14</title>
<path fill="none" stroke="#9a32cd" stroke-dasharray="5,2" d="M135.41,-52.8C222.85,-48.06 374.95,-41 505.5,-41 505.5,-41 505.5,-41 1499.5,-41 1681.69,-41 1710.19,-171.13 1781,-339 1799.8,-383.57 1772.15,-733.76 1799,-774 1808.96,-788.93 1826.03,-798.4 1842.35,-804.35"/>
<polygon fill="#9a32cd" stroke="#9a32cd" points="135.12,-49.31 125.33,-53.35 135.51,-56.3 135.12,-49.31"/>
<text text-anchor="middle" x="961.5" y="-121" font-family="Helvetica,sans-Serif" font-size="10.00"> adjacenciesPtr</text>
<text text-anchor="middle" x="961.5" y="-110" font-family="Helvetica,sans-Serif" font-size="10.00">refinedEntitiesPtr</text>
<text text-anchor="middle" x="961.5" y="-99" font-family="Helvetica,sans-Serif" font-size="10.00">finiteElementsEntitiesPtr</text>
<text text-anchor="middle" x="961.5" y="-88" font-family="Helvetica,sans-Serif" font-size="10.00">dofsPtr</text>
<text text-anchor="middle" x="961.5" y="-77" font-family="Helvetica,sans-Serif" font-size="10.00">entitiesPtr</text>
<text text-anchor="middle" x="961.5" y="-66" font-family="Helvetica,sans-Serif" font-size="10.00">finiteElementsPtr</text>
<text text-anchor="middle" x="961.5" y="-55" font-family="Helvetica,sans-Serif" font-size="10.00">refinedFiniteElementsPtr</text>
<text text-anchor="middle" x="961.5" y="-44" font-family="Helvetica,sans-Serif" font-size="10.00">fieldsPtr</text>
</g>
<!-- Node19&#45;&gt;Node18 -->
<g id="edge18" class="edge">
<title>Node19&#45;&gt;Node18</title>
<path fill="none" stroke="orange" stroke-dasharray="5,2" d="M135.56,-67.6C203.25,-77.55 305.79,-92.63 385.77,-104.39"/>
<polygon fill="orange" stroke="orange" points="135.83,-64.1 125.42,-66.11 134.81,-71.02 135.83,-64.1"/>
<text text-anchor="start" x="143" y="-137" font-family="Helvetica,sans-Serif" font-size="10.00"> &lt; UIdTypeMap, indexed</text>
<text text-anchor="start" x="143" y="-126" font-family="Helvetica,sans-Serif" font-size="10.00">_by&lt; hashed_unique&lt; member</text>
<text text-anchor="start" x="143" y="-115" font-family="Helvetica,sans-Serif" font-size="10.00">&lt; UIdTypeMap, boost::typeindex</text>
<text text-anchor="middle" x="255.5" y="-104" font-family="Helvetica,sans-Serif" font-size="10.00">::type_index, &amp;UIdTypeMap::classIdx &gt; &gt; &gt; &gt;</text>
</g>
<!-- Node20 -->
<g id="node20" class="node">
<title>Node20</title>
<g id="a_node20"><a xlink:title=" ">
<polygon fill="white" stroke="#bfbfbf" points="738.5,-433.5 738.5,-452.5 879.5,-452.5 879.5,-433.5 738.5,-433.5"/>
<text text-anchor="middle" x="809" y="-440.5" font-family="Helvetica,sans-Serif" font-size="10.00">static constexpr Switches</text>
</a>
</g>
</g>
<!-- Node20&#45;&gt;Node16 -->
<g id="edge19" class="edge">
<title>Node20&#45;&gt;Node16</title>
<path fill="none" stroke="#9a32cd" stroke-dasharray="5,2" d="M889.72,-441.79C951.05,-440.87 1034.07,-439.61 1087.47,-438.8"/>
<polygon fill="#9a32cd" stroke="#9a32cd" points="889.63,-438.29 879.69,-441.95 889.74,-445.29 889.63,-438.29"/>
<text text-anchor="middle" x="961.5" y="-522" font-family="Helvetica,sans-Serif" font-size="10.00"> CtxSetX_TT</text>
<text text-anchor="middle" x="961.5" y="-511" font-family="Helvetica,sans-Serif" font-size="10.00">CtxSetX_T</text>
<text text-anchor="middle" x="961.5" y="-500" font-family="Helvetica,sans-Serif" font-size="10.00">CtxSetA</text>
<text text-anchor="middle" x="961.5" y="-489" font-family="Helvetica,sans-Serif" font-size="10.00">CtxSetB</text>
<text text-anchor="middle" x="961.5" y="-478" font-family="Helvetica,sans-Serif" font-size="10.00">CtxSetTime</text>
<text text-anchor="middle" x="961.5" y="-467" font-family="Helvetica,sans-Serif" font-size="10.00">CtxSetNone</text>
<text text-anchor="middle" x="961.5" y="-456" font-family="Helvetica,sans-Serif" font-size="10.00">CtxSetF</text>
<text text-anchor="middle" x="961.5" y="-445" font-family="Helvetica,sans-Serif" font-size="10.00">CtxSetX</text>
</g>
<!-- Node21 -->
<g id="node21" class="node">
<title>Node21</title>
<g id="a_node21"><a xlink:title=" ">
<polygon fill="white" stroke="#bfbfbf" points="791.5,-282.5 791.5,-301.5 826.5,-301.5 826.5,-282.5 791.5,-282.5"/>
<text text-anchor="middle" x="809" y="-289.5" font-family="Helvetica,sans-Serif" font-size="10.00">Mat</text>
</a>
</g>
</g>
<!-- Node21&#45;&gt;Node15 -->
<g id="edge25" class="edge">
<title>Node21&#45;&gt;Node15</title>
<path fill="none" stroke="#9a32cd" stroke-dasharray="5,2" d="M836.63,-289.83C941.62,-281.92 1324.65,-259.46 1397,-346 1445.45,-403.95 1364.89,-458.48 1415,-515 1422.02,-522.92 1431.62,-527.89 1441.79,-530.94"/>
<polygon fill="#9a32cd" stroke="#9a32cd" points="836.26,-286.35 826.56,-290.61 836.8,-293.33 836.26,-286.35"/>
<text text-anchor="middle" x="1141.5" y="-306" font-family="Helvetica,sans-Serif" font-size="10.00"> ksp_A</text>
<text text-anchor="middle" x="1141.5" y="-295" font-family="Helvetica,sans-Serif" font-size="10.00">ksp_B</text>
</g>
<!-- Node21&#45;&gt;Node16 -->
<g id="edge20" class="edge">
<title>Node21&#45;&gt;Node16</title>
<path fill="none" stroke="#9a32cd" stroke-dasharray="5,2" d="M835.26,-306.27C853.32,-316.23 878.34,-329.57 901,-340 953.55,-364.2 976.7,-352.01 1022,-388 1033,-396.74 1028.4,-406.07 1040,-414 1053.92,-423.52 1071.17,-429.28 1087.42,-432.77"/>
<polygon fill="#9a32cd" stroke="#9a32cd" points="836.94,-303.2 826.5,-301.39 833.54,-309.31 836.94,-303.2"/>
<text text-anchor="middle" x="961.5" y="-402" font-family="Helvetica,sans-Serif" font-size="10.00"> A</text>
<text text-anchor="middle" x="961.5" y="-391" font-family="Helvetica,sans-Serif" font-size="10.00">B</text>
</g>
<!-- Node21&#45;&gt;Node26 -->
<g id="edge30" class="edge">
<title>Node21&#45;&gt;Node26</title>
<path fill="none" stroke="#9a32cd" stroke-dasharray="5,2" d="M830.86,-275.92C869.51,-247.26 956,-188.35 1040,-167 1194.69,-127.68 1256.93,-129.48 1397,-206 1437.88,-228.34 1474.8,-271.18 1490.06,-290.34"/>
<polygon fill="#9a32cd" stroke="#9a32cd" points="828.4,-273.39 822.51,-282.2 832.61,-278.99 828.4,-273.39"/>
<text text-anchor="middle" x="1141.5" y="-181" font-family="Helvetica,sans-Serif" font-size="10.00"> snes_A</text>
<text text-anchor="middle" x="1141.5" y="-170" font-family="Helvetica,sans-Serif" font-size="10.00">snes_B</text>
</g>
<!-- Node21&#45;&gt;Node29 -->
<g id="edge35" class="edge">
<title>Node21&#45;&gt;Node29</title>
<path fill="none" stroke="#9a32cd" stroke-dasharray="5,2" d="M836.8,-291.54C879.44,-292.06 963.84,-298.25 1022,-336 1033.48,-343.45 1028.41,-353.71 1040,-361 1117.58,-409.76 1167.14,-345.61 1243,-397 1255.56,-405.51 1250.81,-414.76 1261,-426 1312.12,-482.36 1345.32,-474.15 1397,-530 1420.2,-555.07 1474.37,-645.72 1491.91,-675.47"/>
<polygon fill="#9a32cd" stroke="#9a32cd" points="836.67,-288.04 826.66,-291.52 836.65,-295.04 836.67,-288.04"/>
<text text-anchor="middle" x="1141.5" y="-411" font-family="Helvetica,sans-Serif" font-size="10.00"> ts_A</text>
<text text-anchor="middle" x="1141.5" y="-400" font-family="Helvetica,sans-Serif" font-size="10.00">ts_B</text>
</g>
<!-- Node22 -->
<g id="node22" class="node">
<title>Node22</title>
<g id="a_node22"><a xlink:title=" ">
<polygon fill="white" stroke="#bfbfbf" points="772.5,-395.5 772.5,-414.5 845.5,-414.5 845.5,-395.5 772.5,-395.5"/>
<text text-anchor="middle" x="809" y="-402.5" font-family="Helvetica,sans-Serif" font-size="10.00">bitset&lt; 8 &gt;</text>
</a>
</g>
</g>
<!-- Node22&#45;&gt;Node16 -->
<g id="edge21" class="edge">
<title>Node22&#45;&gt;Node16</title>
<path fill="none" stroke="#9a32cd" stroke-dasharray="5,2" d="M855.79,-409.12C898.74,-413.03 964.75,-419.16 1022,-425 1043.41,-427.18 1066.99,-429.74 1087.43,-432"/>
<polygon fill="#9a32cd" stroke="#9a32cd" points="855.93,-405.62 845.65,-408.2 855.29,-412.59 855.93,-405.62"/>
<text text-anchor="middle" x="961.5" y="-428" font-family="Helvetica,sans-Serif" font-size="10.00"> data_ctx</text>
</g>
<!-- Node23 -->
<g id="node23" class="node">
<title>Node23</title>
<g id="a_node23"><a xlink:title=" ">
<polygon fill="white" stroke="#bfbfbf" points="792,-613.5 792,-632.5 826,-632.5 826,-613.5 792,-613.5"/>
<text text-anchor="middle" x="809" y="-620.5" font-family="Helvetica,sans-Serif" font-size="10.00">Vec</text>
</a>
</g>
</g>
<!-- Node23&#45;&gt;Node15 -->
<g id="edge26" class="edge">
<title>Node23&#45;&gt;Node15</title>
<path fill="none" stroke="#9a32cd" stroke-dasharray="5,2" d="M835.86,-630.73C878.16,-641.75 963.29,-657.04 1022,-622 1036.35,-613.44 1026.17,-598.37 1040,-589 1040.52,-588.65 1320.16,-555.19 1441.93,-540.64"/>
<polygon fill="#9a32cd" stroke="#9a32cd" points="836.64,-627.31 826.08,-628.05 834.8,-634.07 836.64,-627.31"/>
<text text-anchor="middle" x="1141.5" y="-592" font-family="Helvetica,sans-Serif" font-size="10.00"> ksp_f</text>
</g>
<!-- Node23&#45;&gt;Node16 -->
<g id="edge22" class="edge">
<title>Node23&#45;&gt;Node16</title>
<path fill="none" stroke="#9a32cd" stroke-dasharray="5,2" d="M827.12,-605.79C844.29,-589.57 872.24,-565.9 901,-553 950.94,-530.59 981.94,-567.31 1022,-530 1044.88,-508.69 1017.63,-483.84 1040,-462 1052.58,-449.72 1070.26,-443.33 1087.28,-440.11"/>
<polygon fill="#9a32cd" stroke="#9a32cd" points="824.35,-603.6 819.61,-613.07 829.22,-608.62 824.35,-603.6"/>
<text text-anchor="middle" x="961.5" y="-589" font-family="Helvetica,sans-Serif" font-size="10.00"> f</text>
<text text-anchor="middle" x="961.5" y="-578" font-family="Helvetica,sans-Serif" font-size="10.00">x</text>
<text text-anchor="middle" x="961.5" y="-567" font-family="Helvetica,sans-Serif" font-size="10.00">x_t</text>
<text text-anchor="middle" x="961.5" y="-556" font-family="Helvetica,sans-Serif" font-size="10.00">x_tt</text>
</g>
<!-- Node23&#45;&gt;Node26 -->
<g id="edge31" class="edge">
<title>Node23&#45;&gt;Node26</title>
<path fill="none" stroke="#9a32cd" stroke-dasharray="5,2" d="M836.5,-623.53C887.36,-623.95 995.91,-621.83 1022,-597 1055.98,-564.66 1006.9,-526.24 1040,-493 1104.66,-428.07 1155.06,-482.74 1243,-457 1314.14,-436.18 1334.61,-433.01 1397,-393 1435.62,-368.23 1473.13,-327.95 1489.25,-309.62"/>
<polygon fill="#9a32cd" stroke="#9a32cd" points="836.34,-620.02 826.3,-623.4 836.25,-627.02 836.34,-620.02"/>
<text text-anchor="middle" x="1141.5" y="-507" font-family="Helvetica,sans-Serif" font-size="10.00"> snes_x</text>
<text text-anchor="middle" x="1141.5" y="-496" font-family="Helvetica,sans-Serif" font-size="10.00">snes_f</text>
</g>
<!-- Node23&#45;&gt;Node29 -->
<g id="edge39" class="edge">
<title>Node23&#45;&gt;Node29</title>
<path fill="none" stroke="#9a32cd" stroke-dasharray="5,2" d="M835.68,-632.34C853.7,-638.47 878.51,-646.06 901,-650 953.69,-659.23 1308.66,-676.31 1444.64,-682.59"/>
<polygon fill="#9a32cd" stroke="#9a32cd" points="836.76,-629.01 826.17,-629.03 834.46,-635.62 836.76,-629.01"/>
<text text-anchor="middle" x="1141.5" y="-709" font-family="Helvetica,sans-Serif" font-size="10.00"> ts_u</text>
<text text-anchor="middle" x="1141.5" y="-698" font-family="Helvetica,sans-Serif" font-size="10.00">ts_F</text>
<text text-anchor="middle" x="1141.5" y="-687" font-family="Helvetica,sans-Serif" font-size="10.00">ts_u_t</text>
<text text-anchor="middle" x="1141.5" y="-676" font-family="Helvetica,sans-Serif" font-size="10.00">ts_u_tt</text>
</g>
<!-- Node24 -->
<g id="node24" class="node">
<title>Node24</title>
<g id="a_node24"><a xlink:title=" ">
<polygon fill="white" stroke="#bfbfbf" points="1124,-332.5 1124,-351.5 1159,-351.5 1159,-332.5 1124,-332.5"/>
<text text-anchor="middle" x="1141.5" y="-339.5" font-family="Helvetica,sans-Serif" font-size="10.00">KSP</text>
</a>
</g>
</g>
<!-- Node24&#45;&gt;Node15 -->
<g id="edge23" class="edge">
<title>Node24&#45;&gt;Node15</title>
<path fill="none" stroke="#9a32cd" stroke-dasharray="5,2" d="M1169.17,-340.98C1221.57,-340.57 1337.97,-347.76 1397,-415 1426.79,-448.94 1383.85,-482.31 1415,-515 1422.2,-522.55 1431.75,-527.38 1441.8,-530.41"/>
<polygon fill="#9a32cd" stroke="#9a32cd" points="1168.94,-337.49 1159,-341.17 1169.07,-344.49 1168.94,-337.49"/>
<text text-anchor="middle" x="1329" y="-418" font-family="Helvetica,sans-Serif" font-size="10.00"> ksp</text>
</g>
<!-- Node25 -->
<g id="node25" class="node">
<title>Node25</title>
<g id="a_node25"><a xlink:title=" ">
<polygon fill="white" stroke="#bfbfbf" points="1104.5,-524.5 1104.5,-543.5 1178.5,-543.5 1178.5,-524.5 1104.5,-524.5"/>
<text text-anchor="middle" x="1141.5" y="-531.5" font-family="Helvetica,sans-Serif" font-size="10.00">KSPContext</text>
</a>
</g>
</g>
<!-- Node25&#45;&gt;Node15 -->
<g id="edge24" class="edge">
<title>Node25&#45;&gt;Node15</title>
<path fill="none" stroke="#9a32cd" stroke-dasharray="5,2" d="M1189.19,-534C1254.3,-534 1372.2,-534 1441.81,-534"/>
<polygon fill="#9a32cd" stroke="#9a32cd" points="1188.82,-530.5 1178.82,-534 1188.82,-537.5 1188.82,-530.5"/>
<text text-anchor="middle" x="1329" y="-537" font-family="Helvetica,sans-Serif" font-size="10.00"> ksp_ctx</text>
</g>
<!-- Node26&#45;&gt;Node14 -->
<g id="edge27" class="edge">
<title>Node26&#45;&gt;Node14</title>
<path fill="none" stroke="midnightblue" d="M1537.89,-313.12C1601.26,-337.05 1726.2,-394.33 1781,-490 1812.43,-544.87 1763.33,-721.79 1799,-774 1809.22,-788.96 1826.53,-798.44 1842.96,-804.4"/>
<polygon fill="midnightblue" stroke="midnightblue" points="1538.86,-309.75 1528.26,-309.56 1536.43,-316.31 1538.86,-309.75"/>
</g>
<!-- Node27 -->
<g id="node27" class="node">
<title>Node27</title>
<g id="a_node27"><a xlink:title=" ">
<polygon fill="white" stroke="#bfbfbf" points="1120.5,-198.5 1120.5,-217.5 1162.5,-217.5 1162.5,-198.5 1120.5,-198.5"/>
<text text-anchor="middle" x="1141.5" y="-205.5" font-family="Helvetica,sans-Serif" font-size="10.00">SNES</text>
</a>
</g>
</g>
<!-- Node27&#45;&gt;Node26 -->
<g id="edge29" class="edge">
<title>Node27&#45;&gt;Node26</title>
<path fill="none" stroke="#9a32cd" stroke-dasharray="5,2" d="M1172.83,-206.96C1221.55,-206.25 1319.62,-208.77 1397,-236 1432.71,-248.56 1468.72,-275.87 1486.36,-290.42"/>
<polygon fill="#9a32cd" stroke="#9a32cd" points="1172.58,-203.47 1162.65,-207.17 1172.72,-210.47 1172.58,-203.47"/>
<text text-anchor="middle" x="1329" y="-239" font-family="Helvetica,sans-Serif" font-size="10.00"> snes</text>
</g>
<!-- Node28 -->
<g id="node28" class="node">
<title>Node28</title>
<g id="a_node28"><a xlink:title=" ">
<polygon fill="white" stroke="#bfbfbf" points="1101.5,-236.5 1101.5,-255.5 1181.5,-255.5 1181.5,-236.5 1101.5,-236.5"/>
<text text-anchor="middle" x="1141.5" y="-243.5" font-family="Helvetica,sans-Serif" font-size="10.00">SNESContext</text>
</a>
</g>
</g>
<!-- Node28&#45;&gt;Node26 -->
<g id="edge32" class="edge">
<title>Node28&#45;&gt;Node26</title>
<path fill="none" stroke="#9a32cd" stroke-dasharray="5,2" d="M1191.91,-246.65C1243.54,-248.13 1326.67,-252.76 1397,-267 1423.82,-272.43 1453.46,-282.72 1473.56,-290.37"/>
<polygon fill="#9a32cd" stroke="#9a32cd" points="1191.79,-243.15 1181.7,-246.39 1191.61,-250.15 1191.79,-243.15"/>
<text text-anchor="middle" x="1329" y="-270" font-family="Helvetica,sans-Serif" font-size="10.00"> snes_ctx</text>
</g>
<!-- Node29&#45;&gt;Node14 -->
<g id="edge33" class="edge">
<title>Node29&#45;&gt;Node14</title>
<path fill="none" stroke="midnightblue" d="M1537.98,-697.88C1615.34,-723.76 1788.1,-781.58 1856.41,-804.43"/>
<polygon fill="midnightblue" stroke="midnightblue" points="1538.75,-694.44 1528.16,-694.59 1536.53,-701.08 1538.75,-694.44"/>
</g>
<!-- Node30 -->
<g id="node30" class="node">
<title>Node30</title>
<g id="a_node30"><a xlink:title=" ">
<polygon fill="white" stroke="#bfbfbf" points="1109,-609.5 1109,-628.5 1174,-628.5 1174,-609.5 1109,-609.5"/>
<text text-anchor="middle" x="1141.5" y="-616.5" font-family="Helvetica,sans-Serif" font-size="10.00">PetscReal</text>
</a>
</g>
</g>
<!-- Node30&#45;&gt;Node29 -->
<g id="edge36" class="edge">
<title>Node30&#45;&gt;Node29</title>
<path fill="none" stroke="#9a32cd" stroke-dasharray="5,2" d="M1184.34,-611.81C1235.65,-604.6 1324.72,-597.39 1397,-619 1434.2,-630.12 1470.4,-659.92 1487.41,-675.39"/>
<polygon fill="#9a32cd" stroke="#9a32cd" points="1183.67,-608.37 1174.29,-613.29 1184.69,-615.29 1183.67,-608.37"/>
<text text-anchor="middle" x="1329" y="-655" font-family="Helvetica,sans-Serif" font-size="10.00"> ts_a</text>
<text text-anchor="middle" x="1329" y="-644" font-family="Helvetica,sans-Serif" font-size="10.00">ts_t</text>
<text text-anchor="middle" x="1329" y="-633" font-family="Helvetica,sans-Serif" font-size="10.00">ts_dt</text>
<text text-anchor="middle" x="1329" y="-622" font-family="Helvetica,sans-Serif" font-size="10.00">ts_aa</text>
</g>
<!-- Node31 -->
<g id="node31" class="node">
<title>Node31</title>
<g id="a_node31"><a xlink:title=" ">
<polygon fill="white" stroke="#bfbfbf" points="1108,-803.5 1108,-822.5 1175,-822.5 1175,-803.5 1108,-803.5"/>
<text text-anchor="middle" x="1141.5" y="-810.5" font-family="Helvetica,sans-Serif" font-size="10.00">TSContext</text>
</a>
</g>
</g>
<!-- Node31&#45;&gt;Node29 -->
<g id="edge37" class="edge">
<title>Node31&#45;&gt;Node29</title>
<path fill="none" stroke="#9a32cd" stroke-dasharray="5,2" d="M1184.94,-809.8C1203.44,-807.2 1224.98,-802.5 1243,-794 1252.42,-789.56 1251.54,-783.35 1261,-779 1316.69,-753.38 1340.45,-779.68 1397,-756 1406.1,-752.19 1406.96,-748.73 1415,-743 1439.1,-725.83 1467.33,-706.05 1483.74,-694.59"/>
<polygon fill="#9a32cd" stroke="#9a32cd" points="1184.51,-806.32 1175.01,-811.03 1185.37,-813.27 1184.51,-806.32"/>
<text text-anchor="middle" x="1329" y="-782" font-family="Helvetica,sans-Serif" font-size="10.00"> ts_ctx</text>
</g>
<!-- Node32 -->
<g id="node32" class="node">
<title>Node32</title>
<g id="a_node32"><a xlink:title=" ">
<polygon fill="white" stroke="#bfbfbf" points="1113.5,-765.5 1113.5,-784.5 1169.5,-784.5 1169.5,-765.5 1113.5,-765.5"/>
<text text-anchor="middle" x="1141.5" y="-772.5" font-family="Helvetica,sans-Serif" font-size="10.00">PetscInt</text>
</a>
</g>
</g>
<!-- Node32&#45;&gt;Node29 -->
<g id="edge38" class="edge">
<title>Node32&#45;&gt;Node29</title>
<path fill="none" stroke="#9a32cd" stroke-dasharray="5,2" d="M1179.63,-771.24C1198.99,-768.47 1222.77,-763.79 1243,-756 1251.75,-752.63 1252.22,-748.29 1261,-745 1318.42,-723.52 1337.76,-737.77 1397,-722 1424.49,-714.68 1455.02,-702.9 1475.13,-694.6"/>
<polygon fill="#9a32cd" stroke="#9a32cd" points="1179.13,-767.77 1169.68,-772.55 1180.05,-774.71 1179.13,-767.77"/>
<text text-anchor="middle" x="1329" y="-748" font-family="Helvetica,sans-Serif" font-size="10.00"> ts_step</text>
</g>
<!-- Node33 -->
<g id="node33" class="node">
<title>Node33</title>
<g id="a_node33"><a xlink:title=" ">
<polygon fill="white" stroke="#bfbfbf" points="1127,-727.5 1127,-746.5 1156,-746.5 1156,-727.5 1127,-727.5"/>
<text text-anchor="middle" x="1141.5" y="-734.5" font-family="Helvetica,sans-Serif" font-size="10.00">TS</text>
</a>
</g>
</g>
<!-- Node33&#45;&gt;Node29 -->
<g id="edge40" class="edge">
<title>Node33&#45;&gt;Node29</title>
<path fill="none" stroke="#9a32cd" stroke-dasharray="5,2" d="M1166.16,-731.03C1189.98,-725.2 1227.84,-716.45 1261,-711 1323.77,-700.69 1396.6,-693.38 1444.68,-689.18"/>
<polygon fill="#9a32cd" stroke="#9a32cd" points="1165.14,-727.68 1156.27,-733.48 1166.82,-734.47 1165.14,-727.68"/>
<text text-anchor="middle" x="1329" y="-714" font-family="Helvetica,sans-Serif" font-size="10.00"> ts</text>
</g>
<!-- Node34 -->
<g id="node34" class="node">
<title>Node34</title>
<g id="a_node34"><a xlink:title=" ">
<polygon fill="white" stroke="#bfbfbf" points="1454,-486.5 1454,-505.5 1543,-505.5 1543,-486.5 1454,-486.5"/>
<text text-anchor="middle" x="1498.5" y="-493.5" font-family="Helvetica,sans-Serif" font-size="10.00">pair&lt; int, int &gt;</text>
</a>
</g>
</g>
<!-- Node34&#45;&gt;Node14 -->
<g id="edge42" class="edge">
<title>Node34&#45;&gt;Node14</title>
<path fill="none" stroke="#9a32cd" stroke-dasharray="5,2" d="M1553.2,-492.31C1618.01,-491.11 1725.21,-500.18 1781,-566 1811,-601.39 1772.39,-736 1799,-774 1809.48,-788.97 1827.04,-798.48 1843.57,-804.45"/>
<polygon fill="#9a32cd" stroke="#9a32cd" points="1553.08,-488.81 1543.17,-492.58 1553.27,-495.81 1553.08,-488.81"/>
<text text-anchor="middle" x="1690.5" y="-569" font-family="Helvetica,sans-Serif" font-size="10.00"> loHiFERank</text>
</g>
<!-- Node35 -->
<g id="node35" class="node">
<title>Node35</title>
<g id="a_node35"><a xlink:title=" ">
<polygon fill="white" stroke="#bfbfbf" points="1428.5,-965.5 1428.5,-984.5 1568.5,-984.5 1568.5,-965.5 1428.5,-965.5"/>
<text text-anchor="middle" x="1498.5" y="-972.5" font-family="Helvetica,sans-Serif" font-size="10.00">weak_ptr&lt; CacheTuple &gt;</text>
</a>
</g>
</g>
<!-- Node35&#45;&gt;Node14 -->
<g id="edge43" class="edge">
<title>Node35&#45;&gt;Node14</title>
<path fill="none" stroke="#9a32cd" stroke-dasharray="5,2" d="M1578.8,-979.39C1651.69,-981.6 1752.61,-979.45 1781,-953 1820.46,-916.24 1762.19,-872.42 1799,-833 1805.89,-825.62 1814.94,-820.79 1824.58,-817.67"/>
<polygon fill="#9a32cd" stroke="#9a32cd" points="1578.82,-975.89 1568.71,-979.05 1578.58,-982.88 1578.82,-975.89"/>
<text text-anchor="middle" x="1690.5" y="-984" font-family="Helvetica,sans-Serif" font-size="10.00"> cacheWeakPtr</text>
</g>
<!-- Node36 -->
<g id="node36" class="node">
<title>Node36</title>
<g id="a_node36"><a xlink:title=" ">
<polygon fill="white" stroke="#bfbfbf" points="1442.5,-920.5 1442.5,-939.5 1554.5,-939.5 1554.5,-920.5 1442.5,-920.5"/>
<text text-anchor="middle" x="1498.5" y="-927.5" font-family="Helvetica,sans-Serif" font-size="10.00">unique_ptr&lt; bool &gt;</text>
</a>
</g>
</g>
<!-- Node36&#45;&gt;Node14 -->
<g id="edge44" class="edge">
<title>Node36&#45;&gt;Node14</title>
<path fill="none" stroke="#9a32cd" stroke-dasharray="5,2" d="M1564.99,-928.88C1643.03,-926.93 1764.94,-921.71 1781,-908 1807.07,-885.74 1774.54,-857.02 1799,-833 1806.09,-826.04 1815.13,-821.38 1824.66,-818.32"/>
<polygon fill="#9a32cd" stroke="#9a32cd" points="1564.68,-925.38 1554.76,-929.12 1564.84,-932.38 1564.68,-925.38"/>
<text text-anchor="middle" x="1690.5" y="-942" font-family="Helvetica,sans-Serif" font-size="10.00"> matAssembleSwitch</text>
<text text-anchor="middle" x="1690.5" y="-931" font-family="Helvetica,sans-Serif" font-size="10.00">vecAssembleSwitch</text>
</g>
<!-- Node37 -->
<g id="node37" class="node">
<title>Node37</title>
<g id="a_node37"><a xlink:title=" ">
<polygon fill="white" stroke="#bfbfbf" points="1127,-1020.5 1127,-1039.5 1156,-1039.5 1156,-1020.5 1127,-1020.5"/>
<text text-anchor="middle" x="1141.5" y="-1027.5" font-family="Helvetica,sans-Serif" font-size="10.00">int</text>
</a>
</g>
</g>
<!-- Node37&#45;&gt;Node14 -->
<g id="edge45" class="edge">
<title>Node37&#45;&gt;Node14</title>
<path fill="none" stroke="#9a32cd" stroke-dasharray="5,2" d="M1161.26,-1013.82C1212.89,-969.66 1357.12,-849.06 1415,-829 1555.19,-780.4 1733.22,-793.25 1824.7,-804.79"/>
<polygon fill="#9a32cd" stroke="#9a32cd" points="1158.84,-1011.28 1153.53,-1020.45 1163.39,-1016.6 1158.84,-1011.28"/>
<text text-anchor="middle" x="1498.5" y="-865" font-family="Helvetica,sans-Serif" font-size="10.00"> sIze</text>
<text text-anchor="middle" x="1498.5" y="-854" font-family="Helvetica,sans-Serif" font-size="10.00">loopSize</text>
<text text-anchor="middle" x="1498.5" y="-843" font-family="Helvetica,sans-Serif" font-size="10.00">nInTheLoop</text>
<text text-anchor="middle" x="1498.5" y="-832" font-family="Helvetica,sans-Serif" font-size="10.00">rAnk</text>
</g>
<!-- Node37&#45;&gt;Node39 -->
<g id="edge57" class="edge">
<title>Node37&#45;&gt;Node39</title>
<path fill="none" stroke="#9a32cd" stroke-dasharray="5,2" d="M1166.27,-1034.46C1215.4,-1044.81 1329.17,-1074.79 1397,-1141 1460.93,-1203.4 1488.53,-1314.27 1495.59,-1347.4"/>
<polygon fill="#9a32cd" stroke="#9a32cd" points="1166.78,-1030.99 1156.28,-1032.44 1165.39,-1037.85 1166.78,-1030.99"/>
<text text-anchor="middle" x="1329" y="-1210" font-family="Helvetica,sans-Serif" font-size="10.00"> tagNameSize</text>
<text text-anchor="middle" x="1329" y="-1199" font-family="Helvetica,sans-Serif" font-size="10.00">nbDofsRow</text>
<text text-anchor="middle" x="1329" y="-1188" font-family="Helvetica,sans-Serif" font-size="10.00">nbLocDofsCol</text>
<text text-anchor="middle" x="1329" y="-1177" font-family="Helvetica,sans-Serif" font-size="10.00">nbDofsCol</text>
<text text-anchor="middle" x="1329" y="-1166" font-family="Helvetica,sans-Serif" font-size="10.00">nbGhostDofsRow</text>
<text text-anchor="middle" x="1329" y="-1155" font-family="Helvetica,sans-Serif" font-size="10.00">nbGhostDofsCol</text>
<text text-anchor="middle" x="1329" y="-1144" font-family="Helvetica,sans-Serif" font-size="10.00">nbLocDofsRow</text>
</g>
<!-- Node38 -->
<g id="node38" class="node">
<title>Node38</title>
<g id="a_node38"><a xlink:title=" ">
<polygon fill="white" stroke="#bfbfbf" points="1415,-882.5 1415,-901.5 1582,-901.5 1582,-882.5 1415,-882.5"/>
<text text-anchor="middle" x="1498.5" y="-889.5" font-family="Helvetica,sans-Serif" font-size="10.00">function&lt; MoFEMErrorCode()&gt;</text>
</a>
</g>
</g>
<!-- Node38&#45;&gt;Node14 -->
<g id="edge46" class="edge">
<title>Node38&#45;&gt;Node14</title>
<path fill="none" stroke="#9a32cd" stroke-dasharray="5,2" d="M1556.7,-880.43C1633.11,-864.97 1767.07,-837.86 1837.95,-823.52"/>
<polygon fill="#9a32cd" stroke="#9a32cd" points="1555.88,-877.02 1546.77,-882.44 1557.27,-883.88 1555.88,-877.02"/>
<text text-anchor="middle" x="1690.5" y="-897" font-family="Helvetica,sans-Serif" font-size="10.00"> preProcessHook</text>
<text text-anchor="middle" x="1690.5" y="-886" font-family="Helvetica,sans-Serif" font-size="10.00">operatorHook</text>
<text text-anchor="middle" x="1690.5" y="-875" font-family="Helvetica,sans-Serif" font-size="10.00">postProcessHook</text>
</g>
<!-- Node39&#45;&gt;Node14 -->
<g id="edge47" class="edge">
<title>Node39&#45;&gt;Node14</title>
<path fill="none" stroke="#9a32cd" stroke-dasharray="5,2" d="M1517.91,-1340.55C1569.91,-1292.85 1718.18,-1147.96 1781,-993 1794.44,-959.84 1775.07,-859.6 1799,-833 1805.85,-825.38 1815.01,-820.45 1824.79,-817.32"/>
<polygon fill="#9a32cd" stroke="#9a32cd" points="1515.47,-1338.04 1510.42,-1347.36 1520.17,-1343.22 1515.47,-1338.04"/>
<text text-anchor="middle" x="1690.5" y="-1257" font-family="Helvetica,sans-Serif" font-size="10.00"> problemPtr</text>
</g>
<!-- Node40 -->
<g id="node40" class="node">
<title>Node40</title>
<g id="a_node40"><a xlink:title=" ">
<polygon fill="white" stroke="#bfbfbf" points="1058,-1600 1058,-1630 1225,-1630 1225,-1600 1058,-1600"/>
<text text-anchor="start" x="1066" y="-1618" font-family="Helvetica,sans-Serif" font-size="10.00">shared_ptr&lt; NumeredEntFinite</text>
<text text-anchor="middle" x="1141.5" y="-1607" font-family="Helvetica,sans-Serif" font-size="10.00">Element_multiIndex &gt;</text>
</a>
</g>
</g>
<!-- Node40&#45;&gt;Node39 -->
<g id="edge48" class="edge">
<title>Node40&#45;&gt;Node39</title>
<path fill="none" stroke="#9a32cd" stroke-dasharray="5,2" d="M1235.43,-1625.84C1287.59,-1627.03 1351.2,-1619.77 1397,-1586 1473.18,-1529.83 1492.49,-1403.26 1496.55,-1366.93"/>
<polygon fill="#9a32cd" stroke="#9a32cd" points="1235.27,-1622.33 1225.16,-1625.49 1235.03,-1629.33 1235.27,-1622.33"/>
<text text-anchor="middle" x="1329" y="-1628" font-family="Helvetica,sans-Serif" font-size="10.00"> numeredFiniteElementsPtr</text>
</g>
<!-- Node41 -->
<g id="node41" class="node">
<title>Node41</title>
<g id="a_node41"><a xlink:title=" ">
<polygon fill="white" stroke="#bfbfbf" points="1112,-1561.5 1112,-1580.5 1171,-1580.5 1171,-1561.5 1112,-1561.5"/>
<text text-anchor="middle" x="1141.5" y="-1568.5" font-family="Helvetica,sans-Serif" font-size="10.00">BitFEId *</text>
</a>
</g>
</g>
<!-- Node41&#45;&gt;Node39 -->
<g id="edge49" class="edge">
<title>Node41&#45;&gt;Node39</title>
<path fill="none" stroke="#9a32cd" stroke-dasharray="5,2" d="M1181.25,-1572.09C1243.59,-1573.12 1362.63,-1571.89 1397,-1549 1464.33,-1504.17 1489.45,-1399.22 1495.77,-1366.75"/>
<polygon fill="#9a32cd" stroke="#9a32cd" points="1181.09,-1568.58 1171.03,-1571.89 1180.96,-1575.58 1181.09,-1568.58"/>
<text text-anchor="middle" x="1329" y="-1574" font-family="Helvetica,sans-Serif" font-size="10.00"> tagBitFEId</text>
</g>
<!-- Node42 -->
<g id="node42" class="node">
<title>Node42</title>
<g id="a_node42"><a xlink:href="classEntityHandle.html" target="_top" xlink:title=" ">
<polygon fill="white" stroke="black" points="1101.5,-1101.5 1101.5,-1120.5 1181.5,-1120.5 1181.5,-1101.5 1101.5,-1101.5"/>
<text text-anchor="middle" x="1141.5" y="-1108.5" font-family="Helvetica,sans-Serif" font-size="10.00">EntityHandle</text>
</a>
</g>
</g>
<!-- Node42&#45;&gt;Node3 -->
<g id="edge90" class="edge">
<title>Node42&#45;&gt;Node3</title>
<path fill="none" stroke="#9a32cd" stroke-dasharray="5,2" d="M1191.93,-1109.73C1243.57,-1109.33 1326.7,-1111.3 1397,-1125 1745.61,-1192.95 1804.65,-1314.75 2153,-1384 2285.78,-1410.4 2321.63,-1403 2457,-1403 2457,-1403 2457,-1403 3193,-1403 3400.56,-1403 3516.18,-1100.43 3543.92,-1017.69"/>
<polygon fill="#9a32cd" stroke="#9a32cd" points="1191.67,-1106.23 1181.71,-1109.84 1191.75,-1113.23 1191.67,-1106.23"/>
<text text-anchor="middle" x="2458" y="-1406" font-family="Helvetica,sans-Serif" font-size="10.00"> zeroType</text>
</g>
<!-- Node42&#45;&gt;Node39 -->
<g id="edge50" class="edge">
<title>Node42&#45;&gt;Node39</title>
<path fill="none" stroke="#9a32cd" stroke-dasharray="5,2" d="M1156.22,-1128.57C1176.45,-1153.26 1216.71,-1197.87 1261,-1222 1315.71,-1251.81 1342.82,-1225.24 1397,-1256 1439.38,-1280.06 1476.05,-1326.9 1490.7,-1347.21"/>
<polygon fill="#9a32cd" stroke="#9a32cd" points="1158.92,-1126.34 1149.92,-1120.74 1153.46,-1130.73 1158.92,-1126.34"/>
<text text-anchor="middle" x="1329" y="-1259" font-family="Helvetica,sans-Serif" font-size="10.00"> meshset</text>
</g>
<!-- Node42&#45;&gt;Node77 -->
<g id="edge95" class="edge">
<title>Node42&#45;&gt;Node77</title>
<path fill="none" stroke="#9a32cd" stroke-dasharray="5,2" d="M1186.72,-1098.83C1253.49,-1081.56 1384.29,-1052 1497.5,-1052 1497.5,-1052 1497.5,-1052 2923,-1052 2987.17,-1052 3059.88,-1048.24 3113.35,-1044.76"/>
<polygon fill="#9a32cd" stroke="#9a32cd" points="1185.74,-1095.47 1176.95,-1101.39 1187.51,-1102.24 1185.74,-1095.47"/>
<text text-anchor="middle" x="2256" y="-1055" font-family="Helvetica,sans-Serif" font-size="10.00"> zeroType</text>
</g>
<!-- Node43 -->
<g id="node43" class="node">
<title>Node43</title>
<g id="a_node43"><a xlink:title=" ">
<polygon fill="white" stroke="#bfbfbf" points="1067,-1512 1067,-1542 1216,-1542 1216,-1512 1067,-1512"/>
<text text-anchor="start" x="1075" y="-1530" font-family="Helvetica,sans-Serif" font-size="10.00">shared_ptr&lt; MoFEM::</text>
<text text-anchor="middle" x="1141.5" y="-1519" font-family="Helvetica,sans-Serif" font-size="10.00">ComposedProblemsData &gt;</text>
</a>
</g>
</g>
<!-- Node43&#45;&gt;Node39 -->
<g id="edge51" class="edge">
<title>Node43&#45;&gt;Node39</title>
<path fill="none" stroke="#9a32cd" stroke-dasharray="5,2" d="M1226.36,-1537.27C1278.81,-1539.65 1345.89,-1534.96 1397,-1505 1453,-1472.17 1484.55,-1394.3 1494.24,-1366.81"/>
<polygon fill="#9a32cd" stroke="#9a32cd" points="1226.25,-1533.76 1216.07,-1536.71 1225.86,-1540.75 1226.25,-1533.76"/>
<text text-anchor="middle" x="1329" y="-1540" font-family="Helvetica,sans-Serif" font-size="10.00"> composedProblemsData</text>
</g>
<!-- Node44 -->
<g id="node44" class="node">
<title>Node44</title>
<g id="a_node44"><a xlink:title=" ">
<polygon fill="white" stroke="#bfbfbf" points="1101,-1473.5 1101,-1492.5 1182,-1492.5 1182,-1473.5 1101,-1473.5"/>
<text text-anchor="middle" x="1141.5" y="-1480.5" font-family="Helvetica,sans-Serif" font-size="10.00">BitRefLevel *</text>
</a>
</g>
</g>
<!-- Node44&#45;&gt;Node39 -->
<g id="edge52" class="edge">
<title>Node44&#45;&gt;Node39</title>
<path fill="none" stroke="#9a32cd" stroke-dasharray="5,2" d="M1192.24,-1485.28C1245.41,-1485.78 1330.99,-1480.9 1397,-1450 1439.2,-1430.25 1475.69,-1386.23 1490.48,-1366.68"/>
<polygon fill="#9a32cd" stroke="#9a32cd" points="1192.1,-1481.78 1182.05,-1485.12 1191.99,-1488.78 1192.1,-1481.78"/>
<text text-anchor="middle" x="1329" y="-1496" font-family="Helvetica,sans-Serif" font-size="10.00"> tagBitRefLevelMask</text>
<text text-anchor="middle" x="1329" y="-1485" font-family="Helvetica,sans-Serif" font-size="10.00">tagBitRefLevel</text>
</g>
<!-- Node45 -->
<g id="node45" class="node">
<title>Node45</title>
<g id="a_node45"><a xlink:title=" ">
<polygon fill="white" stroke="#bfbfbf" points="1056.5,-1424 1056.5,-1454 1226.5,-1454 1226.5,-1424 1056.5,-1424"/>
<text text-anchor="start" x="1064.5" y="-1442" font-family="Helvetica,sans-Serif" font-size="10.00">shared_ptr&lt; NumeredDofEntity</text>
<text text-anchor="middle" x="1141.5" y="-1431" font-family="Helvetica,sans-Serif" font-size="10.00">_multiIndex &gt;</text>
</a>
</g>
</g>
<!-- Node45&#45;&gt;Node39 -->
<g id="edge53" class="edge">
<title>Node45&#45;&gt;Node39</title>
<path fill="none" stroke="#9a32cd" stroke-dasharray="5,2" d="M1236.8,-1429.01C1285.25,-1422.57 1344.9,-1412.62 1397,-1398 1426.03,-1389.86 1458.03,-1375.88 1477.95,-1366.54"/>
<polygon fill="#9a32cd" stroke="#9a32cd" points="1236.1,-1425.57 1226.64,-1430.33 1237.01,-1432.51 1236.1,-1425.57"/>
<text text-anchor="middle" x="1329" y="-1438" font-family="Helvetica,sans-Serif" font-size="10.00"> numeredRowDofsPtr</text>
<text text-anchor="middle" x="1329" y="-1427" font-family="Helvetica,sans-Serif" font-size="10.00">numeredColDofsPtr</text>
</g>
<!-- Node46 -->
<g id="node46" class="node">
<title>Node46</title>
<g id="a_node46"><a xlink:title=" ">
<polygon fill="white" stroke="#bfbfbf" points="1072.5,-1385.5 1072.5,-1404.5 1210.5,-1404.5 1210.5,-1385.5 1072.5,-1385.5"/>
<text text-anchor="middle" x="1141.5" y="-1392.5" font-family="Helvetica,sans-Serif" font-size="10.00">vector&lt; BlockFieldPair &gt;</text>
</a>
</g>
</g>
<!-- Node46&#45;&gt;Node39 -->
<g id="edge55" class="edge">
<title>Node46&#45;&gt;Node39</title>
<path fill="none" stroke="#9a32cd" stroke-dasharray="5,2" d="M1220.78,-1387.94C1271.15,-1383.24 1337.99,-1376.71 1397,-1370 1413.96,-1368.07 1432.49,-1365.74 1448.97,-1363.58"/>
<polygon fill="#9a32cd" stroke="#9a32cd" points="1220.25,-1384.47 1210.61,-1388.88 1220.89,-1391.44 1220.25,-1384.47"/>
<text text-anchor="middle" x="1329" y="-1386" font-family="Helvetica,sans-Serif" font-size="10.00"> emptyFieldBlocks</text>
</g>
<!-- Node47 -->
<g id="node47" class="node">
<title>Node47</title>
<g id="a_node47"><a xlink:title=" ">
<polygon fill="white" stroke="#bfbfbf" points="1063.5,-1336 1063.5,-1366 1219.5,-1366 1219.5,-1336 1063.5,-1336"/>
<text text-anchor="start" x="1071.5" y="-1354" font-family="Helvetica,sans-Serif" font-size="10.00">shared_ptr&lt; MoFEM::</text>
<text text-anchor="middle" x="1141.5" y="-1343" font-family="Helvetica,sans-Serif" font-size="10.00">Problem::SubProblemData &gt;</text>
</a>
</g>
</g>
<!-- Node47&#45;&gt;Node39 -->
<g id="edge56" class="edge">
<title>Node47&#45;&gt;Node39</title>
<path fill="none" stroke="#9a32cd" stroke-dasharray="5,2" d="M1229.53,-1352.47C1298.61,-1353.64 1392.64,-1355.23 1448.98,-1356.18"/>
<polygon fill="#9a32cd" stroke="#9a32cd" points="1229.59,-1348.97 1219.53,-1352.3 1229.47,-1355.97 1229.59,-1348.97"/>
<text text-anchor="middle" x="1329" y="-1358" font-family="Helvetica,sans-Serif" font-size="10.00"> subProblemData</text>
</g>
<!-- Node48 -->
<g id="node48" class="node">
<title>Node48</title>
<g id="a_node48"><a xlink:title=" ">
<polygon fill="white" stroke="#bfbfbf" points="1040,-1297.5 1040,-1316.5 1243,-1316.5 1243,-1297.5 1040,-1297.5"/>
<text text-anchor="middle" x="1141.5" y="-1304.5" font-family="Helvetica,sans-Serif" font-size="10.00">shared_ptr&lt; SequenceDofContainer &gt;</text>
</a>
</g>
</g>
<!-- Node48&#45;&gt;Node39 -->
<g id="edge58" class="edge">
<title>Node48&#45;&gt;Node39</title>
<path fill="none" stroke="#9a32cd" stroke-dasharray="5,2" d="M1253.22,-1310.6C1298.13,-1313.38 1350.32,-1318.3 1397,-1327 1422.6,-1331.77 1450.96,-1340.57 1471,-1347.41"/>
<polygon fill="#9a32cd" stroke="#9a32cd" points="1253.35,-1307.1 1243.16,-1310 1252.94,-1314.09 1253.35,-1307.1"/>
<text text-anchor="middle" x="1329" y="-1341" font-family="Helvetica,sans-Serif" font-size="10.00"> sequenceRowDofContainer</text>
<text text-anchor="middle" x="1329" y="-1330" font-family="Helvetica,sans-Serif" font-size="10.00">sequenceColDofContainer</text>
</g>
<!-- Node49 -->
<g id="node49" class="node">
<title>Node49</title>
<g id="a_node49"><a xlink:title=" ">
<polygon fill="white" stroke="#bfbfbf" points="1097.5,-1259.5 1097.5,-1278.5 1185.5,-1278.5 1185.5,-1259.5 1097.5,-1259.5"/>
<text text-anchor="middle" x="1141.5" y="-1266.5" font-family="Helvetica,sans-Serif" font-size="10.00">BitProblemId *</text>
</a>
</g>
</g>
<!-- Node49&#45;&gt;Node39 -->
<g id="edge59" class="edge">
<title>Node49&#45;&gt;Node39</title>
<path fill="none" stroke="#9a32cd" stroke-dasharray="5,2" d="M1195.69,-1267.96C1248.2,-1268.46 1330.1,-1273.41 1397,-1296 1432,-1307.82 1467.75,-1333.42 1485.69,-1347.4"/>
<polygon fill="#9a32cd" stroke="#9a32cd" points="1195.61,-1264.46 1185.59,-1267.91 1195.58,-1271.46 1195.61,-1264.46"/>
<text text-anchor="middle" x="1329" y="-1299" font-family="Helvetica,sans-Serif" font-size="10.00"> tagId</text>
</g>
<!-- Node50 -->
<g id="node50" class="node">
<title>Node50</title>
<g id="a_node50"><a xlink:title=" ">
<polygon fill="white" stroke="#bfbfbf" points="1805,-892 1805,-922 1967,-922 1967,-892 1805,-892"/>
<text text-anchor="start" x="1813" y="-910" font-family="Helvetica,sans-Serif" font-size="10.00">shared_ptr&lt; const MoFEM</text>
<text text-anchor="middle" x="1886" y="-899" font-family="Helvetica,sans-Serif" font-size="10.00">::NumeredEntFiniteElement &gt;</text>
</a>
</g>
</g>
<!-- Node50&#45;&gt;Node13 -->
<g id="edge60" class="edge">
<title>Node50&#45;&gt;Node13</title>
<path fill="none" stroke="#9a32cd" stroke-dasharray="5,2" d="M1977.54,-894.94C2048.18,-885.54 2143.85,-872.8 2202.4,-865"/>
<polygon fill="#9a32cd" stroke="#9a32cd" points="1976.75,-891.52 1967.3,-896.31 1977.68,-898.46 1976.75,-891.52"/>
<text text-anchor="middle" x="2063" y="-896" font-family="Helvetica,sans-Serif" font-size="10.00"> numeredEntFiniteElementPtr</text>
</g>
<!-- Node51 -->
<g id="node51" class="node">
<title>Node51</title>
<g id="a_node51"><a xlink:title=" ">
<polygon fill="white" stroke="#bfbfbf" points="1864,-745.5 1864,-764.5 1908,-764.5 1908,-745.5 1864,-745.5"/>
<text text-anchor="middle" x="1886" y="-752.5" font-family="Helvetica,sans-Serif" font-size="10.00">string</text>
</a>
</g>
</g>
<!-- Node51&#45;&gt;Node4 -->
<g id="edge83" class="edge">
<title>Node51&#45;&gt;Node4</title>
<path fill="none" stroke="#9a32cd" stroke-dasharray="5,2" d="M1918.15,-752.75C1971.06,-747.19 2078.25,-728.09 2135,-663 2159.24,-635.2 2124.23,-605.08 2153,-582 2219.91,-528.32 2460.16,-551.2 2539,-585 2706.03,-656.61 2732.45,-723.2 2819,-883 2832.66,-908.23 2816.78,-924.64 2837,-945 2840.86,-948.89 2845.3,-952.17 2850.07,-954.95"/>
<polygon fill="#9a32cd" stroke="#9a32cd" points="1917.64,-749.28 1908.02,-753.72 1918.31,-756.25 1917.64,-749.28"/>
<text text-anchor="middle" x="2458" y="-599" font-family="Helvetica,sans-Serif" font-size="10.00"> colFieldName</text>
<text text-anchor="middle" x="2458" y="-588" font-family="Helvetica,sans-Serif" font-size="10.00">rowFieldName</text>
</g>
<!-- Node51&#45;&gt;Node13 -->
<g id="edge61" class="edge">
<title>Node51&#45;&gt;Node13</title>
<path fill="none" stroke="#9a32cd" stroke-dasharray="5,2" d="M1918.48,-755.31C1968.55,-757.24 2067.57,-767.11 2135,-813 2146.62,-820.91 2141.2,-831.36 2153,-839 2167.51,-848.4 2185.49,-853.42 2202.28,-856.03"/>
<polygon fill="#9a32cd" stroke="#9a32cd" points="1918.38,-751.8 1908.28,-755 1918.16,-758.8 1918.38,-751.8"/>
<text text-anchor="middle" x="2063" y="-816" font-family="Helvetica,sans-Serif" font-size="10.00"> feName</text>
</g>
<!-- Node52 -->
<g id="node52" class="node">
<title>Node52</title>
<g id="a_node52"><a xlink:title=" ">
<polygon fill="white" stroke="#bfbfbf" points="1804.5,-843 1804.5,-873 1967.5,-873 1967.5,-843 1804.5,-843"/>
<text text-anchor="start" x="1812.5" y="-861" font-family="Helvetica,sans-Serif" font-size="10.00">function&lt; bool(MoFEM</text>
<text text-anchor="middle" x="1886" y="-850" font-family="Helvetica,sans-Serif" font-size="10.00">::FEMethod *fe_method_ptr)&gt;</text>
</a>
</g>
</g>
<!-- Node52&#45;&gt;Node13 -->
<g id="edge62" class="edge">
<title>Node52&#45;&gt;Node13</title>
<path fill="none" stroke="#9a32cd" stroke-dasharray="5,2" d="M1977.98,-858C2048.52,-858 2143.82,-858 2202.26,-858"/>
<polygon fill="#9a32cd" stroke="#9a32cd" points="1977.76,-854.5 1967.76,-858 1977.76,-861.5 1977.76,-854.5"/>
<text text-anchor="middle" x="2063" y="-861" font-family="Helvetica,sans-Serif" font-size="10.00"> exeTestHook</text>
</g>
<!-- Node53 -->
<g id="node53" class="node">
<title>Node53</title>
<g id="a_node53"><a xlink:href="classdouble.html" target="_top" xlink:title=" ">
<polygon fill="white" stroke="black" points="2231,-810.5 2231,-829.5 2281,-829.5 2281,-810.5 2231,-810.5"/>
<text text-anchor="middle" x="2256" y="-817.5" font-family="Helvetica,sans-Serif" font-size="10.00">double</text>
</a>
</g>
</g>
<!-- Node53&#45;&gt;Node12 -->
<g id="edge63" class="edge">
<title>Node53&#45;&gt;Node12</title>
<path fill="none" stroke="#9a32cd" stroke-dasharray="5,2" d="M2291.31,-817.77C2350.5,-813.91 2473.45,-805.91 2556.61,-800.49"/>
<polygon fill="#9a32cd" stroke="#9a32cd" points="2290.77,-814.29 2281.02,-818.44 2291.23,-821.28 2290.77,-814.29"/>
<text text-anchor="middle" x="2458" y="-815" font-family="Helvetica,sans-Serif" font-size="10.00"> elementMeasure</text>
</g>
<!-- Node54 -->
<g id="node54" class="node">
<title>Node54</title>
<g id="a_node54"><a xlink:title=" ">
<polygon fill="white" stroke="#bfbfbf" points="2170,-750.5 2170,-791.5 2342,-791.5 2342,-750.5 2170,-750.5"/>
<text text-anchor="start" x="2178" y="-779.5" font-family="Helvetica,sans-Serif" font-size="10.00">array&lt; boost::shared</text>
<text text-anchor="start" x="2178" y="-768.5" font-family="Helvetica,sans-Serif" font-size="10.00">_ptr&lt; MoFEM::EntitiesFieldData</text>
<text text-anchor="middle" x="2256" y="-757.5" font-family="Helvetica,sans-Serif" font-size="10.00"> &gt;, LASTSPACE &gt;</text>
</a>
</g>
</g>
<!-- Node54&#45;&gt;Node12 -->
<g id="edge64" class="edge">
<title>Node54&#45;&gt;Node12</title>
<path fill="none" stroke="#9a32cd" stroke-dasharray="5,2" d="M2352.1,-768.76C2406.89,-768.45 2476.97,-769.72 2539,-776 2558.71,-778 2580.32,-781.79 2598.55,-785.46"/>
<polygon fill="#9a32cd" stroke="#9a32cd" points="2352.03,-765.26 2342.06,-768.83 2352.08,-772.26 2352.03,-765.26"/>
<text text-anchor="middle" x="2458" y="-790" font-family="Helvetica,sans-Serif" font-size="10.00"> derivedDataOnElement</text>
<text text-anchor="middle" x="2458" y="-779" font-family="Helvetica,sans-Serif" font-size="10.00">dataOnElement</text>
</g>
<!-- Node55 -->
<g id="node55" class="node">
<title>Node55</title>
<g id="a_node55"><a xlink:title=" ">
<polygon fill="white" stroke="#bfbfbf" points="2222,-712.5 2222,-731.5 2290,-731.5 2290,-712.5 2222,-712.5"/>
<text text-anchor="middle" x="2256" y="-719.5" font-family="Helvetica,sans-Serif" font-size="10.00">EntityType</text>
</a>
</g>
</g>
<!-- Node55&#45;&gt;Node12 -->
<g id="edge65" class="edge">
<title>Node55&#45;&gt;Node12</title>
<path fill="none" stroke="#9a32cd" stroke-dasharray="5,2" d="M2300.33,-723.31C2356.25,-725.81 2456.2,-733.07 2539,-754 2568.79,-761.53 2601.45,-775.81 2621.59,-785.36"/>
<polygon fill="#9a32cd" stroke="#9a32cd" points="2300.22,-719.8 2290.08,-722.88 2299.93,-726.79 2300.22,-719.8"/>
<text text-anchor="middle" x="2458" y="-757" font-family="Helvetica,sans-Serif" font-size="10.00"> lastEvaluatedElementEntityType</text>
</g>
<!-- Node56 -->
<g id="node56" class="node">
<title>Node56</title>
<g id="a_node56"><a xlink:href="structMoFEM_1_1DeprecatedCoreInterface.html" target="_top" xlink:title="Deprecated interface functions.">
<polygon fill="white" stroke="black" points="1600,-0.5 1600,-19.5 1781,-19.5 1781,-0.5 1600,-0.5"/>
<text text-anchor="middle" x="1690.5" y="-7.5" font-family="Helvetica,sans-Serif" font-size="10.00">MoFEM::DeprecatedCoreInterface</text>
</a>
</g>
</g>
<!-- Node56&#45;&gt;Node12 -->
<g id="edge66" class="edge">
<title>Node56&#45;&gt;Node12</title>
<path fill="none" stroke="#9a32cd" stroke-dasharray="5,2" d="M1765.82,-22.12C1771.01,-23.57 1776.12,-25.19 1781,-27 2145.29,-161.77 2309.24,-148.82 2539,-462 2561.07,-492.08 2547.07,-508.03 2557,-544 2583.31,-639.23 2624.67,-751.54 2637.25,-785.08"/>
<polygon fill="#9a32cd" stroke="#9a32cd" points="1766.33,-18.63 1755.77,-19.51 1764.58,-25.41 1766.33,-18.63"/>
<text text-anchor="middle" x="2063" y="-149" font-family="Helvetica,sans-Serif" font-size="10.00"> mField</text>
</g>
<!-- Node57&#45;&gt;Node56 -->
<g id="edge67" class="edge">
<title>Node57&#45;&gt;Node56</title>
<path fill="none" stroke="midnightblue" d="M1209.93,-89.78C1318.6,-71.7 1530.54,-36.45 1632.29,-19.52"/>
<polygon fill="midnightblue" stroke="midnightblue" points="1209.04,-86.38 1199.75,-91.48 1210.19,-93.29 1209.04,-86.38"/>
</g>
<!-- Node58 -->
<g id="node58" class="node">
<title>Node58</title>
<g id="a_node58"><a xlink:title=" ">
<polygon fill="white" stroke="#bfbfbf" points="2172.5,-641 2172.5,-693 2339.5,-693 2339.5,-641 2172.5,-641"/>
<text text-anchor="start" x="2180.5" y="-681" font-family="Helvetica,sans-Serif" font-size="10.00">function&lt; MoFEMErrorCode</text>
<text text-anchor="start" x="2180.5" y="-670" font-family="Helvetica,sans-Serif" font-size="10.00">(ForcesAndSourcesCore *fe</text>
<text text-anchor="start" x="2180.5" y="-659" font-family="Helvetica,sans-Serif" font-size="10.00">_raw_ptr, int order_row,</text>
<text text-anchor="middle" x="2256" y="-648" font-family="Helvetica,sans-Serif" font-size="10.00"> int order_col, int order_data)&gt;</text>
</a>
</g>
</g>
<!-- Node58&#45;&gt;Node12 -->
<g id="edge70" class="edge">
<title>Node58&#45;&gt;Node12</title>
<path fill="none" stroke="#9a32cd" stroke-dasharray="5,2" d="M2349.77,-670.72C2406.47,-675.8 2479.31,-687.48 2539,-714 2578.47,-731.54 2615.82,-768 2632.25,-785.38"/>
<polygon fill="#9a32cd" stroke="#9a32cd" points="2350,-667.23 2339.74,-669.87 2349.41,-674.2 2350,-667.23"/>
<text text-anchor="middle" x="2458" y="-717" font-family="Helvetica,sans-Serif" font-size="10.00"> setRuleHook</text>
</g>
<!-- Node59 -->
<g id="node59" class="node">
<title>Node59</title>
<g id="a_node59"><a xlink:title=" ">
<polygon fill="white" stroke="#bfbfbf" points="2155,-592 2155,-622 2357,-622 2357,-592 2155,-592"/>
<text text-anchor="start" x="2163" y="-610" font-family="Helvetica,sans-Serif" font-size="10.00">ptr_deque&lt; MoFEM::Forces</text>
<text text-anchor="middle" x="2256" y="-599" font-family="Helvetica,sans-Serif" font-size="10.00">AndSourcesCore::UserDataOperator &gt;</text>
</a>
</g>
</g>
<!-- Node59&#45;&gt;Node12 -->
<g id="edge71" class="edge">
<title>Node59&#45;&gt;Node12</title>
<path fill="none" stroke="#9a32cd" stroke-dasharray="5,2" d="M2367.17,-609.22C2422.25,-614.73 2487.88,-628.32 2539,-660 2590.44,-691.87 2625.14,-759.87 2636.73,-785.21"/>
<polygon fill="#9a32cd" stroke="#9a32cd" points="2367.3,-605.72 2357.02,-608.28 2366.65,-612.69 2367.3,-605.72"/>
<text text-anchor="middle" x="2458" y="-663" font-family="Helvetica,sans-Serif" font-size="10.00"> opPtrVector</text>
</g>
<!-- Node60 -->
<g id="node60" class="node">
<title>Node60</title>
<g id="a_node60"><a xlink:href="structMoFEM_1_1EntitiesFieldData.html" target="_top" xlink:title="data structure for finite element entity">
<polygon fill="white" stroke="black" points="2185,-515.5 2185,-534.5 2327,-534.5 2327,-515.5 2185,-515.5"/>
<text text-anchor="middle" x="2256" y="-522.5" font-family="Helvetica,sans-Serif" font-size="10.00">MoFEM::EntitiesFieldData</text>
</a>
</g>
</g>
<!-- Node60&#45;&gt;Node12 -->
<g id="edge72" class="edge">
<title>Node60&#45;&gt;Node12</title>
<path fill="none" stroke="#9a32cd" stroke-dasharray="5,2" d="M2289.04,-511.53C2312.83,-502.29 2346.33,-490.86 2377,-486 2448.11,-474.73 2481.03,-443.29 2539,-486 2560.73,-502.01 2548.72,-518.31 2557,-544 2587.46,-638.47 2626.32,-752.21 2637.72,-785.45"/>
<polygon fill="#9a32cd" stroke="#9a32cd" points="2287.48,-508.39 2279.48,-515.33 2290.06,-514.89 2287.48,-508.39"/>
<text text-anchor="middle" x="2458" y="-533" font-family="Helvetica,sans-Serif" font-size="10.00"> dataNoField</text>
<text text-anchor="middle" x="2458" y="-522" font-family="Helvetica,sans-Serif" font-size="10.00">dataL2</text>
<text text-anchor="middle" x="2458" y="-511" font-family="Helvetica,sans-Serif" font-size="10.00">dataH1</text>
<text text-anchor="middle" x="2458" y="-500" font-family="Helvetica,sans-Serif" font-size="10.00">dataHcurl</text>
<text text-anchor="middle" x="2458" y="-489" font-family="Helvetica,sans-Serif" font-size="10.00">dataHdiv</text>
</g>
<!-- Node61 -->
<g id="node61" class="node">
<title>Node61</title>
<g id="a_node61"><a xlink:title=" ">
<polygon fill="white" stroke="#bfbfbf" points="1805,-674 1805,-704 1967,-704 1967,-674 1805,-674"/>
<text text-anchor="start" x="1813" y="-692" font-family="Helvetica,sans-Serif" font-size="10.00">array&lt; std::bitset</text>
<text text-anchor="middle" x="1886" y="-681" font-family="Helvetica,sans-Serif" font-size="10.00">&lt; LASTBASE &gt;, LASTSPACE &gt;</text>
</a>
</g>
</g>
<!-- Node61&#45;&gt;Node60 -->
<g id="edge73" class="edge">
<title>Node61&#45;&gt;Node60</title>
<path fill="none" stroke="#9a32cd" stroke-dasharray="5,2" d="M1963.81,-669.48C1967,-667.8 1970.08,-665.98 1973,-664 1983.75,-656.73 1979.82,-647.59 1991,-641 2046.84,-608.09 2087.01,-661.56 2135,-618 2158.47,-596.7 2130.32,-571.14 2153,-549 2161.79,-540.42 2173.03,-534.7 2184.83,-530.92"/>
<polygon fill="#9a32cd" stroke="#9a32cd" points="1962.13,-666.4 1954.59,-673.85 1965.13,-672.73 1962.13,-666.4"/>
<text text-anchor="middle" x="2063" y="-655" font-family="Helvetica,sans-Serif" font-size="10.00"> brokenBasesOnSpaces</text>
<text text-anchor="middle" x="2063" y="-644" font-family="Helvetica,sans-Serif" font-size="10.00">basesOnSpaces</text>
</g>
<!-- Node62 -->
<g id="node62" class="node">
<title>Node62</title>
<g id="a_node62"><a xlink:title=" ">
<polygon fill="white" stroke="#bfbfbf" points="1809.5,-613.5 1809.5,-654.5 1962.5,-654.5 1962.5,-613.5 1809.5,-613.5"/>
<text text-anchor="start" x="1817.5" y="-642.5" font-family="Helvetica,sans-Serif" font-size="10.00">array&lt; boost::ptr_vector</text>
<text text-anchor="start" x="1817.5" y="-631.5" font-family="Helvetica,sans-Serif" font-size="10.00">&lt; MoFEM::EntitiesFieldData</text>
<text text-anchor="middle" x="1886" y="-620.5" font-family="Helvetica,sans-Serif" font-size="10.00">::EntData &gt;, MBMAXTYPE &gt;</text>
</a>
</g>
</g>
<!-- Node62&#45;&gt;Node60 -->
<g id="edge74" class="edge">
<title>Node62&#45;&gt;Node60</title>
<path fill="none" stroke="#9a32cd" stroke-dasharray="5,2" d="M1972.51,-611.3C1978.75,-609.8 1984.97,-608.35 1991,-607 2054.55,-592.81 2081.82,-617.57 2135,-580 2148.01,-570.81 2140.2,-558.49 2153,-549 2162.43,-542.01 2173.58,-537.02 2184.99,-533.47"/>
<polygon fill="#9a32cd" stroke="#9a32cd" points="1971.56,-607.93 1962.68,-613.71 1973.23,-614.73 1971.56,-607.93"/>
<text text-anchor="middle" x="2063" y="-610" font-family="Helvetica,sans-Serif" font-size="10.00"> dataOnEntities</text>
</g>
<!-- Node63 -->
<g id="node63" class="node">
<title>Node63</title>
<g id="a_node63"><a xlink:title=" ">
<polygon fill="white" stroke="#bfbfbf" points="1799,-564 1799,-594 1973,-594 1973,-564 1799,-564"/>
<text text-anchor="start" x="1807" y="-582" font-family="Helvetica,sans-Serif" font-size="10.00">array&lt; std::bitset</text>
<text text-anchor="middle" x="1886" y="-571" font-family="Helvetica,sans-Serif" font-size="10.00">&lt; LASTSPACE &gt;, MBMAXTYPE &gt;</text>
</a>
</g>
</g>
<!-- Node63&#45;&gt;Node60 -->
<g id="edge75" class="edge">
<title>Node63&#45;&gt;Node60</title>
<path fill="none" stroke="#9a32cd" stroke-dasharray="5,2" d="M1983.09,-565.82C2029.08,-559.42 2084.92,-551.5 2135,-544 2154.92,-541.02 2176.68,-537.62 2196.13,-534.52"/>
<polygon fill="#9a32cd" stroke="#9a32cd" points="1982.55,-562.36 1973.13,-567.21 1983.52,-569.3 1982.55,-562.36"/>
<text text-anchor="middle" x="2063" y="-568" font-family="Helvetica,sans-Serif" font-size="10.00"> spacesOnEntities</text>
</g>
<!-- Node64 -->
<g id="node64" class="node">
<title>Node64</title>
<g id="a_node64"><a xlink:title=" ">
<polygon fill="white" stroke="#bfbfbf" points="1801.5,-515 1801.5,-545 1970.5,-545 1970.5,-515 1801.5,-515"/>
<text text-anchor="start" x="1809.5" y="-533" font-family="Helvetica,sans-Serif" font-size="10.00">array&lt; std::bitset</text>
<text text-anchor="middle" x="1886" y="-522" font-family="Helvetica,sans-Serif" font-size="10.00">&lt; LASTBASE &gt;, MBMAXTYPE &gt;</text>
</a>
</g>
</g>
<!-- Node64&#45;&gt;Node60 -->
<g id="edge76" class="edge">
<title>Node64&#45;&gt;Node60</title>
<path fill="none" stroke="#9a32cd" stroke-dasharray="5,2" d="M1980.54,-528.73C2044.11,-527.87 2126.86,-526.74 2184.81,-525.95"/>
<polygon fill="#9a32cd" stroke="#9a32cd" points="1980.46,-525.23 1970.5,-528.87 1980.55,-532.23 1980.46,-525.23"/>
<text text-anchor="middle" x="2063" y="-532" font-family="Helvetica,sans-Serif" font-size="10.00"> basesOnEntities</text>
</g>
<!-- Node65 -->
<g id="node65" class="node">
<title>Node65</title>
<g id="a_node65"><a xlink:title=" ">
<polygon fill="white" stroke="#bfbfbf" points="1830,-476.5 1830,-495.5 1942,-495.5 1942,-476.5 1830,-476.5"/>
<text text-anchor="middle" x="1886" y="-483.5" font-family="Helvetica,sans-Serif" font-size="10.00">UBlasMatrix&lt; int &gt;</text>
</a>
</g>
</g>
<!-- Node65&#45;&gt;Node60 -->
<g id="edge77" class="edge">
<title>Node65&#45;&gt;Node60</title>
<path fill="none" stroke="#9a32cd" stroke-dasharray="5,2" d="M1952.42,-487.51C2002.56,-489.26 2073.37,-493.01 2135,-501 2161.65,-504.45 2191.27,-510.36 2214.41,-515.44"/>
<polygon fill="#9a32cd" stroke="#9a32cd" points="1952.48,-484.01 1942.36,-487.18 1952.24,-491.01 1952.48,-484.01"/>
<text text-anchor="middle" x="2063" y="-515" font-family="Helvetica,sans-Serif" font-size="10.00"> facesNodesOrder</text>
<text text-anchor="middle" x="2063" y="-504" font-family="Helvetica,sans-Serif" font-size="10.00">facesNodes</text>
</g>
<!-- Node66 -->
<g id="node66" class="node">
<title>Node66</title>
<g id="a_node66"><a xlink:title=" ">
<polygon fill="white" stroke="#bfbfbf" points="1827.5,-438.5 1827.5,-457.5 1944.5,-457.5 1944.5,-438.5 1827.5,-438.5"/>
<text text-anchor="middle" x="1886" y="-445.5" font-family="Helvetica,sans-Serif" font-size="10.00">bitset&lt; LASTBASE &gt;</text>
</a>
</g>
</g>
<!-- Node66&#45;&gt;Node60 -->
<g id="edge78" class="edge">
<title>Node66&#45;&gt;Node60</title>
<path fill="none" stroke="#9a32cd" stroke-dasharray="5,2" d="M1955.09,-450.17C2005.45,-453.04 2075.35,-459.67 2135,-475 2172.38,-484.61 2213.36,-503.69 2236.46,-515.3"/>
<polygon fill="#9a32cd" stroke="#9a32cd" points="1955.14,-446.67 1944.97,-449.63 1954.77,-453.66 1955.14,-446.67"/>
<text text-anchor="middle" x="2063" y="-478" font-family="Helvetica,sans-Serif" font-size="10.00"> bAse</text>
</g>
<!-- Node67 -->
<g id="node67" class="node">
<title>Node67</title>
<g id="a_node67"><a xlink:title=" ">
<polygon fill="white" stroke="#bfbfbf" points="2193.5,-974.5 2193.5,-1015.5 2318.5,-1015.5 2318.5,-974.5 2193.5,-974.5"/>
<text text-anchor="start" x="2201.5" y="-1003.5" font-family="Helvetica,sans-Serif" font-size="10.00">function&lt; int(int order</text>
<text text-anchor="start" x="2201.5" y="-992.5" font-family="Helvetica,sans-Serif" font-size="10.00">_row, int order_col, int</text>
<text text-anchor="middle" x="2256" y="-981.5" font-family="Helvetica,sans-Serif" font-size="10.00"> order_data)&gt;</text>
</a>
</g>
</g>
<!-- Node67&#45;&gt;Node12 -->
<g id="edge79" class="edge">
<title>Node67&#45;&gt;Node12</title>
<path fill="none" stroke="#9a32cd" stroke-dasharray="5,2" d="M2328.76,-1006.94C2389.47,-1013.18 2476.33,-1012.65 2539,-973 2603.41,-932.25 2631.41,-835.24 2638.87,-804.51"/>
<polygon fill="#9a32cd" stroke="#9a32cd" points="2328.83,-1003.43 2318.5,-1005.8 2328.05,-1010.38 2328.83,-1003.43"/>
<text text-anchor="middle" x="2458" y="-1013" font-family="Helvetica,sans-Serif" font-size="10.00"> getRuleHook</text>
</g>
<!-- Node68 -->
<g id="node68" class="node">
<title>Node68</title>
<g id="a_node68"><a xlink:title=" ">
<polygon fill="white" stroke="#bfbfbf" points="2195,-925 2195,-955 2317,-955 2317,-925 2195,-925"/>
<text text-anchor="start" x="2203" y="-943" font-family="Helvetica,sans-Serif" font-size="10.00">shared_ptr&lt; MoFEM::</text>
<text text-anchor="middle" x="2256" y="-932" font-family="Helvetica,sans-Serif" font-size="10.00">BaseFunction &gt;</text>
</a>
</g>
</g>
<!-- Node68&#45;&gt;Node12 -->
<g id="edge80" class="edge">
<title>Node68&#45;&gt;Node12</title>
<path fill="none" stroke="#9a32cd" stroke-dasharray="5,2" d="M2327.1,-947.67C2386.77,-951.01 2473.04,-948.09 2539,-914 2588.31,-888.51 2623.8,-828.08 2636.19,-804.58"/>
<polygon fill="#9a32cd" stroke="#9a32cd" points="2327.23,-944.17 2317.02,-947.03 2326.78,-951.16 2327.23,-944.17"/>
<text text-anchor="middle" x="2458" y="-963" font-family="Helvetica,sans-Serif" font-size="10.00"> userPolynomialBasePtr</text>
<text text-anchor="middle" x="2458" y="-952" font-family="Helvetica,sans-Serif" font-size="10.00">elementPolynomialBasePtr</text>
</g>
<!-- Node69 -->
<g id="node69" class="node">
<title>Node69</title>
<g id="a_node69"><a xlink:href="classUBlasMatrix_3_01double_01_4.html" target="_top" xlink:title=" ">
<polygon fill="white" stroke="black" points="2190,-886.5 2190,-905.5 2322,-905.5 2322,-886.5 2190,-886.5"/>
<text text-anchor="middle" x="2256" y="-893.5" font-family="Helvetica,sans-Serif" font-size="10.00">UBlasMatrix&lt; double &gt;</text>
</a>
</g>
</g>
<!-- Node69&#45;&gt;Node12 -->
<g id="edge81" class="edge">
<title>Node69&#45;&gt;Node12</title>
<path fill="none" stroke="#9a32cd" stroke-dasharray="5,2" d="M2332.33,-892C2390.19,-887.16 2471.36,-876.48 2539,-853 2573.25,-841.11 2609.19,-817.71 2627.9,-804.56"/>
<polygon fill="#9a32cd" stroke="#9a32cd" points="2331.86,-888.53 2322.17,-892.81 2332.42,-895.5 2331.86,-888.53"/>
<text text-anchor="middle" x="2458" y="-902" font-family="Helvetica,sans-Serif" font-size="10.00"> coordsAtGaussPts</text>
<text text-anchor="middle" x="2458" y="-891" font-family="Helvetica,sans-Serif" font-size="10.00">gaussPts</text>
</g>
<!-- Node70 -->
<g id="node70" class="node">
<title>Node70</title>
<g id="a_node70"><a xlink:title=" ">
<polygon fill="white" stroke="#bfbfbf" points="2576.5,-1119.5 2576.5,-1138.5 2707.5,-1138.5 2707.5,-1119.5 2576.5,-1119.5"/>
<text text-anchor="middle" x="2642" y="-1126.5" font-family="Helvetica,sans-Serif" font-size="10.00">static const char *const</text>
</a>
</g>
</g>
<!-- Node70&#45;&gt;Node4 -->
<g id="edge82" class="edge">
<title>Node70&#45;&gt;Node4</title>
<path fill="none" stroke="#9a32cd" stroke-dasharray="5,2" d="M2709.22,-1116.63C2715.34,-1114.71 2721.35,-1112.51 2727,-1110 2800.24,-1077.4 2873.31,-1014.38 2904.84,-985.34"/>
<polygon fill="#9a32cd" stroke="#9a32cd" points="2708.2,-1113.28 2699.57,-1119.42 2710.15,-1120 2708.2,-1113.28"/>
<text text-anchor="middle" x="2782" y="-1101" font-family="Helvetica,sans-Serif" font-size="10.00"> OpTypeNames</text>
</g>
<!-- Node71 -->
<g id="node71" class="node">
<title>Node71</title>
<g id="a_node71"><a xlink:href="structMoFEM_1_1SmartPetscObj.html" target="_top" xlink:title=" ">
<polygon fill="white" stroke="black" points="2856.5,-1148 2856.5,-1178 2987.5,-1178 2987.5,-1148 2856.5,-1148"/>
<text text-anchor="start" x="2864.5" y="-1166" font-family="Helvetica,sans-Serif" font-size="10.00">MoFEM::SmartPetscObj</text>
<text text-anchor="middle" x="2922" y="-1155" font-family="Helvetica,sans-Serif" font-size="10.00">&lt; Vec &gt;</text>
</a>
</g>
</g>
<!-- Node71&#45;&gt;Node3 -->
<g id="edge84" class="edge">
<title>Node71&#45;&gt;Node3</title>
<path fill="none" stroke="#9a32cd" stroke-dasharray="5,2" d="M2997.78,-1147.08C3022.4,-1141.76 3049.89,-1135.72 3075,-1130 3242.96,-1091.72 3288.64,-1094.67 3452,-1040 3470.76,-1033.72 3490.87,-1025.27 3508,-1017.52"/>
<polygon fill="#9a32cd" stroke="#9a32cd" points="2996.82,-1143.71 2987.78,-1149.24 2998.3,-1150.55 2996.82,-1143.71"/>
<text text-anchor="middle" x="3192" y="-1128" font-family="Helvetica,sans-Serif" font-size="10.00"> dataVec</text>
</g>
<!-- Node71&#45;&gt;Node77 -->
<g id="edge93" class="edge">
<title>Node71&#45;&gt;Node77</title>
<path fill="none" stroke="#9a32cd" stroke-dasharray="5,2" d="M2964.79,-1143.67C3018.19,-1118.96 3109.54,-1076.69 3158.21,-1054.17"/>
<polygon fill="#9a32cd" stroke="#9a32cd" points="2963.2,-1140.54 2955.59,-1147.92 2966.14,-1146.9 2963.2,-1140.54"/>
<text text-anchor="middle" x="3050" y="-1118" font-family="Helvetica,sans-Serif" font-size="10.00"> dataVec</text>
</g>
<!-- Node72 -->
<g id="node72" class="node">
<title>Node72</title>
<g id="a_node72"><a xlink:title=" ">
<polygon fill="white" stroke="#bfbfbf" points="2579,-1207.5 2579,-1248.5 2705,-1248.5 2705,-1207.5 2579,-1207.5"/>
<text text-anchor="start" x="2587" y="-1236.5" font-family="Helvetica,sans-Serif" font-size="10.00">boost::intrusive_ptr</text>
<text text-anchor="start" x="2587" y="-1225.5" font-family="Helvetica,sans-Serif" font-size="10.00">&lt; std::remove_pointer</text>
<text text-anchor="middle" x="2642" y="-1214.5" font-family="Helvetica,sans-Serif" font-size="10.00">&lt; Vec &gt;::type &gt;</text>
</a>
</g>
</g>
<!-- Node72&#45;&gt;Node71 -->
<g id="edge85" class="edge">
<title>Node72&#45;&gt;Node71</title>
<path fill="none" stroke="midnightblue" d="M2714.79,-1211.22C2758.66,-1200.96 2814.31,-1187.95 2856.73,-1178.03"/>
<polygon fill="midnightblue" stroke="midnightblue" points="2713.98,-1207.81 2705.04,-1213.49 2715.58,-1214.62 2713.98,-1207.81"/>
</g>
<!-- Node73 -->
<g id="node73" class="node">
<title>Node73</title>
<g id="a_node73"><a xlink:href="structMoFEM_1_1SmartPetscObj.html" target="_top" xlink:title="intrusive_ptr for managing petsc objects">
<polygon fill="white" stroke="black" points="2576.5,-1158 2576.5,-1188 2707.5,-1188 2707.5,-1158 2576.5,-1158"/>
<text text-anchor="start" x="2584.5" y="-1176" font-family="Helvetica,sans-Serif" font-size="10.00">MoFEM::SmartPetscObj</text>
<text text-anchor="middle" x="2642" y="-1165" font-family="Helvetica,sans-Serif" font-size="10.00">&lt; OBJ &gt;</text>
</a>
</g>
</g>
<!-- Node73&#45;&gt;Node71 -->
<g id="edge86" class="edge">
<title>Node73&#45;&gt;Node71</title>
<path fill="none" stroke="orange" stroke-dasharray="5,2" d="M2717.99,-1170.3C2761.11,-1168.75 2814.76,-1166.82 2856.07,-1165.34"/>
<polygon fill="orange" stroke="orange" points="2717.7,-1166.81 2707.83,-1170.67 2717.95,-1173.81 2717.7,-1166.81"/>
<text text-anchor="middle" x="2782" y="-1172" font-family="Helvetica,sans-Serif" font-size="10.00"> &lt; Vec &gt;</text>
</g>
<!-- Node74 -->
<g id="node74" class="node">
<title>Node74</title>
<g id="a_node74"><a xlink:title=" ">
<polygon fill="white" stroke="#bfbfbf" points="2193,-1333.5 2193,-1374.5 2319,-1374.5 2319,-1333.5 2193,-1333.5"/>
<text text-anchor="start" x="2201" y="-1362.5" font-family="Helvetica,sans-Serif" font-size="10.00">boost::intrusive_ptr</text>
<text text-anchor="start" x="2201" y="-1351.5" font-family="Helvetica,sans-Serif" font-size="10.00">&lt; std::remove_pointer</text>
<text text-anchor="middle" x="2256" y="-1340.5" font-family="Helvetica,sans-Serif" font-size="10.00">&lt; OBJ &gt;::type &gt;</text>
</a>
</g>
</g>
<!-- Node74&#45;&gt;Node73 -->
<g id="edge87" class="edge">
<title>Node74&#45;&gt;Node73</title>
<path fill="none" stroke="midnightblue" d="M2329.05,-1362.04C2393.12,-1364.89 2484.82,-1357.68 2539,-1303 2572.33,-1269.37 2525.58,-1233.42 2557,-1198 2562.35,-1191.97 2569.09,-1187.36 2576.41,-1183.85"/>
<polygon fill="midnightblue" stroke="midnightblue" points="2329.18,-1358.55 2319.01,-1361.51 2328.81,-1365.54 2329.18,-1358.55"/>
</g>
<!-- Node75 -->
<g id="node75" class="node">
<title>Node75</title>
<g id="a_node75"><a xlink:href="classboost_1_1shared__ptr_3_01ublas_1_1vector_3_01double_00_01DoubleAllocator_01_4_01_4.html" target="_top" xlink:title=" ">
<polygon fill="white" stroke="black" points="3093,-862 3093,-892 3291,-892 3291,-862 3093,-862"/>
<text text-anchor="start" x="3101" y="-880" font-family="Helvetica,sans-Serif" font-size="10.00">shared_ptr&lt; ublas::</text>
<text text-anchor="middle" x="3192" y="-869" font-family="Helvetica,sans-Serif" font-size="10.00">vector&lt; double, DoubleAllocator &gt; &gt;</text>
</a>
</g>
</g>
<!-- Node75&#45;&gt;Node3 -->
<g id="edge88" class="edge">
<title>Node75&#45;&gt;Node3</title>
<path fill="none" stroke="#9a32cd" stroke-dasharray="5,2" d="M3301.15,-872.89C3349.24,-874.87 3405.39,-882.61 3452,-904 3487.27,-920.19 3517.99,-954.14 3535.38,-976.24"/>
<polygon fill="#9a32cd" stroke="#9a32cd" points="3301.13,-869.39 3291.02,-872.55 3300.89,-876.39 3301.13,-869.39"/>
<text text-anchor="middle" x="3380.5" y="-907" font-family="Helvetica,sans-Serif" font-size="10.00"> dataPtr</text>
</g>
<!-- Node76 -->
<g id="node76" class="node">
<title>Node76</title>
<g id="a_node76"><a xlink:href="classUBlasVector_3_01double_01_4.html" target="_top" xlink:title=" ">
<polygon fill="white" stroke="black" points="2856.5,-916.5 2856.5,-935.5 2987.5,-935.5 2987.5,-916.5 2856.5,-916.5"/>
<text text-anchor="middle" x="2922" y="-923.5" font-family="Helvetica,sans-Serif" font-size="10.00">UBlasVector&lt; double &gt;</text>
</a>
</g>
</g>
<!-- Node76&#45;&gt;Node3 -->
<g id="edge89" class="edge">
<title>Node76&#45;&gt;Node3</title>
<path fill="none" stroke="#9a32cd" stroke-dasharray="5,2" d="M2997.74,-933C3072.13,-940.08 3189.53,-951.6 3291,-963 3362.65,-971.05 3380.53,-973.48 3452,-983 3457.82,-983.78 3463.83,-984.59 3469.88,-985.42"/>
<polygon fill="#9a32cd" stroke="#9a32cd" points="2997.82,-929.49 2987.53,-932.03 2997.15,-936.46 2997.82,-929.49"/>
<text text-anchor="middle" x="3192" y="-966" font-family="Helvetica,sans-Serif" font-size="10.00"> dotVector</text>
</g>
<!-- Node76&#45;&gt;Node77 -->
<g id="edge94" class="edge">
<title>Node76&#45;&gt;Node77</title>
<path fill="none" stroke="#9a32cd" stroke-dasharray="5,2" d="M2984.39,-938C2992.08,-940.06 2999.78,-942.39 3007,-945 3066.7,-966.61 3131.81,-1003.28 3166.3,-1023.85"/>
<polygon fill="#9a32cd" stroke="#9a32cd" points="2985.22,-934.61 2974.67,-935.55 2983.51,-941.39 2985.22,-934.61"/>
<text text-anchor="middle" x="3050" y="-978" font-family="Helvetica,sans-Serif" font-size="10.00"> dotVector</text>
</g>
<!-- Node77&#45;&gt;Node3 -->
<g id="edge91" class="edge">
<title>Node77&#45;&gt;Node3</title>
<path fill="none" stroke="orange" stroke-dasharray="5,2" d="M3280.79,-1028.69C3338.6,-1021.89 3413.71,-1013.07 3469.98,-1006.46"/>
<polygon fill="orange" stroke="orange" points="3280.1,-1025.24 3270.57,-1029.89 3280.91,-1032.2 3280.1,-1025.24"/>
<text text-anchor="middle" x="3380.5" y="-1028" font-family="Helvetica,sans-Serif" font-size="10.00"> &lt; double, DoubleAllocator &gt;</text>
</g>
<!-- Node78 -->
<g id="node78" class="node">
<title>Node78</title>
<g id="a_node78"><a xlink:title=" ">
<polygon fill="white" stroke="#bfbfbf" points="2866,-1081 2866,-1111 2978,-1111 2978,-1081 2866,-1081"/>
<text text-anchor="start" x="2874" y="-1099" font-family="Helvetica,sans-Serif" font-size="10.00">shared_ptr&lt; ublas::</text>
<text text-anchor="middle" x="2922" y="-1088" font-family="Helvetica,sans-Serif" font-size="10.00">vector&lt; T, A &gt; &gt;</text>
</a>
</g>
</g>
<!-- Node78&#45;&gt;Node77 -->
<g id="edge96" class="edge">
<title>Node78&#45;&gt;Node77</title>
<path fill="none" stroke="#9a32cd" stroke-dasharray="5,2" d="M2988.39,-1083.6C3015.26,-1078.37 3046.67,-1072.09 3075,-1066 3092.28,-1062.28 3110.96,-1058.04 3128.18,-1054.03"/>
<polygon fill="#9a32cd" stroke="#9a32cd" points="2987.48,-1080.21 2978.33,-1085.55 2988.81,-1087.08 2987.48,-1080.21"/>
<text text-anchor="middle" x="3050" y="-1078" font-family="Helvetica,sans-Serif" font-size="10.00"> dataPtr</text>
</g>
</g>
</svg>
