<?xml version="1.0" encoding="UTF-8" standalone="no"?>
<!DOCTYPE svg PUBLIC "-//W3C//DTD SVG 1.1//EN"
 "http://www.w3.org/Graphics/SVG/1.1/DTD/svg11.dtd">
<!-- Generated by graphviz version 2.43.0 (0)
 -->
<!-- Title: MoFEM::OpMixScalarTimesDivImpl&lt; SPACE_DIM, GAUSS, OpBase, COORDINATE_SYSTEM &gt; Pages: 1 -->
<svg width="669pt" height="138pt"
 viewBox="0.00 0.00 669.00 137.50" xmlns="http://www.w3.org/2000/svg" xmlns:xlink="http://www.w3.org/1999/xlink">
<g id="graph0" class="graph" transform="scale(1 1) rotate(0) translate(4 133.5)">
<title>MoFEM::OpMixScalarTimesDivImpl&lt; SPACE_DIM, GAUSS, OpBase, COORDINATE_SYSTEM &gt;</title>
<polygon fill="white" stroke="transparent" points="-4,4 -4,-133.5 665,-133.5 665,4 -4,4"/>
<!-- Node1 -->
<g id="node1" class="node">
<title>Node1</title>
<g id="a_node1"><a xlink:title=" ">
<polygon fill="#bfbfbf" stroke="black" points="478,-50 478,-91 661,-91 661,-50 478,-50"/>
<text text-anchor="start" x="486" y="-79" font-family="Helvetica,sans-Serif" font-size="10.00">MoFEM::OpMixScalarTimesDiv</text>
<text text-anchor="start" x="486" y="-68" font-family="Helvetica,sans-Serif" font-size="10.00">Impl&lt; SPACE_DIM, GAUSS,</text>
<text text-anchor="middle" x="569.5" y="-57" font-family="Helvetica,sans-Serif" font-size="10.00"> OpBase, COORDINATE_SYSTEM &gt;</text>
</a>
</g>
</g>
<!-- Node2 -->
<g id="node2" class="node">
<title>Node2</title>
<g id="a_node2"><a xlink:href="classOpBase.html" target="_top" xlink:title=" ">
<polygon fill="white" stroke="black" points="275.5,-110 275.5,-129 329.5,-129 329.5,-110 275.5,-110"/>
<text text-anchor="middle" x="302.5" y="-117" font-family="Helvetica,sans-Serif" font-size="10.00">OpBase</text>
</a>
</g>
</g>
<!-- Node2&#45;&gt;Node1 -->
<g id="edge1" class="edge">
<title>Node2&#45;&gt;Node1</title>
<path fill="none" stroke="midnightblue" d="M339.76,-112.8C375.18,-106.25 430.54,-96.01 477.92,-87.25"/>
<polygon fill="midnightblue" stroke="midnightblue" points="339.07,-109.36 329.88,-114.62 340.35,-116.25 339.07,-109.36"/>
</g>
<!-- Node3 -->
<g id="node3" class="node">
<title>Node3</title>
<g id="a_node3"><a xlink:title=" ">
<polygon fill="white" stroke="#bfbfbf" points="237,-50 237,-91 368,-91 368,-50 237,-50"/>
<text text-anchor="start" x="245" y="-79" font-family="Helvetica,sans-Serif" font-size="10.00">function&lt; double(const</text>
<text text-anchor="start" x="245" y="-68" font-family="Helvetica,sans-Serif" font-size="10.00"> double, const double,</text>
<text text-anchor="middle" x="302.5" y="-57" font-family="Helvetica,sans-Serif" font-size="10.00"> const double)&gt;</text>
</a>
</g>
</g>
<!-- Node3&#45;&gt;Node1 -->
<g id="edge2" class="edge">
<title>Node3&#45;&gt;Node1</title>
<path fill="none" stroke="#9a32cd" stroke-dasharray="5,2" d="M378.59,-70.5C409.46,-70.5 445.5,-70.5 477.83,-70.5"/>
<polygon fill="#9a32cd" stroke="#9a32cd" points="378.33,-67 368.33,-70.5 378.33,-74 378.33,-67"/>
<text text-anchor="middle" x="423" y="-73.5" font-family="Helvetica,sans-Serif" font-size="10.00"> alphaConstant</text>
</g>
<!-- Node4 -->
<g id="node4" class="node">
<title>Node4</title>
<g id="a_node4"><a xlink:href="classFTensor_1_1Index.html" target="_top" xlink:title=" ">
<polygon fill="white" stroke="black" points="247.5,-0.5 247.5,-30.5 357.5,-30.5 357.5,-0.5 247.5,-0.5"/>
<text text-anchor="start" x="255.5" y="-18.5" font-family="Helvetica,sans-Serif" font-size="10.00">FTensor::Index&lt; &#39;i&#39;,</text>
<text text-anchor="middle" x="302.5" y="-7.5" font-family="Helvetica,sans-Serif" font-size="10.00"> SPACE_DIM &gt;</text>
</a>
</g>
</g>
<!-- Node4&#45;&gt;Node1 -->
<g id="edge3" class="edge">
<title>Node4&#45;&gt;Node1</title>
<path fill="none" stroke="#9a32cd" stroke-dasharray="5,2" d="M367.75,-28.84C400.78,-35.69 441.6,-44.16 477.78,-51.67"/>
<polygon fill="#9a32cd" stroke="#9a32cd" points="368.27,-25.37 357.77,-26.76 366.85,-32.22 368.27,-25.37"/>
<text text-anchor="middle" x="423" y="-51.5" font-family="Helvetica,sans-Serif" font-size="10.00"> i</text>
</g>
<!-- Node5 -->
<g id="node5" class="node">
<title>Node5</title>
<g id="a_node5"><a xlink:href="classFTensor_1_1Index.html" target="_top" xlink:title=" ">
<polygon fill="white" stroke="black" points="0,-0.5 0,-30.5 104,-30.5 104,-0.5 0,-0.5"/>
<text text-anchor="start" x="8" y="-18.5" font-family="Helvetica,sans-Serif" font-size="10.00">FTensor::Index&lt; i,</text>
<text text-anchor="middle" x="52" y="-7.5" font-family="Helvetica,sans-Serif" font-size="10.00"> Dim &gt;</text>
</a>
</g>
</g>
<!-- Node5&#45;&gt;Node4 -->
<g id="edge4" class="edge">
<title>Node5&#45;&gt;Node4</title>
<path fill="none" stroke="orange" stroke-dasharray="5,2" d="M114.28,-15.5C155.06,-15.5 208.14,-15.5 247.37,-15.5"/>
<polygon fill="orange" stroke="orange" points="114.19,-12 104.19,-15.5 114.19,-19 114.19,-12"/>
<text text-anchor="middle" x="170.5" y="-18.5" font-family="Helvetica,sans-Serif" font-size="10.00"> &lt; &#39;i&#39;, SPACE_DIM &gt;</text>
</g>
</g>
</svg>
