<?xml version="1.0" encoding="UTF-8" standalone="no"?>
<!DOCTYPE svg PUBLIC "-//W3C//DTD SVG 1.1//EN"
 "http://www.w3.org/Graphics/SVG/1.1/DTD/svg11.dtd">
<!-- Generated by graphviz version 2.43.0 (0)
 -->
<!-- Title: MortarContactProblem::MortarContactElement Pages: 1 -->
<!--zoomable 306 -->
<svg id="main" version="1.1" xmlns="http://www.w3.org/2000/svg" xmlns:xlink="http://www.w3.org/1999/xlink" xml:space="preserve" onload="init(evt)">
<style type="text/css"><![CDATA[
.edge:hover path { stroke: red; }
.edge:hover polygon { stroke: red; fill: red; }
]]></style>
<script type="text/javascript"><![CDATA[
var edges = document.getElementsByTagName('g');
if (edges && edges.length) {
  for (var i=0;i<edges.length;i++) {
    if (edges[i].id.substr(0,4)=='edge') {
      edges[i].setAttribute('class','edge');
    }
  }
}
]]></script>
        <defs>
                <circle id="rim" cx="0" cy="0" r="7"/>
                <circle id="rim2" cx="0" cy="0" r="3.5"/>
                <g id="zoomPlus">
                        <use xlink:href="#rim" fill="#404040">
                                <set attributeName="fill" to="#808080" begin="zoomplus.mouseover" end="zoomplus.mouseout"/>
                        </use>
                        <path d="M-4,0h8M0,-4v8" fill="none" stroke="white" stroke-width="1.5" pointer-events="none"/>
                </g>
                <g id="zoomMin">
                        <use xlink:href="#rim" fill="#404040">
                                <set attributeName="fill" to="#808080" begin="zoomminus.mouseover" end="zoomminus.mouseout"/>
                        </use>
                        <path d="M-4,0h8" fill="none" stroke="white" stroke-width="1.5" pointer-events="none"/>
                </g>
                <g id="dirArrow">
                        <path fill="none" stroke="white" stroke-width="1.5" d="M0,-3.0v7 M-2.5,-0.5L0,-3.0L2.5,-0.5"/>
                </g>
               <g id="resetDef">
                       <use xlink:href="#rim2" fill="#404040">
                               <set attributeName="fill" to="#808080" begin="reset.mouseover" end="reset.mouseout"/>
                       </use>
               </g>
        </defs>

<script type="text/javascript">
var viewWidth = 2306;
var viewHeight = 306;
var sectionId = 'dynsection-1';
</script>
<script xlink:href="svgpan.js"/>
<svg id="graph" class="graph">
<g id="viewport">
<title>MortarContactProblem::MortarContactElement</title>
<polygon fill="white" stroke="transparent" points="-4,4 -4,-302 2302,-302 2302,4 -4,4"/>
<!-- Node1 -->
<g id="node1" class="node">
<title>Node1</title>
<g id="a_node1"><a xlink:title=" ">
<polygon fill="#bfbfbf" stroke="black" points="2165,-77 2165,-107 2298,-107 2298,-77 2165,-77"/>
<text text-anchor="start" x="2173" y="-95" font-family="Helvetica,sans-Serif" font-size="10.00">MortarContactProblem</text>
<text text-anchor="middle" x="2231.5" y="-84" font-family="Helvetica,sans-Serif" font-size="10.00">::MortarContactElement</text>
</a>
</g>
</g>
<!-- Node2 -->
<g id="node2" class="node">
<title>Node2</title>
<g id="a_node2"><a xlink:href="structSimpleContactProblem_1_1ConvectMasterContactElement.html" target="_top" xlink:title="Element used to integrate on slave surfaces. It convects integration points on slaves,...">
<polygon fill="white" stroke="black" points="1798,-103 1798,-133 1972,-133 1972,-103 1798,-103"/>
<text text-anchor="start" x="1806" y="-121" font-family="Helvetica,sans-Serif" font-size="10.00">SimpleContactProblem</text>
<text text-anchor="middle" x="1885" y="-110" font-family="Helvetica,sans-Serif" font-size="10.00">::ConvectMasterContactElement</text>
</a>
</g>
</g>
<!-- Node2&#45;&gt;Node1 -->
<g id="edge1" class="edge">
<title>Node2&#45;&gt;Node1</title>
<path fill="none" stroke="midnightblue" d="M1982.36,-110.73C2040.53,-106.34 2113.13,-100.86 2164.74,-96.96"/>
<polygon fill="midnightblue" stroke="midnightblue" points="1981.75,-107.26 1972.04,-111.51 1982.28,-114.24 1981.75,-107.26"/>
</g>
<!-- Node3 -->
<g id="node3" class="node">
<title>Node3</title>
<g id="a_node3"><a xlink:href="structSimpleContactProblem_1_1SimpleContactElement.html" target="_top" xlink:title=" ">
<polygon fill="white" stroke="black" points="1523.5,-154 1523.5,-184 1657.5,-184 1657.5,-154 1523.5,-154"/>
<text text-anchor="start" x="1531.5" y="-172" font-family="Helvetica,sans-Serif" font-size="10.00">SimpleContactProblem</text>
<text text-anchor="middle" x="1590.5" y="-161" font-family="Helvetica,sans-Serif" font-size="10.00">::SimpleContactElement</text>
</a>
</g>
</g>
<!-- Node3&#45;&gt;Node2 -->
<g id="edge2" class="edge">
<title>Node3&#45;&gt;Node2</title>
<path fill="none" stroke="midnightblue" d="M1667.46,-155.76C1707.43,-148.79 1756.59,-140.22 1797.96,-133"/>
<polygon fill="midnightblue" stroke="midnightblue" points="1666.76,-152.33 1657.51,-157.49 1667.96,-159.22 1666.76,-152.33"/>
</g>
<!-- Node4 -->
<g id="node4" class="node">
<title>Node4</title>
<g id="a_node4"><a xlink:href="classContactEle.html" target="_top" xlink:title=" ">
<polygon fill="white" stroke="black" points="1186,-205.5 1186,-224.5 1255,-224.5 1255,-205.5 1186,-205.5"/>
<text text-anchor="middle" x="1220.5" y="-212.5" font-family="Helvetica,sans-Serif" font-size="10.00">ContactEle</text>
</a>
</g>
</g>
<!-- Node4&#45;&gt;Node3 -->
<g id="edge3" class="edge">
<title>Node4&#45;&gt;Node3</title>
<path fill="none" stroke="midnightblue" d="M1265.28,-209.53C1329.26,-201.53 1448.78,-186.59 1523.46,-177.25"/>
<polygon fill="midnightblue" stroke="midnightblue" points="1264.62,-206.08 1255.13,-210.8 1265.49,-213.03 1264.62,-206.08"/>
</g>
<!-- Node5 -->
<g id="node5" class="node">
<title>Node5</title>
<g id="a_node5"><a xlink:href="structMoFEM_1_1SmartPetscObj.html" target="_top" xlink:title=" ">
<polygon fill="white" stroke="black" points="1155,-156 1155,-186 1286,-186 1286,-156 1155,-156"/>
<text text-anchor="start" x="1163" y="-174" font-family="Helvetica,sans-Serif" font-size="10.00">MoFEM::SmartPetscObj</text>
<text text-anchor="middle" x="1220.5" y="-163" font-family="Helvetica,sans-Serif" font-size="10.00">&lt; Vec &gt;</text>
</a>
</g>
</g>
<!-- Node5&#45;&gt;Node3 -->
<g id="edge4" class="edge">
<title>Node5&#45;&gt;Node3</title>
<path fill="none" stroke="#9a32cd" stroke-dasharray="5,2" d="M1296.03,-170.59C1362.61,-170.23 1459.24,-169.71 1523.19,-169.36"/>
<polygon fill="#9a32cd" stroke="#9a32cd" points="1296,-167.09 1286.02,-170.65 1296.04,-174.09 1296,-167.09"/>
<text text-anchor="middle" x="1398.5" y="-173" font-family="Helvetica,sans-Serif" font-size="10.00"> contactStateVec</text>
</g>
<!-- Node6 -->
<g id="node6" class="node">
<title>Node6</title>
<g id="a_node6"><a xlink:title=" ">
<polygon fill="white" stroke="#bfbfbf" points="922.5,-167.5 922.5,-208.5 1048.5,-208.5 1048.5,-167.5 922.5,-167.5"/>
<text text-anchor="start" x="930.5" y="-196.5" font-family="Helvetica,sans-Serif" font-size="10.00">boost::intrusive_ptr</text>
<text text-anchor="start" x="930.5" y="-185.5" font-family="Helvetica,sans-Serif" font-size="10.00">&lt; std::remove_pointer</text>
<text text-anchor="middle" x="985.5" y="-174.5" font-family="Helvetica,sans-Serif" font-size="10.00">&lt; Vec &gt;::type &gt;</text>
</a>
</g>
</g>
<!-- Node6&#45;&gt;Node5 -->
<g id="edge5" class="edge">
<title>Node6&#45;&gt;Node5</title>
<path fill="none" stroke="midnightblue" d="M1058.83,-182.72C1089.48,-180.49 1124.91,-177.9 1154.69,-175.73"/>
<polygon fill="midnightblue" stroke="midnightblue" points="1058.35,-179.25 1048.63,-183.47 1058.86,-186.23 1058.35,-179.25"/>
</g>
<!-- Node7 -->
<g id="node7" class="node">
<title>Node7</title>
<g id="a_node7"><a xlink:href="structMoFEM_1_1SmartPetscObj.html" target="_top" xlink:title="intrusive_ptr for managing petsc objects">
<polygon fill="white" stroke="black" points="920,-118 920,-148 1051,-148 1051,-118 920,-118"/>
<text text-anchor="start" x="928" y="-136" font-family="Helvetica,sans-Serif" font-size="10.00">MoFEM::SmartPetscObj</text>
<text text-anchor="middle" x="985.5" y="-125" font-family="Helvetica,sans-Serif" font-size="10.00">&lt; OBJ &gt;</text>
</a>
</g>
</g>
<!-- Node7&#45;&gt;Node5 -->
<g id="edge6" class="edge">
<title>Node7&#45;&gt;Node5</title>
<path fill="none" stroke="orange" stroke-dasharray="5,2" d="M1061.14,-145.17C1091.27,-150.09 1125.72,-155.71 1154.78,-160.44"/>
<polygon fill="orange" stroke="orange" points="1061.53,-141.69 1051.09,-143.53 1060.4,-148.6 1061.53,-141.69"/>
<text text-anchor="middle" x="1090.5" y="-156" font-family="Helvetica,sans-Serif" font-size="10.00"> &lt; Vec &gt;</text>
</g>
<!-- Node8 -->
<g id="node8" class="node">
<title>Node8</title>
<g id="a_node8"><a xlink:title=" ">
<polygon fill="white" stroke="#bfbfbf" points="746,-112.5 746,-153.5 872,-153.5 872,-112.5 746,-112.5"/>
<text text-anchor="start" x="754" y="-141.5" font-family="Helvetica,sans-Serif" font-size="10.00">boost::intrusive_ptr</text>
<text text-anchor="start" x="754" y="-130.5" font-family="Helvetica,sans-Serif" font-size="10.00">&lt; std::remove_pointer</text>
<text text-anchor="middle" x="809" y="-119.5" font-family="Helvetica,sans-Serif" font-size="10.00">&lt; OBJ &gt;::type &gt;</text>
</a>
</g>
</g>
<!-- Node8&#45;&gt;Node7 -->
<g id="edge7" class="edge">
<title>Node8&#45;&gt;Node7</title>
<path fill="none" stroke="midnightblue" d="M882.31,-133C894.72,-133 907.54,-133 919.74,-133"/>
<polygon fill="midnightblue" stroke="midnightblue" points="882.01,-129.5 872.01,-133 882.01,-136.5 882.01,-129.5"/>
</g>
<!-- Node9 -->
<g id="node9" class="node">
<title>Node9</title>
<g id="a_node9"><a xlink:href="structMoFEM_1_1DeprecatedCoreInterface.html" target="_top" xlink:title="Deprecated interface functions.">
<polygon fill="white" stroke="black" points="1130,-244.5 1130,-263.5 1311,-263.5 1311,-244.5 1130,-244.5"/>
<text text-anchor="middle" x="1220.5" y="-251.5" font-family="Helvetica,sans-Serif" font-size="10.00">MoFEM::DeprecatedCoreInterface</text>
</a>
</g>
</g>
<!-- Node9&#45;&gt;Node1 -->
<g id="edge16" class="edge">
<title>Node9&#45;&gt;Node1</title>
<path fill="none" stroke="#9a32cd" stroke-dasharray="5,2" d="M1321.07,-252.14C1366.06,-250.54 1419.82,-247.55 1468,-242 1772.76,-206.91 1849.11,-191.29 2147,-118 2159.68,-114.88 2173.26,-110.92 2185.71,-107.04"/>
<polygon fill="#9a32cd" stroke="#9a32cd" points="1320.89,-248.65 1311.01,-252.48 1321.13,-255.64 1320.89,-248.65"/>
<text text-anchor="middle" x="1746.5" y="-213" font-family="Helvetica,sans-Serif" font-size="10.00"> mField</text>
</g>
<!-- Node9&#45;&gt;Node3 -->
<g id="edge8" class="edge">
<title>Node9&#45;&gt;Node3</title>
<path fill="none" stroke="#9a32cd" stroke-dasharray="5,2" d="M1274.06,-242.32C1291.51,-238.56 1311.06,-234.47 1329,-231 1390.55,-219.11 1407.06,-221.72 1468,-207 1494.32,-200.64 1523.27,-191.67 1546.31,-184.04"/>
<polygon fill="#9a32cd" stroke="#9a32cd" points="1273.09,-238.95 1264.06,-244.49 1274.57,-245.79 1273.09,-238.95"/>
<text text-anchor="middle" x="1398.5" y="-234" font-family="Helvetica,sans-Serif" font-size="10.00"> mField</text>
</g>
<!-- Node10 -->
<g id="node10" class="node">
<title>Node10</title>
<g id="a_node10"><a xlink:href="structMoFEM_1_1CoreInterface.html" target="_top" xlink:title="Interface.">
<polygon fill="white" stroke="black" points="923,-244.5 923,-263.5 1048,-263.5 1048,-244.5 923,-244.5"/>
<text text-anchor="middle" x="985.5" y="-251.5" font-family="Helvetica,sans-Serif" font-size="10.00">MoFEM::CoreInterface</text>
</a>
</g>
</g>
<!-- Node10&#45;&gt;Node9 -->
<g id="edge9" class="edge">
<title>Node10&#45;&gt;Node9</title>
<path fill="none" stroke="midnightblue" d="M1058.23,-254C1080.9,-254 1106.22,-254 1129.97,-254"/>
<polygon fill="midnightblue" stroke="midnightblue" points="1058.02,-250.5 1048.02,-254 1058.02,-257.5 1058.02,-250.5"/>
</g>
<!-- Node11 -->
<g id="node11" class="node">
<title>Node11</title>
<g id="a_node11"><a xlink:href="structMoFEM_1_1UnknownInterface.html" target="_top" xlink:title="base class for all interface classes">
<polygon fill="white" stroke="black" points="735,-244.5 735,-263.5 883,-263.5 883,-244.5 735,-244.5"/>
<text text-anchor="middle" x="809" y="-251.5" font-family="Helvetica,sans-Serif" font-size="10.00">MoFEM::UnknownInterface</text>
</a>
</g>
</g>
<!-- Node11&#45;&gt;Node10 -->
<g id="edge10" class="edge">
<title>Node11&#45;&gt;Node10</title>
<path fill="none" stroke="midnightblue" d="M893.48,-254C903.35,-254 913.28,-254 922.77,-254"/>
<polygon fill="midnightblue" stroke="midnightblue" points="893.25,-250.5 883.25,-254 893.25,-257.5 893.25,-250.5"/>
</g>
<!-- Node12 -->
<g id="node12" class="node">
<title>Node12</title>
<g id="a_node12"><a xlink:title=" ">
<polygon fill="white" stroke="#bfbfbf" points="386,-222.5 386,-285.5 627,-285.5 627,-222.5 386,-222.5"/>
<text text-anchor="start" x="394" y="-273.5" font-family="Helvetica,sans-Serif" font-size="10.00">multi_index_container</text>
<text text-anchor="start" x="394" y="-262.5" font-family="Helvetica,sans-Serif" font-size="10.00">&lt; UIdTypeMap, indexed</text>
<text text-anchor="start" x="394" y="-251.5" font-family="Helvetica,sans-Serif" font-size="10.00">_by&lt; hashed_unique&lt; member</text>
<text text-anchor="start" x="394" y="-240.5" font-family="Helvetica,sans-Serif" font-size="10.00">&lt; UIdTypeMap, boost::typeindex</text>
<text text-anchor="middle" x="506.5" y="-229.5" font-family="Helvetica,sans-Serif" font-size="10.00">::type_index, &amp;UIdTypeMap::classIdx &gt; &gt; &gt; &gt;</text>
</a>
</g>
</g>
<!-- Node12&#45;&gt;Node11 -->
<g id="edge11" class="edge">
<title>Node12&#45;&gt;Node11</title>
<path fill="none" stroke="#9a32cd" stroke-dasharray="5,2" d="M637.41,-254C670.69,-254 705.33,-254 734.62,-254"/>
<polygon fill="#9a32cd" stroke="#9a32cd" points="637.13,-250.5 627.13,-254 637.13,-257.5 637.13,-250.5"/>
<text text-anchor="middle" x="681" y="-257" font-family="Helvetica,sans-Serif" font-size="10.00"> iFaceTypeMap</text>
</g>
<!-- Node13 -->
<g id="node13" class="node">
<title>Node13</title>
<g id="a_node13"><a xlink:title=" ">
<polygon fill="white" stroke="#bfbfbf" points="0,-244.5 0,-263.5 125,-263.5 125,-244.5 0,-244.5"/>
<text text-anchor="middle" x="62.5" y="-251.5" font-family="Helvetica,sans-Serif" font-size="10.00">multi_index_container</text>
</a>
</g>
</g>
<!-- Node13&#45;&gt;Node12 -->
<g id="edge12" class="edge">
<title>Node13&#45;&gt;Node12</title>
<path fill="none" stroke="orange" stroke-dasharray="5,2" d="M135.56,-254C203.25,-254 305.79,-254 385.77,-254"/>
<polygon fill="orange" stroke="orange" points="135.42,-250.5 125.42,-254 135.42,-257.5 135.42,-250.5"/>
<text text-anchor="start" x="143" y="-290" font-family="Helvetica,sans-Serif" font-size="10.00"> &lt; UIdTypeMap, indexed</text>
<text text-anchor="start" x="143" y="-279" font-family="Helvetica,sans-Serif" font-size="10.00">_by&lt; hashed_unique&lt; member</text>
<text text-anchor="start" x="143" y="-268" font-family="Helvetica,sans-Serif" font-size="10.00">&lt; UIdTypeMap, boost::typeindex</text>
<text text-anchor="middle" x="255.5" y="-257" font-family="Helvetica,sans-Serif" font-size="10.00">::type_index, &amp;UIdTypeMap::classIdx &gt; &gt; &gt; &gt;</text>
</g>
<!-- Node14 -->
<g id="node14" class="node">
<title>Node14</title>
<g id="a_node14"><a xlink:href="classbool.html" target="_top" xlink:title=" ">
<polygon fill="white" stroke="black" points="1201.5,-70.5 1201.5,-89.5 1239.5,-89.5 1239.5,-70.5 1201.5,-70.5"/>
<text text-anchor="middle" x="1220.5" y="-77.5" font-family="Helvetica,sans-Serif" font-size="10.00">bool</text>
</a>
</g>
</g>
<!-- Node14&#45;&gt;Node1 -->
<g id="edge17" class="edge">
<title>Node14&#45;&gt;Node1</title>
<path fill="none" stroke="#9a32cd" stroke-dasharray="5,2" d="M1249.88,-80.34C1385.35,-81.95 1967.79,-88.88 2164.96,-91.22"/>
<polygon fill="#9a32cd" stroke="#9a32cd" points="1249.92,-76.84 1239.87,-80.22 1249.83,-83.84 1249.92,-76.84"/>
<text text-anchor="middle" x="1746.5" y="-90" font-family="Helvetica,sans-Serif" font-size="10.00"> newtonCotes</text>
</g>
<!-- Node14&#45;&gt;Node3 -->
<g id="edge13" class="edge">
<title>Node14&#45;&gt;Node3</title>
<path fill="none" stroke="#9a32cd" stroke-dasharray="5,2" d="M1249.77,-79.12C1297.73,-78.84 1396.77,-83.59 1468,-123 1478.46,-128.79 1475.76,-136.83 1486,-143 1497.35,-149.83 1510.43,-154.88 1523.39,-158.6"/>
<polygon fill="#9a32cd" stroke="#9a32cd" points="1249.48,-75.62 1239.53,-79.26 1249.58,-82.62 1249.48,-75.62"/>
<text text-anchor="middle" x="1398.5" y="-126" font-family="Helvetica,sans-Serif" font-size="10.00"> newtonCotes</text>
</g>
<!-- Node15 -->
<g id="node15" class="node">
<title>Node15</title>
<g id="a_node15"><a xlink:title=" ">
<polygon fill="white" stroke="#bfbfbf" points="1198,-117.5 1198,-136.5 1243,-136.5 1243,-117.5 1198,-117.5"/>
<text text-anchor="middle" x="1220.5" y="-124.5" font-family="Helvetica,sans-Serif" font-size="10.00">friend</text>
</a>
</g>
</g>
<!-- Node15&#45;&gt;Node3 -->
<g id="edge14" class="edge">
<title>Node15&#45;&gt;Node3</title>
<path fill="none" stroke="#9a32cd" stroke-dasharray="5,2" d="M1253.44,-130.36C1300.45,-135.33 1391.04,-145.03 1468,-154 1485.94,-156.09 1505.37,-158.45 1523.31,-160.66"/>
<polygon fill="#9a32cd" stroke="#9a32cd" points="1253.59,-126.85 1243.27,-129.28 1252.85,-133.81 1253.59,-126.85"/>
<text text-anchor="middle" x="1398.5" y="-157" font-family="Helvetica,sans-Serif" font-size="10.00"> ConvectSlaveIntegrationPts</text>
</g>
<!-- Node16 -->
<g id="node16" class="node">
<title>Node16</title>
<g id="a_node16"><a xlink:title=" ">
<polygon fill="white" stroke="#bfbfbf" points="1486,-103 1486,-133 1695,-133 1695,-103 1486,-103"/>
<text text-anchor="start" x="1494" y="-121" font-family="Helvetica,sans-Serif" font-size="10.00">shared_ptr&lt; SimpleContact</text>
<text text-anchor="middle" x="1590.5" y="-110" font-family="Helvetica,sans-Serif" font-size="10.00">Problem::ConvectSlaveIntegrationPts &gt;</text>
</a>
</g>
</g>
<!-- Node16&#45;&gt;Node2 -->
<g id="edge15" class="edge">
<title>Node16&#45;&gt;Node2</title>
<path fill="none" stroke="#9a32cd" stroke-dasharray="5,2" d="M1705.4,-118C1736.19,-118 1769.01,-118 1798,-118"/>
<polygon fill="#9a32cd" stroke="#9a32cd" points="1705.04,-114.5 1695.04,-118 1705.04,-121.5 1705.04,-114.5"/>
<text text-anchor="middle" x="1746.5" y="-121" font-family="Helvetica,sans-Serif" font-size="10.00"> convectPtr</text>
</g>
<!-- Node17 -->
<g id="node17" class="node">
<title>Node17</title>
<g id="a_node17"><a xlink:title=" ">
<polygon fill="white" stroke="#bfbfbf" points="1804.5,-0.5 1804.5,-41.5 1965.5,-41.5 1965.5,-0.5 1804.5,-0.5"/>
<text text-anchor="start" x="1812.5" y="-29.5" font-family="Helvetica,sans-Serif" font-size="10.00">shared_ptr&lt; ContactSearch</text>
<text text-anchor="start" x="1812.5" y="-18.5" font-family="Helvetica,sans-Serif" font-size="10.00">KdTree::ContactCommonData</text>
<text text-anchor="middle" x="1885" y="-7.5" font-family="Helvetica,sans-Serif" font-size="10.00">_multiIndex &gt;</text>
</a>
</g>
</g>
<!-- Node17&#45;&gt;Node1 -->
<g id="edge18" class="edge">
<title>Node17&#45;&gt;Node1</title>
<path fill="none" stroke="#9a32cd" stroke-dasharray="5,2" d="M1975.68,-20.03C2026.89,-21.74 2091.71,-27.77 2147,-45 2169.87,-52.13 2193.43,-66.11 2209.67,-76.98"/>
<polygon fill="#9a32cd" stroke="#9a32cd" points="1975.72,-16.53 1965.63,-19.74 1975.52,-23.53 1975.72,-16.53"/>
<text text-anchor="middle" x="2068.5" y="-48" font-family="Helvetica,sans-Serif" font-size="10.00"> contactCommondataMultiIndex</text>
</g>
</g>
</svg>
        <g id="navigator" transform="translate(0 0)" fill="#404254">
                <rect fill="#f2f5e9" fill-opacity="0.5" stroke="#606060" stroke-width=".5" x="0" y="0" width="60" height="60"/>
                <use id="zoomplus" xlink:href="#zoomPlus" x="17" y="9" onmousedown="handleZoom(evt,'in')"/>
                <use id="zoomminus" xlink:href="#zoomMin" x="42" y="9" onmousedown="handleZoom(evt,'out')"/>
                <use id="reset" xlink:href="#resetDef" x="30" y="36" onmousedown="handleReset()"/>
                <g id="arrowUp" xlink:href="#dirArrow" transform="translate(30 24)" onmousedown="handlePan(0,-1)">
                  <use xlink:href="#rim" fill="#404040">
                        <set attributeName="fill" to="#808080" begin="arrowUp.mouseover" end="arrowUp.mouseout"/>
                  </use>
                  <path fill="none" stroke="white" stroke-width="1.5" d="M0,-3.0v7 M-2.5,-0.5L0,-3.0L2.5,-0.5"/>
                </g>
                <g id="arrowRight" xlink:href="#dirArrow" transform="rotate(90) translate(36 -43)" onmousedown="handlePan(1,0)">
                  <use xlink:href="#rim" fill="#404040">
                        <set attributeName="fill" to="#808080" begin="arrowRight.mouseover" end="arrowRight.mouseout"/>
                  </use>
                  <path fill="none" stroke="white" stroke-width="1.5" d="M0,-3.0v7 M-2.5,-0.5L0,-3.0L2.5,-0.5"/>
                </g>
                <g id="arrowDown" xlink:href="#dirArrow" transform="rotate(180) translate(-30 -48)" onmousedown="handlePan(0,1)">
                  <use xlink:href="#rim" fill="#404040">
                        <set attributeName="fill" to="#808080" begin="arrowDown.mouseover" end="arrowDown.mouseout"/>
                  </use>
                  <path fill="none" stroke="white" stroke-width="1.5" d="M0,-3.0v7 M-2.5,-0.5L0,-3.0L2.5,-0.5"/>
                </g>
                <g id="arrowLeft" xlink:href="#dirArrow" transform="rotate(270) translate(-36 17)" onmousedown="handlePan(-1,0)">
                  <use xlink:href="#rim" fill="#404040">
                        <set attributeName="fill" to="#808080" begin="arrowLeft.mouseover" end="arrowLeft.mouseout"/>
                  </use>
                  <path fill="none" stroke="white" stroke-width="1.5" d="M0,-3.0v7 M-2.5,-0.5L0,-3.0L2.5,-0.5"/>
                </g>
        </g>
        <svg viewBox="0 0 15 15" width="100%" height="30px" preserveAspectRatio="xMaxYMin meet">
         <g id="arrow_out" transform="scale(0.3 0.3)">
          <a xlink:href="structMortarContactProblem_1_1MortarContactElement__coll__graph_org.svg" target="_base">
           <rect id="button" ry="5" rx="5" y="6" x="6" height="38" width="38"
                fill="#f2f5e9" fill-opacity="0.5" stroke="#606060" stroke-width="1.0"/>
           <path id="arrow"
             d="M 11.500037,31.436501 C 11.940474,20.09759 22.043105,11.32322 32.158766,21.979434 L 37.068811,17.246167 C 37.068811,17.246167 37.088388,32 37.088388,32 L 22.160133,31.978069 C 22.160133,31.978069 26.997745,27.140456 26.997745,27.140456 C 18.528582,18.264221 13.291696,25.230495 11.500037,31.436501 z"
             style="fill:#404040;"/>
          </a>
         </g>
        </svg>
</svg>
