<?xml version="1.0" encoding="UTF-8" standalone="no"?>
<!DOCTYPE svg PUBLIC "-//W3C//DTD SVG 1.1//EN"
 "http://www.w3.org/Graphics/SVG/1.1/DTD/svg11.dtd">
<!-- Generated by graphviz version 2.43.0 (0)
 -->
<!-- Title: PostProcFaceOnRefinedMesh Pages: 1 -->
<!--zoomable 606 -->
<svg id="main" version="1.1" xmlns="http://www.w3.org/2000/svg" xmlns:xlink="http://www.w3.org/1999/xlink" xml:space="preserve" onload="init(evt)">
<style type="text/css"><![CDATA[
.edge:hover path { stroke: red; }
.edge:hover polygon { stroke: red; fill: red; }
]]></style>
<script type="text/javascript"><![CDATA[
var edges = document.getElementsByTagName('g');
if (edges && edges.length) {
  for (var i=0;i<edges.length;i++) {
    if (edges[i].id.substr(0,4)=='edge') {
      edges[i].setAttribute('class','edge');
    }
  }
}
]]></script>
        <defs>
                <circle id="rim" cx="0" cy="0" r="7"/>
                <circle id="rim2" cx="0" cy="0" r="3.5"/>
                <g id="zoomPlus">
                        <use xlink:href="#rim" fill="#404040">
                                <set attributeName="fill" to="#808080" begin="zoomplus.mouseover" end="zoomplus.mouseout"/>
                        </use>
                        <path d="M-4,0h8M0,-4v8" fill="none" stroke="white" stroke-width="1.5" pointer-events="none"/>
                </g>
                <g id="zoomMin">
                        <use xlink:href="#rim" fill="#404040">
                                <set attributeName="fill" to="#808080" begin="zoomminus.mouseover" end="zoomminus.mouseout"/>
                        </use>
                        <path d="M-4,0h8" fill="none" stroke="white" stroke-width="1.5" pointer-events="none"/>
                </g>
                <g id="dirArrow">
                        <path fill="none" stroke="white" stroke-width="1.5" d="M0,-3.0v7 M-2.5,-0.5L0,-3.0L2.5,-0.5"/>
                </g>
               <g id="resetDef">
                       <use xlink:href="#rim2" fill="#404040">
                               <set attributeName="fill" to="#808080" begin="reset.mouseover" end="reset.mouseout"/>
                       </use>
               </g>
        </defs>

<script type="text/javascript">
var viewWidth = 489;
var viewHeight = 606;
var sectionId = 'dynsection-0';
</script>
<script xlink:href="svgpan.js"/>
<svg id="graph" class="graph">
<g id="viewport">
<title>PostProcFaceOnRefinedMesh</title>
<polygon fill="white" stroke="transparent" points="-4,4 -4,-602 484.5,-602 484.5,4 -4,4"/>
<!-- Node1 -->
<g id="node1" class="node">
<title>Node1</title>
<g id="a_node1"><a xlink:title="Postprocess on face.">
<polygon fill="#bfbfbf" stroke="black" points="195,-68.5 195,-87.5 352,-87.5 352,-68.5 195,-68.5"/>
<text text-anchor="middle" x="273.5" y="-75.5" font-family="Helvetica,sans-Serif" font-size="10.00">PostProcFaceOnRefinedMesh</text>
</a>
</g>
</g>
<!-- Node14 -->
<g id="node14" class="node">
<title>Node14</title>
<g id="a_node14"><a xlink:href="structPostProcFaceOnRefinedMeshFor2D.html" target="_top" xlink:title="Postprocess 2d face elements.">
<polygon fill="white" stroke="black" points="195,-0.5 195,-30.5 352,-30.5 352,-0.5 195,-0.5"/>
<text text-anchor="start" x="203" y="-18.5" font-family="Helvetica,sans-Serif" font-size="10.00">PostProcFaceOnRefinedMesh</text>
<text text-anchor="middle" x="273.5" y="-7.5" font-family="Helvetica,sans-Serif" font-size="10.00">For2D</text>
</a>
</g>
</g>
<!-- Node1&#45;&gt;Node14 -->
<g id="edge15" class="edge">
<title>Node1&#45;&gt;Node14</title>
<path fill="none" stroke="midnightblue" d="M273.5,-58.22C273.5,-49.36 273.5,-38.96 273.5,-30.76"/>
<polygon fill="midnightblue" stroke="midnightblue" points="270,-58.33 273.5,-68.33 277,-58.33 270,-58.33"/>
</g>
<!-- Node2 -->
<g id="node2" class="node">
<title>Node2</title>
<g id="a_node2"><a xlink:href="structPostProcTemplateOnRefineMesh.html" target="_top" xlink:title=" ">
<polygon fill="white" stroke="black" points="178.5,-125.5 178.5,-166.5 368.5,-166.5 368.5,-125.5 178.5,-125.5"/>
<text text-anchor="start" x="186.5" y="-154.5" font-family="Helvetica,sans-Serif" font-size="10.00">PostProcTemplateOnRefine</text>
<text text-anchor="start" x="186.5" y="-143.5" font-family="Helvetica,sans-Serif" font-size="10.00">Mesh&lt; MoFEM::FaceElementForces</text>
<text text-anchor="middle" x="273.5" y="-132.5" font-family="Helvetica,sans-Serif" font-size="10.00">AndSourcesCore &gt;</text>
</a>
</g>
</g>
<!-- Node2&#45;&gt;Node1 -->
<g id="edge1" class="edge">
<title>Node2&#45;&gt;Node1</title>
<path fill="none" stroke="midnightblue" d="M273.5,-115.12C273.5,-105.17 273.5,-94.84 273.5,-87.79"/>
<polygon fill="midnightblue" stroke="midnightblue" points="270,-115.2 273.5,-125.2 277,-115.2 270,-115.2"/>
</g>
<!-- Node3 -->
<g id="node3" class="node">
<title>Node3</title>
<g id="a_node3"><a xlink:href="structMoFEM_1_1FaceElementForcesAndSourcesCore.html" target="_top" xlink:title="Face finite element.">
<polygon fill="white" stroke="black" points="114.5,-225.5 114.5,-255.5 266.5,-255.5 266.5,-225.5 114.5,-225.5"/>
<text text-anchor="start" x="122.5" y="-243.5" font-family="Helvetica,sans-Serif" font-size="10.00">MoFEM::FaceElementForces</text>
<text text-anchor="middle" x="190.5" y="-232.5" font-family="Helvetica,sans-Serif" font-size="10.00">AndSourcesCore</text>
</a>
</g>
</g>
<!-- Node3&#45;&gt;Node2 -->
<g id="edge2" class="edge">
<title>Node3&#45;&gt;Node2</title>
<path fill="none" stroke="midnightblue" d="M209.9,-217.88C223.79,-202.4 242.36,-181.71 255.84,-166.68"/>
<polygon fill="midnightblue" stroke="midnightblue" points="207.18,-215.67 203.11,-225.45 212.39,-220.35 207.18,-215.67"/>
</g>
<!-- Node4 -->
<g id="node4" class="node">
<title>Node4</title>
<g id="a_node4"><a xlink:href="structMoFEM_1_1ForcesAndSourcesCore.html" target="_top" xlink:title="structure to get information form mofem into EntitiesFieldData">
<polygon fill="white" stroke="black" points="105.5,-293.5 105.5,-312.5 275.5,-312.5 275.5,-293.5 105.5,-293.5"/>
<text text-anchor="middle" x="190.5" y="-300.5" font-family="Helvetica,sans-Serif" font-size="10.00">MoFEM::ForcesAndSourcesCore</text>
</a>
</g>
</g>
<!-- Node4&#45;&gt;Node3 -->
<g id="edge3" class="edge">
<title>Node4&#45;&gt;Node3</title>
<path fill="none" stroke="midnightblue" d="M190.5,-283.22C190.5,-274.36 190.5,-263.96 190.5,-255.76"/>
<polygon fill="midnightblue" stroke="midnightblue" points="187,-283.33 190.5,-293.33 194,-283.33 187,-283.33"/>
</g>
<!-- Node5 -->
<g id="node5" class="node">
<title>Node5</title>
<g id="a_node5"><a xlink:href="structMoFEM_1_1FEMethod.html" target="_top" xlink:title="structure for User Loop Methods on finite elements">
<polygon fill="white" stroke="black" points="137,-350.5 137,-369.5 244,-369.5 244,-350.5 137,-350.5"/>
<text text-anchor="middle" x="190.5" y="-357.5" font-family="Helvetica,sans-Serif" font-size="10.00">MoFEM::FEMethod</text>
</a>
</g>
</g>
<!-- Node5&#45;&gt;Node4 -->
<g id="edge4" class="edge">
<title>Node5&#45;&gt;Node4</title>
<path fill="none" stroke="midnightblue" d="M190.5,-340.12C190.5,-330.82 190.5,-320.06 190.5,-312.71"/>
<polygon fill="midnightblue" stroke="midnightblue" points="187,-340.41 190.5,-350.41 194,-340.41 187,-340.41"/>
</g>
<!-- Node6 -->
<g id="node6" class="node">
<title>Node6</title>
<g id="a_node6"><a xlink:href="structMoFEM_1_1BasicMethod.html" target="_top" xlink:title="Data structure to exchange data between mofem and User Loop Methods.">
<polygon fill="white" stroke="black" points="129.5,-407.5 129.5,-426.5 251.5,-426.5 251.5,-407.5 129.5,-407.5"/>
<text text-anchor="middle" x="190.5" y="-414.5" font-family="Helvetica,sans-Serif" font-size="10.00">MoFEM::BasicMethod</text>
</a>
</g>
</g>
<!-- Node6&#45;&gt;Node5 -->
<g id="edge5" class="edge">
<title>Node6&#45;&gt;Node5</title>
<path fill="none" stroke="midnightblue" d="M190.5,-397.12C190.5,-387.82 190.5,-377.06 190.5,-369.71"/>
<polygon fill="midnightblue" stroke="midnightblue" points="187,-397.41 190.5,-407.41 194,-397.41 187,-397.41"/>
</g>
<!-- Node7 -->
<g id="node7" class="node">
<title>Node7</title>
<g id="a_node7"><a xlink:href="structMoFEM_1_1KspMethod.html" target="_top" xlink:title="data structure for ksp (linear solver) context">
<polygon fill="white" stroke="black" points="0,-464.5 0,-483.5 113,-483.5 113,-464.5 0,-464.5"/>
<text text-anchor="middle" x="56.5" y="-471.5" font-family="Helvetica,sans-Serif" font-size="10.00">MoFEM::KspMethod</text>
</a>
</g>
</g>
<!-- Node7&#45;&gt;Node6 -->
<g id="edge6" class="edge">
<title>Node7&#45;&gt;Node6</title>
<path fill="none" stroke="midnightblue" d="M86.93,-460.51C112.22,-450.13 147.54,-435.63 169.71,-426.53"/>
<polygon fill="midnightblue" stroke="midnightblue" points="85.36,-457.37 77.44,-464.41 88.02,-463.85 85.36,-457.37"/>
</g>
<!-- Node8 -->
<g id="node8" class="node">
<title>Node8</title>
<g id="a_node8"><a xlink:href="structMoFEM_1_1PetscData.html" target="_top" xlink:title=" ">
<polygon fill="white" stroke="black" points="136.5,-521.5 136.5,-540.5 244.5,-540.5 244.5,-521.5 136.5,-521.5"/>
<text text-anchor="middle" x="190.5" y="-528.5" font-family="Helvetica,sans-Serif" font-size="10.00">MoFEM::PetscData</text>
</a>
</g>
</g>
<!-- Node8&#45;&gt;Node7 -->
<g id="edge7" class="edge">
<title>Node8&#45;&gt;Node7</title>
<path fill="none" stroke="midnightblue" d="M160.07,-517.51C134.78,-507.13 99.46,-492.63 77.29,-483.53"/>
<polygon fill="midnightblue" stroke="midnightblue" points="158.98,-520.85 169.56,-521.41 161.64,-514.37 158.98,-520.85"/>
</g>
<!-- Node10 -->
<g id="node10" class="node">
<title>Node10</title>
<g id="a_node10"><a xlink:href="structMoFEM_1_1SnesMethod.html" target="_top" xlink:title="data structure for snes (nonlinear solver) context">
<polygon fill="white" stroke="black" points="131,-464.5 131,-483.5 250,-483.5 250,-464.5 131,-464.5"/>
<text text-anchor="middle" x="190.5" y="-471.5" font-family="Helvetica,sans-Serif" font-size="10.00">MoFEM::SnesMethod</text>
</a>
</g>
</g>
<!-- Node8&#45;&gt;Node10 -->
<g id="edge10" class="edge">
<title>Node8&#45;&gt;Node10</title>
<path fill="none" stroke="darkgreen" d="M190.5,-511.12C190.5,-501.82 190.5,-491.06 190.5,-483.71"/>
<polygon fill="darkgreen" stroke="darkgreen" points="187,-511.41 190.5,-521.41 194,-511.41 187,-511.41"/>
</g>
<!-- Node11 -->
<g id="node11" class="node">
<title>Node11</title>
<g id="a_node11"><a xlink:href="structMoFEM_1_1TSMethod.html" target="_top" xlink:title="data structure for TS (time stepping) context">
<polygon fill="white" stroke="black" points="268,-464.5 268,-483.5 375,-483.5 375,-464.5 268,-464.5"/>
<text text-anchor="middle" x="321.5" y="-471.5" font-family="Helvetica,sans-Serif" font-size="10.00">MoFEM::TSMethod</text>
</a>
</g>
</g>
<!-- Node8&#45;&gt;Node11 -->
<g id="edge12" class="edge">
<title>Node8&#45;&gt;Node11</title>
<path fill="none" stroke="darkgreen" d="M220.25,-517.51C244.97,-507.13 279.51,-492.63 301.17,-483.53"/>
<polygon fill="darkgreen" stroke="darkgreen" points="218.83,-514.31 210.97,-521.41 221.54,-520.76 218.83,-514.31"/>
</g>
<!-- Node9 -->
<g id="node9" class="node">
<title>Node9</title>
<g id="a_node9"><a xlink:href="structMoFEM_1_1UnknownInterface.html" target="_top" xlink:title="base class for all interface classes">
<polygon fill="white" stroke="black" points="116.5,-578.5 116.5,-597.5 264.5,-597.5 264.5,-578.5 116.5,-578.5"/>
<text text-anchor="middle" x="190.5" y="-585.5" font-family="Helvetica,sans-Serif" font-size="10.00">MoFEM::UnknownInterface</text>
</a>
</g>
</g>
<!-- Node9&#45;&gt;Node8 -->
<g id="edge8" class="edge">
<title>Node9&#45;&gt;Node8</title>
<path fill="none" stroke="midnightblue" d="M190.5,-568.12C190.5,-558.82 190.5,-548.06 190.5,-540.71"/>
<polygon fill="midnightblue" stroke="midnightblue" points="187,-568.41 190.5,-578.41 194,-568.41 187,-568.41"/>
</g>
<!-- Node10&#45;&gt;Node6 -->
<g id="edge9" class="edge">
<title>Node10&#45;&gt;Node6</title>
<path fill="none" stroke="midnightblue" d="M190.5,-454.12C190.5,-444.82 190.5,-434.06 190.5,-426.71"/>
<polygon fill="midnightblue" stroke="midnightblue" points="187,-454.41 190.5,-464.41 194,-454.41 187,-454.41"/>
</g>
<!-- Node11&#45;&gt;Node6 -->
<g id="edge11" class="edge">
<title>Node11&#45;&gt;Node6</title>
<path fill="none" stroke="midnightblue" d="M291.75,-460.51C267.03,-450.13 232.49,-435.63 210.83,-426.53"/>
<polygon fill="midnightblue" stroke="midnightblue" points="290.46,-463.76 301.03,-464.41 293.17,-457.31 290.46,-463.76"/>
</g>
<!-- Node12 -->
<g id="node12" class="node">
<title>Node12</title>
<g id="a_node12"><a xlink:href="structPostProcTemplateOnRefineMesh.html" target="_top" xlink:title="Generic post&#45;processing class.">
<polygon fill="white" stroke="black" points="284.5,-225.5 284.5,-255.5 432.5,-255.5 432.5,-225.5 284.5,-225.5"/>
<text text-anchor="start" x="292.5" y="-243.5" font-family="Helvetica,sans-Serif" font-size="10.00">PostProcTemplateOnRefine</text>
<text text-anchor="middle" x="358.5" y="-232.5" font-family="Helvetica,sans-Serif" font-size="10.00">Mesh&lt; ELEMENT &gt;</text>
</a>
</g>
</g>
<!-- Node12&#45;&gt;Node2 -->
<g id="edge13" class="edge">
<title>Node12&#45;&gt;Node2</title>
<path fill="none" stroke="orange" stroke-dasharray="5,2" d="M338.64,-217.88C324.41,-202.4 305.4,-181.71 291.59,-166.68"/>
<polygon fill="orange" stroke="orange" points="336.25,-220.46 345.59,-225.45 341.4,-215.72 336.25,-220.46"/>
<text text-anchor="start" x="329.5" y="-199" font-family="Helvetica,sans-Serif" font-size="10.00"> &lt; MoFEM::FaceElementForces</text>
<text text-anchor="middle" x="405" y="-188" font-family="Helvetica,sans-Serif" font-size="10.00">AndSourcesCore &gt;</text>
</g>
<!-- Node13 -->
<g id="node13" class="node">
<title>Node13</title>
<g id="a_node13"><a xlink:href="classELEMENT.html" target="_top" xlink:title=" ">
<polygon fill="white" stroke="black" points="327.5,-293.5 327.5,-312.5 389.5,-312.5 389.5,-293.5 327.5,-293.5"/>
<text text-anchor="middle" x="358.5" y="-300.5" font-family="Helvetica,sans-Serif" font-size="10.00">ELEMENT</text>
</a>
</g>
</g>
<!-- Node13&#45;&gt;Node12 -->
<g id="edge14" class="edge">
<title>Node13&#45;&gt;Node12</title>
<path fill="none" stroke="midnightblue" d="M358.5,-283.22C358.5,-274.36 358.5,-263.96 358.5,-255.76"/>
<polygon fill="midnightblue" stroke="midnightblue" points="355,-283.33 358.5,-293.33 362,-283.33 355,-283.33"/>
</g>
</g>
</svg>
        <g id="navigator" transform="translate(0 0)" fill="#404254">
                <rect fill="#f2f5e9" fill-opacity="0.5" stroke="#606060" stroke-width=".5" x="0" y="0" width="60" height="60"/>
                <use id="zoomplus" xlink:href="#zoomPlus" x="17" y="9" onmousedown="handleZoom(evt,'in')"/>
                <use id="zoomminus" xlink:href="#zoomMin" x="42" y="9" onmousedown="handleZoom(evt,'out')"/>
                <use id="reset" xlink:href="#resetDef" x="30" y="36" onmousedown="handleReset()"/>
                <g id="arrowUp" xlink:href="#dirArrow" transform="translate(30 24)" onmousedown="handlePan(0,-1)">
                  <use xlink:href="#rim" fill="#404040">
                        <set attributeName="fill" to="#808080" begin="arrowUp.mouseover" end="arrowUp.mouseout"/>
                  </use>
                  <path fill="none" stroke="white" stroke-width="1.5" d="M0,-3.0v7 M-2.5,-0.5L0,-3.0L2.5,-0.5"/>
                </g>
                <g id="arrowRight" xlink:href="#dirArrow" transform="rotate(90) translate(36 -43)" onmousedown="handlePan(1,0)">
                  <use xlink:href="#rim" fill="#404040">
                        <set attributeName="fill" to="#808080" begin="arrowRight.mouseover" end="arrowRight.mouseout"/>
                  </use>
                  <path fill="none" stroke="white" stroke-width="1.5" d="M0,-3.0v7 M-2.5,-0.5L0,-3.0L2.5,-0.5"/>
                </g>
                <g id="arrowDown" xlink:href="#dirArrow" transform="rotate(180) translate(-30 -48)" onmousedown="handlePan(0,1)">
                  <use xlink:href="#rim" fill="#404040">
                        <set attributeName="fill" to="#808080" begin="arrowDown.mouseover" end="arrowDown.mouseout"/>
                  </use>
                  <path fill="none" stroke="white" stroke-width="1.5" d="M0,-3.0v7 M-2.5,-0.5L0,-3.0L2.5,-0.5"/>
                </g>
                <g id="arrowLeft" xlink:href="#dirArrow" transform="rotate(270) translate(-36 17)" onmousedown="handlePan(-1,0)">
                  <use xlink:href="#rim" fill="#404040">
                        <set attributeName="fill" to="#808080" begin="arrowLeft.mouseover" end="arrowLeft.mouseout"/>
                  </use>
                  <path fill="none" stroke="white" stroke-width="1.5" d="M0,-3.0v7 M-2.5,-0.5L0,-3.0L2.5,-0.5"/>
                </g>
        </g>
        <svg viewBox="0 0 15 15" width="100%" height="30px" preserveAspectRatio="xMaxYMin meet">
         <g id="arrow_out" transform="scale(0.3 0.3)">
          <a xlink:href="structPostProcFaceOnRefinedMesh__inherit__graph_org.svg" target="_base">
           <rect id="button" ry="5" rx="5" y="6" x="6" height="38" width="38"
                fill="#f2f5e9" fill-opacity="0.5" stroke="#606060" stroke-width="1.0"/>
           <path id="arrow"
             d="M 11.500037,31.436501 C 11.940474,20.09759 22.043105,11.32322 32.158766,21.979434 L 37.068811,17.246167 C 37.068811,17.246167 37.088388,32 37.088388,32 L 22.160133,31.978069 C 22.160133,31.978069 26.997745,27.140456 26.997745,27.140456 C 18.528582,18.264221 13.291696,25.230495 11.500037,31.436501 z"
             style="fill:#404040;"/>
          </a>
         </g>
        </svg>
</svg>
