<?xml version="1.0" encoding="UTF-8" standalone="no"?>
<!DOCTYPE svg PUBLIC "-//W3C//DTD SVG 1.1//EN"
 "http://www.w3.org/Graphics/SVG/1.1/DTD/svg11.dtd">
<!-- Generated by graphviz version 2.43.0 (0)
 -->
<!-- Title: MoFEM::PostProcGenerateRefMesh&lt; MBQUAD &gt; Pages: 1 -->
<!--zoomable 288 -->
<svg id="main" version="1.1" xmlns="http://www.w3.org/2000/svg" xmlns:xlink="http://www.w3.org/1999/xlink" xml:space="preserve" onload="init(evt)">
<style type="text/css"><![CDATA[
.edge:hover path { stroke: red; }
.edge:hover polygon { stroke: red; fill: red; }
]]></style>
<script type="text/javascript"><![CDATA[
var edges = document.getElementsByTagName('g');
if (edges && edges.length) {
  for (var i=0;i<edges.length;i++) {
    if (edges[i].id.substr(0,4)=='edge') {
      edges[i].setAttribute('class','edge');
    }
  }
}
]]></script>
        <defs>
                <circle id="rim" cx="0" cy="0" r="7"/>
                <circle id="rim2" cx="0" cy="0" r="3.5"/>
                <g id="zoomPlus">
                        <use xlink:href="#rim" fill="#404040">
                                <set attributeName="fill" to="#808080" begin="zoomplus.mouseover" end="zoomplus.mouseout"/>
                        </use>
                        <path d="M-4,0h8M0,-4v8" fill="none" stroke="white" stroke-width="1.5" pointer-events="none"/>
                </g>
                <g id="zoomMin">
                        <use xlink:href="#rim" fill="#404040">
                                <set attributeName="fill" to="#808080" begin="zoomminus.mouseover" end="zoomminus.mouseout"/>
                        </use>
                        <path d="M-4,0h8" fill="none" stroke="white" stroke-width="1.5" pointer-events="none"/>
                </g>
                <g id="dirArrow">
                        <path fill="none" stroke="white" stroke-width="1.5" d="M0,-3.0v7 M-2.5,-0.5L0,-3.0L2.5,-0.5"/>
                </g>
               <g id="resetDef">
                       <use xlink:href="#rim2" fill="#404040">
                               <set attributeName="fill" to="#808080" begin="reset.mouseover" end="reset.mouseout"/>
                       </use>
               </g>
        </defs>

<script type="text/javascript">
var viewWidth = 657;
var viewHeight = 288;
var sectionId = 'dynsection-1';
</script>
<script xlink:href="svgpan.js"/>
<svg id="graph" class="graph">
<g id="viewport">
<title>MoFEM::PostProcGenerateRefMesh&lt; MBQUAD &gt;</title>
<polygon fill="white" stroke="transparent" points="-4,4 -4,-284 653,-284 653,4 -4,4"/>
<!-- Node1 -->
<g id="node1" class="node">
<title>Node1</title>
<g id="a_node1"><a xlink:title=" ">
<polygon fill="#bfbfbf" stroke="black" points="487,-128 487,-158 649,-158 649,-128 487,-128"/>
<text text-anchor="start" x="495" y="-146" font-family="Helvetica,sans-Serif" font-size="10.00">MoFEM::PostProcGenerateRef</text>
<text text-anchor="middle" x="568" y="-135" font-family="Helvetica,sans-Serif" font-size="10.00">Mesh&lt; MBQUAD &gt;</text>
</a>
</g>
</g>
<!-- Node2 -->
<g id="node2" class="node">
<title>Node2</title>
<g id="a_node2"><a xlink:href="structMoFEM_1_1PostProcGenerateRefMeshBase.html" target="_top" xlink:title=" ">
<polygon fill="white" stroke="black" points="288,-128 288,-158 450,-158 450,-128 288,-128"/>
<text text-anchor="start" x="296" y="-146" font-family="Helvetica,sans-Serif" font-size="10.00">MoFEM::PostProcGenerateRef</text>
<text text-anchor="middle" x="369" y="-135" font-family="Helvetica,sans-Serif" font-size="10.00">MeshBase</text>
</a>
</g>
</g>
<!-- Node2&#45;&gt;Node1 -->
<g id="edge1" class="edge">
<title>Node2&#45;&gt;Node1</title>
<path fill="none" stroke="midnightblue" d="M460.16,-143C469.09,-143 478.12,-143 486.94,-143"/>
<polygon fill="midnightblue" stroke="midnightblue" points="460.13,-139.5 450.13,-143 460.13,-146.5 460.13,-139.5"/>
</g>
<!-- Node3 -->
<g id="node3" class="node">
<title>Node3</title>
<g id="a_node3"><a xlink:title=" ">
<polygon fill="white" stroke="#bfbfbf" points="2,-245 2,-275 121,-275 121,-245 2,-245"/>
<text text-anchor="start" x="10" y="-263" font-family="Helvetica,sans-Serif" font-size="10.00">vector&lt; UBlasMatrix</text>
<text text-anchor="middle" x="61.5" y="-252" font-family="Helvetica,sans-Serif" font-size="10.00">&lt; double &gt; &gt;</text>
</a>
</g>
</g>
<!-- Node3&#45;&gt;Node2 -->
<g id="edge2" class="edge">
<title>Node3&#45;&gt;Node2</title>
<path fill="none" stroke="#9a32cd" stroke-dasharray="5,2" d="M131.47,-259.42C173.24,-256.75 226.65,-249.11 270,-229 306.14,-212.24 338.91,-177.87 355.86,-158.04"/>
<polygon fill="#9a32cd" stroke="#9a32cd" points="131.17,-255.93 121.38,-259.98 131.56,-262.92 131.17,-255.93"/>
<text text-anchor="middle" x="205.5" y="-272" font-family="Helvetica,sans-Serif" font-size="10.00"> levelGaussPtsOnRefMesh</text>
<text text-anchor="middle" x="205.5" y="-261" font-family="Helvetica,sans-Serif" font-size="10.00">levelShapeFunctions</text>
</g>
<!-- Node4 -->
<g id="node4" class="node">
<title>Node4</title>
<g id="a_node4"><a xlink:title=" ">
<polygon fill="white" stroke="#bfbfbf" points="29,-206.5 29,-225.5 94,-225.5 94,-206.5 29,-206.5"/>
<text text-anchor="middle" x="61.5" y="-213.5" font-family="Helvetica,sans-Serif" font-size="10.00">PetscBool</text>
</a>
</g>
</g>
<!-- Node4&#45;&gt;Node2 -->
<g id="edge3" class="edge">
<title>Node4&#45;&gt;Node2</title>
<path fill="none" stroke="#9a32cd" stroke-dasharray="5,2" d="M104.42,-216.1C146.98,-215.16 214.36,-210.77 270,-194 297.18,-185.81 325.69,-170.04 344.9,-158.2"/>
<polygon fill="#9a32cd" stroke="#9a32cd" points="104.09,-212.61 94.15,-216.27 104.21,-219.61 104.09,-212.61"/>
<text text-anchor="middle" x="205.5" y="-217" font-family="Helvetica,sans-Serif" font-size="10.00"> hoNodes</text>
</g>
<!-- Node5 -->
<g id="node5" class="node">
<title>Node5</title>
<g id="a_node5"><a xlink:href="classEntityHandle.html" target="_top" xlink:title=" ">
<polygon fill="white" stroke="black" points="21.5,-155.5 21.5,-174.5 101.5,-174.5 101.5,-155.5 21.5,-155.5"/>
<text text-anchor="middle" x="61.5" y="-162.5" font-family="Helvetica,sans-Serif" font-size="10.00">EntityHandle</text>
</a>
</g>
</g>
<!-- Node5&#45;&gt;Node2 -->
<g id="edge4" class="edge">
<title>Node5&#45;&gt;Node2</title>
<path fill="none" stroke="#9a32cd" stroke-dasharray="5,2" d="M111.53,-161.47C159.01,-158.05 231.83,-152.81 287.76,-148.78"/>
<polygon fill="#9a32cd" stroke="#9a32cd" points="111.22,-157.98 101.5,-162.19 111.73,-164.96 111.22,-157.98"/>
<text text-anchor="middle" x="205.5" y="-184" font-family="Helvetica,sans-Serif" font-size="10.00"> eleConn</text>
<text text-anchor="middle" x="205.5" y="-173" font-family="Helvetica,sans-Serif" font-size="10.00">startingEleHandle</text>
<text text-anchor="middle" x="205.5" y="-162" font-family="Helvetica,sans-Serif" font-size="10.00">startingVertEleHandle</text>
</g>
<!-- Node6 -->
<g id="node6" class="node">
<title>Node6</title>
<g id="a_node6"><a xlink:title=" ">
<polygon fill="white" stroke="#bfbfbf" points="0,-106 0,-136 123,-136 123,-106 0,-106"/>
<text text-anchor="start" x="8" y="-124" font-family="Helvetica,sans-Serif" font-size="10.00">vector&lt; ublas::matrix</text>
<text text-anchor="middle" x="61.5" y="-113" font-family="Helvetica,sans-Serif" font-size="10.00">&lt; int &gt; &gt;</text>
</a>
</g>
</g>
<!-- Node6&#45;&gt;Node2 -->
<g id="edge5" class="edge">
<title>Node6&#45;&gt;Node2</title>
<path fill="none" stroke="#9a32cd" stroke-dasharray="5,2" d="M133.56,-125.55C173.63,-128.17 224.62,-131.62 270,-135 275.79,-135.43 281.77,-135.89 287.78,-136.36"/>
<polygon fill="#9a32cd" stroke="#9a32cd" points="133.56,-122.04 123.35,-124.88 133.1,-129.02 133.56,-122.04"/>
<text text-anchor="middle" x="205.5" y="-138" font-family="Helvetica,sans-Serif" font-size="10.00"> levelRef</text>
</g>
<!-- Node7 -->
<g id="node7" class="node">
<title>Node7</title>
<g id="a_node7"><a xlink:title=" ">
<polygon fill="white" stroke="#bfbfbf" points="47,-38.5 47,-57.5 76,-57.5 76,-38.5 47,-38.5"/>
<text text-anchor="middle" x="61.5" y="-45.5" font-family="Helvetica,sans-Serif" font-size="10.00">int</text>
</a>
</g>
</g>
<!-- Node7&#45;&gt;Node2 -->
<g id="edge6" class="edge">
<title>Node7&#45;&gt;Node2</title>
<path fill="none" stroke="#9a32cd" stroke-dasharray="5,2" d="M86.22,-45.97C125.82,-43.48 207.24,-42.26 270,-67 304.25,-80.5 336.47,-109.88 354.09,-127.89"/>
<polygon fill="#9a32cd" stroke="#9a32cd" points="85.93,-42.48 76.21,-46.68 86.43,-49.46 85.93,-42.48"/>
<text text-anchor="middle" x="205.5" y="-114" font-family="Helvetica,sans-Serif" font-size="10.00"> countEle</text>
<text text-anchor="middle" x="205.5" y="-103" font-family="Helvetica,sans-Serif" font-size="10.00">nbVertices</text>
<text text-anchor="middle" x="205.5" y="-92" font-family="Helvetica,sans-Serif" font-size="10.00">nbEles</text>
<text text-anchor="middle" x="205.5" y="-81" font-family="Helvetica,sans-Serif" font-size="10.00">countVertEle</text>
<text text-anchor="middle" x="205.5" y="-70" font-family="Helvetica,sans-Serif" font-size="10.00">defMaxLevel</text>
</g>
<!-- Node8 -->
<g id="node8" class="node">
<title>Node8</title>
<g id="a_node8"><a xlink:title=" ">
<polygon fill="white" stroke="#bfbfbf" points="6,-0.5 6,-19.5 117,-19.5 117,-0.5 6,-0.5"/>
<text text-anchor="middle" x="61.5" y="-7.5" font-family="Helvetica,sans-Serif" font-size="10.00">vector&lt; double * &gt;</text>
</a>
</g>
</g>
<!-- Node8&#45;&gt;Node2 -->
<g id="edge7" class="edge">
<title>Node8&#45;&gt;Node2</title>
<path fill="none" stroke="#9a32cd" stroke-dasharray="5,2" d="M127.19,-3.76C169.99,-2.47 226.09,-6.36 270,-29 313.61,-51.48 346.02,-102.43 360.16,-127.9"/>
<polygon fill="#9a32cd" stroke="#9a32cd" points="127.02,-0.27 117.17,-4.17 127.3,-7.26 127.02,-0.27"/>
<text text-anchor="middle" x="205.5" y="-32" font-family="Helvetica,sans-Serif" font-size="10.00"> verticesOnEleArrays</text>
</g>
</g>
</svg>
        <g id="navigator" transform="translate(0 0)" fill="#404254">
                <rect fill="#f2f5e9" fill-opacity="0.5" stroke="#606060" stroke-width=".5" x="0" y="0" width="60" height="60"/>
                <use id="zoomplus" xlink:href="#zoomPlus" x="17" y="9" onmousedown="handleZoom(evt,'in')"/>
                <use id="zoomminus" xlink:href="#zoomMin" x="42" y="9" onmousedown="handleZoom(evt,'out')"/>
                <use id="reset" xlink:href="#resetDef" x="30" y="36" onmousedown="handleReset()"/>
                <g id="arrowUp" xlink:href="#dirArrow" transform="translate(30 24)" onmousedown="handlePan(0,-1)">
                  <use xlink:href="#rim" fill="#404040">
                        <set attributeName="fill" to="#808080" begin="arrowUp.mouseover" end="arrowUp.mouseout"/>
                  </use>
                  <path fill="none" stroke="white" stroke-width="1.5" d="M0,-3.0v7 M-2.5,-0.5L0,-3.0L2.5,-0.5"/>
                </g>
                <g id="arrowRight" xlink:href="#dirArrow" transform="rotate(90) translate(36 -43)" onmousedown="handlePan(1,0)">
                  <use xlink:href="#rim" fill="#404040">
                        <set attributeName="fill" to="#808080" begin="arrowRight.mouseover" end="arrowRight.mouseout"/>
                  </use>
                  <path fill="none" stroke="white" stroke-width="1.5" d="M0,-3.0v7 M-2.5,-0.5L0,-3.0L2.5,-0.5"/>
                </g>
                <g id="arrowDown" xlink:href="#dirArrow" transform="rotate(180) translate(-30 -48)" onmousedown="handlePan(0,1)">
                  <use xlink:href="#rim" fill="#404040">
                        <set attributeName="fill" to="#808080" begin="arrowDown.mouseover" end="arrowDown.mouseout"/>
                  </use>
                  <path fill="none" stroke="white" stroke-width="1.5" d="M0,-3.0v7 M-2.5,-0.5L0,-3.0L2.5,-0.5"/>
                </g>
                <g id="arrowLeft" xlink:href="#dirArrow" transform="rotate(270) translate(-36 17)" onmousedown="handlePan(-1,0)">
                  <use xlink:href="#rim" fill="#404040">
                        <set attributeName="fill" to="#808080" begin="arrowLeft.mouseover" end="arrowLeft.mouseout"/>
                  </use>
                  <path fill="none" stroke="white" stroke-width="1.5" d="M0,-3.0v7 M-2.5,-0.5L0,-3.0L2.5,-0.5"/>
                </g>
        </g>
        <svg viewBox="0 0 15 15" width="100%" height="30px" preserveAspectRatio="xMaxYMin meet">
         <g id="arrow_out" transform="scale(0.3 0.3)">
          <a xlink:href="structMoFEM_1_1PostProcGenerateRefMesh_3_01MBQUAD_01_4__coll__graph_org.svg" target="_base">
           <rect id="button" ry="5" rx="5" y="6" x="6" height="38" width="38"
                fill="#f2f5e9" fill-opacity="0.5" stroke="#606060" stroke-width="1.0"/>
           <path id="arrow"
             d="M 11.500037,31.436501 C 11.940474,20.09759 22.043105,11.32322 32.158766,21.979434 L 37.068811,17.246167 C 37.068811,17.246167 37.088388,32 37.088388,32 L 22.160133,31.978069 C 22.160133,31.978069 26.997745,27.140456 26.997745,27.140456 C 18.528582,18.264221 13.291696,25.230495 11.500037,31.436501 z"
             style="fill:#404040;"/>
          </a>
         </g>
        </svg>
</svg>
