<?xml version="1.0" encoding="UTF-8" standalone="no"?>
<!DOCTYPE svg PUBLIC "-//W3C//DTD SVG 1.1//EN"
 "http://www.w3.org/Graphics/SVG/1.1/DTD/svg11.dtd">
<!-- Generated by graphviz version 2.43.0 (0)
 -->
<!-- Title: HookeInternalStressElement::DataAtIntegrationPts Pages: 1 -->
<svg width="383pt" height="161pt"
 viewBox="0.00 0.00 383.00 161.00" xmlns="http://www.w3.org/2000/svg" xmlns:xlink="http://www.w3.org/1999/xlink">
<g id="graph0" class="graph" transform="scale(1 1) rotate(0) translate(4 157)">
<title>HookeInternalStressElement::DataAtIntegrationPts</title>
<polygon fill="white" stroke="transparent" points="-4,4 -4,-157 379,-157 379,4 -4,4"/>
<!-- Node1 -->
<g id="node1" class="node">
<title>Node1</title>
<g id="a_node1"><a xlink:title=" ">
<polygon fill="#bfbfbf" stroke="black" points="117.5,-0.5 117.5,-30.5 272.5,-30.5 272.5,-0.5 117.5,-0.5"/>
<text text-anchor="start" x="125.5" y="-18.5" font-family="Helvetica,sans-Serif" font-size="10.00">HookeInternalStressElement</text>
<text text-anchor="middle" x="195" y="-7.5" font-family="Helvetica,sans-Serif" font-size="10.00">::DataAtIntegrationPts</text>
</a>
</g>
</g>
<!-- Node2 -->
<g id="node2" class="node">
<title>Node2</title>
<g id="a_node2"><a xlink:title=" ">
<polygon fill="white" stroke="#bfbfbf" points="0,-133.5 0,-152.5 196,-152.5 196,-133.5 0,-133.5"/>
<text text-anchor="middle" x="98" y="-140.5" font-family="Helvetica,sans-Serif" font-size="10.00">HookeElement::DataAtIntegrationPts</text>
</a>
</g>
</g>
<!-- Node2&#45;&gt;Node1 -->
<g id="edge1" class="edge">
<title>Node2&#45;&gt;Node1</title>
<path fill="none" stroke="midnightblue" d="M110.94,-125.26C130.15,-100.4 165.91,-54.13 183.97,-30.77"/>
<polygon fill="midnightblue" stroke="midnightblue" points="108.01,-123.32 104.67,-133.37 113.55,-127.6 108.01,-123.32"/>
</g>
<!-- Node3 -->
<g id="node3" class="node">
<title>Node3</title>
<g id="a_node3"><a xlink:title=" ">
<polygon fill="white" stroke="#bfbfbf" points="214.5,-133.5 214.5,-152.5 371.5,-152.5 371.5,-133.5 214.5,-133.5"/>
<text text-anchor="middle" x="293" y="-140.5" font-family="Helvetica,sans-Serif" font-size="10.00">shared_ptr&lt; MatrixDouble &gt;</text>
</a>
</g>
</g>
<!-- Node3&#45;&gt;Node1 -->
<g id="edge2" class="edge">
<title>Node3&#45;&gt;Node1</title>
<path fill="none" stroke="#9a32cd" stroke-dasharray="5,2" d="M279.93,-125.26C260.51,-100.4 224.39,-54.13 206.15,-30.77"/>
<polygon fill="#9a32cd" stroke="#9a32cd" points="277.35,-127.65 286.26,-133.37 282.87,-123.34 277.35,-127.65"/>
<text text-anchor="middle" x="323" y="-107" font-family="Helvetica,sans-Serif" font-size="10.00"> meshNodePosMat</text>
<text text-anchor="middle" x="323" y="-96" font-family="Helvetica,sans-Serif" font-size="10.00">actualStressMat</text>
<text text-anchor="middle" x="323" y="-85" font-family="Helvetica,sans-Serif" font-size="10.00">hydrostaticStressMat</text>
<text text-anchor="middle" x="323" y="-74" font-family="Helvetica,sans-Serif" font-size="10.00">internalStressMat</text>
<text text-anchor="middle" x="323" y="-63" font-family="Helvetica,sans-Serif" font-size="10.00">deviatoricStressMat</text>
<text text-anchor="middle" x="323" y="-52" font-family="Helvetica,sans-Serif" font-size="10.00">spatPosMat</text>
</g>
</g>
</svg>
