<?xml version="1.0" encoding="UTF-8" standalone="no"?>
<!DOCTYPE svg PUBLIC "-//W3C//DTD SVG 1.1//EN"
 "http://www.w3.org/Graphics/SVG/1.1/DTD/svg11.dtd">
<!-- Generated by graphviz version 2.43.0 (0)
 -->
<!-- Title: EdgeForce::OpEdgeForce Pages: 1 -->
<!--zoomable 1364 -->
<svg id="main" version="1.1" xmlns="http://www.w3.org/2000/svg" xmlns:xlink="http://www.w3.org/1999/xlink" xml:space="preserve" onload="init(evt)">
<style type="text/css"><![CDATA[
.edge:hover path { stroke: red; }
.edge:hover polygon { stroke: red; fill: red; }
]]></style>
<script type="text/javascript"><![CDATA[
var edges = document.getElementsByTagName('g');
if (edges && edges.length) {
  for (var i=0;i<edges.length;i++) {
    if (edges[i].id.substr(0,4)=='edge') {
      edges[i].setAttribute('class','edge');
    }
  }
}
]]></script>
        <defs>
                <circle id="rim" cx="0" cy="0" r="7"/>
                <circle id="rim2" cx="0" cy="0" r="3.5"/>
                <g id="zoomPlus">
                        <use xlink:href="#rim" fill="#404040">
                                <set attributeName="fill" to="#808080" begin="zoomplus.mouseover" end="zoomplus.mouseout"/>
                        </use>
                        <path d="M-4,0h8M0,-4v8" fill="none" stroke="white" stroke-width="1.5" pointer-events="none"/>
                </g>
                <g id="zoomMin">
                        <use xlink:href="#rim" fill="#404040">
                                <set attributeName="fill" to="#808080" begin="zoomminus.mouseover" end="zoomminus.mouseout"/>
                        </use>
                        <path d="M-4,0h8" fill="none" stroke="white" stroke-width="1.5" pointer-events="none"/>
                </g>
                <g id="dirArrow">
                        <path fill="none" stroke="white" stroke-width="1.5" d="M0,-3.0v7 M-2.5,-0.5L0,-3.0L2.5,-0.5"/>
                </g>
               <g id="resetDef">
                       <use xlink:href="#rim2" fill="#404040">
                               <set attributeName="fill" to="#808080" begin="reset.mouseover" end="reset.mouseout"/>
                       </use>
               </g>
        </defs>

<script type="text/javascript">
var viewWidth = 3509;
var viewHeight = 1364;
var sectionId = 'dynsection-1';
</script>
<script xlink:href="svgpan.js"/>
<svg id="graph" class="graph">
<g id="viewport">
<title>EdgeForce::OpEdgeForce</title>
<polygon fill="white" stroke="transparent" points="-4,4 -4,-1360 3505,-1360 3505,4 -4,4"/>
<!-- Node1 -->
<g id="node1" class="node">
<title>Node1</title>
<g id="a_node1"><a xlink:title=" ">
<polygon fill="#bfbfbf" stroke="black" points="3364,-1123.5 3364,-1142.5 3501,-1142.5 3501,-1123.5 3364,-1123.5"/>
<text text-anchor="middle" x="3432.5" y="-1130.5" font-family="Helvetica,sans-Serif" font-size="10.00">EdgeForce::OpEdgeForce</text>
</a>
</g>
</g>
<!-- Node2 -->
<g id="node2" class="node">
<title>Node2</title>
<g id="a_node2"><a xlink:href="structMoFEM_1_1EdgeElementForcesAndSourcesCore_1_1UserDataOperator.html" target="_top" xlink:title="default operator for EDGE element">
<polygon fill="white" stroke="black" points="3077,-1143 3077,-1173 3268,-1173 3268,-1143 3077,-1143"/>
<text text-anchor="start" x="3085" y="-1161" font-family="Helvetica,sans-Serif" font-size="10.00">MoFEM::EdgeElementForces</text>
<text text-anchor="middle" x="3172.5" y="-1150" font-family="Helvetica,sans-Serif" font-size="10.00">AndSourcesCore::UserDataOperator</text>
</a>
</g>
</g>
<!-- Node2&#45;&gt;Node1 -->
<g id="edge1" class="edge">
<title>Node2&#45;&gt;Node1</title>
<path fill="none" stroke="midnightblue" d="M3278.25,-1147.85C3307.16,-1145.05 3337.76,-1142.08 3363.95,-1139.55"/>
<polygon fill="midnightblue" stroke="midnightblue" points="3277.72,-1144.38 3268.1,-1148.83 3278.4,-1151.35 3277.72,-1144.38"/>
</g>
<!-- Node3 -->
<g id="node3" class="node">
<title>Node3</title>
<g id="a_node3"><a xlink:href="structMoFEM_1_1ForcesAndSourcesCore_1_1UserDataOperator.html" target="_top" xlink:title=" ">
<polygon fill="white" stroke="black" points="2837,-1094 2837,-1124 3007,-1124 3007,-1094 2837,-1094"/>
<text text-anchor="start" x="2845" y="-1112" font-family="Helvetica,sans-Serif" font-size="10.00">MoFEM::ForcesAndSourcesCore</text>
<text text-anchor="middle" x="2922" y="-1101" font-family="Helvetica,sans-Serif" font-size="10.00">::UserDataOperator</text>
</a>
</g>
</g>
<!-- Node3&#45;&gt;Node2 -->
<g id="edge2" class="edge">
<title>Node3&#45;&gt;Node2</title>
<path fill="none" stroke="midnightblue" d="M3009.42,-1126.04C3037.4,-1131.56 3068.22,-1137.63 3095.4,-1142.99"/>
<polygon fill="midnightblue" stroke="midnightblue" points="3009.74,-1122.54 2999.25,-1124.03 3008.38,-1129.4 3009.74,-1122.54"/>
</g>
<!-- Node4 -->
<g id="node4" class="node">
<title>Node4</title>
<g id="a_node4"><a xlink:href="structMoFEM_1_1DataOperator.html" target="_top" xlink:title="base operator to do operations at Gauss Pt. level">
<polygon fill="white" stroke="black" points="2579.5,-1121.5 2579.5,-1140.5 2704.5,-1140.5 2704.5,-1121.5 2579.5,-1121.5"/>
<text text-anchor="middle" x="2642" y="-1128.5" font-family="Helvetica,sans-Serif" font-size="10.00">MoFEM::DataOperator</text>
</a>
</g>
</g>
<!-- Node4&#45;&gt;Node3 -->
<g id="edge3" class="edge">
<title>Node4&#45;&gt;Node3</title>
<path fill="none" stroke="midnightblue" d="M2714.97,-1125.3C2752.22,-1122.36 2797.92,-1118.74 2836.81,-1115.66"/>
<polygon fill="midnightblue" stroke="midnightblue" points="2714.39,-1121.84 2704.7,-1126.12 2714.94,-1128.82 2714.39,-1121.84"/>
</g>
<!-- Node5 -->
<g id="node5" class="node">
<title>Node5</title>
<g id="a_node5"><a xlink:title=" ">
<polygon fill="white" stroke="#bfbfbf" points="2160,-1143 2160,-1195 2352,-1195 2352,-1143 2160,-1143"/>
<text text-anchor="start" x="2168" y="-1183" font-family="Helvetica,sans-Serif" font-size="10.00">function&lt; MoFEMErrorCode</text>
<text text-anchor="start" x="2168" y="-1172" font-family="Helvetica,sans-Serif" font-size="10.00">(DataOperator *op_ptr,</text>
<text text-anchor="start" x="2168" y="-1161" font-family="Helvetica,sans-Serif" font-size="10.00"> int side, EntityType type,</text>
<text text-anchor="middle" x="2256" y="-1150" font-family="Helvetica,sans-Serif" font-size="10.00"> EntitiesFieldData::EntData &amp;data)&gt;</text>
</a>
</g>
</g>
<!-- Node5&#45;&gt;Node4 -->
<g id="edge4" class="edge">
<title>Node5&#45;&gt;Node4</title>
<path fill="none" stroke="#9a32cd" stroke-dasharray="5,2" d="M2362.37,-1150.85C2367.31,-1150.18 2372.2,-1149.56 2377,-1149 2446.13,-1140.9 2525.89,-1136.08 2579.5,-1133.5"/>
<polygon fill="#9a32cd" stroke="#9a32cd" points="2361.6,-1147.42 2352.18,-1152.27 2362.57,-1154.35 2361.6,-1147.42"/>
<text text-anchor="middle" x="2458" y="-1152" font-family="Helvetica,sans-Serif" font-size="10.00"> doWorkRhsHook</text>
</g>
<!-- Node6 -->
<g id="node6" class="node">
<title>Node6</title>
<g id="a_node6"><a xlink:href="classbool.html" target="_top" xlink:title=" ">
<polygon fill="white" stroke="black" points="2237,-1233.5 2237,-1252.5 2275,-1252.5 2275,-1233.5 2237,-1233.5"/>
<text text-anchor="middle" x="2256" y="-1240.5" font-family="Helvetica,sans-Serif" font-size="10.00">bool</text>
</a>
</g>
</g>
<!-- Node6&#45;&gt;Node1 -->
<g id="edge84" class="edge">
<title>Node6&#45;&gt;Node1</title>
<path fill="none" stroke="#9a32cd" stroke-dasharray="5,2" d="M2285.19,-1247.71C2309.45,-1251.59 2345.44,-1256.93 2377,-1260 2493.95,-1271.36 2523.5,-1274 2641,-1274 2641,-1274 2641,-1274 3173.5,-1274 3283.25,-1274 3390.63,-1174.55 3422.21,-1142.69"/>
<polygon fill="#9a32cd" stroke="#9a32cd" points="2285.67,-1244.24 2275.24,-1246.09 2284.55,-1251.15 2285.67,-1244.24"/>
<text text-anchor="middle" x="2922" y="-1277" font-family="Helvetica,sans-Serif" font-size="10.00"> useSnesF</text>
</g>
<!-- Node6&#45;&gt;Node4 -->
<g id="edge5" class="edge">
<title>Node6&#45;&gt;Node4</title>
<path fill="none" stroke="#9a32cd" stroke-dasharray="5,2" d="M2285.22,-1236.78C2306.85,-1231.05 2336.68,-1220.97 2359,-1205 2369.28,-1197.65 2365.99,-1189.2 2377,-1183 2440.36,-1147.31 2467.86,-1175.09 2539,-1160 2563.67,-1154.77 2591.15,-1146.83 2611.36,-1140.58"/>
<polygon fill="#9a32cd" stroke="#9a32cd" points="2284.19,-1233.43 2275.33,-1239.25 2285.88,-1240.22 2284.19,-1233.43"/>
<text text-anchor="middle" x="2458" y="-1252" font-family="Helvetica,sans-Serif" font-size="10.00"> doTris</text>
<text text-anchor="middle" x="2458" y="-1241" font-family="Helvetica,sans-Serif" font-size="10.00">doQuads</text>
<text text-anchor="middle" x="2458" y="-1230" font-family="Helvetica,sans-Serif" font-size="10.00">sYmm</text>
<text text-anchor="middle" x="2458" y="-1219" font-family="Helvetica,sans-Serif" font-size="10.00">doPrisms</text>
<text text-anchor="middle" x="2458" y="-1208" font-family="Helvetica,sans-Serif" font-size="10.00">doTets</text>
<text text-anchor="middle" x="2458" y="-1197" font-family="Helvetica,sans-Serif" font-size="10.00">doVertices</text>
<text text-anchor="middle" x="2458" y="-1186" font-family="Helvetica,sans-Serif" font-size="10.00">doEdges</text>
</g>
<!-- Node7 -->
<g id="node7" class="node">
<title>Node7</title>
<g id="a_node7"><a xlink:title=" ">
<polygon fill="white" stroke="#bfbfbf" points="2153,-1000.5 2153,-1085.5 2359,-1085.5 2359,-1000.5 2153,-1000.5"/>
<text text-anchor="start" x="2161" y="-1073.5" font-family="Helvetica,sans-Serif" font-size="10.00">function&lt; MoFEMErrorCode</text>
<text text-anchor="start" x="2161" y="-1062.5" font-family="Helvetica,sans-Serif" font-size="10.00">(DataOperator *op_ptr,</text>
<text text-anchor="start" x="2161" y="-1051.5" font-family="Helvetica,sans-Serif" font-size="10.00"> int row_side, int col_side,</text>
<text text-anchor="start" x="2161" y="-1040.5" font-family="Helvetica,sans-Serif" font-size="10.00"> EntityType row_type, EntityType</text>
<text text-anchor="start" x="2161" y="-1029.5" font-family="Helvetica,sans-Serif" font-size="10.00"> col_type, EntitiesFieldData::EntData</text>
<text text-anchor="start" x="2161" y="-1018.5" font-family="Helvetica,sans-Serif" font-size="10.00"> &amp;row_data, EntitiesFieldData::EntData</text>
<text text-anchor="middle" x="2256" y="-1007.5" font-family="Helvetica,sans-Serif" font-size="10.00"> &amp;col_data)&gt;</text>
</a>
</g>
</g>
<!-- Node7&#45;&gt;Node4 -->
<g id="edge6" class="edge">
<title>Node7&#45;&gt;Node4</title>
<path fill="none" stroke="#9a32cd" stroke-dasharray="5,2" d="M2369.28,-1048.92C2422.97,-1055.37 2486.76,-1068.49 2539,-1095 2548.81,-1099.98 2547.29,-1106.82 2557,-1112 2564.26,-1115.87 2572.27,-1118.95 2580.39,-1121.41"/>
<polygon fill="#9a32cd" stroke="#9a32cd" points="2369.36,-1045.41 2359.03,-1047.76 2368.57,-1052.36 2369.36,-1045.41"/>
<text text-anchor="middle" x="2458" y="-1098" font-family="Helvetica,sans-Serif" font-size="10.00"> doWorkLhsHook</text>
</g>
<!-- Node8 -->
<g id="node8" class="node">
<title>Node8</title>
<g id="a_node8"><a xlink:title=" ">
<polygon fill="white" stroke="#bfbfbf" points="2179,-1104.5 2179,-1123.5 2333,-1123.5 2333,-1104.5 2179,-1104.5"/>
<text text-anchor="middle" x="2256" y="-1111.5" font-family="Helvetica,sans-Serif" font-size="10.00">array&lt; bool, MBMAXTYPE &gt;</text>
</a>
</g>
</g>
<!-- Node8&#45;&gt;Node4 -->
<g id="edge7" class="edge">
<title>Node8&#45;&gt;Node4</title>
<path fill="none" stroke="#9a32cd" stroke-dasharray="5,2" d="M2343.35,-1110.92C2399.24,-1109.76 2473.53,-1109.78 2539,-1115 2555.8,-1116.34 2574.01,-1118.85 2590.34,-1121.5"/>
<polygon fill="#9a32cd" stroke="#9a32cd" points="2343.05,-1107.42 2333.13,-1111.15 2343.21,-1114.42 2343.05,-1107.42"/>
<text text-anchor="middle" x="2458" y="-1118" font-family="Helvetica,sans-Serif" font-size="10.00"> doEntities</text>
</g>
<!-- Node9 -->
<g id="node9" class="node">
<title>Node9</title>
<g id="a_node9"><a xlink:title=" ">
<polygon fill="white" stroke="#bfbfbf" points="2607.5,-1083.5 2607.5,-1102.5 2676.5,-1102.5 2676.5,-1083.5 2607.5,-1083.5"/>
<text text-anchor="middle" x="2642" y="-1090.5" font-family="Helvetica,sans-Serif" font-size="10.00">FieldSpace</text>
</a>
</g>
</g>
<!-- Node9&#45;&gt;Node3 -->
<g id="edge8" class="edge">
<title>Node9&#45;&gt;Node3</title>
<path fill="none" stroke="#9a32cd" stroke-dasharray="5,2" d="M2686.83,-1094.16C2722.46,-1095.24 2774,-1097.12 2819,-1100 2824.85,-1100.37 2830.89,-1100.8 2836.98,-1101.26"/>
<polygon fill="#9a32cd" stroke="#9a32cd" points="2686.86,-1090.66 2676.77,-1093.86 2686.66,-1097.65 2686.86,-1090.66"/>
<text text-anchor="middle" x="2782" y="-1103" font-family="Helvetica,sans-Serif" font-size="10.00"> sPace</text>
</g>
<!-- Node10 -->
<g id="node10" class="node">
<title>Node10</title>
<g id="a_node10"><a xlink:title=" ">
<polygon fill="white" stroke="#bfbfbf" points="1122.5,-1289.5 1122.5,-1308.5 1160.5,-1308.5 1160.5,-1289.5 1122.5,-1289.5"/>
<text text-anchor="middle" x="1141.5" y="-1296.5" font-family="Helvetica,sans-Serif" font-size="10.00">char</text>
</a>
</g>
</g>
<!-- Node10&#45;&gt;Node3 -->
<g id="edge9" class="edge">
<title>Node10&#45;&gt;Node3</title>
<path fill="none" stroke="#9a32cd" stroke-dasharray="5,2" d="M1170.82,-1299C1230.98,-1299 1375.95,-1299 1497.5,-1299 1497.5,-1299 1497.5,-1299 2257,-1299 2383.29,-1299 2416.77,-1295.79 2539,-1264 2675.8,-1228.42 2828.88,-1155.48 2891.7,-1124.01"/>
<polygon fill="#9a32cd" stroke="#9a32cd" points="1170.6,-1295.5 1160.6,-1299 1170.6,-1302.5 1170.6,-1295.5"/>
<text text-anchor="middle" x="2063" y="-1302" font-family="Helvetica,sans-Serif" font-size="10.00"> opType</text>
</g>
<!-- Node38 -->
<g id="node38" class="node">
<title>Node38</title>
<g id="a_node38"><a xlink:href="structMoFEM_1_1Problem.html" target="_top" xlink:title="keeps basic data about problem">
<polygon fill="white" stroke="black" points="1449,-1012.5 1449,-1031.5 1548,-1031.5 1548,-1012.5 1449,-1012.5"/>
<text text-anchor="middle" x="1498.5" y="-1019.5" font-family="Helvetica,sans-Serif" font-size="10.00">MoFEM::Problem</text>
</a>
</g>
</g>
<!-- Node10&#45;&gt;Node38 -->
<g id="edge53" class="edge">
<title>Node10&#45;&gt;Node38</title>
<path fill="none" stroke="#9a32cd" stroke-dasharray="5,2" d="M1170.84,-1293.94C1191.04,-1290.2 1218.79,-1284.76 1243,-1279 1251.08,-1277.08 1252.9,-1275.81 1261,-1274 1290.92,-1267.33 1376.23,-1273.54 1397,-1251 1428.73,-1216.55 1384.29,-1076.37 1415,-1041 1423.58,-1031.12 1436.16,-1025.82 1448.93,-1023.1"/>
<polygon fill="#9a32cd" stroke="#9a32cd" points="1169.95,-1290.55 1160.74,-1295.79 1171.21,-1297.43 1169.95,-1290.55"/>
<text text-anchor="middle" x="1329" y="-1277" font-family="Helvetica,sans-Serif" font-size="10.00"> tagName</text>
</g>
<!-- Node11 -->
<g id="node11" class="node">
<title>Node11</title>
<g id="a_node11"><a xlink:href="structMoFEM_1_1ForcesAndSourcesCore.html" target="_top" xlink:title="structure to get information form mofem into EntitiesFieldData">
<polygon fill="white" stroke="black" points="2557,-590.5 2557,-609.5 2727,-609.5 2727,-590.5 2557,-590.5"/>
<text text-anchor="middle" x="2642" y="-597.5" font-family="Helvetica,sans-Serif" font-size="10.00">MoFEM::ForcesAndSourcesCore</text>
</a>
</g>
</g>
<!-- Node11&#45;&gt;Node3 -->
<g id="edge10" class="edge">
<title>Node11&#45;&gt;Node3</title>
<path fill="none" stroke="#9a32cd" stroke-dasharray="5,2" d="M2656.91,-617.7C2691.37,-662.65 2780.67,-786.08 2819,-905 2831.26,-943.05 2811.53,-1053.19 2837,-1084 2840.2,-1087.87 2843.97,-1091.16 2848.11,-1093.95"/>
<polygon fill="#9a32cd" stroke="#9a32cd" points="2659.67,-615.55 2650.78,-609.78 2654.13,-619.83 2659.67,-615.55"/>
<text text-anchor="middle" x="2782" y="-908" font-family="Helvetica,sans-Serif" font-size="10.00"> ptrFE</text>
</g>
<!-- Node11&#45;&gt;Node11 -->
<g id="edge68" class="edge">
<title>Node11&#45;&gt;Node11</title>
<path fill="none" stroke="#9a32cd" stroke-dasharray="5,2" d="M2615.96,-619.03C2617.38,-624.13 2626.06,-628 2642,-628 2666.88,-628 2674.08,-618.57 2663.58,-609.76"/>
<polygon fill="#9a32cd" stroke="#9a32cd" points="2619.24,-620.29 2620.42,-609.76 2612.93,-617.25 2619.24,-620.29"/>
<text text-anchor="middle" x="2642" y="-642" font-family="Helvetica,sans-Serif" font-size="10.00"> sidePtrFE</text>
<text text-anchor="middle" x="2642" y="-631" font-family="Helvetica,sans-Serif" font-size="10.00">refinePtrFE</text>
</g>
<!-- Node12 -->
<g id="node12" class="node">
<title>Node12</title>
<g id="a_node12"><a xlink:href="structMoFEM_1_1FEMethod.html" target="_top" xlink:title="structure for User Loop Methods on finite elements">
<polygon fill="white" stroke="black" points="2202.5,-666.5 2202.5,-685.5 2309.5,-685.5 2309.5,-666.5 2202.5,-666.5"/>
<text text-anchor="middle" x="2256" y="-673.5" font-family="Helvetica,sans-Serif" font-size="10.00">MoFEM::FEMethod</text>
</a>
</g>
</g>
<!-- Node12&#45;&gt;Node11 -->
<g id="edge11" class="edge">
<title>Node12&#45;&gt;Node11</title>
<path fill="none" stroke="midnightblue" d="M2319.79,-669.82C2377.34,-663.4 2464.64,-651.79 2539,-634 2565.87,-627.57 2595.76,-617.21 2616.2,-609.62"/>
<polygon fill="midnightblue" stroke="midnightblue" points="2319.32,-666.35 2309.76,-670.92 2320.08,-673.31 2319.32,-666.35"/>
</g>
<!-- Node13 -->
<g id="node13" class="node">
<title>Node13</title>
<g id="a_node13"><a xlink:href="structMoFEM_1_1BasicMethod.html" target="_top" xlink:title="Data structure to exchange data between mofem and User Loop Methods.">
<polygon fill="white" stroke="black" points="1825,-581.5 1825,-600.5 1947,-600.5 1947,-581.5 1825,-581.5"/>
<text text-anchor="middle" x="1886" y="-588.5" font-family="Helvetica,sans-Serif" font-size="10.00">MoFEM::BasicMethod</text>
</a>
</g>
</g>
<!-- Node13&#45;&gt;Node12 -->
<g id="edge12" class="edge">
<title>Node13&#45;&gt;Node12</title>
<path fill="none" stroke="midnightblue" d="M1957.25,-596.22C2008.58,-602.18 2078.75,-614.91 2135,-642 2144.38,-646.52 2143.58,-652.57 2153,-657 2168.24,-664.17 2185.96,-668.63 2202.3,-671.41"/>
<polygon fill="midnightblue" stroke="midnightblue" points="1957.57,-592.73 1947.24,-595.11 1956.8,-599.69 1957.57,-592.73"/>
</g>
<!-- Node14 -->
<g id="node14" class="node">
<title>Node14</title>
<g id="a_node14"><a xlink:href="structMoFEM_1_1KspMethod.html" target="_top" xlink:title="data structure for ksp (linear solver) context">
<polygon fill="white" stroke="black" points="1442,-500.5 1442,-519.5 1555,-519.5 1555,-500.5 1442,-500.5"/>
<text text-anchor="middle" x="1498.5" y="-507.5" font-family="Helvetica,sans-Serif" font-size="10.00">MoFEM::KspMethod</text>
</a>
</g>
</g>
<!-- Node14&#45;&gt;Node13 -->
<g id="edge13" class="edge">
<title>Node14&#45;&gt;Node13</title>
<path fill="none" stroke="midnightblue" d="M1554.8,-521.62C1631.43,-537.72 1768.49,-566.52 1839.52,-581.44"/>
<polygon fill="midnightblue" stroke="midnightblue" points="1555.36,-518.16 1544.86,-519.53 1553.92,-525.01 1555.36,-518.16"/>
</g>
<!-- Node15 -->
<g id="node15" class="node">
<title>Node15</title>
<g id="a_node15"><a xlink:href="structMoFEM_1_1PetscData.html" target="_top" xlink:title=" ">
<polygon fill="white" stroke="black" points="1087.5,-299.5 1087.5,-318.5 1195.5,-318.5 1195.5,-299.5 1087.5,-299.5"/>
<text text-anchor="middle" x="1141.5" y="-306.5" font-family="Helvetica,sans-Serif" font-size="10.00">MoFEM::PetscData</text>
</a>
</g>
</g>
<!-- Node15&#45;&gt;Node14 -->
<g id="edge14" class="edge">
<title>Node15&#45;&gt;Node14</title>
<path fill="none" stroke="midnightblue" d="M1204.52,-320.88C1217.45,-324.17 1230.84,-328.19 1243,-333 1316.3,-362 1332.93,-375.07 1397,-421 1432.99,-446.8 1470.92,-483.33 1488.08,-500.45"/>
<polygon fill="midnightblue" stroke="midnightblue" points="1205.3,-317.47 1194.76,-318.51 1203.65,-324.27 1205.3,-317.47"/>
</g>
<!-- Node25 -->
<g id="node25" class="node">
<title>Node25</title>
<g id="a_node25"><a xlink:href="structMoFEM_1_1SnesMethod.html" target="_top" xlink:title="data structure for snes (nonlinear solver) context">
<polygon fill="white" stroke="black" points="1439,-625.5 1439,-644.5 1558,-644.5 1558,-625.5 1439,-625.5"/>
<text text-anchor="middle" x="1498.5" y="-632.5" font-family="Helvetica,sans-Serif" font-size="10.00">MoFEM::SnesMethod</text>
</a>
</g>
</g>
<!-- Node15&#45;&gt;Node25 -->
<g id="edge27" class="edge">
<title>Node15&#45;&gt;Node25</title>
<path fill="none" stroke="darkgreen" d="M1205.59,-313.52C1219.32,-317.19 1232.78,-323.22 1243,-333 1264.04,-353.13 1243.85,-372.46 1261,-396 1303.83,-454.78 1350.54,-431.05 1397,-487 1409.97,-502.62 1404.68,-511.51 1415,-529 1437.64,-567.36 1472.42,-607.48 1488.62,-625.39"/>
<polygon fill="darkgreen" stroke="darkgreen" points="1206.11,-310.05 1195.58,-311.25 1204.56,-316.88 1206.11,-310.05"/>
</g>
<!-- Node28 -->
<g id="node28" class="node">
<title>Node28</title>
<g id="a_node28"><a xlink:href="structMoFEM_1_1TSMethod.html" target="_top" xlink:title="data structure for TS (time stepping) context">
<polygon fill="white" stroke="black" points="1445,-284.5 1445,-303.5 1552,-303.5 1552,-284.5 1445,-284.5"/>
<text text-anchor="middle" x="1498.5" y="-291.5" font-family="Helvetica,sans-Serif" font-size="10.00">MoFEM::TSMethod</text>
</a>
</g>
</g>
<!-- Node15&#45;&gt;Node28 -->
<g id="edge33" class="edge">
<title>Node15&#45;&gt;Node28</title>
<path fill="none" stroke="darkgreen" d="M1205.82,-306.32C1273.98,-303.44 1381.16,-298.92 1444.86,-296.22"/>
<polygon fill="darkgreen" stroke="darkgreen" points="1205.49,-302.84 1195.65,-306.75 1205.79,-309.83 1205.49,-302.84"/>
</g>
<!-- Node16 -->
<g id="node16" class="node">
<title>Node16</title>
<g id="a_node16"><a xlink:href="structMoFEM_1_1UnknownInterface.html" target="_top" xlink:title="base class for all interface classes">
<polygon fill="white" stroke="black" points="735,-93.5 735,-112.5 883,-112.5 883,-93.5 735,-93.5"/>
<text text-anchor="middle" x="809" y="-100.5" font-family="Helvetica,sans-Serif" font-size="10.00">MoFEM::UnknownInterface</text>
</a>
</g>
</g>
<!-- Node16&#45;&gt;Node15 -->
<g id="edge15" class="edge">
<title>Node16&#45;&gt;Node15</title>
<path fill="none" stroke="midnightblue" d="M893.36,-113.57C948.74,-121.4 1012.9,-132.33 1022,-142 1067.41,-190.26 994.71,-241.63 1040,-290 1052.08,-302.9 1069.95,-308.64 1087.28,-310.84"/>
<polygon fill="midnightblue" stroke="midnightblue" points="893.52,-110.06 883.14,-112.15 892.56,-116.99 893.52,-110.06"/>
</g>
<!-- Node56 -->
<g id="node56" class="node">
<title>Node56</title>
<g id="a_node56"><a xlink:href="structMoFEM_1_1CoreInterface.html" target="_top" xlink:title="Interface.">
<polygon fill="white" stroke="black" points="1079,-39.5 1079,-58.5 1204,-58.5 1204,-39.5 1079,-39.5"/>
<text text-anchor="middle" x="1141.5" y="-46.5" font-family="Helvetica,sans-Serif" font-size="10.00">MoFEM::CoreInterface</text>
</a>
</g>
</g>
<!-- Node16&#45;&gt;Node56 -->
<g id="edge67" class="edge">
<title>Node16&#45;&gt;Node56</title>
<path fill="none" stroke="midnightblue" d="M893.43,-105.07C933,-104.15 980.57,-100.23 1022,-89 1030.63,-86.66 1031.7,-83.33 1040,-80 1061.01,-71.57 1085.25,-64.04 1104.66,-58.5"/>
<polygon fill="midnightblue" stroke="midnightblue" points="893.23,-101.58 883.29,-105.25 893.35,-108.58 893.23,-101.58"/>
</g>
<!-- Node17 -->
<g id="node17" class="node">
<title>Node17</title>
<g id="a_node17"><a xlink:title=" ">
<polygon fill="white" stroke="#bfbfbf" points="386,-49.5 386,-112.5 627,-112.5 627,-49.5 386,-49.5"/>
<text text-anchor="start" x="394" y="-100.5" font-family="Helvetica,sans-Serif" font-size="10.00">multi_index_container</text>
<text text-anchor="start" x="394" y="-89.5" font-family="Helvetica,sans-Serif" font-size="10.00">&lt; UIdTypeMap, indexed</text>
<text text-anchor="start" x="394" y="-78.5" font-family="Helvetica,sans-Serif" font-size="10.00">_by&lt; hashed_unique&lt; member</text>
<text text-anchor="start" x="394" y="-67.5" font-family="Helvetica,sans-Serif" font-size="10.00">&lt; UIdTypeMap, boost::typeindex</text>
<text text-anchor="middle" x="506.5" y="-56.5" font-family="Helvetica,sans-Serif" font-size="10.00">::type_index, &amp;UIdTypeMap::classIdx &gt; &gt; &gt; &gt;</text>
</a>
</g>
</g>
<!-- Node17&#45;&gt;Node16 -->
<g id="edge16" class="edge">
<title>Node17&#45;&gt;Node16</title>
<path fill="none" stroke="#9a32cd" stroke-dasharray="5,2" d="M637.41,-90.51C670.69,-92.95 705.33,-95.48 734.62,-97.63"/>
<polygon fill="#9a32cd" stroke="#9a32cd" points="637.36,-87 627.13,-89.76 636.85,-93.98 637.36,-87"/>
<text text-anchor="middle" x="681" y="-99" font-family="Helvetica,sans-Serif" font-size="10.00"> iFaceTypeMap</text>
</g>
<!-- Node18 -->
<g id="node18" class="node">
<title>Node18</title>
<g id="a_node18"><a xlink:title=" ">
<polygon fill="white" stroke="#bfbfbf" points="0,-6.5 0,-25.5 125,-25.5 125,-6.5 0,-6.5"/>
<text text-anchor="middle" x="62.5" y="-13.5" font-family="Helvetica,sans-Serif" font-size="10.00">multi_index_container</text>
</a>
</g>
</g>
<!-- Node18&#45;&gt;Node13 -->
<g id="edge40" class="edge">
<title>Node18&#45;&gt;Node13</title>
<path fill="none" stroke="#9a32cd" stroke-dasharray="5,2" d="M135.41,-11.8C222.85,-7.06 374.95,0 505.5,0 505.5,0 505.5,0 1142.5,0 1233.14,0 1761.41,-183.17 1781,-204 1888.94,-318.8 1887.29,-533.41 1885.48,-581.34"/>
<polygon fill="#9a32cd" stroke="#9a32cd" points="135.12,-8.31 125.33,-12.35 135.51,-15.3 135.12,-8.31"/>
<text text-anchor="middle" x="961.5" y="-80" font-family="Helvetica,sans-Serif" font-size="10.00"> adjacenciesPtr</text>
<text text-anchor="middle" x="961.5" y="-69" font-family="Helvetica,sans-Serif" font-size="10.00">refinedEntitiesPtr</text>
<text text-anchor="middle" x="961.5" y="-58" font-family="Helvetica,sans-Serif" font-size="10.00">finiteElementsEntitiesPtr</text>
<text text-anchor="middle" x="961.5" y="-47" font-family="Helvetica,sans-Serif" font-size="10.00">dofsPtr</text>
<text text-anchor="middle" x="961.5" y="-36" font-family="Helvetica,sans-Serif" font-size="10.00">entitiesPtr</text>
<text text-anchor="middle" x="961.5" y="-25" font-family="Helvetica,sans-Serif" font-size="10.00">finiteElementsPtr</text>
<text text-anchor="middle" x="961.5" y="-14" font-family="Helvetica,sans-Serif" font-size="10.00">refinedFiniteElementsPtr</text>
<text text-anchor="middle" x="961.5" y="-3" font-family="Helvetica,sans-Serif" font-size="10.00">fieldsPtr</text>
</g>
<!-- Node18&#45;&gt;Node17 -->
<g id="edge17" class="edge">
<title>Node18&#45;&gt;Node17</title>
<path fill="none" stroke="orange" stroke-dasharray="5,2" d="M135.56,-26.6C203.25,-36.55 305.79,-51.63 385.77,-63.39"/>
<polygon fill="orange" stroke="orange" points="135.83,-23.1 125.42,-25.11 134.81,-30.02 135.83,-23.1"/>
<text text-anchor="start" x="143" y="-96" font-family="Helvetica,sans-Serif" font-size="10.00"> &lt; UIdTypeMap, indexed</text>
<text text-anchor="start" x="143" y="-85" font-family="Helvetica,sans-Serif" font-size="10.00">_by&lt; hashed_unique&lt; member</text>
<text text-anchor="start" x="143" y="-74" font-family="Helvetica,sans-Serif" font-size="10.00">&lt; UIdTypeMap, boost::typeindex</text>
<text text-anchor="middle" x="255.5" y="-63" font-family="Helvetica,sans-Serif" font-size="10.00">::type_index, &amp;UIdTypeMap::classIdx &gt; &gt; &gt; &gt;</text>
</g>
<!-- Node19 -->
<g id="node19" class="node">
<title>Node19</title>
<g id="a_node19"><a xlink:title=" ">
<polygon fill="white" stroke="#bfbfbf" points="738.5,-210.5 738.5,-229.5 879.5,-229.5 879.5,-210.5 738.5,-210.5"/>
<text text-anchor="middle" x="809" y="-217.5" font-family="Helvetica,sans-Serif" font-size="10.00">static constexpr Switches</text>
</a>
</g>
</g>
<!-- Node19&#45;&gt;Node15 -->
<g id="edge18" class="edge">
<title>Node19&#45;&gt;Node15</title>
<path fill="none" stroke="#9a32cd" stroke-dasharray="5,2" d="M846.97,-207.57C893.05,-194.61 971.84,-181.11 1022,-220 1047.39,-239.68 1016.56,-268.03 1040,-290 1052.7,-301.9 1070.4,-307.47 1087.42,-309.82"/>
<polygon fill="#9a32cd" stroke="#9a32cd" points="845.71,-204.3 837.1,-210.48 847.68,-211.01 845.71,-204.3"/>
<text text-anchor="middle" x="961.5" y="-300" font-family="Helvetica,sans-Serif" font-size="10.00"> CtxSetX_TT</text>
<text text-anchor="middle" x="961.5" y="-289" font-family="Helvetica,sans-Serif" font-size="10.00">CtxSetX_T</text>
<text text-anchor="middle" x="961.5" y="-278" font-family="Helvetica,sans-Serif" font-size="10.00">CtxSetA</text>
<text text-anchor="middle" x="961.5" y="-267" font-family="Helvetica,sans-Serif" font-size="10.00">CtxSetB</text>
<text text-anchor="middle" x="961.5" y="-256" font-family="Helvetica,sans-Serif" font-size="10.00">CtxSetTime</text>
<text text-anchor="middle" x="961.5" y="-245" font-family="Helvetica,sans-Serif" font-size="10.00">CtxSetNone</text>
<text text-anchor="middle" x="961.5" y="-234" font-family="Helvetica,sans-Serif" font-size="10.00">CtxSetF</text>
<text text-anchor="middle" x="961.5" y="-223" font-family="Helvetica,sans-Serif" font-size="10.00">CtxSetX</text>
</g>
<!-- Node20 -->
<g id="node20" class="node">
<title>Node20</title>
<g id="a_node20"><a xlink:title=" ">
<polygon fill="white" stroke="#bfbfbf" points="791.5,-373.5 791.5,-392.5 826.5,-392.5 826.5,-373.5 791.5,-373.5"/>
<text text-anchor="middle" x="809" y="-380.5" font-family="Helvetica,sans-Serif" font-size="10.00">Mat</text>
</a>
</g>
</g>
<!-- Node20&#45;&gt;Node14 -->
<g id="edge24" class="edge">
<title>Node20&#45;&gt;Node14</title>
<path fill="none" stroke="#9a32cd" stroke-dasharray="5,2" d="M835.7,-396.41C853.52,-405.04 878.08,-415.6 901,-421 1049.28,-455.93 1092.61,-419.66 1243,-444 1325.91,-457.42 1421.11,-485.64 1468.1,-500.46"/>
<polygon fill="#9a32cd" stroke="#9a32cd" points="837.06,-393.18 826.55,-391.87 833.95,-399.45 837.06,-393.18"/>
<text text-anchor="middle" x="1141.5" y="-458" font-family="Helvetica,sans-Serif" font-size="10.00"> ksp_A</text>
<text text-anchor="middle" x="1141.5" y="-447" font-family="Helvetica,sans-Serif" font-size="10.00">ksp_B</text>
</g>
<!-- Node20&#45;&gt;Node15 -->
<g id="edge19" class="edge">
<title>Node20&#45;&gt;Node15</title>
<path fill="none" stroke="#9a32cd" stroke-dasharray="5,2" d="M831.51,-367.54C849.24,-355.65 875.54,-339.97 901,-332 962.99,-312.6 1038.04,-308.28 1087.41,-307.88"/>
<polygon fill="#9a32cd" stroke="#9a32cd" points="829.32,-364.79 823.06,-373.34 833.29,-370.56 829.32,-364.79"/>
<text text-anchor="middle" x="961.5" y="-346" font-family="Helvetica,sans-Serif" font-size="10.00"> A</text>
<text text-anchor="middle" x="961.5" y="-335" font-family="Helvetica,sans-Serif" font-size="10.00">B</text>
</g>
<!-- Node20&#45;&gt;Node25 -->
<g id="edge29" class="edge">
<title>Node20&#45;&gt;Node25</title>
<path fill="none" stroke="#9a32cd" stroke-dasharray="5,2" d="M823.98,-400.6C856.8,-440.47 943.34,-537.53 1040,-580 1110.22,-610.85 1331.92,-626.34 1438.78,-632.18"/>
<polygon fill="#9a32cd" stroke="#9a32cd" points="826.49,-398.14 817.48,-392.58 821.06,-402.55 826.49,-398.14"/>
<text text-anchor="middle" x="1141.5" y="-632" font-family="Helvetica,sans-Serif" font-size="10.00"> snes_A</text>
<text text-anchor="middle" x="1141.5" y="-621" font-family="Helvetica,sans-Serif" font-size="10.00">snes_B</text>
</g>
<!-- Node20&#45;&gt;Node28 -->
<g id="edge34" class="edge">
<title>Node20&#45;&gt;Node28</title>
<path fill="none" stroke="#9a32cd" stroke-dasharray="5,2" d="M819.82,-364.04C833.99,-336.57 860.9,-284.08 883,-239 891.23,-222.22 886.44,-212.72 901,-201 943.99,-166.38 974.09,-200.42 1022,-173 1032.1,-167.22 1029.31,-158.6 1040,-154 1113.07,-122.57 1340.19,-124.32 1397,-180 1427.69,-210.08 1385.21,-244.02 1415,-275 1422.95,-283.26 1433.71,-288.26 1444.83,-291.2"/>
<polygon fill="#9a32cd" stroke="#9a32cd" points="816.53,-362.78 815.05,-373.27 822.75,-365.99 816.53,-362.78"/>
<text text-anchor="middle" x="1141.5" y="-168" font-family="Helvetica,sans-Serif" font-size="10.00"> ts_A</text>
<text text-anchor="middle" x="1141.5" y="-157" font-family="Helvetica,sans-Serif" font-size="10.00">ts_B</text>
</g>
<!-- Node21 -->
<g id="node21" class="node">
<title>Node21</title>
<g id="a_node21"><a xlink:title=" ">
<polygon fill="white" stroke="#bfbfbf" points="772.5,-151.5 772.5,-170.5 845.5,-170.5 845.5,-151.5 772.5,-151.5"/>
<text text-anchor="middle" x="809" y="-158.5" font-family="Helvetica,sans-Serif" font-size="10.00">bitset&lt; 8 &gt;</text>
</a>
</g>
</g>
<!-- Node21&#45;&gt;Node15 -->
<g id="edge20" class="edge">
<title>Node21&#45;&gt;Node15</title>
<path fill="none" stroke="#9a32cd" stroke-dasharray="5,2" d="M855.7,-150.54C903.55,-142.52 977.75,-138.86 1022,-180 1058.28,-213.73 1005.4,-254.54 1040,-290 1052.28,-302.58 1070.09,-308.28 1087.32,-310.52"/>
<polygon fill="#9a32cd" stroke="#9a32cd" points="854.84,-147.14 845.62,-152.36 856.08,-154.02 854.84,-147.14"/>
<text text-anchor="middle" x="961.5" y="-183" font-family="Helvetica,sans-Serif" font-size="10.00"> data_ctx</text>
</g>
<!-- Node22 -->
<g id="node22" class="node">
<title>Node22</title>
<g id="a_node22"><a xlink:title=" ">
<polygon fill="white" stroke="#bfbfbf" points="792,-559.5 792,-578.5 826,-578.5 826,-559.5 792,-559.5"/>
<text text-anchor="middle" x="809" y="-566.5" font-family="Helvetica,sans-Serif" font-size="10.00">Vec</text>
</a>
</g>
</g>
<!-- Node22&#45;&gt;Node1 -->
<g id="edge89" class="edge">
<title>Node22&#45;&gt;Node1</title>
<path fill="none" stroke="#9a32cd" stroke-dasharray="5,2" d="M809.62,-588.88C808.92,-684.89 818.97,-1104.68 1040,-1318 1073.28,-1350.12 1094.25,-1345 1140.5,-1345 1140.5,-1345 1140.5,-1345 3173.5,-1345 3302.78,-1345 3402.6,-1184.13 3426.19,-1142.66"/>
<polygon fill="#9a32cd" stroke="#9a32cd" points="813.12,-588.85 809.75,-578.81 806.12,-588.77 813.12,-588.85"/>
<text text-anchor="middle" x="2256" y="-1348" font-family="Helvetica,sans-Serif" font-size="10.00"> F</text>
</g>
<!-- Node22&#45;&gt;Node14 -->
<g id="edge25" class="edge">
<title>Node22&#45;&gt;Node14</title>
<path fill="none" stroke="#9a32cd" stroke-dasharray="5,2" d="M836.54,-569.06C919.7,-568.91 1182.44,-565.77 1397,-534 1419.54,-530.66 1444.45,-524.73 1463.83,-519.6"/>
<polygon fill="#9a32cd" stroke="#9a32cd" points="836.45,-565.56 826.45,-569.07 836.45,-572.56 836.45,-565.56"/>
<text text-anchor="middle" x="1141.5" y="-568" font-family="Helvetica,sans-Serif" font-size="10.00"> ksp_f</text>
</g>
<!-- Node22&#45;&gt;Node15 -->
<g id="edge21" class="edge">
<title>Node22&#45;&gt;Node15</title>
<path fill="none" stroke="#9a32cd" stroke-dasharray="5,2" d="M815.75,-549.44C826.8,-515.05 854.16,-443.48 901,-402 944.31,-363.64 974.91,-387.61 1022,-354 1032.01,-346.86 1029.51,-339.41 1040,-333 1054.24,-324.3 1071.39,-318.76 1087.47,-315.22"/>
<polygon fill="#9a32cd" stroke="#9a32cd" points="812.34,-548.63 812.73,-559.21 819.03,-550.69 812.34,-548.63"/>
<text text-anchor="middle" x="961.5" y="-438" font-family="Helvetica,sans-Serif" font-size="10.00"> f</text>
<text text-anchor="middle" x="961.5" y="-427" font-family="Helvetica,sans-Serif" font-size="10.00">x</text>
<text text-anchor="middle" x="961.5" y="-416" font-family="Helvetica,sans-Serif" font-size="10.00">x_t</text>
<text text-anchor="middle" x="961.5" y="-405" font-family="Helvetica,sans-Serif" font-size="10.00">x_tt</text>
</g>
<!-- Node22&#45;&gt;Node25 -->
<g id="edge30" class="edge">
<title>Node22&#45;&gt;Node25</title>
<path fill="none" stroke="#9a32cd" stroke-dasharray="5,2" d="M832.21,-584.72C871.72,-611.61 957.83,-665.45 1040,-685 1194.48,-721.75 1241.95,-705.24 1397,-671 1424.87,-664.85 1455.58,-653.07 1475.62,-644.66"/>
<polygon fill="#9a32cd" stroke="#9a32cd" points="833.85,-581.6 823.63,-578.8 829.87,-587.36 833.85,-581.6"/>
<text text-anchor="middle" x="1141.5" y="-720" font-family="Helvetica,sans-Serif" font-size="10.00"> snes_x</text>
<text text-anchor="middle" x="1141.5" y="-709" font-family="Helvetica,sans-Serif" font-size="10.00">snes_f</text>
</g>
<!-- Node22&#45;&gt;Node28 -->
<g id="edge38" class="edge">
<title>Node22&#45;&gt;Node28</title>
<path fill="none" stroke="#9a32cd" stroke-dasharray="5,2" d="M835.79,-561.05C880.42,-545.97 972.06,-508.96 1022,-446 1039.04,-424.52 1019.67,-405.39 1040,-387 1099.98,-332.73 1317.82,-332.54 1397,-316 1415.88,-312.06 1436.72,-307.52 1454.5,-303.6"/>
<polygon fill="#9a32cd" stroke="#9a32cd" points="834.42,-557.81 826.01,-564.25 836.6,-564.47 834.42,-557.81"/>
<text text-anchor="middle" x="1141.5" y="-423" font-family="Helvetica,sans-Serif" font-size="10.00"> ts_u</text>
<text text-anchor="middle" x="1141.5" y="-412" font-family="Helvetica,sans-Serif" font-size="10.00">ts_F</text>
<text text-anchor="middle" x="1141.5" y="-401" font-family="Helvetica,sans-Serif" font-size="10.00">ts_u_t</text>
<text text-anchor="middle" x="1141.5" y="-390" font-family="Helvetica,sans-Serif" font-size="10.00">ts_u_tt</text>
</g>
<!-- Node23 -->
<g id="node23" class="node">
<title>Node23</title>
<g id="a_node23"><a xlink:title=" ">
<polygon fill="white" stroke="#bfbfbf" points="1124,-513.5 1124,-532.5 1159,-532.5 1159,-513.5 1124,-513.5"/>
<text text-anchor="middle" x="1141.5" y="-520.5" font-family="Helvetica,sans-Serif" font-size="10.00">KSP</text>
</a>
</g>
</g>
<!-- Node23&#45;&gt;Node14 -->
<g id="edge22" class="edge">
<title>Node23&#45;&gt;Node14</title>
<path fill="none" stroke="#9a32cd" stroke-dasharray="5,2" d="M1169.29,-522.02C1227.06,-519.9 1364.41,-514.87 1441.88,-512.04"/>
<polygon fill="#9a32cd" stroke="#9a32cd" points="1169.01,-518.53 1159.15,-522.39 1169.27,-525.52 1169.01,-518.53"/>
<text text-anchor="middle" x="1329" y="-522" font-family="Helvetica,sans-Serif" font-size="10.00"> ksp</text>
</g>
<!-- Node24 -->
<g id="node24" class="node">
<title>Node24</title>
<g id="a_node24"><a xlink:title=" ">
<polygon fill="white" stroke="#bfbfbf" points="1104.5,-475.5 1104.5,-494.5 1178.5,-494.5 1178.5,-475.5 1104.5,-475.5"/>
<text text-anchor="middle" x="1141.5" y="-482.5" font-family="Helvetica,sans-Serif" font-size="10.00">KSPContext</text>
</a>
</g>
</g>
<!-- Node24&#45;&gt;Node14 -->
<g id="edge23" class="edge">
<title>Node24&#45;&gt;Node14</title>
<path fill="none" stroke="#9a32cd" stroke-dasharray="5,2" d="M1188.85,-486.8C1239.89,-488.95 1324.38,-493.03 1397,-499 1411.61,-500.2 1427.38,-501.79 1442,-503.38"/>
<polygon fill="#9a32cd" stroke="#9a32cd" points="1188.92,-483.3 1178.79,-486.38 1188.63,-490.29 1188.92,-483.3"/>
<text text-anchor="middle" x="1329" y="-502" font-family="Helvetica,sans-Serif" font-size="10.00"> ksp_ctx</text>
</g>
<!-- Node25&#45;&gt;Node13 -->
<g id="edge26" class="edge">
<title>Node25&#45;&gt;Node13</title>
<path fill="none" stroke="midnightblue" d="M1568.06,-627.17C1641.05,-618.84 1755.39,-605.79 1824.95,-597.85"/>
<polygon fill="midnightblue" stroke="midnightblue" points="1567.59,-623.71 1558.05,-628.32 1568.38,-630.66 1567.59,-623.71"/>
</g>
<!-- Node26 -->
<g id="node26" class="node">
<title>Node26</title>
<g id="a_node26"><a xlink:title=" ">
<polygon fill="white" stroke="#bfbfbf" points="1120.5,-752.5 1120.5,-771.5 1162.5,-771.5 1162.5,-752.5 1120.5,-752.5"/>
<text text-anchor="middle" x="1141.5" y="-759.5" font-family="Helvetica,sans-Serif" font-size="10.00">SNES</text>
</a>
</g>
</g>
<!-- Node26&#45;&gt;Node25 -->
<g id="edge28" class="edge">
<title>Node26&#45;&gt;Node25</title>
<path fill="none" stroke="#9a32cd" stroke-dasharray="5,2" d="M1172.41,-754.83C1204.6,-747.12 1252.35,-735.75 1261,-734 1321.08,-721.83 1340.72,-735.3 1397,-711 1434.96,-694.61 1471.65,-661 1488.25,-644.53"/>
<polygon fill="#9a32cd" stroke="#9a32cd" points="1171.49,-751.45 1162.58,-757.18 1173.12,-758.26 1171.49,-751.45"/>
<text text-anchor="middle" x="1329" y="-737" font-family="Helvetica,sans-Serif" font-size="10.00"> snes</text>
</g>
<!-- Node27 -->
<g id="node27" class="node">
<title>Node27</title>
<g id="a_node27"><a xlink:title=" ">
<polygon fill="white" stroke="#bfbfbf" points="1101.5,-656.5 1101.5,-675.5 1181.5,-675.5 1181.5,-656.5 1101.5,-656.5"/>
<text text-anchor="middle" x="1141.5" y="-663.5" font-family="Helvetica,sans-Serif" font-size="10.00">SNESContext</text>
</a>
</g>
</g>
<!-- Node27&#45;&gt;Node25 -->
<g id="edge31" class="edge">
<title>Node27&#45;&gt;Node25</title>
<path fill="none" stroke="#9a32cd" stroke-dasharray="5,2" d="M1191.84,-661.69C1256.48,-656.05 1369.71,-646.16 1438.73,-640.13"/>
<polygon fill="#9a32cd" stroke="#9a32cd" points="1191.16,-658.24 1181.51,-662.59 1191.77,-665.21 1191.16,-658.24"/>
<text text-anchor="middle" x="1329" y="-659" font-family="Helvetica,sans-Serif" font-size="10.00"> snes_ctx</text>
</g>
<!-- Node28&#45;&gt;Node13 -->
<g id="edge32" class="edge">
<title>Node28&#45;&gt;Node13</title>
<path fill="none" stroke="midnightblue" d="M1519.94,-309.75C1589.61,-363.42 1816.55,-538.26 1872.46,-581.34"/>
<polygon fill="midnightblue" stroke="midnightblue" points="1521.95,-306.88 1511.89,-303.55 1517.68,-312.42 1521.95,-306.88"/>
</g>
<!-- Node29 -->
<g id="node29" class="node">
<title>Node29</title>
<g id="a_node29"><a xlink:title=" ">
<polygon fill="white" stroke="#bfbfbf" points="1109,-223.5 1109,-242.5 1174,-242.5 1174,-223.5 1109,-223.5"/>
<text text-anchor="middle" x="1141.5" y="-230.5" font-family="Helvetica,sans-Serif" font-size="10.00">PetscReal</text>
</a>
</g>
</g>
<!-- Node29&#45;&gt;Node28 -->
<g id="edge35" class="edge">
<title>Node29&#45;&gt;Node28</title>
<path fill="none" stroke="#9a32cd" stroke-dasharray="5,2" d="M1184.33,-226.69C1247.53,-218.08 1363.55,-206.17 1397,-229 1415.13,-241.38 1398.38,-260.66 1415,-275 1423.34,-282.2 1433.88,-286.82 1444.61,-289.74"/>
<polygon fill="#9a32cd" stroke="#9a32cd" points="1183.71,-223.24 1174.29,-228.09 1184.67,-230.18 1183.71,-223.24"/>
<text text-anchor="middle" x="1329" y="-265" font-family="Helvetica,sans-Serif" font-size="10.00"> ts_a</text>
<text text-anchor="middle" x="1329" y="-254" font-family="Helvetica,sans-Serif" font-size="10.00">ts_t</text>
<text text-anchor="middle" x="1329" y="-243" font-family="Helvetica,sans-Serif" font-size="10.00">ts_dt</text>
<text text-anchor="middle" x="1329" y="-232" font-family="Helvetica,sans-Serif" font-size="10.00">ts_aa</text>
</g>
<!-- Node30 -->
<g id="node30" class="node">
<title>Node30</title>
<g id="a_node30"><a xlink:title=" ">
<polygon fill="white" stroke="#bfbfbf" points="1108,-185.5 1108,-204.5 1175,-204.5 1175,-185.5 1108,-185.5"/>
<text text-anchor="middle" x="1141.5" y="-192.5" font-family="Helvetica,sans-Serif" font-size="10.00">TSContext</text>
</a>
</g>
</g>
<!-- Node30&#45;&gt;Node28 -->
<g id="edge36" class="edge">
<title>Node30&#45;&gt;Node28</title>
<path fill="none" stroke="#9a32cd" stroke-dasharray="5,2" d="M1185.28,-189.98C1249.21,-183.45 1365.53,-175.66 1397,-201 1423.36,-222.23 1390.92,-251.21 1415,-275 1423.05,-282.95 1433.72,-287.84 1444.71,-290.79"/>
<polygon fill="#9a32cd" stroke="#9a32cd" points="1184.7,-186.52 1175.12,-191.05 1185.43,-193.48 1184.7,-186.52"/>
<text text-anchor="middle" x="1329" y="-204" font-family="Helvetica,sans-Serif" font-size="10.00"> ts_ctx</text>
</g>
<!-- Node31 -->
<g id="node31" class="node">
<title>Node31</title>
<g id="a_node31"><a xlink:title=" ">
<polygon fill="white" stroke="#bfbfbf" points="1113.5,-89.5 1113.5,-108.5 1169.5,-108.5 1169.5,-89.5 1113.5,-89.5"/>
<text text-anchor="middle" x="1141.5" y="-96.5" font-family="Helvetica,sans-Serif" font-size="10.00">PetscInt</text>
</a>
</g>
</g>
<!-- Node31&#45;&gt;Node28 -->
<g id="edge37" class="edge">
<title>Node31&#45;&gt;Node28</title>
<path fill="none" stroke="#9a32cd" stroke-dasharray="5,2" d="M1179.66,-89.14C1235.09,-76.92 1339.07,-63.97 1397,-120 1446.85,-168.22 1368.75,-223.32 1415,-275 1422.74,-283.65 1433.56,-288.77 1444.83,-291.72"/>
<polygon fill="#9a32cd" stroke="#9a32cd" points="1178.53,-85.81 1169.58,-91.48 1180.11,-92.63 1178.53,-85.81"/>
<text text-anchor="middle" x="1329" y="-123" font-family="Helvetica,sans-Serif" font-size="10.00"> ts_step</text>
</g>
<!-- Node32 -->
<g id="node32" class="node">
<title>Node32</title>
<g id="a_node32"><a xlink:title=" ">
<polygon fill="white" stroke="#bfbfbf" points="1127,-261.5 1127,-280.5 1156,-280.5 1156,-261.5 1127,-261.5"/>
<text text-anchor="middle" x="1141.5" y="-268.5" font-family="Helvetica,sans-Serif" font-size="10.00">TS</text>
</a>
</g>
</g>
<!-- Node32&#45;&gt;Node28 -->
<g id="edge39" class="edge">
<title>Node32&#45;&gt;Node28</title>
<path fill="none" stroke="#9a32cd" stroke-dasharray="5,2" d="M1166.24,-271.83C1211.27,-273.49 1312.2,-277.62 1397,-284 1412.56,-285.17 1429.45,-286.74 1444.86,-288.28"/>
<polygon fill="#9a32cd" stroke="#9a32cd" points="1166.15,-268.33 1156.03,-271.46 1165.9,-275.32 1166.15,-268.33"/>
<text text-anchor="middle" x="1329" y="-287" font-family="Helvetica,sans-Serif" font-size="10.00"> ts</text>
</g>
<!-- Node33 -->
<g id="node33" class="node">
<title>Node33</title>
<g id="a_node33"><a xlink:title=" ">
<polygon fill="white" stroke="#bfbfbf" points="1454,-246.5 1454,-265.5 1543,-265.5 1543,-246.5 1454,-246.5"/>
<text text-anchor="middle" x="1498.5" y="-253.5" font-family="Helvetica,sans-Serif" font-size="10.00">pair&lt; int, int &gt;</text>
</a>
</g>
</g>
<!-- Node33&#45;&gt;Node13 -->
<g id="edge41" class="edge">
<title>Node33&#45;&gt;Node13</title>
<path fill="none" stroke="#9a32cd" stroke-dasharray="5,2" d="M1553.06,-262.28C1615.48,-272.28 1718.1,-297.47 1781,-359 1849.47,-425.98 1876.59,-546.1 1883.26,-581.15"/>
<polygon fill="#9a32cd" stroke="#9a32cd" points="1553.43,-258.79 1543.02,-260.74 1552.38,-265.71 1553.43,-258.79"/>
<text text-anchor="middle" x="1690.5" y="-362" font-family="Helvetica,sans-Serif" font-size="10.00"> loHiFERank</text>
</g>
<!-- Node34 -->
<g id="node34" class="node">
<title>Node34</title>
<g id="a_node34"><a xlink:title=" ">
<polygon fill="white" stroke="#bfbfbf" points="1428.5,-208.5 1428.5,-227.5 1568.5,-227.5 1568.5,-208.5 1428.5,-208.5"/>
<text text-anchor="middle" x="1498.5" y="-215.5" font-family="Helvetica,sans-Serif" font-size="10.00">weak_ptr&lt; CacheTuple &gt;</text>
</a>
</g>
</g>
<!-- Node34&#45;&gt;Node13 -->
<g id="edge42" class="edge">
<title>Node34&#45;&gt;Node13</title>
<path fill="none" stroke="#9a32cd" stroke-dasharray="5,2" d="M1578.7,-208.04C1640.76,-204.76 1725.6,-210.9 1781,-258 1884.82,-346.27 1886.48,-536.61 1885.36,-581.42"/>
<polygon fill="#9a32cd" stroke="#9a32cd" points="1578.32,-204.55 1568.55,-208.67 1578.75,-211.54 1578.32,-204.55"/>
<text text-anchor="middle" x="1690.5" y="-261" font-family="Helvetica,sans-Serif" font-size="10.00"> cacheWeakPtr</text>
</g>
<!-- Node35 -->
<g id="node35" class="node">
<title>Node35</title>
<g id="a_node35"><a xlink:title=" ">
<polygon fill="white" stroke="#bfbfbf" points="1442.5,-1050.5 1442.5,-1069.5 1554.5,-1069.5 1554.5,-1050.5 1442.5,-1050.5"/>
<text text-anchor="middle" x="1498.5" y="-1057.5" font-family="Helvetica,sans-Serif" font-size="10.00">unique_ptr&lt; bool &gt;</text>
</a>
</g>
</g>
<!-- Node35&#45;&gt;Node13 -->
<g id="edge43" class="edge">
<title>Node35&#45;&gt;Node13</title>
<path fill="none" stroke="#9a32cd" stroke-dasharray="5,2" d="M1564.78,-1069.5C1630.05,-1074.9 1728.12,-1071.09 1781,-1011 1810.46,-977.52 1770.3,-644.14 1799,-610 1805.69,-602.04 1814.9,-596.97 1824.81,-593.81"/>
<polygon fill="#9a32cd" stroke="#9a32cd" points="1564.88,-1065.99 1554.6,-1068.56 1564.24,-1072.96 1564.88,-1065.99"/>
<text text-anchor="middle" x="1690.5" y="-1086" font-family="Helvetica,sans-Serif" font-size="10.00"> matAssembleSwitch</text>
<text text-anchor="middle" x="1690.5" y="-1075" font-family="Helvetica,sans-Serif" font-size="10.00">vecAssembleSwitch</text>
</g>
<!-- Node36 -->
<g id="node36" class="node">
<title>Node36</title>
<g id="a_node36"><a xlink:title=" ">
<polygon fill="white" stroke="#bfbfbf" points="1127,-790.5 1127,-809.5 1156,-809.5 1156,-790.5 1127,-790.5"/>
<text text-anchor="middle" x="1141.5" y="-797.5" font-family="Helvetica,sans-Serif" font-size="10.00">int</text>
</a>
</g>
</g>
<!-- Node36&#45;&gt;Node13 -->
<g id="edge44" class="edge">
<title>Node36&#45;&gt;Node13</title>
<path fill="none" stroke="#9a32cd" stroke-dasharray="5,2" d="M1166.22,-796.1C1186.66,-792.59 1216.91,-787.08 1243,-781 1251.09,-779.12 1252.95,-778.03 1261,-776 1493.97,-717.13 1574.97,-751.66 1781,-628 1790.7,-622.18 1789.08,-615.44 1799,-610 1806.91,-605.66 1815.74,-602.32 1824.65,-599.73"/>
<polygon fill="#9a32cd" stroke="#9a32cd" points="1165.51,-792.67 1156.23,-797.78 1166.67,-799.57 1165.51,-792.67"/>
<text text-anchor="middle" x="1498.5" y="-781" font-family="Helvetica,sans-Serif" font-size="10.00"> sIze</text>
<text text-anchor="middle" x="1498.5" y="-770" font-family="Helvetica,sans-Serif" font-size="10.00">loopSize</text>
<text text-anchor="middle" x="1498.5" y="-759" font-family="Helvetica,sans-Serif" font-size="10.00">nInTheLoop</text>
<text text-anchor="middle" x="1498.5" y="-748" font-family="Helvetica,sans-Serif" font-size="10.00">rAnk</text>
</g>
<!-- Node36&#45;&gt;Node38 -->
<g id="edge56" class="edge">
<title>Node36&#45;&gt;Node38</title>
<path fill="none" stroke="#9a32cd" stroke-dasharray="5,2" d="M1166.08,-795.81C1222.03,-786.41 1360.82,-766.48 1397,-793 1418.43,-808.7 1405.23,-825.29 1415,-850 1440.09,-913.44 1478.22,-986.16 1492.16,-1012.14"/>
<polygon fill="#9a32cd" stroke="#9a32cd" points="1165.31,-792.39 1156.05,-797.53 1166.5,-799.29 1165.31,-792.39"/>
<text text-anchor="middle" x="1329" y="-862" font-family="Helvetica,sans-Serif" font-size="10.00"> tagNameSize</text>
<text text-anchor="middle" x="1329" y="-851" font-family="Helvetica,sans-Serif" font-size="10.00">nbDofsRow</text>
<text text-anchor="middle" x="1329" y="-840" font-family="Helvetica,sans-Serif" font-size="10.00">nbLocDofsCol</text>
<text text-anchor="middle" x="1329" y="-829" font-family="Helvetica,sans-Serif" font-size="10.00">nbDofsCol</text>
<text text-anchor="middle" x="1329" y="-818" font-family="Helvetica,sans-Serif" font-size="10.00">nbGhostDofsRow</text>
<text text-anchor="middle" x="1329" y="-807" font-family="Helvetica,sans-Serif" font-size="10.00">nbGhostDofsCol</text>
<text text-anchor="middle" x="1329" y="-796" font-family="Helvetica,sans-Serif" font-size="10.00">nbLocDofsRow</text>
</g>
<!-- Node37 -->
<g id="node37" class="node">
<title>Node37</title>
<g id="a_node37"><a xlink:title=" ">
<polygon fill="white" stroke="#bfbfbf" points="1415,-821.5 1415,-840.5 1582,-840.5 1582,-821.5 1415,-821.5"/>
<text text-anchor="middle" x="1498.5" y="-828.5" font-family="Helvetica,sans-Serif" font-size="10.00">function&lt; MoFEMErrorCode()&gt;</text>
</a>
</g>
</g>
<!-- Node37&#45;&gt;Node13 -->
<g id="edge45" class="edge">
<title>Node37&#45;&gt;Node13</title>
<path fill="none" stroke="#9a32cd" stroke-dasharray="5,2" d="M1592.55,-837.86C1655.04,-837.01 1734.21,-824.37 1781,-773 1830.08,-719.12 1750.3,-664.23 1799,-610 1805.84,-602.38 1815,-597.44 1824.78,-594.31"/>
<polygon fill="#9a32cd" stroke="#9a32cd" points="1592.26,-834.37 1582.28,-837.9 1592.29,-841.37 1592.26,-834.37"/>
<text text-anchor="middle" x="1690.5" y="-863" font-family="Helvetica,sans-Serif" font-size="10.00"> preProcessHook</text>
<text text-anchor="middle" x="1690.5" y="-852" font-family="Helvetica,sans-Serif" font-size="10.00">operatorHook</text>
<text text-anchor="middle" x="1690.5" y="-841" font-family="Helvetica,sans-Serif" font-size="10.00">postProcessHook</text>
</g>
<!-- Node38&#45;&gt;Node13 -->
<g id="edge46" class="edge">
<title>Node38&#45;&gt;Node13</title>
<path fill="none" stroke="#9a32cd" stroke-dasharray="5,2" d="M1556.08,-1009.95C1622.4,-992.55 1729.73,-953.48 1781,-875 1813.28,-825.59 1760.5,-654.74 1799,-610 1805.78,-602.12 1815.03,-597.08 1824.95,-593.94"/>
<polygon fill="#9a32cd" stroke="#9a32cd" points="1555.03,-1006.6 1546.2,-1012.46 1556.76,-1013.39 1555.03,-1006.6"/>
<text text-anchor="middle" x="1690.5" y="-999" font-family="Helvetica,sans-Serif" font-size="10.00"> problemPtr</text>
</g>
<!-- Node39 -->
<g id="node39" class="node">
<title>Node39</title>
<g id="a_node39"><a xlink:title=" ">
<polygon fill="white" stroke="#bfbfbf" points="1058,-1239 1058,-1269 1225,-1269 1225,-1239 1058,-1239"/>
<text text-anchor="start" x="1066" y="-1257" font-family="Helvetica,sans-Serif" font-size="10.00">shared_ptr&lt; NumeredEntFinite</text>
<text text-anchor="middle" x="1141.5" y="-1246" font-family="Helvetica,sans-Serif" font-size="10.00">Element_multiIndex &gt;</text>
</a>
</g>
</g>
<!-- Node39&#45;&gt;Node38 -->
<g id="edge47" class="edge">
<title>Node39&#45;&gt;Node38</title>
<path fill="none" stroke="#9a32cd" stroke-dasharray="5,2" d="M1235.17,-1241.86C1306.73,-1232.27 1394.1,-1220.03 1397,-1217 1424.2,-1188.62 1388.98,-1070.47 1415,-1041 1423.56,-1031.3 1435.98,-1026.03 1448.6,-1023.28"/>
<polygon fill="#9a32cd" stroke="#9a32cd" points="1234.64,-1238.4 1225.19,-1243.19 1235.56,-1245.34 1234.64,-1238.4"/>
<text text-anchor="middle" x="1329" y="-1240" font-family="Helvetica,sans-Serif" font-size="10.00"> numeredFiniteElementsPtr</text>
</g>
<!-- Node40 -->
<g id="node40" class="node">
<title>Node40</title>
<g id="a_node40"><a xlink:title=" ">
<polygon fill="white" stroke="#bfbfbf" points="1112,-1200.5 1112,-1219.5 1171,-1219.5 1171,-1200.5 1112,-1200.5"/>
<text text-anchor="middle" x="1141.5" y="-1207.5" font-family="Helvetica,sans-Serif" font-size="10.00">BitFEId *</text>
</a>
</g>
</g>
<!-- Node40&#45;&gt;Node38 -->
<g id="edge48" class="edge">
<title>Node40&#45;&gt;Node38</title>
<path fill="none" stroke="#9a32cd" stroke-dasharray="5,2" d="M1181.7,-1208C1249.28,-1204.17 1381.98,-1194.85 1397,-1180 1441.3,-1136.2 1373.15,-1087.14 1415,-1041 1423.69,-1031.42 1436.15,-1026.18 1448.77,-1023.43"/>
<polygon fill="#9a32cd" stroke="#9a32cd" points="1181.23,-1204.52 1171.44,-1208.57 1181.61,-1211.51 1181.23,-1204.52"/>
<text text-anchor="middle" x="1329" y="-1205" font-family="Helvetica,sans-Serif" font-size="10.00"> tagBitFEId</text>
</g>
<!-- Node41 -->
<g id="node41" class="node">
<title>Node41</title>
<g id="a_node41"><a xlink:href="classEntityHandle.html" target="_top" xlink:title=" ">
<polygon fill="white" stroke="black" points="1101.5,-1162.5 1101.5,-1181.5 1181.5,-1181.5 1181.5,-1162.5 1101.5,-1162.5"/>
<text text-anchor="middle" x="1141.5" y="-1169.5" font-family="Helvetica,sans-Serif" font-size="10.00">EntityHandle</text>
</a>
</g>
</g>
<!-- Node41&#45;&gt;Node38 -->
<g id="edge49" class="edge">
<title>Node41&#45;&gt;Node38</title>
<path fill="none" stroke="#9a32cd" stroke-dasharray="5,2" d="M1192.05,-1169.92C1261.87,-1166.5 1382.37,-1158.7 1397,-1145 1431.24,-1112.94 1382.75,-1075.07 1415,-1041 1423.79,-1031.71 1436.13,-1026.54 1448.6,-1023.77"/>
<polygon fill="#9a32cd" stroke="#9a32cd" points="1191.54,-1166.44 1181.72,-1170.41 1191.87,-1173.43 1191.54,-1166.44"/>
<text text-anchor="middle" x="1329" y="-1168" font-family="Helvetica,sans-Serif" font-size="10.00"> meshset</text>
</g>
<!-- Node42 -->
<g id="node42" class="node">
<title>Node42</title>
<g id="a_node42"><a xlink:title=" ">
<polygon fill="white" stroke="#bfbfbf" points="1067,-1113 1067,-1143 1216,-1143 1216,-1113 1067,-1113"/>
<text text-anchor="start" x="1075" y="-1131" font-family="Helvetica,sans-Serif" font-size="10.00">shared_ptr&lt; MoFEM::</text>
<text text-anchor="middle" x="1141.5" y="-1120" font-family="Helvetica,sans-Serif" font-size="10.00">ComposedProblemsData &gt;</text>
</a>
</g>
</g>
<!-- Node42&#45;&gt;Node38 -->
<g id="edge50" class="edge">
<title>Node42&#45;&gt;Node38</title>
<path fill="none" stroke="#9a32cd" stroke-dasharray="5,2" d="M1226.29,-1131.13C1290.3,-1131.73 1371.72,-1128.01 1397,-1107 1420.38,-1087.57 1393.08,-1062.07 1415,-1041 1424.11,-1032.24 1436.42,-1027.22 1448.73,-1024.42"/>
<polygon fill="#9a32cd" stroke="#9a32cd" points="1226.22,-1127.63 1216.17,-1131 1226.13,-1134.63 1226.22,-1127.63"/>
<text text-anchor="middle" x="1329" y="-1133" font-family="Helvetica,sans-Serif" font-size="10.00"> composedProblemsData</text>
</g>
<!-- Node43 -->
<g id="node43" class="node">
<title>Node43</title>
<g id="a_node43"><a xlink:title=" ">
<polygon fill="white" stroke="#bfbfbf" points="1101,-1074.5 1101,-1093.5 1182,-1093.5 1182,-1074.5 1101,-1074.5"/>
<text text-anchor="middle" x="1141.5" y="-1081.5" font-family="Helvetica,sans-Serif" font-size="10.00">BitRefLevel *</text>
</a>
</g>
</g>
<!-- Node43&#45;&gt;Node38 -->
<g id="edge51" class="edge">
<title>Node43&#45;&gt;Node38</title>
<path fill="none" stroke="#9a32cd" stroke-dasharray="5,2" d="M1192.32,-1083.42C1255.97,-1081.98 1362.09,-1077 1397,-1060 1407.46,-1054.91 1404.9,-1046.77 1415,-1041 1425.21,-1035.16 1437.09,-1031.12 1448.61,-1028.32"/>
<polygon fill="#9a32cd" stroke="#9a32cd" points="1192.03,-1079.92 1182.1,-1083.63 1192.17,-1086.92 1192.03,-1079.92"/>
<text text-anchor="middle" x="1329" y="-1095" font-family="Helvetica,sans-Serif" font-size="10.00"> tagBitRefLevelMask</text>
<text text-anchor="middle" x="1329" y="-1084" font-family="Helvetica,sans-Serif" font-size="10.00">tagBitRefLevel</text>
</g>
<!-- Node44 -->
<g id="node44" class="node">
<title>Node44</title>
<g id="a_node44"><a xlink:title=" ">
<polygon fill="white" stroke="#bfbfbf" points="1056.5,-1025 1056.5,-1055 1226.5,-1055 1226.5,-1025 1056.5,-1025"/>
<text text-anchor="start" x="1064.5" y="-1043" font-family="Helvetica,sans-Serif" font-size="10.00">shared_ptr&lt; NumeredDofEntity</text>
<text text-anchor="middle" x="1141.5" y="-1032" font-family="Helvetica,sans-Serif" font-size="10.00">_multiIndex &gt;</text>
</a>
</g>
</g>
<!-- Node44&#45;&gt;Node38 -->
<g id="edge52" class="edge">
<title>Node44&#45;&gt;Node38</title>
<path fill="none" stroke="#9a32cd" stroke-dasharray="5,2" d="M1236.96,-1035.21C1305.2,-1031.75 1394.57,-1027.22 1448.92,-1024.46"/>
<polygon fill="#9a32cd" stroke="#9a32cd" points="1236.44,-1031.73 1226.63,-1035.73 1236.79,-1038.72 1236.44,-1031.73"/>
<text text-anchor="middle" x="1329" y="-1048" font-family="Helvetica,sans-Serif" font-size="10.00"> numeredRowDofsPtr</text>
<text text-anchor="middle" x="1329" y="-1037" font-family="Helvetica,sans-Serif" font-size="10.00">numeredColDofsPtr</text>
</g>
<!-- Node45 -->
<g id="node45" class="node">
<title>Node45</title>
<g id="a_node45"><a xlink:title=" ">
<polygon fill="white" stroke="#bfbfbf" points="1072.5,-986.5 1072.5,-1005.5 1210.5,-1005.5 1210.5,-986.5 1072.5,-986.5"/>
<text text-anchor="middle" x="1141.5" y="-993.5" font-family="Helvetica,sans-Serif" font-size="10.00">vector&lt; BlockFieldPair &gt;</text>
</a>
</g>
</g>
<!-- Node45&#45;&gt;Node38 -->
<g id="edge54" class="edge">
<title>Node45&#45;&gt;Node38</title>
<path fill="none" stroke="#9a32cd" stroke-dasharray="5,2" d="M1220.75,-1000.77C1271.1,-1003.95 1337.94,-1008.38 1397,-1013 1413.94,-1014.32 1432.47,-1015.94 1448.96,-1017.43"/>
<polygon fill="#9a32cd" stroke="#9a32cd" points="1220.78,-997.26 1210.58,-1000.13 1220.34,-1004.25 1220.78,-997.26"/>
<text text-anchor="middle" x="1329" y="-1016" font-family="Helvetica,sans-Serif" font-size="10.00"> emptyFieldBlocks</text>
</g>
<!-- Node46 -->
<g id="node46" class="node">
<title>Node46</title>
<g id="a_node46"><a xlink:title=" ">
<polygon fill="white" stroke="#bfbfbf" points="1063.5,-937 1063.5,-967 1219.5,-967 1219.5,-937 1063.5,-937"/>
<text text-anchor="start" x="1071.5" y="-955" font-family="Helvetica,sans-Serif" font-size="10.00">shared_ptr&lt; MoFEM::</text>
<text text-anchor="middle" x="1141.5" y="-944" font-family="Helvetica,sans-Serif" font-size="10.00">Problem::SubProblemData &gt;</text>
</a>
</g>
</g>
<!-- Node46&#45;&gt;Node38 -->
<g id="edge55" class="edge">
<title>Node46&#45;&gt;Node38</title>
<path fill="none" stroke="#9a32cd" stroke-dasharray="5,2" d="M1229.74,-960.9C1279.2,-966.89 1342,-976.08 1397,-989 1423.1,-995.13 1452.12,-1005 1472.24,-1012.36"/>
<polygon fill="#9a32cd" stroke="#9a32cd" points="1230.06,-957.41 1219.71,-959.71 1229.23,-964.37 1230.06,-957.41"/>
<text text-anchor="middle" x="1329" y="-992" font-family="Helvetica,sans-Serif" font-size="10.00"> subProblemData</text>
</g>
<!-- Node47 -->
<g id="node47" class="node">
<title>Node47</title>
<g id="a_node47"><a xlink:title=" ">
<polygon fill="white" stroke="#bfbfbf" points="1040,-898.5 1040,-917.5 1243,-917.5 1243,-898.5 1040,-898.5"/>
<text text-anchor="middle" x="1141.5" y="-905.5" font-family="Helvetica,sans-Serif" font-size="10.00">shared_ptr&lt; SequenceDofContainer &gt;</text>
</a>
</g>
</g>
<!-- Node47&#45;&gt;Node38 -->
<g id="edge57" class="edge">
<title>Node47&#45;&gt;Node38</title>
<path fill="none" stroke="#9a32cd" stroke-dasharray="5,2" d="M1253.15,-908.58C1299.17,-912.17 1352.19,-920.8 1397,-940 1436.74,-957.02 1473.4,-994.64 1489.25,-1012.38"/>
<polygon fill="#9a32cd" stroke="#9a32cd" points="1253.36,-905.09 1243.14,-907.87 1252.87,-912.07 1253.36,-905.09"/>
<text text-anchor="middle" x="1329" y="-954" font-family="Helvetica,sans-Serif" font-size="10.00"> sequenceRowDofContainer</text>
<text text-anchor="middle" x="1329" y="-943" font-family="Helvetica,sans-Serif" font-size="10.00">sequenceColDofContainer</text>
</g>
<!-- Node48 -->
<g id="node48" class="node">
<title>Node48</title>
<g id="a_node48"><a xlink:title=" ">
<polygon fill="white" stroke="#bfbfbf" points="1097.5,-860.5 1097.5,-879.5 1185.5,-879.5 1185.5,-860.5 1097.5,-860.5"/>
<text text-anchor="middle" x="1141.5" y="-867.5" font-family="Helvetica,sans-Serif" font-size="10.00">BitProblemId *</text>
</a>
</g>
</g>
<!-- Node48&#45;&gt;Node38 -->
<g id="edge58" class="edge">
<title>Node48&#45;&gt;Node38</title>
<path fill="none" stroke="#9a32cd" stroke-dasharray="5,2" d="M1195.98,-870.4C1260.21,-871.71 1363.5,-876.71 1397,-895 1447.59,-922.62 1481.6,-987.44 1493.15,-1012.18"/>
<polygon fill="#9a32cd" stroke="#9a32cd" points="1195.69,-866.9 1185.63,-870.22 1195.57,-873.89 1195.69,-866.9"/>
<text text-anchor="middle" x="1329" y="-898" font-family="Helvetica,sans-Serif" font-size="10.00"> tagId</text>
</g>
<!-- Node49 -->
<g id="node49" class="node">
<title>Node49</title>
<g id="a_node49"><a xlink:title=" ">
<polygon fill="white" stroke="#bfbfbf" points="1805,-669 1805,-699 1967,-699 1967,-669 1805,-669"/>
<text text-anchor="start" x="1813" y="-687" font-family="Helvetica,sans-Serif" font-size="10.00">shared_ptr&lt; const MoFEM</text>
<text text-anchor="middle" x="1886" y="-676" font-family="Helvetica,sans-Serif" font-size="10.00">::NumeredEntFiniteElement &gt;</text>
</a>
</g>
</g>
<!-- Node49&#45;&gt;Node12 -->
<g id="edge59" class="edge">
<title>Node49&#45;&gt;Node12</title>
<path fill="none" stroke="#9a32cd" stroke-dasharray="5,2" d="M1977.25,-677.58C1981.9,-677.35 1986.5,-677.16 1991,-677 2064.29,-674.4 2149.09,-674.66 2202.39,-675.22"/>
<polygon fill="#9a32cd" stroke="#9a32cd" points="1976.84,-674.09 1967.03,-678.1 1977.2,-681.08 1976.84,-674.09"/>
<text text-anchor="middle" x="2063" y="-680" font-family="Helvetica,sans-Serif" font-size="10.00"> numeredEntFiniteElementPtr</text>
</g>
<!-- Node50 -->
<g id="node50" class="node">
<title>Node50</title>
<g id="a_node50"><a xlink:title=" ">
<polygon fill="white" stroke="#bfbfbf" points="1864,-930.5 1864,-949.5 1908,-949.5 1908,-930.5 1864,-930.5"/>
<text text-anchor="middle" x="1886" y="-937.5" font-family="Helvetica,sans-Serif" font-size="10.00">string</text>
</a>
</g>
</g>
<!-- Node50&#45;&gt;Node3 -->
<g id="edge82" class="edge">
<title>Node50&#45;&gt;Node3</title>
<path fill="none" stroke="#9a32cd" stroke-dasharray="5,2" d="M1918.12,-946.07C1938.73,-949.92 1966.4,-954.77 1991,-958 2153.82,-979.35 2196.35,-968.4 2359,-991 2439.64,-1002.2 2459.23,-1008.7 2539,-1025 2650.44,-1047.77 2779.58,-1076.71 2855.56,-1093.99"/>
<polygon fill="#9a32cd" stroke="#9a32cd" points="1918.51,-942.59 1908.04,-944.16 1917.21,-949.46 1918.51,-942.59"/>
<text text-anchor="middle" x="2458" y="-1039" font-family="Helvetica,sans-Serif" font-size="10.00"> colFieldName</text>
<text text-anchor="middle" x="2458" y="-1028" font-family="Helvetica,sans-Serif" font-size="10.00">rowFieldName</text>
</g>
<!-- Node50&#45;&gt;Node12 -->
<g id="edge60" class="edge">
<title>Node50&#45;&gt;Node12</title>
<path fill="none" stroke="#9a32cd" stroke-dasharray="5,2" d="M1918.31,-941.62C1936.98,-940.78 1959.6,-936.23 1973,-921 2002.48,-887.5 1960.72,-753.78 1991,-721 2005.18,-705.65 2129.6,-689.67 2202.46,-681.51"/>
<polygon fill="#9a32cd" stroke="#9a32cd" points="1918.1,-938.13 1908.14,-941.75 1918.19,-945.13 1918.1,-938.13"/>
<text text-anchor="middle" x="2063" y="-724" font-family="Helvetica,sans-Serif" font-size="10.00"> feName</text>
</g>
<!-- Node51 -->
<g id="node51" class="node">
<title>Node51</title>
<g id="a_node51"><a xlink:title=" ">
<polygon fill="white" stroke="#bfbfbf" points="1804.5,-620 1804.5,-650 1967.5,-650 1967.5,-620 1804.5,-620"/>
<text text-anchor="start" x="1812.5" y="-638" font-family="Helvetica,sans-Serif" font-size="10.00">function&lt; bool(MoFEM</text>
<text text-anchor="middle" x="1886" y="-627" font-family="Helvetica,sans-Serif" font-size="10.00">::FEMethod *fe_method_ptr)&gt;</text>
</a>
</g>
</g>
<!-- Node51&#45;&gt;Node12 -->
<g id="edge61" class="edge">
<title>Node51&#45;&gt;Node12</title>
<path fill="none" stroke="#9a32cd" stroke-dasharray="5,2" d="M1977.91,-643.46C2024.86,-648.01 2083.05,-653.92 2135,-660 2157.13,-662.59 2181.5,-665.78 2202.47,-668.63"/>
<polygon fill="#9a32cd" stroke="#9a32cd" points="1978.06,-639.96 1967.77,-642.48 1977.39,-646.93 1978.06,-639.96"/>
<text text-anchor="middle" x="2063" y="-663" font-family="Helvetica,sans-Serif" font-size="10.00"> exeTestHook</text>
</g>
<!-- Node52 -->
<g id="node52" class="node">
<title>Node52</title>
<g id="a_node52"><a xlink:href="classdouble.html" target="_top" xlink:title=" ">
<polygon fill="white" stroke="black" points="2231,-480.5 2231,-499.5 2281,-499.5 2281,-480.5 2231,-480.5"/>
<text text-anchor="middle" x="2256" y="-487.5" font-family="Helvetica,sans-Serif" font-size="10.00">double</text>
</a>
</g>
</g>
<!-- Node52&#45;&gt;Node11 -->
<g id="edge62" class="edge">
<title>Node52&#45;&gt;Node11</title>
<path fill="none" stroke="#9a32cd" stroke-dasharray="5,2" d="M2291.4,-485.8C2346.18,-480.57 2455.55,-476.12 2539,-511 2581.28,-528.67 2618.33,-571.06 2633.59,-590.26"/>
<polygon fill="#9a32cd" stroke="#9a32cd" points="2290.79,-482.35 2281.19,-486.85 2291.5,-489.31 2290.79,-482.35"/>
<text text-anchor="middle" x="2458" y="-514" font-family="Helvetica,sans-Serif" font-size="10.00"> elementMeasure</text>
</g>
<!-- Node53 -->
<g id="node53" class="node">
<title>Node53</title>
<g id="a_node53"><a xlink:title=" ">
<polygon fill="white" stroke="#bfbfbf" points="2170,-420.5 2170,-461.5 2342,-461.5 2342,-420.5 2170,-420.5"/>
<text text-anchor="start" x="2178" y="-449.5" font-family="Helvetica,sans-Serif" font-size="10.00">array&lt; boost::shared</text>
<text text-anchor="start" x="2178" y="-438.5" font-family="Helvetica,sans-Serif" font-size="10.00">_ptr&lt; MoFEM::EntitiesFieldData</text>
<text text-anchor="middle" x="2256" y="-427.5" font-family="Helvetica,sans-Serif" font-size="10.00"> &gt;, LASTSPACE &gt;</text>
</a>
</g>
</g>
<!-- Node53&#45;&gt;Node11 -->
<g id="edge63" class="edge">
<title>Node53&#45;&gt;Node11</title>
<path fill="none" stroke="#9a32cd" stroke-dasharray="5,2" d="M2352.33,-426.57C2409.82,-422.5 2482.59,-425.89 2539,-457 2594.81,-487.78 2627.48,-563.61 2637.59,-590.42"/>
<polygon fill="#9a32cd" stroke="#9a32cd" points="2351.84,-423.09 2342.15,-427.37 2352.39,-430.07 2351.84,-423.09"/>
<text text-anchor="middle" x="2458" y="-471" font-family="Helvetica,sans-Serif" font-size="10.00"> derivedDataOnElement</text>
<text text-anchor="middle" x="2458" y="-460" font-family="Helvetica,sans-Serif" font-size="10.00">dataOnElement</text>
</g>
<!-- Node54 -->
<g id="node54" class="node">
<title>Node54</title>
<g id="a_node54"><a xlink:title=" ">
<polygon fill="white" stroke="#bfbfbf" points="2222,-382.5 2222,-401.5 2290,-401.5 2290,-382.5 2222,-382.5"/>
<text text-anchor="middle" x="2256" y="-389.5" font-family="Helvetica,sans-Serif" font-size="10.00">EntityType</text>
</a>
</g>
</g>
<!-- Node54&#45;&gt;Node11 -->
<g id="edge64" class="edge">
<title>Node54&#45;&gt;Node11</title>
<path fill="none" stroke="#9a32cd" stroke-dasharray="5,2" d="M2300.24,-382.87C2359.25,-372.91 2466,-364.05 2539,-411 2606.42,-454.37 2632.54,-558.2 2639.18,-590.35"/>
<polygon fill="#9a32cd" stroke="#9a32cd" points="2299.38,-379.47 2290.15,-384.66 2300.6,-386.36 2299.38,-379.47"/>
<text text-anchor="middle" x="2458" y="-414" font-family="Helvetica,sans-Serif" font-size="10.00"> lastEvaluatedElementEntityType</text>
</g>
<!-- Node55 -->
<g id="node55" class="node">
<title>Node55</title>
<g id="a_node55"><a xlink:href="structMoFEM_1_1DeprecatedCoreInterface.html" target="_top" xlink:title="Deprecated interface functions.">
<polygon fill="white" stroke="black" points="1600,-21.5 1600,-40.5 1781,-40.5 1781,-21.5 1600,-21.5"/>
<text text-anchor="middle" x="1690.5" y="-28.5" font-family="Helvetica,sans-Serif" font-size="10.00">MoFEM::DeprecatedCoreInterface</text>
</a>
</g>
</g>
<!-- Node55&#45;&gt;Node11 -->
<g id="edge65" class="edge">
<title>Node55&#45;&gt;Node11</title>
<path fill="none" stroke="#9a32cd" stroke-dasharray="5,2" d="M1771.22,-42.12C1935.88,-69.06 2316.67,-152.49 2539,-371 2606.36,-437.2 2632.81,-555.71 2639.31,-590.28"/>
<polygon fill="#9a32cd" stroke="#9a32cd" points="1771.6,-38.64 1761.17,-40.5 1770.49,-45.55 1771.6,-38.64"/>
<text text-anchor="middle" x="2063" y="-135" font-family="Helvetica,sans-Serif" font-size="10.00"> mField</text>
</g>
<!-- Node56&#45;&gt;Node55 -->
<g id="edge66" class="edge">
<title>Node56&#45;&gt;Node55</title>
<path fill="none" stroke="midnightblue" d="M1214.39,-46.63C1313.43,-43.38 1491.78,-37.51 1599.54,-33.96"/>
<polygon fill="midnightblue" stroke="midnightblue" points="1214.06,-43.14 1204.18,-46.97 1214.29,-50.14 1214.06,-43.14"/>
</g>
<!-- Node57 -->
<g id="node57" class="node">
<title>Node57</title>
<g id="a_node57"><a xlink:title=" ">
<polygon fill="white" stroke="#bfbfbf" points="2172.5,-754 2172.5,-806 2339.5,-806 2339.5,-754 2172.5,-754"/>
<text text-anchor="start" x="2180.5" y="-794" font-family="Helvetica,sans-Serif" font-size="10.00">function&lt; MoFEMErrorCode</text>
<text text-anchor="start" x="2180.5" y="-783" font-family="Helvetica,sans-Serif" font-size="10.00">(ForcesAndSourcesCore *fe</text>
<text text-anchor="start" x="2180.5" y="-772" font-family="Helvetica,sans-Serif" font-size="10.00">_raw_ptr, int order_row,</text>
<text text-anchor="middle" x="2256" y="-761" font-family="Helvetica,sans-Serif" font-size="10.00"> int order_col, int order_data)&gt;</text>
</a>
</g>
</g>
<!-- Node57&#45;&gt;Node11 -->
<g id="edge69" class="edge">
<title>Node57&#45;&gt;Node11</title>
<path fill="none" stroke="#9a32cd" stroke-dasharray="5,2" d="M2349.83,-775.42C2407.67,-769.03 2481.72,-754.18 2539,-720 2586.67,-691.56 2622.87,-632.77 2635.82,-609.64"/>
<polygon fill="#9a32cd" stroke="#9a32cd" points="2349.17,-771.97 2339.59,-776.48 2349.9,-778.93 2349.17,-771.97"/>
<text text-anchor="middle" x="2458" y="-775" font-family="Helvetica,sans-Serif" font-size="10.00"> setRuleHook</text>
</g>
<!-- Node58 -->
<g id="node58" class="node">
<title>Node58</title>
<g id="a_node58"><a xlink:title=" ">
<polygon fill="white" stroke="#bfbfbf" points="2155,-705 2155,-735 2357,-735 2357,-705 2155,-705"/>
<text text-anchor="start" x="2163" y="-723" font-family="Helvetica,sans-Serif" font-size="10.00">ptr_deque&lt; MoFEM::Forces</text>
<text text-anchor="middle" x="2256" y="-712" font-family="Helvetica,sans-Serif" font-size="10.00">AndSourcesCore::UserDataOperator &gt;</text>
</a>
</g>
</g>
<!-- Node58&#45;&gt;Node11 -->
<g id="edge70" class="edge">
<title>Node58&#45;&gt;Node11</title>
<path fill="none" stroke="#9a32cd" stroke-dasharray="5,2" d="M2367.16,-706.98C2420.35,-698.39 2484.34,-684.6 2539,-663 2573.84,-649.23 2610.11,-623.68 2628.58,-609.72"/>
<polygon fill="#9a32cd" stroke="#9a32cd" points="2366.35,-703.56 2357.01,-708.58 2367.43,-710.48 2366.35,-703.56"/>
<text text-anchor="middle" x="2458" y="-708" font-family="Helvetica,sans-Serif" font-size="10.00"> opPtrVector</text>
</g>
<!-- Node59 -->
<g id="node59" class="node">
<title>Node59</title>
<g id="a_node59"><a xlink:href="structMoFEM_1_1EntitiesFieldData.html" target="_top" xlink:title="data structure for finite element entity">
<polygon fill="white" stroke="black" points="2185,-826.5 2185,-845.5 2327,-845.5 2327,-826.5 2185,-826.5"/>
<text text-anchor="middle" x="2256" y="-833.5" font-family="Helvetica,sans-Serif" font-size="10.00">MoFEM::EntitiesFieldData</text>
</a>
</g>
</g>
<!-- Node59&#45;&gt;Node11 -->
<g id="edge71" class="edge">
<title>Node59&#45;&gt;Node11</title>
<path fill="none" stroke="#9a32cd" stroke-dasharray="5,2" d="M2337.5,-840.02C2398.16,-839.06 2480.58,-828.86 2539,-787 2603.33,-740.91 2631.38,-641.2 2638.86,-609.73"/>
<polygon fill="#9a32cd" stroke="#9a32cd" points="2337.18,-836.52 2327.2,-840.09 2337.23,-843.52 2337.18,-836.52"/>
<text text-anchor="middle" x="2458" y="-885" font-family="Helvetica,sans-Serif" font-size="10.00"> dataNoField</text>
<text text-anchor="middle" x="2458" y="-874" font-family="Helvetica,sans-Serif" font-size="10.00">dataL2</text>
<text text-anchor="middle" x="2458" y="-863" font-family="Helvetica,sans-Serif" font-size="10.00">dataH1</text>
<text text-anchor="middle" x="2458" y="-852" font-family="Helvetica,sans-Serif" font-size="10.00">dataHcurl</text>
<text text-anchor="middle" x="2458" y="-841" font-family="Helvetica,sans-Serif" font-size="10.00">dataHdiv</text>
</g>
<!-- Node60 -->
<g id="node60" class="node">
<title>Node60</title>
<g id="a_node60"><a xlink:title=" ">
<polygon fill="white" stroke="#bfbfbf" points="1805,-969 1805,-999 1967,-999 1967,-969 1805,-969"/>
<text text-anchor="start" x="1813" y="-987" font-family="Helvetica,sans-Serif" font-size="10.00">array&lt; std::bitset</text>
<text text-anchor="middle" x="1886" y="-976" font-family="Helvetica,sans-Serif" font-size="10.00">&lt; LASTBASE &gt;, LASTSPACE &gt;</text>
</a>
</g>
</g>
<!-- Node60&#45;&gt;Node59 -->
<g id="edge72" class="edge">
<title>Node60&#45;&gt;Node59</title>
<path fill="none" stroke="#9a32cd" stroke-dasharray="5,2" d="M1952.04,-965.99C1959.15,-963.76 1966.25,-961.41 1973,-959 2074.11,-922.92 2190.29,-867.67 2235.55,-845.6"/>
<polygon fill="#9a32cd" stroke="#9a32cd" points="1950.9,-962.68 1942.37,-968.97 1952.95,-969.37 1950.9,-962.68"/>
<text text-anchor="middle" x="2063" y="-965" font-family="Helvetica,sans-Serif" font-size="10.00"> brokenBasesOnSpaces</text>
<text text-anchor="middle" x="2063" y="-954" font-family="Helvetica,sans-Serif" font-size="10.00">basesOnSpaces</text>
</g>
<!-- Node61 -->
<g id="node61" class="node">
<title>Node61</title>
<g id="a_node61"><a xlink:title=" ">
<polygon fill="white" stroke="#bfbfbf" points="1809.5,-870.5 1809.5,-911.5 1962.5,-911.5 1962.5,-870.5 1809.5,-870.5"/>
<text text-anchor="start" x="1817.5" y="-899.5" font-family="Helvetica,sans-Serif" font-size="10.00">array&lt; boost::ptr_vector</text>
<text text-anchor="start" x="1817.5" y="-888.5" font-family="Helvetica,sans-Serif" font-size="10.00">&lt; MoFEM::EntitiesFieldData</text>
<text text-anchor="middle" x="1886" y="-877.5" font-family="Helvetica,sans-Serif" font-size="10.00">::EntData &gt;, MBMAXTYPE &gt;</text>
</a>
</g>
</g>
<!-- Node61&#45;&gt;Node59 -->
<g id="edge73" class="edge">
<title>Node61&#45;&gt;Node59</title>
<path fill="none" stroke="#9a32cd" stroke-dasharray="5,2" d="M1972.89,-878.16C2039.68,-868.18 2130.84,-854.56 2191.25,-845.53"/>
<polygon fill="#9a32cd" stroke="#9a32cd" points="1972.18,-874.73 1962.8,-879.67 1973.21,-881.65 1972.18,-874.73"/>
<text text-anchor="middle" x="2063" y="-878" font-family="Helvetica,sans-Serif" font-size="10.00"> dataOnEntities</text>
</g>
<!-- Node62 -->
<g id="node62" class="node">
<title>Node62</title>
<g id="a_node62"><a xlink:title=" ">
<polygon fill="white" stroke="#bfbfbf" points="1799,-821 1799,-851 1973,-851 1973,-821 1799,-821"/>
<text text-anchor="start" x="1807" y="-839" font-family="Helvetica,sans-Serif" font-size="10.00">array&lt; std::bitset</text>
<text text-anchor="middle" x="1886" y="-828" font-family="Helvetica,sans-Serif" font-size="10.00">&lt; LASTSPACE &gt;, MBMAXTYPE &gt;</text>
</a>
</g>
</g>
<!-- Node62&#45;&gt;Node59 -->
<g id="edge74" class="edge">
<title>Node62&#45;&gt;Node59</title>
<path fill="none" stroke="#9a32cd" stroke-dasharray="5,2" d="M1983.66,-836C2046.86,-836 2127.96,-836 2184.97,-836"/>
<polygon fill="#9a32cd" stroke="#9a32cd" points="1983.28,-832.5 1973.28,-836 1983.28,-839.5 1983.28,-832.5"/>
<text text-anchor="middle" x="2063" y="-839" font-family="Helvetica,sans-Serif" font-size="10.00"> spacesOnEntities</text>
</g>
<!-- Node63 -->
<g id="node63" class="node">
<title>Node63</title>
<g id="a_node63"><a xlink:title=" ">
<polygon fill="white" stroke="#bfbfbf" points="1801.5,-772 1801.5,-802 1970.5,-802 1970.5,-772 1801.5,-772"/>
<text text-anchor="start" x="1809.5" y="-790" font-family="Helvetica,sans-Serif" font-size="10.00">array&lt; std::bitset</text>
<text text-anchor="middle" x="1886" y="-779" font-family="Helvetica,sans-Serif" font-size="10.00">&lt; LASTBASE &gt;, MBMAXTYPE &gt;</text>
</a>
</g>
</g>
<!-- Node63&#45;&gt;Node59 -->
<g id="edge75" class="edge">
<title>Node63&#45;&gt;Node59</title>
<path fill="none" stroke="#9a32cd" stroke-dasharray="5,2" d="M1980.54,-799.45C2044.11,-807.92 2126.86,-818.94 2184.81,-826.65"/>
<polygon fill="#9a32cd" stroke="#9a32cd" points="1980.88,-795.97 1970.5,-798.12 1979.96,-802.91 1980.88,-795.97"/>
<text text-anchor="middle" x="2063" y="-822" font-family="Helvetica,sans-Serif" font-size="10.00"> basesOnEntities</text>
</g>
<!-- Node64 -->
<g id="node64" class="node">
<title>Node64</title>
<g id="a_node64"><a xlink:title=" ">
<polygon fill="white" stroke="#bfbfbf" points="1830,-733.5 1830,-752.5 1942,-752.5 1942,-733.5 1830,-733.5"/>
<text text-anchor="middle" x="1886" y="-740.5" font-family="Helvetica,sans-Serif" font-size="10.00">UBlasMatrix&lt; int &gt;</text>
</a>
</g>
</g>
<!-- Node64&#45;&gt;Node59 -->
<g id="edge76" class="edge">
<title>Node64&#45;&gt;Node59</title>
<path fill="none" stroke="#9a32cd" stroke-dasharray="5,2" d="M1952.29,-735.41C2006.35,-732.65 2082.53,-737.32 2135,-776 2150.37,-787.33 2138.05,-803.13 2153,-815 2162.21,-822.3 2173.31,-827.25 2184.76,-830.57"/>
<polygon fill="#9a32cd" stroke="#9a32cd" points="1951.89,-731.92 1942.13,-736.02 1952.32,-738.91 1951.89,-731.92"/>
<text text-anchor="middle" x="2063" y="-790" font-family="Helvetica,sans-Serif" font-size="10.00"> facesNodesOrder</text>
<text text-anchor="middle" x="2063" y="-779" font-family="Helvetica,sans-Serif" font-size="10.00">facesNodes</text>
</g>
<!-- Node65 -->
<g id="node65" class="node">
<title>Node65</title>
<g id="a_node65"><a xlink:title=" ">
<polygon fill="white" stroke="#bfbfbf" points="1827.5,-1018.5 1827.5,-1037.5 1944.5,-1037.5 1944.5,-1018.5 1827.5,-1018.5"/>
<text text-anchor="middle" x="1886" y="-1025.5" font-family="Helvetica,sans-Serif" font-size="10.00">bitset&lt; LASTBASE &gt;</text>
</a>
</g>
</g>
<!-- Node65&#45;&gt;Node59 -->
<g id="edge77" class="edge">
<title>Node65&#45;&gt;Node59</title>
<path fill="none" stroke="#9a32cd" stroke-dasharray="5,2" d="M1954.91,-1025.9C2007.32,-1021.6 2079.94,-1009.58 2135,-977 2192.27,-943.12 2235.38,-871.84 2249.79,-845.8"/>
<polygon fill="#9a32cd" stroke="#9a32cd" points="1954.42,-1022.43 1944.71,-1026.67 1954.94,-1029.41 1954.42,-1022.43"/>
<text text-anchor="middle" x="2063" y="-1025" font-family="Helvetica,sans-Serif" font-size="10.00"> bAse</text>
</g>
<!-- Node66 -->
<g id="node66" class="node">
<title>Node66</title>
<g id="a_node66"><a xlink:title=" ">
<polygon fill="white" stroke="#bfbfbf" points="2193.5,-606.5 2193.5,-647.5 2318.5,-647.5 2318.5,-606.5 2193.5,-606.5"/>
<text text-anchor="start" x="2201.5" y="-635.5" font-family="Helvetica,sans-Serif" font-size="10.00">function&lt; int(int order</text>
<text text-anchor="start" x="2201.5" y="-624.5" font-family="Helvetica,sans-Serif" font-size="10.00">_row, int order_col, int</text>
<text text-anchor="middle" x="2256" y="-613.5" font-family="Helvetica,sans-Serif" font-size="10.00"> order_data)&gt;</text>
</a>
</g>
</g>
<!-- Node66&#45;&gt;Node11 -->
<g id="edge78" class="edge">
<title>Node66&#45;&gt;Node11</title>
<path fill="none" stroke="#9a32cd" stroke-dasharray="5,2" d="M2328.81,-621.95C2393.51,-617.4 2488.67,-610.71 2556.91,-605.91"/>
<polygon fill="#9a32cd" stroke="#9a32cd" points="2328.43,-618.47 2318.7,-622.66 2328.92,-625.45 2328.43,-618.47"/>
<text text-anchor="middle" x="2458" y="-622" font-family="Helvetica,sans-Serif" font-size="10.00"> getRuleHook</text>
</g>
<!-- Node67 -->
<g id="node67" class="node">
<title>Node67</title>
<g id="a_node67"><a xlink:title=" ">
<polygon fill="white" stroke="#bfbfbf" points="2195,-557 2195,-587 2317,-587 2317,-557 2195,-557"/>
<text text-anchor="start" x="2203" y="-575" font-family="Helvetica,sans-Serif" font-size="10.00">shared_ptr&lt; MoFEM::</text>
<text text-anchor="middle" x="2256" y="-564" font-family="Helvetica,sans-Serif" font-size="10.00">BaseFunction &gt;</text>
</a>
</g>
</g>
<!-- Node67&#45;&gt;Node11 -->
<g id="edge79" class="edge">
<title>Node67&#45;&gt;Node11</title>
<path fill="none" stroke="#9a32cd" stroke-dasharray="5,2" d="M2327.15,-571.78C2384.32,-572.25 2467.07,-574.42 2539,-582 2557.42,-583.94 2577.53,-587.24 2594.99,-590.48"/>
<polygon fill="#9a32cd" stroke="#9a32cd" points="2327.16,-568.28 2317.13,-571.71 2327.11,-575.28 2327.16,-568.28"/>
<text text-anchor="middle" x="2458" y="-596" font-family="Helvetica,sans-Serif" font-size="10.00"> userPolynomialBasePtr</text>
<text text-anchor="middle" x="2458" y="-585" font-family="Helvetica,sans-Serif" font-size="10.00">elementPolynomialBasePtr</text>
</g>
<!-- Node68 -->
<g id="node68" class="node">
<title>Node68</title>
<g id="a_node68"><a xlink:href="classUBlasMatrix_3_01double_01_4.html" target="_top" xlink:title=" ">
<polygon fill="white" stroke="black" points="2190,-518.5 2190,-537.5 2322,-537.5 2322,-518.5 2190,-518.5"/>
<text text-anchor="middle" x="2256" y="-525.5" font-family="Helvetica,sans-Serif" font-size="10.00">UBlasMatrix&lt; double &gt;</text>
</a>
</g>
</g>
<!-- Node68&#45;&gt;Node11 -->
<g id="edge80" class="edge">
<title>Node68&#45;&gt;Node11</title>
<path fill="none" stroke="#9a32cd" stroke-dasharray="5,2" d="M2332.23,-524.78C2389.87,-524.29 2470.8,-527.89 2539,-547 2572.82,-556.48 2608.35,-577.97 2627.25,-590.48"/>
<polygon fill="#9a32cd" stroke="#9a32cd" points="2332.06,-521.28 2322.11,-524.91 2332.15,-528.28 2332.06,-521.28"/>
<text text-anchor="middle" x="2458" y="-561" font-family="Helvetica,sans-Serif" font-size="10.00"> coordsAtGaussPts</text>
<text text-anchor="middle" x="2458" y="-550" font-family="Helvetica,sans-Serif" font-size="10.00">gaussPts</text>
</g>
<!-- Node69 -->
<g id="node69" class="node">
<title>Node69</title>
<g id="a_node69"><a xlink:title=" ">
<polygon fill="white" stroke="#bfbfbf" points="2576.5,-924.5 2576.5,-943.5 2707.5,-943.5 2707.5,-924.5 2576.5,-924.5"/>
<text text-anchor="middle" x="2642" y="-931.5" font-family="Helvetica,sans-Serif" font-size="10.00">static const char *const</text>
</a>
</g>
</g>
<!-- Node69&#45;&gt;Node3 -->
<g id="edge81" class="edge">
<title>Node69&#45;&gt;Node3</title>
<path fill="none" stroke="#9a32cd" stroke-dasharray="5,2" d="M2690.67,-922.72C2730.28,-916.41 2785.4,-915.26 2819,-947 2863.64,-989.17 2797.15,-1037.27 2837,-1084 2840.26,-1087.82 2844.07,-1091.07 2848.24,-1093.84"/>
<polygon fill="#9a32cd" stroke="#9a32cd" points="2689.95,-919.29 2680.7,-924.46 2691.16,-926.18 2689.95,-919.29"/>
<text text-anchor="middle" x="2782" y="-950" font-family="Helvetica,sans-Serif" font-size="10.00"> OpTypeNames</text>
</g>
<!-- Node70 -->
<g id="node70" class="node">
<title>Node70</title>
<g id="a_node70"><a xlink:title=" ">
<polygon fill="white" stroke="#bfbfbf" points="3095,-1094 3095,-1124 3250,-1124 3250,-1094 3095,-1094"/>
<text text-anchor="start" x="3103" y="-1112" font-family="Helvetica,sans-Serif" font-size="10.00">ptr_vector&lt; MethodForForce</text>
<text text-anchor="middle" x="3172.5" y="-1101" font-family="Helvetica,sans-Serif" font-size="10.00">Scaling &gt; &amp;</text>
</a>
</g>
</g>
<!-- Node70&#45;&gt;Node1 -->
<g id="edge83" class="edge">
<title>Node70&#45;&gt;Node1</title>
<path fill="none" stroke="#9a32cd" stroke-dasharray="5,2" d="M3259.99,-1114.62C3287.51,-1116.65 3318.06,-1119.15 3346,-1122 3351.81,-1122.59 3357.83,-1123.26 3363.87,-1123.96"/>
<polygon fill="#9a32cd" stroke="#9a32cd" points="3260.23,-1111.13 3250,-1113.9 3259.72,-1118.11 3260.23,-1111.13"/>
<text text-anchor="middle" x="3316" y="-1125" font-family="Helvetica,sans-Serif" font-size="10.00"> methodsOp</text>
</g>
<!-- Node71 -->
<g id="node71" class="node">
<title>Node71</title>
<g id="a_node71"><a xlink:href="structEdgeForce_1_1bCForce.html" target="_top" xlink:title=" ">
<polygon fill="white" stroke="black" points="3116.5,-1055.5 3116.5,-1074.5 3228.5,-1074.5 3228.5,-1055.5 3116.5,-1055.5"/>
<text text-anchor="middle" x="3172.5" y="-1062.5" font-family="Helvetica,sans-Serif" font-size="10.00">EdgeForce::bCForce</text>
</a>
</g>
</g>
<!-- Node71&#45;&gt;Node1 -->
<g id="edge85" class="edge">
<title>Node71&#45;&gt;Node1</title>
<path fill="none" stroke="#9a32cd" stroke-dasharray="5,2" d="M3238.65,-1076.17C3271.18,-1082.36 3310.98,-1090.86 3346,-1101 3367.77,-1107.31 3391.9,-1116.55 3408.96,-1123.49"/>
<polygon fill="#9a32cd" stroke="#9a32cd" points="3239.27,-1072.72 3228.8,-1074.32 3237.98,-1079.6 3239.27,-1072.72"/>
<text text-anchor="middle" x="3316" y="-1104" font-family="Helvetica,sans-Serif" font-size="10.00"> dAta</text>
</g>
<!-- Node72 -->
<g id="node72" class="node">
<title>Node72</title>
<g id="a_node72"><a xlink:title=" ">
<polygon fill="white" stroke="#bfbfbf" points="2870,-1017.5 2870,-1036.5 2974,-1036.5 2974,-1017.5 2870,-1017.5"/>
<text text-anchor="middle" x="2922" y="-1024.5" font-family="Helvetica,sans-Serif" font-size="10.00">ForceCubitBcData</text>
</a>
</g>
</g>
<!-- Node72&#45;&gt;Node71 -->
<g id="edge86" class="edge">
<title>Node72&#45;&gt;Node71</title>
<path fill="none" stroke="#9a32cd" stroke-dasharray="5,2" d="M2984.2,-1036.36C3024.69,-1042.55 3077.34,-1050.6 3116.5,-1056.59"/>
<polygon fill="#9a32cd" stroke="#9a32cd" points="2984.6,-1032.88 2974.19,-1034.83 2983.54,-1039.8 2984.6,-1032.88"/>
<text text-anchor="middle" x="3042" y="-1051" font-family="Helvetica,sans-Serif" font-size="10.00"> data</text>
</g>
<!-- Node73 -->
<g id="node73" class="node">
<title>Node73</title>
<g id="a_node73"><a xlink:href="classRange.html" target="_top" xlink:title=" ">
<polygon fill="white" stroke="black" points="2898.5,-1055.5 2898.5,-1074.5 2945.5,-1074.5 2945.5,-1055.5 2898.5,-1055.5"/>
<text text-anchor="middle" x="2922" y="-1062.5" font-family="Helvetica,sans-Serif" font-size="10.00">Range</text>
</a>
</g>
</g>
<!-- Node73&#45;&gt;Node71 -->
<g id="edge87" class="edge">
<title>Node73&#45;&gt;Node71</title>
<path fill="none" stroke="#9a32cd" stroke-dasharray="5,2" d="M2956.17,-1065C2997.09,-1065 3067.27,-1065 3116.35,-1065"/>
<polygon fill="#9a32cd" stroke="#9a32cd" points="2955.93,-1061.5 2945.93,-1065 2955.93,-1068.5 2955.93,-1061.5"/>
<text text-anchor="middle" x="3042" y="-1068" font-family="Helvetica,sans-Serif" font-size="10.00"> eDges</text>
</g>
<!-- Node74 -->
<g id="node74" class="node">
<title>Node74</title>
<g id="a_node74"><a xlink:title=" ">
<polygon fill="white" stroke="#bfbfbf" points="3131.5,-1017.5 3131.5,-1036.5 3213.5,-1036.5 3213.5,-1017.5 3131.5,-1017.5"/>
<text text-anchor="middle" x="3172.5" y="-1024.5" font-family="Helvetica,sans-Serif" font-size="10.00">VectorDouble</text>
</a>
</g>
</g>
<!-- Node74&#45;&gt;Node1 -->
<g id="edge88" class="edge">
<title>Node74&#45;&gt;Node1</title>
<path fill="none" stroke="#9a32cd" stroke-dasharray="5,2" d="M3223.8,-1030.22C3259.38,-1034.06 3307.42,-1042.5 3346,-1061 3378.54,-1076.61 3408.93,-1107.55 3423.12,-1123.3"/>
<polygon fill="#9a32cd" stroke="#9a32cd" points="3223.94,-1026.72 3213.65,-1029.21 3223.25,-1033.68 3223.94,-1026.72"/>
<text text-anchor="middle" x="3316" y="-1075" font-family="Helvetica,sans-Serif" font-size="10.00"> Nf</text>
<text text-anchor="middle" x="3316" y="-1064" font-family="Helvetica,sans-Serif" font-size="10.00">wEights</text>
</g>
</g>
</svg>
        <g id="navigator" transform="translate(0 0)" fill="#404254">
                <rect fill="#f2f5e9" fill-opacity="0.5" stroke="#606060" stroke-width=".5" x="0" y="0" width="60" height="60"/>
                <use id="zoomplus" xlink:href="#zoomPlus" x="17" y="9" onmousedown="handleZoom(evt,'in')"/>
                <use id="zoomminus" xlink:href="#zoomMin" x="42" y="9" onmousedown="handleZoom(evt,'out')"/>
                <use id="reset" xlink:href="#resetDef" x="30" y="36" onmousedown="handleReset()"/>
                <g id="arrowUp" xlink:href="#dirArrow" transform="translate(30 24)" onmousedown="handlePan(0,-1)">
                  <use xlink:href="#rim" fill="#404040">
                        <set attributeName="fill" to="#808080" begin="arrowUp.mouseover" end="arrowUp.mouseout"/>
                  </use>
                  <path fill="none" stroke="white" stroke-width="1.5" d="M0,-3.0v7 M-2.5,-0.5L0,-3.0L2.5,-0.5"/>
                </g>
                <g id="arrowRight" xlink:href="#dirArrow" transform="rotate(90) translate(36 -43)" onmousedown="handlePan(1,0)">
                  <use xlink:href="#rim" fill="#404040">
                        <set attributeName="fill" to="#808080" begin="arrowRight.mouseover" end="arrowRight.mouseout"/>
                  </use>
                  <path fill="none" stroke="white" stroke-width="1.5" d="M0,-3.0v7 M-2.5,-0.5L0,-3.0L2.5,-0.5"/>
                </g>
                <g id="arrowDown" xlink:href="#dirArrow" transform="rotate(180) translate(-30 -48)" onmousedown="handlePan(0,1)">
                  <use xlink:href="#rim" fill="#404040">
                        <set attributeName="fill" to="#808080" begin="arrowDown.mouseover" end="arrowDown.mouseout"/>
                  </use>
                  <path fill="none" stroke="white" stroke-width="1.5" d="M0,-3.0v7 M-2.5,-0.5L0,-3.0L2.5,-0.5"/>
                </g>
                <g id="arrowLeft" xlink:href="#dirArrow" transform="rotate(270) translate(-36 17)" onmousedown="handlePan(-1,0)">
                  <use xlink:href="#rim" fill="#404040">
                        <set attributeName="fill" to="#808080" begin="arrowLeft.mouseover" end="arrowLeft.mouseout"/>
                  </use>
                  <path fill="none" stroke="white" stroke-width="1.5" d="M0,-3.0v7 M-2.5,-0.5L0,-3.0L2.5,-0.5"/>
                </g>
        </g>
        <svg viewBox="0 0 15 15" width="100%" height="30px" preserveAspectRatio="xMaxYMin meet">
         <g id="arrow_out" transform="scale(0.3 0.3)">
          <a xlink:href="structEdgeForce_1_1OpEdgeForce__coll__graph_org.svg" target="_base">
           <rect id="button" ry="5" rx="5" y="6" x="6" height="38" width="38"
                fill="#f2f5e9" fill-opacity="0.5" stroke="#606060" stroke-width="1.0"/>
           <path id="arrow"
             d="M 11.500037,31.436501 C 11.940474,20.09759 22.043105,11.32322 32.158766,21.979434 L 37.068811,17.246167 C 37.068811,17.246167 37.088388,32 37.088388,32 L 22.160133,31.978069 C 22.160133,31.978069 26.997745,27.140456 26.997745,27.140456 C 18.528582,18.264221 13.291696,25.230495 11.500037,31.436501 z"
             style="fill:#404040;"/>
          </a>
         </g>
        </svg>
</svg>
