<?xml version="1.0" encoding="UTF-8" standalone="no"?>
<!DOCTYPE svg PUBLIC "-//W3C//DTD SVG 1.1//EN"
 "http://www.w3.org/Graphics/SVG/1.1/DTD/svg11.dtd">
<!-- Generated by graphviz version 2.43.0 (0)
 -->
<!-- Title: HenckyOps::OpHenckyTangentImpl&lt; DIM, GAUSS, DomainEleOp, S &gt; Pages: 1 -->
<svg width="213pt" height="95pt"
 viewBox="0.00 0.00 213.00 95.00" xmlns="http://www.w3.org/2000/svg" xmlns:xlink="http://www.w3.org/1999/xlink">
<g id="graph0" class="graph" transform="scale(1 1) rotate(0) translate(4 91)">
<title>HenckyOps::OpHenckyTangentImpl&lt; DIM, GAUSS, DomainEleOp, S &gt;</title>
<polygon fill="white" stroke="transparent" points="-4,4 -4,-91 209,-91 209,4 -4,4"/>
<!-- Node1 -->
<g id="node1" class="node">
<title>Node1</title>
<g id="a_node1"><a xlink:title=" ">
<polygon fill="#bfbfbf" stroke="black" points="0,-0.5 0,-30.5 205,-30.5 205,-0.5 0,-0.5"/>
<text text-anchor="start" x="8" y="-18.5" font-family="Helvetica,sans-Serif" font-size="10.00">HenckyOps::OpHenckyTangent</text>
<text text-anchor="middle" x="102.5" y="-7.5" font-family="Helvetica,sans-Serif" font-size="10.00">Impl&lt; DIM, GAUSS, DomainEleOp, S &gt;</text>
</a>
</g>
</g>
<!-- Node2 -->
<g id="node2" class="node">
<title>Node2</title>
<g id="a_node2"><a xlink:href="classDomainEleOp.html" target="_top" xlink:title=" ">
<polygon fill="white" stroke="black" points="61,-67.5 61,-86.5 144,-86.5 144,-67.5 61,-67.5"/>
<text text-anchor="middle" x="102.5" y="-74.5" font-family="Helvetica,sans-Serif" font-size="10.00">DomainEleOp</text>
</a>
</g>
</g>
<!-- Node2&#45;&gt;Node1 -->
<g id="edge1" class="edge">
<title>Node2&#45;&gt;Node1</title>
<path fill="none" stroke="midnightblue" d="M102.5,-57.23C102.5,-48.59 102.5,-38.5 102.5,-30.52"/>
<polygon fill="midnightblue" stroke="midnightblue" points="99,-57.48 102.5,-67.48 106,-57.48 99,-57.48"/>
</g>
</g>
</svg>
