<?xml version="1.0" encoding="UTF-8" standalone="no"?>
<!DOCTYPE svg PUBLIC "-//W3C//DTD SVG 1.1//EN"
 "http://www.w3.org/Graphics/SVG/1.1/DTD/svg11.dtd">
<!-- Generated by graphviz version 2.43.0 (0)
 -->
<!-- Title: ConvectiveMassElement Pages: 1 -->
<!--zoomable 598 -->
<svg id="main" version="1.1" xmlns="http://www.w3.org/2000/svg" xmlns:xlink="http://www.w3.org/1999/xlink" xml:space="preserve" onload="init(evt)">
<style type="text/css"><![CDATA[
.edge:hover path { stroke: red; }
.edge:hover polygon { stroke: red; fill: red; }
]]></style>
<script type="text/javascript"><![CDATA[
var edges = document.getElementsByTagName('g');
if (edges && edges.length) {
  for (var i=0;i<edges.length;i++) {
    if (edges[i].id.substr(0,4)=='edge') {
      edges[i].setAttribute('class','edge');
    }
  }
}
]]></script>
        <defs>
                <circle id="rim" cx="0" cy="0" r="7"/>
                <circle id="rim2" cx="0" cy="0" r="3.5"/>
                <g id="zoomPlus">
                        <use xlink:href="#rim" fill="#404040">
                                <set attributeName="fill" to="#808080" begin="zoomplus.mouseover" end="zoomplus.mouseout"/>
                        </use>
                        <path d="M-4,0h8M0,-4v8" fill="none" stroke="white" stroke-width="1.5" pointer-events="none"/>
                </g>
                <g id="zoomMin">
                        <use xlink:href="#rim" fill="#404040">
                                <set attributeName="fill" to="#808080" begin="zoomminus.mouseover" end="zoomminus.mouseout"/>
                        </use>
                        <path d="M-4,0h8" fill="none" stroke="white" stroke-width="1.5" pointer-events="none"/>
                </g>
                <g id="dirArrow">
                        <path fill="none" stroke="white" stroke-width="1.5" d="M0,-3.0v7 M-2.5,-0.5L0,-3.0L2.5,-0.5"/>
                </g>
               <g id="resetDef">
                       <use xlink:href="#rim2" fill="#404040">
                               <set attributeName="fill" to="#808080" begin="reset.mouseover" end="reset.mouseout"/>
                       </use>
               </g>
        </defs>

<script type="text/javascript">
var viewWidth = 1717;
var viewHeight = 598;
var sectionId = 'dynsection-0';
</script>
<script xlink:href="svgpan.js"/>
<svg id="graph" class="graph">
<g id="viewport">
<title>ConvectiveMassElement</title>
<polygon fill="white" stroke="transparent" points="-4,4 -4,-594 1713,-594 1713,4 -4,4"/>
<!-- Node1 -->
<g id="node1" class="node">
<title>Node1</title>
<g id="a_node1"><a xlink:title="structure grouping operators and data used for calculation of mass (convective) element">
<polygon fill="#bfbfbf" stroke="black" points="1572,-266.5 1572,-285.5 1709,-285.5 1709,-266.5 1572,-266.5"/>
<text text-anchor="middle" x="1640.5" y="-273.5" font-family="Helvetica,sans-Serif" font-size="10.00">ConvectiveMassElement</text>
</a>
</g>
</g>
<!-- Node2 -->
<g id="node2" class="node">
<title>Node2</title>
<g id="a_node2"><a xlink:href="structMoFEM_1_1DeprecatedCoreInterface.html" target="_top" xlink:title="Deprecated interface functions.">
<polygon fill="white" stroke="black" points="1284,-456.5 1284,-475.5 1465,-475.5 1465,-456.5 1284,-456.5"/>
<text text-anchor="middle" x="1374.5" y="-463.5" font-family="Helvetica,sans-Serif" font-size="10.00">MoFEM::DeprecatedCoreInterface</text>
</a>
</g>
</g>
<!-- Node2&#45;&gt;Node1 -->
<g id="edge1" class="edge">
<title>Node2&#45;&gt;Node1</title>
<path fill="none" stroke="#9a32cd" stroke-dasharray="5,2" d="M1397.26,-450.34C1449.97,-412.4 1583.3,-316.45 1626.07,-285.66"/>
<polygon fill="#9a32cd" stroke="#9a32cd" points="1395.03,-447.63 1388.95,-456.32 1399.12,-453.32 1395.03,-447.63"/>
<text text-anchor="middle" x="1518.5" y="-391" font-family="Helvetica,sans-Serif" font-size="10.00"> mField</text>
</g>
<!-- Node3 -->
<g id="node3" class="node">
<title>Node3</title>
<g id="a_node3"><a xlink:href="structMoFEM_1_1CoreInterface.html" target="_top" xlink:title="Interface.">
<polygon fill="white" stroke="black" points="1002,-536.5 1002,-555.5 1127,-555.5 1127,-536.5 1002,-536.5"/>
<text text-anchor="middle" x="1064.5" y="-543.5" font-family="Helvetica,sans-Serif" font-size="10.00">MoFEM::CoreInterface</text>
</a>
</g>
</g>
<!-- Node3&#45;&gt;Node2 -->
<g id="edge2" class="edge">
<title>Node3&#45;&gt;Node2</title>
<path fill="none" stroke="midnightblue" d="M1137.22,-549.21C1176.17,-548.93 1224.67,-545.25 1266,-532 1304.58,-519.63 1343.54,-490.67 1362.18,-475.56"/>
<polygon fill="midnightblue" stroke="midnightblue" points="1137.02,-545.71 1127.02,-549.21 1137.02,-552.71 1137.02,-545.71"/>
</g>
<!-- Node4 -->
<g id="node4" class="node">
<title>Node4</title>
<g id="a_node4"><a xlink:href="structMoFEM_1_1UnknownInterface.html" target="_top" xlink:title="base class for all interface classes">
<polygon fill="white" stroke="black" points="735,-536.5 735,-555.5 883,-555.5 883,-536.5 735,-536.5"/>
<text text-anchor="middle" x="809" y="-543.5" font-family="Helvetica,sans-Serif" font-size="10.00">MoFEM::UnknownInterface</text>
</a>
</g>
</g>
<!-- Node4&#45;&gt;Node3 -->
<g id="edge3" class="edge">
<title>Node4&#45;&gt;Node3</title>
<path fill="none" stroke="midnightblue" d="M893.63,-546C928.96,-546 969.37,-546 1001.9,-546"/>
<polygon fill="midnightblue" stroke="midnightblue" points="893.32,-542.5 883.32,-546 893.32,-549.5 893.32,-542.5"/>
</g>
<!-- Node5 -->
<g id="node5" class="node">
<title>Node5</title>
<g id="a_node5"><a xlink:title=" ">
<polygon fill="white" stroke="#bfbfbf" points="386,-514.5 386,-577.5 627,-577.5 627,-514.5 386,-514.5"/>
<text text-anchor="start" x="394" y="-565.5" font-family="Helvetica,sans-Serif" font-size="10.00">multi_index_container</text>
<text text-anchor="start" x="394" y="-554.5" font-family="Helvetica,sans-Serif" font-size="10.00">&lt; UIdTypeMap, indexed</text>
<text text-anchor="start" x="394" y="-543.5" font-family="Helvetica,sans-Serif" font-size="10.00">_by&lt; hashed_unique&lt; member</text>
<text text-anchor="start" x="394" y="-532.5" font-family="Helvetica,sans-Serif" font-size="10.00">&lt; UIdTypeMap, boost::typeindex</text>
<text text-anchor="middle" x="506.5" y="-521.5" font-family="Helvetica,sans-Serif" font-size="10.00">::type_index, &amp;UIdTypeMap::classIdx &gt; &gt; &gt; &gt;</text>
</a>
</g>
</g>
<!-- Node5&#45;&gt;Node4 -->
<g id="edge4" class="edge">
<title>Node5&#45;&gt;Node4</title>
<path fill="none" stroke="#9a32cd" stroke-dasharray="5,2" d="M637.41,-546C670.69,-546 705.33,-546 734.62,-546"/>
<polygon fill="#9a32cd" stroke="#9a32cd" points="637.13,-542.5 627.13,-546 637.13,-549.5 637.13,-542.5"/>
<text text-anchor="middle" x="681" y="-549" font-family="Helvetica,sans-Serif" font-size="10.00"> iFaceTypeMap</text>
</g>
<!-- Node6 -->
<g id="node6" class="node">
<title>Node6</title>
<g id="a_node6"><a xlink:title=" ">
<polygon fill="white" stroke="#bfbfbf" points="0,-536.5 0,-555.5 125,-555.5 125,-536.5 0,-536.5"/>
<text text-anchor="middle" x="62.5" y="-543.5" font-family="Helvetica,sans-Serif" font-size="10.00">multi_index_container</text>
</a>
</g>
</g>
<!-- Node6&#45;&gt;Node5 -->
<g id="edge5" class="edge">
<title>Node6&#45;&gt;Node5</title>
<path fill="none" stroke="orange" stroke-dasharray="5,2" d="M135.56,-546C203.25,-546 305.79,-546 385.77,-546"/>
<polygon fill="orange" stroke="orange" points="135.42,-542.5 125.42,-546 135.42,-549.5 135.42,-542.5"/>
<text text-anchor="start" x="143" y="-582" font-family="Helvetica,sans-Serif" font-size="10.00"> &lt; UIdTypeMap, indexed</text>
<text text-anchor="start" x="143" y="-571" font-family="Helvetica,sans-Serif" font-size="10.00">_by&lt; hashed_unique&lt; member</text>
<text text-anchor="start" x="143" y="-560" font-family="Helvetica,sans-Serif" font-size="10.00">&lt; UIdTypeMap, boost::typeindex</text>
<text text-anchor="middle" x="255.5" y="-549" font-family="Helvetica,sans-Serif" font-size="10.00">::type_index, &amp;UIdTypeMap::classIdx &gt; &gt; &gt; &gt;</text>
</g>
<!-- Node7 -->
<g id="node7" class="node">
<title>Node7</title>
<g id="a_node7"><a xlink:href="structConvectiveMassElement_1_1CommonData.html" target="_top" xlink:title="common data used by volume elements">
<polygon fill="white" stroke="black" points="1306,-332 1306,-362 1443,-362 1443,-332 1306,-332"/>
<text text-anchor="start" x="1314" y="-350" font-family="Helvetica,sans-Serif" font-size="10.00">ConvectiveMassElement</text>
<text text-anchor="middle" x="1374.5" y="-339" font-family="Helvetica,sans-Serif" font-size="10.00">::CommonData</text>
</a>
</g>
</g>
<!-- Node7&#45;&gt;Node1 -->
<g id="edge6" class="edge">
<title>Node7&#45;&gt;Node1</title>
<path fill="none" stroke="#9a32cd" stroke-dasharray="5,2" d="M1450.77,-329.58C1482.72,-321.89 1520.3,-312.46 1554,-303 1573.03,-297.65 1594.22,-290.97 1610.75,-285.59"/>
<polygon fill="#9a32cd" stroke="#9a32cd" points="1449.95,-326.18 1441.04,-331.91 1451.58,-332.98 1449.95,-326.18"/>
<text text-anchor="middle" x="1518.5" y="-324" font-family="Helvetica,sans-Serif" font-size="10.00"> commonData</text>
</g>
<!-- Node8 -->
<g id="node8" class="node">
<title>Node8</title>
<g id="a_node8"><a xlink:title=" ">
<polygon fill="white" stroke="#bfbfbf" points="1009.5,-487 1009.5,-517 1119.5,-517 1119.5,-487 1009.5,-487"/>
<text text-anchor="start" x="1017.5" y="-505" font-family="Helvetica,sans-Serif" font-size="10.00">vector&lt; std::vector</text>
<text text-anchor="middle" x="1064.5" y="-494" font-family="Helvetica,sans-Serif" font-size="10.00">&lt; double * &gt; &gt;</text>
</a>
</g>
</g>
<!-- Node8&#45;&gt;Node7 -->
<g id="edge7" class="edge">
<title>Node8&#45;&gt;Node7</title>
<path fill="none" stroke="#9a32cd" stroke-dasharray="5,2" d="M1129.89,-500.1C1171.05,-496.48 1224.33,-487.17 1266,-464 1271.94,-460.7 1332.4,-393.19 1359.95,-362.25"/>
<polygon fill="#9a32cd" stroke="#9a32cd" points="1129.4,-496.63 1119.7,-500.91 1129.95,-503.61 1129.4,-496.63"/>
<text text-anchor="middle" x="1225.5" y="-516" font-family="Helvetica,sans-Serif" font-size="10.00"> jacVelRowPtr</text>
<text text-anchor="middle" x="1225.5" y="-505" font-family="Helvetica,sans-Serif" font-size="10.00">jacMassRowPtr</text>
<text text-anchor="middle" x="1225.5" y="-494" font-family="Helvetica,sans-Serif" font-size="10.00">jacTRowPtr</text>
</g>
<!-- Node9 -->
<g id="node9" class="node">
<title>Node9</title>
<g id="a_node9"><a xlink:title=" ">
<polygon fill="white" stroke="#bfbfbf" points="988.5,-438 988.5,-468 1140.5,-468 1140.5,-438 988.5,-438"/>
<text text-anchor="start" x="996.5" y="-456" font-family="Helvetica,sans-Serif" font-size="10.00">map&lt; std::string, std</text>
<text text-anchor="middle" x="1064.5" y="-445" font-family="Helvetica,sans-Serif" font-size="10.00">::vector&lt; VectorDouble &gt; &gt;</text>
</a>
</g>
</g>
<!-- Node9&#45;&gt;Node7 -->
<g id="edge8" class="edge">
<title>Node9&#45;&gt;Node7</title>
<path fill="none" stroke="#9a32cd" stroke-dasharray="5,2" d="M1150.87,-453.31C1187.44,-450.91 1229.95,-444.64 1266,-430 1304.23,-414.47 1340.43,-381.39 1359.51,-362.01"/>
<polygon fill="#9a32cd" stroke="#9a32cd" points="1150.5,-449.83 1140.72,-453.89 1150.9,-456.82 1150.5,-449.83"/>
<text text-anchor="middle" x="1225.5" y="-452" font-family="Helvetica,sans-Serif" font-size="10.00"> dataAtGaussPts</text>
</g>
<!-- Node10 -->
<g id="node10" class="node">
<title>Node10</title>
<g id="a_node10"><a xlink:title=" ">
<polygon fill="white" stroke="#bfbfbf" points="996.5,-393.5 996.5,-412.5 1132.5,-412.5 1132.5,-393.5 996.5,-393.5"/>
<text text-anchor="middle" x="1064.5" y="-400.5" font-family="Helvetica,sans-Serif" font-size="10.00">vector&lt; MatrixDouble &gt;</text>
</a>
</g>
</g>
<!-- Node10&#45;&gt;Node7 -->
<g id="edge9" class="edge">
<title>Node10&#45;&gt;Node7</title>
<path fill="none" stroke="#9a32cd" stroke-dasharray="5,2" d="M1143.18,-398.06C1180.59,-394.77 1225.91,-389.45 1266,-381 1288.41,-376.27 1312.79,-368.77 1332.66,-362.01"/>
<polygon fill="#9a32cd" stroke="#9a32cd" points="1142.53,-394.6 1132.86,-398.94 1143.12,-401.58 1142.53,-394.6"/>
<text text-anchor="middle" x="1225.5" y="-418" font-family="Helvetica,sans-Serif" font-size="10.00"> jacVel</text>
<text text-anchor="middle" x="1225.5" y="-407" font-family="Helvetica,sans-Serif" font-size="10.00">jacT</text>
<text text-anchor="middle" x="1225.5" y="-396" font-family="Helvetica,sans-Serif" font-size="10.00">jacMass</text>
</g>
<!-- Node11 -->
<g id="node11" class="node">
<title>Node11</title>
<g id="a_node11"><a xlink:title=" ">
<polygon fill="white" stroke="#bfbfbf" points="1042.5,-347.5 1042.5,-366.5 1086.5,-366.5 1086.5,-347.5 1042.5,-347.5"/>
<text text-anchor="middle" x="1064.5" y="-354.5" font-family="Helvetica,sans-Serif" font-size="10.00">string</text>
</a>
</g>
</g>
<!-- Node11&#45;&gt;Node7 -->
<g id="edge10" class="edge">
<title>Node11&#45;&gt;Node7</title>
<path fill="none" stroke="#9a32cd" stroke-dasharray="5,2" d="M1096.61,-354.06C1120.71,-351.92 1154.94,-349.21 1185,-348 1225.06,-346.39 1269.94,-346.09 1305.86,-346.22"/>
<polygon fill="#9a32cd" stroke="#9a32cd" points="1096.27,-350.57 1086.63,-354.96 1096.9,-357.55 1096.27,-350.57"/>
<text text-anchor="middle" x="1225.5" y="-373" font-family="Helvetica,sans-Serif" font-size="10.00"> meshPositions</text>
<text text-anchor="middle" x="1225.5" y="-362" font-family="Helvetica,sans-Serif" font-size="10.00">spatialVelocities</text>
<text text-anchor="middle" x="1225.5" y="-351" font-family="Helvetica,sans-Serif" font-size="10.00">spatialPositions</text>
</g>
<!-- Node12 -->
<g id="node12" class="node">
<title>Node12</title>
<g id="a_node12"><a xlink:title=" ">
<polygon fill="white" stroke="#bfbfbf" points="988,-298 988,-328 1141,-328 1141,-298 988,-298"/>
<text text-anchor="start" x="996" y="-316" font-family="Helvetica,sans-Serif" font-size="10.00">map&lt; std::string, std</text>
<text text-anchor="middle" x="1064.5" y="-305" font-family="Helvetica,sans-Serif" font-size="10.00">::vector&lt; MatrixDouble &gt; &gt;</text>
</a>
</g>
</g>
<!-- Node12&#45;&gt;Node7 -->
<g id="edge11" class="edge">
<title>Node12&#45;&gt;Node7</title>
<path fill="none" stroke="#9a32cd" stroke-dasharray="5,2" d="M1151.62,-319.62C1187.09,-322.64 1228.57,-326.54 1266,-331 1278.93,-332.54 1292.7,-334.41 1305.91,-336.33"/>
<polygon fill="#9a32cd" stroke="#9a32cd" points="1151.56,-316.11 1141.3,-318.76 1150.97,-323.08 1151.56,-316.11"/>
<text text-anchor="middle" x="1225.5" y="-334" font-family="Helvetica,sans-Serif" font-size="10.00"> gradAtGaussPts</text>
</g>
<!-- Node13 -->
<g id="node13" class="node">
<title>Node13</title>
<g id="a_node13"><a xlink:href="classbool.html" target="_top" xlink:title=" ">
<polygon fill="white" stroke="black" points="1045.5,-258.5 1045.5,-277.5 1083.5,-277.5 1083.5,-258.5 1045.5,-258.5"/>
<text text-anchor="middle" x="1064.5" y="-265.5" font-family="Helvetica,sans-Serif" font-size="10.00">bool</text>
</a>
</g>
</g>
<!-- Node13&#45;&gt;Node7 -->
<g id="edge12" class="edge">
<title>Node13&#45;&gt;Node7</title>
<path fill="none" stroke="#9a32cd" stroke-dasharray="5,2" d="M1093.91,-265.04C1135.13,-262.18 1212.45,-262.37 1266,-296 1278.21,-303.67 1272.28,-314.59 1284,-323 1290.54,-327.69 1297.93,-331.46 1305.6,-334.5"/>
<polygon fill="#9a32cd" stroke="#9a32cd" points="1093.45,-261.56 1083.76,-265.86 1094.01,-268.54 1093.45,-261.56"/>
<text text-anchor="middle" x="1225.5" y="-310" font-family="Helvetica,sans-Serif" font-size="10.00"> lInear</text>
<text text-anchor="middle" x="1225.5" y="-299" font-family="Helvetica,sans-Serif" font-size="10.00">staticOnly</text>
</g>
<!-- Node14 -->
<g id="node14" class="node">
<title>Node14</title>
<g id="a_node14"><a xlink:title=" ">
<polygon fill="white" stroke="#bfbfbf" points="997,-202.5 997,-221.5 1132,-221.5 1132,-202.5 997,-202.5"/>
<text text-anchor="middle" x="1064.5" y="-209.5" font-family="Helvetica,sans-Serif" font-size="10.00">vector&lt; VectorDouble &gt;</text>
</a>
</g>
</g>
<!-- Node14&#45;&gt;Node7 -->
<g id="edge13" class="edge">
<title>Node14&#45;&gt;Node7</title>
<path fill="none" stroke="#9a32cd" stroke-dasharray="5,2" d="M1119.49,-201.05C1164.35,-195.31 1226.93,-195.61 1266,-231 1296.88,-258.97 1255.57,-292.54 1284,-323 1290.04,-329.47 1297.61,-334.26 1305.78,-337.81"/>
<polygon fill="#9a32cd" stroke="#9a32cd" points="1118.76,-197.62 1109.35,-202.49 1119.74,-204.55 1118.76,-197.62"/>
<text text-anchor="middle" x="1225.5" y="-256" font-family="Helvetica,sans-Serif" font-size="10.00"> valMass</text>
<text text-anchor="middle" x="1225.5" y="-245" font-family="Helvetica,sans-Serif" font-size="10.00">valT</text>
<text text-anchor="middle" x="1225.5" y="-234" font-family="Helvetica,sans-Serif" font-size="10.00">valVel</text>
</g>
<!-- Node15 -->
<g id="node15" class="node">
<title>Node15</title>
<g id="a_node15"><a xlink:title=" ">
<polygon fill="white" stroke="#bfbfbf" points="1297,-283 1297,-313 1452,-313 1452,-283 1297,-283"/>
<text text-anchor="start" x="1305" y="-301" font-family="Helvetica,sans-Serif" font-size="10.00">ptr_vector&lt; MethodForForce</text>
<text text-anchor="middle" x="1374.5" y="-290" font-family="Helvetica,sans-Serif" font-size="10.00">Scaling &gt;</text>
</a>
</g>
</g>
<!-- Node15&#45;&gt;Node1 -->
<g id="edge14" class="edge">
<title>Node15&#45;&gt;Node1</title>
<path fill="none" stroke="#9a32cd" stroke-dasharray="5,2" d="M1462.56,-290.75C1498.01,-287.79 1538.37,-284.43 1571.58,-281.66"/>
<polygon fill="#9a32cd" stroke="#9a32cd" points="1461.89,-287.29 1452.21,-291.61 1462.47,-294.26 1461.89,-287.29"/>
<text text-anchor="middle" x="1518.5" y="-291" font-family="Helvetica,sans-Serif" font-size="10.00"> methodsOp</text>
</g>
<!-- Node16 -->
<g id="node16" class="node">
<title>Node16</title>
<g id="a_node16"><a xlink:title=" ">
<polygon fill="white" stroke="#bfbfbf" points="1360,-244.5 1360,-263.5 1389,-263.5 1389,-244.5 1360,-244.5"/>
<text text-anchor="middle" x="1374.5" y="-251.5" font-family="Helvetica,sans-Serif" font-size="10.00">int</text>
</a>
</g>
</g>
<!-- Node16&#45;&gt;Node1 -->
<g id="edge15" class="edge">
<title>Node16&#45;&gt;Node1</title>
<path fill="none" stroke="#9a32cd" stroke-dasharray="5,2" d="M1399.38,-255.76C1433.63,-258.31 1498.67,-263.24 1554,-268 1559.79,-268.5 1565.81,-269.03 1571.84,-269.57"/>
<polygon fill="#9a32cd" stroke="#9a32cd" points="1399.62,-252.27 1389.39,-255.02 1399.11,-259.25 1399.62,-252.27"/>
<text text-anchor="middle" x="1518.5" y="-271" font-family="Helvetica,sans-Serif" font-size="10.00"> tAg</text>
</g>
<!-- Node17 -->
<g id="node17" class="node">
<title>Node17</title>
<g id="a_node17"><a xlink:title=" ">
<polygon fill="white" stroke="#bfbfbf" points="1300,-195 1300,-225 1449,-225 1449,-195 1300,-195"/>
<text text-anchor="start" x="1308" y="-213" font-family="Helvetica,sans-Serif" font-size="10.00">map&lt; int, ConvectiveMass</text>
<text text-anchor="middle" x="1374.5" y="-202" font-family="Helvetica,sans-Serif" font-size="10.00">Element::BlockData &gt;</text>
</a>
</g>
</g>
<!-- Node17&#45;&gt;Node1 -->
<g id="edge16" class="edge">
<title>Node17&#45;&gt;Node1</title>
<path fill="none" stroke="#9a32cd" stroke-dasharray="5,2" d="M1459.39,-225.18C1489.43,-231.2 1523.41,-238.68 1554,-247 1574.42,-252.56 1597.08,-260.32 1613.94,-266.41"/>
<polygon fill="#9a32cd" stroke="#9a32cd" points="1459.86,-221.71 1449.37,-223.2 1458.5,-228.58 1459.86,-221.71"/>
<text text-anchor="middle" x="1518.5" y="-250" font-family="Helvetica,sans-Serif" font-size="10.00"> setOfBlocks</text>
</g>
<!-- Node18 -->
<g id="node18" class="node">
<title>Node18</title>
<g id="a_node18"><a xlink:href="structConvectiveMassElement_1_1MyVolumeFE.html" target="_top" xlink:title="definition of volume element">
<polygon fill="white" stroke="black" points="1306,-74 1306,-104 1443,-104 1443,-74 1306,-74"/>
<text text-anchor="start" x="1314" y="-92" font-family="Helvetica,sans-Serif" font-size="10.00">ConvectiveMassElement</text>
<text text-anchor="middle" x="1374.5" y="-81" font-family="Helvetica,sans-Serif" font-size="10.00">::MyVolumeFE</text>
</a>
</g>
</g>
<!-- Node18&#45;&gt;Node1 -->
<g id="edge17" class="edge">
<title>Node18&#45;&gt;Node1</title>
<path fill="none" stroke="#9a32cd" stroke-dasharray="5,2" d="M1453.3,-97.46C1486.85,-104.2 1524.96,-116.29 1554,-138 1600.5,-172.77 1627.53,-240.94 1636.31,-266.24"/>
<polygon fill="#9a32cd" stroke="#9a32cd" points="1453.52,-93.94 1443.05,-95.54 1452.23,-100.82 1453.52,-93.94"/>
<text text-anchor="middle" x="1518.5" y="-218" font-family="Helvetica,sans-Serif" font-size="10.00"> feTLhs</text>
<text text-anchor="middle" x="1518.5" y="-207" font-family="Helvetica,sans-Serif" font-size="10.00">feVelRhs</text>
<text text-anchor="middle" x="1518.5" y="-196" font-family="Helvetica,sans-Serif" font-size="10.00">feTRhs</text>
<text text-anchor="middle" x="1518.5" y="-185" font-family="Helvetica,sans-Serif" font-size="10.00">feEnergy</text>
<text text-anchor="middle" x="1518.5" y="-174" font-family="Helvetica,sans-Serif" font-size="10.00">feMassRhs</text>
<text text-anchor="middle" x="1518.5" y="-163" font-family="Helvetica,sans-Serif" font-size="10.00">feMassAuxLhs</text>
<text text-anchor="middle" x="1518.5" y="-152" font-family="Helvetica,sans-Serif" font-size="10.00">feVelLhs</text>
<text text-anchor="middle" x="1518.5" y="-141" font-family="Helvetica,sans-Serif" font-size="10.00">feMassLhs</text>
</g>
<!-- Node19 -->
<g id="node19" class="node">
<title>Node19</title>
<g id="a_node19"><a xlink:title=" ">
<polygon fill="white" stroke="#bfbfbf" points="962,-164.5 962,-183.5 1167,-183.5 1167,-164.5 962,-164.5"/>
<text text-anchor="middle" x="1064.5" y="-171.5" font-family="Helvetica,sans-Serif" font-size="10.00">VolumeElementForcesAndSourcesCore</text>
</a>
</g>
</g>
<!-- Node19&#45;&gt;Node18 -->
<g id="edge18" class="edge">
<title>Node19&#45;&gt;Node18</title>
<path fill="none" stroke="midnightblue" d="M1130.52,-162.55C1142.67,-160.2 1155.25,-157.64 1167,-155 1211.39,-145.03 1222.63,-142.73 1266,-129 1289.35,-121.61 1315.08,-112.09 1335.51,-104.19"/>
<polygon fill="midnightblue" stroke="midnightblue" points="1129.6,-159.16 1120.43,-164.46 1130.91,-166.03 1129.6,-159.16"/>
</g>
<!-- Node20 -->
<g id="node20" class="node">
<title>Node20</title>
<g id="a_node20"><a xlink:href="structMoFEM_1_1SmartPetscObj.html" target="_top" xlink:title=" ">
<polygon fill="white" stroke="black" points="999,-115 999,-145 1130,-145 1130,-115 999,-115"/>
<text text-anchor="start" x="1007" y="-133" font-family="Helvetica,sans-Serif" font-size="10.00">MoFEM::SmartPetscObj</text>
<text text-anchor="middle" x="1064.5" y="-122" font-family="Helvetica,sans-Serif" font-size="10.00">&lt; Vec &gt;</text>
</a>
</g>
</g>
<!-- Node20&#45;&gt;Node18 -->
<g id="edge19" class="edge">
<title>Node20&#45;&gt;Node18</title>
<path fill="none" stroke="#9a32cd" stroke-dasharray="5,2" d="M1140.27,-120.05C1190.77,-113.32 1256.88,-104.52 1305.82,-98.01"/>
<polygon fill="#9a32cd" stroke="#9a32cd" points="1139.52,-116.62 1130.07,-121.41 1140.44,-123.55 1139.52,-116.62"/>
<text text-anchor="middle" x="1225.5" y="-117" font-family="Helvetica,sans-Serif" font-size="10.00"> V</text>
</g>
<!-- Node21 -->
<g id="node21" class="node">
<title>Node21</title>
<g id="a_node21"><a xlink:title=" ">
<polygon fill="white" stroke="#bfbfbf" points="746,-129.5 746,-170.5 872,-170.5 872,-129.5 746,-129.5"/>
<text text-anchor="start" x="754" y="-158.5" font-family="Helvetica,sans-Serif" font-size="10.00">boost::intrusive_ptr</text>
<text text-anchor="start" x="754" y="-147.5" font-family="Helvetica,sans-Serif" font-size="10.00">&lt; std::remove_pointer</text>
<text text-anchor="middle" x="809" y="-136.5" font-family="Helvetica,sans-Serif" font-size="10.00">&lt; Vec &gt;::type &gt;</text>
</a>
</g>
</g>
<!-- Node21&#45;&gt;Node20 -->
<g id="edge20" class="edge">
<title>Node21&#45;&gt;Node20</title>
<path fill="none" stroke="midnightblue" d="M882.14,-144.31C918.8,-141.42 963,-137.93 998.59,-135.12"/>
<polygon fill="midnightblue" stroke="midnightblue" points="881.71,-140.83 872.01,-145.11 882.26,-147.81 881.71,-140.83"/>
</g>
<!-- Node22 -->
<g id="node22" class="node">
<title>Node22</title>
<g id="a_node22"><a xlink:href="structMoFEM_1_1SmartPetscObj.html" target="_top" xlink:title="intrusive_ptr for managing petsc objects">
<polygon fill="white" stroke="black" points="743.5,-80 743.5,-110 874.5,-110 874.5,-80 743.5,-80"/>
<text text-anchor="start" x="751.5" y="-98" font-family="Helvetica,sans-Serif" font-size="10.00">MoFEM::SmartPetscObj</text>
<text text-anchor="middle" x="809" y="-87" font-family="Helvetica,sans-Serif" font-size="10.00">&lt; OBJ &gt;</text>
</a>
</g>
</g>
<!-- Node22&#45;&gt;Node20 -->
<g id="edge21" class="edge">
<title>Node22&#45;&gt;Node20</title>
<path fill="none" stroke="orange" stroke-dasharray="5,2" d="M884.67,-105.31C920.96,-110.32 964.15,-116.28 998.99,-121.09"/>
<polygon fill="orange" stroke="orange" points="885.01,-101.82 874.62,-103.92 884.05,-108.76 885.01,-101.82"/>
<text text-anchor="middle" x="922.5" y="-116" font-family="Helvetica,sans-Serif" font-size="10.00"> &lt; Vec &gt;</text>
</g>
<!-- Node23 -->
<g id="node23" class="node">
<title>Node23</title>
<g id="a_node23"><a xlink:title=" ">
<polygon fill="white" stroke="#bfbfbf" points="443.5,-74.5 443.5,-115.5 569.5,-115.5 569.5,-74.5 443.5,-74.5"/>
<text text-anchor="start" x="451.5" y="-103.5" font-family="Helvetica,sans-Serif" font-size="10.00">boost::intrusive_ptr</text>
<text text-anchor="start" x="451.5" y="-92.5" font-family="Helvetica,sans-Serif" font-size="10.00">&lt; std::remove_pointer</text>
<text text-anchor="middle" x="506.5" y="-81.5" font-family="Helvetica,sans-Serif" font-size="10.00">&lt; OBJ &gt;::type &gt;</text>
</a>
</g>
</g>
<!-- Node23&#45;&gt;Node22 -->
<g id="edge22" class="edge">
<title>Node23&#45;&gt;Node22</title>
<path fill="none" stroke="midnightblue" d="M579.83,-95C629.7,-95 695.39,-95 743.48,-95"/>
<polygon fill="midnightblue" stroke="midnightblue" points="579.76,-91.5 569.76,-95 579.76,-98.5 579.76,-91.5"/>
</g>
<!-- Node24 -->
<g id="node24" class="node">
<title>Node24</title>
<g id="a_node24"><a xlink:href="classdouble.html" target="_top" xlink:title=" ">
<polygon fill="white" stroke="black" points="1039.5,-76.5 1039.5,-95.5 1089.5,-95.5 1089.5,-76.5 1039.5,-76.5"/>
<text text-anchor="middle" x="1064.5" y="-83.5" font-family="Helvetica,sans-Serif" font-size="10.00">double</text>
</a>
</g>
</g>
<!-- Node24&#45;&gt;Node18 -->
<g id="edge23" class="edge">
<title>Node24&#45;&gt;Node18</title>
<path fill="none" stroke="#9a32cd" stroke-dasharray="5,2" d="M1099.86,-86.33C1149.43,-86.82 1242.05,-87.72 1305.7,-88.34"/>
<polygon fill="#9a32cd" stroke="#9a32cd" points="1099.7,-82.83 1089.67,-86.24 1099.63,-89.83 1099.7,-82.83"/>
<text text-anchor="middle" x="1225.5" y="-91" font-family="Helvetica,sans-Serif" font-size="10.00"> eNergy</text>
</g>
<!-- Node25 -->
<g id="node25" class="node">
<title>Node25</title>
<g id="a_node25"><a xlink:title=" ">
<polygon fill="white" stroke="#bfbfbf" points="1047,-38.5 1047,-57.5 1082,-57.5 1082,-38.5 1047,-38.5"/>
<text text-anchor="middle" x="1064.5" y="-45.5" font-family="Helvetica,sans-Serif" font-size="10.00">Mat</text>
</a>
</g>
</g>
<!-- Node25&#45;&gt;Node18 -->
<g id="edge24" class="edge">
<title>Node25&#45;&gt;Node18</title>
<path fill="none" stroke="#9a32cd" stroke-dasharray="5,2" d="M1092.51,-51.16C1131.05,-55.72 1204,-64.52 1266,-73 1278.9,-74.76 1292.65,-76.74 1305.87,-78.68"/>
<polygon fill="#9a32cd" stroke="#9a32cd" points="1092.49,-47.64 1082.15,-49.94 1091.67,-54.59 1092.49,-47.64"/>
<text text-anchor="middle" x="1225.5" y="-76" font-family="Helvetica,sans-Serif" font-size="10.00"> A</text>
</g>
<!-- Node26 -->
<g id="node26" class="node">
<title>Node26</title>
<g id="a_node26"><a xlink:title=" ">
<polygon fill="white" stroke="#bfbfbf" points="1047.5,-0.5 1047.5,-19.5 1081.5,-19.5 1081.5,-0.5 1047.5,-0.5"/>
<text text-anchor="middle" x="1064.5" y="-7.5" font-family="Helvetica,sans-Serif" font-size="10.00">Vec</text>
</a>
</g>
</g>
<!-- Node26&#45;&gt;Node18 -->
<g id="edge25" class="edge">
<title>Node26&#45;&gt;Node18</title>
<path fill="none" stroke="#9a32cd" stroke-dasharray="5,2" d="M1091.53,-14.84C1112.04,-18.66 1141.35,-24.14 1167,-29 1211.02,-37.34 1222.9,-35.75 1266,-48 1290.78,-55.05 1317.89,-65.4 1338.68,-73.94"/>
<polygon fill="#9a32cd" stroke="#9a32cd" points="1092.15,-11.39 1081.68,-13 1090.87,-18.28 1092.15,-11.39"/>
<text text-anchor="middle" x="1225.5" y="-51" font-family="Helvetica,sans-Serif" font-size="10.00"> F</text>
</g>
</g>
</svg>
        <g id="navigator" transform="translate(0 0)" fill="#404254">
                <rect fill="#f2f5e9" fill-opacity="0.5" stroke="#606060" stroke-width=".5" x="0" y="0" width="60" height="60"/>
                <use id="zoomplus" xlink:href="#zoomPlus" x="17" y="9" onmousedown="handleZoom(evt,'in')"/>
                <use id="zoomminus" xlink:href="#zoomMin" x="42" y="9" onmousedown="handleZoom(evt,'out')"/>
                <use id="reset" xlink:href="#resetDef" x="30" y="36" onmousedown="handleReset()"/>
                <g id="arrowUp" xlink:href="#dirArrow" transform="translate(30 24)" onmousedown="handlePan(0,-1)">
                  <use xlink:href="#rim" fill="#404040">
                        <set attributeName="fill" to="#808080" begin="arrowUp.mouseover" end="arrowUp.mouseout"/>
                  </use>
                  <path fill="none" stroke="white" stroke-width="1.5" d="M0,-3.0v7 M-2.5,-0.5L0,-3.0L2.5,-0.5"/>
                </g>
                <g id="arrowRight" xlink:href="#dirArrow" transform="rotate(90) translate(36 -43)" onmousedown="handlePan(1,0)">
                  <use xlink:href="#rim" fill="#404040">
                        <set attributeName="fill" to="#808080" begin="arrowRight.mouseover" end="arrowRight.mouseout"/>
                  </use>
                  <path fill="none" stroke="white" stroke-width="1.5" d="M0,-3.0v7 M-2.5,-0.5L0,-3.0L2.5,-0.5"/>
                </g>
                <g id="arrowDown" xlink:href="#dirArrow" transform="rotate(180) translate(-30 -48)" onmousedown="handlePan(0,1)">
                  <use xlink:href="#rim" fill="#404040">
                        <set attributeName="fill" to="#808080" begin="arrowDown.mouseover" end="arrowDown.mouseout"/>
                  </use>
                  <path fill="none" stroke="white" stroke-width="1.5" d="M0,-3.0v7 M-2.5,-0.5L0,-3.0L2.5,-0.5"/>
                </g>
                <g id="arrowLeft" xlink:href="#dirArrow" transform="rotate(270) translate(-36 17)" onmousedown="handlePan(-1,0)">
                  <use xlink:href="#rim" fill="#404040">
                        <set attributeName="fill" to="#808080" begin="arrowLeft.mouseover" end="arrowLeft.mouseout"/>
                  </use>
                  <path fill="none" stroke="white" stroke-width="1.5" d="M0,-3.0v7 M-2.5,-0.5L0,-3.0L2.5,-0.5"/>
                </g>
        </g>
        <svg viewBox="0 0 15 15" width="100%" height="30px" preserveAspectRatio="xMaxYMin meet">
         <g id="arrow_out" transform="scale(0.3 0.3)">
          <a xlink:href="structConvectiveMassElement__coll__graph_org.svg" target="_base">
           <rect id="button" ry="5" rx="5" y="6" x="6" height="38" width="38"
                fill="#f2f5e9" fill-opacity="0.5" stroke="#606060" stroke-width="1.0"/>
           <path id="arrow"
             d="M 11.500037,31.436501 C 11.940474,20.09759 22.043105,11.32322 32.158766,21.979434 L 37.068811,17.246167 C 37.068811,17.246167 37.088388,32 37.088388,32 L 22.160133,31.978069 C 22.160133,31.978069 26.997745,27.140456 26.997745,27.140456 C 18.528582,18.264221 13.291696,25.230495 11.500037,31.436501 z"
             style="fill:#404040;"/>
          </a>
         </g>
        </svg>
</svg>
