<?xml version="1.0" encoding="UTF-8" standalone="no"?>
<!DOCTYPE svg PUBLIC "-//W3C//DTD SVG 1.1//EN"
 "http://www.w3.org/Graphics/SVG/1.1/DTD/svg11.dtd">
<!-- Generated by graphviz version 2.43.0 (0)
 -->
<!-- Title: MoFEM::OpBrokenSpaceConstrainDHybridImpl&lt; FIELD_DIM, GAUSS, OpBase &gt; Pages: 1 -->
<svg width="342pt" height="128pt"
 viewBox="0.00 0.00 342.00 128.00" xmlns="http://www.w3.org/2000/svg" xmlns:xlink="http://www.w3.org/1999/xlink">
<g id="graph0" class="graph" transform="scale(1 1) rotate(0) translate(4 124)">
<title>MoFEM::OpBrokenSpaceConstrainDHybridImpl&lt; FIELD_DIM, GAUSS, OpBase &gt;</title>
<polygon fill="white" stroke="transparent" points="-4,4 -4,-124 338,-124 338,4 -4,4"/>
<!-- Node1 -->
<g id="node1" class="node">
<title>Node1</title>
<g id="a_node1"><a xlink:title=" ">
<polygon fill="#bfbfbf" stroke="black" points="4.5,-0.5 4.5,-41.5 189.5,-41.5 189.5,-0.5 4.5,-0.5"/>
<text text-anchor="start" x="12.5" y="-29.5" font-family="Helvetica,sans-Serif" font-size="10.00">MoFEM::OpBrokenSpaceConstrain</text>
<text text-anchor="start" x="12.5" y="-18.5" font-family="Helvetica,sans-Serif" font-size="10.00">DHybridImpl&lt; FIELD_DIM, GAUSS,</text>
<text text-anchor="middle" x="97" y="-7.5" font-family="Helvetica,sans-Serif" font-size="10.00"> OpBase &gt;</text>
</a>
</g>
</g>
<!-- Node2 -->
<g id="node2" class="node">
<title>Node2</title>
<g id="a_node2"><a xlink:href="classOpBase.html" target="_top" xlink:title=" ">
<polygon fill="white" stroke="black" points="0,-95 0,-114 54,-114 54,-95 0,-95"/>
<text text-anchor="middle" x="27" y="-102" font-family="Helvetica,sans-Serif" font-size="10.00">OpBase</text>
</a>
</g>
</g>
<!-- Node2&#45;&gt;Node1 -->
<g id="edge1" class="edge">
<title>Node2&#45;&gt;Node1</title>
<path fill="none" stroke="midnightblue" d="M41.13,-87.04C52.37,-73.97 68.11,-55.63 80.03,-41.76"/>
<polygon fill="midnightblue" stroke="midnightblue" points="38.35,-84.91 34.49,-94.78 43.66,-89.47 38.35,-84.91"/>
</g>
<!-- Node3 -->
<g id="node3" class="node">
<title>Node3</title>
<g id="a_node3"><a xlink:href="classdouble.html" target="_top" xlink:title=" ">
<polygon fill="white" stroke="black" points="72,-95 72,-114 122,-114 122,-95 72,-95"/>
<text text-anchor="middle" x="97" y="-102" font-family="Helvetica,sans-Serif" font-size="10.00">double</text>
</a>
</g>
</g>
<!-- Node3&#45;&gt;Node1 -->
<g id="edge2" class="edge">
<title>Node3&#45;&gt;Node1</title>
<path fill="none" stroke="#9a32cd" stroke-dasharray="5,2" d="M97,-84.75C97,-71.89 97,-54.84 97,-41.76"/>
<polygon fill="#9a32cd" stroke="#9a32cd" points="93.5,-84.78 97,-94.78 100.5,-84.78 93.5,-84.78"/>
<text text-anchor="middle" x="124.5" y="-63" font-family="Helvetica,sans-Serif" font-size="10.00"> scalarBeta</text>
</g>
<!-- Node4 -->
<g id="node4" class="node">
<title>Node4</title>
<g id="a_node4"><a xlink:title=" ">
<polygon fill="white" stroke="#bfbfbf" points="140,-89.5 140,-119.5 334,-119.5 334,-89.5 140,-89.5"/>
<text text-anchor="start" x="148" y="-107.5" font-family="Helvetica,sans-Serif" font-size="10.00">shared_ptr&lt; std::vector</text>
<text text-anchor="middle" x="237" y="-96.5" font-family="Helvetica,sans-Serif" font-size="10.00">&lt; MoFEM::BrokenBaseSideData &gt; &gt;</text>
</a>
</g>
</g>
<!-- Node4&#45;&gt;Node1 -->
<g id="edge3" class="edge">
<title>Node4&#45;&gt;Node1</title>
<path fill="none" stroke="#9a32cd" stroke-dasharray="5,2" d="M204.23,-84.42C182.11,-71.55 153.01,-54.6 130.7,-41.62"/>
<polygon fill="#9a32cd" stroke="#9a32cd" points="202.53,-87.48 212.93,-89.49 206.05,-81.43 202.53,-87.48"/>
<text text-anchor="middle" x="226" y="-63" font-family="Helvetica,sans-Serif" font-size="10.00"> brokenSideDataPtr</text>
</g>
</g>
</svg>
