<?xml version="1.0" encoding="UTF-8" standalone="no"?>
<!DOCTYPE svg PUBLIC "-//W3C//DTD SVG 1.1//EN"
 "http://www.w3.org/Graphics/SVG/1.1/DTD/svg11.dtd">
<!-- Generated by graphviz version 2.43.0 (0)
 -->
<!-- Title: ConvectiveMassElement::OpVelocityJacobian Pages: 1 -->
<svg width="658pt" height="589pt"
 viewBox="0.00 0.00 658.00 589.24" xmlns="http://www.w3.org/2000/svg" xmlns:xlink="http://www.w3.org/1999/xlink">
<g id="graph0" class="graph" transform="scale(1 1) rotate(0) translate(4 585.24)">
<title>ConvectiveMassElement::OpVelocityJacobian</title>
<polygon fill="white" stroke="transparent" points="-4,4 -4,-585.24 654,-585.24 654,4 -4,4"/>
<!-- Node1 -->
<g id="node1" class="node">
<title>Node1</title>
<g id="a_node1"><a xlink:title=" ">
<polygon fill="#bfbfbf" stroke="black" points="513,-287.24 513,-317.24 650,-317.24 650,-287.24 513,-287.24"/>
<text text-anchor="start" x="521" y="-305.24" font-family="Helvetica,sans-Serif" font-size="10.00">ConvectiveMassElement</text>
<text text-anchor="middle" x="581.5" y="-294.24" font-family="Helvetica,sans-Serif" font-size="10.00">::OpVelocityJacobian</text>
</a>
</g>
</g>
<!-- Node2 -->
<g id="node2" class="node">
<title>Node2</title>
<g id="a_node2"><a xlink:title=" ">
<polygon fill="white" stroke="#bfbfbf" points="286,-483.74 286,-502.74 391,-502.74 391,-483.74 286,-483.74"/>
<text text-anchor="middle" x="338.5" y="-490.74" font-family="Helvetica,sans-Serif" font-size="10.00">UserDataOperator</text>
</a>
</g>
</g>
<!-- Node2&#45;&gt;Node1 -->
<g id="edge1" class="edge">
<title>Node2&#45;&gt;Node1</title>
<path fill="none" stroke="midnightblue" d="M389.78,-480.7C422.74,-470.45 465.11,-453.16 495,-426.24 531.33,-393.51 560.21,-342.43 573.13,-317.27"/>
<polygon fill="midnightblue" stroke="midnightblue" points="388.45,-477.45 379.87,-483.66 390.46,-484.15 388.45,-477.45"/>
</g>
<!-- Node3 -->
<g id="node3" class="node">
<title>Node3</title>
<g id="a_node3"><a xlink:href="structConvectiveMassElement_1_1CommonFunctions.html" target="_top" xlink:title=" ">
<polygon fill="white" stroke="black" points="270,-434.24 270,-464.24 407,-464.24 407,-434.24 270,-434.24"/>
<text text-anchor="start" x="278" y="-452.24" font-family="Helvetica,sans-Serif" font-size="10.00">ConvectiveMassElement</text>
<text text-anchor="middle" x="338.5" y="-441.24" font-family="Helvetica,sans-Serif" font-size="10.00">::CommonFunctions</text>
</a>
</g>
</g>
<!-- Node3&#45;&gt;Node1 -->
<g id="edge2" class="edge">
<title>Node3&#45;&gt;Node1</title>
<path fill="none" stroke="midnightblue" d="M417.04,-431.22C443.12,-423.03 471.53,-411.64 495,-396.24 527.65,-374.82 556.02,-338.08 570.43,-317.45"/>
<polygon fill="midnightblue" stroke="midnightblue" points="415.73,-427.96 407.17,-434.2 417.76,-434.66 415.73,-427.96"/>
</g>
<!-- Node4 -->
<g id="node4" class="node">
<title>Node4</title>
<g id="a_node4"><a xlink:title=" ">
<polygon fill="white" stroke="#bfbfbf" points="287,-395.74 287,-414.74 390,-414.74 390,-395.74 287,-395.74"/>
<text text-anchor="middle" x="338.5" y="-402.74" font-family="Helvetica,sans-Serif" font-size="10.00">vector&lt; double &gt;</text>
</a>
</g>
</g>
<!-- Node4&#45;&gt;Node1 -->
<g id="edge3" class="edge">
<title>Node4&#45;&gt;Node1</title>
<path fill="none" stroke="#9a32cd" stroke-dasharray="5,2" d="M383.3,-392.93C391.19,-390.7 399.34,-388.4 407,-386.24 446.12,-375.17 458.22,-378.57 495,-361.24 519.96,-349.47 545.63,-330.7 562.24,-317.49"/>
<polygon fill="#9a32cd" stroke="#9a32cd" points="382.17,-389.61 373.5,-395.69 384.07,-396.34 382.17,-389.61"/>
<text text-anchor="middle" x="460" y="-384.24" font-family="Helvetica,sans-Serif" font-size="10.00"> active</text>
</g>
<!-- Node5 -->
<g id="node5" class="node">
<title>Node5</title>
<g id="a_node5"><a xlink:href="classadouble.html" target="_top" xlink:title=" ">
<polygon fill="white" stroke="black" points="310.5,-357.74 310.5,-376.74 366.5,-376.74 366.5,-357.74 310.5,-357.74"/>
<text text-anchor="middle" x="338.5" y="-364.74" font-family="Helvetica,sans-Serif" font-size="10.00">adouble</text>
</a>
</g>
</g>
<!-- Node5&#45;&gt;Node1 -->
<g id="edge4" class="edge">
<title>Node5&#45;&gt;Node1</title>
<path fill="none" stroke="#9a32cd" stroke-dasharray="5,2" d="M376.73,-358.87C408.34,-351.59 454.84,-340.47 495,-329.24 507.89,-325.63 521.77,-321.4 534.52,-317.37"/>
<polygon fill="#9a32cd" stroke="#9a32cd" points="375.58,-355.54 366.61,-361.19 377.14,-362.37 375.58,-355.54"/>
<text text-anchor="middle" x="460" y="-349.24" font-family="Helvetica,sans-Serif" font-size="10.00"> detH</text>
</g>
<!-- Node6 -->
<g id="node6" class="node">
<title>Node6</title>
<g id="a_node6"><a xlink:href="structConvectiveMassElement_1_1BlockData.html" target="_top" xlink:title="data for calculation inertia forces">
<polygon fill="white" stroke="black" points="270,-308.24 270,-338.24 407,-338.24 407,-308.24 270,-308.24"/>
<text text-anchor="start" x="278" y="-326.24" font-family="Helvetica,sans-Serif" font-size="10.00">ConvectiveMassElement</text>
<text text-anchor="middle" x="338.5" y="-315.24" font-family="Helvetica,sans-Serif" font-size="10.00">::BlockData</text>
</a>
</g>
</g>
<!-- Node6&#45;&gt;Node1 -->
<g id="edge5" class="edge">
<title>Node6&#45;&gt;Node1</title>
<path fill="none" stroke="#9a32cd" stroke-dasharray="5,2" d="M417.52,-316.44C448.24,-313.76 483.18,-310.72 512.82,-308.14"/>
<polygon fill="#9a32cd" stroke="#9a32cd" points="416.93,-312.98 407.27,-317.33 417.54,-319.95 416.93,-312.98"/>
<text text-anchor="middle" x="460" y="-317.24" font-family="Helvetica,sans-Serif" font-size="10.00"> dAta</text>
</g>
<!-- Node7 -->
<g id="node7" class="node">
<title>Node7</title>
<g id="a_node7"><a xlink:href="classdouble.html" target="_top" xlink:title=" ">
<polygon fill="white" stroke="black" points="51.5,-554.74 51.5,-573.74 101.5,-573.74 101.5,-554.74 51.5,-554.74"/>
<text text-anchor="middle" x="76.5" y="-561.74" font-family="Helvetica,sans-Serif" font-size="10.00">double</text>
</a>
</g>
</g>
<!-- Node7&#45;&gt;Node6 -->
<g id="edge6" class="edge">
<title>Node7&#45;&gt;Node6</title>
<path fill="none" stroke="#9a32cd" stroke-dasharray="5,2" d="M111.69,-570.03C151.51,-574.62 216.38,-575.01 252,-537.24 280.95,-506.54 244.28,-381.68 270,-348.24 272.97,-344.37 276.6,-341.11 280.63,-338.35"/>
<polygon fill="#9a32cd" stroke="#9a32cd" points="112.02,-566.55 101.65,-568.73 111.12,-573.49 112.02,-566.55"/>
<text text-anchor="middle" x="211.5" y="-573.24" font-family="Helvetica,sans-Serif" font-size="10.00"> rho0</text>
</g>
<!-- Node8 -->
<g id="node8" class="node">
<title>Node8</title>
<g id="a_node8"><a xlink:href="classRange.html" target="_top" xlink:title=" ">
<polygon fill="white" stroke="black" points="53,-516.74 53,-535.74 100,-535.74 100,-516.74 53,-516.74"/>
<text text-anchor="middle" x="76.5" y="-523.74" font-family="Helvetica,sans-Serif" font-size="10.00">Range</text>
</a>
</g>
</g>
<!-- Node8&#45;&gt;Node6 -->
<g id="edge7" class="edge">
<title>Node8&#45;&gt;Node6</title>
<path fill="none" stroke="#9a32cd" stroke-dasharray="5,2" d="M110.41,-526.33C155.44,-525.72 232.88,-521.75 252,-502.24 300.23,-453.02 227.41,-402.41 270,-348.24 273.01,-344.41 276.67,-341.16 280.72,-338.42"/>
<polygon fill="#9a32cd" stroke="#9a32cd" points="110.22,-522.83 100.25,-526.42 110.28,-529.83 110.22,-522.83"/>
<text text-anchor="middle" x="211.5" y="-525.24" font-family="Helvetica,sans-Serif" font-size="10.00"> tEts</text>
</g>
<!-- Node9 -->
<g id="node9" class="node">
<title>Node9</title>
<g id="a_node9"><a xlink:title=" ">
<polygon fill="white" stroke="#bfbfbf" points="35.5,-478.74 35.5,-497.74 117.5,-497.74 117.5,-478.74 35.5,-478.74"/>
<text text-anchor="middle" x="76.5" y="-485.74" font-family="Helvetica,sans-Serif" font-size="10.00">VectorDouble</text>
</a>
</g>
</g>
<!-- Node9&#45;&gt;Node6 -->
<g id="edge8" class="edge">
<title>Node9&#45;&gt;Node6</title>
<path fill="none" stroke="#9a32cd" stroke-dasharray="5,2" d="M128.06,-489.04C173.22,-488.61 234.81,-484.85 252,-468.24 290.79,-430.77 235.98,-390.09 270,-348.24 273.15,-344.36 276.97,-341.08 281.16,-338.31"/>
<polygon fill="#9a32cd" stroke="#9a32cd" points="127.83,-485.54 117.84,-489.08 127.86,-492.54 127.83,-485.54"/>
<text text-anchor="middle" x="211.5" y="-490.24" font-family="Helvetica,sans-Serif" font-size="10.00"> a0</text>
</g>
<!-- Node10 -->
<g id="node10" class="node">
<title>Node10</title>
<g id="a_node10"><a xlink:href="structConvectiveMassElement_1_1CommonData.html" target="_top" xlink:title="common data used by volume elements">
<polygon fill="white" stroke="black" points="270,-259.24 270,-289.24 407,-289.24 407,-259.24 270,-259.24"/>
<text text-anchor="start" x="278" y="-277.24" font-family="Helvetica,sans-Serif" font-size="10.00">ConvectiveMassElement</text>
<text text-anchor="middle" x="338.5" y="-266.24" font-family="Helvetica,sans-Serif" font-size="10.00">::CommonData</text>
</a>
</g>
</g>
<!-- Node10&#45;&gt;Node1 -->
<g id="edge9" class="edge">
<title>Node10&#45;&gt;Node1</title>
<path fill="none" stroke="#9a32cd" stroke-dasharray="5,2" d="M417.52,-283.3C448.24,-286.87 483.18,-290.93 512.82,-294.37"/>
<polygon fill="#9a32cd" stroke="#9a32cd" points="417.61,-279.79 407.27,-282.11 416.8,-286.74 417.61,-279.79"/>
<text text-anchor="middle" x="460" y="-294.24" font-family="Helvetica,sans-Serif" font-size="10.00"> commonData</text>
</g>
<!-- Node11 -->
<g id="node11" class="node">
<title>Node11</title>
<g id="a_node11"><a xlink:title=" ">
<polygon fill="white" stroke="#bfbfbf" points="21.5,-279.24 21.5,-309.24 131.5,-309.24 131.5,-279.24 21.5,-279.24"/>
<text text-anchor="start" x="29.5" y="-297.24" font-family="Helvetica,sans-Serif" font-size="10.00">vector&lt; std::vector</text>
<text text-anchor="middle" x="76.5" y="-286.24" font-family="Helvetica,sans-Serif" font-size="10.00">&lt; double * &gt; &gt;</text>
</a>
</g>
</g>
<!-- Node11&#45;&gt;Node10 -->
<g id="edge10" class="edge">
<title>Node11&#45;&gt;Node10</title>
<path fill="none" stroke="#9a32cd" stroke-dasharray="5,2" d="M141.86,-289.29C180.82,-286.29 230.44,-282.47 269.96,-279.43"/>
<polygon fill="#9a32cd" stroke="#9a32cd" points="141.39,-285.81 131.69,-290.07 141.93,-292.79 141.39,-285.81"/>
<text text-anchor="middle" x="211.5" y="-311.24" font-family="Helvetica,sans-Serif" font-size="10.00"> jacVelRowPtr</text>
<text text-anchor="middle" x="211.5" y="-300.24" font-family="Helvetica,sans-Serif" font-size="10.00">jacMassRowPtr</text>
<text text-anchor="middle" x="211.5" y="-289.24" font-family="Helvetica,sans-Serif" font-size="10.00">jacTRowPtr</text>
</g>
<!-- Node12 -->
<g id="node12" class="node">
<title>Node12</title>
<g id="a_node12"><a xlink:title=" ">
<polygon fill="white" stroke="#bfbfbf" points="0.5,-230.24 0.5,-260.24 152.5,-260.24 152.5,-230.24 0.5,-230.24"/>
<text text-anchor="start" x="8.5" y="-248.24" font-family="Helvetica,sans-Serif" font-size="10.00">map&lt; std::string, std</text>
<text text-anchor="middle" x="76.5" y="-237.24" font-family="Helvetica,sans-Serif" font-size="10.00">::vector&lt; VectorDouble &gt; &gt;</text>
</a>
</g>
</g>
<!-- Node12&#45;&gt;Node10 -->
<g id="edge11" class="edge">
<title>Node12&#45;&gt;Node10</title>
<path fill="none" stroke="#9a32cd" stroke-dasharray="5,2" d="M162.81,-254.75C197.45,-258.62 236.92,-263.02 269.56,-266.66"/>
<polygon fill="#9a32cd" stroke="#9a32cd" points="163.03,-251.26 152.7,-253.63 162.25,-258.21 163.03,-251.26"/>
<text text-anchor="middle" x="211.5" y="-266.24" font-family="Helvetica,sans-Serif" font-size="10.00"> dataAtGaussPts</text>
</g>
<!-- Node13 -->
<g id="node13" class="node">
<title>Node13</title>
<g id="a_node13"><a xlink:title=" ">
<polygon fill="white" stroke="#bfbfbf" points="8.5,-118.74 8.5,-137.74 144.5,-137.74 144.5,-118.74 8.5,-118.74"/>
<text text-anchor="middle" x="76.5" y="-125.74" font-family="Helvetica,sans-Serif" font-size="10.00">vector&lt; MatrixDouble &gt;</text>
</a>
</g>
</g>
<!-- Node13&#45;&gt;Node10 -->
<g id="edge12" class="edge">
<title>Node13&#45;&gt;Node10</title>
<path fill="none" stroke="#9a32cd" stroke-dasharray="5,2" d="M154.98,-130.64C188.23,-135.35 225.45,-146.05 252,-169.24 268.85,-183.95 257.12,-197.95 270,-216.24 282.01,-233.29 300.12,-248.49 314.56,-259.05"/>
<polygon fill="#9a32cd" stroke="#9a32cd" points="155.16,-127.13 144.8,-129.36 154.29,-134.08 155.16,-127.13"/>
<text text-anchor="middle" x="211.5" y="-194.24" font-family="Helvetica,sans-Serif" font-size="10.00"> jacVel</text>
<text text-anchor="middle" x="211.5" y="-183.24" font-family="Helvetica,sans-Serif" font-size="10.00">jacT</text>
<text text-anchor="middle" x="211.5" y="-172.24" font-family="Helvetica,sans-Serif" font-size="10.00">jacMass</text>
</g>
<!-- Node14 -->
<g id="node14" class="node">
<title>Node14</title>
<g id="a_node14"><a xlink:title=" ">
<polygon fill="white" stroke="#bfbfbf" points="54.5,-429.74 54.5,-448.74 98.5,-448.74 98.5,-429.74 54.5,-429.74"/>
<text text-anchor="middle" x="76.5" y="-436.74" font-family="Helvetica,sans-Serif" font-size="10.00">string</text>
</a>
</g>
</g>
<!-- Node14&#45;&gt;Node10 -->
<g id="edge13" class="edge">
<title>Node14&#45;&gt;Node10</title>
<path fill="none" stroke="#9a32cd" stroke-dasharray="5,2" d="M108.72,-435.66C156.18,-429.93 242.05,-418.31 252,-408.24 286.51,-373.31 238.75,-337.11 270,-299.24 273.18,-295.38 277.02,-292.12 281.22,-289.36"/>
<polygon fill="#9a32cd" stroke="#9a32cd" points="108.18,-432.2 98.66,-436.85 109.01,-439.15 108.18,-432.2"/>
<text text-anchor="middle" x="211.5" y="-451.24" font-family="Helvetica,sans-Serif" font-size="10.00"> meshPositions</text>
<text text-anchor="middle" x="211.5" y="-440.24" font-family="Helvetica,sans-Serif" font-size="10.00">spatialVelocities</text>
<text text-anchor="middle" x="211.5" y="-429.24" font-family="Helvetica,sans-Serif" font-size="10.00">spatialPositions</text>
</g>
<!-- Node15 -->
<g id="node15" class="node">
<title>Node15</title>
<g id="a_node15"><a xlink:title=" ">
<polygon fill="white" stroke="#bfbfbf" points="0,-380.24 0,-410.24 153,-410.24 153,-380.24 0,-380.24"/>
<text text-anchor="start" x="8" y="-398.24" font-family="Helvetica,sans-Serif" font-size="10.00">map&lt; std::string, std</text>
<text text-anchor="middle" x="76.5" y="-387.24" font-family="Helvetica,sans-Serif" font-size="10.00">::vector&lt; MatrixDouble &gt; &gt;</text>
</a>
</g>
</g>
<!-- Node15&#45;&gt;Node10 -->
<g id="edge14" class="edge">
<title>Node15&#45;&gt;Node10</title>
<path fill="none" stroke="#9a32cd" stroke-dasharray="5,2" d="M163.74,-394.45C200.77,-392.32 238.61,-387.13 252,-375.24 277.95,-352.19 247,-325.24 270,-299.24 273.4,-295.4 277.43,-292.15 281.82,-289.4"/>
<polygon fill="#9a32cd" stroke="#9a32cd" points="163.15,-390.98 153.34,-394.98 163.5,-397.97 163.15,-390.98"/>
<text text-anchor="middle" x="211.5" y="-396.24" font-family="Helvetica,sans-Serif" font-size="10.00"> gradAtGaussPts</text>
</g>
<!-- Node16 -->
<g id="node16" class="node">
<title>Node16</title>
<g id="a_node16"><a xlink:href="classbool.html" target="_top" xlink:title=" ">
<polygon fill="white" stroke="black" points="57.5,-178.74 57.5,-197.74 95.5,-197.74 95.5,-178.74 57.5,-178.74"/>
<text text-anchor="middle" x="76.5" y="-185.74" font-family="Helvetica,sans-Serif" font-size="10.00">bool</text>
</a>
</g>
</g>
<!-- Node16&#45;&gt;Node1 -->
<g id="edge18" class="edge">
<title>Node16&#45;&gt;Node1</title>
<path fill="none" stroke="#9a32cd" stroke-dasharray="5,2" d="M105.98,-188.59C163.86,-189.96 298.93,-196.61 407,-228.24 459.49,-243.6 517.33,-270.41 551.2,-287.19"/>
<polygon fill="#9a32cd" stroke="#9a32cd" points="105.84,-185.08 95.78,-188.38 105.7,-192.08 105.84,-185.08"/>
<text text-anchor="middle" x="338.5" y="-242.24" font-family="Helvetica,sans-Serif" font-size="10.00"> jAcobian</text>
<text text-anchor="middle" x="338.5" y="-231.24" font-family="Helvetica,sans-Serif" font-size="10.00">fieldDisp</text>
</g>
<!-- Node16&#45;&gt;Node10 -->
<g id="edge15" class="edge">
<title>Node16&#45;&gt;Node10</title>
<path fill="none" stroke="#9a32cd" stroke-dasharray="5,2" d="M105.47,-192.84C140.45,-199.07 201.84,-211.6 252,-230.24 272.97,-238.03 295.41,-249.72 312.04,-259.09"/>
<polygon fill="#9a32cd" stroke="#9a32cd" points="105.95,-189.37 95.5,-191.1 104.76,-196.26 105.95,-189.37"/>
<text text-anchor="middle" x="211.5" y="-244.24" font-family="Helvetica,sans-Serif" font-size="10.00"> lInear</text>
<text text-anchor="middle" x="211.5" y="-233.24" font-family="Helvetica,sans-Serif" font-size="10.00">staticOnly</text>
</g>
<!-- Node17 -->
<g id="node17" class="node">
<title>Node17</title>
<g id="a_node17"><a xlink:title=" ">
<polygon fill="white" stroke="#bfbfbf" points="9,-334.74 9,-353.74 144,-353.74 144,-334.74 9,-334.74"/>
<text text-anchor="middle" x="76.5" y="-341.74" font-family="Helvetica,sans-Serif" font-size="10.00">vector&lt; VectorDouble &gt;</text>
</a>
</g>
</g>
<!-- Node17&#45;&gt;Node10 -->
<g id="edge16" class="edge">
<title>Node17&#45;&gt;Node10</title>
<path fill="none" stroke="#9a32cd" stroke-dasharray="5,2" d="M154.5,-340.27C193.2,-337.15 235.36,-331.68 252,-322.24 263.29,-315.83 259.52,-306.89 270,-299.24 275.25,-295.41 281.15,-292.1 287.22,-289.26"/>
<polygon fill="#9a32cd" stroke="#9a32cd" points="153.93,-336.81 144.22,-341.06 154.46,-343.79 153.93,-336.81"/>
<text text-anchor="middle" x="211.5" y="-363.24" font-family="Helvetica,sans-Serif" font-size="10.00"> valMass</text>
<text text-anchor="middle" x="211.5" y="-352.24" font-family="Helvetica,sans-Serif" font-size="10.00">valT</text>
<text text-anchor="middle" x="211.5" y="-341.24" font-family="Helvetica,sans-Serif" font-size="10.00">valVel</text>
</g>
<!-- Node18 -->
<g id="node18" class="node">
<title>Node18</title>
<g id="a_node18"><a xlink:title=" ">
<polygon fill="white" stroke="#bfbfbf" points="324,-134.74 324,-153.74 353,-153.74 353,-134.74 324,-134.74"/>
<text text-anchor="middle" x="338.5" y="-141.74" font-family="Helvetica,sans-Serif" font-size="10.00">int</text>
</a>
</g>
</g>
<!-- Node18&#45;&gt;Node1 -->
<g id="edge17" class="edge">
<title>Node18&#45;&gt;Node1</title>
<path fill="none" stroke="#9a32cd" stroke-dasharray="5,2" d="M363.64,-141.5C396.18,-139.05 454.68,-139.19 495,-165.24 540.69,-194.75 566.23,-258.21 575.92,-287.22"/>
<polygon fill="#9a32cd" stroke="#9a32cd" points="362.93,-138.05 353.29,-142.43 363.56,-145.02 362.93,-138.05"/>
<text text-anchor="middle" x="460" y="-168.24" font-family="Helvetica,sans-Serif" font-size="10.00"> tAg</text>
</g>
<!-- Node19 -->
<g id="node19" class="node">
<title>Node19</title>
<g id="a_node19"><a xlink:href="classMatrixBoundedArray_3_01adouble_00_019_01_4.html" target="_top" xlink:title=" ">
<polygon fill="white" stroke="black" points="280,-82.24 280,-112.24 397,-112.24 397,-82.24 280,-82.24"/>
<text text-anchor="start" x="288" y="-100.24" font-family="Helvetica,sans-Serif" font-size="10.00">MatrixBoundedArray</text>
<text text-anchor="middle" x="338.5" y="-89.24" font-family="Helvetica,sans-Serif" font-size="10.00">&lt; adouble, 9 &gt;</text>
</a>
</g>
</g>
<!-- Node19&#45;&gt;Node1 -->
<g id="edge19" class="edge">
<title>Node19&#45;&gt;Node1</title>
<path fill="none" stroke="#9a32cd" stroke-dasharray="5,2" d="M401.1,-80.42C431.73,-75.73 467.89,-76.07 495,-94.24 561.98,-139.12 576.53,-246.93 579.66,-286.95"/>
<polygon fill="#9a32cd" stroke="#9a32cd" points="400.2,-77.03 390.95,-82.19 401.4,-83.92 400.2,-77.03"/>
<text text-anchor="middle" x="460" y="-130.24" font-family="Helvetica,sans-Serif" font-size="10.00"> F</text>
<text text-anchor="middle" x="460" y="-119.24" font-family="Helvetica,sans-Serif" font-size="10.00">h</text>
<text text-anchor="middle" x="460" y="-108.24" font-family="Helvetica,sans-Serif" font-size="10.00">H</text>
<text text-anchor="middle" x="460" y="-97.24" font-family="Helvetica,sans-Serif" font-size="10.00">invH</text>
</g>
<!-- Node20 -->
<g id="node20" class="node">
<title>Node20</title>
<g id="a_node20"><a xlink:title=" ">
<polygon fill="white" stroke="#bfbfbf" points="280.5,-4.24 280.5,-34.24 396.5,-34.24 396.5,-4.24 280.5,-4.24"/>
<text text-anchor="start" x="288.5" y="-22.24" font-family="Helvetica,sans-Serif" font-size="10.00">VectorBoundedArray</text>
<text text-anchor="middle" x="338.5" y="-11.24" font-family="Helvetica,sans-Serif" font-size="10.00">&lt; adouble, 3 &gt;</text>
</a>
</g>
</g>
<!-- Node20&#45;&gt;Node1 -->
<g id="edge20" class="edge">
<title>Node20&#45;&gt;Node1</title>
<path fill="none" stroke="#9a32cd" stroke-dasharray="5,2" d="M401.53,-2.47C432.44,2.09 468.72,1.3 495,-18.24 539.94,-51.64 570.23,-233.29 578.33,-287.17"/>
<polygon fill="#9a32cd" stroke="#9a32cd" points="400.55,0.91 391.27,-4.21 401.72,-5.99 400.55,0.91"/>
<text text-anchor="middle" x="460" y="-65.24" font-family="Helvetica,sans-Serif" font-size="10.00"> dot_u</text>
<text text-anchor="middle" x="460" y="-54.24" font-family="Helvetica,sans-Serif" font-size="10.00">dot_w</text>
<text text-anchor="middle" x="460" y="-43.24" font-family="Helvetica,sans-Serif" font-size="10.00">a_res</text>
<text text-anchor="middle" x="460" y="-32.24" font-family="Helvetica,sans-Serif" font-size="10.00">dot_W</text>
<text text-anchor="middle" x="460" y="-21.24" font-family="Helvetica,sans-Serif" font-size="10.00">v</text>
</g>
</g>
</svg>
