<?xml version="1.0" encoding="UTF-8" standalone="no"?>
<!DOCTYPE svg PUBLIC "-//W3C//DTD SVG 1.1//EN"
 "http://www.w3.org/Graphics/SVG/1.1/DTD/svg11.dtd">
<!-- Generated by graphviz version 2.43.0 (0)
 -->
<!-- Title: PoissonExample::OpKt Pages: 1 -->
<!--zoomable 1461 -->
<svg id="main" version="1.1" xmlns="http://www.w3.org/2000/svg" xmlns:xlink="http://www.w3.org/1999/xlink" xml:space="preserve" onload="init(evt)">
<style type="text/css"><![CDATA[
.edge:hover path { stroke: red; }
.edge:hover polygon { stroke: red; fill: red; }
]]></style>
<script type="text/javascript"><![CDATA[
var edges = document.getElementsByTagName('g');
if (edges && edges.length) {
  for (var i=0;i<edges.length;i++) {
    if (edges[i].id.substr(0,4)=='edge') {
      edges[i].setAttribute('class','edge');
    }
  }
}
]]></script>
        <defs>
                <circle id="rim" cx="0" cy="0" r="7"/>
                <circle id="rim2" cx="0" cy="0" r="3.5"/>
                <g id="zoomPlus">
                        <use xlink:href="#rim" fill="#404040">
                                <set attributeName="fill" to="#808080" begin="zoomplus.mouseover" end="zoomplus.mouseout"/>
                        </use>
                        <path d="M-4,0h8M0,-4v8" fill="none" stroke="white" stroke-width="1.5" pointer-events="none"/>
                </g>
                <g id="zoomMin">
                        <use xlink:href="#rim" fill="#404040">
                                <set attributeName="fill" to="#808080" begin="zoomminus.mouseover" end="zoomminus.mouseout"/>
                        </use>
                        <path d="M-4,0h8" fill="none" stroke="white" stroke-width="1.5" pointer-events="none"/>
                </g>
                <g id="dirArrow">
                        <path fill="none" stroke="white" stroke-width="1.5" d="M0,-3.0v7 M-2.5,-0.5L0,-3.0L2.5,-0.5"/>
                </g>
               <g id="resetDef">
                       <use xlink:href="#rim2" fill="#404040">
                               <set attributeName="fill" to="#808080" begin="reset.mouseover" end="reset.mouseout"/>
                       </use>
               </g>
        </defs>

<script type="text/javascript">
var viewWidth = 3728;
var viewHeight = 1461;
var sectionId = 'dynsection-1';
</script>
<script xlink:href="svgpan.js"/>
<svg id="graph" class="graph">
<g id="viewport">
<title>PoissonExample::OpKt</title>
<polygon fill="white" stroke="transparent" points="-4,4 -4,-1456.5 3724,-1456.5 3724,4 -4,4"/>
<!-- Node1 -->
<g id="node1" class="node">
<title>Node1</title>
<g id="a_node1"><a xlink:title=" ">
<polygon fill="#bfbfbf" stroke="black" points="3593,-69 3593,-88 3720,-88 3720,-69 3593,-69"/>
<text text-anchor="middle" x="3656.5" y="-76" font-family="Helvetica,sans-Serif" font-size="10.00">PoissonExample::OpKt</text>
</a>
</g>
</g>
<!-- Node2 -->
<g id="node2" class="node">
<title>Node2</title>
<g id="a_node2"><a xlink:href="structPoissonExample_1_1OpK.html" target="_top" xlink:title="Calculate the grad&#45;grad operator and assemble matrix.">
<polygon fill="white" stroke="black" points="3371,-126 3371,-145 3494,-145 3494,-126 3371,-126"/>
<text text-anchor="middle" x="3432.5" y="-133" font-family="Helvetica,sans-Serif" font-size="10.00">PoissonExample::OpK</text>
</a>
</g>
</g>
<!-- Node2&#45;&gt;Node1 -->
<g id="edge1" class="edge">
<title>Node2&#45;&gt;Node1</title>
<path fill="none" stroke="midnightblue" d="M3489.99,-123.79C3516,-118.13 3547.19,-110.95 3575,-103.5 3592.25,-98.88 3611.34,-92.99 3626.6,-88.08"/>
<polygon fill="midnightblue" stroke="midnightblue" points="3488.96,-120.43 3479.93,-125.96 3490.44,-127.28 3488.96,-120.43"/>
</g>
<!-- Node3 -->
<g id="node3" class="node">
<title>Node3</title>
<g id="a_node3"><a xlink:href="structMoFEM_1_1VolumeElementForcesAndSourcesCore_1_1UserDataOperator.html" target="_top" xlink:title=" ">
<polygon fill="white" stroke="black" points="3090,-436.5 3090,-466.5 3281,-466.5 3281,-436.5 3090,-436.5"/>
<text text-anchor="start" x="3098" y="-454.5" font-family="Helvetica,sans-Serif" font-size="10.00">MoFEM::VolumeElementForces</text>
<text text-anchor="middle" x="3185.5" y="-443.5" font-family="Helvetica,sans-Serif" font-size="10.00">AndSourcesCore::UserDataOperator</text>
</a>
</g>
</g>
<!-- Node3&#45;&gt;Node2 -->
<g id="edge2" class="edge">
<title>Node3&#45;&gt;Node2</title>
<path fill="none" stroke="midnightblue" d="M3204.73,-427.99C3254.36,-363.98 3390.44,-188.46 3423.96,-145.22"/>
<polygon fill="midnightblue" stroke="midnightblue" points="3201.68,-426.21 3198.32,-436.26 3207.21,-430.5 3201.68,-426.21"/>
</g>
<!-- Node4 -->
<g id="node4" class="node">
<title>Node4</title>
<g id="a_node4"><a xlink:href="structMoFEM_1_1ForcesAndSourcesCore_1_1UserDataOperator.html" target="_top" xlink:title=" ">
<polygon fill="white" stroke="black" points="2837,-662.5 2837,-692.5 3007,-692.5 3007,-662.5 2837,-662.5"/>
<text text-anchor="start" x="2845" y="-680.5" font-family="Helvetica,sans-Serif" font-size="10.00">MoFEM::ForcesAndSourcesCore</text>
<text text-anchor="middle" x="2922" y="-669.5" font-family="Helvetica,sans-Serif" font-size="10.00">::UserDataOperator</text>
</a>
</g>
</g>
<!-- Node4&#45;&gt;Node3 -->
<g id="edge3" class="edge">
<title>Node4&#45;&gt;Node3</title>
<path fill="none" stroke="midnightblue" d="M2948.45,-655.51C3001.32,-609.81 3121.88,-505.62 3167.01,-466.61"/>
<polygon fill="midnightblue" stroke="midnightblue" points="2945.84,-653.13 2940.56,-662.32 2950.42,-658.43 2945.84,-653.13"/>
</g>
<!-- Node5 -->
<g id="node5" class="node">
<title>Node5</title>
<g id="a_node5"><a xlink:href="structMoFEM_1_1DataOperator.html" target="_top" xlink:title="base operator to do operations at Gauss Pt. level">
<polygon fill="white" stroke="black" points="2579.5,-341 2579.5,-360 2704.5,-360 2704.5,-341 2579.5,-341"/>
<text text-anchor="middle" x="2642" y="-348" font-family="Helvetica,sans-Serif" font-size="10.00">MoFEM::DataOperator</text>
</a>
</g>
</g>
<!-- Node5&#45;&gt;Node4 -->
<g id="edge4" class="edge">
<title>Node5&#45;&gt;Node4</title>
<path fill="none" stroke="midnightblue" d="M2658.01,-368.16C2707.13,-425.93 2862.47,-608.65 2908.21,-662.45"/>
<polygon fill="midnightblue" stroke="midnightblue" points="2660.46,-365.64 2651.32,-360.29 2655.13,-370.17 2660.46,-365.64"/>
</g>
<!-- Node6 -->
<g id="node6" class="node">
<title>Node6</title>
<g id="a_node6"><a xlink:title=" ">
<polygon fill="white" stroke="#bfbfbf" points="2160,-280.5 2160,-332.5 2352,-332.5 2352,-280.5 2160,-280.5"/>
<text text-anchor="start" x="2168" y="-320.5" font-family="Helvetica,sans-Serif" font-size="10.00">function&lt; MoFEMErrorCode</text>
<text text-anchor="start" x="2168" y="-309.5" font-family="Helvetica,sans-Serif" font-size="10.00">(DataOperator *op_ptr,</text>
<text text-anchor="start" x="2168" y="-298.5" font-family="Helvetica,sans-Serif" font-size="10.00"> int side, EntityType type,</text>
<text text-anchor="middle" x="2256" y="-287.5" font-family="Helvetica,sans-Serif" font-size="10.00"> EntitiesFieldData::EntData &amp;data)&gt;</text>
</a>
</g>
</g>
<!-- Node6&#45;&gt;Node5 -->
<g id="edge5" class="edge">
<title>Node6&#45;&gt;Node5</title>
<path fill="none" stroke="#9a32cd" stroke-dasharray="5,2" d="M2362.36,-326.42C2367.3,-327.16 2372.2,-327.86 2377,-328.5 2446.07,-337.69 2525.85,-343.71 2579.47,-347.09"/>
<polygon fill="#9a32cd" stroke="#9a32cd" points="2362.59,-322.91 2352.17,-324.83 2361.51,-329.83 2362.59,-322.91"/>
<text text-anchor="middle" x="2458" y="-346.5" font-family="Helvetica,sans-Serif" font-size="10.00"> doWorkRhsHook</text>
</g>
<!-- Node7 -->
<g id="node7" class="node">
<title>Node7</title>
<g id="a_node7"><a xlink:href="classbool.html" target="_top" xlink:title=" ">
<polygon fill="white" stroke="black" points="2237,-241 2237,-260 2275,-260 2275,-241 2237,-241"/>
<text text-anchor="middle" x="2256" y="-248" font-family="Helvetica,sans-Serif" font-size="10.00">bool</text>
</a>
</g>
</g>
<!-- Node7&#45;&gt;Node2 -->
<g id="edge88" class="edge">
<title>Node7&#45;&gt;Node2</title>
<path fill="none" stroke="#9a32cd" stroke-dasharray="5,2" d="M2285.15,-251.63C2307.22,-251.12 2337.67,-247.18 2359,-231.5 2372.78,-221.37 2362.59,-206.7 2377,-197.5 2426.51,-165.87 2582.25,-183.5 2641,-183.5 2641,-183.5 2641,-183.5 3186.5,-183.5 3265.6,-183.5 3356.43,-159.11 3402.07,-145.1"/>
<polygon fill="#9a32cd" stroke="#9a32cd" points="2285.06,-248.13 2275.06,-251.64 2285.06,-255.13 2285.06,-248.13"/>
<text text-anchor="middle" x="2922" y="-186.5" font-family="Helvetica,sans-Serif" font-size="10.00"> isDiag</text>
</g>
<!-- Node7&#45;&gt;Node5 -->
<g id="edge6" class="edge">
<title>Node7&#45;&gt;Node5</title>
<path fill="none" stroke="#9a32cd" stroke-dasharray="5,2" d="M2285.54,-247.38C2347.81,-241.03 2493.92,-228.7 2539,-247.5 2585.69,-266.97 2621.94,-319.36 2635.36,-340.98"/>
<polygon fill="#9a32cd" stroke="#9a32cd" points="2284.85,-243.93 2275.27,-248.45 2285.58,-250.9 2284.85,-243.93"/>
<text text-anchor="middle" x="2458" y="-316.5" font-family="Helvetica,sans-Serif" font-size="10.00"> doTris</text>
<text text-anchor="middle" x="2458" y="-305.5" font-family="Helvetica,sans-Serif" font-size="10.00">doQuads</text>
<text text-anchor="middle" x="2458" y="-294.5" font-family="Helvetica,sans-Serif" font-size="10.00">sYmm</text>
<text text-anchor="middle" x="2458" y="-283.5" font-family="Helvetica,sans-Serif" font-size="10.00">doPrisms</text>
<text text-anchor="middle" x="2458" y="-272.5" font-family="Helvetica,sans-Serif" font-size="10.00">doTets</text>
<text text-anchor="middle" x="2458" y="-261.5" font-family="Helvetica,sans-Serif" font-size="10.00">doVertices</text>
<text text-anchor="middle" x="2458" y="-250.5" font-family="Helvetica,sans-Serif" font-size="10.00">doEdges</text>
</g>
<!-- Node8 -->
<g id="node8" class="node">
<title>Node8</title>
<g id="a_node8"><a xlink:title=" ">
<polygon fill="white" stroke="#bfbfbf" points="2153,-352 2153,-437 2359,-437 2359,-352 2153,-352"/>
<text text-anchor="start" x="2161" y="-425" font-family="Helvetica,sans-Serif" font-size="10.00">function&lt; MoFEMErrorCode</text>
<text text-anchor="start" x="2161" y="-414" font-family="Helvetica,sans-Serif" font-size="10.00">(DataOperator *op_ptr,</text>
<text text-anchor="start" x="2161" y="-403" font-family="Helvetica,sans-Serif" font-size="10.00"> int row_side, int col_side,</text>
<text text-anchor="start" x="2161" y="-392" font-family="Helvetica,sans-Serif" font-size="10.00"> EntityType row_type, EntityType</text>
<text text-anchor="start" x="2161" y="-381" font-family="Helvetica,sans-Serif" font-size="10.00"> col_type, EntitiesFieldData::EntData</text>
<text text-anchor="start" x="2161" y="-370" font-family="Helvetica,sans-Serif" font-size="10.00"> &amp;row_data, EntitiesFieldData::EntData</text>
<text text-anchor="middle" x="2256" y="-359" font-family="Helvetica,sans-Serif" font-size="10.00"> &amp;col_data)&gt;</text>
</a>
</g>
</g>
<!-- Node8&#45;&gt;Node5 -->
<g id="edge7" class="edge">
<title>Node8&#45;&gt;Node5</title>
<path fill="none" stroke="#9a32cd" stroke-dasharray="5,2" d="M2369.14,-381.65C2437.68,-373.8 2522.76,-364.05 2579.3,-357.57"/>
<polygon fill="#9a32cd" stroke="#9a32cd" points="2368.69,-378.18 2359.15,-382.8 2369.48,-385.13 2368.69,-378.18"/>
<text text-anchor="middle" x="2458" y="-382.5" font-family="Helvetica,sans-Serif" font-size="10.00"> doWorkLhsHook</text>
</g>
<!-- Node9 -->
<g id="node9" class="node">
<title>Node9</title>
<g id="a_node9"><a xlink:title=" ">
<polygon fill="white" stroke="#bfbfbf" points="2179,-203 2179,-222 2333,-222 2333,-203 2179,-203"/>
<text text-anchor="middle" x="2256" y="-210" font-family="Helvetica,sans-Serif" font-size="10.00">array&lt; bool, MBMAXTYPE &gt;</text>
</a>
</g>
</g>
<!-- Node9&#45;&gt;Node5 -->
<g id="edge8" class="edge">
<title>Node9&#45;&gt;Node5</title>
<path fill="none" stroke="#9a32cd" stroke-dasharray="5,2" d="M2312.53,-201.4C2371.96,-192.4 2467.35,-186.4 2539,-222.5 2591.27,-248.84 2625.47,-315.67 2636.83,-340.77"/>
<polygon fill="#9a32cd" stroke="#9a32cd" points="2311.91,-197.96 2302.59,-202.99 2313.01,-204.87 2311.91,-197.96"/>
<text text-anchor="middle" x="2458" y="-225.5" font-family="Helvetica,sans-Serif" font-size="10.00"> doEntities</text>
</g>
<!-- Node10 -->
<g id="node10" class="node">
<title>Node10</title>
<g id="a_node10"><a xlink:title=" ">
<polygon fill="white" stroke="#bfbfbf" points="2607.5,-630 2607.5,-649 2676.5,-649 2676.5,-630 2607.5,-630"/>
<text text-anchor="middle" x="2642" y="-637" font-family="Helvetica,sans-Serif" font-size="10.00">FieldSpace</text>
</a>
</g>
</g>
<!-- Node10&#45;&gt;Node4 -->
<g id="edge9" class="edge">
<title>Node10&#45;&gt;Node4</title>
<path fill="none" stroke="#9a32cd" stroke-dasharray="5,2" d="M2686.82,-645.03C2722.45,-649.57 2774,-656.25 2819,-662.5 2824.85,-663.31 2830.89,-664.16 2836.97,-665.03"/>
<polygon fill="#9a32cd" stroke="#9a32cd" points="2687.12,-641.54 2676.76,-643.75 2686.24,-648.48 2687.12,-641.54"/>
<text text-anchor="middle" x="2782" y="-665.5" font-family="Helvetica,sans-Serif" font-size="10.00"> sPace</text>
</g>
<!-- Node11 -->
<g id="node11" class="node">
<title>Node11</title>
<g id="a_node11"><a xlink:title=" ">
<polygon fill="white" stroke="#bfbfbf" points="1122.5,-1313 1122.5,-1332 1160.5,-1332 1160.5,-1313 1122.5,-1313"/>
<text text-anchor="middle" x="1141.5" y="-1320" font-family="Helvetica,sans-Serif" font-size="10.00">char</text>
</a>
</g>
</g>
<!-- Node11&#45;&gt;Node4 -->
<g id="edge10" class="edge">
<title>Node11&#45;&gt;Node4</title>
<path fill="none" stroke="#9a32cd" stroke-dasharray="5,2" d="M1170.82,-1323.04C1230.98,-1324.13 1375.94,-1326.5 1497.5,-1326.5 1497.5,-1326.5 1497.5,-1326.5 2643,-1326.5 2785.65,-1326.5 2898.71,-790.03 2918.07,-692.59"/>
<polygon fill="#9a32cd" stroke="#9a32cd" points="1170.66,-1319.53 1160.6,-1322.85 1170.54,-1326.53 1170.66,-1319.53"/>
<text text-anchor="middle" x="2063" y="-1329.5" font-family="Helvetica,sans-Serif" font-size="10.00"> opType</text>
</g>
<!-- Node39 -->
<g id="node39" class="node">
<title>Node39</title>
<g id="a_node39"><a xlink:href="structMoFEM_1_1Problem.html" target="_top" xlink:title="keeps basic data about problem">
<polygon fill="white" stroke="black" points="1449,-985 1449,-1004 1548,-1004 1548,-985 1449,-985"/>
<text text-anchor="middle" x="1498.5" y="-992" font-family="Helvetica,sans-Serif" font-size="10.00">MoFEM::Problem</text>
</a>
</g>
</g>
<!-- Node11&#45;&gt;Node39 -->
<g id="edge54" class="edge">
<title>Node11&#45;&gt;Node39</title>
<path fill="none" stroke="#9a32cd" stroke-dasharray="5,2" d="M1170.41,-1317.49C1194.41,-1313.2 1229.98,-1306.87 1261,-1301.5 1291.2,-1296.27 1376.43,-1301.23 1397,-1278.5 1436.6,-1234.74 1376.7,-1058.41 1415,-1013.5 1423.49,-1003.55 1436.05,-998.22 1448.82,-995.5"/>
<polygon fill="#9a32cd" stroke="#9a32cd" points="1169.79,-1314.05 1160.56,-1319.25 1171.02,-1320.94 1169.79,-1314.05"/>
<text text-anchor="middle" x="1329" y="-1304.5" font-family="Helvetica,sans-Serif" font-size="10.00"> tagName</text>
</g>
<!-- Node12 -->
<g id="node12" class="node">
<title>Node12</title>
<g id="a_node12"><a xlink:href="structMoFEM_1_1ForcesAndSourcesCore.html" target="_top" xlink:title="structure to get information form mofem into EntitiesFieldData">
<polygon fill="white" stroke="black" points="2557,-706 2557,-725 2727,-725 2727,-706 2557,-706"/>
<text text-anchor="middle" x="2642" y="-713" font-family="Helvetica,sans-Serif" font-size="10.00">MoFEM::ForcesAndSourcesCore</text>
</a>
</g>
</g>
<!-- Node12&#45;&gt;Node4 -->
<g id="edge11" class="edge">
<title>Node12&#45;&gt;Node4</title>
<path fill="none" stroke="#9a32cd" stroke-dasharray="5,2" d="M2722.84,-704.63C2752.98,-700.52 2787.57,-695.8 2819,-691.5 2824.84,-690.7 2830.88,-689.87 2836.95,-689.04"/>
<polygon fill="#9a32cd" stroke="#9a32cd" points="2722.24,-701.18 2712.81,-706 2723.19,-708.11 2722.24,-701.18"/>
<text text-anchor="middle" x="2782" y="-703.5" font-family="Helvetica,sans-Serif" font-size="10.00"> ptrFE</text>
</g>
<!-- Node12&#45;&gt;Node12 -->
<g id="edge69" class="edge">
<title>Node12&#45;&gt;Node12</title>
<path fill="none" stroke="#9a32cd" stroke-dasharray="5,2" d="M2615.96,-734.53C2617.38,-739.63 2626.06,-743.5 2642,-743.5 2666.88,-743.5 2674.08,-734.07 2663.58,-725.26"/>
<polygon fill="#9a32cd" stroke="#9a32cd" points="2619.24,-735.79 2620.42,-725.26 2612.93,-732.75 2619.24,-735.79"/>
<text text-anchor="middle" x="2642" y="-757.5" font-family="Helvetica,sans-Serif" font-size="10.00"> sidePtrFE</text>
<text text-anchor="middle" x="2642" y="-746.5" font-family="Helvetica,sans-Serif" font-size="10.00">refinePtrFE</text>
</g>
<!-- Node13 -->
<g id="node13" class="node">
<title>Node13</title>
<g id="a_node13"><a xlink:href="structMoFEM_1_1FEMethod.html" target="_top" xlink:title="structure for User Loop Methods on finite elements">
<polygon fill="white" stroke="black" points="2202.5,-937 2202.5,-956 2309.5,-956 2309.5,-937 2202.5,-937"/>
<text text-anchor="middle" x="2256" y="-944" font-family="Helvetica,sans-Serif" font-size="10.00">MoFEM::FEMethod</text>
</a>
</g>
</g>
<!-- Node13&#45;&gt;Node12 -->
<g id="edge12" class="edge">
<title>Node13&#45;&gt;Node12</title>
<path fill="none" stroke="midnightblue" d="M2319.97,-955.09C2381.33,-960.05 2474.55,-958.14 2539,-913.5 2607.66,-865.94 2633.07,-757.68 2639.34,-725.01"/>
<polygon fill="midnightblue" stroke="midnightblue" points="2319.93,-951.58 2309.65,-954.17 2319.3,-958.55 2319.93,-951.58"/>
</g>
<!-- Node14 -->
<g id="node14" class="node">
<title>Node14</title>
<g id="a_node14"><a xlink:href="structMoFEM_1_1BasicMethod.html" target="_top" xlink:title="Data structure to exchange data between mofem and User Loop Methods.">
<polygon fill="white" stroke="black" points="1825,-921 1825,-940 1947,-940 1947,-921 1825,-921"/>
<text text-anchor="middle" x="1886" y="-928" font-family="Helvetica,sans-Serif" font-size="10.00">MoFEM::BasicMethod</text>
</a>
</g>
</g>
<!-- Node14&#45;&gt;Node13 -->
<g id="edge13" class="edge">
<title>Node14&#45;&gt;Node13</title>
<path fill="none" stroke="midnightblue" d="M1957.63,-933.57C2029.14,-936.68 2138.1,-941.42 2202.37,-944.21"/>
<polygon fill="midnightblue" stroke="midnightblue" points="1957.5,-930.06 1947.36,-933.12 1957.19,-937.06 1957.5,-930.06"/>
</g>
<!-- Node15 -->
<g id="node15" class="node">
<title>Node15</title>
<g id="a_node15"><a xlink:href="structMoFEM_1_1KspMethod.html" target="_top" xlink:title="data structure for ksp (linear solver) context">
<polygon fill="white" stroke="black" points="1442,-275 1442,-294 1555,-294 1555,-275 1442,-275"/>
<text text-anchor="middle" x="1498.5" y="-282" font-family="Helvetica,sans-Serif" font-size="10.00">MoFEM::KspMethod</text>
</a>
</g>
</g>
<!-- Node15&#45;&gt;Node14 -->
<g id="edge14" class="edge">
<title>Node15&#45;&gt;Node14</title>
<path fill="none" stroke="midnightblue" d="M1524.06,-299.55C1581.52,-336.35 1724.18,-437.24 1781,-564.5 1796.74,-599.75 1774.05,-882.04 1799,-911.5 1805.72,-919.44 1814.94,-924.5 1824.85,-927.65"/>
<polygon fill="midnightblue" stroke="midnightblue" points="1525.91,-296.58 1515.59,-294.2 1522.18,-302.5 1525.91,-296.58"/>
</g>
<!-- Node16 -->
<g id="node16" class="node">
<title>Node16</title>
<g id="a_node16"><a xlink:href="structMoFEM_1_1PetscData.html" target="_top" xlink:title=" ">
<polygon fill="white" stroke="black" points="1087.5,-479 1087.5,-498 1195.5,-498 1195.5,-479 1087.5,-479"/>
<text text-anchor="middle" x="1141.5" y="-486" font-family="Helvetica,sans-Serif" font-size="10.00">MoFEM::PetscData</text>
</a>
</g>
</g>
<!-- Node16&#45;&gt;Node15 -->
<g id="edge15" class="edge">
<title>Node16&#45;&gt;Node15</title>
<path fill="none" stroke="midnightblue" d="M1205.57,-486.98C1219.18,-483.98 1232.59,-478.65 1243,-469.5 1262.33,-452.53 1244.58,-434.3 1261,-414.5 1291.43,-377.8 1422.92,-317.3 1475.58,-294.03"/>
<polygon fill="midnightblue" stroke="midnightblue" points="1204.89,-483.55 1195.67,-488.77 1206.13,-490.43 1204.89,-483.55"/>
</g>
<!-- Node26 -->
<g id="node26" class="node">
<title>Node26</title>
<g id="a_node26"><a xlink:href="structMoFEM_1_1SnesMethod.html" target="_top" xlink:title="data structure for snes (nonlinear solver) context">
<polygon fill="white" stroke="black" points="1439,-456 1439,-475 1558,-475 1558,-456 1439,-456"/>
<text text-anchor="middle" x="1498.5" y="-463" font-family="Helvetica,sans-Serif" font-size="10.00">MoFEM::SnesMethod</text>
</a>
</g>
</g>
<!-- Node16&#45;&gt;Node26 -->
<g id="edge28" class="edge">
<title>Node16&#45;&gt;Node26</title>
<path fill="none" stroke="darkgreen" d="M1205.93,-484.39C1272.03,-480.11 1374.74,-473.45 1438.96,-469.29"/>
<polygon fill="darkgreen" stroke="darkgreen" points="1205.4,-480.92 1195.65,-485.06 1205.85,-487.9 1205.4,-480.92"/>
</g>
<!-- Node29 -->
<g id="node29" class="node">
<title>Node29</title>
<g id="a_node29"><a xlink:href="structMoFEM_1_1TSMethod.html" target="_top" xlink:title="data structure for TS (time stepping) context">
<polygon fill="white" stroke="black" points="1445,-767 1445,-786 1552,-786 1552,-767 1445,-767"/>
<text text-anchor="middle" x="1498.5" y="-774" font-family="Helvetica,sans-Serif" font-size="10.00">MoFEM::TSMethod</text>
</a>
</g>
</g>
<!-- Node16&#45;&gt;Node29 -->
<g id="edge34" class="edge">
<title>Node16&#45;&gt;Node29</title>
<path fill="none" stroke="darkgreen" d="M1205.78,-489.5C1271.31,-491.77 1368.11,-498.98 1397,-521.5 1479.75,-586.01 1494.51,-728.57 1497.01,-766.87"/>
<polygon fill="darkgreen" stroke="darkgreen" points="1205.65,-486 1195.54,-489.18 1205.43,-492.99 1205.65,-486"/>
</g>
<!-- Node17 -->
<g id="node17" class="node">
<title>Node17</title>
<g id="a_node17"><a xlink:href="structMoFEM_1_1UnknownInterface.html" target="_top" xlink:title="base class for all interface classes">
<polygon fill="white" stroke="black" points="735,-339 735,-358 883,-358 883,-339 735,-339"/>
<text text-anchor="middle" x="809" y="-346" font-family="Helvetica,sans-Serif" font-size="10.00">MoFEM::UnknownInterface</text>
</a>
</g>
</g>
<!-- Node17&#45;&gt;Node16 -->
<g id="edge16" class="edge">
<title>Node17&#45;&gt;Node16</title>
<path fill="none" stroke="midnightblue" d="M872.08,-337.9C919.24,-333.63 982.52,-336.61 1022,-373.5 1053.72,-403.13 1009.33,-438.78 1040,-469.5 1052.42,-481.94 1070.27,-487.6 1087.48,-489.86"/>
<polygon fill="midnightblue" stroke="midnightblue" points="871.56,-334.44 861.98,-338.95 872.28,-341.4 871.56,-334.44"/>
</g>
<!-- Node57 -->
<g id="node57" class="node">
<title>Node57</title>
<g id="a_node57"><a xlink:href="structMoFEM_1_1CoreInterface.html" target="_top" xlink:title="Interface.">
<polygon fill="white" stroke="black" points="1079,-88 1079,-107 1204,-107 1204,-88 1079,-88"/>
<text text-anchor="middle" x="1141.5" y="-95" font-family="Helvetica,sans-Serif" font-size="10.00">MoFEM::CoreInterface</text>
</a>
</g>
</g>
<!-- Node17&#45;&gt;Node57 -->
<g id="edge68" class="edge">
<title>Node17&#45;&gt;Node57</title>
<path fill="none" stroke="midnightblue" d="M818.62,-329.73C832.69,-300.56 862.9,-243.71 901,-205.5 952.8,-153.56 971.83,-143.59 1040,-116.5 1052.21,-111.65 1065.76,-108.01 1078.85,-105.3"/>
<polygon fill="midnightblue" stroke="midnightblue" points="815.43,-328.28 814.32,-338.82 821.76,-331.27 815.43,-328.28"/>
</g>
<!-- Node18 -->
<g id="node18" class="node">
<title>Node18</title>
<g id="a_node18"><a xlink:title=" ">
<polygon fill="white" stroke="#bfbfbf" points="386,-1033 386,-1096 627,-1096 627,-1033 386,-1033"/>
<text text-anchor="start" x="394" y="-1084" font-family="Helvetica,sans-Serif" font-size="10.00">multi_index_container</text>
<text text-anchor="start" x="394" y="-1073" font-family="Helvetica,sans-Serif" font-size="10.00">&lt; UIdTypeMap, indexed</text>
<text text-anchor="start" x="394" y="-1062" font-family="Helvetica,sans-Serif" font-size="10.00">_by&lt; hashed_unique&lt; member</text>
<text text-anchor="start" x="394" y="-1051" font-family="Helvetica,sans-Serif" font-size="10.00">&lt; UIdTypeMap, boost::typeindex</text>
<text text-anchor="middle" x="506.5" y="-1040" font-family="Helvetica,sans-Serif" font-size="10.00">::type_index, &amp;UIdTypeMap::classIdx &gt; &gt; &gt; &gt;</text>
</a>
</g>
</g>
<!-- Node18&#45;&gt;Node17 -->
<g id="edge17" class="edge">
<title>Node18&#45;&gt;Node17</title>
<path fill="none" stroke="#9a32cd" stroke-dasharray="5,2" d="M509.48,-1022.75C517.23,-905.36 554.87,-568.46 735,-377.5 743.42,-368.57 754.94,-362.34 766.35,-358.01"/>
<polygon fill="#9a32cd" stroke="#9a32cd" points="505.98,-1022.58 508.85,-1032.77 512.97,-1023.01 505.98,-1022.58"/>
<text text-anchor="middle" x="681" y="-489.5" font-family="Helvetica,sans-Serif" font-size="10.00"> iFaceTypeMap</text>
</g>
<!-- Node19 -->
<g id="node19" class="node">
<title>Node19</title>
<g id="a_node19"><a xlink:title=" ">
<polygon fill="white" stroke="#bfbfbf" points="0,-1205 0,-1224 125,-1224 125,-1205 0,-1205"/>
<text text-anchor="middle" x="62.5" y="-1212" font-family="Helvetica,sans-Serif" font-size="10.00">multi_index_container</text>
</a>
</g>
</g>
<!-- Node19&#45;&gt;Node14 -->
<g id="edge41" class="edge">
<title>Node19&#45;&gt;Node14</title>
<path fill="none" stroke="#9a32cd" stroke-dasharray="5,2" d="M88.06,-1229.24C153.46,-1267.04 338.28,-1364.5 505.5,-1364.5 505.5,-1364.5 505.5,-1364.5 1330,-1364.5 1552.63,-1364.5 1654.18,-1329.48 1781,-1146.5 1805.92,-1110.55 1770.26,-983.47 1799,-950.5 1805.75,-942.76 1814.86,-937.7 1824.62,-934.45"/>
<polygon fill="#9a32cd" stroke="#9a32cd" points="89.69,-1226.14 79.29,-1224.11 86.16,-1232.18 89.69,-1226.14"/>
<text text-anchor="middle" x="961.5" y="-1444.5" font-family="Helvetica,sans-Serif" font-size="10.00"> adjacenciesPtr</text>
<text text-anchor="middle" x="961.5" y="-1433.5" font-family="Helvetica,sans-Serif" font-size="10.00">refinedEntitiesPtr</text>
<text text-anchor="middle" x="961.5" y="-1422.5" font-family="Helvetica,sans-Serif" font-size="10.00">finiteElementsEntitiesPtr</text>
<text text-anchor="middle" x="961.5" y="-1411.5" font-family="Helvetica,sans-Serif" font-size="10.00">dofsPtr</text>
<text text-anchor="middle" x="961.5" y="-1400.5" font-family="Helvetica,sans-Serif" font-size="10.00">entitiesPtr</text>
<text text-anchor="middle" x="961.5" y="-1389.5" font-family="Helvetica,sans-Serif" font-size="10.00">finiteElementsPtr</text>
<text text-anchor="middle" x="961.5" y="-1378.5" font-family="Helvetica,sans-Serif" font-size="10.00">refinedFiniteElementsPtr</text>
<text text-anchor="middle" x="961.5" y="-1367.5" font-family="Helvetica,sans-Serif" font-size="10.00">fieldsPtr</text>
</g>
<!-- Node19&#45;&gt;Node18 -->
<g id="edge18" class="edge">
<title>Node19&#45;&gt;Node18</title>
<path fill="none" stroke="orange" stroke-dasharray="5,2" d="M101.34,-1201.66C169.77,-1178.44 315.92,-1128.84 412.43,-1096.08"/>
<polygon fill="orange" stroke="orange" points="100.17,-1198.36 91.82,-1204.89 102.42,-1204.99 100.17,-1198.36"/>
<text text-anchor="start" x="143" y="-1221.5" font-family="Helvetica,sans-Serif" font-size="10.00"> &lt; UIdTypeMap, indexed</text>
<text text-anchor="start" x="143" y="-1210.5" font-family="Helvetica,sans-Serif" font-size="10.00">_by&lt; hashed_unique&lt; member</text>
<text text-anchor="start" x="143" y="-1199.5" font-family="Helvetica,sans-Serif" font-size="10.00">&lt; UIdTypeMap, boost::typeindex</text>
<text text-anchor="middle" x="255.5" y="-1188.5" font-family="Helvetica,sans-Serif" font-size="10.00">::type_index, &amp;UIdTypeMap::classIdx &gt; &gt; &gt; &gt;</text>
</g>
<!-- Node20 -->
<g id="node20" class="node">
<title>Node20</title>
<g id="a_node20"><a xlink:title=" ">
<polygon fill="white" stroke="#bfbfbf" points="738.5,-467 738.5,-486 879.5,-486 879.5,-467 738.5,-467"/>
<text text-anchor="middle" x="809" y="-474" font-family="Helvetica,sans-Serif" font-size="10.00">static constexpr Switches</text>
</a>
</g>
</g>
<!-- Node20&#45;&gt;Node16 -->
<g id="edge19" class="edge">
<title>Node20&#45;&gt;Node16</title>
<path fill="none" stroke="#9a32cd" stroke-dasharray="5,2" d="M889.91,-475.22C929.64,-475.01 978.37,-475.38 1022,-477.5 1043.46,-478.54 1067.04,-480.56 1087.48,-482.58"/>
<polygon fill="#9a32cd" stroke="#9a32cd" points="889.72,-471.72 879.74,-475.29 889.77,-478.72 889.72,-471.72"/>
<text text-anchor="middle" x="961.5" y="-557.5" font-family="Helvetica,sans-Serif" font-size="10.00"> CtxSetX_TT</text>
<text text-anchor="middle" x="961.5" y="-546.5" font-family="Helvetica,sans-Serif" font-size="10.00">CtxSetX_T</text>
<text text-anchor="middle" x="961.5" y="-535.5" font-family="Helvetica,sans-Serif" font-size="10.00">CtxSetA</text>
<text text-anchor="middle" x="961.5" y="-524.5" font-family="Helvetica,sans-Serif" font-size="10.00">CtxSetB</text>
<text text-anchor="middle" x="961.5" y="-513.5" font-family="Helvetica,sans-Serif" font-size="10.00">CtxSetTime</text>
<text text-anchor="middle" x="961.5" y="-502.5" font-family="Helvetica,sans-Serif" font-size="10.00">CtxSetNone</text>
<text text-anchor="middle" x="961.5" y="-491.5" font-family="Helvetica,sans-Serif" font-size="10.00">CtxSetF</text>
<text text-anchor="middle" x="961.5" y="-480.5" font-family="Helvetica,sans-Serif" font-size="10.00">CtxSetX</text>
</g>
<!-- Node21 -->
<g id="node21" class="node">
<title>Node21</title>
<g id="a_node21"><a xlink:title=" ">
<polygon fill="white" stroke="#bfbfbf" points="791.5,-387 791.5,-406 826.5,-406 826.5,-387 791.5,-387"/>
<text text-anchor="middle" x="809" y="-394" font-family="Helvetica,sans-Serif" font-size="10.00">Mat</text>
</a>
</g>
</g>
<!-- Node21&#45;&gt;Node15 -->
<g id="edge25" class="edge">
<title>Node21&#45;&gt;Node15</title>
<path fill="none" stroke="#9a32cd" stroke-dasharray="5,2" d="M836.41,-391.33C851.67,-387.15 870.3,-379.87 883,-367.5 897.55,-353.33 888.18,-341.25 901,-325.5 948.56,-267.08 968.14,-251.1 1040,-228.5 1200.3,-178.1 1405.47,-248.07 1474.02,-274.84"/>
<polygon fill="#9a32cd" stroke="#9a32cd" points="835.39,-387.97 826.5,-393.75 837.05,-394.78 835.39,-387.97"/>
<text text-anchor="middle" x="1141.5" y="-242.5" font-family="Helvetica,sans-Serif" font-size="10.00"> ksp_A</text>
<text text-anchor="middle" x="1141.5" y="-231.5" font-family="Helvetica,sans-Serif" font-size="10.00">ksp_B</text>
</g>
<!-- Node21&#45;&gt;Node16 -->
<g id="edge20" class="edge">
<title>Node21&#45;&gt;Node16</title>
<path fill="none" stroke="#9a32cd" stroke-dasharray="5,2" d="M836.4,-389.07C880.13,-378.5 968.09,-364.79 1022,-407.5 1044.49,-425.32 1018.76,-450.2 1040,-469.5 1052.81,-481.14 1070.44,-486.67 1087.37,-489.06"/>
<polygon fill="#9a32cd" stroke="#9a32cd" points="835.35,-385.73 826.53,-391.59 837.08,-392.51 835.35,-385.73"/>
<text text-anchor="middle" x="961.5" y="-421.5" font-family="Helvetica,sans-Serif" font-size="10.00"> A</text>
<text text-anchor="middle" x="961.5" y="-410.5" font-family="Helvetica,sans-Serif" font-size="10.00">B</text>
</g>
<!-- Node21&#45;&gt;Node26 -->
<g id="edge30" class="edge">
<title>Node21&#45;&gt;Node26</title>
<path fill="none" stroke="#9a32cd" stroke-dasharray="5,2" d="M836.25,-385.25C904.24,-357.66 1091.4,-291.53 1243,-329.5 1344.32,-354.87 1449.42,-429.13 1484.93,-455.81"/>
<polygon fill="#9a32cd" stroke="#9a32cd" points="834.64,-382.13 826.74,-389.18 837.32,-388.6 834.64,-382.13"/>
<text text-anchor="middle" x="1141.5" y="-343.5" font-family="Helvetica,sans-Serif" font-size="10.00"> snes_A</text>
<text text-anchor="middle" x="1141.5" y="-332.5" font-family="Helvetica,sans-Serif" font-size="10.00">snes_B</text>
</g>
<!-- Node21&#45;&gt;Node29 -->
<g id="edge35" class="edge">
<title>Node21&#45;&gt;Node29</title>
<path fill="none" stroke="#9a32cd" stroke-dasharray="5,2" d="M836.33,-406.22C854.48,-412.87 879.16,-421.84 901,-429.5 954.58,-448.29 979.4,-432.96 1022,-470.5 1035.72,-482.59 1025.17,-496.8 1040,-507.5 1076.9,-534.13 1198.16,-526.73 1243,-534.5 1311.97,-546.46 1342,-524.21 1397,-567.5 1465.34,-621.29 1489.9,-733.1 1495.91,-766.73"/>
<polygon fill="#9a32cd" stroke="#9a32cd" points="837.33,-402.85 826.73,-402.69 834.91,-409.42 837.33,-402.85"/>
<text text-anchor="middle" x="1141.5" y="-548.5" font-family="Helvetica,sans-Serif" font-size="10.00"> ts_A</text>
<text text-anchor="middle" x="1141.5" y="-537.5" font-family="Helvetica,sans-Serif" font-size="10.00">ts_B</text>
</g>
<!-- Node22 -->
<g id="node22" class="node">
<title>Node22</title>
<g id="a_node22"><a xlink:title=" ">
<polygon fill="white" stroke="#bfbfbf" points="772.5,-578 772.5,-597 845.5,-597 845.5,-578 772.5,-578"/>
<text text-anchor="middle" x="809" y="-585" font-family="Helvetica,sans-Serif" font-size="10.00">bitset&lt; 8 &gt;</text>
</a>
</g>
</g>
<!-- Node22&#45;&gt;Node16 -->
<g id="edge21" class="edge">
<title>Node22&#45;&gt;Node16</title>
<path fill="none" stroke="#9a32cd" stroke-dasharray="5,2" d="M855.99,-588.36C910.53,-588.44 997.2,-585.28 1022,-565.5 1041.45,-549.99 1021.61,-529.25 1040,-512.5 1052.93,-500.72 1070.59,-494.43 1087.5,-491.16"/>
<polygon fill="#9a32cd" stroke="#9a32cd" points="855.88,-584.86 845.86,-588.31 855.85,-591.86 855.88,-584.86"/>
<text text-anchor="middle" x="961.5" y="-590.5" font-family="Helvetica,sans-Serif" font-size="10.00"> data_ctx</text>
</g>
<!-- Node23 -->
<g id="node23" class="node">
<title>Node23</title>
<g id="a_node23"><a xlink:title=" ">
<polygon fill="white" stroke="#bfbfbf" points="792,-643 792,-662 826,-662 826,-643 792,-643"/>
<text text-anchor="middle" x="809" y="-650" font-family="Helvetica,sans-Serif" font-size="10.00">Vec</text>
</a>
</g>
</g>
<!-- Node23&#45;&gt;Node15 -->
<g id="edge26" class="edge">
<title>Node23&#45;&gt;Node15</title>
<path fill="none" stroke="#9a32cd" stroke-dasharray="5,2" d="M835.89,-643.24C852.3,-635.92 872.38,-624 883,-606.5 908.33,-564.75 866.87,-422.42 901,-387.5 954.42,-332.85 1176.15,-388.53 1243,-351.5 1254.36,-345.21 1249.9,-335.23 1261,-328.5 1290.72,-310.47 1381.83,-297.28 1441.89,-290.26"/>
<polygon fill="#9a32cd" stroke="#9a32cd" points="834.17,-640.16 826.26,-647.21 836.83,-646.63 834.17,-640.16"/>
<text text-anchor="middle" x="1141.5" y="-367.5" font-family="Helvetica,sans-Serif" font-size="10.00"> ksp_f</text>
</g>
<!-- Node23&#45;&gt;Node16 -->
<g id="edge22" class="edge">
<title>Node23&#45;&gt;Node16</title>
<path fill="none" stroke="#9a32cd" stroke-dasharray="5,2" d="M835.79,-643C853.86,-636.59 878.68,-628.27 901,-622.5 954,-608.79 982.98,-637.89 1022,-599.5 1050.15,-571.81 1012.51,-540.84 1040,-512.5 1052.37,-499.75 1070.2,-493.28 1087.42,-490.13"/>
<polygon fill="#9a32cd" stroke="#9a32cd" points="834.47,-639.75 826.25,-646.43 836.84,-646.34 834.47,-639.75"/>
<text text-anchor="middle" x="961.5" y="-658.5" font-family="Helvetica,sans-Serif" font-size="10.00"> f</text>
<text text-anchor="middle" x="961.5" y="-647.5" font-family="Helvetica,sans-Serif" font-size="10.00">x</text>
<text text-anchor="middle" x="961.5" y="-636.5" font-family="Helvetica,sans-Serif" font-size="10.00">x_t</text>
<text text-anchor="middle" x="961.5" y="-625.5" font-family="Helvetica,sans-Serif" font-size="10.00">x_tt</text>
</g>
<!-- Node23&#45;&gt;Node26 -->
<g id="edge31" class="edge">
<title>Node23&#45;&gt;Node26</title>
<path fill="none" stroke="#9a32cd" stroke-dasharray="5,2" d="M835.61,-663.97C878.84,-681.41 966.96,-708.37 1022,-666.5 1045.86,-648.35 1018.07,-621.93 1040,-601.5 1107.35,-538.76 1154.5,-585.78 1243,-560.5 1330.97,-535.37 1431.77,-493.77 1475.43,-475.1"/>
<polygon fill="#9a32cd" stroke="#9a32cd" points="836.69,-660.63 826.12,-660 833.99,-667.09 836.69,-660.63"/>
<text text-anchor="middle" x="1141.5" y="-615.5" font-family="Helvetica,sans-Serif" font-size="10.00"> snes_x</text>
<text text-anchor="middle" x="1141.5" y="-604.5" font-family="Helvetica,sans-Serif" font-size="10.00">snes_f</text>
</g>
<!-- Node23&#45;&gt;Node29 -->
<g id="edge39" class="edge">
<title>Node23&#45;&gt;Node29</title>
<path fill="none" stroke="#9a32cd" stroke-dasharray="5,2" d="M835.12,-664.35C853.34,-672.88 878.61,-684.59 901,-694.5 962.36,-721.68 975.66,-734.41 1040,-753.5 1127.84,-779.57 1158.62,-753.78 1243,-789.5 1252.09,-793.35 1251.61,-799.46 1261,-802.5 1334.89,-826.39 1427.8,-801.17 1471.94,-786.09"/>
<polygon fill="#9a32cd" stroke="#9a32cd" points="836.58,-661.17 826.04,-660.09 833.61,-667.5 836.58,-661.17"/>
<text text-anchor="middle" x="1141.5" y="-825.5" font-family="Helvetica,sans-Serif" font-size="10.00"> ts_u</text>
<text text-anchor="middle" x="1141.5" y="-814.5" font-family="Helvetica,sans-Serif" font-size="10.00">ts_F</text>
<text text-anchor="middle" x="1141.5" y="-803.5" font-family="Helvetica,sans-Serif" font-size="10.00">ts_u_t</text>
<text text-anchor="middle" x="1141.5" y="-792.5" font-family="Helvetica,sans-Serif" font-size="10.00">ts_u_tt</text>
</g>
<!-- Node24 -->
<g id="node24" class="node">
<title>Node24</title>
<g id="a_node24"><a xlink:title=" ">
<polygon fill="white" stroke="#bfbfbf" points="1124,-260 1124,-279 1159,-279 1159,-260 1124,-260"/>
<text text-anchor="middle" x="1141.5" y="-267" font-family="Helvetica,sans-Serif" font-size="10.00">KSP</text>
</a>
</g>
</g>
<!-- Node24&#45;&gt;Node15 -->
<g id="edge23" class="edge">
<title>Node24&#45;&gt;Node15</title>
<path fill="none" stroke="#9a32cd" stroke-dasharray="5,2" d="M1169.29,-270.63C1227.06,-273.07 1364.41,-278.88 1441.88,-282.15"/>
<polygon fill="#9a32cd" stroke="#9a32cd" points="1169.29,-267.13 1159.15,-270.2 1168.99,-274.12 1169.29,-267.13"/>
<text text-anchor="middle" x="1329" y="-282.5" font-family="Helvetica,sans-Serif" font-size="10.00"> ksp</text>
</g>
<!-- Node25 -->
<g id="node25" class="node">
<title>Node25</title>
<g id="a_node25"><a xlink:title=" ">
<polygon fill="white" stroke="#bfbfbf" points="1104.5,-164 1104.5,-183 1178.5,-183 1178.5,-164 1104.5,-164"/>
<text text-anchor="middle" x="1141.5" y="-171" font-family="Helvetica,sans-Serif" font-size="10.00">KSPContext</text>
</a>
</g>
</g>
<!-- Node25&#45;&gt;Node15 -->
<g id="edge24" class="edge">
<title>Node25&#45;&gt;Node15</title>
<path fill="none" stroke="#9a32cd" stroke-dasharray="5,2" d="M1188.8,-171.98C1252.83,-170.75 1364.25,-172.09 1397,-194.5 1412.09,-204.83 1402.86,-217.83 1415,-231.5 1432.18,-250.85 1458.05,-265.9 1476.22,-274.94"/>
<polygon fill="#9a32cd" stroke="#9a32cd" points="1188.49,-168.48 1178.57,-172.2 1188.64,-175.48 1188.49,-168.48"/>
<text text-anchor="middle" x="1329" y="-197.5" font-family="Helvetica,sans-Serif" font-size="10.00"> ksp_ctx</text>
</g>
<!-- Node26&#45;&gt;Node14 -->
<g id="edge27" class="edge">
<title>Node26&#45;&gt;Node14</title>
<path fill="none" stroke="midnightblue" d="M1517.51,-482.33C1567.89,-530.51 1711.17,-675.21 1781,-825.5 1797.46,-860.91 1771.54,-883.73 1799,-911.5 1806.1,-918.68 1815.25,-923.41 1824.93,-926.5"/>
<polygon fill="midnightblue" stroke="midnightblue" points="1519.65,-479.54 1509.99,-475.2 1514.83,-484.62 1519.65,-479.54"/>
</g>
<!-- Node27 -->
<g id="node27" class="node">
<title>Node27</title>
<g id="a_node27"><a xlink:title=" ">
<polygon fill="white" stroke="#bfbfbf" points="1120.5,-403 1120.5,-422 1162.5,-422 1162.5,-403 1120.5,-403"/>
<text text-anchor="middle" x="1141.5" y="-410" font-family="Helvetica,sans-Serif" font-size="10.00">SNES</text>
</a>
</g>
</g>
<!-- Node27&#45;&gt;Node26 -->
<g id="edge29" class="edge">
<title>Node27&#45;&gt;Node26</title>
<path fill="none" stroke="#9a32cd" stroke-dasharray="5,2" d="M1172.85,-413.28C1220.84,-414.96 1317.01,-420.11 1397,-435.5 1422.39,-440.39 1450.54,-449.08 1470.57,-455.86"/>
<polygon fill="#9a32cd" stroke="#9a32cd" points="1172.92,-409.79 1162.82,-412.96 1172.7,-416.78 1172.92,-409.79"/>
<text text-anchor="middle" x="1329" y="-438.5" font-family="Helvetica,sans-Serif" font-size="10.00"> snes</text>
</g>
<!-- Node28 -->
<g id="node28" class="node">
<title>Node28</title>
<g id="a_node28"><a xlink:title=" ">
<polygon fill="white" stroke="#bfbfbf" points="1101.5,-441 1101.5,-460 1181.5,-460 1181.5,-441 1101.5,-441"/>
<text text-anchor="middle" x="1141.5" y="-448" font-family="Helvetica,sans-Serif" font-size="10.00">SNESContext</text>
</a>
</g>
</g>
<!-- Node28&#45;&gt;Node26 -->
<g id="edge32" class="edge">
<title>Node28&#45;&gt;Node26</title>
<path fill="none" stroke="#9a32cd" stroke-dasharray="5,2" d="M1191.92,-450.31C1243.24,-450.38 1325.81,-451.27 1397,-455.5 1410.56,-456.31 1425.13,-457.54 1438.84,-458.87"/>
<polygon fill="#9a32cd" stroke="#9a32cd" points="1191.78,-446.81 1181.78,-450.3 1191.78,-453.81 1191.78,-446.81"/>
<text text-anchor="middle" x="1329" y="-458.5" font-family="Helvetica,sans-Serif" font-size="10.00"> snes_ctx</text>
</g>
<!-- Node29&#45;&gt;Node14 -->
<g id="edge33" class="edge">
<title>Node29&#45;&gt;Node14</title>
<path fill="none" stroke="midnightblue" d="M1526.34,-790.88C1577.85,-817.96 1694.75,-876.9 1799,-911.5 1810.03,-915.16 1822.09,-918.32 1833.6,-920.96"/>
<polygon fill="midnightblue" stroke="midnightblue" points="1527.69,-787.63 1517.21,-786.05 1524.42,-793.82 1527.69,-787.63"/>
</g>
<!-- Node30 -->
<g id="node30" class="node">
<title>Node30</title>
<g id="a_node30"><a xlink:title=" ">
<polygon fill="white" stroke="#bfbfbf" points="1109,-633 1109,-652 1174,-652 1174,-633 1109,-633"/>
<text text-anchor="middle" x="1141.5" y="-640" font-family="Helvetica,sans-Serif" font-size="10.00">PetscReal</text>
</a>
</g>
</g>
<!-- Node30&#45;&gt;Node29 -->
<g id="edge36" class="edge">
<title>Node30&#45;&gt;Node29</title>
<path fill="none" stroke="#9a32cd" stroke-dasharray="5,2" d="M1184.22,-639.22C1203.41,-636.11 1225.7,-630.1 1243,-618.5 1254.37,-610.88 1248.81,-599.74 1261,-593.5 1314.8,-565.94 1344.98,-562.72 1397,-593.5 1464.07,-633.18 1489.37,-735.29 1495.75,-766.98"/>
<polygon fill="#9a32cd" stroke="#9a32cd" points="1183.64,-635.77 1174.23,-640.63 1184.62,-642.7 1183.64,-635.77"/>
<text text-anchor="middle" x="1329" y="-629.5" font-family="Helvetica,sans-Serif" font-size="10.00"> ts_a</text>
<text text-anchor="middle" x="1329" y="-618.5" font-family="Helvetica,sans-Serif" font-size="10.00">ts_t</text>
<text text-anchor="middle" x="1329" y="-607.5" font-family="Helvetica,sans-Serif" font-size="10.00">ts_dt</text>
<text text-anchor="middle" x="1329" y="-596.5" font-family="Helvetica,sans-Serif" font-size="10.00">ts_aa</text>
</g>
<!-- Node31 -->
<g id="node31" class="node">
<title>Node31</title>
<g id="a_node31"><a xlink:title=" ">
<polygon fill="white" stroke="#bfbfbf" points="1108,-843 1108,-862 1175,-862 1175,-843 1108,-843"/>
<text text-anchor="middle" x="1141.5" y="-850" font-family="Helvetica,sans-Serif" font-size="10.00">TSContext</text>
</a>
</g>
</g>
<!-- Node31&#45;&gt;Node29 -->
<g id="edge37" class="edge">
<title>Node31&#45;&gt;Node29</title>
<path fill="none" stroke="#9a32cd" stroke-dasharray="5,2" d="M1185.08,-854.01C1236.43,-854.66 1324.83,-852.01 1397,-830.5 1430.41,-820.54 1465.38,-798.75 1483.98,-786.11"/>
<polygon fill="#9a32cd" stroke="#9a32cd" points="1185.08,-850.51 1175.02,-853.84 1184.95,-857.51 1185.08,-850.51"/>
<text text-anchor="middle" x="1329" y="-854.5" font-family="Helvetica,sans-Serif" font-size="10.00"> ts_ctx</text>
</g>
<!-- Node32 -->
<g id="node32" class="node">
<title>Node32</title>
<g id="a_node32"><a xlink:title=" ">
<polygon fill="white" stroke="#bfbfbf" points="1113.5,-725 1113.5,-744 1169.5,-744 1169.5,-725 1113.5,-725"/>
<text text-anchor="middle" x="1141.5" y="-732" font-family="Helvetica,sans-Serif" font-size="10.00">PetscInt</text>
</a>
</g>
</g>
<!-- Node32&#45;&gt;Node29 -->
<g id="edge38" class="edge">
<title>Node32&#45;&gt;Node29</title>
<path fill="none" stroke="#9a32cd" stroke-dasharray="5,2" d="M1179.9,-739.84C1199.33,-743.49 1223.1,-749.37 1243,-758.5 1251.97,-762.61 1251.64,-768.36 1261,-771.5 1321.55,-791.79 1395.8,-789.27 1444.77,-784.17"/>
<polygon fill="#9a32cd" stroke="#9a32cd" points="1180.35,-736.36 1169.89,-738.08 1179.14,-743.26 1180.35,-736.36"/>
<text text-anchor="middle" x="1329" y="-790.5" font-family="Helvetica,sans-Serif" font-size="10.00"> ts_step</text>
</g>
<!-- Node33 -->
<g id="node33" class="node">
<title>Node33</title>
<g id="a_node33"><a xlink:title=" ">
<polygon fill="white" stroke="#bfbfbf" points="1127,-687 1127,-706 1156,-706 1156,-687 1127,-687"/>
<text text-anchor="middle" x="1141.5" y="-694" font-family="Helvetica,sans-Serif" font-size="10.00">TS</text>
</a>
</g>
</g>
<!-- Node33&#45;&gt;Node29 -->
<g id="edge40" class="edge">
<title>Node33&#45;&gt;Node29</title>
<path fill="none" stroke="#9a32cd" stroke-dasharray="5,2" d="M1166.4,-696.49C1187.84,-697.49 1219.47,-701.52 1243,-715.5 1253.86,-721.95 1250.03,-731.23 1261,-737.5 1314.1,-767.84 1336.67,-748.44 1397,-758.5 1412.82,-761.14 1430.02,-764.16 1445.64,-766.97"/>
<polygon fill="#9a32cd" stroke="#9a32cd" points="1166.3,-692.99 1156.21,-696.21 1166.11,-699.99 1166.3,-692.99"/>
<text text-anchor="middle" x="1329" y="-761.5" font-family="Helvetica,sans-Serif" font-size="10.00"> ts</text>
</g>
<!-- Node34 -->
<g id="node34" class="node">
<title>Node34</title>
<g id="a_node34"><a xlink:title=" ">
<polygon fill="white" stroke="#bfbfbf" points="1454,-1099 1454,-1118 1543,-1118 1543,-1099 1454,-1099"/>
<text text-anchor="middle" x="1498.5" y="-1106" font-family="Helvetica,sans-Serif" font-size="10.00">pair&lt; int, int &gt;</text>
</a>
</g>
</g>
<!-- Node34&#45;&gt;Node14 -->
<g id="edge42" class="edge">
<title>Node34&#45;&gt;Node14</title>
<path fill="none" stroke="#9a32cd" stroke-dasharray="5,2" d="M1544.25,-1120.32C1606.21,-1133.7 1717.64,-1146.55 1781,-1086.5 1825.25,-1044.56 1758.03,-995.65 1799,-950.5 1805.9,-942.89 1815.08,-937.9 1824.87,-934.67"/>
<polygon fill="#9a32cd" stroke="#9a32cd" points="1544.9,-1116.87 1534.38,-1118.09 1543.36,-1123.7 1544.9,-1116.87"/>
<text text-anchor="middle" x="1690.5" y="-1134.5" font-family="Helvetica,sans-Serif" font-size="10.00"> loHiFERank</text>
</g>
<!-- Node35 -->
<g id="node35" class="node">
<title>Node35</title>
<g id="a_node35"><a xlink:title=" ">
<polygon fill="white" stroke="#bfbfbf" points="1428.5,-1061 1428.5,-1080 1568.5,-1080 1568.5,-1061 1428.5,-1061"/>
<text text-anchor="middle" x="1498.5" y="-1068" font-family="Helvetica,sans-Serif" font-size="10.00">weak_ptr&lt; CacheTuple &gt;</text>
</a>
</g>
</g>
<!-- Node35&#45;&gt;Node14 -->
<g id="edge43" class="edge">
<title>Node35&#45;&gt;Node14</title>
<path fill="none" stroke="#9a32cd" stroke-dasharray="5,2" d="M1578.61,-1074.68C1651.36,-1076.74 1752.18,-1074.48 1781,-1048.5 1813.89,-1018.85 1768.43,-982.54 1799,-950.5 1805.98,-943.18 1815.08,-938.31 1824.74,-935.1"/>
<polygon fill="#9a32cd" stroke="#9a32cd" points="1578.64,-1071.18 1568.54,-1074.37 1578.42,-1078.18 1578.64,-1071.18"/>
<text text-anchor="middle" x="1690.5" y="-1077.5" font-family="Helvetica,sans-Serif" font-size="10.00"> cacheWeakPtr</text>
</g>
<!-- Node36 -->
<g id="node36" class="node">
<title>Node36</title>
<g id="a_node36"><a xlink:title=" ">
<polygon fill="white" stroke="#bfbfbf" points="1442.5,-1023 1442.5,-1042 1554.5,-1042 1554.5,-1023 1442.5,-1023"/>
<text text-anchor="middle" x="1498.5" y="-1030" font-family="Helvetica,sans-Serif" font-size="10.00">unique_ptr&lt; bool &gt;</text>
</a>
</g>
</g>
<!-- Node36&#45;&gt;Node14 -->
<g id="edge44" class="edge">
<title>Node36&#45;&gt;Node14</title>
<path fill="none" stroke="#9a32cd" stroke-dasharray="5,2" d="M1564.66,-1027.56C1645.17,-1021.2 1772.63,-1010.17 1781,-1003.5 1800.45,-987.99 1780.56,-967.2 1799,-950.5 1806.27,-943.91 1815.28,-939.37 1824.71,-936.26"/>
<polygon fill="#9a32cd" stroke="#9a32cd" points="1564.3,-1024.08 1554.6,-1028.35 1564.85,-1031.06 1564.3,-1024.08"/>
<text text-anchor="middle" x="1690.5" y="-1037.5" font-family="Helvetica,sans-Serif" font-size="10.00"> matAssembleSwitch</text>
<text text-anchor="middle" x="1690.5" y="-1026.5" font-family="Helvetica,sans-Serif" font-size="10.00">vecAssembleSwitch</text>
</g>
<!-- Node37 -->
<g id="node37" class="node">
<title>Node37</title>
<g id="a_node37"><a xlink:title=" ">
<polygon fill="white" stroke="#bfbfbf" points="1127,-126 1127,-145 1156,-145 1156,-126 1127,-126"/>
<text text-anchor="middle" x="1141.5" y="-133" font-family="Helvetica,sans-Serif" font-size="10.00">int</text>
</a>
</g>
</g>
<!-- Node37&#45;&gt;Node2 -->
<g id="edge87" class="edge">
<title>Node37&#45;&gt;Node2</title>
<path fill="none" stroke="#9a32cd" stroke-dasharray="5,2" d="M1166.18,-135.5C1223.21,-135.5 1372.7,-135.5 1497.5,-135.5 1497.5,-135.5 1497.5,-135.5 3186.5,-135.5 3249.35,-135.5 3321.26,-135.5 3370.84,-135.5"/>
<polygon fill="#9a32cd" stroke="#9a32cd" points="1166.04,-132 1156.04,-135.5 1166.04,-139 1166.04,-132"/>
<text text-anchor="middle" x="2458" y="-160.5" font-family="Helvetica,sans-Serif" font-size="10.00"> nbIntegrationPts</text>
<text text-anchor="middle" x="2458" y="-149.5" font-family="Helvetica,sans-Serif" font-size="10.00">nbCols</text>
<text text-anchor="middle" x="2458" y="-138.5" font-family="Helvetica,sans-Serif" font-size="10.00">nbRows</text>
</g>
<!-- Node37&#45;&gt;Node14 -->
<g id="edge45" class="edge">
<title>Node37&#45;&gt;Node14</title>
<path fill="none" stroke="#9a32cd" stroke-dasharray="5,2" d="M1166.06,-138.34C1211.14,-143.93 1312.62,-157.36 1397,-174.5 1581.53,-211.99 1689.29,-189.04 1781,-353.5 1811.21,-407.68 1759.38,-863.77 1799,-911.5 1805.64,-919.5 1814.82,-924.59 1824.72,-927.75"/>
<polygon fill="#9a32cd" stroke="#9a32cd" points="1166.45,-134.86 1156.1,-137.11 1165.6,-141.81 1166.45,-134.86"/>
<text text-anchor="middle" x="1498.5" y="-240.5" font-family="Helvetica,sans-Serif" font-size="10.00"> sIze</text>
<text text-anchor="middle" x="1498.5" y="-229.5" font-family="Helvetica,sans-Serif" font-size="10.00">loopSize</text>
<text text-anchor="middle" x="1498.5" y="-218.5" font-family="Helvetica,sans-Serif" font-size="10.00">nInTheLoop</text>
<text text-anchor="middle" x="1498.5" y="-207.5" font-family="Helvetica,sans-Serif" font-size="10.00">rAnk</text>
</g>
<!-- Node37&#45;&gt;Node39 -->
<g id="edge57" class="edge">
<title>Node37&#45;&gt;Node39</title>
<path fill="none" stroke="#9a32cd" stroke-dasharray="5,2" d="M1166.23,-132.44C1189.6,-130.91 1224.4,-132.89 1243,-154.5 1278.03,-195.21 1225,-597.65 1261,-637.5 1301.91,-682.79 1355.55,-611.71 1397,-656.5 1441.31,-704.38 1380,-894.45 1415,-949.5 1426.03,-966.85 1446.19,-978.02 1463.82,-984.89"/>
<polygon fill="#9a32cd" stroke="#9a32cd" points="1165.74,-128.97 1156.1,-133.37 1166.38,-135.94 1165.74,-128.97"/>
<text text-anchor="middle" x="1329" y="-725.5" font-family="Helvetica,sans-Serif" font-size="10.00"> tagNameSize</text>
<text text-anchor="middle" x="1329" y="-714.5" font-family="Helvetica,sans-Serif" font-size="10.00">nbDofsRow</text>
<text text-anchor="middle" x="1329" y="-703.5" font-family="Helvetica,sans-Serif" font-size="10.00">nbLocDofsCol</text>
<text text-anchor="middle" x="1329" y="-692.5" font-family="Helvetica,sans-Serif" font-size="10.00">nbDofsCol</text>
<text text-anchor="middle" x="1329" y="-681.5" font-family="Helvetica,sans-Serif" font-size="10.00">nbGhostDofsRow</text>
<text text-anchor="middle" x="1329" y="-670.5" font-family="Helvetica,sans-Serif" font-size="10.00">nbGhostDofsCol</text>
<text text-anchor="middle" x="1329" y="-659.5" font-family="Helvetica,sans-Serif" font-size="10.00">nbLocDofsRow</text>
</g>
<!-- Node38 -->
<g id="node38" class="node">
<title>Node38</title>
<g id="a_node38"><a xlink:title=" ">
<polygon fill="white" stroke="#bfbfbf" points="1415,-921 1415,-940 1582,-940 1582,-921 1415,-921"/>
<text text-anchor="middle" x="1498.5" y="-928" font-family="Helvetica,sans-Serif" font-size="10.00">function&lt; MoFEMErrorCode()&gt;</text>
</a>
</g>
</g>
<!-- Node38&#45;&gt;Node14 -->
<g id="edge46" class="edge">
<title>Node38&#45;&gt;Node14</title>
<path fill="none" stroke="#9a32cd" stroke-dasharray="5,2" d="M1592.21,-930.5C1664.4,-930.5 1762.51,-930.5 1824.8,-930.5"/>
<polygon fill="#9a32cd" stroke="#9a32cd" points="1592.2,-927 1582.2,-930.5 1592.2,-934 1592.2,-927"/>
<text text-anchor="middle" x="1690.5" y="-955.5" font-family="Helvetica,sans-Serif" font-size="10.00"> preProcessHook</text>
<text text-anchor="middle" x="1690.5" y="-944.5" font-family="Helvetica,sans-Serif" font-size="10.00">operatorHook</text>
<text text-anchor="middle" x="1690.5" y="-933.5" font-family="Helvetica,sans-Serif" font-size="10.00">postProcessHook</text>
</g>
<!-- Node39&#45;&gt;Node14 -->
<g id="edge47" class="edge">
<title>Node39&#45;&gt;Node14</title>
<path fill="none" stroke="#9a32cd" stroke-dasharray="5,2" d="M1558.36,-993.32C1628.96,-991.13 1742.6,-984.94 1781,-967.5 1791.02,-962.95 1789.3,-955.7 1799,-950.5 1807.1,-946.15 1816.13,-942.74 1825.21,-940.07"/>
<polygon fill="#9a32cd" stroke="#9a32cd" points="1558.17,-989.82 1548.27,-993.61 1558.37,-996.82 1558.17,-989.82"/>
<text text-anchor="middle" x="1690.5" y="-994.5" font-family="Helvetica,sans-Serif" font-size="10.00"> problemPtr</text>
</g>
<!-- Node40 -->
<g id="node40" class="node">
<title>Node40</title>
<g id="a_node40"><a xlink:title=" ">
<polygon fill="white" stroke="#bfbfbf" points="1058,-919.5 1058,-949.5 1225,-949.5 1225,-919.5 1058,-919.5"/>
<text text-anchor="start" x="1066" y="-937.5" font-family="Helvetica,sans-Serif" font-size="10.00">shared_ptr&lt; NumeredEntFinite</text>
<text text-anchor="middle" x="1141.5" y="-926.5" font-family="Helvetica,sans-Serif" font-size="10.00">Element_multiIndex &gt;</text>
</a>
</g>
</g>
<!-- Node40&#45;&gt;Node39 -->
<g id="edge48" class="edge">
<title>Node40&#45;&gt;Node39</title>
<path fill="none" stroke="#9a32cd" stroke-dasharray="5,2" d="M1235.28,-940.26C1283.83,-944.39 1344.02,-951.27 1397,-962.5 1423.15,-968.04 1452.16,-977.67 1472.27,-984.92"/>
<polygon fill="#9a32cd" stroke="#9a32cd" points="1235.36,-936.75 1225.11,-939.42 1234.79,-943.73 1235.36,-936.75"/>
<text text-anchor="middle" x="1329" y="-965.5" font-family="Helvetica,sans-Serif" font-size="10.00"> numeredFiniteElementsPtr</text>
</g>
<!-- Node41 -->
<g id="node41" class="node">
<title>Node41</title>
<g id="a_node41"><a xlink:title=" ">
<polygon fill="white" stroke="#bfbfbf" points="1112,-881 1112,-900 1171,-900 1171,-881 1112,-881"/>
<text text-anchor="middle" x="1141.5" y="-888" font-family="Helvetica,sans-Serif" font-size="10.00">BitFEId *</text>
</a>
</g>
</g>
<!-- Node41&#45;&gt;Node39 -->
<g id="edge49" class="edge">
<title>Node41&#45;&gt;Node39</title>
<path fill="none" stroke="#9a32cd" stroke-dasharray="5,2" d="M1181.59,-887.74C1234.09,-885.84 1328.65,-888.84 1397,-927.5 1408,-933.72 1405.27,-941.44 1415,-949.5 1433.21,-964.6 1457.26,-977.03 1474.69,-984.97"/>
<polygon fill="#9a32cd" stroke="#9a32cd" points="1181.2,-884.26 1171.37,-888.2 1181.51,-891.25 1181.2,-884.26"/>
<text text-anchor="middle" x="1329" y="-930.5" font-family="Helvetica,sans-Serif" font-size="10.00"> tagBitFEId</text>
</g>
<!-- Node42 -->
<g id="node42" class="node">
<title>Node42</title>
<g id="a_node42"><a xlink:href="classEntityHandle.html" target="_top" xlink:title=" ">
<polygon fill="white" stroke="black" points="1101.5,-1271 1101.5,-1290 1181.5,-1290 1181.5,-1271 1101.5,-1271"/>
<text text-anchor="middle" x="1141.5" y="-1278" font-family="Helvetica,sans-Serif" font-size="10.00">EntityHandle</text>
</a>
</g>
</g>
<!-- Node42&#45;&gt;Node39 -->
<g id="edge50" class="edge">
<title>Node42&#45;&gt;Node39</title>
<path fill="none" stroke="#9a32cd" stroke-dasharray="5,2" d="M1191.92,-1275.11C1263.96,-1267.02 1390.04,-1251.91 1397,-1244.5 1432.25,-1206.97 1381.39,-1052.51 1415,-1013.5 1423.54,-1003.59 1436.11,-998.27 1448.88,-995.55"/>
<polygon fill="#9a32cd" stroke="#9a32cd" points="1191.26,-1271.66 1181.71,-1276.25 1192.03,-1278.62 1191.26,-1271.66"/>
<text text-anchor="middle" x="1329" y="-1268.5" font-family="Helvetica,sans-Serif" font-size="10.00"> meshset</text>
</g>
<!-- Node43 -->
<g id="node43" class="node">
<title>Node43</title>
<g id="a_node43"><a xlink:title=" ">
<polygon fill="white" stroke="#bfbfbf" points="1067,-1221.5 1067,-1251.5 1216,-1251.5 1216,-1221.5 1067,-1221.5"/>
<text text-anchor="start" x="1075" y="-1239.5" font-family="Helvetica,sans-Serif" font-size="10.00">shared_ptr&lt; MoFEM::</text>
<text text-anchor="middle" x="1141.5" y="-1228.5" font-family="Helvetica,sans-Serif" font-size="10.00">ComposedProblemsData &gt;</text>
</a>
</g>
</g>
<!-- Node43&#45;&gt;Node39 -->
<g id="edge51" class="edge">
<title>Node43&#45;&gt;Node39</title>
<path fill="none" stroke="#9a32cd" stroke-dasharray="5,2" d="M1226.2,-1233.17C1295.68,-1229.57 1385,-1222.63 1397,-1210.5 1427.92,-1179.25 1386.09,-1046.61 1415,-1013.5 1423.6,-1003.65 1436.2,-998.35 1448.96,-995.63"/>
<polygon fill="#9a32cd" stroke="#9a32cd" points="1225.92,-1229.68 1216.11,-1233.68 1226.27,-1236.67 1225.92,-1229.68"/>
<text text-anchor="middle" x="1329" y="-1233.5" font-family="Helvetica,sans-Serif" font-size="10.00"> composedProblemsData</text>
</g>
<!-- Node44 -->
<g id="node44" class="node">
<title>Node44</title>
<g id="a_node44"><a xlink:title=" ">
<polygon fill="white" stroke="#bfbfbf" points="1101,-1183 1101,-1202 1182,-1202 1182,-1183 1101,-1183"/>
<text text-anchor="middle" x="1141.5" y="-1190" font-family="Helvetica,sans-Serif" font-size="10.00">BitRefLevel *</text>
</a>
</g>
</g>
<!-- Node44&#45;&gt;Node39 -->
<g id="edge52" class="edge">
<title>Node44&#45;&gt;Node39</title>
<path fill="none" stroke="#9a32cd" stroke-dasharray="5,2" d="M1192.42,-1190.5C1262.4,-1187.21 1382.76,-1179.57 1397,-1165.5 1445.39,-1117.69 1369.58,-1064.14 1415,-1013.5 1423.64,-1003.87 1436.08,-998.62 1448.7,-995.87"/>
<polygon fill="#9a32cd" stroke="#9a32cd" points="1191.9,-1187.02 1182.07,-1190.98 1192.22,-1194.02 1191.9,-1187.02"/>
<text text-anchor="middle" x="1329" y="-1199.5" font-family="Helvetica,sans-Serif" font-size="10.00"> tagBitRefLevelMask</text>
<text text-anchor="middle" x="1329" y="-1188.5" font-family="Helvetica,sans-Serif" font-size="10.00">tagBitRefLevel</text>
</g>
<!-- Node45 -->
<g id="node45" class="node">
<title>Node45</title>
<g id="a_node45"><a xlink:title=" ">
<polygon fill="white" stroke="#bfbfbf" points="1056.5,-1133.5 1056.5,-1163.5 1226.5,-1163.5 1226.5,-1133.5 1056.5,-1133.5"/>
<text text-anchor="start" x="1064.5" y="-1151.5" font-family="Helvetica,sans-Serif" font-size="10.00">shared_ptr&lt; NumeredDofEntity</text>
<text text-anchor="middle" x="1141.5" y="-1140.5" font-family="Helvetica,sans-Serif" font-size="10.00">_multiIndex &gt;</text>
</a>
</g>
</g>
<!-- Node45&#45;&gt;Node39 -->
<g id="edge53" class="edge">
<title>Node45&#45;&gt;Node39</title>
<path fill="none" stroke="#9a32cd" stroke-dasharray="5,2" d="M1236.88,-1143.58C1304.34,-1139.16 1385.22,-1131.62 1397,-1120.5 1432.06,-1087.39 1381.93,-1048.6 1415,-1013.5 1423.77,-1004.19 1436.1,-999.02 1448.57,-996.24"/>
<polygon fill="#9a32cd" stroke="#9a32cd" points="1236.36,-1140.11 1226.6,-1144.24 1236.8,-1147.09 1236.36,-1140.11"/>
<text text-anchor="middle" x="1329" y="-1155.5" font-family="Helvetica,sans-Serif" font-size="10.00"> numeredRowDofsPtr</text>
<text text-anchor="middle" x="1329" y="-1144.5" font-family="Helvetica,sans-Serif" font-size="10.00">numeredColDofsPtr</text>
</g>
<!-- Node46 -->
<g id="node46" class="node">
<title>Node46</title>
<g id="a_node46"><a xlink:title=" ">
<polygon fill="white" stroke="#bfbfbf" points="1072.5,-1095 1072.5,-1114 1210.5,-1114 1210.5,-1095 1072.5,-1095"/>
<text text-anchor="middle" x="1141.5" y="-1102" font-family="Helvetica,sans-Serif" font-size="10.00">vector&lt; BlockFieldPair &gt;</text>
</a>
</g>
</g>
<!-- Node46&#45;&gt;Node39 -->
<g id="edge55" class="edge">
<title>Node46&#45;&gt;Node39</title>
<path fill="none" stroke="#9a32cd" stroke-dasharray="5,2" d="M1220.87,-1106.61C1285.68,-1106.67 1371.13,-1102.34 1397,-1080.5 1420.56,-1060.61 1392.81,-1034.91 1415,-1013.5 1424.1,-1004.72 1436.39,-999.7 1448.71,-996.9"/>
<polygon fill="#9a32cd" stroke="#9a32cd" points="1220.68,-1103.11 1210.66,-1106.56 1220.64,-1110.11 1220.68,-1103.11"/>
<text text-anchor="middle" x="1329" y="-1108.5" font-family="Helvetica,sans-Serif" font-size="10.00"> emptyFieldBlocks</text>
</g>
<!-- Node47 -->
<g id="node47" class="node">
<title>Node47</title>
<g id="a_node47"><a xlink:title=" ">
<polygon fill="white" stroke="#bfbfbf" points="1063.5,-1045.5 1063.5,-1075.5 1219.5,-1075.5 1219.5,-1045.5 1063.5,-1045.5"/>
<text text-anchor="start" x="1071.5" y="-1063.5" font-family="Helvetica,sans-Serif" font-size="10.00">shared_ptr&lt; MoFEM::</text>
<text text-anchor="middle" x="1141.5" y="-1052.5" font-family="Helvetica,sans-Serif" font-size="10.00">Problem::SubProblemData &gt;</text>
</a>
</g>
</g>
<!-- Node47&#45;&gt;Node39 -->
<g id="edge56" class="edge">
<title>Node47&#45;&gt;Node39</title>
<path fill="none" stroke="#9a32cd" stroke-dasharray="5,2" d="M1229.77,-1067.26C1281.17,-1067.54 1345.9,-1061.23 1397,-1034.5 1407.89,-1028.8 1404.48,-1019.87 1415,-1013.5 1425.19,-1007.34 1437.18,-1003.17 1448.83,-1000.36"/>
<polygon fill="#9a32cd" stroke="#9a32cd" points="1229.73,-1063.76 1219.68,-1067.12 1229.63,-1070.75 1229.73,-1063.76"/>
<text text-anchor="middle" x="1329" y="-1068.5" font-family="Helvetica,sans-Serif" font-size="10.00"> subProblemData</text>
</g>
<!-- Node48 -->
<g id="node48" class="node">
<title>Node48</title>
<g id="a_node48"><a xlink:title=" ">
<polygon fill="white" stroke="#bfbfbf" points="1040,-1007 1040,-1026 1243,-1026 1243,-1007 1040,-1007"/>
<text text-anchor="middle" x="1141.5" y="-1014" font-family="Helvetica,sans-Serif" font-size="10.00">shared_ptr&lt; SequenceDofContainer &gt;</text>
</a>
</g>
</g>
<!-- Node48&#45;&gt;Node39 -->
<g id="edge58" class="edge">
<title>Node48&#45;&gt;Node39</title>
<path fill="none" stroke="#9a32cd" stroke-dasharray="5,2" d="M1253.66,-1009.61C1319.11,-1005.56 1398.61,-1000.63 1448.65,-997.53"/>
<polygon fill="#9a32cd" stroke="#9a32cd" points="1253.04,-1006.14 1243.28,-1010.25 1253.48,-1013.13 1253.04,-1006.14"/>
<text text-anchor="middle" x="1329" y="-1022.5" font-family="Helvetica,sans-Serif" font-size="10.00"> sequenceRowDofContainer</text>
<text text-anchor="middle" x="1329" y="-1011.5" font-family="Helvetica,sans-Serif" font-size="10.00">sequenceColDofContainer</text>
</g>
<!-- Node49 -->
<g id="node49" class="node">
<title>Node49</title>
<g id="a_node49"><a xlink:title=" ">
<polygon fill="white" stroke="#bfbfbf" points="1097.5,-969 1097.5,-988 1185.5,-988 1185.5,-969 1097.5,-969"/>
<text text-anchor="middle" x="1141.5" y="-976" font-family="Helvetica,sans-Serif" font-size="10.00">BitProblemId *</text>
</a>
</g>
</g>
<!-- Node49&#45;&gt;Node39 -->
<g id="edge59" class="edge">
<title>Node49&#45;&gt;Node39</title>
<path fill="none" stroke="#9a32cd" stroke-dasharray="5,2" d="M1196.02,-977.74C1247.57,-977.39 1327.7,-977.83 1397,-982.5 1413.92,-983.64 1432.36,-985.63 1448.78,-987.66"/>
<polygon fill="#9a32cd" stroke="#9a32cd" points="1195.76,-974.24 1185.79,-977.82 1195.81,-981.24 1195.76,-974.24"/>
<text text-anchor="middle" x="1329" y="-985.5" font-family="Helvetica,sans-Serif" font-size="10.00"> tagId</text>
</g>
<!-- Node50 -->
<g id="node50" class="node">
<title>Node50</title>
<g id="a_node50"><a xlink:title=" ">
<polygon fill="white" stroke="#bfbfbf" points="1805,-871.5 1805,-901.5 1967,-901.5 1967,-871.5 1805,-871.5"/>
<text text-anchor="start" x="1813" y="-889.5" font-family="Helvetica,sans-Serif" font-size="10.00">shared_ptr&lt; const MoFEM</text>
<text text-anchor="middle" x="1886" y="-878.5" font-family="Helvetica,sans-Serif" font-size="10.00">::NumeredEntFiniteElement &gt;</text>
</a>
</g>
</g>
<!-- Node50&#45;&gt;Node13 -->
<g id="edge60" class="edge">
<title>Node50&#45;&gt;Node13</title>
<path fill="none" stroke="#9a32cd" stroke-dasharray="5,2" d="M1977.17,-892.26C2024.78,-896.86 2083.78,-905.03 2135,-919.5 2143.42,-921.88 2144.64,-924.9 2153,-927.5 2168.74,-932.39 2186.26,-936.21 2202.27,-939.1"/>
<polygon fill="#9a32cd" stroke="#9a32cd" points="1977.48,-888.77 1967.19,-891.33 1976.83,-895.74 1977.48,-888.77"/>
<text text-anchor="middle" x="2063" y="-922.5" font-family="Helvetica,sans-Serif" font-size="10.00"> numeredEntFiniteElementPtr</text>
</g>
<!-- Node51 -->
<g id="node51" class="node">
<title>Node51</title>
<g id="a_node51"><a xlink:title=" ">
<polygon fill="white" stroke="#bfbfbf" points="1864,-1012 1864,-1031 1908,-1031 1908,-1012 1864,-1012"/>
<text text-anchor="middle" x="1886" y="-1019" font-family="Helvetica,sans-Serif" font-size="10.00">string</text>
</a>
</g>
</g>
<!-- Node51&#45;&gt;Node4 -->
<g id="edge83" class="edge">
<title>Node51&#45;&gt;Node4</title>
<path fill="none" stroke="#9a32cd" stroke-dasharray="5,2" d="M1918.54,-1023.79C2015.35,-1029.63 2315.24,-1038.77 2539,-948.5 2699.24,-883.86 2856.67,-739.8 2905.54,-692.72"/>
<polygon fill="#9a32cd" stroke="#9a32cd" points="1918.47,-1020.28 1908.27,-1023.14 1918.02,-1027.27 1918.47,-1020.28"/>
<text text-anchor="middle" x="2458" y="-1008.5" font-family="Helvetica,sans-Serif" font-size="10.00"> colFieldName</text>
<text text-anchor="middle" x="2458" y="-997.5" font-family="Helvetica,sans-Serif" font-size="10.00">rowFieldName</text>
</g>
<!-- Node51&#45;&gt;Node13 -->
<g id="edge61" class="edge">
<title>Node51&#45;&gt;Node13</title>
<path fill="none" stroke="#9a32cd" stroke-dasharray="5,2" d="M1917.84,-1014.18C1938.48,-1009.4 1966.29,-1003.2 1991,-998.5 2054.67,-986.39 2071.45,-988.23 2135,-975.5 2163.37,-969.82 2195.19,-962.06 2218.93,-956"/>
<polygon fill="#9a32cd" stroke="#9a32cd" points="1916.98,-1010.78 1908.04,-1016.46 1918.57,-1017.6 1916.98,-1010.78"/>
<text text-anchor="middle" x="2063" y="-1001.5" font-family="Helvetica,sans-Serif" font-size="10.00"> feName</text>
</g>
<!-- Node52 -->
<g id="node52" class="node">
<title>Node52</title>
<g id="a_node52"><a xlink:title=" ">
<polygon fill="white" stroke="#bfbfbf" points="1804.5,-959.5 1804.5,-989.5 1967.5,-989.5 1967.5,-959.5 1804.5,-959.5"/>
<text text-anchor="start" x="1812.5" y="-977.5" font-family="Helvetica,sans-Serif" font-size="10.00">function&lt; bool(MoFEM</text>
<text text-anchor="middle" x="1886" y="-966.5" font-family="Helvetica,sans-Serif" font-size="10.00">::FEMethod *fe_method_ptr)&gt;</text>
</a>
</g>
</g>
<!-- Node52&#45;&gt;Node13 -->
<g id="edge62" class="edge">
<title>Node52&#45;&gt;Node13</title>
<path fill="none" stroke="#9a32cd" stroke-dasharray="5,2" d="M1977.58,-965.64C1982.12,-965.24 1986.61,-964.86 1991,-964.5 2064.26,-958.48 2149.07,-952.96 2202.37,-949.66"/>
<polygon fill="#9a32cd" stroke="#9a32cd" points="1977.25,-962.15 1967.6,-966.53 1977.87,-969.13 1977.25,-962.15"/>
<text text-anchor="middle" x="2063" y="-967.5" font-family="Helvetica,sans-Serif" font-size="10.00"> exeTestHook</text>
</g>
<!-- Node53 -->
<g id="node53" class="node">
<title>Node53</title>
<g id="a_node53"><a xlink:href="classdouble.html" target="_top" xlink:title=" ">
<polygon fill="white" stroke="black" points="2231,-751 2231,-770 2281,-770 2281,-751 2231,-751"/>
<text text-anchor="middle" x="2256" y="-758" font-family="Helvetica,sans-Serif" font-size="10.00">double</text>
</a>
</g>
</g>
<!-- Node53&#45;&gt;Node12 -->
<g id="edge63" class="edge">
<title>Node53&#45;&gt;Node12</title>
<path fill="none" stroke="#9a32cd" stroke-dasharray="5,2" d="M2291.53,-759.41C2344.88,-757.36 2450.42,-751.87 2539,-738.5 2560.9,-735.19 2585.09,-729.82 2604.42,-725.09"/>
<polygon fill="#9a32cd" stroke="#9a32cd" points="2291.14,-755.92 2281.28,-759.78 2291.4,-762.91 2291.14,-755.92"/>
<text text-anchor="middle" x="2458" y="-757.5" font-family="Helvetica,sans-Serif" font-size="10.00"> elementMeasure</text>
</g>
<!-- Node54 -->
<g id="node54" class="node">
<title>Node54</title>
<g id="a_node54"><a xlink:title=" ">
<polygon fill="white" stroke="#bfbfbf" points="2170,-691 2170,-732 2342,-732 2342,-691 2170,-691"/>
<text text-anchor="start" x="2178" y="-720" font-family="Helvetica,sans-Serif" font-size="10.00">array&lt; boost::shared</text>
<text text-anchor="start" x="2178" y="-709" font-family="Helvetica,sans-Serif" font-size="10.00">_ptr&lt; MoFEM::EntitiesFieldData</text>
<text text-anchor="middle" x="2256" y="-698" font-family="Helvetica,sans-Serif" font-size="10.00"> &gt;, LASTSPACE &gt;</text>
</a>
</g>
</g>
<!-- Node54&#45;&gt;Node12 -->
<g id="edge64" class="edge">
<title>Node54&#45;&gt;Node12</title>
<path fill="none" stroke="#9a32cd" stroke-dasharray="5,2" d="M2352.51,-712.49C2415.19,-713.15 2496.4,-713.99 2556.68,-714.62"/>
<polygon fill="#9a32cd" stroke="#9a32cd" points="2352.26,-708.99 2342.22,-712.39 2352.19,-715.99 2352.26,-708.99"/>
<text text-anchor="middle" x="2458" y="-727.5" font-family="Helvetica,sans-Serif" font-size="10.00"> derivedDataOnElement</text>
<text text-anchor="middle" x="2458" y="-716.5" font-family="Helvetica,sans-Serif" font-size="10.00">dataOnElement</text>
</g>
<!-- Node55 -->
<g id="node55" class="node">
<title>Node55</title>
<g id="a_node55"><a xlink:title=" ">
<polygon fill="white" stroke="#bfbfbf" points="2222,-653 2222,-672 2290,-672 2290,-653 2222,-653"/>
<text text-anchor="middle" x="2256" y="-660" font-family="Helvetica,sans-Serif" font-size="10.00">EntityType</text>
</a>
</g>
</g>
<!-- Node55&#45;&gt;Node12 -->
<g id="edge65" class="edge">
<title>Node55&#45;&gt;Node12</title>
<path fill="none" stroke="#9a32cd" stroke-dasharray="5,2" d="M2300.23,-667.17C2355.65,-673.32 2454.67,-684.83 2539,-697.5 2555.63,-700 2573.71,-703.07 2589.98,-705.97"/>
<polygon fill="#9a32cd" stroke="#9a32cd" points="2300.39,-663.67 2290.07,-666.05 2299.63,-670.62 2300.39,-663.67"/>
<text text-anchor="middle" x="2458" y="-700.5" font-family="Helvetica,sans-Serif" font-size="10.00"> lastEvaluatedElementEntityType</text>
</g>
<!-- Node56 -->
<g id="node56" class="node">
<title>Node56</title>
<g id="a_node56"><a xlink:href="structMoFEM_1_1DeprecatedCoreInterface.html" target="_top" xlink:title="Deprecated interface functions.">
<polygon fill="white" stroke="black" points="1600,-151 1600,-170 1781,-170 1781,-151 1600,-151"/>
<text text-anchor="middle" x="1690.5" y="-158" font-family="Helvetica,sans-Serif" font-size="10.00">MoFEM::DeprecatedCoreInterface</text>
</a>
</g>
</g>
<!-- Node56&#45;&gt;Node12 -->
<g id="edge66" class="edge">
<title>Node56&#45;&gt;Node12</title>
<path fill="none" stroke="#9a32cd" stroke-dasharray="5,2" d="M1721.32,-174.48C1738.93,-182.99 1761.52,-194.34 1781,-205.5 1951.92,-303.45 1966.64,-382.65 2153,-446.5 2234.44,-474.4 2478.2,-418.55 2539,-479.5 2573.17,-513.76 2525.26,-659.98 2557,-696.5 2560.24,-700.22 2564.04,-703.3 2568.2,-705.84"/>
<polygon fill="#9a32cd" stroke="#9a32cd" points="1722.63,-171.23 1712.09,-170.07 1719.6,-177.54 1722.63,-171.23"/>
<text text-anchor="middle" x="2063" y="-441.5" font-family="Helvetica,sans-Serif" font-size="10.00"> mField</text>
</g>
<!-- Node57&#45;&gt;Node56 -->
<g id="edge67" class="edge">
<title>Node57&#45;&gt;Node56</title>
<path fill="none" stroke="midnightblue" d="M1214.32,-105.77C1315.56,-117.43 1499.81,-138.65 1606.69,-150.96"/>
<polygon fill="midnightblue" stroke="midnightblue" points="1214.52,-102.27 1204.18,-104.6 1213.72,-109.23 1214.52,-102.27"/>
</g>
<!-- Node58 -->
<g id="node58" class="node">
<title>Node58</title>
<g id="a_node58"><a xlink:title=" ">
<polygon fill="white" stroke="#bfbfbf" points="2172.5,-543.5 2172.5,-595.5 2339.5,-595.5 2339.5,-543.5 2172.5,-543.5"/>
<text text-anchor="start" x="2180.5" y="-583.5" font-family="Helvetica,sans-Serif" font-size="10.00">function&lt; MoFEMErrorCode</text>
<text text-anchor="start" x="2180.5" y="-572.5" font-family="Helvetica,sans-Serif" font-size="10.00">(ForcesAndSourcesCore *fe</text>
<text text-anchor="start" x="2180.5" y="-561.5" font-family="Helvetica,sans-Serif" font-size="10.00">_raw_ptr, int order_row,</text>
<text text-anchor="middle" x="2256" y="-550.5" font-family="Helvetica,sans-Serif" font-size="10.00"> int order_col, int order_data)&gt;</text>
</a>
</g>
</g>
<!-- Node58&#45;&gt;Node12 -->
<g id="edge70" class="edge">
<title>Node58&#45;&gt;Node12</title>
<path fill="none" stroke="#9a32cd" stroke-dasharray="5,2" d="M2349.7,-547.66C2410.9,-539.1 2488.79,-540.26 2539,-585.5 2576.13,-618.95 2522.77,-660.09 2557,-696.5 2560.58,-700.31 2564.76,-703.44 2569.3,-705.99"/>
<polygon fill="#9a32cd" stroke="#9a32cd" points="2349,-544.23 2339.64,-549.18 2350.05,-551.15 2349,-544.23"/>
<text text-anchor="middle" x="2458" y="-588.5" font-family="Helvetica,sans-Serif" font-size="10.00"> setRuleHook</text>
</g>
<!-- Node59 -->
<g id="node59" class="node">
<title>Node59</title>
<g id="a_node59"><a xlink:title=" ">
<polygon fill="white" stroke="#bfbfbf" points="2155,-494.5 2155,-524.5 2357,-524.5 2357,-494.5 2155,-494.5"/>
<text text-anchor="start" x="2163" y="-512.5" font-family="Helvetica,sans-Serif" font-size="10.00">ptr_deque&lt; MoFEM::Forces</text>
<text text-anchor="middle" x="2256" y="-501.5" font-family="Helvetica,sans-Serif" font-size="10.00">AndSourcesCore::UserDataOperator &gt;</text>
</a>
</g>
</g>
<!-- Node59&#45;&gt;Node12 -->
<g id="edge71" class="edge">
<title>Node59&#45;&gt;Node12</title>
<path fill="none" stroke="#9a32cd" stroke-dasharray="5,2" d="M2322.7,-492.49C2386.75,-480.25 2482.5,-474.19 2539,-528.5 2566.07,-554.52 2532.03,-668.46 2557,-696.5 2560.38,-700.3 2564.35,-703.42 2568.68,-705.98"/>
<polygon fill="#9a32cd" stroke="#9a32cd" points="2321.82,-489.1 2312.71,-494.5 2323.2,-495.96 2321.82,-489.1"/>
<text text-anchor="middle" x="2458" y="-531.5" font-family="Helvetica,sans-Serif" font-size="10.00"> opPtrVector</text>
</g>
<!-- Node60 -->
<g id="node60" class="node">
<title>Node60</title>
<g id="a_node60"><a xlink:href="structMoFEM_1_1EntitiesFieldData.html" target="_top" xlink:title="data structure for finite element entity">
<polygon fill="white" stroke="black" points="2185,-615 2185,-634 2327,-634 2327,-615 2185,-615"/>
<text text-anchor="middle" x="2256" y="-622" font-family="Helvetica,sans-Serif" font-size="10.00">MoFEM::EntitiesFieldData</text>
</a>
</g>
</g>
<!-- Node60&#45;&gt;Node12 -->
<g id="edge72" class="edge">
<title>Node60&#45;&gt;Node12</title>
<path fill="none" stroke="#9a32cd" stroke-dasharray="5,2" d="M2321,-613.45C2393.75,-602.45 2506.63,-590.6 2539,-616.5 2567.46,-639.27 2531.24,-670.72 2557,-696.5 2560.8,-700.31 2565.2,-703.42 2569.94,-705.96"/>
<polygon fill="#9a32cd" stroke="#9a32cd" points="2320.36,-610.01 2311.02,-615 2321.43,-616.93 2320.36,-610.01"/>
<text text-anchor="middle" x="2458" y="-663.5" font-family="Helvetica,sans-Serif" font-size="10.00"> dataNoField</text>
<text text-anchor="middle" x="2458" y="-652.5" font-family="Helvetica,sans-Serif" font-size="10.00">dataL2</text>
<text text-anchor="middle" x="2458" y="-641.5" font-family="Helvetica,sans-Serif" font-size="10.00">dataH1</text>
<text text-anchor="middle" x="2458" y="-630.5" font-family="Helvetica,sans-Serif" font-size="10.00">dataHcurl</text>
<text text-anchor="middle" x="2458" y="-619.5" font-family="Helvetica,sans-Serif" font-size="10.00">dataHdiv</text>
</g>
<!-- Node61 -->
<g id="node61" class="node">
<title>Node61</title>
<g id="a_node61"><a xlink:title=" ">
<polygon fill="white" stroke="#bfbfbf" points="1805,-507.5 1805,-537.5 1967,-537.5 1967,-507.5 1805,-507.5"/>
<text text-anchor="start" x="1813" y="-525.5" font-family="Helvetica,sans-Serif" font-size="10.00">array&lt; std::bitset</text>
<text text-anchor="middle" x="1886" y="-514.5" font-family="Helvetica,sans-Serif" font-size="10.00">&lt; LASTBASE &gt;, LASTSPACE &gt;</text>
</a>
</g>
</g>
<!-- Node61&#45;&gt;Node60 -->
<g id="edge73" class="edge">
<title>Node61&#45;&gt;Node60</title>
<path fill="none" stroke="#9a32cd" stroke-dasharray="5,2" d="M1954.98,-505.68C2009.69,-496.44 2085.36,-493.91 2135,-534.5 2160.2,-555.11 2129.25,-583.23 2153,-605.5 2161.87,-613.82 2173.15,-619.07 2184.96,-622.29"/>
<polygon fill="#9a32cd" stroke="#9a32cd" points="1954.25,-502.26 1945.02,-507.48 1955.49,-509.15 1954.25,-502.26"/>
<text text-anchor="middle" x="2063" y="-548.5" font-family="Helvetica,sans-Serif" font-size="10.00"> brokenBasesOnSpaces</text>
<text text-anchor="middle" x="2063" y="-537.5" font-family="Helvetica,sans-Serif" font-size="10.00">basesOnSpaces</text>
</g>
<!-- Node62 -->
<g id="node62" class="node">
<title>Node62</title>
<g id="a_node62"><a xlink:title=" ">
<polygon fill="white" stroke="#bfbfbf" points="1809.5,-734 1809.5,-775 1962.5,-775 1962.5,-734 1809.5,-734"/>
<text text-anchor="start" x="1817.5" y="-763" font-family="Helvetica,sans-Serif" font-size="10.00">array&lt; boost::ptr_vector</text>
<text text-anchor="start" x="1817.5" y="-752" font-family="Helvetica,sans-Serif" font-size="10.00">&lt; MoFEM::EntitiesFieldData</text>
<text text-anchor="middle" x="1886" y="-741" font-family="Helvetica,sans-Serif" font-size="10.00">::EntData &gt;, MBMAXTYPE &gt;</text>
</a>
</g>
</g>
<!-- Node62&#45;&gt;Node60 -->
<g id="edge74" class="edge">
<title>Node62&#45;&gt;Node60</title>
<path fill="none" stroke="#9a32cd" stroke-dasharray="5,2" d="M1972.75,-761.47C2025.8,-761.01 2091.8,-751.09 2135,-711.5 2158.05,-690.38 2130.08,-664.77 2153,-643.5 2161.85,-635.29 2173.05,-630.08 2184.77,-626.85"/>
<polygon fill="#9a32cd" stroke="#9a32cd" points="1972.67,-757.97 1962.66,-761.44 1972.65,-764.97 1972.67,-757.97"/>
<text text-anchor="middle" x="2063" y="-763.5" font-family="Helvetica,sans-Serif" font-size="10.00"> dataOnEntities</text>
</g>
<!-- Node63 -->
<g id="node63" class="node">
<title>Node63</title>
<g id="a_node63"><a xlink:title=" ">
<polygon fill="white" stroke="#bfbfbf" points="1799,-684.5 1799,-714.5 1973,-714.5 1973,-684.5 1799,-684.5"/>
<text text-anchor="start" x="1807" y="-702.5" font-family="Helvetica,sans-Serif" font-size="10.00">array&lt; std::bitset</text>
<text text-anchor="middle" x="1886" y="-691.5" font-family="Helvetica,sans-Serif" font-size="10.00">&lt; LASTSPACE &gt;, MBMAXTYPE &gt;</text>
</a>
</g>
</g>
<!-- Node63&#45;&gt;Node60 -->
<g id="edge75" class="edge">
<title>Node63&#45;&gt;Node60</title>
<path fill="none" stroke="#9a32cd" stroke-dasharray="5,2" d="M1983.18,-697.66C2030.88,-693.52 2088.16,-683.5 2135,-660.5 2144.88,-655.65 2143.19,-648.49 2153,-643.5 2162.87,-638.48 2173.89,-634.77 2184.93,-632.04"/>
<polygon fill="#9a32cd" stroke="#9a32cd" points="1982.84,-694.18 1973.15,-698.46 1983.4,-701.16 1982.84,-694.18"/>
<text text-anchor="middle" x="2063" y="-699.5" font-family="Helvetica,sans-Serif" font-size="10.00"> spacesOnEntities</text>
</g>
<!-- Node64 -->
<g id="node64" class="node">
<title>Node64</title>
<g id="a_node64"><a xlink:title=" ">
<polygon fill="white" stroke="#bfbfbf" points="1801.5,-596.5 1801.5,-626.5 1970.5,-626.5 1970.5,-596.5 1801.5,-596.5"/>
<text text-anchor="start" x="1809.5" y="-614.5" font-family="Helvetica,sans-Serif" font-size="10.00">array&lt; std::bitset</text>
<text text-anchor="middle" x="1886" y="-603.5" font-family="Helvetica,sans-Serif" font-size="10.00">&lt; LASTBASE &gt;, MBMAXTYPE &gt;</text>
</a>
</g>
</g>
<!-- Node64&#45;&gt;Node60 -->
<g id="edge76" class="edge">
<title>Node64&#45;&gt;Node60</title>
<path fill="none" stroke="#9a32cd" stroke-dasharray="5,2" d="M1980.54,-614.8C2044.11,-617.05 2126.86,-619.97 2184.81,-622.02"/>
<polygon fill="#9a32cd" stroke="#9a32cd" points="1980.62,-611.31 1970.5,-614.45 1980.38,-618.3 1980.62,-611.31"/>
<text text-anchor="middle" x="2063" y="-622.5" font-family="Helvetica,sans-Serif" font-size="10.00"> basesOnEntities</text>
</g>
<!-- Node65 -->
<g id="node65" class="node">
<title>Node65</title>
<g id="a_node65"><a xlink:title=" ">
<polygon fill="white" stroke="#bfbfbf" points="1830,-558 1830,-577 1942,-577 1942,-558 1830,-558"/>
<text text-anchor="middle" x="1886" y="-565" font-family="Helvetica,sans-Serif" font-size="10.00">UBlasMatrix&lt; int &gt;</text>
</a>
</g>
</g>
<!-- Node65&#45;&gt;Node60 -->
<g id="edge77" class="edge">
<title>Node65&#45;&gt;Node60</title>
<path fill="none" stroke="#9a32cd" stroke-dasharray="5,2" d="M1952.36,-561.56C2004.13,-559.5 2077.13,-562.61 2135,-588.5 2145.04,-592.99 2143.19,-600.51 2153,-605.5 2162.87,-610.52 2173.89,-614.23 2184.93,-616.96"/>
<polygon fill="#9a32cd" stroke="#9a32cd" points="1952.12,-558.07 1942.3,-562.04 1952.45,-565.06 1952.12,-558.07"/>
<text text-anchor="middle" x="2063" y="-602.5" font-family="Helvetica,sans-Serif" font-size="10.00"> facesNodesOrder</text>
<text text-anchor="middle" x="2063" y="-591.5" font-family="Helvetica,sans-Serif" font-size="10.00">facesNodes</text>
</g>
<!-- Node66 -->
<g id="node66" class="node">
<title>Node66</title>
<g id="a_node66"><a xlink:title=" ">
<polygon fill="white" stroke="#bfbfbf" points="1827.5,-646 1827.5,-665 1944.5,-665 1944.5,-646 1827.5,-646"/>
<text text-anchor="middle" x="1886" y="-653" font-family="Helvetica,sans-Serif" font-size="10.00">bitset&lt; LASTBASE &gt;</text>
</a>
</g>
</g>
<!-- Node66&#45;&gt;Node60 -->
<g id="edge78" class="edge">
<title>Node66&#45;&gt;Node60</title>
<path fill="none" stroke="#9a32cd" stroke-dasharray="5,2" d="M1955.11,-649.76C2020.49,-644.25 2118.8,-635.97 2184.86,-630.41"/>
<polygon fill="#9a32cd" stroke="#9a32cd" points="1954.58,-646.29 1944.9,-650.62 1955.16,-653.27 1954.58,-646.29"/>
<text text-anchor="middle" x="2063" y="-648.5" font-family="Helvetica,sans-Serif" font-size="10.00"> bAse</text>
</g>
<!-- Node67 -->
<g id="node67" class="node">
<title>Node67</title>
<g id="a_node67"><a xlink:title=" ">
<polygon fill="white" stroke="#bfbfbf" points="2193.5,-877 2193.5,-918 2318.5,-918 2318.5,-877 2193.5,-877"/>
<text text-anchor="start" x="2201.5" y="-906" font-family="Helvetica,sans-Serif" font-size="10.00">function&lt; int(int order</text>
<text text-anchor="start" x="2201.5" y="-895" font-family="Helvetica,sans-Serif" font-size="10.00">_row, int order_col, int</text>
<text text-anchor="middle" x="2256" y="-884" font-family="Helvetica,sans-Serif" font-size="10.00"> order_data)&gt;</text>
</a>
</g>
</g>
<!-- Node67&#45;&gt;Node12 -->
<g id="edge79" class="edge">
<title>Node67&#45;&gt;Node12</title>
<path fill="none" stroke="#9a32cd" stroke-dasharray="5,2" d="M2328.99,-899.06C2400.68,-899.35 2504.84,-896 2539,-875.5 2598.6,-839.73 2629.24,-754.23 2638.18,-725.28"/>
<polygon fill="#9a32cd" stroke="#9a32cd" points="2328.68,-895.56 2318.66,-898.99 2328.64,-902.56 2328.68,-895.56"/>
<text text-anchor="middle" x="2458" y="-901.5" font-family="Helvetica,sans-Serif" font-size="10.00"> getRuleHook</text>
</g>
<!-- Node68 -->
<g id="node68" class="node">
<title>Node68</title>
<g id="a_node68"><a xlink:title=" ">
<polygon fill="white" stroke="#bfbfbf" points="2195,-827.5 2195,-857.5 2317,-857.5 2317,-827.5 2195,-827.5"/>
<text text-anchor="start" x="2203" y="-845.5" font-family="Helvetica,sans-Serif" font-size="10.00">shared_ptr&lt; MoFEM::</text>
<text text-anchor="middle" x="2256" y="-834.5" font-family="Helvetica,sans-Serif" font-size="10.00">BaseFunction &gt;</text>
</a>
</g>
</g>
<!-- Node68&#45;&gt;Node12 -->
<g id="edge80" class="edge">
<title>Node68&#45;&gt;Node12</title>
<path fill="none" stroke="#9a32cd" stroke-dasharray="5,2" d="M2327.07,-850.37C2386.35,-853.99 2472.08,-851.91 2539,-820.5 2585.01,-798.9 2621.39,-746.96 2635.1,-725.27"/>
<polygon fill="#9a32cd" stroke="#9a32cd" points="2327.27,-846.87 2317.06,-849.69 2326.8,-853.86 2327.27,-846.87"/>
<text text-anchor="middle" x="2458" y="-865.5" font-family="Helvetica,sans-Serif" font-size="10.00"> userPolynomialBasePtr</text>
<text text-anchor="middle" x="2458" y="-854.5" font-family="Helvetica,sans-Serif" font-size="10.00">elementPolynomialBasePtr</text>
</g>
<!-- Node69 -->
<g id="node69" class="node">
<title>Node69</title>
<g id="a_node69"><a xlink:href="classUBlasMatrix_3_01double_01_4.html" target="_top" xlink:title=" ">
<polygon fill="white" stroke="black" points="2190,-789 2190,-808 2322,-808 2322,-789 2190,-789"/>
<text text-anchor="middle" x="2256" y="-796" font-family="Helvetica,sans-Serif" font-size="10.00">UBlasMatrix&lt; double &gt;</text>
</a>
</g>
</g>
<!-- Node69&#45;&gt;Node12 -->
<g id="edge81" class="edge">
<title>Node69&#45;&gt;Node12</title>
<path fill="none" stroke="#9a32cd" stroke-dasharray="5,2" d="M2332.36,-798.54C2390.06,-796.72 2471.03,-790.13 2539,-769.5 2572.74,-759.26 2608.3,-737.58 2627.23,-725.02"/>
<polygon fill="#9a32cd" stroke="#9a32cd" points="2332.12,-795.04 2322.22,-798.82 2332.32,-802.04 2332.12,-795.04"/>
<text text-anchor="middle" x="2458" y="-809.5" font-family="Helvetica,sans-Serif" font-size="10.00"> coordsAtGaussPts</text>
<text text-anchor="middle" x="2458" y="-798.5" font-family="Helvetica,sans-Serif" font-size="10.00">gaussPts</text>
</g>
<!-- Node70 -->
<g id="node70" class="node">
<title>Node70</title>
<g id="a_node70"><a xlink:title=" ">
<polygon fill="white" stroke="#bfbfbf" points="2576.5,-668 2576.5,-687 2707.5,-687 2707.5,-668 2576.5,-668"/>
<text text-anchor="middle" x="2642" y="-675" font-family="Helvetica,sans-Serif" font-size="10.00">static const char *const</text>
</a>
</g>
</g>
<!-- Node70&#45;&gt;Node4 -->
<g id="edge82" class="edge">
<title>Node70&#45;&gt;Node4</title>
<path fill="none" stroke="#9a32cd" stroke-dasharray="5,2" d="M2717.96,-677.5C2754.64,-677.5 2798.93,-677.5 2836.78,-677.5"/>
<polygon fill="#9a32cd" stroke="#9a32cd" points="2717.83,-674 2707.83,-677.5 2717.83,-681 2717.83,-674"/>
<text text-anchor="middle" x="2782" y="-680.5" font-family="Helvetica,sans-Serif" font-size="10.00"> OpTypeNames</text>
</g>
<!-- Node71 -->
<g id="node71" class="node">
<title>Node71</title>
<g id="a_node71"><a xlink:title=" ">
<polygon fill="white" stroke="#bfbfbf" points="3144,-88 3144,-107 3227,-107 3227,-88 3144,-88"/>
<text text-anchor="middle" x="3185.5" y="-95" font-family="Helvetica,sans-Serif" font-size="10.00">MatrixDouble</text>
</a>
</g>
</g>
<!-- Node71&#45;&gt;Node2 -->
<g id="edge84" class="edge">
<title>Node71&#45;&gt;Node2</title>
<path fill="none" stroke="#9a32cd" stroke-dasharray="5,2" d="M3237.5,-98.97C3266.6,-100.54 3303.62,-103.79 3336,-110.5 3344.26,-112.21 3345.9,-114.16 3354,-116.5 3365.58,-119.84 3378.24,-123.11 3389.91,-125.96"/>
<polygon fill="#9a32cd" stroke="#9a32cd" points="3237.32,-95.45 3227.16,-98.46 3236.98,-102.45 3237.32,-95.45"/>
<text text-anchor="middle" x="3317.5" y="-113.5" font-family="Helvetica,sans-Serif" font-size="10.00"> locMat</text>
</g>
<!-- Node72 -->
<g id="node72" class="node">
<title>Node72</title>
<g id="a_node72"><a xlink:href="classFTensor_1_1Index.html" target="_top" xlink:title=" ">
<polygon fill="white" stroke="black" points="3120.5,-50 3120.5,-69 3250.5,-69 3250.5,-50 3120.5,-50"/>
<text text-anchor="middle" x="3185.5" y="-57" font-family="Helvetica,sans-Serif" font-size="10.00">FTensor::Index&lt; &#39;i&#39;, 3 &gt;</text>
</a>
</g>
</g>
<!-- Node72&#45;&gt;Node2 -->
<g id="edge85" class="edge">
<title>Node72&#45;&gt;Node2</title>
<path fill="none" stroke="#9a32cd" stroke-dasharray="5,2" d="M3260.85,-62.14C3286.4,-65.97 3314.07,-73.64 3336,-88.5 3348.25,-96.8 3341.96,-107.9 3354,-116.5 3359.41,-120.36 3365.52,-123.45 3371.87,-125.9"/>
<polygon fill="#9a32cd" stroke="#9a32cd" points="3261.18,-58.65 3250.81,-60.81 3260.26,-65.59 3261.18,-58.65"/>
<text text-anchor="middle" x="3317.5" y="-91.5" font-family="Helvetica,sans-Serif" font-size="10.00"> i</text>
</g>
<!-- Node73 -->
<g id="node73" class="node">
<title>Node73</title>
<g id="a_node73"><a xlink:href="classFTensor_1_1Index.html" target="_top" xlink:title=" ">
<polygon fill="white" stroke="black" points="2870,-44.5 2870,-74.5 2974,-74.5 2974,-44.5 2870,-44.5"/>
<text text-anchor="start" x="2878" y="-62.5" font-family="Helvetica,sans-Serif" font-size="10.00">FTensor::Index&lt; i,</text>
<text text-anchor="middle" x="2922" y="-51.5" font-family="Helvetica,sans-Serif" font-size="10.00"> Dim &gt;</text>
</a>
</g>
</g>
<!-- Node73&#45;&gt;Node72 -->
<g id="edge86" class="edge">
<title>Node73&#45;&gt;Node72</title>
<path fill="none" stroke="orange" stroke-dasharray="5,2" d="M2984.14,-59.5C3024.99,-59.5 3078.64,-59.5 3120.14,-59.5"/>
<polygon fill="orange" stroke="orange" points="2984.04,-56 2974.04,-59.5 2984.04,-63 2984.04,-56"/>
<text text-anchor="middle" x="3048.5" y="-62.5" font-family="Helvetica,sans-Serif" font-size="10.00"> &lt; &#39;i&#39;, 3 &gt;</text>
</g>
<!-- Node74 -->
<g id="node74" class="node">
<title>Node74</title>
<g id="a_node74"><a xlink:title=" ">
<polygon fill="white" stroke="#bfbfbf" points="3354,-88 3354,-107 3511,-107 3511,-88 3354,-88"/>
<text text-anchor="middle" x="3432.5" y="-95" font-family="Helvetica,sans-Serif" font-size="10.00">shared_ptr&lt; MatrixDouble &gt;</text>
</a>
</g>
</g>
<!-- Node74&#45;&gt;Node1 -->
<g id="edge89" class="edge">
<title>Node74&#45;&gt;Node1</title>
<path fill="none" stroke="#9a32cd" stroke-dasharray="5,2" d="M3521.3,-89.99C3545.24,-87.94 3570.69,-85.76 3592.91,-83.86"/>
<polygon fill="#9a32cd" stroke="#9a32cd" points="3520.81,-86.51 3511.14,-90.85 3521.41,-93.49 3520.81,-86.51"/>
<text text-anchor="middle" x="3552" y="-91.5" font-family="Helvetica,sans-Serif" font-size="10.00"> gradVals</text>
</g>
<!-- Node75 -->
<g id="node75" class="node">
<title>Node75</title>
<g id="a_node75"><a xlink:title=" ">
<polygon fill="white" stroke="#bfbfbf" points="3354.5,-50 3354.5,-69 3510.5,-69 3510.5,-50 3354.5,-50"/>
<text text-anchor="middle" x="3432.5" y="-57" font-family="Helvetica,sans-Serif" font-size="10.00">shared_ptr&lt; VectorDouble &gt;</text>
</a>
</g>
</g>
<!-- Node75&#45;&gt;Node1 -->
<g id="edge90" class="edge">
<title>Node75&#45;&gt;Node1</title>
<path fill="none" stroke="#9a32cd" stroke-dasharray="5,2" d="M3520.79,-65.99C3538.73,-67.41 3557.48,-68.95 3575,-70.5 3580.74,-71.01 3586.7,-71.56 3592.67,-72.12"/>
<polygon fill="#9a32cd" stroke="#9a32cd" points="3520.88,-62.49 3510.63,-65.19 3520.33,-69.47 3520.88,-62.49"/>
<text text-anchor="middle" x="3552" y="-73.5" font-family="Helvetica,sans-Serif" font-size="10.00"> fieldVals</text>
</g>
<!-- Node76 -->
<g id="node76" class="node">
<title>Node76</title>
<g id="a_node76"><a xlink:title=" ">
<polygon fill="white" stroke="#bfbfbf" points="3367,-0.5 3367,-30.5 3498,-30.5 3498,-0.5 3367,-0.5"/>
<text text-anchor="start" x="3375" y="-18.5" font-family="Helvetica,sans-Serif" font-size="10.00">function&lt; double(const</text>
<text text-anchor="middle" x="3432.5" y="-7.5" font-family="Helvetica,sans-Serif" font-size="10.00"> double)&gt;</text>
</a>
</g>
</g>
<!-- Node76&#45;&gt;Node1 -->
<g id="edge91" class="edge">
<title>Node76&#45;&gt;Node1</title>
<path fill="none" stroke="#9a32cd" stroke-dasharray="5,2" d="M3507.97,-25.6C3529.85,-29.53 3553.63,-34.74 3575,-41.5 3597.58,-48.64 3622.13,-60.58 3638.1,-68.96"/>
<polygon fill="#9a32cd" stroke="#9a32cd" points="3508.52,-22.15 3498.07,-23.89 3507.33,-29.04 3508.52,-22.15"/>
<text text-anchor="middle" x="3552" y="-55.5" font-family="Helvetica,sans-Serif" font-size="10.00"> diffA</text>
<text text-anchor="middle" x="3552" y="-44.5" font-family="Helvetica,sans-Serif" font-size="10.00">A</text>
</g>
</g>
</svg>
        <g id="navigator" transform="translate(0 0)" fill="#404254">
                <rect fill="#f2f5e9" fill-opacity="0.5" stroke="#606060" stroke-width=".5" x="0" y="0" width="60" height="60"/>
                <use id="zoomplus" xlink:href="#zoomPlus" x="17" y="9" onmousedown="handleZoom(evt,'in')"/>
                <use id="zoomminus" xlink:href="#zoomMin" x="42" y="9" onmousedown="handleZoom(evt,'out')"/>
                <use id="reset" xlink:href="#resetDef" x="30" y="36" onmousedown="handleReset()"/>
                <g id="arrowUp" xlink:href="#dirArrow" transform="translate(30 24)" onmousedown="handlePan(0,-1)">
                  <use xlink:href="#rim" fill="#404040">
                        <set attributeName="fill" to="#808080" begin="arrowUp.mouseover" end="arrowUp.mouseout"/>
                  </use>
                  <path fill="none" stroke="white" stroke-width="1.5" d="M0,-3.0v7 M-2.5,-0.5L0,-3.0L2.5,-0.5"/>
                </g>
                <g id="arrowRight" xlink:href="#dirArrow" transform="rotate(90) translate(36 -43)" onmousedown="handlePan(1,0)">
                  <use xlink:href="#rim" fill="#404040">
                        <set attributeName="fill" to="#808080" begin="arrowRight.mouseover" end="arrowRight.mouseout"/>
                  </use>
                  <path fill="none" stroke="white" stroke-width="1.5" d="M0,-3.0v7 M-2.5,-0.5L0,-3.0L2.5,-0.5"/>
                </g>
                <g id="arrowDown" xlink:href="#dirArrow" transform="rotate(180) translate(-30 -48)" onmousedown="handlePan(0,1)">
                  <use xlink:href="#rim" fill="#404040">
                        <set attributeName="fill" to="#808080" begin="arrowDown.mouseover" end="arrowDown.mouseout"/>
                  </use>
                  <path fill="none" stroke="white" stroke-width="1.5" d="M0,-3.0v7 M-2.5,-0.5L0,-3.0L2.5,-0.5"/>
                </g>
                <g id="arrowLeft" xlink:href="#dirArrow" transform="rotate(270) translate(-36 17)" onmousedown="handlePan(-1,0)">
                  <use xlink:href="#rim" fill="#404040">
                        <set attributeName="fill" to="#808080" begin="arrowLeft.mouseover" end="arrowLeft.mouseout"/>
                  </use>
                  <path fill="none" stroke="white" stroke-width="1.5" d="M0,-3.0v7 M-2.5,-0.5L0,-3.0L2.5,-0.5"/>
                </g>
        </g>
        <svg viewBox="0 0 15 15" width="100%" height="30px" preserveAspectRatio="xMaxYMin meet">
         <g id="arrow_out" transform="scale(0.3 0.3)">
          <a xlink:href="structPoissonExample_1_1OpKt__coll__graph_org.svg" target="_base">
           <rect id="button" ry="5" rx="5" y="6" x="6" height="38" width="38"
                fill="#f2f5e9" fill-opacity="0.5" stroke="#606060" stroke-width="1.0"/>
           <path id="arrow"
             d="M 11.500037,31.436501 C 11.940474,20.09759 22.043105,11.32322 32.158766,21.979434 L 37.068811,17.246167 C 37.068811,17.246167 37.088388,32 37.088388,32 L 22.160133,31.978069 C 22.160133,31.978069 26.997745,27.140456 26.997745,27.140456 C 18.528582,18.264221 13.291696,25.230495 11.500037,31.436501 z"
             style="fill:#404040;"/>
          </a>
         </g>
        </svg>
</svg>
