<?xml version="1.0" encoding="UTF-8" standalone="no"?>
<!DOCTYPE svg PUBLIC "-//W3C//DTD SVG 1.1//EN"
 "http://www.w3.org/Graphics/SVG/1.1/DTD/svg11.dtd">
<!-- Generated by graphviz version 2.43.0 (0)
 -->
<!-- Title: ThermalStressElement::OpGetTemperatureAtGaussPts Pages: 1 -->
<svg width="3638pt" height="1496pt"
 viewBox="0.00 0.00 3638.00 1496.27" xmlns="http://www.w3.org/2000/svg" xmlns:xlink="http://www.w3.org/1999/xlink">
<g id="graph0" class="graph" transform="scale(1 1) rotate(0) translate(4 1492.27)">
<title>ThermalStressElement::OpGetTemperatureAtGaussPts</title>
<polygon fill="white" stroke="transparent" points="-4,4 -4,-1492.27 3634,-1492.27 3634,4 -4,4"/>
<!-- Node1 -->
<g id="node1" class="node">
<title>Node1</title>
<g id="a_node1"><a xlink:title=" ">
<polygon fill="#bfbfbf" stroke="black" points="3460,-44.5 3460,-74.5 3630,-74.5 3630,-44.5 3460,-44.5"/>
<text text-anchor="start" x="3468" y="-62.5" font-family="Helvetica,sans-Serif" font-size="10.00">ThermalStressElement</text>
<text text-anchor="middle" x="3545" y="-51.5" font-family="Helvetica,sans-Serif" font-size="10.00">::OpGetTemperatureAtGaussPts</text>
</a>
</g>
</g>
<!-- Node2 -->
<g id="node2" class="node">
<title>Node2</title>
<g id="a_node2"><a xlink:href="structMoFEM_1_1VolumeElementForcesAndSourcesCore_1_1UserDataOperator.html" target="_top" xlink:title=" ">
<polygon fill="white" stroke="black" points="3163,-174.5 3163,-204.5 3354,-204.5 3354,-174.5 3163,-174.5"/>
<text text-anchor="start" x="3171" y="-192.5" font-family="Helvetica,sans-Serif" font-size="10.00">MoFEM::VolumeElementForces</text>
<text text-anchor="middle" x="3258.5" y="-181.5" font-family="Helvetica,sans-Serif" font-size="10.00">AndSourcesCore::UserDataOperator</text>
</a>
</g>
</g>
<!-- Node2&#45;&gt;Node1 -->
<g id="edge1" class="edge">
<title>Node2&#45;&gt;Node1</title>
<path fill="none" stroke="midnightblue" d="M3301.86,-170.14C3358.88,-144.09 3459.14,-98.28 3510.94,-74.6"/>
<polygon fill="midnightblue" stroke="midnightblue" points="3300.05,-167.12 3292.41,-174.46 3302.96,-173.49 3300.05,-167.12"/>
</g>
<!-- Node3 -->
<g id="node3" class="node">
<title>Node3</title>
<g id="a_node3"><a xlink:href="structMoFEM_1_1ForcesAndSourcesCore_1_1UserDataOperator.html" target="_top" xlink:title=" ">
<polygon fill="white" stroke="black" points="2837,-244.5 2837,-274.5 3007,-274.5 3007,-244.5 2837,-244.5"/>
<text text-anchor="start" x="2845" y="-262.5" font-family="Helvetica,sans-Serif" font-size="10.00">MoFEM::ForcesAndSourcesCore</text>
<text text-anchor="middle" x="2922" y="-251.5" font-family="Helvetica,sans-Serif" font-size="10.00">::UserDataOperator</text>
</a>
</g>
</g>
<!-- Node3&#45;&gt;Node2 -->
<g id="edge2" class="edge">
<title>Node3&#45;&gt;Node2</title>
<path fill="none" stroke="midnightblue" d="M3004.88,-242.37C3060.18,-230.79 3132.49,-215.66 3185.57,-204.55"/>
<polygon fill="midnightblue" stroke="midnightblue" points="3003.83,-239.01 2994.76,-244.48 3005.26,-245.86 3003.83,-239.01"/>
</g>
<!-- Node4 -->
<g id="node4" class="node">
<title>Node4</title>
<g id="a_node4"><a xlink:href="structMoFEM_1_1DataOperator.html" target="_top" xlink:title="base operator to do operations at Gauss Pt. level">
<polygon fill="white" stroke="black" points="2579.5,-250 2579.5,-269 2704.5,-269 2704.5,-250 2579.5,-250"/>
<text text-anchor="middle" x="2642" y="-257" font-family="Helvetica,sans-Serif" font-size="10.00">MoFEM::DataOperator</text>
</a>
</g>
</g>
<!-- Node4&#45;&gt;Node3 -->
<g id="edge3" class="edge">
<title>Node4&#45;&gt;Node3</title>
<path fill="none" stroke="midnightblue" d="M2714.97,-259.5C2752.22,-259.5 2797.92,-259.5 2836.81,-259.5"/>
<polygon fill="midnightblue" stroke="midnightblue" points="2714.7,-256 2704.7,-259.5 2714.7,-263 2714.7,-256"/>
</g>
<!-- Node5 -->
<g id="node5" class="node">
<title>Node5</title>
<g id="a_node5"><a xlink:title=" ">
<polygon fill="white" stroke="#bfbfbf" points="2160,-171.5 2160,-223.5 2352,-223.5 2352,-171.5 2160,-171.5"/>
<text text-anchor="start" x="2168" y="-211.5" font-family="Helvetica,sans-Serif" font-size="10.00">function&lt; MoFEMErrorCode</text>
<text text-anchor="start" x="2168" y="-200.5" font-family="Helvetica,sans-Serif" font-size="10.00">(DataOperator *op_ptr,</text>
<text text-anchor="start" x="2168" y="-189.5" font-family="Helvetica,sans-Serif" font-size="10.00"> int side, EntityType type,</text>
<text text-anchor="middle" x="2256" y="-178.5" font-family="Helvetica,sans-Serif" font-size="10.00"> EntitiesFieldData::EntData &amp;data)&gt;</text>
</a>
</g>
</g>
<!-- Node5&#45;&gt;Node4 -->
<g id="edge4" class="edge">
<title>Node5&#45;&gt;Node4</title>
<path fill="none" stroke="#9a32cd" stroke-dasharray="5,2" d="M2362.39,-218.07C2367.32,-218.92 2372.21,-219.73 2377,-220.5 2448.69,-232.01 2467.23,-230.52 2539,-241.5 2555.53,-244.03 2573.51,-247.1 2589.71,-249.98"/>
<polygon fill="#9a32cd" stroke="#9a32cd" points="2362.67,-214.57 2352.21,-216.29 2361.46,-221.46 2362.67,-214.57"/>
<text text-anchor="middle" x="2458" y="-244.5" font-family="Helvetica,sans-Serif" font-size="10.00"> doWorkRhsHook</text>
</g>
<!-- Node6 -->
<g id="node6" class="node">
<title>Node6</title>
<g id="a_node6"><a xlink:href="classbool.html" target="_top" xlink:title=" ">
<polygon fill="white" stroke="black" points="2237,-133 2237,-152 2275,-152 2275,-133 2237,-133"/>
<text text-anchor="middle" x="2256" y="-140" font-family="Helvetica,sans-Serif" font-size="10.00">bool</text>
</a>
</g>
</g>
<!-- Node6&#45;&gt;Node4 -->
<g id="edge5" class="edge">
<title>Node6&#45;&gt;Node4</title>
<path fill="none" stroke="#9a32cd" stroke-dasharray="5,2" d="M2285.35,-137.75C2349.13,-127.75 2501.3,-107.92 2539,-139.5 2573.96,-168.78 2525.51,-207.52 2557,-240.5 2563.09,-246.88 2570.84,-251.33 2579.15,-254.4"/>
<polygon fill="#9a32cd" stroke="#9a32cd" points="2284.53,-134.34 2275.21,-139.38 2285.63,-141.25 2284.53,-134.34"/>
<text text-anchor="middle" x="2458" y="-208.5" font-family="Helvetica,sans-Serif" font-size="10.00"> doTris</text>
<text text-anchor="middle" x="2458" y="-197.5" font-family="Helvetica,sans-Serif" font-size="10.00">doQuads</text>
<text text-anchor="middle" x="2458" y="-186.5" font-family="Helvetica,sans-Serif" font-size="10.00">sYmm</text>
<text text-anchor="middle" x="2458" y="-175.5" font-family="Helvetica,sans-Serif" font-size="10.00">doPrisms</text>
<text text-anchor="middle" x="2458" y="-164.5" font-family="Helvetica,sans-Serif" font-size="10.00">doTets</text>
<text text-anchor="middle" x="2458" y="-153.5" font-family="Helvetica,sans-Serif" font-size="10.00">doVertices</text>
<text text-anchor="middle" x="2458" y="-142.5" font-family="Helvetica,sans-Serif" font-size="10.00">doEdges</text>
</g>
<!-- Node7 -->
<g id="node7" class="node">
<title>Node7</title>
<g id="a_node7"><a xlink:title=" ">
<polygon fill="white" stroke="#bfbfbf" points="2153,-281 2153,-366 2359,-366 2359,-281 2153,-281"/>
<text text-anchor="start" x="2161" y="-354" font-family="Helvetica,sans-Serif" font-size="10.00">function&lt; MoFEMErrorCode</text>
<text text-anchor="start" x="2161" y="-343" font-family="Helvetica,sans-Serif" font-size="10.00">(DataOperator *op_ptr,</text>
<text text-anchor="start" x="2161" y="-332" font-family="Helvetica,sans-Serif" font-size="10.00"> int row_side, int col_side,</text>
<text text-anchor="start" x="2161" y="-321" font-family="Helvetica,sans-Serif" font-size="10.00"> EntityType row_type, EntityType</text>
<text text-anchor="start" x="2161" y="-310" font-family="Helvetica,sans-Serif" font-size="10.00"> col_type, EntitiesFieldData::EntData</text>
<text text-anchor="start" x="2161" y="-299" font-family="Helvetica,sans-Serif" font-size="10.00"> &amp;row_data, EntitiesFieldData::EntData</text>
<text text-anchor="middle" x="2256" y="-288" font-family="Helvetica,sans-Serif" font-size="10.00"> &amp;col_data)&gt;</text>
</a>
</g>
</g>
<!-- Node7&#45;&gt;Node4 -->
<g id="edge6" class="edge">
<title>Node7&#45;&gt;Node4</title>
<path fill="none" stroke="#9a32cd" stroke-dasharray="5,2" d="M2369.39,-304.77C2439.72,-293.05 2527.37,-278.44 2583.75,-269.04"/>
<polygon fill="#9a32cd" stroke="#9a32cd" points="2368.44,-301.38 2359.15,-306.48 2369.59,-308.28 2368.44,-301.38"/>
<text text-anchor="middle" x="2458" y="-305.5" font-family="Helvetica,sans-Serif" font-size="10.00"> doWorkLhsHook</text>
</g>
<!-- Node8 -->
<g id="node8" class="node">
<title>Node8</title>
<g id="a_node8"><a xlink:title=" ">
<polygon fill="white" stroke="#bfbfbf" points="2179,-243 2179,-262 2333,-262 2333,-243 2179,-243"/>
<text text-anchor="middle" x="2256" y="-250" font-family="Helvetica,sans-Serif" font-size="10.00">array&lt; bool, MBMAXTYPE &gt;</text>
</a>
</g>
</g>
<!-- Node8&#45;&gt;Node4 -->
<g id="edge7" class="edge">
<title>Node8&#45;&gt;Node4</title>
<path fill="none" stroke="#9a32cd" stroke-dasharray="5,2" d="M2343.7,-254.08C2415.44,-255.39 2515.59,-257.21 2579.37,-258.38"/>
<polygon fill="#9a32cd" stroke="#9a32cd" points="2343.39,-250.57 2333.33,-253.89 2343.26,-257.57 2343.39,-250.57"/>
<text text-anchor="middle" x="2458" y="-260.5" font-family="Helvetica,sans-Serif" font-size="10.00"> doEntities</text>
</g>
<!-- Node9 -->
<g id="node9" class="node">
<title>Node9</title>
<g id="a_node9"><a xlink:title=" ">
<polygon fill="white" stroke="#bfbfbf" points="2607.5,-212 2607.5,-231 2676.5,-231 2676.5,-212 2607.5,-212"/>
<text text-anchor="middle" x="2642" y="-219" font-family="Helvetica,sans-Serif" font-size="10.00">FieldSpace</text>
</a>
</g>
</g>
<!-- Node9&#45;&gt;Node3 -->
<g id="edge8" class="edge">
<title>Node9&#45;&gt;Node3</title>
<path fill="none" stroke="#9a32cd" stroke-dasharray="5,2" d="M2686.82,-227.03C2722.45,-231.57 2774,-238.25 2819,-244.5 2824.85,-245.31 2830.89,-246.16 2836.97,-247.03"/>
<polygon fill="#9a32cd" stroke="#9a32cd" points="2687.12,-223.54 2676.76,-225.75 2686.24,-230.48 2687.12,-223.54"/>
<text text-anchor="middle" x="2782" y="-247.5" font-family="Helvetica,sans-Serif" font-size="10.00"> sPace</text>
</g>
<!-- Node10 -->
<g id="node10" class="node">
<title>Node10</title>
<g id="a_node10"><a xlink:title=" ">
<polygon fill="white" stroke="#bfbfbf" points="1122.5,-822 1122.5,-841 1160.5,-841 1160.5,-822 1122.5,-822"/>
<text text-anchor="middle" x="1141.5" y="-829" font-family="Helvetica,sans-Serif" font-size="10.00">char</text>
</a>
</g>
</g>
<!-- Node10&#45;&gt;Node3 -->
<g id="edge9" class="edge">
<title>Node10&#45;&gt;Node3</title>
<path fill="none" stroke="#9a32cd" stroke-dasharray="5,2" d="M1170.81,-833.11C1230.95,-836.38 1375.88,-843.5 1497.5,-843.5 1497.5,-843.5 1497.5,-843.5 2643,-843.5 2902.95,-843.5 2920.09,-365.93 2920.99,-274.52"/>
<polygon fill="#9a32cd" stroke="#9a32cd" points="1170.77,-829.6 1160.6,-832.54 1170.39,-836.59 1170.77,-829.6"/>
<text text-anchor="middle" x="2063" y="-846.5" font-family="Helvetica,sans-Serif" font-size="10.00"> opType</text>
</g>
<!-- Node38 -->
<g id="node38" class="node">
<title>Node38</title>
<g id="a_node38"><a xlink:href="structMoFEM_1_1Problem.html" target="_top" xlink:title="keeps basic data about problem">
<polygon fill="white" stroke="black" points="1449,-414 1449,-433 1548,-433 1548,-414 1449,-414"/>
<text text-anchor="middle" x="1498.5" y="-421" font-family="Helvetica,sans-Serif" font-size="10.00">MoFEM::Problem</text>
</a>
</g>
</g>
<!-- Node10&#45;&gt;Node38 -->
<g id="edge53" class="edge">
<title>Node10&#45;&gt;Node38</title>
<path fill="none" stroke="#9a32cd" stroke-dasharray="5,2" d="M1170.69,-832.19C1192.26,-831.39 1221.81,-827.26 1243,-812.5 1255.76,-803.61 1248.1,-791.17 1261,-782.5 1311.76,-748.38 1350.92,-801.71 1397,-761.5 1449.58,-715.61 1488.22,-483.36 1496.04,-433.1"/>
<polygon fill="#9a32cd" stroke="#9a32cd" points="1170.46,-828.69 1160.52,-832.35 1170.57,-835.69 1170.46,-828.69"/>
<text text-anchor="middle" x="1329" y="-785.5" font-family="Helvetica,sans-Serif" font-size="10.00"> tagName</text>
</g>
<!-- Node11 -->
<g id="node11" class="node">
<title>Node11</title>
<g id="a_node11"><a xlink:href="structMoFEM_1_1ForcesAndSourcesCore.html" target="_top" xlink:title="structure to get information form mofem into EntitiesFieldData">
<polygon fill="white" stroke="black" points="2557,-593 2557,-612 2727,-612 2727,-593 2557,-593"/>
<text text-anchor="middle" x="2642" y="-600" font-family="Helvetica,sans-Serif" font-size="10.00">MoFEM::ForcesAndSourcesCore</text>
</a>
</g>
</g>
<!-- Node11&#45;&gt;Node3 -->
<g id="edge10" class="edge">
<title>Node11&#45;&gt;Node3</title>
<path fill="none" stroke="#9a32cd" stroke-dasharray="5,2" d="M2657.3,-584.86C2705.8,-525.02 2863.51,-330.44 2908.76,-274.6"/>
<polygon fill="#9a32cd" stroke="#9a32cd" points="2654.3,-583 2650.73,-592.97 2659.74,-587.4 2654.3,-583"/>
<text text-anchor="middle" x="2782" y="-474.5" font-family="Helvetica,sans-Serif" font-size="10.00"> ptrFE</text>
</g>
<!-- Node11&#45;&gt;Node11 -->
<g id="edge68" class="edge">
<title>Node11&#45;&gt;Node11</title>
<path fill="none" stroke="#9a32cd" stroke-dasharray="5,2" d="M2615.96,-621.53C2617.38,-626.63 2626.06,-630.5 2642,-630.5 2666.88,-630.5 2674.08,-621.07 2663.58,-612.26"/>
<polygon fill="#9a32cd" stroke="#9a32cd" points="2619.24,-622.79 2620.42,-612.26 2612.93,-619.75 2619.24,-622.79"/>
<text text-anchor="middle" x="2642" y="-644.5" font-family="Helvetica,sans-Serif" font-size="10.00"> sidePtrFE</text>
<text text-anchor="middle" x="2642" y="-633.5" font-family="Helvetica,sans-Serif" font-size="10.00">refinePtrFE</text>
</g>
<!-- Node12 -->
<g id="node12" class="node">
<title>Node12</title>
<g id="a_node12"><a xlink:href="structMoFEM_1_1FEMethod.html" target="_top" xlink:title="structure for User Loop Methods on finite elements">
<polygon fill="white" stroke="black" points="2202.5,-790 2202.5,-809 2309.5,-809 2309.5,-790 2202.5,-790"/>
<text text-anchor="middle" x="2256" y="-797" font-family="Helvetica,sans-Serif" font-size="10.00">MoFEM::FEMethod</text>
</a>
</g>
</g>
<!-- Node12&#45;&gt;Node11 -->
<g id="edge11" class="edge">
<title>Node12&#45;&gt;Node11</title>
<path fill="none" stroke="midnightblue" d="M2319.66,-795.71C2333.4,-792.79 2347.32,-788.06 2359,-780.5 2370.8,-772.86 2365.15,-762.06 2377,-754.5 2438.59,-715.18 2475.84,-763.24 2539,-726.5 2588.16,-697.91 2623.74,-636.14 2636.17,-612.23"/>
<polygon fill="midnightblue" stroke="midnightblue" points="2318.92,-792.29 2309.72,-797.53 2320.18,-799.17 2318.92,-792.29"/>
</g>
<!-- Node13 -->
<g id="node13" class="node">
<title>Node13</title>
<g id="a_node13"><a xlink:href="structMoFEM_1_1BasicMethod.html" target="_top" xlink:title="Data structure to exchange data between mofem and User Loop Methods.">
<polygon fill="white" stroke="black" points="1825,-414 1825,-433 1947,-433 1947,-414 1825,-414"/>
<text text-anchor="middle" x="1886" y="-421" font-family="Helvetica,sans-Serif" font-size="10.00">MoFEM::BasicMethod</text>
</a>
</g>
</g>
<!-- Node13&#45;&gt;Node12 -->
<g id="edge12" class="edge">
<title>Node13&#45;&gt;Node12</title>
<path fill="none" stroke="midnightblue" d="M1900.02,-441.33C1952.21,-512.79 2143.94,-774.85 2153,-780.5 2167.68,-789.65 2185.69,-794.6 2202.47,-797.23"/>
<polygon fill="midnightblue" stroke="midnightblue" points="1902.83,-439.26 1894.11,-433.25 1897.18,-443.39 1902.83,-439.26"/>
</g>
<!-- Node14 -->
<g id="node14" class="node">
<title>Node14</title>
<g id="a_node14"><a xlink:href="structMoFEM_1_1KspMethod.html" target="_top" xlink:title="data structure for ksp (linear solver) context">
<polygon fill="white" stroke="black" points="1442,-1220 1442,-1239 1555,-1239 1555,-1220 1442,-1220"/>
<text text-anchor="middle" x="1498.5" y="-1227" font-family="Helvetica,sans-Serif" font-size="10.00">MoFEM::KspMethod</text>
</a>
</g>
</g>
<!-- Node14&#45;&gt;Node13 -->
<g id="edge13" class="edge">
<title>Node14&#45;&gt;Node13</title>
<path fill="none" stroke="midnightblue" d="M1510.88,-1211.21C1551.33,-1145.72 1690.54,-916.11 1781,-714.5 1829.21,-607.06 1871.2,-469.93 1882.2,-433.01"/>
<polygon fill="midnightblue" stroke="midnightblue" points="1507.74,-1209.63 1505.45,-1219.97 1513.7,-1213.31 1507.74,-1209.63"/>
</g>
<!-- Node15 -->
<g id="node15" class="node">
<title>Node15</title>
<g id="a_node15"><a xlink:href="structMoFEM_1_1PetscData.html" target="_top" xlink:title=" ">
<polygon fill="white" stroke="black" points="1087.5,-1137 1087.5,-1156 1195.5,-1156 1195.5,-1137 1087.5,-1137"/>
<text text-anchor="middle" x="1141.5" y="-1144" font-family="Helvetica,sans-Serif" font-size="10.00">MoFEM::PetscData</text>
</a>
</g>
</g>
<!-- Node15&#45;&gt;Node14 -->
<g id="edge14" class="edge">
<title>Node15&#45;&gt;Node14</title>
<path fill="none" stroke="midnightblue" d="M1193.26,-1158.37C1264.2,-1174.95 1391.57,-1204.73 1456.71,-1219.96"/>
<polygon fill="midnightblue" stroke="midnightblue" points="1193.76,-1154.89 1183.22,-1156.02 1192.16,-1161.71 1193.76,-1154.89"/>
</g>
<!-- Node25 -->
<g id="node25" class="node">
<title>Node25</title>
<g id="a_node25"><a xlink:href="structMoFEM_1_1SnesMethod.html" target="_top" xlink:title="data structure for snes (nonlinear solver) context">
<polygon fill="white" stroke="black" points="1439,-1031 1439,-1050 1558,-1050 1558,-1031 1439,-1031"/>
<text text-anchor="middle" x="1498.5" y="-1038" font-family="Helvetica,sans-Serif" font-size="10.00">MoFEM::SnesMethod</text>
</a>
</g>
</g>
<!-- Node15&#45;&gt;Node25 -->
<g id="edge27" class="edge">
<title>Node15&#45;&gt;Node25</title>
<path fill="none" stroke="darkgreen" d="M1205.68,-1140.13C1258.13,-1133.49 1334.07,-1120.69 1397,-1097.5 1430.13,-1085.29 1465.21,-1062.93 1483.9,-1050.14"/>
<polygon fill="darkgreen" stroke="darkgreen" points="1205.01,-1136.69 1195.51,-1141.38 1205.86,-1143.64 1205.01,-1136.69"/>
</g>
<!-- Node28 -->
<g id="node28" class="node">
<title>Node28</title>
<g id="a_node28"><a xlink:href="structMoFEM_1_1TSMethod.html" target="_top" xlink:title="data structure for TS (time stepping) context">
<polygon fill="white" stroke="black" points="1445,-751 1445,-770 1552,-770 1552,-751 1445,-751"/>
<text text-anchor="middle" x="1498.5" y="-758" font-family="Helvetica,sans-Serif" font-size="10.00">MoFEM::TSMethod</text>
</a>
</g>
</g>
<!-- Node15&#45;&gt;Node28 -->
<g id="edge33" class="edge">
<title>Node15&#45;&gt;Node28</title>
<path fill="none" stroke="darkgreen" d="M1205.68,-1138.64C1218.75,-1135.09 1231.9,-1129.94 1243,-1122.5 1254.37,-1114.88 1249.54,-1104.99 1261,-1097.5 1312.75,-1063.71 1351.06,-1109.84 1397,-1068.5 1402.97,-1063.13 1478.35,-821.96 1494.48,-770.21"/>
<polygon fill="darkgreen" stroke="darkgreen" points="1204.62,-1135.29 1195.73,-1141.06 1206.28,-1142.09 1204.62,-1135.29"/>
</g>
<!-- Node16 -->
<g id="node16" class="node">
<title>Node16</title>
<g id="a_node16"><a xlink:href="structMoFEM_1_1UnknownInterface.html" target="_top" xlink:title="base class for all interface classes">
<polygon fill="white" stroke="black" points="735,-1307 735,-1326 883,-1326 883,-1307 735,-1307"/>
<text text-anchor="middle" x="809" y="-1314" font-family="Helvetica,sans-Serif" font-size="10.00">MoFEM::UnknownInterface</text>
</a>
</g>
</g>
<!-- Node16&#45;&gt;Node15 -->
<g id="edge15" class="edge">
<title>Node16&#45;&gt;Node15</title>
<path fill="none" stroke="midnightblue" d="M858.91,-1304.08C906.32,-1289.74 977.43,-1261.83 1022,-1214.5 1036.48,-1199.12 1023.96,-1184.25 1040,-1170.5 1053.15,-1159.24 1070.66,-1153.05 1087.38,-1149.72"/>
<polygon fill="midnightblue" stroke="midnightblue" points="857.78,-1300.76 849.17,-1306.93 859.75,-1307.48 857.78,-1300.76"/>
</g>
<!-- Node56 -->
<g id="node56" class="node">
<title>Node56</title>
<g id="a_node56"><a xlink:href="structMoFEM_1_1CoreInterface.html" target="_top" xlink:title="Interface.">
<polygon fill="white" stroke="black" points="1079,-1454 1079,-1473 1204,-1473 1204,-1454 1079,-1454"/>
<text text-anchor="middle" x="1141.5" y="-1461" font-family="Helvetica,sans-Serif" font-size="10.00">MoFEM::CoreInterface</text>
</a>
</g>
</g>
<!-- Node16&#45;&gt;Node56 -->
<g id="edge67" class="edge">
<title>Node16&#45;&gt;Node56</title>
<path fill="none" stroke="midnightblue" d="M815.22,-1336.19C825.34,-1369.85 851.12,-1437.52 901,-1465.5 967.18,-1502.63 1060.72,-1485.8 1108.98,-1473.08"/>
<polygon fill="midnightblue" stroke="midnightblue" points="818.48,-1334.85 812.38,-1326.19 811.75,-1336.76 818.48,-1334.85"/>
</g>
<!-- Node17 -->
<g id="node17" class="node">
<title>Node17</title>
<g id="a_node17"><a xlink:title=" ">
<polygon fill="white" stroke="#bfbfbf" points="386,-1285 386,-1348 627,-1348 627,-1285 386,-1285"/>
<text text-anchor="start" x="394" y="-1336" font-family="Helvetica,sans-Serif" font-size="10.00">multi_index_container</text>
<text text-anchor="start" x="394" y="-1325" font-family="Helvetica,sans-Serif" font-size="10.00">&lt; UIdTypeMap, indexed</text>
<text text-anchor="start" x="394" y="-1314" font-family="Helvetica,sans-Serif" font-size="10.00">_by&lt; hashed_unique&lt; member</text>
<text text-anchor="start" x="394" y="-1303" font-family="Helvetica,sans-Serif" font-size="10.00">&lt; UIdTypeMap, boost::typeindex</text>
<text text-anchor="middle" x="506.5" y="-1292" font-family="Helvetica,sans-Serif" font-size="10.00">::type_index, &amp;UIdTypeMap::classIdx &gt; &gt; &gt; &gt;</text>
</a>
</g>
</g>
<!-- Node17&#45;&gt;Node16 -->
<g id="edge16" class="edge">
<title>Node17&#45;&gt;Node16</title>
<path fill="none" stroke="#9a32cd" stroke-dasharray="5,2" d="M637.41,-1316.5C670.69,-1316.5 705.33,-1316.5 734.62,-1316.5"/>
<polygon fill="#9a32cd" stroke="#9a32cd" points="637.13,-1313 627.13,-1316.5 637.13,-1320 637.13,-1313"/>
<text text-anchor="middle" x="681" y="-1319.5" font-family="Helvetica,sans-Serif" font-size="10.00"> iFaceTypeMap</text>
</g>
<!-- Node18 -->
<g id="node18" class="node">
<title>Node18</title>
<g id="a_node18"><a xlink:title=" ">
<polygon fill="white" stroke="#bfbfbf" points="0,-1337 0,-1356 125,-1356 125,-1337 0,-1337"/>
<text text-anchor="middle" x="62.5" y="-1344" font-family="Helvetica,sans-Serif" font-size="10.00">multi_index_container</text>
</a>
</g>
</g>
<!-- Node18&#45;&gt;Node13 -->
<g id="edge40" class="edge">
<title>Node18&#45;&gt;Node13</title>
<path fill="none" stroke="#9a32cd" stroke-dasharray="5,2" d="M114.58,-1358.03C123.99,-1359.8 133.76,-1361.4 143,-1362.5 303.1,-1381.58 344.27,-1376.5 505.5,-1376.5 505.5,-1376.5 505.5,-1376.5 1499.5,-1376.5 1567.18,-1376.5 1546.82,-1306.32 1582,-1248.5 1674.41,-1096.62 1726.5,-1070.72 1781,-901.5 1804.97,-827.08 1784.27,-803.29 1799,-726.5 1821.61,-608.62 1868.67,-470.13 1881.63,-433.03"/>
<polygon fill="#9a32cd" stroke="#9a32cd" points="115.05,-1354.56 104.56,-1356.07 113.7,-1361.43 115.05,-1354.56"/>
<text text-anchor="middle" x="961.5" y="-1456.5" font-family="Helvetica,sans-Serif" font-size="10.00"> adjacenciesPtr</text>
<text text-anchor="middle" x="961.5" y="-1445.5" font-family="Helvetica,sans-Serif" font-size="10.00">refinedEntitiesPtr</text>
<text text-anchor="middle" x="961.5" y="-1434.5" font-family="Helvetica,sans-Serif" font-size="10.00">finiteElementsEntitiesPtr</text>
<text text-anchor="middle" x="961.5" y="-1423.5" font-family="Helvetica,sans-Serif" font-size="10.00">dofsPtr</text>
<text text-anchor="middle" x="961.5" y="-1412.5" font-family="Helvetica,sans-Serif" font-size="10.00">entitiesPtr</text>
<text text-anchor="middle" x="961.5" y="-1401.5" font-family="Helvetica,sans-Serif" font-size="10.00">finiteElementsPtr</text>
<text text-anchor="middle" x="961.5" y="-1390.5" font-family="Helvetica,sans-Serif" font-size="10.00">refinedFiniteElementsPtr</text>
<text text-anchor="middle" x="961.5" y="-1379.5" font-family="Helvetica,sans-Serif" font-size="10.00">fieldsPtr</text>
</g>
<!-- Node18&#45;&gt;Node17 -->
<g id="edge17" class="edge">
<title>Node18&#45;&gt;Node17</title>
<path fill="none" stroke="orange" stroke-dasharray="5,2" d="M94.05,-1333.05C108.58,-1327.36 126.37,-1321.39 143,-1318.5 223.14,-1304.57 314.76,-1304.2 385.84,-1307.24"/>
<polygon fill="orange" stroke="orange" points="92.52,-1329.9 84.58,-1336.9 95.16,-1336.38 92.52,-1329.9"/>
<text text-anchor="start" x="143" y="-1354.5" font-family="Helvetica,sans-Serif" font-size="10.00"> &lt; UIdTypeMap, indexed</text>
<text text-anchor="start" x="143" y="-1343.5" font-family="Helvetica,sans-Serif" font-size="10.00">_by&lt; hashed_unique&lt; member</text>
<text text-anchor="start" x="143" y="-1332.5" font-family="Helvetica,sans-Serif" font-size="10.00">&lt; UIdTypeMap, boost::typeindex</text>
<text text-anchor="middle" x="255.5" y="-1321.5" font-family="Helvetica,sans-Serif" font-size="10.00">::type_index, &amp;UIdTypeMap::classIdx &gt; &gt; &gt; &gt;</text>
</g>
<!-- Node19 -->
<g id="node19" class="node">
<title>Node19</title>
<g id="a_node19"><a xlink:title=" ">
<polygon fill="white" stroke="#bfbfbf" points="738.5,-1012 738.5,-1031 879.5,-1031 879.5,-1012 738.5,-1012"/>
<text text-anchor="middle" x="809" y="-1019" font-family="Helvetica,sans-Serif" font-size="10.00">static constexpr Switches</text>
</a>
</g>
</g>
<!-- Node19&#45;&gt;Node15 -->
<g id="edge18" class="edge">
<title>Node19&#45;&gt;Node15</title>
<path fill="none" stroke="#9a32cd" stroke-dasharray="5,2" d="M889.84,-1015.97C933.88,-1017.25 986.63,-1026.55 1022,-1058.5 1043.93,-1078.31 1018.7,-1102.03 1040,-1122.5 1052.68,-1134.68 1070.37,-1141.05 1087.39,-1144.28"/>
<polygon fill="#9a32cd" stroke="#9a32cd" points="889.77,-1012.47 879.72,-1015.81 889.66,-1019.47 889.77,-1012.47"/>
<text text-anchor="middle" x="961.5" y="-1138.5" font-family="Helvetica,sans-Serif" font-size="10.00"> CtxSetX_TT</text>
<text text-anchor="middle" x="961.5" y="-1127.5" font-family="Helvetica,sans-Serif" font-size="10.00">CtxSetX_T</text>
<text text-anchor="middle" x="961.5" y="-1116.5" font-family="Helvetica,sans-Serif" font-size="10.00">CtxSetA</text>
<text text-anchor="middle" x="961.5" y="-1105.5" font-family="Helvetica,sans-Serif" font-size="10.00">CtxSetB</text>
<text text-anchor="middle" x="961.5" y="-1094.5" font-family="Helvetica,sans-Serif" font-size="10.00">CtxSetTime</text>
<text text-anchor="middle" x="961.5" y="-1083.5" font-family="Helvetica,sans-Serif" font-size="10.00">CtxSetNone</text>
<text text-anchor="middle" x="961.5" y="-1072.5" font-family="Helvetica,sans-Serif" font-size="10.00">CtxSetF</text>
<text text-anchor="middle" x="961.5" y="-1061.5" font-family="Helvetica,sans-Serif" font-size="10.00">CtxSetX</text>
</g>
<!-- Node20 -->
<g id="node20" class="node">
<title>Node20</title>
<g id="a_node20"><a xlink:title=" ">
<polygon fill="white" stroke="#bfbfbf" points="791.5,-1215 791.5,-1234 826.5,-1234 826.5,-1215 791.5,-1215"/>
<text text-anchor="middle" x="809" y="-1222" font-family="Helvetica,sans-Serif" font-size="10.00">Mat</text>
</a>
</g>
</g>
<!-- Node20&#45;&gt;Node14 -->
<g id="edge24" class="edge">
<title>Node20&#45;&gt;Node14</title>
<path fill="none" stroke="#9a32cd" stroke-dasharray="5,2" d="M834.07,-1239.49C851.83,-1249.63 876.98,-1262.11 901,-1267.5 1108.31,-1314.01 1365.58,-1261.82 1460.28,-1239.05"/>
<polygon fill="#9a32cd" stroke="#9a32cd" points="835.42,-1236.22 825.02,-1234.16 831.87,-1242.25 835.42,-1236.22"/>
<text text-anchor="middle" x="1141.5" y="-1299.5" font-family="Helvetica,sans-Serif" font-size="10.00"> ksp_A</text>
<text text-anchor="middle" x="1141.5" y="-1288.5" font-family="Helvetica,sans-Serif" font-size="10.00">ksp_B</text>
</g>
<!-- Node20&#45;&gt;Node15 -->
<g id="edge19" class="edge">
<title>Node20&#45;&gt;Node15</title>
<path fill="none" stroke="#9a32cd" stroke-dasharray="5,2" d="M836.06,-1214.17C854.08,-1207.32 878.73,-1198.52 901,-1192.5 910.09,-1190.04 1022.33,-1168.76 1089.88,-1156.02"/>
<polygon fill="#9a32cd" stroke="#9a32cd" points="834.61,-1210.98 826.54,-1217.85 837.13,-1217.52 834.61,-1210.98"/>
<text text-anchor="middle" x="961.5" y="-1206.5" font-family="Helvetica,sans-Serif" font-size="10.00"> A</text>
<text text-anchor="middle" x="961.5" y="-1195.5" font-family="Helvetica,sans-Serif" font-size="10.00">B</text>
</g>
<!-- Node20&#45;&gt;Node25 -->
<g id="edge29" class="edge">
<title>Node20&#45;&gt;Node25</title>
<path fill="none" stroke="#9a32cd" stroke-dasharray="5,2" d="M836.61,-1229.59C878.04,-1236.26 959.7,-1244.3 1022,-1218.5 1032.17,-1214.29 1030.17,-1206.45 1040,-1201.5 1121.85,-1160.31 1153.36,-1184.49 1243,-1165.5 1311.97,-1150.89 1334.4,-1159.91 1397,-1127.5 1436.35,-1107.13 1473.21,-1068.38 1489.17,-1050.27"/>
<polygon fill="#9a32cd" stroke="#9a32cd" points="836.95,-1226.1 826.5,-1227.86 835.77,-1233 836.95,-1226.1"/>
<text text-anchor="middle" x="1141.5" y="-1215.5" font-family="Helvetica,sans-Serif" font-size="10.00"> snes_A</text>
<text text-anchor="middle" x="1141.5" y="-1204.5" font-family="Helvetica,sans-Serif" font-size="10.00">snes_B</text>
</g>
<!-- Node20&#45;&gt;Node28 -->
<g id="edge34" class="edge">
<title>Node20&#45;&gt;Node28</title>
<path fill="none" stroke="#9a32cd" stroke-dasharray="5,2" d="M835.43,-1211.57C850.49,-1203.04 869.26,-1190.82 883,-1176.5 893.77,-1165.28 888.71,-1156.03 901,-1146.5 945.33,-1112.11 986.42,-1153.89 1022,-1110.5 1049.59,-1076.85 1009.85,-946.88 1040,-915.5 1071.53,-882.68 1197.92,-894.72 1243,-888.5 1311.49,-879.05 1335.58,-898.24 1397,-866.5 1442.06,-843.22 1478.05,-791.62 1491.65,-770.16"/>
<polygon fill="#9a32cd" stroke="#9a32cd" points="833.71,-1208.52 826.61,-1216.39 837.06,-1214.66 833.71,-1208.52"/>
<text text-anchor="middle" x="1141.5" y="-929.5" font-family="Helvetica,sans-Serif" font-size="10.00"> ts_A</text>
<text text-anchor="middle" x="1141.5" y="-918.5" font-family="Helvetica,sans-Serif" font-size="10.00">ts_B</text>
</g>
<!-- Node21 -->
<g id="node21" class="node">
<title>Node21</title>
<g id="a_node21"><a xlink:title=" ">
<polygon fill="white" stroke="#bfbfbf" points="772.5,-1148 772.5,-1167 845.5,-1167 845.5,-1148 772.5,-1148"/>
<text text-anchor="middle" x="809" y="-1155" font-family="Helvetica,sans-Serif" font-size="10.00">bitset&lt; 8 &gt;</text>
</a>
</g>
</g>
<!-- Node21&#45;&gt;Node15 -->
<g id="edge20" class="edge">
<title>Node21&#45;&gt;Node15</title>
<path fill="none" stroke="#9a32cd" stroke-dasharray="5,2" d="M855.72,-1155.98C916.35,-1153.96 1023.14,-1150.41 1087.3,-1148.27"/>
<polygon fill="#9a32cd" stroke="#9a32cd" points="855.56,-1152.48 845.68,-1156.31 855.79,-1159.48 855.56,-1152.48"/>
<text text-anchor="middle" x="961.5" y="-1156.5" font-family="Helvetica,sans-Serif" font-size="10.00"> data_ctx</text>
</g>
<!-- Node22 -->
<g id="node22" class="node">
<title>Node22</title>
<g id="a_node22"><a xlink:title=" ">
<polygon fill="white" stroke="#bfbfbf" points="792,-900 792,-919 826,-919 826,-900 792,-900"/>
<text text-anchor="middle" x="809" y="-907" font-family="Helvetica,sans-Serif" font-size="10.00">Vec</text>
</a>
</g>
</g>
<!-- Node22&#45;&gt;Node14 -->
<g id="edge25" class="edge">
<title>Node22&#45;&gt;Node14</title>
<path fill="none" stroke="#9a32cd" stroke-dasharray="5,2" d="M836.24,-908.87C887.12,-908.25 996.45,-909.99 1022,-935.5 1067.95,-981.39 995.29,-1033.4 1040,-1080.5 1103.09,-1146.95 1154.43,-1093.01 1243,-1116.5 1313.25,-1135.13 1331.04,-1140.99 1397,-1171.5 1428.81,-1186.21 1463.81,-1207.72 1482.96,-1219.99"/>
<polygon fill="#9a32cd" stroke="#9a32cd" points="835.98,-905.37 826.04,-909.04 836.1,-912.37 835.98,-905.37"/>
<text text-anchor="middle" x="1141.5" y="-1119.5" font-family="Helvetica,sans-Serif" font-size="10.00"> ksp_f</text>
</g>
<!-- Node22&#45;&gt;Node15 -->
<g id="edge21" class="edge">
<title>Node22&#45;&gt;Node15</title>
<path fill="none" stroke="#9a32cd" stroke-dasharray="5,2" d="M836.25,-916.4C892.31,-931.19 1018.91,-964.89 1022,-968.5 1066.81,-1020.86 994.23,-1070.98 1040,-1122.5 1051.91,-1135.91 1069.86,-1142.51 1087.3,-1145.57"/>
<polygon fill="#9a32cd" stroke="#9a32cd" points="836.91,-912.95 826.34,-913.79 835.12,-919.72 836.91,-912.95"/>
<text text-anchor="middle" x="961.5" y="-1004.5" font-family="Helvetica,sans-Serif" font-size="10.00"> f</text>
<text text-anchor="middle" x="961.5" y="-993.5" font-family="Helvetica,sans-Serif" font-size="10.00">x</text>
<text text-anchor="middle" x="961.5" y="-982.5" font-family="Helvetica,sans-Serif" font-size="10.00">x_t</text>
<text text-anchor="middle" x="961.5" y="-971.5" font-family="Helvetica,sans-Serif" font-size="10.00">x_tt</text>
</g>
<!-- Node22&#45;&gt;Node25 -->
<g id="edge30" class="edge">
<title>Node22&#45;&gt;Node25</title>
<path fill="none" stroke="#9a32cd" stroke-dasharray="5,2" d="M835.76,-901.95C877.91,-891.18 962.83,-876.25 1022,-910.5 1035.79,-918.48 1027.05,-932.22 1040,-941.5 1114.81,-995.13 1152.89,-963.75 1243,-982.5 1311.53,-996.76 1328.8,-999.72 1397,-1015.5 1418.02,-1020.37 1441.42,-1026.16 1460.34,-1030.95"/>
<polygon fill="#9a32cd" stroke="#9a32cd" points="834.76,-898.59 826.01,-904.56 836.57,-905.35 834.76,-898.59"/>
<text text-anchor="middle" x="1141.5" y="-996.5" font-family="Helvetica,sans-Serif" font-size="10.00"> snes_x</text>
<text text-anchor="middle" x="1141.5" y="-985.5" font-family="Helvetica,sans-Serif" font-size="10.00">snes_f</text>
</g>
<!-- Node22&#45;&gt;Node28 -->
<g id="edge38" class="edge">
<title>Node22&#45;&gt;Node28</title>
<path fill="none" stroke="#9a32cd" stroke-dasharray="5,2" d="M821.72,-891.41C851.64,-847.13 935.91,-733.85 1040,-692.5 1113.75,-663.2 1321.08,-677.42 1397,-700.5 1432.19,-711.2 1467.86,-736.76 1485.74,-750.82"/>
<polygon fill="#9a32cd" stroke="#9a32cd" points="818.64,-889.73 816.02,-899.99 824.47,-893.6 818.64,-889.73"/>
<text text-anchor="middle" x="1141.5" y="-728.5" font-family="Helvetica,sans-Serif" font-size="10.00"> ts_u</text>
<text text-anchor="middle" x="1141.5" y="-717.5" font-family="Helvetica,sans-Serif" font-size="10.00">ts_F</text>
<text text-anchor="middle" x="1141.5" y="-706.5" font-family="Helvetica,sans-Serif" font-size="10.00">ts_u_t</text>
<text text-anchor="middle" x="1141.5" y="-695.5" font-family="Helvetica,sans-Serif" font-size="10.00">ts_u_tt</text>
</g>
<!-- Node23 -->
<g id="node23" class="node">
<title>Node23</title>
<g id="a_node23"><a xlink:title=" ">
<polygon fill="white" stroke="#bfbfbf" points="1124,-1329 1124,-1348 1159,-1348 1159,-1329 1124,-1329"/>
<text text-anchor="middle" x="1141.5" y="-1336" font-family="Helvetica,sans-Serif" font-size="10.00">KSP</text>
</a>
</g>
</g>
<!-- Node23&#45;&gt;Node14 -->
<g id="edge22" class="edge">
<title>Node23&#45;&gt;Node14</title>
<path fill="none" stroke="#9a32cd" stroke-dasharray="5,2" d="M1169.41,-1338.89C1217.08,-1338.69 1318.71,-1334.17 1397,-1302.5 1434.38,-1287.38 1470.78,-1255.4 1487.68,-1239.26"/>
<polygon fill="#9a32cd" stroke="#9a32cd" points="1169.3,-1335.39 1159.29,-1338.87 1169.28,-1342.39 1169.3,-1335.39"/>
<text text-anchor="middle" x="1329" y="-1336.5" font-family="Helvetica,sans-Serif" font-size="10.00"> ksp</text>
</g>
<!-- Node24 -->
<g id="node24" class="node">
<title>Node24</title>
<g id="a_node24"><a xlink:title=" ">
<polygon fill="white" stroke="#bfbfbf" points="1104.5,-1233 1104.5,-1252 1178.5,-1252 1178.5,-1233 1104.5,-1233"/>
<text text-anchor="middle" x="1141.5" y="-1240" font-family="Helvetica,sans-Serif" font-size="10.00">KSPContext</text>
</a>
</g>
</g>
<!-- Node24&#45;&gt;Node14 -->
<g id="edge23" class="edge">
<title>Node24&#45;&gt;Node14</title>
<path fill="none" stroke="#9a32cd" stroke-dasharray="5,2" d="M1189.19,-1240.79C1254.3,-1238.41 1372.2,-1234.09 1441.81,-1231.54"/>
<polygon fill="#9a32cd" stroke="#9a32cd" points="1188.69,-1237.31 1178.82,-1241.17 1188.94,-1244.3 1188.69,-1237.31"/>
<text text-anchor="middle" x="1329" y="-1240.5" font-family="Helvetica,sans-Serif" font-size="10.00"> ksp_ctx</text>
</g>
<!-- Node25&#45;&gt;Node13 -->
<g id="edge26" class="edge">
<title>Node25&#45;&gt;Node13</title>
<path fill="none" stroke="midnightblue" d="M1504.5,-1020.88C1516.27,-977.09 1548.65,-869.11 1600,-791.5 1662.77,-696.62 1712.47,-701.31 1781,-610.5 1828.22,-547.93 1868.25,-461.47 1880.87,-433"/>
<polygon fill="midnightblue" stroke="midnightblue" points="1501.06,-1020.24 1501.9,-1030.8 1507.83,-1022.02 1501.06,-1020.24"/>
</g>
<!-- Node26 -->
<g id="node26" class="node">
<title>Node26</title>
<g id="a_node26"><a xlink:title=" ">
<polygon fill="white" stroke="#bfbfbf" points="1120.5,-1014 1120.5,-1033 1162.5,-1033 1162.5,-1014 1120.5,-1014"/>
<text text-anchor="middle" x="1141.5" y="-1021" font-family="Helvetica,sans-Serif" font-size="10.00">SNES</text>
</a>
</g>
</g>
<!-- Node26&#45;&gt;Node25 -->
<g id="edge28" class="edge">
<title>Node26&#45;&gt;Node25</title>
<path fill="none" stroke="#9a32cd" stroke-dasharray="5,2" d="M1172.94,-1022.11C1220.75,-1020.27 1316.31,-1017.96 1397,-1024.5 1413.55,-1025.84 1431.5,-1028.36 1447.59,-1031"/>
<polygon fill="#9a32cd" stroke="#9a32cd" points="1172.52,-1018.62 1162.67,-1022.53 1172.8,-1025.62 1172.52,-1018.62"/>
<text text-anchor="middle" x="1329" y="-1027.5" font-family="Helvetica,sans-Serif" font-size="10.00"> snes</text>
</g>
<!-- Node27 -->
<g id="node27" class="node">
<title>Node27</title>
<g id="a_node27"><a xlink:title=" ">
<polygon fill="white" stroke="#bfbfbf" points="1101.5,-1052 1101.5,-1071 1181.5,-1071 1181.5,-1052 1101.5,-1052"/>
<text text-anchor="middle" x="1141.5" y="-1059" font-family="Helvetica,sans-Serif" font-size="10.00">SNESContext</text>
</a>
</g>
</g>
<!-- Node27&#45;&gt;Node25 -->
<g id="edge31" class="edge">
<title>Node27&#45;&gt;Node25</title>
<path fill="none" stroke="#9a32cd" stroke-dasharray="5,2" d="M1191.84,-1058.58C1256.48,-1054.76 1369.71,-1048.06 1438.73,-1043.98"/>
<polygon fill="#9a32cd" stroke="#9a32cd" points="1191.28,-1055.11 1181.51,-1059.19 1191.7,-1062.1 1191.28,-1055.11"/>
<text text-anchor="middle" x="1329" y="-1056.5" font-family="Helvetica,sans-Serif" font-size="10.00"> snes_ctx</text>
</g>
<!-- Node28&#45;&gt;Node13 -->
<g id="edge32" class="edge">
<title>Node28&#45;&gt;Node13</title>
<path fill="none" stroke="midnightblue" d="M1518.47,-743.91C1586.93,-684.07 1819.99,-480.34 1873.83,-433.26"/>
<polygon fill="midnightblue" stroke="midnightblue" points="1515.85,-741.56 1510.62,-750.78 1520.45,-746.83 1515.85,-741.56"/>
</g>
<!-- Node29 -->
<g id="node29" class="node">
<title>Node29</title>
<g id="a_node29"><a xlink:title=" ">
<polygon fill="white" stroke="#bfbfbf" points="1109,-746 1109,-765 1174,-765 1174,-746 1109,-746"/>
<text text-anchor="middle" x="1141.5" y="-753" font-family="Helvetica,sans-Serif" font-size="10.00">PetscReal</text>
</a>
</g>
</g>
<!-- Node29&#45;&gt;Node28 -->
<g id="edge35" class="edge">
<title>Node29&#45;&gt;Node28</title>
<path fill="none" stroke="#9a32cd" stroke-dasharray="5,2" d="M1183.99,-749.7C1202.66,-746.07 1224.58,-740.35 1243,-731.5 1252.14,-727.11 1251.41,-720.79 1261,-717.5 1318.17,-697.88 1337.79,-705.36 1397,-717.5 1428.05,-723.86 1461.36,-740.22 1480.76,-750.83"/>
<polygon fill="#9a32cd" stroke="#9a32cd" points="1183.22,-746.29 1174,-751.51 1184.46,-753.17 1183.22,-746.29"/>
<text text-anchor="middle" x="1329" y="-753.5" font-family="Helvetica,sans-Serif" font-size="10.00"> ts_a</text>
<text text-anchor="middle" x="1329" y="-742.5" font-family="Helvetica,sans-Serif" font-size="10.00">ts_t</text>
<text text-anchor="middle" x="1329" y="-731.5" font-family="Helvetica,sans-Serif" font-size="10.00">ts_dt</text>
<text text-anchor="middle" x="1329" y="-720.5" font-family="Helvetica,sans-Serif" font-size="10.00">ts_aa</text>
</g>
<!-- Node30 -->
<g id="node30" class="node">
<title>Node30</title>
<g id="a_node30"><a xlink:title=" ">
<polygon fill="white" stroke="#bfbfbf" points="1108,-628 1108,-647 1175,-647 1175,-628 1108,-628"/>
<text text-anchor="middle" x="1141.5" y="-635" font-family="Helvetica,sans-Serif" font-size="10.00">TSContext</text>
</a>
</g>
</g>
<!-- Node30&#45;&gt;Node28 -->
<g id="edge36" class="edge">
<title>Node30&#45;&gt;Node28</title>
<path fill="none" stroke="#9a32cd" stroke-dasharray="5,2" d="M1185.24,-632.29C1237.75,-627.8 1328.29,-626.36 1397,-658.5 1441.81,-679.46 1477.68,-729.47 1491.44,-750.7"/>
<polygon fill="#9a32cd" stroke="#9a32cd" points="1184.9,-628.81 1175.27,-633.22 1185.55,-635.78 1184.9,-628.81"/>
<text text-anchor="middle" x="1329" y="-661.5" font-family="Helvetica,sans-Serif" font-size="10.00"> ts_ctx</text>
</g>
<!-- Node31 -->
<g id="node31" class="node">
<title>Node31</title>
<g id="a_node31"><a xlink:title=" ">
<polygon fill="white" stroke="#bfbfbf" points="1113.5,-860 1113.5,-879 1169.5,-879 1169.5,-860 1113.5,-860"/>
<text text-anchor="middle" x="1141.5" y="-867" font-family="Helvetica,sans-Serif" font-size="10.00">PetscInt</text>
</a>
</g>
</g>
<!-- Node31&#45;&gt;Node28 -->
<g id="edge37" class="edge">
<title>Node31&#45;&gt;Node28</title>
<path fill="none" stroke="#9a32cd" stroke-dasharray="5,2" d="M1179.81,-865.71C1230.36,-859.71 1322.82,-845.72 1397,-817.5 1430,-804.95 1465.12,-782.71 1483.86,-770.04"/>
<polygon fill="#9a32cd" stroke="#9a32cd" points="1179.22,-862.25 1169.68,-866.86 1180.01,-869.2 1179.22,-862.25"/>
<text text-anchor="middle" x="1329" y="-854.5" font-family="Helvetica,sans-Serif" font-size="10.00"> ts_step</text>
</g>
<!-- Node32 -->
<g id="node32" class="node">
<title>Node32</title>
<g id="a_node32"><a xlink:title=" ">
<polygon fill="white" stroke="#bfbfbf" points="1127,-784 1127,-803 1156,-803 1156,-784 1127,-784"/>
<text text-anchor="middle" x="1141.5" y="-791" font-family="Helvetica,sans-Serif" font-size="10.00">TS</text>
</a>
</g>
</g>
<!-- Node32&#45;&gt;Node28 -->
<g id="edge39" class="edge">
<title>Node32&#45;&gt;Node28</title>
<path fill="none" stroke="#9a32cd" stroke-dasharray="5,2" d="M1166.14,-796.42C1211.37,-801.4 1313.08,-809.69 1397,-795.5 1425.42,-790.69 1456.52,-778.75 1476.48,-770.15"/>
<polygon fill="#9a32cd" stroke="#9a32cd" points="1166.49,-792.93 1156.15,-795.27 1165.69,-799.89 1166.49,-792.93"/>
<text text-anchor="middle" x="1329" y="-805.5" font-family="Helvetica,sans-Serif" font-size="10.00"> ts</text>
</g>
<!-- Node33 -->
<g id="node33" class="node">
<title>Node33</title>
<g id="a_node33"><a xlink:title=" ">
<polygon fill="white" stroke="#bfbfbf" points="1454,-296 1454,-315 1543,-315 1543,-296 1454,-296"/>
<text text-anchor="middle" x="1498.5" y="-303" font-family="Helvetica,sans-Serif" font-size="10.00">pair&lt; int, int &gt;</text>
</a>
</g>
</g>
<!-- Node33&#45;&gt;Node13 -->
<g id="edge41" class="edge">
<title>Node33&#45;&gt;Node13</title>
<path fill="none" stroke="#9a32cd" stroke-dasharray="5,2" d="M1553.25,-299.25C1611.84,-294.73 1707.09,-294.16 1781,-326.5 1825.79,-346.1 1863.51,-393.41 1878.3,-413.84"/>
<polygon fill="#9a32cd" stroke="#9a32cd" points="1552.78,-295.78 1543.11,-300.11 1553.36,-302.76 1552.78,-295.78"/>
<text text-anchor="middle" x="1690.5" y="-329.5" font-family="Helvetica,sans-Serif" font-size="10.00"> loHiFERank</text>
</g>
<!-- Node34 -->
<g id="node34" class="node">
<title>Node34</title>
<g id="a_node34"><a xlink:title=" ">
<polygon fill="white" stroke="#bfbfbf" points="1428.5,-258 1428.5,-277 1568.5,-277 1568.5,-258 1428.5,-258"/>
<text text-anchor="middle" x="1498.5" y="-265" font-family="Helvetica,sans-Serif" font-size="10.00">weak_ptr&lt; CacheTuple &gt;</text>
</a>
</g>
</g>
<!-- Node34&#45;&gt;Node13 -->
<g id="edge42" class="edge">
<title>Node34&#45;&gt;Node13</title>
<path fill="none" stroke="#9a32cd" stroke-dasharray="5,2" d="M1579,-263.96C1649.83,-262.15 1747.33,-263.36 1781,-281.5 1837.22,-311.79 1870.96,-387.27 1881.46,-413.96"/>
<polygon fill="#9a32cd" stroke="#9a32cd" points="1578.65,-260.47 1568.75,-264.25 1578.84,-267.47 1578.65,-260.47"/>
<text text-anchor="middle" x="1690.5" y="-284.5" font-family="Helvetica,sans-Serif" font-size="10.00"> cacheWeakPtr</text>
</g>
<!-- Node35 -->
<g id="node35" class="node">
<title>Node35</title>
<g id="a_node35"><a xlink:title=" ">
<polygon fill="white" stroke="#bfbfbf" points="1442.5,-219 1442.5,-238 1554.5,-238 1554.5,-219 1442.5,-219"/>
<text text-anchor="middle" x="1498.5" y="-226" font-family="Helvetica,sans-Serif" font-size="10.00">unique_ptr&lt; bool &gt;</text>
</a>
</g>
</g>
<!-- Node35&#45;&gt;Node13 -->
<g id="edge43" class="edge">
<title>Node35&#45;&gt;Node13</title>
<path fill="none" stroke="#9a32cd" stroke-dasharray="5,2" d="M1564.91,-223.07C1636.59,-218.37 1746.05,-215.27 1781,-236.5 1789.73,-241.8 1860.26,-376.1 1879.93,-413.76"/>
<polygon fill="#9a32cd" stroke="#9a32cd" points="1564.36,-219.6 1554.62,-223.77 1564.84,-226.58 1564.36,-219.6"/>
<text text-anchor="middle" x="1690.5" y="-250.5" font-family="Helvetica,sans-Serif" font-size="10.00"> matAssembleSwitch</text>
<text text-anchor="middle" x="1690.5" y="-239.5" font-family="Helvetica,sans-Serif" font-size="10.00">vecAssembleSwitch</text>
</g>
<!-- Node36 -->
<g id="node36" class="node">
<title>Node36</title>
<g id="a_node36"><a xlink:title=" ">
<polygon fill="white" stroke="#bfbfbf" points="1127,-91 1127,-110 1156,-110 1156,-91 1127,-91"/>
<text text-anchor="middle" x="1141.5" y="-98" font-family="Helvetica,sans-Serif" font-size="10.00">int</text>
</a>
</g>
</g>
<!-- Node36&#45;&gt;Node1 -->
<g id="edge83" class="edge">
<title>Node36&#45;&gt;Node1</title>
<path fill="none" stroke="#9a32cd" stroke-dasharray="5,2" d="M1166.09,-93.91C1189.85,-87.57 1227.67,-78.25 1261,-73.5 1365.24,-58.64 1392.2,-59.5 1497.5,-59.5 1497.5,-59.5 1497.5,-59.5 3259.5,-59.5 3326.92,-59.5 3403.33,-59.5 3459.97,-59.5"/>
<polygon fill="#9a32cd" stroke="#9a32cd" points="1164.96,-90.59 1156.23,-96.59 1166.79,-97.35 1164.96,-90.59"/>
<text text-anchor="middle" x="2458" y="-62.5" font-family="Helvetica,sans-Serif" font-size="10.00"> verb</text>
</g>
<!-- Node36&#45;&gt;Node13 -->
<g id="edge44" class="edge">
<title>Node36&#45;&gt;Node13</title>
<path fill="none" stroke="#9a32cd" stroke-dasharray="5,2" d="M1165.79,-93.02C1215.8,-78.58 1333.98,-53.38 1397,-114.5 1430.62,-147.11 1383.96,-289.42 1415,-324.5 1415.89,-325.51 1721.16,-389.31 1839.18,-413.94"/>
<polygon fill="#9a32cd" stroke="#9a32cd" points="1164.77,-89.67 1156.2,-95.9 1166.79,-96.38 1164.77,-89.67"/>
<text text-anchor="middle" x="1498.5" y="-395.5" font-family="Helvetica,sans-Serif" font-size="10.00"> sIze</text>
<text text-anchor="middle" x="1498.5" y="-384.5" font-family="Helvetica,sans-Serif" font-size="10.00">loopSize</text>
<text text-anchor="middle" x="1498.5" y="-373.5" font-family="Helvetica,sans-Serif" font-size="10.00">nInTheLoop</text>
<text text-anchor="middle" x="1498.5" y="-362.5" font-family="Helvetica,sans-Serif" font-size="10.00">rAnk</text>
</g>
<!-- Node36&#45;&gt;Node38 -->
<g id="edge56" class="edge">
<title>Node36&#45;&gt;Node38</title>
<path fill="none" stroke="#9a32cd" stroke-dasharray="5,2" d="M1166.36,-102.77C1228.14,-108.77 1389.12,-125.12 1397,-133.5 1437.59,-176.66 1377.86,-353.34 1415,-399.5 1423.32,-409.84 1435.83,-415.89 1448.61,-419.39"/>
<polygon fill="#9a32cd" stroke="#9a32cd" points="1166.32,-99.25 1156.03,-101.78 1165.65,-106.22 1166.32,-99.25"/>
<text text-anchor="middle" x="1329" y="-202.5" font-family="Helvetica,sans-Serif" font-size="10.00"> tagNameSize</text>
<text text-anchor="middle" x="1329" y="-191.5" font-family="Helvetica,sans-Serif" font-size="10.00">nbDofsRow</text>
<text text-anchor="middle" x="1329" y="-180.5" font-family="Helvetica,sans-Serif" font-size="10.00">nbLocDofsCol</text>
<text text-anchor="middle" x="1329" y="-169.5" font-family="Helvetica,sans-Serif" font-size="10.00">nbDofsCol</text>
<text text-anchor="middle" x="1329" y="-158.5" font-family="Helvetica,sans-Serif" font-size="10.00">nbGhostDofsRow</text>
<text text-anchor="middle" x="1329" y="-147.5" font-family="Helvetica,sans-Serif" font-size="10.00">nbGhostDofsCol</text>
<text text-anchor="middle" x="1329" y="-136.5" font-family="Helvetica,sans-Serif" font-size="10.00">nbLocDofsRow</text>
</g>
<!-- Node37 -->
<g id="node37" class="node">
<title>Node37</title>
<g id="a_node37"><a xlink:title=" ">
<polygon fill="white" stroke="#bfbfbf" points="1415,-163 1415,-182 1582,-182 1582,-163 1415,-163"/>
<text text-anchor="middle" x="1498.5" y="-170" font-family="Helvetica,sans-Serif" font-size="10.00">function&lt; MoFEMErrorCode()&gt;</text>
</a>
</g>
</g>
<!-- Node37&#45;&gt;Node13 -->
<g id="edge45" class="edge">
<title>Node37&#45;&gt;Node13</title>
<path fill="none" stroke="#9a32cd" stroke-dasharray="5,2" d="M1539.28,-160.32C1599.06,-144.7 1712.35,-125.87 1781,-182.5 1808.44,-205.14 1786.6,-227.15 1799,-260.5 1821.87,-321.98 1863.26,-389.52 1878.84,-413.99"/>
<polygon fill="#9a32cd" stroke="#9a32cd" points="1538.2,-156.99 1529.46,-162.98 1540.03,-163.74 1538.2,-156.99"/>
<text text-anchor="middle" x="1690.5" y="-207.5" font-family="Helvetica,sans-Serif" font-size="10.00"> preProcessHook</text>
<text text-anchor="middle" x="1690.5" y="-196.5" font-family="Helvetica,sans-Serif" font-size="10.00">operatorHook</text>
<text text-anchor="middle" x="1690.5" y="-185.5" font-family="Helvetica,sans-Serif" font-size="10.00">postProcessHook</text>
</g>
<!-- Node38&#45;&gt;Node13 -->
<g id="edge46" class="edge">
<title>Node38&#45;&gt;Node13</title>
<path fill="none" stroke="#9a32cd" stroke-dasharray="5,2" d="M1558.61,-423.5C1630.79,-423.5 1752.23,-423.5 1824.87,-423.5"/>
<polygon fill="#9a32cd" stroke="#9a32cd" points="1558.32,-420 1548.32,-423.5 1558.32,-427 1558.32,-420"/>
<text text-anchor="middle" x="1690.5" y="-426.5" font-family="Helvetica,sans-Serif" font-size="10.00"> problemPtr</text>
</g>
<!-- Node39 -->
<g id="node39" class="node">
<title>Node39</title>
<g id="a_node39"><a xlink:title=" ">
<polygon fill="white" stroke="#bfbfbf" points="1058,-238.5 1058,-268.5 1225,-268.5 1225,-238.5 1058,-238.5"/>
<text text-anchor="start" x="1066" y="-256.5" font-family="Helvetica,sans-Serif" font-size="10.00">shared_ptr&lt; NumeredEntFinite</text>
<text text-anchor="middle" x="1141.5" y="-245.5" font-family="Helvetica,sans-Serif" font-size="10.00">Element_multiIndex &gt;</text>
</a>
</g>
</g>
<!-- Node39&#45;&gt;Node38 -->
<g id="edge47" class="edge">
<title>Node39&#45;&gt;Node38</title>
<path fill="none" stroke="#9a32cd" stroke-dasharray="5,2" d="M1235.53,-249.84C1298.46,-249.49 1374.12,-253.91 1397,-275.5 1437.5,-313.72 1378.45,-357.48 1415,-399.5 1423.62,-409.4 1436.06,-415.33 1448.67,-418.85"/>
<polygon fill="#9a32cd" stroke="#9a32cd" points="1235.11,-246.35 1225.15,-249.95 1235.18,-253.35 1235.11,-246.35"/>
<text text-anchor="middle" x="1329" y="-278.5" font-family="Helvetica,sans-Serif" font-size="10.00"> numeredFiniteElementsPtr</text>
</g>
<!-- Node40 -->
<g id="node40" class="node">
<title>Node40</title>
<g id="a_node40"><a xlink:title=" ">
<polygon fill="white" stroke="#bfbfbf" points="1112,-200 1112,-219 1171,-219 1171,-200 1112,-200"/>
<text text-anchor="middle" x="1141.5" y="-207" font-family="Helvetica,sans-Serif" font-size="10.00">BitFEId *</text>
</a>
</g>
</g>
<!-- Node40&#45;&gt;Node38 -->
<g id="edge48" class="edge">
<title>Node40&#45;&gt;Node38</title>
<path fill="none" stroke="#9a32cd" stroke-dasharray="5,2" d="M1181.7,-210.68C1249.3,-213.09 1382.02,-219.68 1397,-234.5 1423.22,-260.44 1391.29,-371.25 1415,-399.5 1423.53,-409.67 1436.11,-415.67 1448.88,-419.17"/>
<polygon fill="#9a32cd" stroke="#9a32cd" points="1181.56,-207.17 1171.44,-210.32 1181.32,-214.17 1181.56,-207.17"/>
<text text-anchor="middle" x="1329" y="-237.5" font-family="Helvetica,sans-Serif" font-size="10.00"> tagBitFEId</text>
</g>
<!-- Node41 -->
<g id="node41" class="node">
<title>Node41</title>
<g id="a_node41"><a xlink:href="classEntityHandle.html" target="_top" xlink:title=" ">
<polygon fill="white" stroke="black" points="1101.5,-590 1101.5,-609 1181.5,-609 1181.5,-590 1101.5,-590"/>
<text text-anchor="middle" x="1141.5" y="-597" font-family="Helvetica,sans-Serif" font-size="10.00">EntityHandle</text>
</a>
</g>
</g>
<!-- Node41&#45;&gt;Node38 -->
<g id="edge49" class="edge">
<title>Node41&#45;&gt;Node38</title>
<path fill="none" stroke="#9a32cd" stroke-dasharray="5,2" d="M1191.97,-606.8C1246.27,-612.25 1334.07,-613.25 1397,-575.5 1453.97,-541.33 1485.1,-460.94 1494.45,-433.15"/>
<polygon fill="#9a32cd" stroke="#9a32cd" points="1192.22,-603.31 1181.9,-605.7 1191.46,-610.27 1192.22,-603.31"/>
<text text-anchor="middle" x="1329" y="-611.5" font-family="Helvetica,sans-Serif" font-size="10.00"> meshset</text>
</g>
<!-- Node42 -->
<g id="node42" class="node">
<title>Node42</title>
<g id="a_node42"><a xlink:title=" ">
<polygon fill="white" stroke="#bfbfbf" points="1067,-540.5 1067,-570.5 1216,-570.5 1216,-540.5 1067,-540.5"/>
<text text-anchor="start" x="1075" y="-558.5" font-family="Helvetica,sans-Serif" font-size="10.00">shared_ptr&lt; MoFEM::</text>
<text text-anchor="middle" x="1141.5" y="-547.5" font-family="Helvetica,sans-Serif" font-size="10.00">ComposedProblemsData &gt;</text>
</a>
</g>
</g>
<!-- Node42&#45;&gt;Node38 -->
<g id="edge50" class="edge">
<title>Node42&#45;&gt;Node38</title>
<path fill="none" stroke="#9a32cd" stroke-dasharray="5,2" d="M1226.28,-561.79C1277.98,-562.25 1344.25,-556.46 1397,-530.5 1442.96,-507.88 1478.7,-454.82 1491.94,-433.06"/>
<polygon fill="#9a32cd" stroke="#9a32cd" points="1226.2,-558.29 1216.15,-561.62 1226.09,-565.29 1226.2,-558.29"/>
<text text-anchor="middle" x="1329" y="-563.5" font-family="Helvetica,sans-Serif" font-size="10.00"> composedProblemsData</text>
</g>
<!-- Node43 -->
<g id="node43" class="node">
<title>Node43</title>
<g id="a_node43"><a xlink:title=" ">
<polygon fill="white" stroke="#bfbfbf" points="1101,-502 1101,-521 1182,-521 1182,-502 1101,-502"/>
<text text-anchor="middle" x="1141.5" y="-509" font-family="Helvetica,sans-Serif" font-size="10.00">BitRefLevel *</text>
</a>
</g>
</g>
<!-- Node43&#45;&gt;Node38 -->
<g id="edge51" class="edge">
<title>Node43&#45;&gt;Node38</title>
<path fill="none" stroke="#9a32cd" stroke-dasharray="5,2" d="M1192.33,-510.82C1244.55,-508.83 1328.37,-501.99 1397,-479.5 1430.6,-468.49 1465.78,-445.93 1484.29,-433.06"/>
<polygon fill="#9a32cd" stroke="#9a32cd" points="1192.2,-507.32 1182.32,-511.16 1192.44,-514.32 1192.2,-507.32"/>
<text text-anchor="middle" x="1329" y="-518.5" font-family="Helvetica,sans-Serif" font-size="10.00"> tagBitRefLevelMask</text>
<text text-anchor="middle" x="1329" y="-507.5" font-family="Helvetica,sans-Serif" font-size="10.00">tagBitRefLevel</text>
</g>
<!-- Node44 -->
<g id="node44" class="node">
<title>Node44</title>
<g id="a_node44"><a xlink:title=" ">
<polygon fill="white" stroke="#bfbfbf" points="1056.5,-452.5 1056.5,-482.5 1226.5,-482.5 1226.5,-452.5 1056.5,-452.5"/>
<text text-anchor="start" x="1064.5" y="-470.5" font-family="Helvetica,sans-Serif" font-size="10.00">shared_ptr&lt; NumeredDofEntity</text>
<text text-anchor="middle" x="1141.5" y="-459.5" font-family="Helvetica,sans-Serif" font-size="10.00">_multiIndex &gt;</text>
</a>
</g>
</g>
<!-- Node44&#45;&gt;Node38 -->
<g id="edge52" class="edge">
<title>Node44&#45;&gt;Node38</title>
<path fill="none" stroke="#9a32cd" stroke-dasharray="5,2" d="M1236.63,-457.56C1284.67,-452.29 1344,-445.47 1397,-438.5 1413.97,-436.27 1432.5,-433.57 1448.99,-431.09"/>
<polygon fill="#9a32cd" stroke="#9a32cd" points="1236.12,-454.1 1226.55,-458.66 1236.88,-461.06 1236.12,-454.1"/>
<text text-anchor="middle" x="1329" y="-467.5" font-family="Helvetica,sans-Serif" font-size="10.00"> numeredRowDofsPtr</text>
<text text-anchor="middle" x="1329" y="-456.5" font-family="Helvetica,sans-Serif" font-size="10.00">numeredColDofsPtr</text>
</g>
<!-- Node45 -->
<g id="node45" class="node">
<title>Node45</title>
<g id="a_node45"><a xlink:title=" ">
<polygon fill="white" stroke="#bfbfbf" points="1072.5,-414 1072.5,-433 1210.5,-433 1210.5,-414 1072.5,-414"/>
<text text-anchor="middle" x="1141.5" y="-421" font-family="Helvetica,sans-Serif" font-size="10.00">vector&lt; BlockFieldPair &gt;</text>
</a>
</g>
</g>
<!-- Node45&#45;&gt;Node38 -->
<g id="edge54" class="edge">
<title>Node45&#45;&gt;Node38</title>
<path fill="none" stroke="#9a32cd" stroke-dasharray="5,2" d="M1220.57,-423.5C1290.2,-423.5 1389.95,-423.5 1448.8,-423.5"/>
<polygon fill="#9a32cd" stroke="#9a32cd" points="1220.53,-420 1210.53,-423.5 1220.53,-427 1220.53,-420"/>
<text text-anchor="middle" x="1329" y="-426.5" font-family="Helvetica,sans-Serif" font-size="10.00"> emptyFieldBlocks</text>
</g>
<!-- Node46 -->
<g id="node46" class="node">
<title>Node46</title>
<g id="a_node46"><a xlink:title=" ">
<polygon fill="white" stroke="#bfbfbf" points="1063.5,-364.5 1063.5,-394.5 1219.5,-394.5 1219.5,-364.5 1063.5,-364.5"/>
<text text-anchor="start" x="1071.5" y="-382.5" font-family="Helvetica,sans-Serif" font-size="10.00">shared_ptr&lt; MoFEM::</text>
<text text-anchor="middle" x="1141.5" y="-371.5" font-family="Helvetica,sans-Serif" font-size="10.00">Problem::SubProblemData &gt;</text>
</a>
</g>
</g>
<!-- Node46&#45;&gt;Node38 -->
<g id="edge55" class="edge">
<title>Node46&#45;&gt;Node38</title>
<path fill="none" stroke="#9a32cd" stroke-dasharray="5,2" d="M1229.68,-388.68C1278.86,-394.04 1341.42,-401.19 1397,-408.5 1413.97,-410.73 1432.5,-413.43 1448.99,-415.91"/>
<polygon fill="#9a32cd" stroke="#9a32cd" points="1230.03,-385.2 1219.71,-387.59 1229.27,-392.15 1230.03,-385.2"/>
<text text-anchor="middle" x="1329" y="-411.5" font-family="Helvetica,sans-Serif" font-size="10.00"> subProblemData</text>
</g>
<!-- Node47 -->
<g id="node47" class="node">
<title>Node47</title>
<g id="a_node47"><a xlink:title=" ">
<polygon fill="white" stroke="#bfbfbf" points="1040,-326 1040,-345 1243,-345 1243,-326 1040,-326"/>
<text text-anchor="middle" x="1141.5" y="-333" font-family="Helvetica,sans-Serif" font-size="10.00">shared_ptr&lt; SequenceDofContainer &gt;</text>
</a>
</g>
</g>
<!-- Node47&#45;&gt;Node38 -->
<g id="edge57" class="edge">
<title>Node47&#45;&gt;Node38</title>
<path fill="none" stroke="#9a32cd" stroke-dasharray="5,2" d="M1253.1,-327.27C1300.95,-328.91 1355.4,-338.26 1397,-366.5 1410.82,-375.88 1401.98,-389.03 1415,-399.5 1424.65,-407.26 1436.71,-412.51 1448.61,-416.06"/>
<polygon fill="#9a32cd" stroke="#9a32cd" points="1253.08,-323.77 1243,-327.04 1252.92,-330.77 1253.08,-323.77"/>
<text text-anchor="middle" x="1329" y="-380.5" font-family="Helvetica,sans-Serif" font-size="10.00"> sequenceRowDofContainer</text>
<text text-anchor="middle" x="1329" y="-369.5" font-family="Helvetica,sans-Serif" font-size="10.00">sequenceColDofContainer</text>
</g>
<!-- Node48 -->
<g id="node48" class="node">
<title>Node48</title>
<g id="a_node48"><a xlink:title=" ">
<polygon fill="white" stroke="#bfbfbf" points="1097.5,-288 1097.5,-307 1185.5,-307 1185.5,-288 1097.5,-288"/>
<text text-anchor="middle" x="1141.5" y="-295" font-family="Helvetica,sans-Serif" font-size="10.00">BitProblemId *</text>
</a>
</g>
</g>
<!-- Node48&#45;&gt;Node38 -->
<g id="edge58" class="edge">
<title>Node48&#45;&gt;Node38</title>
<path fill="none" stroke="#9a32cd" stroke-dasharray="5,2" d="M1195.74,-293.34C1261.42,-289.43 1367.96,-287.39 1397,-312.5 1426.87,-338.32 1388.2,-370.5 1415,-399.5 1423.81,-409.03 1436.16,-414.86 1448.62,-418.39"/>
<polygon fill="#9a32cd" stroke="#9a32cd" points="1195.33,-289.86 1185.57,-293.99 1195.77,-296.85 1195.33,-289.86"/>
<text text-anchor="middle" x="1329" y="-315.5" font-family="Helvetica,sans-Serif" font-size="10.00"> tagId</text>
</g>
<!-- Node49 -->
<g id="node49" class="node">
<title>Node49</title>
<g id="a_node49"><a xlink:title=" ">
<polygon fill="white" stroke="#bfbfbf" points="1805,-735.5 1805,-765.5 1967,-765.5 1967,-735.5 1805,-735.5"/>
<text text-anchor="start" x="1813" y="-753.5" font-family="Helvetica,sans-Serif" font-size="10.00">shared_ptr&lt; const MoFEM</text>
<text text-anchor="middle" x="1886" y="-742.5" font-family="Helvetica,sans-Serif" font-size="10.00">::NumeredEntFiniteElement &gt;</text>
</a>
</g>
</g>
<!-- Node49&#45;&gt;Node12 -->
<g id="edge59" class="edge">
<title>Node49&#45;&gt;Node12</title>
<path fill="none" stroke="#9a32cd" stroke-dasharray="5,2" d="M1977.54,-762.56C2048.18,-771.96 2143.85,-784.7 2202.4,-792.5"/>
<polygon fill="#9a32cd" stroke="#9a32cd" points="1977.68,-759.04 1967.3,-761.19 1976.75,-765.98 1977.68,-759.04"/>
<text text-anchor="middle" x="2063" y="-784.5" font-family="Helvetica,sans-Serif" font-size="10.00"> numeredEntFiniteElementPtr</text>
</g>
<!-- Node50 -->
<g id="node50" class="node">
<title>Node50</title>
<g id="a_node50"><a xlink:title=" ">
<polygon fill="white" stroke="#bfbfbf" points="1864,-232 1864,-251 1908,-251 1908,-232 1864,-232"/>
<text text-anchor="middle" x="1886" y="-239" font-family="Helvetica,sans-Serif" font-size="10.00">string</text>
</a>
</g>
</g>
<!-- Node50&#45;&gt;Node3 -->
<g id="edge82" class="edge">
<title>Node50&#45;&gt;Node3</title>
<path fill="none" stroke="#9a32cd" stroke-dasharray="5,2" d="M1912.53,-227.06C1958.85,-201.59 2060.5,-148.98 2153,-123.5 2318.8,-77.84 2370.51,-62.05 2539,-96.5 2681.35,-125.6 2836.27,-209.88 2895.79,-244.44"/>
<polygon fill="#9a32cd" stroke="#9a32cd" points="1910.82,-224.01 1903.77,-231.92 1914.21,-230.13 1910.82,-224.01"/>
<text text-anchor="middle" x="2458" y="-110.5" font-family="Helvetica,sans-Serif" font-size="10.00"> colFieldName</text>
<text text-anchor="middle" x="2458" y="-99.5" font-family="Helvetica,sans-Serif" font-size="10.00">rowFieldName</text>
</g>
<!-- Node50&#45;&gt;Node12 -->
<g id="edge60" class="edge">
<title>Node50&#45;&gt;Node12</title>
<path fill="none" stroke="#9a32cd" stroke-dasharray="5,2" d="M1905.99,-257.56C1954.5,-299.89 2082.86,-420.43 2135,-552.5 2153.66,-599.77 2119,-742.72 2153,-780.5 2165.35,-794.22 2184.16,-800.01 2202.28,-802"/>
<polygon fill="#9a32cd" stroke="#9a32cd" points="1908.26,-254.89 1898.4,-251.01 1903.68,-260.19 1908.26,-254.89"/>
<text text-anchor="middle" x="2063" y="-555.5" font-family="Helvetica,sans-Serif" font-size="10.00"> feName</text>
</g>
<!-- Node51 -->
<g id="node51" class="node">
<title>Node51</title>
<g id="a_node51"><a xlink:title=" ">
<polygon fill="white" stroke="#bfbfbf" points="1804.5,-784.5 1804.5,-814.5 1967.5,-814.5 1967.5,-784.5 1804.5,-784.5"/>
<text text-anchor="start" x="1812.5" y="-802.5" font-family="Helvetica,sans-Serif" font-size="10.00">function&lt; bool(MoFEM</text>
<text text-anchor="middle" x="1886" y="-791.5" font-family="Helvetica,sans-Serif" font-size="10.00">::FEMethod *fe_method_ptr)&gt;</text>
</a>
</g>
</g>
<!-- Node51&#45;&gt;Node12 -->
<g id="edge61" class="edge">
<title>Node51&#45;&gt;Node12</title>
<path fill="none" stroke="#9a32cd" stroke-dasharray="5,2" d="M1977.98,-799.5C2048.52,-799.5 2143.82,-799.5 2202.26,-799.5"/>
<polygon fill="#9a32cd" stroke="#9a32cd" points="1977.76,-796 1967.76,-799.5 1977.76,-803 1977.76,-796"/>
<text text-anchor="middle" x="2063" y="-802.5" font-family="Helvetica,sans-Serif" font-size="10.00"> exeTestHook</text>
</g>
<!-- Node52 -->
<g id="node52" class="node">
<title>Node52</title>
<g id="a_node52"><a xlink:href="classdouble.html" target="_top" xlink:title=" ">
<polygon fill="white" stroke="black" points="2231,-483 2231,-502 2281,-502 2281,-483 2231,-483"/>
<text text-anchor="middle" x="2256" y="-490" font-family="Helvetica,sans-Serif" font-size="10.00">double</text>
</a>
</g>
</g>
<!-- Node52&#45;&gt;Node11 -->
<g id="edge62" class="edge">
<title>Node52&#45;&gt;Node11</title>
<path fill="none" stroke="#9a32cd" stroke-dasharray="5,2" d="M2291.44,-487.67C2346.27,-481.5 2455.72,-475.4 2539,-510.5 2582.29,-528.74 2619.36,-573.39 2634.14,-593"/>
<polygon fill="#9a32cd" stroke="#9a32cd" points="2290.74,-484.23 2281.22,-488.9 2291.57,-491.18 2290.74,-484.23"/>
<text text-anchor="middle" x="2458" y="-513.5" font-family="Helvetica,sans-Serif" font-size="10.00"> elementMeasure</text>
</g>
<!-- Node53 -->
<g id="node53" class="node">
<title>Node53</title>
<g id="a_node53"><a xlink:title=" ">
<polygon fill="white" stroke="#bfbfbf" points="2170,-423 2170,-464 2342,-464 2342,-423 2170,-423"/>
<text text-anchor="start" x="2178" y="-452" font-family="Helvetica,sans-Serif" font-size="10.00">array&lt; boost::shared</text>
<text text-anchor="start" x="2178" y="-441" font-family="Helvetica,sans-Serif" font-size="10.00">_ptr&lt; MoFEM::EntitiesFieldData</text>
<text text-anchor="middle" x="2256" y="-430" font-family="Helvetica,sans-Serif" font-size="10.00"> &gt;, LASTSPACE &gt;</text>
</a>
</g>
</g>
<!-- Node53&#45;&gt;Node11 -->
<g id="edge63" class="edge">
<title>Node53&#45;&gt;Node11</title>
<path fill="none" stroke="#9a32cd" stroke-dasharray="5,2" d="M2352.34,-427.65C2409.84,-422.83 2482.61,-425.43 2539,-456.5 2595.6,-487.68 2627.77,-565.26 2637.67,-592.7"/>
<polygon fill="#9a32cd" stroke="#9a32cd" points="2351.79,-424.19 2342.16,-428.6 2352.44,-431.16 2351.79,-424.19"/>
<text text-anchor="middle" x="2458" y="-470.5" font-family="Helvetica,sans-Serif" font-size="10.00"> derivedDataOnElement</text>
<text text-anchor="middle" x="2458" y="-459.5" font-family="Helvetica,sans-Serif" font-size="10.00">dataOnElement</text>
</g>
<!-- Node54 -->
<g id="node54" class="node">
<title>Node54</title>
<g id="a_node54"><a xlink:title=" ">
<polygon fill="white" stroke="#bfbfbf" points="2222,-385 2222,-404 2290,-404 2290,-385 2222,-385"/>
<text text-anchor="middle" x="2256" y="-392" font-family="Helvetica,sans-Serif" font-size="10.00">EntityType</text>
</a>
</g>
</g>
<!-- Node54&#45;&gt;Node11 -->
<g id="edge64" class="edge">
<title>Node54&#45;&gt;Node11</title>
<path fill="none" stroke="#9a32cd" stroke-dasharray="5,2" d="M2300.23,-384.74C2359.22,-373.95 2465.96,-363.73 2539,-410.5 2607.34,-454.26 2632.83,-559.94 2639.25,-592.67"/>
<polygon fill="#9a32cd" stroke="#9a32cd" points="2299.3,-381.35 2290.14,-386.67 2300.62,-388.23 2299.3,-381.35"/>
<text text-anchor="middle" x="2458" y="-413.5" font-family="Helvetica,sans-Serif" font-size="10.00"> lastEvaluatedElementEntityType</text>
</g>
<!-- Node55 -->
<g id="node55" class="node">
<title>Node55</title>
<g id="a_node55"><a xlink:href="structMoFEM_1_1DeprecatedCoreInterface.html" target="_top" xlink:title="Deprecated interface functions.">
<polygon fill="white" stroke="black" points="1600,-1414 1600,-1433 1781,-1433 1781,-1414 1600,-1414"/>
<text text-anchor="middle" x="1690.5" y="-1421" font-family="Helvetica,sans-Serif" font-size="10.00">MoFEM::DeprecatedCoreInterface</text>
</a>
</g>
</g>
<!-- Node55&#45;&gt;Node11 -->
<g id="edge65" class="edge">
<title>Node55&#45;&gt;Node11</title>
<path fill="none" stroke="#9a32cd" stroke-dasharray="5,2" d="M1737.62,-1411.27C1880.25,-1371.02 2317.83,-1228.79 2539,-946.5 2625.06,-836.66 2638.61,-655.67 2640.65,-612.13"/>
<polygon fill="#9a32cd" stroke="#9a32cd" points="1736.56,-1407.93 1727.87,-1413.99 1738.44,-1414.68 1736.56,-1407.93"/>
<text text-anchor="middle" x="2063" y="-1323.5" font-family="Helvetica,sans-Serif" font-size="10.00"> mField</text>
</g>
<!-- Node56&#45;&gt;Node55 -->
<g id="edge66" class="edge">
<title>Node56&#45;&gt;Node55</title>
<path fill="none" stroke="midnightblue" d="M1214.39,-1458.24C1313.43,-1451 1491.78,-1437.96 1599.54,-1430.08"/>
<polygon fill="midnightblue" stroke="midnightblue" points="1213.9,-1454.77 1204.18,-1458.99 1214.41,-1461.75 1213.9,-1454.77"/>
</g>
<!-- Node57 -->
<g id="node57" class="node">
<title>Node57</title>
<g id="a_node57"><a xlink:title=" ">
<polygon fill="white" stroke="#bfbfbf" points="2172.5,-718.5 2172.5,-770.5 2339.5,-770.5 2339.5,-718.5 2172.5,-718.5"/>
<text text-anchor="start" x="2180.5" y="-758.5" font-family="Helvetica,sans-Serif" font-size="10.00">function&lt; MoFEMErrorCode</text>
<text text-anchor="start" x="2180.5" y="-747.5" font-family="Helvetica,sans-Serif" font-size="10.00">(ForcesAndSourcesCore *fe</text>
<text text-anchor="start" x="2180.5" y="-736.5" font-family="Helvetica,sans-Serif" font-size="10.00">_raw_ptr, int order_row,</text>
<text text-anchor="middle" x="2256" y="-725.5" font-family="Helvetica,sans-Serif" font-size="10.00"> int order_col, int order_data)&gt;</text>
</a>
</g>
</g>
<!-- Node57&#45;&gt;Node11 -->
<g id="edge69" class="edge">
<title>Node57&#45;&gt;Node11</title>
<path fill="none" stroke="#9a32cd" stroke-dasharray="5,2" d="M2349.57,-721.83C2358.83,-719.65 2368.09,-717.51 2377,-715.5 2448.76,-699.3 2472.22,-712.37 2539,-681.5 2577.43,-663.74 2614.71,-629.14 2631.59,-612.25"/>
<polygon fill="#9a32cd" stroke="#9a32cd" points="2348.48,-718.49 2339.55,-724.2 2350.09,-725.31 2348.48,-718.49"/>
<text text-anchor="middle" x="2458" y="-718.5" font-family="Helvetica,sans-Serif" font-size="10.00"> setRuleHook</text>
</g>
<!-- Node58 -->
<g id="node58" class="node">
<title>Node58</title>
<g id="a_node58"><a xlink:title=" ">
<polygon fill="white" stroke="#bfbfbf" points="2155,-669.5 2155,-699.5 2357,-699.5 2357,-669.5 2155,-669.5"/>
<text text-anchor="start" x="2163" y="-687.5" font-family="Helvetica,sans-Serif" font-size="10.00">ptr_deque&lt; MoFEM::Forces</text>
<text text-anchor="middle" x="2256" y="-676.5" font-family="Helvetica,sans-Serif" font-size="10.00">AndSourcesCore::UserDataOperator &gt;</text>
</a>
</g>
</g>
<!-- Node58&#45;&gt;Node11 -->
<g id="edge70" class="edge">
<title>Node58&#45;&gt;Node11</title>
<path fill="none" stroke="#9a32cd" stroke-dasharray="5,2" d="M2367.22,-669.04C2419.62,-660.75 2482.92,-649.37 2539,-635.5 2565.2,-629.02 2594.44,-619.29 2614.88,-612.08"/>
<polygon fill="#9a32cd" stroke="#9a32cd" points="2366.56,-665.6 2357.23,-670.6 2367.65,-672.51 2366.56,-665.6"/>
<text text-anchor="middle" x="2458" y="-669.5" font-family="Helvetica,sans-Serif" font-size="10.00"> opPtrVector</text>
</g>
<!-- Node59 -->
<g id="node59" class="node">
<title>Node59</title>
<g id="a_node59"><a xlink:href="structMoFEM_1_1EntitiesFieldData.html" target="_top" xlink:title="data structure for finite element entity">
<polygon fill="white" stroke="black" points="2185,-959 2185,-978 2327,-978 2327,-959 2185,-959"/>
<text text-anchor="middle" x="2256" y="-966" font-family="Helvetica,sans-Serif" font-size="10.00">MoFEM::EntitiesFieldData</text>
</a>
</g>
</g>
<!-- Node59&#45;&gt;Node11 -->
<g id="edge71" class="edge">
<title>Node59&#45;&gt;Node11</title>
<path fill="none" stroke="#9a32cd" stroke-dasharray="5,2" d="M2281.53,-953.43C2333.18,-920.94 2455.28,-840.01 2539,-751.5 2583.16,-704.81 2622,-637.35 2635.73,-612.33"/>
<polygon fill="#9a32cd" stroke="#9a32cd" points="2279.36,-950.66 2272.73,-958.93 2283.07,-956.6 2279.36,-950.66"/>
<text text-anchor="middle" x="2458" y="-934.5" font-family="Helvetica,sans-Serif" font-size="10.00"> dataNoField</text>
<text text-anchor="middle" x="2458" y="-923.5" font-family="Helvetica,sans-Serif" font-size="10.00">dataL2</text>
<text text-anchor="middle" x="2458" y="-912.5" font-family="Helvetica,sans-Serif" font-size="10.00">dataH1</text>
<text text-anchor="middle" x="2458" y="-901.5" font-family="Helvetica,sans-Serif" font-size="10.00">dataHcurl</text>
<text text-anchor="middle" x="2458" y="-890.5" font-family="Helvetica,sans-Serif" font-size="10.00">dataHdiv</text>
</g>
<!-- Node60 -->
<g id="node60" class="node">
<title>Node60</title>
<g id="a_node60"><a xlink:title=" ">
<polygon fill="white" stroke="#bfbfbf" points="1805,-872.5 1805,-902.5 1967,-902.5 1967,-872.5 1805,-872.5"/>
<text text-anchor="start" x="1813" y="-890.5" font-family="Helvetica,sans-Serif" font-size="10.00">array&lt; std::bitset</text>
<text text-anchor="middle" x="1886" y="-879.5" font-family="Helvetica,sans-Serif" font-size="10.00">&lt; LASTBASE &gt;, LASTSPACE &gt;</text>
</a>
</g>
</g>
<!-- Node60&#45;&gt;Node59 -->
<g id="edge72" class="edge">
<title>Node60&#45;&gt;Node59</title>
<path fill="none" stroke="#9a32cd" stroke-dasharray="5,2" d="M1977.52,-889.93C2025.08,-892.97 2083.94,-899.53 2135,-913.5 2173.9,-924.15 2216.03,-946.15 2238.57,-958.86"/>
<polygon fill="#9a32cd" stroke="#9a32cd" points="1977.43,-886.42 1967.24,-889.32 1977.01,-893.41 1977.43,-886.42"/>
<text text-anchor="middle" x="2063" y="-927.5" font-family="Helvetica,sans-Serif" font-size="10.00"> brokenBasesOnSpaces</text>
<text text-anchor="middle" x="2063" y="-916.5" font-family="Helvetica,sans-Serif" font-size="10.00">basesOnSpaces</text>
</g>
<!-- Node61 -->
<g id="node61" class="node">
<title>Node61</title>
<g id="a_node61"><a xlink:title=" ">
<polygon fill="white" stroke="#bfbfbf" points="1809.5,-1097 1809.5,-1138 1962.5,-1138 1962.5,-1097 1809.5,-1097"/>
<text text-anchor="start" x="1817.5" y="-1126" font-family="Helvetica,sans-Serif" font-size="10.00">array&lt; boost::ptr_vector</text>
<text text-anchor="start" x="1817.5" y="-1115" font-family="Helvetica,sans-Serif" font-size="10.00">&lt; MoFEM::EntitiesFieldData</text>
<text text-anchor="middle" x="1886" y="-1104" font-family="Helvetica,sans-Serif" font-size="10.00">::EntData &gt;, MBMAXTYPE &gt;</text>
</a>
</g>
</g>
<!-- Node61&#45;&gt;Node59 -->
<g id="edge73" class="edge">
<title>Node61&#45;&gt;Node59</title>
<path fill="none" stroke="#9a32cd" stroke-dasharray="5,2" d="M1972.61,-1109.13C2021.91,-1101.92 2084.01,-1088.67 2135,-1064.5 2182.25,-1042.1 2227.49,-997.73 2246.1,-978.16"/>
<polygon fill="#9a32cd" stroke="#9a32cd" points="1972.03,-1105.68 1962.61,-1110.54 1973,-1112.61 1972.03,-1105.68"/>
<text text-anchor="middle" x="2063" y="-1108.5" font-family="Helvetica,sans-Serif" font-size="10.00"> dataOnEntities</text>
</g>
<!-- Node62 -->
<g id="node62" class="node">
<title>Node62</title>
<g id="a_node62"><a xlink:title=" ">
<polygon fill="white" stroke="#bfbfbf" points="1799,-1047.5 1799,-1077.5 1973,-1077.5 1973,-1047.5 1799,-1047.5"/>
<text text-anchor="start" x="1807" y="-1065.5" font-family="Helvetica,sans-Serif" font-size="10.00">array&lt; std::bitset</text>
<text text-anchor="middle" x="1886" y="-1054.5" font-family="Helvetica,sans-Serif" font-size="10.00">&lt; LASTSPACE &gt;, MBMAXTYPE &gt;</text>
</a>
</g>
</g>
<!-- Node62&#45;&gt;Node59 -->
<g id="edge74" class="edge">
<title>Node62&#45;&gt;Node59</title>
<path fill="none" stroke="#9a32cd" stroke-dasharray="5,2" d="M1983.16,-1051.71C2029.64,-1045.12 2085.85,-1035.08 2135,-1020.5 2172.44,-1009.4 2213.74,-989.74 2236.81,-978.03"/>
<polygon fill="#9a32cd" stroke="#9a32cd" points="1982.52,-1048.27 1973.1,-1053.11 1983.48,-1055.2 1982.52,-1048.27"/>
<text text-anchor="middle" x="2063" y="-1052.5" font-family="Helvetica,sans-Serif" font-size="10.00"> spacesOnEntities</text>
</g>
<!-- Node63 -->
<g id="node63" class="node">
<title>Node63</title>
<g id="a_node63"><a xlink:title=" ">
<polygon fill="white" stroke="#bfbfbf" points="1801.5,-998.5 1801.5,-1028.5 1970.5,-1028.5 1970.5,-998.5 1801.5,-998.5"/>
<text text-anchor="start" x="1809.5" y="-1016.5" font-family="Helvetica,sans-Serif" font-size="10.00">array&lt; std::bitset</text>
<text text-anchor="middle" x="1886" y="-1005.5" font-family="Helvetica,sans-Serif" font-size="10.00">&lt; LASTBASE &gt;, MBMAXTYPE &gt;</text>
</a>
</g>
</g>
<!-- Node63&#45;&gt;Node59 -->
<g id="edge75" class="edge">
<title>Node63&#45;&gt;Node59</title>
<path fill="none" stroke="#9a32cd" stroke-dasharray="5,2" d="M1980.82,-1007.42C2027.32,-1003.84 2084.25,-998.6 2135,-991.5 2160.31,-987.96 2188.39,-982.66 2211.01,-978.03"/>
<polygon fill="#9a32cd" stroke="#9a32cd" points="1980.46,-1003.94 1970.75,-1008.18 1980.99,-1010.92 1980.46,-1003.94"/>
<text text-anchor="middle" x="2063" y="-1008.5" font-family="Helvetica,sans-Serif" font-size="10.00"> basesOnEntities</text>
</g>
<!-- Node64 -->
<g id="node64" class="node">
<title>Node64</title>
<g id="a_node64"><a xlink:title=" ">
<polygon fill="white" stroke="#bfbfbf" points="1830,-960 1830,-979 1942,-979 1942,-960 1830,-960"/>
<text text-anchor="middle" x="1886" y="-967" font-family="Helvetica,sans-Serif" font-size="10.00">UBlasMatrix&lt; int &gt;</text>
</a>
</g>
</g>
<!-- Node64&#45;&gt;Node59 -->
<g id="edge76" class="edge">
<title>Node64&#45;&gt;Node59</title>
<path fill="none" stroke="#9a32cd" stroke-dasharray="5,2" d="M1952.26,-969.32C2017.56,-969.15 2117.69,-968.87 2184.71,-968.69"/>
<polygon fill="#9a32cd" stroke="#9a32cd" points="1952.08,-965.82 1942.09,-969.35 1952.1,-972.82 1952.08,-965.82"/>
<text text-anchor="middle" x="2063" y="-982.5" font-family="Helvetica,sans-Serif" font-size="10.00"> facesNodesOrder</text>
<text text-anchor="middle" x="2063" y="-971.5" font-family="Helvetica,sans-Serif" font-size="10.00">facesNodes</text>
</g>
<!-- Node65 -->
<g id="node65" class="node">
<title>Node65</title>
<g id="a_node65"><a xlink:title=" ">
<polygon fill="white" stroke="#bfbfbf" points="1827.5,-922 1827.5,-941 1944.5,-941 1944.5,-922 1827.5,-922"/>
<text text-anchor="middle" x="1886" y="-929" font-family="Helvetica,sans-Serif" font-size="10.00">bitset&lt; LASTBASE &gt;</text>
</a>
</g>
</g>
<!-- Node65&#45;&gt;Node59 -->
<g id="edge77" class="edge">
<title>Node65&#45;&gt;Node59</title>
<path fill="none" stroke="#9a32cd" stroke-dasharray="5,2" d="M1954.71,-936.85C2004.6,-940.95 2074.08,-946.99 2135,-953.5 2151.18,-955.23 2168.56,-957.28 2184.93,-959.31"/>
<polygon fill="#9a32cd" stroke="#9a32cd" points="1954.94,-933.35 1944.69,-936.03 1954.37,-940.33 1954.94,-933.35"/>
<text text-anchor="middle" x="2063" y="-956.5" font-family="Helvetica,sans-Serif" font-size="10.00"> bAse</text>
</g>
<!-- Node66 -->
<g id="node66" class="node">
<title>Node66</title>
<g id="a_node66"><a xlink:title=" ">
<polygon fill="white" stroke="#bfbfbf" points="2193.5,-609 2193.5,-650 2318.5,-650 2318.5,-609 2193.5,-609"/>
<text text-anchor="start" x="2201.5" y="-638" font-family="Helvetica,sans-Serif" font-size="10.00">function&lt; int(int order</text>
<text text-anchor="start" x="2201.5" y="-627" font-family="Helvetica,sans-Serif" font-size="10.00">_row, int order_col, int</text>
<text text-anchor="middle" x="2256" y="-616" font-family="Helvetica,sans-Serif" font-size="10.00"> order_data)&gt;</text>
</a>
</g>
</g>
<!-- Node66&#45;&gt;Node11 -->
<g id="edge78" class="edge">
<title>Node66&#45;&gt;Node11</title>
<path fill="none" stroke="#9a32cd" stroke-dasharray="5,2" d="M2328.81,-624.45C2393.51,-619.9 2488.67,-613.21 2556.91,-608.41"/>
<polygon fill="#9a32cd" stroke="#9a32cd" points="2328.43,-620.97 2318.7,-625.16 2328.92,-627.95 2328.43,-620.97"/>
<text text-anchor="middle" x="2458" y="-623.5" font-family="Helvetica,sans-Serif" font-size="10.00"> getRuleHook</text>
</g>
<!-- Node67 -->
<g id="node67" class="node">
<title>Node67</title>
<g id="a_node67"><a xlink:title=" ">
<polygon fill="white" stroke="#bfbfbf" points="2195,-559.5 2195,-589.5 2317,-589.5 2317,-559.5 2195,-559.5"/>
<text text-anchor="start" x="2203" y="-577.5" font-family="Helvetica,sans-Serif" font-size="10.00">shared_ptr&lt; MoFEM::</text>
<text text-anchor="middle" x="2256" y="-566.5" font-family="Helvetica,sans-Serif" font-size="10.00">BaseFunction &gt;</text>
</a>
</g>
</g>
<!-- Node67&#45;&gt;Node11 -->
<g id="edge79" class="edge">
<title>Node67&#45;&gt;Node11</title>
<path fill="none" stroke="#9a32cd" stroke-dasharray="5,2" d="M2327.16,-573.78C2384.34,-573.91 2467.1,-575.7 2539,-583.5 2558.52,-585.62 2579.91,-589.38 2598.04,-592.99"/>
<polygon fill="#9a32cd" stroke="#9a32cd" points="2327.15,-570.28 2317.15,-573.78 2327.15,-577.28 2327.15,-570.28"/>
<text text-anchor="middle" x="2458" y="-597.5" font-family="Helvetica,sans-Serif" font-size="10.00"> userPolynomialBasePtr</text>
<text text-anchor="middle" x="2458" y="-586.5" font-family="Helvetica,sans-Serif" font-size="10.00">elementPolynomialBasePtr</text>
</g>
<!-- Node68 -->
<g id="node68" class="node">
<title>Node68</title>
<g id="a_node68"><a xlink:href="classUBlasMatrix_3_01double_01_4.html" target="_top" xlink:title=" ">
<polygon fill="white" stroke="black" points="2190,-521 2190,-540 2322,-540 2322,-521 2190,-521"/>
<text text-anchor="middle" x="2256" y="-528" font-family="Helvetica,sans-Serif" font-size="10.00">UBlasMatrix&lt; double &gt;</text>
</a>
</g>
</g>
<!-- Node68&#45;&gt;Node11 -->
<g id="edge80" class="edge">
<title>Node68&#45;&gt;Node11</title>
<path fill="none" stroke="#9a32cd" stroke-dasharray="5,2" d="M2332.29,-526.32C2389.96,-525.19 2470.91,-528.12 2539,-547.5 2573.25,-557.25 2608.9,-579.81 2627.64,-592.81"/>
<polygon fill="#9a32cd" stroke="#9a32cd" points="2332.08,-522.82 2322.17,-526.56 2332.25,-529.82 2332.08,-522.82"/>
<text text-anchor="middle" x="2458" y="-561.5" font-family="Helvetica,sans-Serif" font-size="10.00"> coordsAtGaussPts</text>
<text text-anchor="middle" x="2458" y="-550.5" font-family="Helvetica,sans-Serif" font-size="10.00">gaussPts</text>
</g>
<!-- Node69 -->
<g id="node69" class="node">
<title>Node69</title>
<g id="a_node69"><a xlink:title=" ">
<polygon fill="white" stroke="#bfbfbf" points="2576.5,-288 2576.5,-307 2707.5,-307 2707.5,-288 2576.5,-288"/>
<text text-anchor="middle" x="2642" y="-295" font-family="Helvetica,sans-Serif" font-size="10.00">static const char *const</text>
</a>
</g>
</g>
<!-- Node69&#45;&gt;Node3 -->
<g id="edge81" class="edge">
<title>Node69&#45;&gt;Node3</title>
<path fill="none" stroke="#9a32cd" stroke-dasharray="5,2" d="M2717.74,-287.32C2749.03,-283.06 2785.78,-278.05 2819,-273.5 2824.84,-272.7 2830.88,-271.87 2836.95,-271.04"/>
<polygon fill="#9a32cd" stroke="#9a32cd" points="2717.22,-283.86 2707.78,-288.68 2718.16,-290.8 2717.22,-283.86"/>
<text text-anchor="middle" x="2782" y="-285.5" font-family="Helvetica,sans-Serif" font-size="10.00"> OpTypeNames</text>
</g>
<!-- Node70 -->
<g id="node70" class="node">
<title>Node70</title>
<g id="a_node70"><a xlink:href="structThermalStressElement_1_1CommonData.html" target="_top" xlink:title=" ">
<polygon fill="white" stroke="black" points="3194.5,-0.5 3194.5,-30.5 3322.5,-30.5 3322.5,-0.5 3194.5,-0.5"/>
<text text-anchor="start" x="3202.5" y="-18.5" font-family="Helvetica,sans-Serif" font-size="10.00">ThermalStressElement</text>
<text text-anchor="middle" x="3258.5" y="-7.5" font-family="Helvetica,sans-Serif" font-size="10.00">::CommonData</text>
</a>
</g>
</g>
<!-- Node70&#45;&gt;Node1 -->
<g id="edge84" class="edge">
<title>Node70&#45;&gt;Node1</title>
<path fill="none" stroke="#9a32cd" stroke-dasharray="5,2" d="M3332.87,-20.83C3366.3,-23.86 3406.3,-28.3 3442,-34.5 3457.27,-37.15 3473.64,-40.8 3488.71,-44.49"/>
<polygon fill="#9a32cd" stroke="#9a32cd" points="3332.98,-17.33 3322.72,-19.94 3332.37,-24.3 3332.98,-17.33"/>
<text text-anchor="middle" x="3407" y="-37.5" font-family="Helvetica,sans-Serif" font-size="10.00"> commonData</text>
</g>
<!-- Node71 -->
<g id="node71" class="node">
<title>Node71</title>
<g id="a_node71"><a xlink:title=" ">
<polygon fill="white" stroke="#bfbfbf" points="2881,-6 2881,-25 2963,-25 2963,-6 2881,-6"/>
<text text-anchor="middle" x="2922" y="-13" font-family="Helvetica,sans-Serif" font-size="10.00">VectorDouble</text>
</a>
</g>
</g>
<!-- Node71&#45;&gt;Node70 -->
<g id="edge85" class="edge">
<title>Node71&#45;&gt;Node70</title>
<path fill="none" stroke="#9a32cd" stroke-dasharray="5,2" d="M2973.21,-15.5C3032.22,-15.5 3130.21,-15.5 3194.32,-15.5"/>
<polygon fill="#9a32cd" stroke="#9a32cd" points="2973.02,-12 2963.02,-15.5 2973.02,-19 2973.02,-12"/>
<text text-anchor="middle" x="3085" y="-18.5" font-family="Helvetica,sans-Serif" font-size="10.00"> temperatureAtGaussPts</text>
</g>
</g>
</svg>
