<?xml version="1.0" encoding="UTF-8" standalone="no"?>
<!DOCTYPE svg PUBLIC "-//W3C//DTD SVG 1.1//EN"
 "http://www.w3.org/Graphics/SVG/1.1/DTD/svg11.dtd">
<!-- Generated by graphviz version 2.43.0 (0)
 -->
<!-- Title: OpDivergence Pages: 1 -->
<!--zoomable 1354 -->
<svg id="main" version="1.1" xmlns="http://www.w3.org/2000/svg" xmlns:xlink="http://www.w3.org/1999/xlink" xml:space="preserve" onload="init(evt)">
<style type="text/css"><![CDATA[
.edge:hover path { stroke: red; }
.edge:hover polygon { stroke: red; fill: red; }
]]></style>
<script type="text/javascript"><![CDATA[
var edges = document.getElementsByTagName('g');
if (edges && edges.length) {
  for (var i=0;i<edges.length;i++) {
    if (edges[i].id.substr(0,4)=='edge') {
      edges[i].setAttribute('class','edge');
    }
  }
}
]]></script>
        <defs>
                <circle id="rim" cx="0" cy="0" r="7"/>
                <circle id="rim2" cx="0" cy="0" r="3.5"/>
                <g id="zoomPlus">
                        <use xlink:href="#rim" fill="#404040">
                                <set attributeName="fill" to="#808080" begin="zoomplus.mouseover" end="zoomplus.mouseout"/>
                        </use>
                        <path d="M-4,0h8M0,-4v8" fill="none" stroke="white" stroke-width="1.5" pointer-events="none"/>
                </g>
                <g id="zoomMin">
                        <use xlink:href="#rim" fill="#404040">
                                <set attributeName="fill" to="#808080" begin="zoomminus.mouseover" end="zoomminus.mouseout"/>
                        </use>
                        <path d="M-4,0h8" fill="none" stroke="white" stroke-width="1.5" pointer-events="none"/>
                </g>
                <g id="dirArrow">
                        <path fill="none" stroke="white" stroke-width="1.5" d="M0,-3.0v7 M-2.5,-0.5L0,-3.0L2.5,-0.5"/>
                </g>
               <g id="resetDef">
                       <use xlink:href="#rim2" fill="#404040">
                               <set attributeName="fill" to="#808080" begin="reset.mouseover" end="reset.mouseout"/>
                       </use>
               </g>
        </defs>

<script type="text/javascript">
var viewWidth = 3242;
var viewHeight = 1354;
var sectionId = 'dynsection-1';
</script>
<script xlink:href="svgpan.js"/>
<svg id="graph" class="graph">
<g id="viewport">
<title>OpDivergence</title>
<polygon fill="white" stroke="transparent" points="-4,4 -4,-1350 3238,-1350 3238,4 -4,4"/>
<!-- Node1 -->
<g id="node1" class="node">
<title>Node1</title>
<g id="a_node1"><a xlink:title=" ">
<polygon fill="#bfbfbf" stroke="black" points="3148,-350.5 3148,-369.5 3234,-369.5 3234,-350.5 3148,-350.5"/>
<text text-anchor="middle" x="3191" y="-357.5" font-family="Helvetica,sans-Serif" font-size="10.00">OpDivergence</text>
</a>
</g>
</g>
<!-- Node2 -->
<g id="node2" class="node">
<title>Node2</title>
<g id="a_node2"><a xlink:href="structMoFEM_1_1FaceElementForcesAndSourcesCore_1_1UserDataOperator.html" target="_top" xlink:title="default operator for TRI element">
<polygon fill="white" stroke="black" points="3044,-578.5 3044,-597.5 3111,-597.5 3111,-578.5 3044,-578.5"/>
<text text-anchor="middle" x="3077.5" y="-585.5" font-family="Helvetica,sans-Serif" font-size="10.00">FaceEleOp</text>
</a>
</g>
</g>
<!-- Node2&#45;&gt;Node1 -->
<g id="edge1" class="edge">
<title>Node2&#45;&gt;Node1</title>
<path fill="none" stroke="midnightblue" d="M3087.65,-569.29C3110.31,-522.95 3168.44,-404.09 3185.33,-369.55"/>
<polygon fill="midnightblue" stroke="midnightblue" points="3084.4,-567.97 3083.15,-578.49 3090.69,-571.05 3084.4,-567.97"/>
</g>
<!-- Node3 -->
<g id="node3" class="node">
<title>Node3</title>
<g id="a_node3"><a xlink:href="structMoFEM_1_1ForcesAndSourcesCore_1_1UserDataOperator.html" target="_top" xlink:title=" ">
<polygon fill="white" stroke="black" points="2837,-847 2837,-877 3007,-877 3007,-847 2837,-847"/>
<text text-anchor="start" x="2845" y="-865" font-family="Helvetica,sans-Serif" font-size="10.00">MoFEM::ForcesAndSourcesCore</text>
<text text-anchor="middle" x="2922" y="-854" font-family="Helvetica,sans-Serif" font-size="10.00">::UserDataOperator</text>
</a>
</g>
</g>
<!-- Node3&#45;&gt;Node2 -->
<g id="edge2" class="edge">
<title>Node3&#45;&gt;Node2</title>
<path fill="none" stroke="midnightblue" d="M2936.39,-838.11C2968.63,-780.54 3049.55,-636.11 3071.14,-597.57"/>
<polygon fill="midnightblue" stroke="midnightblue" points="2933.31,-836.44 2931.47,-846.88 2939.41,-839.86 2933.31,-836.44"/>
</g>
<!-- Node4 -->
<g id="node4" class="node">
<title>Node4</title>
<g id="a_node4"><a xlink:href="structMoFEM_1_1DataOperator.html" target="_top" xlink:title="base operator to do operations at Gauss Pt. level">
<polygon fill="white" stroke="black" points="2579.5,-907.5 2579.5,-926.5 2704.5,-926.5 2704.5,-907.5 2579.5,-907.5"/>
<text text-anchor="middle" x="2642" y="-914.5" font-family="Helvetica,sans-Serif" font-size="10.00">MoFEM::DataOperator</text>
</a>
</g>
</g>
<!-- Node4&#45;&gt;Node3 -->
<g id="edge3" class="edge">
<title>Node4&#45;&gt;Node3</title>
<path fill="none" stroke="midnightblue" d="M2701.12,-905.5C2742.88,-897.24 2799.59,-886.02 2844.95,-877.05"/>
<polygon fill="midnightblue" stroke="midnightblue" points="2700.24,-902.11 2691.11,-907.48 2701.6,-908.98 2700.24,-902.11"/>
</g>
<!-- Node5 -->
<g id="node5" class="node">
<title>Node5</title>
<g id="a_node5"><a xlink:title=" ">
<polygon fill="white" stroke="#bfbfbf" points="2160,-845 2160,-897 2352,-897 2352,-845 2160,-845"/>
<text text-anchor="start" x="2168" y="-885" font-family="Helvetica,sans-Serif" font-size="10.00">function&lt; MoFEMErrorCode</text>
<text text-anchor="start" x="2168" y="-874" font-family="Helvetica,sans-Serif" font-size="10.00">(DataOperator *op_ptr,</text>
<text text-anchor="start" x="2168" y="-863" font-family="Helvetica,sans-Serif" font-size="10.00"> int side, EntityType type,</text>
<text text-anchor="middle" x="2256" y="-852" font-family="Helvetica,sans-Serif" font-size="10.00"> EntitiesFieldData::EntData &amp;data)&gt;</text>
</a>
</g>
</g>
<!-- Node5&#45;&gt;Node4 -->
<g id="edge4" class="edge">
<title>Node5&#45;&gt;Node4</title>
<path fill="none" stroke="#9a32cd" stroke-dasharray="5,2" d="M2362.41,-883.07C2415.41,-889.21 2480.62,-896.86 2539,-904 2552.02,-905.59 2565.98,-907.34 2579.25,-909.03"/>
<polygon fill="#9a32cd" stroke="#9a32cd" points="2362.65,-879.58 2352.32,-881.91 2361.85,-886.53 2362.65,-879.58"/>
<text text-anchor="middle" x="2458" y="-907" font-family="Helvetica,sans-Serif" font-size="10.00"> doWorkRhsHook</text>
</g>
<!-- Node6 -->
<g id="node6" class="node">
<title>Node6</title>
<g id="a_node6"><a xlink:href="classbool.html" target="_top" xlink:title=" ">
<polygon fill="white" stroke="black" points="2237,-1058.5 2237,-1077.5 2275,-1077.5 2275,-1058.5 2237,-1058.5"/>
<text text-anchor="middle" x="2256" y="-1065.5" font-family="Helvetica,sans-Serif" font-size="10.00">bool</text>
</a>
</g>
</g>
<!-- Node6&#45;&gt;Node4 -->
<g id="edge5" class="edge">
<title>Node6&#45;&gt;Node4</title>
<path fill="none" stroke="#9a32cd" stroke-dasharray="5,2" d="M2285.24,-1063.93C2305.86,-1060.67 2334.4,-1055.56 2359,-1049 2440.9,-1027.18 2478.8,-1045.67 2539,-986 2555.77,-969.37 2539.3,-951.64 2557,-936 2563.39,-930.36 2571.09,-926.28 2579.21,-923.36"/>
<polygon fill="#9a32cd" stroke="#9a32cd" points="2284.6,-1060.48 2275.24,-1065.46 2285.66,-1067.4 2284.6,-1060.48"/>
<text text-anchor="middle" x="2458" y="-1113" font-family="Helvetica,sans-Serif" font-size="10.00"> doTris</text>
<text text-anchor="middle" x="2458" y="-1102" font-family="Helvetica,sans-Serif" font-size="10.00">doQuads</text>
<text text-anchor="middle" x="2458" y="-1091" font-family="Helvetica,sans-Serif" font-size="10.00">sYmm</text>
<text text-anchor="middle" x="2458" y="-1080" font-family="Helvetica,sans-Serif" font-size="10.00">doPrisms</text>
<text text-anchor="middle" x="2458" y="-1069" font-family="Helvetica,sans-Serif" font-size="10.00">doTets</text>
<text text-anchor="middle" x="2458" y="-1058" font-family="Helvetica,sans-Serif" font-size="10.00">doVertices</text>
<text text-anchor="middle" x="2458" y="-1047" font-family="Helvetica,sans-Serif" font-size="10.00">doEdges</text>
</g>
<!-- Node7 -->
<g id="node7" class="node">
<title>Node7</title>
<g id="a_node7"><a xlink:title=" ">
<polygon fill="white" stroke="#bfbfbf" points="2153,-954.5 2153,-1039.5 2359,-1039.5 2359,-954.5 2153,-954.5"/>
<text text-anchor="start" x="2161" y="-1027.5" font-family="Helvetica,sans-Serif" font-size="10.00">function&lt; MoFEMErrorCode</text>
<text text-anchor="start" x="2161" y="-1016.5" font-family="Helvetica,sans-Serif" font-size="10.00">(DataOperator *op_ptr,</text>
<text text-anchor="start" x="2161" y="-1005.5" font-family="Helvetica,sans-Serif" font-size="10.00"> int row_side, int col_side,</text>
<text text-anchor="start" x="2161" y="-994.5" font-family="Helvetica,sans-Serif" font-size="10.00"> EntityType row_type, EntityType</text>
<text text-anchor="start" x="2161" y="-983.5" font-family="Helvetica,sans-Serif" font-size="10.00"> col_type, EntitiesFieldData::EntData</text>
<text text-anchor="start" x="2161" y="-972.5" font-family="Helvetica,sans-Serif" font-size="10.00"> &amp;row_data, EntitiesFieldData::EntData</text>
<text text-anchor="middle" x="2256" y="-961.5" font-family="Helvetica,sans-Serif" font-size="10.00"> &amp;col_data)&gt;</text>
</a>
</g>
</g>
<!-- Node7&#45;&gt;Node4 -->
<g id="edge6" class="edge">
<title>Node7&#45;&gt;Node4</title>
<path fill="none" stroke="#9a32cd" stroke-dasharray="5,2" d="M2369.18,-973.63C2444.56,-957.93 2539.91,-938.06 2595.32,-926.52"/>
<polygon fill="#9a32cd" stroke="#9a32cd" points="2368.22,-970.25 2359.15,-975.72 2369.65,-977.11 2368.22,-970.25"/>
<text text-anchor="middle" x="2458" y="-974" font-family="Helvetica,sans-Serif" font-size="10.00"> doWorkLhsHook</text>
</g>
<!-- Node8 -->
<g id="node8" class="node">
<title>Node8</title>
<g id="a_node8"><a xlink:title=" ">
<polygon fill="white" stroke="#bfbfbf" points="2179,-916.5 2179,-935.5 2333,-935.5 2333,-916.5 2179,-916.5"/>
<text text-anchor="middle" x="2256" y="-923.5" font-family="Helvetica,sans-Serif" font-size="10.00">array&lt; bool, MBMAXTYPE &gt;</text>
</a>
</g>
</g>
<!-- Node8&#45;&gt;Node4 -->
<g id="edge7" class="edge">
<title>Node8&#45;&gt;Node4</title>
<path fill="none" stroke="#9a32cd" stroke-dasharray="5,2" d="M2343.7,-923.97C2415.44,-922.29 2515.59,-919.94 2579.37,-918.44"/>
<polygon fill="#9a32cd" stroke="#9a32cd" points="2343.24,-920.48 2333.33,-924.21 2343.4,-927.48 2343.24,-920.48"/>
<text text-anchor="middle" x="2458" y="-926" font-family="Helvetica,sans-Serif" font-size="10.00"> doEntities</text>
</g>
<!-- Node9 -->
<g id="node9" class="node">
<title>Node9</title>
<g id="a_node9"><a xlink:title=" ">
<polygon fill="white" stroke="#bfbfbf" points="2607.5,-852.5 2607.5,-871.5 2676.5,-871.5 2676.5,-852.5 2607.5,-852.5"/>
<text text-anchor="middle" x="2642" y="-859.5" font-family="Helvetica,sans-Serif" font-size="10.00">FieldSpace</text>
</a>
</g>
</g>
<!-- Node9&#45;&gt;Node3 -->
<g id="edge8" class="edge">
<title>Node9&#45;&gt;Node3</title>
<path fill="none" stroke="#9a32cd" stroke-dasharray="5,2" d="M2686.79,-862C2726.94,-862 2787.51,-862 2836.99,-862"/>
<polygon fill="#9a32cd" stroke="#9a32cd" points="2686.53,-858.5 2676.53,-862 2686.53,-865.5 2686.53,-858.5"/>
<text text-anchor="middle" x="2782" y="-865" font-family="Helvetica,sans-Serif" font-size="10.00"> sPace</text>
</g>
<!-- Node10 -->
<g id="node10" class="node">
<title>Node10</title>
<g id="a_node10"><a xlink:title=" ">
<polygon fill="white" stroke="#bfbfbf" points="1122.5,-1210.5 1122.5,-1229.5 1160.5,-1229.5 1160.5,-1210.5 1122.5,-1210.5"/>
<text text-anchor="middle" x="1141.5" y="-1217.5" font-family="Helvetica,sans-Serif" font-size="10.00">char</text>
</a>
</g>
</g>
<!-- Node10&#45;&gt;Node3 -->
<g id="edge9" class="edge">
<title>Node10&#45;&gt;Node3</title>
<path fill="none" stroke="#9a32cd" stroke-dasharray="5,2" d="M1170.81,-1221.74C1230.94,-1225.28 1375.87,-1233 1497.5,-1233 1497.5,-1233 1497.5,-1233 2643,-1233 2824.09,-1233 2901.61,-946.41 2917.72,-877"/>
<polygon fill="#9a32cd" stroke="#9a32cd" points="1170.79,-1218.23 1160.59,-1221.13 1170.37,-1225.22 1170.79,-1218.23"/>
<text text-anchor="middle" x="2063" y="-1236" font-family="Helvetica,sans-Serif" font-size="10.00"> opType</text>
</g>
<!-- Node38 -->
<g id="node38" class="node">
<title>Node38</title>
<g id="a_node38"><a xlink:href="structMoFEM_1_1Problem.html" target="_top" xlink:title="keeps basic data about problem">
<polygon fill="white" stroke="black" points="1449,-940.5 1449,-959.5 1548,-959.5 1548,-940.5 1449,-940.5"/>
<text text-anchor="middle" x="1498.5" y="-947.5" font-family="Helvetica,sans-Serif" font-size="10.00">MoFEM::Problem</text>
</a>
</g>
</g>
<!-- Node10&#45;&gt;Node38 -->
<g id="edge53" class="edge">
<title>Node10&#45;&gt;Node38</title>
<path fill="none" stroke="#9a32cd" stroke-dasharray="5,2" d="M1170.83,-1217.06C1235.54,-1210.21 1389.26,-1193.17 1397,-1185 1430.14,-1150.04 1383.47,-1005.41 1415,-969 1423.56,-959.11 1436.15,-953.8 1448.91,-951.08"/>
<polygon fill="#9a32cd" stroke="#9a32cd" points="1170.12,-1213.61 1160.54,-1218.14 1170.85,-1220.58 1170.12,-1213.61"/>
<text text-anchor="middle" x="1329" y="-1209" font-family="Helvetica,sans-Serif" font-size="10.00"> tagName</text>
</g>
<!-- Node11 -->
<g id="node11" class="node">
<title>Node11</title>
<g id="a_node11"><a xlink:href="structMoFEM_1_1ForcesAndSourcesCore.html" target="_top" xlink:title="structure to get information form mofem into EntitiesFieldData">
<polygon fill="white" stroke="black" points="2557,-558.5 2557,-577.5 2727,-577.5 2727,-558.5 2557,-558.5"/>
<text text-anchor="middle" x="2642" y="-565.5" font-family="Helvetica,sans-Serif" font-size="10.00">MoFEM::ForcesAndSourcesCore</text>
</a>
</g>
</g>
<!-- Node11&#45;&gt;Node3 -->
<g id="edge10" class="edge">
<title>Node11&#45;&gt;Node3</title>
<path fill="none" stroke="#9a32cd" stroke-dasharray="5,2" d="M2659.39,-585.33C2709.41,-638.23 2859.57,-797.04 2906.69,-846.87"/>
<polygon fill="#9a32cd" stroke="#9a32cd" points="2661.66,-582.64 2652.25,-577.78 2656.58,-587.45 2661.66,-582.64"/>
<text text-anchor="middle" x="2782" y="-753" font-family="Helvetica,sans-Serif" font-size="10.00"> ptrFE</text>
</g>
<!-- Node11&#45;&gt;Node11 -->
<g id="edge68" class="edge">
<title>Node11&#45;&gt;Node11</title>
<path fill="none" stroke="#9a32cd" stroke-dasharray="5,2" d="M2615.96,-587.03C2617.38,-592.13 2626.06,-596 2642,-596 2666.88,-596 2674.08,-586.57 2663.58,-577.76"/>
<polygon fill="#9a32cd" stroke="#9a32cd" points="2619.24,-588.29 2620.42,-577.76 2612.93,-585.25 2619.24,-588.29"/>
<text text-anchor="middle" x="2642" y="-610" font-family="Helvetica,sans-Serif" font-size="10.00"> sidePtrFE</text>
<text text-anchor="middle" x="2642" y="-599" font-family="Helvetica,sans-Serif" font-size="10.00">refinePtrFE</text>
</g>
<!-- Node12 -->
<g id="node12" class="node">
<title>Node12</title>
<g id="a_node12"><a xlink:href="structMoFEM_1_1FEMethod.html" target="_top" xlink:title="structure for User Loop Methods on finite elements">
<polygon fill="white" stroke="black" points="2202.5,-729.5 2202.5,-748.5 2309.5,-748.5 2309.5,-729.5 2202.5,-729.5"/>
<text text-anchor="middle" x="2256" y="-736.5" font-family="Helvetica,sans-Serif" font-size="10.00">MoFEM::FEMethod</text>
</a>
</g>
</g>
<!-- Node12&#45;&gt;Node11 -->
<g id="edge11" class="edge">
<title>Node12&#45;&gt;Node11</title>
<path fill="none" stroke="midnightblue" d="M2319.9,-740.3C2391.45,-740.71 2503.04,-737.79 2539,-717 2595.99,-684.05 2628.12,-604.89 2637.82,-577.51"/>
<polygon fill="midnightblue" stroke="midnightblue" points="2319.67,-736.8 2309.64,-740.22 2319.61,-743.8 2319.67,-736.8"/>
</g>
<!-- Node13 -->
<g id="node13" class="node">
<title>Node13</title>
<g id="a_node13"><a xlink:href="structMoFEM_1_1BasicMethod.html" target="_top" xlink:title="Data structure to exchange data between mofem and User Loop Methods.">
<polygon fill="white" stroke="black" points="1825,-660.5 1825,-679.5 1947,-679.5 1947,-660.5 1825,-660.5"/>
<text text-anchor="middle" x="1886" y="-667.5" font-family="Helvetica,sans-Serif" font-size="10.00">MoFEM::BasicMethod</text>
</a>
</g>
</g>
<!-- Node13&#45;&gt;Node12 -->
<g id="edge12" class="edge">
<title>Node13&#45;&gt;Node12</title>
<path fill="none" stroke="midnightblue" d="M1947.57,-681.41C2001.48,-691.57 2082.49,-706.81 2153,-720 2169.55,-723.1 2187.62,-726.47 2203.89,-729.5"/>
<polygon fill="midnightblue" stroke="midnightblue" points="1947.97,-677.93 1937.49,-679.52 1946.67,-684.81 1947.97,-677.93"/>
</g>
<!-- Node14 -->
<g id="node14" class="node">
<title>Node14</title>
<g id="a_node14"><a xlink:href="structMoFEM_1_1KspMethod.html" target="_top" xlink:title="data structure for ksp (linear solver) context">
<polygon fill="white" stroke="black" points="1442,-345.5 1442,-364.5 1555,-364.5 1555,-345.5 1442,-345.5"/>
<text text-anchor="middle" x="1498.5" y="-352.5" font-family="Helvetica,sans-Serif" font-size="10.00">MoFEM::KspMethod</text>
</a>
</g>
</g>
<!-- Node14&#45;&gt;Node13 -->
<g id="edge13" class="edge">
<title>Node14&#45;&gt;Node13</title>
<path fill="none" stroke="midnightblue" d="M1519.08,-371.14C1565.48,-409.59 1685.42,-510 1781,-599 1789.28,-606.71 1790.12,-609.98 1799,-617 1820.88,-634.29 1848.75,-650.55 1866.74,-660.39"/>
<polygon fill="midnightblue" stroke="midnightblue" points="1521.23,-368.38 1511.29,-364.7 1516.76,-373.78 1521.23,-368.38"/>
</g>
<!-- Node15 -->
<g id="node15" class="node">
<title>Node15</title>
<g id="a_node15"><a xlink:href="structMoFEM_1_1PetscData.html" target="_top" xlink:title=" ">
<polygon fill="white" stroke="black" points="1087.5,-364.5 1087.5,-383.5 1195.5,-383.5 1195.5,-364.5 1087.5,-364.5"/>
<text text-anchor="middle" x="1141.5" y="-371.5" font-family="Helvetica,sans-Serif" font-size="10.00">MoFEM::PetscData</text>
</a>
</g>
</g>
<!-- Node15&#45;&gt;Node14 -->
<g id="edge14" class="edge">
<title>Node15&#45;&gt;Node14</title>
<path fill="none" stroke="midnightblue" d="M1205.67,-370.62C1272.79,-367.03 1377.87,-361.4 1441.94,-357.97"/>
<polygon fill="midnightblue" stroke="midnightblue" points="1205.45,-367.13 1195.65,-371.16 1205.82,-374.12 1205.45,-367.13"/>
</g>
<!-- Node25 -->
<g id="node25" class="node">
<title>Node25</title>
<g id="a_node25"><a xlink:href="structMoFEM_1_1SnesMethod.html" target="_top" xlink:title="data structure for snes (nonlinear solver) context">
<polygon fill="white" stroke="black" points="1439,-251.5 1439,-270.5 1558,-270.5 1558,-251.5 1439,-251.5"/>
<text text-anchor="middle" x="1498.5" y="-258.5" font-family="Helvetica,sans-Serif" font-size="10.00">MoFEM::SnesMethod</text>
</a>
</g>
</g>
<!-- Node15&#45;&gt;Node25 -->
<g id="edge27" class="edge">
<title>Node15&#45;&gt;Node25</title>
<path fill="none" stroke="darkgreen" d="M1205.46,-372.35C1219.07,-369.36 1232.51,-364.06 1243,-355 1261.51,-339.02 1242.4,-318.88 1261,-303 1287.13,-280.7 1377.57,-269.7 1438.73,-264.7"/>
<polygon fill="darkgreen" stroke="darkgreen" points="1204.78,-368.92 1195.56,-374.14 1206.02,-375.81 1204.78,-368.92"/>
</g>
<!-- Node28 -->
<g id="node28" class="node">
<title>Node28</title>
<g id="a_node28"><a xlink:href="structMoFEM_1_1TSMethod.html" target="_top" xlink:title="data structure for TS (time stepping) context">
<polygon fill="white" stroke="black" points="1445,-568.5 1445,-587.5 1552,-587.5 1552,-568.5 1445,-568.5"/>
<text text-anchor="middle" x="1498.5" y="-575.5" font-family="Helvetica,sans-Serif" font-size="10.00">MoFEM::TSMethod</text>
</a>
</g>
</g>
<!-- Node15&#45;&gt;Node28 -->
<g id="edge33" class="edge">
<title>Node15&#45;&gt;Node28</title>
<path fill="none" stroke="darkgreen" d="M1205.66,-383.53C1260.34,-394.23 1339.48,-415.78 1397,-457 1441.84,-489.13 1478.49,-545.89 1491.96,-568.41"/>
<polygon fill="darkgreen" stroke="darkgreen" points="1206.22,-380.08 1195.74,-381.66 1204.92,-386.96 1206.22,-380.08"/>
</g>
<!-- Node16 -->
<g id="node16" class="node">
<title>Node16</title>
<g id="a_node16"><a xlink:href="structMoFEM_1_1UnknownInterface.html" target="_top" xlink:title="base class for all interface classes">
<polygon fill="white" stroke="black" points="735,-59.5 735,-78.5 883,-78.5 883,-59.5 735,-59.5"/>
<text text-anchor="middle" x="809" y="-66.5" font-family="Helvetica,sans-Serif" font-size="10.00">MoFEM::UnknownInterface</text>
</a>
</g>
</g>
<!-- Node16&#45;&gt;Node15 -->
<g id="edge15" class="edge">
<title>Node16&#45;&gt;Node15</title>
<path fill="none" stroke="midnightblue" d="M853.85,-81.71C903.61,-98.63 982.92,-133.65 1022,-194 1041.57,-224.22 1015.52,-328.6 1040,-355 1052.07,-368.02 1070.05,-373.77 1087.47,-375.94"/>
<polygon fill="midnightblue" stroke="midnightblue" points="854.9,-78.38 844.31,-78.57 852.71,-85.02 854.9,-78.38"/>
</g>
<!-- Node56 -->
<g id="node56" class="node">
<title>Node56</title>
<g id="a_node56"><a xlink:href="structMoFEM_1_1CoreInterface.html" target="_top" xlink:title="Interface.">
<polygon fill="white" stroke="black" points="1079,-0.5 1079,-19.5 1204,-19.5 1204,-0.5 1079,-0.5"/>
<text text-anchor="middle" x="1141.5" y="-7.5" font-family="Helvetica,sans-Serif" font-size="10.00">MoFEM::CoreInterface</text>
</a>
</g>
</g>
<!-- Node16&#45;&gt;Node56 -->
<g id="edge67" class="edge">
<title>Node16&#45;&gt;Node56</title>
<path fill="none" stroke="midnightblue" d="M873.52,-57.66C935.53,-46.59 1028.82,-29.94 1087.11,-19.53"/>
<polygon fill="midnightblue" stroke="midnightblue" points="872.7,-54.25 863.47,-59.46 873.93,-61.14 872.7,-54.25"/>
</g>
<!-- Node17 -->
<g id="node17" class="node">
<title>Node17</title>
<g id="a_node17"><a xlink:title=" ">
<polygon fill="white" stroke="#bfbfbf" points="386,-884.5 386,-947.5 627,-947.5 627,-884.5 386,-884.5"/>
<text text-anchor="start" x="394" y="-935.5" font-family="Helvetica,sans-Serif" font-size="10.00">multi_index_container</text>
<text text-anchor="start" x="394" y="-924.5" font-family="Helvetica,sans-Serif" font-size="10.00">&lt; UIdTypeMap, indexed</text>
<text text-anchor="start" x="394" y="-913.5" font-family="Helvetica,sans-Serif" font-size="10.00">_by&lt; hashed_unique&lt; member</text>
<text text-anchor="start" x="394" y="-902.5" font-family="Helvetica,sans-Serif" font-size="10.00">&lt; UIdTypeMap, boost::typeindex</text>
<text text-anchor="middle" x="506.5" y="-891.5" font-family="Helvetica,sans-Serif" font-size="10.00">::type_index, &amp;UIdTypeMap::classIdx &gt; &gt; &gt; &gt;</text>
</a>
</g>
</g>
<!-- Node17&#45;&gt;Node16 -->
<g id="edge16" class="edge">
<title>Node17&#45;&gt;Node16</title>
<path fill="none" stroke="#9a32cd" stroke-dasharray="5,2" d="M516.13,-874.31C540.71,-759.79 617.07,-432.22 735,-181 754.04,-140.45 785.86,-97.38 800.37,-78.64"/>
<polygon fill="#9a32cd" stroke="#9a32cd" points="512.64,-873.89 513.98,-884.4 519.48,-875.35 512.64,-873.89"/>
<text text-anchor="middle" x="681" y="-400" font-family="Helvetica,sans-Serif" font-size="10.00"> iFaceTypeMap</text>
</g>
<!-- Node18 -->
<g id="node18" class="node">
<title>Node18</title>
<g id="a_node18"><a xlink:title=" ">
<polygon fill="white" stroke="#bfbfbf" points="0,-1077.5 0,-1096.5 125,-1096.5 125,-1077.5 0,-1077.5"/>
<text text-anchor="middle" x="62.5" y="-1084.5" font-family="Helvetica,sans-Serif" font-size="10.00">multi_index_container</text>
</a>
</g>
</g>
<!-- Node18&#45;&gt;Node13 -->
<g id="edge40" class="edge">
<title>Node18&#45;&gt;Node13</title>
<path fill="none" stroke="#9a32cd" stroke-dasharray="5,2" d="M85.57,-1102.34C148.23,-1144.31 333.76,-1258 505.5,-1258 505.5,-1258 505.5,-1258 1142.5,-1258 1444.73,-1258 1616.58,-1277.59 1781,-1024 1821.56,-961.45 1750.77,-745.85 1799,-689 1805.73,-681.07 1814.95,-676.01 1824.86,-672.86"/>
<polygon fill="#9a32cd" stroke="#9a32cd" points="87.48,-1099.4 77.24,-1096.68 83.55,-1105.19 87.48,-1099.4"/>
<text text-anchor="middle" x="961.5" y="-1338" font-family="Helvetica,sans-Serif" font-size="10.00"> adjacenciesPtr</text>
<text text-anchor="middle" x="961.5" y="-1327" font-family="Helvetica,sans-Serif" font-size="10.00">refinedEntitiesPtr</text>
<text text-anchor="middle" x="961.5" y="-1316" font-family="Helvetica,sans-Serif" font-size="10.00">finiteElementsEntitiesPtr</text>
<text text-anchor="middle" x="961.5" y="-1305" font-family="Helvetica,sans-Serif" font-size="10.00">dofsPtr</text>
<text text-anchor="middle" x="961.5" y="-1294" font-family="Helvetica,sans-Serif" font-size="10.00">entitiesPtr</text>
<text text-anchor="middle" x="961.5" y="-1283" font-family="Helvetica,sans-Serif" font-size="10.00">finiteElementsPtr</text>
<text text-anchor="middle" x="961.5" y="-1272" font-family="Helvetica,sans-Serif" font-size="10.00">refinedFiniteElementsPtr</text>
<text text-anchor="middle" x="961.5" y="-1261" font-family="Helvetica,sans-Serif" font-size="10.00">fieldsPtr</text>
</g>
<!-- Node18&#45;&gt;Node17 -->
<g id="edge17" class="edge">
<title>Node18&#45;&gt;Node17</title>
<path fill="none" stroke="orange" stroke-dasharray="5,2" d="M97.79,-1073.73C167.27,-1046.85 326.32,-985.32 423.96,-947.55"/>
<polygon fill="orange" stroke="orange" points="96.27,-1070.57 88.21,-1077.44 98.8,-1077.1 96.27,-1070.57"/>
<text text-anchor="start" x="143" y="-1090" font-family="Helvetica,sans-Serif" font-size="10.00"> &lt; UIdTypeMap, indexed</text>
<text text-anchor="start" x="143" y="-1079" font-family="Helvetica,sans-Serif" font-size="10.00">_by&lt; hashed_unique&lt; member</text>
<text text-anchor="start" x="143" y="-1068" font-family="Helvetica,sans-Serif" font-size="10.00">&lt; UIdTypeMap, boost::typeindex</text>
<text text-anchor="middle" x="255.5" y="-1057" font-family="Helvetica,sans-Serif" font-size="10.00">::type_index, &amp;UIdTypeMap::classIdx &gt; &gt; &gt; &gt;</text>
</g>
<!-- Node19 -->
<g id="node19" class="node">
<title>Node19</title>
<g id="a_node19"><a xlink:title=" ">
<polygon fill="white" stroke="#bfbfbf" points="738.5,-277.5 738.5,-296.5 879.5,-296.5 879.5,-277.5 738.5,-277.5"/>
<text text-anchor="middle" x="809" y="-284.5" font-family="Helvetica,sans-Serif" font-size="10.00">static constexpr Switches</text>
</a>
</g>
</g>
<!-- Node19&#45;&gt;Node15 -->
<g id="edge18" class="edge">
<title>Node19&#45;&gt;Node15</title>
<path fill="none" stroke="#9a32cd" stroke-dasharray="5,2" d="M860.04,-275.78C906.83,-268.36 976.17,-265.61 1022,-301 1042.02,-316.46 1020.95,-338.36 1040,-355 1052.97,-366.33 1070.54,-371.8 1087.36,-374.23"/>
<polygon fill="#9a32cd" stroke="#9a32cd" points="859.4,-272.34 850.13,-277.48 860.58,-279.24 859.4,-272.34"/>
<text text-anchor="middle" x="961.5" y="-381" font-family="Helvetica,sans-Serif" font-size="10.00"> CtxSetX_TT</text>
<text text-anchor="middle" x="961.5" y="-370" font-family="Helvetica,sans-Serif" font-size="10.00">CtxSetX_T</text>
<text text-anchor="middle" x="961.5" y="-359" font-family="Helvetica,sans-Serif" font-size="10.00">CtxSetA</text>
<text text-anchor="middle" x="961.5" y="-348" font-family="Helvetica,sans-Serif" font-size="10.00">CtxSetB</text>
<text text-anchor="middle" x="961.5" y="-337" font-family="Helvetica,sans-Serif" font-size="10.00">CtxSetTime</text>
<text text-anchor="middle" x="961.5" y="-326" font-family="Helvetica,sans-Serif" font-size="10.00">CtxSetNone</text>
<text text-anchor="middle" x="961.5" y="-315" font-family="Helvetica,sans-Serif" font-size="10.00">CtxSetF</text>
<text text-anchor="middle" x="961.5" y="-304" font-family="Helvetica,sans-Serif" font-size="10.00">CtxSetX</text>
</g>
<!-- Node20 -->
<g id="node20" class="node">
<title>Node20</title>
<g id="a_node20"><a xlink:title=" ">
<polygon fill="white" stroke="#bfbfbf" points="791.5,-190.5 791.5,-209.5 826.5,-209.5 826.5,-190.5 791.5,-190.5"/>
<text text-anchor="middle" x="809" y="-197.5" font-family="Helvetica,sans-Serif" font-size="10.00">Mat</text>
</a>
</g>
</g>
<!-- Node20&#45;&gt;Node14 -->
<g id="edge24" class="edge">
<title>Node20&#45;&gt;Node14</title>
<path fill="none" stroke="#9a32cd" stroke-dasharray="5,2" d="M836.57,-195.4C905.42,-184.5 1094.58,-161.11 1243,-204 1347.14,-234.1 1452.5,-317.16 1486.33,-345.43"/>
<polygon fill="#9a32cd" stroke="#9a32cd" points="835.88,-191.97 826.58,-197.03 837.01,-198.87 835.88,-191.97"/>
<text text-anchor="middle" x="1141.5" y="-218" font-family="Helvetica,sans-Serif" font-size="10.00"> ksp_A</text>
<text text-anchor="middle" x="1141.5" y="-207" font-family="Helvetica,sans-Serif" font-size="10.00">ksp_B</text>
</g>
<!-- Node20&#45;&gt;Node15 -->
<g id="edge19" class="edge">
<title>Node20&#45;&gt;Node15</title>
<path fill="none" stroke="#9a32cd" stroke-dasharray="5,2" d="M836.93,-197.13C882.19,-193.94 973.32,-194.82 1022,-246 1055.84,-281.58 1005.69,-319.88 1040,-355 1052.29,-367.57 1070.1,-373.26 1087.33,-375.51"/>
<polygon fill="#9a32cd" stroke="#9a32cd" points="836.4,-193.66 826.72,-197.98 836.98,-200.64 836.4,-193.66"/>
<text text-anchor="middle" x="961.5" y="-260" font-family="Helvetica,sans-Serif" font-size="10.00"> A</text>
<text text-anchor="middle" x="961.5" y="-249" font-family="Helvetica,sans-Serif" font-size="10.00">B</text>
</g>
<!-- Node20&#45;&gt;Node25 -->
<g id="edge29" class="edge">
<title>Node20&#45;&gt;Node25</title>
<path fill="none" stroke="#9a32cd" stroke-dasharray="5,2" d="M835.07,-185.45C876.22,-162.51 961.38,-118.9 1040,-103 1128.43,-85.12 1152.95,-97.47 1243,-103 1311.83,-107.23 1347.6,-73.88 1397,-122 1435.63,-159.63 1378.37,-202.42 1415,-242 1421.39,-248.9 1429.74,-253.54 1438.67,-256.62"/>
<polygon fill="#9a32cd" stroke="#9a32cd" points="833.27,-182.45 826.28,-190.42 836.71,-188.55 833.27,-182.45"/>
<text text-anchor="middle" x="1141.5" y="-117" font-family="Helvetica,sans-Serif" font-size="10.00"> snes_A</text>
<text text-anchor="middle" x="1141.5" y="-106" font-family="Helvetica,sans-Serif" font-size="10.00">snes_B</text>
</g>
<!-- Node20&#45;&gt;Node28 -->
<g id="edge34" class="edge">
<title>Node20&#45;&gt;Node28</title>
<path fill="none" stroke="#9a32cd" stroke-dasharray="5,2" d="M833.54,-215.5C850.11,-227.73 871.34,-246.3 883,-268 906.03,-310.87 867.68,-340.54 901,-376 938.8,-416.23 979.51,-368.77 1022,-404 1037.32,-416.7 1024.21,-432.89 1040,-445 1112.42,-500.55 1152.98,-460.95 1243,-476 1311.61,-487.47 1333.12,-476.44 1397,-504 1434.2,-520.05 1470.68,-552.14 1487.64,-568.27"/>
<polygon fill="#9a32cd" stroke="#9a32cd" points="835.55,-212.64 825.37,-209.7 831.5,-218.35 835.55,-212.64"/>
<text text-anchor="middle" x="1141.5" y="-490" font-family="Helvetica,sans-Serif" font-size="10.00"> ts_A</text>
<text text-anchor="middle" x="1141.5" y="-479" font-family="Helvetica,sans-Serif" font-size="10.00">ts_B</text>
</g>
<!-- Node21 -->
<g id="node21" class="node">
<title>Node21</title>
<g id="a_node21"><a xlink:title=" ">
<polygon fill="white" stroke="#bfbfbf" points="772.5,-413.5 772.5,-432.5 845.5,-432.5 845.5,-413.5 772.5,-413.5"/>
<text text-anchor="middle" x="809" y="-420.5" font-family="Helvetica,sans-Serif" font-size="10.00">bitset&lt; 8 &gt;</text>
</a>
</g>
</g>
<!-- Node21&#45;&gt;Node15 -->
<g id="edge20" class="edge">
<title>Node21&#45;&gt;Node15</title>
<path fill="none" stroke="#9a32cd" stroke-dasharray="5,2" d="M855.72,-416.22C916.35,-407.23 1023.14,-391.4 1087.3,-381.89"/>
<polygon fill="#9a32cd" stroke="#9a32cd" points="855.06,-412.78 845.68,-417.71 856.09,-419.71 855.06,-412.78"/>
<text text-anchor="middle" x="961.5" y="-412" font-family="Helvetica,sans-Serif" font-size="10.00"> data_ctx</text>
</g>
<!-- Node22 -->
<g id="node22" class="node">
<title>Node22</title>
<g id="a_node22"><a xlink:title=" ">
<polygon fill="white" stroke="#bfbfbf" points="792,-479.5 792,-498.5 826,-498.5 826,-479.5 792,-479.5"/>
<text text-anchor="middle" x="809" y="-486.5" font-family="Helvetica,sans-Serif" font-size="10.00">Vec</text>
</a>
</g>
</g>
<!-- Node22&#45;&gt;Node14 -->
<g id="edge25" class="edge">
<title>Node22&#45;&gt;Node14</title>
<path fill="none" stroke="#9a32cd" stroke-dasharray="5,2" d="M835.67,-500.36C878.98,-517.6 967.22,-544.17 1022,-502 1046.77,-482.93 1016.78,-454.94 1040,-434 1069.82,-407.11 1357.57,-385.59 1397,-378 1417.39,-374.07 1439.93,-368.98 1458.5,-364.59"/>
<polygon fill="#9a32cd" stroke="#9a32cd" points="836.73,-497.02 826.15,-496.43 834.06,-503.49 836.73,-497.02"/>
<text text-anchor="middle" x="1141.5" y="-437" font-family="Helvetica,sans-Serif" font-size="10.00"> ksp_f</text>
</g>
<!-- Node22&#45;&gt;Node15 -->
<g id="edge21" class="edge">
<title>Node22&#45;&gt;Node15</title>
<path fill="none" stroke="#9a32cd" stroke-dasharray="5,2" d="M835.6,-479.86C853.77,-473.48 878.78,-464.9 901,-458 954.35,-441.43 976.52,-456.44 1022,-424 1033.44,-415.84 1028.4,-405.93 1040,-398 1053.92,-388.48 1071.17,-382.72 1087.42,-379.23"/>
<polygon fill="#9a32cd" stroke="#9a32cd" points="834.29,-476.62 826.02,-483.25 836.62,-483.22 834.29,-476.62"/>
<text text-anchor="middle" x="961.5" y="-494" font-family="Helvetica,sans-Serif" font-size="10.00"> f</text>
<text text-anchor="middle" x="961.5" y="-483" font-family="Helvetica,sans-Serif" font-size="10.00">x</text>
<text text-anchor="middle" x="961.5" y="-472" font-family="Helvetica,sans-Serif" font-size="10.00">x_t</text>
<text text-anchor="middle" x="961.5" y="-461" font-family="Helvetica,sans-Serif" font-size="10.00">x_tt</text>
</g>
<!-- Node22&#45;&gt;Node25 -->
<g id="edge30" class="edge">
<title>Node22&#45;&gt;Node25</title>
<path fill="none" stroke="#9a32cd" stroke-dasharray="5,2" d="M835.78,-479.32C852.15,-471.75 872.22,-459.55 883,-442 903.35,-408.88 873.18,-295.15 901,-268 938.84,-231.06 1296.01,-248.61 1438.87,-257.21"/>
<polygon fill="#9a32cd" stroke="#9a32cd" points="833.99,-476.28 826.18,-483.44 836.75,-482.71 833.99,-476.28"/>
<text text-anchor="middle" x="1141.5" y="-262" font-family="Helvetica,sans-Serif" font-size="10.00"> snes_x</text>
<text text-anchor="middle" x="1141.5" y="-251" font-family="Helvetica,sans-Serif" font-size="10.00">snes_f</text>
</g>
<!-- Node22&#45;&gt;Node28 -->
<g id="edge38" class="edge">
<title>Node22&#45;&gt;Node28</title>
<path fill="none" stroke="#9a32cd" stroke-dasharray="5,2" d="M830.9,-504.82C869.63,-533.03 956.23,-591.01 1040,-612 1193.91,-650.57 1240.41,-636.57 1397,-611 1424.73,-606.47 1455.21,-595.57 1475.25,-587.53"/>
<polygon fill="#9a32cd" stroke="#9a32cd" points="832.66,-501.77 822.54,-498.65 828.51,-507.4 832.66,-501.77"/>
<text text-anchor="middle" x="1141.5" y="-672" font-family="Helvetica,sans-Serif" font-size="10.00"> ts_u</text>
<text text-anchor="middle" x="1141.5" y="-661" font-family="Helvetica,sans-Serif" font-size="10.00">ts_F</text>
<text text-anchor="middle" x="1141.5" y="-650" font-family="Helvetica,sans-Serif" font-size="10.00">ts_u_t</text>
<text text-anchor="middle" x="1141.5" y="-639" font-family="Helvetica,sans-Serif" font-size="10.00">ts_u_tt</text>
</g>
<!-- Node23 -->
<g id="node23" class="node">
<title>Node23</title>
<g id="a_node23"><a xlink:title=" ">
<polygon fill="white" stroke="#bfbfbf" points="1124,-326.5 1124,-345.5 1159,-345.5 1159,-326.5 1124,-326.5"/>
<text text-anchor="middle" x="1141.5" y="-333.5" font-family="Helvetica,sans-Serif" font-size="10.00">KSP</text>
</a>
</g>
</g>
<!-- Node23&#45;&gt;Node14 -->
<g id="edge22" class="edge">
<title>Node23&#45;&gt;Node14</title>
<path fill="none" stroke="#9a32cd" stroke-dasharray="5,2" d="M1169.32,-336.61C1215.74,-337.77 1314.07,-340.66 1397,-346 1411.6,-346.94 1427.36,-348.22 1441.98,-349.53"/>
<polygon fill="#9a32cd" stroke="#9a32cd" points="1169.27,-333.11 1159.19,-336.37 1169.1,-340.11 1169.27,-333.11"/>
<text text-anchor="middle" x="1329" y="-349" font-family="Helvetica,sans-Serif" font-size="10.00"> ksp</text>
</g>
<!-- Node24 -->
<g id="node24" class="node">
<title>Node24</title>
<g id="a_node24"><a xlink:title=" ">
<polygon fill="white" stroke="#bfbfbf" points="1104.5,-288.5 1104.5,-307.5 1178.5,-307.5 1178.5,-288.5 1104.5,-288.5"/>
<text text-anchor="middle" x="1141.5" y="-295.5" font-family="Helvetica,sans-Serif" font-size="10.00">KSPContext</text>
</a>
</g>
</g>
<!-- Node24&#45;&gt;Node14 -->
<g id="edge23" class="edge">
<title>Node24&#45;&gt;Node14</title>
<path fill="none" stroke="#9a32cd" stroke-dasharray="5,2" d="M1188.75,-300.34C1240.04,-303.53 1325.06,-310.58 1397,-325 1422.35,-330.08 1450.5,-338.76 1470.54,-345.48"/>
<polygon fill="#9a32cd" stroke="#9a32cd" points="1188.83,-296.84 1178.64,-299.73 1188.41,-303.82 1188.83,-296.84"/>
<text text-anchor="middle" x="1329" y="-328" font-family="Helvetica,sans-Serif" font-size="10.00"> ksp_ctx</text>
</g>
<!-- Node25&#45;&gt;Node13 -->
<g id="edge26" class="edge">
<title>Node25&#45;&gt;Node13</title>
<path fill="none" stroke="midnightblue" d="M1541.33,-273.84C1605.15,-295.85 1725.28,-347.31 1781,-437 1823.42,-505.29 1756.36,-548.84 1799,-617 1812.21,-638.11 1837.22,-652.11 1856.88,-660.39"/>
<polygon fill="midnightblue" stroke="midnightblue" points="1542.18,-270.44 1531.59,-270.56 1539.95,-277.07 1542.18,-270.44"/>
</g>
<!-- Node26 -->
<g id="node26" class="node">
<title>Node26</title>
<g id="a_node26"><a xlink:title=" ">
<polygon fill="white" stroke="#bfbfbf" points="1120.5,-38.5 1120.5,-57.5 1162.5,-57.5 1162.5,-38.5 1120.5,-38.5"/>
<text text-anchor="middle" x="1141.5" y="-45.5" font-family="Helvetica,sans-Serif" font-size="10.00">SNES</text>
</a>
</g>
</g>
<!-- Node26&#45;&gt;Node25 -->
<g id="edge28" class="edge">
<title>Node26&#45;&gt;Node25</title>
<path fill="none" stroke="#9a32cd" stroke-dasharray="5,2" d="M1172.57,-45.92C1232.97,-42.45 1365.92,-38.57 1397,-69 1424.62,-96.04 1389.4,-213.04 1415,-242 1421.33,-249.16 1429.76,-253.9 1438.82,-257"/>
<polygon fill="#9a32cd" stroke="#9a32cd" points="1172.28,-42.43 1162.51,-46.54 1172.71,-49.42 1172.28,-42.43"/>
<text text-anchor="middle" x="1329" y="-72" font-family="Helvetica,sans-Serif" font-size="10.00"> snes</text>
</g>
<!-- Node27 -->
<g id="node27" class="node">
<title>Node27</title>
<g id="a_node27"><a xlink:title=" ">
<polygon fill="white" stroke="#bfbfbf" points="1101.5,-134.5 1101.5,-153.5 1181.5,-153.5 1181.5,-134.5 1101.5,-134.5"/>
<text text-anchor="middle" x="1141.5" y="-141.5" font-family="Helvetica,sans-Serif" font-size="10.00">SNESContext</text>
</a>
</g>
</g>
<!-- Node27&#45;&gt;Node25 -->
<g id="edge31" class="edge">
<title>Node27&#45;&gt;Node25</title>
<path fill="none" stroke="#9a32cd" stroke-dasharray="5,2" d="M1191.53,-132.58C1248.06,-122.55 1340.43,-116.2 1397,-165 1423.61,-187.95 1390.11,-217.19 1415,-242 1421.56,-248.54 1429.89,-253.01 1438.71,-256.03"/>
<polygon fill="#9a32cd" stroke="#9a32cd" points="1190.59,-129.2 1181.41,-134.49 1191.89,-136.08 1190.59,-129.2"/>
<text text-anchor="middle" x="1329" y="-168" font-family="Helvetica,sans-Serif" font-size="10.00"> snes_ctx</text>
</g>
<!-- Node28&#45;&gt;Node13 -->
<g id="edge32" class="edge">
<title>Node28&#45;&gt;Node13</title>
<path fill="none" stroke="midnightblue" d="M1549.66,-589.97C1627.07,-608.45 1774.12,-643.54 1844.93,-660.44"/>
<polygon fill="midnightblue" stroke="midnightblue" points="1550.2,-586.5 1539.66,-587.59 1548.58,-593.31 1550.2,-586.5"/>
</g>
<!-- Node29 -->
<g id="node29" class="node">
<title>Node29</title>
<g id="a_node29"><a xlink:title=" ">
<polygon fill="white" stroke="#bfbfbf" points="1109,-545.5 1109,-564.5 1174,-564.5 1174,-545.5 1109,-545.5"/>
<text text-anchor="middle" x="1141.5" y="-552.5" font-family="Helvetica,sans-Serif" font-size="10.00">PetscReal</text>
</a>
</g>
</g>
<!-- Node29&#45;&gt;Node28 -->
<g id="edge35" class="edge">
<title>Node29&#45;&gt;Node28</title>
<path fill="none" stroke="#9a32cd" stroke-dasharray="5,2" d="M1184.02,-547.64C1234.68,-539.9 1322.74,-530.44 1397,-543 1425.42,-547.81 1456.52,-559.75 1476.48,-568.35"/>
<polygon fill="#9a32cd" stroke="#9a32cd" points="1183.44,-544.19 1174.1,-549.21 1184.53,-551.1 1183.44,-544.19"/>
<text text-anchor="middle" x="1329" y="-579" font-family="Helvetica,sans-Serif" font-size="10.00"> ts_a</text>
<text text-anchor="middle" x="1329" y="-568" font-family="Helvetica,sans-Serif" font-size="10.00">ts_t</text>
<text text-anchor="middle" x="1329" y="-557" font-family="Helvetica,sans-Serif" font-size="10.00">ts_dt</text>
<text text-anchor="middle" x="1329" y="-546" font-family="Helvetica,sans-Serif" font-size="10.00">ts_aa</text>
</g>
<!-- Node30 -->
<g id="node30" class="node">
<title>Node30</title>
<g id="a_node30"><a xlink:title=" ">
<polygon fill="white" stroke="#bfbfbf" points="1108,-507.5 1108,-526.5 1175,-526.5 1175,-507.5 1108,-507.5"/>
<text text-anchor="middle" x="1141.5" y="-514.5" font-family="Helvetica,sans-Serif" font-size="10.00">TSContext</text>
</a>
</g>
</g>
<!-- Node30&#45;&gt;Node28 -->
<g id="edge36" class="edge">
<title>Node30&#45;&gt;Node28</title>
<path fill="none" stroke="#9a32cd" stroke-dasharray="5,2" d="M1185.42,-511.62C1236.74,-506.59 1324.76,-502.47 1397,-522 1431.51,-531.33 1466.9,-554.99 1485.06,-568.38"/>
<polygon fill="#9a32cd" stroke="#9a32cd" points="1184.94,-508.15 1175.35,-512.66 1185.66,-515.11 1184.94,-508.15"/>
<text text-anchor="middle" x="1329" y="-525" font-family="Helvetica,sans-Serif" font-size="10.00"> ts_ctx</text>
</g>
<!-- Node31 -->
<g id="node31" class="node">
<title>Node31</title>
<g id="a_node31"><a xlink:title=" ">
<polygon fill="white" stroke="#bfbfbf" points="1113.5,-701.5 1113.5,-720.5 1169.5,-720.5 1169.5,-701.5 1113.5,-701.5"/>
<text text-anchor="middle" x="1141.5" y="-708.5" font-family="Helvetica,sans-Serif" font-size="10.00">PetscInt</text>
</a>
</g>
</g>
<!-- Node31&#45;&gt;Node28 -->
<g id="edge37" class="edge">
<title>Node31&#45;&gt;Node28</title>
<path fill="none" stroke="#9a32cd" stroke-dasharray="5,2" d="M1179.63,-706.02C1199.17,-702.46 1223.12,-696.55 1243,-687 1252.14,-682.61 1251.72,-677.08 1261,-673 1317.12,-648.32 1340.41,-673.57 1397,-650 1434.05,-634.57 1470.6,-603.26 1487.61,-587.51"/>
<polygon fill="#9a32cd" stroke="#9a32cd" points="1178.85,-702.61 1169.57,-707.73 1180.02,-709.51 1178.85,-702.61"/>
<text text-anchor="middle" x="1329" y="-676" font-family="Helvetica,sans-Serif" font-size="10.00"> ts_step</text>
</g>
<!-- Node32 -->
<g id="node32" class="node">
<title>Node32</title>
<g id="a_node32"><a xlink:title=" ">
<polygon fill="white" stroke="#bfbfbf" points="1127,-583.5 1127,-602.5 1156,-602.5 1156,-583.5 1127,-583.5"/>
<text text-anchor="middle" x="1141.5" y="-590.5" font-family="Helvetica,sans-Serif" font-size="10.00">TS</text>
</a>
</g>
</g>
<!-- Node32&#45;&gt;Node28 -->
<g id="edge39" class="edge">
<title>Node32&#45;&gt;Node28</title>
<path fill="none" stroke="#9a32cd" stroke-dasharray="5,2" d="M1166.25,-593.77C1211.3,-595.01 1312.27,-596.79 1397,-591 1412.62,-589.93 1429.53,-588.04 1444.94,-586.02"/>
<polygon fill="#9a32cd" stroke="#9a32cd" points="1166.14,-590.26 1156.04,-593.47 1165.93,-597.26 1166.14,-590.26"/>
<text text-anchor="middle" x="1329" y="-599" font-family="Helvetica,sans-Serif" font-size="10.00"> ts</text>
</g>
<!-- Node33 -->
<g id="node33" class="node">
<title>Node33</title>
<g id="a_node33"><a xlink:title=" ">
<polygon fill="white" stroke="#bfbfbf" points="1454,-213.5 1454,-232.5 1543,-232.5 1543,-213.5 1454,-213.5"/>
<text text-anchor="middle" x="1498.5" y="-220.5" font-family="Helvetica,sans-Serif" font-size="10.00">pair&lt; int, int &gt;</text>
</a>
</g>
</g>
<!-- Node33&#45;&gt;Node13 -->
<g id="edge41" class="edge">
<title>Node33&#45;&gt;Node13</title>
<path fill="none" stroke="#9a32cd" stroke-dasharray="5,2" d="M1553.27,-217.2C1618.15,-213.54 1725.43,-218.79 1781,-284 1829.06,-340.41 1761.14,-553.29 1799,-617 1811.63,-638.26 1836.44,-652.18 1856.18,-660.39"/>
<polygon fill="#9a32cd" stroke="#9a32cd" points="1552.99,-213.72 1543.24,-217.86 1553.44,-220.7 1552.99,-213.72"/>
<text text-anchor="middle" x="1690.5" y="-287" font-family="Helvetica,sans-Serif" font-size="10.00"> loHiFERank</text>
</g>
<!-- Node34 -->
<g id="node34" class="node">
<title>Node34</title>
<g id="a_node34"><a xlink:title=" ">
<polygon fill="white" stroke="#bfbfbf" points="1428.5,-175.5 1428.5,-194.5 1568.5,-194.5 1568.5,-175.5 1428.5,-175.5"/>
<text text-anchor="middle" x="1498.5" y="-182.5" font-family="Helvetica,sans-Serif" font-size="10.00">weak_ptr&lt; CacheTuple &gt;</text>
</a>
</g>
</g>
<!-- Node34&#45;&gt;Node13 -->
<g id="edge42" class="edge">
<title>Node34&#45;&gt;Node13</title>
<path fill="none" stroke="#9a32cd" stroke-dasharray="5,2" d="M1539.49,-172.85C1600.95,-156.94 1718.08,-138.01 1781,-202 1813.36,-234.91 1775.63,-577.2 1799,-617 1811.52,-638.32 1836.34,-652.24 1856.11,-660.43"/>
<polygon fill="#9a32cd" stroke="#9a32cd" points="1538.52,-169.49 1529.77,-175.47 1540.33,-176.25 1538.52,-169.49"/>
<text text-anchor="middle" x="1690.5" y="-205" font-family="Helvetica,sans-Serif" font-size="10.00"> cacheWeakPtr</text>
</g>
<!-- Node35 -->
<g id="node35" class="node">
<title>Node35</title>
<g id="a_node35"><a xlink:title=" ">
<polygon fill="white" stroke="#bfbfbf" points="1442.5,-978.5 1442.5,-997.5 1554.5,-997.5 1554.5,-978.5 1442.5,-978.5"/>
<text text-anchor="middle" x="1498.5" y="-985.5" font-family="Helvetica,sans-Serif" font-size="10.00">unique_ptr&lt; bool &gt;</text>
</a>
</g>
</g>
<!-- Node35&#45;&gt;Node13 -->
<g id="edge43" class="edge">
<title>Node35&#45;&gt;Node13</title>
<path fill="none" stroke="#9a32cd" stroke-dasharray="5,2" d="M1564.79,-996.7C1629.84,-1001.32 1727.51,-996.53 1781,-937 1817.93,-895.9 1762.86,-730.8 1799,-689 1805.8,-681.13 1815.06,-676.11 1824.98,-672.96"/>
<polygon fill="#9a32cd" stroke="#9a32cd" points="1564.89,-993.2 1554.64,-995.89 1564.33,-1000.18 1564.89,-993.2"/>
<text text-anchor="middle" x="1690.5" y="-1012" font-family="Helvetica,sans-Serif" font-size="10.00"> matAssembleSwitch</text>
<text text-anchor="middle" x="1690.5" y="-1001" font-family="Helvetica,sans-Serif" font-size="10.00">vecAssembleSwitch</text>
</g>
<!-- Node36 -->
<g id="node36" class="node">
<title>Node36</title>
<g id="a_node36"><a xlink:title=" ">
<polygon fill="white" stroke="#bfbfbf" points="1127,-739.5 1127,-758.5 1156,-758.5 1156,-739.5 1127,-739.5"/>
<text text-anchor="middle" x="1141.5" y="-746.5" font-family="Helvetica,sans-Serif" font-size="10.00">int</text>
</a>
</g>
</g>
<!-- Node36&#45;&gt;Node13 -->
<g id="edge44" class="edge">
<title>Node36&#45;&gt;Node13</title>
<path fill="none" stroke="#9a32cd" stroke-dasharray="5,2" d="M1166.08,-748.44C1187.31,-747.06 1218.8,-742.79 1243,-730 1253,-724.71 1250.7,-716.68 1261,-712 1311.45,-689.09 1678.18,-676.01 1824.73,-671.65"/>
<polygon fill="#9a32cd" stroke="#9a32cd" points="1165.83,-744.95 1156.01,-748.93 1166.16,-751.94 1165.83,-744.95"/>
<text text-anchor="middle" x="1498.5" y="-727" font-family="Helvetica,sans-Serif" font-size="10.00"> sIze</text>
<text text-anchor="middle" x="1498.5" y="-716" font-family="Helvetica,sans-Serif" font-size="10.00">loopSize</text>
<text text-anchor="middle" x="1498.5" y="-705" font-family="Helvetica,sans-Serif" font-size="10.00">nInTheLoop</text>
<text text-anchor="middle" x="1498.5" y="-694" font-family="Helvetica,sans-Serif" font-size="10.00">rAnk</text>
</g>
<!-- Node36&#45;&gt;Node38 -->
<g id="edge56" class="edge">
<title>Node36&#45;&gt;Node38</title>
<path fill="none" stroke="#9a32cd" stroke-dasharray="5,2" d="M1166.18,-744.33C1190.02,-739.88 1227.89,-733.5 1261,-731 1321.27,-726.45 1348.34,-695.15 1397,-731 1418.73,-747.01 1404.81,-764.01 1415,-789 1439.31,-848.62 1477.59,-916 1491.88,-940.47"/>
<polygon fill="#9a32cd" stroke="#9a32cd" points="1165.45,-740.9 1156.29,-746.21 1166.77,-747.78 1165.45,-740.9"/>
<text text-anchor="middle" x="1329" y="-800" font-family="Helvetica,sans-Serif" font-size="10.00"> tagNameSize</text>
<text text-anchor="middle" x="1329" y="-789" font-family="Helvetica,sans-Serif" font-size="10.00">nbDofsRow</text>
<text text-anchor="middle" x="1329" y="-778" font-family="Helvetica,sans-Serif" font-size="10.00">nbLocDofsCol</text>
<text text-anchor="middle" x="1329" y="-767" font-family="Helvetica,sans-Serif" font-size="10.00">nbDofsCol</text>
<text text-anchor="middle" x="1329" y="-756" font-family="Helvetica,sans-Serif" font-size="10.00">nbGhostDofsRow</text>
<text text-anchor="middle" x="1329" y="-745" font-family="Helvetica,sans-Serif" font-size="10.00">nbGhostDofsCol</text>
<text text-anchor="middle" x="1329" y="-734" font-family="Helvetica,sans-Serif" font-size="10.00">nbLocDofsRow</text>
</g>
<!-- Node37 -->
<g id="node37" class="node">
<title>Node37</title>
<g id="a_node37"><a xlink:title=" ">
<polygon fill="white" stroke="#bfbfbf" points="1415,-760.5 1415,-779.5 1582,-779.5 1582,-760.5 1415,-760.5"/>
<text text-anchor="middle" x="1498.5" y="-767.5" font-family="Helvetica,sans-Serif" font-size="10.00">function&lt; MoFEMErrorCode()&gt;</text>
</a>
</g>
</g>
<!-- Node37&#45;&gt;Node13 -->
<g id="edge45" class="edge">
<title>Node37&#45;&gt;Node13</title>
<path fill="none" stroke="#9a32cd" stroke-dasharray="5,2" d="M1592.31,-766.98C1650.28,-761.36 1724.39,-747.1 1781,-712 1792.03,-705.16 1788.02,-695.92 1799,-689 1806.76,-684.11 1815.61,-680.47 1824.61,-677.76"/>
<polygon fill="#9a32cd" stroke="#9a32cd" points="1591.7,-763.52 1582.05,-767.9 1592.32,-770.49 1591.7,-763.52"/>
<text text-anchor="middle" x="1690.5" y="-791" font-family="Helvetica,sans-Serif" font-size="10.00"> preProcessHook</text>
<text text-anchor="middle" x="1690.5" y="-780" font-family="Helvetica,sans-Serif" font-size="10.00">operatorHook</text>
<text text-anchor="middle" x="1690.5" y="-769" font-family="Helvetica,sans-Serif" font-size="10.00">postProcessHook</text>
</g>
<!-- Node38&#45;&gt;Node13 -->
<g id="edge46" class="edge">
<title>Node38&#45;&gt;Node13</title>
<path fill="none" stroke="#9a32cd" stroke-dasharray="5,2" d="M1552.61,-937.79C1617.55,-919.92 1725.65,-880.03 1781,-803 1810.93,-761.34 1763.85,-726.36 1799,-689 1805.92,-681.65 1814.98,-676.83 1824.63,-673.72"/>
<polygon fill="#9a32cd" stroke="#9a32cd" points="1551.33,-934.51 1542.57,-940.48 1553.14,-941.28 1551.33,-934.51"/>
<text text-anchor="middle" x="1690.5" y="-925" font-family="Helvetica,sans-Serif" font-size="10.00"> problemPtr</text>
</g>
<!-- Node39 -->
<g id="node39" class="node">
<title>Node39</title>
<g id="a_node39"><a xlink:title=" ">
<polygon fill="white" stroke="#bfbfbf" points="1058,-908 1058,-938 1225,-938 1225,-908 1058,-908"/>
<text text-anchor="start" x="1066" y="-926" font-family="Helvetica,sans-Serif" font-size="10.00">shared_ptr&lt; NumeredEntFinite</text>
<text text-anchor="middle" x="1141.5" y="-915" font-family="Helvetica,sans-Serif" font-size="10.00">Element_multiIndex &gt;</text>
</a>
</g>
</g>
<!-- Node39&#45;&gt;Node38 -->
<g id="edge47" class="edge">
<title>Node39&#45;&gt;Node38</title>
<path fill="none" stroke="#9a32cd" stroke-dasharray="5,2" d="M1235.19,-928.47C1283.46,-931.5 1343.44,-935.55 1397,-940 1413.95,-941.41 1432.48,-943.19 1448.97,-944.85"/>
<polygon fill="#9a32cd" stroke="#9a32cd" points="1235.27,-924.96 1225.07,-927.83 1234.84,-931.95 1235.27,-924.96"/>
<text text-anchor="middle" x="1329" y="-943" font-family="Helvetica,sans-Serif" font-size="10.00"> numeredFiniteElementsPtr</text>
</g>
<!-- Node40 -->
<g id="node40" class="node">
<title>Node40</title>
<g id="a_node40"><a xlink:title=" ">
<polygon fill="white" stroke="#bfbfbf" points="1112,-869.5 1112,-888.5 1171,-888.5 1171,-869.5 1112,-869.5"/>
<text text-anchor="middle" x="1141.5" y="-876.5" font-family="Helvetica,sans-Serif" font-size="10.00">BitFEId *</text>
</a>
</g>
</g>
<!-- Node40&#45;&gt;Node38 -->
<g id="edge48" class="edge">
<title>Node40&#45;&gt;Node38</title>
<path fill="none" stroke="#9a32cd" stroke-dasharray="5,2" d="M1181.19,-882.11C1231.45,-886.69 1321.69,-896.74 1397,-915 1424.11,-921.57 1454.21,-932.57 1474.33,-940.48"/>
<polygon fill="#9a32cd" stroke="#9a32cd" points="1181.36,-878.61 1171.09,-881.22 1180.74,-885.59 1181.36,-878.61"/>
<text text-anchor="middle" x="1329" y="-918" font-family="Helvetica,sans-Serif" font-size="10.00"> tagBitFEId</text>
</g>
<!-- Node41 -->
<g id="node41" class="node">
<title>Node41</title>
<g id="a_node41"><a xlink:href="classEntityHandle.html" target="_top" xlink:title=" ">
<polygon fill="white" stroke="black" points="1101.5,-831.5 1101.5,-850.5 1181.5,-850.5 1181.5,-831.5 1101.5,-831.5"/>
<text text-anchor="middle" x="1141.5" y="-838.5" font-family="Helvetica,sans-Serif" font-size="10.00">EntityHandle</text>
</a>
</g>
</g>
<!-- Node41&#45;&gt;Node38 -->
<g id="edge49" class="edge">
<title>Node41&#45;&gt;Node38</title>
<path fill="none" stroke="#9a32cd" stroke-dasharray="5,2" d="M1191.62,-840.66C1244.27,-841.89 1329.4,-848.55 1397,-876 1434.74,-891.32 1471.25,-924.05 1487.98,-940.35"/>
<polygon fill="#9a32cd" stroke="#9a32cd" points="1191.59,-837.16 1181.53,-840.48 1191.47,-844.16 1191.59,-837.16"/>
<text text-anchor="middle" x="1329" y="-879" font-family="Helvetica,sans-Serif" font-size="10.00"> meshset</text>
</g>
<!-- Node42 -->
<g id="node42" class="node">
<title>Node42</title>
<g id="a_node42"><a xlink:title=" ">
<polygon fill="white" stroke="#bfbfbf" points="1067,-782 1067,-812 1216,-812 1216,-782 1067,-782"/>
<text text-anchor="start" x="1075" y="-800" font-family="Helvetica,sans-Serif" font-size="10.00">shared_ptr&lt; MoFEM::</text>
<text text-anchor="middle" x="1141.5" y="-789" font-family="Helvetica,sans-Serif" font-size="10.00">ComposedProblemsData &gt;</text>
</a>
</g>
</g>
<!-- Node42&#45;&gt;Node38 -->
<g id="edge50" class="edge">
<title>Node42&#45;&gt;Node38</title>
<path fill="none" stroke="#9a32cd" stroke-dasharray="5,2" d="M1226.38,-806.74C1297.58,-815.24 1389.42,-826.85 1397,-831 1445.14,-857.37 1480.13,-916.75 1492.55,-940.2"/>
<polygon fill="#9a32cd" stroke="#9a32cd" points="1226.38,-803.22 1216.04,-805.51 1225.55,-810.17 1226.38,-803.22"/>
<text text-anchor="middle" x="1329" y="-834" font-family="Helvetica,sans-Serif" font-size="10.00"> composedProblemsData</text>
</g>
<!-- Node43 -->
<g id="node43" class="node">
<title>Node43</title>
<g id="a_node43"><a xlink:title=" ">
<polygon fill="white" stroke="#bfbfbf" points="1101,-1171.5 1101,-1190.5 1182,-1190.5 1182,-1171.5 1101,-1171.5"/>
<text text-anchor="middle" x="1141.5" y="-1178.5" font-family="Helvetica,sans-Serif" font-size="10.00">BitRefLevel *</text>
</a>
</g>
</g>
<!-- Node43&#45;&gt;Node38 -->
<g id="edge51" class="edge">
<title>Node43&#45;&gt;Node38</title>
<path fill="none" stroke="#9a32cd" stroke-dasharray="5,2" d="M1192.19,-1173.38C1265.75,-1162.04 1395.24,-1141.86 1397,-1140 1449.53,-1084.5 1364.34,-1026.22 1415,-969 1423.57,-959.32 1436,-954.04 1448.62,-951.3"/>
<polygon fill="#9a32cd" stroke="#9a32cd" points="1191.55,-1169.94 1182.2,-1174.92 1192.61,-1176.85 1191.55,-1169.94"/>
<text text-anchor="middle" x="1329" y="-1176" font-family="Helvetica,sans-Serif" font-size="10.00"> tagBitRefLevelMask</text>
<text text-anchor="middle" x="1329" y="-1165" font-family="Helvetica,sans-Serif" font-size="10.00">tagBitRefLevel</text>
</g>
<!-- Node44 -->
<g id="node44" class="node">
<title>Node44</title>
<g id="a_node44"><a xlink:title=" ">
<polygon fill="white" stroke="#bfbfbf" points="1056.5,-1122 1056.5,-1152 1226.5,-1152 1226.5,-1122 1056.5,-1122"/>
<text text-anchor="start" x="1064.5" y="-1140" font-family="Helvetica,sans-Serif" font-size="10.00">shared_ptr&lt; NumeredDofEntity</text>
<text text-anchor="middle" x="1141.5" y="-1129" font-family="Helvetica,sans-Serif" font-size="10.00">_multiIndex &gt;</text>
</a>
</g>
</g>
<!-- Node44&#45;&gt;Node38 -->
<g id="edge52" class="edge">
<title>Node44&#45;&gt;Node38</title>
<path fill="none" stroke="#9a32cd" stroke-dasharray="5,2" d="M1236.62,-1121.79C1308.8,-1110.08 1396.27,-1095.75 1397,-1095 1436.56,-1054.57 1376.72,-1010.65 1415,-969 1423.75,-959.48 1436.23,-954.25 1448.85,-951.5"/>
<polygon fill="#9a32cd" stroke="#9a32cd" points="1235.86,-1118.37 1226.55,-1123.42 1236.98,-1125.28 1235.86,-1118.37"/>
<text text-anchor="middle" x="1329" y="-1131" font-family="Helvetica,sans-Serif" font-size="10.00"> numeredRowDofsPtr</text>
<text text-anchor="middle" x="1329" y="-1120" font-family="Helvetica,sans-Serif" font-size="10.00">numeredColDofsPtr</text>
</g>
<!-- Node45 -->
<g id="node45" class="node">
<title>Node45</title>
<g id="a_node45"><a xlink:title=" ">
<polygon fill="white" stroke="#bfbfbf" points="1072.5,-1083.5 1072.5,-1102.5 1210.5,-1102.5 1210.5,-1083.5 1072.5,-1083.5"/>
<text text-anchor="middle" x="1141.5" y="-1090.5" font-family="Helvetica,sans-Serif" font-size="10.00">vector&lt; BlockFieldPair &gt;</text>
</a>
</g>
</g>
<!-- Node45&#45;&gt;Node38 -->
<g id="edge54" class="edge">
<title>Node45&#45;&gt;Node38</title>
<path fill="none" stroke="#9a32cd" stroke-dasharray="5,2" d="M1220.64,-1085.4C1293.03,-1078.02 1390.5,-1067.07 1397,-1061 1427.45,-1032.56 1386.03,-998.95 1415,-969 1423.89,-959.81 1436.27,-954.67 1448.73,-951.89"/>
<polygon fill="#9a32cd" stroke="#9a32cd" points="1220.2,-1081.93 1210.6,-1086.42 1220.9,-1088.89 1220.2,-1081.93"/>
<text text-anchor="middle" x="1329" y="-1083" font-family="Helvetica,sans-Serif" font-size="10.00"> emptyFieldBlocks</text>
</g>
<!-- Node46 -->
<g id="node46" class="node">
<title>Node46</title>
<g id="a_node46"><a xlink:title=" ">
<polygon fill="white" stroke="#bfbfbf" points="1063.5,-1034 1063.5,-1064 1219.5,-1064 1219.5,-1034 1063.5,-1034"/>
<text text-anchor="start" x="1071.5" y="-1052" font-family="Helvetica,sans-Serif" font-size="10.00">shared_ptr&lt; MoFEM::</text>
<text text-anchor="middle" x="1141.5" y="-1041" font-family="Helvetica,sans-Serif" font-size="10.00">Problem::SubProblemData &gt;</text>
</a>
</g>
</g>
<!-- Node46&#45;&gt;Node38 -->
<g id="edge55" class="edge">
<title>Node46&#45;&gt;Node38</title>
<path fill="none" stroke="#9a32cd" stroke-dasharray="5,2" d="M1229.76,-1049.94C1293.05,-1048.84 1371.79,-1043.2 1397,-1023 1416.74,-1007.18 1396.28,-986.02 1415,-969 1424.25,-960.6 1436.45,-955.68 1448.62,-952.86"/>
<polygon fill="#9a32cd" stroke="#9a32cd" points="1229.7,-1046.44 1219.75,-1050.08 1229.8,-1053.44 1229.7,-1046.44"/>
<text text-anchor="middle" x="1329" y="-1051" font-family="Helvetica,sans-Serif" font-size="10.00"> subProblemData</text>
</g>
<!-- Node47 -->
<g id="node47" class="node">
<title>Node47</title>
<g id="a_node47"><a xlink:title=" ">
<polygon fill="white" stroke="#bfbfbf" points="1040,-995.5 1040,-1014.5 1243,-1014.5 1243,-995.5 1040,-995.5"/>
<text text-anchor="middle" x="1141.5" y="-1002.5" font-family="Helvetica,sans-Serif" font-size="10.00">shared_ptr&lt; SequenceDofContainer &gt;</text>
</a>
</g>
</g>
<!-- Node47&#45;&gt;Node38 -->
<g id="edge57" class="edge">
<title>Node47&#45;&gt;Node38</title>
<path fill="none" stroke="#9a32cd" stroke-dasharray="5,2" d="M1253.36,-998.61C1298.4,-994.4 1350.64,-987.45 1397,-976 1405.33,-973.94 1406.8,-971.53 1415,-969 1426.38,-965.5 1438.82,-962.31 1450.5,-959.59"/>
<polygon fill="#9a32cd" stroke="#9a32cd" points="1252.92,-995.13 1243.27,-999.51 1253.55,-1002.1 1252.92,-995.13"/>
<text text-anchor="middle" x="1329" y="-1011" font-family="Helvetica,sans-Serif" font-size="10.00"> sequenceRowDofContainer</text>
<text text-anchor="middle" x="1329" y="-1000" font-family="Helvetica,sans-Serif" font-size="10.00">sequenceColDofContainer</text>
</g>
<!-- Node48 -->
<g id="node48" class="node">
<title>Node48</title>
<g id="a_node48"><a xlink:title=" ">
<polygon fill="white" stroke="#bfbfbf" points="1097.5,-957.5 1097.5,-976.5 1185.5,-976.5 1185.5,-957.5 1097.5,-957.5"/>
<text text-anchor="middle" x="1141.5" y="-964.5" font-family="Helvetica,sans-Serif" font-size="10.00">BitProblemId *</text>
</a>
</g>
</g>
<!-- Node48&#45;&gt;Node38 -->
<g id="edge58" class="edge">
<title>Node48&#45;&gt;Node38</title>
<path fill="none" stroke="#9a32cd" stroke-dasharray="5,2" d="M1195.84,-964.45C1264.48,-961.16 1382.73,-955.5 1448.96,-952.32"/>
<polygon fill="#9a32cd" stroke="#9a32cd" points="1195.5,-960.96 1185.68,-964.93 1195.83,-967.95 1195.5,-960.96"/>
<text text-anchor="middle" x="1329" y="-964" font-family="Helvetica,sans-Serif" font-size="10.00"> tagId</text>
</g>
<!-- Node49 -->
<g id="node49" class="node">
<title>Node49</title>
<g id="a_node49"><a xlink:title=" ">
<polygon fill="white" stroke="#bfbfbf" points="1805,-748 1805,-778 1967,-778 1967,-748 1805,-748"/>
<text text-anchor="start" x="1813" y="-766" font-family="Helvetica,sans-Serif" font-size="10.00">shared_ptr&lt; const MoFEM</text>
<text text-anchor="middle" x="1886" y="-755" font-family="Helvetica,sans-Serif" font-size="10.00">::NumeredEntFiniteElement &gt;</text>
</a>
</g>
</g>
<!-- Node49&#45;&gt;Node12 -->
<g id="edge59" class="edge">
<title>Node49&#45;&gt;Node12</title>
<path fill="none" stroke="#9a32cd" stroke-dasharray="5,2" d="M1977.54,-757.1C2048.18,-752.49 2143.85,-746.25 2202.4,-742.43"/>
<polygon fill="#9a32cd" stroke="#9a32cd" points="1977.06,-753.62 1967.3,-757.76 1977.51,-760.6 1977.06,-753.62"/>
<text text-anchor="middle" x="2063" y="-759" font-family="Helvetica,sans-Serif" font-size="10.00"> numeredEntFiniteElementPtr</text>
</g>
<!-- Node50 -->
<g id="node50" class="node">
<title>Node50</title>
<g id="a_node50"><a xlink:title=" ">
<polygon fill="white" stroke="#bfbfbf" points="1864,-802.5 1864,-821.5 1908,-821.5 1908,-802.5 1864,-802.5"/>
<text text-anchor="middle" x="1886" y="-809.5" font-family="Helvetica,sans-Serif" font-size="10.00">string</text>
</a>
</g>
</g>
<!-- Node50&#45;&gt;Node3 -->
<g id="edge82" class="edge">
<title>Node50&#45;&gt;Node3</title>
<path fill="none" stroke="#9a32cd" stroke-dasharray="5,2" d="M1918.25,-812.47C2028.8,-814.27 2411.71,-821.76 2727,-843 2762.96,-845.42 2802.58,-849.12 2836.58,-852.61"/>
<polygon fill="#9a32cd" stroke="#9a32cd" points="1918.18,-808.97 1908.12,-812.31 1918.07,-815.97 1918.18,-808.97"/>
<text text-anchor="middle" x="2458" y="-846" font-family="Helvetica,sans-Serif" font-size="10.00"> colFieldName</text>
<text text-anchor="middle" x="2458" y="-835" font-family="Helvetica,sans-Serif" font-size="10.00">rowFieldName</text>
</g>
<!-- Node50&#45;&gt;Node12 -->
<g id="edge60" class="edge">
<title>Node50&#45;&gt;Node12</title>
<path fill="none" stroke="#9a32cd" stroke-dasharray="5,2" d="M1917.87,-805.42C1938.53,-801.11 1966.34,-795.46 1991,-791 2054.78,-779.47 2073.74,-789.17 2135,-768 2143.65,-765.01 2144.39,-761.1 2153,-758 2168.59,-752.39 2186.15,-748.35 2202.25,-745.49"/>
<polygon fill="#9a32cd" stroke="#9a32cd" points="1917.13,-802 1908.07,-807.48 1918.57,-808.85 1917.13,-802"/>
<text text-anchor="middle" x="2063" y="-794" font-family="Helvetica,sans-Serif" font-size="10.00"> feName</text>
</g>
<!-- Node51 -->
<g id="node51" class="node">
<title>Node51</title>
<g id="a_node51"><a xlink:title=" ">
<polygon fill="white" stroke="#bfbfbf" points="1804.5,-699 1804.5,-729 1967.5,-729 1967.5,-699 1804.5,-699"/>
<text text-anchor="start" x="1812.5" y="-717" font-family="Helvetica,sans-Serif" font-size="10.00">function&lt; bool(MoFEM</text>
<text text-anchor="middle" x="1886" y="-706" font-family="Helvetica,sans-Serif" font-size="10.00">::FEMethod *fe_method_ptr)&gt;</text>
</a>
</g>
</g>
<!-- Node51&#45;&gt;Node12 -->
<g id="edge61" class="edge">
<title>Node51&#45;&gt;Node12</title>
<path fill="none" stroke="#9a32cd" stroke-dasharray="5,2" d="M1977.98,-720.18C2048.52,-724.97 2143.82,-731.45 2202.26,-735.42"/>
<polygon fill="#9a32cd" stroke="#9a32cd" points="1977.97,-716.67 1967.76,-719.49 1977.5,-723.66 1977.97,-716.67"/>
<text text-anchor="middle" x="2063" y="-734" font-family="Helvetica,sans-Serif" font-size="10.00"> exeTestHook</text>
</g>
<!-- Node52 -->
<g id="node52" class="node">
<title>Node52</title>
<g id="a_node52"><a xlink:href="classdouble.html" target="_top" xlink:title=" ">
<polygon fill="white" stroke="black" points="2231,-272.5 2231,-291.5 2281,-291.5 2281,-272.5 2231,-272.5"/>
<text text-anchor="middle" x="2256" y="-279.5" font-family="Helvetica,sans-Serif" font-size="10.00">double</text>
</a>
</g>
</g>
<!-- Node52&#45;&gt;Node1 -->
<g id="edge83" class="edge">
<title>Node52&#45;&gt;Node1</title>
<path fill="none" stroke="#9a32cd" stroke-dasharray="5,2" d="M2291.27,-281.11C2358.39,-279.43 2511.89,-276 2641,-276 2641,-276 2641,-276 3078.5,-276 3127.46,-276 3168.58,-328.3 3183.74,-350.36"/>
<polygon fill="#9a32cd" stroke="#9a32cd" points="2291.17,-277.61 2281.26,-281.36 2291.34,-284.6 2291.17,-277.61"/>
<text text-anchor="middle" x="2922" y="-279" font-family="Helvetica,sans-Serif" font-size="10.00"> dIv</text>
</g>
<!-- Node52&#45;&gt;Node11 -->
<g id="edge62" class="edge">
<title>Node52&#45;&gt;Node11</title>
<path fill="none" stroke="#9a32cd" stroke-dasharray="5,2" d="M2291.56,-284.08C2362.53,-288.62 2519.67,-300.24 2539,-315 2622,-378.37 2637.69,-520.27 2640.45,-558.41"/>
<polygon fill="#9a32cd" stroke="#9a32cd" points="2291.54,-280.57 2281.34,-283.43 2291.1,-287.56 2291.54,-280.57"/>
<text text-anchor="middle" x="2458" y="-318" font-family="Helvetica,sans-Serif" font-size="10.00"> elementMeasure</text>
</g>
<!-- Node53 -->
<g id="node53" class="node">
<title>Node53</title>
<g id="a_node53"><a xlink:title=" ">
<polygon fill="white" stroke="#bfbfbf" points="2170,-669.5 2170,-710.5 2342,-710.5 2342,-669.5 2170,-669.5"/>
<text text-anchor="start" x="2178" y="-698.5" font-family="Helvetica,sans-Serif" font-size="10.00">array&lt; boost::shared</text>
<text text-anchor="start" x="2178" y="-687.5" font-family="Helvetica,sans-Serif" font-size="10.00">_ptr&lt; MoFEM::EntitiesFieldData</text>
<text text-anchor="middle" x="2256" y="-676.5" font-family="Helvetica,sans-Serif" font-size="10.00"> &gt;, LASTSPACE &gt;</text>
</a>
</g>
</g>
<!-- Node53&#45;&gt;Node11 -->
<g id="edge63" class="edge">
<title>Node53&#45;&gt;Node11</title>
<path fill="none" stroke="#9a32cd" stroke-dasharray="5,2" d="M2352.15,-692.22C2408.61,-690.26 2480.38,-681.89 2539,-656 2580.5,-637.67 2617.68,-596.58 2633.25,-577.76"/>
<polygon fill="#9a32cd" stroke="#9a32cd" points="2352.04,-688.72 2342.15,-692.51 2352.24,-695.72 2352.04,-688.72"/>
<text text-anchor="middle" x="2458" y="-705" font-family="Helvetica,sans-Serif" font-size="10.00"> derivedDataOnElement</text>
<text text-anchor="middle" x="2458" y="-694" font-family="Helvetica,sans-Serif" font-size="10.00">dataOnElement</text>
</g>
<!-- Node54 -->
<g id="node54" class="node">
<title>Node54</title>
<g id="a_node54"><a xlink:title=" ">
<polygon fill="white" stroke="#bfbfbf" points="2222,-631.5 2222,-650.5 2290,-650.5 2290,-631.5 2222,-631.5"/>
<text text-anchor="middle" x="2256" y="-638.5" font-family="Helvetica,sans-Serif" font-size="10.00">EntityType</text>
</a>
</g>
</g>
<!-- Node54&#45;&gt;Node11 -->
<g id="edge64" class="edge">
<title>Node54&#45;&gt;Node11</title>
<path fill="none" stroke="#9a32cd" stroke-dasharray="5,2" d="M2300.53,-642.12C2356.66,-642.48 2456.84,-639.42 2539,-617 2571.41,-608.16 2606.03,-589.26 2625.45,-577.69"/>
<polygon fill="#9a32cd" stroke="#9a32cd" points="2300.28,-638.62 2290.24,-642.01 2300.2,-645.62 2300.28,-638.62"/>
<text text-anchor="middle" x="2458" y="-644" font-family="Helvetica,sans-Serif" font-size="10.00"> lastEvaluatedElementEntityType</text>
</g>
<!-- Node55 -->
<g id="node55" class="node">
<title>Node55</title>
<g id="a_node55"><a xlink:href="structMoFEM_1_1DeprecatedCoreInterface.html" target="_top" xlink:title="Deprecated interface functions.">
<polygon fill="white" stroke="black" points="1600,-68.5 1600,-87.5 1781,-87.5 1781,-68.5 1600,-68.5"/>
<text text-anchor="middle" x="1690.5" y="-75.5" font-family="Helvetica,sans-Serif" font-size="10.00">MoFEM::DeprecatedCoreInterface</text>
</a>
</g>
</g>
<!-- Node55&#45;&gt;Node11 -->
<g id="edge65" class="edge">
<title>Node55&#45;&gt;Node11</title>
<path fill="none" stroke="#9a32cd" stroke-dasharray="5,2" d="M1719.11,-92.9C1740.21,-105.95 1767.83,-127.04 1781,-154 1801.85,-196.67 1764.95,-547.9 1799,-581 1891.11,-670.54 2248.55,-588.11 2377,-589 2449,-589.5 2467.37,-596.3 2539,-589 2560.76,-586.78 2584.74,-581.97 2603.98,-577.51"/>
<polygon fill="#9a32cd" stroke="#9a32cd" points="1720.63,-89.73 1710.24,-87.64 1717.06,-95.75 1720.63,-89.73"/>
<text text-anchor="middle" x="2063" y="-626" font-family="Helvetica,sans-Serif" font-size="10.00"> mField</text>
</g>
<!-- Node56&#45;&gt;Node55 -->
<g id="edge66" class="edge">
<title>Node56&#45;&gt;Node55</title>
<path fill="none" stroke="midnightblue" d="M1214.17,-18.22C1265.18,-24.12 1335.32,-32.36 1397,-40 1472.47,-49.35 1558.8,-60.64 1618.01,-68.47"/>
<polygon fill="midnightblue" stroke="midnightblue" points="1214.57,-14.74 1204.24,-17.07 1213.77,-21.7 1214.57,-14.74"/>
</g>
<!-- Node57 -->
<g id="node57" class="node">
<title>Node57</title>
<g id="a_node57"><a xlink:title=" ">
<polygon fill="white" stroke="#bfbfbf" points="2172.5,-473 2172.5,-525 2339.5,-525 2339.5,-473 2172.5,-473"/>
<text text-anchor="start" x="2180.5" y="-513" font-family="Helvetica,sans-Serif" font-size="10.00">function&lt; MoFEMErrorCode</text>
<text text-anchor="start" x="2180.5" y="-502" font-family="Helvetica,sans-Serif" font-size="10.00">(ForcesAndSourcesCore *fe</text>
<text text-anchor="start" x="2180.5" y="-491" font-family="Helvetica,sans-Serif" font-size="10.00">_raw_ptr, int order_row,</text>
<text text-anchor="middle" x="2256" y="-480" font-family="Helvetica,sans-Serif" font-size="10.00"> int order_col, int order_data)&gt;</text>
</a>
</g>
</g>
<!-- Node57&#45;&gt;Node11 -->
<g id="edge69" class="edge">
<title>Node57&#45;&gt;Node11</title>
<path fill="none" stroke="#9a32cd" stroke-dasharray="5,2" d="M2349.86,-493.97C2405.65,-493.39 2477.5,-496.98 2539,-514 2573.18,-523.46 2608.86,-545.65 2627.62,-558.45"/>
<polygon fill="#9a32cd" stroke="#9a32cd" points="2349.58,-490.47 2339.64,-494.13 2349.69,-497.47 2349.58,-490.47"/>
<text text-anchor="middle" x="2458" y="-517" font-family="Helvetica,sans-Serif" font-size="10.00"> setRuleHook</text>
</g>
<!-- Node58 -->
<g id="node58" class="node">
<title>Node58</title>
<g id="a_node58"><a xlink:title=" ">
<polygon fill="white" stroke="#bfbfbf" points="2155,-424 2155,-454 2357,-454 2357,-424 2155,-424"/>
<text text-anchor="start" x="2163" y="-442" font-family="Helvetica,sans-Serif" font-size="10.00">ptr_deque&lt; MoFEM::Forces</text>
<text text-anchor="middle" x="2256" y="-431" font-family="Helvetica,sans-Serif" font-size="10.00">AndSourcesCore::UserDataOperator &gt;</text>
</a>
</g>
</g>
<!-- Node58&#45;&gt;Node11 -->
<g id="edge70" class="edge">
<title>Node58&#45;&gt;Node11</title>
<path fill="none" stroke="#9a32cd" stroke-dasharray="5,2" d="M2367.37,-440.7C2421.17,-445.05 2485.62,-455.64 2539,-480 2580.28,-498.84 2617.57,-539.66 2633.21,-558.33"/>
<polygon fill="#9a32cd" stroke="#9a32cd" points="2367.33,-437.19 2357.1,-439.94 2366.81,-444.17 2367.33,-437.19"/>
<text text-anchor="middle" x="2458" y="-483" font-family="Helvetica,sans-Serif" font-size="10.00"> opPtrVector</text>
</g>
<!-- Node59 -->
<g id="node59" class="node">
<title>Node59</title>
<g id="a_node59"><a xlink:href="structMoFEM_1_1EntitiesFieldData.html" target="_top" xlink:title="data structure for finite element entity">
<polygon fill="white" stroke="black" points="2185,-544.5 2185,-563.5 2327,-563.5 2327,-544.5 2185,-544.5"/>
<text text-anchor="middle" x="2256" y="-551.5" font-family="Helvetica,sans-Serif" font-size="10.00">MoFEM::EntitiesFieldData</text>
</a>
</g>
</g>
<!-- Node59&#45;&gt;Node11 -->
<g id="edge71" class="edge">
<title>Node59&#45;&gt;Node11</title>
<path fill="none" stroke="#9a32cd" stroke-dasharray="5,2" d="M2311.62,-542.7C2368.68,-532.63 2460.62,-521.28 2539,-534 2567.56,-538.63 2598.93,-550.12 2619.23,-558.46"/>
<polygon fill="#9a32cd" stroke="#9a32cd" points="2310.95,-539.26 2301.73,-544.49 2312.2,-546.15 2310.95,-539.26"/>
<text text-anchor="middle" x="2458" y="-581" font-family="Helvetica,sans-Serif" font-size="10.00"> dataNoField</text>
<text text-anchor="middle" x="2458" y="-570" font-family="Helvetica,sans-Serif" font-size="10.00">dataL2</text>
<text text-anchor="middle" x="2458" y="-559" font-family="Helvetica,sans-Serif" font-size="10.00">dataH1</text>
<text text-anchor="middle" x="2458" y="-548" font-family="Helvetica,sans-Serif" font-size="10.00">dataHcurl</text>
<text text-anchor="middle" x="2458" y="-537" font-family="Helvetica,sans-Serif" font-size="10.00">dataHdiv</text>
</g>
<!-- Node60 -->
<g id="node60" class="node">
<title>Node60</title>
<g id="a_node60"><a xlink:title=" ">
<polygon fill="white" stroke="#bfbfbf" points="1805,-465 1805,-495 1967,-495 1967,-465 1805,-465"/>
<text text-anchor="start" x="1813" y="-483" font-family="Helvetica,sans-Serif" font-size="10.00">array&lt; std::bitset</text>
<text text-anchor="middle" x="1886" y="-472" font-family="Helvetica,sans-Serif" font-size="10.00">&lt; LASTBASE &gt;, LASTSPACE &gt;</text>
</a>
</g>
</g>
<!-- Node60&#45;&gt;Node59 -->
<g id="edge72" class="edge">
<title>Node60&#45;&gt;Node59</title>
<path fill="none" stroke="#9a32cd" stroke-dasharray="5,2" d="M1977.34,-471.18C2027.24,-470.6 2088.36,-477.28 2135,-506 2147.6,-513.76 2140.76,-525.69 2153,-534 2162.48,-540.44 2173.53,-544.91 2184.79,-548"/>
<polygon fill="#9a32cd" stroke="#9a32cd" points="1977.12,-467.69 1967.2,-471.4 1977.27,-474.69 1977.12,-467.69"/>
<text text-anchor="middle" x="2063" y="-520" font-family="Helvetica,sans-Serif" font-size="10.00"> brokenBasesOnSpaces</text>
<text text-anchor="middle" x="2063" y="-509" font-family="Helvetica,sans-Serif" font-size="10.00">basesOnSpaces</text>
</g>
<!-- Node61 -->
<g id="node61" class="node">
<title>Node61</title>
<g id="a_node61"><a xlink:title=" ">
<polygon fill="white" stroke="#bfbfbf" points="1809.5,-404.5 1809.5,-445.5 1962.5,-445.5 1962.5,-404.5 1809.5,-404.5"/>
<text text-anchor="start" x="1817.5" y="-433.5" font-family="Helvetica,sans-Serif" font-size="10.00">array&lt; boost::ptr_vector</text>
<text text-anchor="start" x="1817.5" y="-422.5" font-family="Helvetica,sans-Serif" font-size="10.00">&lt; MoFEM::EntitiesFieldData</text>
<text text-anchor="middle" x="1886" y="-411.5" font-family="Helvetica,sans-Serif" font-size="10.00">::EntData &gt;, MBMAXTYPE &gt;</text>
</a>
</g>
</g>
<!-- Node61&#45;&gt;Node59 -->
<g id="edge73" class="edge">
<title>Node61&#45;&gt;Node59</title>
<path fill="none" stroke="#9a32cd" stroke-dasharray="5,2" d="M1972.75,-413.31C2025.8,-411.05 2091.8,-417.97 2135,-457 2161.08,-480.56 2127.71,-509.6 2153,-534 2161.77,-542.46 2173,-547.84 2184.79,-551.19"/>
<polygon fill="#9a32cd" stroke="#9a32cd" points="1972.46,-409.82 1962.66,-413.86 1972.84,-416.81 1972.46,-409.82"/>
<text text-anchor="middle" x="2063" y="-460" font-family="Helvetica,sans-Serif" font-size="10.00"> dataOnEntities</text>
</g>
<!-- Node62 -->
<g id="node62" class="node">
<title>Node62</title>
<g id="a_node62"><a xlink:title=" ">
<polygon fill="white" stroke="#bfbfbf" points="1799,-355 1799,-385 1973,-385 1973,-355 1799,-355"/>
<text text-anchor="start" x="1807" y="-373" font-family="Helvetica,sans-Serif" font-size="10.00">array&lt; std::bitset</text>
<text text-anchor="middle" x="1886" y="-362" font-family="Helvetica,sans-Serif" font-size="10.00">&lt; LASTSPACE &gt;, MBMAXTYPE &gt;</text>
</a>
</g>
</g>
<!-- Node62&#45;&gt;Node59 -->
<g id="edge74" class="edge">
<title>Node62&#45;&gt;Node59</title>
<path fill="none" stroke="#9a32cd" stroke-dasharray="5,2" d="M1983.35,-354.77C2035.02,-352.35 2095.93,-359.67 2135,-398 2178.52,-440.7 2111.24,-489.57 2153,-534 2161.53,-543.07 2172.87,-548.71 2184.89,-552.1"/>
<polygon fill="#9a32cd" stroke="#9a32cd" points="1982.93,-351.29 1973.15,-355.38 1983.34,-358.28 1982.93,-351.29"/>
<text text-anchor="middle" x="2063" y="-401" font-family="Helvetica,sans-Serif" font-size="10.00"> spacesOnEntities</text>
</g>
<!-- Node63 -->
<g id="node63" class="node">
<title>Node63</title>
<g id="a_node63"><a xlink:title=" ">
<polygon fill="white" stroke="#bfbfbf" points="1801.5,-306 1801.5,-336 1970.5,-336 1970.5,-306 1801.5,-306"/>
<text text-anchor="start" x="1809.5" y="-324" font-family="Helvetica,sans-Serif" font-size="10.00">array&lt; std::bitset</text>
<text text-anchor="middle" x="1886" y="-313" font-family="Helvetica,sans-Serif" font-size="10.00">&lt; LASTBASE &gt;, MBMAXTYPE &gt;</text>
</a>
</g>
</g>
<!-- Node63&#45;&gt;Node59 -->
<g id="edge75" class="edge">
<title>Node63&#45;&gt;Node59</title>
<path fill="none" stroke="#9a32cd" stroke-dasharray="5,2" d="M1958.08,-304.32C2013.88,-295.83 2089.51,-295.23 2135,-340 2165.86,-370.37 2123.97,-501.88 2153,-534 2161.41,-543.31 2172.77,-549.03 2184.86,-552.44"/>
<polygon fill="#9a32cd" stroke="#9a32cd" points="1957.2,-300.92 1947.9,-305.99 1958.34,-307.83 1957.2,-300.92"/>
<text text-anchor="middle" x="2063" y="-343" font-family="Helvetica,sans-Serif" font-size="10.00"> basesOnEntities</text>
</g>
<!-- Node64 -->
<g id="node64" class="node">
<title>Node64</title>
<g id="a_node64"><a xlink:title=" ">
<polygon fill="white" stroke="#bfbfbf" points="1830,-552.5 1830,-571.5 1942,-571.5 1942,-552.5 1830,-552.5"/>
<text text-anchor="middle" x="1886" y="-559.5" font-family="Helvetica,sans-Serif" font-size="10.00">UBlasMatrix&lt; int &gt;</text>
</a>
</g>
</g>
<!-- Node64&#45;&gt;Node59 -->
<g id="edge76" class="edge">
<title>Node64&#45;&gt;Node59</title>
<path fill="none" stroke="#9a32cd" stroke-dasharray="5,2" d="M1952.22,-560.02C1965.07,-559.66 1978.46,-559.3 1991,-559 2056.76,-557.43 2131.75,-556.05 2184.96,-555.14"/>
<polygon fill="#9a32cd" stroke="#9a32cd" points="1951.95,-556.53 1942.05,-560.31 1952.15,-563.52 1951.95,-556.53"/>
<text text-anchor="middle" x="2063" y="-573" font-family="Helvetica,sans-Serif" font-size="10.00"> facesNodesOrder</text>
<text text-anchor="middle" x="2063" y="-562" font-family="Helvetica,sans-Serif" font-size="10.00">facesNodes</text>
</g>
<!-- Node65 -->
<g id="node65" class="node">
<title>Node65</title>
<g id="a_node65"><a xlink:title=" ">
<polygon fill="white" stroke="#bfbfbf" points="1827.5,-514.5 1827.5,-533.5 1944.5,-533.5 1944.5,-514.5 1827.5,-514.5"/>
<text text-anchor="middle" x="1886" y="-521.5" font-family="Helvetica,sans-Serif" font-size="10.00">bitset&lt; LASTBASE &gt;</text>
</a>
</g>
</g>
<!-- Node65&#45;&gt;Node59 -->
<g id="edge77" class="edge">
<title>Node65&#45;&gt;Node59</title>
<path fill="none" stroke="#9a32cd" stroke-dasharray="5,2" d="M1954.68,-528.41C2004.56,-531.79 2074.04,-536.74 2135,-542 2151.17,-543.39 2168.54,-545.04 2184.91,-546.67"/>
<polygon fill="#9a32cd" stroke="#9a32cd" points="1954.88,-524.92 1944.66,-527.74 1954.41,-531.9 1954.88,-524.92"/>
<text text-anchor="middle" x="2063" y="-545" font-family="Helvetica,sans-Serif" font-size="10.00"> bAse</text>
</g>
<!-- Node66 -->
<g id="node66" class="node">
<title>Node66</title>
<g id="a_node66"><a xlink:title=" ">
<polygon fill="white" stroke="#bfbfbf" points="2193.5,-363.5 2193.5,-404.5 2318.5,-404.5 2318.5,-363.5 2193.5,-363.5"/>
<text text-anchor="start" x="2201.5" y="-392.5" font-family="Helvetica,sans-Serif" font-size="10.00">function&lt; int(int order</text>
<text text-anchor="start" x="2201.5" y="-381.5" font-family="Helvetica,sans-Serif" font-size="10.00">_row, int order_col, int</text>
<text text-anchor="middle" x="2256" y="-370.5" font-family="Helvetica,sans-Serif" font-size="10.00"> order_data)&gt;</text>
</a>
</g>
</g>
<!-- Node66&#45;&gt;Node11 -->
<g id="edge78" class="edge">
<title>Node66&#45;&gt;Node11</title>
<path fill="none" stroke="#9a32cd" stroke-dasharray="5,2" d="M2328.72,-380.46C2389.02,-380.77 2475.33,-389.14 2539,-428 2592.14,-460.43 2626.03,-531.95 2637.06,-558.14"/>
<polygon fill="#9a32cd" stroke="#9a32cd" points="2328.52,-376.97 2318.53,-380.49 2328.54,-383.97 2328.52,-376.97"/>
<text text-anchor="middle" x="2458" y="-431" font-family="Helvetica,sans-Serif" font-size="10.00"> getRuleHook</text>
</g>
<!-- Node67 -->
<g id="node67" class="node">
<title>Node67</title>
<g id="a_node67"><a xlink:title=" ">
<polygon fill="white" stroke="#bfbfbf" points="2195,-314 2195,-344 2317,-344 2317,-314 2195,-314"/>
<text text-anchor="start" x="2203" y="-332" font-family="Helvetica,sans-Serif" font-size="10.00">shared_ptr&lt; MoFEM::</text>
<text text-anchor="middle" x="2256" y="-321" font-family="Helvetica,sans-Serif" font-size="10.00">BaseFunction &gt;</text>
</a>
</g>
</g>
<!-- Node67&#45;&gt;Node11 -->
<g id="edge79" class="edge">
<title>Node67&#45;&gt;Node11</title>
<path fill="none" stroke="#9a32cd" stroke-dasharray="5,2" d="M2327.67,-328.3C2399.89,-328.92 2505.99,-333.94 2539,-357 2611.38,-407.56 2634.34,-524.01 2639.66,-558.32"/>
<polygon fill="#9a32cd" stroke="#9a32cd" points="2327.29,-324.8 2317.27,-328.24 2327.25,-331.8 2327.29,-324.8"/>
<text text-anchor="middle" x="2458" y="-371" font-family="Helvetica,sans-Serif" font-size="10.00"> userPolynomialBasePtr</text>
<text text-anchor="middle" x="2458" y="-360" font-family="Helvetica,sans-Serif" font-size="10.00">elementPolynomialBasePtr</text>
</g>
<!-- Node68 -->
<g id="node68" class="node">
<title>Node68</title>
<g id="a_node68"><a xlink:href="classUBlasMatrix_3_01double_01_4.html" target="_top" xlink:title=" ">
<polygon fill="white" stroke="black" points="2190,-767.5 2190,-786.5 2322,-786.5 2322,-767.5 2190,-767.5"/>
<text text-anchor="middle" x="2256" y="-774.5" font-family="Helvetica,sans-Serif" font-size="10.00">UBlasMatrix&lt; double &gt;</text>
</a>
</g>
</g>
<!-- Node68&#45;&gt;Node11 -->
<g id="edge80" class="edge">
<title>Node68&#45;&gt;Node11</title>
<path fill="none" stroke="#9a32cd" stroke-dasharray="5,2" d="M2332.34,-771.38C2409.97,-765.05 2522.02,-754.16 2539,-743 2601.59,-701.86 2630.64,-608.03 2638.63,-577.67"/>
<polygon fill="#9a32cd" stroke="#9a32cd" points="2331.79,-767.92 2322.1,-772.21 2332.35,-774.89 2331.79,-767.92"/>
<text text-anchor="middle" x="2458" y="-782" font-family="Helvetica,sans-Serif" font-size="10.00"> coordsAtGaussPts</text>
<text text-anchor="middle" x="2458" y="-771" font-family="Helvetica,sans-Serif" font-size="10.00">gaussPts</text>
</g>
<!-- Node69 -->
<g id="node69" class="node">
<title>Node69</title>
<g id="a_node69"><a xlink:title=" ">
<polygon fill="white" stroke="#bfbfbf" points="2576.5,-945.5 2576.5,-964.5 2707.5,-964.5 2707.5,-945.5 2576.5,-945.5"/>
<text text-anchor="middle" x="2642" y="-952.5" font-family="Helvetica,sans-Serif" font-size="10.00">static const char *const</text>
</a>
</g>
</g>
<!-- Node69&#45;&gt;Node3 -->
<g id="edge81" class="edge">
<title>Node69&#45;&gt;Node3</title>
<path fill="none" stroke="#9a32cd" stroke-dasharray="5,2" d="M2699.74,-943.16C2708.9,-940.96 2718.25,-938.55 2727,-936 2784.11,-919.37 2848.19,-893.43 2886.53,-877.1"/>
<polygon fill="#9a32cd" stroke="#9a32cd" points="2698.85,-939.77 2689.91,-945.45 2700.45,-946.59 2698.85,-939.77"/>
<text text-anchor="middle" x="2782" y="-932" font-family="Helvetica,sans-Serif" font-size="10.00"> OpTypeNames</text>
</g>
</g>
</svg>
        <g id="navigator" transform="translate(0 0)" fill="#404254">
                <rect fill="#f2f5e9" fill-opacity="0.5" stroke="#606060" stroke-width=".5" x="0" y="0" width="60" height="60"/>
                <use id="zoomplus" xlink:href="#zoomPlus" x="17" y="9" onmousedown="handleZoom(evt,'in')"/>
                <use id="zoomminus" xlink:href="#zoomMin" x="42" y="9" onmousedown="handleZoom(evt,'out')"/>
                <use id="reset" xlink:href="#resetDef" x="30" y="36" onmousedown="handleReset()"/>
                <g id="arrowUp" xlink:href="#dirArrow" transform="translate(30 24)" onmousedown="handlePan(0,-1)">
                  <use xlink:href="#rim" fill="#404040">
                        <set attributeName="fill" to="#808080" begin="arrowUp.mouseover" end="arrowUp.mouseout"/>
                  </use>
                  <path fill="none" stroke="white" stroke-width="1.5" d="M0,-3.0v7 M-2.5,-0.5L0,-3.0L2.5,-0.5"/>
                </g>
                <g id="arrowRight" xlink:href="#dirArrow" transform="rotate(90) translate(36 -43)" onmousedown="handlePan(1,0)">
                  <use xlink:href="#rim" fill="#404040">
                        <set attributeName="fill" to="#808080" begin="arrowRight.mouseover" end="arrowRight.mouseout"/>
                  </use>
                  <path fill="none" stroke="white" stroke-width="1.5" d="M0,-3.0v7 M-2.5,-0.5L0,-3.0L2.5,-0.5"/>
                </g>
                <g id="arrowDown" xlink:href="#dirArrow" transform="rotate(180) translate(-30 -48)" onmousedown="handlePan(0,1)">
                  <use xlink:href="#rim" fill="#404040">
                        <set attributeName="fill" to="#808080" begin="arrowDown.mouseover" end="arrowDown.mouseout"/>
                  </use>
                  <path fill="none" stroke="white" stroke-width="1.5" d="M0,-3.0v7 M-2.5,-0.5L0,-3.0L2.5,-0.5"/>
                </g>
                <g id="arrowLeft" xlink:href="#dirArrow" transform="rotate(270) translate(-36 17)" onmousedown="handlePan(-1,0)">
                  <use xlink:href="#rim" fill="#404040">
                        <set attributeName="fill" to="#808080" begin="arrowLeft.mouseover" end="arrowLeft.mouseout"/>
                  </use>
                  <path fill="none" stroke="white" stroke-width="1.5" d="M0,-3.0v7 M-2.5,-0.5L0,-3.0L2.5,-0.5"/>
                </g>
        </g>
        <svg viewBox="0 0 15 15" width="100%" height="30px" preserveAspectRatio="xMaxYMin meet">
         <g id="arrow_out" transform="scale(0.3 0.3)">
          <a xlink:href="structOpDivergence__coll__graph_org.svg" target="_base">
           <rect id="button" ry="5" rx="5" y="6" x="6" height="38" width="38"
                fill="#f2f5e9" fill-opacity="0.5" stroke="#606060" stroke-width="1.0"/>
           <path id="arrow"
             d="M 11.500037,31.436501 C 11.940474,20.09759 22.043105,11.32322 32.158766,21.979434 L 37.068811,17.246167 C 37.068811,17.246167 37.088388,32 37.088388,32 L 22.160133,31.978069 C 22.160133,31.978069 26.997745,27.140456 26.997745,27.140456 C 18.528582,18.264221 13.291696,25.230495 11.500037,31.436501 z"
             style="fill:#404040;"/>
          </a>
         </g>
        </svg>
</svg>
