<?xml version="1.0" encoding="UTF-8" standalone="no"?>
<!DOCTYPE svg PUBLIC "-//W3C//DTD SVG 1.1//EN"
 "http://www.w3.org/Graphics/SVG/1.1/DTD/svg11.dtd">
<!-- Generated by graphviz version 2.43.0 (0)
 -->
<!-- Title: CellEngineering::DispMapFe Pages: 1 -->
<svg width="383pt" height="431pt"
 viewBox="0.00 0.00 383.00 431.00" xmlns="http://www.w3.org/2000/svg" xmlns:xlink="http://www.w3.org/1999/xlink">
<g id="graph0" class="graph" transform="scale(1 1) rotate(0) translate(4 427)">
<title>CellEngineering::DispMapFe</title>
<polygon fill="white" stroke="transparent" points="-4,4 -4,-427 379,-427 379,4 -4,4"/>
<!-- Node1 -->
<g id="node1" class="node">
<title>Node1</title>
<g id="a_node1"><a xlink:title=" ">
<polygon fill="#bfbfbf" stroke="black" points="114,-0.5 114,-19.5 267,-19.5 267,-0.5 114,-0.5"/>
<text text-anchor="middle" x="190.5" y="-7.5" font-family="Helvetica,sans-Serif" font-size="10.00">CellEngineering::DispMapFe</text>
</a>
</g>
</g>
<!-- Node2 -->
<g id="node2" class="node">
<title>Node2</title>
<g id="a_node2"><a xlink:href="structMoFEM_1_1FaceElementForcesAndSourcesCore.html" target="_top" xlink:title="Face finite element.">
<polygon fill="white" stroke="black" points="114.5,-56.5 114.5,-86.5 266.5,-86.5 266.5,-56.5 114.5,-56.5"/>
<text text-anchor="start" x="122.5" y="-74.5" font-family="Helvetica,sans-Serif" font-size="10.00">MoFEM::FaceElementForces</text>
<text text-anchor="middle" x="190.5" y="-63.5" font-family="Helvetica,sans-Serif" font-size="10.00">AndSourcesCore</text>
</a>
</g>
</g>
<!-- Node2&#45;&gt;Node1 -->
<g id="edge1" class="edge">
<title>Node2&#45;&gt;Node1</title>
<path fill="none" stroke="midnightblue" d="M190.5,-46.29C190.5,-36.86 190.5,-26.65 190.5,-19.66"/>
<polygon fill="midnightblue" stroke="midnightblue" points="187,-46.4 190.5,-56.4 194,-46.4 187,-46.4"/>
</g>
<!-- Node3 -->
<g id="node3" class="node">
<title>Node3</title>
<g id="a_node3"><a xlink:href="structMoFEM_1_1ForcesAndSourcesCore.html" target="_top" xlink:title="structure to get information form mofem into EntitiesFieldData">
<polygon fill="white" stroke="black" points="105.5,-123.5 105.5,-142.5 275.5,-142.5 275.5,-123.5 105.5,-123.5"/>
<text text-anchor="middle" x="190.5" y="-130.5" font-family="Helvetica,sans-Serif" font-size="10.00">MoFEM::ForcesAndSourcesCore</text>
</a>
</g>
</g>
<!-- Node3&#45;&gt;Node2 -->
<g id="edge2" class="edge">
<title>Node3&#45;&gt;Node2</title>
<path fill="none" stroke="midnightblue" d="M190.5,-113.23C190.5,-104.59 190.5,-94.5 190.5,-86.52"/>
<polygon fill="midnightblue" stroke="midnightblue" points="187,-113.48 190.5,-123.48 194,-113.48 187,-113.48"/>
</g>
<!-- Node4 -->
<g id="node4" class="node">
<title>Node4</title>
<g id="a_node4"><a xlink:href="structMoFEM_1_1FEMethod.html" target="_top" xlink:title="structure for User Loop Methods on finite elements">
<polygon fill="white" stroke="black" points="137,-179.5 137,-198.5 244,-198.5 244,-179.5 137,-179.5"/>
<text text-anchor="middle" x="190.5" y="-186.5" font-family="Helvetica,sans-Serif" font-size="10.00">MoFEM::FEMethod</text>
</a>
</g>
</g>
<!-- Node4&#45;&gt;Node3 -->
<g id="edge3" class="edge">
<title>Node4&#45;&gt;Node3</title>
<path fill="none" stroke="midnightblue" d="M190.5,-168.8C190.5,-159.91 190.5,-149.78 190.5,-142.75"/>
<polygon fill="midnightblue" stroke="midnightblue" points="187,-169.08 190.5,-179.08 194,-169.08 187,-169.08"/>
</g>
<!-- Node5 -->
<g id="node5" class="node">
<title>Node5</title>
<g id="a_node5"><a xlink:href="structMoFEM_1_1BasicMethod.html" target="_top" xlink:title="Data structure to exchange data between mofem and User Loop Methods.">
<polygon fill="white" stroke="black" points="129.5,-235.5 129.5,-254.5 251.5,-254.5 251.5,-235.5 129.5,-235.5"/>
<text text-anchor="middle" x="190.5" y="-242.5" font-family="Helvetica,sans-Serif" font-size="10.00">MoFEM::BasicMethod</text>
</a>
</g>
</g>
<!-- Node5&#45;&gt;Node4 -->
<g id="edge4" class="edge">
<title>Node5&#45;&gt;Node4</title>
<path fill="none" stroke="midnightblue" d="M190.5,-224.8C190.5,-215.91 190.5,-205.78 190.5,-198.75"/>
<polygon fill="midnightblue" stroke="midnightblue" points="187,-225.08 190.5,-235.08 194,-225.08 187,-225.08"/>
</g>
<!-- Node6 -->
<g id="node6" class="node">
<title>Node6</title>
<g id="a_node6"><a xlink:href="structMoFEM_1_1KspMethod.html" target="_top" xlink:title="data structure for ksp (linear solver) context">
<polygon fill="white" stroke="black" points="0,-291.5 0,-310.5 113,-310.5 113,-291.5 0,-291.5"/>
<text text-anchor="middle" x="56.5" y="-298.5" font-family="Helvetica,sans-Serif" font-size="10.00">MoFEM::KspMethod</text>
</a>
</g>
</g>
<!-- Node6&#45;&gt;Node5 -->
<g id="edge5" class="edge">
<title>Node6&#45;&gt;Node5</title>
<path fill="none" stroke="midnightblue" d="M87.18,-287.64C112.32,-277.5 147.25,-263.43 169.37,-254.52"/>
<polygon fill="midnightblue" stroke="midnightblue" points="85.7,-284.46 77.73,-291.44 88.32,-290.95 85.7,-284.46"/>
</g>
<!-- Node7 -->
<g id="node7" class="node">
<title>Node7</title>
<g id="a_node7"><a xlink:href="structMoFEM_1_1PetscData.html" target="_top" xlink:title=" ">
<polygon fill="white" stroke="black" points="136.5,-347.5 136.5,-366.5 244.5,-366.5 244.5,-347.5 136.5,-347.5"/>
<text text-anchor="middle" x="190.5" y="-354.5" font-family="Helvetica,sans-Serif" font-size="10.00">MoFEM::PetscData</text>
</a>
</g>
</g>
<!-- Node7&#45;&gt;Node6 -->
<g id="edge6" class="edge">
<title>Node7&#45;&gt;Node6</title>
<path fill="none" stroke="midnightblue" d="M159.82,-343.64C134.68,-333.5 99.75,-319.43 77.63,-310.52"/>
<polygon fill="midnightblue" stroke="midnightblue" points="158.68,-346.95 169.27,-347.44 161.3,-340.46 158.68,-346.95"/>
</g>
<!-- Node9 -->
<g id="node9" class="node">
<title>Node9</title>
<g id="a_node9"><a xlink:href="structMoFEM_1_1SnesMethod.html" target="_top" xlink:title="data structure for snes (nonlinear solver) context">
<polygon fill="white" stroke="black" points="131,-291.5 131,-310.5 250,-310.5 250,-291.5 131,-291.5"/>
<text text-anchor="middle" x="190.5" y="-298.5" font-family="Helvetica,sans-Serif" font-size="10.00">MoFEM::SnesMethod</text>
</a>
</g>
</g>
<!-- Node7&#45;&gt;Node9 -->
<g id="edge9" class="edge">
<title>Node7&#45;&gt;Node9</title>
<path fill="none" stroke="darkgreen" d="M190.5,-336.8C190.5,-327.91 190.5,-317.78 190.5,-310.75"/>
<polygon fill="darkgreen" stroke="darkgreen" points="187,-337.08 190.5,-347.08 194,-337.08 187,-337.08"/>
</g>
<!-- Node10 -->
<g id="node10" class="node">
<title>Node10</title>
<g id="a_node10"><a xlink:href="structMoFEM_1_1TSMethod.html" target="_top" xlink:title="data structure for TS (time stepping) context">
<polygon fill="white" stroke="black" points="268,-291.5 268,-310.5 375,-310.5 375,-291.5 268,-291.5"/>
<text text-anchor="middle" x="321.5" y="-298.5" font-family="Helvetica,sans-Serif" font-size="10.00">MoFEM::TSMethod</text>
</a>
</g>
</g>
<!-- Node7&#45;&gt;Node10 -->
<g id="edge11" class="edge">
<title>Node7&#45;&gt;Node10</title>
<path fill="none" stroke="darkgreen" d="M220.82,-343.5C245.38,-333.38 279.32,-319.39 300.84,-310.52"/>
<polygon fill="darkgreen" stroke="darkgreen" points="219.17,-340.4 211.26,-347.44 221.84,-346.87 219.17,-340.4"/>
</g>
<!-- Node8 -->
<g id="node8" class="node">
<title>Node8</title>
<g id="a_node8"><a xlink:href="structMoFEM_1_1UnknownInterface.html" target="_top" xlink:title="base class for all interface classes">
<polygon fill="white" stroke="black" points="116.5,-403.5 116.5,-422.5 264.5,-422.5 264.5,-403.5 116.5,-403.5"/>
<text text-anchor="middle" x="190.5" y="-410.5" font-family="Helvetica,sans-Serif" font-size="10.00">MoFEM::UnknownInterface</text>
</a>
</g>
</g>
<!-- Node8&#45;&gt;Node7 -->
<g id="edge7" class="edge">
<title>Node8&#45;&gt;Node7</title>
<path fill="none" stroke="midnightblue" d="M190.5,-392.8C190.5,-383.91 190.5,-373.78 190.5,-366.75"/>
<polygon fill="midnightblue" stroke="midnightblue" points="187,-393.08 190.5,-403.08 194,-393.08 187,-393.08"/>
</g>
<!-- Node9&#45;&gt;Node5 -->
<g id="edge8" class="edge">
<title>Node9&#45;&gt;Node5</title>
<path fill="none" stroke="midnightblue" d="M190.5,-280.8C190.5,-271.91 190.5,-261.78 190.5,-254.75"/>
<polygon fill="midnightblue" stroke="midnightblue" points="187,-281.08 190.5,-291.08 194,-281.08 187,-281.08"/>
</g>
<!-- Node10&#45;&gt;Node5 -->
<g id="edge10" class="edge">
<title>Node10&#45;&gt;Node5</title>
<path fill="none" stroke="midnightblue" d="M291.18,-287.5C266.62,-277.38 232.68,-263.39 211.16,-254.52"/>
<polygon fill="midnightblue" stroke="midnightblue" points="290.16,-290.87 300.74,-291.44 292.83,-284.4 290.16,-290.87"/>
</g>
</g>
</svg>
