<?xml version="1.0" encoding="UTF-8" standalone="no"?>
<!DOCTYPE svg PUBLIC "-//W3C//DTD SVG 1.1//EN"
 "http://www.w3.org/Graphics/SVG/1.1/DTD/svg11.dtd">
<!-- Generated by graphviz version 2.43.0 (0)
 -->
<!-- Title: FluidPressure Pages: 1 -->
<svg width="3273pt" height="1430pt"
 viewBox="0.00 0.00 3273.00 1429.99" xmlns="http://www.w3.org/2000/svg" xmlns:xlink="http://www.w3.org/1999/xlink">
<g id="graph0" class="graph" transform="scale(1 1) rotate(0) translate(4 1425.99)">
<title>FluidPressure</title>
<polygon fill="white" stroke="transparent" points="-4,4 -4,-1425.99 3269,-1425.99 3269,4 -4,4"/>
<!-- Node1 -->
<g id="node1" class="node">
<title>Node1</title>
<g id="a_node1"><a xlink:title="Fluid pressure forces.">
<polygon fill="#bfbfbf" stroke="black" points="3182,-1263.5 3182,-1282.5 3265,-1282.5 3265,-1263.5 3182,-1263.5"/>
<text text-anchor="middle" x="3223.5" y="-1270.5" font-family="Helvetica,sans-Serif" font-size="10.00">FluidPressure</text>
</a>
</g>
</g>
<!-- Node2 -->
<g id="node2" class="node">
<title>Node2</title>
<g id="a_node2"><a xlink:href="structFluidPressure_1_1MyTriangleFE.html" target="_top" xlink:title=" ">
<polygon fill="white" stroke="black" points="2931.5,-1285.5 2931.5,-1304.5 3085.5,-1304.5 3085.5,-1285.5 2931.5,-1285.5"/>
<text text-anchor="middle" x="3008.5" y="-1292.5" font-family="Helvetica,sans-Serif" font-size="10.00">FluidPressure::MyTriangleFE</text>
</a>
</g>
</g>
<!-- Node2&#45;&gt;Node1 -->
<g id="edge1" class="edge">
<title>Node2&#45;&gt;Node1</title>
<path fill="none" stroke="#9a32cd" stroke-dasharray="5,2" d="M3095.8,-1286.09C3125.59,-1283.01 3157.57,-1279.71 3181.95,-1277.19"/>
<polygon fill="#9a32cd" stroke="#9a32cd" points="3095.38,-1282.61 3085.8,-1287.12 3096.1,-1289.57 3095.38,-1282.61"/>
<text text-anchor="middle" x="3134" y="-1288" font-family="Helvetica,sans-Serif" font-size="10.00"> fe</text>
</g>
<!-- Node3 -->
<g id="node3" class="node">
<title>Node3</title>
<g id="a_node3"><a xlink:href="structMoFEM_1_1FaceElementForcesAndSourcesCore.html" target="_top" xlink:title="Face finite element.">
<polygon fill="white" stroke="black" points="2742,-1230 2742,-1260 2894,-1260 2894,-1230 2742,-1230"/>
<text text-anchor="start" x="2750" y="-1248" font-family="Helvetica,sans-Serif" font-size="10.00">MoFEM::FaceElementForces</text>
<text text-anchor="middle" x="2818" y="-1237" font-family="Helvetica,sans-Serif" font-size="10.00">AndSourcesCore</text>
</a>
</g>
</g>
<!-- Node3&#45;&gt;Node2 -->
<g id="edge2" class="edge">
<title>Node3&#45;&gt;Node2</title>
<path fill="none" stroke="midnightblue" d="M2884.66,-1262.66C2899.87,-1266.73 2915.99,-1271.03 2931,-1275 2944.01,-1278.44 2958.26,-1282.18 2970.91,-1285.48"/>
<polygon fill="midnightblue" stroke="midnightblue" points="2885.38,-1259.23 2874.81,-1260.02 2883.57,-1265.99 2885.38,-1259.23"/>
</g>
<!-- Node4 -->
<g id="node4" class="node">
<title>Node4</title>
<g id="a_node4"><a xlink:href="structMoFEM_1_1ForcesAndSourcesCore.html" target="_top" xlink:title="structure to get information form mofem into EntitiesFieldData">
<polygon fill="white" stroke="black" points="2475,-1019.5 2475,-1038.5 2645,-1038.5 2645,-1019.5 2475,-1019.5"/>
<text text-anchor="middle" x="2560" y="-1026.5" font-family="Helvetica,sans-Serif" font-size="10.00">MoFEM::ForcesAndSourcesCore</text>
</a>
</g>
</g>
<!-- Node4&#45;&gt;Node3 -->
<g id="edge3" class="edge">
<title>Node4&#45;&gt;Node3</title>
<path fill="none" stroke="midnightblue" d="M2580.08,-1045.1C2627.91,-1085.46 2752.4,-1190.49 2799.02,-1229.83"/>
<polygon fill="midnightblue" stroke="midnightblue" points="2582.23,-1042.33 2572.33,-1038.56 2577.72,-1047.68 2582.23,-1042.33"/>
</g>
<!-- Node4&#45;&gt;Node4 -->
<g id="edge61" class="edge">
<title>Node4&#45;&gt;Node4</title>
<path fill="none" stroke="#9a32cd" stroke-dasharray="5,2" d="M2535.45,-1048.03C2536.79,-1053.13 2544.97,-1057 2560,-1057 2583.46,-1057 2590.24,-1047.57 2580.35,-1038.76"/>
<polygon fill="#9a32cd" stroke="#9a32cd" points="2538.71,-1049.31 2539.65,-1038.76 2532.33,-1046.42 2538.71,-1049.31"/>
<text text-anchor="middle" x="2560" y="-1071" font-family="Helvetica,sans-Serif" font-size="10.00"> sidePtrFE</text>
<text text-anchor="middle" x="2560" y="-1060" font-family="Helvetica,sans-Serif" font-size="10.00">refinePtrFE</text>
</g>
<!-- Node5 -->
<g id="node5" class="node">
<title>Node5</title>
<g id="a_node5"><a xlink:href="structMoFEM_1_1FEMethod.html" target="_top" xlink:title="structure for User Loop Methods on finite elements">
<polygon fill="white" stroke="black" points="2122.5,-776.5 2122.5,-795.5 2229.5,-795.5 2229.5,-776.5 2122.5,-776.5"/>
<text text-anchor="middle" x="2176" y="-783.5" font-family="Helvetica,sans-Serif" font-size="10.00">MoFEM::FEMethod</text>
</a>
</g>
</g>
<!-- Node5&#45;&gt;Node4 -->
<g id="edge4" class="edge">
<title>Node5&#45;&gt;Node4</title>
<path fill="none" stroke="midnightblue" d="M2227.78,-797.82C2303.35,-815.74 2438.55,-849.15 2457,-863 2514.07,-905.86 2546.36,-990.84 2555.94,-1019.39"/>
<polygon fill="midnightblue" stroke="midnightblue" points="2228.51,-794.4 2217.98,-795.51 2226.9,-801.21 2228.51,-794.4"/>
</g>
<!-- Node6 -->
<g id="node6" class="node">
<title>Node6</title>
<g id="a_node6"><a xlink:href="structMoFEM_1_1BasicMethod.html" target="_top" xlink:title="Data structure to exchange data between mofem and User Loop Methods.">
<polygon fill="white" stroke="black" points="1747,-677.5 1747,-696.5 1869,-696.5 1869,-677.5 1747,-677.5"/>
<text text-anchor="middle" x="1808" y="-684.5" font-family="Helvetica,sans-Serif" font-size="10.00">MoFEM::BasicMethod</text>
</a>
</g>
</g>
<!-- Node6&#45;&gt;Node5 -->
<g id="edge5" class="edge">
<title>Node6&#45;&gt;Node5</title>
<path fill="none" stroke="midnightblue" d="M1862.14,-698.68C1873.01,-701.08 1884.38,-703.61 1895,-706 1967.06,-722.19 1995.06,-702.78 2057,-743 2068.18,-750.26 2063.69,-759.95 2075,-767 2089.1,-775.79 2106.32,-780.69 2122.48,-783.36"/>
<polygon fill="midnightblue" stroke="midnightblue" points="1862.84,-695.25 1852.32,-696.51 1861.33,-702.08 1862.84,-695.25"/>
</g>
<!-- Node7 -->
<g id="node7" class="node">
<title>Node7</title>
<g id="a_node7"><a xlink:href="structMoFEM_1_1KspMethod.html" target="_top" xlink:title="data structure for ksp (linear solver) context">
<polygon fill="white" stroke="black" points="1442,-658.5 1442,-677.5 1555,-677.5 1555,-658.5 1442,-658.5"/>
<text text-anchor="middle" x="1498.5" y="-665.5" font-family="Helvetica,sans-Serif" font-size="10.00">MoFEM::KspMethod</text>
</a>
</g>
</g>
<!-- Node7&#45;&gt;Node6 -->
<g id="edge6" class="edge">
<title>Node7&#45;&gt;Node6</title>
<path fill="none" stroke="midnightblue" d="M1565.32,-672.07C1619.2,-675.4 1694.77,-680.07 1747,-683.29"/>
<polygon fill="midnightblue" stroke="midnightblue" points="1565.38,-668.56 1555.19,-671.44 1564.95,-675.55 1565.38,-668.56"/>
</g>
<!-- Node8 -->
<g id="node8" class="node">
<title>Node8</title>
<g id="a_node8"><a xlink:href="structMoFEM_1_1PetscData.html" target="_top" xlink:title=" ">
<polygon fill="white" stroke="black" points="1087.5,-323.5 1087.5,-342.5 1195.5,-342.5 1195.5,-323.5 1087.5,-323.5"/>
<text text-anchor="middle" x="1141.5" y="-330.5" font-family="Helvetica,sans-Serif" font-size="10.00">MoFEM::PetscData</text>
</a>
</g>
</g>
<!-- Node8&#45;&gt;Node7 -->
<g id="edge7" class="edge">
<title>Node8&#45;&gt;Node7</title>
<path fill="none" stroke="midnightblue" d="M1205.48,-336.09C1219.61,-339.75 1233.29,-346.13 1243,-357 1286.58,-405.74 1227.27,-447 1261,-503 1288.19,-548.14 1430.57,-630.6 1480.32,-658.49"/>
<polygon fill="midnightblue" stroke="midnightblue" points="1206.17,-332.66 1195.66,-333.98 1204.69,-339.5 1206.17,-332.66"/>
</g>
<!-- Node18 -->
<g id="node18" class="node">
<title>Node18</title>
<g id="a_node18"><a xlink:href="structMoFEM_1_1SnesMethod.html" target="_top" xlink:title="data structure for snes (nonlinear solver) context">
<polygon fill="white" stroke="black" points="1439,-532.5 1439,-551.5 1558,-551.5 1558,-532.5 1439,-532.5"/>
<text text-anchor="middle" x="1498.5" y="-539.5" font-family="Helvetica,sans-Serif" font-size="10.00">MoFEM::SnesMethod</text>
</a>
</g>
</g>
<!-- Node8&#45;&gt;Node18 -->
<g id="edge20" class="edge">
<title>Node8&#45;&gt;Node18</title>
<path fill="none" stroke="darkgreen" d="M1205.59,-335.72C1264.69,-341.9 1350.66,-360.9 1397,-418 1426.83,-454.76 1382.48,-488.59 1415,-523 1421.46,-529.84 1429.85,-534.44 1438.79,-537.51"/>
<polygon fill="darkgreen" stroke="darkgreen" points="1205.9,-332.24 1195.62,-334.77 1205.24,-339.2 1205.9,-332.24"/>
</g>
<!-- Node21 -->
<g id="node21" class="node">
<title>Node21</title>
<g id="a_node21"><a xlink:href="structMoFEM_1_1TSMethod.html" target="_top" xlink:title="data structure for TS (time stepping) context">
<polygon fill="white" stroke="black" points="1445,-266.5 1445,-285.5 1552,-285.5 1552,-266.5 1445,-266.5"/>
<text text-anchor="middle" x="1498.5" y="-273.5" font-family="Helvetica,sans-Serif" font-size="10.00">MoFEM::TSMethod</text>
</a>
</g>
</g>
<!-- Node8&#45;&gt;Node21 -->
<g id="edge26" class="edge">
<title>Node8&#45;&gt;Node21</title>
<path fill="none" stroke="darkgreen" d="M1205.55,-328.61C1257.31,-324.33 1332.35,-316.61 1397,-304 1421.18,-299.29 1448.03,-291.68 1467.89,-285.58"/>
<polygon fill="darkgreen" stroke="darkgreen" points="1205.2,-325.12 1195.51,-329.42 1205.76,-332.1 1205.2,-325.12"/>
</g>
<!-- Node9 -->
<g id="node9" class="node">
<title>Node9</title>
<g id="a_node9"><a xlink:href="structMoFEM_1_1UnknownInterface.html" target="_top" xlink:title="base class for all interface classes">
<polygon fill="white" stroke="black" points="735,-1252.5 735,-1271.5 883,-1271.5 883,-1252.5 735,-1252.5"/>
<text text-anchor="middle" x="809" y="-1259.5" font-family="Helvetica,sans-Serif" font-size="10.00">MoFEM::UnknownInterface</text>
</a>
</g>
</g>
<!-- Node9&#45;&gt;Node8 -->
<g id="edge8" class="edge">
<title>Node9&#45;&gt;Node8</title>
<path fill="none" stroke="midnightblue" d="M816.48,-1242.76C845.12,-1157.02 961.56,-800.81 1022,-500 1028.31,-468.6 1018.62,-380.85 1040,-357 1051.97,-343.64 1069.93,-337.06 1087.36,-333.99"/>
<polygon fill="midnightblue" stroke="midnightblue" points="813.16,-1241.65 813.3,-1252.25 819.8,-1243.88 813.16,-1241.65"/>
</g>
<!-- Node50 -->
<g id="node50" class="node">
<title>Node50</title>
<g id="a_node50"><a xlink:href="structMoFEM_1_1CoreInterface.html" target="_top" xlink:title="Interface.">
<polygon fill="white" stroke="black" points="1266.5,-1388.5 1266.5,-1407.5 1391.5,-1407.5 1391.5,-1388.5 1266.5,-1388.5"/>
<text text-anchor="middle" x="1329" y="-1395.5" font-family="Helvetica,sans-Serif" font-size="10.00">MoFEM::CoreInterface</text>
</a>
</g>
</g>
<!-- Node9&#45;&gt;Node50 -->
<g id="edge60" class="edge">
<title>Node9&#45;&gt;Node50</title>
<path fill="none" stroke="midnightblue" d="M893.15,-1257.74C936.84,-1260.02 988.18,-1270.56 1022,-1303 1047.05,-1327.03 1013.5,-1356.58 1040,-1379 1111.93,-1439.84 1233.53,-1421.57 1293.06,-1407.57"/>
<polygon fill="midnightblue" stroke="midnightblue" points="893.22,-1254.24 883.09,-1257.35 892.95,-1261.23 893.22,-1254.24"/>
</g>
<!-- Node10 -->
<g id="node10" class="node">
<title>Node10</title>
<g id="a_node10"><a xlink:title=" ">
<polygon fill="white" stroke="#bfbfbf" points="386,-1230.5 386,-1293.5 627,-1293.5 627,-1230.5 386,-1230.5"/>
<text text-anchor="start" x="394" y="-1281.5" font-family="Helvetica,sans-Serif" font-size="10.00">multi_index_container</text>
<text text-anchor="start" x="394" y="-1270.5" font-family="Helvetica,sans-Serif" font-size="10.00">&lt; UIdTypeMap, indexed</text>
<text text-anchor="start" x="394" y="-1259.5" font-family="Helvetica,sans-Serif" font-size="10.00">_by&lt; hashed_unique&lt; member</text>
<text text-anchor="start" x="394" y="-1248.5" font-family="Helvetica,sans-Serif" font-size="10.00">&lt; UIdTypeMap, boost::typeindex</text>
<text text-anchor="middle" x="506.5" y="-1237.5" font-family="Helvetica,sans-Serif" font-size="10.00">::type_index, &amp;UIdTypeMap::classIdx &gt; &gt; &gt; &gt;</text>
</a>
</g>
</g>
<!-- Node10&#45;&gt;Node9 -->
<g id="edge9" class="edge">
<title>Node10&#45;&gt;Node9</title>
<path fill="none" stroke="#9a32cd" stroke-dasharray="5,2" d="M637.41,-1262C670.69,-1262 705.33,-1262 734.62,-1262"/>
<polygon fill="#9a32cd" stroke="#9a32cd" points="637.13,-1258.5 627.13,-1262 637.13,-1265.5 637.13,-1258.5"/>
<text text-anchor="middle" x="681" y="-1265" font-family="Helvetica,sans-Serif" font-size="10.00"> iFaceTypeMap</text>
</g>
<!-- Node11 -->
<g id="node11" class="node">
<title>Node11</title>
<g id="a_node11"><a xlink:title=" ">
<polygon fill="white" stroke="#bfbfbf" points="0,-1282.5 0,-1301.5 125,-1301.5 125,-1282.5 0,-1282.5"/>
<text text-anchor="middle" x="62.5" y="-1289.5" font-family="Helvetica,sans-Serif" font-size="10.00">multi_index_container</text>
</a>
</g>
</g>
<!-- Node11&#45;&gt;Node6 -->
<g id="edge33" class="edge">
<title>Node11&#45;&gt;Node6</title>
<path fill="none" stroke="#9a32cd" stroke-dasharray="5,2" d="M114.58,-1303.53C123.99,-1305.3 133.76,-1306.9 143,-1308 303.1,-1327.08 344.27,-1322 505.5,-1322 505.5,-1322 505.5,-1322 1499.5,-1322 1640.03,-1322 1651.71,-1210.83 1703,-1080 1718.19,-1041.27 1694.18,-737.8 1721,-706 1727.7,-698.05 1736.91,-692.99 1746.83,-689.83"/>
<polygon fill="#9a32cd" stroke="#9a32cd" points="115.05,-1300.06 104.56,-1301.57 113.7,-1306.93 115.05,-1300.06"/>
<text text-anchor="middle" x="961.5" y="-1402" font-family="Helvetica,sans-Serif" font-size="10.00"> adjacenciesPtr</text>
<text text-anchor="middle" x="961.5" y="-1391" font-family="Helvetica,sans-Serif" font-size="10.00">refinedEntitiesPtr</text>
<text text-anchor="middle" x="961.5" y="-1380" font-family="Helvetica,sans-Serif" font-size="10.00">finiteElementsEntitiesPtr</text>
<text text-anchor="middle" x="961.5" y="-1369" font-family="Helvetica,sans-Serif" font-size="10.00">dofsPtr</text>
<text text-anchor="middle" x="961.5" y="-1358" font-family="Helvetica,sans-Serif" font-size="10.00">entitiesPtr</text>
<text text-anchor="middle" x="961.5" y="-1347" font-family="Helvetica,sans-Serif" font-size="10.00">finiteElementsPtr</text>
<text text-anchor="middle" x="961.5" y="-1336" font-family="Helvetica,sans-Serif" font-size="10.00">refinedFiniteElementsPtr</text>
<text text-anchor="middle" x="961.5" y="-1325" font-family="Helvetica,sans-Serif" font-size="10.00">fieldsPtr</text>
</g>
<!-- Node11&#45;&gt;Node10 -->
<g id="edge10" class="edge">
<title>Node11&#45;&gt;Node10</title>
<path fill="none" stroke="orange" stroke-dasharray="5,2" d="M94.05,-1278.55C108.58,-1272.86 126.37,-1266.89 143,-1264 223.14,-1250.07 314.76,-1249.7 385.84,-1252.74"/>
<polygon fill="orange" stroke="orange" points="92.52,-1275.4 84.58,-1282.4 95.16,-1281.88 92.52,-1275.4"/>
<text text-anchor="start" x="143" y="-1300" font-family="Helvetica,sans-Serif" font-size="10.00"> &lt; UIdTypeMap, indexed</text>
<text text-anchor="start" x="143" y="-1289" font-family="Helvetica,sans-Serif" font-size="10.00">_by&lt; hashed_unique&lt; member</text>
<text text-anchor="start" x="143" y="-1278" font-family="Helvetica,sans-Serif" font-size="10.00">&lt; UIdTypeMap, boost::typeindex</text>
<text text-anchor="middle" x="255.5" y="-1267" font-family="Helvetica,sans-Serif" font-size="10.00">::type_index, &amp;UIdTypeMap::classIdx &gt; &gt; &gt; &gt;</text>
</g>
<!-- Node12 -->
<g id="node12" class="node">
<title>Node12</title>
<g id="a_node12"><a xlink:title=" ">
<polygon fill="white" stroke="#bfbfbf" points="738.5,-0.5 738.5,-19.5 879.5,-19.5 879.5,-0.5 738.5,-0.5"/>
<text text-anchor="middle" x="809" y="-7.5" font-family="Helvetica,sans-Serif" font-size="10.00">static constexpr Switches</text>
</a>
</g>
</g>
<!-- Node12&#45;&gt;Node8 -->
<g id="edge11" class="edge">
<title>Node12&#45;&gt;Node8</title>
<path fill="none" stroke="#9a32cd" stroke-dasharray="5,2" d="M860.32,-22.46C910.32,-37.69 984.75,-68.69 1022,-125 1045.27,-160.19 1011.57,-282.83 1040,-314 1051.97,-327.12 1069.92,-332.89 1087.36,-335.05"/>
<polygon fill="#9a32cd" stroke="#9a32cd" points="861.24,-19.08 850.66,-19.62 859.27,-25.8 861.24,-19.08"/>
<text text-anchor="middle" x="961.5" y="-205" font-family="Helvetica,sans-Serif" font-size="10.00"> CtxSetX_TT</text>
<text text-anchor="middle" x="961.5" y="-194" font-family="Helvetica,sans-Serif" font-size="10.00">CtxSetX_T</text>
<text text-anchor="middle" x="961.5" y="-183" font-family="Helvetica,sans-Serif" font-size="10.00">CtxSetA</text>
<text text-anchor="middle" x="961.5" y="-172" font-family="Helvetica,sans-Serif" font-size="10.00">CtxSetB</text>
<text text-anchor="middle" x="961.5" y="-161" font-family="Helvetica,sans-Serif" font-size="10.00">CtxSetTime</text>
<text text-anchor="middle" x="961.5" y="-150" font-family="Helvetica,sans-Serif" font-size="10.00">CtxSetNone</text>
<text text-anchor="middle" x="961.5" y="-139" font-family="Helvetica,sans-Serif" font-size="10.00">CtxSetF</text>
<text text-anchor="middle" x="961.5" y="-128" font-family="Helvetica,sans-Serif" font-size="10.00">CtxSetX</text>
</g>
<!-- Node13 -->
<g id="node13" class="node">
<title>Node13</title>
<g id="a_node13"><a xlink:title=" ">
<polygon fill="white" stroke="#bfbfbf" points="791.5,-513.5 791.5,-532.5 826.5,-532.5 826.5,-513.5 791.5,-513.5"/>
<text text-anchor="middle" x="809" y="-520.5" font-family="Helvetica,sans-Serif" font-size="10.00">Mat</text>
</a>
</g>
</g>
<!-- Node13&#45;&gt;Node7 -->
<g id="edge17" class="edge">
<title>Node13&#45;&gt;Node7</title>
<path fill="none" stroke="#9a32cd" stroke-dasharray="5,2" d="M820.89,-541.63C836.32,-566.87 866.52,-612.3 901,-643 954.57,-690.7 970.81,-706.11 1040,-725 1116.58,-745.91 1323.06,-740.9 1397,-712 1406.44,-708.31 1406.13,-702.9 1415,-698 1430.34,-689.52 1448.55,-682.61 1463.95,-677.56"/>
<polygon fill="#9a32cd" stroke="#9a32cd" points="823.7,-539.5 815.55,-532.72 817.69,-543.1 823.7,-539.5"/>
<text text-anchor="middle" x="1141.5" y="-752" font-family="Helvetica,sans-Serif" font-size="10.00"> ksp_A</text>
<text text-anchor="middle" x="1141.5" y="-741" font-family="Helvetica,sans-Serif" font-size="10.00">ksp_B</text>
</g>
<!-- Node13&#45;&gt;Node8 -->
<g id="edge12" class="edge">
<title>Node13&#45;&gt;Node8</title>
<path fill="none" stroke="#9a32cd" stroke-dasharray="5,2" d="M835.51,-508.97C853.68,-499.04 878.74,-485.51 901,-474 954.32,-446.43 982.96,-459.59 1022,-414 1039.28,-393.82 1020.56,-375.1 1040,-357 1052.8,-345.08 1070.43,-338.76 1087.35,-335.5"/>
<polygon fill="#9a32cd" stroke="#9a32cd" points="833.77,-505.93 826.68,-513.8 837.14,-512.07 833.77,-505.93"/>
<text text-anchor="middle" x="961.5" y="-488" font-family="Helvetica,sans-Serif" font-size="10.00"> A</text>
<text text-anchor="middle" x="961.5" y="-477" font-family="Helvetica,sans-Serif" font-size="10.00">B</text>
</g>
<!-- Node13&#45;&gt;Node18 -->
<g id="edge22" class="edge">
<title>Node13&#45;&gt;Node18</title>
<path fill="none" stroke="#9a32cd" stroke-dasharray="5,2" d="M836.89,-525.42C879.8,-529.16 966.41,-536.2 1040,-539 1183.27,-544.45 1351.94,-543.7 1438.98,-542.79"/>
<polygon fill="#9a32cd" stroke="#9a32cd" points="836.99,-521.92 826.72,-524.53 836.37,-528.89 836.99,-521.92"/>
<text text-anchor="middle" x="1141.5" y="-558" font-family="Helvetica,sans-Serif" font-size="10.00"> snes_A</text>
<text text-anchor="middle" x="1141.5" y="-547" font-family="Helvetica,sans-Serif" font-size="10.00">snes_B</text>
</g>
<!-- Node13&#45;&gt;Node21 -->
<g id="edge27" class="edge">
<title>Node13&#45;&gt;Node21</title>
<path fill="none" stroke="#9a32cd" stroke-dasharray="5,2" d="M836.89,-523.41C887.94,-523.59 996.1,-520.93 1022,-496 1057.06,-462.26 1005.61,-422.43 1040,-388 1047.11,-380.88 1387.46,-331.18 1397,-328 1429.05,-317.31 1463.4,-297.51 1482.49,-285.67"/>
<polygon fill="#9a32cd" stroke="#9a32cd" points="836.66,-519.91 826.63,-523.33 836.61,-526.91 836.66,-519.91"/>
<text text-anchor="middle" x="1141.5" y="-402" font-family="Helvetica,sans-Serif" font-size="10.00"> ts_A</text>
<text text-anchor="middle" x="1141.5" y="-391" font-family="Helvetica,sans-Serif" font-size="10.00">ts_B</text>
</g>
<!-- Node14 -->
<g id="node14" class="node">
<title>Node14</title>
<g id="a_node14"><a xlink:title=" ">
<polygon fill="white" stroke="#bfbfbf" points="772.5,-111.5 772.5,-130.5 845.5,-130.5 845.5,-111.5 772.5,-111.5"/>
<text text-anchor="middle" x="809" y="-118.5" font-family="Helvetica,sans-Serif" font-size="10.00">bitset&lt; 8 &gt;</text>
</a>
</g>
</g>
<!-- Node14&#45;&gt;Node8 -->
<g id="edge13" class="edge">
<title>Node14&#45;&gt;Node8</title>
<path fill="none" stroke="#9a32cd" stroke-dasharray="5,2" d="M824.74,-138.32C858.5,-176.78 945.84,-269.39 1040,-314 1054.6,-320.92 1071.52,-325.32 1087.27,-328.12"/>
<polygon fill="#9a32cd" stroke="#9a32cd" points="827.21,-135.84 818.02,-130.57 821.92,-140.42 827.21,-135.84"/>
<text text-anchor="middle" x="961.5" y="-306" font-family="Helvetica,sans-Serif" font-size="10.00"> data_ctx</text>
</g>
<!-- Node15 -->
<g id="node15" class="node">
<title>Node15</title>
<g id="a_node15"><a xlink:title=" ">
<polygon fill="white" stroke="#bfbfbf" points="792,-405.5 792,-424.5 826,-424.5 826,-405.5 792,-405.5"/>
<text text-anchor="middle" x="809" y="-412.5" font-family="Helvetica,sans-Serif" font-size="10.00">Vec</text>
</a>
</g>
</g>
<!-- Node15&#45;&gt;Node7 -->
<g id="edge18" class="edge">
<title>Node15&#45;&gt;Node7</title>
<path fill="none" stroke="#9a32cd" stroke-dasharray="5,2" d="M827.12,-431.53C844.79,-448.15 873.59,-473.95 901,-493 959,-533.3 973.87,-545.22 1040,-570 1179.58,-622.29 1354.12,-649.97 1441.79,-661.45"/>
<polygon fill="#9a32cd" stroke="#9a32cd" points="829.48,-428.95 819.82,-424.6 824.66,-434.03 829.48,-428.95"/>
<text text-anchor="middle" x="1141.5" y="-630" font-family="Helvetica,sans-Serif" font-size="10.00"> ksp_f</text>
</g>
<!-- Node15&#45;&gt;Node8 -->
<g id="edge14" class="edge">
<title>Node15&#45;&gt;Node8</title>
<path fill="none" stroke="#9a32cd" stroke-dasharray="5,2" d="M834.6,-400.25C852.44,-390.21 877.46,-377.44 901,-370 963.18,-350.34 1037.86,-340.92 1087.11,-336.55"/>
<polygon fill="#9a32cd" stroke="#9a32cd" points="832.41,-397.47 825.49,-405.5 835.9,-403.54 832.41,-397.47"/>
<text text-anchor="middle" x="961.5" y="-406" font-family="Helvetica,sans-Serif" font-size="10.00"> f</text>
<text text-anchor="middle" x="961.5" y="-395" font-family="Helvetica,sans-Serif" font-size="10.00">x</text>
<text text-anchor="middle" x="961.5" y="-384" font-family="Helvetica,sans-Serif" font-size="10.00">x_t</text>
<text text-anchor="middle" x="961.5" y="-373" font-family="Helvetica,sans-Serif" font-size="10.00">x_tt</text>
</g>
<!-- Node15&#45;&gt;Node18 -->
<g id="edge23" class="edge">
<title>Node15&#45;&gt;Node18</title>
<path fill="none" stroke="#9a32cd" stroke-dasharray="5,2" d="M830.11,-430.96C847.74,-444.03 874.59,-461.81 901,-471 913.66,-475.41 1290.82,-518.54 1438.77,-535.35"/>
<polygon fill="#9a32cd" stroke="#9a32cd" points="831.87,-427.89 821.79,-424.62 827.63,-433.46 831.87,-427.89"/>
<text text-anchor="middle" x="1141.5" y="-526" font-family="Helvetica,sans-Serif" font-size="10.00"> snes_x</text>
<text text-anchor="middle" x="1141.5" y="-515" font-family="Helvetica,sans-Serif" font-size="10.00">snes_f</text>
</g>
<!-- Node15&#45;&gt;Node21 -->
<g id="edge31" class="edge">
<title>Node15&#45;&gt;Node21</title>
<path fill="none" stroke="#9a32cd" stroke-dasharray="5,2" d="M819.31,-396.28C845.62,-345.79 926.08,-207.19 1040,-156 1206.28,-81.28 1428.21,-226.39 1484.23,-266.26"/>
<polygon fill="#9a32cd" stroke="#9a32cd" points="816.08,-394.91 814.65,-405.4 822.32,-398.09 816.08,-394.91"/>
<text text-anchor="middle" x="1141.5" y="-192" font-family="Helvetica,sans-Serif" font-size="10.00"> ts_u</text>
<text text-anchor="middle" x="1141.5" y="-181" font-family="Helvetica,sans-Serif" font-size="10.00">ts_F</text>
<text text-anchor="middle" x="1141.5" y="-170" font-family="Helvetica,sans-Serif" font-size="10.00">ts_u_t</text>
<text text-anchor="middle" x="1141.5" y="-159" font-family="Helvetica,sans-Serif" font-size="10.00">ts_u_tt</text>
</g>
<!-- Node16 -->
<g id="node16" class="node">
<title>Node16</title>
<g id="a_node16"><a xlink:title=" ">
<polygon fill="white" stroke="#bfbfbf" points="1124,-696.5 1124,-715.5 1159,-715.5 1159,-696.5 1124,-696.5"/>
<text text-anchor="middle" x="1141.5" y="-703.5" font-family="Helvetica,sans-Serif" font-size="10.00">KSP</text>
</a>
</g>
</g>
<!-- Node16&#45;&gt;Node7 -->
<g id="edge15" class="edge">
<title>Node16&#45;&gt;Node7</title>
<path fill="none" stroke="#9a32cd" stroke-dasharray="5,2" d="M1169.35,-704.09C1215.82,-700.67 1314.22,-692.91 1397,-683 1411.54,-681.26 1427.21,-679.07 1441.76,-676.91"/>
<polygon fill="#9a32cd" stroke="#9a32cd" points="1168.93,-700.61 1159.21,-704.83 1169.44,-707.59 1168.93,-700.61"/>
<text text-anchor="middle" x="1329" y="-700" font-family="Helvetica,sans-Serif" font-size="10.00"> ksp</text>
</g>
<!-- Node17 -->
<g id="node17" class="node">
<title>Node17</title>
<g id="a_node17"><a xlink:title=" ">
<polygon fill="white" stroke="#bfbfbf" points="1104.5,-658.5 1104.5,-677.5 1178.5,-677.5 1178.5,-658.5 1104.5,-658.5"/>
<text text-anchor="middle" x="1141.5" y="-665.5" font-family="Helvetica,sans-Serif" font-size="10.00">KSPContext</text>
</a>
</g>
</g>
<!-- Node17&#45;&gt;Node7 -->
<g id="edge16" class="edge">
<title>Node17&#45;&gt;Node7</title>
<path fill="none" stroke="#9a32cd" stroke-dasharray="5,2" d="M1189.19,-668C1254.3,-668 1372.2,-668 1441.81,-668"/>
<polygon fill="#9a32cd" stroke="#9a32cd" points="1188.82,-664.5 1178.82,-668 1188.82,-671.5 1188.82,-664.5"/>
<text text-anchor="middle" x="1329" y="-671" font-family="Helvetica,sans-Serif" font-size="10.00"> ksp_ctx</text>
</g>
<!-- Node18&#45;&gt;Node6 -->
<g id="edge19" class="edge">
<title>Node18&#45;&gt;Node6</title>
<path fill="none" stroke="midnightblue" d="M1528.91,-555.87C1590.93,-585.12 1733.78,-652.47 1786.75,-677.45"/>
<polygon fill="midnightblue" stroke="midnightblue" points="1530.21,-552.61 1519.68,-551.51 1527.23,-558.94 1530.21,-552.61"/>
</g>
<!-- Node19 -->
<g id="node19" class="node">
<title>Node19</title>
<g id="a_node19"><a xlink:title=" ">
<polygon fill="white" stroke="#bfbfbf" points="1120.5,-457.5 1120.5,-476.5 1162.5,-476.5 1162.5,-457.5 1120.5,-457.5"/>
<text text-anchor="middle" x="1141.5" y="-464.5" font-family="Helvetica,sans-Serif" font-size="10.00">SNES</text>
</a>
</g>
</g>
<!-- Node19&#45;&gt;Node18 -->
<g id="edge21" class="edge">
<title>Node19&#45;&gt;Node18</title>
<path fill="none" stroke="#9a32cd" stroke-dasharray="5,2" d="M1172.82,-460.74C1223.84,-451.99 1328,-441.89 1397,-488 1411.54,-497.72 1401.19,-512.26 1415,-523 1421.96,-528.41 1430.19,-532.33 1438.71,-535.16"/>
<polygon fill="#9a32cd" stroke="#9a32cd" points="1171.99,-457.34 1162.78,-462.57 1173.24,-464.22 1171.99,-457.34"/>
<text text-anchor="middle" x="1329" y="-491" font-family="Helvetica,sans-Serif" font-size="10.00"> snes</text>
</g>
<!-- Node20 -->
<g id="node20" class="node">
<title>Node20</title>
<g id="a_node20"><a xlink:title=" ">
<polygon fill="white" stroke="#bfbfbf" points="1101.5,-419.5 1101.5,-438.5 1181.5,-438.5 1181.5,-419.5 1101.5,-419.5"/>
<text text-anchor="middle" x="1141.5" y="-426.5" font-family="Helvetica,sans-Serif" font-size="10.00">SNESContext</text>
</a>
</g>
</g>
<!-- Node20&#45;&gt;Node18 -->
<g id="edge24" class="edge">
<title>Node20&#45;&gt;Node18</title>
<path fill="none" stroke="#9a32cd" stroke-dasharray="5,2" d="M1191.66,-424.07C1256.82,-418.67 1367.05,-413.8 1397,-439 1426.21,-463.58 1388.21,-495.8 1415,-523 1421.5,-529.6 1429.79,-534.1 1438.61,-537.13"/>
<polygon fill="#9a32cd" stroke="#9a32cd" points="1191.27,-420.59 1181.61,-424.94 1191.88,-427.57 1191.27,-420.59"/>
<text text-anchor="middle" x="1329" y="-442" font-family="Helvetica,sans-Serif" font-size="10.00"> snes_ctx</text>
</g>
<!-- Node21&#45;&gt;Node6 -->
<g id="edge25" class="edge">
<title>Node21&#45;&gt;Node6</title>
<path fill="none" stroke="midnightblue" d="M1520.42,-291.8C1560.17,-322.66 1647.58,-394.62 1703,-471 1755.31,-543.09 1792.84,-645.59 1803.74,-677.29"/>
<polygon fill="midnightblue" stroke="midnightblue" points="1522.53,-289.01 1512.47,-285.69 1518.27,-294.56 1522.53,-289.01"/>
</g>
<!-- Node22 -->
<g id="node22" class="node">
<title>Node22</title>
<g id="a_node22"><a xlink:title=" ">
<polygon fill="white" stroke="#bfbfbf" points="1109,-78.5 1109,-97.5 1174,-97.5 1174,-78.5 1109,-78.5"/>
<text text-anchor="middle" x="1141.5" y="-85.5" font-family="Helvetica,sans-Serif" font-size="10.00">PetscReal</text>
</a>
</g>
</g>
<!-- Node22&#45;&gt;Node21 -->
<g id="edge28" class="edge">
<title>Node22&#45;&gt;Node21</title>
<path fill="none" stroke="#9a32cd" stroke-dasharray="5,2" d="M1184.01,-76.01C1237.42,-63.15 1331.17,-49.47 1397,-89 1464.93,-129.79 1489.65,-233.97 1495.82,-266.29"/>
<polygon fill="#9a32cd" stroke="#9a32cd" points="1183.05,-72.65 1174.2,-78.48 1184.75,-79.44 1183.05,-72.65"/>
<text text-anchor="middle" x="1329" y="-125" font-family="Helvetica,sans-Serif" font-size="10.00"> ts_a</text>
<text text-anchor="middle" x="1329" y="-114" font-family="Helvetica,sans-Serif" font-size="10.00">ts_t</text>
<text text-anchor="middle" x="1329" y="-103" font-family="Helvetica,sans-Serif" font-size="10.00">ts_dt</text>
<text text-anchor="middle" x="1329" y="-92" font-family="Helvetica,sans-Serif" font-size="10.00">ts_aa</text>
</g>
<!-- Node23 -->
<g id="node23" class="node">
<title>Node23</title>
<g id="a_node23"><a xlink:title=" ">
<polygon fill="white" stroke="#bfbfbf" points="1108,-285.5 1108,-304.5 1175,-304.5 1175,-285.5 1108,-285.5"/>
<text text-anchor="middle" x="1141.5" y="-292.5" font-family="Helvetica,sans-Serif" font-size="10.00">TSContext</text>
</a>
</g>
</g>
<!-- Node23&#45;&gt;Node21 -->
<g id="edge29" class="edge">
<title>Node23&#45;&gt;Node21</title>
<path fill="none" stroke="#9a32cd" stroke-dasharray="5,2" d="M1185.59,-292.69C1250.81,-289.2 1374.44,-282.59 1444.88,-278.82"/>
<polygon fill="#9a32cd" stroke="#9a32cd" points="1185.06,-289.22 1175.26,-293.25 1185.43,-296.21 1185.06,-289.22"/>
<text text-anchor="middle" x="1329" y="-292" font-family="Helvetica,sans-Serif" font-size="10.00"> ts_ctx</text>
</g>
<!-- Node24 -->
<g id="node24" class="node">
<title>Node24</title>
<g id="a_node24"><a xlink:title=" ">
<polygon fill="white" stroke="#bfbfbf" points="1113.5,-247.5 1113.5,-266.5 1169.5,-266.5 1169.5,-247.5 1113.5,-247.5"/>
<text text-anchor="middle" x="1141.5" y="-254.5" font-family="Helvetica,sans-Serif" font-size="10.00">PetscInt</text>
</a>
</g>
</g>
<!-- Node24&#45;&gt;Node21 -->
<g id="edge30" class="edge">
<title>Node24&#45;&gt;Node21</title>
<path fill="none" stroke="#9a32cd" stroke-dasharray="5,2" d="M1179.89,-257.88C1229.53,-259.19 1319.92,-262.04 1397,-267 1412.56,-268 1429.45,-269.39 1444.86,-270.79"/>
<polygon fill="#9a32cd" stroke="#9a32cd" points="1179.73,-254.38 1169.64,-257.62 1179.55,-261.38 1179.73,-254.38"/>
<text text-anchor="middle" x="1329" y="-270" font-family="Helvetica,sans-Serif" font-size="10.00"> ts_step</text>
</g>
<!-- Node25 -->
<g id="node25" class="node">
<title>Node25</title>
<g id="a_node25"><a xlink:title=" ">
<polygon fill="white" stroke="#bfbfbf" points="1127,-209.5 1127,-228.5 1156,-228.5 1156,-209.5 1127,-209.5"/>
<text text-anchor="middle" x="1141.5" y="-216.5" font-family="Helvetica,sans-Serif" font-size="10.00">TS</text>
</a>
</g>
</g>
<!-- Node25&#45;&gt;Node21 -->
<g id="edge32" class="edge">
<title>Node25&#45;&gt;Node21</title>
<path fill="none" stroke="#9a32cd" stroke-dasharray="5,2" d="M1166.15,-220.05C1211.37,-222.38 1313.09,-229.17 1397,-246 1422.35,-251.08 1450.5,-259.76 1470.54,-266.48"/>
<polygon fill="#9a32cd" stroke="#9a32cd" points="1166.31,-216.56 1156.15,-219.56 1165.97,-223.55 1166.31,-216.56"/>
<text text-anchor="middle" x="1329" y="-249" font-family="Helvetica,sans-Serif" font-size="10.00"> ts</text>
</g>
<!-- Node26 -->
<g id="node26" class="node">
<title>Node26</title>
<g id="a_node26"><a xlink:title=" ">
<polygon fill="white" stroke="#bfbfbf" points="1454,-494.5 1454,-513.5 1543,-513.5 1543,-494.5 1454,-494.5"/>
<text text-anchor="middle" x="1498.5" y="-501.5" font-family="Helvetica,sans-Serif" font-size="10.00">pair&lt; int, int &gt;</text>
</a>
</g>
</g>
<!-- Node26&#45;&gt;Node6 -->
<g id="edge34" class="edge">
<title>Node26&#45;&gt;Node6</title>
<path fill="none" stroke="#9a32cd" stroke-dasharray="5,2" d="M1553.19,-514.66C1562.88,-517.07 1572.81,-519.85 1582,-523 1638.06,-542.2 1654.73,-544.62 1703,-579 1744.98,-608.9 1784.24,-657.15 1799.87,-677.48"/>
<polygon fill="#9a32cd" stroke="#9a32cd" points="1553.76,-511.2 1543.22,-512.3 1552.14,-518.01 1553.76,-511.2"/>
<text text-anchor="middle" x="1651.5" y="-582" font-family="Helvetica,sans-Serif" font-size="10.00"> loHiFERank</text>
</g>
<!-- Node27 -->
<g id="node27" class="node">
<title>Node27</title>
<g id="a_node27"><a xlink:title=" ">
<polygon fill="white" stroke="#bfbfbf" points="1428.5,-456.5 1428.5,-475.5 1568.5,-475.5 1568.5,-456.5 1428.5,-456.5"/>
<text text-anchor="middle" x="1498.5" y="-463.5" font-family="Helvetica,sans-Serif" font-size="10.00">weak_ptr&lt; CacheTuple &gt;</text>
</a>
</g>
</g>
<!-- Node27&#45;&gt;Node6 -->
<g id="edge35" class="edge">
<title>Node27&#45;&gt;Node6</title>
<path fill="none" stroke="#9a32cd" stroke-dasharray="5,2" d="M1578.91,-470.58C1619.3,-476.31 1667.26,-488.67 1703,-515 1762.56,-558.88 1794.8,-648.04 1804.12,-677.39"/>
<polygon fill="#9a32cd" stroke="#9a32cd" points="1579.19,-467.09 1568.82,-469.27 1578.28,-474.03 1579.19,-467.09"/>
<text text-anchor="middle" x="1651.5" y="-518" font-family="Helvetica,sans-Serif" font-size="10.00"> cacheWeakPtr</text>
</g>
<!-- Node28 -->
<g id="node28" class="node">
<title>Node28</title>
<g id="a_node28"><a xlink:title=" ">
<polygon fill="white" stroke="#bfbfbf" points="1442.5,-1072.5 1442.5,-1091.5 1554.5,-1091.5 1554.5,-1072.5 1442.5,-1072.5"/>
<text text-anchor="middle" x="1498.5" y="-1079.5" font-family="Helvetica,sans-Serif" font-size="10.00">unique_ptr&lt; bool &gt;</text>
</a>
</g>
</g>
<!-- Node28&#45;&gt;Node6 -->
<g id="edge36" class="edge">
<title>Node28&#45;&gt;Node6</title>
<path fill="none" stroke="#9a32cd" stroke-dasharray="5,2" d="M1564.42,-1070.01C1570.49,-1068.01 1576.44,-1065.69 1582,-1063 1644.03,-1032.95 1671.04,-1027.07 1703,-966 1729.85,-914.68 1683.19,-749.87 1721,-706 1727.79,-698.12 1737.04,-693.09 1746.96,-689.95"/>
<polygon fill="#9a32cd" stroke="#9a32cd" points="1563.39,-1066.66 1554.82,-1072.89 1565.41,-1073.37 1563.39,-1066.66"/>
<text text-anchor="middle" x="1651.5" y="-1068" font-family="Helvetica,sans-Serif" font-size="10.00"> matAssembleSwitch</text>
<text text-anchor="middle" x="1651.5" y="-1057" font-family="Helvetica,sans-Serif" font-size="10.00">vecAssembleSwitch</text>
</g>
<!-- Node29 -->
<g id="node29" class="node">
<title>Node29</title>
<g id="a_node29"><a xlink:title=" ">
<polygon fill="white" stroke="#bfbfbf" points="1127,-792.5 1127,-811.5 1156,-811.5 1156,-792.5 1127,-792.5"/>
<text text-anchor="middle" x="1141.5" y="-799.5" font-family="Helvetica,sans-Serif" font-size="10.00">int</text>
</a>
</g>
</g>
<!-- Node29&#45;&gt;Node3 -->
<g id="edge77" class="edge">
<title>Node29&#45;&gt;Node3</title>
<path fill="none" stroke="#9a32cd" stroke-dasharray="5,2" d="M1166.61,-800.16C1190.54,-798.43 1228.28,-795.97 1261,-795 1321.42,-793.22 1338.49,-779.84 1397,-795 1405.86,-797.3 1406.24,-802.35 1415,-805 1515.51,-835.41 1545.49,-824 1650.5,-824 1650.5,-824 1650.5,-824 2561,-824 2754.75,-824 2806.05,-1153.56 2815.3,-1229.52"/>
<polygon fill="#9a32cd" stroke="#9a32cd" points="1166.07,-796.69 1156.35,-800.92 1166.58,-803.67 1166.07,-796.69"/>
<text text-anchor="middle" x="1985" y="-827" font-family="Helvetica,sans-Serif" font-size="10.00"> num_nodes</text>
</g>
<!-- Node29&#45;&gt;Node6 -->
<g id="edge37" class="edge">
<title>Node29&#45;&gt;Node6</title>
<path fill="none" stroke="#9a32cd" stroke-dasharray="5,2" d="M1166.1,-797.64C1186.69,-793.54 1217.22,-786.73 1243,-778 1251.29,-775.19 1252.66,-772.68 1261,-770 1319.76,-751.14 1343.07,-772 1397,-742 1407.16,-736.34 1404.54,-728.08 1415,-723 1444.09,-708.88 1644.4,-695.96 1746.88,-690.19"/>
<polygon fill="#9a32cd" stroke="#9a32cd" points="1165.21,-794.25 1156.05,-799.59 1166.53,-801.12 1165.21,-794.25"/>
<text text-anchor="middle" x="1498.5" y="-759" font-family="Helvetica,sans-Serif" font-size="10.00"> sIze</text>
<text text-anchor="middle" x="1498.5" y="-748" font-family="Helvetica,sans-Serif" font-size="10.00">loopSize</text>
<text text-anchor="middle" x="1498.5" y="-737" font-family="Helvetica,sans-Serif" font-size="10.00">nInTheLoop</text>
<text text-anchor="middle" x="1498.5" y="-726" font-family="Helvetica,sans-Serif" font-size="10.00">rAnk</text>
</g>
<!-- Node31 -->
<g id="node31" class="node">
<title>Node31</title>
<g id="a_node31"><a xlink:href="structMoFEM_1_1Problem.html" target="_top" xlink:title="keeps basic data about problem">
<polygon fill="white" stroke="black" points="1449,-1034.5 1449,-1053.5 1548,-1053.5 1548,-1034.5 1449,-1034.5"/>
<text text-anchor="middle" x="1498.5" y="-1041.5" font-family="Helvetica,sans-Serif" font-size="10.00">MoFEM::Problem</text>
</a>
</g>
</g>
<!-- Node29&#45;&gt;Node31 -->
<g id="edge49" class="edge">
<title>Node29&#45;&gt;Node31</title>
<path fill="none" stroke="#9a32cd" stroke-dasharray="5,2" d="M1166.37,-800.03C1222.34,-795.88 1360.11,-788.6 1397,-814 1417.05,-827.81 1478.69,-992.81 1494.02,-1034.49"/>
<polygon fill="#9a32cd" stroke="#9a32cd" points="1166.02,-796.54 1156.32,-800.8 1166.56,-803.52 1166.02,-796.54"/>
<text text-anchor="middle" x="1329" y="-883" font-family="Helvetica,sans-Serif" font-size="10.00"> tagNameSize</text>
<text text-anchor="middle" x="1329" y="-872" font-family="Helvetica,sans-Serif" font-size="10.00">nbDofsRow</text>
<text text-anchor="middle" x="1329" y="-861" font-family="Helvetica,sans-Serif" font-size="10.00">nbLocDofsCol</text>
<text text-anchor="middle" x="1329" y="-850" font-family="Helvetica,sans-Serif" font-size="10.00">nbDofsCol</text>
<text text-anchor="middle" x="1329" y="-839" font-family="Helvetica,sans-Serif" font-size="10.00">nbGhostDofsRow</text>
<text text-anchor="middle" x="1329" y="-828" font-family="Helvetica,sans-Serif" font-size="10.00">nbGhostDofsCol</text>
<text text-anchor="middle" x="1329" y="-817" font-family="Helvetica,sans-Serif" font-size="10.00">nbLocDofsRow</text>
</g>
<!-- Node30 -->
<g id="node30" class="node">
<title>Node30</title>
<g id="a_node30"><a xlink:title=" ">
<polygon fill="white" stroke="#bfbfbf" points="1415,-776.5 1415,-795.5 1582,-795.5 1582,-776.5 1415,-776.5"/>
<text text-anchor="middle" x="1498.5" y="-783.5" font-family="Helvetica,sans-Serif" font-size="10.00">function&lt; MoFEMErrorCode()&gt;</text>
</a>
</g>
</g>
<!-- Node30&#45;&gt;Node6 -->
<g id="edge38" class="edge">
<title>Node30&#45;&gt;Node6</title>
<path fill="none" stroke="#9a32cd" stroke-dasharray="5,2" d="M1581.11,-774.46C1620.35,-766.1 1666.63,-751.9 1703,-728 1713.56,-721.06 1710.24,-712.62 1721,-706 1728.82,-701.19 1737.69,-697.6 1746.7,-694.91"/>
<polygon fill="#9a32cd" stroke="#9a32cd" points="1580.39,-771.03 1571.3,-776.46 1581.79,-777.89 1580.39,-771.03"/>
<text text-anchor="middle" x="1651.5" y="-795" font-family="Helvetica,sans-Serif" font-size="10.00"> preProcessHook</text>
<text text-anchor="middle" x="1651.5" y="-784" font-family="Helvetica,sans-Serif" font-size="10.00">operatorHook</text>
<text text-anchor="middle" x="1651.5" y="-773" font-family="Helvetica,sans-Serif" font-size="10.00">postProcessHook</text>
</g>
<!-- Node31&#45;&gt;Node6 -->
<g id="edge39" class="edge">
<title>Node31&#45;&gt;Node6</title>
<path fill="none" stroke="#9a32cd" stroke-dasharray="5,2" d="M1519.1,-1027.89C1560.54,-992.62 1657.01,-903.95 1703,-807 1722.54,-765.8 1689.43,-738.9 1721,-706 1727.99,-698.72 1737.09,-693.93 1746.75,-690.83"/>
<polygon fill="#9a32cd" stroke="#9a32cd" points="1516.75,-1025.29 1511.35,-1034.4 1521.26,-1030.64 1516.75,-1025.29"/>
<text text-anchor="middle" x="1651.5" y="-954" font-family="Helvetica,sans-Serif" font-size="10.00"> problemPtr</text>
</g>
<!-- Node32 -->
<g id="node32" class="node">
<title>Node32</title>
<g id="a_node32"><a xlink:title=" ">
<polygon fill="white" stroke="#bfbfbf" points="1058,-1046 1058,-1076 1225,-1076 1225,-1046 1058,-1046"/>
<text text-anchor="start" x="1066" y="-1064" font-family="Helvetica,sans-Serif" font-size="10.00">shared_ptr&lt; NumeredEntFinite</text>
<text text-anchor="middle" x="1141.5" y="-1053" font-family="Helvetica,sans-Serif" font-size="10.00">Element_multiIndex &gt;</text>
</a>
</g>
</g>
<!-- Node32&#45;&gt;Node31 -->
<g id="edge40" class="edge">
<title>Node32&#45;&gt;Node31</title>
<path fill="none" stroke="#9a32cd" stroke-dasharray="5,2" d="M1235.63,-1056.54C1303.98,-1053.27 1394.08,-1048.95 1448.8,-1046.33"/>
<polygon fill="#9a32cd" stroke="#9a32cd" points="1235.1,-1053.06 1225.28,-1057.04 1235.44,-1060.05 1235.1,-1053.06"/>
<text text-anchor="middle" x="1329" y="-1059" font-family="Helvetica,sans-Serif" font-size="10.00"> numeredFiniteElementsPtr</text>
</g>
<!-- Node33 -->
<g id="node33" class="node">
<title>Node33</title>
<g id="a_node33"><a xlink:title=" ">
<polygon fill="white" stroke="#bfbfbf" points="1112,-1007.5 1112,-1026.5 1171,-1026.5 1171,-1007.5 1112,-1007.5"/>
<text text-anchor="middle" x="1141.5" y="-1014.5" font-family="Helvetica,sans-Serif" font-size="10.00">BitFEId *</text>
</a>
</g>
</g>
<!-- Node33&#45;&gt;Node31 -->
<g id="edge41" class="edge">
<title>Node33&#45;&gt;Node31</title>
<path fill="none" stroke="#9a32cd" stroke-dasharray="5,2" d="M1181.16,-1019.51C1231.06,-1022.8 1320.54,-1028.87 1397,-1035 1413.94,-1036.36 1432.47,-1037.98 1448.95,-1039.47"/>
<polygon fill="#9a32cd" stroke="#9a32cd" points="1181.35,-1016.01 1171.14,-1018.85 1180.89,-1023 1181.35,-1016.01"/>
<text text-anchor="middle" x="1329" y="-1038" font-family="Helvetica,sans-Serif" font-size="10.00"> tagBitFEId</text>
</g>
<!-- Node34 -->
<g id="node34" class="node">
<title>Node34</title>
<g id="a_node34"><a xlink:href="classEntityHandle.html" target="_top" xlink:title=" ">
<polygon fill="white" stroke="black" points="1101.5,-1350.5 1101.5,-1369.5 1181.5,-1369.5 1181.5,-1350.5 1101.5,-1350.5"/>
<text text-anchor="middle" x="1141.5" y="-1357.5" font-family="Helvetica,sans-Serif" font-size="10.00">EntityHandle</text>
</a>
</g>
</g>
<!-- Node34&#45;&gt;Node3 -->
<g id="edge75" class="edge">
<title>Node34&#45;&gt;Node3</title>
<path fill="none" stroke="#9a32cd" stroke-dasharray="5,2" d="M1191.71,-1360C1260.24,-1360 1388.32,-1360 1497.5,-1360 1497.5,-1360 1497.5,-1360 2561,-1360 2633.99,-1360 2658.57,-1372.34 2724,-1340 2761.24,-1321.59 2792.09,-1282.1 2807.12,-1260.28"/>
<polygon fill="#9a32cd" stroke="#9a32cd" points="1191.64,-1356.5 1181.64,-1360 1191.64,-1363.5 1191.64,-1356.5"/>
<text text-anchor="middle" x="1985" y="-1363" font-family="Helvetica,sans-Serif" font-size="10.00"> conn</text>
</g>
<!-- Node34&#45;&gt;Node31 -->
<g id="edge42" class="edge">
<title>Node34&#45;&gt;Node31</title>
<path fill="none" stroke="#9a32cd" stroke-dasharray="5,2" d="M1191.46,-1350.09C1257.91,-1335.59 1371.34,-1306.73 1397,-1274 1426.04,-1236.97 1384.16,-1098.54 1415,-1063 1423.57,-1053.12 1436.16,-1047.81 1448.93,-1045.09"/>
<polygon fill="#9a32cd" stroke="#9a32cd" points="1190.66,-1346.69 1181.62,-1352.21 1192.13,-1353.53 1190.66,-1346.69"/>
<text text-anchor="middle" x="1329" y="-1335" font-family="Helvetica,sans-Serif" font-size="10.00"> meshset</text>
</g>
<!-- Node35 -->
<g id="node35" class="node">
<title>Node35</title>
<g id="a_node35"><a xlink:title=" ">
<polygon fill="white" stroke="#bfbfbf" points="1067,-920 1067,-950 1216,-950 1216,-920 1067,-920"/>
<text text-anchor="start" x="1075" y="-938" font-family="Helvetica,sans-Serif" font-size="10.00">shared_ptr&lt; MoFEM::</text>
<text text-anchor="middle" x="1141.5" y="-927" font-family="Helvetica,sans-Serif" font-size="10.00">ComposedProblemsData &gt;</text>
</a>
</g>
</g>
<!-- Node35&#45;&gt;Node31 -->
<g id="edge43" class="edge">
<title>Node35&#45;&gt;Node31</title>
<path fill="none" stroke="#9a32cd" stroke-dasharray="5,2" d="M1226.05,-938.77C1276.95,-943.33 1342.46,-953.29 1397,-975 1433.38,-989.48 1469.66,-1019.07 1486.99,-1034.36"/>
<polygon fill="#9a32cd" stroke="#9a32cd" points="1226.33,-935.29 1216.07,-937.93 1225.74,-942.26 1226.33,-935.29"/>
<text text-anchor="middle" x="1329" y="-978" font-family="Helvetica,sans-Serif" font-size="10.00"> composedProblemsData</text>
</g>
<!-- Node36 -->
<g id="node36" class="node">
<title>Node36</title>
<g id="a_node36"><a xlink:title=" ">
<polygon fill="white" stroke="#bfbfbf" points="1101,-881.5 1101,-900.5 1182,-900.5 1182,-881.5 1101,-881.5"/>
<text text-anchor="middle" x="1141.5" y="-888.5" font-family="Helvetica,sans-Serif" font-size="10.00">BitRefLevel *</text>
</a>
</g>
</g>
<!-- Node36&#45;&gt;Node31 -->
<g id="edge44" class="edge">
<title>Node36&#45;&gt;Node31</title>
<path fill="none" stroke="#9a32cd" stroke-dasharray="5,2" d="M1192.31,-891.54C1256.21,-893.01 1362.88,-898.29 1397,-917 1447.54,-944.71 1481.58,-1009.48 1493.14,-1034.19"/>
<polygon fill="#9a32cd" stroke="#9a32cd" points="1192.13,-888.04 1182.06,-891.33 1191.98,-895.04 1192.13,-888.04"/>
<text text-anchor="middle" x="1329" y="-931" font-family="Helvetica,sans-Serif" font-size="10.00"> tagBitRefLevelMask</text>
<text text-anchor="middle" x="1329" y="-920" font-family="Helvetica,sans-Serif" font-size="10.00">tagBitRefLevel</text>
</g>
<!-- Node37 -->
<g id="node37" class="node">
<title>Node37</title>
<g id="a_node37"><a xlink:title=" ">
<polygon fill="white" stroke="#bfbfbf" points="1056.5,-1260 1056.5,-1290 1226.5,-1290 1226.5,-1260 1056.5,-1260"/>
<text text-anchor="start" x="1064.5" y="-1278" font-family="Helvetica,sans-Serif" font-size="10.00">shared_ptr&lt; NumeredDofEntity</text>
<text text-anchor="middle" x="1141.5" y="-1267" font-family="Helvetica,sans-Serif" font-size="10.00">_multiIndex &gt;</text>
</a>
</g>
</g>
<!-- Node37&#45;&gt;Node31 -->
<g id="edge45" class="edge">
<title>Node37&#45;&gt;Node31</title>
<path fill="none" stroke="#9a32cd" stroke-dasharray="5,2" d="M1228.59,-1258.04C1239.49,-1255.96 1250.5,-1253.91 1261,-1252 1291.16,-1246.52 1375.98,-1251.31 1397,-1229 1447.89,-1174.99 1365.72,-1118.49 1415,-1063 1423.59,-1053.33 1436.02,-1048.06 1448.64,-1045.31"/>
<polygon fill="#9a32cd" stroke="#9a32cd" points="1227.79,-1254.63 1218.63,-1259.94 1229.1,-1261.5 1227.79,-1254.63"/>
<text text-anchor="middle" x="1329" y="-1266" font-family="Helvetica,sans-Serif" font-size="10.00"> numeredRowDofsPtr</text>
<text text-anchor="middle" x="1329" y="-1255" font-family="Helvetica,sans-Serif" font-size="10.00">numeredColDofsPtr</text>
</g>
<!-- Node38 -->
<g id="node38" class="node">
<title>Node38</title>
<g id="a_node38"><a xlink:title=" ">
<polygon fill="white" stroke="#bfbfbf" points="1122.5,-1221.5 1122.5,-1240.5 1160.5,-1240.5 1160.5,-1221.5 1122.5,-1221.5"/>
<text text-anchor="middle" x="1141.5" y="-1228.5" font-family="Helvetica,sans-Serif" font-size="10.00">char</text>
</a>
</g>
</g>
<!-- Node38&#45;&gt;Node31 -->
<g id="edge46" class="edge">
<title>Node38&#45;&gt;Node31</title>
<path fill="none" stroke="#9a32cd" stroke-dasharray="5,2" d="M1170.8,-1227.92C1235.46,-1220.75 1389.06,-1202.98 1397,-1195 1438.76,-1153.03 1375.08,-1106.73 1415,-1063 1423.72,-1053.45 1436.2,-1048.22 1448.81,-1045.47"/>
<polygon fill="#9a32cd" stroke="#9a32cd" points="1170.08,-1224.48 1160.52,-1229.05 1170.84,-1231.43 1170.08,-1224.48"/>
<text text-anchor="middle" x="1329" y="-1220" font-family="Helvetica,sans-Serif" font-size="10.00"> tagName</text>
</g>
<!-- Node39 -->
<g id="node39" class="node">
<title>Node39</title>
<g id="a_node39"><a xlink:title=" ">
<polygon fill="white" stroke="#bfbfbf" points="1072.5,-1183.5 1072.5,-1202.5 1210.5,-1202.5 1210.5,-1183.5 1072.5,-1183.5"/>
<text text-anchor="middle" x="1141.5" y="-1190.5" font-family="Helvetica,sans-Serif" font-size="10.00">vector&lt; BlockFieldPair &gt;</text>
</a>
</g>
</g>
<!-- Node39&#45;&gt;Node31 -->
<g id="edge47" class="edge">
<title>Node39&#45;&gt;Node31</title>
<path fill="none" stroke="#9a32cd" stroke-dasharray="5,2" d="M1220.65,-1185.42C1293.05,-1178.05 1390.54,-1167.11 1397,-1161 1429.19,-1130.58 1384.39,-1095.01 1415,-1063 1423.84,-1053.76 1436.2,-1048.6 1448.66,-1045.83"/>
<polygon fill="#9a32cd" stroke="#9a32cd" points="1220.21,-1181.95 1210.61,-1186.43 1220.92,-1188.91 1220.21,-1181.95"/>
<text text-anchor="middle" x="1329" y="-1184" font-family="Helvetica,sans-Serif" font-size="10.00"> emptyFieldBlocks</text>
</g>
<!-- Node40 -->
<g id="node40" class="node">
<title>Node40</title>
<g id="a_node40"><a xlink:title=" ">
<polygon fill="white" stroke="#bfbfbf" points="1063.5,-1134 1063.5,-1164 1219.5,-1164 1219.5,-1134 1063.5,-1134"/>
<text text-anchor="start" x="1071.5" y="-1152" font-family="Helvetica,sans-Serif" font-size="10.00">shared_ptr&lt; MoFEM::</text>
<text text-anchor="middle" x="1141.5" y="-1141" font-family="Helvetica,sans-Serif" font-size="10.00">Problem::SubProblemData &gt;</text>
</a>
</g>
</g>
<!-- Node40&#45;&gt;Node31 -->
<g id="edge48" class="edge">
<title>Node40&#45;&gt;Node31</title>
<path fill="none" stroke="#9a32cd" stroke-dasharray="5,2" d="M1229.62,-1149.76C1293.05,-1148.51 1372.04,-1142.61 1397,-1122 1418.14,-1104.55 1394.95,-1081.7 1415,-1063 1424.24,-1054.38 1436.59,-1049.41 1448.91,-1046.6"/>
<polygon fill="#9a32cd" stroke="#9a32cd" points="1229.52,-1146.26 1219.58,-1149.92 1229.64,-1153.26 1229.52,-1146.26"/>
<text text-anchor="middle" x="1329" y="-1152" font-family="Helvetica,sans-Serif" font-size="10.00"> subProblemData</text>
</g>
<!-- Node41 -->
<g id="node41" class="node">
<title>Node41</title>
<g id="a_node41"><a xlink:title=" ">
<polygon fill="white" stroke="#bfbfbf" points="1040,-1095.5 1040,-1114.5 1243,-1114.5 1243,-1095.5 1040,-1095.5"/>
<text text-anchor="middle" x="1141.5" y="-1102.5" font-family="Helvetica,sans-Serif" font-size="10.00">shared_ptr&lt; SequenceDofContainer &gt;</text>
</a>
</g>
</g>
<!-- Node41&#45;&gt;Node31 -->
<g id="edge50" class="edge">
<title>Node41&#45;&gt;Node31</title>
<path fill="none" stroke="#9a32cd" stroke-dasharray="5,2" d="M1253.37,-1097.13C1298.52,-1092.14 1350.84,-1084.05 1397,-1071 1405.42,-1068.62 1406.7,-1065.77 1415,-1063 1425.87,-1059.37 1437.78,-1056.19 1449.08,-1053.52"/>
<polygon fill="#9a32cd" stroke="#9a32cd" points="1252.83,-1093.66 1243.25,-1098.21 1253.57,-1100.62 1252.83,-1093.66"/>
<text text-anchor="middle" x="1329" y="-1110" font-family="Helvetica,sans-Serif" font-size="10.00"> sequenceRowDofContainer</text>
<text text-anchor="middle" x="1329" y="-1099" font-family="Helvetica,sans-Serif" font-size="10.00">sequenceColDofContainer</text>
</g>
<!-- Node42 -->
<g id="node42" class="node">
<title>Node42</title>
<g id="a_node42"><a xlink:title=" ">
<polygon fill="white" stroke="#bfbfbf" points="1097.5,-969.5 1097.5,-988.5 1185.5,-988.5 1185.5,-969.5 1097.5,-969.5"/>
<text text-anchor="middle" x="1141.5" y="-976.5" font-family="Helvetica,sans-Serif" font-size="10.00">BitProblemId *</text>
</a>
</g>
</g>
<!-- Node42&#45;&gt;Node31 -->
<g id="edge51" class="edge">
<title>Node42&#45;&gt;Node31</title>
<path fill="none" stroke="#9a32cd" stroke-dasharray="5,2" d="M1195.68,-982.69C1247.53,-987 1328.37,-995.57 1397,-1011 1423.34,-1016.92 1452.57,-1026.92 1472.68,-1034.37"/>
<polygon fill="#9a32cd" stroke="#9a32cd" points="1195.96,-979.21 1185.71,-981.89 1195.4,-986.18 1195.96,-979.21"/>
<text text-anchor="middle" x="1329" y="-1014" font-family="Helvetica,sans-Serif" font-size="10.00"> tagId</text>
</g>
<!-- Node43 -->
<g id="node43" class="node">
<title>Node43</title>
<g id="a_node43"><a xlink:title=" ">
<polygon fill="white" stroke="#bfbfbf" points="1727,-765 1727,-795 1889,-795 1889,-765 1727,-765"/>
<text text-anchor="start" x="1735" y="-783" font-family="Helvetica,sans-Serif" font-size="10.00">shared_ptr&lt; const MoFEM</text>
<text text-anchor="middle" x="1808" y="-772" font-family="Helvetica,sans-Serif" font-size="10.00">::NumeredEntFiniteElement &gt;</text>
</a>
</g>
</g>
<!-- Node43&#45;&gt;Node5 -->
<g id="edge52" class="edge">
<title>Node43&#45;&gt;Node5</title>
<path fill="none" stroke="#9a32cd" stroke-dasharray="5,2" d="M1899.47,-781.48C1969.52,-782.63 2064.12,-784.18 2122.27,-785.14"/>
<polygon fill="#9a32cd" stroke="#9a32cd" points="1899.38,-777.98 1889.32,-781.32 1899.26,-784.98 1899.38,-777.98"/>
<text text-anchor="middle" x="1985" y="-788" font-family="Helvetica,sans-Serif" font-size="10.00"> numeredEntFiniteElementPtr</text>
</g>
<!-- Node44 -->
<g id="node44" class="node">
<title>Node44</title>
<g id="a_node44"><a xlink:title=" ">
<polygon fill="white" stroke="#bfbfbf" points="1786,-1017.5 1786,-1036.5 1830,-1036.5 1830,-1017.5 1786,-1017.5"/>
<text text-anchor="middle" x="1808" y="-1024.5" font-family="Helvetica,sans-Serif" font-size="10.00">string</text>
</a>
</g>
</g>
<!-- Node44&#45;&gt;Node3 -->
<g id="edge78" class="edge">
<title>Node44&#45;&gt;Node3</title>
<path fill="none" stroke="#9a32cd" stroke-dasharray="5,2" d="M1840.27,-1025.41C1858.93,-1026.27 1881.54,-1030.82 1895,-1046 1922.26,-1076.74 1884.2,-1200.7 1913,-1230 2026.68,-1345.65 2545.77,-1284.38 2741.77,-1256.45"/>
<polygon fill="#9a32cd" stroke="#9a32cd" points="1840.16,-1021.91 1830.11,-1025.27 1840.06,-1028.91 1840.16,-1021.91"/>
<text text-anchor="middle" x="2376" y="-1300" font-family="Helvetica,sans-Serif" font-size="10.00"> meshPositionsFieldName</text>
</g>
<!-- Node44&#45;&gt;Node5 -->
<g id="edge53" class="edge">
<title>Node44&#45;&gt;Node5</title>
<path fill="none" stroke="#9a32cd" stroke-dasharray="5,2" d="M1840.36,-1034.22C1893.13,-1044.32 1999.53,-1055.52 2057,-998 2081.51,-973.47 2055.88,-871.93 2075,-843 2090.76,-819.16 2120.12,-804.17 2142.96,-795.58"/>
<polygon fill="#9a32cd" stroke="#9a32cd" points="1840.75,-1030.73 1830.25,-1032.17 1839.36,-1037.59 1840.75,-1030.73"/>
<text text-anchor="middle" x="1985" y="-1046" font-family="Helvetica,sans-Serif" font-size="10.00"> feName</text>
</g>
<!-- Node45 -->
<g id="node45" class="node">
<title>Node45</title>
<g id="a_node45"><a xlink:title=" ">
<polygon fill="white" stroke="#bfbfbf" points="1726.5,-716 1726.5,-746 1889.5,-746 1889.5,-716 1726.5,-716"/>
<text text-anchor="start" x="1734.5" y="-734" font-family="Helvetica,sans-Serif" font-size="10.00">function&lt; bool(MoFEM</text>
<text text-anchor="middle" x="1808" y="-723" font-family="Helvetica,sans-Serif" font-size="10.00">::FEMethod *fe_method_ptr)&gt;</text>
</a>
</g>
</g>
<!-- Node45&#45;&gt;Node5 -->
<g id="edge54" class="edge">
<title>Node45&#45;&gt;Node5</title>
<path fill="none" stroke="#9a32cd" stroke-dasharray="5,2" d="M1899.89,-743.85C1946.83,-750.57 2005.01,-759.04 2057,-767 2078.43,-770.28 2102.03,-774.05 2122.45,-777.36"/>
<polygon fill="#9a32cd" stroke="#9a32cd" points="1900.14,-740.35 1889.74,-742.4 1899.15,-747.28 1900.14,-740.35"/>
<text text-anchor="middle" x="1985" y="-770" font-family="Helvetica,sans-Serif" font-size="10.00"> exeTestHook</text>
</g>
<!-- Node46 -->
<g id="node46" class="node">
<title>Node46</title>
<g id="a_node46"><a xlink:href="classdouble.html" target="_top" xlink:title=" ">
<polygon fill="white" stroke="black" points="2151,-1219.5 2151,-1238.5 2201,-1238.5 2201,-1219.5 2151,-1219.5"/>
<text text-anchor="middle" x="2176" y="-1226.5" font-family="Helvetica,sans-Serif" font-size="10.00">double</text>
</a>
</g>
</g>
<!-- Node46&#45;&gt;Node3 -->
<g id="edge76" class="edge">
<title>Node46&#45;&gt;Node3</title>
<path fill="none" stroke="#9a32cd" stroke-dasharray="5,2" d="M2211.45,-1229.86C2311.34,-1232.36 2602.86,-1239.65 2741.74,-1243.12"/>
<polygon fill="#9a32cd" stroke="#9a32cd" points="2211.39,-1226.36 2201.31,-1229.61 2211.22,-1233.36 2211.39,-1226.36"/>
<text text-anchor="middle" x="2560" y="-1244" font-family="Helvetica,sans-Serif" font-size="10.00"> aRea</text>
</g>
<!-- Node46&#45;&gt;Node4 -->
<g id="edge55" class="edge">
<title>Node46&#45;&gt;Node4</title>
<path fill="none" stroke="#9a32cd" stroke-dasharray="5,2" d="M2210.97,-1223.71C2230.44,-1220.39 2255.26,-1215.66 2277,-1210 2285.16,-1207.87 2286.79,-1205.93 2295,-1204 2365.78,-1187.32 2395.4,-1219.65 2457,-1181 2513.53,-1145.53 2545.95,-1065.97 2555.78,-1038.52"/>
<polygon fill="#9a32cd" stroke="#9a32cd" points="2210.33,-1220.27 2201.04,-1225.36 2211.48,-1227.17 2210.33,-1220.27"/>
<text text-anchor="middle" x="2376" y="-1207" font-family="Helvetica,sans-Serif" font-size="10.00"> elementMeasure</text>
</g>
<!-- Node47 -->
<g id="node47" class="node">
<title>Node47</title>
<g id="a_node47"><a xlink:title=" ">
<polygon fill="white" stroke="#bfbfbf" points="2090,-1159.5 2090,-1200.5 2262,-1200.5 2262,-1159.5 2090,-1159.5"/>
<text text-anchor="start" x="2098" y="-1188.5" font-family="Helvetica,sans-Serif" font-size="10.00">array&lt; boost::shared</text>
<text text-anchor="start" x="2098" y="-1177.5" font-family="Helvetica,sans-Serif" font-size="10.00">_ptr&lt; MoFEM::EntitiesFieldData</text>
<text text-anchor="middle" x="2176" y="-1166.5" font-family="Helvetica,sans-Serif" font-size="10.00"> &gt;, LASTSPACE &gt;</text>
</a>
</g>
</g>
<!-- Node47&#45;&gt;Node4 -->
<g id="edge56" class="edge">
<title>Node47&#45;&gt;Node4</title>
<path fill="none" stroke="#9a32cd" stroke-dasharray="5,2" d="M2271.91,-1162.81C2279.71,-1161.49 2287.49,-1160.2 2295,-1159 2366.81,-1147.52 2392.33,-1169.27 2457,-1136 2502.64,-1112.52 2539.22,-1060.42 2553.04,-1038.75"/>
<polygon fill="#9a32cd" stroke="#9a32cd" points="2271.28,-1159.37 2262.02,-1164.5 2272.46,-1166.27 2271.28,-1159.37"/>
<text text-anchor="middle" x="2376" y="-1173" font-family="Helvetica,sans-Serif" font-size="10.00"> derivedDataOnElement</text>
<text text-anchor="middle" x="2376" y="-1162" font-family="Helvetica,sans-Serif" font-size="10.00">dataOnElement</text>
</g>
<!-- Node48 -->
<g id="node48" class="node">
<title>Node48</title>
<g id="a_node48"><a xlink:title=" ">
<polygon fill="white" stroke="#bfbfbf" points="2142,-1121.5 2142,-1140.5 2210,-1140.5 2210,-1121.5 2142,-1121.5"/>
<text text-anchor="middle" x="2176" y="-1128.5" font-family="Helvetica,sans-Serif" font-size="10.00">EntityType</text>
</a>
</g>
</g>
<!-- Node48&#45;&gt;Node4 -->
<g id="edge57" class="edge">
<title>Node48&#45;&gt;Node4</title>
<path fill="none" stroke="#9a32cd" stroke-dasharray="5,2" d="M2220.32,-1129.22C2287.85,-1126 2414.81,-1117.98 2457,-1102 2495.28,-1087.49 2532.35,-1054.92 2549.34,-1038.65"/>
<polygon fill="#9a32cd" stroke="#9a32cd" points="2219.85,-1125.74 2210.02,-1129.7 2220.17,-1132.73 2219.85,-1125.74"/>
<text text-anchor="middle" x="2376" y="-1128" font-family="Helvetica,sans-Serif" font-size="10.00"> lastEvaluatedElementEntityType</text>
</g>
<!-- Node49 -->
<g id="node49" class="node">
<title>Node49</title>
<g id="a_node49"><a xlink:href="structMoFEM_1_1DeprecatedCoreInterface.html" target="_top" xlink:title="Deprecated interface functions.">
<polygon fill="white" stroke="black" points="2085.5,-1388.5 2085.5,-1407.5 2266.5,-1407.5 2266.5,-1388.5 2085.5,-1388.5"/>
<text text-anchor="middle" x="2176" y="-1395.5" font-family="Helvetica,sans-Serif" font-size="10.00">MoFEM::DeprecatedCoreInterface</text>
</a>
</g>
</g>
<!-- Node49&#45;&gt;Node1 -->
<g id="edge80" class="edge">
<title>Node49&#45;&gt;Node1</title>
<path fill="none" stroke="#9a32cd" stroke-dasharray="5,2" d="M2276.72,-1398C2353.8,-1398 2463.16,-1398 2559,-1398 2559,-1398 2559,-1398 3009.5,-1398 3100.4,-1398 3186.82,-1312.28 3213.84,-1282.81"/>
<polygon fill="#9a32cd" stroke="#9a32cd" points="2276.53,-1394.5 2266.53,-1398 2276.53,-1401.5 2276.53,-1394.5"/>
<text text-anchor="middle" x="2818" y="-1401" font-family="Helvetica,sans-Serif" font-size="10.00"> mField</text>
</g>
<!-- Node49&#45;&gt;Node4 -->
<g id="edge58" class="edge">
<title>Node49&#45;&gt;Node4</title>
<path fill="none" stroke="#9a32cd" stroke-dasharray="5,2" d="M2187.9,-1379.69C2206.26,-1350.49 2246.15,-1293.55 2295,-1263 2358.26,-1223.44 2398.6,-1265.43 2457,-1219 2519.72,-1169.14 2548.86,-1069.87 2556.73,-1038.64"/>
<polygon fill="#9a32cd" stroke="#9a32cd" points="2184.77,-1378.1 2182.52,-1388.45 2190.74,-1381.76 2184.77,-1378.1"/>
<text text-anchor="middle" x="2376" y="-1266" font-family="Helvetica,sans-Serif" font-size="10.00"> mField</text>
</g>
<!-- Node50&#45;&gt;Node49 -->
<g id="edge59" class="edge">
<title>Node50&#45;&gt;Node49</title>
<path fill="none" stroke="midnightblue" d="M1402.08,-1398C1556.1,-1398 1916.95,-1398 2085.41,-1398"/>
<polygon fill="midnightblue" stroke="midnightblue" points="1401.79,-1394.5 1391.79,-1398 1401.79,-1401.5 1401.79,-1394.5"/>
</g>
<!-- Node51 -->
<g id="node51" class="node">
<title>Node51</title>
<g id="a_node51"><a xlink:title=" ">
<polygon fill="white" stroke="#bfbfbf" points="2092.5,-1012 2092.5,-1064 2259.5,-1064 2259.5,-1012 2092.5,-1012"/>
<text text-anchor="start" x="2100.5" y="-1052" font-family="Helvetica,sans-Serif" font-size="10.00">function&lt; MoFEMErrorCode</text>
<text text-anchor="start" x="2100.5" y="-1041" font-family="Helvetica,sans-Serif" font-size="10.00">(ForcesAndSourcesCore *fe</text>
<text text-anchor="start" x="2100.5" y="-1030" font-family="Helvetica,sans-Serif" font-size="10.00">_raw_ptr, int order_row,</text>
<text text-anchor="middle" x="2176" y="-1019" font-family="Helvetica,sans-Serif" font-size="10.00"> int order_col, int order_data)&gt;</text>
</a>
</g>
</g>
<!-- Node51&#45;&gt;Node4 -->
<g id="edge62" class="edge">
<title>Node51&#45;&gt;Node4</title>
<path fill="none" stroke="#9a32cd" stroke-dasharray="5,2" d="M2269.77,-1016.45C2278.26,-1015.05 2286.77,-1013.86 2295,-1013 2366.61,-1005.5 2385.22,-1007.4 2457,-1013 2473.8,-1014.31 2492.01,-1016.81 2508.34,-1019.46"/>
<polygon fill="#9a32cd" stroke="#9a32cd" points="2269.07,-1013.02 2259.82,-1018.19 2270.27,-1019.92 2269.07,-1013.02"/>
<text text-anchor="middle" x="2376" y="-1016" font-family="Helvetica,sans-Serif" font-size="10.00"> setRuleHook</text>
</g>
<!-- Node52 -->
<g id="node52" class="node">
<title>Node52</title>
<g id="a_node52"><a xlink:title=" ">
<polygon fill="white" stroke="#bfbfbf" points="2075,-963 2075,-993 2277,-993 2277,-963 2075,-963"/>
<text text-anchor="start" x="2083" y="-981" font-family="Helvetica,sans-Serif" font-size="10.00">ptr_deque&lt; MoFEM::Forces</text>
<text text-anchor="middle" x="2176" y="-970" font-family="Helvetica,sans-Serif" font-size="10.00">AndSourcesCore::UserDataOperator &gt;</text>
</a>
</g>
</g>
<!-- Node52&#45;&gt;Node4 -->
<g id="edge63" class="edge">
<title>Node52&#45;&gt;Node4</title>
<path fill="none" stroke="#9a32cd" stroke-dasharray="5,2" d="M2287.51,-977.38C2339.38,-978.85 2401.79,-983.16 2457,-994 2485.29,-999.55 2516.46,-1011.09 2536.8,-1019.4"/>
<polygon fill="#9a32cd" stroke="#9a32cd" points="2287.37,-973.87 2277.29,-977.12 2287.19,-980.87 2287.37,-973.87"/>
<text text-anchor="middle" x="2376" y="-997" font-family="Helvetica,sans-Serif" font-size="10.00"> opPtrVector</text>
</g>
<!-- Node53 -->
<g id="node53" class="node">
<title>Node53</title>
<g id="a_node53"><a xlink:href="structMoFEM_1_1EntitiesFieldData.html" target="_top" xlink:title="data structure for finite element entity">
<polygon fill="white" stroke="black" points="2105,-1083.5 2105,-1102.5 2247,-1102.5 2247,-1083.5 2105,-1083.5"/>
<text text-anchor="middle" x="2176" y="-1090.5" font-family="Helvetica,sans-Serif" font-size="10.00">MoFEM::EntitiesFieldData</text>
</a>
</g>
</g>
<!-- Node53&#45;&gt;Node4 -->
<g id="edge64" class="edge">
<title>Node53&#45;&gt;Node4</title>
<path fill="none" stroke="#9a32cd" stroke-dasharray="5,2" d="M2256.99,-1082.92C2264.05,-1080.3 2270.85,-1077.04 2277,-1073 2288.75,-1065.28 2282.78,-1053.94 2295,-1047 2324.76,-1030.09 2409.31,-1026.77 2474.79,-1026.94"/>
<polygon fill="#9a32cd" stroke="#9a32cd" points="2255.64,-1079.68 2247.22,-1086.11 2257.81,-1086.33 2255.64,-1079.68"/>
<text text-anchor="middle" x="2376" y="-1094" font-family="Helvetica,sans-Serif" font-size="10.00"> dataNoField</text>
<text text-anchor="middle" x="2376" y="-1083" font-family="Helvetica,sans-Serif" font-size="10.00">dataL2</text>
<text text-anchor="middle" x="2376" y="-1072" font-family="Helvetica,sans-Serif" font-size="10.00">dataH1</text>
<text text-anchor="middle" x="2376" y="-1061" font-family="Helvetica,sans-Serif" font-size="10.00">dataHcurl</text>
<text text-anchor="middle" x="2376" y="-1050" font-family="Helvetica,sans-Serif" font-size="10.00">dataHdiv</text>
</g>
<!-- Node54 -->
<g id="node54" class="node">
<title>Node54</title>
<g id="a_node54"><a xlink:title=" ">
<polygon fill="white" stroke="#bfbfbf" points="1727,-1056 1727,-1086 1889,-1086 1889,-1056 1727,-1056"/>
<text text-anchor="start" x="1735" y="-1074" font-family="Helvetica,sans-Serif" font-size="10.00">array&lt; std::bitset</text>
<text text-anchor="middle" x="1808" y="-1063" font-family="Helvetica,sans-Serif" font-size="10.00">&lt; LASTBASE &gt;, LASTSPACE &gt;</text>
</a>
</g>
</g>
<!-- Node54&#45;&gt;Node53 -->
<g id="edge65" class="edge">
<title>Node54&#45;&gt;Node53</title>
<path fill="none" stroke="#9a32cd" stroke-dasharray="5,2" d="M1899.21,-1067.02C1946.33,-1065.94 2004.88,-1066.18 2057,-1071 2082.94,-1073.4 2111.68,-1078.7 2134.3,-1083.5"/>
<polygon fill="#9a32cd" stroke="#9a32cd" points="1898.94,-1063.52 1889.03,-1067.27 1899.11,-1070.52 1898.94,-1063.52"/>
<text text-anchor="middle" x="1985" y="-1085" font-family="Helvetica,sans-Serif" font-size="10.00"> brokenBasesOnSpaces</text>
<text text-anchor="middle" x="1985" y="-1074" font-family="Helvetica,sans-Serif" font-size="10.00">basesOnSpaces</text>
</g>
<!-- Node55 -->
<g id="node55" class="node">
<title>Node55</title>
<g id="a_node55"><a xlink:title=" ">
<polygon fill="white" stroke="#bfbfbf" points="1731.5,-957.5 1731.5,-998.5 1884.5,-998.5 1884.5,-957.5 1731.5,-957.5"/>
<text text-anchor="start" x="1739.5" y="-986.5" font-family="Helvetica,sans-Serif" font-size="10.00">array&lt; boost::ptr_vector</text>
<text text-anchor="start" x="1739.5" y="-975.5" font-family="Helvetica,sans-Serif" font-size="10.00">&lt; MoFEM::EntitiesFieldData</text>
<text text-anchor="middle" x="1808" y="-964.5" font-family="Helvetica,sans-Serif" font-size="10.00">::EntData &gt;, MBMAXTYPE &gt;</text>
</a>
</g>
</g>
<!-- Node55&#45;&gt;Node53 -->
<g id="edge66" class="edge">
<title>Node55&#45;&gt;Node53</title>
<path fill="none" stroke="#9a32cd" stroke-dasharray="5,2" d="M1894.64,-956.77C1947.33,-949.07 2012.98,-949.89 2057,-987 2086.86,-1012.17 2047.26,-1045.51 2075,-1073 2083.24,-1081.16 2093.8,-1086.46 2104.97,-1089.82"/>
<polygon fill="#9a32cd" stroke="#9a32cd" points="1893.95,-953.33 1884.62,-958.36 1895.05,-960.25 1893.95,-953.33"/>
<text text-anchor="middle" x="1985" y="-990" font-family="Helvetica,sans-Serif" font-size="10.00"> dataOnEntities</text>
</g>
<!-- Node56 -->
<g id="node56" class="node">
<title>Node56</title>
<g id="a_node56"><a xlink:title=" ">
<polygon fill="white" stroke="#bfbfbf" points="1721,-908 1721,-938 1895,-938 1895,-908 1721,-908"/>
<text text-anchor="start" x="1729" y="-926" font-family="Helvetica,sans-Serif" font-size="10.00">array&lt; std::bitset</text>
<text text-anchor="middle" x="1808" y="-915" font-family="Helvetica,sans-Serif" font-size="10.00">&lt; LASTSPACE &gt;, MBMAXTYPE &gt;</text>
</a>
</g>
</g>
<!-- Node56&#45;&gt;Node53 -->
<g id="edge67" class="edge">
<title>Node56&#45;&gt;Node53</title>
<path fill="none" stroke="#9a32cd" stroke-dasharray="5,2" d="M1876.03,-906.08C1931.74,-896.38 2009.36,-893.68 2057,-938 2101.32,-979.23 2033.61,-1028.83 2075,-1073 2083.05,-1081.59 2093.67,-1087.07 2104.97,-1090.47"/>
<polygon fill="#9a32cd" stroke="#9a32cd" points="1875.08,-902.7 1865.89,-907.97 1876.36,-909.58 1875.08,-902.7"/>
<text text-anchor="middle" x="1985" y="-941" font-family="Helvetica,sans-Serif" font-size="10.00"> spacesOnEntities</text>
</g>
<!-- Node57 -->
<g id="node57" class="node">
<title>Node57</title>
<g id="a_node57"><a xlink:title=" ">
<polygon fill="white" stroke="#bfbfbf" points="1723.5,-1183 1723.5,-1213 1892.5,-1213 1892.5,-1183 1723.5,-1183"/>
<text text-anchor="start" x="1731.5" y="-1201" font-family="Helvetica,sans-Serif" font-size="10.00">array&lt; std::bitset</text>
<text text-anchor="middle" x="1808" y="-1190" font-family="Helvetica,sans-Serif" font-size="10.00">&lt; LASTBASE &gt;, MBMAXTYPE &gt;</text>
</a>
</g>
</g>
<!-- Node57&#45;&gt;Node53 -->
<g id="edge68" class="edge">
<title>Node57&#45;&gt;Node53</title>
<path fill="none" stroke="#9a32cd" stroke-dasharray="5,2" d="M1902.8,-1213.6C1953.81,-1216.7 2014.9,-1210.93 2057,-1176 2079.74,-1157.13 2053.22,-1131.97 2075,-1112 2083.4,-1104.3 2093.92,-1099.27 2104.95,-1096.06"/>
<polygon fill="#9a32cd" stroke="#9a32cd" points="1902.97,-1210.11 1892.74,-1212.87 1902.46,-1217.09 1902.97,-1210.11"/>
<text text-anchor="middle" x="1985" y="-1218" font-family="Helvetica,sans-Serif" font-size="10.00"> basesOnEntities</text>
</g>
<!-- Node58 -->
<g id="node58" class="node">
<title>Node58</title>
<g id="a_node58"><a xlink:title=" ">
<polygon fill="white" stroke="#bfbfbf" points="1752,-1143.5 1752,-1162.5 1864,-1162.5 1864,-1143.5 1752,-1143.5"/>
<text text-anchor="middle" x="1808" y="-1150.5" font-family="Helvetica,sans-Serif" font-size="10.00">UBlasMatrix&lt; int &gt;</text>
</a>
</g>
</g>
<!-- Node58&#45;&gt;Node53 -->
<g id="edge69" class="edge">
<title>Node58&#45;&gt;Node53</title>
<path fill="none" stroke="#9a32cd" stroke-dasharray="5,2" d="M1874.66,-1153.62C1925.8,-1152.15 1997.81,-1145.75 2057,-1124 2066.02,-1120.68 2066.1,-1115.64 2075,-1112 2084.49,-1108.12 2094.81,-1105.03 2105.1,-1102.56"/>
<polygon fill="#9a32cd" stroke="#9a32cd" points="1874.32,-1150.12 1864.4,-1153.85 1874.48,-1157.12 1874.32,-1150.12"/>
<text text-anchor="middle" x="1985" y="-1166" font-family="Helvetica,sans-Serif" font-size="10.00"> facesNodesOrder</text>
<text text-anchor="middle" x="1985" y="-1155" font-family="Helvetica,sans-Serif" font-size="10.00">facesNodes</text>
</g>
<!-- Node59 -->
<g id="node59" class="node">
<title>Node59</title>
<g id="a_node59"><a xlink:title=" ">
<polygon fill="white" stroke="#bfbfbf" points="1749.5,-1105.5 1749.5,-1124.5 1866.5,-1124.5 1866.5,-1105.5 1749.5,-1105.5"/>
<text text-anchor="middle" x="1808" y="-1112.5" font-family="Helvetica,sans-Serif" font-size="10.00">bitset&lt; LASTBASE &gt;</text>
</a>
</g>
</g>
<!-- Node59&#45;&gt;Node53 -->
<g id="edge70" class="edge">
<title>Node59&#45;&gt;Node53</title>
<path fill="none" stroke="#9a32cd" stroke-dasharray="5,2" d="M1876.72,-1110.93C1941.64,-1107.03 2039.22,-1101.16 2104.92,-1097.21"/>
<polygon fill="#9a32cd" stroke="#9a32cd" points="1876.36,-1107.44 1866.59,-1111.54 1876.78,-1114.43 1876.36,-1107.44"/>
<text text-anchor="middle" x="1985" y="-1112" font-family="Helvetica,sans-Serif" font-size="10.00"> bAse</text>
</g>
<!-- Node60 -->
<g id="node60" class="node">
<title>Node60</title>
<g id="a_node60"><a xlink:title=" ">
<polygon fill="white" stroke="#bfbfbf" points="2113.5,-902.5 2113.5,-943.5 2238.5,-943.5 2238.5,-902.5 2113.5,-902.5"/>
<text text-anchor="start" x="2121.5" y="-931.5" font-family="Helvetica,sans-Serif" font-size="10.00">function&lt; int(int order</text>
<text text-anchor="start" x="2121.5" y="-920.5" font-family="Helvetica,sans-Serif" font-size="10.00">_row, int order_col, int</text>
<text text-anchor="middle" x="2176" y="-909.5" font-family="Helvetica,sans-Serif" font-size="10.00"> order_data)&gt;</text>
</a>
</g>
</g>
<!-- Node60&#45;&gt;Node4 -->
<g id="edge71" class="edge">
<title>Node60&#45;&gt;Node4</title>
<path fill="none" stroke="#9a32cd" stroke-dasharray="5,2" d="M2248.82,-924.79C2306.66,-928.22 2389.21,-937.63 2457,-963 2493.15,-976.53 2529.74,-1004.44 2547.67,-1019.26"/>
<polygon fill="#9a32cd" stroke="#9a32cd" points="2248.85,-921.29 2238.67,-924.24 2248.47,-928.28 2248.85,-921.29"/>
<text text-anchor="middle" x="2376" y="-966" font-family="Helvetica,sans-Serif" font-size="10.00"> getRuleHook</text>
</g>
<!-- Node61 -->
<g id="node61" class="node">
<title>Node61</title>
<g id="a_node61"><a xlink:title=" ">
<polygon fill="white" stroke="#bfbfbf" points="2115,-853 2115,-883 2237,-883 2237,-853 2115,-853"/>
<text text-anchor="start" x="2123" y="-871" font-family="Helvetica,sans-Serif" font-size="10.00">shared_ptr&lt; MoFEM::</text>
<text text-anchor="middle" x="2176" y="-860" font-family="Helvetica,sans-Serif" font-size="10.00">BaseFunction &gt;</text>
</a>
</g>
</g>
<!-- Node61&#45;&gt;Node4 -->
<g id="edge72" class="edge">
<title>Node61&#45;&gt;Node4</title>
<path fill="none" stroke="#9a32cd" stroke-dasharray="5,2" d="M2247.29,-863.06C2306.77,-862.01 2392.4,-868.11 2457,-904 2507.19,-931.89 2542.41,-995.27 2554.44,-1019.41"/>
<polygon fill="#9a32cd" stroke="#9a32cd" points="2247.14,-859.56 2237.23,-863.31 2247.32,-866.56 2247.14,-859.56"/>
<text text-anchor="middle" x="2376" y="-918" font-family="Helvetica,sans-Serif" font-size="10.00"> userPolynomialBasePtr</text>
<text text-anchor="middle" x="2376" y="-907" font-family="Helvetica,sans-Serif" font-size="10.00">elementPolynomialBasePtr</text>
</g>
<!-- Node62 -->
<g id="node62" class="node">
<title>Node62</title>
<g id="a_node62"><a xlink:href="classUBlasMatrix_3_01double_01_4.html" target="_top" xlink:title=" ">
<polygon fill="white" stroke="black" points="2110,-738.5 2110,-757.5 2242,-757.5 2242,-738.5 2110,-738.5"/>
<text text-anchor="middle" x="2176" y="-745.5" font-family="Helvetica,sans-Serif" font-size="10.00">UBlasMatrix&lt; double &gt;</text>
</a>
</g>
</g>
<!-- Node62&#45;&gt;Node3 -->
<g id="edge79" class="edge">
<title>Node62&#45;&gt;Node3</title>
<path fill="none" stroke="#9a32cd" stroke-dasharray="5,2" d="M2220.62,-735.94C2326.92,-709.53 2599.66,-660.22 2724,-810 2779.37,-876.7 2809.15,-1160.95 2815.64,-1229.89"/>
<polygon fill="#9a32cd" stroke="#9a32cd" points="2219.7,-732.57 2210.87,-738.42 2221.42,-739.35 2219.7,-732.57"/>
<text text-anchor="middle" x="2560" y="-772" font-family="Helvetica,sans-Serif" font-size="10.00"> tangentOneAtGaussPts</text>
<text text-anchor="middle" x="2560" y="-761" font-family="Helvetica,sans-Serif" font-size="10.00">tangentTwoAtGaussPts</text>
<text text-anchor="middle" x="2560" y="-750" font-family="Helvetica,sans-Serif" font-size="10.00">normalsAtGaussPts</text>
</g>
<!-- Node62&#45;&gt;Node4 -->
<g id="edge73" class="edge">
<title>Node62&#45;&gt;Node4</title>
<path fill="none" stroke="#9a32cd" stroke-dasharray="5,2" d="M2252.32,-758.39C2333.86,-769.78 2452.92,-786.85 2457,-790 2535.16,-850.43 2554.24,-982.38 2558.12,-1019.25"/>
<polygon fill="#9a32cd" stroke="#9a32cd" points="2252.47,-754.88 2242.08,-756.97 2251.5,-761.81 2252.47,-754.88"/>
<text text-anchor="middle" x="2376" y="-804" font-family="Helvetica,sans-Serif" font-size="10.00"> coordsAtGaussPts</text>
<text text-anchor="middle" x="2376" y="-793" font-family="Helvetica,sans-Serif" font-size="10.00">gaussPts</text>
</g>
<!-- Node63 -->
<g id="node63" class="node">
<title>Node63</title>
<g id="a_node63"><a xlink:href="classUBlasVector_3_01double_01_4.html" target="_top" xlink:title=" ">
<polygon fill="white" stroke="black" points="2494.5,-1296.5 2494.5,-1315.5 2625.5,-1315.5 2625.5,-1296.5 2494.5,-1296.5"/>
<text text-anchor="middle" x="2560" y="-1303.5" font-family="Helvetica,sans-Serif" font-size="10.00">UBlasVector&lt; double &gt;</text>
</a>
</g>
</g>
<!-- Node63&#45;&gt;Node3 -->
<g id="edge74" class="edge">
<title>Node63&#45;&gt;Node3</title>
<path fill="none" stroke="#9a32cd" stroke-dasharray="5,2" d="M2635.93,-1296.58C2663.82,-1292.29 2695.59,-1286.48 2724,-1279 2743.12,-1273.97 2763.83,-1266.6 2780.84,-1260"/>
<polygon fill="#9a32cd" stroke="#9a32cd" points="2635.21,-1293.15 2625.84,-1298.09 2636.25,-1300.07 2635.21,-1293.15"/>
<text text-anchor="middle" x="2693.5" y="-1328" font-family="Helvetica,sans-Serif" font-size="10.00"> tangentOne</text>
<text text-anchor="middle" x="2693.5" y="-1317" font-family="Helvetica,sans-Serif" font-size="10.00">tangentTwo</text>
<text text-anchor="middle" x="2693.5" y="-1306" font-family="Helvetica,sans-Serif" font-size="10.00">nOrmal</text>
<text text-anchor="middle" x="2693.5" y="-1295" font-family="Helvetica,sans-Serif" font-size="10.00">coords</text>
</g>
<!-- Node64 -->
<g id="node64" class="node">
<title>Node64</title>
<g id="a_node64"><a xlink:title=" ">
<polygon fill="white" stroke="#bfbfbf" points="2931,-1236 2931,-1266 3086,-1266 3086,-1236 2931,-1236"/>
<text text-anchor="start" x="2939" y="-1254" font-family="Helvetica,sans-Serif" font-size="10.00">ptr_vector&lt; MethodForForce</text>
<text text-anchor="middle" x="3008.5" y="-1243" font-family="Helvetica,sans-Serif" font-size="10.00">Scaling &gt;</text>
</a>
</g>
</g>
<!-- Node64&#45;&gt;Node1 -->
<g id="edge81" class="edge">
<title>Node64&#45;&gt;Node1</title>
<path fill="none" stroke="#9a32cd" stroke-dasharray="5,2" d="M3096.23,-1258.16C3118.35,-1260.18 3142.07,-1262.51 3164,-1265 3169.81,-1265.66 3175.93,-1266.42 3181.93,-1267.21"/>
<polygon fill="#9a32cd" stroke="#9a32cd" points="3096.46,-1254.67 3086.19,-1257.25 3095.84,-1261.64 3096.46,-1254.67"/>
<text text-anchor="middle" x="3134" y="-1268" font-family="Helvetica,sans-Serif" font-size="10.00"> methodsOp</text>
</g>
<!-- Node65 -->
<g id="node65" class="node">
<title>Node65</title>
<g id="a_node65"><a xlink:title=" ">
<polygon fill="white" stroke="#bfbfbf" points="2941.5,-1187 2941.5,-1217 3075.5,-1217 3075.5,-1187 2941.5,-1187"/>
<text text-anchor="start" x="2949.5" y="-1205" font-family="Helvetica,sans-Serif" font-size="10.00">map&lt; int, FluidPressure</text>
<text text-anchor="middle" x="3008.5" y="-1194" font-family="Helvetica,sans-Serif" font-size="10.00">::FluidData &gt;</text>
</a>
</g>
</g>
<!-- Node65&#45;&gt;Node1 -->
<g id="edge82" class="edge">
<title>Node65&#45;&gt;Node1</title>
<path fill="none" stroke="#9a32cd" stroke-dasharray="5,2" d="M3085.7,-1219.57C3110.96,-1226.22 3138.99,-1234.51 3164,-1244 3178.41,-1249.47 3194.02,-1257.31 3205.49,-1263.46"/>
<polygon fill="#9a32cd" stroke="#9a32cd" points="3086.36,-1216.12 3075.8,-1217 3084.61,-1222.9 3086.36,-1216.12"/>
<text text-anchor="middle" x="3134" y="-1247" font-family="Helvetica,sans-Serif" font-size="10.00"> setOfFluids</text>
</g>
</g>
</svg>
