<?xml version="1.0" encoding="UTF-8" standalone="no"?>
<!DOCTYPE svg PUBLIC "-//W3C//DTD SVG 1.1//EN"
 "http://www.w3.org/Graphics/SVG/1.1/DTD/svg11.dtd">
<!-- Generated by graphviz version 2.43.0 (0)
 -->
<!-- Title: CellEngineering::OpCalulatefRhoAtGaussPts Pages: 1 -->
<svg width="3437pt" height="1639pt"
 viewBox="0.00 0.00 3437.00 1639.43" xmlns="http://www.w3.org/2000/svg" xmlns:xlink="http://www.w3.org/1999/xlink">
<g id="graph0" class="graph" transform="scale(1 1) rotate(0) translate(4 1635.43)">
<title>CellEngineering::OpCalulatefRhoAtGaussPts</title>
<polygon fill="white" stroke="transparent" points="-4,4 -4,-1635.43 3433,-1635.43 3433,4 -4,4"/>
<!-- Node1 -->
<g id="node1" class="node">
<title>Node1</title>
<g id="a_node1"><a xlink:title=" ">
<polygon fill="#bfbfbf" stroke="black" points="3272,-381.43 3272,-411.43 3429,-411.43 3429,-381.43 3272,-381.43"/>
<text text-anchor="start" x="3280" y="-399.43" font-family="Helvetica,sans-Serif" font-size="10.00">CellEngineering::OpCalulatef</text>
<text text-anchor="middle" x="3350.5" y="-388.43" font-family="Helvetica,sans-Serif" font-size="10.00">RhoAtGaussPts</text>
</a>
</g>
</g>
<!-- Node2 -->
<g id="node2" class="node">
<title>Node2</title>
<g id="a_node2"><a xlink:href="structMoFEM_1_1FaceElementForcesAndSourcesCore_1_1UserDataOperator.html" target="_top" xlink:title="default operator for TRI element">
<polygon fill="white" stroke="black" points="3044,-490.43 3044,-520.43 3235,-520.43 3235,-490.43 3044,-490.43"/>
<text text-anchor="start" x="3052" y="-508.43" font-family="Helvetica,sans-Serif" font-size="10.00">MoFEM::FaceElementForces</text>
<text text-anchor="middle" x="3139.5" y="-497.43" font-family="Helvetica,sans-Serif" font-size="10.00">AndSourcesCore::UserDataOperator</text>
</a>
</g>
</g>
<!-- Node2&#45;&gt;Node1 -->
<g id="edge1" class="edge">
<title>Node2&#45;&gt;Node1</title>
<path fill="none" stroke="midnightblue" d="M3178.43,-485.65C3219.37,-464.3 3283.68,-430.76 3320.69,-411.46"/>
<polygon fill="midnightblue" stroke="midnightblue" points="3176.81,-482.55 3169.56,-490.28 3180.05,-488.76 3176.81,-482.55"/>
</g>
<!-- Node3 -->
<g id="node3" class="node">
<title>Node3</title>
<g id="a_node3"><a xlink:href="structMoFEM_1_1ForcesAndSourcesCore_1_1UserDataOperator.html" target="_top" xlink:title=" ">
<polygon fill="white" stroke="black" points="2837,-555.43 2837,-585.43 3007,-585.43 3007,-555.43 2837,-555.43"/>
<text text-anchor="start" x="2845" y="-573.43" font-family="Helvetica,sans-Serif" font-size="10.00">MoFEM::ForcesAndSourcesCore</text>
<text text-anchor="middle" x="2922" y="-562.43" font-family="Helvetica,sans-Serif" font-size="10.00">::UserDataOperator</text>
</a>
</g>
</g>
<!-- Node3&#45;&gt;Node2 -->
<g id="edge2" class="edge">
<title>Node3&#45;&gt;Node2</title>
<path fill="none" stroke="midnightblue" d="M2982.59,-552.46C3015.85,-542.43 3056.82,-530.07 3088.42,-520.54"/>
<polygon fill="midnightblue" stroke="midnightblue" points="2981.54,-549.12 2972.98,-555.36 2983.57,-555.82 2981.54,-549.12"/>
</g>
<!-- Node4 -->
<g id="node4" class="node">
<title>Node4</title>
<g id="a_node4"><a xlink:href="structMoFEM_1_1DataOperator.html" target="_top" xlink:title="base operator to do operations at Gauss Pt. level">
<polygon fill="white" stroke="black" points="2579.5,-1348.93 2579.5,-1367.93 2704.5,-1367.93 2704.5,-1348.93 2579.5,-1348.93"/>
<text text-anchor="middle" x="2642" y="-1355.93" font-family="Helvetica,sans-Serif" font-size="10.00">MoFEM::DataOperator</text>
</a>
</g>
</g>
<!-- Node4&#45;&gt;Node3 -->
<g id="edge3" class="edge">
<title>Node4&#45;&gt;Node3</title>
<path fill="none" stroke="midnightblue" d="M2649.75,-1339.29C2688.4,-1229.73 2881.1,-683.53 2915.68,-585.51"/>
<polygon fill="midnightblue" stroke="midnightblue" points="2646.44,-1338.16 2646.41,-1348.75 2653.04,-1340.49 2646.44,-1338.16"/>
</g>
<!-- Node5 -->
<g id="node5" class="node">
<title>Node5</title>
<g id="a_node5"><a xlink:title=" ">
<polygon fill="white" stroke="#bfbfbf" points="2160,-1449.43 2160,-1501.43 2352,-1501.43 2352,-1449.43 2160,-1449.43"/>
<text text-anchor="start" x="2168" y="-1489.43" font-family="Helvetica,sans-Serif" font-size="10.00">function&lt; MoFEMErrorCode</text>
<text text-anchor="start" x="2168" y="-1478.43" font-family="Helvetica,sans-Serif" font-size="10.00">(DataOperator *op_ptr,</text>
<text text-anchor="start" x="2168" y="-1467.43" font-family="Helvetica,sans-Serif" font-size="10.00"> int side, EntityType type,</text>
<text text-anchor="middle" x="2256" y="-1456.43" font-family="Helvetica,sans-Serif" font-size="10.00"> EntitiesFieldData::EntData &amp;data)&gt;</text>
</a>
</g>
</g>
<!-- Node5&#45;&gt;Node4 -->
<g id="edge4" class="edge">
<title>Node5&#45;&gt;Node4</title>
<path fill="none" stroke="#9a32cd" stroke-dasharray="5,2" d="M2362.07,-1495.08C2420.65,-1499.82 2491.22,-1494.34 2539,-1453.43 2565.37,-1430.86 2532.33,-1401.85 2557,-1377.43 2563.27,-1371.23 2571.11,-1366.87 2579.47,-1363.84"/>
<polygon fill="#9a32cd" stroke="#9a32cd" points="2362.3,-1491.59 2352.02,-1494.16 2361.66,-1498.56 2362.3,-1491.59"/>
<text text-anchor="middle" x="2458" y="-1499.43" font-family="Helvetica,sans-Serif" font-size="10.00"> doWorkRhsHook</text>
</g>
<!-- Node6 -->
<g id="node6" class="node">
<title>Node6</title>
<g id="a_node6"><a xlink:href="classbool.html" target="_top" xlink:title=" ">
<polygon fill="white" stroke="black" points="2237,-1402.93 2237,-1421.93 2275,-1421.93 2275,-1402.93 2237,-1402.93"/>
<text text-anchor="middle" x="2256" y="-1409.93" font-family="Helvetica,sans-Serif" font-size="10.00">bool</text>
</a>
</g>
</g>
<!-- Node6&#45;&gt;Node4 -->
<g id="edge5" class="edge">
<title>Node6&#45;&gt;Node4</title>
<path fill="none" stroke="#9a32cd" stroke-dasharray="5,2" d="M2285.34,-1411.45C2306.61,-1409.72 2335.92,-1405.17 2359,-1393.43 2368.81,-1388.44 2366.92,-1380.84 2377,-1376.43 2411.98,-1361.12 2512.87,-1358.11 2579.31,-1357.87"/>
<polygon fill="#9a32cd" stroke="#9a32cd" points="2285.06,-1407.96 2275.31,-1412.1 2285.52,-1414.94 2285.06,-1407.96"/>
<text text-anchor="middle" x="2458" y="-1445.43" font-family="Helvetica,sans-Serif" font-size="10.00"> doTris</text>
<text text-anchor="middle" x="2458" y="-1434.43" font-family="Helvetica,sans-Serif" font-size="10.00">doQuads</text>
<text text-anchor="middle" x="2458" y="-1423.43" font-family="Helvetica,sans-Serif" font-size="10.00">sYmm</text>
<text text-anchor="middle" x="2458" y="-1412.43" font-family="Helvetica,sans-Serif" font-size="10.00">doPrisms</text>
<text text-anchor="middle" x="2458" y="-1401.43" font-family="Helvetica,sans-Serif" font-size="10.00">doTets</text>
<text text-anchor="middle" x="2458" y="-1390.43" font-family="Helvetica,sans-Serif" font-size="10.00">doVertices</text>
<text text-anchor="middle" x="2458" y="-1379.43" font-family="Helvetica,sans-Serif" font-size="10.00">doEdges</text>
</g>
<!-- Node7 -->
<g id="node7" class="node">
<title>Node7</title>
<g id="a_node7"><a xlink:title=" ">
<polygon fill="white" stroke="#bfbfbf" points="2153,-1298.93 2153,-1383.93 2359,-1383.93 2359,-1298.93 2153,-1298.93"/>
<text text-anchor="start" x="2161" y="-1371.93" font-family="Helvetica,sans-Serif" font-size="10.00">function&lt; MoFEMErrorCode</text>
<text text-anchor="start" x="2161" y="-1360.93" font-family="Helvetica,sans-Serif" font-size="10.00">(DataOperator *op_ptr,</text>
<text text-anchor="start" x="2161" y="-1349.93" font-family="Helvetica,sans-Serif" font-size="10.00"> int row_side, int col_side,</text>
<text text-anchor="start" x="2161" y="-1338.93" font-family="Helvetica,sans-Serif" font-size="10.00"> EntityType row_type, EntityType</text>
<text text-anchor="start" x="2161" y="-1327.93" font-family="Helvetica,sans-Serif" font-size="10.00"> col_type, EntitiesFieldData::EntData</text>
<text text-anchor="start" x="2161" y="-1316.93" font-family="Helvetica,sans-Serif" font-size="10.00"> &amp;row_data, EntitiesFieldData::EntData</text>
<text text-anchor="middle" x="2256" y="-1305.93" font-family="Helvetica,sans-Serif" font-size="10.00"> &amp;col_data)&gt;</text>
</a>
</g>
</g>
<!-- Node7&#45;&gt;Node4 -->
<g id="edge6" class="edge">
<title>Node7&#45;&gt;Node4</title>
<path fill="none" stroke="#9a32cd" stroke-dasharray="5,2" d="M2369.5,-1337.92C2421.2,-1337.31 2483.3,-1337.99 2539,-1342.43 2555.8,-1343.77 2574.01,-1346.28 2590.34,-1348.93"/>
<polygon fill="#9a32cd" stroke="#9a32cd" points="2369.25,-1334.42 2359.3,-1338.06 2369.34,-1341.42 2369.25,-1334.42"/>
<text text-anchor="middle" x="2458" y="-1345.43" font-family="Helvetica,sans-Serif" font-size="10.00"> doWorkLhsHook</text>
</g>
<!-- Node8 -->
<g id="node8" class="node">
<title>Node8</title>
<g id="a_node8"><a xlink:title=" ">
<polygon fill="white" stroke="#bfbfbf" points="2179,-1520.93 2179,-1539.93 2333,-1539.93 2333,-1520.93 2179,-1520.93"/>
<text text-anchor="middle" x="2256" y="-1527.93" font-family="Helvetica,sans-Serif" font-size="10.00">array&lt; bool, MBMAXTYPE &gt;</text>
</a>
</g>
</g>
<!-- Node8&#45;&gt;Node4 -->
<g id="edge7" class="edge">
<title>Node8&#45;&gt;Node4</title>
<path fill="none" stroke="#9a32cd" stroke-dasharray="5,2" d="M2301.78,-1542.23C2363.8,-1555.6 2475.37,-1568.43 2539,-1508.43 2581.76,-1468.11 2517.27,-1420.73 2557,-1377.43 2563.07,-1370.82 2570.9,-1366.27 2579.35,-1363.17"/>
<polygon fill="#9a32cd" stroke="#9a32cd" points="2302.43,-1538.79 2291.9,-1540.01 2300.89,-1545.62 2302.43,-1538.79"/>
<text text-anchor="middle" x="2458" y="-1556.43" font-family="Helvetica,sans-Serif" font-size="10.00"> doEntities</text>
</g>
<!-- Node9 -->
<g id="node9" class="node">
<title>Node9</title>
<g id="a_node9"><a xlink:title=" ">
<polygon fill="white" stroke="#bfbfbf" points="2607.5,-1386.93 2607.5,-1405.93 2676.5,-1405.93 2676.5,-1386.93 2607.5,-1386.93"/>
<text text-anchor="middle" x="2642" y="-1393.93" font-family="Helvetica,sans-Serif" font-size="10.00">FieldSpace</text>
</a>
</g>
</g>
<!-- Node9&#45;&gt;Node3 -->
<g id="edge8" class="edge">
<title>Node9&#45;&gt;Node3</title>
<path fill="none" stroke="#9a32cd" stroke-dasharray="5,2" d="M2687.15,-1395.49C2701.52,-1393.02 2716.47,-1387.83 2727,-1377.43 2846.63,-1259.41 2909.31,-686.51 2919.51,-585.62"/>
<polygon fill="#9a32cd" stroke="#9a32cd" points="2686.32,-1392.07 2676.86,-1396.84 2687.23,-1399.01 2686.32,-1392.07"/>
<text text-anchor="middle" x="2782" y="-1351.43" font-family="Helvetica,sans-Serif" font-size="10.00"> sPace</text>
</g>
<!-- Node10 -->
<g id="node10" class="node">
<title>Node10</title>
<g id="a_node10"><a xlink:title=" ">
<polygon fill="white" stroke="#bfbfbf" points="1122.5,-463.93 1122.5,-482.93 1160.5,-482.93 1160.5,-463.93 1122.5,-463.93"/>
<text text-anchor="middle" x="1141.5" y="-470.93" font-family="Helvetica,sans-Serif" font-size="10.00">char</text>
</a>
</g>
</g>
<!-- Node10&#45;&gt;Node3 -->
<g id="edge9" class="edge">
<title>Node10&#45;&gt;Node3</title>
<path fill="none" stroke="#9a32cd" stroke-dasharray="5,2" d="M1170.82,-472.2C1191.81,-470.27 1220.55,-465.43 1243,-453.43 1252.98,-448.1 1250.55,-439.76 1261,-435.43 1316.84,-412.3 1336.82,-429.76 1397,-435.43 1664.55,-460.66 1723.77,-520.05 1991,-548.43 2301.36,-581.4 2673.11,-577.13 2836.7,-573.06"/>
<polygon fill="#9a32cd" stroke="#9a32cd" points="1170.33,-468.72 1160.62,-472.96 1170.85,-475.7 1170.33,-468.72"/>
<text text-anchor="middle" x="2063" y="-563.43" font-family="Helvetica,sans-Serif" font-size="10.00"> opType</text>
</g>
<!-- Node38 -->
<g id="node38" class="node">
<title>Node38</title>
<g id="a_node38"><a xlink:href="structMoFEM_1_1Problem.html" target="_top" xlink:title="keeps basic data about problem">
<polygon fill="white" stroke="black" points="1449,-509.93 1449,-528.93 1548,-528.93 1548,-509.93 1449,-509.93"/>
<text text-anchor="middle" x="1498.5" y="-516.93" font-family="Helvetica,sans-Serif" font-size="10.00">MoFEM::Problem</text>
</a>
</g>
</g>
<!-- Node10&#45;&gt;Node38 -->
<g id="edge53" class="edge">
<title>Node10&#45;&gt;Node38</title>
<path fill="none" stroke="#9a32cd" stroke-dasharray="5,2" d="M1170.86,-475.21C1218,-478.4 1315.37,-485.93 1397,-498.43 1416.73,-501.45 1438.44,-505.85 1456.61,-509.84"/>
<polygon fill="#9a32cd" stroke="#9a32cd" points="1171,-471.72 1160.79,-474.55 1170.54,-478.7 1171,-471.72"/>
<text text-anchor="middle" x="1329" y="-501.43" font-family="Helvetica,sans-Serif" font-size="10.00"> tagName</text>
</g>
<!-- Node11 -->
<g id="node11" class="node">
<title>Node11</title>
<g id="a_node11"><a xlink:href="structMoFEM_1_1ForcesAndSourcesCore.html" target="_top" xlink:title="structure to get information form mofem into EntitiesFieldData">
<polygon fill="white" stroke="black" points="2557,-869.93 2557,-888.93 2727,-888.93 2727,-869.93 2557,-869.93"/>
<text text-anchor="middle" x="2642" y="-876.93" font-family="Helvetica,sans-Serif" font-size="10.00">MoFEM::ForcesAndSourcesCore</text>
</a>
</g>
</g>
<!-- Node11&#45;&gt;Node3 -->
<g id="edge10" class="edge">
<title>Node11&#45;&gt;Node3</title>
<path fill="none" stroke="#9a32cd" stroke-dasharray="5,2" d="M2658.34,-862.38C2707.48,-807.76 2860.46,-637.72 2907.26,-585.7"/>
<polygon fill="#9a32cd" stroke="#9a32cd" points="2655.71,-860.07 2651.62,-869.85 2660.92,-864.75 2655.71,-860.07"/>
<text text-anchor="middle" x="2782" y="-764.43" font-family="Helvetica,sans-Serif" font-size="10.00"> ptrFE</text>
</g>
<!-- Node11&#45;&gt;Node11 -->
<g id="edge68" class="edge">
<title>Node11&#45;&gt;Node11</title>
<path fill="none" stroke="#9a32cd" stroke-dasharray="5,2" d="M2615.96,-898.46C2617.38,-903.56 2626.06,-907.43 2642,-907.43 2666.88,-907.43 2674.08,-898 2663.58,-889.19"/>
<polygon fill="#9a32cd" stroke="#9a32cd" points="2619.24,-899.72 2620.42,-889.19 2612.93,-896.68 2619.24,-899.72"/>
<text text-anchor="middle" x="2642" y="-921.43" font-family="Helvetica,sans-Serif" font-size="10.00"> sidePtrFE</text>
<text text-anchor="middle" x="2642" y="-910.43" font-family="Helvetica,sans-Serif" font-size="10.00">refinePtrFE</text>
</g>
<!-- Node12 -->
<g id="node12" class="node">
<title>Node12</title>
<g id="a_node12"><a xlink:href="structMoFEM_1_1FEMethod.html" target="_top" xlink:title="structure for User Loop Methods on finite elements">
<polygon fill="white" stroke="black" points="2202.5,-759.93 2202.5,-778.93 2309.5,-778.93 2309.5,-759.93 2202.5,-759.93"/>
<text text-anchor="middle" x="2256" y="-766.93" font-family="Helvetica,sans-Serif" font-size="10.00">MoFEM::FEMethod</text>
</a>
</g>
</g>
<!-- Node12&#45;&gt;Node11 -->
<g id="edge11" class="edge">
<title>Node12&#45;&gt;Node11</title>
<path fill="none" stroke="midnightblue" d="M2319.78,-765.99C2378.59,-765.03 2467.84,-769.45 2539,-798.43 2579.21,-814.81 2616.48,-852.18 2632.6,-869.85"/>
<polygon fill="midnightblue" stroke="midnightblue" points="2319.45,-762.5 2309.53,-766.22 2319.6,-769.5 2319.45,-762.5"/>
</g>
<!-- Node13 -->
<g id="node13" class="node">
<title>Node13</title>
<g id="a_node13"><a xlink:href="structMoFEM_1_1BasicMethod.html" target="_top" xlink:title="Data structure to exchange data between mofem and User Loop Methods.">
<polygon fill="white" stroke="black" points="1825,-838.93 1825,-857.93 1947,-857.93 1947,-838.93 1825,-838.93"/>
<text text-anchor="middle" x="1886" y="-845.93" font-family="Helvetica,sans-Serif" font-size="10.00">MoFEM::BasicMethod</text>
</a>
</g>
</g>
<!-- Node13&#45;&gt;Node12 -->
<g id="edge12" class="edge">
<title>Node13&#45;&gt;Node12</title>
<path fill="none" stroke="midnightblue" d="M1936.89,-836.59C1990.25,-824.06 2077.42,-803.99 2153,-788.43 2168.97,-785.15 2186.39,-781.81 2202.25,-778.87"/>
<polygon fill="midnightblue" stroke="midnightblue" points="1935.94,-833.22 1927.01,-838.91 1937.54,-840.03 1935.94,-833.22"/>
</g>
<!-- Node14 -->
<g id="node14" class="node">
<title>Node14</title>
<g id="a_node14"><a xlink:href="structMoFEM_1_1KspMethod.html" target="_top" xlink:title="data structure for ksp (linear solver) context">
<polygon fill="white" stroke="black" points="1442,-802.93 1442,-821.93 1555,-821.93 1555,-802.93 1442,-802.93"/>
<text text-anchor="middle" x="1498.5" y="-809.93" font-family="Helvetica,sans-Serif" font-size="10.00">MoFEM::KspMethod</text>
</a>
</g>
</g>
<!-- Node14&#45;&gt;Node13 -->
<g id="edge13" class="edge">
<title>Node14&#45;&gt;Node13</title>
<path fill="none" stroke="midnightblue" d="M1565.12,-818.56C1637.93,-825.36 1754.43,-836.24 1824.93,-842.82"/>
<polygon fill="midnightblue" stroke="midnightblue" points="1565.43,-815.07 1555.14,-817.63 1564.77,-822.04 1565.43,-815.07"/>
</g>
<!-- Node15 -->
<g id="node15" class="node">
<title>Node15</title>
<g id="a_node15"><a xlink:href="structMoFEM_1_1PetscData.html" target="_top" xlink:title=" ">
<polygon fill="white" stroke="black" points="1087.5,-1200.93 1087.5,-1219.93 1195.5,-1219.93 1195.5,-1200.93 1087.5,-1200.93"/>
<text text-anchor="middle" x="1141.5" y="-1207.93" font-family="Helvetica,sans-Serif" font-size="10.00">MoFEM::PetscData</text>
</a>
</g>
</g>
<!-- Node15&#45;&gt;Node14 -->
<g id="edge14" class="edge">
<title>Node15&#45;&gt;Node14</title>
<path fill="none" stroke="midnightblue" d="M1205.5,-1205.25C1219.11,-1201.6 1232.53,-1195.73 1243,-1186.43 1260.34,-1171.02 1245.54,-1154.73 1261,-1137.43 1306.05,-1087.06 1359.33,-1125.54 1397,-1069.43 1426.57,-1025.4 1380.43,-871.66 1415,-831.43 1421.9,-823.41 1431.44,-818.39 1441.6,-815.33"/>
<polygon fill="midnightblue" stroke="midnightblue" points="1204.55,-1201.87 1195.6,-1207.54 1206.13,-1208.7 1204.55,-1201.87"/>
</g>
<!-- Node25 -->
<g id="node25" class="node">
<title>Node25</title>
<g id="a_node25"><a xlink:href="structMoFEM_1_1SnesMethod.html" target="_top" xlink:title="data structure for snes (nonlinear solver) context">
<polygon fill="white" stroke="black" points="1439,-1042.93 1439,-1061.93 1558,-1061.93 1558,-1042.93 1439,-1042.93"/>
<text text-anchor="middle" x="1498.5" y="-1049.93" font-family="Helvetica,sans-Serif" font-size="10.00">MoFEM::SnesMethod</text>
</a>
</g>
</g>
<!-- Node15&#45;&gt;Node25 -->
<g id="edge27" class="edge">
<title>Node15&#45;&gt;Node25</title>
<path fill="none" stroke="darkgreen" d="M1206.01,-1201.87C1259.52,-1192.69 1336.76,-1174.7 1397,-1141.43 1436.38,-1119.69 1473.5,-1080.15 1489.39,-1062"/>
<polygon fill="darkgreen" stroke="darkgreen" points="1205.27,-1198.45 1195.97,-1203.54 1206.41,-1205.35 1205.27,-1198.45"/>
</g>
<!-- Node28 -->
<g id="node28" class="node">
<title>Node28</title>
<g id="a_node28"><a xlink:href="structMoFEM_1_1TSMethod.html" target="_top" xlink:title="data structure for TS (time stepping) context">
<polygon fill="white" stroke="black" points="1445,-1238.93 1445,-1257.93 1552,-1257.93 1552,-1238.93 1445,-1238.93"/>
<text text-anchor="middle" x="1498.5" y="-1245.93" font-family="Helvetica,sans-Serif" font-size="10.00">MoFEM::TSMethod</text>
</a>
</g>
</g>
<!-- Node15&#45;&gt;Node28 -->
<g id="edge33" class="edge">
<title>Node15&#45;&gt;Node28</title>
<path fill="none" stroke="darkgreen" d="M1205.82,-1217.21C1273.98,-1224.51 1381.16,-1235.98 1444.86,-1242.8"/>
<polygon fill="darkgreen" stroke="darkgreen" points="1205.96,-1213.71 1195.65,-1216.12 1205.22,-1220.67 1205.96,-1213.71"/>
</g>
<!-- Node16 -->
<g id="node16" class="node">
<title>Node16</title>
<g id="a_node16"><a xlink:href="structMoFEM_1_1UnknownInterface.html" target="_top" xlink:title="base class for all interface classes">
<polygon fill="white" stroke="black" points="735,-1473.93 735,-1492.93 883,-1492.93 883,-1473.93 735,-1473.93"/>
<text text-anchor="middle" x="809" y="-1480.93" font-family="Helvetica,sans-Serif" font-size="10.00">MoFEM::UnknownInterface</text>
</a>
</g>
</g>
<!-- Node16&#45;&gt;Node15 -->
<g id="edge15" class="edge">
<title>Node16&#45;&gt;Node15</title>
<path fill="none" stroke="midnightblue" d="M864.62,-1471.09C914.18,-1456.85 984.97,-1428.29 1022,-1375.43 1059.52,-1321.89 995.28,-1277.12 1040,-1229.43 1052.09,-1216.54 1069.96,-1210.81 1087.3,-1208.6"/>
<polygon fill="midnightblue" stroke="midnightblue" points="863.41,-1467.8 854.7,-1473.83 865.27,-1474.54 863.41,-1467.8"/>
</g>
<!-- Node56 -->
<g id="node56" class="node">
<title>Node56</title>
<g id="a_node56"><a xlink:href="structMoFEM_1_1CoreInterface.html" target="_top" xlink:title="Interface.">
<polygon fill="white" stroke="black" points="1079,-1495.93 1079,-1514.93 1204,-1514.93 1204,-1495.93 1079,-1495.93"/>
<text text-anchor="middle" x="1141.5" y="-1502.93" font-family="Helvetica,sans-Serif" font-size="10.00">MoFEM::CoreInterface</text>
</a>
</g>
</g>
<!-- Node16&#45;&gt;Node56 -->
<g id="edge67" class="edge">
<title>Node16&#45;&gt;Node56</title>
<path fill="none" stroke="midnightblue" d="M893.54,-1488.99C951.26,-1492.84 1026.75,-1497.86 1079,-1501.34"/>
<polygon fill="midnightblue" stroke="midnightblue" points="893.56,-1485.49 883.35,-1488.32 893.09,-1492.47 893.56,-1485.49"/>
</g>
<!-- Node17 -->
<g id="node17" class="node">
<title>Node17</title>
<g id="a_node17"><a xlink:title=" ">
<polygon fill="white" stroke="#bfbfbf" points="386,-1451.93 386,-1514.93 627,-1514.93 627,-1451.93 386,-1451.93"/>
<text text-anchor="start" x="394" y="-1502.93" font-family="Helvetica,sans-Serif" font-size="10.00">multi_index_container</text>
<text text-anchor="start" x="394" y="-1491.93" font-family="Helvetica,sans-Serif" font-size="10.00">&lt; UIdTypeMap, indexed</text>
<text text-anchor="start" x="394" y="-1480.93" font-family="Helvetica,sans-Serif" font-size="10.00">_by&lt; hashed_unique&lt; member</text>
<text text-anchor="start" x="394" y="-1469.93" font-family="Helvetica,sans-Serif" font-size="10.00">&lt; UIdTypeMap, boost::typeindex</text>
<text text-anchor="middle" x="506.5" y="-1458.93" font-family="Helvetica,sans-Serif" font-size="10.00">::type_index, &amp;UIdTypeMap::classIdx &gt; &gt; &gt; &gt;</text>
</a>
</g>
</g>
<!-- Node17&#45;&gt;Node16 -->
<g id="edge16" class="edge">
<title>Node17&#45;&gt;Node16</title>
<path fill="none" stroke="#9a32cd" stroke-dasharray="5,2" d="M637.41,-1483.43C670.69,-1483.43 705.33,-1483.43 734.62,-1483.43"/>
<polygon fill="#9a32cd" stroke="#9a32cd" points="637.13,-1479.93 627.13,-1483.43 637.13,-1486.93 637.13,-1479.93"/>
<text text-anchor="middle" x="681" y="-1486.43" font-family="Helvetica,sans-Serif" font-size="10.00"> iFaceTypeMap</text>
</g>
<!-- Node18 -->
<g id="node18" class="node">
<title>Node18</title>
<g id="a_node18"><a xlink:title=" ">
<polygon fill="white" stroke="#bfbfbf" points="0,-1503.93 0,-1522.93 125,-1522.93 125,-1503.93 0,-1503.93"/>
<text text-anchor="middle" x="62.5" y="-1510.93" font-family="Helvetica,sans-Serif" font-size="10.00">multi_index_container</text>
</a>
</g>
</g>
<!-- Node18&#45;&gt;Node13 -->
<g id="edge40" class="edge">
<title>Node18&#45;&gt;Node13</title>
<path fill="none" stroke="#9a32cd" stroke-dasharray="5,2" d="M114.58,-1524.97C123.99,-1526.73 133.76,-1528.33 143,-1529.43 303.1,-1548.51 344.27,-1543.43 505.5,-1543.43 505.5,-1543.43 505.5,-1543.43 1499.5,-1543.43 1671.02,-1543.43 1709.4,-1435.3 1781,-1279.43 1800.08,-1237.9 1769.8,-903.6 1799,-868.43 1805.66,-860.41 1814.85,-855.24 1824.75,-851.97"/>
<polygon fill="#9a32cd" stroke="#9a32cd" points="115.05,-1521.49 104.56,-1523 113.7,-1528.36 115.05,-1521.49"/>
<text text-anchor="middle" x="961.5" y="-1623.43" font-family="Helvetica,sans-Serif" font-size="10.00"> adjacenciesPtr</text>
<text text-anchor="middle" x="961.5" y="-1612.43" font-family="Helvetica,sans-Serif" font-size="10.00">refinedEntitiesPtr</text>
<text text-anchor="middle" x="961.5" y="-1601.43" font-family="Helvetica,sans-Serif" font-size="10.00">finiteElementsEntitiesPtr</text>
<text text-anchor="middle" x="961.5" y="-1590.43" font-family="Helvetica,sans-Serif" font-size="10.00">dofsPtr</text>
<text text-anchor="middle" x="961.5" y="-1579.43" font-family="Helvetica,sans-Serif" font-size="10.00">entitiesPtr</text>
<text text-anchor="middle" x="961.5" y="-1568.43" font-family="Helvetica,sans-Serif" font-size="10.00">finiteElementsPtr</text>
<text text-anchor="middle" x="961.5" y="-1557.43" font-family="Helvetica,sans-Serif" font-size="10.00">refinedFiniteElementsPtr</text>
<text text-anchor="middle" x="961.5" y="-1546.43" font-family="Helvetica,sans-Serif" font-size="10.00">fieldsPtr</text>
</g>
<!-- Node18&#45;&gt;Node17 -->
<g id="edge17" class="edge">
<title>Node18&#45;&gt;Node17</title>
<path fill="none" stroke="orange" stroke-dasharray="5,2" d="M94.05,-1499.98C108.58,-1494.3 126.37,-1488.32 143,-1485.43 223.14,-1471.5 314.76,-1471.13 385.84,-1474.17"/>
<polygon fill="orange" stroke="orange" points="92.52,-1496.83 84.58,-1503.84 95.16,-1503.31 92.52,-1496.83"/>
<text text-anchor="start" x="143" y="-1521.43" font-family="Helvetica,sans-Serif" font-size="10.00"> &lt; UIdTypeMap, indexed</text>
<text text-anchor="start" x="143" y="-1510.43" font-family="Helvetica,sans-Serif" font-size="10.00">_by&lt; hashed_unique&lt; member</text>
<text text-anchor="start" x="143" y="-1499.43" font-family="Helvetica,sans-Serif" font-size="10.00">&lt; UIdTypeMap, boost::typeindex</text>
<text text-anchor="middle" x="255.5" y="-1488.43" font-family="Helvetica,sans-Serif" font-size="10.00">::type_index, &amp;UIdTypeMap::classIdx &gt; &gt; &gt; &gt;</text>
</g>
<!-- Node19 -->
<g id="node19" class="node">
<title>Node19</title>
<g id="a_node19"><a xlink:title=" ">
<polygon fill="white" stroke="#bfbfbf" points="738.5,-1242.93 738.5,-1261.93 879.5,-1261.93 879.5,-1242.93 738.5,-1242.93"/>
<text text-anchor="middle" x="809" y="-1249.93" font-family="Helvetica,sans-Serif" font-size="10.00">static constexpr Switches</text>
</a>
</g>
</g>
<!-- Node19&#45;&gt;Node15 -->
<g id="edge18" class="edge">
<title>Node19&#45;&gt;Node15</title>
<path fill="none" stroke="#9a32cd" stroke-dasharray="5,2" d="M890.01,-1245.35C929.76,-1241.52 978.49,-1236.36 1022,-1230.43 1043.81,-1227.46 1067.77,-1223.54 1088.4,-1219.96"/>
<polygon fill="#9a32cd" stroke="#9a32cd" points="889.46,-1241.88 879.84,-1246.32 890.12,-1248.85 889.46,-1241.88"/>
<text text-anchor="middle" x="961.5" y="-1323.43" font-family="Helvetica,sans-Serif" font-size="10.00"> CtxSetX_TT</text>
<text text-anchor="middle" x="961.5" y="-1312.43" font-family="Helvetica,sans-Serif" font-size="10.00">CtxSetX_T</text>
<text text-anchor="middle" x="961.5" y="-1301.43" font-family="Helvetica,sans-Serif" font-size="10.00">CtxSetA</text>
<text text-anchor="middle" x="961.5" y="-1290.43" font-family="Helvetica,sans-Serif" font-size="10.00">CtxSetB</text>
<text text-anchor="middle" x="961.5" y="-1279.43" font-family="Helvetica,sans-Serif" font-size="10.00">CtxSetTime</text>
<text text-anchor="middle" x="961.5" y="-1268.43" font-family="Helvetica,sans-Serif" font-size="10.00">CtxSetNone</text>
<text text-anchor="middle" x="961.5" y="-1257.43" font-family="Helvetica,sans-Serif" font-size="10.00">CtxSetF</text>
<text text-anchor="middle" x="961.5" y="-1246.43" font-family="Helvetica,sans-Serif" font-size="10.00">CtxSetX</text>
</g>
<!-- Node20 -->
<g id="node20" class="node">
<title>Node20</title>
<g id="a_node20"><a xlink:title=" ">
<polygon fill="white" stroke="#bfbfbf" points="791.5,-958.93 791.5,-977.93 826.5,-977.93 826.5,-958.93 791.5,-958.93"/>
<text text-anchor="middle" x="809" y="-965.93" font-family="Helvetica,sans-Serif" font-size="10.00">Mat</text>
</a>
</g>
</g>
<!-- Node20&#45;&gt;Node14 -->
<g id="edge24" class="edge">
<title>Node20&#45;&gt;Node14</title>
<path fill="none" stroke="#9a32cd" stroke-dasharray="5,2" d="M822.29,-950.32C852.92,-907.02 937.61,-798.14 1040,-758.43 1124.12,-725.81 1164.81,-713.42 1243,-758.43 1256.81,-766.38 1247.59,-780.82 1261,-789.43 1289.94,-808.02 1381.52,-812.15 1441.86,-812.77"/>
<polygon fill="#9a32cd" stroke="#9a32cd" points="819.27,-948.53 816.43,-958.74 825.02,-952.53 819.27,-948.53"/>
<text text-anchor="middle" x="1141.5" y="-772.43" font-family="Helvetica,sans-Serif" font-size="10.00"> ksp_A</text>
<text text-anchor="middle" x="1141.5" y="-761.43" font-family="Helvetica,sans-Serif" font-size="10.00">ksp_B</text>
</g>
<!-- Node20&#45;&gt;Node15 -->
<g id="edge19" class="edge">
<title>Node20&#45;&gt;Node15</title>
<path fill="none" stroke="#9a32cd" stroke-dasharray="5,2" d="M818.69,-987.42C832.35,-1015.25 861.43,-1066.99 901,-1096.43 946.55,-1130.33 981.34,-1097.79 1022,-1137.43 1038.61,-1153.63 1022.66,-1171.02 1040,-1186.43 1053.01,-1197.99 1070.58,-1204.24 1087.4,-1207.54"/>
<polygon fill="#9a32cd" stroke="#9a32cd" points="821.67,-985.55 814.22,-978.02 815.35,-988.55 821.67,-985.55"/>
<text text-anchor="middle" x="961.5" y="-1151.43" font-family="Helvetica,sans-Serif" font-size="10.00"> A</text>
<text text-anchor="middle" x="961.5" y="-1140.43" font-family="Helvetica,sans-Serif" font-size="10.00">B</text>
</g>
<!-- Node20&#45;&gt;Node25 -->
<g id="edge29" class="edge">
<title>Node20&#45;&gt;Node25</title>
<path fill="none" stroke="#9a32cd" stroke-dasharray="5,2" d="M836.96,-966.55C905.35,-962.3 1090.94,-954.06 1243,-977.43 1313.48,-988.27 1328.94,-1001.15 1397,-1022.43 1405.05,-1024.95 1406.95,-1025.92 1415,-1028.43 1430.95,-1033.41 1448.73,-1038.62 1463.69,-1042.92"/>
<polygon fill="#9a32cd" stroke="#9a32cd" points="836.41,-963.08 826.65,-967.22 836.86,-970.06 836.41,-963.08"/>
<text text-anchor="middle" x="1141.5" y="-991.43" font-family="Helvetica,sans-Serif" font-size="10.00"> snes_A</text>
<text text-anchor="middle" x="1141.5" y="-980.43" font-family="Helvetica,sans-Serif" font-size="10.00">snes_B</text>
</g>
<!-- Node20&#45;&gt;Node28 -->
<g id="edge34" class="edge">
<title>Node20&#45;&gt;Node28</title>
<path fill="none" stroke="#9a32cd" stroke-dasharray="5,2" d="M834.85,-983.08C876,-1006.63 961.55,-1052.55 1040,-1075.43 1127.38,-1100.92 1156.79,-1073.24 1243,-1102.43 1343.84,-1136.58 1449.65,-1212.28 1485.11,-1238.93"/>
<polygon fill="#9a32cd" stroke="#9a32cd" points="836.47,-979.98 826.06,-978.01 832.97,-986.04 836.47,-979.98"/>
<text text-anchor="middle" x="1141.5" y="-1116.43" font-family="Helvetica,sans-Serif" font-size="10.00"> ts_A</text>
<text text-anchor="middle" x="1141.5" y="-1105.43" font-family="Helvetica,sans-Serif" font-size="10.00">ts_B</text>
</g>
<!-- Node72 -->
<g id="node72" class="node">
<title>Node72</title>
<g id="a_node72"><a xlink:href="structCellEngineering_1_1CommonData.html" target="_top" xlink:title=" ">
<polygon fill="white" stroke="black" points="2172.5,-152.93 2172.5,-171.93 2339.5,-171.93 2339.5,-152.93 2172.5,-152.93"/>
<text text-anchor="middle" x="2256" y="-159.93" font-family="Helvetica,sans-Serif" font-size="10.00">CellEngineering::CommonData</text>
</a>
</g>
</g>
<!-- Node20&#45;&gt;Node72 -->
<g id="edge91" class="edge">
<title>Node20&#45;&gt;Node72</title>
<path fill="none" stroke="#9a32cd" stroke-dasharray="5,2" d="M810.43,-948.52C813.04,-842.21 829.03,-341.29 901,-207.43 967.08,-84.54 1000.96,-4.43 1140.5,-4.43 1140.5,-4.43 1140.5,-4.43 1887,-4.43 1998.03,-4.43 2035.96,15.75 2135,-34.43 2190.7,-62.66 2234.14,-127.76 2249.24,-152.58"/>
<polygon fill="#9a32cd" stroke="#9a32cd" points="806.93,-948.7 810.2,-958.77 813.93,-948.86 806.93,-948.7"/>
<text text-anchor="middle" x="1498.5" y="-7.43" font-family="Helvetica,sans-Serif" font-size="10.00"> globA</text>
</g>
<!-- Node21 -->
<g id="node21" class="node">
<title>Node21</title>
<g id="a_node21"><a xlink:title=" ">
<polygon fill="white" stroke="#bfbfbf" points="772.5,-1353.93 772.5,-1372.93 845.5,-1372.93 845.5,-1353.93 772.5,-1353.93"/>
<text text-anchor="middle" x="809" y="-1360.93" font-family="Helvetica,sans-Serif" font-size="10.00">bitset&lt; 8 &gt;</text>
</a>
</g>
</g>
<!-- Node21&#45;&gt;Node15 -->
<g id="edge20" class="edge">
<title>Node21&#45;&gt;Node15</title>
<path fill="none" stroke="#9a32cd" stroke-dasharray="5,2" d="M856.15,-1363.52C911.3,-1362.61 999.02,-1357.58 1022,-1335.43 1056.41,-1302.27 1006.53,-1263.54 1040,-1229.43 1052.31,-1216.89 1070.13,-1211.2 1087.36,-1208.95"/>
<polygon fill="#9a32cd" stroke="#9a32cd" points="855.87,-1360.03 845.92,-1363.65 855.96,-1367.02 855.87,-1360.03"/>
<text text-anchor="middle" x="961.5" y="-1364.43" font-family="Helvetica,sans-Serif" font-size="10.00"> data_ctx</text>
</g>
<!-- Node22 -->
<g id="node22" class="node">
<title>Node22</title>
<g id="a_node22"><a xlink:title=" ">
<polygon fill="white" stroke="#bfbfbf" points="792,-1097.93 792,-1116.93 826,-1116.93 826,-1097.93 792,-1097.93"/>
<text text-anchor="middle" x="809" y="-1104.93" font-family="Helvetica,sans-Serif" font-size="10.00">Vec</text>
</a>
</g>
</g>
<!-- Node22&#45;&gt;Node14 -->
<g id="edge25" class="edge">
<title>Node22&#45;&gt;Node14</title>
<path fill="none" stroke="#9a32cd" stroke-dasharray="5,2" d="M828.58,-1090.83C865.92,-1058.32 953.9,-986 1040,-946.43 1189.09,-877.92 1258.36,-940.17 1397,-852.43 1407.39,-845.86 1404.48,-837.8 1415,-831.43 1423.17,-826.49 1432.51,-822.83 1441.9,-820.12"/>
<polygon fill="#9a32cd" stroke="#9a32cd" points="825.8,-1088.61 820.6,-1097.85 830.42,-1093.87 825.8,-1088.61"/>
<text text-anchor="middle" x="1141.5" y="-949.43" font-family="Helvetica,sans-Serif" font-size="10.00"> ksp_f</text>
</g>
<!-- Node22&#45;&gt;Node15 -->
<g id="edge21" class="edge">
<title>Node22&#45;&gt;Node15</title>
<path fill="none" stroke="#9a32cd" stroke-dasharray="5,2" d="M830.5,-1123.36C848.19,-1136.25 874.92,-1153.8 901,-1163.43 952.07,-1182.29 968.58,-1171.94 1022,-1182.43 1029.8,-1183.97 1069.39,-1193.37 1100.69,-1200.87"/>
<polygon fill="#9a32cd" stroke="#9a32cd" points="832.24,-1120.29 822.13,-1117.11 828.05,-1125.9 832.24,-1120.29"/>
<text text-anchor="middle" x="961.5" y="-1218.43" font-family="Helvetica,sans-Serif" font-size="10.00"> f</text>
<text text-anchor="middle" x="961.5" y="-1207.43" font-family="Helvetica,sans-Serif" font-size="10.00">x</text>
<text text-anchor="middle" x="961.5" y="-1196.43" font-family="Helvetica,sans-Serif" font-size="10.00">x_t</text>
<text text-anchor="middle" x="961.5" y="-1185.43" font-family="Helvetica,sans-Serif" font-size="10.00">x_tt</text>
</g>
<!-- Node22&#45;&gt;Node25 -->
<g id="edge30" class="edge">
<title>Node22&#45;&gt;Node25</title>
<path fill="none" stroke="#9a32cd" stroke-dasharray="5,2" d="M836.28,-1106.62C876.71,-1105.94 956.36,-1106.86 1022,-1121.43 1030.38,-1123.29 1031.56,-1126.85 1040,-1128.43 1128.68,-1145.07 1153.73,-1141.48 1243,-1128.43 1330.38,-1115.66 1429.44,-1079.47 1473.81,-1062.04"/>
<polygon fill="#9a32cd" stroke="#9a32cd" points="836.11,-1103.13 826.19,-1106.84 836.27,-1110.12 836.11,-1103.13"/>
<text text-anchor="middle" x="1141.5" y="-1153.43" font-family="Helvetica,sans-Serif" font-size="10.00"> snes_x</text>
<text text-anchor="middle" x="1141.5" y="-1142.43" font-family="Helvetica,sans-Serif" font-size="10.00">snes_f</text>
</g>
<!-- Node22&#45;&gt;Node28 -->
<g id="edge38" class="edge">
<title>Node22&#45;&gt;Node28</title>
<path fill="none" stroke="#9a32cd" stroke-dasharray="5,2" d="M823.63,-1125.5C840.59,-1149 869.03,-1191.98 883,-1233.43 893.23,-1263.78 876.98,-1355.25 901,-1376.43 942.33,-1412.89 1354.98,-1412.09 1397,-1376.43 1434.44,-1344.67 1381.39,-1303.22 1415,-1267.43 1422.85,-1259.08 1433.57,-1254.05 1444.69,-1251.1"/>
<polygon fill="#9a32cd" stroke="#9a32cd" points="826.28,-1123.2 817.54,-1117.21 820.64,-1127.34 826.28,-1123.2"/>
<text text-anchor="middle" x="1141.5" y="-1439.43" font-family="Helvetica,sans-Serif" font-size="10.00"> ts_u</text>
<text text-anchor="middle" x="1141.5" y="-1428.43" font-family="Helvetica,sans-Serif" font-size="10.00">ts_F</text>
<text text-anchor="middle" x="1141.5" y="-1417.43" font-family="Helvetica,sans-Serif" font-size="10.00">ts_u_t</text>
<text text-anchor="middle" x="1141.5" y="-1406.43" font-family="Helvetica,sans-Serif" font-size="10.00">ts_u_tt</text>
</g>
<!-- Node22&#45;&gt;Node72 -->
<g id="edge93" class="edge">
<title>Node22&#45;&gt;Node72</title>
<path fill="none" stroke="#9a32cd" stroke-dasharray="5,2" d="M823.61,-1089.51C840.11,-1066.91 867.62,-1026.29 883,-987.43 1015.17,-653.47 781.33,-221.43 1140.5,-221.43 1140.5,-221.43 1140.5,-221.43 1887,-221.43 1997.4,-221.43 2026.97,-230.18 2135,-207.43 2171.58,-199.73 2211.83,-182.76 2235.18,-172"/>
<polygon fill="#9a32cd" stroke="#9a32cd" points="820.63,-1087.65 817.48,-1097.77 826.25,-1091.83 820.63,-1087.65"/>
<text text-anchor="middle" x="1498.5" y="-224.43" font-family="Helvetica,sans-Serif" font-size="10.00"> globF</text>
</g>
<!-- Node23 -->
<g id="node23" class="node">
<title>Node23</title>
<g id="a_node23"><a xlink:title=" ">
<polygon fill="white" stroke="#bfbfbf" points="1124,-789.93 1124,-808.93 1159,-808.93 1159,-789.93 1124,-789.93"/>
<text text-anchor="middle" x="1141.5" y="-796.93" font-family="Helvetica,sans-Serif" font-size="10.00">KSP</text>
</a>
</g>
</g>
<!-- Node23&#45;&gt;Node14 -->
<g id="edge22" class="edge">
<title>Node23&#45;&gt;Node14</title>
<path fill="none" stroke="#9a32cd" stroke-dasharray="5,2" d="M1169.41,-803.82C1193.37,-807.49 1229.41,-812.44 1261,-814.43 1321.32,-818.24 1336.56,-815.03 1397,-814.43 1411.57,-814.29 1427.33,-814.02 1441.95,-813.74"/>
<polygon fill="#9a32cd" stroke="#9a32cd" points="1169.73,-800.33 1159.31,-802.24 1168.65,-807.24 1169.73,-800.33"/>
<text text-anchor="middle" x="1329" y="-818.43" font-family="Helvetica,sans-Serif" font-size="10.00"> ksp</text>
</g>
<!-- Node24 -->
<g id="node24" class="node">
<title>Node24</title>
<g id="a_node24"><a xlink:title=" ">
<polygon fill="white" stroke="#bfbfbf" points="1104.5,-827.93 1104.5,-846.93 1178.5,-846.93 1178.5,-827.93 1104.5,-827.93"/>
<text text-anchor="middle" x="1141.5" y="-834.93" font-family="Helvetica,sans-Serif" font-size="10.00">KSPContext</text>
</a>
</g>
</g>
<!-- Node24&#45;&gt;Node14 -->
<g id="edge23" class="edge">
<title>Node24&#45;&gt;Node14</title>
<path fill="none" stroke="#9a32cd" stroke-dasharray="5,2" d="M1188.93,-838.24C1240.05,-838.64 1324.6,-837.87 1397,-830.43 1415.34,-828.55 1435.36,-825.23 1452.68,-821.94"/>
<polygon fill="#9a32cd" stroke="#9a32cd" points="1188.89,-834.73 1178.86,-838.14 1188.82,-841.73 1188.89,-834.73"/>
<text text-anchor="middle" x="1329" y="-840.43" font-family="Helvetica,sans-Serif" font-size="10.00"> ksp_ctx</text>
</g>
<!-- Node25&#45;&gt;Node13 -->
<g id="edge26" class="edge">
<title>Node25&#45;&gt;Node13</title>
<path fill="none" stroke="midnightblue" d="M1546.5,-1064.06C1609.13,-1076.46 1719.2,-1086.92 1781,-1026.43 1831.51,-976.99 1751.98,-921.2 1799,-868.43 1805.83,-860.76 1814.98,-855.74 1824.76,-852.5"/>
<polygon fill="midnightblue" stroke="midnightblue" points="1547,-1060.59 1536.5,-1061.99 1545.58,-1067.45 1547,-1060.59"/>
</g>
<!-- Node26 -->
<g id="node26" class="node">
<title>Node26</title>
<g id="a_node26"><a xlink:title=" ">
<polygon fill="white" stroke="#bfbfbf" points="1120.5,-1008.93 1120.5,-1027.93 1162.5,-1027.93 1162.5,-1008.93 1120.5,-1008.93"/>
<text text-anchor="middle" x="1141.5" y="-1015.93" font-family="Helvetica,sans-Serif" font-size="10.00">SNES</text>
</a>
</g>
</g>
<!-- Node26&#45;&gt;Node25 -->
<g id="edge28" class="edge">
<title>Node26&#45;&gt;Node25</title>
<path fill="none" stroke="#9a32cd" stroke-dasharray="5,2" d="M1172.93,-1020.23C1220.73,-1023.19 1316.27,-1029.65 1397,-1038.43 1410.57,-1039.91 1425.14,-1041.78 1438.85,-1043.66"/>
<polygon fill="#9a32cd" stroke="#9a32cd" points="1172.86,-1016.72 1162.66,-1019.6 1172.43,-1023.71 1172.86,-1016.72"/>
<text text-anchor="middle" x="1329" y="-1041.43" font-family="Helvetica,sans-Serif" font-size="10.00"> snes</text>
</g>
<!-- Node27 -->
<g id="node27" class="node">
<title>Node27</title>
<g id="a_node27"><a xlink:title=" ">
<polygon fill="white" stroke="#bfbfbf" points="1101.5,-1046.93 1101.5,-1065.93 1181.5,-1065.93 1181.5,-1046.93 1101.5,-1046.93"/>
<text text-anchor="middle" x="1141.5" y="-1053.93" font-family="Helvetica,sans-Serif" font-size="10.00">SNESContext</text>
</a>
</g>
</g>
<!-- Node27&#45;&gt;Node25 -->
<g id="edge31" class="edge">
<title>Node27&#45;&gt;Node25</title>
<path fill="none" stroke="#9a32cd" stroke-dasharray="5,2" d="M1191.84,-1055.88C1256.48,-1055.15 1369.71,-1053.87 1438.73,-1053.09"/>
<polygon fill="#9a32cd" stroke="#9a32cd" points="1191.47,-1052.38 1181.51,-1055.99 1191.55,-1059.38 1191.47,-1052.38"/>
<text text-anchor="middle" x="1329" y="-1057.43" font-family="Helvetica,sans-Serif" font-size="10.00"> snes_ctx</text>
</g>
<!-- Node28&#45;&gt;Node13 -->
<g id="edge32" class="edge">
<title>Node28&#45;&gt;Node13</title>
<path fill="none" stroke="midnightblue" d="M1538.52,-1235.44C1601.72,-1212.12 1724.99,-1156.71 1781,-1063.43 1803.4,-1026.12 1770.4,-901.23 1799,-868.43 1805.75,-860.69 1814.86,-855.63 1824.63,-852.38"/>
<polygon fill="midnightblue" stroke="midnightblue" points="1537.14,-1232.22 1528.92,-1238.9 1539.51,-1238.8 1537.14,-1232.22"/>
</g>
<!-- Node29 -->
<g id="node29" class="node">
<title>Node29</title>
<g id="a_node29"><a xlink:title=" ">
<polygon fill="white" stroke="#bfbfbf" points="1109,-1276.93 1109,-1295.93 1174,-1295.93 1174,-1276.93 1109,-1276.93"/>
<text text-anchor="middle" x="1141.5" y="-1283.93" font-family="Helvetica,sans-Serif" font-size="10.00">PetscReal</text>
</a>
</g>
</g>
<!-- Node29&#45;&gt;Node28 -->
<g id="edge35" class="edge">
<title>Node29&#45;&gt;Node28</title>
<path fill="none" stroke="#9a32cd" stroke-dasharray="5,2" d="M1184.45,-1282.37C1234.92,-1277.43 1322.2,-1268.72 1397,-1260.43 1412.54,-1258.71 1429.43,-1256.74 1444.84,-1254.89"/>
<polygon fill="#9a32cd" stroke="#9a32cd" points="1183.87,-1278.91 1174.26,-1283.36 1184.55,-1285.87 1183.87,-1278.91"/>
<text text-anchor="middle" x="1329" y="-1309.43" font-family="Helvetica,sans-Serif" font-size="10.00"> ts_a</text>
<text text-anchor="middle" x="1329" y="-1298.43" font-family="Helvetica,sans-Serif" font-size="10.00">ts_t</text>
<text text-anchor="middle" x="1329" y="-1287.43" font-family="Helvetica,sans-Serif" font-size="10.00">ts_dt</text>
<text text-anchor="middle" x="1329" y="-1276.43" font-family="Helvetica,sans-Serif" font-size="10.00">ts_aa</text>
</g>
<!-- Node30 -->
<g id="node30" class="node">
<title>Node30</title>
<g id="a_node30"><a xlink:title=" ">
<polygon fill="white" stroke="#bfbfbf" points="1108,-1238.93 1108,-1257.93 1175,-1257.93 1175,-1238.93 1108,-1238.93"/>
<text text-anchor="middle" x="1141.5" y="-1245.93" font-family="Helvetica,sans-Serif" font-size="10.00">TSContext</text>
</a>
</g>
</g>
<!-- Node30&#45;&gt;Node28 -->
<g id="edge36" class="edge">
<title>Node30&#45;&gt;Node28</title>
<path fill="none" stroke="#9a32cd" stroke-dasharray="5,2" d="M1185.59,-1248.43C1250.81,-1248.43 1374.44,-1248.43 1444.88,-1248.43"/>
<polygon fill="#9a32cd" stroke="#9a32cd" points="1185.26,-1244.93 1175.26,-1248.43 1185.26,-1251.93 1185.26,-1244.93"/>
<text text-anchor="middle" x="1329" y="-1251.43" font-family="Helvetica,sans-Serif" font-size="10.00"> ts_ctx</text>
</g>
<!-- Node31 -->
<g id="node31" class="node">
<title>Node31</title>
<g id="a_node31"><a xlink:title=" ">
<polygon fill="white" stroke="#bfbfbf" points="1113.5,-1457.93 1113.5,-1476.93 1169.5,-1476.93 1169.5,-1457.93 1113.5,-1457.93"/>
<text text-anchor="middle" x="1141.5" y="-1464.93" font-family="Helvetica,sans-Serif" font-size="10.00">PetscInt</text>
</a>
</g>
</g>
<!-- Node31&#45;&gt;Node28 -->
<g id="edge37" class="edge">
<title>Node31&#45;&gt;Node28</title>
<path fill="none" stroke="#9a32cd" stroke-dasharray="5,2" d="M1179.88,-1471C1236.05,-1474.08 1341.53,-1470.62 1397,-1409.43 1439.73,-1362.3 1372.33,-1314.61 1415,-1267.43 1422.79,-1258.82 1433.63,-1253.72 1444.89,-1250.77"/>
<polygon fill="#9a32cd" stroke="#9a32cd" points="1179.87,-1467.49 1169.66,-1470.34 1179.41,-1474.48 1179.87,-1467.49"/>
<text text-anchor="middle" x="1329" y="-1470.43" font-family="Helvetica,sans-Serif" font-size="10.00"> ts_step</text>
</g>
<!-- Node32 -->
<g id="node32" class="node">
<title>Node32</title>
<g id="a_node32"><a xlink:title=" ">
<polygon fill="white" stroke="#bfbfbf" points="1127,-1339.93 1127,-1358.93 1156,-1358.93 1156,-1339.93 1127,-1339.93"/>
<text text-anchor="middle" x="1141.5" y="-1346.93" font-family="Helvetica,sans-Serif" font-size="10.00">TS</text>
</a>
</g>
</g>
<!-- Node32&#45;&gt;Node28 -->
<g id="edge39" class="edge">
<title>Node32&#45;&gt;Node28</title>
<path fill="none" stroke="#9a32cd" stroke-dasharray="5,2" d="M1166.24,-1354.47C1215.32,-1363.42 1329,-1376.34 1397,-1321.43 1416.68,-1305.54 1396.28,-1284.45 1415,-1267.43 1423.27,-1259.92 1433.9,-1255.19 1444.76,-1252.26"/>
<polygon fill="#9a32cd" stroke="#9a32cd" points="1166.75,-1351.01 1156.27,-1352.54 1165.42,-1357.88 1166.75,-1351.01"/>
<text text-anchor="middle" x="1329" y="-1364.43" font-family="Helvetica,sans-Serif" font-size="10.00"> ts</text>
</g>
<!-- Node33 -->
<g id="node33" class="node">
<title>Node33</title>
<g id="a_node33"><a xlink:title=" ">
<polygon fill="white" stroke="#bfbfbf" points="1454,-1276.93 1454,-1295.93 1543,-1295.93 1543,-1276.93 1454,-1276.93"/>
<text text-anchor="middle" x="1498.5" y="-1283.93" font-family="Helvetica,sans-Serif" font-size="10.00">pair&lt; int, int &gt;</text>
</a>
</g>
</g>
<!-- Node33&#45;&gt;Node13 -->
<g id="edge41" class="edge">
<title>Node33&#45;&gt;Node13</title>
<path fill="none" stroke="#9a32cd" stroke-dasharray="5,2" d="M1553.18,-1277.93C1620.14,-1264.12 1731.77,-1229.77 1781,-1149.43 1813.69,-1096.08 1758.54,-916.16 1799,-868.43 1805.74,-860.48 1814.97,-855.34 1824.88,-852.08"/>
<polygon fill="#9a32cd" stroke="#9a32cd" points="1552.37,-1274.53 1543.24,-1279.9 1553.73,-1281.39 1552.37,-1274.53"/>
<text text-anchor="middle" x="1690.5" y="-1267.43" font-family="Helvetica,sans-Serif" font-size="10.00"> loHiFERank</text>
</g>
<!-- Node34 -->
<g id="node34" class="node">
<title>Node34</title>
<g id="a_node34"><a xlink:title=" ">
<polygon fill="white" stroke="#bfbfbf" points="1428.5,-999.93 1428.5,-1018.93 1568.5,-1018.93 1568.5,-999.93 1428.5,-999.93"/>
<text text-anchor="middle" x="1498.5" y="-1006.93" font-family="Helvetica,sans-Serif" font-size="10.00">weak_ptr&lt; CacheTuple &gt;</text>
</a>
</g>
</g>
<!-- Node34&#45;&gt;Node13 -->
<g id="edge42" class="edge">
<title>Node34&#45;&gt;Node13</title>
<path fill="none" stroke="#9a32cd" stroke-dasharray="5,2" d="M1578.83,-1012.27C1651.76,-1013.08 1752.7,-1009.06 1781,-982.43 1818.36,-947.28 1764.06,-905.98 1799,-868.43 1805.89,-861.03 1814.95,-856.11 1824.59,-852.89"/>
<polygon fill="#9a32cd" stroke="#9a32cd" points="1578.79,-1008.77 1568.74,-1012.13 1578.69,-1015.77 1578.79,-1008.77"/>
<text text-anchor="middle" x="1690.5" y="-1014.43" font-family="Helvetica,sans-Serif" font-size="10.00"> cacheWeakPtr</text>
</g>
<!-- Node35 -->
<g id="node35" class="node">
<title>Node35</title>
<g id="a_node35"><a xlink:title=" ">
<polygon fill="white" stroke="#bfbfbf" points="1442.5,-958.93 1442.5,-977.93 1554.5,-977.93 1554.5,-958.93 1442.5,-958.93"/>
<text text-anchor="middle" x="1498.5" y="-965.93" font-family="Helvetica,sans-Serif" font-size="10.00">unique_ptr&lt; bool &gt;</text>
</a>
</g>
</g>
<!-- Node35&#45;&gt;Node13 -->
<g id="edge43" class="edge">
<title>Node35&#45;&gt;Node13</title>
<path fill="none" stroke="#9a32cd" stroke-dasharray="5,2" d="M1564.48,-962.03C1637,-953.7 1748.46,-936.99 1781,-910.43 1796.73,-897.59 1783.43,-881.47 1799,-868.43 1806.4,-862.23 1815.37,-857.87 1824.69,-854.82"/>
<polygon fill="#9a32cd" stroke="#9a32cd" points="1564.06,-958.55 1554.52,-963.15 1564.85,-965.51 1564.06,-958.55"/>
<text text-anchor="middle" x="1690.5" y="-970.43" font-family="Helvetica,sans-Serif" font-size="10.00"> matAssembleSwitch</text>
<text text-anchor="middle" x="1690.5" y="-959.43" font-family="Helvetica,sans-Serif" font-size="10.00">vecAssembleSwitch</text>
</g>
<!-- Node36 -->
<g id="node36" class="node">
<title>Node36</title>
<g id="a_node36"><a xlink:title=" ">
<polygon fill="white" stroke="#bfbfbf" points="1127,-865.93 1127,-884.93 1156,-884.93 1156,-865.93 1127,-865.93"/>
<text text-anchor="middle" x="1141.5" y="-872.93" font-family="Helvetica,sans-Serif" font-size="10.00">int</text>
</a>
</g>
</g>
<!-- Node36&#45;&gt;Node13 -->
<g id="edge44" class="edge">
<title>Node36&#45;&gt;Node13</title>
<path fill="none" stroke="#9a32cd" stroke-dasharray="5,2" d="M1166.24,-877.8C1267.6,-887.57 1664.27,-922.48 1781,-882.43 1790.59,-879.14 1789.85,-872.79 1799,-868.43 1808.13,-864.08 1818.27,-860.64 1828.29,-857.94"/>
<polygon fill="#9a32cd" stroke="#9a32cd" points="1166.41,-874.3 1156.11,-876.81 1165.73,-881.26 1166.41,-874.3"/>
<text text-anchor="middle" x="1498.5" y="-936.43" font-family="Helvetica,sans-Serif" font-size="10.00"> sIze</text>
<text text-anchor="middle" x="1498.5" y="-925.43" font-family="Helvetica,sans-Serif" font-size="10.00">loopSize</text>
<text text-anchor="middle" x="1498.5" y="-914.43" font-family="Helvetica,sans-Serif" font-size="10.00">nInTheLoop</text>
<text text-anchor="middle" x="1498.5" y="-903.43" font-family="Helvetica,sans-Serif" font-size="10.00">rAnk</text>
</g>
<!-- Node36&#45;&gt;Node38 -->
<g id="edge56" class="edge">
<title>Node36&#45;&gt;Node38</title>
<path fill="none" stroke="#9a32cd" stroke-dasharray="5,2" d="M1166.13,-878.08C1189.12,-879.22 1223.37,-876.9 1243,-856.43 1281.25,-816.56 1225.34,-775.63 1261,-733.43 1302,-684.91 1347.4,-729.13 1397,-689.43 1453.48,-644.23 1485.13,-558.05 1494.51,-529.15"/>
<polygon fill="#9a32cd" stroke="#9a32cd" points="1166.39,-874.59 1156.16,-877.33 1165.87,-881.57 1166.39,-874.59"/>
<text text-anchor="middle" x="1329" y="-802.43" font-family="Helvetica,sans-Serif" font-size="10.00"> tagNameSize</text>
<text text-anchor="middle" x="1329" y="-791.43" font-family="Helvetica,sans-Serif" font-size="10.00">nbDofsRow</text>
<text text-anchor="middle" x="1329" y="-780.43" font-family="Helvetica,sans-Serif" font-size="10.00">nbLocDofsCol</text>
<text text-anchor="middle" x="1329" y="-769.43" font-family="Helvetica,sans-Serif" font-size="10.00">nbDofsCol</text>
<text text-anchor="middle" x="1329" y="-758.43" font-family="Helvetica,sans-Serif" font-size="10.00">nbGhostDofsRow</text>
<text text-anchor="middle" x="1329" y="-747.43" font-family="Helvetica,sans-Serif" font-size="10.00">nbGhostDofsCol</text>
<text text-anchor="middle" x="1329" y="-736.43" font-family="Helvetica,sans-Serif" font-size="10.00">nbLocDofsRow</text>
</g>
<!-- Node37 -->
<g id="node37" class="node">
<title>Node37</title>
<g id="a_node37"><a xlink:title=" ">
<polygon fill="white" stroke="#bfbfbf" points="1415,-840.93 1415,-859.93 1582,-859.93 1582,-840.93 1415,-840.93"/>
<text text-anchor="middle" x="1498.5" y="-847.93" font-family="Helvetica,sans-Serif" font-size="10.00">function&lt; MoFEMErrorCode()&gt;</text>
</a>
</g>
</g>
<!-- Node37&#45;&gt;Node13 -->
<g id="edge45" class="edge">
<title>Node37&#45;&gt;Node13</title>
<path fill="none" stroke="#9a32cd" stroke-dasharray="5,2" d="M1592.23,-849.49C1594.85,-849.47 1597.44,-849.45 1600,-849.43 1677.68,-848.91 1767.27,-848.65 1824.95,-848.53"/>
<polygon fill="#9a32cd" stroke="#9a32cd" points="1592.01,-845.99 1582.04,-849.57 1592.07,-852.99 1592.01,-845.99"/>
<text text-anchor="middle" x="1690.5" y="-874.43" font-family="Helvetica,sans-Serif" font-size="10.00"> preProcessHook</text>
<text text-anchor="middle" x="1690.5" y="-863.43" font-family="Helvetica,sans-Serif" font-size="10.00">operatorHook</text>
<text text-anchor="middle" x="1690.5" y="-852.43" font-family="Helvetica,sans-Serif" font-size="10.00">postProcessHook</text>
</g>
<!-- Node38&#45;&gt;Node13 -->
<g id="edge46" class="edge">
<title>Node38&#45;&gt;Node13</title>
<path fill="none" stroke="#9a32cd" stroke-dasharray="5,2" d="M1518.96,-536.04C1587.9,-594.87 1819.18,-792.26 1873.51,-838.62"/>
<polygon fill="#9a32cd" stroke="#9a32cd" points="1520.92,-533.11 1511.04,-529.28 1516.37,-538.43 1520.92,-533.11"/>
<text text-anchor="middle" x="1690.5" y="-753.43" font-family="Helvetica,sans-Serif" font-size="10.00"> problemPtr</text>
</g>
<!-- Node39 -->
<g id="node39" class="node">
<title>Node39</title>
<g id="a_node39"><a xlink:title=" ">
<polygon fill="white" stroke="#bfbfbf" points="1058,-288.43 1058,-318.43 1225,-318.43 1225,-288.43 1058,-288.43"/>
<text text-anchor="start" x="1066" y="-306.43" font-family="Helvetica,sans-Serif" font-size="10.00">shared_ptr&lt; NumeredEntFinite</text>
<text text-anchor="middle" x="1141.5" y="-295.43" font-family="Helvetica,sans-Serif" font-size="10.00">Element_multiIndex &gt;</text>
</a>
</g>
</g>
<!-- Node39&#45;&gt;Node38 -->
<g id="edge47" class="edge">
<title>Node39&#45;&gt;Node38</title>
<path fill="none" stroke="#9a32cd" stroke-dasharray="5,2" d="M1235.21,-288.86C1286.86,-285.64 1350.03,-290.26 1397,-321.43 1466.38,-367.47 1490.23,-476.78 1495.99,-509.81"/>
<polygon fill="#9a32cd" stroke="#9a32cd" points="1234.76,-285.39 1225.04,-289.61 1235.27,-292.37 1234.76,-285.39"/>
<text text-anchor="middle" x="1329" y="-324.43" font-family="Helvetica,sans-Serif" font-size="10.00"> numeredFiniteElementsPtr</text>
</g>
<!-- Node40 -->
<g id="node40" class="node">
<title>Node40</title>
<g id="a_node40"><a xlink:title=" ">
<polygon fill="white" stroke="#bfbfbf" points="1112,-249.93 1112,-268.93 1171,-268.93 1171,-249.93 1112,-249.93"/>
<text text-anchor="middle" x="1141.5" y="-256.93" font-family="Helvetica,sans-Serif" font-size="10.00">BitFEId *</text>
</a>
</g>
</g>
<!-- Node40&#45;&gt;Node38 -->
<g id="edge48" class="edge">
<title>Node40&#45;&gt;Node38</title>
<path fill="none" stroke="#9a32cd" stroke-dasharray="5,2" d="M1181.09,-249.82C1234.84,-238.82 1332.84,-227.73 1397,-273.43 1479.67,-332.32 1494.47,-471.67 1497,-509.7"/>
<polygon fill="#9a32cd" stroke="#9a32cd" points="1180.31,-246.4 1171.27,-251.93 1181.78,-253.25 1180.31,-246.4"/>
<text text-anchor="middle" x="1329" y="-276.43" font-family="Helvetica,sans-Serif" font-size="10.00"> tagBitFEId</text>
</g>
<!-- Node41 -->
<g id="node41" class="node">
<title>Node41</title>
<g id="a_node41"><a xlink:href="classEntityHandle.html" target="_top" xlink:title=" ">
<polygon fill="white" stroke="black" points="1101.5,-677.93 1101.5,-696.93 1181.5,-696.93 1181.5,-677.93 1101.5,-677.93"/>
<text text-anchor="middle" x="1141.5" y="-684.93" font-family="Helvetica,sans-Serif" font-size="10.00">EntityHandle</text>
</a>
</g>
</g>
<!-- Node41&#45;&gt;Node38 -->
<g id="edge49" class="edge">
<title>Node41&#45;&gt;Node38</title>
<path fill="none" stroke="#9a32cd" stroke-dasharray="5,2" d="M1191.89,-683.11C1260.9,-676.77 1379.7,-664.57 1397,-654.43 1449.19,-623.86 1482.69,-554.46 1493.6,-529.02"/>
<polygon fill="#9a32cd" stroke="#9a32cd" points="1191.32,-679.65 1181.67,-684.05 1191.95,-686.62 1191.32,-679.65"/>
<text text-anchor="middle" x="1329" y="-678.43" font-family="Helvetica,sans-Serif" font-size="10.00"> meshset</text>
</g>
<!-- Node42 -->
<g id="node42" class="node">
<title>Node42</title>
<g id="a_node42"><a xlink:title=" ">
<polygon fill="white" stroke="#bfbfbf" points="1067,-628.43 1067,-658.43 1216,-658.43 1216,-628.43 1067,-628.43"/>
<text text-anchor="start" x="1075" y="-646.43" font-family="Helvetica,sans-Serif" font-size="10.00">shared_ptr&lt; MoFEM::</text>
<text text-anchor="middle" x="1141.5" y="-635.43" font-family="Helvetica,sans-Serif" font-size="10.00">ComposedProblemsData &gt;</text>
</a>
</g>
</g>
<!-- Node42&#45;&gt;Node38 -->
<g id="edge50" class="edge">
<title>Node42&#45;&gt;Node38</title>
<path fill="none" stroke="#9a32cd" stroke-dasharray="5,2" d="M1226.39,-641.58C1288.63,-639.09 1367.6,-633.22 1397,-619.43 1441.35,-598.64 1477.48,-549.75 1491.37,-529"/>
<polygon fill="#9a32cd" stroke="#9a32cd" points="1226.02,-638.1 1216.16,-641.97 1226.28,-645.09 1226.02,-638.1"/>
<text text-anchor="middle" x="1329" y="-642.43" font-family="Helvetica,sans-Serif" font-size="10.00"> composedProblemsData</text>
</g>
<!-- Node43 -->
<g id="node43" class="node">
<title>Node43</title>
<g id="a_node43"><a xlink:title=" ">
<polygon fill="white" stroke="#bfbfbf" points="1101,-589.93 1101,-608.93 1182,-608.93 1182,-589.93 1101,-589.93"/>
<text text-anchor="middle" x="1141.5" y="-596.93" font-family="Helvetica,sans-Serif" font-size="10.00">BitRefLevel *</text>
</a>
</g>
</g>
<!-- Node43&#45;&gt;Node38 -->
<g id="edge51" class="edge">
<title>Node43&#45;&gt;Node38</title>
<path fill="none" stroke="#9a32cd" stroke-dasharray="5,2" d="M1192.48,-598.94C1244.57,-597.24 1328.06,-591.12 1397,-570.43 1429.42,-560.7 1463.92,-540.83 1482.88,-528.97"/>
<polygon fill="#9a32cd" stroke="#9a32cd" points="1192.07,-595.45 1182.17,-599.24 1192.27,-602.45 1192.07,-595.45"/>
<text text-anchor="middle" x="1329" y="-607.43" font-family="Helvetica,sans-Serif" font-size="10.00"> tagBitRefLevelMask</text>
<text text-anchor="middle" x="1329" y="-596.43" font-family="Helvetica,sans-Serif" font-size="10.00">tagBitRefLevel</text>
</g>
<!-- Node44 -->
<g id="node44" class="node">
<title>Node44</title>
<g id="a_node44"><a xlink:title=" ">
<polygon fill="white" stroke="#bfbfbf" points="1056.5,-540.43 1056.5,-570.43 1226.5,-570.43 1226.5,-540.43 1056.5,-540.43"/>
<text text-anchor="start" x="1064.5" y="-558.43" font-family="Helvetica,sans-Serif" font-size="10.00">shared_ptr&lt; NumeredDofEntity</text>
<text text-anchor="middle" x="1141.5" y="-547.43" font-family="Helvetica,sans-Serif" font-size="10.00">_multiIndex &gt;</text>
</a>
</g>
</g>
<!-- Node44&#45;&gt;Node38 -->
<g id="edge52" class="edge">
<title>Node44&#45;&gt;Node38</title>
<path fill="none" stroke="#9a32cd" stroke-dasharray="5,2" d="M1236.59,-547.12C1284.62,-542.74 1343.96,-537.1 1397,-531.43 1413.95,-529.62 1432.48,-527.46 1448.97,-525.47"/>
<polygon fill="#9a32cd" stroke="#9a32cd" points="1236.16,-543.65 1226.52,-548.04 1236.79,-550.62 1236.16,-543.65"/>
<text text-anchor="middle" x="1329" y="-558.43" font-family="Helvetica,sans-Serif" font-size="10.00"> numeredRowDofsPtr</text>
<text text-anchor="middle" x="1329" y="-547.43" font-family="Helvetica,sans-Serif" font-size="10.00">numeredColDofsPtr</text>
</g>
<!-- Node45 -->
<g id="node45" class="node">
<title>Node45</title>
<g id="a_node45"><a xlink:title=" ">
<polygon fill="white" stroke="#bfbfbf" points="1072.5,-501.93 1072.5,-520.93 1210.5,-520.93 1210.5,-501.93 1072.5,-501.93"/>
<text text-anchor="middle" x="1141.5" y="-508.93" font-family="Helvetica,sans-Serif" font-size="10.00">vector&lt; BlockFieldPair &gt;</text>
</a>
</g>
</g>
<!-- Node45&#45;&gt;Node38 -->
<g id="edge54" class="edge">
<title>Node45&#45;&gt;Node38</title>
<path fill="none" stroke="#9a32cd" stroke-dasharray="5,2" d="M1220.57,-513.19C1290.2,-514.76 1389.95,-517.01 1448.8,-518.34"/>
<polygon fill="#9a32cd" stroke="#9a32cd" points="1220.6,-509.69 1210.53,-512.97 1220.45,-516.69 1220.6,-509.69"/>
<text text-anchor="middle" x="1329" y="-519.43" font-family="Helvetica,sans-Serif" font-size="10.00"> emptyFieldBlocks</text>
</g>
<!-- Node46 -->
<g id="node46" class="node">
<title>Node46</title>
<g id="a_node46"><a xlink:title=" ">
<polygon fill="white" stroke="#bfbfbf" points="1063.5,-414.43 1063.5,-444.43 1219.5,-444.43 1219.5,-414.43 1063.5,-414.43"/>
<text text-anchor="start" x="1071.5" y="-432.43" font-family="Helvetica,sans-Serif" font-size="10.00">shared_ptr&lt; MoFEM::</text>
<text text-anchor="middle" x="1141.5" y="-421.43" font-family="Helvetica,sans-Serif" font-size="10.00">Problem::SubProblemData &gt;</text>
</a>
</g>
</g>
<!-- Node46&#45;&gt;Node38 -->
<g id="edge55" class="edge">
<title>Node46&#45;&gt;Node38</title>
<path fill="none" stroke="#9a32cd" stroke-dasharray="5,2" d="M1229.84,-435.33C1279.73,-440.45 1342.92,-449.94 1397,-467.43 1429.34,-477.89 1463.86,-497.96 1482.85,-509.88"/>
<polygon fill="#9a32cd" stroke="#9a32cd" points="1230.03,-431.83 1219.73,-434.33 1229.34,-438.79 1230.03,-431.83"/>
<text text-anchor="middle" x="1329" y="-470.43" font-family="Helvetica,sans-Serif" font-size="10.00"> subProblemData</text>
</g>
<!-- Node47 -->
<g id="node47" class="node">
<title>Node47</title>
<g id="a_node47"><a xlink:title=" ">
<polygon fill="white" stroke="#bfbfbf" points="1040,-375.93 1040,-394.93 1243,-394.93 1243,-375.93 1040,-375.93"/>
<text text-anchor="middle" x="1141.5" y="-382.93" font-family="Helvetica,sans-Serif" font-size="10.00">shared_ptr&lt; SequenceDofContainer &gt;</text>
</a>
</g>
</g>
<!-- Node47&#45;&gt;Node38 -->
<g id="edge57" class="edge">
<title>Node47&#45;&gt;Node38</title>
<path fill="none" stroke="#9a32cd" stroke-dasharray="5,2" d="M1253.18,-381.13C1299.67,-383.4 1353.05,-391.61 1397,-413.43 1442.43,-435.99 1478.22,-488 1491.7,-509.67"/>
<polygon fill="#9a32cd" stroke="#9a32cd" points="1253.19,-377.62 1243.06,-380.72 1252.91,-384.62 1253.19,-377.62"/>
<text text-anchor="middle" x="1329" y="-427.43" font-family="Helvetica,sans-Serif" font-size="10.00"> sequenceRowDofContainer</text>
<text text-anchor="middle" x="1329" y="-416.43" font-family="Helvetica,sans-Serif" font-size="10.00">sequenceColDofContainer</text>
</g>
<!-- Node48 -->
<g id="node48" class="node">
<title>Node48</title>
<g id="a_node48"><a xlink:title=" ">
<polygon fill="white" stroke="#bfbfbf" points="1097.5,-337.93 1097.5,-356.93 1185.5,-356.93 1185.5,-337.93 1097.5,-337.93"/>
<text text-anchor="middle" x="1141.5" y="-344.93" font-family="Helvetica,sans-Serif" font-size="10.00">BitProblemId *</text>
</a>
</g>
</g>
<!-- Node48&#45;&gt;Node38 -->
<g id="edge58" class="edge">
<title>Node48&#45;&gt;Node38</title>
<path fill="none" stroke="#9a32cd" stroke-dasharray="5,2" d="M1195.64,-338.75C1250.1,-332.65 1335.3,-331.07 1397,-367.43 1454.24,-401.16 1485.2,-481.84 1494.48,-509.74"/>
<polygon fill="#9a32cd" stroke="#9a32cd" points="1195.01,-335.3 1185.51,-339.98 1195.86,-342.25 1195.01,-335.3"/>
<text text-anchor="middle" x="1329" y="-370.43" font-family="Helvetica,sans-Serif" font-size="10.00"> tagId</text>
</g>
<!-- Node49 -->
<g id="node49" class="node">
<title>Node49</title>
<g id="a_node49"><a xlink:title=" ">
<polygon fill="white" stroke="#bfbfbf" points="1805,-926.43 1805,-956.43 1967,-956.43 1967,-926.43 1805,-926.43"/>
<text text-anchor="start" x="1813" y="-944.43" font-family="Helvetica,sans-Serif" font-size="10.00">shared_ptr&lt; const MoFEM</text>
<text text-anchor="middle" x="1886" y="-933.43" font-family="Helvetica,sans-Serif" font-size="10.00">::NumeredEntFiniteElement &gt;</text>
</a>
</g>
</g>
<!-- Node49&#45;&gt;Node12 -->
<g id="edge59" class="edge">
<title>Node49&#45;&gt;Node12</title>
<path fill="none" stroke="#9a32cd" stroke-dasharray="5,2" d="M1977.25,-948.08C2030.29,-946.85 2094.64,-935.57 2135,-894.43 2168.47,-860.32 2119.48,-822.49 2153,-788.43 2165.82,-775.4 2184.51,-769.72 2202.4,-767.6"/>
<polygon fill="#9a32cd" stroke="#9a32cd" points="1977.11,-944.59 1967.15,-948.2 1977.19,-951.58 1977.11,-944.59"/>
<text text-anchor="middle" x="2063" y="-949.43" font-family="Helvetica,sans-Serif" font-size="10.00"> numeredEntFiniteElementPtr</text>
</g>
<!-- Node50 -->
<g id="node50" class="node">
<title>Node50</title>
<g id="a_node50"><a xlink:title=" ">
<polygon fill="white" stroke="#bfbfbf" points="1864,-468.93 1864,-487.93 1908,-487.93 1908,-468.93 1864,-468.93"/>
<text text-anchor="middle" x="1886" y="-475.93" font-family="Helvetica,sans-Serif" font-size="10.00">string</text>
</a>
</g>
</g>
<!-- Node50&#45;&gt;Node3 -->
<g id="edge82" class="edge">
<title>Node50&#45;&gt;Node3</title>
<path fill="none" stroke="#9a32cd" stroke-dasharray="5,2" d="M1918.16,-480.44C2036.05,-488.16 2466.08,-517.47 2819,-556.43 2824.86,-557.08 2830.91,-557.79 2836.99,-558.54"/>
<polygon fill="#9a32cd" stroke="#9a32cd" points="1918.24,-476.94 1908.04,-479.78 1917.79,-483.92 1918.24,-476.94"/>
<text text-anchor="middle" x="2458" y="-541.43" font-family="Helvetica,sans-Serif" font-size="10.00"> colFieldName</text>
<text text-anchor="middle" x="2458" y="-530.43" font-family="Helvetica,sans-Serif" font-size="10.00">rowFieldName</text>
</g>
<!-- Node50&#45;&gt;Node12 -->
<g id="edge60" class="edge">
<title>Node50&#45;&gt;Node12</title>
<path fill="none" stroke="#9a32cd" stroke-dasharray="5,2" d="M1917.62,-490.62C1938.11,-498.38 1965.84,-508.12 1991,-514.43 2022.43,-522.32 2112.57,-514.04 2135,-537.43 2158.85,-562.3 2135.97,-661.48 2153,-691.43 2171.63,-724.18 2210.11,-747.68 2234.12,-759.88"/>
<polygon fill="#9a32cd" stroke="#9a32cd" points="1918.77,-487.31 1908.18,-486.99 1916.26,-493.84 1918.77,-487.31"/>
<text text-anchor="middle" x="2063" y="-540.43" font-family="Helvetica,sans-Serif" font-size="10.00"> feName</text>
</g>
<!-- Node70 -->
<g id="node70" class="node">
<title>Node70</title>
<g id="a_node70"><a xlink:href="structCellEngineering_1_1DataFromFiles.html" target="_top" xlink:title=" ">
<polygon fill="white" stroke="black" points="2182.5,-381.43 2182.5,-411.43 2329.5,-411.43 2329.5,-381.43 2182.5,-381.43"/>
<text text-anchor="start" x="2190.5" y="-399.43" font-family="Helvetica,sans-Serif" font-size="10.00">CellEngineering::DataFrom</text>
<text text-anchor="middle" x="2256" y="-388.43" font-family="Helvetica,sans-Serif" font-size="10.00">Files</text>
</a>
</g>
</g>
<!-- Node50&#45;&gt;Node70 -->
<g id="edge86" class="edge">
<title>Node50&#45;&gt;Node70</title>
<path fill="none" stroke="#9a32cd" stroke-dasharray="5,2" d="M1917.8,-470.37C1938.42,-465.13 1966.23,-458.38 1991,-453.43 2054.56,-440.74 2071.71,-444.4 2135,-430.43 2158.89,-425.16 2185.07,-417.92 2206.87,-411.47"/>
<polygon fill="#9a32cd" stroke="#9a32cd" points="1916.83,-467 1908.01,-472.88 1918.56,-473.78 1916.83,-467"/>
<text text-anchor="middle" x="2063" y="-456.43" font-family="Helvetica,sans-Serif" font-size="10.00"> fIle</text>
</g>
<!-- Node51 -->
<g id="node51" class="node">
<title>Node51</title>
<g id="a_node51"><a xlink:title=" ">
<polygon fill="white" stroke="#bfbfbf" points="1804.5,-877.43 1804.5,-907.43 1967.5,-907.43 1967.5,-877.43 1804.5,-877.43"/>
<text text-anchor="start" x="1812.5" y="-895.43" font-family="Helvetica,sans-Serif" font-size="10.00">function&lt; bool(MoFEM</text>
<text text-anchor="middle" x="1886" y="-884.43" font-family="Helvetica,sans-Serif" font-size="10.00">::FEMethod *fe_method_ptr)&gt;</text>
</a>
</g>
</g>
<!-- Node51&#45;&gt;Node12 -->
<g id="edge61" class="edge">
<title>Node51&#45;&gt;Node12</title>
<path fill="none" stroke="#9a32cd" stroke-dasharray="5,2" d="M1977.75,-883.75C2028.51,-874.94 2090.34,-857.19 2135,-821.43 2148.04,-810.99 2139.48,-798.25 2153,-788.43 2167.21,-778.12 2185.4,-772.9 2202.46,-770.4"/>
<polygon fill="#9a32cd" stroke="#9a32cd" points="1977.06,-880.32 1967.76,-885.4 1978.2,-887.22 1977.06,-880.32"/>
<text text-anchor="middle" x="2063" y="-882.43" font-family="Helvetica,sans-Serif" font-size="10.00"> exeTestHook</text>
</g>
<!-- Node52 -->
<g id="node52" class="node">
<title>Node52</title>
<g id="a_node52"><a xlink:href="classdouble.html" target="_top" xlink:title=" ">
<polygon fill="white" stroke="black" points="1861,-388.93 1861,-407.93 1911,-407.93 1911,-388.93 1861,-388.93"/>
<text text-anchor="middle" x="1886" y="-395.93" font-family="Helvetica,sans-Serif" font-size="10.00">double</text>
</a>
</g>
</g>
<!-- Node52&#45;&gt;Node11 -->
<g id="edge62" class="edge">
<title>Node52&#45;&gt;Node11</title>
<path fill="none" stroke="#9a32cd" stroke-dasharray="5,2" d="M1906.97,-414.23C1927.22,-429.66 1959.91,-453.02 1991,-468.43 2051.57,-498.46 2092.01,-465.26 2135,-517.43 2172.65,-563.13 2114.37,-604.56 2153,-649.43 2269.62,-784.9 2388.44,-666.08 2539,-762.43 2584.85,-791.77 2621.85,-847.66 2635.42,-869.93"/>
<polygon fill="#9a32cd" stroke="#9a32cd" points="1908.89,-411.29 1898.84,-407.95 1904.61,-416.83 1908.89,-411.29"/>
<text text-anchor="middle" x="2256" y="-723.43" font-family="Helvetica,sans-Serif" font-size="10.00"> elementMeasure</text>
</g>
<!-- Node52&#45;&gt;Node70 -->
<g id="edge84" class="edge">
<title>Node52&#45;&gt;Node70</title>
<path fill="none" stroke="#9a32cd" stroke-dasharray="5,2" d="M1921.39,-398.05C1941.65,-397.84 1967.78,-397.59 1991,-397.43 2055.74,-397 2129.41,-396.74 2182.44,-396.59"/>
<polygon fill="#9a32cd" stroke="#9a32cd" points="1921.34,-394.55 1911.38,-398.16 1921.41,-401.55 1921.34,-394.55"/>
<text text-anchor="middle" x="2063" y="-422.43" font-family="Helvetica,sans-Serif" font-size="10.00"> sCale</text>
<text text-anchor="middle" x="2063" y="-411.43" font-family="Helvetica,sans-Serif" font-size="10.00">cUbe_size</text>
<text text-anchor="middle" x="2063" y="-400.43" font-family="Helvetica,sans-Serif" font-size="10.00">lAmbda</text>
</g>
<!-- Node52&#45;&gt;Node72 -->
<g id="edge89" class="edge">
<title>Node52&#45;&gt;Node72</title>
<path fill="none" stroke="#9a32cd" stroke-dasharray="5,2" d="M1921.02,-396.59C1937.79,-394.33 1957.66,-389.53 1973,-379.43 1984.44,-371.91 1981.34,-364.14 1991,-354.43 2073.35,-271.68 2194.12,-197.78 2238.15,-172.07"/>
<polygon fill="#9a32cd" stroke="#9a32cd" points="1920.59,-393.11 1911.04,-397.69 1921.36,-400.07 1920.59,-393.11"/>
<text text-anchor="middle" x="2063" y="-357.43" font-family="Helvetica,sans-Serif" font-size="10.00"> lAmbda</text>
</g>
<!-- Node53 -->
<g id="node53" class="node">
<title>Node53</title>
<g id="a_node53"><a xlink:title=" ">
<polygon fill="white" stroke="#bfbfbf" points="2170,-598.93 2170,-639.93 2342,-639.93 2342,-598.93 2170,-598.93"/>
<text text-anchor="start" x="2178" y="-627.93" font-family="Helvetica,sans-Serif" font-size="10.00">array&lt; boost::shared</text>
<text text-anchor="start" x="2178" y="-616.93" font-family="Helvetica,sans-Serif" font-size="10.00">_ptr&lt; MoFEM::EntitiesFieldData</text>
<text text-anchor="middle" x="2256" y="-605.93" font-family="Helvetica,sans-Serif" font-size="10.00"> &gt;, LASTSPACE &gt;</text>
</a>
</g>
</g>
<!-- Node53&#45;&gt;Node11 -->
<g id="edge63" class="edge">
<title>Node53&#45;&gt;Node11</title>
<path fill="none" stroke="#9a32cd" stroke-dasharray="5,2" d="M2352.26,-603.07C2411.27,-598.23 2485.68,-602.3 2539,-640.43 2619.54,-698.04 2636.96,-832.57 2640.28,-869.76"/>
<polygon fill="#9a32cd" stroke="#9a32cd" points="2351.83,-599.59 2342.19,-603.99 2352.46,-606.56 2351.83,-599.59"/>
<text text-anchor="middle" x="2458" y="-654.43" font-family="Helvetica,sans-Serif" font-size="10.00"> derivedDataOnElement</text>
<text text-anchor="middle" x="2458" y="-643.43" font-family="Helvetica,sans-Serif" font-size="10.00">dataOnElement</text>
</g>
<!-- Node54 -->
<g id="node54" class="node">
<title>Node54</title>
<g id="a_node54"><a xlink:title=" ">
<polygon fill="white" stroke="#bfbfbf" points="2222,-1066.93 2222,-1085.93 2290,-1085.93 2290,-1066.93 2222,-1066.93"/>
<text text-anchor="middle" x="2256" y="-1073.93" font-family="Helvetica,sans-Serif" font-size="10.00">EntityType</text>
</a>
</g>
</g>
<!-- Node54&#45;&gt;Node11 -->
<g id="edge64" class="edge">
<title>Node54&#45;&gt;Node11</title>
<path fill="none" stroke="#9a32cd" stroke-dasharray="5,2" d="M2300.38,-1077.42C2359.1,-1076.74 2465.04,-1068.22 2539,-1020.43 2591.53,-986.49 2625.8,-915.25 2636.99,-889.22"/>
<polygon fill="#9a32cd" stroke="#9a32cd" points="2300.31,-1073.92 2290.33,-1077.46 2300.34,-1080.92 2300.31,-1073.92"/>
<text text-anchor="middle" x="2458" y="-1074.43" font-family="Helvetica,sans-Serif" font-size="10.00"> lastEvaluatedElementEntityType</text>
</g>
<!-- Node55 -->
<g id="node55" class="node">
<title>Node55</title>
<g id="a_node55"><a xlink:href="structMoFEM_1_1DeprecatedCoreInterface.html" target="_top" xlink:title="Deprecated interface functions.">
<polygon fill="white" stroke="black" points="1600,-1558.93 1600,-1577.93 1781,-1577.93 1781,-1558.93 1600,-1558.93"/>
<text text-anchor="middle" x="1690.5" y="-1565.93" font-family="Helvetica,sans-Serif" font-size="10.00">MoFEM::DeprecatedCoreInterface</text>
</a>
</g>
</g>
<!-- Node55&#45;&gt;Node11 -->
<g id="edge65" class="edge">
<title>Node55&#45;&gt;Node11</title>
<path fill="none" stroke="#9a32cd" stroke-dasharray="5,2" d="M1777.91,-1555.64C1778.95,-1555.25 1779.98,-1554.85 1781,-1554.43 1968.98,-1477.81 1969.33,-1375.87 2153,-1289.43 2313.66,-1213.82 2409.74,-1308.16 2539,-1186.43 2630.18,-1100.57 2639.9,-931.34 2640.9,-889.14"/>
<polygon fill="#9a32cd" stroke="#9a32cd" points="1776.69,-1552.36 1768.32,-1558.85 1778.91,-1559 1776.69,-1552.36"/>
<text text-anchor="middle" x="2063" y="-1405.43" font-family="Helvetica,sans-Serif" font-size="10.00"> mField</text>
</g>
<!-- Node56&#45;&gt;Node55 -->
<g id="edge66" class="edge">
<title>Node56&#45;&gt;Node55</title>
<path fill="none" stroke="midnightblue" d="M1214.32,-1513.7C1315.56,-1525.36 1499.81,-1546.58 1606.69,-1558.9"/>
<polygon fill="midnightblue" stroke="midnightblue" points="1214.52,-1510.2 1204.18,-1512.54 1213.72,-1517.16 1214.52,-1510.2"/>
</g>
<!-- Node57 -->
<g id="node57" class="node">
<title>Node57</title>
<g id="a_node57"><a xlink:title=" ">
<polygon fill="white" stroke="#bfbfbf" points="2172.5,-995.43 2172.5,-1047.43 2339.5,-1047.43 2339.5,-995.43 2172.5,-995.43"/>
<text text-anchor="start" x="2180.5" y="-1035.43" font-family="Helvetica,sans-Serif" font-size="10.00">function&lt; MoFEMErrorCode</text>
<text text-anchor="start" x="2180.5" y="-1024.43" font-family="Helvetica,sans-Serif" font-size="10.00">(ForcesAndSourcesCore *fe</text>
<text text-anchor="start" x="2180.5" y="-1013.43" font-family="Helvetica,sans-Serif" font-size="10.00">_raw_ptr, int order_row,</text>
<text text-anchor="middle" x="2256" y="-1002.43" font-family="Helvetica,sans-Serif" font-size="10.00"> int order_col, int order_data)&gt;</text>
</a>
</g>
</g>
<!-- Node57&#45;&gt;Node11 -->
<g id="edge69" class="edge">
<title>Node57&#45;&gt;Node11</title>
<path fill="none" stroke="#9a32cd" stroke-dasharray="5,2" d="M2349.73,-1011.16C2406.41,-1002.37 2479.25,-986.52 2539,-958.43 2577.31,-940.42 2614.65,-905.95 2631.57,-889.13"/>
<polygon fill="#9a32cd" stroke="#9a32cd" points="2349.07,-1007.72 2339.7,-1012.66 2350.11,-1014.64 2349.07,-1007.72"/>
<text text-anchor="middle" x="2458" y="-1008.43" font-family="Helvetica,sans-Serif" font-size="10.00"> setRuleHook</text>
</g>
<!-- Node58 -->
<g id="node58" class="node">
<title>Node58</title>
<g id="a_node58"><a xlink:title=" ">
<polygon fill="white" stroke="#bfbfbf" points="2155,-946.43 2155,-976.43 2357,-976.43 2357,-946.43 2155,-946.43"/>
<text text-anchor="start" x="2163" y="-964.43" font-family="Helvetica,sans-Serif" font-size="10.00">ptr_deque&lt; MoFEM::Forces</text>
<text text-anchor="middle" x="2256" y="-953.43" font-family="Helvetica,sans-Serif" font-size="10.00">AndSourcesCore::UserDataOperator &gt;</text>
</a>
</g>
</g>
<!-- Node58&#45;&gt;Node11 -->
<g id="edge70" class="edge">
<title>Node58&#45;&gt;Node11</title>
<path fill="none" stroke="#9a32cd" stroke-dasharray="5,2" d="M2367.22,-945.97C2419.62,-937.68 2482.92,-926.3 2539,-912.43 2565.2,-905.95 2594.44,-896.23 2614.88,-889.01"/>
<polygon fill="#9a32cd" stroke="#9a32cd" points="2366.56,-942.53 2357.23,-947.53 2367.65,-949.45 2366.56,-942.53"/>
<text text-anchor="middle" x="2458" y="-946.43" font-family="Helvetica,sans-Serif" font-size="10.00"> opPtrVector</text>
</g>
<!-- Node59 -->
<g id="node59" class="node">
<title>Node59</title>
<g id="a_node59"><a xlink:href="structMoFEM_1_1EntitiesFieldData.html" target="_top" xlink:title="data structure for finite element entity">
<polygon fill="white" stroke="black" points="2185,-1104.93 2185,-1123.93 2327,-1123.93 2327,-1104.93 2185,-1104.93"/>
<text text-anchor="middle" x="2256" y="-1111.93" font-family="Helvetica,sans-Serif" font-size="10.00">MoFEM::EntitiesFieldData</text>
</a>
</g>
</g>
<!-- Node59&#45;&gt;Node11 -->
<g id="edge71" class="edge">
<title>Node59&#45;&gt;Node11</title>
<path fill="none" stroke="#9a32cd" stroke-dasharray="5,2" d="M2324.08,-1125.01C2385.48,-1130.98 2476.08,-1130.03 2539,-1086.43 2610.46,-1036.92 2634.06,-922.61 2639.59,-888.93"/>
<polygon fill="#9a32cd" stroke="#9a32cd" points="2324.42,-1121.53 2314.11,-1123.96 2323.68,-1128.49 2324.42,-1121.53"/>
<text text-anchor="middle" x="2458" y="-1174.43" font-family="Helvetica,sans-Serif" font-size="10.00"> dataNoField</text>
<text text-anchor="middle" x="2458" y="-1163.43" font-family="Helvetica,sans-Serif" font-size="10.00">dataL2</text>
<text text-anchor="middle" x="2458" y="-1152.43" font-family="Helvetica,sans-Serif" font-size="10.00">dataH1</text>
<text text-anchor="middle" x="2458" y="-1141.43" font-family="Helvetica,sans-Serif" font-size="10.00">dataHcurl</text>
<text text-anchor="middle" x="2458" y="-1130.43" font-family="Helvetica,sans-Serif" font-size="10.00">dataHdiv</text>
</g>
<!-- Node60 -->
<g id="node60" class="node">
<title>Node60</title>
<g id="a_node60"><a xlink:title=" ">
<polygon fill="white" stroke="#bfbfbf" points="1805,-1036.43 1805,-1066.43 1967,-1066.43 1967,-1036.43 1805,-1036.43"/>
<text text-anchor="start" x="1813" y="-1054.43" font-family="Helvetica,sans-Serif" font-size="10.00">array&lt; std::bitset</text>
<text text-anchor="middle" x="1886" y="-1043.43" font-family="Helvetica,sans-Serif" font-size="10.00">&lt; LASTBASE &gt;, LASTSPACE &gt;</text>
</a>
</g>
</g>
<!-- Node60&#45;&gt;Node59 -->
<g id="edge72" class="edge">
<title>Node60&#45;&gt;Node59</title>
<path fill="none" stroke="#9a32cd" stroke-dasharray="5,2" d="M1977.05,-1042.14C2026.44,-1041.06 2087.17,-1046.58 2135,-1072.43 2146.42,-1078.61 2141.9,-1088.7 2153,-1095.43 2162.62,-1101.27 2173.63,-1105.39 2184.77,-1108.29"/>
<polygon fill="#9a32cd" stroke="#9a32cd" points="1976.9,-1038.65 1967.02,-1042.46 1977.12,-1045.64 1976.9,-1038.65"/>
<text text-anchor="middle" x="2063" y="-1086.43" font-family="Helvetica,sans-Serif" font-size="10.00"> brokenBasesOnSpaces</text>
<text text-anchor="middle" x="2063" y="-1075.43" font-family="Helvetica,sans-Serif" font-size="10.00">basesOnSpaces</text>
</g>
<!-- Node61 -->
<g id="node61" class="node">
<title>Node61</title>
<g id="a_node61"><a xlink:title=" ">
<polygon fill="white" stroke="#bfbfbf" points="1809.5,-975.93 1809.5,-1016.93 1962.5,-1016.93 1962.5,-975.93 1809.5,-975.93"/>
<text text-anchor="start" x="1817.5" y="-1004.93" font-family="Helvetica,sans-Serif" font-size="10.00">array&lt; boost::ptr_vector</text>
<text text-anchor="start" x="1817.5" y="-993.93" font-family="Helvetica,sans-Serif" font-size="10.00">&lt; MoFEM::EntitiesFieldData</text>
<text text-anchor="middle" x="1886" y="-982.93" font-family="Helvetica,sans-Serif" font-size="10.00">::EntData &gt;, MBMAXTYPE &gt;</text>
</a>
</g>
</g>
<!-- Node61&#45;&gt;Node59 -->
<g id="edge73" class="edge">
<title>Node61&#45;&gt;Node59</title>
<path fill="none" stroke="#9a32cd" stroke-dasharray="5,2" d="M1972.62,-984.32C2025.46,-981.78 2091.27,-988.24 2135,-1026.43 2158.87,-1047.28 2129.81,-1073.83 2153,-1095.43 2161.83,-1103.66 2173.03,-1108.88 2184.74,-1112.11"/>
<polygon fill="#9a32cd" stroke="#9a32cd" points="1972.35,-980.83 1962.57,-984.92 1972.76,-987.82 1972.35,-980.83"/>
<text text-anchor="middle" x="2063" y="-1029.43" font-family="Helvetica,sans-Serif" font-size="10.00"> dataOnEntities</text>
</g>
<!-- Node62 -->
<g id="node62" class="node">
<title>Node62</title>
<g id="a_node62"><a xlink:title=" ">
<polygon fill="white" stroke="#bfbfbf" points="1799,-1211.43 1799,-1241.43 1973,-1241.43 1973,-1211.43 1799,-1211.43"/>
<text text-anchor="start" x="1807" y="-1229.43" font-family="Helvetica,sans-Serif" font-size="10.00">array&lt; std::bitset</text>
<text text-anchor="middle" x="1886" y="-1218.43" font-family="Helvetica,sans-Serif" font-size="10.00">&lt; LASTSPACE &gt;, MBMAXTYPE &gt;</text>
</a>
</g>
</g>
<!-- Node62&#45;&gt;Node59 -->
<g id="edge74" class="edge">
<title>Node62&#45;&gt;Node59</title>
<path fill="none" stroke="#9a32cd" stroke-dasharray="5,2" d="M1983.26,-1219.5C2030.11,-1213.98 2086.63,-1204.1 2135,-1186.43 2177.45,-1170.93 2221.56,-1139.95 2242.51,-1124.16"/>
<polygon fill="#9a32cd" stroke="#9a32cd" points="1982.65,-1216.04 1973.11,-1220.64 1983.44,-1223 1982.65,-1216.04"/>
<text text-anchor="middle" x="2063" y="-1220.43" font-family="Helvetica,sans-Serif" font-size="10.00"> spacesOnEntities</text>
</g>
<!-- Node63 -->
<g id="node63" class="node">
<title>Node63</title>
<g id="a_node63"><a xlink:title=" ">
<polygon fill="white" stroke="#bfbfbf" points="1801.5,-1162.43 1801.5,-1192.43 1970.5,-1192.43 1970.5,-1162.43 1801.5,-1162.43"/>
<text text-anchor="start" x="1809.5" y="-1180.43" font-family="Helvetica,sans-Serif" font-size="10.00">array&lt; std::bitset</text>
<text text-anchor="middle" x="1886" y="-1169.43" font-family="Helvetica,sans-Serif" font-size="10.00">&lt; LASTBASE &gt;, MBMAXTYPE &gt;</text>
</a>
</g>
</g>
<!-- Node63&#45;&gt;Node59 -->
<g id="edge75" class="edge">
<title>Node63&#45;&gt;Node59</title>
<path fill="none" stroke="#9a32cd" stroke-dasharray="5,2" d="M1980.74,-1173.19C2027.46,-1169.85 2084.6,-1163.93 2135,-1153.43 2168.88,-1146.37 2206.65,-1133.17 2230.6,-1124.1"/>
<polygon fill="#9a32cd" stroke="#9a32cd" points="1980.37,-1169.71 1970.63,-1173.88 1980.85,-1176.69 1980.37,-1169.71"/>
<text text-anchor="middle" x="2063" y="-1174.43" font-family="Helvetica,sans-Serif" font-size="10.00"> basesOnEntities</text>
</g>
<!-- Node64 -->
<g id="node64" class="node">
<title>Node64</title>
<g id="a_node64"><a xlink:title=" ">
<polygon fill="white" stroke="#bfbfbf" points="1830,-1123.93 1830,-1142.93 1942,-1142.93 1942,-1123.93 1830,-1123.93"/>
<text text-anchor="middle" x="1886" y="-1130.93" font-family="Helvetica,sans-Serif" font-size="10.00">UBlasMatrix&lt; int &gt;</text>
</a>
</g>
</g>
<!-- Node64&#45;&gt;Node59 -->
<g id="edge76" class="edge">
<title>Node64&#45;&gt;Node59</title>
<path fill="none" stroke="#9a32cd" stroke-dasharray="5,2" d="M1952.26,-1130.06C2017.56,-1126.69 2117.69,-1121.52 2184.71,-1118.06"/>
<polygon fill="#9a32cd" stroke="#9a32cd" points="1951.9,-1126.58 1942.09,-1130.59 1952.26,-1133.57 1951.9,-1126.58"/>
<text text-anchor="middle" x="2063" y="-1141.43" font-family="Helvetica,sans-Serif" font-size="10.00"> facesNodesOrder</text>
<text text-anchor="middle" x="2063" y="-1130.43" font-family="Helvetica,sans-Serif" font-size="10.00">facesNodes</text>
</g>
<!-- Node65 -->
<g id="node65" class="node">
<title>Node65</title>
<g id="a_node65"><a xlink:title=" ">
<polygon fill="white" stroke="#bfbfbf" points="1827.5,-1085.93 1827.5,-1104.93 1944.5,-1104.93 1944.5,-1085.93 1827.5,-1085.93"/>
<text text-anchor="middle" x="1886" y="-1092.93" font-family="Helvetica,sans-Serif" font-size="10.00">bitset&lt; LASTBASE &gt;</text>
</a>
</g>
</g>
<!-- Node65&#45;&gt;Node59 -->
<g id="edge77" class="edge">
<title>Node65&#45;&gt;Node59</title>
<path fill="none" stroke="#9a32cd" stroke-dasharray="5,2" d="M1954.68,-1097.53C2004.55,-1099.23 2074.03,-1101.92 2135,-1105.43 2151.16,-1106.36 2168.54,-1107.56 2184.91,-1108.77"/>
<polygon fill="#9a32cd" stroke="#9a32cd" points="1954.77,-1094.03 1944.66,-1097.19 1954.53,-1101.03 1954.77,-1094.03"/>
<text text-anchor="middle" x="2063" y="-1108.43" font-family="Helvetica,sans-Serif" font-size="10.00"> bAse</text>
</g>
<!-- Node66 -->
<g id="node66" class="node">
<title>Node66</title>
<g id="a_node66"><a xlink:title=" ">
<polygon fill="white" stroke="#bfbfbf" points="2193.5,-885.93 2193.5,-926.93 2318.5,-926.93 2318.5,-885.93 2193.5,-885.93"/>
<text text-anchor="start" x="2201.5" y="-914.93" font-family="Helvetica,sans-Serif" font-size="10.00">function&lt; int(int order</text>
<text text-anchor="start" x="2201.5" y="-903.93" font-family="Helvetica,sans-Serif" font-size="10.00">_row, int order_col, int</text>
<text text-anchor="middle" x="2256" y="-892.93" font-family="Helvetica,sans-Serif" font-size="10.00"> order_data)&gt;</text>
</a>
</g>
</g>
<!-- Node66&#45;&gt;Node11 -->
<g id="edge78" class="edge">
<title>Node66&#45;&gt;Node11</title>
<path fill="none" stroke="#9a32cd" stroke-dasharray="5,2" d="M2328.81,-901.38C2393.51,-896.83 2488.67,-890.14 2556.91,-885.35"/>
<polygon fill="#9a32cd" stroke="#9a32cd" points="2328.43,-897.9 2318.7,-902.09 2328.92,-904.88 2328.43,-897.9"/>
<text text-anchor="middle" x="2458" y="-900.43" font-family="Helvetica,sans-Serif" font-size="10.00"> getRuleHook</text>
</g>
<!-- Node67 -->
<g id="node67" class="node">
<title>Node67</title>
<g id="a_node67"><a xlink:title=" ">
<polygon fill="white" stroke="#bfbfbf" points="2195,-836.43 2195,-866.43 2317,-866.43 2317,-836.43 2195,-836.43"/>
<text text-anchor="start" x="2203" y="-854.43" font-family="Helvetica,sans-Serif" font-size="10.00">shared_ptr&lt; MoFEM::</text>
<text text-anchor="middle" x="2256" y="-843.43" font-family="Helvetica,sans-Serif" font-size="10.00">BaseFunction &gt;</text>
</a>
</g>
</g>
<!-- Node67&#45;&gt;Node11 -->
<g id="edge79" class="edge">
<title>Node67&#45;&gt;Node11</title>
<path fill="none" stroke="#9a32cd" stroke-dasharray="5,2" d="M2327.16,-850.71C2384.34,-850.84 2467.1,-852.64 2539,-860.43 2558.52,-862.55 2579.91,-866.31 2598.04,-869.93"/>
<polygon fill="#9a32cd" stroke="#9a32cd" points="2327.15,-847.21 2317.15,-850.71 2327.15,-854.21 2327.15,-847.21"/>
<text text-anchor="middle" x="2458" y="-874.43" font-family="Helvetica,sans-Serif" font-size="10.00"> userPolynomialBasePtr</text>
<text text-anchor="middle" x="2458" y="-863.43" font-family="Helvetica,sans-Serif" font-size="10.00">elementPolynomialBasePtr</text>
</g>
<!-- Node68 -->
<g id="node68" class="node">
<title>Node68</title>
<g id="a_node68"><a xlink:href="classUBlasMatrix_3_01double_01_4.html" target="_top" xlink:title=" ">
<polygon fill="white" stroke="black" points="2190,-797.93 2190,-816.93 2322,-816.93 2322,-797.93 2190,-797.93"/>
<text text-anchor="middle" x="2256" y="-804.93" font-family="Helvetica,sans-Serif" font-size="10.00">UBlasMatrix&lt; double &gt;</text>
</a>
</g>
</g>
<!-- Node68&#45;&gt;Node11 -->
<g id="edge80" class="edge">
<title>Node68&#45;&gt;Node11</title>
<path fill="none" stroke="#9a32cd" stroke-dasharray="5,2" d="M2332.29,-803.25C2389.96,-802.12 2470.91,-805.05 2539,-824.43 2573.25,-834.18 2608.9,-856.74 2627.64,-869.74"/>
<polygon fill="#9a32cd" stroke="#9a32cd" points="2332.08,-799.75 2322.17,-803.49 2332.25,-806.75 2332.08,-799.75"/>
<text text-anchor="middle" x="2458" y="-838.43" font-family="Helvetica,sans-Serif" font-size="10.00"> coordsAtGaussPts</text>
<text text-anchor="middle" x="2458" y="-827.43" font-family="Helvetica,sans-Serif" font-size="10.00">gaussPts</text>
</g>
<!-- Node69 -->
<g id="node69" class="node">
<title>Node69</title>
<g id="a_node69"><a xlink:title=" ">
<polygon fill="white" stroke="#bfbfbf" points="2576.5,-430.93 2576.5,-449.93 2707.5,-449.93 2707.5,-430.93 2576.5,-430.93"/>
<text text-anchor="middle" x="2642" y="-437.93" font-family="Helvetica,sans-Serif" font-size="10.00">static const char *const</text>
</a>
</g>
</g>
<!-- Node69&#45;&gt;Node3 -->
<g id="edge81" class="edge">
<title>Node69&#45;&gt;Node3</title>
<path fill="none" stroke="#9a32cd" stroke-dasharray="5,2" d="M2717.98,-433.57C2750.56,-433.65 2788.22,-438.04 2819,-453.43 2864.55,-476.21 2898.44,-529.13 2913.06,-555.27"/>
<polygon fill="#9a32cd" stroke="#9a32cd" points="2717.56,-430.08 2707.6,-433.69 2717.64,-437.08 2717.56,-430.08"/>
<text text-anchor="middle" x="2782" y="-456.43" font-family="Helvetica,sans-Serif" font-size="10.00"> OpTypeNames</text>
</g>
<!-- Node70&#45;&gt;Node1 -->
<g id="edge83" class="edge">
<title>Node70&#45;&gt;Node1</title>
<path fill="none" stroke="#9a32cd" stroke-dasharray="5,2" d="M2339.76,-396.43C2417.53,-396.43 2537.16,-396.43 2641,-396.43 2641,-396.43 2641,-396.43 3140.5,-396.43 3183.86,-396.43 3232.28,-396.43 3271.59,-396.43"/>
<polygon fill="#9a32cd" stroke="#9a32cd" points="2339.54,-392.93 2329.54,-396.43 2339.54,-399.93 2339.54,-392.93"/>
<text text-anchor="middle" x="2922" y="-399.43" font-family="Helvetica,sans-Serif" font-size="10.00"> dataFromFiles</text>
</g>
<!-- Node71 -->
<g id="node71" class="node">
<title>Node71</title>
<g id="a_node71"><a xlink:title=" ">
<polygon fill="white" stroke="#bfbfbf" points="1808,-350.93 1808,-369.93 1964,-369.93 1964,-350.93 1808,-350.93"/>
<text text-anchor="middle" x="1886" y="-357.93" font-family="Helvetica,sans-Serif" font-size="10.00">vector&lt; vector&lt; double &gt; &gt;</text>
</a>
</g>
</g>
<!-- Node71&#45;&gt;Node70 -->
<g id="edge85" class="edge">
<title>Node71&#45;&gt;Node70</title>
<path fill="none" stroke="#9a32cd" stroke-dasharray="5,2" d="M1974.39,-367.59C2021.92,-371.63 2081.72,-376.96 2135,-382.43 2150.34,-384.01 2166.76,-385.83 2182.38,-387.63"/>
<polygon fill="#9a32cd" stroke="#9a32cd" points="1974.39,-364.08 1964.13,-366.72 1973.8,-371.05 1974.39,-364.08"/>
<text text-anchor="middle" x="2063" y="-385.43" font-family="Helvetica,sans-Serif" font-size="10.00"> main_vector</text>
</g>
<!-- Node72&#45;&gt;Node1 -->
<g id="edge87" class="edge">
<title>Node72&#45;&gt;Node1</title>
<path fill="none" stroke="#9a32cd" stroke-dasharray="5,2" d="M2295.44,-175.23C2364.02,-196.88 2512.36,-238.43 2641,-238.43 2641,-238.43 2641,-238.43 3140.5,-238.43 3234.66,-238.43 3313.19,-341.74 3339.81,-381.28"/>
<polygon fill="#9a32cd" stroke="#9a32cd" points="2296.11,-171.77 2285.52,-172.06 2293.98,-178.44 2296.11,-171.77"/>
<text text-anchor="middle" x="2922" y="-241.43" font-family="Helvetica,sans-Serif" font-size="10.00"> commonData</text>
</g>
<!-- Node73 -->
<g id="node73" class="node">
<title>Node73</title>
<g id="a_node73"><a xlink:title=" ">
<polygon fill="white" stroke="#bfbfbf" points="1844.5,-32.93 1844.5,-51.93 1927.5,-51.93 1927.5,-32.93 1844.5,-32.93"/>
<text text-anchor="middle" x="1886" y="-39.93" font-family="Helvetica,sans-Serif" font-size="10.00">MatrixDouble</text>
</a>
</g>
</g>
<!-- Node73&#45;&gt;Node72 -->
<g id="edge88" class="edge">
<title>Node73&#45;&gt;Node72</title>
<path fill="none" stroke="#9a32cd" stroke-dasharray="5,2" d="M1938.03,-38.09C1989.66,-35.64 2070.8,-37.26 2135,-63.43 2184.77,-83.72 2229.67,-132.29 2247.2,-152.91"/>
<polygon fill="#9a32cd" stroke="#9a32cd" points="1937.59,-34.6 1927.79,-38.64 1937.97,-41.59 1937.59,-34.6"/>
<text text-anchor="middle" x="2063" y="-110.43" font-family="Helvetica,sans-Serif" font-size="10.00"> gradForceAtGaussPtrs</text>
<text text-anchor="middle" x="2063" y="-99.43" font-family="Helvetica,sans-Serif" font-size="10.00">locA</text>
<text text-anchor="middle" x="2063" y="-88.43" font-family="Helvetica,sans-Serif" font-size="10.00">transLocA</text>
<text text-anchor="middle" x="2063" y="-77.43" font-family="Helvetica,sans-Serif" font-size="10.00">invJac</text>
<text text-anchor="middle" x="2063" y="-66.43" font-family="Helvetica,sans-Serif" font-size="10.00">forceAtGaussPts</text>
</g>
<!-- Node74 -->
<g id="node74" class="node">
<title>Node74</title>
<g id="a_node74"><a xlink:title=" ">
<polygon fill="white" stroke="#bfbfbf" points="1808,-107.93 1808,-126.93 1964,-126.93 1964,-107.93 1808,-107.93"/>
<text text-anchor="middle" x="1886" y="-114.93" font-family="Helvetica,sans-Serif" font-size="10.00">shared_ptr&lt; VectorDouble &gt;</text>
</a>
</g>
</g>
<!-- Node74&#45;&gt;Node72 -->
<g id="edge90" class="edge">
<title>Node74&#45;&gt;Node72</title>
<path fill="none" stroke="#9a32cd" stroke-dasharray="5,2" d="M1974.39,-121.2C2022.04,-123.99 2081.96,-128.69 2135,-136.43 2162.84,-140.5 2193.88,-147.28 2217.41,-152.9"/>
<polygon fill="#9a32cd" stroke="#9a32cd" points="1974.29,-117.69 1964.1,-120.62 1973.89,-124.68 1974.29,-117.69"/>
<text text-anchor="middle" x="2063" y="-150.43" font-family="Helvetica,sans-Serif" font-size="10.00"> dispX</text>
<text text-anchor="middle" x="2063" y="-139.43" font-family="Helvetica,sans-Serif" font-size="10.00">dispY</text>
</g>
<!-- Node75 -->
<g id="node75" class="node">
<title>Node75</title>
<g id="a_node75"><a xlink:title=" ">
<polygon fill="white" stroke="#bfbfbf" points="1845,-152.93 1845,-171.93 1927,-171.93 1927,-152.93 1845,-152.93"/>
<text text-anchor="middle" x="1886" y="-159.93" font-family="Helvetica,sans-Serif" font-size="10.00">VectorDouble</text>
</a>
</g>
</g>
<!-- Node75&#45;&gt;Node72 -->
<g id="edge92" class="edge">
<title>Node75&#45;&gt;Node72</title>
<path fill="none" stroke="#9a32cd" stroke-dasharray="5,2" d="M1937.15,-162.43C1997.64,-162.43 2100.19,-162.43 2172.42,-162.43"/>
<polygon fill="#9a32cd" stroke="#9a32cd" points="1937.08,-158.93 1927.08,-162.43 1937.08,-165.93 1937.08,-158.93"/>
<text text-anchor="middle" x="2063" y="-198.43" font-family="Helvetica,sans-Serif" font-size="10.00"> locF</text>
<text text-anchor="start" x="2008.5" y="-187.43" font-family="Helvetica,sans-Serif" font-size="10.00">forcePotentialAtGauss</text>
<text text-anchor="middle" x="2063" y="-176.43" font-family="Helvetica,sans-Serif" font-size="10.00">Points</text>
<text text-anchor="middle" x="2063" y="-165.43" font-family="Helvetica,sans-Serif" font-size="10.00">dispAtGaussPts</text>
</g>
</g>
</svg>
