<?xml version="1.0" encoding="UTF-8" standalone="no"?>
<!DOCTYPE svg PUBLIC "-//W3C//DTD SVG 1.1//EN"
 "http://www.w3.org/Graphics/SVG/1.1/DTD/svg11.dtd">
<!-- Generated by graphviz version 2.43.0 (0)
 -->
<!-- Title: MoFEM::RefElement_VERTEX Pages: 1 -->
<svg width="189pt" height="220pt"
 viewBox="0.00 0.00 189.00 220.00" xmlns="http://www.w3.org/2000/svg" xmlns:xlink="http://www.w3.org/1999/xlink">
<g id="graph0" class="graph" transform="scale(1 1) rotate(0) translate(4 216)">
<title>MoFEM::RefElement_VERTEX</title>
<polygon fill="white" stroke="transparent" points="-4,4 -4,-216 185,-216 185,4 -4,4"/>
<!-- Node1 -->
<g id="node1" class="node">
<title>Node1</title>
<g id="a_node1"><a xlink:title="keeps data about abstract VERTEX finite element">
<polygon fill="#bfbfbf" stroke="black" points="11.5,-0.5 11.5,-19.5 169.5,-19.5 169.5,-0.5 11.5,-0.5"/>
<text text-anchor="middle" x="90.5" y="-7.5" font-family="Helvetica,sans-Serif" font-size="10.00">MoFEM::RefElement_VERTEX</text>
</a>
</g>
</g>
<!-- Node2 -->
<g id="node2" class="node">
<title>Node2</title>
<g id="a_node2"><a xlink:href="structMoFEM_1_1RefElement.html" target="_top" xlink:title="keeps data about abstract refined finite element">
<polygon fill="white" stroke="black" points="32.5,-57.5 32.5,-76.5 148.5,-76.5 148.5,-57.5 32.5,-57.5"/>
<text text-anchor="middle" x="90.5" y="-64.5" font-family="Helvetica,sans-Serif" font-size="10.00">MoFEM::RefElement</text>
</a>
</g>
</g>
<!-- Node2&#45;&gt;Node1 -->
<g id="edge1" class="edge">
<title>Node2&#45;&gt;Node1</title>
<path fill="none" stroke="midnightblue" d="M90.5,-47.12C90.5,-37.82 90.5,-27.06 90.5,-19.71"/>
<polygon fill="midnightblue" stroke="midnightblue" points="87,-47.41 90.5,-57.41 94,-47.41 87,-47.41"/>
</g>
<!-- Node3 -->
<g id="node3" class="node">
<title>Node3</title>
<g id="a_node3"><a xlink:href="structMoFEM_1_1interface__RefEntity.html" target="_top" xlink:title=" ">
<polygon fill="white" stroke="black" points="14.5,-114.5 14.5,-144.5 166.5,-144.5 166.5,-114.5 14.5,-114.5"/>
<text text-anchor="start" x="22.5" y="-132.5" font-family="Helvetica,sans-Serif" font-size="10.00">MoFEM::interface_RefEntity</text>
<text text-anchor="middle" x="90.5" y="-121.5" font-family="Helvetica,sans-Serif" font-size="10.00">&lt; RefEntity &gt;</text>
</a>
</g>
</g>
<!-- Node3&#45;&gt;Node2 -->
<g id="edge2" class="edge">
<title>Node3&#45;&gt;Node2</title>
<path fill="none" stroke="midnightblue" d="M90.5,-104.35C90.5,-94.51 90.5,-83.78 90.5,-76.54"/>
<polygon fill="midnightblue" stroke="midnightblue" points="87,-104.47 90.5,-114.47 94,-104.47 87,-104.47"/>
</g>
<!-- Node4 -->
<g id="node4" class="node">
<title>Node4</title>
<g id="a_node4"><a xlink:href="structMoFEM_1_1interface__RefEntity.html" target="_top" xlink:title="interface to RefEntity">
<polygon fill="white" stroke="black" points="0,-192.5 0,-211.5 181,-211.5 181,-192.5 0,-192.5"/>
<text text-anchor="middle" x="90.5" y="-199.5" font-family="Helvetica,sans-Serif" font-size="10.00">MoFEM::interface_RefEntity&lt; T &gt;</text>
</a>
</g>
</g>
<!-- Node4&#45;&gt;Node3 -->
<g id="edge3" class="edge">
<title>Node4&#45;&gt;Node3</title>
<path fill="none" stroke="orange" stroke-dasharray="5,2" d="M90.5,-182.24C90.5,-170.41 90.5,-155.38 90.5,-144.58"/>
<polygon fill="orange" stroke="orange" points="87,-182.36 90.5,-192.36 94,-182.36 87,-182.36"/>
<text text-anchor="middle" x="126" y="-166" font-family="Helvetica,sans-Serif" font-size="10.00"> &lt; RefEntity &gt;</text>
</g>
</g>
</svg>
