<?xml version="1.0" encoding="UTF-8" standalone="no"?>
<!DOCTYPE svg PUBLIC "-//W3C//DTD SVG 1.1//EN"
 "http://www.w3.org/Graphics/SVG/1.1/DTD/svg11.dtd">
<!-- Generated by graphviz version 2.43.0 (0)
 -->
<!-- Title: MoFEM::FEMethod Pages: 1 -->
<!--zoomable 1388 -->
<svg id="main" version="1.1" xmlns="http://www.w3.org/2000/svg" xmlns:xlink="http://www.w3.org/1999/xlink" xml:space="preserve" onload="init(evt)">
<style type="text/css"><![CDATA[
.edge:hover path { stroke: red; }
.edge:hover polygon { stroke: red; fill: red; }
]]></style>
<script type="text/javascript"><![CDATA[
var edges = document.getElementsByTagName('g');
if (edges && edges.length) {
  for (var i=0;i<edges.length;i++) {
    if (edges[i].id.substr(0,4)=='edge') {
      edges[i].setAttribute('class','edge');
    }
  }
}
]]></script>
        <defs>
                <circle id="rim" cx="0" cy="0" r="7"/>
                <circle id="rim2" cx="0" cy="0" r="3.5"/>
                <g id="zoomPlus">
                        <use xlink:href="#rim" fill="#404040">
                                <set attributeName="fill" to="#808080" begin="zoomplus.mouseover" end="zoomplus.mouseout"/>
                        </use>
                        <path d="M-4,0h8M0,-4v8" fill="none" stroke="white" stroke-width="1.5" pointer-events="none"/>
                </g>
                <g id="zoomMin">
                        <use xlink:href="#rim" fill="#404040">
                                <set attributeName="fill" to="#808080" begin="zoomminus.mouseover" end="zoomminus.mouseout"/>
                        </use>
                        <path d="M-4,0h8" fill="none" stroke="white" stroke-width="1.5" pointer-events="none"/>
                </g>
                <g id="dirArrow">
                        <path fill="none" stroke="white" stroke-width="1.5" d="M0,-3.0v7 M-2.5,-0.5L0,-3.0L2.5,-0.5"/>
                </g>
               <g id="resetDef">
                       <use xlink:href="#rim2" fill="#404040">
                               <set attributeName="fill" to="#808080" begin="reset.mouseover" end="reset.mouseout"/>
                       </use>
               </g>
        </defs>

<script type="text/javascript">
var viewWidth = 2179;
var viewHeight = 1388;
var sectionId = 'dynsection-1';
</script>
<script xlink:href="svgpan.js"/>
<svg id="graph" class="graph">
<g id="viewport">
<title>MoFEM::FEMethod</title>
<polygon fill="white" stroke="transparent" points="-4,4 -4,-1384.1 2175,-1384.1 2175,4 -4,4"/>
<!-- Node1 -->
<g id="node1" class="node">
<title>Node1</title>
<g id="a_node1"><a xlink:title="structure for User Loop Methods on finite elements">
<polygon fill="#bfbfbf" stroke="black" points="2064,-611.6 2064,-630.6 2171,-630.6 2171,-611.6 2064,-611.6"/>
<text text-anchor="middle" x="2117.5" y="-618.6" font-family="Helvetica,sans-Serif" font-size="10.00">MoFEM::FEMethod</text>
</a>
</g>
</g>
<!-- Node2 -->
<g id="node2" class="node">
<title>Node2</title>
<g id="a_node2"><a xlink:href="structMoFEM_1_1BasicMethod.html" target="_top" xlink:title="Data structure to exchange data between mofem and User Loop Methods.">
<polygon fill="white" stroke="black" points="1741.5,-677.6 1741.5,-696.6 1863.5,-696.6 1863.5,-677.6 1741.5,-677.6"/>
<text text-anchor="middle" x="1802.5" y="-684.6" font-family="Helvetica,sans-Serif" font-size="10.00">MoFEM::BasicMethod</text>
</a>
</g>
</g>
<!-- Node2&#45;&gt;Node1 -->
<g id="edge1" class="edge">
<title>Node2&#45;&gt;Node1</title>
<path fill="none" stroke="midnightblue" d="M1873.8,-680.86C1922.72,-675.44 1989.11,-665.9 2046,-650.1 2063.73,-645.18 2082.99,-637.06 2096.89,-630.66"/>
<polygon fill="midnightblue" stroke="midnightblue" points="1873.2,-677.41 1863.63,-681.96 1873.95,-684.37 1873.2,-677.41"/>
</g>
<!-- Node3 -->
<g id="node3" class="node">
<title>Node3</title>
<g id="a_node3"><a xlink:href="structMoFEM_1_1KspMethod.html" target="_top" xlink:title="data structure for ksp (linear solver) context">
<polygon fill="white" stroke="black" points="1442,-732.6 1442,-751.6 1555,-751.6 1555,-732.6 1442,-732.6"/>
<text text-anchor="middle" x="1498.5" y="-739.6" font-family="Helvetica,sans-Serif" font-size="10.00">MoFEM::KspMethod</text>
</a>
</g>
</g>
<!-- Node3&#45;&gt;Node2 -->
<g id="edge2" class="edge">
<title>Node3&#45;&gt;Node2</title>
<path fill="none" stroke="midnightblue" d="M1565.24,-734.71C1605.26,-729.72 1657.31,-722.36 1703,-713.1 1725.36,-708.58 1750.2,-702.01 1769.34,-696.61"/>
<polygon fill="midnightblue" stroke="midnightblue" points="1564.57,-731.26 1555.08,-735.96 1565.43,-738.21 1564.57,-731.26"/>
</g>
<!-- Node4 -->
<g id="node4" class="node">
<title>Node4</title>
<g id="a_node4"><a xlink:href="structMoFEM_1_1PetscData.html" target="_top" xlink:title=" ">
<polygon fill="white" stroke="black" points="1087.5,-773.6 1087.5,-792.6 1195.5,-792.6 1195.5,-773.6 1087.5,-773.6"/>
<text text-anchor="middle" x="1141.5" y="-780.6" font-family="Helvetica,sans-Serif" font-size="10.00">MoFEM::PetscData</text>
</a>
</g>
</g>
<!-- Node4&#45;&gt;Node3 -->
<g id="edge3" class="edge">
<title>Node4&#45;&gt;Node3</title>
<path fill="none" stroke="midnightblue" d="M1194.2,-771.14C1209.91,-767.4 1227.18,-763.19 1243,-759.1 1251.04,-757.03 1252.8,-755.43 1261,-754.1 1322.28,-744.16 1393.55,-741.77 1441.71,-741.49"/>
<polygon fill="midnightblue" stroke="midnightblue" points="1193.07,-767.81 1184.15,-773.52 1194.68,-774.62 1193.07,-767.81"/>
</g>
<!-- Node14 -->
<g id="node14" class="node">
<title>Node14</title>
<g id="a_node14"><a xlink:href="structMoFEM_1_1SnesMethod.html" target="_top" xlink:title="data structure for snes (nonlinear solver) context">
<polygon fill="white" stroke="black" points="1439,-822.6 1439,-841.6 1558,-841.6 1558,-822.6 1439,-822.6"/>
<text text-anchor="middle" x="1498.5" y="-829.6" font-family="Helvetica,sans-Serif" font-size="10.00">MoFEM::SnesMethod</text>
</a>
</g>
</g>
<!-- Node4&#45;&gt;Node14 -->
<g id="edge16" class="edge">
<title>Node4&#45;&gt;Node14</title>
<path fill="none" stroke="darkgreen" d="M1205.6,-792.93C1223.49,-795.65 1243,-798.56 1261,-801.1 1321.48,-809.66 1390.78,-818.65 1438.65,-824.73"/>
<polygon fill="darkgreen" stroke="darkgreen" points="1205.97,-789.45 1195.56,-791.4 1204.91,-796.37 1205.97,-789.45"/>
</g>
<!-- Node17 -->
<g id="node17" class="node">
<title>Node17</title>
<g id="a_node17"><a xlink:href="structMoFEM_1_1TSMethod.html" target="_top" xlink:title="data structure for TS (time stepping) context">
<polygon fill="white" stroke="black" points="1445,-1069.6 1445,-1088.6 1552,-1088.6 1552,-1069.6 1445,-1069.6"/>
<text text-anchor="middle" x="1498.5" y="-1076.6" font-family="Helvetica,sans-Serif" font-size="10.00">MoFEM::TSMethod</text>
</a>
</g>
</g>
<!-- Node4&#45;&gt;Node17 -->
<g id="edge22" class="edge">
<title>Node4&#45;&gt;Node17</title>
<path fill="none" stroke="darkgreen" d="M1205.46,-788.05C1219.13,-791.7 1232.6,-797.63 1243,-807.1 1261.39,-823.86 1242.35,-843.64 1261,-860.1 1307.26,-900.95 1347.68,-851.02 1397,-888.1 1461.09,-936.29 1488.26,-1037.39 1495.45,-1069.26"/>
<polygon fill="darkgreen" stroke="darkgreen" points="1206.03,-784.59 1195.5,-785.77 1204.47,-791.41 1206.03,-784.59"/>
</g>
<!-- Node5 -->
<g id="node5" class="node">
<title>Node5</title>
<g id="a_node5"><a xlink:href="structMoFEM_1_1UnknownInterface.html" target="_top" xlink:title="base class for all interface classes">
<polygon fill="white" stroke="black" points="735,-948.6 735,-967.6 883,-967.6 883,-948.6 735,-948.6"/>
<text text-anchor="middle" x="809" y="-955.6" font-family="Helvetica,sans-Serif" font-size="10.00">MoFEM::UnknownInterface</text>
</a>
</g>
</g>
<!-- Node5&#45;&gt;Node4 -->
<g id="edge4" class="edge">
<title>Node5&#45;&gt;Node4</title>
<path fill="none" stroke="midnightblue" d="M893.26,-954.8C937.5,-948.6 989.33,-933.51 1022,-898.1 1049.96,-867.8 1011.42,-836.82 1040,-807.1 1052.31,-794.3 1070.13,-787.81 1087.35,-784.67"/>
<polygon fill="midnightblue" stroke="midnightblue" points="892.56,-951.36 883.08,-956.09 893.44,-958.3 892.56,-951.36"/>
</g>
<!-- Node6 -->
<g id="node6" class="node">
<title>Node6</title>
<g id="a_node6"><a xlink:title=" ">
<polygon fill="white" stroke="#bfbfbf" points="386,-1148.6 386,-1211.6 627,-1211.6 627,-1148.6 386,-1148.6"/>
<text text-anchor="start" x="394" y="-1199.6" font-family="Helvetica,sans-Serif" font-size="10.00">multi_index_container</text>
<text text-anchor="start" x="394" y="-1188.6" font-family="Helvetica,sans-Serif" font-size="10.00">&lt; UIdTypeMap, indexed</text>
<text text-anchor="start" x="394" y="-1177.6" font-family="Helvetica,sans-Serif" font-size="10.00">_by&lt; hashed_unique&lt; member</text>
<text text-anchor="start" x="394" y="-1166.6" font-family="Helvetica,sans-Serif" font-size="10.00">&lt; UIdTypeMap, boost::typeindex</text>
<text text-anchor="middle" x="506.5" y="-1155.6" font-family="Helvetica,sans-Serif" font-size="10.00">::type_index, &amp;UIdTypeMap::classIdx &gt; &gt; &gt; &gt;</text>
</a>
</g>
</g>
<!-- Node6&#45;&gt;Node5 -->
<g id="edge5" class="edge">
<title>Node6&#45;&gt;Node5</title>
<path fill="none" stroke="#9a32cd" stroke-dasharray="5,2" d="M558.65,-1142.32C629.88,-1089.69 754.75,-997.44 795.06,-967.66"/>
<polygon fill="#9a32cd" stroke="#9a32cd" points="556.2,-1139.78 550.24,-1148.53 560.36,-1145.41 556.2,-1139.78"/>
<text text-anchor="middle" x="681" y="-1078.1" font-family="Helvetica,sans-Serif" font-size="10.00"> iFaceTypeMap</text>
</g>
<!-- Node7 -->
<g id="node7" class="node">
<title>Node7</title>
<g id="a_node7"><a xlink:title=" ">
<polygon fill="white" stroke="#bfbfbf" points="0,-1226.6 0,-1245.6 125,-1245.6 125,-1226.6 0,-1226.6"/>
<text text-anchor="middle" x="62.5" y="-1233.6" font-family="Helvetica,sans-Serif" font-size="10.00">multi_index_container</text>
</a>
</g>
</g>
<!-- Node7&#45;&gt;Node2 -->
<g id="edge29" class="edge">
<title>Node7&#45;&gt;Node2</title>
<path fill="none" stroke="#9a32cd" stroke-dasharray="5,2" d="M88.07,-1250.54C103.33,-1258.73 123.67,-1268.29 143,-1273.1 299.55,-1312.08 344.17,-1292.1 505.5,-1292.1 505.5,-1292.1 505.5,-1292.1 1499.5,-1292.1 1777.72,-1292.1 1799.63,-773.58 1801.35,-696.61"/>
<polygon fill="#9a32cd" stroke="#9a32cd" points="89.71,-1247.45 79.27,-1245.66 86.32,-1253.57 89.71,-1247.45"/>
<text text-anchor="middle" x="961.5" y="-1372.1" font-family="Helvetica,sans-Serif" font-size="10.00"> adjacenciesPtr</text>
<text text-anchor="middle" x="961.5" y="-1361.1" font-family="Helvetica,sans-Serif" font-size="10.00">refinedEntitiesPtr</text>
<text text-anchor="middle" x="961.5" y="-1350.1" font-family="Helvetica,sans-Serif" font-size="10.00">finiteElementsEntitiesPtr</text>
<text text-anchor="middle" x="961.5" y="-1339.1" font-family="Helvetica,sans-Serif" font-size="10.00">dofsPtr</text>
<text text-anchor="middle" x="961.5" y="-1328.1" font-family="Helvetica,sans-Serif" font-size="10.00">entitiesPtr</text>
<text text-anchor="middle" x="961.5" y="-1317.1" font-family="Helvetica,sans-Serif" font-size="10.00">finiteElementsPtr</text>
<text text-anchor="middle" x="961.5" y="-1306.1" font-family="Helvetica,sans-Serif" font-size="10.00">refinedFiniteElementsPtr</text>
<text text-anchor="middle" x="961.5" y="-1295.1" font-family="Helvetica,sans-Serif" font-size="10.00">fieldsPtr</text>
</g>
<!-- Node7&#45;&gt;Node6 -->
<g id="edge6" class="edge">
<title>Node7&#45;&gt;Node6</title>
<path fill="none" stroke="orange" stroke-dasharray="5,2" d="M135.56,-1226.97C203.25,-1218.4 305.79,-1205.41 385.77,-1195.27"/>
<polygon fill="orange" stroke="orange" points="134.9,-1223.53 125.42,-1228.26 135.78,-1230.47 134.9,-1223.53"/>
<text text-anchor="start" x="143" y="-1261.1" font-family="Helvetica,sans-Serif" font-size="10.00"> &lt; UIdTypeMap, indexed</text>
<text text-anchor="start" x="143" y="-1250.1" font-family="Helvetica,sans-Serif" font-size="10.00">_by&lt; hashed_unique&lt; member</text>
<text text-anchor="start" x="143" y="-1239.1" font-family="Helvetica,sans-Serif" font-size="10.00">&lt; UIdTypeMap, boost::typeindex</text>
<text text-anchor="middle" x="255.5" y="-1228.1" font-family="Helvetica,sans-Serif" font-size="10.00">::type_index, &amp;UIdTypeMap::classIdx &gt; &gt; &gt; &gt;</text>
</g>
<!-- Node8 -->
<g id="node8" class="node">
<title>Node8</title>
<g id="a_node8"><a xlink:title=" ">
<polygon fill="white" stroke="#bfbfbf" points="738.5,-807.6 738.5,-826.6 879.5,-826.6 879.5,-807.6 738.5,-807.6"/>
<text text-anchor="middle" x="809" y="-814.6" font-family="Helvetica,sans-Serif" font-size="10.00">static constexpr Switches</text>
</a>
</g>
</g>
<!-- Node8&#45;&gt;Node4 -->
<g id="edge7" class="edge">
<title>Node8&#45;&gt;Node4</title>
<path fill="none" stroke="#9a32cd" stroke-dasharray="5,2" d="M889.72,-808.9C951.05,-802.59 1034.07,-794.05 1087.47,-788.56"/>
<polygon fill="#9a32cd" stroke="#9a32cd" points="889.28,-805.43 879.69,-809.93 889.99,-812.39 889.28,-805.43"/>
<text text-anchor="middle" x="961.5" y="-886.1" font-family="Helvetica,sans-Serif" font-size="10.00"> CtxSetX_TT</text>
<text text-anchor="middle" x="961.5" y="-875.1" font-family="Helvetica,sans-Serif" font-size="10.00">CtxSetX_T</text>
<text text-anchor="middle" x="961.5" y="-864.1" font-family="Helvetica,sans-Serif" font-size="10.00">CtxSetA</text>
<text text-anchor="middle" x="961.5" y="-853.1" font-family="Helvetica,sans-Serif" font-size="10.00">CtxSetB</text>
<text text-anchor="middle" x="961.5" y="-842.1" font-family="Helvetica,sans-Serif" font-size="10.00">CtxSetTime</text>
<text text-anchor="middle" x="961.5" y="-831.1" font-family="Helvetica,sans-Serif" font-size="10.00">CtxSetNone</text>
<text text-anchor="middle" x="961.5" y="-820.1" font-family="Helvetica,sans-Serif" font-size="10.00">CtxSetF</text>
<text text-anchor="middle" x="961.5" y="-809.1" font-family="Helvetica,sans-Serif" font-size="10.00">CtxSetX</text>
</g>
<!-- Node9 -->
<g id="node9" class="node">
<title>Node9</title>
<g id="a_node9"><a xlink:title=" ">
<polygon fill="white" stroke="#bfbfbf" points="791.5,-710.6 791.5,-729.6 826.5,-729.6 826.5,-710.6 791.5,-710.6"/>
<text text-anchor="middle" x="809" y="-717.6" font-family="Helvetica,sans-Serif" font-size="10.00">Mat</text>
</a>
</g>
</g>
<!-- Node9&#45;&gt;Node3 -->
<g id="edge13" class="edge">
<title>Node9&#45;&gt;Node3</title>
<path fill="none" stroke="#9a32cd" stroke-dasharray="5,2" d="M836.13,-708.64C854,-701.44 878.46,-692.84 901,-689.1 1050.96,-664.26 1091.8,-673.53 1243,-689.1 1263.74,-691.24 1387.09,-717.9 1454.15,-732.57"/>
<polygon fill="#9a32cd" stroke="#9a32cd" points="834.57,-705.5 826.68,-712.56 837.25,-711.96 834.57,-705.5"/>
<text text-anchor="middle" x="1141.5" y="-703.1" font-family="Helvetica,sans-Serif" font-size="10.00"> ksp_A</text>
<text text-anchor="middle" x="1141.5" y="-692.1" font-family="Helvetica,sans-Serif" font-size="10.00">ksp_B</text>
</g>
<!-- Node9&#45;&gt;Node4 -->
<g id="edge8" class="edge">
<title>Node9&#45;&gt;Node4</title>
<path fill="none" stroke="#9a32cd" stroke-dasharray="5,2" d="M836.71,-723.41C877.08,-728.63 955.95,-739.68 1022,-754.1 1030.11,-755.88 1031.96,-757.03 1040,-759.1 1059.28,-764.08 1080.73,-769.26 1098.85,-773.52"/>
<polygon fill="#9a32cd" stroke="#9a32cd" points="836.97,-719.92 826.61,-722.12 836.09,-726.86 836.97,-719.92"/>
<text text-anchor="middle" x="961.5" y="-768.1" font-family="Helvetica,sans-Serif" font-size="10.00"> A</text>
<text text-anchor="middle" x="961.5" y="-757.1" font-family="Helvetica,sans-Serif" font-size="10.00">B</text>
</g>
<!-- Node9&#45;&gt;Node14 -->
<g id="edge18" class="edge">
<title>Node9&#45;&gt;Node14</title>
<path fill="none" stroke="#9a32cd" stroke-dasharray="5,2" d="M836.84,-720.9C877.09,-722.14 955.45,-724.74 1022,-728.1 1120.29,-733.07 1146.57,-722.4 1243,-742.1 1332.77,-760.45 1433.85,-803.26 1476.62,-822.47"/>
<polygon fill="#9a32cd" stroke="#9a32cd" points="836.87,-717.4 826.77,-720.59 836.66,-724.39 836.87,-717.4"/>
<text text-anchor="middle" x="1141.5" y="-756.1" font-family="Helvetica,sans-Serif" font-size="10.00"> snes_A</text>
<text text-anchor="middle" x="1141.5" y="-745.1" font-family="Helvetica,sans-Serif" font-size="10.00">snes_B</text>
</g>
<!-- Node9&#45;&gt;Node17 -->
<g id="edge23" class="edge">
<title>Node9&#45;&gt;Node17</title>
<path fill="none" stroke="#9a32cd" stroke-dasharray="5,2" d="M836.14,-727.67C852.3,-733.76 871.99,-744 883,-760.1 917.91,-811.17 864.89,-847.89 901,-898.1 935.93,-946.68 978.19,-916.36 1022,-957.1 1033.67,-967.95 1026.83,-979.13 1040,-988.1 1115.42,-1039.5 1153.4,-1001.73 1243,-1019.1 1321.21,-1034.27 1411.8,-1056.84 1461.03,-1069.54"/>
<polygon fill="#9a32cd" stroke="#9a32cd" points="837.23,-724.35 826.64,-724.41 834.96,-730.97 837.23,-724.35"/>
<text text-anchor="middle" x="1141.5" y="-1033.1" font-family="Helvetica,sans-Serif" font-size="10.00"> ts_A</text>
<text text-anchor="middle" x="1141.5" y="-1022.1" font-family="Helvetica,sans-Serif" font-size="10.00">ts_B</text>
</g>
<!-- Node10 -->
<g id="node10" class="node">
<title>Node10</title>
<g id="a_node10"><a xlink:title=" ">
<polygon fill="white" stroke="#bfbfbf" points="772.5,-769.6 772.5,-788.6 845.5,-788.6 845.5,-769.6 772.5,-769.6"/>
<text text-anchor="middle" x="809" y="-776.6" font-family="Helvetica,sans-Serif" font-size="10.00">bitset&lt; 8 &gt;</text>
</a>
</g>
</g>
<!-- Node10&#45;&gt;Node4 -->
<g id="edge9" class="edge">
<title>Node10&#45;&gt;Node4</title>
<path fill="none" stroke="#9a32cd" stroke-dasharray="5,2" d="M855.72,-779.66C916.35,-780.39 1023.14,-781.68 1087.3,-782.46"/>
<polygon fill="#9a32cd" stroke="#9a32cd" points="855.72,-776.16 845.68,-779.54 855.64,-783.16 855.72,-776.16"/>
<text text-anchor="middle" x="961.5" y="-784.1" font-family="Helvetica,sans-Serif" font-size="10.00"> data_ctx</text>
</g>
<!-- Node11 -->
<g id="node11" class="node">
<title>Node11</title>
<g id="a_node11"><a xlink:title=" ">
<polygon fill="white" stroke="#bfbfbf" points="792,-1038.6 792,-1057.6 826,-1057.6 826,-1038.6 792,-1038.6"/>
<text text-anchor="middle" x="809" y="-1045.6" font-family="Helvetica,sans-Serif" font-size="10.00">Vec</text>
</a>
</g>
</g>
<!-- Node11&#45;&gt;Node3 -->
<g id="edge14" class="edge">
<title>Node11&#45;&gt;Node3</title>
<path fill="none" stroke="#9a32cd" stroke-dasharray="5,2" d="M836.31,-1048.66C887.3,-1049.13 996.83,-1047.01 1022,-1021.1 1050.48,-991.8 1012.25,-868.1 1040,-838.1 1071.12,-804.48 1198.13,-811.36 1243,-802.1 1320.58,-786.09 1410.65,-764.03 1460.13,-751.61"/>
<polygon fill="#9a32cd" stroke="#9a32cd" points="836.13,-1045.15 826.08,-1048.52 836.03,-1052.15 836.13,-1045.15"/>
<text text-anchor="middle" x="1141.5" y="-841.1" font-family="Helvetica,sans-Serif" font-size="10.00"> ksp_f</text>
</g>
<!-- Node11&#45;&gt;Node4 -->
<g id="edge10" class="edge">
<title>Node11&#45;&gt;Node4</title>
<path fill="none" stroke="#9a32cd" stroke-dasharray="5,2" d="M827.43,-1031.36C844.83,-1015.45 872.95,-991.83 901,-977.1 950.91,-950.9 985.64,-982.18 1022,-939.1 1060.19,-893.86 1000.25,-850.99 1040,-807.1 1052.04,-793.81 1070.01,-787.24 1087.44,-784.17"/>
<polygon fill="#9a32cd" stroke="#9a32cd" points="824.73,-1029.1 819.8,-1038.48 829.5,-1034.22 824.73,-1029.1"/>
<text text-anchor="middle" x="961.5" y="-1013.1" font-family="Helvetica,sans-Serif" font-size="10.00"> f</text>
<text text-anchor="middle" x="961.5" y="-1002.1" font-family="Helvetica,sans-Serif" font-size="10.00">x</text>
<text text-anchor="middle" x="961.5" y="-991.1" font-family="Helvetica,sans-Serif" font-size="10.00">x_t</text>
<text text-anchor="middle" x="961.5" y="-980.1" font-family="Helvetica,sans-Serif" font-size="10.00">x_tt</text>
</g>
<!-- Node11&#45;&gt;Node14 -->
<g id="edge19" class="edge">
<title>Node11&#45;&gt;Node14</title>
<path fill="none" stroke="#9a32cd" stroke-dasharray="5,2" d="M835.58,-1056.97C879.13,-1070.3 968.19,-1089.57 1022,-1046.1 1050.35,-1023.2 1013.43,-991.05 1040,-966.1 1098.57,-911.11 1323.19,-940.84 1397,-909.1 1435.16,-892.7 1471.76,-858.55 1488.29,-841.79"/>
<polygon fill="#9a32cd" stroke="#9a32cd" points="836.61,-1053.63 826.02,-1053.92 834.48,-1060.3 836.61,-1053.63"/>
<text text-anchor="middle" x="1141.5" y="-980.1" font-family="Helvetica,sans-Serif" font-size="10.00"> snes_x</text>
<text text-anchor="middle" x="1141.5" y="-969.1" font-family="Helvetica,sans-Serif" font-size="10.00">snes_f</text>
</g>
<!-- Node11&#45;&gt;Node17 -->
<g id="edge27" class="edge">
<title>Node11&#45;&gt;Node17</title>
<path fill="none" stroke="#9a32cd" stroke-dasharray="5,2" d="M833.04,-1063.01C873.14,-1087.97 959.22,-1137.23 1040,-1155.1 1195.06,-1189.41 1246.32,-1190.26 1397,-1140.1 1432.05,-1128.44 1467.78,-1102.77 1485.7,-1088.74"/>
<polygon fill="#9a32cd" stroke="#9a32cd" points="834.85,-1060.02 824.53,-1057.65 831.12,-1065.94 834.85,-1060.02"/>
<text text-anchor="middle" x="1141.5" y="-1215.1" font-family="Helvetica,sans-Serif" font-size="10.00"> ts_u</text>
<text text-anchor="middle" x="1141.5" y="-1204.1" font-family="Helvetica,sans-Serif" font-size="10.00">ts_F</text>
<text text-anchor="middle" x="1141.5" y="-1193.1" font-family="Helvetica,sans-Serif" font-size="10.00">ts_u_t</text>
<text text-anchor="middle" x="1141.5" y="-1182.1" font-family="Helvetica,sans-Serif" font-size="10.00">ts_u_tt</text>
</g>
<!-- Node12 -->
<g id="node12" class="node">
<title>Node12</title>
<g id="a_node12"><a xlink:title=" ">
<polygon fill="white" stroke="#bfbfbf" points="1124,-581.6 1124,-600.6 1159,-600.6 1159,-581.6 1124,-581.6"/>
<text text-anchor="middle" x="1141.5" y="-588.6" font-family="Helvetica,sans-Serif" font-size="10.00">KSP</text>
</a>
</g>
</g>
<!-- Node12&#45;&gt;Node3 -->
<g id="edge11" class="edge">
<title>Node12&#45;&gt;Node3</title>
<path fill="none" stroke="#9a32cd" stroke-dasharray="5,2" d="M1169.32,-587.35C1227.75,-579.81 1363.95,-565.91 1397,-595.1 1440.06,-633.13 1376.18,-680.76 1415,-723.1 1422.15,-730.9 1431.81,-735.82 1441.99,-738.86"/>
<polygon fill="#9a32cd" stroke="#9a32cd" points="1168.81,-583.88 1159.36,-588.67 1169.73,-590.82 1168.81,-583.88"/>
<text text-anchor="middle" x="1329" y="-598.1" font-family="Helvetica,sans-Serif" font-size="10.00"> ksp</text>
</g>
<!-- Node13 -->
<g id="node13" class="node">
<title>Node13</title>
<g id="a_node13"><a xlink:title=" ">
<polygon fill="white" stroke="#bfbfbf" points="1104.5,-619.6 1104.5,-638.6 1178.5,-638.6 1178.5,-619.6 1104.5,-619.6"/>
<text text-anchor="middle" x="1141.5" y="-626.6" font-family="Helvetica,sans-Serif" font-size="10.00">KSPContext</text>
</a>
</g>
</g>
<!-- Node13&#45;&gt;Node3 -->
<g id="edge12" class="edge">
<title>Node13&#45;&gt;Node3</title>
<path fill="none" stroke="#9a32cd" stroke-dasharray="5,2" d="M1188.62,-618.31C1244.76,-608.11 1339.18,-600.84 1397,-650.1 1422.44,-671.78 1391.19,-699.66 1415,-723.1 1422.33,-730.32 1431.82,-735.01 1441.74,-738.02"/>
<polygon fill="#9a32cd" stroke="#9a32cd" points="1187.77,-614.91 1178.61,-620.24 1189.09,-621.79 1187.77,-614.91"/>
<text text-anchor="middle" x="1329" y="-653.1" font-family="Helvetica,sans-Serif" font-size="10.00"> ksp_ctx</text>
</g>
<!-- Node14&#45;&gt;Node2 -->
<g id="edge15" class="edge">
<title>Node14&#45;&gt;Node2</title>
<path fill="none" stroke="midnightblue" d="M1529.09,-818.1C1568.73,-799.31 1641.25,-764.87 1703,-735.1 1730.42,-721.89 1762.04,-706.44 1781.9,-696.72"/>
<polygon fill="midnightblue" stroke="midnightblue" points="1527.29,-815.08 1519.75,-822.52 1530.28,-821.41 1527.29,-815.08"/>
</g>
<!-- Node15 -->
<g id="node15" class="node">
<title>Node15</title>
<g id="a_node15"><a xlink:title=" ">
<polygon fill="white" stroke="#bfbfbf" points="1120.5,-896.6 1120.5,-915.6 1162.5,-915.6 1162.5,-896.6 1120.5,-896.6"/>
<text text-anchor="middle" x="1141.5" y="-903.6" font-family="Helvetica,sans-Serif" font-size="10.00">SNES</text>
</a>
</g>
</g>
<!-- Node15&#45;&gt;Node14 -->
<g id="edge17" class="edge">
<title>Node15&#45;&gt;Node14</title>
<path fill="none" stroke="#9a32cd" stroke-dasharray="5,2" d="M1172.63,-904.01C1220.7,-900.18 1317.43,-890.51 1397,-870.1 1425.19,-862.88 1456.34,-850.35 1476.38,-841.66"/>
<polygon fill="#9a32cd" stroke="#9a32cd" points="1172.3,-900.52 1162.59,-904.78 1172.83,-907.5 1172.3,-900.52"/>
<text text-anchor="middle" x="1329" y="-897.1" font-family="Helvetica,sans-Serif" font-size="10.00"> snes</text>
</g>
<!-- Node16 -->
<g id="node16" class="node">
<title>Node16</title>
<g id="a_node16"><a xlink:title=" ">
<polygon fill="white" stroke="#bfbfbf" points="1101.5,-858.6 1101.5,-877.6 1181.5,-877.6 1181.5,-858.6 1101.5,-858.6"/>
<text text-anchor="middle" x="1141.5" y="-865.6" font-family="Helvetica,sans-Serif" font-size="10.00">SNESContext</text>
</a>
</g>
</g>
<!-- Node16&#45;&gt;Node14 -->
<g id="edge20" class="edge">
<title>Node16&#45;&gt;Node14</title>
<path fill="none" stroke="#9a32cd" stroke-dasharray="5,2" d="M1191.84,-863.1C1256.48,-856.55 1369.71,-845.06 1438.73,-838.06"/>
<polygon fill="#9a32cd" stroke="#9a32cd" points="1191.1,-859.66 1181.51,-864.15 1191.81,-866.62 1191.1,-859.66"/>
<text text-anchor="middle" x="1329" y="-858.1" font-family="Helvetica,sans-Serif" font-size="10.00"> snes_ctx</text>
</g>
<!-- Node17&#45;&gt;Node2 -->
<g id="edge21" class="edge">
<title>Node17&#45;&gt;Node2</title>
<path fill="none" stroke="midnightblue" d="M1513.21,-1061.31C1565.86,-992.97 1754.1,-748.63 1794.03,-696.81"/>
<polygon fill="midnightblue" stroke="midnightblue" points="1510.3,-1059.36 1506.97,-1069.41 1515.84,-1063.63 1510.3,-1059.36"/>
</g>
<!-- Node18 -->
<g id="node18" class="node">
<title>Node18</title>
<g id="a_node18"><a xlink:title=" ">
<polygon fill="white" stroke="#bfbfbf" points="1109,-1244.6 1109,-1263.6 1174,-1263.6 1174,-1244.6 1109,-1244.6"/>
<text text-anchor="middle" x="1141.5" y="-1251.6" font-family="Helvetica,sans-Serif" font-size="10.00">PetscReal</text>
</a>
</g>
</g>
<!-- Node18&#45;&gt;Node17 -->
<g id="edge24" class="edge">
<title>Node18&#45;&gt;Node17</title>
<path fill="none" stroke="#9a32cd" stroke-dasharray="5,2" d="M1184.15,-1246.1C1251.55,-1232.92 1378.87,-1207.04 1397,-1196.1 1443.32,-1168.17 1479.12,-1111.47 1492.15,-1088.8"/>
<polygon fill="#9a32cd" stroke="#9a32cd" points="1183.41,-1242.68 1174.26,-1248.02 1184.75,-1249.55 1183.41,-1242.68"/>
<text text-anchor="middle" x="1329" y="-1265.1" font-family="Helvetica,sans-Serif" font-size="10.00"> ts_a</text>
<text text-anchor="middle" x="1329" y="-1254.1" font-family="Helvetica,sans-Serif" font-size="10.00">ts_t</text>
<text text-anchor="middle" x="1329" y="-1243.1" font-family="Helvetica,sans-Serif" font-size="10.00">ts_dt</text>
<text text-anchor="middle" x="1329" y="-1232.1" font-family="Helvetica,sans-Serif" font-size="10.00">ts_aa</text>
</g>
<!-- Node19 -->
<g id="node19" class="node">
<title>Node19</title>
<g id="a_node19"><a xlink:title=" ">
<polygon fill="white" stroke="#bfbfbf" points="1108,-1126.6 1108,-1145.6 1175,-1145.6 1175,-1126.6 1108,-1126.6"/>
<text text-anchor="middle" x="1141.5" y="-1133.6" font-family="Helvetica,sans-Serif" font-size="10.00">TSContext</text>
</a>
</g>
</g>
<!-- Node19&#45;&gt;Node17 -->
<g id="edge25" class="edge">
<title>Node19&#45;&gt;Node17</title>
<path fill="none" stroke="#9a32cd" stroke-dasharray="5,2" d="M1185.56,-1132.95C1236.4,-1128.78 1323.38,-1120.26 1397,-1106.1 1420.6,-1101.57 1446.8,-1094.46 1466.53,-1088.67"/>
<polygon fill="#9a32cd" stroke="#9a32cd" points="1184.96,-1129.48 1175.27,-1133.77 1185.52,-1136.46 1184.96,-1129.48"/>
<text text-anchor="middle" x="1329" y="-1128.1" font-family="Helvetica,sans-Serif" font-size="10.00"> ts_ctx</text>
</g>
<!-- Node20 -->
<g id="node20" class="node">
<title>Node20</title>
<g id="a_node20"><a xlink:title=" ">
<polygon fill="white" stroke="#bfbfbf" points="1113.5,-1088.6 1113.5,-1107.6 1169.5,-1107.6 1169.5,-1088.6 1113.5,-1088.6"/>
<text text-anchor="middle" x="1141.5" y="-1095.6" font-family="Helvetica,sans-Serif" font-size="10.00">PetscInt</text>
</a>
</g>
</g>
<!-- Node20&#45;&gt;Node17 -->
<g id="edge26" class="edge">
<title>Node20&#45;&gt;Node17</title>
<path fill="none" stroke="#9a32cd" stroke-dasharray="5,2" d="M1180.11,-1096.09C1243.61,-1092.69 1372.23,-1085.81 1444.73,-1081.93"/>
<polygon fill="#9a32cd" stroke="#9a32cd" points="1179.57,-1092.61 1169.77,-1096.64 1179.94,-1099.6 1179.57,-1092.61"/>
<text text-anchor="middle" x="1329" y="-1094.1" font-family="Helvetica,sans-Serif" font-size="10.00"> ts_step</text>
</g>
<!-- Node21 -->
<g id="node21" class="node">
<title>Node21</title>
<g id="a_node21"><a xlink:title=" ">
<polygon fill="white" stroke="#bfbfbf" points="1127,-1050.6 1127,-1069.6 1156,-1069.6 1156,-1050.6 1127,-1050.6"/>
<text text-anchor="middle" x="1141.5" y="-1057.6" font-family="Helvetica,sans-Serif" font-size="10.00">TS</text>
</a>
</g>
</g>
<!-- Node21&#45;&gt;Node17 -->
<g id="edge28" class="edge">
<title>Node21&#45;&gt;Node17</title>
<path fill="none" stroke="#9a32cd" stroke-dasharray="5,2" d="M1166.24,-1060.44C1211.28,-1061.18 1312.21,-1063.39 1397,-1069.1 1412.57,-1070.15 1429.46,-1071.68 1444.87,-1073.23"/>
<polygon fill="#9a32cd" stroke="#9a32cd" points="1166.09,-1056.94 1156.03,-1060.28 1165.98,-1063.93 1166.09,-1056.94"/>
<text text-anchor="middle" x="1329" y="-1072.1" font-family="Helvetica,sans-Serif" font-size="10.00"> ts</text>
</g>
<!-- Node22 -->
<g id="node22" class="node">
<title>Node22</title>
<g id="a_node22"><a xlink:title=" ">
<polygon fill="white" stroke="#bfbfbf" points="1454,-694.6 1454,-713.6 1543,-713.6 1543,-694.6 1454,-694.6"/>
<text text-anchor="middle" x="1498.5" y="-701.6" font-family="Helvetica,sans-Serif" font-size="10.00">pair&lt; int, int &gt;</text>
</a>
</g>
</g>
<!-- Node22&#45;&gt;Node2 -->
<g id="edge30" class="edge">
<title>Node22&#45;&gt;Node2</title>
<path fill="none" stroke="#9a32cd" stroke-dasharray="5,2" d="M1553.26,-701.08C1606.02,-698.11 1686.35,-693.59 1741.24,-690.5"/>
<polygon fill="#9a32cd" stroke="#9a32cd" points="1552.88,-697.59 1543.09,-701.65 1553.27,-704.58 1552.88,-697.59"/>
<text text-anchor="middle" x="1651.5" y="-701.1" font-family="Helvetica,sans-Serif" font-size="10.00"> loHiFERank</text>
</g>
<!-- Node23 -->
<g id="node23" class="node">
<title>Node23</title>
<g id="a_node23"><a xlink:title=" ">
<polygon fill="white" stroke="#bfbfbf" points="1428.5,-656.6 1428.5,-675.6 1568.5,-675.6 1568.5,-656.6 1428.5,-656.6"/>
<text text-anchor="middle" x="1498.5" y="-663.6" font-family="Helvetica,sans-Serif" font-size="10.00">weak_ptr&lt; CacheTuple &gt;</text>
</a>
</g>
</g>
<!-- Node23&#45;&gt;Node2 -->
<g id="edge31" class="edge">
<title>Node23&#45;&gt;Node2</title>
<path fill="none" stroke="#9a32cd" stroke-dasharray="5,2" d="M1579.17,-669.54C1616.75,-671.38 1662.21,-673.93 1703,-677.1 1715.42,-678.07 1728.71,-679.29 1741.38,-680.54"/>
<polygon fill="#9a32cd" stroke="#9a32cd" points="1578.94,-666.02 1568.78,-669.04 1578.6,-673.02 1578.94,-666.02"/>
<text text-anchor="middle" x="1651.5" y="-680.1" font-family="Helvetica,sans-Serif" font-size="10.00"> cacheWeakPtr</text>
</g>
<!-- Node24 -->
<g id="node24" class="node">
<title>Node24</title>
<g id="a_node24"><a xlink:title=" ">
<polygon fill="white" stroke="#bfbfbf" points="1442.5,-618.6 1442.5,-637.6 1554.5,-637.6 1554.5,-618.6 1442.5,-618.6"/>
<text text-anchor="middle" x="1498.5" y="-625.6" font-family="Helvetica,sans-Serif" font-size="10.00">unique_ptr&lt; bool &gt;</text>
</a>
</g>
</g>
<!-- Node24&#45;&gt;Node2 -->
<g id="edge32" class="edge">
<title>Node24&#45;&gt;Node2</title>
<path fill="none" stroke="#9a32cd" stroke-dasharray="5,2" d="M1564.93,-619.99C1606.88,-617.86 1661.12,-621.07 1703,-644.1 1714.68,-650.53 1709.84,-660.8 1721,-668.1 1727.13,-672.11 1734.01,-675.28 1741.1,-677.78"/>
<polygon fill="#9a32cd" stroke="#9a32cd" points="1564.58,-616.5 1554.82,-620.62 1565.01,-623.49 1564.58,-616.5"/>
<text text-anchor="middle" x="1651.5" y="-658.1" font-family="Helvetica,sans-Serif" font-size="10.00"> matAssembleSwitch</text>
<text text-anchor="middle" x="1651.5" y="-647.1" font-family="Helvetica,sans-Serif" font-size="10.00">vecAssembleSwitch</text>
</g>
<!-- Node25 -->
<g id="node25" class="node">
<title>Node25</title>
<g id="a_node25"><a xlink:title=" ">
<polygon fill="white" stroke="#bfbfbf" points="1127,-509.6 1127,-528.6 1156,-528.6 1156,-509.6 1127,-509.6"/>
<text text-anchor="middle" x="1141.5" y="-516.6" font-family="Helvetica,sans-Serif" font-size="10.00">int</text>
</a>
</g>
</g>
<!-- Node25&#45;&gt;Node2 -->
<g id="edge33" class="edge">
<title>Node25&#45;&gt;Node2</title>
<path fill="none" stroke="#9a32cd" stroke-dasharray="5,2" d="M1166.17,-524.57C1189.99,-529.86 1227.85,-537.72 1261,-542.1 1402.8,-560.88 1442.79,-532.26 1582,-565.1 1638.63,-578.47 1663.2,-572.65 1703,-615.1 1720.01,-633.25 1702.59,-651.37 1721,-668.1 1726.85,-673.42 1733.89,-677.32 1741.36,-680.18"/>
<polygon fill="#9a32cd" stroke="#9a32cd" points="1166.8,-521.12 1156.28,-522.34 1165.26,-527.95 1166.8,-521.12"/>
<text text-anchor="middle" x="1498.5" y="-601.1" font-family="Helvetica,sans-Serif" font-size="10.00"> sIze</text>
<text text-anchor="middle" x="1498.5" y="-590.1" font-family="Helvetica,sans-Serif" font-size="10.00">loopSize</text>
<text text-anchor="middle" x="1498.5" y="-579.1" font-family="Helvetica,sans-Serif" font-size="10.00">nInTheLoop</text>
<text text-anchor="middle" x="1498.5" y="-568.1" font-family="Helvetica,sans-Serif" font-size="10.00">rAnk</text>
</g>
<!-- Node27 -->
<g id="node27" class="node">
<title>Node27</title>
<g id="a_node27"><a xlink:href="structMoFEM_1_1Problem.html" target="_top" xlink:title="keeps basic data about problem">
<polygon fill="white" stroke="black" points="1449,-284.6 1449,-303.6 1548,-303.6 1548,-284.6 1449,-284.6"/>
<text text-anchor="middle" x="1498.5" y="-291.6" font-family="Helvetica,sans-Serif" font-size="10.00">MoFEM::Problem</text>
</a>
</g>
</g>
<!-- Node25&#45;&gt;Node27 -->
<g id="edge45" class="edge">
<title>Node25&#45;&gt;Node27</title>
<path fill="none" stroke="#9a32cd" stroke-dasharray="5,2" d="M1165.35,-506.52C1188.71,-494.18 1226.39,-475.72 1261,-465.1 1319.61,-447.13 1345.42,-475.23 1397,-442.1 1451.62,-407.03 1484.04,-330.58 1494.1,-303.69"/>
<polygon fill="#9a32cd" stroke="#9a32cd" points="1163.42,-503.58 1156.26,-511.39 1166.73,-509.75 1163.42,-503.58"/>
<text text-anchor="middle" x="1329" y="-534.1" font-family="Helvetica,sans-Serif" font-size="10.00"> tagNameSize</text>
<text text-anchor="middle" x="1329" y="-523.1" font-family="Helvetica,sans-Serif" font-size="10.00">nbDofsRow</text>
<text text-anchor="middle" x="1329" y="-512.1" font-family="Helvetica,sans-Serif" font-size="10.00">nbLocDofsCol</text>
<text text-anchor="middle" x="1329" y="-501.1" font-family="Helvetica,sans-Serif" font-size="10.00">nbDofsCol</text>
<text text-anchor="middle" x="1329" y="-490.1" font-family="Helvetica,sans-Serif" font-size="10.00">nbGhostDofsRow</text>
<text text-anchor="middle" x="1329" y="-479.1" font-family="Helvetica,sans-Serif" font-size="10.00">nbGhostDofsCol</text>
<text text-anchor="middle" x="1329" y="-468.1" font-family="Helvetica,sans-Serif" font-size="10.00">nbLocDofsRow</text>
</g>
<!-- Node26 -->
<g id="node26" class="node">
<title>Node26</title>
<g id="a_node26"><a xlink:title=" ">
<polygon fill="white" stroke="#bfbfbf" points="1415,-246.6 1415,-265.6 1582,-265.6 1582,-246.6 1415,-246.6"/>
<text text-anchor="middle" x="1498.5" y="-253.6" font-family="Helvetica,sans-Serif" font-size="10.00">function&lt; MoFEMErrorCode()&gt;</text>
</a>
</g>
</g>
<!-- Node26&#45;&gt;Node2 -->
<g id="edge34" class="edge">
<title>Node26&#45;&gt;Node2</title>
<path fill="none" stroke="#9a32cd" stroke-dasharray="5,2" d="M1571.21,-268.01C1618.04,-280.01 1675.43,-303.72 1703,-350.1 1739.16,-410.95 1675.52,-613.87 1721,-668.1 1726.35,-674.49 1733.41,-678.95 1741.13,-682.04"/>
<polygon fill="#9a32cd" stroke="#9a32cd" points="1571.94,-264.59 1561.4,-265.63 1570.29,-271.39 1571.94,-264.59"/>
<text text-anchor="middle" x="1651.5" y="-375.1" font-family="Helvetica,sans-Serif" font-size="10.00"> preProcessHook</text>
<text text-anchor="middle" x="1651.5" y="-364.1" font-family="Helvetica,sans-Serif" font-size="10.00">operatorHook</text>
<text text-anchor="middle" x="1651.5" y="-353.1" font-family="Helvetica,sans-Serif" font-size="10.00">postProcessHook</text>
</g>
<!-- Node27&#45;&gt;Node2 -->
<g id="edge35" class="edge">
<title>Node27&#45;&gt;Node2</title>
<path fill="none" stroke="#9a32cd" stroke-dasharray="5,2" d="M1519.44,-310.06C1561.55,-345.02 1659.24,-433.12 1703,-531.1 1728.05,-587.18 1679.83,-622.54 1721,-668.1 1726.49,-674.18 1733.52,-678.49 1741.14,-681.52"/>
<polygon fill="#9a32cd" stroke="#9a32cd" points="1521.52,-307.24 1511.57,-303.6 1517.08,-312.65 1521.52,-307.24"/>
<text text-anchor="middle" x="1651.5" y="-534.1" font-family="Helvetica,sans-Serif" font-size="10.00"> problemPtr</text>
</g>
<!-- Node28 -->
<g id="node28" class="node">
<title>Node28</title>
<g id="a_node28"><a xlink:title=" ">
<polygon fill="white" stroke="#bfbfbf" points="1058,-7.1 1058,-37.1 1225,-37.1 1225,-7.1 1058,-7.1"/>
<text text-anchor="start" x="1066" y="-25.1" font-family="Helvetica,sans-Serif" font-size="10.00">shared_ptr&lt; NumeredEntFinite</text>
<text text-anchor="middle" x="1141.5" y="-14.1" font-family="Helvetica,sans-Serif" font-size="10.00">Element_multiIndex &gt;</text>
</a>
</g>
</g>
<!-- Node28&#45;&gt;Node27 -->
<g id="edge36" class="edge">
<title>Node28&#45;&gt;Node27</title>
<path fill="none" stroke="#9a32cd" stroke-dasharray="5,2" d="M1213.11,-5.36C1270.73,3.72 1350.02,4.93 1397,-42.1 1433.7,-78.85 1381.12,-235.75 1415,-275.1 1423.53,-285.02 1436.11,-290.33 1448.88,-293.05"/>
<polygon fill="#9a32cd" stroke="#9a32cd" points="1212.26,-1.95 1202.98,-7.07 1213.42,-8.85 1212.26,-1.95"/>
<text text-anchor="middle" x="1329" y="-45.1" font-family="Helvetica,sans-Serif" font-size="10.00"> numeredFiniteElementsPtr</text>
</g>
<!-- Node29 -->
<g id="node29" class="node">
<title>Node29</title>
<g id="a_node29"><a xlink:title=" ">
<polygon fill="white" stroke="#bfbfbf" points="1112,-434.6 1112,-453.6 1171,-453.6 1171,-434.6 1112,-434.6"/>
<text text-anchor="middle" x="1141.5" y="-441.6" font-family="Helvetica,sans-Serif" font-size="10.00">BitFEId *</text>
</a>
</g>
</g>
<!-- Node29&#45;&gt;Node27 -->
<g id="edge37" class="edge">
<title>Node29&#45;&gt;Node27</title>
<path fill="none" stroke="#9a32cd" stroke-dasharray="5,2" d="M1181.47,-440.09C1248.06,-433.02 1378.4,-418.13 1397,-408.1 1443.91,-382.82 1479.37,-326.46 1492.23,-303.81"/>
<polygon fill="#9a32cd" stroke="#9a32cd" points="1180.93,-436.63 1171.36,-441.16 1181.67,-443.59 1180.93,-436.63"/>
<text text-anchor="middle" x="1329" y="-434.1" font-family="Helvetica,sans-Serif" font-size="10.00"> tagBitFEId</text>
</g>
<!-- Node30 -->
<g id="node30" class="node">
<title>Node30</title>
<g id="a_node30"><a xlink:href="classEntityHandle.html" target="_top" xlink:title=" ">
<polygon fill="white" stroke="black" points="1101.5,-396.6 1101.5,-415.6 1181.5,-415.6 1181.5,-396.6 1101.5,-396.6"/>
<text text-anchor="middle" x="1141.5" y="-403.6" font-family="Helvetica,sans-Serif" font-size="10.00">EntityHandle</text>
</a>
</g>
</g>
<!-- Node30&#45;&gt;Node27 -->
<g id="edge38" class="edge">
<title>Node30&#45;&gt;Node27</title>
<path fill="none" stroke="#9a32cd" stroke-dasharray="5,2" d="M1191.74,-402.59C1255.01,-397.55 1360.97,-387.18 1397,-372.1 1435.71,-355.9 1472.32,-320.78 1488.62,-303.75"/>
<polygon fill="#9a32cd" stroke="#9a32cd" points="1191.29,-399.12 1181.59,-403.38 1191.83,-406.09 1191.29,-399.12"/>
<text text-anchor="middle" x="1329" y="-399.1" font-family="Helvetica,sans-Serif" font-size="10.00"> meshset</text>
</g>
<!-- Node31 -->
<g id="node31" class="node">
<title>Node31</title>
<g id="a_node31"><a xlink:title=" ">
<polygon fill="white" stroke="#bfbfbf" points="1067,-347.1 1067,-377.1 1216,-377.1 1216,-347.1 1067,-347.1"/>
<text text-anchor="start" x="1075" y="-365.1" font-family="Helvetica,sans-Serif" font-size="10.00">shared_ptr&lt; MoFEM::</text>
<text text-anchor="middle" x="1141.5" y="-354.1" font-family="Helvetica,sans-Serif" font-size="10.00">ComposedProblemsData &gt;</text>
</a>
</g>
</g>
<!-- Node31&#45;&gt;Node27 -->
<g id="edge39" class="edge">
<title>Node31&#45;&gt;Node27</title>
<path fill="none" stroke="#9a32cd" stroke-dasharray="5,2" d="M1226.32,-359.73C1276.48,-356.79 1341.12,-350.3 1397,-336.1 1426.87,-328.51 1459.45,-313.56 1479.17,-303.7"/>
<polygon fill="#9a32cd" stroke="#9a32cd" points="1225.96,-356.24 1216.17,-360.29 1226.35,-363.23 1225.96,-356.24"/>
<text text-anchor="middle" x="1329" y="-360.1" font-family="Helvetica,sans-Serif" font-size="10.00"> composedProblemsData</text>
</g>
<!-- Node32 -->
<g id="node32" class="node">
<title>Node32</title>
<g id="a_node32"><a xlink:title=" ">
<polygon fill="white" stroke="#bfbfbf" points="1101,-308.6 1101,-327.6 1182,-327.6 1182,-308.6 1101,-308.6"/>
<text text-anchor="middle" x="1141.5" y="-315.6" font-family="Helvetica,sans-Serif" font-size="10.00">BitRefLevel *</text>
</a>
</g>
</g>
<!-- Node32&#45;&gt;Node27 -->
<g id="edge40" class="edge">
<title>Node32&#45;&gt;Node27</title>
<path fill="none" stroke="#9a32cd" stroke-dasharray="5,2" d="M1192.22,-314.74C1260.17,-310.15 1381.29,-301.96 1448.74,-297.4"/>
<polygon fill="#9a32cd" stroke="#9a32cd" points="1191.93,-311.25 1182.19,-315.42 1192.4,-318.24 1191.93,-311.25"/>
<text text-anchor="middle" x="1329" y="-324.1" font-family="Helvetica,sans-Serif" font-size="10.00"> tagBitRefLevelMask</text>
<text text-anchor="middle" x="1329" y="-313.1" font-family="Helvetica,sans-Serif" font-size="10.00">tagBitRefLevel</text>
</g>
<!-- Node33 -->
<g id="node33" class="node">
<title>Node33</title>
<g id="a_node33"><a xlink:title=" ">
<polygon fill="white" stroke="#bfbfbf" points="1056.5,-259.1 1056.5,-289.1 1226.5,-289.1 1226.5,-259.1 1056.5,-259.1"/>
<text text-anchor="start" x="1064.5" y="-277.1" font-family="Helvetica,sans-Serif" font-size="10.00">shared_ptr&lt; NumeredDofEntity</text>
<text text-anchor="middle" x="1141.5" y="-266.1" font-family="Helvetica,sans-Serif" font-size="10.00">_multiIndex &gt;</text>
</a>
</g>
</g>
<!-- Node33&#45;&gt;Node27 -->
<g id="edge41" class="edge">
<title>Node33&#45;&gt;Node27</title>
<path fill="none" stroke="#9a32cd" stroke-dasharray="5,2" d="M1236.77,-268.95C1284.85,-267.53 1344.17,-267.64 1397,-273.1 1418.45,-275.32 1442.08,-280.13 1461.03,-284.59"/>
<polygon fill="#9a32cd" stroke="#9a32cd" points="1236.57,-265.45 1226.69,-269.27 1236.8,-272.45 1236.57,-265.45"/>
<text text-anchor="middle" x="1329" y="-287.1" font-family="Helvetica,sans-Serif" font-size="10.00"> numeredRowDofsPtr</text>
<text text-anchor="middle" x="1329" y="-276.1" font-family="Helvetica,sans-Serif" font-size="10.00">numeredColDofsPtr</text>
</g>
<!-- Node34 -->
<g id="node34" class="node">
<title>Node34</title>
<g id="a_node34"><a xlink:title=" ">
<polygon fill="white" stroke="#bfbfbf" points="1122.5,-220.6 1122.5,-239.6 1160.5,-239.6 1160.5,-220.6 1122.5,-220.6"/>
<text text-anchor="middle" x="1141.5" y="-227.6" font-family="Helvetica,sans-Serif" font-size="10.00">char</text>
</a>
</g>
</g>
<!-- Node34&#45;&gt;Node27 -->
<g id="edge42" class="edge">
<title>Node34&#45;&gt;Node27</title>
<path fill="none" stroke="#9a32cd" stroke-dasharray="5,2" d="M1170.94,-226.18C1220.11,-220.78 1322.82,-215.66 1397,-254.1 1407.91,-259.76 1404.48,-268.74 1415,-275.1 1425.19,-281.27 1437.18,-285.43 1448.83,-288.25"/>
<polygon fill="#9a32cd" stroke="#9a32cd" points="1170.26,-222.74 1160.74,-227.39 1171.09,-229.69 1170.26,-222.74"/>
<text text-anchor="middle" x="1329" y="-257.1" font-family="Helvetica,sans-Serif" font-size="10.00"> tagName</text>
</g>
<!-- Node35 -->
<g id="node35" class="node">
<title>Node35</title>
<g id="a_node35"><a xlink:title=" ">
<polygon fill="white" stroke="#bfbfbf" points="1072.5,-182.6 1072.5,-201.6 1210.5,-201.6 1210.5,-182.6 1072.5,-182.6"/>
<text text-anchor="middle" x="1141.5" y="-189.6" font-family="Helvetica,sans-Serif" font-size="10.00">vector&lt; BlockFieldPair &gt;</text>
</a>
</g>
</g>
<!-- Node35&#45;&gt;Node27 -->
<g id="edge43" class="edge">
<title>Node35&#45;&gt;Node27</title>
<path fill="none" stroke="#9a32cd" stroke-dasharray="5,2" d="M1188.33,-180.44C1244.16,-169.17 1338.29,-160.08 1397,-208.1 1420.87,-227.62 1392.81,-253.7 1415,-275.1 1424.1,-283.88 1436.39,-288.9 1448.71,-291.7"/>
<polygon fill="#9a32cd" stroke="#9a32cd" points="1187.42,-177.05 1178.37,-182.55 1188.88,-183.9 1187.42,-177.05"/>
<text text-anchor="middle" x="1329" y="-211.1" font-family="Helvetica,sans-Serif" font-size="10.00"> emptyFieldBlocks</text>
</g>
<!-- Node36 -->
<g id="node36" class="node">
<title>Node36</title>
<g id="a_node36"><a xlink:title=" ">
<polygon fill="white" stroke="#bfbfbf" points="1063.5,-133.1 1063.5,-163.1 1219.5,-163.1 1219.5,-133.1 1063.5,-133.1"/>
<text text-anchor="start" x="1071.5" y="-151.1" font-family="Helvetica,sans-Serif" font-size="10.00">shared_ptr&lt; MoFEM::</text>
<text text-anchor="middle" x="1141.5" y="-140.1" font-family="Helvetica,sans-Serif" font-size="10.00">Problem::SubProblemData &gt;</text>
</a>
</g>
</g>
<!-- Node36&#45;&gt;Node27 -->
<g id="edge44" class="edge">
<title>Node36&#45;&gt;Node27</title>
<path fill="none" stroke="#9a32cd" stroke-dasharray="5,2" d="M1229.81,-139.77C1293.57,-135.73 1372.9,-135.65 1397,-157.1 1436.62,-192.38 1378.92,-236.21 1415,-275.1 1423.8,-284.59 1436.29,-289.79 1448.91,-292.55"/>
<polygon fill="#9a32cd" stroke="#9a32cd" points="1229.46,-136.28 1219.72,-140.45 1229.93,-143.27 1229.46,-136.28"/>
<text text-anchor="middle" x="1329" y="-160.1" font-family="Helvetica,sans-Serif" font-size="10.00"> subProblemData</text>
</g>
<!-- Node37 -->
<g id="node37" class="node">
<title>Node37</title>
<g id="a_node37"><a xlink:title=" ">
<polygon fill="white" stroke="#bfbfbf" points="1040,-94.6 1040,-113.6 1243,-113.6 1243,-94.6 1040,-94.6"/>
<text text-anchor="middle" x="1141.5" y="-101.6" font-family="Helvetica,sans-Serif" font-size="10.00">shared_ptr&lt; SequenceDofContainer &gt;</text>
</a>
</g>
</g>
<!-- Node37&#45;&gt;Node27 -->
<g id="edge46" class="edge">
<title>Node37&#45;&gt;Node27</title>
<path fill="none" stroke="#9a32cd" stroke-dasharray="5,2" d="M1248.56,-93.98C1308.47,-90.79 1375.56,-92.28 1397,-112.1 1423.76,-136.84 1390.77,-247.88 1415,-275.1 1423.6,-284.77 1436.03,-290.03 1448.65,-292.78"/>
<polygon fill="#9a32cd" stroke="#9a32cd" points="1248.03,-90.51 1238.25,-94.58 1248.43,-97.5 1248.03,-90.51"/>
<text text-anchor="middle" x="1329" y="-126.1" font-family="Helvetica,sans-Serif" font-size="10.00"> sequenceRowDofContainer</text>
<text text-anchor="middle" x="1329" y="-115.1" font-family="Helvetica,sans-Serif" font-size="10.00">sequenceColDofContainer</text>
</g>
<!-- Node38 -->
<g id="node38" class="node">
<title>Node38</title>
<g id="a_node38"><a xlink:title=" ">
<polygon fill="white" stroke="#bfbfbf" points="1097.5,-56.6 1097.5,-75.6 1185.5,-75.6 1185.5,-56.6 1097.5,-56.6"/>
<text text-anchor="middle" x="1141.5" y="-63.6" font-family="Helvetica,sans-Serif" font-size="10.00">BitProblemId *</text>
</a>
</g>
</g>
<!-- Node38&#45;&gt;Node27 -->
<g id="edge47" class="edge">
<title>Node38&#45;&gt;Node27</title>
<path fill="none" stroke="#9a32cd" stroke-dasharray="5,2" d="M1195.88,-60.79C1261.98,-55.5 1369.24,-51.54 1397,-78.1 1428.76,-108.5 1386.09,-241.99 1415,-275.1 1423.6,-284.96 1436.2,-290.26 1448.96,-292.98"/>
<polygon fill="#9a32cd" stroke="#9a32cd" points="1195.32,-57.33 1185.65,-61.65 1195.9,-64.3 1195.32,-57.33"/>
<text text-anchor="middle" x="1329" y="-81.1" font-family="Helvetica,sans-Serif" font-size="10.00"> tagId</text>
</g>
<!-- Node39 -->
<g id="node39" class="node">
<title>Node39</title>
<g id="a_node39"><a xlink:title=" ">
<polygon fill="white" stroke="#bfbfbf" points="1721.5,-628.1 1721.5,-658.1 1883.5,-658.1 1883.5,-628.1 1721.5,-628.1"/>
<text text-anchor="start" x="1729.5" y="-646.1" font-family="Helvetica,sans-Serif" font-size="10.00">shared_ptr&lt; const MoFEM</text>
<text text-anchor="middle" x="1802.5" y="-635.1" font-family="Helvetica,sans-Serif" font-size="10.00">::NumeredEntFiniteElement &gt;</text>
</a>
</g>
</g>
<!-- Node39&#45;&gt;Node1 -->
<g id="edge48" class="edge">
<title>Node39&#45;&gt;Node1</title>
<path fill="none" stroke="#9a32cd" stroke-dasharray="5,2" d="M1893.81,-636.76C1948.81,-632.89 2017.18,-628.08 2063.55,-624.83"/>
<polygon fill="#9a32cd" stroke="#9a32cd" points="1893.43,-633.27 1883.7,-637.47 1893.92,-640.26 1893.43,-633.27"/>
<text text-anchor="middle" x="1974" y="-638.1" font-family="Helvetica,sans-Serif" font-size="10.00"> numeredEntFiniteElementPtr</text>
</g>
<!-- Node40 -->
<g id="node40" class="node">
<title>Node40</title>
<g id="a_node40"><a xlink:title=" ">
<polygon fill="white" stroke="#bfbfbf" points="1780.5,-589.6 1780.5,-608.6 1824.5,-608.6 1824.5,-589.6 1780.5,-589.6"/>
<text text-anchor="middle" x="1802.5" y="-596.6" font-family="Helvetica,sans-Serif" font-size="10.00">string</text>
</a>
</g>
</g>
<!-- Node40&#45;&gt;Node1 -->
<g id="edge49" class="edge">
<title>Node40&#45;&gt;Node1</title>
<path fill="none" stroke="#9a32cd" stroke-dasharray="5,2" d="M1834.91,-599.74C1881.2,-600.89 1970.44,-603.89 2046,-611.1 2051.78,-611.66 2057.82,-612.34 2063.82,-613.1"/>
<polygon fill="#9a32cd" stroke="#9a32cd" points="1834.71,-596.24 1824.63,-599.5 1834.55,-603.23 1834.71,-596.24"/>
<text text-anchor="middle" x="1974" y="-614.1" font-family="Helvetica,sans-Serif" font-size="10.00"> feName</text>
</g>
<!-- Node41 -->
<g id="node41" class="node">
<title>Node41</title>
<g id="a_node41"><a xlink:title=" ">
<polygon fill="white" stroke="#bfbfbf" points="1721,-540.1 1721,-570.1 1884,-570.1 1884,-540.1 1721,-540.1"/>
<text text-anchor="start" x="1729" y="-558.1" font-family="Helvetica,sans-Serif" font-size="10.00">function&lt; bool(MoFEM</text>
<text text-anchor="middle" x="1802.5" y="-547.1" font-family="Helvetica,sans-Serif" font-size="10.00">::FEMethod *fe_method_ptr)&gt;</text>
</a>
</g>
</g>
<!-- Node41&#45;&gt;Node1 -->
<g id="edge50" class="edge">
<title>Node41&#45;&gt;Node1</title>
<path fill="none" stroke="#9a32cd" stroke-dasharray="5,2" d="M1894.02,-560.18C1940.23,-564.49 1996.91,-572.44 2046,-587.1 2065.66,-592.98 2086.66,-603.75 2100.57,-611.6"/>
<polygon fill="#9a32cd" stroke="#9a32cd" points="1894.29,-556.69 1884.02,-559.29 1893.67,-563.67 1894.29,-556.69"/>
<text text-anchor="middle" x="1974" y="-590.1" font-family="Helvetica,sans-Serif" font-size="10.00"> exeTestHook</text>
</g>
</g>
</svg>
        <g id="navigator" transform="translate(0 0)" fill="#404254">
                <rect fill="#f2f5e9" fill-opacity="0.5" stroke="#606060" stroke-width=".5" x="0" y="0" width="60" height="60"/>
                <use id="zoomplus" xlink:href="#zoomPlus" x="17" y="9" onmousedown="handleZoom(evt,'in')"/>
                <use id="zoomminus" xlink:href="#zoomMin" x="42" y="9" onmousedown="handleZoom(evt,'out')"/>
                <use id="reset" xlink:href="#resetDef" x="30" y="36" onmousedown="handleReset()"/>
                <g id="arrowUp" xlink:href="#dirArrow" transform="translate(30 24)" onmousedown="handlePan(0,-1)">
                  <use xlink:href="#rim" fill="#404040">
                        <set attributeName="fill" to="#808080" begin="arrowUp.mouseover" end="arrowUp.mouseout"/>
                  </use>
                  <path fill="none" stroke="white" stroke-width="1.5" d="M0,-3.0v7 M-2.5,-0.5L0,-3.0L2.5,-0.5"/>
                </g>
                <g id="arrowRight" xlink:href="#dirArrow" transform="rotate(90) translate(36 -43)" onmousedown="handlePan(1,0)">
                  <use xlink:href="#rim" fill="#404040">
                        <set attributeName="fill" to="#808080" begin="arrowRight.mouseover" end="arrowRight.mouseout"/>
                  </use>
                  <path fill="none" stroke="white" stroke-width="1.5" d="M0,-3.0v7 M-2.5,-0.5L0,-3.0L2.5,-0.5"/>
                </g>
                <g id="arrowDown" xlink:href="#dirArrow" transform="rotate(180) translate(-30 -48)" onmousedown="handlePan(0,1)">
                  <use xlink:href="#rim" fill="#404040">
                        <set attributeName="fill" to="#808080" begin="arrowDown.mouseover" end="arrowDown.mouseout"/>
                  </use>
                  <path fill="none" stroke="white" stroke-width="1.5" d="M0,-3.0v7 M-2.5,-0.5L0,-3.0L2.5,-0.5"/>
                </g>
                <g id="arrowLeft" xlink:href="#dirArrow" transform="rotate(270) translate(-36 17)" onmousedown="handlePan(-1,0)">
                  <use xlink:href="#rim" fill="#404040">
                        <set attributeName="fill" to="#808080" begin="arrowLeft.mouseover" end="arrowLeft.mouseout"/>
                  </use>
                  <path fill="none" stroke="white" stroke-width="1.5" d="M0,-3.0v7 M-2.5,-0.5L0,-3.0L2.5,-0.5"/>
                </g>
        </g>
        <svg viewBox="0 0 15 15" width="100%" height="30px" preserveAspectRatio="xMaxYMin meet">
         <g id="arrow_out" transform="scale(0.3 0.3)">
          <a xlink:href="structMoFEM_1_1FEMethod__coll__graph_org.svg" target="_base">
           <rect id="button" ry="5" rx="5" y="6" x="6" height="38" width="38"
                fill="#f2f5e9" fill-opacity="0.5" stroke="#606060" stroke-width="1.0"/>
           <path id="arrow"
             d="M 11.500037,31.436501 C 11.940474,20.09759 22.043105,11.32322 32.158766,21.979434 L 37.068811,17.246167 C 37.068811,17.246167 37.088388,32 37.088388,32 L 22.160133,31.978069 C 22.160133,31.978069 26.997745,27.140456 26.997745,27.140456 C 18.528582,18.264221 13.291696,25.230495 11.500037,31.436501 z"
             style="fill:#404040;"/>
          </a>
         </g>
        </svg>
</svg>
