<?xml version="1.0" encoding="UTF-8" standalone="no"?>
<!DOCTYPE svg PUBLIC "-//W3C//DTD SVG 1.1//EN"
 "http://www.w3.org/Graphics/SVG/1.1/DTD/svg11.dtd">
<!-- Generated by graphviz version 2.43.0 (0)
 -->
<!-- Title: TimeForceScale Pages: 1 -->
<svg width="599pt" height="106pt"
 viewBox="0.00 0.00 599.00 106.00" xmlns="http://www.w3.org/2000/svg" xmlns:xlink="http://www.w3.org/1999/xlink">
<g id="graph0" class="graph" transform="scale(1 1) rotate(0) translate(4 102)">
<title>TimeForceScale</title>
<polygon fill="white" stroke="transparent" points="-4,4 -4,-102 595,-102 595,4 -4,4"/>
<!-- Node1 -->
<g id="node1" class="node">
<title>Node1</title>
<g id="a_node1"><a xlink:title="Force scale operator for reading two columns.">
<polygon fill="#bfbfbf" stroke="black" points="293,-0.5 293,-19.5 387,-19.5 387,-0.5 293,-0.5"/>
<text text-anchor="middle" x="340" y="-7.5" font-family="Helvetica,sans-Serif" font-size="10.00">TimeForceScale</text>
</a>
</g>
</g>
<!-- Node2 -->
<g id="node2" class="node">
<title>Node2</title>
<g id="a_node2"><a xlink:href="structMethodForForceScaling.html" target="_top" xlink:title="Class used to scale loads, f.e. in arc&#45;length control.">
<polygon fill="white" stroke="black" points="0,-78.5 0,-97.5 130,-97.5 130,-78.5 0,-78.5"/>
<text text-anchor="middle" x="65" y="-85.5" font-family="Helvetica,sans-Serif" font-size="10.00">MethodForForceScaling</text>
</a>
</g>
</g>
<!-- Node2&#45;&gt;Node1 -->
<g id="edge1" class="edge">
<title>Node2&#45;&gt;Node1</title>
<path fill="none" stroke="midnightblue" d="M104.49,-75.61C139.52,-65.55 192.1,-50.57 238,-38 260.97,-31.71 286.91,-24.84 306.89,-19.61"/>
<polygon fill="midnightblue" stroke="midnightblue" points="103.29,-72.31 94.65,-78.43 105.23,-79.04 103.29,-72.31"/>
</g>
<!-- Node3 -->
<g id="node3" class="node">
<title>Node3</title>
<g id="a_node3"><a xlink:title=" ">
<polygon fill="white" stroke="#bfbfbf" points="148.5,-78.5 148.5,-97.5 213.5,-97.5 213.5,-78.5 148.5,-78.5"/>
<text text-anchor="middle" x="181" y="-85.5" font-family="Helvetica,sans-Serif" font-size="10.00">PetscBool</text>
</a>
</g>
</g>
<!-- Node3&#45;&gt;Node1 -->
<g id="edge2" class="edge">
<title>Node3&#45;&gt;Node1</title>
<path fill="none" stroke="#9a32cd" stroke-dasharray="5,2" d="M208.29,-73.96C240.78,-58.43 294.11,-32.94 321.89,-19.66"/>
<polygon fill="#9a32cd" stroke="#9a32cd" points="206.44,-70.96 198.93,-78.43 209.46,-77.27 206.44,-70.96"/>
<text text-anchor="middle" x="288.5" y="-46.5" font-family="Helvetica,sans-Serif" font-size="10.00"> fLg</text>
</g>
<!-- Node4 -->
<g id="node4" class="node">
<title>Node4</title>
<g id="a_node4"><a xlink:title=" ">
<polygon fill="white" stroke="#bfbfbf" points="231.5,-78.5 231.5,-97.5 364.5,-97.5 364.5,-78.5 231.5,-78.5"/>
<text text-anchor="middle" x="298" y="-85.5" font-family="Helvetica,sans-Serif" font-size="10.00">map&lt; double, double &gt;</text>
</a>
</g>
</g>
<!-- Node4&#45;&gt;Node1 -->
<g id="edge3" class="edge">
<title>Node4&#45;&gt;Node1</title>
<path fill="none" stroke="#9a32cd" stroke-dasharray="5,2" d="M307.2,-69.18C312.09,-59.84 318.25,-48.24 324,-38 327.41,-31.92 331.41,-25.17 334.56,-19.94"/>
<polygon fill="#9a32cd" stroke="#9a32cd" points="303.99,-67.77 302.48,-78.26 310.2,-71 303.99,-67.77"/>
<text text-anchor="middle" x="342.5" y="-46.5" font-family="Helvetica,sans-Serif" font-size="10.00"> tSeries</text>
</g>
<!-- Node5 -->
<g id="node5" class="node">
<title>Node5</title>
<g id="a_node5"><a xlink:title=" ">
<polygon fill="white" stroke="#bfbfbf" points="382.5,-78.5 382.5,-97.5 411.5,-97.5 411.5,-78.5 382.5,-78.5"/>
<text text-anchor="middle" x="397" y="-85.5" font-family="Helvetica,sans-Serif" font-size="10.00">int</text>
</a>
</g>
</g>
<!-- Node5&#45;&gt;Node1 -->
<g id="edge4" class="edge">
<title>Node5&#45;&gt;Node1</title>
<path fill="none" stroke="#9a32cd" stroke-dasharray="5,2" d="M384.75,-70.09C377.84,-60.61 369.01,-48.59 361,-38 356.42,-31.94 351.17,-25.19 347.06,-19.95"/>
<polygon fill="#9a32cd" stroke="#9a32cd" points="381.99,-72.24 390.7,-78.27 387.65,-68.13 381.99,-72.24"/>
<text text-anchor="middle" x="397.5" y="-52" font-family="Helvetica,sans-Serif" font-size="10.00"> readFile</text>
<text text-anchor="middle" x="397.5" y="-41" font-family="Helvetica,sans-Serif" font-size="10.00">debug</text>
</g>
<!-- Node6 -->
<g id="node6" class="node">
<title>Node6</title>
<g id="a_node6"><a xlink:href="classbool.html" target="_top" xlink:title=" ">
<polygon fill="white" stroke="black" points="430,-78.5 430,-97.5 468,-97.5 468,-78.5 430,-78.5"/>
<text text-anchor="middle" x="449" y="-85.5" font-family="Helvetica,sans-Serif" font-size="10.00">bool</text>
</a>
</g>
</g>
<!-- Node6&#45;&gt;Node1 -->
<g id="edge5" class="edge">
<title>Node6&#45;&gt;Node1</title>
<path fill="none" stroke="#9a32cd" stroke-dasharray="5,2" d="M443.19,-68.72C439.05,-58.4 432.52,-46 423,-38 412.79,-29.42 399.79,-23.55 387.13,-19.54"/>
<polygon fill="#9a32cd" stroke="#9a32cd" points="440,-70.21 446.66,-78.46 446.6,-67.86 440,-70.21"/>
<text text-anchor="middle" x="487.5" y="-46.5" font-family="Helvetica,sans-Serif" font-size="10.00"> errorIfFileNotGiven</text>
</g>
<!-- Node7 -->
<g id="node7" class="node">
<title>Node7</title>
<g id="a_node7"><a xlink:title=" ">
<polygon fill="white" stroke="#bfbfbf" points="547,-78.5 547,-97.5 591,-97.5 591,-78.5 547,-78.5"/>
<text text-anchor="middle" x="569" y="-85.5" font-family="Helvetica,sans-Serif" font-size="10.00">string</text>
</a>
</g>
</g>
<!-- Node7&#45;&gt;Node1 -->
<g id="edge6" class="edge">
<title>Node7&#45;&gt;Node1</title>
<path fill="none" stroke="#9a32cd" stroke-dasharray="5,2" d="M562.98,-69.06C558.4,-58.28 550.99,-45.28 540,-38 515.69,-21.89 438.4,-15.31 387.33,-12.68"/>
<polygon fill="#9a32cd" stroke="#9a32cd" points="559.72,-70.33 566.52,-78.45 566.27,-67.86 559.72,-70.33"/>
<text text-anchor="middle" x="574" y="-46.5" font-family="Helvetica,sans-Serif" font-size="10.00"> nAme</text>
</g>
</g>
</svg>
