<?xml version="1.0" encoding="UTF-8" standalone="no"?>
<!DOCTYPE svg PUBLIC "-//W3C//DTD SVG 1.1//EN"
 "http://www.w3.org/Graphics/SVG/1.1/DTD/svg11.dtd">
<!-- Generated by graphviz version 2.43.0 (0)
 -->
<!-- Title: MetaSpringBC::SpringALEMaterialVolOnSideLhs Pages: 1 -->
<svg width="1191pt" height="88pt"
 viewBox="0.00 0.00 1191.00 88.00" xmlns="http://www.w3.org/2000/svg" xmlns:xlink="http://www.w3.org/1999/xlink">
<g id="graph0" class="graph" transform="scale(1 1) rotate(0) translate(4 84)">
<title>MetaSpringBC::SpringALEMaterialVolOnSideLhs</title>
<polygon fill="white" stroke="transparent" points="-4,4 -4,-84 1187,-84 1187,4 -4,4"/>
<!-- Node1 -->
<g id="node1" class="node">
<title>Node1</title>
<g id="a_node1"><a xlink:title="Base class for LHS&#45;operators (material) on side volumes.">
<polygon fill="#bfbfbf" stroke="black" points="785,-24.5 785,-54.5 966,-54.5 966,-24.5 785,-24.5"/>
<text text-anchor="start" x="793" y="-42.5" font-family="Helvetica,sans-Serif" font-size="10.00">MetaSpringBC::SpringALEMaterial</text>
<text text-anchor="middle" x="875.5" y="-31.5" font-family="Helvetica,sans-Serif" font-size="10.00">VolOnSideLhs</text>
</a>
</g>
</g>
<!-- Node6 -->
<g id="node6" class="node">
<title>Node6</title>
<g id="a_node6"><a xlink:href="structMetaSpringBC_1_1SpringALEMaterialVolOnSideLhs__dX__dX.html" target="_top" xlink:title="LHS&#45;operator (material configuration) on the side volume.">
<polygon fill="white" stroke="black" points="1002,-49.5 1002,-79.5 1183,-79.5 1183,-49.5 1002,-49.5"/>
<text text-anchor="start" x="1010" y="-67.5" font-family="Helvetica,sans-Serif" font-size="10.00">MetaSpringBC::SpringALEMaterial</text>
<text text-anchor="middle" x="1092.5" y="-56.5" font-family="Helvetica,sans-Serif" font-size="10.00">VolOnSideLhs_dX_dX</text>
</a>
</g>
</g>
<!-- Node1&#45;&gt;Node6 -->
<g id="edge5" class="edge">
<title>Node1&#45;&gt;Node6</title>
<path fill="none" stroke="midnightblue" d="M976.1,-51.08C984.63,-52.07 993.23,-53.07 1001.68,-54.06"/>
<polygon fill="midnightblue" stroke="midnightblue" points="976.46,-47.6 966.12,-49.92 975.65,-54.55 976.46,-47.6"/>
</g>
<!-- Node7 -->
<g id="node7" class="node">
<title>Node7</title>
<g id="a_node7"><a xlink:href="structMetaSpringBC_1_1SpringALEMaterialVolOnSideLhs__dX__dx.html" target="_top" xlink:title="LHS&#45;operator (material configuration) on the side volume for spring element.">
<polygon fill="white" stroke="black" points="1002,-0.5 1002,-30.5 1183,-30.5 1183,-0.5 1002,-0.5"/>
<text text-anchor="start" x="1010" y="-18.5" font-family="Helvetica,sans-Serif" font-size="10.00">MetaSpringBC::SpringALEMaterial</text>
<text text-anchor="middle" x="1092.5" y="-7.5" font-family="Helvetica,sans-Serif" font-size="10.00">VolOnSideLhs_dX_dx</text>
</a>
</g>
</g>
<!-- Node1&#45;&gt;Node7 -->
<g id="edge6" class="edge">
<title>Node1&#45;&gt;Node7</title>
<path fill="none" stroke="midnightblue" d="M976.1,-28.38C984.63,-27.43 993.23,-26.47 1001.68,-25.53"/>
<polygon fill="midnightblue" stroke="midnightblue" points="975.67,-24.91 966.12,-29.5 976.45,-31.86 975.67,-24.91"/>
</g>
<!-- Node2 -->
<g id="node2" class="node">
<title>Node2</title>
<g id="a_node2"><a xlink:href="structMoFEM_1_1VolumeElementForcesAndSourcesCoreOnSide_1_1UserDataOperator.html" target="_top" xlink:title="default operator for TET element">
<polygon fill="white" stroke="black" points="594,-30 594,-49 749,-49 749,-30 594,-30"/>
<text text-anchor="middle" x="671.5" y="-37" font-family="Helvetica,sans-Serif" font-size="10.00">VolOnSideUserDataOperator</text>
</a>
</g>
</g>
<!-- Node2&#45;&gt;Node1 -->
<g id="edge1" class="edge">
<title>Node2&#45;&gt;Node1</title>
<path fill="none" stroke="midnightblue" d="M759.32,-39.5C767.72,-39.5 776.25,-39.5 784.68,-39.5"/>
<polygon fill="midnightblue" stroke="midnightblue" points="759.16,-36 749.16,-39.5 759.16,-43 759.16,-36"/>
</g>
<!-- Node3 -->
<g id="node3" class="node">
<title>Node3</title>
<g id="a_node3"><a xlink:href="structMoFEM_1_1VolumeElementForcesAndSourcesCore_1_1UserDataOperator.html" target="_top" xlink:title=" ">
<polygon fill="white" stroke="black" points="367,-24.5 367,-54.5 558,-54.5 558,-24.5 367,-24.5"/>
<text text-anchor="start" x="375" y="-42.5" font-family="Helvetica,sans-Serif" font-size="10.00">MoFEM::VolumeElementForces</text>
<text text-anchor="middle" x="462.5" y="-31.5" font-family="Helvetica,sans-Serif" font-size="10.00">AndSourcesCore::UserDataOperator</text>
</a>
</g>
</g>
<!-- Node3&#45;&gt;Node2 -->
<g id="edge2" class="edge">
<title>Node3&#45;&gt;Node2</title>
<path fill="none" stroke="midnightblue" d="M568.3,-39.5C576.9,-39.5 585.48,-39.5 593.82,-39.5"/>
<polygon fill="midnightblue" stroke="midnightblue" points="568.22,-36 558.22,-39.5 568.22,-43 568.22,-36"/>
</g>
<!-- Node4 -->
<g id="node4" class="node">
<title>Node4</title>
<g id="a_node4"><a xlink:href="structMoFEM_1_1ForcesAndSourcesCore_1_1UserDataOperator.html" target="_top" xlink:title=" ">
<polygon fill="white" stroke="black" points="161,-24.5 161,-54.5 331,-54.5 331,-24.5 161,-24.5"/>
<text text-anchor="start" x="169" y="-42.5" font-family="Helvetica,sans-Serif" font-size="10.00">MoFEM::ForcesAndSourcesCore</text>
<text text-anchor="middle" x="246" y="-31.5" font-family="Helvetica,sans-Serif" font-size="10.00">::UserDataOperator</text>
</a>
</g>
</g>
<!-- Node4&#45;&gt;Node3 -->
<g id="edge3" class="edge">
<title>Node4&#45;&gt;Node3</title>
<path fill="none" stroke="midnightblue" d="M341.42,-39.5C349.89,-39.5 358.47,-39.5 366.93,-39.5"/>
<polygon fill="midnightblue" stroke="midnightblue" points="341.16,-36 331.16,-39.5 341.16,-43 341.16,-36"/>
</g>
<!-- Node5 -->
<g id="node5" class="node">
<title>Node5</title>
<g id="a_node5"><a xlink:href="structMoFEM_1_1DataOperator.html" target="_top" xlink:title="base operator to do operations at Gauss Pt. level">
<polygon fill="white" stroke="black" points="0,-30 0,-49 125,-49 125,-30 0,-30"/>
<text text-anchor="middle" x="62.5" y="-37" font-family="Helvetica,sans-Serif" font-size="10.00">MoFEM::DataOperator</text>
</a>
</g>
</g>
<!-- Node5&#45;&gt;Node4 -->
<g id="edge4" class="edge">
<title>Node5&#45;&gt;Node4</title>
<path fill="none" stroke="midnightblue" d="M135.34,-39.5C143.75,-39.5 152.4,-39.5 160.97,-39.5"/>
<polygon fill="midnightblue" stroke="midnightblue" points="135.2,-36 125.2,-39.5 135.2,-43 135.2,-36"/>
</g>
</g>
</svg>
