<?xml version="1.0" encoding="UTF-8" standalone="no"?>
<!DOCTYPE svg PUBLIC "-//W3C//DTD SVG 1.1//EN"
 "http://www.w3.org/Graphics/SVG/1.1/DTD/svg11.dtd">
<!-- Generated by graphviz version 2.43.0 (0)
 -->
<!-- Title: HenckyOps::CommonData Pages: 1 -->
<svg width="459pt" height="193pt"
 viewBox="0.00 0.00 459.00 192.50" xmlns="http://www.w3.org/2000/svg" xmlns:xlink="http://www.w3.org/1999/xlink">
<g id="graph0" class="graph" transform="scale(1 1) rotate(0) translate(4 188.5)">
<title>HenckyOps::CommonData</title>
<polygon fill="white" stroke="transparent" points="-4,4 -4,-188.5 455,-188.5 455,4 -4,4"/>
<!-- Node1 -->
<g id="node1" class="node">
<title>Node1</title>
<g id="a_node1"><a xlink:title=" ">
<polygon fill="#bfbfbf" stroke="black" points="306,-111.5 306,-130.5 451,-130.5 451,-111.5 306,-111.5"/>
<text text-anchor="middle" x="378.5" y="-118.5" font-family="Helvetica,sans-Serif" font-size="10.00">HenckyOps::CommonData</text>
</a>
</g>
</g>
<!-- Node2 -->
<g id="node2" class="node">
<title>Node2</title>
<g id="a_node2"><a xlink:title=" ">
<polygon fill="white" stroke="#bfbfbf" points="0,-154 0,-184 158,-184 158,-154 0,-154"/>
<text text-anchor="start" x="8" y="-172" font-family="Helvetica,sans-Serif" font-size="10.00">boost::enable_shared</text>
<text text-anchor="middle" x="79" y="-161" font-family="Helvetica,sans-Serif" font-size="10.00">_from_this&lt; CommonData &gt;</text>
</a>
</g>
</g>
<!-- Node2&#45;&gt;Node1 -->
<g id="edge1" class="edge">
<title>Node2&#45;&gt;Node1</title>
<path fill="none" stroke="midnightblue" d="M168.63,-168.79C205.85,-167.23 249.38,-163.44 288,-155 312.68,-149.61 339.61,-138.63 357.41,-130.6"/>
<polygon fill="midnightblue" stroke="midnightblue" points="168.17,-165.31 158.31,-169.18 168.43,-172.3 168.17,-165.31"/>
</g>
<!-- Node3 -->
<g id="node3" class="node">
<title>Node3</title>
<g id="a_node3"><a xlink:title=" ">
<polygon fill="white" stroke="#bfbfbf" points="0.5,-111.5 0.5,-130.5 157.5,-130.5 157.5,-111.5 0.5,-111.5"/>
<text text-anchor="middle" x="79" y="-118.5" font-family="Helvetica,sans-Serif" font-size="10.00">shared_ptr&lt; MatrixDouble &gt;</text>
</a>
</g>
</g>
<!-- Node3&#45;&gt;Node1 -->
<g id="edge2" class="edge">
<title>Node3&#45;&gt;Node1</title>
<path fill="none" stroke="#9a32cd" stroke-dasharray="5,2" d="M167.88,-121C211.82,-121 264.32,-121 305.79,-121"/>
<polygon fill="#9a32cd" stroke="#9a32cd" points="167.78,-117.5 157.78,-121 167.78,-124.5 167.78,-117.5"/>
<text text-anchor="middle" x="232" y="-146" font-family="Helvetica,sans-Serif" font-size="10.00"> matLogCPlastic</text>
<text text-anchor="middle" x="232" y="-135" font-family="Helvetica,sans-Serif" font-size="10.00">matDPtr</text>
<text text-anchor="middle" x="232" y="-124" font-family="Helvetica,sans-Serif" font-size="10.00">matGradPtr</text>
</g>
<!-- Node4 -->
<g id="node4" class="node">
<title>Node4</title>
<g id="a_node4"><a xlink:title=" ">
<polygon fill="white" stroke="#bfbfbf" points="37.5,-0.5 37.5,-19.5 120.5,-19.5 120.5,-0.5 37.5,-0.5"/>
<text text-anchor="middle" x="79" y="-7.5" font-family="Helvetica,sans-Serif" font-size="10.00">MatrixDouble</text>
</a>
</g>
</g>
<!-- Node4&#45;&gt;Node1 -->
<g id="edge3" class="edge">
<title>Node4&#45;&gt;Node1</title>
<path fill="none" stroke="#9a32cd" stroke-dasharray="5,2" d="M131.01,-5.08C174.79,-3.04 238.46,-5.37 288,-29 327.42,-47.81 358.94,-91.74 371.55,-111.31"/>
<polygon fill="#9a32cd" stroke="#9a32cd" points="130.67,-1.6 120.89,-5.65 131.07,-8.59 130.67,-1.6"/>
<text text-anchor="middle" x="232" y="-109" font-family="Helvetica,sans-Serif" font-size="10.00"> matSecondPiolaStress</text>
<text text-anchor="middle" x="232" y="-98" font-family="Helvetica,sans-Serif" font-size="10.00">matTangent</text>
<text text-anchor="middle" x="232" y="-87" font-family="Helvetica,sans-Serif" font-size="10.00">matFirstPiolaStress</text>
<text text-anchor="middle" x="232" y="-76" font-family="Helvetica,sans-Serif" font-size="10.00">matHenckyStress</text>
<text text-anchor="middle" x="232" y="-65" font-family="Helvetica,sans-Serif" font-size="10.00">matLogCdC</text>
<text text-anchor="middle" x="232" y="-54" font-family="Helvetica,sans-Serif" font-size="10.00">matEigVal</text>
<text text-anchor="middle" x="232" y="-43" font-family="Helvetica,sans-Serif" font-size="10.00">matLogC</text>
<text text-anchor="middle" x="232" y="-32" font-family="Helvetica,sans-Serif" font-size="10.00">matEigVec</text>
</g>
</g>
</svg>
