<?xml version="1.0" encoding="UTF-8" standalone="no"?>
<!DOCTYPE svg PUBLIC "-//W3C//DTD SVG 1.1//EN"
 "http://www.w3.org/Graphics/SVG/1.1/DTD/svg11.dtd">
<!-- Generated by graphviz version 2.43.0 (0)
 -->
<!-- Title: BCs_RVELagrange_Trac_Rigid_Trans Pages: 1 -->
<svg width="1774pt" height="243pt"
 viewBox="0.00 0.00 1774.00 243.00" xmlns="http://www.w3.org/2000/svg" xmlns:xlink="http://www.w3.org/1999/xlink">
<g id="graph0" class="graph" transform="scale(1 1) rotate(0) translate(4 239)">
<title>BCs_RVELagrange_Trac_Rigid_Trans</title>
<polygon fill="white" stroke="transparent" points="-4,4 -4,-239 1770,-239 1770,4 -4,4"/>
<!-- Node1 -->
<g id="node1" class="node">
<title>Node1</title>
<g id="a_node1"><a xlink:title=" ">
<polygon fill="#bfbfbf" stroke="black" points="1636,-119.5 1636,-149.5 1766,-149.5 1766,-119.5 1636,-119.5"/>
<text text-anchor="start" x="1644" y="-137.5" font-family="Helvetica,sans-Serif" font-size="10.00">BCs_RVELagrange_Trac</text>
<text text-anchor="middle" x="1701" y="-126.5" font-family="Helvetica,sans-Serif" font-size="10.00">_Rigid_Trans</text>
</a>
</g>
</g>
<!-- Node2 -->
<g id="node2" class="node">
<title>Node2</title>
<g id="a_node2"><a xlink:href="structBCs__RVELagrange__Disp.html" target="_top" xlink:title=" ">
<polygon fill="white" stroke="black" points="1467,-125 1467,-144 1599,-144 1599,-125 1467,-125"/>
<text text-anchor="middle" x="1533" y="-132" font-family="Helvetica,sans-Serif" font-size="10.00">BCs_RVELagrange_Disp</text>
</a>
</g>
</g>
<!-- Node2&#45;&gt;Node1 -->
<g id="edge1" class="edge">
<title>Node2&#45;&gt;Node1</title>
<path fill="none" stroke="midnightblue" d="M1609.14,-134.5C1618.07,-134.5 1627.12,-134.5 1635.87,-134.5"/>
<polygon fill="midnightblue" stroke="midnightblue" points="1609.13,-131 1599.13,-134.5 1609.13,-138 1609.13,-131"/>
</g>
<!-- Node3 -->
<g id="node3" class="node">
<title>Node3</title>
<g id="a_node3"><a xlink:href="structBCs__RVELagrange__Disp_1_1CommonFunctions.html" target="_top" xlink:title=" ">
<polygon fill="white" stroke="black" points="1171.5,-204.5 1171.5,-234.5 1303.5,-234.5 1303.5,-204.5 1171.5,-204.5"/>
<text text-anchor="start" x="1179.5" y="-222.5" font-family="Helvetica,sans-Serif" font-size="10.00">BCs_RVELagrange_Disp</text>
<text text-anchor="middle" x="1237.5" y="-211.5" font-family="Helvetica,sans-Serif" font-size="10.00">::CommonFunctions</text>
</a>
</g>
</g>
<!-- Node3&#45;&gt;Node2 -->
<g id="edge2" class="edge">
<title>Node3&#45;&gt;Node2</title>
<path fill="none" stroke="#9a32cd" stroke-dasharray="5,2" d="M1313.59,-209.16C1354.36,-202.31 1405.23,-191.74 1449,-176.5 1473.56,-167.95 1500.05,-153.54 1516.34,-144.03"/>
<polygon fill="#9a32cd" stroke="#9a32cd" points="1313.02,-205.71 1303.72,-210.78 1314.16,-212.62 1313.02,-205.71"/>
<text text-anchor="middle" x="1397.5" y="-205.5" font-family="Helvetica,sans-Serif" font-size="10.00"> common_functions</text>
</g>
<!-- Node4 -->
<g id="node4" class="node">
<title>Node4</title>
<g id="a_node4"><a xlink:href="structMoFEM_1_1DeprecatedCoreInterface.html" target="_top" xlink:title="Deprecated interface functions.">
<polygon fill="white" stroke="black" points="1147,-166 1147,-185 1328,-185 1328,-166 1147,-166"/>
<text text-anchor="middle" x="1237.5" y="-173" font-family="Helvetica,sans-Serif" font-size="10.00">MoFEM::DeprecatedCoreInterface</text>
</a>
</g>
</g>
<!-- Node4&#45;&gt;Node2 -->
<g id="edge3" class="edge">
<title>Node4&#45;&gt;Node2</title>
<path fill="none" stroke="#9a32cd" stroke-dasharray="5,2" d="M1328.9,-164.7C1366.14,-160.04 1409.69,-154.33 1449,-148.5 1458.11,-147.15 1467.76,-145.61 1477.13,-144.07"/>
<polygon fill="#9a32cd" stroke="#9a32cd" points="1328.06,-161.28 1318.57,-165.99 1328.92,-168.22 1328.06,-161.28"/>
<text text-anchor="middle" x="1397.5" y="-164.5" font-family="Helvetica,sans-Serif" font-size="10.00"> mField</text>
</g>
<!-- Node5 -->
<g id="node5" class="node">
<title>Node5</title>
<g id="a_node5"><a xlink:href="structMoFEM_1_1CoreInterface.html" target="_top" xlink:title="Interface.">
<polygon fill="white" stroke="black" points="952.5,-166 952.5,-185 1077.5,-185 1077.5,-166 952.5,-166"/>
<text text-anchor="middle" x="1015" y="-173" font-family="Helvetica,sans-Serif" font-size="10.00">MoFEM::CoreInterface</text>
</a>
</g>
</g>
<!-- Node5&#45;&gt;Node4 -->
<g id="edge4" class="edge">
<title>Node5&#45;&gt;Node4</title>
<path fill="none" stroke="midnightblue" d="M1087.95,-175.5C1106.73,-175.5 1127.2,-175.5 1146.77,-175.5"/>
<polygon fill="midnightblue" stroke="midnightblue" points="1087.71,-172 1077.71,-175.5 1087.71,-179 1087.71,-172"/>
</g>
<!-- Node6 -->
<g id="node6" class="node">
<title>Node6</title>
<g id="a_node6"><a xlink:href="structMoFEM_1_1UnknownInterface.html" target="_top" xlink:title="base class for all interface classes">
<polygon fill="white" stroke="black" points="735,-166 735,-185 883,-185 883,-166 735,-166"/>
<text text-anchor="middle" x="809" y="-173" font-family="Helvetica,sans-Serif" font-size="10.00">MoFEM::UnknownInterface</text>
</a>
</g>
</g>
<!-- Node6&#45;&gt;Node5 -->
<g id="edge5" class="edge">
<title>Node6&#45;&gt;Node5</title>
<path fill="none" stroke="midnightblue" d="M893.27,-175.5C912.98,-175.5 933.65,-175.5 952.21,-175.5"/>
<polygon fill="midnightblue" stroke="midnightblue" points="893.07,-172 883.07,-175.5 893.07,-179 893.07,-172"/>
</g>
<!-- Node7 -->
<g id="node7" class="node">
<title>Node7</title>
<g id="a_node7"><a xlink:title=" ">
<polygon fill="white" stroke="#bfbfbf" points="386,-144 386,-207 627,-207 627,-144 386,-144"/>
<text text-anchor="start" x="394" y="-195" font-family="Helvetica,sans-Serif" font-size="10.00">multi_index_container</text>
<text text-anchor="start" x="394" y="-184" font-family="Helvetica,sans-Serif" font-size="10.00">&lt; UIdTypeMap, indexed</text>
<text text-anchor="start" x="394" y="-173" font-family="Helvetica,sans-Serif" font-size="10.00">_by&lt; hashed_unique&lt; member</text>
<text text-anchor="start" x="394" y="-162" font-family="Helvetica,sans-Serif" font-size="10.00">&lt; UIdTypeMap, boost::typeindex</text>
<text text-anchor="middle" x="506.5" y="-151" font-family="Helvetica,sans-Serif" font-size="10.00">::type_index, &amp;UIdTypeMap::classIdx &gt; &gt; &gt; &gt;</text>
</a>
</g>
</g>
<!-- Node7&#45;&gt;Node6 -->
<g id="edge6" class="edge">
<title>Node7&#45;&gt;Node6</title>
<path fill="none" stroke="#9a32cd" stroke-dasharray="5,2" d="M637.41,-175.5C670.69,-175.5 705.33,-175.5 734.62,-175.5"/>
<polygon fill="#9a32cd" stroke="#9a32cd" points="637.13,-172 627.13,-175.5 637.13,-179 637.13,-172"/>
<text text-anchor="middle" x="681" y="-178.5" font-family="Helvetica,sans-Serif" font-size="10.00"> iFaceTypeMap</text>
</g>
<!-- Node8 -->
<g id="node8" class="node">
<title>Node8</title>
<g id="a_node8"><a xlink:title=" ">
<polygon fill="white" stroke="#bfbfbf" points="0,-166 0,-185 125,-185 125,-166 0,-166"/>
<text text-anchor="middle" x="62.5" y="-173" font-family="Helvetica,sans-Serif" font-size="10.00">multi_index_container</text>
</a>
</g>
</g>
<!-- Node8&#45;&gt;Node7 -->
<g id="edge7" class="edge">
<title>Node8&#45;&gt;Node7</title>
<path fill="none" stroke="orange" stroke-dasharray="5,2" d="M135.56,-175.5C203.25,-175.5 305.79,-175.5 385.77,-175.5"/>
<polygon fill="orange" stroke="orange" points="135.42,-172 125.42,-175.5 135.42,-179 135.42,-172"/>
<text text-anchor="start" x="143" y="-211.5" font-family="Helvetica,sans-Serif" font-size="10.00"> &lt; UIdTypeMap, indexed</text>
<text text-anchor="start" x="143" y="-200.5" font-family="Helvetica,sans-Serif" font-size="10.00">_by&lt; hashed_unique&lt; member</text>
<text text-anchor="start" x="143" y="-189.5" font-family="Helvetica,sans-Serif" font-size="10.00">&lt; UIdTypeMap, boost::typeindex</text>
<text text-anchor="middle" x="255.5" y="-178.5" font-family="Helvetica,sans-Serif" font-size="10.00">::type_index, &amp;UIdTypeMap::classIdx &gt; &gt; &gt; &gt;</text>
</g>
<!-- Node9 -->
<g id="node9" class="node">
<title>Node9</title>
<g id="a_node9"><a xlink:title=" ">
<polygon fill="white" stroke="#bfbfbf" points="1160,-116.5 1160,-146.5 1315,-146.5 1315,-116.5 1160,-116.5"/>
<text text-anchor="start" x="1168" y="-134.5" font-family="Helvetica,sans-Serif" font-size="10.00">ptr_vector&lt; MethodForForce</text>
<text text-anchor="middle" x="1237.5" y="-123.5" font-family="Helvetica,sans-Serif" font-size="10.00">Scaling &gt;</text>
</a>
</g>
</g>
<!-- Node9&#45;&gt;Node2 -->
<g id="edge8" class="edge">
<title>Node9&#45;&gt;Node2</title>
<path fill="none" stroke="#9a32cd" stroke-dasharray="5,2" d="M1325.33,-132.39C1370.58,-132.85 1425.02,-133.41 1466.66,-133.83"/>
<polygon fill="#9a32cd" stroke="#9a32cd" points="1325.27,-128.89 1315.23,-132.28 1325.19,-135.89 1325.27,-128.89"/>
<text text-anchor="middle" x="1397.5" y="-136.5" font-family="Helvetica,sans-Serif" font-size="10.00"> methodsOp</text>
</g>
<!-- Node10 -->
<g id="node10" class="node">
<title>Node10</title>
<g id="a_node10"><a xlink:href="structBCs__RVELagrange__Disp_1_1MyTriFE.html" target="_top" xlink:title=" ">
<polygon fill="white" stroke="black" points="1171.5,-49.5 1171.5,-79.5 1303.5,-79.5 1303.5,-49.5 1171.5,-49.5"/>
<text text-anchor="start" x="1179.5" y="-67.5" font-family="Helvetica,sans-Serif" font-size="10.00">BCs_RVELagrange_Disp</text>
<text text-anchor="middle" x="1237.5" y="-56.5" font-family="Helvetica,sans-Serif" font-size="10.00">::MyTriFE</text>
</a>
</g>
</g>
<!-- Node10&#45;&gt;Node2 -->
<g id="edge9" class="edge">
<title>Node10&#45;&gt;Node2</title>
<path fill="none" stroke="#9a32cd" stroke-dasharray="5,2" d="M1314.11,-57.22C1355.12,-55.85 1406.06,-58.39 1449,-73.5 1479.7,-84.3 1508.7,-110.58 1522.9,-124.86"/>
<polygon fill="#9a32cd" stroke="#9a32cd" points="1313.75,-53.73 1303.9,-57.65 1314.04,-60.73 1313.75,-53.73"/>
<text text-anchor="middle" x="1397.5" y="-120.5" font-family="Helvetica,sans-Serif" font-size="10.00"> feRVEBCRhsHomoC</text>
<text text-anchor="middle" x="1397.5" y="-109.5" font-family="Helvetica,sans-Serif" font-size="10.00">feRVEBCRhsResidual</text>
<text text-anchor="middle" x="1397.5" y="-98.5" font-family="Helvetica,sans-Serif" font-size="10.00">feRVEBCLhs</text>
<text text-anchor="middle" x="1397.5" y="-87.5" font-family="Helvetica,sans-Serif" font-size="10.00">feRVEBCRhs</text>
<text text-anchor="middle" x="1397.5" y="-76.5" font-family="Helvetica,sans-Serif" font-size="10.00">feRVEBCStress</text>
</g>
<!-- Node11 -->
<g id="node11" class="node">
<title>Node11</title>
<g id="a_node11"><a xlink:href="classFaceElementForcesAndSourcesCore.html" target="_top" xlink:title=" ">
<polygon fill="white" stroke="black" points="920,-55 920,-74 1110,-74 1110,-55 920,-55"/>
<text text-anchor="middle" x="1015" y="-62" font-family="Helvetica,sans-Serif" font-size="10.00">FaceElementForcesAndSourcesCore</text>
</a>
</g>
</g>
<!-- Node11&#45;&gt;Node10 -->
<g id="edge10" class="edge">
<title>Node11&#45;&gt;Node10</title>
<path fill="none" stroke="midnightblue" d="M1120.34,-64.5C1137.71,-64.5 1155.27,-64.5 1171.29,-64.5"/>
<polygon fill="midnightblue" stroke="midnightblue" points="1120.15,-61 1110.15,-64.5 1120.15,-68 1120.15,-61"/>
</g>
<!-- Node12 -->
<g id="node12" class="node">
<title>Node12</title>
<g id="a_node12"><a xlink:title=" ">
<polygon fill="white" stroke="#bfbfbf" points="1159,-0.5 1159,-30.5 1316,-30.5 1316,-0.5 1159,-0.5"/>
<text text-anchor="start" x="1167" y="-18.5" font-family="Helvetica,sans-Serif" font-size="10.00">map&lt; int, BCs_RVELagrange</text>
<text text-anchor="middle" x="1237.5" y="-7.5" font-family="Helvetica,sans-Serif" font-size="10.00">_Disp::RVEBC_Data &gt;</text>
</a>
</g>
</g>
<!-- Node12&#45;&gt;Node2 -->
<g id="edge11" class="edge">
<title>Node12&#45;&gt;Node2</title>
<path fill="none" stroke="#9a32cd" stroke-dasharray="5,2" d="M1326.29,-13.21C1365.73,-15.5 1411.69,-22.97 1449,-42.5 1486.36,-62.05 1515.16,-105.59 1526.62,-124.93"/>
<polygon fill="#9a32cd" stroke="#9a32cd" points="1326.3,-9.71 1316.15,-12.73 1325.97,-16.7 1326.3,-9.71"/>
<text text-anchor="middle" x="1397.5" y="-45.5" font-family="Helvetica,sans-Serif" font-size="10.00"> setOfRVEBC</text>
</g>
</g>
</svg>
