<?xml version="1.0" encoding="UTF-8" standalone="no"?>
<!DOCTYPE svg PUBLIC "-//W3C//DTD SVG 1.1//EN"
 "http://www.w3.org/Graphics/SVG/1.1/DTD/svg11.dtd">
<!-- Generated by graphviz version 2.43.0 (0)
 -->
<!-- Title: MoFEM::KernelLobattoPolynomialCtx Pages: 1 -->
<!--zoomable 260 -->
<svg id="main" version="1.1" xmlns="http://www.w3.org/2000/svg" xmlns:xlink="http://www.w3.org/1999/xlink" xml:space="preserve" onload="init(evt)">
<style type="text/css"><![CDATA[
.edge:hover path { stroke: red; }
.edge:hover polygon { stroke: red; fill: red; }
]]></style>
<script type="text/javascript"><![CDATA[
var edges = document.getElementsByTagName('g');
if (edges && edges.length) {
  for (var i=0;i<edges.length;i++) {
    if (edges[i].id.substr(0,4)=='edge') {
      edges[i].setAttribute('class','edge');
    }
  }
}
]]></script>
        <defs>
                <circle id="rim" cx="0" cy="0" r="7"/>
                <circle id="rim2" cx="0" cy="0" r="3.5"/>
                <g id="zoomPlus">
                        <use xlink:href="#rim" fill="#404040">
                                <set attributeName="fill" to="#808080" begin="zoomplus.mouseover" end="zoomplus.mouseout"/>
                        </use>
                        <path d="M-4,0h8M0,-4v8" fill="none" stroke="white" stroke-width="1.5" pointer-events="none"/>
                </g>
                <g id="zoomMin">
                        <use xlink:href="#rim" fill="#404040">
                                <set attributeName="fill" to="#808080" begin="zoomminus.mouseover" end="zoomminus.mouseout"/>
                        </use>
                        <path d="M-4,0h8" fill="none" stroke="white" stroke-width="1.5" pointer-events="none"/>
                </g>
                <g id="dirArrow">
                        <path fill="none" stroke="white" stroke-width="1.5" d="M0,-3.0v7 M-2.5,-0.5L0,-3.0L2.5,-0.5"/>
                </g>
               <g id="resetDef">
                       <use xlink:href="#rim2" fill="#404040">
                               <set attributeName="fill" to="#808080" begin="reset.mouseover" end="reset.mouseout"/>
                       </use>
               </g>
        </defs>

<script type="text/javascript">
var viewWidth = 1838;
var viewHeight = 260;
var sectionId = 'dynsection-1';
</script>
<script xlink:href="svgpan.js"/>
<svg id="graph" class="graph">
<g id="viewport">
<title>MoFEM::KernelLobattoPolynomialCtx</title>
<polygon fill="white" stroke="transparent" points="-4,4 -4,-255.5 1834,-255.5 1834,4 -4,4"/>
<!-- Node1 -->
<g id="node1" class="node">
<title>Node1</title>
<g id="a_node1"><a xlink:title="Class used to give arguments to Kernel Lobatto base functions.">
<polygon fill="#bfbfbf" stroke="black" points="1633,-105 1633,-124 1830,-124 1830,-105 1633,-105"/>
<text text-anchor="middle" x="1731.5" y="-112" font-family="Helvetica,sans-Serif" font-size="10.00">MoFEM::KernelLobattoPolynomialCtx</text>
</a>
</g>
</g>
<!-- Node2 -->
<g id="node2" class="node">
<title>Node2</title>
<g id="a_node2"><a xlink:href="structMoFEM_1_1LegendrePolynomialCtx.html" target="_top" xlink:title="Class used to give arguments to Legendre base functions.">
<polygon fill="white" stroke="black" points="1421,-105 1421,-124 1596,-124 1596,-105 1421,-105"/>
<text text-anchor="middle" x="1508.5" y="-112" font-family="Helvetica,sans-Serif" font-size="10.00">MoFEM::LegendrePolynomialCtx</text>
</a>
</g>
</g>
<!-- Node2&#45;&gt;Node1 -->
<g id="edge1" class="edge">
<title>Node2&#45;&gt;Node1</title>
<path fill="none" stroke="midnightblue" d="M1606.39,-114.5C1615.12,-114.5 1623.96,-114.5 1632.7,-114.5"/>
<polygon fill="midnightblue" stroke="midnightblue" points="1606.21,-111 1596.21,-114.5 1606.21,-118 1606.21,-111"/>
</g>
<!-- Node3 -->
<g id="node3" class="node">
<title>Node3</title>
<g id="a_node3"><a xlink:href="structMoFEM_1_1BaseFunctionCtx.html" target="_top" xlink:title="Base class used to exchange data between element data structures and class calculating base functions...">
<polygon fill="white" stroke="black" points="1128.5,-198 1128.5,-217 1268.5,-217 1268.5,-198 1128.5,-198"/>
<text text-anchor="middle" x="1198.5" y="-205" font-family="Helvetica,sans-Serif" font-size="10.00">MoFEM::BaseFunctionCtx</text>
</a>
</g>
</g>
<!-- Node3&#45;&gt;Node2 -->
<g id="edge2" class="edge">
<title>Node3&#45;&gt;Node2</title>
<path fill="none" stroke="midnightblue" d="M1278.62,-197.14C1316.85,-190.84 1363,-181.28 1403,-167.5 1436.08,-156.1 1471.88,-136.1 1491.82,-124.19"/>
<polygon fill="midnightblue" stroke="midnightblue" points="1277.89,-193.72 1268.57,-198.76 1279,-200.63 1277.89,-193.72"/>
</g>
<!-- Node4 -->
<g id="node4" class="node">
<title>Node4</title>
<g id="a_node4"><a xlink:href="structMoFEM_1_1BaseFunctionUnknownInterface.html" target="_top" xlink:title=" ">
<polygon fill="white" stroke="black" points="920,-192.5 920,-222.5 1090,-222.5 1090,-192.5 920,-192.5"/>
<text text-anchor="start" x="928" y="-210.5" font-family="Helvetica,sans-Serif" font-size="10.00">MoFEM::BaseFunctionUnknown</text>
<text text-anchor="middle" x="1005" y="-199.5" font-family="Helvetica,sans-Serif" font-size="10.00">Interface</text>
</a>
</g>
</g>
<!-- Node4&#45;&gt;Node3 -->
<g id="edge3" class="edge">
<title>Node4&#45;&gt;Node3</title>
<path fill="none" stroke="midnightblue" d="M1100.47,-207.5C1109.89,-207.5 1119.32,-207.5 1128.41,-207.5"/>
<polygon fill="midnightblue" stroke="midnightblue" points="1100.27,-204 1090.27,-207.5 1100.27,-211 1100.27,-204"/>
</g>
<!-- Node5 -->
<g id="node5" class="node">
<title>Node5</title>
<g id="a_node5"><a xlink:href="structMoFEM_1_1UnknownInterface.html" target="_top" xlink:title="base class for all interface classes">
<polygon fill="white" stroke="black" points="735,-198 735,-217 883,-217 883,-198 735,-198"/>
<text text-anchor="middle" x="809" y="-205" font-family="Helvetica,sans-Serif" font-size="10.00">MoFEM::UnknownInterface</text>
</a>
</g>
</g>
<!-- Node5&#45;&gt;Node4 -->
<g id="edge4" class="edge">
<title>Node5&#45;&gt;Node4</title>
<path fill="none" stroke="midnightblue" d="M893.32,-207.5C902.14,-207.5 911.1,-207.5 919.92,-207.5"/>
<polygon fill="midnightblue" stroke="midnightblue" points="893.07,-204 883.07,-207.5 893.07,-211 893.07,-204"/>
</g>
<!-- Node6 -->
<g id="node6" class="node">
<title>Node6</title>
<g id="a_node6"><a xlink:title=" ">
<polygon fill="white" stroke="#bfbfbf" points="386,-176 386,-239 627,-239 627,-176 386,-176"/>
<text text-anchor="start" x="394" y="-227" font-family="Helvetica,sans-Serif" font-size="10.00">multi_index_container</text>
<text text-anchor="start" x="394" y="-216" font-family="Helvetica,sans-Serif" font-size="10.00">&lt; UIdTypeMap, indexed</text>
<text text-anchor="start" x="394" y="-205" font-family="Helvetica,sans-Serif" font-size="10.00">_by&lt; hashed_unique&lt; member</text>
<text text-anchor="start" x="394" y="-194" font-family="Helvetica,sans-Serif" font-size="10.00">&lt; UIdTypeMap, boost::typeindex</text>
<text text-anchor="middle" x="506.5" y="-183" font-family="Helvetica,sans-Serif" font-size="10.00">::type_index, &amp;UIdTypeMap::classIdx &gt; &gt; &gt; &gt;</text>
</a>
</g>
</g>
<!-- Node6&#45;&gt;Node5 -->
<g id="edge5" class="edge">
<title>Node6&#45;&gt;Node5</title>
<path fill="none" stroke="#9a32cd" stroke-dasharray="5,2" d="M637.41,-207.5C670.69,-207.5 705.33,-207.5 734.62,-207.5"/>
<polygon fill="#9a32cd" stroke="#9a32cd" points="637.13,-204 627.13,-207.5 637.13,-211 637.13,-204"/>
<text text-anchor="middle" x="681" y="-210.5" font-family="Helvetica,sans-Serif" font-size="10.00"> iFaceTypeMap</text>
</g>
<!-- Node7 -->
<g id="node7" class="node">
<title>Node7</title>
<g id="a_node7"><a xlink:title=" ">
<polygon fill="white" stroke="#bfbfbf" points="0,-198 0,-217 125,-217 125,-198 0,-198"/>
<text text-anchor="middle" x="62.5" y="-205" font-family="Helvetica,sans-Serif" font-size="10.00">multi_index_container</text>
</a>
</g>
</g>
<!-- Node7&#45;&gt;Node6 -->
<g id="edge6" class="edge">
<title>Node7&#45;&gt;Node6</title>
<path fill="none" stroke="orange" stroke-dasharray="5,2" d="M135.56,-207.5C203.25,-207.5 305.79,-207.5 385.77,-207.5"/>
<polygon fill="orange" stroke="orange" points="135.42,-204 125.42,-207.5 135.42,-211 135.42,-204"/>
<text text-anchor="start" x="143" y="-243.5" font-family="Helvetica,sans-Serif" font-size="10.00"> &lt; UIdTypeMap, indexed</text>
<text text-anchor="start" x="143" y="-232.5" font-family="Helvetica,sans-Serif" font-size="10.00">_by&lt; hashed_unique&lt; member</text>
<text text-anchor="start" x="143" y="-221.5" font-family="Helvetica,sans-Serif" font-size="10.00">&lt; UIdTypeMap, boost::typeindex</text>
<text text-anchor="middle" x="255.5" y="-210.5" font-family="Helvetica,sans-Serif" font-size="10.00">::type_index, &amp;UIdTypeMap::classIdx &gt; &gt; &gt; &gt;</text>
</g>
<!-- Node8 -->
<g id="node8" class="node">
<title>Node8</title>
<g id="a_node8"><a xlink:href="classdouble.html" target="_top" xlink:title=" ">
<polygon fill="white" stroke="black" points="1173.5,-160 1173.5,-179 1223.5,-179 1223.5,-160 1173.5,-160"/>
<text text-anchor="middle" x="1198.5" y="-167" font-family="Helvetica,sans-Serif" font-size="10.00">double</text>
</a>
</g>
</g>
<!-- Node8&#45;&gt;Node2 -->
<g id="edge7" class="edge">
<title>Node8&#45;&gt;Node2</title>
<path fill="none" stroke="#9a32cd" stroke-dasharray="5,2" d="M1233.66,-163.4C1287.12,-153.85 1390.95,-135.31 1454.27,-124"/>
<polygon fill="#9a32cd" stroke="#9a32cd" points="1232.9,-159.98 1223.67,-165.18 1234.13,-166.87 1232.9,-159.98"/>
<text text-anchor="middle" x="1345.5" y="-155.5" font-family="Helvetica,sans-Serif" font-size="10.00"> diffS</text>
</g>
<!-- Node9 -->
<g id="node9" class="node">
<title>Node9</title>
<g id="a_node9"><a xlink:title=" ">
<polygon fill="white" stroke="#bfbfbf" points="1127,-88.5 1127,-140.5 1270,-140.5 1270,-88.5 1127,-88.5"/>
<text text-anchor="start" x="1135" y="-128.5" font-family="Helvetica,sans-Serif" font-size="10.00">PetscErrorCode(*)(int</text>
<text text-anchor="start" x="1135" y="-117.5" font-family="Helvetica,sans-Serif" font-size="10.00"> p, double s, double</text>
<text text-anchor="start" x="1135" y="-106.5" font-family="Helvetica,sans-Serif" font-size="10.00"> *diff_s, double *L, double</text>
<text text-anchor="middle" x="1198.5" y="-95.5" font-family="Helvetica,sans-Serif" font-size="10.00"> *diffL, const int dim)</text>
</a>
</g>
</g>
<!-- Node9&#45;&gt;Node2 -->
<g id="edge8" class="edge">
<title>Node9&#45;&gt;Node2</title>
<path fill="none" stroke="#9a32cd" stroke-dasharray="5,2" d="M1280.36,-114.5C1323.61,-114.5 1376.88,-114.5 1420.96,-114.5"/>
<polygon fill="#9a32cd" stroke="#9a32cd" points="1280.16,-111 1270.16,-114.5 1280.16,-118 1280.16,-111"/>
<text text-anchor="middle" x="1345.5" y="-117.5" font-family="Helvetica,sans-Serif" font-size="10.00"> basePolynomialsType0</text>
</g>
<!-- Node10 -->
<g id="node10" class="node">
<title>Node10</title>
<g id="a_node10"><a xlink:title=" ">
<polygon fill="white" stroke="#bfbfbf" points="1184,-50 1184,-69 1213,-69 1213,-50 1184,-50"/>
<text text-anchor="middle" x="1198.5" y="-57" font-family="Helvetica,sans-Serif" font-size="10.00">int</text>
</a>
</g>
</g>
<!-- Node10&#45;&gt;Node2 -->
<g id="edge9" class="edge">
<title>Node10&#45;&gt;Node2</title>
<path fill="none" stroke="#9a32cd" stroke-dasharray="5,2" d="M1223.54,-62.12C1261.74,-66.46 1338.6,-75.93 1403,-88.5 1426.49,-93.08 1452.61,-99.58 1472.87,-104.94"/>
<polygon fill="#9a32cd" stroke="#9a32cd" points="1223.73,-58.62 1213.4,-60.98 1222.95,-65.57 1223.73,-58.62"/>
<text text-anchor="middle" x="1345.5" y="-102.5" font-family="Helvetica,sans-Serif" font-size="10.00"> dIm</text>
<text text-anchor="middle" x="1345.5" y="-91.5" font-family="Helvetica,sans-Serif" font-size="10.00">P</text>
</g>
<!-- Node11 -->
<g id="node11" class="node">
<title>Node11</title>
<g id="a_node11"><a xlink:title=" ">
<polygon fill="white" stroke="#bfbfbf" points="1128.5,-0.5 1128.5,-30.5 1268.5,-30.5 1268.5,-0.5 1128.5,-0.5"/>
<text text-anchor="start" x="1136.5" y="-18.5" font-family="Helvetica,sans-Serif" font-size="10.00">shared_ptr&lt; UBlasMatrix</text>
<text text-anchor="middle" x="1198.5" y="-7.5" font-family="Helvetica,sans-Serif" font-size="10.00">&lt; double &gt; &gt;</text>
</a>
</g>
</g>
<!-- Node11&#45;&gt;Node2 -->
<g id="edge10" class="edge">
<title>Node11&#45;&gt;Node2</title>
<path fill="none" stroke="#9a32cd" stroke-dasharray="5,2" d="M1278.91,-18.57C1317.4,-22.1 1363.69,-29.44 1403,-44.5 1440.93,-59.03 1478.91,-89.4 1496.84,-104.92"/>
<polygon fill="#9a32cd" stroke="#9a32cd" points="1279.05,-15.06 1268.79,-17.71 1278.46,-22.04 1279.05,-15.06"/>
<text text-anchor="middle" x="1345.5" y="-58.5" font-family="Helvetica,sans-Serif" font-size="10.00"> baseDiffFunPtr</text>
<text text-anchor="middle" x="1345.5" y="-47.5" font-family="Helvetica,sans-Serif" font-size="10.00">baseFunPtr</text>
</g>
</g>
</svg>
        <g id="navigator" transform="translate(0 0)" fill="#404254">
                <rect fill="#f2f5e9" fill-opacity="0.5" stroke="#606060" stroke-width=".5" x="0" y="0" width="60" height="60"/>
                <use id="zoomplus" xlink:href="#zoomPlus" x="17" y="9" onmousedown="handleZoom(evt,'in')"/>
                <use id="zoomminus" xlink:href="#zoomMin" x="42" y="9" onmousedown="handleZoom(evt,'out')"/>
                <use id="reset" xlink:href="#resetDef" x="30" y="36" onmousedown="handleReset()"/>
                <g id="arrowUp" xlink:href="#dirArrow" transform="translate(30 24)" onmousedown="handlePan(0,-1)">
                  <use xlink:href="#rim" fill="#404040">
                        <set attributeName="fill" to="#808080" begin="arrowUp.mouseover" end="arrowUp.mouseout"/>
                  </use>
                  <path fill="none" stroke="white" stroke-width="1.5" d="M0,-3.0v7 M-2.5,-0.5L0,-3.0L2.5,-0.5"/>
                </g>
                <g id="arrowRight" xlink:href="#dirArrow" transform="rotate(90) translate(36 -43)" onmousedown="handlePan(1,0)">
                  <use xlink:href="#rim" fill="#404040">
                        <set attributeName="fill" to="#808080" begin="arrowRight.mouseover" end="arrowRight.mouseout"/>
                  </use>
                  <path fill="none" stroke="white" stroke-width="1.5" d="M0,-3.0v7 M-2.5,-0.5L0,-3.0L2.5,-0.5"/>
                </g>
                <g id="arrowDown" xlink:href="#dirArrow" transform="rotate(180) translate(-30 -48)" onmousedown="handlePan(0,1)">
                  <use xlink:href="#rim" fill="#404040">
                        <set attributeName="fill" to="#808080" begin="arrowDown.mouseover" end="arrowDown.mouseout"/>
                  </use>
                  <path fill="none" stroke="white" stroke-width="1.5" d="M0,-3.0v7 M-2.5,-0.5L0,-3.0L2.5,-0.5"/>
                </g>
                <g id="arrowLeft" xlink:href="#dirArrow" transform="rotate(270) translate(-36 17)" onmousedown="handlePan(-1,0)">
                  <use xlink:href="#rim" fill="#404040">
                        <set attributeName="fill" to="#808080" begin="arrowLeft.mouseover" end="arrowLeft.mouseout"/>
                  </use>
                  <path fill="none" stroke="white" stroke-width="1.5" d="M0,-3.0v7 M-2.5,-0.5L0,-3.0L2.5,-0.5"/>
                </g>
        </g>
        <svg viewBox="0 0 15 15" width="100%" height="30px" preserveAspectRatio="xMaxYMin meet">
         <g id="arrow_out" transform="scale(0.3 0.3)">
          <a xlink:href="structMoFEM_1_1KernelLobattoPolynomialCtx__coll__graph_org.svg" target="_base">
           <rect id="button" ry="5" rx="5" y="6" x="6" height="38" width="38"
                fill="#f2f5e9" fill-opacity="0.5" stroke="#606060" stroke-width="1.0"/>
           <path id="arrow"
             d="M 11.500037,31.436501 C 11.940474,20.09759 22.043105,11.32322 32.158766,21.979434 L 37.068811,17.246167 C 37.068811,17.246167 37.088388,32 37.088388,32 L 22.160133,31.978069 C 22.160133,31.978069 26.997745,27.140456 26.997745,27.140456 C 18.528582,18.264221 13.291696,25.230495 11.500037,31.436501 z"
             style="fill:#404040;"/>
          </a>
         </g>
        </svg>
</svg>
