<?xml version="1.0" encoding="UTF-8" standalone="no"?>
<!DOCTYPE svg PUBLIC "-//W3C//DTD SVG 1.1//EN"
 "http://www.w3.org/Graphics/SVG/1.1/DTD/svg11.dtd">
<!-- Generated by graphviz version 2.43.0 (0)
 -->
<!-- Title: HenckyOps::OpCalculateLogCImpl&lt; DIM, GAUSS, DomainEleOp &gt; Pages: 1 -->
<svg width="244pt" height="117pt"
 viewBox="0.00 0.00 243.50 117.00" xmlns="http://www.w3.org/2000/svg" xmlns:xlink="http://www.w3.org/1999/xlink">
<g id="graph0" class="graph" transform="scale(1 1) rotate(0) translate(4 113)">
<title>HenckyOps::OpCalculateLogCImpl&lt; DIM, GAUSS, DomainEleOp &gt;</title>
<polygon fill="white" stroke="transparent" points="-4,4 -4,-113 239.5,-113 239.5,4 -4,4"/>
<!-- Node1 -->
<g id="node1" class="node">
<title>Node1</title>
<g id="a_node1"><a xlink:title=" ">
<polygon fill="#bfbfbf" stroke="black" points="4.5,-0.5 4.5,-30.5 204.5,-30.5 204.5,-0.5 4.5,-0.5"/>
<text text-anchor="start" x="12.5" y="-18.5" font-family="Helvetica,sans-Serif" font-size="10.00">HenckyOps::OpCalculateLog</text>
<text text-anchor="middle" x="104.5" y="-7.5" font-family="Helvetica,sans-Serif" font-size="10.00">CImpl&lt; DIM, GAUSS, DomainEleOp &gt;</text>
</a>
</g>
</g>
<!-- Node2 -->
<g id="node2" class="node">
<title>Node2</title>
<g id="a_node2"><a xlink:href="classDomainEleOp.html" target="_top" xlink:title=" ">
<polygon fill="white" stroke="black" points="0,-84 0,-103 83,-103 83,-84 0,-84"/>
<text text-anchor="middle" x="41.5" y="-91" font-family="Helvetica,sans-Serif" font-size="10.00">DomainEleOp</text>
</a>
</g>
</g>
<!-- Node2&#45;&gt;Node1 -->
<g id="edge1" class="edge">
<title>Node2&#45;&gt;Node1</title>
<path fill="none" stroke="midnightblue" d="M55.38,-75.75C66.63,-62.19 82.29,-43.3 92.88,-30.52"/>
<polygon fill="midnightblue" stroke="midnightblue" points="52.41,-73.85 48.73,-83.78 57.8,-78.32 52.41,-73.85"/>
</g>
<!-- Node3 -->
<g id="node3" class="node">
<title>Node3</title>
<g id="a_node3"><a xlink:title=" ">
<polygon fill="white" stroke="#bfbfbf" points="101.5,-78.5 101.5,-108.5 235.5,-108.5 235.5,-78.5 101.5,-78.5"/>
<text text-anchor="start" x="109.5" y="-96.5" font-family="Helvetica,sans-Serif" font-size="10.00">shared_ptr&lt; HenckyOps</text>
<text text-anchor="middle" x="168.5" y="-85.5" font-family="Helvetica,sans-Serif" font-size="10.00">::CommonData &gt;</text>
</a>
</g>
</g>
<!-- Node3&#45;&gt;Node1 -->
<g id="edge2" class="edge">
<title>Node3&#45;&gt;Node1</title>
<path fill="none" stroke="#9a32cd" stroke-dasharray="5,2" d="M149.81,-70.31C139.05,-57.53 125.86,-41.86 116.48,-30.73"/>
<polygon fill="#9a32cd" stroke="#9a32cd" points="147.34,-72.81 156.46,-78.2 152.7,-68.3 147.34,-72.81"/>
<text text-anchor="middle" x="181" y="-52" font-family="Helvetica,sans-Serif" font-size="10.00"> commonDataPtr</text>
</g>
</g>
</svg>
