<?xml version="1.0" encoding="UTF-8" standalone="no"?>
<!DOCTYPE svg PUBLIC "-//W3C//DTD SVG 1.1//EN"
 "http://www.w3.org/Graphics/SVG/1.1/DTD/svg11.dtd">
<!-- Generated by graphviz version 2.43.0 (0)
 -->
<!-- Title: MoFEM::OpCalculateHcurlVectorCurl&lt; 1, 3 &gt; Pages: 1 -->
<svg width="3492pt" height="1496pt"
 viewBox="0.00 0.00 3492.00 1496.00" xmlns="http://www.w3.org/2000/svg" xmlns:xlink="http://www.w3.org/1999/xlink">
<g id="graph0" class="graph" transform="scale(1 1) rotate(0) translate(4 1492)">
<title>MoFEM::OpCalculateHcurlVectorCurl&lt; 1, 3 &gt;</title>
<polygon fill="white" stroke="transparent" points="-4,4 -4,-1492 3488,-1492 3488,4 -4,4"/>
<!-- Node1 -->
<g id="node1" class="node">
<title>Node1</title>
<g id="a_node1"><a xlink:title="Calculate curl of vector field.">
<polygon fill="#bfbfbf" stroke="black" points="3310,-844 3310,-874 3484,-874 3484,-844 3310,-844"/>
<text text-anchor="start" x="3318" y="-862" font-family="Helvetica,sans-Serif" font-size="10.00">MoFEM::OpCalculateHcurlVector</text>
<text text-anchor="middle" x="3397" y="-851" font-family="Helvetica,sans-Serif" font-size="10.00">Curl&lt; 1, 3 &gt;</text>
</a>
</g>
</g>
<!-- Node2 -->
<g id="node2" class="node">
<title>Node2</title>
<g id="a_node2"><a xlink:href="structMoFEM_1_1FaceElementForcesAndSourcesCore_1_1UserDataOperator.html" target="_top" xlink:title="default operator for TRI element">
<polygon fill="white" stroke="black" points="3044,-1036 3044,-1066 3235,-1066 3235,-1036 3044,-1036"/>
<text text-anchor="start" x="3052" y="-1054" font-family="Helvetica,sans-Serif" font-size="10.00">MoFEM::FaceElementForces</text>
<text text-anchor="middle" x="3139.5" y="-1043" font-family="Helvetica,sans-Serif" font-size="10.00">AndSourcesCore::UserDataOperator</text>
</a>
</g>
</g>
<!-- Node2&#45;&gt;Node1 -->
<g id="edge1" class="edge">
<title>Node2&#45;&gt;Node1</title>
<path fill="none" stroke="midnightblue" d="M3168.67,-1029.83C3220.61,-990.8 3330.31,-908.36 3375.69,-874.26"/>
<polygon fill="midnightblue" stroke="midnightblue" points="3166.44,-1027.13 3160.55,-1035.93 3170.65,-1032.72 3166.44,-1027.13"/>
</g>
<!-- Node3 -->
<g id="node3" class="node">
<title>Node3</title>
<g id="a_node3"><a xlink:href="structMoFEM_1_1ForcesAndSourcesCore_1_1UserDataOperator.html" target="_top" xlink:title=" ">
<polygon fill="white" stroke="black" points="2837,-1153 2837,-1183 3007,-1183 3007,-1153 2837,-1153"/>
<text text-anchor="start" x="2845" y="-1171" font-family="Helvetica,sans-Serif" font-size="10.00">MoFEM::ForcesAndSourcesCore</text>
<text text-anchor="middle" x="2922" y="-1160" font-family="Helvetica,sans-Serif" font-size="10.00">::UserDataOperator</text>
</a>
</g>
</g>
<!-- Node3&#45;&gt;Node2 -->
<g id="edge2" class="edge">
<title>Node3&#45;&gt;Node2</title>
<path fill="none" stroke="midnightblue" d="M2959.67,-1148.09C3002.38,-1124.91 3071.96,-1087.12 3110.53,-1066.18"/>
<polygon fill="midnightblue" stroke="midnightblue" points="2957.85,-1145.1 2950.73,-1152.94 2961.19,-1151.25 2957.85,-1145.1"/>
</g>
<!-- Node4 -->
<g id="node4" class="node">
<title>Node4</title>
<g id="a_node4"><a xlink:href="structMoFEM_1_1DataOperator.html" target="_top" xlink:title="base operator to do operations at Gauss Pt. level">
<polygon fill="white" stroke="black" points="2579.5,-1263.5 2579.5,-1282.5 2704.5,-1282.5 2704.5,-1263.5 2579.5,-1263.5"/>
<text text-anchor="middle" x="2642" y="-1270.5" font-family="Helvetica,sans-Serif" font-size="10.00">MoFEM::DataOperator</text>
</a>
</g>
</g>
<!-- Node4&#45;&gt;Node3 -->
<g id="edge3" class="edge">
<title>Node4&#45;&gt;Node3</title>
<path fill="none" stroke="midnightblue" d="M2677.56,-1259.95C2729.25,-1240.42 2826.43,-1203.72 2881.07,-1183.08"/>
<polygon fill="midnightblue" stroke="midnightblue" points="2676.28,-1256.69 2668.16,-1263.5 2678.75,-1263.24 2676.28,-1256.69"/>
</g>
<!-- Node5 -->
<g id="node5" class="node">
<title>Node5</title>
<g id="a_node5"><a xlink:title=" ">
<polygon fill="white" stroke="#bfbfbf" points="2160,-1254 2160,-1306 2352,-1306 2352,-1254 2160,-1254"/>
<text text-anchor="start" x="2168" y="-1294" font-family="Helvetica,sans-Serif" font-size="10.00">function&lt; MoFEMErrorCode</text>
<text text-anchor="start" x="2168" y="-1283" font-family="Helvetica,sans-Serif" font-size="10.00">(DataOperator *op_ptr,</text>
<text text-anchor="start" x="2168" y="-1272" font-family="Helvetica,sans-Serif" font-size="10.00"> int side, EntityType type,</text>
<text text-anchor="middle" x="2256" y="-1261" font-family="Helvetica,sans-Serif" font-size="10.00"> EntitiesFieldData::EntData &amp;data)&gt;</text>
</a>
</g>
</g>
<!-- Node5&#45;&gt;Node4 -->
<g id="edge4" class="edge">
<title>Node5&#45;&gt;Node4</title>
<path fill="none" stroke="#9a32cd" stroke-dasharray="5,2" d="M2362.4,-1281.01C2415.4,-1281.16 2480.62,-1280.82 2539,-1279 2552.03,-1278.59 2565.99,-1277.93 2579.26,-1277.18"/>
<polygon fill="#9a32cd" stroke="#9a32cd" points="2362.32,-1277.51 2352.31,-1280.97 2362.3,-1284.5 2362.32,-1277.51"/>
<text text-anchor="middle" x="2458" y="-1284" font-family="Helvetica,sans-Serif" font-size="10.00"> doWorkRhsHook</text>
</g>
<!-- Node6 -->
<g id="node6" class="node">
<title>Node6</title>
<g id="a_node6"><a xlink:href="classbool.html" target="_top" xlink:title=" ">
<polygon fill="white" stroke="black" points="2237,-1196.5 2237,-1215.5 2275,-1215.5 2275,-1196.5 2237,-1196.5"/>
<text text-anchor="middle" x="2256" y="-1203.5" font-family="Helvetica,sans-Serif" font-size="10.00">bool</text>
</a>
</g>
</g>
<!-- Node6&#45;&gt;Node4 -->
<g id="edge5" class="edge">
<title>Node6&#45;&gt;Node4</title>
<path fill="none" stroke="#9a32cd" stroke-dasharray="5,2" d="M2285,-1201.76C2347.39,-1192.84 2495.73,-1174.84 2539,-1198 2551.72,-1204.81 2546.46,-1215.16 2557,-1225 2575.05,-1241.85 2600.07,-1255.17 2618.1,-1263.47"/>
<polygon fill="#9a32cd" stroke="#9a32cd" points="2284.46,-1198.3 2275.07,-1203.2 2285.47,-1205.22 2284.46,-1198.3"/>
<text text-anchor="middle" x="2458" y="-1267" font-family="Helvetica,sans-Serif" font-size="10.00"> doTris</text>
<text text-anchor="middle" x="2458" y="-1256" font-family="Helvetica,sans-Serif" font-size="10.00">doQuads</text>
<text text-anchor="middle" x="2458" y="-1245" font-family="Helvetica,sans-Serif" font-size="10.00">sYmm</text>
<text text-anchor="middle" x="2458" y="-1234" font-family="Helvetica,sans-Serif" font-size="10.00">doPrisms</text>
<text text-anchor="middle" x="2458" y="-1223" font-family="Helvetica,sans-Serif" font-size="10.00">doTets</text>
<text text-anchor="middle" x="2458" y="-1212" font-family="Helvetica,sans-Serif" font-size="10.00">doVertices</text>
<text text-anchor="middle" x="2458" y="-1201" font-family="Helvetica,sans-Serif" font-size="10.00">doEdges</text>
</g>
<!-- Node7 -->
<g id="node7" class="node">
<title>Node7</title>
<g id="a_node7"><a xlink:title=" ">
<polygon fill="white" stroke="#bfbfbf" points="2153,-1363.5 2153,-1448.5 2359,-1448.5 2359,-1363.5 2153,-1363.5"/>
<text text-anchor="start" x="2161" y="-1436.5" font-family="Helvetica,sans-Serif" font-size="10.00">function&lt; MoFEMErrorCode</text>
<text text-anchor="start" x="2161" y="-1425.5" font-family="Helvetica,sans-Serif" font-size="10.00">(DataOperator *op_ptr,</text>
<text text-anchor="start" x="2161" y="-1414.5" font-family="Helvetica,sans-Serif" font-size="10.00"> int row_side, int col_side,</text>
<text text-anchor="start" x="2161" y="-1403.5" font-family="Helvetica,sans-Serif" font-size="10.00"> EntityType row_type, EntityType</text>
<text text-anchor="start" x="2161" y="-1392.5" font-family="Helvetica,sans-Serif" font-size="10.00"> col_type, EntitiesFieldData::EntData</text>
<text text-anchor="start" x="2161" y="-1381.5" font-family="Helvetica,sans-Serif" font-size="10.00"> &amp;row_data, EntitiesFieldData::EntData</text>
<text text-anchor="middle" x="2256" y="-1370.5" font-family="Helvetica,sans-Serif" font-size="10.00"> &amp;col_data)&gt;</text>
</a>
</g>
</g>
<!-- Node7&#45;&gt;Node4 -->
<g id="edge6" class="edge">
<title>Node7&#45;&gt;Node4</title>
<path fill="none" stroke="#9a32cd" stroke-dasharray="5,2" d="M2369.3,-1401.06C2425.9,-1393.23 2492.25,-1375.23 2539,-1335 2554.7,-1321.49 2541.13,-1305.32 2557,-1292 2563.53,-1286.52 2571.31,-1282.54 2579.47,-1279.66"/>
<polygon fill="#9a32cd" stroke="#9a32cd" points="2368.69,-1397.61 2359.22,-1402.36 2369.58,-1404.55 2368.69,-1397.61"/>
<text text-anchor="middle" x="2458" y="-1402" font-family="Helvetica,sans-Serif" font-size="10.00"> doWorkLhsHook</text>
</g>
<!-- Node8 -->
<g id="node8" class="node">
<title>Node8</title>
<g id="a_node8"><a xlink:title=" ">
<polygon fill="white" stroke="#bfbfbf" points="2179,-1325.5 2179,-1344.5 2333,-1344.5 2333,-1325.5 2179,-1325.5"/>
<text text-anchor="middle" x="2256" y="-1332.5" font-family="Helvetica,sans-Serif" font-size="10.00">array&lt; bool, MBMAXTYPE &gt;</text>
</a>
</g>
</g>
<!-- Node8&#45;&gt;Node4 -->
<g id="edge7" class="edge">
<title>Node8&#45;&gt;Node4</title>
<path fill="none" stroke="#9a32cd" stroke-dasharray="5,2" d="M2343.51,-1324.95C2399.46,-1317.98 2473.76,-1307.84 2539,-1296 2540.58,-1295.71 2571.58,-1288.72 2598.99,-1282.52"/>
<polygon fill="#9a32cd" stroke="#9a32cd" points="2342.77,-1321.52 2333.28,-1326.22 2343.63,-1328.47 2342.77,-1321.52"/>
<text text-anchor="middle" x="2458" y="-1323" font-family="Helvetica,sans-Serif" font-size="10.00"> doEntities</text>
</g>
<!-- Node9 -->
<g id="node9" class="node">
<title>Node9</title>
<g id="a_node9"><a xlink:title=" ">
<polygon fill="white" stroke="#bfbfbf" points="2607.5,-1196.5 2607.5,-1215.5 2676.5,-1215.5 2676.5,-1196.5 2607.5,-1196.5"/>
<text text-anchor="middle" x="2642" y="-1203.5" font-family="Helvetica,sans-Serif" font-size="10.00">FieldSpace</text>
</a>
</g>
</g>
<!-- Node9&#45;&gt;Node3 -->
<g id="edge8" class="edge">
<title>Node9&#45;&gt;Node3</title>
<path fill="none" stroke="#9a32cd" stroke-dasharray="5,2" d="M2686.8,-1200.04C2722.41,-1195.19 2773.95,-1188.16 2819,-1182 2824.84,-1181.2 2830.88,-1180.37 2836.95,-1179.54"/>
<polygon fill="#9a32cd" stroke="#9a32cd" points="2686.18,-1196.59 2676.74,-1201.41 2687.12,-1203.53 2686.18,-1196.59"/>
<text text-anchor="middle" x="2782" y="-1194" font-family="Helvetica,sans-Serif" font-size="10.00"> sPace</text>
</g>
<!-- Node10 -->
<g id="node10" class="node">
<title>Node10</title>
<g id="a_node10"><a xlink:title=" ">
<polygon fill="white" stroke="#bfbfbf" points="1122.5,-1243.5 1122.5,-1262.5 1160.5,-1262.5 1160.5,-1243.5 1122.5,-1243.5"/>
<text text-anchor="middle" x="1141.5" y="-1250.5" font-family="Helvetica,sans-Serif" font-size="10.00">char</text>
</a>
</g>
</g>
<!-- Node10&#45;&gt;Node3 -->
<g id="edge9" class="edge">
<title>Node10&#45;&gt;Node3</title>
<path fill="none" stroke="#9a32cd" stroke-dasharray="5,2" d="M1169.98,-1263.88C1193.66,-1272.64 1228.99,-1284.25 1261,-1289 1402.12,-1309.96 1439.89,-1301.59 1582,-1289 1838.79,-1266.24 1896.51,-1212.93 2153,-1187 2400.65,-1161.96 2695.37,-1163.33 2836.93,-1165.91"/>
<polygon fill="#9a32cd" stroke="#9a32cd" points="1171.18,-1260.59 1160.59,-1260.33 1168.7,-1267.14 1171.18,-1260.59"/>
<text text-anchor="middle" x="2063" y="-1213" font-family="Helvetica,sans-Serif" font-size="10.00"> opType</text>
</g>
<!-- Node38 -->
<g id="node38" class="node">
<title>Node38</title>
<g id="a_node38"><a xlink:href="structMoFEM_1_1Problem.html" target="_top" xlink:title="keeps basic data about problem">
<polygon fill="white" stroke="black" points="1449,-958.5 1449,-977.5 1548,-977.5 1548,-958.5 1449,-958.5"/>
<text text-anchor="middle" x="1498.5" y="-965.5" font-family="Helvetica,sans-Serif" font-size="10.00">MoFEM::Problem</text>
</a>
</g>
</g>
<!-- Node10&#45;&gt;Node38 -->
<g id="edge53" class="edge">
<title>Node10&#45;&gt;Node38</title>
<path fill="none" stroke="#9a32cd" stroke-dasharray="5,2" d="M1169.82,-1240.04C1190.76,-1229.52 1219.89,-1213.6 1243,-1196 1252,-1189.15 1250.95,-1183.19 1261,-1178 1315.47,-1149.88 1354.99,-1199.65 1397,-1155 1448.46,-1100.31 1365.17,-1043.18 1415,-987 1423.58,-977.32 1436.01,-972.05 1448.63,-969.31"/>
<polygon fill="#9a32cd" stroke="#9a32cd" points="1168.25,-1236.92 1160.83,-1244.48 1171.35,-1243.19 1168.25,-1236.92"/>
<text text-anchor="middle" x="1329" y="-1181" font-family="Helvetica,sans-Serif" font-size="10.00"> tagName</text>
</g>
<!-- Node11 -->
<g id="node11" class="node">
<title>Node11</title>
<g id="a_node11"><a xlink:href="structMoFEM_1_1ForcesAndSourcesCore.html" target="_top" xlink:title="structure to get information form mofem into EntitiesFieldData">
<polygon fill="white" stroke="black" points="2557,-844.5 2557,-863.5 2727,-863.5 2727,-844.5 2557,-844.5"/>
<text text-anchor="middle" x="2642" y="-851.5" font-family="Helvetica,sans-Serif" font-size="10.00">MoFEM::ForcesAndSourcesCore</text>
</a>
</g>
</g>
<!-- Node11&#45;&gt;Node3 -->
<g id="edge10" class="edge">
<title>Node11&#45;&gt;Node3</title>
<path fill="none" stroke="#9a32cd" stroke-dasharray="5,2" d="M2658.36,-871.35C2707.63,-927 2861.21,-1100.47 2907.6,-1152.86"/>
<polygon fill="#9a32cd" stroke="#9a32cd" points="2660.87,-868.91 2651.62,-863.74 2655.63,-873.55 2660.87,-868.91"/>
<text text-anchor="middle" x="2782" y="-1051" font-family="Helvetica,sans-Serif" font-size="10.00"> ptrFE</text>
</g>
<!-- Node11&#45;&gt;Node11 -->
<g id="edge68" class="edge">
<title>Node11&#45;&gt;Node11</title>
<path fill="none" stroke="#9a32cd" stroke-dasharray="5,2" d="M2615.96,-873.03C2617.38,-878.13 2626.06,-882 2642,-882 2666.88,-882 2674.08,-872.57 2663.58,-863.76"/>
<polygon fill="#9a32cd" stroke="#9a32cd" points="2619.24,-874.29 2620.42,-863.76 2612.93,-871.25 2619.24,-874.29"/>
<text text-anchor="middle" x="2642" y="-896" font-family="Helvetica,sans-Serif" font-size="10.00"> sidePtrFE</text>
<text text-anchor="middle" x="2642" y="-885" font-family="Helvetica,sans-Serif" font-size="10.00">refinePtrFE</text>
</g>
<!-- Node12 -->
<g id="node12" class="node">
<title>Node12</title>
<g id="a_node12"><a xlink:href="structMoFEM_1_1FEMethod.html" target="_top" xlink:title="structure for User Loop Methods on finite elements">
<polygon fill="white" stroke="black" points="2202.5,-961.5 2202.5,-980.5 2309.5,-980.5 2309.5,-961.5 2202.5,-961.5"/>
<text text-anchor="middle" x="2256" y="-968.5" font-family="Helvetica,sans-Serif" font-size="10.00">MoFEM::FEMethod</text>
</a>
</g>
</g>
<!-- Node12&#45;&gt;Node11 -->
<g id="edge11" class="edge">
<title>Node12&#45;&gt;Node11</title>
<path fill="none" stroke="midnightblue" d="M2319.84,-969.48C2378.51,-966.17 2467.5,-956.22 2539,-927 2576.7,-911.59 2613.75,-879.74 2630.98,-863.69"/>
<polygon fill="midnightblue" stroke="midnightblue" points="2319.42,-966 2309.61,-970.01 2319.78,-972.99 2319.42,-966"/>
</g>
<!-- Node13 -->
<g id="node13" class="node">
<title>Node13</title>
<g id="a_node13"><a xlink:href="structMoFEM_1_1BasicMethod.html" target="_top" xlink:title="Data structure to exchange data between mofem and User Loop Methods.">
<polygon fill="white" stroke="black" points="1825,-873.5 1825,-892.5 1947,-892.5 1947,-873.5 1825,-873.5"/>
<text text-anchor="middle" x="1886" y="-880.5" font-family="Helvetica,sans-Serif" font-size="10.00">MoFEM::BasicMethod</text>
</a>
</g>
</g>
<!-- Node13&#45;&gt;Node12 -->
<g id="edge12" class="edge">
<title>Node13&#45;&gt;Node12</title>
<path fill="none" stroke="midnightblue" d="M1930.48,-895.27C1982.97,-909.86 2074.03,-934.43 2153,-952 2169,-955.56 2186.51,-958.99 2202.44,-961.93"/>
<polygon fill="midnightblue" stroke="midnightblue" points="1931.4,-891.9 1920.83,-892.58 1929.52,-898.64 1931.4,-891.9"/>
</g>
<!-- Node14 -->
<g id="node14" class="node">
<title>Node14</title>
<g id="a_node14"><a xlink:href="structMoFEM_1_1KspMethod.html" target="_top" xlink:title="data structure for ksp (linear solver) context">
<polygon fill="white" stroke="black" points="1442,-701.5 1442,-720.5 1555,-720.5 1555,-701.5 1442,-701.5"/>
<text text-anchor="middle" x="1498.5" y="-708.5" font-family="Helvetica,sans-Serif" font-size="10.00">MoFEM::KspMethod</text>
</a>
</g>
</g>
<!-- Node14&#45;&gt;Node13 -->
<g id="edge13" class="edge">
<title>Node14&#45;&gt;Node13</title>
<path fill="none" stroke="midnightblue" d="M1565.39,-707.52C1638.77,-705.17 1751.04,-706.6 1781,-735 1823.02,-774.82 1759.71,-821.49 1799,-864 1805.95,-871.52 1815.16,-876.41 1824.96,-879.53"/>
<polygon fill="midnightblue" stroke="midnightblue" points="1565.17,-704.03 1555.3,-707.88 1565.42,-711.03 1565.17,-704.03"/>
</g>
<!-- Node15 -->
<g id="node15" class="node">
<title>Node15</title>
<g id="a_node15"><a xlink:href="structMoFEM_1_1PetscData.html" target="_top" xlink:title=" ">
<polygon fill="white" stroke="black" points="1087.5,-248.5 1087.5,-267.5 1195.5,-267.5 1195.5,-248.5 1087.5,-248.5"/>
<text text-anchor="middle" x="1141.5" y="-255.5" font-family="Helvetica,sans-Serif" font-size="10.00">MoFEM::PetscData</text>
</a>
</g>
</g>
<!-- Node15&#45;&gt;Node14 -->
<g id="edge14" class="edge">
<title>Node15&#45;&gt;Node14</title>
<path fill="none" stroke="midnightblue" d="M1205.36,-261.19C1219.5,-264.85 1233.2,-271.21 1243,-282 1282.2,-325.19 1224.26,-366.69 1261,-412 1301.46,-461.91 1358.05,-409.91 1397,-461 1428.22,-501.95 1381.39,-652.99 1415,-692 1421.91,-700.02 1431.45,-705.03 1441.61,-708.09"/>
<polygon fill="midnightblue" stroke="midnightblue" points="1206.06,-257.76 1195.55,-259.08 1204.58,-264.61 1206.06,-257.76"/>
</g>
<!-- Node25 -->
<g id="node25" class="node">
<title>Node25</title>
<g id="a_node25"><a xlink:href="structMoFEM_1_1SnesMethod.html" target="_top" xlink:title="data structure for snes (nonlinear solver) context">
<polygon fill="white" stroke="black" points="1439,-441.5 1439,-460.5 1558,-460.5 1558,-441.5 1439,-441.5"/>
<text text-anchor="middle" x="1498.5" y="-448.5" font-family="Helvetica,sans-Serif" font-size="10.00">MoFEM::SnesMethod</text>
</a>
</g>
</g>
<!-- Node15&#45;&gt;Node25 -->
<g id="edge27" class="edge">
<title>Node15&#45;&gt;Node25</title>
<path fill="none" stroke="darkgreen" d="M1205.59,-270.01C1218.2,-273.25 1231.19,-277.23 1243,-282 1347.25,-324.13 1453.37,-412.38 1486.77,-441.47"/>
<polygon fill="darkgreen" stroke="darkgreen" points="1206.13,-266.54 1195.59,-267.56 1204.47,-273.34 1206.13,-266.54"/>
</g>
<!-- Node28 -->
<g id="node28" class="node">
<title>Node28</title>
<g id="a_node28"><a xlink:href="structMoFEM_1_1TSMethod.html" target="_top" xlink:title="data structure for TS (time stepping) context">
<polygon fill="white" stroke="black" points="1445,-189.5 1445,-208.5 1552,-208.5 1552,-189.5 1445,-189.5"/>
<text text-anchor="middle" x="1498.5" y="-196.5" font-family="Helvetica,sans-Serif" font-size="10.00">MoFEM::TSMethod</text>
</a>
</g>
</g>
<!-- Node15&#45;&gt;Node28 -->
<g id="edge33" class="edge">
<title>Node15&#45;&gt;Node28</title>
<path fill="none" stroke="darkgreen" d="M1205.95,-268.6C1258.25,-275.02 1333.83,-278.92 1397,-261 1433.29,-250.71 1469.33,-223.18 1486.73,-208.51"/>
<polygon fill="darkgreen" stroke="darkgreen" points="1206.17,-265.1 1195.81,-267.29 1205.28,-272.05 1206.17,-265.1"/>
</g>
<!-- Node16 -->
<g id="node16" class="node">
<title>Node16</title>
<g id="a_node16"><a xlink:href="structMoFEM_1_1UnknownInterface.html" target="_top" xlink:title="base class for all interface classes">
<polygon fill="white" stroke="black" points="735,-20.5 735,-39.5 883,-39.5 883,-20.5 735,-20.5"/>
<text text-anchor="middle" x="809" y="-27.5" font-family="Helvetica,sans-Serif" font-size="10.00">MoFEM::UnknownInterface</text>
</a>
</g>
</g>
<!-- Node16&#45;&gt;Node15 -->
<g id="edge15" class="edge">
<title>Node16&#45;&gt;Node15</title>
<path fill="none" stroke="midnightblue" d="M893.04,-30.88C937.88,-35.98 990.38,-50.28 1022,-87 1066.39,-138.55 993.58,-189.27 1040,-239 1052.06,-251.92 1069.92,-257.66 1087.26,-259.86"/>
<polygon fill="midnightblue" stroke="midnightblue" points="893.31,-27.39 883.01,-29.87 892.61,-34.35 893.31,-27.39"/>
</g>
<!-- Node56 -->
<g id="node56" class="node">
<title>Node56</title>
<g id="a_node56"><a xlink:href="structMoFEM_1_1CoreInterface.html" target="_top" xlink:title="Interface.">
<polygon fill="white" stroke="black" points="1079,-0.5 1079,-19.5 1204,-19.5 1204,-0.5 1079,-0.5"/>
<text text-anchor="middle" x="1141.5" y="-7.5" font-family="Helvetica,sans-Serif" font-size="10.00">MoFEM::CoreInterface</text>
</a>
</g>
</g>
<!-- Node16&#45;&gt;Node56 -->
<g id="edge67" class="edge">
<title>Node16&#45;&gt;Node56</title>
<path fill="none" stroke="midnightblue" d="M893.22,-24.49C895.84,-24.32 898.44,-24.16 901,-24 961.49,-20.24 1030.58,-16.23 1078.96,-13.47"/>
<polygon fill="midnightblue" stroke="midnightblue" points="892.77,-21.01 883.01,-25.14 893.21,-28 892.77,-21.01"/>
</g>
<!-- Node17 -->
<g id="node17" class="node">
<title>Node17</title>
<g id="a_node17"><a xlink:title=" ">
<polygon fill="white" stroke="#bfbfbf" points="386,-492.5 386,-555.5 627,-555.5 627,-492.5 386,-492.5"/>
<text text-anchor="start" x="394" y="-543.5" font-family="Helvetica,sans-Serif" font-size="10.00">multi_index_container</text>
<text text-anchor="start" x="394" y="-532.5" font-family="Helvetica,sans-Serif" font-size="10.00">&lt; UIdTypeMap, indexed</text>
<text text-anchor="start" x="394" y="-521.5" font-family="Helvetica,sans-Serif" font-size="10.00">_by&lt; hashed_unique&lt; member</text>
<text text-anchor="start" x="394" y="-510.5" font-family="Helvetica,sans-Serif" font-size="10.00">&lt; UIdTypeMap, boost::typeindex</text>
<text text-anchor="middle" x="506.5" y="-499.5" font-family="Helvetica,sans-Serif" font-size="10.00">::type_index, &amp;UIdTypeMap::classIdx &gt; &gt; &gt; &gt;</text>
</a>
</g>
</g>
<!-- Node17&#45;&gt;Node16 -->
<g id="edge16" class="edge">
<title>Node17&#45;&gt;Node16</title>
<path fill="none" stroke="#9a32cd" stroke-dasharray="5,2" d="M515.14,-482.46C534.41,-389.81 593.89,-165.32 735,-49 739.65,-45.17 744.98,-42.1 750.61,-39.64"/>
<polygon fill="#9a32cd" stroke="#9a32cd" points="511.7,-481.81 513.14,-492.31 518.56,-483.2 511.7,-481.81"/>
<text text-anchor="middle" x="681" y="-147" font-family="Helvetica,sans-Serif" font-size="10.00"> iFaceTypeMap</text>
</g>
<!-- Node18 -->
<g id="node18" class="node">
<title>Node18</title>
<g id="a_node18"><a xlink:title=" ">
<polygon fill="white" stroke="#bfbfbf" points="0,-626.5 0,-645.5 125,-645.5 125,-626.5 0,-626.5"/>
<text text-anchor="middle" x="62.5" y="-633.5" font-family="Helvetica,sans-Serif" font-size="10.00">multi_index_container</text>
</a>
</g>
</g>
<!-- Node18&#45;&gt;Node13 -->
<g id="edge40" class="edge">
<title>Node18&#45;&gt;Node13</title>
<path fill="none" stroke="#9a32cd" stroke-dasharray="5,2" d="M94.35,-649.6C165.4,-679.64 346.64,-749 505.5,-749 505.5,-749 505.5,-749 1499.5,-749 1642.09,-749 1662.45,-822.95 1799,-864 1810.71,-867.52 1823.51,-870.7 1835.56,-873.4"/>
<polygon fill="#9a32cd" stroke="#9a32cd" points="95.64,-646.35 85.07,-645.63 92.89,-652.78 95.64,-646.35"/>
<text text-anchor="middle" x="961.5" y="-829" font-family="Helvetica,sans-Serif" font-size="10.00"> adjacenciesPtr</text>
<text text-anchor="middle" x="961.5" y="-818" font-family="Helvetica,sans-Serif" font-size="10.00">refinedEntitiesPtr</text>
<text text-anchor="middle" x="961.5" y="-807" font-family="Helvetica,sans-Serif" font-size="10.00">finiteElementsEntitiesPtr</text>
<text text-anchor="middle" x="961.5" y="-796" font-family="Helvetica,sans-Serif" font-size="10.00">dofsPtr</text>
<text text-anchor="middle" x="961.5" y="-785" font-family="Helvetica,sans-Serif" font-size="10.00">entitiesPtr</text>
<text text-anchor="middle" x="961.5" y="-774" font-family="Helvetica,sans-Serif" font-size="10.00">finiteElementsPtr</text>
<text text-anchor="middle" x="961.5" y="-763" font-family="Helvetica,sans-Serif" font-size="10.00">refinedFiniteElementsPtr</text>
<text text-anchor="middle" x="961.5" y="-752" font-family="Helvetica,sans-Serif" font-size="10.00">fieldsPtr</text>
</g>
<!-- Node18&#45;&gt;Node17 -->
<g id="edge17" class="edge">
<title>Node18&#45;&gt;Node17</title>
<path fill="none" stroke="orange" stroke-dasharray="5,2" d="M111.17,-623.92C176.33,-607.41 295.41,-577.23 385.73,-554.35"/>
<polygon fill="orange" stroke="orange" points="110.02,-620.6 101.18,-626.45 111.74,-627.39 110.02,-620.6"/>
<text text-anchor="start" x="143" y="-651" font-family="Helvetica,sans-Serif" font-size="10.00"> &lt; UIdTypeMap, indexed</text>
<text text-anchor="start" x="143" y="-640" font-family="Helvetica,sans-Serif" font-size="10.00">_by&lt; hashed_unique&lt; member</text>
<text text-anchor="start" x="143" y="-629" font-family="Helvetica,sans-Serif" font-size="10.00">&lt; UIdTypeMap, boost::typeindex</text>
<text text-anchor="middle" x="255.5" y="-618" font-family="Helvetica,sans-Serif" font-size="10.00">::type_index, &amp;UIdTypeMap::classIdx &gt; &gt; &gt; &gt;</text>
</g>
<!-- Node19 -->
<g id="node19" class="node">
<title>Node19</title>
<g id="a_node19"><a xlink:title=" ">
<polygon fill="white" stroke="#bfbfbf" points="738.5,-58.5 738.5,-77.5 879.5,-77.5 879.5,-58.5 738.5,-58.5"/>
<text text-anchor="middle" x="809" y="-65.5" font-family="Helvetica,sans-Serif" font-size="10.00">static constexpr Switches</text>
</a>
</g>
</g>
<!-- Node19&#45;&gt;Node15 -->
<g id="edge18" class="edge">
<title>Node19&#45;&gt;Node15</title>
<path fill="none" stroke="#9a32cd" stroke-dasharray="5,2" d="M867.99,-80.08C916.2,-93.13 983.01,-118.74 1022,-166 1043.26,-191.78 1015.73,-216.03 1040,-239 1052.64,-250.96 1070.33,-256.55 1087.35,-258.89"/>
<polygon fill="#9a32cd" stroke="#9a32cd" points="868.86,-76.69 858.3,-77.55 867.1,-83.46 868.86,-76.69"/>
<text text-anchor="middle" x="961.5" y="-246" font-family="Helvetica,sans-Serif" font-size="10.00"> CtxSetX_TT</text>
<text text-anchor="middle" x="961.5" y="-235" font-family="Helvetica,sans-Serif" font-size="10.00">CtxSetX_T</text>
<text text-anchor="middle" x="961.5" y="-224" font-family="Helvetica,sans-Serif" font-size="10.00">CtxSetA</text>
<text text-anchor="middle" x="961.5" y="-213" font-family="Helvetica,sans-Serif" font-size="10.00">CtxSetB</text>
<text text-anchor="middle" x="961.5" y="-202" font-family="Helvetica,sans-Serif" font-size="10.00">CtxSetTime</text>
<text text-anchor="middle" x="961.5" y="-191" font-family="Helvetica,sans-Serif" font-size="10.00">CtxSetNone</text>
<text text-anchor="middle" x="961.5" y="-180" font-family="Helvetica,sans-Serif" font-size="10.00">CtxSetF</text>
<text text-anchor="middle" x="961.5" y="-169" font-family="Helvetica,sans-Serif" font-size="10.00">CtxSetX</text>
</g>
<!-- Node20 -->
<g id="node20" class="node">
<title>Node20</title>
<g id="a_node20"><a xlink:title=" ">
<polygon fill="white" stroke="#bfbfbf" points="791.5,-375.5 791.5,-394.5 826.5,-394.5 826.5,-375.5 791.5,-375.5"/>
<text text-anchor="middle" x="809" y="-382.5" font-family="Helvetica,sans-Serif" font-size="10.00">Mat</text>
</a>
</g>
</g>
<!-- Node20&#45;&gt;Node14 -->
<g id="edge24" class="edge">
<title>Node20&#45;&gt;Node14</title>
<path fill="none" stroke="#9a32cd" stroke-dasharray="5,2" d="M835.18,-399.68C876.47,-423.05 961.84,-468.35 1040,-491 1127.42,-516.33 1156.98,-488.25 1243,-518 1318.13,-543.98 1350.46,-544.54 1397,-609 1419.1,-639.6 1388.48,-665.14 1415,-692 1422.23,-699.32 1431.67,-704.06 1441.58,-707.08"/>
<polygon fill="#9a32cd" stroke="#9a32cd" points="836.77,-396.56 826.35,-394.64 833.3,-402.64 836.77,-396.56"/>
<text text-anchor="middle" x="1141.5" y="-532" font-family="Helvetica,sans-Serif" font-size="10.00"> ksp_A</text>
<text text-anchor="middle" x="1141.5" y="-521" font-family="Helvetica,sans-Serif" font-size="10.00">ksp_B</text>
</g>
<!-- Node20&#45;&gt;Node15 -->
<g id="edge19" class="edge">
<title>Node20&#45;&gt;Node15</title>
<path fill="none" stroke="#9a32cd" stroke-dasharray="5,2" d="M825.86,-367.8C842.8,-350.52 871.24,-324.43 901,-310 933.3,-294.33 1027.09,-276.73 1087.26,-266.54"/>
<polygon fill="#9a32cd" stroke="#9a32cd" points="822.9,-365.84 818.52,-375.49 827.96,-370.68 822.9,-365.84"/>
<text text-anchor="middle" x="961.5" y="-324" font-family="Helvetica,sans-Serif" font-size="10.00"> A</text>
<text text-anchor="middle" x="961.5" y="-313" font-family="Helvetica,sans-Serif" font-size="10.00">B</text>
</g>
<!-- Node20&#45;&gt;Node25 -->
<g id="edge29" class="edge">
<title>Node20&#45;&gt;Node25</title>
<path fill="none" stroke="#9a32cd" stroke-dasharray="5,2" d="M836.46,-391.85C854.52,-396.27 879.06,-401.77 901,-405 1051.81,-427.19 1091.01,-419.25 1243,-431 1310.17,-436.19 1387.29,-442.27 1438.87,-446.35"/>
<polygon fill="#9a32cd" stroke="#9a32cd" points="837.19,-388.42 826.64,-389.4 835.5,-395.21 837.19,-388.42"/>
<text text-anchor="middle" x="1141.5" y="-445" font-family="Helvetica,sans-Serif" font-size="10.00"> snes_A</text>
<text text-anchor="middle" x="1141.5" y="-434" font-family="Helvetica,sans-Serif" font-size="10.00">snes_B</text>
</g>
<!-- Node20&#45;&gt;Node28 -->
<g id="edge34" class="edge">
<title>Node20&#45;&gt;Node28</title>
<path fill="none" stroke="#9a32cd" stroke-dasharray="5,2" d="M822.21,-366.81C844.85,-333.17 891.89,-263.76 901,-254 948.04,-203.62 986.32,-215.97 1022,-157 1043.57,-121.35 1007.83,-91.48 1040,-65 1101.59,-14.29 1327.07,-64.6 1397,-103 1438.45,-125.77 1475.34,-169.94 1490.36,-189.4"/>
<polygon fill="#9a32cd" stroke="#9a32cd" points="819.2,-365.02 816.52,-375.27 825.01,-368.92 819.2,-365.02"/>
<text text-anchor="middle" x="1141.5" y="-79" font-family="Helvetica,sans-Serif" font-size="10.00"> ts_A</text>
<text text-anchor="middle" x="1141.5" y="-68" font-family="Helvetica,sans-Serif" font-size="10.00">ts_B</text>
</g>
<!-- Node21 -->
<g id="node21" class="node">
<title>Node21</title>
<g id="a_node21"><a xlink:title=" ">
<polygon fill="white" stroke="#bfbfbf" points="772.5,-248.5 772.5,-267.5 845.5,-267.5 845.5,-248.5 772.5,-248.5"/>
<text text-anchor="middle" x="809" y="-255.5" font-family="Helvetica,sans-Serif" font-size="10.00">bitset&lt; 8 &gt;</text>
</a>
</g>
</g>
<!-- Node21&#45;&gt;Node15 -->
<g id="edge20" class="edge">
<title>Node21&#45;&gt;Node15</title>
<path fill="none" stroke="#9a32cd" stroke-dasharray="5,2" d="M855.72,-258C916.35,-258 1023.14,-258 1087.3,-258"/>
<polygon fill="#9a32cd" stroke="#9a32cd" points="855.68,-254.5 845.68,-258 855.68,-261.5 855.68,-254.5"/>
<text text-anchor="middle" x="961.5" y="-261" font-family="Helvetica,sans-Serif" font-size="10.00"> data_ctx</text>
</g>
<!-- Node22 -->
<g id="node22" class="node">
<title>Node22</title>
<g id="a_node22"><a xlink:title=" ">
<polygon fill="white" stroke="#bfbfbf" points="792,-468.5 792,-487.5 826,-487.5 826,-468.5 792,-468.5"/>
<text text-anchor="middle" x="809" y="-475.5" font-family="Helvetica,sans-Serif" font-size="10.00">Vec</text>
</a>
</g>
</g>
<!-- Node22&#45;&gt;Node14 -->
<g id="edge25" class="edge">
<title>Node22&#45;&gt;Node14</title>
<path fill="none" stroke="#9a32cd" stroke-dasharray="5,2" d="M826.62,-494.65C862.2,-529.18 949.88,-608.42 1040,-645 1076.62,-659.87 1327.8,-690.94 1441.63,-704.47"/>
<polygon fill="#9a32cd" stroke="#9a32cd" points="829.04,-492.13 819.46,-487.62 824.14,-497.12 829.04,-492.13"/>
<text text-anchor="middle" x="1141.5" y="-682" font-family="Helvetica,sans-Serif" font-size="10.00"> ksp_f</text>
</g>
<!-- Node22&#45;&gt;Node15 -->
<g id="edge21" class="edge">
<title>Node22&#45;&gt;Node15</title>
<path fill="none" stroke="#9a32cd" stroke-dasharray="5,2" d="M826.92,-460.81C852.95,-434.39 899.93,-386.74 901,-386 949.43,-352.49 981.93,-375.16 1022,-332 1038.07,-314.69 1022.4,-297.75 1040,-282 1052.97,-270.4 1070.54,-264.14 1087.36,-260.85"/>
<polygon fill="#9a32cd" stroke="#9a32cd" points="824.12,-458.67 819.59,-468.26 829.1,-463.59 824.12,-458.67"/>
<text text-anchor="middle" x="961.5" y="-422" font-family="Helvetica,sans-Serif" font-size="10.00"> f</text>
<text text-anchor="middle" x="961.5" y="-411" font-family="Helvetica,sans-Serif" font-size="10.00">x</text>
<text text-anchor="middle" x="961.5" y="-400" font-family="Helvetica,sans-Serif" font-size="10.00">x_t</text>
<text text-anchor="middle" x="961.5" y="-389" font-family="Helvetica,sans-Serif" font-size="10.00">x_tt</text>
</g>
<!-- Node22&#45;&gt;Node25 -->
<g id="edge30" class="edge">
<title>Node22&#45;&gt;Node25</title>
<path fill="none" stroke="#9a32cd" stroke-dasharray="5,2" d="M835.54,-487.89C877.46,-503.52 963.8,-533.28 1040,-544 1129.34,-556.57 1154.16,-559.72 1243,-544 1334.95,-527.73 1437.32,-480.78 1478.67,-460.5"/>
<polygon fill="#9a32cd" stroke="#9a32cd" points="836.71,-484.58 826.11,-484.33 834.23,-491.13 836.71,-484.58"/>
<text text-anchor="middle" x="1141.5" y="-569" font-family="Helvetica,sans-Serif" font-size="10.00"> snes_x</text>
<text text-anchor="middle" x="1141.5" y="-558" font-family="Helvetica,sans-Serif" font-size="10.00">snes_f</text>
</g>
<!-- Node22&#45;&gt;Node28 -->
<g id="edge38" class="edge">
<title>Node22&#45;&gt;Node28</title>
<path fill="none" stroke="#9a32cd" stroke-dasharray="5,2" d="M836.35,-480.6C881.52,-483.46 973.5,-482.02 1022,-430 1057.88,-391.52 1001.59,-348.95 1040,-313 1098.14,-258.58 1323.3,-312.16 1397,-282 1437.42,-265.46 1474.02,-226.68 1489.58,-208.6"/>
<polygon fill="#9a32cd" stroke="#9a32cd" points="836.43,-477.1 826.19,-479.83 835.9,-484.08 836.43,-477.1"/>
<text text-anchor="middle" x="1141.5" y="-349" font-family="Helvetica,sans-Serif" font-size="10.00"> ts_u</text>
<text text-anchor="middle" x="1141.5" y="-338" font-family="Helvetica,sans-Serif" font-size="10.00">ts_F</text>
<text text-anchor="middle" x="1141.5" y="-327" font-family="Helvetica,sans-Serif" font-size="10.00">ts_u_t</text>
<text text-anchor="middle" x="1141.5" y="-316" font-family="Helvetica,sans-Serif" font-size="10.00">ts_u_tt</text>
</g>
<!-- Node23 -->
<g id="node23" class="node">
<title>Node23</title>
<g id="a_node23"><a xlink:title=" ">
<polygon fill="white" stroke="#bfbfbf" points="1124,-616.5 1124,-635.5 1159,-635.5 1159,-616.5 1124,-616.5"/>
<text text-anchor="middle" x="1141.5" y="-623.5" font-family="Helvetica,sans-Serif" font-size="10.00">KSP</text>
</a>
</g>
</g>
<!-- Node23&#45;&gt;Node14 -->
<g id="edge22" class="edge">
<title>Node23&#45;&gt;Node14</title>
<path fill="none" stroke="#9a32cd" stroke-dasharray="5,2" d="M1169.39,-622.3C1227.43,-614.93 1362.03,-601.29 1397,-628 1420.48,-645.93 1393.61,-671.61 1415,-692 1422.45,-699.1 1431.99,-703.74 1441.93,-706.73"/>
<polygon fill="#9a32cd" stroke="#9a32cd" points="1168.63,-618.87 1159.17,-623.64 1169.54,-625.81 1168.63,-618.87"/>
<text text-anchor="middle" x="1329" y="-631" font-family="Helvetica,sans-Serif" font-size="10.00"> ksp</text>
</g>
<!-- Node24 -->
<g id="node24" class="node">
<title>Node24</title>
<g id="a_node24"><a xlink:title=" ">
<polygon fill="white" stroke="#bfbfbf" points="1104.5,-701.5 1104.5,-720.5 1178.5,-720.5 1178.5,-701.5 1104.5,-701.5"/>
<text text-anchor="middle" x="1141.5" y="-708.5" font-family="Helvetica,sans-Serif" font-size="10.00">KSPContext</text>
</a>
</g>
</g>
<!-- Node24&#45;&gt;Node14 -->
<g id="edge23" class="edge">
<title>Node24&#45;&gt;Node14</title>
<path fill="none" stroke="#9a32cd" stroke-dasharray="5,2" d="M1189.19,-711C1254.3,-711 1372.2,-711 1441.81,-711"/>
<polygon fill="#9a32cd" stroke="#9a32cd" points="1188.82,-707.5 1178.82,-711 1188.82,-714.5 1188.82,-707.5"/>
<text text-anchor="middle" x="1329" y="-714" font-family="Helvetica,sans-Serif" font-size="10.00"> ksp_ctx</text>
</g>
<!-- Node25&#45;&gt;Node13 -->
<g id="edge26" class="edge">
<title>Node25&#45;&gt;Node13</title>
<path fill="none" stroke="midnightblue" d="M1568.23,-461.22C1634.67,-475.06 1732.25,-506.69 1781,-577 1817.41,-629.51 1757.44,-815.46 1799,-864 1805.76,-871.9 1815,-876.94 1824.92,-880.09"/>
<polygon fill="midnightblue" stroke="midnightblue" points="1568.74,-457.75 1558.25,-459.23 1567.37,-464.62 1568.74,-457.75"/>
</g>
<!-- Node26 -->
<g id="node26" class="node">
<title>Node26</title>
<g id="a_node26"><a xlink:title=" ">
<polygon fill="white" stroke="#bfbfbf" points="1120.5,-366.5 1120.5,-385.5 1162.5,-385.5 1162.5,-366.5 1120.5,-366.5"/>
<text text-anchor="middle" x="1141.5" y="-373.5" font-family="Helvetica,sans-Serif" font-size="10.00">SNES</text>
</a>
</g>
</g>
<!-- Node26&#45;&gt;Node25 -->
<g id="edge28" class="edge">
<title>Node26&#45;&gt;Node25</title>
<path fill="none" stroke="#9a32cd" stroke-dasharray="5,2" d="M1172.95,-374.56C1221.44,-373.13 1318.74,-373.84 1397,-397 1430.43,-406.89 1465.39,-428.71 1483.98,-441.37"/>
<polygon fill="#9a32cd" stroke="#9a32cd" points="1172.68,-371.07 1162.81,-374.91 1172.92,-378.06 1172.68,-371.07"/>
<text text-anchor="middle" x="1329" y="-400" font-family="Helvetica,sans-Serif" font-size="10.00"> snes</text>
</g>
<!-- Node27 -->
<g id="node27" class="node">
<title>Node27</title>
<g id="a_node27"><a xlink:title=" ">
<polygon fill="white" stroke="#bfbfbf" points="1101.5,-462.5 1101.5,-481.5 1181.5,-481.5 1181.5,-462.5 1101.5,-462.5"/>
<text text-anchor="middle" x="1141.5" y="-469.5" font-family="Helvetica,sans-Serif" font-size="10.00">SNESContext</text>
</a>
</g>
</g>
<!-- Node27&#45;&gt;Node25 -->
<g id="edge31" class="edge">
<title>Node27&#45;&gt;Node25</title>
<path fill="none" stroke="#9a32cd" stroke-dasharray="5,2" d="M1191.84,-469.08C1256.48,-465.26 1369.71,-458.56 1438.73,-454.48"/>
<polygon fill="#9a32cd" stroke="#9a32cd" points="1191.28,-465.61 1181.51,-469.69 1191.7,-472.6 1191.28,-465.61"/>
<text text-anchor="middle" x="1329" y="-468" font-family="Helvetica,sans-Serif" font-size="10.00"> snes_ctx</text>
</g>
<!-- Node28&#45;&gt;Node13 -->
<g id="edge32" class="edge">
<title>Node28&#45;&gt;Node13</title>
<path fill="none" stroke="midnightblue" d="M1525.32,-213.75C1583.63,-248.71 1724.81,-343 1781,-466 1799.39,-506.26 1770.51,-830.12 1799,-864 1805.69,-871.96 1814.9,-877.03 1824.81,-880.18"/>
<polygon fill="midnightblue" stroke="midnightblue" points="1527.08,-210.73 1516.69,-208.65 1523.52,-216.75 1527.08,-210.73"/>
</g>
<!-- Node29 -->
<g id="node29" class="node">
<title>Node29</title>
<g id="a_node29"><a xlink:title=" ">
<polygon fill="white" stroke="#bfbfbf" points="1109,-210.5 1109,-229.5 1174,-229.5 1174,-210.5 1109,-210.5"/>
<text text-anchor="middle" x="1141.5" y="-217.5" font-family="Helvetica,sans-Serif" font-size="10.00">PetscReal</text>
</a>
</g>
</g>
<!-- Node29&#45;&gt;Node28 -->
<g id="edge35" class="edge">
<title>Node29&#45;&gt;Node28</title>
<path fill="none" stroke="#9a32cd" stroke-dasharray="5,2" d="M1184.25,-217.53C1249.06,-213.7 1373.78,-206.32 1444.73,-202.12"/>
<polygon fill="#9a32cd" stroke="#9a32cd" points="1183.78,-214.05 1174,-218.14 1184.19,-221.04 1183.78,-214.05"/>
<text text-anchor="middle" x="1329" y="-249" font-family="Helvetica,sans-Serif" font-size="10.00"> ts_a</text>
<text text-anchor="middle" x="1329" y="-238" font-family="Helvetica,sans-Serif" font-size="10.00">ts_t</text>
<text text-anchor="middle" x="1329" y="-227" font-family="Helvetica,sans-Serif" font-size="10.00">ts_dt</text>
<text text-anchor="middle" x="1329" y="-216" font-family="Helvetica,sans-Serif" font-size="10.00">ts_aa</text>
</g>
<!-- Node30 -->
<g id="node30" class="node">
<title>Node30</title>
<g id="a_node30"><a xlink:title=" ">
<polygon fill="white" stroke="#bfbfbf" points="1108,-172.5 1108,-191.5 1175,-191.5 1175,-172.5 1108,-172.5"/>
<text text-anchor="middle" x="1141.5" y="-179.5" font-family="Helvetica,sans-Serif" font-size="10.00">TSContext</text>
</a>
</g>
</g>
<!-- Node30&#45;&gt;Node28 -->
<g id="edge36" class="edge">
<title>Node30&#45;&gt;Node28</title>
<path fill="none" stroke="#9a32cd" stroke-dasharray="5,2" d="M1185.35,-180.16C1236,-178.45 1322.79,-176.98 1397,-183 1413.55,-184.34 1431.5,-186.86 1447.59,-189.5"/>
<polygon fill="#9a32cd" stroke="#9a32cd" points="1184.98,-176.67 1175.11,-180.53 1185.23,-183.67 1184.98,-176.67"/>
<text text-anchor="middle" x="1329" y="-186" font-family="Helvetica,sans-Serif" font-size="10.00"> ts_ctx</text>
</g>
<!-- Node31 -->
<g id="node31" class="node">
<title>Node31</title>
<g id="a_node31"><a xlink:title=" ">
<polygon fill="white" stroke="#bfbfbf" points="1113.5,-134.5 1113.5,-153.5 1169.5,-153.5 1169.5,-134.5 1113.5,-134.5"/>
<text text-anchor="middle" x="1141.5" y="-141.5" font-family="Helvetica,sans-Serif" font-size="10.00">PetscInt</text>
</a>
</g>
</g>
<!-- Node31&#45;&gt;Node28 -->
<g id="edge37" class="edge">
<title>Node31&#45;&gt;Node28</title>
<path fill="none" stroke="#9a32cd" stroke-dasharray="5,2" d="M1179.57,-143.95C1229.5,-144.56 1320.87,-148.03 1397,-164 1424.67,-169.8 1455.16,-181.17 1475.22,-189.38"/>
<polygon fill="#9a32cd" stroke="#9a32cd" points="1179.6,-140.45 1169.57,-143.86 1179.54,-147.45 1179.6,-140.45"/>
<text text-anchor="middle" x="1329" y="-167" font-family="Helvetica,sans-Serif" font-size="10.00"> ts_step</text>
</g>
<!-- Node32 -->
<g id="node32" class="node">
<title>Node32</title>
<g id="a_node32"><a xlink:title=" ">
<polygon fill="white" stroke="#bfbfbf" points="1127,-96.5 1127,-115.5 1156,-115.5 1156,-96.5 1127,-96.5"/>
<text text-anchor="middle" x="1141.5" y="-103.5" font-family="Helvetica,sans-Serif" font-size="10.00">TS</text>
</a>
</g>
</g>
<!-- Node32&#45;&gt;Node28 -->
<g id="edge39" class="edge">
<title>Node32&#45;&gt;Node28</title>
<path fill="none" stroke="#9a32cd" stroke-dasharray="5,2" d="M1166.42,-104.86C1212.52,-103.44 1316.22,-104.12 1397,-133 1433.17,-145.93 1469.26,-174.37 1486.7,-189.34"/>
<polygon fill="#9a32cd" stroke="#9a32cd" points="1166.11,-101.37 1156.24,-105.23 1166.37,-108.36 1166.11,-101.37"/>
<text text-anchor="middle" x="1329" y="-136" font-family="Helvetica,sans-Serif" font-size="10.00"> ts</text>
</g>
<!-- Node33 -->
<g id="node33" class="node">
<title>Node33</title>
<g id="a_node33"><a xlink:title=" ">
<polygon fill="white" stroke="#bfbfbf" points="1454,-663.5 1454,-682.5 1543,-682.5 1543,-663.5 1454,-663.5"/>
<text text-anchor="middle" x="1498.5" y="-670.5" font-family="Helvetica,sans-Serif" font-size="10.00">pair&lt; int, int &gt;</text>
</a>
</g>
</g>
<!-- Node33&#45;&gt;Node13 -->
<g id="edge41" class="edge">
<title>Node33&#45;&gt;Node13</title>
<path fill="none" stroke="#9a32cd" stroke-dasharray="5,2" d="M1553.53,-668.77C1626.12,-664.37 1749.65,-661.79 1781,-692 1808.67,-718.67 1773.41,-835.33 1799,-864 1805.82,-871.64 1814.97,-876.59 1824.75,-879.72"/>
<polygon fill="#9a32cd" stroke="#9a32cd" points="1552.96,-665.3 1543.21,-669.43 1553.41,-672.29 1552.96,-665.3"/>
<text text-anchor="middle" x="1690.5" y="-695" font-family="Helvetica,sans-Serif" font-size="10.00"> loHiFERank</text>
</g>
<!-- Node34 -->
<g id="node34" class="node">
<title>Node34</title>
<g id="a_node34"><a xlink:title=" ">
<polygon fill="white" stroke="#bfbfbf" points="1428.5,-625.5 1428.5,-644.5 1568.5,-644.5 1568.5,-625.5 1428.5,-625.5"/>
<text text-anchor="middle" x="1498.5" y="-632.5" font-family="Helvetica,sans-Serif" font-size="10.00">weak_ptr&lt; CacheTuple &gt;</text>
</a>
</g>
</g>
<!-- Node34&#45;&gt;Node13 -->
<g id="edge42" class="edge">
<title>Node34&#45;&gt;Node13</title>
<path fill="none" stroke="#9a32cd" stroke-dasharray="5,2" d="M1578.75,-628.73C1651.88,-624.84 1753.22,-624.89 1781,-652 1814.84,-685.02 1767.86,-828.42 1799,-864 1805.75,-871.71 1814.85,-876.68 1824.62,-879.83"/>
<polygon fill="#9a32cd" stroke="#9a32cd" points="1578.42,-625.24 1568.63,-629.3 1578.81,-632.23 1578.42,-625.24"/>
<text text-anchor="middle" x="1690.5" y="-655" font-family="Helvetica,sans-Serif" font-size="10.00"> cacheWeakPtr</text>
</g>
<!-- Node35 -->
<g id="node35" class="node">
<title>Node35</title>
<g id="a_node35"><a xlink:title=" ">
<polygon fill="white" stroke="#bfbfbf" points="1442.5,-587.5 1442.5,-606.5 1554.5,-606.5 1554.5,-587.5 1442.5,-587.5"/>
<text text-anchor="middle" x="1498.5" y="-594.5" font-family="Helvetica,sans-Serif" font-size="10.00">unique_ptr&lt; bool &gt;</text>
</a>
</g>
</g>
<!-- Node35&#45;&gt;Node13 -->
<g id="edge43" class="edge">
<title>Node35&#45;&gt;Node13</title>
<path fill="none" stroke="#9a32cd" stroke-dasharray="5,2" d="M1564.8,-588.2C1638.2,-579.94 1751.05,-572.63 1781,-601 1823.53,-641.29 1760.78,-819.61 1799,-864 1805.78,-871.88 1815.03,-876.91 1824.96,-880.06"/>
<polygon fill="#9a32cd" stroke="#9a32cd" points="1564.24,-584.74 1554.71,-589.37 1565.05,-591.7 1564.24,-584.74"/>
<text text-anchor="middle" x="1690.5" y="-615" font-family="Helvetica,sans-Serif" font-size="10.00"> matAssembleSwitch</text>
<text text-anchor="middle" x="1690.5" y="-604" font-family="Helvetica,sans-Serif" font-size="10.00">vecAssembleSwitch</text>
</g>
<!-- Node36 -->
<g id="node36" class="node">
<title>Node36</title>
<g id="a_node36"><a xlink:title=" ">
<polygon fill="white" stroke="#bfbfbf" points="1127,-1318.5 1127,-1337.5 1156,-1337.5 1156,-1318.5 1127,-1318.5"/>
<text text-anchor="middle" x="1141.5" y="-1325.5" font-family="Helvetica,sans-Serif" font-size="10.00">int</text>
</a>
</g>
</g>
<!-- Node36&#45;&gt;Node1 -->
<g id="edge84" class="edge">
<title>Node36&#45;&gt;Node1</title>
<path fill="none" stroke="#9a32cd" stroke-dasharray="5,2" d="M1163.1,-1343.57C1215.74,-1381.77 1360.7,-1477 1497.5,-1477 1497.5,-1477 1497.5,-1477 3140.5,-1477 3275.18,-1477 3375.59,-969.44 3393.24,-874.28"/>
<polygon fill="#9a32cd" stroke="#9a32cd" points="1165.04,-1340.66 1154.91,-1337.55 1160.89,-1346.29 1165.04,-1340.66"/>
<text text-anchor="middle" x="2458" y="-1480" font-family="Helvetica,sans-Serif" font-size="10.00"> zeroSide</text>
</g>
<!-- Node36&#45;&gt;Node13 -->
<g id="edge44" class="edge">
<title>Node36&#45;&gt;Node13</title>
<path fill="none" stroke="#9a32cd" stroke-dasharray="5,2" d="M1166.42,-1330.91C1212.51,-1335.62 1316.21,-1341.79 1397,-1314 1593.57,-1246.39 1671.28,-1223.55 1781,-1047 1809.47,-1001.19 1767.52,-970.79 1799,-927 1811.14,-910.12 1831.7,-899.26 1849.67,-892.56"/>
<polygon fill="#9a32cd" stroke="#9a32cd" points="1166.56,-1327.41 1156.24,-1329.8 1165.8,-1334.37 1166.56,-1327.41"/>
<text text-anchor="middle" x="1498.5" y="-1343" font-family="Helvetica,sans-Serif" font-size="10.00"> sIze</text>
<text text-anchor="middle" x="1498.5" y="-1332" font-family="Helvetica,sans-Serif" font-size="10.00">loopSize</text>
<text text-anchor="middle" x="1498.5" y="-1321" font-family="Helvetica,sans-Serif" font-size="10.00">nInTheLoop</text>
<text text-anchor="middle" x="1498.5" y="-1310" font-family="Helvetica,sans-Serif" font-size="10.00">rAnk</text>
</g>
<!-- Node36&#45;&gt;Node38 -->
<g id="edge56" class="edge">
<title>Node36&#45;&gt;Node38</title>
<path fill="none" stroke="#9a32cd" stroke-dasharray="5,2" d="M1165.77,-1319.63C1187.93,-1310.7 1221.06,-1294.68 1243,-1272 1255.16,-1259.43 1247.82,-1248.5 1261,-1237 1309.29,-1194.85 1357.69,-1239.63 1397,-1189 1424.64,-1153.4 1385.4,-1020.98 1415,-987 1423.59,-977.14 1436.18,-971.84 1448.95,-969.12"/>
<polygon fill="#9a32cd" stroke="#9a32cd" points="1164.22,-1316.48 1156.16,-1323.35 1166.75,-1323.01 1164.22,-1316.48"/>
<text text-anchor="middle" x="1329" y="-1306" font-family="Helvetica,sans-Serif" font-size="10.00"> tagNameSize</text>
<text text-anchor="middle" x="1329" y="-1295" font-family="Helvetica,sans-Serif" font-size="10.00">nbDofsRow</text>
<text text-anchor="middle" x="1329" y="-1284" font-family="Helvetica,sans-Serif" font-size="10.00">nbLocDofsCol</text>
<text text-anchor="middle" x="1329" y="-1273" font-family="Helvetica,sans-Serif" font-size="10.00">nbDofsCol</text>
<text text-anchor="middle" x="1329" y="-1262" font-family="Helvetica,sans-Serif" font-size="10.00">nbGhostDofsRow</text>
<text text-anchor="middle" x="1329" y="-1251" font-family="Helvetica,sans-Serif" font-size="10.00">nbGhostDofsCol</text>
<text text-anchor="middle" x="1329" y="-1240" font-family="Helvetica,sans-Serif" font-size="10.00">nbLocDofsRow</text>
</g>
<!-- Node37 -->
<g id="node37" class="node">
<title>Node37</title>
<g id="a_node37"><a xlink:title=" ">
<polygon fill="white" stroke="#bfbfbf" points="1415,-996.5 1415,-1015.5 1582,-1015.5 1582,-996.5 1415,-996.5"/>
<text text-anchor="middle" x="1498.5" y="-1003.5" font-family="Helvetica,sans-Serif" font-size="10.00">function&lt; MoFEMErrorCode()&gt;</text>
</a>
</g>
</g>
<!-- Node37&#45;&gt;Node13 -->
<g id="edge45" class="edge">
<title>Node37&#45;&gt;Node13</title>
<path fill="none" stroke="#9a32cd" stroke-dasharray="5,2" d="M1592.24,-1010.8C1651.23,-1009.33 1726.49,-998.65 1781,-960 1794.63,-950.34 1787.03,-938.66 1799,-927 1815.22,-911.2 1838.25,-899.83 1856.39,-892.61"/>
<polygon fill="#9a32cd" stroke="#9a32cd" points="1592.11,-1007.3 1582.17,-1010.96 1592.23,-1014.3 1592.11,-1007.3"/>
<text text-anchor="middle" x="1690.5" y="-1035" font-family="Helvetica,sans-Serif" font-size="10.00"> preProcessHook</text>
<text text-anchor="middle" x="1690.5" y="-1024" font-family="Helvetica,sans-Serif" font-size="10.00">operatorHook</text>
<text text-anchor="middle" x="1690.5" y="-1013" font-family="Helvetica,sans-Serif" font-size="10.00">postProcessHook</text>
</g>
<!-- Node38&#45;&gt;Node13 -->
<g id="edge46" class="edge">
<title>Node38&#45;&gt;Node13</title>
<path fill="none" stroke="#9a32cd" stroke-dasharray="5,2" d="M1552.57,-956.3C1629.6,-939.31 1770.89,-908.16 1841.88,-892.51"/>
<polygon fill="#9a32cd" stroke="#9a32cd" points="1551.61,-952.93 1542.6,-958.5 1553.12,-959.76 1551.61,-952.93"/>
<text text-anchor="middle" x="1690.5" y="-948" font-family="Helvetica,sans-Serif" font-size="10.00"> problemPtr</text>
</g>
<!-- Node39 -->
<g id="node39" class="node">
<title>Node39</title>
<g id="a_node39"><a xlink:title=" ">
<polygon fill="white" stroke="#bfbfbf" points="1058,-1156 1058,-1186 1225,-1186 1225,-1156 1058,-1156"/>
<text text-anchor="start" x="1066" y="-1174" font-family="Helvetica,sans-Serif" font-size="10.00">shared_ptr&lt; NumeredEntFinite</text>
<text text-anchor="middle" x="1141.5" y="-1163" font-family="Helvetica,sans-Serif" font-size="10.00">Element_multiIndex &gt;</text>
</a>
</g>
</g>
<!-- Node39&#45;&gt;Node38 -->
<g id="edge47" class="edge">
<title>Node39&#45;&gt;Node38</title>
<path fill="none" stroke="#9a32cd" stroke-dasharray="5,2" d="M1215.2,-1153.75C1230.3,-1150.36 1246.14,-1146.95 1261,-1144 1291.07,-1138.04 1375.7,-1143.04 1397,-1121 1438.76,-1077.79 1374.53,-1031.42 1415,-987 1423.71,-977.44 1436.18,-972.21 1448.8,-969.46"/>
<polygon fill="#9a32cd" stroke="#9a32cd" points="1214.37,-1150.35 1205.39,-1155.97 1215.92,-1157.18 1214.37,-1150.35"/>
<text text-anchor="middle" x="1329" y="-1147" font-family="Helvetica,sans-Serif" font-size="10.00"> numeredFiniteElementsPtr</text>
</g>
<!-- Node40 -->
<g id="node40" class="node">
<title>Node40</title>
<g id="a_node40"><a xlink:title=" ">
<polygon fill="white" stroke="#bfbfbf" points="1112,-1117.5 1112,-1136.5 1171,-1136.5 1171,-1117.5 1112,-1117.5"/>
<text text-anchor="middle" x="1141.5" y="-1124.5" font-family="Helvetica,sans-Serif" font-size="10.00">BitFEId *</text>
</a>
</g>
</g>
<!-- Node40&#45;&gt;Node38 -->
<g id="edge48" class="edge">
<title>Node40&#45;&gt;Node38</title>
<path fill="none" stroke="#9a32cd" stroke-dasharray="5,2" d="M1181.4,-1121.48C1251.72,-1111.41 1393.16,-1090.76 1397,-1087 1429.28,-1055.42 1383.85,-1019.69 1415,-987 1423.82,-977.74 1436.17,-972.58 1448.64,-969.81"/>
<polygon fill="#9a32cd" stroke="#9a32cd" points="1180.56,-1118.06 1171.16,-1122.94 1181.55,-1124.99 1180.56,-1118.06"/>
<text text-anchor="middle" x="1329" y="-1111" font-family="Helvetica,sans-Serif" font-size="10.00"> tagBitFEId</text>
</g>
<!-- Node41 -->
<g id="node41" class="node">
<title>Node41</title>
<g id="a_node41"><a xlink:href="classEntityHandle.html" target="_top" xlink:title=" ">
<polygon fill="white" stroke="black" points="1101.5,-777.5 1101.5,-796.5 1181.5,-796.5 1181.5,-777.5 1101.5,-777.5"/>
<text text-anchor="middle" x="1141.5" y="-784.5" font-family="Helvetica,sans-Serif" font-size="10.00">EntityHandle</text>
</a>
</g>
</g>
<!-- Node41&#45;&gt;Node1 -->
<g id="edge83" class="edge">
<title>Node41&#45;&gt;Node1</title>
<path fill="none" stroke="#9a32cd" stroke-dasharray="5,2" d="M1173.96,-773.13C1194.86,-763.01 1222.18,-747.94 1243,-730 1252.83,-721.53 1250.85,-715.09 1261,-707 1313.22,-665.34 1353.94,-694.07 1397,-643 1416.32,-620.08 1391.41,-596.49 1415,-578 1779.66,-292.22 1993.7,-548 2457,-548 2457,-548 2457,-548 3140.5,-548 3295.63,-548 3373.85,-781.88 3391.89,-844"/>
<polygon fill="#9a32cd" stroke="#9a32cd" points="1172.4,-770 1164.85,-777.43 1175.39,-776.33 1172.4,-770"/>
<text text-anchor="middle" x="2458" y="-551" font-family="Helvetica,sans-Serif" font-size="10.00"> zeroType</text>
</g>
<!-- Node41&#45;&gt;Node38 -->
<g id="edge49" class="edge">
<title>Node41&#45;&gt;Node38</title>
<path fill="none" stroke="#9a32cd" stroke-dasharray="5,2" d="M1191.59,-776.36C1245.93,-767.37 1334.12,-761.25 1397,-799 1459.34,-836.43 1487.52,-928.57 1495.22,-958.47"/>
<polygon fill="#9a32cd" stroke="#9a32cd" points="1190.77,-772.95 1181.52,-778.13 1191.98,-779.85 1190.77,-772.95"/>
<text text-anchor="middle" x="1329" y="-802" font-family="Helvetica,sans-Serif" font-size="10.00"> meshset</text>
</g>
<!-- Node42 -->
<g id="node42" class="node">
<title>Node42</title>
<g id="a_node42"><a xlink:title=" ">
<polygon fill="white" stroke="#bfbfbf" points="1067,-1068 1067,-1098 1216,-1098 1216,-1068 1067,-1068"/>
<text text-anchor="start" x="1075" y="-1086" font-family="Helvetica,sans-Serif" font-size="10.00">shared_ptr&lt; MoFEM::</text>
<text text-anchor="middle" x="1141.5" y="-1075" font-family="Helvetica,sans-Serif" font-size="10.00">ComposedProblemsData &gt;</text>
</a>
</g>
</g>
<!-- Node42&#45;&gt;Node38 -->
<g id="edge50" class="edge">
<title>Node42&#45;&gt;Node38</title>
<path fill="none" stroke="#9a32cd" stroke-dasharray="5,2" d="M1226.07,-1077.78C1295.19,-1072.7 1384.07,-1064.14 1397,-1053 1420.04,-1033.16 1393.08,-1008.07 1415,-987 1424.11,-978.24 1436.42,-973.22 1448.73,-970.42"/>
<polygon fill="#9a32cd" stroke="#9a32cd" points="1225.75,-1074.29 1216.02,-1078.5 1226.25,-1081.27 1225.75,-1074.29"/>
<text text-anchor="middle" x="1329" y="-1077" font-family="Helvetica,sans-Serif" font-size="10.00"> composedProblemsData</text>
</g>
<!-- Node43 -->
<g id="node43" class="node">
<title>Node43</title>
<g id="a_node43"><a xlink:title=" ">
<polygon fill="white" stroke="#bfbfbf" points="1101,-1029.5 1101,-1048.5 1182,-1048.5 1182,-1029.5 1101,-1029.5"/>
<text text-anchor="middle" x="1141.5" y="-1036.5" font-family="Helvetica,sans-Serif" font-size="10.00">BitRefLevel *</text>
</a>
</g>
</g>
<!-- Node43&#45;&gt;Node38 -->
<g id="edge51" class="edge">
<title>Node43&#45;&gt;Node38</title>
<path fill="none" stroke="#9a32cd" stroke-dasharray="5,2" d="M1192.34,-1034.88C1261.31,-1028.88 1379.39,-1017.43 1397,-1008 1407.84,-1002.2 1404.48,-993.37 1415,-987 1425.19,-980.84 1437.18,-976.67 1448.83,-973.86"/>
<polygon fill="#9a32cd" stroke="#9a32cd" points="1191.79,-1031.41 1182.13,-1035.76 1192.39,-1038.39 1191.79,-1031.41"/>
<text text-anchor="middle" x="1329" y="-1041" font-family="Helvetica,sans-Serif" font-size="10.00"> tagBitRefLevelMask</text>
<text text-anchor="middle" x="1329" y="-1030" font-family="Helvetica,sans-Serif" font-size="10.00">tagBitRefLevel</text>
</g>
<!-- Node44 -->
<g id="node44" class="node">
<title>Node44</title>
<g id="a_node44"><a xlink:title=" ">
<polygon fill="white" stroke="#bfbfbf" points="1056.5,-980 1056.5,-1010 1226.5,-1010 1226.5,-980 1056.5,-980"/>
<text text-anchor="start" x="1064.5" y="-998" font-family="Helvetica,sans-Serif" font-size="10.00">shared_ptr&lt; NumeredDofEntity</text>
<text text-anchor="middle" x="1141.5" y="-987" font-family="Helvetica,sans-Serif" font-size="10.00">_multiIndex &gt;</text>
</a>
</g>
</g>
<!-- Node44&#45;&gt;Node38 -->
<g id="edge52" class="edge">
<title>Node44&#45;&gt;Node38</title>
<path fill="none" stroke="#9a32cd" stroke-dasharray="5,2" d="M1236.96,-987.82C1305.2,-982.63 1394.57,-975.83 1448.92,-971.69"/>
<polygon fill="#9a32cd" stroke="#9a32cd" points="1236.34,-984.35 1226.63,-988.6 1236.87,-991.33 1236.34,-984.35"/>
<text text-anchor="middle" x="1329" y="-999" font-family="Helvetica,sans-Serif" font-size="10.00"> numeredRowDofsPtr</text>
<text text-anchor="middle" x="1329" y="-988" font-family="Helvetica,sans-Serif" font-size="10.00">numeredColDofsPtr</text>
</g>
<!-- Node45 -->
<g id="node45" class="node">
<title>Node45</title>
<g id="a_node45"><a xlink:title=" ">
<polygon fill="white" stroke="#bfbfbf" points="1072.5,-941.5 1072.5,-960.5 1210.5,-960.5 1210.5,-941.5 1072.5,-941.5"/>
<text text-anchor="middle" x="1141.5" y="-948.5" font-family="Helvetica,sans-Serif" font-size="10.00">vector&lt; BlockFieldPair &gt;</text>
</a>
</g>
</g>
<!-- Node45&#45;&gt;Node38 -->
<g id="edge54" class="edge">
<title>Node45&#45;&gt;Node38</title>
<path fill="none" stroke="#9a32cd" stroke-dasharray="5,2" d="M1220.85,-948.2C1271.24,-947.17 1338.08,-947.22 1397,-952 1413.99,-953.38 1432.46,-955.99 1448.87,-958.71"/>
<polygon fill="#9a32cd" stroke="#9a32cd" points="1220.59,-944.7 1210.67,-948.43 1220.75,-951.7 1220.59,-944.7"/>
<text text-anchor="middle" x="1329" y="-955" font-family="Helvetica,sans-Serif" font-size="10.00"> emptyFieldBlocks</text>
</g>
<!-- Node46 -->
<g id="node46" class="node">
<title>Node46</title>
<g id="a_node46"><a xlink:title=" ">
<polygon fill="white" stroke="#bfbfbf" points="1063.5,-892 1063.5,-922 1219.5,-922 1219.5,-892 1063.5,-892"/>
<text text-anchor="start" x="1071.5" y="-910" font-family="Helvetica,sans-Serif" font-size="10.00">shared_ptr&lt; MoFEM::</text>
<text text-anchor="middle" x="1141.5" y="-899" font-family="Helvetica,sans-Serif" font-size="10.00">Problem::SubProblemData &gt;</text>
</a>
</g>
</g>
<!-- Node46&#45;&gt;Node38 -->
<g id="edge55" class="edge">
<title>Node46&#45;&gt;Node38</title>
<path fill="none" stroke="#9a32cd" stroke-dasharray="5,2" d="M1229.61,-910.25C1279.15,-913.42 1342.09,-919.67 1397,-932 1424.85,-938.25 1455.56,-950.01 1475.61,-958.39"/>
<polygon fill="#9a32cd" stroke="#9a32cd" points="1229.76,-906.75 1219.56,-909.64 1229.33,-913.74 1229.76,-906.75"/>
<text text-anchor="middle" x="1329" y="-935" font-family="Helvetica,sans-Serif" font-size="10.00"> subProblemData</text>
</g>
<!-- Node47 -->
<g id="node47" class="node">
<title>Node47</title>
<g id="a_node47"><a xlink:title=" ">
<polygon fill="white" stroke="#bfbfbf" points="1040,-853.5 1040,-872.5 1243,-872.5 1243,-853.5 1040,-853.5"/>
<text text-anchor="middle" x="1141.5" y="-860.5" font-family="Helvetica,sans-Serif" font-size="10.00">shared_ptr&lt; SequenceDofContainer &gt;</text>
</a>
</g>
</g>
<!-- Node47&#45;&gt;Node38 -->
<g id="edge57" class="edge">
<title>Node47&#45;&gt;Node38</title>
<path fill="none" stroke="#9a32cd" stroke-dasharray="5,2" d="M1253.58,-858.98C1299.43,-860.86 1352.22,-867.74 1397,-886 1437.03,-902.33 1473.55,-940.29 1489.3,-958.25"/>
<polygon fill="#9a32cd" stroke="#9a32cd" points="1253.41,-855.47 1243.3,-858.63 1253.17,-862.47 1253.41,-855.47"/>
<text text-anchor="middle" x="1329" y="-900" font-family="Helvetica,sans-Serif" font-size="10.00"> sequenceRowDofContainer</text>
<text text-anchor="middle" x="1329" y="-889" font-family="Helvetica,sans-Serif" font-size="10.00">sequenceColDofContainer</text>
</g>
<!-- Node48 -->
<g id="node48" class="node">
<title>Node48</title>
<g id="a_node48"><a xlink:title=" ">
<polygon fill="white" stroke="#bfbfbf" points="1097.5,-815.5 1097.5,-834.5 1185.5,-834.5 1185.5,-815.5 1097.5,-815.5"/>
<text text-anchor="middle" x="1141.5" y="-822.5" font-family="Helvetica,sans-Serif" font-size="10.00">BitProblemId *</text>
</a>
</g>
</g>
<!-- Node48&#45;&gt;Node38 -->
<g id="edge58" class="edge">
<title>Node48&#45;&gt;Node38</title>
<path fill="none" stroke="#9a32cd" stroke-dasharray="5,2" d="M1195.87,-817.21C1249.8,-811.93 1333.94,-811 1397,-844 1447.33,-870.34 1481.5,-934.01 1493.12,-958.33"/>
<polygon fill="#9a32cd" stroke="#9a32cd" points="1195.41,-813.74 1185.84,-818.27 1196.15,-820.7 1195.41,-813.74"/>
<text text-anchor="middle" x="1329" y="-847" font-family="Helvetica,sans-Serif" font-size="10.00"> tagId</text>
</g>
<!-- Node49 -->
<g id="node49" class="node">
<title>Node49</title>
<g id="a_node49"><a xlink:title=" ">
<polygon fill="white" stroke="#bfbfbf" points="1805,-936 1805,-966 1967,-966 1967,-936 1805,-936"/>
<text text-anchor="start" x="1813" y="-954" font-family="Helvetica,sans-Serif" font-size="10.00">shared_ptr&lt; const MoFEM</text>
<text text-anchor="middle" x="1886" y="-943" font-family="Helvetica,sans-Serif" font-size="10.00">::NumeredEntFiniteElement &gt;</text>
</a>
</g>
</g>
<!-- Node49&#45;&gt;Node12 -->
<g id="edge59" class="edge">
<title>Node49&#45;&gt;Node12</title>
<path fill="none" stroke="#9a32cd" stroke-dasharray="5,2" d="M1977.54,-955.92C2048.18,-959.76 2143.85,-964.96 2202.4,-968.14"/>
<polygon fill="#9a32cd" stroke="#9a32cd" points="1977.48,-952.41 1967.3,-955.36 1977.1,-959.4 1977.48,-952.41"/>
<text text-anchor="middle" x="2063" y="-966" font-family="Helvetica,sans-Serif" font-size="10.00"> numeredEntFiniteElementPtr</text>
</g>
<!-- Node50 -->
<g id="node50" class="node">
<title>Node50</title>
<g id="a_node50"><a xlink:title=" ">
<polygon fill="white" stroke="#bfbfbf" points="1864,-1095.5 1864,-1114.5 1908,-1114.5 1908,-1095.5 1864,-1095.5"/>
<text text-anchor="middle" x="1886" y="-1102.5" font-family="Helvetica,sans-Serif" font-size="10.00">string</text>
</a>
</g>
</g>
<!-- Node50&#45;&gt;Node3 -->
<g id="edge82" class="edge">
<title>Node50&#45;&gt;Node3</title>
<path fill="none" stroke="#9a32cd" stroke-dasharray="5,2" d="M1918.2,-1105.4C2036.24,-1107.17 2466.73,-1116.02 2819,-1154 2824.86,-1154.63 2830.91,-1155.33 2837,-1156.08"/>
<polygon fill="#9a32cd" stroke="#9a32cd" points="1918.12,-1101.9 1908.07,-1105.25 1918.01,-1108.9 1918.12,-1101.9"/>
<text text-anchor="middle" x="2458" y="-1143" font-family="Helvetica,sans-Serif" font-size="10.00"> colFieldName</text>
<text text-anchor="middle" x="2458" y="-1132" font-family="Helvetica,sans-Serif" font-size="10.00">rowFieldName</text>
</g>
<!-- Node50&#45;&gt;Node12 -->
<g id="edge60" class="edge">
<title>Node50&#45;&gt;Node12</title>
<path fill="none" stroke="#9a32cd" stroke-dasharray="5,2" d="M1918.16,-1096.05C1966.63,-1081.38 2062.09,-1049.44 2135,-1006 2143.95,-1000.67 2143.6,-995.47 2153,-991 2168.24,-983.75 2185.95,-979.13 2202.3,-976.18"/>
<polygon fill="#9a32cd" stroke="#9a32cd" points="1916.86,-1092.78 1908.28,-1099 1918.86,-1099.49 1916.86,-1092.78"/>
<text text-anchor="middle" x="2063" y="-1074" font-family="Helvetica,sans-Serif" font-size="10.00"> feName</text>
</g>
<!-- Node51 -->
<g id="node51" class="node">
<title>Node51</title>
<g id="a_node51"><a xlink:title=" ">
<polygon fill="white" stroke="#bfbfbf" points="1804.5,-985 1804.5,-1015 1967.5,-1015 1967.5,-985 1804.5,-985"/>
<text text-anchor="start" x="1812.5" y="-1003" font-family="Helvetica,sans-Serif" font-size="10.00">function&lt; bool(MoFEM</text>
<text text-anchor="middle" x="1886" y="-992" font-family="Helvetica,sans-Serif" font-size="10.00">::FEMethod *fe_method_ptr)&gt;</text>
</a>
</g>
</g>
<!-- Node51&#45;&gt;Node12 -->
<g id="edge61" class="edge">
<title>Node51&#45;&gt;Node12</title>
<path fill="none" stroke="#9a32cd" stroke-dasharray="5,2" d="M1977.98,-992.83C2048.52,-987.27 2143.82,-979.76 2202.26,-975.16"/>
<polygon fill="#9a32cd" stroke="#9a32cd" points="1977.45,-989.36 1967.76,-993.64 1978,-996.34 1977.45,-989.36"/>
<text text-anchor="middle" x="2063" y="-994" font-family="Helvetica,sans-Serif" font-size="10.00"> exeTestHook</text>
</g>
<!-- Node52 -->
<g id="node52" class="node">
<title>Node52</title>
<g id="a_node52"><a xlink:href="classdouble.html" target="_top" xlink:title=" ">
<polygon fill="white" stroke="black" points="2231,-712.5 2231,-731.5 2281,-731.5 2281,-712.5 2231,-712.5"/>
<text text-anchor="middle" x="2256" y="-719.5" font-family="Helvetica,sans-Serif" font-size="10.00">double</text>
</a>
</g>
</g>
<!-- Node52&#45;&gt;Node11 -->
<g id="edge62" class="edge">
<title>Node52&#45;&gt;Node11</title>
<path fill="none" stroke="#9a32cd" stroke-dasharray="5,2" d="M2291.39,-718.89C2356.81,-713.55 2496.42,-705.11 2539,-726 2591.55,-751.78 2625.58,-818.95 2636.86,-844.21"/>
<polygon fill="#9a32cd" stroke="#9a32cd" points="2290.86,-715.42 2281.19,-719.74 2291.45,-722.39 2290.86,-715.42"/>
<text text-anchor="middle" x="2458" y="-729" font-family="Helvetica,sans-Serif" font-size="10.00"> elementMeasure</text>
</g>
<!-- Node53 -->
<g id="node53" class="node">
<title>Node53</title>
<g id="a_node53"><a xlink:title=" ">
<polygon fill="white" stroke="#bfbfbf" points="2170,-652.5 2170,-693.5 2342,-693.5 2342,-652.5 2170,-652.5"/>
<text text-anchor="start" x="2178" y="-681.5" font-family="Helvetica,sans-Serif" font-size="10.00">array&lt; boost::shared</text>
<text text-anchor="start" x="2178" y="-670.5" font-family="Helvetica,sans-Serif" font-size="10.00">_ptr&lt; MoFEM::EntitiesFieldData</text>
<text text-anchor="middle" x="2256" y="-659.5" font-family="Helvetica,sans-Serif" font-size="10.00"> &gt;, LASTSPACE &gt;</text>
</a>
</g>
</g>
<!-- Node53&#45;&gt;Node11 -->
<g id="edge63" class="edge">
<title>Node53&#45;&gt;Node11</title>
<path fill="none" stroke="#9a32cd" stroke-dasharray="5,2" d="M2352.46,-656.39C2410.32,-651.27 2483.44,-653.99 2539,-687 2600.92,-723.79 2630.24,-814.17 2638.48,-844.16"/>
<polygon fill="#9a32cd" stroke="#9a32cd" points="2351.82,-652.94 2342.21,-657.39 2352.5,-659.9 2351.82,-652.94"/>
<text text-anchor="middle" x="2458" y="-701" font-family="Helvetica,sans-Serif" font-size="10.00"> derivedDataOnElement</text>
<text text-anchor="middle" x="2458" y="-690" font-family="Helvetica,sans-Serif" font-size="10.00">dataOnElement</text>
</g>
<!-- Node54 -->
<g id="node54" class="node">
<title>Node54</title>
<g id="a_node54"><a xlink:title=" ">
<polygon fill="white" stroke="#bfbfbf" points="2222,-614.5 2222,-633.5 2290,-633.5 2290,-614.5 2222,-614.5"/>
<text text-anchor="middle" x="2256" y="-621.5" font-family="Helvetica,sans-Serif" font-size="10.00">EntityType</text>
</a>
</g>
</g>
<!-- Node54&#45;&gt;Node11 -->
<g id="edge64" class="edge">
<title>Node54&#45;&gt;Node11</title>
<path fill="none" stroke="#9a32cd" stroke-dasharray="5,2" d="M2300.53,-613.78C2359.86,-602.47 2466.99,-591.65 2539,-640 2613.15,-689.79 2634.88,-808.93 2639.78,-844.08"/>
<polygon fill="#9a32cd" stroke="#9a32cd" points="2299.49,-610.42 2290.37,-615.81 2300.86,-617.29 2299.49,-610.42"/>
<text text-anchor="middle" x="2458" y="-643" font-family="Helvetica,sans-Serif" font-size="10.00"> lastEvaluatedElementEntityType</text>
</g>
<!-- Node55 -->
<g id="node55" class="node">
<title>Node55</title>
<g id="a_node55"><a xlink:href="structMoFEM_1_1DeprecatedCoreInterface.html" target="_top" xlink:title="Deprecated interface functions.">
<polygon fill="white" stroke="black" points="1600,-231.5 1600,-250.5 1781,-250.5 1781,-231.5 1600,-231.5"/>
<text text-anchor="middle" x="1690.5" y="-238.5" font-family="Helvetica,sans-Serif" font-size="10.00">MoFEM::DeprecatedCoreInterface</text>
</a>
</g>
</g>
<!-- Node55&#45;&gt;Node11 -->
<g id="edge65" class="edge">
<title>Node55&#45;&gt;Node11</title>
<path fill="none" stroke="#9a32cd" stroke-dasharray="5,2" d="M1743.7,-253.1C1756.08,-256.49 1769.13,-260.49 1781,-265 2057.87,-370.11 2098.5,-462.28 2377,-563 2446.55,-588.15 2482.87,-552.85 2539,-601 2618.08,-668.83 2636.57,-806.93 2640.21,-844.42"/>
<polygon fill="#9a32cd" stroke="#9a32cd" points="1744.51,-249.69 1733.94,-250.51 1742.71,-256.46 1744.51,-249.69"/>
<text text-anchor="middle" x="2063" y="-451" font-family="Helvetica,sans-Serif" font-size="10.00"> mField</text>
</g>
<!-- Node56&#45;&gt;Node55 -->
<g id="edge66" class="edge">
<title>Node56&#45;&gt;Node55</title>
<path fill="none" stroke="midnightblue" d="M1214.25,-10.11C1266.45,-12.29 1338.03,-19.72 1397,-42 1521.1,-88.89 1644.02,-198.32 1679.4,-231.38"/>
<polygon fill="midnightblue" stroke="midnightblue" points="1214.2,-6.61 1204.08,-9.74 1213.94,-13.6 1214.2,-6.61"/>
</g>
<!-- Node57 -->
<g id="node57" class="node">
<title>Node57</title>
<g id="a_node57"><a xlink:title=" ">
<polygon fill="white" stroke="#bfbfbf" points="2172.5,-1049 2172.5,-1101 2339.5,-1101 2339.5,-1049 2172.5,-1049"/>
<text text-anchor="start" x="2180.5" y="-1089" font-family="Helvetica,sans-Serif" font-size="10.00">function&lt; MoFEMErrorCode</text>
<text text-anchor="start" x="2180.5" y="-1078" font-family="Helvetica,sans-Serif" font-size="10.00">(ForcesAndSourcesCore *fe</text>
<text text-anchor="start" x="2180.5" y="-1067" font-family="Helvetica,sans-Serif" font-size="10.00">_raw_ptr, int order_row,</text>
<text text-anchor="middle" x="2256" y="-1056" font-family="Helvetica,sans-Serif" font-size="10.00"> int order_col, int order_data)&gt;</text>
</a>
</g>
</g>
<!-- Node57&#45;&gt;Node11 -->
<g id="edge69" class="edge">
<title>Node57&#45;&gt;Node11</title>
<path fill="none" stroke="#9a32cd" stroke-dasharray="5,2" d="M2349.75,-1075.87C2408.61,-1072.19 2483.8,-1059.24 2539,-1021 2597.93,-980.18 2629.01,-893.2 2638.12,-863.88"/>
<polygon fill="#9a32cd" stroke="#9a32cd" points="2349.5,-1072.38 2339.71,-1076.42 2349.89,-1079.37 2349.5,-1072.38"/>
<text text-anchor="middle" x="2458" y="-1076" font-family="Helvetica,sans-Serif" font-size="10.00"> setRuleHook</text>
</g>
<!-- Node58 -->
<g id="node58" class="node">
<title>Node58</title>
<g id="a_node58"><a xlink:title=" ">
<polygon fill="white" stroke="#bfbfbf" points="2155,-1000 2155,-1030 2357,-1030 2357,-1000 2155,-1000"/>
<text text-anchor="start" x="2163" y="-1018" font-family="Helvetica,sans-Serif" font-size="10.00">ptr_deque&lt; MoFEM::Forces</text>
<text text-anchor="middle" x="2256" y="-1007" font-family="Helvetica,sans-Serif" font-size="10.00">AndSourcesCore::UserDataOperator &gt;</text>
</a>
</g>
</g>
<!-- Node58&#45;&gt;Node11 -->
<g id="edge70" class="edge">
<title>Node58&#45;&gt;Node11</title>
<path fill="none" stroke="#9a32cd" stroke-dasharray="5,2" d="M2367.25,-1008.52C2421.6,-1001.6 2486.57,-987.5 2539,-959 2583.43,-934.84 2620.42,-884.8 2634.69,-863.71"/>
<polygon fill="#9a32cd" stroke="#9a32cd" points="2366.73,-1005.06 2357.23,-1009.74 2367.58,-1012.01 2366.73,-1005.06"/>
<text text-anchor="middle" x="2458" y="-1009" font-family="Helvetica,sans-Serif" font-size="10.00"> opPtrVector</text>
</g>
<!-- Node59 -->
<g id="node59" class="node">
<title>Node59</title>
<g id="a_node59"><a xlink:href="structMoFEM_1_1EntitiesFieldData.html" target="_top" xlink:title="data structure for finite element entity">
<polygon fill="white" stroke="black" points="2185,-750.5 2185,-769.5 2327,-769.5 2327,-750.5 2185,-750.5"/>
<text text-anchor="middle" x="2256" y="-757.5" font-family="Helvetica,sans-Serif" font-size="10.00">MoFEM::EntitiesFieldData</text>
</a>
</g>
</g>
<!-- Node59&#45;&gt;Node11 -->
<g id="edge71" class="edge">
<title>Node59&#45;&gt;Node11</title>
<path fill="none" stroke="#9a32cd" stroke-dasharray="5,2" d="M2313.98,-748.88C2372.57,-740.05 2465.38,-733.4 2539,-762 2582.79,-779.01 2619.59,-824.32 2634.22,-844.3"/>
<polygon fill="#9a32cd" stroke="#9a32cd" points="2313.14,-745.47 2303.81,-750.49 2314.24,-752.39 2313.14,-745.47"/>
<text text-anchor="middle" x="2458" y="-809" font-family="Helvetica,sans-Serif" font-size="10.00"> dataNoField</text>
<text text-anchor="middle" x="2458" y="-798" font-family="Helvetica,sans-Serif" font-size="10.00">dataL2</text>
<text text-anchor="middle" x="2458" y="-787" font-family="Helvetica,sans-Serif" font-size="10.00">dataH1</text>
<text text-anchor="middle" x="2458" y="-776" font-family="Helvetica,sans-Serif" font-size="10.00">dataHcurl</text>
<text text-anchor="middle" x="2458" y="-765" font-family="Helvetica,sans-Serif" font-size="10.00">dataHdiv</text>
</g>
<!-- Node60 -->
<g id="node60" class="node">
<title>Node60</title>
<g id="a_node60"><a xlink:title=" ">
<polygon fill="white" stroke="#bfbfbf" points="1805,-698 1805,-728 1967,-728 1967,-698 1805,-698"/>
<text text-anchor="start" x="1813" y="-716" font-family="Helvetica,sans-Serif" font-size="10.00">array&lt; std::bitset</text>
<text text-anchor="middle" x="1886" y="-705" font-family="Helvetica,sans-Serif" font-size="10.00">&lt; LASTBASE &gt;, LASTSPACE &gt;</text>
</a>
</g>
</g>
<!-- Node60&#45;&gt;Node59 -->
<g id="edge72" class="edge">
<title>Node60&#45;&gt;Node59</title>
<path fill="none" stroke="#9a32cd" stroke-dasharray="5,2" d="M1977.06,-710.24C2024.88,-711.08 2084.12,-715.83 2135,-731 2143.77,-733.61 2144.39,-737.9 2153,-741 2163.68,-744.84 2175.28,-747.95 2186.7,-750.44"/>
<polygon fill="#9a32cd" stroke="#9a32cd" points="1977.08,-706.74 1967.03,-710.12 1976.99,-713.74 1977.08,-706.74"/>
<text text-anchor="middle" x="2063" y="-745" font-family="Helvetica,sans-Serif" font-size="10.00"> brokenBasesOnSpaces</text>
<text text-anchor="middle" x="2063" y="-734" font-family="Helvetica,sans-Serif" font-size="10.00">basesOnSpaces</text>
</g>
<!-- Node61 -->
<g id="node61" class="node">
<title>Node61</title>
<g id="a_node61"><a xlink:title=" ">
<polygon fill="white" stroke="#bfbfbf" points="1809.5,-637.5 1809.5,-678.5 1962.5,-678.5 1962.5,-637.5 1809.5,-637.5"/>
<text text-anchor="start" x="1817.5" y="-666.5" font-family="Helvetica,sans-Serif" font-size="10.00">array&lt; boost::ptr_vector</text>
<text text-anchor="start" x="1817.5" y="-655.5" font-family="Helvetica,sans-Serif" font-size="10.00">&lt; MoFEM::EntitiesFieldData</text>
<text text-anchor="middle" x="1886" y="-644.5" font-family="Helvetica,sans-Serif" font-size="10.00">::EntData &gt;, MBMAXTYPE &gt;</text>
</a>
</g>
</g>
<!-- Node61&#45;&gt;Node59 -->
<g id="edge73" class="edge">
<title>Node61&#45;&gt;Node59</title>
<path fill="none" stroke="#9a32cd" stroke-dasharray="5,2" d="M1973,-650.94C2025.03,-651.2 2089.83,-660.13 2135,-696 2151.87,-709.4 2136.35,-727.33 2153,-741 2162.12,-748.48 2173.25,-753.38 2184.77,-756.53"/>
<polygon fill="#9a32cd" stroke="#9a32cd" points="1972.75,-647.44 1962.77,-651 1972.79,-654.44 1972.75,-647.44"/>
<text text-anchor="middle" x="2063" y="-699" font-family="Helvetica,sans-Serif" font-size="10.00"> dataOnEntities</text>
</g>
<!-- Node62 -->
<g id="node62" class="node">
<title>Node62</title>
<g id="a_node62"><a xlink:title=" ">
<polygon fill="white" stroke="#bfbfbf" points="1799,-588 1799,-618 1973,-618 1973,-588 1799,-588"/>
<text text-anchor="start" x="1807" y="-606" font-family="Helvetica,sans-Serif" font-size="10.00">array&lt; std::bitset</text>
<text text-anchor="middle" x="1886" y="-595" font-family="Helvetica,sans-Serif" font-size="10.00">&lt; LASTSPACE &gt;, MBMAXTYPE &gt;</text>
</a>
</g>
</g>
<!-- Node62&#45;&gt;Node59 -->
<g id="edge74" class="edge">
<title>Node62&#45;&gt;Node59</title>
<path fill="none" stroke="#9a32cd" stroke-dasharray="5,2" d="M1983.32,-590.98C2034.82,-590.12 2095.58,-598.94 2135,-637 2168.75,-669.58 2120.04,-707.62 2153,-741 2161.67,-749.78 2173,-755.22 2184.95,-758.48"/>
<polygon fill="#9a32cd" stroke="#9a32cd" points="1983.04,-587.48 1973.15,-591.27 1983.24,-594.48 1983.04,-587.48"/>
<text text-anchor="middle" x="2063" y="-640" font-family="Helvetica,sans-Serif" font-size="10.00"> spacesOnEntities</text>
</g>
<!-- Node63 -->
<g id="node63" class="node">
<title>Node63</title>
<g id="a_node63"><a xlink:title=" ">
<polygon fill="white" stroke="#bfbfbf" points="1801.5,-824 1801.5,-854 1970.5,-854 1970.5,-824 1801.5,-824"/>
<text text-anchor="start" x="1809.5" y="-842" font-family="Helvetica,sans-Serif" font-size="10.00">array&lt; std::bitset</text>
<text text-anchor="middle" x="1886" y="-831" font-family="Helvetica,sans-Serif" font-size="10.00">&lt; LASTBASE &gt;, MBMAXTYPE &gt;</text>
</a>
</g>
</g>
<!-- Node63&#45;&gt;Node59 -->
<g id="edge75" class="edge">
<title>Node63&#45;&gt;Node59</title>
<path fill="none" stroke="#9a32cd" stroke-dasharray="5,2" d="M1980.92,-834.82C2027.8,-831.11 2085.03,-824.14 2135,-811 2140.04,-809.68 2199.82,-783.91 2233.06,-769.52"/>
<polygon fill="#9a32cd" stroke="#9a32cd" points="1980.48,-831.34 1970.77,-835.58 1981.01,-838.32 1980.48,-831.34"/>
<text text-anchor="middle" x="2063" y="-836" font-family="Helvetica,sans-Serif" font-size="10.00"> basesOnEntities</text>
</g>
<!-- Node64 -->
<g id="node64" class="node">
<title>Node64</title>
<g id="a_node64"><a xlink:title=" ">
<polygon fill="white" stroke="#bfbfbf" points="1830,-785.5 1830,-804.5 1942,-804.5 1942,-785.5 1830,-785.5"/>
<text text-anchor="middle" x="1886" y="-792.5" font-family="Helvetica,sans-Serif" font-size="10.00">UBlasMatrix&lt; int &gt;</text>
</a>
</g>
</g>
<!-- Node64&#45;&gt;Node59 -->
<g id="edge76" class="edge">
<title>Node64&#45;&gt;Node59</title>
<path fill="none" stroke="#9a32cd" stroke-dasharray="5,2" d="M1952.2,-789.08C2002.23,-784.51 2072.99,-777.98 2135,-772 2151.15,-770.44 2168.52,-768.73 2184.89,-767.1"/>
<polygon fill="#9a32cd" stroke="#9a32cd" points="1951.81,-785.6 1942.17,-790 1952.45,-792.57 1951.81,-785.6"/>
<text text-anchor="middle" x="2063" y="-799" font-family="Helvetica,sans-Serif" font-size="10.00"> facesNodesOrder</text>
<text text-anchor="middle" x="2063" y="-788" font-family="Helvetica,sans-Serif" font-size="10.00">facesNodes</text>
</g>
<!-- Node65 -->
<g id="node65" class="node">
<title>Node65</title>
<g id="a_node65"><a xlink:title=" ">
<polygon fill="white" stroke="#bfbfbf" points="1827.5,-747.5 1827.5,-766.5 1944.5,-766.5 1944.5,-747.5 1827.5,-747.5"/>
<text text-anchor="middle" x="1886" y="-754.5" font-family="Helvetica,sans-Serif" font-size="10.00">bitset&lt; LASTBASE &gt;</text>
</a>
</g>
</g>
<!-- Node65&#45;&gt;Node59 -->
<g id="edge77" class="edge">
<title>Node65&#45;&gt;Node59</title>
<path fill="none" stroke="#9a32cd" stroke-dasharray="5,2" d="M1955.11,-757.56C2020.49,-758.09 2118.8,-758.89 2184.86,-759.43"/>
<polygon fill="#9a32cd" stroke="#9a32cd" points="1954.93,-754.05 1944.9,-757.47 1954.88,-761.05 1954.93,-754.05"/>
<text text-anchor="middle" x="2063" y="-761" font-family="Helvetica,sans-Serif" font-size="10.00"> bAse</text>
</g>
<!-- Node66 -->
<g id="node66" class="node">
<title>Node66</title>
<g id="a_node66"><a xlink:title=" ">
<polygon fill="white" stroke="#bfbfbf" points="2193.5,-901.5 2193.5,-942.5 2318.5,-942.5 2318.5,-901.5 2193.5,-901.5"/>
<text text-anchor="start" x="2201.5" y="-930.5" font-family="Helvetica,sans-Serif" font-size="10.00">function&lt; int(int order</text>
<text text-anchor="start" x="2201.5" y="-919.5" font-family="Helvetica,sans-Serif" font-size="10.00">_row, int order_col, int</text>
<text text-anchor="middle" x="2256" y="-908.5" font-family="Helvetica,sans-Serif" font-size="10.00"> order_data)&gt;</text>
</a>
</g>
</g>
<!-- Node66&#45;&gt;Node11 -->
<g id="edge78" class="edge">
<title>Node66&#45;&gt;Node11</title>
<path fill="none" stroke="#9a32cd" stroke-dasharray="5,2" d="M2328.73,-917.37C2386.13,-912.7 2468.42,-903.85 2539,-888 2566.32,-881.87 2596.64,-871.25 2617.07,-863.51"/>
<polygon fill="#9a32cd" stroke="#9a32cd" points="2328.36,-913.88 2318.67,-918.16 2328.91,-920.86 2328.36,-913.88"/>
<text text-anchor="middle" x="2458" y="-915" font-family="Helvetica,sans-Serif" font-size="10.00"> getRuleHook</text>
</g>
<!-- Node67 -->
<g id="node67" class="node">
<title>Node67</title>
<g id="a_node67"><a xlink:title=" ">
<polygon fill="white" stroke="#bfbfbf" points="2195,-852 2195,-882 2317,-882 2317,-852 2195,-852"/>
<text text-anchor="start" x="2203" y="-870" font-family="Helvetica,sans-Serif" font-size="10.00">shared_ptr&lt; MoFEM::</text>
<text text-anchor="middle" x="2256" y="-859" font-family="Helvetica,sans-Serif" font-size="10.00">BaseFunction &gt;</text>
</a>
</g>
</g>
<!-- Node67&#45;&gt;Node11 -->
<g id="edge79" class="edge">
<title>Node67&#45;&gt;Node11</title>
<path fill="none" stroke="#9a32cd" stroke-dasharray="5,2" d="M2327.52,-864.61C2392.17,-862.42 2488.01,-859.18 2556.68,-856.85"/>
<polygon fill="#9a32cd" stroke="#9a32cd" points="2327.3,-861.12 2317.42,-864.95 2327.54,-868.11 2327.3,-861.12"/>
<text text-anchor="middle" x="2458" y="-876" font-family="Helvetica,sans-Serif" font-size="10.00"> userPolynomialBasePtr</text>
<text text-anchor="middle" x="2458" y="-865" font-family="Helvetica,sans-Serif" font-size="10.00">elementPolynomialBasePtr</text>
</g>
<!-- Node68 -->
<g id="node68" class="node">
<title>Node68</title>
<g id="a_node68"><a xlink:href="classUBlasMatrix_3_01double_01_4.html" target="_top" xlink:title=" ">
<polygon fill="white" stroke="black" points="2190,-813.5 2190,-832.5 2322,-832.5 2322,-813.5 2190,-813.5"/>
<text text-anchor="middle" x="2256" y="-820.5" font-family="Helvetica,sans-Serif" font-size="10.00">UBlasMatrix&lt; double &gt;</text>
</a>
</g>
</g>
<!-- Node68&#45;&gt;Node11 -->
<g id="edge80" class="edge">
<title>Node68&#45;&gt;Node11</title>
<path fill="none" stroke="#9a32cd" stroke-dasharray="5,2" d="M2332.24,-821.2C2389.22,-820.78 2469.32,-822.24 2539,-831 2561.69,-833.85 2586.76,-839.47 2606.36,-844.44"/>
<polygon fill="#9a32cd" stroke="#9a32cd" points="2332.2,-817.7 2322.24,-821.29 2332.27,-824.7 2332.2,-817.7"/>
<text text-anchor="middle" x="2458" y="-845" font-family="Helvetica,sans-Serif" font-size="10.00"> coordsAtGaussPts</text>
<text text-anchor="middle" x="2458" y="-834" font-family="Helvetica,sans-Serif" font-size="10.00">gaussPts</text>
</g>
<!-- Node69 -->
<g id="node69" class="node">
<title>Node69</title>
<g id="a_node69"><a xlink:title=" ">
<polygon fill="white" stroke="#bfbfbf" points="2576.5,-1301.5 2576.5,-1320.5 2707.5,-1320.5 2707.5,-1301.5 2576.5,-1301.5"/>
<text text-anchor="middle" x="2642" y="-1308.5" font-family="Helvetica,sans-Serif" font-size="10.00">static const char *const</text>
</a>
</g>
</g>
<!-- Node69&#45;&gt;Node3 -->
<g id="edge81" class="edge">
<title>Node69&#45;&gt;Node3</title>
<path fill="none" stroke="#9a32cd" stroke-dasharray="5,2" d="M2707.45,-1298.8C2714.15,-1296.83 2720.78,-1294.57 2727,-1292 2796.8,-1263.1 2869.28,-1209.29 2902.43,-1183.1"/>
<polygon fill="#9a32cd" stroke="#9a32cd" points="2706.34,-1295.48 2697.62,-1301.49 2708.18,-1302.23 2706.34,-1295.48"/>
<text text-anchor="middle" x="2782" y="-1284" font-family="Helvetica,sans-Serif" font-size="10.00"> OpTypeNames</text>
</g>
<!-- Node70 -->
<g id="node70" class="node">
<title>Node70</title>
<g id="a_node70"><a xlink:title=" ">
<polygon fill="white" stroke="#bfbfbf" points="3069.5,-489 3069.5,-519 3209.5,-519 3209.5,-489 3069.5,-489"/>
<text text-anchor="start" x="3077.5" y="-507" font-family="Helvetica,sans-Serif" font-size="10.00">shared_ptr&lt; UBlasMatrix</text>
<text text-anchor="middle" x="3139.5" y="-496" font-family="Helvetica,sans-Serif" font-size="10.00">&lt; double &gt; &gt;</text>
</a>
</g>
</g>
<!-- Node70&#45;&gt;Node1 -->
<g id="edge85" class="edge">
<title>Node70&#45;&gt;Node1</title>
<path fill="none" stroke="#9a32cd" stroke-dasharray="5,2" d="M3219.65,-497.71C3245.23,-499.62 3272.09,-506.31 3292,-523 3393.54,-608.13 3397.67,-790.36 3396.56,-843.91"/>
<polygon fill="#9a32cd" stroke="#9a32cd" points="3219.72,-494.21 3209.55,-497.19 3219.36,-501.2 3219.72,-494.21"/>
<text text-anchor="middle" x="3272.5" y="-526" font-family="Helvetica,sans-Serif" font-size="10.00"> dataPtr</text>
</g>
</g>
</svg>
