<?xml version="1.0" encoding="UTF-8" standalone="no"?>
<!DOCTYPE svg PUBLIC "-//W3C//DTD SVG 1.1//EN"
 "http://www.w3.org/Graphics/SVG/1.1/DTD/svg11.dtd">
<!-- Generated by graphviz version 2.43.0 (0)
 -->
<!-- Title: MoFEM::OpSetInvJacSpaceForFaceImpl&lt; 2, 2 &gt; Pages: 1 -->
<!--zoomable 1354 -->
<svg id="main" version="1.1" xmlns="http://www.w3.org/2000/svg" xmlns:xlink="http://www.w3.org/1999/xlink" xml:space="preserve" onload="init(evt)">
<style type="text/css"><![CDATA[
.edge:hover path { stroke: red; }
.edge:hover polygon { stroke: red; fill: red; }
]]></style>
<script type="text/javascript"><![CDATA[
var edges = document.getElementsByTagName('g');
if (edges && edges.length) {
  for (var i=0;i<edges.length;i++) {
    if (edges[i].id.substr(0,4)=='edge') {
      edges[i].setAttribute('class','edge');
    }
  }
}
]]></script>
        <defs>
                <circle id="rim" cx="0" cy="0" r="7"/>
                <circle id="rim2" cx="0" cy="0" r="3.5"/>
                <g id="zoomPlus">
                        <use xlink:href="#rim" fill="#404040">
                                <set attributeName="fill" to="#808080" begin="zoomplus.mouseover" end="zoomplus.mouseout"/>
                        </use>
                        <path d="M-4,0h8M0,-4v8" fill="none" stroke="white" stroke-width="1.5" pointer-events="none"/>
                </g>
                <g id="zoomMin">
                        <use xlink:href="#rim" fill="#404040">
                                <set attributeName="fill" to="#808080" begin="zoomminus.mouseover" end="zoomminus.mouseout"/>
                        </use>
                        <path d="M-4,0h8" fill="none" stroke="white" stroke-width="1.5" pointer-events="none"/>
                </g>
                <g id="dirArrow">
                        <path fill="none" stroke="white" stroke-width="1.5" d="M0,-3.0v7 M-2.5,-0.5L0,-3.0L2.5,-0.5"/>
                </g>
               <g id="resetDef">
                       <use xlink:href="#rim2" fill="#404040">
                               <set attributeName="fill" to="#808080" begin="reset.mouseover" end="reset.mouseout"/>
                       </use>
               </g>
        </defs>

<script type="text/javascript">
var viewWidth = 3651;
var viewHeight = 1354;
var sectionId = 'dynsection-1';
</script>
<script xlink:href="svgpan.js"/>
<svg id="graph" class="graph">
<g id="viewport">
<title>MoFEM::OpSetInvJacSpaceForFaceImpl&lt; 2, 2 &gt;</title>
<polygon fill="white" stroke="transparent" points="-4,4 -4,-1350 3647,-1350 3647,4 -4,4"/>
<!-- Node1 -->
<g id="node1" class="node">
<title>Node1</title>
<g id="a_node1"><a xlink:title=" ">
<polygon fill="#bfbfbf" stroke="black" points="3482,-236 3482,-266 3643,-266 3643,-236 3482,-236"/>
<text text-anchor="start" x="3490" y="-254" font-family="Helvetica,sans-Serif" font-size="10.00">MoFEM::OpSetInvJacSpaceFor</text>
<text text-anchor="middle" x="3562.5" y="-243" font-family="Helvetica,sans-Serif" font-size="10.00">FaceImpl&lt; 2, 2 &gt;</text>
</a>
</g>
</g>
<!-- Node2 -->
<g id="node2" class="node">
<title>Node2</title>
<g id="a_node2"><a xlink:href="structMoFEM_1_1OpSetInvJacSpaceForFaceImpl_3_012_00_011_01_4.html" target="_top" xlink:title=" ">
<polygon fill="white" stroke="black" points="3284,-236 3284,-266 3445,-266 3445,-236 3284,-236"/>
<text text-anchor="start" x="3292" y="-254" font-family="Helvetica,sans-Serif" font-size="10.00">MoFEM::OpSetInvJacSpaceFor</text>
<text text-anchor="middle" x="3364.5" y="-243" font-family="Helvetica,sans-Serif" font-size="10.00">FaceImpl&lt; 2, 1 &gt;</text>
</a>
</g>
</g>
<!-- Node2&#45;&gt;Node1 -->
<g id="edge1" class="edge">
<title>Node2&#45;&gt;Node1</title>
<path fill="none" stroke="midnightblue" d="M3455.49,-251C3464.28,-251 3473.17,-251 3481.85,-251"/>
<polygon fill="midnightblue" stroke="midnightblue" points="3455.22,-247.5 3445.22,-251 3455.22,-254.5 3455.22,-247.5"/>
</g>
<!-- Node3 -->
<g id="node3" class="node">
<title>Node3</title>
<g id="a_node3"><a xlink:href="structMoFEM_1_1OpSetInvJacToScalarBasesBasic.html" target="_top" xlink:title=" ">
<polygon fill="white" stroke="black" points="3089,-236 3089,-266 3247,-266 3247,-236 3089,-236"/>
<text text-anchor="start" x="3097" y="-254" font-family="Helvetica,sans-Serif" font-size="10.00">MoFEM::OpSetInvJacToScalar</text>
<text text-anchor="middle" x="3168" y="-243" font-family="Helvetica,sans-Serif" font-size="10.00">BasesBasic</text>
</a>
</g>
</g>
<!-- Node3&#45;&gt;Node2 -->
<g id="edge2" class="edge">
<title>Node3&#45;&gt;Node2</title>
<path fill="none" stroke="midnightblue" d="M3257.5,-251C3266.27,-251 3275.13,-251 3283.81,-251"/>
<polygon fill="midnightblue" stroke="midnightblue" points="3257.27,-247.5 3247.27,-251 3257.27,-254.5 3257.27,-247.5"/>
</g>
<!-- Node4 -->
<g id="node4" class="node">
<title>Node4</title>
<g id="a_node4"><a xlink:href="structMoFEM_1_1ForcesAndSourcesCore_1_1UserDataOperator.html" target="_top" xlink:title=" ">
<polygon fill="white" stroke="black" points="2837,-856 2837,-886 3007,-886 3007,-856 2837,-856"/>
<text text-anchor="start" x="2845" y="-874" font-family="Helvetica,sans-Serif" font-size="10.00">MoFEM::ForcesAndSourcesCore</text>
<text text-anchor="middle" x="2922" y="-863" font-family="Helvetica,sans-Serif" font-size="10.00">::UserDataOperator</text>
</a>
</g>
</g>
<!-- Node4&#45;&gt;Node3 -->
<g id="edge3" class="edge">
<title>Node4&#45;&gt;Node3</title>
<path fill="none" stroke="midnightblue" d="M2932.67,-846.43C2973.18,-743.5 3128.65,-348.45 3161.06,-266.1"/>
<polygon fill="midnightblue" stroke="midnightblue" points="2929.32,-845.39 2928.91,-855.98 2935.83,-847.96 2929.32,-845.39"/>
</g>
<!-- Node5 -->
<g id="node5" class="node">
<title>Node5</title>
<g id="a_node5"><a xlink:href="structMoFEM_1_1DataOperator.html" target="_top" xlink:title="base operator to do operations at Gauss Pt. level">
<polygon fill="white" stroke="black" points="2579.5,-908.5 2579.5,-927.5 2704.5,-927.5 2704.5,-908.5 2579.5,-908.5"/>
<text text-anchor="middle" x="2642" y="-915.5" font-family="Helvetica,sans-Serif" font-size="10.00">MoFEM::DataOperator</text>
</a>
</g>
</g>
<!-- Node5&#45;&gt;Node4 -->
<g id="edge4" class="edge">
<title>Node5&#45;&gt;Node4</title>
<path fill="none" stroke="midnightblue" d="M2709.25,-906.8C2747.48,-900.34 2795.94,-892.14 2836.85,-885.23"/>
<polygon fill="midnightblue" stroke="midnightblue" points="2708.53,-903.37 2699.26,-908.49 2709.7,-910.27 2708.53,-903.37"/>
</g>
<!-- Node6 -->
<g id="node6" class="node">
<title>Node6</title>
<g id="a_node6"><a xlink:title=" ">
<polygon fill="white" stroke="#bfbfbf" points="2160,-845 2160,-897 2352,-897 2352,-845 2160,-845"/>
<text text-anchor="start" x="2168" y="-885" font-family="Helvetica,sans-Serif" font-size="10.00">function&lt; MoFEMErrorCode</text>
<text text-anchor="start" x="2168" y="-874" font-family="Helvetica,sans-Serif" font-size="10.00">(DataOperator *op_ptr,</text>
<text text-anchor="start" x="2168" y="-863" font-family="Helvetica,sans-Serif" font-size="10.00"> int side, EntityType type,</text>
<text text-anchor="middle" x="2256" y="-852" font-family="Helvetica,sans-Serif" font-size="10.00"> EntitiesFieldData::EntData &amp;data)&gt;</text>
</a>
</g>
</g>
<!-- Node6&#45;&gt;Node5 -->
<g id="edge5" class="edge">
<title>Node6&#45;&gt;Node5</title>
<path fill="none" stroke="#9a32cd" stroke-dasharray="5,2" d="M2362.4,-883.54C2415.4,-889.88 2480.61,-897.76 2539,-905 2552.02,-906.61 2565.97,-908.37 2579.25,-910.06"/>
<polygon fill="#9a32cd" stroke="#9a32cd" points="2362.65,-880.04 2352.31,-882.33 2361.82,-886.99 2362.65,-880.04"/>
<text text-anchor="middle" x="2458" y="-908" font-family="Helvetica,sans-Serif" font-size="10.00"> doWorkRhsHook</text>
</g>
<!-- Node7 -->
<g id="node7" class="node">
<title>Node7</title>
<g id="a_node7"><a xlink:href="classbool.html" target="_top" xlink:title=" ">
<polygon fill="white" stroke="black" points="2237,-1058.5 2237,-1077.5 2275,-1077.5 2275,-1058.5 2237,-1058.5"/>
<text text-anchor="middle" x="2256" y="-1065.5" font-family="Helvetica,sans-Serif" font-size="10.00">bool</text>
</a>
</g>
</g>
<!-- Node7&#45;&gt;Node5 -->
<g id="edge6" class="edge">
<title>Node7&#45;&gt;Node5</title>
<path fill="none" stroke="#9a32cd" stroke-dasharray="5,2" d="M2285.24,-1063.93C2305.86,-1060.67 2334.4,-1055.56 2359,-1049 2440.9,-1027.18 2478.61,-1045.47 2539,-986 2555.53,-969.72 2539.57,-952.31 2557,-937 2563.4,-931.38 2571.12,-927.32 2579.25,-924.4"/>
<polygon fill="#9a32cd" stroke="#9a32cd" points="2284.6,-1060.48 2275.24,-1065.46 2285.66,-1067.4 2284.6,-1060.48"/>
<text text-anchor="middle" x="2458" y="-1113" font-family="Helvetica,sans-Serif" font-size="10.00"> doTris</text>
<text text-anchor="middle" x="2458" y="-1102" font-family="Helvetica,sans-Serif" font-size="10.00">doQuads</text>
<text text-anchor="middle" x="2458" y="-1091" font-family="Helvetica,sans-Serif" font-size="10.00">sYmm</text>
<text text-anchor="middle" x="2458" y="-1080" font-family="Helvetica,sans-Serif" font-size="10.00">doPrisms</text>
<text text-anchor="middle" x="2458" y="-1069" font-family="Helvetica,sans-Serif" font-size="10.00">doTets</text>
<text text-anchor="middle" x="2458" y="-1058" font-family="Helvetica,sans-Serif" font-size="10.00">doVertices</text>
<text text-anchor="middle" x="2458" y="-1047" font-family="Helvetica,sans-Serif" font-size="10.00">doEdges</text>
</g>
<!-- Node8 -->
<g id="node8" class="node">
<title>Node8</title>
<g id="a_node8"><a xlink:title=" ">
<polygon fill="white" stroke="#bfbfbf" points="2153,-954.5 2153,-1039.5 2359,-1039.5 2359,-954.5 2153,-954.5"/>
<text text-anchor="start" x="2161" y="-1027.5" font-family="Helvetica,sans-Serif" font-size="10.00">function&lt; MoFEMErrorCode</text>
<text text-anchor="start" x="2161" y="-1016.5" font-family="Helvetica,sans-Serif" font-size="10.00">(DataOperator *op_ptr,</text>
<text text-anchor="start" x="2161" y="-1005.5" font-family="Helvetica,sans-Serif" font-size="10.00"> int row_side, int col_side,</text>
<text text-anchor="start" x="2161" y="-994.5" font-family="Helvetica,sans-Serif" font-size="10.00"> EntityType row_type, EntityType</text>
<text text-anchor="start" x="2161" y="-983.5" font-family="Helvetica,sans-Serif" font-size="10.00"> col_type, EntitiesFieldData::EntData</text>
<text text-anchor="start" x="2161" y="-972.5" font-family="Helvetica,sans-Serif" font-size="10.00"> &amp;row_data, EntitiesFieldData::EntData</text>
<text text-anchor="middle" x="2256" y="-961.5" font-family="Helvetica,sans-Serif" font-size="10.00"> &amp;col_data)&gt;</text>
</a>
</g>
</g>
<!-- Node8&#45;&gt;Node5 -->
<g id="edge7" class="edge">
<title>Node8&#45;&gt;Node5</title>
<path fill="none" stroke="#9a32cd" stroke-dasharray="5,2" d="M2369.15,-973.93C2444.3,-958.47 2539.32,-938.92 2594.82,-927.5"/>
<polygon fill="#9a32cd" stroke="#9a32cd" points="2368.24,-970.54 2359.15,-975.99 2369.65,-977.4 2368.24,-970.54"/>
<text text-anchor="middle" x="2458" y="-974" font-family="Helvetica,sans-Serif" font-size="10.00"> doWorkLhsHook</text>
</g>
<!-- Node9 -->
<g id="node9" class="node">
<title>Node9</title>
<g id="a_node9"><a xlink:title=" ">
<polygon fill="white" stroke="#bfbfbf" points="2179,-916.5 2179,-935.5 2333,-935.5 2333,-916.5 2179,-916.5"/>
<text text-anchor="middle" x="2256" y="-923.5" font-family="Helvetica,sans-Serif" font-size="10.00">array&lt; bool, MBMAXTYPE &gt;</text>
</a>
</g>
</g>
<!-- Node9&#45;&gt;Node5 -->
<g id="edge8" class="edge">
<title>Node9&#45;&gt;Node5</title>
<path fill="none" stroke="#9a32cd" stroke-dasharray="5,2" d="M2343.7,-924.19C2415.44,-922.7 2515.59,-920.61 2579.37,-919.28"/>
<polygon fill="#9a32cd" stroke="#9a32cd" points="2343.25,-920.7 2333.33,-924.41 2343.4,-927.7 2343.25,-920.7"/>
<text text-anchor="middle" x="2458" y="-926" font-family="Helvetica,sans-Serif" font-size="10.00"> doEntities</text>
</g>
<!-- Node10 -->
<g id="node10" class="node">
<title>Node10</title>
<g id="a_node10"><a xlink:title=" ">
<polygon fill="white" stroke="#bfbfbf" points="2607.5,-861.5 2607.5,-880.5 2676.5,-880.5 2676.5,-861.5 2607.5,-861.5"/>
<text text-anchor="middle" x="2642" y="-868.5" font-family="Helvetica,sans-Serif" font-size="10.00">FieldSpace</text>
</a>
</g>
</g>
<!-- Node10&#45;&gt;Node4 -->
<g id="edge9" class="edge">
<title>Node10&#45;&gt;Node4</title>
<path fill="none" stroke="#9a32cd" stroke-dasharray="5,2" d="M2686.79,-871C2726.94,-871 2787.51,-871 2836.99,-871"/>
<polygon fill="#9a32cd" stroke="#9a32cd" points="2686.53,-867.5 2676.53,-871 2686.53,-874.5 2686.53,-867.5"/>
<text text-anchor="middle" x="2782" y="-874" font-family="Helvetica,sans-Serif" font-size="10.00"> sPace</text>
</g>
<!-- Node11 -->
<g id="node11" class="node">
<title>Node11</title>
<g id="a_node11"><a xlink:title=" ">
<polygon fill="white" stroke="#bfbfbf" points="1122.5,-1210.5 1122.5,-1229.5 1160.5,-1229.5 1160.5,-1210.5 1122.5,-1210.5"/>
<text text-anchor="middle" x="1141.5" y="-1217.5" font-family="Helvetica,sans-Serif" font-size="10.00">char</text>
</a>
</g>
</g>
<!-- Node11&#45;&gt;Node4 -->
<g id="edge10" class="edge">
<title>Node11&#45;&gt;Node4</title>
<path fill="none" stroke="#9a32cd" stroke-dasharray="5,2" d="M1170.81,-1221.74C1230.94,-1225.28 1375.87,-1233 1497.5,-1233 1497.5,-1233 1497.5,-1233 2643,-1233 2820.9,-1233 2900.57,-954.61 2917.49,-886.09"/>
<polygon fill="#9a32cd" stroke="#9a32cd" points="1170.79,-1218.23 1160.59,-1221.13 1170.37,-1225.22 1170.79,-1218.23"/>
<text text-anchor="middle" x="2063" y="-1236" font-family="Helvetica,sans-Serif" font-size="10.00"> opType</text>
</g>
<!-- Node39 -->
<g id="node39" class="node">
<title>Node39</title>
<g id="a_node39"><a xlink:href="structMoFEM_1_1Problem.html" target="_top" xlink:title="keeps basic data about problem">
<polygon fill="white" stroke="black" points="1449,-940.5 1449,-959.5 1548,-959.5 1548,-940.5 1449,-940.5"/>
<text text-anchor="middle" x="1498.5" y="-947.5" font-family="Helvetica,sans-Serif" font-size="10.00">MoFEM::Problem</text>
</a>
</g>
</g>
<!-- Node11&#45;&gt;Node39 -->
<g id="edge54" class="edge">
<title>Node11&#45;&gt;Node39</title>
<path fill="none" stroke="#9a32cd" stroke-dasharray="5,2" d="M1170.83,-1217.06C1235.54,-1210.21 1389.26,-1193.17 1397,-1185 1430.14,-1150.04 1383.47,-1005.41 1415,-969 1423.56,-959.11 1436.15,-953.8 1448.91,-951.08"/>
<polygon fill="#9a32cd" stroke="#9a32cd" points="1170.12,-1213.61 1160.54,-1218.14 1170.85,-1220.58 1170.12,-1213.61"/>
<text text-anchor="middle" x="1329" y="-1209" font-family="Helvetica,sans-Serif" font-size="10.00"> tagName</text>
</g>
<!-- Node12 -->
<g id="node12" class="node">
<title>Node12</title>
<g id="a_node12"><a xlink:href="structMoFEM_1_1ForcesAndSourcesCore.html" target="_top" xlink:title="structure to get information form mofem into EntitiesFieldData">
<polygon fill="white" stroke="black" points="2557,-537.5 2557,-556.5 2727,-556.5 2727,-537.5 2557,-537.5"/>
<text text-anchor="middle" x="2642" y="-544.5" font-family="Helvetica,sans-Serif" font-size="10.00">MoFEM::ForcesAndSourcesCore</text>
</a>
</g>
</g>
<!-- Node12&#45;&gt;Node4 -->
<g id="edge11" class="edge">
<title>Node12&#45;&gt;Node4</title>
<path fill="none" stroke="#9a32cd" stroke-dasharray="5,2" d="M2658,-564.48C2706.97,-621.56 2861.72,-801.91 2907.88,-855.71"/>
<polygon fill="#9a32cd" stroke="#9a32cd" points="2660.49,-562.01 2651.32,-556.7 2655.18,-566.57 2660.49,-562.01"/>
<text text-anchor="middle" x="2782" y="-750" font-family="Helvetica,sans-Serif" font-size="10.00"> ptrFE</text>
</g>
<!-- Node12&#45;&gt;Node12 -->
<g id="edge69" class="edge">
<title>Node12&#45;&gt;Node12</title>
<path fill="none" stroke="#9a32cd" stroke-dasharray="5,2" d="M2615.96,-566.03C2617.38,-571.13 2626.06,-575 2642,-575 2666.88,-575 2674.08,-565.57 2663.58,-556.76"/>
<polygon fill="#9a32cd" stroke="#9a32cd" points="2619.24,-567.29 2620.42,-556.76 2612.93,-564.25 2619.24,-567.29"/>
<text text-anchor="middle" x="2642" y="-589" font-family="Helvetica,sans-Serif" font-size="10.00"> sidePtrFE</text>
<text text-anchor="middle" x="2642" y="-578" font-family="Helvetica,sans-Serif" font-size="10.00">refinePtrFE</text>
</g>
<!-- Node13 -->
<g id="node13" class="node">
<title>Node13</title>
<g id="a_node13"><a xlink:href="structMoFEM_1_1FEMethod.html" target="_top" xlink:title="structure for User Loop Methods on finite elements">
<polygon fill="white" stroke="black" points="2202.5,-746.5 2202.5,-765.5 2309.5,-765.5 2309.5,-746.5 2202.5,-746.5"/>
<text text-anchor="middle" x="2256" y="-753.5" font-family="Helvetica,sans-Serif" font-size="10.00">MoFEM::FEMethod</text>
</a>
</g>
</g>
<!-- Node13&#45;&gt;Node12 -->
<g id="edge12" class="edge">
<title>Node13&#45;&gt;Node12</title>
<path fill="none" stroke="midnightblue" d="M2319.77,-766.62C2380.78,-773.5 2473.55,-774.5 2539,-732 2604.83,-689.26 2631.88,-588.7 2638.98,-556.85"/>
<polygon fill="midnightblue" stroke="midnightblue" points="2319.86,-763.11 2309.52,-765.38 2319.02,-770.06 2319.86,-763.11"/>
</g>
<!-- Node14 -->
<g id="node14" class="node">
<title>Node14</title>
<g id="a_node14"><a xlink:href="structMoFEM_1_1BasicMethod.html" target="_top" xlink:title="Data structure to exchange data between mofem and User Loop Methods.">
<polygon fill="white" stroke="black" points="1825,-660.5 1825,-679.5 1947,-679.5 1947,-660.5 1825,-660.5"/>
<text text-anchor="middle" x="1886" y="-667.5" font-family="Helvetica,sans-Serif" font-size="10.00">MoFEM::BasicMethod</text>
</a>
</g>
</g>
<!-- Node14&#45;&gt;Node13 -->
<g id="edge13" class="edge">
<title>Node14&#45;&gt;Node13</title>
<path fill="none" stroke="midnightblue" d="M1957.25,-673.8C2008.88,-678.98 2079.42,-691.22 2135,-720 2144.77,-725.06 2143.19,-732.01 2153,-737 2168.09,-744.68 2185.85,-749.28 2202.29,-752.03"/>
<polygon fill="midnightblue" stroke="midnightblue" points="1957.47,-670.3 1947.18,-672.85 1956.81,-677.27 1957.47,-670.3"/>
</g>
<!-- Node15 -->
<g id="node15" class="node">
<title>Node15</title>
<g id="a_node15"><a xlink:href="structMoFEM_1_1KspMethod.html" target="_top" xlink:title="data structure for ksp (linear solver) context">
<polygon fill="white" stroke="black" points="1442,-343.5 1442,-362.5 1555,-362.5 1555,-343.5 1442,-343.5"/>
<text text-anchor="middle" x="1498.5" y="-350.5" font-family="Helvetica,sans-Serif" font-size="10.00">MoFEM::KspMethod</text>
</a>
</g>
</g>
<!-- Node15&#45;&gt;Node14 -->
<g id="edge14" class="edge">
<title>Node15&#45;&gt;Node14</title>
<path fill="none" stroke="midnightblue" d="M1519.46,-369.41C1588.86,-426.48 1818.39,-615.22 1873.18,-660.28"/>
<polygon fill="midnightblue" stroke="midnightblue" points="1521.41,-366.48 1511.46,-362.83 1516.96,-371.89 1521.41,-366.48"/>
</g>
<!-- Node16 -->
<g id="node16" class="node">
<title>Node16</title>
<g id="a_node16"><a xlink:href="structMoFEM_1_1PetscData.html" target="_top" xlink:title=" ">
<polygon fill="white" stroke="black" points="1087.5,-364.5 1087.5,-383.5 1195.5,-383.5 1195.5,-364.5 1087.5,-364.5"/>
<text text-anchor="middle" x="1141.5" y="-371.5" font-family="Helvetica,sans-Serif" font-size="10.00">MoFEM::PetscData</text>
</a>
</g>
</g>
<!-- Node16&#45;&gt;Node15 -->
<g id="edge15" class="edge">
<title>Node16&#45;&gt;Node15</title>
<path fill="none" stroke="midnightblue" d="M1205.67,-370.26C1272.79,-366.29 1377.87,-360.08 1441.94,-356.29"/>
<polygon fill="midnightblue" stroke="midnightblue" points="1205.42,-366.77 1195.65,-370.86 1205.84,-373.76 1205.42,-366.77"/>
</g>
<!-- Node26 -->
<g id="node26" class="node">
<title>Node26</title>
<g id="a_node26"><a xlink:href="structMoFEM_1_1SnesMethod.html" target="_top" xlink:title="data structure for snes (nonlinear solver) context">
<polygon fill="white" stroke="black" points="1439,-251.5 1439,-270.5 1558,-270.5 1558,-251.5 1439,-251.5"/>
<text text-anchor="middle" x="1498.5" y="-258.5" font-family="Helvetica,sans-Serif" font-size="10.00">MoFEM::SnesMethod</text>
</a>
</g>
</g>
<!-- Node16&#45;&gt;Node26 -->
<g id="edge28" class="edge">
<title>Node16&#45;&gt;Node26</title>
<path fill="none" stroke="darkgreen" d="M1205.46,-372.35C1219.07,-369.36 1232.51,-364.06 1243,-355 1261.51,-339.02 1242.4,-318.88 1261,-303 1287.13,-280.7 1377.57,-269.7 1438.73,-264.7"/>
<polygon fill="darkgreen" stroke="darkgreen" points="1204.78,-368.92 1195.56,-374.14 1206.02,-375.81 1204.78,-368.92"/>
</g>
<!-- Node29 -->
<g id="node29" class="node">
<title>Node29</title>
<g id="a_node29"><a xlink:href="structMoFEM_1_1TSMethod.html" target="_top" xlink:title="data structure for TS (time stepping) context">
<polygon fill="white" stroke="black" points="1445,-568.5 1445,-587.5 1552,-587.5 1552,-568.5 1445,-568.5"/>
<text text-anchor="middle" x="1498.5" y="-575.5" font-family="Helvetica,sans-Serif" font-size="10.00">MoFEM::TSMethod</text>
</a>
</g>
</g>
<!-- Node16&#45;&gt;Node29 -->
<g id="edge34" class="edge">
<title>Node16&#45;&gt;Node29</title>
<path fill="none" stroke="darkgreen" d="M1205.66,-383.53C1260.34,-394.23 1339.48,-415.78 1397,-457 1441.84,-489.13 1478.49,-545.89 1491.96,-568.41"/>
<polygon fill="darkgreen" stroke="darkgreen" points="1206.22,-380.08 1195.74,-381.66 1204.92,-386.96 1206.22,-380.08"/>
</g>
<!-- Node17 -->
<g id="node17" class="node">
<title>Node17</title>
<g id="a_node17"><a xlink:href="structMoFEM_1_1UnknownInterface.html" target="_top" xlink:title="base class for all interface classes">
<polygon fill="white" stroke="black" points="735,-59.5 735,-78.5 883,-78.5 883,-59.5 735,-59.5"/>
<text text-anchor="middle" x="809" y="-66.5" font-family="Helvetica,sans-Serif" font-size="10.00">MoFEM::UnknownInterface</text>
</a>
</g>
</g>
<!-- Node17&#45;&gt;Node16 -->
<g id="edge16" class="edge">
<title>Node17&#45;&gt;Node16</title>
<path fill="none" stroke="midnightblue" d="M853.43,-81.78C903.17,-98.88 982.81,-134.3 1022,-195 1041.41,-225.06 1015.66,-328.77 1040,-355 1052.08,-368.02 1070.05,-373.76 1087.48,-375.93"/>
<polygon fill="midnightblue" stroke="midnightblue" points="854.5,-78.45 843.91,-78.6 852.29,-85.09 854.5,-78.45"/>
</g>
<!-- Node57 -->
<g id="node57" class="node">
<title>Node57</title>
<g id="a_node57"><a xlink:href="structMoFEM_1_1CoreInterface.html" target="_top" xlink:title="Interface.">
<polygon fill="white" stroke="black" points="1079,-0.5 1079,-19.5 1204,-19.5 1204,-0.5 1079,-0.5"/>
<text text-anchor="middle" x="1141.5" y="-7.5" font-family="Helvetica,sans-Serif" font-size="10.00">MoFEM::CoreInterface</text>
</a>
</g>
</g>
<!-- Node17&#45;&gt;Node57 -->
<g id="edge68" class="edge">
<title>Node17&#45;&gt;Node57</title>
<path fill="none" stroke="midnightblue" d="M873.52,-57.66C935.53,-46.59 1028.82,-29.94 1087.11,-19.53"/>
<polygon fill="midnightblue" stroke="midnightblue" points="872.7,-54.25 863.47,-59.46 873.93,-61.14 872.7,-54.25"/>
</g>
<!-- Node18 -->
<g id="node18" class="node">
<title>Node18</title>
<g id="a_node18"><a xlink:title=" ">
<polygon fill="white" stroke="#bfbfbf" points="386,-884.5 386,-947.5 627,-947.5 627,-884.5 386,-884.5"/>
<text text-anchor="start" x="394" y="-935.5" font-family="Helvetica,sans-Serif" font-size="10.00">multi_index_container</text>
<text text-anchor="start" x="394" y="-924.5" font-family="Helvetica,sans-Serif" font-size="10.00">&lt; UIdTypeMap, indexed</text>
<text text-anchor="start" x="394" y="-913.5" font-family="Helvetica,sans-Serif" font-size="10.00">_by&lt; hashed_unique&lt; member</text>
<text text-anchor="start" x="394" y="-902.5" font-family="Helvetica,sans-Serif" font-size="10.00">&lt; UIdTypeMap, boost::typeindex</text>
<text text-anchor="middle" x="506.5" y="-891.5" font-family="Helvetica,sans-Serif" font-size="10.00">::type_index, &amp;UIdTypeMap::classIdx &gt; &gt; &gt; &gt;</text>
</a>
</g>
</g>
<!-- Node18&#45;&gt;Node17 -->
<g id="edge17" class="edge">
<title>Node18&#45;&gt;Node17</title>
<path fill="none" stroke="#9a32cd" stroke-dasharray="5,2" d="M516.19,-874.39C540.94,-760.09 617.68,-433.12 735,-182 754.08,-141.16 785.88,-97.67 800.38,-78.74"/>
<polygon fill="#9a32cd" stroke="#9a32cd" points="512.71,-873.95 514.03,-884.46 519.55,-875.42 512.71,-873.95"/>
<text text-anchor="middle" x="681" y="-401" font-family="Helvetica,sans-Serif" font-size="10.00"> iFaceTypeMap</text>
</g>
<!-- Node19 -->
<g id="node19" class="node">
<title>Node19</title>
<g id="a_node19"><a xlink:title=" ">
<polygon fill="white" stroke="#bfbfbf" points="0,-936.5 0,-955.5 125,-955.5 125,-936.5 0,-936.5"/>
<text text-anchor="middle" x="62.5" y="-943.5" font-family="Helvetica,sans-Serif" font-size="10.00">multi_index_container</text>
</a>
</g>
</g>
<!-- Node19&#45;&gt;Node14 -->
<g id="edge41" class="edge">
<title>Node19&#45;&gt;Node14</title>
<path fill="none" stroke="#9a32cd" stroke-dasharray="5,2" d="M75.82,-963.93C123.04,-1030.27 300.07,-1258 505.5,-1258 505.5,-1258 505.5,-1258 1142.5,-1258 1444.89,-1258 1616.71,-1276.87 1781,-1023 1821.26,-960.78 1751.36,-746.77 1799,-690 1805.7,-682.02 1814.91,-676.86 1824.82,-673.6"/>
<polygon fill="#9a32cd" stroke="#9a32cd" points="78.64,-961.85 70.03,-955.68 72.91,-965.88 78.64,-961.85"/>
<text text-anchor="middle" x="961.5" y="-1338" font-family="Helvetica,sans-Serif" font-size="10.00"> adjacenciesPtr</text>
<text text-anchor="middle" x="961.5" y="-1327" font-family="Helvetica,sans-Serif" font-size="10.00">refinedEntitiesPtr</text>
<text text-anchor="middle" x="961.5" y="-1316" font-family="Helvetica,sans-Serif" font-size="10.00">finiteElementsEntitiesPtr</text>
<text text-anchor="middle" x="961.5" y="-1305" font-family="Helvetica,sans-Serif" font-size="10.00">dofsPtr</text>
<text text-anchor="middle" x="961.5" y="-1294" font-family="Helvetica,sans-Serif" font-size="10.00">entitiesPtr</text>
<text text-anchor="middle" x="961.5" y="-1283" font-family="Helvetica,sans-Serif" font-size="10.00">finiteElementsPtr</text>
<text text-anchor="middle" x="961.5" y="-1272" font-family="Helvetica,sans-Serif" font-size="10.00">refinedFiniteElementsPtr</text>
<text text-anchor="middle" x="961.5" y="-1261" font-family="Helvetica,sans-Serif" font-size="10.00">fieldsPtr</text>
</g>
<!-- Node19&#45;&gt;Node18 -->
<g id="edge18" class="edge">
<title>Node19&#45;&gt;Node18</title>
<path fill="none" stroke="orange" stroke-dasharray="5,2" d="M135.56,-941.11C203.25,-936.51 305.79,-929.55 385.77,-924.13"/>
<polygon fill="orange" stroke="orange" points="135.16,-937.63 125.42,-941.8 135.64,-944.61 135.16,-937.63"/>
<text text-anchor="start" x="143" y="-976" font-family="Helvetica,sans-Serif" font-size="10.00"> &lt; UIdTypeMap, indexed</text>
<text text-anchor="start" x="143" y="-965" font-family="Helvetica,sans-Serif" font-size="10.00">_by&lt; hashed_unique&lt; member</text>
<text text-anchor="start" x="143" y="-954" font-family="Helvetica,sans-Serif" font-size="10.00">&lt; UIdTypeMap, boost::typeindex</text>
<text text-anchor="middle" x="255.5" y="-943" font-family="Helvetica,sans-Serif" font-size="10.00">::type_index, &amp;UIdTypeMap::classIdx &gt; &gt; &gt; &gt;</text>
</g>
<!-- Node20 -->
<g id="node20" class="node">
<title>Node20</title>
<g id="a_node20"><a xlink:title=" ">
<polygon fill="white" stroke="#bfbfbf" points="738.5,-277.5 738.5,-296.5 879.5,-296.5 879.5,-277.5 738.5,-277.5"/>
<text text-anchor="middle" x="809" y="-284.5" font-family="Helvetica,sans-Serif" font-size="10.00">static constexpr Switches</text>
</a>
</g>
</g>
<!-- Node20&#45;&gt;Node16 -->
<g id="edge19" class="edge">
<title>Node20&#45;&gt;Node16</title>
<path fill="none" stroke="#9a32cd" stroke-dasharray="5,2" d="M860.04,-275.78C906.83,-268.36 976.17,-265.61 1022,-301 1042.02,-316.46 1020.95,-338.36 1040,-355 1052.97,-366.33 1070.54,-371.8 1087.36,-374.23"/>
<polygon fill="#9a32cd" stroke="#9a32cd" points="859.4,-272.34 850.13,-277.48 860.58,-279.24 859.4,-272.34"/>
<text text-anchor="middle" x="961.5" y="-381" font-family="Helvetica,sans-Serif" font-size="10.00"> CtxSetX_TT</text>
<text text-anchor="middle" x="961.5" y="-370" font-family="Helvetica,sans-Serif" font-size="10.00">CtxSetX_T</text>
<text text-anchor="middle" x="961.5" y="-359" font-family="Helvetica,sans-Serif" font-size="10.00">CtxSetA</text>
<text text-anchor="middle" x="961.5" y="-348" font-family="Helvetica,sans-Serif" font-size="10.00">CtxSetB</text>
<text text-anchor="middle" x="961.5" y="-337" font-family="Helvetica,sans-Serif" font-size="10.00">CtxSetTime</text>
<text text-anchor="middle" x="961.5" y="-326" font-family="Helvetica,sans-Serif" font-size="10.00">CtxSetNone</text>
<text text-anchor="middle" x="961.5" y="-315" font-family="Helvetica,sans-Serif" font-size="10.00">CtxSetF</text>
<text text-anchor="middle" x="961.5" y="-304" font-family="Helvetica,sans-Serif" font-size="10.00">CtxSetX</text>
</g>
<!-- Node21 -->
<g id="node21" class="node">
<title>Node21</title>
<g id="a_node21"><a xlink:title=" ">
<polygon fill="white" stroke="#bfbfbf" points="791.5,-191.5 791.5,-210.5 826.5,-210.5 826.5,-191.5 791.5,-191.5"/>
<text text-anchor="middle" x="809" y="-198.5" font-family="Helvetica,sans-Serif" font-size="10.00">Mat</text>
</a>
</g>
</g>
<!-- Node21&#45;&gt;Node15 -->
<g id="edge25" class="edge">
<title>Node21&#45;&gt;Node15</title>
<path fill="none" stroke="#9a32cd" stroke-dasharray="5,2" d="M836.55,-196.35C905.37,-185.32 1094.46,-161.54 1243,-204 1346.38,-233.55 1451.41,-314.88 1485.82,-343.16"/>
<polygon fill="#9a32cd" stroke="#9a32cd" points="835.86,-192.92 826.57,-198 837,-199.82 835.86,-192.92"/>
<text text-anchor="middle" x="1141.5" y="-218" font-family="Helvetica,sans-Serif" font-size="10.00"> ksp_A</text>
<text text-anchor="middle" x="1141.5" y="-207" font-family="Helvetica,sans-Serif" font-size="10.00">ksp_B</text>
</g>
<!-- Node21&#45;&gt;Node16 -->
<g id="edge20" class="edge">
<title>Node21&#45;&gt;Node16</title>
<path fill="none" stroke="#9a32cd" stroke-dasharray="5,2" d="M836.92,-197.99C882.16,-194.56 973.25,-194.98 1022,-246 1055.92,-281.5 1005.69,-319.88 1040,-355 1052.29,-367.57 1070.1,-373.26 1087.33,-375.51"/>
<polygon fill="#9a32cd" stroke="#9a32cd" points="836.37,-194.52 826.71,-198.89 836.98,-201.5 836.37,-194.52"/>
<text text-anchor="middle" x="961.5" y="-260" font-family="Helvetica,sans-Serif" font-size="10.00"> A</text>
<text text-anchor="middle" x="961.5" y="-249" font-family="Helvetica,sans-Serif" font-size="10.00">B</text>
</g>
<!-- Node21&#45;&gt;Node26 -->
<g id="edge30" class="edge">
<title>Node21&#45;&gt;Node26</title>
<path fill="none" stroke="#9a32cd" stroke-dasharray="5,2" d="M834.74,-186.48C875.74,-163.35 961.09,-119.11 1040,-103 1128.4,-84.95 1152.95,-97.47 1243,-103 1311.83,-107.23 1347.6,-73.88 1397,-122 1435.63,-159.63 1378.37,-202.42 1415,-242 1421.39,-248.9 1429.74,-253.54 1438.67,-256.62"/>
<polygon fill="#9a32cd" stroke="#9a32cd" points="832.94,-183.48 825.99,-191.48 836.41,-189.56 832.94,-183.48"/>
<text text-anchor="middle" x="1141.5" y="-117" font-family="Helvetica,sans-Serif" font-size="10.00"> snes_A</text>
<text text-anchor="middle" x="1141.5" y="-106" font-family="Helvetica,sans-Serif" font-size="10.00">snes_B</text>
</g>
<!-- Node21&#45;&gt;Node29 -->
<g id="edge35" class="edge">
<title>Node21&#45;&gt;Node29</title>
<path fill="none" stroke="#9a32cd" stroke-dasharray="5,2" d="M833.99,-216.53C850.5,-228.54 871.45,-246.69 883,-268 906.19,-310.78 867.68,-340.54 901,-376 938.8,-416.23 979.51,-368.77 1022,-404 1037.32,-416.7 1024.21,-432.89 1040,-445 1076.21,-472.77 1197.94,-468.76 1243,-476 1311.53,-487.02 1333.27,-474.5 1397,-502 1434.96,-518.38 1471.65,-552 1488.25,-568.47"/>
<polygon fill="#9a32cd" stroke="#9a32cd" points="835.57,-213.36 825.37,-210.51 831.57,-219.1 835.57,-213.36"/>
<text text-anchor="middle" x="1141.5" y="-490" font-family="Helvetica,sans-Serif" font-size="10.00"> ts_A</text>
<text text-anchor="middle" x="1141.5" y="-479" font-family="Helvetica,sans-Serif" font-size="10.00">ts_B</text>
</g>
<!-- Node22 -->
<g id="node22" class="node">
<title>Node22</title>
<g id="a_node22"><a xlink:title=" ">
<polygon fill="white" stroke="#bfbfbf" points="772.5,-413.5 772.5,-432.5 845.5,-432.5 845.5,-413.5 772.5,-413.5"/>
<text text-anchor="middle" x="809" y="-420.5" font-family="Helvetica,sans-Serif" font-size="10.00">bitset&lt; 8 &gt;</text>
</a>
</g>
</g>
<!-- Node22&#45;&gt;Node16 -->
<g id="edge21" class="edge">
<title>Node22&#45;&gt;Node16</title>
<path fill="none" stroke="#9a32cd" stroke-dasharray="5,2" d="M855.72,-416.22C916.35,-407.23 1023.14,-391.4 1087.3,-381.89"/>
<polygon fill="#9a32cd" stroke="#9a32cd" points="855.06,-412.78 845.68,-417.71 856.09,-419.71 855.06,-412.78"/>
<text text-anchor="middle" x="961.5" y="-411" font-family="Helvetica,sans-Serif" font-size="10.00"> data_ctx</text>
</g>
<!-- Node23 -->
<g id="node23" class="node">
<title>Node23</title>
<g id="a_node23"><a xlink:title=" ">
<polygon fill="white" stroke="#bfbfbf" points="792,-479.5 792,-498.5 826,-498.5 826,-479.5 792,-479.5"/>
<text text-anchor="middle" x="809" y="-486.5" font-family="Helvetica,sans-Serif" font-size="10.00">Vec</text>
</a>
</g>
</g>
<!-- Node23&#45;&gt;Node15 -->
<g id="edge26" class="edge">
<title>Node23&#45;&gt;Node15</title>
<path fill="none" stroke="#9a32cd" stroke-dasharray="5,2" d="M835.67,-500.36C878.98,-517.6 967.22,-544.17 1022,-502 1046.77,-482.93 1016.81,-454.97 1040,-434 1069.79,-407.06 1357.6,-384.84 1397,-377 1418.11,-372.8 1441.51,-367.26 1460.42,-362.57"/>
<polygon fill="#9a32cd" stroke="#9a32cd" points="836.73,-497.02 826.15,-496.43 834.06,-503.49 836.73,-497.02"/>
<text text-anchor="middle" x="1141.5" y="-437" font-family="Helvetica,sans-Serif" font-size="10.00"> ksp_f</text>
</g>
<!-- Node23&#45;&gt;Node16 -->
<g id="edge22" class="edge">
<title>Node23&#45;&gt;Node16</title>
<path fill="none" stroke="#9a32cd" stroke-dasharray="5,2" d="M835.62,-479.91C853.8,-473.56 878.81,-464.99 901,-458 954.4,-441.19 976.25,-455.26 1022,-423 1033.19,-415.11 1028.63,-405.62 1040,-398 1053.93,-388.66 1071.09,-382.94 1087.27,-379.44"/>
<polygon fill="#9a32cd" stroke="#9a32cd" points="834.31,-476.67 826.03,-483.28 836.63,-483.27 834.31,-476.67"/>
<text text-anchor="middle" x="961.5" y="-494" font-family="Helvetica,sans-Serif" font-size="10.00"> f</text>
<text text-anchor="middle" x="961.5" y="-483" font-family="Helvetica,sans-Serif" font-size="10.00">x</text>
<text text-anchor="middle" x="961.5" y="-472" font-family="Helvetica,sans-Serif" font-size="10.00">x_t</text>
<text text-anchor="middle" x="961.5" y="-461" font-family="Helvetica,sans-Serif" font-size="10.00">x_tt</text>
</g>
<!-- Node23&#45;&gt;Node26 -->
<g id="edge31" class="edge">
<title>Node23&#45;&gt;Node26</title>
<path fill="none" stroke="#9a32cd" stroke-dasharray="5,2" d="M835.78,-479.32C852.15,-471.75 872.22,-459.55 883,-442 903.35,-408.88 873.18,-295.15 901,-268 938.84,-231.06 1296.01,-248.61 1438.87,-257.21"/>
<polygon fill="#9a32cd" stroke="#9a32cd" points="833.99,-476.28 826.18,-483.44 836.75,-482.71 833.99,-476.28"/>
<text text-anchor="middle" x="1141.5" y="-262" font-family="Helvetica,sans-Serif" font-size="10.00"> snes_x</text>
<text text-anchor="middle" x="1141.5" y="-251" font-family="Helvetica,sans-Serif" font-size="10.00">snes_f</text>
</g>
<!-- Node23&#45;&gt;Node29 -->
<g id="edge39" class="edge">
<title>Node23&#45;&gt;Node29</title>
<path fill="none" stroke="#9a32cd" stroke-dasharray="5,2" d="M830.9,-504.82C869.63,-533.03 956.23,-591.01 1040,-612 1193.91,-650.57 1240.37,-635.38 1397,-610 1424.29,-605.58 1454.35,-595.24 1474.42,-587.5"/>
<polygon fill="#9a32cd" stroke="#9a32cd" points="832.66,-501.77 822.54,-498.65 828.51,-507.4 832.66,-501.77"/>
<text text-anchor="middle" x="1141.5" y="-671" font-family="Helvetica,sans-Serif" font-size="10.00"> ts_u</text>
<text text-anchor="middle" x="1141.5" y="-660" font-family="Helvetica,sans-Serif" font-size="10.00">ts_F</text>
<text text-anchor="middle" x="1141.5" y="-649" font-family="Helvetica,sans-Serif" font-size="10.00">ts_u_t</text>
<text text-anchor="middle" x="1141.5" y="-638" font-family="Helvetica,sans-Serif" font-size="10.00">ts_u_tt</text>
</g>
<!-- Node24 -->
<g id="node24" class="node">
<title>Node24</title>
<g id="a_node24"><a xlink:title=" ">
<polygon fill="white" stroke="#bfbfbf" points="1124,-326.5 1124,-345.5 1159,-345.5 1159,-326.5 1124,-326.5"/>
<text text-anchor="middle" x="1141.5" y="-333.5" font-family="Helvetica,sans-Serif" font-size="10.00">KSP</text>
</a>
</g>
</g>
<!-- Node24&#45;&gt;Node15 -->
<g id="edge23" class="edge">
<title>Node24&#45;&gt;Node15</title>
<path fill="none" stroke="#9a32cd" stroke-dasharray="5,2" d="M1169.32,-336.56C1215.73,-337.62 1314.05,-340.23 1397,-345 1411.59,-345.84 1427.36,-346.98 1441.98,-348.14"/>
<polygon fill="#9a32cd" stroke="#9a32cd" points="1169.26,-333.06 1159.19,-336.34 1169.11,-340.06 1169.26,-333.06"/>
<text text-anchor="middle" x="1329" y="-348" font-family="Helvetica,sans-Serif" font-size="10.00"> ksp</text>
</g>
<!-- Node25 -->
<g id="node25" class="node">
<title>Node25</title>
<g id="a_node25"><a xlink:title=" ">
<polygon fill="white" stroke="#bfbfbf" points="1104.5,-288.5 1104.5,-307.5 1178.5,-307.5 1178.5,-288.5 1104.5,-288.5"/>
<text text-anchor="middle" x="1141.5" y="-295.5" font-family="Helvetica,sans-Serif" font-size="10.00">KSPContext</text>
</a>
</g>
</g>
<!-- Node25&#45;&gt;Node15 -->
<g id="edge24" class="edge">
<title>Node25&#45;&gt;Node15</title>
<path fill="none" stroke="#9a32cd" stroke-dasharray="5,2" d="M1188.7,-300.59C1239.95,-304 1324.93,-311.24 1397,-325 1421.37,-329.65 1448.44,-337.35 1468.34,-343.49"/>
<polygon fill="#9a32cd" stroke="#9a32cd" points="1188.81,-297.09 1178.6,-299.94 1188.36,-304.07 1188.81,-297.09"/>
<text text-anchor="middle" x="1329" y="-328" font-family="Helvetica,sans-Serif" font-size="10.00"> ksp_ctx</text>
</g>
<!-- Node26&#45;&gt;Node14 -->
<g id="edge27" class="edge">
<title>Node26&#45;&gt;Node14</title>
<path fill="none" stroke="midnightblue" d="M1542.19,-273.82C1606.07,-295.45 1725.01,-345.71 1781,-434 1819.8,-495.18 1765.2,-531.93 1799,-596 1814.53,-625.44 1847.04,-648.26 1867.34,-660.37"/>
<polygon fill="midnightblue" stroke="midnightblue" points="1543.02,-270.41 1532.42,-270.59 1540.82,-277.05 1543.02,-270.41"/>
</g>
<!-- Node27 -->
<g id="node27" class="node">
<title>Node27</title>
<g id="a_node27"><a xlink:title=" ">
<polygon fill="white" stroke="#bfbfbf" points="1120.5,-38.5 1120.5,-57.5 1162.5,-57.5 1162.5,-38.5 1120.5,-38.5"/>
<text text-anchor="middle" x="1141.5" y="-45.5" font-family="Helvetica,sans-Serif" font-size="10.00">SNES</text>
</a>
</g>
</g>
<!-- Node27&#45;&gt;Node26 -->
<g id="edge29" class="edge">
<title>Node27&#45;&gt;Node26</title>
<path fill="none" stroke="#9a32cd" stroke-dasharray="5,2" d="M1172.57,-45.92C1232.97,-42.45 1365.92,-38.57 1397,-69 1424.62,-96.04 1389.4,-213.04 1415,-242 1421.33,-249.16 1429.76,-253.9 1438.82,-257"/>
<polygon fill="#9a32cd" stroke="#9a32cd" points="1172.28,-42.43 1162.51,-46.54 1172.71,-49.42 1172.28,-42.43"/>
<text text-anchor="middle" x="1329" y="-72" font-family="Helvetica,sans-Serif" font-size="10.00"> snes</text>
</g>
<!-- Node28 -->
<g id="node28" class="node">
<title>Node28</title>
<g id="a_node28"><a xlink:title=" ">
<polygon fill="white" stroke="#bfbfbf" points="1101.5,-134.5 1101.5,-153.5 1181.5,-153.5 1181.5,-134.5 1101.5,-134.5"/>
<text text-anchor="middle" x="1141.5" y="-141.5" font-family="Helvetica,sans-Serif" font-size="10.00">SNESContext</text>
</a>
</g>
</g>
<!-- Node28&#45;&gt;Node26 -->
<g id="edge32" class="edge">
<title>Node28&#45;&gt;Node26</title>
<path fill="none" stroke="#9a32cd" stroke-dasharray="5,2" d="M1191.53,-132.58C1248.06,-122.55 1340.43,-116.2 1397,-165 1423.61,-187.95 1390.11,-217.19 1415,-242 1421.56,-248.54 1429.89,-253.01 1438.71,-256.03"/>
<polygon fill="#9a32cd" stroke="#9a32cd" points="1190.59,-129.2 1181.41,-134.49 1191.89,-136.08 1190.59,-129.2"/>
<text text-anchor="middle" x="1329" y="-168" font-family="Helvetica,sans-Serif" font-size="10.00"> snes_ctx</text>
</g>
<!-- Node29&#45;&gt;Node14 -->
<g id="edge33" class="edge">
<title>Node29&#45;&gt;Node14</title>
<path fill="none" stroke="midnightblue" d="M1549.66,-589.97C1627.07,-608.45 1774.12,-643.54 1844.93,-660.44"/>
<polygon fill="midnightblue" stroke="midnightblue" points="1550.2,-586.5 1539.66,-587.59 1548.58,-593.31 1550.2,-586.5"/>
</g>
<!-- Node30 -->
<g id="node30" class="node">
<title>Node30</title>
<g id="a_node30"><a xlink:title=" ">
<polygon fill="white" stroke="#bfbfbf" points="1109,-545.5 1109,-564.5 1174,-564.5 1174,-545.5 1109,-545.5"/>
<text text-anchor="middle" x="1141.5" y="-552.5" font-family="Helvetica,sans-Serif" font-size="10.00">PetscReal</text>
</a>
</g>
</g>
<!-- Node30&#45;&gt;Node29 -->
<g id="edge36" class="edge">
<title>Node30&#45;&gt;Node29</title>
<path fill="none" stroke="#9a32cd" stroke-dasharray="5,2" d="M1184.02,-547.64C1234.68,-539.9 1322.74,-530.44 1397,-543 1425.42,-547.81 1456.52,-559.75 1476.48,-568.35"/>
<polygon fill="#9a32cd" stroke="#9a32cd" points="1183.44,-544.19 1174.1,-549.21 1184.53,-551.1 1183.44,-544.19"/>
<text text-anchor="middle" x="1329" y="-579" font-family="Helvetica,sans-Serif" font-size="10.00"> ts_a</text>
<text text-anchor="middle" x="1329" y="-568" font-family="Helvetica,sans-Serif" font-size="10.00">ts_t</text>
<text text-anchor="middle" x="1329" y="-557" font-family="Helvetica,sans-Serif" font-size="10.00">ts_dt</text>
<text text-anchor="middle" x="1329" y="-546" font-family="Helvetica,sans-Serif" font-size="10.00">ts_aa</text>
</g>
<!-- Node31 -->
<g id="node31" class="node">
<title>Node31</title>
<g id="a_node31"><a xlink:title=" ">
<polygon fill="white" stroke="#bfbfbf" points="1108,-507.5 1108,-526.5 1175,-526.5 1175,-507.5 1108,-507.5"/>
<text text-anchor="middle" x="1141.5" y="-514.5" font-family="Helvetica,sans-Serif" font-size="10.00">TSContext</text>
</a>
</g>
</g>
<!-- Node31&#45;&gt;Node29 -->
<g id="edge37" class="edge">
<title>Node31&#45;&gt;Node29</title>
<path fill="none" stroke="#9a32cd" stroke-dasharray="5,2" d="M1185.43,-511.31C1236.76,-505.94 1324.8,-501.34 1397,-521 1431.84,-530.49 1467.37,-554.81 1485.4,-568.42"/>
<polygon fill="#9a32cd" stroke="#9a32cd" points="1184.92,-507.84 1175.36,-512.42 1185.68,-514.8 1184.92,-507.84"/>
<text text-anchor="middle" x="1329" y="-524" font-family="Helvetica,sans-Serif" font-size="10.00"> ts_ctx</text>
</g>
<!-- Node32 -->
<g id="node32" class="node">
<title>Node32</title>
<g id="a_node32"><a xlink:title=" ">
<polygon fill="white" stroke="#bfbfbf" points="1113.5,-701.5 1113.5,-720.5 1169.5,-720.5 1169.5,-701.5 1113.5,-701.5"/>
<text text-anchor="middle" x="1141.5" y="-708.5" font-family="Helvetica,sans-Serif" font-size="10.00">PetscInt</text>
</a>
</g>
</g>
<!-- Node32&#45;&gt;Node29 -->
<g id="edge38" class="edge">
<title>Node32&#45;&gt;Node29</title>
<path fill="none" stroke="#9a32cd" stroke-dasharray="5,2" d="M1179.63,-706.02C1199.17,-702.46 1223.12,-696.55 1243,-687 1252.14,-682.61 1251.72,-677.08 1261,-673 1317.12,-648.32 1340.41,-673.57 1397,-650 1434.05,-634.57 1470.6,-603.26 1487.61,-587.51"/>
<polygon fill="#9a32cd" stroke="#9a32cd" points="1178.85,-702.61 1169.57,-707.73 1180.02,-709.51 1178.85,-702.61"/>
<text text-anchor="middle" x="1329" y="-676" font-family="Helvetica,sans-Serif" font-size="10.00"> ts_step</text>
</g>
<!-- Node33 -->
<g id="node33" class="node">
<title>Node33</title>
<g id="a_node33"><a xlink:title=" ">
<polygon fill="white" stroke="#bfbfbf" points="1127,-583.5 1127,-602.5 1156,-602.5 1156,-583.5 1127,-583.5"/>
<text text-anchor="middle" x="1141.5" y="-590.5" font-family="Helvetica,sans-Serif" font-size="10.00">TS</text>
</a>
</g>
</g>
<!-- Node33&#45;&gt;Node29 -->
<g id="edge40" class="edge">
<title>Node33&#45;&gt;Node29</title>
<path fill="none" stroke="#9a32cd" stroke-dasharray="5,2" d="M1166.25,-593.77C1211.3,-595.01 1312.27,-596.79 1397,-591 1412.62,-589.93 1429.53,-588.04 1444.94,-586.02"/>
<polygon fill="#9a32cd" stroke="#9a32cd" points="1166.14,-590.26 1156.04,-593.47 1165.93,-597.26 1166.14,-590.26"/>
<text text-anchor="middle" x="1329" y="-598" font-family="Helvetica,sans-Serif" font-size="10.00"> ts</text>
</g>
<!-- Node34 -->
<g id="node34" class="node">
<title>Node34</title>
<g id="a_node34"><a xlink:title=" ">
<polygon fill="white" stroke="#bfbfbf" points="1454,-213.5 1454,-232.5 1543,-232.5 1543,-213.5 1454,-213.5"/>
<text text-anchor="middle" x="1498.5" y="-220.5" font-family="Helvetica,sans-Serif" font-size="10.00">pair&lt; int, int &gt;</text>
</a>
</g>
</g>
<!-- Node34&#45;&gt;Node14 -->
<g id="edge42" class="edge">
<title>Node34&#45;&gt;Node14</title>
<path fill="none" stroke="#9a32cd" stroke-dasharray="5,2" d="M1553.21,-217.03C1618.03,-213.15 1725.25,-218.02 1781,-283 1803.68,-309.44 1783.57,-564.77 1799,-596 1813.66,-625.67 1846.11,-648.27 1866.7,-660.3"/>
<polygon fill="#9a32cd" stroke="#9a32cd" points="1552.92,-213.54 1543.19,-217.72 1553.4,-220.52 1552.92,-213.54"/>
<text text-anchor="middle" x="1690.5" y="-286" font-family="Helvetica,sans-Serif" font-size="10.00"> loHiFERank</text>
</g>
<!-- Node35 -->
<g id="node35" class="node">
<title>Node35</title>
<g id="a_node35"><a xlink:title=" ">
<polygon fill="white" stroke="#bfbfbf" points="1428.5,-175.5 1428.5,-194.5 1568.5,-194.5 1568.5,-175.5 1428.5,-175.5"/>
<text text-anchor="middle" x="1498.5" y="-182.5" font-family="Helvetica,sans-Serif" font-size="10.00">weak_ptr&lt; CacheTuple &gt;</text>
</a>
</g>
</g>
<!-- Node35&#45;&gt;Node14 -->
<g id="edge43" class="edge">
<title>Node35&#45;&gt;Node14</title>
<path fill="none" stroke="#9a32cd" stroke-dasharray="5,2" d="M1539.48,-172.87C1600.91,-156.98 1718.01,-138.08 1781,-202 1811.76,-233.21 1779.82,-556.6 1799,-596 1813.48,-625.75 1845.99,-648.33 1866.63,-660.33"/>
<polygon fill="#9a32cd" stroke="#9a32cd" points="1538.5,-169.5 1529.75,-175.48 1540.32,-176.27 1538.5,-169.5"/>
<text text-anchor="middle" x="1690.5" y="-205" font-family="Helvetica,sans-Serif" font-size="10.00"> cacheWeakPtr</text>
</g>
<!-- Node36 -->
<g id="node36" class="node">
<title>Node36</title>
<g id="a_node36"><a xlink:title=" ">
<polygon fill="white" stroke="#bfbfbf" points="1442.5,-978.5 1442.5,-997.5 1554.5,-997.5 1554.5,-978.5 1442.5,-978.5"/>
<text text-anchor="middle" x="1498.5" y="-985.5" font-family="Helvetica,sans-Serif" font-size="10.00">unique_ptr&lt; bool &gt;</text>
</a>
</g>
</g>
<!-- Node36&#45;&gt;Node14 -->
<g id="edge44" class="edge">
<title>Node36&#45;&gt;Node14</title>
<path fill="none" stroke="#9a32cd" stroke-dasharray="5,2" d="M1564.81,-996.44C1629.87,-1000.81 1727.56,-995.64 1781,-936 1817.58,-895.18 1763.37,-731.65 1799,-690 1805.78,-682.08 1815.02,-676.96 1824.94,-673.7"/>
<polygon fill="#9a32cd" stroke="#9a32cd" points="1564.9,-992.94 1554.66,-995.67 1564.36,-999.92 1564.9,-992.94"/>
<text text-anchor="middle" x="1690.5" y="-1011" font-family="Helvetica,sans-Serif" font-size="10.00"> matAssembleSwitch</text>
<text text-anchor="middle" x="1690.5" y="-1000" font-family="Helvetica,sans-Serif" font-size="10.00">vecAssembleSwitch</text>
</g>
<!-- Node37 -->
<g id="node37" class="node">
<title>Node37</title>
<g id="a_node37"><a xlink:title=" ">
<polygon fill="white" stroke="#bfbfbf" points="1127,-739.5 1127,-758.5 1156,-758.5 1156,-739.5 1127,-739.5"/>
<text text-anchor="middle" x="1141.5" y="-746.5" font-family="Helvetica,sans-Serif" font-size="10.00">int</text>
</a>
</g>
</g>
<!-- Node37&#45;&gt;Node14 -->
<g id="edge45" class="edge">
<title>Node37&#45;&gt;Node14</title>
<path fill="none" stroke="#9a32cd" stroke-dasharray="5,2" d="M1166.08,-748.44C1187.31,-747.06 1218.8,-742.79 1243,-730 1253,-724.71 1250.7,-716.68 1261,-712 1311.45,-689.09 1678.18,-676.01 1824.73,-671.65"/>
<polygon fill="#9a32cd" stroke="#9a32cd" points="1165.83,-744.95 1156.01,-748.93 1166.16,-751.94 1165.83,-744.95"/>
<text text-anchor="middle" x="1498.5" y="-726" font-family="Helvetica,sans-Serif" font-size="10.00"> sIze</text>
<text text-anchor="middle" x="1498.5" y="-715" font-family="Helvetica,sans-Serif" font-size="10.00">loopSize</text>
<text text-anchor="middle" x="1498.5" y="-704" font-family="Helvetica,sans-Serif" font-size="10.00">nInTheLoop</text>
<text text-anchor="middle" x="1498.5" y="-693" font-family="Helvetica,sans-Serif" font-size="10.00">rAnk</text>
</g>
<!-- Node37&#45;&gt;Node39 -->
<g id="edge57" class="edge">
<title>Node37&#45;&gt;Node39</title>
<path fill="none" stroke="#9a32cd" stroke-dasharray="5,2" d="M1166.16,-743.81C1189.97,-738.86 1227.83,-731.78 1261,-729 1321.23,-723.95 1348.51,-692.92 1397,-729 1419.34,-745.62 1404.61,-763.17 1415,-789 1439.03,-848.73 1477.48,-916.04 1491.84,-940.49"/>
<polygon fill="#9a32cd" stroke="#9a32cd" points="1165.33,-740.41 1156.27,-745.9 1166.78,-747.25 1165.33,-740.41"/>
<text text-anchor="middle" x="1329" y="-798" font-family="Helvetica,sans-Serif" font-size="10.00"> tagNameSize</text>
<text text-anchor="middle" x="1329" y="-787" font-family="Helvetica,sans-Serif" font-size="10.00">nbDofsRow</text>
<text text-anchor="middle" x="1329" y="-776" font-family="Helvetica,sans-Serif" font-size="10.00">nbLocDofsCol</text>
<text text-anchor="middle" x="1329" y="-765" font-family="Helvetica,sans-Serif" font-size="10.00">nbDofsCol</text>
<text text-anchor="middle" x="1329" y="-754" font-family="Helvetica,sans-Serif" font-size="10.00">nbGhostDofsRow</text>
<text text-anchor="middle" x="1329" y="-743" font-family="Helvetica,sans-Serif" font-size="10.00">nbGhostDofsCol</text>
<text text-anchor="middle" x="1329" y="-732" font-family="Helvetica,sans-Serif" font-size="10.00">nbLocDofsRow</text>
</g>
<!-- Node38 -->
<g id="node38" class="node">
<title>Node38</title>
<g id="a_node38"><a xlink:title=" ">
<polygon fill="white" stroke="#bfbfbf" points="1415,-760.5 1415,-779.5 1582,-779.5 1582,-760.5 1415,-760.5"/>
<text text-anchor="middle" x="1498.5" y="-767.5" font-family="Helvetica,sans-Serif" font-size="10.00">function&lt; MoFEMErrorCode()&gt;</text>
</a>
</g>
</g>
<!-- Node38&#45;&gt;Node14 -->
<g id="edge46" class="edge">
<title>Node38&#45;&gt;Node14</title>
<path fill="none" stroke="#9a32cd" stroke-dasharray="5,2" d="M1592.36,-766.52C1650.18,-760.72 1724.11,-746.42 1781,-712 1791.81,-705.46 1788.27,-696.68 1799,-690 1806.81,-685.14 1815.68,-681.46 1824.69,-678.67"/>
<polygon fill="#9a32cd" stroke="#9a32cd" points="1591.76,-763.06 1582.13,-767.48 1592.41,-770.03 1591.76,-763.06"/>
<text text-anchor="middle" x="1690.5" y="-790" font-family="Helvetica,sans-Serif" font-size="10.00"> preProcessHook</text>
<text text-anchor="middle" x="1690.5" y="-779" font-family="Helvetica,sans-Serif" font-size="10.00">operatorHook</text>
<text text-anchor="middle" x="1690.5" y="-768" font-family="Helvetica,sans-Serif" font-size="10.00">postProcessHook</text>
</g>
<!-- Node39&#45;&gt;Node14 -->
<g id="edge47" class="edge">
<title>Node39&#45;&gt;Node14</title>
<path fill="none" stroke="#9a32cd" stroke-dasharray="5,2" d="M1552.05,-937.73C1616.91,-919.67 1725.42,-879.36 1781,-802 1810.42,-761.06 1764.6,-726.86 1799,-690 1805.9,-682.6 1814.96,-677.69 1824.61,-674.47"/>
<polygon fill="#9a32cd" stroke="#9a32cd" points="1550.77,-934.45 1542.03,-940.44 1552.59,-941.21 1550.77,-934.45"/>
<text text-anchor="middle" x="1690.5" y="-924" font-family="Helvetica,sans-Serif" font-size="10.00"> problemPtr</text>
</g>
<!-- Node40 -->
<g id="node40" class="node">
<title>Node40</title>
<g id="a_node40"><a xlink:title=" ">
<polygon fill="white" stroke="#bfbfbf" points="1058,-908 1058,-938 1225,-938 1225,-908 1058,-908"/>
<text text-anchor="start" x="1066" y="-926" font-family="Helvetica,sans-Serif" font-size="10.00">shared_ptr&lt; NumeredEntFinite</text>
<text text-anchor="middle" x="1141.5" y="-915" font-family="Helvetica,sans-Serif" font-size="10.00">Element_multiIndex &gt;</text>
</a>
</g>
</g>
<!-- Node40&#45;&gt;Node39 -->
<g id="edge48" class="edge">
<title>Node40&#45;&gt;Node39</title>
<path fill="none" stroke="#9a32cd" stroke-dasharray="5,2" d="M1235.19,-928.47C1283.46,-931.5 1343.44,-935.55 1397,-940 1413.95,-941.41 1432.48,-943.19 1448.97,-944.85"/>
<polygon fill="#9a32cd" stroke="#9a32cd" points="1235.27,-924.96 1225.07,-927.83 1234.84,-931.95 1235.27,-924.96"/>
<text text-anchor="middle" x="1329" y="-943" font-family="Helvetica,sans-Serif" font-size="10.00"> numeredFiniteElementsPtr</text>
</g>
<!-- Node41 -->
<g id="node41" class="node">
<title>Node41</title>
<g id="a_node41"><a xlink:title=" ">
<polygon fill="white" stroke="#bfbfbf" points="1112,-869.5 1112,-888.5 1171,-888.5 1171,-869.5 1112,-869.5"/>
<text text-anchor="middle" x="1141.5" y="-876.5" font-family="Helvetica,sans-Serif" font-size="10.00">BitFEId *</text>
</a>
</g>
</g>
<!-- Node41&#45;&gt;Node39 -->
<g id="edge49" class="edge">
<title>Node41&#45;&gt;Node39</title>
<path fill="none" stroke="#9a32cd" stroke-dasharray="5,2" d="M1181.19,-882.11C1231.45,-886.69 1321.69,-896.74 1397,-915 1424.11,-921.57 1454.21,-932.57 1474.33,-940.48"/>
<polygon fill="#9a32cd" stroke="#9a32cd" points="1181.36,-878.61 1171.09,-881.22 1180.74,-885.59 1181.36,-878.61"/>
<text text-anchor="middle" x="1329" y="-918" font-family="Helvetica,sans-Serif" font-size="10.00"> tagBitFEId</text>
</g>
<!-- Node42 -->
<g id="node42" class="node">
<title>Node42</title>
<g id="a_node42"><a xlink:href="classEntityHandle.html" target="_top" xlink:title=" ">
<polygon fill="white" stroke="black" points="1101.5,-831.5 1101.5,-850.5 1181.5,-850.5 1181.5,-831.5 1101.5,-831.5"/>
<text text-anchor="middle" x="1141.5" y="-838.5" font-family="Helvetica,sans-Serif" font-size="10.00">EntityHandle</text>
</a>
</g>
</g>
<!-- Node42&#45;&gt;Node39 -->
<g id="edge50" class="edge">
<title>Node42&#45;&gt;Node39</title>
<path fill="none" stroke="#9a32cd" stroke-dasharray="5,2" d="M1191.62,-840.66C1244.27,-841.89 1329.4,-848.55 1397,-876 1434.74,-891.32 1471.25,-924.05 1487.98,-940.35"/>
<polygon fill="#9a32cd" stroke="#9a32cd" points="1191.59,-837.16 1181.53,-840.48 1191.47,-844.16 1191.59,-837.16"/>
<text text-anchor="middle" x="1329" y="-879" font-family="Helvetica,sans-Serif" font-size="10.00"> meshset</text>
</g>
<!-- Node43 -->
<g id="node43" class="node">
<title>Node43</title>
<g id="a_node43"><a xlink:title=" ">
<polygon fill="white" stroke="#bfbfbf" points="1067,-782 1067,-812 1216,-812 1216,-782 1067,-782"/>
<text text-anchor="start" x="1075" y="-800" font-family="Helvetica,sans-Serif" font-size="10.00">shared_ptr&lt; MoFEM::</text>
<text text-anchor="middle" x="1141.5" y="-789" font-family="Helvetica,sans-Serif" font-size="10.00">ComposedProblemsData &gt;</text>
</a>
</g>
</g>
<!-- Node43&#45;&gt;Node39 -->
<g id="edge51" class="edge">
<title>Node43&#45;&gt;Node39</title>
<path fill="none" stroke="#9a32cd" stroke-dasharray="5,2" d="M1226.38,-806.4C1297.59,-814.61 1389.42,-825.85 1397,-830 1445.62,-856.64 1480.57,-917.02 1492.76,-940.46"/>
<polygon fill="#9a32cd" stroke="#9a32cd" points="1226.37,-802.88 1216.04,-805.21 1225.57,-809.83 1226.37,-802.88"/>
<text text-anchor="middle" x="1329" y="-833" font-family="Helvetica,sans-Serif" font-size="10.00"> composedProblemsData</text>
</g>
<!-- Node44 -->
<g id="node44" class="node">
<title>Node44</title>
<g id="a_node44"><a xlink:title=" ">
<polygon fill="white" stroke="#bfbfbf" points="1101,-1171.5 1101,-1190.5 1182,-1190.5 1182,-1171.5 1101,-1171.5"/>
<text text-anchor="middle" x="1141.5" y="-1178.5" font-family="Helvetica,sans-Serif" font-size="10.00">BitRefLevel *</text>
</a>
</g>
</g>
<!-- Node44&#45;&gt;Node39 -->
<g id="edge52" class="edge">
<title>Node44&#45;&gt;Node39</title>
<path fill="none" stroke="#9a32cd" stroke-dasharray="5,2" d="M1192.19,-1173.38C1265.75,-1162.04 1395.24,-1141.86 1397,-1140 1449.53,-1084.5 1364.34,-1026.22 1415,-969 1423.57,-959.32 1436,-954.04 1448.62,-951.3"/>
<polygon fill="#9a32cd" stroke="#9a32cd" points="1191.55,-1169.94 1182.2,-1174.92 1192.61,-1176.85 1191.55,-1169.94"/>
<text text-anchor="middle" x="1329" y="-1176" font-family="Helvetica,sans-Serif" font-size="10.00"> tagBitRefLevelMask</text>
<text text-anchor="middle" x="1329" y="-1165" font-family="Helvetica,sans-Serif" font-size="10.00">tagBitRefLevel</text>
</g>
<!-- Node45 -->
<g id="node45" class="node">
<title>Node45</title>
<g id="a_node45"><a xlink:title=" ">
<polygon fill="white" stroke="#bfbfbf" points="1056.5,-1122 1056.5,-1152 1226.5,-1152 1226.5,-1122 1056.5,-1122"/>
<text text-anchor="start" x="1064.5" y="-1140" font-family="Helvetica,sans-Serif" font-size="10.00">shared_ptr&lt; NumeredDofEntity</text>
<text text-anchor="middle" x="1141.5" y="-1129" font-family="Helvetica,sans-Serif" font-size="10.00">_multiIndex &gt;</text>
</a>
</g>
</g>
<!-- Node45&#45;&gt;Node39 -->
<g id="edge53" class="edge">
<title>Node45&#45;&gt;Node39</title>
<path fill="none" stroke="#9a32cd" stroke-dasharray="5,2" d="M1236.62,-1121.79C1308.8,-1110.08 1396.27,-1095.75 1397,-1095 1436.56,-1054.57 1376.72,-1010.65 1415,-969 1423.75,-959.48 1436.23,-954.25 1448.85,-951.5"/>
<polygon fill="#9a32cd" stroke="#9a32cd" points="1235.86,-1118.37 1226.55,-1123.42 1236.98,-1125.28 1235.86,-1118.37"/>
<text text-anchor="middle" x="1329" y="-1131" font-family="Helvetica,sans-Serif" font-size="10.00"> numeredRowDofsPtr</text>
<text text-anchor="middle" x="1329" y="-1120" font-family="Helvetica,sans-Serif" font-size="10.00">numeredColDofsPtr</text>
</g>
<!-- Node46 -->
<g id="node46" class="node">
<title>Node46</title>
<g id="a_node46"><a xlink:title=" ">
<polygon fill="white" stroke="#bfbfbf" points="1072.5,-1083.5 1072.5,-1102.5 1210.5,-1102.5 1210.5,-1083.5 1072.5,-1083.5"/>
<text text-anchor="middle" x="1141.5" y="-1090.5" font-family="Helvetica,sans-Serif" font-size="10.00">vector&lt; BlockFieldPair &gt;</text>
</a>
</g>
</g>
<!-- Node46&#45;&gt;Node39 -->
<g id="edge55" class="edge">
<title>Node46&#45;&gt;Node39</title>
<path fill="none" stroke="#9a32cd" stroke-dasharray="5,2" d="M1220.64,-1085.4C1293.03,-1078.02 1390.5,-1067.07 1397,-1061 1427.45,-1032.56 1386.03,-998.95 1415,-969 1423.89,-959.81 1436.27,-954.67 1448.73,-951.89"/>
<polygon fill="#9a32cd" stroke="#9a32cd" points="1220.2,-1081.93 1210.6,-1086.42 1220.9,-1088.89 1220.2,-1081.93"/>
<text text-anchor="middle" x="1329" y="-1083" font-family="Helvetica,sans-Serif" font-size="10.00"> emptyFieldBlocks</text>
</g>
<!-- Node47 -->
<g id="node47" class="node">
<title>Node47</title>
<g id="a_node47"><a xlink:title=" ">
<polygon fill="white" stroke="#bfbfbf" points="1063.5,-1034 1063.5,-1064 1219.5,-1064 1219.5,-1034 1063.5,-1034"/>
<text text-anchor="start" x="1071.5" y="-1052" font-family="Helvetica,sans-Serif" font-size="10.00">shared_ptr&lt; MoFEM::</text>
<text text-anchor="middle" x="1141.5" y="-1041" font-family="Helvetica,sans-Serif" font-size="10.00">Problem::SubProblemData &gt;</text>
</a>
</g>
</g>
<!-- Node47&#45;&gt;Node39 -->
<g id="edge56" class="edge">
<title>Node47&#45;&gt;Node39</title>
<path fill="none" stroke="#9a32cd" stroke-dasharray="5,2" d="M1229.76,-1049.94C1293.05,-1048.84 1371.79,-1043.2 1397,-1023 1416.74,-1007.18 1396.28,-986.02 1415,-969 1424.25,-960.6 1436.45,-955.68 1448.62,-952.86"/>
<polygon fill="#9a32cd" stroke="#9a32cd" points="1229.7,-1046.44 1219.75,-1050.08 1229.8,-1053.44 1229.7,-1046.44"/>
<text text-anchor="middle" x="1329" y="-1051" font-family="Helvetica,sans-Serif" font-size="10.00"> subProblemData</text>
</g>
<!-- Node48 -->
<g id="node48" class="node">
<title>Node48</title>
<g id="a_node48"><a xlink:title=" ">
<polygon fill="white" stroke="#bfbfbf" points="1040,-995.5 1040,-1014.5 1243,-1014.5 1243,-995.5 1040,-995.5"/>
<text text-anchor="middle" x="1141.5" y="-1002.5" font-family="Helvetica,sans-Serif" font-size="10.00">shared_ptr&lt; SequenceDofContainer &gt;</text>
</a>
</g>
</g>
<!-- Node48&#45;&gt;Node39 -->
<g id="edge58" class="edge">
<title>Node48&#45;&gt;Node39</title>
<path fill="none" stroke="#9a32cd" stroke-dasharray="5,2" d="M1253.36,-998.61C1298.4,-994.4 1350.64,-987.45 1397,-976 1405.33,-973.94 1406.8,-971.53 1415,-969 1426.38,-965.5 1438.82,-962.31 1450.5,-959.59"/>
<polygon fill="#9a32cd" stroke="#9a32cd" points="1252.92,-995.13 1243.27,-999.51 1253.55,-1002.1 1252.92,-995.13"/>
<text text-anchor="middle" x="1329" y="-1011" font-family="Helvetica,sans-Serif" font-size="10.00"> sequenceRowDofContainer</text>
<text text-anchor="middle" x="1329" y="-1000" font-family="Helvetica,sans-Serif" font-size="10.00">sequenceColDofContainer</text>
</g>
<!-- Node49 -->
<g id="node49" class="node">
<title>Node49</title>
<g id="a_node49"><a xlink:title=" ">
<polygon fill="white" stroke="#bfbfbf" points="1097.5,-957.5 1097.5,-976.5 1185.5,-976.5 1185.5,-957.5 1097.5,-957.5"/>
<text text-anchor="middle" x="1141.5" y="-964.5" font-family="Helvetica,sans-Serif" font-size="10.00">BitProblemId *</text>
</a>
</g>
</g>
<!-- Node49&#45;&gt;Node39 -->
<g id="edge59" class="edge">
<title>Node49&#45;&gt;Node39</title>
<path fill="none" stroke="#9a32cd" stroke-dasharray="5,2" d="M1195.84,-964.45C1264.48,-961.16 1382.73,-955.5 1448.96,-952.32"/>
<polygon fill="#9a32cd" stroke="#9a32cd" points="1195.5,-960.96 1185.68,-964.93 1195.83,-967.95 1195.5,-960.96"/>
<text text-anchor="middle" x="1329" y="-964" font-family="Helvetica,sans-Serif" font-size="10.00"> tagId</text>
</g>
<!-- Node50 -->
<g id="node50" class="node">
<title>Node50</title>
<g id="a_node50"><a xlink:title=" ">
<polygon fill="white" stroke="#bfbfbf" points="1805,-748 1805,-778 1967,-778 1967,-748 1805,-748"/>
<text text-anchor="start" x="1813" y="-766" font-family="Helvetica,sans-Serif" font-size="10.00">shared_ptr&lt; const MoFEM</text>
<text text-anchor="middle" x="1886" y="-755" font-family="Helvetica,sans-Serif" font-size="10.00">::NumeredEntFiniteElement &gt;</text>
</a>
</g>
</g>
<!-- Node50&#45;&gt;Node13 -->
<g id="edge60" class="edge">
<title>Node50&#45;&gt;Node13</title>
<path fill="none" stroke="#9a32cd" stroke-dasharray="5,2" d="M1977.26,-757.5C1981.9,-757.31 1986.51,-757.14 1991,-757 2064.3,-754.75 2149.1,-754.92 2202.39,-755.37"/>
<polygon fill="#9a32cd" stroke="#9a32cd" points="1976.88,-754.01 1967.04,-757.95 1977.18,-761 1976.88,-754.01"/>
<text text-anchor="middle" x="2063" y="-760" font-family="Helvetica,sans-Serif" font-size="10.00"> numeredEntFiniteElementPtr</text>
</g>
<!-- Node51 -->
<g id="node51" class="node">
<title>Node51</title>
<g id="a_node51"><a xlink:title=" ">
<polygon fill="white" stroke="#bfbfbf" points="1864,-802.5 1864,-821.5 1908,-821.5 1908,-802.5 1864,-802.5"/>
<text text-anchor="middle" x="1886" y="-809.5" font-family="Helvetica,sans-Serif" font-size="10.00">string</text>
</a>
</g>
</g>
<!-- Node51&#45;&gt;Node4 -->
<g id="edge83" class="edge">
<title>Node51&#45;&gt;Node4</title>
<path fill="none" stroke="#9a32cd" stroke-dasharray="5,2" d="M1918.25,-812.92C2028.8,-816.31 2411.69,-829.07 2727,-852 2762.95,-854.61 2802.56,-858.34 2836.57,-861.8"/>
<polygon fill="#9a32cd" stroke="#9a32cd" points="1918.22,-809.42 1908.12,-812.62 1918.01,-816.42 1918.22,-809.42"/>
<text text-anchor="middle" x="2458" y="-853" font-family="Helvetica,sans-Serif" font-size="10.00"> colFieldName</text>
<text text-anchor="middle" x="2458" y="-842" font-family="Helvetica,sans-Serif" font-size="10.00">rowFieldName</text>
</g>
<!-- Node51&#45;&gt;Node13 -->
<g id="edge61" class="edge">
<title>Node51&#45;&gt;Node13</title>
<path fill="none" stroke="#9a32cd" stroke-dasharray="5,2" d="M1917.83,-805.21C1938.48,-800.8 1966.29,-795.13 1991,-791 2063.96,-778.81 2148.85,-768.19 2202.25,-761.93"/>
<polygon fill="#9a32cd" stroke="#9a32cd" points="1917.07,-801.79 1908.04,-807.32 1918.55,-808.63 1917.07,-801.79"/>
<text text-anchor="middle" x="2063" y="-794" font-family="Helvetica,sans-Serif" font-size="10.00"> feName</text>
</g>
<!-- Node52 -->
<g id="node52" class="node">
<title>Node52</title>
<g id="a_node52"><a xlink:title=" ">
<polygon fill="white" stroke="#bfbfbf" points="1804.5,-699 1804.5,-729 1967.5,-729 1967.5,-699 1804.5,-699"/>
<text text-anchor="start" x="1812.5" y="-717" font-family="Helvetica,sans-Serif" font-size="10.00">function&lt; bool(MoFEM</text>
<text text-anchor="middle" x="1886" y="-706" font-family="Helvetica,sans-Serif" font-size="10.00">::FEMethod *fe_method_ptr)&gt;</text>
</a>
</g>
</g>
<!-- Node52&#45;&gt;Node13 -->
<g id="edge62" class="edge">
<title>Node52&#45;&gt;Node13</title>
<path fill="none" stroke="#9a32cd" stroke-dasharray="5,2" d="M1977.91,-722.91C2024.85,-727.67 2083.04,-733.81 2135,-740 2157.12,-742.63 2181.5,-745.83 2202.47,-748.67"/>
<polygon fill="#9a32cd" stroke="#9a32cd" points="1978.06,-719.41 1967.76,-721.89 1977.36,-726.38 1978.06,-719.41"/>
<text text-anchor="middle" x="2063" y="-743" font-family="Helvetica,sans-Serif" font-size="10.00"> exeTestHook</text>
</g>
<!-- Node53 -->
<g id="node53" class="node">
<title>Node53</title>
<g id="a_node53"><a xlink:href="classdouble.html" target="_top" xlink:title=" ">
<polygon fill="white" stroke="black" points="2231,-708.5 2231,-727.5 2281,-727.5 2281,-708.5 2231,-708.5"/>
<text text-anchor="middle" x="2256" y="-715.5" font-family="Helvetica,sans-Serif" font-size="10.00">double</text>
</a>
</g>
</g>
<!-- Node53&#45;&gt;Node12 -->
<g id="edge63" class="edge">
<title>Node53&#45;&gt;Node12</title>
<path fill="none" stroke="#9a32cd" stroke-dasharray="5,2" d="M2291.64,-718.66C2357.48,-719.34 2497.81,-717.83 2539,-694 2595.19,-661.49 2627.62,-584.08 2637.63,-556.76"/>
<polygon fill="#9a32cd" stroke="#9a32cd" points="2291.41,-715.16 2281.37,-718.53 2291.32,-722.16 2291.41,-715.16"/>
<text text-anchor="middle" x="2458" y="-720" font-family="Helvetica,sans-Serif" font-size="10.00"> elementMeasure</text>
</g>
<!-- Node54 -->
<g id="node54" class="node">
<title>Node54</title>
<g id="a_node54"><a xlink:title=" ">
<polygon fill="white" stroke="#bfbfbf" points="2170,-648.5 2170,-689.5 2342,-689.5 2342,-648.5 2170,-648.5"/>
<text text-anchor="start" x="2178" y="-677.5" font-family="Helvetica,sans-Serif" font-size="10.00">array&lt; boost::shared</text>
<text text-anchor="start" x="2178" y="-666.5" font-family="Helvetica,sans-Serif" font-size="10.00">_ptr&lt; MoFEM::EntitiesFieldData</text>
<text text-anchor="middle" x="2256" y="-655.5" font-family="Helvetica,sans-Serif" font-size="10.00"> &gt;, LASTSPACE &gt;</text>
</a>
</g>
</g>
<!-- Node54&#45;&gt;Node12 -->
<g id="edge64" class="edge">
<title>Node54&#45;&gt;Node12</title>
<path fill="none" stroke="#9a32cd" stroke-dasharray="5,2" d="M2352.11,-670.69C2408.56,-668.46 2480.33,-659.84 2539,-634 2580.32,-615.8 2617.59,-575.22 2633.22,-556.63"/>
<polygon fill="#9a32cd" stroke="#9a32cd" points="2351.99,-667.19 2342.11,-671.03 2352.22,-674.19 2351.99,-667.19"/>
<text text-anchor="middle" x="2458" y="-682" font-family="Helvetica,sans-Serif" font-size="10.00"> derivedDataOnElement</text>
<text text-anchor="middle" x="2458" y="-671" font-family="Helvetica,sans-Serif" font-size="10.00">dataOnElement</text>
</g>
<!-- Node55 -->
<g id="node55" class="node">
<title>Node55</title>
<g id="a_node55"><a xlink:title=" ">
<polygon fill="white" stroke="#bfbfbf" points="2222,-610.5 2222,-629.5 2290,-629.5 2290,-610.5 2222,-610.5"/>
<text text-anchor="middle" x="2256" y="-617.5" font-family="Helvetica,sans-Serif" font-size="10.00">EntityType</text>
</a>
</g>
</g>
<!-- Node55&#45;&gt;Node12 -->
<g id="edge65" class="edge">
<title>Node55&#45;&gt;Node12</title>
<path fill="none" stroke="#9a32cd" stroke-dasharray="5,2" d="M2300.53,-621.12C2356.66,-621.48 2456.84,-618.42 2539,-596 2571.41,-587.16 2606.03,-568.26 2625.45,-556.69"/>
<polygon fill="#9a32cd" stroke="#9a32cd" points="2300.28,-617.62 2290.24,-621.01 2300.2,-624.62 2300.28,-617.62"/>
<text text-anchor="middle" x="2458" y="-622" font-family="Helvetica,sans-Serif" font-size="10.00"> lastEvaluatedElementEntityType</text>
</g>
<!-- Node56 -->
<g id="node56" class="node">
<title>Node56</title>
<g id="a_node56"><a xlink:href="structMoFEM_1_1DeprecatedCoreInterface.html" target="_top" xlink:title="Deprecated interface functions.">
<polygon fill="white" stroke="black" points="1600,-68.5 1600,-87.5 1781,-87.5 1781,-68.5 1600,-68.5"/>
<text text-anchor="middle" x="1690.5" y="-75.5" font-family="Helvetica,sans-Serif" font-size="10.00">MoFEM::DeprecatedCoreInterface</text>
</a>
</g>
</g>
<!-- Node56&#45;&gt;Node12 -->
<g id="edge66" class="edge">
<title>Node56&#45;&gt;Node12</title>
<path fill="none" stroke="#9a32cd" stroke-dasharray="5,2" d="M1719.1,-92.91C1740.18,-105.96 1767.8,-127.05 1781,-154 1800.87,-194.55 1766.59,-528.56 1799,-560 1891.21,-649.44 2248.55,-567.11 2377,-568 2449,-568.5 2467.37,-575.3 2539,-568 2560.76,-565.78 2584.74,-560.97 2603.98,-556.51"/>
<polygon fill="#9a32cd" stroke="#9a32cd" points="1720.62,-89.74 1710.23,-87.65 1717.05,-95.76 1720.62,-89.74"/>
<text text-anchor="middle" x="2063" y="-604" font-family="Helvetica,sans-Serif" font-size="10.00"> mField</text>
</g>
<!-- Node57&#45;&gt;Node56 -->
<g id="edge67" class="edge">
<title>Node57&#45;&gt;Node56</title>
<path fill="none" stroke="midnightblue" d="M1214.17,-18.22C1265.18,-24.12 1335.32,-32.36 1397,-40 1472.47,-49.35 1558.8,-60.64 1618.01,-68.47"/>
<polygon fill="midnightblue" stroke="midnightblue" points="1214.57,-14.74 1204.24,-17.07 1213.77,-21.7 1214.57,-14.74"/>
</g>
<!-- Node58 -->
<g id="node58" class="node">
<title>Node58</title>
<g id="a_node58"><a xlink:title=" ">
<polygon fill="white" stroke="#bfbfbf" points="2172.5,-452 2172.5,-504 2339.5,-504 2339.5,-452 2172.5,-452"/>
<text text-anchor="start" x="2180.5" y="-492" font-family="Helvetica,sans-Serif" font-size="10.00">function&lt; MoFEMErrorCode</text>
<text text-anchor="start" x="2180.5" y="-481" font-family="Helvetica,sans-Serif" font-size="10.00">(ForcesAndSourcesCore *fe</text>
<text text-anchor="start" x="2180.5" y="-470" font-family="Helvetica,sans-Serif" font-size="10.00">_raw_ptr, int order_row,</text>
<text text-anchor="middle" x="2256" y="-459" font-family="Helvetica,sans-Serif" font-size="10.00"> int order_col, int order_data)&gt;</text>
</a>
</g>
</g>
<!-- Node58&#45;&gt;Node12 -->
<g id="edge70" class="edge">
<title>Node58&#45;&gt;Node12</title>
<path fill="none" stroke="#9a32cd" stroke-dasharray="5,2" d="M2349.9,-472.39C2405.69,-471.53 2477.55,-474.86 2539,-492 2573.49,-501.62 2609.33,-524.45 2627.97,-537.47"/>
<polygon fill="#9a32cd" stroke="#9a32cd" points="2349.6,-468.9 2339.67,-472.6 2349.74,-475.9 2349.6,-468.9"/>
<text text-anchor="middle" x="2458" y="-495" font-family="Helvetica,sans-Serif" font-size="10.00"> setRuleHook</text>
</g>
<!-- Node59 -->
<g id="node59" class="node">
<title>Node59</title>
<g id="a_node59"><a xlink:title=" ">
<polygon fill="white" stroke="#bfbfbf" points="2155,-403 2155,-433 2357,-433 2357,-403 2155,-403"/>
<text text-anchor="start" x="2163" y="-421" font-family="Helvetica,sans-Serif" font-size="10.00">ptr_deque&lt; MoFEM::Forces</text>
<text text-anchor="middle" x="2256" y="-410" font-family="Helvetica,sans-Serif" font-size="10.00">AndSourcesCore::UserDataOperator &gt;</text>
</a>
</g>
</g>
<!-- Node59&#45;&gt;Node12 -->
<g id="edge71" class="edge">
<title>Node59&#45;&gt;Node12</title>
<path fill="none" stroke="#9a32cd" stroke-dasharray="5,2" d="M2367.45,-418.52C2421.28,-422.39 2485.72,-432.55 2539,-457 2580.86,-476.21 2618.13,-518.37 2633.52,-537.38"/>
<polygon fill="#9a32cd" stroke="#9a32cd" points="2367.39,-415.01 2357.19,-417.84 2366.94,-421.99 2367.39,-415.01"/>
<text text-anchor="middle" x="2458" y="-460" font-family="Helvetica,sans-Serif" font-size="10.00"> opPtrVector</text>
</g>
<!-- Node60 -->
<g id="node60" class="node">
<title>Node60</title>
<g id="a_node60"><a xlink:href="structMoFEM_1_1EntitiesFieldData.html" target="_top" xlink:title="data structure for finite element entity">
<polygon fill="white" stroke="black" points="2185,-523.5 2185,-542.5 2327,-542.5 2327,-523.5 2185,-523.5"/>
<text text-anchor="middle" x="2256" y="-530.5" font-family="Helvetica,sans-Serif" font-size="10.00">MoFEM::EntitiesFieldData</text>
</a>
</g>
</g>
<!-- Node60&#45;&gt;Node12 -->
<g id="edge72" class="edge">
<title>Node60&#45;&gt;Node12</title>
<path fill="none" stroke="#9a32cd" stroke-dasharray="5,2" d="M2311.62,-521.7C2368.68,-511.63 2460.62,-500.28 2539,-513 2567.56,-517.63 2598.93,-529.12 2619.23,-537.46"/>
<polygon fill="#9a32cd" stroke="#9a32cd" points="2310.95,-518.26 2301.73,-523.49 2312.2,-525.15 2310.95,-518.26"/>
<text text-anchor="middle" x="2458" y="-560" font-family="Helvetica,sans-Serif" font-size="10.00"> dataNoField</text>
<text text-anchor="middle" x="2458" y="-549" font-family="Helvetica,sans-Serif" font-size="10.00">dataL2</text>
<text text-anchor="middle" x="2458" y="-538" font-family="Helvetica,sans-Serif" font-size="10.00">dataH1</text>
<text text-anchor="middle" x="2458" y="-527" font-family="Helvetica,sans-Serif" font-size="10.00">dataHcurl</text>
<text text-anchor="middle" x="2458" y="-516" font-family="Helvetica,sans-Serif" font-size="10.00">dataHdiv</text>
</g>
<!-- Node61 -->
<g id="node61" class="node">
<title>Node61</title>
<g id="a_node61"><a xlink:title=" ">
<polygon fill="white" stroke="#bfbfbf" points="1805,-444 1805,-474 1967,-474 1967,-444 1805,-444"/>
<text text-anchor="start" x="1813" y="-462" font-family="Helvetica,sans-Serif" font-size="10.00">array&lt; std::bitset</text>
<text text-anchor="middle" x="1886" y="-451" font-family="Helvetica,sans-Serif" font-size="10.00">&lt; LASTBASE &gt;, LASTSPACE &gt;</text>
</a>
</g>
</g>
<!-- Node61&#45;&gt;Node60 -->
<g id="edge73" class="edge">
<title>Node61&#45;&gt;Node60</title>
<path fill="none" stroke="#9a32cd" stroke-dasharray="5,2" d="M1977.23,-448.54C2027.37,-447.19 2088.77,-453.33 2135,-483 2148.41,-491.61 2139.98,-504.82 2153,-514 2162.42,-520.65 2173.5,-525.16 2184.83,-528.18"/>
<polygon fill="#9a32cd" stroke="#9a32cd" points="1976.9,-445.05 1967.04,-448.92 1977.16,-452.04 1976.9,-445.05"/>
<text text-anchor="middle" x="2063" y="-497" font-family="Helvetica,sans-Serif" font-size="10.00"> brokenBasesOnSpaces</text>
<text text-anchor="middle" x="2063" y="-486" font-family="Helvetica,sans-Serif" font-size="10.00">basesOnSpaces</text>
</g>
<!-- Node62 -->
<g id="node62" class="node">
<title>Node62</title>
<g id="a_node62"><a xlink:title=" ">
<polygon fill="white" stroke="#bfbfbf" points="1809.5,-383.5 1809.5,-424.5 1962.5,-424.5 1962.5,-383.5 1809.5,-383.5"/>
<text text-anchor="start" x="1817.5" y="-412.5" font-family="Helvetica,sans-Serif" font-size="10.00">array&lt; boost::ptr_vector</text>
<text text-anchor="start" x="1817.5" y="-401.5" font-family="Helvetica,sans-Serif" font-size="10.00">&lt; MoFEM::EntitiesFieldData</text>
<text text-anchor="middle" x="1886" y="-390.5" font-family="Helvetica,sans-Serif" font-size="10.00">::EntData &gt;, MBMAXTYPE &gt;</text>
</a>
</g>
</g>
<!-- Node62&#45;&gt;Node60 -->
<g id="edge74" class="edge">
<title>Node62&#45;&gt;Node60</title>
<path fill="none" stroke="#9a32cd" stroke-dasharray="5,2" d="M1972.78,-390.97C2025.85,-387.95 2091.85,-394.05 2135,-433 2162.38,-457.71 2126.48,-488.38 2153,-514 2161.74,-522.45 2172.97,-527.76 2184.76,-531.01"/>
<polygon fill="#9a32cd" stroke="#9a32cd" points="1972.43,-387.49 1962.69,-391.66 1972.91,-394.47 1972.43,-387.49"/>
<text text-anchor="middle" x="2063" y="-436" font-family="Helvetica,sans-Serif" font-size="10.00"> dataOnEntities</text>
</g>
<!-- Node63 -->
<g id="node63" class="node">
<title>Node63</title>
<g id="a_node63"><a xlink:title=" ">
<polygon fill="white" stroke="#bfbfbf" points="1799,-334 1799,-364 1973,-364 1973,-334 1799,-334"/>
<text text-anchor="start" x="1807" y="-352" font-family="Helvetica,sans-Serif" font-size="10.00">array&lt; std::bitset</text>
<text text-anchor="middle" x="1886" y="-341" font-family="Helvetica,sans-Serif" font-size="10.00">&lt; LASTSPACE &gt;, MBMAXTYPE &gt;</text>
</a>
</g>
</g>
<!-- Node63&#45;&gt;Node60 -->
<g id="edge75" class="edge">
<title>Node63&#45;&gt;Node60</title>
<path fill="none" stroke="#9a32cd" stroke-dasharray="5,2" d="M1983.05,-333.32C2034.78,-330.62 2095.83,-337.65 2135,-376 2179.2,-419.27 2110.47,-469.09 2153,-514 2161.55,-523.02 2172.9,-528.56 2184.92,-531.84"/>
<polygon fill="#9a32cd" stroke="#9a32cd" points="1982.59,-329.84 1972.84,-333.98 1983.04,-336.83 1982.59,-329.84"/>
<text text-anchor="middle" x="2063" y="-379" font-family="Helvetica,sans-Serif" font-size="10.00"> spacesOnEntities</text>
</g>
<!-- Node64 -->
<g id="node64" class="node">
<title>Node64</title>
<g id="a_node64"><a xlink:title=" ">
<polygon fill="white" stroke="#bfbfbf" points="1801.5,-285 1801.5,-315 1970.5,-315 1970.5,-285 1801.5,-285"/>
<text text-anchor="start" x="1809.5" y="-303" font-family="Helvetica,sans-Serif" font-size="10.00">array&lt; std::bitset</text>
<text text-anchor="middle" x="1886" y="-292" font-family="Helvetica,sans-Serif" font-size="10.00">&lt; LASTBASE &gt;, MBMAXTYPE &gt;</text>
</a>
</g>
</g>
<!-- Node64&#45;&gt;Node60 -->
<g id="edge76" class="edge">
<title>Node64&#45;&gt;Node60</title>
<path fill="none" stroke="#9a32cd" stroke-dasharray="5,2" d="M1956.45,-283.24C2012.39,-274.25 2089.02,-272.89 2135,-318 2166.22,-348.63 2123.54,-481.67 2153,-514 2161.43,-523.25 2172.81,-528.88 2184.9,-532.17"/>
<polygon fill="#9a32cd" stroke="#9a32cd" points="1955.52,-279.84 1946.26,-284.99 1956.71,-286.74 1955.52,-279.84"/>
<text text-anchor="middle" x="2063" y="-321" font-family="Helvetica,sans-Serif" font-size="10.00"> basesOnEntities</text>
</g>
<!-- Node65 -->
<g id="node65" class="node">
<title>Node65</title>
<g id="a_node65"><a xlink:title=" ">
<polygon fill="white" stroke="#bfbfbf" points="1830,-531.5 1830,-550.5 1942,-550.5 1942,-531.5 1830,-531.5"/>
<text text-anchor="middle" x="1886" y="-538.5" font-family="Helvetica,sans-Serif" font-size="10.00">UBlasMatrix&lt; int &gt;</text>
</a>
</g>
</g>
<!-- Node65&#45;&gt;Node60 -->
<g id="edge77" class="edge">
<title>Node65&#45;&gt;Node60</title>
<path fill="none" stroke="#9a32cd" stroke-dasharray="5,2" d="M1952.22,-539.02C1965.07,-538.66 1978.46,-538.3 1991,-538 2056.76,-536.43 2131.75,-535.05 2184.96,-534.14"/>
<polygon fill="#9a32cd" stroke="#9a32cd" points="1951.95,-535.53 1942.05,-539.31 1952.15,-542.52 1951.95,-535.53"/>
<text text-anchor="middle" x="2063" y="-552" font-family="Helvetica,sans-Serif" font-size="10.00"> facesNodesOrder</text>
<text text-anchor="middle" x="2063" y="-541" font-family="Helvetica,sans-Serif" font-size="10.00">facesNodes</text>
</g>
<!-- Node66 -->
<g id="node66" class="node">
<title>Node66</title>
<g id="a_node66"><a xlink:title=" ">
<polygon fill="white" stroke="#bfbfbf" points="1827.5,-493.5 1827.5,-512.5 1944.5,-512.5 1944.5,-493.5 1827.5,-493.5"/>
<text text-anchor="middle" x="1886" y="-500.5" font-family="Helvetica,sans-Serif" font-size="10.00">bitset&lt; LASTBASE &gt;</text>
</a>
</g>
</g>
<!-- Node66&#45;&gt;Node60 -->
<g id="edge78" class="edge">
<title>Node66&#45;&gt;Node60</title>
<path fill="none" stroke="#9a32cd" stroke-dasharray="5,2" d="M1954.7,-506.92C2004.59,-509.98 2074.07,-514.61 2135,-520 2151.18,-521.43 2168.56,-523.19 2184.93,-524.94"/>
<polygon fill="#9a32cd" stroke="#9a32cd" points="1954.87,-503.42 1944.68,-506.31 1954.45,-510.41 1954.87,-503.42"/>
<text text-anchor="middle" x="2063" y="-523" font-family="Helvetica,sans-Serif" font-size="10.00"> bAse</text>
</g>
<!-- Node67 -->
<g id="node67" class="node">
<title>Node67</title>
<g id="a_node67"><a xlink:title=" ">
<polygon fill="white" stroke="#bfbfbf" points="2193.5,-342.5 2193.5,-383.5 2318.5,-383.5 2318.5,-342.5 2193.5,-342.5"/>
<text text-anchor="start" x="2201.5" y="-371.5" font-family="Helvetica,sans-Serif" font-size="10.00">function&lt; int(int order</text>
<text text-anchor="start" x="2201.5" y="-360.5" font-family="Helvetica,sans-Serif" font-size="10.00">_row, int order_col, int</text>
<text text-anchor="middle" x="2256" y="-349.5" font-family="Helvetica,sans-Serif" font-size="10.00"> order_data)&gt;</text>
</a>
</g>
</g>
<!-- Node67&#45;&gt;Node12 -->
<g id="edge79" class="edge">
<title>Node67&#45;&gt;Node12</title>
<path fill="none" stroke="#9a32cd" stroke-dasharray="5,2" d="M2328.77,-358.39C2389.1,-357.86 2475.42,-365.21 2539,-404 2593.15,-437.03 2626.64,-510.79 2637.3,-537.29"/>
<polygon fill="#9a32cd" stroke="#9a32cd" points="2328.51,-354.9 2318.57,-358.56 2328.63,-361.9 2328.51,-354.9"/>
<text text-anchor="middle" x="2458" y="-407" font-family="Helvetica,sans-Serif" font-size="10.00"> getRuleHook</text>
</g>
<!-- Node68 -->
<g id="node68" class="node">
<title>Node68</title>
<g id="a_node68"><a xlink:title=" ">
<polygon fill="white" stroke="#bfbfbf" points="2195,-293 2195,-323 2317,-323 2317,-293 2195,-293"/>
<text text-anchor="start" x="2203" y="-311" font-family="Helvetica,sans-Serif" font-size="10.00">shared_ptr&lt; MoFEM::</text>
<text text-anchor="middle" x="2256" y="-300" font-family="Helvetica,sans-Serif" font-size="10.00">BaseFunction &gt;</text>
</a>
</g>
</g>
<!-- Node68&#45;&gt;Node12 -->
<g id="edge80" class="edge">
<title>Node68&#45;&gt;Node12</title>
<path fill="none" stroke="#9a32cd" stroke-dasharray="5,2" d="M2327.66,-306.74C2399.87,-306.79 2505.97,-311.01 2539,-334 2612.02,-384.83 2634.54,-502.53 2639.7,-537.21"/>
<polygon fill="#9a32cd" stroke="#9a32cd" points="2327.26,-303.24 2317.27,-306.76 2327.27,-310.24 2327.26,-303.24"/>
<text text-anchor="middle" x="2458" y="-348" font-family="Helvetica,sans-Serif" font-size="10.00"> userPolynomialBasePtr</text>
<text text-anchor="middle" x="2458" y="-337" font-family="Helvetica,sans-Serif" font-size="10.00">elementPolynomialBasePtr</text>
</g>
<!-- Node69 -->
<g id="node69" class="node">
<title>Node69</title>
<g id="a_node69"><a xlink:href="classUBlasMatrix_3_01double_01_4.html" target="_top" xlink:title=" ">
<polygon fill="white" stroke="black" points="2190,-253.5 2190,-272.5 2322,-272.5 2322,-253.5 2190,-253.5"/>
<text text-anchor="middle" x="2256" y="-260.5" font-family="Helvetica,sans-Serif" font-size="10.00">UBlasMatrix&lt; double &gt;</text>
</a>
</g>
</g>
<!-- Node69&#45;&gt;Node3 -->
<g id="edge85" class="edge">
<title>Node69&#45;&gt;Node3</title>
<path fill="none" stroke="#9a32cd" stroke-dasharray="5,2" d="M2332.2,-262.01C2502.39,-259.76 2915.69,-254.31 3088.74,-252.03"/>
<polygon fill="#9a32cd" stroke="#9a32cd" points="2332.03,-258.51 2322.08,-262.14 2332.13,-265.51 2332.03,-258.51"/>
<text text-anchor="middle" x="2782" y="-260" font-family="Helvetica,sans-Serif" font-size="10.00"> diffNinvJac</text>
</g>
<!-- Node69&#45;&gt;Node12 -->
<g id="edge81" class="edge">
<title>Node69&#45;&gt;Node12</title>
<path fill="none" stroke="#9a32cd" stroke-dasharray="5,2" d="M2332.6,-263.95C2410.48,-265.58 2522.72,-270 2539,-282 2626.89,-346.8 2639.05,-497.85 2640.73,-537.39"/>
<polygon fill="#9a32cd" stroke="#9a32cd" points="2332.4,-260.44 2322.34,-263.74 2332.26,-267.44 2332.4,-260.44"/>
<text text-anchor="middle" x="2458" y="-296" font-family="Helvetica,sans-Serif" font-size="10.00"> coordsAtGaussPts</text>
<text text-anchor="middle" x="2458" y="-285" font-family="Helvetica,sans-Serif" font-size="10.00">gaussPts</text>
</g>
<!-- Node70 -->
<g id="node70" class="node">
<title>Node70</title>
<g id="a_node70"><a xlink:title=" ">
<polygon fill="white" stroke="#bfbfbf" points="2576.5,-946.5 2576.5,-965.5 2707.5,-965.5 2707.5,-946.5 2576.5,-946.5"/>
<text text-anchor="middle" x="2642" y="-953.5" font-family="Helvetica,sans-Serif" font-size="10.00">static const char *const</text>
</a>
</g>
</g>
<!-- Node70&#45;&gt;Node4 -->
<g id="edge82" class="edge">
<title>Node70&#45;&gt;Node4</title>
<path fill="none" stroke="#9a32cd" stroke-dasharray="5,2" d="M2698.36,-944.16C2707.95,-941.92 2717.79,-939.49 2727,-937 2781.44,-922.29 2842.83,-900.5 2881.7,-886.03"/>
<polygon fill="#9a32cd" stroke="#9a32cd" points="2697.47,-940.78 2688.51,-946.43 2699.04,-947.6 2697.47,-940.78"/>
<text text-anchor="middle" x="2782" y="-933" font-family="Helvetica,sans-Serif" font-size="10.00"> OpTypeNames</text>
</g>
<!-- Node71 -->
<g id="node71" class="node">
<title>Node71</title>
<g id="a_node71"><a xlink:title=" ">
<polygon fill="white" stroke="#bfbfbf" points="2852,-192 2852,-222 2992,-222 2992,-192 2852,-192"/>
<text text-anchor="start" x="2860" y="-210" font-family="Helvetica,sans-Serif" font-size="10.00">shared_ptr&lt; UBlasMatrix</text>
<text text-anchor="middle" x="2922" y="-199" font-family="Helvetica,sans-Serif" font-size="10.00">&lt; double &gt; &gt;</text>
</a>
</g>
</g>
<!-- Node71&#45;&gt;Node3 -->
<g id="edge84" class="edge">
<title>Node71&#45;&gt;Node3</title>
<path fill="none" stroke="#9a32cd" stroke-dasharray="5,2" d="M3002.29,-215.29C3024.61,-218.14 3048.83,-221.71 3071,-226 3085.12,-228.73 3100.24,-232.34 3114.21,-235.97"/>
<polygon fill="#9a32cd" stroke="#9a32cd" points="3002.54,-211.8 2992.19,-214.04 3001.68,-218.74 3002.54,-211.8"/>
<text text-anchor="middle" x="3048" y="-229" font-family="Helvetica,sans-Serif" font-size="10.00"> invJacPtr</text>
</g>
</g>
</svg>
        <g id="navigator" transform="translate(0 0)" fill="#404254">
                <rect fill="#f2f5e9" fill-opacity="0.5" stroke="#606060" stroke-width=".5" x="0" y="0" width="60" height="60"/>
                <use id="zoomplus" xlink:href="#zoomPlus" x="17" y="9" onmousedown="handleZoom(evt,'in')"/>
                <use id="zoomminus" xlink:href="#zoomMin" x="42" y="9" onmousedown="handleZoom(evt,'out')"/>
                <use id="reset" xlink:href="#resetDef" x="30" y="36" onmousedown="handleReset()"/>
                <g id="arrowUp" xlink:href="#dirArrow" transform="translate(30 24)" onmousedown="handlePan(0,-1)">
                  <use xlink:href="#rim" fill="#404040">
                        <set attributeName="fill" to="#808080" begin="arrowUp.mouseover" end="arrowUp.mouseout"/>
                  </use>
                  <path fill="none" stroke="white" stroke-width="1.5" d="M0,-3.0v7 M-2.5,-0.5L0,-3.0L2.5,-0.5"/>
                </g>
                <g id="arrowRight" xlink:href="#dirArrow" transform="rotate(90) translate(36 -43)" onmousedown="handlePan(1,0)">
                  <use xlink:href="#rim" fill="#404040">
                        <set attributeName="fill" to="#808080" begin="arrowRight.mouseover" end="arrowRight.mouseout"/>
                  </use>
                  <path fill="none" stroke="white" stroke-width="1.5" d="M0,-3.0v7 M-2.5,-0.5L0,-3.0L2.5,-0.5"/>
                </g>
                <g id="arrowDown" xlink:href="#dirArrow" transform="rotate(180) translate(-30 -48)" onmousedown="handlePan(0,1)">
                  <use xlink:href="#rim" fill="#404040">
                        <set attributeName="fill" to="#808080" begin="arrowDown.mouseover" end="arrowDown.mouseout"/>
                  </use>
                  <path fill="none" stroke="white" stroke-width="1.5" d="M0,-3.0v7 M-2.5,-0.5L0,-3.0L2.5,-0.5"/>
                </g>
                <g id="arrowLeft" xlink:href="#dirArrow" transform="rotate(270) translate(-36 17)" onmousedown="handlePan(-1,0)">
                  <use xlink:href="#rim" fill="#404040">
                        <set attributeName="fill" to="#808080" begin="arrowLeft.mouseover" end="arrowLeft.mouseout"/>
                  </use>
                  <path fill="none" stroke="white" stroke-width="1.5" d="M0,-3.0v7 M-2.5,-0.5L0,-3.0L2.5,-0.5"/>
                </g>
        </g>
        <svg viewBox="0 0 15 15" width="100%" height="30px" preserveAspectRatio="xMaxYMin meet">
         <g id="arrow_out" transform="scale(0.3 0.3)">
          <a xlink:href="structMoFEM_1_1OpSetInvJacSpaceForFaceImpl_3_012_00_012_01_4__coll__graph_org.svg" target="_base">
           <rect id="button" ry="5" rx="5" y="6" x="6" height="38" width="38"
                fill="#f2f5e9" fill-opacity="0.5" stroke="#606060" stroke-width="1.0"/>
           <path id="arrow"
             d="M 11.500037,31.436501 C 11.940474,20.09759 22.043105,11.32322 32.158766,21.979434 L 37.068811,17.246167 C 37.068811,17.246167 37.088388,32 37.088388,32 L 22.160133,31.978069 C 22.160133,31.978069 26.997745,27.140456 26.997745,27.140456 C 18.528582,18.264221 13.291696,25.230495 11.500037,31.436501 z"
             style="fill:#404040;"/>
          </a>
         </g>
        </svg>
</svg>
