<?xml version="1.0" encoding="UTF-8" standalone="no"?>
<!DOCTYPE svg PUBLIC "-//W3C//DTD SVG 1.1//EN"
 "http://www.w3.org/Graphics/SVG/1.1/DTD/svg11.dtd">
<!-- Generated by graphviz version 2.43.0 (0)
 -->
<!-- Title: MoFEM::EssentialBcStorage Pages: 1 -->
<svg width="421pt" height="95pt"
 viewBox="0.00 0.00 421.00 95.00" xmlns="http://www.w3.org/2000/svg" xmlns:xlink="http://www.w3.org/1999/xlink">
<g id="graph0" class="graph" transform="scale(1 1) rotate(0) translate(4 91)">
<title>MoFEM::EssentialBcStorage</title>
<polygon fill="white" stroke="transparent" points="-4,4 -4,-91 417,-91 417,4 -4,4"/>
<!-- Node1 -->
<g id="node1" class="node">
<title>Node1</title>
<g id="a_node1"><a xlink:title="[Storage and set boundary conditions]">
<polygon fill="#bfbfbf" stroke="black" points="137.5,-0.5 137.5,-19.5 289.5,-19.5 289.5,-0.5 137.5,-0.5"/>
<text text-anchor="middle" x="213.5" y="-7.5" font-family="Helvetica,sans-Serif" font-size="10.00">MoFEM::EssentialBcStorage</text>
</a>
</g>
</g>
<!-- Node2 -->
<g id="node2" class="node">
<title>Node2</title>
<g id="a_node2"><a xlink:href="structMoFEM_1_1EntityStorage.html" target="_top" xlink:title=" ">
<polygon fill="white" stroke="black" points="0,-67.5 0,-86.5 125,-86.5 125,-67.5 0,-67.5"/>
<text text-anchor="middle" x="62.5" y="-74.5" font-family="Helvetica,sans-Serif" font-size="10.00">MoFEM::EntityStorage</text>
</a>
</g>
</g>
<!-- Node2&#45;&gt;Node1 -->
<g id="edge1" class="edge">
<title>Node2&#45;&gt;Node1</title>
<path fill="none" stroke="midnightblue" d="M92.05,-63.28C121.95,-50.41 167.38,-30.85 193.37,-19.67"/>
<polygon fill="midnightblue" stroke="midnightblue" points="90.35,-60.2 82.55,-67.37 93.12,-66.63 90.35,-60.2"/>
</g>
<!-- Node3 -->
<g id="node3" class="node">
<title>Node3</title>
<g id="a_node3"><a xlink:title=" ">
<polygon fill="white" stroke="#bfbfbf" points="143.5,-67.5 143.5,-86.5 283.5,-86.5 283.5,-67.5 143.5,-67.5"/>
<text text-anchor="middle" x="213.5" y="-74.5" font-family="Helvetica,sans-Serif" font-size="10.00">static HashVectorStorage</text>
</a>
</g>
</g>
<!-- Node3&#45;&gt;Node1 -->
<g id="edge2" class="edge">
<title>Node3&#45;&gt;Node1</title>
<path fill="none" stroke="#9a32cd" stroke-dasharray="5,2" d="M213.5,-57.04C213.5,-44.67 213.5,-29.12 213.5,-19.63"/>
<polygon fill="#9a32cd" stroke="#9a32cd" points="210,-57.23 213.5,-67.23 217,-57.23 210,-57.23"/>
<text text-anchor="middle" x="239" y="-41" font-family="Helvetica,sans-Serif" font-size="10.00"> feStorage</text>
</g>
<!-- Node4 -->
<g id="node4" class="node">
<title>Node4</title>
<g id="a_node4"><a xlink:title=" ">
<polygon fill="white" stroke="#bfbfbf" points="302,-67.5 302,-86.5 413,-86.5 413,-67.5 302,-67.5"/>
<text text-anchor="middle" x="357.5" y="-74.5" font-family="Helvetica,sans-Serif" font-size="10.00">UBlasVector&lt; int &gt;</text>
</a>
</g>
</g>
<!-- Node4&#45;&gt;Node1 -->
<g id="edge3" class="edge">
<title>Node4&#45;&gt;Node1</title>
<path fill="none" stroke="#9a32cd" stroke-dasharray="5,2" d="M328.95,-63.11C300.43,-50.24 257.38,-30.81 232.7,-19.67"/>
<polygon fill="#9a32cd" stroke="#9a32cd" points="327.82,-66.44 338.38,-67.37 330.7,-60.06 327.82,-66.44"/>
<text text-anchor="middle" x="327" y="-41" font-family="Helvetica,sans-Serif" font-size="10.00"> entityIndices</text>
</g>
</g>
</svg>
