<?xml version="1.0" encoding="UTF-8" standalone="no"?>
<!DOCTYPE svg PUBLIC "-//W3C//DTD SVG 1.1//EN"
 "http://www.w3.org/Graphics/SVG/1.1/DTD/svg11.dtd">
<!-- Generated by graphviz version 2.43.0 (0)
 -->
<!-- Title: GelModule::Gel::AssembleMatrix Pages: 1 -->
<!--zoomable 291 -->
<svg id="main" version="1.1" xmlns="http://www.w3.org/2000/svg" xmlns:xlink="http://www.w3.org/1999/xlink" xml:space="preserve" onload="init(evt)">
<style type="text/css"><![CDATA[
.edge:hover path { stroke: red; }
.edge:hover polygon { stroke: red; fill: red; }
]]></style>
<script type="text/javascript"><![CDATA[
var edges = document.getElementsByTagName('g');
if (edges && edges.length) {
  for (var i=0;i<edges.length;i++) {
    if (edges[i].id.substr(0,4)=='edge') {
      edges[i].setAttribute('class','edge');
    }
  }
}
]]></script>
        <defs>
                <circle id="rim" cx="0" cy="0" r="7"/>
                <circle id="rim2" cx="0" cy="0" r="3.5"/>
                <g id="zoomPlus">
                        <use xlink:href="#rim" fill="#404040">
                                <set attributeName="fill" to="#808080" begin="zoomplus.mouseover" end="zoomplus.mouseout"/>
                        </use>
                        <path d="M-4,0h8M0,-4v8" fill="none" stroke="white" stroke-width="1.5" pointer-events="none"/>
                </g>
                <g id="zoomMin">
                        <use xlink:href="#rim" fill="#404040">
                                <set attributeName="fill" to="#808080" begin="zoomminus.mouseover" end="zoomminus.mouseout"/>
                        </use>
                        <path d="M-4,0h8" fill="none" stroke="white" stroke-width="1.5" pointer-events="none"/>
                </g>
                <g id="dirArrow">
                        <path fill="none" stroke="white" stroke-width="1.5" d="M0,-3.0v7 M-2.5,-0.5L0,-3.0L2.5,-0.5"/>
                </g>
               <g id="resetDef">
                       <use xlink:href="#rim2" fill="#404040">
                               <set attributeName="fill" to="#808080" begin="reset.mouseover" end="reset.mouseout"/>
                       </use>
               </g>
        </defs>

<script type="text/javascript">
var viewWidth = 954;
var viewHeight = 291;
var sectionId = 'dynsection-0';
</script>
<script xlink:href="svgpan.js"/>
<svg id="graph" class="graph">
<g id="viewport">
<title>GelModule::Gel::AssembleMatrix</title>
<polygon fill="white" stroke="transparent" points="-4,4 -4,-287 950,-287 950,4 -4,4"/>
<!-- Node1 -->
<g id="node1" class="node">
<title>Node1</title>
<g id="a_node1"><a xlink:title=" ">
<polygon fill="#bfbfbf" stroke="black" points="594,-127 594,-157 740,-157 740,-127 594,-127"/>
<text text-anchor="start" x="602" y="-145" font-family="Helvetica,sans-Serif" font-size="10.00">GelModule::Gel::Assemble</text>
<text text-anchor="middle" x="667" y="-134" font-family="Helvetica,sans-Serif" font-size="10.00">Matrix</text>
</a>
</g>
</g>
<!-- Node5 -->
<g id="node5" class="node">
<title>Node5</title>
<g id="a_node5"><a xlink:href="structGelModule_1_1Gel_1_1OpLhsdMudMu.html" target="_top" xlink:title="Assemble matrix .">
<polygon fill="white" stroke="black" points="776,-263.5 776,-282.5 946,-282.5 946,-263.5 776,-263.5"/>
<text text-anchor="middle" x="861" y="-270.5" font-family="Helvetica,sans-Serif" font-size="10.00">GelModule::Gel::OpLhsdMudMu</text>
</a>
</g>
</g>
<!-- Node1&#45;&gt;Node5 -->
<g id="edge4" class="edge">
<title>Node1&#45;&gt;Node5</title>
<path fill="none" stroke="midnightblue" d="M684.04,-165.46C702.96,-191.25 736.84,-231.94 776,-254 782.9,-257.89 790.55,-260.98 798.33,-263.44"/>
<polygon fill="midnightblue" stroke="midnightblue" points="686.66,-163.1 677.99,-157.01 680.97,-167.18 686.66,-163.1"/>
</g>
<!-- Node6 -->
<g id="node6" class="node">
<title>Node6</title>
<g id="a_node6"><a xlink:href="structGelModule_1_1Gel_1_1OpLhsdMudx.html" target="_top" xlink:title="Assemble matrix .">
<polygon fill="white" stroke="black" points="780.5,-225.5 780.5,-244.5 941.5,-244.5 941.5,-225.5 780.5,-225.5"/>
<text text-anchor="middle" x="861" y="-232.5" font-family="Helvetica,sans-Serif" font-size="10.00">GelModule::Gel::OpLhsdMudx</text>
</a>
</g>
</g>
<!-- Node1&#45;&gt;Node6 -->
<g id="edge5" class="edge">
<title>Node1&#45;&gt;Node6</title>
<path fill="none" stroke="midnightblue" d="M693.51,-163.63C714.41,-180.29 745.42,-202.65 776,-216 784.77,-219.83 794.4,-222.93 803.92,-225.43"/>
<polygon fill="midnightblue" stroke="midnightblue" points="695.44,-160.69 685.47,-157.11 691.03,-166.13 695.44,-160.69"/>
</g>
<!-- Node7 -->
<g id="node7" class="node">
<title>Node7</title>
<g id="a_node7"><a xlink:href="structGelModule_1_1Gel_1_1OpLhsdStrainHatdStrainHat.html" target="_top" xlink:title="Assemble matrix .">
<polygon fill="white" stroke="black" points="780,-176 780,-206 942,-206 942,-176 780,-176"/>
<text text-anchor="start" x="788" y="-194" font-family="Helvetica,sans-Serif" font-size="10.00">GelModule::Gel::OpLhsdStrain</text>
<text text-anchor="middle" x="861" y="-183" font-family="Helvetica,sans-Serif" font-size="10.00">HatdStrainHat</text>
</a>
</g>
</g>
<!-- Node1&#45;&gt;Node7 -->
<g id="edge6" class="edge">
<title>Node1&#45;&gt;Node7</title>
<path fill="none" stroke="midnightblue" d="M736.77,-159.55C757.85,-164.93 780.85,-170.8 801.2,-175.99"/>
<polygon fill="midnightblue" stroke="midnightblue" points="737.47,-156.12 726.91,-157.03 735.74,-162.9 737.47,-156.12"/>
</g>
<!-- Node8 -->
<g id="node8" class="node">
<title>Node8</title>
<g id="a_node8"><a xlink:href="structGelModule_1_1Gel_1_1OpLhsdStrainHatdx.html" target="_top" xlink:title="Assemble matrix .">
<polygon fill="white" stroke="black" points="780,-127 780,-157 942,-157 942,-127 780,-127"/>
<text text-anchor="start" x="788" y="-145" font-family="Helvetica,sans-Serif" font-size="10.00">GelModule::Gel::OpLhsdStrain</text>
<text text-anchor="middle" x="861" y="-134" font-family="Helvetica,sans-Serif" font-size="10.00">Hatdx</text>
</a>
</g>
</g>
<!-- Node1&#45;&gt;Node8 -->
<g id="edge7" class="edge">
<title>Node1&#45;&gt;Node8</title>
<path fill="none" stroke="midnightblue" d="M750.19,-142C760.01,-142 770.03,-142 779.82,-142"/>
<polygon fill="midnightblue" stroke="midnightblue" points="750.04,-138.5 740.04,-142 750.04,-145.5 750.04,-138.5"/>
</g>
<!-- Node9 -->
<g id="node9" class="node">
<title>Node9</title>
<g id="a_node9"><a xlink:href="structGelModule_1_1Gel_1_1OpLhsdxdMu.html" target="_top" xlink:title="Assemble matrix .">
<polygon fill="white" stroke="black" points="780.5,-88.5 780.5,-107.5 941.5,-107.5 941.5,-88.5 780.5,-88.5"/>
<text text-anchor="middle" x="861" y="-95.5" font-family="Helvetica,sans-Serif" font-size="10.00">GelModule::Gel::OpLhsdxdMu</text>
</a>
</g>
</g>
<!-- Node1&#45;&gt;Node9 -->
<g id="edge8" class="edge">
<title>Node1&#45;&gt;Node9</title>
<path fill="none" stroke="midnightblue" d="M742.57,-124.69C753.77,-122.1 765.19,-119.47 776,-117 789.55,-113.9 804.35,-110.54 817.69,-107.53"/>
<polygon fill="midnightblue" stroke="midnightblue" points="741.76,-121.28 732.81,-126.94 743.34,-128.1 741.76,-121.28"/>
</g>
<!-- Node10 -->
<g id="node10" class="node">
<title>Node10</title>
<g id="a_node10"><a xlink:href="structGelModule_1_1Gel_1_1OpLhsdxdStrainHat.html" target="_top" xlink:title="Assemble matrix .">
<polygon fill="white" stroke="black" points="788,-39 788,-69 934,-69 934,-39 788,-39"/>
<text text-anchor="start" x="796" y="-57" font-family="Helvetica,sans-Serif" font-size="10.00">GelModule::Gel::OpLhsdxd</text>
<text text-anchor="middle" x="861" y="-46" font-family="Helvetica,sans-Serif" font-size="10.00">StrainHat</text>
</a>
</g>
</g>
<!-- Node1&#45;&gt;Node10 -->
<g id="edge9" class="edge">
<title>Node1&#45;&gt;Node10</title>
<path fill="none" stroke="midnightblue" d="M698.86,-121.33C719.91,-107.9 748.81,-90.77 776,-79 784.38,-75.37 793.44,-72.07 802.41,-69.14"/>
<polygon fill="midnightblue" stroke="midnightblue" points="696.84,-118.47 690.34,-126.83 700.64,-124.34 696.84,-118.47"/>
</g>
<!-- Node11 -->
<g id="node11" class="node">
<title>Node11</title>
<g id="a_node11"><a xlink:href="structGelModule_1_1Gel_1_1OpLhsdxdx.html" target="_top" xlink:title="Assemble matrix .">
<polygon fill="white" stroke="black" points="785,-0.5 785,-19.5 937,-19.5 937,-0.5 785,-0.5"/>
<text text-anchor="middle" x="861" y="-7.5" font-family="Helvetica,sans-Serif" font-size="10.00">GelModule::Gel::OpLhsdxdx</text>
</a>
</g>
</g>
<!-- Node1&#45;&gt;Node11 -->
<g id="edge10" class="edge">
<title>Node1&#45;&gt;Node11</title>
<path fill="none" stroke="midnightblue" d="M683.75,-118.67C702.58,-92.67 736.54,-51.35 776,-29 782.9,-25.1 790.54,-21.99 798.32,-19.53"/>
<polygon fill="midnightblue" stroke="midnightblue" points="680.88,-116.67 677.96,-126.85 686.59,-120.71 680.88,-116.67"/>
</g>
<!-- Node2 -->
<g id="node2" class="node">
<title>Node2</title>
<g id="a_node2"><a xlink:href="structMoFEM_1_1VolumeElementForcesAndSourcesCore_1_1UserDataOperator.html" target="_top" xlink:title=" ">
<polygon fill="white" stroke="black" points="367,-127 367,-157 558,-157 558,-127 367,-127"/>
<text text-anchor="start" x="375" y="-145" font-family="Helvetica,sans-Serif" font-size="10.00">MoFEM::VolumeElementForces</text>
<text text-anchor="middle" x="462.5" y="-134" font-family="Helvetica,sans-Serif" font-size="10.00">AndSourcesCore::UserDataOperator</text>
</a>
</g>
</g>
<!-- Node2&#45;&gt;Node1 -->
<g id="edge1" class="edge">
<title>Node2&#45;&gt;Node1</title>
<path fill="none" stroke="midnightblue" d="M568.32,-142C576.91,-142 585.47,-142 593.75,-142"/>
<polygon fill="midnightblue" stroke="midnightblue" points="568.23,-138.5 558.23,-142 568.23,-145.5 568.23,-138.5"/>
</g>
<!-- Node3 -->
<g id="node3" class="node">
<title>Node3</title>
<g id="a_node3"><a xlink:href="structMoFEM_1_1ForcesAndSourcesCore_1_1UserDataOperator.html" target="_top" xlink:title=" ">
<polygon fill="white" stroke="black" points="161,-127 161,-157 331,-157 331,-127 161,-127"/>
<text text-anchor="start" x="169" y="-145" font-family="Helvetica,sans-Serif" font-size="10.00">MoFEM::ForcesAndSourcesCore</text>
<text text-anchor="middle" x="246" y="-134" font-family="Helvetica,sans-Serif" font-size="10.00">::UserDataOperator</text>
</a>
</g>
</g>
<!-- Node3&#45;&gt;Node2 -->
<g id="edge2" class="edge">
<title>Node3&#45;&gt;Node2</title>
<path fill="none" stroke="midnightblue" d="M341.42,-142C349.89,-142 358.47,-142 366.93,-142"/>
<polygon fill="midnightblue" stroke="midnightblue" points="341.16,-138.5 331.16,-142 341.16,-145.5 341.16,-138.5"/>
</g>
<!-- Node4 -->
<g id="node4" class="node">
<title>Node4</title>
<g id="a_node4"><a xlink:href="structMoFEM_1_1DataOperator.html" target="_top" xlink:title="base operator to do operations at Gauss Pt. level">
<polygon fill="white" stroke="black" points="0,-132.5 0,-151.5 125,-151.5 125,-132.5 0,-132.5"/>
<text text-anchor="middle" x="62.5" y="-139.5" font-family="Helvetica,sans-Serif" font-size="10.00">MoFEM::DataOperator</text>
</a>
</g>
</g>
<!-- Node4&#45;&gt;Node3 -->
<g id="edge3" class="edge">
<title>Node4&#45;&gt;Node3</title>
<path fill="none" stroke="midnightblue" d="M135.34,-142C143.75,-142 152.4,-142 160.97,-142"/>
<polygon fill="midnightblue" stroke="midnightblue" points="135.2,-138.5 125.2,-142 135.2,-145.5 135.2,-138.5"/>
</g>
</g>
</svg>
        <g id="navigator" transform="translate(0 0)" fill="#404254">
                <rect fill="#f2f5e9" fill-opacity="0.5" stroke="#606060" stroke-width=".5" x="0" y="0" width="60" height="60"/>
                <use id="zoomplus" xlink:href="#zoomPlus" x="17" y="9" onmousedown="handleZoom(evt,'in')"/>
                <use id="zoomminus" xlink:href="#zoomMin" x="42" y="9" onmousedown="handleZoom(evt,'out')"/>
                <use id="reset" xlink:href="#resetDef" x="30" y="36" onmousedown="handleReset()"/>
                <g id="arrowUp" xlink:href="#dirArrow" transform="translate(30 24)" onmousedown="handlePan(0,-1)">
                  <use xlink:href="#rim" fill="#404040">
                        <set attributeName="fill" to="#808080" begin="arrowUp.mouseover" end="arrowUp.mouseout"/>
                  </use>
                  <path fill="none" stroke="white" stroke-width="1.5" d="M0,-3.0v7 M-2.5,-0.5L0,-3.0L2.5,-0.5"/>
                </g>
                <g id="arrowRight" xlink:href="#dirArrow" transform="rotate(90) translate(36 -43)" onmousedown="handlePan(1,0)">
                  <use xlink:href="#rim" fill="#404040">
                        <set attributeName="fill" to="#808080" begin="arrowRight.mouseover" end="arrowRight.mouseout"/>
                  </use>
                  <path fill="none" stroke="white" stroke-width="1.5" d="M0,-3.0v7 M-2.5,-0.5L0,-3.0L2.5,-0.5"/>
                </g>
                <g id="arrowDown" xlink:href="#dirArrow" transform="rotate(180) translate(-30 -48)" onmousedown="handlePan(0,1)">
                  <use xlink:href="#rim" fill="#404040">
                        <set attributeName="fill" to="#808080" begin="arrowDown.mouseover" end="arrowDown.mouseout"/>
                  </use>
                  <path fill="none" stroke="white" stroke-width="1.5" d="M0,-3.0v7 M-2.5,-0.5L0,-3.0L2.5,-0.5"/>
                </g>
                <g id="arrowLeft" xlink:href="#dirArrow" transform="rotate(270) translate(-36 17)" onmousedown="handlePan(-1,0)">
                  <use xlink:href="#rim" fill="#404040">
                        <set attributeName="fill" to="#808080" begin="arrowLeft.mouseover" end="arrowLeft.mouseout"/>
                  </use>
                  <path fill="none" stroke="white" stroke-width="1.5" d="M0,-3.0v7 M-2.5,-0.5L0,-3.0L2.5,-0.5"/>
                </g>
        </g>
        <svg viewBox="0 0 15 15" width="100%" height="30px" preserveAspectRatio="xMaxYMin meet">
         <g id="arrow_out" transform="scale(0.3 0.3)">
          <a xlink:href="structGelModule_1_1Gel_1_1AssembleMatrix__inherit__graph_org.svg" target="_base">
           <rect id="button" ry="5" rx="5" y="6" x="6" height="38" width="38"
                fill="#f2f5e9" fill-opacity="0.5" stroke="#606060" stroke-width="1.0"/>
           <path id="arrow"
             d="M 11.500037,31.436501 C 11.940474,20.09759 22.043105,11.32322 32.158766,21.979434 L 37.068811,17.246167 C 37.068811,17.246167 37.088388,32 37.088388,32 L 22.160133,31.978069 C 22.160133,31.978069 26.997745,27.140456 26.997745,27.140456 C 18.528582,18.264221 13.291696,25.230495 11.500037,31.436501 z"
             style="fill:#404040;"/>
          </a>
         </g>
        </svg>
</svg>
