<?xml version="1.0" encoding="UTF-8" standalone="no"?>
<!DOCTYPE svg PUBLIC "-//W3C//DTD SVG 1.1//EN"
 "http://www.w3.org/Graphics/SVG/1.1/DTD/svg11.dtd">
<!-- Generated by graphviz version 2.43.0 (0)
 -->
<!-- Title: MoFEM::OpSymmetrizeTensor&lt; DIM &gt; Pages: 1 -->
<!--zoomable 1557 -->
<svg id="main" version="1.1" xmlns="http://www.w3.org/2000/svg" xmlns:xlink="http://www.w3.org/1999/xlink" xml:space="preserve" onload="init(evt)">
<style type="text/css"><![CDATA[
.edge:hover path { stroke: red; }
.edge:hover polygon { stroke: red; fill: red; }
]]></style>
<script type="text/javascript"><![CDATA[
var edges = document.getElementsByTagName('g');
if (edges && edges.length) {
  for (var i=0;i<edges.length;i++) {
    if (edges[i].id.substr(0,4)=='edge') {
      edges[i].setAttribute('class','edge');
    }
  }
}
]]></script>
        <defs>
                <circle id="rim" cx="0" cy="0" r="7"/>
                <circle id="rim2" cx="0" cy="0" r="3.5"/>
                <g id="zoomPlus">
                        <use xlink:href="#rim" fill="#404040">
                                <set attributeName="fill" to="#808080" begin="zoomplus.mouseover" end="zoomplus.mouseout"/>
                        </use>
                        <path d="M-4,0h8M0,-4v8" fill="none" stroke="white" stroke-width="1.5" pointer-events="none"/>
                </g>
                <g id="zoomMin">
                        <use xlink:href="#rim" fill="#404040">
                                <set attributeName="fill" to="#808080" begin="zoomminus.mouseover" end="zoomminus.mouseout"/>
                        </use>
                        <path d="M-4,0h8" fill="none" stroke="white" stroke-width="1.5" pointer-events="none"/>
                </g>
                <g id="dirArrow">
                        <path fill="none" stroke="white" stroke-width="1.5" d="M0,-3.0v7 M-2.5,-0.5L0,-3.0L2.5,-0.5"/>
                </g>
               <g id="resetDef">
                       <use xlink:href="#rim2" fill="#404040">
                               <set attributeName="fill" to="#808080" begin="reset.mouseover" end="reset.mouseout"/>
                       </use>
               </g>
        </defs>

<script type="text/javascript">
var viewWidth = 3252;
var viewHeight = 1557;
var sectionId = 'dynsection-1';
</script>
<script xlink:href="svgpan.js"/>
<svg id="graph" class="graph">
<g id="viewport">
<title>MoFEM::OpSymmetrizeTensor&lt; DIM &gt;</title>
<polygon fill="white" stroke="transparent" points="-4,4 -4,-1552.5 3248,-1552.5 3248,4 -4,4"/>
<!-- Node1 -->
<g id="node1" class="node">
<title>Node1</title>
<g id="a_node1"><a xlink:title=" ">
<polygon fill="#bfbfbf" stroke="black" points="3081,-331.5 3081,-361.5 3244,-361.5 3244,-331.5 3081,-331.5"/>
<text text-anchor="start" x="3089" y="-349.5" font-family="Helvetica,sans-Serif" font-size="10.00">MoFEM::OpSymmetrizeTensor</text>
<text text-anchor="middle" x="3162.5" y="-338.5" font-family="Helvetica,sans-Serif" font-size="10.00">&lt; DIM &gt;</text>
</a>
</g>
</g>
<!-- Node2 -->
<g id="node2" class="node">
<title>Node2</title>
<g id="a_node2"><a xlink:href="structMoFEM_1_1ForcesAndSourcesCore_1_1UserDataOperator.html" target="_top" xlink:title=" ">
<polygon fill="white" stroke="black" points="2837,-645.5 2837,-675.5 3007,-675.5 3007,-645.5 2837,-645.5"/>
<text text-anchor="start" x="2845" y="-663.5" font-family="Helvetica,sans-Serif" font-size="10.00">MoFEM::ForcesAndSourcesCore</text>
<text text-anchor="middle" x="2922" y="-652.5" font-family="Helvetica,sans-Serif" font-size="10.00">::UserDataOperator</text>
</a>
</g>
</g>
<!-- Node2&#45;&gt;Node1 -->
<g id="edge1" class="edge">
<title>Node2&#45;&gt;Node1</title>
<path fill="none" stroke="midnightblue" d="M2940.77,-637.1C2987.2,-575.98 3111.19,-412.74 3149.83,-361.86"/>
<polygon fill="midnightblue" stroke="midnightblue" points="2937.76,-635.27 2934.5,-645.36 2943.34,-639.51 2937.76,-635.27"/>
</g>
<!-- Node3 -->
<g id="node3" class="node">
<title>Node3</title>
<g id="a_node3"><a xlink:href="structMoFEM_1_1DataOperator.html" target="_top" xlink:title="base operator to do operations at Gauss Pt. level">
<polygon fill="white" stroke="black" points="2579.5,-698 2579.5,-717 2704.5,-717 2704.5,-698 2579.5,-698"/>
<text text-anchor="middle" x="2642" y="-705" font-family="Helvetica,sans-Serif" font-size="10.00">MoFEM::DataOperator</text>
</a>
</g>
</g>
<!-- Node3&#45;&gt;Node2 -->
<g id="edge2" class="edge">
<title>Node3&#45;&gt;Node2</title>
<path fill="none" stroke="midnightblue" d="M2709.25,-696.3C2747.48,-689.84 2795.94,-681.64 2836.85,-674.73"/>
<polygon fill="midnightblue" stroke="midnightblue" points="2708.53,-692.87 2699.26,-697.99 2709.7,-699.77 2708.53,-692.87"/>
</g>
<!-- Node4 -->
<g id="node4" class="node">
<title>Node4</title>
<g id="a_node4"><a xlink:title=" ">
<polygon fill="white" stroke="#bfbfbf" points="2160,-842.5 2160,-894.5 2352,-894.5 2352,-842.5 2160,-842.5"/>
<text text-anchor="start" x="2168" y="-882.5" font-family="Helvetica,sans-Serif" font-size="10.00">function&lt; MoFEMErrorCode</text>
<text text-anchor="start" x="2168" y="-871.5" font-family="Helvetica,sans-Serif" font-size="10.00">(DataOperator *op_ptr,</text>
<text text-anchor="start" x="2168" y="-860.5" font-family="Helvetica,sans-Serif" font-size="10.00"> int side, EntityType type,</text>
<text text-anchor="middle" x="2256" y="-849.5" font-family="Helvetica,sans-Serif" font-size="10.00"> EntitiesFieldData::EntData &amp;data)&gt;</text>
</a>
</g>
</g>
<!-- Node4&#45;&gt;Node3 -->
<g id="edge3" class="edge">
<title>Node4&#45;&gt;Node3</title>
<path fill="none" stroke="#9a32cd" stroke-dasharray="5,2" d="M2362.48,-888.19C2421.73,-892.86 2492.82,-886.8 2539,-843.5 2577.38,-807.51 2521.12,-764.98 2557,-726.5 2563.12,-719.94 2570.98,-715.41 2579.44,-712.32"/>
<polygon fill="#9a32cd" stroke="#9a32cd" points="2362.59,-884.69 2352.32,-887.28 2361.97,-891.66 2362.59,-884.69"/>
<text text-anchor="middle" x="2458" y="-892.5" font-family="Helvetica,sans-Serif" font-size="10.00"> doWorkRhsHook</text>
</g>
<!-- Node5 -->
<g id="node5" class="node">
<title>Node5</title>
<g id="a_node5"><a xlink:href="classbool.html" target="_top" xlink:title=" ">
<polygon fill="white" stroke="black" points="2237,-777 2237,-796 2275,-796 2275,-777 2237,-777"/>
<text text-anchor="middle" x="2256" y="-784" font-family="Helvetica,sans-Serif" font-size="10.00">bool</text>
</a>
</g>
</g>
<!-- Node5&#45;&gt;Node3 -->
<g id="edge4" class="edge">
<title>Node5&#45;&gt;Node3</title>
<path fill="none" stroke="#9a32cd" stroke-dasharray="5,2" d="M2285.02,-781.48C2305.53,-777.75 2334.03,-772.48 2359,-767.5 2443.68,-750.61 2542.28,-729.24 2597.59,-717.09"/>
<polygon fill="#9a32cd" stroke="#9a32cd" points="2284.3,-778.05 2275.08,-783.28 2285.55,-784.94 2284.3,-778.05"/>
<text text-anchor="middle" x="2458" y="-831.5" font-family="Helvetica,sans-Serif" font-size="10.00"> doTris</text>
<text text-anchor="middle" x="2458" y="-820.5" font-family="Helvetica,sans-Serif" font-size="10.00">doQuads</text>
<text text-anchor="middle" x="2458" y="-809.5" font-family="Helvetica,sans-Serif" font-size="10.00">sYmm</text>
<text text-anchor="middle" x="2458" y="-798.5" font-family="Helvetica,sans-Serif" font-size="10.00">doPrisms</text>
<text text-anchor="middle" x="2458" y="-787.5" font-family="Helvetica,sans-Serif" font-size="10.00">doTets</text>
<text text-anchor="middle" x="2458" y="-776.5" font-family="Helvetica,sans-Serif" font-size="10.00">doVertices</text>
<text text-anchor="middle" x="2458" y="-765.5" font-family="Helvetica,sans-Serif" font-size="10.00">doEdges</text>
</g>
<!-- Node6 -->
<g id="node6" class="node">
<title>Node6</title>
<g id="a_node6"><a xlink:title=" ">
<polygon fill="white" stroke="#bfbfbf" points="2153,-673 2153,-758 2359,-758 2359,-673 2153,-673"/>
<text text-anchor="start" x="2161" y="-746" font-family="Helvetica,sans-Serif" font-size="10.00">function&lt; MoFEMErrorCode</text>
<text text-anchor="start" x="2161" y="-735" font-family="Helvetica,sans-Serif" font-size="10.00">(DataOperator *op_ptr,</text>
<text text-anchor="start" x="2161" y="-724" font-family="Helvetica,sans-Serif" font-size="10.00"> int row_side, int col_side,</text>
<text text-anchor="start" x="2161" y="-713" font-family="Helvetica,sans-Serif" font-size="10.00"> EntityType row_type, EntityType</text>
<text text-anchor="start" x="2161" y="-702" font-family="Helvetica,sans-Serif" font-size="10.00"> col_type, EntitiesFieldData::EntData</text>
<text text-anchor="start" x="2161" y="-691" font-family="Helvetica,sans-Serif" font-size="10.00"> &amp;row_data, EntitiesFieldData::EntData</text>
<text text-anchor="middle" x="2256" y="-680" font-family="Helvetica,sans-Serif" font-size="10.00"> &amp;col_data)&gt;</text>
</a>
</g>
</g>
<!-- Node6&#45;&gt;Node3 -->
<g id="edge5" class="edge">
<title>Node6&#45;&gt;Node3</title>
<path fill="none" stroke="#9a32cd" stroke-dasharray="5,2" d="M2369.56,-713.16C2438.03,-711.73 2522.87,-709.96 2579.3,-708.79"/>
<polygon fill="#9a32cd" stroke="#9a32cd" points="2369.07,-709.66 2359.15,-713.37 2369.22,-716.66 2369.07,-709.66"/>
<text text-anchor="middle" x="2458" y="-715.5" font-family="Helvetica,sans-Serif" font-size="10.00"> doWorkLhsHook</text>
</g>
<!-- Node7 -->
<g id="node7" class="node">
<title>Node7</title>
<g id="a_node7"><a xlink:title=" ">
<polygon fill="white" stroke="#bfbfbf" points="2179,-635 2179,-654 2333,-654 2333,-635 2179,-635"/>
<text text-anchor="middle" x="2256" y="-642" font-family="Helvetica,sans-Serif" font-size="10.00">array&lt; bool, MBMAXTYPE &gt;</text>
</a>
</g>
</g>
<!-- Node7&#45;&gt;Node3 -->
<g id="edge6" class="edge">
<title>Node7&#45;&gt;Node3</title>
<path fill="none" stroke="#9a32cd" stroke-dasharray="5,2" d="M2325.39,-655.72C2398.76,-667.76 2514.02,-686.67 2583.07,-698"/>
<polygon fill="#9a32cd" stroke="#9a32cd" points="2325.76,-652.23 2315.32,-654.07 2324.62,-659.14 2325.76,-652.23"/>
<text text-anchor="middle" x="2458" y="-693.5" font-family="Helvetica,sans-Serif" font-size="10.00"> doEntities</text>
</g>
<!-- Node8 -->
<g id="node8" class="node">
<title>Node8</title>
<g id="a_node8"><a xlink:title=" ">
<polygon fill="white" stroke="#bfbfbf" points="2607.5,-651 2607.5,-670 2676.5,-670 2676.5,-651 2607.5,-651"/>
<text text-anchor="middle" x="2642" y="-658" font-family="Helvetica,sans-Serif" font-size="10.00">FieldSpace</text>
</a>
</g>
</g>
<!-- Node8&#45;&gt;Node2 -->
<g id="edge7" class="edge">
<title>Node8&#45;&gt;Node2</title>
<path fill="none" stroke="#9a32cd" stroke-dasharray="5,2" d="M2686.79,-660.5C2726.94,-660.5 2787.51,-660.5 2836.99,-660.5"/>
<polygon fill="#9a32cd" stroke="#9a32cd" points="2686.53,-657 2676.53,-660.5 2686.53,-664 2686.53,-657"/>
<text text-anchor="middle" x="2782" y="-663.5" font-family="Helvetica,sans-Serif" font-size="10.00"> sPace</text>
</g>
<!-- Node9 -->
<g id="node9" class="node">
<title>Node9</title>
<g id="a_node9"><a xlink:title=" ">
<polygon fill="white" stroke="#bfbfbf" points="1122.5,-1522 1122.5,-1541 1160.5,-1541 1160.5,-1522 1122.5,-1522"/>
<text text-anchor="middle" x="1141.5" y="-1529" font-family="Helvetica,sans-Serif" font-size="10.00">char</text>
</a>
</g>
</g>
<!-- Node9&#45;&gt;Node2 -->
<g id="edge8" class="edge">
<title>Node9&#45;&gt;Node2</title>
<path fill="none" stroke="#9a32cd" stroke-dasharray="5,2" d="M1170.82,-1532.3C1230.97,-1533.94 1375.93,-1537.5 1497.5,-1537.5 1497.5,-1537.5 1497.5,-1537.5 2643,-1537.5 2831.47,-1537.5 2908.71,-792.18 2919.63,-675.72"/>
<polygon fill="#9a32cd" stroke="#9a32cd" points="1170.69,-1528.8 1160.6,-1532.02 1170.5,-1535.8 1170.69,-1528.8"/>
<text text-anchor="middle" x="2063" y="-1540.5" font-family="Helvetica,sans-Serif" font-size="10.00"> opType</text>
</g>
<!-- Node37 -->
<g id="node37" class="node">
<title>Node37</title>
<g id="a_node37"><a xlink:href="structMoFEM_1_1Problem.html" target="_top" xlink:title="keeps basic data about problem">
<polygon fill="white" stroke="black" points="1449,-1263 1449,-1282 1548,-1282 1548,-1263 1449,-1263"/>
<text text-anchor="middle" x="1498.5" y="-1270" font-family="Helvetica,sans-Serif" font-size="10.00">MoFEM::Problem</text>
</a>
</g>
</g>
<!-- Node9&#45;&gt;Node37 -->
<g id="edge52" class="edge">
<title>Node9&#45;&gt;Node37</title>
<path fill="none" stroke="#9a32cd" stroke-dasharray="5,2" d="M1170.84,-1526.91C1236.95,-1516.19 1395.87,-1490.36 1397,-1489.5 1468.7,-1434.95 1491.06,-1316.96 1496.21,-1282.28"/>
<polygon fill="#9a32cd" stroke="#9a32cd" points="1170.02,-1523.5 1160.71,-1528.55 1171.14,-1530.41 1170.02,-1523.5"/>
<text text-anchor="middle" x="1329" y="-1514.5" font-family="Helvetica,sans-Serif" font-size="10.00"> tagName</text>
</g>
<!-- Node10 -->
<g id="node10" class="node">
<title>Node10</title>
<g id="a_node10"><a xlink:href="structMoFEM_1_1ForcesAndSourcesCore.html" target="_top" xlink:title="structure to get information form mofem into EntitiesFieldData">
<polygon fill="white" stroke="black" points="2557,-360 2557,-379 2727,-379 2727,-360 2557,-360"/>
<text text-anchor="middle" x="2642" y="-367" font-family="Helvetica,sans-Serif" font-size="10.00">MoFEM::ForcesAndSourcesCore</text>
</a>
</g>
</g>
<!-- Node10&#45;&gt;Node2 -->
<g id="edge9" class="edge">
<title>Node10&#45;&gt;Node2</title>
<path fill="none" stroke="#9a32cd" stroke-dasharray="5,2" d="M2659.37,-386.63C2709.25,-438.85 2858.84,-595.43 2906.35,-645.16"/>
<polygon fill="#9a32cd" stroke="#9a32cd" points="2661.69,-384 2652.25,-379.18 2656.63,-388.83 2661.69,-384"/>
<text text-anchor="middle" x="2782" y="-552.5" font-family="Helvetica,sans-Serif" font-size="10.00"> ptrFE</text>
</g>
<!-- Node10&#45;&gt;Node10 -->
<g id="edge67" class="edge">
<title>Node10&#45;&gt;Node10</title>
<path fill="none" stroke="#9a32cd" stroke-dasharray="5,2" d="M2615.96,-388.53C2617.38,-393.63 2626.06,-397.5 2642,-397.5 2666.88,-397.5 2674.08,-388.07 2663.58,-379.26"/>
<polygon fill="#9a32cd" stroke="#9a32cd" points="2619.24,-389.79 2620.42,-379.26 2612.93,-386.75 2619.24,-389.79"/>
<text text-anchor="middle" x="2642" y="-411.5" font-family="Helvetica,sans-Serif" font-size="10.00"> sidePtrFE</text>
<text text-anchor="middle" x="2642" y="-400.5" font-family="Helvetica,sans-Serif" font-size="10.00">refinePtrFE</text>
</g>
<!-- Node11 -->
<g id="node11" class="node">
<title>Node11</title>
<g id="a_node11"><a xlink:href="structMoFEM_1_1FEMethod.html" target="_top" xlink:title="structure for User Loop Methods on finite elements">
<polygon fill="white" stroke="black" points="2202.5,-509 2202.5,-528 2309.5,-528 2309.5,-509 2202.5,-509"/>
<text text-anchor="middle" x="2256" y="-516" font-family="Helvetica,sans-Serif" font-size="10.00">MoFEM::FEMethod</text>
</a>
</g>
</g>
<!-- Node11&#45;&gt;Node10 -->
<g id="edge10" class="edge">
<title>Node11&#45;&gt;Node10</title>
<path fill="none" stroke="midnightblue" d="M2319.6,-521.93C2379.29,-522.57 2470.06,-516.46 2539,-480.5 2585.64,-456.17 2621.92,-401.62 2635.36,-379.3"/>
<polygon fill="midnightblue" stroke="midnightblue" points="2319.62,-518.43 2309.56,-521.76 2319.5,-525.43 2319.62,-518.43"/>
</g>
<!-- Node12 -->
<g id="node12" class="node">
<title>Node12</title>
<g id="a_node12"><a xlink:href="structMoFEM_1_1BasicMethod.html" target="_top" xlink:title="Data structure to exchange data between mofem and User Loop Methods.">
<polygon fill="white" stroke="black" points="1825,-553 1825,-572 1947,-572 1947,-553 1825,-553"/>
<text text-anchor="middle" x="1886" y="-560" font-family="Helvetica,sans-Serif" font-size="10.00">MoFEM::BasicMethod</text>
</a>
</g>
</g>
<!-- Node12&#45;&gt;Node11 -->
<g id="edge11" class="edge">
<title>Node12&#45;&gt;Node11</title>
<path fill="none" stroke="midnightblue" d="M1957.63,-554.06C2029.14,-545.5 2138.1,-532.48 2202.37,-524.79"/>
<polygon fill="midnightblue" stroke="midnightblue" points="1956.87,-550.62 1947.36,-555.28 1957.7,-557.57 1956.87,-550.62"/>
</g>
<!-- Node13 -->
<g id="node13" class="node">
<title>Node13</title>
<g id="a_node13"><a xlink:href="structMoFEM_1_1KspMethod.html" target="_top" xlink:title="data structure for ksp (linear solver) context">
<polygon fill="white" stroke="black" points="1442,-575 1442,-594 1555,-594 1555,-575 1442,-575"/>
<text text-anchor="middle" x="1498.5" y="-582" font-family="Helvetica,sans-Serif" font-size="10.00">MoFEM::KspMethod</text>
</a>
</g>
</g>
<!-- Node13&#45;&gt;Node12 -->
<g id="edge12" class="edge">
<title>Node13&#45;&gt;Node12</title>
<path fill="none" stroke="midnightblue" d="M1565.57,-580.73C1638.41,-576.57 1754.58,-569.94 1824.93,-565.93"/>
<polygon fill="midnightblue" stroke="midnightblue" points="1564.93,-577.26 1555.14,-581.32 1565.33,-584.25 1564.93,-577.26"/>
</g>
<!-- Node14 -->
<g id="node14" class="node">
<title>Node14</title>
<g id="a_node14"><a xlink:href="structMoFEM_1_1PetscData.html" target="_top" xlink:title=" ">
<polygon fill="white" stroke="black" points="1087.5,-675 1087.5,-694 1195.5,-694 1195.5,-675 1087.5,-675"/>
<text text-anchor="middle" x="1141.5" y="-682" font-family="Helvetica,sans-Serif" font-size="10.00">MoFEM::PetscData</text>
</a>
</g>
</g>
<!-- Node14&#45;&gt;Node13 -->
<g id="edge13" class="edge">
<title>Node14&#45;&gt;Node13</title>
<path fill="none" stroke="midnightblue" d="M1206,-683.39C1258.64,-680.69 1334.67,-672.63 1397,-649.5 1432.65,-636.27 1468.69,-608.74 1486.34,-594.11"/>
<polygon fill="midnightblue" stroke="midnightblue" points="1205.62,-679.9 1195.79,-683.86 1205.94,-686.9 1205.62,-679.9"/>
</g>
<!-- Node24 -->
<g id="node24" class="node">
<title>Node24</title>
<g id="a_node24"><a xlink:href="structMoFEM_1_1SnesMethod.html" target="_top" xlink:title="data structure for snes (nonlinear solver) context">
<polygon fill="white" stroke="black" points="1439,-537 1439,-556 1558,-556 1558,-537 1439,-537"/>
<text text-anchor="middle" x="1498.5" y="-544" font-family="Helvetica,sans-Serif" font-size="10.00">MoFEM::SnesMethod</text>
</a>
</g>
</g>
<!-- Node14&#45;&gt;Node24 -->
<g id="edge26" class="edge">
<title>Node14&#45;&gt;Node24</title>
<path fill="none" stroke="darkgreen" d="M1205.83,-674.07C1218.52,-670.69 1231.48,-666.27 1243,-660.5 1252.31,-655.83 1251.96,-650.68 1261,-645.5 1316.75,-613.56 1347.67,-637.66 1397,-596.5 1409.23,-586.29 1402.18,-574.96 1415,-565.5 1422.1,-560.27 1430.4,-556.44 1438.95,-553.65"/>
<polygon fill="darkgreen" stroke="darkgreen" points="1204.61,-670.76 1195.74,-676.56 1206.29,-677.56 1204.61,-670.76"/>
</g>
<!-- Node27 -->
<g id="node27" class="node">
<title>Node27</title>
<g id="a_node27"><a xlink:href="structMoFEM_1_1TSMethod.html" target="_top" xlink:title="data structure for TS (time stepping) context">
<polygon fill="white" stroke="black" points="1445,-805 1445,-824 1552,-824 1552,-805 1445,-805"/>
<text text-anchor="middle" x="1498.5" y="-812" font-family="Helvetica,sans-Serif" font-size="10.00">MoFEM::TSMethod</text>
</a>
</g>
</g>
<!-- Node14&#45;&gt;Node27 -->
<g id="edge32" class="edge">
<title>Node14&#45;&gt;Node27</title>
<path fill="none" stroke="darkgreen" d="M1205.98,-681.5C1259.47,-681.48 1336.7,-687.45 1397,-716.5 1440.47,-737.44 1476.82,-784.61 1491.06,-804.91"/>
<polygon fill="darkgreen" stroke="darkgreen" points="1205.92,-678 1195.94,-681.58 1205.97,-685 1205.92,-678"/>
</g>
<!-- Node15 -->
<g id="node15" class="node">
<title>Node15</title>
<g id="a_node15"><a xlink:href="structMoFEM_1_1UnknownInterface.html" target="_top" xlink:title="base class for all interface classes">
<polygon fill="white" stroke="black" points="735,-324 735,-343 883,-343 883,-324 735,-324"/>
<text text-anchor="middle" x="809" y="-331" font-family="Helvetica,sans-Serif" font-size="10.00">MoFEM::UnknownInterface</text>
</a>
</g>
</g>
<!-- Node15&#45;&gt;Node14 -->
<g id="edge14" class="edge">
<title>Node15&#45;&gt;Node14</title>
<path fill="none" stroke="midnightblue" d="M833.84,-348.9C879.02,-379.52 976.66,-452.8 1022,-541.5 1046.35,-589.13 1003.8,-621.12 1040,-660.5 1052.08,-673.64 1069.95,-680.19 1087.29,-683.29"/>
<polygon fill="midnightblue" stroke="midnightblue" points="835.54,-345.83 825.28,-343.19 831.65,-351.65 835.54,-345.83"/>
</g>
<!-- Node55 -->
<g id="node55" class="node">
<title>Node55</title>
<g id="a_node55"><a xlink:href="structMoFEM_1_1CoreInterface.html" target="_top" xlink:title="Interface.">
<polygon fill="white" stroke="black" points="1079,-263 1079,-282 1204,-282 1204,-263 1079,-263"/>
<text text-anchor="middle" x="1141.5" y="-270" font-family="Helvetica,sans-Serif" font-size="10.00">MoFEM::CoreInterface</text>
</a>
</g>
</g>
<!-- Node15&#45;&gt;Node55 -->
<g id="edge66" class="edge">
<title>Node15&#45;&gt;Node55</title>
<path fill="none" stroke="midnightblue" d="M879.34,-343.85C923.09,-346.92 979.2,-344.26 1022,-319.5 1034.48,-312.28 1028.01,-300.52 1040,-292.5 1051.46,-284.83 1065.19,-279.98 1078.77,-276.93"/>
<polygon fill="midnightblue" stroke="midnightblue" points="879.61,-340.36 869.36,-343.03 879.04,-347.34 879.61,-340.36"/>
</g>
<!-- Node16 -->
<g id="node16" class="node">
<title>Node16</title>
<g id="a_node16"><a xlink:title=" ">
<polygon fill="white" stroke="#bfbfbf" points="386,-280 386,-343 627,-343 627,-280 386,-280"/>
<text text-anchor="start" x="394" y="-331" font-family="Helvetica,sans-Serif" font-size="10.00">multi_index_container</text>
<text text-anchor="start" x="394" y="-320" font-family="Helvetica,sans-Serif" font-size="10.00">&lt; UIdTypeMap, indexed</text>
<text text-anchor="start" x="394" y="-309" font-family="Helvetica,sans-Serif" font-size="10.00">_by&lt; hashed_unique&lt; member</text>
<text text-anchor="start" x="394" y="-298" font-family="Helvetica,sans-Serif" font-size="10.00">&lt; UIdTypeMap, boost::typeindex</text>
<text text-anchor="middle" x="506.5" y="-287" font-family="Helvetica,sans-Serif" font-size="10.00">::type_index, &amp;UIdTypeMap::classIdx &gt; &gt; &gt; &gt;</text>
</a>
</g>
</g>
<!-- Node16&#45;&gt;Node15 -->
<g id="edge15" class="edge">
<title>Node16&#45;&gt;Node15</title>
<path fill="none" stroke="#9a32cd" stroke-dasharray="5,2" d="M637.41,-321.01C670.69,-323.45 705.33,-325.98 734.62,-328.13"/>
<polygon fill="#9a32cd" stroke="#9a32cd" points="637.36,-317.5 627.13,-320.26 636.85,-324.48 637.36,-317.5"/>
<text text-anchor="middle" x="681" y="-328.5" font-family="Helvetica,sans-Serif" font-size="10.00"> iFaceTypeMap</text>
</g>
<!-- Node17 -->
<g id="node17" class="node">
<title>Node17</title>
<g id="a_node17"><a xlink:title=" ">
<polygon fill="white" stroke="#bfbfbf" points="0,-237 0,-256 125,-256 125,-237 0,-237"/>
<text text-anchor="middle" x="62.5" y="-244" font-family="Helvetica,sans-Serif" font-size="10.00">multi_index_container</text>
</a>
</g>
</g>
<!-- Node17&#45;&gt;Node12 -->
<g id="edge39" class="edge">
<title>Node17&#45;&gt;Node12</title>
<path fill="none" stroke="#9a32cd" stroke-dasharray="5,2" d="M135.41,-242.3C222.85,-237.56 374.95,-230.5 505.5,-230.5 505.5,-230.5 505.5,-230.5 1499.5,-230.5 1642.54,-230.5 1701.48,-267.6 1781,-386.5 1820.04,-444.88 1751.97,-491.34 1799,-543.5 1805.86,-551.11 1815.02,-556.04 1824.81,-559.16"/>
<polygon fill="#9a32cd" stroke="#9a32cd" points="135.12,-238.81 125.33,-242.85 135.51,-245.8 135.12,-238.81"/>
<text text-anchor="middle" x="961.5" y="-310.5" font-family="Helvetica,sans-Serif" font-size="10.00"> adjacenciesPtr</text>
<text text-anchor="middle" x="961.5" y="-299.5" font-family="Helvetica,sans-Serif" font-size="10.00">refinedEntitiesPtr</text>
<text text-anchor="middle" x="961.5" y="-288.5" font-family="Helvetica,sans-Serif" font-size="10.00">finiteElementsEntitiesPtr</text>
<text text-anchor="middle" x="961.5" y="-277.5" font-family="Helvetica,sans-Serif" font-size="10.00">dofsPtr</text>
<text text-anchor="middle" x="961.5" y="-266.5" font-family="Helvetica,sans-Serif" font-size="10.00">entitiesPtr</text>
<text text-anchor="middle" x="961.5" y="-255.5" font-family="Helvetica,sans-Serif" font-size="10.00">finiteElementsPtr</text>
<text text-anchor="middle" x="961.5" y="-244.5" font-family="Helvetica,sans-Serif" font-size="10.00">refinedFiniteElementsPtr</text>
<text text-anchor="middle" x="961.5" y="-233.5" font-family="Helvetica,sans-Serif" font-size="10.00">fieldsPtr</text>
</g>
<!-- Node17&#45;&gt;Node16 -->
<g id="edge16" class="edge">
<title>Node17&#45;&gt;Node16</title>
<path fill="none" stroke="orange" stroke-dasharray="5,2" d="M135.56,-257.1C203.25,-267.05 305.79,-282.13 385.77,-293.89"/>
<polygon fill="orange" stroke="orange" points="135.83,-253.6 125.42,-255.61 134.81,-260.52 135.83,-253.6"/>
<text text-anchor="start" x="143" y="-326.5" font-family="Helvetica,sans-Serif" font-size="10.00"> &lt; UIdTypeMap, indexed</text>
<text text-anchor="start" x="143" y="-315.5" font-family="Helvetica,sans-Serif" font-size="10.00">_by&lt; hashed_unique&lt; member</text>
<text text-anchor="start" x="143" y="-304.5" font-family="Helvetica,sans-Serif" font-size="10.00">&lt; UIdTypeMap, boost::typeindex</text>
<text text-anchor="middle" x="255.5" y="-293.5" font-family="Helvetica,sans-Serif" font-size="10.00">::type_index, &amp;UIdTypeMap::classIdx &gt; &gt; &gt; &gt;</text>
</g>
<!-- Node18 -->
<g id="node18" class="node">
<title>Node18</title>
<g id="a_node18"><a xlink:title=" ">
<polygon fill="white" stroke="#bfbfbf" points="738.5,-986 738.5,-1005 879.5,-1005 879.5,-986 738.5,-986"/>
<text text-anchor="middle" x="809" y="-993" font-family="Helvetica,sans-Serif" font-size="10.00">static constexpr Switches</text>
</a>
</g>
</g>
<!-- Node18&#45;&gt;Node14 -->
<g id="edge17" class="edge">
<title>Node18&#45;&gt;Node14</title>
<path fill="none" stroke="#9a32cd" stroke-dasharray="5,2" d="M869.87,-982.64C874.43,-980.85 878.86,-978.81 883,-976.5 957.66,-934.84 983.28,-919.73 1022,-843.5 1049.41,-789.53 999.43,-753.43 1040,-708.5 1052.02,-695.19 1069.99,-688.61 1087.42,-685.54"/>
<polygon fill="#9a32cd" stroke="#9a32cd" points="868.66,-979.36 860.4,-986 870.99,-985.96 868.66,-979.36"/>
<text text-anchor="middle" x="961.5" y="-1044.5" font-family="Helvetica,sans-Serif" font-size="10.00"> CtxSetX_TT</text>
<text text-anchor="middle" x="961.5" y="-1033.5" font-family="Helvetica,sans-Serif" font-size="10.00">CtxSetX_T</text>
<text text-anchor="middle" x="961.5" y="-1022.5" font-family="Helvetica,sans-Serif" font-size="10.00">CtxSetA</text>
<text text-anchor="middle" x="961.5" y="-1011.5" font-family="Helvetica,sans-Serif" font-size="10.00">CtxSetB</text>
<text text-anchor="middle" x="961.5" y="-1000.5" font-family="Helvetica,sans-Serif" font-size="10.00">CtxSetTime</text>
<text text-anchor="middle" x="961.5" y="-989.5" font-family="Helvetica,sans-Serif" font-size="10.00">CtxSetNone</text>
<text text-anchor="middle" x="961.5" y="-978.5" font-family="Helvetica,sans-Serif" font-size="10.00">CtxSetF</text>
<text text-anchor="middle" x="961.5" y="-967.5" font-family="Helvetica,sans-Serif" font-size="10.00">CtxSetX</text>
</g>
<!-- Node19 -->
<g id="node19" class="node">
<title>Node19</title>
<g id="a_node19"><a xlink:title=" ">
<polygon fill="white" stroke="#bfbfbf" points="791.5,-646 791.5,-665 826.5,-665 826.5,-646 791.5,-646"/>
<text text-anchor="middle" x="809" y="-653" font-family="Helvetica,sans-Serif" font-size="10.00">Mat</text>
</a>
</g>
</g>
<!-- Node19&#45;&gt;Node13 -->
<g id="edge23" class="edge">
<title>Node19&#45;&gt;Node13</title>
<path fill="none" stroke="#9a32cd" stroke-dasharray="5,2" d="M837.02,-653.75C920.53,-648.17 1181.88,-629.55 1397,-601.5 1412.88,-599.43 1430.09,-596.7 1445.71,-594.03"/>
<polygon fill="#9a32cd" stroke="#9a32cd" points="836.61,-650.27 826.86,-654.42 837.07,-657.25 836.61,-650.27"/>
<text text-anchor="middle" x="1141.5" y="-651.5" font-family="Helvetica,sans-Serif" font-size="10.00"> ksp_A</text>
<text text-anchor="middle" x="1141.5" y="-640.5" font-family="Helvetica,sans-Serif" font-size="10.00">ksp_B</text>
</g>
<!-- Node19&#45;&gt;Node14 -->
<g id="edge18" class="edge">
<title>Node19&#45;&gt;Node14</title>
<path fill="none" stroke="#9a32cd" stroke-dasharray="5,2" d="M837.11,-657.88C891.77,-662.68 1016.08,-673.58 1087.46,-679.85"/>
<polygon fill="#9a32cd" stroke="#9a32cd" points="837.11,-654.37 826.84,-656.98 836.5,-661.34 837.11,-654.37"/>
<text text-anchor="middle" x="961.5" y="-686.5" font-family="Helvetica,sans-Serif" font-size="10.00"> A</text>
<text text-anchor="middle" x="961.5" y="-675.5" font-family="Helvetica,sans-Serif" font-size="10.00">B</text>
</g>
<!-- Node19&#45;&gt;Node24 -->
<g id="edge28" class="edge">
<title>Node19&#45;&gt;Node24</title>
<path fill="none" stroke="#9a32cd" stroke-dasharray="5,2" d="M836.71,-649.64C890.87,-637.52 1009.57,-609.64 1022,-595.5 1057.9,-554.67 998.82,-510 1040,-474.5 1167.48,-364.58 1252.45,-483.8 1415,-527.5 1427.35,-530.82 1440.83,-534.08 1453.25,-536.93"/>
<polygon fill="#9a32cd" stroke="#9a32cd" points="835.79,-646.26 826.79,-651.85 837.31,-653.09 835.79,-646.26"/>
<text text-anchor="middle" x="1141.5" y="-488.5" font-family="Helvetica,sans-Serif" font-size="10.00"> snes_A</text>
<text text-anchor="middle" x="1141.5" y="-477.5" font-family="Helvetica,sans-Serif" font-size="10.00">snes_B</text>
</g>
<!-- Node19&#45;&gt;Node27 -->
<g id="edge33" class="edge">
<title>Node19&#45;&gt;Node27</title>
<path fill="none" stroke="#9a32cd" stroke-dasharray="5,2" d="M820.56,-673.93C848.88,-721.33 931.78,-847.24 1040,-897.5 1112,-930.94 1323.31,-940.04 1397,-910.5 1441.57,-892.63 1477.58,-844.53 1491.4,-824"/>
<polygon fill="#9a32cd" stroke="#9a32cd" points="823.44,-671.92 815.35,-665.06 817.4,-675.46 823.44,-671.92"/>
<text text-anchor="middle" x="1141.5" y="-941.5" font-family="Helvetica,sans-Serif" font-size="10.00"> ts_A</text>
<text text-anchor="middle" x="1141.5" y="-930.5" font-family="Helvetica,sans-Serif" font-size="10.00">ts_B</text>
</g>
<!-- Node20 -->
<g id="node20" class="node">
<title>Node20</title>
<g id="a_node20"><a xlink:title=" ">
<polygon fill="white" stroke="#bfbfbf" points="772.5,-948 772.5,-967 845.5,-967 845.5,-948 772.5,-948"/>
<text text-anchor="middle" x="809" y="-955" font-family="Helvetica,sans-Serif" font-size="10.00">bitset&lt; 8 &gt;</text>
</a>
</g>
</g>
<!-- Node20&#45;&gt;Node14 -->
<g id="edge19" class="edge">
<title>Node20&#45;&gt;Node14</title>
<path fill="none" stroke="#9a32cd" stroke-dasharray="5,2" d="M821.18,-939.31C850.71,-892.93 935.7,-769.58 1040,-708.5 1054.32,-700.12 1071.41,-694.66 1087.4,-691.1"/>
<polygon fill="#9a32cd" stroke="#9a32cd" points="818.09,-937.66 815.74,-947.99 824.02,-941.38 818.09,-937.66"/>
<text text-anchor="middle" x="961.5" y="-831.5" font-family="Helvetica,sans-Serif" font-size="10.00"> data_ctx</text>
</g>
<!-- Node21 -->
<g id="node21" class="node">
<title>Node21</title>
<g id="a_node21"><a xlink:title=" ">
<polygon fill="white" stroke="#bfbfbf" points="792,-512 792,-531 826,-531 826,-512 792,-512"/>
<text text-anchor="middle" x="809" y="-519" font-family="Helvetica,sans-Serif" font-size="10.00">Vec</text>
</a>
</g>
</g>
<!-- Node21&#45;&gt;Node13 -->
<g id="edge24" class="edge">
<title>Node21&#45;&gt;Node13</title>
<path fill="none" stroke="#9a32cd" stroke-dasharray="5,2" d="M836.29,-517.22C921.26,-504.55 1194.73,-473.03 1397,-554.5 1405.7,-558 1406.32,-561.96 1415,-565.5 1424.25,-569.28 1434.41,-572.39 1444.34,-574.92"/>
<polygon fill="#9a32cd" stroke="#9a32cd" points="835.58,-513.79 826.22,-518.76 836.64,-520.71 835.58,-513.79"/>
<text text-anchor="middle" x="1141.5" y="-516.5" font-family="Helvetica,sans-Serif" font-size="10.00"> ksp_f</text>
</g>
<!-- Node21&#45;&gt;Node14 -->
<g id="edge20" class="edge">
<title>Node21&#45;&gt;Node14</title>
<path fill="none" stroke="#9a32cd" stroke-dasharray="5,2" d="M836.13,-526.41C880.2,-535.98 969.6,-561.14 1022,-615.5 1036.95,-631.01 1023.7,-646.42 1040,-660.5 1053.1,-671.81 1070.61,-678.01 1087.33,-681.34"/>
<polygon fill="#9a32cd" stroke="#9a32cd" points="836.71,-522.95 826.2,-524.35 835.29,-529.81 836.71,-522.95"/>
<text text-anchor="middle" x="961.5" y="-651.5" font-family="Helvetica,sans-Serif" font-size="10.00"> f</text>
<text text-anchor="middle" x="961.5" y="-640.5" font-family="Helvetica,sans-Serif" font-size="10.00">x</text>
<text text-anchor="middle" x="961.5" y="-629.5" font-family="Helvetica,sans-Serif" font-size="10.00">x_t</text>
<text text-anchor="middle" x="961.5" y="-618.5" font-family="Helvetica,sans-Serif" font-size="10.00">x_tt</text>
</g>
<!-- Node21&#45;&gt;Node24 -->
<g id="edge29" class="edge">
<title>Node21&#45;&gt;Node24</title>
<path fill="none" stroke="#9a32cd" stroke-dasharray="5,2" d="M826.96,-504.63C862.63,-470.49 949.62,-394.11 1040,-366.5 1115.96,-343.29 1340.44,-327.75 1397,-383.5 1442.93,-428.78 1371.78,-479.63 1415,-527.5 1421.4,-534.59 1429.87,-539.31 1438.95,-542.39"/>
<polygon fill="#9a32cd" stroke="#9a32cd" points="824.13,-502.5 819.4,-511.98 829.01,-507.52 824.13,-502.5"/>
<text text-anchor="middle" x="1141.5" y="-380.5" font-family="Helvetica,sans-Serif" font-size="10.00"> snes_x</text>
<text text-anchor="middle" x="1141.5" y="-369.5" font-family="Helvetica,sans-Serif" font-size="10.00">snes_f</text>
</g>
<!-- Node21&#45;&gt;Node27 -->
<g id="edge37" class="edge">
<title>Node21&#45;&gt;Node27</title>
<path fill="none" stroke="#9a32cd" stroke-dasharray="5,2" d="M823.65,-539.41C839.77,-561.28 866.48,-599.91 883,-636.5 894.81,-662.65 879.12,-679.93 901,-698.5 959.36,-748.03 1168.03,-724.07 1243,-739.5 1327.37,-756.86 1424.28,-788.88 1470.39,-804.88"/>
<polygon fill="#9a32cd" stroke="#9a32cd" points="826.24,-537.03 817.45,-531.11 820.63,-541.22 826.24,-537.03"/>
<text text-anchor="middle" x="1141.5" y="-775.5" font-family="Helvetica,sans-Serif" font-size="10.00"> ts_u</text>
<text text-anchor="middle" x="1141.5" y="-764.5" font-family="Helvetica,sans-Serif" font-size="10.00">ts_F</text>
<text text-anchor="middle" x="1141.5" y="-753.5" font-family="Helvetica,sans-Serif" font-size="10.00">ts_u_t</text>
<text text-anchor="middle" x="1141.5" y="-742.5" font-family="Helvetica,sans-Serif" font-size="10.00">ts_u_tt</text>
</g>
<!-- Node22 -->
<g id="node22" class="node">
<title>Node22</title>
<g id="a_node22"><a xlink:title=" ">
<polygon fill="white" stroke="#bfbfbf" points="1124,-579 1124,-598 1159,-598 1159,-579 1124,-579"/>
<text text-anchor="middle" x="1141.5" y="-586" font-family="Helvetica,sans-Serif" font-size="10.00">KSP</text>
</a>
</g>
</g>
<!-- Node22&#45;&gt;Node13 -->
<g id="edge21" class="edge">
<title>Node22&#45;&gt;Node13</title>
<path fill="none" stroke="#9a32cd" stroke-dasharray="5,2" d="M1169.29,-588.2C1227.06,-587.55 1364.41,-586 1441.88,-585.13"/>
<polygon fill="#9a32cd" stroke="#9a32cd" points="1169.11,-584.7 1159.15,-588.31 1169.19,-591.7 1169.11,-584.7"/>
<text text-anchor="middle" x="1329" y="-589.5" font-family="Helvetica,sans-Serif" font-size="10.00"> ksp</text>
</g>
<!-- Node23 -->
<g id="node23" class="node">
<title>Node23</title>
<g id="a_node23"><a xlink:title=" ">
<polygon fill="white" stroke="#bfbfbf" points="1104.5,-541 1104.5,-560 1178.5,-560 1178.5,-541 1104.5,-541"/>
<text text-anchor="middle" x="1141.5" y="-548" font-family="Helvetica,sans-Serif" font-size="10.00">KSPContext</text>
</a>
</g>
</g>
<!-- Node23&#45;&gt;Node13 -->
<g id="edge22" class="edge">
<title>Node23&#45;&gt;Node13</title>
<path fill="none" stroke="#9a32cd" stroke-dasharray="5,2" d="M1188.87,-553.31C1239.94,-556.59 1324.45,-562.6 1397,-570.5 1411.54,-572.08 1427.21,-574.11 1441.76,-576.13"/>
<polygon fill="#9a32cd" stroke="#9a32cd" points="1189.01,-549.81 1178.81,-552.67 1188.57,-556.79 1189.01,-549.81"/>
<text text-anchor="middle" x="1329" y="-573.5" font-family="Helvetica,sans-Serif" font-size="10.00"> ksp_ctx</text>
</g>
<!-- Node24&#45;&gt;Node12 -->
<g id="edge25" class="edge">
<title>Node24&#45;&gt;Node12</title>
<path fill="none" stroke="midnightblue" d="M1568.06,-549.35C1641.05,-552.37 1755.39,-557.12 1824.95,-560.01"/>
<polygon fill="midnightblue" stroke="midnightblue" points="1568.19,-545.85 1558.05,-548.93 1567.9,-552.84 1568.19,-545.85"/>
</g>
<!-- Node25 -->
<g id="node25" class="node">
<title>Node25</title>
<g id="a_node25"><a xlink:title=" ">
<polygon fill="white" stroke="#bfbfbf" points="1120.5,-398 1120.5,-417 1162.5,-417 1162.5,-398 1120.5,-398"/>
<text text-anchor="middle" x="1141.5" y="-405" font-family="Helvetica,sans-Serif" font-size="10.00">SNES</text>
</a>
</g>
</g>
<!-- Node25&#45;&gt;Node24 -->
<g id="edge27" class="edge">
<title>Node25&#45;&gt;Node24</title>
<path fill="none" stroke="#9a32cd" stroke-dasharray="5,2" d="M1172.6,-399.57C1225.36,-387.65 1334.81,-372.1 1397,-428.5 1430.13,-458.54 1384.12,-495.15 1415,-527.5 1421.5,-534.3 1429.9,-538.89 1438.85,-541.95"/>
<polygon fill="#9a32cd" stroke="#9a32cd" points="1171.76,-396.17 1162.84,-401.88 1173.38,-402.98 1171.76,-396.17"/>
<text text-anchor="middle" x="1329" y="-431.5" font-family="Helvetica,sans-Serif" font-size="10.00"> snes</text>
</g>
<!-- Node26 -->
<g id="node26" class="node">
<title>Node26</title>
<g id="a_node26"><a xlink:title=" ">
<polygon fill="white" stroke="#bfbfbf" points="1101.5,-302 1101.5,-321 1181.5,-321 1181.5,-302 1101.5,-302"/>
<text text-anchor="middle" x="1141.5" y="-309" font-family="Helvetica,sans-Serif" font-size="10.00">SNESContext</text>
</a>
</g>
</g>
<!-- Node26&#45;&gt;Node24 -->
<g id="edge30" class="edge">
<title>Node26&#45;&gt;Node24</title>
<path fill="none" stroke="#9a32cd" stroke-dasharray="5,2" d="M1187.65,-299.79C1244.79,-287.98 1342.32,-278.35 1397,-332.5 1427.92,-363.12 1386.36,-494.73 1415,-527.5 1421.29,-534.69 1429.7,-539.46 1438.75,-542.57"/>
<polygon fill="#9a32cd" stroke="#9a32cd" points="1186.84,-296.38 1177.82,-301.93 1188.33,-303.22 1186.84,-296.38"/>
<text text-anchor="middle" x="1329" y="-335.5" font-family="Helvetica,sans-Serif" font-size="10.00"> snes_ctx</text>
</g>
<!-- Node27&#45;&gt;Node12 -->
<g id="edge31" class="edge">
<title>Node27&#45;&gt;Node12</title>
<path fill="none" stroke="midnightblue" d="M1516.16,-797.63C1559.02,-755.19 1678.26,-643.22 1799,-584.5 1809.67,-579.31 1821.7,-575.25 1833.31,-572.11"/>
<polygon fill="midnightblue" stroke="midnightblue" points="1513.45,-795.39 1508.84,-804.93 1518.39,-800.34 1513.45,-795.39"/>
</g>
<!-- Node28 -->
<g id="node28" class="node">
<title>Node28</title>
<g id="a_node28"><a xlink:title=" ">
<polygon fill="white" stroke="#bfbfbf" points="1109,-869 1109,-888 1174,-888 1174,-869 1109,-869"/>
<text text-anchor="middle" x="1141.5" y="-876" font-family="Helvetica,sans-Serif" font-size="10.00">PetscReal</text>
</a>
</g>
</g>
<!-- Node28&#45;&gt;Node27 -->
<g id="edge34" class="edge">
<title>Node28&#45;&gt;Node27</title>
<path fill="none" stroke="#9a32cd" stroke-dasharray="5,2" d="M1184.33,-874.62C1235.02,-869.48 1322.86,-859.21 1397,-843.5 1421.34,-838.34 1448.41,-830.4 1468.32,-824.13"/>
<polygon fill="#9a32cd" stroke="#9a32cd" points="1183.7,-871.16 1174.1,-875.63 1184.39,-878.13 1183.7,-871.16"/>
<text text-anchor="middle" x="1329" y="-900.5" font-family="Helvetica,sans-Serif" font-size="10.00"> ts_a</text>
<text text-anchor="middle" x="1329" y="-889.5" font-family="Helvetica,sans-Serif" font-size="10.00">ts_t</text>
<text text-anchor="middle" x="1329" y="-878.5" font-family="Helvetica,sans-Serif" font-size="10.00">ts_dt</text>
<text text-anchor="middle" x="1329" y="-867.5" font-family="Helvetica,sans-Serif" font-size="10.00">ts_aa</text>
</g>
<!-- Node29 -->
<g id="node29" class="node">
<title>Node29</title>
<g id="a_node29"><a xlink:title=" ">
<polygon fill="white" stroke="#bfbfbf" points="1108,-831 1108,-850 1175,-850 1175,-831 1108,-831"/>
<text text-anchor="middle" x="1141.5" y="-838" font-family="Helvetica,sans-Serif" font-size="10.00">TSContext</text>
</a>
</g>
</g>
<!-- Node29&#45;&gt;Node27 -->
<g id="edge35" class="edge">
<title>Node29&#45;&gt;Node27</title>
<path fill="none" stroke="#9a32cd" stroke-dasharray="5,2" d="M1185.59,-837.34C1250.81,-832.57 1374.44,-823.51 1444.88,-818.35"/>
<polygon fill="#9a32cd" stroke="#9a32cd" points="1184.98,-833.88 1175.26,-838.1 1185.49,-840.86 1184.98,-833.88"/>
<text text-anchor="middle" x="1329" y="-833.5" font-family="Helvetica,sans-Serif" font-size="10.00"> ts_ctx</text>
</g>
<!-- Node30 -->
<g id="node30" class="node">
<title>Node30</title>
<g id="a_node30"><a xlink:title=" ">
<polygon fill="white" stroke="#bfbfbf" points="1113.5,-793 1113.5,-812 1169.5,-812 1169.5,-793 1113.5,-793"/>
<text text-anchor="middle" x="1141.5" y="-800" font-family="Helvetica,sans-Serif" font-size="10.00">PetscInt</text>
</a>
</g>
</g>
<!-- Node30&#45;&gt;Node27 -->
<g id="edge36" class="edge">
<title>Node30&#45;&gt;Node27</title>
<path fill="none" stroke="#9a32cd" stroke-dasharray="5,2" d="M1179.93,-799.7C1229.62,-796.5 1320.05,-792.41 1397,-798.5 1413.56,-799.81 1431.5,-802.31 1447.59,-804.96"/>
<polygon fill="#9a32cd" stroke="#9a32cd" points="1179.42,-796.23 1169.67,-800.39 1179.88,-803.21 1179.42,-796.23"/>
<text text-anchor="middle" x="1329" y="-801.5" font-family="Helvetica,sans-Serif" font-size="10.00"> ts_step</text>
</g>
<!-- Node31 -->
<g id="node31" class="node">
<title>Node31</title>
<g id="a_node31"><a xlink:title=" ">
<polygon fill="white" stroke="#bfbfbf" points="1127,-965 1127,-984 1156,-984 1156,-965 1127,-965"/>
<text text-anchor="middle" x="1141.5" y="-972" font-family="Helvetica,sans-Serif" font-size="10.00">TS</text>
</a>
</g>
</g>
<!-- Node31&#45;&gt;Node27 -->
<g id="edge38" class="edge">
<title>Node31&#45;&gt;Node27</title>
<path fill="none" stroke="#9a32cd" stroke-dasharray="5,2" d="M1166.54,-971.29C1228.03,-963 1386.97,-941.17 1397,-935.5 1445.49,-908.07 1480.52,-847.52 1492.75,-824.05"/>
<polygon fill="#9a32cd" stroke="#9a32cd" points="1165.69,-967.87 1156.24,-972.67 1166.62,-974.81 1165.69,-967.87"/>
<text text-anchor="middle" x="1329" y="-960.5" font-family="Helvetica,sans-Serif" font-size="10.00"> ts</text>
</g>
<!-- Node32 -->
<g id="node32" class="node">
<title>Node32</title>
<g id="a_node32"><a xlink:title=" ">
<polygon fill="white" stroke="#bfbfbf" points="1454,-499 1454,-518 1543,-518 1543,-499 1454,-499"/>
<text text-anchor="middle" x="1498.5" y="-506" font-family="Helvetica,sans-Serif" font-size="10.00">pair&lt; int, int &gt;</text>
</a>
</g>
</g>
<!-- Node32&#45;&gt;Node12 -->
<g id="edge40" class="edge">
<title>Node32&#45;&gt;Node12</title>
<path fill="none" stroke="#9a32cd" stroke-dasharray="5,2" d="M1553.46,-508.55C1610.8,-509.79 1703.67,-515.18 1781,-535.5 1789.47,-537.72 1790.68,-540.76 1799,-543.5 1810.04,-547.13 1822.1,-550.28 1833.61,-552.92"/>
<polygon fill="#9a32cd" stroke="#9a32cd" points="1553.24,-505.05 1543.18,-508.37 1553.11,-512.05 1553.24,-505.05"/>
<text text-anchor="middle" x="1690.5" y="-538.5" font-family="Helvetica,sans-Serif" font-size="10.00"> loHiFERank</text>
</g>
<!-- Node33 -->
<g id="node33" class="node">
<title>Node33</title>
<g id="a_node33"><a xlink:title=" ">
<polygon fill="white" stroke="#bfbfbf" points="1428.5,-461 1428.5,-480 1568.5,-480 1568.5,-461 1428.5,-461"/>
<text text-anchor="middle" x="1498.5" y="-468" font-family="Helvetica,sans-Serif" font-size="10.00">weak_ptr&lt; CacheTuple &gt;</text>
</a>
</g>
</g>
<!-- Node33&#45;&gt;Node12 -->
<g id="edge41" class="edge">
<title>Node33&#45;&gt;Node12</title>
<path fill="none" stroke="#9a32cd" stroke-dasharray="5,2" d="M1553.05,-459.36C1614.57,-449.8 1715.44,-444.47 1781,-494.5 1799.44,-508.58 1781.53,-528.24 1799,-543.5 1806.37,-549.94 1815.43,-554.35 1824.87,-557.33"/>
<polygon fill="#9a32cd" stroke="#9a32cd" points="1552.45,-455.91 1543.15,-460.99 1553.59,-462.82 1552.45,-455.91"/>
<text text-anchor="middle" x="1690.5" y="-497.5" font-family="Helvetica,sans-Serif" font-size="10.00"> cacheWeakPtr</text>
</g>
<!-- Node34 -->
<g id="node34" class="node">
<title>Node34</title>
<g id="a_node34"><a xlink:title=" ">
<polygon fill="white" stroke="#bfbfbf" points="1442.5,-418 1442.5,-437 1554.5,-437 1554.5,-418 1442.5,-418"/>
<text text-anchor="middle" x="1498.5" y="-425" font-family="Helvetica,sans-Serif" font-size="10.00">unique_ptr&lt; bool &gt;</text>
</a>
</g>
</g>
<!-- Node34&#45;&gt;Node12 -->
<g id="edge42" class="edge">
<title>Node34&#45;&gt;Node12</title>
<path fill="none" stroke="#9a32cd" stroke-dasharray="5,2" d="M1533.66,-414.7C1591.99,-395.29 1711.22,-366.64 1781,-426.5 1820.93,-460.76 1763.02,-505.11 1799,-543.5 1805.9,-550.86 1814.96,-555.69 1824.61,-558.81"/>
<polygon fill="#9a32cd" stroke="#9a32cd" points="1532.5,-411.4 1524.17,-417.96 1534.77,-418.02 1532.5,-411.4"/>
<text text-anchor="middle" x="1690.5" y="-440.5" font-family="Helvetica,sans-Serif" font-size="10.00"> matAssembleSwitch</text>
<text text-anchor="middle" x="1690.5" y="-429.5" font-family="Helvetica,sans-Serif" font-size="10.00">vecAssembleSwitch</text>
</g>
<!-- Node35 -->
<g id="node35" class="node">
<title>Node35</title>
<g id="a_node35"><a xlink:title=" ">
<polygon fill="white" stroke="#bfbfbf" points="1127,-1005 1127,-1024 1156,-1024 1156,-1005 1127,-1005"/>
<text text-anchor="middle" x="1141.5" y="-1012" font-family="Helvetica,sans-Serif" font-size="10.00">int</text>
</a>
</g>
</g>
<!-- Node35&#45;&gt;Node12 -->
<g id="edge43" class="edge">
<title>Node35&#45;&gt;Node12</title>
<path fill="none" stroke="#9a32cd" stroke-dasharray="5,2" d="M1166.45,-1011.68C1221.49,-1004.97 1355.42,-987.3 1397,-969.5 1596.6,-884.06 1668.52,-853.22 1781,-667.5 1800.55,-635.21 1772.81,-611.68 1799,-584.5 1806.06,-577.18 1815.19,-572.17 1824.87,-568.76"/>
<polygon fill="#9a32cd" stroke="#9a32cd" points="1165.77,-1008.24 1156.26,-1012.91 1166.6,-1015.19 1165.77,-1008.24"/>
<text text-anchor="middle" x="1498.5" y="-996.5" font-family="Helvetica,sans-Serif" font-size="10.00"> sIze</text>
<text text-anchor="middle" x="1498.5" y="-985.5" font-family="Helvetica,sans-Serif" font-size="10.00">loopSize</text>
<text text-anchor="middle" x="1498.5" y="-974.5" font-family="Helvetica,sans-Serif" font-size="10.00">nInTheLoop</text>
<text text-anchor="middle" x="1498.5" y="-963.5" font-family="Helvetica,sans-Serif" font-size="10.00">rAnk</text>
</g>
<!-- Node35&#45;&gt;Node37 -->
<g id="edge55" class="edge">
<title>Node35&#45;&gt;Node37</title>
<path fill="none" stroke="#9a32cd" stroke-dasharray="5,2" d="M1166.08,-1012.08C1222.04,-1006.84 1360.84,-996.94 1397,-1023.5 1416.37,-1037.73 1406.37,-1052.06 1415,-1074.5 1443.06,-1147.49 1480.6,-1233.97 1493.18,-1262.69"/>
<polygon fill="#9a32cd" stroke="#9a32cd" points="1165.67,-1008.6 1156.05,-1013.05 1166.34,-1015.57 1165.67,-1008.6"/>
<text text-anchor="middle" x="1329" y="-1092.5" font-family="Helvetica,sans-Serif" font-size="10.00"> tagNameSize</text>
<text text-anchor="middle" x="1329" y="-1081.5" font-family="Helvetica,sans-Serif" font-size="10.00">nbDofsRow</text>
<text text-anchor="middle" x="1329" y="-1070.5" font-family="Helvetica,sans-Serif" font-size="10.00">nbLocDofsCol</text>
<text text-anchor="middle" x="1329" y="-1059.5" font-family="Helvetica,sans-Serif" font-size="10.00">nbDofsCol</text>
<text text-anchor="middle" x="1329" y="-1048.5" font-family="Helvetica,sans-Serif" font-size="10.00">nbGhostDofsRow</text>
<text text-anchor="middle" x="1329" y="-1037.5" font-family="Helvetica,sans-Serif" font-size="10.00">nbGhostDofsCol</text>
<text text-anchor="middle" x="1329" y="-1026.5" font-family="Helvetica,sans-Serif" font-size="10.00">nbLocDofsRow</text>
</g>
<!-- Node36 -->
<g id="node36" class="node">
<title>Node36</title>
<g id="a_node36"><a xlink:title=" ">
<polygon fill="white" stroke="#bfbfbf" points="1415,-1046 1415,-1065 1582,-1065 1582,-1046 1415,-1046"/>
<text text-anchor="middle" x="1498.5" y="-1053" font-family="Helvetica,sans-Serif" font-size="10.00">function&lt; MoFEMErrorCode()&gt;</text>
</a>
</g>
</g>
<!-- Node36&#45;&gt;Node12 -->
<g id="edge44" class="edge">
<title>Node36&#45;&gt;Node12</title>
<path fill="none" stroke="#9a32cd" stroke-dasharray="5,2" d="M1592.67,-1063.32C1655.8,-1063.03 1735.71,-1050.66 1781,-997.5 1810.79,-962.53 1770.05,-620.16 1799,-584.5 1805.61,-576.36 1814.77,-571 1824.67,-567.5"/>
<polygon fill="#9a32cd" stroke="#9a32cd" points="1592.31,-1059.82 1582.29,-1063.26 1592.27,-1066.82 1592.31,-1059.82"/>
<text text-anchor="middle" x="1690.5" y="-1087.5" font-family="Helvetica,sans-Serif" font-size="10.00"> preProcessHook</text>
<text text-anchor="middle" x="1690.5" y="-1076.5" font-family="Helvetica,sans-Serif" font-size="10.00">operatorHook</text>
<text text-anchor="middle" x="1690.5" y="-1065.5" font-family="Helvetica,sans-Serif" font-size="10.00">postProcessHook</text>
</g>
<!-- Node37&#45;&gt;Node12 -->
<g id="edge45" class="edge">
<title>Node37&#45;&gt;Node12</title>
<path fill="none" stroke="#9a32cd" stroke-dasharray="5,2" d="M1544.16,-1259.83C1609.4,-1238.66 1728.69,-1189.32 1781,-1099.5 1809.81,-1050.02 1763.1,-629.11 1799,-584.5 1805.57,-576.34 1814.72,-570.96 1824.61,-567.46"/>
<polygon fill="#9a32cd" stroke="#9a32cd" points="1543.03,-1256.51 1534.55,-1262.87 1545.14,-1263.19 1543.03,-1256.51"/>
<text text-anchor="middle" x="1690.5" y="-1239.5" font-family="Helvetica,sans-Serif" font-size="10.00"> problemPtr</text>
</g>
<!-- Node38 -->
<g id="node38" class="node">
<title>Node38</title>
<g id="a_node38"><a xlink:title=" ">
<polygon fill="white" stroke="#bfbfbf" points="1058,-1087.5 1058,-1117.5 1225,-1117.5 1225,-1087.5 1058,-1087.5"/>
<text text-anchor="start" x="1066" y="-1105.5" font-family="Helvetica,sans-Serif" font-size="10.00">shared_ptr&lt; NumeredEntFinite</text>
<text text-anchor="middle" x="1141.5" y="-1094.5" font-family="Helvetica,sans-Serif" font-size="10.00">Element_multiIndex &gt;</text>
</a>
</g>
</g>
<!-- Node38&#45;&gt;Node37 -->
<g id="edge46" class="edge">
<title>Node38&#45;&gt;Node37</title>
<path fill="none" stroke="#9a32cd" stroke-dasharray="5,2" d="M1235.14,-1103.96C1296.39,-1106.42 1370.16,-1112.72 1397,-1128.5 1451.92,-1160.8 1484.15,-1236.34 1494.14,-1262.99"/>
<polygon fill="#9a32cd" stroke="#9a32cd" points="1235.17,-1100.46 1225.04,-1103.58 1234.9,-1107.45 1235.17,-1100.46"/>
<text text-anchor="middle" x="1329" y="-1131.5" font-family="Helvetica,sans-Serif" font-size="10.00"> numeredFiniteElementsPtr</text>
</g>
<!-- Node39 -->
<g id="node39" class="node">
<title>Node39</title>
<g id="a_node39"><a xlink:title=" ">
<polygon fill="white" stroke="#bfbfbf" points="1112,-1477 1112,-1496 1171,-1496 1171,-1477 1112,-1477"/>
<text text-anchor="middle" x="1141.5" y="-1484" font-family="Helvetica,sans-Serif" font-size="10.00">BitFEId *</text>
</a>
</g>
</g>
<!-- Node39&#45;&gt;Node37 -->
<g id="edge47" class="edge">
<title>Node39&#45;&gt;Node37</title>
<path fill="none" stroke="#9a32cd" stroke-dasharray="5,2" d="M1181.2,-1483.57C1248,-1478.23 1379.5,-1466.36 1397,-1454.5 1460.94,-1411.16 1488.21,-1313.1 1495.44,-1282.09"/>
<polygon fill="#9a32cd" stroke="#9a32cd" points="1180.75,-1480.09 1171.06,-1484.37 1181.31,-1487.07 1180.75,-1480.09"/>
<text text-anchor="middle" x="1329" y="-1478.5" font-family="Helvetica,sans-Serif" font-size="10.00"> tagBitFEId</text>
</g>
<!-- Node40 -->
<g id="node40" class="node">
<title>Node40</title>
<g id="a_node40"><a xlink:href="classEntityHandle.html" target="_top" xlink:title=" ">
<polygon fill="white" stroke="black" points="1101.5,-1439 1101.5,-1458 1181.5,-1458 1181.5,-1439 1101.5,-1439"/>
<text text-anchor="middle" x="1141.5" y="-1446" font-family="Helvetica,sans-Serif" font-size="10.00">EntityHandle</text>
</a>
</g>
</g>
<!-- Node40&#45;&gt;Node37 -->
<g id="edge48" class="edge">
<title>Node40&#45;&gt;Node37</title>
<path fill="none" stroke="#9a32cd" stroke-dasharray="5,2" d="M1191.93,-1445.5C1260.99,-1440.97 1379.87,-1431.81 1397,-1421.5 1452.88,-1387.89 1484.5,-1309.85 1494.23,-1282.32"/>
<polygon fill="#9a32cd" stroke="#9a32cd" points="1191.46,-1442.02 1181.71,-1446.16 1191.92,-1449.01 1191.46,-1442.02"/>
<text text-anchor="middle" x="1329" y="-1442.5" font-family="Helvetica,sans-Serif" font-size="10.00"> meshset</text>
</g>
<!-- Node41 -->
<g id="node41" class="node">
<title>Node41</title>
<g id="a_node41"><a xlink:title=" ">
<polygon fill="white" stroke="#bfbfbf" points="1067,-1389.5 1067,-1419.5 1216,-1419.5 1216,-1389.5 1067,-1389.5"/>
<text text-anchor="start" x="1075" y="-1407.5" font-family="Helvetica,sans-Serif" font-size="10.00">shared_ptr&lt; MoFEM::</text>
<text text-anchor="middle" x="1141.5" y="-1396.5" font-family="Helvetica,sans-Serif" font-size="10.00">ComposedProblemsData &gt;</text>
</a>
</g>
</g>
<!-- Node41&#45;&gt;Node37 -->
<g id="edge49" class="edge">
<title>Node41&#45;&gt;Node37</title>
<path fill="none" stroke="#9a32cd" stroke-dasharray="5,2" d="M1226.28,-1410.79C1277.98,-1411.25 1344.25,-1405.46 1397,-1379.5 1442.96,-1356.88 1478.7,-1303.82 1491.94,-1282.06"/>
<polygon fill="#9a32cd" stroke="#9a32cd" points="1226.2,-1407.29 1216.15,-1410.62 1226.09,-1414.29 1226.2,-1407.29"/>
<text text-anchor="middle" x="1329" y="-1412.5" font-family="Helvetica,sans-Serif" font-size="10.00"> composedProblemsData</text>
</g>
<!-- Node42 -->
<g id="node42" class="node">
<title>Node42</title>
<g id="a_node42"><a xlink:title=" ">
<polygon fill="white" stroke="#bfbfbf" points="1101,-1351 1101,-1370 1182,-1370 1182,-1351 1101,-1351"/>
<text text-anchor="middle" x="1141.5" y="-1358" font-family="Helvetica,sans-Serif" font-size="10.00">BitRefLevel *</text>
</a>
</g>
</g>
<!-- Node42&#45;&gt;Node37 -->
<g id="edge50" class="edge">
<title>Node42&#45;&gt;Node37</title>
<path fill="none" stroke="#9a32cd" stroke-dasharray="5,2" d="M1192.33,-1359.82C1244.55,-1357.83 1328.37,-1350.99 1397,-1328.5 1430.6,-1317.49 1465.78,-1294.93 1484.29,-1282.06"/>
<polygon fill="#9a32cd" stroke="#9a32cd" points="1192.2,-1356.32 1182.32,-1360.16 1192.44,-1363.32 1192.2,-1356.32"/>
<text text-anchor="middle" x="1329" y="-1367.5" font-family="Helvetica,sans-Serif" font-size="10.00"> tagBitRefLevelMask</text>
<text text-anchor="middle" x="1329" y="-1356.5" font-family="Helvetica,sans-Serif" font-size="10.00">tagBitRefLevel</text>
</g>
<!-- Node43 -->
<g id="node43" class="node">
<title>Node43</title>
<g id="a_node43"><a xlink:title=" ">
<polygon fill="white" stroke="#bfbfbf" points="1056.5,-1301.5 1056.5,-1331.5 1226.5,-1331.5 1226.5,-1301.5 1056.5,-1301.5"/>
<text text-anchor="start" x="1064.5" y="-1319.5" font-family="Helvetica,sans-Serif" font-size="10.00">shared_ptr&lt; NumeredDofEntity</text>
<text text-anchor="middle" x="1141.5" y="-1308.5" font-family="Helvetica,sans-Serif" font-size="10.00">_multiIndex &gt;</text>
</a>
</g>
</g>
<!-- Node43&#45;&gt;Node37 -->
<g id="edge51" class="edge">
<title>Node43&#45;&gt;Node37</title>
<path fill="none" stroke="#9a32cd" stroke-dasharray="5,2" d="M1236.63,-1306.56C1284.67,-1301.29 1344,-1294.47 1397,-1287.5 1413.97,-1285.27 1432.5,-1282.57 1448.99,-1280.09"/>
<polygon fill="#9a32cd" stroke="#9a32cd" points="1236.12,-1303.1 1226.55,-1307.66 1236.88,-1310.06 1236.12,-1303.1"/>
<text text-anchor="middle" x="1329" y="-1316.5" font-family="Helvetica,sans-Serif" font-size="10.00"> numeredRowDofsPtr</text>
<text text-anchor="middle" x="1329" y="-1305.5" font-family="Helvetica,sans-Serif" font-size="10.00">numeredColDofsPtr</text>
</g>
<!-- Node44 -->
<g id="node44" class="node">
<title>Node44</title>
<g id="a_node44"><a xlink:title=" ">
<polygon fill="white" stroke="#bfbfbf" points="1072.5,-1263 1072.5,-1282 1210.5,-1282 1210.5,-1263 1072.5,-1263"/>
<text text-anchor="middle" x="1141.5" y="-1270" font-family="Helvetica,sans-Serif" font-size="10.00">vector&lt; BlockFieldPair &gt;</text>
</a>
</g>
</g>
<!-- Node44&#45;&gt;Node37 -->
<g id="edge53" class="edge">
<title>Node44&#45;&gt;Node37</title>
<path fill="none" stroke="#9a32cd" stroke-dasharray="5,2" d="M1220.57,-1272.5C1290.2,-1272.5 1389.95,-1272.5 1448.8,-1272.5"/>
<polygon fill="#9a32cd" stroke="#9a32cd" points="1220.53,-1269 1210.53,-1272.5 1220.53,-1276 1220.53,-1269"/>
<text text-anchor="middle" x="1329" y="-1275.5" font-family="Helvetica,sans-Serif" font-size="10.00"> emptyFieldBlocks</text>
</g>
<!-- Node45 -->
<g id="node45" class="node">
<title>Node45</title>
<g id="a_node45"><a xlink:title=" ">
<polygon fill="white" stroke="#bfbfbf" points="1063.5,-1213.5 1063.5,-1243.5 1219.5,-1243.5 1219.5,-1213.5 1063.5,-1213.5"/>
<text text-anchor="start" x="1071.5" y="-1231.5" font-family="Helvetica,sans-Serif" font-size="10.00">shared_ptr&lt; MoFEM::</text>
<text text-anchor="middle" x="1141.5" y="-1220.5" font-family="Helvetica,sans-Serif" font-size="10.00">Problem::SubProblemData &gt;</text>
</a>
</g>
</g>
<!-- Node45&#45;&gt;Node37 -->
<g id="edge54" class="edge">
<title>Node45&#45;&gt;Node37</title>
<path fill="none" stroke="#9a32cd" stroke-dasharray="5,2" d="M1229.68,-1237.68C1278.86,-1243.04 1341.42,-1250.19 1397,-1257.5 1413.97,-1259.73 1432.5,-1262.43 1448.99,-1264.91"/>
<polygon fill="#9a32cd" stroke="#9a32cd" points="1230.03,-1234.2 1219.71,-1236.59 1229.27,-1241.15 1230.03,-1234.2"/>
<text text-anchor="middle" x="1329" y="-1260.5" font-family="Helvetica,sans-Serif" font-size="10.00"> subProblemData</text>
</g>
<!-- Node46 -->
<g id="node46" class="node">
<title>Node46</title>
<g id="a_node46"><a xlink:title=" ">
<polygon fill="white" stroke="#bfbfbf" points="1040,-1175 1040,-1194 1243,-1194 1243,-1175 1040,-1175"/>
<text text-anchor="middle" x="1141.5" y="-1182" font-family="Helvetica,sans-Serif" font-size="10.00">shared_ptr&lt; SequenceDofContainer &gt;</text>
</a>
</g>
</g>
<!-- Node46&#45;&gt;Node37 -->
<g id="edge56" class="edge">
<title>Node46&#45;&gt;Node37</title>
<path fill="none" stroke="#9a32cd" stroke-dasharray="5,2" d="M1253.46,-1188.5C1298.84,-1192.56 1351.32,-1200.43 1397,-1215.5 1430.91,-1226.68 1466.25,-1249.87 1484.64,-1262.96"/>
<polygon fill="#9a32cd" stroke="#9a32cd" points="1253.55,-1184.99 1243.29,-1187.64 1252.96,-1191.97 1253.55,-1184.99"/>
<text text-anchor="middle" x="1329" y="-1229.5" font-family="Helvetica,sans-Serif" font-size="10.00"> sequenceRowDofContainer</text>
<text text-anchor="middle" x="1329" y="-1218.5" font-family="Helvetica,sans-Serif" font-size="10.00">sequenceColDofContainer</text>
</g>
<!-- Node47 -->
<g id="node47" class="node">
<title>Node47</title>
<g id="a_node47"><a xlink:title=" ">
<polygon fill="white" stroke="#bfbfbf" points="1097.5,-1137 1097.5,-1156 1185.5,-1156 1185.5,-1137 1097.5,-1137"/>
<text text-anchor="middle" x="1141.5" y="-1144" font-family="Helvetica,sans-Serif" font-size="10.00">BitProblemId *</text>
</a>
</g>
</g>
<!-- Node47&#45;&gt;Node37 -->
<g id="edge57" class="edge">
<title>Node47&#45;&gt;Node37</title>
<path fill="none" stroke="#9a32cd" stroke-dasharray="5,2" d="M1196.05,-1142.54C1249.52,-1140.79 1332.75,-1144.16 1397,-1174.5 1440.63,-1195.1 1476.89,-1242.46 1491.08,-1262.86"/>
<polygon fill="#9a32cd" stroke="#9a32cd" points="1195.62,-1139.06 1185.77,-1142.95 1195.9,-1146.05 1195.62,-1139.06"/>
<text text-anchor="middle" x="1329" y="-1177.5" font-family="Helvetica,sans-Serif" font-size="10.00"> tagId</text>
</g>
<!-- Node48 -->
<g id="node48" class="node">
<title>Node48</title>
<g id="a_node48"><a xlink:title=" ">
<polygon fill="white" stroke="#bfbfbf" points="1805,-503.5 1805,-533.5 1967,-533.5 1967,-503.5 1805,-503.5"/>
<text text-anchor="start" x="1813" y="-521.5" font-family="Helvetica,sans-Serif" font-size="10.00">shared_ptr&lt; const MoFEM</text>
<text text-anchor="middle" x="1886" y="-510.5" font-family="Helvetica,sans-Serif" font-size="10.00">::NumeredEntFiniteElement &gt;</text>
</a>
</g>
</g>
<!-- Node48&#45;&gt;Node11 -->
<g id="edge58" class="edge">
<title>Node48&#45;&gt;Node11</title>
<path fill="none" stroke="#9a32cd" stroke-dasharray="5,2" d="M1977.54,-518.5C2048.18,-518.5 2143.85,-518.5 2202.4,-518.5"/>
<polygon fill="#9a32cd" stroke="#9a32cd" points="1977.3,-515 1967.3,-518.5 1977.3,-522 1977.3,-515"/>
<text text-anchor="middle" x="2063" y="-521.5" font-family="Helvetica,sans-Serif" font-size="10.00"> numeredEntFiniteElementPtr</text>
</g>
<!-- Node49 -->
<g id="node49" class="node">
<title>Node49</title>
<g id="a_node49"><a xlink:title=" ">
<polygon fill="white" stroke="#bfbfbf" points="1864,-594 1864,-613 1908,-613 1908,-594 1864,-594"/>
<text text-anchor="middle" x="1886" y="-601" font-family="Helvetica,sans-Serif" font-size="10.00">string</text>
</a>
</g>
</g>
<!-- Node49&#45;&gt;Node2 -->
<g id="edge81" class="edge">
<title>Node49&#45;&gt;Node2</title>
<path fill="none" stroke="#9a32cd" stroke-dasharray="5,2" d="M1918.25,-604.32C2028.8,-607.36 2411.7,-618.94 2727,-641.5 2762.95,-644.07 2802.56,-647.79 2836.57,-651.26"/>
<polygon fill="#9a32cd" stroke="#9a32cd" points="1918.21,-600.82 1908.12,-604.05 1918.02,-607.82 1918.21,-600.82"/>
<text text-anchor="middle" x="2458" y="-642.5" font-family="Helvetica,sans-Serif" font-size="10.00"> colFieldName</text>
<text text-anchor="middle" x="2458" y="-631.5" font-family="Helvetica,sans-Serif" font-size="10.00">rowFieldName</text>
</g>
<!-- Node49&#45;&gt;Node11 -->
<g id="edge59" class="edge">
<title>Node49&#45;&gt;Node11</title>
<path fill="none" stroke="#9a32cd" stroke-dasharray="5,2" d="M1917.89,-596.71C1938.55,-592.24 1966.37,-586.33 1991,-581.5 2054.82,-568.99 2076.95,-584.82 2135,-555.5 2144.82,-550.54 2143.22,-543.53 2153,-538.5 2168.08,-530.74 2185.84,-525.98 2202.28,-523.07"/>
<polygon fill="#9a32cd" stroke="#9a32cd" points="1917.1,-593.3 1908.08,-598.85 1918.59,-600.14 1917.1,-593.3"/>
<text text-anchor="middle" x="2063" y="-584.5" font-family="Helvetica,sans-Serif" font-size="10.00"> feName</text>
</g>
<!-- Node50 -->
<g id="node50" class="node">
<title>Node50</title>
<g id="a_node50"><a xlink:title=" ">
<polygon fill="white" stroke="#bfbfbf" points="1804.5,-454.5 1804.5,-484.5 1967.5,-484.5 1967.5,-454.5 1804.5,-454.5"/>
<text text-anchor="start" x="1812.5" y="-472.5" font-family="Helvetica,sans-Serif" font-size="10.00">function&lt; bool(MoFEM</text>
<text text-anchor="middle" x="1886" y="-461.5" font-family="Helvetica,sans-Serif" font-size="10.00">::FEMethod *fe_method_ptr)&gt;</text>
</a>
</g>
</g>
<!-- Node50&#45;&gt;Node11 -->
<g id="edge60" class="edge">
<title>Node50&#45;&gt;Node11</title>
<path fill="none" stroke="#9a32cd" stroke-dasharray="5,2" d="M1977.98,-481.61C2048.52,-491.01 2143.82,-503.7 2202.26,-511.48"/>
<polygon fill="#9a32cd" stroke="#9a32cd" points="1978.13,-478.1 1967.76,-480.25 1977.21,-485.04 1978.13,-478.1"/>
<text text-anchor="middle" x="2063" y="-503.5" font-family="Helvetica,sans-Serif" font-size="10.00"> exeTestHook</text>
</g>
<!-- Node51 -->
<g id="node51" class="node">
<title>Node51</title>
<g id="a_node51"><a xlink:href="classdouble.html" target="_top" xlink:title=" ">
<polygon fill="white" stroke="black" points="2231,-285 2231,-304 2281,-304 2281,-285 2231,-285"/>
<text text-anchor="middle" x="2256" y="-292" font-family="Helvetica,sans-Serif" font-size="10.00">double</text>
</a>
</g>
</g>
<!-- Node51&#45;&gt;Node10 -->
<g id="edge61" class="edge">
<title>Node51&#45;&gt;Node10</title>
<path fill="none" stroke="#9a32cd" stroke-dasharray="5,2" d="M2291.56,-291.64C2357.9,-286.85 2500,-280.23 2539,-307.5 2555.98,-319.37 2541.13,-337.18 2557,-350.5 2561.58,-354.35 2566.78,-357.45 2572.29,-359.96"/>
<polygon fill="#9a32cd" stroke="#9a32cd" points="2290.93,-288.18 2281.21,-292.41 2291.45,-295.16 2290.93,-288.18"/>
<text text-anchor="middle" x="2458" y="-310.5" font-family="Helvetica,sans-Serif" font-size="10.00"> elementMeasure</text>
</g>
<!-- Node52 -->
<g id="node52" class="node">
<title>Node52</title>
<g id="a_node52"><a xlink:title=" ">
<polygon fill="white" stroke="#bfbfbf" points="2170,-225 2170,-266 2342,-266 2342,-225 2170,-225"/>
<text text-anchor="start" x="2178" y="-254" font-family="Helvetica,sans-Serif" font-size="10.00">array&lt; boost::shared</text>
<text text-anchor="start" x="2178" y="-243" font-family="Helvetica,sans-Serif" font-size="10.00">_ptr&lt; MoFEM::EntitiesFieldData</text>
<text text-anchor="middle" x="2256" y="-232" font-family="Helvetica,sans-Serif" font-size="10.00"> &gt;, LASTSPACE &gt;</text>
</a>
</g>
</g>
<!-- Node52&#45;&gt;Node10 -->
<g id="edge62" class="edge">
<title>Node52&#45;&gt;Node10</title>
<path fill="none" stroke="#9a32cd" stroke-dasharray="5,2" d="M2352.34,-238.88C2423.09,-236.13 2511.8,-237.93 2539,-261.5 2569.5,-287.93 2528.79,-321.64 2557,-350.5 2560.66,-354.24 2564.89,-357.32 2569.46,-359.84"/>
<polygon fill="#9a32cd" stroke="#9a32cd" points="2351.88,-235.4 2342.04,-239.32 2352.18,-242.39 2351.88,-235.4"/>
<text text-anchor="middle" x="2458" y="-275.5" font-family="Helvetica,sans-Serif" font-size="10.00"> derivedDataOnElement</text>
<text text-anchor="middle" x="2458" y="-264.5" font-family="Helvetica,sans-Serif" font-size="10.00">dataOnElement</text>
</g>
<!-- Node53 -->
<g id="node53" class="node">
<title>Node53</title>
<g id="a_node53"><a xlink:title=" ">
<polygon fill="white" stroke="#bfbfbf" points="2222,-187 2222,-206 2290,-206 2290,-187 2222,-187"/>
<text text-anchor="middle" x="2256" y="-194" font-family="Helvetica,sans-Serif" font-size="10.00">EntityType</text>
</a>
</g>
</g>
<!-- Node53&#45;&gt;Node10 -->
<g id="edge63" class="edge">
<title>Node53&#45;&gt;Node10</title>
<path fill="none" stroke="#9a32cd" stroke-dasharray="5,2" d="M2300.55,-194.39C2371.09,-191.97 2505.81,-191.79 2539,-223.5 2580.21,-262.89 2518.37,-308.58 2557,-350.5 2560.44,-354.24 2564.46,-357.32 2568.82,-359.85"/>
<polygon fill="#9a32cd" stroke="#9a32cd" points="2300.07,-190.9 2290.21,-194.78 2300.34,-197.9 2300.07,-190.9"/>
<text text-anchor="middle" x="2458" y="-226.5" font-family="Helvetica,sans-Serif" font-size="10.00"> lastEvaluatedElementEntityType</text>
</g>
<!-- Node54 -->
<g id="node54" class="node">
<title>Node54</title>
<g id="a_node54"><a xlink:href="structMoFEM_1_1DeprecatedCoreInterface.html" target="_top" xlink:title="Deprecated interface functions.">
<polygon fill="white" stroke="black" points="1600,-196 1600,-215 1781,-215 1781,-196 1600,-196"/>
<text text-anchor="middle" x="1690.5" y="-203" font-family="Helvetica,sans-Serif" font-size="10.00">MoFEM::DeprecatedCoreInterface</text>
</a>
</g>
</g>
<!-- Node54&#45;&gt;Node10 -->
<g id="edge64" class="edge">
<title>Node54&#45;&gt;Node10</title>
<path fill="none" stroke="#9a32cd" stroke-dasharray="5,2" d="M1782.11,-222.46C1796.56,-241.91 1780.79,-261.55 1799,-276.5 1828.09,-300.39 2349.26,-345.55 2556.77,-362.68"/>
<polygon fill="#9a32cd" stroke="#9a32cd" points="1784.42,-219.8 1774.96,-215.02 1779.37,-224.65 1784.42,-219.8"/>
<text text-anchor="middle" x="2063" y="-326.5" font-family="Helvetica,sans-Serif" font-size="10.00"> mField</text>
</g>
<!-- Node55&#45;&gt;Node54 -->
<g id="edge65" class="edge">
<title>Node55&#45;&gt;Node54</title>
<path fill="none" stroke="midnightblue" d="M1214.17,-263.72C1317.01,-251.12 1505.71,-228.01 1611.8,-215.02"/>
<polygon fill="midnightblue" stroke="midnightblue" points="1213.68,-260.25 1204.18,-264.94 1214.54,-267.2 1213.68,-260.25"/>
</g>
<!-- Node56 -->
<g id="node56" class="node">
<title>Node56</title>
<g id="a_node56"><a xlink:title=" ">
<polygon fill="white" stroke="#bfbfbf" points="2172.5,-65.5 2172.5,-117.5 2339.5,-117.5 2339.5,-65.5 2172.5,-65.5"/>
<text text-anchor="start" x="2180.5" y="-105.5" font-family="Helvetica,sans-Serif" font-size="10.00">function&lt; MoFEMErrorCode</text>
<text text-anchor="start" x="2180.5" y="-94.5" font-family="Helvetica,sans-Serif" font-size="10.00">(ForcesAndSourcesCore *fe</text>
<text text-anchor="start" x="2180.5" y="-83.5" font-family="Helvetica,sans-Serif" font-size="10.00">_raw_ptr, int order_row,</text>
<text text-anchor="middle" x="2256" y="-72.5" font-family="Helvetica,sans-Serif" font-size="10.00"> int order_col, int order_data)&gt;</text>
</a>
</g>
</g>
<!-- Node56&#45;&gt;Node10 -->
<g id="edge68" class="edge">
<title>Node56&#45;&gt;Node10</title>
<path fill="none" stroke="#9a32cd" stroke-dasharray="5,2" d="M2349.9,-67.29C2411.77,-57.23 2490.35,-57.14 2539,-104.5 2578.28,-142.73 2521.24,-308.96 2557,-350.5 2560.22,-354.24 2564,-357.33 2568.15,-359.88"/>
<polygon fill="#9a32cd" stroke="#9a32cd" points="2348.98,-63.89 2339.73,-69.05 2350.18,-70.79 2348.98,-63.89"/>
<text text-anchor="middle" x="2458" y="-107.5" font-family="Helvetica,sans-Serif" font-size="10.00"> setRuleHook</text>
</g>
<!-- Node57 -->
<g id="node57" class="node">
<title>Node57</title>
<g id="a_node57"><a xlink:title=" ">
<polygon fill="white" stroke="#bfbfbf" points="2155,-547.5 2155,-577.5 2357,-577.5 2357,-547.5 2155,-547.5"/>
<text text-anchor="start" x="2163" y="-565.5" font-family="Helvetica,sans-Serif" font-size="10.00">ptr_deque&lt; MoFEM::Forces</text>
<text text-anchor="middle" x="2256" y="-554.5" font-family="Helvetica,sans-Serif" font-size="10.00">AndSourcesCore::UserDataOperator &gt;</text>
</a>
</g>
</g>
<!-- Node57&#45;&gt;Node10 -->
<g id="edge69" class="edge">
<title>Node57&#45;&gt;Node10</title>
<path fill="none" stroke="#9a32cd" stroke-dasharray="5,2" d="M2367.5,-562.75C2422.67,-558.25 2488.27,-545.53 2539,-513.5 2592.88,-479.47 2626.54,-405.68 2637.27,-379.2"/>
<polygon fill="#9a32cd" stroke="#9a32cd" points="2367.05,-559.27 2357.33,-563.49 2367.56,-566.25 2367.05,-559.27"/>
<text text-anchor="middle" x="2458" y="-564.5" font-family="Helvetica,sans-Serif" font-size="10.00"> opPtrVector</text>
</g>
<!-- Node58 -->
<g id="node58" class="node">
<title>Node58</title>
<g id="a_node58"><a xlink:href="structMoFEM_1_1EntitiesFieldData.html" target="_top" xlink:title="data structure for finite element entity">
<polygon fill="white" stroke="black" points="2185,-137 2185,-156 2327,-156 2327,-137 2185,-137"/>
<text text-anchor="middle" x="2256" y="-144" font-family="Helvetica,sans-Serif" font-size="10.00">MoFEM::EntitiesFieldData</text>
</a>
</g>
</g>
<!-- Node58&#45;&gt;Node10 -->
<g id="edge70" class="edge">
<title>Node58&#45;&gt;Node10</title>
<path fill="none" stroke="#9a32cd" stroke-dasharray="5,2" d="M2314.33,-135.18C2387.23,-122.28 2507.44,-106.47 2539,-135.5 2574.29,-167.96 2525.53,-314.33 2557,-350.5 2560.24,-354.22 2564.04,-357.3 2568.2,-359.84"/>
<polygon fill="#9a32cd" stroke="#9a32cd" points="2313.59,-131.76 2304.37,-136.98 2314.84,-138.65 2313.59,-131.76"/>
<text text-anchor="middle" x="2458" y="-182.5" font-family="Helvetica,sans-Serif" font-size="10.00"> dataNoField</text>
<text text-anchor="middle" x="2458" y="-171.5" font-family="Helvetica,sans-Serif" font-size="10.00">dataL2</text>
<text text-anchor="middle" x="2458" y="-160.5" font-family="Helvetica,sans-Serif" font-size="10.00">dataH1</text>
<text text-anchor="middle" x="2458" y="-149.5" font-family="Helvetica,sans-Serif" font-size="10.00">dataHcurl</text>
<text text-anchor="middle" x="2458" y="-138.5" font-family="Helvetica,sans-Serif" font-size="10.00">dataHdiv</text>
</g>
<!-- Node59 -->
<g id="node59" class="node">
<title>Node59</title>
<g id="a_node59"><a xlink:title=" ">
<polygon fill="white" stroke="#bfbfbf" points="1805,-110.5 1805,-140.5 1967,-140.5 1967,-110.5 1805,-110.5"/>
<text text-anchor="start" x="1813" y="-128.5" font-family="Helvetica,sans-Serif" font-size="10.00">array&lt; std::bitset</text>
<text text-anchor="middle" x="1886" y="-117.5" font-family="Helvetica,sans-Serif" font-size="10.00">&lt; LASTBASE &gt;, LASTSPACE &gt;</text>
</a>
</g>
</g>
<!-- Node59&#45;&gt;Node58 -->
<g id="edge71" class="edge">
<title>Node59&#45;&gt;Node58</title>
<path fill="none" stroke="#9a32cd" stroke-dasharray="5,2" d="M1977.19,-121.75C2024.3,-120.74 2082.85,-120.97 2135,-125.5 2160.5,-127.71 2188.7,-132.53 2211.35,-136.99"/>
<polygon fill="#9a32cd" stroke="#9a32cd" points="1976.92,-118.26 1967.01,-122 1977.09,-125.26 1976.92,-118.26"/>
<text text-anchor="middle" x="2063" y="-139.5" font-family="Helvetica,sans-Serif" font-size="10.00"> brokenBasesOnSpaces</text>
<text text-anchor="middle" x="2063" y="-128.5" font-family="Helvetica,sans-Serif" font-size="10.00">basesOnSpaces</text>
</g>
<!-- Node60 -->
<g id="node60" class="node">
<title>Node60</title>
<g id="a_node60"><a xlink:title=" ">
<polygon fill="white" stroke="#bfbfbf" points="1809.5,-50 1809.5,-91 1962.5,-91 1962.5,-50 1809.5,-50"/>
<text text-anchor="start" x="1817.5" y="-79" font-family="Helvetica,sans-Serif" font-size="10.00">array&lt; boost::ptr_vector</text>
<text text-anchor="start" x="1817.5" y="-68" font-family="Helvetica,sans-Serif" font-size="10.00">&lt; MoFEM::EntitiesFieldData</text>
<text text-anchor="middle" x="1886" y="-57" font-family="Helvetica,sans-Serif" font-size="10.00">::EntData &gt;, MBMAXTYPE &gt;</text>
</a>
</g>
</g>
<!-- Node60&#45;&gt;Node58 -->
<g id="edge72" class="edge">
<title>Node60&#45;&gt;Node58</title>
<path fill="none" stroke="#9a32cd" stroke-dasharray="5,2" d="M1972.88,-68.74C2022.82,-71.08 2085.47,-80.01 2135,-106.5 2145.55,-112.14 2142.6,-120.6 2153,-126.5 2162.73,-132.02 2173.73,-136.04 2184.82,-138.96"/>
<polygon fill="#9a32cd" stroke="#9a32cd" points="1972.88,-65.24 1962.75,-68.35 1972.61,-72.23 1972.88,-65.24"/>
<text text-anchor="middle" x="2063" y="-109.5" font-family="Helvetica,sans-Serif" font-size="10.00"> dataOnEntities</text>
</g>
<!-- Node61 -->
<g id="node61" class="node">
<title>Node61</title>
<g id="a_node61"><a xlink:title=" ">
<polygon fill="white" stroke="#bfbfbf" points="1799,-0.5 1799,-30.5 1973,-30.5 1973,-0.5 1799,-0.5"/>
<text text-anchor="start" x="1807" y="-18.5" font-family="Helvetica,sans-Serif" font-size="10.00">array&lt; std::bitset</text>
<text text-anchor="middle" x="1886" y="-7.5" font-family="Helvetica,sans-Serif" font-size="10.00">&lt; LASTSPACE &gt;, MBMAXTYPE &gt;</text>
</a>
</g>
</g>
<!-- Node61&#45;&gt;Node58 -->
<g id="edge73" class="edge">
<title>Node61&#45;&gt;Node58</title>
<path fill="none" stroke="#9a32cd" stroke-dasharray="5,2" d="M1983.29,-7.28C2034.34,-8.23 2094.66,-18.58 2135,-55.5 2159.01,-77.48 2129.36,-104.12 2153,-126.5 2161.85,-134.87 2173.12,-140.22 2184.92,-143.56"/>
<polygon fill="#9a32cd" stroke="#9a32cd" points="1983.24,-3.78 1973.21,-7.21 1983.19,-10.78 1983.24,-3.78"/>
<text text-anchor="middle" x="2063" y="-58.5" font-family="Helvetica,sans-Serif" font-size="10.00"> spacesOnEntities</text>
</g>
<!-- Node62 -->
<g id="node62" class="node">
<title>Node62</title>
<g id="a_node62"><a xlink:title=" ">
<polygon fill="white" stroke="#bfbfbf" points="1801.5,-237.5 1801.5,-267.5 1970.5,-267.5 1970.5,-237.5 1801.5,-237.5"/>
<text text-anchor="start" x="1809.5" y="-255.5" font-family="Helvetica,sans-Serif" font-size="10.00">array&lt; std::bitset</text>
<text text-anchor="middle" x="1886" y="-244.5" font-family="Helvetica,sans-Serif" font-size="10.00">&lt; LASTBASE &gt;, MBMAXTYPE &gt;</text>
</a>
</g>
</g>
<!-- Node62&#45;&gt;Node58 -->
<g id="edge74" class="edge">
<title>Node62&#45;&gt;Node58</title>
<path fill="none" stroke="#9a32cd" stroke-dasharray="5,2" d="M1980.99,-264.04C2031.46,-265.18 2091.97,-257.81 2135,-224.5 2152.69,-210.81 2136.63,-192.75 2153,-177.5 2163.77,-167.47 2177.68,-160.68 2191.75,-156.08"/>
<polygon fill="#9a32cd" stroke="#9a32cd" points="1980.83,-260.53 1970.71,-263.69 1980.59,-267.52 1980.83,-260.53"/>
<text text-anchor="middle" x="2063" y="-267.5" font-family="Helvetica,sans-Serif" font-size="10.00"> basesOnEntities</text>
</g>
<!-- Node63 -->
<g id="node63" class="node">
<title>Node63</title>
<g id="a_node63"><a xlink:title=" ">
<polygon fill="white" stroke="#bfbfbf" points="1830,-198 1830,-217 1942,-217 1942,-198 1830,-198"/>
<text text-anchor="middle" x="1886" y="-205" font-family="Helvetica,sans-Serif" font-size="10.00">UBlasMatrix&lt; int &gt;</text>
</a>
</g>
</g>
<!-- Node63&#45;&gt;Node58 -->
<g id="edge75" class="edge">
<title>Node63&#45;&gt;Node58</title>
<path fill="none" stroke="#9a32cd" stroke-dasharray="5,2" d="M1952.1,-202.47C2002.35,-197.97 2073.45,-190.24 2135,-178.5 2165.71,-172.64 2200.13,-163.15 2224.2,-156.03"/>
<polygon fill="#9a32cd" stroke="#9a32cd" points="1951.67,-199 1942.02,-203.36 1952.28,-205.97 1951.67,-199"/>
<text text-anchor="middle" x="2063" y="-212.5" font-family="Helvetica,sans-Serif" font-size="10.00"> facesNodesOrder</text>
<text text-anchor="middle" x="2063" y="-201.5" font-family="Helvetica,sans-Serif" font-size="10.00">facesNodes</text>
</g>
<!-- Node64 -->
<g id="node64" class="node">
<title>Node64</title>
<g id="a_node64"><a xlink:title=" ">
<polygon fill="white" stroke="#bfbfbf" points="1827.5,-160 1827.5,-179 1944.5,-179 1944.5,-160 1827.5,-160"/>
<text text-anchor="middle" x="1886" y="-167" font-family="Helvetica,sans-Serif" font-size="10.00">bitset&lt; LASTBASE &gt;</text>
</a>
</g>
</g>
<!-- Node64&#45;&gt;Node58 -->
<g id="edge76" class="edge">
<title>Node64&#45;&gt;Node58</title>
<path fill="none" stroke="#9a32cd" stroke-dasharray="5,2" d="M1955.11,-165.24C2020.49,-161.16 2118.8,-155.01 2184.86,-150.88"/>
<polygon fill="#9a32cd" stroke="#9a32cd" points="1954.67,-161.76 1944.9,-165.88 1955.1,-168.75 1954.67,-161.76"/>
<text text-anchor="middle" x="2063" y="-166.5" font-family="Helvetica,sans-Serif" font-size="10.00"> bAse</text>
</g>
<!-- Node65 -->
<g id="node65" class="node">
<title>Node65</title>
<g id="a_node65"><a xlink:title=" ">
<polygon fill="white" stroke="#bfbfbf" points="2193.5,-449 2193.5,-490 2318.5,-490 2318.5,-449 2193.5,-449"/>
<text text-anchor="start" x="2201.5" y="-478" font-family="Helvetica,sans-Serif" font-size="10.00">function&lt; int(int order</text>
<text text-anchor="start" x="2201.5" y="-467" font-family="Helvetica,sans-Serif" font-size="10.00">_row, int order_col, int</text>
<text text-anchor="middle" x="2256" y="-456" font-family="Helvetica,sans-Serif" font-size="10.00"> order_data)&gt;</text>
</a>
</g>
</g>
<!-- Node65&#45;&gt;Node10 -->
<g id="edge77" class="edge">
<title>Node65&#45;&gt;Node10</title>
<path fill="none" stroke="#9a32cd" stroke-dasharray="5,2" d="M2328.97,-469.25C2387.19,-467.02 2470.47,-459.16 2539,-434.5 2575.16,-421.49 2611.74,-393.86 2629.67,-379.17"/>
<polygon fill="#9a32cd" stroke="#9a32cd" points="2328.64,-465.76 2318.76,-469.6 2328.88,-472.76 2328.64,-465.76"/>
<text text-anchor="middle" x="2458" y="-468.5" font-family="Helvetica,sans-Serif" font-size="10.00"> getRuleHook</text>
</g>
<!-- Node66 -->
<g id="node66" class="node">
<title>Node66</title>
<g id="a_node66"><a xlink:title=" ">
<polygon fill="white" stroke="#bfbfbf" points="2195,-399.5 2195,-429.5 2317,-429.5 2317,-399.5 2195,-399.5"/>
<text text-anchor="start" x="2203" y="-417.5" font-family="Helvetica,sans-Serif" font-size="10.00">shared_ptr&lt; MoFEM::</text>
<text text-anchor="middle" x="2256" y="-406.5" font-family="Helvetica,sans-Serif" font-size="10.00">BaseFunction &gt;</text>
</a>
</g>
</g>
<!-- Node66&#45;&gt;Node10 -->
<g id="edge78" class="edge">
<title>Node66&#45;&gt;Node10</title>
<path fill="none" stroke="#9a32cd" stroke-dasharray="5,2" d="M2327.27,-411.83C2384.52,-408.98 2467.31,-403.32 2539,-392.5 2560.9,-389.19 2585.09,-383.82 2604.42,-379.09"/>
<polygon fill="#9a32cd" stroke="#9a32cd" points="2327.07,-408.33 2317.25,-412.31 2327.4,-415.33 2327.07,-408.33"/>
<text text-anchor="middle" x="2458" y="-422.5" font-family="Helvetica,sans-Serif" font-size="10.00"> userPolynomialBasePtr</text>
<text text-anchor="middle" x="2458" y="-411.5" font-family="Helvetica,sans-Serif" font-size="10.00">elementPolynomialBasePtr</text>
</g>
<!-- Node67 -->
<g id="node67" class="node">
<title>Node67</title>
<g id="a_node67"><a xlink:href="classUBlasMatrix_3_01double_01_4.html" target="_top" xlink:title=" ">
<polygon fill="white" stroke="black" points="2190,-361 2190,-380 2322,-380 2322,-361 2190,-361"/>
<text text-anchor="middle" x="2256" y="-368" font-family="Helvetica,sans-Serif" font-size="10.00">UBlasMatrix&lt; double &gt;</text>
</a>
</g>
</g>
<!-- Node67&#45;&gt;Node10 -->
<g id="edge79" class="edge">
<title>Node67&#45;&gt;Node10</title>
<path fill="none" stroke="#9a32cd" stroke-dasharray="5,2" d="M2332.25,-370.3C2396.78,-370.14 2489.67,-369.89 2556.69,-369.72"/>
<polygon fill="#9a32cd" stroke="#9a32cd" points="2332.13,-366.8 2322.14,-370.33 2332.15,-373.8 2332.13,-366.8"/>
<text text-anchor="middle" x="2458" y="-383.5" font-family="Helvetica,sans-Serif" font-size="10.00"> coordsAtGaussPts</text>
<text text-anchor="middle" x="2458" y="-372.5" font-family="Helvetica,sans-Serif" font-size="10.00">gaussPts</text>
</g>
<!-- Node68 -->
<g id="node68" class="node">
<title>Node68</title>
<g id="a_node68"><a xlink:title=" ">
<polygon fill="white" stroke="#bfbfbf" points="2576.5,-736 2576.5,-755 2707.5,-755 2707.5,-736 2576.5,-736"/>
<text text-anchor="middle" x="2642" y="-743" font-family="Helvetica,sans-Serif" font-size="10.00">static const char *const</text>
</a>
</g>
</g>
<!-- Node68&#45;&gt;Node2 -->
<g id="edge80" class="edge">
<title>Node68&#45;&gt;Node2</title>
<path fill="none" stroke="#9a32cd" stroke-dasharray="5,2" d="M2698.36,-733.66C2707.95,-731.42 2717.79,-728.99 2727,-726.5 2781.44,-711.79 2842.83,-690 2881.7,-675.53"/>
<polygon fill="#9a32cd" stroke="#9a32cd" points="2697.47,-730.28 2688.51,-735.93 2699.04,-737.1 2697.47,-730.28"/>
<text text-anchor="middle" x="2782" y="-722.5" font-family="Helvetica,sans-Serif" font-size="10.00"> OpTypeNames</text>
</g>
<!-- Node69 -->
<g id="node69" class="node">
<title>Node69</title>
<g id="a_node69"><a xlink:href="classFTensor_1_1Index.html" target="_top" xlink:title=" ">
<polygon fill="white" stroke="black" points="2867,-359.5 2867,-389.5 2977,-389.5 2977,-359.5 2867,-359.5"/>
<text text-anchor="start" x="2875" y="-377.5" font-family="Helvetica,sans-Serif" font-size="10.00">FTensor::Index&lt; &#39;i&#39;,</text>
<text text-anchor="middle" x="2922" y="-366.5" font-family="Helvetica,sans-Serif" font-size="10.00"> DIM &gt;</text>
</a>
</g>
</g>
<!-- Node69&#45;&gt;Node1 -->
<g id="edge82" class="edge">
<title>Node69&#45;&gt;Node1</title>
<path fill="none" stroke="#9a32cd" stroke-dasharray="5,2" d="M2987.08,-366.98C3015.93,-363.59 3050.3,-359.55 3080.88,-355.97"/>
<polygon fill="#9a32cd" stroke="#9a32cd" points="2986.64,-363.5 2977.12,-368.15 2987.46,-370.46 2986.64,-363.5"/>
<text text-anchor="middle" x="3044" y="-364.5" font-family="Helvetica,sans-Serif" font-size="10.00"> i</text>
</g>
<!-- Node70 -->
<g id="node70" class="node">
<title>Node70</title>
<g id="a_node70"><a xlink:href="classFTensor_1_1Index.html" target="_top" xlink:title=" ">
<polygon fill="white" stroke="black" points="2590,-310.5 2590,-340.5 2694,-340.5 2694,-310.5 2590,-310.5"/>
<text text-anchor="start" x="2598" y="-328.5" font-family="Helvetica,sans-Serif" font-size="10.00">FTensor::Index&lt; i,</text>
<text text-anchor="middle" x="2642" y="-317.5" font-family="Helvetica,sans-Serif" font-size="10.00"> Dim &gt;</text>
</a>
</g>
</g>
<!-- Node70&#45;&gt;Node69 -->
<g id="edge83" class="edge">
<title>Node70&#45;&gt;Node69</title>
<path fill="none" stroke="orange" stroke-dasharray="5,2" d="M2704.38,-336.32C2752.92,-344.87 2820.05,-356.71 2866.66,-364.92"/>
<polygon fill="orange" stroke="orange" points="2704.77,-332.83 2694.31,-334.54 2703.55,-339.73 2704.77,-332.83"/>
<text text-anchor="middle" x="2782" y="-358.5" font-family="Helvetica,sans-Serif" font-size="10.00"> &lt; &#39;i&#39;, DIM &gt;</text>
</g>
<!-- Node72 -->
<g id="node72" class="node">
<title>Node72</title>
<g id="a_node72"><a xlink:href="classFTensor_1_1Index.html" target="_top" xlink:title=" ">
<polygon fill="white" stroke="black" points="2867,-310.5 2867,-340.5 2977,-340.5 2977,-310.5 2867,-310.5"/>
<text text-anchor="start" x="2875" y="-328.5" font-family="Helvetica,sans-Serif" font-size="10.00">FTensor::Index&lt; &#39;j&#39;,</text>
<text text-anchor="middle" x="2922" y="-317.5" font-family="Helvetica,sans-Serif" font-size="10.00"> DIM &gt;</text>
</a>
</g>
</g>
<!-- Node70&#45;&gt;Node72 -->
<g id="edge86" class="edge">
<title>Node70&#45;&gt;Node72</title>
<path fill="none" stroke="orange" stroke-dasharray="5,2" d="M2704.38,-325.5C2752.92,-325.5 2820.05,-325.5 2866.66,-325.5"/>
<polygon fill="orange" stroke="orange" points="2704.31,-322 2694.31,-325.5 2704.31,-329 2704.31,-322"/>
<text text-anchor="middle" x="2782" y="-328.5" font-family="Helvetica,sans-Serif" font-size="10.00"> &lt; &#39;j&#39;, DIM &gt;</text>
</g>
<!-- Node71 -->
<g id="node71" class="node">
<title>Node71</title>
<g id="a_node71"><a xlink:title=" ">
<polygon fill="white" stroke="#bfbfbf" points="2852,-261.5 2852,-291.5 2992,-291.5 2992,-261.5 2852,-261.5"/>
<text text-anchor="start" x="2860" y="-279.5" font-family="Helvetica,sans-Serif" font-size="10.00">shared_ptr&lt; UBlasMatrix</text>
<text text-anchor="middle" x="2922" y="-268.5" font-family="Helvetica,sans-Serif" font-size="10.00">&lt; double &gt; &gt;</text>
</a>
</g>
</g>
<!-- Node71&#45;&gt;Node1 -->
<g id="edge84" class="edge">
<title>Node71&#45;&gt;Node1</title>
<path fill="none" stroke="#9a32cd" stroke-dasharray="5,2" d="M3002.28,-291.75C3022.26,-296.23 3043.56,-301.54 3063,-307.5 3084.8,-314.18 3108.6,-323.54 3127.33,-331.42"/>
<polygon fill="#9a32cd" stroke="#9a32cd" points="3002.8,-288.28 2992.28,-289.56 3001.3,-295.12 3002.8,-288.28"/>
<text text-anchor="middle" x="3044" y="-321.5" font-family="Helvetica,sans-Serif" font-size="10.00"> outMat</text>
<text text-anchor="middle" x="3044" y="-310.5" font-family="Helvetica,sans-Serif" font-size="10.00">inMat</text>
</g>
<!-- Node72&#45;&gt;Node1 -->
<g id="edge85" class="edge">
<title>Node72&#45;&gt;Node1</title>
<path fill="none" stroke="#9a32cd" stroke-dasharray="5,2" d="M2987.17,-330.92C3010.99,-332.96 3038.23,-335.31 3063,-337.5 3068.82,-338.01 3074.82,-338.55 3080.87,-339.1"/>
<polygon fill="#9a32cd" stroke="#9a32cd" points="2987.45,-327.44 2977.19,-330.07 2986.86,-334.41 2987.45,-327.44"/>
<text text-anchor="middle" x="3044" y="-340.5" font-family="Helvetica,sans-Serif" font-size="10.00"> j</text>
</g>
</g>
</svg>
        <g id="navigator" transform="translate(0 0)" fill="#404254">
                <rect fill="#f2f5e9" fill-opacity="0.5" stroke="#606060" stroke-width=".5" x="0" y="0" width="60" height="60"/>
                <use id="zoomplus" xlink:href="#zoomPlus" x="17" y="9" onmousedown="handleZoom(evt,'in')"/>
                <use id="zoomminus" xlink:href="#zoomMin" x="42" y="9" onmousedown="handleZoom(evt,'out')"/>
                <use id="reset" xlink:href="#resetDef" x="30" y="36" onmousedown="handleReset()"/>
                <g id="arrowUp" xlink:href="#dirArrow" transform="translate(30 24)" onmousedown="handlePan(0,-1)">
                  <use xlink:href="#rim" fill="#404040">
                        <set attributeName="fill" to="#808080" begin="arrowUp.mouseover" end="arrowUp.mouseout"/>
                  </use>
                  <path fill="none" stroke="white" stroke-width="1.5" d="M0,-3.0v7 M-2.5,-0.5L0,-3.0L2.5,-0.5"/>
                </g>
                <g id="arrowRight" xlink:href="#dirArrow" transform="rotate(90) translate(36 -43)" onmousedown="handlePan(1,0)">
                  <use xlink:href="#rim" fill="#404040">
                        <set attributeName="fill" to="#808080" begin="arrowRight.mouseover" end="arrowRight.mouseout"/>
                  </use>
                  <path fill="none" stroke="white" stroke-width="1.5" d="M0,-3.0v7 M-2.5,-0.5L0,-3.0L2.5,-0.5"/>
                </g>
                <g id="arrowDown" xlink:href="#dirArrow" transform="rotate(180) translate(-30 -48)" onmousedown="handlePan(0,1)">
                  <use xlink:href="#rim" fill="#404040">
                        <set attributeName="fill" to="#808080" begin="arrowDown.mouseover" end="arrowDown.mouseout"/>
                  </use>
                  <path fill="none" stroke="white" stroke-width="1.5" d="M0,-3.0v7 M-2.5,-0.5L0,-3.0L2.5,-0.5"/>
                </g>
                <g id="arrowLeft" xlink:href="#dirArrow" transform="rotate(270) translate(-36 17)" onmousedown="handlePan(-1,0)">
                  <use xlink:href="#rim" fill="#404040">
                        <set attributeName="fill" to="#808080" begin="arrowLeft.mouseover" end="arrowLeft.mouseout"/>
                  </use>
                  <path fill="none" stroke="white" stroke-width="1.5" d="M0,-3.0v7 M-2.5,-0.5L0,-3.0L2.5,-0.5"/>
                </g>
        </g>
        <svg viewBox="0 0 15 15" width="100%" height="30px" preserveAspectRatio="xMaxYMin meet">
         <g id="arrow_out" transform="scale(0.3 0.3)">
          <a xlink:href="structMoFEM_1_1OpSymmetrizeTensor__coll__graph_org.svg" target="_base">
           <rect id="button" ry="5" rx="5" y="6" x="6" height="38" width="38"
                fill="#f2f5e9" fill-opacity="0.5" stroke="#606060" stroke-width="1.0"/>
           <path id="arrow"
             d="M 11.500037,31.436501 C 11.940474,20.09759 22.043105,11.32322 32.158766,21.979434 L 37.068811,17.246167 C 37.068811,17.246167 37.088388,32 37.088388,32 L 22.160133,31.978069 C 22.160133,31.978069 26.997745,27.140456 26.997745,27.140456 C 18.528582,18.264221 13.291696,25.230495 11.500037,31.436501 z"
             style="fill:#404040;"/>
          </a>
         </g>
        </svg>
</svg>
