<?xml version="1.0" encoding="UTF-8" standalone="no"?>
<!DOCTYPE svg PUBLIC "-//W3C//DTD SVG 1.1//EN"
 "http://www.w3.org/Graphics/SVG/1.1/DTD/svg11.dtd">
<!-- Generated by graphviz version 2.43.0 (0)
 -->
<!-- Title: QuadOpRhs Pages: 1 -->
<!--zoomable 1637 -->
<svg id="main" version="1.1" xmlns="http://www.w3.org/2000/svg" xmlns:xlink="http://www.w3.org/1999/xlink" xml:space="preserve" onload="init(evt)">
<style type="text/css"><![CDATA[
.edge:hover path { stroke: red; }
.edge:hover polygon { stroke: red; fill: red; }
]]></style>
<script type="text/javascript"><![CDATA[
var edges = document.getElementsByTagName('g');
if (edges && edges.length) {
  for (var i=0;i<edges.length;i++) {
    if (edges[i].id.substr(0,4)=='edge') {
      edges[i].setAttribute('class','edge');
    }
  }
}
]]></script>
        <defs>
                <circle id="rim" cx="0" cy="0" r="7"/>
                <circle id="rim2" cx="0" cy="0" r="3.5"/>
                <g id="zoomPlus">
                        <use xlink:href="#rim" fill="#404040">
                                <set attributeName="fill" to="#808080" begin="zoomplus.mouseover" end="zoomplus.mouseout"/>
                        </use>
                        <path d="M-4,0h8M0,-4v8" fill="none" stroke="white" stroke-width="1.5" pointer-events="none"/>
                </g>
                <g id="zoomMin">
                        <use xlink:href="#rim" fill="#404040">
                                <set attributeName="fill" to="#808080" begin="zoomminus.mouseover" end="zoomminus.mouseout"/>
                        </use>
                        <path d="M-4,0h8" fill="none" stroke="white" stroke-width="1.5" pointer-events="none"/>
                </g>
                <g id="dirArrow">
                        <path fill="none" stroke="white" stroke-width="1.5" d="M0,-3.0v7 M-2.5,-0.5L0,-3.0L2.5,-0.5"/>
                </g>
               <g id="resetDef">
                       <use xlink:href="#rim2" fill="#404040">
                               <set attributeName="fill" to="#808080" begin="reset.mouseover" end="reset.mouseout"/>
                       </use>
               </g>
        </defs>

<script type="text/javascript">
var viewWidth = 3345;
var viewHeight = 1637;
var sectionId = 'dynsection-1';
</script>
<script xlink:href="svgpan.js"/>
<svg id="graph" class="graph">
<g id="viewport">
<title>QuadOpRhs</title>
<polygon fill="white" stroke="transparent" points="-4,4 -4,-1633 3341,-1633 3341,4 -4,4"/>
<!-- Node1 -->
<g id="node1" class="node">
<title>Node1</title>
<g id="a_node1"><a xlink:title=" ">
<polygon fill="#bfbfbf" stroke="black" points="3263,-825.5 3263,-844.5 3337,-844.5 3337,-825.5 3263,-825.5"/>
<text text-anchor="middle" x="3300" y="-832.5" font-family="Helvetica,sans-Serif" font-size="10.00">QuadOpRhs</text>
</a>
</g>
</g>
<!-- Node2 -->
<g id="node2" class="node">
<title>Node2</title>
<g id="a_node2"><a xlink:href="structMoFEM_1_1FaceElementForcesAndSourcesCore_1_1UserDataOperator.html" target="_top" xlink:title="default operator for TRI element">
<polygon fill="white" stroke="black" points="3129,-1085.5 3129,-1104.5 3174,-1104.5 3174,-1085.5 3129,-1085.5"/>
<text text-anchor="middle" x="3151.5" y="-1092.5" font-family="Helvetica,sans-Serif" font-size="10.00">OpEle</text>
</a>
</g>
</g>
<!-- Node2&#45;&gt;Node1 -->
<g id="edge1" class="edge">
<title>Node2&#45;&gt;Node1</title>
<path fill="none" stroke="midnightblue" d="M3162.94,-1076.47C3191.8,-1025.25 3271.94,-883.03 3293.56,-844.65"/>
<polygon fill="midnightblue" stroke="midnightblue" points="3159.75,-1075.01 3157.89,-1085.44 3165.85,-1078.44 3159.75,-1075.01"/>
</g>
<!-- Node3 -->
<g id="node3" class="node">
<title>Node3</title>
<g id="a_node3"><a xlink:href="structMoFEM_1_1ForcesAndSourcesCore_1_1UserDataOperator.html" target="_top" xlink:title=" ">
<polygon fill="white" stroke="black" points="2837,-1321 2837,-1351 3007,-1351 3007,-1321 2837,-1321"/>
<text text-anchor="start" x="2845" y="-1339" font-family="Helvetica,sans-Serif" font-size="10.00">MoFEM::ForcesAndSourcesCore</text>
<text text-anchor="middle" x="2922" y="-1328" font-family="Helvetica,sans-Serif" font-size="10.00">::UserDataOperator</text>
</a>
</g>
</g>
<!-- Node3&#45;&gt;Node2 -->
<g id="edge2" class="edge">
<title>Node3&#45;&gt;Node2</title>
<path fill="none" stroke="midnightblue" d="M2944.36,-1313.37C2992.52,-1262.35 3107.98,-1140.04 3141.33,-1104.71"/>
<polygon fill="midnightblue" stroke="midnightblue" points="2941.55,-1311.25 2937.23,-1320.92 2946.64,-1316.06 2941.55,-1311.25"/>
</g>
<!-- Node4 -->
<g id="node4" class="node">
<title>Node4</title>
<g id="a_node4"><a xlink:href="structMoFEM_1_1DataOperator.html" target="_top" xlink:title="base operator to do operations at Gauss Pt. level">
<polygon fill="white" stroke="black" points="2579.5,-1416.5 2579.5,-1435.5 2704.5,-1435.5 2704.5,-1416.5 2579.5,-1416.5"/>
<text text-anchor="middle" x="2642" y="-1423.5" font-family="Helvetica,sans-Serif" font-size="10.00">MoFEM::DataOperator</text>
</a>
</g>
</g>
<!-- Node4&#45;&gt;Node3 -->
<g id="edge3" class="edge">
<title>Node4&#45;&gt;Node3</title>
<path fill="none" stroke="midnightblue" d="M2687.6,-1413.75C2723.34,-1403.71 2774.66,-1388.79 2819,-1374 2840.15,-1366.94 2863.48,-1358.32 2882.48,-1351.07"/>
<polygon fill="midnightblue" stroke="midnightblue" points="2686.64,-1410.38 2677.95,-1416.44 2688.53,-1417.12 2686.64,-1410.38"/>
</g>
<!-- Node5 -->
<g id="node5" class="node">
<title>Node5</title>
<g id="a_node5"><a xlink:title=" ">
<polygon fill="white" stroke="#bfbfbf" points="2160,-1515 2160,-1567 2352,-1567 2352,-1515 2160,-1515"/>
<text text-anchor="start" x="2168" y="-1555" font-family="Helvetica,sans-Serif" font-size="10.00">function&lt; MoFEMErrorCode</text>
<text text-anchor="start" x="2168" y="-1544" font-family="Helvetica,sans-Serif" font-size="10.00">(DataOperator *op_ptr,</text>
<text text-anchor="start" x="2168" y="-1533" font-family="Helvetica,sans-Serif" font-size="10.00"> int side, EntityType type,</text>
<text text-anchor="middle" x="2256" y="-1522" font-family="Helvetica,sans-Serif" font-size="10.00"> EntitiesFieldData::EntData &amp;data)&gt;</text>
</a>
</g>
</g>
<!-- Node5&#45;&gt;Node4 -->
<g id="edge4" class="edge">
<title>Node5&#45;&gt;Node4</title>
<path fill="none" stroke="#9a32cd" stroke-dasharray="5,2" d="M2362.3,-1560.57C2420.79,-1565.22 2491.18,-1559.69 2539,-1519 2564.78,-1497.06 2532.87,-1468.74 2557,-1445 2563.29,-1438.81 2571.14,-1434.47 2579.5,-1431.45"/>
<polygon fill="#9a32cd" stroke="#9a32cd" points="2362.55,-1557.08 2352.27,-1559.66 2361.92,-1564.05 2362.55,-1557.08"/>
<text text-anchor="middle" x="2458" y="-1564" font-family="Helvetica,sans-Serif" font-size="10.00"> doWorkRhsHook</text>
</g>
<!-- Node6 -->
<g id="node6" class="node">
<title>Node6</title>
<g id="a_node6"><a xlink:href="classbool.html" target="_top" xlink:title=" ">
<polygon fill="white" stroke="black" points="2237,-1468.5 2237,-1487.5 2275,-1487.5 2275,-1468.5 2237,-1468.5"/>
<text text-anchor="middle" x="2256" y="-1475.5" font-family="Helvetica,sans-Serif" font-size="10.00">bool</text>
</a>
</g>
</g>
<!-- Node6&#45;&gt;Node4 -->
<g id="edge5" class="edge">
<title>Node6&#45;&gt;Node4</title>
<path fill="none" stroke="#9a32cd" stroke-dasharray="5,2" d="M2285.34,-1477.01C2306.61,-1475.28 2335.92,-1470.74 2359,-1459 2368.81,-1454.01 2366.9,-1446.37 2377,-1442 2412.03,-1426.83 2512.9,-1424.62 2579.32,-1424.93"/>
<polygon fill="#9a32cd" stroke="#9a32cd" points="2285.06,-1473.52 2275.31,-1477.67 2285.52,-1480.51 2285.06,-1473.52"/>
<text text-anchor="middle" x="2458" y="-1511" font-family="Helvetica,sans-Serif" font-size="10.00"> doTris</text>
<text text-anchor="middle" x="2458" y="-1500" font-family="Helvetica,sans-Serif" font-size="10.00">doQuads</text>
<text text-anchor="middle" x="2458" y="-1489" font-family="Helvetica,sans-Serif" font-size="10.00">sYmm</text>
<text text-anchor="middle" x="2458" y="-1478" font-family="Helvetica,sans-Serif" font-size="10.00">doPrisms</text>
<text text-anchor="middle" x="2458" y="-1467" font-family="Helvetica,sans-Serif" font-size="10.00">doTets</text>
<text text-anchor="middle" x="2458" y="-1456" font-family="Helvetica,sans-Serif" font-size="10.00">doVertices</text>
<text text-anchor="middle" x="2458" y="-1445" font-family="Helvetica,sans-Serif" font-size="10.00">doEdges</text>
</g>
<!-- Node7 -->
<g id="node7" class="node">
<title>Node7</title>
<g id="a_node7"><a xlink:title=" ">
<polygon fill="white" stroke="#bfbfbf" points="2153,-1364.5 2153,-1449.5 2359,-1449.5 2359,-1364.5 2153,-1364.5"/>
<text text-anchor="start" x="2161" y="-1437.5" font-family="Helvetica,sans-Serif" font-size="10.00">function&lt; MoFEMErrorCode</text>
<text text-anchor="start" x="2161" y="-1426.5" font-family="Helvetica,sans-Serif" font-size="10.00">(DataOperator *op_ptr,</text>
<text text-anchor="start" x="2161" y="-1415.5" font-family="Helvetica,sans-Serif" font-size="10.00"> int row_side, int col_side,</text>
<text text-anchor="start" x="2161" y="-1404.5" font-family="Helvetica,sans-Serif" font-size="10.00"> EntityType row_type, EntityType</text>
<text text-anchor="start" x="2161" y="-1393.5" font-family="Helvetica,sans-Serif" font-size="10.00"> col_type, EntitiesFieldData::EntData</text>
<text text-anchor="start" x="2161" y="-1382.5" font-family="Helvetica,sans-Serif" font-size="10.00"> &amp;row_data, EntitiesFieldData::EntData</text>
<text text-anchor="middle" x="2256" y="-1371.5" font-family="Helvetica,sans-Serif" font-size="10.00"> &amp;col_data)&gt;</text>
</a>
</g>
</g>
<!-- Node7&#45;&gt;Node4 -->
<g id="edge6" class="edge">
<title>Node7&#45;&gt;Node4</title>
<path fill="none" stroke="#9a32cd" stroke-dasharray="5,2" d="M2369.22,-1403C2421,-1402.29 2483.23,-1403.02 2539,-1408 2558.07,-1409.7 2578.93,-1413.11 2596.79,-1416.5"/>
<polygon fill="#9a32cd" stroke="#9a32cd" points="2368.95,-1399.51 2359.01,-1403.17 2369.06,-1406.51 2368.95,-1399.51"/>
<text text-anchor="middle" x="2458" y="-1411" font-family="Helvetica,sans-Serif" font-size="10.00"> doWorkLhsHook</text>
</g>
<!-- Node8 -->
<g id="node8" class="node">
<title>Node8</title>
<g id="a_node8"><a xlink:title=" ">
<polygon fill="white" stroke="#bfbfbf" points="2179,-1586.5 2179,-1605.5 2333,-1605.5 2333,-1586.5 2179,-1586.5"/>
<text text-anchor="middle" x="2256" y="-1593.5" font-family="Helvetica,sans-Serif" font-size="10.00">array&lt; bool, MBMAXTYPE &gt;</text>
</a>
</g>
</g>
<!-- Node8&#45;&gt;Node4 -->
<g id="edge7" class="edge">
<title>Node8&#45;&gt;Node4</title>
<path fill="none" stroke="#9a32cd" stroke-dasharray="5,2" d="M2301.77,-1607.78C2363.77,-1621.13 2475.31,-1633.93 2539,-1574 2581.16,-1534.33 2517.82,-1487.61 2557,-1445 2563.07,-1438.4 2570.91,-1433.84 2579.36,-1430.75"/>
<polygon fill="#9a32cd" stroke="#9a32cd" points="2302.41,-1604.34 2291.89,-1605.56 2300.88,-1611.17 2302.41,-1604.34"/>
<text text-anchor="middle" x="2458" y="-1621" font-family="Helvetica,sans-Serif" font-size="10.00"> doEntities</text>
</g>
<!-- Node9 -->
<g id="node9" class="node">
<title>Node9</title>
<g id="a_node9"><a xlink:title=" ">
<polygon fill="white" stroke="#bfbfbf" points="2607.5,-1364.5 2607.5,-1383.5 2676.5,-1383.5 2676.5,-1364.5 2607.5,-1364.5"/>
<text text-anchor="middle" x="2642" y="-1371.5" font-family="Helvetica,sans-Serif" font-size="10.00">FieldSpace</text>
</a>
</g>
</g>
<!-- Node9&#45;&gt;Node3 -->
<g id="edge8" class="edge">
<title>Node9&#45;&gt;Node3</title>
<path fill="none" stroke="#9a32cd" stroke-dasharray="5,2" d="M2686.8,-1368.04C2722.41,-1363.19 2773.95,-1356.16 2819,-1350 2824.84,-1349.2 2830.88,-1348.37 2836.95,-1347.54"/>
<polygon fill="#9a32cd" stroke="#9a32cd" points="2686.18,-1364.59 2676.74,-1369.41 2687.12,-1371.53 2686.18,-1364.59"/>
<text text-anchor="middle" x="2782" y="-1362" font-family="Helvetica,sans-Serif" font-size="10.00"> sPace</text>
</g>
<!-- Node10 -->
<g id="node10" class="node">
<title>Node10</title>
<g id="a_node10"><a xlink:title=" ">
<polygon fill="white" stroke="#bfbfbf" points="1122.5,-1322.5 1122.5,-1341.5 1160.5,-1341.5 1160.5,-1322.5 1122.5,-1322.5"/>
<text text-anchor="middle" x="1141.5" y="-1329.5" font-family="Helvetica,sans-Serif" font-size="10.00">char</text>
</a>
</g>
</g>
<!-- Node10&#45;&gt;Node3 -->
<g id="edge9" class="edge">
<title>Node10&#45;&gt;Node3</title>
<path fill="none" stroke="#9a32cd" stroke-dasharray="5,2" d="M1170.82,-1332.54C1230.98,-1333.63 1375.94,-1336 1497.5,-1336 1497.5,-1336 1497.5,-1336 2643,-1336 2708.04,-1336 2781.63,-1336 2836.75,-1336"/>
<polygon fill="#9a32cd" stroke="#9a32cd" points="1170.66,-1329.03 1160.6,-1332.35 1170.54,-1336.03 1170.66,-1329.03"/>
<text text-anchor="middle" x="2063" y="-1339" font-family="Helvetica,sans-Serif" font-size="10.00"> opType</text>
</g>
<!-- Node38 -->
<g id="node38" class="node">
<title>Node38</title>
<g id="a_node38"><a xlink:href="structMoFEM_1_1Problem.html" target="_top" xlink:title="keeps basic data about problem">
<polygon fill="white" stroke="black" points="1449,-1066.5 1449,-1085.5 1548,-1085.5 1548,-1066.5 1449,-1066.5"/>
<text text-anchor="middle" x="1498.5" y="-1073.5" font-family="Helvetica,sans-Serif" font-size="10.00">MoFEM::Problem</text>
</a>
</g>
</g>
<!-- Node10&#45;&gt;Node38 -->
<g id="edge53" class="edge">
<title>Node10&#45;&gt;Node38</title>
<path fill="none" stroke="#9a32cd" stroke-dasharray="5,2" d="M1170.41,-1326.99C1194.41,-1322.7 1229.98,-1316.37 1261,-1311 1321.4,-1300.54 1348.12,-1324.99 1397,-1288 1467.48,-1234.66 1490.69,-1119.42 1496.12,-1085.55"/>
<polygon fill="#9a32cd" stroke="#9a32cd" points="1169.79,-1323.55 1160.56,-1328.75 1171.02,-1330.44 1169.79,-1323.55"/>
<text text-anchor="middle" x="1329" y="-1314" font-family="Helvetica,sans-Serif" font-size="10.00"> tagName</text>
</g>
<!-- Node11 -->
<g id="node11" class="node">
<title>Node11</title>
<g id="a_node11"><a xlink:href="structMoFEM_1_1ForcesAndSourcesCore.html" target="_top" xlink:title="structure to get information form mofem into EntitiesFieldData">
<polygon fill="white" stroke="black" points="2557,-490.5 2557,-509.5 2727,-509.5 2727,-490.5 2557,-490.5"/>
<text text-anchor="middle" x="2642" y="-497.5" font-family="Helvetica,sans-Serif" font-size="10.00">MoFEM::ForcesAndSourcesCore</text>
</a>
</g>
</g>
<!-- Node11&#45;&gt;Node3 -->
<g id="edge10" class="edge">
<title>Node11&#45;&gt;Node3</title>
<path fill="none" stroke="#9a32cd" stroke-dasharray="5,2" d="M2649.39,-519.2C2687.29,-633.17 2882.2,-1219.31 2916,-1320.96"/>
<polygon fill="#9a32cd" stroke="#9a32cd" points="2652.69,-518.06 2646.22,-509.68 2646.05,-520.27 2652.69,-518.06"/>
<text text-anchor="middle" x="2782" y="-1020" font-family="Helvetica,sans-Serif" font-size="10.00"> ptrFE</text>
</g>
<!-- Node11&#45;&gt;Node11 -->
<g id="edge68" class="edge">
<title>Node11&#45;&gt;Node11</title>
<path fill="none" stroke="#9a32cd" stroke-dasharray="5,2" d="M2615.96,-519.03C2617.38,-524.13 2626.06,-528 2642,-528 2666.88,-528 2674.08,-518.57 2663.58,-509.76"/>
<polygon fill="#9a32cd" stroke="#9a32cd" points="2619.24,-520.29 2620.42,-509.76 2612.93,-517.25 2619.24,-520.29"/>
<text text-anchor="middle" x="2642" y="-542" font-family="Helvetica,sans-Serif" font-size="10.00"> sidePtrFE</text>
<text text-anchor="middle" x="2642" y="-531" font-family="Helvetica,sans-Serif" font-size="10.00">refinePtrFE</text>
</g>
<!-- Node12 -->
<g id="node12" class="node">
<title>Node12</title>
<g id="a_node12"><a xlink:href="structMoFEM_1_1FEMethod.html" target="_top" xlink:title="structure for User Loop Methods on finite elements">
<polygon fill="white" stroke="black" points="2202.5,-471.5 2202.5,-490.5 2309.5,-490.5 2309.5,-471.5 2202.5,-471.5"/>
<text text-anchor="middle" x="2256" y="-478.5" font-family="Helvetica,sans-Serif" font-size="10.00">MoFEM::FEMethod</text>
</a>
</g>
</g>
<!-- Node12&#45;&gt;Node11 -->
<g id="edge11" class="edge">
<title>Node12&#45;&gt;Node11</title>
<path fill="none" stroke="midnightblue" d="M2319.62,-484.1C2384.15,-487.29 2485.15,-492.29 2556.68,-495.83"/>
<polygon fill="midnightblue" stroke="midnightblue" points="2319.75,-480.6 2309.59,-483.6 2319.4,-487.59 2319.75,-480.6"/>
</g>
<!-- Node13 -->
<g id="node13" class="node">
<title>Node13</title>
<g id="a_node13"><a xlink:href="structMoFEM_1_1BasicMethod.html" target="_top" xlink:title="Data structure to exchange data between mofem and User Loop Methods.">
<polygon fill="white" stroke="black" points="1825,-498.5 1825,-517.5 1947,-517.5 1947,-498.5 1825,-498.5"/>
<text text-anchor="middle" x="1886" y="-505.5" font-family="Helvetica,sans-Serif" font-size="10.00">MoFEM::BasicMethod</text>
</a>
</g>
</g>
<!-- Node13&#45;&gt;Node12 -->
<g id="edge12" class="edge">
<title>Node13&#45;&gt;Node12</title>
<path fill="none" stroke="midnightblue" d="M1957.63,-502.82C2029.14,-497.57 2138.1,-489.58 2202.37,-484.86"/>
<polygon fill="midnightblue" stroke="midnightblue" points="1957.07,-499.35 1947.36,-503.57 1957.58,-506.33 1957.07,-499.35"/>
</g>
<!-- Node14 -->
<g id="node14" class="node">
<title>Node14</title>
<g id="a_node14"><a xlink:href="structMoFEM_1_1KspMethod.html" target="_top" xlink:title="data structure for ksp (linear solver) context">
<polygon fill="white" stroke="black" points="1442,-440.5 1442,-459.5 1555,-459.5 1555,-440.5 1442,-440.5"/>
<text text-anchor="middle" x="1498.5" y="-447.5" font-family="Helvetica,sans-Serif" font-size="10.00">MoFEM::KspMethod</text>
</a>
</g>
</g>
<!-- Node14&#45;&gt;Node13 -->
<g id="edge13" class="edge">
<title>Node14&#45;&gt;Node13</title>
<path fill="none" stroke="midnightblue" d="M1565.12,-459.87C1637.93,-470.83 1754.43,-488.36 1824.93,-498.96"/>
<polygon fill="midnightblue" stroke="midnightblue" points="1565.55,-456.4 1555.14,-458.37 1564.51,-463.32 1565.55,-456.4"/>
</g>
<!-- Node15 -->
<g id="node15" class="node">
<title>Node15</title>
<g id="a_node15"><a xlink:href="structMoFEM_1_1PetscData.html" target="_top" xlink:title=" ">
<polygon fill="white" stroke="black" points="1087.5,-567.5 1087.5,-586.5 1195.5,-586.5 1195.5,-567.5 1087.5,-567.5"/>
<text text-anchor="middle" x="1141.5" y="-574.5" font-family="Helvetica,sans-Serif" font-size="10.00">MoFEM::PetscData</text>
</a>
</g>
</g>
<!-- Node15&#45;&gt;Node14 -->
<g id="edge14" class="edge">
<title>Node15&#45;&gt;Node14</title>
<path fill="none" stroke="midnightblue" d="M1198.79,-565.13C1213.32,-561.64 1228.84,-557.53 1243,-553 1331.99,-524.55 1433.9,-479.29 1476.78,-459.63"/>
<polygon fill="midnightblue" stroke="midnightblue" points="1197.87,-561.75 1188.93,-567.44 1199.46,-568.57 1197.87,-561.75"/>
</g>
<!-- Node25 -->
<g id="node25" class="node">
<title>Node25</title>
<g id="a_node25"><a xlink:href="structMoFEM_1_1SnesMethod.html" target="_top" xlink:title="data structure for snes (nonlinear solver) context">
<polygon fill="white" stroke="black" points="1439,-402.5 1439,-421.5 1558,-421.5 1558,-402.5 1439,-402.5"/>
<text text-anchor="middle" x="1498.5" y="-409.5" font-family="Helvetica,sans-Serif" font-size="10.00">MoFEM::SnesMethod</text>
</a>
</g>
</g>
<!-- Node15&#45;&gt;Node25 -->
<g id="edge27" class="edge">
<title>Node15&#45;&gt;Node25</title>
<path fill="none" stroke="darkgreen" d="M1205.56,-572.45C1219.29,-568.78 1232.76,-562.76 1243,-553 1263.77,-533.2 1241.63,-512.17 1261,-491 1306.73,-441.01 1384.93,-422.62 1438.81,-415.87"/>
<polygon fill="darkgreen" stroke="darkgreen" points="1204.53,-569.09 1195.55,-574.72 1206.08,-575.92 1204.53,-569.09"/>
</g>
<!-- Node28 -->
<g id="node28" class="node">
<title>Node28</title>
<g id="a_node28"><a xlink:href="structMoFEM_1_1TSMethod.html" target="_top" xlink:title="data structure for TS (time stepping) context">
<polygon fill="white" stroke="black" points="1445,-617.5 1445,-636.5 1552,-636.5 1552,-617.5 1445,-617.5"/>
<text text-anchor="middle" x="1498.5" y="-624.5" font-family="Helvetica,sans-Serif" font-size="10.00">MoFEM::TSMethod</text>
</a>
</g>
</g>
<!-- Node15&#45;&gt;Node28 -->
<g id="edge33" class="edge">
<title>Node15&#45;&gt;Node28</title>
<path fill="none" stroke="darkgreen" d="M1205.93,-581.13C1257.61,-585.06 1332.34,-592.03 1397,-603 1418.93,-606.72 1443.19,-612.47 1462.39,-617.41"/>
<polygon fill="darkgreen" stroke="darkgreen" points="1206.14,-577.64 1195.91,-580.39 1205.62,-584.62 1206.14,-577.64"/>
</g>
<!-- Node16 -->
<g id="node16" class="node">
<title>Node16</title>
<g id="a_node16"><a xlink:href="structMoFEM_1_1UnknownInterface.html" target="_top" xlink:title="base class for all interface classes">
<polygon fill="white" stroke="black" points="735,-157.5 735,-176.5 883,-176.5 883,-157.5 735,-157.5"/>
<text text-anchor="middle" x="809" y="-164.5" font-family="Helvetica,sans-Serif" font-size="10.00">MoFEM::UnknownInterface</text>
</a>
</g>
</g>
<!-- Node16&#45;&gt;Node15 -->
<g id="edge15" class="edge">
<title>Node16&#45;&gt;Node15</title>
<path fill="none" stroke="midnightblue" d="M839.93,-180.95C887.92,-205.11 980.86,-259.69 1022,-337 1044.63,-379.52 1008.61,-516.46 1040,-553 1051.75,-566.67 1069.76,-573.31 1087.31,-576.33"/>
<polygon fill="midnightblue" stroke="midnightblue" points="841.47,-177.81 830.96,-176.53 838.38,-184.09 841.47,-177.81"/>
</g>
<!-- Node56 -->
<g id="node56" class="node">
<title>Node56</title>
<g id="a_node56"><a xlink:href="structMoFEM_1_1CoreInterface.html" target="_top" xlink:title="Interface.">
<polygon fill="white" stroke="black" points="1079,-16.5 1079,-35.5 1204,-35.5 1204,-16.5 1079,-16.5"/>
<text text-anchor="middle" x="1141.5" y="-23.5" font-family="Helvetica,sans-Serif" font-size="10.00">MoFEM::CoreInterface</text>
</a>
</g>
</g>
<!-- Node16&#45;&gt;Node56 -->
<g id="edge67" class="edge">
<title>Node16&#45;&gt;Node56</title>
<path fill="none" stroke="midnightblue" d="M893.45,-170.52C943.79,-170.95 1001.95,-167.89 1022,-153 1040.29,-139.41 1026.55,-123.39 1040,-105 1062.8,-73.84 1101.04,-48.54 1123.19,-35.53"/>
<polygon fill="midnightblue" stroke="midnightblue" points="893.22,-167.02 883.17,-170.39 893.12,-174.02 893.22,-167.02"/>
</g>
<!-- Node17 -->
<g id="node17" class="node">
<title>Node17</title>
<g id="a_node17"><a xlink:title=" ">
<polygon fill="white" stroke="#bfbfbf" points="386,-113.5 386,-176.5 627,-176.5 627,-113.5 386,-113.5"/>
<text text-anchor="start" x="394" y="-164.5" font-family="Helvetica,sans-Serif" font-size="10.00">multi_index_container</text>
<text text-anchor="start" x="394" y="-153.5" font-family="Helvetica,sans-Serif" font-size="10.00">&lt; UIdTypeMap, indexed</text>
<text text-anchor="start" x="394" y="-142.5" font-family="Helvetica,sans-Serif" font-size="10.00">_by&lt; hashed_unique&lt; member</text>
<text text-anchor="start" x="394" y="-131.5" font-family="Helvetica,sans-Serif" font-size="10.00">&lt; UIdTypeMap, boost::typeindex</text>
<text text-anchor="middle" x="506.5" y="-120.5" font-family="Helvetica,sans-Serif" font-size="10.00">::type_index, &amp;UIdTypeMap::classIdx &gt; &gt; &gt; &gt;</text>
</a>
</g>
</g>
<!-- Node17&#45;&gt;Node16 -->
<g id="edge16" class="edge">
<title>Node17&#45;&gt;Node16</title>
<path fill="none" stroke="#9a32cd" stroke-dasharray="5,2" d="M637.41,-154.51C670.69,-156.95 705.33,-159.48 734.62,-161.63"/>
<polygon fill="#9a32cd" stroke="#9a32cd" points="637.36,-151 627.13,-153.76 636.85,-157.98 637.36,-151"/>
<text text-anchor="middle" x="681" y="-163" font-family="Helvetica,sans-Serif" font-size="10.00"> iFaceTypeMap</text>
</g>
<!-- Node18 -->
<g id="node18" class="node">
<title>Node18</title>
<g id="a_node18"><a xlink:title=" ">
<polygon fill="white" stroke="#bfbfbf" points="0,-70.5 0,-89.5 125,-89.5 125,-70.5 0,-70.5"/>
<text text-anchor="middle" x="62.5" y="-77.5" font-family="Helvetica,sans-Serif" font-size="10.00">multi_index_container</text>
</a>
</g>
</g>
<!-- Node18&#45;&gt;Node13 -->
<g id="edge40" class="edge">
<title>Node18&#45;&gt;Node13</title>
<path fill="none" stroke="#9a32cd" stroke-dasharray="5,2" d="M135.41,-75.8C222.85,-71.06 374.95,-64 505.5,-64 505.5,-64 505.5,-64 1499.5,-64 1651.44,-64 1705.16,-126.33 1781,-258 1806.7,-302.62 1765.22,-450.14 1799,-489 1805.72,-496.73 1814.81,-501.72 1824.58,-504.87"/>
<polygon fill="#9a32cd" stroke="#9a32cd" points="135.12,-72.31 125.33,-76.35 135.51,-79.3 135.12,-72.31"/>
<text text-anchor="middle" x="961.5" y="-144" font-family="Helvetica,sans-Serif" font-size="10.00"> adjacenciesPtr</text>
<text text-anchor="middle" x="961.5" y="-133" font-family="Helvetica,sans-Serif" font-size="10.00">refinedEntitiesPtr</text>
<text text-anchor="middle" x="961.5" y="-122" font-family="Helvetica,sans-Serif" font-size="10.00">finiteElementsEntitiesPtr</text>
<text text-anchor="middle" x="961.5" y="-111" font-family="Helvetica,sans-Serif" font-size="10.00">dofsPtr</text>
<text text-anchor="middle" x="961.5" y="-100" font-family="Helvetica,sans-Serif" font-size="10.00">entitiesPtr</text>
<text text-anchor="middle" x="961.5" y="-89" font-family="Helvetica,sans-Serif" font-size="10.00">finiteElementsPtr</text>
<text text-anchor="middle" x="961.5" y="-78" font-family="Helvetica,sans-Serif" font-size="10.00">refinedFiniteElementsPtr</text>
<text text-anchor="middle" x="961.5" y="-67" font-family="Helvetica,sans-Serif" font-size="10.00">fieldsPtr</text>
</g>
<!-- Node18&#45;&gt;Node17 -->
<g id="edge17" class="edge">
<title>Node18&#45;&gt;Node17</title>
<path fill="none" stroke="orange" stroke-dasharray="5,2" d="M135.56,-90.6C203.25,-100.55 305.79,-115.63 385.77,-127.39"/>
<polygon fill="orange" stroke="orange" points="135.83,-87.1 125.42,-89.11 134.81,-94.02 135.83,-87.1"/>
<text text-anchor="start" x="143" y="-160" font-family="Helvetica,sans-Serif" font-size="10.00"> &lt; UIdTypeMap, indexed</text>
<text text-anchor="start" x="143" y="-149" font-family="Helvetica,sans-Serif" font-size="10.00">_by&lt; hashed_unique&lt; member</text>
<text text-anchor="start" x="143" y="-138" font-family="Helvetica,sans-Serif" font-size="10.00">&lt; UIdTypeMap, boost::typeindex</text>
<text text-anchor="middle" x="255.5" y="-127" font-family="Helvetica,sans-Serif" font-size="10.00">::type_index, &amp;UIdTypeMap::classIdx &gt; &gt; &gt; &gt;</text>
</g>
<!-- Node19 -->
<g id="node19" class="node">
<title>Node19</title>
<g id="a_node19"><a xlink:title=" ">
<polygon fill="white" stroke="#bfbfbf" points="738.5,-586.5 738.5,-605.5 879.5,-605.5 879.5,-586.5 738.5,-586.5"/>
<text text-anchor="middle" x="809" y="-593.5" font-family="Helvetica,sans-Serif" font-size="10.00">static constexpr Switches</text>
</a>
</g>
</g>
<!-- Node19&#45;&gt;Node15 -->
<g id="edge18" class="edge">
<title>Node19&#45;&gt;Node15</title>
<path fill="none" stroke="#9a32cd" stroke-dasharray="5,2" d="M889.72,-591.42C951.05,-587.89 1034.07,-583.12 1087.47,-580.05"/>
<polygon fill="#9a32cd" stroke="#9a32cd" points="889.47,-587.93 879.69,-591.99 889.87,-594.91 889.47,-587.93"/>
<text text-anchor="middle" x="961.5" y="-670" font-family="Helvetica,sans-Serif" font-size="10.00"> CtxSetX_TT</text>
<text text-anchor="middle" x="961.5" y="-659" font-family="Helvetica,sans-Serif" font-size="10.00">CtxSetX_T</text>
<text text-anchor="middle" x="961.5" y="-648" font-family="Helvetica,sans-Serif" font-size="10.00">CtxSetA</text>
<text text-anchor="middle" x="961.5" y="-637" font-family="Helvetica,sans-Serif" font-size="10.00">CtxSetB</text>
<text text-anchor="middle" x="961.5" y="-626" font-family="Helvetica,sans-Serif" font-size="10.00">CtxSetTime</text>
<text text-anchor="middle" x="961.5" y="-615" font-family="Helvetica,sans-Serif" font-size="10.00">CtxSetNone</text>
<text text-anchor="middle" x="961.5" y="-604" font-family="Helvetica,sans-Serif" font-size="10.00">CtxSetF</text>
<text text-anchor="middle" x="961.5" y="-593" font-family="Helvetica,sans-Serif" font-size="10.00">CtxSetX</text>
</g>
<!-- Node20 -->
<g id="node20" class="node">
<title>Node20</title>
<g id="a_node20"><a xlink:title=" ">
<polygon fill="white" stroke="#bfbfbf" points="791.5,-476.5 791.5,-495.5 826.5,-495.5 826.5,-476.5 791.5,-476.5"/>
<text text-anchor="middle" x="809" y="-483.5" font-family="Helvetica,sans-Serif" font-size="10.00">Mat</text>
</a>
</g>
</g>
<!-- Node20&#45;&gt;Node14 -->
<g id="edge24" class="edge">
<title>Node20&#45;&gt;Node14</title>
<path fill="none" stroke="#9a32cd" stroke-dasharray="5,2" d="M836.86,-482.34C879.72,-476.66 966.26,-465.89 1040,-461 1184.68,-451.41 1355.58,-449.91 1441.8,-449.83"/>
<polygon fill="#9a32cd" stroke="#9a32cd" points="836.14,-478.9 826.7,-483.7 837.07,-485.84 836.14,-478.9"/>
<text text-anchor="middle" x="1141.5" y="-475" font-family="Helvetica,sans-Serif" font-size="10.00"> ksp_A</text>
<text text-anchor="middle" x="1141.5" y="-464" font-family="Helvetica,sans-Serif" font-size="10.00">ksp_B</text>
</g>
<!-- Node20&#45;&gt;Node15 -->
<g id="edge19" class="edge">
<title>Node20&#45;&gt;Node15</title>
<path fill="none" stroke="#9a32cd" stroke-dasharray="5,2" d="M836.93,-487.86C878.8,-491.71 961.03,-503.15 1022,-536 1031.69,-541.22 1030.32,-547.77 1040,-553 1054.52,-560.85 1071.58,-566.16 1087.48,-569.73"/>
<polygon fill="#9a32cd" stroke="#9a32cd" points="836.97,-484.35 826.72,-487 836.39,-491.33 836.97,-484.35"/>
<text text-anchor="middle" x="961.5" y="-550" font-family="Helvetica,sans-Serif" font-size="10.00"> A</text>
<text text-anchor="middle" x="961.5" y="-539" font-family="Helvetica,sans-Serif" font-size="10.00">B</text>
</g>
<!-- Node20&#45;&gt;Node25 -->
<g id="edge29" class="edge">
<title>Node20&#45;&gt;Node25</title>
<path fill="none" stroke="#9a32cd" stroke-dasharray="5,2" d="M819,-467.35C832.89,-440.53 862.06,-391.31 901,-364 953.83,-326.94 976.16,-331.43 1040,-322 1118.67,-310.37 1335.13,-297.03 1397,-347 1414.08,-360.79 1398.38,-378.66 1415,-393 1421.79,-398.86 1430.02,-403 1438.63,-405.92"/>
<polygon fill="#9a32cd" stroke="#9a32cd" points="815.8,-465.93 814.44,-476.44 822.05,-469.07 815.8,-465.93"/>
<text text-anchor="middle" x="1141.5" y="-336" font-family="Helvetica,sans-Serif" font-size="10.00"> snes_A</text>
<text text-anchor="middle" x="1141.5" y="-325" font-family="Helvetica,sans-Serif" font-size="10.00">snes_B</text>
</g>
<!-- Node20&#45;&gt;Node28 -->
<g id="edge34" class="edge">
<title>Node20&#45;&gt;Node28</title>
<path fill="none" stroke="#9a32cd" stroke-dasharray="5,2" d="M835.84,-497.88C852.16,-506.8 872.14,-520.63 883,-539 915.6,-594.14 857.4,-635.07 901,-682 938.64,-722.51 1345.67,-743.58 1397,-723 1441.57,-705.13 1477.58,-657.03 1491.4,-636.5"/>
<polygon fill="#9a32cd" stroke="#9a32cd" points="837.25,-494.67 826.76,-493.2 834.04,-500.89 837.25,-494.67"/>
<text text-anchor="middle" x="1141.5" y="-744" font-family="Helvetica,sans-Serif" font-size="10.00"> ts_A</text>
<text text-anchor="middle" x="1141.5" y="-733" font-family="Helvetica,sans-Serif" font-size="10.00">ts_B</text>
</g>
<!-- Node21 -->
<g id="node21" class="node">
<title>Node21</title>
<g id="a_node21"><a xlink:title=" ">
<polygon fill="white" stroke="#bfbfbf" points="772.5,-548.5 772.5,-567.5 845.5,-567.5 845.5,-548.5 772.5,-548.5"/>
<text text-anchor="middle" x="809" y="-555.5" font-family="Helvetica,sans-Serif" font-size="10.00">bitset&lt; 8 &gt;</text>
</a>
</g>
</g>
<!-- Node21&#45;&gt;Node15 -->
<g id="edge20" class="edge">
<title>Node21&#45;&gt;Node15</title>
<path fill="none" stroke="#9a32cd" stroke-dasharray="5,2" d="M855.78,-560.17C898.72,-562.25 964.73,-565.58 1022,-569 1043.41,-570.28 1066.98,-571.84 1087.42,-573.24"/>
<polygon fill="#9a32cd" stroke="#9a32cd" points="855.8,-556.67 845.64,-559.68 855.46,-563.66 855.8,-556.67"/>
<text text-anchor="middle" x="961.5" y="-572" font-family="Helvetica,sans-Serif" font-size="10.00"> data_ctx</text>
</g>
<!-- Node22 -->
<g id="node22" class="node">
<title>Node22</title>
<g id="a_node22"><a xlink:title=" ">
<polygon fill="white" stroke="#bfbfbf" points="792,-285.5 792,-304.5 826,-304.5 826,-285.5 792,-285.5"/>
<text text-anchor="middle" x="809" y="-292.5" font-family="Helvetica,sans-Serif" font-size="10.00">Vec</text>
</a>
</g>
</g>
<!-- Node22&#45;&gt;Node14 -->
<g id="edge25" class="edge">
<title>Node22&#45;&gt;Node14</title>
<path fill="none" stroke="#9a32cd" stroke-dasharray="5,2" d="M836.51,-292.17C904.58,-285.52 1090.83,-271.28 1243,-296 1314.17,-307.56 1348.86,-293.32 1397,-347 1422.49,-375.42 1388.21,-403.8 1415,-431 1422.32,-438.44 1431.93,-443.21 1441.99,-446.22"/>
<polygon fill="#9a32cd" stroke="#9a32cd" points="835.87,-288.72 826.27,-293.2 836.57,-295.68 835.87,-288.72"/>
<text text-anchor="middle" x="1141.5" y="-299" font-family="Helvetica,sans-Serif" font-size="10.00"> ksp_f</text>
</g>
<!-- Node22&#45;&gt;Node15 -->
<g id="edge21" class="edge">
<title>Node22&#45;&gt;Node15</title>
<path fill="none" stroke="#9a32cd" stroke-dasharray="5,2" d="M835.19,-305.48C880.68,-325.83 976.07,-375.25 1022,-449 1046.8,-488.82 1007.89,-518.8 1040,-553 1052.22,-566.01 1070.12,-572.54 1087.44,-575.65"/>
<polygon fill="#9a32cd" stroke="#9a32cd" points="836.58,-302.27 826.02,-301.48 833.78,-308.69 836.58,-302.27"/>
<text text-anchor="middle" x="961.5" y="-485" font-family="Helvetica,sans-Serif" font-size="10.00"> f</text>
<text text-anchor="middle" x="961.5" y="-474" font-family="Helvetica,sans-Serif" font-size="10.00">x</text>
<text text-anchor="middle" x="961.5" y="-463" font-family="Helvetica,sans-Serif" font-size="10.00">x_t</text>
<text text-anchor="middle" x="961.5" y="-452" font-family="Helvetica,sans-Serif" font-size="10.00">x_tt</text>
</g>
<!-- Node22&#45;&gt;Node25 -->
<g id="edge30" class="edge">
<title>Node22&#45;&gt;Node25</title>
<path fill="none" stroke="#9a32cd" stroke-dasharray="5,2" d="M832.21,-279.28C871.72,-252.39 957.83,-198.55 1040,-179 1127.77,-158.12 1153.51,-167.57 1243,-179 1313.15,-187.96 1350.91,-165.37 1397,-219 1447.67,-277.97 1363.52,-334.74 1415,-393 1421.33,-400.16 1429.76,-404.91 1438.82,-408.01"/>
<polygon fill="#9a32cd" stroke="#9a32cd" points="829.87,-276.64 823.63,-285.2 833.85,-282.4 829.87,-276.64"/>
<text text-anchor="middle" x="1141.5" y="-193" font-family="Helvetica,sans-Serif" font-size="10.00"> snes_x</text>
<text text-anchor="middle" x="1141.5" y="-182" font-family="Helvetica,sans-Serif" font-size="10.00">snes_f</text>
</g>
<!-- Node22&#45;&gt;Node28 -->
<g id="edge38" class="edge">
<title>Node22&#45;&gt;Node28</title>
<path fill="none" stroke="#9a32cd" stroke-dasharray="5,2" d="M836.37,-296.73C887.47,-300.67 997.18,-312.1 1022,-339 1065.74,-386.4 995.02,-436.78 1040,-483 1071.83,-515.7 1199.19,-501.23 1243,-514 1314.83,-534.94 1328.63,-551.6 1397,-582 1424.42,-594.19 1456.01,-608.36 1476.34,-617.49"/>
<polygon fill="#9a32cd" stroke="#9a32cd" points="836.35,-293.22 826.12,-295.99 835.84,-300.2 836.35,-293.22"/>
<text text-anchor="middle" x="1141.5" y="-550" font-family="Helvetica,sans-Serif" font-size="10.00"> ts_u</text>
<text text-anchor="middle" x="1141.5" y="-539" font-family="Helvetica,sans-Serif" font-size="10.00">ts_F</text>
<text text-anchor="middle" x="1141.5" y="-528" font-family="Helvetica,sans-Serif" font-size="10.00">ts_u_t</text>
<text text-anchor="middle" x="1141.5" y="-517" font-family="Helvetica,sans-Serif" font-size="10.00">ts_u_tt</text>
</g>
<!-- Node23 -->
<g id="node23" class="node">
<title>Node23</title>
<g id="a_node23"><a xlink:title=" ">
<polygon fill="white" stroke="#bfbfbf" points="1124,-391.5 1124,-410.5 1159,-410.5 1159,-391.5 1124,-391.5"/>
<text text-anchor="middle" x="1141.5" y="-398.5" font-family="Helvetica,sans-Serif" font-size="10.00">KSP</text>
</a>
</g>
</g>
<!-- Node23&#45;&gt;Node14 -->
<g id="edge22" class="edge">
<title>Node23&#45;&gt;Node14</title>
<path fill="none" stroke="#9a32cd" stroke-dasharray="5,2" d="M1169.25,-401.53C1215.96,-402.89 1315.19,-407.74 1397,-425 1405.25,-426.74 1406.88,-428.72 1415,-431 1427.03,-434.38 1440.16,-437.61 1452.34,-440.42"/>
<polygon fill="#9a32cd" stroke="#9a32cd" points="1169.16,-398.02 1159.07,-401.26 1168.98,-405.02 1169.16,-398.02"/>
<text text-anchor="middle" x="1329" y="-428" font-family="Helvetica,sans-Serif" font-size="10.00"> ksp</text>
</g>
<!-- Node24 -->
<g id="node24" class="node">
<title>Node24</title>
<g id="a_node24"><a xlink:title=" ">
<polygon fill="white" stroke="#bfbfbf" points="1104.5,-353.5 1104.5,-372.5 1178.5,-372.5 1178.5,-353.5 1104.5,-353.5"/>
<text text-anchor="middle" x="1141.5" y="-360.5" font-family="Helvetica,sans-Serif" font-size="10.00">KSPContext</text>
</a>
</g>
</g>
<!-- Node24&#45;&gt;Node14 -->
<g id="edge23" class="edge">
<title>Node24&#45;&gt;Node14</title>
<path fill="none" stroke="#9a32cd" stroke-dasharray="5,2" d="M1189.09,-355.26C1244.17,-348.78 1336.04,-346.67 1397,-391 1412.77,-402.47 1399.93,-418.63 1415,-431 1422.73,-437.34 1432.17,-441.65 1441.87,-444.57"/>
<polygon fill="#9a32cd" stroke="#9a32cd" points="1188.4,-351.82 1178.92,-356.56 1189.28,-358.76 1188.4,-351.82"/>
<text text-anchor="middle" x="1329" y="-394" font-family="Helvetica,sans-Serif" font-size="10.00"> ksp_ctx</text>
</g>
<!-- Node25&#45;&gt;Node13 -->
<g id="edge26" class="edge">
<title>Node25&#45;&gt;Node13</title>
<path fill="none" stroke="midnightblue" d="M1568.38,-409.03C1629.13,-409.68 1717.61,-418.93 1781,-461 1793.33,-469.18 1786.86,-480.54 1799,-489 1806.65,-494.33 1815.54,-498.2 1824.64,-501"/>
<polygon fill="midnightblue" stroke="midnightblue" points="1568.14,-405.53 1558.12,-409 1568.11,-412.53 1568.14,-405.53"/>
</g>
<!-- Node26 -->
<g id="node26" class="node">
<title>Node26</title>
<g id="a_node26"><a xlink:title=" ">
<polygon fill="white" stroke="#bfbfbf" points="1120.5,-210.5 1120.5,-229.5 1162.5,-229.5 1162.5,-210.5 1120.5,-210.5"/>
<text text-anchor="middle" x="1141.5" y="-217.5" font-family="Helvetica,sans-Serif" font-size="10.00">SNES</text>
</a>
</g>
</g>
<!-- Node26&#45;&gt;Node25 -->
<g id="edge28" class="edge">
<title>Node26&#45;&gt;Node25</title>
<path fill="none" stroke="#9a32cd" stroke-dasharray="5,2" d="M1172.92,-217.57C1226.71,-215.1 1338.46,-218.5 1397,-282 1430.88,-318.74 1380.84,-356.52 1415,-393 1421.43,-399.87 1429.8,-404.49 1438.74,-407.56"/>
<polygon fill="#9a32cd" stroke="#9a32cd" points="1172.45,-214.09 1162.66,-218.14 1172.84,-221.08 1172.45,-214.09"/>
<text text-anchor="middle" x="1329" y="-285" font-family="Helvetica,sans-Serif" font-size="10.00"> snes</text>
</g>
<!-- Node27 -->
<g id="node27" class="node">
<title>Node27</title>
<g id="a_node27"><a xlink:title=" ">
<polygon fill="white" stroke="#bfbfbf" points="1101.5,-114.5 1101.5,-133.5 1181.5,-133.5 1181.5,-114.5 1101.5,-114.5"/>
<text text-anchor="middle" x="1141.5" y="-121.5" font-family="Helvetica,sans-Serif" font-size="10.00">SNESContext</text>
</a>
</g>
</g>
<!-- Node27&#45;&gt;Node25 -->
<g id="edge31" class="edge">
<title>Node27&#45;&gt;Node25</title>
<path fill="none" stroke="#9a32cd" stroke-dasharray="5,2" d="M1187.35,-112.22C1244.6,-100.19 1342.71,-90.17 1397,-145 1435.88,-184.26 1379.05,-351.04 1415,-393 1421.22,-400.25 1429.59,-405.05 1438.64,-408.17"/>
<polygon fill="#9a32cd" stroke="#9a32cd" points="1186.51,-108.82 1177.5,-114.4 1188.02,-115.66 1186.51,-108.82"/>
<text text-anchor="middle" x="1329" y="-148" font-family="Helvetica,sans-Serif" font-size="10.00"> snes_ctx</text>
</g>
<!-- Node28&#45;&gt;Node13 -->
<g id="edge32" class="edge">
<title>Node28&#45;&gt;Node13</title>
<path fill="none" stroke="midnightblue" d="M1535.12,-614.06C1590.92,-594.05 1702.51,-555.11 1799,-528 1812.43,-524.23 1827.18,-520.61 1840.61,-517.51"/>
<polygon fill="midnightblue" stroke="midnightblue" points="1533.92,-610.77 1525.69,-617.45 1536.29,-617.36 1533.92,-610.77"/>
</g>
<!-- Node29 -->
<g id="node29" class="node">
<title>Node29</title>
<g id="a_node29"><a xlink:title=" ">
<polygon fill="white" stroke="#bfbfbf" points="1109,-681.5 1109,-700.5 1174,-700.5 1174,-681.5 1109,-681.5"/>
<text text-anchor="middle" x="1141.5" y="-688.5" font-family="Helvetica,sans-Serif" font-size="10.00">PetscReal</text>
</a>
</g>
</g>
<!-- Node29&#45;&gt;Node28 -->
<g id="edge35" class="edge">
<title>Node29&#45;&gt;Node28</title>
<path fill="none" stroke="#9a32cd" stroke-dasharray="5,2" d="M1184.33,-687.12C1235.02,-681.98 1322.86,-671.71 1397,-656 1421.34,-650.84 1448.41,-642.9 1468.32,-636.63"/>
<polygon fill="#9a32cd" stroke="#9a32cd" points="1183.7,-683.66 1174.1,-688.13 1184.39,-690.63 1183.7,-683.66"/>
<text text-anchor="middle" x="1329" y="-713" font-family="Helvetica,sans-Serif" font-size="10.00"> ts_a</text>
<text text-anchor="middle" x="1329" y="-702" font-family="Helvetica,sans-Serif" font-size="10.00">ts_t</text>
<text text-anchor="middle" x="1329" y="-691" font-family="Helvetica,sans-Serif" font-size="10.00">ts_dt</text>
<text text-anchor="middle" x="1329" y="-680" font-family="Helvetica,sans-Serif" font-size="10.00">ts_aa</text>
</g>
<!-- Node30 -->
<g id="node30" class="node">
<title>Node30</title>
<g id="a_node30"><a xlink:title=" ">
<polygon fill="white" stroke="#bfbfbf" points="1108,-643.5 1108,-662.5 1175,-662.5 1175,-643.5 1108,-643.5"/>
<text text-anchor="middle" x="1141.5" y="-650.5" font-family="Helvetica,sans-Serif" font-size="10.00">TSContext</text>
</a>
</g>
</g>
<!-- Node30&#45;&gt;Node28 -->
<g id="edge36" class="edge">
<title>Node30&#45;&gt;Node28</title>
<path fill="none" stroke="#9a32cd" stroke-dasharray="5,2" d="M1185.59,-649.84C1250.81,-645.07 1374.44,-636.01 1444.88,-630.85"/>
<polygon fill="#9a32cd" stroke="#9a32cd" points="1184.98,-646.38 1175.26,-650.6 1185.49,-653.36 1184.98,-646.38"/>
<text text-anchor="middle" x="1329" y="-646" font-family="Helvetica,sans-Serif" font-size="10.00"> ts_ctx</text>
</g>
<!-- Node31 -->
<g id="node31" class="node">
<title>Node31</title>
<g id="a_node31"><a xlink:title=" ">
<polygon fill="white" stroke="#bfbfbf" points="1113.5,-605.5 1113.5,-624.5 1169.5,-624.5 1169.5,-605.5 1113.5,-605.5"/>
<text text-anchor="middle" x="1141.5" y="-612.5" font-family="Helvetica,sans-Serif" font-size="10.00">PetscInt</text>
</a>
</g>
</g>
<!-- Node31&#45;&gt;Node28 -->
<g id="edge37" class="edge">
<title>Node31&#45;&gt;Node28</title>
<path fill="none" stroke="#9a32cd" stroke-dasharray="5,2" d="M1179.93,-612.2C1229.62,-609 1320.05,-604.91 1397,-611 1413.56,-612.31 1431.5,-614.81 1447.59,-617.46"/>
<polygon fill="#9a32cd" stroke="#9a32cd" points="1179.42,-608.73 1169.67,-612.89 1179.88,-615.71 1179.42,-608.73"/>
<text text-anchor="middle" x="1329" y="-614" font-family="Helvetica,sans-Serif" font-size="10.00"> ts_step</text>
</g>
<!-- Node32 -->
<g id="node32" class="node">
<title>Node32</title>
<g id="a_node32"><a xlink:title=" ">
<polygon fill="white" stroke="#bfbfbf" points="1127,-777.5 1127,-796.5 1156,-796.5 1156,-777.5 1127,-777.5"/>
<text text-anchor="middle" x="1141.5" y="-784.5" font-family="Helvetica,sans-Serif" font-size="10.00">TS</text>
</a>
</g>
</g>
<!-- Node32&#45;&gt;Node28 -->
<g id="edge39" class="edge">
<title>Node32&#45;&gt;Node28</title>
<path fill="none" stroke="#9a32cd" stroke-dasharray="5,2" d="M1166.54,-783.79C1228.03,-775.5 1386.97,-753.67 1397,-748 1445.49,-720.57 1480.52,-660.02 1492.75,-636.55"/>
<polygon fill="#9a32cd" stroke="#9a32cd" points="1165.69,-780.37 1156.24,-785.17 1166.62,-787.31 1165.69,-780.37"/>
<text text-anchor="middle" x="1329" y="-773" font-family="Helvetica,sans-Serif" font-size="10.00"> ts</text>
</g>
<!-- Node33 -->
<g id="node33" class="node">
<title>Node33</title>
<g id="a_node33"><a xlink:title=" ">
<polygon fill="white" stroke="#bfbfbf" points="1454,-364.5 1454,-383.5 1543,-383.5 1543,-364.5 1454,-364.5"/>
<text text-anchor="middle" x="1498.5" y="-371.5" font-family="Helvetica,sans-Serif" font-size="10.00">pair&lt; int, int &gt;</text>
</a>
</g>
</g>
<!-- Node33&#45;&gt;Node13 -->
<g id="edge41" class="edge">
<title>Node33&#45;&gt;Node13</title>
<path fill="none" stroke="#9a32cd" stroke-dasharray="5,2" d="M1553.49,-370.55C1625.73,-367.16 1748.53,-366.06 1781,-395 1812.75,-423.3 1769.35,-458.5 1799,-489 1806.03,-496.24 1815.16,-501 1824.83,-504.1"/>
<polygon fill="#9a32cd" stroke="#9a32cd" points="1553.03,-367.07 1543.22,-371.06 1553.38,-374.06 1553.03,-367.07"/>
<text text-anchor="middle" x="1690.5" y="-398" font-family="Helvetica,sans-Serif" font-size="10.00"> loHiFERank</text>
</g>
<!-- Node34 -->
<g id="node34" class="node">
<title>Node34</title>
<g id="a_node34"><a xlink:title=" ">
<polygon fill="white" stroke="#bfbfbf" points="1428.5,-326.5 1428.5,-345.5 1568.5,-345.5 1568.5,-326.5 1428.5,-326.5"/>
<text text-anchor="middle" x="1498.5" y="-333.5" font-family="Helvetica,sans-Serif" font-size="10.00">weak_ptr&lt; CacheTuple &gt;</text>
</a>
</g>
</g>
<!-- Node34&#45;&gt;Node13 -->
<g id="edge42" class="edge">
<title>Node34&#45;&gt;Node13</title>
<path fill="none" stroke="#9a32cd" stroke-dasharray="5,2" d="M1578.81,-330C1651.71,-326.34 1752.64,-326.59 1781,-353 1825.62,-394.55 1757.78,-444.08 1799,-489 1805.93,-496.55 1815.12,-501.45 1824.91,-504.57"/>
<polygon fill="#9a32cd" stroke="#9a32cd" points="1578.52,-326.51 1568.72,-330.54 1578.89,-333.5 1578.52,-326.51"/>
<text text-anchor="middle" x="1690.5" y="-356" font-family="Helvetica,sans-Serif" font-size="10.00"> cacheWeakPtr</text>
</g>
<!-- Node35 -->
<g id="node35" class="node">
<title>Node35</title>
<g id="a_node35"><a xlink:title=" ">
<polygon fill="white" stroke="#bfbfbf" points="1442.5,-283.5 1442.5,-302.5 1554.5,-302.5 1554.5,-283.5 1442.5,-283.5"/>
<text text-anchor="middle" x="1498.5" y="-290.5" font-family="Helvetica,sans-Serif" font-size="10.00">unique_ptr&lt; bool &gt;</text>
</a>
</g>
</g>
<!-- Node35&#45;&gt;Node13 -->
<g id="edge43" class="edge">
<title>Node35&#45;&gt;Node13</title>
<path fill="none" stroke="#9a32cd" stroke-dasharray="5,2" d="M1536.95,-280.49C1597.04,-263.04 1714.92,-240.02 1781,-302 1811.45,-330.56 1771.33,-457.74 1799,-489 1805.79,-496.67 1814.92,-501.63 1824.69,-504.77"/>
<polygon fill="#9a32cd" stroke="#9a32cd" points="1535.69,-277.22 1527.12,-283.45 1537.71,-283.92 1535.69,-277.22"/>
<text text-anchor="middle" x="1690.5" y="-316" font-family="Helvetica,sans-Serif" font-size="10.00"> matAssembleSwitch</text>
<text text-anchor="middle" x="1690.5" y="-305" font-family="Helvetica,sans-Serif" font-size="10.00">vecAssembleSwitch</text>
</g>
<!-- Node36 -->
<g id="node36" class="node">
<title>Node36</title>
<g id="a_node36"><a xlink:title=" ">
<polygon fill="white" stroke="#bfbfbf" points="1127,-817.5 1127,-836.5 1156,-836.5 1156,-817.5 1127,-817.5"/>
<text text-anchor="middle" x="1141.5" y="-824.5" font-family="Helvetica,sans-Serif" font-size="10.00">int</text>
</a>
</g>
</g>
<!-- Node36&#45;&gt;Node13 -->
<g id="edge44" class="edge">
<title>Node36&#45;&gt;Node13</title>
<path fill="none" stroke="#9a32cd" stroke-dasharray="5,2" d="M1166.3,-823.78C1220.99,-816.2 1354.26,-796.81 1397,-782 1579.99,-718.56 1653.5,-721.78 1781,-576 1796,-558.85 1781.87,-543.03 1799,-528 1806.37,-521.53 1815.44,-517.04 1824.88,-513.96"/>
<polygon fill="#9a32cd" stroke="#9a32cd" points="1165.59,-820.34 1156.16,-825.17 1166.55,-827.27 1165.59,-820.34"/>
<text text-anchor="middle" x="1498.5" y="-809" font-family="Helvetica,sans-Serif" font-size="10.00"> sIze</text>
<text text-anchor="middle" x="1498.5" y="-798" font-family="Helvetica,sans-Serif" font-size="10.00">loopSize</text>
<text text-anchor="middle" x="1498.5" y="-787" font-family="Helvetica,sans-Serif" font-size="10.00">nInTheLoop</text>
<text text-anchor="middle" x="1498.5" y="-776" font-family="Helvetica,sans-Serif" font-size="10.00">rAnk</text>
</g>
<!-- Node36&#45;&gt;Node38 -->
<g id="edge56" class="edge">
<title>Node36&#45;&gt;Node38</title>
<path fill="none" stroke="#9a32cd" stroke-dasharray="5,2" d="M1166.11,-823.55C1222.12,-815.91 1361.03,-800.23 1397,-827 1419.34,-843.62 1405.41,-860.86 1415,-887 1440.76,-957.25 1479.45,-1038.77 1492.78,-1066.33"/>
<polygon fill="#9a32cd" stroke="#9a32cd" points="1165.48,-820.11 1156.07,-824.96 1166.46,-827.04 1165.48,-820.11"/>
<text text-anchor="middle" x="1329" y="-896" font-family="Helvetica,sans-Serif" font-size="10.00"> tagNameSize</text>
<text text-anchor="middle" x="1329" y="-885" font-family="Helvetica,sans-Serif" font-size="10.00">nbDofsRow</text>
<text text-anchor="middle" x="1329" y="-874" font-family="Helvetica,sans-Serif" font-size="10.00">nbLocDofsCol</text>
<text text-anchor="middle" x="1329" y="-863" font-family="Helvetica,sans-Serif" font-size="10.00">nbDofsCol</text>
<text text-anchor="middle" x="1329" y="-852" font-family="Helvetica,sans-Serif" font-size="10.00">nbGhostDofsRow</text>
<text text-anchor="middle" x="1329" y="-841" font-family="Helvetica,sans-Serif" font-size="10.00">nbGhostDofsCol</text>
<text text-anchor="middle" x="1329" y="-830" font-family="Helvetica,sans-Serif" font-size="10.00">nbLocDofsRow</text>
</g>
<!-- Node37 -->
<g id="node37" class="node">
<title>Node37</title>
<g id="a_node37"><a xlink:title=" ">
<polygon fill="white" stroke="#bfbfbf" points="1415,-858.5 1415,-877.5 1582,-877.5 1582,-858.5 1415,-858.5"/>
<text text-anchor="middle" x="1498.5" y="-865.5" font-family="Helvetica,sans-Serif" font-size="10.00">function&lt; MoFEMErrorCode()&gt;</text>
</a>
</g>
</g>
<!-- Node37&#45;&gt;Node13 -->
<g id="edge45" class="edge">
<title>Node37&#45;&gt;Node13</title>
<path fill="none" stroke="#9a32cd" stroke-dasharray="5,2" d="M1592.66,-875.54C1655.59,-875.07 1735.26,-862.61 1781,-810 1822.2,-762.61 1758.4,-575.91 1799,-528 1805.74,-520.05 1814.97,-514.91 1824.88,-511.65"/>
<polygon fill="#9a32cd" stroke="#9a32cd" points="1592.32,-872.04 1582.31,-875.51 1592.3,-879.04 1592.32,-872.04"/>
<text text-anchor="middle" x="1690.5" y="-900" font-family="Helvetica,sans-Serif" font-size="10.00"> preProcessHook</text>
<text text-anchor="middle" x="1690.5" y="-889" font-family="Helvetica,sans-Serif" font-size="10.00">operatorHook</text>
<text text-anchor="middle" x="1690.5" y="-878" font-family="Helvetica,sans-Serif" font-size="10.00">postProcessHook</text>
</g>
<!-- Node38&#45;&gt;Node13 -->
<g id="edge46" class="edge">
<title>Node38&#45;&gt;Node13</title>
<path fill="none" stroke="#9a32cd" stroke-dasharray="5,2" d="M1547.32,-1063.61C1612.96,-1043.8 1728.77,-998.14 1781,-912 1803.15,-875.48 1771.66,-560.82 1799,-528 1805.67,-519.99 1814.87,-514.83 1824.77,-511.56"/>
<polygon fill="#9a32cd" stroke="#9a32cd" points="1546.23,-1060.29 1537.62,-1066.46 1548.2,-1067 1546.23,-1060.29"/>
<text text-anchor="middle" x="1690.5" y="-1046" font-family="Helvetica,sans-Serif" font-size="10.00"> problemPtr</text>
</g>
<!-- Node39 -->
<g id="node39" class="node">
<title>Node39</title>
<g id="a_node39"><a xlink:title=" ">
<polygon fill="white" stroke="#bfbfbf" points="1058,-891 1058,-921 1225,-921 1225,-891 1058,-891"/>
<text text-anchor="start" x="1066" y="-909" font-family="Helvetica,sans-Serif" font-size="10.00">shared_ptr&lt; NumeredEntFinite</text>
<text text-anchor="middle" x="1141.5" y="-898" font-family="Helvetica,sans-Serif" font-size="10.00">Element_multiIndex &gt;</text>
</a>
</g>
</g>
<!-- Node39&#45;&gt;Node38 -->
<g id="edge47" class="edge">
<title>Node39&#45;&gt;Node38</title>
<path fill="none" stroke="#9a32cd" stroke-dasharray="5,2" d="M1235.14,-907.46C1296.39,-909.92 1370.16,-916.22 1397,-932 1451.92,-964.3 1484.15,-1039.84 1494.14,-1066.49"/>
<polygon fill="#9a32cd" stroke="#9a32cd" points="1235.17,-903.96 1225.04,-907.08 1234.9,-910.95 1235.17,-903.96"/>
<text text-anchor="middle" x="1329" y="-935" font-family="Helvetica,sans-Serif" font-size="10.00"> numeredFiniteElementsPtr</text>
</g>
<!-- Node40 -->
<g id="node40" class="node">
<title>Node40</title>
<g id="a_node40"><a xlink:title=" ">
<polygon fill="white" stroke="#bfbfbf" points="1112,-1280.5 1112,-1299.5 1171,-1299.5 1171,-1280.5 1112,-1280.5"/>
<text text-anchor="middle" x="1141.5" y="-1287.5" font-family="Helvetica,sans-Serif" font-size="10.00">BitFEId *</text>
</a>
</g>
</g>
<!-- Node40&#45;&gt;Node38 -->
<g id="edge48" class="edge">
<title>Node40&#45;&gt;Node38</title>
<path fill="none" stroke="#9a32cd" stroke-dasharray="5,2" d="M1181.49,-1285.4C1250.59,-1277.12 1388.19,-1260.01 1397,-1254 1459.44,-1211.4 1487.55,-1116.46 1495.23,-1085.77"/>
<polygon fill="#9a32cd" stroke="#9a32cd" points="1180.93,-1281.94 1171.41,-1286.6 1181.76,-1288.89 1180.93,-1281.94"/>
<text text-anchor="middle" x="1329" y="-1278" font-family="Helvetica,sans-Serif" font-size="10.00"> tagBitFEId</text>
</g>
<!-- Node41 -->
<g id="node41" class="node">
<title>Node41</title>
<g id="a_node41"><a xlink:href="classEntityHandle.html" target="_top" xlink:title=" ">
<polygon fill="white" stroke="black" points="1101.5,-1242.5 1101.5,-1261.5 1181.5,-1261.5 1181.5,-1242.5 1101.5,-1242.5"/>
<text text-anchor="middle" x="1141.5" y="-1249.5" font-family="Helvetica,sans-Serif" font-size="10.00">EntityHandle</text>
</a>
</g>
</g>
<!-- Node41&#45;&gt;Node38 -->
<g id="edge49" class="edge">
<title>Node41&#45;&gt;Node38</title>
<path fill="none" stroke="#9a32cd" stroke-dasharray="5,2" d="M1191.93,-1247.74C1260.98,-1241.47 1379.84,-1229.37 1397,-1219 1451.02,-1186.36 1483.6,-1112.36 1493.92,-1085.75"/>
<polygon fill="#9a32cd" stroke="#9a32cd" points="1191.35,-1244.28 1181.7,-1248.66 1191.98,-1251.25 1191.35,-1244.28"/>
<text text-anchor="middle" x="1329" y="-1243" font-family="Helvetica,sans-Serif" font-size="10.00"> meshset</text>
</g>
<!-- Node42 -->
<g id="node42" class="node">
<title>Node42</title>
<g id="a_node42"><a xlink:title=" ">
<polygon fill="white" stroke="#bfbfbf" points="1067,-1193 1067,-1223 1216,-1223 1216,-1193 1067,-1193"/>
<text text-anchor="start" x="1075" y="-1211" font-family="Helvetica,sans-Serif" font-size="10.00">shared_ptr&lt; MoFEM::</text>
<text text-anchor="middle" x="1141.5" y="-1200" font-family="Helvetica,sans-Serif" font-size="10.00">ComposedProblemsData &gt;</text>
</a>
</g>
</g>
<!-- Node42&#45;&gt;Node38 -->
<g id="edge50" class="edge">
<title>Node42&#45;&gt;Node38</title>
<path fill="none" stroke="#9a32cd" stroke-dasharray="5,2" d="M1226.53,-1206.06C1288.85,-1203.46 1367.85,-1197.34 1397,-1183 1442.96,-1160.38 1478.7,-1107.32 1491.94,-1085.56"/>
<polygon fill="#9a32cd" stroke="#9a32cd" points="1226.14,-1202.58 1216.29,-1206.47 1226.42,-1209.57 1226.14,-1202.58"/>
<text text-anchor="middle" x="1329" y="-1207" font-family="Helvetica,sans-Serif" font-size="10.00"> composedProblemsData</text>
</g>
<!-- Node43 -->
<g id="node43" class="node">
<title>Node43</title>
<g id="a_node43"><a xlink:title=" ">
<polygon fill="white" stroke="#bfbfbf" points="1101,-1154.5 1101,-1173.5 1182,-1173.5 1182,-1154.5 1101,-1154.5"/>
<text text-anchor="middle" x="1141.5" y="-1161.5" font-family="Helvetica,sans-Serif" font-size="10.00">BitRefLevel *</text>
</a>
</g>
</g>
<!-- Node43&#45;&gt;Node38 -->
<g id="edge51" class="edge">
<title>Node43&#45;&gt;Node38</title>
<path fill="none" stroke="#9a32cd" stroke-dasharray="5,2" d="M1192.33,-1163.32C1244.55,-1161.33 1328.37,-1154.49 1397,-1132 1430.6,-1120.99 1465.78,-1098.43 1484.29,-1085.56"/>
<polygon fill="#9a32cd" stroke="#9a32cd" points="1192.2,-1159.82 1182.32,-1163.66 1192.44,-1166.82 1192.2,-1159.82"/>
<text text-anchor="middle" x="1329" y="-1171" font-family="Helvetica,sans-Serif" font-size="10.00"> tagBitRefLevelMask</text>
<text text-anchor="middle" x="1329" y="-1160" font-family="Helvetica,sans-Serif" font-size="10.00">tagBitRefLevel</text>
</g>
<!-- Node44 -->
<g id="node44" class="node">
<title>Node44</title>
<g id="a_node44"><a xlink:title=" ">
<polygon fill="white" stroke="#bfbfbf" points="1056.5,-1105 1056.5,-1135 1226.5,-1135 1226.5,-1105 1056.5,-1105"/>
<text text-anchor="start" x="1064.5" y="-1123" font-family="Helvetica,sans-Serif" font-size="10.00">shared_ptr&lt; NumeredDofEntity</text>
<text text-anchor="middle" x="1141.5" y="-1112" font-family="Helvetica,sans-Serif" font-size="10.00">_multiIndex &gt;</text>
</a>
</g>
</g>
<!-- Node44&#45;&gt;Node38 -->
<g id="edge52" class="edge">
<title>Node44&#45;&gt;Node38</title>
<path fill="none" stroke="#9a32cd" stroke-dasharray="5,2" d="M1236.63,-1110.06C1284.67,-1104.79 1344,-1097.97 1397,-1091 1413.97,-1088.77 1432.5,-1086.07 1448.99,-1083.59"/>
<polygon fill="#9a32cd" stroke="#9a32cd" points="1236.12,-1106.6 1226.55,-1111.16 1236.88,-1113.56 1236.12,-1106.6"/>
<text text-anchor="middle" x="1329" y="-1120" font-family="Helvetica,sans-Serif" font-size="10.00"> numeredRowDofsPtr</text>
<text text-anchor="middle" x="1329" y="-1109" font-family="Helvetica,sans-Serif" font-size="10.00">numeredColDofsPtr</text>
</g>
<!-- Node45 -->
<g id="node45" class="node">
<title>Node45</title>
<g id="a_node45"><a xlink:title=" ">
<polygon fill="white" stroke="#bfbfbf" points="1072.5,-1066.5 1072.5,-1085.5 1210.5,-1085.5 1210.5,-1066.5 1072.5,-1066.5"/>
<text text-anchor="middle" x="1141.5" y="-1073.5" font-family="Helvetica,sans-Serif" font-size="10.00">vector&lt; BlockFieldPair &gt;</text>
</a>
</g>
</g>
<!-- Node45&#45;&gt;Node38 -->
<g id="edge54" class="edge">
<title>Node45&#45;&gt;Node38</title>
<path fill="none" stroke="#9a32cd" stroke-dasharray="5,2" d="M1220.57,-1076C1290.2,-1076 1389.95,-1076 1448.8,-1076"/>
<polygon fill="#9a32cd" stroke="#9a32cd" points="1220.53,-1072.5 1210.53,-1076 1220.53,-1079.5 1220.53,-1072.5"/>
<text text-anchor="middle" x="1329" y="-1079" font-family="Helvetica,sans-Serif" font-size="10.00"> emptyFieldBlocks</text>
</g>
<!-- Node46 -->
<g id="node46" class="node">
<title>Node46</title>
<g id="a_node46"><a xlink:title=" ">
<polygon fill="white" stroke="#bfbfbf" points="1063.5,-1017 1063.5,-1047 1219.5,-1047 1219.5,-1017 1063.5,-1017"/>
<text text-anchor="start" x="1071.5" y="-1035" font-family="Helvetica,sans-Serif" font-size="10.00">shared_ptr&lt; MoFEM::</text>
<text text-anchor="middle" x="1141.5" y="-1024" font-family="Helvetica,sans-Serif" font-size="10.00">Problem::SubProblemData &gt;</text>
</a>
</g>
</g>
<!-- Node46&#45;&gt;Node38 -->
<g id="edge55" class="edge">
<title>Node46&#45;&gt;Node38</title>
<path fill="none" stroke="#9a32cd" stroke-dasharray="5,2" d="M1229.68,-1041.18C1278.86,-1046.54 1341.42,-1053.69 1397,-1061 1413.97,-1063.23 1432.5,-1065.93 1448.99,-1068.41"/>
<polygon fill="#9a32cd" stroke="#9a32cd" points="1230.03,-1037.7 1219.71,-1040.09 1229.27,-1044.65 1230.03,-1037.7"/>
<text text-anchor="middle" x="1329" y="-1064" font-family="Helvetica,sans-Serif" font-size="10.00"> subProblemData</text>
</g>
<!-- Node47 -->
<g id="node47" class="node">
<title>Node47</title>
<g id="a_node47"><a xlink:title=" ">
<polygon fill="white" stroke="#bfbfbf" points="1040,-978.5 1040,-997.5 1243,-997.5 1243,-978.5 1040,-978.5"/>
<text text-anchor="middle" x="1141.5" y="-985.5" font-family="Helvetica,sans-Serif" font-size="10.00">shared_ptr&lt; SequenceDofContainer &gt;</text>
</a>
</g>
</g>
<!-- Node47&#45;&gt;Node38 -->
<g id="edge57" class="edge">
<title>Node47&#45;&gt;Node38</title>
<path fill="none" stroke="#9a32cd" stroke-dasharray="5,2" d="M1253.46,-992C1298.84,-996.06 1351.32,-1003.93 1397,-1019 1430.91,-1030.18 1466.25,-1053.37 1484.64,-1066.46"/>
<polygon fill="#9a32cd" stroke="#9a32cd" points="1253.55,-988.49 1243.29,-991.14 1252.96,-995.47 1253.55,-988.49"/>
<text text-anchor="middle" x="1329" y="-1033" font-family="Helvetica,sans-Serif" font-size="10.00"> sequenceRowDofContainer</text>
<text text-anchor="middle" x="1329" y="-1022" font-family="Helvetica,sans-Serif" font-size="10.00">sequenceColDofContainer</text>
</g>
<!-- Node48 -->
<g id="node48" class="node">
<title>Node48</title>
<g id="a_node48"><a xlink:title=" ">
<polygon fill="white" stroke="#bfbfbf" points="1097.5,-940.5 1097.5,-959.5 1185.5,-959.5 1185.5,-940.5 1097.5,-940.5"/>
<text text-anchor="middle" x="1141.5" y="-947.5" font-family="Helvetica,sans-Serif" font-size="10.00">BitProblemId *</text>
</a>
</g>
</g>
<!-- Node48&#45;&gt;Node38 -->
<g id="edge58" class="edge">
<title>Node48&#45;&gt;Node38</title>
<path fill="none" stroke="#9a32cd" stroke-dasharray="5,2" d="M1196.05,-946.04C1249.52,-944.29 1332.75,-947.66 1397,-978 1440.63,-998.6 1476.89,-1045.96 1491.08,-1066.36"/>
<polygon fill="#9a32cd" stroke="#9a32cd" points="1195.62,-942.56 1185.77,-946.45 1195.9,-949.55 1195.62,-942.56"/>
<text text-anchor="middle" x="1329" y="-981" font-family="Helvetica,sans-Serif" font-size="10.00"> tagId</text>
</g>
<!-- Node49 -->
<g id="node49" class="node">
<title>Node49</title>
<g id="a_node49"><a xlink:title=" ">
<polygon fill="white" stroke="#bfbfbf" points="1805,-449 1805,-479 1967,-479 1967,-449 1805,-449"/>
<text text-anchor="start" x="1813" y="-467" font-family="Helvetica,sans-Serif" font-size="10.00">shared_ptr&lt; const MoFEM</text>
<text text-anchor="middle" x="1886" y="-456" font-family="Helvetica,sans-Serif" font-size="10.00">::NumeredEntFiniteElement &gt;</text>
</a>
</g>
</g>
<!-- Node49&#45;&gt;Node12 -->
<g id="edge59" class="edge">
<title>Node49&#45;&gt;Node12</title>
<path fill="none" stroke="#9a32cd" stroke-dasharray="5,2" d="M1977.31,-467.25C2024.34,-469.04 2082.77,-471.42 2135,-474 2157.09,-475.09 2181.47,-476.48 2202.44,-477.73"/>
<polygon fill="#9a32cd" stroke="#9a32cd" points="1977.28,-463.75 1967.15,-466.87 1977.01,-470.74 1977.28,-463.75"/>
<text text-anchor="middle" x="2063" y="-477" font-family="Helvetica,sans-Serif" font-size="10.00"> numeredEntFiniteElementPtr</text>
</g>
<!-- Node50 -->
<g id="node50" class="node">
<title>Node50</title>
<g id="a_node50"><a xlink:title=" ">
<polygon fill="white" stroke="#bfbfbf" points="1864,-410.5 1864,-429.5 1908,-429.5 1908,-410.5 1864,-410.5"/>
<text text-anchor="middle" x="1886" y="-417.5" font-family="Helvetica,sans-Serif" font-size="10.00">string</text>
</a>
</g>
</g>
<!-- Node50&#45;&gt;Node3 -->
<g id="edge82" class="edge">
<title>Node50&#45;&gt;Node3</title>
<path fill="none" stroke="#9a32cd" stroke-dasharray="5,2" d="M1909.74,-404.66C1954.18,-375.64 2056.64,-313.33 2153,-288 2236,-266.18 2460.44,-241.45 2539,-276 2652.16,-325.77 2667.1,-372.86 2727,-481 2813.11,-636.45 2903.53,-1219.64 2918.76,-1320.95"/>
<polygon fill="#9a32cd" stroke="#9a32cd" points="1907.58,-401.9 1901.16,-410.33 1911.44,-407.74 1907.58,-401.9"/>
<text text-anchor="middle" x="2458" y="-290" font-family="Helvetica,sans-Serif" font-size="10.00"> colFieldName</text>
<text text-anchor="middle" x="2458" y="-279" font-family="Helvetica,sans-Serif" font-size="10.00">rowFieldName</text>
</g>
<!-- Node50&#45;&gt;Node12 -->
<g id="edge60" class="edge">
<title>Node50&#45;&gt;Node12</title>
<path fill="none" stroke="#9a32cd" stroke-dasharray="5,2" d="M1918.26,-422.59C1965.52,-426.83 2057.83,-436.39 2135,-452 2143.14,-453.65 2144.96,-454.94 2153,-457 2172.56,-462.02 2194.33,-467.19 2212.73,-471.45"/>
<polygon fill="#9a32cd" stroke="#9a32cd" points="1918.34,-419.08 1908.07,-421.7 1917.72,-426.06 1918.34,-419.08"/>
<text text-anchor="middle" x="2063" y="-455" font-family="Helvetica,sans-Serif" font-size="10.00"> feName</text>
</g>
<!-- Node51 -->
<g id="node51" class="node">
<title>Node51</title>
<g id="a_node51"><a xlink:title=" ">
<polygon fill="white" stroke="#bfbfbf" points="1804.5,-537 1804.5,-567 1967.5,-567 1967.5,-537 1804.5,-537"/>
<text text-anchor="start" x="1812.5" y="-555" font-family="Helvetica,sans-Serif" font-size="10.00">function&lt; bool(MoFEM</text>
<text text-anchor="middle" x="1886" y="-544" font-family="Helvetica,sans-Serif" font-size="10.00">::FEMethod *fe_method_ptr)&gt;</text>
</a>
</g>
</g>
<!-- Node51&#45;&gt;Node12 -->
<g id="edge61" class="edge">
<title>Node51&#45;&gt;Node12</title>
<path fill="none" stroke="#9a32cd" stroke-dasharray="5,2" d="M1977.73,-542.72C2025.37,-536.25 2084.23,-525.69 2135,-509 2143.5,-506.21 2144.52,-502.85 2153,-500 2168.71,-494.73 2186.3,-490.79 2202.39,-487.91"/>
<polygon fill="#9a32cd" stroke="#9a32cd" points="1977.2,-539.26 1967.75,-544.04 1978.12,-546.2 1977.2,-539.26"/>
<text text-anchor="middle" x="2063" y="-543" font-family="Helvetica,sans-Serif" font-size="10.00"> exeTestHook</text>
</g>
<!-- Node52 -->
<g id="node52" class="node">
<title>Node52</title>
<g id="a_node52"><a xlink:href="classdouble.html" target="_top" xlink:title=" ">
<polygon fill="white" stroke="black" points="2231,-395.5 2231,-414.5 2281,-414.5 2281,-395.5 2231,-395.5"/>
<text text-anchor="middle" x="2256" y="-402.5" font-family="Helvetica,sans-Serif" font-size="10.00">double</text>
</a>
</g>
</g>
<!-- Node52&#45;&gt;Node11 -->
<g id="edge62" class="edge">
<title>Node52&#45;&gt;Node11</title>
<path fill="none" stroke="#9a32cd" stroke-dasharray="5,2" d="M2291.16,-399.96C2345.61,-393.36 2454.55,-386.06 2539,-418 2580.02,-433.51 2617.16,-472.24 2632.96,-490.36"/>
<polygon fill="#9a32cd" stroke="#9a32cd" points="2290.5,-396.52 2281.02,-401.26 2291.39,-403.46 2290.5,-396.52"/>
<text text-anchor="middle" x="2458" y="-421" font-family="Helvetica,sans-Serif" font-size="10.00"> elementMeasure</text>
</g>
<!-- Node53 -->
<g id="node53" class="node">
<title>Node53</title>
<g id="a_node53"><a xlink:title=" ">
<polygon fill="white" stroke="#bfbfbf" points="2170,-335.5 2170,-376.5 2342,-376.5 2342,-335.5 2170,-335.5"/>
<text text-anchor="start" x="2178" y="-364.5" font-family="Helvetica,sans-Serif" font-size="10.00">array&lt; boost::shared</text>
<text text-anchor="start" x="2178" y="-353.5" font-family="Helvetica,sans-Serif" font-size="10.00">_ptr&lt; MoFEM::EntitiesFieldData</text>
<text text-anchor="middle" x="2256" y="-342.5" font-family="Helvetica,sans-Serif" font-size="10.00"> &gt;, LASTSPACE &gt;</text>
</a>
</g>
</g>
<!-- Node53&#45;&gt;Node11 -->
<g id="edge63" class="edge">
<title>Node53&#45;&gt;Node11</title>
<path fill="none" stroke="#9a32cd" stroke-dasharray="5,2" d="M2352.41,-340.67C2409.61,-336.04 2482.04,-338.51 2539,-368 2592.24,-395.56 2626.07,-464.86 2637.07,-490.37"/>
<polygon fill="#9a32cd" stroke="#9a32cd" points="2351.93,-337.2 2342.28,-341.57 2352.55,-344.17 2351.93,-337.2"/>
<text text-anchor="middle" x="2458" y="-382" font-family="Helvetica,sans-Serif" font-size="10.00"> derivedDataOnElement</text>
<text text-anchor="middle" x="2458" y="-371" font-family="Helvetica,sans-Serif" font-size="10.00">dataOnElement</text>
</g>
<!-- Node54 -->
<g id="node54" class="node">
<title>Node54</title>
<g id="a_node54"><a xlink:title=" ">
<polygon fill="white" stroke="#bfbfbf" points="2222,-297.5 2222,-316.5 2290,-316.5 2290,-297.5 2222,-297.5"/>
<text text-anchor="middle" x="2256" y="-304.5" font-family="Helvetica,sans-Serif" font-size="10.00">EntityType</text>
</a>
</g>
</g>
<!-- Node54&#45;&gt;Node11 -->
<g id="edge64" class="edge">
<title>Node54&#45;&gt;Node11</title>
<path fill="none" stroke="#9a32cd" stroke-dasharray="5,2" d="M2300.33,-304.55C2369.3,-301.46 2500.24,-299.11 2539,-323 2603.61,-362.82 2631.48,-459.75 2638.88,-490.49"/>
<polygon fill="#9a32cd" stroke="#9a32cd" points="2300.04,-301.06 2290.22,-305.03 2300.37,-308.06 2300.04,-301.06"/>
<text text-anchor="middle" x="2458" y="-326" font-family="Helvetica,sans-Serif" font-size="10.00"> lastEvaluatedElementEntityType</text>
</g>
<!-- Node55 -->
<g id="node55" class="node">
<title>Node55</title>
<g id="a_node55"><a xlink:href="structMoFEM_1_1DeprecatedCoreInterface.html" target="_top" xlink:title="Deprecated interface functions.">
<polygon fill="white" stroke="black" points="1600,-23.5 1600,-42.5 1781,-42.5 1781,-23.5 1600,-23.5"/>
<text text-anchor="middle" x="1690.5" y="-30.5" font-family="Helvetica,sans-Serif" font-size="10.00">MoFEM::DeprecatedCoreInterface</text>
</a>
</g>
</g>
<!-- Node55&#45;&gt;Node11 -->
<g id="edge65" class="edge">
<title>Node55&#45;&gt;Node11</title>
<path fill="none" stroke="#9a32cd" stroke-dasharray="5,2" d="M1780.28,-49.22C1780.52,-49.47 1780.76,-49.74 1781,-50 1814.5,-87.33 1769.53,-234.41 1799,-275 1894.04,-405.92 1987.9,-347.67 2135,-415 2143.13,-418.72 2144.48,-421.29 2153,-424 2235.7,-450.28 2453.31,-469.31 2539,-483 2553.8,-485.36 2569.8,-488 2584.64,-490.47"/>
<polygon fill="#9a32cd" stroke="#9a32cd" points="1782.42,-46.44 1772.54,-42.62 1777.88,-51.77 1782.42,-46.44"/>
<text text-anchor="middle" x="2063" y="-418" font-family="Helvetica,sans-Serif" font-size="10.00"> mField</text>
</g>
<!-- Node56&#45;&gt;Node55 -->
<g id="edge66" class="edge">
<title>Node56&#45;&gt;Node55</title>
<path fill="none" stroke="midnightblue" d="M1214.39,-26.92C1313.43,-28.19 1491.78,-30.47 1599.54,-31.85"/>
<polygon fill="midnightblue" stroke="midnightblue" points="1214.23,-23.42 1204.18,-26.79 1214.14,-30.42 1214.23,-23.42"/>
</g>
<!-- Node57 -->
<g id="node57" class="node">
<title>Node57</title>
<g id="a_node57"><a xlink:title=" ">
<polygon fill="white" stroke="#bfbfbf" points="2172.5,-707 2172.5,-759 2339.5,-759 2339.5,-707 2172.5,-707"/>
<text text-anchor="start" x="2180.5" y="-747" font-family="Helvetica,sans-Serif" font-size="10.00">function&lt; MoFEMErrorCode</text>
<text text-anchor="start" x="2180.5" y="-736" font-family="Helvetica,sans-Serif" font-size="10.00">(ForcesAndSourcesCore *fe</text>
<text text-anchor="start" x="2180.5" y="-725" font-family="Helvetica,sans-Serif" font-size="10.00">_raw_ptr, int order_row,</text>
<text text-anchor="middle" x="2256" y="-714" font-family="Helvetica,sans-Serif" font-size="10.00"> int order_col, int order_data)&gt;</text>
</a>
</g>
</g>
<!-- Node57&#45;&gt;Node11 -->
<g id="edge69" class="edge">
<title>Node57&#45;&gt;Node11</title>
<path fill="none" stroke="#9a32cd" stroke-dasharray="5,2" d="M2349.6,-739.11C2408.75,-738.43 2484.31,-728.61 2539,-690 2604.45,-643.79 2631.75,-542.07 2638.95,-509.93"/>
<polygon fill="#9a32cd" stroke="#9a32cd" points="2349.5,-735.61 2339.51,-739.14 2349.52,-742.61 2349.5,-735.61"/>
<text text-anchor="middle" x="2458" y="-740" font-family="Helvetica,sans-Serif" font-size="10.00"> setRuleHook</text>
</g>
<!-- Node58 -->
<g id="node58" class="node">
<title>Node58</title>
<g id="a_node58"><a xlink:title=" ">
<polygon fill="white" stroke="#bfbfbf" points="2155,-658 2155,-688 2357,-688 2357,-658 2155,-658"/>
<text text-anchor="start" x="2163" y="-676" font-family="Helvetica,sans-Serif" font-size="10.00">ptr_deque&lt; MoFEM::Forces</text>
<text text-anchor="middle" x="2256" y="-665" font-family="Helvetica,sans-Serif" font-size="10.00">AndSourcesCore::UserDataOperator &gt;</text>
</a>
</g>
</g>
<!-- Node58&#45;&gt;Node11 -->
<g id="edge70" class="edge">
<title>Node58&#45;&gt;Node11</title>
<path fill="none" stroke="#9a32cd" stroke-dasharray="5,2" d="M2367.14,-676.51C2422.06,-673.68 2487.55,-663.06 2539,-633 2590.76,-602.76 2625.27,-535.07 2636.77,-509.78"/>
<polygon fill="#9a32cd" stroke="#9a32cd" points="2366.85,-673.02 2357.01,-676.95 2367.15,-680.01 2366.85,-673.02"/>
<text text-anchor="middle" x="2458" y="-678" font-family="Helvetica,sans-Serif" font-size="10.00"> opPtrVector</text>
</g>
<!-- Node59 -->
<g id="node59" class="node">
<title>Node59</title>
<g id="a_node59"><a xlink:href="structMoFEM_1_1EntitiesFieldData.html" target="_top" xlink:title="data structure for finite element entity">
<polygon fill="white" stroke="black" points="2185,-147.5 2185,-166.5 2327,-166.5 2327,-147.5 2185,-147.5"/>
<text text-anchor="middle" x="2256" y="-154.5" font-family="Helvetica,sans-Serif" font-size="10.00">MoFEM::EntitiesFieldData</text>
</a>
</g>
</g>
<!-- Node59&#45;&gt;Node11 -->
<g id="edge71" class="edge">
<title>Node59&#45;&gt;Node11</title>
<path fill="none" stroke="#9a32cd" stroke-dasharray="5,2" d="M2323.67,-146.41C2386.42,-140.38 2479.41,-142.15 2539,-192 2559.7,-209.32 2548.7,-224.32 2557,-250 2587.41,-344.11 2626.3,-457.39 2637.72,-490.49"/>
<polygon fill="#9a32cd" stroke="#9a32cd" points="2323.06,-142.96 2313.48,-147.48 2323.8,-149.92 2323.06,-142.96"/>
<text text-anchor="middle" x="2458" y="-239" font-family="Helvetica,sans-Serif" font-size="10.00"> dataNoField</text>
<text text-anchor="middle" x="2458" y="-228" font-family="Helvetica,sans-Serif" font-size="10.00">dataL2</text>
<text text-anchor="middle" x="2458" y="-217" font-family="Helvetica,sans-Serif" font-size="10.00">dataH1</text>
<text text-anchor="middle" x="2458" y="-206" font-family="Helvetica,sans-Serif" font-size="10.00">dataHcurl</text>
<text text-anchor="middle" x="2458" y="-195" font-family="Helvetica,sans-Serif" font-size="10.00">dataHdiv</text>
</g>
<!-- Node60 -->
<g id="node60" class="node">
<title>Node60</title>
<g id="a_node60"><a xlink:title=" ">
<polygon fill="white" stroke="#bfbfbf" points="1805,-61 1805,-91 1967,-91 1967,-61 1805,-61"/>
<text text-anchor="start" x="1813" y="-79" font-family="Helvetica,sans-Serif" font-size="10.00">array&lt; std::bitset</text>
<text text-anchor="middle" x="1886" y="-68" font-family="Helvetica,sans-Serif" font-size="10.00">&lt; LASTBASE &gt;, LASTSPACE &gt;</text>
</a>
</g>
</g>
<!-- Node60&#45;&gt;Node59 -->
<g id="edge72" class="edge">
<title>Node60&#45;&gt;Node59</title>
<path fill="none" stroke="#9a32cd" stroke-dasharray="5,2" d="M1977.15,-79.59C2024.74,-83.13 2083.75,-90.14 2135,-104 2173.25,-114.35 2214.94,-135.11 2237.73,-147.36"/>
<polygon fill="#9a32cd" stroke="#9a32cd" points="1977.39,-76.1 1967.17,-78.89 1976.9,-83.08 1977.39,-76.1"/>
<text text-anchor="middle" x="2063" y="-118" font-family="Helvetica,sans-Serif" font-size="10.00"> brokenBasesOnSpaces</text>
<text text-anchor="middle" x="2063" y="-107" font-family="Helvetica,sans-Serif" font-size="10.00">basesOnSpaces</text>
</g>
<!-- Node61 -->
<g id="node61" class="node">
<title>Node61</title>
<g id="a_node61"><a xlink:title=" ">
<polygon fill="white" stroke="#bfbfbf" points="1809.5,-0.5 1809.5,-41.5 1962.5,-41.5 1962.5,-0.5 1809.5,-0.5"/>
<text text-anchor="start" x="1817.5" y="-29.5" font-family="Helvetica,sans-Serif" font-size="10.00">array&lt; boost::ptr_vector</text>
<text text-anchor="start" x="1817.5" y="-18.5" font-family="Helvetica,sans-Serif" font-size="10.00">&lt; MoFEM::EntitiesFieldData</text>
<text text-anchor="middle" x="1886" y="-7.5" font-family="Helvetica,sans-Serif" font-size="10.00">::EntData &gt;, MBMAXTYPE &gt;</text>
</a>
</g>
</g>
<!-- Node61&#45;&gt;Node59 -->
<g id="edge73" class="edge">
<title>Node61&#45;&gt;Node59</title>
<path fill="none" stroke="#9a32cd" stroke-dasharray="5,2" d="M1972.58,-27.12C2021.73,-32.99 2083.7,-44.49 2135,-67 2181.26,-87.3 2226.32,-128.52 2245.43,-147.29"/>
<polygon fill="#9a32cd" stroke="#9a32cd" points="1972.94,-23.64 1962.61,-25.98 1972.15,-30.59 1972.94,-23.64"/>
<text text-anchor="middle" x="2063" y="-70" font-family="Helvetica,sans-Serif" font-size="10.00"> dataOnEntities</text>
</g>
<!-- Node62 -->
<g id="node62" class="node">
<title>Node62</title>
<g id="a_node62"><a xlink:title=" ">
<polygon fill="white" stroke="#bfbfbf" points="1799,-236 1799,-266 1973,-266 1973,-236 1799,-236"/>
<text text-anchor="start" x="1807" y="-254" font-family="Helvetica,sans-Serif" font-size="10.00">array&lt; std::bitset</text>
<text text-anchor="middle" x="1886" y="-243" font-family="Helvetica,sans-Serif" font-size="10.00">&lt; LASTSPACE &gt;, MBMAXTYPE &gt;</text>
</a>
</g>
</g>
<!-- Node62&#45;&gt;Node59 -->
<g id="edge74" class="edge">
<title>Node62&#45;&gt;Node59</title>
<path fill="none" stroke="#9a32cd" stroke-dasharray="5,2" d="M1983.21,-240.83C2029.69,-234.48 2085.91,-224.64 2135,-210 2172.76,-198.74 2214.28,-178.49 2237.24,-166.55"/>
<polygon fill="#9a32cd" stroke="#9a32cd" points="1982.59,-237.39 1973.14,-242.18 1983.52,-244.32 1982.59,-237.39"/>
<text text-anchor="middle" x="2063" y="-243" font-family="Helvetica,sans-Serif" font-size="10.00"> spacesOnEntities</text>
</g>
<!-- Node63 -->
<g id="node63" class="node">
<title>Node63</title>
<g id="a_node63"><a xlink:title=" ">
<polygon fill="white" stroke="#bfbfbf" points="1801.5,-187 1801.5,-217 1970.5,-217 1970.5,-187 1801.5,-187"/>
<text text-anchor="start" x="1809.5" y="-205" font-family="Helvetica,sans-Serif" font-size="10.00">array&lt; std::bitset</text>
<text text-anchor="middle" x="1886" y="-194" font-family="Helvetica,sans-Serif" font-size="10.00">&lt; LASTBASE &gt;, MBMAXTYPE &gt;</text>
</a>
</g>
</g>
<!-- Node63&#45;&gt;Node59 -->
<g id="edge75" class="edge">
<title>Node63&#45;&gt;Node59</title>
<path fill="none" stroke="#9a32cd" stroke-dasharray="5,2" d="M1980.82,-195.92C2027.32,-192.34 2084.25,-187.1 2135,-180 2160.31,-176.46 2188.39,-171.16 2211.01,-166.53"/>
<polygon fill="#9a32cd" stroke="#9a32cd" points="1980.46,-192.44 1970.75,-196.68 1980.99,-199.42 1980.46,-192.44"/>
<text text-anchor="middle" x="2063" y="-198" font-family="Helvetica,sans-Serif" font-size="10.00"> basesOnEntities</text>
</g>
<!-- Node64 -->
<g id="node64" class="node">
<title>Node64</title>
<g id="a_node64"><a xlink:title=" ">
<polygon fill="white" stroke="#bfbfbf" points="1830,-148.5 1830,-167.5 1942,-167.5 1942,-148.5 1830,-148.5"/>
<text text-anchor="middle" x="1886" y="-155.5" font-family="Helvetica,sans-Serif" font-size="10.00">UBlasMatrix&lt; int &gt;</text>
</a>
</g>
</g>
<!-- Node64&#45;&gt;Node59 -->
<g id="edge76" class="edge">
<title>Node64&#45;&gt;Node59</title>
<path fill="none" stroke="#9a32cd" stroke-dasharray="5,2" d="M1952.26,-157.82C2017.56,-157.65 2117.69,-157.37 2184.71,-157.19"/>
<polygon fill="#9a32cd" stroke="#9a32cd" points="1952.08,-154.32 1942.09,-157.85 1952.1,-161.32 1952.08,-154.32"/>
<text text-anchor="middle" x="2063" y="-172" font-family="Helvetica,sans-Serif" font-size="10.00"> facesNodesOrder</text>
<text text-anchor="middle" x="2063" y="-161" font-family="Helvetica,sans-Serif" font-size="10.00">facesNodes</text>
</g>
<!-- Node65 -->
<g id="node65" class="node">
<title>Node65</title>
<g id="a_node65"><a xlink:title=" ">
<polygon fill="white" stroke="#bfbfbf" points="1827.5,-110.5 1827.5,-129.5 1944.5,-129.5 1944.5,-110.5 1827.5,-110.5"/>
<text text-anchor="middle" x="1886" y="-117.5" font-family="Helvetica,sans-Serif" font-size="10.00">bitset&lt; LASTBASE &gt;</text>
</a>
</g>
</g>
<!-- Node65&#45;&gt;Node59 -->
<g id="edge77" class="edge">
<title>Node65&#45;&gt;Node59</title>
<path fill="none" stroke="#9a32cd" stroke-dasharray="5,2" d="M1954.69,-125.84C2004.57,-130.25 2074.05,-136.62 2135,-143 2151.17,-144.69 2168.54,-146.64 2184.91,-148.54"/>
<polygon fill="#9a32cd" stroke="#9a32cd" points="1954.93,-122.35 1944.67,-124.96 1954.32,-129.32 1954.93,-122.35"/>
<text text-anchor="middle" x="2063" y="-146" font-family="Helvetica,sans-Serif" font-size="10.00"> bAse</text>
</g>
<!-- Node66 -->
<g id="node66" class="node">
<title>Node66</title>
<g id="a_node66"><a xlink:title=" ">
<polygon fill="white" stroke="#bfbfbf" points="2193.5,-597.5 2193.5,-638.5 2318.5,-638.5 2318.5,-597.5 2193.5,-597.5"/>
<text text-anchor="start" x="2201.5" y="-626.5" font-family="Helvetica,sans-Serif" font-size="10.00">function&lt; int(int order</text>
<text text-anchor="start" x="2201.5" y="-615.5" font-family="Helvetica,sans-Serif" font-size="10.00">_row, int order_col, int</text>
<text text-anchor="middle" x="2256" y="-604.5" font-family="Helvetica,sans-Serif" font-size="10.00"> order_data)&gt;</text>
</a>
</g>
</g>
<!-- Node66&#45;&gt;Node11 -->
<g id="edge78" class="edge">
<title>Node66&#45;&gt;Node11</title>
<path fill="none" stroke="#9a32cd" stroke-dasharray="5,2" d="M2329.02,-620.71C2387.8,-620.35 2471.81,-613.85 2539,-585 2579.88,-567.45 2617.09,-528.05 2632.94,-509.72"/>
<polygon fill="#9a32cd" stroke="#9a32cd" points="2328.72,-617.21 2318.72,-620.71 2328.72,-624.21 2328.72,-617.21"/>
<text text-anchor="middle" x="2458" y="-621" font-family="Helvetica,sans-Serif" font-size="10.00"> getRuleHook</text>
</g>
<!-- Node67 -->
<g id="node67" class="node">
<title>Node67</title>
<g id="a_node67"><a xlink:title=" ">
<polygon fill="white" stroke="#bfbfbf" points="2195,-548 2195,-578 2317,-578 2317,-548 2195,-548"/>
<text text-anchor="start" x="2203" y="-566" font-family="Helvetica,sans-Serif" font-size="10.00">shared_ptr&lt; MoFEM::</text>
<text text-anchor="middle" x="2256" y="-555" font-family="Helvetica,sans-Serif" font-size="10.00">BaseFunction &gt;</text>
</a>
</g>
</g>
<!-- Node67&#45;&gt;Node11 -->
<g id="edge79" class="edge">
<title>Node67&#45;&gt;Node11</title>
<path fill="none" stroke="#9a32cd" stroke-dasharray="5,2" d="M2327.21,-561.98C2384.76,-559.91 2468,-554.07 2539,-538 2568.12,-531.41 2600.15,-518.48 2620.4,-509.55"/>
<polygon fill="#9a32cd" stroke="#9a32cd" points="2327.01,-558.49 2317.13,-562.32 2327.25,-565.48 2327.01,-558.49"/>
<text text-anchor="middle" x="2458" y="-573" font-family="Helvetica,sans-Serif" font-size="10.00"> userPolynomialBasePtr</text>
<text text-anchor="middle" x="2458" y="-562" font-family="Helvetica,sans-Serif" font-size="10.00">elementPolynomialBasePtr</text>
</g>
<!-- Node68 -->
<g id="node68" class="node">
<title>Node68</title>
<g id="a_node68"><a xlink:href="classUBlasMatrix_3_01double_01_4.html" target="_top" xlink:title=" ">
<polygon fill="white" stroke="black" points="2190,-509.5 2190,-528.5 2322,-528.5 2322,-509.5 2190,-509.5"/>
<text text-anchor="middle" x="2256" y="-516.5" font-family="Helvetica,sans-Serif" font-size="10.00">UBlasMatrix&lt; double &gt;</text>
</a>
</g>
</g>
<!-- Node68&#45;&gt;Node11 -->
<g id="edge80" class="edge">
<title>Node68&#45;&gt;Node11</title>
<path fill="none" stroke="#9a32cd" stroke-dasharray="5,2" d="M2332.25,-515.28C2396.78,-512.08 2489.67,-507.49 2556.69,-504.17"/>
<polygon fill="#9a32cd" stroke="#9a32cd" points="2331.96,-511.79 2322.14,-515.78 2332.3,-518.78 2331.96,-511.79"/>
<text text-anchor="middle" x="2458" y="-526" font-family="Helvetica,sans-Serif" font-size="10.00"> coordsAtGaussPts</text>
<text text-anchor="middle" x="2458" y="-515" font-family="Helvetica,sans-Serif" font-size="10.00">gaussPts</text>
</g>
<!-- Node69 -->
<g id="node69" class="node">
<title>Node69</title>
<g id="a_node69"><a xlink:title=" ">
<polygon fill="white" stroke="#bfbfbf" points="2576.5,-1454.5 2576.5,-1473.5 2707.5,-1473.5 2707.5,-1454.5 2576.5,-1454.5"/>
<text text-anchor="middle" x="2642" y="-1461.5" font-family="Helvetica,sans-Serif" font-size="10.00">static const char *const</text>
</a>
</g>
</g>
<!-- Node69&#45;&gt;Node3 -->
<g id="edge81" class="edge">
<title>Node69&#45;&gt;Node3</title>
<path fill="none" stroke="#9a32cd" stroke-dasharray="5,2" d="M2704.05,-1452.02C2711.86,-1449.95 2719.67,-1447.62 2727,-1445 2794.12,-1421.03 2865.26,-1374.99 2899.76,-1351.15"/>
<polygon fill="#9a32cd" stroke="#9a32cd" points="2703.05,-1448.66 2694.2,-1454.49 2704.75,-1455.45 2703.05,-1448.66"/>
<text text-anchor="middle" x="2782" y="-1439" font-family="Helvetica,sans-Serif" font-size="10.00"> OpTypeNames</text>
</g>
<!-- Node70 -->
<g id="node70" class="node">
<title>Node70</title>
<g id="a_node70"><a xlink:href="structMoFEM_1_1SmartPetscObj.html" target="_top" xlink:title=" ">
<polygon fill="white" stroke="black" points="3086,-798 3086,-828 3217,-828 3217,-798 3086,-798"/>
<text text-anchor="start" x="3094" y="-816" font-family="Helvetica,sans-Serif" font-size="10.00">MoFEM::SmartPetscObj</text>
<text text-anchor="middle" x="3151.5" y="-805" font-family="Helvetica,sans-Serif" font-size="10.00">&lt; Vec &gt;</text>
</a>
</g>
</g>
<!-- Node70&#45;&gt;Node1 -->
<g id="edge83" class="edge">
<title>Node70&#45;&gt;Node1</title>
<path fill="none" stroke="#9a32cd" stroke-dasharray="5,2" d="M3227.12,-824.21C3239.53,-826.07 3251.89,-827.93 3262.77,-829.56"/>
<polygon fill="#9a32cd" stroke="#9a32cd" points="3227.59,-820.74 3217.18,-822.71 3226.55,-827.66 3227.59,-820.74"/>
<text text-anchor="middle" x="3240" y="-829" font-family="Helvetica,sans-Serif" font-size="10.00"> F</text>
</g>
<!-- Node71 -->
<g id="node71" class="node">
<title>Node71</title>
<g id="a_node71"><a xlink:title=" ">
<polygon fill="white" stroke="#bfbfbf" points="2859,-737.5 2859,-778.5 2985,-778.5 2985,-737.5 2859,-737.5"/>
<text text-anchor="start" x="2867" y="-766.5" font-family="Helvetica,sans-Serif" font-size="10.00">boost::intrusive_ptr</text>
<text text-anchor="start" x="2867" y="-755.5" font-family="Helvetica,sans-Serif" font-size="10.00">&lt; std::remove_pointer</text>
<text text-anchor="middle" x="2922" y="-744.5" font-family="Helvetica,sans-Serif" font-size="10.00">&lt; Vec &gt;::type &gt;</text>
</a>
</g>
</g>
<!-- Node71&#45;&gt;Node70 -->
<g id="edge84" class="edge">
<title>Node71&#45;&gt;Node70</title>
<path fill="none" stroke="midnightblue" d="M2995.15,-775.44C3025.13,-782.69 3059.58,-791.02 3088.41,-797.99"/>
<polygon fill="midnightblue" stroke="midnightblue" points="2995.71,-771.98 2985.17,-773.03 2994.06,-778.78 2995.71,-771.98"/>
</g>
<!-- Node72 -->
<g id="node72" class="node">
<title>Node72</title>
<g id="a_node72"><a xlink:href="structMoFEM_1_1SmartPetscObj.html" target="_top" xlink:title="intrusive_ptr for managing petsc objects">
<polygon fill="white" stroke="black" points="2856.5,-798 2856.5,-828 2987.5,-828 2987.5,-798 2856.5,-798"/>
<text text-anchor="start" x="2864.5" y="-816" font-family="Helvetica,sans-Serif" font-size="10.00">MoFEM::SmartPetscObj</text>
<text text-anchor="middle" x="2922" y="-805" font-family="Helvetica,sans-Serif" font-size="10.00">&lt; OBJ &gt;</text>
</a>
</g>
</g>
<!-- Node72&#45;&gt;Node70 -->
<g id="edge85" class="edge">
<title>Node72&#45;&gt;Node70</title>
<path fill="none" stroke="orange" stroke-dasharray="5,2" d="M2997.87,-813C3026.27,-813 3058.36,-813 3085.75,-813"/>
<polygon fill="orange" stroke="orange" points="2997.58,-809.5 2987.58,-813 2997.58,-816.5 2997.58,-809.5"/>
<text text-anchor="middle" x="3046.5" y="-816" font-family="Helvetica,sans-Serif" font-size="10.00"> &lt; Vec &gt;</text>
</g>
<!-- Node73 -->
<g id="node73" class="node">
<title>Node73</title>
<g id="a_node73"><a xlink:title=" ">
<polygon fill="white" stroke="#bfbfbf" points="2579,-199.5 2579,-240.5 2705,-240.5 2705,-199.5 2579,-199.5"/>
<text text-anchor="start" x="2587" y="-228.5" font-family="Helvetica,sans-Serif" font-size="10.00">boost::intrusive_ptr</text>
<text text-anchor="start" x="2587" y="-217.5" font-family="Helvetica,sans-Serif" font-size="10.00">&lt; std::remove_pointer</text>
<text text-anchor="middle" x="2642" y="-206.5" font-family="Helvetica,sans-Serif" font-size="10.00">&lt; OBJ &gt;::type &gt;</text>
</a>
</g>
</g>
<!-- Node73&#45;&gt;Node72 -->
<g id="edge86" class="edge">
<title>Node73&#45;&gt;Node72</title>
<path fill="none" stroke="midnightblue" d="M2715.31,-214.84C2752.02,-216.45 2794.02,-225.59 2819,-255 2857.36,-300.16 2800.78,-741.1 2837,-788 2842.12,-794.62 2848.91,-799.55 2856.43,-803.21"/>
<polygon fill="midnightblue" stroke="midnightblue" points="2715.2,-211.34 2705.11,-214.58 2715.02,-218.34 2715.2,-211.34"/>
</g>
</g>
</svg>
        <g id="navigator" transform="translate(0 0)" fill="#404254">
                <rect fill="#f2f5e9" fill-opacity="0.5" stroke="#606060" stroke-width=".5" x="0" y="0" width="60" height="60"/>
                <use id="zoomplus" xlink:href="#zoomPlus" x="17" y="9" onmousedown="handleZoom(evt,'in')"/>
                <use id="zoomminus" xlink:href="#zoomMin" x="42" y="9" onmousedown="handleZoom(evt,'out')"/>
                <use id="reset" xlink:href="#resetDef" x="30" y="36" onmousedown="handleReset()"/>
                <g id="arrowUp" xlink:href="#dirArrow" transform="translate(30 24)" onmousedown="handlePan(0,-1)">
                  <use xlink:href="#rim" fill="#404040">
                        <set attributeName="fill" to="#808080" begin="arrowUp.mouseover" end="arrowUp.mouseout"/>
                  </use>
                  <path fill="none" stroke="white" stroke-width="1.5" d="M0,-3.0v7 M-2.5,-0.5L0,-3.0L2.5,-0.5"/>
                </g>
                <g id="arrowRight" xlink:href="#dirArrow" transform="rotate(90) translate(36 -43)" onmousedown="handlePan(1,0)">
                  <use xlink:href="#rim" fill="#404040">
                        <set attributeName="fill" to="#808080" begin="arrowRight.mouseover" end="arrowRight.mouseout"/>
                  </use>
                  <path fill="none" stroke="white" stroke-width="1.5" d="M0,-3.0v7 M-2.5,-0.5L0,-3.0L2.5,-0.5"/>
                </g>
                <g id="arrowDown" xlink:href="#dirArrow" transform="rotate(180) translate(-30 -48)" onmousedown="handlePan(0,1)">
                  <use xlink:href="#rim" fill="#404040">
                        <set attributeName="fill" to="#808080" begin="arrowDown.mouseover" end="arrowDown.mouseout"/>
                  </use>
                  <path fill="none" stroke="white" stroke-width="1.5" d="M0,-3.0v7 M-2.5,-0.5L0,-3.0L2.5,-0.5"/>
                </g>
                <g id="arrowLeft" xlink:href="#dirArrow" transform="rotate(270) translate(-36 17)" onmousedown="handlePan(-1,0)">
                  <use xlink:href="#rim" fill="#404040">
                        <set attributeName="fill" to="#808080" begin="arrowLeft.mouseover" end="arrowLeft.mouseout"/>
                  </use>
                  <path fill="none" stroke="white" stroke-width="1.5" d="M0,-3.0v7 M-2.5,-0.5L0,-3.0L2.5,-0.5"/>
                </g>
        </g>
        <svg viewBox="0 0 15 15" width="100%" height="30px" preserveAspectRatio="xMaxYMin meet">
         <g id="arrow_out" transform="scale(0.3 0.3)">
          <a xlink:href="structQuadOpRhs__coll__graph_org.svg" target="_base">
           <rect id="button" ry="5" rx="5" y="6" x="6" height="38" width="38"
                fill="#f2f5e9" fill-opacity="0.5" stroke="#606060" stroke-width="1.0"/>
           <path id="arrow"
             d="M 11.500037,31.436501 C 11.940474,20.09759 22.043105,11.32322 32.158766,21.979434 L 37.068811,17.246167 C 37.068811,17.246167 37.088388,32 37.088388,32 L 22.160133,31.978069 C 22.160133,31.978069 26.997745,27.140456 26.997745,27.140456 C 18.528582,18.264221 13.291696,25.230495 11.500037,31.436501 z"
             style="fill:#404040;"/>
          </a>
         </g>
        </svg>
</svg>
