<?xml version="1.0" encoding="UTF-8" standalone="no"?>
<!DOCTYPE svg PUBLIC "-//W3C//DTD SVG 1.1//EN"
 "http://www.w3.org/Graphics/SVG/1.1/DTD/svg11.dtd">
<!-- Generated by graphviz version 2.43.0 (0)
 -->
<!-- Title: OpAssembleP Pages: 1 -->
<svg width="1864pt" height="622pt"
 viewBox="0.00 0.00 1864.00 622.00" xmlns="http://www.w3.org/2000/svg" xmlns:xlink="http://www.w3.org/1999/xlink">
<g id="graph0" class="graph" transform="scale(1 1) rotate(0) translate(4 618)">
<title>OpAssembleP</title>
<polygon fill="white" stroke="transparent" points="-4,4 -4,-618 1860,-618 1860,4 -4,4"/>
<!-- Node1 -->
<g id="node1" class="node">
<title>Node1</title>
<g id="a_node1"><a xlink:title="Assemble P *.">
<polygon fill="#bfbfbf" stroke="black" points="1772,-505.5 1772,-524.5 1856,-524.5 1856,-505.5 1772,-505.5"/>
<text text-anchor="middle" x="1814" y="-512.5" font-family="Helvetica,sans-Serif" font-size="10.00">OpAssembleP</text>
</a>
</g>
</g>
<!-- Node2 -->
<g id="node2" class="node">
<title>Node2</title>
<g id="a_node2"><a xlink:title=" ">
<polygon fill="white" stroke="#bfbfbf" points="1554,-560.5 1554,-579.5 1659,-579.5 1659,-560.5 1554,-560.5"/>
<text text-anchor="middle" x="1606.5" y="-567.5" font-family="Helvetica,sans-Serif" font-size="10.00">UserDataOperator</text>
</a>
</g>
</g>
<!-- Node2&#45;&gt;Node1 -->
<g id="edge1" class="edge">
<title>Node2&#45;&gt;Node1</title>
<path fill="none" stroke="midnightblue" d="M1669.21,-567.73C1695.88,-565.3 1727.08,-560.48 1754,-551 1771.43,-544.87 1789.24,-533.08 1800.67,-524.67"/>
<polygon fill="midnightblue" stroke="midnightblue" points="1668.91,-564.25 1659.23,-568.55 1669.48,-571.22 1668.91,-564.25"/>
</g>
<!-- Node3 -->
<g id="node3" class="node">
<title>Node3</title>
<g id="a_node3"><a xlink:title=" ">
<polygon fill="white" stroke="#bfbfbf" points="1565,-522.5 1565,-541.5 1648,-541.5 1648,-522.5 1565,-522.5"/>
<text text-anchor="middle" x="1606.5" y="-529.5" font-family="Helvetica,sans-Serif" font-size="10.00">MatrixDouble</text>
</a>
</g>
</g>
<!-- Node3&#45;&gt;Node1 -->
<g id="edge2" class="edge">
<title>Node3&#45;&gt;Node1</title>
<path fill="none" stroke="#9a32cd" stroke-dasharray="5,2" d="M1658.11,-527.81C1693.09,-524.92 1739.04,-521.12 1771.78,-518.41"/>
<polygon fill="#9a32cd" stroke="#9a32cd" points="1657.78,-524.33 1648.1,-528.64 1658.35,-531.3 1657.78,-524.33"/>
<text text-anchor="middle" x="1719" y="-539" font-family="Helvetica,sans-Serif" font-size="10.00"> locP</text>
<text text-anchor="middle" x="1719" y="-528" font-family="Helvetica,sans-Serif" font-size="10.00">translocP</text>
</g>
<!-- Node4 -->
<g id="node4" class="node">
<title>Node4</title>
<g id="a_node4"><a xlink:href="structBlockData.html" target="_top" xlink:title=" ">
<polygon fill="white" stroke="black" points="1573,-484.5 1573,-503.5 1640,-503.5 1640,-484.5 1573,-484.5"/>
<text text-anchor="middle" x="1606.5" y="-491.5" font-family="Helvetica,sans-Serif" font-size="10.00">BlockData</text>
</a>
</g>
</g>
<!-- Node4&#45;&gt;Node1 -->
<g id="edge3" class="edge">
<title>Node4&#45;&gt;Node1</title>
<path fill="none" stroke="#9a32cd" stroke-dasharray="5,2" d="M1650.45,-496.17C1679.71,-497.91 1719.27,-500.76 1754,-505 1759.78,-505.7 1765.85,-506.58 1771.81,-507.52"/>
<polygon fill="#9a32cd" stroke="#9a32cd" points="1650.35,-492.66 1640.17,-495.58 1649.95,-499.65 1650.35,-492.66"/>
<text text-anchor="middle" x="1719" y="-508" font-family="Helvetica,sans-Serif" font-size="10.00"> dAta</text>
</g>
<!-- Node5 -->
<g id="node5" class="node">
<title>Node5</title>
<g id="a_node5"><a xlink:href="classdouble.html" target="_top" xlink:title=" ">
<polygon fill="white" stroke="black" points="989,-315.5 989,-334.5 1039,-334.5 1039,-315.5 989,-315.5"/>
<text text-anchor="middle" x="1014" y="-322.5" font-family="Helvetica,sans-Serif" font-size="10.00">double</text>
</a>
</g>
</g>
<!-- Node5&#45;&gt;Node4 -->
<g id="edge4" class="edge">
<title>Node5&#45;&gt;Node4</title>
<path fill="none" stroke="#9a32cd" stroke-dasharray="5,2" d="M1030.74,-342.46C1060.8,-374.65 1129.95,-443.12 1203,-477 1335.33,-538.38 1384.44,-534.48 1529,-515 1545.52,-512.77 1563.51,-507.96 1577.89,-503.5"/>
<polygon fill="#9a32cd" stroke="#9a32cd" points="1032.99,-339.74 1023.64,-334.76 1027.84,-344.48 1032.99,-339.74"/>
<text text-anchor="middle" x="1293.5" y="-563" font-family="Helvetica,sans-Serif" font-size="10.00"> chargeDensity</text>
<text text-anchor="middle" x="1293.5" y="-552" font-family="Helvetica,sans-Serif" font-size="10.00">pOisson</text>
<text text-anchor="middle" x="1293.5" y="-541" font-family="Helvetica,sans-Serif" font-size="10.00">epsPermit</text>
<text text-anchor="middle" x="1293.5" y="-530" font-family="Helvetica,sans-Serif" font-size="10.00">yOung</text>
</g>
<!-- Node8 -->
<g id="node8" class="node">
<title>Node8</title>
<g id="a_node8"><a xlink:href="structDataAtIntegrationPts.html" target="_top" xlink:title=" ">
<polygon fill="white" stroke="black" points="1547,-289.5 1547,-308.5 1666,-308.5 1666,-289.5 1547,-289.5"/>
<text text-anchor="middle" x="1606.5" y="-296.5" font-family="Helvetica,sans-Serif" font-size="10.00">DataAtIntegrationPts</text>
</a>
</g>
</g>
<!-- Node5&#45;&gt;Node8 -->
<g id="edge13" class="edge">
<title>Node5&#45;&gt;Node8</title>
<path fill="none" stroke="#9a32cd" stroke-dasharray="5,2" d="M1049.18,-324.62C1131.74,-323.52 1348.52,-319.58 1529,-307 1534.73,-306.6 1540.69,-306.11 1546.65,-305.57"/>
<polygon fill="#9a32cd" stroke="#9a32cd" points="1049.07,-321.12 1039.12,-324.75 1049.16,-328.12 1049.07,-321.12"/>
<text text-anchor="middle" x="1293.5" y="-379" font-family="Helvetica,sans-Serif" font-size="10.00"> blockPermittivity</text>
<text text-anchor="middle" x="1293.5" y="-368" font-family="Helvetica,sans-Serif" font-size="10.00">blockChrgDens</text>
<text text-anchor="middle" x="1293.5" y="-357" font-family="Helvetica,sans-Serif" font-size="10.00">mU</text>
<text text-anchor="middle" x="1293.5" y="-346" font-family="Helvetica,sans-Serif" font-size="10.00">lAmbda</text>
<text text-anchor="middle" x="1293.5" y="-335" font-family="Helvetica,sans-Serif" font-size="10.00">pOisson</text>
<text text-anchor="middle" x="1293.5" y="-324" font-family="Helvetica,sans-Serif" font-size="10.00">yOung</text>
</g>
<!-- Node20 -->
<g id="node20" class="node">
<title>Node20</title>
<g id="a_node20"><a xlink:href="classFTensor_1_1Ddg.html" target="_top" xlink:title=" ">
<polygon fill="white" stroke="black" points="1230.5,-258 1230.5,-288 1356.5,-288 1356.5,-258 1230.5,-258"/>
<text text-anchor="start" x="1238.5" y="-276" font-family="Helvetica,sans-Serif" font-size="10.00">FTensor::Ddg&lt; double,</text>
<text text-anchor="middle" x="1293.5" y="-265" font-family="Helvetica,sans-Serif" font-size="10.00"> 3, 3 &gt;</text>
</a>
</g>
</g>
<!-- Node5&#45;&gt;Node20 -->
<g id="edge22" class="edge">
<title>Node5&#45;&gt;Node20</title>
<path fill="none" stroke="#9a32cd" stroke-dasharray="5,2" d="M1049.08,-314.02C1065.03,-309.19 1084.35,-303.77 1102,-300 1144.47,-290.93 1192.93,-284.11 1230.35,-279.6"/>
<polygon fill="#9a32cd" stroke="#9a32cd" points="1047.67,-310.79 1039.15,-317.08 1049.73,-317.48 1047.67,-310.79"/>
<text text-anchor="middle" x="1143.5" y="-303" font-family="Helvetica,sans-Serif" font-size="10.00"> data</text>
</g>
<!-- Node6 -->
<g id="node6" class="node">
<title>Node6</title>
<g id="a_node6"><a xlink:href="classRange.html" target="_top" xlink:title=" ">
<polygon fill="white" stroke="black" points="1270,-448.5 1270,-467.5 1317,-467.5 1317,-448.5 1270,-448.5"/>
<text text-anchor="middle" x="1293.5" y="-455.5" font-family="Helvetica,sans-Serif" font-size="10.00">Range</text>
</a>
</g>
</g>
<!-- Node6&#45;&gt;Node4 -->
<g id="edge5" class="edge">
<title>Node6&#45;&gt;Node4</title>
<path fill="none" stroke="#9a32cd" stroke-dasharray="5,2" d="M1327.37,-454.12C1373.16,-449.64 1458.46,-444.72 1529,-460 1550.87,-464.74 1574.11,-476.08 1589.16,-484.37"/>
<polygon fill="#9a32cd" stroke="#9a32cd" points="1326.73,-450.66 1317.15,-455.17 1327.45,-457.63 1326.73,-450.66"/>
<text text-anchor="middle" x="1465.5" y="-507" font-family="Helvetica,sans-Serif" font-size="10.00"> tEts</text>
<text text-anchor="middle" x="1465.5" y="-496" font-family="Helvetica,sans-Serif" font-size="10.00">interfaceEnts</text>
<text text-anchor="middle" x="1465.5" y="-485" font-family="Helvetica,sans-Serif" font-size="10.00">internalDomainEnts</text>
<text text-anchor="middle" x="1465.5" y="-474" font-family="Helvetica,sans-Serif" font-size="10.00">domainEnts</text>
<text text-anchor="middle" x="1465.5" y="-463" font-family="Helvetica,sans-Serif" font-size="10.00">electrodeEnts</text>
</g>
<!-- Node6&#45;&gt;Node8 -->
<g id="edge20" class="edge">
<title>Node6&#45;&gt;Node8</title>
<path fill="none" stroke="#9a32cd" stroke-dasharray="5,2" d="M1327.48,-454.44C1344.95,-451.63 1366.37,-446.67 1384,-438 1393.34,-433.4 1392.7,-427.69 1402,-423 1453.88,-396.84 1479.8,-422.91 1529,-392 1563.52,-370.31 1589.84,-327.7 1600.42,-308.63"/>
<polygon fill="#9a32cd" stroke="#9a32cd" points="1326.58,-451.04 1317.18,-455.93 1327.58,-457.96 1326.58,-451.04"/>
<text text-anchor="middle" x="1465.5" y="-437" font-family="Helvetica,sans-Serif" font-size="10.00"> forcesOnlyOnEntitiesRow</text>
<text text-anchor="middle" x="1465.5" y="-426" font-family="Helvetica,sans-Serif" font-size="10.00">forcesOnlyOnEntitiesCol</text>
</g>
<!-- Node7 -->
<g id="node7" class="node">
<title>Node7</title>
<g id="a_node7"><a xlink:title=" ">
<polygon fill="white" stroke="#bfbfbf" points="1279,-591.5 1279,-610.5 1308,-610.5 1308,-591.5 1279,-591.5"/>
<text text-anchor="middle" x="1293.5" y="-598.5" font-family="Helvetica,sans-Serif" font-size="10.00">int</text>
</a>
</g>
</g>
<!-- Node7&#45;&gt;Node4 -->
<g id="edge6" class="edge">
<title>Node7&#45;&gt;Node4</title>
<path fill="none" stroke="#9a32cd" stroke-dasharray="5,2" d="M1318.23,-600.93C1363.59,-599.65 1463.88,-591.13 1529,-543 1541.51,-533.76 1534.83,-522.68 1547,-513 1554.44,-507.08 1563.77,-502.98 1572.79,-500.15"/>
<polygon fill="#9a32cd" stroke="#9a32cd" points="1318.11,-597.43 1308.18,-601.12 1318.25,-604.43 1318.11,-597.43"/>
<text text-anchor="middle" x="1465.5" y="-606" font-family="Helvetica,sans-Serif" font-size="10.00"> oRder</text>
<text text-anchor="middle" x="1465.5" y="-595" font-family="Helvetica,sans-Serif" font-size="10.00">iD</text>
</g>
<!-- Node8&#45;&gt;Node1 -->
<g id="edge7" class="edge">
<title>Node8&#45;&gt;Node1</title>
<path fill="none" stroke="#9a32cd" stroke-dasharray="5,2" d="M1623.64,-315.97C1664.52,-358.93 1771.16,-471.02 1803.54,-505.06"/>
<polygon fill="#9a32cd" stroke="#9a32cd" points="1626.02,-313.39 1616.6,-308.56 1620.95,-318.22 1626.02,-313.39"/>
<text text-anchor="middle" x="1719" y="-454" font-family="Helvetica,sans-Serif" font-size="10.00"> commonData</text>
</g>
<!-- Node9 -->
<g id="node9" class="node">
<title>Node9</title>
<g id="a_node9"><a xlink:title=" ">
<polygon fill="white" stroke="#bfbfbf" points="1215,-114.5 1215,-133.5 1372,-133.5 1372,-114.5 1215,-114.5"/>
<text text-anchor="middle" x="1293.5" y="-121.5" font-family="Helvetica,sans-Serif" font-size="10.00">shared_ptr&lt; MatrixDouble &gt;</text>
</a>
</g>
</g>
<!-- Node9&#45;&gt;Node8 -->
<g id="edge8" class="edge">
<title>Node9&#45;&gt;Node8</title>
<path fill="none" stroke="#9a32cd" stroke-dasharray="5,2" d="M1370.03,-113.32C1428.52,-106.69 1503.72,-102.27 1529,-119 1589.6,-159.09 1602.34,-257.94 1604.89,-289.29"/>
<polygon fill="#9a32cd" stroke="#9a32cd" points="1369.58,-109.85 1360.06,-114.49 1370.4,-116.8 1369.58,-109.85"/>
<text text-anchor="middle" x="1465.5" y="-232" font-family="Helvetica,sans-Serif" font-size="10.00"> eshelbyStress_dx</text>
<text text-anchor="middle" x="1465.5" y="-221" font-family="Helvetica,sans-Serif" font-size="10.00">invHMat</text>
<text text-anchor="middle" x="1465.5" y="-210" font-family="Helvetica,sans-Serif" font-size="10.00">stiffnessMat</text>
<text text-anchor="middle" x="1465.5" y="-199" font-family="Helvetica,sans-Serif" font-size="10.00">HMat</text>
<text text-anchor="middle" x="1465.5" y="-188" font-family="Helvetica,sans-Serif" font-size="10.00">FMat</text>
<text text-anchor="middle" x="1465.5" y="-177" font-family="Helvetica,sans-Serif" font-size="10.00">hMat</text>
<text text-anchor="middle" x="1465.5" y="-166" font-family="Helvetica,sans-Serif" font-size="10.00">gradDispPtr</text>
<text text-anchor="middle" x="1465.5" y="-155" font-family="Helvetica,sans-Serif" font-size="10.00">eshelbyStressMat</text>
<text text-anchor="middle" x="1465.5" y="-144" font-family="Helvetica,sans-Serif" font-size="10.00">cauchyStressMat</text>
<text text-anchor="middle" x="1465.5" y="-133" font-family="Helvetica,sans-Serif" font-size="10.00">smallStrainMat</text>
<text text-anchor="middle" x="1465.5" y="-122" font-family="Helvetica,sans-Serif" font-size="10.00">...</text>
</g>
<!-- Node10 -->
<g id="node10" class="node">
<title>Node10</title>
<g id="a_node10"><a xlink:href="structMoFEM_1_1SmartPetscObj.html" target="_top" xlink:title=" ">
<polygon fill="white" stroke="black" points="1228,-65 1228,-95 1359,-95 1359,-65 1228,-65"/>
<text text-anchor="start" x="1236" y="-83" font-family="Helvetica,sans-Serif" font-size="10.00">MoFEM::SmartPetscObj</text>
<text text-anchor="middle" x="1293.5" y="-72" font-family="Helvetica,sans-Serif" font-size="10.00">&lt; Vec &gt;</text>
</a>
</g>
</g>
<!-- Node10&#45;&gt;Node8 -->
<g id="edge9" class="edge">
<title>Node10&#45;&gt;Node8</title>
<path fill="none" stroke="#9a32cd" stroke-dasharray="5,2" d="M1369.18,-64.46C1419.11,-58.44 1483.71,-59.61 1529,-93 1595.33,-141.9 1604.19,-254.94 1605.34,-289.07"/>
<polygon fill="#9a32cd" stroke="#9a32cd" points="1368.53,-61.01 1359.08,-65.79 1369.45,-67.95 1368.53,-61.01"/>
<text text-anchor="middle" x="1465.5" y="-96" font-family="Helvetica,sans-Serif" font-size="10.00"> petscVec</text>
</g>
<!-- Node11 -->
<g id="node11" class="node">
<title>Node11</title>
<g id="a_node11"><a xlink:title=" ">
<polygon fill="white" stroke="#bfbfbf" points="951,-114.5 951,-155.5 1077,-155.5 1077,-114.5 951,-114.5"/>
<text text-anchor="start" x="959" y="-143.5" font-family="Helvetica,sans-Serif" font-size="10.00">boost::intrusive_ptr</text>
<text text-anchor="start" x="959" y="-132.5" font-family="Helvetica,sans-Serif" font-size="10.00">&lt; std::remove_pointer</text>
<text text-anchor="middle" x="1014" y="-121.5" font-family="Helvetica,sans-Serif" font-size="10.00">&lt; Vec &gt;::type &gt;</text>
</a>
</g>
</g>
<!-- Node11&#45;&gt;Node10 -->
<g id="edge10" class="edge">
<title>Node11&#45;&gt;Node10</title>
<path fill="none" stroke="midnightblue" d="M1087.21,-120.69C1130.64,-112.08 1185.47,-101.21 1227.54,-92.88"/>
<polygon fill="midnightblue" stroke="midnightblue" points="1086.41,-117.28 1077.28,-122.66 1087.77,-124.15 1086.41,-117.28"/>
</g>
<!-- Node12 -->
<g id="node12" class="node">
<title>Node12</title>
<g id="a_node12"><a xlink:href="structMoFEM_1_1SmartPetscObj.html" target="_top" xlink:title="intrusive_ptr for managing petsc objects">
<polygon fill="white" stroke="black" points="948.5,-65 948.5,-95 1079.5,-95 1079.5,-65 948.5,-65"/>
<text text-anchor="start" x="956.5" y="-83" font-family="Helvetica,sans-Serif" font-size="10.00">MoFEM::SmartPetscObj</text>
<text text-anchor="middle" x="1014" y="-72" font-family="Helvetica,sans-Serif" font-size="10.00">&lt; OBJ &gt;</text>
</a>
</g>
</g>
<!-- Node12&#45;&gt;Node10 -->
<g id="edge11" class="edge">
<title>Node12&#45;&gt;Node10</title>
<path fill="none" stroke="orange" stroke-dasharray="5,2" d="M1089.85,-80C1132.9,-80 1186.45,-80 1227.69,-80"/>
<polygon fill="orange" stroke="orange" points="1089.71,-76.5 1079.71,-80 1089.71,-83.5 1089.71,-76.5"/>
<text text-anchor="middle" x="1143.5" y="-83" font-family="Helvetica,sans-Serif" font-size="10.00"> &lt; Vec &gt;</text>
</g>
<!-- Node13 -->
<g id="node13" class="node">
<title>Node13</title>
<g id="a_node13"><a xlink:title=" ">
<polygon fill="white" stroke="#bfbfbf" points="746,-60.5 746,-101.5 872,-101.5 872,-60.5 746,-60.5"/>
<text text-anchor="start" x="754" y="-89.5" font-family="Helvetica,sans-Serif" font-size="10.00">boost::intrusive_ptr</text>
<text text-anchor="start" x="754" y="-78.5" font-family="Helvetica,sans-Serif" font-size="10.00">&lt; std::remove_pointer</text>
<text text-anchor="middle" x="809" y="-67.5" font-family="Helvetica,sans-Serif" font-size="10.00">&lt; OBJ &gt;::type &gt;</text>
</a>
</g>
</g>
<!-- Node13&#45;&gt;Node12 -->
<g id="edge12" class="edge">
<title>Node13&#45;&gt;Node12</title>
<path fill="none" stroke="midnightblue" d="M882.09,-80.64C903.65,-80.54 927.15,-80.42 948.21,-80.32"/>
<polygon fill="midnightblue" stroke="midnightblue" points="881.99,-77.15 872.01,-80.69 882.03,-84.15 881.99,-77.15"/>
</g>
<!-- Node14 -->
<g id="node14" class="node">
<title>Node14</title>
<g id="a_node14"><a xlink:href="structMoFEM_1_1DeprecatedCoreInterface.html" target="_top" xlink:title="Deprecated interface functions.">
<polygon fill="white" stroke="black" points="1203,-25.5 1203,-44.5 1384,-44.5 1384,-25.5 1203,-25.5"/>
<text text-anchor="middle" x="1293.5" y="-32.5" font-family="Helvetica,sans-Serif" font-size="10.00">MoFEM::DeprecatedCoreInterface</text>
</a>
</g>
</g>
<!-- Node14&#45;&gt;Node8 -->
<g id="edge14" class="edge">
<title>Node14&#45;&gt;Node8</title>
<path fill="none" stroke="#9a32cd" stroke-dasharray="5,2" d="M1339.19,-23.38C1390.64,-12.86 1474.96,-4.75 1529,-47 1569.25,-78.47 1597.53,-247.07 1604.06,-289.37"/>
<polygon fill="#9a32cd" stroke="#9a32cd" points="1338.4,-19.97 1329.36,-25.5 1339.88,-26.81 1338.4,-19.97"/>
<text text-anchor="middle" x="1465.5" y="-50" font-family="Helvetica,sans-Serif" font-size="10.00"> mField</text>
</g>
<!-- Node15 -->
<g id="node15" class="node">
<title>Node15</title>
<g id="a_node15"><a xlink:href="structMoFEM_1_1CoreInterface.html" target="_top" xlink:title="Interface.">
<polygon fill="white" stroke="black" points="951.5,-25.5 951.5,-44.5 1076.5,-44.5 1076.5,-25.5 951.5,-25.5"/>
<text text-anchor="middle" x="1014" y="-32.5" font-family="Helvetica,sans-Serif" font-size="10.00">MoFEM::CoreInterface</text>
</a>
</g>
</g>
<!-- Node15&#45;&gt;Node14 -->
<g id="edge15" class="edge">
<title>Node15&#45;&gt;Node14</title>
<path fill="none" stroke="midnightblue" d="M1086.84,-35C1122.27,-35 1165.35,-35 1202.91,-35"/>
<polygon fill="midnightblue" stroke="midnightblue" points="1086.59,-31.5 1076.59,-35 1086.59,-38.5 1086.59,-31.5"/>
</g>
<!-- Node16 -->
<g id="node16" class="node">
<title>Node16</title>
<g id="a_node16"><a xlink:href="structMoFEM_1_1UnknownInterface.html" target="_top" xlink:title="base class for all interface classes">
<polygon fill="white" stroke="black" points="735,-22.5 735,-41.5 883,-41.5 883,-22.5 735,-22.5"/>
<text text-anchor="middle" x="809" y="-29.5" font-family="Helvetica,sans-Serif" font-size="10.00">MoFEM::UnknownInterface</text>
</a>
</g>
</g>
<!-- Node16&#45;&gt;Node15 -->
<g id="edge16" class="edge">
<title>Node16&#45;&gt;Node15</title>
<path fill="none" stroke="midnightblue" d="M893.09,-33.23C912.58,-33.52 933,-33.82 951.36,-34.09"/>
<polygon fill="midnightblue" stroke="midnightblue" points="893.05,-29.73 883,-33.08 892.95,-36.73 893.05,-29.73"/>
</g>
<!-- Node17 -->
<g id="node17" class="node">
<title>Node17</title>
<g id="a_node17"><a xlink:title=" ">
<polygon fill="white" stroke="#bfbfbf" points="386,-0.5 386,-63.5 627,-63.5 627,-0.5 386,-0.5"/>
<text text-anchor="start" x="394" y="-51.5" font-family="Helvetica,sans-Serif" font-size="10.00">multi_index_container</text>
<text text-anchor="start" x="394" y="-40.5" font-family="Helvetica,sans-Serif" font-size="10.00">&lt; UIdTypeMap, indexed</text>
<text text-anchor="start" x="394" y="-29.5" font-family="Helvetica,sans-Serif" font-size="10.00">_by&lt; hashed_unique&lt; member</text>
<text text-anchor="start" x="394" y="-18.5" font-family="Helvetica,sans-Serif" font-size="10.00">&lt; UIdTypeMap, boost::typeindex</text>
<text text-anchor="middle" x="506.5" y="-7.5" font-family="Helvetica,sans-Serif" font-size="10.00">::type_index, &amp;UIdTypeMap::classIdx &gt; &gt; &gt; &gt;</text>
</a>
</g>
</g>
<!-- Node17&#45;&gt;Node16 -->
<g id="edge17" class="edge">
<title>Node17&#45;&gt;Node16</title>
<path fill="none" stroke="#9a32cd" stroke-dasharray="5,2" d="M637.41,-32C670.69,-32 705.33,-32 734.62,-32"/>
<polygon fill="#9a32cd" stroke="#9a32cd" points="637.13,-28.5 627.13,-32 637.13,-35.5 637.13,-28.5"/>
<text text-anchor="middle" x="681" y="-35" font-family="Helvetica,sans-Serif" font-size="10.00"> iFaceTypeMap</text>
</g>
<!-- Node18 -->
<g id="node18" class="node">
<title>Node18</title>
<g id="a_node18"><a xlink:title=" ">
<polygon fill="white" stroke="#bfbfbf" points="0,-22.5 0,-41.5 125,-41.5 125,-22.5 0,-22.5"/>
<text text-anchor="middle" x="62.5" y="-29.5" font-family="Helvetica,sans-Serif" font-size="10.00">multi_index_container</text>
</a>
</g>
</g>
<!-- Node18&#45;&gt;Node17 -->
<g id="edge18" class="edge">
<title>Node18&#45;&gt;Node17</title>
<path fill="none" stroke="orange" stroke-dasharray="5,2" d="M135.56,-32C203.25,-32 305.79,-32 385.77,-32"/>
<polygon fill="orange" stroke="orange" points="135.42,-28.5 125.42,-32 135.42,-35.5 135.42,-28.5"/>
<text text-anchor="start" x="143" y="-68" font-family="Helvetica,sans-Serif" font-size="10.00"> &lt; UIdTypeMap, indexed</text>
<text text-anchor="start" x="143" y="-57" font-family="Helvetica,sans-Serif" font-size="10.00">_by&lt; hashed_unique&lt; member</text>
<text text-anchor="start" x="143" y="-46" font-family="Helvetica,sans-Serif" font-size="10.00">&lt; UIdTypeMap, boost::typeindex</text>
<text text-anchor="middle" x="255.5" y="-35" font-family="Helvetica,sans-Serif" font-size="10.00">::type_index, &amp;UIdTypeMap::classIdx &gt; &gt; &gt; &gt;</text>
</g>
<!-- Node19 -->
<g id="node19" class="node">
<title>Node19</title>
<g id="a_node19"><a xlink:title=" ">
<polygon fill="white" stroke="#bfbfbf" points="1215.5,-409.5 1215.5,-428.5 1371.5,-428.5 1371.5,-409.5 1215.5,-409.5"/>
<text text-anchor="middle" x="1293.5" y="-416.5" font-family="Helvetica,sans-Serif" font-size="10.00">shared_ptr&lt; VectorDouble &gt;</text>
</a>
</g>
</g>
<!-- Node19&#45;&gt;Node8 -->
<g id="edge19" class="edge">
<title>Node19&#45;&gt;Node8</title>
<path fill="none" stroke="#9a32cd" stroke-dasharray="5,2" d="M1366.74,-405.61C1372.94,-402.73 1378.81,-399.24 1384,-395 1397.86,-383.69 1387.69,-369.73 1402,-359 1447.9,-324.6 1474.46,-353.76 1529,-336 1550.6,-328.96 1573.9,-317 1589.03,-308.59"/>
<polygon fill="#9a32cd" stroke="#9a32cd" points="1365.41,-402.38 1357.48,-409.41 1368.06,-408.85 1365.41,-402.38"/>
<text text-anchor="middle" x="1465.5" y="-384" font-family="Helvetica,sans-Serif" font-size="10.00"> pPtr</text>
<text text-anchor="middle" x="1465.5" y="-373" font-family="Helvetica,sans-Serif" font-size="10.00">detHVec</text>
<text text-anchor="middle" x="1465.5" y="-362" font-family="Helvetica,sans-Serif" font-size="10.00">energyVec</text>
</g>
<!-- Node20&#45;&gt;Node8 -->
<g id="edge21" class="edge">
<title>Node20&#45;&gt;Node8</title>
<path fill="none" stroke="#9a32cd" stroke-dasharray="5,2" d="M1366.67,-279.03C1421.42,-283.61 1495.73,-289.82 1546.84,-294.1"/>
<polygon fill="#9a32cd" stroke="#9a32cd" points="1366.94,-275.54 1356.69,-278.2 1366.36,-282.52 1366.94,-275.54"/>
<text text-anchor="middle" x="1465.5" y="-295" font-family="Helvetica,sans-Serif" font-size="10.00"> tD</text>
</g>
<!-- Node21 -->
<g id="node21" class="node">
<title>Node21</title>
<g id="a_node21"><a xlink:href="classFTensor_1_1Ddg.html" target="_top" xlink:title=" ">
<polygon fill="white" stroke="black" points="944,-250 944,-280 1084,-280 1084,-250 944,-250"/>
<text text-anchor="start" x="952" y="-268" font-family="Helvetica,sans-Serif" font-size="10.00">FTensor::Ddg&lt; T, Tensor</text>
<text text-anchor="middle" x="1014" y="-257" font-family="Helvetica,sans-Serif" font-size="10.00">_Dim01, Tensor_Dim23 &gt;</text>
</a>
</g>
</g>
<!-- Node21&#45;&gt;Node20 -->
<g id="edge23" class="edge">
<title>Node21&#45;&gt;Node20</title>
<path fill="none" stroke="orange" stroke-dasharray="5,2" d="M1094.42,-264.5C1122.99,-264.57 1155.45,-264.95 1185,-266 1199.67,-266.52 1215.45,-267.38 1230.29,-268.32"/>
<polygon fill="orange" stroke="orange" points="1094.09,-261 1084.08,-264.48 1094.08,-268 1094.09,-261"/>
<text text-anchor="middle" x="1143.5" y="-269" font-family="Helvetica,sans-Serif" font-size="10.00"> &lt; double, 3, 3 &gt;</text>
</g>
<!-- Node22 -->
<g id="node22" class="node">
<title>Node22</title>
<g id="a_node22"><a xlink:title=" ">
<polygon fill="white" stroke="#bfbfbf" points="794.5,-255.5 794.5,-274.5 823.5,-274.5 823.5,-255.5 794.5,-255.5"/>
<text text-anchor="middle" x="809" y="-262.5" font-family="Helvetica,sans-Serif" font-size="10.00">T</text>
</a>
</g>
</g>
<!-- Node22&#45;&gt;Node21 -->
<g id="edge24" class="edge">
<title>Node22&#45;&gt;Node21</title>
<path fill="none" stroke="#9a32cd" stroke-dasharray="5,2" d="M833.97,-265C860.82,-265 905.56,-265 943.6,-265"/>
<polygon fill="#9a32cd" stroke="#9a32cd" points="833.63,-261.5 823.63,-265 833.63,-268.5 833.63,-261.5"/>
<text text-anchor="middle" x="913.5" y="-268" font-family="Helvetica,sans-Serif" font-size="10.00"> data</text>
</g>
<!-- Node23 -->
<g id="node23" class="node">
<title>Node23</title>
<g id="a_node23"><a xlink:title=" ">
<polygon fill="white" stroke="#bfbfbf" points="1228.5,-219.5 1228.5,-238.5 1358.5,-238.5 1358.5,-219.5 1228.5,-219.5"/>
<text text-anchor="middle" x="1293.5" y="-226.5" font-family="Helvetica,sans-Serif" font-size="10.00">map&lt; int, BlockData &gt;</text>
</a>
</g>
</g>
<!-- Node23&#45;&gt;Node8 -->
<g id="edge25" class="edge">
<title>Node23&#45;&gt;Node8</title>
<path fill="none" stroke="#9a32cd" stroke-dasharray="5,2" d="M1368.7,-239.09C1425.76,-247.21 1499.63,-258.61 1529,-267 1549.07,-272.74 1570.95,-282.24 1586.15,-289.4"/>
<polygon fill="#9a32cd" stroke="#9a32cd" points="1369.01,-235.6 1358.62,-237.66 1368.03,-242.53 1369.01,-235.6"/>
<text text-anchor="middle" x="1465.5" y="-270" font-family="Helvetica,sans-Serif" font-size="10.00"> setOfBlocksData</text>
</g>
</g>
</svg>
