<?xml version="1.0" encoding="UTF-8" standalone="no"?>
<!DOCTYPE svg PUBLIC "-//W3C//DTD SVG 1.1//EN"
 "http://www.w3.org/Graphics/SVG/1.1/DTD/svg11.dtd">
<!-- Generated by graphviz version 2.43.0 (0)
 -->
<!-- Title: MoFEM::OpCalcNormL2Tensor2&lt; DIM_1, DIM_2 &gt; Pages: 1 -->
<!--zoomable 1348 -->
<svg id="main" version="1.1" xmlns="http://www.w3.org/2000/svg" xmlns:xlink="http://www.w3.org/1999/xlink" xml:space="preserve" onload="init(evt)">
<style type="text/css"><![CDATA[
.edge:hover path { stroke: red; }
.edge:hover polygon { stroke: red; fill: red; }
]]></style>
<script type="text/javascript"><![CDATA[
var edges = document.getElementsByTagName('g');
if (edges && edges.length) {
  for (var i=0;i<edges.length;i++) {
    if (edges[i].id.substr(0,4)=='edge') {
      edges[i].setAttribute('class','edge');
    }
  }
}
]]></script>
        <defs>
                <circle id="rim" cx="0" cy="0" r="7"/>
                <circle id="rim2" cx="0" cy="0" r="3.5"/>
                <g id="zoomPlus">
                        <use xlink:href="#rim" fill="#404040">
                                <set attributeName="fill" to="#808080" begin="zoomplus.mouseover" end="zoomplus.mouseout"/>
                        </use>
                        <path d="M-4,0h8M0,-4v8" fill="none" stroke="white" stroke-width="1.5" pointer-events="none"/>
                </g>
                <g id="zoomMin">
                        <use xlink:href="#rim" fill="#404040">
                                <set attributeName="fill" to="#808080" begin="zoomminus.mouseover" end="zoomminus.mouseout"/>
                        </use>
                        <path d="M-4,0h8" fill="none" stroke="white" stroke-width="1.5" pointer-events="none"/>
                </g>
                <g id="dirArrow">
                        <path fill="none" stroke="white" stroke-width="1.5" d="M0,-3.0v7 M-2.5,-0.5L0,-3.0L2.5,-0.5"/>
                </g>
               <g id="resetDef">
                       <use xlink:href="#rim2" fill="#404040">
                               <set attributeName="fill" to="#808080" begin="reset.mouseover" end="reset.mouseout"/>
                       </use>
               </g>
        </defs>

<script type="text/javascript">
var viewWidth = 3273;
var viewHeight = 1348;
var sectionId = 'dynsection-1';
</script>
<script xlink:href="svgpan.js"/>
<svg id="graph" class="graph">
<g id="viewport">
<title>MoFEM::OpCalcNormL2Tensor2&lt; DIM_1, DIM_2 &gt;</title>
<polygon fill="white" stroke="transparent" points="-4,4 -4,-1343.97 3269,-1343.97 3269,4 -4,4"/>
<!-- Node1 -->
<g id="node1" class="node">
<title>Node1</title>
<g id="a_node1"><a xlink:title="Get norm of input MatrixDouble for Tensor2.">
<polygon fill="#bfbfbf" stroke="black" points="3096,-788.97 3096,-818.97 3265,-818.97 3265,-788.97 3096,-788.97"/>
<text text-anchor="start" x="3104" y="-806.97" font-family="Helvetica,sans-Serif" font-size="10.00">MoFEM::OpCalcNormL2Tensor2</text>
<text text-anchor="middle" x="3180.5" y="-795.97" font-family="Helvetica,sans-Serif" font-size="10.00">&lt; DIM_1, DIM_2 &gt;</text>
</a>
</g>
</g>
<!-- Node2 -->
<g id="node2" class="node">
<title>Node2</title>
<g id="a_node2"><a xlink:href="structMoFEM_1_1ForcesAndSourcesCore_1_1UserDataOperator.html" target="_top" xlink:title=" ">
<polygon fill="white" stroke="black" points="2837,-945.97 2837,-975.97 3007,-975.97 3007,-945.97 2837,-945.97"/>
<text text-anchor="start" x="2845" y="-963.97" font-family="Helvetica,sans-Serif" font-size="10.00">MoFEM::ForcesAndSourcesCore</text>
<text text-anchor="middle" x="2922" y="-952.97" font-family="Helvetica,sans-Serif" font-size="10.00">::UserDataOperator</text>
</a>
</g>
</g>
<!-- Node2&#45;&gt;Node1 -->
<g id="edge1" class="edge">
<title>Node2&#45;&gt;Node1</title>
<path fill="none" stroke="midnightblue" d="M2956.16,-940.67C3008.41,-908.69 3108.69,-847.31 3154.98,-818.98"/>
<polygon fill="midnightblue" stroke="midnightblue" points="2954.3,-937.71 2947.59,-945.92 2957.95,-943.68 2954.3,-937.71"/>
</g>
<!-- Node3 -->
<g id="node3" class="node">
<title>Node3</title>
<g id="a_node3"><a xlink:href="structMoFEM_1_1DataOperator.html" target="_top" xlink:title="base operator to do operations at Gauss Pt. level">
<polygon fill="white" stroke="black" points="2579.5,-1066.47 2579.5,-1085.47 2704.5,-1085.47 2704.5,-1066.47 2579.5,-1066.47"/>
<text text-anchor="middle" x="2642" y="-1073.47" font-family="Helvetica,sans-Serif" font-size="10.00">MoFEM::DataOperator</text>
</a>
</g>
</g>
<!-- Node3&#45;&gt;Node2 -->
<g id="edge2" class="edge">
<title>Node3&#45;&gt;Node2</title>
<path fill="none" stroke="midnightblue" d="M2675.69,-1062.45C2728.01,-1040.8 2830.18,-998.54 2884.69,-975.99"/>
<polygon fill="midnightblue" stroke="midnightblue" points="2674.13,-1059.31 2666.22,-1066.36 2676.8,-1065.77 2674.13,-1059.31"/>
</g>
<!-- Node4 -->
<g id="node4" class="node">
<title>Node4</title>
<g id="a_node4"><a xlink:title=" ">
<polygon fill="white" stroke="#bfbfbf" points="2160,-1058.97 2160,-1110.97 2352,-1110.97 2352,-1058.97 2160,-1058.97"/>
<text text-anchor="start" x="2168" y="-1098.97" font-family="Helvetica,sans-Serif" font-size="10.00">function&lt; MoFEMErrorCode</text>
<text text-anchor="start" x="2168" y="-1087.97" font-family="Helvetica,sans-Serif" font-size="10.00">(DataOperator *op_ptr,</text>
<text text-anchor="start" x="2168" y="-1076.97" font-family="Helvetica,sans-Serif" font-size="10.00"> int side, EntityType type,</text>
<text text-anchor="middle" x="2256" y="-1065.97" font-family="Helvetica,sans-Serif" font-size="10.00"> EntitiesFieldData::EntData &amp;data)&gt;</text>
</a>
</g>
</g>
<!-- Node4&#45;&gt;Node3 -->
<g id="edge3" class="edge">
<title>Node4&#45;&gt;Node3</title>
<path fill="none" stroke="#9a32cd" stroke-dasharray="5,2" d="M2362.11,-1086.46C2415.16,-1086.74 2480.52,-1086.36 2539,-1083.97 2552.04,-1083.44 2566.01,-1082.55 2579.28,-1081.56"/>
<polygon fill="#9a32cd" stroke="#9a32cd" points="2362.03,-1082.96 2352,-1086.4 2361.98,-1089.96 2362.03,-1082.96"/>
<text text-anchor="middle" x="2458" y="-1088.97" font-family="Helvetica,sans-Serif" font-size="10.00"> doWorkRhsHook</text>
</g>
<!-- Node5 -->
<g id="node5" class="node">
<title>Node5</title>
<g id="a_node5"><a xlink:href="classbool.html" target="_top" xlink:title=" ">
<polygon fill="white" stroke="black" points="2237,-1020.47 2237,-1039.47 2275,-1039.47 2275,-1020.47 2237,-1020.47"/>
<text text-anchor="middle" x="2256" y="-1027.47" font-family="Helvetica,sans-Serif" font-size="10.00">bool</text>
</a>
</g>
</g>
<!-- Node5&#45;&gt;Node3 -->
<g id="edge4" class="edge">
<title>Node5&#45;&gt;Node3</title>
<path fill="none" stroke="#9a32cd" stroke-dasharray="5,2" d="M2285.16,-1023.29C2317.7,-1015.62 2367.95,-1003.97 2377,-1002.97 2448.56,-995.02 2470.44,-980.96 2539,-1002.97 2578.4,-1015.61 2615.5,-1049.7 2632.01,-1066.44"/>
<polygon fill="#9a32cd" stroke="#9a32cd" points="2284.22,-1019.91 2275.3,-1025.62 2285.83,-1026.73 2284.22,-1019.91"/>
<text text-anchor="middle" x="2458" y="-1071.97" font-family="Helvetica,sans-Serif" font-size="10.00"> doTris</text>
<text text-anchor="middle" x="2458" y="-1060.97" font-family="Helvetica,sans-Serif" font-size="10.00">doQuads</text>
<text text-anchor="middle" x="2458" y="-1049.97" font-family="Helvetica,sans-Serif" font-size="10.00">sYmm</text>
<text text-anchor="middle" x="2458" y="-1038.97" font-family="Helvetica,sans-Serif" font-size="10.00">doPrisms</text>
<text text-anchor="middle" x="2458" y="-1027.97" font-family="Helvetica,sans-Serif" font-size="10.00">doTets</text>
<text text-anchor="middle" x="2458" y="-1016.97" font-family="Helvetica,sans-Serif" font-size="10.00">doVertices</text>
<text text-anchor="middle" x="2458" y="-1005.97" font-family="Helvetica,sans-Serif" font-size="10.00">doEdges</text>
</g>
<!-- Node6 -->
<g id="node6" class="node">
<title>Node6</title>
<g id="a_node6"><a xlink:title=" ">
<polygon fill="white" stroke="#bfbfbf" points="2153,-1168.47 2153,-1253.47 2359,-1253.47 2359,-1168.47 2153,-1168.47"/>
<text text-anchor="start" x="2161" y="-1241.47" font-family="Helvetica,sans-Serif" font-size="10.00">function&lt; MoFEMErrorCode</text>
<text text-anchor="start" x="2161" y="-1230.47" font-family="Helvetica,sans-Serif" font-size="10.00">(DataOperator *op_ptr,</text>
<text text-anchor="start" x="2161" y="-1219.47" font-family="Helvetica,sans-Serif" font-size="10.00"> int row_side, int col_side,</text>
<text text-anchor="start" x="2161" y="-1208.47" font-family="Helvetica,sans-Serif" font-size="10.00"> EntityType row_type, EntityType</text>
<text text-anchor="start" x="2161" y="-1197.47" font-family="Helvetica,sans-Serif" font-size="10.00"> col_type, EntitiesFieldData::EntData</text>
<text text-anchor="start" x="2161" y="-1186.47" font-family="Helvetica,sans-Serif" font-size="10.00"> &amp;row_data, EntitiesFieldData::EntData</text>
<text text-anchor="middle" x="2256" y="-1175.47" font-family="Helvetica,sans-Serif" font-size="10.00"> &amp;col_data)&gt;</text>
</a>
</g>
</g>
<!-- Node6&#45;&gt;Node3 -->
<g id="edge5" class="edge">
<title>Node6&#45;&gt;Node3</title>
<path fill="none" stroke="#9a32cd" stroke-dasharray="5,2" d="M2369.2,-1208.15C2426.09,-1201.21 2492.74,-1183.89 2539,-1142.97 2556.06,-1127.87 2539.83,-1109.94 2557,-1094.97 2563.42,-1089.37 2571.15,-1085.32 2579.28,-1082.41"/>
<polygon fill="#9a32cd" stroke="#9a32cd" points="2368.61,-1204.7 2359.06,-1209.29 2369.39,-1211.65 2368.61,-1204.7"/>
<text text-anchor="middle" x="2458" y="-1208.97" font-family="Helvetica,sans-Serif" font-size="10.00"> doWorkLhsHook</text>
</g>
<!-- Node7 -->
<g id="node7" class="node">
<title>Node7</title>
<g id="a_node7"><a xlink:title=" ">
<polygon fill="white" stroke="#bfbfbf" points="2179,-1130.47 2179,-1149.47 2333,-1149.47 2333,-1130.47 2179,-1130.47"/>
<text text-anchor="middle" x="2256" y="-1137.47" font-family="Helvetica,sans-Serif" font-size="10.00">array&lt; bool, MBMAXTYPE &gt;</text>
</a>
</g>
</g>
<!-- Node7&#45;&gt;Node3 -->
<g id="edge6" class="edge">
<title>Node7&#45;&gt;Node3</title>
<path fill="none" stroke="#9a32cd" stroke-dasharray="5,2" d="M2343.37,-1132.19C2399.58,-1126.11 2474.21,-1116.11 2539,-1100.97 2547.21,-1099.05 2548.88,-1097.24 2557,-1094.97 2569.24,-1091.55 2582.61,-1088.31 2595.02,-1085.5"/>
<polygon fill="#9a32cd" stroke="#9a32cd" points="2342.68,-1128.75 2333.1,-1133.28 2343.41,-1135.71 2342.68,-1128.75"/>
<text text-anchor="middle" x="2458" y="-1130.97" font-family="Helvetica,sans-Serif" font-size="10.00"> doEntities</text>
</g>
<!-- Node8 -->
<g id="node8" class="node">
<title>Node8</title>
<g id="a_node8"><a xlink:title=" ">
<polygon fill="white" stroke="#bfbfbf" points="2607.5,-1104.47 2607.5,-1123.47 2676.5,-1123.47 2676.5,-1104.47 2607.5,-1104.47"/>
<text text-anchor="middle" x="2642" y="-1111.47" font-family="Helvetica,sans-Serif" font-size="10.00">FieldSpace</text>
</a>
</g>
</g>
<!-- Node8&#45;&gt;Node2 -->
<g id="edge7" class="edge">
<title>Node8&#45;&gt;Node2</title>
<path fill="none" stroke="#9a32cd" stroke-dasharray="5,2" d="M2686.54,-1107.38C2699.86,-1104.51 2714.33,-1100.5 2727,-1094.97 2799.03,-1063.54 2872.14,-1003.88 2904.19,-976.01"/>
<polygon fill="#9a32cd" stroke="#9a32cd" points="2685.75,-1103.97 2676.63,-1109.36 2687.12,-1110.83 2685.75,-1103.97"/>
<text text-anchor="middle" x="2782" y="-1086.97" font-family="Helvetica,sans-Serif" font-size="10.00"> sPace</text>
</g>
<!-- Node9 -->
<g id="node9" class="node">
<title>Node9</title>
<g id="a_node9"><a xlink:title=" ">
<polygon fill="white" stroke="#bfbfbf" points="1122.5,-1310.47 1122.5,-1329.47 1160.5,-1329.47 1160.5,-1310.47 1122.5,-1310.47"/>
<text text-anchor="middle" x="1141.5" y="-1317.47" font-family="Helvetica,sans-Serif" font-size="10.00">char</text>
</a>
</g>
</g>
<!-- Node9&#45;&gt;Node2 -->
<g id="edge8" class="edge">
<title>Node9&#45;&gt;Node2</title>
<path fill="none" stroke="#9a32cd" stroke-dasharray="5,2" d="M1170.82,-1321.17C1230.96,-1323.63 1375.91,-1328.97 1497.5,-1328.97 1497.5,-1328.97 1497.5,-1328.97 2064,-1328.97 2414.78,-1328.97 2545.73,-1318.9 2819,-1098.97 2863.33,-1063.29 2898.29,-1004.03 2913.19,-976.24"/>
<polygon fill="#9a32cd" stroke="#9a32cd" points="1170.73,-1317.67 1160.6,-1320.75 1170.45,-1324.66 1170.73,-1317.67"/>
<text text-anchor="middle" x="2063" y="-1331.97" font-family="Helvetica,sans-Serif" font-size="10.00"> opType</text>
</g>
<!-- Node37 -->
<g id="node37" class="node">
<title>Node37</title>
<g id="a_node37"><a xlink:href="structMoFEM_1_1Problem.html" target="_top" xlink:title="keeps basic data about problem">
<polygon fill="white" stroke="black" points="1449,-943.47 1449,-962.47 1548,-962.47 1548,-943.47 1449,-943.47"/>
<text text-anchor="middle" x="1498.5" y="-950.47" font-family="Helvetica,sans-Serif" font-size="10.00">MoFEM::Problem</text>
</a>
</g>
</g>
<!-- Node9&#45;&gt;Node37 -->
<g id="edge52" class="edge">
<title>Node9&#45;&gt;Node37</title>
<path fill="none" stroke="#9a32cd" stroke-dasharray="5,2" d="M1170.83,-1316.67C1223.2,-1309.05 1335.42,-1285.41 1397,-1217.97 1469.99,-1138.03 1491.75,-999.78 1496.43,-962.47"/>
<polygon fill="#9a32cd" stroke="#9a32cd" points="1170.04,-1313.24 1160.6,-1318.06 1170.98,-1320.18 1170.04,-1313.24"/>
<text text-anchor="middle" x="1329" y="-1297.97" font-family="Helvetica,sans-Serif" font-size="10.00"> tagName</text>
</g>
<!-- Node10 -->
<g id="node10" class="node">
<title>Node10</title>
<g id="a_node10"><a xlink:href="structMoFEM_1_1ForcesAndSourcesCore.html" target="_top" xlink:title="structure to get information form mofem into EntitiesFieldData">
<polygon fill="white" stroke="black" points="2557,-734.47 2557,-753.47 2727,-753.47 2727,-734.47 2557,-734.47"/>
<text text-anchor="middle" x="2642" y="-741.47" font-family="Helvetica,sans-Serif" font-size="10.00">MoFEM::ForcesAndSourcesCore</text>
</a>
</g>
</g>
<!-- Node10&#45;&gt;Node2 -->
<g id="edge9" class="edge">
<title>Node10&#45;&gt;Node2</title>
<path fill="none" stroke="#9a32cd" stroke-dasharray="5,2" d="M2663.4,-759.89C2715.1,-800.25 2850.74,-906.13 2901.48,-945.73"/>
<polygon fill="#9a32cd" stroke="#9a32cd" points="2665.34,-756.97 2655.3,-753.57 2661.03,-762.49 2665.34,-756.97"/>
<text text-anchor="middle" x="2782" y="-880.97" font-family="Helvetica,sans-Serif" font-size="10.00"> ptrFE</text>
</g>
<!-- Node10&#45;&gt;Node10 -->
<g id="edge67" class="edge">
<title>Node10&#45;&gt;Node10</title>
<path fill="none" stroke="#9a32cd" stroke-dasharray="5,2" d="M2615.96,-763C2617.38,-768.1 2626.06,-771.97 2642,-771.97 2666.88,-771.97 2674.08,-762.53 2663.58,-753.73"/>
<polygon fill="#9a32cd" stroke="#9a32cd" points="2619.24,-764.25 2620.42,-753.73 2612.93,-761.22 2619.24,-764.25"/>
<text text-anchor="middle" x="2642" y="-785.97" font-family="Helvetica,sans-Serif" font-size="10.00"> sidePtrFE</text>
<text text-anchor="middle" x="2642" y="-774.97" font-family="Helvetica,sans-Serif" font-size="10.00">refinePtrFE</text>
</g>
<!-- Node11 -->
<g id="node11" class="node">
<title>Node11</title>
<g id="a_node11"><a xlink:href="structMoFEM_1_1FEMethod.html" target="_top" xlink:title="structure for User Loop Methods on finite elements">
<polygon fill="white" stroke="black" points="2202.5,-501.47 2202.5,-520.47 2309.5,-520.47 2309.5,-501.47 2202.5,-501.47"/>
<text text-anchor="middle" x="2256" y="-508.47" font-family="Helvetica,sans-Serif" font-size="10.00">MoFEM::FEMethod</text>
</a>
</g>
</g>
<!-- Node11&#45;&gt;Node10 -->
<g id="edge10" class="edge">
<title>Node11&#45;&gt;Node10</title>
<path fill="none" stroke="midnightblue" d="M2319.7,-505.45C2393.21,-500.48 2508.86,-497.84 2539,-526.97 2570.77,-557.67 2527.88,-691.74 2557,-724.97 2560.25,-728.68 2564.06,-731.75 2568.23,-734.28"/>
<polygon fill="midnightblue" stroke="midnightblue" points="2319.35,-501.96 2309.63,-506.16 2319.85,-508.95 2319.35,-501.96"/>
</g>
<!-- Node12 -->
<g id="node12" class="node">
<title>Node12</title>
<g id="a_node12"><a xlink:href="structMoFEM_1_1BasicMethod.html" target="_top" xlink:title="Data structure to exchange data between mofem and User Loop Methods.">
<polygon fill="white" stroke="black" points="1825,-355.47 1825,-374.47 1947,-374.47 1947,-355.47 1825,-355.47"/>
<text text-anchor="middle" x="1886" y="-362.47" font-family="Helvetica,sans-Serif" font-size="10.00">MoFEM::BasicMethod</text>
</a>
</g>
</g>
<!-- Node12&#45;&gt;Node11 -->
<g id="edge11" class="edge">
<title>Node12&#45;&gt;Node11</title>
<path fill="none" stroke="midnightblue" d="M1911.87,-379.58C1957.89,-405.99 2060.13,-461.73 2153,-491.97 2168.76,-497.1 2186.36,-501 2202.45,-503.88"/>
<polygon fill="midnightblue" stroke="midnightblue" points="1913.59,-376.53 1903.18,-374.56 1910.09,-382.59 1913.59,-376.53"/>
</g>
<!-- Node13 -->
<g id="node13" class="node">
<title>Node13</title>
<g id="a_node13"><a xlink:href="structMoFEM_1_1KspMethod.html" target="_top" xlink:title="data structure for ksp (linear solver) context">
<polygon fill="white" stroke="black" points="1442,-274.47 1442,-293.47 1555,-293.47 1555,-274.47 1442,-274.47"/>
<text text-anchor="middle" x="1498.5" y="-281.47" font-family="Helvetica,sans-Serif" font-size="10.00">MoFEM::KspMethod</text>
</a>
</g>
</g>
<!-- Node13&#45;&gt;Node12 -->
<g id="edge12" class="edge">
<title>Node13&#45;&gt;Node12</title>
<path fill="none" stroke="midnightblue" d="M1554.8,-295.59C1631.43,-311.69 1768.49,-340.49 1839.52,-355.41"/>
<polygon fill="midnightblue" stroke="midnightblue" points="1555.36,-292.13 1544.86,-293.5 1553.92,-298.98 1555.36,-292.13"/>
</g>
<!-- Node14 -->
<g id="node14" class="node">
<title>Node14</title>
<g id="a_node14"><a xlink:href="structMoFEM_1_1PetscData.html" target="_top" xlink:title=" ">
<polygon fill="white" stroke="black" points="1087.5,-309.47 1087.5,-328.47 1195.5,-328.47 1195.5,-309.47 1087.5,-309.47"/>
<text text-anchor="middle" x="1141.5" y="-316.47" font-family="Helvetica,sans-Serif" font-size="10.00">MoFEM::PetscData</text>
</a>
</g>
</g>
<!-- Node14&#45;&gt;Node13 -->
<g id="edge13" class="edge">
<title>Node14&#45;&gt;Node13</title>
<path fill="none" stroke="midnightblue" d="M1205.41,-316.97C1218.96,-313.98 1232.39,-308.77 1243,-299.97 1259.9,-285.96 1242.87,-266.35 1261,-253.97 1310.92,-219.89 1338.81,-237.6 1397,-253.97 1406.03,-256.51 1406.32,-261.43 1415,-264.97 1424.25,-268.75 1434.41,-271.86 1444.34,-274.39"/>
<polygon fill="midnightblue" stroke="midnightblue" points="1204.77,-313.53 1195.56,-318.77 1206.03,-320.41 1204.77,-313.53"/>
</g>
<!-- Node24 -->
<g id="node24" class="node">
<title>Node24</title>
<g id="a_node24"><a xlink:href="structMoFEM_1_1SnesMethod.html" target="_top" xlink:title="data structure for snes (nonlinear solver) context">
<polygon fill="white" stroke="black" points="1439,-541.47 1439,-560.47 1558,-560.47 1558,-541.47 1439,-541.47"/>
<text text-anchor="middle" x="1498.5" y="-548.47" font-family="Helvetica,sans-Serif" font-size="10.00">MoFEM::SnesMethod</text>
</a>
</g>
</g>
<!-- Node14&#45;&gt;Node24 -->
<g id="edge26" class="edge">
<title>Node14&#45;&gt;Node24</title>
<path fill="none" stroke="darkgreen" d="M1205.71,-319.27C1219.57,-322.27 1233.06,-327.91 1243,-337.97 1275.35,-370.72 1229.5,-406.4 1261,-439.97 1303.57,-485.32 1340.97,-445.97 1397,-472.97 1434.61,-491.09 1471.46,-524.97 1488.18,-541.46"/>
<polygon fill="darkgreen" stroke="darkgreen" points="1206.04,-315.78 1195.59,-317.53 1204.86,-322.68 1206.04,-315.78"/>
</g>
<!-- Node27 -->
<g id="node27" class="node">
<title>Node27</title>
<g id="a_node27"><a xlink:href="structMoFEM_1_1TSMethod.html" target="_top" xlink:title="data structure for TS (time stepping) context">
<polygon fill="white" stroke="black" points="1445,-355.47 1445,-374.47 1552,-374.47 1552,-355.47 1445,-355.47"/>
<text text-anchor="middle" x="1498.5" y="-362.47" font-family="Helvetica,sans-Serif" font-size="10.00">MoFEM::TSMethod</text>
</a>
</g>
</g>
<!-- Node14&#45;&gt;Node27 -->
<g id="edge32" class="edge">
<title>Node14&#45;&gt;Node27</title>
<path fill="none" stroke="darkgreen" d="M1205.82,-327.17C1273.98,-336.01 1381.16,-349.89 1444.86,-358.15"/>
<polygon fill="darkgreen" stroke="darkgreen" points="1206.01,-323.67 1195.65,-325.86 1205.11,-330.61 1206.01,-323.67"/>
</g>
<!-- Node15 -->
<g id="node15" class="node">
<title>Node15</title>
<g id="a_node15"><a xlink:href="structMoFEM_1_1UnknownInterface.html" target="_top" xlink:title="base class for all interface classes">
<polygon fill="white" stroke="black" points="735,-552.47 735,-571.47 883,-571.47 883,-552.47 735,-552.47"/>
<text text-anchor="middle" x="809" y="-559.47" font-family="Helvetica,sans-Serif" font-size="10.00">MoFEM::UnknownInterface</text>
</a>
</g>
</g>
<!-- Node15&#45;&gt;Node14 -->
<g id="edge14" class="edge">
<title>Node15&#45;&gt;Node14</title>
<path fill="none" stroke="midnightblue" d="M893.08,-562.02C937.93,-557.39 990.43,-543.58 1022,-506.97 1071.32,-449.76 988.79,-393.49 1040,-337.97 1052.04,-324.92 1070.01,-319.16 1087.44,-317"/>
<polygon fill="midnightblue" stroke="midnightblue" points="892.69,-558.54 883.04,-562.92 893.32,-565.51 892.69,-558.54"/>
</g>
<!-- Node55 -->
<g id="node55" class="node">
<title>Node55</title>
<g id="a_node55"><a xlink:href="structMoFEM_1_1CoreInterface.html" target="_top" xlink:title="Interface.">
<polygon fill="white" stroke="black" points="1079,-1264.47 1079,-1283.47 1204,-1283.47 1204,-1264.47 1079,-1264.47"/>
<text text-anchor="middle" x="1141.5" y="-1271.47" font-family="Helvetica,sans-Serif" font-size="10.00">MoFEM::CoreInterface</text>
</a>
</g>
</g>
<!-- Node15&#45;&gt;Node55 -->
<g id="edge66" class="edge">
<title>Node15&#45;&gt;Node55</title>
<path fill="none" stroke="midnightblue" d="M810.69,-581.6C814.89,-670.73 843.98,-1041.45 1040,-1238.97 1052.17,-1251.23 1068.85,-1259.2 1085.14,-1264.39"/>
<polygon fill="midnightblue" stroke="midnightblue" points="814.19,-581.39 810.27,-571.54 807.19,-581.68 814.19,-581.39"/>
</g>
<!-- Node16 -->
<g id="node16" class="node">
<title>Node16</title>
<g id="a_node16"><a xlink:title=" ">
<polygon fill="white" stroke="#bfbfbf" points="386,-281.47 386,-344.47 627,-344.47 627,-281.47 386,-281.47"/>
<text text-anchor="start" x="394" y="-332.47" font-family="Helvetica,sans-Serif" font-size="10.00">multi_index_container</text>
<text text-anchor="start" x="394" y="-321.47" font-family="Helvetica,sans-Serif" font-size="10.00">&lt; UIdTypeMap, indexed</text>
<text text-anchor="start" x="394" y="-310.47" font-family="Helvetica,sans-Serif" font-size="10.00">_by&lt; hashed_unique&lt; member</text>
<text text-anchor="start" x="394" y="-299.47" font-family="Helvetica,sans-Serif" font-size="10.00">&lt; UIdTypeMap, boost::typeindex</text>
<text text-anchor="middle" x="506.5" y="-288.47" font-family="Helvetica,sans-Serif" font-size="10.00">::type_index, &amp;UIdTypeMap::classIdx &gt; &gt; &gt; &gt;</text>
</a>
</g>
</g>
<!-- Node16&#45;&gt;Node15 -->
<g id="edge15" class="edge">
<title>Node16&#45;&gt;Node15</title>
<path fill="none" stroke="#9a32cd" stroke-dasharray="5,2" d="M553.48,-351.07C624.42,-409.85 756.55,-519.33 796.36,-552.32"/>
<polygon fill="#9a32cd" stroke="#9a32cd" points="555.49,-348.19 545.56,-344.5 551.03,-353.58 555.49,-348.19"/>
<text text-anchor="middle" x="681" y="-484.97" font-family="Helvetica,sans-Serif" font-size="10.00"> iFaceTypeMap</text>
</g>
<!-- Node17 -->
<g id="node17" class="node">
<title>Node17</title>
<g id="a_node17"><a xlink:title=" ">
<polygon fill="white" stroke="#bfbfbf" points="0,-10.47 0,-29.47 125,-29.47 125,-10.47 0,-10.47"/>
<text text-anchor="middle" x="62.5" y="-17.47" font-family="Helvetica,sans-Serif" font-size="10.00">multi_index_container</text>
</a>
</g>
</g>
<!-- Node17&#45;&gt;Node12 -->
<g id="edge39" class="edge">
<title>Node17&#45;&gt;Node12</title>
<path fill="none" stroke="#9a32cd" stroke-dasharray="5,2" d="M135.41,-15.77C222.85,-11.03 374.95,-3.97 505.5,-3.97 505.5,-3.97 505.5,-3.97 1499.5,-3.97 1628.42,-3.97 1698.27,24.91 1781,-73.97 1819.73,-120.26 1759.92,-298.98 1799,-344.97 1805.75,-352.91 1814.98,-358.05 1824.9,-361.3"/>
<polygon fill="#9a32cd" stroke="#9a32cd" points="135.12,-12.28 125.33,-16.32 135.51,-19.27 135.12,-12.28"/>
<text text-anchor="middle" x="961.5" y="-83.97" font-family="Helvetica,sans-Serif" font-size="10.00"> adjacenciesPtr</text>
<text text-anchor="middle" x="961.5" y="-72.97" font-family="Helvetica,sans-Serif" font-size="10.00">refinedEntitiesPtr</text>
<text text-anchor="middle" x="961.5" y="-61.97" font-family="Helvetica,sans-Serif" font-size="10.00">finiteElementsEntitiesPtr</text>
<text text-anchor="middle" x="961.5" y="-50.97" font-family="Helvetica,sans-Serif" font-size="10.00">dofsPtr</text>
<text text-anchor="middle" x="961.5" y="-39.97" font-family="Helvetica,sans-Serif" font-size="10.00">entitiesPtr</text>
<text text-anchor="middle" x="961.5" y="-28.97" font-family="Helvetica,sans-Serif" font-size="10.00">finiteElementsPtr</text>
<text text-anchor="middle" x="961.5" y="-17.97" font-family="Helvetica,sans-Serif" font-size="10.00">refinedFiniteElementsPtr</text>
<text text-anchor="middle" x="961.5" y="-6.97" font-family="Helvetica,sans-Serif" font-size="10.00">fieldsPtr</text>
</g>
<!-- Node17&#45;&gt;Node16 -->
<g id="edge16" class="edge">
<title>Node17&#45;&gt;Node16</title>
<path fill="none" stroke="orange" stroke-dasharray="5,2" d="M86.7,-35.35C156.12,-81.37 363.24,-218.67 457.65,-281.25"/>
<polygon fill="orange" stroke="orange" points="88.47,-32.33 78.21,-29.72 84.61,-38.16 88.47,-32.33"/>
<text text-anchor="start" x="143" y="-254.97" font-family="Helvetica,sans-Serif" font-size="10.00"> &lt; UIdTypeMap, indexed</text>
<text text-anchor="start" x="143" y="-243.97" font-family="Helvetica,sans-Serif" font-size="10.00">_by&lt; hashed_unique&lt; member</text>
<text text-anchor="start" x="143" y="-232.97" font-family="Helvetica,sans-Serif" font-size="10.00">&lt; UIdTypeMap, boost::typeindex</text>
<text text-anchor="middle" x="255.5" y="-221.97" font-family="Helvetica,sans-Serif" font-size="10.00">::type_index, &amp;UIdTypeMap::classIdx &gt; &gt; &gt; &gt;</text>
</g>
<!-- Node18 -->
<g id="node18" class="node">
<title>Node18</title>
<g id="a_node18"><a xlink:title=" ">
<polygon fill="white" stroke="#bfbfbf" points="738.5,-299.47 738.5,-318.47 879.5,-318.47 879.5,-299.47 738.5,-299.47"/>
<text text-anchor="middle" x="809" y="-306.47" font-family="Helvetica,sans-Serif" font-size="10.00">static constexpr Switches</text>
</a>
</g>
</g>
<!-- Node18&#45;&gt;Node14 -->
<g id="edge17" class="edge">
<title>Node18&#45;&gt;Node14</title>
<path fill="none" stroke="#9a32cd" stroke-dasharray="5,2" d="M889.89,-308.01C929.62,-307.87 978.36,-308.21 1022,-309.97 1043.44,-310.83 1067.02,-312.48 1087.46,-314.13"/>
<polygon fill="#9a32cd" stroke="#9a32cd" points="889.71,-304.51 879.73,-308.05 889.75,-311.51 889.71,-304.51"/>
<text text-anchor="middle" x="961.5" y="-389.97" font-family="Helvetica,sans-Serif" font-size="10.00"> CtxSetX_TT</text>
<text text-anchor="middle" x="961.5" y="-378.97" font-family="Helvetica,sans-Serif" font-size="10.00">CtxSetX_T</text>
<text text-anchor="middle" x="961.5" y="-367.97" font-family="Helvetica,sans-Serif" font-size="10.00">CtxSetA</text>
<text text-anchor="middle" x="961.5" y="-356.97" font-family="Helvetica,sans-Serif" font-size="10.00">CtxSetB</text>
<text text-anchor="middle" x="961.5" y="-345.97" font-family="Helvetica,sans-Serif" font-size="10.00">CtxSetTime</text>
<text text-anchor="middle" x="961.5" y="-334.97" font-family="Helvetica,sans-Serif" font-size="10.00">CtxSetNone</text>
<text text-anchor="middle" x="961.5" y="-323.97" font-family="Helvetica,sans-Serif" font-size="10.00">CtxSetF</text>
<text text-anchor="middle" x="961.5" y="-312.97" font-family="Helvetica,sans-Serif" font-size="10.00">CtxSetX</text>
</g>
<!-- Node19 -->
<g id="node19" class="node">
<title>Node19</title>
<g id="a_node19"><a xlink:title=" ">
<polygon fill="white" stroke="#bfbfbf" points="791.5,-178.47 791.5,-197.47 826.5,-197.47 826.5,-178.47 791.5,-178.47"/>
<text text-anchor="middle" x="809" y="-185.47" font-family="Helvetica,sans-Serif" font-size="10.00">Mat</text>
</a>
</g>
</g>
<!-- Node19&#45;&gt;Node13 -->
<g id="edge23" class="edge">
<title>Node19&#45;&gt;Node13</title>
<path fill="none" stroke="#9a32cd" stroke-dasharray="5,2" d="M836.02,-177.93C854.02,-171.35 878.66,-163.05 901,-157.97 1049.42,-124.22 1091.49,-125.35 1243,-139.97 1312.41,-146.67 1347.82,-120.54 1397,-169.97 1427.31,-200.43 1385.21,-233.99 1415,-264.97 1422.23,-272.49 1431.8,-277.3 1441.85,-280.33"/>
<polygon fill="#9a32cd" stroke="#9a32cd" points="834.65,-174.7 826.5,-181.47 837.1,-181.26 834.65,-174.7"/>
<text text-anchor="middle" x="1141.5" y="-153.97" font-family="Helvetica,sans-Serif" font-size="10.00"> ksp_A</text>
<text text-anchor="middle" x="1141.5" y="-142.97" font-family="Helvetica,sans-Serif" font-size="10.00">ksp_B</text>
</g>
<!-- Node19&#45;&gt;Node14 -->
<g id="edge18" class="edge">
<title>Node19&#45;&gt;Node14</title>
<path fill="none" stroke="#9a32cd" stroke-dasharray="5,2" d="M836.64,-186.79C881.08,-186.34 970.55,-192.08 1022,-240.97 1041.87,-259.85 1019.58,-281.67 1040,-299.97 1052.89,-311.52 1070.54,-317.03 1087.46,-319.43"/>
<polygon fill="#9a32cd" stroke="#9a32cd" points="836.53,-183.3 826.61,-187.01 836.68,-190.29 836.53,-183.3"/>
<text text-anchor="middle" x="961.5" y="-254.97" font-family="Helvetica,sans-Serif" font-size="10.00"> A</text>
<text text-anchor="middle" x="961.5" y="-243.97" font-family="Helvetica,sans-Serif" font-size="10.00">B</text>
</g>
<!-- Node19&#45;&gt;Node24 -->
<g id="edge28" class="edge">
<title>Node19&#45;&gt;Node24</title>
<path fill="none" stroke="#9a32cd" stroke-dasharray="5,2" d="M836.17,-196.29C852.53,-202.95 872.43,-214.02 883,-230.97 910.6,-275.22 863.47,-428.76 901,-464.97 914.69,-478.17 1224.22,-475.97 1243,-478.97 1328.47,-492.61 1426.06,-525.2 1471.58,-541.44"/>
<polygon fill="#9a32cd" stroke="#9a32cd" points="837.15,-192.93 826.56,-192.71 834.71,-199.48 837.15,-192.93"/>
<text text-anchor="middle" x="1141.5" y="-492.97" font-family="Helvetica,sans-Serif" font-size="10.00"> snes_A</text>
<text text-anchor="middle" x="1141.5" y="-481.97" font-family="Helvetica,sans-Serif" font-size="10.00">snes_B</text>
</g>
<!-- Node19&#45;&gt;Node27 -->
<g id="edge33" class="edge">
<title>Node19&#45;&gt;Node27</title>
<path fill="none" stroke="#9a32cd" stroke-dasharray="5,2" d="M836.59,-183.44C877.38,-177.5 957.44,-169.8 1022,-187.97 1031.03,-190.51 1031.24,-195.62 1040,-198.97 1190.69,-256.67 1269.1,-166.6 1397,-264.97 1411.81,-276.36 1403.19,-288.49 1415,-302.97 1433.46,-325.6 1461.86,-344.55 1480.06,-355.33"/>
<polygon fill="#9a32cd" stroke="#9a32cd" points="835.99,-179.99 826.64,-184.97 837.05,-186.91 835.99,-179.99"/>
<text text-anchor="middle" x="1141.5" y="-234.97" font-family="Helvetica,sans-Serif" font-size="10.00"> ts_A</text>
<text text-anchor="middle" x="1141.5" y="-223.97" font-family="Helvetica,sans-Serif" font-size="10.00">ts_B</text>
</g>
<!-- Node20 -->
<g id="node20" class="node">
<title>Node20</title>
<g id="a_node20"><a xlink:title=" ">
<polygon fill="white" stroke="#bfbfbf" points="772.5,-240.47 772.5,-259.47 845.5,-259.47 845.5,-240.47 772.5,-240.47"/>
<text text-anchor="middle" x="809" y="-247.47" font-family="Helvetica,sans-Serif" font-size="10.00">bitset&lt; 8 &gt;</text>
</a>
</g>
</g>
<!-- Node20&#45;&gt;Node14 -->
<g id="edge19" class="edge">
<title>Node20&#45;&gt;Node14</title>
<path fill="none" stroke="#9a32cd" stroke-dasharray="5,2" d="M855.48,-257.81C898.65,-265.63 965.21,-278.67 1022,-293.97 1030.14,-296.16 1031.84,-297.85 1040,-299.97 1055.21,-303.92 1071.91,-307.41 1087.26,-310.29"/>
<polygon fill="#9a32cd" stroke="#9a32cd" points="856.02,-254.35 845.56,-256.03 854.78,-261.24 856.02,-254.35"/>
<text text-anchor="middle" x="961.5" y="-296.97" font-family="Helvetica,sans-Serif" font-size="10.00"> data_ctx</text>
</g>
<!-- Node21 -->
<g id="node21" class="node">
<title>Node21</title>
<g id="a_node21"><a xlink:title=" ">
<polygon fill="white" stroke="#bfbfbf" points="792,-462.47 792,-481.47 826,-481.47 826,-462.47 792,-462.47"/>
<text text-anchor="middle" x="809" y="-469.47" font-family="Helvetica,sans-Serif" font-size="10.00">Vec</text>
</a>
</g>
</g>
<!-- Node21&#45;&gt;Node13 -->
<g id="edge24" class="edge">
<title>Node21&#45;&gt;Node13</title>
<path fill="none" stroke="#9a32cd" stroke-dasharray="5,2" d="M819.21,-453.32C839.74,-412.04 888.41,-315.71 901,-304.97 944.41,-267.91 984.02,-304.57 1022,-261.97 1045.67,-235.41 1012.16,-206.12 1040,-183.97 1075.3,-155.88 1198.38,-177.31 1243,-183.97 1313.78,-194.53 1341.81,-185.41 1397,-230.97 1410.19,-241.85 1401.44,-254.55 1415,-264.97 1422.81,-270.97 1432.18,-275.13 1441.76,-278"/>
<polygon fill="#9a32cd" stroke="#9a32cd" points="816.05,-451.82 814.74,-462.33 822.32,-454.93 816.05,-451.82"/>
<text text-anchor="middle" x="1141.5" y="-186.97" font-family="Helvetica,sans-Serif" font-size="10.00"> ksp_f</text>
</g>
<!-- Node21&#45;&gt;Node14 -->
<g id="edge20" class="edge">
<title>Node21&#45;&gt;Node14</title>
<path fill="none" stroke="#9a32cd" stroke-dasharray="5,2" d="M836.21,-470.29C880.75,-466.01 971.34,-450.93 1022,-397.97 1041.24,-377.85 1019.31,-356.6 1040,-337.97 1052.87,-326.38 1070.51,-320.87 1087.42,-318.48"/>
<polygon fill="#9a32cd" stroke="#9a32cd" points="835.84,-466.81 826.17,-471.14 836.43,-473.78 835.84,-466.81"/>
<text text-anchor="middle" x="961.5" y="-494.97" font-family="Helvetica,sans-Serif" font-size="10.00"> f</text>
<text text-anchor="middle" x="961.5" y="-483.97" font-family="Helvetica,sans-Serif" font-size="10.00">x</text>
<text text-anchor="middle" x="961.5" y="-472.97" font-family="Helvetica,sans-Serif" font-size="10.00">x_t</text>
<text text-anchor="middle" x="961.5" y="-461.97" font-family="Helvetica,sans-Serif" font-size="10.00">x_tt</text>
</g>
<!-- Node21&#45;&gt;Node24 -->
<g id="edge29" class="edge">
<title>Node21&#45;&gt;Node24</title>
<path fill="none" stroke="#9a32cd" stroke-dasharray="5,2" d="M825.03,-489.17C841.79,-507.25 870.54,-535.21 901,-550.97 957.49,-580.19 976.86,-577.36 1040,-584.97 1189.25,-602.96 1367.12,-575.94 1450.27,-560.5"/>
<polygon fill="#9a32cd" stroke="#9a32cd" points="827.52,-486.7 818.22,-481.64 822.33,-491.4 827.52,-486.7"/>
<text text-anchor="middle" x="1141.5" y="-604.97" font-family="Helvetica,sans-Serif" font-size="10.00"> snes_x</text>
<text text-anchor="middle" x="1141.5" y="-593.97" font-family="Helvetica,sans-Serif" font-size="10.00">snes_f</text>
</g>
<!-- Node21&#45;&gt;Node27 -->
<g id="edge37" class="edge">
<title>Node21&#45;&gt;Node27</title>
<path fill="none" stroke="#9a32cd" stroke-dasharray="5,2" d="M836.17,-478.9C904.06,-495.83 1091.14,-535.7 1243,-504.97 1315.81,-490.23 1332.54,-476.9 1397,-439.97 1431.76,-420.06 1468.47,-390.02 1486.37,-374.7"/>
<polygon fill="#9a32cd" stroke="#9a32cd" points="836.87,-475.47 826.32,-476.4 835.15,-482.25 836.87,-475.47"/>
<text text-anchor="middle" x="1141.5" y="-552.97" font-family="Helvetica,sans-Serif" font-size="10.00"> ts_u</text>
<text text-anchor="middle" x="1141.5" y="-541.97" font-family="Helvetica,sans-Serif" font-size="10.00">ts_F</text>
<text text-anchor="middle" x="1141.5" y="-530.97" font-family="Helvetica,sans-Serif" font-size="10.00">ts_u_t</text>
<text text-anchor="middle" x="1141.5" y="-519.97" font-family="Helvetica,sans-Serif" font-size="10.00">ts_u_tt</text>
</g>
<!-- Node22 -->
<g id="node22" class="node">
<title>Node22</title>
<g id="a_node22"><a xlink:title=" ">
<polygon fill="white" stroke="#bfbfbf" points="1124,-70.47 1124,-89.47 1159,-89.47 1159,-70.47 1124,-70.47"/>
<text text-anchor="middle" x="1141.5" y="-77.47" font-family="Helvetica,sans-Serif" font-size="10.00">KSP</text>
</a>
</g>
</g>
<!-- Node22&#45;&gt;Node13 -->
<g id="edge21" class="edge">
<title>Node22&#45;&gt;Node13</title>
<path fill="none" stroke="#9a32cd" stroke-dasharray="5,2" d="M1169.47,-78.09C1228.27,-74.61 1365.29,-70.1 1397,-100.97 1423.27,-126.54 1390.64,-237.57 1415,-264.97 1422.03,-272.88 1431.64,-277.84 1441.81,-280.89"/>
<polygon fill="#9a32cd" stroke="#9a32cd" points="1168.88,-74.62 1159.12,-78.74 1169.32,-81.6 1168.88,-74.62"/>
<text text-anchor="middle" x="1329" y="-103.97" font-family="Helvetica,sans-Serif" font-size="10.00"> ksp</text>
</g>
<!-- Node23 -->
<g id="node23" class="node">
<title>Node23</title>
<g id="a_node23"><a xlink:title=" ">
<polygon fill="white" stroke="#bfbfbf" points="1104.5,-32.47 1104.5,-51.47 1178.5,-51.47 1178.5,-32.47 1104.5,-32.47"/>
<text text-anchor="middle" x="1141.5" y="-39.47" font-family="Helvetica,sans-Serif" font-size="10.00">KSPContext</text>
</a>
</g>
</g>
<!-- Node23&#45;&gt;Node13 -->
<g id="edge22" class="edge">
<title>Node23&#45;&gt;Node13</title>
<path fill="none" stroke="#9a32cd" stroke-dasharray="5,2" d="M1186.24,-30.11C1243.15,-17.63 1341.81,-6.52 1397,-60.97 1429.4,-92.93 1385.12,-230.64 1415,-264.97 1421.95,-272.95 1431.51,-277.95 1441.67,-281"/>
<polygon fill="#9a32cd" stroke="#9a32cd" points="1185.42,-26.71 1176.46,-32.36 1186.99,-33.53 1185.42,-26.71"/>
<text text-anchor="middle" x="1329" y="-63.97" font-family="Helvetica,sans-Serif" font-size="10.00"> ksp_ctx</text>
</g>
<!-- Node24&#45;&gt;Node12 -->
<g id="edge25" class="edge">
<title>Node24&#45;&gt;Node12</title>
<path fill="none" stroke="midnightblue" d="M1528.75,-536.86C1603.73,-500.68 1801.37,-405.32 1864.97,-374.63"/>
<polygon fill="midnightblue" stroke="midnightblue" points="1526.9,-533.86 1519.41,-541.36 1529.94,-540.17 1526.9,-533.86"/>
</g>
<!-- Node25 -->
<g id="node25" class="node">
<title>Node25</title>
<g id="a_node25"><a xlink:title=" ">
<polygon fill="white" stroke="#bfbfbf" points="1120.5,-695.47 1120.5,-714.47 1162.5,-714.47 1162.5,-695.47 1120.5,-695.47"/>
<text text-anchor="middle" x="1141.5" y="-702.47" font-family="Helvetica,sans-Serif" font-size="10.00">SNES</text>
</a>
</g>
</g>
<!-- Node25&#45;&gt;Node24 -->
<g id="edge27" class="edge">
<title>Node25&#45;&gt;Node24</title>
<path fill="none" stroke="#9a32cd" stroke-dasharray="5,2" d="M1173.05,-704.8C1232.04,-703.99 1359.19,-699.8 1397,-678.97 1447.98,-650.89 1481.99,-585.12 1493.33,-560.5"/>
<polygon fill="#9a32cd" stroke="#9a32cd" points="1172.82,-701.3 1162.86,-704.91 1172.9,-708.3 1172.82,-701.3"/>
<text text-anchor="middle" x="1329" y="-704.97" font-family="Helvetica,sans-Serif" font-size="10.00"> snes</text>
</g>
<!-- Node26 -->
<g id="node26" class="node">
<title>Node26</title>
<g id="a_node26"><a xlink:title=" ">
<polygon fill="white" stroke="#bfbfbf" points="1101.5,-657.47 1101.5,-676.47 1181.5,-676.47 1181.5,-657.47 1101.5,-657.47"/>
<text text-anchor="middle" x="1141.5" y="-664.47" font-family="Helvetica,sans-Serif" font-size="10.00">SNESContext</text>
</a>
</g>
</g>
<!-- Node26&#45;&gt;Node24 -->
<g id="edge30" class="edge">
<title>Node26&#45;&gt;Node24</title>
<path fill="none" stroke="#9a32cd" stroke-dasharray="5,2" d="M1191.83,-667.56C1244.66,-666.5 1329.94,-659.83 1397,-630.97 1436.13,-614.13 1472.81,-577.89 1488.92,-560.57"/>
<polygon fill="#9a32cd" stroke="#9a32cd" points="1191.66,-664.07 1181.71,-667.71 1191.76,-671.07 1191.66,-664.07"/>
<text text-anchor="middle" x="1329" y="-666.97" font-family="Helvetica,sans-Serif" font-size="10.00"> snes_ctx</text>
</g>
<!-- Node27&#45;&gt;Node12 -->
<g id="edge31" class="edge">
<title>Node27&#45;&gt;Node12</title>
<path fill="none" stroke="midnightblue" d="M1562.67,-364.97C1635.29,-364.97 1753.64,-364.97 1824.93,-364.97"/>
<polygon fill="midnightblue" stroke="midnightblue" points="1562.29,-361.47 1552.29,-364.97 1562.29,-368.47 1562.29,-361.47"/>
</g>
<!-- Node28 -->
<g id="node28" class="node">
<title>Node28</title>
<g id="a_node28"><a xlink:title=" ">
<polygon fill="white" stroke="#bfbfbf" points="1109,-271.47 1109,-290.47 1174,-290.47 1174,-271.47 1109,-271.47"/>
<text text-anchor="middle" x="1141.5" y="-278.47" font-family="Helvetica,sans-Serif" font-size="10.00">PetscReal</text>
</a>
</g>
</g>
<!-- Node28&#45;&gt;Node27 -->
<g id="edge34" class="edge">
<title>Node28&#45;&gt;Node27</title>
<path fill="none" stroke="#9a32cd" stroke-dasharray="5,2" d="M1184.47,-273.96C1236.28,-267.13 1326.21,-261.23 1397,-287.97 1406.74,-291.65 1406.83,-296.51 1415,-302.97 1439.02,-321.98 1467.76,-343.26 1484.2,-355.29"/>
<polygon fill="#9a32cd" stroke="#9a32cd" points="1183.74,-270.53 1174.32,-275.38 1184.71,-277.46 1183.74,-270.53"/>
<text text-anchor="middle" x="1329" y="-323.97" font-family="Helvetica,sans-Serif" font-size="10.00"> ts_a</text>
<text text-anchor="middle" x="1329" y="-312.97" font-family="Helvetica,sans-Serif" font-size="10.00">ts_t</text>
<text text-anchor="middle" x="1329" y="-301.97" font-family="Helvetica,sans-Serif" font-size="10.00">ts_dt</text>
<text text-anchor="middle" x="1329" y="-290.97" font-family="Helvetica,sans-Serif" font-size="10.00">ts_aa</text>
</g>
<!-- Node29 -->
<g id="node29" class="node">
<title>Node29</title>
<g id="a_node29"><a xlink:title=" ">
<polygon fill="white" stroke="#bfbfbf" points="1108,-423.47 1108,-442.47 1175,-442.47 1175,-423.47 1108,-423.47"/>
<text text-anchor="middle" x="1141.5" y="-430.47" font-family="Helvetica,sans-Serif" font-size="10.00">TSContext</text>
</a>
</g>
</g>
<!-- Node29&#45;&gt;Node27 -->
<g id="edge35" class="edge">
<title>Node29&#45;&gt;Node27</title>
<path fill="none" stroke="#9a32cd" stroke-dasharray="5,2" d="M1185.09,-431.12C1236.09,-428.19 1323.81,-420.83 1397,-402.97 1425.45,-396.02 1456.8,-383.31 1476.8,-374.51"/>
<polygon fill="#9a32cd" stroke="#9a32cd" points="1184.88,-427.63 1175.09,-431.67 1185.26,-434.62 1184.88,-427.63"/>
<text text-anchor="middle" x="1329" y="-427.97" font-family="Helvetica,sans-Serif" font-size="10.00"> ts_ctx</text>
</g>
<!-- Node30 -->
<g id="node30" class="node">
<title>Node30</title>
<g id="a_node30"><a xlink:title=" ">
<polygon fill="white" stroke="#bfbfbf" points="1113.5,-385.47 1113.5,-404.47 1169.5,-404.47 1169.5,-385.47 1113.5,-385.47"/>
<text text-anchor="middle" x="1141.5" y="-392.47" font-family="Helvetica,sans-Serif" font-size="10.00">PetscInt</text>
</a>
</g>
</g>
<!-- Node30&#45;&gt;Node27 -->
<g id="edge36" class="edge">
<title>Node30&#45;&gt;Node27</title>
<path fill="none" stroke="#9a32cd" stroke-dasharray="5,2" d="M1179.91,-392.89C1229.57,-390 1319.97,-384.29 1397,-376.97 1412.57,-375.49 1429.46,-373.59 1444.87,-371.74"/>
<polygon fill="#9a32cd" stroke="#9a32cd" points="1179.44,-389.41 1169.65,-393.48 1179.84,-396.4 1179.44,-389.41"/>
<text text-anchor="middle" x="1329" y="-390.97" font-family="Helvetica,sans-Serif" font-size="10.00"> ts_step</text>
</g>
<!-- Node31 -->
<g id="node31" class="node">
<title>Node31</title>
<g id="a_node31"><a xlink:title=" ">
<polygon fill="white" stroke="#bfbfbf" points="1127,-347.47 1127,-366.47 1156,-366.47 1156,-347.47 1127,-347.47"/>
<text text-anchor="middle" x="1141.5" y="-354.47" font-family="Helvetica,sans-Serif" font-size="10.00">TS</text>
</a>
</g>
</g>
<!-- Node31&#45;&gt;Node27 -->
<g id="edge38" class="edge">
<title>Node31&#45;&gt;Node27</title>
<path fill="none" stroke="#9a32cd" stroke-dasharray="5,2" d="M1166.58,-357.51C1223.4,-358.79 1366.9,-362.03 1444.96,-363.79"/>
<polygon fill="#9a32cd" stroke="#9a32cd" points="1166.49,-354.01 1156.42,-357.28 1166.33,-361.01 1166.49,-354.01"/>
<text text-anchor="middle" x="1329" y="-365.97" font-family="Helvetica,sans-Serif" font-size="10.00"> ts</text>
</g>
<!-- Node32 -->
<g id="node32" class="node">
<title>Node32</title>
<g id="a_node32"><a xlink:title=" ">
<polygon fill="white" stroke="#bfbfbf" points="1454,-236.47 1454,-255.47 1543,-255.47 1543,-236.47 1454,-236.47"/>
<text text-anchor="middle" x="1498.5" y="-243.47" font-family="Helvetica,sans-Serif" font-size="10.00">pair&lt; int, int &gt;</text>
</a>
</g>
</g>
<!-- Node32&#45;&gt;Node12 -->
<g id="edge40" class="edge">
<title>Node32&#45;&gt;Node12</title>
<path fill="none" stroke="#9a32cd" stroke-dasharray="5,2" d="M1553.01,-239.26C1615.16,-234.57 1717.29,-236.89 1781,-290.97 1800.29,-307.34 1780.3,-327.93 1799,-344.97 1806.25,-351.58 1815.25,-356.13 1824.68,-359.24"/>
<polygon fill="#9a32cd" stroke="#9a32cd" points="1552.68,-235.78 1543.01,-240.1 1553.27,-242.75 1552.68,-235.78"/>
<text text-anchor="middle" x="1690.5" y="-293.97" font-family="Helvetica,sans-Serif" font-size="10.00"> loHiFERank</text>
</g>
<!-- Node33 -->
<g id="node33" class="node">
<title>Node33</title>
<g id="a_node33"><a xlink:title=" ">
<polygon fill="white" stroke="#bfbfbf" points="1428.5,-198.47 1428.5,-217.47 1568.5,-217.47 1568.5,-198.47 1428.5,-198.47"/>
<text text-anchor="middle" x="1498.5" y="-205.47" font-family="Helvetica,sans-Serif" font-size="10.00">weak_ptr&lt; CacheTuple &gt;</text>
</a>
</g>
</g>
<!-- Node33&#45;&gt;Node12 -->
<g id="edge41" class="edge">
<title>Node33&#45;&gt;Node12</title>
<path fill="none" stroke="#9a32cd" stroke-dasharray="5,2" d="M1578.69,-201.46C1651.5,-197.32 1752.36,-196.88 1781,-222.97 1821.52,-259.88 1761.87,-304.66 1799,-344.97 1805.96,-352.52 1815.17,-357.49 1824.97,-360.71"/>
<polygon fill="#9a32cd" stroke="#9a32cd" points="1578.38,-197.97 1568.61,-202.06 1578.8,-204.96 1578.38,-197.97"/>
<text text-anchor="middle" x="1690.5" y="-225.97" font-family="Helvetica,sans-Serif" font-size="10.00"> cacheWeakPtr</text>
</g>
<!-- Node34 -->
<g id="node34" class="node">
<title>Node34</title>
<g id="a_node34"><a xlink:title=" ">
<polygon fill="white" stroke="#bfbfbf" points="1442.5,-159.47 1442.5,-178.47 1554.5,-178.47 1554.5,-159.47 1442.5,-159.47"/>
<text text-anchor="middle" x="1498.5" y="-166.47" font-family="Helvetica,sans-Serif" font-size="10.00">unique_ptr&lt; bool &gt;</text>
</a>
</g>
</g>
<!-- Node34&#45;&gt;Node12 -->
<g id="edge42" class="edge">
<title>Node34&#45;&gt;Node12</title>
<path fill="none" stroke="#9a32cd" stroke-dasharray="5,2" d="M1564.63,-160.61C1637.88,-152.81 1750.58,-146.09 1781,-173.97 1809.17,-199.79 1773.7,-316.33 1799,-344.97 1805.8,-352.67 1814.93,-357.7 1824.71,-360.95"/>
<polygon fill="#9a32cd" stroke="#9a32cd" points="1564.13,-157.15 1554.57,-161.72 1564.9,-164.11 1564.13,-157.15"/>
<text text-anchor="middle" x="1690.5" y="-187.97" font-family="Helvetica,sans-Serif" font-size="10.00"> matAssembleSwitch</text>
<text text-anchor="middle" x="1690.5" y="-176.97" font-family="Helvetica,sans-Serif" font-size="10.00">vecAssembleSwitch</text>
</g>
<!-- Node35 -->
<g id="node35" class="node">
<title>Node35</title>
<g id="a_node35"><a xlink:title=" ">
<polygon fill="white" stroke="#bfbfbf" points="1127,-948.47 1127,-967.47 1156,-967.47 1156,-948.47 1127,-948.47"/>
<text text-anchor="middle" x="1141.5" y="-955.47" font-family="Helvetica,sans-Serif" font-size="10.00">int</text>
</a>
</g>
</g>
<!-- Node35&#45;&gt;Node1 -->
<g id="edge87" class="edge">
<title>Node35&#45;&gt;Node1</title>
<path fill="none" stroke="#9a32cd" stroke-dasharray="5,2" d="M1165.53,-966.29C1189.4,-976.24 1225.63,-995.38 1243,-1024.97 1268.62,-1068.6 1224.17,-1217.27 1261,-1251.97 1278.67,-1268.62 2110.74,-1267.94 2135,-1268.97 2278.29,-1275.03 2313.58,-1289.97 2457,-1289.97 2457,-1289.97 2457,-1289.97 2923,-1289.97 3141.48,-1289.97 3174.33,-901.08 3178.83,-819.05"/>
<polygon fill="#9a32cd" stroke="#9a32cd" points="1166.73,-963 1156.14,-962.58 1164.15,-969.51 1166.73,-963"/>
<text text-anchor="middle" x="2256" y="-1289.97" font-family="Helvetica,sans-Serif" font-size="10.00"> iNdex</text>
</g>
<!-- Node35&#45;&gt;Node12 -->
<g id="edge43" class="edge">
<title>Node35&#45;&gt;Node12</title>
<path fill="none" stroke="#9a32cd" stroke-dasharray="5,2" d="M1166.54,-958.21C1188.08,-957.37 1219.77,-953.44 1243,-938.97 1254.32,-931.92 1250.25,-922.86 1261,-914.97 1312.67,-877.04 1342.95,-901.42 1397,-866.97 1632.73,-716.7 1838.79,-431.24 1878.22,-374.8"/>
<polygon fill="#9a32cd" stroke="#9a32cd" points="1166.23,-954.72 1156.3,-958.41 1166.36,-961.72 1166.23,-954.72"/>
<text text-anchor="middle" x="1498.5" y="-884.97" font-family="Helvetica,sans-Serif" font-size="10.00"> sIze</text>
<text text-anchor="middle" x="1498.5" y="-873.97" font-family="Helvetica,sans-Serif" font-size="10.00">loopSize</text>
<text text-anchor="middle" x="1498.5" y="-862.97" font-family="Helvetica,sans-Serif" font-size="10.00">nInTheLoop</text>
<text text-anchor="middle" x="1498.5" y="-851.97" font-family="Helvetica,sans-Serif" font-size="10.00">rAnk</text>
</g>
<!-- Node35&#45;&gt;Node37 -->
<g id="edge55" class="edge">
<title>Node35&#45;&gt;Node37</title>
<path fill="none" stroke="#9a32cd" stroke-dasharray="5,2" d="M1166.6,-955.6C1190.52,-953.38 1228.25,-950.21 1261,-948.97 1321.4,-946.68 1336.57,-947.77 1397,-948.97 1413.93,-949.31 1432.46,-949.96 1448.95,-950.65"/>
<polygon fill="#9a32cd" stroke="#9a32cd" points="1165.97,-952.14 1156.35,-956.58 1166.63,-959.11 1165.97,-952.14"/>
<text text-anchor="middle" x="1329" y="-1017.97" font-family="Helvetica,sans-Serif" font-size="10.00"> tagNameSize</text>
<text text-anchor="middle" x="1329" y="-1006.97" font-family="Helvetica,sans-Serif" font-size="10.00">nbDofsRow</text>
<text text-anchor="middle" x="1329" y="-995.97" font-family="Helvetica,sans-Serif" font-size="10.00">nbLocDofsCol</text>
<text text-anchor="middle" x="1329" y="-984.97" font-family="Helvetica,sans-Serif" font-size="10.00">nbDofsCol</text>
<text text-anchor="middle" x="1329" y="-973.97" font-family="Helvetica,sans-Serif" font-size="10.00">nbGhostDofsRow</text>
<text text-anchor="middle" x="1329" y="-962.97" font-family="Helvetica,sans-Serif" font-size="10.00">nbGhostDofsCol</text>
<text text-anchor="middle" x="1329" y="-951.97" font-family="Helvetica,sans-Serif" font-size="10.00">nbLocDofsRow</text>
</g>
<!-- Node36 -->
<g id="node36" class="node">
<title>Node36</title>
<g id="a_node36"><a xlink:title=" ">
<polygon fill="white" stroke="#bfbfbf" points="1415,-103.47 1415,-122.47 1582,-122.47 1582,-103.47 1415,-103.47"/>
<text text-anchor="middle" x="1498.5" y="-110.47" font-family="Helvetica,sans-Serif" font-size="10.00">function&lt; MoFEMErrorCode()&gt;</text>
</a>
</g>
</g>
<!-- Node36&#45;&gt;Node12 -->
<g id="edge44" class="edge">
<title>Node36&#45;&gt;Node12</title>
<path fill="none" stroke="#9a32cd" stroke-dasharray="5,2" d="M1534.68,-100.26C1594.03,-81.32 1714.09,-54.24 1781,-116.97 1818.08,-151.73 1765.85,-306.44 1799,-344.97 1805.8,-352.87 1815.05,-357.99 1824.98,-361.24"/>
<polygon fill="#9a32cd" stroke="#9a32cd" points="1533.41,-96.99 1525.01,-103.44 1535.61,-103.64 1533.41,-96.99"/>
<text text-anchor="middle" x="1690.5" y="-141.97" font-family="Helvetica,sans-Serif" font-size="10.00"> preProcessHook</text>
<text text-anchor="middle" x="1690.5" y="-130.97" font-family="Helvetica,sans-Serif" font-size="10.00">operatorHook</text>
<text text-anchor="middle" x="1690.5" y="-119.97" font-family="Helvetica,sans-Serif" font-size="10.00">postProcessHook</text>
</g>
<!-- Node37&#45;&gt;Node12 -->
<g id="edge45" class="edge">
<title>Node37&#45;&gt;Node12</title>
<path fill="none" stroke="#9a32cd" stroke-dasharray="5,2" d="M1558.2,-959.54C1623.22,-963.2 1726.12,-957.56 1781,-894.97 1799.29,-874.11 1793.91,-673.24 1799,-645.97 1819.41,-536.64 1867.42,-409.74 1881.23,-374.48"/>
<polygon fill="#9a32cd" stroke="#9a32cd" points="1558.31,-956.04 1548.1,-958.88 1557.85,-963.03 1558.31,-956.04"/>
<text text-anchor="middle" x="1690.5" y="-962.97" font-family="Helvetica,sans-Serif" font-size="10.00"> problemPtr</text>
</g>
<!-- Node38 -->
<g id="node38" class="node">
<title>Node38</title>
<g id="a_node38"><a xlink:title=" ">
<polygon fill="white" stroke="#bfbfbf" points="1058,-898.97 1058,-928.97 1225,-928.97 1225,-898.97 1058,-898.97"/>
<text text-anchor="start" x="1066" y="-916.97" font-family="Helvetica,sans-Serif" font-size="10.00">shared_ptr&lt; NumeredEntFinite</text>
<text text-anchor="middle" x="1141.5" y="-905.97" font-family="Helvetica,sans-Serif" font-size="10.00">Element_multiIndex &gt;</text>
</a>
</g>
</g>
<!-- Node38&#45;&gt;Node37 -->
<g id="edge46" class="edge">
<title>Node38&#45;&gt;Node37</title>
<path fill="none" stroke="#9a32cd" stroke-dasharray="5,2" d="M1235.17,-917.5C1283.56,-920.11 1343.65,-924.54 1397,-931.97 1417.3,-934.79 1439.65,-939.32 1458.1,-943.45"/>
<polygon fill="#9a32cd" stroke="#9a32cd" points="1235.2,-914 1225.03,-916.97 1234.84,-920.99 1235.2,-914"/>
<text text-anchor="middle" x="1329" y="-934.97" font-family="Helvetica,sans-Serif" font-size="10.00"> numeredFiniteElementsPtr</text>
</g>
<!-- Node39 -->
<g id="node39" class="node">
<title>Node39</title>
<g id="a_node39"><a xlink:title=" ">
<polygon fill="white" stroke="#bfbfbf" points="1112,-859.47 1112,-878.47 1171,-878.47 1171,-859.47 1112,-859.47"/>
<text text-anchor="middle" x="1141.5" y="-866.47" font-family="Helvetica,sans-Serif" font-size="10.00">BitFEId *</text>
</a>
</g>
</g>
<!-- Node39&#45;&gt;Node37 -->
<g id="edge47" class="edge">
<title>Node39&#45;&gt;Node37</title>
<path fill="none" stroke="#9a32cd" stroke-dasharray="5,2" d="M1181.51,-865.25C1234.29,-862.12 1329.61,-863.42 1397,-903.97 1408.73,-911.03 1403.82,-921.07 1415,-928.97 1424.99,-936.03 1437.05,-941.02 1448.82,-944.56"/>
<polygon fill="#9a32cd" stroke="#9a32cd" points="1180.97,-861.78 1171.23,-865.94 1181.44,-868.76 1180.97,-861.78"/>
<text text-anchor="middle" x="1329" y="-906.97" font-family="Helvetica,sans-Serif" font-size="10.00"> tagBitFEId</text>
</g>
<!-- Node40 -->
<g id="node40" class="node">
<title>Node40</title>
<g id="a_node40"><a xlink:href="classEntityHandle.html" target="_top" xlink:title=" ">
<polygon fill="white" stroke="black" points="1101.5,-821.47 1101.5,-840.47 1181.5,-840.47 1181.5,-821.47 1101.5,-821.47"/>
<text text-anchor="middle" x="1141.5" y="-828.47" font-family="Helvetica,sans-Serif" font-size="10.00">EntityHandle</text>
</a>
</g>
</g>
<!-- Node40&#45;&gt;Node37 -->
<g id="edge48" class="edge">
<title>Node40&#45;&gt;Node37</title>
<path fill="none" stroke="#9a32cd" stroke-dasharray="5,2" d="M1190.59,-819.47C1247.02,-809.06 1340.1,-801.95 1397,-850.97 1423.95,-874.19 1390.56,-903.11 1415,-928.97 1423.91,-938.4 1436.3,-944.19 1448.76,-947.73"/>
<polygon fill="#9a32cd" stroke="#9a32cd" points="1189.64,-816.09 1180.49,-821.44 1190.98,-822.96 1189.64,-816.09"/>
<text text-anchor="middle" x="1329" y="-853.97" font-family="Helvetica,sans-Serif" font-size="10.00"> meshset</text>
</g>
<!-- Node41 -->
<g id="node41" class="node">
<title>Node41</title>
<g id="a_node41"><a xlink:title=" ">
<polygon fill="white" stroke="#bfbfbf" points="1067,-771.97 1067,-801.97 1216,-801.97 1216,-771.97 1067,-771.97"/>
<text text-anchor="start" x="1075" y="-789.97" font-family="Helvetica,sans-Serif" font-size="10.00">shared_ptr&lt; MoFEM::</text>
<text text-anchor="middle" x="1141.5" y="-778.97" font-family="Helvetica,sans-Serif" font-size="10.00">ComposedProblemsData &gt;</text>
</a>
</g>
</g>
<!-- Node41&#45;&gt;Node37 -->
<g id="edge49" class="edge">
<title>Node41&#45;&gt;Node37</title>
<path fill="none" stroke="#9a32cd" stroke-dasharray="5,2" d="M1226.19,-778.77C1290.61,-774.44 1372.62,-773.89 1397,-795.97 1441.22,-836.01 1376.07,-883.78 1415,-928.97 1423.57,-938.91 1435.99,-944.86 1448.61,-948.38"/>
<polygon fill="#9a32cd" stroke="#9a32cd" points="1225.74,-775.29 1216.02,-779.49 1226.24,-782.27 1225.74,-775.29"/>
<text text-anchor="middle" x="1329" y="-798.97" font-family="Helvetica,sans-Serif" font-size="10.00"> composedProblemsData</text>
</g>
<!-- Node42 -->
<g id="node42" class="node">
<title>Node42</title>
<g id="a_node42"><a xlink:title=" ">
<polygon fill="white" stroke="#bfbfbf" points="1101,-733.47 1101,-752.47 1182,-752.47 1182,-733.47 1101,-733.47"/>
<text text-anchor="middle" x="1141.5" y="-740.47" font-family="Helvetica,sans-Serif" font-size="10.00">BitRefLevel *</text>
</a>
</g>
</g>
<!-- Node42&#45;&gt;Node37 -->
<g id="edge50" class="edge">
<title>Node42&#45;&gt;Node37</title>
<path fill="none" stroke="#9a32cd" stroke-dasharray="5,2" d="M1192.3,-736.92C1257.92,-730.17 1368.39,-723.36 1397,-749.97 1426.28,-777.19 1389.43,-898.24 1415,-928.97 1423.49,-939.17 1436.05,-945.18 1448.82,-948.68"/>
<polygon fill="#9a32cd" stroke="#9a32cd" points="1191.74,-733.46 1182.17,-738 1192.48,-740.42 1191.74,-733.46"/>
<text text-anchor="middle" x="1329" y="-763.97" font-family="Helvetica,sans-Serif" font-size="10.00"> tagBitRefLevelMask</text>
<text text-anchor="middle" x="1329" y="-752.97" font-family="Helvetica,sans-Serif" font-size="10.00">tagBitRefLevel</text>
</g>
<!-- Node43 -->
<g id="node43" class="node">
<title>Node43</title>
<g id="a_node43"><a xlink:title=" ">
<polygon fill="white" stroke="#bfbfbf" points="1056.5,-1198.97 1056.5,-1228.97 1226.5,-1228.97 1226.5,-1198.97 1056.5,-1198.97"/>
<text text-anchor="start" x="1064.5" y="-1216.97" font-family="Helvetica,sans-Serif" font-size="10.00">shared_ptr&lt; NumeredDofEntity</text>
<text text-anchor="middle" x="1141.5" y="-1205.97" font-family="Helvetica,sans-Serif" font-size="10.00">_multiIndex &gt;</text>
</a>
</g>
</g>
<!-- Node43&#45;&gt;Node37 -->
<g id="edge51" class="edge">
<title>Node43&#45;&gt;Node37</title>
<path fill="none" stroke="#9a32cd" stroke-dasharray="5,2" d="M1236.83,-1199.29C1308.58,-1188.04 1395.33,-1174.24 1397,-1172.97 1469.48,-1117.75 1491.3,-998.07 1496.26,-962.89"/>
<polygon fill="#9a32cd" stroke="#9a32cd" points="1236.15,-1195.85 1226.81,-1200.86 1237.23,-1202.77 1236.15,-1195.85"/>
<text text-anchor="middle" x="1329" y="-1208.97" font-family="Helvetica,sans-Serif" font-size="10.00"> numeredRowDofsPtr</text>
<text text-anchor="middle" x="1329" y="-1197.97" font-family="Helvetica,sans-Serif" font-size="10.00">numeredColDofsPtr</text>
</g>
<!-- Node44 -->
<g id="node44" class="node">
<title>Node44</title>
<g id="a_node44"><a xlink:title=" ">
<polygon fill="white" stroke="#bfbfbf" points="1072.5,-1160.47 1072.5,-1179.47 1210.5,-1179.47 1210.5,-1160.47 1072.5,-1160.47"/>
<text text-anchor="middle" x="1141.5" y="-1167.47" font-family="Helvetica,sans-Serif" font-size="10.00">vector&lt; BlockFieldPair &gt;</text>
</a>
</g>
</g>
<!-- Node44&#45;&gt;Node37 -->
<g id="edge53" class="edge">
<title>Node44&#45;&gt;Node37</title>
<path fill="none" stroke="#9a32cd" stroke-dasharray="5,2" d="M1220.73,-1164.06C1290.08,-1158.24 1382.56,-1148.81 1397,-1138.97 1461.9,-1094.73 1488.52,-994.48 1495.51,-962.77"/>
<polygon fill="#9a32cd" stroke="#9a32cd" points="1220.36,-1160.58 1210.68,-1164.9 1220.93,-1167.56 1220.36,-1160.58"/>
<text text-anchor="middle" x="1329" y="-1161.97" font-family="Helvetica,sans-Serif" font-size="10.00"> emptyFieldBlocks</text>
</g>
<!-- Node45 -->
<g id="node45" class="node">
<title>Node45</title>
<g id="a_node45"><a xlink:title=" ">
<polygon fill="white" stroke="#bfbfbf" points="1063.5,-1110.97 1063.5,-1140.97 1219.5,-1140.97 1219.5,-1110.97 1063.5,-1110.97"/>
<text text-anchor="start" x="1071.5" y="-1128.97" font-family="Helvetica,sans-Serif" font-size="10.00">shared_ptr&lt; MoFEM::</text>
<text text-anchor="middle" x="1141.5" y="-1117.97" font-family="Helvetica,sans-Serif" font-size="10.00">Problem::SubProblemData &gt;</text>
</a>
</g>
</g>
<!-- Node45&#45;&gt;Node37 -->
<g id="edge54" class="edge">
<title>Node45&#45;&gt;Node37</title>
<path fill="none" stroke="#9a32cd" stroke-dasharray="5,2" d="M1229.95,-1125.98C1292.2,-1124.52 1369.48,-1119.29 1397,-1102.97 1453.62,-1069.39 1484.98,-989.96 1494.42,-962.51"/>
<polygon fill="#9a32cd" stroke="#9a32cd" points="1229.63,-1122.48 1219.71,-1126.19 1229.78,-1129.48 1229.63,-1122.48"/>
<text text-anchor="middle" x="1329" y="-1126.97" font-family="Helvetica,sans-Serif" font-size="10.00"> subProblemData</text>
</g>
<!-- Node46 -->
<g id="node46" class="node">
<title>Node46</title>
<g id="a_node46"><a xlink:title=" ">
<polygon fill="white" stroke="#bfbfbf" points="1040,-1072.47 1040,-1091.47 1243,-1091.47 1243,-1072.47 1040,-1072.47"/>
<text text-anchor="middle" x="1141.5" y="-1079.47" font-family="Helvetica,sans-Serif" font-size="10.00">shared_ptr&lt; SequenceDofContainer &gt;</text>
</a>
</g>
</g>
<!-- Node46&#45;&gt;Node37 -->
<g id="edge56" class="edge">
<title>Node46&#45;&gt;Node37</title>
<path fill="none" stroke="#9a32cd" stroke-dasharray="5,2" d="M1253.32,-1078.07C1309.82,-1074.62 1371.81,-1068.13 1397,-1055.97 1442,-1034.25 1478.03,-983.6 1491.64,-962.48"/>
<polygon fill="#9a32cd" stroke="#9a32cd" points="1252.99,-1074.58 1243.21,-1078.66 1253.4,-1081.57 1252.99,-1074.58"/>
<text text-anchor="middle" x="1329" y="-1090.97" font-family="Helvetica,sans-Serif" font-size="10.00"> sequenceRowDofContainer</text>
<text text-anchor="middle" x="1329" y="-1079.97" font-family="Helvetica,sans-Serif" font-size="10.00">sequenceColDofContainer</text>
</g>
<!-- Node47 -->
<g id="node47" class="node">
<title>Node47</title>
<g id="a_node47"><a xlink:title=" ">
<polygon fill="white" stroke="#bfbfbf" points="1097.5,-1034.47 1097.5,-1053.47 1185.5,-1053.47 1185.5,-1034.47 1097.5,-1034.47"/>
<text text-anchor="middle" x="1141.5" y="-1041.47" font-family="Helvetica,sans-Serif" font-size="10.00">BitProblemId *</text>
</a>
</g>
</g>
<!-- Node47&#45;&gt;Node37 -->
<g id="edge57" class="edge">
<title>Node47&#45;&gt;Node37</title>
<path fill="none" stroke="#9a32cd" stroke-dasharray="5,2" d="M1195.76,-1043.63C1259.28,-1042.63 1361.32,-1038.97 1397,-1025.97 1435.3,-1012.02 1471.82,-978.88 1488.32,-962.49"/>
<polygon fill="#9a32cd" stroke="#9a32cd" points="1195.48,-1040.13 1185.53,-1043.77 1195.58,-1047.13 1195.48,-1040.13"/>
<text text-anchor="middle" x="1329" y="-1043.97" font-family="Helvetica,sans-Serif" font-size="10.00"> tagId</text>
</g>
<!-- Node48 -->
<g id="node48" class="node">
<title>Node48</title>
<g id="a_node48"><a xlink:title=" ">
<polygon fill="white" stroke="#bfbfbf" points="1805,-256.97 1805,-286.97 1967,-286.97 1967,-256.97 1805,-256.97"/>
<text text-anchor="start" x="1813" y="-274.97" font-family="Helvetica,sans-Serif" font-size="10.00">shared_ptr&lt; const MoFEM</text>
<text text-anchor="middle" x="1886" y="-263.97" font-family="Helvetica,sans-Serif" font-size="10.00">::NumeredEntFiniteElement &gt;</text>
</a>
</g>
</g>
<!-- Node48&#45;&gt;Node11 -->
<g id="edge58" class="edge">
<title>Node48&#45;&gt;Node11</title>
<path fill="none" stroke="#9a32cd" stroke-dasharray="5,2" d="M1977.38,-264.8C2030.95,-265.83 2095.82,-277.22 2135,-319.97 2186.94,-376.63 2100.86,-435.49 2153,-491.97 2165.52,-505.54 2184.37,-511.28 2202.47,-513.3"/>
<polygon fill="#9a32cd" stroke="#9a32cd" points="1977.2,-261.3 1967.17,-264.73 1977.15,-268.3 1977.2,-261.3"/>
<text text-anchor="middle" x="2063" y="-322.97" font-family="Helvetica,sans-Serif" font-size="10.00"> numeredEntFiniteElementPtr</text>
</g>
<!-- Node49 -->
<g id="node49" class="node">
<title>Node49</title>
<g id="a_node49"><a xlink:title=" ">
<polygon fill="white" stroke="#bfbfbf" points="1864,-943.47 1864,-962.47 1908,-962.47 1908,-943.47 1864,-943.47"/>
<text text-anchor="middle" x="1886" y="-950.47" font-family="Helvetica,sans-Serif" font-size="10.00">string</text>
</a>
</g>
</g>
<!-- Node49&#45;&gt;Node2 -->
<g id="edge81" class="edge">
<title>Node49&#45;&gt;Node2</title>
<path fill="none" stroke="#9a32cd" stroke-dasharray="5,2" d="M1918.5,-953.21C2057.87,-954.29 2621.73,-958.65 2836.96,-960.32"/>
<polygon fill="#9a32cd" stroke="#9a32cd" points="1918.15,-949.71 1908.12,-953.13 1918.1,-956.71 1918.15,-949.71"/>
<text text-anchor="middle" x="2458" y="-971.97" font-family="Helvetica,sans-Serif" font-size="10.00"> colFieldName</text>
<text text-anchor="middle" x="2458" y="-960.97" font-family="Helvetica,sans-Serif" font-size="10.00">rowFieldName</text>
</g>
<!-- Node49&#45;&gt;Node11 -->
<g id="edge59" class="edge">
<title>Node49&#45;&gt;Node11</title>
<path fill="none" stroke="#9a32cd" stroke-dasharray="5,2" d="M1918.28,-953.72C1936.95,-952.39 1959.56,-947.31 1973,-931.97 2022.19,-875.81 1943.25,-822.35 1991,-764.97 2033.72,-713.63 2092.64,-773.61 2135,-721.97 2162.18,-688.84 2124.1,-561.61 2153,-529.97 2165.45,-516.34 2184.28,-510.57 2202.39,-508.56"/>
<polygon fill="#9a32cd" stroke="#9a32cd" points="1917.98,-950.23 1908.13,-954.12 1918.26,-957.23 1917.98,-950.23"/>
<text text-anchor="middle" x="2063" y="-767.97" font-family="Helvetica,sans-Serif" font-size="10.00"> feName</text>
</g>
<!-- Node50 -->
<g id="node50" class="node">
<title>Node50</title>
<g id="a_node50"><a xlink:title=" ">
<polygon fill="white" stroke="#bfbfbf" points="1804.5,-305.97 1804.5,-335.97 1967.5,-335.97 1967.5,-305.97 1804.5,-305.97"/>
<text text-anchor="start" x="1812.5" y="-323.97" font-family="Helvetica,sans-Serif" font-size="10.00">function&lt; bool(MoFEM</text>
<text text-anchor="middle" x="1886" y="-312.97" font-family="Helvetica,sans-Serif" font-size="10.00">::FEMethod *fe_method_ptr)&gt;</text>
</a>
</g>
</g>
<!-- Node50&#45;&gt;Node11 -->
<g id="edge60" class="edge">
<title>Node50&#45;&gt;Node11</title>
<path fill="none" stroke="#9a32cd" stroke-dasharray="5,2" d="M1977.59,-330.62C2031.1,-341.13 2095.83,-363.1 2135,-408.97 2159.51,-437.67 2125.92,-465.67 2153,-491.97 2166.05,-504.64 2184.68,-510.27 2202.46,-512.45"/>
<polygon fill="#9a32cd" stroke="#9a32cd" points="1978.21,-327.17 1967.74,-328.79 1976.93,-334.06 1978.21,-327.17"/>
<text text-anchor="middle" x="2063" y="-411.97" font-family="Helvetica,sans-Serif" font-size="10.00"> exeTestHook</text>
</g>
<!-- Node51 -->
<g id="node51" class="node">
<title>Node51</title>
<g id="a_node51"><a xlink:href="classdouble.html" target="_top" xlink:title=" ">
<polygon fill="white" stroke="black" points="2231,-463.47 2231,-482.47 2281,-482.47 2281,-463.47 2231,-463.47"/>
<text text-anchor="middle" x="2256" y="-470.47" font-family="Helvetica,sans-Serif" font-size="10.00">double</text>
</a>
</g>
</g>
<!-- Node51&#45;&gt;Node10 -->
<g id="edge61" class="edge">
<title>Node51&#45;&gt;Node10</title>
<path fill="none" stroke="#9a32cd" stroke-dasharray="5,2" d="M2291.51,-469.43C2358.99,-463.35 2504.81,-454.54 2539,-487.97 2576.77,-524.89 2522.49,-684.99 2557,-724.97 2560.22,-728.7 2564.01,-731.79 2568.17,-734.34"/>
<polygon fill="#9a32cd" stroke="#9a32cd" points="2291.02,-465.96 2281.39,-470.38 2291.67,-472.93 2291.02,-465.96"/>
<text text-anchor="middle" x="2458" y="-490.97" font-family="Helvetica,sans-Serif" font-size="10.00"> elementMeasure</text>
</g>
<!-- Node52 -->
<g id="node52" class="node">
<title>Node52</title>
<g id="a_node52"><a xlink:title=" ">
<polygon fill="white" stroke="#bfbfbf" points="2170,-884.47 2170,-925.47 2342,-925.47 2342,-884.47 2170,-884.47"/>
<text text-anchor="start" x="2178" y="-913.47" font-family="Helvetica,sans-Serif" font-size="10.00">array&lt; boost::shared</text>
<text text-anchor="start" x="2178" y="-902.47" font-family="Helvetica,sans-Serif" font-size="10.00">_ptr&lt; MoFEM::EntitiesFieldData</text>
<text text-anchor="middle" x="2256" y="-891.47" font-family="Helvetica,sans-Serif" font-size="10.00"> &gt;, LASTSPACE &gt;</text>
</a>
</g>
</g>
<!-- Node52&#45;&gt;Node10 -->
<g id="edge62" class="edge">
<title>Node52&#45;&gt;Node10</title>
<path fill="none" stroke="#9a32cd" stroke-dasharray="5,2" d="M2352.17,-894.17C2430.75,-884.98 2530.71,-872.57 2539,-867.97 2588.97,-840.25 2624.32,-777.41 2636.42,-753.47"/>
<polygon fill="#9a32cd" stroke="#9a32cd" points="2351.74,-890.69 2342.21,-895.33 2352.55,-897.65 2351.74,-890.69"/>
<text text-anchor="middle" x="2458" y="-903.97" font-family="Helvetica,sans-Serif" font-size="10.00"> derivedDataOnElement</text>
<text text-anchor="middle" x="2458" y="-892.97" font-family="Helvetica,sans-Serif" font-size="10.00">dataOnElement</text>
</g>
<!-- Node53 -->
<g id="node53" class="node">
<title>Node53</title>
<g id="a_node53"><a xlink:title=" ">
<polygon fill="white" stroke="#bfbfbf" points="2222,-846.47 2222,-865.47 2290,-865.47 2290,-846.47 2222,-846.47"/>
<text text-anchor="middle" x="2256" y="-853.47" font-family="Helvetica,sans-Serif" font-size="10.00">EntityType</text>
</a>
</g>
</g>
<!-- Node53&#45;&gt;Node10 -->
<g id="edge63" class="edge">
<title>Node53&#45;&gt;Node10</title>
<path fill="none" stroke="#9a32cd" stroke-dasharray="5,2" d="M2300.81,-855.91C2369.05,-855.26 2497.25,-851.64 2539,-833.97 2581.63,-815.93 2618.77,-772.75 2633.84,-753.51"/>
<polygon fill="#9a32cd" stroke="#9a32cd" points="2300.36,-852.42 2290.39,-855.99 2300.42,-859.42 2300.36,-852.42"/>
<text text-anchor="middle" x="2458" y="-855.97" font-family="Helvetica,sans-Serif" font-size="10.00"> lastEvaluatedElementEntityType</text>
</g>
<!-- Node54 -->
<g id="node54" class="node">
<title>Node54</title>
<g id="a_node54"><a xlink:href="structMoFEM_1_1DeprecatedCoreInterface.html" target="_top" xlink:title="Deprecated interface functions.">
<polygon fill="white" stroke="black" points="1600,-1281.47 1600,-1300.47 1781,-1300.47 1781,-1281.47 1600,-1281.47"/>
<text text-anchor="middle" x="1690.5" y="-1288.47" font-family="Helvetica,sans-Serif" font-size="10.00">MoFEM::DeprecatedCoreInterface</text>
</a>
</g>
</g>
<!-- Node54&#45;&gt;Node10 -->
<g id="edge64" class="edge">
<title>Node54&#45;&gt;Node10</title>
<path fill="none" stroke="#9a32cd" stroke-dasharray="5,2" d="M1748.91,-1278.69C1759.8,-1275.5 1770.94,-1271.61 1781,-1266.97 1963.23,-1182.87 1972.35,-1098.41 2153,-1010.97 2246.77,-965.58 2275.69,-966.22 2377,-941.97 2448.06,-924.96 2478.73,-955.27 2539,-913.97 2599.19,-872.72 2629.64,-783.21 2638.33,-753.65"/>
<polygon fill="#9a32cd" stroke="#9a32cd" points="1747.71,-1275.39 1739.01,-1281.43 1749.58,-1282.14 1747.71,-1275.39"/>
<text text-anchor="middle" x="2063" y="-1121.97" font-family="Helvetica,sans-Serif" font-size="10.00"> mField</text>
</g>
<!-- Node55&#45;&gt;Node54 -->
<g id="edge65" class="edge">
<title>Node55&#45;&gt;Node54</title>
<path fill="none" stroke="midnightblue" d="M1214.39,-1276.2C1313.43,-1279.28 1491.78,-1284.82 1599.54,-1288.17"/>
<polygon fill="midnightblue" stroke="midnightblue" points="1214.29,-1272.7 1204.18,-1275.89 1214.07,-1279.7 1214.29,-1272.7"/>
</g>
<!-- Node56 -->
<g id="node56" class="node">
<title>Node56</title>
<g id="a_node56"><a xlink:title=" ">
<polygon fill="white" stroke="#bfbfbf" points="2172.5,-736.97 2172.5,-788.97 2339.5,-788.97 2339.5,-736.97 2172.5,-736.97"/>
<text text-anchor="start" x="2180.5" y="-776.97" font-family="Helvetica,sans-Serif" font-size="10.00">function&lt; MoFEMErrorCode</text>
<text text-anchor="start" x="2180.5" y="-765.97" font-family="Helvetica,sans-Serif" font-size="10.00">(ForcesAndSourcesCore *fe</text>
<text text-anchor="start" x="2180.5" y="-754.97" font-family="Helvetica,sans-Serif" font-size="10.00">_raw_ptr, int order_row,</text>
<text text-anchor="middle" x="2256" y="-743.97" font-family="Helvetica,sans-Serif" font-size="10.00"> int order_col, int order_data)&gt;</text>
</a>
</g>
</g>
<!-- Node56&#45;&gt;Node10 -->
<g id="edge68" class="edge">
<title>Node56&#45;&gt;Node10</title>
<path fill="none" stroke="#9a32cd" stroke-dasharray="5,2" d="M2349.73,-747.7C2358.92,-746.59 2368.13,-745.65 2377,-744.97 2436.98,-740.38 2504.85,-740.23 2556.76,-741.18"/>
<polygon fill="#9a32cd" stroke="#9a32cd" points="2349.26,-744.23 2339.77,-748.95 2350.13,-751.17 2349.26,-744.23"/>
<text text-anchor="middle" x="2458" y="-747.97" font-family="Helvetica,sans-Serif" font-size="10.00"> setRuleHook</text>
</g>
<!-- Node57 -->
<g id="node57" class="node">
<title>Node57</title>
<g id="a_node57"><a xlink:title=" ">
<polygon fill="white" stroke="#bfbfbf" points="2155,-687.97 2155,-717.97 2357,-717.97 2357,-687.97 2155,-687.97"/>
<text text-anchor="start" x="2163" y="-705.97" font-family="Helvetica,sans-Serif" font-size="10.00">ptr_deque&lt; MoFEM::Forces</text>
<text text-anchor="middle" x="2256" y="-694.97" font-family="Helvetica,sans-Serif" font-size="10.00">AndSourcesCore::UserDataOperator &gt;</text>
</a>
</g>
</g>
<!-- Node57&#45;&gt;Node10 -->
<g id="edge69" class="edge">
<title>Node57&#45;&gt;Node10</title>
<path fill="none" stroke="#9a32cd" stroke-dasharray="5,2" d="M2367.36,-709.58C2419.53,-713.31 2482.59,-718.71 2539,-725.97 2556.48,-728.22 2575.52,-731.38 2592.37,-734.43"/>
<polygon fill="#9a32cd" stroke="#9a32cd" points="2367.3,-706.06 2357.08,-708.85 2366.81,-713.05 2367.3,-706.06"/>
<text text-anchor="middle" x="2458" y="-728.97" font-family="Helvetica,sans-Serif" font-size="10.00"> opPtrVector</text>
</g>
<!-- Node58 -->
<g id="node58" class="node">
<title>Node58</title>
<g id="a_node58"><a xlink:href="structMoFEM_1_1EntitiesFieldData.html" target="_top" xlink:title="data structure for finite element entity">
<polygon fill="white" stroke="black" points="2185,-808.47 2185,-827.47 2327,-827.47 2327,-808.47 2185,-808.47"/>
<text text-anchor="middle" x="2256" y="-815.47" font-family="Helvetica,sans-Serif" font-size="10.00">MoFEM::EntitiesFieldData</text>
</a>
</g>
</g>
<!-- Node58&#45;&gt;Node10 -->
<g id="edge70" class="edge">
<title>Node58&#45;&gt;Node10</title>
<path fill="none" stroke="#9a32cd" stroke-dasharray="5,2" d="M2336.99,-808.37C2344.68,-805.89 2352.15,-802.81 2359,-798.97 2369.43,-793.12 2366.42,-784.54 2377,-778.97 2381.18,-776.77 2487.71,-763.1 2564.14,-753.51"/>
<polygon fill="#9a32cd" stroke="#9a32cd" points="2335.81,-805.06 2327.17,-811.18 2337.74,-811.79 2335.81,-805.06"/>
<text text-anchor="middle" x="2458" y="-825.97" font-family="Helvetica,sans-Serif" font-size="10.00"> dataNoField</text>
<text text-anchor="middle" x="2458" y="-814.97" font-family="Helvetica,sans-Serif" font-size="10.00">dataL2</text>
<text text-anchor="middle" x="2458" y="-803.97" font-family="Helvetica,sans-Serif" font-size="10.00">dataH1</text>
<text text-anchor="middle" x="2458" y="-792.97" font-family="Helvetica,sans-Serif" font-size="10.00">dataHcurl</text>
<text text-anchor="middle" x="2458" y="-781.97" font-family="Helvetica,sans-Serif" font-size="10.00">dataHdiv</text>
</g>
<!-- Node59 -->
<g id="node59" class="node">
<title>Node59</title>
<g id="a_node59"><a xlink:title=" ">
<polygon fill="white" stroke="#bfbfbf" points="1805,-804.97 1805,-834.97 1967,-834.97 1967,-804.97 1805,-804.97"/>
<text text-anchor="start" x="1813" y="-822.97" font-family="Helvetica,sans-Serif" font-size="10.00">array&lt; std::bitset</text>
<text text-anchor="middle" x="1886" y="-811.97" font-family="Helvetica,sans-Serif" font-size="10.00">&lt; LASTBASE &gt;, LASTSPACE &gt;</text>
</a>
</g>
</g>
<!-- Node59&#45;&gt;Node58 -->
<g id="edge71" class="edge">
<title>Node59&#45;&gt;Node58</title>
<path fill="none" stroke="#9a32cd" stroke-dasharray="5,2" d="M1977.39,-819.48C2041.35,-819.13 2125.88,-818.67 2184.79,-818.35"/>
<polygon fill="#9a32cd" stroke="#9a32cd" points="1977.29,-815.98 1967.3,-819.53 1977.32,-822.98 1977.29,-815.98"/>
<text text-anchor="middle" x="2063" y="-832.97" font-family="Helvetica,sans-Serif" font-size="10.00"> brokenBasesOnSpaces</text>
<text text-anchor="middle" x="2063" y="-821.97" font-family="Helvetica,sans-Serif" font-size="10.00">basesOnSpaces</text>
</g>
<!-- Node60 -->
<g id="node60" class="node">
<title>Node60</title>
<g id="a_node60"><a xlink:title=" ">
<polygon fill="white" stroke="#bfbfbf" points="1809.5,-744.47 1809.5,-785.47 1962.5,-785.47 1962.5,-744.47 1809.5,-744.47"/>
<text text-anchor="start" x="1817.5" y="-773.47" font-family="Helvetica,sans-Serif" font-size="10.00">array&lt; boost::ptr_vector</text>
<text text-anchor="start" x="1817.5" y="-762.47" font-family="Helvetica,sans-Serif" font-size="10.00">&lt; MoFEM::EntitiesFieldData</text>
<text text-anchor="middle" x="1886" y="-751.47" font-family="Helvetica,sans-Serif" font-size="10.00">::EntData &gt;, MBMAXTYPE &gt;</text>
</a>
</g>
</g>
<!-- Node60&#45;&gt;Node58 -->
<g id="edge72" class="edge">
<title>Node60&#45;&gt;Node58</title>
<path fill="none" stroke="#9a32cd" stroke-dasharray="5,2" d="M1972.76,-777.32C2038.69,-786.82 2128.42,-799.74 2188.86,-808.44"/>
<polygon fill="#9a32cd" stroke="#9a32cd" points="1973.2,-773.85 1962.8,-775.89 1972.2,-780.78 1973.2,-773.85"/>
<text text-anchor="middle" x="2063" y="-801.97" font-family="Helvetica,sans-Serif" font-size="10.00"> dataOnEntities</text>
</g>
<!-- Node61 -->
<g id="node61" class="node">
<title>Node61</title>
<g id="a_node61"><a xlink:title=" ">
<polygon fill="white" stroke="#bfbfbf" points="1799,-694.97 1799,-724.97 1973,-724.97 1973,-694.97 1799,-694.97"/>
<text text-anchor="start" x="1807" y="-712.97" font-family="Helvetica,sans-Serif" font-size="10.00">array&lt; std::bitset</text>
<text text-anchor="middle" x="1886" y="-701.97" font-family="Helvetica,sans-Serif" font-size="10.00">&lt; LASTSPACE &gt;, MBMAXTYPE &gt;</text>
</a>
</g>
</g>
<!-- Node61&#45;&gt;Node58 -->
<g id="edge73" class="edge">
<title>Node61&#45;&gt;Node58</title>
<path fill="none" stroke="#9a32cd" stroke-dasharray="5,2" d="M1983.37,-698.28C2042.94,-693.3 2112.22,-692.3 2135,-710.97 2165.88,-736.27 2124.52,-770.99 2153,-798.97 2161.74,-807.55 2173.03,-812.92 2184.9,-816.17"/>
<polygon fill="#9a32cd" stroke="#9a32cd" points="1982.8,-694.82 1973.14,-699.18 1983.41,-701.79 1982.8,-694.82"/>
<text text-anchor="middle" x="2063" y="-713.97" font-family="Helvetica,sans-Serif" font-size="10.00"> spacesOnEntities</text>
</g>
<!-- Node62 -->
<g id="node62" class="node">
<title>Node62</title>
<g id="a_node62"><a xlink:title=" ">
<polygon fill="white" stroke="#bfbfbf" points="1801.5,-853.97 1801.5,-883.97 1970.5,-883.97 1970.5,-853.97 1801.5,-853.97"/>
<text text-anchor="start" x="1809.5" y="-871.97" font-family="Helvetica,sans-Serif" font-size="10.00">array&lt; std::bitset</text>
<text text-anchor="middle" x="1886" y="-860.97" font-family="Helvetica,sans-Serif" font-size="10.00">&lt; LASTBASE &gt;, MBMAXTYPE &gt;</text>
</a>
</g>
</g>
<!-- Node62&#45;&gt;Node58 -->
<g id="edge74" class="edge">
<title>Node62&#45;&gt;Node58</title>
<path fill="none" stroke="#9a32cd" stroke-dasharray="5,2" d="M1980.72,-867C2027.67,-864.23 2085.02,-858.12 2135,-844.97 2143.47,-842.74 2144.64,-839.57 2153,-836.97 2165.13,-833.2 2178.31,-830.07 2191.05,-827.51"/>
<polygon fill="#9a32cd" stroke="#9a32cd" points="1980.35,-863.51 1970.56,-867.55 1980.73,-870.5 1980.35,-863.51"/>
<text text-anchor="middle" x="2063" y="-868.97" font-family="Helvetica,sans-Serif" font-size="10.00"> basesOnEntities</text>
</g>
<!-- Node63 -->
<g id="node63" class="node">
<title>Node63</title>
<g id="a_node63"><a xlink:title=" ">
<polygon fill="white" stroke="#bfbfbf" points="1830,-655.47 1830,-674.47 1942,-674.47 1942,-655.47 1830,-655.47"/>
<text text-anchor="middle" x="1886" y="-662.47" font-family="Helvetica,sans-Serif" font-size="10.00">UBlasMatrix&lt; int &gt;</text>
</a>
</g>
</g>
<!-- Node63&#45;&gt;Node58 -->
<g id="edge75" class="edge">
<title>Node63&#45;&gt;Node58</title>
<path fill="none" stroke="#9a32cd" stroke-dasharray="5,2" d="M1923.93,-652.52C1977.57,-637.01 2076.92,-618.39 2135,-669.97 2178.29,-708.41 2113.01,-757.11 2153,-798.97 2161.59,-807.96 2172.95,-813.48 2184.98,-816.75"/>
<polygon fill="#9a32cd" stroke="#9a32cd" points="1922.73,-649.23 1914.16,-655.46 1924.74,-655.93 1922.73,-649.23"/>
<text text-anchor="middle" x="2063" y="-683.97" font-family="Helvetica,sans-Serif" font-size="10.00"> facesNodesOrder</text>
<text text-anchor="middle" x="2063" y="-672.97" font-family="Helvetica,sans-Serif" font-size="10.00">facesNodes</text>
</g>
<!-- Node64 -->
<g id="node64" class="node">
<title>Node64</title>
<g id="a_node64"><a xlink:title=" ">
<polygon fill="white" stroke="#bfbfbf" points="1827.5,-903.47 1827.5,-922.47 1944.5,-922.47 1944.5,-903.47 1827.5,-903.47"/>
<text text-anchor="middle" x="1886" y="-910.47" font-family="Helvetica,sans-Serif" font-size="10.00">bitset&lt; LASTBASE &gt;</text>
</a>
</g>
</g>
<!-- Node64&#45;&gt;Node58 -->
<g id="edge76" class="edge">
<title>Node64&#45;&gt;Node58</title>
<path fill="none" stroke="#9a32cd" stroke-dasharray="5,2" d="M1954.76,-921.58C2008.93,-924.72 2083.99,-920.18 2135,-880.97 2151.75,-868.09 2136.62,-850.31 2153,-836.97 2162.15,-829.52 2173.29,-824.64 2184.81,-821.5"/>
<polygon fill="#9a32cd" stroke="#9a32cd" points="1954.77,-918.08 1944.56,-920.89 1954.3,-925.06 1954.77,-918.08"/>
<text text-anchor="middle" x="2063" y="-924.97" font-family="Helvetica,sans-Serif" font-size="10.00"> bAse</text>
</g>
<!-- Node65 -->
<g id="node65" class="node">
<title>Node65</title>
<g id="a_node65"><a xlink:title=" ">
<polygon fill="white" stroke="#bfbfbf" points="2193.5,-627.47 2193.5,-668.47 2318.5,-668.47 2318.5,-627.47 2193.5,-627.47"/>
<text text-anchor="start" x="2201.5" y="-656.47" font-family="Helvetica,sans-Serif" font-size="10.00">function&lt; int(int order</text>
<text text-anchor="start" x="2201.5" y="-645.47" font-family="Helvetica,sans-Serif" font-size="10.00">_row, int order_col, int</text>
<text text-anchor="middle" x="2256" y="-634.47" font-family="Helvetica,sans-Serif" font-size="10.00"> order_data)&gt;</text>
</a>
</g>
</g>
<!-- Node65&#45;&gt;Node10 -->
<g id="edge77" class="edge">
<title>Node65&#45;&gt;Node10</title>
<path fill="none" stroke="#9a32cd" stroke-dasharray="5,2" d="M2328.98,-644.45C2389.82,-644.94 2476.76,-654.12 2539,-695.97 2551.59,-704.43 2544.64,-716.17 2557,-724.97 2562.36,-728.79 2568.36,-731.85 2574.62,-734.31"/>
<polygon fill="#9a32cd" stroke="#9a32cd" points="2328.7,-640.95 2318.69,-644.45 2328.69,-647.95 2328.7,-640.95"/>
<text text-anchor="middle" x="2458" y="-698.97" font-family="Helvetica,sans-Serif" font-size="10.00"> getRuleHook</text>
</g>
<!-- Node66 -->
<g id="node66" class="node">
<title>Node66</title>
<g id="a_node66"><a xlink:title=" ">
<polygon fill="white" stroke="#bfbfbf" points="2195,-577.97 2195,-607.97 2317,-607.97 2317,-577.97 2195,-577.97"/>
<text text-anchor="start" x="2203" y="-595.97" font-family="Helvetica,sans-Serif" font-size="10.00">shared_ptr&lt; MoFEM::</text>
<text text-anchor="middle" x="2256" y="-584.97" font-family="Helvetica,sans-Serif" font-size="10.00">BaseFunction &gt;</text>
</a>
</g>
</g>
<!-- Node66&#45;&gt;Node10 -->
<g id="edge78" class="edge">
<title>Node66&#45;&gt;Node10</title>
<path fill="none" stroke="#9a32cd" stroke-dasharray="5,2" d="M2327.15,-578.47C2390.77,-569.73 2482.92,-568.81 2539,-620.97 2573.35,-652.92 2524.69,-690.96 2557,-724.97 2560.6,-728.76 2564.79,-731.87 2569.34,-734.42"/>
<polygon fill="#9a32cd" stroke="#9a32cd" points="2326.58,-575.01 2317.19,-579.93 2327.6,-581.94 2326.58,-575.01"/>
<text text-anchor="middle" x="2458" y="-634.97" font-family="Helvetica,sans-Serif" font-size="10.00"> userPolynomialBasePtr</text>
<text text-anchor="middle" x="2458" y="-623.97" font-family="Helvetica,sans-Serif" font-size="10.00">elementPolynomialBasePtr</text>
</g>
<!-- Node67 -->
<g id="node67" class="node">
<title>Node67</title>
<g id="a_node67"><a xlink:href="classUBlasMatrix_3_01double_01_4.html" target="_top" xlink:title=" ">
<polygon fill="white" stroke="black" points="2190,-539.47 2190,-558.47 2322,-558.47 2322,-539.47 2190,-539.47"/>
<text text-anchor="middle" x="2256" y="-546.47" font-family="Helvetica,sans-Serif" font-size="10.00">UBlasMatrix&lt; double &gt;</text>
</a>
</g>
</g>
<!-- Node67&#45;&gt;Node10 -->
<g id="edge79" class="edge">
<title>Node67&#45;&gt;Node10</title>
<path fill="none" stroke="#9a32cd" stroke-dasharray="5,2" d="M2329.46,-538.13C2402.75,-528.97 2509.33,-521.17 2539,-547.97 2568.34,-574.47 2530.79,-695.37 2557,-724.97 2560.27,-728.66 2564.1,-731.72 2568.27,-734.24"/>
<polygon fill="#9a32cd" stroke="#9a32cd" points="2328.82,-534.68 2319.35,-539.43 2329.71,-541.63 2328.82,-534.68"/>
<text text-anchor="middle" x="2458" y="-561.97" font-family="Helvetica,sans-Serif" font-size="10.00"> coordsAtGaussPts</text>
<text text-anchor="middle" x="2458" y="-550.97" font-family="Helvetica,sans-Serif" font-size="10.00">gaussPts</text>
</g>
<!-- Node68 -->
<g id="node68" class="node">
<title>Node68</title>
<g id="a_node68"><a xlink:title=" ">
<polygon fill="white" stroke="#bfbfbf" points="2576.5,-913.47 2576.5,-932.47 2707.5,-932.47 2707.5,-913.47 2576.5,-913.47"/>
<text text-anchor="middle" x="2642" y="-920.47" font-family="Helvetica,sans-Serif" font-size="10.00">static const char *const</text>
</a>
</g>
</g>
<!-- Node68&#45;&gt;Node2 -->
<g id="edge80" class="edge">
<title>Node68&#45;&gt;Node2</title>
<path fill="none" stroke="#9a32cd" stroke-dasharray="5,2" d="M2717.66,-925.73C2749.09,-927.6 2785.96,-930.74 2819,-935.97 2834.67,-938.45 2851.47,-942.13 2866.82,-945.91"/>
<polygon fill="#9a32cd" stroke="#9a32cd" points="2717.84,-922.23 2707.66,-925.16 2717.45,-929.22 2717.84,-922.23"/>
<text text-anchor="middle" x="2782" y="-938.97" font-family="Helvetica,sans-Serif" font-size="10.00"> OpTypeNames</text>
</g>
<!-- Node69 -->
<g id="node69" class="node">
<title>Node69</title>
<g id="a_node69"><a xlink:href="structMoFEM_1_1SmartPetscObj.html" target="_top" xlink:title=" ">
<polygon fill="white" stroke="black" points="2856.5,-788.97 2856.5,-818.97 2987.5,-818.97 2987.5,-788.97 2856.5,-788.97"/>
<text text-anchor="start" x="2864.5" y="-806.97" font-family="Helvetica,sans-Serif" font-size="10.00">MoFEM::SmartPetscObj</text>
<text text-anchor="middle" x="2922" y="-795.97" font-family="Helvetica,sans-Serif" font-size="10.00">&lt; Vec &gt;</text>
</a>
</g>
</g>
<!-- Node69&#45;&gt;Node1 -->
<g id="edge82" class="edge">
<title>Node69&#45;&gt;Node1</title>
<path fill="none" stroke="#9a32cd" stroke-dasharray="5,2" d="M2997.94,-803.97C3028.64,-803.97 3064.31,-803.97 3095.86,-803.97"/>
<polygon fill="#9a32cd" stroke="#9a32cd" points="2997.73,-800.47 2987.73,-803.97 2997.73,-807.47 2997.73,-800.47"/>
<text text-anchor="middle" x="3051.5" y="-806.97" font-family="Helvetica,sans-Serif" font-size="10.00"> dataVec</text>
</g>
<!-- Node70 -->
<g id="node70" class="node">
<title>Node70</title>
<g id="a_node70"><a xlink:title=" ">
<polygon fill="white" stroke="#bfbfbf" points="2579,-674.47 2579,-715.47 2705,-715.47 2705,-674.47 2579,-674.47"/>
<text text-anchor="start" x="2587" y="-703.47" font-family="Helvetica,sans-Serif" font-size="10.00">boost::intrusive_ptr</text>
<text text-anchor="start" x="2587" y="-692.47" font-family="Helvetica,sans-Serif" font-size="10.00">&lt; std::remove_pointer</text>
<text text-anchor="middle" x="2642" y="-681.47" font-family="Helvetica,sans-Serif" font-size="10.00">&lt; Vec &gt;::type &gt;</text>
</a>
</g>
</g>
<!-- Node70&#45;&gt;Node69 -->
<g id="edge83" class="edge">
<title>Node70&#45;&gt;Node69</title>
<path fill="none" stroke="midnightblue" d="M2712.77,-719.2C2717.61,-721.09 2722.39,-723.02 2727,-724.97 2777.17,-746.16 2786.28,-759.13 2837,-778.97 2846.07,-782.52 2855.85,-785.85 2865.43,-788.86"/>
<polygon fill="midnightblue" stroke="midnightblue" points="2714.02,-715.93 2703.43,-715.62 2711.51,-722.46 2714.02,-715.93"/>
</g>
<!-- Node71 -->
<g id="node71" class="node">
<title>Node71</title>
<g id="a_node71"><a xlink:href="structMoFEM_1_1SmartPetscObj.html" target="_top" xlink:title="intrusive_ptr for managing petsc objects">
<polygon fill="white" stroke="black" points="2576.5,-516.97 2576.5,-546.97 2707.5,-546.97 2707.5,-516.97 2576.5,-516.97"/>
<text text-anchor="start" x="2584.5" y="-534.97" font-family="Helvetica,sans-Serif" font-size="10.00">MoFEM::SmartPetscObj</text>
<text text-anchor="middle" x="2642" y="-523.97" font-family="Helvetica,sans-Serif" font-size="10.00">&lt; OBJ &gt;</text>
</a>
</g>
</g>
<!-- Node71&#45;&gt;Node69 -->
<g id="edge84" class="edge">
<title>Node71&#45;&gt;Node69</title>
<path fill="none" stroke="orange" stroke-dasharray="5,2" d="M2670.39,-553.8C2708.99,-585.99 2779.13,-649.86 2819,-718.97 2832.91,-743.08 2817.29,-759.3 2837,-778.97 2842.49,-784.45 2849.13,-788.74 2856.24,-792.09"/>
<polygon fill="orange" stroke="orange" points="2672.14,-550.71 2662.2,-547.06 2667.69,-556.12 2672.14,-550.71"/>
<text text-anchor="middle" x="2782" y="-721.97" font-family="Helvetica,sans-Serif" font-size="10.00"> &lt; Vec &gt;</text>
</g>
<!-- Node72 -->
<g id="node72" class="node">
<title>Node72</title>
<g id="a_node72"><a xlink:title=" ">
<polygon fill="white" stroke="#bfbfbf" points="2193,-403.47 2193,-444.47 2319,-444.47 2319,-403.47 2193,-403.47"/>
<text text-anchor="start" x="2201" y="-432.47" font-family="Helvetica,sans-Serif" font-size="10.00">boost::intrusive_ptr</text>
<text text-anchor="start" x="2201" y="-421.47" font-family="Helvetica,sans-Serif" font-size="10.00">&lt; std::remove_pointer</text>
<text text-anchor="middle" x="2256" y="-410.47" font-family="Helvetica,sans-Serif" font-size="10.00">&lt; OBJ &gt;::type &gt;</text>
</a>
</g>
</g>
<!-- Node72&#45;&gt;Node71 -->
<g id="edge85" class="edge">
<title>Node72&#45;&gt;Node71</title>
<path fill="none" stroke="midnightblue" d="M2329.33,-419.79C2387.93,-418.98 2471.55,-423.77 2539,-450.97 2575.49,-465.68 2609.5,-497.82 2627.54,-516.89"/>
<polygon fill="midnightblue" stroke="midnightblue" points="2328.98,-416.3 2319.05,-420 2329.12,-423.3 2328.98,-416.3"/>
</g>
<!-- Node73 -->
<g id="node73" class="node">
<title>Node73</title>
<g id="a_node73"><a xlink:title=" ">
<polygon fill="white" stroke="#bfbfbf" points="2861,-750.47 2861,-769.47 2983,-769.47 2983,-750.47 2861,-750.47"/>
<text text-anchor="middle" x="2922" y="-757.47" font-family="Helvetica,sans-Serif" font-size="10.00">shared_ptr&lt; Range &gt;</text>
</a>
</g>
</g>
<!-- Node73&#45;&gt;Node1 -->
<g id="edge86" class="edge">
<title>Node73&#45;&gt;Node1</title>
<path fill="none" stroke="#9a32cd" stroke-dasharray="5,2" d="M2988.53,-771.21C3021.12,-776.8 3060.88,-783.62 3095.67,-789.59"/>
<polygon fill="#9a32cd" stroke="#9a32cd" points="2989.1,-767.76 2978.66,-769.52 2987.92,-774.66 2989.1,-767.76"/>
<text text-anchor="middle" x="3051.5" y="-787.97" font-family="Helvetica,sans-Serif" font-size="10.00"> entsPtr</text>
</g>
<!-- Node74 -->
<g id="node74" class="node">
<title>Node74</title>
<g id="a_node74"><a xlink:title=" ">
<polygon fill="white" stroke="#bfbfbf" points="2852,-700.97 2852,-730.97 2992,-730.97 2992,-700.97 2852,-700.97"/>
<text text-anchor="start" x="2860" y="-718.97" font-family="Helvetica,sans-Serif" font-size="10.00">shared_ptr&lt; UBlasMatrix</text>
<text text-anchor="middle" x="2922" y="-707.97" font-family="Helvetica,sans-Serif" font-size="10.00">&lt; double &gt; &gt;</text>
</a>
</g>
</g>
<!-- Node74&#45;&gt;Node1 -->
<g id="edge88" class="edge">
<title>Node74&#45;&gt;Node1</title>
<path fill="none" stroke="#9a32cd" stroke-dasharray="5,2" d="M3002.37,-730.48C3026.98,-736.02 3053.94,-743.17 3078,-751.97 3105.15,-761.9 3134.34,-777.42 3154.42,-788.92"/>
<polygon fill="#9a32cd" stroke="#9a32cd" points="3002.86,-727 2992.35,-728.28 3001.36,-733.84 3002.86,-727"/>
<text text-anchor="middle" x="3051.5" y="-765.97" font-family="Helvetica,sans-Serif" font-size="10.00"> dataPtr</text>
<text text-anchor="middle" x="3051.5" y="-754.97" font-family="Helvetica,sans-Serif" font-size="10.00">diffDataPtr</text>
</g>
</g>
</svg>
        <g id="navigator" transform="translate(0 0)" fill="#404254">
                <rect fill="#f2f5e9" fill-opacity="0.5" stroke="#606060" stroke-width=".5" x="0" y="0" width="60" height="60"/>
                <use id="zoomplus" xlink:href="#zoomPlus" x="17" y="9" onmousedown="handleZoom(evt,'in')"/>
                <use id="zoomminus" xlink:href="#zoomMin" x="42" y="9" onmousedown="handleZoom(evt,'out')"/>
                <use id="reset" xlink:href="#resetDef" x="30" y="36" onmousedown="handleReset()"/>
                <g id="arrowUp" xlink:href="#dirArrow" transform="translate(30 24)" onmousedown="handlePan(0,-1)">
                  <use xlink:href="#rim" fill="#404040">
                        <set attributeName="fill" to="#808080" begin="arrowUp.mouseover" end="arrowUp.mouseout"/>
                  </use>
                  <path fill="none" stroke="white" stroke-width="1.5" d="M0,-3.0v7 M-2.5,-0.5L0,-3.0L2.5,-0.5"/>
                </g>
                <g id="arrowRight" xlink:href="#dirArrow" transform="rotate(90) translate(36 -43)" onmousedown="handlePan(1,0)">
                  <use xlink:href="#rim" fill="#404040">
                        <set attributeName="fill" to="#808080" begin="arrowRight.mouseover" end="arrowRight.mouseout"/>
                  </use>
                  <path fill="none" stroke="white" stroke-width="1.5" d="M0,-3.0v7 M-2.5,-0.5L0,-3.0L2.5,-0.5"/>
                </g>
                <g id="arrowDown" xlink:href="#dirArrow" transform="rotate(180) translate(-30 -48)" onmousedown="handlePan(0,1)">
                  <use xlink:href="#rim" fill="#404040">
                        <set attributeName="fill" to="#808080" begin="arrowDown.mouseover" end="arrowDown.mouseout"/>
                  </use>
                  <path fill="none" stroke="white" stroke-width="1.5" d="M0,-3.0v7 M-2.5,-0.5L0,-3.0L2.5,-0.5"/>
                </g>
                <g id="arrowLeft" xlink:href="#dirArrow" transform="rotate(270) translate(-36 17)" onmousedown="handlePan(-1,0)">
                  <use xlink:href="#rim" fill="#404040">
                        <set attributeName="fill" to="#808080" begin="arrowLeft.mouseover" end="arrowLeft.mouseout"/>
                  </use>
                  <path fill="none" stroke="white" stroke-width="1.5" d="M0,-3.0v7 M-2.5,-0.5L0,-3.0L2.5,-0.5"/>
                </g>
        </g>
        <svg viewBox="0 0 15 15" width="100%" height="30px" preserveAspectRatio="xMaxYMin meet">
         <g id="arrow_out" transform="scale(0.3 0.3)">
          <a xlink:href="structMoFEM_1_1OpCalcNormL2Tensor2__coll__graph_org.svg" target="_base">
           <rect id="button" ry="5" rx="5" y="6" x="6" height="38" width="38"
                fill="#f2f5e9" fill-opacity="0.5" stroke="#606060" stroke-width="1.0"/>
           <path id="arrow"
             d="M 11.500037,31.436501 C 11.940474,20.09759 22.043105,11.32322 32.158766,21.979434 L 37.068811,17.246167 C 37.068811,17.246167 37.088388,32 37.088388,32 L 22.160133,31.978069 C 22.160133,31.978069 26.997745,27.140456 26.997745,27.140456 C 18.528582,18.264221 13.291696,25.230495 11.500037,31.436501 z"
             style="fill:#404040;"/>
          </a>
         </g>
        </svg>
</svg>
