<?xml version="1.0" encoding="UTF-8" standalone="no"?>
<!DOCTYPE svg PUBLIC "-//W3C//DTD SVG 1.1//EN"
 "http://www.w3.org/Graphics/SVG/1.1/DTD/svg11.dtd">
<!-- Generated by graphviz version 2.43.0 (0)
 -->
<!-- Title: ThermalElement::OpGetFieldAtGaussPts&lt; OP &gt; Pages: 1 -->
<svg width="919pt" height="148pt"
 viewBox="0.00 0.00 919.00 147.50" xmlns="http://www.w3.org/2000/svg" xmlns:xlink="http://www.w3.org/1999/xlink">
<g id="graph0" class="graph" transform="scale(1 1) rotate(0) translate(4 143.5)">
<title>ThermalElement::OpGetFieldAtGaussPts&lt; OP &gt;</title>
<polygon fill="white" stroke="transparent" points="-4,4 -4,-143.5 915,-143.5 915,4 -4,4"/>
<!-- Node1 -->
<g id="node1" class="node">
<title>Node1</title>
<g id="a_node1"><a xlink:title="operator to calculate temperature and rate of temperature at Gauss points">
<polygon fill="#bfbfbf" stroke="black" points="162,-35 162,-65 320,-65 320,-35 162,-35"/>
<text text-anchor="start" x="170" y="-53" font-family="Helvetica,sans-Serif" font-size="10.00">ThermalElement::OpGetField</text>
<text text-anchor="middle" x="241" y="-42" font-family="Helvetica,sans-Serif" font-size="10.00">AtGaussPts&lt; OP &gt;</text>
</a>
</g>
</g>
<!-- Node3 -->
<g id="node3" class="node">
<title>Node3</title>
<g id="a_node3"><a xlink:href="structThermalElement_1_1OpGetFieldAtGaussPts.html" target="_top" xlink:title=" ">
<polygon fill="white" stroke="black" points="522,-60.5 522,-101.5 725,-101.5 725,-60.5 522,-60.5"/>
<text text-anchor="start" x="530" y="-89.5" font-family="Helvetica,sans-Serif" font-size="10.00">ThermalElement::OpGetField</text>
<text text-anchor="start" x="530" y="-78.5" font-family="Helvetica,sans-Serif" font-size="10.00">AtGaussPts&lt; MoFEM::VolumeElement</text>
<text text-anchor="middle" x="623.5" y="-67.5" font-family="Helvetica,sans-Serif" font-size="10.00">ForcesAndSourcesCore &gt;</text>
</a>
</g>
</g>
<!-- Node1&#45;&gt;Node3 -->
<g id="edge2" class="edge">
<title>Node1&#45;&gt;Node3</title>
<path fill="none" stroke="orange" stroke-dasharray="5,2" d="M330.49,-57.21C387.7,-61.87 462.3,-67.95 521.78,-72.79"/>
<polygon fill="orange" stroke="orange" points="330.63,-53.71 320.38,-56.39 330.06,-60.69 330.63,-53.71"/>
<text text-anchor="start" x="338" y="-84" font-family="Helvetica,sans-Serif" font-size="10.00"> &lt; MoFEM::VolumeElementForces</text>
<text text-anchor="middle" x="421" y="-73" font-family="Helvetica,sans-Serif" font-size="10.00">AndSourcesCore &gt;</text>
</g>
<!-- Node6 -->
<g id="node6" class="node">
<title>Node6</title>
<g id="a_node6"><a xlink:href="structThermalElement_1_1OpGetFieldAtGaussPts.html" target="_top" xlink:title=" ">
<polygon fill="white" stroke="black" points="529.5,-0.5 529.5,-41.5 717.5,-41.5 717.5,-0.5 529.5,-0.5"/>
<text text-anchor="start" x="537.5" y="-29.5" font-family="Helvetica,sans-Serif" font-size="10.00">ThermalElement::OpGetField</text>
<text text-anchor="start" x="537.5" y="-18.5" font-family="Helvetica,sans-Serif" font-size="10.00">AtGaussPts&lt; MoFEM::FaceElement</text>
<text text-anchor="middle" x="623.5" y="-7.5" font-family="Helvetica,sans-Serif" font-size="10.00">ForcesAndSourcesCore &gt;</text>
</a>
</g>
</g>
<!-- Node1&#45;&gt;Node6 -->
<g id="edge5" class="edge">
<title>Node1&#45;&gt;Node6</title>
<path fill="none" stroke="orange" stroke-dasharray="5,2" d="M330.29,-33.91C332.89,-33.58 335.46,-33.28 338,-33 401.64,-26.05 473.7,-23.06 529.37,-21.81"/>
<polygon fill="orange" stroke="orange" points="329.65,-30.46 320.2,-35.27 330.58,-37.4 329.65,-30.46"/>
<text text-anchor="start" x="345.5" y="-47" font-family="Helvetica,sans-Serif" font-size="10.00"> &lt; MoFEM::FaceElementForces</text>
<text text-anchor="middle" x="421" y="-36" font-family="Helvetica,sans-Serif" font-size="10.00">AndSourcesCore &gt;</text>
</g>
<!-- Node2 -->
<g id="node2" class="node">
<title>Node2</title>
<g id="a_node2"><a xlink:title=" ">
<polygon fill="white" stroke="#bfbfbf" points="0,-40.5 0,-59.5 125,-59.5 125,-40.5 0,-40.5"/>
<text text-anchor="middle" x="62.5" y="-47.5" font-family="Helvetica,sans-Serif" font-size="10.00">OP::UserDataOperator</text>
</a>
</g>
</g>
<!-- Node2&#45;&gt;Node1 -->
<g id="edge1" class="edge">
<title>Node2&#45;&gt;Node1</title>
<path fill="none" stroke="midnightblue" d="M135.36,-50C144.09,-50 153.04,-50 161.86,-50"/>
<polygon fill="midnightblue" stroke="midnightblue" points="135.23,-46.5 125.23,-50 135.23,-53.5 135.23,-46.5"/>
</g>
<!-- Node4 -->
<g id="node4" class="node">
<title>Node4</title>
<g id="a_node4"><a xlink:href="structThermalElement_1_1OpGetTetRateAtGaussPts.html" target="_top" xlink:title="operator to calculate temperature rate at Gauss pts">
<polygon fill="white" stroke="black" points="762,-109 762,-139 911,-139 911,-109 762,-109"/>
<text text-anchor="start" x="770" y="-127" font-family="Helvetica,sans-Serif" font-size="10.00">ThermalElement::OpGetTet</text>
<text text-anchor="middle" x="836.5" y="-116" font-family="Helvetica,sans-Serif" font-size="10.00">RateAtGaussPts</text>
</a>
</g>
</g>
<!-- Node3&#45;&gt;Node4 -->
<g id="edge3" class="edge">
<title>Node3&#45;&gt;Node4</title>
<path fill="none" stroke="midnightblue" d="M734.96,-103.51C744.08,-105.37 753.15,-107.22 761.9,-109"/>
<polygon fill="midnightblue" stroke="midnightblue" points="735.55,-100.06 725.06,-101.49 734.16,-106.92 735.55,-100.06"/>
</g>
<!-- Node5 -->
<g id="node5" class="node">
<title>Node5</title>
<g id="a_node5"><a xlink:href="structThermalElement_1_1OpGetTetTemperatureAtGaussPts.html" target="_top" xlink:title="operator to calculate temperature at Gauss pts">
<polygon fill="white" stroke="black" points="762,-60 762,-90 911,-90 911,-60 762,-60"/>
<text text-anchor="start" x="770" y="-78" font-family="Helvetica,sans-Serif" font-size="10.00">ThermalElement::OpGetTet</text>
<text text-anchor="middle" x="836.5" y="-67" font-family="Helvetica,sans-Serif" font-size="10.00">TemperatureAtGaussPts</text>
</a>
</g>
</g>
<!-- Node3&#45;&gt;Node5 -->
<g id="edge4" class="edge">
<title>Node3&#45;&gt;Node5</title>
<path fill="none" stroke="midnightblue" d="M735.25,-77.85C744.27,-77.59 753.24,-77.34 761.9,-77.09"/>
<polygon fill="midnightblue" stroke="midnightblue" points="734.95,-74.36 725.06,-78.14 735.15,-81.35 734.95,-74.36"/>
</g>
<!-- Node7 -->
<g id="node7" class="node">
<title>Node7</title>
<g id="a_node7"><a xlink:href="structThermalElement_1_1OpGetTriTemperatureAtGaussPts.html" target="_top" xlink:title="operator to calculate temperature at Gauss pts">
<polygon fill="white" stroke="black" points="763.5,-6 763.5,-36 909.5,-36 909.5,-6 763.5,-6"/>
<text text-anchor="start" x="771.5" y="-24" font-family="Helvetica,sans-Serif" font-size="10.00">ThermalElement::OpGetTri</text>
<text text-anchor="middle" x="836.5" y="-13" font-family="Helvetica,sans-Serif" font-size="10.00">TemperatureAtGaussPts</text>
</a>
</g>
</g>
<!-- Node6&#45;&gt;Node7 -->
<g id="edge6" class="edge">
<title>Node6&#45;&gt;Node7</title>
<path fill="none" stroke="midnightblue" d="M727.77,-21C739.83,-21 751.93,-21 763.43,-21"/>
<polygon fill="midnightblue" stroke="midnightblue" points="727.66,-17.5 717.66,-21 727.66,-24.5 727.66,-17.5"/>
</g>
</g>
</svg>
