<?xml version="1.0" encoding="UTF-8" standalone="no"?>
<!DOCTYPE svg PUBLIC "-//W3C//DTD SVG 1.1//EN"
 "http://www.w3.org/Graphics/SVG/1.1/DTD/svg11.dtd">
<!-- Generated by graphviz version 2.43.0 (0)
 -->
<!-- Title: BCs_RVELagrange_Trac Pages: 1 -->
<!--zoomable 304 -->
<svg id="main" version="1.1" xmlns="http://www.w3.org/2000/svg" xmlns:xlink="http://www.w3.org/1999/xlink" xml:space="preserve" onload="init(evt)">
<style type="text/css"><![CDATA[
.edge:hover path { stroke: red; }
.edge:hover polygon { stroke: red; fill: red; }
]]></style>
<script type="text/javascript"><![CDATA[
var edges = document.getElementsByTagName('g');
if (edges && edges.length) {
  for (var i=0;i<edges.length;i++) {
    if (edges[i].id.substr(0,4)=='edge') {
      edges[i].setAttribute('class','edge');
    }
  }
}
]]></script>
        <defs>
                <circle id="rim" cx="0" cy="0" r="7"/>
                <circle id="rim2" cx="0" cy="0" r="3.5"/>
                <g id="zoomPlus">
                        <use xlink:href="#rim" fill="#404040">
                                <set attributeName="fill" to="#808080" begin="zoomplus.mouseover" end="zoomplus.mouseout"/>
                        </use>
                        <path d="M-4,0h8M0,-4v8" fill="none" stroke="white" stroke-width="1.5" pointer-events="none"/>
                </g>
                <g id="zoomMin">
                        <use xlink:href="#rim" fill="#404040">
                                <set attributeName="fill" to="#808080" begin="zoomminus.mouseover" end="zoomminus.mouseout"/>
                        </use>
                        <path d="M-4,0h8" fill="none" stroke="white" stroke-width="1.5" pointer-events="none"/>
                </g>
                <g id="dirArrow">
                        <path fill="none" stroke="white" stroke-width="1.5" d="M0,-3.0v7 M-2.5,-0.5L0,-3.0L2.5,-0.5"/>
                </g>
               <g id="resetDef">
                       <use xlink:href="#rim2" fill="#404040">
                               <set attributeName="fill" to="#808080" begin="reset.mouseover" end="reset.mouseout"/>
                       </use>
               </g>
        </defs>

<script type="text/javascript">
var viewWidth = 1866;
var viewHeight = 304;
var sectionId = 'dynsection-1';
</script>
<script xlink:href="svgpan.js"/>
<svg id="graph" class="graph">
<g id="viewport">
<title>BCs_RVELagrange_Trac</title>
<polygon fill="white" stroke="transparent" points="-4,4 -4,-300 1862,-300 1862,4 -4,4"/>
<!-- Node1 -->
<g id="node1" class="node">
<title>Node1</title>
<g id="a_node1"><a xlink:title=" ">
<polygon fill="#bfbfbf" stroke="black" points="1728,-55 1728,-74 1858,-74 1858,-55 1728,-55"/>
<text text-anchor="middle" x="1793" y="-62" font-family="Helvetica,sans-Serif" font-size="10.00">BCs_RVELagrange_Trac</text>
</a>
</g>
</g>
<!-- Node2 -->
<g id="node2" class="node">
<title>Node2</title>
<g id="a_node2"><a xlink:href="structBCs__RVELagrange__Disp.html" target="_top" xlink:title=" ">
<polygon fill="white" stroke="black" points="1467,-147 1467,-166 1599,-166 1599,-147 1467,-147"/>
<text text-anchor="middle" x="1533" y="-154" font-family="Helvetica,sans-Serif" font-size="10.00">BCs_RVELagrange_Disp</text>
</a>
</g>
</g>
<!-- Node2&#45;&gt;Node1 -->
<g id="edge1" class="edge">
<title>Node2&#45;&gt;Node1</title>
<path fill="none" stroke="midnightblue" d="M1570.73,-143.4C1623.32,-124.65 1718.82,-90.59 1765.24,-74.04"/>
<polygon fill="midnightblue" stroke="midnightblue" points="1569.37,-140.17 1561.12,-146.83 1571.72,-146.77 1569.37,-140.17"/>
</g>
<!-- Node3 -->
<g id="node3" class="node">
<title>Node3</title>
<g id="a_node3"><a xlink:href="structBCs__RVELagrange__Disp_1_1CommonFunctions.html" target="_top" xlink:title=" ">
<polygon fill="white" stroke="black" points="1171.5,-265.5 1171.5,-295.5 1303.5,-295.5 1303.5,-265.5 1171.5,-265.5"/>
<text text-anchor="start" x="1179.5" y="-283.5" font-family="Helvetica,sans-Serif" font-size="10.00">BCs_RVELagrange_Disp</text>
<text text-anchor="middle" x="1237.5" y="-272.5" font-family="Helvetica,sans-Serif" font-size="10.00">::CommonFunctions</text>
</a>
</g>
</g>
<!-- Node3&#45;&gt;Node2 -->
<g id="edge2" class="edge">
<title>Node3&#45;&gt;Node2</title>
<path fill="none" stroke="#9a32cd" stroke-dasharray="5,2" d="M1314.03,-276.06C1355.8,-271.06 1407.5,-260.54 1449,-238.5 1483.17,-220.36 1512.55,-183.64 1525.27,-166.17"/>
<polygon fill="#9a32cd" stroke="#9a32cd" points="1313.46,-272.6 1303.91,-277.18 1314.24,-279.55 1313.46,-272.6"/>
<text text-anchor="middle" x="1397.5" y="-273.5" font-family="Helvetica,sans-Serif" font-size="10.00"> common_functions</text>
</g>
<!-- Node4 -->
<g id="node4" class="node">
<title>Node4</title>
<g id="a_node4"><a xlink:href="structMoFEM_1_1DeprecatedCoreInterface.html" target="_top" xlink:title="Deprecated interface functions.">
<polygon fill="white" stroke="black" points="1147,-227 1147,-246 1328,-246 1328,-227 1147,-227"/>
<text text-anchor="middle" x="1237.5" y="-234" font-family="Helvetica,sans-Serif" font-size="10.00">MoFEM::DeprecatedCoreInterface</text>
</a>
</g>
</g>
<!-- Node4&#45;&gt;Node2 -->
<g id="edge3" class="edge">
<title>Node4&#45;&gt;Node2</title>
<path fill="none" stroke="#9a32cd" stroke-dasharray="5,2" d="M1337.27,-225.47C1373.06,-219.83 1413.42,-211.53 1449,-199.5 1474.06,-191.03 1500.86,-175.91 1517.02,-166.05"/>
<polygon fill="#9a32cd" stroke="#9a32cd" points="1336.66,-222.02 1327.3,-226.99 1337.71,-228.94 1336.66,-222.02"/>
<text text-anchor="middle" x="1397.5" y="-226.5" font-family="Helvetica,sans-Serif" font-size="10.00"> mField</text>
</g>
<!-- Node5 -->
<g id="node5" class="node">
<title>Node5</title>
<g id="a_node5"><a xlink:href="structMoFEM_1_1CoreInterface.html" target="_top" xlink:title="Interface.">
<polygon fill="white" stroke="black" points="952.5,-227 952.5,-246 1077.5,-246 1077.5,-227 952.5,-227"/>
<text text-anchor="middle" x="1015" y="-234" font-family="Helvetica,sans-Serif" font-size="10.00">MoFEM::CoreInterface</text>
</a>
</g>
</g>
<!-- Node5&#45;&gt;Node4 -->
<g id="edge4" class="edge">
<title>Node5&#45;&gt;Node4</title>
<path fill="none" stroke="midnightblue" d="M1087.95,-236.5C1106.73,-236.5 1127.2,-236.5 1146.77,-236.5"/>
<polygon fill="midnightblue" stroke="midnightblue" points="1087.71,-233 1077.71,-236.5 1087.71,-240 1087.71,-233"/>
</g>
<!-- Node6 -->
<g id="node6" class="node">
<title>Node6</title>
<g id="a_node6"><a xlink:href="structMoFEM_1_1UnknownInterface.html" target="_top" xlink:title="base class for all interface classes">
<polygon fill="white" stroke="black" points="735,-227 735,-246 883,-246 883,-227 735,-227"/>
<text text-anchor="middle" x="809" y="-234" font-family="Helvetica,sans-Serif" font-size="10.00">MoFEM::UnknownInterface</text>
</a>
</g>
</g>
<!-- Node6&#45;&gt;Node5 -->
<g id="edge5" class="edge">
<title>Node6&#45;&gt;Node5</title>
<path fill="none" stroke="midnightblue" d="M893.27,-236.5C912.98,-236.5 933.65,-236.5 952.21,-236.5"/>
<polygon fill="midnightblue" stroke="midnightblue" points="893.07,-233 883.07,-236.5 893.07,-240 893.07,-233"/>
</g>
<!-- Node7 -->
<g id="node7" class="node">
<title>Node7</title>
<g id="a_node7"><a xlink:title=" ">
<polygon fill="white" stroke="#bfbfbf" points="386,-205 386,-268 627,-268 627,-205 386,-205"/>
<text text-anchor="start" x="394" y="-256" font-family="Helvetica,sans-Serif" font-size="10.00">multi_index_container</text>
<text text-anchor="start" x="394" y="-245" font-family="Helvetica,sans-Serif" font-size="10.00">&lt; UIdTypeMap, indexed</text>
<text text-anchor="start" x="394" y="-234" font-family="Helvetica,sans-Serif" font-size="10.00">_by&lt; hashed_unique&lt; member</text>
<text text-anchor="start" x="394" y="-223" font-family="Helvetica,sans-Serif" font-size="10.00">&lt; UIdTypeMap, boost::typeindex</text>
<text text-anchor="middle" x="506.5" y="-212" font-family="Helvetica,sans-Serif" font-size="10.00">::type_index, &amp;UIdTypeMap::classIdx &gt; &gt; &gt; &gt;</text>
</a>
</g>
</g>
<!-- Node7&#45;&gt;Node6 -->
<g id="edge6" class="edge">
<title>Node7&#45;&gt;Node6</title>
<path fill="none" stroke="#9a32cd" stroke-dasharray="5,2" d="M637.41,-236.5C670.69,-236.5 705.33,-236.5 734.62,-236.5"/>
<polygon fill="#9a32cd" stroke="#9a32cd" points="637.13,-233 627.13,-236.5 637.13,-240 637.13,-233"/>
<text text-anchor="middle" x="681" y="-239.5" font-family="Helvetica,sans-Serif" font-size="10.00"> iFaceTypeMap</text>
</g>
<!-- Node8 -->
<g id="node8" class="node">
<title>Node8</title>
<g id="a_node8"><a xlink:title=" ">
<polygon fill="white" stroke="#bfbfbf" points="0,-227 0,-246 125,-246 125,-227 0,-227"/>
<text text-anchor="middle" x="62.5" y="-234" font-family="Helvetica,sans-Serif" font-size="10.00">multi_index_container</text>
</a>
</g>
</g>
<!-- Node8&#45;&gt;Node7 -->
<g id="edge7" class="edge">
<title>Node8&#45;&gt;Node7</title>
<path fill="none" stroke="orange" stroke-dasharray="5,2" d="M135.56,-236.5C203.25,-236.5 305.79,-236.5 385.77,-236.5"/>
<polygon fill="orange" stroke="orange" points="135.42,-233 125.42,-236.5 135.42,-240 135.42,-233"/>
<text text-anchor="start" x="143" y="-272.5" font-family="Helvetica,sans-Serif" font-size="10.00"> &lt; UIdTypeMap, indexed</text>
<text text-anchor="start" x="143" y="-261.5" font-family="Helvetica,sans-Serif" font-size="10.00">_by&lt; hashed_unique&lt; member</text>
<text text-anchor="start" x="143" y="-250.5" font-family="Helvetica,sans-Serif" font-size="10.00">&lt; UIdTypeMap, boost::typeindex</text>
<text text-anchor="middle" x="255.5" y="-239.5" font-family="Helvetica,sans-Serif" font-size="10.00">::type_index, &amp;UIdTypeMap::classIdx &gt; &gt; &gt; &gt;</text>
</g>
<!-- Node9 -->
<g id="node9" class="node">
<title>Node9</title>
<g id="a_node9"><a xlink:title=" ">
<polygon fill="white" stroke="#bfbfbf" points="1160,-177.5 1160,-207.5 1315,-207.5 1315,-177.5 1160,-177.5"/>
<text text-anchor="start" x="1168" y="-195.5" font-family="Helvetica,sans-Serif" font-size="10.00">ptr_vector&lt; MethodForForce</text>
<text text-anchor="middle" x="1237.5" y="-184.5" font-family="Helvetica,sans-Serif" font-size="10.00">Scaling &gt;</text>
</a>
</g>
</g>
<!-- Node9&#45;&gt;Node2 -->
<g id="edge8" class="edge">
<title>Node9&#45;&gt;Node2</title>
<path fill="none" stroke="#9a32cd" stroke-dasharray="5,2" d="M1325.26,-186.87C1363.35,-183.83 1408.51,-179.45 1449,-173.5 1462.39,-171.53 1476.87,-168.78 1489.94,-166.07"/>
<polygon fill="#9a32cd" stroke="#9a32cd" points="1324.93,-183.38 1315.23,-187.65 1325.48,-190.36 1324.93,-183.38"/>
<text text-anchor="middle" x="1397.5" y="-187.5" font-family="Helvetica,sans-Serif" font-size="10.00"> methodsOp</text>
</g>
<!-- Node10 -->
<g id="node10" class="node">
<title>Node10</title>
<g id="a_node10"><a xlink:href="structBCs__RVELagrange__Disp_1_1MyTriFE.html" target="_top" xlink:title=" ">
<polygon fill="white" stroke="black" points="1171.5,-117.5 1171.5,-147.5 1303.5,-147.5 1303.5,-117.5 1171.5,-117.5"/>
<text text-anchor="start" x="1179.5" y="-135.5" font-family="Helvetica,sans-Serif" font-size="10.00">BCs_RVELagrange_Disp</text>
<text text-anchor="middle" x="1237.5" y="-124.5" font-family="Helvetica,sans-Serif" font-size="10.00">::MyTriFE</text>
</a>
</g>
</g>
<!-- Node10&#45;&gt;Node2 -->
<g id="edge9" class="edge">
<title>Node10&#45;&gt;Node2</title>
<path fill="none" stroke="#9a32cd" stroke-dasharray="5,2" d="M1313.75,-117.39C1354.24,-111.79 1404.79,-108.86 1449,-118.5 1473.93,-123.94 1500.33,-137.56 1516.49,-146.93"/>
<polygon fill="#9a32cd" stroke="#9a32cd" points="1313.07,-113.95 1303.68,-118.87 1314.09,-120.88 1313.07,-113.95"/>
<text text-anchor="middle" x="1397.5" y="-165.5" font-family="Helvetica,sans-Serif" font-size="10.00"> feRVEBCRhsHomoC</text>
<text text-anchor="middle" x="1397.5" y="-154.5" font-family="Helvetica,sans-Serif" font-size="10.00">feRVEBCRhsResidual</text>
<text text-anchor="middle" x="1397.5" y="-143.5" font-family="Helvetica,sans-Serif" font-size="10.00">feRVEBCLhs</text>
<text text-anchor="middle" x="1397.5" y="-132.5" font-family="Helvetica,sans-Serif" font-size="10.00">feRVEBCRhs</text>
<text text-anchor="middle" x="1397.5" y="-121.5" font-family="Helvetica,sans-Serif" font-size="10.00">feRVEBCStress</text>
</g>
<!-- Node11 -->
<g id="node11" class="node">
<title>Node11</title>
<g id="a_node11"><a xlink:href="classFaceElementForcesAndSourcesCore.html" target="_top" xlink:title=" ">
<polygon fill="white" stroke="black" points="920,-123 920,-142 1110,-142 1110,-123 920,-123"/>
<text text-anchor="middle" x="1015" y="-130" font-family="Helvetica,sans-Serif" font-size="10.00">FaceElementForcesAndSourcesCore</text>
</a>
</g>
</g>
<!-- Node11&#45;&gt;Node10 -->
<g id="edge10" class="edge">
<title>Node11&#45;&gt;Node10</title>
<path fill="none" stroke="midnightblue" d="M1120.34,-132.5C1137.71,-132.5 1155.27,-132.5 1171.29,-132.5"/>
<polygon fill="midnightblue" stroke="midnightblue" points="1120.15,-129 1110.15,-132.5 1120.15,-136 1120.15,-129"/>
</g>
<!-- Node12 -->
<g id="node12" class="node">
<title>Node12</title>
<g id="a_node12"><a xlink:title=" ">
<polygon fill="white" stroke="#bfbfbf" points="1159,-68.5 1159,-98.5 1316,-98.5 1316,-68.5 1159,-68.5"/>
<text text-anchor="start" x="1167" y="-86.5" font-family="Helvetica,sans-Serif" font-size="10.00">map&lt; int, BCs_RVELagrange</text>
<text text-anchor="middle" x="1237.5" y="-75.5" font-family="Helvetica,sans-Serif" font-size="10.00">_Disp::RVEBC_Data &gt;</text>
</a>
</g>
</g>
<!-- Node12&#45;&gt;Node2 -->
<g id="edge11" class="edge">
<title>Node12&#45;&gt;Node2</title>
<path fill="none" stroke="#9a32cd" stroke-dasharray="5,2" d="M1326.27,-78.09C1364.91,-78.43 1410.24,-82.62 1449,-96.5 1479.13,-107.29 1507.92,-132.57 1522.36,-146.63"/>
<polygon fill="#9a32cd" stroke="#9a32cd" points="1326.08,-74.59 1316.08,-78.08 1326.08,-81.59 1326.08,-74.59"/>
<text text-anchor="middle" x="1397.5" y="-99.5" font-family="Helvetica,sans-Serif" font-size="10.00"> setOfRVEBC</text>
</g>
<!-- Node13 -->
<g id="node13" class="node">
<title>Node13</title>
<g id="a_node13"><a xlink:href="structBCs__RVELagrange__Trac_1_1CommonFunctions.html" target="_top" xlink:title=" ">
<polygon fill="white" stroke="black" points="1468,-49.5 1468,-79.5 1598,-79.5 1598,-49.5 1468,-49.5"/>
<text text-anchor="start" x="1476" y="-67.5" font-family="Helvetica,sans-Serif" font-size="10.00">BCs_RVELagrange_Trac</text>
<text text-anchor="middle" x="1533" y="-56.5" font-family="Helvetica,sans-Serif" font-size="10.00">::CommonFunctions</text>
</a>
</g>
</g>
<!-- Node13&#45;&gt;Node1 -->
<g id="edge12" class="edge">
<title>Node13&#45;&gt;Node1</title>
<path fill="none" stroke="#9a32cd" stroke-dasharray="5,2" d="M1608.53,-64.5C1646.26,-64.5 1691.61,-64.5 1727.78,-64.5"/>
<polygon fill="#9a32cd" stroke="#9a32cd" points="1608.11,-61 1598.11,-64.5 1608.11,-68 1608.11,-61"/>
<text text-anchor="middle" x="1663.5" y="-67.5" font-family="Helvetica,sans-Serif" font-size="10.00"> commonFunctions</text>
</g>
<!-- Node14 -->
<g id="node14" class="node">
<title>Node14</title>
<g id="a_node14"><a xlink:title=" ">
<polygon fill="white" stroke="#bfbfbf" points="1196,-18 1196,-37 1279,-37 1279,-18 1196,-18"/>
<text text-anchor="middle" x="1237.5" y="-25" font-family="Helvetica,sans-Serif" font-size="10.00">MatrixDouble</text>
</a>
</g>
</g>
<!-- Node14&#45;&gt;Node13 -->
<g id="edge13" class="edge">
<title>Node14&#45;&gt;Node13</title>
<path fill="none" stroke="#9a32cd" stroke-dasharray="5,2" d="M1289.48,-32.23C1332.17,-36.39 1394.67,-42.96 1449,-50.5 1455.08,-51.34 1461.4,-52.29 1467.71,-53.28"/>
<polygon fill="#9a32cd" stroke="#9a32cd" points="1289.62,-28.73 1279.33,-31.25 1288.95,-35.7 1289.62,-28.73"/>
<text text-anchor="middle" x="1397.5" y="-53.5" font-family="Helvetica,sans-Serif" font-size="10.00"> H_mat_1Node</text>
</g>
<!-- Node15 -->
<g id="node15" class="node">
<title>Node15</title>
<g id="a_node15"><a xlink:href="structBCs__RVELagrange__Trac_1_1CommonData.html" target="_top" xlink:title=" ">
<polygon fill="white" stroke="black" points="1468,-0.5 1468,-30.5 1598,-30.5 1598,-0.5 1468,-0.5"/>
<text text-anchor="start" x="1476" y="-18.5" font-family="Helvetica,sans-Serif" font-size="10.00">BCs_RVELagrange_Trac</text>
<text text-anchor="middle" x="1533" y="-7.5" font-family="Helvetica,sans-Serif" font-size="10.00">::CommonData</text>
</a>
</g>
</g>
<!-- Node14&#45;&gt;Node15 -->
<g id="edge15" class="edge">
<title>Node14&#45;&gt;Node15</title>
<path fill="none" stroke="#9a32cd" stroke-dasharray="5,2" d="M1288.99,-21.32C1306.96,-19.39 1327.36,-17.5 1346,-16.5 1386.47,-14.33 1431.96,-14.04 1467.82,-14.32"/>
<polygon fill="#9a32cd" stroke="#9a32cd" points="1288.57,-17.84 1279.01,-22.42 1289.33,-24.8 1288.57,-17.84"/>
<text text-anchor="middle" x="1397.5" y="-19.5" font-family="Helvetica,sans-Serif" font-size="10.00"> D_mat</text>
</g>
<!-- Node15&#45;&gt;Node1 -->
<g id="edge14" class="edge">
<title>Node15&#45;&gt;Node1</title>
<path fill="none" stroke="#9a32cd" stroke-dasharray="5,2" d="M1608.19,-29.59C1650.97,-37.71 1703.62,-47.71 1741.59,-54.93"/>
<polygon fill="#9a32cd" stroke="#9a32cd" points="1608.58,-26.1 1598.11,-27.68 1607.28,-32.98 1608.58,-26.1"/>
<text text-anchor="middle" x="1663.5" y="-52.5" font-family="Helvetica,sans-Serif" font-size="10.00"> commonData</text>
</g>
</g>
</svg>
        <g id="navigator" transform="translate(0 0)" fill="#404254">
                <rect fill="#f2f5e9" fill-opacity="0.5" stroke="#606060" stroke-width=".5" x="0" y="0" width="60" height="60"/>
                <use id="zoomplus" xlink:href="#zoomPlus" x="17" y="9" onmousedown="handleZoom(evt,'in')"/>
                <use id="zoomminus" xlink:href="#zoomMin" x="42" y="9" onmousedown="handleZoom(evt,'out')"/>
                <use id="reset" xlink:href="#resetDef" x="30" y="36" onmousedown="handleReset()"/>
                <g id="arrowUp" xlink:href="#dirArrow" transform="translate(30 24)" onmousedown="handlePan(0,-1)">
                  <use xlink:href="#rim" fill="#404040">
                        <set attributeName="fill" to="#808080" begin="arrowUp.mouseover" end="arrowUp.mouseout"/>
                  </use>
                  <path fill="none" stroke="white" stroke-width="1.5" d="M0,-3.0v7 M-2.5,-0.5L0,-3.0L2.5,-0.5"/>
                </g>
                <g id="arrowRight" xlink:href="#dirArrow" transform="rotate(90) translate(36 -43)" onmousedown="handlePan(1,0)">
                  <use xlink:href="#rim" fill="#404040">
                        <set attributeName="fill" to="#808080" begin="arrowRight.mouseover" end="arrowRight.mouseout"/>
                  </use>
                  <path fill="none" stroke="white" stroke-width="1.5" d="M0,-3.0v7 M-2.5,-0.5L0,-3.0L2.5,-0.5"/>
                </g>
                <g id="arrowDown" xlink:href="#dirArrow" transform="rotate(180) translate(-30 -48)" onmousedown="handlePan(0,1)">
                  <use xlink:href="#rim" fill="#404040">
                        <set attributeName="fill" to="#808080" begin="arrowDown.mouseover" end="arrowDown.mouseout"/>
                  </use>
                  <path fill="none" stroke="white" stroke-width="1.5" d="M0,-3.0v7 M-2.5,-0.5L0,-3.0L2.5,-0.5"/>
                </g>
                <g id="arrowLeft" xlink:href="#dirArrow" transform="rotate(270) translate(-36 17)" onmousedown="handlePan(-1,0)">
                  <use xlink:href="#rim" fill="#404040">
                        <set attributeName="fill" to="#808080" begin="arrowLeft.mouseover" end="arrowLeft.mouseout"/>
                  </use>
                  <path fill="none" stroke="white" stroke-width="1.5" d="M0,-3.0v7 M-2.5,-0.5L0,-3.0L2.5,-0.5"/>
                </g>
        </g>
        <svg viewBox="0 0 15 15" width="100%" height="30px" preserveAspectRatio="xMaxYMin meet">
         <g id="arrow_out" transform="scale(0.3 0.3)">
          <a xlink:href="structBCs__RVELagrange__Trac__coll__graph_org.svg" target="_base">
           <rect id="button" ry="5" rx="5" y="6" x="6" height="38" width="38"
                fill="#f2f5e9" fill-opacity="0.5" stroke="#606060" stroke-width="1.0"/>
           <path id="arrow"
             d="M 11.500037,31.436501 C 11.940474,20.09759 22.043105,11.32322 32.158766,21.979434 L 37.068811,17.246167 C 37.068811,17.246167 37.088388,32 37.088388,32 L 22.160133,31.978069 C 22.160133,31.978069 26.997745,27.140456 26.997745,27.140456 C 18.528582,18.264221 13.291696,25.230495 11.500037,31.436501 z"
             style="fill:#404040;"/>
          </a>
         </g>
        </svg>
</svg>
