<?xml version="1.0" encoding="UTF-8" standalone="no"?>
<!DOCTYPE svg PUBLIC "-//W3C//DTD SVG 1.1//EN"
 "http://www.w3.org/Graphics/SVG/1.1/DTD/svg11.dtd">
<!-- Generated by graphviz version 2.43.0 (0)
 -->
<!-- Title: ConvectiveMassElement::OpMassJacobian Pages: 1 -->
<svg width="676pt" height="809pt"
 viewBox="0.00 0.00 676.00 809.01" xmlns="http://www.w3.org/2000/svg" xmlns:xlink="http://www.w3.org/1999/xlink">
<g id="graph0" class="graph" transform="scale(1 1) rotate(0) translate(4 805.01)">
<title>ConvectiveMassElement::OpMassJacobian</title>
<polygon fill="white" stroke="transparent" points="-4,4 -4,-805.01 672,-805.01 672,4 -4,4"/>
<!-- Node1 -->
<g id="node1" class="node">
<title>Node1</title>
<g id="a_node1"><a xlink:title=" ">
<polygon fill="#bfbfbf" stroke="black" points="531,-524.01 531,-554.01 668,-554.01 668,-524.01 531,-524.01"/>
<text text-anchor="start" x="539" y="-542.01" font-family="Helvetica,sans-Serif" font-size="10.00">ConvectiveMassElement</text>
<text text-anchor="middle" x="599.5" y="-531.01" font-family="Helvetica,sans-Serif" font-size="10.00">::OpMassJacobian</text>
</a>
</g>
</g>
<!-- Node2 -->
<g id="node2" class="node">
<title>Node2</title>
<g id="a_node2"><a xlink:title=" ">
<polygon fill="white" stroke="#bfbfbf" points="295,-781.51 295,-800.51 400,-800.51 400,-781.51 295,-781.51"/>
<text text-anchor="middle" x="347.5" y="-788.51" font-family="Helvetica,sans-Serif" font-size="10.00">UserDataOperator</text>
</a>
</g>
</g>
<!-- Node2&#45;&gt;Node1 -->
<g id="edge1" class="edge">
<title>Node2&#45;&gt;Node1</title>
<path fill="none" stroke="midnightblue" d="M410.06,-781.5C444.43,-773.24 485.7,-757.98 513,-730.01 564.13,-677.62 587.74,-589.37 595.48,-554.17"/>
<polygon fill="midnightblue" stroke="midnightblue" points="409.09,-778.13 400.1,-783.75 410.63,-784.96 409.09,-778.13"/>
</g>
<!-- Node3 -->
<g id="node3" class="node">
<title>Node3</title>
<g id="a_node3"><a xlink:href="structConvectiveMassElement_1_1CommonFunctions.html" target="_top" xlink:title=" ">
<polygon fill="white" stroke="black" points="279,-732.01 279,-762.01 416,-762.01 416,-732.01 279,-732.01"/>
<text text-anchor="start" x="287" y="-750.01" font-family="Helvetica,sans-Serif" font-size="10.00">ConvectiveMassElement</text>
<text text-anchor="middle" x="347.5" y="-739.01" font-family="Helvetica,sans-Serif" font-size="10.00">::CommonFunctions</text>
</a>
</g>
</g>
<!-- Node3&#45;&gt;Node1 -->
<g id="edge2" class="edge">
<title>Node3&#45;&gt;Node1</title>
<path fill="none" stroke="midnightblue" d="M426.15,-738C455.83,-731.38 488.42,-719.9 513,-700.01 561.46,-660.78 585.97,-586.59 594.69,-554.47"/>
<polygon fill="midnightblue" stroke="midnightblue" points="425.29,-734.6 416.21,-740.06 426.72,-741.46 425.29,-734.6"/>
</g>
<!-- Node4 -->
<g id="node4" class="node">
<title>Node4</title>
<g id="a_node4"><a xlink:title=" ">
<polygon fill="white" stroke="#bfbfbf" points="296,-693.51 296,-712.51 399,-712.51 399,-693.51 296,-693.51"/>
<text text-anchor="middle" x="347.5" y="-700.51" font-family="Helvetica,sans-Serif" font-size="10.00">vector&lt; double &gt;</text>
</a>
</g>
</g>
<!-- Node4&#45;&gt;Node1 -->
<g id="edge3" class="edge">
<title>Node4&#45;&gt;Node1</title>
<path fill="none" stroke="#9a32cd" stroke-dasharray="5,2" d="M409.24,-694.63C442.37,-687.71 482.68,-675.25 513,-653.01 549.9,-625.93 578.12,-578.46 590.93,-554.2"/>
<polygon fill="#9a32cd" stroke="#9a32cd" points="408.35,-691.24 399.21,-696.6 409.7,-698.11 408.35,-691.24"/>
<text text-anchor="middle" x="478" y="-688.01" font-family="Helvetica,sans-Serif" font-size="10.00"> active</text>
</g>
<!-- Node5 -->
<g id="node5" class="node">
<title>Node5</title>
<g id="a_node5"><a xlink:title=" ">
<polygon fill="white" stroke="#bfbfbf" points="270,-644.01 270,-674.01 425,-674.01 425,-644.01 270,-644.01"/>
<text text-anchor="start" x="278" y="-662.01" font-family="Helvetica,sans-Serif" font-size="10.00">ptr_vector&lt; MethodForForce</text>
<text text-anchor="middle" x="347.5" y="-651.01" font-family="Helvetica,sans-Serif" font-size="10.00">Scaling &gt; &amp;</text>
</a>
</g>
</g>
<!-- Node5&#45;&gt;Node1 -->
<g id="edge4" class="edge">
<title>Node5&#45;&gt;Node1</title>
<path fill="none" stroke="#9a32cd" stroke-dasharray="5,2" d="M433.89,-641.33C460.17,-634.01 488.59,-624.09 513,-611.01 541.22,-595.89 568.58,-570.35 584.47,-554.1"/>
<polygon fill="#9a32cd" stroke="#9a32cd" points="432.69,-638.03 423.94,-644.01 434.51,-644.79 432.69,-638.03"/>
<text text-anchor="middle" x="478" y="-641.01" font-family="Helvetica,sans-Serif" font-size="10.00"> methodsOp</text>
</g>
<!-- Node6 -->
<g id="node6" class="node">
<title>Node6</title>
<g id="a_node6"><a xlink:href="classFTensor_1_1Index.html" target="_top" xlink:title=" ">
<polygon fill="white" stroke="black" points="282.5,-529.51 282.5,-548.51 412.5,-548.51 412.5,-529.51 282.5,-529.51"/>
<text text-anchor="middle" x="347.5" y="-536.51" font-family="Helvetica,sans-Serif" font-size="10.00">FTensor::Index&lt; &#39;i&#39;, 3 &gt;</text>
</a>
</g>
</g>
<!-- Node6&#45;&gt;Node1 -->
<g id="edge5" class="edge">
<title>Node6&#45;&gt;Node1</title>
<path fill="none" stroke="#9a32cd" stroke-dasharray="5,2" d="M422.95,-539.01C457.12,-539.01 497.35,-539.01 530.67,-539.01"/>
<polygon fill="#9a32cd" stroke="#9a32cd" points="422.56,-535.51 412.56,-539.01 422.56,-542.51 422.56,-535.51"/>
<text text-anchor="middle" x="478" y="-542.01" font-family="Helvetica,sans-Serif" font-size="10.00"> i</text>
</g>
<!-- Node7 -->
<g id="node7" class="node">
<title>Node7</title>
<g id="a_node7"><a xlink:href="classFTensor_1_1Index.html" target="_top" xlink:title=" ">
<polygon fill="white" stroke="black" points="24.5,-616.01 24.5,-646.01 128.5,-646.01 128.5,-616.01 24.5,-616.01"/>
<text text-anchor="start" x="32.5" y="-634.01" font-family="Helvetica,sans-Serif" font-size="10.00">FTensor::Index&lt; i,</text>
<text text-anchor="middle" x="76.5" y="-623.01" font-family="Helvetica,sans-Serif" font-size="10.00"> Dim &gt;</text>
</a>
</g>
</g>
<!-- Node7&#45;&gt;Node6 -->
<g id="edge6" class="edge">
<title>Node7&#45;&gt;Node6</title>
<path fill="none" stroke="orange" stroke-dasharray="5,2" d="M126.64,-612.35C140.92,-607 156.56,-601.21 171,-596.01 206.84,-583.11 217.22,-583.54 252,-568.01 260.36,-564.28 261.49,-561.36 270,-558.01 279.42,-554.3 289.79,-551.14 299.77,-548.54"/>
<polygon fill="orange" stroke="orange" points="125.13,-609.18 117,-615.97 127.59,-615.73 125.13,-609.18"/>
<text text-anchor="middle" x="211.5" y="-599.01" font-family="Helvetica,sans-Serif" font-size="10.00"> &lt; &#39;i&#39;, 3 &gt;</text>
</g>
<!-- Node20 -->
<g id="node20" class="node">
<title>Node20</title>
<g id="a_node20"><a xlink:href="classFTensor_1_1Index.html" target="_top" xlink:title=" ">
<polygon fill="white" stroke="black" points="282.5,-605.51 282.5,-624.51 412.5,-624.51 412.5,-605.51 282.5,-605.51"/>
<text text-anchor="middle" x="347.5" y="-612.51" font-family="Helvetica,sans-Serif" font-size="10.00">FTensor::Index&lt; &#39;j&#39;, 3 &gt;</text>
</a>
</g>
</g>
<!-- Node7&#45;&gt;Node20 -->
<g id="edge20" class="edge">
<title>Node7&#45;&gt;Node20</title>
<path fill="none" stroke="orange" stroke-dasharray="5,2" d="M138.92,-640.03C149.6,-641.27 160.6,-642.34 171,-643.01 206.93,-645.31 216.78,-650.48 252,-643.01 260.56,-641.19 261.74,-637.9 270,-635.01 281.14,-631.11 293.43,-627.57 304.84,-624.59"/>
<polygon fill="orange" stroke="orange" points="139.18,-636.53 128.83,-638.79 138.33,-643.48 139.18,-636.53"/>
<text text-anchor="middle" x="211.5" y="-649.01" font-family="Helvetica,sans-Serif" font-size="10.00"> &lt; &#39;j&#39;, 3 &gt;</text>
</g>
<!-- Node22 -->
<g id="node22" class="node">
<title>Node22</title>
<g id="a_node22"><a xlink:href="classFTensor_1_1Index.html" target="_top" xlink:title=" ">
<polygon fill="white" stroke="black" points="281,-567.51 281,-586.51 414,-586.51 414,-567.51 281,-567.51"/>
<text text-anchor="middle" x="347.5" y="-574.51" font-family="Helvetica,sans-Serif" font-size="10.00">FTensor::Index&lt; &#39;k&#39;, 3 &gt;</text>
</a>
</g>
</g>
<!-- Node7&#45;&gt;Node22 -->
<g id="edge23" class="edge">
<title>Node7&#45;&gt;Node22</title>
<path fill="none" stroke="orange" stroke-dasharray="5,2" d="M139.13,-630.66C173.4,-628.66 216.21,-623.11 252,-609.01 261.18,-605.39 261.05,-600.16 270,-596.01 278.19,-592.21 287.25,-589.1 296.17,-586.59"/>
<polygon fill="orange" stroke="orange" points="138.6,-627.19 128.79,-631.18 138.95,-634.18 138.6,-627.19"/>
<text text-anchor="middle" x="211.5" y="-630.01" font-family="Helvetica,sans-Serif" font-size="10.00"> &lt; &#39;k&#39;, 3 &gt;</text>
</g>
<!-- Node8 -->
<g id="node8" class="node">
<title>Node8</title>
<g id="a_node8"><a xlink:href="structConvectiveMassElement_1_1BlockData.html" target="_top" xlink:title="data for calculation inertia forces">
<polygon fill="white" stroke="black" points="279,-480.01 279,-510.01 416,-510.01 416,-480.01 279,-480.01"/>
<text text-anchor="start" x="287" y="-498.01" font-family="Helvetica,sans-Serif" font-size="10.00">ConvectiveMassElement</text>
<text text-anchor="middle" x="347.5" y="-487.01" font-family="Helvetica,sans-Serif" font-size="10.00">::BlockData</text>
</a>
</g>
</g>
<!-- Node8&#45;&gt;Node1 -->
<g id="edge7" class="edge">
<title>Node8&#45;&gt;Node1</title>
<path fill="none" stroke="#9a32cd" stroke-dasharray="5,2" d="M426.35,-508.71C459.81,-514.6 498.55,-521.42 530.79,-527.09"/>
<polygon fill="#9a32cd" stroke="#9a32cd" points="426.61,-505.2 416.15,-506.92 425.4,-512.1 426.61,-505.2"/>
<text text-anchor="middle" x="478" y="-526.01" font-family="Helvetica,sans-Serif" font-size="10.00"> dAta</text>
</g>
<!-- Node9 -->
<g id="node9" class="node">
<title>Node9</title>
<g id="a_node9"><a xlink:href="classdouble.html" target="_top" xlink:title=" ">
<polygon fill="white" stroke="black" points="51.5,-481.51 51.5,-500.51 101.5,-500.51 101.5,-481.51 51.5,-481.51"/>
<text text-anchor="middle" x="76.5" y="-488.51" font-family="Helvetica,sans-Serif" font-size="10.00">double</text>
</a>
</g>
</g>
<!-- Node9&#45;&gt;Node8 -->
<g id="edge8" class="edge">
<title>Node9&#45;&gt;Node8</title>
<path fill="none" stroke="#9a32cd" stroke-dasharray="5,2" d="M112.09,-491.52C154.04,-492.15 225.7,-493.21 278.77,-494"/>
<polygon fill="#9a32cd" stroke="#9a32cd" points="111.9,-488.02 101.85,-491.37 111.79,-495.02 111.9,-488.02"/>
<text text-anchor="middle" x="211.5" y="-496.01" font-family="Helvetica,sans-Serif" font-size="10.00"> rho0</text>
</g>
<!-- Node10 -->
<g id="node10" class="node">
<title>Node10</title>
<g id="a_node10"><a xlink:href="classRange.html" target="_top" xlink:title=" ">
<polygon fill="white" stroke="black" points="53,-557.51 53,-576.51 100,-576.51 100,-557.51 53,-557.51"/>
<text text-anchor="middle" x="76.5" y="-564.51" font-family="Helvetica,sans-Serif" font-size="10.00">Range</text>
</a>
</g>
</g>
<!-- Node10&#45;&gt;Node8 -->
<g id="edge9" class="edge">
<title>Node10&#45;&gt;Node8</title>
<path fill="none" stroke="#9a32cd" stroke-dasharray="5,2" d="M110.61,-563.62C146.45,-559.18 204.8,-549.64 252,-531.01 260.72,-527.57 261.49,-523.94 270,-520.01 277.87,-516.38 286.41,-513.04 294.84,-510.07"/>
<polygon fill="#9a32cd" stroke="#9a32cd" points="109.77,-560.2 100.25,-564.84 110.59,-567.15 109.77,-560.2"/>
<text text-anchor="middle" x="211.5" y="-556.01" font-family="Helvetica,sans-Serif" font-size="10.00"> tEts</text>
</g>
<!-- Node11 -->
<g id="node11" class="node">
<title>Node11</title>
<g id="a_node11"><a xlink:title=" ">
<polygon fill="white" stroke="#bfbfbf" points="35.5,-519.51 35.5,-538.51 117.5,-538.51 117.5,-519.51 35.5,-519.51"/>
<text text-anchor="middle" x="76.5" y="-526.51" font-family="Helvetica,sans-Serif" font-size="10.00">VectorDouble</text>
</a>
</g>
</g>
<!-- Node11&#45;&gt;Node8 -->
<g id="edge10" class="edge">
<title>Node11&#45;&gt;Node8</title>
<path fill="none" stroke="#9a32cd" stroke-dasharray="5,2" d="M127.64,-522.7C162.52,-518.31 210.09,-512.31 252,-507.01 260.7,-505.91 269.84,-504.75 278.88,-503.6"/>
<polygon fill="#9a32cd" stroke="#9a32cd" points="127.18,-519.23 117.7,-523.95 128.06,-526.17 127.18,-519.23"/>
<text text-anchor="middle" x="211.5" y="-519.01" font-family="Helvetica,sans-Serif" font-size="10.00"> a0</text>
</g>
<!-- Node12 -->
<g id="node12" class="node">
<title>Node12</title>
<g id="a_node12"><a xlink:href="structConvectiveMassElement_1_1CommonData.html" target="_top" xlink:title="common data used by volume elements">
<polygon fill="white" stroke="black" points="279,-306.01 279,-336.01 416,-336.01 416,-306.01 279,-306.01"/>
<text text-anchor="start" x="287" y="-324.01" font-family="Helvetica,sans-Serif" font-size="10.00">ConvectiveMassElement</text>
<text text-anchor="middle" x="347.5" y="-313.01" font-family="Helvetica,sans-Serif" font-size="10.00">::CommonData</text>
</a>
</g>
</g>
<!-- Node12&#45;&gt;Node1 -->
<g id="edge11" class="edge">
<title>Node12&#45;&gt;Node1</title>
<path fill="none" stroke="#9a32cd" stroke-dasharray="5,2" d="M373.67,-342.96C424.44,-387.23 537.97,-486.23 581.27,-523.99"/>
<polygon fill="#9a32cd" stroke="#9a32cd" points="375.92,-340.27 366.08,-336.34 371.32,-345.55 375.92,-340.27"/>
<text text-anchor="middle" x="478" y="-465.01" font-family="Helvetica,sans-Serif" font-size="10.00"> commonData</text>
</g>
<!-- Node13 -->
<g id="node13" class="node">
<title>Node13</title>
<g id="a_node13"><a xlink:title=" ">
<polygon fill="white" stroke="#bfbfbf" points="21.5,-430.01 21.5,-460.01 131.5,-460.01 131.5,-430.01 21.5,-430.01"/>
<text text-anchor="start" x="29.5" y="-448.01" font-family="Helvetica,sans-Serif" font-size="10.00">vector&lt; std::vector</text>
<text text-anchor="middle" x="76.5" y="-437.01" font-family="Helvetica,sans-Serif" font-size="10.00">&lt; double * &gt; &gt;</text>
</a>
</g>
</g>
<!-- Node13&#45;&gt;Node12 -->
<g id="edge12" class="edge">
<title>Node13&#45;&gt;Node12</title>
<path fill="none" stroke="#9a32cd" stroke-dasharray="5,2" d="M142.21,-439.09C176.33,-433.99 218.04,-424.53 252,-407.01 286.5,-389.21 317.99,-355.56 334.47,-336.04"/>
<polygon fill="#9a32cd" stroke="#9a32cd" points="141.3,-435.68 131.88,-440.53 142.27,-442.61 141.3,-435.68"/>
<text text-anchor="middle" x="211.5" y="-458.01" font-family="Helvetica,sans-Serif" font-size="10.00"> jacVelRowPtr</text>
<text text-anchor="middle" x="211.5" y="-447.01" font-family="Helvetica,sans-Serif" font-size="10.00">jacMassRowPtr</text>
<text text-anchor="middle" x="211.5" y="-436.01" font-family="Helvetica,sans-Serif" font-size="10.00">jacTRowPtr</text>
</g>
<!-- Node14 -->
<g id="node14" class="node">
<title>Node14</title>
<g id="a_node14"><a xlink:title=" ">
<polygon fill="white" stroke="#bfbfbf" points="0.5,-381.01 0.5,-411.01 152.5,-411.01 152.5,-381.01 0.5,-381.01"/>
<text text-anchor="start" x="8.5" y="-399.01" font-family="Helvetica,sans-Serif" font-size="10.00">map&lt; std::string, std</text>
<text text-anchor="middle" x="76.5" y="-388.01" font-family="Helvetica,sans-Serif" font-size="10.00">::vector&lt; VectorDouble &gt; &gt;</text>
</a>
</g>
</g>
<!-- Node14&#45;&gt;Node12 -->
<g id="edge13" class="edge">
<title>Node14&#45;&gt;Node12</title>
<path fill="none" stroke="#9a32cd" stroke-dasharray="5,2" d="M162.89,-393.28C191.75,-390.51 223.78,-385.38 252,-376.01 279.56,-366.86 307.93,-349 326.3,-336.11"/>
<polygon fill="#9a32cd" stroke="#9a32cd" points="162.49,-389.8 152.83,-394.16 163.1,-396.77 162.49,-389.8"/>
<text text-anchor="middle" x="211.5" y="-395.01" font-family="Helvetica,sans-Serif" font-size="10.00"> dataAtGaussPts</text>
</g>
<!-- Node15 -->
<g id="node15" class="node">
<title>Node15</title>
<g id="a_node15"><a xlink:title=" ">
<polygon fill="white" stroke="#bfbfbf" points="8.5,-339.51 8.5,-358.51 144.5,-358.51 144.5,-339.51 8.5,-339.51"/>
<text text-anchor="middle" x="76.5" y="-346.51" font-family="Helvetica,sans-Serif" font-size="10.00">vector&lt; MatrixDouble &gt;</text>
</a>
</g>
</g>
<!-- Node15&#45;&gt;Node12 -->
<g id="edge14" class="edge">
<title>Node15&#45;&gt;Node12</title>
<path fill="none" stroke="#9a32cd" stroke-dasharray="5,2" d="M154.97,-340.95C194.09,-336.87 241.11,-331.98 278.77,-328.06"/>
<polygon fill="#9a32cd" stroke="#9a32cd" points="154.27,-337.5 144.69,-342.02 154.99,-344.46 154.27,-337.5"/>
<text text-anchor="middle" x="211.5" y="-364.01" font-family="Helvetica,sans-Serif" font-size="10.00"> jacVel</text>
<text text-anchor="middle" x="211.5" y="-353.01" font-family="Helvetica,sans-Serif" font-size="10.00">jacT</text>
<text text-anchor="middle" x="211.5" y="-342.01" font-family="Helvetica,sans-Serif" font-size="10.00">jacMass</text>
</g>
<!-- Node16 -->
<g id="node16" class="node">
<title>Node16</title>
<g id="a_node16"><a xlink:title=" ">
<polygon fill="white" stroke="#bfbfbf" points="54.5,-288.51 54.5,-307.51 98.5,-307.51 98.5,-288.51 54.5,-288.51"/>
<text text-anchor="middle" x="76.5" y="-295.51" font-family="Helvetica,sans-Serif" font-size="10.00">string</text>
</a>
</g>
</g>
<!-- Node16&#45;&gt;Node12 -->
<g id="edge15" class="edge">
<title>Node16&#45;&gt;Node12</title>
<path fill="none" stroke="#9a32cd" stroke-dasharray="5,2" d="M108.67,-294.28C143.71,-290.78 202.23,-287.04 252,-294.01 269.07,-296.4 287.38,-301.11 303.29,-305.93"/>
<polygon fill="#9a32cd" stroke="#9a32cd" points="108.16,-290.81 98.58,-295.34 108.89,-297.77 108.16,-290.81"/>
<text text-anchor="middle" x="211.5" y="-319.01" font-family="Helvetica,sans-Serif" font-size="10.00"> meshPositions</text>
<text text-anchor="middle" x="211.5" y="-308.01" font-family="Helvetica,sans-Serif" font-size="10.00">spatialVelocities</text>
<text text-anchor="middle" x="211.5" y="-297.01" font-family="Helvetica,sans-Serif" font-size="10.00">spatialPositions</text>
</g>
<!-- Node17 -->
<g id="node17" class="node">
<title>Node17</title>
<g id="a_node17"><a xlink:title=" ">
<polygon fill="white" stroke="#bfbfbf" points="0,-239.01 0,-269.01 153,-269.01 153,-239.01 0,-239.01"/>
<text text-anchor="start" x="8" y="-257.01" font-family="Helvetica,sans-Serif" font-size="10.00">map&lt; std::string, std</text>
<text text-anchor="middle" x="76.5" y="-246.01" font-family="Helvetica,sans-Serif" font-size="10.00">::vector&lt; MatrixDouble &gt; &gt;</text>
</a>
</g>
</g>
<!-- Node17&#45;&gt;Node12 -->
<g id="edge16" class="edge">
<title>Node17&#45;&gt;Node12</title>
<path fill="none" stroke="#9a32cd" stroke-dasharray="5,2" d="M163.32,-258.61C191.93,-261.65 223.72,-266.68 252,-275.01 276.68,-282.28 302.84,-295.49 321.36,-305.9"/>
<polygon fill="#9a32cd" stroke="#9a32cd" points="163.63,-255.12 153.34,-257.62 162.94,-262.09 163.63,-255.12"/>
<text text-anchor="middle" x="211.5" y="-278.01" font-family="Helvetica,sans-Serif" font-size="10.00"> gradAtGaussPts</text>
</g>
<!-- Node18 -->
<g id="node18" class="node">
<title>Node18</title>
<g id="a_node18"><a xlink:href="classbool.html" target="_top" xlink:title=" ">
<polygon fill="white" stroke="black" points="57.5,-132.51 57.5,-151.51 95.5,-151.51 95.5,-132.51 57.5,-132.51"/>
<text text-anchor="middle" x="76.5" y="-139.51" font-family="Helvetica,sans-Serif" font-size="10.00">bool</text>
</a>
</g>
</g>
<!-- Node18&#45;&gt;Node1 -->
<g id="edge24" class="edge">
<title>Node18&#45;&gt;Node1</title>
<path fill="none" stroke="#9a32cd" stroke-dasharray="5,2" d="M105.55,-132.74C142.29,-122.43 207.26,-110.7 252,-139.01 267.79,-149 257.25,-163.35 270,-177.01 323.9,-234.77 367.41,-209.93 425,-264.01 511.62,-345.35 573.1,-478.86 592.22,-523.74"/>
<polygon fill="#9a32cd" stroke="#9a32cd" points="104.14,-129.51 95.55,-135.71 106.13,-136.22 104.14,-129.51"/>
<text text-anchor="middle" x="347.5" y="-289.01" font-family="Helvetica,sans-Serif" font-size="10.00"> lInear</text>
<text text-anchor="middle" x="347.5" y="-278.01" font-family="Helvetica,sans-Serif" font-size="10.00">jAcobian</text>
<text text-anchor="middle" x="347.5" y="-267.01" font-family="Helvetica,sans-Serif" font-size="10.00">fieldDisp</text>
</g>
<!-- Node18&#45;&gt;Node12 -->
<g id="edge17" class="edge">
<title>Node18&#45;&gt;Node12</title>
<path fill="none" stroke="#9a32cd" stroke-dasharray="5,2" d="M105.92,-138.9C144.17,-136.39 212.01,-138.07 252,-175.01 274.34,-195.64 255.03,-214.54 270,-241.01 284.76,-267.1 309.94,-291.1 327.36,-305.87"/>
<polygon fill="#9a32cd" stroke="#9a32cd" points="105.2,-135.45 95.52,-139.74 105.76,-142.42 105.2,-135.45"/>
<text text-anchor="middle" x="211.5" y="-189.01" font-family="Helvetica,sans-Serif" font-size="10.00"> lInear</text>
<text text-anchor="middle" x="211.5" y="-178.01" font-family="Helvetica,sans-Serif" font-size="10.00">staticOnly</text>
</g>
<!-- Node19 -->
<g id="node19" class="node">
<title>Node19</title>
<g id="a_node19"><a xlink:title=" ">
<polygon fill="white" stroke="#bfbfbf" points="9,-193.51 9,-212.51 144,-212.51 144,-193.51 9,-193.51"/>
<text text-anchor="middle" x="76.5" y="-200.51" font-family="Helvetica,sans-Serif" font-size="10.00">vector&lt; VectorDouble &gt;</text>
</a>
</g>
</g>
<!-- Node19&#45;&gt;Node12 -->
<g id="edge18" class="edge">
<title>Node19&#45;&gt;Node12</title>
<path fill="none" stroke="#9a32cd" stroke-dasharray="5,2" d="M154.44,-200C186.07,-201.6 222.19,-207.22 252,-222.01 262.42,-227.18 261.98,-232.58 270,-241.01 291.6,-263.7 316.7,-289.93 332.1,-305.99"/>
<polygon fill="#9a32cd" stroke="#9a32cd" points="154.47,-196.5 144.34,-199.62 154.2,-203.49 154.47,-196.5"/>
<text text-anchor="middle" x="211.5" y="-247.01" font-family="Helvetica,sans-Serif" font-size="10.00"> valMass</text>
<text text-anchor="middle" x="211.5" y="-236.01" font-family="Helvetica,sans-Serif" font-size="10.00">valT</text>
<text text-anchor="middle" x="211.5" y="-225.01" font-family="Helvetica,sans-Serif" font-size="10.00">valVel</text>
</g>
<!-- Node20&#45;&gt;Node1 -->
<g id="edge19" class="edge">
<title>Node20&#45;&gt;Node1</title>
<path fill="none" stroke="#9a32cd" stroke-dasharray="5,2" d="M414.2,-603.47C444.66,-597.3 481.09,-588.75 513,-578.01 532.33,-571.51 553.17,-562.05 569.43,-554.09"/>
<polygon fill="#9a32cd" stroke="#9a32cd" points="413.24,-600.09 404.12,-605.47 414.61,-606.96 413.24,-600.09"/>
<text text-anchor="middle" x="478" y="-599.01" font-family="Helvetica,sans-Serif" font-size="10.00"> j</text>
</g>
<!-- Node21 -->
<g id="node21" class="node">
<title>Node21</title>
<g id="a_node21"><a xlink:title=" ">
<polygon fill="white" stroke="#bfbfbf" points="333,-148.51 333,-167.51 362,-167.51 362,-148.51 333,-148.51"/>
<text text-anchor="middle" x="347.5" y="-155.51" font-family="Helvetica,sans-Serif" font-size="10.00">int</text>
</a>
</g>
</g>
<!-- Node21&#45;&gt;Node1 -->
<g id="edge21" class="edge">
<title>Node21&#45;&gt;Node1</title>
<path fill="none" stroke="#9a32cd" stroke-dasharray="5,2" d="M372.15,-157.83C412.61,-158.04 492.75,-160.8 513,-179.01 565.91,-226.57 591.27,-461.34 597.14,-523.75"/>
<polygon fill="#9a32cd" stroke="#9a32cd" points="372.09,-154.33 362.09,-157.83 372.09,-161.33 372.09,-154.33"/>
<text text-anchor="middle" x="478" y="-182.01" font-family="Helvetica,sans-Serif" font-size="10.00"> tAg</text>
</g>
<!-- Node22&#45;&gt;Node1 -->
<g id="edge22" class="edge">
<title>Node22&#45;&gt;Node1</title>
<path fill="none" stroke="#9a32cd" stroke-dasharray="5,2" d="M424.27,-566.24C452.18,-562.19 484.04,-557.49 513,-553.01 518.8,-552.11 524.81,-551.16 530.84,-550.2"/>
<polygon fill="#9a32cd" stroke="#9a32cd" points="423.57,-562.8 414.18,-567.69 424.58,-569.73 423.57,-562.8"/>
<text text-anchor="middle" x="478" y="-566.01" font-family="Helvetica,sans-Serif" font-size="10.00"> k</text>
</g>
<!-- Node23 -->
<g id="node23" class="node">
<title>Node23</title>
<g id="a_node23"><a xlink:href="classMatrixBoundedArray_3_01adouble_00_019_01_4.html" target="_top" xlink:title=" ">
<polygon fill="white" stroke="black" points="289,-74.01 289,-104.01 406,-104.01 406,-74.01 289,-74.01"/>
<text text-anchor="start" x="297" y="-92.01" font-family="Helvetica,sans-Serif" font-size="10.00">MatrixBoundedArray</text>
<text text-anchor="middle" x="347.5" y="-81.01" font-family="Helvetica,sans-Serif" font-size="10.00">&lt; adouble, 9 &gt;</text>
</a>
</g>
</g>
<!-- Node23&#45;&gt;Node1 -->
<g id="edge25" class="edge">
<title>Node23&#45;&gt;Node1</title>
<path fill="none" stroke="#9a32cd" stroke-dasharray="5,2" d="M408.69,-72.13C442.98,-66.36 484.64,-66.39 513,-90.01 581.75,-147.26 595.72,-452.04 598.08,-523.85"/>
<polygon fill="#9a32cd" stroke="#9a32cd" points="407.95,-68.71 398.77,-73.99 409.24,-75.59 407.95,-68.71"/>
<text text-anchor="middle" x="478" y="-148.01" font-family="Helvetica,sans-Serif" font-size="10.00"> g</text>
<text text-anchor="middle" x="478" y="-137.01" font-family="Helvetica,sans-Serif" font-size="10.00">F</text>
<text text-anchor="middle" x="478" y="-126.01" font-family="Helvetica,sans-Serif" font-size="10.00">h</text>
<text text-anchor="middle" x="478" y="-115.01" font-family="Helvetica,sans-Serif" font-size="10.00">G</text>
<text text-anchor="middle" x="478" y="-104.01" font-family="Helvetica,sans-Serif" font-size="10.00">H</text>
<text text-anchor="middle" x="478" y="-93.01" font-family="Helvetica,sans-Serif" font-size="10.00">invH</text>
</g>
<!-- Node24 -->
<g id="node24" class="node">
<title>Node24</title>
<g id="a_node24"><a xlink:title=" ">
<polygon fill="white" stroke="#bfbfbf" points="289.5,-7.01 289.5,-37.01 405.5,-37.01 405.5,-7.01 289.5,-7.01"/>
<text text-anchor="start" x="297.5" y="-25.01" font-family="Helvetica,sans-Serif" font-size="10.00">VectorBoundedArray</text>
<text text-anchor="middle" x="347.5" y="-14.01" font-family="Helvetica,sans-Serif" font-size="10.00">&lt; adouble, 3 &gt;</text>
</a>
</g>
</g>
<!-- Node24&#45;&gt;Node1 -->
<g id="edge26" class="edge">
<title>Node24&#45;&gt;Node1</title>
<path fill="none" stroke="#9a32cd" stroke-dasharray="5,2" d="M404.89,-4.71C439.95,2.31 483.76,3.8 513,-21.01 592.14,-88.16 598.14,-445.81 598.5,-523.93"/>
<polygon fill="#9a32cd" stroke="#9a32cd" points="403.81,-1.37 394.79,-6.94 405.31,-8.21 403.81,-1.37"/>
<text text-anchor="middle" x="478" y="-57.01" font-family="Helvetica,sans-Serif" font-size="10.00"> a_res</text>
<text text-anchor="middle" x="478" y="-46.01" font-family="Helvetica,sans-Serif" font-size="10.00">dot_W</text>
<text text-anchor="middle" x="478" y="-35.01" font-family="Helvetica,sans-Serif" font-size="10.00">a</text>
<text text-anchor="middle" x="478" y="-24.01" font-family="Helvetica,sans-Serif" font-size="10.00">dp_dt</text>
</g>
</g>
</svg>
