<?xml version="1.0" encoding="UTF-8" standalone="no"?>
<!DOCTYPE svg PUBLIC "-//W3C//DTD SVG 1.1//EN"
 "http://www.w3.org/Graphics/SVG/1.1/DTD/svg11.dtd">
<!-- Generated by graphviz version 2.43.0 (0)
 -->
<!-- Title: ConstrainMatrixCtx Pages: 1 -->
<svg width="1536pt" height="633pt"
 viewBox="0.00 0.00 1536.00 633.21" xmlns="http://www.w3.org/2000/svg" xmlns:xlink="http://www.w3.org/1999/xlink">
<g id="graph0" class="graph" transform="scale(1 1) rotate(0) translate(4 629.21)">
<title>ConstrainMatrixCtx</title>
<polygon fill="white" stroke="transparent" points="-4,4 -4,-629.21 1532,-629.21 1532,4 -4,4"/>
<!-- Node1 -->
<g id="node1" class="node">
<title>Node1</title>
<g id="a_node1"><a xlink:title="structure for projection matrices">
<polygon fill="#bfbfbf" stroke="black" points="1417,-330.71 1417,-349.71 1528,-349.71 1528,-330.71 1417,-330.71"/>
<text text-anchor="middle" x="1472.5" y="-337.71" font-family="Helvetica,sans-Serif" font-size="10.00">ConstrainMatrixCtx</text>
</a>
</g>
</g>
<!-- Node2 -->
<g id="node2" class="node">
<title>Node2</title>
<g id="a_node2"><a xlink:title=" ">
<polygon fill="white" stroke="#bfbfbf" points="1155,-592.71 1155,-611.71 1190,-611.71 1190,-592.71 1155,-592.71"/>
<text text-anchor="middle" x="1172.5" y="-599.71" font-family="Helvetica,sans-Serif" font-size="10.00">KSP</text>
</a>
</g>
</g>
<!-- Node2&#45;&gt;Node1 -->
<g id="edge1" class="edge">
<title>Node2&#45;&gt;Node1</title>
<path fill="none" stroke="#9a32cd" stroke-dasharray="5,2" d="M1200.11,-608.05C1246.25,-616.51 1341.65,-626.44 1399,-579.21 1472.47,-518.7 1473.25,-386.25 1471.98,-349.71"/>
<polygon fill="#9a32cd" stroke="#9a32cd" points="1200.75,-604.61 1190.26,-606.12 1199.41,-611.48 1200.75,-604.61"/>
<text text-anchor="middle" x="1340" y="-617.21" font-family="Helvetica,sans-Serif" font-size="10.00"> kSP</text>
</g>
<!-- Node3 -->
<g id="node3" class="node">
<title>Node3</title>
<g id="a_node3"><a xlink:title=" ">
<polygon fill="white" stroke="#bfbfbf" points="1138.5,-554.71 1138.5,-573.71 1206.5,-573.71 1206.5,-554.71 1138.5,-554.71"/>
<text text-anchor="middle" x="1172.5" y="-561.71" font-family="Helvetica,sans-Serif" font-size="10.00">VecScatter</text>
</a>
</g>
</g>
<!-- Node3&#45;&gt;Node1 -->
<g id="edge2" class="edge">
<title>Node3&#45;&gt;Node1</title>
<path fill="none" stroke="#9a32cd" stroke-dasharray="5,2" d="M1216.84,-565.32C1274.27,-565.92 1371.54,-563.59 1399,-542.21 1462.49,-492.75 1470.46,-382.94 1471.39,-349.84"/>
<polygon fill="#9a32cd" stroke="#9a32cd" points="1216.65,-561.82 1206.6,-565.18 1216.55,-568.82 1216.65,-561.82"/>
<text text-anchor="middle" x="1340" y="-567.21" font-family="Helvetica,sans-Serif" font-size="10.00"> sCatter</text>
</g>
<!-- Node4 -->
<g id="node4" class="node">
<title>Node4</title>
<g id="a_node4"><a xlink:href="structMoFEM_1_1DeprecatedCoreInterface.html" target="_top" xlink:title="Deprecated interface functions.">
<polygon fill="white" stroke="black" points="1082,-516.71 1082,-535.71 1263,-535.71 1263,-516.71 1082,-516.71"/>
<text text-anchor="middle" x="1172.5" y="-523.71" font-family="Helvetica,sans-Serif" font-size="10.00">MoFEM::DeprecatedCoreInterface</text>
</a>
</g>
</g>
<!-- Node4&#45;&gt;Node1 -->
<g id="edge3" class="edge">
<title>Node4&#45;&gt;Node1</title>
<path fill="none" stroke="#9a32cd" stroke-dasharray="5,2" d="M1273.22,-528.14C1323.86,-527.2 1378.87,-522.62 1399,-508.21 1453.75,-468.99 1467.54,-379.51 1470.66,-349.91"/>
<polygon fill="#9a32cd" stroke="#9a32cd" points="1273.11,-524.64 1263.16,-528.28 1273.21,-531.64 1273.11,-524.64"/>
<text text-anchor="middle" x="1340" y="-530.21" font-family="Helvetica,sans-Serif" font-size="10.00"> mField</text>
</g>
<!-- Node5 -->
<g id="node5" class="node">
<title>Node5</title>
<g id="a_node5"><a xlink:href="structMoFEM_1_1CoreInterface.html" target="_top" xlink:title="Interface.">
<polygon fill="white" stroke="black" points="920,-516.71 920,-535.71 1045,-535.71 1045,-516.71 920,-516.71"/>
<text text-anchor="middle" x="982.5" y="-523.71" font-family="Helvetica,sans-Serif" font-size="10.00">MoFEM::CoreInterface</text>
</a>
</g>
</g>
<!-- Node5&#45;&gt;Node4 -->
<g id="edge4" class="edge">
<title>Node5&#45;&gt;Node4</title>
<path fill="none" stroke="midnightblue" d="M1055.16,-526.21C1063.89,-526.21 1072.89,-526.21 1081.84,-526.21"/>
<polygon fill="midnightblue" stroke="midnightblue" points="1055.06,-522.71 1045.06,-526.21 1055.06,-529.71 1055.06,-522.71"/>
</g>
<!-- Node6 -->
<g id="node6" class="node">
<title>Node6</title>
<g id="a_node6"><a xlink:href="structMoFEM_1_1UnknownInterface.html" target="_top" xlink:title="base class for all interface classes">
<polygon fill="white" stroke="black" points="735,-516.71 735,-535.71 883,-535.71 883,-516.71 735,-516.71"/>
<text text-anchor="middle" x="809" y="-523.71" font-family="Helvetica,sans-Serif" font-size="10.00">MoFEM::UnknownInterface</text>
</a>
</g>
</g>
<!-- Node6&#45;&gt;Node5 -->
<g id="edge5" class="edge">
<title>Node6&#45;&gt;Node5</title>
<path fill="none" stroke="midnightblue" d="M893.29,-526.21C902.24,-526.21 911.22,-526.21 919.85,-526.21"/>
<polygon fill="midnightblue" stroke="midnightblue" points="893.23,-522.71 883.23,-526.21 893.23,-529.71 893.23,-522.71"/>
</g>
<!-- Node7 -->
<g id="node7" class="node">
<title>Node7</title>
<g id="a_node7"><a xlink:title=" ">
<polygon fill="white" stroke="#bfbfbf" points="386,-494.71 386,-557.71 627,-557.71 627,-494.71 386,-494.71"/>
<text text-anchor="start" x="394" y="-545.71" font-family="Helvetica,sans-Serif" font-size="10.00">multi_index_container</text>
<text text-anchor="start" x="394" y="-534.71" font-family="Helvetica,sans-Serif" font-size="10.00">&lt; UIdTypeMap, indexed</text>
<text text-anchor="start" x="394" y="-523.71" font-family="Helvetica,sans-Serif" font-size="10.00">_by&lt; hashed_unique&lt; member</text>
<text text-anchor="start" x="394" y="-512.71" font-family="Helvetica,sans-Serif" font-size="10.00">&lt; UIdTypeMap, boost::typeindex</text>
<text text-anchor="middle" x="506.5" y="-501.71" font-family="Helvetica,sans-Serif" font-size="10.00">::type_index, &amp;UIdTypeMap::classIdx &gt; &gt; &gt; &gt;</text>
</a>
</g>
</g>
<!-- Node7&#45;&gt;Node6 -->
<g id="edge6" class="edge">
<title>Node7&#45;&gt;Node6</title>
<path fill="none" stroke="#9a32cd" stroke-dasharray="5,2" d="M637.41,-526.21C670.69,-526.21 705.33,-526.21 734.62,-526.21"/>
<polygon fill="#9a32cd" stroke="#9a32cd" points="637.13,-522.71 627.13,-526.21 637.13,-529.71 637.13,-522.71"/>
<text text-anchor="middle" x="681" y="-529.21" font-family="Helvetica,sans-Serif" font-size="10.00"> iFaceTypeMap</text>
</g>
<!-- Node8 -->
<g id="node8" class="node">
<title>Node8</title>
<g id="a_node8"><a xlink:title=" ">
<polygon fill="white" stroke="#bfbfbf" points="0,-516.71 0,-535.71 125,-535.71 125,-516.71 0,-516.71"/>
<text text-anchor="middle" x="62.5" y="-523.71" font-family="Helvetica,sans-Serif" font-size="10.00">multi_index_container</text>
</a>
</g>
</g>
<!-- Node8&#45;&gt;Node7 -->
<g id="edge7" class="edge">
<title>Node8&#45;&gt;Node7</title>
<path fill="none" stroke="orange" stroke-dasharray="5,2" d="M135.56,-526.21C203.25,-526.21 305.79,-526.21 385.77,-526.21"/>
<polygon fill="orange" stroke="orange" points="135.42,-522.71 125.42,-526.21 135.42,-529.71 135.42,-522.71"/>
<text text-anchor="start" x="143" y="-562.21" font-family="Helvetica,sans-Serif" font-size="10.00"> &lt; UIdTypeMap, indexed</text>
<text text-anchor="start" x="143" y="-551.21" font-family="Helvetica,sans-Serif" font-size="10.00">_by&lt; hashed_unique&lt; member</text>
<text text-anchor="start" x="143" y="-540.21" font-family="Helvetica,sans-Serif" font-size="10.00">&lt; UIdTypeMap, boost::typeindex</text>
<text text-anchor="middle" x="255.5" y="-529.21" font-family="Helvetica,sans-Serif" font-size="10.00">::type_index, &amp;UIdTypeMap::classIdx &gt; &gt; &gt; &gt;</text>
</g>
<!-- Node9 -->
<g id="node9" class="node">
<title>Node9</title>
<g id="a_node9"><a xlink:title=" ">
<polygon fill="white" stroke="#bfbfbf" points="1128.5,-420.71 1128.5,-439.71 1216.5,-439.71 1216.5,-420.71 1128.5,-420.71"/>
<text text-anchor="middle" x="1172.5" y="-427.71" font-family="Helvetica,sans-Serif" font-size="10.00">PetscLogEvent</text>
</a>
</g>
</g>
<!-- Node9&#45;&gt;Node1 -->
<g id="edge8" class="edge">
<title>Node9&#45;&gt;Node1</title>
<path fill="none" stroke="#9a32cd" stroke-dasharray="5,2" d="M1226.65,-432.88C1273.9,-433.25 1343.83,-428.78 1399,-404.21 1426.91,-391.77 1451.78,-364.67 1463.83,-350.04"/>
<polygon fill="#9a32cd" stroke="#9a32cd" points="1226.69,-429.38 1216.63,-432.72 1226.58,-436.38 1226.69,-429.38"/>
<text text-anchor="middle" x="1340" y="-499.21" font-family="Helvetica,sans-Serif" font-size="10.00"> MOFEM_EVENT_projRT</text>
<text text-anchor="middle" x="1340" y="-488.21" font-family="Helvetica,sans-Serif" font-size="10.00">MOFEM_EVENT_projP</text>
<text text-anchor="middle" x="1340" y="-477.21" font-family="Helvetica,sans-Serif" font-size="10.00">MOFEM_EVENT_projQ</text>
<text text-anchor="middle" x="1340" y="-466.21" font-family="Helvetica,sans-Serif" font-size="10.00">MOFEM_EVENT_projR</text>
<text text-anchor="start" x="1281" y="-455.21" font-family="Helvetica,sans-Serif" font-size="10.00">MOFEM_EVENT_projCTC</text>
<text text-anchor="middle" x="1340" y="-444.21" font-family="Helvetica,sans-Serif" font-size="10.00">_QTKQ</text>
<text text-anchor="middle" x="1340" y="-433.21" font-family="Helvetica,sans-Serif" font-size="10.00">MOFEM_EVENT_projInit</text>
</g>
<!-- Node10 -->
<g id="node10" class="node">
<title>Node10</title>
<g id="a_node10"><a xlink:title=" ">
<polygon fill="white" stroke="#bfbfbf" points="1150.5,-375.71 1150.5,-394.71 1194.5,-394.71 1194.5,-375.71 1150.5,-375.71"/>
<text text-anchor="middle" x="1172.5" y="-382.71" font-family="Helvetica,sans-Serif" font-size="10.00">string</text>
</a>
</g>
</g>
<!-- Node10&#45;&gt;Node1 -->
<g id="edge9" class="edge">
<title>Node10&#45;&gt;Node1</title>
<path fill="none" stroke="#9a32cd" stroke-dasharray="5,2" d="M1204.56,-384.23C1248.33,-382.4 1330.47,-377.26 1399,-363.21 1414.91,-359.94 1432.27,-354.51 1446.01,-349.74"/>
<polygon fill="#9a32cd" stroke="#9a32cd" points="1204.41,-380.74 1194.55,-384.62 1204.68,-387.73 1204.41,-380.74"/>
<text text-anchor="middle" x="1340" y="-392.21" font-family="Helvetica,sans-Serif" font-size="10.00"> xProblem</text>
<text text-anchor="middle" x="1340" y="-381.21" font-family="Helvetica,sans-Serif" font-size="10.00">yProblem</text>
</g>
<!-- Node11 -->
<g id="node11" class="node">
<title>Node11</title>
<g id="a_node11"><a xlink:href="classbool.html" target="_top" xlink:title=" ">
<polygon fill="white" stroke="black" points="1153.5,-286.71 1153.5,-305.71 1191.5,-305.71 1191.5,-286.71 1153.5,-286.71"/>
<text text-anchor="middle" x="1172.5" y="-293.71" font-family="Helvetica,sans-Serif" font-size="10.00">bool</text>
</a>
</g>
</g>
<!-- Node11&#45;&gt;Node1 -->
<g id="edge10" class="edge">
<title>Node11&#45;&gt;Node1</title>
<path fill="none" stroke="#9a32cd" stroke-dasharray="5,2" d="M1201.87,-291.65C1245.26,-285.72 1330.3,-278.2 1399,-297.21 1422.41,-303.68 1445.95,-319.84 1459.6,-330.4"/>
<polygon fill="#9a32cd" stroke="#9a32cd" points="1201.17,-288.22 1191.77,-293.11 1202.17,-295.15 1201.17,-288.22"/>
<text text-anchor="middle" x="1340" y="-355.21" font-family="Helvetica,sans-Serif" font-size="10.00"> initQorP</text>
<text text-anchor="middle" x="1340" y="-344.21" font-family="Helvetica,sans-Serif" font-size="10.00">ownConstrainMatrix</text>
<text text-anchor="middle" x="1340" y="-333.21" font-family="Helvetica,sans-Serif" font-size="10.00">cancelKSPMonitor</text>
<text text-anchor="middle" x="1340" y="-322.21" font-family="Helvetica,sans-Serif" font-size="10.00">createScatter</text>
<text text-anchor="middle" x="1340" y="-311.21" font-family="Helvetica,sans-Serif" font-size="10.00">createKSP</text>
<text text-anchor="middle" x="1340" y="-300.21" font-family="Helvetica,sans-Serif" font-size="10.00">initQTKQ</text>
</g>
<!-- Node12 -->
<g id="node12" class="node">
<title>Node12</title>
<g id="a_node12"><a xlink:title=" ">
<polygon fill="white" stroke="#bfbfbf" points="1140,-230.71 1140,-249.71 1205,-249.71 1205,-230.71 1140,-230.71"/>
<text text-anchor="middle" x="1172.5" y="-237.71" font-family="Helvetica,sans-Serif" font-size="10.00">PetscReal</text>
</a>
</g>
</g>
<!-- Node12&#45;&gt;Node1 -->
<g id="edge11" class="edge">
<title>Node12&#45;&gt;Node1</title>
<path fill="none" stroke="#9a32cd" stroke-dasharray="5,2" d="M1214.96,-231.73C1262.26,-224.24 1340.58,-218.57 1399,-248.21 1434.73,-266.33 1458.4,-311.04 1467.42,-330.69"/>
<polygon fill="#9a32cd" stroke="#9a32cd" points="1214.35,-228.29 1205.08,-233.4 1215.52,-235.19 1214.35,-228.29"/>
<text text-anchor="middle" x="1340" y="-273.21" font-family="Helvetica,sans-Serif" font-size="10.00"> absTol</text>
<text text-anchor="middle" x="1340" y="-262.21" font-family="Helvetica,sans-Serif" font-size="10.00">rTol</text>
<text text-anchor="middle" x="1340" y="-251.21" font-family="Helvetica,sans-Serif" font-size="10.00">dTol</text>
</g>
<!-- Node13 -->
<g id="node13" class="node">
<title>Node13</title>
<g id="a_node13"><a xlink:title=" ">
<polygon fill="white" stroke="#bfbfbf" points="1155,-153.71 1155,-172.71 1190,-172.71 1190,-153.71 1155,-153.71"/>
<text text-anchor="middle" x="1172.5" y="-160.71" font-family="Helvetica,sans-Serif" font-size="10.00">Mat</text>
</a>
</g>
</g>
<!-- Node13&#45;&gt;Node1 -->
<g id="edge12" class="edge">
<title>Node13&#45;&gt;Node1</title>
<path fill="none" stroke="#9a32cd" stroke-dasharray="5,2" d="M1200.33,-160.14C1252.96,-154.69 1367.38,-145.77 1399,-167.21 1456.41,-206.13 1468.48,-300.05 1470.91,-330.5"/>
<polygon fill="#9a32cd" stroke="#9a32cd" points="1199.66,-156.69 1190.09,-161.24 1200.4,-163.65 1199.66,-156.69"/>
<text text-anchor="middle" x="1340" y="-214.21" font-family="Helvetica,sans-Serif" font-size="10.00"> CT</text>
<text text-anchor="middle" x="1340" y="-203.21" font-family="Helvetica,sans-Serif" font-size="10.00">K</text>
<text text-anchor="middle" x="1340" y="-192.21" font-family="Helvetica,sans-Serif" font-size="10.00">CTC</text>
<text text-anchor="middle" x="1340" y="-181.21" font-family="Helvetica,sans-Serif" font-size="10.00">CCT</text>
<text text-anchor="middle" x="1340" y="-170.21" font-family="Helvetica,sans-Serif" font-size="10.00">C</text>
</g>
<!-- Node14 -->
<g id="node14" class="node">
<title>Node14</title>
<g id="a_node14"><a xlink:title=" ">
<polygon fill="white" stroke="#bfbfbf" points="1144.5,-115.71 1144.5,-134.71 1200.5,-134.71 1200.5,-115.71 1144.5,-115.71"/>
<text text-anchor="middle" x="1172.5" y="-122.71" font-family="Helvetica,sans-Serif" font-size="10.00">PetscInt</text>
</a>
</g>
</g>
<!-- Node14&#45;&gt;Node1 -->
<g id="edge13" class="edge">
<title>Node14&#45;&gt;Node1</title>
<path fill="none" stroke="#9a32cd" stroke-dasharray="5,2" d="M1210.71,-116.1C1259.18,-106.58 1344.18,-98.1 1399,-139.21 1463.11,-187.27 1470.65,-297.32 1471.44,-330.54"/>
<polygon fill="#9a32cd" stroke="#9a32cd" points="1209.73,-112.73 1200.66,-118.2 1211.16,-119.59 1209.73,-112.73"/>
<text text-anchor="middle" x="1340" y="-142.21" font-family="Helvetica,sans-Serif" font-size="10.00"> maxIts</text>
</g>
<!-- Node15 -->
<g id="node15" class="node">
<title>Node15</title>
<g id="a_node15"><a xlink:title=" ">
<polygon fill="white" stroke="#bfbfbf" points="1155.5,-17.71 1155.5,-36.71 1189.5,-36.71 1189.5,-17.71 1155.5,-17.71"/>
<text text-anchor="middle" x="1172.5" y="-24.71" font-family="Helvetica,sans-Serif" font-size="10.00">Vec</text>
</a>
</g>
</g>
<!-- Node15&#45;&gt;Node1 -->
<g id="edge14" class="edge">
<title>Node15&#45;&gt;Node1</title>
<path fill="none" stroke="#9a32cd" stroke-dasharray="5,2" d="M1199.34,-18.06C1245.09,-3.67 1340.94,18.12 1399,-28.21 1448.34,-67.57 1467.18,-282.44 1470.82,-330.62"/>
<polygon fill="#9a32cd" stroke="#9a32cd" points="1198.02,-14.81 1189.61,-21.25 1200.2,-21.46 1198.02,-14.81"/>
<text text-anchor="middle" x="1340" y="-97.21" font-family="Helvetica,sans-Serif" font-size="10.00"> CT_CCTm1_Cx</text>
<text text-anchor="middle" x="1340" y="-86.21" font-family="Helvetica,sans-Serif" font-size="10.00">CTCx</text>
<text text-anchor="middle" x="1340" y="-75.21" font-family="Helvetica,sans-Serif" font-size="10.00">Cx</text>
<text text-anchor="middle" x="1340" y="-64.21" font-family="Helvetica,sans-Serif" font-size="10.00">X</text>
<text text-anchor="middle" x="1340" y="-53.21" font-family="Helvetica,sans-Serif" font-size="10.00">Qx</text>
<text text-anchor="middle" x="1340" y="-42.21" font-family="Helvetica,sans-Serif" font-size="10.00">CCTm1_Cx</text>
<text text-anchor="middle" x="1340" y="-31.21" font-family="Helvetica,sans-Serif" font-size="10.00">KQx</text>
</g>
</g>
</svg>
