<?xml version="1.0" encoding="UTF-8" standalone="no"?>
<!DOCTYPE svg PUBLIC "-//W3C//DTD SVG 1.1//EN"
 "http://www.w3.org/Graphics/SVG/1.1/DTD/svg11.dtd">
<!-- Generated by graphviz version 2.43.0 (0)
 -->
<!-- Title: BCs_RVELagrange_Periodic::OpRVEBCsPeriodicCalCTLam Pages: 1 -->
<!--zoomable 461 -->
<svg id="main" version="1.1" xmlns="http://www.w3.org/2000/svg" xmlns:xlink="http://www.w3.org/1999/xlink" xml:space="preserve" onload="init(evt)">
<style type="text/css"><![CDATA[
.edge:hover path { stroke: red; }
.edge:hover polygon { stroke: red; fill: red; }
]]></style>
<script type="text/javascript"><![CDATA[
var edges = document.getElementsByTagName('g');
if (edges && edges.length) {
  for (var i=0;i<edges.length;i++) {
    if (edges[i].id.substr(0,4)=='edge') {
      edges[i].setAttribute('class','edge');
    }
  }
}
]]></script>
        <defs>
                <circle id="rim" cx="0" cy="0" r="7"/>
                <circle id="rim2" cx="0" cy="0" r="3.5"/>
                <g id="zoomPlus">
                        <use xlink:href="#rim" fill="#404040">
                                <set attributeName="fill" to="#808080" begin="zoomplus.mouseover" end="zoomplus.mouseout"/>
                        </use>
                        <path d="M-4,0h8M0,-4v8" fill="none" stroke="white" stroke-width="1.5" pointer-events="none"/>
                </g>
                <g id="zoomMin">
                        <use xlink:href="#rim" fill="#404040">
                                <set attributeName="fill" to="#808080" begin="zoomminus.mouseover" end="zoomminus.mouseout"/>
                        </use>
                        <path d="M-4,0h8" fill="none" stroke="white" stroke-width="1.5" pointer-events="none"/>
                </g>
                <g id="dirArrow">
                        <path fill="none" stroke="white" stroke-width="1.5" d="M0,-3.0v7 M-2.5,-0.5L0,-3.0L2.5,-0.5"/>
                </g>
               <g id="resetDef">
                       <use xlink:href="#rim2" fill="#404040">
                               <set attributeName="fill" to="#808080" begin="reset.mouseover" end="reset.mouseout"/>
                       </use>
               </g>
        </defs>

<script type="text/javascript">
var viewWidth = 792;
var viewHeight = 461;
var sectionId = 'dynsection-1';
</script>
<script xlink:href="svgpan.js"/>
<svg id="graph" class="graph">
<g id="viewport">
<title>BCs_RVELagrange_Periodic::OpRVEBCsPeriodicCalCTLam</title>
<polygon fill="white" stroke="transparent" points="-4,4 -4,-456.5 788,-456.5 788,4 -4,4"/>
<!-- Node1 -->
<g id="node1" class="node">
<title>Node1</title>
<g id="a_node1"><a xlink:title=" ">
<polygon fill="#bfbfbf" stroke="black" points="621,-165 621,-195 784,-195 784,-165 621,-165"/>
<text text-anchor="start" x="629" y="-183" font-family="Helvetica,sans-Serif" font-size="10.00">BCs_RVELagrange_Periodic</text>
<text text-anchor="middle" x="702.5" y="-172" font-family="Helvetica,sans-Serif" font-size="10.00">::OpRVEBCsPeriodicCalCTLam</text>
</a>
</g>
</g>
<!-- Node2 -->
<g id="node2" class="node">
<title>Node2</title>
<g id="a_node2"><a xlink:title=" ">
<polygon fill="white" stroke="#bfbfbf" points="324.5,-350.5 324.5,-369.5 429.5,-369.5 429.5,-350.5 324.5,-350.5"/>
<text text-anchor="middle" x="377" y="-357.5" font-family="Helvetica,sans-Serif" font-size="10.00">UserDataOperator</text>
</a>
</g>
</g>
<!-- Node2&#45;&gt;Node1 -->
<g id="edge1" class="edge">
<title>Node2&#45;&gt;Node1</title>
<path fill="none" stroke="midnightblue" d="M440.14,-365.11C488.14,-366.06 554.35,-360.58 603,-330 654.96,-297.34 685.28,-226.12 696.5,-195.03"/>
<polygon fill="midnightblue" stroke="midnightblue" points="439.98,-361.6 429.88,-364.8 439.78,-368.6 439.98,-361.6"/>
</g>
<!-- Node3 -->
<g id="node3" class="node">
<title>Node3</title>
<g id="a_node3"><a xlink:title=" ">
<polygon fill="white" stroke="#bfbfbf" points="335.5,-312.5 335.5,-331.5 418.5,-331.5 418.5,-312.5 335.5,-312.5"/>
<text text-anchor="middle" x="377" y="-319.5" font-family="Helvetica,sans-Serif" font-size="10.00">MatrixDouble</text>
</a>
</g>
</g>
<!-- Node3&#45;&gt;Node1 -->
<g id="edge2" class="edge">
<title>Node3&#45;&gt;Node1</title>
<path fill="none" stroke="#9a32cd" stroke-dasharray="5,2" d="M428.57,-320.13C476.08,-316.52 547.92,-306.21 603,-277 641.17,-256.76 674.36,-217.03 690.7,-195.22"/>
<polygon fill="#9a32cd" stroke="#9a32cd" points="428.26,-316.64 418.52,-320.82 428.74,-323.62 428.26,-316.64"/>
<text text-anchor="middle" x="537" y="-318" font-family="Helvetica,sans-Serif" font-size="10.00"> N_mat</text>
</g>
<!-- Node4 -->
<g id="node4" class="node">
<title>Node4</title>
<g id="a_node4"><a xlink:href="structBCs__RVELagrange__Periodic_1_1CommonDataPeriodic.html" target="_top" xlink:title=" ">
<polygon fill="white" stroke="black" points="302.5,-263 302.5,-293 451.5,-293 451.5,-263 302.5,-263"/>
<text text-anchor="start" x="310.5" y="-281" font-family="Helvetica,sans-Serif" font-size="10.00">BCs_RVELagrange_Periodic</text>
<text text-anchor="middle" x="377" y="-270" font-family="Helvetica,sans-Serif" font-size="10.00">::CommonDataPeriodic</text>
</a>
</g>
</g>
<!-- Node4&#45;&gt;Node1 -->
<g id="edge3" class="edge">
<title>Node4&#45;&gt;Node1</title>
<path fill="none" stroke="#9a32cd" stroke-dasharray="5,2" d="M461.57,-264.89C504.54,-256.88 557.34,-245.05 603,-229 628.59,-220.01 656.09,-205.91 675.52,-195.15"/>
<polygon fill="#9a32cd" stroke="#9a32cd" points="460.93,-261.45 451.72,-266.69 462.18,-268.34 460.93,-261.45"/>
<text text-anchor="middle" x="537" y="-265" font-family="Helvetica,sans-Serif" font-size="10.00"> commonDataPeriodic</text>
</g>
<!-- Node5 -->
<g id="node5" class="node">
<title>Node5</title>
<g id="a_node5"><a xlink:title=" ">
<polygon fill="white" stroke="#bfbfbf" points="6.5,-400 6.5,-452 164.5,-452 164.5,-400 6.5,-400"/>
<text text-anchor="start" x="14.5" y="-440" font-family="Helvetica,sans-Serif" font-size="10.00">vector&lt; map&lt; EntityType,</text>
<text text-anchor="start" x="14.5" y="-429" font-family="Helvetica,sans-Serif" font-size="10.00"> map&lt; int, map&lt; EntityType,</text>
<text text-anchor="start" x="14.5" y="-418" font-family="Helvetica,sans-Serif" font-size="10.00"> map&lt; int, MatrixDouble &gt;</text>
<text text-anchor="middle" x="85.5" y="-407" font-family="Helvetica,sans-Serif" font-size="10.00"> &gt; &gt; &gt; &gt;</text>
</a>
</g>
</g>
<!-- Node5&#45;&gt;Node4 -->
<g id="edge4" class="edge">
<title>Node5&#45;&gt;Node4</title>
<path fill="none" stroke="#9a32cd" stroke-dasharray="5,2" d="M174.91,-425.29C212.83,-420.42 254.8,-408.21 283,-380 307.85,-355.14 277.32,-328.97 301,-303 304.51,-299.15 308.64,-295.89 313.11,-293.13"/>
<polygon fill="#9a32cd" stroke="#9a32cd" points="174.4,-421.83 164.85,-426.43 175.18,-428.78 174.4,-421.83"/>
<text text-anchor="middle" x="236" y="-425" font-family="Helvetica,sans-Serif" font-size="10.00"> Cmat</text>
</g>
<!-- Node6 -->
<g id="node6" class="node">
<title>Node6</title>
<g id="a_node6"><a xlink:title=" ">
<polygon fill="white" stroke="#bfbfbf" points="17.5,-361.5 17.5,-380.5 153.5,-380.5 153.5,-361.5 17.5,-361.5"/>
<text text-anchor="middle" x="85.5" y="-368.5" font-family="Helvetica,sans-Serif" font-size="10.00">vector&lt; MatrixDouble &gt;</text>
</a>
</g>
</g>
<!-- Node6&#45;&gt;Node4 -->
<g id="edge5" class="edge">
<title>Node6&#45;&gt;Node4</title>
<path fill="none" stroke="#9a32cd" stroke-dasharray="5,2" d="M163.77,-369.91C202.48,-366.01 248.35,-355.99 283,-332 295.47,-323.36 289.1,-312.4 301,-303 305.85,-299.17 311.31,-295.92 317.02,-293.15"/>
<polygon fill="#9a32cd" stroke="#9a32cd" points="163.23,-366.44 153.58,-370.81 163.85,-373.41 163.23,-366.44"/>
<text text-anchor="middle" x="236" y="-368" font-family="Helvetica,sans-Serif" font-size="10.00"> D_mat</text>
</g>
<!-- Node7 -->
<g id="node7" class="node">
<title>Node7</title>
<g id="a_node7"><a xlink:title=" ">
<polygon fill="white" stroke="#bfbfbf" points="24.5,-312 24.5,-342 146.5,-342 146.5,-312 24.5,-312"/>
<text text-anchor="start" x="32.5" y="-330" font-family="Helvetica,sans-Serif" font-size="10.00">vector&lt; ublas::vector</text>
<text text-anchor="middle" x="85.5" y="-319" font-family="Helvetica,sans-Serif" font-size="10.00">&lt; VectorDouble &gt; &gt;</text>
</a>
</g>
</g>
<!-- Node7&#45;&gt;Node4 -->
<g id="edge6" class="edge">
<title>Node7&#45;&gt;Node4</title>
<path fill="none" stroke="#9a32cd" stroke-dasharray="5,2" d="M156.99,-321.44C194.61,-317.79 241.57,-312.16 283,-304 297.64,-301.12 313.34,-297.09 327.6,-293.07"/>
<polygon fill="#9a32cd" stroke="#9a32cd" points="156.27,-317.99 146.64,-322.41 156.93,-324.96 156.27,-317.99"/>
<text text-anchor="middle" x="236" y="-320" font-family="Helvetica,sans-Serif" font-size="10.00"> DispAtGaussPts</text>
</g>
<!-- Node8 -->
<g id="node8" class="node">
<title>Node8</title>
<g id="a_node8"><a xlink:title=" ">
<polygon fill="white" stroke="#bfbfbf" points="0,-263 0,-293 171,-293 171,-263 0,-263"/>
<text text-anchor="start" x="8" y="-281" font-family="Helvetica,sans-Serif" font-size="10.00">vector&lt; map&lt; EntityType,</text>
<text text-anchor="middle" x="85.5" y="-270" font-family="Helvetica,sans-Serif" font-size="10.00"> map&lt; int, MatrixDouble &gt; &gt; &gt;</text>
</a>
</g>
</g>
<!-- Node8&#45;&gt;Node4 -->
<g id="edge7" class="edge">
<title>Node8&#45;&gt;Node4</title>
<path fill="none" stroke="#9a32cd" stroke-dasharray="5,2" d="M181.14,-278C220.46,-278 265.39,-278 302.2,-278"/>
<polygon fill="#9a32cd" stroke="#9a32cd" points="181.01,-274.5 171.01,-278 181.01,-281.5 181.01,-274.5"/>
<text text-anchor="middle" x="236" y="-292" font-family="Helvetica,sans-Serif" font-size="10.00"> RowN</text>
<text text-anchor="middle" x="236" y="-281" font-family="Helvetica,sans-Serif" font-size="10.00">ColN</text>
</g>
<!-- Node9 -->
<g id="node9" class="node">
<title>Node9</title>
<g id="a_node9"><a xlink:title=" ">
<polygon fill="white" stroke="#bfbfbf" points="18,-224.5 18,-243.5 153,-243.5 153,-224.5 18,-224.5"/>
<text text-anchor="middle" x="85.5" y="-231.5" font-family="Helvetica,sans-Serif" font-size="10.00">vector&lt; VectorDouble &gt;</text>
</a>
</g>
</g>
<!-- Node9&#45;&gt;Node4 -->
<g id="edge8" class="edge">
<title>Node9&#45;&gt;Node4</title>
<path fill="none" stroke="#9a32cd" stroke-dasharray="5,2" d="M162.55,-244.98C199,-250.31 243.28,-256.87 283,-263 289.3,-263.97 295.84,-265 302.41,-266.04"/>
<polygon fill="#9a32cd" stroke="#9a32cd" points="162.88,-241.49 152.48,-243.51 161.87,-248.42 162.88,-241.49"/>
<text text-anchor="middle" x="236" y="-266" font-family="Helvetica,sans-Serif" font-size="10.00"> LagMulAtGaussPts</text>
</g>
<!-- Node10 -->
<g id="node10" class="node">
<title>Node10</title>
<g id="a_node10"><a xlink:title=" ">
<polygon fill="white" stroke="#bfbfbf" points="12.5,-164.5 12.5,-205.5 158.5,-205.5 158.5,-164.5 12.5,-164.5"/>
<text text-anchor="start" x="20.5" y="-193.5" font-family="Helvetica,sans-Serif" font-size="10.00">vector&lt; map&lt; EntityType,</text>
<text text-anchor="start" x="20.5" y="-182.5" font-family="Helvetica,sans-Serif" font-size="10.00"> map&lt; int, ublas::vector</text>
<text text-anchor="middle" x="85.5" y="-171.5" font-family="Helvetica,sans-Serif" font-size="10.00">&lt; int &gt; &gt; &gt; &gt;</text>
</a>
</g>
</g>
<!-- Node10&#45;&gt;Node4 -->
<g id="edge9" class="edge">
<title>Node10&#45;&gt;Node4</title>
<path fill="none" stroke="#9a32cd" stroke-dasharray="5,2" d="M168.48,-185.66C206.28,-189.56 249.98,-199.53 283,-223 295.99,-232.23 288.58,-244.02 301,-254 305.26,-257.43 310.02,-260.37 315.02,-262.89"/>
<polygon fill="#9a32cd" stroke="#9a32cd" points="168.78,-182.17 158.5,-184.75 168.14,-189.14 168.78,-182.17"/>
<text text-anchor="middle" x="236" y="-237" font-family="Helvetica,sans-Serif" font-size="10.00"> RowInd</text>
<text text-anchor="middle" x="236" y="-226" font-family="Helvetica,sans-Serif" font-size="10.00">ColInd</text>
</g>
<!-- Node11 -->
<g id="node11" class="node">
<title>Node11</title>
<g id="a_node11"><a xlink:href="structBCs__RVELagrange__Periodic_1_1CommonFunctionsPeriodic.html" target="_top" xlink:title=" ">
<polygon fill="white" stroke="black" points="301,-214 301,-244 453,-244 453,-214 301,-214"/>
<text text-anchor="start" x="309" y="-232" font-family="Helvetica,sans-Serif" font-size="10.00">BCs_RVELagrange_Periodic</text>
<text text-anchor="middle" x="377" y="-221" font-family="Helvetica,sans-Serif" font-size="10.00">::CommonFunctionsPeriodic</text>
</a>
</g>
</g>
<!-- Node11&#45;&gt;Node1 -->
<g id="edge10" class="edge">
<title>Node11&#45;&gt;Node1</title>
<path fill="none" stroke="#9a32cd" stroke-dasharray="5,2" d="M462.94,-216.19C505.07,-209.83 556.71,-202.02 603,-195 608.81,-194.12 614.82,-193.21 620.87,-192.29"/>
<polygon fill="#9a32cd" stroke="#9a32cd" points="462.37,-212.73 453,-217.69 463.41,-219.66 462.37,-212.73"/>
<text text-anchor="middle" x="537" y="-217" font-family="Helvetica,sans-Serif" font-size="10.00"> commonFunctionsPeriodic</text>
</g>
<!-- Node12 -->
<g id="node12" class="node">
<title>Node12</title>
<g id="a_node12"><a xlink:href="structBCs__RVELagrange__Periodic_1_1RVEBC__Data__Periodic.html" target="_top" xlink:title=" ">
<polygon fill="white" stroke="black" points="302.5,-165 302.5,-195 451.5,-195 451.5,-165 302.5,-165"/>
<text text-anchor="start" x="310.5" y="-183" font-family="Helvetica,sans-Serif" font-size="10.00">BCs_RVELagrange_Periodic</text>
<text text-anchor="middle" x="377" y="-172" font-family="Helvetica,sans-Serif" font-size="10.00">::RVEBC_Data_Periodic</text>
</a>
</g>
</g>
<!-- Node12&#45;&gt;Node1 -->
<g id="edge11" class="edge">
<title>Node12&#45;&gt;Node1</title>
<path fill="none" stroke="#9a32cd" stroke-dasharray="5,2" d="M462.07,-180C511.07,-180 572.53,-180 620.92,-180"/>
<polygon fill="#9a32cd" stroke="#9a32cd" points="461.81,-176.5 451.81,-180 461.81,-183.5 461.81,-176.5"/>
<text text-anchor="middle" x="537" y="-183" font-family="Helvetica,sans-Serif" font-size="10.00"> dAta</text>
</g>
<!-- Node13 -->
<g id="node13" class="node">
<title>Node13</title>
<g id="a_node13"><a xlink:href="classRange.html" target="_top" xlink:title=" ">
<polygon fill="white" stroke="black" points="62,-126.5 62,-145.5 109,-145.5 109,-126.5 62,-126.5"/>
<text text-anchor="middle" x="85.5" y="-133.5" font-family="Helvetica,sans-Serif" font-size="10.00">Range</text>
</a>
</g>
</g>
<!-- Node13&#45;&gt;Node12 -->
<g id="edge12" class="edge">
<title>Node13&#45;&gt;Node12</title>
<path fill="none" stroke="#9a32cd" stroke-dasharray="5,2" d="M119.14,-136.56C158.36,-137.7 226.01,-141.23 283,-152 299.57,-155.13 317.38,-160.09 332.94,-164.97"/>
<polygon fill="#9a32cd" stroke="#9a32cd" points="119.19,-133.06 109.1,-136.3 119.01,-140.05 119.19,-133.06"/>
<text text-anchor="middle" x="236" y="-155" font-family="Helvetica,sans-Serif" font-size="10.00"> pRisms</text>
</g>
<!-- Node14 -->
<g id="node14" class="node">
<title>Node14</title>
<g id="a_node14"><a xlink:href="classbool.html" target="_top" xlink:title=" ">
<polygon fill="white" stroke="black" points="358,-126.5 358,-145.5 396,-145.5 396,-126.5 358,-126.5"/>
<text text-anchor="middle" x="377" y="-133.5" font-family="Helvetica,sans-Serif" font-size="10.00">bool</text>
</a>
</g>
</g>
<!-- Node14&#45;&gt;Node1 -->
<g id="edge13" class="edge">
<title>Node14&#45;&gt;Node1</title>
<path fill="none" stroke="#9a32cd" stroke-dasharray="5,2" d="M406.28,-139.43C448.95,-144.66 532.32,-155.06 603,-165 608.82,-165.82 614.84,-166.68 620.89,-167.57"/>
<polygon fill="#9a32cd" stroke="#9a32cd" points="406.45,-135.93 396.1,-138.19 405.6,-142.88 406.45,-135.93"/>
<text text-anchor="middle" x="537" y="-168" font-family="Helvetica,sans-Serif" font-size="10.00"> hoGeometry</text>
</g>
<!-- Node15 -->
<g id="node15" class="node">
<title>Node15</title>
<g id="a_node15"><a xlink:title=" ">
<polygon fill="white" stroke="#bfbfbf" points="336,-88.5 336,-107.5 418,-107.5 418,-88.5 336,-88.5"/>
<text text-anchor="middle" x="377" y="-95.5" font-family="Helvetica,sans-Serif" font-size="10.00">VectorDouble</text>
</a>
</g>
</g>
<!-- Node15&#45;&gt;Node1 -->
<g id="edge14" class="edge">
<title>Node15&#45;&gt;Node1</title>
<path fill="none" stroke="#9a32cd" stroke-dasharray="5,2" d="M428.2,-97.33C474.66,-98.11 545.09,-102.86 603,-122 632.39,-131.72 662.54,-151.13 681.61,-164.81"/>
<polygon fill="#9a32cd" stroke="#9a32cd" points="428.13,-93.83 418.09,-97.22 428.05,-100.83 428.13,-93.83"/>
<text text-anchor="middle" x="537" y="-136" font-family="Helvetica,sans-Serif" font-size="10.00"> fe2</text>
<text text-anchor="middle" x="537" y="-125" font-family="Helvetica,sans-Serif" font-size="10.00">fe1</text>
</g>
<!-- Node16 -->
<g id="node16" class="node">
<title>Node16</title>
<g id="a_node16"><a xlink:title=" ">
<polygon fill="white" stroke="#bfbfbf" points="316,-39 316,-69 438,-69 438,-39 316,-39"/>
<text text-anchor="start" x="324" y="-57" font-family="Helvetica,sans-Serif" font-size="10.00">vector&lt; ublas::vector</text>
<text text-anchor="middle" x="377" y="-46" font-family="Helvetica,sans-Serif" font-size="10.00">&lt; int &gt; &gt;</text>
</a>
</g>
</g>
<!-- Node16&#45;&gt;Node1 -->
<g id="edge15" class="edge">
<title>Node16&#45;&gt;Node1</title>
<path fill="none" stroke="#9a32cd" stroke-dasharray="5,2" d="M448.46,-52.16C494.55,-53.59 554.89,-60.61 603,-84 641.87,-102.9 675.02,-143.06 691.1,-164.98"/>
<polygon fill="#9a32cd" stroke="#9a32cd" points="448.34,-48.65 438.27,-51.92 448.18,-55.65 448.34,-48.65"/>
<text text-anchor="middle" x="537" y="-87" font-family="Helvetica,sans-Serif" font-size="10.00"> col_ind</text>
</g>
<!-- Node17 -->
<g id="node17" class="node">
<title>Node17</title>
<g id="a_node17"><a xlink:title=" ">
<polygon fill="white" stroke="#bfbfbf" points="360,-0.5 360,-19.5 394,-19.5 394,-0.5 360,-0.5"/>
<text text-anchor="middle" x="377" y="-7.5" font-family="Helvetica,sans-Serif" font-size="10.00">Vec</text>
</a>
</g>
</g>
<!-- Node17&#45;&gt;Node1 -->
<g id="edge16" class="edge">
<title>Node17&#45;&gt;Node1</title>
<path fill="none" stroke="#9a32cd" stroke-dasharray="5,2" d="M404.12,-6.74C448.47,-2.54 539.84,0.21 603,-38 653.06,-68.28 684.01,-134.82 695.91,-164.81"/>
<polygon fill="#9a32cd" stroke="#9a32cd" points="403.73,-3.26 394.15,-7.78 404.46,-10.22 403.73,-3.26"/>
<text text-anchor="middle" x="537" y="-41" font-family="Helvetica,sans-Serif" font-size="10.00"> F</text>
</g>
</g>
</svg>
        <g id="navigator" transform="translate(0 0)" fill="#404254">
                <rect fill="#f2f5e9" fill-opacity="0.5" stroke="#606060" stroke-width=".5" x="0" y="0" width="60" height="60"/>
                <use id="zoomplus" xlink:href="#zoomPlus" x="17" y="9" onmousedown="handleZoom(evt,'in')"/>
                <use id="zoomminus" xlink:href="#zoomMin" x="42" y="9" onmousedown="handleZoom(evt,'out')"/>
                <use id="reset" xlink:href="#resetDef" x="30" y="36" onmousedown="handleReset()"/>
                <g id="arrowUp" xlink:href="#dirArrow" transform="translate(30 24)" onmousedown="handlePan(0,-1)">
                  <use xlink:href="#rim" fill="#404040">
                        <set attributeName="fill" to="#808080" begin="arrowUp.mouseover" end="arrowUp.mouseout"/>
                  </use>
                  <path fill="none" stroke="white" stroke-width="1.5" d="M0,-3.0v7 M-2.5,-0.5L0,-3.0L2.5,-0.5"/>
                </g>
                <g id="arrowRight" xlink:href="#dirArrow" transform="rotate(90) translate(36 -43)" onmousedown="handlePan(1,0)">
                  <use xlink:href="#rim" fill="#404040">
                        <set attributeName="fill" to="#808080" begin="arrowRight.mouseover" end="arrowRight.mouseout"/>
                  </use>
                  <path fill="none" stroke="white" stroke-width="1.5" d="M0,-3.0v7 M-2.5,-0.5L0,-3.0L2.5,-0.5"/>
                </g>
                <g id="arrowDown" xlink:href="#dirArrow" transform="rotate(180) translate(-30 -48)" onmousedown="handlePan(0,1)">
                  <use xlink:href="#rim" fill="#404040">
                        <set attributeName="fill" to="#808080" begin="arrowDown.mouseover" end="arrowDown.mouseout"/>
                  </use>
                  <path fill="none" stroke="white" stroke-width="1.5" d="M0,-3.0v7 M-2.5,-0.5L0,-3.0L2.5,-0.5"/>
                </g>
                <g id="arrowLeft" xlink:href="#dirArrow" transform="rotate(270) translate(-36 17)" onmousedown="handlePan(-1,0)">
                  <use xlink:href="#rim" fill="#404040">
                        <set attributeName="fill" to="#808080" begin="arrowLeft.mouseover" end="arrowLeft.mouseout"/>
                  </use>
                  <path fill="none" stroke="white" stroke-width="1.5" d="M0,-3.0v7 M-2.5,-0.5L0,-3.0L2.5,-0.5"/>
                </g>
        </g>
        <svg viewBox="0 0 15 15" width="100%" height="30px" preserveAspectRatio="xMaxYMin meet">
         <g id="arrow_out" transform="scale(0.3 0.3)">
          <a xlink:href="structBCs__RVELagrange__Periodic_1_1OpRVEBCsPeriodicCalCTLam__coll__graph_org.svg" target="_base">
           <rect id="button" ry="5" rx="5" y="6" x="6" height="38" width="38"
                fill="#f2f5e9" fill-opacity="0.5" stroke="#606060" stroke-width="1.0"/>
           <path id="arrow"
             d="M 11.500037,31.436501 C 11.940474,20.09759 22.043105,11.32322 32.158766,21.979434 L 37.068811,17.246167 C 37.068811,17.246167 37.088388,32 37.088388,32 L 22.160133,31.978069 C 22.160133,31.978069 26.997745,27.140456 26.997745,27.140456 C 18.528582,18.264221 13.291696,25.230495 11.500037,31.436501 z"
             style="fill:#404040;"/>
          </a>
         </g>
        </svg>
</svg>
