<?xml version="1.0" encoding="UTF-8" standalone="no"?>
<!DOCTYPE svg PUBLIC "-//W3C//DTD SVG 1.1//EN"
 "http://www.w3.org/Graphics/SVG/1.1/DTD/svg11.dtd">
<!-- Generated by graphviz version 2.43.0 (0)
 -->
<!-- Title: FieldApproximationH1 Pages: 1 -->
<svg width="3166pt" height="1454pt"
 viewBox="0.00 0.00 3166.00 1454.00" xmlns="http://www.w3.org/2000/svg" xmlns:xlink="http://www.w3.org/1999/xlink">
<g id="graph0" class="graph" transform="scale(1 1) rotate(0) translate(4 1450)">
<title>FieldApproximationH1</title>
<polygon fill="white" stroke="transparent" points="-4,4 -4,-1450 3162,-1450 3162,4 -4,4"/>
<!-- Node1 -->
<g id="node1" class="node">
<title>Node1</title>
<g id="a_node1"><a xlink:title="Finite element for approximating analytical filed on the mesh.">
<polygon fill="#bfbfbf" stroke="black" points="3033,-703.5 3033,-722.5 3158,-722.5 3158,-703.5 3033,-703.5"/>
<text text-anchor="middle" x="3095.5" y="-710.5" font-family="Helvetica,sans-Serif" font-size="10.00">FieldApproximationH1</text>
</a>
</g>
</g>
<!-- Node2 -->
<g id="node2" class="node">
<title>Node2</title>
<g id="a_node2"><a xlink:href="structMoFEM_1_1DeprecatedCoreInterface.html" target="_top" xlink:title="Deprecated interface functions.">
<polygon fill="white" stroke="black" points="2085.5,-620.5 2085.5,-639.5 2266.5,-639.5 2266.5,-620.5 2085.5,-620.5"/>
<text text-anchor="middle" x="2176" y="-627.5" font-family="Helvetica,sans-Serif" font-size="10.00">MoFEM::DeprecatedCoreInterface</text>
</a>
</g>
</g>
<!-- Node2&#45;&gt;Node1 -->
<g id="edge1" class="edge">
<title>Node2&#45;&gt;Node1</title>
<path fill="none" stroke="#9a32cd" stroke-dasharray="5,2" d="M2276.78,-633.59C2330.28,-635.86 2397.29,-639.28 2457,-644 2668.69,-660.73 2918.85,-690.84 3032.62,-705.1"/>
<polygon fill="#9a32cd" stroke="#9a32cd" points="2276.75,-630.08 2266.62,-633.16 2276.46,-637.08 2276.75,-630.08"/>
<text text-anchor="middle" x="2693.5" y="-672" font-family="Helvetica,sans-Serif" font-size="10.00"> mField</text>
</g>
<!-- Node8 -->
<g id="node8" class="node">
<title>Node8</title>
<g id="a_node8"><a xlink:href="structMoFEM_1_1ForcesAndSourcesCore.html" target="_top" xlink:title="structure to get information form mofem into EntitiesFieldData">
<polygon fill="white" stroke="black" points="2475,-911.5 2475,-930.5 2645,-930.5 2645,-911.5 2475,-911.5"/>
<text text-anchor="middle" x="2560" y="-918.5" font-family="Helvetica,sans-Serif" font-size="10.00">MoFEM::ForcesAndSourcesCore</text>
</a>
</g>
</g>
<!-- Node2&#45;&gt;Node8 -->
<g id="edge60" class="edge">
<title>Node2&#45;&gt;Node8</title>
<path fill="none" stroke="#9a32cd" stroke-dasharray="5,2" d="M2276.99,-639.76C2347.16,-648.76 2432.62,-664.78 2457,-691 2495.52,-732.43 2452.42,-765.13 2475,-817 2492.42,-857.01 2529.56,-894.34 2548.06,-911.35"/>
<polygon fill="#9a32cd" stroke="#9a32cd" points="2277.12,-636.25 2266.76,-638.49 2276.25,-643.2 2277.12,-636.25"/>
<text text-anchor="middle" x="2376" y="-694" font-family="Helvetica,sans-Serif" font-size="10.00"> mField</text>
</g>
<!-- Node3 -->
<g id="node3" class="node">
<title>Node3</title>
<g id="a_node3"><a xlink:href="structMoFEM_1_1CoreInterface.html" target="_top" xlink:title="Interface.">
<polygon fill="white" stroke="black" points="1266.5,-0.5 1266.5,-19.5 1391.5,-19.5 1391.5,-0.5 1266.5,-0.5"/>
<text text-anchor="middle" x="1329" y="-7.5" font-family="Helvetica,sans-Serif" font-size="10.00">MoFEM::CoreInterface</text>
</a>
</g>
</g>
<!-- Node3&#45;&gt;Node2 -->
<g id="edge2" class="edge">
<title>Node3&#45;&gt;Node2</title>
<path fill="none" stroke="midnightblue" d="M1389.84,-22.92C1392.29,-23.87 1394.68,-24.9 1397,-26 1490.41,-70.3 1500.14,-103.85 1582,-167 1816.76,-348.1 2101.45,-572.07 2162.93,-620.49"/>
<polygon fill="midnightblue" stroke="midnightblue" points="1390.79,-19.54 1380.19,-19.54 1388.47,-26.15 1390.79,-19.54"/>
</g>
<!-- Node4 -->
<g id="node4" class="node">
<title>Node4</title>
<g id="a_node4"><a xlink:href="structMoFEM_1_1UnknownInterface.html" target="_top" xlink:title="base class for all interface classes">
<polygon fill="white" stroke="black" points="735,-13.5 735,-32.5 883,-32.5 883,-13.5 735,-13.5"/>
<text text-anchor="middle" x="809" y="-20.5" font-family="Helvetica,sans-Serif" font-size="10.00">MoFEM::UnknownInterface</text>
</a>
</g>
</g>
<!-- Node4&#45;&gt;Node3 -->
<g id="edge3" class="edge">
<title>Node4&#45;&gt;Node3</title>
<path fill="none" stroke="midnightblue" d="M893.28,-20.91C997.41,-18.3 1173.26,-13.88 1266.19,-11.55"/>
<polygon fill="midnightblue" stroke="midnightblue" points="893.03,-17.42 883.12,-21.16 893.2,-24.41 893.03,-17.42"/>
</g>
<!-- Node12 -->
<g id="node12" class="node">
<title>Node12</title>
<g id="a_node12"><a xlink:href="structMoFEM_1_1PetscData.html" target="_top" xlink:title=" ">
<polygon fill="white" stroke="black" points="1087.5,-365.5 1087.5,-384.5 1195.5,-384.5 1195.5,-365.5 1087.5,-365.5"/>
<text text-anchor="middle" x="1141.5" y="-372.5" font-family="Helvetica,sans-Serif" font-size="10.00">MoFEM::PetscData</text>
</a>
</g>
</g>
<!-- Node4&#45;&gt;Node12 -->
<g id="edge12" class="edge">
<title>Node4&#45;&gt;Node12</title>
<path fill="none" stroke="midnightblue" d="M838.54,-37.27C885.82,-62.61 979.4,-120.28 1022,-199 1038.71,-229.88 1016.09,-330.28 1040,-356 1052.09,-369 1070.07,-374.75 1087.49,-376.92"/>
<polygon fill="midnightblue" stroke="midnightblue" points="839.94,-34.06 829.46,-32.5 836.68,-40.25 839.94,-34.06"/>
</g>
<!-- Node5 -->
<g id="node5" class="node">
<title>Node5</title>
<g id="a_node5"><a xlink:title=" ">
<polygon fill="white" stroke="#bfbfbf" points="386,-949.5 386,-1012.5 627,-1012.5 627,-949.5 386,-949.5"/>
<text text-anchor="start" x="394" y="-1000.5" font-family="Helvetica,sans-Serif" font-size="10.00">multi_index_container</text>
<text text-anchor="start" x="394" y="-989.5" font-family="Helvetica,sans-Serif" font-size="10.00">&lt; UIdTypeMap, indexed</text>
<text text-anchor="start" x="394" y="-978.5" font-family="Helvetica,sans-Serif" font-size="10.00">_by&lt; hashed_unique&lt; member</text>
<text text-anchor="start" x="394" y="-967.5" font-family="Helvetica,sans-Serif" font-size="10.00">&lt; UIdTypeMap, boost::typeindex</text>
<text text-anchor="middle" x="506.5" y="-956.5" font-family="Helvetica,sans-Serif" font-size="10.00">::type_index, &amp;UIdTypeMap::classIdx &gt; &gt; &gt; &gt;</text>
</a>
</g>
</g>
<!-- Node5&#45;&gt;Node4 -->
<g id="edge4" class="edge">
<title>Node5&#45;&gt;Node4</title>
<path fill="none" stroke="#9a32cd" stroke-dasharray="5,2" d="M516.08,-939.15C541.69,-817.3 622.9,-453.22 735,-166 755.37,-113.81 788.76,-55.42 802.16,-32.74"/>
<polygon fill="#9a32cd" stroke="#9a32cd" points="512.6,-938.67 513.98,-949.18 519.45,-940.1 512.6,-938.67"/>
<text text-anchor="middle" x="681" y="-433" font-family="Helvetica,sans-Serif" font-size="10.00"> iFaceTypeMap</text>
</g>
<!-- Node6 -->
<g id="node6" class="node">
<title>Node6</title>
<g id="a_node6"><a xlink:title=" ">
<polygon fill="white" stroke="#bfbfbf" points="0,-1318.5 0,-1337.5 125,-1337.5 125,-1318.5 0,-1318.5"/>
<text text-anchor="middle" x="62.5" y="-1325.5" font-family="Helvetica,sans-Serif" font-size="10.00">multi_index_container</text>
</a>
</g>
</g>
<!-- Node6&#45;&gt;Node5 -->
<g id="edge5" class="edge">
<title>Node6&#45;&gt;Node5</title>
<path fill="none" stroke="orange" stroke-dasharray="5,2" d="M84.05,-1311.86C152.5,-1258.13 373.54,-1084.6 465.15,-1012.68"/>
<polygon fill="orange" stroke="orange" points="81.49,-1309.43 75.78,-1318.36 85.81,-1314.93 81.49,-1309.43"/>
<text text-anchor="start" x="143" y="-1297" font-family="Helvetica,sans-Serif" font-size="10.00"> &lt; UIdTypeMap, indexed</text>
<text text-anchor="start" x="143" y="-1286" font-family="Helvetica,sans-Serif" font-size="10.00">_by&lt; hashed_unique&lt; member</text>
<text text-anchor="start" x="143" y="-1275" font-family="Helvetica,sans-Serif" font-size="10.00">&lt; UIdTypeMap, boost::typeindex</text>
<text text-anchor="middle" x="255.5" y="-1264" font-family="Helvetica,sans-Serif" font-size="10.00">::type_index, &amp;UIdTypeMap::classIdx &gt; &gt; &gt; &gt;</text>
</g>
<!-- Node10 -->
<g id="node10" class="node">
<title>Node10</title>
<g id="a_node10"><a xlink:href="structMoFEM_1_1BasicMethod.html" target="_top" xlink:title="Data structure to exchange data between mofem and User Loop Methods.">
<polygon fill="white" stroke="black" points="1747,-1095.5 1747,-1114.5 1869,-1114.5 1869,-1095.5 1747,-1095.5"/>
<text text-anchor="middle" x="1808" y="-1102.5" font-family="Helvetica,sans-Serif" font-size="10.00">MoFEM::BasicMethod</text>
</a>
</g>
</g>
<!-- Node6&#45;&gt;Node10 -->
<g id="edge35" class="edge">
<title>Node6&#45;&gt;Node10</title>
<path fill="none" stroke="#9a32cd" stroke-dasharray="5,2" d="M135.33,-1335.88C222.71,-1344.77 374.73,-1358 505.5,-1358 505.5,-1358 505.5,-1358 1142.5,-1358 1400.73,-1358 1484.19,-1342.12 1703,-1205 1744.6,-1178.93 1783.46,-1134.16 1799.39,-1114.61"/>
<polygon fill="#9a32cd" stroke="#9a32cd" points="135.57,-1332.39 125.27,-1334.85 134.86,-1339.35 135.57,-1332.39"/>
<text text-anchor="middle" x="961.5" y="-1438" font-family="Helvetica,sans-Serif" font-size="10.00"> adjacenciesPtr</text>
<text text-anchor="middle" x="961.5" y="-1427" font-family="Helvetica,sans-Serif" font-size="10.00">refinedEntitiesPtr</text>
<text text-anchor="middle" x="961.5" y="-1416" font-family="Helvetica,sans-Serif" font-size="10.00">finiteElementsEntitiesPtr</text>
<text text-anchor="middle" x="961.5" y="-1405" font-family="Helvetica,sans-Serif" font-size="10.00">dofsPtr</text>
<text text-anchor="middle" x="961.5" y="-1394" font-family="Helvetica,sans-Serif" font-size="10.00">entitiesPtr</text>
<text text-anchor="middle" x="961.5" y="-1383" font-family="Helvetica,sans-Serif" font-size="10.00">finiteElementsPtr</text>
<text text-anchor="middle" x="961.5" y="-1372" font-family="Helvetica,sans-Serif" font-size="10.00">refinedFiniteElementsPtr</text>
<text text-anchor="middle" x="961.5" y="-1361" font-family="Helvetica,sans-Serif" font-size="10.00">fieldsPtr</text>
</g>
<!-- Node7 -->
<g id="node7" class="node">
<title>Node7</title>
<g id="a_node7"><a xlink:href="structMoFEM_1_1FaceElementForcesAndSourcesCore.html" target="_top" xlink:title="Face finite element.">
<polygon fill="white" stroke="black" points="2768.5,-829 2768.5,-859 2920.5,-859 2920.5,-829 2768.5,-829"/>
<text text-anchor="start" x="2776.5" y="-847" font-family="Helvetica,sans-Serif" font-size="10.00">MoFEM::FaceElementForces</text>
<text text-anchor="middle" x="2844.5" y="-836" font-family="Helvetica,sans-Serif" font-size="10.00">AndSourcesCore</text>
</a>
</g>
</g>
<!-- Node7&#45;&gt;Node1 -->
<g id="edge6" class="edge">
<title>Node7&#45;&gt;Node1</title>
<path fill="none" stroke="#9a32cd" stroke-dasharray="5,2" d="M2883.03,-824.25C2937.4,-795.65 3035.96,-743.8 3076.42,-722.51"/>
<polygon fill="#9a32cd" stroke="#9a32cd" points="2881.28,-821.22 2874.06,-828.97 2884.54,-827.41 2881.28,-821.22"/>
<text text-anchor="middle" x="2990" y="-782" font-family="Helvetica,sans-Serif" font-size="10.00"> feFace</text>
</g>
<!-- Node8&#45;&gt;Node7 -->
<g id="edge7" class="edge">
<title>Node8&#45;&gt;Node7</title>
<path fill="none" stroke="midnightblue" d="M2605.7,-908.82C2655.17,-895.33 2734.93,-873.59 2788.27,-859.05"/>
<polygon fill="midnightblue" stroke="midnightblue" points="2604.65,-905.47 2595.92,-911.48 2606.49,-912.23 2604.65,-905.47"/>
</g>
<!-- Node8&#45;&gt;Node8 -->
<g id="edge61" class="edge">
<title>Node8&#45;&gt;Node8</title>
<path fill="none" stroke="#9a32cd" stroke-dasharray="5,2" d="M2535.45,-940.03C2536.79,-945.13 2544.97,-949 2560,-949 2583.46,-949 2590.24,-939.57 2580.35,-930.76"/>
<polygon fill="#9a32cd" stroke="#9a32cd" points="2538.71,-941.31 2539.65,-930.76 2532.33,-938.42 2538.71,-941.31"/>
<text text-anchor="middle" x="2560" y="-963" font-family="Helvetica,sans-Serif" font-size="10.00"> sidePtrFE</text>
<text text-anchor="middle" x="2560" y="-952" font-family="Helvetica,sans-Serif" font-size="10.00">refinePtrFE</text>
</g>
<!-- Node9 -->
<g id="node9" class="node">
<title>Node9</title>
<g id="a_node9"><a xlink:href="structMoFEM_1_1FEMethod.html" target="_top" xlink:title="structure for User Loop Methods on finite elements">
<polygon fill="white" stroke="black" points="2122.5,-1162.5 2122.5,-1181.5 2229.5,-1181.5 2229.5,-1162.5 2122.5,-1162.5"/>
<text text-anchor="middle" x="2176" y="-1169.5" font-family="Helvetica,sans-Serif" font-size="10.00">MoFEM::FEMethod</text>
</a>
</g>
</g>
<!-- Node9&#45;&gt;Node8 -->
<g id="edge8" class="edge">
<title>Node9&#45;&gt;Node8</title>
<path fill="none" stroke="midnightblue" d="M2236.6,-1182.91C2297.68,-1190.65 2392.6,-1192.77 2457,-1147 2533.49,-1092.63 2553.67,-966.97 2557.98,-930.87"/>
<polygon fill="midnightblue" stroke="midnightblue" points="2236.73,-1179.39 2226.35,-1181.51 2235.78,-1186.33 2236.73,-1179.39"/>
</g>
<!-- Node10&#45;&gt;Node9 -->
<g id="edge9" class="edge">
<title>Node10&#45;&gt;Node9</title>
<path fill="none" stroke="midnightblue" d="M1871.17,-1116.38C1941.99,-1129.35 2056.47,-1150.3 2122.83,-1162.45"/>
<polygon fill="midnightblue" stroke="midnightblue" points="1871.52,-1112.89 1861.05,-1114.53 1870.26,-1119.77 1871.52,-1112.89"/>
</g>
<!-- Node11 -->
<g id="node11" class="node">
<title>Node11</title>
<g id="a_node11"><a xlink:href="structMoFEM_1_1KspMethod.html" target="_top" xlink:title="data structure for ksp (linear solver) context">
<polygon fill="white" stroke="black" points="1442,-176.5 1442,-195.5 1555,-195.5 1555,-176.5 1442,-176.5"/>
<text text-anchor="middle" x="1498.5" y="-183.5" font-family="Helvetica,sans-Serif" font-size="10.00">MoFEM::KspMethod</text>
</a>
</g>
</g>
<!-- Node11&#45;&gt;Node10 -->
<g id="edge10" class="edge">
<title>Node11&#45;&gt;Node10</title>
<path fill="none" stroke="midnightblue" d="M1513.75,-203.54C1553.01,-253.1 1662.52,-399.88 1703,-543 1711.21,-572.04 1701.71,-1062.78 1721,-1086 1727.64,-1094 1736.83,-1099.09 1746.73,-1102.25"/>
<polygon fill="midnightblue" stroke="midnightblue" points="1516.45,-201.31 1507.47,-195.69 1510.98,-205.68 1516.45,-201.31"/>
</g>
<!-- Node12&#45;&gt;Node11 -->
<g id="edge11" class="edge">
<title>Node12&#45;&gt;Node11</title>
<path fill="none" stroke="midnightblue" d="M1205.66,-374.13C1219.39,-371.12 1232.83,-365.63 1243,-356 1267.27,-333.03 1237.65,-306.91 1261,-283 1304.76,-238.18 1339.35,-270.5 1397,-246 1430.1,-231.93 1465.47,-208.63 1484.15,-195.6"/>
<polygon fill="midnightblue" stroke="midnightblue" points="1204.89,-370.71 1195.65,-375.89 1206.11,-377.6 1204.89,-370.71"/>
</g>
<!-- Node19 -->
<g id="node19" class="node">
<title>Node19</title>
<g id="a_node19"><a xlink:href="structMoFEM_1_1SnesMethod.html" target="_top" xlink:title="data structure for snes (nonlinear solver) context">
<polygon fill="white" stroke="black" points="1439,-620.5 1439,-639.5 1558,-639.5 1558,-620.5 1439,-620.5"/>
<text text-anchor="middle" x="1498.5" y="-627.5" font-family="Helvetica,sans-Serif" font-size="10.00">MoFEM::SnesMethod</text>
</a>
</g>
</g>
<!-- Node12&#45;&gt;Node19 -->
<g id="edge22" class="edge">
<title>Node12&#45;&gt;Node19</title>
<path fill="none" stroke="darkgreen" d="M1205.67,-382.87C1218.85,-386.58 1232.06,-392.03 1243,-400 1255.26,-408.93 1248.62,-420.23 1261,-429 1311.51,-464.77 1346.92,-422.62 1397,-459 1456.06,-501.91 1486.22,-591.02 1494.85,-620.38"/>
<polygon fill="darkgreen" stroke="darkgreen" points="1206.18,-379.39 1195.63,-380.35 1204.48,-386.18 1206.18,-379.39"/>
</g>
<!-- Node22 -->
<g id="node22" class="node">
<title>Node22</title>
<g id="a_node22"><a xlink:href="structMoFEM_1_1TSMethod.html" target="_top" xlink:title="data structure for TS (time stepping) context">
<polygon fill="white" stroke="black" points="1445,-392.5 1445,-411.5 1552,-411.5 1552,-392.5 1445,-392.5"/>
<text text-anchor="middle" x="1498.5" y="-399.5" font-family="Helvetica,sans-Serif" font-size="10.00">MoFEM::TSMethod</text>
</a>
</g>
</g>
<!-- Node12&#45;&gt;Node22 -->
<g id="edge28" class="edge">
<title>Node12&#45;&gt;Node22</title>
<path fill="none" stroke="darkgreen" d="M1205.82,-379.82C1273.98,-385 1381.16,-393.15 1444.86,-398"/>
<polygon fill="darkgreen" stroke="darkgreen" points="1205.88,-376.31 1195.65,-379.04 1205.35,-383.29 1205.88,-376.31"/>
</g>
<!-- Node13 -->
<g id="node13" class="node">
<title>Node13</title>
<g id="a_node13"><a xlink:title=" ">
<polygon fill="white" stroke="#bfbfbf" points="738.5,-354.5 738.5,-373.5 879.5,-373.5 879.5,-354.5 738.5,-354.5"/>
<text text-anchor="middle" x="809" y="-361.5" font-family="Helvetica,sans-Serif" font-size="10.00">static constexpr Switches</text>
</a>
</g>
</g>
<!-- Node13&#45;&gt;Node12 -->
<g id="edge13" class="edge">
<title>Node13&#45;&gt;Node12</title>
<path fill="none" stroke="#9a32cd" stroke-dasharray="5,2" d="M889.9,-362.88C929.63,-362.7 978.37,-363.06 1022,-365 1043.45,-365.95 1067.03,-367.78 1087.47,-369.62"/>
<polygon fill="#9a32cd" stroke="#9a32cd" points="889.72,-359.38 879.74,-362.94 889.76,-366.38 889.72,-359.38"/>
<text text-anchor="middle" x="961.5" y="-445" font-family="Helvetica,sans-Serif" font-size="10.00"> CtxSetX_TT</text>
<text text-anchor="middle" x="961.5" y="-434" font-family="Helvetica,sans-Serif" font-size="10.00">CtxSetX_T</text>
<text text-anchor="middle" x="961.5" y="-423" font-family="Helvetica,sans-Serif" font-size="10.00">CtxSetA</text>
<text text-anchor="middle" x="961.5" y="-412" font-family="Helvetica,sans-Serif" font-size="10.00">CtxSetB</text>
<text text-anchor="middle" x="961.5" y="-401" font-family="Helvetica,sans-Serif" font-size="10.00">CtxSetTime</text>
<text text-anchor="middle" x="961.5" y="-390" font-family="Helvetica,sans-Serif" font-size="10.00">CtxSetNone</text>
<text text-anchor="middle" x="961.5" y="-379" font-family="Helvetica,sans-Serif" font-size="10.00">CtxSetF</text>
<text text-anchor="middle" x="961.5" y="-368" font-family="Helvetica,sans-Serif" font-size="10.00">CtxSetX</text>
</g>
<!-- Node14 -->
<g id="node14" class="node">
<title>Node14</title>
<g id="a_node14"><a xlink:title=" ">
<polygon fill="white" stroke="#bfbfbf" points="791.5,-483.5 791.5,-502.5 826.5,-502.5 826.5,-483.5 791.5,-483.5"/>
<text text-anchor="middle" x="809" y="-490.5" font-family="Helvetica,sans-Serif" font-size="10.00">Mat</text>
</a>
</g>
</g>
<!-- Node14&#45;&gt;Node11 -->
<g id="edge19" class="edge">
<title>Node14&#45;&gt;Node11</title>
<path fill="none" stroke="#9a32cd" stroke-dasharray="5,2" d="M824.33,-475.38C840.67,-454.5 867.15,-418.09 883,-383 895.69,-354.9 880.69,-339.2 901,-316 945.09,-265.63 975.55,-276.08 1040,-258 1127.88,-233.36 1152.83,-241.15 1243,-227 1311.53,-216.25 1390.37,-203.49 1441.92,-195.09"/>
<polygon fill="#9a32cd" stroke="#9a32cd" points="821.49,-473.33 818.01,-483.33 826.97,-477.68 821.49,-473.33"/>
<text text-anchor="middle" x="1141.5" y="-272" font-family="Helvetica,sans-Serif" font-size="10.00"> ksp_A</text>
<text text-anchor="middle" x="1141.5" y="-261" font-family="Helvetica,sans-Serif" font-size="10.00">ksp_B</text>
</g>
<!-- Node14&#45;&gt;Node12 -->
<g id="edge14" class="edge">
<title>Node14&#45;&gt;Node12</title>
<path fill="none" stroke="#9a32cd" stroke-dasharray="5,2" d="M836.64,-488.02C893.49,-477.38 1021.56,-453.38 1022,-453 1040.79,-436.69 1021.69,-416.84 1040,-400 1052.9,-388.13 1070.56,-381.68 1087.47,-378.24"/>
<polygon fill="#9a32cd" stroke="#9a32cd" points="835.78,-484.62 826.59,-489.9 837.07,-491.5 835.78,-484.62"/>
<text text-anchor="middle" x="961.5" y="-490" font-family="Helvetica,sans-Serif" font-size="10.00"> A</text>
<text text-anchor="middle" x="961.5" y="-479" font-family="Helvetica,sans-Serif" font-size="10.00">B</text>
</g>
<!-- Node14&#45;&gt;Node19 -->
<g id="edge24" class="edge">
<title>Node14&#45;&gt;Node19</title>
<path fill="none" stroke="#9a32cd" stroke-dasharray="5,2" d="M825.08,-510.45C858.93,-548.09 945.41,-636.11 1040,-668 1196.14,-720.65 1398.48,-663.47 1470.55,-639.52"/>
<polygon fill="#9a32cd" stroke="#9a32cd" points="827.57,-507.98 818.33,-502.82 822.33,-512.62 827.57,-507.98"/>
<text text-anchor="middle" x="1141.5" y="-704" font-family="Helvetica,sans-Serif" font-size="10.00"> snes_A</text>
<text text-anchor="middle" x="1141.5" y="-693" font-family="Helvetica,sans-Serif" font-size="10.00">snes_B</text>
</g>
<!-- Node14&#45;&gt;Node22 -->
<g id="edge29" class="edge">
<title>Node14&#45;&gt;Node22</title>
<path fill="none" stroke="#9a32cd" stroke-dasharray="5,2" d="M837.04,-496.57C922.12,-506.76 1190.95,-531.12 1397,-463 1432.08,-451.4 1467.79,-425.71 1485.71,-411.65"/>
<polygon fill="#9a32cd" stroke="#9a32cd" points="837.28,-493.07 826.93,-495.32 836.43,-500.02 837.28,-493.07"/>
<text text-anchor="middle" x="1141.5" y="-524" font-family="Helvetica,sans-Serif" font-size="10.00"> ts_A</text>
<text text-anchor="middle" x="1141.5" y="-513" font-family="Helvetica,sans-Serif" font-size="10.00">ts_B</text>
</g>
<!-- Node15 -->
<g id="node15" class="node">
<title>Node15</title>
<g id="a_node15"><a xlink:title=" ">
<polygon fill="white" stroke="#bfbfbf" points="772.5,-295.5 772.5,-314.5 845.5,-314.5 845.5,-295.5 772.5,-295.5"/>
<text text-anchor="middle" x="809" y="-302.5" font-family="Helvetica,sans-Serif" font-size="10.00">bitset&lt; 8 &gt;</text>
</a>
</g>
</g>
<!-- Node15&#45;&gt;Node12 -->
<g id="edge15" class="edge">
<title>Node15&#45;&gt;Node12</title>
<path fill="none" stroke="#9a32cd" stroke-dasharray="5,2" d="M855.85,-311.34C899.29,-318.04 966.03,-330.12 1022,-348 1030.34,-350.66 1031.64,-353.39 1040,-356 1055.09,-360.71 1071.83,-364.44 1087.25,-367.3"/>
<polygon fill="#9a32cd" stroke="#9a32cd" points="856.27,-307.86 845.86,-309.83 855.23,-314.79 856.27,-307.86"/>
<text text-anchor="middle" x="961.5" y="-351" font-family="Helvetica,sans-Serif" font-size="10.00"> data_ctx</text>
</g>
<!-- Node16 -->
<g id="node16" class="node">
<title>Node16</title>
<g id="a_node16"><a xlink:title=" ">
<polygon fill="white" stroke="#bfbfbf" points="792,-175.5 792,-194.5 826,-194.5 826,-175.5 792,-175.5"/>
<text text-anchor="middle" x="809" y="-182.5" font-family="Helvetica,sans-Serif" font-size="10.00">Vec</text>
</a>
</g>
</g>
<!-- Node16&#45;&gt;Node11 -->
<g id="edge20" class="edge">
<title>Node16&#45;&gt;Node11</title>
<path fill="none" stroke="#9a32cd" stroke-dasharray="5,2" d="M830.19,-168.72C868.37,-139.09 954.99,-77.36 1040,-55 1193.85,-14.53 1256.43,-6.51 1397,-81 1441.37,-104.51 1477.49,-154.92 1491.37,-176.2"/>
<polygon fill="#9a32cd" stroke="#9a32cd" points="827.66,-166.26 821.96,-175.19 831.98,-171.76 827.66,-166.26"/>
<text text-anchor="middle" x="1141.5" y="-58" font-family="Helvetica,sans-Serif" font-size="10.00"> ksp_f</text>
</g>
<!-- Node16&#45;&gt;Node12 -->
<g id="edge16" class="edge">
<title>Node16&#45;&gt;Node12</title>
<path fill="none" stroke="#9a32cd" stroke-dasharray="5,2" d="M836.44,-187.96C881.73,-194.5 973.91,-214.47 1022,-272 1046.49,-301.29 1012.68,-329.33 1040,-356 1052.52,-368.22 1070.28,-373.85 1087.4,-376.15"/>
<polygon fill="#9a32cd" stroke="#9a32cd" points="836.62,-184.45 826.24,-186.6 835.7,-191.39 836.62,-184.45"/>
<text text-anchor="middle" x="961.5" y="-308" font-family="Helvetica,sans-Serif" font-size="10.00"> f</text>
<text text-anchor="middle" x="961.5" y="-297" font-family="Helvetica,sans-Serif" font-size="10.00">x</text>
<text text-anchor="middle" x="961.5" y="-286" font-family="Helvetica,sans-Serif" font-size="10.00">x_t</text>
<text text-anchor="middle" x="961.5" y="-275" font-family="Helvetica,sans-Serif" font-size="10.00">x_tt</text>
</g>
<!-- Node16&#45;&gt;Node19 -->
<g id="edge25" class="edge">
<title>Node16&#45;&gt;Node19</title>
<path fill="none" stroke="#9a32cd" stroke-dasharray="5,2" d="M823.57,-202.64C838.66,-222.5 863.48,-255.95 883,-286 891.68,-299.36 888.71,-306.87 901,-317 944.92,-353.21 986.69,-314.35 1022,-359 1046.52,-390.01 1012.96,-507.16 1040,-536 1071.28,-569.37 1198.16,-560.97 1243,-570 1320.88,-585.68 1411.21,-607.96 1460.58,-620.49"/>
<polygon fill="#9a32cd" stroke="#9a32cd" points="826.23,-200.35 817.38,-194.52 820.66,-204.6 826.23,-200.35"/>
<text text-anchor="middle" x="1141.5" y="-584" font-family="Helvetica,sans-Serif" font-size="10.00"> snes_x</text>
<text text-anchor="middle" x="1141.5" y="-573" font-family="Helvetica,sans-Serif" font-size="10.00">snes_f</text>
</g>
<!-- Node16&#45;&gt;Node22 -->
<g id="edge33" class="edge">
<title>Node16&#45;&gt;Node22</title>
<path fill="none" stroke="#9a32cd" stroke-dasharray="5,2" d="M836.13,-179.76C904.66,-167.11 1094.53,-139.02 1243,-183 1365.96,-219.42 1465.54,-354.98 1491.11,-392.39"/>
<polygon fill="#9a32cd" stroke="#9a32cd" points="835.37,-176.35 826.2,-181.65 836.67,-183.22 835.37,-176.35"/>
<text text-anchor="middle" x="1141.5" y="-219" font-family="Helvetica,sans-Serif" font-size="10.00"> ts_u</text>
<text text-anchor="middle" x="1141.5" y="-208" font-family="Helvetica,sans-Serif" font-size="10.00">ts_F</text>
<text text-anchor="middle" x="1141.5" y="-197" font-family="Helvetica,sans-Serif" font-size="10.00">ts_u_t</text>
<text text-anchor="middle" x="1141.5" y="-186" font-family="Helvetica,sans-Serif" font-size="10.00">ts_u_tt</text>
</g>
<!-- Node17 -->
<g id="node17" class="node">
<title>Node17</title>
<g id="a_node17"><a xlink:title=" ">
<polygon fill="white" stroke="#bfbfbf" points="1124,-75.5 1124,-94.5 1159,-94.5 1159,-75.5 1124,-75.5"/>
<text text-anchor="middle" x="1141.5" y="-82.5" font-family="Helvetica,sans-Serif" font-size="10.00">KSP</text>
</a>
</g>
</g>
<!-- Node17&#45;&gt;Node11 -->
<g id="edge17" class="edge">
<title>Node17&#45;&gt;Node11</title>
<path fill="none" stroke="#9a32cd" stroke-dasharray="5,2" d="M1169.4,-83.16C1217.06,-80.88 1318.68,-80.49 1397,-111 1435.34,-125.94 1471.85,-159.7 1488.33,-176.35"/>
<polygon fill="#9a32cd" stroke="#9a32cd" points="1169.08,-79.67 1159.29,-83.71 1169.46,-86.66 1169.08,-79.67"/>
<text text-anchor="middle" x="1329" y="-114" font-family="Helvetica,sans-Serif" font-size="10.00"> ksp</text>
</g>
<!-- Node18 -->
<g id="node18" class="node">
<title>Node18</title>
<g id="a_node18"><a xlink:title=" ">
<polygon fill="white" stroke="#bfbfbf" points="1104.5,-113.5 1104.5,-132.5 1178.5,-132.5 1178.5,-113.5 1104.5,-113.5"/>
<text text-anchor="middle" x="1141.5" y="-120.5" font-family="Helvetica,sans-Serif" font-size="10.00">KSPContext</text>
</a>
</g>
</g>
<!-- Node18&#45;&gt;Node11 -->
<g id="edge18" class="edge">
<title>Node18&#45;&gt;Node11</title>
<path fill="none" stroke="#9a32cd" stroke-dasharray="5,2" d="M1189.05,-122.51C1240.62,-122.95 1325.88,-126.66 1397,-144 1427.13,-151.34 1459.9,-166.52 1479.56,-176.47"/>
<polygon fill="#9a32cd" stroke="#9a32cd" points="1188.91,-119.01 1178.89,-122.46 1188.88,-126.01 1188.91,-119.01"/>
<text text-anchor="middle" x="1329" y="-147" font-family="Helvetica,sans-Serif" font-size="10.00"> ksp_ctx</text>
</g>
<!-- Node19&#45;&gt;Node10 -->
<g id="edge21" class="edge">
<title>Node19&#45;&gt;Node10</title>
<path fill="none" stroke="midnightblue" d="M1515.2,-647.52C1554.54,-692.57 1657.44,-817.64 1703,-942 1714.09,-972.28 1699.28,-1062.16 1721,-1086 1727.9,-1093.57 1737.08,-1098.48 1746.87,-1101.61"/>
<polygon fill="midnightblue" stroke="midnightblue" points="1517.65,-645.02 1508.41,-639.83 1512.4,-649.65 1517.65,-645.02"/>
</g>
<!-- Node20 -->
<g id="node20" class="node">
<title>Node20</title>
<g id="a_node20"><a xlink:title=" ">
<polygon fill="white" stroke="#bfbfbf" points="1120.5,-639.5 1120.5,-658.5 1162.5,-658.5 1162.5,-639.5 1120.5,-639.5"/>
<text text-anchor="middle" x="1141.5" y="-646.5" font-family="Helvetica,sans-Serif" font-size="10.00">SNES</text>
</a>
</g>
</g>
<!-- Node20&#45;&gt;Node19 -->
<g id="edge23" class="edge">
<title>Node20&#45;&gt;Node19</title>
<path fill="none" stroke="#9a32cd" stroke-dasharray="5,2" d="M1172.72,-647.38C1231.53,-644.24 1362.28,-637.24 1438.74,-633.14"/>
<polygon fill="#9a32cd" stroke="#9a32cd" points="1172.4,-643.89 1162.6,-647.92 1172.78,-650.88 1172.4,-643.89"/>
<text text-anchor="middle" x="1329" y="-646" font-family="Helvetica,sans-Serif" font-size="10.00"> snes</text>
</g>
<!-- Node21 -->
<g id="node21" class="node">
<title>Node21</title>
<g id="a_node21"><a xlink:title=" ">
<polygon fill="white" stroke="#bfbfbf" points="1101.5,-601.5 1101.5,-620.5 1181.5,-620.5 1181.5,-601.5 1101.5,-601.5"/>
<text text-anchor="middle" x="1141.5" y="-608.5" font-family="Helvetica,sans-Serif" font-size="10.00">SNESContext</text>
</a>
</g>
</g>
<!-- Node21&#45;&gt;Node19 -->
<g id="edge26" class="edge">
<title>Node21&#45;&gt;Node19</title>
<path fill="none" stroke="#9a32cd" stroke-dasharray="5,2" d="M1191.92,-612.21C1243.22,-613.64 1325.79,-616.42 1397,-621 1410.55,-621.87 1425.1,-623.04 1438.82,-624.25"/>
<polygon fill="#9a32cd" stroke="#9a32cd" points="1191.86,-608.71 1181.77,-611.93 1191.67,-615.7 1191.86,-608.71"/>
<text text-anchor="middle" x="1329" y="-624" font-family="Helvetica,sans-Serif" font-size="10.00"> snes_ctx</text>
</g>
<!-- Node22&#45;&gt;Node10 -->
<g id="edge27" class="edge">
<title>Node22&#45;&gt;Node10</title>
<path fill="none" stroke="midnightblue" d="M1513.84,-419.61C1552.9,-468.78 1661.12,-613.24 1703,-754 1713.53,-789.41 1697.09,-1057.83 1721,-1086 1727.73,-1093.93 1736.95,-1098.98 1746.87,-1102.14"/>
<polygon fill="midnightblue" stroke="midnightblue" points="1516.36,-417.16 1507.38,-411.55 1510.9,-421.55 1516.36,-417.16"/>
</g>
<!-- Node23 -->
<g id="node23" class="node">
<title>Node23</title>
<g id="a_node23"><a xlink:title=" ">
<polygon fill="white" stroke="#bfbfbf" points="1109,-327.5 1109,-346.5 1174,-346.5 1174,-327.5 1109,-327.5"/>
<text text-anchor="middle" x="1141.5" y="-334.5" font-family="Helvetica,sans-Serif" font-size="10.00">PetscReal</text>
</a>
</g>
</g>
<!-- Node23&#45;&gt;Node22 -->
<g id="edge30" class="edge">
<title>Node23&#45;&gt;Node22</title>
<path fill="none" stroke="#9a32cd" stroke-dasharray="5,2" d="M1184.31,-329.89C1235.6,-322.77 1324.65,-315.64 1397,-337 1433.87,-347.88 1469.93,-376.98 1487.1,-392.29"/>
<polygon fill="#9a32cd" stroke="#9a32cd" points="1183.66,-326.45 1174.27,-331.35 1184.67,-333.38 1183.66,-326.45"/>
<text text-anchor="middle" x="1329" y="-373" font-family="Helvetica,sans-Serif" font-size="10.00"> ts_a</text>
<text text-anchor="middle" x="1329" y="-362" font-family="Helvetica,sans-Serif" font-size="10.00">ts_t</text>
<text text-anchor="middle" x="1329" y="-351" font-family="Helvetica,sans-Serif" font-size="10.00">ts_dt</text>
<text text-anchor="middle" x="1329" y="-340" font-family="Helvetica,sans-Serif" font-size="10.00">ts_aa</text>
</g>
<!-- Node24 -->
<g id="node24" class="node">
<title>Node24</title>
<g id="a_node24"><a xlink:title=" ">
<polygon fill="white" stroke="#bfbfbf" points="1108,-289.5 1108,-308.5 1175,-308.5 1175,-289.5 1108,-289.5"/>
<text text-anchor="middle" x="1141.5" y="-296.5" font-family="Helvetica,sans-Serif" font-size="10.00">TSContext</text>
</a>
</g>
</g>
<!-- Node24&#45;&gt;Node22 -->
<g id="edge31" class="edge">
<title>Node24&#45;&gt;Node22</title>
<path fill="none" stroke="#9a32cd" stroke-dasharray="5,2" d="M1185.29,-291.68C1237.48,-284.7 1327.33,-279.06 1397,-308 1440.46,-326.05 1476.55,-371.99 1490.87,-392.2"/>
<polygon fill="#9a32cd" stroke="#9a32cd" points="1184.79,-288.22 1175.37,-293.08 1185.77,-295.15 1184.79,-288.22"/>
<text text-anchor="middle" x="1329" y="-311" font-family="Helvetica,sans-Serif" font-size="10.00"> ts_ctx</text>
</g>
<!-- Node25 -->
<g id="node25" class="node">
<title>Node25</title>
<g id="a_node25"><a xlink:title=" ">
<polygon fill="white" stroke="#bfbfbf" points="1113.5,-447.5 1113.5,-466.5 1169.5,-466.5 1169.5,-447.5 1113.5,-447.5"/>
<text text-anchor="middle" x="1141.5" y="-454.5" font-family="Helvetica,sans-Serif" font-size="10.00">PetscInt</text>
</a>
</g>
</g>
<!-- Node25&#45;&gt;Node22 -->
<g id="edge32" class="edge">
<title>Node25&#45;&gt;Node22</title>
<path fill="none" stroke="#9a32cd" stroke-dasharray="5,2" d="M1179.81,-454.69C1229.64,-451.19 1320.53,-443.39 1397,-429 1420.79,-424.52 1447.21,-417.33 1466.99,-411.5"/>
<polygon fill="#9a32cd" stroke="#9a32cd" points="1179.56,-451.2 1169.82,-455.37 1180.04,-458.18 1179.56,-451.2"/>
<text text-anchor="middle" x="1329" y="-451" font-family="Helvetica,sans-Serif" font-size="10.00"> ts_step</text>
</g>
<!-- Node26 -->
<g id="node26" class="node">
<title>Node26</title>
<g id="a_node26"><a xlink:title=" ">
<polygon fill="white" stroke="#bfbfbf" points="1127,-409.5 1127,-428.5 1156,-428.5 1156,-409.5 1127,-409.5"/>
<text text-anchor="middle" x="1141.5" y="-416.5" font-family="Helvetica,sans-Serif" font-size="10.00">TS</text>
</a>
</g>
</g>
<!-- Node26&#45;&gt;Node22 -->
<g id="edge34" class="edge">
<title>Node26&#45;&gt;Node22</title>
<path fill="none" stroke="#9a32cd" stroke-dasharray="5,2" d="M1166.58,-417.85C1223.4,-415.13 1366.9,-408.25 1444.96,-404.52"/>
<polygon fill="#9a32cd" stroke="#9a32cd" points="1166.24,-414.36 1156.42,-418.33 1166.57,-421.35 1166.24,-414.36"/>
<text text-anchor="middle" x="1329" y="-417" font-family="Helvetica,sans-Serif" font-size="10.00"> ts</text>
</g>
<!-- Node27 -->
<g id="node27" class="node">
<title>Node27</title>
<g id="a_node27"><a xlink:title=" ">
<polygon fill="white" stroke="#bfbfbf" points="1454,-1206.5 1454,-1225.5 1543,-1225.5 1543,-1206.5 1454,-1206.5"/>
<text text-anchor="middle" x="1498.5" y="-1213.5" font-family="Helvetica,sans-Serif" font-size="10.00">pair&lt; int, int &gt;</text>
</a>
</g>
</g>
<!-- Node27&#45;&gt;Node10 -->
<g id="edge36" class="edge">
<title>Node27&#45;&gt;Node10</title>
<path fill="none" stroke="#9a32cd" stroke-dasharray="5,2" d="M1551.91,-1204.03C1593.57,-1193.82 1652.94,-1177.68 1703,-1158 1735.06,-1145.4 1770.4,-1126.16 1790.53,-1114.66"/>
<polygon fill="#9a32cd" stroke="#9a32cd" points="1550.88,-1200.68 1541.99,-1206.44 1552.53,-1207.49 1550.88,-1200.68"/>
<text text-anchor="middle" x="1651.5" y="-1193" font-family="Helvetica,sans-Serif" font-size="10.00"> loHiFERank</text>
</g>
<!-- Node28 -->
<g id="node28" class="node">
<title>Node28</title>
<g id="a_node28"><a xlink:title=" ">
<polygon fill="white" stroke="#bfbfbf" points="1428.5,-1088.5 1428.5,-1107.5 1568.5,-1107.5 1568.5,-1088.5 1428.5,-1088.5"/>
<text text-anchor="middle" x="1498.5" y="-1095.5" font-family="Helvetica,sans-Serif" font-size="10.00">weak_ptr&lt; CacheTuple &gt;</text>
</a>
</g>
</g>
<!-- Node28&#45;&gt;Node10 -->
<g id="edge37" class="edge">
<title>Node28&#45;&gt;Node10</title>
<path fill="none" stroke="#9a32cd" stroke-dasharray="5,2" d="M1578.78,-1099.8C1631.18,-1101 1698.79,-1102.54 1746.79,-1103.63"/>
<polygon fill="#9a32cd" stroke="#9a32cd" points="1578.59,-1096.3 1568.51,-1099.57 1578.43,-1103.3 1578.59,-1096.3"/>
<text text-anchor="middle" x="1651.5" y="-1105" font-family="Helvetica,sans-Serif" font-size="10.00"> cacheWeakPtr</text>
</g>
<!-- Node29 -->
<g id="node29" class="node">
<title>Node29</title>
<g id="a_node29"><a xlink:title=" ">
<polygon fill="white" stroke="#bfbfbf" points="1442.5,-1050.5 1442.5,-1069.5 1554.5,-1069.5 1554.5,-1050.5 1442.5,-1050.5"/>
<text text-anchor="middle" x="1498.5" y="-1057.5" font-family="Helvetica,sans-Serif" font-size="10.00">unique_ptr&lt; bool &gt;</text>
</a>
</g>
</g>
<!-- Node29&#45;&gt;Node10 -->
<g id="edge38" class="edge">
<title>Node29&#45;&gt;Node10</title>
<path fill="none" stroke="#9a32cd" stroke-dasharray="5,2" d="M1564.65,-1056.07C1605.43,-1055.64 1658.5,-1058.84 1703,-1074 1712.1,-1077.1 1712.15,-1082.23 1721,-1086 1730,-1089.84 1739.88,-1092.94 1749.63,-1095.44"/>
<polygon fill="#9a32cd" stroke="#9a32cd" points="1564.49,-1052.57 1554.55,-1056.25 1564.61,-1059.57 1564.49,-1052.57"/>
<text text-anchor="middle" x="1651.5" y="-1088" font-family="Helvetica,sans-Serif" font-size="10.00"> matAssembleSwitch</text>
<text text-anchor="middle" x="1651.5" y="-1077" font-family="Helvetica,sans-Serif" font-size="10.00">vecAssembleSwitch</text>
</g>
<!-- Node30 -->
<g id="node30" class="node">
<title>Node30</title>
<g id="a_node30"><a xlink:title=" ">
<polygon fill="white" stroke="#bfbfbf" points="1127,-1298.5 1127,-1317.5 1156,-1317.5 1156,-1298.5 1127,-1298.5"/>
<text text-anchor="middle" x="1141.5" y="-1305.5" font-family="Helvetica,sans-Serif" font-size="10.00">int</text>
</a>
</g>
</g>
<!-- Node30&#45;&gt;Node7 -->
<g id="edge77" class="edge">
<title>Node30&#45;&gt;Node7</title>
<path fill="none" stroke="#9a32cd" stroke-dasharray="5,2" d="M1166.14,-1310.82C1223.08,-1317.36 1372.39,-1333 1497.5,-1333 1497.5,-1333 1497.5,-1333 1986,-1333 2068.55,-1333 2671.32,-1310.56 2724,-1247 2758.98,-1204.8 2724.58,-1052.97 2742,-1001 2761.4,-943.15 2807.04,-885.59 2829.93,-859.1"/>
<polygon fill="#9a32cd" stroke="#9a32cd" points="1166.36,-1307.32 1156.02,-1309.64 1165.55,-1314.27 1166.36,-1307.32"/>
<text text-anchor="middle" x="1985" y="-1336" font-family="Helvetica,sans-Serif" font-size="10.00"> num_nodes</text>
</g>
<!-- Node30&#45;&gt;Node10 -->
<g id="edge39" class="edge">
<title>Node30&#45;&gt;Node10</title>
<path fill="none" stroke="#9a32cd" stroke-dasharray="5,2" d="M1166.51,-1310.38C1223.4,-1315.47 1364.12,-1324.59 1397,-1294 1443.25,-1250.97 1370.21,-1197.56 1415,-1153 1416.46,-1151.55 1637.38,-1125.14 1746.88,-1112.13"/>
<polygon fill="#9a32cd" stroke="#9a32cd" points="1166.58,-1306.88 1156.3,-1309.43 1165.93,-1313.85 1166.58,-1306.88"/>
<text text-anchor="middle" x="1498.5" y="-1189" font-family="Helvetica,sans-Serif" font-size="10.00"> sIze</text>
<text text-anchor="middle" x="1498.5" y="-1178" font-family="Helvetica,sans-Serif" font-size="10.00">loopSize</text>
<text text-anchor="middle" x="1498.5" y="-1167" font-family="Helvetica,sans-Serif" font-size="10.00">nInTheLoop</text>
<text text-anchor="middle" x="1498.5" y="-1156" font-family="Helvetica,sans-Serif" font-size="10.00">rAnk</text>
</g>
<!-- Node32 -->
<g id="node32" class="node">
<title>Node32</title>
<g id="a_node32"><a xlink:href="structMoFEM_1_1Problem.html" target="_top" xlink:title="keeps basic data about problem">
<polygon fill="white" stroke="black" points="1449,-956.5 1449,-975.5 1548,-975.5 1548,-956.5 1449,-956.5"/>
<text text-anchor="middle" x="1498.5" y="-963.5" font-family="Helvetica,sans-Serif" font-size="10.00">MoFEM::Problem</text>
</a>
</g>
</g>
<!-- Node30&#45;&gt;Node32 -->
<g id="edge51" class="edge">
<title>Node30&#45;&gt;Node32</title>
<path fill="none" stroke="#9a32cd" stroke-dasharray="5,2" d="M1160,-1291.48C1182.04,-1271.45 1221.77,-1237.78 1261,-1217 1317.26,-1187.19 1357.28,-1221.76 1397,-1172 1423.04,-1139.37 1387.47,-1016.38 1415,-985 1423.63,-975.17 1436.23,-969.87 1449,-967.15"/>
<polygon fill="#9a32cd" stroke="#9a32cd" points="1157.44,-1289.08 1152.46,-1298.44 1162.18,-1294.23 1157.44,-1289.08"/>
<text text-anchor="middle" x="1329" y="-1286" font-family="Helvetica,sans-Serif" font-size="10.00"> tagNameSize</text>
<text text-anchor="middle" x="1329" y="-1275" font-family="Helvetica,sans-Serif" font-size="10.00">nbDofsRow</text>
<text text-anchor="middle" x="1329" y="-1264" font-family="Helvetica,sans-Serif" font-size="10.00">nbLocDofsCol</text>
<text text-anchor="middle" x="1329" y="-1253" font-family="Helvetica,sans-Serif" font-size="10.00">nbDofsCol</text>
<text text-anchor="middle" x="1329" y="-1242" font-family="Helvetica,sans-Serif" font-size="10.00">nbGhostDofsRow</text>
<text text-anchor="middle" x="1329" y="-1231" font-family="Helvetica,sans-Serif" font-size="10.00">nbGhostDofsCol</text>
<text text-anchor="middle" x="1329" y="-1220" font-family="Helvetica,sans-Serif" font-size="10.00">nbLocDofsRow</text>
</g>
<!-- Node31 -->
<g id="node31" class="node">
<title>Node31</title>
<g id="a_node31"><a xlink:title=" ">
<polygon fill="white" stroke="#bfbfbf" points="1415,-994.5 1415,-1013.5 1582,-1013.5 1582,-994.5 1415,-994.5"/>
<text text-anchor="middle" x="1498.5" y="-1001.5" font-family="Helvetica,sans-Serif" font-size="10.00">function&lt; MoFEMErrorCode()&gt;</text>
</a>
</g>
</g>
<!-- Node31&#45;&gt;Node10 -->
<g id="edge40" class="edge">
<title>Node31&#45;&gt;Node10</title>
<path fill="none" stroke="#9a32cd" stroke-dasharray="5,2" d="M1549.95,-992.79C1595.18,-985.88 1660.74,-984.05 1703,-1019 1726.76,-1038.65 1698.71,-1064.69 1721,-1086 1728.18,-1092.87 1737.26,-1097.47 1746.81,-1100.52"/>
<polygon fill="#9a32cd" stroke="#9a32cd" points="1549.35,-989.35 1540.06,-994.44 1550.5,-996.25 1549.35,-989.35"/>
<text text-anchor="middle" x="1651.5" y="-1044" font-family="Helvetica,sans-Serif" font-size="10.00"> preProcessHook</text>
<text text-anchor="middle" x="1651.5" y="-1033" font-family="Helvetica,sans-Serif" font-size="10.00">operatorHook</text>
<text text-anchor="middle" x="1651.5" y="-1022" font-family="Helvetica,sans-Serif" font-size="10.00">postProcessHook</text>
</g>
<!-- Node32&#45;&gt;Node10 -->
<g id="edge41" class="edge">
<title>Node32&#45;&gt;Node10</title>
<path fill="none" stroke="#9a32cd" stroke-dasharray="5,2" d="M1540.27,-954C1585.79,-943.35 1658.85,-934.86 1703,-974 1740.72,-1007.45 1686.4,-1049.33 1721,-1086 1727.93,-1093.34 1737,-1098.16 1746.65,-1101.27"/>
<polygon fill="#9a32cd" stroke="#9a32cd" points="1539.3,-950.64 1530.43,-956.44 1540.98,-957.43 1539.3,-950.64"/>
<text text-anchor="middle" x="1651.5" y="-977" font-family="Helvetica,sans-Serif" font-size="10.00"> problemPtr</text>
</g>
<!-- Node33 -->
<g id="node33" class="node">
<title>Node33</title>
<g id="a_node33"><a xlink:title=" ">
<polygon fill="white" stroke="#bfbfbf" points="1058,-824 1058,-854 1225,-854 1225,-824 1058,-824"/>
<text text-anchor="start" x="1066" y="-842" font-family="Helvetica,sans-Serif" font-size="10.00">shared_ptr&lt; NumeredEntFinite</text>
<text text-anchor="middle" x="1141.5" y="-831" font-family="Helvetica,sans-Serif" font-size="10.00">Element_multiIndex &gt;</text>
</a>
</g>
</g>
<!-- Node33&#45;&gt;Node32 -->
<g id="edge42" class="edge">
<title>Node33&#45;&gt;Node32</title>
<path fill="none" stroke="#9a32cd" stroke-dasharray="5,2" d="M1235.34,-837.46C1285.33,-839.91 1346.85,-848.36 1397,-872 1439.36,-891.96 1475.77,-936.46 1490.51,-956.22"/>
<polygon fill="#9a32cd" stroke="#9a32cd" points="1235.31,-833.96 1225.18,-837.04 1235.02,-840.95 1235.31,-833.96"/>
<text text-anchor="middle" x="1329" y="-875" font-family="Helvetica,sans-Serif" font-size="10.00"> numeredFiniteElementsPtr</text>
</g>
<!-- Node34 -->
<g id="node34" class="node">
<title>Node34</title>
<g id="a_node34"><a xlink:title=" ">
<polygon fill="white" stroke="#bfbfbf" points="1112,-785.5 1112,-804.5 1171,-804.5 1171,-785.5 1112,-785.5"/>
<text text-anchor="middle" x="1141.5" y="-792.5" font-family="Helvetica,sans-Serif" font-size="10.00">BitFEId *</text>
</a>
</g>
</g>
<!-- Node34&#45;&gt;Node32 -->
<g id="edge43" class="edge">
<title>Node34&#45;&gt;Node32</title>
<path fill="none" stroke="#9a32cd" stroke-dasharray="5,2" d="M1181.47,-790.3C1234.22,-785.9 1329.48,-785.04 1397,-825 1450.81,-856.85 1483.52,-930.03 1493.9,-956.35"/>
<polygon fill="#9a32cd" stroke="#9a32cd" points="1180.83,-786.84 1171.2,-791.25 1181.48,-793.81 1180.83,-786.84"/>
<text text-anchor="middle" x="1329" y="-828" font-family="Helvetica,sans-Serif" font-size="10.00"> tagBitFEId</text>
</g>
<!-- Node35 -->
<g id="node35" class="node">
<title>Node35</title>
<g id="a_node35"><a xlink:href="classEntityHandle.html" target="_top" xlink:title=" ">
<polygon fill="white" stroke="black" points="1101.5,-1168.5 1101.5,-1187.5 1181.5,-1187.5 1181.5,-1168.5 1101.5,-1168.5"/>
<text text-anchor="middle" x="1141.5" y="-1175.5" font-family="Helvetica,sans-Serif" font-size="10.00">EntityHandle</text>
</a>
</g>
</g>
<!-- Node35&#45;&gt;Node7 -->
<g id="edge75" class="edge">
<title>Node35&#45;&gt;Node7</title>
<path fill="none" stroke="#9a32cd" stroke-dasharray="5,2" d="M1191.9,-1175.95C1256.38,-1174.23 1364.82,-1174.91 1397,-1197 1412.41,-1207.57 1399.21,-1225.01 1415,-1235 1477.72,-1274.69 1507.83,-1237.91 1582,-1235 1729.45,-1229.22 1765.74,-1218.42 1913,-1209 2074.64,-1198.66 2115.25,-1199.49 2277,-1191 2357.01,-1186.8 2382.78,-1211.19 2457,-1181 2636.77,-1107.88 2790.64,-914.91 2832.36,-859.24"/>
<polygon fill="#9a32cd" stroke="#9a32cd" points="1191.45,-1172.46 1181.56,-1176.25 1191.66,-1179.46 1191.45,-1172.46"/>
<text text-anchor="middle" x="1985" y="-1212" font-family="Helvetica,sans-Serif" font-size="10.00"> conn</text>
</g>
<!-- Node35&#45;&gt;Node32 -->
<g id="edge44" class="edge">
<title>Node35&#45;&gt;Node32</title>
<path fill="none" stroke="#9a32cd" stroke-dasharray="5,2" d="M1191.75,-1169.68C1265.74,-1157.18 1397,-1135 1397,-1135 1443.33,-1086.4 1370.13,-1034.95 1415,-985 1423.64,-975.38 1436.09,-970.13 1448.71,-967.38"/>
<polygon fill="#9a32cd" stroke="#9a32cd" points="1190.99,-1166.26 1181.71,-1171.38 1192.15,-1173.16 1190.99,-1166.26"/>
<text text-anchor="middle" x="1329" y="-1160" font-family="Helvetica,sans-Serif" font-size="10.00"> meshset</text>
</g>
<!-- Node36 -->
<g id="node36" class="node">
<title>Node36</title>
<g id="a_node36"><a xlink:title=" ">
<polygon fill="white" stroke="#bfbfbf" points="1067,-736 1067,-766 1216,-766 1216,-736 1067,-736"/>
<text text-anchor="start" x="1075" y="-754" font-family="Helvetica,sans-Serif" font-size="10.00">shared_ptr&lt; MoFEM::</text>
<text text-anchor="middle" x="1141.5" y="-743" font-family="Helvetica,sans-Serif" font-size="10.00">ComposedProblemsData &gt;</text>
</a>
</g>
</g>
<!-- Node36&#45;&gt;Node32 -->
<g id="edge45" class="edge">
<title>Node36&#45;&gt;Node32</title>
<path fill="none" stroke="#9a32cd" stroke-dasharray="5,2" d="M1226.18,-739.66C1279.36,-736.82 1347.29,-741.7 1397,-775 1463.93,-819.84 1489.33,-924.08 1495.74,-956.32"/>
<polygon fill="#9a32cd" stroke="#9a32cd" points="1225.85,-736.17 1216.09,-740.3 1226.3,-743.16 1225.85,-736.17"/>
<text text-anchor="middle" x="1329" y="-778" font-family="Helvetica,sans-Serif" font-size="10.00"> composedProblemsData</text>
</g>
<!-- Node37 -->
<g id="node37" class="node">
<title>Node37</title>
<g id="a_node37"><a xlink:title=" ">
<polygon fill="white" stroke="#bfbfbf" points="1101,-1125.5 1101,-1144.5 1182,-1144.5 1182,-1125.5 1101,-1125.5"/>
<text text-anchor="middle" x="1141.5" y="-1132.5" font-family="Helvetica,sans-Serif" font-size="10.00">BitRefLevel *</text>
</a>
</g>
</g>
<!-- Node37&#45;&gt;Node32 -->
<g id="edge46" class="edge">
<title>Node37&#45;&gt;Node32</title>
<path fill="none" stroke="#9a32cd" stroke-dasharray="5,2" d="M1192.3,-1125.57C1213.47,-1121.61 1238.43,-1117 1261,-1113 1291.18,-1107.65 1375.3,-1111.65 1397,-1090 1430.52,-1056.56 1382.48,-1019.41 1415,-985 1423.78,-975.71 1436.12,-970.53 1448.59,-967.76"/>
<polygon fill="#9a32cd" stroke="#9a32cd" points="1191.42,-1122.17 1182.24,-1127.46 1192.72,-1129.05 1191.42,-1122.17"/>
<text text-anchor="middle" x="1329" y="-1127" font-family="Helvetica,sans-Serif" font-size="10.00"> tagBitRefLevelMask</text>
<text text-anchor="middle" x="1329" y="-1116" font-family="Helvetica,sans-Serif" font-size="10.00">tagBitRefLevel</text>
</g>
<!-- Node38 -->
<g id="node38" class="node">
<title>Node38</title>
<g id="a_node38"><a xlink:title=" ">
<polygon fill="white" stroke="#bfbfbf" points="1056.5,-1076 1056.5,-1106 1226.5,-1106 1226.5,-1076 1056.5,-1076"/>
<text text-anchor="start" x="1064.5" y="-1094" font-family="Helvetica,sans-Serif" font-size="10.00">shared_ptr&lt; NumeredDofEntity</text>
<text text-anchor="middle" x="1141.5" y="-1083" font-family="Helvetica,sans-Serif" font-size="10.00">_multiIndex &gt;</text>
</a>
</g>
</g>
<!-- Node38&#45;&gt;Node32 -->
<g id="edge47" class="edge">
<title>Node38&#45;&gt;Node32</title>
<path fill="none" stroke="#9a32cd" stroke-dasharray="5,2" d="M1228.59,-1074.04C1239.49,-1071.96 1250.5,-1069.91 1261,-1068 1321.32,-1057.05 1351.05,-1085.58 1397,-1045 1417.87,-1026.57 1394.68,-1004.04 1415,-985 1424.22,-976.36 1436.56,-971.38 1448.88,-968.57"/>
<polygon fill="#9a32cd" stroke="#9a32cd" points="1227.79,-1070.63 1218.63,-1075.94 1229.1,-1077.5 1227.79,-1070.63"/>
<text text-anchor="middle" x="1329" y="-1082" font-family="Helvetica,sans-Serif" font-size="10.00"> numeredRowDofsPtr</text>
<text text-anchor="middle" x="1329" y="-1071" font-family="Helvetica,sans-Serif" font-size="10.00">numeredColDofsPtr</text>
</g>
<!-- Node39 -->
<g id="node39" class="node">
<title>Node39</title>
<g id="a_node39"><a xlink:title=" ">
<polygon fill="white" stroke="#bfbfbf" points="1122.5,-1037.5 1122.5,-1056.5 1160.5,-1056.5 1160.5,-1037.5 1122.5,-1037.5"/>
<text text-anchor="middle" x="1141.5" y="-1044.5" font-family="Helvetica,sans-Serif" font-size="10.00">char</text>
</a>
</g>
</g>
<!-- Node39&#45;&gt;Node32 -->
<g id="edge48" class="edge">
<title>Node39&#45;&gt;Node32</title>
<path fill="none" stroke="#9a32cd" stroke-dasharray="5,2" d="M1170.96,-1043.98C1233.28,-1037.2 1377.82,-1020.44 1397,-1009 1408.45,-1002.17 1403.82,-992.27 1415,-985 1425.1,-978.43 1437.2,-974.12 1448.97,-971.29"/>
<polygon fill="#9a32cd" stroke="#9a32cd" points="1170.23,-1040.54 1160.67,-1045.09 1170.99,-1047.5 1170.23,-1040.54"/>
<text text-anchor="middle" x="1329" y="-1035" font-family="Helvetica,sans-Serif" font-size="10.00"> tagName</text>
</g>
<!-- Node40 -->
<g id="node40" class="node">
<title>Node40</title>
<g id="a_node40"><a xlink:title=" ">
<polygon fill="white" stroke="#bfbfbf" points="1072.5,-999.5 1072.5,-1018.5 1210.5,-1018.5 1210.5,-999.5 1072.5,-999.5"/>
<text text-anchor="middle" x="1141.5" y="-1006.5" font-family="Helvetica,sans-Serif" font-size="10.00">vector&lt; BlockFieldPair &gt;</text>
</a>
</g>
</g>
<!-- Node40&#45;&gt;Node32 -->
<g id="edge49" class="edge">
<title>Node40&#45;&gt;Node32</title>
<path fill="none" stroke="#9a32cd" stroke-dasharray="5,2" d="M1220.57,-999.54C1290.2,-991.11 1389.95,-979.03 1448.8,-971.9"/>
<polygon fill="#9a32cd" stroke="#9a32cd" points="1220.03,-996.08 1210.53,-1000.76 1220.88,-1003.03 1220.03,-996.08"/>
<text text-anchor="middle" x="1329" y="-997" font-family="Helvetica,sans-Serif" font-size="10.00"> emptyFieldBlocks</text>
</g>
<!-- Node41 -->
<g id="node41" class="node">
<title>Node41</title>
<g id="a_node41"><a xlink:title=" ">
<polygon fill="white" stroke="#bfbfbf" points="1063.5,-950 1063.5,-980 1219.5,-980 1219.5,-950 1063.5,-950"/>
<text text-anchor="start" x="1071.5" y="-968" font-family="Helvetica,sans-Serif" font-size="10.00">shared_ptr&lt; MoFEM::</text>
<text text-anchor="middle" x="1141.5" y="-957" font-family="Helvetica,sans-Serif" font-size="10.00">Problem::SubProblemData &gt;</text>
</a>
</g>
</g>
<!-- Node41&#45;&gt;Node32 -->
<g id="edge50" class="edge">
<title>Node41&#45;&gt;Node32</title>
<path fill="none" stroke="#9a32cd" stroke-dasharray="5,2" d="M1229.53,-965.25C1298.61,-965.44 1392.64,-965.7 1448.98,-965.86"/>
<polygon fill="#9a32cd" stroke="#9a32cd" points="1229.54,-961.75 1219.53,-965.22 1229.52,-968.75 1229.54,-961.75"/>
<text text-anchor="middle" x="1329" y="-969" font-family="Helvetica,sans-Serif" font-size="10.00"> subProblemData</text>
</g>
<!-- Node42 -->
<g id="node42" class="node">
<title>Node42</title>
<g id="a_node42"><a xlink:title=" ">
<polygon fill="white" stroke="#bfbfbf" points="1040,-911.5 1040,-930.5 1243,-930.5 1243,-911.5 1040,-911.5"/>
<text text-anchor="middle" x="1141.5" y="-918.5" font-family="Helvetica,sans-Serif" font-size="10.00">shared_ptr&lt; SequenceDofContainer &gt;</text>
</a>
</g>
</g>
<!-- Node42&#45;&gt;Node32 -->
<g id="edge52" class="edge">
<title>Node42&#45;&gt;Node32</title>
<path fill="none" stroke="#9a32cd" stroke-dasharray="5,2" d="M1253.07,-924.95C1297.95,-927.67 1350.16,-932.26 1397,-940 1420.65,-943.91 1446.85,-950.77 1466.57,-956.47"/>
<polygon fill="#9a32cd" stroke="#9a32cd" points="1253.2,-921.45 1243.01,-924.36 1252.79,-928.44 1253.2,-921.45"/>
<text text-anchor="middle" x="1329" y="-954" font-family="Helvetica,sans-Serif" font-size="10.00"> sequenceRowDofContainer</text>
<text text-anchor="middle" x="1329" y="-943" font-family="Helvetica,sans-Serif" font-size="10.00">sequenceColDofContainer</text>
</g>
<!-- Node43 -->
<g id="node43" class="node">
<title>Node43</title>
<g id="a_node43"><a xlink:title=" ">
<polygon fill="white" stroke="#bfbfbf" points="1097.5,-873.5 1097.5,-892.5 1185.5,-892.5 1185.5,-873.5 1097.5,-873.5"/>
<text text-anchor="middle" x="1141.5" y="-880.5" font-family="Helvetica,sans-Serif" font-size="10.00">BitProblemId *</text>
</a>
</g>
</g>
<!-- Node43&#45;&gt;Node32 -->
<g id="edge53" class="edge">
<title>Node43&#45;&gt;Node32</title>
<path fill="none" stroke="#9a32cd" stroke-dasharray="5,2" d="M1195.95,-882.88C1248.32,-884.15 1329.83,-889.84 1397,-911 1430.39,-921.52 1465.37,-943.57 1483.97,-956.32"/>
<polygon fill="#9a32cd" stroke="#9a32cd" points="1195.94,-879.38 1185.88,-882.68 1195.81,-886.38 1195.94,-879.38"/>
<text text-anchor="middle" x="1329" y="-914" font-family="Helvetica,sans-Serif" font-size="10.00"> tagId</text>
</g>
<!-- Node44 -->
<g id="node44" class="node">
<title>Node44</title>
<g id="a_node44"><a xlink:title=" ">
<polygon fill="white" stroke="#bfbfbf" points="1727,-1046 1727,-1076 1889,-1076 1889,-1046 1727,-1046"/>
<text text-anchor="start" x="1735" y="-1064" font-family="Helvetica,sans-Serif" font-size="10.00">shared_ptr&lt; const MoFEM</text>
<text text-anchor="middle" x="1808" y="-1053" font-family="Helvetica,sans-Serif" font-size="10.00">::NumeredEntFiniteElement &gt;</text>
</a>
</g>
</g>
<!-- Node44&#45;&gt;Node9 -->
<g id="edge54" class="edge">
<title>Node44&#45;&gt;Node9</title>
<path fill="none" stroke="#9a32cd" stroke-dasharray="5,2" d="M1899.36,-1058.24C1950.72,-1061.24 2013.29,-1073.15 2057,-1109 2073.34,-1122.4 2058.64,-1139.63 2075,-1153 2088.21,-1163.79 2105.66,-1169.15 2122.29,-1171.63"/>
<polygon fill="#9a32cd" stroke="#9a32cd" points="1899.4,-1054.74 1889.25,-1057.76 1899.07,-1061.73 1899.4,-1054.74"/>
<text text-anchor="middle" x="1985" y="-1112" font-family="Helvetica,sans-Serif" font-size="10.00"> numeredEntFiniteElementPtr</text>
</g>
<!-- Node45 -->
<g id="node45" class="node">
<title>Node45</title>
<g id="a_node45"><a xlink:title=" ">
<polygon fill="white" stroke="#bfbfbf" points="1786,-1260.5 1786,-1279.5 1830,-1279.5 1830,-1260.5 1786,-1260.5"/>
<text text-anchor="middle" x="1808" y="-1267.5" font-family="Helvetica,sans-Serif" font-size="10.00">string</text>
</a>
</g>
</g>
<!-- Node45&#45;&gt;Node1 -->
<g id="edge81" class="edge">
<title>Node45&#45;&gt;Node1</title>
<path fill="none" stroke="#9a32cd" stroke-dasharray="5,2" d="M1840.71,-1273.72C1984.9,-1289.96 2578.07,-1349.43 2724,-1247 2937.8,-1096.92 3067.9,-781.59 3090.84,-722.61"/>
<polygon fill="#9a32cd" stroke="#9a32cd" points="1840.7,-1270.19 1830.37,-1272.54 1839.91,-1277.15 1840.7,-1270.19"/>
<text text-anchor="middle" x="2560" y="-1305" font-family="Helvetica,sans-Serif" font-size="10.00"> problemName</text>
</g>
<!-- Node45&#45;&gt;Node7 -->
<g id="edge78" class="edge">
<title>Node45&#45;&gt;Node7</title>
<path fill="none" stroke="#9a32cd" stroke-dasharray="5,2" d="M1840.18,-1270.51C1992.37,-1272.72 2652.81,-1279.05 2724,-1224 2784.87,-1176.94 2830.2,-924.63 2841.02,-859.4"/>
<polygon fill="#9a32cd" stroke="#9a32cd" points="1840.16,-1267.01 1830.11,-1270.36 1840.06,-1274.01 1840.16,-1267.01"/>
<text text-anchor="middle" x="2376" y="-1272" font-family="Helvetica,sans-Serif" font-size="10.00"> meshPositionsFieldName</text>
</g>
<!-- Node45&#45;&gt;Node9 -->
<g id="edge55" class="edge">
<title>Node45&#45;&gt;Node9</title>
<path fill="none" stroke="#9a32cd" stroke-dasharray="5,2" d="M1839.8,-1261.93C1860.42,-1256.7 1888.23,-1249.95 1913,-1245 1976.56,-1232.31 1994.71,-1239.89 2057,-1222 2093.36,-1211.56 2133.46,-1192.94 2156.31,-1181.6"/>
<polygon fill="#9a32cd" stroke="#9a32cd" points="1838.83,-1258.57 1830.01,-1264.44 1840.56,-1265.35 1838.83,-1258.57"/>
<text text-anchor="middle" x="1985" y="-1248" font-family="Helvetica,sans-Serif" font-size="10.00"> feName</text>
</g>
<!-- Node46 -->
<g id="node46" class="node">
<title>Node46</title>
<g id="a_node46"><a xlink:title=" ">
<polygon fill="white" stroke="#bfbfbf" points="1726.5,-997 1726.5,-1027 1889.5,-1027 1889.5,-997 1726.5,-997"/>
<text text-anchor="start" x="1734.5" y="-1015" font-family="Helvetica,sans-Serif" font-size="10.00">function&lt; bool(MoFEM</text>
<text text-anchor="middle" x="1808" y="-1004" font-family="Helvetica,sans-Serif" font-size="10.00">::FEMethod *fe_method_ptr)&gt;</text>
</a>
</g>
</g>
<!-- Node46&#45;&gt;Node9 -->
<g id="edge56" class="edge">
<title>Node46&#45;&gt;Node9</title>
<path fill="none" stroke="#9a32cd" stroke-dasharray="5,2" d="M1899.59,-999.18C1952.28,-997.07 2016.14,-1004.56 2057,-1044 2092.33,-1078.1 2040.7,-1117.86 2075,-1153 2087.28,-1165.58 2105.12,-1171.25 2122.35,-1173.49"/>
<polygon fill="#9a32cd" stroke="#9a32cd" points="1899.36,-995.69 1889.56,-999.7 1899.72,-1002.68 1899.36,-995.69"/>
<text text-anchor="middle" x="1985" y="-1047" font-family="Helvetica,sans-Serif" font-size="10.00"> exeTestHook</text>
</g>
<!-- Node47 -->
<g id="node47" class="node">
<title>Node47</title>
<g id="a_node47"><a xlink:href="classdouble.html" target="_top" xlink:title=" ">
<polygon fill="white" stroke="black" points="2151,-737.5 2151,-756.5 2201,-756.5 2201,-737.5 2151,-737.5"/>
<text text-anchor="middle" x="2176" y="-744.5" font-family="Helvetica,sans-Serif" font-size="10.00">double</text>
</a>
</g>
</g>
<!-- Node47&#45;&gt;Node7 -->
<g id="edge76" class="edge">
<title>Node47&#45;&gt;Node7</title>
<path fill="none" stroke="#9a32cd" stroke-dasharray="5,2" d="M2211.09,-740.03C2234.57,-735.6 2266.53,-730.28 2295,-728 2366.77,-722.26 2396.72,-688.63 2457,-728 2473.66,-738.88 2459.51,-756.5 2475,-769 2558.71,-836.55 2687.29,-848.21 2768.33,-847.95"/>
<polygon fill="#9a32cd" stroke="#9a32cd" points="2210.43,-736.6 2201.27,-741.93 2211.75,-743.47 2210.43,-736.6"/>
<text text-anchor="middle" x="2560" y="-842" font-family="Helvetica,sans-Serif" font-size="10.00"> aRea</text>
</g>
<!-- Node47&#45;&gt;Node8 -->
<g id="edge57" class="edge">
<title>Node47&#45;&gt;Node8</title>
<path fill="none" stroke="#9a32cd" stroke-dasharray="5,2" d="M2211.17,-754.26C2234.67,-759.1 2266.64,-765.4 2295,-770 2366.67,-781.62 2394.99,-753.23 2457,-791 2469,-798.31 2466.58,-805.75 2475,-817 2501.7,-852.68 2535.6,-893.34 2550.88,-911.44"/>
<polygon fill="#9a32cd" stroke="#9a32cd" points="2211.83,-750.82 2201.33,-752.21 2210.4,-757.67 2211.83,-750.82"/>
<text text-anchor="middle" x="2376" y="-794" font-family="Helvetica,sans-Serif" font-size="10.00"> elementMeasure</text>
</g>
<!-- Node48 -->
<g id="node48" class="node">
<title>Node48</title>
<g id="a_node48"><a xlink:title=" ">
<polygon fill="white" stroke="#bfbfbf" points="2090,-992.5 2090,-1033.5 2262,-1033.5 2262,-992.5 2090,-992.5"/>
<text text-anchor="start" x="2098" y="-1021.5" font-family="Helvetica,sans-Serif" font-size="10.00">array&lt; boost::shared</text>
<text text-anchor="start" x="2098" y="-1010.5" font-family="Helvetica,sans-Serif" font-size="10.00">_ptr&lt; MoFEM::EntitiesFieldData</text>
<text text-anchor="middle" x="2176" y="-999.5" font-family="Helvetica,sans-Serif" font-size="10.00"> &gt;, LASTSPACE &gt;</text>
</a>
</g>
</g>
<!-- Node48&#45;&gt;Node8 -->
<g id="edge58" class="edge">
<title>Node48&#45;&gt;Node8</title>
<path fill="none" stroke="#9a32cd" stroke-dasharray="5,2" d="M2272.35,-1004.2C2327.19,-997.53 2396.92,-986.29 2457,-968 2488.15,-958.52 2522.06,-941.4 2541.88,-930.65"/>
<polygon fill="#9a32cd" stroke="#9a32cd" points="2271.81,-1000.74 2262.29,-1005.39 2272.63,-1007.69 2271.81,-1000.74"/>
<text text-anchor="middle" x="2376" y="-1015" font-family="Helvetica,sans-Serif" font-size="10.00"> derivedDataOnElement</text>
<text text-anchor="middle" x="2376" y="-1004" font-family="Helvetica,sans-Serif" font-size="10.00">dataOnElement</text>
</g>
<!-- Node49 -->
<g id="node49" class="node">
<title>Node49</title>
<g id="a_node49"><a xlink:title=" ">
<polygon fill="white" stroke="#bfbfbf" points="2142,-954.5 2142,-973.5 2210,-973.5 2210,-954.5 2142,-954.5"/>
<text text-anchor="middle" x="2176" y="-961.5" font-family="Helvetica,sans-Serif" font-size="10.00">EntityType</text>
</a>
</g>
</g>
<!-- Node49&#45;&gt;Node8 -->
<g id="edge59" class="edge">
<title>Node49&#45;&gt;Node8</title>
<path fill="none" stroke="#9a32cd" stroke-dasharray="5,2" d="M2220.33,-959.96C2275.39,-954.73 2373.36,-945.07 2457,-935 2468.36,-933.63 2480.41,-932.07 2492.1,-930.51"/>
<polygon fill="#9a32cd" stroke="#9a32cd" points="2219.85,-956.49 2210.23,-960.92 2220.51,-963.46 2219.85,-956.49"/>
<text text-anchor="middle" x="2376" y="-956" font-family="Helvetica,sans-Serif" font-size="10.00"> lastEvaluatedElementEntityType</text>
</g>
<!-- Node50 -->
<g id="node50" class="node">
<title>Node50</title>
<g id="a_node50"><a xlink:title=" ">
<polygon fill="white" stroke="#bfbfbf" points="2092.5,-883 2092.5,-935 2259.5,-935 2259.5,-883 2092.5,-883"/>
<text text-anchor="start" x="2100.5" y="-923" font-family="Helvetica,sans-Serif" font-size="10.00">function&lt; MoFEMErrorCode</text>
<text text-anchor="start" x="2100.5" y="-912" font-family="Helvetica,sans-Serif" font-size="10.00">(ForcesAndSourcesCore *fe</text>
<text text-anchor="start" x="2100.5" y="-901" font-family="Helvetica,sans-Serif" font-size="10.00">_raw_ptr, int order_row,</text>
<text text-anchor="middle" x="2176" y="-890" font-family="Helvetica,sans-Serif" font-size="10.00"> int order_col, int order_data)&gt;</text>
</a>
</g>
</g>
<!-- Node50&#45;&gt;Node8 -->
<g id="edge62" class="edge">
<title>Node50&#45;&gt;Node8</title>
<path fill="none" stroke="#9a32cd" stroke-dasharray="5,2" d="M2269.58,-914.85C2278.17,-915.28 2286.75,-915.68 2295,-916 2355.12,-918.35 2422.99,-919.61 2474.86,-920.27"/>
<polygon fill="#9a32cd" stroke="#9a32cd" points="2269.67,-911.35 2259.5,-914.32 2269.31,-918.34 2269.67,-911.35"/>
<text text-anchor="middle" x="2376" y="-923" font-family="Helvetica,sans-Serif" font-size="10.00"> setRuleHook</text>
</g>
<!-- Node51 -->
<g id="node51" class="node">
<title>Node51</title>
<g id="a_node51"><a xlink:title=" ">
<polygon fill="white" stroke="#bfbfbf" points="2075,-834 2075,-864 2277,-864 2277,-834 2075,-834"/>
<text text-anchor="start" x="2083" y="-852" font-family="Helvetica,sans-Serif" font-size="10.00">ptr_deque&lt; MoFEM::Forces</text>
<text text-anchor="middle" x="2176" y="-841" font-family="Helvetica,sans-Serif" font-size="10.00">AndSourcesCore::UserDataOperator &gt;</text>
</a>
</g>
</g>
<!-- Node51&#45;&gt;Node8 -->
<g id="edge63" class="edge">
<title>Node51&#45;&gt;Node8</title>
<path fill="none" stroke="#9a32cd" stroke-dasharray="5,2" d="M2258.37,-866.87C2264.73,-868.77 2271,-870.81 2277,-873 2285.4,-876.06 2286.45,-879.39 2295,-882 2364.44,-903.2 2385.23,-892.02 2457,-903 2473.53,-905.53 2491.51,-908.6 2507.71,-911.48"/>
<polygon fill="#9a32cd" stroke="#9a32cd" points="2258.92,-863.39 2248.34,-864.01 2257,-870.12 2258.92,-863.39"/>
<text text-anchor="middle" x="2376" y="-906" font-family="Helvetica,sans-Serif" font-size="10.00"> opPtrVector</text>
</g>
<!-- Node52 -->
<g id="node52" class="node">
<title>Node52</title>
<g id="a_node52"><a xlink:href="structMoFEM_1_1EntitiesFieldData.html" target="_top" xlink:title="data structure for finite element entity">
<polygon fill="white" stroke="black" points="2105,-795.5 2105,-814.5 2247,-814.5 2247,-795.5 2105,-795.5"/>
<text text-anchor="middle" x="2176" y="-802.5" font-family="Helvetica,sans-Serif" font-size="10.00">MoFEM::EntitiesFieldData</text>
</a>
</g>
</g>
<!-- Node52&#45;&gt;Node8 -->
<g id="edge64" class="edge">
<title>Node52&#45;&gt;Node8</title>
<path fill="none" stroke="#9a32cd" stroke-dasharray="5,2" d="M2257.39,-804.09C2327.24,-804.4 2422.48,-807.8 2457,-823 2501.5,-842.6 2538.18,-890.5 2552.52,-911.21"/>
<polygon fill="#9a32cd" stroke="#9a32cd" points="2257.28,-800.59 2247.27,-804.07 2257.27,-807.59 2257.28,-800.59"/>
<text text-anchor="middle" x="2376" y="-870" font-family="Helvetica,sans-Serif" font-size="10.00"> dataNoField</text>
<text text-anchor="middle" x="2376" y="-859" font-family="Helvetica,sans-Serif" font-size="10.00">dataL2</text>
<text text-anchor="middle" x="2376" y="-848" font-family="Helvetica,sans-Serif" font-size="10.00">dataH1</text>
<text text-anchor="middle" x="2376" y="-837" font-family="Helvetica,sans-Serif" font-size="10.00">dataHcurl</text>
<text text-anchor="middle" x="2376" y="-826" font-family="Helvetica,sans-Serif" font-size="10.00">dataHdiv</text>
</g>
<!-- Node53 -->
<g id="node53" class="node">
<title>Node53</title>
<g id="a_node53"><a xlink:title=" ">
<polygon fill="white" stroke="#bfbfbf" points="1727,-947 1727,-977 1889,-977 1889,-947 1727,-947"/>
<text text-anchor="start" x="1735" y="-965" font-family="Helvetica,sans-Serif" font-size="10.00">array&lt; std::bitset</text>
<text text-anchor="middle" x="1808" y="-954" font-family="Helvetica,sans-Serif" font-size="10.00">&lt; LASTBASE &gt;, LASTSPACE &gt;</text>
</a>
</g>
</g>
<!-- Node53&#45;&gt;Node52 -->
<g id="edge65" class="edge">
<title>Node53&#45;&gt;Node52</title>
<path fill="none" stroke="#9a32cd" stroke-dasharray="5,2" d="M1899.16,-956.6C1960.67,-951.01 2034.85,-939.85 2057,-918 2087.28,-888.13 2044.9,-854.06 2075,-824 2083.19,-815.82 2093.74,-810.58 2104.9,-807.32"/>
<polygon fill="#9a32cd" stroke="#9a32cd" points="1898.68,-953.13 1889.02,-957.49 1899.29,-960.11 1898.68,-953.13"/>
<text text-anchor="middle" x="1985" y="-969" font-family="Helvetica,sans-Serif" font-size="10.00"> brokenBasesOnSpaces</text>
<text text-anchor="middle" x="1985" y="-958" font-family="Helvetica,sans-Serif" font-size="10.00">basesOnSpaces</text>
</g>
<!-- Node54 -->
<g id="node54" class="node">
<title>Node54</title>
<g id="a_node54"><a xlink:title=" ">
<polygon fill="white" stroke="#bfbfbf" points="1731.5,-886.5 1731.5,-927.5 1884.5,-927.5 1884.5,-886.5 1731.5,-886.5"/>
<text text-anchor="start" x="1739.5" y="-915.5" font-family="Helvetica,sans-Serif" font-size="10.00">array&lt; boost::ptr_vector</text>
<text text-anchor="start" x="1739.5" y="-904.5" font-family="Helvetica,sans-Serif" font-size="10.00">&lt; MoFEM::EntitiesFieldData</text>
<text text-anchor="middle" x="1808" y="-893.5" font-family="Helvetica,sans-Serif" font-size="10.00">::EntData &gt;, MBMAXTYPE &gt;</text>
</a>
</g>
</g>
<!-- Node54&#45;&gt;Node52 -->
<g id="edge66" class="edge">
<title>Node54&#45;&gt;Node52</title>
<path fill="none" stroke="#9a32cd" stroke-dasharray="5,2" d="M1894.78,-905.44C1945.99,-900.68 2009.98,-887.6 2057,-854 2069.65,-844.96 2062.25,-832.9 2075,-824 2083.91,-817.78 2094.32,-813.46 2104.98,-810.47"/>
<polygon fill="#9a32cd" stroke="#9a32cd" points="1894.39,-901.96 1884.72,-906.29 1894.98,-908.94 1894.39,-901.96"/>
<text text-anchor="middle" x="1985" y="-906" font-family="Helvetica,sans-Serif" font-size="10.00"> dataOnEntities</text>
</g>
<!-- Node55 -->
<g id="node55" class="node">
<title>Node55</title>
<g id="a_node55"><a xlink:title=" ">
<polygon fill="white" stroke="#bfbfbf" points="1721,-837 1721,-867 1895,-867 1895,-837 1721,-837"/>
<text text-anchor="start" x="1729" y="-855" font-family="Helvetica,sans-Serif" font-size="10.00">array&lt; std::bitset</text>
<text text-anchor="middle" x="1808" y="-844" font-family="Helvetica,sans-Serif" font-size="10.00">&lt; LASTSPACE &gt;, MBMAXTYPE &gt;</text>
</a>
</g>
</g>
<!-- Node55&#45;&gt;Node52 -->
<g id="edge67" class="edge">
<title>Node55&#45;&gt;Node52</title>
<path fill="none" stroke="#9a32cd" stroke-dasharray="5,2" d="M1905.56,-839.6C1968.2,-831.56 2048.38,-821.26 2104.94,-814"/>
<polygon fill="#9a32cd" stroke="#9a32cd" points="1904.75,-836.18 1895.27,-840.92 1905.64,-843.12 1904.75,-836.18"/>
<text text-anchor="middle" x="1985" y="-842" font-family="Helvetica,sans-Serif" font-size="10.00"> spacesOnEntities</text>
</g>
<!-- Node56 -->
<g id="node56" class="node">
<title>Node56</title>
<g id="a_node56"><a xlink:title=" ">
<polygon fill="white" stroke="#bfbfbf" points="1723.5,-788 1723.5,-818 1892.5,-818 1892.5,-788 1723.5,-788"/>
<text text-anchor="start" x="1731.5" y="-806" font-family="Helvetica,sans-Serif" font-size="10.00">array&lt; std::bitset</text>
<text text-anchor="middle" x="1808" y="-795" font-family="Helvetica,sans-Serif" font-size="10.00">&lt; LASTBASE &gt;, MBMAXTYPE &gt;</text>
</a>
</g>
</g>
<!-- Node56&#45;&gt;Node52 -->
<g id="edge68" class="edge">
<title>Node56&#45;&gt;Node52</title>
<path fill="none" stroke="#9a32cd" stroke-dasharray="5,2" d="M1902.84,-803.51C1965.81,-803.86 2047.4,-804.3 2104.77,-804.62"/>
<polygon fill="#9a32cd" stroke="#9a32cd" points="1902.53,-800.01 1892.51,-803.46 1902.49,-807.01 1902.53,-800.01"/>
<text text-anchor="middle" x="1985" y="-808" font-family="Helvetica,sans-Serif" font-size="10.00"> basesOnEntities</text>
</g>
<!-- Node57 -->
<g id="node57" class="node">
<title>Node57</title>
<g id="a_node57"><a xlink:title=" ">
<polygon fill="white" stroke="#bfbfbf" points="1752,-749.5 1752,-768.5 1864,-768.5 1864,-749.5 1752,-749.5"/>
<text text-anchor="middle" x="1808" y="-756.5" font-family="Helvetica,sans-Serif" font-size="10.00">UBlasMatrix&lt; int &gt;</text>
</a>
</g>
</g>
<!-- Node57&#45;&gt;Node52 -->
<g id="edge69" class="edge">
<title>Node57&#45;&gt;Node52</title>
<path fill="none" stroke="#9a32cd" stroke-dasharray="5,2" d="M1874.49,-761.36C1924.67,-763.81 1995.49,-768.66 2057,-778 2085.05,-782.26 2116.33,-789.53 2139.63,-795.46"/>
<polygon fill="#9a32cd" stroke="#9a32cd" points="1874.58,-757.86 1864.43,-760.89 1874.25,-764.86 1874.58,-757.86"/>
<text text-anchor="middle" x="1985" y="-792" font-family="Helvetica,sans-Serif" font-size="10.00"> facesNodesOrder</text>
<text text-anchor="middle" x="1985" y="-781" font-family="Helvetica,sans-Serif" font-size="10.00">facesNodes</text>
</g>
<!-- Node58 -->
<g id="node58" class="node">
<title>Node58</title>
<g id="a_node58"><a xlink:title=" ">
<polygon fill="white" stroke="#bfbfbf" points="1749.5,-711.5 1749.5,-730.5 1866.5,-730.5 1866.5,-711.5 1749.5,-711.5"/>
<text text-anchor="middle" x="1808" y="-718.5" font-family="Helvetica,sans-Serif" font-size="10.00">bitset&lt; LASTBASE &gt;</text>
</a>
</g>
</g>
<!-- Node58&#45;&gt;Node52 -->
<g id="edge70" class="edge">
<title>Node58&#45;&gt;Node52</title>
<path fill="none" stroke="#9a32cd" stroke-dasharray="5,2" d="M1876.72,-717.3C1928.41,-717.11 2000.17,-722.62 2057,-749 2066.98,-753.63 2065.7,-760.11 2075,-766 2095.47,-778.96 2120.94,-788.81 2141.05,-795.37"/>
<polygon fill="#9a32cd" stroke="#9a32cd" points="1876.62,-713.81 1866.66,-717.42 1876.7,-720.81 1876.62,-713.81"/>
<text text-anchor="middle" x="1985" y="-752" font-family="Helvetica,sans-Serif" font-size="10.00"> bAse</text>
</g>
<!-- Node59 -->
<g id="node59" class="node">
<title>Node59</title>
<g id="a_node59"><a xlink:title=" ">
<polygon fill="white" stroke="#bfbfbf" points="2113.5,-1102.5 2113.5,-1143.5 2238.5,-1143.5 2238.5,-1102.5 2113.5,-1102.5"/>
<text text-anchor="start" x="2121.5" y="-1131.5" font-family="Helvetica,sans-Serif" font-size="10.00">function&lt; int(int order</text>
<text text-anchor="start" x="2121.5" y="-1120.5" font-family="Helvetica,sans-Serif" font-size="10.00">_row, int order_col, int</text>
<text text-anchor="middle" x="2176" y="-1109.5" font-family="Helvetica,sans-Serif" font-size="10.00"> order_data)&gt;</text>
</a>
</g>
</g>
<!-- Node59&#45;&gt;Node8 -->
<g id="edge71" class="edge">
<title>Node59&#45;&gt;Node8</title>
<path fill="none" stroke="#9a32cd" stroke-dasharray="5,2" d="M2248.88,-1132.18C2309.16,-1136.15 2395.08,-1132.79 2457,-1093 2519.21,-1053.03 2548.51,-960.5 2556.6,-930.54"/>
<polygon fill="#9a32cd" stroke="#9a32cd" points="2248.92,-1128.67 2238.68,-1131.42 2248.4,-1135.65 2248.92,-1128.67"/>
<text text-anchor="middle" x="2376" y="-1136" font-family="Helvetica,sans-Serif" font-size="10.00"> getRuleHook</text>
</g>
<!-- Node60 -->
<g id="node60" class="node">
<title>Node60</title>
<g id="a_node60"><a xlink:title=" ">
<polygon fill="white" stroke="#bfbfbf" points="2115,-1053 2115,-1083 2237,-1083 2237,-1053 2115,-1053"/>
<text text-anchor="start" x="2123" y="-1071" font-family="Helvetica,sans-Serif" font-size="10.00">shared_ptr&lt; MoFEM::</text>
<text text-anchor="middle" x="2176" y="-1060" font-family="Helvetica,sans-Serif" font-size="10.00">BaseFunction &gt;</text>
</a>
</g>
</g>
<!-- Node60&#45;&gt;Node8 -->
<g id="edge72" class="edge">
<title>Node60&#45;&gt;Node8</title>
<path fill="none" stroke="#9a32cd" stroke-dasharray="5,2" d="M2247.56,-1070.07C2306.6,-1068.99 2391.47,-1060.7 2457,-1027 2502.42,-1003.64 2539.13,-952.08 2553.01,-930.64"/>
<polygon fill="#9a32cd" stroke="#9a32cd" points="2247.17,-1066.57 2237.21,-1070.19 2247.25,-1073.57 2247.17,-1066.57"/>
<text text-anchor="middle" x="2376" y="-1081" font-family="Helvetica,sans-Serif" font-size="10.00"> userPolynomialBasePtr</text>
<text text-anchor="middle" x="2376" y="-1070" font-family="Helvetica,sans-Serif" font-size="10.00">elementPolynomialBasePtr</text>
</g>
<!-- Node61 -->
<g id="node61" class="node">
<title>Node61</title>
<g id="a_node61"><a xlink:href="classUBlasMatrix_3_01double_01_4.html" target="_top" xlink:title=" ">
<polygon fill="white" stroke="black" points="2110,-689.5 2110,-708.5 2242,-708.5 2242,-689.5 2110,-689.5"/>
<text text-anchor="middle" x="2176" y="-696.5" font-family="Helvetica,sans-Serif" font-size="10.00">UBlasMatrix&lt; double &gt;</text>
</a>
</g>
</g>
<!-- Node61&#45;&gt;Node7 -->
<g id="edge79" class="edge">
<title>Node61&#45;&gt;Node7</title>
<path fill="none" stroke="#9a32cd" stroke-dasharray="5,2" d="M2252.47,-689.01C2345.86,-678.88 2509.16,-668.51 2645,-698 2728.61,-716.15 2802.73,-795.05 2831.16,-828.7"/>
<polygon fill="#9a32cd" stroke="#9a32cd" points="2251.82,-685.56 2242.27,-690.14 2252.6,-692.52 2251.82,-685.56"/>
<text text-anchor="middle" x="2560" y="-723" font-family="Helvetica,sans-Serif" font-size="10.00"> tangentOneAtGaussPts</text>
<text text-anchor="middle" x="2560" y="-712" font-family="Helvetica,sans-Serif" font-size="10.00">tangentTwoAtGaussPts</text>
<text text-anchor="middle" x="2560" y="-701" font-family="Helvetica,sans-Serif" font-size="10.00">normalsAtGaussPts</text>
</g>
<!-- Node61&#45;&gt;Node8 -->
<g id="edge73" class="edge">
<title>Node61&#45;&gt;Node8</title>
<path fill="none" stroke="#9a32cd" stroke-dasharray="5,2" d="M2252.11,-701.91C2324.7,-706.29 2427.86,-717.16 2457,-744 2481.58,-766.64 2460.15,-787.07 2475,-817 2494.5,-856.29 2530.99,-894.25 2548.76,-911.43"/>
<polygon fill="#9a32cd" stroke="#9a32cd" points="2252.26,-698.41 2242.08,-701.33 2251.86,-705.4 2252.26,-698.41"/>
<text text-anchor="middle" x="2376" y="-758" font-family="Helvetica,sans-Serif" font-size="10.00"> coordsAtGaussPts</text>
<text text-anchor="middle" x="2376" y="-747" font-family="Helvetica,sans-Serif" font-size="10.00">gaussPts</text>
</g>
<!-- Node62 -->
<g id="node62" class="node">
<title>Node62</title>
<g id="a_node62"><a xlink:href="classUBlasVector_3_01double_01_4.html" target="_top" xlink:title=" ">
<polygon fill="white" stroke="black" points="2494.5,-740.5 2494.5,-759.5 2625.5,-759.5 2625.5,-740.5 2494.5,-740.5"/>
<text text-anchor="middle" x="2560" y="-747.5" font-family="Helvetica,sans-Serif" font-size="10.00">UBlasVector&lt; double &gt;</text>
</a>
</g>
</g>
<!-- Node62&#45;&gt;Node7 -->
<g id="edge74" class="edge">
<title>Node62&#45;&gt;Node7</title>
<path fill="none" stroke="#9a32cd" stroke-dasharray="5,2" d="M2618.5,-739.23C2650.46,-735.62 2690.42,-735.09 2724,-747 2770.09,-763.35 2811.35,-805.89 2831.13,-828.82"/>
<polygon fill="#9a32cd" stroke="#9a32cd" points="2617.91,-735.78 2608.43,-740.5 2618.79,-742.72 2617.91,-735.78"/>
<text text-anchor="middle" x="2693.5" y="-783" font-family="Helvetica,sans-Serif" font-size="10.00"> tangentOne</text>
<text text-anchor="middle" x="2693.5" y="-772" font-family="Helvetica,sans-Serif" font-size="10.00">tangentTwo</text>
<text text-anchor="middle" x="2693.5" y="-761" font-family="Helvetica,sans-Serif" font-size="10.00">nOrmal</text>
<text text-anchor="middle" x="2693.5" y="-750" font-family="Helvetica,sans-Serif" font-size="10.00">coords</text>
</g>
<!-- Node63 -->
<g id="node63" class="node">
<title>Node63</title>
<g id="a_node63"><a xlink:title=" ">
<polygon fill="white" stroke="#bfbfbf" points="2742,-582.5 2742,-601.5 2947,-601.5 2947,-582.5 2742,-582.5"/>
<text text-anchor="middle" x="2844.5" y="-589.5" font-family="Helvetica,sans-Serif" font-size="10.00">VolumeElementForcesAndSourcesCore</text>
</a>
</g>
</g>
<!-- Node63&#45;&gt;Node1 -->
<g id="edge80" class="edge">
<title>Node63&#45;&gt;Node1</title>
<path fill="none" stroke="#9a32cd" stroke-dasharray="5,2" d="M2957.45,-587.04C2977.51,-589.85 2997.56,-595.33 3015,-605 3055.92,-627.7 3081.59,-681.33 3090.74,-703.33"/>
<polygon fill="#9a32cd" stroke="#9a32cd" points="2957.64,-583.54 2947.3,-585.83 2956.81,-590.49 2957.64,-583.54"/>
<text text-anchor="middle" x="2990" y="-608" font-family="Helvetica,sans-Serif" font-size="10.00"> feVolume</text>
</g>
</g>
</svg>
