<?xml version="1.0" encoding="UTF-8" standalone="no"?>
<!DOCTYPE svg PUBLIC "-//W3C//DTD SVG 1.1//EN"
 "http://www.w3.org/Graphics/SVG/1.1/DTD/svg11.dtd">
<!-- Generated by graphviz version 2.43.0 (0)
 -->
<!-- Title: BodyForceConstantField::OpBodyForce Pages: 1 -->
<!--zoomable 1742 -->
<svg id="main" version="1.1" xmlns="http://www.w3.org/2000/svg" xmlns:xlink="http://www.w3.org/1999/xlink" xml:space="preserve" onload="init(evt)">
<style type="text/css"><![CDATA[
.edge:hover path { stroke: red; }
.edge:hover polygon { stroke: red; fill: red; }
]]></style>
<script type="text/javascript"><![CDATA[
var edges = document.getElementsByTagName('g');
if (edges && edges.length) {
  for (var i=0;i<edges.length;i++) {
    if (edges[i].id.substr(0,4)=='edge') {
      edges[i].setAttribute('class','edge');
    }
  }
}
]]></script>
        <defs>
                <circle id="rim" cx="0" cy="0" r="7"/>
                <circle id="rim2" cx="0" cy="0" r="3.5"/>
                <g id="zoomPlus">
                        <use xlink:href="#rim" fill="#404040">
                                <set attributeName="fill" to="#808080" begin="zoomplus.mouseover" end="zoomplus.mouseout"/>
                        </use>
                        <path d="M-4,0h8M0,-4v8" fill="none" stroke="white" stroke-width="1.5" pointer-events="none"/>
                </g>
                <g id="zoomMin">
                        <use xlink:href="#rim" fill="#404040">
                                <set attributeName="fill" to="#808080" begin="zoomminus.mouseover" end="zoomminus.mouseout"/>
                        </use>
                        <path d="M-4,0h8" fill="none" stroke="white" stroke-width="1.5" pointer-events="none"/>
                </g>
                <g id="dirArrow">
                        <path fill="none" stroke="white" stroke-width="1.5" d="M0,-3.0v7 M-2.5,-0.5L0,-3.0L2.5,-0.5"/>
                </g>
               <g id="resetDef">
                       <use xlink:href="#rim2" fill="#404040">
                               <set attributeName="fill" to="#808080" begin="reset.mouseover" end="reset.mouseout"/>
                       </use>
               </g>
        </defs>

<script type="text/javascript">
var viewWidth = 3462;
var viewHeight = 1742;
var sectionId = 'dynsection-1';
</script>
<script xlink:href="svgpan.js"/>
<svg id="graph" class="graph">
<g id="viewport">
<title>BodyForceConstantField::OpBodyForce</title>
<polygon fill="white" stroke="transparent" points="-4,4 -4,-1738 3458,-1738 3458,4 -4,4"/>
<!-- Node1 -->
<g id="node1" class="node">
<title>Node1</title>
<g id="a_node1"><a xlink:title=" ">
<polygon fill="#bfbfbf" stroke="black" points="3320,-71 3320,-101 3454,-101 3454,-71 3320,-71"/>
<text text-anchor="start" x="3328" y="-89" font-family="Helvetica,sans-Serif" font-size="10.00">BodyForceConstantField</text>
<text text-anchor="middle" x="3387" y="-78" font-family="Helvetica,sans-Serif" font-size="10.00">::OpBodyForce</text>
</a>
</g>
</g>
<!-- Node2 -->
<g id="node2" class="node">
<title>Node2</title>
<g id="a_node2"><a xlink:href="structMoFEM_1_1VolumeElementForcesAndSourcesCore_1_1UserDataOperator.html" target="_top" xlink:title=" ">
<polygon fill="white" stroke="black" points="3044,-789 3044,-819 3235,-819 3235,-789 3044,-789"/>
<text text-anchor="start" x="3052" y="-807" font-family="Helvetica,sans-Serif" font-size="10.00">MoFEM::VolumeElementForces</text>
<text text-anchor="middle" x="3139.5" y="-796" font-family="Helvetica,sans-Serif" font-size="10.00">AndSourcesCore::UserDataOperator</text>
</a>
</g>
</g>
<!-- Node2&#45;&gt;Node1 -->
<g id="edge1" class="edge">
<title>Node2&#45;&gt;Node1</title>
<path fill="none" stroke="midnightblue" d="M3149.04,-779.02C3188.16,-664.6 3349.71,-192.13 3380.81,-101.19"/>
<polygon fill="midnightblue" stroke="midnightblue" points="3145.66,-778.08 3145.74,-788.67 3152.29,-780.34 3145.66,-778.08"/>
</g>
<!-- Node3 -->
<g id="node3" class="node">
<title>Node3</title>
<g id="a_node3"><a xlink:href="structMoFEM_1_1ForcesAndSourcesCore_1_1UserDataOperator.html" target="_top" xlink:title=" ">
<polygon fill="white" stroke="black" points="2837,-1425 2837,-1455 3007,-1455 3007,-1425 2837,-1425"/>
<text text-anchor="start" x="2845" y="-1443" font-family="Helvetica,sans-Serif" font-size="10.00">MoFEM::ForcesAndSourcesCore</text>
<text text-anchor="middle" x="2922" y="-1432" font-family="Helvetica,sans-Serif" font-size="10.00">::UserDataOperator</text>
</a>
</g>
</g>
<!-- Node3&#45;&gt;Node2 -->
<g id="edge2" class="edge">
<title>Node3&#45;&gt;Node2</title>
<path fill="none" stroke="midnightblue" d="M2931.41,-1415.17C2967.03,-1310.05 3104.87,-903.25 3133.34,-819.24"/>
<polygon fill="midnightblue" stroke="midnightblue" points="2928.01,-1414.31 2928.11,-1424.91 2934.64,-1416.56 2928.01,-1414.31"/>
</g>
<!-- Node4 -->
<g id="node4" class="node">
<title>Node4</title>
<g id="a_node4"><a xlink:href="structMoFEM_1_1DataOperator.html" target="_top" xlink:title="base operator to do operations at Gauss Pt. level">
<polygon fill="white" stroke="black" points="2579.5,-1536.5 2579.5,-1555.5 2704.5,-1555.5 2704.5,-1536.5 2579.5,-1536.5"/>
<text text-anchor="middle" x="2642" y="-1543.5" font-family="Helvetica,sans-Serif" font-size="10.00">MoFEM::DataOperator</text>
</a>
</g>
</g>
<!-- Node4&#45;&gt;Node3 -->
<g id="edge3" class="edge">
<title>Node4&#45;&gt;Node3</title>
<path fill="none" stroke="midnightblue" d="M2677.59,-1532.81C2729.43,-1513.04 2827.01,-1475.84 2881.55,-1455.04"/>
<polygon fill="midnightblue" stroke="midnightblue" points="2676.26,-1529.57 2668.16,-1536.41 2678.75,-1536.11 2676.26,-1529.57"/>
</g>
<!-- Node5 -->
<g id="node5" class="node">
<title>Node5</title>
<g id="a_node5"><a xlink:title=" ">
<polygon fill="white" stroke="#bfbfbf" points="2160,-1539 2160,-1591 2352,-1591 2352,-1539 2160,-1539"/>
<text text-anchor="start" x="2168" y="-1579" font-family="Helvetica,sans-Serif" font-size="10.00">function&lt; MoFEMErrorCode</text>
<text text-anchor="start" x="2168" y="-1568" font-family="Helvetica,sans-Serif" font-size="10.00">(DataOperator *op_ptr,</text>
<text text-anchor="start" x="2168" y="-1557" font-family="Helvetica,sans-Serif" font-size="10.00"> int side, EntityType type,</text>
<text text-anchor="middle" x="2256" y="-1546" font-family="Helvetica,sans-Serif" font-size="10.00"> EntitiesFieldData::EntData &amp;data)&gt;</text>
</a>
</g>
</g>
<!-- Node5&#45;&gt;Node4 -->
<g id="edge4" class="edge">
<title>Node5&#45;&gt;Node4</title>
<path fill="none" stroke="#9a32cd" stroke-dasharray="5,2" d="M2362.11,-1561.88C2415.17,-1560.06 2480.53,-1557.43 2539,-1554 2552.03,-1553.23 2565.99,-1552.25 2579.27,-1551.23"/>
<polygon fill="#9a32cd" stroke="#9a32cd" points="2361.89,-1558.39 2352.01,-1562.22 2362.12,-1565.38 2361.89,-1558.39"/>
<text text-anchor="middle" x="2458" y="-1564" font-family="Helvetica,sans-Serif" font-size="10.00"> doWorkRhsHook</text>
</g>
<!-- Node6 -->
<g id="node6" class="node">
<title>Node6</title>
<g id="a_node6"><a xlink:href="classbool.html" target="_top" xlink:title=" ">
<polygon fill="white" stroke="black" points="2237,-1468.5 2237,-1487.5 2275,-1487.5 2275,-1468.5 2237,-1468.5"/>
<text text-anchor="middle" x="2256" y="-1475.5" font-family="Helvetica,sans-Serif" font-size="10.00">bool</text>
</a>
</g>
</g>
<!-- Node6&#45;&gt;Node4 -->
<g id="edge5" class="edge">
<title>Node6&#45;&gt;Node4</title>
<path fill="none" stroke="#9a32cd" stroke-dasharray="5,2" d="M2285.3,-1474.24C2347.73,-1466.47 2495.21,-1451.1 2539,-1473 2550.93,-1478.96 2547.04,-1488.13 2557,-1497 2575.91,-1513.84 2601.5,-1527.77 2619.45,-1536.42"/>
<polygon fill="#9a32cd" stroke="#9a32cd" points="2284.49,-1470.82 2275.01,-1475.55 2285.38,-1477.76 2284.49,-1470.82"/>
<text text-anchor="middle" x="2458" y="-1542" font-family="Helvetica,sans-Serif" font-size="10.00"> doTris</text>
<text text-anchor="middle" x="2458" y="-1531" font-family="Helvetica,sans-Serif" font-size="10.00">doQuads</text>
<text text-anchor="middle" x="2458" y="-1520" font-family="Helvetica,sans-Serif" font-size="10.00">sYmm</text>
<text text-anchor="middle" x="2458" y="-1509" font-family="Helvetica,sans-Serif" font-size="10.00">doPrisms</text>
<text text-anchor="middle" x="2458" y="-1498" font-family="Helvetica,sans-Serif" font-size="10.00">doTets</text>
<text text-anchor="middle" x="2458" y="-1487" font-family="Helvetica,sans-Serif" font-size="10.00">doVertices</text>
<text text-anchor="middle" x="2458" y="-1476" font-family="Helvetica,sans-Serif" font-size="10.00">doEdges</text>
</g>
<!-- Node7 -->
<g id="node7" class="node">
<title>Node7</title>
<g id="a_node7"><a xlink:title=" ">
<polygon fill="white" stroke="#bfbfbf" points="2153,-1648.5 2153,-1733.5 2359,-1733.5 2359,-1648.5 2153,-1648.5"/>
<text text-anchor="start" x="2161" y="-1721.5" font-family="Helvetica,sans-Serif" font-size="10.00">function&lt; MoFEMErrorCode</text>
<text text-anchor="start" x="2161" y="-1710.5" font-family="Helvetica,sans-Serif" font-size="10.00">(DataOperator *op_ptr,</text>
<text text-anchor="start" x="2161" y="-1699.5" font-family="Helvetica,sans-Serif" font-size="10.00"> int row_side, int col_side,</text>
<text text-anchor="start" x="2161" y="-1688.5" font-family="Helvetica,sans-Serif" font-size="10.00"> EntityType row_type, EntityType</text>
<text text-anchor="start" x="2161" y="-1677.5" font-family="Helvetica,sans-Serif" font-size="10.00"> col_type, EntitiesFieldData::EntData</text>
<text text-anchor="start" x="2161" y="-1666.5" font-family="Helvetica,sans-Serif" font-size="10.00"> &amp;row_data, EntitiesFieldData::EntData</text>
<text text-anchor="middle" x="2256" y="-1655.5" font-family="Helvetica,sans-Serif" font-size="10.00"> &amp;col_data)&gt;</text>
</a>
</g>
</g>
<!-- Node7&#45;&gt;Node4 -->
<g id="edge6" class="edge">
<title>Node7&#45;&gt;Node4</title>
<path fill="none" stroke="#9a32cd" stroke-dasharray="5,2" d="M2369.34,-1690.94C2426.77,-1685.11 2493.88,-1668.48 2539,-1626 2559.58,-1606.62 2536.38,-1584.33 2557,-1565 2563.33,-1559.07 2571.1,-1554.85 2579.34,-1551.87"/>
<polygon fill="#9a32cd" stroke="#9a32cd" points="2368.75,-1687.48 2359.11,-1691.88 2369.39,-1694.46 2368.75,-1687.48"/>
<text text-anchor="middle" x="2458" y="-1693" font-family="Helvetica,sans-Serif" font-size="10.00"> doWorkLhsHook</text>
</g>
<!-- Node8 -->
<g id="node8" class="node">
<title>Node8</title>
<g id="a_node8"><a xlink:title=" ">
<polygon fill="white" stroke="#bfbfbf" points="2179,-1610.5 2179,-1629.5 2333,-1629.5 2333,-1610.5 2179,-1610.5"/>
<text text-anchor="middle" x="2256" y="-1617.5" font-family="Helvetica,sans-Serif" font-size="10.00">array&lt; bool, MBMAXTYPE &gt;</text>
</a>
</g>
</g>
<!-- Node8&#45;&gt;Node4 -->
<g id="edge7" class="edge">
<title>Node8&#45;&gt;Node4</title>
<path fill="none" stroke="#9a32cd" stroke-dasharray="5,2" d="M2343.29,-1615.34C2400.28,-1610.15 2475.81,-1599.19 2539,-1576 2547.8,-1572.77 2548.31,-1568.53 2557,-1565 2566.42,-1561.18 2576.76,-1558.04 2586.87,-1555.51"/>
<polygon fill="#9a32cd" stroke="#9a32cd" points="2342.9,-1611.86 2333.24,-1616.22 2343.5,-1618.84 2342.9,-1611.86"/>
<text text-anchor="middle" x="2458" y="-1614" font-family="Helvetica,sans-Serif" font-size="10.00"> doEntities</text>
</g>
<!-- Node9 -->
<g id="node9" class="node">
<title>Node9</title>
<g id="a_node9"><a xlink:title=" ">
<polygon fill="white" stroke="#bfbfbf" points="2607.5,-1468.5 2607.5,-1487.5 2676.5,-1487.5 2676.5,-1468.5 2607.5,-1468.5"/>
<text text-anchor="middle" x="2642" y="-1475.5" font-family="Helvetica,sans-Serif" font-size="10.00">FieldSpace</text>
</a>
</g>
</g>
<!-- Node9&#45;&gt;Node3 -->
<g id="edge8" class="edge">
<title>Node9&#45;&gt;Node3</title>
<path fill="none" stroke="#9a32cd" stroke-dasharray="5,2" d="M2686.8,-1472.04C2722.41,-1467.19 2773.95,-1460.16 2819,-1454 2824.84,-1453.2 2830.88,-1452.37 2836.95,-1451.54"/>
<polygon fill="#9a32cd" stroke="#9a32cd" points="2686.18,-1468.59 2676.74,-1473.41 2687.12,-1475.53 2686.18,-1468.59"/>
<text text-anchor="middle" x="2782" y="-1466" font-family="Helvetica,sans-Serif" font-size="10.00"> sPace</text>
</g>
<!-- Node10 -->
<g id="node10" class="node">
<title>Node10</title>
<g id="a_node10"><a xlink:title=" ">
<polygon fill="white" stroke="#bfbfbf" points="1122.5,-1430.5 1122.5,-1449.5 1160.5,-1449.5 1160.5,-1430.5 1122.5,-1430.5"/>
<text text-anchor="middle" x="1141.5" y="-1437.5" font-family="Helvetica,sans-Serif" font-size="10.00">char</text>
</a>
</g>
</g>
<!-- Node10&#45;&gt;Node3 -->
<g id="edge9" class="edge">
<title>Node10&#45;&gt;Node3</title>
<path fill="none" stroke="#9a32cd" stroke-dasharray="5,2" d="M1170.82,-1440C1230.98,-1440 1375.95,-1440 1497.5,-1440 1497.5,-1440 1497.5,-1440 2643,-1440 2708.04,-1440 2781.63,-1440 2836.75,-1440"/>
<polygon fill="#9a32cd" stroke="#9a32cd" points="1170.6,-1436.5 1160.6,-1440 1170.6,-1443.5 1170.6,-1436.5"/>
<text text-anchor="middle" x="2063" y="-1443" font-family="Helvetica,sans-Serif" font-size="10.00"> opType</text>
</g>
<!-- Node38 -->
<g id="node38" class="node">
<title>Node38</title>
<g id="a_node38"><a xlink:href="structMoFEM_1_1Problem.html" target="_top" xlink:title="keeps basic data about problem">
<polygon fill="white" stroke="black" points="1449,-1154.5 1449,-1173.5 1548,-1173.5 1548,-1154.5 1449,-1154.5"/>
<text text-anchor="middle" x="1498.5" y="-1161.5" font-family="Helvetica,sans-Serif" font-size="10.00">MoFEM::Problem</text>
</a>
</g>
</g>
<!-- Node10&#45;&gt;Node38 -->
<g id="edge53" class="edge">
<title>Node10&#45;&gt;Node38</title>
<path fill="none" stroke="#9a32cd" stroke-dasharray="5,2" d="M1170.94,-1435.67C1191.19,-1432.34 1218.96,-1427.25 1243,-1421 1251.16,-1418.88 1252.82,-1417.04 1261,-1415 1290.74,-1407.58 1376.23,-1414.54 1397,-1392 1428.59,-1357.72 1384.43,-1218.19 1415,-1183 1423.58,-1173.12 1436.16,-1167.82 1448.93,-1165.1"/>
<polygon fill="#9a32cd" stroke="#9a32cd" points="1170.14,-1432.26 1160.82,-1437.3 1171.25,-1439.17 1170.14,-1432.26"/>
<text text-anchor="middle" x="1329" y="-1418" font-family="Helvetica,sans-Serif" font-size="10.00"> tagName</text>
</g>
<!-- Node11 -->
<g id="node11" class="node">
<title>Node11</title>
<g id="a_node11"><a xlink:href="structMoFEM_1_1ForcesAndSourcesCore.html" target="_top" xlink:title="structure to get information form mofem into EntitiesFieldData">
<polygon fill="white" stroke="black" points="2557,-753.5 2557,-772.5 2727,-772.5 2727,-753.5 2557,-753.5"/>
<text text-anchor="middle" x="2642" y="-760.5" font-family="Helvetica,sans-Serif" font-size="10.00">MoFEM::ForcesAndSourcesCore</text>
</a>
</g>
</g>
<!-- Node11&#45;&gt;Node3 -->
<g id="edge10" class="edge">
<title>Node11&#45;&gt;Node3</title>
<path fill="none" stroke="#9a32cd" stroke-dasharray="5,2" d="M2650.76,-781.91C2691.31,-880.64 2878.23,-1335.85 2914.79,-1424.88"/>
<polygon fill="#9a32cd" stroke="#9a32cd" points="2653.97,-780.49 2646.93,-772.57 2647.49,-783.15 2653.97,-780.49"/>
<text text-anchor="middle" x="2782" y="-1185" font-family="Helvetica,sans-Serif" font-size="10.00"> ptrFE</text>
</g>
<!-- Node11&#45;&gt;Node11 -->
<g id="edge68" class="edge">
<title>Node11&#45;&gt;Node11</title>
<path fill="none" stroke="#9a32cd" stroke-dasharray="5,2" d="M2615.96,-782.03C2617.38,-787.13 2626.06,-791 2642,-791 2666.88,-791 2674.08,-781.57 2663.58,-772.76"/>
<polygon fill="#9a32cd" stroke="#9a32cd" points="2619.24,-783.29 2620.42,-772.76 2612.93,-780.25 2619.24,-783.29"/>
<text text-anchor="middle" x="2642" y="-805" font-family="Helvetica,sans-Serif" font-size="10.00"> sidePtrFE</text>
<text text-anchor="middle" x="2642" y="-794" font-family="Helvetica,sans-Serif" font-size="10.00">refinePtrFE</text>
</g>
<!-- Node12 -->
<g id="node12" class="node">
<title>Node12</title>
<g id="a_node12"><a xlink:href="structMoFEM_1_1FEMethod.html" target="_top" xlink:title="structure for User Loop Methods on finite elements">
<polygon fill="white" stroke="black" points="2202.5,-878.5 2202.5,-897.5 2309.5,-897.5 2309.5,-878.5 2202.5,-878.5"/>
<text text-anchor="middle" x="2256" y="-885.5" font-family="Helvetica,sans-Serif" font-size="10.00">MoFEM::FEMethod</text>
</a>
</g>
</g>
<!-- Node12&#45;&gt;Node11 -->
<g id="edge11" class="edge">
<title>Node12&#45;&gt;Node11</title>
<path fill="none" stroke="midnightblue" d="M2319.92,-887.31C2378.83,-884.59 2468.14,-875.05 2539,-844 2578.56,-826.67 2615.87,-790.11 2632.26,-772.66"/>
<polygon fill="midnightblue" stroke="midnightblue" points="2319.5,-883.83 2309.65,-887.73 2319.78,-890.82 2319.5,-883.83"/>
</g>
<!-- Node13 -->
<g id="node13" class="node">
<title>Node13</title>
<g id="a_node13"><a xlink:href="structMoFEM_1_1BasicMethod.html" target="_top" xlink:title="Data structure to exchange data between mofem and User Loop Methods.">
<polygon fill="white" stroke="black" points="1825,-757.5 1825,-776.5 1947,-776.5 1947,-757.5 1825,-757.5"/>
<text text-anchor="middle" x="1886" y="-764.5" font-family="Helvetica,sans-Serif" font-size="10.00">MoFEM::BasicMethod</text>
</a>
</g>
</g>
<!-- Node13&#45;&gt;Node12 -->
<g id="edge12" class="edge">
<title>Node13&#45;&gt;Node12</title>
<path fill="none" stroke="midnightblue" d="M1917.26,-780.69C1965.99,-802.26 2065.27,-844.23 2153,-869 2168.86,-873.48 2186.42,-877.18 2202.43,-880.09"/>
<polygon fill="midnightblue" stroke="midnightblue" points="1918.49,-777.41 1907.93,-776.54 1915.64,-783.8 1918.49,-777.41"/>
</g>
<!-- Node14 -->
<g id="node14" class="node">
<title>Node14</title>
<g id="a_node14"><a xlink:href="structMoFEM_1_1KspMethod.html" target="_top" xlink:title="data structure for ksp (linear solver) context">
<polygon fill="white" stroke="black" points="1442,-757.5 1442,-776.5 1555,-776.5 1555,-757.5 1442,-757.5"/>
<text text-anchor="middle" x="1498.5" y="-764.5" font-family="Helvetica,sans-Serif" font-size="10.00">MoFEM::KspMethod</text>
</a>
</g>
</g>
<!-- Node14&#45;&gt;Node13 -->
<g id="edge13" class="edge">
<title>Node14&#45;&gt;Node13</title>
<path fill="none" stroke="midnightblue" d="M1565.57,-767C1638.41,-767 1754.58,-767 1824.93,-767"/>
<polygon fill="midnightblue" stroke="midnightblue" points="1565.14,-763.5 1555.14,-767 1565.14,-770.5 1565.14,-763.5"/>
</g>
<!-- Node15 -->
<g id="node15" class="node">
<title>Node15</title>
<g id="a_node15"><a xlink:href="structMoFEM_1_1PetscData.html" target="_top" xlink:title=" ">
<polygon fill="white" stroke="black" points="1087.5,-576.5 1087.5,-595.5 1195.5,-595.5 1195.5,-576.5 1087.5,-576.5"/>
<text text-anchor="middle" x="1141.5" y="-583.5" font-family="Helvetica,sans-Serif" font-size="10.00">MoFEM::PetscData</text>
</a>
</g>
</g>
<!-- Node15&#45;&gt;Node14 -->
<g id="edge14" class="edge">
<title>Node15&#45;&gt;Node14</title>
<path fill="none" stroke="midnightblue" d="M1205.87,-592.12C1276.55,-599.51 1382.86,-612.49 1397,-625 1419.13,-644.58 1399.71,-663.71 1415,-689 1432.85,-718.52 1464.85,-744.13 1483.31,-757.38"/>
<polygon fill="midnightblue" stroke="midnightblue" points="1206.03,-588.62 1195.72,-591.07 1205.31,-595.58 1206.03,-588.62"/>
</g>
<!-- Node25 -->
<g id="node25" class="node">
<title>Node25</title>
<g id="a_node25"><a xlink:href="structMoFEM_1_1SnesMethod.html" target="_top" xlink:title="data structure for snes (nonlinear solver) context">
<polygon fill="white" stroke="black" points="1439,-660.5 1439,-679.5 1558,-679.5 1558,-660.5 1439,-660.5"/>
<text text-anchor="middle" x="1498.5" y="-667.5" font-family="Helvetica,sans-Serif" font-size="10.00">MoFEM::SnesMethod</text>
</a>
</g>
</g>
<!-- Node15&#45;&gt;Node25 -->
<g id="edge27" class="edge">
<title>Node15&#45;&gt;Node25</title>
<path fill="none" stroke="darkgreen" d="M1205.98,-581.7C1271.43,-578.61 1367.93,-578.21 1397,-600 1416.23,-614.42 1397.07,-634.99 1415,-651 1421.8,-657.07 1430.14,-661.31 1438.88,-664.26"/>
<polygon fill="darkgreen" stroke="darkgreen" points="1205.56,-578.22 1195.75,-582.22 1205.92,-585.21 1205.56,-578.22"/>
</g>
<!-- Node28 -->
<g id="node28" class="node">
<title>Node28</title>
<g id="a_node28"><a xlink:href="structMoFEM_1_1TSMethod.html" target="_top" xlink:title="data structure for TS (time stepping) context">
<polygon fill="white" stroke="black" points="1445,-367.5 1445,-386.5 1552,-386.5 1552,-367.5 1445,-367.5"/>
<text text-anchor="middle" x="1498.5" y="-374.5" font-family="Helvetica,sans-Serif" font-size="10.00">MoFEM::TSMethod</text>
</a>
</g>
</g>
<!-- Node15&#45;&gt;Node28 -->
<g id="edge33" class="edge">
<title>Node15&#45;&gt;Node28</title>
<path fill="none" stroke="darkgreen" d="M1205.65,-579.17C1275.82,-571.14 1381.38,-557.56 1397,-547 1427.68,-526.26 1478.13,-419.49 1493.15,-386.64"/>
<polygon fill="darkgreen" stroke="darkgreen" points="1205.11,-575.71 1195.57,-580.32 1205.9,-582.67 1205.11,-575.71"/>
</g>
<!-- Node16 -->
<g id="node16" class="node">
<title>Node16</title>
<g id="a_node16"><a xlink:href="structMoFEM_1_1UnknownInterface.html" target="_top" xlink:title="base class for all interface classes">
<polygon fill="white" stroke="black" points="735,-491.5 735,-510.5 883,-510.5 883,-491.5 735,-491.5"/>
<text text-anchor="middle" x="809" y="-498.5" font-family="Helvetica,sans-Serif" font-size="10.00">MoFEM::UnknownInterface</text>
</a>
</g>
</g>
<!-- Node16&#45;&gt;Node15 -->
<g id="edge15" class="edge">
<title>Node16&#45;&gt;Node15</title>
<path fill="none" stroke="midnightblue" d="M853.09,-513.42C918.38,-532.23 1035.35,-565.9 1040,-567 1055.29,-570.63 1072.02,-574.02 1087.36,-576.91"/>
<polygon fill="midnightblue" stroke="midnightblue" points="853.65,-509.94 843.07,-510.53 851.71,-516.67 853.65,-509.94"/>
</g>
<!-- Node56 -->
<g id="node56" class="node">
<title>Node56</title>
<g id="a_node56"><a xlink:href="structMoFEM_1_1CoreInterface.html" target="_top" xlink:title="Interface.">
<polygon fill="white" stroke="black" points="1079,-152.5 1079,-171.5 1204,-171.5 1204,-152.5 1079,-152.5"/>
<text text-anchor="middle" x="1141.5" y="-159.5" font-family="Helvetica,sans-Serif" font-size="10.00">MoFEM::CoreInterface</text>
</a>
</g>
</g>
<!-- Node16&#45;&gt;Node56 -->
<g id="edge67" class="edge">
<title>Node16&#45;&gt;Node56</title>
<path fill="none" stroke="midnightblue" d="M823.32,-483.27C838.02,-463.68 862.31,-431.18 883,-403 953.45,-307.04 941.05,-252.17 1040,-186 1051.56,-178.27 1065.33,-173.02 1078.91,-169.46"/>
<polygon fill="midnightblue" stroke="midnightblue" points="820.5,-481.2 817.3,-491.3 826.1,-485.4 820.5,-481.2"/>
</g>
<!-- Node17 -->
<g id="node17" class="node">
<title>Node17</title>
<g id="a_node17"><a xlink:title=" ">
<polygon fill="white" stroke="#bfbfbf" points="386,-731.5 386,-794.5 627,-794.5 627,-731.5 386,-731.5"/>
<text text-anchor="start" x="394" y="-782.5" font-family="Helvetica,sans-Serif" font-size="10.00">multi_index_container</text>
<text text-anchor="start" x="394" y="-771.5" font-family="Helvetica,sans-Serif" font-size="10.00">&lt; UIdTypeMap, indexed</text>
<text text-anchor="start" x="394" y="-760.5" font-family="Helvetica,sans-Serif" font-size="10.00">_by&lt; hashed_unique&lt; member</text>
<text text-anchor="start" x="394" y="-749.5" font-family="Helvetica,sans-Serif" font-size="10.00">&lt; UIdTypeMap, boost::typeindex</text>
<text text-anchor="middle" x="506.5" y="-738.5" font-family="Helvetica,sans-Serif" font-size="10.00">::type_index, &amp;UIdTypeMap::classIdx &gt; &gt; &gt; &gt;</text>
</a>
</g>
</g>
<!-- Node17&#45;&gt;Node16 -->
<g id="edge16" class="edge">
<title>Node17&#45;&gt;Node16</title>
<path fill="none" stroke="#9a32cd" stroke-dasharray="5,2" d="M541.23,-723.67C583.3,-676.19 658.97,-595.79 735,-540 751.1,-528.18 771.24,-517.7 786.28,-510.59"/>
<polygon fill="#9a32cd" stroke="#9a32cd" points="538.51,-721.46 534.53,-731.28 543.76,-726.09 538.51,-721.46"/>
<text text-anchor="middle" x="681" y="-616" font-family="Helvetica,sans-Serif" font-size="10.00"> iFaceTypeMap</text>
</g>
<!-- Node18 -->
<g id="node18" class="node">
<title>Node18</title>
<g id="a_node18"><a xlink:title=" ">
<polygon fill="white" stroke="#bfbfbf" points="0,-822.5 0,-841.5 125,-841.5 125,-822.5 0,-822.5"/>
<text text-anchor="middle" x="62.5" y="-829.5" font-family="Helvetica,sans-Serif" font-size="10.00">multi_index_container</text>
</a>
</g>
</g>
<!-- Node18&#45;&gt;Node13 -->
<g id="edge40" class="edge">
<title>Node18&#45;&gt;Node13</title>
<path fill="none" stroke="#9a32cd" stroke-dasharray="5,2" d="M90.78,-846.14C105.79,-853.29 124.98,-861.4 143,-866 299.82,-906.08 343.64,-901 505.5,-901 505.5,-901 505.5,-901 962.5,-901 1309.24,-901 1721.74,-807.14 1847.06,-776.53"/>
<polygon fill="#9a32cd" stroke="#9a32cd" points="92.09,-842.89 81.57,-841.63 89.01,-849.18 92.09,-842.89"/>
<text text-anchor="middle" x="961.5" y="-981" font-family="Helvetica,sans-Serif" font-size="10.00"> adjacenciesPtr</text>
<text text-anchor="middle" x="961.5" y="-970" font-family="Helvetica,sans-Serif" font-size="10.00">refinedEntitiesPtr</text>
<text text-anchor="middle" x="961.5" y="-959" font-family="Helvetica,sans-Serif" font-size="10.00">finiteElementsEntitiesPtr</text>
<text text-anchor="middle" x="961.5" y="-948" font-family="Helvetica,sans-Serif" font-size="10.00">dofsPtr</text>
<text text-anchor="middle" x="961.5" y="-937" font-family="Helvetica,sans-Serif" font-size="10.00">entitiesPtr</text>
<text text-anchor="middle" x="961.5" y="-926" font-family="Helvetica,sans-Serif" font-size="10.00">finiteElementsPtr</text>
<text text-anchor="middle" x="961.5" y="-915" font-family="Helvetica,sans-Serif" font-size="10.00">refinedFiniteElementsPtr</text>
<text text-anchor="middle" x="961.5" y="-904" font-family="Helvetica,sans-Serif" font-size="10.00">fieldsPtr</text>
</g>
<!-- Node18&#45;&gt;Node17 -->
<g id="edge17" class="edge">
<title>Node18&#45;&gt;Node17</title>
<path fill="none" stroke="orange" stroke-dasharray="5,2" d="M134.62,-820.9C202.28,-810.34 305.36,-794.24 385.69,-781.7"/>
<polygon fill="orange" stroke="orange" points="133.83,-817.48 124.49,-822.48 134.91,-824.39 133.83,-817.48"/>
<text text-anchor="start" x="143" y="-854" font-family="Helvetica,sans-Serif" font-size="10.00"> &lt; UIdTypeMap, indexed</text>
<text text-anchor="start" x="143" y="-843" font-family="Helvetica,sans-Serif" font-size="10.00">_by&lt; hashed_unique&lt; member</text>
<text text-anchor="start" x="143" y="-832" font-family="Helvetica,sans-Serif" font-size="10.00">&lt; UIdTypeMap, boost::typeindex</text>
<text text-anchor="middle" x="255.5" y="-821" font-family="Helvetica,sans-Serif" font-size="10.00">::type_index, &amp;UIdTypeMap::classIdx &gt; &gt; &gt; &gt;</text>
</g>
<!-- Node19 -->
<g id="node19" class="node">
<title>Node19</title>
<g id="a_node19"><a xlink:title=" ">
<polygon fill="white" stroke="#bfbfbf" points="738.5,-608.5 738.5,-627.5 879.5,-627.5 879.5,-608.5 738.5,-608.5"/>
<text text-anchor="middle" x="809" y="-615.5" font-family="Helvetica,sans-Serif" font-size="10.00">static constexpr Switches</text>
</a>
</g>
</g>
<!-- Node19&#45;&gt;Node15 -->
<g id="edge18" class="edge">
<title>Node19&#45;&gt;Node15</title>
<path fill="none" stroke="#9a32cd" stroke-dasharray="5,2" d="M889.72,-610.28C951.05,-604.34 1034.07,-596.3 1087.47,-591.13"/>
<polygon fill="#9a32cd" stroke="#9a32cd" points="889.3,-606.81 879.69,-611.25 889.98,-613.77 889.3,-606.81"/>
<text text-anchor="middle" x="961.5" y="-688" font-family="Helvetica,sans-Serif" font-size="10.00"> CtxSetX_TT</text>
<text text-anchor="middle" x="961.5" y="-677" font-family="Helvetica,sans-Serif" font-size="10.00">CtxSetX_T</text>
<text text-anchor="middle" x="961.5" y="-666" font-family="Helvetica,sans-Serif" font-size="10.00">CtxSetA</text>
<text text-anchor="middle" x="961.5" y="-655" font-family="Helvetica,sans-Serif" font-size="10.00">CtxSetB</text>
<text text-anchor="middle" x="961.5" y="-644" font-family="Helvetica,sans-Serif" font-size="10.00">CtxSetTime</text>
<text text-anchor="middle" x="961.5" y="-633" font-family="Helvetica,sans-Serif" font-size="10.00">CtxSetNone</text>
<text text-anchor="middle" x="961.5" y="-622" font-family="Helvetica,sans-Serif" font-size="10.00">CtxSetF</text>
<text text-anchor="middle" x="961.5" y="-611" font-family="Helvetica,sans-Serif" font-size="10.00">CtxSetX</text>
</g>
<!-- Node20 -->
<g id="node20" class="node">
<title>Node20</title>
<g id="a_node20"><a xlink:title=" ">
<polygon fill="white" stroke="#bfbfbf" points="791.5,-737.5 791.5,-756.5 826.5,-756.5 826.5,-737.5 791.5,-737.5"/>
<text text-anchor="middle" x="809" y="-744.5" font-family="Helvetica,sans-Serif" font-size="10.00">Mat</text>
</a>
</g>
</g>
<!-- Node20&#45;&gt;Node14 -->
<g id="edge24" class="edge">
<title>Node20&#45;&gt;Node14</title>
<path fill="none" stroke="#9a32cd" stroke-dasharray="5,2" d="M835.7,-758.83C877.47,-777.31 963.14,-812.13 1040,-824 1196.93,-848.24 1243.05,-848.9 1397,-810 1427.36,-802.33 1460.33,-786.68 1479.94,-776.53"/>
<polygon fill="#9a32cd" stroke="#9a32cd" points="837.09,-755.62 826.53,-754.72 834.23,-762 837.09,-755.62"/>
<text text-anchor="middle" x="1141.5" y="-854" font-family="Helvetica,sans-Serif" font-size="10.00"> ksp_A</text>
<text text-anchor="middle" x="1141.5" y="-843" font-family="Helvetica,sans-Serif" font-size="10.00">ksp_B</text>
</g>
<!-- Node20&#45;&gt;Node15 -->
<g id="edge19" class="edge">
<title>Node20&#45;&gt;Node15</title>
<path fill="none" stroke="#9a32cd" stroke-dasharray="5,2" d="M836.87,-741.86C892.47,-731.1 1015.51,-706.69 1022,-700 1051.91,-669.15 1009.61,-635.38 1040,-605 1052.43,-592.57 1070.28,-586.91 1087.49,-584.65"/>
<polygon fill="#9a32cd" stroke="#9a32cd" points="835.86,-738.49 826.71,-743.82 837.19,-745.36 835.86,-738.49"/>
<text text-anchor="middle" x="961.5" y="-742" font-family="Helvetica,sans-Serif" font-size="10.00"> A</text>
<text text-anchor="middle" x="961.5" y="-731" font-family="Helvetica,sans-Serif" font-size="10.00">B</text>
</g>
<!-- Node20&#45;&gt;Node25 -->
<g id="edge29" class="edge">
<title>Node20&#45;&gt;Node25</title>
<path fill="none" stroke="#9a32cd" stroke-dasharray="5,2" d="M836.33,-757.16C879.9,-772.08 967.58,-793.89 1022,-752 1046.77,-732.93 1015.52,-703.45 1040,-684 1070.49,-659.78 1322.47,-664.44 1438.91,-667.96"/>
<polygon fill="#9a32cd" stroke="#9a32cd" points="837.34,-753.8 826.74,-753.74 834.98,-760.39 837.34,-753.8"/>
<text text-anchor="middle" x="1141.5" y="-698" font-family="Helvetica,sans-Serif" font-size="10.00"> snes_A</text>
<text text-anchor="middle" x="1141.5" y="-687" font-family="Helvetica,sans-Serif" font-size="10.00">snes_B</text>
</g>
<!-- Node20&#45;&gt;Node28 -->
<g id="edge34" class="edge">
<title>Node20&#45;&gt;Node28</title>
<path fill="none" stroke="#9a32cd" stroke-dasharray="5,2" d="M824.5,-729.46C840.99,-708.64 867.63,-672.3 883,-637 896.69,-605.57 878.53,-587.89 901,-562 911.89,-549.46 1023.97,-511.34 1040,-507 1128.1,-483.17 1154.83,-499.57 1243,-476 1333.23,-451.88 1435.3,-406.25 1477.55,-386.51"/>
<polygon fill="#9a32cd" stroke="#9a32cd" points="821.66,-727.4 818.11,-737.38 827.11,-731.79 821.66,-727.4"/>
<text text-anchor="middle" x="1141.5" y="-521" font-family="Helvetica,sans-Serif" font-size="10.00"> ts_A</text>
<text text-anchor="middle" x="1141.5" y="-510" font-family="Helvetica,sans-Serif" font-size="10.00">ts_B</text>
</g>
<!-- Node21 -->
<g id="node21" class="node">
<title>Node21</title>
<g id="a_node21"><a xlink:title=" ">
<polygon fill="white" stroke="#bfbfbf" points="772.5,-549.5 772.5,-568.5 845.5,-568.5 845.5,-549.5 772.5,-549.5"/>
<text text-anchor="middle" x="809" y="-556.5" font-family="Helvetica,sans-Serif" font-size="10.00">bitset&lt; 8 &gt;</text>
</a>
</g>
</g>
<!-- Node21&#45;&gt;Node15 -->
<g id="edge20" class="edge">
<title>Node21&#45;&gt;Node15</title>
<path fill="none" stroke="#9a32cd" stroke-dasharray="5,2" d="M855.72,-562.74C916.35,-567.69 1023.14,-576.41 1087.3,-581.65"/>
<polygon fill="#9a32cd" stroke="#9a32cd" points="855.94,-559.24 845.68,-561.92 855.37,-566.22 855.94,-559.24"/>
<text text-anchor="middle" x="961.5" y="-578" font-family="Helvetica,sans-Serif" font-size="10.00"> data_ctx</text>
</g>
<!-- Node22 -->
<g id="node22" class="node">
<title>Node22</title>
<g id="a_node22"><a xlink:title=" ">
<polygon fill="white" stroke="#bfbfbf" points="792,-374.5 792,-393.5 826,-393.5 826,-374.5 792,-374.5"/>
<text text-anchor="middle" x="809" y="-381.5" font-family="Helvetica,sans-Serif" font-size="10.00">Vec</text>
</a>
</g>
</g>
<!-- Node22&#45;&gt;Node1 -->
<g id="edge86" class="edge">
<title>Node22&#45;&gt;Node1</title>
<path fill="none" stroke="#9a32cd" stroke-dasharray="5,2" d="M816.73,-364.47C828.99,-331.27 857.75,-263.22 901,-220 982.12,-138.94 1025.82,-124 1140.5,-124 1140.5,-124 1140.5,-124 3140.5,-124 3203.47,-124 3274.46,-111.64 3323.85,-101.02"/>
<polygon fill="#9a32cd" stroke="#9a32cd" points="813.28,-363.72 813.21,-374.31 819.87,-366.08 813.28,-363.72"/>
<text text-anchor="middle" x="2256" y="-127" font-family="Helvetica,sans-Serif" font-size="10.00"> F</text>
</g>
<!-- Node22&#45;&gt;Node14 -->
<g id="edge25" class="edge">
<title>Node22&#45;&gt;Node14</title>
<path fill="none" stroke="#9a32cd" stroke-dasharray="5,2" d="M826.35,-400.94C843.2,-419.37 868.91,-450.44 883,-482 899.45,-518.85 872.86,-542.07 901,-571 939.48,-610.57 984.17,-558.8 1022,-599 1055.05,-634.12 1005.32,-672.49 1040,-706 1047.19,-712.95 1321.7,-746.19 1441.98,-760.47"/>
<polygon fill="#9a32cd" stroke="#9a32cd" points="828.91,-398.55 819.53,-393.63 823.79,-403.32 828.91,-398.55"/>
<text text-anchor="middle" x="1141.5" y="-739" font-family="Helvetica,sans-Serif" font-size="10.00"> ksp_f</text>
</g>
<!-- Node22&#45;&gt;Node15 -->
<g id="edge21" class="edge">
<title>Node22&#45;&gt;Node15</title>
<path fill="none" stroke="#9a32cd" stroke-dasharray="5,2" d="M835.94,-387.85C881.18,-396.01 974.25,-419.42 1022,-479 1046.97,-510.15 1011.56,-538.98 1040,-567 1052.46,-579.28 1070.21,-584.92 1087.33,-587.21"/>
<polygon fill="#9a32cd" stroke="#9a32cd" points="836.47,-384.39 826.02,-386.17 835.3,-391.29 836.47,-384.39"/>
<text text-anchor="middle" x="961.5" y="-515" font-family="Helvetica,sans-Serif" font-size="10.00"> f</text>
<text text-anchor="middle" x="961.5" y="-504" font-family="Helvetica,sans-Serif" font-size="10.00">x</text>
<text text-anchor="middle" x="961.5" y="-493" font-family="Helvetica,sans-Serif" font-size="10.00">x_t</text>
<text text-anchor="middle" x="961.5" y="-482" font-family="Helvetica,sans-Serif" font-size="10.00">x_tt</text>
</g>
<!-- Node22&#45;&gt;Node25 -->
<g id="edge30" class="edge">
<title>Node22&#45;&gt;Node25</title>
<path fill="none" stroke="#9a32cd" stroke-dasharray="5,2" d="M836.27,-381.51C877.31,-378.6 958.49,-376.79 1022,-400 1031.27,-403.39 1030.96,-409.04 1040,-413 1124.33,-449.89 1155.27,-426.14 1243,-454 1314.31,-476.65 1351.91,-462.29 1397,-522 1431.89,-568.2 1375.9,-608.31 1415,-651 1421.35,-657.94 1429.69,-662.59 1438.61,-665.67"/>
<polygon fill="#9a32cd" stroke="#9a32cd" points="835.73,-378.05 826.04,-382.32 836.29,-385.02 835.73,-378.05"/>
<text text-anchor="middle" x="1141.5" y="-468" font-family="Helvetica,sans-Serif" font-size="10.00"> snes_x</text>
<text text-anchor="middle" x="1141.5" y="-457" font-family="Helvetica,sans-Serif" font-size="10.00">snes_f</text>
</g>
<!-- Node22&#45;&gt;Node28 -->
<g id="edge38" class="edge">
<title>Node22&#45;&gt;Node28</title>
<path fill="none" stroke="#9a32cd" stroke-dasharray="5,2" d="M825.75,-366.83C860.28,-330.59 947.06,-247.18 1040,-217 1115.86,-192.36 1329.46,-211.58 1397,-254 1444.41,-283.77 1479.82,-343.67 1492.46,-367.2"/>
<polygon fill="#9a32cd" stroke="#9a32cd" points="823.12,-364.51 818.83,-374.2 828.22,-369.3 823.12,-364.51"/>
<text text-anchor="middle" x="1141.5" y="-253" font-family="Helvetica,sans-Serif" font-size="10.00"> ts_u</text>
<text text-anchor="middle" x="1141.5" y="-242" font-family="Helvetica,sans-Serif" font-size="10.00">ts_F</text>
<text text-anchor="middle" x="1141.5" y="-231" font-family="Helvetica,sans-Serif" font-size="10.00">ts_u_t</text>
<text text-anchor="middle" x="1141.5" y="-220" font-family="Helvetica,sans-Serif" font-size="10.00">ts_u_tt</text>
</g>
<!-- Node23 -->
<g id="node23" class="node">
<title>Node23</title>
<g id="a_node23"><a xlink:title=" ">
<polygon fill="white" stroke="#bfbfbf" points="1124,-795.5 1124,-814.5 1159,-814.5 1159,-795.5 1124,-795.5"/>
<text text-anchor="middle" x="1141.5" y="-802.5" font-family="Helvetica,sans-Serif" font-size="10.00">KSP</text>
</a>
</g>
</g>
<!-- Node23&#45;&gt;Node14 -->
<g id="edge22" class="edge">
<title>Node23&#45;&gt;Node14</title>
<path fill="none" stroke="#9a32cd" stroke-dasharray="5,2" d="M1169.35,-803.09C1215.82,-799.67 1314.22,-791.91 1397,-782 1411.54,-780.26 1427.21,-778.07 1441.76,-775.91"/>
<polygon fill="#9a32cd" stroke="#9a32cd" points="1168.93,-799.61 1159.21,-803.83 1169.44,-806.59 1168.93,-799.61"/>
<text text-anchor="middle" x="1329" y="-798" font-family="Helvetica,sans-Serif" font-size="10.00"> ksp</text>
</g>
<!-- Node24 -->
<g id="node24" class="node">
<title>Node24</title>
<g id="a_node24"><a xlink:title=" ">
<polygon fill="white" stroke="#bfbfbf" points="1104.5,-757.5 1104.5,-776.5 1178.5,-776.5 1178.5,-757.5 1104.5,-757.5"/>
<text text-anchor="middle" x="1141.5" y="-764.5" font-family="Helvetica,sans-Serif" font-size="10.00">KSPContext</text>
</a>
</g>
</g>
<!-- Node24&#45;&gt;Node14 -->
<g id="edge23" class="edge">
<title>Node24&#45;&gt;Node14</title>
<path fill="none" stroke="#9a32cd" stroke-dasharray="5,2" d="M1189.19,-767C1254.3,-767 1372.2,-767 1441.81,-767"/>
<polygon fill="#9a32cd" stroke="#9a32cd" points="1188.82,-763.5 1178.82,-767 1188.82,-770.5 1188.82,-763.5"/>
<text text-anchor="middle" x="1329" y="-770" font-family="Helvetica,sans-Serif" font-size="10.00"> ksp_ctx</text>
</g>
<!-- Node25&#45;&gt;Node13 -->
<g id="edge26" class="edge">
<title>Node25&#45;&gt;Node13</title>
<path fill="none" stroke="midnightblue" d="M1547.5,-682.08C1625.06,-701.59 1776.36,-739.66 1846.98,-757.43"/>
<polygon fill="midnightblue" stroke="midnightblue" points="1548.07,-678.61 1537.52,-679.57 1546.36,-685.4 1548.07,-678.61"/>
</g>
<!-- Node26 -->
<g id="node26" class="node">
<title>Node26</title>
<g id="a_node26"><a xlink:title=" ">
<polygon fill="white" stroke="#bfbfbf" points="1120.5,-538.5 1120.5,-557.5 1162.5,-557.5 1162.5,-538.5 1120.5,-538.5"/>
<text text-anchor="middle" x="1141.5" y="-545.5" font-family="Helvetica,sans-Serif" font-size="10.00">SNES</text>
</a>
</g>
</g>
<!-- Node26&#45;&gt;Node25 -->
<g id="edge28" class="edge">
<title>Node26&#45;&gt;Node25</title>
<path fill="none" stroke="#9a32cd" stroke-dasharray="5,2" d="M1172.38,-539.68C1224.79,-527.06 1333.71,-509.98 1397,-565 1426.47,-590.62 1387.67,-623.11 1415,-651 1421.48,-657.61 1429.77,-662.12 1438.58,-665.16"/>
<polygon fill="#9a32cd" stroke="#9a32cd" points="1171.53,-536.28 1162.68,-542.12 1173.23,-543.07 1171.53,-536.28"/>
<text text-anchor="middle" x="1329" y="-568" font-family="Helvetica,sans-Serif" font-size="10.00"> snes</text>
</g>
<!-- Node27 -->
<g id="node27" class="node">
<title>Node27</title>
<g id="a_node27"><a xlink:title=" ">
<polygon fill="white" stroke="#bfbfbf" points="1101.5,-614.5 1101.5,-633.5 1181.5,-633.5 1181.5,-614.5 1101.5,-614.5"/>
<text text-anchor="middle" x="1141.5" y="-621.5" font-family="Helvetica,sans-Serif" font-size="10.00">SNESContext</text>
</a>
</g>
</g>
<!-- Node27&#45;&gt;Node25 -->
<g id="edge31" class="edge">
<title>Node27&#45;&gt;Node25</title>
<path fill="none" stroke="#9a32cd" stroke-dasharray="5,2" d="M1191.93,-624.59C1243.57,-626.02 1326.7,-630.6 1397,-645 1405.26,-646.69 1406.88,-648.72 1415,-651 1427.03,-654.38 1440.16,-657.61 1452.34,-660.42"/>
<polygon fill="#9a32cd" stroke="#9a32cd" points="1191.8,-621.09 1181.72,-624.34 1191.63,-628.08 1191.8,-621.09"/>
<text text-anchor="middle" x="1329" y="-648" font-family="Helvetica,sans-Serif" font-size="10.00"> snes_ctx</text>
</g>
<!-- Node28&#45;&gt;Node13 -->
<g id="edge32" class="edge">
<title>Node28&#45;&gt;Node13</title>
<path fill="none" stroke="midnightblue" d="M1560.75,-388.87C1626.99,-405.2 1729.92,-441.49 1781,-516 1831.46,-589.61 1751.39,-640.51 1799,-716 1811.78,-736.26 1835.77,-749.5 1855.17,-757.4"/>
<polygon fill="midnightblue" stroke="midnightblue" points="1561.4,-385.42 1550.86,-386.51 1559.77,-392.23 1561.4,-385.42"/>
</g>
<!-- Node29 -->
<g id="node29" class="node">
<title>Node29</title>
<g id="a_node29"><a xlink:title=" ">
<polygon fill="white" stroke="#bfbfbf" points="1109,-270.5 1109,-289.5 1174,-289.5 1174,-270.5 1109,-270.5"/>
<text text-anchor="middle" x="1141.5" y="-277.5" font-family="Helvetica,sans-Serif" font-size="10.00">PetscReal</text>
</a>
</g>
</g>
<!-- Node29&#45;&gt;Node28 -->
<g id="edge35" class="edge">
<title>Node29&#45;&gt;Node28</title>
<path fill="none" stroke="#9a32cd" stroke-dasharray="5,2" d="M1184,-269.88C1235.98,-259.33 1326.73,-248 1397,-277 1442.5,-295.78 1478.25,-346.25 1491.71,-367.43"/>
<polygon fill="#9a32cd" stroke="#9a32cd" points="1183.2,-266.48 1174.14,-271.97 1184.65,-273.32 1183.2,-266.48"/>
<text text-anchor="middle" x="1329" y="-313" font-family="Helvetica,sans-Serif" font-size="10.00"> ts_a</text>
<text text-anchor="middle" x="1329" y="-302" font-family="Helvetica,sans-Serif" font-size="10.00">ts_t</text>
<text text-anchor="middle" x="1329" y="-291" font-family="Helvetica,sans-Serif" font-size="10.00">ts_dt</text>
<text text-anchor="middle" x="1329" y="-280" font-family="Helvetica,sans-Serif" font-size="10.00">ts_aa</text>
</g>
<!-- Node30 -->
<g id="node30" class="node">
<title>Node30</title>
<g id="a_node30"><a xlink:title=" ">
<polygon fill="white" stroke="#bfbfbf" points="1108,-384.5 1108,-403.5 1175,-403.5 1175,-384.5 1108,-384.5"/>
<text text-anchor="middle" x="1141.5" y="-391.5" font-family="Helvetica,sans-Serif" font-size="10.00">TSContext</text>
</a>
</g>
</g>
<!-- Node30&#45;&gt;Node28 -->
<g id="edge36" class="edge">
<title>Node30&#45;&gt;Node28</title>
<path fill="none" stroke="#9a32cd" stroke-dasharray="5,2" d="M1185.59,-391.94C1250.81,-388.81 1374.44,-382.89 1444.88,-379.52"/>
<polygon fill="#9a32cd" stroke="#9a32cd" points="1185.08,-388.46 1175.26,-392.43 1185.42,-395.45 1185.08,-388.46"/>
<text text-anchor="middle" x="1329" y="-391" font-family="Helvetica,sans-Serif" font-size="10.00"> ts_ctx</text>
</g>
<!-- Node31 -->
<g id="node31" class="node">
<title>Node31</title>
<g id="a_node31"><a xlink:title=" ">
<polygon fill="white" stroke="#bfbfbf" points="1113.5,-346.5 1113.5,-365.5 1169.5,-365.5 1169.5,-346.5 1113.5,-346.5"/>
<text text-anchor="middle" x="1141.5" y="-353.5" font-family="Helvetica,sans-Serif" font-size="10.00">PetscInt</text>
</a>
</g>
</g>
<!-- Node31&#45;&gt;Node28 -->
<g id="edge37" class="edge">
<title>Node31&#45;&gt;Node28</title>
<path fill="none" stroke="#9a32cd" stroke-dasharray="5,2" d="M1179.9,-356.96C1229.55,-358.39 1319.94,-361.51 1397,-367 1412.57,-368.11 1429.46,-369.66 1444.87,-371.2"/>
<polygon fill="#9a32cd" stroke="#9a32cd" points="1179.74,-353.46 1169.65,-356.67 1179.55,-360.45 1179.74,-353.46"/>
<text text-anchor="middle" x="1329" y="-370" font-family="Helvetica,sans-Serif" font-size="10.00"> ts_step</text>
</g>
<!-- Node32 -->
<g id="node32" class="node">
<title>Node32</title>
<g id="a_node32"><a xlink:title=" ">
<polygon fill="white" stroke="#bfbfbf" points="1127,-308.5 1127,-327.5 1156,-327.5 1156,-308.5 1127,-308.5"/>
<text text-anchor="middle" x="1141.5" y="-315.5" font-family="Helvetica,sans-Serif" font-size="10.00">TS</text>
</a>
</g>
</g>
<!-- Node32&#45;&gt;Node28 -->
<g id="edge39" class="edge">
<title>Node32&#45;&gt;Node28</title>
<path fill="none" stroke="#9a32cd" stroke-dasharray="5,2" d="M1166.19,-318.72C1211.49,-320.47 1313.32,-326.21 1397,-344 1423.58,-349.65 1453.02,-359.8 1473.13,-367.35"/>
<polygon fill="#9a32cd" stroke="#9a32cd" points="1166.3,-315.22 1156.18,-318.36 1166.05,-322.22 1166.3,-315.22"/>
<text text-anchor="middle" x="1329" y="-347" font-family="Helvetica,sans-Serif" font-size="10.00"> ts</text>
</g>
<!-- Node33 -->
<g id="node33" class="node">
<title>Node33</title>
<g id="a_node33"><a xlink:title=" ">
<polygon fill="white" stroke="#bfbfbf" points="1454,-622.5 1454,-641.5 1543,-641.5 1543,-622.5 1454,-622.5"/>
<text text-anchor="middle" x="1498.5" y="-629.5" font-family="Helvetica,sans-Serif" font-size="10.00">pair&lt; int, int &gt;</text>
</a>
</g>
</g>
<!-- Node33&#45;&gt;Node13 -->
<g id="edge41" class="edge">
<title>Node33&#45;&gt;Node13</title>
<path fill="none" stroke="#9a32cd" stroke-dasharray="5,2" d="M1553.36,-627.86C1614.42,-626 1714.13,-631.83 1781,-681 1795.09,-691.36 1787.01,-703.26 1799,-716 1816.61,-734.71 1842.6,-748.83 1861.4,-757.42"/>
<polygon fill="#9a32cd" stroke="#9a32cd" points="1553.03,-624.37 1543.17,-628.26 1553.3,-631.37 1553.03,-624.37"/>
<text text-anchor="middle" x="1690.5" y="-684" font-family="Helvetica,sans-Serif" font-size="10.00"> loHiFERank</text>
</g>
<!-- Node34 -->
<g id="node34" class="node">
<title>Node34</title>
<g id="a_node34"><a xlink:title=" ">
<polygon fill="white" stroke="#bfbfbf" points="1428.5,-584.5 1428.5,-603.5 1568.5,-603.5 1568.5,-584.5 1428.5,-584.5"/>
<text text-anchor="middle" x="1498.5" y="-591.5" font-family="Helvetica,sans-Serif" font-size="10.00">weak_ptr&lt; CacheTuple &gt;</text>
</a>
</g>
</g>
<!-- Node34&#45;&gt;Node13 -->
<g id="edge42" class="edge">
<title>Node34&#45;&gt;Node13</title>
<path fill="none" stroke="#9a32cd" stroke-dasharray="5,2" d="M1578.61,-588.86C1651.36,-585.94 1752.18,-587.07 1781,-613 1815.55,-644.08 1772.6,-677.76 1799,-716 1812.81,-736 1837.23,-749.38 1856.53,-757.39"/>
<polygon fill="#9a32cd" stroke="#9a32cd" points="1578.38,-585.37 1568.54,-589.3 1578.68,-592.36 1578.38,-585.37"/>
<text text-anchor="middle" x="1690.5" y="-616" font-family="Helvetica,sans-Serif" font-size="10.00"> cacheWeakPtr</text>
</g>
<!-- Node35 -->
<g id="node35" class="node">
<title>Node35</title>
<g id="a_node35"><a xlink:title=" ">
<polygon fill="white" stroke="#bfbfbf" points="1442.5,-541.5 1442.5,-560.5 1554.5,-560.5 1554.5,-541.5 1442.5,-541.5"/>
<text text-anchor="middle" x="1498.5" y="-548.5" font-family="Helvetica,sans-Serif" font-size="10.00">unique_ptr&lt; bool &gt;</text>
</a>
</g>
</g>
<!-- Node35&#45;&gt;Node13 -->
<g id="edge43" class="edge">
<title>Node35&#45;&gt;Node13</title>
<path fill="none" stroke="#9a32cd" stroke-dasharray="5,2" d="M1537.76,-538.54C1597.96,-521.59 1714.76,-499.86 1781,-561 1806.48,-584.52 1780.13,-686.91 1799,-716 1812.13,-736.24 1836.36,-749.54 1855.76,-757.46"/>
<polygon fill="#9a32cd" stroke="#9a32cd" points="1536.51,-535.25 1527.9,-541.42 1538.48,-541.97 1536.51,-535.25"/>
<text text-anchor="middle" x="1690.5" y="-575" font-family="Helvetica,sans-Serif" font-size="10.00"> matAssembleSwitch</text>
<text text-anchor="middle" x="1690.5" y="-564" font-family="Helvetica,sans-Serif" font-size="10.00">vecAssembleSwitch</text>
</g>
<!-- Node36 -->
<g id="node36" class="node">
<title>Node36</title>
<g id="a_node36"><a xlink:title=" ">
<polygon fill="white" stroke="#bfbfbf" points="1127,-929.5 1127,-948.5 1156,-948.5 1156,-929.5 1127,-929.5"/>
<text text-anchor="middle" x="1141.5" y="-936.5" font-family="Helvetica,sans-Serif" font-size="10.00">int</text>
</a>
</g>
</g>
<!-- Node36&#45;&gt;Node13 -->
<g id="edge44" class="edge">
<title>Node36&#45;&gt;Node13</title>
<path fill="none" stroke="#9a32cd" stroke-dasharray="5,2" d="M1166.17,-933.4C1189.99,-927.95 1227.85,-919.81 1261,-915 1375.81,-898.35 1682.67,-930.55 1781,-869 1794.18,-860.75 1788.9,-850.82 1799,-839 1821.01,-813.24 1852.83,-789.24 1870.96,-776.5"/>
<polygon fill="#9a32cd" stroke="#9a32cd" points="1165.23,-930.02 1156.28,-935.69 1166.81,-936.84 1165.23,-930.02"/>
<text text-anchor="middle" x="1498.5" y="-945" font-family="Helvetica,sans-Serif" font-size="10.00"> sIze</text>
<text text-anchor="middle" x="1498.5" y="-934" font-family="Helvetica,sans-Serif" font-size="10.00">loopSize</text>
<text text-anchor="middle" x="1498.5" y="-923" font-family="Helvetica,sans-Serif" font-size="10.00">nInTheLoop</text>
<text text-anchor="middle" x="1498.5" y="-912" font-family="Helvetica,sans-Serif" font-size="10.00">rAnk</text>
</g>
<!-- Node36&#45;&gt;Node38 -->
<g id="edge56" class="edge">
<title>Node36&#45;&gt;Node38</title>
<path fill="none" stroke="#9a32cd" stroke-dasharray="5,2" d="M1166.3,-934.99C1222.12,-926.11 1359.59,-907.44 1397,-932 1437.82,-958.8 1483.6,-1114.27 1494.88,-1154.5"/>
<polygon fill="#9a32cd" stroke="#9a32cd" points="1165.58,-931.56 1156.28,-936.62 1166.71,-938.47 1165.58,-931.56"/>
<text text-anchor="middle" x="1329" y="-1001" font-family="Helvetica,sans-Serif" font-size="10.00"> tagNameSize</text>
<text text-anchor="middle" x="1329" y="-990" font-family="Helvetica,sans-Serif" font-size="10.00">nbDofsRow</text>
<text text-anchor="middle" x="1329" y="-979" font-family="Helvetica,sans-Serif" font-size="10.00">nbLocDofsCol</text>
<text text-anchor="middle" x="1329" y="-968" font-family="Helvetica,sans-Serif" font-size="10.00">nbDofsCol</text>
<text text-anchor="middle" x="1329" y="-957" font-family="Helvetica,sans-Serif" font-size="10.00">nbGhostDofsRow</text>
<text text-anchor="middle" x="1329" y="-946" font-family="Helvetica,sans-Serif" font-size="10.00">nbGhostDofsCol</text>
<text text-anchor="middle" x="1329" y="-935" font-family="Helvetica,sans-Serif" font-size="10.00">nbLocDofsRow</text>
</g>
<!-- Node37 -->
<g id="node37" class="node">
<title>Node37</title>
<g id="a_node37"><a xlink:title=" ">
<polygon fill="white" stroke="#bfbfbf" points="1415,-1192.5 1415,-1211.5 1582,-1211.5 1582,-1192.5 1415,-1192.5"/>
<text text-anchor="middle" x="1498.5" y="-1199.5" font-family="Helvetica,sans-Serif" font-size="10.00">function&lt; MoFEMErrorCode()&gt;</text>
</a>
</g>
</g>
<!-- Node37&#45;&gt;Node13 -->
<g id="edge45" class="edge">
<title>Node37&#45;&gt;Node13</title>
<path fill="none" stroke="#9a32cd" stroke-dasharray="5,2" d="M1592.17,-1199.14C1656.13,-1191.78 1737.25,-1170.65 1781,-1113 1817.88,-1064.39 1771.38,-893.41 1799,-839 1813.72,-810 1845.83,-788.2 1866.38,-776.54"/>
<polygon fill="#9a32cd" stroke="#9a32cd" points="1591.64,-1195.68 1582.06,-1200.21 1592.37,-1202.64 1591.64,-1195.68"/>
<text text-anchor="middle" x="1690.5" y="-1222" font-family="Helvetica,sans-Serif" font-size="10.00"> preProcessHook</text>
<text text-anchor="middle" x="1690.5" y="-1211" font-family="Helvetica,sans-Serif" font-size="10.00">operatorHook</text>
<text text-anchor="middle" x="1690.5" y="-1200" font-family="Helvetica,sans-Serif" font-size="10.00">postProcessHook</text>
</g>
<!-- Node38&#45;&gt;Node13 -->
<g id="edge46" class="edge">
<title>Node38&#45;&gt;Node13</title>
<path fill="none" stroke="#9a32cd" stroke-dasharray="5,2" d="M1525.24,-1149.03C1581.21,-1115.06 1714.3,-1026.39 1781,-915 1798.83,-885.22 1780.76,-868.54 1799,-839 1816.29,-811 1848.23,-788.59 1867.94,-776.59"/>
<polygon fill="#9a32cd" stroke="#9a32cd" points="1523.11,-1146.22 1516.33,-1154.37 1526.71,-1152.23 1523.11,-1146.22"/>
<text text-anchor="middle" x="1690.5" y="-1101" font-family="Helvetica,sans-Serif" font-size="10.00"> problemPtr</text>
</g>
<!-- Node39 -->
<g id="node39" class="node">
<title>Node39</title>
<g id="a_node39"><a xlink:title=" ">
<polygon fill="white" stroke="#bfbfbf" points="1058,-1381 1058,-1411 1225,-1411 1225,-1381 1058,-1381"/>
<text text-anchor="start" x="1066" y="-1399" font-family="Helvetica,sans-Serif" font-size="10.00">shared_ptr&lt; NumeredEntFinite</text>
<text text-anchor="middle" x="1141.5" y="-1388" font-family="Helvetica,sans-Serif" font-size="10.00">Element_multiIndex &gt;</text>
</a>
</g>
</g>
<!-- Node39&#45;&gt;Node38 -->
<g id="edge47" class="edge">
<title>Node39&#45;&gt;Node38</title>
<path fill="none" stroke="#9a32cd" stroke-dasharray="5,2" d="M1235.17,-1383.49C1306.74,-1373.63 1394.1,-1361.04 1397,-1358 1424,-1329.73 1389.12,-1212.3 1415,-1183 1423.56,-1173.31 1435.99,-1168.03 1448.61,-1165.28"/>
<polygon fill="#9a32cd" stroke="#9a32cd" points="1234.62,-1380.03 1225.19,-1384.86 1235.57,-1386.97 1234.62,-1380.03"/>
<text text-anchor="middle" x="1329" y="-1381" font-family="Helvetica,sans-Serif" font-size="10.00"> numeredFiniteElementsPtr</text>
</g>
<!-- Node40 -->
<g id="node40" class="node">
<title>Node40</title>
<g id="a_node40"><a xlink:title=" ">
<polygon fill="white" stroke="#bfbfbf" points="1112,-1342.5 1112,-1361.5 1171,-1361.5 1171,-1342.5 1112,-1342.5"/>
<text text-anchor="middle" x="1141.5" y="-1349.5" font-family="Helvetica,sans-Serif" font-size="10.00">BitFEId *</text>
</a>
</g>
</g>
<!-- Node40&#45;&gt;Node38 -->
<g id="edge48" class="edge">
<title>Node40&#45;&gt;Node38</title>
<path fill="none" stroke="#9a32cd" stroke-dasharray="5,2" d="M1181.7,-1350C1249.28,-1346.17 1381.98,-1336.85 1397,-1322 1441.3,-1278.2 1373.15,-1229.14 1415,-1183 1423.69,-1173.42 1436.15,-1168.18 1448.77,-1165.43"/>
<polygon fill="#9a32cd" stroke="#9a32cd" points="1181.23,-1346.52 1171.44,-1350.57 1181.61,-1353.51 1181.23,-1346.52"/>
<text text-anchor="middle" x="1329" y="-1347" font-family="Helvetica,sans-Serif" font-size="10.00"> tagBitFEId</text>
</g>
<!-- Node41 -->
<g id="node41" class="node">
<title>Node41</title>
<g id="a_node41"><a xlink:href="classEntityHandle.html" target="_top" xlink:title=" ">
<polygon fill="white" stroke="black" points="1101.5,-1304.5 1101.5,-1323.5 1181.5,-1323.5 1181.5,-1304.5 1101.5,-1304.5"/>
<text text-anchor="middle" x="1141.5" y="-1311.5" font-family="Helvetica,sans-Serif" font-size="10.00">EntityHandle</text>
</a>
</g>
</g>
<!-- Node41&#45;&gt;Node38 -->
<g id="edge49" class="edge">
<title>Node41&#45;&gt;Node38</title>
<path fill="none" stroke="#9a32cd" stroke-dasharray="5,2" d="M1192.05,-1311.71C1261.87,-1308.01 1382.38,-1299.73 1397,-1286 1430.89,-1254.2 1383.03,-1216.73 1415,-1183 1423.8,-1173.72 1436.14,-1168.55 1448.61,-1165.78"/>
<polygon fill="#9a32cd" stroke="#9a32cd" points="1191.53,-1308.23 1181.72,-1312.24 1191.89,-1315.22 1191.53,-1308.23"/>
<text text-anchor="middle" x="1329" y="-1310" font-family="Helvetica,sans-Serif" font-size="10.00"> meshset</text>
</g>
<!-- Node42 -->
<g id="node42" class="node">
<title>Node42</title>
<g id="a_node42"><a xlink:title=" ">
<polygon fill="white" stroke="#bfbfbf" points="1067,-1255 1067,-1285 1216,-1285 1216,-1255 1067,-1255"/>
<text text-anchor="start" x="1075" y="-1273" font-family="Helvetica,sans-Serif" font-size="10.00">shared_ptr&lt; MoFEM::</text>
<text text-anchor="middle" x="1141.5" y="-1262" font-family="Helvetica,sans-Serif" font-size="10.00">ComposedProblemsData &gt;</text>
</a>
</g>
</g>
<!-- Node42&#45;&gt;Node38 -->
<g id="edge50" class="edge">
<title>Node42&#45;&gt;Node38</title>
<path fill="none" stroke="#9a32cd" stroke-dasharray="5,2" d="M1226.28,-1272.38C1290.29,-1272.41 1371.7,-1268.03 1397,-1247 1419.73,-1228.11 1393.61,-1203.39 1415,-1183 1424.15,-1174.28 1436.46,-1169.27 1448.78,-1166.47"/>
<polygon fill="#9a32cd" stroke="#9a32cd" points="1226.18,-1268.88 1216.17,-1272.34 1226.15,-1275.88 1226.18,-1268.88"/>
<text text-anchor="middle" x="1329" y="-1274" font-family="Helvetica,sans-Serif" font-size="10.00"> composedProblemsData</text>
</g>
<!-- Node43 -->
<g id="node43" class="node">
<title>Node43</title>
<g id="a_node43"><a xlink:title=" ">
<polygon fill="white" stroke="#bfbfbf" points="1101,-1216.5 1101,-1235.5 1182,-1235.5 1182,-1216.5 1101,-1216.5"/>
<text text-anchor="middle" x="1141.5" y="-1223.5" font-family="Helvetica,sans-Serif" font-size="10.00">BitRefLevel *</text>
</a>
</g>
</g>
<!-- Node43&#45;&gt;Node38 -->
<g id="edge51" class="edge">
<title>Node43&#45;&gt;Node38</title>
<path fill="none" stroke="#9a32cd" stroke-dasharray="5,2" d="M1192.26,-1225.06C1255.84,-1223.19 1361.88,-1217.61 1397,-1201 1407.23,-1196.16 1405.1,-1188.48 1415,-1183 1425.29,-1177.3 1437.2,-1173.31 1448.72,-1170.51"/>
<polygon fill="#9a32cd" stroke="#9a32cd" points="1191.95,-1221.57 1182.05,-1225.34 1192.14,-1228.57 1191.95,-1221.57"/>
<text text-anchor="middle" x="1329" y="-1235" font-family="Helvetica,sans-Serif" font-size="10.00"> tagBitRefLevelMask</text>
<text text-anchor="middle" x="1329" y="-1224" font-family="Helvetica,sans-Serif" font-size="10.00">tagBitRefLevel</text>
</g>
<!-- Node44 -->
<g id="node44" class="node">
<title>Node44</title>
<g id="a_node44"><a xlink:title=" ">
<polygon fill="white" stroke="#bfbfbf" points="1056.5,-1167 1056.5,-1197 1226.5,-1197 1226.5,-1167 1056.5,-1167"/>
<text text-anchor="start" x="1064.5" y="-1185" font-family="Helvetica,sans-Serif" font-size="10.00">shared_ptr&lt; NumeredDofEntity</text>
<text text-anchor="middle" x="1141.5" y="-1174" font-family="Helvetica,sans-Serif" font-size="10.00">_multiIndex &gt;</text>
</a>
</g>
</g>
<!-- Node44&#45;&gt;Node38 -->
<g id="edge52" class="edge">
<title>Node44&#45;&gt;Node38</title>
<path fill="none" stroke="#9a32cd" stroke-dasharray="5,2" d="M1236.96,-1177.21C1305.2,-1173.75 1394.57,-1169.22 1448.92,-1166.46"/>
<polygon fill="#9a32cd" stroke="#9a32cd" points="1236.44,-1173.73 1226.63,-1177.73 1236.79,-1180.72 1236.44,-1173.73"/>
<text text-anchor="middle" x="1329" y="-1189" font-family="Helvetica,sans-Serif" font-size="10.00"> numeredRowDofsPtr</text>
<text text-anchor="middle" x="1329" y="-1178" font-family="Helvetica,sans-Serif" font-size="10.00">numeredColDofsPtr</text>
</g>
<!-- Node45 -->
<g id="node45" class="node">
<title>Node45</title>
<g id="a_node45"><a xlink:title=" ">
<polygon fill="white" stroke="#bfbfbf" points="1072.5,-1128.5 1072.5,-1147.5 1210.5,-1147.5 1210.5,-1128.5 1072.5,-1128.5"/>
<text text-anchor="middle" x="1141.5" y="-1135.5" font-family="Helvetica,sans-Serif" font-size="10.00">vector&lt; BlockFieldPair &gt;</text>
</a>
</g>
</g>
<!-- Node45&#45;&gt;Node38 -->
<g id="edge54" class="edge">
<title>Node45&#45;&gt;Node38</title>
<path fill="none" stroke="#9a32cd" stroke-dasharray="5,2" d="M1220.77,-1142.18C1271.13,-1145.06 1337.97,-1149.21 1397,-1154 1413.95,-1155.38 1432.49,-1157.14 1448.97,-1158.81"/>
<polygon fill="#9a32cd" stroke="#9a32cd" points="1220.78,-1138.68 1210.6,-1141.61 1220.39,-1145.67 1220.78,-1138.68"/>
<text text-anchor="middle" x="1329" y="-1157" font-family="Helvetica,sans-Serif" font-size="10.00"> emptyFieldBlocks</text>
</g>
<!-- Node46 -->
<g id="node46" class="node">
<title>Node46</title>
<g id="a_node46"><a xlink:title=" ">
<polygon fill="white" stroke="#bfbfbf" points="1063.5,-1079 1063.5,-1109 1219.5,-1109 1219.5,-1079 1063.5,-1079"/>
<text text-anchor="start" x="1071.5" y="-1097" font-family="Helvetica,sans-Serif" font-size="10.00">shared_ptr&lt; MoFEM::</text>
<text text-anchor="middle" x="1141.5" y="-1086" font-family="Helvetica,sans-Serif" font-size="10.00">Problem::SubProblemData &gt;</text>
</a>
</g>
</g>
<!-- Node46&#45;&gt;Node38 -->
<g id="edge55" class="edge">
<title>Node46&#45;&gt;Node38</title>
<path fill="none" stroke="#9a32cd" stroke-dasharray="5,2" d="M1229.56,-1101.65C1279.09,-1107.08 1342.03,-1115.79 1397,-1129 1424.13,-1135.52 1454.22,-1146.53 1474.34,-1154.46"/>
<polygon fill="#9a32cd" stroke="#9a32cd" points="1229.84,-1098.16 1219.52,-1100.58 1229.09,-1105.12 1229.84,-1098.16"/>
<text text-anchor="middle" x="1329" y="-1132" font-family="Helvetica,sans-Serif" font-size="10.00"> subProblemData</text>
</g>
<!-- Node47 -->
<g id="node47" class="node">
<title>Node47</title>
<g id="a_node47"><a xlink:title=" ">
<polygon fill="white" stroke="#bfbfbf" points="1040,-1040.5 1040,-1059.5 1243,-1059.5 1243,-1040.5 1040,-1040.5"/>
<text text-anchor="middle" x="1141.5" y="-1047.5" font-family="Helvetica,sans-Serif" font-size="10.00">shared_ptr&lt; SequenceDofContainer &gt;</text>
</a>
</g>
</g>
<!-- Node47&#45;&gt;Node38 -->
<g id="edge57" class="edge">
<title>Node47&#45;&gt;Node38</title>
<path fill="none" stroke="#9a32cd" stroke-dasharray="5,2" d="M1253.27,-1048.65C1299.31,-1051.6 1352.31,-1059.7 1397,-1079 1437.49,-1096.49 1474.05,-1135.92 1489.59,-1154.27"/>
<polygon fill="#9a32cd" stroke="#9a32cd" points="1253.43,-1045.16 1243.25,-1048.09 1253.04,-1052.15 1253.43,-1045.16"/>
<text text-anchor="middle" x="1329" y="-1093" font-family="Helvetica,sans-Serif" font-size="10.00"> sequenceRowDofContainer</text>
<text text-anchor="middle" x="1329" y="-1082" font-family="Helvetica,sans-Serif" font-size="10.00">sequenceColDofContainer</text>
</g>
<!-- Node48 -->
<g id="node48" class="node">
<title>Node48</title>
<g id="a_node48"><a xlink:title=" ">
<polygon fill="white" stroke="#bfbfbf" points="1097.5,-1002.5 1097.5,-1021.5 1185.5,-1021.5 1185.5,-1002.5 1097.5,-1002.5"/>
<text text-anchor="middle" x="1141.5" y="-1009.5" font-family="Helvetica,sans-Serif" font-size="10.00">BitProblemId *</text>
</a>
</g>
</g>
<!-- Node48&#45;&gt;Node38 -->
<g id="edge58" class="edge">
<title>Node48&#45;&gt;Node38</title>
<path fill="none" stroke="#9a32cd" stroke-dasharray="5,2" d="M1195.99,-1011.65C1260.23,-1012.08 1363.53,-1015.74 1397,-1034 1448.59,-1062.15 1482.23,-1129.17 1493.4,-1154.28"/>
<polygon fill="#9a32cd" stroke="#9a32cd" points="1195.65,-1008.15 1185.64,-1011.61 1195.62,-1015.15 1195.65,-1008.15"/>
<text text-anchor="middle" x="1329" y="-1037" font-family="Helvetica,sans-Serif" font-size="10.00"> tagId</text>
</g>
<!-- Node49 -->
<g id="node49" class="node">
<title>Node49</title>
<g id="a_node49"><a xlink:title=" ">
<polygon fill="white" stroke="#bfbfbf" points="1805,-848 1805,-878 1967,-878 1967,-848 1805,-848"/>
<text text-anchor="start" x="1813" y="-866" font-family="Helvetica,sans-Serif" font-size="10.00">shared_ptr&lt; const MoFEM</text>
<text text-anchor="middle" x="1886" y="-855" font-family="Helvetica,sans-Serif" font-size="10.00">::NumeredEntFiniteElement &gt;</text>
</a>
</g>
</g>
<!-- Node49&#45;&gt;Node12 -->
<g id="edge59" class="edge">
<title>Node49&#45;&gt;Node12</title>
<path fill="none" stroke="#9a32cd" stroke-dasharray="5,2" d="M1977.54,-869.15C2048.18,-873.95 2143.85,-880.45 2202.4,-884.43"/>
<polygon fill="#9a32cd" stroke="#9a32cd" points="1977.52,-865.64 1967.3,-868.46 1977.04,-872.63 1977.52,-865.64"/>
<text text-anchor="middle" x="2063" y="-882" font-family="Helvetica,sans-Serif" font-size="10.00"> numeredEntFiniteElementPtr</text>
</g>
<!-- Node50 -->
<g id="node50" class="node">
<title>Node50</title>
<g id="a_node50"><a xlink:title=" ">
<polygon fill="white" stroke="#bfbfbf" points="1864,-1157.5 1864,-1176.5 1908,-1176.5 1908,-1157.5 1864,-1157.5"/>
<text text-anchor="middle" x="1886" y="-1164.5" font-family="Helvetica,sans-Serif" font-size="10.00">string</text>
</a>
</g>
</g>
<!-- Node50&#45;&gt;Node3 -->
<g id="edge82" class="edge">
<title>Node50&#45;&gt;Node3</title>
<path fill="none" stroke="#9a32cd" stroke-dasharray="5,2" d="M1918.12,-1175.22C2063.13,-1213.5 2673.5,-1374.65 2863.97,-1424.94"/>
<polygon fill="#9a32cd" stroke="#9a32cd" points="1918.69,-1171.75 1908.12,-1172.58 1916.9,-1178.51 1918.69,-1171.75"/>
<text text-anchor="middle" x="2458" y="-1351" font-family="Helvetica,sans-Serif" font-size="10.00"> colFieldName</text>
<text text-anchor="middle" x="2458" y="-1340" font-family="Helvetica,sans-Serif" font-size="10.00">rowFieldName</text>
</g>
<!-- Node50&#45;&gt;Node12 -->
<g id="edge60" class="edge">
<title>Node50&#45;&gt;Node12</title>
<path fill="none" stroke="#9a32cd" stroke-dasharray="5,2" d="M1902.09,-1149.95C1948.94,-1097.45 2092.31,-939.82 2153,-908 2168.1,-900.08 2185.96,-895.28 2202.47,-892.38"/>
<polygon fill="#9a32cd" stroke="#9a32cd" points="1899.46,-1147.64 1895.43,-1157.44 1904.69,-1152.3 1899.46,-1147.64"/>
<text text-anchor="middle" x="2063" y="-1054" font-family="Helvetica,sans-Serif" font-size="10.00"> feName</text>
</g>
<!-- Node51 -->
<g id="node51" class="node">
<title>Node51</title>
<g id="a_node51"><a xlink:title=" ">
<polygon fill="white" stroke="#bfbfbf" points="1804.5,-897 1804.5,-927 1967.5,-927 1967.5,-897 1804.5,-897"/>
<text text-anchor="start" x="1812.5" y="-915" font-family="Helvetica,sans-Serif" font-size="10.00">function&lt; bool(MoFEM</text>
<text text-anchor="middle" x="1886" y="-904" font-family="Helvetica,sans-Serif" font-size="10.00">::FEMethod *fe_method_ptr)&gt;</text>
</a>
</g>
</g>
<!-- Node51&#45;&gt;Node12 -->
<g id="edge61" class="edge">
<title>Node51&#45;&gt;Node12</title>
<path fill="none" stroke="#9a32cd" stroke-dasharray="5,2" d="M1977.98,-906.07C2048.52,-901.47 2143.82,-895.25 2202.26,-891.44"/>
<polygon fill="#9a32cd" stroke="#9a32cd" points="1977.51,-902.59 1967.76,-906.73 1977.97,-909.57 1977.51,-902.59"/>
<text text-anchor="middle" x="2063" y="-907" font-family="Helvetica,sans-Serif" font-size="10.00"> exeTestHook</text>
</g>
<!-- Node52 -->
<g id="node52" class="node">
<title>Node52</title>
<g id="a_node52"><a xlink:href="classdouble.html" target="_top" xlink:title=" ">
<polygon fill="white" stroke="black" points="2231,-654.5 2231,-673.5 2281,-673.5 2281,-654.5 2231,-654.5"/>
<text text-anchor="middle" x="2256" y="-661.5" font-family="Helvetica,sans-Serif" font-size="10.00">double</text>
</a>
</g>
</g>
<!-- Node52&#45;&gt;Node11 -->
<g id="edge62" class="edge">
<title>Node52&#45;&gt;Node11</title>
<path fill="none" stroke="#9a32cd" stroke-dasharray="5,2" d="M2291.25,-658.73C2345.83,-651.8 2454.93,-644.08 2539,-677 2581.06,-693.47 2618.22,-734.75 2633.55,-753.48"/>
<polygon fill="#9a32cd" stroke="#9a32cd" points="2290.53,-655.29 2281.09,-660.09 2291.46,-662.23 2290.53,-655.29"/>
<text text-anchor="middle" x="2458" y="-680" font-family="Helvetica,sans-Serif" font-size="10.00"> elementMeasure</text>
</g>
<!-- Node53 -->
<g id="node53" class="node">
<title>Node53</title>
<g id="a_node53"><a xlink:title=" ">
<polygon fill="white" stroke="#bfbfbf" points="2170,-594.5 2170,-635.5 2342,-635.5 2342,-594.5 2170,-594.5"/>
<text text-anchor="start" x="2178" y="-623.5" font-family="Helvetica,sans-Serif" font-size="10.00">array&lt; boost::shared</text>
<text text-anchor="start" x="2178" y="-612.5" font-family="Helvetica,sans-Serif" font-size="10.00">_ptr&lt; MoFEM::EntitiesFieldData</text>
<text text-anchor="middle" x="2256" y="-601.5" font-family="Helvetica,sans-Serif" font-size="10.00"> &gt;, LASTSPACE &gt;</text>
</a>
</g>
</g>
<!-- Node53&#45;&gt;Node11 -->
<g id="edge63" class="edge">
<title>Node53&#45;&gt;Node11</title>
<path fill="none" stroke="#9a32cd" stroke-dasharray="5,2" d="M2352.26,-598.92C2409.56,-593.9 2482.16,-596.05 2539,-626 2593.57,-654.75 2626.8,-727.22 2637.34,-753.39"/>
<polygon fill="#9a32cd" stroke="#9a32cd" points="2351.73,-595.46 2342.11,-599.9 2352.4,-602.43 2351.73,-595.46"/>
<text text-anchor="middle" x="2458" y="-640" font-family="Helvetica,sans-Serif" font-size="10.00"> derivedDataOnElement</text>
<text text-anchor="middle" x="2458" y="-629" font-family="Helvetica,sans-Serif" font-size="10.00">dataOnElement</text>
</g>
<!-- Node54 -->
<g id="node54" class="node">
<title>Node54</title>
<g id="a_node54"><a xlink:title=" ">
<polygon fill="white" stroke="#bfbfbf" points="2222,-556.5 2222,-575.5 2290,-575.5 2290,-556.5 2222,-556.5"/>
<text text-anchor="middle" x="2256" y="-563.5" font-family="Helvetica,sans-Serif" font-size="10.00">EntityType</text>
</a>
</g>
</g>
<!-- Node54&#45;&gt;Node11 -->
<g id="edge64" class="edge">
<title>Node54&#45;&gt;Node11</title>
<path fill="none" stroke="#9a32cd" stroke-dasharray="5,2" d="M2300.36,-563.33C2369.36,-559.9 2500.34,-556.95 2539,-581 2604.81,-621.95 2631.87,-721.62 2638.98,-753.22"/>
<polygon fill="#9a32cd" stroke="#9a32cd" points="2300.04,-559.84 2290.24,-563.86 2300.41,-566.83 2300.04,-559.84"/>
<text text-anchor="middle" x="2458" y="-584" font-family="Helvetica,sans-Serif" font-size="10.00"> lastEvaluatedElementEntityType</text>
</g>
<!-- Node55 -->
<g id="node55" class="node">
<title>Node55</title>
<g id="a_node55"><a xlink:href="structMoFEM_1_1DeprecatedCoreInterface.html" target="_top" xlink:title="Deprecated interface functions.">
<polygon fill="white" stroke="black" points="1600,-334.5 1600,-353.5 1781,-353.5 1781,-334.5 1600,-334.5"/>
<text text-anchor="middle" x="1690.5" y="-341.5" font-family="Helvetica,sans-Serif" font-size="10.00">MoFEM::DeprecatedCoreInterface</text>
</a>
</g>
</g>
<!-- Node55&#45;&gt;Node11 -->
<g id="edge65" class="edge">
<title>Node55&#45;&gt;Node11</title>
<path fill="none" stroke="#9a32cd" stroke-dasharray="5,2" d="M1731.87,-357.49C1749.98,-365.7 1769.76,-378.12 1781,-396 1808.18,-439.21 1764.45,-587.42 1799,-625 1911.43,-747.29 2376.66,-695.74 2539,-731 2565.3,-736.71 2594.53,-746.22 2614.93,-753.39"/>
<polygon fill="#9a32cd" stroke="#9a32cd" points="1733.17,-354.25 1722.6,-353.58 1730.45,-360.7 1733.17,-354.25"/>
<text text-anchor="middle" x="2063" y="-712" font-family="Helvetica,sans-Serif" font-size="10.00"> mField</text>
</g>
<!-- Node56&#45;&gt;Node55 -->
<g id="edge66" class="edge">
<title>Node56&#45;&gt;Node55</title>
<path fill="none" stroke="midnightblue" d="M1214.27,-164.37C1266.03,-167.67 1337.06,-175.49 1397,-194 1511.24,-229.27 1634.39,-307.27 1675.36,-334.44"/>
<polygon fill="midnightblue" stroke="midnightblue" points="1214.37,-160.87 1204.18,-163.77 1213.95,-167.85 1214.37,-160.87"/>
</g>
<!-- Node57 -->
<g id="node57" class="node">
<title>Node57</title>
<g id="a_node57"><a xlink:title=" ">
<polygon fill="white" stroke="#bfbfbf" points="2172.5,-966 2172.5,-1018 2339.5,-1018 2339.5,-966 2172.5,-966"/>
<text text-anchor="start" x="2180.5" y="-1006" font-family="Helvetica,sans-Serif" font-size="10.00">function&lt; MoFEMErrorCode</text>
<text text-anchor="start" x="2180.5" y="-995" font-family="Helvetica,sans-Serif" font-size="10.00">(ForcesAndSourcesCore *fe</text>
<text text-anchor="start" x="2180.5" y="-984" font-family="Helvetica,sans-Serif" font-size="10.00">_raw_ptr, int order_row,</text>
<text text-anchor="middle" x="2256" y="-973" font-family="Helvetica,sans-Serif" font-size="10.00"> int order_col, int order_data)&gt;</text>
</a>
</g>
</g>
<!-- Node57&#45;&gt;Node11 -->
<g id="edge69" class="edge">
<title>Node57&#45;&gt;Node11</title>
<path fill="none" stroke="#9a32cd" stroke-dasharray="5,2" d="M2349.73,-994.12C2408.76,-991.12 2484.14,-978.77 2539,-940 2600.69,-896.4 2630.34,-802.82 2638.56,-772.61"/>
<polygon fill="#9a32cd" stroke="#9a32cd" points="2349.5,-990.63 2339.66,-994.55 2349.8,-997.62 2349.5,-990.63"/>
<text text-anchor="middle" x="2458" y="-994" font-family="Helvetica,sans-Serif" font-size="10.00"> setRuleHook</text>
</g>
<!-- Node58 -->
<g id="node58" class="node">
<title>Node58</title>
<g id="a_node58"><a xlink:title=" ">
<polygon fill="white" stroke="#bfbfbf" points="2155,-917 2155,-947 2357,-947 2357,-917 2155,-917"/>
<text text-anchor="start" x="2163" y="-935" font-family="Helvetica,sans-Serif" font-size="10.00">ptr_deque&lt; MoFEM::Forces</text>
<text text-anchor="middle" x="2256" y="-924" font-family="Helvetica,sans-Serif" font-size="10.00">AndSourcesCore::UserDataOperator &gt;</text>
</a>
</g>
</g>
<!-- Node58&#45;&gt;Node11 -->
<g id="edge70" class="edge">
<title>Node58&#45;&gt;Node11</title>
<path fill="none" stroke="#9a32cd" stroke-dasharray="5,2" d="M2367.1,-926.97C2421.71,-920.51 2486.95,-906.58 2539,-877 2585.64,-850.5 2622.18,-794.84 2635.53,-772.54"/>
<polygon fill="#9a32cd" stroke="#9a32cd" points="2366.58,-923.5 2357.03,-928.09 2367.36,-930.46 2366.58,-923.5"/>
<text text-anchor="middle" x="2458" y="-928" font-family="Helvetica,sans-Serif" font-size="10.00"> opPtrVector</text>
</g>
<!-- Node59 -->
<g id="node59" class="node">
<title>Node59</title>
<g id="a_node59"><a xlink:href="structMoFEM_1_1EntitiesFieldData.html" target="_top" xlink:title="data structure for finite element entity">
<polygon fill="white" stroke="black" points="2185,-486.5 2185,-505.5 2327,-505.5 2327,-486.5 2185,-486.5"/>
<text text-anchor="middle" x="2256" y="-493.5" font-family="Helvetica,sans-Serif" font-size="10.00">MoFEM::EntitiesFieldData</text>
</a>
</g>
</g>
<!-- Node59&#45;&gt;Node11 -->
<g id="edge71" class="edge">
<title>Node59&#45;&gt;Node11</title>
<path fill="none" stroke="#9a32cd" stroke-dasharray="5,2" d="M2297.62,-483.95C2356.58,-469.08 2466.71,-451.5 2539,-502 2627.34,-563.71 2639.17,-714.03 2640.76,-753.42"/>
<polygon fill="#9a32cd" stroke="#9a32cd" points="2296.7,-480.57 2287.92,-486.49 2298.48,-487.34 2296.7,-480.57"/>
<text text-anchor="middle" x="2458" y="-549" font-family="Helvetica,sans-Serif" font-size="10.00"> dataNoField</text>
<text text-anchor="middle" x="2458" y="-538" font-family="Helvetica,sans-Serif" font-size="10.00">dataL2</text>
<text text-anchor="middle" x="2458" y="-527" font-family="Helvetica,sans-Serif" font-size="10.00">dataH1</text>
<text text-anchor="middle" x="2458" y="-516" font-family="Helvetica,sans-Serif" font-size="10.00">dataHcurl</text>
<text text-anchor="middle" x="2458" y="-505" font-family="Helvetica,sans-Serif" font-size="10.00">dataHdiv</text>
</g>
<!-- Node60 -->
<g id="node60" class="node">
<title>Node60</title>
<g id="a_node60"><a xlink:title=" ">
<polygon fill="white" stroke="#bfbfbf" points="1805,-509 1805,-539 1967,-539 1967,-509 1805,-509"/>
<text text-anchor="start" x="1813" y="-527" font-family="Helvetica,sans-Serif" font-size="10.00">array&lt; std::bitset</text>
<text text-anchor="middle" x="1886" y="-516" font-family="Helvetica,sans-Serif" font-size="10.00">&lt; LASTBASE &gt;, LASTSPACE &gt;</text>
</a>
</g>
</g>
<!-- Node60&#45;&gt;Node59 -->
<g id="edge72" class="edge">
<title>Node60&#45;&gt;Node59</title>
<path fill="none" stroke="#9a32cd" stroke-dasharray="5,2" d="M1977.39,-517.12C2041.35,-512.26 2125.88,-505.82 2184.79,-501.34"/>
<polygon fill="#9a32cd" stroke="#9a32cd" points="1977.01,-513.64 1967.3,-517.89 1977.54,-520.62 1977.01,-513.64"/>
<text text-anchor="middle" x="2063" y="-529" font-family="Helvetica,sans-Serif" font-size="10.00"> brokenBasesOnSpaces</text>
<text text-anchor="middle" x="2063" y="-518" font-family="Helvetica,sans-Serif" font-size="10.00">basesOnSpaces</text>
</g>
<!-- Node61 -->
<g id="node61" class="node">
<title>Node61</title>
<g id="a_node61"><a xlink:title=" ">
<polygon fill="white" stroke="#bfbfbf" points="1809.5,-448.5 1809.5,-489.5 1962.5,-489.5 1962.5,-448.5 1809.5,-448.5"/>
<text text-anchor="start" x="1817.5" y="-477.5" font-family="Helvetica,sans-Serif" font-size="10.00">array&lt; boost::ptr_vector</text>
<text text-anchor="start" x="1817.5" y="-466.5" font-family="Helvetica,sans-Serif" font-size="10.00">&lt; MoFEM::EntitiesFieldData</text>
<text text-anchor="middle" x="1886" y="-455.5" font-family="Helvetica,sans-Serif" font-size="10.00">::EntData &gt;, MBMAXTYPE &gt;</text>
</a>
</g>
</g>
<!-- Node61&#45;&gt;Node59 -->
<g id="edge73" class="edge">
<title>Node61&#45;&gt;Node59</title>
<path fill="none" stroke="#9a32cd" stroke-dasharray="5,2" d="M1972.95,-475.31C2037.43,-480.04 2124.61,-486.43 2184.9,-490.86"/>
<polygon fill="#9a32cd" stroke="#9a32cd" points="1973.03,-471.8 1962.8,-474.56 1972.52,-478.78 1973.03,-471.8"/>
<text text-anchor="middle" x="2063" y="-489" font-family="Helvetica,sans-Serif" font-size="10.00"> dataOnEntities</text>
</g>
<!-- Node62 -->
<g id="node62" class="node">
<title>Node62</title>
<g id="a_node62"><a xlink:title=" ">
<polygon fill="white" stroke="#bfbfbf" points="1799,-399 1799,-429 1973,-429 1973,-399 1799,-399"/>
<text text-anchor="start" x="1807" y="-417" font-family="Helvetica,sans-Serif" font-size="10.00">array&lt; std::bitset</text>
<text text-anchor="middle" x="1886" y="-406" font-family="Helvetica,sans-Serif" font-size="10.00">&lt; LASTSPACE &gt;, MBMAXTYPE &gt;</text>
</a>
</g>
</g>
<!-- Node62&#45;&gt;Node59 -->
<g id="edge74" class="edge">
<title>Node62&#45;&gt;Node59</title>
<path fill="none" stroke="#9a32cd" stroke-dasharray="5,2" d="M1983.22,-430.01C2029.36,-438.25 2085.28,-449.07 2135,-461 2166.02,-468.44 2200.98,-478.88 2225.13,-486.42"/>
<polygon fill="#9a32cd" stroke="#9a32cd" points="1983.69,-426.53 1973.23,-428.23 1982.46,-433.43 1983.69,-426.53"/>
<text text-anchor="middle" x="2063" y="-464" font-family="Helvetica,sans-Serif" font-size="10.00"> spacesOnEntities</text>
</g>
<!-- Node63 -->
<g id="node63" class="node">
<title>Node63</title>
<g id="a_node63"><a xlink:title=" ">
<polygon fill="white" stroke="#bfbfbf" points="1801.5,-350 1801.5,-380 1970.5,-380 1970.5,-350 1801.5,-350"/>
<text text-anchor="start" x="1809.5" y="-368" font-family="Helvetica,sans-Serif" font-size="10.00">array&lt; std::bitset</text>
<text text-anchor="middle" x="1886" y="-357" font-family="Helvetica,sans-Serif" font-size="10.00">&lt; LASTBASE &gt;, MBMAXTYPE &gt;</text>
</a>
</g>
</g>
<!-- Node63&#45;&gt;Node59 -->
<g id="edge75" class="edge">
<title>Node63&#45;&gt;Node59</title>
<path fill="none" stroke="#9a32cd" stroke-dasharray="5,2" d="M1980.61,-375.56C2028.15,-383.07 2086.05,-395.57 2135,-416 2178.9,-434.32 2223.74,-469.52 2243.94,-486.44"/>
<polygon fill="#9a32cd" stroke="#9a32cd" points="1981.04,-372.09 1970.63,-374.03 1979.98,-379.01 1981.04,-372.09"/>
<text text-anchor="middle" x="2063" y="-419" font-family="Helvetica,sans-Serif" font-size="10.00"> basesOnEntities</text>
</g>
<!-- Node64 -->
<g id="node64" class="node">
<title>Node64</title>
<g id="a_node64"><a xlink:title=" ">
<polygon fill="white" stroke="#bfbfbf" points="1830,-596.5 1830,-615.5 1942,-615.5 1942,-596.5 1830,-596.5"/>
<text text-anchor="middle" x="1886" y="-603.5" font-family="Helvetica,sans-Serif" font-size="10.00">UBlasMatrix&lt; int &gt;</text>
</a>
</g>
</g>
<!-- Node64&#45;&gt;Node59 -->
<g id="edge76" class="edge">
<title>Node64&#45;&gt;Node59</title>
<path fill="none" stroke="#9a32cd" stroke-dasharray="5,2" d="M1952.17,-613.39C2005.49,-616.12 2080.69,-612.07 2135,-577 2148.06,-568.56 2141.59,-557.56 2153,-547 2173.92,-527.63 2203.58,-513.91 2225.52,-505.62"/>
<polygon fill="#9a32cd" stroke="#9a32cd" points="1952.34,-609.9 1942.15,-612.79 1951.92,-616.88 1952.34,-609.9"/>
<text text-anchor="middle" x="2063" y="-627" font-family="Helvetica,sans-Serif" font-size="10.00"> facesNodesOrder</text>
<text text-anchor="middle" x="2063" y="-616" font-family="Helvetica,sans-Serif" font-size="10.00">facesNodes</text>
</g>
<!-- Node65 -->
<g id="node65" class="node">
<title>Node65</title>
<g id="a_node65"><a xlink:title=" ">
<polygon fill="white" stroke="#bfbfbf" points="1827.5,-558.5 1827.5,-577.5 1944.5,-577.5 1944.5,-558.5 1827.5,-558.5"/>
<text text-anchor="middle" x="1886" y="-565.5" font-family="Helvetica,sans-Serif" font-size="10.00">bitset&lt; LASTBASE &gt;</text>
</a>
</g>
</g>
<!-- Node65&#45;&gt;Node59 -->
<g id="edge77" class="edge">
<title>Node65&#45;&gt;Node59</title>
<path fill="none" stroke="#9a32cd" stroke-dasharray="5,2" d="M1954.93,-565.19C2005.21,-562.01 2075.08,-555.26 2135,-541 2170.93,-532.45 2210.72,-516.07 2234.26,-505.6"/>
<polygon fill="#9a32cd" stroke="#9a32cd" points="1954.6,-561.7 1944.82,-565.8 1955.02,-568.69 1954.6,-561.7"/>
<text text-anchor="middle" x="2063" y="-565" font-family="Helvetica,sans-Serif" font-size="10.00"> bAse</text>
</g>
<!-- Node66 -->
<g id="node66" class="node">
<title>Node66</title>
<g id="a_node66"><a xlink:title=" ">
<polygon fill="white" stroke="#bfbfbf" points="2193.5,-818.5 2193.5,-859.5 2318.5,-859.5 2318.5,-818.5 2193.5,-818.5"/>
<text text-anchor="start" x="2201.5" y="-847.5" font-family="Helvetica,sans-Serif" font-size="10.00">function&lt; int(int order</text>
<text text-anchor="start" x="2201.5" y="-836.5" font-family="Helvetica,sans-Serif" font-size="10.00">_row, int order_col, int</text>
<text text-anchor="middle" x="2256" y="-825.5" font-family="Helvetica,sans-Serif" font-size="10.00"> order_data)&gt;</text>
</a>
</g>
</g>
<!-- Node66&#45;&gt;Node11 -->
<g id="edge78" class="edge">
<title>Node66&#45;&gt;Node11</title>
<path fill="none" stroke="#9a32cd" stroke-dasharray="5,2" d="M2328.69,-834.75C2386.24,-830.17 2468.74,-820.97 2539,-803 2568.3,-795.51 2600.55,-781.89 2620.79,-772.65"/>
<polygon fill="#9a32cd" stroke="#9a32cd" points="2328.31,-831.27 2318.6,-835.52 2328.84,-838.25 2328.31,-831.27"/>
<text text-anchor="middle" x="2458" y="-832" font-family="Helvetica,sans-Serif" font-size="10.00"> getRuleHook</text>
</g>
<!-- Node67 -->
<g id="node67" class="node">
<title>Node67</title>
<g id="a_node67"><a xlink:title=" ">
<polygon fill="white" stroke="#bfbfbf" points="2195,-769 2195,-799 2317,-799 2317,-769 2195,-769"/>
<text text-anchor="start" x="2203" y="-787" font-family="Helvetica,sans-Serif" font-size="10.00">shared_ptr&lt; MoFEM::</text>
<text text-anchor="middle" x="2256" y="-776" font-family="Helvetica,sans-Serif" font-size="10.00">BaseFunction &gt;</text>
</a>
</g>
</g>
<!-- Node67&#45;&gt;Node11 -->
<g id="edge79" class="edge">
<title>Node67&#45;&gt;Node11</title>
<path fill="none" stroke="#9a32cd" stroke-dasharray="5,2" d="M2327.52,-780.14C2392.17,-776.61 2488.01,-771.37 2556.68,-767.61"/>
<polygon fill="#9a32cd" stroke="#9a32cd" points="2327.22,-776.65 2317.42,-780.7 2327.6,-783.64 2327.22,-776.65"/>
<text text-anchor="middle" x="2458" y="-791" font-family="Helvetica,sans-Serif" font-size="10.00"> userPolynomialBasePtr</text>
<text text-anchor="middle" x="2458" y="-780" font-family="Helvetica,sans-Serif" font-size="10.00">elementPolynomialBasePtr</text>
</g>
<!-- Node68 -->
<g id="node68" class="node">
<title>Node68</title>
<g id="a_node68"><a xlink:href="classUBlasMatrix_3_01double_01_4.html" target="_top" xlink:title=" ">
<polygon fill="white" stroke="black" points="2190,-730.5 2190,-749.5 2322,-749.5 2322,-730.5 2190,-730.5"/>
<text text-anchor="middle" x="2256" y="-737.5" font-family="Helvetica,sans-Serif" font-size="10.00">UBlasMatrix&lt; double &gt;</text>
</a>
</g>
</g>
<!-- Node68&#45;&gt;Node11 -->
<g id="edge80" class="edge">
<title>Node68&#45;&gt;Node11</title>
<path fill="none" stroke="#9a32cd" stroke-dasharray="5,2" d="M2332.16,-736.55C2389.11,-734.9 2469.18,-734.64 2539,-742 2560.58,-744.28 2584.34,-749.03 2603.49,-753.44"/>
<polygon fill="#9a32cd" stroke="#9a32cd" points="2332.05,-733.05 2322.17,-736.86 2332.27,-740.04 2332.05,-733.05"/>
<text text-anchor="middle" x="2458" y="-756" font-family="Helvetica,sans-Serif" font-size="10.00"> coordsAtGaussPts</text>
<text text-anchor="middle" x="2458" y="-745" font-family="Helvetica,sans-Serif" font-size="10.00">gaussPts</text>
</g>
<!-- Node69 -->
<g id="node69" class="node">
<title>Node69</title>
<g id="a_node69"><a xlink:title=" ">
<polygon fill="white" stroke="#bfbfbf" points="2576.5,-1574.5 2576.5,-1593.5 2707.5,-1593.5 2707.5,-1574.5 2576.5,-1574.5"/>
<text text-anchor="middle" x="2642" y="-1581.5" font-family="Helvetica,sans-Serif" font-size="10.00">static const char *const</text>
</a>
</g>
</g>
<!-- Node69&#45;&gt;Node3 -->
<g id="edge81" class="edge">
<title>Node69&#45;&gt;Node3</title>
<path fill="none" stroke="#9a32cd" stroke-dasharray="5,2" d="M2707.45,-1571.8C2714.15,-1569.83 2720.78,-1567.57 2727,-1565 2797.15,-1535.96 2869.75,-1481.42 2902.73,-1455.04"/>
<polygon fill="#9a32cd" stroke="#9a32cd" points="2706.34,-1568.48 2697.62,-1574.49 2708.18,-1575.23 2706.34,-1568.48"/>
<text text-anchor="middle" x="2782" y="-1557" font-family="Helvetica,sans-Serif" font-size="10.00"> OpTypeNames</text>
</g>
<!-- Node70 -->
<g id="node70" class="node">
<title>Node70</title>
<g id="a_node70"><a xlink:title=" ">
<polygon fill="white" stroke="#bfbfbf" points="3081.5,-76.5 3081.5,-95.5 3197.5,-95.5 3197.5,-76.5 3081.5,-76.5"/>
<text text-anchor="middle" x="3139.5" y="-83.5" font-family="Helvetica,sans-Serif" font-size="10.00">Block_BodyForces &amp;</text>
</a>
</g>
</g>
<!-- Node70&#45;&gt;Node1 -->
<g id="edge83" class="edge">
<title>Node70&#45;&gt;Node1</title>
<path fill="none" stroke="#9a32cd" stroke-dasharray="5,2" d="M3207.85,-86C3242.77,-86 3285.25,-86 3319.97,-86"/>
<polygon fill="#9a32cd" stroke="#9a32cd" points="3207.75,-82.5 3197.75,-86 3207.75,-89.5 3207.75,-82.5"/>
<text text-anchor="middle" x="3277.5" y="-89" font-family="Helvetica,sans-Serif" font-size="10.00"> dAta</text>
</g>
<!-- Node71 -->
<g id="node71" class="node">
<title>Node71</title>
<g id="a_node71"><a xlink:href="classRange.html" target="_top" xlink:title=" ">
<polygon fill="white" stroke="black" points="3116,-38.5 3116,-57.5 3163,-57.5 3163,-38.5 3116,-38.5"/>
<text text-anchor="middle" x="3139.5" y="-45.5" font-family="Helvetica,sans-Serif" font-size="10.00">Range</text>
</a>
</g>
</g>
<!-- Node71&#45;&gt;Node1 -->
<g id="edge84" class="edge">
<title>Node71&#45;&gt;Node1</title>
<path fill="none" stroke="#9a32cd" stroke-dasharray="5,2" d="M3173.32,-52.33C3205.99,-56.72 3257.53,-63.87 3302,-71 3307.7,-71.92 3313.62,-72.9 3319.55,-73.91"/>
<polygon fill="#9a32cd" stroke="#9a32cd" points="3173.38,-48.81 3163.01,-50.95 3172.45,-55.74 3173.38,-48.81"/>
<text text-anchor="middle" x="3277.5" y="-74" font-family="Helvetica,sans-Serif" font-size="10.00"> blockTets</text>
</g>
<!-- Node72 -->
<g id="node72" class="node">
<title>Node72</title>
<g id="a_node72"><a xlink:title=" ">
<polygon fill="white" stroke="#bfbfbf" points="3098.5,-0.5 3098.5,-19.5 3180.5,-19.5 3180.5,-0.5 3098.5,-0.5"/>
<text text-anchor="middle" x="3139.5" y="-7.5" font-family="Helvetica,sans-Serif" font-size="10.00">VectorDouble</text>
</a>
</g>
</g>
<!-- Node72&#45;&gt;Node1 -->
<g id="edge85" class="edge">
<title>Node72&#45;&gt;Node1</title>
<path fill="none" stroke="#9a32cd" stroke-dasharray="5,2" d="M3190.88,-18.63C3223.2,-24.95 3265.75,-34.74 3302,-48 3320.19,-54.65 3339.95,-63.5 3355.73,-70.99"/>
<polygon fill="#9a32cd" stroke="#9a32cd" points="3191.24,-15.14 3180.77,-16.7 3189.93,-22.02 3191.24,-15.14"/>
<text text-anchor="middle" x="3277.5" y="-51" font-family="Helvetica,sans-Serif" font-size="10.00"> Nf</text>
</g>
</g>
</svg>
        <g id="navigator" transform="translate(0 0)" fill="#404254">
                <rect fill="#f2f5e9" fill-opacity="0.5" stroke="#606060" stroke-width=".5" x="0" y="0" width="60" height="60"/>
                <use id="zoomplus" xlink:href="#zoomPlus" x="17" y="9" onmousedown="handleZoom(evt,'in')"/>
                <use id="zoomminus" xlink:href="#zoomMin" x="42" y="9" onmousedown="handleZoom(evt,'out')"/>
                <use id="reset" xlink:href="#resetDef" x="30" y="36" onmousedown="handleReset()"/>
                <g id="arrowUp" xlink:href="#dirArrow" transform="translate(30 24)" onmousedown="handlePan(0,-1)">
                  <use xlink:href="#rim" fill="#404040">
                        <set attributeName="fill" to="#808080" begin="arrowUp.mouseover" end="arrowUp.mouseout"/>
                  </use>
                  <path fill="none" stroke="white" stroke-width="1.5" d="M0,-3.0v7 M-2.5,-0.5L0,-3.0L2.5,-0.5"/>
                </g>
                <g id="arrowRight" xlink:href="#dirArrow" transform="rotate(90) translate(36 -43)" onmousedown="handlePan(1,0)">
                  <use xlink:href="#rim" fill="#404040">
                        <set attributeName="fill" to="#808080" begin="arrowRight.mouseover" end="arrowRight.mouseout"/>
                  </use>
                  <path fill="none" stroke="white" stroke-width="1.5" d="M0,-3.0v7 M-2.5,-0.5L0,-3.0L2.5,-0.5"/>
                </g>
                <g id="arrowDown" xlink:href="#dirArrow" transform="rotate(180) translate(-30 -48)" onmousedown="handlePan(0,1)">
                  <use xlink:href="#rim" fill="#404040">
                        <set attributeName="fill" to="#808080" begin="arrowDown.mouseover" end="arrowDown.mouseout"/>
                  </use>
                  <path fill="none" stroke="white" stroke-width="1.5" d="M0,-3.0v7 M-2.5,-0.5L0,-3.0L2.5,-0.5"/>
                </g>
                <g id="arrowLeft" xlink:href="#dirArrow" transform="rotate(270) translate(-36 17)" onmousedown="handlePan(-1,0)">
                  <use xlink:href="#rim" fill="#404040">
                        <set attributeName="fill" to="#808080" begin="arrowLeft.mouseover" end="arrowLeft.mouseout"/>
                  </use>
                  <path fill="none" stroke="white" stroke-width="1.5" d="M0,-3.0v7 M-2.5,-0.5L0,-3.0L2.5,-0.5"/>
                </g>
        </g>
        <svg viewBox="0 0 15 15" width="100%" height="30px" preserveAspectRatio="xMaxYMin meet">
         <g id="arrow_out" transform="scale(0.3 0.3)">
          <a xlink:href="structBodyForceConstantField_1_1OpBodyForce__coll__graph_org.svg" target="_base">
           <rect id="button" ry="5" rx="5" y="6" x="6" height="38" width="38"
                fill="#f2f5e9" fill-opacity="0.5" stroke="#606060" stroke-width="1.0"/>
           <path id="arrow"
             d="M 11.500037,31.436501 C 11.940474,20.09759 22.043105,11.32322 32.158766,21.979434 L 37.068811,17.246167 C 37.068811,17.246167 37.088388,32 37.088388,32 L 22.160133,31.978069 C 22.160133,31.978069 26.997745,27.140456 26.997745,27.140456 C 18.528582,18.264221 13.291696,25.230495 11.500037,31.436501 z"
             style="fill:#404040;"/>
          </a>
         </g>
        </svg>
</svg>
