<?xml version="1.0" encoding="UTF-8" standalone="no"?>
<!DOCTYPE svg PUBLIC "-//W3C//DTD SVG 1.1//EN"
 "http://www.w3.org/Graphics/SVG/1.1/DTD/svg11.dtd">
<!-- Generated by graphviz version 2.43.0 (0)
 -->
<!-- Title: FractureMechanics::GriffithForceElement::OpConstrainsDelta Pages: 1 -->
<!--zoomable 1210 -->
<svg id="main" version="1.1" xmlns="http://www.w3.org/2000/svg" xmlns:xlink="http://www.w3.org/1999/xlink" xml:space="preserve" onload="init(evt)">
<style type="text/css"><![CDATA[
.edge:hover path { stroke: red; }
.edge:hover polygon { stroke: red; fill: red; }
]]></style>
<script type="text/javascript"><![CDATA[
var edges = document.getElementsByTagName('g');
if (edges && edges.length) {
  for (var i=0;i<edges.length;i++) {
    if (edges[i].id.substr(0,4)=='edge') {
      edges[i].setAttribute('class','edge');
    }
  }
}
]]></script>
        <defs>
                <circle id="rim" cx="0" cy="0" r="7"/>
                <circle id="rim2" cx="0" cy="0" r="3.5"/>
                <g id="zoomPlus">
                        <use xlink:href="#rim" fill="#404040">
                                <set attributeName="fill" to="#808080" begin="zoomplus.mouseover" end="zoomplus.mouseout"/>
                        </use>
                        <path d="M-4,0h8M0,-4v8" fill="none" stroke="white" stroke-width="1.5" pointer-events="none"/>
                </g>
                <g id="zoomMin">
                        <use xlink:href="#rim" fill="#404040">
                                <set attributeName="fill" to="#808080" begin="zoomminus.mouseover" end="zoomminus.mouseout"/>
                        </use>
                        <path d="M-4,0h8" fill="none" stroke="white" stroke-width="1.5" pointer-events="none"/>
                </g>
                <g id="dirArrow">
                        <path fill="none" stroke="white" stroke-width="1.5" d="M0,-3.0v7 M-2.5,-0.5L0,-3.0L2.5,-0.5"/>
                </g>
               <g id="resetDef">
                       <use xlink:href="#rim2" fill="#404040">
                               <set attributeName="fill" to="#808080" begin="reset.mouseover" end="reset.mouseout"/>
                       </use>
               </g>
        </defs>

<script type="text/javascript">
var viewWidth = 1818;
var viewHeight = 1210;
var sectionId = 'dynsection-1';
</script>
<script xlink:href="svgpan.js"/>
<svg id="graph" class="graph">
<g id="viewport">
<title>FractureMechanics::GriffithForceElement::OpConstrainsDelta</title>
<polygon fill="white" stroke="transparent" points="-4,4 -4,-1206 1814,-1206 1814,4 -4,4"/>
<!-- Node1 -->
<g id="node1" class="node">
<title>Node1</title>
<g id="a_node1"><a xlink:title=" ">
<polygon fill="#bfbfbf" stroke="black" points="1693,-226.5 1693,-267.5 1810,-267.5 1810,-226.5 1693,-226.5"/>
<text text-anchor="start" x="1701" y="-255.5" font-family="Helvetica,sans-Serif" font-size="10.00">FractureMechanics::</text>
<text text-anchor="start" x="1701" y="-244.5" font-family="Helvetica,sans-Serif" font-size="10.00">GriffithForceElement</text>
<text text-anchor="middle" x="1751.5" y="-233.5" font-family="Helvetica,sans-Serif" font-size="10.00">::OpConstrainsDelta</text>
</a>
</g>
</g>
<!-- Node2 -->
<g id="node2" class="node">
<title>Node2</title>
<g id="a_node2"><a xlink:title=" ">
<polygon fill="white" stroke="#bfbfbf" points="1421,-753.5 1421,-772.5 1526,-772.5 1526,-753.5 1421,-753.5"/>
<text text-anchor="middle" x="1473.5" y="-760.5" font-family="Helvetica,sans-Serif" font-size="10.00">UserDataOperator</text>
</a>
</g>
</g>
<!-- Node2&#45;&gt;Node1 -->
<g id="edge1" class="edge">
<title>Node2&#45;&gt;Node1</title>
<path fill="none" stroke="midnightblue" d="M1535.75,-757.43C1545.86,-754.5 1555.72,-750.21 1564,-744 1725.42,-622.84 1747.15,-345.26 1750.05,-267.55"/>
<polygon fill="midnightblue" stroke="midnightblue" points="1534.89,-754.03 1526.03,-759.84 1536.58,-760.83 1534.89,-754.03"/>
</g>
<!-- Node3 -->
<g id="node3" class="node">
<title>Node3</title>
<g id="a_node3"><a xlink:href="structFractureMechanics_1_1GriffithForceElement_1_1AuxOp.html" target="_top" xlink:title=" ">
<polygon fill="white" stroke="black" points="1415,-278.5 1415,-319.5 1532,-319.5 1532,-278.5 1415,-278.5"/>
<text text-anchor="start" x="1423" y="-307.5" font-family="Helvetica,sans-Serif" font-size="10.00">FractureMechanics::</text>
<text text-anchor="start" x="1423" y="-296.5" font-family="Helvetica,sans-Serif" font-size="10.00">GriffithForceElement</text>
<text text-anchor="middle" x="1473.5" y="-285.5" font-family="Helvetica,sans-Serif" font-size="10.00">::AuxOp</text>
</a>
</g>
</g>
<!-- Node3&#45;&gt;Node1 -->
<g id="edge2" class="edge">
<title>Node3&#45;&gt;Node1</title>
<path fill="none" stroke="midnightblue" d="M1541.93,-286.29C1588.08,-277.6 1648.62,-266.2 1692.58,-257.91"/>
<polygon fill="midnightblue" stroke="midnightblue" points="1541.2,-282.87 1532.02,-288.16 1542.5,-289.75 1541.2,-282.87"/>
</g>
<!-- Node4 -->
<g id="node4" class="node">
<title>Node4</title>
<g id="a_node4"><a xlink:title=" ">
<polygon fill="white" stroke="#bfbfbf" points="1103,-310.5 1103,-329.5 1191,-329.5 1191,-310.5 1103,-310.5"/>
<text text-anchor="middle" x="1147" y="-317.5" font-family="Helvetica,sans-Serif" font-size="10.00">VectorDouble3</text>
</a>
</g>
</g>
<!-- Node4&#45;&gt;Node3 -->
<g id="edge3" class="edge">
<title>Node4&#45;&gt;Node3</title>
<path fill="none" stroke="#9a32cd" stroke-dasharray="5,2" d="M1201.29,-316.55C1260.13,-312.74 1354.51,-306.64 1414.99,-302.72"/>
<polygon fill="#9a32cd" stroke="#9a32cd" points="1200.84,-313.07 1191.09,-317.21 1201.3,-320.06 1200.84,-313.07"/>
<text text-anchor="middle" x="1306" y="-316" font-family="Helvetica,sans-Serif" font-size="10.00"> lambdaAtNodes</text>
</g>
<!-- Node5 -->
<g id="node5" class="node">
<title>Node5</title>
<g id="a_node5"><a xlink:href="structFractureMechanics_1_1GriffithForceElement_1_1BlockData.html" target="_top" xlink:title=" ">
<polygon fill="white" stroke="black" points="1088.5,-433.5 1088.5,-474.5 1205.5,-474.5 1205.5,-433.5 1088.5,-433.5"/>
<text text-anchor="start" x="1096.5" y="-462.5" font-family="Helvetica,sans-Serif" font-size="10.00">FractureMechanics::</text>
<text text-anchor="start" x="1096.5" y="-451.5" font-family="Helvetica,sans-Serif" font-size="10.00">GriffithForceElement</text>
<text text-anchor="middle" x="1147" y="-440.5" font-family="Helvetica,sans-Serif" font-size="10.00">::BlockData</text>
</a>
</g>
</g>
<!-- Node5&#45;&gt;Node3 -->
<g id="edge4" class="edge">
<title>Node5&#45;&gt;Node3</title>
<path fill="none" stroke="#9a32cd" stroke-dasharray="5,2" d="M1215.93,-454.13C1260.71,-451.56 1319.3,-442.98 1365,-418 1408,-394.5 1442.68,-347.06 1460.16,-319.71"/>
<polygon fill="#9a32cd" stroke="#9a32cd" points="1215.55,-450.64 1205.73,-454.62 1215.89,-457.63 1215.55,-450.64"/>
<text text-anchor="middle" x="1306" y="-453" font-family="Helvetica,sans-Serif" font-size="10.00"> blockData</text>
</g>
<!-- Node6 -->
<g id="node6" class="node">
<title>Node6</title>
<g id="a_node6"><a xlink:href="classdouble.html" target="_top" xlink:title=" ">
<polygon fill="white" stroke="black" points="789,-509.5 789,-528.5 839,-528.5 839,-509.5 789,-509.5"/>
<text text-anchor="middle" x="814" y="-516.5" font-family="Helvetica,sans-Serif" font-size="10.00">double</text>
</a>
</g>
</g>
<!-- Node6&#45;&gt;Node5 -->
<g id="edge5" class="edge">
<title>Node6&#45;&gt;Node5</title>
<path fill="none" stroke="#9a32cd" stroke-dasharray="5,2" d="M838.68,-504.24C857.53,-493.29 884.96,-479.09 911,-472 970.02,-455.93 1040.25,-452.49 1088.47,-452.41"/>
<polygon fill="#9a32cd" stroke="#9a32cd" points="836.72,-501.33 829.92,-509.46 840.3,-507.35 836.72,-501.33"/>
<text text-anchor="middle" x="979" y="-497" font-family="Helvetica,sans-Serif" font-size="10.00"> E</text>
<text text-anchor="middle" x="979" y="-486" font-family="Helvetica,sans-Serif" font-size="10.00">r</text>
<text text-anchor="middle" x="979" y="-475" font-family="Helvetica,sans-Serif" font-size="10.00">gc</text>
</g>
<!-- Node19 -->
<g id="node19" class="node">
<title>Node19</title>
<g id="a_node19"><a xlink:href="structFractureMechanics_1_1GriffithForceElement_1_1AuxFunctions.html" target="_top" xlink:title=" ">
<polygon fill="white" stroke="black" points="1402,-693.5 1402,-734.5 1545,-734.5 1545,-693.5 1402,-693.5"/>
<text text-anchor="start" x="1410" y="-722.5" font-family="Helvetica,sans-Serif" font-size="10.00">FractureMechanics::</text>
<text text-anchor="start" x="1410" y="-711.5" font-family="Helvetica,sans-Serif" font-size="10.00">GriffithForceElement</text>
<text text-anchor="middle" x="1473.5" y="-700.5" font-family="Helvetica,sans-Serif" font-size="10.00">::AuxFunctions&lt; double &gt;</text>
</a>
</g>
</g>
<!-- Node6&#45;&gt;Node19 -->
<g id="edge20" class="edge">
<title>Node6&#45;&gt;Node19</title>
<path fill="none" stroke="#9a32cd" stroke-dasharray="5,2" d="M849.33,-518.25C962.81,-516.03 1321.15,-511.24 1365,-538 1423.68,-573.81 1454.81,-654.91 1466.71,-693.21"/>
<polygon fill="#9a32cd" stroke="#9a32cd" points="849.06,-514.75 839.13,-518.45 849.2,-521.75 849.06,-514.75"/>
<text text-anchor="middle" x="1147" y="-522" font-family="Helvetica,sans-Serif" font-size="10.00"> currentArea</text>
</g>
<!-- Node27 -->
<g id="node27" class="node">
<title>Node27</title>
<g id="a_node27"><a xlink:href="classFTensor_1_1Tensor1.html" target="_top" xlink:title=" ">
<polygon fill="white" stroke="black" points="1065,-548.5 1065,-567.5 1229,-567.5 1229,-548.5 1065,-548.5"/>
<text text-anchor="middle" x="1147" y="-555.5" font-family="Helvetica,sans-Serif" font-size="10.00">FTensor::Tensor1&lt; double, 3 &gt;</text>
</a>
</g>
</g>
<!-- Node6&#45;&gt;Node27 -->
<g id="edge32" class="edge">
<title>Node6&#45;&gt;Node27</title>
<path fill="none" stroke="#9a32cd" stroke-dasharray="5,2" d="M848.96,-524.28C867.31,-527.05 890.37,-530.4 911,-533 962.09,-539.44 1019.56,-545.57 1064.88,-550.15"/>
<polygon fill="#9a32cd" stroke="#9a32cd" points="849.44,-520.81 839.03,-522.77 848.39,-527.73 849.44,-520.81"/>
<text text-anchor="middle" x="979" y="-551" font-family="Helvetica,sans-Serif" font-size="10.00"> data</text>
</g>
<!-- Node7 -->
<g id="node7" class="node">
<title>Node7</title>
<g id="a_node7"><a xlink:href="classRange.html" target="_top" xlink:title=" ">
<polygon fill="white" stroke="black" points="790.5,-427.5 790.5,-446.5 837.5,-446.5 837.5,-427.5 790.5,-427.5"/>
<text text-anchor="middle" x="814" y="-434.5" font-family="Helvetica,sans-Serif" font-size="10.00">Range</text>
</a>
</g>
</g>
<!-- Node7&#45;&gt;Node5 -->
<g id="edge6" class="edge">
<title>Node7&#45;&gt;Node5</title>
<path fill="none" stroke="#9a32cd" stroke-dasharray="5,2" d="M847.83,-435.54C892.85,-433.89 976.21,-432.16 1047,-438 1060.45,-439.11 1074.83,-441.01 1088.34,-443.13"/>
<polygon fill="#9a32cd" stroke="#9a32cd" points="847.63,-432.04 837.77,-435.92 847.9,-439.04 847.63,-432.04"/>
<text text-anchor="middle" x="979" y="-441" font-family="Helvetica,sans-Serif" font-size="10.00"> frontNodes</text>
</g>
<!-- Node8 -->
<g id="node8" class="node">
<title>Node8</title>
<g id="a_node8"><a xlink:title=" ">
<polygon fill="white" stroke="#bfbfbf" points="1114,-212.5 1114,-231.5 1180,-231.5 1180,-212.5 1114,-212.5"/>
<text text-anchor="middle" x="1147" y="-219.5" font-family="Helvetica,sans-Serif" font-size="10.00">VectorInt3</text>
</a>
</g>
</g>
<!-- Node8&#45;&gt;Node3 -->
<g id="edge7" class="edge">
<title>Node8&#45;&gt;Node3</title>
<path fill="none" stroke="#9a32cd" stroke-dasharray="5,2" d="M1190.24,-225.08C1234.45,-229.04 1305.56,-237.46 1365,-254 1387.12,-260.16 1410.76,-269.7 1430.22,-278.42"/>
<polygon fill="#9a32cd" stroke="#9a32cd" points="1190.41,-221.59 1180.14,-224.22 1189.81,-228.56 1190.41,-221.59"/>
<text text-anchor="middle" x="1306" y="-268" font-family="Helvetica,sans-Serif" font-size="10.00"> rowLambdaIndices</text>
<text text-anchor="middle" x="1306" y="-257" font-family="Helvetica,sans-Serif" font-size="10.00">rowLambdaIndicesLocal</text>
</g>
<!-- Node9 -->
<g id="node9" class="node">
<title>Node9</title>
<g id="a_node9"><a xlink:title=" ">
<polygon fill="white" stroke="#bfbfbf" points="1132.5,-174.5 1132.5,-193.5 1161.5,-193.5 1161.5,-174.5 1132.5,-174.5"/>
<text text-anchor="middle" x="1147" y="-181.5" font-family="Helvetica,sans-Serif" font-size="10.00">int</text>
</a>
</g>
</g>
<!-- Node9&#45;&gt;Node3 -->
<g id="edge8" class="edge">
<title>Node9&#45;&gt;Node3</title>
<path fill="none" stroke="#9a32cd" stroke-dasharray="5,2" d="M1171.69,-183.64C1212.75,-183.85 1299.03,-187.96 1365,-216 1399.29,-230.57 1432.2,-258.77 1452.37,-278.23"/>
<polygon fill="#9a32cd" stroke="#9a32cd" points="1171.58,-180.14 1161.59,-183.67 1171.6,-187.14 1171.58,-180.14"/>
<text text-anchor="middle" x="1306" y="-219" font-family="Helvetica,sans-Serif" font-size="10.00"> tAg</text>
</g>
<!-- Node10 -->
<g id="node10" class="node">
<title>Node10</title>
<g id="a_node10"><a xlink:title=" ">
<polygon fill="white" stroke="#bfbfbf" points="773,-370.5 773,-389.5 855,-389.5 855,-370.5 773,-370.5"/>
<text text-anchor="middle" x="814" y="-377.5" font-family="Helvetica,sans-Serif" font-size="10.00">VectorDouble</text>
</a>
</g>
</g>
<!-- Node10&#45;&gt;Node3 -->
<g id="edge9" class="edge">
<title>Node10&#45;&gt;Node3</title>
<path fill="none" stroke="#9a32cd" stroke-dasharray="5,2" d="M865.35,-389C964.13,-404.57 1189.05,-429.65 1365,-372 1397.8,-361.25 1429.79,-337.28 1450.23,-319.72"/>
<polygon fill="#9a32cd" stroke="#9a32cd" points="865.77,-385.52 855.34,-387.38 864.66,-392.43 865.77,-385.52"/>
<text text-anchor="middle" x="1147" y="-411" font-family="Helvetica,sans-Serif" font-size="10.00"> activeVariables</text>
</g>
<!-- Node12 -->
<g id="node12" class="node">
<title>Node12</title>
<g id="a_node12"><a xlink:href="structFractureMechanics_1_1GriffithForceElement_1_1CommonData.html" target="_top" xlink:title=" ">
<polygon fill="white" stroke="black" points="1088.5,-250.5 1088.5,-291.5 1205.5,-291.5 1205.5,-250.5 1088.5,-250.5"/>
<text text-anchor="start" x="1096.5" y="-279.5" font-family="Helvetica,sans-Serif" font-size="10.00">FractureMechanics::</text>
<text text-anchor="start" x="1096.5" y="-268.5" font-family="Helvetica,sans-Serif" font-size="10.00">GriffithForceElement</text>
<text text-anchor="middle" x="1147" y="-257.5" font-family="Helvetica,sans-Serif" font-size="10.00">::CommonData</text>
</a>
</g>
</g>
<!-- Node10&#45;&gt;Node12 -->
<g id="edge13" class="edge">
<title>Node10&#45;&gt;Node12</title>
<path fill="none" stroke="#9a32cd" stroke-dasharray="5,2" d="M863.59,-367.93C911.1,-355.53 985.13,-334.59 1047,-310 1055.31,-306.7 1056.79,-304.56 1065,-301 1072.43,-297.78 1080.33,-294.58 1088.17,-291.54"/>
<polygon fill="#9a32cd" stroke="#9a32cd" points="862.67,-364.55 853.87,-370.45 864.42,-371.33 862.67,-364.55"/>
<text text-anchor="middle" x="979" y="-367" font-family="Helvetica,sans-Serif" font-size="10.00"> griffithForce</text>
<text text-anchor="middle" x="979" y="-356" font-family="Helvetica,sans-Serif" font-size="10.00">densityRho</text>
</g>
<!-- Node11 -->
<g id="node11" class="node">
<title>Node11</title>
<g id="a_node11"><a xlink:title=" ">
<polygon fill="white" stroke="#bfbfbf" points="1105.5,-348.5 1105.5,-367.5 1188.5,-367.5 1188.5,-348.5 1105.5,-348.5"/>
<text text-anchor="middle" x="1147" y="-355.5" font-family="Helvetica,sans-Serif" font-size="10.00">vector&lt; int &gt;</text>
</a>
</g>
</g>
<!-- Node11&#45;&gt;Node3 -->
<g id="edge10" class="edge">
<title>Node11&#45;&gt;Node3</title>
<path fill="none" stroke="#9a32cd" stroke-dasharray="5,2" d="M1198.85,-352.81C1243.02,-347.86 1308.59,-339.46 1365,-328 1381.29,-324.69 1398.77,-320.33 1414.8,-316"/>
<polygon fill="#9a32cd" stroke="#9a32cd" points="1198.21,-349.35 1188.65,-353.93 1198.98,-356.31 1198.21,-349.35"/>
<text text-anchor="middle" x="1306" y="-360" font-family="Helvetica,sans-Serif" font-size="10.00"> rowIndices</text>
<text text-anchor="middle" x="1306" y="-349" font-family="Helvetica,sans-Serif" font-size="10.00">rowIndicesLocal</text>
</g>
<!-- Node12&#45;&gt;Node3 -->
<g id="edge11" class="edge">
<title>Node12&#45;&gt;Node3</title>
<path fill="none" stroke="#9a32cd" stroke-dasharray="5,2" d="M1215.97,-276.86C1274.88,-281.95 1359.18,-289.22 1414.85,-294.03"/>
<polygon fill="#9a32cd" stroke="#9a32cd" points="1215.9,-273.35 1205.64,-275.97 1215.3,-280.32 1215.9,-273.35"/>
<text text-anchor="middle" x="1306" y="-292" font-family="Helvetica,sans-Serif" font-size="10.00"> commonData</text>
</g>
<!-- Node13 -->
<g id="node13" class="node">
<title>Node13</title>
<g id="a_node13"><a xlink:title=" ">
<polygon fill="white" stroke="#bfbfbf" points="772.5,-280.5 772.5,-299.5 855.5,-299.5 855.5,-280.5 772.5,-280.5"/>
<text text-anchor="middle" x="814" y="-287.5" font-family="Helvetica,sans-Serif" font-size="10.00">MatrixDouble</text>
</a>
</g>
</g>
<!-- Node13&#45;&gt;Node12 -->
<g id="edge12" class="edge">
<title>Node13&#45;&gt;Node12</title>
<path fill="none" stroke="#9a32cd" stroke-dasharray="5,2" d="M865.59,-287.1C925.61,-283.65 1025.45,-277.92 1088.39,-274.31"/>
<polygon fill="#9a32cd" stroke="#9a32cd" points="865.37,-283.6 855.59,-287.67 865.77,-290.59 865.37,-283.6"/>
<text text-anchor="middle" x="979" y="-298" font-family="Helvetica,sans-Serif" font-size="10.00"> tangentGriffithForce</text>
<text text-anchor="middle" x="979" y="-287" font-family="Helvetica,sans-Serif" font-size="10.00">diffRho</text>
</g>
<!-- Node14 -->
<g id="node14" class="node">
<title>Node14</title>
<g id="a_node14"><a xlink:title=" ">
<polygon fill="white" stroke="#bfbfbf" points="758.5,-242.5 758.5,-261.5 869.5,-261.5 869.5,-242.5 758.5,-242.5"/>
<text text-anchor="middle" x="814" y="-249.5" font-family="Helvetica,sans-Serif" font-size="10.00">vector&lt; double * &gt;</text>
</a>
</g>
</g>
<!-- Node14&#45;&gt;Node12 -->
<g id="edge14" class="edge">
<title>Node14&#45;&gt;Node12</title>
<path fill="none" stroke="#9a32cd" stroke-dasharray="5,2" d="M880.13,-253.98C926.65,-255.59 990.72,-258.23 1047,-262 1060.43,-262.9 1074.87,-264.09 1088.45,-265.3"/>
<polygon fill="#9a32cd" stroke="#9a32cd" points="880,-250.47 869.88,-253.63 879.76,-257.47 880,-250.47"/>
<text text-anchor="middle" x="979" y="-265" font-family="Helvetica,sans-Serif" font-size="10.00"> tangentGriffithForceRowPtr</text>
</g>
<!-- Node15 -->
<g id="node15" class="node">
<title>Node15</title>
<g id="a_node15"><a xlink:href="structMoFEM_1_1SmartPetscObj.html" target="_top" xlink:title=" ">
<polygon fill="white" stroke="black" points="1408,-164 1408,-194 1539,-194 1539,-164 1408,-164"/>
<text text-anchor="start" x="1416" y="-182" font-family="Helvetica,sans-Serif" font-size="10.00">MoFEM::SmartPetscObj</text>
<text text-anchor="middle" x="1473.5" y="-171" font-family="Helvetica,sans-Serif" font-size="10.00">&lt; Vec &gt;</text>
</a>
</g>
</g>
<!-- Node15&#45;&gt;Node1 -->
<g id="edge15" class="edge">
<title>Node15&#45;&gt;Node1</title>
<path fill="none" stroke="#9a32cd" stroke-dasharray="5,2" d="M1545.25,-196.43C1590.94,-207.69 1649.66,-222.16 1692.58,-232.73"/>
<polygon fill="#9a32cd" stroke="#9a32cd" points="1545.96,-193 1535.41,-194.01 1544.28,-199.8 1545.96,-193"/>
<text text-anchor="middle" x="1628.5" y="-229" font-family="Helvetica,sans-Serif" font-size="10.00"> deltaVec</text>
</g>
<!-- Node16 -->
<g id="node16" class="node">
<title>Node16</title>
<g id="a_node16"><a xlink:title=" ">
<polygon fill="white" stroke="#bfbfbf" points="1084,-114.5 1084,-155.5 1210,-155.5 1210,-114.5 1084,-114.5"/>
<text text-anchor="start" x="1092" y="-143.5" font-family="Helvetica,sans-Serif" font-size="10.00">boost::intrusive_ptr</text>
<text text-anchor="start" x="1092" y="-132.5" font-family="Helvetica,sans-Serif" font-size="10.00">&lt; std::remove_pointer</text>
<text text-anchor="middle" x="1147" y="-121.5" font-family="Helvetica,sans-Serif" font-size="10.00">&lt; Vec &gt;::type &gt;</text>
</a>
</g>
</g>
<!-- Node16&#45;&gt;Node15 -->
<g id="edge16" class="edge">
<title>Node16&#45;&gt;Node15</title>
<path fill="none" stroke="midnightblue" d="M1220.46,-143.41C1262.68,-148.46 1316.9,-155.21 1365,-162 1378.84,-163.96 1393.67,-166.2 1407.75,-168.41"/>
<polygon fill="midnightblue" stroke="midnightblue" points="1220.62,-139.9 1210.28,-142.2 1219.79,-146.85 1220.62,-139.9"/>
</g>
<!-- Node17 -->
<g id="node17" class="node">
<title>Node17</title>
<g id="a_node17"><a xlink:href="structMoFEM_1_1SmartPetscObj.html" target="_top" xlink:title="intrusive_ptr for managing petsc objects">
<polygon fill="white" stroke="black" points="1081.5,-65 1081.5,-95 1212.5,-95 1212.5,-65 1081.5,-65"/>
<text text-anchor="start" x="1089.5" y="-83" font-family="Helvetica,sans-Serif" font-size="10.00">MoFEM::SmartPetscObj</text>
<text text-anchor="middle" x="1147" y="-72" font-family="Helvetica,sans-Serif" font-size="10.00">&lt; OBJ &gt;</text>
</a>
</g>
</g>
<!-- Node17&#45;&gt;Node15 -->
<g id="edge17" class="edge">
<title>Node17&#45;&gt;Node15</title>
<path fill="none" stroke="orange" stroke-dasharray="5,2" d="M1222.8,-85.16C1267.02,-91.11 1322.5,-103.83 1365,-131 1375.94,-137.99 1372.21,-146.78 1383,-154 1390.51,-159.02 1399.02,-163.05 1407.72,-166.26"/>
<polygon fill="orange" stroke="orange" points="1223.04,-81.66 1212.68,-83.89 1222.17,-88.61 1223.04,-81.66"/>
<text text-anchor="middle" x="1306" y="-134" font-family="Helvetica,sans-Serif" font-size="10.00"> &lt; Vec &gt;</text>
</g>
<!-- Node18 -->
<g id="node18" class="node">
<title>Node18</title>
<g id="a_node18"><a xlink:title=" ">
<polygon fill="white" stroke="#bfbfbf" points="751,-60.5 751,-101.5 877,-101.5 877,-60.5 751,-60.5"/>
<text text-anchor="start" x="759" y="-89.5" font-family="Helvetica,sans-Serif" font-size="10.00">boost::intrusive_ptr</text>
<text text-anchor="start" x="759" y="-78.5" font-family="Helvetica,sans-Serif" font-size="10.00">&lt; std::remove_pointer</text>
<text text-anchor="middle" x="814" y="-67.5" font-family="Helvetica,sans-Serif" font-size="10.00">&lt; OBJ &gt;::type &gt;</text>
</a>
</g>
</g>
<!-- Node18&#45;&gt;Node17 -->
<g id="edge18" class="edge">
<title>Node18&#45;&gt;Node17</title>
<path fill="none" stroke="midnightblue" d="M887.43,-80.78C945.34,-80.61 1025.77,-80.36 1081.48,-80.19"/>
<polygon fill="midnightblue" stroke="midnightblue" points="887.25,-77.28 877.26,-80.81 887.27,-84.28 887.25,-77.28"/>
</g>
<!-- Node19&#45;&gt;Node1 -->
<g id="edge19" class="edge">
<title>Node19&#45;&gt;Node1</title>
<path fill="none" stroke="#9a32cd" stroke-dasharray="5,2" d="M1491.94,-684.48C1543.48,-597.28 1694.21,-342.25 1738.27,-267.69"/>
<polygon fill="#9a32cd" stroke="#9a32cd" points="1488.79,-682.94 1486.72,-693.33 1494.82,-686.5 1488.79,-682.94"/>
<text text-anchor="middle" x="1628.5" y="-525" font-family="Helvetica,sans-Serif" font-size="10.00"> auxFun</text>
</g>
<!-- Node20 -->
<g id="node20" class="node">
<title>Node20</title>
<g id="a_node20"><a xlink:href="classFTensor_1_1Index.html" target="_top" xlink:title=" ">
<polygon fill="white" stroke="black" points="749,-725.5 749,-744.5 879,-744.5 879,-725.5 749,-725.5"/>
<text text-anchor="middle" x="814" y="-732.5" font-family="Helvetica,sans-Serif" font-size="10.00">FTensor::Index&lt; &#39;i&#39;, 3 &gt;</text>
</a>
</g>
</g>
<!-- Node20&#45;&gt;Node19 -->
<g id="edge21" class="edge">
<title>Node20&#45;&gt;Node19</title>
<path fill="none" stroke="#9a32cd" stroke-dasharray="5,2" d="M889.2,-724.92C896.55,-724.16 903.92,-723.5 911,-723 1087.27,-710.61 1295.41,-711.25 1401.92,-712.68"/>
<polygon fill="#9a32cd" stroke="#9a32cd" points="888.76,-721.44 879.2,-726 889.52,-728.4 888.76,-721.44"/>
<text text-anchor="middle" x="1147" y="-718" font-family="Helvetica,sans-Serif" font-size="10.00"> i</text>
</g>
<!-- Node33 -->
<g id="node33" class="node">
<title>Node33</title>
<g id="a_node33"><a xlink:href="structFractureMechanics_1_1GriffithForceElement_1_1AuxFunctions.html" target="_top" xlink:title=" ">
<polygon fill="white" stroke="black" points="1080,-919.5 1080,-960.5 1214,-960.5 1214,-919.5 1080,-919.5"/>
<text text-anchor="start" x="1088" y="-948.5" font-family="Helvetica,sans-Serif" font-size="10.00">FractureMechanics::</text>
<text text-anchor="start" x="1088" y="-937.5" font-family="Helvetica,sans-Serif" font-size="10.00">GriffithForceElement</text>
<text text-anchor="middle" x="1147" y="-926.5" font-family="Helvetica,sans-Serif" font-size="10.00">::AuxFunctions&lt; TYPE &gt;</text>
</a>
</g>
</g>
<!-- Node20&#45;&gt;Node33 -->
<g id="edge39" class="edge">
<title>Node20&#45;&gt;Node33</title>
<path fill="none" stroke="#9a32cd" stroke-dasharray="5,2" d="M889.35,-727.45C938.06,-726.25 1000.99,-732.16 1047,-763 1103.16,-800.64 1130.77,-881.38 1141.06,-919.4"/>
<polygon fill="#9a32cd" stroke="#9a32cd" points="889.05,-723.96 879.18,-727.81 889.3,-730.96 889.05,-723.96"/>
<text text-anchor="middle" x="979" y="-766" font-family="Helvetica,sans-Serif" font-size="10.00"> i</text>
</g>
<!-- Node21 -->
<g id="node21" class="node">
<title>Node21</title>
<g id="a_node21"><a xlink:href="classFTensor_1_1Index.html" target="_top" xlink:title=" ">
<polygon fill="white" stroke="black" points="454.5,-767 454.5,-797 558.5,-797 558.5,-767 454.5,-767"/>
<text text-anchor="start" x="462.5" y="-785" font-family="Helvetica,sans-Serif" font-size="10.00">FTensor::Index&lt; i,</text>
<text text-anchor="middle" x="506.5" y="-774" font-family="Helvetica,sans-Serif" font-size="10.00"> Dim &gt;</text>
</a>
</g>
</g>
<!-- Node21&#45;&gt;Node20 -->
<g id="edge22" class="edge">
<title>Node21&#45;&gt;Node20</title>
<path fill="none" stroke="orange" stroke-dasharray="5,2" d="M568.58,-772.6C621.57,-764.45 697.92,-752.7 751.14,-744.52"/>
<polygon fill="orange" stroke="orange" points="567.99,-769.15 558.63,-774.13 569.05,-776.07 567.99,-769.15"/>
<text text-anchor="middle" x="681" y="-762" font-family="Helvetica,sans-Serif" font-size="10.00"> &lt; &#39;i&#39;, 3 &gt;</text>
</g>
<!-- Node22 -->
<g id="node22" class="node">
<title>Node22</title>
<g id="a_node22"><a xlink:href="classFTensor_1_1Index.html" target="_top" xlink:title=" ">
<polygon fill="white" stroke="black" points="749,-1028.5 749,-1047.5 879,-1047.5 879,-1028.5 749,-1028.5"/>
<text text-anchor="middle" x="814" y="-1035.5" font-family="Helvetica,sans-Serif" font-size="10.00">FTensor::Index&lt; &#39;j&#39;, 3 &gt;</text>
</a>
</g>
</g>
<!-- Node21&#45;&gt;Node22 -->
<g id="edge24" class="edge">
<title>Node21&#45;&gt;Node22</title>
<path fill="none" stroke="orange" stroke-dasharray="5,2" d="M568.67,-790.18C616.88,-800.04 681.68,-821.54 717,-868 757.9,-921.81 690.17,-968.42 735,-1019 738.88,-1023.38 743.59,-1026.84 748.75,-1029.55"/>
<polygon fill="orange" stroke="orange" points="569.13,-786.71 558.65,-788.25 567.8,-793.58 569.13,-786.71"/>
<text text-anchor="middle" x="681" y="-871" font-family="Helvetica,sans-Serif" font-size="10.00"> &lt; &#39;j&#39;, 3 &gt;</text>
</g>
<!-- Node23 -->
<g id="node23" class="node">
<title>Node23</title>
<g id="a_node23"><a xlink:href="classFTensor_1_1Index.html" target="_top" xlink:title=" ">
<polygon fill="white" stroke="black" points="747.5,-772.5 747.5,-791.5 880.5,-791.5 880.5,-772.5 747.5,-772.5"/>
<text text-anchor="middle" x="814" y="-779.5" font-family="Helvetica,sans-Serif" font-size="10.00">FTensor::Index&lt; &#39;k&#39;, 3 &gt;</text>
</a>
</g>
</g>
<!-- Node21&#45;&gt;Node23 -->
<g id="edge26" class="edge">
<title>Node21&#45;&gt;Node23</title>
<path fill="none" stroke="orange" stroke-dasharray="5,2" d="M568.67,-782C620.39,-782 694.32,-782 747.29,-782"/>
<polygon fill="orange" stroke="orange" points="568.63,-778.5 558.63,-782 568.63,-785.5 568.63,-778.5"/>
<text text-anchor="middle" x="681" y="-785" font-family="Helvetica,sans-Serif" font-size="10.00"> &lt; &#39;k&#39;, 3 &gt;</text>
</g>
<!-- Node22&#45;&gt;Node19 -->
<g id="edge23" class="edge">
<title>Node22&#45;&gt;Node19</title>
<path fill="none" stroke="#9a32cd" stroke-dasharray="5,2" d="M889.08,-1043.41C973.4,-1047.25 1114.3,-1046.55 1229,-1011 1293.93,-990.88 1326.99,-997.36 1365,-941 1389.58,-904.55 1355.73,-778.48 1383,-744 1388.08,-737.57 1394.6,-732.51 1401.78,-728.53"/>
<polygon fill="#9a32cd" stroke="#9a32cd" points="889.24,-1039.91 879.09,-1042.92 888.9,-1046.9 889.24,-1039.91"/>
<text text-anchor="middle" x="1147" y="-1043" font-family="Helvetica,sans-Serif" font-size="10.00"> j</text>
</g>
<!-- Node22&#45;&gt;Node33 -->
<g id="edge40" class="edge">
<title>Node22&#45;&gt;Node33</title>
<path fill="none" stroke="#9a32cd" stroke-dasharray="5,2" d="M881.23,-1026.56C928.18,-1017.57 992.3,-1003.47 1047,-985 1058.09,-981.26 1081.66,-970.58 1103.03,-960.57"/>
<polygon fill="#9a32cd" stroke="#9a32cd" points="880.36,-1023.17 871.19,-1028.46 881.66,-1030.04 880.36,-1023.17"/>
<text text-anchor="middle" x="979" y="-1022" font-family="Helvetica,sans-Serif" font-size="10.00"> j</text>
</g>
<!-- Node23&#45;&gt;Node19 -->
<g id="edge25" class="edge">
<title>Node23&#45;&gt;Node19</title>
<path fill="none" stroke="#9a32cd" stroke-dasharray="5,2" d="M890.6,-774.54C996.65,-764.01 1195.58,-744.08 1365,-726 1376.95,-724.72 1389.64,-723.34 1401.96,-721.97"/>
<polygon fill="#9a32cd" stroke="#9a32cd" points="890.24,-771.06 880.63,-775.52 890.93,-778.02 890.24,-771.06"/>
<text text-anchor="middle" x="1147" y="-759" font-family="Helvetica,sans-Serif" font-size="10.00"> k</text>
</g>
<!-- Node23&#45;&gt;Node33 -->
<g id="edge42" class="edge">
<title>Node23&#45;&gt;Node33</title>
<path fill="none" stroke="#9a32cd" stroke-dasharray="5,2" d="M890.85,-778.77C948.12,-777.64 1021.11,-779.4 1047,-794 1096.62,-821.97 1126.4,-886.37 1138.97,-919.5"/>
<polygon fill="#9a32cd" stroke="#9a32cd" points="890.64,-775.27 880.72,-779 890.8,-782.27 890.64,-775.27"/>
<text text-anchor="middle" x="979" y="-797" font-family="Helvetica,sans-Serif" font-size="10.00"> k</text>
</g>
<!-- Node24 -->
<g id="node24" class="node">
<title>Node24</title>
<g id="a_node24"><a xlink:href="classFTensor_1_1Number.html" target="_top" xlink:title=" ">
<polygon fill="white" stroke="black" points="750.5,-1168.5 750.5,-1187.5 877.5,-1187.5 877.5,-1168.5 750.5,-1168.5"/>
<text text-anchor="middle" x="814" y="-1175.5" font-family="Helvetica,sans-Serif" font-size="10.00">FTensor::Number&lt; 1 &gt;</text>
</a>
</g>
</g>
<!-- Node24&#45;&gt;Node19 -->
<g id="edge27" class="edge">
<title>Node24&#45;&gt;Node19</title>
<path fill="none" stroke="#9a32cd" stroke-dasharray="5,2" d="M887.87,-1188.3C973.44,-1197.15 1117.8,-1201.79 1229,-1153 1298.68,-1122.43 1329.29,-1116.19 1365,-1049 1396.86,-989.04 1341.74,-797.92 1383,-744 1387.98,-737.49 1394.43,-732.38 1401.58,-728.37"/>
<polygon fill="#9a32cd" stroke="#9a32cd" points="888.05,-1184.8 877.74,-1187.2 887.3,-1191.75 888.05,-1184.8"/>
<text text-anchor="middle" x="1147" y="-1194" font-family="Helvetica,sans-Serif" font-size="10.00"> N1</text>
</g>
<!-- Node24&#45;&gt;Node33 -->
<g id="edge43" class="edge">
<title>Node24&#45;&gt;Node33</title>
<path fill="none" stroke="#9a32cd" stroke-dasharray="5,2" d="M887.75,-1173.13C947.55,-1167.51 1025.74,-1155.94 1047,-1133 1094.14,-1082.13 1024.49,-1034.29 1065,-978 1069.99,-971.07 1076.58,-965.36 1083.84,-960.67"/>
<polygon fill="#9a32cd" stroke="#9a32cd" points="887.22,-1169.66 877.58,-1174.04 887.85,-1176.63 887.22,-1169.66"/>
<text text-anchor="middle" x="979" y="-1173" font-family="Helvetica,sans-Serif" font-size="10.00"> N1</text>
</g>
<!-- Node25 -->
<g id="node25" class="node">
<title>Node25</title>
<g id="a_node25"><a xlink:href="classFTensor_1_1Number.html" target="_top" xlink:title=" ">
<polygon fill="white" stroke="black" points="442.5,-1149.5 442.5,-1168.5 570.5,-1168.5 570.5,-1149.5 442.5,-1149.5"/>
<text text-anchor="middle" x="506.5" y="-1156.5" font-family="Helvetica,sans-Serif" font-size="10.00">FTensor::Number&lt; N &gt;</text>
</a>
</g>
</g>
<!-- Node25&#45;&gt;Node24 -->
<g id="edge28" class="edge">
<title>Node25&#45;&gt;Node24</title>
<path fill="none" stroke="orange" stroke-dasharray="5,2" d="M580.91,-1163.57C632.63,-1166.78 701.14,-1171.04 750.3,-1174.1"/>
<polygon fill="orange" stroke="orange" points="581,-1160.06 570.8,-1162.94 580.56,-1167.05 581,-1160.06"/>
<text text-anchor="middle" x="681" y="-1174" font-family="Helvetica,sans-Serif" font-size="10.00"> &lt; 1 &gt;</text>
</g>
<!-- Node26 -->
<g id="node26" class="node">
<title>Node26</title>
<g id="a_node26"><a xlink:href="classFTensor_1_1Number.html" target="_top" xlink:title=" ">
<polygon fill="white" stroke="black" points="750.5,-1130.5 750.5,-1149.5 877.5,-1149.5 877.5,-1130.5 750.5,-1130.5"/>
<text text-anchor="middle" x="814" y="-1137.5" font-family="Helvetica,sans-Serif" font-size="10.00">FTensor::Number&lt; 0 &gt;</text>
</a>
</g>
</g>
<!-- Node25&#45;&gt;Node26 -->
<g id="edge30" class="edge">
<title>Node25&#45;&gt;Node26</title>
<path fill="none" stroke="orange" stroke-dasharray="5,2" d="M580.91,-1154.43C632.63,-1151.22 701.14,-1146.96 750.3,-1143.9"/>
<polygon fill="orange" stroke="orange" points="580.56,-1150.95 570.8,-1155.06 581,-1157.94 580.56,-1150.95"/>
<text text-anchor="middle" x="681" y="-1153" font-family="Helvetica,sans-Serif" font-size="10.00"> &lt; 0 &gt;</text>
</g>
<!-- Node26&#45;&gt;Node19 -->
<g id="edge29" class="edge">
<title>Node26&#45;&gt;Node19</title>
<path fill="none" stroke="#9a32cd" stroke-dasharray="5,2" d="M887.95,-1146.07C1012.07,-1151.78 1261,-1142.15 1365,-987 1395.15,-942.02 1349.77,-786.75 1383,-744 1388.03,-737.53 1394.51,-732.44 1401.68,-728.45"/>
<polygon fill="#9a32cd" stroke="#9a32cd" points="887.94,-1142.56 877.78,-1145.55 887.59,-1149.56 887.94,-1142.56"/>
<text text-anchor="middle" x="1147" y="-1141" font-family="Helvetica,sans-Serif" font-size="10.00"> N0</text>
</g>
<!-- Node26&#45;&gt;Node33 -->
<g id="edge45" class="edge">
<title>Node26&#45;&gt;Node33</title>
<path fill="none" stroke="#9a32cd" stroke-dasharray="5,2" d="M864.21,-1128.15C879.2,-1124.69 895.74,-1121.04 911,-1118 941.06,-1112.02 1025.49,-1116.83 1047,-1095 1083.92,-1057.52 1033.48,-1020.12 1065,-978 1070.21,-971.04 1077.02,-965.3 1084.47,-960.59"/>
<polygon fill="#9a32cd" stroke="#9a32cd" points="863.07,-1124.82 854.12,-1130.5 864.66,-1131.64 863.07,-1124.82"/>
<text text-anchor="middle" x="979" y="-1121" font-family="Helvetica,sans-Serif" font-size="10.00"> N0</text>
</g>
<!-- Node27&#45;&gt;Node19 -->
<g id="edge31" class="edge">
<title>Node27&#45;&gt;Node19</title>
<path fill="none" stroke="#9a32cd" stroke-dasharray="5,2" d="M1201.29,-546.86C1247.39,-540.05 1314.41,-537.12 1365,-564 1417.91,-592.11 1450.88,-659.19 1464.81,-693.31"/>
<polygon fill="#9a32cd" stroke="#9a32cd" points="1200.53,-543.44 1191.21,-548.46 1201.63,-550.35 1200.53,-543.44"/>
<text text-anchor="middle" x="1306" y="-589" font-family="Helvetica,sans-Serif" font-size="10.00"> t_Tangent2_eta</text>
<text text-anchor="middle" x="1306" y="-578" font-family="Helvetica,sans-Serif" font-size="10.00">t_Tangent1_ksi</text>
<text text-anchor="middle" x="1306" y="-567" font-family="Helvetica,sans-Serif" font-size="10.00">t_Normal</text>
</g>
<!-- Node28 -->
<g id="node28" class="node">
<title>Node28</title>
<g id="a_node28"><a xlink:href="classFTensor_1_1Tensor1.html" target="_top" xlink:title=" ">
<polygon fill="white" stroke="black" points="448,-644 448,-674 565,-674 565,-644 448,-644"/>
<text text-anchor="start" x="456" y="-662" font-family="Helvetica,sans-Serif" font-size="10.00">FTensor::Tensor1&lt; T,</text>
<text text-anchor="middle" x="506.5" y="-651" font-family="Helvetica,sans-Serif" font-size="10.00"> Tensor_Dim &gt;</text>
</a>
</g>
</g>
<!-- Node28&#45;&gt;Node27 -->
<g id="edge33" class="edge">
<title>Node28&#45;&gt;Node27</title>
<path fill="none" stroke="orange" stroke-dasharray="5,2" d="M575.22,-648.29C700.37,-628.49 965.97,-586.48 1085.49,-567.57"/>
<polygon fill="orange" stroke="orange" points="574.34,-644.88 565.01,-649.9 575.43,-651.8 574.34,-644.88"/>
<text text-anchor="middle" x="814" y="-624" font-family="Helvetica,sans-Serif" font-size="10.00"> &lt; double, 3 &gt;</text>
</g>
<!-- Node36 -->
<g id="node36" class="node">
<title>Node36</title>
<g id="a_node36"><a xlink:href="classFTensor_1_1Tensor1.html" target="_top" xlink:title=" ">
<polygon fill="white" stroke="black" points="736.5,-818.5 736.5,-837.5 891.5,-837.5 891.5,-818.5 736.5,-818.5"/>
<text text-anchor="middle" x="814" y="-825.5" font-family="Helvetica,sans-Serif" font-size="10.00">FTensor::Tensor1&lt; TYPE, 3 &gt;</text>
</a>
</g>
</g>
<!-- Node28&#45;&gt;Node36 -->
<g id="edge48" class="edge">
<title>Node28&#45;&gt;Node36</title>
<path fill="none" stroke="orange" stroke-dasharray="5,2" d="M575.2,-667.18C621.3,-676.24 680.36,-695.24 717,-735 737.6,-757.36 714.23,-778.79 735,-801 742.34,-808.85 752.08,-814.42 762.17,-818.37"/>
<polygon fill="orange" stroke="orange" points="575.75,-663.73 565.28,-665.35 574.48,-670.61 575.75,-663.73"/>
<text text-anchor="middle" x="681" y="-738" font-family="Helvetica,sans-Serif" font-size="10.00"> &lt; TYPE, 3 &gt;</text>
</g>
<!-- Node29 -->
<g id="node29" class="node">
<title>Node29</title>
<g id="a_node29"><a xlink:title=" ">
<polygon fill="white" stroke="#bfbfbf" points="48,-649.5 48,-668.5 77,-668.5 77,-649.5 48,-649.5"/>
<text text-anchor="middle" x="62.5" y="-656.5" font-family="Helvetica,sans-Serif" font-size="10.00">T</text>
</a>
</g>
</g>
<!-- Node29&#45;&gt;Node28 -->
<g id="edge34" class="edge">
<title>Node29&#45;&gt;Node28</title>
<path fill="none" stroke="#9a32cd" stroke-dasharray="5,2" d="M87.29,-659C154.95,-659 349.89,-659 447.86,-659"/>
<polygon fill="#9a32cd" stroke="#9a32cd" points="87.21,-655.5 77.21,-659 87.21,-662.5 87.21,-655.5"/>
<text text-anchor="middle" x="255.5" y="-662" font-family="Helvetica,sans-Serif" font-size="10.00"> data</text>
</g>
<!-- Node30 -->
<g id="node30" class="node">
<title>Node30</title>
<g id="a_node30"><a xlink:title=" ">
<polygon fill="white" stroke="#bfbfbf" points="735,-957 735,-1009 893,-1009 893,-957 735,-957"/>
<text text-anchor="start" x="743" y="-997" font-family="Helvetica,sans-Serif" font-size="10.00">function&lt; FTensor::</text>
<text text-anchor="start" x="743" y="-986" font-family="Helvetica,sans-Serif" font-size="10.00">Tensor1&lt; FTensor::PackPtr</text>
<text text-anchor="start" x="743" y="-975" font-family="Helvetica,sans-Serif" font-size="10.00">&lt; const double *, 2 &gt;, 2</text>
<text text-anchor="middle" x="814" y="-964" font-family="Helvetica,sans-Serif" font-size="10.00"> &gt; const MatrixDouble &amp;m)&gt;</text>
</a>
</g>
</g>
<!-- Node30&#45;&gt;Node19 -->
<g id="edge35" class="edge">
<title>Node30&#45;&gt;Node19</title>
<path fill="none" stroke="#9a32cd" stroke-dasharray="5,2" d="M903.56,-993.76C988.98,-1001.03 1120.88,-1003.95 1229,-970 1295.69,-949.06 1326.51,-949.35 1365,-891 1401.25,-836.06 1341.38,-794.99 1383,-744 1388.18,-737.65 1394.75,-732.64 1401.97,-728.68"/>
<polygon fill="#9a32cd" stroke="#9a32cd" points="903.65,-990.26 893.38,-992.86 903.03,-997.23 903.65,-990.26"/>
<text text-anchor="middle" x="1147" y="-999" font-family="Helvetica,sans-Serif" font-size="10.00"> get_ftensor_from_mat_2d</text>
</g>
<!-- Node30&#45;&gt;Node33 -->
<g id="edge50" class="edge">
<title>Node30&#45;&gt;Node33</title>
<path fill="none" stroke="#9a32cd" stroke-dasharray="5,2" d="M903.21,-971.54C958.74,-964.33 1029.23,-955.17 1079.94,-948.58"/>
<polygon fill="#9a32cd" stroke="#9a32cd" points="902.49,-968.1 893.02,-972.86 903.39,-975.05 902.49,-968.1"/>
<text text-anchor="middle" x="979" y="-973" font-family="Helvetica,sans-Serif" font-size="10.00"> get_ftensor_from_mat_2d</text>
</g>
<!-- Node31 -->
<g id="node31" class="node">
<title>Node31</title>
<g id="a_node31"><a xlink:title=" ">
<polygon fill="white" stroke="#bfbfbf" points="1079.5,-625 1079.5,-677 1214.5,-677 1214.5,-625 1079.5,-625"/>
<text text-anchor="start" x="1087.5" y="-665" font-family="Helvetica,sans-Serif" font-size="10.00">function&lt; FTensor::</text>
<text text-anchor="start" x="1087.5" y="-654" font-family="Helvetica,sans-Serif" font-size="10.00">Tensor1&lt; double *, 3</text>
<text text-anchor="start" x="1087.5" y="-643" font-family="Helvetica,sans-Serif" font-size="10.00"> &gt;ublas::vector&lt; double</text>
<text text-anchor="middle" x="1147" y="-632" font-family="Helvetica,sans-Serif" font-size="10.00"> &gt; &amp;v)&gt;</text>
</a>
</g>
</g>
<!-- Node31&#45;&gt;Node19 -->
<g id="edge36" class="edge">
<title>Node31&#45;&gt;Node19</title>
<path fill="none" stroke="#9a32cd" stroke-dasharray="5,2" d="M1224.73,-663.38C1266.34,-670.35 1318.61,-679.55 1365,-689 1376.92,-691.43 1389.54,-694.19 1401.79,-696.97"/>
<polygon fill="#9a32cd" stroke="#9a32cd" points="1225.1,-659.89 1214.66,-661.7 1223.95,-666.79 1225.1,-659.89"/>
<text text-anchor="middle" x="1306" y="-692" font-family="Helvetica,sans-Serif" font-size="10.00"> get_ftensor_from_vec</text>
</g>
<!-- Node32 -->
<g id="node32" class="node">
<title>Node32</title>
<g id="a_node32"><a xlink:title=" ">
<polygon fill="white" stroke="#bfbfbf" points="1095.5,-586.5 1095.5,-605.5 1198.5,-605.5 1198.5,-586.5 1095.5,-586.5"/>
<text text-anchor="middle" x="1147" y="-593.5" font-family="Helvetica,sans-Serif" font-size="10.00">vector&lt; double &gt;</text>
</a>
</g>
</g>
<!-- Node32&#45;&gt;Node19 -->
<g id="edge37" class="edge">
<title>Node32&#45;&gt;Node19</title>
<path fill="none" stroke="#9a32cd" stroke-dasharray="5,2" d="M1208.83,-597.38C1253.64,-600.3 1315.18,-608.39 1365,-630 1399.55,-644.99 1432.65,-673.76 1452.77,-693.42"/>
<polygon fill="#9a32cd" stroke="#9a32cd" points="1208.87,-593.87 1198.68,-596.78 1208.46,-600.86 1208.87,-593.87"/>
<text text-anchor="middle" x="1306" y="-655" font-family="Helvetica,sans-Serif" font-size="10.00"> referenceCoords</text>
<text text-anchor="middle" x="1306" y="-644" font-family="Helvetica,sans-Serif" font-size="10.00">griffithForce</text>
<text text-anchor="middle" x="1306" y="-633" font-family="Helvetica,sans-Serif" font-size="10.00">currentCoords</text>
</g>
<!-- Node33&#45;&gt;Node19 -->
<g id="edge38" class="edge">
<title>Node33&#45;&gt;Node19</title>
<path fill="none" stroke="orange" stroke-dasharray="5,2" d="M1192.08,-913.89C1239.08,-884.49 1313.64,-833.16 1365,-775 1375.55,-763.06 1370.65,-754.07 1383,-744 1388.72,-739.34 1395.19,-735.39 1401.97,-732.05"/>
<polygon fill="orange" stroke="orange" points="1190.01,-911.06 1183.36,-919.3 1193.7,-917.01 1190.01,-911.06"/>
<text text-anchor="middle" x="1306" y="-879" font-family="Helvetica,sans-Serif" font-size="10.00"> &lt; double &gt;</text>
</g>
<!-- Node34 -->
<g id="node34" class="node">
<title>Node34</title>
<g id="a_node34"><a xlink:title=" ">
<polygon fill="white" stroke="#bfbfbf" points="767,-858.5 767,-877.5 861,-877.5 861,-858.5 767,-858.5"/>
<text text-anchor="middle" x="814" y="-865.5" font-family="Helvetica,sans-Serif" font-size="10.00">vector&lt; TYPE &gt;</text>
</a>
</g>
</g>
<!-- Node34&#45;&gt;Node33 -->
<g id="edge41" class="edge">
<title>Node34&#45;&gt;Node33</title>
<path fill="none" stroke="#9a32cd" stroke-dasharray="5,2" d="M871.51,-865.84C919.24,-865.55 988.91,-868.77 1047,-886 1071.78,-893.35 1097.32,-907.48 1116.26,-919.44"/>
<polygon fill="#9a32cd" stroke="#9a32cd" points="871.33,-862.34 861.37,-865.95 871.41,-869.34 871.33,-862.34"/>
<text text-anchor="middle" x="979" y="-911" font-family="Helvetica,sans-Serif" font-size="10.00"> referenceCoords</text>
<text text-anchor="middle" x="979" y="-900" font-family="Helvetica,sans-Serif" font-size="10.00">griffithForce</text>
<text text-anchor="middle" x="979" y="-889" font-family="Helvetica,sans-Serif" font-size="10.00">currentCoords</text>
</g>
<!-- Node35 -->
<g id="node35" class="node">
<title>Node35</title>
<g id="a_node35"><a xlink:title=" ">
<polygon fill="white" stroke="#bfbfbf" points="486,-1035.5 486,-1054.5 527,-1054.5 527,-1035.5 486,-1035.5"/>
<text text-anchor="middle" x="506.5" y="-1042.5" font-family="Helvetica,sans-Serif" font-size="10.00">TYPE</text>
</a>
</g>
</g>
<!-- Node35&#45;&gt;Node33 -->
<g id="edge44" class="edge">
<title>Node35&#45;&gt;Node33</title>
<path fill="none" stroke="#9a32cd" stroke-dasharray="5,2" d="M536.89,-1055.69C625.94,-1086.01 895.88,-1162.33 1047,-1034 1066.93,-1017.08 1047.73,-997.63 1065,-978 1071.05,-971.12 1078.62,-965.39 1086.68,-960.65"/>
<polygon fill="#9a32cd" stroke="#9a32cd" points="537.78,-1052.3 527.19,-1052.32 535.49,-1058.91 537.78,-1052.3"/>
<text text-anchor="middle" x="814" y="-1108" font-family="Helvetica,sans-Serif" font-size="10.00"> currentArea</text>
</g>
<!-- Node35&#45;&gt;Node36 -->
<g id="edge47" class="edge">
<title>Node35&#45;&gt;Node36</title>
<path fill="none" stroke="#9a32cd" stroke-dasharray="5,2" d="M533.03,-1030.29C575.56,-1004.77 661.69,-948.7 717,-883 728.01,-869.92 721.63,-859.66 735,-849 741.03,-844.19 748.07,-840.48 755.4,-837.61"/>
<polygon fill="#9a32cd" stroke="#9a32cd" points="531.22,-1027.29 524.4,-1035.4 534.79,-1033.31 531.22,-1027.29"/>
<text text-anchor="middle" x="681" y="-951" font-family="Helvetica,sans-Serif" font-size="10.00"> data</text>
</g>
<!-- Node36&#45;&gt;Node33 -->
<g id="edge46" class="edge">
<title>Node36&#45;&gt;Node33</title>
<path fill="none" stroke="#9a32cd" stroke-dasharray="5,2" d="M866.1,-816.72C914.86,-808.55 989.23,-802.97 1047,-829 1088.2,-847.57 1119.33,-892.62 1134.91,-919.27"/>
<polygon fill="#9a32cd" stroke="#9a32cd" points="865.33,-813.31 856.1,-818.5 866.55,-820.2 865.33,-813.31"/>
<text text-anchor="middle" x="979" y="-854" font-family="Helvetica,sans-Serif" font-size="10.00"> t_Tangent2_eta</text>
<text text-anchor="middle" x="979" y="-843" font-family="Helvetica,sans-Serif" font-size="10.00">t_Tangent1_ksi</text>
<text text-anchor="middle" x="979" y="-832" font-family="Helvetica,sans-Serif" font-size="10.00">t_Normal</text>
</g>
<!-- Node37 -->
<g id="node37" class="node">
<title>Node37</title>
<g id="a_node37"><a xlink:title=" ">
<polygon fill="white" stroke="#bfbfbf" points="736.5,-896.5 736.5,-937.5 891.5,-937.5 891.5,-896.5 736.5,-896.5"/>
<text text-anchor="start" x="744.5" y="-925.5" font-family="Helvetica,sans-Serif" font-size="10.00">function&lt; FTensor::</text>
<text text-anchor="start" x="744.5" y="-914.5" font-family="Helvetica,sans-Serif" font-size="10.00">Tensor1&lt; TYPE *, 3 &gt;</text>
<text text-anchor="middle" x="814" y="-903.5" font-family="Helvetica,sans-Serif" font-size="10.00">ublas::vector&lt; TYPE &gt; &amp;v)&gt;</text>
</a>
</g>
</g>
<!-- Node37&#45;&gt;Node33 -->
<g id="edge49" class="edge">
<title>Node37&#45;&gt;Node33</title>
<path fill="none" stroke="#9a32cd" stroke-dasharray="5,2" d="M901.99,-923.04C957.72,-926.92 1028.9,-931.86 1079.99,-935.41"/>
<polygon fill="#9a32cd" stroke="#9a32cd" points="901.99,-919.54 891.77,-922.33 901.5,-926.52 901.99,-919.54"/>
<text text-anchor="middle" x="979" y="-935" font-family="Helvetica,sans-Serif" font-size="10.00"> get_ftensor_from_vec</text>
</g>
<!-- Node38 -->
<g id="node38" class="node">
<title>Node38</title>
<g id="a_node38"><a xlink:href="structMoFEM_1_1DeprecatedCoreInterface.html" target="_top" xlink:title="Deprecated interface functions.">
<polygon fill="white" stroke="black" points="1383,-125.5 1383,-144.5 1564,-144.5 1564,-125.5 1383,-125.5"/>
<text text-anchor="middle" x="1473.5" y="-132.5" font-family="Helvetica,sans-Serif" font-size="10.00">MoFEM::DeprecatedCoreInterface</text>
</a>
</g>
</g>
<!-- Node38&#45;&gt;Node1 -->
<g id="edge51" class="edge">
<title>Node38&#45;&gt;Node1</title>
<path fill="none" stroke="#9a32cd" stroke-dasharray="5,2" d="M1541.64,-146.61C1581.84,-155.27 1633.09,-169.4 1675,-191 1693.71,-200.64 1712.74,-214.79 1727.01,-226.45"/>
<polygon fill="#9a32cd" stroke="#9a32cd" points="1542.17,-143.15 1531.67,-144.53 1540.74,-150 1542.17,-143.15"/>
<text text-anchor="middle" x="1628.5" y="-194" font-family="Helvetica,sans-Serif" font-size="10.00"> mField</text>
</g>
<!-- Node39 -->
<g id="node39" class="node">
<title>Node39</title>
<g id="a_node39"><a xlink:href="structMoFEM_1_1CoreInterface.html" target="_top" xlink:title="Interface.">
<polygon fill="white" stroke="black" points="1084.5,-25.5 1084.5,-44.5 1209.5,-44.5 1209.5,-25.5 1084.5,-25.5"/>
<text text-anchor="middle" x="1147" y="-32.5" font-family="Helvetica,sans-Serif" font-size="10.00">MoFEM::CoreInterface</text>
</a>
</g>
</g>
<!-- Node39&#45;&gt;Node38 -->
<g id="edge52" class="edge">
<title>Node39&#45;&gt;Node38</title>
<path fill="none" stroke="midnightblue" d="M1220,-37.84C1265.33,-42.82 1323.01,-55.35 1365,-86 1377.56,-95.17 1370.34,-106.97 1383,-116 1388.43,-119.88 1394.49,-122.99 1400.82,-125.49"/>
<polygon fill="midnightblue" stroke="midnightblue" points="1220.23,-34.34 1209.93,-36.83 1219.53,-41.31 1220.23,-34.34"/>
</g>
<!-- Node40 -->
<g id="node40" class="node">
<title>Node40</title>
<g id="a_node40"><a xlink:href="structMoFEM_1_1UnknownInterface.html" target="_top" xlink:title="base class for all interface classes">
<polygon fill="white" stroke="black" points="740,-22.5 740,-41.5 888,-41.5 888,-22.5 740,-22.5"/>
<text text-anchor="middle" x="814" y="-29.5" font-family="Helvetica,sans-Serif" font-size="10.00">MoFEM::UnknownInterface</text>
</a>
</g>
</g>
<!-- Node40&#45;&gt;Node39 -->
<g id="edge53" class="edge">
<title>Node40&#45;&gt;Node39</title>
<path fill="none" stroke="midnightblue" d="M898.26,-32.75C956.06,-33.28 1031.8,-33.96 1084.25,-34.44"/>
<polygon fill="midnightblue" stroke="midnightblue" points="898.08,-29.25 888.05,-32.66 898.02,-36.25 898.08,-29.25"/>
</g>
<!-- Node41 -->
<g id="node41" class="node">
<title>Node41</title>
<g id="a_node41"><a xlink:title=" ">
<polygon fill="white" stroke="#bfbfbf" points="386,-0.5 386,-63.5 627,-63.5 627,-0.5 386,-0.5"/>
<text text-anchor="start" x="394" y="-51.5" font-family="Helvetica,sans-Serif" font-size="10.00">multi_index_container</text>
<text text-anchor="start" x="394" y="-40.5" font-family="Helvetica,sans-Serif" font-size="10.00">&lt; UIdTypeMap, indexed</text>
<text text-anchor="start" x="394" y="-29.5" font-family="Helvetica,sans-Serif" font-size="10.00">_by&lt; hashed_unique&lt; member</text>
<text text-anchor="start" x="394" y="-18.5" font-family="Helvetica,sans-Serif" font-size="10.00">&lt; UIdTypeMap, boost::typeindex</text>
<text text-anchor="middle" x="506.5" y="-7.5" font-family="Helvetica,sans-Serif" font-size="10.00">::type_index, &amp;UIdTypeMap::classIdx &gt; &gt; &gt; &gt;</text>
</a>
</g>
</g>
<!-- Node41&#45;&gt;Node40 -->
<g id="edge54" class="edge">
<title>Node41&#45;&gt;Node40</title>
<path fill="none" stroke="#9a32cd" stroke-dasharray="5,2" d="M637.65,-32C672.58,-32 709.12,-32 739.75,-32"/>
<polygon fill="#9a32cd" stroke="#9a32cd" points="637.36,-28.5 627.36,-32 637.36,-35.5 637.36,-28.5"/>
<text text-anchor="middle" x="681" y="-35" font-family="Helvetica,sans-Serif" font-size="10.00"> iFaceTypeMap</text>
</g>
<!-- Node42 -->
<g id="node42" class="node">
<title>Node42</title>
<g id="a_node42"><a xlink:title=" ">
<polygon fill="white" stroke="#bfbfbf" points="0,-22.5 0,-41.5 125,-41.5 125,-22.5 0,-22.5"/>
<text text-anchor="middle" x="62.5" y="-29.5" font-family="Helvetica,sans-Serif" font-size="10.00">multi_index_container</text>
</a>
</g>
</g>
<!-- Node42&#45;&gt;Node41 -->
<g id="edge55" class="edge">
<title>Node42&#45;&gt;Node41</title>
<path fill="none" stroke="orange" stroke-dasharray="5,2" d="M135.56,-32C203.25,-32 305.79,-32 385.77,-32"/>
<polygon fill="orange" stroke="orange" points="135.42,-28.5 125.42,-32 135.42,-35.5 135.42,-28.5"/>
<text text-anchor="start" x="143" y="-68" font-family="Helvetica,sans-Serif" font-size="10.00"> &lt; UIdTypeMap, indexed</text>
<text text-anchor="start" x="143" y="-57" font-family="Helvetica,sans-Serif" font-size="10.00">_by&lt; hashed_unique&lt; member</text>
<text text-anchor="start" x="143" y="-46" font-family="Helvetica,sans-Serif" font-size="10.00">&lt; UIdTypeMap, boost::typeindex</text>
<text text-anchor="middle" x="255.5" y="-35" font-family="Helvetica,sans-Serif" font-size="10.00">::type_index, &amp;UIdTypeMap::classIdx &gt; &gt; &gt; &gt;</text>
</g>
<!-- Node43 -->
<g id="node43" class="node">
<title>Node43</title>
<g id="a_node43"><a xlink:title=" ">
<polygon fill="white" stroke="#bfbfbf" points="1451.5,-87.5 1451.5,-106.5 1495.5,-106.5 1495.5,-87.5 1451.5,-87.5"/>
<text text-anchor="middle" x="1473.5" y="-94.5" font-family="Helvetica,sans-Serif" font-size="10.00">string</text>
</a>
</g>
</g>
<!-- Node43&#45;&gt;Node1 -->
<g id="edge56" class="edge">
<title>Node43&#45;&gt;Node1</title>
<path fill="none" stroke="#9a32cd" stroke-dasharray="5,2" d="M1505.92,-97.23C1547.85,-98.97 1622.87,-107.19 1675,-142 1706.56,-163.07 1729.35,-202.08 1741.2,-226.16"/>
<polygon fill="#9a32cd" stroke="#9a32cd" points="1505.86,-93.73 1495.75,-96.91 1505.64,-100.72 1505.86,-93.73"/>
<text text-anchor="middle" x="1628.5" y="-145" font-family="Helvetica,sans-Serif" font-size="10.00"> lambdaFieldName</text>
</g>
</g>
</svg>
        <g id="navigator" transform="translate(0 0)" fill="#404254">
                <rect fill="#f2f5e9" fill-opacity="0.5" stroke="#606060" stroke-width=".5" x="0" y="0" width="60" height="60"/>
                <use id="zoomplus" xlink:href="#zoomPlus" x="17" y="9" onmousedown="handleZoom(evt,'in')"/>
                <use id="zoomminus" xlink:href="#zoomMin" x="42" y="9" onmousedown="handleZoom(evt,'out')"/>
                <use id="reset" xlink:href="#resetDef" x="30" y="36" onmousedown="handleReset()"/>
                <g id="arrowUp" xlink:href="#dirArrow" transform="translate(30 24)" onmousedown="handlePan(0,-1)">
                  <use xlink:href="#rim" fill="#404040">
                        <set attributeName="fill" to="#808080" begin="arrowUp.mouseover" end="arrowUp.mouseout"/>
                  </use>
                  <path fill="none" stroke="white" stroke-width="1.5" d="M0,-3.0v7 M-2.5,-0.5L0,-3.0L2.5,-0.5"/>
                </g>
                <g id="arrowRight" xlink:href="#dirArrow" transform="rotate(90) translate(36 -43)" onmousedown="handlePan(1,0)">
                  <use xlink:href="#rim" fill="#404040">
                        <set attributeName="fill" to="#808080" begin="arrowRight.mouseover" end="arrowRight.mouseout"/>
                  </use>
                  <path fill="none" stroke="white" stroke-width="1.5" d="M0,-3.0v7 M-2.5,-0.5L0,-3.0L2.5,-0.5"/>
                </g>
                <g id="arrowDown" xlink:href="#dirArrow" transform="rotate(180) translate(-30 -48)" onmousedown="handlePan(0,1)">
                  <use xlink:href="#rim" fill="#404040">
                        <set attributeName="fill" to="#808080" begin="arrowDown.mouseover" end="arrowDown.mouseout"/>
                  </use>
                  <path fill="none" stroke="white" stroke-width="1.5" d="M0,-3.0v7 M-2.5,-0.5L0,-3.0L2.5,-0.5"/>
                </g>
                <g id="arrowLeft" xlink:href="#dirArrow" transform="rotate(270) translate(-36 17)" onmousedown="handlePan(-1,0)">
                  <use xlink:href="#rim" fill="#404040">
                        <set attributeName="fill" to="#808080" begin="arrowLeft.mouseover" end="arrowLeft.mouseout"/>
                  </use>
                  <path fill="none" stroke="white" stroke-width="1.5" d="M0,-3.0v7 M-2.5,-0.5L0,-3.0L2.5,-0.5"/>
                </g>
        </g>
        <svg viewBox="0 0 15 15" width="100%" height="30px" preserveAspectRatio="xMaxYMin meet">
         <g id="arrow_out" transform="scale(0.3 0.3)">
          <a xlink:href="structFractureMechanics_1_1GriffithForceElement_1_1OpConstrainsDelta__coll__graph_org.svg" target="_base">
           <rect id="button" ry="5" rx="5" y="6" x="6" height="38" width="38"
                fill="#f2f5e9" fill-opacity="0.5" stroke="#606060" stroke-width="1.0"/>
           <path id="arrow"
             d="M 11.500037,31.436501 C 11.940474,20.09759 22.043105,11.32322 32.158766,21.979434 L 37.068811,17.246167 C 37.068811,17.246167 37.088388,32 37.088388,32 L 22.160133,31.978069 C 22.160133,31.978069 26.997745,27.140456 26.997745,27.140456 C 18.528582,18.264221 13.291696,25.230495 11.500037,31.436501 z"
             style="fill:#404040;"/>
          </a>
         </g>
        </svg>
</svg>
