<?xml version="1.0" encoding="UTF-8" standalone="no"?>
<!DOCTYPE svg PUBLIC "-//W3C//DTD SVG 1.1//EN"
 "http://www.w3.org/Graphics/SVG/1.1/DTD/svg11.dtd">
<!-- Generated by graphviz version 2.43.0 (0)
 -->
<!-- Title: EigenMatrix::EigenMatrixImp&lt; T1, T2, NB, Dim &gt; Pages: 1 -->
<svg width="785pt" height="333pt"
 viewBox="0.00 0.00 785.00 333.00" xmlns="http://www.w3.org/2000/svg" xmlns:xlink="http://www.w3.org/1999/xlink">
<g id="graph0" class="graph" transform="scale(1 1) rotate(0) translate(4 329)">
<title>EigenMatrix::EigenMatrixImp&lt; T1, T2, NB, Dim &gt;</title>
<polygon fill="white" stroke="transparent" points="-4,4 -4,-329 781,-329 781,4 -4,4"/>
<!-- Node1 -->
<g id="node1" class="node">
<title>Node1</title>
<g id="a_node1"><a xlink:title=" ">
<polygon fill="#bfbfbf" stroke="black" points="637,-124.5 637,-154.5 777,-154.5 777,-124.5 637,-124.5"/>
<text text-anchor="start" x="645" y="-142.5" font-family="Helvetica,sans-Serif" font-size="10.00">EigenMatrix::EigenMatrix</text>
<text text-anchor="middle" x="707" y="-131.5" font-family="Helvetica,sans-Serif" font-size="10.00">Imp&lt; T1, T2, NB, Dim &gt;</text>
</a>
</g>
</g>
<!-- Node2 -->
<g id="node2" class="node">
<title>Node2</title>
<g id="a_node2"><a xlink:href="classFTensor_1_1Ddg.html" target="_top" xlink:title=" ">
<polygon fill="white" stroke="black" points="407.5,-215.5 407.5,-245.5 533.5,-245.5 533.5,-215.5 407.5,-215.5"/>
<text text-anchor="start" x="415.5" y="-233.5" font-family="Helvetica,sans-Serif" font-size="10.00">FTensor::Ddg&lt; double,</text>
<text text-anchor="middle" x="470.5" y="-222.5" font-family="Helvetica,sans-Serif" font-size="10.00"> Dim, Dim &gt;</text>
</a>
</g>
</g>
<!-- Node2&#45;&gt;Node1 -->
<g id="edge1" class="edge">
<title>Node2&#45;&gt;Node1</title>
<path fill="none" stroke="#9a32cd" stroke-dasharray="5,2" d="M543.64,-215.02C568.04,-208.71 595.13,-200.52 619,-190.5 642.25,-180.74 666.87,-165.82 683.96,-154.64"/>
<polygon fill="#9a32cd" stroke="#9a32cd" points="542.56,-211.68 533.72,-217.51 544.27,-218.46 542.56,-211.68"/>
<text text-anchor="middle" x="592.5" y="-265.5" font-family="Helvetica,sans-Serif" font-size="10.00"> d2MType0</text>
<text text-anchor="middle" x="592.5" y="-254.5" font-family="Helvetica,sans-Serif" font-size="10.00">d2MType1</text>
<text text-anchor="middle" x="592.5" y="-243.5" font-family="Helvetica,sans-Serif" font-size="10.00">aS</text>
<text text-anchor="middle" x="592.5" y="-232.5" font-family="Helvetica,sans-Serif" font-size="10.00">aSM</text>
<text text-anchor="middle" x="592.5" y="-221.5" font-family="Helvetica,sans-Serif" font-size="10.00">aG</text>
<text text-anchor="middle" x="592.5" y="-210.5" font-family="Helvetica,sans-Serif" font-size="10.00">aMM</text>
</g>
<!-- Node3 -->
<g id="node3" class="node">
<title>Node3</title>
<g id="a_node3"><a xlink:href="classdouble.html" target="_top" xlink:title=" ">
<polygon fill="white" stroke="black" points="142.5,-152 142.5,-171 192.5,-171 192.5,-152 142.5,-152"/>
<text text-anchor="middle" x="167.5" y="-159" font-family="Helvetica,sans-Serif" font-size="10.00">double</text>
</a>
</g>
</g>
<!-- Node3&#45;&gt;Node2 -->
<g id="edge2" class="edge">
<title>Node3&#45;&gt;Node2</title>
<path fill="none" stroke="#9a32cd" stroke-dasharray="5,2" d="M202.5,-172.42C220.4,-177.95 242.76,-184.53 263,-189.5 312.26,-201.61 325.24,-201.61 375,-211.5 385.5,-213.59 396.66,-215.82 407.49,-217.99"/>
<polygon fill="#9a32cd" stroke="#9a32cd" points="203.39,-169.03 192.8,-169.39 201.3,-175.71 203.39,-169.03"/>
<text text-anchor="middle" x="319" y="-214.5" font-family="Helvetica,sans-Serif" font-size="10.00"> data</text>
</g>
<!-- Node7 -->
<g id="node7" class="node">
<title>Node7</title>
<g id="a_node7"><a xlink:href="classFTensor_1_1Tensor1.html" target="_top" xlink:title=" ">
<polygon fill="white" stroke="black" points="398.5,-166.5 398.5,-196.5 542.5,-196.5 542.5,-166.5 398.5,-166.5"/>
<text text-anchor="start" x="406.5" y="-184.5" font-family="Helvetica,sans-Serif" font-size="10.00">FTensor::Tensor1&lt; double,</text>
<text text-anchor="middle" x="470.5" y="-173.5" font-family="Helvetica,sans-Serif" font-size="10.00"> Dim &gt;</text>
</a>
</g>
</g>
<!-- Node3&#45;&gt;Node7 -->
<g id="edge8" class="edge">
<title>Node3&#45;&gt;Node7</title>
<path fill="none" stroke="#9a32cd" stroke-dasharray="5,2" d="M202.65,-163.77C249.94,-166.91 336.51,-172.66 398.22,-176.76"/>
<polygon fill="#9a32cd" stroke="#9a32cd" points="202.83,-160.27 192.62,-163.1 202.37,-167.26 202.83,-160.27"/>
<text text-anchor="middle" x="319" y="-177.5" font-family="Helvetica,sans-Serif" font-size="10.00"> data</text>
</g>
<!-- Node8 -->
<g id="node8" class="node">
<title>Node8</title>
<g id="a_node8"><a xlink:href="classFTensor_1_1Tensor2.html" target="_top" xlink:title=" ">
<polygon fill="white" stroke="black" points="398.5,-117.5 398.5,-147.5 542.5,-147.5 542.5,-117.5 398.5,-117.5"/>
<text text-anchor="start" x="406.5" y="-135.5" font-family="Helvetica,sans-Serif" font-size="10.00">FTensor::Tensor2&lt; double,</text>
<text text-anchor="middle" x="470.5" y="-124.5" font-family="Helvetica,sans-Serif" font-size="10.00"> Dim, Dim &gt;</text>
</a>
</g>
</g>
<!-- Node3&#45;&gt;Node8 -->
<g id="edge11" class="edge">
<title>Node3&#45;&gt;Node8</title>
<path fill="none" stroke="#9a32cd" stroke-dasharray="5,2" d="M202.65,-158.21C249.94,-153.65 336.51,-145.31 398.22,-139.37"/>
<polygon fill="#9a32cd" stroke="#9a32cd" points="202.24,-154.73 192.62,-159.18 202.91,-161.7 202.24,-154.73"/>
<text text-anchor="middle" x="319" y="-154.5" font-family="Helvetica,sans-Serif" font-size="10.00"> data</text>
</g>
<!-- Node10 -->
<g id="node10" class="node">
<title>Node10</title>
<g id="a_node10"><a xlink:href="classFTensor_1_1Tensor2__symmetric.html" target="_top" xlink:title=" ">
<polygon fill="white" stroke="black" points="393,-68.5 393,-98.5 548,-98.5 548,-68.5 393,-68.5"/>
<text text-anchor="start" x="401" y="-86.5" font-family="Helvetica,sans-Serif" font-size="10.00">FTensor::Tensor2_symmetric</text>
<text text-anchor="middle" x="470.5" y="-75.5" font-family="Helvetica,sans-Serif" font-size="10.00">&lt; double, Dim &gt;</text>
</a>
</g>
</g>
<!-- Node3&#45;&gt;Node10 -->
<g id="edge16" class="edge">
<title>Node3&#45;&gt;Node10</title>
<path fill="none" stroke="#9a32cd" stroke-dasharray="5,2" d="M200.95,-148.11C219.01,-141.01 242,-132.54 263,-126.5 305.41,-114.31 353.65,-104.06 392.83,-96.64"/>
<polygon fill="#9a32cd" stroke="#9a32cd" points="199.47,-144.93 191.48,-151.89 202.06,-151.44 199.47,-144.93"/>
<text text-anchor="middle" x="319" y="-129.5" font-family="Helvetica,sans-Serif" font-size="10.00"> data</text>
</g>
<!-- Node4 -->
<g id="node4" class="node">
<title>Node4</title>
<g id="a_node4"><a xlink:href="classFTensor_1_1Ddg.html" target="_top" xlink:title=" ">
<polygon fill="white" stroke="black" points="97.5,-294.5 97.5,-324.5 237.5,-324.5 237.5,-294.5 97.5,-294.5"/>
<text text-anchor="start" x="105.5" y="-312.5" font-family="Helvetica,sans-Serif" font-size="10.00">FTensor::Ddg&lt; T, Tensor</text>
<text text-anchor="middle" x="167.5" y="-301.5" font-family="Helvetica,sans-Serif" font-size="10.00">_Dim01, Tensor_Dim23 &gt;</text>
</a>
</g>
</g>
<!-- Node4&#45;&gt;Node2 -->
<g id="edge3" class="edge">
<title>Node4&#45;&gt;Node2</title>
<path fill="none" stroke="orange" stroke-dasharray="5,2" d="M247.98,-294.06C286.59,-285.99 333.49,-275.33 375,-263.5 393.22,-258.31 413.05,-251.56 429.83,-245.51"/>
<polygon fill="orange" stroke="orange" points="246.92,-290.71 237.84,-296.16 248.34,-297.56 246.92,-290.71"/>
<text text-anchor="middle" x="319" y="-293.5" font-family="Helvetica,sans-Serif" font-size="10.00"> &lt; double, Dim, Dim &gt;</text>
</g>
<!-- Node5 -->
<g id="node5" class="node">
<title>Node5</title>
<g id="a_node5"><a xlink:title=" ">
<polygon fill="white" stroke="#bfbfbf" points="0,-112 0,-131 29,-131 29,-112 0,-112"/>
<text text-anchor="middle" x="14.5" y="-119" font-family="Helvetica,sans-Serif" font-size="10.00">T</text>
</a>
</g>
</g>
<!-- Node5&#45;&gt;Node4 -->
<g id="edge4" class="edge">
<title>Node5&#45;&gt;Node4</title>
<path fill="none" stroke="#9a32cd" stroke-dasharray="5,2" d="M20.71,-140.85C29.96,-171.95 51.93,-233.43 90,-271.5 99.54,-281.04 111.97,-288.6 124.02,-294.38"/>
<polygon fill="#9a32cd" stroke="#9a32cd" points="24.07,-139.87 17.97,-131.2 17.34,-141.78 24.07,-139.87"/>
<text text-anchor="middle" x="59.5" y="-249.5" font-family="Helvetica,sans-Serif" font-size="10.00"> data</text>
</g>
<!-- Node6 -->
<g id="node6" class="node">
<title>Node6</title>
<g id="a_node6"><a xlink:href="classFTensor_1_1Tensor1.html" target="_top" xlink:title=" ">
<polygon fill="white" stroke="black" points="109,-231.5 109,-261.5 226,-261.5 226,-231.5 109,-231.5"/>
<text text-anchor="start" x="117" y="-249.5" font-family="Helvetica,sans-Serif" font-size="10.00">FTensor::Tensor1&lt; T,</text>
<text text-anchor="middle" x="167.5" y="-238.5" font-family="Helvetica,sans-Serif" font-size="10.00"> Tensor_Dim &gt;</text>
</a>
</g>
</g>
<!-- Node5&#45;&gt;Node6 -->
<g id="edge6" class="edge">
<title>Node5&#45;&gt;Node6</title>
<path fill="none" stroke="#9a32cd" stroke-dasharray="5,2" d="M35.28,-137.87C64.75,-162.27 119.77,-207.81 148.3,-231.43"/>
<polygon fill="#9a32cd" stroke="#9a32cd" points="37.28,-134.99 27.35,-131.31 32.82,-140.38 37.28,-134.99"/>
<text text-anchor="middle" x="59.5" y="-168.5" font-family="Helvetica,sans-Serif" font-size="10.00"> data</text>
</g>
<!-- Node9 -->
<g id="node9" class="node">
<title>Node9</title>
<g id="a_node9"><a xlink:href="classFTensor_1_1Tensor2.html" target="_top" xlink:title=" ">
<polygon fill="white" stroke="black" points="107.5,-56 107.5,-97 227.5,-97 227.5,-56 107.5,-56"/>
<text text-anchor="start" x="115.5" y="-85" font-family="Helvetica,sans-Serif" font-size="10.00">FTensor::Tensor2&lt; T,</text>
<text text-anchor="start" x="115.5" y="-74" font-family="Helvetica,sans-Serif" font-size="10.00"> Tensor_Dim0, Tensor</text>
<text text-anchor="middle" x="167.5" y="-63" font-family="Helvetica,sans-Serif" font-size="10.00">_Dim1 &gt;</text>
</a>
</g>
</g>
<!-- Node5&#45;&gt;Node9 -->
<g id="edge13" class="edge">
<title>Node5&#45;&gt;Node9</title>
<path fill="none" stroke="#9a32cd" stroke-dasharray="5,2" d="M38.92,-114.52C57.16,-109.08 83.33,-101.29 107.22,-94.17"/>
<polygon fill="#9a32cd" stroke="#9a32cd" points="37.75,-111.22 29.17,-117.43 39.75,-117.93 37.75,-111.22"/>
<text text-anchor="middle" x="59.5" y="-115.5" font-family="Helvetica,sans-Serif" font-size="10.00"> data</text>
</g>
<!-- Node11 -->
<g id="node11" class="node">
<title>Node11</title>
<g id="a_node11"><a xlink:href="classFTensor_1_1Tensor2__symmetric.html" target="_top" xlink:title=" ">
<polygon fill="white" stroke="black" points="90,-0.5 90,-30.5 245,-30.5 245,-0.5 90,-0.5"/>
<text text-anchor="start" x="98" y="-18.5" font-family="Helvetica,sans-Serif" font-size="10.00">FTensor::Tensor2_symmetric</text>
<text text-anchor="middle" x="167.5" y="-7.5" font-family="Helvetica,sans-Serif" font-size="10.00">&lt; T, Tensor_Dim &gt;</text>
</a>
</g>
</g>
<!-- Node5&#45;&gt;Node11 -->
<g id="edge18" class="edge">
<title>Node5&#45;&gt;Node11</title>
<path fill="none" stroke="#9a32cd" stroke-dasharray="5,2" d="M29.18,-104.13C43.02,-87.49 65.79,-62.6 90,-46.5 99.31,-40.31 110.04,-35.01 120.48,-30.64"/>
<polygon fill="#9a32cd" stroke="#9a32cd" points="26.38,-102.02 22.79,-111.98 31.81,-106.43 26.38,-102.02"/>
<text text-anchor="middle" x="59.5" y="-85.5" font-family="Helvetica,sans-Serif" font-size="10.00"> data</text>
</g>
<!-- Node6&#45;&gt;Node1 -->
<g id="edge5" class="edge">
<title>Node6&#45;&gt;Node1</title>
<path fill="none" stroke="#9a32cd" stroke-dasharray="5,2" d="M214.37,-265.05C299.98,-296.5 487.3,-350.16 619,-277.5 667.36,-250.82 692.52,-184.72 701.77,-154.73"/>
<polygon fill="#9a32cd" stroke="#9a32cd" points="215.53,-261.74 204.94,-261.52 213.08,-268.3 215.53,-261.74"/>
<text text-anchor="middle" x="470.5" y="-316.5" font-family="Helvetica,sans-Serif" font-size="10.00"> tVal</text>
</g>
<!-- Node6&#45;&gt;Node7 -->
<g id="edge9" class="edge">
<title>Node6&#45;&gt;Node7</title>
<path fill="none" stroke="orange" stroke-dasharray="5,2" d="M236.15,-250.46C278.04,-250.27 331.87,-245.11 375,-224.5 385.21,-219.62 383.36,-212.42 393,-206.5 399.19,-202.7 406.02,-199.41 412.98,-196.58"/>
<polygon fill="orange" stroke="orange" points="236.06,-246.96 226.04,-250.41 236.03,-253.96 236.06,-246.96"/>
<text text-anchor="middle" x="319" y="-251.5" font-family="Helvetica,sans-Serif" font-size="10.00"> &lt; double, Dim &gt;</text>
</g>
<!-- Node7&#45;&gt;Node1 -->
<g id="edge7" class="edge">
<title>Node7&#45;&gt;Node1</title>
<path fill="none" stroke="#9a32cd" stroke-dasharray="5,2" d="M536.08,-164C546.06,-161.61 556.27,-159.35 566,-157.5 588.87,-153.14 614.04,-149.54 636.66,-146.73"/>
<polygon fill="#9a32cd" stroke="#9a32cd" points="535.1,-160.63 526.22,-166.41 536.76,-167.43 535.1,-160.63"/>
<text text-anchor="middle" x="592.5" y="-182.5" font-family="Helvetica,sans-Serif" font-size="10.00"> dfVal</text>
<text text-anchor="middle" x="592.5" y="-171.5" font-family="Helvetica,sans-Serif" font-size="10.00">ddfVal</text>
<text text-anchor="middle" x="592.5" y="-160.5" font-family="Helvetica,sans-Serif" font-size="10.00">fVal</text>
</g>
<!-- Node8&#45;&gt;Node1 -->
<g id="edge10" class="edge">
<title>Node8&#45;&gt;Node1</title>
<path fill="none" stroke="#9a32cd" stroke-dasharray="5,2" d="M552.92,-123.11C574.43,-121.84 597.61,-121.55 619,-123.5 624.81,-124.03 630.82,-124.76 636.82,-125.61"/>
<polygon fill="#9a32cd" stroke="#9a32cd" points="552.58,-119.62 542.84,-123.78 553.05,-126.61 552.58,-119.62"/>
<text text-anchor="middle" x="592.5" y="-126.5" font-family="Helvetica,sans-Serif" font-size="10.00"> aF</text>
</g>
<!-- Node9&#45;&gt;Node1 -->
<g id="edge14" class="edge">
<title>Node9&#45;&gt;Node1</title>
<path fill="none" stroke="#9a32cd" stroke-dasharray="5,2" d="M237.61,-58.6C314.46,-41.6 441.75,-22.1 548,-47.5 604.19,-60.93 660.34,-101.76 688.11,-124.25"/>
<polygon fill="#9a32cd" stroke="#9a32cd" points="236.56,-55.26 227.57,-60.87 238.1,-62.08 236.56,-55.26"/>
<text text-anchor="middle" x="470.5" y="-50.5" font-family="Helvetica,sans-Serif" font-size="10.00"> tVec</text>
</g>
<!-- Node9&#45;&gt;Node8 -->
<g id="edge12" class="edge">
<title>Node9&#45;&gt;Node8</title>
<path fill="none" stroke="orange" stroke-dasharray="5,2" d="M237.59,-60.55C279.94,-54.55 333.76,-54.02 375,-77.5 388.51,-85.19 380.84,-97.81 393,-107.5 397.81,-111.33 403.22,-114.59 408.89,-117.35"/>
<polygon fill="orange" stroke="orange" points="236.99,-57.1 227.64,-62.08 238.06,-64.02 236.99,-57.1"/>
<text text-anchor="middle" x="319" y="-80.5" font-family="Helvetica,sans-Serif" font-size="10.00"> &lt; double, Dim, Dim &gt;</text>
</g>
<!-- Node10&#45;&gt;Node1 -->
<g id="edge15" class="edge">
<title>Node10&#45;&gt;Node1</title>
<path fill="none" stroke="#9a32cd" stroke-dasharray="5,2" d="M558.38,-85.77C578.54,-87.78 599.73,-91.1 619,-96.5 641.22,-102.73 664.58,-114.61 681.49,-124.3"/>
<polygon fill="#9a32cd" stroke="#9a32cd" points="558.54,-82.27 548.27,-84.87 557.91,-89.24 558.54,-82.27"/>
<text text-anchor="middle" x="592.5" y="-110.5" font-family="Helvetica,sans-Serif" font-size="10.00"> aF2</text>
<text text-anchor="middle" x="592.5" y="-99.5" font-family="Helvetica,sans-Serif" font-size="10.00">aM</text>
</g>
<!-- Node11&#45;&gt;Node10 -->
<g id="edge17" class="edge">
<title>Node11&#45;&gt;Node10</title>
<path fill="none" stroke="orange" stroke-dasharray="5,2" d="M255.71,-18.81C293.26,-22.29 337.13,-29.14 375,-42.5 383.84,-45.62 384.6,-49.33 393,-53.5 403.86,-58.9 415.94,-64.02 427.24,-68.45"/>
<polygon fill="orange" stroke="orange" points="255.57,-15.29 245.3,-17.92 254.97,-22.26 255.57,-15.29"/>
<text text-anchor="middle" x="319" y="-45.5" font-family="Helvetica,sans-Serif" font-size="10.00"> &lt; double, Dim &gt;</text>
</g>
</g>
</svg>
