<?xml version="1.0" encoding="UTF-8" standalone="no"?>
<!DOCTYPE svg PUBLIC "-//W3C//DTD SVG 1.1//EN"
 "http://www.w3.org/Graphics/SVG/1.1/DTD/svg11.dtd">
<!-- Generated by graphviz version 2.43.0 (0)
 -->
<!-- Title: HookeInternalStressElement::OpSaveStress Pages: 1 -->
<!--zoomable 1454 -->
<svg id="main" version="1.1" xmlns="http://www.w3.org/2000/svg" xmlns:xlink="http://www.w3.org/1999/xlink" xml:space="preserve" onload="init(evt)">
<style type="text/css"><![CDATA[
.edge:hover path { stroke: red; }
.edge:hover polygon { stroke: red; fill: red; }
]]></style>
<script type="text/javascript"><![CDATA[
var edges = document.getElementsByTagName('g');
if (edges && edges.length) {
  for (var i=0;i<edges.length;i++) {
    if (edges[i].id.substr(0,4)=='edge') {
      edges[i].setAttribute('class','edge');
    }
  }
}
]]></script>
        <defs>
                <circle id="rim" cx="0" cy="0" r="7"/>
                <circle id="rim2" cx="0" cy="0" r="3.5"/>
                <g id="zoomPlus">
                        <use xlink:href="#rim" fill="#404040">
                                <set attributeName="fill" to="#808080" begin="zoomplus.mouseover" end="zoomplus.mouseout"/>
                        </use>
                        <path d="M-4,0h8M0,-4v8" fill="none" stroke="white" stroke-width="1.5" pointer-events="none"/>
                </g>
                <g id="zoomMin">
                        <use xlink:href="#rim" fill="#404040">
                                <set attributeName="fill" to="#808080" begin="zoomminus.mouseover" end="zoomminus.mouseout"/>
                        </use>
                        <path d="M-4,0h8" fill="none" stroke="white" stroke-width="1.5" pointer-events="none"/>
                </g>
                <g id="dirArrow">
                        <path fill="none" stroke="white" stroke-width="1.5" d="M0,-3.0v7 M-2.5,-0.5L0,-3.0L2.5,-0.5"/>
                </g>
               <g id="resetDef">
                       <use xlink:href="#rim2" fill="#404040">
                               <set attributeName="fill" to="#808080" begin="reset.mouseover" end="reset.mouseout"/>
                       </use>
               </g>
        </defs>

<script type="text/javascript">
var viewWidth = 3513;
var viewHeight = 1454;
var sectionId = 'dynsection-1';
</script>
<script xlink:href="svgpan.js"/>
<svg id="graph" class="graph">
<g id="viewport">
<title>HookeInternalStressElement::OpSaveStress</title>
<polygon fill="white" stroke="transparent" points="-4,4 -4,-1450 3509,-1450 3509,4 -4,4"/>
<!-- Node1 -->
<g id="node1" class="node">
<title>Node1</title>
<g id="a_node1"><a xlink:title=" ">
<polygon fill="#bfbfbf" stroke="black" points="3350,-535 3350,-565 3505,-565 3505,-535 3350,-535"/>
<text text-anchor="start" x="3358" y="-553" font-family="Helvetica,sans-Serif" font-size="10.00">HookeInternalStressElement</text>
<text text-anchor="middle" x="3427.5" y="-542" font-family="Helvetica,sans-Serif" font-size="10.00">::OpSaveStress</text>
</a>
</g>
</g>
<!-- Node2 -->
<g id="node2" class="node">
<title>Node2</title>
<g id="a_node2"><a xlink:href="structMoFEM_1_1VolumeElementForcesAndSourcesCore_1_1UserDataOperator.html" target="_top" xlink:title=" ">
<polygon fill="white" stroke="black" points="3087,-780.5 3087,-799.5 3207,-799.5 3207,-780.5 3087,-780.5"/>
<text text-anchor="middle" x="3147" y="-787.5" font-family="Helvetica,sans-Serif" font-size="10.00">VolUserDataOperator</text>
</a>
</g>
</g>
<!-- Node2&#45;&gt;Node1 -->
<g id="edge1" class="edge">
<title>Node2&#45;&gt;Node1</title>
<path fill="none" stroke="midnightblue" d="M3166.97,-773.65C3218.3,-729.42 3359.39,-607.83 3408.98,-565.09"/>
<polygon fill="midnightblue" stroke="midnightblue" points="3164.55,-771.12 3159.26,-780.29 3169.12,-776.42 3164.55,-771.12"/>
</g>
<!-- Node3 -->
<g id="node3" class="node">
<title>Node3</title>
<g id="a_node3"><a xlink:href="structMoFEM_1_1ForcesAndSourcesCore_1_1UserDataOperator.html" target="_top" xlink:title=" ">
<polygon fill="white" stroke="black" points="2837,-1019 2837,-1049 3007,-1049 3007,-1019 2837,-1019"/>
<text text-anchor="start" x="2845" y="-1037" font-family="Helvetica,sans-Serif" font-size="10.00">MoFEM::ForcesAndSourcesCore</text>
<text text-anchor="middle" x="2922" y="-1026" font-family="Helvetica,sans-Serif" font-size="10.00">::UserDataOperator</text>
</a>
</g>
</g>
<!-- Node3&#45;&gt;Node2 -->
<g id="edge2" class="edge">
<title>Node3&#45;&gt;Node2</title>
<path fill="none" stroke="midnightblue" d="M2943.96,-1011.07C2991.29,-959.28 3104.87,-835 3137.25,-799.57"/>
<polygon fill="midnightblue" stroke="midnightblue" points="2941.11,-1008.99 2936.95,-1018.74 2946.28,-1013.72 2941.11,-1008.99"/>
</g>
<!-- Node4 -->
<g id="node4" class="node">
<title>Node4</title>
<g id="a_node4"><a xlink:href="structMoFEM_1_1DataOperator.html" target="_top" xlink:title="base operator to do operations at Gauss Pt. level">
<polygon fill="white" stroke="black" points="2579.5,-1170.5 2579.5,-1189.5 2704.5,-1189.5 2704.5,-1170.5 2579.5,-1170.5"/>
<text text-anchor="middle" x="2642" y="-1177.5" font-family="Helvetica,sans-Serif" font-size="10.00">MoFEM::DataOperator</text>
</a>
</g>
</g>
<!-- Node4&#45;&gt;Node3 -->
<g id="edge3" class="edge">
<title>Node4&#45;&gt;Node3</title>
<path fill="none" stroke="midnightblue" d="M2670.33,-1165.65C2723.07,-1137.95 2838.41,-1077.38 2892.25,-1049.1"/>
<polygon fill="midnightblue" stroke="midnightblue" points="2668.47,-1162.67 2661.24,-1170.42 2671.72,-1168.87 2668.47,-1162.67"/>
</g>
<!-- Node5 -->
<g id="node5" class="node">
<title>Node5</title>
<g id="a_node5"><a xlink:title=" ">
<polygon fill="white" stroke="#bfbfbf" points="2160,-1263 2160,-1315 2352,-1315 2352,-1263 2160,-1263"/>
<text text-anchor="start" x="2168" y="-1303" font-family="Helvetica,sans-Serif" font-size="10.00">function&lt; MoFEMErrorCode</text>
<text text-anchor="start" x="2168" y="-1292" font-family="Helvetica,sans-Serif" font-size="10.00">(DataOperator *op_ptr,</text>
<text text-anchor="start" x="2168" y="-1281" font-family="Helvetica,sans-Serif" font-size="10.00"> int side, EntityType type,</text>
<text text-anchor="middle" x="2256" y="-1270" font-family="Helvetica,sans-Serif" font-size="10.00"> EntitiesFieldData::EntData &amp;data)&gt;</text>
</a>
</g>
</g>
<!-- Node5&#45;&gt;Node4 -->
<g id="edge4" class="edge">
<title>Node5&#45;&gt;Node4</title>
<path fill="none" stroke="#9a32cd" stroke-dasharray="5,2" d="M2351.09,-1258.02C2353.8,-1256.42 2356.45,-1254.75 2359,-1253 2369.14,-1246.05 2366.22,-1237.91 2377,-1232 2440.76,-1197.03 2470.06,-1232.16 2539,-1209 2547.68,-1206.09 2548.45,-1202.26 2557,-1199 2566.78,-1195.27 2577.49,-1192.15 2587.89,-1189.6"/>
<polygon fill="#9a32cd" stroke="#9a32cd" points="2349.29,-1255.01 2342.2,-1262.88 2352.65,-1261.15 2349.29,-1255.01"/>
<text text-anchor="middle" x="2458" y="-1235" font-family="Helvetica,sans-Serif" font-size="10.00"> doWorkRhsHook</text>
</g>
<!-- Node6 -->
<g id="node6" class="node">
<title>Node6</title>
<g id="a_node6"><a xlink:href="classbool.html" target="_top" xlink:title=" ">
<polygon fill="white" stroke="black" points="2237,-1334.5 2237,-1353.5 2275,-1353.5 2275,-1334.5 2237,-1334.5"/>
<text text-anchor="middle" x="2256" y="-1341.5" font-family="Helvetica,sans-Serif" font-size="10.00">bool</text>
</a>
</g>
</g>
<!-- Node6&#45;&gt;Node1 -->
<g id="edge86" class="edge">
<title>Node6&#45;&gt;Node1</title>
<path fill="none" stroke="#9a32cd" stroke-dasharray="5,2" d="M2285.45,-1345.62C2349.12,-1349.11 2507.95,-1357 2641,-1357 2641,-1357 2641,-1357 3148,-1357 3322.34,-1357 3411.44,-675.52 3424.74,-565.05"/>
<polygon fill="#9a32cd" stroke="#9a32cd" points="2285.56,-1342.12 2275.38,-1345.06 2285.17,-1349.11 2285.56,-1342.12"/>
<text text-anchor="middle" x="2922" y="-1382" font-family="Helvetica,sans-Serif" font-size="10.00"> isFieldDisp</text>
<text text-anchor="middle" x="2922" y="-1371" font-family="Helvetica,sans-Serif" font-size="10.00">isALE</text>
<text text-anchor="middle" x="2922" y="-1360" font-family="Helvetica,sans-Serif" font-size="10.00">saveMean</text>
</g>
<!-- Node6&#45;&gt;Node4 -->
<g id="edge5" class="edge">
<title>Node6&#45;&gt;Node4</title>
<path fill="none" stroke="#9a32cd" stroke-dasharray="5,2" d="M2285.31,-1346.19C2307.94,-1346.36 2339.06,-1342.82 2359,-1325 2379.44,-1306.73 2356.17,-1283.83 2377,-1266 2432.25,-1218.72 2481.63,-1287.69 2539,-1243 2555.67,-1230.02 2540.87,-1212.65 2557,-1199 2563.5,-1193.49 2571.28,-1189.5 2579.43,-1186.61"/>
<polygon fill="#9a32cd" stroke="#9a32cd" points="2285.38,-1342.69 2275.28,-1345.87 2285.16,-1349.69 2285.38,-1342.69"/>
<text text-anchor="middle" x="2458" y="-1335" font-family="Helvetica,sans-Serif" font-size="10.00"> doTris</text>
<text text-anchor="middle" x="2458" y="-1324" font-family="Helvetica,sans-Serif" font-size="10.00">doQuads</text>
<text text-anchor="middle" x="2458" y="-1313" font-family="Helvetica,sans-Serif" font-size="10.00">sYmm</text>
<text text-anchor="middle" x="2458" y="-1302" font-family="Helvetica,sans-Serif" font-size="10.00">doPrisms</text>
<text text-anchor="middle" x="2458" y="-1291" font-family="Helvetica,sans-Serif" font-size="10.00">doTets</text>
<text text-anchor="middle" x="2458" y="-1280" font-family="Helvetica,sans-Serif" font-size="10.00">doVertices</text>
<text text-anchor="middle" x="2458" y="-1269" font-family="Helvetica,sans-Serif" font-size="10.00">doEdges</text>
</g>
<!-- Node7 -->
<g id="node7" class="node">
<title>Node7</title>
<g id="a_node7"><a xlink:title=" ">
<polygon fill="white" stroke="#bfbfbf" points="2153,-1120.5 2153,-1205.5 2359,-1205.5 2359,-1120.5 2153,-1120.5"/>
<text text-anchor="start" x="2161" y="-1193.5" font-family="Helvetica,sans-Serif" font-size="10.00">function&lt; MoFEMErrorCode</text>
<text text-anchor="start" x="2161" y="-1182.5" font-family="Helvetica,sans-Serif" font-size="10.00">(DataOperator *op_ptr,</text>
<text text-anchor="start" x="2161" y="-1171.5" font-family="Helvetica,sans-Serif" font-size="10.00"> int row_side, int col_side,</text>
<text text-anchor="start" x="2161" y="-1160.5" font-family="Helvetica,sans-Serif" font-size="10.00"> EntityType row_type, EntityType</text>
<text text-anchor="start" x="2161" y="-1149.5" font-family="Helvetica,sans-Serif" font-size="10.00"> col_type, EntitiesFieldData::EntData</text>
<text text-anchor="start" x="2161" y="-1138.5" font-family="Helvetica,sans-Serif" font-size="10.00"> &amp;row_data, EntitiesFieldData::EntData</text>
<text text-anchor="middle" x="2256" y="-1127.5" font-family="Helvetica,sans-Serif" font-size="10.00"> &amp;col_data)&gt;</text>
</a>
</g>
</g>
<!-- Node7&#45;&gt;Node4 -->
<g id="edge6" class="edge">
<title>Node7&#45;&gt;Node4</title>
<path fill="none" stroke="#9a32cd" stroke-dasharray="5,2" d="M2369.5,-1159.49C2421.2,-1158.88 2483.3,-1159.56 2539,-1164 2555.8,-1165.34 2574.01,-1167.85 2590.34,-1170.5"/>
<polygon fill="#9a32cd" stroke="#9a32cd" points="2369.25,-1155.99 2359.3,-1159.63 2369.34,-1162.99 2369.25,-1155.99"/>
<text text-anchor="middle" x="2458" y="-1167" font-family="Helvetica,sans-Serif" font-size="10.00"> doWorkLhsHook</text>
</g>
<!-- Node8 -->
<g id="node8" class="node">
<title>Node8</title>
<g id="a_node8"><a xlink:title=" ">
<polygon fill="white" stroke="#bfbfbf" points="2179,-1224.5 2179,-1243.5 2333,-1243.5 2333,-1224.5 2179,-1224.5"/>
<text text-anchor="middle" x="2256" y="-1231.5" font-family="Helvetica,sans-Serif" font-size="10.00">array&lt; bool, MBMAXTYPE &gt;</text>
</a>
</g>
</g>
<!-- Node8&#45;&gt;Node4 -->
<g id="edge7" class="edge">
<title>Node8&#45;&gt;Node4</title>
<path fill="none" stroke="#9a32cd" stroke-dasharray="5,2" d="M2342.8,-1221.82C2348.4,-1219.87 2353.86,-1217.62 2359,-1215 2368.81,-1210.01 2366.92,-1202.41 2377,-1198 2411.98,-1182.69 2512.87,-1179.68 2579.31,-1179.44"/>
<polygon fill="#9a32cd" stroke="#9a32cd" points="2341.74,-1218.49 2333.25,-1224.82 2343.84,-1225.17 2341.74,-1218.49"/>
<text text-anchor="middle" x="2458" y="-1201" font-family="Helvetica,sans-Serif" font-size="10.00"> doEntities</text>
</g>
<!-- Node9 -->
<g id="node9" class="node">
<title>Node9</title>
<g id="a_node9"><a xlink:title=" ">
<polygon fill="white" stroke="#bfbfbf" points="2607.5,-1208.5 2607.5,-1227.5 2676.5,-1227.5 2676.5,-1208.5 2607.5,-1208.5"/>
<text text-anchor="middle" x="2642" y="-1215.5" font-family="Helvetica,sans-Serif" font-size="10.00">FieldSpace</text>
</a>
</g>
</g>
<!-- Node9&#45;&gt;Node3 -->
<g id="edge8" class="edge">
<title>Node9&#45;&gt;Node3</title>
<path fill="none" stroke="#9a32cd" stroke-dasharray="5,2" d="M2686.56,-1212.27C2700,-1209.43 2714.53,-1205.22 2727,-1199 2805.73,-1159.71 2879.29,-1081.8 2908.14,-1049.05"/>
<polygon fill="#9a32cd" stroke="#9a32cd" points="2685.72,-1208.87 2676.56,-1214.19 2687.04,-1215.75 2685.72,-1208.87"/>
<text text-anchor="middle" x="2782" y="-1192" font-family="Helvetica,sans-Serif" font-size="10.00"> sPace</text>
</g>
<!-- Node10 -->
<g id="node10" class="node">
<title>Node10</title>
<g id="a_node10"><a xlink:title=" ">
<polygon fill="white" stroke="#bfbfbf" points="1122.5,-1310.5 1122.5,-1329.5 1160.5,-1329.5 1160.5,-1310.5 1122.5,-1310.5"/>
<text text-anchor="middle" x="1141.5" y="-1317.5" font-family="Helvetica,sans-Serif" font-size="10.00">char</text>
</a>
</g>
</g>
<!-- Node10&#45;&gt;Node3 -->
<g id="edge9" class="edge">
<title>Node10&#45;&gt;Node3</title>
<path fill="none" stroke="#9a32cd" stroke-dasharray="5,2" d="M1170.72,-1325.48C1251.32,-1340.63 1489.65,-1382 1689.5,-1382 1689.5,-1382 1689.5,-1382 2257,-1382 2519.01,-1382 2627.52,-1382.84 2819,-1204 2868.8,-1157.48 2902.58,-1081.23 2915.33,-1049.06"/>
<polygon fill="#9a32cd" stroke="#9a32cd" points="1171.31,-1322.03 1160.83,-1323.6 1170,-1328.91 1171.31,-1322.03"/>
<text text-anchor="middle" x="2063" y="-1385" font-family="Helvetica,sans-Serif" font-size="10.00"> opType</text>
</g>
<!-- Node38 -->
<g id="node38" class="node">
<title>Node38</title>
<g id="a_node38"><a xlink:href="structMoFEM_1_1Problem.html" target="_top" xlink:title="keeps basic data about problem">
<polygon fill="white" stroke="black" points="1449,-1005.5 1449,-1024.5 1548,-1024.5 1548,-1005.5 1449,-1005.5"/>
<text text-anchor="middle" x="1498.5" y="-1012.5" font-family="Helvetica,sans-Serif" font-size="10.00">MoFEM::Problem</text>
</a>
</g>
</g>
<!-- Node10&#45;&gt;Node38 -->
<g id="edge53" class="edge">
<title>Node10&#45;&gt;Node38</title>
<path fill="none" stroke="#9a32cd" stroke-dasharray="5,2" d="M1170.84,-1317.06C1235.56,-1310.23 1389.31,-1293.21 1397,-1285 1435.23,-1244.19 1378.63,-1076.48 1415,-1034 1423.51,-1024.06 1436.07,-1018.74 1448.84,-1016.02"/>
<polygon fill="#9a32cd" stroke="#9a32cd" points="1170.12,-1313.62 1160.54,-1318.14 1170.85,-1320.58 1170.12,-1313.62"/>
<text text-anchor="middle" x="1329" y="-1309" font-family="Helvetica,sans-Serif" font-size="10.00"> tagName</text>
</g>
<!-- Node11 -->
<g id="node11" class="node">
<title>Node11</title>
<g id="a_node11"><a xlink:href="structMoFEM_1_1ForcesAndSourcesCore.html" target="_top" xlink:title="structure to get information form mofem into EntitiesFieldData">
<polygon fill="white" stroke="black" points="2557,-839.5 2557,-858.5 2727,-858.5 2727,-839.5 2557,-839.5"/>
<text text-anchor="middle" x="2642" y="-846.5" font-family="Helvetica,sans-Serif" font-size="10.00">MoFEM::ForcesAndSourcesCore</text>
</a>
</g>
</g>
<!-- Node11&#45;&gt;Node3 -->
<g id="edge10" class="edge">
<title>Node11&#45;&gt;Node3</title>
<path fill="none" stroke="#9a32cd" stroke-dasharray="5,2" d="M2666.18,-864.42C2718.75,-899.41 2846.48,-984.41 2898.45,-1018.99"/>
<polygon fill="#9a32cd" stroke="#9a32cd" points="2667.82,-861.31 2657.56,-858.69 2663.94,-867.14 2667.82,-861.31"/>
<text text-anchor="middle" x="2782" y="-966" font-family="Helvetica,sans-Serif" font-size="10.00"> ptrFE</text>
</g>
<!-- Node11&#45;&gt;Node11 -->
<g id="edge68" class="edge">
<title>Node11&#45;&gt;Node11</title>
<path fill="none" stroke="#9a32cd" stroke-dasharray="5,2" d="M2615.96,-868.03C2617.38,-873.13 2626.06,-877 2642,-877 2666.88,-877 2674.08,-867.57 2663.58,-858.76"/>
<polygon fill="#9a32cd" stroke="#9a32cd" points="2619.24,-869.29 2620.42,-858.76 2612.93,-866.25 2619.24,-869.29"/>
<text text-anchor="middle" x="2642" y="-891" font-family="Helvetica,sans-Serif" font-size="10.00"> sidePtrFE</text>
<text text-anchor="middle" x="2642" y="-880" font-family="Helvetica,sans-Serif" font-size="10.00">refinePtrFE</text>
</g>
<!-- Node12 -->
<g id="node12" class="node">
<title>Node12</title>
<g id="a_node12"><a xlink:href="structMoFEM_1_1FEMethod.html" target="_top" xlink:title="structure for User Loop Methods on finite elements">
<polygon fill="white" stroke="black" points="2202.5,-824.5 2202.5,-843.5 2309.5,-843.5 2309.5,-824.5 2202.5,-824.5"/>
<text text-anchor="middle" x="2256" y="-831.5" font-family="Helvetica,sans-Serif" font-size="10.00">MoFEM::FEMethod</text>
</a>
</g>
</g>
<!-- Node12&#45;&gt;Node11 -->
<g id="edge11" class="edge">
<title>Node12&#45;&gt;Node11</title>
<path fill="none" stroke="midnightblue" d="M2319.62,-836.45C2384.15,-838.97 2485.15,-842.91 2556.68,-845.71"/>
<polygon fill="midnightblue" stroke="midnightblue" points="2319.72,-832.95 2309.59,-836.05 2319.44,-839.94 2319.72,-832.95"/>
</g>
<!-- Node13 -->
<g id="node13" class="node">
<title>Node13</title>
<g id="a_node13"><a xlink:href="structMoFEM_1_1BasicMethod.html" target="_top" xlink:title="Data structure to exchange data between mofem and User Loop Methods.">
<polygon fill="white" stroke="black" points="1825,-780.5 1825,-799.5 1947,-799.5 1947,-780.5 1825,-780.5"/>
<text text-anchor="middle" x="1886" y="-787.5" font-family="Helvetica,sans-Serif" font-size="10.00">MoFEM::BasicMethod</text>
</a>
</g>
</g>
<!-- Node13&#45;&gt;Node12 -->
<g id="edge12" class="edge">
<title>Node13&#45;&gt;Node12</title>
<path fill="none" stroke="midnightblue" d="M1957.63,-798.44C2029.14,-807 2138.1,-820.02 2202.37,-827.71"/>
<polygon fill="midnightblue" stroke="midnightblue" points="1957.7,-794.93 1947.36,-797.22 1956.87,-801.88 1957.7,-794.93"/>
</g>
<!-- Node14 -->
<g id="node14" class="node">
<title>Node14</title>
<g id="a_node14"><a xlink:href="structMoFEM_1_1KspMethod.html" target="_top" xlink:title="data structure for ksp (linear solver) context">
<polygon fill="white" stroke="black" points="1442,-387.5 1442,-406.5 1555,-406.5 1555,-387.5 1442,-387.5"/>
<text text-anchor="middle" x="1498.5" y="-394.5" font-family="Helvetica,sans-Serif" font-size="10.00">MoFEM::KspMethod</text>
</a>
</g>
</g>
<!-- Node14&#45;&gt;Node13 -->
<g id="edge13" class="edge">
<title>Node14&#45;&gt;Node13</title>
<path fill="none" stroke="midnightblue" d="M1522.96,-412.06C1578.13,-448.84 1716.27,-549.2 1781,-671 1802.19,-710.88 1767.7,-738.45 1799,-771 1805.99,-778.27 1815.1,-783.06 1824.76,-786.16"/>
<polygon fill="midnightblue" stroke="midnightblue" points="1524.83,-409.1 1514.55,-406.52 1520.97,-414.94 1524.83,-409.1"/>
</g>
<!-- Node15 -->
<g id="node15" class="node">
<title>Node15</title>
<g id="a_node15"><a xlink:href="structMoFEM_1_1PetscData.html" target="_top" xlink:title=" ">
<polygon fill="white" stroke="black" points="1087.5,-208.5 1087.5,-227.5 1195.5,-227.5 1195.5,-208.5 1087.5,-208.5"/>
<text text-anchor="middle" x="1141.5" y="-215.5" font-family="Helvetica,sans-Serif" font-size="10.00">MoFEM::PetscData</text>
</a>
</g>
</g>
<!-- Node15&#45;&gt;Node14 -->
<g id="edge14" class="edge">
<title>Node15&#45;&gt;Node14</title>
<path fill="none" stroke="midnightblue" d="M1199.5,-229.83C1213.83,-233.29 1229.09,-237.4 1243,-242 1313.69,-265.4 1334.1,-268.14 1397,-308 1434.6,-331.83 1472.04,-369.64 1488.63,-387.31"/>
<polygon fill="midnightblue" stroke="midnightblue" points="1200.29,-226.42 1189.75,-227.54 1198.68,-233.23 1200.29,-226.42"/>
</g>
<!-- Node25 -->
<g id="node25" class="node">
<title>Node25</title>
<g id="a_node25"><a xlink:href="structMoFEM_1_1SnesMethod.html" target="_top" xlink:title="data structure for snes (nonlinear solver) context">
<polygon fill="white" stroke="black" points="1439,-184.5 1439,-203.5 1558,-203.5 1558,-184.5 1439,-184.5"/>
<text text-anchor="middle" x="1498.5" y="-191.5" font-family="Helvetica,sans-Serif" font-size="10.00">MoFEM::SnesMethod</text>
</a>
</g>
</g>
<!-- Node15&#45;&gt;Node25 -->
<g id="edge27" class="edge">
<title>Node15&#45;&gt;Node25</title>
<path fill="none" stroke="darkgreen" d="M1205.93,-213.71C1272.03,-209.24 1374.74,-202.3 1438.96,-197.96"/>
<polygon fill="darkgreen" stroke="darkgreen" points="1205.39,-210.24 1195.65,-214.41 1205.86,-217.22 1205.39,-210.24"/>
</g>
<!-- Node28 -->
<g id="node28" class="node">
<title>Node28</title>
<g id="a_node28"><a xlink:href="structMoFEM_1_1TSMethod.html" target="_top" xlink:title="data structure for TS (time stepping) context">
<polygon fill="white" stroke="black" points="1445,-621.5 1445,-640.5 1552,-640.5 1552,-621.5 1445,-621.5"/>
<text text-anchor="middle" x="1498.5" y="-628.5" font-family="Helvetica,sans-Serif" font-size="10.00">MoFEM::TSMethod</text>
</a>
</g>
</g>
<!-- Node15&#45;&gt;Node28 -->
<g id="edge33" class="edge">
<title>Node15&#45;&gt;Node28</title>
<path fill="none" stroke="darkgreen" d="M1205.58,-223.09C1219.19,-226.75 1232.59,-232.63 1243,-242 1260.86,-258.08 1245.41,-274.71 1261,-293 1305.64,-345.37 1352.03,-314.92 1397,-367 1412.16,-384.56 1406.84,-394.28 1415,-416 1444.8,-495.35 1481.82,-590.72 1493.67,-621.16"/>
<polygon fill="darkgreen" stroke="darkgreen" points="1206.21,-219.64 1195.68,-220.8 1204.64,-226.46 1206.21,-219.64"/>
</g>
<!-- Node16 -->
<g id="node16" class="node">
<title>Node16</title>
<g id="a_node16"><a xlink:href="structMoFEM_1_1UnknownInterface.html" target="_top" xlink:title="base class for all interface classes">
<polygon fill="white" stroke="black" points="735,-0.5 735,-19.5 883,-19.5 883,-0.5 735,-0.5"/>
<text text-anchor="middle" x="809" y="-7.5" font-family="Helvetica,sans-Serif" font-size="10.00">MoFEM::UnknownInterface</text>
</a>
</g>
</g>
<!-- Node16&#45;&gt;Node15 -->
<g id="edge15" class="edge">
<title>Node16&#45;&gt;Node15</title>
<path fill="none" stroke="midnightblue" d="M893.39,-9.5C944.77,-11.1 1004.14,-16.99 1022,-35 1073.64,-87.06 990.2,-145.18 1040,-199 1052.06,-212.03 1070.03,-217.78 1087.46,-219.95"/>
<polygon fill="midnightblue" stroke="midnightblue" points="893.32,-6 883.23,-9.24 893.14,-13 893.32,-6"/>
</g>
<!-- Node56 -->
<g id="node56" class="node">
<title>Node56</title>
<g id="a_node56"><a xlink:href="structMoFEM_1_1CoreInterface.html" target="_top" xlink:title="Interface.">
<polygon fill="white" stroke="black" points="1079,-8.5 1079,-27.5 1204,-27.5 1204,-8.5 1079,-8.5"/>
<text text-anchor="middle" x="1141.5" y="-15.5" font-family="Helvetica,sans-Serif" font-size="10.00">MoFEM::CoreInterface</text>
</a>
</g>
</g>
<!-- Node16&#45;&gt;Node56 -->
<g id="edge67" class="edge">
<title>Node16&#45;&gt;Node56</title>
<path fill="none" stroke="midnightblue" d="M893.7,-4.27C896.16,-4.17 898.6,-4.08 901,-4 954.75,-2.23 968.32,-0.84 1022,-4 1040.51,-5.09 1060.56,-7.13 1078.81,-9.32"/>
<polygon fill="midnightblue" stroke="midnightblue" points="893.32,-0.78 883.49,-4.74 893.64,-7.78 893.32,-0.78"/>
</g>
<!-- Node17 -->
<g id="node17" class="node">
<title>Node17</title>
<g id="a_node17"><a xlink:title=" ">
<polygon fill="white" stroke="#bfbfbf" points="386,-938.5 386,-1001.5 627,-1001.5 627,-938.5 386,-938.5"/>
<text text-anchor="start" x="394" y="-989.5" font-family="Helvetica,sans-Serif" font-size="10.00">multi_index_container</text>
<text text-anchor="start" x="394" y="-978.5" font-family="Helvetica,sans-Serif" font-size="10.00">&lt; UIdTypeMap, indexed</text>
<text text-anchor="start" x="394" y="-967.5" font-family="Helvetica,sans-Serif" font-size="10.00">_by&lt; hashed_unique&lt; member</text>
<text text-anchor="start" x="394" y="-956.5" font-family="Helvetica,sans-Serif" font-size="10.00">&lt; UIdTypeMap, boost::typeindex</text>
<text text-anchor="middle" x="506.5" y="-945.5" font-family="Helvetica,sans-Serif" font-size="10.00">::type_index, &amp;UIdTypeMap::classIdx &gt; &gt; &gt; &gt;</text>
</a>
</g>
</g>
<!-- Node17&#45;&gt;Node16 -->
<g id="edge16" class="edge">
<title>Node17&#45;&gt;Node16</title>
<path fill="none" stroke="#9a32cd" stroke-dasharray="5,2" d="M511.94,-928.16C530.26,-763.28 605.17,-161.11 735,-29 738.76,-25.17 743.19,-22.08 747.98,-19.59"/>
<polygon fill="#9a32cd" stroke="#9a32cd" points="508.43,-928.05 510.82,-938.37 515.39,-928.82 508.43,-928.05"/>
<text text-anchor="middle" x="681" y="-211" font-family="Helvetica,sans-Serif" font-size="10.00"> iFaceTypeMap</text>
</g>
<!-- Node18 -->
<g id="node18" class="node">
<title>Node18</title>
<g id="a_node18"><a xlink:title=" ">
<polygon fill="white" stroke="#bfbfbf" points="0,-1153.5 0,-1172.5 125,-1172.5 125,-1153.5 0,-1153.5"/>
<text text-anchor="middle" x="62.5" y="-1160.5" font-family="Helvetica,sans-Serif" font-size="10.00">multi_index_container</text>
</a>
</g>
</g>
<!-- Node18&#45;&gt;Node13 -->
<g id="edge40" class="edge">
<title>Node18&#45;&gt;Node13</title>
<path fill="none" stroke="#9a32cd" stroke-dasharray="5,2" d="M83.17,-1178.88C142.81,-1225.38 328.43,-1358 505.5,-1358 505.5,-1358 505.5,-1358 1142.5,-1358 1438.83,-1358 1609.1,-1407.38 1781,-1166 1826.95,-1101.48 1748.19,-870.77 1799,-810 1805.69,-802 1814.89,-796.84 1824.8,-793.58"/>
<polygon fill="#9a32cd" stroke="#9a32cd" points="85.32,-1176.12 75.3,-1172.67 80.98,-1181.61 85.32,-1176.12"/>
<text text-anchor="middle" x="961.5" y="-1438" font-family="Helvetica,sans-Serif" font-size="10.00"> adjacenciesPtr</text>
<text text-anchor="middle" x="961.5" y="-1427" font-family="Helvetica,sans-Serif" font-size="10.00">refinedEntitiesPtr</text>
<text text-anchor="middle" x="961.5" y="-1416" font-family="Helvetica,sans-Serif" font-size="10.00">finiteElementsEntitiesPtr</text>
<text text-anchor="middle" x="961.5" y="-1405" font-family="Helvetica,sans-Serif" font-size="10.00">dofsPtr</text>
<text text-anchor="middle" x="961.5" y="-1394" font-family="Helvetica,sans-Serif" font-size="10.00">entitiesPtr</text>
<text text-anchor="middle" x="961.5" y="-1383" font-family="Helvetica,sans-Serif" font-size="10.00">finiteElementsPtr</text>
<text text-anchor="middle" x="961.5" y="-1372" font-family="Helvetica,sans-Serif" font-size="10.00">refinedFiniteElementsPtr</text>
<text text-anchor="middle" x="961.5" y="-1361" font-family="Helvetica,sans-Serif" font-size="10.00">fieldsPtr</text>
</g>
<!-- Node18&#45;&gt;Node17 -->
<g id="edge17" class="edge">
<title>Node18&#45;&gt;Node17</title>
<path fill="none" stroke="orange" stroke-dasharray="5,2" d="M95,-1149.24C165.04,-1118.66 335.15,-1044.39 432.99,-1001.66"/>
<polygon fill="orange" stroke="orange" points="93.18,-1146.22 85.42,-1153.43 95.98,-1152.63 93.18,-1146.22"/>
<text text-anchor="start" x="143" y="-1162" font-family="Helvetica,sans-Serif" font-size="10.00"> &lt; UIdTypeMap, indexed</text>
<text text-anchor="start" x="143" y="-1151" font-family="Helvetica,sans-Serif" font-size="10.00">_by&lt; hashed_unique&lt; member</text>
<text text-anchor="start" x="143" y="-1140" font-family="Helvetica,sans-Serif" font-size="10.00">&lt; UIdTypeMap, boost::typeindex</text>
<text text-anchor="middle" x="255.5" y="-1129" font-family="Helvetica,sans-Serif" font-size="10.00">::type_index, &amp;UIdTypeMap::classIdx &gt; &gt; &gt; &gt;</text>
</g>
<!-- Node19 -->
<g id="node19" class="node">
<title>Node19</title>
<g id="a_node19"><a xlink:title=" ">
<polygon fill="white" stroke="#bfbfbf" points="738.5,-38.5 738.5,-57.5 879.5,-57.5 879.5,-38.5 738.5,-38.5"/>
<text text-anchor="middle" x="809" y="-45.5" font-family="Helvetica,sans-Serif" font-size="10.00">static constexpr Switches</text>
</a>
</g>
</g>
<!-- Node19&#45;&gt;Node15 -->
<g id="edge18" class="edge">
<title>Node19&#45;&gt;Node15</title>
<path fill="none" stroke="#9a32cd" stroke-dasharray="5,2" d="M889.69,-38.75C934.48,-38.19 988.04,-46.05 1022,-80 1059.83,-117.82 1002.88,-160.49 1040,-199 1052.26,-211.72 1070.17,-217.42 1087.49,-219.64"/>
<polygon fill="#9a32cd" stroke="#9a32cd" points="889.6,-35.25 879.69,-39.01 889.78,-42.25 889.6,-35.25"/>
<text text-anchor="middle" x="961.5" y="-160" font-family="Helvetica,sans-Serif" font-size="10.00"> CtxSetX_TT</text>
<text text-anchor="middle" x="961.5" y="-149" font-family="Helvetica,sans-Serif" font-size="10.00">CtxSetX_T</text>
<text text-anchor="middle" x="961.5" y="-138" font-family="Helvetica,sans-Serif" font-size="10.00">CtxSetA</text>
<text text-anchor="middle" x="961.5" y="-127" font-family="Helvetica,sans-Serif" font-size="10.00">CtxSetB</text>
<text text-anchor="middle" x="961.5" y="-116" font-family="Helvetica,sans-Serif" font-size="10.00">CtxSetTime</text>
<text text-anchor="middle" x="961.5" y="-105" font-family="Helvetica,sans-Serif" font-size="10.00">CtxSetNone</text>
<text text-anchor="middle" x="961.5" y="-94" font-family="Helvetica,sans-Serif" font-size="10.00">CtxSetF</text>
<text text-anchor="middle" x="961.5" y="-83" font-family="Helvetica,sans-Serif" font-size="10.00">CtxSetX</text>
</g>
<!-- Node20 -->
<g id="node20" class="node">
<title>Node20</title>
<g id="a_node20"><a xlink:title=" ">
<polygon fill="white" stroke="#bfbfbf" points="791.5,-365.5 791.5,-384.5 826.5,-384.5 826.5,-365.5 791.5,-365.5"/>
<text text-anchor="middle" x="809" y="-372.5" font-family="Helvetica,sans-Serif" font-size="10.00">Mat</text>
</a>
</g>
</g>
<!-- Node20&#45;&gt;Node14 -->
<g id="edge24" class="edge">
<title>Node20&#45;&gt;Node14</title>
<path fill="none" stroke="#9a32cd" stroke-dasharray="5,2" d="M836.42,-381.59C878.97,-391.83 965.42,-411.09 1040,-418 1198,-432.64 1239.07,-429.33 1397,-414 1414.26,-412.32 1433.03,-409.44 1449.63,-406.52"/>
<polygon fill="#9a32cd" stroke="#9a32cd" points="837.13,-378.16 826.59,-379.2 835.48,-384.96 837.13,-378.16"/>
<text text-anchor="middle" x="1141.5" y="-442" font-family="Helvetica,sans-Serif" font-size="10.00"> ksp_A</text>
<text text-anchor="middle" x="1141.5" y="-431" font-family="Helvetica,sans-Serif" font-size="10.00">ksp_B</text>
</g>
<!-- Node20&#45;&gt;Node15 -->
<g id="edge19" class="edge">
<title>Node20&#45;&gt;Node15</title>
<path fill="none" stroke="#9a32cd" stroke-dasharray="5,2" d="M829.72,-359.07C847.58,-345.15 875.01,-325.04 901,-311 951.9,-283.5 974.91,-296.61 1022,-263 1032.01,-255.86 1029.51,-248.41 1040,-242 1054.24,-233.3 1071.39,-227.76 1087.47,-224.22"/>
<polygon fill="#9a32cd" stroke="#9a32cd" points="827.45,-356.4 821.77,-365.35 831.79,-361.9 827.45,-356.4"/>
<text text-anchor="middle" x="961.5" y="-325" font-family="Helvetica,sans-Serif" font-size="10.00"> A</text>
<text text-anchor="middle" x="961.5" y="-314" font-family="Helvetica,sans-Serif" font-size="10.00">B</text>
</g>
<!-- Node20&#45;&gt;Node25 -->
<g id="edge29" class="edge">
<title>Node20&#45;&gt;Node25</title>
<path fill="none" stroke="#9a32cd" stroke-dasharray="5,2" d="M836.89,-377.16C880.66,-379.19 967.84,-376.87 1022,-333 1037.78,-320.22 1024.22,-303.79 1040,-291 1102.84,-240.07 1318.15,-238.03 1397,-220 1418.96,-214.98 1443.44,-208.66 1462.74,-203.51"/>
<polygon fill="#9a32cd" stroke="#9a32cd" points="836.93,-373.65 826.75,-376.57 836.53,-380.64 836.93,-373.65"/>
<text text-anchor="middle" x="1141.5" y="-305" font-family="Helvetica,sans-Serif" font-size="10.00"> snes_A</text>
<text text-anchor="middle" x="1141.5" y="-294" font-family="Helvetica,sans-Serif" font-size="10.00">snes_B</text>
</g>
<!-- Node20&#45;&gt;Node28 -->
<g id="edge34" class="edge">
<title>Node20&#45;&gt;Node28</title>
<path fill="none" stroke="#9a32cd" stroke-dasharray="5,2" d="M819.57,-393.84C846.26,-444.01 927.07,-580.59 1040,-632 1110.66,-664.17 1340.21,-646.62 1444.76,-636.53"/>
<polygon fill="#9a32cd" stroke="#9a32cd" points="822.56,-392 814.83,-384.75 816.35,-395.24 822.56,-392"/>
<text text-anchor="middle" x="1141.5" y="-664" font-family="Helvetica,sans-Serif" font-size="10.00"> ts_A</text>
<text text-anchor="middle" x="1141.5" y="-653" font-family="Helvetica,sans-Serif" font-size="10.00">ts_B</text>
</g>
<!-- Node21 -->
<g id="node21" class="node">
<title>Node21</title>
<g id="a_node21"><a xlink:title=" ">
<polygon fill="white" stroke="#bfbfbf" points="772.5,-174.5 772.5,-193.5 845.5,-193.5 845.5,-174.5 772.5,-174.5"/>
<text text-anchor="middle" x="809" y="-181.5" font-family="Helvetica,sans-Serif" font-size="10.00">bitset&lt; 8 &gt;</text>
</a>
</g>
</g>
<!-- Node21&#45;&gt;Node15 -->
<g id="edge20" class="edge">
<title>Node21&#45;&gt;Node15</title>
<path fill="none" stroke="#9a32cd" stroke-dasharray="5,2" d="M855.77,-175.9C899.7,-170.04 967.25,-166.07 1022,-185 1031.58,-188.31 1030.76,-194.83 1040,-199 1054.73,-205.65 1071.68,-209.97 1087.42,-212.78"/>
<polygon fill="#9a32cd" stroke="#9a32cd" points="855.09,-172.47 845.68,-177.34 856.07,-179.4 855.09,-172.47"/>
<text text-anchor="middle" x="961.5" y="-188" font-family="Helvetica,sans-Serif" font-size="10.00"> data_ctx</text>
</g>
<!-- Node22 -->
<g id="node22" class="node">
<title>Node22</title>
<g id="a_node22"><a xlink:title=" ">
<polygon fill="white" stroke="#bfbfbf" points="792,-285.5 792,-304.5 826,-304.5 826,-285.5 792,-285.5"/>
<text text-anchor="middle" x="809" y="-292.5" font-family="Helvetica,sans-Serif" font-size="10.00">Vec</text>
</a>
</g>
</g>
<!-- Node22&#45;&gt;Node14 -->
<g id="edge25" class="edge">
<title>Node22&#45;&gt;Node14</title>
<path fill="none" stroke="#9a32cd" stroke-dasharray="5,2" d="M836.17,-299.27C854.32,-302.1 879.08,-305.7 901,-308 1052.51,-323.89 1092.33,-308.48 1243,-331 1312.52,-341.39 1329.07,-348.94 1397,-367 1420.76,-373.32 1447.41,-381.31 1467.29,-387.46"/>
<polygon fill="#9a32cd" stroke="#9a32cd" points="836.49,-295.77 826.06,-297.67 835.39,-302.69 836.49,-295.77"/>
<text text-anchor="middle" x="1141.5" y="-334" font-family="Helvetica,sans-Serif" font-size="10.00"> ksp_f</text>
</g>
<!-- Node22&#45;&gt;Node15 -->
<g id="edge21" class="edge">
<title>Node22&#45;&gt;Node15</title>
<path fill="none" stroke="#9a32cd" stroke-dasharray="5,2" d="M824.04,-277.65C840.3,-259.07 868.97,-230.69 901,-219 962.91,-196.4 1039.97,-201.4 1089.68,-208.49"/>
<polygon fill="#9a32cd" stroke="#9a32cd" points="821.27,-275.5 817.48,-285.4 826.61,-280.03 821.27,-275.5"/>
<text text-anchor="middle" x="961.5" y="-255" font-family="Helvetica,sans-Serif" font-size="10.00"> f</text>
<text text-anchor="middle" x="961.5" y="-244" font-family="Helvetica,sans-Serif" font-size="10.00">x</text>
<text text-anchor="middle" x="961.5" y="-233" font-family="Helvetica,sans-Serif" font-size="10.00">x_t</text>
<text text-anchor="middle" x="961.5" y="-222" font-family="Helvetica,sans-Serif" font-size="10.00">x_tt</text>
</g>
<!-- Node22&#45;&gt;Node25 -->
<g id="edge30" class="edge">
<title>Node22&#45;&gt;Node25</title>
<path fill="none" stroke="#9a32cd" stroke-dasharray="5,2" d="M825.68,-277.4C841.27,-259.44 865.33,-230.39 883,-203 892.48,-188.3 887.08,-178.6 901,-168 951.21,-129.77 977.23,-145.48 1040,-139 1129.75,-129.74 1153.29,-129.42 1243,-139 1323.46,-147.59 1415.83,-171.06 1464.11,-184.4"/>
<polygon fill="#9a32cd" stroke="#9a32cd" points="822.74,-275.45 818.78,-285.27 828,-280.07 822.74,-275.45"/>
<text text-anchor="middle" x="1141.5" y="-153" font-family="Helvetica,sans-Serif" font-size="10.00"> snes_x</text>
<text text-anchor="middle" x="1141.5" y="-142" font-family="Helvetica,sans-Serif" font-size="10.00">snes_f</text>
</g>
<!-- Node22&#45;&gt;Node28 -->
<g id="edge38" class="edge">
<title>Node22&#45;&gt;Node28</title>
<path fill="none" stroke="#9a32cd" stroke-dasharray="5,2" d="M828.78,-311.23C866.4,-342.97 954.73,-413.69 1040,-454 1124.83,-494.1 1154.68,-480.33 1243,-512 1313.26,-537.2 1329.59,-546.94 1397,-579 1426.45,-593.01 1459.96,-610.71 1479.89,-621.43"/>
<polygon fill="#9a32cd" stroke="#9a32cd" points="831.02,-308.54 821.14,-304.73 826.48,-313.87 831.02,-308.54"/>
<text text-anchor="middle" x="1141.5" y="-548" font-family="Helvetica,sans-Serif" font-size="10.00"> ts_u</text>
<text text-anchor="middle" x="1141.5" y="-537" font-family="Helvetica,sans-Serif" font-size="10.00">ts_F</text>
<text text-anchor="middle" x="1141.5" y="-526" font-family="Helvetica,sans-Serif" font-size="10.00">ts_u_t</text>
<text text-anchor="middle" x="1141.5" y="-515" font-family="Helvetica,sans-Serif" font-size="10.00">ts_u_tt</text>
</g>
<!-- Node23 -->
<g id="node23" class="node">
<title>Node23</title>
<g id="a_node23"><a xlink:title=" ">
<polygon fill="white" stroke="#bfbfbf" points="1124,-389.5 1124,-408.5 1159,-408.5 1159,-389.5 1124,-389.5"/>
<text text-anchor="middle" x="1141.5" y="-396.5" font-family="Helvetica,sans-Serif" font-size="10.00">KSP</text>
</a>
</g>
</g>
<!-- Node23&#45;&gt;Node14 -->
<g id="edge22" class="edge">
<title>Node23&#45;&gt;Node14</title>
<path fill="none" stroke="#9a32cd" stroke-dasharray="5,2" d="M1169.29,-398.85C1227.06,-398.52 1364.41,-397.75 1441.88,-397.31"/>
<polygon fill="#9a32cd" stroke="#9a32cd" points="1169.13,-395.35 1159.15,-398.91 1169.17,-402.35 1169.13,-395.35"/>
<text text-anchor="middle" x="1329" y="-402" font-family="Helvetica,sans-Serif" font-size="10.00"> ksp</text>
</g>
<!-- Node24 -->
<g id="node24" class="node">
<title>Node24</title>
<g id="a_node24"><a xlink:title=" ">
<polygon fill="white" stroke="#bfbfbf" points="1104.5,-351.5 1104.5,-370.5 1178.5,-370.5 1178.5,-351.5 1104.5,-351.5"/>
<text text-anchor="middle" x="1141.5" y="-358.5" font-family="Helvetica,sans-Serif" font-size="10.00">KSPContext</text>
</a>
</g>
</g>
<!-- Node24&#45;&gt;Node14 -->
<g id="edge23" class="edge">
<title>Node24&#45;&gt;Node14</title>
<path fill="none" stroke="#9a32cd" stroke-dasharray="5,2" d="M1188.87,-364.28C1239.93,-368.06 1324.44,-374.82 1397,-383 1411.53,-384.64 1427.2,-386.69 1441.75,-388.71"/>
<polygon fill="#9a32cd" stroke="#9a32cd" points="1189.03,-360.78 1178.8,-363.54 1188.52,-367.76 1189.03,-360.78"/>
<text text-anchor="middle" x="1329" y="-386" font-family="Helvetica,sans-Serif" font-size="10.00"> ksp_ctx</text>
</g>
<!-- Node25&#45;&gt;Node13 -->
<g id="edge26" class="edge">
<title>Node25&#45;&gt;Node13</title>
<path fill="none" stroke="midnightblue" d="M1524.75,-209.01C1582.54,-244.97 1723.88,-342.43 1781,-467 1809.21,-528.52 1755.08,-719.51 1799,-771 1805.75,-778.91 1814.98,-783.96 1824.9,-787.11"/>
<polygon fill="midnightblue" stroke="midnightblue" points="1526.25,-205.82 1515.9,-203.58 1522.59,-211.79 1526.25,-205.82"/>
</g>
<!-- Node26 -->
<g id="node26" class="node">
<title>Node26</title>
<g id="a_node26"><a xlink:title=" ">
<polygon fill="white" stroke="#bfbfbf" points="1120.5,-170.5 1120.5,-189.5 1162.5,-189.5 1162.5,-170.5 1120.5,-170.5"/>
<text text-anchor="middle" x="1141.5" y="-177.5" font-family="Helvetica,sans-Serif" font-size="10.00">SNES</text>
</a>
</g>
</g>
<!-- Node26&#45;&gt;Node25 -->
<g id="edge28" class="edge">
<title>Node26&#45;&gt;Node25</title>
<path fill="none" stroke="#9a32cd" stroke-dasharray="5,2" d="M1172.91,-179.4C1220.68,-178.68 1316.18,-178.11 1397,-183 1410.58,-183.82 1425.15,-185.15 1438.86,-186.61"/>
<polygon fill="#9a32cd" stroke="#9a32cd" points="1172.59,-175.91 1162.65,-179.57 1172.71,-182.91 1172.59,-175.91"/>
<text text-anchor="middle" x="1329" y="-186" font-family="Helvetica,sans-Serif" font-size="10.00"> snes</text>
</g>
<!-- Node27 -->
<g id="node27" class="node">
<title>Node27</title>
<g id="a_node27"><a xlink:title=" ">
<polygon fill="white" stroke="#bfbfbf" points="1101.5,-74.5 1101.5,-93.5 1181.5,-93.5 1181.5,-74.5 1101.5,-74.5"/>
<text text-anchor="middle" x="1141.5" y="-81.5" font-family="Helvetica,sans-Serif" font-size="10.00">SNESContext</text>
</a>
</g>
</g>
<!-- Node27&#45;&gt;Node25 -->
<g id="edge31" class="edge">
<title>Node27&#45;&gt;Node25</title>
<path fill="none" stroke="#9a32cd" stroke-dasharray="5,2" d="M1191.97,-79.1C1244.92,-75.86 1330.3,-76.52 1397,-105 1438.8,-122.85 1475.23,-165.14 1490.22,-184.29"/>
<polygon fill="#9a32cd" stroke="#9a32cd" points="1191.56,-75.62 1181.83,-79.79 1192.04,-82.6 1191.56,-75.62"/>
<text text-anchor="middle" x="1329" y="-108" font-family="Helvetica,sans-Serif" font-size="10.00"> snes_ctx</text>
</g>
<!-- Node28&#45;&gt;Node13 -->
<g id="edge32" class="edge">
<title>Node28&#45;&gt;Node13</title>
<path fill="none" stroke="midnightblue" d="M1531.1,-644.67C1583.56,-667.58 1691.72,-715.66 1781,-761 1789.16,-765.14 1790.44,-767.76 1799,-771 1809.01,-774.79 1819.97,-777.93 1830.62,-780.49"/>
<polygon fill="midnightblue" stroke="midnightblue" points="1532.23,-641.35 1521.67,-640.56 1529.44,-647.77 1532.23,-641.35"/>
</g>
<!-- Node29 -->
<g id="node29" class="node">
<title>Node29</title>
<g id="a_node29"><a xlink:title=" ">
<polygon fill="white" stroke="#bfbfbf" points="1109,-737.5 1109,-756.5 1174,-756.5 1174,-737.5 1109,-737.5"/>
<text text-anchor="middle" x="1141.5" y="-744.5" font-family="Helvetica,sans-Serif" font-size="10.00">PetscReal</text>
</a>
</g>
</g>
<!-- Node29&#45;&gt;Node28 -->
<g id="edge35" class="edge">
<title>Node29&#45;&gt;Node28</title>
<path fill="none" stroke="#9a32cd" stroke-dasharray="5,2" d="M1184.24,-742.55C1202.68,-739.72 1224.35,-735.18 1243,-728 1251.75,-724.63 1252.22,-720.29 1261,-717 1318.42,-695.52 1339.71,-715.81 1397,-694 1431.83,-680.74 1467.65,-654.74 1485.65,-640.64"/>
<polygon fill="#9a32cd" stroke="#9a32cd" points="1183.5,-739.12 1174.09,-744 1184.48,-746.06 1183.5,-739.12"/>
<text text-anchor="middle" x="1329" y="-753" font-family="Helvetica,sans-Serif" font-size="10.00"> ts_a</text>
<text text-anchor="middle" x="1329" y="-742" font-family="Helvetica,sans-Serif" font-size="10.00">ts_t</text>
<text text-anchor="middle" x="1329" y="-731" font-family="Helvetica,sans-Serif" font-size="10.00">ts_dt</text>
<text text-anchor="middle" x="1329" y="-720" font-family="Helvetica,sans-Serif" font-size="10.00">ts_aa</text>
</g>
<!-- Node30 -->
<g id="node30" class="node">
<title>Node30</title>
<g id="a_node30"><a xlink:title=" ">
<polygon fill="white" stroke="#bfbfbf" points="1108,-699.5 1108,-718.5 1175,-718.5 1175,-699.5 1108,-699.5"/>
<text text-anchor="middle" x="1141.5" y="-706.5" font-family="Helvetica,sans-Serif" font-size="10.00">TSContext</text>
</a>
</g>
</g>
<!-- Node30&#45;&gt;Node28 -->
<g id="edge36" class="edge">
<title>Node30&#45;&gt;Node28</title>
<path fill="none" stroke="#9a32cd" stroke-dasharray="5,2" d="M1185.03,-699.15C1207.55,-694.06 1235.72,-687.91 1261,-683 1321.18,-671.32 1337.23,-673.63 1397,-660 1421.08,-654.51 1447.94,-646.67 1467.83,-640.52"/>
<polygon fill="#9a32cd" stroke="#9a32cd" points="1184.08,-695.77 1175.11,-701.4 1185.63,-702.6 1184.08,-695.77"/>
<text text-anchor="middle" x="1329" y="-686" font-family="Helvetica,sans-Serif" font-size="10.00"> ts_ctx</text>
</g>
<!-- Node31 -->
<g id="node31" class="node">
<title>Node31</title>
<g id="a_node31"><a xlink:title=" ">
<polygon fill="white" stroke="#bfbfbf" points="1113.5,-603.5 1113.5,-622.5 1169.5,-622.5 1169.5,-603.5 1113.5,-603.5"/>
<text text-anchor="middle" x="1141.5" y="-610.5" font-family="Helvetica,sans-Serif" font-size="10.00">PetscInt</text>
</a>
</g>
</g>
<!-- Node31&#45;&gt;Node28 -->
<g id="edge37" class="edge">
<title>Node31&#45;&gt;Node28</title>
<path fill="none" stroke="#9a32cd" stroke-dasharray="5,2" d="M1179.88,-614.31C1229.5,-616.11 1319.87,-619.65 1397,-624 1412.54,-624.88 1429.42,-625.99 1444.84,-627.07"/>
<polygon fill="#9a32cd" stroke="#9a32cd" points="1179.75,-610.8 1169.63,-613.94 1179.5,-617.8 1179.75,-610.8"/>
<text text-anchor="middle" x="1329" y="-627" font-family="Helvetica,sans-Serif" font-size="10.00"> ts_step</text>
</g>
<!-- Node32 -->
<g id="node32" class="node">
<title>Node32</title>
<g id="a_node32"><a xlink:title=" ">
<polygon fill="white" stroke="#bfbfbf" points="1127,-565.5 1127,-584.5 1156,-584.5 1156,-565.5 1127,-565.5"/>
<text text-anchor="middle" x="1141.5" y="-572.5" font-family="Helvetica,sans-Serif" font-size="10.00">TS</text>
</a>
</g>
</g>
<!-- Node32&#45;&gt;Node28 -->
<g id="edge39" class="edge">
<title>Node32&#45;&gt;Node28</title>
<path fill="none" stroke="#9a32cd" stroke-dasharray="5,2" d="M1166.13,-576.12C1211.33,-578.57 1313.01,-585.56 1397,-602 1421.77,-606.85 1449.27,-614.98 1469.23,-621.4"/>
<polygon fill="#9a32cd" stroke="#9a32cd" points="1166.31,-572.63 1156.14,-575.61 1165.95,-579.62 1166.31,-572.63"/>
<text text-anchor="middle" x="1329" y="-605" font-family="Helvetica,sans-Serif" font-size="10.00"> ts</text>
</g>
<!-- Node33 -->
<g id="node33" class="node">
<title>Node33</title>
<g id="a_node33"><a xlink:title=" ">
<polygon fill="white" stroke="#bfbfbf" points="1454,-1119.5 1454,-1138.5 1543,-1138.5 1543,-1119.5 1454,-1119.5"/>
<text text-anchor="middle" x="1498.5" y="-1126.5" font-family="Helvetica,sans-Serif" font-size="10.00">pair&lt; int, int &gt;</text>
</a>
</g>
</g>
<!-- Node33&#45;&gt;Node13 -->
<g id="edge41" class="edge">
<title>Node33&#45;&gt;Node13</title>
<path fill="none" stroke="#9a32cd" stroke-dasharray="5,2" d="M1544.42,-1140.76C1607.09,-1154.15 1719.91,-1166.79 1781,-1104 1826.65,-1057.09 1756.75,-859.99 1799,-810 1805.73,-802.04 1814.95,-796.9 1824.87,-793.64"/>
<polygon fill="#9a32cd" stroke="#9a32cd" points="1544.96,-1137.29 1534.44,-1138.53 1543.44,-1144.12 1544.96,-1137.29"/>
<text text-anchor="middle" x="1690.5" y="-1154" font-family="Helvetica,sans-Serif" font-size="10.00"> loHiFERank</text>
</g>
<!-- Node34 -->
<g id="node34" class="node">
<title>Node34</title>
<g id="a_node34"><a xlink:title=" ">
<polygon fill="white" stroke="#bfbfbf" points="1428.5,-1081.5 1428.5,-1100.5 1568.5,-1100.5 1568.5,-1081.5 1428.5,-1081.5"/>
<text text-anchor="middle" x="1498.5" y="-1088.5" font-family="Helvetica,sans-Serif" font-size="10.00">weak_ptr&lt; CacheTuple &gt;</text>
</a>
</g>
</g>
<!-- Node34&#45;&gt;Node13 -->
<g id="edge42" class="edge">
<title>Node34&#45;&gt;Node13</title>
<path fill="none" stroke="#9a32cd" stroke-dasharray="5,2" d="M1579.18,-1090C1657.39,-1088.19 1766.98,-1083.14 1781,-1069 1821.62,-1028.03 1761.58,-853.91 1799,-810 1805.76,-802.07 1815,-796.94 1824.92,-793.68"/>
<polygon fill="#9a32cd" stroke="#9a32cd" points="1578.76,-1086.51 1568.84,-1090.22 1578.91,-1093.5 1578.76,-1086.51"/>
<text text-anchor="middle" x="1690.5" y="-1092" font-family="Helvetica,sans-Serif" font-size="10.00"> cacheWeakPtr</text>
</g>
<!-- Node35 -->
<g id="node35" class="node">
<title>Node35</title>
<g id="a_node35"><a xlink:title=" ">
<polygon fill="white" stroke="#bfbfbf" points="1442.5,-1043.5 1442.5,-1062.5 1554.5,-1062.5 1554.5,-1043.5 1442.5,-1043.5"/>
<text text-anchor="middle" x="1498.5" y="-1050.5" font-family="Helvetica,sans-Serif" font-size="10.00">unique_ptr&lt; bool &gt;</text>
</a>
</g>
</g>
<!-- Node35&#45;&gt;Node13 -->
<g id="edge43" class="edge">
<title>Node35&#45;&gt;Node13</title>
<path fill="none" stroke="#9a32cd" stroke-dasharray="5,2" d="M1564.77,-1048.85C1638.74,-1042.68 1752.71,-1028.28 1781,-997 1809,-966.04 1771.5,-841.41 1799,-810 1805.77,-802.27 1814.88,-797.22 1824.65,-793.97"/>
<polygon fill="#9a32cd" stroke="#9a32cd" points="1564.3,-1045.37 1554.62,-1049.66 1564.86,-1052.35 1564.3,-1045.37"/>
<text text-anchor="middle" x="1690.5" y="-1059" font-family="Helvetica,sans-Serif" font-size="10.00"> matAssembleSwitch</text>
<text text-anchor="middle" x="1690.5" y="-1048" font-family="Helvetica,sans-Serif" font-size="10.00">vecAssembleSwitch</text>
</g>
<!-- Node36 -->
<g id="node36" class="node">
<title>Node36</title>
<g id="a_node36"><a xlink:title=" ">
<polygon fill="white" stroke="#bfbfbf" points="1127,-786.5 1127,-805.5 1156,-805.5 1156,-786.5 1127,-786.5"/>
<text text-anchor="middle" x="1141.5" y="-793.5" font-family="Helvetica,sans-Serif" font-size="10.00">int</text>
</a>
</g>
</g>
<!-- Node36&#45;&gt;Node13 -->
<g id="edge44" class="edge">
<title>Node36&#45;&gt;Node13</title>
<path fill="none" stroke="#9a32cd" stroke-dasharray="5,2" d="M1166.23,-794.41C1190.15,-792.86 1228.12,-790.5 1261,-789 1403.53,-782.48 1439.32,-782.59 1582,-784 1666.31,-784.83 1763.8,-786.98 1824.93,-788.46"/>
<polygon fill="#9a32cd" stroke="#9a32cd" points="1165.75,-790.94 1156,-795.09 1166.21,-797.92 1165.75,-790.94"/>
<text text-anchor="middle" x="1498.5" y="-820" font-family="Helvetica,sans-Serif" font-size="10.00"> sIze</text>
<text text-anchor="middle" x="1498.5" y="-809" font-family="Helvetica,sans-Serif" font-size="10.00">loopSize</text>
<text text-anchor="middle" x="1498.5" y="-798" font-family="Helvetica,sans-Serif" font-size="10.00">nInTheLoop</text>
<text text-anchor="middle" x="1498.5" y="-787" font-family="Helvetica,sans-Serif" font-size="10.00">rAnk</text>
</g>
<!-- Node36&#45;&gt;Node38 -->
<g id="edge56" class="edge">
<title>Node36&#45;&gt;Node38</title>
<path fill="none" stroke="#9a32cd" stroke-dasharray="5,2" d="M1166.16,-794.02C1222.29,-789.83 1361.45,-782.56 1397,-810 1417.69,-825.97 1404.62,-842.01 1415,-866 1438.72,-920.82 1476.37,-981.9 1491.2,-1005.23"/>
<polygon fill="#9a32cd" stroke="#9a32cd" points="1165.8,-790.54 1156.1,-794.81 1166.34,-797.52 1165.8,-790.54"/>
<text text-anchor="middle" x="1329" y="-879" font-family="Helvetica,sans-Serif" font-size="10.00"> tagNameSize</text>
<text text-anchor="middle" x="1329" y="-868" font-family="Helvetica,sans-Serif" font-size="10.00">nbDofsRow</text>
<text text-anchor="middle" x="1329" y="-857" font-family="Helvetica,sans-Serif" font-size="10.00">nbLocDofsCol</text>
<text text-anchor="middle" x="1329" y="-846" font-family="Helvetica,sans-Serif" font-size="10.00">nbDofsCol</text>
<text text-anchor="middle" x="1329" y="-835" font-family="Helvetica,sans-Serif" font-size="10.00">nbGhostDofsRow</text>
<text text-anchor="middle" x="1329" y="-824" font-family="Helvetica,sans-Serif" font-size="10.00">nbGhostDofsCol</text>
<text text-anchor="middle" x="1329" y="-813" font-family="Helvetica,sans-Serif" font-size="10.00">nbLocDofsRow</text>
</g>
<!-- Node37 -->
<g id="node37" class="node">
<title>Node37</title>
<g id="a_node37"><a xlink:title=" ">
<polygon fill="white" stroke="#bfbfbf" points="1415,-837.5 1415,-856.5 1582,-856.5 1582,-837.5 1415,-837.5"/>
<text text-anchor="middle" x="1498.5" y="-844.5" font-family="Helvetica,sans-Serif" font-size="10.00">function&lt; MoFEMErrorCode()&gt;</text>
</a>
</g>
</g>
<!-- Node37&#45;&gt;Node13 -->
<g id="edge45" class="edge">
<title>Node37&#45;&gt;Node13</title>
<path fill="none" stroke="#9a32cd" stroke-dasharray="5,2" d="M1574.08,-835.97C1647.12,-825.17 1757.02,-808.92 1824.71,-798.91"/>
<polygon fill="#9a32cd" stroke="#9a32cd" points="1573.4,-832.53 1564.02,-837.46 1574.43,-839.46 1573.4,-832.53"/>
<text text-anchor="middle" x="1690.5" y="-856" font-family="Helvetica,sans-Serif" font-size="10.00"> preProcessHook</text>
<text text-anchor="middle" x="1690.5" y="-845" font-family="Helvetica,sans-Serif" font-size="10.00">operatorHook</text>
<text text-anchor="middle" x="1690.5" y="-834" font-family="Helvetica,sans-Serif" font-size="10.00">postProcessHook</text>
</g>
<!-- Node38&#45;&gt;Node13 -->
<g id="edge46" class="edge">
<title>Node38&#45;&gt;Node13</title>
<path fill="none" stroke="#9a32cd" stroke-dasharray="5,2" d="M1547,-1002.61C1609.59,-983.87 1718.98,-942.35 1781,-868 1798.29,-847.27 1779.24,-828.38 1799,-810 1806.18,-803.32 1815.15,-798.73 1824.56,-795.6"/>
<polygon fill="#9a32cd" stroke="#9a32cd" points="1545.99,-999.26 1537.37,-1005.42 1547.95,-1005.98 1545.99,-999.26"/>
<text text-anchor="middle" x="1690.5" y="-985" font-family="Helvetica,sans-Serif" font-size="10.00"> problemPtr</text>
</g>
<!-- Node39 -->
<g id="node39" class="node">
<title>Node39</title>
<g id="a_node39"><a xlink:title=" ">
<polygon fill="white" stroke="#bfbfbf" points="1058,-1097 1058,-1127 1225,-1127 1225,-1097 1058,-1097"/>
<text text-anchor="start" x="1066" y="-1115" font-family="Helvetica,sans-Serif" font-size="10.00">shared_ptr&lt; NumeredEntFinite</text>
<text text-anchor="middle" x="1141.5" y="-1104" font-family="Helvetica,sans-Serif" font-size="10.00">Element_multiIndex &gt;</text>
</a>
</g>
</g>
<!-- Node39&#45;&gt;Node38 -->
<g id="edge47" class="edge">
<title>Node39&#45;&gt;Node38</title>
<path fill="none" stroke="#9a32cd" stroke-dasharray="5,2" d="M1235.4,-1117.72C1287.56,-1116.28 1351.17,-1106.28 1397,-1072 1411.97,-1060.81 1400.44,-1045.71 1415,-1034 1424.62,-1026.26 1436.81,-1021.56 1448.85,-1018.73"/>
<polygon fill="#9a32cd" stroke="#9a32cd" points="1235.07,-1114.22 1225.13,-1117.89 1235.19,-1121.22 1235.07,-1114.22"/>
<text text-anchor="middle" x="1329" y="-1119" font-family="Helvetica,sans-Serif" font-size="10.00"> numeredFiniteElementsPtr</text>
</g>
<!-- Node40 -->
<g id="node40" class="node">
<title>Node40</title>
<g id="a_node40"><a xlink:title=" ">
<polygon fill="white" stroke="#bfbfbf" points="1112,-1058.5 1112,-1077.5 1171,-1077.5 1171,-1058.5 1112,-1058.5"/>
<text text-anchor="middle" x="1141.5" y="-1065.5" font-family="Helvetica,sans-Serif" font-size="10.00">BitFEId *</text>
</a>
</g>
</g>
<!-- Node40&#45;&gt;Node38 -->
<g id="edge48" class="edge">
<title>Node40&#45;&gt;Node38</title>
<path fill="none" stroke="#9a32cd" stroke-dasharray="5,2" d="M1181.44,-1065.48C1231.62,-1061.79 1321.4,-1053.71 1397,-1039 1405.15,-1037.41 1406.95,-1036.04 1415,-1034 1427.68,-1030.78 1441.51,-1027.5 1454.17,-1024.6"/>
<polygon fill="#9a32cd" stroke="#9a32cd" points="1181.08,-1061.99 1171.35,-1066.2 1181.57,-1068.98 1181.08,-1061.99"/>
<text text-anchor="middle" x="1329" y="-1060" font-family="Helvetica,sans-Serif" font-size="10.00"> tagBitFEId</text>
</g>
<!-- Node41 -->
<g id="node41" class="node">
<title>Node41</title>
<g id="a_node41"><a xlink:href="classEntityHandle.html" target="_top" xlink:title=" ">
<polygon fill="white" stroke="black" points="1101.5,-1020.5 1101.5,-1039.5 1181.5,-1039.5 1181.5,-1020.5 1101.5,-1020.5"/>
<text text-anchor="middle" x="1141.5" y="-1027.5" font-family="Helvetica,sans-Serif" font-size="10.00">EntityHandle</text>
</a>
</g>
</g>
<!-- Node41&#45;&gt;Node38 -->
<g id="edge49" class="edge">
<title>Node41&#45;&gt;Node38</title>
<path fill="none" stroke="#9a32cd" stroke-dasharray="5,2" d="M1191.51,-1027.93C1259.36,-1025.06 1381.15,-1019.92 1448.81,-1017.06"/>
<polygon fill="#9a32cd" stroke="#9a32cd" points="1191.35,-1024.43 1181.51,-1028.35 1191.65,-1031.43 1191.35,-1024.43"/>
<text text-anchor="middle" x="1329" y="-1027" font-family="Helvetica,sans-Serif" font-size="10.00"> meshset</text>
</g>
<!-- Node42 -->
<g id="node42" class="node">
<title>Node42</title>
<g id="a_node42"><a xlink:title=" ">
<polygon fill="white" stroke="#bfbfbf" points="1067,-971 1067,-1001 1216,-1001 1216,-971 1067,-971"/>
<text text-anchor="start" x="1075" y="-989" font-family="Helvetica,sans-Serif" font-size="10.00">shared_ptr&lt; MoFEM::</text>
<text text-anchor="middle" x="1141.5" y="-978" font-family="Helvetica,sans-Serif" font-size="10.00">ComposedProblemsData &gt;</text>
</a>
</g>
</g>
<!-- Node42&#45;&gt;Node38 -->
<g id="edge50" class="edge">
<title>Node42&#45;&gt;Node38</title>
<path fill="none" stroke="#9a32cd" stroke-dasharray="5,2" d="M1226.12,-991.1C1275.81,-994.34 1340.04,-998.87 1397,-1004 1413.96,-1005.53 1432.49,-1007.48 1448.98,-1009.31"/>
<polygon fill="#9a32cd" stroke="#9a32cd" points="1226.27,-987.61 1216.06,-990.45 1225.82,-994.59 1226.27,-987.61"/>
<text text-anchor="middle" x="1329" y="-1007" font-family="Helvetica,sans-Serif" font-size="10.00"> composedProblemsData</text>
</g>
<!-- Node43 -->
<g id="node43" class="node">
<title>Node43</title>
<g id="a_node43"><a xlink:title=" ">
<polygon fill="white" stroke="#bfbfbf" points="1101,-932.5 1101,-951.5 1182,-951.5 1182,-932.5 1101,-932.5"/>
<text text-anchor="middle" x="1141.5" y="-939.5" font-family="Helvetica,sans-Serif" font-size="10.00">BitRefLevel *</text>
</a>
</g>
</g>
<!-- Node43&#45;&gt;Node38 -->
<g id="edge51" class="edge">
<title>Node43&#45;&gt;Node38</title>
<path fill="none" stroke="#9a32cd" stroke-dasharray="5,2" d="M1192.36,-941.83C1244.36,-942.82 1327.78,-947.71 1397,-967 1428.66,-975.82 1462.59,-994.09 1481.82,-1005.38"/>
<polygon fill="#9a32cd" stroke="#9a32cd" points="1192.13,-938.33 1182.08,-941.68 1192.02,-945.33 1192.13,-938.33"/>
<text text-anchor="middle" x="1329" y="-981" font-family="Helvetica,sans-Serif" font-size="10.00"> tagBitRefLevelMask</text>
<text text-anchor="middle" x="1329" y="-970" font-family="Helvetica,sans-Serif" font-size="10.00">tagBitRefLevel</text>
</g>
<!-- Node44 -->
<g id="node44" class="node">
<title>Node44</title>
<g id="a_node44"><a xlink:title=" ">
<polygon fill="white" stroke="#bfbfbf" points="1056.5,-883 1056.5,-913 1226.5,-913 1226.5,-883 1056.5,-883"/>
<text text-anchor="start" x="1064.5" y="-901" font-family="Helvetica,sans-Serif" font-size="10.00">shared_ptr&lt; NumeredDofEntity</text>
<text text-anchor="middle" x="1141.5" y="-890" font-family="Helvetica,sans-Serif" font-size="10.00">_multiIndex &gt;</text>
</a>
</g>
</g>
<!-- Node44&#45;&gt;Node38 -->
<g id="edge52" class="edge">
<title>Node44&#45;&gt;Node38</title>
<path fill="none" stroke="#9a32cd" stroke-dasharray="5,2" d="M1236.62,-891.01C1286.31,-890.9 1347.16,-896.6 1397,-919 1440.58,-938.59 1476.87,-985.3 1491.07,-1005.47"/>
<polygon fill="#9a32cd" stroke="#9a32cd" points="1236.47,-887.51 1226.51,-891.12 1236.54,-894.51 1236.47,-887.51"/>
<text text-anchor="middle" x="1329" y="-933" font-family="Helvetica,sans-Serif" font-size="10.00"> numeredRowDofsPtr</text>
<text text-anchor="middle" x="1329" y="-922" font-family="Helvetica,sans-Serif" font-size="10.00">numeredColDofsPtr</text>
</g>
<!-- Node45 -->
<g id="node45" class="node">
<title>Node45</title>
<g id="a_node45"><a xlink:title=" ">
<polygon fill="white" stroke="#bfbfbf" points="1072.5,-1272.5 1072.5,-1291.5 1210.5,-1291.5 1210.5,-1272.5 1072.5,-1272.5"/>
<text text-anchor="middle" x="1141.5" y="-1279.5" font-family="Helvetica,sans-Serif" font-size="10.00">vector&lt; BlockFieldPair &gt;</text>
</a>
</g>
</g>
<!-- Node45&#45;&gt;Node38 -->
<g id="edge54" class="edge">
<title>Node45&#45;&gt;Node38</title>
<path fill="none" stroke="#9a32cd" stroke-dasharray="5,2" d="M1220.84,-1276.44C1291.07,-1270.68 1384.88,-1260.73 1397,-1248 1429.91,-1213.44 1383.74,-1070.06 1415,-1034 1423.57,-1024.12 1436.15,-1018.81 1448.92,-1016.09"/>
<polygon fill="#9a32cd" stroke="#9a32cd" points="1220.35,-1272.97 1210.66,-1277.26 1220.91,-1279.95 1220.35,-1272.97"/>
<text text-anchor="middle" x="1329" y="-1275" font-family="Helvetica,sans-Serif" font-size="10.00"> emptyFieldBlocks</text>
</g>
<!-- Node46 -->
<g id="node46" class="node">
<title>Node46</title>
<g id="a_node46"><a xlink:title=" ">
<polygon fill="white" stroke="#bfbfbf" points="1063.5,-1223 1063.5,-1253 1219.5,-1253 1219.5,-1223 1063.5,-1223"/>
<text text-anchor="start" x="1071.5" y="-1241" font-family="Helvetica,sans-Serif" font-size="10.00">shared_ptr&lt; MoFEM::</text>
<text text-anchor="middle" x="1141.5" y="-1230" font-family="Helvetica,sans-Serif" font-size="10.00">Problem::SubProblemData &gt;</text>
</a>
</g>
</g>
<!-- Node46&#45;&gt;Node38 -->
<g id="edge55" class="edge">
<title>Node46&#45;&gt;Node38</title>
<path fill="none" stroke="#9a32cd" stroke-dasharray="5,2" d="M1229.72,-1235.52C1298.62,-1232.68 1385.1,-1226.79 1397,-1215 1425.71,-1186.55 1388.29,-1064.34 1415,-1034 1423.55,-1024.29 1435.96,-1019.01 1448.58,-1016.26"/>
<polygon fill="#9a32cd" stroke="#9a32cd" points="1229.55,-1232.02 1219.7,-1235.92 1229.83,-1239.02 1229.55,-1232.02"/>
<text text-anchor="middle" x="1329" y="-1236" font-family="Helvetica,sans-Serif" font-size="10.00"> subProblemData</text>
</g>
<!-- Node47 -->
<g id="node47" class="node">
<title>Node47</title>
<g id="a_node47"><a xlink:title=" ">
<polygon fill="white" stroke="#bfbfbf" points="1040,-1184.5 1040,-1203.5 1243,-1203.5 1243,-1184.5 1040,-1184.5"/>
<text text-anchor="middle" x="1141.5" y="-1191.5" font-family="Helvetica,sans-Serif" font-size="10.00">shared_ptr&lt; SequenceDofContainer &gt;</text>
</a>
</g>
</g>
<!-- Node47&#45;&gt;Node38 -->
<g id="edge57" class="edge">
<title>Node47&#45;&gt;Node38</title>
<path fill="none" stroke="#9a32cd" stroke-dasharray="5,2" d="M1253.4,-1190.33C1316.97,-1187.12 1386.27,-1181.3 1397,-1171 1441.3,-1128.46 1373.7,-1079.45 1415,-1034 1423.7,-1024.43 1436.16,-1019.19 1448.78,-1016.44"/>
<polygon fill="#9a32cd" stroke="#9a32cd" points="1253.07,-1186.84 1243.25,-1190.82 1253.41,-1193.83 1253.07,-1186.84"/>
<text text-anchor="middle" x="1329" y="-1203" font-family="Helvetica,sans-Serif" font-size="10.00"> sequenceRowDofContainer</text>
<text text-anchor="middle" x="1329" y="-1192" font-family="Helvetica,sans-Serif" font-size="10.00">sequenceColDofContainer</text>
</g>
<!-- Node48 -->
<g id="node48" class="node">
<title>Node48</title>
<g id="a_node48"><a xlink:title=" ">
<polygon fill="white" stroke="#bfbfbf" points="1097.5,-1146.5 1097.5,-1165.5 1185.5,-1165.5 1185.5,-1146.5 1097.5,-1146.5"/>
<text text-anchor="middle" x="1141.5" y="-1153.5" font-family="Helvetica,sans-Serif" font-size="10.00">BitProblemId *</text>
</a>
</g>
</g>
<!-- Node48&#45;&gt;Node38 -->
<g id="edge58" class="edge">
<title>Node48&#45;&gt;Node38</title>
<path fill="none" stroke="#9a32cd" stroke-dasharray="5,2" d="M1195.95,-1158C1261.85,-1159.27 1368.63,-1157.04 1397,-1131 1429.3,-1101.35 1384.67,-1065.66 1415,-1034 1423.85,-1024.77 1436.21,-1019.61 1448.67,-1016.84"/>
<polygon fill="#9a32cd" stroke="#9a32cd" points="1195.82,-1154.5 1185.74,-1157.77 1195.66,-1161.49 1195.82,-1154.5"/>
<text text-anchor="middle" x="1329" y="-1160" font-family="Helvetica,sans-Serif" font-size="10.00"> tagId</text>
</g>
<!-- Node49 -->
<g id="node49" class="node">
<title>Node49</title>
<g id="a_node49"><a xlink:title=" ">
<polygon fill="white" stroke="#bfbfbf" points="1805,-731 1805,-761 1967,-761 1967,-731 1805,-731"/>
<text text-anchor="start" x="1813" y="-749" font-family="Helvetica,sans-Serif" font-size="10.00">shared_ptr&lt; const MoFEM</text>
<text text-anchor="middle" x="1886" y="-738" font-family="Helvetica,sans-Serif" font-size="10.00">::NumeredEntFiniteElement &gt;</text>
</a>
</g>
</g>
<!-- Node49&#45;&gt;Node12 -->
<g id="edge59" class="edge">
<title>Node49&#45;&gt;Node12</title>
<path fill="none" stroke="#9a32cd" stroke-dasharray="5,2" d="M1977.28,-744.28C2027.29,-747.29 2088.55,-757.88 2135,-788 2147.1,-795.85 2140.96,-807.05 2153,-815 2167.51,-824.58 2185.57,-829.63 2202.45,-832.22"/>
<polygon fill="#9a32cd" stroke="#9a32cd" points="1977.28,-740.77 1967.11,-743.76 1976.92,-747.76 1977.28,-740.77"/>
<text text-anchor="middle" x="2063" y="-791" font-family="Helvetica,sans-Serif" font-size="10.00"> numeredEntFiniteElementPtr</text>
</g>
<!-- Node50 -->
<g id="node50" class="node">
<title>Node50</title>
<g id="a_node50"><a xlink:title=" ">
<polygon fill="white" stroke="#bfbfbf" points="1864,-684.5 1864,-703.5 1908,-703.5 1908,-684.5 1864,-684.5"/>
<text text-anchor="middle" x="1886" y="-691.5" font-family="Helvetica,sans-Serif" font-size="10.00">string</text>
</a>
</g>
</g>
<!-- Node50&#45;&gt;Node3 -->
<g id="edge82" class="edge">
<title>Node50&#45;&gt;Node3</title>
<path fill="none" stroke="#9a32cd" stroke-dasharray="5,2" d="M1918.01,-685.57C2031.72,-655.31 2425.07,-556.6 2539,-607 2741.4,-696.53 2880.54,-952.99 2913.49,-1018.58"/>
<polygon fill="#9a32cd" stroke="#9a32cd" points="1916.95,-682.23 1908.2,-688.2 1918.76,-688.99 1916.95,-682.23"/>
<text text-anchor="middle" x="2458" y="-621" font-family="Helvetica,sans-Serif" font-size="10.00"> colFieldName</text>
<text text-anchor="middle" x="2458" y="-610" font-family="Helvetica,sans-Serif" font-size="10.00">rowFieldName</text>
</g>
<!-- Node50&#45;&gt;Node12 -->
<g id="edge60" class="edge">
<title>Node50&#45;&gt;Node12</title>
<path fill="none" stroke="#9a32cd" stroke-dasharray="5,2" d="M1918.31,-688.32C1970.55,-680.8 2075.61,-674.32 2135,-730 2163.17,-756.41 2125.36,-788.03 2153,-815 2166.02,-827.71 2184.64,-833.34 2202.42,-835.51"/>
<polygon fill="#9a32cd" stroke="#9a32cd" points="1917.64,-684.88 1908.3,-689.87 1918.71,-691.8 1917.64,-684.88"/>
<text text-anchor="middle" x="2063" y="-733" font-family="Helvetica,sans-Serif" font-size="10.00"> feName</text>
</g>
<!-- Node51 -->
<g id="node51" class="node">
<title>Node51</title>
<g id="a_node51"><a xlink:title=" ">
<polygon fill="white" stroke="#bfbfbf" points="1804.5,-819 1804.5,-849 1967.5,-849 1967.5,-819 1804.5,-819"/>
<text text-anchor="start" x="1812.5" y="-837" font-family="Helvetica,sans-Serif" font-size="10.00">function&lt; bool(MoFEM</text>
<text text-anchor="middle" x="1886" y="-826" font-family="Helvetica,sans-Serif" font-size="10.00">::FEMethod *fe_method_ptr)&gt;</text>
</a>
</g>
</g>
<!-- Node51&#45;&gt;Node12 -->
<g id="edge61" class="edge">
<title>Node51&#45;&gt;Node12</title>
<path fill="none" stroke="#9a32cd" stroke-dasharray="5,2" d="M1977.98,-834C2048.52,-834 2143.82,-834 2202.26,-834"/>
<polygon fill="#9a32cd" stroke="#9a32cd" points="1977.76,-830.5 1967.76,-834 1977.76,-837.5 1977.76,-830.5"/>
<text text-anchor="middle" x="2063" y="-837" font-family="Helvetica,sans-Serif" font-size="10.00"> exeTestHook</text>
</g>
<!-- Node52 -->
<g id="node52" class="node">
<title>Node52</title>
<g id="a_node52"><a xlink:href="classdouble.html" target="_top" xlink:title=" ">
<polygon fill="white" stroke="black" points="2231,-562.5 2231,-581.5 2281,-581.5 2281,-562.5 2231,-562.5"/>
<text text-anchor="middle" x="2256" y="-569.5" font-family="Helvetica,sans-Serif" font-size="10.00">double</text>
</a>
</g>
</g>
<!-- Node52&#45;&gt;Node1 -->
<g id="edge83" class="edge">
<title>Node52&#45;&gt;Node1</title>
<path fill="none" stroke="#9a32cd" stroke-dasharray="5,2" d="M2291.28,-572C2358.4,-572 2511.91,-572 2641,-572 2641,-572 2641,-572 3148,-572 3216.39,-572 3293.93,-565.33 3349.79,-559.33"/>
<polygon fill="#9a32cd" stroke="#9a32cd" points="2291.26,-568.5 2281.26,-572 2291.26,-575.5 2291.26,-568.5"/>
<text text-anchor="middle" x="2922" y="-575" font-family="Helvetica,sans-Serif" font-size="10.00"> scaleFactor</text>
</g>
<!-- Node52&#45;&gt;Node11 -->
<g id="edge62" class="edge">
<title>Node52&#45;&gt;Node11</title>
<path fill="none" stroke="#9a32cd" stroke-dasharray="5,2" d="M2280.41,-586.85C2303.9,-601.02 2341.58,-621.82 2377,-633 2446.35,-654.88 2479.51,-614.17 2539,-656 2605.65,-702.87 2632.29,-807.14 2639.12,-839.34"/>
<polygon fill="#9a32cd" stroke="#9a32cd" points="2282.2,-583.84 2271.84,-581.59 2278.53,-589.8 2282.2,-583.84"/>
<text text-anchor="middle" x="2458" y="-659" font-family="Helvetica,sans-Serif" font-size="10.00"> elementMeasure</text>
</g>
<!-- Node53 -->
<g id="node53" class="node">
<title>Node53</title>
<g id="a_node53"><a xlink:title=" ">
<polygon fill="white" stroke="#bfbfbf" points="2170,-1060.5 2170,-1101.5 2342,-1101.5 2342,-1060.5 2170,-1060.5"/>
<text text-anchor="start" x="2178" y="-1089.5" font-family="Helvetica,sans-Serif" font-size="10.00">array&lt; boost::shared</text>
<text text-anchor="start" x="2178" y="-1078.5" font-family="Helvetica,sans-Serif" font-size="10.00">_ptr&lt; MoFEM::EntitiesFieldData</text>
<text text-anchor="middle" x="2256" y="-1067.5" font-family="Helvetica,sans-Serif" font-size="10.00"> &gt;, LASTSPACE &gt;</text>
</a>
</g>
</g>
<!-- Node53&#45;&gt;Node11 -->
<g id="edge63" class="edge">
<title>Node53&#45;&gt;Node11</title>
<path fill="none" stroke="#9a32cd" stroke-dasharray="5,2" d="M2352.19,-1095.03C2411.16,-1098.57 2485.57,-1093.14 2539,-1055 2554.87,-1043.67 2548.6,-1032.59 2557,-1015 2585.68,-954.96 2622.6,-884.06 2635.92,-858.65"/>
<polygon fill="#9a32cd" stroke="#9a32cd" points="2352.33,-1091.53 2342.11,-1094.33 2351.85,-1098.52 2352.33,-1091.53"/>
<text text-anchor="middle" x="2458" y="-1109" font-family="Helvetica,sans-Serif" font-size="10.00"> derivedDataOnElement</text>
<text text-anchor="middle" x="2458" y="-1098" font-family="Helvetica,sans-Serif" font-size="10.00">dataOnElement</text>
</g>
<!-- Node54 -->
<g id="node54" class="node">
<title>Node54</title>
<g id="a_node54"><a xlink:title=" ">
<polygon fill="white" stroke="#bfbfbf" points="2222,-1022.5 2222,-1041.5 2290,-1041.5 2290,-1022.5 2222,-1022.5"/>
<text text-anchor="middle" x="2256" y="-1029.5" font-family="Helvetica,sans-Serif" font-size="10.00">EntityType</text>
</a>
</g>
</g>
<!-- Node54&#45;&gt;Node11 -->
<g id="edge64" class="edge">
<title>Node54&#45;&gt;Node11</title>
<path fill="none" stroke="#9a32cd" stroke-dasharray="5,2" d="M2300.28,-1037.93C2358.88,-1043.71 2464.68,-1046.02 2539,-1001 2596.08,-966.42 2628.15,-886.29 2637.83,-858.61"/>
<polygon fill="#9a32cd" stroke="#9a32cd" points="2300.56,-1034.44 2290.25,-1036.86 2299.82,-1041.4 2300.56,-1034.44"/>
<text text-anchor="middle" x="2458" y="-1043" font-family="Helvetica,sans-Serif" font-size="10.00"> lastEvaluatedElementEntityType</text>
</g>
<!-- Node55 -->
<g id="node55" class="node">
<title>Node55</title>
<g id="a_node55"><a xlink:href="structMoFEM_1_1DeprecatedCoreInterface.html" target="_top" xlink:title="Deprecated interface functions.">
<polygon fill="white" stroke="black" points="1600,-222.5 1600,-241.5 1781,-241.5 1781,-222.5 1600,-222.5"/>
<text text-anchor="middle" x="1690.5" y="-229.5" font-family="Helvetica,sans-Serif" font-size="10.00">MoFEM::DeprecatedCoreInterface</text>
</a>
</g>
</g>
<!-- Node55&#45;&gt;Node11 -->
<g id="edge65" class="edge">
<title>Node55&#45;&gt;Node11</title>
<path fill="none" stroke="#9a32cd" stroke-dasharray="5,2" d="M1740.92,-244.65C1754.39,-249.13 1768.67,-254.88 1781,-262 1972.13,-372.39 1962.08,-480.26 2153,-591 2243.94,-643.75 2275.12,-641.08 2377,-667 2447.81,-685.02 2477.82,-655.05 2539,-695 2595.39,-731.82 2627.9,-811.86 2637.77,-839.44"/>
<polygon fill="#9a32cd" stroke="#9a32cd" points="1741.88,-241.28 1731.29,-241.61 1739.77,-247.96 1741.88,-241.28"/>
<text text-anchor="middle" x="2063" y="-581" font-family="Helvetica,sans-Serif" font-size="10.00"> mField</text>
</g>
<!-- Node56&#45;&gt;Node55 -->
<g id="edge66" class="edge">
<title>Node56&#45;&gt;Node55</title>
<path fill="none" stroke="midnightblue" d="M1214.11,-28.67C1265.95,-37.67 1337.13,-52.71 1397,-75 1509.88,-117.04 1633.41,-195.08 1674.96,-222.32"/>
<polygon fill="midnightblue" stroke="midnightblue" points="1214.45,-25.18 1204.01,-26.95 1213.28,-32.08 1214.45,-25.18"/>
</g>
<!-- Node57 -->
<g id="node57" class="node">
<title>Node57</title>
<g id="a_node57"><a xlink:title=" ">
<polygon fill="white" stroke="#bfbfbf" points="2172.5,-951 2172.5,-1003 2339.5,-1003 2339.5,-951 2172.5,-951"/>
<text text-anchor="start" x="2180.5" y="-991" font-family="Helvetica,sans-Serif" font-size="10.00">function&lt; MoFEMErrorCode</text>
<text text-anchor="start" x="2180.5" y="-980" font-family="Helvetica,sans-Serif" font-size="10.00">(ForcesAndSourcesCore *fe</text>
<text text-anchor="start" x="2180.5" y="-969" font-family="Helvetica,sans-Serif" font-size="10.00">_raw_ptr, int order_row,</text>
<text text-anchor="middle" x="2256" y="-958" font-family="Helvetica,sans-Serif" font-size="10.00"> int order_col, int order_data)&gt;</text>
</a>
</g>
</g>
<!-- Node57&#45;&gt;Node11 -->
<g id="edge69" class="edge">
<title>Node57&#45;&gt;Node11</title>
<path fill="none" stroke="#9a32cd" stroke-dasharray="5,2" d="M2349.76,-986.48C2406.94,-988.45 2480.28,-983.77 2539,-956 2585.63,-933.94 2621.92,-880.56 2635.36,-858.64"/>
<polygon fill="#9a32cd" stroke="#9a32cd" points="2349.78,-982.98 2339.65,-986.06 2349.49,-989.97 2349.78,-982.98"/>
<text text-anchor="middle" x="2458" y="-989" font-family="Helvetica,sans-Serif" font-size="10.00"> setRuleHook</text>
</g>
<!-- Node58 -->
<g id="node58" class="node">
<title>Node58</title>
<g id="a_node58"><a xlink:title=" ">
<polygon fill="white" stroke="#bfbfbf" points="2155,-863 2155,-893 2357,-893 2357,-863 2155,-863"/>
<text text-anchor="start" x="2163" y="-881" font-family="Helvetica,sans-Serif" font-size="10.00">ptr_deque&lt; MoFEM::Forces</text>
<text text-anchor="middle" x="2256" y="-870" font-family="Helvetica,sans-Serif" font-size="10.00">AndSourcesCore::UserDataOperator &gt;</text>
</a>
</g>
</g>
<!-- Node58&#45;&gt;Node11 -->
<g id="edge70" class="edge">
<title>Node58&#45;&gt;Node11</title>
<path fill="none" stroke="#9a32cd" stroke-dasharray="5,2" d="M2367.18,-867.8C2370.49,-867.53 2373.77,-867.26 2377,-867 2437.1,-862.2 2504.97,-857.59 2556.84,-854.24"/>
<polygon fill="#9a32cd" stroke="#9a32cd" points="2366.84,-864.32 2357.17,-868.64 2367.42,-871.29 2366.84,-864.32"/>
<text text-anchor="middle" x="2458" y="-870" font-family="Helvetica,sans-Serif" font-size="10.00"> opPtrVector</text>
</g>
<!-- Node59 -->
<g id="node59" class="node">
<title>Node59</title>
<g id="a_node59"><a xlink:href="structMoFEM_1_1EntitiesFieldData.html" target="_top" xlink:title="data structure for finite element entity">
<polygon fill="white" stroke="black" points="2185,-912.5 2185,-931.5 2327,-931.5 2327,-912.5 2185,-912.5"/>
<text text-anchor="middle" x="2256" y="-919.5" font-family="Helvetica,sans-Serif" font-size="10.00">MoFEM::EntitiesFieldData</text>
</a>
</g>
</g>
<!-- Node59&#45;&gt;Node11 -->
<g id="edge71" class="edge">
<title>Node59&#45;&gt;Node11</title>
<path fill="none" stroke="#9a32cd" stroke-dasharray="5,2" d="M2319.31,-910.7C2337.85,-907.45 2358.23,-903.97 2377,-901 2448.83,-889.62 2467.86,-893.09 2539,-878 2563.67,-872.77 2591.15,-864.83 2611.36,-858.58"/>
<polygon fill="#9a32cd" stroke="#9a32cd" points="2318.45,-907.3 2309.21,-912.49 2319.67,-914.19 2318.45,-907.3"/>
<text text-anchor="middle" x="2458" y="-948" font-family="Helvetica,sans-Serif" font-size="10.00"> dataNoField</text>
<text text-anchor="middle" x="2458" y="-937" font-family="Helvetica,sans-Serif" font-size="10.00">dataL2</text>
<text text-anchor="middle" x="2458" y="-926" font-family="Helvetica,sans-Serif" font-size="10.00">dataH1</text>
<text text-anchor="middle" x="2458" y="-915" font-family="Helvetica,sans-Serif" font-size="10.00">dataHcurl</text>
<text text-anchor="middle" x="2458" y="-904" font-family="Helvetica,sans-Serif" font-size="10.00">dataHdiv</text>
</g>
<!-- Node60 -->
<g id="node60" class="node">
<title>Node60</title>
<g id="a_node60"><a xlink:title=" ">
<polygon fill="white" stroke="#bfbfbf" points="1805,-967 1805,-997 1967,-997 1967,-967 1805,-967"/>
<text text-anchor="start" x="1813" y="-985" font-family="Helvetica,sans-Serif" font-size="10.00">array&lt; std::bitset</text>
<text text-anchor="middle" x="1886" y="-974" font-family="Helvetica,sans-Serif" font-size="10.00">&lt; LASTBASE &gt;, LASTSPACE &gt;</text>
</a>
</g>
</g>
<!-- Node60&#45;&gt;Node59 -->
<g id="edge72" class="edge">
<title>Node60&#45;&gt;Node59</title>
<path fill="none" stroke="#9a32cd" stroke-dasharray="5,2" d="M1977.49,-973.67C2024.8,-968.3 2083.44,-960.02 2135,-948 2143.21,-946.09 2144.85,-944.15 2153,-942 2168.01,-938.05 2184.44,-934.49 2199.65,-931.51"/>
<polygon fill="#9a32cd" stroke="#9a32cd" points="1976.82,-970.23 1967.26,-974.81 1977.59,-977.18 1976.82,-970.23"/>
<text text-anchor="middle" x="2063" y="-985" font-family="Helvetica,sans-Serif" font-size="10.00"> brokenBasesOnSpaces</text>
<text text-anchor="middle" x="2063" y="-974" font-family="Helvetica,sans-Serif" font-size="10.00">basesOnSpaces</text>
</g>
<!-- Node61 -->
<g id="node61" class="node">
<title>Node61</title>
<g id="a_node61"><a xlink:title=" ">
<polygon fill="white" stroke="#bfbfbf" points="1809.5,-868.5 1809.5,-909.5 1962.5,-909.5 1962.5,-868.5 1809.5,-868.5"/>
<text text-anchor="start" x="1817.5" y="-897.5" font-family="Helvetica,sans-Serif" font-size="10.00">array&lt; boost::ptr_vector</text>
<text text-anchor="start" x="1817.5" y="-886.5" font-family="Helvetica,sans-Serif" font-size="10.00">&lt; MoFEM::EntitiesFieldData</text>
<text text-anchor="middle" x="1886" y="-875.5" font-family="Helvetica,sans-Serif" font-size="10.00">::EntData &gt;, MBMAXTYPE &gt;</text>
</a>
</g>
</g>
<!-- Node61&#45;&gt;Node59 -->
<g id="edge73" class="edge">
<title>Node61&#45;&gt;Node59</title>
<path fill="none" stroke="#9a32cd" stroke-dasharray="5,2" d="M1972.95,-896.71C2037.43,-902.49 2124.61,-910.31 2184.9,-915.71"/>
<polygon fill="#9a32cd" stroke="#9a32cd" points="1973.08,-893.2 1962.8,-895.8 1972.45,-900.18 1973.08,-893.2"/>
<text text-anchor="middle" x="2063" y="-913" font-family="Helvetica,sans-Serif" font-size="10.00"> dataOnEntities</text>
</g>
<!-- Node62 -->
<g id="node62" class="node">
<title>Node62</title>
<g id="a_node62"><a xlink:title=" ">
<polygon fill="white" stroke="#bfbfbf" points="1799,-1105 1799,-1135 1973,-1135 1973,-1105 1799,-1105"/>
<text text-anchor="start" x="1807" y="-1123" font-family="Helvetica,sans-Serif" font-size="10.00">array&lt; std::bitset</text>
<text text-anchor="middle" x="1886" y="-1112" font-family="Helvetica,sans-Serif" font-size="10.00">&lt; LASTSPACE &gt;, MBMAXTYPE &gt;</text>
</a>
</g>
</g>
<!-- Node62&#45;&gt;Node59 -->
<g id="edge74" class="edge">
<title>Node62&#45;&gt;Node59</title>
<path fill="none" stroke="#9a32cd" stroke-dasharray="5,2" d="M1983.34,-1134.06C2035.17,-1135.89 2096.22,-1127.88 2135,-1089 2181.48,-1042.4 2108.16,-990.18 2153,-942 2161.48,-932.89 2172.8,-927.23 2184.81,-923.83"/>
<polygon fill="#9a32cd" stroke="#9a32cd" points="1983.27,-1130.55 1973.11,-1133.57 1982.93,-1137.54 1983.27,-1130.55"/>
<text text-anchor="middle" x="2063" y="-1137" font-family="Helvetica,sans-Serif" font-size="10.00"> spacesOnEntities</text>
</g>
<!-- Node63 -->
<g id="node63" class="node">
<title>Node63</title>
<g id="a_node63"><a xlink:title=" ">
<polygon fill="white" stroke="#bfbfbf" points="1801.5,-1056 1801.5,-1086 1970.5,-1086 1970.5,-1056 1801.5,-1056"/>
<text text-anchor="start" x="1809.5" y="-1074" font-family="Helvetica,sans-Serif" font-size="10.00">array&lt; std::bitset</text>
<text text-anchor="middle" x="1886" y="-1063" font-family="Helvetica,sans-Serif" font-size="10.00">&lt; LASTBASE &gt;, MBMAXTYPE &gt;</text>
</a>
</g>
</g>
<!-- Node63&#45;&gt;Node59 -->
<g id="edge75" class="edge">
<title>Node63&#45;&gt;Node59</title>
<path fill="none" stroke="#9a32cd" stroke-dasharray="5,2" d="M1980.6,-1074.2C2041.23,-1074.16 2112.87,-1069.47 2135,-1049 2170.41,-1016.26 2119.36,-976.56 2153,-942 2161.62,-933.14 2172.93,-927.59 2184.88,-924.22"/>
<polygon fill="#9a32cd" stroke="#9a32cd" points="1980.6,-1070.7 1970.59,-1074.16 1980.58,-1077.7 1980.6,-1070.7"/>
<text text-anchor="middle" x="2063" y="-1077" font-family="Helvetica,sans-Serif" font-size="10.00"> basesOnEntities</text>
</g>
<!-- Node64 -->
<g id="node64" class="node">
<title>Node64</title>
<g id="a_node64"><a xlink:title=" ">
<polygon fill="white" stroke="#bfbfbf" points="1830,-1016.5 1830,-1035.5 1942,-1035.5 1942,-1016.5 1830,-1016.5"/>
<text text-anchor="middle" x="1886" y="-1023.5" font-family="Helvetica,sans-Serif" font-size="10.00">UBlasMatrix&lt; int &gt;</text>
</a>
</g>
</g>
<!-- Node64&#45;&gt;Node59 -->
<g id="edge76" class="edge">
<title>Node64&#45;&gt;Node59</title>
<path fill="none" stroke="#9a32cd" stroke-dasharray="5,2" d="M1952.23,-1026.12C2016.18,-1024.91 2107.88,-1019.17 2135,-997 2154.91,-980.72 2133.73,-959.04 2153,-942 2161.99,-934.05 2173.19,-928.88 2184.85,-925.58"/>
<polygon fill="#9a32cd" stroke="#9a32cd" points="1952.16,-1022.62 1942.22,-1026.28 1952.27,-1029.62 1952.16,-1022.62"/>
<text text-anchor="middle" x="2063" y="-1038" font-family="Helvetica,sans-Serif" font-size="10.00"> facesNodesOrder</text>
<text text-anchor="middle" x="2063" y="-1027" font-family="Helvetica,sans-Serif" font-size="10.00">facesNodes</text>
</g>
<!-- Node65 -->
<g id="node65" class="node">
<title>Node65</title>
<g id="a_node65"><a xlink:title=" ">
<polygon fill="white" stroke="#bfbfbf" points="1827.5,-928.5 1827.5,-947.5 1944.5,-947.5 1944.5,-928.5 1827.5,-928.5"/>
<text text-anchor="middle" x="1886" y="-935.5" font-family="Helvetica,sans-Serif" font-size="10.00">bitset&lt; LASTBASE &gt;</text>
</a>
</g>
</g>
<!-- Node65&#45;&gt;Node59 -->
<g id="edge77" class="edge">
<title>Node65&#45;&gt;Node59</title>
<path fill="none" stroke="#9a32cd" stroke-dasharray="5,2" d="M1955.11,-935.04C2020.49,-932.2 2118.8,-927.92 2184.86,-925.05"/>
<polygon fill="#9a32cd" stroke="#9a32cd" points="1954.74,-931.55 1944.9,-935.48 1955.05,-938.54 1954.74,-931.55"/>
<text text-anchor="middle" x="2063" y="-936" font-family="Helvetica,sans-Serif" font-size="10.00"> bAse</text>
</g>
<!-- Node66 -->
<g id="node66" class="node">
<title>Node66</title>
<g id="a_node66"><a xlink:title=" ">
<polygon fill="white" stroke="#bfbfbf" points="2193.5,-764.5 2193.5,-805.5 2318.5,-805.5 2318.5,-764.5 2193.5,-764.5"/>
<text text-anchor="start" x="2201.5" y="-793.5" font-family="Helvetica,sans-Serif" font-size="10.00">function&lt; int(int order</text>
<text text-anchor="start" x="2201.5" y="-782.5" font-family="Helvetica,sans-Serif" font-size="10.00">_row, int order_col, int</text>
<text text-anchor="middle" x="2256" y="-771.5" font-family="Helvetica,sans-Serif" font-size="10.00"> order_data)&gt;</text>
</a>
</g>
</g>
<!-- Node66&#45;&gt;Node11 -->
<g id="edge78" class="edge">
<title>Node66&#45;&gt;Node11</title>
<path fill="none" stroke="#9a32cd" stroke-dasharray="5,2" d="M2328.7,-792.34C2385.92,-798.76 2467.98,-809.21 2539,-823 2562.14,-827.49 2587.86,-834.06 2607.68,-839.47"/>
<polygon fill="#9a32cd" stroke="#9a32cd" points="2329,-788.86 2318.67,-791.23 2328.22,-795.81 2329,-788.86"/>
<text text-anchor="middle" x="2458" y="-826" font-family="Helvetica,sans-Serif" font-size="10.00"> getRuleHook</text>
</g>
<!-- Node67 -->
<g id="node67" class="node">
<title>Node67</title>
<g id="a_node67"><a xlink:title=" ">
<polygon fill="white" stroke="#bfbfbf" points="2195,-715 2195,-745 2317,-745 2317,-715 2195,-715"/>
<text text-anchor="start" x="2203" y="-733" font-family="Helvetica,sans-Serif" font-size="10.00">shared_ptr&lt; MoFEM::</text>
<text text-anchor="middle" x="2256" y="-722" font-family="Helvetica,sans-Serif" font-size="10.00">BaseFunction &gt;</text>
</a>
</g>
</g>
<!-- Node67&#45;&gt;Node11 -->
<g id="edge79" class="edge">
<title>Node67&#45;&gt;Node11</title>
<path fill="none" stroke="#9a32cd" stroke-dasharray="5,2" d="M2327.21,-736.46C2397.97,-743.67 2501.86,-756.42 2539,-772 2577.67,-788.22 2614.84,-822.46 2631.64,-839.27"/>
<polygon fill="#9a32cd" stroke="#9a32cd" points="2327.32,-732.95 2317.02,-735.43 2326.62,-739.91 2327.32,-732.95"/>
<text text-anchor="middle" x="2458" y="-786" font-family="Helvetica,sans-Serif" font-size="10.00"> userPolynomialBasePtr</text>
<text text-anchor="middle" x="2458" y="-775" font-family="Helvetica,sans-Serif" font-size="10.00">elementPolynomialBasePtr</text>
</g>
<!-- Node68 -->
<g id="node68" class="node">
<title>Node68</title>
<g id="a_node68"><a xlink:href="classUBlasMatrix_3_01double_01_4.html" target="_top" xlink:title=" ">
<polygon fill="white" stroke="black" points="2190,-676.5 2190,-695.5 2322,-695.5 2322,-676.5 2190,-676.5"/>
<text text-anchor="middle" x="2256" y="-683.5" font-family="Helvetica,sans-Serif" font-size="10.00">UBlasMatrix&lt; double &gt;</text>
</a>
</g>
</g>
<!-- Node68&#45;&gt;Node11 -->
<g id="edge80" class="edge">
<title>Node68&#45;&gt;Node11</title>
<path fill="none" stroke="#9a32cd" stroke-dasharray="5,2" d="M2332.4,-690.95C2409.79,-696.52 2521.33,-706.09 2539,-716 2591.53,-745.47 2625.8,-814.24 2636.99,-839.49"/>
<polygon fill="#9a32cd" stroke="#9a32cd" points="2332.42,-687.44 2322.2,-690.22 2331.92,-694.42 2332.42,-687.44"/>
<text text-anchor="middle" x="2458" y="-730" font-family="Helvetica,sans-Serif" font-size="10.00"> coordsAtGaussPts</text>
<text text-anchor="middle" x="2458" y="-719" font-family="Helvetica,sans-Serif" font-size="10.00">gaussPts</text>
</g>
<!-- Node69 -->
<g id="node69" class="node">
<title>Node69</title>
<g id="a_node69"><a xlink:title=" ">
<polygon fill="white" stroke="#bfbfbf" points="2576.5,-1024.5 2576.5,-1043.5 2707.5,-1043.5 2707.5,-1024.5 2576.5,-1024.5"/>
<text text-anchor="middle" x="2642" y="-1031.5" font-family="Helvetica,sans-Serif" font-size="10.00">static const char *const</text>
</a>
</g>
</g>
<!-- Node69&#45;&gt;Node3 -->
<g id="edge81" class="edge">
<title>Node69&#45;&gt;Node3</title>
<path fill="none" stroke="#9a32cd" stroke-dasharray="5,2" d="M2717.96,-1034C2754.64,-1034 2798.93,-1034 2836.78,-1034"/>
<polygon fill="#9a32cd" stroke="#9a32cd" points="2717.83,-1030.5 2707.83,-1034 2717.83,-1037.5 2717.83,-1030.5"/>
<text text-anchor="middle" x="2782" y="-1037" font-family="Helvetica,sans-Serif" font-size="10.00"> OpTypeNames</text>
</g>
<!-- Node70 -->
<g id="node70" class="node">
<title>Node70</title>
<g id="a_node70"><a xlink:title=" ">
<polygon fill="white" stroke="#bfbfbf" points="3044,-513 3044,-543 3250,-543 3250,-513 3044,-513"/>
<text text-anchor="start" x="3052" y="-531" font-family="Helvetica,sans-Serif" font-size="10.00">shared_ptr&lt; HookeInternal</text>
<text text-anchor="middle" x="3147" y="-520" font-family="Helvetica,sans-Serif" font-size="10.00">StressElement::DataAtIntegrationPts &gt;</text>
</a>
</g>
</g>
<!-- Node70&#45;&gt;Node1 -->
<g id="edge84" class="edge">
<title>Node70&#45;&gt;Node1</title>
<path fill="none" stroke="#9a32cd" stroke-dasharray="5,2" d="M3260.23,-536.87C3290.27,-539.24 3322.05,-541.75 3349.7,-543.93"/>
<polygon fill="#9a32cd" stroke="#9a32cd" points="3260.37,-533.37 3250.12,-536.07 3259.82,-540.34 3260.37,-533.37"/>
<text text-anchor="middle" x="3300" y="-545" font-family="Helvetica,sans-Serif" font-size="10.00"> dataAtPts</text>
</g>
<!-- Node71 -->
<g id="node71" class="node">
<title>Node71</title>
<g id="a_node71"><a xlink:title=" ">
<polygon fill="white" stroke="#bfbfbf" points="3111.5,-474.5 3111.5,-493.5 3182.5,-493.5 3182.5,-474.5 3111.5,-474.5"/>
<text text-anchor="middle" x="3147" y="-481.5" font-family="Helvetica,sans-Serif" font-size="10.00">Interface &amp;</text>
</a>
</g>
</g>
<!-- Node71&#45;&gt;Node1 -->
<g id="edge85" class="edge">
<title>Node71&#45;&gt;Node1</title>
<path fill="none" stroke="#9a32cd" stroke-dasharray="5,2" d="M3192.9,-492.01C3230.33,-499 3284.94,-509.88 3332,-522 3347.08,-525.88 3363.38,-530.54 3378.13,-534.94"/>
<polygon fill="#9a32cd" stroke="#9a32cd" points="3193.29,-488.53 3182.82,-490.15 3192.02,-495.41 3193.29,-488.53"/>
<text text-anchor="middle" x="3300" y="-525" font-family="Helvetica,sans-Serif" font-size="10.00"> outputMesh</text>
</g>
<!-- Node72 -->
<g id="node72" class="node">
<title>Node72</title>
<g id="a_node72"><a xlink:title=" ">
<polygon fill="white" stroke="#bfbfbf" points="3082,-436.5 3082,-455.5 3212,-455.5 3212,-436.5 3082,-436.5"/>
<text text-anchor="middle" x="3147" y="-443.5" font-family="Helvetica,sans-Serif" font-size="10.00">map&lt; int, BlockData &gt;</text>
</a>
</g>
</g>
<!-- Node72&#45;&gt;Node1 -->
<g id="edge87" class="edge">
<title>Node72&#45;&gt;Node1</title>
<path fill="none" stroke="#9a32cd" stroke-dasharray="5,2" d="M3220.56,-457.55C3255.32,-464.71 3296.93,-475.73 3332,-492 3358.37,-504.23 3386.51,-522.21 3405.16,-534.9"/>
<polygon fill="#9a32cd" stroke="#9a32cd" points="3220.96,-454.06 3210.47,-455.53 3219.59,-460.92 3220.96,-454.06"/>
<text text-anchor="middle" x="3300" y="-495" font-family="Helvetica,sans-Serif" font-size="10.00"> blockSetsPtr</text>
</g>
</g>
</svg>
        <g id="navigator" transform="translate(0 0)" fill="#404254">
                <rect fill="#f2f5e9" fill-opacity="0.5" stroke="#606060" stroke-width=".5" x="0" y="0" width="60" height="60"/>
                <use id="zoomplus" xlink:href="#zoomPlus" x="17" y="9" onmousedown="handleZoom(evt,'in')"/>
                <use id="zoomminus" xlink:href="#zoomMin" x="42" y="9" onmousedown="handleZoom(evt,'out')"/>
                <use id="reset" xlink:href="#resetDef" x="30" y="36" onmousedown="handleReset()"/>
                <g id="arrowUp" xlink:href="#dirArrow" transform="translate(30 24)" onmousedown="handlePan(0,-1)">
                  <use xlink:href="#rim" fill="#404040">
                        <set attributeName="fill" to="#808080" begin="arrowUp.mouseover" end="arrowUp.mouseout"/>
                  </use>
                  <path fill="none" stroke="white" stroke-width="1.5" d="M0,-3.0v7 M-2.5,-0.5L0,-3.0L2.5,-0.5"/>
                </g>
                <g id="arrowRight" xlink:href="#dirArrow" transform="rotate(90) translate(36 -43)" onmousedown="handlePan(1,0)">
                  <use xlink:href="#rim" fill="#404040">
                        <set attributeName="fill" to="#808080" begin="arrowRight.mouseover" end="arrowRight.mouseout"/>
                  </use>
                  <path fill="none" stroke="white" stroke-width="1.5" d="M0,-3.0v7 M-2.5,-0.5L0,-3.0L2.5,-0.5"/>
                </g>
                <g id="arrowDown" xlink:href="#dirArrow" transform="rotate(180) translate(-30 -48)" onmousedown="handlePan(0,1)">
                  <use xlink:href="#rim" fill="#404040">
                        <set attributeName="fill" to="#808080" begin="arrowDown.mouseover" end="arrowDown.mouseout"/>
                  </use>
                  <path fill="none" stroke="white" stroke-width="1.5" d="M0,-3.0v7 M-2.5,-0.5L0,-3.0L2.5,-0.5"/>
                </g>
                <g id="arrowLeft" xlink:href="#dirArrow" transform="rotate(270) translate(-36 17)" onmousedown="handlePan(-1,0)">
                  <use xlink:href="#rim" fill="#404040">
                        <set attributeName="fill" to="#808080" begin="arrowLeft.mouseover" end="arrowLeft.mouseout"/>
                  </use>
                  <path fill="none" stroke="white" stroke-width="1.5" d="M0,-3.0v7 M-2.5,-0.5L0,-3.0L2.5,-0.5"/>
                </g>
        </g>
        <svg viewBox="0 0 15 15" width="100%" height="30px" preserveAspectRatio="xMaxYMin meet">
         <g id="arrow_out" transform="scale(0.3 0.3)">
          <a xlink:href="structHookeInternalStressElement_1_1OpSaveStress__coll__graph_org.svg" target="_base">
           <rect id="button" ry="5" rx="5" y="6" x="6" height="38" width="38"
                fill="#f2f5e9" fill-opacity="0.5" stroke="#606060" stroke-width="1.0"/>
           <path id="arrow"
             d="M 11.500037,31.436501 C 11.940474,20.09759 22.043105,11.32322 32.158766,21.979434 L 37.068811,17.246167 C 37.068811,17.246167 37.088388,32 37.088388,32 L 22.160133,31.978069 C 22.160133,31.978069 26.997745,27.140456 26.997745,27.140456 C 18.528582,18.264221 13.291696,25.230495 11.500037,31.436501 z"
             style="fill:#404040;"/>
          </a>
         </g>
        </svg>
</svg>
