<?xml version="1.0" encoding="UTF-8" standalone="no"?>
<!DOCTYPE svg PUBLIC "-//W3C//DTD SVG 1.1//EN"
 "http://www.w3.org/Graphics/SVG/1.1/DTD/svg11.dtd">
<!-- Generated by graphviz version 2.43.0 (0)
 -->
<!-- Title: DirichletSetFieldFromBlockWithFlags Pages: 1 -->
<svg width="2738pt" height="1381pt"
 viewBox="0.00 0.00 2738.00 1381.02" xmlns="http://www.w3.org/2000/svg" xmlns:xlink="http://www.w3.org/1999/xlink">
<g id="graph0" class="graph" transform="scale(1 1) rotate(0) translate(4 1377.02)">
<title>DirichletSetFieldFromBlockWithFlags</title>
<polygon fill="white" stroke="transparent" points="-4,4 -4,-1377.02 2734,-1377.02 2734,4 -4,4"/>
<!-- Node1 -->
<g id="node1" class="node">
<title>Node1</title>
<g id="a_node1"><a xlink:title="Add boundary conditions form block set having 6 attributes.">
<polygon fill="#bfbfbf" stroke="black" points="2581,-340.02 2581,-370.02 2730,-370.02 2730,-340.02 2581,-340.02"/>
<text text-anchor="start" x="2589" y="-358.02" font-family="Helvetica,sans-Serif" font-size="10.00">DirichletSetFieldFromBlock</text>
<text text-anchor="middle" x="2655.5" y="-347.02" font-family="Helvetica,sans-Serif" font-size="10.00">WithFlags</text>
</a>
</g>
</g>
<!-- Node2 -->
<g id="node2" class="node">
<title>Node2</title>
<g id="a_node2"><a xlink:href="structDirichletDisplacementBc.html" target="_top" xlink:title="Set Dirichlet boundary conditions on displacements.">
<polygon fill="white" stroke="black" points="2407,-345.52 2407,-364.52 2544,-364.52 2544,-345.52 2407,-345.52"/>
<text text-anchor="middle" x="2475.5" y="-352.52" font-family="Helvetica,sans-Serif" font-size="10.00">DirichletDisplacementBc</text>
</a>
</g>
</g>
<!-- Node2&#45;&gt;Node1 -->
<g id="edge1" class="edge">
<title>Node2&#45;&gt;Node1</title>
<path fill="none" stroke="midnightblue" d="M2554.28,-355.02C2563.08,-355.02 2572.02,-355.02 2580.76,-355.02"/>
<polygon fill="midnightblue" stroke="midnightblue" points="2554.05,-351.52 2544.05,-355.02 2554.05,-358.52 2554.05,-351.52"/>
</g>
<!-- Node3 -->
<g id="node3" class="node">
<title>Node3</title>
<g id="a_node3"><a xlink:href="structMoFEM_1_1FEMethod.html" target="_top" xlink:title="structure for User Loop Methods on finite elements">
<polygon fill="white" stroke="black" points="2166,-469.52 2166,-488.52 2273,-488.52 2273,-469.52 2166,-469.52"/>
<text text-anchor="middle" x="2219.5" y="-476.52" font-family="Helvetica,sans-Serif" font-size="10.00">MoFEM::FEMethod</text>
</a>
</g>
</g>
<!-- Node3&#45;&gt;Node2 -->
<g id="edge2" class="edge">
<title>Node3&#45;&gt;Node2</title>
<path fill="none" stroke="midnightblue" d="M2283.07,-469.79C2316.04,-463.12 2356.31,-452.02 2389,-434.02 2422.46,-415.59 2453.12,-381.31 2466.87,-364.63"/>
<polygon fill="midnightblue" stroke="midnightblue" points="2282.24,-466.39 2273.09,-471.72 2283.57,-473.26 2282.24,-466.39"/>
</g>
<!-- Node4 -->
<g id="node4" class="node">
<title>Node4</title>
<g id="a_node4"><a xlink:href="structMoFEM_1_1BasicMethod.html" target="_top" xlink:title="Data structure to exchange data between mofem and User Loop Methods.">
<polygon fill="white" stroke="black" points="1819.5,-456.52 1819.5,-475.52 1941.5,-475.52 1941.5,-456.52 1819.5,-456.52"/>
<text text-anchor="middle" x="1880.5" y="-463.52" font-family="Helvetica,sans-Serif" font-size="10.00">MoFEM::BasicMethod</text>
</a>
</g>
</g>
<!-- Node4&#45;&gt;Node3 -->
<g id="edge3" class="edge">
<title>Node4&#45;&gt;Node3</title>
<path fill="none" stroke="midnightblue" d="M1952.13,-468.74C2015.96,-471.21 2108.46,-474.77 2165.97,-476.99"/>
<polygon fill="midnightblue" stroke="midnightblue" points="1951.88,-465.23 1941.75,-468.34 1951.61,-472.23 1951.88,-465.23"/>
</g>
<!-- Node5 -->
<g id="node5" class="node">
<title>Node5</title>
<g id="a_node5"><a xlink:href="structMoFEM_1_1KspMethod.html" target="_top" xlink:title="data structure for ksp (linear solver) context">
<polygon fill="white" stroke="black" points="1442,-92.52 1442,-111.52 1555,-111.52 1555,-92.52 1442,-92.52"/>
<text text-anchor="middle" x="1498.5" y="-99.52" font-family="Helvetica,sans-Serif" font-size="10.00">MoFEM::KspMethod</text>
</a>
</g>
</g>
<!-- Node5&#45;&gt;Node4 -->
<g id="edge4" class="edge">
<title>Node5&#45;&gt;Node4</title>
<path fill="none" stroke="midnightblue" d="M1542.22,-114.81C1606.15,-136.42 1725.15,-186.64 1781,-275.02 1820.88,-338.13 1751.24,-384.64 1799,-442.02 1804.41,-448.52 1811.5,-453.31 1819.24,-456.82"/>
<polygon fill="midnightblue" stroke="midnightblue" points="1543.05,-111.4 1532.45,-111.59 1540.85,-118.05 1543.05,-111.4"/>
</g>
<!-- Node6 -->
<g id="node6" class="node">
<title>Node6</title>
<g id="a_node6"><a xlink:href="structMoFEM_1_1PetscData.html" target="_top" xlink:title=" ">
<polygon fill="white" stroke="black" points="1087.5,-261.52 1087.5,-280.52 1195.5,-280.52 1195.5,-261.52 1087.5,-261.52"/>
<text text-anchor="middle" x="1141.5" y="-268.52" font-family="Helvetica,sans-Serif" font-size="10.00">MoFEM::PetscData</text>
</a>
</g>
</g>
<!-- Node6&#45;&gt;Node5 -->
<g id="edge5" class="edge">
<title>Node6&#45;&gt;Node5</title>
<path fill="none" stroke="midnightblue" d="M1205.63,-267.41C1218.82,-264.45 1232.03,-259.66 1243,-252.02 1255.76,-243.13 1249.62,-232.62 1261,-222.02 1295.03,-190.32 1422.6,-133.93 1474.91,-111.55"/>
<polygon fill="midnightblue" stroke="midnightblue" points="1204.75,-264.01 1195.59,-269.33 1206.07,-270.89 1204.75,-264.01"/>
</g>
<!-- Node16 -->
<g id="node16" class="node">
<title>Node16</title>
<g id="a_node16"><a xlink:href="structMoFEM_1_1SnesMethod.html" target="_top" xlink:title="data structure for snes (nonlinear solver) context">
<polygon fill="white" stroke="black" points="1439,-418.52 1439,-437.52 1558,-437.52 1558,-418.52 1439,-418.52"/>
<text text-anchor="middle" x="1498.5" y="-425.52" font-family="Helvetica,sans-Serif" font-size="10.00">MoFEM::SnesMethod</text>
</a>
</g>
</g>
<!-- Node6&#45;&gt;Node16 -->
<g id="edge18" class="edge">
<title>Node6&#45;&gt;Node16</title>
<path fill="none" stroke="darkgreen" d="M1206.01,-266.27C1272.25,-262.79 1370.13,-262.31 1397,-287.02 1437.34,-324.12 1377.82,-368.75 1415,-409.02 1421.38,-415.93 1429.73,-420.57 1438.66,-423.65"/>
<polygon fill="darkgreen" stroke="darkgreen" points="1205.45,-262.8 1195.67,-266.85 1205.85,-269.78 1205.45,-262.8"/>
</g>
<!-- Node19 -->
<g id="node19" class="node">
<title>Node19</title>
<g id="a_node19"><a xlink:href="structMoFEM_1_1TSMethod.html" target="_top" xlink:title="data structure for TS (time stepping) context">
<polygon fill="white" stroke="black" points="1445,-504.52 1445,-523.52 1552,-523.52 1552,-504.52 1445,-504.52"/>
<text text-anchor="middle" x="1498.5" y="-511.52" font-family="Helvetica,sans-Serif" font-size="10.00">MoFEM::TSMethod</text>
</a>
</g>
</g>
<!-- Node6&#45;&gt;Node19 -->
<g id="edge24" class="edge">
<title>Node6&#45;&gt;Node19</title>
<path fill="none" stroke="darkgreen" d="M1205.66,-274.93C1218.79,-277.87 1231.97,-282.58 1243,-290.02 1255.27,-298.29 1248.8,-309.65 1261,-318.02 1311.89,-352.93 1355.01,-300.79 1397,-346.02 1439.38,-391.67 1375.79,-436.61 1415,-485.02 1422.64,-494.46 1433.57,-500.83 1444.97,-505.13"/>
<polygon fill="darkgreen" stroke="darkgreen" points="1206.15,-271.46 1195.67,-273.01 1204.83,-278.33 1206.15,-271.46"/>
</g>
<!-- Node7 -->
<g id="node7" class="node">
<title>Node7</title>
<g id="a_node7"><a xlink:href="structMoFEM_1_1UnknownInterface.html" target="_top" xlink:title="base class for all interface classes">
<polygon fill="white" stroke="black" points="735,-1215.52 735,-1234.52 883,-1234.52 883,-1215.52 735,-1215.52"/>
<text text-anchor="middle" x="809" y="-1222.52" font-family="Helvetica,sans-Serif" font-size="10.00">MoFEM::UnknownInterface</text>
</a>
</g>
</g>
<!-- Node7&#45;&gt;Node6 -->
<g id="edge6" class="edge">
<title>Node7&#45;&gt;Node6</title>
<path fill="none" stroke="midnightblue" d="M814.85,-1205.43C837.99,-1111.84 939.54,-700.97 1022,-364.02 1030.05,-331.14 1015.45,-313.32 1040,-290.02 1052.62,-278.04 1070.3,-272.44 1087.33,-270.1"/>
<polygon fill="midnightblue" stroke="midnightblue" points="811.42,-1204.69 812.42,-1215.24 818.22,-1206.37 811.42,-1204.69"/>
</g>
<!-- Node48 -->
<g id="node48" class="node">
<title>Node48</title>
<g id="a_node48"><a xlink:href="structMoFEM_1_1CoreInterface.html" target="_top" xlink:title="Interface.">
<polygon fill="white" stroke="black" points="1079,-1237.52 1079,-1256.52 1204,-1256.52 1204,-1237.52 1079,-1237.52"/>
<text text-anchor="middle" x="1141.5" y="-1244.52" font-family="Helvetica,sans-Serif" font-size="10.00">MoFEM::CoreInterface</text>
</a>
</g>
</g>
<!-- Node7&#45;&gt;Node48 -->
<g id="edge58" class="edge">
<title>Node7&#45;&gt;Node48</title>
<path fill="none" stroke="midnightblue" d="M893.54,-1230.58C951.26,-1234.42 1026.75,-1239.45 1079,-1242.92"/>
<polygon fill="midnightblue" stroke="midnightblue" points="893.56,-1227.07 883.35,-1229.9 893.09,-1234.06 893.56,-1227.07"/>
</g>
<!-- Node8 -->
<g id="node8" class="node">
<title>Node8</title>
<g id="a_node8"><a xlink:title=" ">
<polygon fill="white" stroke="#bfbfbf" points="386,-1193.52 386,-1256.52 627,-1256.52 627,-1193.52 386,-1193.52"/>
<text text-anchor="start" x="394" y="-1244.52" font-family="Helvetica,sans-Serif" font-size="10.00">multi_index_container</text>
<text text-anchor="start" x="394" y="-1233.52" font-family="Helvetica,sans-Serif" font-size="10.00">&lt; UIdTypeMap, indexed</text>
<text text-anchor="start" x="394" y="-1222.52" font-family="Helvetica,sans-Serif" font-size="10.00">_by&lt; hashed_unique&lt; member</text>
<text text-anchor="start" x="394" y="-1211.52" font-family="Helvetica,sans-Serif" font-size="10.00">&lt; UIdTypeMap, boost::typeindex</text>
<text text-anchor="middle" x="506.5" y="-1200.52" font-family="Helvetica,sans-Serif" font-size="10.00">::type_index, &amp;UIdTypeMap::classIdx &gt; &gt; &gt; &gt;</text>
</a>
</g>
</g>
<!-- Node8&#45;&gt;Node7 -->
<g id="edge7" class="edge">
<title>Node8&#45;&gt;Node7</title>
<path fill="none" stroke="#9a32cd" stroke-dasharray="5,2" d="M637.41,-1225.02C670.69,-1225.02 705.33,-1225.02 734.62,-1225.02"/>
<polygon fill="#9a32cd" stroke="#9a32cd" points="637.13,-1221.52 627.13,-1225.02 637.13,-1228.52 637.13,-1221.52"/>
<text text-anchor="middle" x="681" y="-1228.02" font-family="Helvetica,sans-Serif" font-size="10.00"> iFaceTypeMap</text>
</g>
<!-- Node9 -->
<g id="node9" class="node">
<title>Node9</title>
<g id="a_node9"><a xlink:title=" ">
<polygon fill="white" stroke="#bfbfbf" points="0,-1245.52 0,-1264.52 125,-1264.52 125,-1245.52 0,-1245.52"/>
<text text-anchor="middle" x="62.5" y="-1252.52" font-family="Helvetica,sans-Serif" font-size="10.00">multi_index_container</text>
</a>
</g>
</g>
<!-- Node9&#45;&gt;Node4 -->
<g id="edge31" class="edge">
<title>Node9&#45;&gt;Node4</title>
<path fill="none" stroke="#9a32cd" stroke-dasharray="5,2" d="M114.58,-1266.55C123.99,-1268.32 133.76,-1269.92 143,-1271.02 303.1,-1290.1 344.27,-1285.02 505.5,-1285.02 505.5,-1285.02 505.5,-1285.02 1499.5,-1285.02 1712.19,-1285.02 1710.8,-1098.79 1781,-898.02 1796.05,-854.97 1770.54,-523.65 1799,-488.02 1804.33,-481.34 1811.49,-476.57 1819.33,-473.19"/>
<polygon fill="#9a32cd" stroke="#9a32cd" points="115.05,-1263.08 104.56,-1264.58 113.7,-1269.94 115.05,-1263.08"/>
<text text-anchor="middle" x="961.5" y="-1365.02" font-family="Helvetica,sans-Serif" font-size="10.00"> adjacenciesPtr</text>
<text text-anchor="middle" x="961.5" y="-1354.02" font-family="Helvetica,sans-Serif" font-size="10.00">refinedEntitiesPtr</text>
<text text-anchor="middle" x="961.5" y="-1343.02" font-family="Helvetica,sans-Serif" font-size="10.00">finiteElementsEntitiesPtr</text>
<text text-anchor="middle" x="961.5" y="-1332.02" font-family="Helvetica,sans-Serif" font-size="10.00">dofsPtr</text>
<text text-anchor="middle" x="961.5" y="-1321.02" font-family="Helvetica,sans-Serif" font-size="10.00">entitiesPtr</text>
<text text-anchor="middle" x="961.5" y="-1310.02" font-family="Helvetica,sans-Serif" font-size="10.00">finiteElementsPtr</text>
<text text-anchor="middle" x="961.5" y="-1299.02" font-family="Helvetica,sans-Serif" font-size="10.00">refinedFiniteElementsPtr</text>
<text text-anchor="middle" x="961.5" y="-1288.02" font-family="Helvetica,sans-Serif" font-size="10.00">fieldsPtr</text>
</g>
<!-- Node9&#45;&gt;Node8 -->
<g id="edge8" class="edge">
<title>Node9&#45;&gt;Node8</title>
<path fill="none" stroke="orange" stroke-dasharray="5,2" d="M94.05,-1241.57C108.58,-1235.88 126.37,-1229.91 143,-1227.02 223.14,-1213.09 314.76,-1212.72 385.84,-1215.76"/>
<polygon fill="orange" stroke="orange" points="92.52,-1238.42 84.58,-1245.42 95.16,-1244.9 92.52,-1238.42"/>
<text text-anchor="start" x="143" y="-1263.02" font-family="Helvetica,sans-Serif" font-size="10.00"> &lt; UIdTypeMap, indexed</text>
<text text-anchor="start" x="143" y="-1252.02" font-family="Helvetica,sans-Serif" font-size="10.00">_by&lt; hashed_unique&lt; member</text>
<text text-anchor="start" x="143" y="-1241.02" font-family="Helvetica,sans-Serif" font-size="10.00">&lt; UIdTypeMap, boost::typeindex</text>
<text text-anchor="middle" x="255.5" y="-1230.02" font-family="Helvetica,sans-Serif" font-size="10.00">::type_index, &amp;UIdTypeMap::classIdx &gt; &gt; &gt; &gt;</text>
</g>
<!-- Node10 -->
<g id="node10" class="node">
<title>Node10</title>
<g id="a_node10"><a xlink:title=" ">
<polygon fill="white" stroke="#bfbfbf" points="738.5,-138.52 738.5,-157.52 879.5,-157.52 879.5,-138.52 738.5,-138.52"/>
<text text-anchor="middle" x="809" y="-145.52" font-family="Helvetica,sans-Serif" font-size="10.00">static constexpr Switches</text>
</a>
</g>
</g>
<!-- Node10&#45;&gt;Node6 -->
<g id="edge9" class="edge">
<title>Node10&#45;&gt;Node6</title>
<path fill="none" stroke="#9a32cd" stroke-dasharray="5,2" d="M889.76,-141.38C933.9,-142.11 986.78,-150.89 1022,-183.02 1045.41,-204.38 1016.84,-230.39 1040,-252.02 1052.72,-263.9 1070.43,-269.46 1087.44,-271.81"/>
<polygon fill="#9a32cd" stroke="#9a32cd" points="889.62,-137.88 879.61,-141.35 889.6,-144.88 889.62,-137.88"/>
<text text-anchor="middle" x="961.5" y="-263.02" font-family="Helvetica,sans-Serif" font-size="10.00"> CtxSetX_TT</text>
<text text-anchor="middle" x="961.5" y="-252.02" font-family="Helvetica,sans-Serif" font-size="10.00">CtxSetX_T</text>
<text text-anchor="middle" x="961.5" y="-241.02" font-family="Helvetica,sans-Serif" font-size="10.00">CtxSetA</text>
<text text-anchor="middle" x="961.5" y="-230.02" font-family="Helvetica,sans-Serif" font-size="10.00">CtxSetB</text>
<text text-anchor="middle" x="961.5" y="-219.02" font-family="Helvetica,sans-Serif" font-size="10.00">CtxSetTime</text>
<text text-anchor="middle" x="961.5" y="-208.02" font-family="Helvetica,sans-Serif" font-size="10.00">CtxSetNone</text>
<text text-anchor="middle" x="961.5" y="-197.02" font-family="Helvetica,sans-Serif" font-size="10.00">CtxSetF</text>
<text text-anchor="middle" x="961.5" y="-186.02" font-family="Helvetica,sans-Serif" font-size="10.00">CtxSetX</text>
</g>
<!-- Node11 -->
<g id="node11" class="node">
<title>Node11</title>
<g id="a_node11"><a xlink:title=" ">
<polygon fill="white" stroke="#bfbfbf" points="791.5,-369.52 791.5,-388.52 826.5,-388.52 826.5,-369.52 791.5,-369.52"/>
<text text-anchor="middle" x="809" y="-376.52" font-family="Helvetica,sans-Serif" font-size="10.00">Mat</text>
</a>
</g>
</g>
<!-- Node11&#45;&gt;Node5 -->
<g id="edge15" class="edge">
<title>Node11&#45;&gt;Node5</title>
<path fill="none" stroke="#9a32cd" stroke-dasharray="5,2" d="M828.28,-362.51C843.92,-347.82 866.46,-325.28 883,-303.02 892.73,-289.92 888.17,-281.1 901,-271.02 944.92,-236.5 984.36,-278.3 1022,-237.02 1051.84,-204.29 1007.11,-168.67 1040,-139.02 1069.55,-112.37 1357.35,-114.35 1397,-111.02 1411.58,-109.79 1427.34,-108.41 1441.96,-107.1"/>
<polygon fill="#9a32cd" stroke="#9a32cd" points="825.76,-360.07 820.79,-369.43 830.51,-365.21 825.76,-360.07"/>
<text text-anchor="middle" x="1141.5" y="-153.02" font-family="Helvetica,sans-Serif" font-size="10.00"> ksp_A</text>
<text text-anchor="middle" x="1141.5" y="-142.02" font-family="Helvetica,sans-Serif" font-size="10.00">ksp_B</text>
</g>
<!-- Node11&#45;&gt;Node6 -->
<g id="edge10" class="edge">
<title>Node11&#45;&gt;Node6</title>
<path fill="none" stroke="#9a32cd" stroke-dasharray="5,2" d="M835.89,-367.2C877.92,-348.43 963.96,-311.72 1040,-290.02 1055.2,-285.68 1071.97,-282.06 1087.4,-279.19"/>
<polygon fill="#9a32cd" stroke="#9a32cd" points="834.35,-364.06 826.66,-371.35 837.22,-370.44 834.35,-364.06"/>
<text text-anchor="middle" x="961.5" y="-352.02" font-family="Helvetica,sans-Serif" font-size="10.00"> A</text>
<text text-anchor="middle" x="961.5" y="-341.02" font-family="Helvetica,sans-Serif" font-size="10.00">B</text>
</g>
<!-- Node11&#45;&gt;Node16 -->
<g id="edge20" class="edge">
<title>Node11&#45;&gt;Node16</title>
<path fill="none" stroke="#9a32cd" stroke-dasharray="5,2" d="M836.88,-382.26C879.77,-387.33 966.37,-397.17 1040,-403.02 1183.13,-414.39 1351.86,-422.15 1438.94,-425.74"/>
<polygon fill="#9a32cd" stroke="#9a32cd" points="837.06,-378.75 826.71,-381.05 836.23,-385.71 837.06,-378.75"/>
<text text-anchor="middle" x="1141.5" y="-430.02" font-family="Helvetica,sans-Serif" font-size="10.00"> snes_A</text>
<text text-anchor="middle" x="1141.5" y="-419.02" font-family="Helvetica,sans-Serif" font-size="10.00">snes_B</text>
</g>
<!-- Node11&#45;&gt;Node19 -->
<g id="edge25" class="edge">
<title>Node11&#45;&gt;Node19</title>
<path fill="none" stroke="#9a32cd" stroke-dasharray="5,2" d="M823.06,-396.59C854.79,-437.68 940.69,-539.63 1040,-580.02 1113.53,-609.92 1321.91,-617.74 1397,-592.02 1437.12,-578.28 1473.59,-541.27 1489.32,-523.63"/>
<polygon fill="#9a32cd" stroke="#9a32cd" points="825.8,-394.41 816.97,-388.57 820.23,-398.65 825.8,-394.41"/>
<text text-anchor="middle" x="1141.5" y="-621.02" font-family="Helvetica,sans-Serif" font-size="10.00"> ts_A</text>
<text text-anchor="middle" x="1141.5" y="-610.02" font-family="Helvetica,sans-Serif" font-size="10.00">ts_B</text>
</g>
<!-- Node12 -->
<g id="node12" class="node">
<title>Node12</title>
<g id="a_node12"><a xlink:title=" ">
<polygon fill="white" stroke="#bfbfbf" points="772.5,-274.52 772.5,-293.52 845.5,-293.52 845.5,-274.52 772.5,-274.52"/>
<text text-anchor="middle" x="809" y="-281.52" font-family="Helvetica,sans-Serif" font-size="10.00">bitset&lt; 8 &gt;</text>
</a>
</g>
</g>
<!-- Node12&#45;&gt;Node6 -->
<g id="edge11" class="edge">
<title>Node12&#45;&gt;Node6</title>
<path fill="none" stroke="#9a32cd" stroke-dasharray="5,2" d="M855.72,-282.22C916.35,-279.83 1023.14,-275.63 1087.3,-273.11"/>
<polygon fill="#9a32cd" stroke="#9a32cd" points="855.54,-278.72 845.68,-282.61 855.81,-285.72 855.54,-278.72"/>
<text text-anchor="middle" x="961.5" y="-283.02" font-family="Helvetica,sans-Serif" font-size="10.00"> data_ctx</text>
</g>
<!-- Node13 -->
<g id="node13" class="node">
<title>Node13</title>
<g id="a_node13"><a xlink:title=" ">
<polygon fill="white" stroke="#bfbfbf" points="792,-55.52 792,-74.52 826,-74.52 826,-55.52 792,-55.52"/>
<text text-anchor="middle" x="809" y="-62.52" font-family="Helvetica,sans-Serif" font-size="10.00">Vec</text>
</a>
</g>
</g>
<!-- Node13&#45;&gt;Node5 -->
<g id="edge16" class="edge">
<title>Node13&#45;&gt;Node5</title>
<path fill="none" stroke="#9a32cd" stroke-dasharray="5,2" d="M835.72,-54.99C853.76,-48.27 878.57,-39.65 901,-34.02 1048.75,3.1 1091.77,7.36 1243,-11.02 1312.98,-19.52 1331.11,-23.95 1397,-49.02 1428.53,-61.01 1462.78,-80.63 1482.05,-92.34"/>
<polygon fill="#9a32cd" stroke="#9a32cd" points="834.31,-51.78 826.2,-58.6 836.79,-58.33 834.31,-51.78"/>
<text text-anchor="middle" x="1141.5" y="-14.02" font-family="Helvetica,sans-Serif" font-size="10.00"> ksp_f</text>
</g>
<!-- Node13&#45;&gt;Node6 -->
<g id="edge12" class="edge">
<title>Node13&#45;&gt;Node6</title>
<path fill="none" stroke="#9a32cd" stroke-dasharray="5,2" d="M836.29,-64.76C887.25,-64.86 996.72,-68.16 1022,-94.02 1071.41,-144.55 991.89,-200.24 1040,-252.02 1052.09,-265.03 1070.07,-270.77 1087.49,-272.94"/>
<polygon fill="#9a32cd" stroke="#9a32cd" points="836.06,-61.26 826.07,-64.78 836.08,-68.26 836.06,-61.26"/>
<text text-anchor="middle" x="961.5" y="-130.02" font-family="Helvetica,sans-Serif" font-size="10.00"> f</text>
<text text-anchor="middle" x="961.5" y="-119.02" font-family="Helvetica,sans-Serif" font-size="10.00">x</text>
<text text-anchor="middle" x="961.5" y="-108.02" font-family="Helvetica,sans-Serif" font-size="10.00">x_t</text>
<text text-anchor="middle" x="961.5" y="-97.02" font-family="Helvetica,sans-Serif" font-size="10.00">x_tt</text>
</g>
<!-- Node13&#45;&gt;Node16 -->
<g id="edge21" class="edge">
<title>Node13&#45;&gt;Node16</title>
<path fill="none" stroke="#9a32cd" stroke-dasharray="5,2" d="M835.72,-55.28C879.49,-40.55 968.85,-18.74 1022,-63.02 1056.02,-91.36 1007.82,-130.6 1040,-161.02 1098.11,-215.95 1341.51,-148.44 1397,-206.02 1428.43,-238.63 1385.26,-374.86 1415,-409.02 1421.27,-416.22 1429.68,-420.99 1438.73,-424.1"/>
<polygon fill="#9a32cd" stroke="#9a32cd" points="834.39,-52.04 826.12,-58.65 836.71,-58.64 834.39,-52.04"/>
<text text-anchor="middle" x="1141.5" y="-199.02" font-family="Helvetica,sans-Serif" font-size="10.00"> snes_x</text>
<text text-anchor="middle" x="1141.5" y="-188.02" font-family="Helvetica,sans-Serif" font-size="10.00">snes_f</text>
</g>
<!-- Node13&#45;&gt;Node19 -->
<g id="edge29" class="edge">
<title>Node13&#45;&gt;Node19</title>
<path fill="none" stroke="#9a32cd" stroke-dasharray="5,2" d="M834.81,-79.54C851.51,-90.78 872.35,-107.95 883,-129.02 904.32,-171.22 866.84,-308.33 901,-341.02 928.47,-367.32 1207.2,-342.19 1243,-355.02 1333.21,-387.34 1330.57,-439.7 1415,-485.02 1429.98,-493.06 1447.65,-499.62 1462.78,-504.45"/>
<polygon fill="#9a32cd" stroke="#9a32cd" points="836.35,-76.38 826.05,-73.93 832.57,-82.27 836.35,-76.38"/>
<text text-anchor="middle" x="1141.5" y="-391.02" font-family="Helvetica,sans-Serif" font-size="10.00"> ts_u</text>
<text text-anchor="middle" x="1141.5" y="-380.02" font-family="Helvetica,sans-Serif" font-size="10.00">ts_F</text>
<text text-anchor="middle" x="1141.5" y="-369.02" font-family="Helvetica,sans-Serif" font-size="10.00">ts_u_t</text>
<text text-anchor="middle" x="1141.5" y="-358.02" font-family="Helvetica,sans-Serif" font-size="10.00">ts_u_tt</text>
</g>
<!-- Node14 -->
<g id="node14" class="node">
<title>Node14</title>
<g id="a_node14"><a xlink:title=" ">
<polygon fill="white" stroke="#bfbfbf" points="1124,-69.52 1124,-88.52 1159,-88.52 1159,-69.52 1124,-69.52"/>
<text text-anchor="middle" x="1141.5" y="-76.52" font-family="Helvetica,sans-Serif" font-size="10.00">KSP</text>
</a>
</g>
</g>
<!-- Node14&#45;&gt;Node5 -->
<g id="edge13" class="edge">
<title>Node14&#45;&gt;Node5</title>
<path fill="none" stroke="#9a32cd" stroke-dasharray="5,2" d="M1169.29,-80.75C1227.06,-84.5 1364.41,-93.4 1441.88,-98.41"/>
<polygon fill="#9a32cd" stroke="#9a32cd" points="1169.35,-77.25 1159.15,-80.1 1168.9,-84.24 1169.35,-77.25"/>
<text text-anchor="middle" x="1329" y="-99.02" font-family="Helvetica,sans-Serif" font-size="10.00"> ksp</text>
</g>
<!-- Node15 -->
<g id="node15" class="node">
<title>Node15</title>
<g id="a_node15"><a xlink:title=" ">
<polygon fill="white" stroke="#bfbfbf" points="1104.5,-31.52 1104.5,-50.52 1178.5,-50.52 1178.5,-31.52 1104.5,-31.52"/>
<text text-anchor="middle" x="1141.5" y="-38.52" font-family="Helvetica,sans-Serif" font-size="10.00">KSPContext</text>
</a>
</g>
</g>
<!-- Node15&#45;&gt;Node5 -->
<g id="edge14" class="edge">
<title>Node15&#45;&gt;Node5</title>
<path fill="none" stroke="#9a32cd" stroke-dasharray="5,2" d="M1188.71,-44.65C1239.98,-49.18 1324.98,-58.19 1397,-73.02 1421.55,-78.07 1448.83,-86.1 1468.77,-92.43"/>
<polygon fill="#9a32cd" stroke="#9a32cd" points="1188.88,-41.15 1178.61,-43.77 1188.28,-48.12 1188.88,-41.15"/>
<text text-anchor="middle" x="1329" y="-76.02" font-family="Helvetica,sans-Serif" font-size="10.00"> ksp_ctx</text>
</g>
<!-- Node16&#45;&gt;Node4 -->
<g id="edge17" class="edge">
<title>Node16&#45;&gt;Node4</title>
<path fill="none" stroke="midnightblue" d="M1568.32,-434.9C1639.96,-442.06 1751.06,-453.17 1819.32,-460"/>
<polygon fill="midnightblue" stroke="midnightblue" points="1568.34,-431.38 1558.04,-433.87 1567.64,-438.35 1568.34,-431.38"/>
</g>
<!-- Node17 -->
<g id="node17" class="node">
<title>Node17</title>
<g id="a_node17"><a xlink:title=" ">
<polygon fill="white" stroke="#bfbfbf" points="1120.5,-223.52 1120.5,-242.52 1162.5,-242.52 1162.5,-223.52 1120.5,-223.52"/>
<text text-anchor="middle" x="1141.5" y="-230.52" font-family="Helvetica,sans-Serif" font-size="10.00">SNES</text>
</a>
</g>
</g>
<!-- Node17&#45;&gt;Node16 -->
<g id="edge19" class="edge">
<title>Node17&#45;&gt;Node16</title>
<path fill="none" stroke="#9a32cd" stroke-dasharray="5,2" d="M1172.51,-224.06C1225.58,-210.27 1336.13,-191.07 1397,-249.02 1422.92,-273.69 1391.19,-382.31 1415,-409.02 1421.36,-416.15 1429.81,-420.88 1438.87,-423.98"/>
<polygon fill="#9a32cd" stroke="#9a32cd" points="1171.43,-220.73 1162.69,-226.72 1173.26,-227.48 1171.43,-220.73"/>
<text text-anchor="middle" x="1329" y="-252.02" font-family="Helvetica,sans-Serif" font-size="10.00"> snes</text>
</g>
<!-- Node18 -->
<g id="node18" class="node">
<title>Node18</title>
<g id="a_node18"><a xlink:title=" ">
<polygon fill="white" stroke="#bfbfbf" points="1101.5,-299.52 1101.5,-318.52 1181.5,-318.52 1181.5,-299.52 1101.5,-299.52"/>
<text text-anchor="middle" x="1141.5" y="-306.52" font-family="Helvetica,sans-Serif" font-size="10.00">SNESContext</text>
</a>
</g>
</g>
<!-- Node18&#45;&gt;Node16 -->
<g id="edge22" class="edge">
<title>Node18&#45;&gt;Node16</title>
<path fill="none" stroke="#9a32cd" stroke-dasharray="5,2" d="M1192.06,-297.98C1248.68,-288.5 1340.74,-283.11 1397,-332.02 1423.52,-355.08 1390.11,-384.21 1415,-409.02 1421.56,-415.55 1429.89,-420.03 1438.71,-423.05"/>
<polygon fill="#9a32cd" stroke="#9a32cd" points="1191.15,-294.58 1181.92,-299.78 1192.38,-301.47 1191.15,-294.58"/>
<text text-anchor="middle" x="1329" y="-335.02" font-family="Helvetica,sans-Serif" font-size="10.00"> snes_ctx</text>
</g>
<!-- Node19&#45;&gt;Node4 -->
<g id="edge23" class="edge">
<title>Node19&#45;&gt;Node4</title>
<path fill="none" stroke="midnightblue" d="M1562.27,-520.27C1620.5,-523.91 1708.78,-523.86 1781,-500.02 1790.13,-497 1790.25,-492 1799,-488.02 1810.21,-482.91 1822.85,-478.77 1834.73,-475.52"/>
<polygon fill="midnightblue" stroke="midnightblue" points="1562.34,-516.77 1552.12,-519.58 1561.86,-523.75 1562.34,-516.77"/>
</g>
<!-- Node20 -->
<g id="node20" class="node">
<title>Node20</title>
<g id="a_node20"><a xlink:title=" ">
<polygon fill="white" stroke="#bfbfbf" points="1109,-551.52 1109,-570.52 1174,-570.52 1174,-551.52 1109,-551.52"/>
<text text-anchor="middle" x="1141.5" y="-558.52" font-family="Helvetica,sans-Serif" font-size="10.00">PetscReal</text>
</a>
</g>
</g>
<!-- Node20&#45;&gt;Node19 -->
<g id="edge26" class="edge">
<title>Node20&#45;&gt;Node19</title>
<path fill="none" stroke="#9a32cd" stroke-dasharray="5,2" d="M1184.25,-555.49C1249.06,-546.91 1373.78,-530.4 1444.73,-521"/>
<polygon fill="#9a32cd" stroke="#9a32cd" points="1183.46,-552.06 1174,-556.85 1184.38,-559 1183.46,-552.06"/>
<text text-anchor="middle" x="1329" y="-580.02" font-family="Helvetica,sans-Serif" font-size="10.00"> ts_a</text>
<text text-anchor="middle" x="1329" y="-569.02" font-family="Helvetica,sans-Serif" font-size="10.00">ts_t</text>
<text text-anchor="middle" x="1329" y="-558.02" font-family="Helvetica,sans-Serif" font-size="10.00">ts_dt</text>
<text text-anchor="middle" x="1329" y="-547.02" font-family="Helvetica,sans-Serif" font-size="10.00">ts_aa</text>
</g>
<!-- Node21 -->
<g id="node21" class="node">
<title>Node21</title>
<g id="a_node21"><a xlink:title=" ">
<polygon fill="white" stroke="#bfbfbf" points="1108,-513.52 1108,-532.52 1175,-532.52 1175,-513.52 1108,-513.52"/>
<text text-anchor="middle" x="1141.5" y="-520.52" font-family="Helvetica,sans-Serif" font-size="10.00">TSContext</text>
</a>
</g>
</g>
<!-- Node21&#45;&gt;Node19 -->
<g id="edge27" class="edge">
<title>Node21&#45;&gt;Node19</title>
<path fill="none" stroke="#9a32cd" stroke-dasharray="5,2" d="M1185.4,-519.47C1207.9,-517.77 1235.92,-515.92 1261,-515.02 1324.19,-512.75 1396.94,-512.85 1444.88,-513.29"/>
<polygon fill="#9a32cd" stroke="#9a32cd" points="1184.87,-516 1175.16,-520.26 1185.4,-522.98 1184.87,-516"/>
<text text-anchor="middle" x="1329" y="-518.02" font-family="Helvetica,sans-Serif" font-size="10.00"> ts_ctx</text>
</g>
<!-- Node22 -->
<g id="node22" class="node">
<title>Node22</title>
<g id="a_node22"><a xlink:title=" ">
<polygon fill="white" stroke="#bfbfbf" points="1113.5,-475.52 1113.5,-494.52 1169.5,-494.52 1169.5,-475.52 1113.5,-475.52"/>
<text text-anchor="middle" x="1141.5" y="-482.52" font-family="Helvetica,sans-Serif" font-size="10.00">PetscInt</text>
</a>
</g>
</g>
<!-- Node22&#45;&gt;Node19 -->
<g id="edge28" class="edge">
<title>Node22&#45;&gt;Node19</title>
<path fill="none" stroke="#9a32cd" stroke-dasharray="5,2" d="M1179.96,-485.68C1229.67,-486.85 1320.14,-489.96 1397,-498.02 1412.64,-499.66 1429.55,-502.09 1444.96,-504.57"/>
<polygon fill="#9a32cd" stroke="#9a32cd" points="1179.77,-482.18 1169.69,-485.45 1179.61,-489.17 1179.77,-482.18"/>
<text text-anchor="middle" x="1329" y="-501.02" font-family="Helvetica,sans-Serif" font-size="10.00"> ts_step</text>
</g>
<!-- Node23 -->
<g id="node23" class="node">
<title>Node23</title>
<g id="a_node23"><a xlink:title=" ">
<polygon fill="white" stroke="#bfbfbf" points="1127,-647.52 1127,-666.52 1156,-666.52 1156,-647.52 1127,-647.52"/>
<text text-anchor="middle" x="1141.5" y="-654.52" font-family="Helvetica,sans-Serif" font-size="10.00">TS</text>
</a>
</g>
</g>
<!-- Node23&#45;&gt;Node19 -->
<g id="edge30" class="edge">
<title>Node23&#45;&gt;Node19</title>
<path fill="none" stroke="#9a32cd" stroke-dasharray="5,2" d="M1166.51,-653.76C1227.95,-645.37 1386.77,-623.31 1397,-618.02 1441.38,-595.07 1477.49,-544.95 1491.37,-523.78"/>
<polygon fill="#9a32cd" stroke="#9a32cd" points="1165.67,-650.34 1156.23,-655.16 1166.61,-657.28 1165.67,-650.34"/>
<text text-anchor="middle" x="1329" y="-642.02" font-family="Helvetica,sans-Serif" font-size="10.00"> ts</text>
</g>
<!-- Node24 -->
<g id="node24" class="node">
<title>Node24</title>
<g id="a_node24"><a xlink:title=" ">
<polygon fill="white" stroke="#bfbfbf" points="1454,-380.52 1454,-399.52 1543,-399.52 1543,-380.52 1454,-380.52"/>
<text text-anchor="middle" x="1498.5" y="-387.52" font-family="Helvetica,sans-Serif" font-size="10.00">pair&lt; int, int &gt;</text>
</a>
</g>
</g>
<!-- Node24&#45;&gt;Node4 -->
<g id="edge32" class="edge">
<title>Node24&#45;&gt;Node4</title>
<path fill="none" stroke="#9a32cd" stroke-dasharray="5,2" d="M1553.31,-385.78C1612.35,-383.45 1708.38,-386.62 1781,-423.02 1791.4,-428.23 1789.09,-435.93 1799,-442.02 1809.19,-448.28 1821.11,-452.99 1832.61,-456.51"/>
<polygon fill="#9a32cd" stroke="#9a32cd" points="1552.92,-382.29 1543.09,-386.25 1553.24,-389.28 1552.92,-382.29"/>
<text text-anchor="middle" x="1690.5" y="-426.02" font-family="Helvetica,sans-Serif" font-size="10.00"> loHiFERank</text>
</g>
<!-- Node25 -->
<g id="node25" class="node">
<title>Node25</title>
<g id="a_node25"><a xlink:title=" ">
<polygon fill="white" stroke="#bfbfbf" points="1428.5,-342.52 1428.5,-361.52 1568.5,-361.52 1568.5,-342.52 1428.5,-342.52"/>
<text text-anchor="middle" x="1498.5" y="-349.52" font-family="Helvetica,sans-Serif" font-size="10.00">weak_ptr&lt; CacheTuple &gt;</text>
</a>
</g>
</g>
<!-- Node25&#45;&gt;Node4 -->
<g id="edge33" class="edge">
<title>Node25&#45;&gt;Node4</title>
<path fill="none" stroke="#9a32cd" stroke-dasharray="5,2" d="M1578.85,-347.01C1651.24,-344.2 1751.31,-345.28 1781,-370.02 1806.34,-391.14 1776.2,-418.18 1799,-442.02 1805.05,-448.34 1812.68,-453.02 1820.83,-456.48"/>
<polygon fill="#9a32cd" stroke="#9a32cd" points="1578.67,-343.52 1568.83,-347.43 1578.96,-350.51 1578.67,-343.52"/>
<text text-anchor="middle" x="1690.5" y="-373.02" font-family="Helvetica,sans-Serif" font-size="10.00"> cacheWeakPtr</text>
</g>
<!-- Node26 -->
<g id="node26" class="node">
<title>Node26</title>
<g id="a_node26"><a xlink:title=" ">
<polygon fill="white" stroke="#bfbfbf" points="1442.5,-299.52 1442.5,-318.52 1554.5,-318.52 1554.5,-299.52 1442.5,-299.52"/>
<text text-anchor="middle" x="1498.5" y="-306.52" font-family="Helvetica,sans-Serif" font-size="10.00">unique_ptr&lt; bool &gt;</text>
</a>
</g>
</g>
<!-- Node26&#45;&gt;Node4 -->
<g id="edge34" class="edge">
<title>Node26&#45;&gt;Node4</title>
<path fill="none" stroke="#9a32cd" stroke-dasharray="5,2" d="M1538.01,-296.66C1598.05,-280.05 1714.03,-259.02 1781,-319.02 1822.15,-355.88 1762.85,-400.23 1799,-442.02 1804.53,-448.42 1811.69,-453.15 1819.46,-456.64"/>
<polygon fill="#9a32cd" stroke="#9a32cd" points="1536.81,-293.36 1528.17,-299.48 1538.74,-300.09 1536.81,-293.36"/>
<text text-anchor="middle" x="1690.5" y="-333.02" font-family="Helvetica,sans-Serif" font-size="10.00"> matAssembleSwitch</text>
<text text-anchor="middle" x="1690.5" y="-322.02" font-family="Helvetica,sans-Serif" font-size="10.00">vecAssembleSwitch</text>
</g>
<!-- Node27 -->
<g id="node27" class="node">
<title>Node27</title>
<g id="a_node27"><a xlink:title=" ">
<polygon fill="white" stroke="#bfbfbf" points="1127,-687.52 1127,-706.52 1156,-706.52 1156,-687.52 1127,-687.52"/>
<text text-anchor="middle" x="1141.5" y="-694.52" font-family="Helvetica,sans-Serif" font-size="10.00">int</text>
</a>
</g>
</g>
<!-- Node27&#45;&gt;Node4 -->
<g id="edge35" class="edge">
<title>Node27&#45;&gt;Node4</title>
<path fill="none" stroke="#9a32cd" stroke-dasharray="5,2" d="M1166.17,-694C1211.43,-687.97 1313.2,-673.17 1397,-652.02 1571.29,-608.03 1645.7,-643.37 1781,-525.02 1794.76,-512.98 1784.92,-499.69 1799,-488.02 1805.36,-482.75 1812.87,-478.73 1820.72,-475.67"/>
<polygon fill="#9a32cd" stroke="#9a32cd" points="1165.63,-690.54 1156.17,-695.31 1166.54,-697.48 1165.63,-690.54"/>
<text text-anchor="middle" x="1498.5" y="-682.02" font-family="Helvetica,sans-Serif" font-size="10.00"> sIze</text>
<text text-anchor="middle" x="1498.5" y="-671.02" font-family="Helvetica,sans-Serif" font-size="10.00">loopSize</text>
<text text-anchor="middle" x="1498.5" y="-660.02" font-family="Helvetica,sans-Serif" font-size="10.00">nInTheLoop</text>
<text text-anchor="middle" x="1498.5" y="-649.02" font-family="Helvetica,sans-Serif" font-size="10.00">rAnk</text>
</g>
<!-- Node29 -->
<g id="node29" class="node">
<title>Node29</title>
<g id="a_node29"><a xlink:href="structMoFEM_1_1Problem.html" target="_top" xlink:title="keeps basic data about problem">
<polygon fill="white" stroke="black" points="1449,-947.52 1449,-966.52 1548,-966.52 1548,-947.52 1449,-947.52"/>
<text text-anchor="middle" x="1498.5" y="-954.52" font-family="Helvetica,sans-Serif" font-size="10.00">MoFEM::Problem</text>
</a>
</g>
</g>
<!-- Node27&#45;&gt;Node29 -->
<g id="edge47" class="edge">
<title>Node27&#45;&gt;Node29</title>
<path fill="none" stroke="#9a32cd" stroke-dasharray="5,2" d="M1166,-694.28C1221.76,-688.27 1360.18,-676.42 1397,-702.02 1483.35,-762.05 1495.51,-908.47 1497.22,-947.39"/>
<polygon fill="#9a32cd" stroke="#9a32cd" points="1165.55,-690.8 1156,-695.39 1166.33,-697.76 1165.55,-690.8"/>
<text text-anchor="middle" x="1329" y="-771.02" font-family="Helvetica,sans-Serif" font-size="10.00"> tagNameSize</text>
<text text-anchor="middle" x="1329" y="-760.02" font-family="Helvetica,sans-Serif" font-size="10.00">nbDofsRow</text>
<text text-anchor="middle" x="1329" y="-749.02" font-family="Helvetica,sans-Serif" font-size="10.00">nbLocDofsCol</text>
<text text-anchor="middle" x="1329" y="-738.02" font-family="Helvetica,sans-Serif" font-size="10.00">nbDofsCol</text>
<text text-anchor="middle" x="1329" y="-727.02" font-family="Helvetica,sans-Serif" font-size="10.00">nbGhostDofsRow</text>
<text text-anchor="middle" x="1329" y="-716.02" font-family="Helvetica,sans-Serif" font-size="10.00">nbGhostDofsCol</text>
<text text-anchor="middle" x="1329" y="-705.02" font-family="Helvetica,sans-Serif" font-size="10.00">nbLocDofsRow</text>
</g>
<!-- Node28 -->
<g id="node28" class="node">
<title>Node28</title>
<g id="a_node28"><a xlink:title=" ">
<polygon fill="white" stroke="#bfbfbf" points="1415,-456.52 1415,-475.52 1582,-475.52 1582,-456.52 1415,-456.52"/>
<text text-anchor="middle" x="1498.5" y="-463.52" font-family="Helvetica,sans-Serif" font-size="10.00">function&lt; MoFEMErrorCode()&gt;</text>
</a>
</g>
</g>
<!-- Node28&#45;&gt;Node4 -->
<g id="edge36" class="edge">
<title>Node28&#45;&gt;Node4</title>
<path fill="none" stroke="#9a32cd" stroke-dasharray="5,2" d="M1592.67,-466.02C1663.38,-466.02 1758.51,-466.02 1819.43,-466.02"/>
<polygon fill="#9a32cd" stroke="#9a32cd" points="1592.42,-462.52 1582.42,-466.02 1592.42,-469.52 1592.42,-462.52"/>
<text text-anchor="middle" x="1690.5" y="-491.02" font-family="Helvetica,sans-Serif" font-size="10.00"> preProcessHook</text>
<text text-anchor="middle" x="1690.5" y="-480.02" font-family="Helvetica,sans-Serif" font-size="10.00">operatorHook</text>
<text text-anchor="middle" x="1690.5" y="-469.02" font-family="Helvetica,sans-Serif" font-size="10.00">postProcessHook</text>
</g>
<!-- Node29&#45;&gt;Node4 -->
<g id="edge37" class="edge">
<title>Node29&#45;&gt;Node4</title>
<path fill="none" stroke="#9a32cd" stroke-dasharray="5,2" d="M1524.06,-941.82C1580.99,-905.03 1721.64,-804.98 1781,-680.02 1799.39,-641.31 1771.43,-520.83 1799,-488.02 1804.41,-481.58 1811.49,-476.94 1819.22,-473.6"/>
<polygon fill="#9a32cd" stroke="#9a32cd" points="1521.9,-939.04 1515.35,-947.36 1525.67,-944.94 1521.9,-939.04"/>
<text text-anchor="middle" x="1690.5" y="-886.02" font-family="Helvetica,sans-Serif" font-size="10.00"> problemPtr</text>
</g>
<!-- Node30 -->
<g id="node30" class="node">
<title>Node30</title>
<g id="a_node30"><a xlink:title=" ">
<polygon fill="white" stroke="#bfbfbf" points="1058,-986.02 1058,-1016.02 1225,-1016.02 1225,-986.02 1058,-986.02"/>
<text text-anchor="start" x="1066" y="-1004.02" font-family="Helvetica,sans-Serif" font-size="10.00">shared_ptr&lt; NumeredEntFinite</text>
<text text-anchor="middle" x="1141.5" y="-993.02" font-family="Helvetica,sans-Serif" font-size="10.00">Element_multiIndex &gt;</text>
</a>
</g>
</g>
<!-- Node30&#45;&gt;Node29 -->
<g id="edge38" class="edge">
<title>Node30&#45;&gt;Node29</title>
<path fill="none" stroke="#9a32cd" stroke-dasharray="5,2" d="M1235.23,-991.23C1283.51,-985.94 1343.49,-979.06 1397,-972.02 1413.97,-969.79 1432.5,-967.09 1448.99,-964.61"/>
<polygon fill="#9a32cd" stroke="#9a32cd" points="1234.67,-987.77 1225.11,-992.34 1235.43,-994.73 1234.67,-987.77"/>
<text text-anchor="middle" x="1329" y="-990.02" font-family="Helvetica,sans-Serif" font-size="10.00"> numeredFiniteElementsPtr</text>
</g>
<!-- Node31 -->
<g id="node31" class="node">
<title>Node31</title>
<g id="a_node31"><a xlink:title=" ">
<polygon fill="white" stroke="#bfbfbf" points="1112,-947.52 1112,-966.52 1171,-966.52 1171,-947.52 1112,-947.52"/>
<text text-anchor="middle" x="1141.5" y="-954.52" font-family="Helvetica,sans-Serif" font-size="10.00">BitFEId *</text>
</a>
</g>
</g>
<!-- Node31&#45;&gt;Node29 -->
<g id="edge39" class="edge">
<title>Node31&#45;&gt;Node29</title>
<path fill="none" stroke="#9a32cd" stroke-dasharray="5,2" d="M1181.5,-957.02C1246.67,-957.02 1377.54,-957.02 1448.7,-957.02"/>
<polygon fill="#9a32cd" stroke="#9a32cd" points="1181.25,-953.52 1171.25,-957.02 1181.25,-960.52 1181.25,-953.52"/>
<text text-anchor="middle" x="1329" y="-960.02" font-family="Helvetica,sans-Serif" font-size="10.00"> tagBitFEId</text>
</g>
<!-- Node32 -->
<g id="node32" class="node">
<title>Node32</title>
<g id="a_node32"><a xlink:href="classEntityHandle.html" target="_top" xlink:title=" ">
<polygon fill="white" stroke="black" points="1101.5,-909.52 1101.5,-928.52 1181.5,-928.52 1181.5,-909.52 1101.5,-909.52"/>
<text text-anchor="middle" x="1141.5" y="-916.52" font-family="Helvetica,sans-Serif" font-size="10.00">EntityHandle</text>
</a>
</g>
</g>
<!-- Node32&#45;&gt;Node29 -->
<g id="edge40" class="edge">
<title>Node32&#45;&gt;Node29</title>
<path fill="none" stroke="#9a32cd" stroke-dasharray="5,2" d="M1191.97,-922.63C1243.31,-926.59 1325.91,-933.51 1397,-942.02 1413.9,-944.04 1432.34,-946.67 1448.76,-949.16"/>
<polygon fill="#9a32cd" stroke="#9a32cd" points="1192.05,-919.13 1181.81,-921.86 1191.52,-926.11 1192.05,-919.13"/>
<text text-anchor="middle" x="1329" y="-945.02" font-family="Helvetica,sans-Serif" font-size="10.00"> meshset</text>
</g>
<!-- Node33 -->
<g id="node33" class="node">
<title>Node33</title>
<g id="a_node33"><a xlink:title=" ">
<polygon fill="white" stroke="#bfbfbf" points="1067,-860.02 1067,-890.02 1216,-890.02 1216,-860.02 1067,-860.02"/>
<text text-anchor="start" x="1075" y="-878.02" font-family="Helvetica,sans-Serif" font-size="10.00">shared_ptr&lt; MoFEM::</text>
<text text-anchor="middle" x="1141.5" y="-867.02" font-family="Helvetica,sans-Serif" font-size="10.00">ComposedProblemsData &gt;</text>
</a>
</g>
</g>
<!-- Node33&#45;&gt;Node29 -->
<g id="edge41" class="edge">
<title>Node33&#45;&gt;Node29</title>
<path fill="none" stroke="#9a32cd" stroke-dasharray="5,2" d="M1226.43,-881.92C1276.63,-887.42 1341.28,-896.97 1397,-913.02 1427.02,-921.66 1459.82,-937.29 1479.52,-947.4"/>
<polygon fill="#9a32cd" stroke="#9a32cd" points="1226.59,-878.41 1216.27,-880.83 1225.85,-885.37 1226.59,-878.41"/>
<text text-anchor="middle" x="1329" y="-916.02" font-family="Helvetica,sans-Serif" font-size="10.00"> composedProblemsData</text>
</g>
<!-- Node34 -->
<g id="node34" class="node">
<title>Node34</title>
<g id="a_node34"><a xlink:title=" ">
<polygon fill="white" stroke="#bfbfbf" points="1101,-821.52 1101,-840.52 1182,-840.52 1182,-821.52 1101,-821.52"/>
<text text-anchor="middle" x="1141.5" y="-828.52" font-family="Helvetica,sans-Serif" font-size="10.00">BitRefLevel *</text>
</a>
</g>
</g>
<!-- Node34&#45;&gt;Node29 -->
<g id="edge42" class="edge">
<title>Node34&#45;&gt;Node29</title>
<path fill="none" stroke="#9a32cd" stroke-dasharray="5,2" d="M1192.32,-827.5C1245.57,-825.78 1331.2,-828.99 1397,-860.02 1440.43,-880.49 1476.8,-927.32 1491.05,-947.49"/>
<polygon fill="#9a32cd" stroke="#9a32cd" points="1191.97,-824.01 1182.12,-827.9 1192.25,-831 1191.97,-824.01"/>
<text text-anchor="middle" x="1329" y="-874.02" font-family="Helvetica,sans-Serif" font-size="10.00"> tagBitRefLevelMask</text>
<text text-anchor="middle" x="1329" y="-863.02" font-family="Helvetica,sans-Serif" font-size="10.00">tagBitRefLevel</text>
</g>
<!-- Node35 -->
<g id="node35" class="node">
<title>Node35</title>
<g id="a_node35"><a xlink:title=" ">
<polygon fill="white" stroke="#bfbfbf" points="1056.5,-772.02 1056.5,-802.02 1226.5,-802.02 1226.5,-772.02 1056.5,-772.02"/>
<text text-anchor="start" x="1064.5" y="-790.02" font-family="Helvetica,sans-Serif" font-size="10.00">shared_ptr&lt; NumeredDofEntity</text>
<text text-anchor="middle" x="1141.5" y="-779.02" font-family="Helvetica,sans-Serif" font-size="10.00">_multiIndex &gt;</text>
</a>
</g>
</g>
<!-- Node35&#45;&gt;Node29 -->
<g id="edge43" class="edge">
<title>Node35&#45;&gt;Node29</title>
<path fill="none" stroke="#9a32cd" stroke-dasharray="5,2" d="M1236.71,-783.86C1297.66,-783.45 1370.41,-786.54 1397,-802.02 1455.48,-836.06 1485.83,-919.28 1494.7,-947.49"/>
<polygon fill="#9a32cd" stroke="#9a32cd" points="1236.62,-780.36 1226.66,-783.95 1236.69,-787.36 1236.62,-780.36"/>
<text text-anchor="middle" x="1329" y="-816.02" font-family="Helvetica,sans-Serif" font-size="10.00"> numeredRowDofsPtr</text>
<text text-anchor="middle" x="1329" y="-805.02" font-family="Helvetica,sans-Serif" font-size="10.00">numeredColDofsPtr</text>
</g>
<!-- Node36 -->
<g id="node36" class="node">
<title>Node36</title>
<g id="a_node36"><a xlink:title=" ">
<polygon fill="white" stroke="#bfbfbf" points="1122.5,-1199.52 1122.5,-1218.52 1160.5,-1218.52 1160.5,-1199.52 1122.5,-1199.52"/>
<text text-anchor="middle" x="1141.5" y="-1206.52" font-family="Helvetica,sans-Serif" font-size="10.00">char</text>
</a>
</g>
</g>
<!-- Node36&#45;&gt;Node29 -->
<g id="edge44" class="edge">
<title>Node36&#45;&gt;Node29</title>
<path fill="none" stroke="#9a32cd" stroke-dasharray="5,2" d="M1170.55,-1209.97C1229.01,-1211.4 1361.4,-1211.63 1397,-1186.02 1473.83,-1130.74 1492.69,-1003.55 1496.59,-967"/>
<polygon fill="#9a32cd" stroke="#9a32cd" points="1170.63,-1206.47 1160.54,-1209.69 1170.44,-1213.47 1170.63,-1206.47"/>
<text text-anchor="middle" x="1329" y="-1212.02" font-family="Helvetica,sans-Serif" font-size="10.00"> tagName</text>
</g>
<!-- Node37 -->
<g id="node37" class="node">
<title>Node37</title>
<g id="a_node37"><a xlink:title=" ">
<polygon fill="white" stroke="#bfbfbf" points="1072.5,-1161.52 1072.5,-1180.52 1210.5,-1180.52 1210.5,-1161.52 1072.5,-1161.52"/>
<text text-anchor="middle" x="1141.5" y="-1168.52" font-family="Helvetica,sans-Serif" font-size="10.00">vector&lt; BlockFieldPair &gt;</text>
</a>
</g>
</g>
<!-- Node37&#45;&gt;Node29 -->
<g id="edge45" class="edge">
<title>Node37&#45;&gt;Node29</title>
<path fill="none" stroke="#9a32cd" stroke-dasharray="5,2" d="M1220.65,-1172.32C1284.62,-1171.94 1368.97,-1167.68 1397,-1149.02 1464.33,-1104.19 1489.45,-999.23 1495.77,-966.77"/>
<polygon fill="#9a32cd" stroke="#9a32cd" points="1220.56,-1168.82 1210.57,-1172.35 1220.58,-1175.82 1220.56,-1168.82"/>
<text text-anchor="middle" x="1329" y="-1174.02" font-family="Helvetica,sans-Serif" font-size="10.00"> emptyFieldBlocks</text>
</g>
<!-- Node38 -->
<g id="node38" class="node">
<title>Node38</title>
<g id="a_node38"><a xlink:title=" ">
<polygon fill="white" stroke="#bfbfbf" points="1063.5,-1112.02 1063.5,-1142.02 1219.5,-1142.02 1219.5,-1112.02 1063.5,-1112.02"/>
<text text-anchor="start" x="1071.5" y="-1130.02" font-family="Helvetica,sans-Serif" font-size="10.00">shared_ptr&lt; MoFEM::</text>
<text text-anchor="middle" x="1141.5" y="-1119.02" font-family="Helvetica,sans-Serif" font-size="10.00">Problem::SubProblemData &gt;</text>
</a>
</g>
</g>
<!-- Node38&#45;&gt;Node29 -->
<g id="edge46" class="edge">
<title>Node38&#45;&gt;Node29</title>
<path fill="none" stroke="#9a32cd" stroke-dasharray="5,2" d="M1229.97,-1137.44C1281.87,-1139.44 1347.05,-1134.3 1397,-1105.02 1453,-1072.19 1484.55,-994.32 1494.24,-966.83"/>
<polygon fill="#9a32cd" stroke="#9a32cd" points="1229.93,-1133.94 1219.78,-1136.95 1229.6,-1140.93 1229.93,-1133.94"/>
<text text-anchor="middle" x="1329" y="-1140.02" font-family="Helvetica,sans-Serif" font-size="10.00"> subProblemData</text>
</g>
<!-- Node39 -->
<g id="node39" class="node">
<title>Node39</title>
<g id="a_node39"><a xlink:title=" ">
<polygon fill="white" stroke="#bfbfbf" points="1040,-1073.52 1040,-1092.52 1243,-1092.52 1243,-1073.52 1040,-1073.52"/>
<text text-anchor="middle" x="1141.5" y="-1080.52" font-family="Helvetica,sans-Serif" font-size="10.00">shared_ptr&lt; SequenceDofContainer &gt;</text>
</a>
</g>
</g>
<!-- Node39&#45;&gt;Node29 -->
<g id="edge48" class="edge">
<title>Node39&#45;&gt;Node29</title>
<path fill="none" stroke="#9a32cd" stroke-dasharray="5,2" d="M1253.28,-1080.15C1299.44,-1075.53 1352.53,-1065.61 1397,-1045.02 1437.83,-1026.11 1474.49,-985.32 1489.85,-966.68"/>
<polygon fill="#9a32cd" stroke="#9a32cd" points="1252.87,-1076.67 1243.24,-1081.08 1253.52,-1083.64 1252.87,-1076.67"/>
<text text-anchor="middle" x="1329" y="-1093.02" font-family="Helvetica,sans-Serif" font-size="10.00"> sequenceRowDofContainer</text>
<text text-anchor="middle" x="1329" y="-1082.02" font-family="Helvetica,sans-Serif" font-size="10.00">sequenceColDofContainer</text>
</g>
<!-- Node40 -->
<g id="node40" class="node">
<title>Node40</title>
<g id="a_node40"><a xlink:title=" ">
<polygon fill="white" stroke="#bfbfbf" points="1097.5,-1035.52 1097.5,-1054.52 1185.5,-1054.52 1185.5,-1035.52 1097.5,-1035.52"/>
<text text-anchor="middle" x="1141.5" y="-1042.52" font-family="Helvetica,sans-Serif" font-size="10.00">BitProblemId *</text>
</a>
</g>
</g>
<!-- Node40&#45;&gt;Node29 -->
<g id="edge49" class="edge">
<title>Node40&#45;&gt;Node29</title>
<path fill="none" stroke="#9a32cd" stroke-dasharray="5,2" d="M1195.61,-1040.01C1247.73,-1034.18 1329.05,-1022.6 1397,-1002.02 1427.19,-992.87 1460.21,-976.82 1479.87,-966.57"/>
<polygon fill="#9a32cd" stroke="#9a32cd" points="1195.15,-1036.54 1185.59,-1041.1 1195.91,-1043.5 1195.15,-1036.54"/>
<text text-anchor="middle" x="1329" y="-1033.02" font-family="Helvetica,sans-Serif" font-size="10.00"> tagId</text>
</g>
<!-- Node41 -->
<g id="node41" class="node">
<title>Node41</title>
<g id="a_node41"><a xlink:title=" ">
<polygon fill="white" stroke="#bfbfbf" points="1799.5,-546.02 1799.5,-576.02 1961.5,-576.02 1961.5,-546.02 1799.5,-546.02"/>
<text text-anchor="start" x="1807.5" y="-564.02" font-family="Helvetica,sans-Serif" font-size="10.00">shared_ptr&lt; const MoFEM</text>
<text text-anchor="middle" x="1880.5" y="-553.02" font-family="Helvetica,sans-Serif" font-size="10.00">::NumeredEntFiniteElement &gt;</text>
</a>
</g>
</g>
<!-- Node41&#45;&gt;Node3 -->
<g id="edge50" class="edge">
<title>Node41&#45;&gt;Node3</title>
<path fill="none" stroke="#9a32cd" stroke-dasharray="5,2" d="M1971.59,-549.13C2017.69,-541.92 2074.4,-531.33 2124,-517.02 2150.33,-509.42 2179.42,-497.09 2198.28,-488.55"/>
<polygon fill="#9a32cd" stroke="#9a32cd" points="1970.97,-545.68 1961.62,-550.66 1972.04,-552.6 1970.97,-545.68"/>
<text text-anchor="middle" x="2052" y="-550.02" font-family="Helvetica,sans-Serif" font-size="10.00"> numeredEntFiniteElementPtr</text>
</g>
<!-- Node42 -->
<g id="node42" class="node">
<title>Node42</title>
<g id="a_node42"><a xlink:title=" ">
<polygon fill="white" stroke="#bfbfbf" points="1858.5,-413.52 1858.5,-432.52 1902.5,-432.52 1902.5,-413.52 1858.5,-413.52"/>
<text text-anchor="middle" x="1880.5" y="-420.52" font-family="Helvetica,sans-Serif" font-size="10.00">string</text>
</a>
</g>
</g>
<!-- Node42&#45;&gt;Node2 -->
<g id="edge61" class="edge">
<title>Node42&#45;&gt;Node2</title>
<path fill="none" stroke="#9a32cd" stroke-dasharray="5,2" d="M1913.11,-424.84C1993.73,-428.67 2213.12,-434.07 2389,-392.02 2413.85,-386.08 2440.6,-373.37 2457.43,-364.52"/>
<polygon fill="#9a32cd" stroke="#9a32cd" points="1912.83,-421.32 1902.67,-424.31 1912.48,-428.31 1912.83,-421.32"/>
<text text-anchor="middle" x="2219.5" y="-438.02" font-family="Helvetica,sans-Serif" font-size="10.00"> blocksetName</text>
<text text-anchor="middle" x="2219.5" y="-427.02" font-family="Helvetica,sans-Serif" font-size="10.00">fieldName</text>
</g>
<!-- Node42&#45;&gt;Node3 -->
<g id="edge51" class="edge">
<title>Node42&#45;&gt;Node3</title>
<path fill="none" stroke="#9a32cd" stroke-dasharray="5,2" d="M1912.76,-425.69C1959.15,-429.95 2048.83,-439.34 2124,-454.02 2144.99,-458.12 2168.21,-464.24 2186.38,-469.4"/>
<polygon fill="#9a32cd" stroke="#9a32cd" points="1913.01,-422.2 1902.73,-424.79 1912.38,-429.17 1913.01,-422.2"/>
<text text-anchor="middle" x="2052" y="-457.02" font-family="Helvetica,sans-Serif" font-size="10.00"> feName</text>
</g>
<!-- Node43 -->
<g id="node43" class="node">
<title>Node43</title>
<g id="a_node43"><a xlink:title=" ">
<polygon fill="white" stroke="#bfbfbf" points="1799,-497.02 1799,-527.02 1962,-527.02 1962,-497.02 1799,-497.02"/>
<text text-anchor="start" x="1807" y="-515.02" font-family="Helvetica,sans-Serif" font-size="10.00">function&lt; bool(MoFEM</text>
<text text-anchor="middle" x="1880.5" y="-504.02" font-family="Helvetica,sans-Serif" font-size="10.00">::FEMethod *fe_method_ptr)&gt;</text>
</a>
</g>
</g>
<!-- Node43&#45;&gt;Node3 -->
<g id="edge52" class="edge">
<title>Node43&#45;&gt;Node3</title>
<path fill="none" stroke="#9a32cd" stroke-dasharray="5,2" d="M1972.4,-503.12C2034.39,-497.05 2114.32,-489.22 2165.99,-484.16"/>
<polygon fill="#9a32cd" stroke="#9a32cd" points="1971.83,-499.66 1962.22,-504.11 1972.51,-506.62 1971.83,-499.66"/>
<text text-anchor="middle" x="2052" y="-505.02" font-family="Helvetica,sans-Serif" font-size="10.00"> exeTestHook</text>
</g>
<!-- Node44 -->
<g id="node44" class="node">
<title>Node44</title>
<g id="a_node44"><a xlink:title=" ">
<polygon fill="white" stroke="#bfbfbf" points="2168,-364.52 2168,-383.52 2271,-383.52 2271,-364.52 2168,-364.52"/>
<text text-anchor="middle" x="2219.5" y="-371.52" font-family="Helvetica,sans-Serif" font-size="10.00">vector&lt; double &gt;</text>
</a>
</g>
</g>
<!-- Node44&#45;&gt;Node2 -->
<g id="edge53" class="edge">
<title>Node44&#45;&gt;Node2</title>
<path fill="none" stroke="#9a32cd" stroke-dasharray="5,2" d="M2281.65,-369.44C2319.45,-366.62 2368.01,-362.98 2406.94,-360.07"/>
<polygon fill="#9a32cd" stroke="#9a32cd" points="2281,-365.98 2271.29,-370.22 2281.52,-372.96 2281,-365.98"/>
<text text-anchor="middle" x="2352" y="-380.02" font-family="Helvetica,sans-Serif" font-size="10.00"> dofsValues</text>
<text text-anchor="middle" x="2352" y="-369.02" font-family="Helvetica,sans-Serif" font-size="10.00">dofsXValues</text>
</g>
<!-- Node45 -->
<g id="node45" class="node">
<title>Node45</title>
<g id="a_node45"><a xlink:href="classdouble.html" target="_top" xlink:title=" ">
<polygon fill="white" stroke="black" points="2194.5,-326.52 2194.5,-345.52 2244.5,-345.52 2244.5,-326.52 2194.5,-326.52"/>
<text text-anchor="middle" x="2219.5" y="-333.52" font-family="Helvetica,sans-Serif" font-size="10.00">double</text>
</a>
</g>
</g>
<!-- Node45&#45;&gt;Node2 -->
<g id="edge54" class="edge">
<title>Node45&#45;&gt;Node2</title>
<path fill="none" stroke="#9a32cd" stroke-dasharray="5,2" d="M2254.86,-337.6C2288.94,-339.27 2342.62,-342.2 2389,-346.02 2394.8,-346.5 2400.82,-347.04 2406.85,-347.61"/>
<polygon fill="#9a32cd" stroke="#9a32cd" points="2254.68,-334.09 2244.52,-337.1 2254.34,-341.08 2254.68,-334.09"/>
<text text-anchor="middle" x="2352" y="-349.02" font-family="Helvetica,sans-Serif" font-size="10.00"> dIag</text>
</g>
<!-- Node46 -->
<g id="node46" class="node">
<title>Node46</title>
<g id="a_node46"><a xlink:title=" ">
<polygon fill="white" stroke="#bfbfbf" points="2178,-288.52 2178,-307.52 2261,-307.52 2261,-288.52 2178,-288.52"/>
<text text-anchor="middle" x="2219.5" y="-295.52" font-family="Helvetica,sans-Serif" font-size="10.00">vector&lt; int &gt;</text>
</a>
</g>
</g>
<!-- Node46&#45;&gt;Node2 -->
<g id="edge55" class="edge">
<title>Node46&#45;&gt;Node2</title>
<path fill="none" stroke="#9a32cd" stroke-dasharray="5,2" d="M2271.16,-303.74C2304.87,-308.13 2349.96,-315.13 2389,-325.02 2410.35,-330.43 2433.92,-338.89 2450.89,-345.45"/>
<polygon fill="#9a32cd" stroke="#9a32cd" points="2271.45,-300.24 2261.09,-302.46 2270.57,-307.19 2271.45,-300.24"/>
<text text-anchor="middle" x="2352" y="-328.02" font-family="Helvetica,sans-Serif" font-size="10.00"> dofsIndices</text>
</g>
<!-- Node47 -->
<g id="node47" class="node">
<title>Node47</title>
<g id="a_node47"><a xlink:href="structMoFEM_1_1DeprecatedCoreInterface.html" target="_top" xlink:title="Deprecated interface functions.">
<polygon fill="white" stroke="black" points="1600,-1300.52 1600,-1319.52 1781,-1319.52 1781,-1300.52 1600,-1300.52"/>
<text text-anchor="middle" x="1690.5" y="-1307.52" font-family="Helvetica,sans-Serif" font-size="10.00">MoFEM::DeprecatedCoreInterface</text>
</a>
</g>
</g>
<!-- Node47&#45;&gt;Node2 -->
<g id="edge56" class="edge">
<title>Node47&#45;&gt;Node2</title>
<path fill="none" stroke="#9a32cd" stroke-dasharray="5,2" d="M1781.21,-1295.14C2197.25,-1037.3 2438.69,-446.89 2470.82,-364.6"/>
<polygon fill="#9a32cd" stroke="#9a32cd" points="1779.29,-1292.21 1772.59,-1300.42 1782.95,-1298.18 1779.29,-1292.21"/>
<text text-anchor="middle" x="2052" y="-1139.02" font-family="Helvetica,sans-Serif" font-size="10.00"> mField</text>
</g>
<!-- Node48&#45;&gt;Node47 -->
<g id="edge57" class="edge">
<title>Node48&#45;&gt;Node47</title>
<path fill="none" stroke="midnightblue" d="M1214.32,-1255.29C1315.56,-1266.95 1499.81,-1288.17 1606.69,-1300.48"/>
<polygon fill="midnightblue" stroke="midnightblue" points="1214.52,-1251.79 1204.18,-1254.12 1213.72,-1258.74 1214.52,-1251.79"/>
</g>
<!-- Node49 -->
<g id="node49" class="node">
<title>Node49</title>
<g id="a_node49"><a xlink:title=" ">
<polygon fill="white" stroke="#bfbfbf" points="2142,-239.02 2142,-269.02 2297,-269.02 2297,-239.02 2142,-239.02"/>
<text text-anchor="start" x="2150" y="-257.02" font-family="Helvetica,sans-Serif" font-size="10.00">ptr_vector&lt; MethodForForce</text>
<text text-anchor="middle" x="2219.5" y="-246.02" font-family="Helvetica,sans-Serif" font-size="10.00">Scaling &gt;</text>
</a>
</g>
</g>
<!-- Node49&#45;&gt;Node2 -->
<g id="edge59" class="edge">
<title>Node49&#45;&gt;Node2</title>
<path fill="none" stroke="#9a32cd" stroke-dasharray="5,2" d="M2306.98,-268.56C2333.96,-274.8 2363.35,-283.4 2389,-295.02 2418.4,-308.34 2448.25,-332.14 2463.71,-345.41"/>
<polygon fill="#9a32cd" stroke="#9a32cd" points="2307.68,-265.13 2297.16,-266.37 2306.15,-271.97 2307.68,-265.13"/>
<text text-anchor="middle" x="2352" y="-298.02" font-family="Helvetica,sans-Serif" font-size="10.00"> methodsOp</text>
</g>
<!-- Node50 -->
<g id="node50" class="node">
<title>Node50</title>
<g id="a_node50"><a xlink:title=" ">
<polygon fill="white" stroke="#bfbfbf" points="2146.5,-200.52 2146.5,-219.52 2292.5,-219.52 2292.5,-200.52 2146.5,-200.52"/>
<text text-anchor="middle" x="2219.5" y="-207.52" font-family="Helvetica,sans-Serif" font-size="10.00">map&lt; DofIdx, FieldData &gt;</text>
</a>
</g>
</g>
<!-- Node50&#45;&gt;Node2 -->
<g id="edge60" class="edge">
<title>Node50&#45;&gt;Node2</title>
<path fill="none" stroke="#9a32cd" stroke-dasharray="5,2" d="M2302.91,-221.61C2331.71,-228.28 2363.25,-238.72 2389,-255.02 2427.02,-279.09 2457.16,-325.33 2469.03,-345.37"/>
<polygon fill="#9a32cd" stroke="#9a32cd" points="2303.37,-218.13 2292.85,-219.41 2301.87,-224.97 2303.37,-218.13"/>
<text text-anchor="middle" x="2352" y="-258.02" font-family="Helvetica,sans-Serif" font-size="10.00"> mapZeroRows</text>
</g>
</g>
</svg>
