<?xml version="1.0" encoding="UTF-8" standalone="no"?>
<!DOCTYPE svg PUBLIC "-//W3C//DTD SVG 1.1//EN"
 "http://www.w3.org/Graphics/SVG/1.1/DTD/svg11.dtd">
<!-- Generated by graphviz version 2.43.0 (0)
 -->
<!-- Title: QuadFE Pages: 1 -->
<svg width="3130pt" height="1520pt"
 viewBox="0.00 0.00 3130.00 1520.00" xmlns="http://www.w3.org/2000/svg" xmlns:xlink="http://www.w3.org/1999/xlink">
<g id="graph0" class="graph" transform="scale(1 1) rotate(0) translate(4 1516)">
<title>QuadFE</title>
<polygon fill="white" stroke="transparent" points="-4,4 -4,-1516 3126,-1516 3126,4 -4,4"/>
<!-- Node1 -->
<g id="node1" class="node">
<title>Node1</title>
<g id="a_node1"><a xlink:title=" ">
<polygon fill="#bfbfbf" stroke="black" points="3068,-38.5 3068,-57.5 3122,-57.5 3122,-38.5 3068,-38.5"/>
<text text-anchor="middle" x="3095" y="-45.5" font-family="Helvetica,sans-Serif" font-size="10.00">QuadFE</text>
</a>
</g>
</g>
<!-- Node2 -->
<g id="node2" class="node">
<title>Node2</title>
<g id="a_node2"><a xlink:href="structMoFEM_1_1FaceElementForcesAndSourcesCore.html" target="_top" xlink:title="Face finite element.">
<polygon fill="white" stroke="black" points="2820,-566 2820,-596 2972,-596 2972,-566 2820,-566"/>
<text text-anchor="start" x="2828" y="-584" font-family="Helvetica,sans-Serif" font-size="10.00">MoFEM::FaceElementForces</text>
<text text-anchor="middle" x="2896" y="-573" font-family="Helvetica,sans-Serif" font-size="10.00">AndSourcesCore</text>
</a>
</g>
</g>
<!-- Node2&#45;&gt;Node1 -->
<g id="edge1" class="edge">
<title>Node2&#45;&gt;Node1</title>
<path fill="none" stroke="midnightblue" d="M2906.14,-556.26C2941.34,-461.03 3067.26,-120.35 3090.35,-57.88"/>
<polygon fill="midnightblue" stroke="midnightblue" points="2902.76,-555.31 2902.58,-565.91 2909.33,-557.74 2902.76,-555.31"/>
</g>
<!-- Node3 -->
<g id="node3" class="node">
<title>Node3</title>
<g id="a_node3"><a xlink:href="structMoFEM_1_1ForcesAndSourcesCore.html" target="_top" xlink:title="structure to get information form mofem into EntitiesFieldData">
<polygon fill="white" stroke="black" points="2553,-825.5 2553,-844.5 2723,-844.5 2723,-825.5 2553,-825.5"/>
<text text-anchor="middle" x="2638" y="-832.5" font-family="Helvetica,sans-Serif" font-size="10.00">MoFEM::ForcesAndSourcesCore</text>
</a>
</g>
</g>
<!-- Node3&#45;&gt;Node2 -->
<g id="edge2" class="edge">
<title>Node3&#45;&gt;Node2</title>
<path fill="none" stroke="midnightblue" d="M2656.55,-818.13C2686.56,-789.24 2749.57,-728.33 2802,-676 2829.93,-648.12 2862.04,-615.1 2880.29,-596.24"/>
<polygon fill="midnightblue" stroke="midnightblue" points="2653.78,-815.94 2649,-825.4 2658.63,-820.99 2653.78,-815.94"/>
</g>
<!-- Node3&#45;&gt;Node3 -->
<g id="edge60" class="edge">
<title>Node3&#45;&gt;Node3</title>
<path fill="none" stroke="#9a32cd" stroke-dasharray="5,2" d="M2613.45,-854.03C2614.79,-859.13 2622.97,-863 2638,-863 2661.46,-863 2668.24,-853.57 2658.35,-844.76"/>
<polygon fill="#9a32cd" stroke="#9a32cd" points="2616.71,-855.31 2617.65,-844.76 2610.33,-852.42 2616.71,-855.31"/>
<text text-anchor="middle" x="2638" y="-877" font-family="Helvetica,sans-Serif" font-size="10.00"> sidePtrFE</text>
<text text-anchor="middle" x="2638" y="-866" font-family="Helvetica,sans-Serif" font-size="10.00">refinePtrFE</text>
</g>
<!-- Node4 -->
<g id="node4" class="node">
<title>Node4</title>
<g id="a_node4"><a xlink:href="structMoFEM_1_1FEMethod.html" target="_top" xlink:title="structure for User Loop Methods on finite elements">
<polygon fill="white" stroke="black" points="2200.5,-803.5 2200.5,-822.5 2307.5,-822.5 2307.5,-803.5 2200.5,-803.5"/>
<text text-anchor="middle" x="2254" y="-810.5" font-family="Helvetica,sans-Serif" font-size="10.00">MoFEM::FEMethod</text>
</a>
</g>
</g>
<!-- Node4&#45;&gt;Node3 -->
<g id="edge3" class="edge">
<title>Node4&#45;&gt;Node3</title>
<path fill="none" stroke="midnightblue" d="M2318.09,-816.63C2382.27,-820.33 2482.09,-826.08 2552.94,-830.16"/>
<polygon fill="midnightblue" stroke="midnightblue" points="2317.9,-813.12 2307.71,-816.04 2317.5,-820.11 2317.9,-813.12"/>
</g>
<!-- Node5 -->
<g id="node5" class="node">
<title>Node5</title>
<g id="a_node5"><a xlink:href="structMoFEM_1_1BasicMethod.html" target="_top" xlink:title="Data structure to exchange data between mofem and User Loop Methods.">
<polygon fill="white" stroke="black" points="1825,-811.5 1825,-830.5 1947,-830.5 1947,-811.5 1825,-811.5"/>
<text text-anchor="middle" x="1886" y="-818.5" font-family="Helvetica,sans-Serif" font-size="10.00">MoFEM::BasicMethod</text>
</a>
</g>
</g>
<!-- Node5&#45;&gt;Node4 -->
<g id="edge4" class="edge">
<title>Node5&#45;&gt;Node4</title>
<path fill="none" stroke="midnightblue" d="M1957.23,-819.46C2028.25,-817.91 2136.4,-815.55 2200.37,-814.15"/>
<polygon fill="midnightblue" stroke="midnightblue" points="1956.95,-815.97 1947.03,-819.69 1957.1,-822.97 1956.95,-815.97"/>
</g>
<!-- Node6 -->
<g id="node6" class="node">
<title>Node6</title>
<g id="a_node6"><a xlink:href="structMoFEM_1_1KspMethod.html" target="_top" xlink:title="data structure for ksp (linear solver) context">
<polygon fill="white" stroke="black" points="1442,-1207.5 1442,-1226.5 1555,-1226.5 1555,-1207.5 1442,-1207.5"/>
<text text-anchor="middle" x="1498.5" y="-1214.5" font-family="Helvetica,sans-Serif" font-size="10.00">MoFEM::KspMethod</text>
</a>
</g>
</g>
<!-- Node6&#45;&gt;Node5 -->
<g id="edge5" class="edge">
<title>Node6&#45;&gt;Node5</title>
<path fill="none" stroke="midnightblue" d="M1523.41,-1201.87C1578.95,-1165.31 1716.84,-1066.18 1781,-945 1802.95,-903.54 1766.79,-875.1 1799,-841 1805.95,-833.64 1815.03,-828.75 1824.68,-825.54"/>
<polygon fill="midnightblue" stroke="midnightblue" points="1521.4,-1199 1514.92,-1207.38 1525.22,-1204.87 1521.4,-1199"/>
</g>
<!-- Node7 -->
<g id="node7" class="node">
<title>Node7</title>
<g id="a_node7"><a xlink:href="structMoFEM_1_1PetscData.html" target="_top" xlink:title=" ">
<polygon fill="white" stroke="black" points="1087.5,-1366.5 1087.5,-1385.5 1195.5,-1385.5 1195.5,-1366.5 1087.5,-1366.5"/>
<text text-anchor="middle" x="1141.5" y="-1373.5" font-family="Helvetica,sans-Serif" font-size="10.00">MoFEM::PetscData</text>
</a>
</g>
</g>
<!-- Node7&#45;&gt;Node6 -->
<g id="edge6" class="edge">
<title>Node7&#45;&gt;Node6</title>
<path fill="none" stroke="midnightblue" d="M1178.19,-1388.76C1230.12,-1404.98 1327.86,-1426.45 1397,-1387 1460.43,-1350.81 1487.88,-1257.16 1495.32,-1226.71"/>
<polygon fill="midnightblue" stroke="midnightblue" points="1179.03,-1385.36 1168.44,-1385.61 1176.87,-1392.02 1179.03,-1385.36"/>
</g>
<!-- Node17 -->
<g id="node17" class="node">
<title>Node17</title>
<g id="a_node17"><a xlink:href="structMoFEM_1_1SnesMethod.html" target="_top" xlink:title="data structure for snes (nonlinear solver) context">
<polygon fill="white" stroke="black" points="1439,-1012.5 1439,-1031.5 1558,-1031.5 1558,-1012.5 1439,-1012.5"/>
<text text-anchor="middle" x="1498.5" y="-1019.5" font-family="Helvetica,sans-Serif" font-size="10.00">MoFEM::SnesMethod</text>
</a>
</g>
</g>
<!-- Node7&#45;&gt;Node17 -->
<g id="edge19" class="edge">
<title>Node7&#45;&gt;Node17</title>
<path fill="none" stroke="darkgreen" d="M1205.87,-1381.45C1272.24,-1385.66 1370.47,-1387.13 1397,-1362 1423.62,-1336.79 1405.09,-1233.3 1415,-1198 1433.8,-1131.07 1475.76,-1057.89 1491.44,-1031.86"/>
<polygon fill="darkgreen" stroke="darkgreen" points="1205.72,-1377.94 1195.5,-1380.76 1205.25,-1384.92 1205.72,-1377.94"/>
</g>
<!-- Node20 -->
<g id="node20" class="node">
<title>Node20</title>
<g id="a_node20"><a xlink:href="structMoFEM_1_1TSMethod.html" target="_top" xlink:title="data structure for TS (time stepping) context">
<polygon fill="white" stroke="black" points="1445,-868.5 1445,-887.5 1552,-887.5 1552,-868.5 1445,-868.5"/>
<text text-anchor="middle" x="1498.5" y="-875.5" font-family="Helvetica,sans-Serif" font-size="10.00">MoFEM::TSMethod</text>
</a>
</g>
</g>
<!-- Node7&#45;&gt;Node20 -->
<g id="edge25" class="edge">
<title>Node7&#45;&gt;Node20</title>
<path fill="none" stroke="darkgreen" d="M1205.78,-1370.45C1276.94,-1363.57 1384.29,-1351.03 1397,-1337 1421.96,-1309.46 1403.36,-1038.29 1415,-1003 1430.88,-954.85 1470.44,-907.53 1488.39,-887.71"/>
<polygon fill="darkgreen" stroke="darkgreen" points="1205.18,-1366.99 1195.56,-1371.42 1205.85,-1373.96 1205.18,-1366.99"/>
</g>
<!-- Node8 -->
<g id="node8" class="node">
<title>Node8</title>
<g id="a_node8"><a xlink:href="structMoFEM_1_1UnknownInterface.html" target="_top" xlink:title="base class for all interface classes">
<polygon fill="white" stroke="black" points="735,-1486.5 735,-1505.5 883,-1505.5 883,-1486.5 735,-1486.5"/>
<text text-anchor="middle" x="809" y="-1493.5" font-family="Helvetica,sans-Serif" font-size="10.00">MoFEM::UnknownInterface</text>
</a>
</g>
</g>
<!-- Node8&#45;&gt;Node7 -->
<g id="edge7" class="edge">
<title>Node8&#45;&gt;Node7</title>
<path fill="none" stroke="midnightblue" d="M893.41,-1502.33C933.68,-1502.37 981.86,-1497.87 1022,-1481 1072.68,-1459.7 1116.5,-1407.59 1133.25,-1385.82"/>
<polygon fill="midnightblue" stroke="midnightblue" points="893.38,-1498.83 883.34,-1502.22 893.31,-1505.83 893.38,-1498.83"/>
</g>
<!-- Node49 -->
<g id="node49" class="node">
<title>Node49</title>
<g id="a_node49"><a xlink:href="structMoFEM_1_1CoreInterface.html" target="_top" xlink:title="Interface.">
<polygon fill="white" stroke="black" points="1079,-1492.5 1079,-1511.5 1204,-1511.5 1204,-1492.5 1079,-1492.5"/>
<text text-anchor="middle" x="1141.5" y="-1499.5" font-family="Helvetica,sans-Serif" font-size="10.00">MoFEM::CoreInterface</text>
</a>
</g>
</g>
<!-- Node8&#45;&gt;Node49 -->
<g id="edge59" class="edge">
<title>Node8&#45;&gt;Node49</title>
<path fill="none" stroke="midnightblue" d="M892.16,-1506.39C895.14,-1506.62 898.1,-1506.83 901,-1507 961.4,-1510.64 1030.51,-1508.52 1078.92,-1506.02"/>
<polygon fill="midnightblue" stroke="midnightblue" points="892.22,-1502.88 881.95,-1505.51 891.62,-1509.85 892.22,-1502.88"/>
</g>
<!-- Node9 -->
<g id="node9" class="node">
<title>Node9</title>
<g id="a_node9"><a xlink:title=" ">
<polygon fill="white" stroke="#bfbfbf" points="386,-809.5 386,-872.5 627,-872.5 627,-809.5 386,-809.5"/>
<text text-anchor="start" x="394" y="-860.5" font-family="Helvetica,sans-Serif" font-size="10.00">multi_index_container</text>
<text text-anchor="start" x="394" y="-849.5" font-family="Helvetica,sans-Serif" font-size="10.00">&lt; UIdTypeMap, indexed</text>
<text text-anchor="start" x="394" y="-838.5" font-family="Helvetica,sans-Serif" font-size="10.00">_by&lt; hashed_unique&lt; member</text>
<text text-anchor="start" x="394" y="-827.5" font-family="Helvetica,sans-Serif" font-size="10.00">&lt; UIdTypeMap, boost::typeindex</text>
<text text-anchor="middle" x="506.5" y="-816.5" font-family="Helvetica,sans-Serif" font-size="10.00">::type_index, &amp;UIdTypeMap::classIdx &gt; &gt; &gt; &gt;</text>
</a>
</g>
</g>
<!-- Node9&#45;&gt;Node8 -->
<g id="edge8" class="edge">
<title>Node9&#45;&gt;Node8</title>
<path fill="none" stroke="#9a32cd" stroke-dasharray="5,2" d="M518.5,-882.37C545.58,-979.96 621.58,-1230.11 735,-1414 753.01,-1443.2 781.78,-1471.88 797.28,-1486.33"/>
<polygon fill="#9a32cd" stroke="#9a32cd" points="521.84,-881.31 515.81,-872.6 515.09,-883.17 521.84,-881.31"/>
<text text-anchor="middle" x="681" y="-1373" font-family="Helvetica,sans-Serif" font-size="10.00"> iFaceTypeMap</text>
</g>
<!-- Node10 -->
<g id="node10" class="node">
<title>Node10</title>
<g id="a_node10"><a xlink:title=" ">
<polygon fill="white" stroke="#bfbfbf" points="0,-150.5 0,-169.5 125,-169.5 125,-150.5 0,-150.5"/>
<text text-anchor="middle" x="62.5" y="-157.5" font-family="Helvetica,sans-Serif" font-size="10.00">multi_index_container</text>
</a>
</g>
</g>
<!-- Node10&#45;&gt;Node5 -->
<g id="edge32" class="edge">
<title>Node10&#45;&gt;Node5</title>
<path fill="none" stroke="#9a32cd" stroke-dasharray="5,2" d="M135.41,-155.8C222.85,-151.06 374.95,-144 505.5,-144 505.5,-144 505.5,-144 962.5,-144 1347.12,-144 1592.68,-89.64 1781,-425 1801.53,-461.57 1771.97,-769.94 1799,-802 1805.7,-809.95 1814.91,-815.02 1824.82,-818.17"/>
<polygon fill="#9a32cd" stroke="#9a32cd" points="135.12,-152.31 125.33,-156.35 135.51,-159.3 135.12,-152.31"/>
<text text-anchor="middle" x="961.5" y="-224" font-family="Helvetica,sans-Serif" font-size="10.00"> adjacenciesPtr</text>
<text text-anchor="middle" x="961.5" y="-213" font-family="Helvetica,sans-Serif" font-size="10.00">refinedEntitiesPtr</text>
<text text-anchor="middle" x="961.5" y="-202" font-family="Helvetica,sans-Serif" font-size="10.00">finiteElementsEntitiesPtr</text>
<text text-anchor="middle" x="961.5" y="-191" font-family="Helvetica,sans-Serif" font-size="10.00">dofsPtr</text>
<text text-anchor="middle" x="961.5" y="-180" font-family="Helvetica,sans-Serif" font-size="10.00">entitiesPtr</text>
<text text-anchor="middle" x="961.5" y="-169" font-family="Helvetica,sans-Serif" font-size="10.00">finiteElementsPtr</text>
<text text-anchor="middle" x="961.5" y="-158" font-family="Helvetica,sans-Serif" font-size="10.00">refinedFiniteElementsPtr</text>
<text text-anchor="middle" x="961.5" y="-147" font-family="Helvetica,sans-Serif" font-size="10.00">fieldsPtr</text>
</g>
<!-- Node10&#45;&gt;Node9 -->
<g id="edge9" class="edge">
<title>Node10&#45;&gt;Node9</title>
<path fill="none" stroke="orange" stroke-dasharray="5,2" d="M75.31,-178.2C135.4,-270.78 407.29,-689.69 484.81,-809.12"/>
<polygon fill="orange" stroke="orange" points="78.13,-176.11 69.75,-169.63 72.26,-179.92 78.13,-176.11"/>
<text text-anchor="start" x="143" y="-656" font-family="Helvetica,sans-Serif" font-size="10.00"> &lt; UIdTypeMap, indexed</text>
<text text-anchor="start" x="143" y="-645" font-family="Helvetica,sans-Serif" font-size="10.00">_by&lt; hashed_unique&lt; member</text>
<text text-anchor="start" x="143" y="-634" font-family="Helvetica,sans-Serif" font-size="10.00">&lt; UIdTypeMap, boost::typeindex</text>
<text text-anchor="middle" x="255.5" y="-623" font-family="Helvetica,sans-Serif" font-size="10.00">::type_index, &amp;UIdTypeMap::classIdx &gt; &gt; &gt; &gt;</text>
</g>
<!-- Node11 -->
<g id="node11" class="node">
<title>Node11</title>
<g id="a_node11"><a xlink:title=" ">
<polygon fill="white" stroke="#bfbfbf" points="738.5,-1385.5 738.5,-1404.5 879.5,-1404.5 879.5,-1385.5 738.5,-1385.5"/>
<text text-anchor="middle" x="809" y="-1392.5" font-family="Helvetica,sans-Serif" font-size="10.00">static constexpr Switches</text>
</a>
</g>
</g>
<!-- Node11&#45;&gt;Node7 -->
<g id="edge10" class="edge">
<title>Node11&#45;&gt;Node7</title>
<path fill="none" stroke="#9a32cd" stroke-dasharray="5,2" d="M889.72,-1390.42C951.05,-1386.89 1034.07,-1382.12 1087.47,-1379.05"/>
<polygon fill="#9a32cd" stroke="#9a32cd" points="889.47,-1386.93 879.69,-1390.99 889.87,-1393.91 889.47,-1386.93"/>
<text text-anchor="middle" x="961.5" y="-1469" font-family="Helvetica,sans-Serif" font-size="10.00"> CtxSetX_TT</text>
<text text-anchor="middle" x="961.5" y="-1458" font-family="Helvetica,sans-Serif" font-size="10.00">CtxSetX_T</text>
<text text-anchor="middle" x="961.5" y="-1447" font-family="Helvetica,sans-Serif" font-size="10.00">CtxSetA</text>
<text text-anchor="middle" x="961.5" y="-1436" font-family="Helvetica,sans-Serif" font-size="10.00">CtxSetB</text>
<text text-anchor="middle" x="961.5" y="-1425" font-family="Helvetica,sans-Serif" font-size="10.00">CtxSetTime</text>
<text text-anchor="middle" x="961.5" y="-1414" font-family="Helvetica,sans-Serif" font-size="10.00">CtxSetNone</text>
<text text-anchor="middle" x="961.5" y="-1403" font-family="Helvetica,sans-Serif" font-size="10.00">CtxSetF</text>
<text text-anchor="middle" x="961.5" y="-1392" font-family="Helvetica,sans-Serif" font-size="10.00">CtxSetX</text>
</g>
<!-- Node12 -->
<g id="node12" class="node">
<title>Node12</title>
<g id="a_node12"><a xlink:title=" ">
<polygon fill="white" stroke="#bfbfbf" points="791.5,-1218.5 791.5,-1237.5 826.5,-1237.5 826.5,-1218.5 791.5,-1218.5"/>
<text text-anchor="middle" x="809" y="-1225.5" font-family="Helvetica,sans-Serif" font-size="10.00">Mat</text>
</a>
</g>
</g>
<!-- Node12&#45;&gt;Node6 -->
<g id="edge16" class="edge">
<title>Node12&#45;&gt;Node6</title>
<path fill="none" stroke="#9a32cd" stroke-dasharray="5,2" d="M836.83,-1223.82C879.66,-1217.38 966.16,-1205.32 1040,-1201 1184.8,-1192.53 1355.65,-1204.27 1441.82,-1211.71"/>
<polygon fill="#9a32cd" stroke="#9a32cd" points="836.04,-1220.4 826.68,-1225.36 837.09,-1227.32 836.04,-1220.4"/>
<text text-anchor="middle" x="1141.5" y="-1215" font-family="Helvetica,sans-Serif" font-size="10.00"> ksp_A</text>
<text text-anchor="middle" x="1141.5" y="-1204" font-family="Helvetica,sans-Serif" font-size="10.00">ksp_B</text>
</g>
<!-- Node12&#45;&gt;Node7 -->
<g id="edge11" class="edge">
<title>Node12&#45;&gt;Node7</title>
<path fill="none" stroke="#9a32cd" stroke-dasharray="5,2" d="M829.3,-1243.92C847.08,-1258 874.61,-1278.35 901,-1292 951.7,-1318.21 973.32,-1305.21 1022,-1335 1031.39,-1340.74 1030.32,-1346.77 1040,-1352 1054.52,-1359.85 1071.58,-1365.16 1087.48,-1368.73"/>
<polygon fill="#9a32cd" stroke="#9a32cd" points="831.4,-1241.12 821.41,-1237.58 827.01,-1246.57 831.4,-1241.12"/>
<text text-anchor="middle" x="961.5" y="-1349" font-family="Helvetica,sans-Serif" font-size="10.00"> A</text>
<text text-anchor="middle" x="961.5" y="-1338" font-family="Helvetica,sans-Serif" font-size="10.00">B</text>
</g>
<!-- Node12&#45;&gt;Node17 -->
<g id="edge21" class="edge">
<title>Node12&#45;&gt;Node17</title>
<path fill="none" stroke="#9a32cd" stroke-dasharray="5,2" d="M836.29,-1218.99C854.41,-1212.86 879.08,-1204.68 901,-1198 1052.01,-1151.94 1091.68,-1147.01 1243,-1102 1324.91,-1077.64 1420.94,-1046.84 1468.2,-1031.53"/>
<polygon fill="#9a32cd" stroke="#9a32cd" points="835.04,-1215.71 826.7,-1222.25 837.29,-1222.34 835.04,-1215.71"/>
<text text-anchor="middle" x="1141.5" y="-1171" font-family="Helvetica,sans-Serif" font-size="10.00"> snes_A</text>
<text text-anchor="middle" x="1141.5" y="-1160" font-family="Helvetica,sans-Serif" font-size="10.00">snes_B</text>
</g>
<!-- Node12&#45;&gt;Node20 -->
<g id="edge26" class="edge">
<title>Node12&#45;&gt;Node20</title>
<path fill="none" stroke="#9a32cd" stroke-dasharray="5,2" d="M836.38,-1236.63C892.33,-1254.87 1019.48,-1295.9 1040,-1299 1118.52,-1310.84 1341.96,-1340.25 1397,-1283 1418.61,-1260.53 1405.08,-1032.56 1415,-1003 1431.13,-954.93 1470.56,-907.57 1488.43,-887.72"/>
<polygon fill="#9a32cd" stroke="#9a32cd" points="837.39,-1233.28 826.8,-1233.51 835.22,-1239.94 837.39,-1233.28"/>
<text text-anchor="middle" x="1141.5" y="-1331" font-family="Helvetica,sans-Serif" font-size="10.00"> ts_A</text>
<text text-anchor="middle" x="1141.5" y="-1320" font-family="Helvetica,sans-Serif" font-size="10.00">ts_B</text>
</g>
<!-- Node13 -->
<g id="node13" class="node">
<title>Node13</title>
<g id="a_node13"><a xlink:title=" ">
<polygon fill="white" stroke="#bfbfbf" points="772.5,-1347.5 772.5,-1366.5 845.5,-1366.5 845.5,-1347.5 772.5,-1347.5"/>
<text text-anchor="middle" x="809" y="-1354.5" font-family="Helvetica,sans-Serif" font-size="10.00">bitset&lt; 8 &gt;</text>
</a>
</g>
</g>
<!-- Node13&#45;&gt;Node7 -->
<g id="edge12" class="edge">
<title>Node13&#45;&gt;Node7</title>
<path fill="none" stroke="#9a32cd" stroke-dasharray="5,2" d="M855.78,-1359.17C898.72,-1361.25 964.73,-1364.58 1022,-1368 1043.41,-1369.28 1066.98,-1370.84 1087.42,-1372.24"/>
<polygon fill="#9a32cd" stroke="#9a32cd" points="855.8,-1355.67 845.64,-1358.68 855.46,-1362.66 855.8,-1355.67"/>
<text text-anchor="middle" x="961.5" y="-1371" font-family="Helvetica,sans-Serif" font-size="10.00"> data_ctx</text>
</g>
<!-- Node14 -->
<g id="node14" class="node">
<title>Node14</title>
<g id="a_node14"><a xlink:title=" ">
<polygon fill="white" stroke="#bfbfbf" points="792,-985.5 792,-1004.5 826,-1004.5 826,-985.5 792,-985.5"/>
<text text-anchor="middle" x="809" y="-992.5" font-family="Helvetica,sans-Serif" font-size="10.00">Vec</text>
</a>
</g>
</g>
<!-- Node14&#45;&gt;Node6 -->
<g id="edge17" class="edge">
<title>Node14&#45;&gt;Node6</title>
<path fill="none" stroke="#9a32cd" stroke-dasharray="5,2" d="M835.76,-1003.59C877.97,-1017.37 964.73,-1044.44 1040,-1060 1129.13,-1078.42 1156.11,-1059.91 1243,-1087 1340.34,-1117.35 1445.4,-1182.74 1483.06,-1207.36"/>
<polygon fill="#9a32cd" stroke="#9a32cd" points="836.85,-1000.26 826.26,-1000.47 834.66,-1006.91 836.85,-1000.26"/>
<text text-anchor="middle" x="1141.5" y="-1090" font-family="Helvetica,sans-Serif" font-size="10.00"> ksp_f</text>
</g>
<!-- Node14&#45;&gt;Node7 -->
<g id="edge13" class="edge">
<title>Node14&#45;&gt;Node7</title>
<path fill="none" stroke="#9a32cd" stroke-dasharray="5,2" d="M829.62,-1011.18C872.46,-1047.71 974.31,-1141.44 1022,-1244 1042.52,-1288.13 1006.8,-1316.42 1040,-1352 1052.18,-1365.05 1070.07,-1371.58 1087.4,-1374.69"/>
<polygon fill="#9a32cd" stroke="#9a32cd" points="831.78,-1008.42 821.88,-1004.65 827.27,-1013.77 831.78,-1008.42"/>
<text text-anchor="middle" x="961.5" y="-1280" font-family="Helvetica,sans-Serif" font-size="10.00"> f</text>
<text text-anchor="middle" x="961.5" y="-1269" font-family="Helvetica,sans-Serif" font-size="10.00">x</text>
<text text-anchor="middle" x="961.5" y="-1258" font-family="Helvetica,sans-Serif" font-size="10.00">x_t</text>
<text text-anchor="middle" x="961.5" y="-1247" font-family="Helvetica,sans-Serif" font-size="10.00">x_tt</text>
</g>
<!-- Node14&#45;&gt;Node17 -->
<g id="edge22" class="edge">
<title>Node14&#45;&gt;Node17</title>
<path fill="none" stroke="#9a32cd" stroke-dasharray="5,2" d="M825,-977.86C841.72,-959.88 870.45,-932.16 901,-917 1037.68,-849.18 1094.93,-850.16 1243,-887 1344.2,-912.18 1449.37,-985.89 1484.92,-1012.38"/>
<polygon fill="#9a32cd" stroke="#9a32cd" points="822.32,-975.6 818.2,-985.36 827.51,-980.3 822.32,-975.6"/>
<text text-anchor="middle" x="1141.5" y="-901" font-family="Helvetica,sans-Serif" font-size="10.00"> snes_x</text>
<text text-anchor="middle" x="1141.5" y="-890" font-family="Helvetica,sans-Serif" font-size="10.00">snes_f</text>
</g>
<!-- Node14&#45;&gt;Node20 -->
<g id="edge30" class="edge">
<title>Node14&#45;&gt;Node20</title>
<path fill="none" stroke="#9a32cd" stroke-dasharray="5,2" d="M835.83,-987.93C878.19,-976.53 965.22,-953.97 1040,-940 1116.72,-925.67 1341.48,-897.26 1444.64,-884.49"/>
<polygon fill="#9a32cd" stroke="#9a32cd" points="834.79,-984.58 826.05,-990.57 836.62,-991.34 834.79,-984.58"/>
<text text-anchor="middle" x="1141.5" y="-976" font-family="Helvetica,sans-Serif" font-size="10.00"> ts_u</text>
<text text-anchor="middle" x="1141.5" y="-965" font-family="Helvetica,sans-Serif" font-size="10.00">ts_F</text>
<text text-anchor="middle" x="1141.5" y="-954" font-family="Helvetica,sans-Serif" font-size="10.00">ts_u_t</text>
<text text-anchor="middle" x="1141.5" y="-943" font-family="Helvetica,sans-Serif" font-size="10.00">ts_u_tt</text>
</g>
<!-- Node15 -->
<g id="node15" class="node">
<title>Node15</title>
<g id="a_node15"><a xlink:title=" ">
<polygon fill="white" stroke="#bfbfbf" points="1124,-1270.5 1124,-1289.5 1159,-1289.5 1159,-1270.5 1124,-1270.5"/>
<text text-anchor="middle" x="1141.5" y="-1277.5" font-family="Helvetica,sans-Serif" font-size="10.00">KSP</text>
</a>
</g>
</g>
<!-- Node15&#45;&gt;Node6 -->
<g id="edge14" class="edge">
<title>Node15&#45;&gt;Node6</title>
<path fill="none" stroke="#9a32cd" stroke-dasharray="5,2" d="M1169.21,-1278.18C1215.85,-1274.66 1314.98,-1265.66 1397,-1248 1422.53,-1242.5 1450.89,-1233.47 1470.96,-1226.57"/>
<polygon fill="#9a32cd" stroke="#9a32cd" points="1168.76,-1274.7 1159.04,-1278.92 1169.27,-1281.68 1168.76,-1274.7"/>
<text text-anchor="middle" x="1329" y="-1271" font-family="Helvetica,sans-Serif" font-size="10.00"> ksp</text>
</g>
<!-- Node16 -->
<g id="node16" class="node">
<title>Node16</title>
<g id="a_node16"><a xlink:title=" ">
<polygon fill="white" stroke="#bfbfbf" points="1104.5,-1232.5 1104.5,-1251.5 1178.5,-1251.5 1178.5,-1232.5 1104.5,-1232.5"/>
<text text-anchor="middle" x="1141.5" y="-1239.5" font-family="Helvetica,sans-Serif" font-size="10.00">KSPContext</text>
</a>
</g>
</g>
<!-- Node16&#45;&gt;Node6 -->
<g id="edge15" class="edge">
<title>Node16&#45;&gt;Node6</title>
<path fill="none" stroke="#9a32cd" stroke-dasharray="5,2" d="M1189.19,-1238.71C1254.3,-1234.13 1372.2,-1225.82 1441.81,-1220.92"/>
<polygon fill="#9a32cd" stroke="#9a32cd" points="1188.55,-1235.25 1178.82,-1239.44 1189.04,-1242.23 1188.55,-1235.25"/>
<text text-anchor="middle" x="1329" y="-1236" font-family="Helvetica,sans-Serif" font-size="10.00"> ksp_ctx</text>
</g>
<!-- Node17&#45;&gt;Node5 -->
<g id="edge18" class="edge">
<title>Node17&#45;&gt;Node5</title>
<path fill="none" stroke="midnightblue" d="M1541.67,-1009.28C1601.49,-989.39 1711.42,-945.82 1781,-876 1793.35,-863.61 1785.2,-851.75 1799,-841 1806.5,-835.16 1815.4,-830.97 1824.6,-827.98"/>
<polygon fill="midnightblue" stroke="midnightblue" points="1540.58,-1005.95 1532.16,-1012.38 1542.75,-1012.6 1540.58,-1005.95"/>
</g>
<!-- Node18 -->
<g id="node18" class="node">
<title>Node18</title>
<g id="a_node18"><a xlink:title=" ">
<polygon fill="white" stroke="#bfbfbf" points="1120.5,-1031.5 1120.5,-1050.5 1162.5,-1050.5 1162.5,-1031.5 1120.5,-1031.5"/>
<text text-anchor="middle" x="1141.5" y="-1038.5" font-family="Helvetica,sans-Serif" font-size="10.00">SNES</text>
</a>
</g>
</g>
<!-- Node18&#45;&gt;Node17 -->
<g id="edge20" class="edge">
<title>Node18&#45;&gt;Node17</title>
<path fill="none" stroke="#9a32cd" stroke-dasharray="5,2" d="M1172.72,-1039.38C1231.53,-1036.24 1362.28,-1029.24 1438.74,-1025.14"/>
<polygon fill="#9a32cd" stroke="#9a32cd" points="1172.4,-1035.89 1162.6,-1039.92 1172.78,-1042.88 1172.4,-1035.89"/>
<text text-anchor="middle" x="1329" y="-1037" font-family="Helvetica,sans-Serif" font-size="10.00"> snes</text>
</g>
<!-- Node19 -->
<g id="node19" class="node">
<title>Node19</title>
<g id="a_node19"><a xlink:title=" ">
<polygon fill="white" stroke="#bfbfbf" points="1101.5,-993.5 1101.5,-1012.5 1181.5,-1012.5 1181.5,-993.5 1101.5,-993.5"/>
<text text-anchor="middle" x="1141.5" y="-1000.5" font-family="Helvetica,sans-Serif" font-size="10.00">SNESContext</text>
</a>
</g>
</g>
<!-- Node19&#45;&gt;Node17 -->
<g id="edge23" class="edge">
<title>Node19&#45;&gt;Node17</title>
<path fill="none" stroke="#9a32cd" stroke-dasharray="5,2" d="M1191.93,-1003.81C1243.24,-1004.88 1325.81,-1007.2 1397,-1012 1410.56,-1012.91 1425.12,-1014.19 1438.83,-1015.53"/>
<polygon fill="#9a32cd" stroke="#9a32cd" points="1191.85,-1000.31 1181.78,-1003.61 1191.71,-1007.31 1191.85,-1000.31"/>
<text text-anchor="middle" x="1329" y="-1015" font-family="Helvetica,sans-Serif" font-size="10.00"> snes_ctx</text>
</g>
<!-- Node20&#45;&gt;Node5 -->
<g id="edge24" class="edge">
<title>Node20&#45;&gt;Node5</title>
<path fill="none" stroke="midnightblue" d="M1562.07,-877.17C1619.8,-875.1 1707.44,-868.6 1781,-849 1789.46,-846.75 1790.7,-843.78 1799,-841 1811.06,-836.96 1824.34,-833.43 1836.79,-830.52"/>
<polygon fill="midnightblue" stroke="midnightblue" points="1561.89,-873.68 1552.01,-877.5 1562.12,-880.68 1561.89,-873.68"/>
</g>
<!-- Node21 -->
<g id="node21" class="node">
<title>Node21</title>
<g id="a_node21"><a xlink:title=" ">
<polygon fill="white" stroke="#bfbfbf" points="1109,-817.5 1109,-836.5 1174,-836.5 1174,-817.5 1109,-817.5"/>
<text text-anchor="middle" x="1141.5" y="-824.5" font-family="Helvetica,sans-Serif" font-size="10.00">PetscReal</text>
</a>
</g>
</g>
<!-- Node21&#45;&gt;Node20 -->
<g id="edge27" class="edge">
<title>Node21&#45;&gt;Node20</title>
<path fill="none" stroke="#9a32cd" stroke-dasharray="5,2" d="M1183.96,-822.05C1246.67,-815.39 1362.05,-806.56 1397,-827 1411.09,-835.24 1401.93,-849.22 1415,-859 1423.71,-865.52 1434.28,-869.85 1444.9,-872.73"/>
<polygon fill="#9a32cd" stroke="#9a32cd" points="1183.56,-818.58 1174,-823.14 1184.32,-825.53 1183.56,-818.58"/>
<text text-anchor="middle" x="1329" y="-863" font-family="Helvetica,sans-Serif" font-size="10.00"> ts_a</text>
<text text-anchor="middle" x="1329" y="-852" font-family="Helvetica,sans-Serif" font-size="10.00">ts_t</text>
<text text-anchor="middle" x="1329" y="-841" font-family="Helvetica,sans-Serif" font-size="10.00">ts_dt</text>
<text text-anchor="middle" x="1329" y="-830" font-family="Helvetica,sans-Serif" font-size="10.00">ts_aa</text>
</g>
<!-- Node22 -->
<g id="node22" class="node">
<title>Node22</title>
<g id="a_node22"><a xlink:title=" ">
<polygon fill="white" stroke="#bfbfbf" points="1108,-779.5 1108,-798.5 1175,-798.5 1175,-779.5 1108,-779.5"/>
<text text-anchor="middle" x="1141.5" y="-786.5" font-family="Helvetica,sans-Serif" font-size="10.00">TSContext</text>
</a>
</g>
</g>
<!-- Node22&#45;&gt;Node20 -->
<g id="edge28" class="edge">
<title>Node22&#45;&gt;Node20</title>
<path fill="none" stroke="#9a32cd" stroke-dasharray="5,2" d="M1185.17,-784.91C1248.94,-779.74 1365.05,-774.24 1397,-799 1419.01,-816.05 1394.68,-839.96 1415,-859 1423.15,-866.64 1433.73,-871.41 1444.59,-874.36"/>
<polygon fill="#9a32cd" stroke="#9a32cd" points="1184.7,-781.44 1175.03,-785.77 1185.28,-788.42 1184.7,-781.44"/>
<text text-anchor="middle" x="1329" y="-802" font-family="Helvetica,sans-Serif" font-size="10.00"> ts_ctx</text>
</g>
<!-- Node23 -->
<g id="node23" class="node">
<title>Node23</title>
<g id="a_node23"><a xlink:title=" ">
<polygon fill="white" stroke="#bfbfbf" points="1113.5,-741.5 1113.5,-760.5 1169.5,-760.5 1169.5,-741.5 1113.5,-741.5"/>
<text text-anchor="middle" x="1141.5" y="-748.5" font-family="Helvetica,sans-Serif" font-size="10.00">PetscInt</text>
</a>
</g>
</g>
<!-- Node23&#45;&gt;Node20 -->
<g id="edge29" class="edge">
<title>Node23&#45;&gt;Node20</title>
<path fill="none" stroke="#9a32cd" stroke-dasharray="5,2" d="M1180.08,-747.65C1242.96,-742.91 1365.66,-737.61 1397,-765 1429.03,-792.99 1385.49,-828.37 1415,-859 1422.95,-867.26 1433.72,-872.24 1444.85,-875.19"/>
<polygon fill="#9a32cd" stroke="#9a32cd" points="1179.5,-744.19 1169.8,-748.46 1180.05,-751.17 1179.5,-744.19"/>
<text text-anchor="middle" x="1329" y="-768" font-family="Helvetica,sans-Serif" font-size="10.00"> ts_step</text>
</g>
<!-- Node24 -->
<g id="node24" class="node">
<title>Node24</title>
<g id="a_node24"><a xlink:title=" ">
<polygon fill="white" stroke="#bfbfbf" points="1127,-703.5 1127,-722.5 1156,-722.5 1156,-703.5 1127,-703.5"/>
<text text-anchor="middle" x="1141.5" y="-710.5" font-family="Helvetica,sans-Serif" font-size="10.00">TS</text>
</a>
</g>
</g>
<!-- Node24&#45;&gt;Node20 -->
<g id="edge31" class="edge">
<title>Node24&#45;&gt;Node20</title>
<path fill="none" stroke="#9a32cd" stroke-dasharray="5,2" d="M1166.49,-710.74C1223.36,-705.93 1364.03,-697.5 1397,-728 1440.14,-767.91 1375.35,-815.62 1415,-859 1422.83,-867.57 1433.69,-872.66 1444.95,-875.6"/>
<polygon fill="#9a32cd" stroke="#9a32cd" points="1165.95,-707.27 1156.3,-711.64 1166.56,-714.24 1165.95,-707.27"/>
<text text-anchor="middle" x="1329" y="-731" font-family="Helvetica,sans-Serif" font-size="10.00"> ts</text>
</g>
<!-- Node25 -->
<g id="node25" class="node">
<title>Node25</title>
<g id="a_node25"><a xlink:title=" ">
<polygon fill="white" stroke="#bfbfbf" points="1454,-830.5 1454,-849.5 1543,-849.5 1543,-830.5 1454,-830.5"/>
<text text-anchor="middle" x="1498.5" y="-837.5" font-family="Helvetica,sans-Serif" font-size="10.00">pair&lt; int, int &gt;</text>
</a>
</g>
</g>
<!-- Node25&#45;&gt;Node5 -->
<g id="edge33" class="edge">
<title>Node25&#45;&gt;Node5</title>
<path fill="none" stroke="#9a32cd" stroke-dasharray="5,2" d="M1553.48,-837.34C1624.88,-833.82 1750.37,-827.64 1824.78,-823.97"/>
<polygon fill="#9a32cd" stroke="#9a32cd" points="1553.16,-833.85 1543.35,-837.84 1553.51,-840.84 1553.16,-833.85"/>
<text text-anchor="middle" x="1690.5" y="-837" font-family="Helvetica,sans-Serif" font-size="10.00"> loHiFERank</text>
</g>
<!-- Node26 -->
<g id="node26" class="node">
<title>Node26</title>
<g id="a_node26"><a xlink:title=" ">
<polygon fill="white" stroke="#bfbfbf" points="1428.5,-792.5 1428.5,-811.5 1568.5,-811.5 1568.5,-792.5 1428.5,-792.5"/>
<text text-anchor="middle" x="1498.5" y="-799.5" font-family="Helvetica,sans-Serif" font-size="10.00">weak_ptr&lt; CacheTuple &gt;</text>
</a>
</g>
</g>
<!-- Node26&#45;&gt;Node5 -->
<g id="edge34" class="edge">
<title>Node26&#45;&gt;Node5</title>
<path fill="none" stroke="#9a32cd" stroke-dasharray="5,2" d="M1578.96,-803.19C1635.39,-804.36 1712.9,-806.64 1781,-811 1795.21,-811.91 1810.48,-813.2 1824.83,-814.56"/>
<polygon fill="#9a32cd" stroke="#9a32cd" points="1578.75,-799.68 1568.68,-802.98 1578.61,-806.68 1578.75,-799.68"/>
<text text-anchor="middle" x="1690.5" y="-814" font-family="Helvetica,sans-Serif" font-size="10.00"> cacheWeakPtr</text>
</g>
<!-- Node27 -->
<g id="node27" class="node">
<title>Node27</title>
<g id="a_node27"><a xlink:title=" ">
<polygon fill="white" stroke="#bfbfbf" points="1442.5,-751.5 1442.5,-770.5 1554.5,-770.5 1554.5,-751.5 1442.5,-751.5"/>
<text text-anchor="middle" x="1498.5" y="-758.5" font-family="Helvetica,sans-Serif" font-size="10.00">unique_ptr&lt; bool &gt;</text>
</a>
</g>
</g>
<!-- Node27&#45;&gt;Node5 -->
<g id="edge35" class="edge">
<title>Node27&#45;&gt;Node5</title>
<path fill="none" stroke="#9a32cd" stroke-dasharray="5,2" d="M1560.14,-750.1C1620.09,-742.48 1712.54,-739.44 1781,-777 1793,-783.59 1787.56,-794.47 1799,-802 1806.79,-807.13 1815.75,-810.89 1824.88,-813.65"/>
<polygon fill="#9a32cd" stroke="#9a32cd" points="1559.51,-746.65 1550.07,-751.46 1560.45,-753.59 1559.51,-746.65"/>
<text text-anchor="middle" x="1690.5" y="-791" font-family="Helvetica,sans-Serif" font-size="10.00"> matAssembleSwitch</text>
<text text-anchor="middle" x="1690.5" y="-780" font-family="Helvetica,sans-Serif" font-size="10.00">vecAssembleSwitch</text>
</g>
<!-- Node28 -->
<g id="node28" class="node">
<title>Node28</title>
<g id="a_node28"><a xlink:title=" ">
<polygon fill="white" stroke="#bfbfbf" points="1127,-654.5 1127,-673.5 1156,-673.5 1156,-654.5 1127,-654.5"/>
<text text-anchor="middle" x="1141.5" y="-661.5" font-family="Helvetica,sans-Serif" font-size="10.00">int</text>
</a>
</g>
</g>
<!-- Node28&#45;&gt;Node2 -->
<g id="edge76" class="edge">
<title>Node28&#45;&gt;Node2</title>
<path fill="none" stroke="#9a32cd" stroke-dasharray="5,2" d="M1166.47,-665.39C1222.14,-668.2 1358.36,-672.49 1397,-650 1409.79,-642.56 1403.07,-630.75 1415,-622 1557.63,-517.31 1624.6,-546.85 1799,-517 1914.51,-497.23 1944.81,-498 2062,-498 2062,-498 2062,-498 2639,-498 2726.14,-498 2822.18,-542.05 2867.91,-565.97"/>
<polygon fill="#9a32cd" stroke="#9a32cd" points="1166.35,-661.88 1156.17,-664.84 1165.97,-668.87 1166.35,-661.88"/>
<text text-anchor="middle" x="2063" y="-501" font-family="Helvetica,sans-Serif" font-size="10.00"> num_nodes</text>
</g>
<!-- Node28&#45;&gt;Node5 -->
<g id="edge36" class="edge">
<title>Node28&#45;&gt;Node5</title>
<path fill="none" stroke="#9a32cd" stroke-dasharray="5,2" d="M1166.62,-666.39C1190.55,-668.72 1228.29,-672.31 1261,-675 1377.09,-684.55 1695.64,-661.74 1781,-741 1801.71,-760.23 1778.33,-782.72 1799,-802 1806.27,-808.78 1815.39,-813.34 1824.95,-816.37"/>
<polygon fill="#9a32cd" stroke="#9a32cd" points="1166.65,-662.88 1156.36,-665.38 1165.97,-669.84 1166.65,-662.88"/>
<text text-anchor="middle" x="1498.5" y="-721" font-family="Helvetica,sans-Serif" font-size="10.00"> sIze</text>
<text text-anchor="middle" x="1498.5" y="-710" font-family="Helvetica,sans-Serif" font-size="10.00">loopSize</text>
<text text-anchor="middle" x="1498.5" y="-699" font-family="Helvetica,sans-Serif" font-size="10.00">nInTheLoop</text>
<text text-anchor="middle" x="1498.5" y="-688" font-family="Helvetica,sans-Serif" font-size="10.00">rAnk</text>
</g>
<!-- Node30 -->
<g id="node30" class="node">
<title>Node30</title>
<g id="a_node30"><a xlink:href="structMoFEM_1_1Problem.html" target="_top" xlink:title="keeps basic data about problem">
<polygon fill="white" stroke="black" points="1449,-370.5 1449,-389.5 1548,-389.5 1548,-370.5 1449,-370.5"/>
<text text-anchor="middle" x="1498.5" y="-377.5" font-family="Helvetica,sans-Serif" font-size="10.00">MoFEM::Problem</text>
</a>
</g>
</g>
<!-- Node28&#45;&gt;Node30 -->
<g id="edge48" class="edge">
<title>Node28&#45;&gt;Node30</title>
<path fill="none" stroke="#9a32cd" stroke-dasharray="5,2" d="M1164.49,-649.5C1185.37,-635.4 1217.29,-612.96 1243,-591 1251.6,-583.65 1250.95,-578.19 1261,-573 1315.47,-544.88 1346.48,-584.73 1397,-550 1412.33,-539.46 1473.88,-424.64 1492.28,-389.9"/>
<polygon fill="#9a32cd" stroke="#9a32cd" points="1162.37,-646.71 1156.01,-655.18 1166.27,-652.53 1162.37,-646.71"/>
<text text-anchor="middle" x="1329" y="-642" font-family="Helvetica,sans-Serif" font-size="10.00"> tagNameSize</text>
<text text-anchor="middle" x="1329" y="-631" font-family="Helvetica,sans-Serif" font-size="10.00">nbDofsRow</text>
<text text-anchor="middle" x="1329" y="-620" font-family="Helvetica,sans-Serif" font-size="10.00">nbLocDofsCol</text>
<text text-anchor="middle" x="1329" y="-609" font-family="Helvetica,sans-Serif" font-size="10.00">nbDofsCol</text>
<text text-anchor="middle" x="1329" y="-598" font-family="Helvetica,sans-Serif" font-size="10.00">nbGhostDofsRow</text>
<text text-anchor="middle" x="1329" y="-587" font-family="Helvetica,sans-Serif" font-size="10.00">nbGhostDofsCol</text>
<text text-anchor="middle" x="1329" y="-576" font-family="Helvetica,sans-Serif" font-size="10.00">nbLocDofsRow</text>
</g>
<!-- Node29 -->
<g id="node29" class="node">
<title>Node29</title>
<g id="a_node29"><a xlink:title=" ">
<polygon fill="white" stroke="#bfbfbf" points="1415,-631.5 1415,-650.5 1582,-650.5 1582,-631.5 1415,-631.5"/>
<text text-anchor="middle" x="1498.5" y="-638.5" font-family="Helvetica,sans-Serif" font-size="10.00">function&lt; MoFEMErrorCode()&gt;</text>
</a>
</g>
</g>
<!-- Node29&#45;&gt;Node5 -->
<g id="edge37" class="edge">
<title>Node29&#45;&gt;Node5</title>
<path fill="none" stroke="#9a32cd" stroke-dasharray="5,2" d="M1533.95,-628.22C1592.7,-608.9 1712.56,-580.61 1781,-642 1807.63,-665.89 1775.07,-775.4 1799,-802 1805.85,-809.62 1815.01,-814.55 1824.79,-817.68"/>
<polygon fill="#9a32cd" stroke="#9a32cd" points="1532.73,-624.94 1524.38,-631.47 1534.98,-631.57 1532.73,-624.94"/>
<text text-anchor="middle" x="1690.5" y="-667" font-family="Helvetica,sans-Serif" font-size="10.00"> preProcessHook</text>
<text text-anchor="middle" x="1690.5" y="-656" font-family="Helvetica,sans-Serif" font-size="10.00">operatorHook</text>
<text text-anchor="middle" x="1690.5" y="-645" font-family="Helvetica,sans-Serif" font-size="10.00">postProcessHook</text>
</g>
<!-- Node30&#45;&gt;Node5 -->
<g id="edge38" class="edge">
<title>Node30&#45;&gt;Node5</title>
<path fill="none" stroke="#9a32cd" stroke-dasharray="5,2" d="M1533.07,-393.62C1594.57,-420.57 1724.21,-487.04 1781,-589 1804.12,-630.5 1767.72,-766.25 1799,-802 1805.75,-809.71 1814.85,-814.69 1824.62,-817.83"/>
<polygon fill="#9a32cd" stroke="#9a32cd" points="1534.37,-390.37 1523.8,-389.64 1531.61,-396.8 1534.37,-390.37"/>
<text text-anchor="middle" x="1690.5" y="-592" font-family="Helvetica,sans-Serif" font-size="10.00"> problemPtr</text>
</g>
<!-- Node31 -->
<g id="node31" class="node">
<title>Node31</title>
<g id="a_node31"><a xlink:title=" ">
<polygon fill="white" stroke="#bfbfbf" points="1058,-551 1058,-581 1225,-581 1225,-551 1058,-551"/>
<text text-anchor="start" x="1066" y="-569" font-family="Helvetica,sans-Serif" font-size="10.00">shared_ptr&lt; NumeredEntFinite</text>
<text text-anchor="middle" x="1141.5" y="-558" font-family="Helvetica,sans-Serif" font-size="10.00">Element_multiIndex &gt;</text>
</a>
</g>
</g>
<!-- Node31&#45;&gt;Node30 -->
<g id="edge39" class="edge">
<title>Node31&#45;&gt;Node30</title>
<path fill="none" stroke="#9a32cd" stroke-dasharray="5,2" d="M1215.2,-548.75C1230.3,-545.36 1246.14,-541.95 1261,-539 1321.13,-527.07 1344.77,-548.09 1397,-516 1448.78,-484.19 1482.53,-414.9 1493.55,-389.54"/>
<polygon fill="#9a32cd" stroke="#9a32cd" points="1214.37,-545.35 1205.39,-550.97 1215.92,-552.18 1214.37,-545.35"/>
<text text-anchor="middle" x="1329" y="-542" font-family="Helvetica,sans-Serif" font-size="10.00"> numeredFiniteElementsPtr</text>
</g>
<!-- Node32 -->
<g id="node32" class="node">
<title>Node32</title>
<g id="a_node32"><a xlink:title=" ">
<polygon fill="white" stroke="#bfbfbf" points="1112,-512.5 1112,-531.5 1171,-531.5 1171,-512.5 1112,-512.5"/>
<text text-anchor="middle" x="1141.5" y="-519.5" font-family="Helvetica,sans-Serif" font-size="10.00">BitFEId *</text>
</a>
</g>
</g>
<!-- Node32&#45;&gt;Node30 -->
<g id="edge40" class="edge">
<title>Node32&#45;&gt;Node30</title>
<path fill="none" stroke="#9a32cd" stroke-dasharray="5,2" d="M1181.22,-516.23C1251.26,-505.76 1392.22,-484.45 1397,-482 1441.01,-459.4 1477.33,-410.3 1491.32,-389.56"/>
<polygon fill="#9a32cd" stroke="#9a32cd" points="1180.4,-512.82 1171.02,-517.76 1181.43,-519.74 1180.4,-512.82"/>
<text text-anchor="middle" x="1329" y="-506" font-family="Helvetica,sans-Serif" font-size="10.00"> tagBitFEId</text>
</g>
<!-- Node33 -->
<g id="node33" class="node">
<title>Node33</title>
<g id="a_node33"><a xlink:href="classEntityHandle.html" target="_top" xlink:title=" ">
<polygon fill="white" stroke="black" points="1101.5,-82.5 1101.5,-101.5 1181.5,-101.5 1181.5,-82.5 1101.5,-82.5"/>
<text text-anchor="middle" x="1141.5" y="-89.5" font-family="Helvetica,sans-Serif" font-size="10.00">EntityHandle</text>
</a>
</g>
</g>
<!-- Node33&#45;&gt;Node1 -->
<g id="edge80" class="edge">
<title>Node33&#45;&gt;Node1</title>
<path fill="none" stroke="#9a32cd" stroke-dasharray="5,2" d="M1191.75,-82C1260.07,-69.01 1387.63,-48 1497.5,-48 1497.5,-48 1497.5,-48 2897,-48 2958.22,-48 3030.14,-48 3067.87,-48"/>
<polygon fill="#9a32cd" stroke="#9a32cd" points="1190.86,-78.6 1181.7,-83.93 1192.18,-85.48 1190.86,-78.6"/>
<text text-anchor="middle" x="2254" y="-51" font-family="Helvetica,sans-Serif" font-size="10.00"> prism</text>
</g>
<!-- Node33&#45;&gt;Node2 -->
<g id="edge74" class="edge">
<title>Node33&#45;&gt;Node2</title>
<path fill="none" stroke="#9a32cd" stroke-dasharray="5,2" d="M1191.83,-90.64C1299.96,-88.72 1565.39,-89.73 1781,-137 2253.05,-240.5 2377.47,-280.09 2802,-511 2830.76,-526.64 2860.36,-550.52 2878.22,-565.94"/>
<polygon fill="#9a32cd" stroke="#9a32cd" points="1191.49,-87.15 1181.56,-90.85 1191.63,-94.15 1191.49,-87.15"/>
<text text-anchor="middle" x="2063" y="-224" font-family="Helvetica,sans-Serif" font-size="10.00"> conn</text>
</g>
<!-- Node33&#45;&gt;Node30 -->
<g id="edge41" class="edge">
<title>Node33&#45;&gt;Node30</title>
<path fill="none" stroke="#9a32cd" stroke-dasharray="5,2" d="M1191.65,-97.46C1256.53,-105.55 1366.14,-122.57 1397,-148 1470.84,-208.86 1491.8,-334.3 1496.4,-370.2"/>
<polygon fill="#9a32cd" stroke="#9a32cd" points="1191.99,-93.98 1181.64,-96.24 1191.14,-100.93 1191.99,-93.98"/>
<text text-anchor="middle" x="1329" y="-151" font-family="Helvetica,sans-Serif" font-size="10.00"> meshset</text>
</g>
<!-- Node34 -->
<g id="node34" class="node">
<title>Node34</title>
<g id="a_node34"><a xlink:title=" ">
<polygon fill="white" stroke="#bfbfbf" points="1067,-463 1067,-493 1216,-493 1216,-463 1067,-463"/>
<text text-anchor="start" x="1075" y="-481" font-family="Helvetica,sans-Serif" font-size="10.00">shared_ptr&lt; MoFEM::</text>
<text text-anchor="middle" x="1141.5" y="-470" font-family="Helvetica,sans-Serif" font-size="10.00">ComposedProblemsData &gt;</text>
</a>
</g>
</g>
<!-- Node34&#45;&gt;Node30 -->
<g id="edge42" class="edge">
<title>Node34&#45;&gt;Node30</title>
<path fill="none" stroke="#9a32cd" stroke-dasharray="5,2" d="M1226.36,-471.98C1288.17,-466.76 1366.55,-458.27 1397,-447 1433.18,-433.6 1469.27,-404.85 1486.71,-389.74"/>
<polygon fill="#9a32cd" stroke="#9a32cd" points="1225.88,-468.51 1216.2,-472.83 1226.46,-475.49 1225.88,-468.51"/>
<text text-anchor="middle" x="1329" y="-471" font-family="Helvetica,sans-Serif" font-size="10.00"> composedProblemsData</text>
</g>
<!-- Node35 -->
<g id="node35" class="node">
<title>Node35</title>
<g id="a_node35"><a xlink:title=" ">
<polygon fill="white" stroke="#bfbfbf" points="1101,-424.5 1101,-443.5 1182,-443.5 1182,-424.5 1101,-424.5"/>
<text text-anchor="middle" x="1141.5" y="-431.5" font-family="Helvetica,sans-Serif" font-size="10.00">BitRefLevel *</text>
</a>
</g>
</g>
<!-- Node35&#45;&gt;Node30 -->
<g id="edge43" class="edge">
<title>Node35&#45;&gt;Node30</title>
<path fill="none" stroke="#9a32cd" stroke-dasharray="5,2" d="M1192.55,-429.45C1244.04,-424.41 1326.45,-415.34 1397,-403 1417.98,-399.33 1441.17,-394.1 1459.99,-389.56"/>
<polygon fill="#9a32cd" stroke="#9a32cd" points="1191.98,-425.99 1182.36,-430.44 1192.65,-432.96 1191.98,-425.99"/>
<text text-anchor="middle" x="1329" y="-435" font-family="Helvetica,sans-Serif" font-size="10.00"> tagBitRefLevelMask</text>
<text text-anchor="middle" x="1329" y="-424" font-family="Helvetica,sans-Serif" font-size="10.00">tagBitRefLevel</text>
</g>
<!-- Node36 -->
<g id="node36" class="node">
<title>Node36</title>
<g id="a_node36"><a xlink:title=" ">
<polygon fill="white" stroke="#bfbfbf" points="1056.5,-375 1056.5,-405 1226.5,-405 1226.5,-375 1056.5,-375"/>
<text text-anchor="start" x="1064.5" y="-393" font-family="Helvetica,sans-Serif" font-size="10.00">shared_ptr&lt; NumeredDofEntity</text>
<text text-anchor="middle" x="1141.5" y="-382" font-family="Helvetica,sans-Serif" font-size="10.00">_multiIndex &gt;</text>
</a>
</g>
</g>
<!-- Node36&#45;&gt;Node30 -->
<g id="edge44" class="edge">
<title>Node36&#45;&gt;Node30</title>
<path fill="none" stroke="#9a32cd" stroke-dasharray="5,2" d="M1236.65,-382.23C1244.88,-381.74 1253.09,-381.32 1261,-381 1325.82,-378.4 1400.72,-378.63 1448.56,-379.19"/>
<polygon fill="#9a32cd" stroke="#9a32cd" points="1236.37,-378.74 1226.61,-382.86 1236.81,-385.73 1236.37,-378.74"/>
<text text-anchor="middle" x="1329" y="-395" font-family="Helvetica,sans-Serif" font-size="10.00"> numeredRowDofsPtr</text>
<text text-anchor="middle" x="1329" y="-384" font-family="Helvetica,sans-Serif" font-size="10.00">numeredColDofsPtr</text>
</g>
<!-- Node37 -->
<g id="node37" class="node">
<title>Node37</title>
<g id="a_node37"><a xlink:title=" ">
<polygon fill="white" stroke="#bfbfbf" points="1122.5,-336.5 1122.5,-355.5 1160.5,-355.5 1160.5,-336.5 1122.5,-336.5"/>
<text text-anchor="middle" x="1141.5" y="-343.5" font-family="Helvetica,sans-Serif" font-size="10.00">char</text>
</a>
</g>
</g>
<!-- Node37&#45;&gt;Node30 -->
<g id="edge45" class="edge">
<title>Node37&#45;&gt;Node30</title>
<path fill="none" stroke="#9a32cd" stroke-dasharray="5,2" d="M1170.82,-346.96C1217.91,-348.76 1315.19,-353.37 1397,-363 1413.96,-365 1432.41,-367.9 1448.83,-370.75"/>
<polygon fill="#9a32cd" stroke="#9a32cd" points="1170.89,-343.46 1160.77,-346.59 1170.63,-350.45 1170.89,-343.46"/>
<text text-anchor="middle" x="1329" y="-366" font-family="Helvetica,sans-Serif" font-size="10.00"> tagName</text>
</g>
<!-- Node38 -->
<g id="node38" class="node">
<title>Node38</title>
<g id="a_node38"><a xlink:title=" ">
<polygon fill="white" stroke="#bfbfbf" points="1072.5,-298.5 1072.5,-317.5 1210.5,-317.5 1210.5,-298.5 1072.5,-298.5"/>
<text text-anchor="middle" x="1141.5" y="-305.5" font-family="Helvetica,sans-Serif" font-size="10.00">vector&lt; BlockFieldPair &gt;</text>
</a>
</g>
</g>
<!-- Node38&#45;&gt;Node30 -->
<g id="edge46" class="edge">
<title>Node38&#45;&gt;Node30</title>
<path fill="none" stroke="#9a32cd" stroke-dasharray="5,2" d="M1220.79,-310.49C1271.7,-313.6 1339.15,-320.54 1397,-336 1427.36,-344.11 1460.34,-360.05 1479.94,-370.35"/>
<polygon fill="#9a32cd" stroke="#9a32cd" points="1220.69,-306.98 1210.51,-309.9 1220.29,-313.97 1220.69,-306.98"/>
<text text-anchor="middle" x="1329" y="-339" font-family="Helvetica,sans-Serif" font-size="10.00"> emptyFieldBlocks</text>
</g>
<!-- Node39 -->
<g id="node39" class="node">
<title>Node39</title>
<g id="a_node39"><a xlink:title=" ">
<polygon fill="white" stroke="#bfbfbf" points="1063.5,-249 1063.5,-279 1219.5,-279 1219.5,-249 1063.5,-249"/>
<text text-anchor="start" x="1071.5" y="-267" font-family="Helvetica,sans-Serif" font-size="10.00">shared_ptr&lt; MoFEM::</text>
<text text-anchor="middle" x="1141.5" y="-256" font-family="Helvetica,sans-Serif" font-size="10.00">Problem::SubProblemData &gt;</text>
</a>
</g>
</g>
<!-- Node39&#45;&gt;Node30 -->
<g id="edge47" class="edge">
<title>Node39&#45;&gt;Node30</title>
<path fill="none" stroke="#9a32cd" stroke-dasharray="5,2" d="M1229.96,-264.5C1280.56,-267.57 1344.42,-276.3 1397,-299 1436.3,-315.96 1472.9,-352.7 1488.95,-370.27"/>
<polygon fill="#9a32cd" stroke="#9a32cd" points="1229.88,-260.99 1219.7,-263.95 1229.5,-267.98 1229.88,-260.99"/>
<text text-anchor="middle" x="1329" y="-302" font-family="Helvetica,sans-Serif" font-size="10.00"> subProblemData</text>
</g>
<!-- Node40 -->
<g id="node40" class="node">
<title>Node40</title>
<g id="a_node40"><a xlink:title=" ">
<polygon fill="white" stroke="#bfbfbf" points="1040,-210.5 1040,-229.5 1243,-229.5 1243,-210.5 1040,-210.5"/>
<text text-anchor="middle" x="1141.5" y="-217.5" font-family="Helvetica,sans-Serif" font-size="10.00">shared_ptr&lt; SequenceDofContainer &gt;</text>
</a>
</g>
</g>
<!-- Node40&#45;&gt;Node30 -->
<g id="edge49" class="edge">
<title>Node40&#45;&gt;Node30</title>
<path fill="none" stroke="#9a32cd" stroke-dasharray="5,2" d="M1224.93,-209.91C1277.42,-207.39 1345.05,-211.7 1397,-241 1450.95,-271.43 1483.58,-344.17 1493.92,-370.38"/>
<polygon fill="#9a32cd" stroke="#9a32cd" points="1224.43,-206.43 1214.65,-210.49 1224.83,-213.42 1224.43,-206.43"/>
<text text-anchor="middle" x="1329" y="-255" font-family="Helvetica,sans-Serif" font-size="10.00"> sequenceRowDofContainer</text>
<text text-anchor="middle" x="1329" y="-244" font-family="Helvetica,sans-Serif" font-size="10.00">sequenceColDofContainer</text>
</g>
<!-- Node41 -->
<g id="node41" class="node">
<title>Node41</title>
<g id="a_node41"><a xlink:title=" ">
<polygon fill="white" stroke="#bfbfbf" points="1097.5,-172.5 1097.5,-191.5 1185.5,-191.5 1185.5,-172.5 1097.5,-172.5"/>
<text text-anchor="middle" x="1141.5" y="-179.5" font-family="Helvetica,sans-Serif" font-size="10.00">BitProblemId *</text>
</a>
</g>
</g>
<!-- Node41&#45;&gt;Node30 -->
<g id="edge50" class="edge">
<title>Node41&#45;&gt;Node30</title>
<path fill="none" stroke="#9a32cd" stroke-dasharray="5,2" d="M1193.28,-170.64C1247.98,-161.35 1335.44,-155.29 1397,-194 1463.81,-236 1489.29,-338.65 1495.73,-370.45"/>
<polygon fill="#9a32cd" stroke="#9a32cd" points="1192.35,-167.25 1183.13,-172.47 1193.59,-174.14 1192.35,-167.25"/>
<text text-anchor="middle" x="1329" y="-197" font-family="Helvetica,sans-Serif" font-size="10.00"> tagId</text>
</g>
<!-- Node42 -->
<g id="node42" class="node">
<title>Node42</title>
<g id="a_node42"><a xlink:title=" ">
<polygon fill="white" stroke="#bfbfbf" points="1805,-990 1805,-1020 1967,-1020 1967,-990 1805,-990"/>
<text text-anchor="start" x="1813" y="-1008" font-family="Helvetica,sans-Serif" font-size="10.00">shared_ptr&lt; const MoFEM</text>
<text text-anchor="middle" x="1886" y="-997" font-family="Helvetica,sans-Serif" font-size="10.00">::NumeredEntFiniteElement &gt;</text>
</a>
</g>
</g>
<!-- Node42&#45;&gt;Node4 -->
<g id="edge51" class="edge">
<title>Node42&#45;&gt;Node4</title>
<path fill="none" stroke="#9a32cd" stroke-dasharray="5,2" d="M1977.23,-1007.45C2030.58,-1003.84 2095.27,-989.75 2135,-947 2169.92,-909.43 2117.48,-870 2153,-833 2165.2,-820.29 2183.02,-814.44 2200.26,-812.04"/>
<polygon fill="#9a32cd" stroke="#9a32cd" points="1976.85,-1003.97 1967.07,-1008.02 1977.25,-1010.95 1976.85,-1003.97"/>
<text text-anchor="middle" x="2063" y="-1008" font-family="Helvetica,sans-Serif" font-size="10.00"> numeredEntFiniteElementPtr</text>
</g>
<!-- Node43 -->
<g id="node43" class="node">
<title>Node43</title>
<g id="a_node43"><a xlink:title=" ">
<polygon fill="white" stroke="#bfbfbf" points="1864,-944.5 1864,-963.5 1908,-963.5 1908,-944.5 1864,-944.5"/>
<text text-anchor="middle" x="1886" y="-951.5" font-family="Helvetica,sans-Serif" font-size="10.00">string</text>
</a>
</g>
</g>
<!-- Node43&#45;&gt;Node2 -->
<g id="edge77" class="edge">
<title>Node43&#45;&gt;Node2</title>
<path fill="none" stroke="#9a32cd" stroke-dasharray="5,2" d="M1918.11,-955.9C2053.45,-963.57 2590.23,-987.52 2723,-894 2832.24,-817.05 2879.45,-647.86 2891.65,-596.25"/>
<polygon fill="#9a32cd" stroke="#9a32cd" points="1918.2,-952.4 1908.01,-955.32 1917.79,-959.39 1918.2,-952.4"/>
<text text-anchor="middle" x="2454" y="-963" font-family="Helvetica,sans-Serif" font-size="10.00"> meshPositionsFieldName</text>
</g>
<!-- Node43&#45;&gt;Node4 -->
<g id="edge52" class="edge">
<title>Node43&#45;&gt;Node4</title>
<path fill="none" stroke="#9a32cd" stroke-dasharray="5,2" d="M1918.08,-949.96C1968.77,-941.96 2070.08,-919.85 2135,-865 2147.46,-854.47 2139.79,-842.59 2153,-833 2166.61,-823.12 2183.89,-817.82 2200.24,-815.06"/>
<polygon fill="#9a32cd" stroke="#9a32cd" points="1917.44,-946.52 1908.07,-951.47 1918.48,-953.44 1917.44,-946.52"/>
<text text-anchor="middle" x="2063" y="-935" font-family="Helvetica,sans-Serif" font-size="10.00"> feName</text>
</g>
<!-- Node44 -->
<g id="node44" class="node">
<title>Node44</title>
<g id="a_node44"><a xlink:title=" ">
<polygon fill="white" stroke="#bfbfbf" points="1804.5,-850 1804.5,-880 1967.5,-880 1967.5,-850 1804.5,-850"/>
<text text-anchor="start" x="1812.5" y="-868" font-family="Helvetica,sans-Serif" font-size="10.00">function&lt; bool(MoFEM</text>
<text text-anchor="middle" x="1886" y="-857" font-family="Helvetica,sans-Serif" font-size="10.00">::FEMethod *fe_method_ptr)&gt;</text>
</a>
</g>
</g>
<!-- Node44&#45;&gt;Node4 -->
<g id="edge53" class="edge">
<title>Node44&#45;&gt;Node4</title>
<path fill="none" stroke="#9a32cd" stroke-dasharray="5,2" d="M1977.88,-852.88C2024.82,-846.53 2083.01,-838.53 2135,-831 2156.43,-827.9 2180.03,-824.33 2200.45,-821.19"/>
<polygon fill="#9a32cd" stroke="#9a32cd" points="1977.18,-849.44 1967.74,-854.24 1978.12,-856.38 1977.18,-849.44"/>
<text text-anchor="middle" x="2063" y="-853" font-family="Helvetica,sans-Serif" font-size="10.00"> exeTestHook</text>
</g>
<!-- Node45 -->
<g id="node45" class="node">
<title>Node45</title>
<g id="a_node45"><a xlink:href="classdouble.html" target="_top" xlink:title=" ">
<polygon fill="white" stroke="black" points="2229,-1099.5 2229,-1118.5 2279,-1118.5 2279,-1099.5 2229,-1099.5"/>
<text text-anchor="middle" x="2254" y="-1106.5" font-family="Helvetica,sans-Serif" font-size="10.00">double</text>
</a>
</g>
</g>
<!-- Node45&#45;&gt;Node2 -->
<g id="edge75" class="edge">
<title>Node45&#45;&gt;Node2</title>
<path fill="none" stroke="#9a32cd" stroke-dasharray="5,2" d="M2289.12,-1113.7C2387.1,-1125.07 2670.71,-1142.48 2802,-986 2853.7,-924.38 2885.9,-662.8 2893.34,-596.38"/>
<polygon fill="#9a32cd" stroke="#9a32cd" points="2289.51,-1110.23 2279.16,-1112.5 2288.67,-1117.18 2289.51,-1110.23"/>
<text text-anchor="middle" x="2638" y="-1112" font-family="Helvetica,sans-Serif" font-size="10.00"> aRea</text>
</g>
<!-- Node45&#45;&gt;Node3 -->
<g id="edge54" class="edge">
<title>Node45&#45;&gt;Node3</title>
<path fill="none" stroke="#9a32cd" stroke-dasharray="5,2" d="M2289.22,-1102.58C2312.74,-1098.25 2344.72,-1092.52 2373,-1088 2408.9,-1082.26 2505.99,-1086.92 2535,-1065 2610.97,-1007.58 2631.52,-881.17 2635.95,-844.9"/>
<polygon fill="#9a32cd" stroke="#9a32cd" points="2288.56,-1099.15 2279.37,-1104.41 2289.84,-1106.03 2288.56,-1099.15"/>
<text text-anchor="middle" x="2454" y="-1091" font-family="Helvetica,sans-Serif" font-size="10.00"> elementMeasure</text>
</g>
<!-- Node46 -->
<g id="node46" class="node">
<title>Node46</title>
<g id="a_node46"><a xlink:title=" ">
<polygon fill="white" stroke="#bfbfbf" points="2168,-1038.5 2168,-1079.5 2340,-1079.5 2340,-1038.5 2168,-1038.5"/>
<text text-anchor="start" x="2176" y="-1067.5" font-family="Helvetica,sans-Serif" font-size="10.00">array&lt; boost::shared</text>
<text text-anchor="start" x="2176" y="-1056.5" font-family="Helvetica,sans-Serif" font-size="10.00">_ptr&lt; MoFEM::EntitiesFieldData</text>
<text text-anchor="middle" x="2254" y="-1045.5" font-family="Helvetica,sans-Serif" font-size="10.00"> &gt;, LASTSPACE &gt;</text>
</a>
</g>
</g>
<!-- Node46&#45;&gt;Node3 -->
<g id="edge55" class="edge">
<title>Node46&#45;&gt;Node3</title>
<path fill="none" stroke="#9a32cd" stroke-dasharray="5,2" d="M2350.27,-1045.89C2430.66,-1034.75 2533.04,-1020.35 2535,-1019 2599.37,-974.66 2627.4,-875.87 2634.86,-844.65"/>
<polygon fill="#9a32cd" stroke="#9a32cd" points="2349.51,-1042.46 2340.08,-1047.3 2350.47,-1049.39 2349.51,-1042.46"/>
<text text-anchor="middle" x="2454" y="-1056" font-family="Helvetica,sans-Serif" font-size="10.00"> derivedDataOnElement</text>
<text text-anchor="middle" x="2454" y="-1045" font-family="Helvetica,sans-Serif" font-size="10.00">dataOnElement</text>
</g>
<!-- Node47 -->
<g id="node47" class="node">
<title>Node47</title>
<g id="a_node47"><a xlink:title=" ">
<polygon fill="white" stroke="#bfbfbf" points="2220,-1000.5 2220,-1019.5 2288,-1019.5 2288,-1000.5 2220,-1000.5"/>
<text text-anchor="middle" x="2254" y="-1007.5" font-family="Helvetica,sans-Serif" font-size="10.00">EntityType</text>
</a>
</g>
</g>
<!-- Node47&#45;&gt;Node3 -->
<g id="edge56" class="edge">
<title>Node47&#45;&gt;Node3</title>
<path fill="none" stroke="#9a32cd" stroke-dasharray="5,2" d="M2298.46,-1008.33C2372.04,-1005.19 2515.13,-997.67 2535,-986 2592.28,-952.35 2624.22,-872.3 2633.85,-844.61"/>
<polygon fill="#9a32cd" stroke="#9a32cd" points="2297.98,-1004.84 2288.13,-1008.76 2298.27,-1011.84 2297.98,-1004.84"/>
<text text-anchor="middle" x="2454" y="-1007" font-family="Helvetica,sans-Serif" font-size="10.00"> lastEvaluatedElementEntityType</text>
</g>
<!-- Node48 -->
<g id="node48" class="node">
<title>Node48</title>
<g id="a_node48"><a xlink:href="structMoFEM_1_1DeprecatedCoreInterface.html" target="_top" xlink:title="Deprecated interface functions.">
<polygon fill="white" stroke="black" points="1600,-1239.5 1600,-1258.5 1781,-1258.5 1781,-1239.5 1600,-1239.5"/>
<text text-anchor="middle" x="1690.5" y="-1246.5" font-family="Helvetica,sans-Serif" font-size="10.00">MoFEM::DeprecatedCoreInterface</text>
</a>
</g>
</g>
<!-- Node48&#45;&gt;Node3 -->
<g id="edge57" class="edge">
<title>Node48&#45;&gt;Node3</title>
<path fill="none" stroke="#9a32cd" stroke-dasharray="5,2" d="M1769.46,-1259.68C1932.51,-1277.42 2312.82,-1294.06 2535,-1103 2554.18,-1086.51 2544.38,-1072.78 2553,-1049 2581.85,-969.45 2620.52,-874.9 2632.97,-844.74"/>
<polygon fill="#9a32cd" stroke="#9a32cd" points="1769.37,-1256.15 1759.04,-1258.51 1768.59,-1263.11 1769.37,-1256.15"/>
<text text-anchor="middle" x="2063" y="-1272" font-family="Helvetica,sans-Serif" font-size="10.00"> mField</text>
</g>
<!-- Node49&#45;&gt;Node48 -->
<g id="edge58" class="edge">
<title>Node49&#45;&gt;Node48</title>
<path fill="none" stroke="midnightblue" d="M1184.64,-1489.5C1235.82,-1473.77 1324.32,-1444.82 1397,-1412 1507.47,-1362.12 1632.02,-1285.36 1674.44,-1258.6"/>
<polygon fill="midnightblue" stroke="midnightblue" points="1183.46,-1486.2 1174.92,-1492.46 1185.51,-1492.89 1183.46,-1486.2"/>
</g>
<!-- Node50 -->
<g id="node50" class="node">
<title>Node50</title>
<g id="a_node50"><a xlink:title=" ">
<polygon fill="white" stroke="#bfbfbf" points="2170.5,-891 2170.5,-943 2337.5,-943 2337.5,-891 2170.5,-891"/>
<text text-anchor="start" x="2178.5" y="-931" font-family="Helvetica,sans-Serif" font-size="10.00">function&lt; MoFEMErrorCode</text>
<text text-anchor="start" x="2178.5" y="-920" font-family="Helvetica,sans-Serif" font-size="10.00">(ForcesAndSourcesCore *fe</text>
<text text-anchor="start" x="2178.5" y="-909" font-family="Helvetica,sans-Serif" font-size="10.00">_raw_ptr, int order_row,</text>
<text text-anchor="middle" x="2254" y="-898" font-family="Helvetica,sans-Serif" font-size="10.00"> int order_col, int order_data)&gt;</text>
</a>
</g>
</g>
<!-- Node50&#45;&gt;Node3 -->
<g id="edge61" class="edge">
<title>Node50&#45;&gt;Node3</title>
<path fill="none" stroke="#9a32cd" stroke-dasharray="5,2" d="M2347.84,-901.59C2402.56,-891.97 2473.02,-878.65 2535,-864 2559.01,-858.33 2585.83,-850.65 2605.94,-844.62"/>
<polygon fill="#9a32cd" stroke="#9a32cd" points="2347.05,-898.17 2337.81,-903.34 2348.26,-905.07 2347.05,-898.17"/>
<text text-anchor="middle" x="2454" y="-899" font-family="Helvetica,sans-Serif" font-size="10.00"> setRuleHook</text>
</g>
<!-- Node51 -->
<g id="node51" class="node">
<title>Node51</title>
<g id="a_node51"><a xlink:title=" ">
<polygon fill="white" stroke="#bfbfbf" points="2153,-842 2153,-872 2355,-872 2355,-842 2153,-842"/>
<text text-anchor="start" x="2161" y="-860" font-family="Helvetica,sans-Serif" font-size="10.00">ptr_deque&lt; MoFEM::Forces</text>
<text text-anchor="middle" x="2254" y="-849" font-family="Helvetica,sans-Serif" font-size="10.00">AndSourcesCore::UserDataOperator &gt;</text>
</a>
</g>
</g>
<!-- Node51&#45;&gt;Node3 -->
<g id="edge62" class="edge">
<title>Node51&#45;&gt;Node3</title>
<path fill="none" stroke="#9a32cd" stroke-dasharray="5,2" d="M2365.59,-850.63C2425.26,-847.19 2497.75,-843.02 2552.8,-839.85"/>
<polygon fill="#9a32cd" stroke="#9a32cd" points="2365.15,-847.15 2355.37,-851.22 2365.55,-854.14 2365.15,-847.15"/>
<text text-anchor="middle" x="2454" y="-852" font-family="Helvetica,sans-Serif" font-size="10.00"> opPtrVector</text>
</g>
<!-- Node52 -->
<g id="node52" class="node">
<title>Node52</title>
<g id="a_node52"><a xlink:href="structMoFEM_1_1EntitiesFieldData.html" target="_top" xlink:title="data structure for finite element entity">
<polygon fill="white" stroke="black" points="2183,-609.5 2183,-628.5 2325,-628.5 2325,-609.5 2183,-609.5"/>
<text text-anchor="middle" x="2254" y="-616.5" font-family="Helvetica,sans-Serif" font-size="10.00">MoFEM::EntitiesFieldData</text>
</a>
</g>
</g>
<!-- Node52&#45;&gt;Node3 -->
<g id="edge63" class="edge">
<title>Node52&#45;&gt;Node3</title>
<path fill="none" stroke="#9a32cd" stroke-dasharray="5,2" d="M2289.4,-606.11C2347.13,-586.92 2464.14,-558.86 2535,-616 2564.38,-639.69 2538.88,-663.99 2553,-699 2573.66,-750.22 2612.96,-803.99 2629.43,-825.39"/>
<polygon fill="#9a32cd" stroke="#9a32cd" points="2287.99,-602.89 2279.66,-609.45 2290.26,-609.51 2287.99,-602.89"/>
<text text-anchor="middle" x="2454" y="-663" font-family="Helvetica,sans-Serif" font-size="10.00"> dataNoField</text>
<text text-anchor="middle" x="2454" y="-652" font-family="Helvetica,sans-Serif" font-size="10.00">dataL2</text>
<text text-anchor="middle" x="2454" y="-641" font-family="Helvetica,sans-Serif" font-size="10.00">dataH1</text>
<text text-anchor="middle" x="2454" y="-630" font-family="Helvetica,sans-Serif" font-size="10.00">dataHcurl</text>
<text text-anchor="middle" x="2454" y="-619" font-family="Helvetica,sans-Serif" font-size="10.00">dataHdiv</text>
</g>
<!-- Node53 -->
<g id="node53" class="node">
<title>Node53</title>
<g id="a_node53"><a xlink:title=" ">
<polygon fill="white" stroke="#bfbfbf" points="1805,-762 1805,-792 1967,-792 1967,-762 1805,-762"/>
<text text-anchor="start" x="1813" y="-780" font-family="Helvetica,sans-Serif" font-size="10.00">array&lt; std::bitset</text>
<text text-anchor="middle" x="1886" y="-769" font-family="Helvetica,sans-Serif" font-size="10.00">&lt; LASTBASE &gt;, LASTSPACE &gt;</text>
</a>
</g>
</g>
<!-- Node53&#45;&gt;Node52 -->
<g id="edge64" class="edge">
<title>Node53&#45;&gt;Node52</title>
<path fill="none" stroke="#9a32cd" stroke-dasharray="5,2" d="M1977.19,-782.13C2029.89,-780.12 2093.9,-768.24 2135,-728 2161.66,-701.9 2127.25,-673 2153,-646 2161.13,-637.48 2171.64,-631.55 2182.79,-627.44"/>
<polygon fill="#9a32cd" stroke="#9a32cd" points="1977.06,-778.64 1967.16,-782.41 1977.25,-785.63 1977.06,-778.64"/>
<text text-anchor="middle" x="2063" y="-795" font-family="Helvetica,sans-Serif" font-size="10.00"> brokenBasesOnSpaces</text>
<text text-anchor="middle" x="2063" y="-784" font-family="Helvetica,sans-Serif" font-size="10.00">basesOnSpaces</text>
</g>
<!-- Node54 -->
<g id="node54" class="node">
<title>Node54</title>
<g id="a_node54"><a xlink:title=" ">
<polygon fill="white" stroke="#bfbfbf" points="1809.5,-701.5 1809.5,-742.5 1962.5,-742.5 1962.5,-701.5 1809.5,-701.5"/>
<text text-anchor="start" x="1817.5" y="-730.5" font-family="Helvetica,sans-Serif" font-size="10.00">array&lt; boost::ptr_vector</text>
<text text-anchor="start" x="1817.5" y="-719.5" font-family="Helvetica,sans-Serif" font-size="10.00">&lt; MoFEM::EntitiesFieldData</text>
<text text-anchor="middle" x="1886" y="-708.5" font-family="Helvetica,sans-Serif" font-size="10.00">::EntData &gt;, MBMAXTYPE &gt;</text>
</a>
</g>
</g>
<!-- Node54&#45;&gt;Node52 -->
<g id="edge65" class="edge">
<title>Node54&#45;&gt;Node52</title>
<path fill="none" stroke="#9a32cd" stroke-dasharray="5,2" d="M1972.86,-716.51C2023.06,-710.12 2085.99,-696.39 2135,-667 2145.54,-660.68 2142.6,-652.56 2153,-646 2165.47,-638.13 2180.21,-632.53 2194.49,-628.56"/>
<polygon fill="#9a32cd" stroke="#9a32cd" points="1972.18,-713.07 1962.67,-717.73 1973.02,-720.02 1972.18,-713.07"/>
<text text-anchor="middle" x="2063" y="-716" font-family="Helvetica,sans-Serif" font-size="10.00"> dataOnEntities</text>
</g>
<!-- Node55 -->
<g id="node55" class="node">
<title>Node55</title>
<g id="a_node55"><a xlink:title=" ">
<polygon fill="white" stroke="#bfbfbf" points="1799,-652 1799,-682 1973,-682 1973,-652 1799,-652"/>
<text text-anchor="start" x="1807" y="-670" font-family="Helvetica,sans-Serif" font-size="10.00">array&lt; std::bitset</text>
<text text-anchor="middle" x="1886" y="-659" font-family="Helvetica,sans-Serif" font-size="10.00">&lt; LASTSPACE &gt;, MBMAXTYPE &gt;</text>
</a>
</g>
</g>
<!-- Node55&#45;&gt;Node52 -->
<g id="edge66" class="edge">
<title>Node55&#45;&gt;Node52</title>
<path fill="none" stroke="#9a32cd" stroke-dasharray="5,2" d="M1983.56,-654.34C2046.2,-646.12 2126.38,-635.61 2182.94,-628.19"/>
<polygon fill="#9a32cd" stroke="#9a32cd" points="1982.73,-650.91 1973.27,-655.69 1983.64,-657.86 1982.73,-650.91"/>
<text text-anchor="middle" x="2063" y="-655" font-family="Helvetica,sans-Serif" font-size="10.00"> spacesOnEntities</text>
</g>
<!-- Node56 -->
<g id="node56" class="node">
<title>Node56</title>
<g id="a_node56"><a xlink:title=" ">
<polygon fill="white" stroke="#bfbfbf" points="1801.5,-603 1801.5,-633 1970.5,-633 1970.5,-603 1801.5,-603"/>
<text text-anchor="start" x="1809.5" y="-621" font-family="Helvetica,sans-Serif" font-size="10.00">array&lt; std::bitset</text>
<text text-anchor="middle" x="1886" y="-610" font-family="Helvetica,sans-Serif" font-size="10.00">&lt; LASTBASE &gt;, MBMAXTYPE &gt;</text>
</a>
</g>
</g>
<!-- Node56&#45;&gt;Node52 -->
<g id="edge67" class="edge">
<title>Node56&#45;&gt;Node52</title>
<path fill="none" stroke="#9a32cd" stroke-dasharray="5,2" d="M1980.84,-618.26C2043.81,-618.43 2125.4,-618.65 2182.77,-618.81"/>
<polygon fill="#9a32cd" stroke="#9a32cd" points="1980.52,-614.76 1970.51,-618.23 1980.5,-621.76 1980.52,-614.76"/>
<text text-anchor="middle" x="2063" y="-621" font-family="Helvetica,sans-Serif" font-size="10.00"> basesOnEntities</text>
</g>
<!-- Node57 -->
<g id="node57" class="node">
<title>Node57</title>
<g id="a_node57"><a xlink:title=" ">
<polygon fill="white" stroke="#bfbfbf" points="1830,-564.5 1830,-583.5 1942,-583.5 1942,-564.5 1830,-564.5"/>
<text text-anchor="middle" x="1886" y="-571.5" font-family="Helvetica,sans-Serif" font-size="10.00">UBlasMatrix&lt; int &gt;</text>
</a>
</g>
</g>
<!-- Node57&#45;&gt;Node52 -->
<g id="edge68" class="edge">
<title>Node57&#45;&gt;Node52</title>
<path fill="none" stroke="#9a32cd" stroke-dasharray="5,2" d="M1952.49,-576.03C2002.67,-578.24 2073.49,-582.79 2135,-592 2163.16,-596.22 2194.57,-603.54 2217.9,-609.49"/>
<polygon fill="#9a32cd" stroke="#9a32cd" points="1952.56,-572.53 1942.43,-575.6 1952.27,-579.52 1952.56,-572.53"/>
<text text-anchor="middle" x="2063" y="-606" font-family="Helvetica,sans-Serif" font-size="10.00"> facesNodesOrder</text>
<text text-anchor="middle" x="2063" y="-595" font-family="Helvetica,sans-Serif" font-size="10.00">facesNodes</text>
</g>
<!-- Node58 -->
<g id="node58" class="node">
<title>Node58</title>
<g id="a_node58"><a xlink:title=" ">
<polygon fill="white" stroke="#bfbfbf" points="1827.5,-526.5 1827.5,-545.5 1944.5,-545.5 1944.5,-526.5 1827.5,-526.5"/>
<text text-anchor="middle" x="1886" y="-533.5" font-family="Helvetica,sans-Serif" font-size="10.00">bitset&lt; LASTBASE &gt;</text>
</a>
</g>
</g>
<!-- Node58&#45;&gt;Node52 -->
<g id="edge69" class="edge">
<title>Node58&#45;&gt;Node52</title>
<path fill="none" stroke="#9a32cd" stroke-dasharray="5,2" d="M1954.82,-537.3C2005.33,-539.72 2075.54,-546.17 2135,-563 2173.62,-573.93 2215.24,-596.52 2237.26,-609.41"/>
<polygon fill="#9a32cd" stroke="#9a32cd" points="1954.81,-533.79 1944.67,-536.85 1954.51,-540.79 1954.81,-533.79"/>
<text text-anchor="middle" x="2063" y="-566" font-family="Helvetica,sans-Serif" font-size="10.00"> bAse</text>
</g>
<!-- Node59 -->
<g id="node59" class="node">
<title>Node59</title>
<g id="a_node59"><a xlink:title=" ">
<polygon fill="white" stroke="#bfbfbf" points="2191.5,-743.5 2191.5,-784.5 2316.5,-784.5 2316.5,-743.5 2191.5,-743.5"/>
<text text-anchor="start" x="2199.5" y="-772.5" font-family="Helvetica,sans-Serif" font-size="10.00">function&lt; int(int order</text>
<text text-anchor="start" x="2199.5" y="-761.5" font-family="Helvetica,sans-Serif" font-size="10.00">_row, int order_col, int</text>
<text text-anchor="middle" x="2254" y="-750.5" font-family="Helvetica,sans-Serif" font-size="10.00"> order_data)&gt;</text>
</a>
</g>
</g>
<!-- Node59&#45;&gt;Node3 -->
<g id="edge70" class="edge">
<title>Node59&#45;&gt;Node3</title>
<path fill="none" stroke="#9a32cd" stroke-dasharray="5,2" d="M2326.6,-771.67C2383.47,-778.44 2464.83,-789.62 2535,-805 2560.06,-810.49 2587.98,-818.86 2608.26,-825.37"/>
<polygon fill="#9a32cd" stroke="#9a32cd" points="2326.96,-768.19 2316.62,-770.5 2326.15,-775.14 2326.96,-768.19"/>
<text text-anchor="middle" x="2454" y="-808" font-family="Helvetica,sans-Serif" font-size="10.00"> getRuleHook</text>
</g>
<!-- Node60 -->
<g id="node60" class="node">
<title>Node60</title>
<g id="a_node60"><a xlink:title=" ">
<polygon fill="white" stroke="#bfbfbf" points="2193,-694 2193,-724 2315,-724 2315,-694 2193,-694"/>
<text text-anchor="start" x="2201" y="-712" font-family="Helvetica,sans-Serif" font-size="10.00">shared_ptr&lt; MoFEM::</text>
<text text-anchor="middle" x="2254" y="-701" font-family="Helvetica,sans-Serif" font-size="10.00">BaseFunction &gt;</text>
</a>
</g>
</g>
<!-- Node60&#45;&gt;Node3 -->
<g id="edge71" class="edge">
<title>Node60&#45;&gt;Node3</title>
<path fill="none" stroke="#9a32cd" stroke-dasharray="5,2" d="M2325.16,-715.21C2395.52,-722.21 2498.51,-734.75 2535,-751 2575.24,-768.92 2612.49,-807.21 2628.61,-825.23"/>
<polygon fill="#9a32cd" stroke="#9a32cd" points="2325.32,-711.71 2315.03,-714.22 2324.64,-718.68 2325.32,-711.71"/>
<text text-anchor="middle" x="2454" y="-765" font-family="Helvetica,sans-Serif" font-size="10.00"> userPolynomialBasePtr</text>
<text text-anchor="middle" x="2454" y="-754" font-family="Helvetica,sans-Serif" font-size="10.00">elementPolynomialBasePtr</text>
</g>
<!-- Node61 -->
<g id="node61" class="node">
<title>Node61</title>
<g id="a_node61"><a xlink:href="classUBlasMatrix_3_01double_01_4.html" target="_top" xlink:title=" ">
<polygon fill="white" stroke="black" points="2188,-655.5 2188,-674.5 2320,-674.5 2320,-655.5 2188,-655.5"/>
<text text-anchor="middle" x="2254" y="-662.5" font-family="Helvetica,sans-Serif" font-size="10.00">UBlasMatrix&lt; double &gt;</text>
</a>
</g>
</g>
<!-- Node61&#45;&gt;Node2 -->
<g id="edge78" class="edge">
<title>Node61&#45;&gt;Node2</title>
<path fill="none" stroke="#9a32cd" stroke-dasharray="5,2" d="M2330.55,-662.94C2387.03,-660.78 2466.06,-656.48 2535,-648 2638.01,-635.34 2756.04,-611.58 2828.04,-596.02"/>
<polygon fill="#9a32cd" stroke="#9a32cd" points="2330.14,-659.45 2320.27,-663.31 2330.39,-666.45 2330.14,-659.45"/>
<text text-anchor="middle" x="2638" y="-670" font-family="Helvetica,sans-Serif" font-size="10.00"> tangentOneAtGaussPts</text>
<text text-anchor="middle" x="2638" y="-659" font-family="Helvetica,sans-Serif" font-size="10.00">tangentTwoAtGaussPts</text>
<text text-anchor="middle" x="2638" y="-648" font-family="Helvetica,sans-Serif" font-size="10.00">normalsAtGaussPts</text>
</g>
<!-- Node61&#45;&gt;Node3 -->
<g id="edge72" class="edge">
<title>Node61&#45;&gt;Node3</title>
<path fill="none" stroke="#9a32cd" stroke-dasharray="5,2" d="M2330.33,-671.27C2410.23,-678.16 2526.19,-688.91 2535,-694 2589.41,-725.44 2622.74,-798.87 2633.33,-825.3"/>
<polygon fill="#9a32cd" stroke="#9a32cd" points="2330.55,-667.78 2320.29,-670.41 2329.96,-674.75 2330.55,-667.78"/>
<text text-anchor="middle" x="2454" y="-708" font-family="Helvetica,sans-Serif" font-size="10.00"> coordsAtGaussPts</text>
<text text-anchor="middle" x="2454" y="-697" font-family="Helvetica,sans-Serif" font-size="10.00">gaussPts</text>
</g>
<!-- Node62 -->
<g id="node62" class="node">
<title>Node62</title>
<g id="a_node62"><a xlink:href="classUBlasVector_3_01double_01_4.html" target="_top" xlink:title=" ">
<polygon fill="white" stroke="black" points="2572.5,-76.5 2572.5,-95.5 2703.5,-95.5 2703.5,-76.5 2572.5,-76.5"/>
<text text-anchor="middle" x="2638" y="-83.5" font-family="Helvetica,sans-Serif" font-size="10.00">UBlasVector&lt; double &gt;</text>
</a>
</g>
</g>
<!-- Node62&#45;&gt;Node2 -->
<g id="edge73" class="edge">
<title>Node62&#45;&gt;Node2</title>
<path fill="none" stroke="#9a32cd" stroke-dasharray="5,2" d="M2675.28,-73.65C2711.59,-63.79 2766.97,-55.93 2802,-85 2878.52,-148.51 2892.46,-489.38 2894.64,-565.79"/>
<polygon fill="#9a32cd" stroke="#9a32cd" points="2674.21,-70.31 2665.58,-76.45 2676.16,-77.04 2674.21,-70.31"/>
<text text-anchor="middle" x="2771.5" y="-121" font-family="Helvetica,sans-Serif" font-size="10.00"> tangentOne</text>
<text text-anchor="middle" x="2771.5" y="-110" font-family="Helvetica,sans-Serif" font-size="10.00">tangentTwo</text>
<text text-anchor="middle" x="2771.5" y="-99" font-family="Helvetica,sans-Serif" font-size="10.00">nOrmal</text>
<text text-anchor="middle" x="2771.5" y="-88" font-family="Helvetica,sans-Serif" font-size="10.00">coords</text>
</g>
<!-- Node63 -->
<g id="node63" class="node">
<title>Node63</title>
<g id="a_node63"><a xlink:title=" ">
<polygon fill="white" stroke="#bfbfbf" points="2837,-0.5 2837,-19.5 2955,-19.5 2955,-0.5 2837,-0.5"/>
<text text-anchor="middle" x="2896" y="-7.5" font-family="Helvetica,sans-Serif" font-size="10.00">array&lt; Range, 3 &gt; &amp;</text>
</a>
</g>
</g>
<!-- Node63&#45;&gt;Node1 -->
<g id="edge79" class="edge">
<title>Node63&#45;&gt;Node1</title>
<path fill="none" stroke="#9a32cd" stroke-dasharray="5,2" d="M2965.26,-9.54C2992.16,-10.96 3023.02,-14.63 3050,-23 3060.91,-26.38 3072.08,-32.78 3080.44,-38.25"/>
<polygon fill="#9a32cd" stroke="#9a32cd" points="2965.3,-6.04 2955.16,-9.1 2964.99,-13.03 2965.3,-6.04"/>
<text text-anchor="middle" x="3020" y="-26" font-family="Helvetica,sans-Serif" font-size="10.00"> edgeBlocks</text>
</g>
</g>
</svg>
