<?xml version="1.0" encoding="UTF-8" standalone="no"?>
<!DOCTYPE svg PUBLIC "-//W3C//DTD SVG 1.1//EN"
 "http://www.w3.org/Graphics/SVG/1.1/DTD/svg11.dtd">
<!-- Generated by graphviz version 2.43.0 (0)
 -->
<!-- Title: ThermalElement::OpConvectionLhs Pages: 1 -->
<svg width="3539pt" height="1497pt"
 viewBox="0.00 0.00 3539.00 1497.00" xmlns="http://www.w3.org/2000/svg" xmlns:xlink="http://www.w3.org/1999/xlink">
<g id="graph0" class="graph" transform="scale(1 1) rotate(0) translate(4 1493)">
<title>ThermalElement::OpConvectionLhs</title>
<polygon fill="white" stroke="transparent" points="-4,4 -4,-1493 3535,-1493 3535,4 -4,4"/>
<!-- Node1 -->
<g id="node1" class="node">
<title>Node1</title>
<g id="a_node1"><a xlink:title=" ">
<polygon fill="#bfbfbf" stroke="black" points="3343,-76.5 3343,-95.5 3531,-95.5 3531,-76.5 3343,-76.5"/>
<text text-anchor="middle" x="3437" y="-83.5" font-family="Helvetica,sans-Serif" font-size="10.00">ThermalElement::OpConvectionLhs</text>
</a>
</g>
</g>
<!-- Node2 -->
<g id="node2" class="node">
<title>Node2</title>
<g id="a_node2"><a xlink:href="structMoFEM_1_1FaceElementForcesAndSourcesCore_1_1UserDataOperator.html" target="_top" xlink:title="default operator for TRI element">
<polygon fill="white" stroke="black" points="3081,-326 3081,-356 3272,-356 3272,-326 3081,-326"/>
<text text-anchor="start" x="3089" y="-344" font-family="Helvetica,sans-Serif" font-size="10.00">MoFEM::FaceElementForces</text>
<text text-anchor="middle" x="3176.5" y="-333" font-family="Helvetica,sans-Serif" font-size="10.00">AndSourcesCore::UserDataOperator</text>
</a>
</g>
</g>
<!-- Node2&#45;&gt;Node1 -->
<g id="edge1" class="edge">
<title>Node2&#45;&gt;Node1</title>
<path fill="none" stroke="midnightblue" d="M3200.28,-318.53C3254.42,-265.13 3389.04,-132.32 3426.3,-95.56"/>
<polygon fill="midnightblue" stroke="midnightblue" points="3197.56,-316.3 3192.9,-325.81 3202.47,-321.28 3197.56,-316.3"/>
</g>
<!-- Node3 -->
<g id="node3" class="node">
<title>Node3</title>
<g id="a_node3"><a xlink:href="structMoFEM_1_1ForcesAndSourcesCore_1_1UserDataOperator.html" target="_top" xlink:title=" ">
<polygon fill="white" stroke="black" points="2849,-482 2849,-512 3019,-512 3019,-482 2849,-482"/>
<text text-anchor="start" x="2857" y="-500" font-family="Helvetica,sans-Serif" font-size="10.00">MoFEM::ForcesAndSourcesCore</text>
<text text-anchor="middle" x="2934" y="-489" font-family="Helvetica,sans-Serif" font-size="10.00">::UserDataOperator</text>
</a>
</g>
</g>
<!-- Node3&#45;&gt;Node2 -->
<g id="edge2" class="edge">
<title>Node3&#45;&gt;Node2</title>
<path fill="none" stroke="midnightblue" d="M2967.15,-476.14C3016.33,-444.25 3109.06,-384.09 3152.26,-356.07"/>
<polygon fill="midnightblue" stroke="midnightblue" points="2964.98,-473.38 2958.5,-481.76 2968.79,-479.25 2964.98,-473.38"/>
</g>
<!-- Node4 -->
<g id="node4" class="node">
<title>Node4</title>
<g id="a_node4"><a xlink:href="structMoFEM_1_1DataOperator.html" target="_top" xlink:title="base operator to do operations at Gauss Pt. level">
<polygon fill="white" stroke="black" points="2585.5,-340.5 2585.5,-359.5 2710.5,-359.5 2710.5,-340.5 2585.5,-340.5"/>
<text text-anchor="middle" x="2648" y="-347.5" font-family="Helvetica,sans-Serif" font-size="10.00">MoFEM::DataOperator</text>
</a>
</g>
</g>
<!-- Node4&#45;&gt;Node3 -->
<g id="edge3" class="edge">
<title>Node4&#45;&gt;Node3</title>
<path fill="none" stroke="midnightblue" d="M2676.59,-364.28C2730.31,-392.08 2848.51,-453.27 2903.63,-481.8"/>
<polygon fill="midnightblue" stroke="midnightblue" points="2678.12,-361.13 2667.63,-359.65 2674.91,-367.35 2678.12,-361.13"/>
</g>
<!-- Node5 -->
<g id="node5" class="node">
<title>Node5</title>
<g id="a_node5"><a xlink:title=" ">
<polygon fill="white" stroke="#bfbfbf" points="2160,-324 2160,-376 2352,-376 2352,-324 2160,-324"/>
<text text-anchor="start" x="2168" y="-364" font-family="Helvetica,sans-Serif" font-size="10.00">function&lt; MoFEMErrorCode</text>
<text text-anchor="start" x="2168" y="-353" font-family="Helvetica,sans-Serif" font-size="10.00">(DataOperator *op_ptr,</text>
<text text-anchor="start" x="2168" y="-342" font-family="Helvetica,sans-Serif" font-size="10.00"> int side, EntityType type,</text>
<text text-anchor="middle" x="2256" y="-331" font-family="Helvetica,sans-Serif" font-size="10.00"> EntitiesFieldData::EntData &amp;data)&gt;</text>
</a>
</g>
</g>
<!-- Node5&#45;&gt;Node4 -->
<g id="edge4" class="edge">
<title>Node5&#45;&gt;Node4</title>
<path fill="none" stroke="#9a32cd" stroke-dasharray="5,2" d="M2362.78,-350C2434.11,-350 2525.75,-350 2585.4,-350"/>
<polygon fill="#9a32cd" stroke="#9a32cd" points="2362.4,-346.5 2352.4,-350 2362.4,-353.5 2362.4,-346.5"/>
<text text-anchor="middle" x="2458" y="-353" font-family="Helvetica,sans-Serif" font-size="10.00"> doWorkRhsHook</text>
</g>
<!-- Node6 -->
<g id="node6" class="node">
<title>Node6</title>
<g id="a_node6"><a xlink:href="classbool.html" target="_top" xlink:title=" ">
<polygon fill="white" stroke="black" points="2237,-240.5 2237,-259.5 2275,-259.5 2275,-240.5 2237,-240.5"/>
<text text-anchor="middle" x="2256" y="-247.5" font-family="Helvetica,sans-Serif" font-size="10.00">bool</text>
</a>
</g>
</g>
<!-- Node6&#45;&gt;Node1 -->
<g id="edge87" class="edge">
<title>Node6&#45;&gt;Node1</title>
<path fill="none" stroke="#9a32cd" stroke-dasharray="5,2" d="M2285.47,-252.03C2307.98,-252.07 2338.87,-248.43 2359,-231 2377.8,-214.71 2357.81,-193.83 2377,-178 2470.43,-100.92 2525.88,-141 2647,-141 2647,-141 2647,-141 3177.5,-141 3263.76,-141 3362.74,-111.34 3409.23,-95.58"/>
<polygon fill="#9a32cd" stroke="#9a32cd" points="2285.26,-248.52 2275.17,-251.76 2285.08,-255.52 2285.26,-248.52"/>
<text text-anchor="middle" x="2934" y="-155" font-family="Helvetica,sans-Serif" font-size="10.00"> useTsB</text>
<text text-anchor="middle" x="2934" y="-144" font-family="Helvetica,sans-Serif" font-size="10.00">hoGeometry</text>
</g>
<!-- Node6&#45;&gt;Node4 -->
<g id="edge5" class="edge">
<title>Node6&#45;&gt;Node4</title>
<path fill="none" stroke="#9a32cd" stroke-dasharray="5,2" d="M2285.38,-246.74C2337.5,-241.86 2451.17,-236.4 2539,-269 2581.19,-284.66 2620.84,-322.39 2638.04,-340.28"/>
<polygon fill="#9a32cd" stroke="#9a32cd" points="2284.82,-243.28 2275.22,-247.76 2285.52,-250.24 2284.82,-243.28"/>
<text text-anchor="middle" x="2458" y="-338" font-family="Helvetica,sans-Serif" font-size="10.00"> doTris</text>
<text text-anchor="middle" x="2458" y="-327" font-family="Helvetica,sans-Serif" font-size="10.00">doQuads</text>
<text text-anchor="middle" x="2458" y="-316" font-family="Helvetica,sans-Serif" font-size="10.00">sYmm</text>
<text text-anchor="middle" x="2458" y="-305" font-family="Helvetica,sans-Serif" font-size="10.00">doPrisms</text>
<text text-anchor="middle" x="2458" y="-294" font-family="Helvetica,sans-Serif" font-size="10.00">doTets</text>
<text text-anchor="middle" x="2458" y="-283" font-family="Helvetica,sans-Serif" font-size="10.00">doVertices</text>
<text text-anchor="middle" x="2458" y="-272" font-family="Helvetica,sans-Serif" font-size="10.00">doEdges</text>
</g>
<!-- Node7 -->
<g id="node7" class="node">
<title>Node7</title>
<g id="a_node7"><a xlink:title=" ">
<polygon fill="white" stroke="#bfbfbf" points="2153,-136.5 2153,-221.5 2359,-221.5 2359,-136.5 2153,-136.5"/>
<text text-anchor="start" x="2161" y="-209.5" font-family="Helvetica,sans-Serif" font-size="10.00">function&lt; MoFEMErrorCode</text>
<text text-anchor="start" x="2161" y="-198.5" font-family="Helvetica,sans-Serif" font-size="10.00">(DataOperator *op_ptr,</text>
<text text-anchor="start" x="2161" y="-187.5" font-family="Helvetica,sans-Serif" font-size="10.00"> int row_side, int col_side,</text>
<text text-anchor="start" x="2161" y="-176.5" font-family="Helvetica,sans-Serif" font-size="10.00"> EntityType row_type, EntityType</text>
<text text-anchor="start" x="2161" y="-165.5" font-family="Helvetica,sans-Serif" font-size="10.00"> col_type, EntitiesFieldData::EntData</text>
<text text-anchor="start" x="2161" y="-154.5" font-family="Helvetica,sans-Serif" font-size="10.00"> &amp;row_data, EntitiesFieldData::EntData</text>
<text text-anchor="middle" x="2256" y="-143.5" font-family="Helvetica,sans-Serif" font-size="10.00"> &amp;col_data)&gt;</text>
</a>
</g>
</g>
<!-- Node7&#45;&gt;Node4 -->
<g id="edge6" class="edge">
<title>Node7&#45;&gt;Node4</title>
<path fill="none" stroke="#9a32cd" stroke-dasharray="5,2" d="M2369.01,-181.37C2423.22,-186.64 2487.53,-199.27 2539,-228 2589.39,-256.13 2628.05,-316.9 2641.68,-340.43"/>
<polygon fill="#9a32cd" stroke="#9a32cd" points="2369.28,-177.88 2359.01,-180.47 2368.65,-184.85 2369.28,-177.88"/>
<text text-anchor="middle" x="2458" y="-231" font-family="Helvetica,sans-Serif" font-size="10.00"> doWorkLhsHook</text>
</g>
<!-- Node8 -->
<g id="node8" class="node">
<title>Node8</title>
<g id="a_node8"><a xlink:title=" ">
<polygon fill="white" stroke="#bfbfbf" points="2179,-408.5 2179,-427.5 2333,-427.5 2333,-408.5 2179,-408.5"/>
<text text-anchor="middle" x="2256" y="-415.5" font-family="Helvetica,sans-Serif" font-size="10.00">array&lt; bool, MBMAXTYPE &gt;</text>
</a>
</g>
</g>
<!-- Node8&#45;&gt;Node4 -->
<g id="edge7" class="edge">
<title>Node8&#45;&gt;Node4</title>
<path fill="none" stroke="#9a32cd" stroke-dasharray="5,2" d="M2343.47,-418.47C2399.87,-417.02 2474.68,-411.76 2539,-396 2572.25,-387.85 2608.37,-370.59 2629.28,-359.68"/>
<polygon fill="#9a32cd" stroke="#9a32cd" points="2343.08,-414.98 2333.16,-418.7 2343.24,-421.98 2343.08,-414.98"/>
<text text-anchor="middle" x="2458" y="-420" font-family="Helvetica,sans-Serif" font-size="10.00"> doEntities</text>
</g>
<!-- Node9 -->
<g id="node9" class="node">
<title>Node9</title>
<g id="a_node9"><a xlink:title=" ">
<polygon fill="white" stroke="#bfbfbf" points="2613.5,-525.5 2613.5,-544.5 2682.5,-544.5 2682.5,-525.5 2613.5,-525.5"/>
<text text-anchor="middle" x="2648" y="-532.5" font-family="Helvetica,sans-Serif" font-size="10.00">FieldSpace</text>
</a>
</g>
</g>
<!-- Node9&#45;&gt;Node3 -->
<g id="edge8" class="edge">
<title>Node9&#45;&gt;Node3</title>
<path fill="none" stroke="#9a32cd" stroke-dasharray="5,2" d="M2692.97,-529.7C2729.85,-525.19 2783.9,-518.44 2831,-512 2836.85,-511.2 2842.89,-510.36 2848.97,-509.5"/>
<polygon fill="#9a32cd" stroke="#9a32cd" points="2692.07,-526.28 2682.57,-530.96 2692.92,-533.23 2692.07,-526.28"/>
<text text-anchor="middle" x="2794" y="-524" font-family="Helvetica,sans-Serif" font-size="10.00"> sPace</text>
</g>
<!-- Node10 -->
<g id="node10" class="node">
<title>Node10</title>
<g id="a_node10"><a xlink:title=" ">
<polygon fill="white" stroke="#bfbfbf" points="1122.5,-1315.5 1122.5,-1334.5 1160.5,-1334.5 1160.5,-1315.5 1122.5,-1315.5"/>
<text text-anchor="middle" x="1141.5" y="-1322.5" font-family="Helvetica,sans-Serif" font-size="10.00">char</text>
</a>
</g>
</g>
<!-- Node10&#45;&gt;Node3 -->
<g id="edge9" class="edge">
<title>Node10&#45;&gt;Node3</title>
<path fill="none" stroke="#9a32cd" stroke-dasharray="5,2" d="M1170.81,-1326.74C1230.94,-1330.28 1375.87,-1338 1497.5,-1338 1497.5,-1338 1497.5,-1338 2649,-1338 2830.46,-1338 2918.4,-626.3 2931.32,-512.32"/>
<polygon fill="#9a32cd" stroke="#9a32cd" points="1170.79,-1323.23 1160.59,-1326.13 1170.37,-1330.22 1170.79,-1323.23"/>
<text text-anchor="middle" x="2063" y="-1341" font-family="Helvetica,sans-Serif" font-size="10.00"> opType</text>
</g>
<!-- Node38 -->
<g id="node38" class="node">
<title>Node38</title>
<g id="a_node38"><a xlink:href="structMoFEM_1_1Problem.html" target="_top" xlink:title="keeps basic data about problem">
<polygon fill="white" stroke="black" points="1449,-1062.5 1449,-1081.5 1548,-1081.5 1548,-1062.5 1449,-1062.5"/>
<text text-anchor="middle" x="1498.5" y="-1069.5" font-family="Helvetica,sans-Serif" font-size="10.00">MoFEM::Problem</text>
</a>
</g>
</g>
<!-- Node10&#45;&gt;Node38 -->
<g id="edge53" class="edge">
<title>Node10&#45;&gt;Node38</title>
<path fill="none" stroke="#9a32cd" stroke-dasharray="5,2" d="M1171.11,-1321.81C1235.71,-1314.51 1387.98,-1296.68 1397,-1290 1469.66,-1236.16 1491.35,-1116.96 1496.27,-1081.89"/>
<polygon fill="#9a32cd" stroke="#9a32cd" points="1170.37,-1318.37 1160.82,-1322.97 1171.15,-1325.33 1170.37,-1318.37"/>
<text text-anchor="middle" x="1329" y="-1313" font-family="Helvetica,sans-Serif" font-size="10.00"> tagName</text>
</g>
<!-- Node11 -->
<g id="node11" class="node">
<title>Node11</title>
<g id="a_node11"><a xlink:href="structMoFEM_1_1ForcesAndSourcesCore.html" target="_top" xlink:title="structure to get information form mofem into EntitiesFieldData">
<polygon fill="white" stroke="black" points="2563,-647.5 2563,-666.5 2733,-666.5 2733,-647.5 2563,-647.5"/>
<text text-anchor="middle" x="2648" y="-654.5" font-family="Helvetica,sans-Serif" font-size="10.00">MoFEM::ForcesAndSourcesCore</text>
</a>
</g>
</g>
<!-- Node11&#45;&gt;Node3 -->
<g id="edge10" class="edge">
<title>Node11&#45;&gt;Node3</title>
<path fill="none" stroke="#9a32cd" stroke-dasharray="5,2" d="M2674.8,-642.46C2728.49,-612.22 2851.74,-542.78 2906.24,-512.07"/>
<polygon fill="#9a32cd" stroke="#9a32cd" points="2672.91,-639.51 2665.91,-647.47 2676.35,-645.61 2672.91,-639.51"/>
<text text-anchor="middle" x="2794" y="-599" font-family="Helvetica,sans-Serif" font-size="10.00"> ptrFE</text>
</g>
<!-- Node11&#45;&gt;Node11 -->
<g id="edge68" class="edge">
<title>Node11&#45;&gt;Node11</title>
<path fill="none" stroke="#9a32cd" stroke-dasharray="5,2" d="M2620.75,-675.65C2621.89,-680.94 2630.97,-685 2648,-685 2673.95,-685 2681.45,-675.57 2670.5,-666.76"/>
<polygon fill="#9a32cd" stroke="#9a32cd" points="2623.88,-677.23 2625.5,-666.76 2617.7,-673.93 2623.88,-677.23"/>
<text text-anchor="middle" x="2648" y="-699" font-family="Helvetica,sans-Serif" font-size="10.00"> sidePtrFE</text>
<text text-anchor="middle" x="2648" y="-688" font-family="Helvetica,sans-Serif" font-size="10.00">refinePtrFE</text>
</g>
<!-- Node12 -->
<g id="node12" class="node">
<title>Node12</title>
<g id="a_node12"><a xlink:href="structMoFEM_1_1FEMethod.html" target="_top" xlink:title="structure for User Loop Methods on finite elements">
<polygon fill="white" stroke="black" points="2202.5,-588.5 2202.5,-607.5 2309.5,-607.5 2309.5,-588.5 2202.5,-588.5"/>
<text text-anchor="middle" x="2256" y="-595.5" font-family="Helvetica,sans-Serif" font-size="10.00">MoFEM::FEMethod</text>
</a>
</g>
</g>
<!-- Node12&#45;&gt;Node11 -->
<g id="edge11" class="edge">
<title>Node12&#45;&gt;Node11</title>
<path fill="none" stroke="midnightblue" d="M2319.66,-600.97C2377.12,-604.47 2464.36,-611.7 2539,-626 2566.59,-631.28 2597.31,-640.43 2618.91,-647.43"/>
<polygon fill="midnightblue" stroke="midnightblue" points="2319.83,-597.48 2309.64,-600.38 2319.42,-604.46 2319.83,-597.48"/>
</g>
<!-- Node13 -->
<g id="node13" class="node">
<title>Node13</title>
<g id="a_node13"><a xlink:href="structMoFEM_1_1BasicMethod.html" target="_top" xlink:title="Data structure to exchange data between mofem and User Loop Methods.">
<polygon fill="white" stroke="black" points="1825,-698.5 1825,-717.5 1947,-717.5 1947,-698.5 1825,-698.5"/>
<text text-anchor="middle" x="1886" y="-705.5" font-family="Helvetica,sans-Serif" font-size="10.00">MoFEM::BasicMethod</text>
</a>
</g>
</g>
<!-- Node13&#45;&gt;Node12 -->
<g id="edge12" class="edge">
<title>Node13&#45;&gt;Node12</title>
<path fill="none" stroke="midnightblue" d="M1955.79,-696.45C2007.59,-685.69 2079,-666.32 2135,-634 2144.53,-628.5 2143.19,-621.99 2153,-617 2168.09,-609.32 2185.85,-604.72 2202.29,-601.97"/>
<polygon fill="midnightblue" stroke="midnightblue" points="1954.81,-693.08 1945.71,-698.49 1956.2,-699.94 1954.81,-693.08"/>
</g>
<!-- Node14 -->
<g id="node14" class="node">
<title>Node14</title>
<g id="a_node14"><a xlink:href="structMoFEM_1_1KspMethod.html" target="_top" xlink:title="data structure for ksp (linear solver) context">
<polygon fill="white" stroke="black" points="1442,-527.5 1442,-546.5 1555,-546.5 1555,-527.5 1442,-527.5"/>
<text text-anchor="middle" x="1498.5" y="-534.5" font-family="Helvetica,sans-Serif" font-size="10.00">MoFEM::KspMethod</text>
</a>
</g>
</g>
<!-- Node14&#45;&gt;Node13 -->
<g id="edge13" class="edge">
<title>Node14&#45;&gt;Node13</title>
<path fill="none" stroke="midnightblue" d="M1530.51,-550.76C1606.14,-584.3 1798.6,-669.68 1863.36,-698.4"/>
<polygon fill="midnightblue" stroke="midnightblue" points="1531.61,-547.42 1521.05,-546.56 1528.77,-553.81 1531.61,-547.42"/>
</g>
<!-- Node15 -->
<g id="node15" class="node">
<title>Node15</title>
<g id="a_node15"><a xlink:href="structMoFEM_1_1PetscData.html" target="_top" xlink:title=" ">
<polygon fill="white" stroke="black" points="1087.5,-346.5 1087.5,-365.5 1195.5,-365.5 1195.5,-346.5 1087.5,-346.5"/>
<text text-anchor="middle" x="1141.5" y="-353.5" font-family="Helvetica,sans-Serif" font-size="10.00">MoFEM::PetscData</text>
</a>
</g>
</g>
<!-- Node15&#45;&gt;Node14 -->
<g id="edge14" class="edge">
<title>Node15&#45;&gt;Node14</title>
<path fill="none" stroke="midnightblue" d="M1205.57,-365.22C1272.31,-376.3 1371.45,-396.95 1397,-425 1425.35,-456.12 1385.76,-487.71 1415,-518 1422.25,-525.51 1431.82,-530.31 1441.87,-533.34"/>
<polygon fill="midnightblue" stroke="midnightblue" points="1206,-361.75 1195.57,-363.59 1204.87,-368.66 1206,-361.75"/>
</g>
<!-- Node25 -->
<g id="node25" class="node">
<title>Node25</title>
<g id="a_node25"><a xlink:href="structMoFEM_1_1SnesMethod.html" target="_top" xlink:title="data structure for snes (nonlinear solver) context">
<polygon fill="white" stroke="black" points="1439,-660.5 1439,-679.5 1558,-679.5 1558,-660.5 1439,-660.5"/>
<text text-anchor="middle" x="1498.5" y="-667.5" font-family="Helvetica,sans-Serif" font-size="10.00">MoFEM::SnesMethod</text>
</a>
</g>
</g>
<!-- Node15&#45;&gt;Node25 -->
<g id="edge27" class="edge">
<title>Node15&#45;&gt;Node25</title>
<path fill="none" stroke="darkgreen" d="M1205.26,-362.41C1218.69,-366.02 1232.1,-371.56 1243,-380 1256.52,-390.47 1249.51,-401.33 1261,-414 1309.69,-467.69 1352.58,-446.73 1397,-504 1411.99,-523.32 1403.71,-534.31 1415,-556 1436.77,-597.83 1472.6,-641.38 1488.92,-660.29"/>
<polygon fill="darkgreen" stroke="darkgreen" points="1206.04,-359 1195.51,-360.1 1204.43,-365.81 1206.04,-359"/>
</g>
<!-- Node28 -->
<g id="node28" class="node">
<title>Node28</title>
<g id="a_node28"><a xlink:href="structMoFEM_1_1TSMethod.html" target="_top" xlink:title="data structure for TS (time stepping) context">
<polygon fill="white" stroke="black" points="1445,-261.5 1445,-280.5 1552,-280.5 1552,-261.5 1445,-261.5"/>
<text text-anchor="middle" x="1498.5" y="-268.5" font-family="Helvetica,sans-Serif" font-size="10.00">MoFEM::TSMethod</text>
</a>
</g>
</g>
<!-- Node15&#45;&gt;Node28 -->
<g id="edge33" class="edge">
<title>Node15&#45;&gt;Node28</title>
<path fill="none" stroke="darkgreen" d="M1206.01,-362.06C1258.67,-364.86 1334.71,-363.69 1397,-342 1434.93,-328.8 1471.35,-296.69 1488.02,-280.57"/>
<polygon fill="darkgreen" stroke="darkgreen" points="1206,-358.56 1195.81,-361.46 1205.58,-365.55 1206,-358.56"/>
</g>
<!-- Node16 -->
<g id="node16" class="node">
<title>Node16</title>
<g id="a_node16"><a xlink:href="structMoFEM_1_1UnknownInterface.html" target="_top" xlink:title="base class for all interface classes">
<polygon fill="white" stroke="black" points="735,-1331.5 735,-1350.5 883,-1350.5 883,-1331.5 735,-1331.5"/>
<text text-anchor="middle" x="809" y="-1338.5" font-family="Helvetica,sans-Serif" font-size="10.00">MoFEM::UnknownInterface</text>
</a>
</g>
</g>
<!-- Node16&#45;&gt;Node15 -->
<g id="edge15" class="edge">
<title>Node16&#45;&gt;Node15</title>
<path fill="none" stroke="midnightblue" d="M814.54,-1321.42C846.04,-1185.59 1031.12,-388.87 1040,-380 1052.5,-367.51 1070.26,-361.08 1087.38,-357.89"/>
<polygon fill="midnightblue" stroke="midnightblue" points="811.1,-1320.74 812.25,-1331.27 817.92,-1322.32 811.1,-1320.74"/>
</g>
<!-- Node56 -->
<g id="node56" class="node">
<title>Node56</title>
<g id="a_node56"><a xlink:href="structMoFEM_1_1CoreInterface.html" target="_top" xlink:title="Interface.">
<polygon fill="white" stroke="black" points="1079,-1353.5 1079,-1372.5 1204,-1372.5 1204,-1353.5 1079,-1353.5"/>
<text text-anchor="middle" x="1141.5" y="-1360.5" font-family="Helvetica,sans-Serif" font-size="10.00">MoFEM::CoreInterface</text>
</a>
</g>
</g>
<!-- Node16&#45;&gt;Node56 -->
<g id="edge67" class="edge">
<title>Node16&#45;&gt;Node56</title>
<path fill="none" stroke="midnightblue" d="M893.54,-1346.56C951.26,-1350.4 1026.75,-1355.43 1079,-1358.91"/>
<polygon fill="midnightblue" stroke="midnightblue" points="893.56,-1343.05 883.35,-1345.88 893.09,-1350.04 893.56,-1343.05"/>
</g>
<!-- Node17 -->
<g id="node17" class="node">
<title>Node17</title>
<g id="a_node17"><a xlink:title=" ">
<polygon fill="white" stroke="#bfbfbf" points="386,-1309.5 386,-1372.5 627,-1372.5 627,-1309.5 386,-1309.5"/>
<text text-anchor="start" x="394" y="-1360.5" font-family="Helvetica,sans-Serif" font-size="10.00">multi_index_container</text>
<text text-anchor="start" x="394" y="-1349.5" font-family="Helvetica,sans-Serif" font-size="10.00">&lt; UIdTypeMap, indexed</text>
<text text-anchor="start" x="394" y="-1338.5" font-family="Helvetica,sans-Serif" font-size="10.00">_by&lt; hashed_unique&lt; member</text>
<text text-anchor="start" x="394" y="-1327.5" font-family="Helvetica,sans-Serif" font-size="10.00">&lt; UIdTypeMap, boost::typeindex</text>
<text text-anchor="middle" x="506.5" y="-1316.5" font-family="Helvetica,sans-Serif" font-size="10.00">::type_index, &amp;UIdTypeMap::classIdx &gt; &gt; &gt; &gt;</text>
</a>
</g>
</g>
<!-- Node17&#45;&gt;Node16 -->
<g id="edge16" class="edge">
<title>Node17&#45;&gt;Node16</title>
<path fill="none" stroke="#9a32cd" stroke-dasharray="5,2" d="M637.41,-1341C670.69,-1341 705.33,-1341 734.62,-1341"/>
<polygon fill="#9a32cd" stroke="#9a32cd" points="637.13,-1337.5 627.13,-1341 637.13,-1344.5 637.13,-1337.5"/>
<text text-anchor="middle" x="681" y="-1344" font-family="Helvetica,sans-Serif" font-size="10.00"> iFaceTypeMap</text>
</g>
<!-- Node18 -->
<g id="node18" class="node">
<title>Node18</title>
<g id="a_node18"><a xlink:title=" ">
<polygon fill="white" stroke="#bfbfbf" points="0,-1361.5 0,-1380.5 125,-1380.5 125,-1361.5 0,-1361.5"/>
<text text-anchor="middle" x="62.5" y="-1368.5" font-family="Helvetica,sans-Serif" font-size="10.00">multi_index_container</text>
</a>
</g>
</g>
<!-- Node18&#45;&gt;Node13 -->
<g id="edge40" class="edge">
<title>Node18&#45;&gt;Node13</title>
<path fill="none" stroke="#9a32cd" stroke-dasharray="5,2" d="M114.58,-1382.53C123.99,-1384.3 133.76,-1385.9 143,-1387 303.1,-1406.08 344.27,-1401 505.5,-1401 505.5,-1401 505.5,-1401 1142.5,-1401 1467.84,-1401 1625.47,-1328.75 1781,-1043 1813.14,-983.95 1759.28,-795.25 1799,-741 1807.12,-729.9 1819.5,-722.54 1832.34,-717.65"/>
<polygon fill="#9a32cd" stroke="#9a32cd" points="115.05,-1379.06 104.56,-1380.57 113.7,-1385.93 115.05,-1379.06"/>
<text text-anchor="middle" x="961.5" y="-1481" font-family="Helvetica,sans-Serif" font-size="10.00"> adjacenciesPtr</text>
<text text-anchor="middle" x="961.5" y="-1470" font-family="Helvetica,sans-Serif" font-size="10.00">refinedEntitiesPtr</text>
<text text-anchor="middle" x="961.5" y="-1459" font-family="Helvetica,sans-Serif" font-size="10.00">finiteElementsEntitiesPtr</text>
<text text-anchor="middle" x="961.5" y="-1448" font-family="Helvetica,sans-Serif" font-size="10.00">dofsPtr</text>
<text text-anchor="middle" x="961.5" y="-1437" font-family="Helvetica,sans-Serif" font-size="10.00">entitiesPtr</text>
<text text-anchor="middle" x="961.5" y="-1426" font-family="Helvetica,sans-Serif" font-size="10.00">finiteElementsPtr</text>
<text text-anchor="middle" x="961.5" y="-1415" font-family="Helvetica,sans-Serif" font-size="10.00">refinedFiniteElementsPtr</text>
<text text-anchor="middle" x="961.5" y="-1404" font-family="Helvetica,sans-Serif" font-size="10.00">fieldsPtr</text>
</g>
<!-- Node18&#45;&gt;Node17 -->
<g id="edge17" class="edge">
<title>Node18&#45;&gt;Node17</title>
<path fill="none" stroke="orange" stroke-dasharray="5,2" d="M94.05,-1357.55C108.58,-1351.86 126.37,-1345.89 143,-1343 223.14,-1329.07 314.76,-1328.7 385.84,-1331.74"/>
<polygon fill="orange" stroke="orange" points="92.52,-1354.4 84.58,-1361.4 95.16,-1360.88 92.52,-1354.4"/>
<text text-anchor="start" x="143" y="-1379" font-family="Helvetica,sans-Serif" font-size="10.00"> &lt; UIdTypeMap, indexed</text>
<text text-anchor="start" x="143" y="-1368" font-family="Helvetica,sans-Serif" font-size="10.00">_by&lt; hashed_unique&lt; member</text>
<text text-anchor="start" x="143" y="-1357" font-family="Helvetica,sans-Serif" font-size="10.00">&lt; UIdTypeMap, boost::typeindex</text>
<text text-anchor="middle" x="255.5" y="-1346" font-family="Helvetica,sans-Serif" font-size="10.00">::type_index, &amp;UIdTypeMap::classIdx &gt; &gt; &gt; &gt;</text>
</g>
<!-- Node19 -->
<g id="node19" class="node">
<title>Node19</title>
<g id="a_node19"><a xlink:title=" ">
<polygon fill="white" stroke="#bfbfbf" points="738.5,-174.5 738.5,-193.5 879.5,-193.5 879.5,-174.5 738.5,-174.5"/>
<text text-anchor="middle" x="809" y="-181.5" font-family="Helvetica,sans-Serif" font-size="10.00">static constexpr Switches</text>
</a>
</g>
</g>
<!-- Node19&#45;&gt;Node15 -->
<g id="edge18" class="edge">
<title>Node19&#45;&gt;Node15</title>
<path fill="none" stroke="#9a32cd" stroke-dasharray="5,2" d="M889.75,-175.15C934.56,-174.82 988.12,-182.93 1022,-217 1060.03,-255.24 1002.6,-298.15 1040,-337 1052.25,-349.73 1070.16,-355.43 1087.48,-357.65"/>
<polygon fill="#9a32cd" stroke="#9a32cd" points="889.67,-171.65 879.74,-175.36 889.82,-178.65 889.67,-171.65"/>
<text text-anchor="middle" x="961.5" y="-297" font-family="Helvetica,sans-Serif" font-size="10.00"> CtxSetX_TT</text>
<text text-anchor="middle" x="961.5" y="-286" font-family="Helvetica,sans-Serif" font-size="10.00">CtxSetX_T</text>
<text text-anchor="middle" x="961.5" y="-275" font-family="Helvetica,sans-Serif" font-size="10.00">CtxSetA</text>
<text text-anchor="middle" x="961.5" y="-264" font-family="Helvetica,sans-Serif" font-size="10.00">CtxSetB</text>
<text text-anchor="middle" x="961.5" y="-253" font-family="Helvetica,sans-Serif" font-size="10.00">CtxSetTime</text>
<text text-anchor="middle" x="961.5" y="-242" font-family="Helvetica,sans-Serif" font-size="10.00">CtxSetNone</text>
<text text-anchor="middle" x="961.5" y="-231" font-family="Helvetica,sans-Serif" font-size="10.00">CtxSetF</text>
<text text-anchor="middle" x="961.5" y="-220" font-family="Helvetica,sans-Serif" font-size="10.00">CtxSetX</text>
</g>
<!-- Node20 -->
<g id="node20" class="node">
<title>Node20</title>
<g id="a_node20"><a xlink:title=" ">
<polygon fill="white" stroke="#bfbfbf" points="791.5,-439.5 791.5,-458.5 826.5,-458.5 826.5,-439.5 791.5,-439.5"/>
<text text-anchor="middle" x="809" y="-446.5" font-family="Helvetica,sans-Serif" font-size="10.00">Mat</text>
</a>
</g>
</g>
<!-- Node20&#45;&gt;Node1 -->
<g id="edge88" class="edge">
<title>Node20&#45;&gt;Node1</title>
<path fill="none" stroke="#9a32cd" stroke-dasharray="5,2" d="M834.21,-433.46C850.45,-421.78 870.98,-404.34 883,-384 901.32,-353 875.98,-330.9 901,-305 939.65,-264.99 985.76,-315.2 1022,-273 1046.46,-244.51 1012.91,-131 1040,-105 1132.54,-16.17 1199.72,-86 1328,-86 1328,-86 1328,-86 3177.5,-86 3232.36,-86 3293.78,-86 3342.97,-86"/>
<polygon fill="#9a32cd" stroke="#9a32cd" points="831.95,-430.77 825.72,-439.34 835.93,-436.53 831.95,-430.77"/>
<text text-anchor="middle" x="2256" y="-89" font-family="Helvetica,sans-Serif" font-size="10.00"> A</text>
</g>
<!-- Node20&#45;&gt;Node14 -->
<g id="edge24" class="edge">
<title>Node20&#45;&gt;Node14</title>
<path fill="none" stroke="#9a32cd" stroke-dasharray="5,2" d="M833.04,-463.91C873.14,-488.86 959.22,-538.13 1040,-556 1187.86,-588.71 1369,-562.22 1452.02,-546.52"/>
<polygon fill="#9a32cd" stroke="#9a32cd" points="834.85,-460.91 824.53,-458.54 831.12,-466.84 834.85,-460.91"/>
<text text-anchor="middle" x="1141.5" y="-585" font-family="Helvetica,sans-Serif" font-size="10.00"> ksp_A</text>
<text text-anchor="middle" x="1141.5" y="-574" font-family="Helvetica,sans-Serif" font-size="10.00">ksp_B</text>
</g>
<!-- Node20&#45;&gt;Node15 -->
<g id="edge19" class="edge">
<title>Node20&#45;&gt;Node15</title>
<path fill="none" stroke="#9a32cd" stroke-dasharray="5,2" d="M835.78,-437.66C853.81,-430.01 878.58,-420.06 901,-413 965.82,-392.58 1042.51,-375.54 1091.32,-365.55"/>
<polygon fill="#9a32cd" stroke="#9a32cd" points="834.32,-434.47 826.51,-441.64 837.08,-440.91 834.32,-434.47"/>
<text text-anchor="middle" x="961.5" y="-427" font-family="Helvetica,sans-Serif" font-size="10.00"> A</text>
<text text-anchor="middle" x="961.5" y="-416" font-family="Helvetica,sans-Serif" font-size="10.00">B</text>
</g>
<!-- Node20&#45;&gt;Node25 -->
<g id="edge29" class="edge">
<title>Node20&#45;&gt;Node25</title>
<path fill="none" stroke="#9a32cd" stroke-dasharray="5,2" d="M821.47,-466.99C851.09,-511.51 935.19,-626.17 1040,-667 1183.21,-722.79 1371.31,-695.95 1454.62,-679.53"/>
<polygon fill="#9a32cd" stroke="#9a32cd" points="824.39,-465.06 815.99,-458.6 818.53,-468.89 824.39,-465.06"/>
<text text-anchor="middle" x="1141.5" y="-714" font-family="Helvetica,sans-Serif" font-size="10.00"> snes_A</text>
<text text-anchor="middle" x="1141.5" y="-703" font-family="Helvetica,sans-Serif" font-size="10.00">snes_B</text>
</g>
<!-- Node20&#45;&gt;Node28 -->
<g id="edge34" class="edge">
<title>Node20&#45;&gt;Node28</title>
<path fill="none" stroke="#9a32cd" stroke-dasharray="5,2" d="M837.15,-450.65C905.97,-454.18 1092.5,-459.7 1243,-427 1314.94,-411.37 1334.91,-405.55 1397,-366 1436.28,-340.97 1473.74,-299.32 1489.58,-280.61"/>
<polygon fill="#9a32cd" stroke="#9a32cd" points="836.95,-447.13 826.77,-450.08 836.57,-454.12 836.95,-447.13"/>
<text text-anchor="middle" x="1141.5" y="-465" font-family="Helvetica,sans-Serif" font-size="10.00"> ts_A</text>
<text text-anchor="middle" x="1141.5" y="-454" font-family="Helvetica,sans-Serif" font-size="10.00">ts_B</text>
</g>
<!-- Node21 -->
<g id="node21" class="node">
<title>Node21</title>
<g id="a_node21"><a xlink:title=" ">
<polygon fill="white" stroke="#bfbfbf" points="772.5,-115.5 772.5,-134.5 845.5,-134.5 845.5,-115.5 772.5,-115.5"/>
<text text-anchor="middle" x="809" y="-122.5" font-family="Helvetica,sans-Serif" font-size="10.00">bitset&lt; 8 &gt;</text>
</a>
</g>
</g>
<!-- Node21&#45;&gt;Node15 -->
<g id="edge20" class="edge">
<title>Node21&#45;&gt;Node15</title>
<path fill="none" stroke="#9a32cd" stroke-dasharray="5,2" d="M855.87,-118.32C904.53,-114.08 980.05,-116.18 1022,-161 1075.73,-218.41 986.81,-279.09 1040,-337 1052.01,-350.08 1069.97,-355.84 1087.41,-358"/>
<polygon fill="#9a32cd" stroke="#9a32cd" points="855.22,-114.87 845.61,-119.34 855.91,-121.83 855.22,-114.87"/>
<text text-anchor="middle" x="961.5" y="-164" font-family="Helvetica,sans-Serif" font-size="10.00"> data_ctx</text>
</g>
<!-- Node22 -->
<g id="node22" class="node">
<title>Node22</title>
<g id="a_node22"><a xlink:title=" ">
<polygon fill="white" stroke="#bfbfbf" points="792,-355.5 792,-374.5 826,-374.5 826,-355.5 792,-355.5"/>
<text text-anchor="middle" x="809" y="-362.5" font-family="Helvetica,sans-Serif" font-size="10.00">Vec</text>
</a>
</g>
</g>
<!-- Node22&#45;&gt;Node14 -->
<g id="edge25" class="edge">
<title>Node22&#45;&gt;Node14</title>
<path fill="none" stroke="#9a32cd" stroke-dasharray="5,2" d="M832.88,-379.88C850.66,-390.53 876.35,-404.01 901,-410 974.86,-427.95 1169.71,-395.85 1243,-416 1319.01,-436.9 1331.5,-460.14 1397,-504 1405.42,-509.64 1405.85,-513.65 1415,-518 1423.36,-521.98 1432.61,-525.14 1441.79,-527.66"/>
<polygon fill="#9a32cd" stroke="#9a32cd" points="834.71,-376.89 824.36,-374.62 831.03,-382.85 834.71,-376.89"/>
<text text-anchor="middle" x="1141.5" y="-419" font-family="Helvetica,sans-Serif" font-size="10.00"> ksp_f</text>
</g>
<!-- Node22&#45;&gt;Node15 -->
<g id="edge21" class="edge">
<title>Node22&#45;&gt;Node15</title>
<path fill="none" stroke="#9a32cd" stroke-dasharray="5,2" d="M833.71,-349.85C851.46,-339.45 876.75,-326.55 901,-321 953.42,-308.99 971.73,-301.89 1022,-321 1032,-324.8 1030.39,-332.28 1040,-337 1054.58,-344.17 1071.58,-348.64 1087.4,-351.42"/>
<polygon fill="#9a32cd" stroke="#9a32cd" points="831.43,-347.14 824.68,-355.31 835.05,-353.13 831.43,-347.14"/>
<text text-anchor="middle" x="961.5" y="-357" font-family="Helvetica,sans-Serif" font-size="10.00"> f</text>
<text text-anchor="middle" x="961.5" y="-346" font-family="Helvetica,sans-Serif" font-size="10.00">x</text>
<text text-anchor="middle" x="961.5" y="-335" font-family="Helvetica,sans-Serif" font-size="10.00">x_t</text>
<text text-anchor="middle" x="961.5" y="-324" font-family="Helvetica,sans-Serif" font-size="10.00">x_tt</text>
</g>
<!-- Node22&#45;&gt;Node25 -->
<g id="edge30" class="edge">
<title>Node22&#45;&gt;Node25</title>
<path fill="none" stroke="#9a32cd" stroke-dasharray="5,2" d="M828.93,-381.23C843.86,-394.17 865.08,-412.9 883,-430 946.91,-490.96 965.15,-504.42 1022,-572 1030.81,-582.48 1028.35,-589.81 1040,-597 1073.5,-617.66 1323.27,-649.41 1438.97,-663.21"/>
<polygon fill="#9a32cd" stroke="#9a32cd" points="831.2,-378.56 821.35,-374.68 826.63,-383.86 831.2,-378.56"/>
<text text-anchor="middle" x="1141.5" y="-651" font-family="Helvetica,sans-Serif" font-size="10.00"> snes_x</text>
<text text-anchor="middle" x="1141.5" y="-640" font-family="Helvetica,sans-Serif" font-size="10.00">snes_f</text>
</g>
<!-- Node22&#45;&gt;Node28 -->
<g id="edge38" class="edge">
<title>Node22&#45;&gt;Node28</title>
<path fill="none" stroke="#9a32cd" stroke-dasharray="5,2" d="M818.17,-346.3C838.98,-298.84 892.95,-177.11 901,-172 946.42,-143.2 977.69,-141.52 1022,-172 1040.43,-184.68 1022.32,-205.3 1040,-219 1071.48,-243.39 1331.1,-261.31 1444.66,-268.06"/>
<polygon fill="#9a32cd" stroke="#9a32cd" points="814.96,-344.91 814.15,-355.47 821.37,-347.71 814.96,-344.91"/>
<text text-anchor="middle" x="1141.5" y="-288" font-family="Helvetica,sans-Serif" font-size="10.00"> ts_u</text>
<text text-anchor="middle" x="1141.5" y="-277" font-family="Helvetica,sans-Serif" font-size="10.00">ts_F</text>
<text text-anchor="middle" x="1141.5" y="-266" font-family="Helvetica,sans-Serif" font-size="10.00">ts_u_t</text>
<text text-anchor="middle" x="1141.5" y="-255" font-family="Helvetica,sans-Serif" font-size="10.00">ts_u_tt</text>
</g>
<!-- Node23 -->
<g id="node23" class="node">
<title>Node23</title>
<g id="a_node23"><a xlink:title=" ">
<polygon fill="white" stroke="#bfbfbf" points="1124,-489.5 1124,-508.5 1159,-508.5 1159,-489.5 1124,-489.5"/>
<text text-anchor="middle" x="1141.5" y="-496.5" font-family="Helvetica,sans-Serif" font-size="10.00">KSP</text>
</a>
</g>
</g>
<!-- Node23&#45;&gt;Node14 -->
<g id="edge22" class="edge">
<title>Node23&#45;&gt;Node14</title>
<path fill="none" stroke="#9a32cd" stroke-dasharray="5,2" d="M1169.35,-500.91C1215.82,-504.33 1314.22,-512.09 1397,-522 1411.54,-523.74 1427.21,-525.93 1441.76,-528.09"/>
<polygon fill="#9a32cd" stroke="#9a32cd" points="1169.44,-497.41 1159.21,-500.17 1168.93,-504.39 1169.44,-497.41"/>
<text text-anchor="middle" x="1329" y="-525" font-family="Helvetica,sans-Serif" font-size="10.00"> ksp</text>
</g>
<!-- Node24 -->
<g id="node24" class="node">
<title>Node24</title>
<g id="a_node24"><a xlink:title=" ">
<polygon fill="white" stroke="#bfbfbf" points="1104.5,-527.5 1104.5,-546.5 1178.5,-546.5 1178.5,-527.5 1104.5,-527.5"/>
<text text-anchor="middle" x="1141.5" y="-534.5" font-family="Helvetica,sans-Serif" font-size="10.00">KSPContext</text>
</a>
</g>
</g>
<!-- Node24&#45;&gt;Node14 -->
<g id="edge23" class="edge">
<title>Node24&#45;&gt;Node14</title>
<path fill="none" stroke="#9a32cd" stroke-dasharray="5,2" d="M1189.19,-537C1254.3,-537 1372.2,-537 1441.81,-537"/>
<polygon fill="#9a32cd" stroke="#9a32cd" points="1188.82,-533.5 1178.82,-537 1188.82,-540.5 1188.82,-533.5"/>
<text text-anchor="middle" x="1329" y="-540" font-family="Helvetica,sans-Serif" font-size="10.00"> ksp_ctx</text>
</g>
<!-- Node25&#45;&gt;Node13 -->
<g id="edge26" class="edge">
<title>Node25&#45;&gt;Node13</title>
<path fill="none" stroke="midnightblue" d="M1568.06,-676.76C1641.05,-683.95 1755.39,-695.22 1824.95,-702.08"/>
<polygon fill="midnightblue" stroke="midnightblue" points="1568.34,-673.27 1558.05,-675.77 1567.66,-680.24 1568.34,-673.27"/>
</g>
<!-- Node26 -->
<g id="node26" class="node">
<title>Node26</title>
<g id="a_node26"><a xlink:title=" ">
<polygon fill="white" stroke="#bfbfbf" points="1120.5,-777.5 1120.5,-796.5 1162.5,-796.5 1162.5,-777.5 1120.5,-777.5"/>
<text text-anchor="middle" x="1141.5" y="-784.5" font-family="Helvetica,sans-Serif" font-size="10.00">SNES</text>
</a>
</g>
</g>
<!-- Node26&#45;&gt;Node25 -->
<g id="edge28" class="edge">
<title>Node26&#45;&gt;Node25</title>
<path fill="none" stroke="#9a32cd" stroke-dasharray="5,2" d="M1172.94,-781.86C1240.48,-770.44 1397,-744 1397,-744 1416.49,-727.22 1396.01,-706.35 1415,-689 1421.73,-682.85 1430.03,-678.57 1438.76,-675.61"/>
<polygon fill="#9a32cd" stroke="#9a32cd" points="1172.17,-778.44 1162.9,-783.55 1173.34,-785.34 1172.17,-778.44"/>
<text text-anchor="middle" x="1329" y="-769" font-family="Helvetica,sans-Serif" font-size="10.00"> snes</text>
</g>
<!-- Node27 -->
<g id="node27" class="node">
<title>Node27</title>
<g id="a_node27"><a xlink:title=" ">
<polygon fill="white" stroke="#bfbfbf" points="1101.5,-739.5 1101.5,-758.5 1181.5,-758.5 1181.5,-739.5 1101.5,-739.5"/>
<text text-anchor="middle" x="1141.5" y="-746.5" font-family="Helvetica,sans-Serif" font-size="10.00">SNESContext</text>
</a>
</g>
</g>
<!-- Node27&#45;&gt;Node25 -->
<g id="edge31" class="edge">
<title>Node27&#45;&gt;Node25</title>
<path fill="none" stroke="#9a32cd" stroke-dasharray="5,2" d="M1191.72,-742.35C1263.16,-732.58 1388.11,-714.94 1397,-710 1407.75,-704.03 1404.48,-695.37 1415,-689 1422.29,-684.59 1430.52,-681.2 1438.87,-678.59"/>
<polygon fill="#9a32cd" stroke="#9a32cd" points="1191.02,-738.92 1181.59,-743.74 1191.97,-745.85 1191.02,-738.92"/>
<text text-anchor="middle" x="1329" y="-735" font-family="Helvetica,sans-Serif" font-size="10.00"> snes_ctx</text>
</g>
<!-- Node28&#45;&gt;Node13 -->
<g id="edge32" class="edge">
<title>Node28&#45;&gt;Node13</title>
<path fill="none" stroke="midnightblue" d="M1531.9,-284.74C1592.66,-312.42 1722.86,-381.16 1781,-484 1818.18,-549.75 1759.26,-588.76 1799,-653 1812.61,-675.01 1838.67,-689.8 1858.55,-698.45"/>
<polygon fill="midnightblue" stroke="midnightblue" points="1532.97,-281.39 1522.42,-280.5 1530.12,-287.78 1532.97,-281.39"/>
</g>
<!-- Node29 -->
<g id="node29" class="node">
<title>Node29</title>
<g id="a_node29"><a xlink:title=" ">
<polygon fill="white" stroke="#bfbfbf" points="1109,-308.5 1109,-327.5 1174,-327.5 1174,-308.5 1109,-308.5"/>
<text text-anchor="middle" x="1141.5" y="-315.5" font-family="Helvetica,sans-Serif" font-size="10.00">PetscReal</text>
</a>
</g>
</g>
<!-- Node29&#45;&gt;Node28 -->
<g id="edge35" class="edge">
<title>Node29&#45;&gt;Node28</title>
<path fill="none" stroke="#9a32cd" stroke-dasharray="5,2" d="M1184.09,-310.42C1206.78,-306.43 1235.38,-301.62 1261,-298 1324.02,-289.09 1396.8,-281.13 1444.8,-276.2"/>
<polygon fill="#9a32cd" stroke="#9a32cd" points="1183.35,-307 1174.12,-312.19 1184.57,-313.89 1183.35,-307"/>
<text text-anchor="middle" x="1329" y="-334" font-family="Helvetica,sans-Serif" font-size="10.00"> ts_a</text>
<text text-anchor="middle" x="1329" y="-323" font-family="Helvetica,sans-Serif" font-size="10.00">ts_t</text>
<text text-anchor="middle" x="1329" y="-312" font-family="Helvetica,sans-Serif" font-size="10.00">ts_dt</text>
<text text-anchor="middle" x="1329" y="-301" font-family="Helvetica,sans-Serif" font-size="10.00">ts_aa</text>
</g>
<!-- Node30 -->
<g id="node30" class="node">
<title>Node30</title>
<g id="a_node30"><a xlink:title=" ">
<polygon fill="white" stroke="#bfbfbf" points="1108,-190.5 1108,-209.5 1175,-209.5 1175,-190.5 1108,-190.5"/>
<text text-anchor="middle" x="1141.5" y="-197.5" font-family="Helvetica,sans-Serif" font-size="10.00">TSContext</text>
</a>
</g>
</g>
<!-- Node30&#45;&gt;Node28 -->
<g id="edge36" class="edge">
<title>Node30&#45;&gt;Node28</title>
<path fill="none" stroke="#9a32cd" stroke-dasharray="5,2" d="M1185.39,-198.66C1236.69,-198.16 1324.69,-200.83 1397,-221 1429.47,-230.06 1463.95,-249.71 1482.9,-261.5"/>
<polygon fill="#9a32cd" stroke="#9a32cd" points="1185.28,-195.16 1175.33,-198.8 1185.38,-202.16 1185.28,-195.16"/>
<text text-anchor="middle" x="1329" y="-224" font-family="Helvetica,sans-Serif" font-size="10.00"> ts_ctx</text>
</g>
<!-- Node31 -->
<g id="node31" class="node">
<title>Node31</title>
<g id="a_node31"><a xlink:title=" ">
<polygon fill="white" stroke="#bfbfbf" points="1113.5,-152.5 1113.5,-171.5 1169.5,-171.5 1169.5,-152.5 1113.5,-152.5"/>
<text text-anchor="middle" x="1141.5" y="-159.5" font-family="Helvetica,sans-Serif" font-size="10.00">PetscInt</text>
</a>
</g>
</g>
<!-- Node31&#45;&gt;Node28 -->
<g id="edge37" class="edge">
<title>Node31&#45;&gt;Node28</title>
<path fill="none" stroke="#9a32cd" stroke-dasharray="5,2" d="M1180.06,-158.47C1231.26,-155.17 1324.87,-154.59 1397,-185 1438.05,-202.31 1474.6,-242.77 1489.89,-261.36"/>
<polygon fill="#9a32cd" stroke="#9a32cd" points="1179.52,-155 1169.8,-159.21 1180.02,-161.98 1179.52,-155"/>
<text text-anchor="middle" x="1329" y="-188" font-family="Helvetica,sans-Serif" font-size="10.00"> ts_step</text>
</g>
<!-- Node32 -->
<g id="node32" class="node">
<title>Node32</title>
<g id="a_node32"><a xlink:title=" ">
<polygon fill="white" stroke="#bfbfbf" points="1127,-114.5 1127,-133.5 1156,-133.5 1156,-114.5 1127,-114.5"/>
<text text-anchor="middle" x="1141.5" y="-121.5" font-family="Helvetica,sans-Serif" font-size="10.00">TS</text>
</a>
</g>
</g>
<!-- Node32&#45;&gt;Node28 -->
<g id="edge39" class="edge">
<title>Node32&#45;&gt;Node28</title>
<path fill="none" stroke="#9a32cd" stroke-dasharray="5,2" d="M1166.4,-119.73C1213.65,-112.54 1320.99,-102.47 1397,-143 1448.36,-170.38 1482.14,-236.58 1493.37,-261.39"/>
<polygon fill="#9a32cd" stroke="#9a32cd" points="1165.56,-116.32 1156.25,-121.38 1166.68,-123.23 1165.56,-116.32"/>
<text text-anchor="middle" x="1329" y="-146" font-family="Helvetica,sans-Serif" font-size="10.00"> ts</text>
</g>
<!-- Node33 -->
<g id="node33" class="node">
<title>Node33</title>
<g id="a_node33"><a xlink:title=" ">
<polygon fill="white" stroke="#bfbfbf" points="1454,-854.5 1454,-873.5 1543,-873.5 1543,-854.5 1454,-854.5"/>
<text text-anchor="middle" x="1498.5" y="-861.5" font-family="Helvetica,sans-Serif" font-size="10.00">pair&lt; int, int &gt;</text>
</a>
</g>
</g>
<!-- Node33&#45;&gt;Node13 -->
<g id="edge41" class="edge">
<title>Node33&#45;&gt;Node13</title>
<path fill="none" stroke="#9a32cd" stroke-dasharray="5,2" d="M1553.24,-868.4C1616.06,-870.45 1719.29,-863.71 1781,-806 1802.89,-785.53 1778.85,-763.19 1799,-741 1809.11,-729.87 1823.39,-722.47 1837.41,-717.55"/>
<polygon fill="#9a32cd" stroke="#9a32cd" points="1553.27,-864.9 1543.13,-867.99 1552.98,-871.9 1553.27,-864.9"/>
<text text-anchor="middle" x="1690.5" y="-870" font-family="Helvetica,sans-Serif" font-size="10.00"> loHiFERank</text>
</g>
<!-- Node34 -->
<g id="node34" class="node">
<title>Node34</title>
<g id="a_node34"><a xlink:title=" ">
<polygon fill="white" stroke="#bfbfbf" points="1428.5,-698.5 1428.5,-717.5 1568.5,-717.5 1568.5,-698.5 1428.5,-698.5"/>
<text text-anchor="middle" x="1498.5" y="-705.5" font-family="Helvetica,sans-Serif" font-size="10.00">weak_ptr&lt; CacheTuple &gt;</text>
</a>
</g>
</g>
<!-- Node34&#45;&gt;Node13 -->
<g id="edge42" class="edge">
<title>Node34&#45;&gt;Node13</title>
<path fill="none" stroke="#9a32cd" stroke-dasharray="5,2" d="M1578.93,-708C1651.93,-708 1758.54,-708 1824.74,-708"/>
<polygon fill="#9a32cd" stroke="#9a32cd" points="1578.86,-704.5 1568.86,-708 1578.86,-711.5 1578.86,-704.5"/>
<text text-anchor="middle" x="1690.5" y="-711" font-family="Helvetica,sans-Serif" font-size="10.00"> cacheWeakPtr</text>
</g>
<!-- Node35 -->
<g id="node35" class="node">
<title>Node35</title>
<g id="a_node35"><a xlink:title=" ">
<polygon fill="white" stroke="#bfbfbf" points="1442.5,-736.5 1442.5,-755.5 1554.5,-755.5 1554.5,-736.5 1442.5,-736.5"/>
<text text-anchor="middle" x="1498.5" y="-743.5" font-family="Helvetica,sans-Serif" font-size="10.00">unique_ptr&lt; bool &gt;</text>
</a>
</g>
</g>
<!-- Node35&#45;&gt;Node13 -->
<g id="edge43" class="edge">
<title>Node35&#45;&gt;Node13</title>
<path fill="none" stroke="#9a32cd" stroke-dasharray="5,2" d="M1564.95,-741.8C1622.07,-737.86 1707.15,-731.33 1781,-723 1795.23,-721.39 1810.51,-719.36 1824.86,-717.32"/>
<polygon fill="#9a32cd" stroke="#9a32cd" points="1564.35,-738.33 1554.62,-742.51 1564.83,-745.32 1564.35,-738.33"/>
<text text-anchor="middle" x="1690.5" y="-753" font-family="Helvetica,sans-Serif" font-size="10.00"> matAssembleSwitch</text>
<text text-anchor="middle" x="1690.5" y="-742" font-family="Helvetica,sans-Serif" font-size="10.00">vecAssembleSwitch</text>
</g>
<!-- Node36 -->
<g id="node36" class="node">
<title>Node36</title>
<g id="a_node36"><a xlink:title=" ">
<polygon fill="white" stroke="#bfbfbf" points="1127,-815.5 1127,-834.5 1156,-834.5 1156,-815.5 1127,-815.5"/>
<text text-anchor="middle" x="1141.5" y="-822.5" font-family="Helvetica,sans-Serif" font-size="10.00">int</text>
</a>
</g>
</g>
<!-- Node36&#45;&gt;Node13 -->
<g id="edge44" class="edge">
<title>Node36&#45;&gt;Node13</title>
<path fill="none" stroke="#9a32cd" stroke-dasharray="5,2" d="M1166.23,-820.62C1190.09,-816.35 1227.99,-809.94 1261,-806 1318.55,-799.13 1730.22,-792.94 1781,-765 1792.68,-758.57 1788.36,-749.04 1799,-741 1813.04,-730.4 1830.89,-722.81 1846.69,-717.61"/>
<polygon fill="#9a32cd" stroke="#9a32cd" points="1165.53,-817.19 1156.31,-822.42 1166.78,-824.08 1165.53,-817.19"/>
<text text-anchor="middle" x="1498.5" y="-834" font-family="Helvetica,sans-Serif" font-size="10.00"> sIze</text>
<text text-anchor="middle" x="1498.5" y="-823" font-family="Helvetica,sans-Serif" font-size="10.00">loopSize</text>
<text text-anchor="middle" x="1498.5" y="-812" font-family="Helvetica,sans-Serif" font-size="10.00">nInTheLoop</text>
<text text-anchor="middle" x="1498.5" y="-801" font-family="Helvetica,sans-Serif" font-size="10.00">rAnk</text>
</g>
<!-- Node36&#45;&gt;Node38 -->
<g id="edge56" class="edge">
<title>Node36&#45;&gt;Node38</title>
<path fill="none" stroke="#9a32cd" stroke-dasharray="5,2" d="M1166.09,-821.58C1222.06,-813.98 1360.9,-798.4 1397,-825 1418.73,-841.01 1405.59,-857.7 1415,-883 1441.1,-953.13 1479.57,-1034.72 1492.82,-1062.32"/>
<polygon fill="#9a32cd" stroke="#9a32cd" points="1165.48,-818.13 1156.06,-822.97 1166.44,-825.06 1165.48,-818.13"/>
<text text-anchor="middle" x="1329" y="-894" font-family="Helvetica,sans-Serif" font-size="10.00"> tagNameSize</text>
<text text-anchor="middle" x="1329" y="-883" font-family="Helvetica,sans-Serif" font-size="10.00">nbDofsRow</text>
<text text-anchor="middle" x="1329" y="-872" font-family="Helvetica,sans-Serif" font-size="10.00">nbLocDofsCol</text>
<text text-anchor="middle" x="1329" y="-861" font-family="Helvetica,sans-Serif" font-size="10.00">nbDofsCol</text>
<text text-anchor="middle" x="1329" y="-850" font-family="Helvetica,sans-Serif" font-size="10.00">nbGhostDofsRow</text>
<text text-anchor="middle" x="1329" y="-839" font-family="Helvetica,sans-Serif" font-size="10.00">nbGhostDofsCol</text>
<text text-anchor="middle" x="1329" y="-828" font-family="Helvetica,sans-Serif" font-size="10.00">nbLocDofsRow</text>
</g>
<!-- Node37 -->
<g id="node37" class="node">
<title>Node37</title>
<g id="a_node37"><a xlink:title=" ">
<polygon fill="white" stroke="#bfbfbf" points="1415,-489.5 1415,-508.5 1582,-508.5 1582,-489.5 1415,-489.5"/>
<text text-anchor="middle" x="1498.5" y="-496.5" font-family="Helvetica,sans-Serif" font-size="10.00">function&lt; MoFEMErrorCode()&gt;</text>
</a>
</g>
</g>
<!-- Node37&#45;&gt;Node13 -->
<g id="edge45" class="edge">
<title>Node37&#45;&gt;Node13</title>
<path fill="none" stroke="#9a32cd" stroke-dasharray="5,2" d="M1581.94,-488.93C1645.03,-486.14 1729.67,-493.83 1781,-545 1815.46,-579.35 1772.19,-612.39 1799,-653 1813.35,-674.74 1839.58,-689.65 1859.31,-698.4"/>
<polygon fill="#9a32cd" stroke="#9a32cd" points="1581.41,-485.45 1571.61,-489.49 1581.79,-492.44 1581.41,-485.45"/>
<text text-anchor="middle" x="1690.5" y="-570" font-family="Helvetica,sans-Serif" font-size="10.00"> preProcessHook</text>
<text text-anchor="middle" x="1690.5" y="-559" font-family="Helvetica,sans-Serif" font-size="10.00">operatorHook</text>
<text text-anchor="middle" x="1690.5" y="-548" font-family="Helvetica,sans-Serif" font-size="10.00">postProcessHook</text>
</g>
<!-- Node38&#45;&gt;Node13 -->
<g id="edge46" class="edge">
<title>Node38&#45;&gt;Node13</title>
<path fill="none" stroke="#9a32cd" stroke-dasharray="5,2" d="M1536.28,-1058.86C1598.38,-1034.58 1722.89,-976.36 1781,-882 1814.13,-828.21 1759.98,-790.69 1799,-741 1807.79,-729.81 1820.86,-722.41 1834.18,-717.52"/>
<polygon fill="#9a32cd" stroke="#9a32cd" points="1534.96,-1055.62 1526.87,-1062.47 1537.46,-1062.16 1534.96,-1055.62"/>
<text text-anchor="middle" x="1690.5" y="-1031" font-family="Helvetica,sans-Serif" font-size="10.00"> problemPtr</text>
</g>
<!-- Node39 -->
<g id="node39" class="node">
<title>Node39</title>
<g id="a_node39"><a xlink:title=" ">
<polygon fill="white" stroke="#bfbfbf" points="1058,-1052 1058,-1082 1225,-1082 1225,-1052 1058,-1052"/>
<text text-anchor="start" x="1066" y="-1070" font-family="Helvetica,sans-Serif" font-size="10.00">shared_ptr&lt; NumeredEntFinite</text>
<text text-anchor="middle" x="1141.5" y="-1059" font-family="Helvetica,sans-Serif" font-size="10.00">Element_multiIndex &gt;</text>
</a>
</g>
</g>
<!-- Node39&#45;&gt;Node38 -->
<g id="edge47" class="edge">
<title>Node39&#45;&gt;Node38</title>
<path fill="none" stroke="#9a32cd" stroke-dasharray="5,2" d="M1235.63,-1068.31C1303.98,-1069.27 1394.08,-1070.54 1448.8,-1071.31"/>
<polygon fill="#9a32cd" stroke="#9a32cd" points="1235.33,-1064.81 1225.28,-1068.17 1235.23,-1071.81 1235.33,-1064.81"/>
<text text-anchor="middle" x="1329" y="-1073" font-family="Helvetica,sans-Serif" font-size="10.00"> numeredFiniteElementsPtr</text>
</g>
<!-- Node40 -->
<g id="node40" class="node">
<title>Node40</title>
<g id="a_node40"><a xlink:title=" ">
<polygon fill="white" stroke="#bfbfbf" points="1112,-1013.5 1112,-1032.5 1171,-1032.5 1171,-1013.5 1112,-1013.5"/>
<text text-anchor="middle" x="1141.5" y="-1020.5" font-family="Helvetica,sans-Serif" font-size="10.00">BitFEId *</text>
</a>
</g>
</g>
<!-- Node40&#45;&gt;Node38 -->
<g id="edge48" class="edge">
<title>Node40&#45;&gt;Node38</title>
<path fill="none" stroke="#9a32cd" stroke-dasharray="5,2" d="M1181.26,-1026.72C1231.25,-1031.72 1320.84,-1041.33 1397,-1053 1414.64,-1055.7 1433.92,-1059.21 1450.83,-1062.48"/>
<polygon fill="#9a32cd" stroke="#9a32cd" points="1181.51,-1023.23 1171.21,-1025.73 1180.82,-1030.2 1181.51,-1023.23"/>
<text text-anchor="middle" x="1329" y="-1056" font-family="Helvetica,sans-Serif" font-size="10.00"> tagBitFEId</text>
</g>
<!-- Node41 -->
<g id="node41" class="node">
<title>Node41</title>
<g id="a_node41"><a xlink:href="classEntityHandle.html" target="_top" xlink:title=" ">
<polygon fill="white" stroke="black" points="1101.5,-975.5 1101.5,-994.5 1181.5,-994.5 1181.5,-975.5 1101.5,-975.5"/>
<text text-anchor="middle" x="1141.5" y="-982.5" font-family="Helvetica,sans-Serif" font-size="10.00">EntityHandle</text>
</a>
</g>
</g>
<!-- Node41&#45;&gt;Node38 -->
<g id="edge49" class="edge">
<title>Node41&#45;&gt;Node38</title>
<path fill="none" stroke="#9a32cd" stroke-dasharray="5,2" d="M1192.08,-986.84C1244.18,-989.91 1327.99,-998.12 1397,-1020 1429.4,-1030.27 1463.9,-1050.41 1482.87,-1062.39"/>
<polygon fill="#9a32cd" stroke="#9a32cd" points="1191.95,-983.33 1181.78,-986.27 1191.57,-990.32 1191.95,-983.33"/>
<text text-anchor="middle" x="1329" y="-1023" font-family="Helvetica,sans-Serif" font-size="10.00"> meshset</text>
</g>
<!-- Node42 -->
<g id="node42" class="node">
<title>Node42</title>
<g id="a_node42"><a xlink:title=" ">
<polygon fill="white" stroke="#bfbfbf" points="1067,-926 1067,-956 1216,-956 1216,-926 1067,-926"/>
<text text-anchor="start" x="1075" y="-944" font-family="Helvetica,sans-Serif" font-size="10.00">shared_ptr&lt; MoFEM::</text>
<text text-anchor="middle" x="1141.5" y="-933" font-family="Helvetica,sans-Serif" font-size="10.00">ComposedProblemsData &gt;</text>
</a>
</g>
</g>
<!-- Node42&#45;&gt;Node38 -->
<g id="edge50" class="edge">
<title>Node42&#45;&gt;Node38</title>
<path fill="none" stroke="#9a32cd" stroke-dasharray="5,2" d="M1226.36,-947.76C1288.6,-953.78 1367.55,-963.84 1397,-978 1439.2,-998.29 1475.69,-1042.61 1490.48,-1062.27"/>
<polygon fill="#9a32cd" stroke="#9a32cd" points="1226.42,-944.25 1216.14,-946.79 1225.76,-951.22 1226.42,-944.25"/>
<text text-anchor="middle" x="1329" y="-981" font-family="Helvetica,sans-Serif" font-size="10.00"> composedProblemsData</text>
</g>
<!-- Node43 -->
<g id="node43" class="node">
<title>Node43</title>
<g id="a_node43"><a xlink:title=" ">
<polygon fill="white" stroke="#bfbfbf" points="1101,-887.5 1101,-906.5 1182,-906.5 1182,-887.5 1101,-887.5"/>
<text text-anchor="middle" x="1141.5" y="-894.5" font-family="Helvetica,sans-Serif" font-size="10.00">BitRefLevel *</text>
</a>
</g>
</g>
<!-- Node43&#45;&gt;Node38 -->
<g id="edge51" class="edge">
<title>Node43&#45;&gt;Node38</title>
<path fill="none" stroke="#9a32cd" stroke-dasharray="5,2" d="M1192.48,-900.25C1261.61,-905.1 1379.89,-914.74 1397,-925 1452.41,-958.24 1484.33,-1035.18 1494.18,-1062.32"/>
<polygon fill="#9a32cd" stroke="#9a32cd" points="1192.45,-896.75 1182.24,-899.55 1191.97,-903.73 1192.45,-896.75"/>
<text text-anchor="middle" x="1329" y="-939" font-family="Helvetica,sans-Serif" font-size="10.00"> tagBitRefLevelMask</text>
<text text-anchor="middle" x="1329" y="-928" font-family="Helvetica,sans-Serif" font-size="10.00">tagBitRefLevel</text>
</g>
<!-- Node44 -->
<g id="node44" class="node">
<title>Node44</title>
<g id="a_node44"><a xlink:title=" ">
<polygon fill="white" stroke="#bfbfbf" points="1056.5,-1266 1056.5,-1296 1226.5,-1296 1226.5,-1266 1056.5,-1266"/>
<text text-anchor="start" x="1064.5" y="-1284" font-family="Helvetica,sans-Serif" font-size="10.00">shared_ptr&lt; NumeredDofEntity</text>
<text text-anchor="middle" x="1141.5" y="-1273" font-family="Helvetica,sans-Serif" font-size="10.00">_multiIndex &gt;</text>
</a>
</g>
</g>
<!-- Node44&#45;&gt;Node38 -->
<g id="edge52" class="edge">
<title>Node44&#45;&gt;Node38</title>
<path fill="none" stroke="#9a32cd" stroke-dasharray="5,2" d="M1236.89,-1269.6C1306.46,-1260.88 1390.16,-1249.6 1397,-1245 1458.37,-1203.68 1487.19,-1111.36 1495.14,-1081.51"/>
<polygon fill="#9a32cd" stroke="#9a32cd" points="1236.23,-1266.15 1226.74,-1270.87 1237.09,-1273.1 1236.23,-1266.15"/>
<text text-anchor="middle" x="1329" y="-1279" font-family="Helvetica,sans-Serif" font-size="10.00"> numeredRowDofsPtr</text>
<text text-anchor="middle" x="1329" y="-1268" font-family="Helvetica,sans-Serif" font-size="10.00">numeredColDofsPtr</text>
</g>
<!-- Node45 -->
<g id="node45" class="node">
<title>Node45</title>
<g id="a_node45"><a xlink:title=" ">
<polygon fill="white" stroke="#bfbfbf" points="1072.5,-1227.5 1072.5,-1246.5 1210.5,-1246.5 1210.5,-1227.5 1072.5,-1227.5"/>
<text text-anchor="middle" x="1141.5" y="-1234.5" font-family="Helvetica,sans-Serif" font-size="10.00">vector&lt; BlockFieldPair &gt;</text>
</a>
</g>
</g>
<!-- Node45&#45;&gt;Node38 -->
<g id="edge54" class="edge">
<title>Node45&#45;&gt;Node38</title>
<path fill="none" stroke="#9a32cd" stroke-dasharray="5,2" d="M1220.65,-1235.22C1284.17,-1232.55 1367.86,-1225.83 1397,-1209 1449.88,-1178.46 1482.95,-1107.74 1493.68,-1081.78"/>
<polygon fill="#9a32cd" stroke="#9a32cd" points="1220.49,-1231.73 1210.64,-1235.62 1220.77,-1238.72 1220.49,-1231.73"/>
<text text-anchor="middle" x="1329" y="-1235" font-family="Helvetica,sans-Serif" font-size="10.00"> emptyFieldBlocks</text>
</g>
<!-- Node46 -->
<g id="node46" class="node">
<title>Node46</title>
<g id="a_node46"><a xlink:title=" ">
<polygon fill="white" stroke="#bfbfbf" points="1063.5,-1178 1063.5,-1208 1219.5,-1208 1219.5,-1178 1063.5,-1178"/>
<text text-anchor="start" x="1071.5" y="-1196" font-family="Helvetica,sans-Serif" font-size="10.00">shared_ptr&lt; MoFEM::</text>
<text text-anchor="middle" x="1141.5" y="-1185" font-family="Helvetica,sans-Serif" font-size="10.00">Problem::SubProblemData &gt;</text>
</a>
</g>
</g>
<!-- Node46&#45;&gt;Node38 -->
<g id="edge55" class="edge">
<title>Node46&#45;&gt;Node38</title>
<path fill="none" stroke="#9a32cd" stroke-dasharray="5,2" d="M1229.87,-1196.22C1280.71,-1194.94 1344.85,-1187.75 1397,-1164 1439.19,-1144.78 1475.69,-1101.06 1490.48,-1081.63"/>
<polygon fill="#9a32cd" stroke="#9a32cd" points="1229.49,-1192.73 1219.55,-1196.41 1229.62,-1199.73 1229.49,-1192.73"/>
<text text-anchor="middle" x="1329" y="-1197" font-family="Helvetica,sans-Serif" font-size="10.00"> subProblemData</text>
</g>
<!-- Node47 -->
<g id="node47" class="node">
<title>Node47</title>
<g id="a_node47"><a xlink:title=" ">
<polygon fill="white" stroke="#bfbfbf" points="1040,-1139.5 1040,-1158.5 1243,-1158.5 1243,-1139.5 1040,-1139.5"/>
<text text-anchor="middle" x="1141.5" y="-1146.5" font-family="Helvetica,sans-Serif" font-size="10.00">shared_ptr&lt; SequenceDofContainer &gt;</text>
</a>
</g>
</g>
<!-- Node47&#45;&gt;Node38 -->
<g id="edge57" class="edge">
<title>Node47&#45;&gt;Node38</title>
<path fill="none" stroke="#9a32cd" stroke-dasharray="5,2" d="M1253.22,-1140.08C1298.35,-1134.82 1350.7,-1126.63 1397,-1114 1426.56,-1105.94 1458.95,-1091.26 1478.76,-1081.57"/>
<polygon fill="#9a32cd" stroke="#9a32cd" points="1252.66,-1136.62 1243.12,-1141.23 1253.45,-1143.58 1252.66,-1136.62"/>
<text text-anchor="middle" x="1329" y="-1152" font-family="Helvetica,sans-Serif" font-size="10.00"> sequenceRowDofContainer</text>
<text text-anchor="middle" x="1329" y="-1141" font-family="Helvetica,sans-Serif" font-size="10.00">sequenceColDofContainer</text>
</g>
<!-- Node48 -->
<g id="node48" class="node">
<title>Node48</title>
<g id="a_node48"><a xlink:title=" ">
<polygon fill="white" stroke="#bfbfbf" points="1097.5,-1101.5 1097.5,-1120.5 1185.5,-1120.5 1185.5,-1101.5 1097.5,-1101.5"/>
<text text-anchor="middle" x="1141.5" y="-1108.5" font-family="Helvetica,sans-Serif" font-size="10.00">BitProblemId *</text>
</a>
</g>
</g>
<!-- Node48&#45;&gt;Node38 -->
<g id="edge58" class="edge">
<title>Node48&#45;&gt;Node38</title>
<path fill="none" stroke="#9a32cd" stroke-dasharray="5,2" d="M1196,-1105.96C1247.53,-1101 1327.66,-1093.03 1397,-1085 1413.95,-1083.04 1432.49,-1080.7 1448.97,-1078.54"/>
<polygon fill="#9a32cd" stroke="#9a32cd" points="1195.39,-1102.5 1185.77,-1106.94 1196.06,-1109.47 1195.39,-1102.5"/>
<text text-anchor="middle" x="1329" y="-1102" font-family="Helvetica,sans-Serif" font-size="10.00"> tagId</text>
</g>
<!-- Node49 -->
<g id="node49" class="node">
<title>Node49</title>
<g id="a_node49"><a xlink:title=" ">
<polygon fill="white" stroke="#bfbfbf" points="1805,-613 1805,-643 1967,-643 1967,-613 1805,-613"/>
<text text-anchor="start" x="1813" y="-631" font-family="Helvetica,sans-Serif" font-size="10.00">shared_ptr&lt; const MoFEM</text>
<text text-anchor="middle" x="1886" y="-620" font-family="Helvetica,sans-Serif" font-size="10.00">::NumeredEntFiniteElement &gt;</text>
</a>
</g>
</g>
<!-- Node49&#45;&gt;Node12 -->
<g id="edge59" class="edge">
<title>Node49&#45;&gt;Node12</title>
<path fill="none" stroke="#9a32cd" stroke-dasharray="5,2" d="M1977.54,-620.62C2048.18,-614.86 2143.85,-607.06 2202.4,-602.29"/>
<polygon fill="#9a32cd" stroke="#9a32cd" points="1976.99,-617.15 1967.3,-621.45 1977.56,-624.13 1976.99,-617.15"/>
<text text-anchor="middle" x="2063" y="-622" font-family="Helvetica,sans-Serif" font-size="10.00"> numeredEntFiniteElementPtr</text>
</g>
<!-- Node50 -->
<g id="node50" class="node">
<title>Node50</title>
<g id="a_node50"><a xlink:title=" ">
<polygon fill="white" stroke="#bfbfbf" points="1864,-475.5 1864,-494.5 1908,-494.5 1908,-475.5 1864,-475.5"/>
<text text-anchor="middle" x="1886" y="-482.5" font-family="Helvetica,sans-Serif" font-size="10.00">string</text>
</a>
</g>
</g>
<!-- Node50&#45;&gt;Node3 -->
<g id="edge82" class="edge">
<title>Node50&#45;&gt;Node3</title>
<path fill="none" stroke="#9a32cd" stroke-dasharray="5,2" d="M1918.35,-483.05C2012.38,-477.44 2300.27,-462.04 2539,-468 2627.97,-470.22 2650.24,-471.44 2739,-478 2774.94,-480.66 2814.56,-484.39 2848.56,-487.85"/>
<polygon fill="#9a32cd" stroke="#9a32cd" points="1917.88,-479.57 1908.11,-483.67 1918.3,-486.56 1917.88,-479.57"/>
<text text-anchor="middle" x="2458" y="-482" font-family="Helvetica,sans-Serif" font-size="10.00"> colFieldName</text>
<text text-anchor="middle" x="2458" y="-471" font-family="Helvetica,sans-Serif" font-size="10.00">rowFieldName</text>
</g>
<!-- Node50&#45;&gt;Node12 -->
<g id="edge60" class="edge">
<title>Node50&#45;&gt;Node12</title>
<path fill="none" stroke="#9a32cd" stroke-dasharray="5,2" d="M1917.75,-493.47C1965.3,-506.99 2059.1,-535.39 2135,-569 2143.37,-572.71 2144.39,-575.9 2153,-579 2168.59,-584.61 2186.15,-588.65 2202.25,-591.51"/>
<polygon fill="#9a32cd" stroke="#9a32cd" points="1918.63,-490.08 1908.06,-490.74 1916.73,-496.82 1918.63,-490.08"/>
<text text-anchor="middle" x="2063" y="-572" font-family="Helvetica,sans-Serif" font-size="10.00"> feName</text>
</g>
<!-- Node51 -->
<g id="node51" class="node">
<title>Node51</title>
<g id="a_node51"><a xlink:title=" ">
<polygon fill="white" stroke="#bfbfbf" points="1804.5,-564 1804.5,-594 1967.5,-594 1967.5,-564 1804.5,-564"/>
<text text-anchor="start" x="1812.5" y="-582" font-family="Helvetica,sans-Serif" font-size="10.00">function&lt; bool(MoFEM</text>
<text text-anchor="middle" x="1886" y="-571" font-family="Helvetica,sans-Serif" font-size="10.00">::FEMethod *fe_method_ptr)&gt;</text>
</a>
</g>
</g>
<!-- Node51&#45;&gt;Node12 -->
<g id="edge61" class="edge">
<title>Node51&#45;&gt;Node12</title>
<path fill="none" stroke="#9a32cd" stroke-dasharray="5,2" d="M1977.98,-583.7C2048.52,-587.34 2143.82,-592.26 2202.26,-595.28"/>
<polygon fill="#9a32cd" stroke="#9a32cd" points="1977.93,-580.19 1967.76,-583.17 1977.57,-587.18 1977.93,-580.19"/>
<text text-anchor="middle" x="2063" y="-594" font-family="Helvetica,sans-Serif" font-size="10.00"> exeTestHook</text>
</g>
<!-- Node52 -->
<g id="node52" class="node">
<title>Node52</title>
<g id="a_node52"><a xlink:href="classdouble.html" target="_top" xlink:title=" ">
<polygon fill="white" stroke="black" points="2231,-282.5 2231,-301.5 2281,-301.5 2281,-282.5 2231,-282.5"/>
<text text-anchor="middle" x="2256" y="-289.5" font-family="Helvetica,sans-Serif" font-size="10.00">double</text>
</a>
</g>
</g>
<!-- Node52&#45;&gt;Node11 -->
<g id="edge62" class="edge">
<title>Node52&#45;&gt;Node11</title>
<path fill="none" stroke="#9a32cd" stroke-dasharray="5,2" d="M2291.44,-291.81C2313.15,-293.45 2340.48,-298.97 2359,-315 2375.91,-329.64 2359.43,-348.16 2377,-362 2434.04,-406.91 2488.28,-331.05 2539,-383 2565.69,-410.34 2541.72,-518.98 2557,-554 2574.76,-594.7 2614.6,-630.9 2634.78,-647.46"/>
<polygon fill="#9a32cd" stroke="#9a32cd" points="2291.46,-288.31 2281.3,-291.29 2291.1,-295.3 2291.46,-288.31"/>
<text text-anchor="middle" x="2458" y="-386" font-family="Helvetica,sans-Serif" font-size="10.00"> elementMeasure</text>
</g>
<!-- Node71 -->
<g id="node71" class="node">
<title>Node71</title>
<g id="a_node71"><a xlink:href="structThermalElement_1_1ConvectionData.html" target="_top" xlink:title="data for convection">
<polygon fill="white" stroke="black" points="2557,-38.5 2557,-57.5 2739,-57.5 2739,-38.5 2557,-38.5"/>
<text text-anchor="middle" x="2648" y="-45.5" font-family="Helvetica,sans-Serif" font-size="10.00">ThermalElement::ConvectionData</text>
</a>
</g>
</g>
<!-- Node52&#45;&gt;Node71 -->
<g id="edge85" class="edge">
<title>Node52&#45;&gt;Node71</title>
<path fill="none" stroke="#9a32cd" stroke-dasharray="5,2" d="M2291.47,-293.47C2313.86,-292.47 2341.95,-287.17 2359,-269 2393.79,-231.91 2345.26,-195.73 2377,-156 2424.59,-96.44 2509.97,-69.57 2572.01,-57.54"/>
<polygon fill="#9a32cd" stroke="#9a32cd" points="2291.26,-289.98 2281.33,-293.66 2291.39,-296.98 2291.26,-289.98"/>
<text text-anchor="middle" x="2458" y="-170" font-family="Helvetica,sans-Serif" font-size="10.00"> cOnvection</text>
<text text-anchor="middle" x="2458" y="-159" font-family="Helvetica,sans-Serif" font-size="10.00">tEmperature</text>
</g>
<!-- Node53 -->
<g id="node53" class="node">
<title>Node53</title>
<g id="a_node53"><a xlink:title=" ">
<polygon fill="white" stroke="#bfbfbf" points="2170,-528.5 2170,-569.5 2342,-569.5 2342,-528.5 2170,-528.5"/>
<text text-anchor="start" x="2178" y="-557.5" font-family="Helvetica,sans-Serif" font-size="10.00">array&lt; boost::shared</text>
<text text-anchor="start" x="2178" y="-546.5" font-family="Helvetica,sans-Serif" font-size="10.00">_ptr&lt; MoFEM::EntitiesFieldData</text>
<text text-anchor="middle" x="2256" y="-535.5" font-family="Helvetica,sans-Serif" font-size="10.00"> &gt;, LASTSPACE &gt;</text>
</a>
</g>
</g>
<!-- Node53&#45;&gt;Node11 -->
<g id="edge63" class="edge">
<title>Node53&#45;&gt;Node11</title>
<path fill="none" stroke="#9a32cd" stroke-dasharray="5,2" d="M2352.29,-547.04C2408.32,-548.82 2479.59,-556.25 2539,-579 2580.04,-594.72 2619.65,-630.07 2637.35,-647.25"/>
<polygon fill="#9a32cd" stroke="#9a32cd" points="2352.09,-543.54 2342.01,-546.78 2351.91,-550.54 2352.09,-543.54"/>
<text text-anchor="middle" x="2458" y="-593" font-family="Helvetica,sans-Serif" font-size="10.00"> derivedDataOnElement</text>
<text text-anchor="middle" x="2458" y="-582" font-family="Helvetica,sans-Serif" font-size="10.00">dataOnElement</text>
</g>
<!-- Node54 -->
<g id="node54" class="node">
<title>Node54</title>
<g id="a_node54"><a xlink:title=" ">
<polygon fill="white" stroke="#bfbfbf" points="2222,-490.5 2222,-509.5 2290,-509.5 2290,-490.5 2222,-490.5"/>
<text text-anchor="middle" x="2256" y="-497.5" font-family="Helvetica,sans-Serif" font-size="10.00">EntityType</text>
</a>
</g>
</g>
<!-- Node54&#45;&gt;Node11 -->
<g id="edge64" class="edge">
<title>Node54&#45;&gt;Node11</title>
<path fill="none" stroke="#9a32cd" stroke-dasharray="5,2" d="M2300.39,-495.68C2358.36,-491.92 2462.61,-492.32 2539,-533 2549.85,-538.78 2548.96,-544.7 2557,-554 2586.84,-588.48 2622.54,-629.18 2638.53,-647.37"/>
<polygon fill="#9a32cd" stroke="#9a32cd" points="2299.85,-492.21 2290.13,-496.42 2300.35,-499.19 2299.85,-492.21"/>
<text text-anchor="middle" x="2458" y="-536" font-family="Helvetica,sans-Serif" font-size="10.00"> lastEvaluatedElementEntityType</text>
</g>
<!-- Node55 -->
<g id="node55" class="node">
<title>Node55</title>
<g id="a_node55"><a xlink:href="structMoFEM_1_1DeprecatedCoreInterface.html" target="_top" xlink:title="Deprecated interface functions.">
<polygon fill="white" stroke="black" points="1600,-1366.5 1600,-1385.5 1781,-1385.5 1781,-1366.5 1600,-1366.5"/>
<text text-anchor="middle" x="1690.5" y="-1373.5" font-family="Helvetica,sans-Serif" font-size="10.00">MoFEM::DeprecatedCoreInterface</text>
</a>
</g>
</g>
<!-- Node55&#45;&gt;Node11 -->
<g id="edge65" class="edge">
<title>Node55&#45;&gt;Node11</title>
<path fill="none" stroke="#9a32cd" stroke-dasharray="5,2" d="M1760.88,-1386.78C1851.12,-1397.66 2011.79,-1406.15 2135,-1353 2363.03,-1254.64 2404.63,-1175.85 2539,-967 2607.3,-860.84 2638.26,-706.31 2645.37,-666.59"/>
<polygon fill="#9a32cd" stroke="#9a32cd" points="1761.12,-1383.28 1750.76,-1385.51 1760.25,-1390.23 1761.12,-1383.28"/>
<text text-anchor="middle" x="2063" y="-1392" font-family="Helvetica,sans-Serif" font-size="10.00"> mField</text>
</g>
<!-- Node56&#45;&gt;Node55 -->
<g id="edge66" class="edge">
<title>Node56&#45;&gt;Node55</title>
<path fill="none" stroke="midnightblue" d="M1214.39,-1364.71C1313.43,-1367.06 1491.78,-1371.3 1599.54,-1373.86"/>
<polygon fill="midnightblue" stroke="midnightblue" points="1214.26,-1361.2 1204.18,-1364.47 1214.1,-1368.2 1214.26,-1361.2"/>
</g>
<!-- Node57 -->
<g id="node57" class="node">
<title>Node57</title>
<g id="a_node57"><a xlink:title=" ">
<polygon fill="white" stroke="#bfbfbf" points="2172.5,-824 2172.5,-876 2339.5,-876 2339.5,-824 2172.5,-824"/>
<text text-anchor="start" x="2180.5" y="-864" font-family="Helvetica,sans-Serif" font-size="10.00">function&lt; MoFEMErrorCode</text>
<text text-anchor="start" x="2180.5" y="-853" font-family="Helvetica,sans-Serif" font-size="10.00">(ForcesAndSourcesCore *fe</text>
<text text-anchor="start" x="2180.5" y="-842" font-family="Helvetica,sans-Serif" font-size="10.00">_raw_ptr, int order_row,</text>
<text text-anchor="middle" x="2256" y="-831" font-family="Helvetica,sans-Serif" font-size="10.00"> int order_col, int order_data)&gt;</text>
</a>
</g>
</g>
<!-- Node57&#45;&gt;Node11 -->
<g id="edge69" class="edge">
<title>Node57&#45;&gt;Node11</title>
<path fill="none" stroke="#9a32cd" stroke-dasharray="5,2" d="M2349.93,-848.17C2407.99,-843.25 2482.22,-829.78 2539,-795 2592.7,-762.1 2630.17,-692.18 2642.55,-666.62"/>
<polygon fill="#9a32cd" stroke="#9a32cd" points="2349.36,-844.7 2339.66,-848.96 2349.9,-851.68 2349.36,-844.7"/>
<text text-anchor="middle" x="2458" y="-848" font-family="Helvetica,sans-Serif" font-size="10.00"> setRuleHook</text>
</g>
<!-- Node58 -->
<g id="node58" class="node">
<title>Node58</title>
<g id="a_node58"><a xlink:title=" ">
<polygon fill="white" stroke="#bfbfbf" points="2155,-775 2155,-805 2357,-805 2357,-775 2155,-775"/>
<text text-anchor="start" x="2163" y="-793" font-family="Helvetica,sans-Serif" font-size="10.00">ptr_deque&lt; MoFEM::Forces</text>
<text text-anchor="middle" x="2256" y="-782" font-family="Helvetica,sans-Serif" font-size="10.00">AndSourcesCore::UserDataOperator &gt;</text>
</a>
</g>
</g>
<!-- Node58&#45;&gt;Node11 -->
<g id="edge70" class="edge">
<title>Node58&#45;&gt;Node11</title>
<path fill="none" stroke="#9a32cd" stroke-dasharray="5,2" d="M2367.51,-782.74C2421.06,-776.18 2485.26,-763.7 2539,-740 2580.54,-721.68 2620.52,-684.15 2637.91,-666.53"/>
<polygon fill="#9a32cd" stroke="#9a32cd" points="2366.81,-779.3 2357.29,-783.93 2367.63,-786.25 2366.81,-779.3"/>
<text text-anchor="middle" x="2458" y="-783" font-family="Helvetica,sans-Serif" font-size="10.00"> opPtrVector</text>
</g>
<!-- Node59 -->
<g id="node59" class="node">
<title>Node59</title>
<g id="a_node59"><a xlink:href="structMoFEM_1_1EntitiesFieldData.html" target="_top" xlink:title="data structure for finite element entity">
<polygon fill="white" stroke="black" points="2185,-895.5 2185,-914.5 2327,-914.5 2327,-895.5 2185,-895.5"/>
<text text-anchor="middle" x="2256" y="-902.5" font-family="Helvetica,sans-Serif" font-size="10.00">MoFEM::EntitiesFieldData</text>
</a>
</g>
</g>
<!-- Node59&#45;&gt;Node11 -->
<g id="edge71" class="edge">
<title>Node59&#45;&gt;Node11</title>
<path fill="none" stroke="#9a32cd" stroke-dasharray="5,2" d="M2337.54,-910.52C2398.21,-910.62 2480.64,-901.67 2539,-860 2609.18,-809.89 2637.82,-699.82 2645.05,-666.65"/>
<polygon fill="#9a32cd" stroke="#9a32cd" points="2337.27,-907.01 2327.24,-910.41 2337.2,-914.01 2337.27,-907.01"/>
<text text-anchor="middle" x="2458" y="-955" font-family="Helvetica,sans-Serif" font-size="10.00"> dataNoField</text>
<text text-anchor="middle" x="2458" y="-944" font-family="Helvetica,sans-Serif" font-size="10.00">dataL2</text>
<text text-anchor="middle" x="2458" y="-933" font-family="Helvetica,sans-Serif" font-size="10.00">dataH1</text>
<text text-anchor="middle" x="2458" y="-922" font-family="Helvetica,sans-Serif" font-size="10.00">dataHcurl</text>
<text text-anchor="middle" x="2458" y="-911" font-family="Helvetica,sans-Serif" font-size="10.00">dataHdiv</text>
</g>
<!-- Node60 -->
<g id="node60" class="node">
<title>Node60</title>
<g id="a_node60"><a xlink:title=" ">
<polygon fill="white" stroke="#bfbfbf" points="1805,-811 1805,-841 1967,-841 1967,-811 1805,-811"/>
<text text-anchor="start" x="1813" y="-829" font-family="Helvetica,sans-Serif" font-size="10.00">array&lt; std::bitset</text>
<text text-anchor="middle" x="1886" y="-818" font-family="Helvetica,sans-Serif" font-size="10.00">&lt; LASTBASE &gt;, LASTSPACE &gt;</text>
</a>
</g>
</g>
<!-- Node60&#45;&gt;Node59 -->
<g id="edge72" class="edge">
<title>Node60&#45;&gt;Node59</title>
<path fill="none" stroke="#9a32cd" stroke-dasharray="5,2" d="M1977.47,-815.71C2027.83,-814.56 2089.36,-821.16 2135,-852 2149.17,-861.57 2139.22,-875.87 2153,-886 2162.36,-892.88 2173.48,-897.5 2184.88,-900.56"/>
<polygon fill="#9a32cd" stroke="#9a32cd" points="1977.11,-812.22 1967.23,-816.06 1977.34,-819.22 1977.11,-812.22"/>
<text text-anchor="middle" x="2063" y="-866" font-family="Helvetica,sans-Serif" font-size="10.00"> brokenBasesOnSpaces</text>
<text text-anchor="middle" x="2063" y="-855" font-family="Helvetica,sans-Serif" font-size="10.00">basesOnSpaces</text>
</g>
<!-- Node61 -->
<g id="node61" class="node">
<title>Node61</title>
<g id="a_node61"><a xlink:title=" ">
<polygon fill="white" stroke="#bfbfbf" points="1809.5,-750.5 1809.5,-791.5 1962.5,-791.5 1962.5,-750.5 1809.5,-750.5"/>
<text text-anchor="start" x="1817.5" y="-779.5" font-family="Helvetica,sans-Serif" font-size="10.00">array&lt; boost::ptr_vector</text>
<text text-anchor="start" x="1817.5" y="-768.5" font-family="Helvetica,sans-Serif" font-size="10.00">&lt; MoFEM::EntitiesFieldData</text>
<text text-anchor="middle" x="1886" y="-757.5" font-family="Helvetica,sans-Serif" font-size="10.00">::EntData &gt;, MBMAXTYPE &gt;</text>
</a>
</g>
</g>
<!-- Node61&#45;&gt;Node59 -->
<g id="edge73" class="edge">
<title>Node61&#45;&gt;Node59</title>
<path fill="none" stroke="#9a32cd" stroke-dasharray="5,2" d="M1972.67,-757.81C2025.85,-754.67 2092.01,-760.71 2135,-800 2163.83,-826.34 2125.08,-858.69 2153,-886 2161.76,-894.56 2173.06,-899.92 2184.93,-903.17"/>
<polygon fill="#9a32cd" stroke="#9a32cd" points="1972.29,-754.32 1962.56,-758.52 1972.78,-761.31 1972.29,-754.32"/>
<text text-anchor="middle" x="2063" y="-803" font-family="Helvetica,sans-Serif" font-size="10.00"> dataOnEntities</text>
</g>
<!-- Node62 -->
<g id="node62" class="node">
<title>Node62</title>
<g id="a_node62"><a xlink:title=" ">
<polygon fill="white" stroke="#bfbfbf" points="1799,-986 1799,-1016 1973,-1016 1973,-986 1799,-986"/>
<text text-anchor="start" x="1807" y="-1004" font-family="Helvetica,sans-Serif" font-size="10.00">array&lt; std::bitset</text>
<text text-anchor="middle" x="1886" y="-993" font-family="Helvetica,sans-Serif" font-size="10.00">&lt; LASTSPACE &gt;, MBMAXTYPE &gt;</text>
</a>
</g>
</g>
<!-- Node62&#45;&gt;Node59 -->
<g id="edge74" class="edge">
<title>Node62&#45;&gt;Node59</title>
<path fill="none" stroke="#9a32cd" stroke-dasharray="5,2" d="M1983.3,-991.13C2029.81,-984.85 2086.01,-974.98 2135,-960 2173.35,-948.27 2215.35,-926.88 2238.08,-914.51"/>
<polygon fill="#9a32cd" stroke="#9a32cd" points="1982.68,-987.68 1973.23,-992.46 1983.6,-994.62 1982.68,-987.68"/>
<text text-anchor="middle" x="2063" y="-992" font-family="Helvetica,sans-Serif" font-size="10.00"> spacesOnEntities</text>
</g>
<!-- Node63 -->
<g id="node63" class="node">
<title>Node63</title>
<g id="a_node63"><a xlink:title=" ">
<polygon fill="white" stroke="#bfbfbf" points="1801.5,-937 1801.5,-967 1970.5,-967 1970.5,-937 1801.5,-937"/>
<text text-anchor="start" x="1809.5" y="-955" font-family="Helvetica,sans-Serif" font-size="10.00">array&lt; std::bitset</text>
<text text-anchor="middle" x="1886" y="-944" font-family="Helvetica,sans-Serif" font-size="10.00">&lt; LASTBASE &gt;, MBMAXTYPE &gt;</text>
</a>
</g>
</g>
<!-- Node63&#45;&gt;Node59 -->
<g id="edge75" class="edge">
<title>Node63&#45;&gt;Node59</title>
<path fill="none" stroke="#9a32cd" stroke-dasharray="5,2" d="M1980.59,-946.29C2027.16,-942.79 2084.21,-937.52 2135,-930 2161.95,-926.01 2191.95,-919.76 2215.21,-914.51"/>
<polygon fill="#9a32cd" stroke="#9a32cd" points="1980.23,-942.81 1970.52,-947.03 1980.75,-949.79 1980.23,-942.81"/>
<text text-anchor="middle" x="2063" y="-948" font-family="Helvetica,sans-Serif" font-size="10.00"> basesOnEntities</text>
</g>
<!-- Node64 -->
<g id="node64" class="node">
<title>Node64</title>
<g id="a_node64"><a xlink:title=" ">
<polygon fill="white" stroke="#bfbfbf" points="1830,-898.5 1830,-917.5 1942,-917.5 1942,-898.5 1830,-898.5"/>
<text text-anchor="middle" x="1886" y="-905.5" font-family="Helvetica,sans-Serif" font-size="10.00">UBlasMatrix&lt; int &gt;</text>
</a>
</g>
</g>
<!-- Node64&#45;&gt;Node59 -->
<g id="edge76" class="edge">
<title>Node64&#45;&gt;Node59</title>
<path fill="none" stroke="#9a32cd" stroke-dasharray="5,2" d="M1952.26,-907.47C2017.56,-906.94 2117.69,-906.12 2184.71,-905.57"/>
<polygon fill="#9a32cd" stroke="#9a32cd" points="1952.06,-903.97 1942.09,-907.55 1952.12,-910.97 1952.06,-903.97"/>
<text text-anchor="middle" x="2063" y="-921" font-family="Helvetica,sans-Serif" font-size="10.00"> facesNodesOrder</text>
<text text-anchor="middle" x="2063" y="-910" font-family="Helvetica,sans-Serif" font-size="10.00">facesNodes</text>
</g>
<!-- Node65 -->
<g id="node65" class="node">
<title>Node65</title>
<g id="a_node65"><a xlink:title=" ">
<polygon fill="white" stroke="#bfbfbf" points="1827.5,-860.5 1827.5,-879.5 1944.5,-879.5 1944.5,-860.5 1827.5,-860.5"/>
<text text-anchor="middle" x="1886" y="-867.5" font-family="Helvetica,sans-Serif" font-size="10.00">bitset&lt; LASTBASE &gt;</text>
</a>
</g>
</g>
<!-- Node65&#45;&gt;Node59 -->
<g id="edge77" class="edge">
<title>Node65&#45;&gt;Node59</title>
<path fill="none" stroke="#9a32cd" stroke-dasharray="5,2" d="M1954.7,-875.15C2004.58,-879.09 2074.06,-884.87 2135,-891 2151.17,-892.63 2168.55,-894.55 2184.92,-896.45"/>
<polygon fill="#9a32cd" stroke="#9a32cd" points="1954.92,-871.66 1944.68,-874.36 1954.37,-878.64 1954.92,-871.66"/>
<text text-anchor="middle" x="2063" y="-894" font-family="Helvetica,sans-Serif" font-size="10.00"> bAse</text>
</g>
<!-- Node66 -->
<g id="node66" class="node">
<title>Node66</title>
<g id="a_node66"><a xlink:title=" ">
<polygon fill="white" stroke="#bfbfbf" points="2193.5,-714.5 2193.5,-755.5 2318.5,-755.5 2318.5,-714.5 2193.5,-714.5"/>
<text text-anchor="start" x="2201.5" y="-743.5" font-family="Helvetica,sans-Serif" font-size="10.00">function&lt; int(int order</text>
<text text-anchor="start" x="2201.5" y="-732.5" font-family="Helvetica,sans-Serif" font-size="10.00">_row, int order_col, int</text>
<text text-anchor="middle" x="2256" y="-721.5" font-family="Helvetica,sans-Serif" font-size="10.00"> order_data)&gt;</text>
</a>
</g>
</g>
<!-- Node66&#45;&gt;Node11 -->
<g id="edge78" class="edge">
<title>Node66&#45;&gt;Node11</title>
<path fill="none" stroke="#9a32cd" stroke-dasharray="5,2" d="M2328.64,-730.22C2386.16,-725.28 2468.65,-715.71 2539,-698 2570.12,-690.17 2604.53,-676.11 2625.96,-666.67"/>
<polygon fill="#9a32cd" stroke="#9a32cd" points="2328.23,-726.74 2318.56,-731.06 2328.81,-733.72 2328.23,-726.74"/>
<text text-anchor="middle" x="2458" y="-728" font-family="Helvetica,sans-Serif" font-size="10.00"> getRuleHook</text>
</g>
<!-- Node67 -->
<g id="node67" class="node">
<title>Node67</title>
<g id="a_node67"><a xlink:title=" ">
<polygon fill="white" stroke="#bfbfbf" points="2195,-665 2195,-695 2317,-695 2317,-665 2195,-665"/>
<text text-anchor="start" x="2203" y="-683" font-family="Helvetica,sans-Serif" font-size="10.00">shared_ptr&lt; MoFEM::</text>
<text text-anchor="middle" x="2256" y="-672" font-family="Helvetica,sans-Serif" font-size="10.00">BaseFunction &gt;</text>
</a>
</g>
</g>
<!-- Node67&#45;&gt;Node11 -->
<g id="edge79" class="edge">
<title>Node67&#45;&gt;Node11</title>
<path fill="none" stroke="#9a32cd" stroke-dasharray="5,2" d="M2327.41,-675.85C2393.58,-671.95 2492.67,-666.1 2562.95,-661.96"/>
<polygon fill="#9a32cd" stroke="#9a32cd" points="2326.86,-672.37 2317.08,-676.46 2327.27,-679.36 2326.86,-672.37"/>
<text text-anchor="middle" x="2458" y="-686" font-family="Helvetica,sans-Serif" font-size="10.00"> userPolynomialBasePtr</text>
<text text-anchor="middle" x="2458" y="-675" font-family="Helvetica,sans-Serif" font-size="10.00">elementPolynomialBasePtr</text>
</g>
<!-- Node68 -->
<g id="node68" class="node">
<title>Node68</title>
<g id="a_node68"><a xlink:href="classUBlasMatrix_3_01double_01_4.html" target="_top" xlink:title=" ">
<polygon fill="white" stroke="black" points="2190,-626.5 2190,-645.5 2322,-645.5 2322,-626.5 2190,-626.5"/>
<text text-anchor="middle" x="2256" y="-633.5" font-family="Helvetica,sans-Serif" font-size="10.00">UBlasMatrix&lt; double &gt;</text>
</a>
</g>
</g>
<!-- Node68&#45;&gt;Node11 -->
<g id="edge80" class="edge">
<title>Node68&#45;&gt;Node11</title>
<path fill="none" stroke="#9a32cd" stroke-dasharray="5,2" d="M2332.13,-632.09C2389.05,-630.08 2469.12,-629.27 2539,-636 2562.01,-638.22 2587.39,-643.03 2607.77,-647.49"/>
<polygon fill="#9a32cd" stroke="#9a32cd" points="2332,-628.6 2322.13,-632.47 2332.26,-635.59 2332,-628.6"/>
<text text-anchor="middle" x="2458" y="-650" font-family="Helvetica,sans-Serif" font-size="10.00"> coordsAtGaussPts</text>
<text text-anchor="middle" x="2458" y="-639" font-family="Helvetica,sans-Serif" font-size="10.00">gaussPts</text>
</g>
<!-- Node69 -->
<g id="node69" class="node">
<title>Node69</title>
<g id="a_node69"><a xlink:title=" ">
<polygon fill="white" stroke="#bfbfbf" points="2582.5,-487.5 2582.5,-506.5 2713.5,-506.5 2713.5,-487.5 2582.5,-487.5"/>
<text text-anchor="middle" x="2648" y="-494.5" font-family="Helvetica,sans-Serif" font-size="10.00">static const char *const</text>
</a>
</g>
</g>
<!-- Node69&#45;&gt;Node3 -->
<g id="edge81" class="edge">
<title>Node69&#45;&gt;Node3</title>
<path fill="none" stroke="#9a32cd" stroke-dasharray="5,2" d="M2723.88,-497C2762.26,-497 2809.15,-497 2848.8,-497"/>
<polygon fill="#9a32cd" stroke="#9a32cd" points="2723.8,-493.5 2713.8,-497 2723.8,-500.5 2723.8,-493.5"/>
<text text-anchor="middle" x="2794" y="-500" font-family="Helvetica,sans-Serif" font-size="10.00"> OpTypeNames</text>
</g>
<!-- Node70 -->
<g id="node70" class="node">
<title>Node70</title>
<g id="a_node70"><a xlink:title=" ">
<polygon fill="white" stroke="#bfbfbf" points="3135,-0.5 3135,-19.5 3218,-19.5 3218,-0.5 3135,-0.5"/>
<text text-anchor="middle" x="3176.5" y="-7.5" font-family="Helvetica,sans-Serif" font-size="10.00">MatrixDouble</text>
</a>
</g>
</g>
<!-- Node70&#45;&gt;Node1 -->
<g id="edge83" class="edge">
<title>Node70&#45;&gt;Node1</title>
<path fill="none" stroke="#9a32cd" stroke-dasharray="5,2" d="M3228.51,-3.67C3257.44,-1.8 3293.96,-2.37 3325,-12 3367.03,-25.04 3407.82,-59.48 3426.05,-76.38"/>
<polygon fill="#9a32cd" stroke="#9a32cd" points="3227.92,-0.2 3218.22,-4.45 3228.46,-7.18 3227.92,-0.2"/>
<text text-anchor="middle" x="3307.5" y="-26" font-family="Helvetica,sans-Serif" font-size="10.00"> transK</text>
<text text-anchor="middle" x="3307.5" y="-15" font-family="Helvetica,sans-Serif" font-size="10.00">K</text>
</g>
<!-- Node71&#45;&gt;Node1 -->
<g id="edge84" class="edge">
<title>Node71&#45;&gt;Node1</title>
<path fill="none" stroke="#9a32cd" stroke-dasharray="5,2" d="M2749.21,-48.54C2881.34,-49.95 3120.99,-54.88 3325,-72 3338.84,-73.16 3353.61,-74.77 3367.7,-76.48"/>
<polygon fill="#9a32cd" stroke="#9a32cd" points="2749.14,-45.04 2739.1,-48.44 2749.07,-52.04 2749.14,-45.04"/>
<text text-anchor="middle" x="3050" y="-60" font-family="Helvetica,sans-Serif" font-size="10.00"> dAta</text>
</g>
<!-- Node72 -->
<g id="node72" class="node">
<title>Node72</title>
<g id="a_node72"><a xlink:href="classRange.html" target="_top" xlink:title=" ">
<polygon fill="white" stroke="black" points="2232.5,-5.5 2232.5,-24.5 2279.5,-24.5 2279.5,-5.5 2232.5,-5.5"/>
<text text-anchor="middle" x="2256" y="-12.5" font-family="Helvetica,sans-Serif" font-size="10.00">Range</text>
</a>
</g>
</g>
<!-- Node72&#45;&gt;Node71 -->
<g id="edge86" class="edge">
<title>Node72&#45;&gt;Node71</title>
<path fill="none" stroke="#9a32cd" stroke-dasharray="5,2" d="M2289.96,-12.11C2342.83,-8.14 2449.73,-2.89 2539,-16 2568.22,-20.29 2600.54,-30.65 2622.14,-38.43"/>
<polygon fill="#9a32cd" stroke="#9a32cd" points="2289.52,-8.63 2279.83,-12.9 2290.07,-15.61 2289.52,-8.63"/>
<text text-anchor="middle" x="2458" y="-19" font-family="Helvetica,sans-Serif" font-size="10.00"> tRis</text>
</g>
</g>
</svg>
