<?xml version="1.0" encoding="UTF-8" standalone="no"?>
<!DOCTYPE svg PUBLIC "-//W3C//DTD SVG 1.1//EN"
 "http://www.w3.org/Graphics/SVG/1.1/DTD/svg11.dtd">
<!-- Generated by graphviz version 2.43.0 (0)
 -->
<!-- Title: CohesiveElement::CohesiveInterfaceElement::OpHistory Pages: 1 -->
<svg width="1862pt" height="428pt"
 viewBox="0.00 0.00 1862.00 428.00" xmlns="http://www.w3.org/2000/svg" xmlns:xlink="http://www.w3.org/1999/xlink">
<g id="graph0" class="graph" transform="scale(1 1) rotate(0) translate(4 424)">
<title>CohesiveElement::CohesiveInterfaceElement::OpHistory</title>
<polygon fill="white" stroke="transparent" points="-4,4 -4,-424 1858,-424 1858,4 -4,4"/>
<!-- Node1 -->
<g id="node1" class="node">
<title>Node1</title>
<g id="a_node1"><a xlink:title="Operator update history variables.">
<polygon fill="#bfbfbf" stroke="black" points="1699,-350 1699,-380 1854,-380 1854,-350 1699,-350"/>
<text text-anchor="start" x="1707" y="-368" font-family="Helvetica,sans-Serif" font-size="10.00">CohesiveElement::Cohesive</text>
<text text-anchor="middle" x="1776.5" y="-357" font-family="Helvetica,sans-Serif" font-size="10.00">InterfaceElement::OpHistory</text>
</a>
</g>
</g>
<!-- Node2 -->
<g id="node2" class="node">
<title>Node2</title>
<g id="a_node2"><a xlink:title=" ">
<polygon fill="white" stroke="#bfbfbf" points="1429.5,-399.5 1429.5,-418.5 1534.5,-418.5 1534.5,-399.5 1429.5,-399.5"/>
<text text-anchor="middle" x="1482" y="-406.5" font-family="Helvetica,sans-Serif" font-size="10.00">UserDataOperator</text>
</a>
</g>
</g>
<!-- Node2&#45;&gt;Node1 -->
<g id="edge1" class="edge">
<title>Node2&#45;&gt;Node1</title>
<path fill="none" stroke="midnightblue" d="M1544.88,-400.13C1583.94,-394.49 1635.44,-386.95 1681,-380 1686.83,-379.11 1692.86,-378.18 1698.92,-377.23"/>
<polygon fill="midnightblue" stroke="midnightblue" points="1544.12,-396.7 1534.72,-401.6 1545.12,-403.63 1544.12,-396.7"/>
</g>
<!-- Node3 -->
<g id="node3" class="node">
<title>Node3</title>
<g id="a_node3"><a xlink:href="structCohesiveElement_1_1CohesiveInterfaceElement_1_1CommonData.html" target="_top" xlink:title=" ">
<polygon fill="white" stroke="black" points="1395,-350 1395,-380 1569,-380 1569,-350 1395,-350"/>
<text text-anchor="start" x="1403" y="-368" font-family="Helvetica,sans-Serif" font-size="10.00">CohesiveElement::Cohesive</text>
<text text-anchor="middle" x="1482" y="-357" font-family="Helvetica,sans-Serif" font-size="10.00">InterfaceElement::CommonData</text>
</a>
</g>
</g>
<!-- Node3&#45;&gt;Node1 -->
<g id="edge2" class="edge">
<title>Node3&#45;&gt;Node1</title>
<path fill="none" stroke="#9a32cd" stroke-dasharray="5,2" d="M1579.44,-365C1618.24,-365 1662.35,-365 1698.89,-365"/>
<polygon fill="#9a32cd" stroke="#9a32cd" points="1579.18,-361.5 1569.18,-365 1579.18,-368.5 1579.18,-361.5"/>
<text text-anchor="middle" x="1638" y="-368" font-family="Helvetica,sans-Serif" font-size="10.00"> commonData</text>
</g>
<!-- Node4 -->
<g id="node4" class="node">
<title>Node4</title>
<g id="a_node4"><a xlink:title=" ">
<polygon fill="white" stroke="#bfbfbf" points="1131,-335.5 1131,-354.5 1214,-354.5 1214,-335.5 1131,-335.5"/>
<text text-anchor="middle" x="1172.5" y="-342.5" font-family="Helvetica,sans-Serif" font-size="10.00">MatrixDouble</text>
</a>
</g>
</g>
<!-- Node4&#45;&gt;Node3 -->
<g id="edge3" class="edge">
<title>Node4&#45;&gt;Node3</title>
<path fill="none" stroke="#9a32cd" stroke-dasharray="5,2" d="M1224.11,-348.29C1270.44,-351.31 1339.95,-355.83 1394.99,-359.41"/>
<polygon fill="#9a32cd" stroke="#9a32cd" points="1224.22,-344.79 1214.02,-347.64 1223.77,-351.78 1224.22,-344.79"/>
<text text-anchor="middle" x="1325" y="-371" font-family="Helvetica,sans-Serif" font-size="10.00"> gapLoc</text>
<text text-anchor="middle" x="1325" y="-360" font-family="Helvetica,sans-Serif" font-size="10.00">gapGlob</text>
</g>
<!-- Node6 -->
<g id="node6" class="node">
<title>Node6</title>
<g id="a_node6"><a xlink:href="structCohesiveElement_1_1CohesiveInterfaceElement_1_1PhysicalEquation.html" target="_top" xlink:title="Constitutive (physical) equation for interface.">
<polygon fill="white" stroke="black" points="1387,-176 1387,-206 1577,-206 1577,-176 1387,-176"/>
<text text-anchor="start" x="1395" y="-194" font-family="Helvetica,sans-Serif" font-size="10.00">CohesiveElement::Cohesive</text>
<text text-anchor="middle" x="1482" y="-183" font-family="Helvetica,sans-Serif" font-size="10.00">InterfaceElement::PhysicalEquation</text>
</a>
</g>
</g>
<!-- Node4&#45;&gt;Node6 -->
<g id="edge6" class="edge">
<title>Node4&#45;&gt;Node6</title>
<path fill="none" stroke="#9a32cd" stroke-dasharray="5,2" d="M1224.11,-334.41C1273.33,-323.6 1344.19,-306.53 1369,-293 1410.79,-270.21 1449.47,-228.66 1468.55,-206.27"/>
<polygon fill="#9a32cd" stroke="#9a32cd" points="1223.3,-331 1214.27,-336.55 1224.78,-337.84 1223.3,-331"/>
<text text-anchor="middle" x="1325" y="-334" font-family="Helvetica,sans-Serif" font-size="10.00"> Dglob</text>
<text text-anchor="middle" x="1325" y="-323" font-family="Helvetica,sans-Serif" font-size="10.00">Dloc</text>
</g>
<!-- Node5 -->
<g id="node5" class="node">
<title>Node5</title>
<g id="a_node5"><a xlink:title=" ">
<polygon fill="white" stroke="#bfbfbf" points="1104.5,-400.5 1104.5,-419.5 1240.5,-419.5 1240.5,-400.5 1104.5,-400.5"/>
<text text-anchor="middle" x="1172.5" y="-407.5" font-family="Helvetica,sans-Serif" font-size="10.00">vector&lt; MatrixDouble &gt;</text>
</a>
</g>
</g>
<!-- Node5&#45;&gt;Node3 -->
<g id="edge4" class="edge">
<title>Node5&#45;&gt;Node3</title>
<path fill="none" stroke="#9a32cd" stroke-dasharray="5,2" d="M1250.46,-399.77C1286.49,-394.88 1329.97,-388.83 1369,-383 1377.38,-381.75 1386.1,-380.41 1394.81,-379.05"/>
<polygon fill="#9a32cd" stroke="#9a32cd" points="1249.95,-396.31 1240.51,-401.12 1250.89,-403.24 1249.95,-396.31"/>
<text text-anchor="middle" x="1325" y="-398" font-family="Helvetica,sans-Serif" font-size="10.00"> R</text>
</g>
<!-- Node6&#45;&gt;Node1 -->
<g id="edge5" class="edge">
<title>Node6&#45;&gt;Node1</title>
<path fill="none" stroke="#9a32cd" stroke-dasharray="5,2" d="M1517.07,-211.27C1576.35,-246.53 1697.16,-318.4 1749.9,-349.77"/>
<polygon fill="#9a32cd" stroke="#9a32cd" points="1518.83,-208.24 1508.45,-206.14 1515.25,-214.26 1518.83,-208.24"/>
<text text-anchor="middle" x="1638" y="-311" font-family="Helvetica,sans-Serif" font-size="10.00"> physicalEqations</text>
</g>
<!-- Node7 -->
<g id="node7" class="node">
<title>Node7</title>
<g id="a_node7"><a xlink:href="classdouble.html" target="_top" xlink:title=" ">
<polygon fill="white" stroke="black" points="1147.5,-120.5 1147.5,-139.5 1197.5,-139.5 1197.5,-120.5 1147.5,-120.5"/>
<text text-anchor="middle" x="1172.5" y="-127.5" font-family="Helvetica,sans-Serif" font-size="10.00">double</text>
</a>
</g>
</g>
<!-- Node7&#45;&gt;Node6 -->
<g id="edge7" class="edge">
<title>Node7&#45;&gt;Node6</title>
<path fill="none" stroke="#9a32cd" stroke-dasharray="5,2" d="M1207.72,-123.94C1247.29,-118.2 1314.04,-112.4 1369,-127 1404.5,-136.43 1440.48,-160.04 1461.76,-175.8"/>
<polygon fill="#9a32cd" stroke="#9a32cd" points="1207.14,-120.49 1197.79,-125.47 1208.2,-127.41 1207.14,-120.49"/>
<text text-anchor="middle" x="1325" y="-218" font-family="Helvetica,sans-Serif" font-size="10.00"> beta</text>
<text text-anchor="middle" x="1325" y="-207" font-family="Helvetica,sans-Serif" font-size="10.00">h</text>
<text text-anchor="middle" x="1325" y="-196" font-family="Helvetica,sans-Serif" font-size="10.00">youngModulus</text>
<text text-anchor="middle" x="1325" y="-185" font-family="Helvetica,sans-Serif" font-size="10.00">kappaPtr</text>
<text text-anchor="middle" x="1325" y="-174" font-family="Helvetica,sans-Serif" font-size="10.00">kappa1</text>
<text text-anchor="middle" x="1325" y="-163" font-family="Helvetica,sans-Serif" font-size="10.00">g0</text>
<text text-anchor="middle" x="1325" y="-152" font-family="Helvetica,sans-Serif" font-size="10.00">E0</text>
<text text-anchor="middle" x="1325" y="-141" font-family="Helvetica,sans-Serif" font-size="10.00">Gf</text>
<text text-anchor="middle" x="1325" y="-130" font-family="Helvetica,sans-Serif" font-size="10.00">ft</text>
</g>
<!-- Node8 -->
<g id="node8" class="node">
<title>Node8</title>
<g id="a_node8"><a xlink:title=" ">
<polygon fill="white" stroke="#bfbfbf" points="1156,-76.5 1156,-95.5 1189,-95.5 1189,-76.5 1156,-76.5"/>
<text text-anchor="middle" x="1172.5" y="-83.5" font-family="Helvetica,sans-Serif" font-size="10.00">Tag</text>
</a>
</g>
</g>
<!-- Node8&#45;&gt;Node6 -->
<g id="edge8" class="edge">
<title>Node8&#45;&gt;Node6</title>
<path fill="none" stroke="#9a32cd" stroke-dasharray="5,2" d="M1199.51,-81.38C1238.06,-75.71 1311.97,-69.4 1369,-92 1413.15,-109.5 1451.41,-152.57 1469.64,-175.71"/>
<polygon fill="#9a32cd" stroke="#9a32cd" points="1198.51,-78 1189.17,-83.01 1199.6,-84.91 1198.51,-78"/>
<text text-anchor="middle" x="1325" y="-106" font-family="Helvetica,sans-Serif" font-size="10.00"> thDamagedPrism</text>
<text text-anchor="middle" x="1325" y="-95" font-family="Helvetica,sans-Serif" font-size="10.00">thKappa</text>
</g>
<!-- Node9 -->
<g id="node9" class="node">
<title>Node9</title>
<g id="a_node9"><a xlink:href="structMoFEM_1_1DeprecatedCoreInterface.html" target="_top" xlink:title="Deprecated interface functions.">
<polygon fill="white" stroke="black" points="1082,-38.5 1082,-57.5 1263,-57.5 1263,-38.5 1082,-38.5"/>
<text text-anchor="middle" x="1172.5" y="-45.5" font-family="Helvetica,sans-Serif" font-size="10.00">MoFEM::DeprecatedCoreInterface</text>
</a>
</g>
</g>
<!-- Node9&#45;&gt;Node6 -->
<g id="edge9" class="edge">
<title>Node9&#45;&gt;Node6</title>
<path fill="none" stroke="#9a32cd" stroke-dasharray="5,2" d="M1273.71,-40.48C1305.57,-41.86 1340.03,-47.51 1369,-62 1419.93,-87.47 1457.47,-147.3 1473.05,-175.62"/>
<polygon fill="#9a32cd" stroke="#9a32cd" points="1273.57,-36.98 1263.47,-40.18 1273.36,-43.98 1273.57,-36.98"/>
<text text-anchor="middle" x="1325" y="-65" font-family="Helvetica,sans-Serif" font-size="10.00"> mField</text>
</g>
<!-- Node10 -->
<g id="node10" class="node">
<title>Node10</title>
<g id="a_node10"><a xlink:href="structMoFEM_1_1CoreInterface.html" target="_top" xlink:title="Interface.">
<polygon fill="white" stroke="black" points="920,-38.5 920,-57.5 1045,-57.5 1045,-38.5 920,-38.5"/>
<text text-anchor="middle" x="982.5" y="-45.5" font-family="Helvetica,sans-Serif" font-size="10.00">MoFEM::CoreInterface</text>
</a>
</g>
</g>
<!-- Node10&#45;&gt;Node9 -->
<g id="edge10" class="edge">
<title>Node10&#45;&gt;Node9</title>
<path fill="none" stroke="midnightblue" d="M1055.16,-48C1063.89,-48 1072.89,-48 1081.84,-48"/>
<polygon fill="midnightblue" stroke="midnightblue" points="1055.06,-44.5 1045.06,-48 1055.06,-51.5 1055.06,-44.5"/>
</g>
<!-- Node11 -->
<g id="node11" class="node">
<title>Node11</title>
<g id="a_node11"><a xlink:href="structMoFEM_1_1UnknownInterface.html" target="_top" xlink:title="base class for all interface classes">
<polygon fill="white" stroke="black" points="735,-38.5 735,-57.5 883,-57.5 883,-38.5 735,-38.5"/>
<text text-anchor="middle" x="809" y="-45.5" font-family="Helvetica,sans-Serif" font-size="10.00">MoFEM::UnknownInterface</text>
</a>
</g>
</g>
<!-- Node11&#45;&gt;Node10 -->
<g id="edge11" class="edge">
<title>Node11&#45;&gt;Node10</title>
<path fill="none" stroke="midnightblue" d="M893.29,-48C902.24,-48 911.22,-48 919.85,-48"/>
<polygon fill="midnightblue" stroke="midnightblue" points="893.23,-44.5 883.23,-48 893.23,-51.5 893.23,-44.5"/>
</g>
<!-- Node12 -->
<g id="node12" class="node">
<title>Node12</title>
<g id="a_node12"><a xlink:title=" ">
<polygon fill="white" stroke="#bfbfbf" points="386,-16.5 386,-79.5 627,-79.5 627,-16.5 386,-16.5"/>
<text text-anchor="start" x="394" y="-67.5" font-family="Helvetica,sans-Serif" font-size="10.00">multi_index_container</text>
<text text-anchor="start" x="394" y="-56.5" font-family="Helvetica,sans-Serif" font-size="10.00">&lt; UIdTypeMap, indexed</text>
<text text-anchor="start" x="394" y="-45.5" font-family="Helvetica,sans-Serif" font-size="10.00">_by&lt; hashed_unique&lt; member</text>
<text text-anchor="start" x="394" y="-34.5" font-family="Helvetica,sans-Serif" font-size="10.00">&lt; UIdTypeMap, boost::typeindex</text>
<text text-anchor="middle" x="506.5" y="-23.5" font-family="Helvetica,sans-Serif" font-size="10.00">::type_index, &amp;UIdTypeMap::classIdx &gt; &gt; &gt; &gt;</text>
</a>
</g>
</g>
<!-- Node12&#45;&gt;Node11 -->
<g id="edge12" class="edge">
<title>Node12&#45;&gt;Node11</title>
<path fill="none" stroke="#9a32cd" stroke-dasharray="5,2" d="M637.41,-48C670.69,-48 705.33,-48 734.62,-48"/>
<polygon fill="#9a32cd" stroke="#9a32cd" points="637.13,-44.5 627.13,-48 637.13,-51.5 637.13,-44.5"/>
<text text-anchor="middle" x="681" y="-51" font-family="Helvetica,sans-Serif" font-size="10.00"> iFaceTypeMap</text>
</g>
<!-- Node13 -->
<g id="node13" class="node">
<title>Node13</title>
<g id="a_node13"><a xlink:title=" ">
<polygon fill="white" stroke="#bfbfbf" points="0,-38.5 0,-57.5 125,-57.5 125,-38.5 0,-38.5"/>
<text text-anchor="middle" x="62.5" y="-45.5" font-family="Helvetica,sans-Serif" font-size="10.00">multi_index_container</text>
</a>
</g>
</g>
<!-- Node13&#45;&gt;Node12 -->
<g id="edge13" class="edge">
<title>Node13&#45;&gt;Node12</title>
<path fill="none" stroke="orange" stroke-dasharray="5,2" d="M135.56,-48C203.25,-48 305.79,-48 385.77,-48"/>
<polygon fill="orange" stroke="orange" points="135.42,-44.5 125.42,-48 135.42,-51.5 135.42,-44.5"/>
<text text-anchor="start" x="143" y="-84" font-family="Helvetica,sans-Serif" font-size="10.00"> &lt; UIdTypeMap, indexed</text>
<text text-anchor="start" x="143" y="-73" font-family="Helvetica,sans-Serif" font-size="10.00">_by&lt; hashed_unique&lt; member</text>
<text text-anchor="start" x="143" y="-62" font-family="Helvetica,sans-Serif" font-size="10.00">&lt; UIdTypeMap, boost::typeindex</text>
<text text-anchor="middle" x="255.5" y="-51" font-family="Helvetica,sans-Serif" font-size="10.00">::type_index, &amp;UIdTypeMap::classIdx &gt; &gt; &gt; &gt;</text>
</g>
<!-- Node14 -->
<g id="node14" class="node">
<title>Node14</title>
<g id="a_node14"><a xlink:href="classRange.html" target="_top" xlink:title=" ">
<polygon fill="white" stroke="black" points="1149,-0.5 1149,-19.5 1196,-19.5 1196,-0.5 1149,-0.5"/>
<text text-anchor="middle" x="1172.5" y="-7.5" font-family="Helvetica,sans-Serif" font-size="10.00">Range</text>
</a>
</g>
</g>
<!-- Node14&#45;&gt;Node6 -->
<g id="edge14" class="edge">
<title>Node14&#45;&gt;Node6</title>
<path fill="none" stroke="#9a32cd" stroke-dasharray="5,2" d="M1206.14,-4.55C1247.14,0.57 1318.26,3.6 1369,-26 1428.81,-60.89 1463.53,-141.97 1475.85,-175.78"/>
<polygon fill="#9a32cd" stroke="#9a32cd" points="1205.59,-1.09 1196.15,-5.91 1206.54,-8.03 1205.59,-1.09"/>
<text text-anchor="middle" x="1325" y="-29" font-family="Helvetica,sans-Serif" font-size="10.00"> pRisms</text>
</g>
<!-- Node15 -->
<g id="node15" class="node">
<title>Node15</title>
<g id="a_node15"><a xlink:title=" ">
<polygon fill="white" stroke="#bfbfbf" points="1158,-278.5 1158,-297.5 1187,-297.5 1187,-278.5 1158,-278.5"/>
<text text-anchor="middle" x="1172.5" y="-285.5" font-family="Helvetica,sans-Serif" font-size="10.00">int</text>
</a>
</g>
</g>
<!-- Node15&#45;&gt;Node6 -->
<g id="edge15" class="edge">
<title>Node15&#45;&gt;Node6</title>
<path fill="none" stroke="#9a32cd" stroke-dasharray="5,2" d="M1197.66,-287.27C1235.33,-285.48 1309.86,-279.3 1369,-258 1403.75,-245.49 1439.65,-221.75 1461.15,-206.15"/>
<polygon fill="#9a32cd" stroke="#9a32cd" points="1197.06,-283.79 1187.22,-287.7 1197.35,-290.78 1197.06,-283.79"/>
<text text-anchor="middle" x="1325" y="-281" font-family="Helvetica,sans-Serif" font-size="10.00"> kappaSize</text>
</g>
<!-- Node16 -->
<g id="node16" class="node">
<title>Node16</title>
<g id="a_node16"><a xlink:href="classbool.html" target="_top" xlink:title=" ">
<polygon fill="white" stroke="black" points="1153.5,-240.5 1153.5,-259.5 1191.5,-259.5 1191.5,-240.5 1153.5,-240.5"/>
<text text-anchor="middle" x="1172.5" y="-247.5" font-family="Helvetica,sans-Serif" font-size="10.00">bool</text>
</a>
</g>
</g>
<!-- Node16&#45;&gt;Node6 -->
<g id="edge16" class="edge">
<title>Node16&#45;&gt;Node6</title>
<path fill="none" stroke="#9a32cd" stroke-dasharray="5,2" d="M1201.89,-249.17C1240.23,-247.57 1310.49,-242.99 1369,-230 1394.93,-224.24 1423.17,-214.38 1444.8,-206.02"/>
<polygon fill="#9a32cd" stroke="#9a32cd" points="1201.37,-245.68 1191.51,-249.56 1201.64,-252.68 1201.37,-245.68"/>
<text text-anchor="middle" x="1325" y="-246" font-family="Helvetica,sans-Serif" font-size="10.00"> isInitialised</text>
</g>
</g>
</svg>
