<?xml version="1.0" encoding="UTF-8" standalone="no"?>
<!DOCTYPE svg PUBLIC "-//W3C//DTD SVG 1.1//EN"
 "http://www.w3.org/Graphics/SVG/1.1/DTD/svg11.dtd">
<!-- Generated by graphviz version 2.43.0 (0)
 -->
<!-- Title: MixedPoisson Pages: 1 -->
<!--zoomable 1638 -->
<svg id="main" version="1.1" xmlns="http://www.w3.org/2000/svg" xmlns:xlink="http://www.w3.org/1999/xlink" xml:space="preserve" onload="init(evt)">
<style type="text/css"><![CDATA[
.edge:hover path { stroke: red; }
.edge:hover polygon { stroke: red; fill: red; }
]]></style>
<script type="text/javascript"><![CDATA[
var edges = document.getElementsByTagName('g');
if (edges && edges.length) {
  for (var i=0;i<edges.length;i++) {
    if (edges[i].id.substr(0,4)=='edge') {
      edges[i].setAttribute('class','edge');
    }
  }
}
]]></script>
        <defs>
                <circle id="rim" cx="0" cy="0" r="7"/>
                <circle id="rim2" cx="0" cy="0" r="3.5"/>
                <g id="zoomPlus">
                        <use xlink:href="#rim" fill="#404040">
                                <set attributeName="fill" to="#808080" begin="zoomplus.mouseover" end="zoomplus.mouseout"/>
                        </use>
                        <path d="M-4,0h8M0,-4v8" fill="none" stroke="white" stroke-width="1.5" pointer-events="none"/>
                </g>
                <g id="zoomMin">
                        <use xlink:href="#rim" fill="#404040">
                                <set attributeName="fill" to="#808080" begin="zoomminus.mouseover" end="zoomminus.mouseout"/>
                        </use>
                        <path d="M-4,0h8" fill="none" stroke="white" stroke-width="1.5" pointer-events="none"/>
                </g>
                <g id="dirArrow">
                        <path fill="none" stroke="white" stroke-width="1.5" d="M0,-3.0v7 M-2.5,-0.5L0,-3.0L2.5,-0.5"/>
                </g>
               <g id="resetDef">
                       <use xlink:href="#rim2" fill="#404040">
                               <set attributeName="fill" to="#808080" begin="reset.mouseover" end="reset.mouseout"/>
                       </use>
               </g>
        </defs>

<script type="text/javascript">
var viewWidth = 4299;
var viewHeight = 1638;
var sectionId = 'dynsection-0';
</script>
<script xlink:href="svgpan.js"/>
<svg id="graph" class="graph">
<g id="viewport">
<title>MixedPoisson</title>
<polygon fill="white" stroke="transparent" points="-4,4 -4,-1634.42 4295,-1634.42 4295,4 -4,4"/>
<!-- Node1 -->
<g id="node1" class="node">
<title>Node1</title>
<g id="a_node1"><a xlink:title=" ">
<polygon fill="#bfbfbf" stroke="black" points="4208,-1476.92 4208,-1495.92 4291,-1495.92 4291,-1476.92 4208,-1476.92"/>
<text text-anchor="middle" x="4249.5" y="-1483.92" font-family="Helvetica,sans-Serif" font-size="10.00">MixedPoisson</text>
</a>
</g>
</g>
<!-- Node2 -->
<g id="node2" class="node">
<title>Node2</title>
<g id="a_node2"><a xlink:href="classdouble.html" target="_top" xlink:title=" ">
<polygon fill="white" stroke="black" points="3986,-1583.92 3986,-1602.92 4036,-1602.92 4036,-1583.92 3986,-1583.92"/>
<text text-anchor="middle" x="4011" y="-1590.92" font-family="Helvetica,sans-Serif" font-size="10.00">double</text>
</a>
</g>
</g>
<!-- Node2&#45;&gt;Node1 -->
<g id="edge1" class="edge">
<title>Node2&#45;&gt;Node1</title>
<path fill="none" stroke="#9a32cd" stroke-dasharray="5,2" d="M4046.7,-1592.56C4084.44,-1590.2 4145.32,-1582.13 4190,-1555.42 4214.8,-1540.59 4234.17,-1511.43 4243.11,-1496.2"/>
<polygon fill="#9a32cd" stroke="#9a32cd" points="4046.05,-1589.09 4036.24,-1593.1 4046.41,-1596.08 4046.05,-1589.09"/>
<text text-anchor="middle" x="4146" y="-1622.42" font-family="Helvetica,sans-Serif" font-size="10.00"> totErrorIndicator</text>
<text text-anchor="middle" x="4146" y="-1611.42" font-family="Helvetica,sans-Serif" font-size="10.00">indicTolerance</text>
<text text-anchor="middle" x="4146" y="-1600.42" font-family="Helvetica,sans-Serif" font-size="10.00">thetaParam</text>
<text text-anchor="middle" x="4146" y="-1589.42" font-family="Helvetica,sans-Serif" font-size="10.00">maxErrorIndicator</text>
</g>
<!-- Node3 -->
<g id="node3" class="node">
<title>Node3</title>
<g id="a_node3"><a xlink:title=" ">
<polygon fill="white" stroke="#bfbfbf" points="3938,-1534.42 3938,-1564.42 4084,-1564.42 4084,-1534.42 3938,-1534.42"/>
<text text-anchor="start" x="3946" y="-1552.42" font-family="Helvetica,sans-Serif" font-size="10.00">shared_ptr&lt; MixedPoisson</text>
<text text-anchor="middle" x="4011" y="-1541.42" font-family="Helvetica,sans-Serif" font-size="10.00">::CommonData &gt;</text>
</a>
</g>
</g>
<!-- Node3&#45;&gt;Node1 -->
<g id="edge2" class="edge">
<title>Node3&#45;&gt;Node1</title>
<path fill="none" stroke="#9a32cd" stroke-dasharray="5,2" d="M4094.25,-1541.61C4124.9,-1537.13 4159.61,-1530.18 4190,-1519.42 4206.27,-1513.66 4223.28,-1503.53 4234.74,-1496.01"/>
<polygon fill="#9a32cd" stroke="#9a32cd" points="4093.45,-1538.18 4084.03,-1543.03 4094.41,-1545.12 4093.45,-1538.18"/>
<text text-anchor="middle" x="4146" y="-1543.42" font-family="Helvetica,sans-Serif" font-size="10.00"> commonDataPtr</text>
</g>
<!-- Node4 -->
<g id="node4" class="node">
<title>Node4</title>
<g id="a_node4"><a xlink:href="structMoFEM_1_1DeprecatedCoreInterface.html" target="_top" xlink:title="Deprecated interface functions.">
<polygon fill="white" stroke="black" points="3331,-1489.92 3331,-1508.92 3512,-1508.92 3512,-1489.92 3331,-1489.92"/>
<text text-anchor="middle" x="3421.5" y="-1496.92" font-family="Helvetica,sans-Serif" font-size="10.00">MoFEM::DeprecatedCoreInterface</text>
</a>
</g>
</g>
<!-- Node4&#45;&gt;Node1 -->
<g id="edge3" class="edge">
<title>Node4&#45;&gt;Node1</title>
<path fill="none" stroke="#9a32cd" stroke-dasharray="5,2" d="M3522.18,-1497.85C3704.2,-1494.98 4083.09,-1489.02 4207.76,-1487.06"/>
<polygon fill="#9a32cd" stroke="#9a32cd" points="3522.02,-1494.35 3512.07,-1498.01 3522.13,-1501.35 3522.02,-1494.35"/>
<text text-anchor="middle" x="3840" y="-1497.42" font-family="Helvetica,sans-Serif" font-size="10.00"> mField</text>
</g>
<!-- Node5 -->
<g id="node5" class="node">
<title>Node5</title>
<g id="a_node5"><a xlink:href="structMoFEM_1_1CoreInterface.html" target="_top" xlink:title="Interface.">
<polygon fill="white" stroke="black" points="2663.5,-1404.92 2663.5,-1423.92 2788.5,-1423.92 2788.5,-1404.92 2663.5,-1404.92"/>
<text text-anchor="middle" x="2726" y="-1411.92" font-family="Helvetica,sans-Serif" font-size="10.00">MoFEM::CoreInterface</text>
</a>
</g>
</g>
<!-- Node5&#45;&gt;Node4 -->
<g id="edge4" class="edge">
<title>Node5&#45;&gt;Node4</title>
<path fill="none" stroke="midnightblue" d="M2798.49,-1423.18C2929.58,-1439.25 3207.4,-1473.3 3342.91,-1489.91"/>
<polygon fill="midnightblue" stroke="midnightblue" points="2798.9,-1419.7 2788.54,-1421.96 2798.04,-1426.65 2798.9,-1419.7"/>
</g>
<!-- Node26 -->
<g id="node26" class="node">
<title>Node26</title>
<g id="a_node26"><a xlink:href="structMoFEM_1_1DeprecatedCoreInterface.html" target="_top" xlink:title="Deprecated interface functions.">
<polygon fill="white" stroke="black" points="3170.5,-1144.92 3170.5,-1163.92 3230.5,-1163.92 3230.5,-1144.92 3170.5,-1144.92"/>
<text text-anchor="middle" x="3200.5" y="-1151.92" font-family="Helvetica,sans-Serif" font-size="10.00">Interface</text>
</a>
</g>
</g>
<!-- Node5&#45;&gt;Node26 -->
<g id="edge28" class="edge">
<title>Node5&#45;&gt;Node26</title>
<path fill="none" stroke="midnightblue" d="M2757.42,-1400.71C2820.92,-1371.04 2969.98,-1295.78 3070,-1200.42 3080.17,-1190.72 3076.18,-1182.02 3088,-1174.42 3112.65,-1158.57 3146.38,-1154.39 3170.26,-1153.67"/>
<polygon fill="midnightblue" stroke="midnightblue" points="2755.93,-1397.54 2748.33,-1404.92 2758.88,-1403.89 2755.93,-1397.54"/>
</g>
<!-- Node6 -->
<g id="node6" class="node">
<title>Node6</title>
<g id="a_node6"><a xlink:href="structMoFEM_1_1UnknownInterface.html" target="_top" xlink:title="base class for all interface classes">
<polygon fill="white" stroke="black" points="2166,-1404.92 2166,-1423.92 2314,-1423.92 2314,-1404.92 2166,-1404.92"/>
<text text-anchor="middle" x="2240" y="-1411.92" font-family="Helvetica,sans-Serif" font-size="10.00">MoFEM::UnknownInterface</text>
</a>
</g>
</g>
<!-- Node6&#45;&gt;Node5 -->
<g id="edge5" class="edge">
<title>Node6&#45;&gt;Node5</title>
<path fill="none" stroke="midnightblue" d="M2324.25,-1414.42C2420.69,-1414.42 2577.31,-1414.42 2663.42,-1414.42"/>
<polygon fill="midnightblue" stroke="midnightblue" points="2324.25,-1410.92 2314.25,-1414.42 2324.25,-1417.92 2324.25,-1410.92"/>
</g>
<!-- Node11 -->
<g id="node11" class="node">
<title>Node11</title>
<g id="a_node11"><a xlink:href="structMoFEM_1_1Simple.html" target="_top" xlink:title="Simple interface for fast problem set&#45;up.">
<polygon fill="white" stroke="black" points="3965,-1029.92 3965,-1048.92 4057,-1048.92 4057,-1029.92 3965,-1029.92"/>
<text text-anchor="middle" x="4011" y="-1036.92" font-family="Helvetica,sans-Serif" font-size="10.00">MoFEM::Simple</text>
</a>
</g>
</g>
<!-- Node6&#45;&gt;Node11 -->
<g id="edge11" class="edge">
<title>Node6&#45;&gt;Node11</title>
<path fill="none" stroke="midnightblue" d="M2271.01,-1428.3C2345.89,-1461.62 2547.73,-1543.42 2725,-1543.42 2725,-1543.42 2725,-1543.42 3637,-1543.42 3763.68,-1543.42 3827.36,-1595.82 3920,-1509.42 3990.48,-1443.68 4007.13,-1111.09 4009.63,-1049.3"/>
<polygon fill="midnightblue" stroke="midnightblue" points="2272.26,-1425.02 2261.7,-1424.11 2269.39,-1431.41 2272.26,-1425.02"/>
</g>
<!-- Node7 -->
<g id="node7" class="node">
<title>Node7</title>
<g id="a_node7"><a xlink:title=" ">
<polygon fill="white" stroke="#bfbfbf" points="1003.5,-1363.92 1003.5,-1426.92 1244.5,-1426.92 1244.5,-1363.92 1003.5,-1363.92"/>
<text text-anchor="start" x="1011.5" y="-1414.92" font-family="Helvetica,sans-Serif" font-size="10.00">multi_index_container</text>
<text text-anchor="start" x="1011.5" y="-1403.92" font-family="Helvetica,sans-Serif" font-size="10.00">&lt; UIdTypeMap, indexed</text>
<text text-anchor="start" x="1011.5" y="-1392.92" font-family="Helvetica,sans-Serif" font-size="10.00">_by&lt; hashed_unique&lt; member</text>
<text text-anchor="start" x="1011.5" y="-1381.92" font-family="Helvetica,sans-Serif" font-size="10.00">&lt; UIdTypeMap, boost::typeindex</text>
<text text-anchor="middle" x="1124" y="-1370.92" font-family="Helvetica,sans-Serif" font-size="10.00">::type_index, &amp;UIdTypeMap::classIdx &gt; &gt; &gt; &gt;</text>
</a>
</g>
</g>
<!-- Node7&#45;&gt;Node6 -->
<g id="edge6" class="edge">
<title>Node7&#45;&gt;Node6</title>
<path fill="none" stroke="#9a32cd" stroke-dasharray="5,2" d="M1255.08,-1397.64C1490.62,-1401.65 1980.52,-1410.01 2165.84,-1413.17"/>
<polygon fill="#9a32cd" stroke="#9a32cd" points="1254.8,-1394.13 1244.75,-1397.46 1254.69,-1401.13 1254.8,-1394.13"/>
<text text-anchor="middle" x="1720.5" y="-1415.42" font-family="Helvetica,sans-Serif" font-size="10.00"> iFaceTypeMap</text>
</g>
<!-- Node8 -->
<g id="node8" class="node">
<title>Node8</title>
<g id="a_node8"><a xlink:title=" ">
<polygon fill="white" stroke="#bfbfbf" points="0,-716.92 0,-735.92 125,-735.92 125,-716.92 0,-716.92"/>
<text text-anchor="middle" x="62.5" y="-723.92" font-family="Helvetica,sans-Serif" font-size="10.00">multi_index_container</text>
</a>
</g>
</g>
<!-- Node8&#45;&gt;Node7 -->
<g id="edge7" class="edge">
<title>Node8&#45;&gt;Node7</title>
<path fill="none" stroke="orange" stroke-dasharray="5,2" d="M63.3,-746.26C62.85,-835.67 65.84,-1199.93 143,-1275.42 374.12,-1501.52 796.69,-1459.58 1003.12,-1421.84"/>
<polygon fill="orange" stroke="orange" points="66.8,-746.16 63.38,-736.14 59.8,-746.11 66.8,-746.16"/>
<text text-anchor="start" x="423" y="-1488.42" font-family="Helvetica,sans-Serif" font-size="10.00"> &lt; UIdTypeMap, indexed</text>
<text text-anchor="start" x="423" y="-1477.42" font-family="Helvetica,sans-Serif" font-size="10.00">_by&lt; hashed_unique&lt; member</text>
<text text-anchor="start" x="423" y="-1466.42" font-family="Helvetica,sans-Serif" font-size="10.00">&lt; UIdTypeMap, boost::typeindex</text>
<text text-anchor="middle" x="535.5" y="-1455.42" font-family="Helvetica,sans-Serif" font-size="10.00">::type_index, &amp;UIdTypeMap::classIdx &gt; &gt; &gt; &gt;</text>
</g>
<!-- Node27 -->
<g id="node27" class="node">
<title>Node27</title>
<g id="a_node27"><a xlink:title=" ">
<polygon fill="white" stroke="#bfbfbf" points="1320,-621.92 1320,-816.92 2121,-816.92 2121,-621.92 1320,-621.92"/>
<text text-anchor="start" x="1328" y="-804.92" font-family="Helvetica,sans-Serif" font-size="10.00">multi_index_container</text>
<text text-anchor="start" x="1328" y="-793.92" font-family="Helvetica,sans-Serif" font-size="10.00">&lt; FieldEntityEntFiniteElement</text>
<text text-anchor="start" x="1328" y="-782.92" font-family="Helvetica,sans-Serif" font-size="10.00">AdjacencyMap, indexed_by&lt;</text>
<text text-anchor="start" x="1328" y="-771.92" font-family="Helvetica,sans-Serif" font-size="10.00"> ordered_unique&lt; tag&lt; Composite</text>
<text text-anchor="start" x="1328" y="-760.92" font-family="Helvetica,sans-Serif" font-size="10.00">_Unique_mi_tag &gt;, composite_key</text>
<text text-anchor="start" x="1328" y="-749.92" font-family="Helvetica,sans-Serif" font-size="10.00">&lt; FieldEntityEntFiniteElementAdjacencyMap,</text>
<text text-anchor="start" x="1328" y="-738.92" font-family="Helvetica,sans-Serif" font-size="10.00"> const_mem_fun&lt; FieldEntityEntFiniteElementAdjacency</text>
<text text-anchor="start" x="1328" y="-727.92" font-family="Helvetica,sans-Serif" font-size="10.00">Map, UId, &amp;FieldEntityEntFiniteElementAdjacencyMap</text>
<text text-anchor="start" x="1328" y="-716.92" font-family="Helvetica,sans-Serif" font-size="10.00">::getEntUniqueId &gt;, const_mem_fun&lt; FieldEntityEntFiniteElementAdjacency</text>
<text text-anchor="start" x="1328" y="-705.92" font-family="Helvetica,sans-Serif" font-size="10.00">Map, UId, &amp;FieldEntityEntFiniteElementAdjacencyMap::getFeUniqueId</text>
<text text-anchor="start" x="1328" y="-694.92" font-family="Helvetica,sans-Serif" font-size="10.00"> &gt; &gt; &gt;, ordered_non_unique&lt; tag&lt; Unique_mi_tag &gt;, const_mem_fun</text>
<text text-anchor="start" x="1328" y="-683.92" font-family="Helvetica,sans-Serif" font-size="10.00">&lt; FieldEntityEntFiniteElementAdjacencyMap, UId, &amp;FieldEntityEntFiniteElementAdjacencyMap</text>
<text text-anchor="start" x="1328" y="-672.92" font-family="Helvetica,sans-Serif" font-size="10.00">::getEntUniqueId &gt; &gt;, ordered_non_unique&lt; tag&lt; FE_Unique_mi_tag &gt;, const_mem_fun</text>
<text text-anchor="start" x="1328" y="-661.92" font-family="Helvetica,sans-Serif" font-size="10.00">&lt; FieldEntityEntFiniteElementAdjacencyMap, UId, &amp;FieldEntityEntFiniteElementAdjacencyMap</text>
<text text-anchor="start" x="1328" y="-650.92" font-family="Helvetica,sans-Serif" font-size="10.00">::getFeUniqueId &gt; &gt;, ordered_non_unique&lt; tag&lt; FEEnt_mi_tag &gt;, const_mem_fun&lt; FieldEntityEntFiniteElementAdjacency</text>
<text text-anchor="start" x="1328" y="-639.92" font-family="Helvetica,sans-Serif" font-size="10.00">Map, EntityHandle, &amp;FieldEntityEntFiniteElementAdjacencyMap::getFeHandle &gt; &gt;, ordered_non_unique&lt; tag</text>
<text text-anchor="middle" x="1720.5" y="-628.92" font-family="Helvetica,sans-Serif" font-size="10.00">&lt; Ent_mi_tag &gt;, const_mem_fun&lt; FieldEntityEntFiniteElementAdjacencyMap, EntityHandle, &amp;FieldEntityEntFiniteElementAdjacencyMap::getEntHandle &gt; &gt; &gt; &gt;</text>
</a>
</g>
</g>
<!-- Node8&#45;&gt;Node27 -->
<g id="edge30" class="edge">
<title>Node8&#45;&gt;Node27</title>
<path fill="none" stroke="orange" stroke-dasharray="5,2" d="M71.74,-707.42C83.51,-682.99 107.7,-641.66 143,-624.42 221.37,-586.14 860.88,-568.71 928,-624.42 961.4,-652.14 912.6,-692.69 946,-720.42 1067.75,-821.46 1143.78,-720.61 1302,-720.42 1307.89,-720.41 1313.83,-720.4 1319.8,-720.39"/>
<polygon fill="orange" stroke="orange" points="68.45,-706.19 67.46,-716.74 74.81,-709.11 68.45,-706.19"/>
<text text-anchor="start" x="143" y="-792.42" font-family="Helvetica,sans-Serif" font-size="10.00"> &lt; FieldEntityEntFiniteElement</text>
<text text-anchor="start" x="143" y="-781.42" font-family="Helvetica,sans-Serif" font-size="10.00">AdjacencyMap, indexed_by</text>
<text text-anchor="start" x="143" y="-770.42" font-family="Helvetica,sans-Serif" font-size="10.00">&lt; ordered_unique&lt; tag&lt; Composite</text>
<text text-anchor="start" x="143" y="-759.42" font-family="Helvetica,sans-Serif" font-size="10.00">_Unique_mi_tag &gt;, composite_key</text>
<text text-anchor="start" x="143" y="-748.42" font-family="Helvetica,sans-Serif" font-size="10.00">&lt; FieldEntityEntFiniteElementAdjacencyMap,</text>
<text text-anchor="start" x="143" y="-737.42" font-family="Helvetica,sans-Serif" font-size="10.00"> const_mem_fun&lt; FieldEntityEntFiniteElementAdjacency</text>
<text text-anchor="start" x="143" y="-726.42" font-family="Helvetica,sans-Serif" font-size="10.00">Map, UId, &amp;FieldEntityEntFiniteElementAdjacencyMap</text>
<text text-anchor="start" x="143" y="-715.42" font-family="Helvetica,sans-Serif" font-size="10.00">::getEntUniqueId &gt;, const_mem_fun&lt; FieldEntityEntFiniteElementAdjacency</text>
<text text-anchor="start" x="143" y="-704.42" font-family="Helvetica,sans-Serif" font-size="10.00">Map, UId, &amp;FieldEntityEntFiniteElementAdjacencyMap::getFeUniqueId</text>
<text text-anchor="start" x="143" y="-693.42" font-family="Helvetica,sans-Serif" font-size="10.00"> &gt; &gt; &gt;, ordered_non_unique&lt; tag&lt; Unique_mi_tag &gt;, const_mem_fun</text>
<text text-anchor="start" x="143" y="-682.42" font-family="Helvetica,sans-Serif" font-size="10.00">&lt; FieldEntityEntFiniteElementAdjacencyMap, UId, &amp;FieldEntityEntFiniteElementAdjacencyMap</text>
<text text-anchor="start" x="143" y="-671.42" font-family="Helvetica,sans-Serif" font-size="10.00">::getEntUniqueId &gt; &gt;, ordered_non_unique&lt; tag&lt; FE_Unique_mi_tag &gt;, const_mem_fun</text>
<text text-anchor="start" x="143" y="-660.42" font-family="Helvetica,sans-Serif" font-size="10.00">&lt; FieldEntityEntFiniteElementAdjacencyMap, UId, &amp;FieldEntityEntFiniteElementAdjacencyMap</text>
<text text-anchor="start" x="143" y="-649.42" font-family="Helvetica,sans-Serif" font-size="10.00">::getFeUniqueId &gt; &gt;, ordered_non_unique&lt; tag&lt; FEEnt_mi_tag &gt;, const_mem_fun&lt; FieldEntityEntFiniteElementAdjacency</text>
<text text-anchor="start" x="143" y="-638.42" font-family="Helvetica,sans-Serif" font-size="10.00">Map, EntityHandle, &amp;FieldEntityEntFiniteElementAdjacencyMap::getFeHandle &gt; &gt;, ordered_non_unique&lt; tag</text>
<text text-anchor="middle" x="535.5" y="-627.42" font-family="Helvetica,sans-Serif" font-size="10.00">&lt; Ent_mi_tag &gt;, const_mem_fun&lt; FieldEntityEntFiniteElementAdjacencyMap, EntityHandle, &amp;FieldEntityEntFiniteElementAdjacencyMap::getEntHandle &gt; &gt; &gt; &gt;</text>
</g>
<!-- Node29 -->
<g id="node29" class="node">
<title>Node29</title>
<g id="a_node29"><a xlink:title=" ">
<polygon fill="white" stroke="#bfbfbf" points="2359,-441.42 2359,-603.42 2645,-603.42 2645,-441.42 2359,-441.42"/>
<text text-anchor="start" x="2367" y="-591.42" font-family="Helvetica,sans-Serif" font-size="10.00">multi_index_container</text>
<text text-anchor="start" x="2367" y="-580.42" font-family="Helvetica,sans-Serif" font-size="10.00">&lt; boost::shared_ptr&lt;</text>
<text text-anchor="start" x="2367" y="-569.42" font-family="Helvetica,sans-Serif" font-size="10.00"> Field &gt;, indexed_by&lt;</text>
<text text-anchor="start" x="2367" y="-558.42" font-family="Helvetica,sans-Serif" font-size="10.00"> hashed_unique&lt; tag&lt; BitFieldId</text>
<text text-anchor="start" x="2367" y="-547.42" font-family="Helvetica,sans-Serif" font-size="10.00">_mi_tag &gt;, const_mem_fun&lt; Field,</text>
<text text-anchor="start" x="2367" y="-536.42" font-family="Helvetica,sans-Serif" font-size="10.00"> const BitFieldId &amp;, &amp;Field::getId</text>
<text text-anchor="start" x="2367" y="-525.42" font-family="Helvetica,sans-Serif" font-size="10.00"> &gt;, HashBit&lt; BitFieldId &gt;, EqBit&lt;</text>
<text text-anchor="start" x="2367" y="-514.42" font-family="Helvetica,sans-Serif" font-size="10.00"> BitFieldId &gt; &gt;, ordered_unique&lt; tag</text>
<text text-anchor="start" x="2367" y="-503.42" font-family="Helvetica,sans-Serif" font-size="10.00">&lt; Meshset_mi_tag &gt;, member&lt; Field, EntityHandle,</text>
<text text-anchor="start" x="2367" y="-492.42" font-family="Helvetica,sans-Serif" font-size="10.00"> &amp;Field::meshSet &gt; &gt;, ordered_unique&lt; tag&lt;</text>
<text text-anchor="start" x="2367" y="-481.42" font-family="Helvetica,sans-Serif" font-size="10.00"> FieldName_mi_tag &gt;, const_mem_fun&lt; Field, boost</text>
<text text-anchor="start" x="2367" y="-470.42" font-family="Helvetica,sans-Serif" font-size="10.00">::string_ref, &amp;Field::getNameRef &gt; &gt;, ordered_non</text>
<text text-anchor="start" x="2367" y="-459.42" font-family="Helvetica,sans-Serif" font-size="10.00">_unique&lt; tag&lt; BitFieldId_space_mi_tag &gt;, const_mem</text>
<text text-anchor="middle" x="2502" y="-448.42" font-family="Helvetica,sans-Serif" font-size="10.00">_fun&lt; Field, FieldSpace, &amp;Field::getSpace &gt; &gt; &gt; &gt;</text>
</a>
</g>
</g>
<!-- Node8&#45;&gt;Node29 -->
<g id="edge33" class="edge">
<title>Node8&#45;&gt;Node29</title>
<path fill="none" stroke="orange" stroke-dasharray="5,2" d="M68.04,-706.65C76.54,-674.66 98.23,-612.44 143,-585.42 448.68,-400.93 589,-567.53 946,-562.42 1104.21,-560.15 1145.23,-541.05 1302,-562.42 1310.23,-563.54 1311.77,-566.3 1320,-567.42 1672.74,-615.5 1765.62,-588.39 2121,-567.42 2199.92,-562.76 2287.58,-552.71 2358.8,-543.29"/>
<polygon fill="orange" stroke="orange" points="64.58,-706.04 65.56,-716.59 71.37,-707.73 64.58,-706.04"/>
<text text-anchor="start" x="991.5" y="-708.42" font-family="Helvetica,sans-Serif" font-size="10.00"> &lt; boost::shared_ptr</text>
<text text-anchor="start" x="991.5" y="-697.42" font-family="Helvetica,sans-Serif" font-size="10.00">&lt; Field &gt;, indexed_by</text>
<text text-anchor="start" x="991.5" y="-686.42" font-family="Helvetica,sans-Serif" font-size="10.00">&lt; hashed_unique&lt; tag&lt;</text>
<text text-anchor="start" x="991.5" y="-675.42" font-family="Helvetica,sans-Serif" font-size="10.00"> BitFieldId_mi_tag &gt;, const</text>
<text text-anchor="start" x="991.5" y="-664.42" font-family="Helvetica,sans-Serif" font-size="10.00">_mem_fun&lt; Field, const BitFieldId</text>
<text text-anchor="start" x="991.5" y="-653.42" font-family="Helvetica,sans-Serif" font-size="10.00"> &amp;, &amp;Field::getId &gt;, HashBit&lt; BitFieldId</text>
<text text-anchor="start" x="991.5" y="-642.42" font-family="Helvetica,sans-Serif" font-size="10.00"> &gt;, EqBit&lt; BitFieldId &gt; &gt;, ordered_unique</text>
<text text-anchor="start" x="991.5" y="-631.42" font-family="Helvetica,sans-Serif" font-size="10.00">&lt; tag&lt; Meshset_mi_tag &gt;, member&lt; Field,</text>
<text text-anchor="start" x="991.5" y="-620.42" font-family="Helvetica,sans-Serif" font-size="10.00"> EntityHandle, &amp;Field::meshSet &gt; &gt;, ordered</text>
<text text-anchor="start" x="991.5" y="-609.42" font-family="Helvetica,sans-Serif" font-size="10.00">_unique&lt; tag&lt; FieldName_mi_tag &gt;, const_mem</text>
<text text-anchor="start" x="991.5" y="-598.42" font-family="Helvetica,sans-Serif" font-size="10.00">_fun&lt; Field, boost::string_ref, &amp;Field::getNameRef</text>
<text text-anchor="start" x="991.5" y="-587.42" font-family="Helvetica,sans-Serif" font-size="10.00"> &gt; &gt;, ordered_non_unique&lt; tag&lt; BitFieldId_space</text>
<text text-anchor="start" x="991.5" y="-576.42" font-family="Helvetica,sans-Serif" font-size="10.00">_mi_tag &gt;, const_mem_fun&lt; Field, FieldSpace, &amp;Field</text>
<text text-anchor="middle" x="1124" y="-565.42" font-family="Helvetica,sans-Serif" font-size="10.00">::getSpace &gt; &gt; &gt; &gt;</text>
</g>
<!-- Node30 -->
<g id="node30" class="node">
<title>Node30</title>
<g id="a_node30"><a xlink:title=" ">
<polygon fill="white" stroke="#bfbfbf" points="2807,-360.42 2807,-522.42 3070,-522.42 3070,-360.42 2807,-360.42"/>
<text text-anchor="start" x="2815" y="-510.42" font-family="Helvetica,sans-Serif" font-size="10.00">multi_index_container</text>
<text text-anchor="start" x="2815" y="-499.42" font-family="Helvetica,sans-Serif" font-size="10.00">&lt; boost::shared_ptr&lt;</text>
<text text-anchor="start" x="2815" y="-488.42" font-family="Helvetica,sans-Serif" font-size="10.00"> FiniteElement &gt;, indexed</text>
<text text-anchor="start" x="2815" y="-477.42" font-family="Helvetica,sans-Serif" font-size="10.00">_by&lt; hashed_unique&lt; tag&lt;</text>
<text text-anchor="start" x="2815" y="-466.42" font-family="Helvetica,sans-Serif" font-size="10.00"> FiniteElement_Meshset_mi</text>
<text text-anchor="start" x="2815" y="-455.42" font-family="Helvetica,sans-Serif" font-size="10.00">_tag &gt;, member&lt; FiniteElement,</text>
<text text-anchor="start" x="2815" y="-444.42" font-family="Helvetica,sans-Serif" font-size="10.00"> EntityHandle, &amp;FiniteElement</text>
<text text-anchor="start" x="2815" y="-433.42" font-family="Helvetica,sans-Serif" font-size="10.00">::meshset &gt; &gt;, hashed_unique&lt;</text>
<text text-anchor="start" x="2815" y="-422.42" font-family="Helvetica,sans-Serif" font-size="10.00"> tag&lt; BitFEId_mi_tag &gt;, const_mem</text>
<text text-anchor="start" x="2815" y="-411.42" font-family="Helvetica,sans-Serif" font-size="10.00">_fun&lt; FiniteElement, BitFEId, &amp;FiniteElement</text>
<text text-anchor="start" x="2815" y="-400.42" font-family="Helvetica,sans-Serif" font-size="10.00">::getId &gt;, HashBit&lt; BitFEId &gt;, EqBit&lt; BitFEId</text>
<text text-anchor="start" x="2815" y="-389.42" font-family="Helvetica,sans-Serif" font-size="10.00"> &gt; &gt;, ordered_unique&lt; tag&lt; FiniteElement_name</text>
<text text-anchor="start" x="2815" y="-378.42" font-family="Helvetica,sans-Serif" font-size="10.00">_mi_tag &gt;, const_mem_fun&lt; FiniteElement, boost</text>
<text text-anchor="middle" x="2938.5" y="-367.42" font-family="Helvetica,sans-Serif" font-size="10.00">::string_ref, &amp;FiniteElement::getNameRef &gt; &gt; &gt; &gt;</text>
</a>
</g>
</g>
<!-- Node8&#45;&gt;Node30 -->
<g id="edge35" class="edge">
<title>Node8&#45;&gt;Node30</title>
<path fill="none" stroke="orange" stroke-dasharray="5,2" d="M63.44,-706.62C64.49,-660.52 74.25,-546.02 143,-494.42 212.84,-442 840.9,-463.58 928,-457.42 1102.56,-445.07 1145.2,-428.65 1320,-420.42 1675.61,-403.67 1765.03,-415.84 2121,-420.42 2363.1,-423.53 2645.49,-431.83 2806.71,-437.02"/>
<polygon fill="orange" stroke="orange" points="59.94,-706.75 63.33,-716.79 66.94,-706.83 59.94,-706.75"/>
<text text-anchor="start" x="1597" y="-555.42" font-family="Helvetica,sans-Serif" font-size="10.00"> &lt; boost::shared_ptr</text>
<text text-anchor="start" x="1597" y="-544.42" font-family="Helvetica,sans-Serif" font-size="10.00">&lt; FiniteElement &gt;, indexed</text>
<text text-anchor="start" x="1597" y="-533.42" font-family="Helvetica,sans-Serif" font-size="10.00">_by&lt; hashed_unique&lt; tag</text>
<text text-anchor="start" x="1597" y="-522.42" font-family="Helvetica,sans-Serif" font-size="10.00">&lt; FiniteElement_Meshset_mi</text>
<text text-anchor="start" x="1597" y="-511.42" font-family="Helvetica,sans-Serif" font-size="10.00">_tag &gt;, member&lt; FiniteElement,</text>
<text text-anchor="start" x="1597" y="-500.42" font-family="Helvetica,sans-Serif" font-size="10.00"> EntityHandle, &amp;FiniteElement</text>
<text text-anchor="start" x="1597" y="-489.42" font-family="Helvetica,sans-Serif" font-size="10.00">::meshset &gt; &gt;, hashed_unique&lt;</text>
<text text-anchor="start" x="1597" y="-478.42" font-family="Helvetica,sans-Serif" font-size="10.00"> tag&lt; BitFEId_mi_tag &gt;, const_mem</text>
<text text-anchor="start" x="1597" y="-467.42" font-family="Helvetica,sans-Serif" font-size="10.00">_fun&lt; FiniteElement, BitFEId, &amp;FiniteElement</text>
<text text-anchor="start" x="1597" y="-456.42" font-family="Helvetica,sans-Serif" font-size="10.00">::getId &gt;, HashBit&lt; BitFEId &gt;, EqBit&lt; BitFEId</text>
<text text-anchor="start" x="1597" y="-445.42" font-family="Helvetica,sans-Serif" font-size="10.00"> &gt; &gt;, ordered_unique&lt; tag&lt; FiniteElement_name</text>
<text text-anchor="start" x="1597" y="-434.42" font-family="Helvetica,sans-Serif" font-size="10.00">_mi_tag &gt;, const_mem_fun&lt; FiniteElement, boost</text>
<text text-anchor="middle" x="1720.5" y="-423.42" font-family="Helvetica,sans-Serif" font-size="10.00">::string_ref, &amp;FiniteElement::getNameRef &gt; &gt; &gt; &gt;</text>
</g>
<!-- Node32 -->
<g id="node32" class="node">
<title>Node32</title>
<g id="a_node32"><a xlink:title=" ">
<polygon fill="white" stroke="#bfbfbf" points="1598,-270.92 1598,-399.92 1843,-399.92 1843,-270.92 1598,-270.92"/>
<text text-anchor="start" x="1606" y="-387.92" font-family="Helvetica,sans-Serif" font-size="10.00">multi_index_container</text>
<text text-anchor="start" x="1606" y="-376.92" font-family="Helvetica,sans-Serif" font-size="10.00">&lt; boost::shared_ptr&lt;</text>
<text text-anchor="start" x="1606" y="-365.92" font-family="Helvetica,sans-Serif" font-size="10.00"> EntFiniteElement &gt;, indexed</text>
<text text-anchor="start" x="1606" y="-354.92" font-family="Helvetica,sans-Serif" font-size="10.00">_by&lt; ordered_unique&lt; tag&lt;</text>
<text text-anchor="start" x="1606" y="-343.92" font-family="Helvetica,sans-Serif" font-size="10.00"> Unique_mi_tag &gt;, const_mem</text>
<text text-anchor="start" x="1606" y="-332.92" font-family="Helvetica,sans-Serif" font-size="10.00">_fun&lt; EntFiniteElement, UId,</text>
<text text-anchor="start" x="1606" y="-321.92" font-family="Helvetica,sans-Serif" font-size="10.00"> &amp;EntFiniteElement::getLocalUniqueId</text>
<text text-anchor="start" x="1606" y="-310.92" font-family="Helvetica,sans-Serif" font-size="10.00"> &gt; &gt;, ordered_non_unique&lt; tag&lt; Ent</text>
<text text-anchor="start" x="1606" y="-299.92" font-family="Helvetica,sans-Serif" font-size="10.00">_mi_tag &gt;, const_mem_fun&lt; EntFiniteElement</text>
<text text-anchor="start" x="1606" y="-288.92" font-family="Helvetica,sans-Serif" font-size="10.00">::interface_type_RefEntity, EntityHandle,</text>
<text text-anchor="middle" x="1720.5" y="-277.92" font-family="Helvetica,sans-Serif" font-size="10.00"> &amp;EntFiniteElement::getEnt &gt; &gt; &gt; &gt;</text>
</a>
</g>
</g>
<!-- Node8&#45;&gt;Node32 -->
<g id="edge38" class="edge">
<title>Node8&#45;&gt;Node32</title>
<path fill="none" stroke="orange" stroke-dasharray="5,2" d="M64.36,-706.66C67.99,-634.11 84.59,-384.15 143,-336.42 199.01,-290.64 1237.92,-319.8 1597.91,-331.34"/>
<polygon fill="orange" stroke="orange" points="60.86,-706.57 63.89,-716.72 67.86,-706.9 60.86,-706.57"/>
<text text-anchor="start" x="436" y="-449.42" font-family="Helvetica,sans-Serif" font-size="10.00"> &lt; boost::shared_ptr</text>
<text text-anchor="start" x="436" y="-438.42" font-family="Helvetica,sans-Serif" font-size="10.00">&lt; EntFiniteElement &gt;</text>
<text text-anchor="start" x="436" y="-427.42" font-family="Helvetica,sans-Serif" font-size="10.00">, indexed_by&lt; ordered</text>
<text text-anchor="start" x="436" y="-416.42" font-family="Helvetica,sans-Serif" font-size="10.00">_unique&lt; tag&lt; Unique_mi</text>
<text text-anchor="start" x="436" y="-405.42" font-family="Helvetica,sans-Serif" font-size="10.00">_tag &gt;, const_mem_fun&lt; EntFinite</text>
<text text-anchor="start" x="436" y="-394.42" font-family="Helvetica,sans-Serif" font-size="10.00">Element, UId, &amp;EntFiniteElement</text>
<text text-anchor="start" x="436" y="-383.42" font-family="Helvetica,sans-Serif" font-size="10.00">::getLocalUniqueId &gt; &gt;, ordered</text>
<text text-anchor="start" x="436" y="-372.42" font-family="Helvetica,sans-Serif" font-size="10.00">_non_unique&lt; tag&lt; Ent_mi_tag &gt;,</text>
<text text-anchor="start" x="436" y="-361.42" font-family="Helvetica,sans-Serif" font-size="10.00"> const_mem_fun&lt; EntFiniteElement</text>
<text text-anchor="start" x="436" y="-350.42" font-family="Helvetica,sans-Serif" font-size="10.00">::interface_type_RefEntity, EntityHandle,</text>
<text text-anchor="middle" x="535.5" y="-339.42" font-family="Helvetica,sans-Serif" font-size="10.00"> &amp;EntFiniteElement::getEnt &gt; &gt; &gt; &gt;</text>
</g>
<!-- Node34 -->
<g id="node34" class="node">
<title>Node34</title>
<g id="a_node34"><a xlink:title=" ">
<polygon fill="white" stroke="#bfbfbf" points="2139,-159.92 2139,-288.92 2341,-288.92 2341,-159.92 2139,-159.92"/>
<text text-anchor="start" x="2147" y="-276.92" font-family="Helvetica,sans-Serif" font-size="10.00">multi_index_container</text>
<text text-anchor="start" x="2147" y="-265.92" font-family="Helvetica,sans-Serif" font-size="10.00">&lt; boost::shared_ptr&lt;</text>
<text text-anchor="start" x="2147" y="-254.92" font-family="Helvetica,sans-Serif" font-size="10.00"> DofEntity &gt;, indexed</text>
<text text-anchor="start" x="2147" y="-243.92" font-family="Helvetica,sans-Serif" font-size="10.00">_by&lt; ordered_unique&lt; tag</text>
<text text-anchor="start" x="2147" y="-232.92" font-family="Helvetica,sans-Serif" font-size="10.00">&lt; Unique_mi_tag &gt;, const</text>
<text text-anchor="start" x="2147" y="-221.92" font-family="Helvetica,sans-Serif" font-size="10.00">_mem_fun&lt; DofEntity, UId,</text>
<text text-anchor="start" x="2147" y="-210.92" font-family="Helvetica,sans-Serif" font-size="10.00"> &amp;DofEntity::getLocalUniqueId</text>
<text text-anchor="start" x="2147" y="-199.92" font-family="Helvetica,sans-Serif" font-size="10.00"> &gt; &gt;, ordered_non_unique&lt; tag</text>
<text text-anchor="start" x="2147" y="-188.92" font-family="Helvetica,sans-Serif" font-size="10.00">&lt; Ent_mi_tag &gt;, const_mem_fun</text>
<text text-anchor="start" x="2147" y="-177.92" font-family="Helvetica,sans-Serif" font-size="10.00">&lt; DofEntity, EntityHandle, &amp;DofEntity</text>
<text text-anchor="middle" x="2240" y="-166.92" font-family="Helvetica,sans-Serif" font-size="10.00">::getEnt &gt; &gt; &gt; &gt;</text>
</a>
</g>
</g>
<!-- Node8&#45;&gt;Node34 -->
<g id="edge41" class="edge">
<title>Node8&#45;&gt;Node34</title>
<path fill="none" stroke="orange" stroke-dasharray="5,2" d="M64.31,-706.51C67.79,-631.05 84.17,-364.07 143,-308.42 711.96,229.83 1804.22,-76.99 2138.99,-188.88"/>
<polygon fill="orange" stroke="orange" points="60.79,-706.77 63.85,-716.91 67.79,-707.08 60.79,-706.77"/>
<text text-anchor="start" x="1031" y="-112.42" font-family="Helvetica,sans-Serif" font-size="10.00"> &lt; boost::shared_ptr</text>
<text text-anchor="start" x="1031" y="-101.42" font-family="Helvetica,sans-Serif" font-size="10.00">&lt; DofEntity &gt;, indexed</text>
<text text-anchor="start" x="1031" y="-90.42" font-family="Helvetica,sans-Serif" font-size="10.00">_by&lt; ordered_unique&lt; tag</text>
<text text-anchor="start" x="1031" y="-79.42" font-family="Helvetica,sans-Serif" font-size="10.00">&lt; Unique_mi_tag &gt;, const</text>
<text text-anchor="start" x="1031" y="-68.42" font-family="Helvetica,sans-Serif" font-size="10.00">_mem_fun&lt; DofEntity, UId,</text>
<text text-anchor="start" x="1031" y="-57.42" font-family="Helvetica,sans-Serif" font-size="10.00"> &amp;DofEntity::getLocalUniqueId</text>
<text text-anchor="start" x="1031" y="-46.42" font-family="Helvetica,sans-Serif" font-size="10.00"> &gt; &gt;, ordered_non_unique&lt; tag</text>
<text text-anchor="start" x="1031" y="-35.42" font-family="Helvetica,sans-Serif" font-size="10.00">&lt; Ent_mi_tag &gt;, const_mem_fun</text>
<text text-anchor="start" x="1031" y="-24.42" font-family="Helvetica,sans-Serif" font-size="10.00">&lt; DofEntity, EntityHandle, &amp;DofEntity</text>
<text text-anchor="middle" x="1124" y="-13.42" font-family="Helvetica,sans-Serif" font-size="10.00">::getEnt &gt; &gt; &gt; &gt;</text>
</g>
<!-- Node36 -->
<g id="node36" class="node">
<title>Node36</title>
<g id="a_node36"><a xlink:title=" ">
<polygon fill="white" stroke="#bfbfbf" points="2418.5,-1188.42 2418.5,-1284.42 2585.5,-1284.42 2585.5,-1188.42 2418.5,-1188.42"/>
<text text-anchor="start" x="2426.5" y="-1272.42" font-family="Helvetica,sans-Serif" font-size="10.00">multi_index_container</text>
<text text-anchor="start" x="2426.5" y="-1261.42" font-family="Helvetica,sans-Serif" font-size="10.00">&lt; boost::shared_ptr&lt;</text>
<text text-anchor="start" x="2426.5" y="-1250.42" font-family="Helvetica,sans-Serif" font-size="10.00"> RefElement &gt;, indexed</text>
<text text-anchor="start" x="2426.5" y="-1239.42" font-family="Helvetica,sans-Serif" font-size="10.00">_by&lt; ordered_unique&lt; tag</text>
<text text-anchor="start" x="2426.5" y="-1228.42" font-family="Helvetica,sans-Serif" font-size="10.00">&lt; Ent_mi_tag &gt;, const_mem</text>
<text text-anchor="start" x="2426.5" y="-1217.42" font-family="Helvetica,sans-Serif" font-size="10.00">_fun&lt; RefElement::interface</text>
<text text-anchor="start" x="2426.5" y="-1206.42" font-family="Helvetica,sans-Serif" font-size="10.00">_type_RefEntity, EntityHandle,</text>
<text text-anchor="middle" x="2502" y="-1195.42" font-family="Helvetica,sans-Serif" font-size="10.00"> &amp;RefElement::getEnt &gt; &gt; &gt; &gt;</text>
</a>
</g>
</g>
<!-- Node8&#45;&gt;Node36 -->
<g id="edge44" class="edge">
<title>Node8&#45;&gt;Node36</title>
<path fill="none" stroke="orange" stroke-dasharray="5,2" d="M63.69,-746.35C64.91,-828.15 74.1,-1136.62 143,-1197.42 225.42,-1270.15 2011.09,-1249.01 2121,-1247.42 2223.45,-1245.93 2341.4,-1242.2 2418.36,-1239.5"/>
<polygon fill="orange" stroke="orange" points="67.18,-745.94 63.56,-735.98 60.18,-746.03 67.18,-745.94"/>
<text text-anchor="start" x="1048.5" y="-1320.42" font-family="Helvetica,sans-Serif" font-size="10.00"> &lt; boost::shared_ptr</text>
<text text-anchor="start" x="1048.5" y="-1309.42" font-family="Helvetica,sans-Serif" font-size="10.00">&lt; RefElement &gt;, indexed</text>
<text text-anchor="start" x="1048.5" y="-1298.42" font-family="Helvetica,sans-Serif" font-size="10.00">_by&lt; ordered_unique&lt; tag</text>
<text text-anchor="start" x="1048.5" y="-1287.42" font-family="Helvetica,sans-Serif" font-size="10.00">&lt; Ent_mi_tag &gt;, const_mem</text>
<text text-anchor="start" x="1048.5" y="-1276.42" font-family="Helvetica,sans-Serif" font-size="10.00">_fun&lt; RefElement::interface</text>
<text text-anchor="start" x="1048.5" y="-1265.42" font-family="Helvetica,sans-Serif" font-size="10.00">_type_RefEntity, EntityHandle,</text>
<text text-anchor="middle" x="1124" y="-1254.42" font-family="Helvetica,sans-Serif" font-size="10.00"> &amp;RefElement::getEnt &gt; &gt; &gt; &gt;</text>
</g>
<!-- Node38 -->
<g id="node38" class="node">
<title>Node38</title>
<g id="a_node38"><a xlink:title=" ">
<polygon fill="white" stroke="#bfbfbf" points="2823.5,-1043.42 2823.5,-1161.42 3053.5,-1161.42 3053.5,-1043.42 2823.5,-1043.42"/>
<text text-anchor="start" x="2831.5" y="-1149.42" font-family="Helvetica,sans-Serif" font-size="10.00">multi_index_container</text>
<text text-anchor="start" x="2831.5" y="-1138.42" font-family="Helvetica,sans-Serif" font-size="10.00">&lt; boost::shared_ptr&lt;</text>
<text text-anchor="start" x="2831.5" y="-1127.42" font-family="Helvetica,sans-Serif" font-size="10.00"> FieldEntity &gt;, indexed</text>
<text text-anchor="start" x="2831.5" y="-1116.42" font-family="Helvetica,sans-Serif" font-size="10.00">_by&lt; ordered_unique&lt; tag</text>
<text text-anchor="start" x="2831.5" y="-1105.42" font-family="Helvetica,sans-Serif" font-size="10.00">&lt; Unique_mi_tag &gt;, member</text>
<text text-anchor="start" x="2831.5" y="-1094.42" font-family="Helvetica,sans-Serif" font-size="10.00">&lt; FieldEntity, UId, &amp;FieldEntity</text>
<text text-anchor="start" x="2831.5" y="-1083.42" font-family="Helvetica,sans-Serif" font-size="10.00">::localUId &gt; &gt;, ordered_non_unique</text>
<text text-anchor="start" x="2831.5" y="-1072.42" font-family="Helvetica,sans-Serif" font-size="10.00">&lt; tag&lt; Ent_mi_tag &gt;, const_mem_fun</text>
<text text-anchor="start" x="2831.5" y="-1061.42" font-family="Helvetica,sans-Serif" font-size="10.00">&lt; FieldEntity::interface_type_RefEntity,</text>
<text text-anchor="middle" x="2938.5" y="-1050.42" font-family="Helvetica,sans-Serif" font-size="10.00"> EntityHandle, &amp;FieldEntity::getEnt &gt; &gt; &gt; &gt;</text>
</a>
</g>
</g>
<!-- Node8&#45;&gt;Node38 -->
<g id="edge51" class="edge">
<title>Node8&#45;&gt;Node38</title>
<path fill="none" stroke="orange" stroke-dasharray="5,2" d="M63.85,-746.26C65.68,-825.04 76.88,-1114.11 143,-1169.42 209.9,-1225.38 840.82,-1172.19 928,-1169.42 1102.49,-1163.86 1145.59,-1152.04 1320,-1144.42 1675.76,-1128.86 1765.02,-1134.65 2121,-1125.42 2371.56,-1118.92 2665.35,-1110.43 2823.24,-1105.8"/>
<polygon fill="orange" stroke="orange" points="67.35,-746.14 63.64,-736.22 60.35,-746.29 67.35,-746.14"/>
<text text-anchor="start" x="1613.5" y="-1235.42" font-family="Helvetica,sans-Serif" font-size="10.00"> &lt; boost::shared_ptr</text>
<text text-anchor="start" x="1613.5" y="-1224.42" font-family="Helvetica,sans-Serif" font-size="10.00">&lt; FieldEntity &gt;, indexed</text>
<text text-anchor="start" x="1613.5" y="-1213.42" font-family="Helvetica,sans-Serif" font-size="10.00">_by&lt; ordered_unique&lt; tag</text>
<text text-anchor="start" x="1613.5" y="-1202.42" font-family="Helvetica,sans-Serif" font-size="10.00">&lt; Unique_mi_tag &gt;, member</text>
<text text-anchor="start" x="1613.5" y="-1191.42" font-family="Helvetica,sans-Serif" font-size="10.00">&lt; FieldEntity, UId, &amp;FieldEntity</text>
<text text-anchor="start" x="1613.5" y="-1180.42" font-family="Helvetica,sans-Serif" font-size="10.00">::localUId &gt; &gt;, ordered_non_unique</text>
<text text-anchor="start" x="1613.5" y="-1169.42" font-family="Helvetica,sans-Serif" font-size="10.00">&lt; tag&lt; Ent_mi_tag &gt;, const_mem_fun</text>
<text text-anchor="start" x="1613.5" y="-1158.42" font-family="Helvetica,sans-Serif" font-size="10.00">&lt; FieldEntity::interface_type_RefEntity,</text>
<text text-anchor="middle" x="1720.5" y="-1147.42" font-family="Helvetica,sans-Serif" font-size="10.00"> EntityHandle, &amp;FieldEntity::getEnt &gt; &gt; &gt; &gt;</text>
</g>
<!-- Node41 -->
<g id="node41" class="node">
<title>Node41</title>
<g id="a_node41"><a xlink:title=" ">
<polygon fill="white" stroke="#bfbfbf" points="1596,-983.42 1596,-1123.42 1845,-1123.42 1845,-983.42 1596,-983.42"/>
<text text-anchor="start" x="1604" y="-1111.42" font-family="Helvetica,sans-Serif" font-size="10.00">multi_index_container</text>
<text text-anchor="start" x="1604" y="-1100.42" font-family="Helvetica,sans-Serif" font-size="10.00">&lt; Problem, indexed_by</text>
<text text-anchor="start" x="1604" y="-1089.42" font-family="Helvetica,sans-Serif" font-size="10.00">&lt; ordered_unique&lt; tag</text>
<text text-anchor="start" x="1604" y="-1078.42" font-family="Helvetica,sans-Serif" font-size="10.00">&lt; Meshset_mi_tag &gt;, member</text>
<text text-anchor="start" x="1604" y="-1067.42" font-family="Helvetica,sans-Serif" font-size="10.00">&lt; Problem, EntityHandle, &amp;Problem</text>
<text text-anchor="start" x="1604" y="-1056.42" font-family="Helvetica,sans-Serif" font-size="10.00">::meshset &gt; &gt;, hashed_unique&lt; tag</text>
<text text-anchor="start" x="1604" y="-1045.42" font-family="Helvetica,sans-Serif" font-size="10.00">&lt; BitProblemId_mi_tag &gt;, const_mem</text>
<text text-anchor="start" x="1604" y="-1034.42" font-family="Helvetica,sans-Serif" font-size="10.00">_fun&lt; Problem, BitProblemId, &amp;Problem</text>
<text text-anchor="start" x="1604" y="-1023.42" font-family="Helvetica,sans-Serif" font-size="10.00">::getId &gt;, HashBit&lt; BitProblemId &gt;, EqBit</text>
<text text-anchor="start" x="1604" y="-1012.42" font-family="Helvetica,sans-Serif" font-size="10.00">&lt; BitProblemId &gt; &gt;, hashed_unique&lt; tag&lt;</text>
<text text-anchor="start" x="1604" y="-1001.42" font-family="Helvetica,sans-Serif" font-size="10.00"> Problem_mi_tag &gt;, const_mem_fun&lt; Problem,</text>
<text text-anchor="middle" x="1720.5" y="-990.42" font-family="Helvetica,sans-Serif" font-size="10.00"> std::string, &amp;Problem::getName &gt; &gt; &gt; &gt;</text>
</a>
</g>
</g>
<!-- Node8&#45;&gt;Node41 -->
<g id="edge55" class="edge">
<title>Node8&#45;&gt;Node41</title>
<path fill="none" stroke="orange" stroke-dasharray="5,2" d="M65.68,-746.09C72.88,-806.95 98.01,-990.18 143,-1025.42 157.26,-1036.58 1226.53,-1048.43 1595.76,-1052.2"/>
<polygon fill="orange" stroke="orange" points="69.14,-745.45 64.52,-735.92 62.18,-746.25 69.14,-745.45"/>
<text text-anchor="start" x="401.5" y="-1157.42" font-family="Helvetica,sans-Serif" font-size="10.00"> &lt; Problem, indexed</text>
<text text-anchor="start" x="401.5" y="-1146.42" font-family="Helvetica,sans-Serif" font-size="10.00">_by&lt; ordered_unique</text>
<text text-anchor="start" x="401.5" y="-1135.42" font-family="Helvetica,sans-Serif" font-size="10.00">&lt; tag&lt; Meshset_mi_tag</text>
<text text-anchor="start" x="401.5" y="-1124.42" font-family="Helvetica,sans-Serif" font-size="10.00"> &gt;, member&lt; Problem, EntityHandle,</text>
<text text-anchor="start" x="401.5" y="-1113.42" font-family="Helvetica,sans-Serif" font-size="10.00"> &amp;Problem::meshset &gt; &gt;, hashed</text>
<text text-anchor="start" x="401.5" y="-1102.42" font-family="Helvetica,sans-Serif" font-size="10.00">_unique&lt; tag&lt; BitProblemId_mi_tag</text>
<text text-anchor="start" x="401.5" y="-1091.42" font-family="Helvetica,sans-Serif" font-size="10.00"> &gt;, const_mem_fun&lt; Problem, BitProblemId,</text>
<text text-anchor="start" x="401.5" y="-1080.42" font-family="Helvetica,sans-Serif" font-size="10.00"> &amp;Problem::getId &gt;, HashBit&lt; BitProblemId</text>
<text text-anchor="start" x="401.5" y="-1069.42" font-family="Helvetica,sans-Serif" font-size="10.00"> &gt;, EqBit&lt; BitProblemId &gt; &gt;, hashed_unique</text>
<text text-anchor="start" x="401.5" y="-1058.42" font-family="Helvetica,sans-Serif" font-size="10.00">&lt; tag&lt; Problem_mi_tag &gt;, const_mem_fun&lt; Problem,</text>
<text text-anchor="middle" x="535.5" y="-1047.42" font-family="Helvetica,sans-Serif" font-size="10.00"> std::string, &amp;Problem::getName &gt; &gt; &gt; &gt;</text>
</g>
<!-- Node42 -->
<g id="node42" class="node">
<title>Node42</title>
<g id="a_node42"><a xlink:title=" ">
<polygon fill="white" stroke="#bfbfbf" points="946,-784.92 946,-1001.92 1302,-1001.92 1302,-784.92 946,-784.92"/>
<text text-anchor="start" x="954" y="-989.92" font-family="Helvetica,sans-Serif" font-size="10.00">multi_index_container</text>
<text text-anchor="start" x="954" y="-978.92" font-family="Helvetica,sans-Serif" font-size="10.00">&lt; boost::shared_ptr&lt;</text>
<text text-anchor="start" x="954" y="-967.92" font-family="Helvetica,sans-Serif" font-size="10.00"> RefEntity &gt;, indexed</text>
<text text-anchor="start" x="954" y="-956.92" font-family="Helvetica,sans-Serif" font-size="10.00">_by&lt; ordered_unique&lt; tag</text>
<text text-anchor="start" x="954" y="-945.92" font-family="Helvetica,sans-Serif" font-size="10.00">&lt; Ent_mi_tag &gt;, const_mem</text>
<text text-anchor="start" x="954" y="-934.92" font-family="Helvetica,sans-Serif" font-size="10.00">_fun&lt; RefEntity, EntityHandle,</text>
<text text-anchor="start" x="954" y="-923.92" font-family="Helvetica,sans-Serif" font-size="10.00"> &amp;RefEntity::getEnt &gt; &gt;, ordered</text>
<text text-anchor="start" x="954" y="-912.92" font-family="Helvetica,sans-Serif" font-size="10.00">_non_unique&lt; tag&lt; Ent_Ent_mi_tag</text>
<text text-anchor="start" x="954" y="-901.92" font-family="Helvetica,sans-Serif" font-size="10.00"> &gt;, const_mem_fun&lt; RefEntity, EntityHandle,</text>
<text text-anchor="start" x="954" y="-890.92" font-family="Helvetica,sans-Serif" font-size="10.00"> &amp;RefEntity::getParentEnt &gt; &gt;, ordered</text>
<text text-anchor="start" x="954" y="-879.92" font-family="Helvetica,sans-Serif" font-size="10.00">_non_unique&lt; tag&lt; Composite_EntType_and</text>
<text text-anchor="start" x="954" y="-868.92" font-family="Helvetica,sans-Serif" font-size="10.00">_ParentEntType_mi_tag &gt;, composite_key&lt; RefEntity,</text>
<text text-anchor="start" x="954" y="-857.92" font-family="Helvetica,sans-Serif" font-size="10.00"> const_mem_fun&lt; RefEntity, EntityType, &amp;RefEntity</text>
<text text-anchor="start" x="954" y="-846.92" font-family="Helvetica,sans-Serif" font-size="10.00">::getEntType &gt;, const_mem_fun&lt; RefEntity, EntityType,</text>
<text text-anchor="start" x="954" y="-835.92" font-family="Helvetica,sans-Serif" font-size="10.00"> &amp;RefEntity::getParentEntType &gt; &gt; &gt;, ordered_non_unique</text>
<text text-anchor="start" x="954" y="-824.92" font-family="Helvetica,sans-Serif" font-size="10.00">&lt; tag&lt; Composite_ParentEnt_And_EntType_mi_tag &gt;, composite</text>
<text text-anchor="start" x="954" y="-813.92" font-family="Helvetica,sans-Serif" font-size="10.00">_key&lt; RefEntity, const_mem_fun&lt; RefEntity, EntityType, &amp;RefEntity</text>
<text text-anchor="start" x="954" y="-802.92" font-family="Helvetica,sans-Serif" font-size="10.00">::getEntType &gt;, const_mem_fun&lt; RefEntity, EntityHandle, &amp;RefEntity</text>
<text text-anchor="middle" x="1124" y="-791.92" font-family="Helvetica,sans-Serif" font-size="10.00">::getParentEnt &gt; &gt; &gt; &gt; &gt;</text>
</a>
</g>
</g>
<!-- Node8&#45;&gt;Node42 -->
<g id="edge57" class="edge">
<title>Node8&#45;&gt;Node42</title>
<path fill="none" stroke="orange" stroke-dasharray="5,2" d="M75.58,-744.54C89.36,-763.43 113.8,-791.98 143,-804.42 223.28,-838.6 842.12,-811.98 928,-827.42 933.89,-828.48 939.85,-829.68 945.83,-831"/>
<polygon fill="orange" stroke="orange" points="78.31,-742.33 69.7,-736.15 72.58,-746.35 78.31,-742.33"/>
<text text-anchor="start" x="365.5" y="-1017.42" font-family="Helvetica,sans-Serif" font-size="10.00"> &lt; boost::shared_ptr</text>
<text text-anchor="start" x="365.5" y="-1006.42" font-family="Helvetica,sans-Serif" font-size="10.00">&lt; RefEntity &gt;, indexed</text>
<text text-anchor="start" x="365.5" y="-995.42" font-family="Helvetica,sans-Serif" font-size="10.00">_by&lt; ordered_unique&lt; tag</text>
<text text-anchor="start" x="365.5" y="-984.42" font-family="Helvetica,sans-Serif" font-size="10.00">&lt; Ent_mi_tag &gt;, const_mem</text>
<text text-anchor="start" x="365.5" y="-973.42" font-family="Helvetica,sans-Serif" font-size="10.00">_fun&lt; RefEntity, EntityHandle,</text>
<text text-anchor="start" x="365.5" y="-962.42" font-family="Helvetica,sans-Serif" font-size="10.00"> &amp;RefEntity::getEnt &gt; &gt;, ordered</text>
<text text-anchor="start" x="365.5" y="-951.42" font-family="Helvetica,sans-Serif" font-size="10.00">_non_unique&lt; tag&lt; Ent_Ent_mi_tag</text>
<text text-anchor="start" x="365.5" y="-940.42" font-family="Helvetica,sans-Serif" font-size="10.00"> &gt;, const_mem_fun&lt; RefEntity, EntityHandle,</text>
<text text-anchor="start" x="365.5" y="-929.42" font-family="Helvetica,sans-Serif" font-size="10.00"> &amp;RefEntity::getParentEnt &gt; &gt;, ordered</text>
<text text-anchor="start" x="365.5" y="-918.42" font-family="Helvetica,sans-Serif" font-size="10.00">_non_unique&lt; tag&lt; Composite_EntType_and</text>
<text text-anchor="start" x="365.5" y="-907.42" font-family="Helvetica,sans-Serif" font-size="10.00">_ParentEntType_mi_tag &gt;, composite_key&lt; RefEntity,</text>
<text text-anchor="start" x="365.5" y="-896.42" font-family="Helvetica,sans-Serif" font-size="10.00"> const_mem_fun&lt; RefEntity, EntityType, &amp;RefEntity</text>
<text text-anchor="start" x="365.5" y="-885.42" font-family="Helvetica,sans-Serif" font-size="10.00">::getEntType &gt;, const_mem_fun&lt; RefEntity, EntityType,</text>
<text text-anchor="start" x="365.5" y="-874.42" font-family="Helvetica,sans-Serif" font-size="10.00"> &amp;RefEntity::getParentEntType &gt; &gt; &gt;, ordered_non_unique</text>
<text text-anchor="start" x="365.5" y="-863.42" font-family="Helvetica,sans-Serif" font-size="10.00">&lt; tag&lt; Composite_ParentEnt_And_EntType_mi_tag &gt;, composite</text>
<text text-anchor="start" x="365.5" y="-852.42" font-family="Helvetica,sans-Serif" font-size="10.00">_key&lt; RefEntity, const_mem_fun&lt; RefEntity, EntityType, &amp;RefEntity</text>
<text text-anchor="start" x="365.5" y="-841.42" font-family="Helvetica,sans-Serif" font-size="10.00">::getEntType &gt;, const_mem_fun&lt; RefEntity, EntityHandle, &amp;RefEntity</text>
<text text-anchor="middle" x="535.5" y="-830.42" font-family="Helvetica,sans-Serif" font-size="10.00">::getParentEnt &gt; &gt; &gt; &gt; &gt;</text>
</g>
<!-- Node9 -->
<g id="node9" class="node">
<title>Node9</title>
<g id="a_node9"><a xlink:href="classRange.html" target="_top" xlink:title=" ">
<polygon fill="white" stroke="black" points="3987.5,-991.92 3987.5,-1010.92 4034.5,-1010.92 4034.5,-991.92 3987.5,-991.92"/>
<text text-anchor="middle" x="4011" y="-998.92" font-family="Helvetica,sans-Serif" font-size="10.00">Range</text>
</a>
</g>
</g>
<!-- Node9&#45;&gt;Node1 -->
<g id="edge8" class="edge">
<title>Node9&#45;&gt;Node1</title>
<path fill="none" stroke="#9a32cd" stroke-dasharray="5,2" d="M4044.83,-1004.68C4058.02,-1007.29 4072.73,-1011.99 4084,-1020.42 4156.82,-1074.87 4156.99,-1110.69 4190,-1195.42 4231.06,-1300.81 4244.72,-1439.41 4247.78,-1476.78"/>
<polygon fill="#9a32cd" stroke="#9a32cd" points="4045.12,-1001.18 4034.68,-1003 4043.98,-1008.08 4045.12,-1001.18"/>
<text text-anchor="middle" x="4146" y="-1198.42" font-family="Helvetica,sans-Serif" font-size="10.00"> domainEntities</text>
</g>
<!-- Node10 -->
<g id="node10" class="node">
<title>Node10</title>
<g id="a_node10"><a xlink:title=" ">
<polygon fill="white" stroke="#bfbfbf" points="3186,-1298.92 3186,-1317.92 3215,-1317.92 3215,-1298.92 3186,-1298.92"/>
<text text-anchor="middle" x="3200.5" y="-1305.92" font-family="Helvetica,sans-Serif" font-size="10.00">int</text>
</a>
</g>
</g>
<!-- Node10&#45;&gt;Node1 -->
<g id="edge9" class="edge">
<title>Node10&#45;&gt;Node1</title>
<path fill="none" stroke="#9a32cd" stroke-dasharray="5,2" d="M3224.04,-1321.34C3275.97,-1350.35 3408.9,-1420.34 3530,-1448.42 3534.16,-1449.38 4056.42,-1476.47 4207.81,-1484.31"/>
<polygon fill="#9a32cd" stroke="#9a32cd" points="3225.73,-1318.28 3215.3,-1316.42 3222.3,-1324.37 3225.73,-1318.28"/>
<text text-anchor="middle" x="3840" y="-1472.42" font-family="Helvetica,sans-Serif" font-size="10.00"> initOrder</text>
</g>
<!-- Node10&#45;&gt;Node11 -->
<g id="edge18" class="edge">
<title>Node10&#45;&gt;Node11</title>
<path fill="none" stroke="#9a32cd" stroke-dasharray="5,2" d="M3225.32,-1308.71C3346.64,-1310.1 3891.25,-1315.18 3920,-1294.42 4004.11,-1233.67 4010.07,-1087.77 4010.13,-1049.01"/>
<polygon fill="#9a32cd" stroke="#9a32cd" points="3225.27,-1305.21 3215.22,-1308.59 3225.18,-1312.21 3225.27,-1305.21"/>
<text text-anchor="middle" x="3636" y="-1313.42" font-family="Helvetica,sans-Serif" font-size="10.00"> dIm</text>
</g>
<!-- Node25 -->
<g id="node25" class="node">
<title>Node25</title>
<g id="a_node25"><a xlink:href="structMoFEM_1_1CoreTmp_3_010_01_4.html" target="_top" xlink:title="Core (interface) class.">
<polygon fill="white" stroke="black" points="3570.5,-688.92 3570.5,-707.92 3701.5,-707.92 3701.5,-688.92 3570.5,-688.92"/>
<text text-anchor="middle" x="3636" y="-695.92" font-family="Helvetica,sans-Serif" font-size="10.00">MoFEM::CoreTmp&lt; 0 &gt;</text>
</a>
</g>
</g>
<!-- Node10&#45;&gt;Node25 -->
<g id="edge45" class="edge">
<title>Node10&#45;&gt;Node25</title>
<path fill="none" stroke="#9a32cd" stroke-dasharray="5,2" d="M3222.22,-1292.73C3246.9,-1274.76 3289.96,-1245.57 3331,-1228.42 3407.38,-1196.49 3459.6,-1248.51 3512,-1184.42 3544.87,-1144.22 3495.95,-756.62 3530,-717.42 3540.2,-705.67 3555.02,-699.58 3570.31,-696.71"/>
<polygon fill="#9a32cd" stroke="#9a32cd" points="3219.96,-1290.05 3214,-1298.8 3224.12,-1295.68 3219.96,-1290.05"/>
<text text-anchor="middle" x="3421.5" y="-1286.42" font-family="Helvetica,sans-Serif" font-size="10.00"> sIze</text>
<text text-anchor="middle" x="3421.5" y="-1275.42" font-family="Helvetica,sans-Serif" font-size="10.00">mpiInitialised</text>
<text text-anchor="middle" x="3421.5" y="-1264.42" font-family="Helvetica,sans-Serif" font-size="10.00">value</text>
<text text-anchor="middle" x="3421.5" y="-1253.42" font-family="Helvetica,sans-Serif" font-size="10.00">verbose</text>
<text text-anchor="middle" x="3421.5" y="-1242.42" font-family="Helvetica,sans-Serif" font-size="10.00">buildMoFEM</text>
<text text-anchor="middle" x="3421.5" y="-1231.42" font-family="Helvetica,sans-Serif" font-size="10.00">rAnk</text>
</g>
<!-- Node11&#45;&gt;Node1 -->
<g id="edge10" class="edge">
<title>Node11&#45;&gt;Node1</title>
<path fill="none" stroke="#9a32cd" stroke-dasharray="5,2" d="M4021.9,-1058.14C4062.27,-1134.44 4213.66,-1420.57 4243.41,-1476.79"/>
<polygon fill="#9a32cd" stroke="#9a32cd" points="4024.93,-1056.37 4017.16,-1049.17 4018.74,-1059.64 4024.93,-1056.37"/>
<text text-anchor="middle" x="4146" y="-1370.42" font-family="Helvetica,sans-Serif" font-size="10.00"> simpleInterface</text>
</g>
<!-- Node12 -->
<g id="node12" class="node">
<title>Node12</title>
<g id="a_node12"><a xlink:title=" ">
<polygon fill="white" stroke="#bfbfbf" points="3553.5,-1018.92 3553.5,-1059.92 3718.5,-1059.92 3718.5,-1018.92 3553.5,-1018.92"/>
<text text-anchor="start" x="3561.5" y="-1047.92" font-family="Helvetica,sans-Serif" font-size="10.00">shared_ptr&lt; MoFEM::</text>
<text text-anchor="start" x="3561.5" y="-1036.92" font-family="Helvetica,sans-Serif" font-size="10.00">ParentFiniteElementAdjacency</text>
<text text-anchor="middle" x="3636" y="-1025.92" font-family="Helvetica,sans-Serif" font-size="10.00">FunctionSkeleton&lt; 1 &gt; &gt;</text>
</a>
</g>
</g>
<!-- Node12&#45;&gt;Node11 -->
<g id="edge12" class="edge">
<title>Node12&#45;&gt;Node11</title>
<path fill="none" stroke="#9a32cd" stroke-dasharray="5,2" d="M3729.24,-1039.42C3804.19,-1039.42 3906.69,-1039.42 3964.85,-1039.42"/>
<polygon fill="#9a32cd" stroke="#9a32cd" points="3728.86,-1035.92 3718.86,-1039.42 3728.86,-1042.92 3728.86,-1035.92"/>
<text text-anchor="middle" x="3840" y="-1042.42" font-family="Helvetica,sans-Serif" font-size="10.00"> parentAdjSkeletonFunctionDim1</text>
</g>
<!-- Node13 -->
<g id="node13" class="node">
<title>Node13</title>
<g id="a_node13"><a xlink:title=" ">
<polygon fill="white" stroke="#bfbfbf" points="3553.5,-958.92 3553.5,-999.92 3718.5,-999.92 3718.5,-958.92 3553.5,-958.92"/>
<text text-anchor="start" x="3561.5" y="-987.92" font-family="Helvetica,sans-Serif" font-size="10.00">shared_ptr&lt; MoFEM::</text>
<text text-anchor="start" x="3561.5" y="-976.92" font-family="Helvetica,sans-Serif" font-size="10.00">ParentFiniteElementAdjacency</text>
<text text-anchor="middle" x="3636" y="-965.92" font-family="Helvetica,sans-Serif" font-size="10.00">Function&lt; 2 &gt; &gt;</text>
</a>
</g>
</g>
<!-- Node13&#45;&gt;Node11 -->
<g id="edge13" class="edge">
<title>Node13&#45;&gt;Node11</title>
<path fill="none" stroke="#9a32cd" stroke-dasharray="5,2" d="M3728.9,-993.85C3784.28,-1002.6 3856.21,-1014.03 3920,-1024.42 3934.54,-1026.78 3950.39,-1029.41 3964.69,-1031.8"/>
<polygon fill="#9a32cd" stroke="#9a32cd" points="3729.18,-990.35 3718.76,-992.25 3728.09,-997.27 3729.18,-990.35"/>
<text text-anchor="middle" x="3840" y="-1027.42" font-family="Helvetica,sans-Serif" font-size="10.00"> parentAdjFunctionDim2</text>
</g>
<!-- Node14 -->
<g id="node14" class="node">
<title>Node14</title>
<g id="a_node14"><a xlink:title=" ">
<polygon fill="white" stroke="#bfbfbf" points="3553.5,-898.92 3553.5,-939.92 3718.5,-939.92 3718.5,-898.92 3553.5,-898.92"/>
<text text-anchor="start" x="3561.5" y="-927.92" font-family="Helvetica,sans-Serif" font-size="10.00">shared_ptr&lt; MoFEM::</text>
<text text-anchor="start" x="3561.5" y="-916.92" font-family="Helvetica,sans-Serif" font-size="10.00">ParentFiniteElementAdjacency</text>
<text text-anchor="middle" x="3636" y="-905.92" font-family="Helvetica,sans-Serif" font-size="10.00">Function&lt; 3 &gt; &gt;</text>
</a>
</g>
</g>
<!-- Node14&#45;&gt;Node11 -->
<g id="edge14" class="edge">
<title>Node14&#45;&gt;Node11</title>
<path fill="none" stroke="#9a32cd" stroke-dasharray="5,2" d="M3728.8,-921.43C3788.74,-927.09 3865.66,-943.03 3920,-985.42 3933.79,-996.18 3924.36,-1009.46 3938,-1020.42 3945.66,-1026.57 3955.12,-1030.75 3964.63,-1033.57"/>
<polygon fill="#9a32cd" stroke="#9a32cd" points="3728.84,-917.93 3718.58,-920.55 3728.24,-924.9 3728.84,-917.93"/>
<text text-anchor="middle" x="3840" y="-988.42" font-family="Helvetica,sans-Serif" font-size="10.00"> parentAdjFunctionDim3</text>
</g>
<!-- Node15 -->
<g id="node15" class="node">
<title>Node15</title>
<g id="a_node15"><a xlink:href="classEntityHandle.html" target="_top" xlink:title=" ">
<polygon fill="white" stroke="black" points="3596,-860.92 3596,-879.92 3676,-879.92 3676,-860.92 3596,-860.92"/>
<text text-anchor="middle" x="3636" y="-867.92" font-family="Helvetica,sans-Serif" font-size="10.00">EntityHandle</text>
</a>
</g>
</g>
<!-- Node15&#45;&gt;Node11 -->
<g id="edge15" class="edge">
<title>Node15&#45;&gt;Node11</title>
<path fill="none" stroke="#9a32cd" stroke-dasharray="5,2" d="M3686.28,-866.59C3758.29,-862.14 3887.27,-858.88 3920,-889.42 3962.98,-929.5 3899.04,-976.42 3938,-1020.42 3944.94,-1028.26 3954.7,-1033.04 3964.79,-1035.91"/>
<polygon fill="#9a32cd" stroke="#9a32cd" points="3685.84,-863.11 3676.09,-867.25 3686.3,-870.09 3685.84,-863.11"/>
<text text-anchor="middle" x="3840" y="-914.42" font-family="Helvetica,sans-Serif" font-size="10.00"> boundaryMeshset</text>
<text text-anchor="middle" x="3840" y="-903.42" font-family="Helvetica,sans-Serif" font-size="10.00">meshSet</text>
<text text-anchor="middle" x="3840" y="-892.42" font-family="Helvetica,sans-Serif" font-size="10.00">skeletonMeshset</text>
</g>
<!-- Node16 -->
<g id="node16" class="node">
<title>Node16</title>
<g id="a_node16"><a xlink:title=" ">
<polygon fill="white" stroke="#bfbfbf" points="3617,-822.92 3617,-841.92 3655,-841.92 3655,-822.92 3617,-822.92"/>
<text text-anchor="middle" x="3636" y="-829.92" font-family="Helvetica,sans-Serif" font-size="10.00">char</text>
</a>
</g>
</g>
<!-- Node16&#45;&gt;Node11 -->
<g id="edge16" class="edge">
<title>Node16&#45;&gt;Node11</title>
<path fill="none" stroke="#9a32cd" stroke-dasharray="5,2" d="M3665.29,-829.73C3729.64,-824.28 3884.18,-815.17 3920,-849.42 3947.62,-875.82 3913.13,-991.41 3938,-1020.42 3944.9,-1028.46 3954.77,-1033.31 3964.99,-1036.17"/>
<polygon fill="#9a32cd" stroke="#9a32cd" points="3664.72,-826.27 3655.06,-830.63 3665.33,-833.24 3664.72,-826.27"/>
<text text-anchor="middle" x="3840" y="-852.42" font-family="Helvetica,sans-Serif" font-size="10.00"> meshFileName</text>
</g>
<!-- Node17 -->
<g id="node17" class="node">
<title>Node17</title>
<g id="a_node17"><a xlink:title=" ">
<polygon fill="white" stroke="#bfbfbf" points="3576.5,-726.92 3576.5,-745.92 3695.5,-745.92 3695.5,-726.92 3576.5,-726.92"/>
<text text-anchor="middle" x="3636" y="-733.92" font-family="Helvetica,sans-Serif" font-size="10.00">vector&lt; std::string &gt;</text>
</a>
</g>
</g>
<!-- Node17&#45;&gt;Node11 -->
<g id="edge17" class="edge">
<title>Node17&#45;&gt;Node11</title>
<path fill="none" stroke="#9a32cd" stroke-dasharray="5,2" d="M3705.87,-727.98C3779.76,-720.63 3890.51,-715.09 3920,-743.42 3964.49,-786.15 3898.79,-972.8 3938,-1020.42 3944.74,-1028.6 3954.55,-1033.49 3964.77,-1036.36"/>
<polygon fill="#9a32cd" stroke="#9a32cd" points="3705.29,-724.52 3695.7,-729.03 3706,-731.49 3705.29,-724.52"/>
<text text-anchor="middle" x="3840" y="-812.42" font-family="Helvetica,sans-Serif" font-size="10.00"> boundaryFields</text>
<text text-anchor="middle" x="3840" y="-801.42" font-family="Helvetica,sans-Serif" font-size="10.00">otherFEs</text>
<text text-anchor="middle" x="3840" y="-790.42" font-family="Helvetica,sans-Serif" font-size="10.00">noFieldDataFields</text>
<text text-anchor="middle" x="3840" y="-779.42" font-family="Helvetica,sans-Serif" font-size="10.00">dataFields</text>
<text text-anchor="middle" x="3840" y="-768.42" font-family="Helvetica,sans-Serif" font-size="10.00">skeletonFields</text>
<text text-anchor="middle" x="3840" y="-757.42" font-family="Helvetica,sans-Serif" font-size="10.00">noFieldFields</text>
<text text-anchor="middle" x="3840" y="-746.42" font-family="Helvetica,sans-Serif" font-size="10.00">domainFields</text>
</g>
<!-- Node18 -->
<g id="node18" class="node">
<title>Node18</title>
<g id="a_node18"><a xlink:title=" ">
<polygon fill="white" stroke="#bfbfbf" points="3178.5,-252.92 3178.5,-271.92 3222.5,-271.92 3222.5,-252.92 3178.5,-252.92"/>
<text text-anchor="middle" x="3200.5" y="-259.92" font-family="Helvetica,sans-Serif" font-size="10.00">string</text>
</a>
</g>
</g>
<!-- Node18&#45;&gt;Node11 -->
<g id="edge19" class="edge">
<title>Node18&#45;&gt;Node11</title>
<path fill="none" stroke="#9a32cd" stroke-dasharray="5,2" d="M3232.51,-256.68C3290.19,-247.47 3416.79,-234.22 3512,-274.42 3742.54,-371.74 3815.6,-435 3920,-662.42 3936.62,-698.61 3912.91,-989.49 3938,-1020.42 3944.68,-1028.65 3954.47,-1033.56 3964.68,-1036.43"/>
<polygon fill="#9a32cd" stroke="#9a32cd" points="3231.85,-253.24 3222.56,-258.34 3233,-260.14 3231.85,-253.24"/>
<text text-anchor="middle" x="3636" y="-434.42" font-family="Helvetica,sans-Serif" font-size="10.00"> boundaryFE</text>
<text text-anchor="middle" x="3636" y="-423.42" font-family="Helvetica,sans-Serif" font-size="10.00">nameOfProblem</text>
<text text-anchor="middle" x="3636" y="-412.42" font-family="Helvetica,sans-Serif" font-size="10.00">domainFE</text>
<text text-anchor="middle" x="3636" y="-401.42" font-family="Helvetica,sans-Serif" font-size="10.00">skeletonFE</text>
</g>
<!-- Node18&#45;&gt;Node25 -->
<g id="edge47" class="edge">
<title>Node18&#45;&gt;Node25</title>
<path fill="none" stroke="#9a32cd" stroke-dasharray="5,2" d="M3232.97,-264.72C3309.77,-270.47 3501.31,-285.62 3512,-294.42 3577.22,-348.14 3624.71,-632.64 3633.52,-688.79"/>
<polygon fill="#9a32cd" stroke="#9a32cd" points="3233.16,-261.23 3222.93,-263.97 3232.64,-268.21 3233.16,-261.23"/>
<text text-anchor="middle" x="3421.5" y="-297.42" font-family="Helvetica,sans-Serif" font-size="10.00"> optionsPrefix</text>
</g>
<!-- Node19 -->
<g id="node19" class="node">
<title>Node19</title>
<g id="a_node19"><a xlink:href="classbool.html" target="_top" xlink:title=" ">
<polygon fill="white" stroke="black" points="3181.5,-206.92 3181.5,-225.92 3219.5,-225.92 3219.5,-206.92 3181.5,-206.92"/>
<text text-anchor="middle" x="3200.5" y="-213.92" font-family="Helvetica,sans-Serif" font-size="10.00">bool</text>
</a>
</g>
</g>
<!-- Node19&#45;&gt;Node11 -->
<g id="edge20" class="edge">
<title>Node19&#45;&gt;Node11</title>
<path fill="none" stroke="#9a32cd" stroke-dasharray="5,2" d="M3230,-210.86C3313.65,-196 3563.75,-162.03 3742,-247.42 3840.38,-294.54 3875.46,-316.83 3920,-416.42 3947.41,-477.71 3896.24,-967.84 3938,-1020.42 3944.67,-1028.82 3954.59,-1033.77 3964.94,-1036.62"/>
<polygon fill="#9a32cd" stroke="#9a32cd" points="3229.19,-207.45 3219.98,-212.69 3230.45,-214.34 3229.19,-207.45"/>
<text text-anchor="middle" x="3636" y="-272.42" font-family="Helvetica,sans-Serif" font-size="10.00"> addParentAdjacencies</text>
<text text-anchor="middle" x="3636" y="-261.42" font-family="Helvetica,sans-Serif" font-size="10.00">addSkeletonFE</text>
<text text-anchor="middle" x="3636" y="-250.42" font-family="Helvetica,sans-Serif" font-size="10.00">addBoundaryFE</text>
</g>
<!-- Node19&#45;&gt;Node25 -->
<g id="edge46" class="edge">
<title>Node19&#45;&gt;Node25</title>
<path fill="none" stroke="#9a32cd" stroke-dasharray="5,2" d="M3229.94,-216.41C3298.49,-216.97 3470.23,-222.05 3512,-258.42 3520.71,-266 3615.46,-624.27 3632.41,-688.58"/>
<polygon fill="#9a32cd" stroke="#9a32cd" points="3229.88,-212.91 3219.86,-216.35 3229.85,-219.9 3229.88,-212.91"/>
<text text-anchor="middle" x="3421.5" y="-261.42" font-family="Helvetica,sans-Serif" font-size="10.00"> isGloballyInitialised</text>
</g>
<!-- Node20 -->
<g id="node20" class="node">
<title>Node20</title>
<g id="a_node20"><a xlink:title=" ">
<polygon fill="white" stroke="#bfbfbf" points="3156.5,-1183.92 3156.5,-1202.92 3244.5,-1202.92 3244.5,-1183.92 3156.5,-1183.92"/>
<text text-anchor="middle" x="3200.5" y="-1190.92" font-family="Helvetica,sans-Serif" font-size="10.00">PetscLogEvent</text>
</a>
</g>
</g>
<!-- Node20&#45;&gt;Node11 -->
<g id="edge21" class="edge">
<title>Node20&#45;&gt;Node11</title>
<path fill="none" stroke="#9a32cd" stroke-dasharray="5,2" d="M3254.73,-1198.6C3333.03,-1205.02 3474.07,-1211.63 3512,-1180.42 3538.47,-1158.64 3504.52,-1128.34 3530,-1105.42 3562.49,-1076.19 3876.77,-1060.84 3920,-1054.42 3934.57,-1052.25 3950.43,-1049.68 3964.73,-1047.28"/>
<polygon fill="#9a32cd" stroke="#9a32cd" points="3254.84,-1195.1 3244.58,-1197.74 3254.25,-1202.07 3254.84,-1195.1"/>
<text text-anchor="middle" x="3636" y="-1163.42" font-family="Helvetica,sans-Serif" font-size="10.00"> MOFEM_EVENT_SimpleBuildFields</text>
<text text-anchor="middle" x="3636" y="-1152.42" font-family="Helvetica,sans-Serif" font-size="10.00">MOFEM_EVENT_SimpleLoadMesh</text>
<text text-anchor="middle" x="3636" y="-1141.42" font-family="Helvetica,sans-Serif" font-size="10.00">MOFEM_EVENT_SimpleBuildFiniteElements</text>
<text text-anchor="middle" x="3636" y="-1130.42" font-family="Helvetica,sans-Serif" font-size="10.00">MOFEM_EVENT_SimpleSetUP</text>
<text text-anchor="middle" x="3636" y="-1119.42" font-family="Helvetica,sans-Serif" font-size="10.00">MOFEM_EVENT_SimpleBuildProblem</text>
<text text-anchor="middle" x="3636" y="-1108.42" font-family="Helvetica,sans-Serif" font-size="10.00">MOFEM_EVENT_SimpleKSPSolve</text>
</g>
<!-- Node20&#45;&gt;Node25 -->
<g id="edge49" class="edge">
<title>Node20&#45;&gt;Node25</title>
<path fill="none" stroke="#9a32cd" stroke-dasharray="5,2" d="M3254.83,-1193.77C3274.75,-1191.5 3296.51,-1185.9 3313,-1173.42 3327.58,-1162.38 3316.14,-1147.08 3331,-1136.42 3396.89,-1089.15 3457.03,-1173.03 3512,-1113.42 3541.86,-1081.04 3501,-750.57 3530,-717.42 3540.24,-705.7 3555.07,-699.63 3570.37,-696.76"/>
<polygon fill="#9a32cd" stroke="#9a32cd" points="3254.28,-1190.3 3244.62,-1194.67 3254.89,-1197.27 3254.28,-1190.3"/>
<text text-anchor="middle" x="3421.5" y="-1172.42" font-family="Helvetica,sans-Serif" font-size="10.00"> MOFEM_EVENT_createMat</text>
<text text-anchor="middle" x="3421.5" y="-1161.42" font-family="Helvetica,sans-Serif" font-size="10.00">MOFEM_EVENT_postProcess</text>
<text text-anchor="middle" x="3421.5" y="-1150.42" font-family="Helvetica,sans-Serif" font-size="10.00">MOFEM_EVENT_preProcess</text>
<text text-anchor="middle" x="3421.5" y="-1139.42" font-family="Helvetica,sans-Serif" font-size="10.00">MOFEM_EVENT_operator</text>
</g>
<!-- Node21 -->
<g id="node21" class="node">
<title>Node21</title>
<g id="a_node21"><a xlink:href="structMoFEM_1_1SmartPetscObj.html" target="_top" xlink:title=" ">
<polygon fill="white" stroke="black" points="3570.5,-127.42 3570.5,-157.42 3701.5,-157.42 3701.5,-127.42 3570.5,-127.42"/>
<text text-anchor="start" x="3578.5" y="-145.42" font-family="Helvetica,sans-Serif" font-size="10.00">MoFEM::SmartPetscObj</text>
<text text-anchor="middle" x="3636" y="-134.42" font-family="Helvetica,sans-Serif" font-size="10.00">&lt; DM &gt;</text>
</a>
</g>
</g>
<!-- Node21&#45;&gt;Node11 -->
<g id="edge22" class="edge">
<title>Node21&#45;&gt;Node11</title>
<path fill="none" stroke="#9a32cd" stroke-dasharray="5,2" d="M3709.24,-125.67C3774.37,-115.3 3867.72,-113.12 3920,-169.42 3952.18,-204.07 3908.75,-983.26 3938,-1020.42 3944.64,-1028.85 3954.54,-1033.81 3964.89,-1036.66"/>
<polygon fill="#9a32cd" stroke="#9a32cd" points="3708.31,-122.27 3699.04,-127.39 3709.48,-129.17 3708.31,-122.27"/>
<text text-anchor="middle" x="3840" y="-172.42" font-family="Helvetica,sans-Serif" font-size="10.00"> dM</text>
</g>
<!-- Node22 -->
<g id="node22" class="node">
<title>Node22</title>
<g id="a_node22"><a xlink:title=" ">
<polygon fill="white" stroke="#bfbfbf" points="3137.5,-141.92 3137.5,-182.92 3263.5,-182.92 3263.5,-141.92 3137.5,-141.92"/>
<text text-anchor="start" x="3145.5" y="-170.92" font-family="Helvetica,sans-Serif" font-size="10.00">boost::intrusive_ptr</text>
<text text-anchor="start" x="3145.5" y="-159.92" font-family="Helvetica,sans-Serif" font-size="10.00">&lt; std::remove_pointer</text>
<text text-anchor="middle" x="3200.5" y="-148.92" font-family="Helvetica,sans-Serif" font-size="10.00">&lt; DM &gt;::type &gt;</text>
</a>
</g>
</g>
<!-- Node22&#45;&gt;Node21 -->
<g id="edge23" class="edge">
<title>Node22&#45;&gt;Node21</title>
<path fill="none" stroke="midnightblue" d="M3273.68,-159.09C3356.38,-155.27 3490.69,-149.07 3570.17,-145.41"/>
<polygon fill="midnightblue" stroke="midnightblue" points="3273.44,-155.59 3263.61,-159.55 3273.76,-162.59 3273.44,-155.59"/>
</g>
<!-- Node23 -->
<g id="node23" class="node">
<title>Node23</title>
<g id="a_node23"><a xlink:href="structMoFEM_1_1SmartPetscObj.html" target="_top" xlink:title="intrusive_ptr for managing petsc objects">
<polygon fill="white" stroke="black" points="3135,-92.42 3135,-122.42 3266,-122.42 3266,-92.42 3135,-92.42"/>
<text text-anchor="start" x="3143" y="-110.42" font-family="Helvetica,sans-Serif" font-size="10.00">MoFEM::SmartPetscObj</text>
<text text-anchor="middle" x="3200.5" y="-99.42" font-family="Helvetica,sans-Serif" font-size="10.00">&lt; OBJ &gt;</text>
</a>
</g>
</g>
<!-- Node23&#45;&gt;Node21 -->
<g id="edge24" class="edge">
<title>Node23&#45;&gt;Node21</title>
<path fill="none" stroke="orange" stroke-dasharray="5,2" d="M3276.52,-113.47C3359.49,-120.17 3491.81,-130.86 3570.37,-137.2"/>
<polygon fill="orange" stroke="orange" points="3276.65,-109.97 3266.4,-112.66 3276.09,-116.95 3276.65,-109.97"/>
<text text-anchor="middle" x="3421.5" y="-135.42" font-family="Helvetica,sans-Serif" font-size="10.00"> &lt; DM &gt;</text>
</g>
<!-- Node24 -->
<g id="node24" class="node">
<title>Node24</title>
<g id="a_node24"><a xlink:title=" ">
<polygon fill="white" stroke="#bfbfbf" points="2663,-86.92 2663,-127.92 2789,-127.92 2789,-86.92 2663,-86.92"/>
<text text-anchor="start" x="2671" y="-115.92" font-family="Helvetica,sans-Serif" font-size="10.00">boost::intrusive_ptr</text>
<text text-anchor="start" x="2671" y="-104.92" font-family="Helvetica,sans-Serif" font-size="10.00">&lt; std::remove_pointer</text>
<text text-anchor="middle" x="2726" y="-93.92" font-family="Helvetica,sans-Serif" font-size="10.00">&lt; OBJ &gt;::type &gt;</text>
</a>
</g>
</g>
<!-- Node24&#45;&gt;Node23 -->
<g id="edge25" class="edge">
<title>Node24&#45;&gt;Node23</title>
<path fill="none" stroke="midnightblue" d="M2799.27,-107.42C2890.78,-107.42 3047.08,-107.42 3134.83,-107.42"/>
<polygon fill="midnightblue" stroke="midnightblue" points="2799.26,-103.92 2789.26,-107.42 2799.26,-110.92 2799.26,-103.92"/>
</g>
<!-- Node25&#45;&gt;Node11 -->
<g id="edge26" class="edge">
<title>Node25&#45;&gt;Node11</title>
<path fill="none" stroke="#9a32cd" stroke-dasharray="5,2" d="M3674,-685.82C3734.51,-667.82 3854.44,-643.52 3920,-707.42 3969.89,-756.05 3893.92,-966.47 3938,-1020.42 3944.71,-1028.63 3954.51,-1033.53 3964.73,-1036.39"/>
<polygon fill="#9a32cd" stroke="#9a32cd" points="3672.64,-682.57 3664.12,-688.86 3674.7,-689.26 3672.64,-682.57"/>
<text text-anchor="middle" x="3840" y="-710.42" font-family="Helvetica,sans-Serif" font-size="10.00"> cOre</text>
</g>
<!-- Node26&#45;&gt;Node25 -->
<g id="edge27" class="edge">
<title>Node26&#45;&gt;Node25</title>
<path fill="none" stroke="midnightblue" d="M3240.6,-1148.04C3262.43,-1143.72 3289.81,-1137.03 3313,-1127.42 3321.66,-1123.83 3322.2,-1119.64 3331,-1116.42 3369.22,-1102.42 3484.77,-1118.67 3512,-1088.42 3539.61,-1057.74 3502.78,-748.44 3530,-717.42 3540.26,-705.72 3555.09,-699.65 3570.39,-696.78"/>
<polygon fill="midnightblue" stroke="midnightblue" points="3239.87,-1144.62 3230.69,-1149.92 3241.17,-1151.5 3239.87,-1144.62"/>
</g>
<!-- Node27&#45;&gt;Node25 -->
<g id="edge29" class="edge">
<title>Node27&#45;&gt;Node25</title>
<path fill="none" stroke="#9a32cd" stroke-dasharray="5,2" d="M2131.23,-664.51C2402.2,-631.02 2765.6,-591.47 3088,-574.42 3187.86,-569.13 3213.03,-572.16 3313,-574.42 3401.51,-576.42 3430.4,-549.06 3512,-583.42 3566.69,-606.44 3611.99,-665.26 3628.4,-688.63"/>
<polygon fill="#9a32cd" stroke="#9a32cd" points="2130.72,-661.04 2121.23,-665.74 2131.59,-667.99 2130.72,-661.04"/>
<text text-anchor="middle" x="2726" y="-608.42" font-family="Helvetica,sans-Serif" font-size="10.00"> entFEAdjacencies</text>
</g>
<!-- Node28 -->
<g id="node28" class="node">
<title>Node28</title>
<g id="a_node28"><a xlink:title=" ">
<polygon fill="white" stroke="#bfbfbf" points="3168,-853.92 3168,-872.92 3233,-872.92 3233,-853.92 3168,-853.92"/>
<text text-anchor="middle" x="3200.5" y="-860.92" font-family="Helvetica,sans-Serif" font-size="10.00">PetscBool</text>
</a>
</g>
</g>
<!-- Node28&#45;&gt;Node25 -->
<g id="edge31" class="edge">
<title>Node28&#45;&gt;Node25</title>
<path fill="none" stroke="#9a32cd" stroke-dasharray="5,2" d="M3243.27,-864.73C3323.41,-866.82 3492.59,-869.07 3512,-851.42 3556.46,-810.99 3488.49,-760.86 3530,-717.42 3540.56,-706.37 3555.22,-700.47 3570.24,-697.54"/>
<polygon fill="#9a32cd" stroke="#9a32cd" points="3243.13,-861.22 3233.03,-864.45 3242.93,-868.22 3243.13,-861.22"/>
<text text-anchor="middle" x="3421.5" y="-891.42" font-family="Helvetica,sans-Serif" font-size="10.00"> initaliseAndBuildFiniteElements</text>
<text text-anchor="middle" x="3421.5" y="-880.42" font-family="Helvetica,sans-Serif" font-size="10.00">isInitialized</text>
<text text-anchor="middle" x="3421.5" y="-869.42" font-family="Helvetica,sans-Serif" font-size="10.00">initaliseAndBuildField</text>
</g>
<!-- Node29&#45;&gt;Node25 -->
<g id="edge32" class="edge">
<title>Node29&#45;&gt;Node25</title>
<path fill="none" stroke="#9a32cd" stroke-dasharray="5,2" d="M2655.25,-523.61C2932.5,-526.01 3493.14,-532.01 3512,-541.42 3577.38,-574.02 3618.54,-659.53 3631,-688.59"/>
<polygon fill="#9a32cd" stroke="#9a32cd" points="2655.13,-520.11 2645.1,-523.52 2655.07,-527.11 2655.13,-520.11"/>
<text text-anchor="middle" x="2938.5" y="-531.42" font-family="Helvetica,sans-Serif" font-size="10.00"> fIelds</text>
</g>
<!-- Node30&#45;&gt;Node25 -->
<g id="edge34" class="edge">
<title>Node30&#45;&gt;Node25</title>
<path fill="none" stroke="#9a32cd" stroke-dasharray="5,2" d="M3080.35,-424.09C3203.49,-416.12 3382.38,-422.52 3512,-503.42 3585,-548.98 3622.14,-655.55 3632.16,-688.52"/>
<polygon fill="#9a32cd" stroke="#9a32cd" points="3079.84,-420.62 3070.1,-424.8 3080.32,-427.6 3079.84,-420.62"/>
<text text-anchor="middle" x="3200.5" y="-435.42" font-family="Helvetica,sans-Serif" font-size="10.00"> finiteElements</text>
</g>
<!-- Node31 -->
<g id="node31" class="node">
<title>Node31</title>
<g id="a_node31"><a xlink:title=" ">
<polygon fill="white" stroke="#bfbfbf" points="3184,-770.92 3184,-789.92 3217,-789.92 3217,-770.92 3184,-770.92"/>
<text text-anchor="middle" x="3200.5" y="-777.92" font-family="Helvetica,sans-Serif" font-size="10.00">Tag</text>
</a>
</g>
</g>
<!-- Node31&#45;&gt;Node25 -->
<g id="edge36" class="edge">
<title>Node31&#45;&gt;Node25</title>
<path fill="none" stroke="#9a32cd" stroke-dasharray="5,2" d="M3227.24,-781.62C3251.42,-781.5 3287.59,-777.95 3313,-760.42 3325.8,-751.59 3317.89,-738.78 3331,-730.42 3340.96,-724.07 3484.04,-711.08 3570.31,-703.75"/>
<polygon fill="#9a32cd" stroke="#9a32cd" points="3227.11,-778.12 3217.06,-781.48 3227.01,-785.12 3227.11,-778.12"/>
<text text-anchor="middle" x="3421.5" y="-843.42" font-family="Helvetica,sans-Serif" font-size="10.00"> th_FieldId</text>
<text text-anchor="middle" x="3421.5" y="-832.42" font-family="Helvetica,sans-Serif" font-size="10.00">th_RefBitLevel_Mask</text>
<text text-anchor="middle" x="3421.5" y="-821.42" font-family="Helvetica,sans-Serif" font-size="10.00">th_ProblemName</text>
<text text-anchor="middle" x="3421.5" y="-810.42" font-family="Helvetica,sans-Serif" font-size="10.00">th_ProblemFEId</text>
<text text-anchor="middle" x="3421.5" y="-799.42" font-family="Helvetica,sans-Serif" font-size="10.00">th_FieldContinuity</text>
<text text-anchor="middle" x="3421.5" y="-788.42" font-family="Helvetica,sans-Serif" font-size="10.00">th_FieldBase</text>
<text text-anchor="middle" x="3421.5" y="-777.42" font-family="Helvetica,sans-Serif" font-size="10.00">th_ProblemGhostNbDofCol</text>
<text text-anchor="middle" x="3421.5" y="-766.42" font-family="Helvetica,sans-Serif" font-size="10.00">th_ProblemGhostNbDofRow</text>
<text text-anchor="middle" x="3421.5" y="-755.42" font-family="Helvetica,sans-Serif" font-size="10.00">th_FEIdCol</text>
<text text-anchor="middle" x="3421.5" y="-744.42" font-family="Helvetica,sans-Serif" font-size="10.00">th_RefBitEdge</text>
<text text-anchor="middle" x="3421.5" y="-733.42" font-family="Helvetica,sans-Serif" font-size="10.00">...</text>
</g>
<!-- Node32&#45;&gt;Node25 -->
<g id="edge37" class="edge">
<title>Node32&#45;&gt;Node25</title>
<path fill="none" stroke="#9a32cd" stroke-dasharray="5,2" d="M1853.06,-337.86C2008.02,-340.53 2273.22,-344.42 2501,-344.42 2501,-344.42 2501,-344.42 3201.5,-344.42 3345.18,-344.42 3402.89,-340.93 3512,-434.42 3596.66,-506.96 3626.73,-650.39 3633.44,-688.78"/>
<polygon fill="#9a32cd" stroke="#9a32cd" points="1853.07,-334.36 1843.01,-337.69 1852.95,-341.36 1853.07,-334.36"/>
<text text-anchor="middle" x="2726" y="-347.42" font-family="Helvetica,sans-Serif" font-size="10.00"> entsFiniteElements</text>
</g>
<!-- Node33 -->
<g id="node33" class="node">
<title>Node33</title>
<g id="a_node33"><a xlink:title=" ">
<polygon fill="white" stroke="#bfbfbf" points="3142.5,-721.42 3142.5,-751.42 3258.5,-751.42 3258.5,-721.42 3142.5,-721.42"/>
<text text-anchor="start" x="3150.5" y="-739.42" font-family="Helvetica,sans-Serif" font-size="10.00">reference_wrapper&lt;</text>
<text text-anchor="middle" x="3200.5" y="-728.42" font-family="Helvetica,sans-Serif" font-size="10.00"> moab::Interface &gt;</text>
</a>
</g>
</g>
<!-- Node33&#45;&gt;Node25 -->
<g id="edge39" class="edge">
<title>Node33&#45;&gt;Node25</title>
<path fill="none" stroke="#9a32cd" stroke-dasharray="5,2" d="M3268.4,-726.81C3283.54,-723.18 3299.2,-718.21 3313,-711.42 3322.34,-706.82 3321.21,-699.96 3331,-696.42 3406.64,-669.03 3431.56,-695.76 3512,-696.42 3530.9,-696.57 3551.43,-696.86 3570.21,-697.17"/>
<polygon fill="#9a32cd" stroke="#9a32cd" points="3267.55,-723.42 3258.56,-729.01 3269.08,-730.25 3267.55,-723.42"/>
<text text-anchor="middle" x="3421.5" y="-699.42" font-family="Helvetica,sans-Serif" font-size="10.00"> moab</text>
</g>
<!-- Node34&#45;&gt;Node25 -->
<g id="edge40" class="edge">
<title>Node34&#45;&gt;Node25</title>
<path fill="none" stroke="#9a32cd" stroke-dasharray="5,2" d="M2351.37,-232.08C2656.57,-253.5 3490.81,-313.71 3512,-333.42 3530.62,-350.73 3523.06,-421.95 3530,-446.42 3557.81,-544.45 3612.97,-655.56 3629.92,-688.64"/>
<polygon fill="#9a32cd" stroke="#9a32cd" points="2351.4,-228.57 2341.18,-231.36 2350.91,-235.55 2351.4,-228.57"/>
<text text-anchor="middle" x="2938.5" y="-289.42" font-family="Helvetica,sans-Serif" font-size="10.00"> dofsField</text>
</g>
<!-- Node35 -->
<g id="node35" class="node">
<title>Node35</title>
<g id="a_node35"><a xlink:title=" ">
<polygon fill="white" stroke="#bfbfbf" points="3154,-682.92 3154,-701.92 3247,-701.92 3247,-682.92 3154,-682.92"/>
<text text-anchor="middle" x="3200.5" y="-689.92" font-family="Helvetica,sans-Serif" font-size="10.00">ParallelComm *</text>
</a>
</g>
</g>
<!-- Node35&#45;&gt;Node25 -->
<g id="edge42" class="edge">
<title>Node35&#45;&gt;Node25</title>
<path fill="none" stroke="#9a32cd" stroke-dasharray="5,2" d="M3257.27,-686.11C3275.37,-683.09 3295.34,-678.71 3313,-672.42 3321.62,-669.35 3322.14,-664.71 3331,-662.42 3408.87,-642.24 3432.37,-651 3512,-662.42 3546.8,-667.4 3585.5,-679.95 3610.02,-688.82"/>
<polygon fill="#9a32cd" stroke="#9a32cd" points="3256.48,-682.69 3247.14,-687.69 3257.56,-689.6 3256.48,-682.69"/>
<text text-anchor="middle" x="3421.5" y="-665.42" font-family="Helvetica,sans-Serif" font-size="10.00"> pComm</text>
</g>
<!-- Node36&#45;&gt;Node25 -->
<g id="edge43" class="edge">
<title>Node36&#45;&gt;Node25</title>
<path fill="none" stroke="#9a32cd" stroke-dasharray="5,2" d="M2595.47,-1218.86C2655.56,-1207.96 2735.7,-1194.36 2807,-1185.42 2865.19,-1178.11 3019.74,-1193.64 3070,-1163.42 3082.68,-1155.79 3075.62,-1143.51 3088,-1135.42 3172.76,-1080 3215.91,-1128.22 3313,-1099.42 3321.39,-1096.93 3322.6,-1093.89 3331,-1091.42 3370.05,-1079.94 3484.72,-1093.62 3512,-1063.42 3563.61,-1006.28 3479.12,-775.21 3530,-717.42 3540.28,-705.74 3555.12,-699.68 3570.42,-696.81"/>
<polygon fill="#9a32cd" stroke="#9a32cd" points="2594.84,-1215.42 2585.63,-1220.65 2596.09,-1222.3 2594.84,-1215.42"/>
<text text-anchor="middle" x="2938.5" y="-1188.42" font-family="Helvetica,sans-Serif" font-size="10.00"> refinedFiniteElements</text>
</g>
<!-- Node37 -->
<g id="node37" class="node">
<title>Node37</title>
<g id="a_node37"><a xlink:title=" ">
<polygon fill="white" stroke="#bfbfbf" points="3139.5,-633.42 3139.5,-663.42 3261.5,-663.42 3261.5,-633.42 3139.5,-633.42"/>
<text text-anchor="start" x="3147.5" y="-651.42" font-family="Helvetica,sans-Serif" font-size="10.00">shared_ptr&lt; MoFEM::</text>
<text text-anchor="middle" x="3200.5" y="-640.42" font-family="Helvetica,sans-Serif" font-size="10.00">WrapMPIComm &gt;</text>
</a>
</g>
</g>
<!-- Node37&#45;&gt;Node25 -->
<g id="edge48" class="edge">
<title>Node37&#45;&gt;Node25</title>
<path fill="none" stroke="#9a32cd" stroke-dasharray="5,2" d="M3271.62,-634.59C3335.26,-624.6 3431.22,-615.93 3512,-635.42 3554.92,-645.77 3599.68,-673.79 3621.47,-688.73"/>
<polygon fill="#9a32cd" stroke="#9a32cd" points="3271,-631.15 3261.69,-636.21 3272.12,-638.06 3271,-631.15"/>
<text text-anchor="middle" x="3421.5" y="-638.42" font-family="Helvetica,sans-Serif" font-size="10.00"> wrapMPIMOABComm</text>
</g>
<!-- Node38&#45;&gt;Node25 -->
<g id="edge50" class="edge">
<title>Node38&#45;&gt;Node25</title>
<path fill="none" stroke="#9a32cd" stroke-dasharray="5,2" d="M3064.02,-1090.5C3230.11,-1074.33 3504.35,-1046.51 3512,-1038.42 3561.1,-986.52 3482.68,-770.95 3530,-717.42 3540.31,-705.76 3555.15,-699.7 3570.45,-696.83"/>
<polygon fill="#9a32cd" stroke="#9a32cd" points="3063.35,-1087.05 3053.73,-1091.5 3064.03,-1094.02 3063.35,-1087.05"/>
<text text-anchor="middle" x="3200.5" y="-1091.42" font-family="Helvetica,sans-Serif" font-size="10.00"> entsFields</text>
</g>
<!-- Node39 -->
<g id="node39" class="node">
<title>Node39</title>
<g id="a_node39"><a xlink:title=" ">
<polygon fill="white" stroke="#bfbfbf" points="3139.5,-584.42 3139.5,-614.42 3261.5,-614.42 3261.5,-584.42 3139.5,-584.42"/>
<text text-anchor="start" x="3147.5" y="-602.42" font-family="Helvetica,sans-Serif" font-size="10.00">shared_ptr&lt; MoFEM::</text>
<text text-anchor="middle" x="3200.5" y="-591.42" font-family="Helvetica,sans-Serif" font-size="10.00">BasicEntityData &gt;</text>
</a>
</g>
</g>
<!-- Node39&#45;&gt;Node25 -->
<g id="edge52" class="edge">
<title>Node39&#45;&gt;Node25</title>
<path fill="none" stroke="#9a32cd" stroke-dasharray="5,2" d="M3271.76,-590.2C3336.1,-584.41 3433.03,-582.43 3512,-609.42 3560.89,-626.12 3607.02,-669.42 3625.95,-688.79"/>
<polygon fill="#9a32cd" stroke="#9a32cd" points="3271.35,-586.73 3261.72,-591.16 3272.01,-593.7 3271.35,-586.73"/>
<text text-anchor="middle" x="3421.5" y="-612.42" font-family="Helvetica,sans-Serif" font-size="10.00"> basicEntityDataPtr</text>
</g>
<!-- Node40 -->
<g id="node40" class="node">
<title>Node40</title>
<g id="a_node40"><a xlink:title=" ">
<polygon fill="white" stroke="#bfbfbf" points="3164.5,-941.92 3164.5,-960.92 3236.5,-960.92 3236.5,-941.92 3164.5,-941.92"/>
<text text-anchor="middle" x="3200.5" y="-948.92" font-family="Helvetica,sans-Serif" font-size="10.00">MPI_Comm</text>
</a>
</g>
</g>
<!-- Node40&#45;&gt;Node25 -->
<g id="edge53" class="edge">
<title>Node40&#45;&gt;Node25</title>
<path fill="none" stroke="#9a32cd" stroke-dasharray="5,2" d="M3247.26,-953.08C3329.01,-955.57 3493.34,-958.25 3512,-940.42 3547.94,-906.06 3496.62,-754.26 3530,-717.42 3540.39,-705.95 3555.17,-699.95 3570.37,-697.06"/>
<polygon fill="#9a32cd" stroke="#9a32cd" points="3246.88,-949.56 3236.77,-952.74 3246.66,-956.56 3246.88,-949.56"/>
<text text-anchor="middle" x="3421.5" y="-958.42" font-family="Helvetica,sans-Serif" font-size="10.00"> mofemComm</text>
</g>
<!-- Node41&#45;&gt;Node25 -->
<g id="edge54" class="edge">
<title>Node41&#45;&gt;Node25</title>
<path fill="none" stroke="#9a32cd" stroke-dasharray="5,2" d="M1855.39,-1046.24C2010.64,-1038.54 2274.27,-1027.42 2501,-1027.42 2501,-1027.42 2501,-1027.42 3201.5,-1027.42 3270.71,-1027.42 3463.41,-1052.7 3512,-1003.42 3556.71,-958.07 3487.66,-764.98 3530,-717.42 3540.28,-705.86 3555.03,-699.82 3570.23,-696.93"/>
<polygon fill="#9a32cd" stroke="#9a32cd" points="1855.14,-1042.74 1845.32,-1046.74 1855.49,-1049.74 1855.14,-1042.74"/>
<text text-anchor="middle" x="2726" y="-1030.42" font-family="Helvetica,sans-Serif" font-size="10.00"> pRoblems</text>
</g>
<!-- Node42&#45;&gt;Node25 -->
<g id="edge56" class="edge">
<title>Node42&#45;&gt;Node25</title>
<path fill="none" stroke="#9a32cd" stroke-dasharray="5,2" d="M1312.31,-906.59C1861.12,-944.24 3431.95,-1044.98 3512,-970.42 3553.25,-932 3492.35,-759.37 3530,-717.42 3540.33,-705.9 3555.09,-699.88 3570.3,-696.99"/>
<polygon fill="#9a32cd" stroke="#9a32cd" points="1312.53,-903.09 1302.31,-905.9 1312.05,-910.08 1312.53,-903.09"/>
<text text-anchor="middle" x="2726" y="-992.42" font-family="Helvetica,sans-Serif" font-size="10.00"> refinedEntities</text>
</g>
<!-- Node43 -->
<g id="node43" class="node">
<title>Node43</title>
<g id="a_node43"><a xlink:title=" ">
<polygon fill="white" stroke="#bfbfbf" points="3088,-892.42 3088,-922.42 3313,-922.42 3313,-892.42 3088,-892.42"/>
<text text-anchor="start" x="3096" y="-910.42" font-family="Helvetica,sans-Serif" font-size="10.00">ptr_map&lt; boost::typeindex</text>
<text text-anchor="middle" x="3200.5" y="-899.42" font-family="Helvetica,sans-Serif" font-size="10.00">::type_index, MoFEM::UnknownInterface &gt;</text>
</a>
</g>
</g>
<!-- Node43&#45;&gt;Node25 -->
<g id="edge58" class="edge">
<title>Node43&#45;&gt;Node25</title>
<path fill="none" stroke="#9a32cd" stroke-dasharray="5,2" d="M3323.02,-921.85C3397.99,-927.8 3484.85,-928.39 3512,-903.42 3542.56,-875.31 3501.87,-747.97 3530,-717.42 3540.48,-706.04 3555.29,-700.06 3570.5,-697.17"/>
<polygon fill="#9a32cd" stroke="#9a32cd" points="3323.26,-918.36 3313,-921.02 3322.68,-925.34 3323.26,-918.36"/>
<text text-anchor="middle" x="3421.5" y="-928.42" font-family="Helvetica,sans-Serif" font-size="10.00"> iFaces</text>
</g>
<!-- Node44 -->
<g id="node44" class="node">
<title>Node44</title>
<g id="a_node44"><a xlink:title=" ">
<polygon fill="white" stroke="#bfbfbf" points="3553.5,-1397.92 3553.5,-1438.92 3718.5,-1438.92 3718.5,-1397.92 3553.5,-1397.92"/>
<text text-anchor="start" x="3561.5" y="-1426.92" font-family="Helvetica,sans-Serif" font-size="10.00">shared_ptr&lt; MoFEM::</text>
<text text-anchor="start" x="3561.5" y="-1415.92" font-family="Helvetica,sans-Serif" font-size="10.00">ParentFiniteElementAdjacency</text>
<text text-anchor="middle" x="3636" y="-1404.92" font-family="Helvetica,sans-Serif" font-size="10.00">FunctionSkeleton&lt; 2 &gt; &gt;</text>
</a>
</g>
</g>
<!-- Node44&#45;&gt;Node11 -->
<g id="edge59" class="edge">
<title>Node44&#45;&gt;Node11</title>
<path fill="none" stroke="#9a32cd" stroke-dasharray="5,2" d="M3728.71,-1432.77C3789.92,-1436.97 3868.36,-1431.24 3920,-1386.42 3973.7,-1339.81 4003.24,-1099.95 4008.97,-1048.96"/>
<polygon fill="#9a32cd" stroke="#9a32cd" points="3728.89,-1429.27 3718.65,-1431.98 3728.35,-1436.25 3728.89,-1429.27"/>
<text text-anchor="middle" x="3840" y="-1437.42" font-family="Helvetica,sans-Serif" font-size="10.00"> parentAdjSkeletonFunctionDim2</text>
</g>
<!-- Node45 -->
<g id="node45" class="node">
<title>Node45</title>
<g id="a_node45"><a xlink:title=" ">
<polygon fill="white" stroke="#bfbfbf" points="3553.5,-1337.92 3553.5,-1378.92 3718.5,-1378.92 3718.5,-1337.92 3553.5,-1337.92"/>
<text text-anchor="start" x="3561.5" y="-1366.92" font-family="Helvetica,sans-Serif" font-size="10.00">shared_ptr&lt; MoFEM::</text>
<text text-anchor="start" x="3561.5" y="-1355.92" font-family="Helvetica,sans-Serif" font-size="10.00">ParentFiniteElementAdjacency</text>
<text text-anchor="middle" x="3636" y="-1344.92" font-family="Helvetica,sans-Serif" font-size="10.00">Function&lt; 1 &gt; &gt;</text>
</a>
</g>
</g>
<!-- Node45&#45;&gt;Node11 -->
<g id="edge60" class="edge">
<title>Node45&#45;&gt;Node11</title>
<path fill="none" stroke="#9a32cd" stroke-dasharray="5,2" d="M3728.71,-1370.42C3789.55,-1373.2 3867.56,-1366.12 3920,-1322.42 4007.93,-1249.15 4011.04,-1090.13 4010.31,-1049.19"/>
<polygon fill="#9a32cd" stroke="#9a32cd" points="3728.9,-1366.93 3718.72,-1369.87 3728.51,-1373.92 3728.9,-1366.93"/>
<text text-anchor="middle" x="3840" y="-1374.42" font-family="Helvetica,sans-Serif" font-size="10.00"> parentAdjFunctionDim1</text>
</g>
<!-- Node46 -->
<g id="node46" class="node">
<title>Node46</title>
<g id="a_node46"><a xlink:title=" ">
<polygon fill="white" stroke="#bfbfbf" points="3576.5,-1241.42 3576.5,-1271.42 3695.5,-1271.42 3695.5,-1241.42 3576.5,-1241.42"/>
<text text-anchor="start" x="3584.5" y="-1259.42" font-family="Helvetica,sans-Serif" font-size="10.00">bitset&lt; BITREFLEVEL</text>
<text text-anchor="middle" x="3636" y="-1248.42" font-family="Helvetica,sans-Serif" font-size="10.00">_SIZE &gt;</text>
</a>
</g>
</g>
<!-- Node46&#45;&gt;Node11 -->
<g id="edge61" class="edge">
<title>Node46&#45;&gt;Node11</title>
<path fill="none" stroke="#9a32cd" stroke-dasharray="5,2" d="M3705.61,-1240.37C3787.95,-1221.02 3915.59,-1190.65 3920,-1187.42 3970.42,-1150.39 3998.32,-1075.83 4007.01,-1049.17"/>
<polygon fill="#9a32cd" stroke="#9a32cd" points="3704.74,-1236.98 3695.8,-1242.67 3706.34,-1243.79 3704.74,-1236.98"/>
<text text-anchor="middle" x="3840" y="-1284.42" font-family="Helvetica,sans-Serif" font-size="10.00"> bitLevel</text>
<text text-anchor="middle" x="3840" y="-1273.42" font-family="Helvetica,sans-Serif" font-size="10.00">bitAdjParent</text>
<text text-anchor="middle" x="3840" y="-1262.42" font-family="Helvetica,sans-Serif" font-size="10.00">bitAdjEnt</text>
<text text-anchor="middle" x="3840" y="-1251.42" font-family="Helvetica,sans-Serif" font-size="10.00">bitAdjEntMask</text>
<text text-anchor="middle" x="3840" y="-1240.42" font-family="Helvetica,sans-Serif" font-size="10.00">bitAdjParentMask</text>
<text text-anchor="middle" x="3840" y="-1229.42" font-family="Helvetica,sans-Serif" font-size="10.00">bitLevelMask</text>
</g>
<!-- Node47 -->
<g id="node47" class="node">
<title>Node47</title>
<g id="a_node47"><a xlink:title=" ">
<polygon fill="white" stroke="#bfbfbf" points="3578.5,-1180.92 3578.5,-1221.92 3693.5,-1221.92 3693.5,-1180.92 3578.5,-1180.92"/>
<text text-anchor="start" x="3586.5" y="-1209.92" font-family="Helvetica,sans-Serif" font-size="10.00">list&lt; std::tuple&lt; std</text>
<text text-anchor="start" x="3586.5" y="-1198.92" font-family="Helvetica,sans-Serif" font-size="10.00">::string, int, Range,</text>
<text text-anchor="middle" x="3636" y="-1187.92" font-family="Helvetica,sans-Serif" font-size="10.00"> bool &gt; &gt;</text>
</a>
</g>
</g>
<!-- Node47&#45;&gt;Node11 -->
<g id="edge62" class="edge">
<title>Node47&#45;&gt;Node11</title>
<path fill="none" stroke="#9a32cd" stroke-dasharray="5,2" d="M3703.57,-1187.15C3762.68,-1172.84 3850.25,-1147.58 3920,-1110.42 3952.32,-1093.2 3984.67,-1064.05 4000.32,-1049.02"/>
<polygon fill="#9a32cd" stroke="#9a32cd" points="3702.52,-1183.8 3693.6,-1189.52 3704.14,-1190.61 3702.52,-1183.8"/>
<text text-anchor="middle" x="3840" y="-1175.42" font-family="Helvetica,sans-Serif" font-size="10.00"> fieldsOrder</text>
</g>
</g>
</svg>
        <g id="navigator" transform="translate(0 0)" fill="#404254">
                <rect fill="#f2f5e9" fill-opacity="0.5" stroke="#606060" stroke-width=".5" x="0" y="0" width="60" height="60"/>
                <use id="zoomplus" xlink:href="#zoomPlus" x="17" y="9" onmousedown="handleZoom(evt,'in')"/>
                <use id="zoomminus" xlink:href="#zoomMin" x="42" y="9" onmousedown="handleZoom(evt,'out')"/>
                <use id="reset" xlink:href="#resetDef" x="30" y="36" onmousedown="handleReset()"/>
                <g id="arrowUp" xlink:href="#dirArrow" transform="translate(30 24)" onmousedown="handlePan(0,-1)">
                  <use xlink:href="#rim" fill="#404040">
                        <set attributeName="fill" to="#808080" begin="arrowUp.mouseover" end="arrowUp.mouseout"/>
                  </use>
                  <path fill="none" stroke="white" stroke-width="1.5" d="M0,-3.0v7 M-2.5,-0.5L0,-3.0L2.5,-0.5"/>
                </g>
                <g id="arrowRight" xlink:href="#dirArrow" transform="rotate(90) translate(36 -43)" onmousedown="handlePan(1,0)">
                  <use xlink:href="#rim" fill="#404040">
                        <set attributeName="fill" to="#808080" begin="arrowRight.mouseover" end="arrowRight.mouseout"/>
                  </use>
                  <path fill="none" stroke="white" stroke-width="1.5" d="M0,-3.0v7 M-2.5,-0.5L0,-3.0L2.5,-0.5"/>
                </g>
                <g id="arrowDown" xlink:href="#dirArrow" transform="rotate(180) translate(-30 -48)" onmousedown="handlePan(0,1)">
                  <use xlink:href="#rim" fill="#404040">
                        <set attributeName="fill" to="#808080" begin="arrowDown.mouseover" end="arrowDown.mouseout"/>
                  </use>
                  <path fill="none" stroke="white" stroke-width="1.5" d="M0,-3.0v7 M-2.5,-0.5L0,-3.0L2.5,-0.5"/>
                </g>
                <g id="arrowLeft" xlink:href="#dirArrow" transform="rotate(270) translate(-36 17)" onmousedown="handlePan(-1,0)">
                  <use xlink:href="#rim" fill="#404040">
                        <set attributeName="fill" to="#808080" begin="arrowLeft.mouseover" end="arrowLeft.mouseout"/>
                  </use>
                  <path fill="none" stroke="white" stroke-width="1.5" d="M0,-3.0v7 M-2.5,-0.5L0,-3.0L2.5,-0.5"/>
                </g>
        </g>
        <svg viewBox="0 0 15 15" width="100%" height="30px" preserveAspectRatio="xMaxYMin meet">
         <g id="arrow_out" transform="scale(0.3 0.3)">
          <a xlink:href="structMixedPoisson__coll__graph_org.svg" target="_base">
           <rect id="button" ry="5" rx="5" y="6" x="6" height="38" width="38"
                fill="#f2f5e9" fill-opacity="0.5" stroke="#606060" stroke-width="1.0"/>
           <path id="arrow"
             d="M 11.500037,31.436501 C 11.940474,20.09759 22.043105,11.32322 32.158766,21.979434 L 37.068811,17.246167 C 37.068811,17.246167 37.088388,32 37.088388,32 L 22.160133,31.978069 C 22.160133,31.978069 26.997745,27.140456 26.997745,27.140456 C 18.528582,18.264221 13.291696,25.230495 11.500037,31.436501 z"
             style="fill:#404040;"/>
          </a>
         </g>
        </svg>
</svg>
