<?xml version="1.0" encoding="UTF-8" standalone="no"?>
<!DOCTYPE svg PUBLIC "-//W3C//DTD SVG 1.1//EN"
 "http://www.w3.org/Graphics/SVG/1.1/DTD/svg11.dtd">
<!-- Generated by graphviz version 2.43.0 (0)
 -->
<!-- Title: OpCheckValsDiffVals Pages: 1 -->
<svg width="3511pt" height="1352pt"
 viewBox="0.00 0.00 3511.00 1352.00" xmlns="http://www.w3.org/2000/svg" xmlns:xlink="http://www.w3.org/1999/xlink">
<g id="graph0" class="graph" transform="scale(1 1) rotate(0) translate(4 1348)">
<title>OpCheckValsDiffVals</title>
<polygon fill="white" stroke="transparent" points="-4,4 -4,-1348 3507,-1348 3507,4 -4,4"/>
<!-- Node1 -->
<g id="node1" class="node">
<title>Node1</title>
<g id="a_node1"><a xlink:title=" ">
<polygon fill="#bfbfbf" stroke="black" points="3385,-1018.5 3385,-1037.5 3503,-1037.5 3503,-1018.5 3385,-1018.5"/>
<text text-anchor="middle" x="3444" y="-1025.5" font-family="Helvetica,sans-Serif" font-size="10.00">OpCheckValsDiffVals</text>
</a>
</g>
</g>
<!-- Node2 -->
<g id="node2" class="node">
<title>Node2</title>
<g id="a_node2"><a xlink:href="structMoFEM_1_1FaceElementForcesAndSourcesCore_1_1UserDataOperator.html" target="_top" xlink:title="default operator for TRI element">
<polygon fill="white" stroke="black" points="3185,-1156.5 3185,-1175.5 3252,-1175.5 3252,-1156.5 3185,-1156.5"/>
<text text-anchor="middle" x="3218.5" y="-1163.5" font-family="Helvetica,sans-Serif" font-size="10.00">FaceEleOp</text>
</a>
</g>
</g>
<!-- Node2&#45;&gt;Node1 -->
<g id="edge1" class="edge">
<title>Node2&#45;&gt;Node1</title>
<path fill="none" stroke="midnightblue" d="M3262.22,-1170.48C3293.53,-1171.65 3335.85,-1168.63 3367,-1149 3409.81,-1122.02 3432.65,-1061.2 3440.17,-1037.61"/>
<polygon fill="midnightblue" stroke="midnightblue" points="3262.22,-1166.97 3252.05,-1169.94 3261.85,-1173.96 3262.22,-1166.97"/>
</g>
<!-- Node3 -->
<g id="node3" class="node">
<title>Node3</title>
<g id="a_node3"><a xlink:href="structMoFEM_1_1ForcesAndSourcesCore_1_1UserDataOperator.html" target="_top" xlink:title=" ">
<polygon fill="white" stroke="black" points="2837,-1025 2837,-1055 3007,-1055 3007,-1025 2837,-1025"/>
<text text-anchor="start" x="2845" y="-1043" font-family="Helvetica,sans-Serif" font-size="10.00">MoFEM::ForcesAndSourcesCore</text>
<text text-anchor="middle" x="2922" y="-1032" font-family="Helvetica,sans-Serif" font-size="10.00">::UserDataOperator</text>
</a>
</g>
</g>
<!-- Node3&#45;&gt;Node2 -->
<g id="edge2" class="edge">
<title>Node3&#45;&gt;Node2</title>
<path fill="none" stroke="midnightblue" d="M2960.05,-1059.75C3002.64,-1081.95 3075.06,-1118.12 3140,-1143 3154.42,-1148.52 3170.75,-1153.55 3184.7,-1157.48"/>
<polygon fill="midnightblue" stroke="midnightblue" points="2961.65,-1056.64 2951.17,-1055.1 2958.4,-1062.84 2961.65,-1056.64"/>
</g>
<!-- Node4 -->
<g id="node4" class="node">
<title>Node4</title>
<g id="a_node4"><a xlink:href="structMoFEM_1_1DataOperator.html" target="_top" xlink:title="base operator to do operations at Gauss Pt. level">
<polygon fill="white" stroke="black" points="2579.5,-1030.5 2579.5,-1049.5 2704.5,-1049.5 2704.5,-1030.5 2579.5,-1030.5"/>
<text text-anchor="middle" x="2642" y="-1037.5" font-family="Helvetica,sans-Serif" font-size="10.00">MoFEM::DataOperator</text>
</a>
</g>
</g>
<!-- Node4&#45;&gt;Node3 -->
<g id="edge3" class="edge">
<title>Node4&#45;&gt;Node3</title>
<path fill="none" stroke="midnightblue" d="M2714.97,-1040C2752.22,-1040 2797.92,-1040 2836.81,-1040"/>
<polygon fill="midnightblue" stroke="midnightblue" points="2714.7,-1036.5 2704.7,-1040 2714.7,-1043.5 2714.7,-1036.5"/>
</g>
<!-- Node5 -->
<g id="node5" class="node">
<title>Node5</title>
<g id="a_node5"><a xlink:title=" ">
<polygon fill="white" stroke="#bfbfbf" points="2160,-923 2160,-975 2352,-975 2352,-923 2160,-923"/>
<text text-anchor="start" x="2168" y="-963" font-family="Helvetica,sans-Serif" font-size="10.00">function&lt; MoFEMErrorCode</text>
<text text-anchor="start" x="2168" y="-952" font-family="Helvetica,sans-Serif" font-size="10.00">(DataOperator *op_ptr,</text>
<text text-anchor="start" x="2168" y="-941" font-family="Helvetica,sans-Serif" font-size="10.00"> int side, EntityType type,</text>
<text text-anchor="middle" x="2256" y="-930" font-family="Helvetica,sans-Serif" font-size="10.00"> EntitiesFieldData::EntData &amp;data)&gt;</text>
</a>
</g>
</g>
<!-- Node5&#45;&gt;Node4 -->
<g id="edge4" class="edge">
<title>Node5&#45;&gt;Node4</title>
<path fill="none" stroke="#9a32cd" stroke-dasharray="5,2" d="M2362.01,-974.56C2419.55,-988.47 2492.16,-1005.89 2557,-1021 2570.4,-1024.12 2585.01,-1027.45 2598.24,-1030.44"/>
<polygon fill="#9a32cd" stroke="#9a32cd" points="2362.72,-971.13 2352.18,-972.18 2361.07,-977.93 2362.72,-971.13"/>
<text text-anchor="middle" x="2458" y="-1018" font-family="Helvetica,sans-Serif" font-size="10.00"> doWorkRhsHook</text>
</g>
<!-- Node6 -->
<g id="node6" class="node">
<title>Node6</title>
<g id="a_node6"><a xlink:href="classbool.html" target="_top" xlink:title=" ">
<polygon fill="white" stroke="black" points="2237,-1161.5 2237,-1180.5 2275,-1180.5 2275,-1161.5 2237,-1161.5"/>
<text text-anchor="middle" x="2256" y="-1168.5" font-family="Helvetica,sans-Serif" font-size="10.00">bool</text>
</a>
</g>
</g>
<!-- Node6&#45;&gt;Node1 -->
<g id="edge92" class="edge">
<title>Node6&#45;&gt;Node1</title>
<path fill="none" stroke="#9a32cd" stroke-dasharray="5,2" d="M2285.13,-1176.91C2309.36,-1181.76 2345.33,-1188.4 2377,-1192 2493.75,-1205.26 2523.5,-1206 2641,-1206 2641,-1206 2641,-1206 3219.5,-1206 3286.88,-1206 3313.68,-1212.18 3367,-1171 3413.06,-1135.43 3434.32,-1063.89 3440.78,-1037.8"/>
<polygon fill="#9a32cd" stroke="#9a32cd" points="2285.7,-1173.45 2275.2,-1174.89 2284.3,-1180.31 2285.7,-1173.45"/>
<text text-anchor="middle" x="2922" y="-1209" font-family="Helvetica,sans-Serif" font-size="10.00"> checkGradients</text>
</g>
<!-- Node6&#45;&gt;Node4 -->
<g id="edge5" class="edge">
<title>Node6&#45;&gt;Node4</title>
<path fill="none" stroke="#9a32cd" stroke-dasharray="5,2" d="M2284.69,-1160.63C2305.57,-1152.44 2334.68,-1140.21 2359,-1127 2367.45,-1122.41 2368.02,-1118.43 2377,-1115 2444.94,-1089.07 2479.24,-1133.44 2539,-1092 2552.73,-1082.48 2543.67,-1069.07 2557,-1059 2563.56,-1054.04 2571.18,-1050.34 2579.1,-1047.58"/>
<polygon fill="#9a32cd" stroke="#9a32cd" points="2283.22,-1157.45 2275.15,-1164.32 2285.74,-1163.98 2283.22,-1157.45"/>
<text text-anchor="middle" x="2458" y="-1184" font-family="Helvetica,sans-Serif" font-size="10.00"> doTris</text>
<text text-anchor="middle" x="2458" y="-1173" font-family="Helvetica,sans-Serif" font-size="10.00">doQuads</text>
<text text-anchor="middle" x="2458" y="-1162" font-family="Helvetica,sans-Serif" font-size="10.00">sYmm</text>
<text text-anchor="middle" x="2458" y="-1151" font-family="Helvetica,sans-Serif" font-size="10.00">doPrisms</text>
<text text-anchor="middle" x="2458" y="-1140" font-family="Helvetica,sans-Serif" font-size="10.00">doTets</text>
<text text-anchor="middle" x="2458" y="-1129" font-family="Helvetica,sans-Serif" font-size="10.00">doVertices</text>
<text text-anchor="middle" x="2458" y="-1118" font-family="Helvetica,sans-Serif" font-size="10.00">doEdges</text>
</g>
<!-- Node7 -->
<g id="node7" class="node">
<title>Node7</title>
<g id="a_node7"><a xlink:title=" ">
<polygon fill="white" stroke="#bfbfbf" points="2153,-994.5 2153,-1079.5 2359,-1079.5 2359,-994.5 2153,-994.5"/>
<text text-anchor="start" x="2161" y="-1067.5" font-family="Helvetica,sans-Serif" font-size="10.00">function&lt; MoFEMErrorCode</text>
<text text-anchor="start" x="2161" y="-1056.5" font-family="Helvetica,sans-Serif" font-size="10.00">(DataOperator *op_ptr,</text>
<text text-anchor="start" x="2161" y="-1045.5" font-family="Helvetica,sans-Serif" font-size="10.00"> int row_side, int col_side,</text>
<text text-anchor="start" x="2161" y="-1034.5" font-family="Helvetica,sans-Serif" font-size="10.00"> EntityType row_type, EntityType</text>
<text text-anchor="start" x="2161" y="-1023.5" font-family="Helvetica,sans-Serif" font-size="10.00"> col_type, EntitiesFieldData::EntData</text>
<text text-anchor="start" x="2161" y="-1012.5" font-family="Helvetica,sans-Serif" font-size="10.00"> &amp;row_data, EntitiesFieldData::EntData</text>
<text text-anchor="middle" x="2256" y="-1001.5" font-family="Helvetica,sans-Serif" font-size="10.00"> &amp;col_data)&gt;</text>
</a>
</g>
</g>
<!-- Node7&#45;&gt;Node4 -->
<g id="edge6" class="edge">
<title>Node7&#45;&gt;Node4</title>
<path fill="none" stroke="#9a32cd" stroke-dasharray="5,2" d="M2369.56,-1037.88C2438.03,-1038.41 2522.87,-1039.08 2579.3,-1039.52"/>
<polygon fill="#9a32cd" stroke="#9a32cd" points="2369.18,-1034.38 2359.15,-1037.8 2369.12,-1041.38 2369.18,-1034.38"/>
<text text-anchor="middle" x="2458" y="-1042" font-family="Helvetica,sans-Serif" font-size="10.00"> doWorkLhsHook</text>
</g>
<!-- Node8 -->
<g id="node8" class="node">
<title>Node8</title>
<g id="a_node8"><a xlink:title=" ">
<polygon fill="white" stroke="#bfbfbf" points="2179,-1098.5 2179,-1117.5 2333,-1117.5 2333,-1098.5 2179,-1098.5"/>
<text text-anchor="middle" x="2256" y="-1105.5" font-family="Helvetica,sans-Serif" font-size="10.00">array&lt; bool, MBMAXTYPE &gt;</text>
</a>
</g>
</g>
<!-- Node8&#45;&gt;Node4 -->
<g id="edge7" class="edge">
<title>Node8&#45;&gt;Node4</title>
<path fill="none" stroke="#9a32cd" stroke-dasharray="5,2" d="M2330.87,-1096.37C2340.42,-1094.24 2350,-1091.8 2359,-1089 2367.36,-1086.4 2368.6,-1083.47 2377,-1081 2396.02,-1075.4 2507.42,-1058.99 2579.3,-1048.71"/>
<polygon fill="#9a32cd" stroke="#9a32cd" points="2330.01,-1092.97 2320.95,-1098.46 2331.46,-1099.82 2330.01,-1092.97"/>
<text text-anchor="middle" x="2458" y="-1084" font-family="Helvetica,sans-Serif" font-size="10.00"> doEntities</text>
</g>
<!-- Node9 -->
<g id="node9" class="node">
<title>Node9</title>
<g id="a_node9"><a xlink:title=" ">
<polygon fill="white" stroke="#bfbfbf" points="2607.5,-992.5 2607.5,-1011.5 2676.5,-1011.5 2676.5,-992.5 2607.5,-992.5"/>
<text text-anchor="middle" x="2642" y="-999.5" font-family="Helvetica,sans-Serif" font-size="10.00">FieldSpace</text>
</a>
</g>
</g>
<!-- Node9&#45;&gt;Node3 -->
<g id="edge8" class="edge">
<title>Node9&#45;&gt;Node3</title>
<path fill="none" stroke="#9a32cd" stroke-dasharray="5,2" d="M2686.82,-1007.53C2722.45,-1012.07 2774,-1018.75 2819,-1025 2824.85,-1025.81 2830.89,-1026.66 2836.97,-1027.53"/>
<polygon fill="#9a32cd" stroke="#9a32cd" points="2687.12,-1004.04 2676.76,-1006.25 2686.24,-1010.98 2687.12,-1004.04"/>
<text text-anchor="middle" x="2782" y="-1028" font-family="Helvetica,sans-Serif" font-size="10.00"> sPace</text>
</g>
<!-- Node10 -->
<g id="node10" class="node">
<title>Node10</title>
<g id="a_node10"><a xlink:title=" ">
<polygon fill="white" stroke="#bfbfbf" points="1122.5,-1208.5 1122.5,-1227.5 1160.5,-1227.5 1160.5,-1208.5 1122.5,-1208.5"/>
<text text-anchor="middle" x="1141.5" y="-1215.5" font-family="Helvetica,sans-Serif" font-size="10.00">char</text>
</a>
</g>
</g>
<!-- Node10&#45;&gt;Node3 -->
<g id="edge9" class="edge">
<title>Node10&#45;&gt;Node3</title>
<path fill="none" stroke="#9a32cd" stroke-dasharray="5,2" d="M1170.81,-1219.74C1230.94,-1223.28 1375.87,-1231 1497.5,-1231 1497.5,-1231 1497.5,-1231 2257,-1231 2383.29,-1231 2416.81,-1227.93 2539,-1196 2675.89,-1160.23 2828.92,-1086.8 2891.72,-1055.11"/>
<polygon fill="#9a32cd" stroke="#9a32cd" points="1170.79,-1216.23 1160.59,-1219.13 1170.37,-1223.22 1170.79,-1216.23"/>
<text text-anchor="middle" x="2063" y="-1234" font-family="Helvetica,sans-Serif" font-size="10.00"> opType</text>
</g>
<!-- Node38 -->
<g id="node38" class="node">
<title>Node38</title>
<g id="a_node38"><a xlink:href="structMoFEM_1_1Problem.html" target="_top" xlink:title="keeps basic data about problem">
<polygon fill="white" stroke="black" points="1449,-940.5 1449,-959.5 1548,-959.5 1548,-940.5 1449,-940.5"/>
<text text-anchor="middle" x="1498.5" y="-947.5" font-family="Helvetica,sans-Serif" font-size="10.00">MoFEM::Problem</text>
</a>
</g>
</g>
<!-- Node10&#45;&gt;Node38 -->
<g id="edge53" class="edge">
<title>Node10&#45;&gt;Node38</title>
<path fill="none" stroke="#9a32cd" stroke-dasharray="5,2" d="M1170.83,-1215.06C1235.54,-1208.21 1389.26,-1191.16 1397,-1183 1429.84,-1148.38 1383.74,-1005.06 1415,-969 1423.57,-959.12 1436.15,-953.81 1448.92,-951.09"/>
<polygon fill="#9a32cd" stroke="#9a32cd" points="1170.12,-1211.61 1160.54,-1216.14 1170.85,-1218.57 1170.12,-1211.61"/>
<text text-anchor="middle" x="1329" y="-1207" font-family="Helvetica,sans-Serif" font-size="10.00"> tagName</text>
</g>
<!-- Node11 -->
<g id="node11" class="node">
<title>Node11</title>
<g id="a_node11"><a xlink:href="structMoFEM_1_1ForcesAndSourcesCore.html" target="_top" xlink:title="structure to get information form mofem into EntitiesFieldData">
<polygon fill="white" stroke="black" points="2557,-607.5 2557,-626.5 2727,-626.5 2727,-607.5 2557,-607.5"/>
<text text-anchor="middle" x="2642" y="-614.5" font-family="Helvetica,sans-Serif" font-size="10.00">MoFEM::ForcesAndSourcesCore</text>
</a>
</g>
</g>
<!-- Node11&#45;&gt;Node3 -->
<g id="edge10" class="edge">
<title>Node11&#45;&gt;Node3</title>
<path fill="none" stroke="#9a32cd" stroke-dasharray="5,2" d="M2660.73,-634.4C2697.47,-671.69 2781.62,-763.68 2819,-859 2843.67,-921.92 2794.86,-957.16 2837,-1010 2841.92,-1016.17 2848.22,-1021.08 2855.15,-1024.98"/>
<polygon fill="#9a32cd" stroke="#9a32cd" points="2662.79,-631.51 2653.25,-626.9 2657.83,-636.45 2662.79,-631.51"/>
<text text-anchor="middle" x="2782" y="-862" font-family="Helvetica,sans-Serif" font-size="10.00"> ptrFE</text>
</g>
<!-- Node11&#45;&gt;Node11 -->
<g id="edge68" class="edge">
<title>Node11&#45;&gt;Node11</title>
<path fill="none" stroke="#9a32cd" stroke-dasharray="5,2" d="M2615.96,-636.03C2617.38,-641.13 2626.06,-645 2642,-645 2666.88,-645 2674.08,-635.57 2663.58,-626.76"/>
<polygon fill="#9a32cd" stroke="#9a32cd" points="2619.24,-637.29 2620.42,-626.76 2612.93,-634.25 2619.24,-637.29"/>
<text text-anchor="middle" x="2642" y="-659" font-family="Helvetica,sans-Serif" font-size="10.00"> sidePtrFE</text>
<text text-anchor="middle" x="2642" y="-648" font-family="Helvetica,sans-Serif" font-size="10.00">refinePtrFE</text>
</g>
<!-- Node12 -->
<g id="node12" class="node">
<title>Node12</title>
<g id="a_node12"><a xlink:href="structMoFEM_1_1FEMethod.html" target="_top" xlink:title="structure for User Loop Methods on finite elements">
<polygon fill="white" stroke="black" points="2202.5,-762.5 2202.5,-781.5 2309.5,-781.5 2309.5,-762.5 2202.5,-762.5"/>
<text text-anchor="middle" x="2256" y="-769.5" font-family="Helvetica,sans-Serif" font-size="10.00">MoFEM::FEMethod</text>
</a>
</g>
</g>
<!-- Node12&#45;&gt;Node11 -->
<g id="edge11" class="edge">
<title>Node12&#45;&gt;Node11</title>
<path fill="none" stroke="midnightblue" d="M2319.76,-780.45C2379.76,-785.48 2470.92,-784.93 2539,-748 2591.19,-719.69 2625.43,-652.11 2636.82,-626.8"/>
<polygon fill="midnightblue" stroke="midnightblue" points="2319.94,-776.95 2309.67,-779.53 2319.31,-783.93 2319.94,-776.95"/>
</g>
<!-- Node13 -->
<g id="node13" class="node">
<title>Node13</title>
<g id="a_node13"><a xlink:href="structMoFEM_1_1BasicMethod.html" target="_top" xlink:title="Data structure to exchange data between mofem and User Loop Methods.">
<polygon fill="white" stroke="black" points="1825,-688.5 1825,-707.5 1947,-707.5 1947,-688.5 1825,-688.5"/>
<text text-anchor="middle" x="1886" y="-695.5" font-family="Helvetica,sans-Serif" font-size="10.00">MoFEM::BasicMethod</text>
</a>
</g>
</g>
<!-- Node13&#45;&gt;Node12 -->
<g id="edge12" class="edge">
<title>Node13&#45;&gt;Node12</title>
<path fill="none" stroke="midnightblue" d="M1941.65,-709.63C1995.38,-720.98 2079.75,-738.61 2153,-753 2169.17,-756.18 2186.81,-759.51 2202.81,-762.48"/>
<polygon fill="midnightblue" stroke="midnightblue" points="1942.17,-706.16 1931.66,-707.51 1940.72,-713.01 1942.17,-706.16"/>
</g>
<!-- Node14 -->
<g id="node14" class="node">
<title>Node14</title>
<g id="a_node14"><a xlink:href="structMoFEM_1_1KspMethod.html" target="_top" xlink:title="data structure for ksp (linear solver) context">
<polygon fill="white" stroke="black" points="1442,-345.5 1442,-364.5 1555,-364.5 1555,-345.5 1442,-345.5"/>
<text text-anchor="middle" x="1498.5" y="-352.5" font-family="Helvetica,sans-Serif" font-size="10.00">MoFEM::KspMethod</text>
</a>
</g>
</g>
<!-- Node14&#45;&gt;Node13 -->
<g id="edge13" class="edge">
<title>Node14&#45;&gt;Node13</title>
<path fill="none" stroke="midnightblue" d="M1517.99,-371.45C1585.96,-431.93 1820.8,-640.88 1874.16,-688.35"/>
<polygon fill="midnightblue" stroke="midnightblue" points="1520.01,-368.56 1510.21,-364.53 1515.36,-373.79 1520.01,-368.56"/>
</g>
<!-- Node15 -->
<g id="node15" class="node">
<title>Node15</title>
<g id="a_node15"><a xlink:href="structMoFEM_1_1PetscData.html" target="_top" xlink:title=" ">
<polygon fill="white" stroke="black" points="1087.5,-364.5 1087.5,-383.5 1195.5,-383.5 1195.5,-364.5 1087.5,-364.5"/>
<text text-anchor="middle" x="1141.5" y="-371.5" font-family="Helvetica,sans-Serif" font-size="10.00">MoFEM::PetscData</text>
</a>
</g>
</g>
<!-- Node15&#45;&gt;Node14 -->
<g id="edge14" class="edge">
<title>Node15&#45;&gt;Node14</title>
<path fill="none" stroke="midnightblue" d="M1205.67,-370.62C1272.79,-367.03 1377.87,-361.4 1441.94,-357.97"/>
<polygon fill="midnightblue" stroke="midnightblue" points="1205.45,-367.13 1195.65,-371.16 1205.82,-374.12 1205.45,-367.13"/>
</g>
<!-- Node25 -->
<g id="node25" class="node">
<title>Node25</title>
<g id="a_node25"><a xlink:href="structMoFEM_1_1SnesMethod.html" target="_top" xlink:title="data structure for snes (nonlinear solver) context">
<polygon fill="white" stroke="black" points="1439,-250.5 1439,-269.5 1558,-269.5 1558,-250.5 1439,-250.5"/>
<text text-anchor="middle" x="1498.5" y="-257.5" font-family="Helvetica,sans-Serif" font-size="10.00">MoFEM::SnesMethod</text>
</a>
</g>
</g>
<!-- Node15&#45;&gt;Node25 -->
<g id="edge27" class="edge">
<title>Node15&#45;&gt;Node25</title>
<path fill="none" stroke="darkgreen" d="M1205.46,-372.35C1219.07,-369.36 1232.51,-364.06 1243,-355 1261.51,-339.02 1242.43,-318.92 1261,-303 1287.1,-280.63 1377.56,-269.24 1438.72,-263.97"/>
<polygon fill="darkgreen" stroke="darkgreen" points="1204.78,-368.92 1195.56,-374.14 1206.02,-375.81 1204.78,-368.92"/>
</g>
<!-- Node28 -->
<g id="node28" class="node">
<title>Node28</title>
<g id="a_node28"><a xlink:href="structMoFEM_1_1TSMethod.html" target="_top" xlink:title="data structure for TS (time stepping) context">
<polygon fill="white" stroke="black" points="1445,-570.5 1445,-589.5 1552,-589.5 1552,-570.5 1445,-570.5"/>
<text text-anchor="middle" x="1498.5" y="-577.5" font-family="Helvetica,sans-Serif" font-size="10.00">MoFEM::TSMethod</text>
</a>
</g>
</g>
<!-- Node15&#45;&gt;Node28 -->
<g id="edge33" class="edge">
<title>Node15&#45;&gt;Node28</title>
<path fill="none" stroke="darkgreen" d="M1205.49,-383.37C1260.23,-393.98 1339.55,-415.48 1397,-457 1442.15,-489.63 1478.62,-547.35 1492,-570.25"/>
<polygon fill="darkgreen" stroke="darkgreen" points="1206.03,-379.91 1195.56,-381.52 1204.75,-386.79 1206.03,-379.91"/>
</g>
<!-- Node16 -->
<g id="node16" class="node">
<title>Node16</title>
<g id="a_node16"><a xlink:href="structMoFEM_1_1UnknownInterface.html" target="_top" xlink:title="base class for all interface classes">
<polygon fill="white" stroke="black" points="735,-59.5 735,-78.5 883,-78.5 883,-59.5 735,-59.5"/>
<text text-anchor="middle" x="809" y="-66.5" font-family="Helvetica,sans-Serif" font-size="10.00">MoFEM::UnknownInterface</text>
</a>
</g>
</g>
<!-- Node16&#45;&gt;Node15 -->
<g id="edge15" class="edge">
<title>Node16&#45;&gt;Node15</title>
<path fill="none" stroke="midnightblue" d="M853.85,-81.71C903.61,-98.63 982.92,-133.65 1022,-194 1041.57,-224.22 1015.52,-328.6 1040,-355 1052.07,-368.02 1070.05,-373.77 1087.47,-375.94"/>
<polygon fill="midnightblue" stroke="midnightblue" points="854.9,-78.38 844.31,-78.57 852.71,-85.02 854.9,-78.38"/>
</g>
<!-- Node56 -->
<g id="node56" class="node">
<title>Node56</title>
<g id="a_node56"><a xlink:href="structMoFEM_1_1CoreInterface.html" target="_top" xlink:title="Interface.">
<polygon fill="white" stroke="black" points="1079,-0.5 1079,-19.5 1204,-19.5 1204,-0.5 1079,-0.5"/>
<text text-anchor="middle" x="1141.5" y="-7.5" font-family="Helvetica,sans-Serif" font-size="10.00">MoFEM::CoreInterface</text>
</a>
</g>
</g>
<!-- Node16&#45;&gt;Node56 -->
<g id="edge67" class="edge">
<title>Node16&#45;&gt;Node56</title>
<path fill="none" stroke="midnightblue" d="M873.52,-57.66C935.53,-46.59 1028.82,-29.94 1087.11,-19.53"/>
<polygon fill="midnightblue" stroke="midnightblue" points="872.7,-54.25 863.47,-59.46 873.93,-61.14 872.7,-54.25"/>
</g>
<!-- Node17 -->
<g id="node17" class="node">
<title>Node17</title>
<g id="a_node17"><a xlink:title=" ">
<polygon fill="white" stroke="#bfbfbf" points="386,-882.5 386,-945.5 627,-945.5 627,-882.5 386,-882.5"/>
<text text-anchor="start" x="394" y="-933.5" font-family="Helvetica,sans-Serif" font-size="10.00">multi_index_container</text>
<text text-anchor="start" x="394" y="-922.5" font-family="Helvetica,sans-Serif" font-size="10.00">&lt; UIdTypeMap, indexed</text>
<text text-anchor="start" x="394" y="-911.5" font-family="Helvetica,sans-Serif" font-size="10.00">_by&lt; hashed_unique&lt; member</text>
<text text-anchor="start" x="394" y="-900.5" font-family="Helvetica,sans-Serif" font-size="10.00">&lt; UIdTypeMap, boost::typeindex</text>
<text text-anchor="middle" x="506.5" y="-889.5" font-family="Helvetica,sans-Serif" font-size="10.00">::type_index, &amp;UIdTypeMap::classIdx &gt; &gt; &gt; &gt;</text>
</a>
</g>
</g>
<!-- Node17&#45;&gt;Node16 -->
<g id="edge16" class="edge">
<title>Node17&#45;&gt;Node16</title>
<path fill="none" stroke="#9a32cd" stroke-dasharray="5,2" d="M516.15,-872.42C540.79,-758.22 617.26,-431.55 735,-181 754.05,-140.46 785.87,-97.39 800.37,-78.64"/>
<polygon fill="#9a32cd" stroke="#9a32cd" points="512.66,-871.98 513.99,-882.49 519.51,-873.44 512.66,-871.98"/>
<text text-anchor="middle" x="681" y="-399" font-family="Helvetica,sans-Serif" font-size="10.00"> iFaceTypeMap</text>
</g>
<!-- Node18 -->
<g id="node18" class="node">
<title>Node18</title>
<g id="a_node18"><a xlink:title=" ">
<polygon fill="white" stroke="#bfbfbf" points="0,-1075.5 0,-1094.5 125,-1094.5 125,-1075.5 0,-1075.5"/>
<text text-anchor="middle" x="62.5" y="-1082.5" font-family="Helvetica,sans-Serif" font-size="10.00">multi_index_container</text>
</a>
</g>
</g>
<!-- Node18&#45;&gt;Node13 -->
<g id="edge40" class="edge">
<title>Node18&#45;&gt;Node13</title>
<path fill="none" stroke="#9a32cd" stroke-dasharray="5,2" d="M85.57,-1100.34C148.23,-1142.31 333.76,-1256 505.5,-1256 505.5,-1256 505.5,-1256 1142.5,-1256 1444.89,-1256 1615.94,-1274.36 1781,-1021 1817.34,-965.23 1757.18,-773.78 1799,-722 1805.62,-713.8 1814.8,-708.26 1824.7,-704.55"/>
<polygon fill="#9a32cd" stroke="#9a32cd" points="87.48,-1097.4 77.24,-1094.68 83.55,-1103.19 87.48,-1097.4"/>
<text text-anchor="middle" x="961.5" y="-1336" font-family="Helvetica,sans-Serif" font-size="10.00"> adjacenciesPtr</text>
<text text-anchor="middle" x="961.5" y="-1325" font-family="Helvetica,sans-Serif" font-size="10.00">refinedEntitiesPtr</text>
<text text-anchor="middle" x="961.5" y="-1314" font-family="Helvetica,sans-Serif" font-size="10.00">finiteElementsEntitiesPtr</text>
<text text-anchor="middle" x="961.5" y="-1303" font-family="Helvetica,sans-Serif" font-size="10.00">dofsPtr</text>
<text text-anchor="middle" x="961.5" y="-1292" font-family="Helvetica,sans-Serif" font-size="10.00">entitiesPtr</text>
<text text-anchor="middle" x="961.5" y="-1281" font-family="Helvetica,sans-Serif" font-size="10.00">finiteElementsPtr</text>
<text text-anchor="middle" x="961.5" y="-1270" font-family="Helvetica,sans-Serif" font-size="10.00">refinedFiniteElementsPtr</text>
<text text-anchor="middle" x="961.5" y="-1259" font-family="Helvetica,sans-Serif" font-size="10.00">fieldsPtr</text>
</g>
<!-- Node18&#45;&gt;Node17 -->
<g id="edge17" class="edge">
<title>Node18&#45;&gt;Node17</title>
<path fill="none" stroke="orange" stroke-dasharray="5,2" d="M97.79,-1071.73C167.27,-1044.85 326.32,-983.32 423.96,-945.55"/>
<polygon fill="orange" stroke="orange" points="96.27,-1068.57 88.21,-1075.44 98.8,-1075.1 96.27,-1068.57"/>
<text text-anchor="start" x="143" y="-1088" font-family="Helvetica,sans-Serif" font-size="10.00"> &lt; UIdTypeMap, indexed</text>
<text text-anchor="start" x="143" y="-1077" font-family="Helvetica,sans-Serif" font-size="10.00">_by&lt; hashed_unique&lt; member</text>
<text text-anchor="start" x="143" y="-1066" font-family="Helvetica,sans-Serif" font-size="10.00">&lt; UIdTypeMap, boost::typeindex</text>
<text text-anchor="middle" x="255.5" y="-1055" font-family="Helvetica,sans-Serif" font-size="10.00">::type_index, &amp;UIdTypeMap::classIdx &gt; &gt; &gt; &gt;</text>
</g>
<!-- Node19 -->
<g id="node19" class="node">
<title>Node19</title>
<g id="a_node19"><a xlink:title=" ">
<polygon fill="white" stroke="#bfbfbf" points="738.5,-277.5 738.5,-296.5 879.5,-296.5 879.5,-277.5 738.5,-277.5"/>
<text text-anchor="middle" x="809" y="-284.5" font-family="Helvetica,sans-Serif" font-size="10.00">static constexpr Switches</text>
</a>
</g>
</g>
<!-- Node19&#45;&gt;Node15 -->
<g id="edge18" class="edge">
<title>Node19&#45;&gt;Node15</title>
<path fill="none" stroke="#9a32cd" stroke-dasharray="5,2" d="M860.04,-275.78C906.83,-268.36 976.17,-265.61 1022,-301 1042.02,-316.46 1020.95,-338.36 1040,-355 1052.97,-366.33 1070.54,-371.8 1087.36,-374.23"/>
<polygon fill="#9a32cd" stroke="#9a32cd" points="859.4,-272.34 850.13,-277.48 860.58,-279.24 859.4,-272.34"/>
<text text-anchor="middle" x="961.5" y="-381" font-family="Helvetica,sans-Serif" font-size="10.00"> CtxSetX_TT</text>
<text text-anchor="middle" x="961.5" y="-370" font-family="Helvetica,sans-Serif" font-size="10.00">CtxSetX_T</text>
<text text-anchor="middle" x="961.5" y="-359" font-family="Helvetica,sans-Serif" font-size="10.00">CtxSetA</text>
<text text-anchor="middle" x="961.5" y="-348" font-family="Helvetica,sans-Serif" font-size="10.00">CtxSetB</text>
<text text-anchor="middle" x="961.5" y="-337" font-family="Helvetica,sans-Serif" font-size="10.00">CtxSetTime</text>
<text text-anchor="middle" x="961.5" y="-326" font-family="Helvetica,sans-Serif" font-size="10.00">CtxSetNone</text>
<text text-anchor="middle" x="961.5" y="-315" font-family="Helvetica,sans-Serif" font-size="10.00">CtxSetF</text>
<text text-anchor="middle" x="961.5" y="-304" font-family="Helvetica,sans-Serif" font-size="10.00">CtxSetX</text>
</g>
<!-- Node20 -->
<g id="node20" class="node">
<title>Node20</title>
<g id="a_node20"><a xlink:title=" ">
<polygon fill="white" stroke="#bfbfbf" points="791.5,-190.5 791.5,-209.5 826.5,-209.5 826.5,-190.5 791.5,-190.5"/>
<text text-anchor="middle" x="809" y="-197.5" font-family="Helvetica,sans-Serif" font-size="10.00">Mat</text>
</a>
</g>
</g>
<!-- Node20&#45;&gt;Node14 -->
<g id="edge24" class="edge">
<title>Node20&#45;&gt;Node14</title>
<path fill="none" stroke="#9a32cd" stroke-dasharray="5,2" d="M836.57,-195.4C905.42,-184.5 1094.58,-161.11 1243,-204 1347.14,-234.1 1452.5,-317.16 1486.33,-345.43"/>
<polygon fill="#9a32cd" stroke="#9a32cd" points="835.88,-191.97 826.58,-197.03 837.01,-198.87 835.88,-191.97"/>
<text text-anchor="middle" x="1141.5" y="-218" font-family="Helvetica,sans-Serif" font-size="10.00"> ksp_A</text>
<text text-anchor="middle" x="1141.5" y="-207" font-family="Helvetica,sans-Serif" font-size="10.00">ksp_B</text>
</g>
<!-- Node20&#45;&gt;Node15 -->
<g id="edge19" class="edge">
<title>Node20&#45;&gt;Node15</title>
<path fill="none" stroke="#9a32cd" stroke-dasharray="5,2" d="M836.93,-197.13C882.19,-193.94 973.32,-194.82 1022,-246 1055.84,-281.58 1005.69,-319.88 1040,-355 1052.29,-367.57 1070.1,-373.26 1087.33,-375.51"/>
<polygon fill="#9a32cd" stroke="#9a32cd" points="836.4,-193.66 826.72,-197.98 836.98,-200.64 836.4,-193.66"/>
<text text-anchor="middle" x="961.5" y="-260" font-family="Helvetica,sans-Serif" font-size="10.00"> A</text>
<text text-anchor="middle" x="961.5" y="-249" font-family="Helvetica,sans-Serif" font-size="10.00">B</text>
</g>
<!-- Node20&#45;&gt;Node25 -->
<g id="edge29" class="edge">
<title>Node20&#45;&gt;Node25</title>
<path fill="none" stroke="#9a32cd" stroke-dasharray="5,2" d="M835.07,-185.45C876.22,-162.51 961.38,-118.9 1040,-103 1128.43,-85.12 1152.95,-97.47 1243,-103 1311.83,-107.23 1347.57,-73.91 1397,-122 1435.34,-159.3 1378.65,-201.76 1415,-241 1421.39,-247.9 1429.75,-252.54 1438.68,-255.61"/>
<polygon fill="#9a32cd" stroke="#9a32cd" points="833.27,-182.45 826.28,-190.42 836.71,-188.55 833.27,-182.45"/>
<text text-anchor="middle" x="1141.5" y="-117" font-family="Helvetica,sans-Serif" font-size="10.00"> snes_A</text>
<text text-anchor="middle" x="1141.5" y="-106" font-family="Helvetica,sans-Serif" font-size="10.00">snes_B</text>
</g>
<!-- Node20&#45;&gt;Node28 -->
<g id="edge34" class="edge">
<title>Node20&#45;&gt;Node28</title>
<path fill="none" stroke="#9a32cd" stroke-dasharray="5,2" d="M833.54,-215.5C850.11,-227.73 871.34,-246.3 883,-268 906.03,-310.87 867.68,-340.54 901,-376 938.8,-416.23 979.51,-368.77 1022,-404 1037.32,-416.7 1024.21,-432.89 1040,-445 1112.42,-500.55 1152.98,-460.95 1243,-476 1311.61,-487.47 1333.3,-476.04 1397,-504 1434.66,-520.53 1471.21,-553.77 1487.97,-570.26"/>
<polygon fill="#9a32cd" stroke="#9a32cd" points="835.55,-212.64 825.37,-209.7 831.5,-218.35 835.55,-212.64"/>
<text text-anchor="middle" x="1141.5" y="-490" font-family="Helvetica,sans-Serif" font-size="10.00"> ts_A</text>
<text text-anchor="middle" x="1141.5" y="-479" font-family="Helvetica,sans-Serif" font-size="10.00">ts_B</text>
</g>
<!-- Node21 -->
<g id="node21" class="node">
<title>Node21</title>
<g id="a_node21"><a xlink:title=" ">
<polygon fill="white" stroke="#bfbfbf" points="772.5,-413.5 772.5,-432.5 845.5,-432.5 845.5,-413.5 772.5,-413.5"/>
<text text-anchor="middle" x="809" y="-420.5" font-family="Helvetica,sans-Serif" font-size="10.00">bitset&lt; 8 &gt;</text>
</a>
</g>
</g>
<!-- Node21&#45;&gt;Node15 -->
<g id="edge20" class="edge">
<title>Node21&#45;&gt;Node15</title>
<path fill="none" stroke="#9a32cd" stroke-dasharray="5,2" d="M855.72,-416.22C916.35,-407.23 1023.14,-391.4 1087.3,-381.89"/>
<polygon fill="#9a32cd" stroke="#9a32cd" points="855.06,-412.78 845.68,-417.71 856.09,-419.71 855.06,-412.78"/>
<text text-anchor="middle" x="961.5" y="-412" font-family="Helvetica,sans-Serif" font-size="10.00"> data_ctx</text>
</g>
<!-- Node22 -->
<g id="node22" class="node">
<title>Node22</title>
<g id="a_node22"><a xlink:title=" ">
<polygon fill="white" stroke="#bfbfbf" points="792,-478.5 792,-497.5 826,-497.5 826,-478.5 792,-478.5"/>
<text text-anchor="middle" x="809" y="-485.5" font-family="Helvetica,sans-Serif" font-size="10.00">Vec</text>
</a>
</g>
</g>
<!-- Node22&#45;&gt;Node14 -->
<g id="edge25" class="edge">
<title>Node22&#45;&gt;Node14</title>
<path fill="none" stroke="#9a32cd" stroke-dasharray="5,2" d="M835.39,-499.43C878.6,-516.96 967.09,-544.27 1022,-502 1046.77,-482.93 1016.78,-454.94 1040,-434 1069.82,-407.11 1357.57,-385.59 1397,-378 1417.39,-374.07 1439.93,-368.98 1458.5,-364.59"/>
<polygon fill="#9a32cd" stroke="#9a32cd" points="836.73,-496.2 826.15,-495.55 834.02,-502.65 836.73,-496.2"/>
<text text-anchor="middle" x="1141.5" y="-437" font-family="Helvetica,sans-Serif" font-size="10.00"> ksp_f</text>
</g>
<!-- Node22&#45;&gt;Node15 -->
<g id="edge21" class="edge">
<title>Node22&#45;&gt;Node15</title>
<path fill="none" stroke="#9a32cd" stroke-dasharray="5,2" d="M835.63,-479.21C853.81,-473.06 878.82,-464.77 901,-458 954.43,-441.7 976.52,-456.44 1022,-424 1033.44,-415.84 1028.4,-405.93 1040,-398 1053.92,-388.48 1071.17,-382.72 1087.42,-379.23"/>
<polygon fill="#9a32cd" stroke="#9a32cd" points="834.38,-475.94 826.04,-482.47 836.63,-482.57 834.38,-475.94"/>
<text text-anchor="middle" x="961.5" y="-494" font-family="Helvetica,sans-Serif" font-size="10.00"> f</text>
<text text-anchor="middle" x="961.5" y="-483" font-family="Helvetica,sans-Serif" font-size="10.00">x</text>
<text text-anchor="middle" x="961.5" y="-472" font-family="Helvetica,sans-Serif" font-size="10.00">x_t</text>
<text text-anchor="middle" x="961.5" y="-461" font-family="Helvetica,sans-Serif" font-size="10.00">x_tt</text>
</g>
<!-- Node22&#45;&gt;Node25 -->
<g id="edge30" class="edge">
<title>Node22&#45;&gt;Node25</title>
<path fill="none" stroke="#9a32cd" stroke-dasharray="5,2" d="M835.77,-478.66C852.13,-471.32 872.2,-459.39 883,-442 903.51,-408.98 873.18,-295.15 901,-268 938.84,-231.06 1296.01,-247.97 1438.87,-256.32"/>
<polygon fill="#9a32cd" stroke="#9a32cd" points="834.06,-475.58 826.17,-482.65 836.75,-482.05 834.06,-475.58"/>
<text text-anchor="middle" x="1141.5" y="-262" font-family="Helvetica,sans-Serif" font-size="10.00"> snes_x</text>
<text text-anchor="middle" x="1141.5" y="-251" font-family="Helvetica,sans-Serif" font-size="10.00">snes_f</text>
</g>
<!-- Node22&#45;&gt;Node28 -->
<g id="edge38" class="edge">
<title>Node22&#45;&gt;Node28</title>
<path fill="none" stroke="#9a32cd" stroke-dasharray="5,2" d="M830.88,-503.95C869.57,-532.38 956.12,-590.83 1040,-612 1193.84,-650.83 1240.15,-633.95 1397,-610 1423.28,-605.99 1452.27,-596.79 1472.34,-589.63"/>
<polygon fill="#9a32cd" stroke="#9a32cd" points="832.64,-500.89 822.52,-497.73 828.45,-506.51 832.64,-500.89"/>
<text text-anchor="middle" x="1141.5" y="-672" font-family="Helvetica,sans-Serif" font-size="10.00"> ts_u</text>
<text text-anchor="middle" x="1141.5" y="-661" font-family="Helvetica,sans-Serif" font-size="10.00">ts_F</text>
<text text-anchor="middle" x="1141.5" y="-650" font-family="Helvetica,sans-Serif" font-size="10.00">ts_u_t</text>
<text text-anchor="middle" x="1141.5" y="-639" font-family="Helvetica,sans-Serif" font-size="10.00">ts_u_tt</text>
</g>
<!-- Node23 -->
<g id="node23" class="node">
<title>Node23</title>
<g id="a_node23"><a xlink:title=" ">
<polygon fill="white" stroke="#bfbfbf" points="1124,-326.5 1124,-345.5 1159,-345.5 1159,-326.5 1124,-326.5"/>
<text text-anchor="middle" x="1141.5" y="-333.5" font-family="Helvetica,sans-Serif" font-size="10.00">KSP</text>
</a>
</g>
</g>
<!-- Node23&#45;&gt;Node14 -->
<g id="edge22" class="edge">
<title>Node23&#45;&gt;Node14</title>
<path fill="none" stroke="#9a32cd" stroke-dasharray="5,2" d="M1169.32,-336.61C1215.74,-337.77 1314.07,-340.66 1397,-346 1411.6,-346.94 1427.36,-348.22 1441.98,-349.53"/>
<polygon fill="#9a32cd" stroke="#9a32cd" points="1169.27,-333.11 1159.19,-336.37 1169.1,-340.11 1169.27,-333.11"/>
<text text-anchor="middle" x="1329" y="-349" font-family="Helvetica,sans-Serif" font-size="10.00"> ksp</text>
</g>
<!-- Node24 -->
<g id="node24" class="node">
<title>Node24</title>
<g id="a_node24"><a xlink:title=" ">
<polygon fill="white" stroke="#bfbfbf" points="1104.5,-288.5 1104.5,-307.5 1178.5,-307.5 1178.5,-288.5 1104.5,-288.5"/>
<text text-anchor="middle" x="1141.5" y="-295.5" font-family="Helvetica,sans-Serif" font-size="10.00">KSPContext</text>
</a>
</g>
</g>
<!-- Node24&#45;&gt;Node14 -->
<g id="edge23" class="edge">
<title>Node24&#45;&gt;Node14</title>
<path fill="none" stroke="#9a32cd" stroke-dasharray="5,2" d="M1188.75,-300.34C1240.04,-303.53 1325.06,-310.58 1397,-325 1422.35,-330.08 1450.5,-338.76 1470.54,-345.48"/>
<polygon fill="#9a32cd" stroke="#9a32cd" points="1188.83,-296.84 1178.64,-299.73 1188.41,-303.82 1188.83,-296.84"/>
<text text-anchor="middle" x="1329" y="-328" font-family="Helvetica,sans-Serif" font-size="10.00"> ksp_ctx</text>
</g>
<!-- Node25&#45;&gt;Node13 -->
<g id="edge26" class="edge">
<title>Node25&#45;&gt;Node13</title>
<path fill="none" stroke="midnightblue" d="M1538.85,-272.99C1601.96,-296.11 1724.44,-350.79 1781,-443 1820.5,-507.39 1766.43,-543.84 1799,-612 1815.2,-645.91 1850.45,-674.24 1870.43,-688.36"/>
<polygon fill="midnightblue" stroke="midnightblue" points="1539.85,-269.63 1529.25,-269.56 1537.48,-276.22 1539.85,-269.63"/>
</g>
<!-- Node26 -->
<g id="node26" class="node">
<title>Node26</title>
<g id="a_node26"><a xlink:title=" ">
<polygon fill="white" stroke="#bfbfbf" points="1120.5,-38.5 1120.5,-57.5 1162.5,-57.5 1162.5,-38.5 1120.5,-38.5"/>
<text text-anchor="middle" x="1141.5" y="-45.5" font-family="Helvetica,sans-Serif" font-size="10.00">SNES</text>
</a>
</g>
</g>
<!-- Node26&#45;&gt;Node25 -->
<g id="edge28" class="edge">
<title>Node26&#45;&gt;Node25</title>
<path fill="none" stroke="#9a32cd" stroke-dasharray="5,2" d="M1172.57,-45.92C1232.96,-42.46 1365.91,-38.58 1397,-69 1424.47,-95.88 1389.53,-212.22 1415,-241 1421.33,-248.15 1429.77,-252.9 1438.83,-256"/>
<polygon fill="#9a32cd" stroke="#9a32cd" points="1172.28,-42.44 1162.51,-46.54 1172.7,-49.42 1172.28,-42.44"/>
<text text-anchor="middle" x="1329" y="-72" font-family="Helvetica,sans-Serif" font-size="10.00"> snes</text>
</g>
<!-- Node27 -->
<g id="node27" class="node">
<title>Node27</title>
<g id="a_node27"><a xlink:title=" ">
<polygon fill="white" stroke="#bfbfbf" points="1101.5,-134.5 1101.5,-153.5 1181.5,-153.5 1181.5,-134.5 1101.5,-134.5"/>
<text text-anchor="middle" x="1141.5" y="-141.5" font-family="Helvetica,sans-Serif" font-size="10.00">SNESContext</text>
</a>
</g>
</g>
<!-- Node27&#45;&gt;Node25 -->
<g id="edge31" class="edge">
<title>Node27&#45;&gt;Node25</title>
<path fill="none" stroke="#9a32cd" stroke-dasharray="5,2" d="M1191.98,-132.53C1248.53,-122.57 1340.52,-116.42 1397,-165 1423.32,-187.63 1390.38,-216.53 1415,-241 1421.57,-247.53 1429.9,-251.99 1438.73,-255.02"/>
<polygon fill="#9a32cd" stroke="#9a32cd" points="1191.04,-129.14 1181.85,-134.42 1192.33,-136.03 1191.04,-129.14"/>
<text text-anchor="middle" x="1329" y="-168" font-family="Helvetica,sans-Serif" font-size="10.00"> snes_ctx</text>
</g>
<!-- Node28&#45;&gt;Node13 -->
<g id="edge32" class="edge">
<title>Node28&#45;&gt;Node13</title>
<path fill="none" stroke="midnightblue" d="M1540.61,-592.58C1618.18,-616.33 1784.52,-667.24 1853.76,-688.44"/>
<polygon fill="midnightblue" stroke="midnightblue" points="1541.31,-589.14 1530.72,-589.56 1539.26,-595.83 1541.31,-589.14"/>
</g>
<!-- Node29 -->
<g id="node29" class="node">
<title>Node29</title>
<g id="a_node29"><a xlink:title=" ">
<polygon fill="white" stroke="#bfbfbf" points="1109,-545.5 1109,-564.5 1174,-564.5 1174,-545.5 1109,-545.5"/>
<text text-anchor="middle" x="1141.5" y="-552.5" font-family="Helvetica,sans-Serif" font-size="10.00">PetscReal</text>
</a>
</g>
</g>
<!-- Node29&#45;&gt;Node28 -->
<g id="edge35" class="edge">
<title>Node29&#45;&gt;Node28</title>
<path fill="none" stroke="#9a32cd" stroke-dasharray="5,2" d="M1184.06,-547.42C1234.75,-539.46 1322.85,-529.78 1397,-543 1426.29,-548.22 1458.22,-561.37 1478.06,-570.5"/>
<polygon fill="#9a32cd" stroke="#9a32cd" points="1183.44,-543.97 1174.13,-549.03 1184.57,-550.88 1183.44,-543.97"/>
<text text-anchor="middle" x="1329" y="-579" font-family="Helvetica,sans-Serif" font-size="10.00"> ts_a</text>
<text text-anchor="middle" x="1329" y="-568" font-family="Helvetica,sans-Serif" font-size="10.00">ts_t</text>
<text text-anchor="middle" x="1329" y="-557" font-family="Helvetica,sans-Serif" font-size="10.00">ts_dt</text>
<text text-anchor="middle" x="1329" y="-546" font-family="Helvetica,sans-Serif" font-size="10.00">ts_aa</text>
</g>
<!-- Node30 -->
<g id="node30" class="node">
<title>Node30</title>
<g id="a_node30"><a xlink:title=" ">
<polygon fill="white" stroke="#bfbfbf" points="1108,-507.5 1108,-526.5 1175,-526.5 1175,-507.5 1108,-507.5"/>
<text text-anchor="middle" x="1141.5" y="-514.5" font-family="Helvetica,sans-Serif" font-size="10.00">TSContext</text>
</a>
</g>
</g>
<!-- Node30&#45;&gt;Node28 -->
<g id="edge36" class="edge">
<title>Node30&#45;&gt;Node28</title>
<path fill="none" stroke="#9a32cd" stroke-dasharray="5,2" d="M1185.47,-511.43C1236.84,-506.22 1324.91,-501.93 1397,-522 1431.93,-531.73 1467.43,-556.45 1485.42,-570.27"/>
<polygon fill="#9a32cd" stroke="#9a32cd" points="1184.96,-507.96 1175.39,-512.51 1185.71,-514.92 1184.96,-507.96"/>
<text text-anchor="middle" x="1329" y="-525" font-family="Helvetica,sans-Serif" font-size="10.00"> ts_ctx</text>
</g>
<!-- Node31 -->
<g id="node31" class="node">
<title>Node31</title>
<g id="a_node31"><a xlink:title=" ">
<polygon fill="white" stroke="#bfbfbf" points="1113.5,-701.5 1113.5,-720.5 1169.5,-720.5 1169.5,-701.5 1113.5,-701.5"/>
<text text-anchor="middle" x="1141.5" y="-708.5" font-family="Helvetica,sans-Serif" font-size="10.00">PetscInt</text>
</a>
</g>
</g>
<!-- Node31&#45;&gt;Node28 -->
<g id="edge37" class="edge">
<title>Node31&#45;&gt;Node28</title>
<path fill="none" stroke="#9a32cd" stroke-dasharray="5,2" d="M1179.63,-706.02C1199.17,-702.46 1223.12,-696.55 1243,-687 1252.14,-682.61 1251.72,-677.08 1261,-673 1317.12,-648.32 1340.25,-673.19 1397,-650 1433.41,-635.12 1469.68,-605.19 1487,-589.73"/>
<polygon fill="#9a32cd" stroke="#9a32cd" points="1178.85,-702.61 1169.57,-707.73 1180.02,-709.51 1178.85,-702.61"/>
<text text-anchor="middle" x="1329" y="-676" font-family="Helvetica,sans-Serif" font-size="10.00"> ts_step</text>
</g>
<!-- Node32 -->
<g id="node32" class="node">
<title>Node32</title>
<g id="a_node32"><a xlink:title=" ">
<polygon fill="white" stroke="#bfbfbf" points="1127,-583.5 1127,-602.5 1156,-602.5 1156,-583.5 1127,-583.5"/>
<text text-anchor="middle" x="1141.5" y="-590.5" font-family="Helvetica,sans-Serif" font-size="10.00">TS</text>
</a>
</g>
</g>
<!-- Node32&#45;&gt;Node28 -->
<g id="edge39" class="edge">
<title>Node32&#45;&gt;Node28</title>
<path fill="none" stroke="#9a32cd" stroke-dasharray="5,2" d="M1166.24,-593.61C1211.28,-594.6 1312.22,-595.96 1397,-591 1412.59,-590.09 1429.49,-588.48 1444.9,-586.77"/>
<polygon fill="#9a32cd" stroke="#9a32cd" points="1166.11,-590.11 1156.04,-593.37 1165.95,-597.11 1166.11,-590.11"/>
<text text-anchor="middle" x="1329" y="-598" font-family="Helvetica,sans-Serif" font-size="10.00"> ts</text>
</g>
<!-- Node33 -->
<g id="node33" class="node">
<title>Node33</title>
<g id="a_node33"><a xlink:title=" ">
<polygon fill="white" stroke="#bfbfbf" points="1454,-212.5 1454,-231.5 1543,-231.5 1543,-212.5 1454,-212.5"/>
<text text-anchor="middle" x="1498.5" y="-219.5" font-family="Helvetica,sans-Serif" font-size="10.00">pair&lt; int, int &gt;</text>
</a>
</g>
</g>
<!-- Node33&#45;&gt;Node13 -->
<g id="edge41" class="edge">
<title>Node33&#45;&gt;Node13</title>
<path fill="none" stroke="#9a32cd" stroke-dasharray="5,2" d="M1553.06,-216.85C1617.97,-213.92 1725.53,-220.3 1781,-286 1804.4,-313.72 1784.2,-578.88 1799,-612 1814.34,-646.31 1849.92,-674.49 1870.18,-688.47"/>
<polygon fill="#9a32cd" stroke="#9a32cd" points="1552.82,-213.36 1543.02,-217.4 1553.19,-220.35 1552.82,-213.36"/>
<text text-anchor="middle" x="1690.5" y="-289" font-family="Helvetica,sans-Serif" font-size="10.00"> loHiFERank</text>
</g>
<!-- Node34 -->
<g id="node34" class="node">
<title>Node34</title>
<g id="a_node34"><a xlink:title=" ">
<polygon fill="white" stroke="#bfbfbf" points="1428.5,-174.5 1428.5,-193.5 1568.5,-193.5 1568.5,-174.5 1428.5,-174.5"/>
<text text-anchor="middle" x="1498.5" y="-181.5" font-family="Helvetica,sans-Serif" font-size="10.00">weak_ptr&lt; CacheTuple &gt;</text>
</a>
</g>
</g>
<!-- Node34&#45;&gt;Node13 -->
<g id="edge42" class="edge">
<title>Node34&#45;&gt;Node13</title>
<path fill="none" stroke="#9a32cd" stroke-dasharray="5,2" d="M1539.99,-171.9C1601.6,-156.27 1718.33,-138.06 1781,-202 1812.92,-234.56 1780.63,-570.26 1799,-612 1814.14,-646.4 1849.8,-674.54 1870.13,-688.49"/>
<polygon fill="#9a32cd" stroke="#9a32cd" points="1539.01,-168.54 1530.23,-174.47 1540.8,-175.31 1539.01,-168.54"/>
<text text-anchor="middle" x="1690.5" y="-205" font-family="Helvetica,sans-Serif" font-size="10.00"> cacheWeakPtr</text>
</g>
<!-- Node35 -->
<g id="node35" class="node">
<title>Node35</title>
<g id="a_node35"><a xlink:title=" ">
<polygon fill="white" stroke="#bfbfbf" points="1442.5,-978.5 1442.5,-997.5 1554.5,-997.5 1554.5,-978.5 1442.5,-978.5"/>
<text text-anchor="middle" x="1498.5" y="-985.5" font-family="Helvetica,sans-Serif" font-size="10.00">unique_ptr&lt; bool &gt;</text>
</a>
</g>
</g>
<!-- Node35&#45;&gt;Node13 -->
<g id="edge43" class="edge">
<title>Node35&#45;&gt;Node13</title>
<path fill="none" stroke="#9a32cd" stroke-dasharray="5,2" d="M1564.81,-994.76C1629.88,-997.5 1727.57,-990.08 1781,-930 1811.83,-895.33 1769.38,-757.71 1799,-722 1805.73,-713.89 1814.95,-708.39 1824.87,-704.69"/>
<polygon fill="#9a32cd" stroke="#9a32cd" points="1564.83,-991.25 1554.66,-994.24 1564.47,-998.25 1564.83,-991.25"/>
<text text-anchor="middle" x="1690.5" y="-1009" font-family="Helvetica,sans-Serif" font-size="10.00"> matAssembleSwitch</text>
<text text-anchor="middle" x="1690.5" y="-998" font-family="Helvetica,sans-Serif" font-size="10.00">vecAssembleSwitch</text>
</g>
<!-- Node36 -->
<g id="node36" class="node">
<title>Node36</title>
<g id="a_node36"><a xlink:title=" ">
<polygon fill="white" stroke="#bfbfbf" points="1127,-739.5 1127,-758.5 1156,-758.5 1156,-739.5 1127,-739.5"/>
<text text-anchor="middle" x="1141.5" y="-746.5" font-family="Helvetica,sans-Serif" font-size="10.00">int</text>
</a>
</g>
</g>
<!-- Node36&#45;&gt;Node13 -->
<g id="edge44" class="edge">
<title>Node36&#45;&gt;Node13</title>
<path fill="none" stroke="#9a32cd" stroke-dasharray="5,2" d="M1166.08,-748.44C1187.31,-747.06 1218.8,-742.79 1243,-730 1253,-724.71 1250.62,-716.5 1261,-712 1360.92,-668.7 1688.61,-684.76 1824.81,-693.66"/>
<polygon fill="#9a32cd" stroke="#9a32cd" points="1165.83,-744.95 1156.01,-748.93 1166.16,-751.94 1165.83,-744.95"/>
<text text-anchor="middle" x="1498.5" y="-723" font-family="Helvetica,sans-Serif" font-size="10.00"> sIze</text>
<text text-anchor="middle" x="1498.5" y="-712" font-family="Helvetica,sans-Serif" font-size="10.00">loopSize</text>
<text text-anchor="middle" x="1498.5" y="-701" font-family="Helvetica,sans-Serif" font-size="10.00">nInTheLoop</text>
<text text-anchor="middle" x="1498.5" y="-690" font-family="Helvetica,sans-Serif" font-size="10.00">rAnk</text>
</g>
<!-- Node36&#45;&gt;Node38 -->
<g id="edge56" class="edge">
<title>Node36&#45;&gt;Node38</title>
<path fill="none" stroke="#9a32cd" stroke-dasharray="5,2" d="M1166.17,-744.07C1189.99,-739.37 1227.86,-732.64 1261,-730 1321.25,-725.2 1348.42,-694.03 1397,-730 1419.03,-746.31 1404.71,-763.59 1415,-789 1439.17,-848.68 1477.53,-916.02 1491.86,-940.48"/>
<polygon fill="#9a32cd" stroke="#9a32cd" points="1165.39,-740.65 1156.28,-746.06 1166.77,-747.52 1165.39,-740.65"/>
<text text-anchor="middle" x="1329" y="-799" font-family="Helvetica,sans-Serif" font-size="10.00"> tagNameSize</text>
<text text-anchor="middle" x="1329" y="-788" font-family="Helvetica,sans-Serif" font-size="10.00">nbDofsRow</text>
<text text-anchor="middle" x="1329" y="-777" font-family="Helvetica,sans-Serif" font-size="10.00">nbLocDofsCol</text>
<text text-anchor="middle" x="1329" y="-766" font-family="Helvetica,sans-Serif" font-size="10.00">nbDofsCol</text>
<text text-anchor="middle" x="1329" y="-755" font-family="Helvetica,sans-Serif" font-size="10.00">nbGhostDofsRow</text>
<text text-anchor="middle" x="1329" y="-744" font-family="Helvetica,sans-Serif" font-size="10.00">nbGhostDofsCol</text>
<text text-anchor="middle" x="1329" y="-733" font-family="Helvetica,sans-Serif" font-size="10.00">nbLocDofsRow</text>
</g>
<!-- Node37 -->
<g id="node37" class="node">
<title>Node37</title>
<g id="a_node37"><a xlink:title=" ">
<polygon fill="white" stroke="#bfbfbf" points="1415,-760.5 1415,-779.5 1582,-779.5 1582,-760.5 1415,-760.5"/>
<text text-anchor="middle" x="1498.5" y="-767.5" font-family="Helvetica,sans-Serif" font-size="10.00">function&lt; MoFEMErrorCode()&gt;</text>
</a>
</g>
</g>
<!-- Node37&#45;&gt;Node13 -->
<g id="edge45" class="edge">
<title>Node37&#45;&gt;Node13</title>
<path fill="none" stroke="#9a32cd" stroke-dasharray="5,2" d="M1560.54,-758.6C1636.06,-744.49 1763.29,-720.73 1833.9,-707.54"/>
<polygon fill="#9a32cd" stroke="#9a32cd" points="1559.88,-755.16 1550.69,-760.44 1561.16,-762.04 1559.88,-755.16"/>
<text text-anchor="middle" x="1690.5" y="-776" font-family="Helvetica,sans-Serif" font-size="10.00"> preProcessHook</text>
<text text-anchor="middle" x="1690.5" y="-765" font-family="Helvetica,sans-Serif" font-size="10.00">operatorHook</text>
<text text-anchor="middle" x="1690.5" y="-754" font-family="Helvetica,sans-Serif" font-size="10.00">postProcessHook</text>
</g>
<!-- Node38&#45;&gt;Node13 -->
<g id="edge46" class="edge">
<title>Node38&#45;&gt;Node13</title>
<path fill="none" stroke="#9a32cd" stroke-dasharray="5,2" d="M1541.84,-937.21C1603.83,-916.28 1718.66,-868.76 1781,-788 1799.58,-763.93 1777.56,-743.56 1799,-722 1806.1,-714.85 1815.14,-709.79 1824.68,-706.21"/>
<polygon fill="#9a32cd" stroke="#9a32cd" points="1540.4,-934 1532,-940.46 1542.59,-940.65 1540.4,-934"/>
<text text-anchor="middle" x="1690.5" y="-918" font-family="Helvetica,sans-Serif" font-size="10.00"> problemPtr</text>
</g>
<!-- Node39 -->
<g id="node39" class="node">
<title>Node39</title>
<g id="a_node39"><a xlink:title=" ">
<polygon fill="white" stroke="#bfbfbf" points="1058,-907 1058,-937 1225,-937 1225,-907 1058,-907"/>
<text text-anchor="start" x="1066" y="-925" font-family="Helvetica,sans-Serif" font-size="10.00">shared_ptr&lt; NumeredEntFinite</text>
<text text-anchor="middle" x="1141.5" y="-914" font-family="Helvetica,sans-Serif" font-size="10.00">Element_multiIndex &gt;</text>
</a>
</g>
</g>
<!-- Node39&#45;&gt;Node38 -->
<g id="edge47" class="edge">
<title>Node39&#45;&gt;Node38</title>
<path fill="none" stroke="#9a32cd" stroke-dasharray="5,2" d="M1235.19,-927.92C1283.46,-931.16 1343.43,-935.44 1397,-940 1413.95,-941.44 1432.48,-943.23 1448.96,-944.89"/>
<polygon fill="#9a32cd" stroke="#9a32cd" points="1235.28,-924.42 1225.07,-927.24 1234.81,-931.4 1235.28,-924.42"/>
<text text-anchor="middle" x="1329" y="-943" font-family="Helvetica,sans-Serif" font-size="10.00"> numeredFiniteElementsPtr</text>
</g>
<!-- Node40 -->
<g id="node40" class="node">
<title>Node40</title>
<g id="a_node40"><a xlink:title=" ">
<polygon fill="white" stroke="#bfbfbf" points="1112,-868.5 1112,-887.5 1171,-887.5 1171,-868.5 1112,-868.5"/>
<text text-anchor="middle" x="1141.5" y="-875.5" font-family="Helvetica,sans-Serif" font-size="10.00">BitFEId *</text>
</a>
</g>
</g>
<!-- Node40&#45;&gt;Node38 -->
<g id="edge48" class="edge">
<title>Node40&#45;&gt;Node38</title>
<path fill="none" stroke="#9a32cd" stroke-dasharray="5,2" d="M1181.18,-881.31C1231.45,-886.13 1321.69,-896.59 1397,-915 1423.92,-921.58 1453.8,-932.47 1473.92,-940.35"/>
<polygon fill="#9a32cd" stroke="#9a32cd" points="1181.37,-877.81 1171.08,-880.36 1180.71,-884.78 1181.37,-877.81"/>
<text text-anchor="middle" x="1329" y="-918" font-family="Helvetica,sans-Serif" font-size="10.00"> tagBitFEId</text>
</g>
<!-- Node41 -->
<g id="node41" class="node">
<title>Node41</title>
<g id="a_node41"><a xlink:href="classEntityHandle.html" target="_top" xlink:title=" ">
<polygon fill="white" stroke="black" points="1101.5,-830.5 1101.5,-849.5 1181.5,-849.5 1181.5,-830.5 1101.5,-830.5"/>
<text text-anchor="middle" x="1141.5" y="-837.5" font-family="Helvetica,sans-Serif" font-size="10.00">EntityHandle</text>
</a>
</g>
</g>
<!-- Node41&#45;&gt;Node38 -->
<g id="edge49" class="edge">
<title>Node41&#45;&gt;Node38</title>
<path fill="none" stroke="#9a32cd" stroke-dasharray="5,2" d="M1191.59,-840.23C1244.22,-842.02 1329.34,-849.48 1397,-877 1434.36,-892.19 1470.76,-924.14 1487.67,-940.26"/>
<polygon fill="#9a32cd" stroke="#9a32cd" points="1191.61,-836.72 1181.52,-839.94 1191.41,-843.72 1191.61,-836.72"/>
<text text-anchor="middle" x="1329" y="-880" font-family="Helvetica,sans-Serif" font-size="10.00"> meshset</text>
</g>
<!-- Node42 -->
<g id="node42" class="node">
<title>Node42</title>
<g id="a_node42"><a xlink:title=" ">
<polygon fill="white" stroke="#bfbfbf" points="1067,-781 1067,-811 1216,-811 1216,-781 1067,-781"/>
<text text-anchor="start" x="1075" y="-799" font-family="Helvetica,sans-Serif" font-size="10.00">shared_ptr&lt; MoFEM::</text>
<text text-anchor="middle" x="1141.5" y="-788" font-family="Helvetica,sans-Serif" font-size="10.00">ComposedProblemsData &gt;</text>
</a>
</g>
</g>
<!-- Node42&#45;&gt;Node38 -->
<g id="edge50" class="edge">
<title>Node42&#45;&gt;Node38</title>
<path fill="none" stroke="#9a32cd" stroke-dasharray="5,2" d="M1226.38,-806.08C1297.59,-814.86 1389.42,-826.83 1397,-831 1445.09,-857.47 1480.11,-916.79 1492.54,-940.21"/>
<polygon fill="#9a32cd" stroke="#9a32cd" points="1226.39,-802.55 1216.04,-804.81 1225.54,-809.5 1226.39,-802.55"/>
<text text-anchor="middle" x="1329" y="-834" font-family="Helvetica,sans-Serif" font-size="10.00"> composedProblemsData</text>
</g>
<!-- Node43 -->
<g id="node43" class="node">
<title>Node43</title>
<g id="a_node43"><a xlink:title=" ">
<polygon fill="white" stroke="#bfbfbf" points="1101,-1170.5 1101,-1189.5 1182,-1189.5 1182,-1170.5 1101,-1170.5"/>
<text text-anchor="middle" x="1141.5" y="-1177.5" font-family="Helvetica,sans-Serif" font-size="10.00">BitRefLevel *</text>
</a>
</g>
</g>
<!-- Node43&#45;&gt;Node38 -->
<g id="edge51" class="edge">
<title>Node43&#45;&gt;Node38</title>
<path fill="none" stroke="#9a32cd" stroke-dasharray="5,2" d="M1192.11,-1172C1265.92,-1160.08 1396.12,-1138.93 1397,-1138 1448.86,-1083.08 1364.89,-1025.52 1415,-969 1423.58,-959.32 1436.01,-954.05 1448.63,-951.3"/>
<polygon fill="#9a32cd" stroke="#9a32cd" points="1191.41,-1168.57 1182.09,-1173.62 1192.52,-1175.48 1191.41,-1168.57"/>
<text text-anchor="middle" x="1329" y="-1174" font-family="Helvetica,sans-Serif" font-size="10.00"> tagBitRefLevelMask</text>
<text text-anchor="middle" x="1329" y="-1163" font-family="Helvetica,sans-Serif" font-size="10.00">tagBitRefLevel</text>
</g>
<!-- Node44 -->
<g id="node44" class="node">
<title>Node44</title>
<g id="a_node44"><a xlink:title=" ">
<polygon fill="white" stroke="#bfbfbf" points="1056.5,-1121 1056.5,-1151 1226.5,-1151 1226.5,-1121 1056.5,-1121"/>
<text text-anchor="start" x="1064.5" y="-1139" font-family="Helvetica,sans-Serif" font-size="10.00">shared_ptr&lt; NumeredDofEntity</text>
<text text-anchor="middle" x="1141.5" y="-1128" font-family="Helvetica,sans-Serif" font-size="10.00">_multiIndex &gt;</text>
</a>
</g>
</g>
<!-- Node44&#45;&gt;Node38 -->
<g id="edge52" class="edge">
<title>Node44&#45;&gt;Node38</title>
<path fill="none" stroke="#9a32cd" stroke-dasharray="5,2" d="M1236.65,-1120.09C1309.13,-1107.85 1397,-1093 1397,-1093 1435.92,-1053.17 1377.27,-1009.96 1415,-969 1423.76,-959.49 1436.25,-954.27 1448.86,-951.52"/>
<polygon fill="#9a32cd" stroke="#9a32cd" points="1235.82,-1116.68 1226.54,-1121.8 1236.98,-1123.59 1235.82,-1116.68"/>
<text text-anchor="middle" x="1329" y="-1129" font-family="Helvetica,sans-Serif" font-size="10.00"> numeredRowDofsPtr</text>
<text text-anchor="middle" x="1329" y="-1118" font-family="Helvetica,sans-Serif" font-size="10.00">numeredColDofsPtr</text>
</g>
<!-- Node45 -->
<g id="node45" class="node">
<title>Node45</title>
<g id="a_node45"><a xlink:title=" ">
<polygon fill="white" stroke="#bfbfbf" points="1072.5,-1082.5 1072.5,-1101.5 1210.5,-1101.5 1210.5,-1082.5 1072.5,-1082.5"/>
<text text-anchor="middle" x="1141.5" y="-1089.5" font-family="Helvetica,sans-Serif" font-size="10.00">vector&lt; BlockFieldPair &gt;</text>
</a>
</g>
</g>
<!-- Node45&#45;&gt;Node38 -->
<g id="edge54" class="edge">
<title>Node45&#45;&gt;Node38</title>
<path fill="none" stroke="#9a32cd" stroke-dasharray="5,2" d="M1220.64,-1084.09C1293.02,-1076.41 1390.5,-1065.07 1397,-1059 1426.81,-1031.16 1386.58,-998.26 1415,-969 1423.91,-959.83 1436.29,-954.7 1448.76,-951.92"/>
<polygon fill="#9a32cd" stroke="#9a32cd" points="1220.18,-1080.62 1210.6,-1085.14 1220.91,-1087.58 1220.18,-1080.62"/>
<text text-anchor="middle" x="1329" y="-1082" font-family="Helvetica,sans-Serif" font-size="10.00"> emptyFieldBlocks</text>
</g>
<!-- Node46 -->
<g id="node46" class="node">
<title>Node46</title>
<g id="a_node46"><a xlink:title=" ">
<polygon fill="white" stroke="#bfbfbf" points="1063.5,-1033 1063.5,-1063 1219.5,-1063 1219.5,-1033 1063.5,-1033"/>
<text text-anchor="start" x="1071.5" y="-1051" font-family="Helvetica,sans-Serif" font-size="10.00">shared_ptr&lt; MoFEM::</text>
<text text-anchor="middle" x="1141.5" y="-1040" font-family="Helvetica,sans-Serif" font-size="10.00">Problem::SubProblemData &gt;</text>
</a>
</g>
</g>
<!-- Node46&#45;&gt;Node38 -->
<g id="edge55" class="edge">
<title>Node46&#45;&gt;Node38</title>
<path fill="none" stroke="#9a32cd" stroke-dasharray="5,2" d="M1229.72,-1048.49C1292.98,-1047.08 1371.7,-1041.11 1397,-1021 1416.14,-1005.78 1396.81,-985.34 1415,-969 1424.29,-960.65 1436.51,-955.75 1448.69,-952.93"/>
<polygon fill="#9a32cd" stroke="#9a32cd" points="1229.64,-1044.99 1219.7,-1048.68 1229.77,-1051.99 1229.64,-1044.99"/>
<text text-anchor="middle" x="1329" y="-1050" font-family="Helvetica,sans-Serif" font-size="10.00"> subProblemData</text>
</g>
<!-- Node47 -->
<g id="node47" class="node">
<title>Node47</title>
<g id="a_node47"><a xlink:title=" ">
<polygon fill="white" stroke="#bfbfbf" points="1040,-994.5 1040,-1013.5 1243,-1013.5 1243,-994.5 1040,-994.5"/>
<text text-anchor="middle" x="1141.5" y="-1001.5" font-family="Helvetica,sans-Serif" font-size="10.00">shared_ptr&lt; SequenceDofContainer &gt;</text>
</a>
</g>
</g>
<!-- Node47&#45;&gt;Node38 -->
<g id="edge57" class="edge">
<title>Node47&#45;&gt;Node38</title>
<path fill="none" stroke="#9a32cd" stroke-dasharray="5,2" d="M1253.09,-996.45C1298.09,-992.07 1350.37,-985.31 1397,-975 1405.23,-973.18 1406.88,-971.28 1415,-969 1427.03,-965.62 1440.16,-962.39 1452.34,-959.58"/>
<polygon fill="#9a32cd" stroke="#9a32cd" points="1252.64,-992.98 1243.01,-997.4 1253.3,-999.95 1252.64,-992.98"/>
<text text-anchor="middle" x="1329" y="-1009" font-family="Helvetica,sans-Serif" font-size="10.00"> sequenceRowDofContainer</text>
<text text-anchor="middle" x="1329" y="-998" font-family="Helvetica,sans-Serif" font-size="10.00">sequenceColDofContainer</text>
</g>
<!-- Node48 -->
<g id="node48" class="node">
<title>Node48</title>
<g id="a_node48"><a xlink:title=" ">
<polygon fill="white" stroke="#bfbfbf" points="1097.5,-956.5 1097.5,-975.5 1185.5,-975.5 1185.5,-956.5 1097.5,-956.5"/>
<text text-anchor="middle" x="1141.5" y="-963.5" font-family="Helvetica,sans-Serif" font-size="10.00">BitProblemId *</text>
</a>
</g>
</g>
<!-- Node48&#45;&gt;Node38 -->
<g id="edge58" class="edge">
<title>Node48&#45;&gt;Node38</title>
<path fill="none" stroke="#9a32cd" stroke-dasharray="5,2" d="M1195.84,-963.6C1264.48,-960.5 1382.73,-955.17 1448.96,-952.19"/>
<polygon fill="#9a32cd" stroke="#9a32cd" points="1195.51,-960.11 1185.68,-964.05 1195.82,-967.1 1195.51,-960.11"/>
<text text-anchor="middle" x="1329" y="-963" font-family="Helvetica,sans-Serif" font-size="10.00"> tagId</text>
</g>
<!-- Node49 -->
<g id="node49" class="node">
<title>Node49</title>
<g id="a_node49"><a xlink:title=" ">
<polygon fill="white" stroke="#bfbfbf" points="1805,-781 1805,-811 1967,-811 1967,-781 1805,-781"/>
<text text-anchor="start" x="1813" y="-799" font-family="Helvetica,sans-Serif" font-size="10.00">shared_ptr&lt; const MoFEM</text>
<text text-anchor="middle" x="1886" y="-788" font-family="Helvetica,sans-Serif" font-size="10.00">::NumeredEntFiniteElement &gt;</text>
</a>
</g>
</g>
<!-- Node49&#45;&gt;Node12 -->
<g id="edge59" class="edge">
<title>Node49&#45;&gt;Node12</title>
<path fill="none" stroke="#9a32cd" stroke-dasharray="5,2" d="M1977.54,-790.1C2048.18,-785.49 2143.85,-779.25 2202.4,-775.43"/>
<polygon fill="#9a32cd" stroke="#9a32cd" points="1977.06,-786.62 1967.3,-790.76 1977.51,-793.6 1977.06,-786.62"/>
<text text-anchor="middle" x="2063" y="-792" font-family="Helvetica,sans-Serif" font-size="10.00"> numeredEntFiniteElementPtr</text>
</g>
<!-- Node50 -->
<g id="node50" class="node">
<title>Node50</title>
<g id="a_node50"><a xlink:title=" ">
<polygon fill="white" stroke="#bfbfbf" points="1864,-855.5 1864,-874.5 1908,-874.5 1908,-855.5 1864,-855.5"/>
<text text-anchor="middle" x="1886" y="-862.5" font-family="Helvetica,sans-Serif" font-size="10.00">string</text>
</a>
</g>
</g>
<!-- Node50&#45;&gt;Node3 -->
<g id="edge82" class="edge">
<title>Node50&#45;&gt;Node3</title>
<path fill="none" stroke="#9a32cd" stroke-dasharray="5,2" d="M1918.56,-867.26C1994.6,-872.91 2193.92,-888.95 2359,-913 2523.75,-937 2565.16,-943.93 2727,-983 2777.84,-995.27 2835.22,-1012.57 2874.3,-1024.88"/>
<polygon fill="#9a32cd" stroke="#9a32cd" points="1918.48,-863.74 1908.25,-866.5 1917.97,-870.73 1918.48,-863.74"/>
<text text-anchor="middle" x="2458" y="-956" font-family="Helvetica,sans-Serif" font-size="10.00"> colFieldName</text>
<text text-anchor="middle" x="2458" y="-945" font-family="Helvetica,sans-Serif" font-size="10.00">rowFieldName</text>
</g>
<!-- Node50&#45;&gt;Node12 -->
<g id="edge60" class="edge">
<title>Node50&#45;&gt;Node12</title>
<path fill="none" stroke="#9a32cd" stroke-dasharray="5,2" d="M1918.28,-861.22C1966.6,-854.54 2061.49,-838.01 2135,-804 2143.96,-799.86 2143.93,-794.89 2153,-791 2168.4,-784.4 2186.07,-780.09 2202.33,-777.27"/>
<polygon fill="#9a32cd" stroke="#9a32cd" points="1917.6,-857.79 1908.15,-862.57 1918.52,-864.72 1917.6,-857.79"/>
<text text-anchor="middle" x="2063" y="-851" font-family="Helvetica,sans-Serif" font-size="10.00"> feName</text>
</g>
<!-- Node51 -->
<g id="node51" class="node">
<title>Node51</title>
<g id="a_node51"><a xlink:title=" ">
<polygon fill="white" stroke="#bfbfbf" points="1804.5,-732 1804.5,-762 1967.5,-762 1967.5,-732 1804.5,-732"/>
<text text-anchor="start" x="1812.5" y="-750" font-family="Helvetica,sans-Serif" font-size="10.00">function&lt; bool(MoFEM</text>
<text text-anchor="middle" x="1886" y="-739" font-family="Helvetica,sans-Serif" font-size="10.00">::FEMethod *fe_method_ptr)&gt;</text>
</a>
</g>
</g>
<!-- Node51&#45;&gt;Node12 -->
<g id="edge61" class="edge">
<title>Node51&#45;&gt;Node12</title>
<path fill="none" stroke="#9a32cd" stroke-dasharray="5,2" d="M1977.98,-753.18C2048.52,-757.97 2143.82,-764.45 2202.26,-768.42"/>
<polygon fill="#9a32cd" stroke="#9a32cd" points="1977.97,-749.67 1967.76,-752.49 1977.5,-756.66 1977.97,-749.67"/>
<text text-anchor="middle" x="2063" y="-767" font-family="Helvetica,sans-Serif" font-size="10.00"> exeTestHook</text>
</g>
<!-- Node52 -->
<g id="node52" class="node">
<title>Node52</title>
<g id="a_node52"><a xlink:href="classdouble.html" target="_top" xlink:title=" ">
<polygon fill="white" stroke="black" points="2231,-724.5 2231,-743.5 2281,-743.5 2281,-724.5 2231,-724.5"/>
<text text-anchor="middle" x="2256" y="-731.5" font-family="Helvetica,sans-Serif" font-size="10.00">double</text>
</a>
</g>
</g>
<!-- Node52&#45;&gt;Node11 -->
<g id="edge62" class="edge">
<title>Node52&#45;&gt;Node11</title>
<path fill="none" stroke="#9a32cd" stroke-dasharray="5,2" d="M2291.32,-735.43C2345.99,-736.45 2455.22,-733.33 2539,-698 2578.8,-681.22 2615.99,-644.39 2632.31,-626.77"/>
<polygon fill="#9a32cd" stroke="#9a32cd" points="2291.22,-731.93 2281.14,-735.18 2291.05,-738.92 2291.22,-731.93"/>
<text text-anchor="middle" x="2458" y="-736" font-family="Helvetica,sans-Serif" font-size="10.00"> elementMeasure</text>
</g>
<!-- Node53 -->
<g id="node53" class="node">
<title>Node53</title>
<g id="a_node53"><a xlink:title=" ">
<polygon fill="white" stroke="#bfbfbf" points="2170,-664.5 2170,-705.5 2342,-705.5 2342,-664.5 2170,-664.5"/>
<text text-anchor="start" x="2178" y="-693.5" font-family="Helvetica,sans-Serif" font-size="10.00">array&lt; boost::shared</text>
<text text-anchor="start" x="2178" y="-682.5" font-family="Helvetica,sans-Serif" font-size="10.00">_ptr&lt; MoFEM::EntitiesFieldData</text>
<text text-anchor="middle" x="2256" y="-671.5" font-family="Helvetica,sans-Serif" font-size="10.00"> &gt;, LASTSPACE &gt;</text>
</a>
</g>
</g>
<!-- Node53&#45;&gt;Node11 -->
<g id="edge63" class="edge">
<title>Node53&#45;&gt;Node11</title>
<path fill="none" stroke="#9a32cd" stroke-dasharray="5,2" d="M2352.08,-674.57C2407.01,-667.78 2477.24,-657.8 2539,-645 2563.09,-640.01 2589.91,-632.57 2610,-626.61"/>
<polygon fill="#9a32cd" stroke="#9a32cd" points="2351.52,-671.11 2342.01,-675.8 2352.36,-678.06 2351.52,-671.11"/>
<text text-anchor="middle" x="2458" y="-686" font-family="Helvetica,sans-Serif" font-size="10.00"> derivedDataOnElement</text>
<text text-anchor="middle" x="2458" y="-675" font-family="Helvetica,sans-Serif" font-size="10.00">dataOnElement</text>
</g>
<!-- Node54 -->
<g id="node54" class="node">
<title>Node54</title>
<g id="a_node54"><a xlink:title=" ">
<polygon fill="white" stroke="#bfbfbf" points="2222,-626.5 2222,-645.5 2290,-645.5 2290,-626.5 2222,-626.5"/>
<text text-anchor="middle" x="2256" y="-633.5" font-family="Helvetica,sans-Serif" font-size="10.00">EntityType</text>
</a>
</g>
</g>
<!-- Node54&#45;&gt;Node11 -->
<g id="edge64" class="edge">
<title>Node54&#45;&gt;Node11</title>
<path fill="none" stroke="#9a32cd" stroke-dasharray="5,2" d="M2300.28,-633.86C2362.31,-630.79 2477.7,-625.08 2556.87,-621.16"/>
<polygon fill="#9a32cd" stroke="#9a32cd" points="2299.89,-630.37 2290.07,-634.36 2300.23,-637.37 2299.89,-630.37"/>
<text text-anchor="middle" x="2458" y="-633" font-family="Helvetica,sans-Serif" font-size="10.00"> lastEvaluatedElementEntityType</text>
</g>
<!-- Node55 -->
<g id="node55" class="node">
<title>Node55</title>
<g id="a_node55"><a xlink:href="structMoFEM_1_1DeprecatedCoreInterface.html" target="_top" xlink:title="Deprecated interface functions.">
<polygon fill="white" stroke="black" points="1600,-79.5 1600,-98.5 1781,-98.5 1781,-79.5 1600,-79.5"/>
<text text-anchor="middle" x="1690.5" y="-86.5" font-family="Helvetica,sans-Serif" font-size="10.00">MoFEM::DeprecatedCoreInterface</text>
</a>
</g>
</g>
<!-- Node55&#45;&gt;Node11 -->
<g id="edge65" class="edge">
<title>Node55&#45;&gt;Node11</title>
<path fill="none" stroke="#9a32cd" stroke-dasharray="5,2" d="M1724.5,-103.26C1744.62,-113.85 1768.75,-130.38 1781,-153 1803.4,-194.37 1765.84,-542.63 1799,-576 1825.42,-602.58 2348.83,-612.88 2556.83,-615.93"/>
<polygon fill="#9a32cd" stroke="#9a32cd" points="1725.82,-100 1715.31,-98.67 1722.69,-106.27 1725.82,-100"/>
<text text-anchor="middle" x="2063" y="-609" font-family="Helvetica,sans-Serif" font-size="10.00"> mField</text>
</g>
<!-- Node56&#45;&gt;Node55 -->
<g id="edge66" class="edge">
<title>Node56&#45;&gt;Node55</title>
<path fill="none" stroke="midnightblue" d="M1214.01,-17.49C1265.08,-23.07 1335.37,-31.21 1397,-40 1481.36,-52.03 1578.89,-68.99 1637.31,-79.47"/>
<polygon fill="midnightblue" stroke="midnightblue" points="1214.38,-14.01 1204.06,-16.41 1213.63,-20.97 1214.38,-14.01"/>
</g>
<!-- Node57 -->
<g id="node57" class="node">
<title>Node57</title>
<g id="a_node57"><a xlink:title=" ">
<polygon fill="white" stroke="#bfbfbf" points="2172.5,-447 2172.5,-499 2339.5,-499 2339.5,-447 2172.5,-447"/>
<text text-anchor="start" x="2180.5" y="-487" font-family="Helvetica,sans-Serif" font-size="10.00">function&lt; MoFEMErrorCode</text>
<text text-anchor="start" x="2180.5" y="-476" font-family="Helvetica,sans-Serif" font-size="10.00">(ForcesAndSourcesCore *fe</text>
<text text-anchor="start" x="2180.5" y="-465" font-family="Helvetica,sans-Serif" font-size="10.00">_raw_ptr, int order_row,</text>
<text text-anchor="middle" x="2256" y="-454" font-family="Helvetica,sans-Serif" font-size="10.00"> int order_col, int order_data)&gt;</text>
</a>
</g>
</g>
<!-- Node57&#45;&gt;Node11 -->
<g id="edge69" class="edge">
<title>Node57&#45;&gt;Node11</title>
<path fill="none" stroke="#9a32cd" stroke-dasharray="5,2" d="M2349.83,-462.61C2407.35,-460.31 2481.05,-465.11 2539,-495 2589.3,-520.94 2624.45,-583.57 2636.46,-607.49"/>
<polygon fill="#9a32cd" stroke="#9a32cd" points="2349.47,-459.12 2339.65,-463.1 2349.81,-466.12 2349.47,-459.12"/>
<text text-anchor="middle" x="2458" y="-498" font-family="Helvetica,sans-Serif" font-size="10.00"> setRuleHook</text>
</g>
<!-- Node58 -->
<g id="node58" class="node">
<title>Node58</title>
<g id="a_node58"><a xlink:title=" ">
<polygon fill="white" stroke="#bfbfbf" points="2155,-398 2155,-428 2357,-428 2357,-398 2155,-398"/>
<text text-anchor="start" x="2163" y="-416" font-family="Helvetica,sans-Serif" font-size="10.00">ptr_deque&lt; MoFEM::Forces</text>
<text text-anchor="middle" x="2256" y="-405" font-family="Helvetica,sans-Serif" font-size="10.00">AndSourcesCore::UserDataOperator &gt;</text>
</a>
</g>
</g>
<!-- Node58&#45;&gt;Node11 -->
<g id="edge70" class="edge">
<title>Node58&#45;&gt;Node11</title>
<path fill="none" stroke="#9a32cd" stroke-dasharray="5,2" d="M2367.5,-404.82C2422.96,-405.88 2488.84,-415.45 2539,-448 2599.94,-487.55 2629.9,-577.49 2638.4,-607.24"/>
<polygon fill="#9a32cd" stroke="#9a32cd" points="2367.3,-401.32 2357.27,-404.72 2367.23,-408.32 2367.3,-401.32"/>
<text text-anchor="middle" x="2458" y="-451" font-family="Helvetica,sans-Serif" font-size="10.00"> opPtrVector</text>
</g>
<!-- Node59 -->
<g id="node59" class="node">
<title>Node59</title>
<g id="a_node59"><a xlink:href="structMoFEM_1_1EntitiesFieldData.html" target="_top" xlink:title="data structure for finite element entity">
<polygon fill="white" stroke="black" points="2185,-518.5 2185,-537.5 2327,-537.5 2327,-518.5 2185,-518.5"/>
<text text-anchor="middle" x="2256" y="-525.5" font-family="Helvetica,sans-Serif" font-size="10.00">MoFEM::EntitiesFieldData</text>
</a>
</g>
</g>
<!-- Node59&#45;&gt;Node11 -->
<g id="edge71" class="edge">
<title>Node59&#45;&gt;Node11</title>
<path fill="none" stroke="#9a32cd" stroke-dasharray="5,2" d="M2314.35,-516.88C2372.84,-508.11 2465.24,-501.43 2539,-529 2581.94,-545.05 2618.92,-588.11 2633.89,-607.41"/>
<polygon fill="#9a32cd" stroke="#9a32cd" points="2313.53,-513.47 2304.19,-518.48 2314.61,-520.39 2313.53,-513.47"/>
<text text-anchor="middle" x="2458" y="-576" font-family="Helvetica,sans-Serif" font-size="10.00"> dataNoField</text>
<text text-anchor="middle" x="2458" y="-565" font-family="Helvetica,sans-Serif" font-size="10.00">dataL2</text>
<text text-anchor="middle" x="2458" y="-554" font-family="Helvetica,sans-Serif" font-size="10.00">dataH1</text>
<text text-anchor="middle" x="2458" y="-543" font-family="Helvetica,sans-Serif" font-size="10.00">dataHcurl</text>
<text text-anchor="middle" x="2458" y="-532" font-family="Helvetica,sans-Serif" font-size="10.00">dataHdiv</text>
</g>
<!-- Node60 -->
<g id="node60" class="node">
<title>Node60</title>
<g id="a_node60"><a xlink:title=" ">
<polygon fill="white" stroke="#bfbfbf" points="1805,-460 1805,-490 1967,-490 1967,-460 1805,-460"/>
<text text-anchor="start" x="1813" y="-478" font-family="Helvetica,sans-Serif" font-size="10.00">array&lt; std::bitset</text>
<text text-anchor="middle" x="1886" y="-467" font-family="Helvetica,sans-Serif" font-size="10.00">&lt; LASTBASE &gt;, LASTSPACE &gt;</text>
</a>
</g>
</g>
<!-- Node60&#45;&gt;Node59 -->
<g id="edge72" class="edge">
<title>Node60&#45;&gt;Node59</title>
<path fill="none" stroke="#9a32cd" stroke-dasharray="5,2" d="M1977.26,-467.38C2025.77,-466.63 2085.59,-471.25 2135,-492 2144.87,-496.14 2143.41,-503.25 2153,-508 2162.86,-512.89 2173.82,-516.58 2184.78,-519.37"/>
<polygon fill="#9a32cd" stroke="#9a32cd" points="1977,-463.88 1967.09,-467.61 1977.17,-470.88 1977,-463.88"/>
<text text-anchor="middle" x="2063" y="-506" font-family="Helvetica,sans-Serif" font-size="10.00"> brokenBasesOnSpaces</text>
<text text-anchor="middle" x="2063" y="-495" font-family="Helvetica,sans-Serif" font-size="10.00">basesOnSpaces</text>
</g>
<!-- Node61 -->
<g id="node61" class="node">
<title>Node61</title>
<g id="a_node61"><a xlink:title=" ">
<polygon fill="white" stroke="#bfbfbf" points="1809.5,-399.5 1809.5,-440.5 1962.5,-440.5 1962.5,-399.5 1809.5,-399.5"/>
<text text-anchor="start" x="1817.5" y="-428.5" font-family="Helvetica,sans-Serif" font-size="10.00">array&lt; boost::ptr_vector</text>
<text text-anchor="start" x="1817.5" y="-417.5" font-family="Helvetica,sans-Serif" font-size="10.00">&lt; MoFEM::EntitiesFieldData</text>
<text text-anchor="middle" x="1886" y="-406.5" font-family="Helvetica,sans-Serif" font-size="10.00">::EntData &gt;, MBMAXTYPE &gt;</text>
</a>
</g>
</g>
<!-- Node61&#45;&gt;Node59 -->
<g id="edge73" class="edge">
<title>Node61&#45;&gt;Node59</title>
<path fill="none" stroke="#9a32cd" stroke-dasharray="5,2" d="M1972.82,-409.97C2025.25,-408.6 2090.53,-416.04 2135,-453 2154.78,-469.44 2133.73,-490.96 2153,-508 2161.99,-515.95 2173.19,-521.12 2184.85,-524.42"/>
<polygon fill="#9a32cd" stroke="#9a32cd" points="1972.38,-406.48 1962.52,-410.35 1972.64,-413.48 1972.38,-406.48"/>
<text text-anchor="middle" x="2063" y="-456" font-family="Helvetica,sans-Serif" font-size="10.00"> dataOnEntities</text>
</g>
<!-- Node62 -->
<g id="node62" class="node">
<title>Node62</title>
<g id="a_node62"><a xlink:title=" ">
<polygon fill="white" stroke="#bfbfbf" points="1799,-350 1799,-380 1973,-380 1973,-350 1799,-350"/>
<text text-anchor="start" x="1807" y="-368" font-family="Helvetica,sans-Serif" font-size="10.00">array&lt; std::bitset</text>
<text text-anchor="middle" x="1886" y="-357" font-family="Helvetica,sans-Serif" font-size="10.00">&lt; LASTSPACE &gt;, MBMAXTYPE &gt;</text>
</a>
</g>
</g>
<!-- Node62&#45;&gt;Node59 -->
<g id="edge74" class="edge">
<title>Node62&#45;&gt;Node59</title>
<path fill="none" stroke="#9a32cd" stroke-dasharray="5,2" d="M1983.34,-351.03C2034.86,-349.22 2095.61,-357.06 2135,-395 2171.63,-430.28 2117.69,-471.4 2153,-508 2161.58,-516.9 2172.88,-522.46 2184.81,-525.84"/>
<polygon fill="#9a32cd" stroke="#9a32cd" points="1982.99,-347.54 1973.17,-351.51 1983.33,-354.53 1982.99,-347.54"/>
<text text-anchor="middle" x="2063" y="-398" font-family="Helvetica,sans-Serif" font-size="10.00"> spacesOnEntities</text>
</g>
<!-- Node63 -->
<g id="node63" class="node">
<title>Node63</title>
<g id="a_node63"><a xlink:title=" ">
<polygon fill="white" stroke="#bfbfbf" points="1801.5,-301 1801.5,-331 1970.5,-331 1970.5,-301 1801.5,-301"/>
<text text-anchor="start" x="1809.5" y="-319" font-family="Helvetica,sans-Serif" font-size="10.00">array&lt; std::bitset</text>
<text text-anchor="middle" x="1886" y="-308" font-family="Helvetica,sans-Serif" font-size="10.00">&lt; LASTBASE &gt;, MBMAXTYPE &gt;</text>
</a>
</g>
</g>
<!-- Node63&#45;&gt;Node59 -->
<g id="edge75" class="edge">
<title>Node63&#45;&gt;Node59</title>
<path fill="none" stroke="#9a32cd" stroke-dasharray="5,2" d="M1960.39,-299.45C2015.88,-291.63 2089.98,-292.04 2135,-336 2162.5,-362.85 2127.07,-479.64 2153,-508 2161.46,-517.26 2172.85,-522.96 2184.95,-526.36"/>
<polygon fill="#9a32cd" stroke="#9a32cd" points="1959.61,-296.03 1950.25,-301 1960.66,-302.95 1959.61,-296.03"/>
<text text-anchor="middle" x="2063" y="-339" font-family="Helvetica,sans-Serif" font-size="10.00"> basesOnEntities</text>
</g>
<!-- Node64 -->
<g id="node64" class="node">
<title>Node64</title>
<g id="a_node64"><a xlink:title=" ">
<polygon fill="white" stroke="#bfbfbf" points="1830,-547.5 1830,-566.5 1942,-566.5 1942,-547.5 1830,-547.5"/>
<text text-anchor="middle" x="1886" y="-554.5" font-family="Helvetica,sans-Serif" font-size="10.00">UBlasMatrix&lt; int &gt;</text>
</a>
</g>
</g>
<!-- Node64&#45;&gt;Node59 -->
<g id="edge76" class="edge">
<title>Node64&#45;&gt;Node59</title>
<path fill="none" stroke="#9a32cd" stroke-dasharray="5,2" d="M1952.26,-551.86C2017.56,-546.71 2117.69,-538.82 2184.71,-533.54"/>
<polygon fill="#9a32cd" stroke="#9a32cd" points="1951.79,-548.38 1942.09,-552.66 1952.34,-555.36 1951.79,-548.38"/>
<text text-anchor="middle" x="2063" y="-563" font-family="Helvetica,sans-Serif" font-size="10.00"> facesNodesOrder</text>
<text text-anchor="middle" x="2063" y="-552" font-family="Helvetica,sans-Serif" font-size="10.00">facesNodes</text>
</g>
<!-- Node65 -->
<g id="node65" class="node">
<title>Node65</title>
<g id="a_node65"><a xlink:title=" ">
<polygon fill="white" stroke="#bfbfbf" points="1827.5,-509.5 1827.5,-528.5 1944.5,-528.5 1944.5,-509.5 1827.5,-509.5"/>
<text text-anchor="middle" x="1886" y="-516.5" font-family="Helvetica,sans-Serif" font-size="10.00">bitset&lt; LASTBASE &gt;</text>
</a>
</g>
</g>
<!-- Node65&#45;&gt;Node59 -->
<g id="edge77" class="edge">
<title>Node65&#45;&gt;Node59</title>
<path fill="none" stroke="#9a32cd" stroke-dasharray="5,2" d="M1954.67,-518.13C2004.54,-517.77 2074.01,-517.85 2135,-520 2151.17,-520.57 2168.55,-521.53 2184.92,-522.59"/>
<polygon fill="#9a32cd" stroke="#9a32cd" points="1954.62,-514.63 1944.65,-518.21 1954.68,-521.63 1954.62,-514.63"/>
<text text-anchor="middle" x="2063" y="-523" font-family="Helvetica,sans-Serif" font-size="10.00"> bAse</text>
</g>
<!-- Node66 -->
<g id="node66" class="node">
<title>Node66</title>
<g id="a_node66"><a xlink:title=" ">
<polygon fill="white" stroke="#bfbfbf" points="2193.5,-337.5 2193.5,-378.5 2318.5,-378.5 2318.5,-337.5 2193.5,-337.5"/>
<text text-anchor="start" x="2201.5" y="-366.5" font-family="Helvetica,sans-Serif" font-size="10.00">function&lt; int(int order</text>
<text text-anchor="start" x="2201.5" y="-355.5" font-family="Helvetica,sans-Serif" font-size="10.00">_row, int order_col, int</text>
<text text-anchor="middle" x="2256" y="-344.5" font-family="Helvetica,sans-Serif" font-size="10.00"> order_data)&gt;</text>
</a>
</g>
</g>
<!-- Node66&#45;&gt;Node11 -->
<g id="edge78" class="edge">
<title>Node66&#45;&gt;Node11</title>
<path fill="none" stroke="#9a32cd" stroke-dasharray="5,2" d="M2328.54,-348.03C2390.14,-343.41 2478.42,-346.68 2539,-391 2614.74,-446.41 2635.45,-571.34 2639.93,-607.2"/>
<polygon fill="#9a32cd" stroke="#9a32cd" points="2328.18,-344.55 2318.51,-348.87 2328.77,-351.53 2328.18,-344.55"/>
<text text-anchor="middle" x="2458" y="-394" font-family="Helvetica,sans-Serif" font-size="10.00"> getRuleHook</text>
</g>
<!-- Node67 -->
<g id="node67" class="node">
<title>Node67</title>
<g id="a_node67"><a xlink:title=" ">
<polygon fill="white" stroke="#bfbfbf" points="2195,-288 2195,-318 2317,-318 2317,-288 2195,-288"/>
<text text-anchor="start" x="2203" y="-306" font-family="Helvetica,sans-Serif" font-size="10.00">shared_ptr&lt; MoFEM::</text>
<text text-anchor="middle" x="2256" y="-295" font-family="Helvetica,sans-Serif" font-size="10.00">BaseFunction &gt;</text>
</a>
</g>
</g>
<!-- Node67&#45;&gt;Node11 -->
<g id="edge79" class="edge">
<title>Node67&#45;&gt;Node11</title>
<path fill="none" stroke="#9a32cd" stroke-dasharray="5,2" d="M2327.1,-287.47C2389.15,-277.99 2478.95,-275.22 2539,-321 2635.61,-394.65 2641.28,-565.31 2641.16,-607.46"/>
<polygon fill="#9a32cd" stroke="#9a32cd" points="2326.31,-284.05 2317,-289.11 2327.44,-290.96 2326.31,-284.05"/>
<text text-anchor="middle" x="2458" y="-335" font-family="Helvetica,sans-Serif" font-size="10.00"> userPolynomialBasePtr</text>
<text text-anchor="middle" x="2458" y="-324" font-family="Helvetica,sans-Serif" font-size="10.00">elementPolynomialBasePtr</text>
</g>
<!-- Node68 -->
<g id="node68" class="node">
<title>Node68</title>
<g id="a_node68"><a xlink:href="classUBlasMatrix_3_01double_01_4.html" target="_top" xlink:title=" ">
<polygon fill="white" stroke="black" points="2190,-800.5 2190,-819.5 2322,-819.5 2322,-800.5 2190,-800.5"/>
<text text-anchor="middle" x="2256" y="-807.5" font-family="Helvetica,sans-Serif" font-size="10.00">UBlasMatrix&lt; double &gt;</text>
</a>
</g>
</g>
<!-- Node68&#45;&gt;Node11 -->
<g id="edge80" class="edge">
<title>Node68&#45;&gt;Node11</title>
<path fill="none" stroke="#9a32cd" stroke-dasharray="5,2" d="M2332.31,-819.12C2392.69,-822.62 2477.24,-818.62 2539,-780 2598.72,-742.66 2629.29,-656.14 2638.19,-626.88"/>
<polygon fill="#9a32cd" stroke="#9a32cd" points="2332.29,-815.61 2322.08,-818.44 2331.83,-822.59 2332.29,-815.61"/>
<text text-anchor="middle" x="2458" y="-834" font-family="Helvetica,sans-Serif" font-size="10.00"> coordsAtGaussPts</text>
<text text-anchor="middle" x="2458" y="-823" font-family="Helvetica,sans-Serif" font-size="10.00">gaussPts</text>
</g>
<!-- Node69 -->
<g id="node69" class="node">
<title>Node69</title>
<g id="a_node69"><a xlink:title=" ">
<polygon fill="white" stroke="#bfbfbf" points="2576.5,-1068.5 2576.5,-1087.5 2707.5,-1087.5 2707.5,-1068.5 2576.5,-1068.5"/>
<text text-anchor="middle" x="2642" y="-1075.5" font-family="Helvetica,sans-Serif" font-size="10.00">static const char *const</text>
</a>
</g>
</g>
<!-- Node69&#45;&gt;Node3 -->
<g id="edge81" class="edge">
<title>Node69&#45;&gt;Node3</title>
<path fill="none" stroke="#9a32cd" stroke-dasharray="5,2" d="M2717.74,-1067.82C2749.03,-1063.56 2785.78,-1058.55 2819,-1054 2824.84,-1053.2 2830.88,-1052.37 2836.95,-1051.54"/>
<polygon fill="#9a32cd" stroke="#9a32cd" points="2717.22,-1064.36 2707.78,-1069.18 2718.16,-1071.3 2717.22,-1064.36"/>
<text text-anchor="middle" x="2782" y="-1066" font-family="Helvetica,sans-Serif" font-size="10.00"> OpTypeNames</text>
</g>
<!-- Node70 -->
<g id="node70" class="node">
<title>Node70</title>
<g id="a_node70"><a xlink:title=" ">
<polygon fill="white" stroke="#bfbfbf" points="3140,-1114.5 3140,-1133.5 3297,-1133.5 3297,-1114.5 3140,-1114.5"/>
<text text-anchor="middle" x="3218.5" y="-1121.5" font-family="Helvetica,sans-Serif" font-size="10.00">shared_ptr&lt; MatrixDouble &gt;</text>
</a>
</g>
</g>
<!-- Node70&#45;&gt;Node1 -->
<g id="edge83" class="edge">
<title>Node70&#45;&gt;Node1</title>
<path fill="none" stroke="#9a32cd" stroke-dasharray="5,2" d="M3278.67,-1112.09C3306.41,-1105.18 3339.35,-1095.03 3367,-1081 3391.53,-1068.55 3417.2,-1049.09 3431.54,-1037.53"/>
<polygon fill="#9a32cd" stroke="#9a32cd" points="3277.61,-1108.74 3268.71,-1114.49 3279.25,-1115.55 3277.61,-1108.74"/>
<text text-anchor="middle" x="3341" y="-1137" font-family="Helvetica,sans-Serif" font-size="10.00"> ptrGrad</text>
<text text-anchor="middle" x="3341" y="-1126" font-family="Helvetica,sans-Serif" font-size="10.00">ptrDiffVals</text>
<text text-anchor="middle" x="3341" y="-1115" font-family="Helvetica,sans-Serif" font-size="10.00">ptrHess</text>
<text text-anchor="middle" x="3341" y="-1104" font-family="Helvetica,sans-Serif" font-size="10.00">ptrVals</text>
</g>
<!-- Node71 -->
<g id="node71" class="node">
<title>Node71</title>
<g id="a_node71"><a xlink:title=" ">
<polygon fill="white" stroke="#bfbfbf" points="3177,-1076.5 3177,-1095.5 3260,-1095.5 3260,-1076.5 3177,-1076.5"/>
<text text-anchor="middle" x="3218.5" y="-1083.5" font-family="Helvetica,sans-Serif" font-size="10.00">MatrixDouble</text>
</a>
</g>
</g>
<!-- Node71&#45;&gt;Node1 -->
<g id="edge84" class="edge">
<title>Node71&#45;&gt;Node1</title>
<path fill="none" stroke="#9a32cd" stroke-dasharray="5,2" d="M3270.36,-1076.48C3298.95,-1070.75 3335.19,-1062.86 3367,-1054 3384.06,-1049.25 3402.9,-1042.81 3417.55,-1037.53"/>
<polygon fill="#9a32cd" stroke="#9a32cd" points="3269.32,-1073.12 3260.19,-1078.49 3270.68,-1079.99 3269.32,-1073.12"/>
<text text-anchor="middle" x="3341" y="-1069" font-family="Helvetica,sans-Serif" font-size="10.00"> diffVals</text>
</g>
<!-- Node72 -->
<g id="node72" class="node">
<title>Node72</title>
<g id="a_node72"><a xlink:href="classFTensor_1_1Index.html" target="_top" xlink:title=" ">
<polygon fill="white" stroke="black" points="3153.5,-1038.5 3153.5,-1057.5 3283.5,-1057.5 3283.5,-1038.5 3153.5,-1038.5"/>
<text text-anchor="middle" x="3218.5" y="-1045.5" font-family="Helvetica,sans-Serif" font-size="10.00">FTensor::Index&lt; &#39;i&#39;, 3 &gt;</text>
</a>
</g>
</g>
<!-- Node72&#45;&gt;Node1 -->
<g id="edge85" class="edge">
<title>Node72&#45;&gt;Node1</title>
<path fill="none" stroke="#9a32cd" stroke-dasharray="5,2" d="M3293.82,-1041.35C3323.39,-1038.7 3356.91,-1035.7 3384.68,-1033.22"/>
<polygon fill="#9a32cd" stroke="#9a32cd" points="3293.19,-1037.89 3283.55,-1042.27 3293.82,-1044.86 3293.19,-1037.89"/>
<text text-anchor="middle" x="3341" y="-1042" font-family="Helvetica,sans-Serif" font-size="10.00"> i</text>
</g>
<!-- Node73 -->
<g id="node73" class="node">
<title>Node73</title>
<g id="a_node73"><a xlink:href="classFTensor_1_1Index.html" target="_top" xlink:title=" ">
<polygon fill="white" stroke="black" points="2870,-970 2870,-1000 2974,-1000 2974,-970 2870,-970"/>
<text text-anchor="start" x="2878" y="-988" font-family="Helvetica,sans-Serif" font-size="10.00">FTensor::Index&lt; i,</text>
<text text-anchor="middle" x="2922" y="-977" font-family="Helvetica,sans-Serif" font-size="10.00"> Dim &gt;</text>
</a>
</g>
</g>
<!-- Node73&#45;&gt;Node72 -->
<g id="edge86" class="edge">
<title>Node73&#45;&gt;Node72</title>
<path fill="none" stroke="orange" stroke-dasharray="5,2" d="M2977.63,-1003.04C2992.85,-1007.67 3009.48,-1012.37 3025,-1016 3067.39,-1025.92 3115.73,-1033.94 3153.36,-1039.48"/>
<polygon fill="orange" stroke="orange" points="2978.44,-999.62 2967.85,-1000.01 2976.37,-1006.31 2978.44,-999.62"/>
<text text-anchor="middle" x="3073.5" y="-1037" font-family="Helvetica,sans-Serif" font-size="10.00"> &lt; &#39;i&#39;, 3 &gt;</text>
</g>
<!-- Node75 -->
<g id="node75" class="node">
<title>Node75</title>
<g id="a_node75"><a xlink:href="classFTensor_1_1Index.html" target="_top" xlink:title=" ">
<polygon fill="white" stroke="black" points="3153.5,-1000.5 3153.5,-1019.5 3283.5,-1019.5 3283.5,-1000.5 3153.5,-1000.5"/>
<text text-anchor="middle" x="3218.5" y="-1007.5" font-family="Helvetica,sans-Serif" font-size="10.00">FTensor::Index&lt; &#39;j&#39;, 2 &gt;</text>
</a>
</g>
</g>
<!-- Node73&#45;&gt;Node75 -->
<g id="edge89" class="edge">
<title>Node73&#45;&gt;Node75</title>
<path fill="none" stroke="orange" stroke-dasharray="5,2" d="M2984.54,-990.22C3034.02,-994.42 3103.3,-1000.31 3153.44,-1004.56"/>
<polygon fill="orange" stroke="orange" points="2984.56,-986.71 2974.3,-989.35 2983.97,-993.69 2984.56,-986.71"/>
<text text-anchor="middle" x="3073.5" y="-1004" font-family="Helvetica,sans-Serif" font-size="10.00"> &lt; &#39;j&#39;, 2 &gt;</text>
</g>
<!-- Node76 -->
<g id="node76" class="node">
<title>Node76</title>
<g id="a_node76"><a xlink:href="classFTensor_1_1Index.html" target="_top" xlink:title=" ">
<polygon fill="white" stroke="black" points="3152,-962.5 3152,-981.5 3285,-981.5 3285,-962.5 3152,-962.5"/>
<text text-anchor="middle" x="3218.5" y="-969.5" font-family="Helvetica,sans-Serif" font-size="10.00">FTensor::Index&lt; &#39;k&#39;, 2 &gt;</text>
</a>
</g>
</g>
<!-- Node73&#45;&gt;Node76 -->
<g id="edge91" class="edge">
<title>Node73&#45;&gt;Node76</title>
<path fill="none" stroke="orange" stroke-dasharray="5,2" d="M2984.17,-978.93C2997.61,-977.78 3011.77,-976.72 3025,-976 3067.22,-973.7 3114.72,-972.7 3151.97,-972.27"/>
<polygon fill="orange" stroke="orange" points="2983.71,-975.46 2974.06,-979.82 2984.33,-982.43 2983.71,-975.46"/>
<text text-anchor="middle" x="3073.5" y="-979" font-family="Helvetica,sans-Serif" font-size="10.00"> &lt; &#39;k&#39;, 2 &gt;</text>
</g>
<!-- Node78 -->
<g id="node78" class="node">
<title>Node78</title>
<g id="a_node78"><a xlink:href="classFTensor_1_1Index.html" target="_top" xlink:title=" ">
<polygon fill="white" stroke="black" points="3163.5,-913 3163.5,-943 3273.5,-943 3273.5,-913 3163.5,-913"/>
<text text-anchor="start" x="3171.5" y="-931" font-family="Helvetica,sans-Serif" font-size="10.00">FTensor::Index&lt; &#39;i&#39;,</text>
<text text-anchor="middle" x="3218.5" y="-920" font-family="Helvetica,sans-Serif" font-size="10.00"> SPACE_DIM &gt;</text>
</a>
</g>
</g>
<!-- Node73&#45;&gt;Node78 -->
<g id="edge95" class="edge">
<title>Node73&#45;&gt;Node78</title>
<path fill="none" stroke="orange" stroke-dasharray="5,2" d="M2982.88,-967.29C2996.64,-963.58 3011.27,-959.91 3025,-957 3071.29,-947.2 3124.52,-939.44 3163.26,-934.43"/>
<polygon fill="orange" stroke="orange" points="2981.75,-963.97 2973.03,-970 2983.6,-970.72 2981.75,-963.97"/>
<text text-anchor="middle" x="3073.5" y="-960" font-family="Helvetica,sans-Serif" font-size="10.00"> &lt; &#39;i&#39;, SPACE_DIM &gt;</text>
</g>
<!-- Node74 -->
<g id="node74" class="node">
<title>Node74</title>
<g id="a_node74"><a xlink:title=" ">
<polygon fill="white" stroke="#bfbfbf" points="3140.5,-874.5 3140.5,-893.5 3296.5,-893.5 3296.5,-874.5 3140.5,-874.5"/>
<text text-anchor="middle" x="3218.5" y="-881.5" font-family="Helvetica,sans-Serif" font-size="10.00">shared_ptr&lt; VectorDouble &gt;</text>
</a>
</g>
</g>
<!-- Node74&#45;&gt;Node1 -->
<g id="edge87" class="edge">
<title>Node74&#45;&gt;Node1</title>
<path fill="none" stroke="#9a32cd" stroke-dasharray="5,2" d="M3305.68,-896.02C3327.03,-901.8 3348.94,-910.34 3367,-923 3403.49,-948.57 3429,-997.4 3438.68,-1018.21"/>
<polygon fill="#9a32cd" stroke="#9a32cd" points="3306.48,-892.61 3295.93,-893.56 3304.77,-899.4 3306.48,-892.61"/>
<text text-anchor="middle" x="3341" y="-937" font-family="Helvetica,sans-Serif" font-size="10.00"> ptrDiv</text>
<text text-anchor="middle" x="3341" y="-926" font-family="Helvetica,sans-Serif" font-size="10.00">ptrVals</text>
</g>
<!-- Node75&#45;&gt;Node1 -->
<g id="edge88" class="edge">
<title>Node75&#45;&gt;Node1</title>
<path fill="none" stroke="#9a32cd" stroke-dasharray="5,2" d="M3293.77,-1009.77C3317.25,-1010.3 3343.25,-1011.51 3367,-1014 3377.01,-1015.05 3387.67,-1016.69 3397.75,-1018.48"/>
<polygon fill="#9a32cd" stroke="#9a32cd" points="3293.6,-1006.27 3283.53,-1009.58 3293.47,-1013.26 3293.6,-1006.27"/>
<text text-anchor="middle" x="3341" y="-1017" font-family="Helvetica,sans-Serif" font-size="10.00"> j</text>
</g>
<!-- Node76&#45;&gt;Node1 -->
<g id="edge90" class="edge">
<title>Node76&#45;&gt;Node1</title>
<path fill="none" stroke="#9a32cd" stroke-dasharray="5,2" d="M3295.42,-980.06C3318.66,-983.53 3344.12,-988.37 3367,-995 3387.31,-1000.89 3409.35,-1010.89 3424.44,-1018.35"/>
<polygon fill="#9a32cd" stroke="#9a32cd" points="3295.66,-976.56 3285.27,-978.61 3294.67,-983.49 3295.66,-976.56"/>
<text text-anchor="middle" x="3341" y="-998" font-family="Helvetica,sans-Serif" font-size="10.00"> k</text>
</g>
<!-- Node77 -->
<g id="node77" class="node">
<title>Node77</title>
<g id="a_node77"><a xlink:title=" ">
<polygon fill="white" stroke="#bfbfbf" points="3177.5,-836.5 3177.5,-855.5 3259.5,-855.5 3259.5,-836.5 3177.5,-836.5"/>
<text text-anchor="middle" x="3218.5" y="-843.5" font-family="Helvetica,sans-Serif" font-size="10.00">VectorDouble</text>
</a>
</g>
</g>
<!-- Node77&#45;&gt;Node1 -->
<g id="edge93" class="edge">
<title>Node77&#45;&gt;Node1</title>
<path fill="none" stroke="#9a32cd" stroke-dasharray="5,2" d="M3269.67,-848.97C3300.63,-853.12 3339.53,-862.77 3367,-885 3412.24,-921.61 3434.01,-992.51 3440.69,-1018.31"/>
<polygon fill="#9a32cd" stroke="#9a32cd" points="3269.85,-845.47 3259.51,-847.77 3269.03,-852.42 3269.85,-845.47"/>
<text text-anchor="middle" x="3341" y="-888" font-family="Helvetica,sans-Serif" font-size="10.00"> vAls</text>
</g>
<!-- Node78&#45;&gt;Node1 -->
<g id="edge94" class="edge">
<title>Node78&#45;&gt;Node1</title>
<path fill="none" stroke="#9a32cd" stroke-dasharray="5,2" d="M3283.63,-939.46C3310.31,-945.72 3341.05,-954.93 3367,-968 3393.73,-981.46 3420.03,-1005.21 3433.58,-1018.43"/>
<polygon fill="#9a32cd" stroke="#9a32cd" points="3284.14,-935.99 3273.62,-937.21 3282.6,-942.82 3284.14,-935.99"/>
<text text-anchor="middle" x="3341" y="-971" font-family="Helvetica,sans-Serif" font-size="10.00"> i</text>
</g>
</g>
</svg>
