<?xml version="1.0" encoding="UTF-8" standalone="no"?>
<!DOCTYPE svg PUBLIC "-//W3C//DTD SVG 1.1//EN"
 "http://www.w3.org/Graphics/SVG/1.1/DTD/svg11.dtd">
<!-- Generated by graphviz version 2.43.0 (0)
 -->
<!-- Title: MoFEM::CubitMeshSets Pages: 1 -->
<svg width="822pt" height="172pt"
 viewBox="0.00 0.00 821.50 172.00" xmlns="http://www.w3.org/2000/svg" xmlns:xlink="http://www.w3.org/1999/xlink">
<g id="graph0" class="graph" transform="scale(1 1) rotate(0) translate(4 168)">
<title>MoFEM::CubitMeshSets</title>
<polygon fill="white" stroke="transparent" points="-4,4 -4,-168 817.5,-168 817.5,4 -4,4"/>
<!-- Node1 -->
<g id="node1" class="node">
<title>Node1</title>
<g id="a_node1"><a xlink:title="this struct keeps basic methods for moab meshset about material and boundary conditions">
<polygon fill="#bfbfbf" stroke="black" points="336,-0.5 336,-19.5 467,-19.5 467,-0.5 336,-0.5"/>
<text text-anchor="middle" x="401.5" y="-7.5" font-family="Helvetica,sans-Serif" font-size="10.00">MoFEM::CubitMeshSets</text>
</a>
</g>
</g>
<!-- Node2 -->
<g id="node2" class="node">
<title>Node2</title>
<g id="a_node2"><a xlink:title=" ">
<polygon fill="white" stroke="#bfbfbf" points="0,-144.5 0,-163.5 79,-163.5 79,-144.5 0,-144.5"/>
<text text-anchor="middle" x="39.5" y="-151.5" font-family="Helvetica,sans-Serif" font-size="10.00">bitset&lt; 32 &gt;</text>
</a>
</g>
</g>
<!-- Node2&#45;&gt;Node1 -->
<g id="edge1" class="edge">
<title>Node2&#45;&gt;Node1</title>
<path fill="none" stroke="#9a32cd" stroke-dasharray="5,2" d="M39.38,-134.21C40.34,-108.08 46.33,-61.35 75.5,-38 95.31,-22.14 246.4,-15.26 335.77,-12.56"/>
<polygon fill="#9a32cd" stroke="#9a32cd" points="35.88,-134.27 39.23,-144.32 42.88,-134.37 35.88,-134.27"/>
<text text-anchor="middle" x="106.5" y="-79.5" font-family="Helvetica,sans-Serif" font-size="10.00"> cubitBcType</text>
</g>
<!-- Node3 -->
<g id="node3" class="node">
<title>Node3</title>
<g id="a_node3"><a xlink:title=" ">
<polygon fill="white" stroke="#bfbfbf" points="97,-144.5 97,-163.5 204,-163.5 204,-144.5 97,-144.5"/>
<text text-anchor="middle" x="150.5" y="-151.5" font-family="Helvetica,sans-Serif" font-size="10.00">const CubitBCType</text>
</a>
</g>
</g>
<!-- Node3&#45;&gt;Node1 -->
<g id="edge2" class="edge">
<title>Node3&#45;&gt;Node1</title>
<path fill="none" stroke="#9a32cd" stroke-dasharray="5,2" d="M145.57,-134.49C140.03,-109.06 134.75,-63.58 159.5,-38 171.61,-25.49 268.36,-17.9 335.79,-14.08"/>
<polygon fill="#9a32cd" stroke="#9a32cd" points="142.19,-135.43 147.95,-144.33 149,-133.78 142.19,-135.43"/>
<text text-anchor="middle" x="198" y="-79.5" font-family="Helvetica,sans-Serif" font-size="10.00"> meshsetsMask</text>
</g>
<!-- Node4 -->
<g id="node4" class="node">
<title>Node4</title>
<g id="a_node4"><a xlink:href="classdouble.html" target="_top" xlink:title=" ">
<polygon fill="white" stroke="black" points="225.5,-144.5 225.5,-163.5 275.5,-163.5 275.5,-144.5 225.5,-144.5"/>
<text text-anchor="middle" x="250.5" y="-151.5" font-family="Helvetica,sans-Serif" font-size="10.00">double</text>
</a>
</g>
</g>
<!-- Node4&#45;&gt;Node1 -->
<g id="edge3" class="edge">
<title>Node4&#45;&gt;Node1</title>
<path fill="none" stroke="#9a32cd" stroke-dasharray="5,2" d="M245.58,-134.43C240.14,-109.27 234.97,-64.46 258.5,-38 268.99,-26.2 303.33,-19.49 335.73,-15.7"/>
<polygon fill="#9a32cd" stroke="#9a32cd" points="242.26,-135.57 248,-144.47 249.06,-133.93 242.26,-135.57"/>
<text text-anchor="middle" x="305.5" y="-79.5" font-family="Helvetica,sans-Serif" font-size="10.00"> tagBlockAttributes</text>
</g>
<!-- Node5 -->
<g id="node5" class="node">
<title>Node5</title>
<g id="a_node5"><a xlink:href="classEntityHandle.html" target="_top" xlink:title=" ">
<polygon fill="white" stroke="black" points="324.5,-144.5 324.5,-163.5 404.5,-163.5 404.5,-144.5 324.5,-144.5"/>
<text text-anchor="middle" x="364.5" y="-151.5" font-family="Helvetica,sans-Serif" font-size="10.00">EntityHandle</text>
</a>
</g>
</g>
<!-- Node5&#45;&gt;Node1 -->
<g id="edge4" class="edge">
<title>Node5&#45;&gt;Node1</title>
<path fill="none" stroke="#9a32cd" stroke-dasharray="5,2" d="M360.63,-134.23C356.71,-110.47 353.18,-68.92 368.5,-38 372.25,-30.44 379.2,-24.26 385.76,-19.73"/>
<polygon fill="#9a32cd" stroke="#9a32cd" points="357.24,-135.14 362.51,-144.34 364.13,-133.87 357.24,-135.14"/>
<text text-anchor="middle" x="391.5" y="-79.5" font-family="Helvetica,sans-Serif" font-size="10.00"> meshset</text>
</g>
<!-- Node6 -->
<g id="node6" class="node">
<title>Node6</title>
<g id="a_node6"><a xlink:title=" ">
<polygon fill="white" stroke="#bfbfbf" points="423,-144.5 423,-163.5 456,-163.5 456,-144.5 423,-144.5"/>
<text text-anchor="middle" x="439.5" y="-151.5" font-family="Helvetica,sans-Serif" font-size="10.00">Tag</text>
</a>
</g>
</g>
<!-- Node6&#45;&gt;Node1 -->
<g id="edge5" class="edge">
<title>Node6&#45;&gt;Node1</title>
<path fill="none" stroke="#9a32cd" stroke-dasharray="5,2" d="M436.83,-134.35C433.21,-111.29 425.87,-71.06 414.5,-38 412.33,-31.7 409.08,-24.95 406.38,-19.78"/>
<polygon fill="#9a32cd" stroke="#9a32cd" points="433.4,-135.08 438.34,-144.45 440.32,-134.04 433.4,-135.08"/>
<text text-anchor="middle" x="473.5" y="-118" font-family="Helvetica,sans-Serif" font-size="10.00"> entityNameTag</text>
<text text-anchor="middle" x="473.5" y="-107" font-family="Helvetica,sans-Serif" font-size="10.00">nsTag</text>
<text text-anchor="middle" x="473.5" y="-96" font-family="Helvetica,sans-Serif" font-size="10.00">bhTag_header</text>
<text text-anchor="middle" x="473.5" y="-85" font-family="Helvetica,sans-Serif" font-size="10.00">ssTag</text>
<text text-anchor="middle" x="473.5" y="-74" font-family="Helvetica,sans-Serif" font-size="10.00">thBlockAttribs</text>
<text text-anchor="middle" x="473.5" y="-63" font-family="Helvetica,sans-Serif" font-size="10.00">ssTag_data</text>
<text text-anchor="middle" x="473.5" y="-52" font-family="Helvetica,sans-Serif" font-size="10.00">bhTag</text>
<text text-anchor="middle" x="473.5" y="-41" font-family="Helvetica,sans-Serif" font-size="10.00">nsTag_data</text>
</g>
<!-- Node7 -->
<g id="node7" class="node">
<title>Node7</title>
<g id="a_node7"><a xlink:title=" ">
<polygon fill="white" stroke="#bfbfbf" points="518.5,-144.5 518.5,-163.5 556.5,-163.5 556.5,-144.5 518.5,-144.5"/>
<text text-anchor="middle" x="537.5" y="-151.5" font-family="Helvetica,sans-Serif" font-size="10.00">char</text>
</a>
</g>
</g>
<!-- Node7&#45;&gt;Node1 -->
<g id="edge6" class="edge">
<title>Node7&#45;&gt;Node1</title>
<path fill="none" stroke="#9a32cd" stroke-dasharray="5,2" d="M536.35,-134.27C534.17,-105.3 528.47,-51.55 515.5,-38 507.8,-29.96 485.83,-23.85 463.21,-19.5"/>
<polygon fill="#9a32cd" stroke="#9a32cd" points="532.86,-134.61 537.03,-144.35 539.84,-134.13 532.86,-134.61"/>
<text text-anchor="middle" x="560.5" y="-85" font-family="Helvetica,sans-Serif" font-size="10.00"> tagName</text>
<text text-anchor="middle" x="560.5" y="-74" font-family="Helvetica,sans-Serif" font-size="10.00">tagBcData</text>
</g>
<!-- Node8 -->
<g id="node8" class="node">
<title>Node8</title>
<g id="a_node8"><a xlink:title=" ">
<polygon fill="white" stroke="#bfbfbf" points="598,-144.5 598,-163.5 627,-163.5 627,-144.5 598,-144.5"/>
<text text-anchor="middle" x="612.5" y="-151.5" font-family="Helvetica,sans-Serif" font-size="10.00">int</text>
</a>
</g>
</g>
<!-- Node8&#45;&gt;Node1 -->
<g id="edge7" class="edge">
<title>Node8&#45;&gt;Node1</title>
<path fill="none" stroke="#9a32cd" stroke-dasharray="5,2" d="M611.49,-134.13C609.51,-104.97 604.07,-50.94 590.5,-38 573.11,-21.41 514.79,-14.95 467.48,-12.47"/>
<polygon fill="#9a32cd" stroke="#9a32cd" points="608,-134.51 612.1,-144.28 614.99,-134.08 608,-134.51"/>
<text text-anchor="middle" x="666.5" y="-96" font-family="Helvetica,sans-Serif" font-size="10.00"> tagBcSize</text>
<text text-anchor="middle" x="666.5" y="-85" font-family="Helvetica,sans-Serif" font-size="10.00">tagBlockHeaderData</text>
<text text-anchor="middle" x="666.5" y="-74" font-family="Helvetica,sans-Serif" font-size="10.00">tagBlockAttributesSize</text>
<text text-anchor="middle" x="666.5" y="-63" font-family="Helvetica,sans-Serif" font-size="10.00">msId</text>
</g>
<!-- Node9 -->
<g id="node9" class="node">
<title>Node9</title>
<g id="a_node9"><a xlink:title=" ">
<polygon fill="white" stroke="#bfbfbf" points="704.5,-144.5 704.5,-163.5 790.5,-163.5 790.5,-144.5 704.5,-144.5"/>
<text text-anchor="middle" x="747.5" y="-151.5" font-family="Helvetica,sans-Serif" font-size="10.00">vector&lt; Tag &gt;</text>
</a>
</g>
</g>
<!-- Node9&#45;&gt;Node1 -->
<g id="edge8" class="edge">
<title>Node9&#45;&gt;Node1</title>
<path fill="none" stroke="#9a32cd" stroke-dasharray="5,2" d="M750.09,-134.47C752.53,-108.64 752.49,-62.27 725.5,-38 706.75,-21.13 556.22,-14.66 467.08,-12.28"/>
<polygon fill="#9a32cd" stroke="#9a32cd" points="746.61,-134.1 748.92,-144.44 753.56,-134.92 746.61,-134.1"/>
<text text-anchor="middle" x="782" y="-79.5" font-family="Helvetica,sans-Serif" font-size="10.00"> tag_handles</text>
</g>
</g>
</svg>
