<?xml version="1.0" encoding="UTF-8" standalone="no"?>
<!DOCTYPE svg PUBLIC "-//W3C//DTD SVG 1.1//EN"
 "http://www.w3.org/Graphics/SVG/1.1/DTD/svg11.dtd">
<!-- Generated by graphviz version 2.43.0 (0)
 -->
<!-- Title: MoFEM::LogManager Pages: 1 -->
<!--zoomable 1447 -->
<svg id="main" version="1.1" xmlns="http://www.w3.org/2000/svg" xmlns:xlink="http://www.w3.org/1999/xlink" xml:space="preserve" onload="init(evt)">
<style type="text/css"><![CDATA[
.edge:hover path { stroke: red; }
.edge:hover polygon { stroke: red; fill: red; }
]]></style>
<script type="text/javascript"><![CDATA[
var edges = document.getElementsByTagName('g');
if (edges && edges.length) {
  for (var i=0;i<edges.length;i++) {
    if (edges[i].id.substr(0,4)=='edge') {
      edges[i].setAttribute('class','edge');
    }
  }
}
]]></script>
        <defs>
                <circle id="rim" cx="0" cy="0" r="7"/>
                <circle id="rim2" cx="0" cy="0" r="3.5"/>
                <g id="zoomPlus">
                        <use xlink:href="#rim" fill="#404040">
                                <set attributeName="fill" to="#808080" begin="zoomplus.mouseover" end="zoomplus.mouseout"/>
                        </use>
                        <path d="M-4,0h8M0,-4v8" fill="none" stroke="white" stroke-width="1.5" pointer-events="none"/>
                </g>
                <g id="zoomMin">
                        <use xlink:href="#rim" fill="#404040">
                                <set attributeName="fill" to="#808080" begin="zoomminus.mouseover" end="zoomminus.mouseout"/>
                        </use>
                        <path d="M-4,0h8" fill="none" stroke="white" stroke-width="1.5" pointer-events="none"/>
                </g>
                <g id="dirArrow">
                        <path fill="none" stroke="white" stroke-width="1.5" d="M0,-3.0v7 M-2.5,-0.5L0,-3.0L2.5,-0.5"/>
                </g>
               <g id="resetDef">
                       <use xlink:href="#rim2" fill="#404040">
                               <set attributeName="fill" to="#808080" begin="reset.mouseover" end="reset.mouseout"/>
                       </use>
               </g>
        </defs>

<script type="text/javascript">
var viewWidth = 4027;
var viewHeight = 1447;
var sectionId = 'dynsection-1';
</script>
<script xlink:href="svgpan.js"/>
<svg id="graph" class="graph">
<g id="viewport">
<title>MoFEM::LogManager</title>
<polygon fill="white" stroke="transparent" points="-4,4 -4,-1442.97 4023,-1442.97 4023,4 -4,4"/>
<!-- Node1 -->
<g id="node1" class="node">
<title>Node1</title>
<g id="a_node1"><a xlink:title="Log manager is used to build and partition problems.">
<polygon fill="#bfbfbf" stroke="black" points="3900,-600.47 3900,-619.47 4019,-619.47 4019,-600.47 3900,-600.47"/>
<text text-anchor="middle" x="3959.5" y="-607.47" font-family="Helvetica,sans-Serif" font-size="10.00">MoFEM::LogManager</text>
</a>
</g>
</g>
<!-- Node2 -->
<g id="node2" class="node">
<title>Node2</title>
<g id="a_node2"><a xlink:href="structMoFEM_1_1UnknownInterface.html" target="_top" xlink:title="base class for all interface classes">
<polygon fill="white" stroke="black" points="2166,-1160.47 2166,-1179.47 2314,-1179.47 2314,-1160.47 2166,-1160.47"/>
<text text-anchor="middle" x="2240" y="-1167.47" font-family="Helvetica,sans-Serif" font-size="10.00">MoFEM::UnknownInterface</text>
</a>
</g>
</g>
<!-- Node2&#45;&gt;Node1 -->
<g id="edge1" class="edge">
<title>Node2&#45;&gt;Node1</title>
<path fill="none" stroke="midnightblue" d="M2324.52,-1169.97C2429.96,-1169.97 2616.92,-1169.97 2777,-1169.97 2777,-1169.97 2777,-1169.97 3690.5,-1169.97 3944.87,-1169.97 3958.01,-694.06 3958.51,-619.69"/>
<polygon fill="midnightblue" stroke="midnightblue" points="2324.26,-1166.47 2314.26,-1169.97 2324.26,-1173.47 2324.26,-1166.47"/>
</g>
<!-- Node11 -->
<g id="node11" class="node">
<title>Node11</title>
<g id="a_node11"><a xlink:href="structMoFEM_1_1CoreInterface.html" target="_top" xlink:title="Interface.">
<polygon fill="white" stroke="black" points="2715.5,-1103.47 2715.5,-1122.47 2840.5,-1122.47 2840.5,-1103.47 2715.5,-1103.47"/>
<text text-anchor="middle" x="2778" y="-1110.47" font-family="Helvetica,sans-Serif" font-size="10.00">MoFEM::CoreInterface</text>
</a>
</g>
</g>
<!-- Node2&#45;&gt;Node11 -->
<g id="edge11" class="edge">
<title>Node2&#45;&gt;Node11</title>
<path fill="none" stroke="midnightblue" d="M2324.45,-1159.91C2336.05,-1158.56 2347.82,-1157.21 2359,-1155.97 2485.53,-1141.96 2633.78,-1127.07 2715.35,-1119.01"/>
<polygon fill="midnightblue" stroke="midnightblue" points="2323.84,-1156.46 2314.31,-1161.1 2324.65,-1163.41 2323.84,-1156.46"/>
</g>
<!-- Node3 -->
<g id="node3" class="node">
<title>Node3</title>
<g id="a_node3"><a xlink:title=" ">
<polygon fill="white" stroke="#bfbfbf" points="1003.5,-1223.47 1003.5,-1286.47 1244.5,-1286.47 1244.5,-1223.47 1003.5,-1223.47"/>
<text text-anchor="start" x="1011.5" y="-1274.47" font-family="Helvetica,sans-Serif" font-size="10.00">multi_index_container</text>
<text text-anchor="start" x="1011.5" y="-1263.47" font-family="Helvetica,sans-Serif" font-size="10.00">&lt; UIdTypeMap, indexed</text>
<text text-anchor="start" x="1011.5" y="-1252.47" font-family="Helvetica,sans-Serif" font-size="10.00">_by&lt; hashed_unique&lt; member</text>
<text text-anchor="start" x="1011.5" y="-1241.47" font-family="Helvetica,sans-Serif" font-size="10.00">&lt; UIdTypeMap, boost::typeindex</text>
<text text-anchor="middle" x="1124" y="-1230.47" font-family="Helvetica,sans-Serif" font-size="10.00">::type_index, &amp;UIdTypeMap::classIdx &gt; &gt; &gt; &gt;</text>
</a>
</g>
</g>
<!-- Node3&#45;&gt;Node2 -->
<g id="edge2" class="edge">
<title>Node3&#45;&gt;Node2</title>
<path fill="none" stroke="#9a32cd" stroke-dasharray="5,2" d="M1254.76,-1256.78C1445.74,-1257.48 1813.19,-1251.33 2121,-1201.97 2152.02,-1197 2186.61,-1187.08 2210.28,-1179.6"/>
<polygon fill="#9a32cd" stroke="#9a32cd" points="1254.7,-1253.28 1244.68,-1256.74 1254.67,-1260.28 1254.7,-1253.28"/>
<text text-anchor="middle" x="1720.5" y="-1258.97" font-family="Helvetica,sans-Serif" font-size="10.00"> iFaceTypeMap</text>
</g>
<!-- Node4 -->
<g id="node4" class="node">
<title>Node4</title>
<g id="a_node4"><a xlink:title=" ">
<polygon fill="white" stroke="#bfbfbf" points="0,-666.47 0,-685.47 125,-685.47 125,-666.47 0,-666.47"/>
<text text-anchor="middle" x="62.5" y="-673.47" font-family="Helvetica,sans-Serif" font-size="10.00">multi_index_container</text>
</a>
</g>
</g>
<!-- Node4&#45;&gt;Node3 -->
<g id="edge3" class="edge">
<title>Node4&#45;&gt;Node3</title>
<path fill="none" stroke="orange" stroke-dasharray="5,2" d="M64.61,-695.67C70.39,-794.47 98.42,-1232.95 143,-1271.97 402.43,-1499.09 865.13,-1356.03 1046.79,-1286.5"/>
<polygon fill="orange" stroke="orange" points="68.1,-695.36 64.03,-685.58 61.11,-695.76 68.1,-695.36"/>
<text text-anchor="start" x="423" y="-1430.97" font-family="Helvetica,sans-Serif" font-size="10.00"> &lt; UIdTypeMap, indexed</text>
<text text-anchor="start" x="423" y="-1419.97" font-family="Helvetica,sans-Serif" font-size="10.00">_by&lt; hashed_unique&lt; member</text>
<text text-anchor="start" x="423" y="-1408.97" font-family="Helvetica,sans-Serif" font-size="10.00">&lt; UIdTypeMap, boost::typeindex</text>
<text text-anchor="middle" x="535.5" y="-1397.97" font-family="Helvetica,sans-Serif" font-size="10.00">::type_index, &amp;UIdTypeMap::classIdx &gt; &gt; &gt; &gt;</text>
</g>
<!-- Node12 -->
<g id="node12" class="node">
<title>Node12</title>
<g id="a_node12"><a xlink:title=" ">
<polygon fill="white" stroke="#bfbfbf" points="1320,-997.47 1320,-1192.47 2121,-1192.47 2121,-997.47 1320,-997.47"/>
<text text-anchor="start" x="1328" y="-1180.47" font-family="Helvetica,sans-Serif" font-size="10.00">multi_index_container</text>
<text text-anchor="start" x="1328" y="-1169.47" font-family="Helvetica,sans-Serif" font-size="10.00">&lt; FieldEntityEntFiniteElement</text>
<text text-anchor="start" x="1328" y="-1158.47" font-family="Helvetica,sans-Serif" font-size="10.00">AdjacencyMap, indexed_by&lt;</text>
<text text-anchor="start" x="1328" y="-1147.47" font-family="Helvetica,sans-Serif" font-size="10.00"> ordered_unique&lt; tag&lt; Composite</text>
<text text-anchor="start" x="1328" y="-1136.47" font-family="Helvetica,sans-Serif" font-size="10.00">_Unique_mi_tag &gt;, composite_key</text>
<text text-anchor="start" x="1328" y="-1125.47" font-family="Helvetica,sans-Serif" font-size="10.00">&lt; FieldEntityEntFiniteElementAdjacencyMap,</text>
<text text-anchor="start" x="1328" y="-1114.47" font-family="Helvetica,sans-Serif" font-size="10.00"> const_mem_fun&lt; FieldEntityEntFiniteElementAdjacency</text>
<text text-anchor="start" x="1328" y="-1103.47" font-family="Helvetica,sans-Serif" font-size="10.00">Map, UId, &amp;FieldEntityEntFiniteElementAdjacencyMap</text>
<text text-anchor="start" x="1328" y="-1092.47" font-family="Helvetica,sans-Serif" font-size="10.00">::getEntUniqueId &gt;, const_mem_fun&lt; FieldEntityEntFiniteElementAdjacency</text>
<text text-anchor="start" x="1328" y="-1081.47" font-family="Helvetica,sans-Serif" font-size="10.00">Map, UId, &amp;FieldEntityEntFiniteElementAdjacencyMap::getFeUniqueId</text>
<text text-anchor="start" x="1328" y="-1070.47" font-family="Helvetica,sans-Serif" font-size="10.00"> &gt; &gt; &gt;, ordered_non_unique&lt; tag&lt; Unique_mi_tag &gt;, const_mem_fun</text>
<text text-anchor="start" x="1328" y="-1059.47" font-family="Helvetica,sans-Serif" font-size="10.00">&lt; FieldEntityEntFiniteElementAdjacencyMap, UId, &amp;FieldEntityEntFiniteElementAdjacencyMap</text>
<text text-anchor="start" x="1328" y="-1048.47" font-family="Helvetica,sans-Serif" font-size="10.00">::getEntUniqueId &gt; &gt;, ordered_non_unique&lt; tag&lt; FE_Unique_mi_tag &gt;, const_mem_fun</text>
<text text-anchor="start" x="1328" y="-1037.47" font-family="Helvetica,sans-Serif" font-size="10.00">&lt; FieldEntityEntFiniteElementAdjacencyMap, UId, &amp;FieldEntityEntFiniteElementAdjacencyMap</text>
<text text-anchor="start" x="1328" y="-1026.47" font-family="Helvetica,sans-Serif" font-size="10.00">::getFeUniqueId &gt; &gt;, ordered_non_unique&lt; tag&lt; FEEnt_mi_tag &gt;, const_mem_fun&lt; FieldEntityEntFiniteElementAdjacency</text>
<text text-anchor="start" x="1328" y="-1015.47" font-family="Helvetica,sans-Serif" font-size="10.00">Map, EntityHandle, &amp;FieldEntityEntFiniteElementAdjacencyMap::getFeHandle &gt; &gt;, ordered_non_unique&lt; tag</text>
<text text-anchor="middle" x="1720.5" y="-1004.47" font-family="Helvetica,sans-Serif" font-size="10.00">&lt; Ent_mi_tag &gt;, const_mem_fun&lt; FieldEntityEntFiniteElementAdjacencyMap, EntityHandle, &amp;FieldEntityEntFiniteElementAdjacencyMap::getEntHandle &gt; &gt; &gt; &gt;</text>
</a>
</g>
</g>
<!-- Node4&#45;&gt;Node12 -->
<g id="edge13" class="edge">
<title>Node4&#45;&gt;Node12</title>
<path fill="none" stroke="orange" stroke-dasharray="5,2" d="M63.34,-695.75C64.12,-743.5 73.2,-865.66 143,-926.97 415.41,-1166.26 585.39,-1033.25 946,-1070.97 1067.1,-1083.64 1199.39,-1090.35 1319.78,-1093.73"/>
<polygon fill="orange" stroke="orange" points="66.84,-695.51 63.29,-685.53 59.84,-695.55 66.84,-695.51"/>
<text text-anchor="start" x="143" y="-1241.97" font-family="Helvetica,sans-Serif" font-size="10.00"> &lt; FieldEntityEntFiniteElement</text>
<text text-anchor="start" x="143" y="-1230.97" font-family="Helvetica,sans-Serif" font-size="10.00">AdjacencyMap, indexed_by</text>
<text text-anchor="start" x="143" y="-1219.97" font-family="Helvetica,sans-Serif" font-size="10.00">&lt; ordered_unique&lt; tag&lt; Composite</text>
<text text-anchor="start" x="143" y="-1208.97" font-family="Helvetica,sans-Serif" font-size="10.00">_Unique_mi_tag &gt;, composite_key</text>
<text text-anchor="start" x="143" y="-1197.97" font-family="Helvetica,sans-Serif" font-size="10.00">&lt; FieldEntityEntFiniteElementAdjacencyMap,</text>
<text text-anchor="start" x="143" y="-1186.97" font-family="Helvetica,sans-Serif" font-size="10.00"> const_mem_fun&lt; FieldEntityEntFiniteElementAdjacency</text>
<text text-anchor="start" x="143" y="-1175.97" font-family="Helvetica,sans-Serif" font-size="10.00">Map, UId, &amp;FieldEntityEntFiniteElementAdjacencyMap</text>
<text text-anchor="start" x="143" y="-1164.97" font-family="Helvetica,sans-Serif" font-size="10.00">::getEntUniqueId &gt;, const_mem_fun&lt; FieldEntityEntFiniteElementAdjacency</text>
<text text-anchor="start" x="143" y="-1153.97" font-family="Helvetica,sans-Serif" font-size="10.00">Map, UId, &amp;FieldEntityEntFiniteElementAdjacencyMap::getFeUniqueId</text>
<text text-anchor="start" x="143" y="-1142.97" font-family="Helvetica,sans-Serif" font-size="10.00"> &gt; &gt; &gt;, ordered_non_unique&lt; tag&lt; Unique_mi_tag &gt;, const_mem_fun</text>
<text text-anchor="start" x="143" y="-1131.97" font-family="Helvetica,sans-Serif" font-size="10.00">&lt; FieldEntityEntFiniteElementAdjacencyMap, UId, &amp;FieldEntityEntFiniteElementAdjacencyMap</text>
<text text-anchor="start" x="143" y="-1120.97" font-family="Helvetica,sans-Serif" font-size="10.00">::getEntUniqueId &gt; &gt;, ordered_non_unique&lt; tag&lt; FE_Unique_mi_tag &gt;, const_mem_fun</text>
<text text-anchor="start" x="143" y="-1109.97" font-family="Helvetica,sans-Serif" font-size="10.00">&lt; FieldEntityEntFiniteElementAdjacencyMap, UId, &amp;FieldEntityEntFiniteElementAdjacencyMap</text>
<text text-anchor="start" x="143" y="-1098.97" font-family="Helvetica,sans-Serif" font-size="10.00">::getFeUniqueId &gt; &gt;, ordered_non_unique&lt; tag&lt; FEEnt_mi_tag &gt;, const_mem_fun&lt; FieldEntityEntFiniteElementAdjacency</text>
<text text-anchor="start" x="143" y="-1087.97" font-family="Helvetica,sans-Serif" font-size="10.00">Map, EntityHandle, &amp;FieldEntityEntFiniteElementAdjacencyMap::getFeHandle &gt; &gt;, ordered_non_unique&lt; tag</text>
<text text-anchor="middle" x="535.5" y="-1076.97" font-family="Helvetica,sans-Serif" font-size="10.00">&lt; Ent_mi_tag &gt;, const_mem_fun&lt; FieldEntityEntFiniteElementAdjacencyMap, EntityHandle, &amp;FieldEntityEntFiniteElementAdjacencyMap::getEntHandle &gt; &gt; &gt; &gt;</text>
</g>
<!-- Node14 -->
<g id="node14" class="node">
<title>Node14</title>
<g id="a_node14"><a xlink:title=" ">
<polygon fill="white" stroke="#bfbfbf" points="2359,-841.97 2359,-1003.97 2645,-1003.97 2645,-841.97 2359,-841.97"/>
<text text-anchor="start" x="2367" y="-991.97" font-family="Helvetica,sans-Serif" font-size="10.00">multi_index_container</text>
<text text-anchor="start" x="2367" y="-980.97" font-family="Helvetica,sans-Serif" font-size="10.00">&lt; boost::shared_ptr&lt;</text>
<text text-anchor="start" x="2367" y="-969.97" font-family="Helvetica,sans-Serif" font-size="10.00"> Field &gt;, indexed_by&lt;</text>
<text text-anchor="start" x="2367" y="-958.97" font-family="Helvetica,sans-Serif" font-size="10.00"> hashed_unique&lt; tag&lt; BitFieldId</text>
<text text-anchor="start" x="2367" y="-947.97" font-family="Helvetica,sans-Serif" font-size="10.00">_mi_tag &gt;, const_mem_fun&lt; Field,</text>
<text text-anchor="start" x="2367" y="-936.97" font-family="Helvetica,sans-Serif" font-size="10.00"> const BitFieldId &amp;, &amp;Field::getId</text>
<text text-anchor="start" x="2367" y="-925.97" font-family="Helvetica,sans-Serif" font-size="10.00"> &gt;, HashBit&lt; BitFieldId &gt;, EqBit&lt;</text>
<text text-anchor="start" x="2367" y="-914.97" font-family="Helvetica,sans-Serif" font-size="10.00"> BitFieldId &gt; &gt;, ordered_unique&lt; tag</text>
<text text-anchor="start" x="2367" y="-903.97" font-family="Helvetica,sans-Serif" font-size="10.00">&lt; Meshset_mi_tag &gt;, member&lt; Field, EntityHandle,</text>
<text text-anchor="start" x="2367" y="-892.97" font-family="Helvetica,sans-Serif" font-size="10.00"> &amp;Field::meshSet &gt; &gt;, ordered_unique&lt; tag&lt;</text>
<text text-anchor="start" x="2367" y="-881.97" font-family="Helvetica,sans-Serif" font-size="10.00"> FieldName_mi_tag &gt;, const_mem_fun&lt; Field, boost</text>
<text text-anchor="start" x="2367" y="-870.97" font-family="Helvetica,sans-Serif" font-size="10.00">::string_ref, &amp;Field::getNameRef &gt; &gt;, ordered_non</text>
<text text-anchor="start" x="2367" y="-859.97" font-family="Helvetica,sans-Serif" font-size="10.00">_unique&lt; tag&lt; BitFieldId_space_mi_tag &gt;, const_mem</text>
<text text-anchor="middle" x="2502" y="-848.97" font-family="Helvetica,sans-Serif" font-size="10.00">_fun&lt; Field, FieldSpace, &amp;Field::getSpace &gt; &gt; &gt; &gt;</text>
</a>
</g>
</g>
<!-- Node4&#45;&gt;Node14 -->
<g id="edge16" class="edge">
<title>Node4&#45;&gt;Node14</title>
<path fill="none" stroke="orange" stroke-dasharray="5,2" d="M66.2,-695.88C72.36,-732.7 91.18,-810.86 143,-845.97 356.57,-990.7 1097.58,-755.59 1302,-912.97 1322.38,-928.66 1299.18,-952.88 1320,-967.97 1392.06,-1020.21 2032.15,-973.22 2121,-967.97 2199.92,-963.32 2287.58,-953.27 2358.8,-943.84"/>
<polygon fill="orange" stroke="orange" points="69.64,-695.24 64.67,-685.88 62.72,-696.29 69.64,-695.24"/>
<text text-anchor="start" x="991.5" y="-1058.97" font-family="Helvetica,sans-Serif" font-size="10.00"> &lt; boost::shared_ptr</text>
<text text-anchor="start" x="991.5" y="-1047.97" font-family="Helvetica,sans-Serif" font-size="10.00">&lt; Field &gt;, indexed_by</text>
<text text-anchor="start" x="991.5" y="-1036.97" font-family="Helvetica,sans-Serif" font-size="10.00">&lt; hashed_unique&lt; tag&lt;</text>
<text text-anchor="start" x="991.5" y="-1025.97" font-family="Helvetica,sans-Serif" font-size="10.00"> BitFieldId_mi_tag &gt;, const</text>
<text text-anchor="start" x="991.5" y="-1014.97" font-family="Helvetica,sans-Serif" font-size="10.00">_mem_fun&lt; Field, const BitFieldId</text>
<text text-anchor="start" x="991.5" y="-1003.97" font-family="Helvetica,sans-Serif" font-size="10.00"> &amp;, &amp;Field::getId &gt;, HashBit&lt; BitFieldId</text>
<text text-anchor="start" x="991.5" y="-992.97" font-family="Helvetica,sans-Serif" font-size="10.00"> &gt;, EqBit&lt; BitFieldId &gt; &gt;, ordered_unique</text>
<text text-anchor="start" x="991.5" y="-981.97" font-family="Helvetica,sans-Serif" font-size="10.00">&lt; tag&lt; Meshset_mi_tag &gt;, member&lt; Field,</text>
<text text-anchor="start" x="991.5" y="-970.97" font-family="Helvetica,sans-Serif" font-size="10.00"> EntityHandle, &amp;Field::meshSet &gt; &gt;, ordered</text>
<text text-anchor="start" x="991.5" y="-959.97" font-family="Helvetica,sans-Serif" font-size="10.00">_unique&lt; tag&lt; FieldName_mi_tag &gt;, const_mem</text>
<text text-anchor="start" x="991.5" y="-948.97" font-family="Helvetica,sans-Serif" font-size="10.00">_fun&lt; Field, boost::string_ref, &amp;Field::getNameRef</text>
<text text-anchor="start" x="991.5" y="-937.97" font-family="Helvetica,sans-Serif" font-size="10.00"> &gt; &gt;, ordered_non_unique&lt; tag&lt; BitFieldId_space</text>
<text text-anchor="start" x="991.5" y="-926.97" font-family="Helvetica,sans-Serif" font-size="10.00">_mi_tag &gt;, const_mem_fun&lt; Field, FieldSpace, &amp;Field</text>
<text text-anchor="middle" x="1124" y="-915.97" font-family="Helvetica,sans-Serif" font-size="10.00">::getSpace &gt; &gt; &gt; &gt;</text>
</g>
<!-- Node15 -->
<g id="node15" class="node">
<title>Node15</title>
<g id="a_node15"><a xlink:title=" ">
<polygon fill="white" stroke="#bfbfbf" points="2911,-742.97 2911,-904.97 3174,-904.97 3174,-742.97 2911,-742.97"/>
<text text-anchor="start" x="2919" y="-892.97" font-family="Helvetica,sans-Serif" font-size="10.00">multi_index_container</text>
<text text-anchor="start" x="2919" y="-881.97" font-family="Helvetica,sans-Serif" font-size="10.00">&lt; boost::shared_ptr&lt;</text>
<text text-anchor="start" x="2919" y="-870.97" font-family="Helvetica,sans-Serif" font-size="10.00"> FiniteElement &gt;, indexed</text>
<text text-anchor="start" x="2919" y="-859.97" font-family="Helvetica,sans-Serif" font-size="10.00">_by&lt; hashed_unique&lt; tag&lt;</text>
<text text-anchor="start" x="2919" y="-848.97" font-family="Helvetica,sans-Serif" font-size="10.00"> FiniteElement_Meshset_mi</text>
<text text-anchor="start" x="2919" y="-837.97" font-family="Helvetica,sans-Serif" font-size="10.00">_tag &gt;, member&lt; FiniteElement,</text>
<text text-anchor="start" x="2919" y="-826.97" font-family="Helvetica,sans-Serif" font-size="10.00"> EntityHandle, &amp;FiniteElement</text>
<text text-anchor="start" x="2919" y="-815.97" font-family="Helvetica,sans-Serif" font-size="10.00">::meshset &gt; &gt;, hashed_unique&lt;</text>
<text text-anchor="start" x="2919" y="-804.97" font-family="Helvetica,sans-Serif" font-size="10.00"> tag&lt; BitFEId_mi_tag &gt;, const_mem</text>
<text text-anchor="start" x="2919" y="-793.97" font-family="Helvetica,sans-Serif" font-size="10.00">_fun&lt; FiniteElement, BitFEId, &amp;FiniteElement</text>
<text text-anchor="start" x="2919" y="-782.97" font-family="Helvetica,sans-Serif" font-size="10.00">::getId &gt;, HashBit&lt; BitFEId &gt;, EqBit&lt; BitFEId</text>
<text text-anchor="start" x="2919" y="-771.97" font-family="Helvetica,sans-Serif" font-size="10.00"> &gt; &gt;, ordered_unique&lt; tag&lt; FiniteElement_name</text>
<text text-anchor="start" x="2919" y="-760.97" font-family="Helvetica,sans-Serif" font-size="10.00">_mi_tag &gt;, const_mem_fun&lt; FiniteElement, boost</text>
<text text-anchor="middle" x="3042.5" y="-749.97" font-family="Helvetica,sans-Serif" font-size="10.00">::string_ref, &amp;FiniteElement::getNameRef &gt; &gt; &gt; &gt;</text>
</a>
</g>
</g>
<!-- Node4&#45;&gt;Node15 -->
<g id="edge18" class="edge">
<title>Node4&#45;&gt;Node15</title>
<path fill="none" stroke="orange" stroke-dasharray="5,2" d="M67.79,-695.55C76.03,-727.81 97.45,-791.23 143,-817.97 145.96,-819.71 2117.57,-820.97 2121,-820.97 2402.46,-821.65 2732.34,-822.81 2910.79,-823.48"/>
<polygon fill="orange" stroke="orange" points="71.13,-694.47 65.41,-685.55 64.32,-696.09 71.13,-694.47"/>
<text text-anchor="start" x="1597" y="-955.97" font-family="Helvetica,sans-Serif" font-size="10.00"> &lt; boost::shared_ptr</text>
<text text-anchor="start" x="1597" y="-944.97" font-family="Helvetica,sans-Serif" font-size="10.00">&lt; FiniteElement &gt;, indexed</text>
<text text-anchor="start" x="1597" y="-933.97" font-family="Helvetica,sans-Serif" font-size="10.00">_by&lt; hashed_unique&lt; tag</text>
<text text-anchor="start" x="1597" y="-922.97" font-family="Helvetica,sans-Serif" font-size="10.00">&lt; FiniteElement_Meshset_mi</text>
<text text-anchor="start" x="1597" y="-911.97" font-family="Helvetica,sans-Serif" font-size="10.00">_tag &gt;, member&lt; FiniteElement,</text>
<text text-anchor="start" x="1597" y="-900.97" font-family="Helvetica,sans-Serif" font-size="10.00"> EntityHandle, &amp;FiniteElement</text>
<text text-anchor="start" x="1597" y="-889.97" font-family="Helvetica,sans-Serif" font-size="10.00">::meshset &gt; &gt;, hashed_unique&lt;</text>
<text text-anchor="start" x="1597" y="-878.97" font-family="Helvetica,sans-Serif" font-size="10.00"> tag&lt; BitFEId_mi_tag &gt;, const_mem</text>
<text text-anchor="start" x="1597" y="-867.97" font-family="Helvetica,sans-Serif" font-size="10.00">_fun&lt; FiniteElement, BitFEId, &amp;FiniteElement</text>
<text text-anchor="start" x="1597" y="-856.97" font-family="Helvetica,sans-Serif" font-size="10.00">::getId &gt;, HashBit&lt; BitFEId &gt;, EqBit&lt; BitFEId</text>
<text text-anchor="start" x="1597" y="-845.97" font-family="Helvetica,sans-Serif" font-size="10.00"> &gt; &gt;, ordered_unique&lt; tag&lt; FiniteElement_name</text>
<text text-anchor="start" x="1597" y="-834.97" font-family="Helvetica,sans-Serif" font-size="10.00">_mi_tag &gt;, const_mem_fun&lt; FiniteElement, boost</text>
<text text-anchor="middle" x="1720.5" y="-823.97" font-family="Helvetica,sans-Serif" font-size="10.00">::string_ref, &amp;FiniteElement::getNameRef &gt; &gt; &gt; &gt;</text>
</g>
<!-- Node17 -->
<g id="node17" class="node">
<title>Node17</title>
<g id="a_node17"><a xlink:title=" ">
<polygon fill="white" stroke="#bfbfbf" points="1598,-671.47 1598,-800.47 1843,-800.47 1843,-671.47 1598,-671.47"/>
<text text-anchor="start" x="1606" y="-788.47" font-family="Helvetica,sans-Serif" font-size="10.00">multi_index_container</text>
<text text-anchor="start" x="1606" y="-777.47" font-family="Helvetica,sans-Serif" font-size="10.00">&lt; boost::shared_ptr&lt;</text>
<text text-anchor="start" x="1606" y="-766.47" font-family="Helvetica,sans-Serif" font-size="10.00"> EntFiniteElement &gt;, indexed</text>
<text text-anchor="start" x="1606" y="-755.47" font-family="Helvetica,sans-Serif" font-size="10.00">_by&lt; ordered_unique&lt; tag&lt;</text>
<text text-anchor="start" x="1606" y="-744.47" font-family="Helvetica,sans-Serif" font-size="10.00"> Unique_mi_tag &gt;, const_mem</text>
<text text-anchor="start" x="1606" y="-733.47" font-family="Helvetica,sans-Serif" font-size="10.00">_fun&lt; EntFiniteElement, UId,</text>
<text text-anchor="start" x="1606" y="-722.47" font-family="Helvetica,sans-Serif" font-size="10.00"> &amp;EntFiniteElement::getLocalUniqueId</text>
<text text-anchor="start" x="1606" y="-711.47" font-family="Helvetica,sans-Serif" font-size="10.00"> &gt; &gt;, ordered_non_unique&lt; tag&lt; Ent</text>
<text text-anchor="start" x="1606" y="-700.47" font-family="Helvetica,sans-Serif" font-size="10.00">_mi_tag &gt;, const_mem_fun&lt; EntFiniteElement</text>
<text text-anchor="start" x="1606" y="-689.47" font-family="Helvetica,sans-Serif" font-size="10.00">::interface_type_RefEntity, EntityHandle,</text>
<text text-anchor="middle" x="1720.5" y="-678.47" font-family="Helvetica,sans-Serif" font-size="10.00"> &amp;EntFiniteElement::getEnt &gt; &gt; &gt; &gt;</text>
</a>
</g>
</g>
<!-- Node4&#45;&gt;Node17 -->
<g id="edge21" class="edge">
<title>Node4&#45;&gt;Node17</title>
<path fill="none" stroke="orange" stroke-dasharray="5,2" d="M135.37,-675.37C337.33,-673.97 897.33,-672.34 928,-696.97 954.05,-717.9 919.69,-749.37 946,-769.97 1070.55,-867.55 1143.91,-776.4 1302,-769.97 1401.73,-765.92 1514.53,-756.44 1597.72,-748.52"/>
<polygon fill="orange" stroke="orange" points="135.14,-671.87 125.16,-675.44 135.19,-678.87 135.14,-671.87"/>
<text text-anchor="start" x="436" y="-809.97" font-family="Helvetica,sans-Serif" font-size="10.00"> &lt; boost::shared_ptr</text>
<text text-anchor="start" x="436" y="-798.97" font-family="Helvetica,sans-Serif" font-size="10.00">&lt; EntFiniteElement &gt;</text>
<text text-anchor="start" x="436" y="-787.97" font-family="Helvetica,sans-Serif" font-size="10.00">, indexed_by&lt; ordered</text>
<text text-anchor="start" x="436" y="-776.97" font-family="Helvetica,sans-Serif" font-size="10.00">_unique&lt; tag&lt; Unique_mi</text>
<text text-anchor="start" x="436" y="-765.97" font-family="Helvetica,sans-Serif" font-size="10.00">_tag &gt;, const_mem_fun&lt; EntFinite</text>
<text text-anchor="start" x="436" y="-754.97" font-family="Helvetica,sans-Serif" font-size="10.00">Element, UId, &amp;EntFiniteElement</text>
<text text-anchor="start" x="436" y="-743.97" font-family="Helvetica,sans-Serif" font-size="10.00">::getLocalUniqueId &gt; &gt;, ordered</text>
<text text-anchor="start" x="436" y="-732.97" font-family="Helvetica,sans-Serif" font-size="10.00">_non_unique&lt; tag&lt; Ent_mi_tag &gt;,</text>
<text text-anchor="start" x="436" y="-721.97" font-family="Helvetica,sans-Serif" font-size="10.00"> const_mem_fun&lt; EntFiniteElement</text>
<text text-anchor="start" x="436" y="-710.97" font-family="Helvetica,sans-Serif" font-size="10.00">::interface_type_RefEntity, EntityHandle,</text>
<text text-anchor="middle" x="535.5" y="-699.97" font-family="Helvetica,sans-Serif" font-size="10.00"> &amp;EntFiniteElement::getEnt &gt; &gt; &gt; &gt;</text>
</g>
<!-- Node19 -->
<g id="node19" class="node">
<title>Node19</title>
<g id="a_node19"><a xlink:title=" ">
<polygon fill="white" stroke="#bfbfbf" points="2139,-608.47 2139,-737.47 2341,-737.47 2341,-608.47 2139,-608.47"/>
<text text-anchor="start" x="2147" y="-725.47" font-family="Helvetica,sans-Serif" font-size="10.00">multi_index_container</text>
<text text-anchor="start" x="2147" y="-714.47" font-family="Helvetica,sans-Serif" font-size="10.00">&lt; boost::shared_ptr&lt;</text>
<text text-anchor="start" x="2147" y="-703.47" font-family="Helvetica,sans-Serif" font-size="10.00"> DofEntity &gt;, indexed</text>
<text text-anchor="start" x="2147" y="-692.47" font-family="Helvetica,sans-Serif" font-size="10.00">_by&lt; ordered_unique&lt; tag</text>
<text text-anchor="start" x="2147" y="-681.47" font-family="Helvetica,sans-Serif" font-size="10.00">&lt; Unique_mi_tag &gt;, const</text>
<text text-anchor="start" x="2147" y="-670.47" font-family="Helvetica,sans-Serif" font-size="10.00">_mem_fun&lt; DofEntity, UId,</text>
<text text-anchor="start" x="2147" y="-659.47" font-family="Helvetica,sans-Serif" font-size="10.00"> &amp;DofEntity::getLocalUniqueId</text>
<text text-anchor="start" x="2147" y="-648.47" font-family="Helvetica,sans-Serif" font-size="10.00"> &gt; &gt;, ordered_non_unique&lt; tag</text>
<text text-anchor="start" x="2147" y="-637.47" font-family="Helvetica,sans-Serif" font-size="10.00">&lt; Ent_mi_tag &gt;, const_mem_fun</text>
<text text-anchor="start" x="2147" y="-626.47" font-family="Helvetica,sans-Serif" font-size="10.00">&lt; DofEntity, EntityHandle, &amp;DofEntity</text>
<text text-anchor="middle" x="2240" y="-615.47" font-family="Helvetica,sans-Serif" font-size="10.00">::getEnt &gt; &gt; &gt; &gt;</text>
</a>
</g>
</g>
<!-- Node4&#45;&gt;Node19 -->
<g id="edge24" class="edge">
<title>Node4&#45;&gt;Node19</title>
<path fill="none" stroke="orange" stroke-dasharray="5,2" d="M135.26,-670.37C137.87,-670.22 140.46,-670.09 143,-669.97 499.56,-653.42 589.07,-659.09 946,-655.97 1390.77,-652.1 1921.56,-664.4 2138.82,-670.17"/>
<polygon fill="orange" stroke="orange" points="134.88,-666.88 125.11,-670.97 135.3,-673.87 134.88,-666.88"/>
<text text-anchor="start" x="1031" y="-757.97" font-family="Helvetica,sans-Serif" font-size="10.00"> &lt; boost::shared_ptr</text>
<text text-anchor="start" x="1031" y="-746.97" font-family="Helvetica,sans-Serif" font-size="10.00">&lt; DofEntity &gt;, indexed</text>
<text text-anchor="start" x="1031" y="-735.97" font-family="Helvetica,sans-Serif" font-size="10.00">_by&lt; ordered_unique&lt; tag</text>
<text text-anchor="start" x="1031" y="-724.97" font-family="Helvetica,sans-Serif" font-size="10.00">&lt; Unique_mi_tag &gt;, const</text>
<text text-anchor="start" x="1031" y="-713.97" font-family="Helvetica,sans-Serif" font-size="10.00">_mem_fun&lt; DofEntity, UId,</text>
<text text-anchor="start" x="1031" y="-702.97" font-family="Helvetica,sans-Serif" font-size="10.00"> &amp;DofEntity::getLocalUniqueId</text>
<text text-anchor="start" x="1031" y="-691.97" font-family="Helvetica,sans-Serif" font-size="10.00"> &gt; &gt;, ordered_non_unique&lt; tag</text>
<text text-anchor="start" x="1031" y="-680.97" font-family="Helvetica,sans-Serif" font-size="10.00">&lt; Ent_mi_tag &gt;, const_mem_fun</text>
<text text-anchor="start" x="1031" y="-669.97" font-family="Helvetica,sans-Serif" font-size="10.00">&lt; DofEntity, EntityHandle, &amp;DofEntity</text>
<text text-anchor="middle" x="1124" y="-658.97" font-family="Helvetica,sans-Serif" font-size="10.00">::getEnt &gt; &gt; &gt; &gt;</text>
</g>
<!-- Node21 -->
<g id="node21" class="node">
<title>Node21</title>
<g id="a_node21"><a xlink:title=" ">
<polygon fill="white" stroke="#bfbfbf" points="2418.5,-554.97 2418.5,-650.97 2585.5,-650.97 2585.5,-554.97 2418.5,-554.97"/>
<text text-anchor="start" x="2426.5" y="-638.97" font-family="Helvetica,sans-Serif" font-size="10.00">multi_index_container</text>
<text text-anchor="start" x="2426.5" y="-627.97" font-family="Helvetica,sans-Serif" font-size="10.00">&lt; boost::shared_ptr&lt;</text>
<text text-anchor="start" x="2426.5" y="-616.97" font-family="Helvetica,sans-Serif" font-size="10.00"> RefElement &gt;, indexed</text>
<text text-anchor="start" x="2426.5" y="-605.97" font-family="Helvetica,sans-Serif" font-size="10.00">_by&lt; ordered_unique&lt; tag</text>
<text text-anchor="start" x="2426.5" y="-594.97" font-family="Helvetica,sans-Serif" font-size="10.00">&lt; Ent_mi_tag &gt;, const_mem</text>
<text text-anchor="start" x="2426.5" y="-583.97" font-family="Helvetica,sans-Serif" font-size="10.00">_fun&lt; RefElement::interface</text>
<text text-anchor="start" x="2426.5" y="-572.97" font-family="Helvetica,sans-Serif" font-size="10.00">_type_RefEntity, EntityHandle,</text>
<text text-anchor="middle" x="2502" y="-561.97" font-family="Helvetica,sans-Serif" font-size="10.00"> &amp;RefElement::getEnt &gt; &gt; &gt; &gt;</text>
</a>
</g>
</g>
<!-- Node4&#45;&gt;Node21 -->
<g id="edge27" class="edge">
<title>Node4&#45;&gt;Node21</title>
<path fill="none" stroke="orange" stroke-dasharray="5,2" d="M100.17,-663.26C113.51,-659.08 128.8,-654.78 143,-651.97 494.77,-582.49 587.85,-591.33 946,-573.97 1104.04,-566.32 1159.76,-504.67 1302,-573.97 1313.67,-579.66 1308.34,-591.28 1320,-596.97 1323.19,-598.53 2337.46,-598.93 2341,-598.97 2366.14,-599.31 2393.51,-599.91 2418.38,-600.54"/>
<polygon fill="orange" stroke="orange" points="98.84,-660.01 90.39,-666.42 100.99,-666.68 98.84,-660.01"/>
<text text-anchor="start" x="1048.5" y="-642.97" font-family="Helvetica,sans-Serif" font-size="10.00"> &lt; boost::shared_ptr</text>
<text text-anchor="start" x="1048.5" y="-631.97" font-family="Helvetica,sans-Serif" font-size="10.00">&lt; RefElement &gt;, indexed</text>
<text text-anchor="start" x="1048.5" y="-620.97" font-family="Helvetica,sans-Serif" font-size="10.00">_by&lt; ordered_unique&lt; tag</text>
<text text-anchor="start" x="1048.5" y="-609.97" font-family="Helvetica,sans-Serif" font-size="10.00">&lt; Ent_mi_tag &gt;, const_mem</text>
<text text-anchor="start" x="1048.5" y="-598.97" font-family="Helvetica,sans-Serif" font-size="10.00">_fun&lt; RefElement::interface</text>
<text text-anchor="start" x="1048.5" y="-587.97" font-family="Helvetica,sans-Serif" font-size="10.00">_type_RefEntity, EntityHandle,</text>
<text text-anchor="middle" x="1124" y="-576.97" font-family="Helvetica,sans-Serif" font-size="10.00"> &amp;RefElement::getEnt &gt; &gt; &gt; &gt;</text>
</g>
<!-- Node26 -->
<g id="node26" class="node">
<title>Node26</title>
<g id="a_node26"><a xlink:title=" ">
<polygon fill="white" stroke="#bfbfbf" points="2663,-470.97 2663,-588.97 2893,-588.97 2893,-470.97 2663,-470.97"/>
<text text-anchor="start" x="2671" y="-576.97" font-family="Helvetica,sans-Serif" font-size="10.00">multi_index_container</text>
<text text-anchor="start" x="2671" y="-565.97" font-family="Helvetica,sans-Serif" font-size="10.00">&lt; boost::shared_ptr&lt;</text>
<text text-anchor="start" x="2671" y="-554.97" font-family="Helvetica,sans-Serif" font-size="10.00"> FieldEntity &gt;, indexed</text>
<text text-anchor="start" x="2671" y="-543.97" font-family="Helvetica,sans-Serif" font-size="10.00">_by&lt; ordered_unique&lt; tag</text>
<text text-anchor="start" x="2671" y="-532.97" font-family="Helvetica,sans-Serif" font-size="10.00">&lt; Unique_mi_tag &gt;, member</text>
<text text-anchor="start" x="2671" y="-521.97" font-family="Helvetica,sans-Serif" font-size="10.00">&lt; FieldEntity, UId, &amp;FieldEntity</text>
<text text-anchor="start" x="2671" y="-510.97" font-family="Helvetica,sans-Serif" font-size="10.00">::localUId &gt; &gt;, ordered_non_unique</text>
<text text-anchor="start" x="2671" y="-499.97" font-family="Helvetica,sans-Serif" font-size="10.00">&lt; tag&lt; Ent_mi_tag &gt;, const_mem_fun</text>
<text text-anchor="start" x="2671" y="-488.97" font-family="Helvetica,sans-Serif" font-size="10.00">&lt; FieldEntity::interface_type_RefEntity,</text>
<text text-anchor="middle" x="2778" y="-477.97" font-family="Helvetica,sans-Serif" font-size="10.00"> EntityHandle, &amp;FieldEntity::getEnt &gt; &gt; &gt; &gt;</text>
</a>
</g>
</g>
<!-- Node4&#45;&gt;Node26 -->
<g id="edge34" class="edge">
<title>Node4&#45;&gt;Node26</title>
<path fill="none" stroke="orange" stroke-dasharray="5,2" d="M71.38,-657.31C82.99,-632.44 107.26,-589.31 143,-569.97 336.45,-465.32 1901.14,-487.95 2121,-493.97 2311.12,-499.19 2531.89,-512.88 2662.72,-521.8"/>
<polygon fill="orange" stroke="orange" points="68.18,-655.89 67.3,-666.44 74.57,-658.74 68.18,-655.89"/>
<text text-anchor="start" x="1613.5" y="-584.97" font-family="Helvetica,sans-Serif" font-size="10.00"> &lt; boost::shared_ptr</text>
<text text-anchor="start" x="1613.5" y="-573.97" font-family="Helvetica,sans-Serif" font-size="10.00">&lt; FieldEntity &gt;, indexed</text>
<text text-anchor="start" x="1613.5" y="-562.97" font-family="Helvetica,sans-Serif" font-size="10.00">_by&lt; ordered_unique&lt; tag</text>
<text text-anchor="start" x="1613.5" y="-551.97" font-family="Helvetica,sans-Serif" font-size="10.00">&lt; Unique_mi_tag &gt;, member</text>
<text text-anchor="start" x="1613.5" y="-540.97" font-family="Helvetica,sans-Serif" font-size="10.00">&lt; FieldEntity, UId, &amp;FieldEntity</text>
<text text-anchor="start" x="1613.5" y="-529.97" font-family="Helvetica,sans-Serif" font-size="10.00">::localUId &gt; &gt;, ordered_non_unique</text>
<text text-anchor="start" x="1613.5" y="-518.97" font-family="Helvetica,sans-Serif" font-size="10.00">&lt; tag&lt; Ent_mi_tag &gt;, const_mem_fun</text>
<text text-anchor="start" x="1613.5" y="-507.97" font-family="Helvetica,sans-Serif" font-size="10.00">&lt; FieldEntity::interface_type_RefEntity,</text>
<text text-anchor="middle" x="1720.5" y="-496.97" font-family="Helvetica,sans-Serif" font-size="10.00"> EntityHandle, &amp;FieldEntity::getEnt &gt; &gt; &gt; &gt;</text>
</g>
<!-- Node29 -->
<g id="node29" class="node">
<title>Node29</title>
<g id="a_node29"><a xlink:title=" ">
<polygon fill="white" stroke="#bfbfbf" points="2918,-424.97 2918,-564.97 3167,-564.97 3167,-424.97 2918,-424.97"/>
<text text-anchor="start" x="2926" y="-552.97" font-family="Helvetica,sans-Serif" font-size="10.00">multi_index_container</text>
<text text-anchor="start" x="2926" y="-541.97" font-family="Helvetica,sans-Serif" font-size="10.00">&lt; Problem, indexed_by</text>
<text text-anchor="start" x="2926" y="-530.97" font-family="Helvetica,sans-Serif" font-size="10.00">&lt; ordered_unique&lt; tag</text>
<text text-anchor="start" x="2926" y="-519.97" font-family="Helvetica,sans-Serif" font-size="10.00">&lt; Meshset_mi_tag &gt;, member</text>
<text text-anchor="start" x="2926" y="-508.97" font-family="Helvetica,sans-Serif" font-size="10.00">&lt; Problem, EntityHandle, &amp;Problem</text>
<text text-anchor="start" x="2926" y="-497.97" font-family="Helvetica,sans-Serif" font-size="10.00">::meshset &gt; &gt;, hashed_unique&lt; tag</text>
<text text-anchor="start" x="2926" y="-486.97" font-family="Helvetica,sans-Serif" font-size="10.00">&lt; BitProblemId_mi_tag &gt;, const_mem</text>
<text text-anchor="start" x="2926" y="-475.97" font-family="Helvetica,sans-Serif" font-size="10.00">_fun&lt; Problem, BitProblemId, &amp;Problem</text>
<text text-anchor="start" x="2926" y="-464.97" font-family="Helvetica,sans-Serif" font-size="10.00">::getId &gt;, HashBit&lt; BitProblemId &gt;, EqBit</text>
<text text-anchor="start" x="2926" y="-453.97" font-family="Helvetica,sans-Serif" font-size="10.00">&lt; BitProblemId &gt; &gt;, hashed_unique&lt; tag&lt;</text>
<text text-anchor="start" x="2926" y="-442.97" font-family="Helvetica,sans-Serif" font-size="10.00"> Problem_mi_tag &gt;, const_mem_fun&lt; Problem,</text>
<text text-anchor="middle" x="3042.5" y="-431.97" font-family="Helvetica,sans-Serif" font-size="10.00"> std::string, &amp;Problem::getName &gt; &gt; &gt; &gt;</text>
</a>
</g>
</g>
<!-- Node4&#45;&gt;Node29 -->
<g id="edge38" class="edge">
<title>Node4&#45;&gt;Node29</title>
<path fill="none" stroke="orange" stroke-dasharray="5,2" d="M65.57,-656.24C70.79,-617.43 88.25,-531.45 143,-490.97 354.56,-334.57 1057.29,-377.22 1320,-362.97 1675.48,-343.7 1765.71,-340.51 2121,-362.97 2466.18,-384.8 2552.46,-400.53 2893,-460.97 2901.07,-462.41 2909.37,-463.99 2917.71,-465.67"/>
<polygon fill="orange" stroke="orange" points="62.09,-655.91 64.36,-666.26 69.03,-656.75 62.09,-655.91"/>
<text text-anchor="start" x="1586.5" y="-475.97" font-family="Helvetica,sans-Serif" font-size="10.00"> &lt; Problem, indexed</text>
<text text-anchor="start" x="1586.5" y="-464.97" font-family="Helvetica,sans-Serif" font-size="10.00">_by&lt; ordered_unique</text>
<text text-anchor="start" x="1586.5" y="-453.97" font-family="Helvetica,sans-Serif" font-size="10.00">&lt; tag&lt; Meshset_mi_tag</text>
<text text-anchor="start" x="1586.5" y="-442.97" font-family="Helvetica,sans-Serif" font-size="10.00"> &gt;, member&lt; Problem, EntityHandle,</text>
<text text-anchor="start" x="1586.5" y="-431.97" font-family="Helvetica,sans-Serif" font-size="10.00"> &amp;Problem::meshset &gt; &gt;, hashed</text>
<text text-anchor="start" x="1586.5" y="-420.97" font-family="Helvetica,sans-Serif" font-size="10.00">_unique&lt; tag&lt; BitProblemId_mi_tag</text>
<text text-anchor="start" x="1586.5" y="-409.97" font-family="Helvetica,sans-Serif" font-size="10.00"> &gt;, const_mem_fun&lt; Problem, BitProblemId,</text>
<text text-anchor="start" x="1586.5" y="-398.97" font-family="Helvetica,sans-Serif" font-size="10.00"> &amp;Problem::getId &gt;, HashBit&lt; BitProblemId</text>
<text text-anchor="start" x="1586.5" y="-387.97" font-family="Helvetica,sans-Serif" font-size="10.00"> &gt;, EqBit&lt; BitProblemId &gt; &gt;, hashed_unique</text>
<text text-anchor="start" x="1586.5" y="-376.97" font-family="Helvetica,sans-Serif" font-size="10.00">&lt; tag&lt; Problem_mi_tag &gt;, const_mem_fun&lt; Problem,</text>
<text text-anchor="middle" x="1720.5" y="-365.97" font-family="Helvetica,sans-Serif" font-size="10.00"> std::string, &amp;Problem::getName &gt; &gt; &gt; &gt;</text>
</g>
<!-- Node30 -->
<g id="node30" class="node">
<title>Node30</title>
<g id="a_node30"><a xlink:title=" ">
<polygon fill="white" stroke="#bfbfbf" points="946,-69.47 946,-286.47 1302,-286.47 1302,-69.47 946,-69.47"/>
<text text-anchor="start" x="954" y="-274.47" font-family="Helvetica,sans-Serif" font-size="10.00">multi_index_container</text>
<text text-anchor="start" x="954" y="-263.47" font-family="Helvetica,sans-Serif" font-size="10.00">&lt; boost::shared_ptr&lt;</text>
<text text-anchor="start" x="954" y="-252.47" font-family="Helvetica,sans-Serif" font-size="10.00"> RefEntity &gt;, indexed</text>
<text text-anchor="start" x="954" y="-241.47" font-family="Helvetica,sans-Serif" font-size="10.00">_by&lt; ordered_unique&lt; tag</text>
<text text-anchor="start" x="954" y="-230.47" font-family="Helvetica,sans-Serif" font-size="10.00">&lt; Ent_mi_tag &gt;, const_mem</text>
<text text-anchor="start" x="954" y="-219.47" font-family="Helvetica,sans-Serif" font-size="10.00">_fun&lt; RefEntity, EntityHandle,</text>
<text text-anchor="start" x="954" y="-208.47" font-family="Helvetica,sans-Serif" font-size="10.00"> &amp;RefEntity::getEnt &gt; &gt;, ordered</text>
<text text-anchor="start" x="954" y="-197.47" font-family="Helvetica,sans-Serif" font-size="10.00">_non_unique&lt; tag&lt; Ent_Ent_mi_tag</text>
<text text-anchor="start" x="954" y="-186.47" font-family="Helvetica,sans-Serif" font-size="10.00"> &gt;, const_mem_fun&lt; RefEntity, EntityHandle,</text>
<text text-anchor="start" x="954" y="-175.47" font-family="Helvetica,sans-Serif" font-size="10.00"> &amp;RefEntity::getParentEnt &gt; &gt;, ordered</text>
<text text-anchor="start" x="954" y="-164.47" font-family="Helvetica,sans-Serif" font-size="10.00">_non_unique&lt; tag&lt; Composite_EntType_and</text>
<text text-anchor="start" x="954" y="-153.47" font-family="Helvetica,sans-Serif" font-size="10.00">_ParentEntType_mi_tag &gt;, composite_key&lt; RefEntity,</text>
<text text-anchor="start" x="954" y="-142.47" font-family="Helvetica,sans-Serif" font-size="10.00"> const_mem_fun&lt; RefEntity, EntityType, &amp;RefEntity</text>
<text text-anchor="start" x="954" y="-131.47" font-family="Helvetica,sans-Serif" font-size="10.00">::getEntType &gt;, const_mem_fun&lt; RefEntity, EntityType,</text>
<text text-anchor="start" x="954" y="-120.47" font-family="Helvetica,sans-Serif" font-size="10.00"> &amp;RefEntity::getParentEntType &gt; &gt; &gt;, ordered_non_unique</text>
<text text-anchor="start" x="954" y="-109.47" font-family="Helvetica,sans-Serif" font-size="10.00">&lt; tag&lt; Composite_ParentEnt_And_EntType_mi_tag &gt;, composite</text>
<text text-anchor="start" x="954" y="-98.47" font-family="Helvetica,sans-Serif" font-size="10.00">_key&lt; RefEntity, const_mem_fun&lt; RefEntity, EntityType, &amp;RefEntity</text>
<text text-anchor="start" x="954" y="-87.47" font-family="Helvetica,sans-Serif" font-size="10.00">::getEntType &gt;, const_mem_fun&lt; RefEntity, EntityHandle, &amp;RefEntity</text>
<text text-anchor="middle" x="1124" y="-76.47" font-family="Helvetica,sans-Serif" font-size="10.00">::getParentEnt &gt; &gt; &gt; &gt; &gt;</text>
</a>
</g>
</g>
<!-- Node4&#45;&gt;Node30 -->
<g id="edge40" class="edge">
<title>Node4&#45;&gt;Node30</title>
<path fill="none" stroke="orange" stroke-dasharray="5,2" d="M63.18,-656.14C62.22,-567.58 63.37,-209.64 143,-140.97 364.29,49.86 729.33,-31.81 945.92,-106.37"/>
<polygon fill="orange" stroke="orange" points="59.69,-656.44 63.32,-666.39 66.68,-656.34 59.69,-656.44"/>
<text text-anchor="start" x="365.5" y="-330.97" font-family="Helvetica,sans-Serif" font-size="10.00"> &lt; boost::shared_ptr</text>
<text text-anchor="start" x="365.5" y="-319.97" font-family="Helvetica,sans-Serif" font-size="10.00">&lt; RefEntity &gt;, indexed</text>
<text text-anchor="start" x="365.5" y="-308.97" font-family="Helvetica,sans-Serif" font-size="10.00">_by&lt; ordered_unique&lt; tag</text>
<text text-anchor="start" x="365.5" y="-297.97" font-family="Helvetica,sans-Serif" font-size="10.00">&lt; Ent_mi_tag &gt;, const_mem</text>
<text text-anchor="start" x="365.5" y="-286.97" font-family="Helvetica,sans-Serif" font-size="10.00">_fun&lt; RefEntity, EntityHandle,</text>
<text text-anchor="start" x="365.5" y="-275.97" font-family="Helvetica,sans-Serif" font-size="10.00"> &amp;RefEntity::getEnt &gt; &gt;, ordered</text>
<text text-anchor="start" x="365.5" y="-264.97" font-family="Helvetica,sans-Serif" font-size="10.00">_non_unique&lt; tag&lt; Ent_Ent_mi_tag</text>
<text text-anchor="start" x="365.5" y="-253.97" font-family="Helvetica,sans-Serif" font-size="10.00"> &gt;, const_mem_fun&lt; RefEntity, EntityHandle,</text>
<text text-anchor="start" x="365.5" y="-242.97" font-family="Helvetica,sans-Serif" font-size="10.00"> &amp;RefEntity::getParentEnt &gt; &gt;, ordered</text>
<text text-anchor="start" x="365.5" y="-231.97" font-family="Helvetica,sans-Serif" font-size="10.00">_non_unique&lt; tag&lt; Composite_EntType_and</text>
<text text-anchor="start" x="365.5" y="-220.97" font-family="Helvetica,sans-Serif" font-size="10.00">_ParentEntType_mi_tag &gt;, composite_key&lt; RefEntity,</text>
<text text-anchor="start" x="365.5" y="-209.97" font-family="Helvetica,sans-Serif" font-size="10.00"> const_mem_fun&lt; RefEntity, EntityType, &amp;RefEntity</text>
<text text-anchor="start" x="365.5" y="-198.97" font-family="Helvetica,sans-Serif" font-size="10.00">::getEntType &gt;, const_mem_fun&lt; RefEntity, EntityType,</text>
<text text-anchor="start" x="365.5" y="-187.97" font-family="Helvetica,sans-Serif" font-size="10.00"> &amp;RefEntity::getParentEntType &gt; &gt; &gt;, ordered_non_unique</text>
<text text-anchor="start" x="365.5" y="-176.97" font-family="Helvetica,sans-Serif" font-size="10.00">&lt; tag&lt; Composite_ParentEnt_And_EntType_mi_tag &gt;, composite</text>
<text text-anchor="start" x="365.5" y="-165.97" font-family="Helvetica,sans-Serif" font-size="10.00">_key&lt; RefEntity, const_mem_fun&lt; RefEntity, EntityType, &amp;RefEntity</text>
<text text-anchor="start" x="365.5" y="-154.97" font-family="Helvetica,sans-Serif" font-size="10.00">::getEntType &gt;, const_mem_fun&lt; RefEntity, EntityHandle, &amp;RefEntity</text>
<text text-anchor="middle" x="535.5" y="-143.97" font-family="Helvetica,sans-Serif" font-size="10.00">::getParentEnt &gt; &gt; &gt; &gt; &gt;</text>
</g>
<!-- Node5 -->
<g id="node5" class="node">
<title>Node5</title>
<g id="a_node5"><a xlink:title=" ">
<polygon fill="white" stroke="#bfbfbf" points="3282.5,-1121.47 3282.5,-1140.47 3326.5,-1140.47 3326.5,-1121.47 3282.5,-1121.47"/>
<text text-anchor="middle" x="3304.5" y="-1128.47" font-family="Helvetica,sans-Serif" font-size="10.00">string</text>
</a>
</g>
</g>
<!-- Node5&#45;&gt;Node1 -->
<g id="edge4" class="edge">
<title>Node5&#45;&gt;Node1</title>
<path fill="none" stroke="#9a32cd" stroke-dasharray="5,2" d="M3336.65,-1137.77C3392.21,-1148.19 3510.4,-1162.43 3594,-1116.97 3814.48,-997.1 3934.27,-679.43 3955.18,-619.72"/>
<polygon fill="#9a32cd" stroke="#9a32cd" points="3337.2,-1134.32 3326.72,-1135.83 3335.86,-1141.19 3337.2,-1134.32"/>
<text text-anchor="middle" x="3689.5" y="-1104.97" font-family="Helvetica,sans-Serif" font-size="10.00"> petscStringCache</text>
</g>
<!-- Node9 -->
<g id="node9" class="node">
<title>Node9</title>
<g id="a_node9"><a xlink:href="structMoFEM_1_1CoreTmp_3_010_01_4.html" target="_top" xlink:title="Core (interface) class.">
<polygon fill="white" stroke="black" points="3624,-622.47 3624,-641.47 3755,-641.47 3755,-622.47 3624,-622.47"/>
<text text-anchor="middle" x="3689.5" y="-629.47" font-family="Helvetica,sans-Serif" font-size="10.00">MoFEM::CoreTmp&lt; 0 &gt;</text>
</a>
</g>
</g>
<!-- Node5&#45;&gt;Node9 -->
<g id="edge30" class="edge">
<title>Node5&#45;&gt;Node9</title>
<path fill="none" stroke="#9a32cd" stroke-dasharray="5,2" d="M3336.66,-1126.97C3359.17,-1123.76 3390.2,-1118.68 3417,-1111.97 3425.18,-1109.93 3426.79,-1107.92 3435,-1105.97 3469.74,-1097.74 3567.97,-1107.41 3594,-1082.97 3661.5,-1019.59 3684.2,-702.03 3687.92,-641.83"/>
<polygon fill="#9a32cd" stroke="#9a32cd" points="3336.09,-1123.51 3326.66,-1128.35 3337.05,-1130.45 3336.09,-1123.51"/>
<text text-anchor="middle" x="3514.5" y="-1108.97" font-family="Helvetica,sans-Serif" font-size="10.00"> optionsPrefix</text>
</g>
<!-- Node6 -->
<g id="node6" class="node">
<title>Node6</title>
<g id="a_node6"><a xlink:title=" ">
<polygon fill="white" stroke="#bfbfbf" points="3612,-572.97 3612,-602.97 3767,-602.97 3767,-572.97 3612,-572.97"/>
<text text-anchor="start" x="3620" y="-590.97" font-family="Helvetica,sans-Serif" font-size="10.00">shared_ptr&lt; MoFEM::</text>
<text text-anchor="middle" x="3689.5" y="-579.97" font-family="Helvetica,sans-Serif" font-size="10.00">LogManager::InternalData &gt;</text>
</a>
</g>
</g>
<!-- Node6&#45;&gt;Node1 -->
<g id="edge5" class="edge">
<title>Node6&#45;&gt;Node1</title>
<path fill="none" stroke="#9a32cd" stroke-dasharray="5,2" d="M3777.19,-587.49C3810.11,-588.14 3847.88,-589.9 3882,-593.97 3894.26,-595.44 3907.47,-597.88 3919.41,-600.42"/>
<polygon fill="#9a32cd" stroke="#9a32cd" points="3777.2,-583.99 3767.14,-587.32 3777.08,-590.98 3777.2,-583.99"/>
<text text-anchor="middle" x="3833.5" y="-596.97" font-family="Helvetica,sans-Serif" font-size="10.00"> internalDataPtr</text>
</g>
<!-- Node7 -->
<g id="node7" class="node">
<title>Node7</title>
<g id="a_node7"><a xlink:title=" ">
<polygon fill="white" stroke="#bfbfbf" points="3652,-534.47 3652,-553.47 3727,-553.47 3727,-534.47 3652,-534.47"/>
<text text-anchor="middle" x="3689.5" y="-541.47" font-family="Helvetica,sans-Serif" font-size="10.00">static FILE *</text>
</a>
</g>
</g>
<!-- Node7&#45;&gt;Node1 -->
<g id="edge6" class="edge">
<title>Node7&#45;&gt;Node1</title>
<path fill="none" stroke="#9a32cd" stroke-dasharray="5,2" d="M3737.36,-546.69C3776.7,-549.94 3834.02,-556.97 3882,-571.97 3904.22,-578.92 3927.96,-591.64 3943,-600.44"/>
<polygon fill="#9a32cd" stroke="#9a32cd" points="3737.5,-543.19 3727.26,-545.9 3736.96,-550.17 3737.5,-543.19"/>
<text text-anchor="middle" x="3833.5" y="-574.97" font-family="Helvetica,sans-Serif" font-size="10.00"> dummy_mofem_fd</text>
</g>
<!-- Node8 -->
<g id="node8" class="node">
<title>Node8</title>
<g id="a_node8"><a xlink:title=" ">
<polygon fill="white" stroke="#bfbfbf" points="3633.5,-484.97 3633.5,-514.97 3745.5,-514.97 3745.5,-484.97 3633.5,-484.97"/>
<text text-anchor="start" x="3641.5" y="-502.97" font-family="Helvetica,sans-Serif" font-size="10.00">array&lt; char *const,</text>
<text text-anchor="middle" x="3689.5" y="-491.97" font-family="Helvetica,sans-Serif" font-size="10.00"> error+1 &gt;</text>
</a>
</g>
</g>
<!-- Node8&#45;&gt;Node1 -->
<g id="edge7" class="edge">
<title>Node8&#45;&gt;Node1</title>
<path fill="none" stroke="#9a32cd" stroke-dasharray="5,2" d="M3755.67,-503.38C3794.19,-507.58 3842.91,-516.8 3882,-536.97 3912.51,-552.72 3939.26,-584.41 3951.47,-600.35"/>
<polygon fill="#9a32cd" stroke="#9a32cd" points="3755.9,-499.89 3745.61,-502.37 3755.21,-506.85 3755.9,-499.89"/>
<text text-anchor="middle" x="3833.5" y="-539.97" font-family="Helvetica,sans-Serif" font-size="10.00"> severityStrings</text>
</g>
<!-- Node9&#45;&gt;Node1 -->
<g id="edge8" class="edge">
<title>Node9&#45;&gt;Node1</title>
<path fill="none" stroke="#9a32cd" stroke-dasharray="5,2" d="M3765.04,-625.85C3807.52,-622.37 3859.98,-618.06 3899.56,-614.81"/>
<polygon fill="#9a32cd" stroke="#9a32cd" points="3764.71,-622.37 3755.03,-626.68 3765.29,-629.35 3764.71,-622.37"/>
<text text-anchor="middle" x="3833.5" y="-625.97" font-family="Helvetica,sans-Serif" font-size="10.00"> cOre</text>
</g>
<!-- Node10 -->
<g id="node10" class="node">
<title>Node10</title>
<g id="a_node10"><a xlink:href="structMoFEM_1_1DeprecatedCoreInterface.html" target="_top" xlink:title="Deprecated interface functions.">
<polygon fill="white" stroke="black" points="3274.5,-1045.47 3274.5,-1064.47 3334.5,-1064.47 3334.5,-1045.47 3274.5,-1045.47"/>
<text text-anchor="middle" x="3304.5" y="-1052.47" font-family="Helvetica,sans-Serif" font-size="10.00">Interface</text>
</a>
</g>
</g>
<!-- Node10&#45;&gt;Node9 -->
<g id="edge9" class="edge">
<title>Node10&#45;&gt;Node9</title>
<path fill="none" stroke="midnightblue" d="M3345.16,-1053.22C3419.87,-1049.56 3575.67,-1040.07 3594,-1023.97 3654.49,-970.85 3682.57,-696.76 3687.65,-641.64"/>
<polygon fill="midnightblue" stroke="midnightblue" points="3344.57,-1049.74 3334.75,-1053.72 3344.91,-1056.74 3344.57,-1049.74"/>
</g>
<!-- Node11&#45;&gt;Node10 -->
<g id="edge10" class="edge">
<title>Node11&#45;&gt;Node10</title>
<path fill="none" stroke="midnightblue" d="M2850.99,-1105.01C2967.97,-1092.08 3194.28,-1067.05 3274.47,-1058.18"/>
<polygon fill="midnightblue" stroke="midnightblue" points="2850.26,-1101.57 2840.71,-1106.15 2851.03,-1108.53 2850.26,-1101.57"/>
</g>
<!-- Node12&#45;&gt;Node9 -->
<g id="edge12" class="edge">
<title>Node12&#45;&gt;Node9</title>
<path fill="none" stroke="#9a32cd" stroke-dasharray="5,2" d="M2131.1,-1081.8C2479.22,-1061.89 2989.13,-1011.97 3417,-886.97 3497.15,-863.56 3531.65,-879.51 3594,-823.97 3653.37,-771.09 3679.52,-672.45 3686.5,-641.51"/>
<polygon fill="#9a32cd" stroke="#9a32cd" points="2130.89,-1078.31 2121.1,-1082.37 2131.28,-1085.3 2130.89,-1078.31"/>
<text text-anchor="middle" x="2778" y="-1035.97" font-family="Helvetica,sans-Serif" font-size="10.00"> entFEAdjacencies</text>
</g>
<!-- Node13 -->
<g id="node13" class="node">
<title>Node13</title>
<g id="a_node13"><a xlink:title=" ">
<polygon fill="white" stroke="#bfbfbf" points="3272,-471.47 3272,-490.47 3337,-490.47 3337,-471.47 3272,-471.47"/>
<text text-anchor="middle" x="3304.5" y="-478.47" font-family="Helvetica,sans-Serif" font-size="10.00">PetscBool</text>
</a>
</g>
</g>
<!-- Node13&#45;&gt;Node9 -->
<g id="edge14" class="edge">
<title>Node13&#45;&gt;Node9</title>
<path fill="none" stroke="#9a32cd" stroke-dasharray="5,2" d="M3347.51,-484.61C3425.38,-491.53 3585.12,-506.64 3594,-514.97 3626.3,-545.26 3581.67,-580.71 3612,-612.97 3615.56,-616.76 3619.75,-619.85 3624.3,-622.35"/>
<polygon fill="#9a32cd" stroke="#9a32cd" points="3347.35,-481.08 3337.08,-483.69 3346.74,-488.05 3347.35,-481.08"/>
<text text-anchor="middle" x="3514.5" y="-539.97" font-family="Helvetica,sans-Serif" font-size="10.00"> initaliseAndBuildFiniteElements</text>
<text text-anchor="middle" x="3514.5" y="-528.97" font-family="Helvetica,sans-Serif" font-size="10.00">isInitialized</text>
<text text-anchor="middle" x="3514.5" y="-517.97" font-family="Helvetica,sans-Serif" font-size="10.00">initaliseAndBuildField</text>
</g>
<!-- Node14&#45;&gt;Node9 -->
<g id="edge15" class="edge">
<title>Node14&#45;&gt;Node9</title>
<path fill="none" stroke="#9a32cd" stroke-dasharray="5,2" d="M2655.28,-929.42C2791.83,-932.81 2997.28,-932 3174,-906.97 3284.58,-891.31 3310.05,-875.14 3417,-842.97 3496.54,-819.05 3528.85,-834.5 3594,-782.97 3644.45,-743.07 3675.3,-668.33 3685.1,-641.7"/>
<polygon fill="#9a32cd" stroke="#9a32cd" points="2655.25,-925.92 2645.16,-929.16 2655.07,-932.91 2655.25,-925.92"/>
<text text-anchor="middle" x="3042.5" y="-930.97" font-family="Helvetica,sans-Serif" font-size="10.00"> fIelds</text>
</g>
<!-- Node15&#45;&gt;Node9 -->
<g id="edge17" class="edge">
<title>Node15&#45;&gt;Node9</title>
<path fill="none" stroke="#9a32cd" stroke-dasharray="5,2" d="M3184.28,-829C3300.89,-827.25 3467.39,-810.65 3594,-740.97 3638.1,-716.7 3671.21,-663.35 3683.4,-641.54"/>
<polygon fill="#9a32cd" stroke="#9a32cd" points="3184.18,-825.5 3174.22,-829.12 3184.26,-832.5 3184.18,-825.5"/>
<text text-anchor="middle" x="3304.5" y="-830.97" font-family="Helvetica,sans-Serif" font-size="10.00"> finiteElements</text>
</g>
<!-- Node16 -->
<g id="node16" class="node">
<title>Node16</title>
<g id="a_node16"><a xlink:title=" ">
<polygon fill="white" stroke="#bfbfbf" points="3288,-370.47 3288,-389.47 3321,-389.47 3321,-370.47 3288,-370.47"/>
<text text-anchor="middle" x="3304.5" y="-377.47" font-family="Helvetica,sans-Serif" font-size="10.00">Tag</text>
</a>
</g>
</g>
<!-- Node16&#45;&gt;Node9 -->
<g id="edge19" class="edge">
<title>Node16&#45;&gt;Node9</title>
<path fill="none" stroke="#9a32cd" stroke-dasharray="5,2" d="M3331.12,-374.61C3394.54,-362 3556.42,-334.07 3594,-368.97 3633.83,-405.98 3576.95,-571.41 3612,-612.97 3615.35,-616.95 3619.39,-620.16 3623.85,-622.75"/>
<polygon fill="#9a32cd" stroke="#9a32cd" points="3330.25,-371.22 3321.15,-376.63 3331.64,-378.08 3330.25,-371.22"/>
<text text-anchor="middle" x="3514.5" y="-481.97" font-family="Helvetica,sans-Serif" font-size="10.00"> th_FieldId</text>
<text text-anchor="middle" x="3514.5" y="-470.97" font-family="Helvetica,sans-Serif" font-size="10.00">th_RefBitLevel_Mask</text>
<text text-anchor="middle" x="3514.5" y="-459.97" font-family="Helvetica,sans-Serif" font-size="10.00">th_ProblemName</text>
<text text-anchor="middle" x="3514.5" y="-448.97" font-family="Helvetica,sans-Serif" font-size="10.00">th_ProblemFEId</text>
<text text-anchor="middle" x="3514.5" y="-437.97" font-family="Helvetica,sans-Serif" font-size="10.00">th_FieldContinuity</text>
<text text-anchor="middle" x="3514.5" y="-426.97" font-family="Helvetica,sans-Serif" font-size="10.00">th_FieldBase</text>
<text text-anchor="middle" x="3514.5" y="-415.97" font-family="Helvetica,sans-Serif" font-size="10.00">th_ProblemGhostNbDofCol</text>
<text text-anchor="middle" x="3514.5" y="-404.97" font-family="Helvetica,sans-Serif" font-size="10.00">th_ProblemGhostNbDofRow</text>
<text text-anchor="middle" x="3514.5" y="-393.97" font-family="Helvetica,sans-Serif" font-size="10.00">th_FEIdCol</text>
<text text-anchor="middle" x="3514.5" y="-382.97" font-family="Helvetica,sans-Serif" font-size="10.00">th_RefBitEdge</text>
<text text-anchor="middle" x="3514.5" y="-371.97" font-family="Helvetica,sans-Serif" font-size="10.00">...</text>
</g>
<!-- Node17&#45;&gt;Node9 -->
<g id="edge20" class="edge">
<title>Node17&#45;&gt;Node9</title>
<path fill="none" stroke="#9a32cd" stroke-dasharray="5,2" d="M1853.57,-740.34C1935.69,-742.84 2043.48,-745.72 2139,-746.97 2707.58,-754.46 2849.81,-727.34 3417,-686.97 3495.75,-681.37 3517.36,-690.93 3594,-671.97 3621.84,-665.09 3652.04,-651.04 3670.62,-641.57"/>
<polygon fill="#9a32cd" stroke="#9a32cd" points="1853.53,-736.84 1843.43,-740.03 1853.32,-743.84 1853.53,-736.84"/>
<text text-anchor="middle" x="2778" y="-743.97" font-family="Helvetica,sans-Serif" font-size="10.00"> entsFiniteElements</text>
</g>
<!-- Node18 -->
<g id="node18" class="node">
<title>Node18</title>
<g id="a_node18"><a xlink:title=" ">
<polygon fill="white" stroke="#bfbfbf" points="3246.5,-320.97 3246.5,-350.97 3362.5,-350.97 3362.5,-320.97 3246.5,-320.97"/>
<text text-anchor="start" x="3254.5" y="-338.97" font-family="Helvetica,sans-Serif" font-size="10.00">reference_wrapper&lt;</text>
<text text-anchor="middle" x="3304.5" y="-327.97" font-family="Helvetica,sans-Serif" font-size="10.00"> moab::Interface &gt;</text>
</a>
</g>
</g>
<!-- Node18&#45;&gt;Node9 -->
<g id="edge22" class="edge">
<title>Node18&#45;&gt;Node9</title>
<path fill="none" stroke="#9a32cd" stroke-dasharray="5,2" d="M3373.04,-326.34C3448.26,-317.3 3563.33,-309.05 3594,-337.97 3638.55,-379.99 3572.72,-565.99 3612,-612.97 3615.34,-616.96 3619.37,-620.19 3623.81,-622.78"/>
<polygon fill="#9a32cd" stroke="#9a32cd" points="3372.2,-322.92 3362.7,-327.62 3373.06,-329.86 3372.2,-322.92"/>
<text text-anchor="middle" x="3514.5" y="-340.97" font-family="Helvetica,sans-Serif" font-size="10.00"> moab</text>
</g>
<!-- Node19&#45;&gt;Node9 -->
<g id="edge23" class="edge">
<title>Node19&#45;&gt;Node9</title>
<path fill="none" stroke="#9a32cd" stroke-dasharray="5,2" d="M2351.2,-677.95C2582.37,-686.9 3134.56,-700.48 3594,-650.97 3612.3,-649 3632.32,-645.22 3649.21,-641.54"/>
<polygon fill="#9a32cd" stroke="#9a32cd" points="2351.24,-674.45 2341.11,-677.55 2350.96,-681.44 2351.24,-674.45"/>
<text text-anchor="middle" x="3042.5" y="-688.97" font-family="Helvetica,sans-Serif" font-size="10.00"> dofsField</text>
</g>
<!-- Node20 -->
<g id="node20" class="node">
<title>Node20</title>
<g id="a_node20"><a xlink:title=" ">
<polygon fill="white" stroke="#bfbfbf" points="3258,-282.47 3258,-301.47 3351,-301.47 3351,-282.47 3258,-282.47"/>
<text text-anchor="middle" x="3304.5" y="-289.47" font-family="Helvetica,sans-Serif" font-size="10.00">ParallelComm *</text>
</a>
</g>
</g>
<!-- Node20&#45;&gt;Node9 -->
<g id="edge25" class="edge">
<title>Node20&#45;&gt;Node9</title>
<path fill="none" stroke="#9a32cd" stroke-dasharray="5,2" d="M3361.58,-290.15C3440.84,-288.17 3577.84,-287.13 3594,-302.97 3643.28,-351.28 3567.93,-559.87 3612,-612.97 3615.32,-616.98 3619.34,-620.21 3623.78,-622.81"/>
<polygon fill="#9a32cd" stroke="#9a32cd" points="3361.17,-286.66 3351.27,-290.42 3361.36,-293.66 3361.17,-286.66"/>
<text text-anchor="middle" x="3514.5" y="-305.97" font-family="Helvetica,sans-Serif" font-size="10.00"> pComm</text>
</g>
<!-- Node21&#45;&gt;Node9 -->
<g id="edge26" class="edge">
<title>Node21&#45;&gt;Node9</title>
<path fill="none" stroke="#9a32cd" stroke-dasharray="5,2" d="M2595.79,-608.11C2728.08,-615.22 2978.53,-627.86 3192,-633.97 3299.96,-637.07 3326.99,-636.31 3435,-636.97 3505.67,-637.41 3523.36,-638.84 3594,-636.97 3603.69,-636.72 3613.93,-636.31 3623.96,-635.84"/>
<polygon fill="#9a32cd" stroke="#9a32cd" points="2595.87,-604.61 2585.69,-607.57 2595.49,-611.6 2595.87,-604.61"/>
<text text-anchor="middle" x="3042.5" y="-635.97" font-family="Helvetica,sans-Serif" font-size="10.00"> refinedFiniteElements</text>
</g>
<!-- Node22 -->
<g id="node22" class="node">
<title>Node22</title>
<g id="a_node22"><a xlink:title=" ">
<polygon fill="white" stroke="#bfbfbf" points="3290,-207.47 3290,-226.47 3319,-226.47 3319,-207.47 3290,-207.47"/>
<text text-anchor="middle" x="3304.5" y="-214.47" font-family="Helvetica,sans-Serif" font-size="10.00">int</text>
</a>
</g>
</g>
<!-- Node22&#45;&gt;Node9 -->
<g id="edge28" class="edge">
<title>Node22&#45;&gt;Node9</title>
<path fill="none" stroke="#9a32cd" stroke-dasharray="5,2" d="M3329,-213.31C3390.98,-204.24 3556.69,-183.96 3594,-219.97 3625.45,-250.33 3584.29,-579.17 3612,-612.97 3615.3,-617 3619.3,-620.24 3623.73,-622.86"/>
<polygon fill="#9a32cd" stroke="#9a32cd" points="3328.38,-209.87 3319.01,-214.81 3329.42,-216.79 3328.38,-209.87"/>
<text text-anchor="middle" x="3514.5" y="-277.97" font-family="Helvetica,sans-Serif" font-size="10.00"> sIze</text>
<text text-anchor="middle" x="3514.5" y="-266.97" font-family="Helvetica,sans-Serif" font-size="10.00">mpiInitialised</text>
<text text-anchor="middle" x="3514.5" y="-255.97" font-family="Helvetica,sans-Serif" font-size="10.00">value</text>
<text text-anchor="middle" x="3514.5" y="-244.97" font-family="Helvetica,sans-Serif" font-size="10.00">verbose</text>
<text text-anchor="middle" x="3514.5" y="-233.97" font-family="Helvetica,sans-Serif" font-size="10.00">buildMoFEM</text>
<text text-anchor="middle" x="3514.5" y="-222.97" font-family="Helvetica,sans-Serif" font-size="10.00">rAnk</text>
</g>
<!-- Node23 -->
<g id="node23" class="node">
<title>Node23</title>
<g id="a_node23"><a xlink:href="classbool.html" target="_top" xlink:title=" ">
<polygon fill="white" stroke="black" points="3285.5,-169.47 3285.5,-188.47 3323.5,-188.47 3323.5,-169.47 3285.5,-169.47"/>
<text text-anchor="middle" x="3304.5" y="-176.47" font-family="Helvetica,sans-Serif" font-size="10.00">bool</text>
</a>
</g>
</g>
<!-- Node23&#45;&gt;Node9 -->
<g id="edge29" class="edge">
<title>Node23&#45;&gt;Node9</title>
<path fill="none" stroke="#9a32cd" stroke-dasharray="5,2" d="M3333.53,-174.97C3398.74,-166.35 3557.8,-149.53 3594,-184.97 3628.01,-218.27 3581.9,-576.1 3612,-612.97 3615.29,-617 3619.29,-620.25 3623.71,-622.87"/>
<polygon fill="#9a32cd" stroke="#9a32cd" points="3332.99,-171.51 3323.55,-176.32 3333.93,-178.45 3332.99,-171.51"/>
<text text-anchor="middle" x="3514.5" y="-187.97" font-family="Helvetica,sans-Serif" font-size="10.00"> isGloballyInitialised</text>
</g>
<!-- Node24 -->
<g id="node24" class="node">
<title>Node24</title>
<g id="a_node24"><a xlink:title=" ">
<polygon fill="white" stroke="#bfbfbf" points="3243.5,-119.97 3243.5,-149.97 3365.5,-149.97 3365.5,-119.97 3243.5,-119.97"/>
<text text-anchor="start" x="3251.5" y="-137.97" font-family="Helvetica,sans-Serif" font-size="10.00">shared_ptr&lt; MoFEM::</text>
<text text-anchor="middle" x="3304.5" y="-126.97" font-family="Helvetica,sans-Serif" font-size="10.00">WrapMPIComm &gt;</text>
</a>
</g>
</g>
<!-- Node24&#45;&gt;Node9 -->
<g id="edge31" class="edge">
<title>Node24&#45;&gt;Node9</title>
<path fill="none" stroke="#9a32cd" stroke-dasharray="5,2" d="M3375.97,-128.03C3451.53,-122.31 3564.64,-119.33 3594,-148.97 3630.31,-185.63 3579.44,-572.96 3612,-612.97 3615.28,-617.01 3619.28,-620.26 3623.7,-622.88"/>
<polygon fill="#9a32cd" stroke="#9a32cd" points="3375.26,-124.57 3365.57,-128.85 3375.81,-131.55 3375.26,-124.57"/>
<text text-anchor="middle" x="3514.5" y="-151.97" font-family="Helvetica,sans-Serif" font-size="10.00"> wrapMPIMOABComm</text>
</g>
<!-- Node25 -->
<g id="node25" class="node">
<title>Node25</title>
<g id="a_node25"><a xlink:title=" ">
<polygon fill="white" stroke="#bfbfbf" points="3260.5,-68.47 3260.5,-87.47 3348.5,-87.47 3348.5,-68.47 3260.5,-68.47"/>
<text text-anchor="middle" x="3304.5" y="-75.47" font-family="Helvetica,sans-Serif" font-size="10.00">PetscLogEvent</text>
</a>
</g>
</g>
<!-- Node25&#45;&gt;Node9 -->
<g id="edge32" class="edge">
<title>Node25&#45;&gt;Node9</title>
<path fill="none" stroke="#9a32cd" stroke-dasharray="5,2" d="M3358.67,-69.4C3432.77,-58.8 3561.67,-45.72 3594,-76.97 3636.84,-118.4 3574.51,-566.66 3612,-612.97 3615.27,-617.02 3619.26,-620.28 3623.67,-622.9"/>
<polygon fill="#9a32cd" stroke="#9a32cd" points="3357.98,-65.96 3348.59,-70.87 3358.99,-72.89 3357.98,-65.96"/>
<text text-anchor="middle" x="3514.5" y="-112.97" font-family="Helvetica,sans-Serif" font-size="10.00"> MOFEM_EVENT_createMat</text>
<text text-anchor="middle" x="3514.5" y="-101.97" font-family="Helvetica,sans-Serif" font-size="10.00">MOFEM_EVENT_postProcess</text>
<text text-anchor="middle" x="3514.5" y="-90.97" font-family="Helvetica,sans-Serif" font-size="10.00">MOFEM_EVENT_preProcess</text>
<text text-anchor="middle" x="3514.5" y="-79.97" font-family="Helvetica,sans-Serif" font-size="10.00">MOFEM_EVENT_operator</text>
</g>
<!-- Node26&#45;&gt;Node9 -->
<g id="edge33" class="edge">
<title>Node26&#45;&gt;Node9</title>
<path fill="none" stroke="#9a32cd" stroke-dasharray="5,2" d="M2903.32,-573.32C2905.9,-573.9 2908.46,-574.46 2911,-574.97 3046.77,-602.62 3462.72,-622.5 3623.82,-629.36"/>
<polygon fill="#9a32cd" stroke="#9a32cd" points="2903.89,-569.85 2893.34,-570.91 2902.25,-576.66 2903.89,-569.85"/>
<text text-anchor="middle" x="3304.5" y="-621.97" font-family="Helvetica,sans-Serif" font-size="10.00"> entsFields</text>
</g>
<!-- Node27 -->
<g id="node27" class="node">
<title>Node27</title>
<g id="a_node27"><a xlink:title=" ">
<polygon fill="white" stroke="#bfbfbf" points="3243.5,-18.97 3243.5,-48.97 3365.5,-48.97 3365.5,-18.97 3243.5,-18.97"/>
<text text-anchor="start" x="3251.5" y="-36.97" font-family="Helvetica,sans-Serif" font-size="10.00">shared_ptr&lt; MoFEM::</text>
<text text-anchor="middle" x="3304.5" y="-25.97" font-family="Helvetica,sans-Serif" font-size="10.00">BasicEntityData &gt;</text>
</a>
</g>
</g>
<!-- Node27&#45;&gt;Node9 -->
<g id="edge35" class="edge">
<title>Node27&#45;&gt;Node9</title>
<path fill="none" stroke="#9a32cd" stroke-dasharray="5,2" d="M3359.78,-16.25C3425.07,1.28 3533.41,17.6 3594,-42.97 3638.81,-87.77 3572.18,-563.68 3612,-612.97 3615.27,-617.02 3619.25,-620.28 3623.67,-622.91"/>
<polygon fill="#9a32cd" stroke="#9a32cd" points="3358.78,-12.89 3350.08,-18.95 3360.65,-19.64 3358.78,-12.89"/>
<text text-anchor="middle" x="3514.5" y="-45.97" font-family="Helvetica,sans-Serif" font-size="10.00"> basicEntityDataPtr</text>
</g>
<!-- Node28 -->
<g id="node28" class="node">
<title>Node28</title>
<g id="a_node28"><a xlink:title=" ">
<polygon fill="white" stroke="#bfbfbf" points="3268.5,-1083.47 3268.5,-1102.47 3340.5,-1102.47 3340.5,-1083.47 3268.5,-1083.47"/>
<text text-anchor="middle" x="3304.5" y="-1090.47" font-family="Helvetica,sans-Serif" font-size="10.00">MPI_Comm</text>
</a>
</g>
</g>
<!-- Node28&#45;&gt;Node9 -->
<g id="edge36" class="edge">
<title>Node28&#45;&gt;Node9</title>
<path fill="none" stroke="#9a32cd" stroke-dasharray="5,2" d="M3350.54,-1085.48C3375.42,-1081.38 3406.9,-1076.28 3435,-1071.97 3470.29,-1066.56 3567.78,-1073.2 3594,-1048.97 3656.84,-990.92 3683.13,-699.35 3687.74,-641.83"/>
<polygon fill="#9a32cd" stroke="#9a32cd" points="3349.95,-1082.03 3340.65,-1087.11 3351.09,-1088.93 3349.95,-1082.03"/>
<text text-anchor="middle" x="3514.5" y="-1074.97" font-family="Helvetica,sans-Serif" font-size="10.00"> mofemComm</text>
</g>
<!-- Node29&#45;&gt;Node9 -->
<g id="edge37" class="edge">
<title>Node29&#45;&gt;Node9</title>
<path fill="none" stroke="#9a32cd" stroke-dasharray="5,2" d="M3177.43,-529.79C3182.34,-530.89 3187.21,-531.96 3192,-532.97 3203.08,-535.32 3583.47,-596.8 3594,-600.97 3602.94,-604.52 3603.2,-609.09 3612,-612.97 3620.51,-616.73 3629.9,-619.83 3639.1,-622.36"/>
<polygon fill="#9a32cd" stroke="#9a32cd" points="3177.82,-526.29 3167.29,-527.47 3176.26,-533.11 3177.82,-526.29"/>
<text text-anchor="middle" x="3304.5" y="-571.97" font-family="Helvetica,sans-Serif" font-size="10.00"> pRoblems</text>
</g>
<!-- Node30&#45;&gt;Node9 -->
<g id="edge39" class="edge">
<title>Node30&#45;&gt;Node9</title>
<path fill="none" stroke="#9a32cd" stroke-dasharray="5,2" d="M1311.96,-135.48C1710.44,-56.92 2649.66,62.48 3174,-414.97 3202.55,-440.97 3163.85,-473.54 3192,-499.97 3265.68,-569.15 3324.72,-491.74 3417,-532.97 3426.51,-537.22 3425.55,-543.59 3435,-547.97 3500.09,-578.18 3536.71,-532.77 3594,-575.97 3608.6,-586.99 3597.79,-601.46 3612,-612.97 3616.79,-616.85 3622.25,-619.95 3628.01,-622.43"/>
<polygon fill="#9a32cd" stroke="#9a32cd" points="1311.19,-132.06 1302.07,-137.44 1312.56,-138.93 1311.19,-132.06"/>
<text text-anchor="middle" x="2778" y="-225.97" font-family="Helvetica,sans-Serif" font-size="10.00"> refinedEntities</text>
</g>
<!-- Node31 -->
<g id="node31" class="node">
<title>Node31</title>
<g id="a_node31"><a xlink:title=" ">
<polygon fill="white" stroke="#bfbfbf" points="3192,-995.97 3192,-1025.97 3417,-1025.97 3417,-995.97 3192,-995.97"/>
<text text-anchor="start" x="3200" y="-1013.97" font-family="Helvetica,sans-Serif" font-size="10.00">ptr_map&lt; boost::typeindex</text>
<text text-anchor="middle" x="3304.5" y="-1002.97" font-family="Helvetica,sans-Serif" font-size="10.00">::type_index, MoFEM::UnknownInterface &gt;</text>
</a>
</g>
</g>
<!-- Node31&#45;&gt;Node9 -->
<g id="edge41" class="edge">
<title>Node31&#45;&gt;Node9</title>
<path fill="none" stroke="#9a32cd" stroke-dasharray="5,2" d="M3427.41,-1011.77C3494.44,-1009.65 3568.97,-1002.27 3594,-980.97 3648.62,-934.5 3681.02,-692.94 3687.35,-641.58"/>
<polygon fill="#9a32cd" stroke="#9a32cd" points="3427.05,-1008.28 3417.15,-1012.05 3427.24,-1015.27 3427.05,-1008.28"/>
<text text-anchor="middle" x="3514.5" y="-1013.97" font-family="Helvetica,sans-Serif" font-size="10.00"> iFaces</text>
</g>
</g>
</svg>
        <g id="navigator" transform="translate(0 0)" fill="#404254">
                <rect fill="#f2f5e9" fill-opacity="0.5" stroke="#606060" stroke-width=".5" x="0" y="0" width="60" height="60"/>
                <use id="zoomplus" xlink:href="#zoomPlus" x="17" y="9" onmousedown="handleZoom(evt,'in')"/>
                <use id="zoomminus" xlink:href="#zoomMin" x="42" y="9" onmousedown="handleZoom(evt,'out')"/>
                <use id="reset" xlink:href="#resetDef" x="30" y="36" onmousedown="handleReset()"/>
                <g id="arrowUp" xlink:href="#dirArrow" transform="translate(30 24)" onmousedown="handlePan(0,-1)">
                  <use xlink:href="#rim" fill="#404040">
                        <set attributeName="fill" to="#808080" begin="arrowUp.mouseover" end="arrowUp.mouseout"/>
                  </use>
                  <path fill="none" stroke="white" stroke-width="1.5" d="M0,-3.0v7 M-2.5,-0.5L0,-3.0L2.5,-0.5"/>
                </g>
                <g id="arrowRight" xlink:href="#dirArrow" transform="rotate(90) translate(36 -43)" onmousedown="handlePan(1,0)">
                  <use xlink:href="#rim" fill="#404040">
                        <set attributeName="fill" to="#808080" begin="arrowRight.mouseover" end="arrowRight.mouseout"/>
                  </use>
                  <path fill="none" stroke="white" stroke-width="1.5" d="M0,-3.0v7 M-2.5,-0.5L0,-3.0L2.5,-0.5"/>
                </g>
                <g id="arrowDown" xlink:href="#dirArrow" transform="rotate(180) translate(-30 -48)" onmousedown="handlePan(0,1)">
                  <use xlink:href="#rim" fill="#404040">
                        <set attributeName="fill" to="#808080" begin="arrowDown.mouseover" end="arrowDown.mouseout"/>
                  </use>
                  <path fill="none" stroke="white" stroke-width="1.5" d="M0,-3.0v7 M-2.5,-0.5L0,-3.0L2.5,-0.5"/>
                </g>
                <g id="arrowLeft" xlink:href="#dirArrow" transform="rotate(270) translate(-36 17)" onmousedown="handlePan(-1,0)">
                  <use xlink:href="#rim" fill="#404040">
                        <set attributeName="fill" to="#808080" begin="arrowLeft.mouseover" end="arrowLeft.mouseout"/>
                  </use>
                  <path fill="none" stroke="white" stroke-width="1.5" d="M0,-3.0v7 M-2.5,-0.5L0,-3.0L2.5,-0.5"/>
                </g>
        </g>
        <svg viewBox="0 0 15 15" width="100%" height="30px" preserveAspectRatio="xMaxYMin meet">
         <g id="arrow_out" transform="scale(0.3 0.3)">
          <a xlink:href="structMoFEM_1_1LogManager__coll__graph_org.svg" target="_base">
           <rect id="button" ry="5" rx="5" y="6" x="6" height="38" width="38"
                fill="#f2f5e9" fill-opacity="0.5" stroke="#606060" stroke-width="1.0"/>
           <path id="arrow"
             d="M 11.500037,31.436501 C 11.940474,20.09759 22.043105,11.32322 32.158766,21.979434 L 37.068811,17.246167 C 37.068811,17.246167 37.088388,32 37.088388,32 L 22.160133,31.978069 C 22.160133,31.978069 26.997745,27.140456 26.997745,27.140456 C 18.528582,18.264221 13.291696,25.230495 11.500037,31.436501 z"
             style="fill:#404040;"/>
          </a>
         </g>
        </svg>
</svg>
