<?xml version="1.0" encoding="UTF-8" standalone="no"?>
<!DOCTYPE svg PUBLIC "-//W3C//DTD SVG 1.1//EN"
 "http://www.w3.org/Graphics/SVG/1.1/DTD/svg11.dtd">
<!-- Generated by graphviz version 2.43.0 (0)
 -->
<!-- Title: MoFEM::OpMassCacheImpl&lt; 1, FIELD_DIM, I, OpBase &gt; Pages: 1 -->
<svg width="679pt" height="144pt"
 viewBox="0.00 0.00 679.00 144.00" xmlns="http://www.w3.org/2000/svg" xmlns:xlink="http://www.w3.org/1999/xlink">
<g id="graph0" class="graph" transform="scale(1 1) rotate(0) translate(4 140)">
<title>MoFEM::OpMassCacheImpl&lt; 1, FIELD_DIM, I, OpBase &gt;</title>
<polygon fill="white" stroke="transparent" points="-4,4 -4,-140 675,-140 675,4 -4,4"/>
<!-- Node1 -->
<g id="node1" class="node">
<title>Node1</title>
<g id="a_node1"><a xlink:title=" ">
<polygon fill="#bfbfbf" stroke="black" points="515,-55 515,-85 671,-85 671,-55 515,-55"/>
<text text-anchor="start" x="523" y="-73" font-family="Helvetica,sans-Serif" font-size="10.00">MoFEM::OpMassCacheImpl</text>
<text text-anchor="middle" x="593" y="-62" font-family="Helvetica,sans-Serif" font-size="10.00">&lt; 1, FIELD_DIM, I, OpBase &gt;</text>
</a>
</g>
</g>
<!-- Node2 -->
<g id="node2" class="node">
<title>Node2</title>
<g id="a_node2"><a xlink:href="structMoFEM_1_1OpMassImpl.html" target="_top" xlink:title=" ">
<polygon fill="white" stroke="black" points="258,-99 258,-129 406,-129 406,-99 258,-99"/>
<text text-anchor="start" x="266" y="-117" font-family="Helvetica,sans-Serif" font-size="10.00">MoFEM::OpMassImpl&lt;</text>
<text text-anchor="middle" x="332" y="-106" font-family="Helvetica,sans-Serif" font-size="10.00"> 1, FIELD_DIM, I, OpBase &gt;</text>
</a>
</g>
</g>
<!-- Node2&#45;&gt;Node1 -->
<g id="edge1" class="edge">
<title>Node2&#45;&gt;Node1</title>
<path fill="none" stroke="midnightblue" d="M416.3,-99.85C447.97,-94.47 483.87,-88.37 514.93,-83.09"/>
<polygon fill="midnightblue" stroke="midnightblue" points="415.45,-96.44 406.18,-101.57 416.63,-103.34 415.45,-96.44"/>
</g>
<!-- Node3 -->
<g id="node3" class="node">
<title>Node3</title>
<g id="a_node3"><a xlink:href="structMoFEM_1_1OpMassImpl.html" target="_top" xlink:title=" ">
<polygon fill="white" stroke="black" points="0,-93.5 0,-134.5 131,-134.5 131,-93.5 0,-93.5"/>
<text text-anchor="start" x="8" y="-122.5" font-family="Helvetica,sans-Serif" font-size="10.00">MoFEM::OpMassImpl&lt;</text>
<text text-anchor="start" x="8" y="-111.5" font-family="Helvetica,sans-Serif" font-size="10.00"> BASE_DIM, FIELD_DIM,</text>
<text text-anchor="middle" x="65.5" y="-100.5" font-family="Helvetica,sans-Serif" font-size="10.00"> I, OpBase &gt;</text>
</a>
</g>
</g>
<!-- Node3&#45;&gt;Node2 -->
<g id="edge2" class="edge">
<title>Node3&#45;&gt;Node2</title>
<path fill="none" stroke="orange" stroke-dasharray="5,2" d="M141.28,-114C177.71,-114 221.38,-114 257.63,-114"/>
<polygon fill="orange" stroke="orange" points="141.2,-110.5 131.2,-114 141.2,-117.5 141.2,-110.5"/>
<text text-anchor="start" x="149" y="-128" font-family="Helvetica,sans-Serif" font-size="10.00"> &lt; 1, FIELD_DIM, I,</text>
<text text-anchor="middle" x="194.5" y="-117" font-family="Helvetica,sans-Serif" font-size="10.00"> OpBase &gt;</text>
</g>
<!-- Node4 -->
<g id="node4" class="node">
<title>Node4</title>
<g id="a_node4"><a xlink:href="classdouble.html" target="_top" xlink:title=" ">
<polygon fill="white" stroke="black" points="307,-60.5 307,-79.5 357,-79.5 357,-60.5 307,-60.5"/>
<text text-anchor="middle" x="332" y="-67.5" font-family="Helvetica,sans-Serif" font-size="10.00">double</text>
</a>
</g>
</g>
<!-- Node4&#45;&gt;Node1 -->
<g id="edge3" class="edge">
<title>Node4&#45;&gt;Node1</title>
<path fill="none" stroke="#9a32cd" stroke-dasharray="5,2" d="M367.74,-70C405.19,-70 465.99,-70 514.85,-70"/>
<polygon fill="#9a32cd" stroke="#9a32cd" points="367.37,-66.5 357.37,-70 367.37,-73.5 367.37,-66.5"/>
<text text-anchor="middle" x="460.5" y="-73" font-family="Helvetica,sans-Serif" font-size="10.00"> scalarBeta</text>
</g>
<!-- Node5 -->
<g id="node5" class="node">
<title>Node5</title>
<g id="a_node5"><a xlink:title=" ">
<polygon fill="white" stroke="#bfbfbf" points="264.5,-0.5 264.5,-41.5 399.5,-41.5 399.5,-0.5 264.5,-0.5"/>
<text text-anchor="start" x="272.5" y="-29.5" font-family="Helvetica,sans-Serif" font-size="10.00">map&lt; std::pair&lt; int,</text>
<text text-anchor="start" x="272.5" y="-18.5" font-family="Helvetica,sans-Serif" font-size="10.00"> int &gt;, boost::shared</text>
<text text-anchor="middle" x="332" y="-7.5" font-family="Helvetica,sans-Serif" font-size="10.00">_ptr&lt; MatrixDouble &gt; &gt;</text>
</a>
</g>
</g>
<!-- Node5&#45;&gt;Node1 -->
<g id="edge4" class="edge">
<title>Node5&#45;&gt;Node1</title>
<path fill="none" stroke="#9a32cd" stroke-dasharray="5,2" d="M409.81,-35.53C443,-41.81 481.76,-49.14 514.97,-55.43"/>
<polygon fill="#9a32cd" stroke="#9a32cd" points="410.18,-32.04 399.7,-33.62 408.87,-38.92 410.18,-32.04"/>
<text text-anchor="middle" x="460.5" y="-55" font-family="Helvetica,sans-Serif" font-size="10.00"> cacheLocMats</text>
</g>
</g>
</svg>
