<?xml version="1.0" encoding="UTF-8" standalone="no"?>
<!DOCTYPE svg PUBLIC "-//W3C//DTD SVG 1.1//EN"
 "http://www.w3.org/Graphics/SVG/1.1/DTD/svg11.dtd">
<!-- Generated by graphviz version 2.43.0 (0)
 -->
<!-- Title: BCs_RVELagrange_Disp::OpRVEHomoStress Pages: 1 -->
<!--zoomable 284 -->
<svg id="main" version="1.1" xmlns="http://www.w3.org/2000/svg" xmlns:xlink="http://www.w3.org/1999/xlink" xml:space="preserve" onload="init(evt)">
<style type="text/css"><![CDATA[
.edge:hover path { stroke: red; }
.edge:hover polygon { stroke: red; fill: red; }
]]></style>
<script type="text/javascript"><![CDATA[
var edges = document.getElementsByTagName('g');
if (edges && edges.length) {
  for (var i=0;i<edges.length;i++) {
    if (edges[i].id.substr(0,4)=='edge') {
      edges[i].setAttribute('class','edge');
    }
  }
}
]]></script>
        <defs>
                <circle id="rim" cx="0" cy="0" r="7"/>
                <circle id="rim2" cx="0" cy="0" r="3.5"/>
                <g id="zoomPlus">
                        <use xlink:href="#rim" fill="#404040">
                                <set attributeName="fill" to="#808080" begin="zoomplus.mouseover" end="zoomplus.mouseout"/>
                        </use>
                        <path d="M-4,0h8M0,-4v8" fill="none" stroke="white" stroke-width="1.5" pointer-events="none"/>
                </g>
                <g id="zoomMin">
                        <use xlink:href="#rim" fill="#404040">
                                <set attributeName="fill" to="#808080" begin="zoomminus.mouseover" end="zoomminus.mouseout"/>
                        </use>
                        <path d="M-4,0h8" fill="none" stroke="white" stroke-width="1.5" pointer-events="none"/>
                </g>
                <g id="dirArrow">
                        <path fill="none" stroke="white" stroke-width="1.5" d="M0,-3.0v7 M-2.5,-0.5L0,-3.0L2.5,-0.5"/>
                </g>
               <g id="resetDef">
                       <use xlink:href="#rim2" fill="#404040">
                               <set attributeName="fill" to="#808080" begin="reset.mouseover" end="reset.mouseout"/>
                       </use>
               </g>
        </defs>

<script type="text/javascript">
var viewWidth = 711;
var viewHeight = 284;
var sectionId = 'dynsection-1';
</script>
<script xlink:href="svgpan.js"/>
<svg id="graph" class="graph">
<g id="viewport">
<title>BCs_RVELagrange_Disp::OpRVEHomoStress</title>
<polygon fill="white" stroke="transparent" points="-4,4 -4,-280 706.5,-280 706.5,4 -4,4"/>
<!-- Node1 -->
<g id="node1" class="node">
<title>Node1</title>
<g id="a_node1"><a xlink:title="\biref operator to calculate the RVE homogenised stress">
<polygon fill="#bfbfbf" stroke="black" points="486.5,-0.5 486.5,-30.5 618.5,-30.5 618.5,-0.5 486.5,-0.5"/>
<text text-anchor="start" x="494.5" y="-18.5" font-family="Helvetica,sans-Serif" font-size="10.00">BCs_RVELagrange_Disp</text>
<text text-anchor="middle" x="552.5" y="-7.5" font-family="Helvetica,sans-Serif" font-size="10.00">::OpRVEHomoStress</text>
</a>
</g>
</g>
<!-- Node2 -->
<g id="node2" class="node">
<title>Node2</title>
<g id="a_node2"><a xlink:href="structBCs__RVELagrange__Disp_1_1OpDmatRhs.html" target="_top" xlink:title=" ">
<polygon fill="white" stroke="black" points="265.5,-78.5 265.5,-108.5 397.5,-108.5 397.5,-78.5 265.5,-78.5"/>
<text text-anchor="start" x="273.5" y="-96.5" font-family="Helvetica,sans-Serif" font-size="10.00">BCs_RVELagrange_Disp</text>
<text text-anchor="middle" x="331.5" y="-85.5" font-family="Helvetica,sans-Serif" font-size="10.00">::OpDmatRhs</text>
</a>
</g>
</g>
<!-- Node2&#45;&gt;Node1 -->
<g id="edge1" class="edge">
<title>Node2&#45;&gt;Node1</title>
<path fill="none" stroke="midnightblue" d="M381.94,-75.15C421.19,-61.66 474.97,-43.16 511.57,-30.57"/>
<polygon fill="midnightblue" stroke="midnightblue" points="380.61,-71.91 372.29,-78.47 382.89,-78.53 380.61,-71.91"/>
</g>
<!-- Node3 -->
<g id="node3" class="node">
<title>Node3</title>
<g id="a_node3"><a xlink:title=" ">
<polygon fill="white" stroke="#bfbfbf" points="0,-184 0,-203 105,-203 105,-184 0,-184"/>
<text text-anchor="middle" x="52.5" y="-191" font-family="Helvetica,sans-Serif" font-size="10.00">UserDataOperator</text>
</a>
</g>
</g>
<!-- Node3&#45;&gt;Node2 -->
<g id="edge2" class="edge">
<title>Node3&#45;&gt;Node2</title>
<path fill="none" stroke="midnightblue" d="M74.39,-178.51C98.52,-163.68 138.9,-140.57 176.5,-127 204.82,-116.78 237.27,-109.36 265.14,-104.21"/>
<polygon fill="midnightblue" stroke="midnightblue" points="72.32,-175.67 65.69,-183.93 76.03,-181.61 72.32,-175.67"/>
</g>
<!-- Node4 -->
<g id="node4" class="node">
<title>Node4</title>
<g id="a_node4"><a xlink:title=" ">
<polygon fill="white" stroke="#bfbfbf" points="123,-184 123,-203 206,-203 206,-184 123,-184"/>
<text text-anchor="middle" x="164.5" y="-191" font-family="Helvetica,sans-Serif" font-size="10.00">MatrixDouble</text>
</a>
</g>
</g>
<!-- Node4&#45;&gt;Node2 -->
<g id="edge3" class="edge">
<title>Node4&#45;&gt;Node2</title>
<path fill="none" stroke="#9a32cd" stroke-dasharray="5,2" d="M171.55,-174.56C178.32,-159.65 189.97,-138.99 206.5,-127 223.56,-114.63 244.95,-106.96 265.18,-102.21"/>
<polygon fill="#9a32cd" stroke="#9a32cd" points="168.32,-173.22 167.64,-183.8 174.76,-175.95 168.32,-173.22"/>
<text text-anchor="middle" x="224" y="-152" font-family="Helvetica,sans-Serif" font-size="10.00"> X_mat</text>
<text text-anchor="middle" x="224" y="-141" font-family="Helvetica,sans-Serif" font-size="10.00">N_mat</text>
<text text-anchor="middle" x="224" y="-130" font-family="Helvetica,sans-Serif" font-size="10.00">D_mat</text>
</g>
<!-- Node5 -->
<g id="node5" class="node">
<title>Node5</title>
<g id="a_node5"><a xlink:title=" ">
<polygon fill="white" stroke="#bfbfbf" points="224,-184 224,-203 253,-203 253,-184 224,-184"/>
<text text-anchor="middle" x="238.5" y="-191" font-family="Helvetica,sans-Serif" font-size="10.00">int</text>
</a>
</g>
</g>
<!-- Node5&#45;&gt;Node2 -->
<g id="edge4" class="edge">
<title>Node5&#45;&gt;Node2</title>
<path fill="none" stroke="#9a32cd" stroke-dasharray="5,2" d="M241.43,-173.6C244.51,-159.3 250.63,-139.97 262.5,-127 269.56,-119.28 278.83,-113.23 288.28,-108.56"/>
<polygon fill="#9a32cd" stroke="#9a32cd" points="237.92,-173.31 239.56,-183.77 244.81,-174.57 237.92,-173.31"/>
<text text-anchor="middle" x="295" y="-146.5" font-family="Helvetica,sans-Serif" font-size="10.00"> nb_row_dofs</text>
<text text-anchor="middle" x="295" y="-135.5" font-family="Helvetica,sans-Serif" font-size="10.00">rank</text>
</g>
<!-- Node6 -->
<g id="node6" class="node">
<title>Node6</title>
<g id="a_node6"><a xlink:href="structBCs__RVELagrange__Disp_1_1RVEBC__Data.html" target="_top" xlink:title=" ">
<polygon fill="white" stroke="black" points="271.5,-178.5 271.5,-208.5 403.5,-208.5 403.5,-178.5 271.5,-178.5"/>
<text text-anchor="start" x="279.5" y="-196.5" font-family="Helvetica,sans-Serif" font-size="10.00">BCs_RVELagrange_Disp</text>
<text text-anchor="middle" x="337.5" y="-185.5" font-family="Helvetica,sans-Serif" font-size="10.00">::RVEBC_Data</text>
</a>
</g>
</g>
<!-- Node6&#45;&gt;Node2 -->
<g id="edge5" class="edge">
<title>Node6&#45;&gt;Node2</title>
<path fill="none" stroke="#9a32cd" stroke-dasharray="5,2" d="M333.42,-168.41C333.05,-165.58 332.73,-162.73 332.5,-160 331.01,-142.32 330.97,-121.87 331.16,-108.58"/>
<polygon fill="#9a32cd" stroke="#9a32cd" points="329.96,-168.93 334.88,-178.31 336.88,-167.91 329.96,-168.93"/>
<text text-anchor="middle" x="345.5" y="-141" font-family="Helvetica,sans-Serif" font-size="10.00"> dAta</text>
</g>
<!-- Node7 -->
<g id="node7" class="node">
<title>Node7</title>
<g id="a_node7"><a xlink:href="classRange.html" target="_top" xlink:title=" ">
<polygon fill="white" stroke="black" points="314,-256.5 314,-275.5 361,-275.5 361,-256.5 314,-256.5"/>
<text text-anchor="middle" x="337.5" y="-263.5" font-family="Helvetica,sans-Serif" font-size="10.00">Range</text>
</a>
</g>
</g>
<!-- Node7&#45;&gt;Node6 -->
<g id="edge6" class="edge">
<title>Node7&#45;&gt;Node6</title>
<path fill="none" stroke="#9a32cd" stroke-dasharray="5,2" d="M337.5,-246.24C337.5,-234.41 337.5,-219.38 337.5,-208.58"/>
<polygon fill="#9a32cd" stroke="#9a32cd" points="334,-246.36 337.5,-256.36 341,-246.36 334,-246.36"/>
<text text-anchor="middle" x="348.5" y="-230" font-family="Helvetica,sans-Serif" font-size="10.00"> tRis</text>
</g>
<!-- Node8 -->
<g id="node8" class="node">
<title>Node8</title>
<g id="a_node8"><a xlink:href="classbool.html" target="_top" xlink:title=" ">
<polygon fill="white" stroke="black" points="421.5,-184 421.5,-203 459.5,-203 459.5,-184 421.5,-184"/>
<text text-anchor="middle" x="440.5" y="-191" font-family="Helvetica,sans-Serif" font-size="10.00">bool</text>
</a>
</g>
</g>
<!-- Node8&#45;&gt;Node2 -->
<g id="edge7" class="edge">
<title>Node8&#45;&gt;Node2</title>
<path fill="none" stroke="#9a32cd" stroke-dasharray="5,2" d="M414.69,-178.98C400.18,-171.26 384.39,-162.6 381.5,-160 368.21,-148.04 369.33,-141.22 358.5,-127 353.79,-120.81 348.35,-114.18 343.59,-108.53"/>
<polygon fill="#9a32cd" stroke="#9a32cd" points="413.43,-182.27 423.9,-183.85 416.7,-176.08 413.43,-182.27"/>
<text text-anchor="middle" x="413.5" y="-141" font-family="Helvetica,sans-Serif" font-size="10.00"> hoGeometry</text>
</g>
<!-- Node9 -->
<g id="node9" class="node">
<title>Node9</title>
<g id="a_node9"><a xlink:title=" ">
<polygon fill="white" stroke="#bfbfbf" points="494.5,-184 494.5,-203 576.5,-203 576.5,-184 494.5,-184"/>
<text text-anchor="middle" x="535.5" y="-191" font-family="Helvetica,sans-Serif" font-size="10.00">VectorDouble</text>
</a>
</g>
</g>
<!-- Node9&#45;&gt;Node1 -->
<g id="edge9" class="edge">
<title>Node9&#45;&gt;Node1</title>
<path fill="none" stroke="#9a32cd" stroke-dasharray="5,2" d="M537.33,-173.5C540.77,-137.93 548.1,-62.01 551.14,-30.58"/>
<polygon fill="#9a32cd" stroke="#9a32cd" points="533.84,-173.24 536.37,-183.53 540.81,-173.91 533.84,-173.24"/>
<text text-anchor="middle" x="596.5" y="-91" font-family="Helvetica,sans-Serif" font-size="10.00"> Stress_Homo_elem</text>
</g>
<!-- Node9&#45;&gt;Node2 -->
<g id="edge8" class="edge">
<title>Node9&#45;&gt;Node2</title>
<path fill="none" stroke="#9a32cd" stroke-dasharray="5,2" d="M500.99,-179.84C489.89,-174.74 478,-168.12 468.5,-160 454.91,-148.39 460.05,-137.39 445.5,-127 431.43,-116.96 414.32,-110.01 397.68,-105.2"/>
<polygon fill="#9a32cd" stroke="#9a32cd" points="499.91,-183.18 510.48,-183.92 502.68,-176.75 499.91,-183.18"/>
<text text-anchor="middle" x="503.5" y="-146.5" font-family="Helvetica,sans-Serif" font-size="10.00"> f</text>
<text text-anchor="middle" x="503.5" y="-135.5" font-family="Helvetica,sans-Serif" font-size="10.00">applied_strain</text>
</g>
<!-- Node10 -->
<g id="node10" class="node">
<title>Node10</title>
<g id="a_node10"><a xlink:title=" ">
<polygon fill="white" stroke="#bfbfbf" points="668.5,-84 668.5,-103 702.5,-103 702.5,-84 668.5,-84"/>
<text text-anchor="middle" x="685.5" y="-91" font-family="Helvetica,sans-Serif" font-size="10.00">Vec</text>
</a>
</g>
</g>
<!-- Node10&#45;&gt;Node1 -->
<g id="edge10" class="edge">
<title>Node10&#45;&gt;Node1</title>
<path fill="none" stroke="#9a32cd" stroke-dasharray="5,2" d="M661.73,-78.92C637.88,-65.29 601.3,-44.39 577.14,-30.58"/>
<polygon fill="#9a32cd" stroke="#9a32cd" points="660.08,-82.01 670.5,-83.93 663.56,-75.93 660.08,-82.01"/>
<text text-anchor="middle" x="660.5" y="-52" font-family="Helvetica,sans-Serif" font-size="10.00"> Stress_Homo</text>
</g>
</g>
</svg>
        <g id="navigator" transform="translate(0 0)" fill="#404254">
                <rect fill="#f2f5e9" fill-opacity="0.5" stroke="#606060" stroke-width=".5" x="0" y="0" width="60" height="60"/>
                <use id="zoomplus" xlink:href="#zoomPlus" x="17" y="9" onmousedown="handleZoom(evt,'in')"/>
                <use id="zoomminus" xlink:href="#zoomMin" x="42" y="9" onmousedown="handleZoom(evt,'out')"/>
                <use id="reset" xlink:href="#resetDef" x="30" y="36" onmousedown="handleReset()"/>
                <g id="arrowUp" xlink:href="#dirArrow" transform="translate(30 24)" onmousedown="handlePan(0,-1)">
                  <use xlink:href="#rim" fill="#404040">
                        <set attributeName="fill" to="#808080" begin="arrowUp.mouseover" end="arrowUp.mouseout"/>
                  </use>
                  <path fill="none" stroke="white" stroke-width="1.5" d="M0,-3.0v7 M-2.5,-0.5L0,-3.0L2.5,-0.5"/>
                </g>
                <g id="arrowRight" xlink:href="#dirArrow" transform="rotate(90) translate(36 -43)" onmousedown="handlePan(1,0)">
                  <use xlink:href="#rim" fill="#404040">
                        <set attributeName="fill" to="#808080" begin="arrowRight.mouseover" end="arrowRight.mouseout"/>
                  </use>
                  <path fill="none" stroke="white" stroke-width="1.5" d="M0,-3.0v7 M-2.5,-0.5L0,-3.0L2.5,-0.5"/>
                </g>
                <g id="arrowDown" xlink:href="#dirArrow" transform="rotate(180) translate(-30 -48)" onmousedown="handlePan(0,1)">
                  <use xlink:href="#rim" fill="#404040">
                        <set attributeName="fill" to="#808080" begin="arrowDown.mouseover" end="arrowDown.mouseout"/>
                  </use>
                  <path fill="none" stroke="white" stroke-width="1.5" d="M0,-3.0v7 M-2.5,-0.5L0,-3.0L2.5,-0.5"/>
                </g>
                <g id="arrowLeft" xlink:href="#dirArrow" transform="rotate(270) translate(-36 17)" onmousedown="handlePan(-1,0)">
                  <use xlink:href="#rim" fill="#404040">
                        <set attributeName="fill" to="#808080" begin="arrowLeft.mouseover" end="arrowLeft.mouseout"/>
                  </use>
                  <path fill="none" stroke="white" stroke-width="1.5" d="M0,-3.0v7 M-2.5,-0.5L0,-3.0L2.5,-0.5"/>
                </g>
        </g>
        <svg viewBox="0 0 15 15" width="100%" height="30px" preserveAspectRatio="xMaxYMin meet">
         <g id="arrow_out" transform="scale(0.3 0.3)">
          <a xlink:href="structBCs__RVELagrange__Disp_1_1OpRVEHomoStress__coll__graph_org.svg" target="_base">
           <rect id="button" ry="5" rx="5" y="6" x="6" height="38" width="38"
                fill="#f2f5e9" fill-opacity="0.5" stroke="#606060" stroke-width="1.0"/>
           <path id="arrow"
             d="M 11.500037,31.436501 C 11.940474,20.09759 22.043105,11.32322 32.158766,21.979434 L 37.068811,17.246167 C 37.068811,17.246167 37.088388,32 37.088388,32 L 22.160133,31.978069 C 22.160133,31.978069 26.997745,27.140456 26.997745,27.140456 C 18.528582,18.264221 13.291696,25.230495 11.500037,31.436501 z"
             style="fill:#404040;"/>
          </a>
         </g>
        </svg>
</svg>
