<?xml version="1.0" encoding="UTF-8" standalone="no"?>
<!DOCTYPE svg PUBLIC "-//W3C//DTD SVG 1.1//EN"
 "http://www.w3.org/Graphics/SVG/1.1/DTD/svg11.dtd">
<!-- Generated by graphviz version 2.43.0 (0)
 -->
<!-- Title: MoFEM::SchurElemMats Pages: 1 -->
<svg width="394pt" height="162pt"
 viewBox="0.00 0.00 394.00 162.00" xmlns="http://www.w3.org/2000/svg" xmlns:xlink="http://www.w3.org/1999/xlink">
<g id="graph0" class="graph" transform="scale(1 1) rotate(0) translate(4 158)">
<title>MoFEM::SchurElemMats</title>
<polygon fill="white" stroke="transparent" points="-4,4 -4,-158 390,-158 390,4 -4,4"/>
<!-- Node1 -->
<g id="node1" class="node">
<title>Node1</title>
<g id="a_node1"><a xlink:title="Schur complement data storage.">
<polygon fill="#bfbfbf" stroke="black" points="114.5,-67.5 114.5,-86.5 248.5,-86.5 248.5,-67.5 114.5,-67.5"/>
<text text-anchor="middle" x="181.5" y="-74.5" font-family="Helvetica,sans-Serif" font-size="10.00">MoFEM::SchurElemMats</text>
</a>
</g>
</g>
<!-- Node3 -->
<g id="node3" class="node">
<title>Node3</title>
<g id="a_node3"><a xlink:href="structMoFEM_1_1SchurElemMatsBlock.html" target="_top" xlink:title=" ">
<polygon fill="white" stroke="black" points="0,-6 0,-25 161,-25 161,-6 0,-6"/>
<text text-anchor="middle" x="80.5" y="-13" font-family="Helvetica,sans-Serif" font-size="10.00">MoFEM::SchurElemMatsBlock</text>
</a>
</g>
</g>
<!-- Node1&#45;&gt;Node3 -->
<g id="edge2" class="edge">
<title>Node1&#45;&gt;Node3</title>
<path fill="none" stroke="midnightblue" d="M158.15,-62.24C138.64,-50.75 111.43,-34.72 94.94,-25.01"/>
<polygon fill="midnightblue" stroke="midnightblue" points="156.64,-65.41 167.03,-67.48 160.19,-59.38 156.64,-65.41"/>
</g>
<!-- Node4 -->
<g id="node4" class="node">
<title>Node4</title>
<g id="a_node4"><a xlink:href="structMoFEM_1_1SchurElemMatsPreconditionedBlock.html" target="_top" xlink:title=" ">
<polygon fill="white" stroke="black" points="179,-0.5 179,-30.5 386,-30.5 386,-0.5 179,-0.5"/>
<text text-anchor="start" x="187" y="-18.5" font-family="Helvetica,sans-Serif" font-size="10.00">MoFEM::SchurElemMatsPreconditioned</text>
<text text-anchor="middle" x="282.5" y="-7.5" font-family="Helvetica,sans-Serif" font-size="10.00">Block</text>
</a>
</g>
</g>
<!-- Node1&#45;&gt;Node4 -->
<g id="edge3" class="edge">
<title>Node1&#45;&gt;Node4</title>
<path fill="none" stroke="midnightblue" d="M204.8,-62.28C220.96,-52.75 242.42,-40.11 258.7,-30.52"/>
<polygon fill="midnightblue" stroke="midnightblue" points="202.81,-59.38 195.97,-67.48 206.36,-65.41 202.81,-59.38"/>
</g>
<!-- Node2 -->
<g id="node2" class="node">
<title>Node2</title>
<g id="a_node2"><a xlink:title=" ">
<polygon fill="white" stroke="#bfbfbf" points="98,-123.5 98,-153.5 265,-153.5 265,-123.5 98,-123.5"/>
<text text-anchor="start" x="106" y="-141.5" font-family="Helvetica,sans-Serif" font-size="10.00">boost::enable_shared</text>
<text text-anchor="middle" x="181.5" y="-130.5" font-family="Helvetica,sans-Serif" font-size="10.00">_from_this&lt; SchurElemMats &gt;</text>
</a>
</g>
</g>
<!-- Node2&#45;&gt;Node1 -->
<g id="edge1" class="edge">
<title>Node2&#45;&gt;Node1</title>
<path fill="none" stroke="midnightblue" d="M181.5,-113.29C181.5,-103.86 181.5,-93.65 181.5,-86.66"/>
<polygon fill="midnightblue" stroke="midnightblue" points="178,-113.4 181.5,-123.4 185,-113.4 178,-113.4"/>
</g>
</g>
</svg>
