<?xml version="1.0" encoding="UTF-8" standalone="no"?>
<!DOCTYPE svg PUBLIC "-//W3C//DTD SVG 1.1//EN"
 "http://www.w3.org/Graphics/SVG/1.1/DTD/svg11.dtd">
<!-- Generated by graphviz version 2.43.0 (0)
 -->
<!-- Title: ADOLCPlasticity::TSUpdateImpl Pages: 1 -->
<svg width="376pt" height="95pt"
 viewBox="0.00 0.00 376.00 95.00" xmlns="http://www.w3.org/2000/svg" xmlns:xlink="http://www.w3.org/1999/xlink">
<g id="graph0" class="graph" transform="scale(1 1) rotate(0) translate(4 91)">
<title>ADOLCPlasticity::TSUpdateImpl</title>
<polygon fill="white" stroke="transparent" points="-4,4 -4,-91 372,-91 372,4 -4,4"/>
<!-- Node1 -->
<g id="node1" class="node">
<title>Node1</title>
<g id="a_node1"><a xlink:title="[TSUpdateImpl]">
<polygon fill="#bfbfbf" stroke="black" points="103,-0.5 103,-19.5 273,-19.5 273,-0.5 103,-0.5"/>
<text text-anchor="middle" x="188" y="-7.5" font-family="Helvetica,sans-Serif" font-size="10.00">ADOLCPlasticity::TSUpdateImpl</text>
</a>
</g>
</g>
<!-- Node2 -->
<g id="node2" class="node">
<title>Node2</title>
<g id="a_node2"><a xlink:href="structADOLCPlasticity_1_1TSUpdate.html" target="_top" xlink:title="Update internal fluxes (update history variables)">
<polygon fill="white" stroke="black" points="0,-67.5 0,-86.5 148,-86.5 148,-67.5 0,-67.5"/>
<text text-anchor="middle" x="74" y="-74.5" font-family="Helvetica,sans-Serif" font-size="10.00">ADOLCPlasticity::TSUpdate</text>
</a>
</g>
</g>
<!-- Node2&#45;&gt;Node1 -->
<g id="edge1" class="edge">
<title>Node2&#45;&gt;Node1</title>
<path fill="none" stroke="midnightblue" d="M98.35,-62.12C120.94,-49.24 153.84,-30.48 172.87,-19.63"/>
<polygon fill="midnightblue" stroke="midnightblue" points="96.33,-59.24 89.37,-67.23 99.8,-65.32 96.33,-59.24"/>
</g>
<!-- Node3 -->
<g id="node3" class="node">
<title>Node3</title>
<g id="a_node3"><a xlink:title=" ">
<polygon fill="white" stroke="#bfbfbf" points="166,-67.5 166,-86.5 210,-86.5 210,-67.5 166,-67.5"/>
<text text-anchor="middle" x="188" y="-74.5" font-family="Helvetica,sans-Serif" font-size="10.00">string</text>
</a>
</g>
</g>
<!-- Node3&#45;&gt;Node1 -->
<g id="edge2" class="edge">
<title>Node3&#45;&gt;Node1</title>
<path fill="none" stroke="#9a32cd" stroke-dasharray="5,2" d="M188,-57.04C188,-44.67 188,-29.12 188,-19.63"/>
<polygon fill="#9a32cd" stroke="#9a32cd" points="184.5,-57.23 188,-67.23 191.5,-57.23 184.5,-57.23"/>
<text text-anchor="middle" x="209.5" y="-41" font-family="Helvetica,sans-Serif" font-size="10.00"> feName</text>
</g>
<!-- Node4 -->
<g id="node4" class="node">
<title>Node4</title>
<g id="a_node4"><a xlink:title=" ">
<polygon fill="white" stroke="#bfbfbf" points="228,-67.5 228,-86.5 368,-86.5 368,-67.5 228,-67.5"/>
<text text-anchor="middle" x="298" y="-74.5" font-family="Helvetica,sans-Serif" font-size="10.00">shared_ptr&lt; FEMethod &gt;</text>
</a>
</g>
</g>
<!-- Node4&#45;&gt;Node1 -->
<g id="edge3" class="edge">
<title>Node4&#45;&gt;Node1</title>
<path fill="none" stroke="#9a32cd" stroke-dasharray="5,2" d="M275.18,-62.08C263.25,-54.84 248.38,-45.87 235,-38 224.46,-31.79 212.5,-24.93 203.29,-19.67"/>
<polygon fill="#9a32cd" stroke="#9a32cd" points="273.68,-65.26 284.04,-67.46 277.31,-59.28 273.68,-65.26"/>
<text text-anchor="middle" x="265.5" y="-41" font-family="Helvetica,sans-Serif" font-size="10.00"> fePtr</text>
</g>
</g>
</svg>
