<?xml version="1.0" encoding="UTF-8" standalone="no"?>
<!DOCTYPE svg PUBLIC "-//W3C//DTD SVG 1.1//EN"
 "http://www.w3.org/Graphics/SVG/1.1/DTD/svg11.dtd">
<!-- Generated by graphviz version 2.43.0 (0)
 -->
<!-- Title: BCs_RVELagrange_Trac_Rigid_Rot::OpRVEBCsLhs Pages: 1 -->
<svg width="1524pt" height="180pt"
 viewBox="0.00 0.00 1524.00 180.00" xmlns="http://www.w3.org/2000/svg" xmlns:xlink="http://www.w3.org/1999/xlink">
<g id="graph0" class="graph" transform="scale(1 1) rotate(0) translate(4 176)">
<title>BCs_RVELagrange_Trac_Rigid_Rot::OpRVEBCsLhs</title>
<polygon fill="white" stroke="transparent" points="-4,4 -4,-176 1520,-176 1520,4 -4,4"/>
<!-- Node1 -->
<g id="node1" class="node">
<title>Node1</title>
<g id="a_node1"><a xlink:title="\biref operator to calculate the LHS for the RVE boundary conditions">
<polygon fill="#bfbfbf" stroke="black" points="1373,-71 1373,-101 1516,-101 1516,-71 1373,-71"/>
<text text-anchor="start" x="1381" y="-89" font-family="Helvetica,sans-Serif" font-size="10.00">BCs_RVELagrange_Trac</text>
<text text-anchor="middle" x="1444.5" y="-78" font-family="Helvetica,sans-Serif" font-size="10.00">_Rigid_Rot::OpRVEBCsLhs</text>
</a>
</g>
</g>
<!-- Node2 -->
<g id="node2" class="node">
<title>Node2</title>
<g id="a_node2"><a xlink:title=" ">
<polygon fill="white" stroke="#bfbfbf" points="1120,-152.5 1120,-171.5 1225,-171.5 1225,-152.5 1120,-152.5"/>
<text text-anchor="middle" x="1172.5" y="-159.5" font-family="Helvetica,sans-Serif" font-size="10.00">UserDataOperator</text>
</a>
</g>
</g>
<!-- Node2&#45;&gt;Node1 -->
<g id="edge1" class="edge">
<title>Node2&#45;&gt;Node1</title>
<path fill="none" stroke="midnightblue" d="M1235.43,-158.84C1271.14,-155.62 1316.47,-149.12 1355,-136 1379.39,-127.69 1404.74,-112.6 1422.03,-101.16"/>
<polygon fill="midnightblue" stroke="midnightblue" points="1234.82,-155.38 1225.15,-159.7 1235.4,-162.36 1234.82,-155.38"/>
</g>
<!-- Node3 -->
<g id="node3" class="node">
<title>Node3</title>
<g id="a_node3"><a xlink:title=" ">
<polygon fill="white" stroke="#bfbfbf" points="1131,-114.5 1131,-133.5 1214,-133.5 1214,-114.5 1131,-114.5"/>
<text text-anchor="middle" x="1172.5" y="-121.5" font-family="Helvetica,sans-Serif" font-size="10.00">MatrixDouble</text>
</a>
</g>
</g>
<!-- Node3&#45;&gt;Node1 -->
<g id="edge2" class="edge">
<title>Node3&#45;&gt;Node1</title>
<path fill="none" stroke="#9a32cd" stroke-dasharray="5,2" d="M1224.66,-118.1C1261.06,-113.75 1311.1,-107.5 1355,-101 1360.7,-100.16 1366.61,-99.24 1372.53,-98.3"/>
<polygon fill="#9a32cd" stroke="#9a32cd" points="1223.81,-114.67 1214.29,-119.32 1224.64,-121.62 1223.81,-114.67"/>
<text text-anchor="middle" x="1318" y="-124" font-family="Helvetica,sans-Serif" font-size="10.00"> Mat_face_Tran</text>
<text text-anchor="middle" x="1318" y="-113" font-family="Helvetica,sans-Serif" font-size="10.00">Mat_face</text>
</g>
<!-- Node4 -->
<g id="node4" class="node">
<title>Node4</title>
<g id="a_node4"><a xlink:href="structMoFEM_1_1DeprecatedCoreInterface.html" target="_top" xlink:title="Deprecated interface functions.">
<polygon fill="white" stroke="black" points="1082,-76.5 1082,-95.5 1263,-95.5 1263,-76.5 1082,-76.5"/>
<text text-anchor="middle" x="1172.5" y="-83.5" font-family="Helvetica,sans-Serif" font-size="10.00">MoFEM::DeprecatedCoreInterface</text>
</a>
</g>
</g>
<!-- Node4&#45;&gt;Node1 -->
<g id="edge3" class="edge">
<title>Node4&#45;&gt;Node1</title>
<path fill="none" stroke="#9a32cd" stroke-dasharray="5,2" d="M1273.21,-86C1306.35,-86 1342.54,-86 1373,-86"/>
<polygon fill="#9a32cd" stroke="#9a32cd" points="1273.03,-82.5 1263.03,-86 1273.03,-89.5 1273.03,-82.5"/>
<text text-anchor="middle" x="1318" y="-89" font-family="Helvetica,sans-Serif" font-size="10.00"> mField</text>
</g>
<!-- Node5 -->
<g id="node5" class="node">
<title>Node5</title>
<g id="a_node5"><a xlink:href="structMoFEM_1_1CoreInterface.html" target="_top" xlink:title="Interface.">
<polygon fill="white" stroke="black" points="920,-76.5 920,-95.5 1045,-95.5 1045,-76.5 920,-76.5"/>
<text text-anchor="middle" x="982.5" y="-83.5" font-family="Helvetica,sans-Serif" font-size="10.00">MoFEM::CoreInterface</text>
</a>
</g>
</g>
<!-- Node5&#45;&gt;Node4 -->
<g id="edge4" class="edge">
<title>Node5&#45;&gt;Node4</title>
<path fill="none" stroke="midnightblue" d="M1055.16,-86C1063.89,-86 1072.89,-86 1081.84,-86"/>
<polygon fill="midnightblue" stroke="midnightblue" points="1055.06,-82.5 1045.06,-86 1055.06,-89.5 1055.06,-82.5"/>
</g>
<!-- Node6 -->
<g id="node6" class="node">
<title>Node6</title>
<g id="a_node6"><a xlink:href="structMoFEM_1_1UnknownInterface.html" target="_top" xlink:title="base class for all interface classes">
<polygon fill="white" stroke="black" points="735,-76.5 735,-95.5 883,-95.5 883,-76.5 735,-76.5"/>
<text text-anchor="middle" x="809" y="-83.5" font-family="Helvetica,sans-Serif" font-size="10.00">MoFEM::UnknownInterface</text>
</a>
</g>
</g>
<!-- Node6&#45;&gt;Node5 -->
<g id="edge5" class="edge">
<title>Node6&#45;&gt;Node5</title>
<path fill="none" stroke="midnightblue" d="M893.29,-86C902.24,-86 911.22,-86 919.85,-86"/>
<polygon fill="midnightblue" stroke="midnightblue" points="893.23,-82.5 883.23,-86 893.23,-89.5 893.23,-82.5"/>
</g>
<!-- Node7 -->
<g id="node7" class="node">
<title>Node7</title>
<g id="a_node7"><a xlink:title=" ">
<polygon fill="white" stroke="#bfbfbf" points="386,-54.5 386,-117.5 627,-117.5 627,-54.5 386,-54.5"/>
<text text-anchor="start" x="394" y="-105.5" font-family="Helvetica,sans-Serif" font-size="10.00">multi_index_container</text>
<text text-anchor="start" x="394" y="-94.5" font-family="Helvetica,sans-Serif" font-size="10.00">&lt; UIdTypeMap, indexed</text>
<text text-anchor="start" x="394" y="-83.5" font-family="Helvetica,sans-Serif" font-size="10.00">_by&lt; hashed_unique&lt; member</text>
<text text-anchor="start" x="394" y="-72.5" font-family="Helvetica,sans-Serif" font-size="10.00">&lt; UIdTypeMap, boost::typeindex</text>
<text text-anchor="middle" x="506.5" y="-61.5" font-family="Helvetica,sans-Serif" font-size="10.00">::type_index, &amp;UIdTypeMap::classIdx &gt; &gt; &gt; &gt;</text>
</a>
</g>
</g>
<!-- Node7&#45;&gt;Node6 -->
<g id="edge6" class="edge">
<title>Node7&#45;&gt;Node6</title>
<path fill="none" stroke="#9a32cd" stroke-dasharray="5,2" d="M637.41,-86C670.69,-86 705.33,-86 734.62,-86"/>
<polygon fill="#9a32cd" stroke="#9a32cd" points="637.13,-82.5 627.13,-86 637.13,-89.5 637.13,-82.5"/>
<text text-anchor="middle" x="681" y="-89" font-family="Helvetica,sans-Serif" font-size="10.00"> iFaceTypeMap</text>
</g>
<!-- Node8 -->
<g id="node8" class="node">
<title>Node8</title>
<g id="a_node8"><a xlink:title=" ">
<polygon fill="white" stroke="#bfbfbf" points="0,-76.5 0,-95.5 125,-95.5 125,-76.5 0,-76.5"/>
<text text-anchor="middle" x="62.5" y="-83.5" font-family="Helvetica,sans-Serif" font-size="10.00">multi_index_container</text>
</a>
</g>
</g>
<!-- Node8&#45;&gt;Node7 -->
<g id="edge7" class="edge">
<title>Node8&#45;&gt;Node7</title>
<path fill="none" stroke="orange" stroke-dasharray="5,2" d="M135.56,-86C203.25,-86 305.79,-86 385.77,-86"/>
<polygon fill="orange" stroke="orange" points="135.42,-82.5 125.42,-86 135.42,-89.5 135.42,-82.5"/>
<text text-anchor="start" x="143" y="-122" font-family="Helvetica,sans-Serif" font-size="10.00"> &lt; UIdTypeMap, indexed</text>
<text text-anchor="start" x="143" y="-111" font-family="Helvetica,sans-Serif" font-size="10.00">_by&lt; hashed_unique&lt; member</text>
<text text-anchor="start" x="143" y="-100" font-family="Helvetica,sans-Serif" font-size="10.00">&lt; UIdTypeMap, boost::typeindex</text>
<text text-anchor="middle" x="255.5" y="-89" font-family="Helvetica,sans-Serif" font-size="10.00">::type_index, &amp;UIdTypeMap::classIdx &gt; &gt; &gt; &gt;</text>
</g>
<!-- Node9 -->
<g id="node9" class="node">
<title>Node9</title>
<g id="a_node9"><a xlink:title=" ">
<polygon fill="white" stroke="#bfbfbf" points="1128,-38.5 1128,-57.5 1217,-57.5 1217,-38.5 1128,-38.5"/>
<text text-anchor="middle" x="1172.5" y="-45.5" font-family="Helvetica,sans-Serif" font-size="10.00">RVEBC_Data &amp;</text>
</a>
</g>
</g>
<!-- Node9&#45;&gt;Node1 -->
<g id="edge8" class="edge">
<title>Node9&#45;&gt;Node1</title>
<path fill="none" stroke="#9a32cd" stroke-dasharray="5,2" d="M1227.53,-54.25C1263.67,-58.57 1312.25,-64.67 1355,-71 1360.7,-71.84 1366.61,-72.76 1372.53,-73.7"/>
<polygon fill="#9a32cd" stroke="#9a32cd" points="1227.56,-50.73 1217.21,-53.02 1226.73,-57.68 1227.56,-50.73"/>
<text text-anchor="middle" x="1318" y="-74" font-family="Helvetica,sans-Serif" font-size="10.00"> dAta</text>
</g>
<!-- Node10 -->
<g id="node10" class="node">
<title>Node10</title>
<g id="a_node10"><a xlink:title=" ">
<polygon fill="white" stroke="#bfbfbf" points="1155,-0.5 1155,-19.5 1190,-19.5 1190,-0.5 1155,-0.5"/>
<text text-anchor="middle" x="1172.5" y="-7.5" font-family="Helvetica,sans-Serif" font-size="10.00">Mat</text>
</a>
</g>
</g>
<!-- Node10&#45;&gt;Node1 -->
<g id="edge9" class="edge">
<title>Node10&#45;&gt;Node1</title>
<path fill="none" stroke="#9a32cd" stroke-dasharray="5,2" d="M1200.19,-13.61C1235.98,-18.87 1301.26,-29.9 1355,-47 1375,-53.36 1396.57,-62.81 1413.41,-70.81"/>
<polygon fill="#9a32cd" stroke="#9a32cd" points="1200.46,-10.11 1190.07,-12.17 1199.47,-17.04 1200.46,-10.11"/>
<text text-anchor="middle" x="1318" y="-50" font-family="Helvetica,sans-Serif" font-size="10.00"> Aij</text>
</g>
</g>
</svg>
