<?xml version="1.0" encoding="UTF-8" standalone="no"?>
<!DOCTYPE svg PUBLIC "-//W3C//DTD SVG 1.1//EN"
 "http://www.w3.org/Graphics/SVG/1.1/DTD/svg11.dtd">
<!-- Generated by graphviz version 2.43.0 (0)
 -->
<!-- Title: ContactOps::Monitor Pages: 1 -->
<!--zoomable 673 -->
<svg id="main" version="1.1" xmlns="http://www.w3.org/2000/svg" xmlns:xlink="http://www.w3.org/1999/xlink" xml:space="preserve" onload="init(evt)">
<style type="text/css"><![CDATA[
.edge:hover path { stroke: red; }
.edge:hover polygon { stroke: red; fill: red; }
]]></style>
<script type="text/javascript"><![CDATA[
var edges = document.getElementsByTagName('g');
if (edges && edges.length) {
  for (var i=0;i<edges.length;i++) {
    if (edges[i].id.substr(0,4)=='edge') {
      edges[i].setAttribute('class','edge');
    }
  }
}
]]></script>
        <defs>
                <circle id="rim" cx="0" cy="0" r="7"/>
                <circle id="rim2" cx="0" cy="0" r="3.5"/>
                <g id="zoomPlus">
                        <use xlink:href="#rim" fill="#404040">
                                <set attributeName="fill" to="#808080" begin="zoomplus.mouseover" end="zoomplus.mouseout"/>
                        </use>
                        <path d="M-4,0h8M0,-4v8" fill="none" stroke="white" stroke-width="1.5" pointer-events="none"/>
                </g>
                <g id="zoomMin">
                        <use xlink:href="#rim" fill="#404040">
                                <set attributeName="fill" to="#808080" begin="zoomminus.mouseover" end="zoomminus.mouseout"/>
                        </use>
                        <path d="M-4,0h8" fill="none" stroke="white" stroke-width="1.5" pointer-events="none"/>
                </g>
                <g id="dirArrow">
                        <path fill="none" stroke="white" stroke-width="1.5" d="M0,-3.0v7 M-2.5,-0.5L0,-3.0L2.5,-0.5"/>
                </g>
               <g id="resetDef">
                       <use xlink:href="#rim2" fill="#404040">
                               <set attributeName="fill" to="#808080" begin="reset.mouseover" end="reset.mouseout"/>
                       </use>
               </g>
        </defs>

<script type="text/javascript">
var viewWidth = 904;
var viewHeight = 673;
var sectionId = 'dynsection-1';
</script>
<script xlink:href="svgpan.js"/>
<svg id="graph" class="graph">
<g id="viewport">
<title>ContactOps::Monitor</title>
<polygon fill="white" stroke="transparent" points="-4,4 -4,-669.43 900,-669.43 900,4 -4,4"/>
<!-- Node1 -->
<g id="node1" class="node">
<title>Node1</title>
<g id="a_node1"><a xlink:title=" ">
<polygon fill="#bfbfbf" stroke="black" points="780,-289.12 780,-308.12 896,-308.12 896,-289.12 780,-289.12"/>
<text text-anchor="middle" x="838" y="-296.12" font-family="Helvetica,sans-Serif" font-size="10.00">ContactOps::Monitor</text>
</a>
</g>
</g>
<!-- Node2 -->
<g id="node2" class="node">
<title>Node2</title>
<g id="a_node2"><a xlink:href="classFEMethod.html" target="_top" xlink:title=" ">
<polygon fill="white" stroke="black" points="433.5,-628.12 433.5,-647.12 498.5,-647.12 498.5,-628.12 433.5,-628.12"/>
<text text-anchor="middle" x="466" y="-635.12" font-family="Helvetica,sans-Serif" font-size="10.00">FEMethod</text>
</a>
</g>
</g>
<!-- Node2&#45;&gt;Node1 -->
<g id="edge1" class="edge">
<title>Node2&#45;&gt;Node1</title>
<path fill="none" stroke="midnightblue" d="M508.38,-649.69C571.03,-665.2 690.23,-683.54 762,-623.62 812.56,-581.4 832.49,-357.55 836.3,-308.24"/>
<polygon fill="midnightblue" stroke="midnightblue" points="509.02,-646.24 498.46,-647.14 507.28,-653.02 509.02,-646.24"/>
</g>
<!-- Node3 -->
<g id="node3" class="node">
<title>Node3</title>
<g id="a_node3"><a xlink:title=" ">
<polygon fill="white" stroke="#bfbfbf" points="400.5,-568.12 400.5,-609.12 531.5,-609.12 531.5,-568.12 400.5,-568.12"/>
<text text-anchor="start" x="408.5" y="-597.12" font-family="Helvetica,sans-Serif" font-size="10.00">function&lt; double(const</text>
<text text-anchor="start" x="408.5" y="-586.12" font-family="Helvetica,sans-Serif" font-size="10.00"> double, const double,</text>
<text text-anchor="middle" x="466" y="-575.12" font-family="Helvetica,sans-Serif" font-size="10.00"> const double)&gt;</text>
</a>
</g>
</g>
<!-- Node3&#45;&gt;Node1 -->
<g id="edge2" class="edge">
<title>Node3&#45;&gt;Node1</title>
<path fill="none" stroke="#9a32cd" stroke-dasharray="5,2" d="M541.6,-574.47C553.42,-572.4 565.53,-570.37 577,-568.62 617.95,-562.35 730.31,-572.3 762,-545.62 837.42,-482.11 838.6,-345.34 837.44,-308.13"/>
<polygon fill="#9a32cd" stroke="#9a32cd" points="540.99,-571.02 531.75,-576.22 542.21,-577.92 540.99,-571.02"/>
<text text-anchor="start" x="577" y="-615.62" font-family="Helvetica,sans-Serif" font-size="10.00"> analyticalHertzPressurePlane</text>
<text text-anchor="middle" x="669.5" y="-604.62" font-family="Helvetica,sans-Serif" font-size="10.00">Strain</text>
<text text-anchor="middle" x="669.5" y="-593.62" font-family="Helvetica,sans-Serif" font-size="10.00">analyticalHertzPressureAxisymmetric</text>
<text text-anchor="middle" x="669.5" y="-582.62" font-family="Helvetica,sans-Serif" font-size="10.00">analyticalWavy2DPressure</text>
<text text-anchor="middle" x="669.5" y="-571.62" font-family="Helvetica,sans-Serif" font-size="10.00">analyticalHertzPressurePlaneStress</text>
</g>
<!-- Node4 -->
<g id="node4" class="node">
<title>Node4</title>
<g id="a_node4"><a xlink:href="structMoFEM_1_1SmartPetscObj.html" target="_top" xlink:title=" ">
<polygon fill="white" stroke="black" points="400.5,-518.62 400.5,-548.62 531.5,-548.62 531.5,-518.62 400.5,-518.62"/>
<text text-anchor="start" x="408.5" y="-536.62" font-family="Helvetica,sans-Serif" font-size="10.00">MoFEM::SmartPetscObj</text>
<text text-anchor="middle" x="466" y="-525.62" font-family="Helvetica,sans-Serif" font-size="10.00">&lt; Vec &gt;</text>
</a>
</g>
</g>
<!-- Node4&#45;&gt;Node1 -->
<g id="edge3" class="edge">
<title>Node4&#45;&gt;Node1</title>
<path fill="none" stroke="#9a32cd" stroke-dasharray="5,2" d="M541.83,-534.25C617.79,-533.38 728.81,-527.51 762,-501.62 825.99,-451.7 835.39,-341.5 836.77,-308.28"/>
<polygon fill="#9a32cd" stroke="#9a32cd" points="541.79,-530.75 531.82,-534.33 541.85,-537.75 541.79,-530.75"/>
<text text-anchor="middle" x="669.5" y="-535.62" font-family="Helvetica,sans-Serif" font-size="10.00"> normsVec</text>
</g>
<!-- Node5 -->
<g id="node5" class="node">
<title>Node5</title>
<g id="a_node5"><a xlink:title=" ">
<polygon fill="white" stroke="#bfbfbf" points="165.5,-540.12 165.5,-581.12 291.5,-581.12 291.5,-540.12 165.5,-540.12"/>
<text text-anchor="start" x="173.5" y="-569.12" font-family="Helvetica,sans-Serif" font-size="10.00">boost::intrusive_ptr</text>
<text text-anchor="start" x="173.5" y="-558.12" font-family="Helvetica,sans-Serif" font-size="10.00">&lt; std::remove_pointer</text>
<text text-anchor="middle" x="228.5" y="-547.12" font-family="Helvetica,sans-Serif" font-size="10.00">&lt; Vec &gt;::type &gt;</text>
</a>
</g>
</g>
<!-- Node5&#45;&gt;Node4 -->
<g id="edge4" class="edge">
<title>Node5&#45;&gt;Node4</title>
<path fill="none" stroke="midnightblue" d="M301.71,-552.34C333.21,-548.73 369.83,-544.53 400.41,-541.02"/>
<polygon fill="midnightblue" stroke="midnightblue" points="301.22,-548.87 291.68,-553.49 302.02,-555.83 301.22,-548.87"/>
</g>
<!-- Node6 -->
<g id="node6" class="node">
<title>Node6</title>
<g id="a_node6"><a xlink:href="structMoFEM_1_1SmartPetscObj.html" target="_top" xlink:title="intrusive_ptr for managing petsc objects">
<polygon fill="white" stroke="black" points="163,-490.62 163,-520.62 294,-520.62 294,-490.62 163,-490.62"/>
<text text-anchor="start" x="171" y="-508.62" font-family="Helvetica,sans-Serif" font-size="10.00">MoFEM::SmartPetscObj</text>
<text text-anchor="middle" x="228.5" y="-497.62" font-family="Helvetica,sans-Serif" font-size="10.00">&lt; OBJ &gt;</text>
</a>
</g>
</g>
<!-- Node6&#45;&gt;Node4 -->
<g id="edge5" class="edge">
<title>Node6&#45;&gt;Node4</title>
<path fill="none" stroke="orange" stroke-dasharray="5,2" d="M304.45,-514.53C335.34,-518.2 370.77,-522.41 400.48,-525.95"/>
<polygon fill="orange" stroke="orange" points="304.51,-511.01 294.16,-513.31 303.68,-517.96 304.51,-511.01"/>
<text text-anchor="middle" x="333.5" y="-522.62" font-family="Helvetica,sans-Serif" font-size="10.00"> &lt; Vec &gt;</text>
</g>
<!-- Node17 -->
<g id="node17" class="node">
<title>Node17</title>
<g id="a_node17"><a xlink:href="structMoFEM_1_1SmartPetscObj.html" target="_top" xlink:title=" ">
<polygon fill="white" stroke="black" points="400.5,-469.62 400.5,-499.62 531.5,-499.62 531.5,-469.62 400.5,-469.62"/>
<text text-anchor="start" x="408.5" y="-487.62" font-family="Helvetica,sans-Serif" font-size="10.00">MoFEM::SmartPetscObj</text>
<text text-anchor="middle" x="466" y="-476.62" font-family="Helvetica,sans-Serif" font-size="10.00">&lt; DM &gt;</text>
</a>
</g>
</g>
<!-- Node6&#45;&gt;Node17 -->
<g id="edge18" class="edge">
<title>Node6&#45;&gt;Node17</title>
<path fill="none" stroke="orange" stroke-dasharray="5,2" d="M304.36,-497.35C306.94,-497.1 309.49,-496.85 312,-496.62 340.92,-493.91 372.94,-491.33 400.19,-489.26"/>
<polygon fill="orange" stroke="orange" points="303.93,-493.88 294.33,-498.36 304.63,-500.84 303.93,-493.88"/>
<text text-anchor="middle" x="333.5" y="-499.62" font-family="Helvetica,sans-Serif" font-size="10.00"> &lt; DM &gt;</text>
</g>
<!-- Node7 -->
<g id="node7" class="node">
<title>Node7</title>
<g id="a_node7"><a xlink:title=" ">
<polygon fill="white" stroke="#bfbfbf" points="0,-485.12 0,-526.12 126,-526.12 126,-485.12 0,-485.12"/>
<text text-anchor="start" x="8" y="-514.12" font-family="Helvetica,sans-Serif" font-size="10.00">boost::intrusive_ptr</text>
<text text-anchor="start" x="8" y="-503.12" font-family="Helvetica,sans-Serif" font-size="10.00">&lt; std::remove_pointer</text>
<text text-anchor="middle" x="63" y="-492.12" font-family="Helvetica,sans-Serif" font-size="10.00">&lt; OBJ &gt;::type &gt;</text>
</a>
</g>
</g>
<!-- Node7&#45;&gt;Node6 -->
<g id="edge6" class="edge">
<title>Node7&#45;&gt;Node6</title>
<path fill="none" stroke="midnightblue" d="M136.52,-505.62C145.33,-505.62 154.27,-505.62 162.95,-505.62"/>
<polygon fill="midnightblue" stroke="midnightblue" points="136.28,-502.12 126.28,-505.62 136.28,-509.12 136.28,-502.12"/>
</g>
<!-- Node8 -->
<g id="node8" class="node">
<title>Node8</title>
<g id="a_node8"><a xlink:href="classdouble.html" target="_top" xlink:title=" ">
<polygon fill="white" stroke="black" points="441,-431.12 441,-450.12 491,-450.12 491,-431.12 441,-431.12"/>
<text text-anchor="middle" x="466" y="-438.12" font-family="Helvetica,sans-Serif" font-size="10.00">double</text>
</a>
</g>
</g>
<!-- Node8&#45;&gt;Node1 -->
<g id="edge7" class="edge">
<title>Node8&#45;&gt;Node1</title>
<path fill="none" stroke="#9a32cd" stroke-dasharray="5,2" d="M501.41,-439.53C574.45,-436.98 740.14,-429.81 762,-416.62 804.19,-391.16 826.63,-331.88 834.11,-308.42"/>
<polygon fill="#9a32cd" stroke="#9a32cd" points="501.21,-436.04 491.33,-439.87 501.44,-443.03 501.21,-436.04"/>
<text text-anchor="middle" x="669.5" y="-449.62" font-family="Helvetica,sans-Serif" font-size="10.00"> deltaTime</text>
<text text-anchor="middle" x="669.5" y="-438.62" font-family="Helvetica,sans-Serif" font-size="10.00">lastTime</text>
</g>
<!-- Node9 -->
<g id="node9" class="node">
<title>Node9</title>
<g id="a_node9"><a xlink:title=" ">
<polygon fill="white" stroke="#bfbfbf" points="399,-371.12 399,-412.12 533,-412.12 533,-371.12 399,-371.12"/>
<text text-anchor="start" x="407" y="-400.12" font-family="Helvetica,sans-Serif" font-size="10.00">tuple&lt; SmartPetscObj</text>
<text text-anchor="start" x="407" y="-389.12" font-family="Helvetica,sans-Serif" font-size="10.00">&lt; Vec &gt;, SmartPetscObj</text>
<text text-anchor="middle" x="466" y="-378.12" font-family="Helvetica,sans-Serif" font-size="10.00">&lt; VecScatter &gt; &gt;</text>
</a>
</g>
</g>
<!-- Node9&#45;&gt;Node1 -->
<g id="edge8" class="edge">
<title>Node9&#45;&gt;Node1</title>
<path fill="none" stroke="#9a32cd" stroke-dasharray="5,2" d="M543.41,-384.34C617.17,-376.61 723.23,-363.49 762,-348.62 787.13,-338.98 812.35,-319.72 826.19,-308.12"/>
<polygon fill="#9a32cd" stroke="#9a32cd" points="542.81,-380.88 533.22,-385.39 543.53,-387.84 542.81,-380.88"/>
<text text-anchor="middle" x="669.5" y="-404.62" font-family="Helvetica,sans-Serif" font-size="10.00"> uZScatter</text>
<text text-anchor="middle" x="669.5" y="-393.62" font-family="Helvetica,sans-Serif" font-size="10.00">uYScatter</text>
<text text-anchor="middle" x="669.5" y="-382.62" font-family="Helvetica,sans-Serif" font-size="10.00">uXScatter</text>
</g>
<!-- Node10 -->
<g id="node10" class="node">
<title>Node10</title>
<g id="a_node10"><a xlink:title=" ">
<polygon fill="white" stroke="#bfbfbf" points="394.5,-333.12 394.5,-352.12 537.5,-352.12 537.5,-333.12 394.5,-333.12"/>
<text text-anchor="middle" x="466" y="-340.12" font-family="Helvetica,sans-Serif" font-size="10.00">VectorFun&lt; SPACE_DIM &gt;</text>
</a>
</g>
</g>
<!-- Node10&#45;&gt;Node1 -->
<g id="edge9" class="edge">
<title>Node10&#45;&gt;Node1</title>
<path fill="none" stroke="#9a32cd" stroke-dasharray="5,2" d="M547.65,-336.86C607.1,-332.1 689.82,-324.36 762,-313.62 772.11,-312.11 782.93,-310.16 793.11,-308.16"/>
<polygon fill="#9a32cd" stroke="#9a32cd" points="547.27,-333.38 537.58,-337.66 547.82,-340.36 547.27,-333.38"/>
<text text-anchor="middle" x="669.5" y="-336.62" font-family="Helvetica,sans-Serif" font-size="10.00"> analyticalHertzDisplacement3D</text>
</g>
<!-- Node11 -->
<g id="node11" class="node">
<title>Node11</title>
<g id="a_node11"><a xlink:title=" ">
<polygon fill="white" stroke="#bfbfbf" points="387,-283.62 387,-313.62 545,-313.62 545,-283.62 387,-283.62"/>
<text text-anchor="start" x="395" y="-301.62" font-family="Helvetica,sans-Serif" font-size="10.00">shared_ptr&lt; GenericElement</text>
<text text-anchor="middle" x="466" y="-290.62" font-family="Helvetica,sans-Serif" font-size="10.00">Interface &gt;</text>
</a>
</g>
</g>
<!-- Node11&#45;&gt;Node1 -->
<g id="edge10" class="edge">
<title>Node11&#45;&gt;Node1</title>
<path fill="none" stroke="#9a32cd" stroke-dasharray="5,2" d="M555.1,-298.62C624.75,-298.62 719.92,-298.62 779.93,-298.62"/>
<polygon fill="#9a32cd" stroke="#9a32cd" points="555.02,-295.12 545.02,-298.62 555.02,-302.12 555.02,-295.12"/>
<text text-anchor="middle" x="669.5" y="-301.62" font-family="Helvetica,sans-Serif" font-size="10.00"> mfrontInterface</text>
</g>
<!-- Node12 -->
<g id="node12" class="node">
<title>Node12</title>
<g id="a_node12"><a xlink:title=" ">
<polygon fill="white" stroke="#bfbfbf" points="430.5,-245.12 430.5,-264.12 501.5,-264.12 501.5,-245.12 430.5,-245.12"/>
<text text-anchor="middle" x="466" y="-252.12" font-family="Helvetica,sans-Serif" font-size="10.00">Interface &amp;</text>
</a>
</g>
</g>
<!-- Node12&#45;&gt;Node1 -->
<g id="edge11" class="edge">
<title>Node12&#45;&gt;Node1</title>
<path fill="none" stroke="#9a32cd" stroke-dasharray="5,2" d="M511.93,-257.64C569.92,-261.86 673.83,-270.5 762,-283.62 772.11,-285.12 782.93,-287.08 793.11,-289.08"/>
<polygon fill="#9a32cd" stroke="#9a32cd" points="511.88,-254.13 501.65,-256.9 511.38,-261.11 511.88,-254.13"/>
<text text-anchor="middle" x="669.5" y="-286.62" font-family="Helvetica,sans-Serif" font-size="10.00"> moabVertex</text>
</g>
<!-- Node13 -->
<g id="node13" class="node">
<title>Node13</title>
<g id="a_node13"><a xlink:title=" ">
<polygon fill="white" stroke="#bfbfbf" points="451.5,-207.12 451.5,-226.12 480.5,-226.12 480.5,-207.12 451.5,-207.12"/>
<text text-anchor="middle" x="466" y="-214.12" font-family="Helvetica,sans-Serif" font-size="10.00">int</text>
</a>
</g>
</g>
<!-- Node13&#45;&gt;Node1 -->
<g id="edge12" class="edge">
<title>Node13&#45;&gt;Node1</title>
<path fill="none" stroke="#9a32cd" stroke-dasharray="5,2" d="M490.84,-215.27C542.18,-213.19 666.26,-212.57 762,-247.62 787.43,-256.93 812.55,-276.75 826.29,-288.76"/>
<polygon fill="#9a32cd" stroke="#9a32cd" points="490.58,-211.78 480.76,-215.74 490.91,-218.77 490.58,-211.78"/>
<text text-anchor="middle" x="669.5" y="-250.62" font-family="Helvetica,sans-Serif" font-size="10.00"> sTEP</text>
</g>
<!-- Node14 -->
<g id="node14" class="node">
<title>Node14</title>
<g id="a_node14"><a xlink:title=" ">
<polygon fill="white" stroke="#bfbfbf" points="390,-169.12 390,-188.12 542,-188.12 542,-169.12 390,-169.12"/>
<text text-anchor="middle" x="466" y="-176.12" font-family="Helvetica,sans-Serif" font-size="10.00">shared_ptr&lt; BoundaryEle &gt;</text>
</a>
</g>
</g>
<!-- Node14&#45;&gt;Node1 -->
<g id="edge13" class="edge">
<title>Node14&#45;&gt;Node1</title>
<path fill="none" stroke="#9a32cd" stroke-dasharray="5,2" d="M518.62,-167.3C580.57,-156.57 685.64,-147.63 762,-189.62 802.66,-211.97 825.85,-266.91 833.82,-289.1"/>
<polygon fill="#9a32cd" stroke="#9a32cd" points="517.9,-163.88 508.69,-169.1 519.15,-170.76 517.9,-163.88"/>
<text text-anchor="middle" x="669.5" y="-203.62" font-family="Helvetica,sans-Serif" font-size="10.00"> integrateTraction</text>
<text text-anchor="middle" x="669.5" y="-192.62" font-family="Helvetica,sans-Serif" font-size="10.00">integrateArea</text>
</g>
<!-- Node15 -->
<g id="node15" class="node">
<title>Node15</title>
<g id="a_node15"><a xlink:title=" ">
<polygon fill="white" stroke="#bfbfbf" points="373,-131.12 373,-150.12 559,-150.12 559,-131.12 373,-131.12"/>
<text text-anchor="middle" x="466" y="-138.12" font-family="Helvetica,sans-Serif" font-size="10.00">shared_ptr&lt; PostProcEleDomain &gt;</text>
</a>
</g>
</g>
<!-- Node15&#45;&gt;Node1 -->
<g id="edge14" class="edge">
<title>Node15&#45;&gt;Node1</title>
<path fill="none" stroke="#9a32cd" stroke-dasharray="5,2" d="M566.27,-130.31C639.05,-124.77 730.44,-122.62 762,-142.62 815.56,-176.55 831.78,-260.52 835.83,-289"/>
<polygon fill="#9a32cd" stroke="#9a32cd" points="565.82,-126.84 556.13,-131.12 566.37,-133.81 565.82,-126.84"/>
<text text-anchor="middle" x="669.5" y="-145.62" font-family="Helvetica,sans-Serif" font-size="10.00"> postProcDomainFe</text>
</g>
<!-- Node16 -->
<g id="node16" class="node">
<title>Node16</title>
<g id="a_node16"><a xlink:title=" ">
<polygon fill="white" stroke="#bfbfbf" points="392.5,-93.12 392.5,-112.12 539.5,-112.12 539.5,-93.12 392.5,-93.12"/>
<text text-anchor="middle" x="466" y="-100.12" font-family="Helvetica,sans-Serif" font-size="10.00">shared_ptr&lt; moab::Core &gt;</text>
</a>
</g>
</g>
<!-- Node16&#45;&gt;Node1 -->
<g id="edge15" class="edge">
<title>Node16&#45;&gt;Node1</title>
<path fill="none" stroke="#9a32cd" stroke-dasharray="5,2" d="M549.93,-94.99C625.07,-89.82 728.94,-87.55 762,-110.62 823.96,-153.85 834.75,-257.07 836.61,-289.02"/>
<polygon fill="#9a32cd" stroke="#9a32cd" points="549.25,-91.53 539.53,-95.74 549.75,-98.51 549.25,-91.53"/>
<text text-anchor="middle" x="669.5" y="-113.62" font-family="Helvetica,sans-Serif" font-size="10.00"> postProcMesh</text>
</g>
<!-- Node17&#45;&gt;Node1 -->
<g id="edge16" class="edge">
<title>Node17&#45;&gt;Node1</title>
<path fill="none" stroke="#9a32cd" stroke-dasharray="5,2" d="M542.13,-487.2C617.66,-488.33 727.69,-485.53 762,-461.62 815.92,-424.04 831.91,-337.67 835.86,-308.47"/>
<polygon fill="#9a32cd" stroke="#9a32cd" points="541.78,-483.69 531.71,-487.01 541.65,-490.69 541.78,-483.69"/>
<text text-anchor="middle" x="669.5" y="-489.62" font-family="Helvetica,sans-Serif" font-size="10.00"> dM</text>
</g>
<!-- Node18 -->
<g id="node18" class="node">
<title>Node18</title>
<g id="a_node18"><a xlink:title=" ">
<polygon fill="white" stroke="#bfbfbf" points="165.5,-430.12 165.5,-471.12 291.5,-471.12 291.5,-430.12 165.5,-430.12"/>
<text text-anchor="start" x="173.5" y="-459.12" font-family="Helvetica,sans-Serif" font-size="10.00">boost::intrusive_ptr</text>
<text text-anchor="start" x="173.5" y="-448.12" font-family="Helvetica,sans-Serif" font-size="10.00">&lt; std::remove_pointer</text>
<text text-anchor="middle" x="228.5" y="-437.12" font-family="Helvetica,sans-Serif" font-size="10.00">&lt; DM &gt;::type &gt;</text>
</a>
</g>
</g>
<!-- Node18&#45;&gt;Node17 -->
<g id="edge17" class="edge">
<title>Node18&#45;&gt;Node17</title>
<path fill="none" stroke="midnightblue" d="M301.71,-461.04C333.21,-465.59 369.83,-470.88 400.41,-475.29"/>
<polygon fill="midnightblue" stroke="midnightblue" points="302.08,-457.56 291.68,-459.6 301.08,-464.49 302.08,-457.56"/>
</g>
<!-- Node19 -->
<g id="node19" class="node">
<title>Node19</title>
<g id="a_node19"><a xlink:title=" ">
<polygon fill="white" stroke="#bfbfbf" points="446.5,-55.12 446.5,-74.12 485.5,-74.12 485.5,-55.12 446.5,-55.12"/>
<text text-anchor="middle" x="466" y="-62.12" font-family="Helvetica,sans-Serif" font-size="10.00">Core</text>
</a>
</g>
</g>
<!-- Node19&#45;&gt;Node1 -->
<g id="edge19" class="edge">
<title>Node19&#45;&gt;Node1</title>
<path fill="none" stroke="#9a32cd" stroke-dasharray="5,2" d="M496,-61.68C561.95,-55.62 720.68,-44.74 762,-75.62 833.33,-128.92 837.56,-253.15 837.25,-288.86"/>
<polygon fill="#9a32cd" stroke="#9a32cd" points="495.5,-58.21 485.88,-62.64 496.17,-65.18 495.5,-58.21"/>
<text text-anchor="middle" x="669.5" y="-78.62" font-family="Helvetica,sans-Serif" font-size="10.00"> mbVertexPostproc</text>
</g>
<!-- Node20 -->
<g id="node20" class="node">
<title>Node20</title>
<g id="a_node20"><a xlink:title=" ">
<polygon fill="white" stroke="#bfbfbf" points="382.5,-17.12 382.5,-36.12 549.5,-36.12 549.5,-17.12 382.5,-17.12"/>
<text text-anchor="middle" x="466" y="-24.12" font-family="Helvetica,sans-Serif" font-size="10.00">shared_ptr&lt; PostProcEleBdy &gt;</text>
</a>
</g>
</g>
<!-- Node20&#45;&gt;Node1 -->
<g id="edge20" class="edge">
<title>Node20&#45;&gt;Node1</title>
<path fill="none" stroke="#9a32cd" stroke-dasharray="5,2" d="M509.93,-14.59C572.54,0.15 689.34,16.67 762,-40.62 803.03,-72.96 829.68,-246.24 835.7,-289.05"/>
<polygon fill="#9a32cd" stroke="#9a32cd" points="508.87,-11.24 499.99,-17.02 510.54,-18.04 508.87,-11.24"/>
<text text-anchor="middle" x="669.5" y="-43.62" font-family="Helvetica,sans-Serif" font-size="10.00"> postProcBdyFe</text>
</g>
</g>
</svg>
        <g id="navigator" transform="translate(0 0)" fill="#404254">
                <rect fill="#f2f5e9" fill-opacity="0.5" stroke="#606060" stroke-width=".5" x="0" y="0" width="60" height="60"/>
                <use id="zoomplus" xlink:href="#zoomPlus" x="17" y="9" onmousedown="handleZoom(evt,'in')"/>
                <use id="zoomminus" xlink:href="#zoomMin" x="42" y="9" onmousedown="handleZoom(evt,'out')"/>
                <use id="reset" xlink:href="#resetDef" x="30" y="36" onmousedown="handleReset()"/>
                <g id="arrowUp" xlink:href="#dirArrow" transform="translate(30 24)" onmousedown="handlePan(0,-1)">
                  <use xlink:href="#rim" fill="#404040">
                        <set attributeName="fill" to="#808080" begin="arrowUp.mouseover" end="arrowUp.mouseout"/>
                  </use>
                  <path fill="none" stroke="white" stroke-width="1.5" d="M0,-3.0v7 M-2.5,-0.5L0,-3.0L2.5,-0.5"/>
                </g>
                <g id="arrowRight" xlink:href="#dirArrow" transform="rotate(90) translate(36 -43)" onmousedown="handlePan(1,0)">
                  <use xlink:href="#rim" fill="#404040">
                        <set attributeName="fill" to="#808080" begin="arrowRight.mouseover" end="arrowRight.mouseout"/>
                  </use>
                  <path fill="none" stroke="white" stroke-width="1.5" d="M0,-3.0v7 M-2.5,-0.5L0,-3.0L2.5,-0.5"/>
                </g>
                <g id="arrowDown" xlink:href="#dirArrow" transform="rotate(180) translate(-30 -48)" onmousedown="handlePan(0,1)">
                  <use xlink:href="#rim" fill="#404040">
                        <set attributeName="fill" to="#808080" begin="arrowDown.mouseover" end="arrowDown.mouseout"/>
                  </use>
                  <path fill="none" stroke="white" stroke-width="1.5" d="M0,-3.0v7 M-2.5,-0.5L0,-3.0L2.5,-0.5"/>
                </g>
                <g id="arrowLeft" xlink:href="#dirArrow" transform="rotate(270) translate(-36 17)" onmousedown="handlePan(-1,0)">
                  <use xlink:href="#rim" fill="#404040">
                        <set attributeName="fill" to="#808080" begin="arrowLeft.mouseover" end="arrowLeft.mouseout"/>
                  </use>
                  <path fill="none" stroke="white" stroke-width="1.5" d="M0,-3.0v7 M-2.5,-0.5L0,-3.0L2.5,-0.5"/>
                </g>
        </g>
        <svg viewBox="0 0 15 15" width="100%" height="30px" preserveAspectRatio="xMaxYMin meet">
         <g id="arrow_out" transform="scale(0.3 0.3)">
          <a xlink:href="structContactOps_1_1Monitor__coll__graph_org.svg" target="_base">
           <rect id="button" ry="5" rx="5" y="6" x="6" height="38" width="38"
                fill="#f2f5e9" fill-opacity="0.5" stroke="#606060" stroke-width="1.0"/>
           <path id="arrow"
             d="M 11.500037,31.436501 C 11.940474,20.09759 22.043105,11.32322 32.158766,21.979434 L 37.068811,17.246167 C 37.068811,17.246167 37.088388,32 37.088388,32 L 22.160133,31.978069 C 22.160133,31.978069 26.997745,27.140456 26.997745,27.140456 C 18.528582,18.264221 13.291696,25.230495 11.500037,31.436501 z"
             style="fill:#404040;"/>
          </a>
         </g>
        </svg>
</svg>
