<?xml version="1.0" encoding="UTF-8" standalone="no"?>
<!DOCTYPE svg PUBLIC "-//W3C//DTD SVG 1.1//EN"
 "http://www.w3.org/Graphics/SVG/1.1/DTD/svg11.dtd">
<!-- Generated by graphviz version 2.43.0 (0)
 -->
<!-- Title: MoFEM::VolumeElementForcesAndSourcesCore Pages: 1 -->
<!--zoomable 843 -->
<svg id="main" version="1.1" xmlns="http://www.w3.org/2000/svg" xmlns:xlink="http://www.w3.org/1999/xlink" xml:space="preserve" onload="init(evt)">
<style type="text/css"><![CDATA[
.edge:hover path { stroke: red; }
.edge:hover polygon { stroke: red; fill: red; }
]]></style>
<script type="text/javascript"><![CDATA[
var edges = document.getElementsByTagName('g');
if (edges && edges.length) {
  for (var i=0;i<edges.length;i++) {
    if (edges[i].id.substr(0,4)=='edge') {
      edges[i].setAttribute('class','edge');
    }
  }
}
]]></script>
        <defs>
                <circle id="rim" cx="0" cy="0" r="7"/>
                <circle id="rim2" cx="0" cy="0" r="3.5"/>
                <g id="zoomPlus">
                        <use xlink:href="#rim" fill="#404040">
                                <set attributeName="fill" to="#808080" begin="zoomplus.mouseover" end="zoomplus.mouseout"/>
                        </use>
                        <path d="M-4,0h8M0,-4v8" fill="none" stroke="white" stroke-width="1.5" pointer-events="none"/>
                </g>
                <g id="zoomMin">
                        <use xlink:href="#rim" fill="#404040">
                                <set attributeName="fill" to="#808080" begin="zoomminus.mouseover" end="zoomminus.mouseout"/>
                        </use>
                        <path d="M-4,0h8" fill="none" stroke="white" stroke-width="1.5" pointer-events="none"/>
                </g>
                <g id="dirArrow">
                        <path fill="none" stroke="white" stroke-width="1.5" d="M0,-3.0v7 M-2.5,-0.5L0,-3.0L2.5,-0.5"/>
                </g>
               <g id="resetDef">
                       <use xlink:href="#rim2" fill="#404040">
                               <set attributeName="fill" to="#808080" begin="reset.mouseover" end="reset.mouseout"/>
                       </use>
               </g>
        </defs>

<script type="text/javascript">
var viewWidth = 1865;
var viewHeight = 843;
var sectionId = 'dynsection-0';
</script>
<script xlink:href="svgpan.js"/>
<svg id="graph" class="graph">
<g id="viewport">
<title>MoFEM::VolumeElementForcesAndSourcesCore</title>
<polygon fill="white" stroke="transparent" points="-4,4 -4,-839 1861,-839 1861,4 -4,4"/>
<!-- Node1 -->
<g id="node1" class="node">
<title>Node1</title>
<g id="a_node1"><a xlink:title="Volume finite element base.">
<polygon fill="#bfbfbf" stroke="black" points="990,-418.5 990,-448.5 1157,-448.5 1157,-418.5 990,-418.5"/>
<text text-anchor="start" x="998" y="-436.5" font-family="Helvetica,sans-Serif" font-size="10.00">MoFEM::VolumeElementForces</text>
<text text-anchor="middle" x="1073.5" y="-425.5" font-family="Helvetica,sans-Serif" font-size="10.00">AndSourcesCore</text>
</a>
</g>
</g>
<!-- Node10 -->
<g id="node10" class="node">
<title>Node10</title>
<g id="a_node10"><a xlink:href="structBodyForceConstantField_1_1MyVolumeFE.html" target="_top" xlink:title=" ">
<polygon fill="white" stroke="black" points="1228.5,-804.5 1228.5,-834.5 1362.5,-834.5 1362.5,-804.5 1228.5,-804.5"/>
<text text-anchor="start" x="1236.5" y="-822.5" font-family="Helvetica,sans-Serif" font-size="10.00">BodyForceConstantField</text>
<text text-anchor="middle" x="1295.5" y="-811.5" font-family="Helvetica,sans-Serif" font-size="10.00">::MyVolumeFE</text>
</a>
</g>
</g>
<!-- Node1&#45;&gt;Node10 -->
<g id="edge11" class="edge">
<title>Node1&#45;&gt;Node10</title>
<path fill="none" stroke="midnightblue" d="M1074.89,-458.79C1077.33,-524.52 1093.31,-702.08 1193,-794.5 1202.85,-803.63 1215.48,-809.57 1228.47,-813.4"/>
<polygon fill="midnightblue" stroke="midnightblue" points="1078.38,-458.43 1074.59,-448.54 1071.38,-458.64 1078.38,-458.43"/>
</g>
<!-- Node11 -->
<g id="node11" class="node">
<title>Node11</title>
<g id="a_node11"><a xlink:href="structBoneRemodeling_1_1DensityMapFe.html" target="_top" xlink:title=" ">
<polygon fill="white" stroke="black" points="1207.5,-766 1207.5,-785 1383.5,-785 1383.5,-766 1207.5,-766"/>
<text text-anchor="middle" x="1295.5" y="-773" font-family="Helvetica,sans-Serif" font-size="10.00">BoneRemodeling::DensityMapFe</text>
</a>
</g>
</g>
<!-- Node1&#45;&gt;Node11 -->
<g id="edge12" class="edge">
<title>Node1&#45;&gt;Node11</title>
<path fill="none" stroke="midnightblue" d="M1075.71,-458.92C1080.09,-520.44 1100.27,-678.06 1193,-756.5 1197.38,-760.21 1202.25,-763.28 1207.42,-765.83"/>
<polygon fill="midnightblue" stroke="midnightblue" points="1079.18,-458.35 1075.06,-448.59 1072.19,-458.79 1079.18,-458.35"/>
</g>
<!-- Node12 -->
<g id="node12" class="node">
<title>Node12</title>
<g id="a_node12"><a xlink:href="structBoneRemodeling_1_1Remodeling_1_1Fe.html" target="_top" xlink:title="Volume finite element.">
<polygon fill="white" stroke="black" points="1204.5,-728 1204.5,-747 1386.5,-747 1386.5,-728 1204.5,-728"/>
<text text-anchor="middle" x="1295.5" y="-735" font-family="Helvetica,sans-Serif" font-size="10.00">BoneRemodeling::Remodeling::Fe</text>
</a>
</g>
</g>
<!-- Node1&#45;&gt;Node12 -->
<g id="edge13" class="edge">
<title>Node1&#45;&gt;Node12</title>
<path fill="none" stroke="midnightblue" d="M1077.06,-458.63C1084.2,-514.82 1109.66,-650.98 1193,-718.5 1197.6,-722.22 1202.7,-725.3 1208.09,-727.84"/>
<polygon fill="midnightblue" stroke="midnightblue" points="1080.51,-458.02 1075.86,-448.5 1073.56,-458.84 1080.51,-458.02"/>
</g>
<!-- Node13 -->
<g id="node13" class="node">
<title>Node13</title>
<g id="a_node13"><a xlink:href="structEshelbianPlasticity_1_1SetIntegrationAtFrontVolume_1_1VolFe.html" target="_top" xlink:title=" ">
<polygon fill="white" stroke="black" points="1213.5,-668 1213.5,-709 1377.5,-709 1377.5,-668 1213.5,-668"/>
<text text-anchor="start" x="1221.5" y="-697" font-family="Helvetica,sans-Serif" font-size="10.00">EshelbianPlasticity</text>
<text text-anchor="start" x="1221.5" y="-686" font-family="Helvetica,sans-Serif" font-size="10.00">::SetIntegrationAtFrontVolume</text>
<text text-anchor="middle" x="1295.5" y="-675" font-family="Helvetica,sans-Serif" font-size="10.00">::VolFe</text>
</a>
</g>
</g>
<!-- Node1&#45;&gt;Node13 -->
<g id="edge14" class="edge">
<title>Node1&#45;&gt;Node13</title>
<path fill="none" stroke="midnightblue" d="M1080.72,-458.55C1093.55,-505.02 1127.43,-604.75 1193,-658.5 1199.11,-663.51 1206.03,-667.68 1213.32,-671.16"/>
<polygon fill="midnightblue" stroke="midnightblue" points="1084.05,-457.47 1078.09,-448.71 1077.29,-459.27 1084.05,-457.47"/>
</g>
<!-- Node14 -->
<g id="node14" class="node">
<title>Node14</title>
<g id="a_node14"><a xlink:href="structGelModule_1_1Gel_1_1GelFE.html" target="_top" xlink:title="definition of volume element">
<polygon fill="white" stroke="black" points="1232.5,-630 1232.5,-649 1358.5,-649 1358.5,-630 1232.5,-630"/>
<text text-anchor="middle" x="1295.5" y="-637" font-family="Helvetica,sans-Serif" font-size="10.00">GelModule::Gel::GelFE</text>
</a>
</g>
</g>
<!-- Node1&#45;&gt;Node14 -->
<g id="edge15" class="edge">
<title>Node1&#45;&gt;Node14</title>
<path fill="none" stroke="midnightblue" d="M1082.68,-458.05C1097.64,-498.86 1133.45,-580.15 1193,-620.5 1204.58,-628.34 1218.52,-633.17 1232.32,-636.09"/>
<polygon fill="midnightblue" stroke="midnightblue" points="1085.97,-456.85 1079.33,-448.6 1079.37,-459.19 1085.97,-456.85"/>
</g>
<!-- Node15 -->
<g id="node15" class="node">
<title>Node15</title>
<g id="a_node15"><a xlink:href="structKelvinVoigtDamper_1_1DamperFE.html" target="_top" xlink:title="definition of volume element">
<polygon fill="white" stroke="black" points="1237.5,-580.5 1237.5,-610.5 1353.5,-610.5 1353.5,-580.5 1237.5,-580.5"/>
<text text-anchor="start" x="1245.5" y="-598.5" font-family="Helvetica,sans-Serif" font-size="10.00">KelvinVoigtDamper::</text>
<text text-anchor="middle" x="1295.5" y="-587.5" font-family="Helvetica,sans-Serif" font-size="10.00">DamperFE</text>
</a>
</g>
</g>
<!-- Node1&#45;&gt;Node15 -->
<g id="edge16" class="edge">
<title>Node1&#45;&gt;Node15</title>
<path fill="none" stroke="midnightblue" d="M1088.52,-457.38C1107.97,-488.35 1146.1,-541.77 1193,-570.5 1206.31,-578.65 1222.13,-584.15 1237.27,-587.85"/>
<polygon fill="midnightblue" stroke="midnightblue" points="1091.31,-455.24 1083.09,-448.55 1085.34,-458.9 1091.31,-455.24"/>
</g>
<!-- Node16 -->
<g id="node16" class="node">
<title>Node16</title>
<g id="a_node16"><a xlink:href="structMagneticElement_1_1VolumeFE.html" target="_top" xlink:title="definition of volume element">
<polygon fill="white" stroke="black" points="1217,-542 1217,-561 1374,-561 1374,-542 1217,-542"/>
<text text-anchor="middle" x="1295.5" y="-549" font-family="Helvetica,sans-Serif" font-size="10.00">MagneticElement::VolumeFE</text>
</a>
</g>
</g>
<!-- Node1&#45;&gt;Node16 -->
<g id="edge17" class="edge">
<title>Node1&#45;&gt;Node16</title>
<path fill="none" stroke="midnightblue" d="M1094.85,-456.29C1116.74,-479.29 1153.74,-513.99 1193,-532.5 1201.27,-536.4 1210.27,-539.5 1219.39,-541.96"/>
<polygon fill="midnightblue" stroke="midnightblue" points="1097.13,-453.61 1087.75,-448.69 1092.01,-458.39 1097.13,-453.61"/>
</g>
<!-- Node17 -->
<g id="node17" class="node">
<title>Node17</title>
<g id="a_node17"><a xlink:href="structMixTransport_1_1MixTransportElement_1_1MyVolumeFE.html" target="_top" xlink:title="definition of volume element">
<polygon fill="white" stroke="black" points="1221,-492.5 1221,-522.5 1370,-522.5 1370,-492.5 1221,-492.5"/>
<text text-anchor="start" x="1229" y="-510.5" font-family="Helvetica,sans-Serif" font-size="10.00">MixTransport::MixTransport</text>
<text text-anchor="middle" x="1295.5" y="-499.5" font-family="Helvetica,sans-Serif" font-size="10.00">Element::MyVolumeFE</text>
</a>
</g>
</g>
<!-- Node1&#45;&gt;Node17 -->
<g id="edge18" class="edge">
<title>Node1&#45;&gt;Node17</title>
<path fill="none" stroke="midnightblue" d="M1115.4,-452.75C1137.94,-462.85 1166.63,-474.89 1193,-483.5 1202.98,-486.76 1213.65,-489.78 1224.19,-492.49"/>
<polygon fill="midnightblue" stroke="midnightblue" points="1116.69,-449.5 1106.14,-448.56 1113.8,-455.87 1116.69,-449.5"/>
</g>
<!-- Node18 -->
<g id="node18" class="node">
<title>Node18</title>
<g id="a_node18"><a xlink:href="structMoFEM_1_1FatPrismElementForcesAndSourcesCore.html" target="_top" xlink:title="FatPrism finite element.">
<polygon fill="white" stroke="black" points="1209,-443.5 1209,-473.5 1382,-473.5 1382,-443.5 1209,-443.5"/>
<text text-anchor="start" x="1217" y="-461.5" font-family="Helvetica,sans-Serif" font-size="10.00">MoFEM::FatPrismElementForces</text>
<text text-anchor="middle" x="1295.5" y="-450.5" font-family="Helvetica,sans-Serif" font-size="10.00">AndSourcesCore</text>
</a>
</g>
</g>
<!-- Node1&#45;&gt;Node18 -->
<g id="edge19" class="edge">
<title>Node1&#45;&gt;Node18</title>
<path fill="none" stroke="midnightblue" d="M1167.07,-444.02C1180.95,-445.6 1195.2,-447.22 1208.92,-448.78"/>
<polygon fill="midnightblue" stroke="midnightblue" points="1167.38,-440.53 1157.05,-442.88 1166.59,-447.49 1167.38,-440.53"/>
</g>
<!-- Node23 -->
<g id="node23" class="node">
<title>Node23</title>
<g id="a_node23"><a xlink:href="structMoFEM_1_1VolumeElementForcesAndSourcesCoreOnContactPrismSide.html" target="_top" xlink:title="Base volume element used to integrate on contact surface (could be extended to other volume elements)">
<polygon fill="white" stroke="black" points="1197.5,-394.5 1197.5,-424.5 1393.5,-424.5 1393.5,-394.5 1197.5,-394.5"/>
<text text-anchor="start" x="1205.5" y="-412.5" font-family="Helvetica,sans-Serif" font-size="10.00">MoFEM::VolumeElementForces</text>
<text text-anchor="middle" x="1295.5" y="-401.5" font-family="Helvetica,sans-Serif" font-size="10.00">AndSourcesCoreOnContactPrismSide</text>
</a>
</g>
</g>
<!-- Node1&#45;&gt;Node23 -->
<g id="edge24" class="edge">
<title>Node1&#45;&gt;Node23</title>
<path fill="none" stroke="midnightblue" d="M1167.01,-423.41C1177.06,-422.31 1187.31,-421.19 1197.41,-420.09"/>
<polygon fill="midnightblue" stroke="midnightblue" points="1166.61,-419.93 1157.05,-424.5 1167.37,-426.89 1166.61,-419.93"/>
</g>
<!-- Node25 -->
<g id="node25" class="node">
<title>Node25</title>
<g id="a_node25"><a xlink:href="structMoFEM_1_1VolumeElementForcesAndSourcesCoreOnSide.html" target="_top" xlink:title="Base volume element used to integrate on skeleton.">
<polygon fill="white" stroke="black" points="1212,-345.5 1212,-375.5 1379,-375.5 1379,-345.5 1212,-345.5"/>
<text text-anchor="start" x="1220" y="-363.5" font-family="Helvetica,sans-Serif" font-size="10.00">MoFEM::VolumeElementForces</text>
<text text-anchor="middle" x="1295.5" y="-352.5" font-family="Helvetica,sans-Serif" font-size="10.00">AndSourcesCoreOnSide</text>
</a>
</g>
</g>
<!-- Node1&#45;&gt;Node25 -->
<g id="edge26" class="edge">
<title>Node1&#45;&gt;Node25</title>
<path fill="none" stroke="midnightblue" d="M1116.39,-414.25C1138.8,-404.45 1167.05,-392.87 1193,-384.5 1203.08,-381.25 1213.85,-378.23 1224.48,-375.5"/>
<polygon fill="midnightblue" stroke="midnightblue" points="1114.9,-411.09 1107.17,-418.33 1117.73,-417.49 1114.9,-411.09"/>
</g>
<!-- Node27 -->
<g id="node27" class="node">
<title>Node27</title>
<g id="a_node27"><a xlink:href="structMoFEM_1_1VolumeElementForcesAndSourcesCoreSwitch.html" target="_top" xlink:title=" ">
<polygon fill="white" stroke="black" points="1201,-296.5 1201,-326.5 1390,-326.5 1390,-296.5 1201,-296.5"/>
<text text-anchor="start" x="1209" y="-314.5" font-family="Helvetica,sans-Serif" font-size="10.00">MoFEM::VolumeElementForces</text>
<text text-anchor="middle" x="1295.5" y="-303.5" font-family="Helvetica,sans-Serif" font-size="10.00">AndSourcesCoreSwitch&lt; SWITCH &gt;</text>
</a>
</g>
</g>
<!-- Node1&#45;&gt;Node27 -->
<g id="edge28" class="edge">
<title>Node1&#45;&gt;Node27</title>
<path fill="none" stroke="midnightblue" d="M1095.44,-410.94C1117.56,-388.48 1154.51,-354.64 1193,-335.5 1199.89,-332.07 1207.29,-329.12 1214.84,-326.58"/>
<polygon fill="midnightblue" stroke="midnightblue" points="1092.69,-408.75 1088.25,-418.38 1097.72,-413.62 1092.69,-408.75"/>
</g>
<!-- Node28 -->
<g id="node28" class="node">
<title>Node28</title>
<g id="a_node28"><a xlink:href="structNitscheMethod_1_1MyVolumeFE.html" target="_top" xlink:title="Definition of volume element.">
<polygon fill="white" stroke="black" points="1215.5,-258 1215.5,-277 1375.5,-277 1375.5,-258 1215.5,-258"/>
<text text-anchor="middle" x="1295.5" y="-265" font-family="Helvetica,sans-Serif" font-size="10.00">NitscheMethod::MyVolumeFE</text>
</a>
</g>
</g>
<!-- Node1&#45;&gt;Node28 -->
<g id="edge29" class="edge">
<title>Node1&#45;&gt;Node28</title>
<path fill="none" stroke="midnightblue" d="M1086.73,-409.43C1105.02,-376.07 1142.8,-316.5 1193,-286.5 1199.92,-282.36 1207.55,-279.09 1215.42,-276.51"/>
<polygon fill="midnightblue" stroke="midnightblue" points="1083.51,-408.02 1081.89,-418.49 1089.69,-411.32 1083.51,-408.02"/>
</g>
<!-- Node30 -->
<g id="node30" class="node">
<title>Node30</title>
<g id="a_node30"><a xlink:href="structNonlinearElasticElement_1_1MyVolumeFE.html" target="_top" xlink:title="definition of volume element">
<polygon fill="white" stroke="black" points="1227,-208.5 1227,-238.5 1364,-238.5 1364,-208.5 1227,-208.5"/>
<text text-anchor="start" x="1235" y="-226.5" font-family="Helvetica,sans-Serif" font-size="10.00">NonlinearElasticElement</text>
<text text-anchor="middle" x="1295.5" y="-215.5" font-family="Helvetica,sans-Serif" font-size="10.00">::MyVolumeFE</text>
</a>
</g>
</g>
<!-- Node1&#45;&gt;Node30 -->
<g id="edge31" class="edge">
<title>Node1&#45;&gt;Node30</title>
<path fill="none" stroke="midnightblue" d="M1083.34,-408.72C1098.97,-368.59 1135.37,-289.76 1193,-248.5 1203.03,-241.32 1214.9,-236.19 1226.92,-232.52"/>
<polygon fill="midnightblue" stroke="midnightblue" points="1079.99,-407.67 1079.73,-418.26 1086.54,-410.15 1079.99,-407.67"/>
</g>
<!-- Node32 -->
<g id="node32" class="node">
<title>Node32</title>
<g id="a_node32"><a xlink:href="structMoFEM_1_1PostProcBrokenMeshInMoabBase.html" target="_top" xlink:title=" ">
<polygon fill="white" stroke="black" points="1197,-148 1197,-189 1394,-189 1394,-148 1197,-148"/>
<text text-anchor="start" x="1205" y="-177" font-family="Helvetica,sans-Serif" font-size="10.00">MoFEM::PostProcBrokenMesh</text>
<text text-anchor="start" x="1205" y="-166" font-family="Helvetica,sans-Serif" font-size="10.00">InMoabBase&lt; VolumeElementForces</text>
<text text-anchor="middle" x="1295.5" y="-155" font-family="Helvetica,sans-Serif" font-size="10.00">AndSourcesCore &gt;</text>
</a>
</g>
</g>
<!-- Node1&#45;&gt;Node32 -->
<g id="edge33" class="edge">
<title>Node1&#45;&gt;Node32</title>
<path fill="none" stroke="midnightblue" d="M1080.13,-408.36C1092.2,-360.29 1125.17,-255.12 1193,-198.5 1197.23,-194.97 1201.87,-191.85 1206.75,-189.1"/>
<polygon fill="midnightblue" stroke="midnightblue" points="1076.69,-407.69 1077.74,-418.24 1083.49,-409.34 1076.69,-407.69"/>
</g>
<!-- Node34 -->
<g id="node34" class="node">
<title>Node34</title>
<g id="a_node34"><a xlink:href="structPostProcTemplateOnRefineMesh.html" target="_top" xlink:title=" ">
<polygon fill="white" stroke="black" points="1193,-88 1193,-129 1398,-129 1398,-88 1193,-88"/>
<text text-anchor="start" x="1201" y="-117" font-family="Helvetica,sans-Serif" font-size="10.00">PostProcTemplateOnRefine</text>
<text text-anchor="start" x="1201" y="-106" font-family="Helvetica,sans-Serif" font-size="10.00">Mesh&lt; MoFEM::VolumeElementForces</text>
<text text-anchor="middle" x="1295.5" y="-95" font-family="Helvetica,sans-Serif" font-size="10.00">AndSourcesCore &gt;</text>
</a>
</g>
</g>
<!-- Node1&#45;&gt;Node34 -->
<g id="edge35" class="edge">
<title>Node1&#45;&gt;Node34</title>
<path fill="none" stroke="midnightblue" d="M1077.29,-408.12C1084.91,-351.27 1111.28,-212.84 1193,-138.5 1196.81,-135.04 1200.99,-131.97 1205.43,-129.26"/>
<polygon fill="midnightblue" stroke="midnightblue" points="1073.78,-408.01 1076.01,-418.36 1080.72,-408.88 1073.78,-408.01"/>
</g>
<!-- Node37 -->
<g id="node37" class="node">
<title>Node37</title>
<g id="a_node37"><a xlink:href="structThermalElement_1_1MyVolumeFE.html" target="_top" xlink:title="definition of volume element">
<polygon fill="white" stroke="black" points="1212,-50 1212,-69 1379,-69 1379,-50 1212,-50"/>
<text text-anchor="middle" x="1295.5" y="-57" font-family="Helvetica,sans-Serif" font-size="10.00">ThermalElement::MyVolumeFE</text>
</a>
</g>
</g>
<!-- Node1&#45;&gt;Node37 -->
<g id="edge38" class="edge">
<title>Node1&#45;&gt;Node37</title>
<path fill="none" stroke="midnightblue" d="M1074.76,-407.85C1076.91,-342.05 1092.29,-166.27 1193,-78.5 1198.54,-73.67 1204.91,-69.9 1211.7,-66.98"/>
<polygon fill="midnightblue" stroke="midnightblue" points="1071.25,-408.04 1074.51,-418.13 1078.25,-408.22 1071.25,-408.04"/>
</g>
<!-- Node38 -->
<g id="node38" class="node">
<title>Node38</title>
<g id="a_node38"><a xlink:href="structThermalStressElement_1_1MyVolumeFE.html" target="_top" xlink:title=" ">
<polygon fill="white" stroke="black" points="1231.5,-0.5 1231.5,-30.5 1359.5,-30.5 1359.5,-0.5 1231.5,-0.5"/>
<text text-anchor="start" x="1239.5" y="-18.5" font-family="Helvetica,sans-Serif" font-size="10.00">ThermalStressElement</text>
<text text-anchor="middle" x="1295.5" y="-7.5" font-family="Helvetica,sans-Serif" font-size="10.00">::MyVolumeFE</text>
</a>
</g>
</g>
<!-- Node1&#45;&gt;Node38 -->
<g id="edge39" class="edge">
<title>Node1&#45;&gt;Node38</title>
<path fill="none" stroke="midnightblue" d="M1074.1,-408.35C1074.43,-338.89 1085.35,-142.76 1193,-40.5 1203.53,-30.5 1217.39,-24.31 1231.47,-20.52"/>
<polygon fill="midnightblue" stroke="midnightblue" points="1070.6,-408.39 1074.12,-418.38 1077.6,-408.37 1070.6,-408.39"/>
</g>
<!-- Node2 -->
<g id="node2" class="node">
<title>Node2</title>
<g id="a_node2"><a xlink:href="structMoFEM_1_1ForcesAndSourcesCore.html" target="_top" xlink:title="structure to get information form mofem into EntitiesFieldData">
<polygon fill="white" stroke="black" points="784,-424 784,-443 954,-443 954,-424 784,-424"/>
<text text-anchor="middle" x="869" y="-431" font-family="Helvetica,sans-Serif" font-size="10.00">MoFEM::ForcesAndSourcesCore</text>
</a>
</g>
</g>
<!-- Node2&#45;&gt;Node1 -->
<g id="edge1" class="edge">
<title>Node2&#45;&gt;Node1</title>
<path fill="none" stroke="midnightblue" d="M964.17,-433.5C972.78,-433.5 981.45,-433.5 989.94,-433.5"/>
<polygon fill="midnightblue" stroke="midnightblue" points="964.12,-430 954.12,-433.5 964.12,-437 964.12,-430"/>
</g>
<!-- Node3 -->
<g id="node3" class="node">
<title>Node3</title>
<g id="a_node3"><a xlink:href="structMoFEM_1_1FEMethod.html" target="_top" xlink:title="structure for User Loop Methods on finite elements">
<polygon fill="white" stroke="black" points="641,-424 641,-443 748,-443 748,-424 641,-424"/>
<text text-anchor="middle" x="694.5" y="-431" font-family="Helvetica,sans-Serif" font-size="10.00">MoFEM::FEMethod</text>
</a>
</g>
</g>
<!-- Node3&#45;&gt;Node2 -->
<g id="edge2" class="edge">
<title>Node3&#45;&gt;Node2</title>
<path fill="none" stroke="midnightblue" d="M758.47,-433.5C766.73,-433.5 775.3,-433.5 783.84,-433.5"/>
<polygon fill="midnightblue" stroke="midnightblue" points="758.19,-430 748.19,-433.5 758.19,-437 758.19,-430"/>
</g>
<!-- Node4 -->
<g id="node4" class="node">
<title>Node4</title>
<g id="a_node4"><a xlink:href="structMoFEM_1_1BasicMethod.html" target="_top" xlink:title="Data structure to exchange data between mofem and User Loop Methods.">
<polygon fill="white" stroke="black" points="483,-424 483,-443 605,-443 605,-424 483,-424"/>
<text text-anchor="middle" x="544" y="-431" font-family="Helvetica,sans-Serif" font-size="10.00">MoFEM::BasicMethod</text>
</a>
</g>
</g>
<!-- Node4&#45;&gt;Node3 -->
<g id="edge3" class="edge">
<title>Node4&#45;&gt;Node3</title>
<path fill="none" stroke="midnightblue" d="M615.66,-433.5C624.12,-433.5 632.64,-433.5 640.78,-433.5"/>
<polygon fill="midnightblue" stroke="midnightblue" points="615.4,-430 605.4,-433.5 615.4,-437 615.4,-430"/>
</g>
<!-- Node5 -->
<g id="node5" class="node">
<title>Node5</title>
<g id="a_node5"><a xlink:href="structMoFEM_1_1KspMethod.html" target="_top" xlink:title="data structure for ksp (linear solver) context">
<polygon fill="white" stroke="black" points="331,-462 331,-481 444,-481 444,-462 331,-462"/>
<text text-anchor="middle" x="387.5" y="-469" font-family="Helvetica,sans-Serif" font-size="10.00">MoFEM::KspMethod</text>
</a>
</g>
</g>
<!-- Node5&#45;&gt;Node4 -->
<g id="edge4" class="edge">
<title>Node5&#45;&gt;Node4</title>
<path fill="none" stroke="midnightblue" d="M437.45,-459.46C459.04,-454.15 484.04,-448 504.29,-443.02"/>
<polygon fill="midnightblue" stroke="midnightblue" points="436.36,-456.12 427.49,-461.91 438.03,-462.92 436.36,-456.12"/>
</g>
<!-- Node6 -->
<g id="node6" class="node">
<title>Node6</title>
<g id="a_node6"><a xlink:href="structMoFEM_1_1PetscData.html" target="_top" xlink:title=" ">
<polygon fill="white" stroke="black" points="184,-424 184,-443 292,-443 292,-424 184,-424"/>
<text text-anchor="middle" x="238" y="-431" font-family="Helvetica,sans-Serif" font-size="10.00">MoFEM::PetscData</text>
</a>
</g>
</g>
<!-- Node6&#45;&gt;Node5 -->
<g id="edge5" class="edge">
<title>Node6&#45;&gt;Node5</title>
<path fill="none" stroke="midnightblue" d="M286.01,-445.61C306.56,-450.9 330.3,-457.02 349.55,-461.98"/>
<polygon fill="midnightblue" stroke="midnightblue" points="286.78,-442.19 276.22,-443.09 285.03,-448.97 286.78,-442.19"/>
</g>
<!-- Node8 -->
<g id="node8" class="node">
<title>Node8</title>
<g id="a_node8"><a xlink:href="structMoFEM_1_1SnesMethod.html" target="_top" xlink:title="data structure for snes (nonlinear solver) context">
<polygon fill="white" stroke="black" points="328,-424 328,-443 447,-443 447,-424 328,-424"/>
<text text-anchor="middle" x="387.5" y="-431" font-family="Helvetica,sans-Serif" font-size="10.00">MoFEM::SnesMethod</text>
</a>
</g>
</g>
<!-- Node6&#45;&gt;Node8 -->
<g id="edge8" class="edge">
<title>Node6&#45;&gt;Node8</title>
<path fill="none" stroke="darkgreen" d="M302.42,-433.5C310.86,-433.5 319.48,-433.5 327.83,-433.5"/>
<polygon fill="darkgreen" stroke="darkgreen" points="302.25,-430 292.25,-433.5 302.25,-437 302.25,-430"/>
</g>
<!-- Node9 -->
<g id="node9" class="node">
<title>Node9</title>
<g id="a_node9"><a xlink:href="structMoFEM_1_1TSMethod.html" target="_top" xlink:title="data structure for TS (time stepping) context">
<polygon fill="white" stroke="black" points="334,-386 334,-405 441,-405 441,-386 334,-386"/>
<text text-anchor="middle" x="387.5" y="-393" font-family="Helvetica,sans-Serif" font-size="10.00">MoFEM::TSMethod</text>
</a>
</g>
</g>
<!-- Node6&#45;&gt;Node9 -->
<g id="edge10" class="edge">
<title>Node6&#45;&gt;Node9</title>
<path fill="none" stroke="darkgreen" d="M286.01,-421.39C306.56,-416.1 330.3,-409.98 349.55,-405.02"/>
<polygon fill="darkgreen" stroke="darkgreen" points="285.03,-418.03 276.22,-423.91 286.78,-424.81 285.03,-418.03"/>
</g>
<!-- Node7 -->
<g id="node7" class="node">
<title>Node7</title>
<g id="a_node7"><a xlink:href="structMoFEM_1_1UnknownInterface.html" target="_top" xlink:title="base class for all interface classes">
<polygon fill="white" stroke="black" points="0,-424 0,-443 148,-443 148,-424 0,-424"/>
<text text-anchor="middle" x="74" y="-431" font-family="Helvetica,sans-Serif" font-size="10.00">MoFEM::UnknownInterface</text>
</a>
</g>
</g>
<!-- Node7&#45;&gt;Node6 -->
<g id="edge6" class="edge">
<title>Node7&#45;&gt;Node6</title>
<path fill="none" stroke="midnightblue" d="M158.48,-433.5C167.05,-433.5 175.59,-433.5 183.7,-433.5"/>
<polygon fill="midnightblue" stroke="midnightblue" points="158.42,-430 148.42,-433.5 158.42,-437 158.42,-430"/>
</g>
<!-- Node8&#45;&gt;Node4 -->
<g id="edge7" class="edge">
<title>Node8&#45;&gt;Node4</title>
<path fill="none" stroke="midnightblue" d="M457.53,-433.5C465.95,-433.5 474.5,-433.5 482.78,-433.5"/>
<polygon fill="midnightblue" stroke="midnightblue" points="457.35,-430 447.35,-433.5 457.35,-437 457.35,-430"/>
</g>
<!-- Node9&#45;&gt;Node4 -->
<g id="edge9" class="edge">
<title>Node9&#45;&gt;Node4</title>
<path fill="none" stroke="midnightblue" d="M437.45,-407.54C459.04,-412.85 484.04,-419 504.29,-423.98"/>
<polygon fill="midnightblue" stroke="midnightblue" points="438.03,-404.08 427.49,-405.09 436.36,-410.88 438.03,-404.08"/>
</g>
<!-- Node19 -->
<g id="node19" class="node">
<title>Node19</title>
<g id="a_node19"><a xlink:href="structCellEngineering_1_1FatPrism.html" target="_top" xlink:title=" ">
<polygon fill="white" stroke="black" points="1468.5,-547 1468.5,-566 1609.5,-566 1609.5,-547 1468.5,-547"/>
<text text-anchor="middle" x="1539" y="-554" font-family="Helvetica,sans-Serif" font-size="10.00">CellEngineering::FatPrism</text>
</a>
</g>
</g>
<!-- Node18&#45;&gt;Node19 -->
<g id="edge20" class="edge">
<title>Node18&#45;&gt;Node19</title>
<path fill="none" stroke="midnightblue" d="M1388.99,-477.92C1392.11,-479.63 1395.13,-481.48 1398,-483.5 1421.61,-500.07 1409.9,-521.65 1434,-537.5 1444.27,-544.26 1456.29,-548.78 1468.44,-551.77"/>
<polygon fill="midnightblue" stroke="midnightblue" points="1390.45,-474.74 1379.93,-473.5 1387.38,-481.03 1390.45,-474.74"/>
</g>
<!-- Node20 -->
<g id="node20" class="node">
<title>Node20</title>
<g id="a_node20"><a xlink:href="structPostProcTemplateOnRefineMesh.html" target="_top" xlink:title=" ">
<polygon fill="white" stroke="black" points="1449.5,-487 1449.5,-528 1628.5,-528 1628.5,-487 1449.5,-487"/>
<text text-anchor="start" x="1457.5" y="-516" font-family="Helvetica,sans-Serif" font-size="10.00">PostProcTemplateOnRefine</text>
<text text-anchor="start" x="1457.5" y="-505" font-family="Helvetica,sans-Serif" font-size="10.00">Mesh&lt; MoFEM::FatPrismElement</text>
<text text-anchor="middle" x="1539" y="-494" font-family="Helvetica,sans-Serif" font-size="10.00">ForcesAndSourcesCore &gt;</text>
</a>
</g>
</g>
<!-- Node18&#45;&gt;Node20 -->
<g id="edge21" class="edge">
<title>Node18&#45;&gt;Node20</title>
<path fill="none" stroke="midnightblue" d="M1380.64,-475.57C1402.8,-480.07 1426.77,-484.93 1449.17,-489.48"/>
<polygon fill="midnightblue" stroke="midnightblue" points="1381.1,-472.09 1370.6,-473.53 1379.7,-478.95 1381.1,-472.09"/>
</g>
<!-- Node22 -->
<g id="node22" class="node">
<title>Node22</title>
<g id="a_node22"><a xlink:href="structPrismFE.html" target="_top" xlink:title=" ">
<polygon fill="white" stroke="black" points="1511,-449 1511,-468 1567,-468 1567,-449 1511,-449"/>
<text text-anchor="middle" x="1539" y="-456" font-family="Helvetica,sans-Serif" font-size="10.00">PrismFE</text>
</a>
</g>
</g>
<!-- Node18&#45;&gt;Node22 -->
<g id="edge23" class="edge">
<title>Node18&#45;&gt;Node22</title>
<path fill="none" stroke="midnightblue" d="M1392.48,-458.5C1435.11,-458.5 1482.05,-458.5 1510.78,-458.5"/>
<polygon fill="midnightblue" stroke="midnightblue" points="1392.32,-455 1382.32,-458.5 1392.32,-462 1392.32,-455"/>
</g>
<!-- Node21 -->
<g id="node21" class="node">
<title>Node21</title>
<g id="a_node21"><a xlink:href="structPostProcFatPrismOnRefinedMesh.html" target="_top" xlink:title="Postprocess on prism.">
<polygon fill="white" stroke="black" points="1680,-498 1680,-517 1857,-517 1857,-498 1680,-498"/>
<text text-anchor="middle" x="1768.5" y="-505" font-family="Helvetica,sans-Serif" font-size="10.00">PostProcFatPrismOnRefinedMesh</text>
</a>
</g>
</g>
<!-- Node20&#45;&gt;Node21 -->
<g id="edge22" class="edge">
<title>Node20&#45;&gt;Node21</title>
<path fill="none" stroke="midnightblue" d="M1638.96,-507.5C1652.58,-507.5 1666.48,-507.5 1679.88,-507.5"/>
<polygon fill="midnightblue" stroke="midnightblue" points="1638.61,-504 1628.61,-507.5 1638.61,-511 1638.61,-504"/>
</g>
<!-- Node24 -->
<g id="node24" class="node">
<title>Node24</title>
<g id="a_node24"><a xlink:href="structMoFEM_1_1VolumeElementForcesAndSourcesCoreOnContactPrismSideSwitch.html" target="_top" xlink:title=" ">
<polygon fill="white" stroke="black" points="1441,-389 1441,-430 1637,-430 1637,-389 1441,-389"/>
<text text-anchor="start" x="1449" y="-418" font-family="Helvetica,sans-Serif" font-size="10.00">MoFEM::VolumeElementForces</text>
<text text-anchor="start" x="1449" y="-407" font-family="Helvetica,sans-Serif" font-size="10.00">AndSourcesCoreOnContactPrismSide</text>
<text text-anchor="middle" x="1539" y="-396" font-family="Helvetica,sans-Serif" font-size="10.00">Switch&lt; SWITCH &gt;</text>
</a>
</g>
</g>
<!-- Node23&#45;&gt;Node24 -->
<g id="edge25" class="edge">
<title>Node23&#45;&gt;Node24</title>
<path fill="none" stroke="midnightblue" d="M1403.9,-409.5C1416.13,-409.5 1428.54,-409.5 1440.62,-409.5"/>
<polygon fill="midnightblue" stroke="midnightblue" points="1403.68,-406 1393.68,-409.5 1403.68,-413 1403.68,-406"/>
</g>
<!-- Node26 -->
<g id="node26" class="node">
<title>Node26</title>
<g id="a_node26"><a xlink:href="structMoFEM_1_1VolumeElementForcesAndSourcesCoreOnSideSwitch.html" target="_top" xlink:title=" ">
<polygon fill="white" stroke="black" points="1455.5,-329 1455.5,-370 1622.5,-370 1622.5,-329 1455.5,-329"/>
<text text-anchor="start" x="1463.5" y="-358" font-family="Helvetica,sans-Serif" font-size="10.00">MoFEM::VolumeElementForces</text>
<text text-anchor="start" x="1463.5" y="-347" font-family="Helvetica,sans-Serif" font-size="10.00">AndSourcesCoreOnSideSwitch</text>
<text text-anchor="middle" x="1539" y="-336" font-family="Helvetica,sans-Serif" font-size="10.00">&lt; SWITCH &gt;</text>
</a>
</g>
</g>
<!-- Node25&#45;&gt;Node26 -->
<g id="edge27" class="edge">
<title>Node25&#45;&gt;Node26</title>
<path fill="none" stroke="midnightblue" d="M1389.47,-356.27C1411.17,-355.28 1434.12,-354.23 1455.34,-353.27"/>
<polygon fill="midnightblue" stroke="midnightblue" points="1389.1,-352.78 1379.27,-356.73 1389.42,-359.77 1389.1,-352.78"/>
</g>
<!-- Node29 -->
<g id="node29" class="node">
<title>Node29</title>
<g id="a_node29"><a xlink:href="structPeriodicNitscheConstrains_1_1MyNitscheVolume.html" target="_top" xlink:title=" ">
<polygon fill="white" stroke="black" points="1467,-252.5 1467,-282.5 1611,-282.5 1611,-252.5 1467,-252.5"/>
<text text-anchor="start" x="1475" y="-270.5" font-family="Helvetica,sans-Serif" font-size="10.00">PeriodicNitscheConstrains</text>
<text text-anchor="middle" x="1539" y="-259.5" font-family="Helvetica,sans-Serif" font-size="10.00">::MyNitscheVolume</text>
</a>
</g>
</g>
<!-- Node28&#45;&gt;Node29 -->
<g id="edge30" class="edge">
<title>Node28&#45;&gt;Node29</title>
<path fill="none" stroke="midnightblue" d="M1385.71,-267.5C1412.48,-267.5 1441.47,-267.5 1466.9,-267.5"/>
<polygon fill="midnightblue" stroke="midnightblue" points="1385.58,-264 1375.58,-267.5 1385.58,-271 1385.58,-264"/>
</g>
<!-- Node31 -->
<g id="node31" class="node">
<title>Node31</title>
<g id="a_node31"><a xlink:href="structSmoother_1_1MyVolumeFE.html" target="_top" xlink:title=" ">
<polygon fill="white" stroke="black" points="1472,-214 1472,-233 1606,-233 1606,-214 1472,-214"/>
<text text-anchor="middle" x="1539" y="-221" font-family="Helvetica,sans-Serif" font-size="10.00">Smoother::MyVolumeFE</text>
</a>
</g>
</g>
<!-- Node30&#45;&gt;Node31 -->
<g id="edge32" class="edge">
<title>Node30&#45;&gt;Node31</title>
<path fill="none" stroke="midnightblue" d="M1374.13,-223.5C1405.56,-223.5 1441.49,-223.5 1471.68,-223.5"/>
<polygon fill="midnightblue" stroke="midnightblue" points="1374.09,-220 1364.09,-223.5 1374.09,-227 1374.09,-220"/>
</g>
<!-- Node33 -->
<g id="node33" class="node">
<title>Node33</title>
<g id="a_node33"><a xlink:href="structMoFEM_1_1PostProcBrokenMeshInMoab_3_01VolumeElementForcesAndSourcesCore_01_4.html" target="_top" xlink:title=" ">
<polygon fill="white" stroke="black" points="1443.5,-148 1443.5,-189 1634.5,-189 1634.5,-148 1443.5,-148"/>
<text text-anchor="start" x="1451.5" y="-177" font-family="Helvetica,sans-Serif" font-size="10.00">MoFEM::PostProcBrokenMesh</text>
<text text-anchor="start" x="1451.5" y="-166" font-family="Helvetica,sans-Serif" font-size="10.00">InMoab&lt; VolumeElementForcesAnd</text>
<text text-anchor="middle" x="1539" y="-155" font-family="Helvetica,sans-Serif" font-size="10.00">SourcesCore &gt;</text>
</a>
</g>
</g>
<!-- Node32&#45;&gt;Node33 -->
<g id="edge34" class="edge">
<title>Node32&#45;&gt;Node33</title>
<path fill="none" stroke="midnightblue" d="M1404.37,-168.5C1417.33,-168.5 1430.49,-168.5 1443.24,-168.5"/>
<polygon fill="midnightblue" stroke="midnightblue" points="1404.03,-165 1394.03,-168.5 1404.03,-172 1404.03,-165"/>
</g>
<!-- Node35 -->
<g id="node35" class="node">
<title>Node35</title>
<g id="a_node35"><a xlink:href="structPostProcTemplateVolumeOnRefinedMesh.html" target="_top" xlink:title=" ">
<polygon fill="white" stroke="black" points="1434,-88 1434,-129 1644,-129 1644,-88 1434,-88"/>
<text text-anchor="start" x="1442" y="-117" font-family="Helvetica,sans-Serif" font-size="10.00">PostProcTemplateVolumeOn</text>
<text text-anchor="start" x="1442" y="-106" font-family="Helvetica,sans-Serif" font-size="10.00">RefinedMesh&lt; MoFEM::VolumeElement</text>
<text text-anchor="middle" x="1539" y="-95" font-family="Helvetica,sans-Serif" font-size="10.00">ForcesAndSourcesCore &gt;</text>
</a>
</g>
</g>
<!-- Node34&#45;&gt;Node35 -->
<g id="edge36" class="edge">
<title>Node34&#45;&gt;Node35</title>
<path fill="none" stroke="midnightblue" d="M1408.44,-108.5C1416.85,-108.5 1425.33,-108.5 1433.69,-108.5"/>
<polygon fill="midnightblue" stroke="midnightblue" points="1408.22,-105 1398.22,-108.5 1408.22,-112 1408.22,-105"/>
</g>
<!-- Node36 -->
<g id="node36" class="node">
<title>Node36</title>
<g id="a_node36"><a xlink:href="structPostProcVolumeOnRefinedMesh.html" target="_top" xlink:title="Post processing.">
<polygon fill="white" stroke="black" points="1682.5,-99 1682.5,-118 1854.5,-118 1854.5,-99 1682.5,-99"/>
<text text-anchor="middle" x="1768.5" y="-106" font-family="Helvetica,sans-Serif" font-size="10.00">PostProcVolumeOnRefinedMesh</text>
</a>
</g>
</g>
<!-- Node35&#45;&gt;Node36 -->
<g id="edge37" class="edge">
<title>Node35&#45;&gt;Node36</title>
<path fill="none" stroke="midnightblue" d="M1654.28,-108.5C1663.68,-108.5 1673.07,-108.5 1682.2,-108.5"/>
<polygon fill="midnightblue" stroke="midnightblue" points="1654.1,-105 1644.1,-108.5 1654.1,-112 1654.1,-105"/>
</g>
</g>
</svg>
        <g id="navigator" transform="translate(0 0)" fill="#404254">
                <rect fill="#f2f5e9" fill-opacity="0.5" stroke="#606060" stroke-width=".5" x="0" y="0" width="60" height="60"/>
                <use id="zoomplus" xlink:href="#zoomPlus" x="17" y="9" onmousedown="handleZoom(evt,'in')"/>
                <use id="zoomminus" xlink:href="#zoomMin" x="42" y="9" onmousedown="handleZoom(evt,'out')"/>
                <use id="reset" xlink:href="#resetDef" x="30" y="36" onmousedown="handleReset()"/>
                <g id="arrowUp" xlink:href="#dirArrow" transform="translate(30 24)" onmousedown="handlePan(0,-1)">
                  <use xlink:href="#rim" fill="#404040">
                        <set attributeName="fill" to="#808080" begin="arrowUp.mouseover" end="arrowUp.mouseout"/>
                  </use>
                  <path fill="none" stroke="white" stroke-width="1.5" d="M0,-3.0v7 M-2.5,-0.5L0,-3.0L2.5,-0.5"/>
                </g>
                <g id="arrowRight" xlink:href="#dirArrow" transform="rotate(90) translate(36 -43)" onmousedown="handlePan(1,0)">
                  <use xlink:href="#rim" fill="#404040">
                        <set attributeName="fill" to="#808080" begin="arrowRight.mouseover" end="arrowRight.mouseout"/>
                  </use>
                  <path fill="none" stroke="white" stroke-width="1.5" d="M0,-3.0v7 M-2.5,-0.5L0,-3.0L2.5,-0.5"/>
                </g>
                <g id="arrowDown" xlink:href="#dirArrow" transform="rotate(180) translate(-30 -48)" onmousedown="handlePan(0,1)">
                  <use xlink:href="#rim" fill="#404040">
                        <set attributeName="fill" to="#808080" begin="arrowDown.mouseover" end="arrowDown.mouseout"/>
                  </use>
                  <path fill="none" stroke="white" stroke-width="1.5" d="M0,-3.0v7 M-2.5,-0.5L0,-3.0L2.5,-0.5"/>
                </g>
                <g id="arrowLeft" xlink:href="#dirArrow" transform="rotate(270) translate(-36 17)" onmousedown="handlePan(-1,0)">
                  <use xlink:href="#rim" fill="#404040">
                        <set attributeName="fill" to="#808080" begin="arrowLeft.mouseover" end="arrowLeft.mouseout"/>
                  </use>
                  <path fill="none" stroke="white" stroke-width="1.5" d="M0,-3.0v7 M-2.5,-0.5L0,-3.0L2.5,-0.5"/>
                </g>
        </g>
        <svg viewBox="0 0 15 15" width="100%" height="30px" preserveAspectRatio="xMaxYMin meet">
         <g id="arrow_out" transform="scale(0.3 0.3)">
          <a xlink:href="structMoFEM_1_1VolumeElementForcesAndSourcesCore__inherit__graph_org.svg" target="_base">
           <rect id="button" ry="5" rx="5" y="6" x="6" height="38" width="38"
                fill="#f2f5e9" fill-opacity="0.5" stroke="#606060" stroke-width="1.0"/>
           <path id="arrow"
             d="M 11.500037,31.436501 C 11.940474,20.09759 22.043105,11.32322 32.158766,21.979434 L 37.068811,17.246167 C 37.068811,17.246167 37.088388,32 37.088388,32 L 22.160133,31.978069 C 22.160133,31.978069 26.997745,27.140456 26.997745,27.140456 C 18.528582,18.264221 13.291696,25.230495 11.500037,31.436501 z"
             style="fill:#404040;"/>
          </a>
         </g>
        </svg>
</svg>
