<?xml version="1.0" encoding="UTF-8" standalone="no"?>
<!DOCTYPE svg PUBLIC "-//W3C//DTD SVG 1.1//EN"
 "http://www.w3.org/Graphics/SVG/1.1/DTD/svg11.dtd">
<!-- Generated by graphviz version 2.43.0 (0)
 -->
<!-- Title: SimpleContactProblem::SimpleContactElement Pages: 1 -->
<svg width="1628pt" height="214pt"
 viewBox="0.00 0.00 1628.00 214.00" xmlns="http://www.w3.org/2000/svg" xmlns:xlink="http://www.w3.org/1999/xlink">
<g id="graph0" class="graph" transform="scale(1 1) rotate(0) translate(4 210)">
<title>SimpleContactProblem::SimpleContactElement</title>
<polygon fill="white" stroke="transparent" points="-4,4 -4,-210 1624,-210 1624,4 -4,4"/>
<!-- Node1 -->
<g id="node1" class="node">
<title>Node1</title>
<g id="a_node1"><a xlink:title=" ">
<polygon fill="#bfbfbf" stroke="black" points="1486,-71 1486,-101 1620,-101 1620,-71 1486,-71"/>
<text text-anchor="start" x="1494" y="-89" font-family="Helvetica,sans-Serif" font-size="10.00">SimpleContactProblem</text>
<text text-anchor="middle" x="1553" y="-78" font-family="Helvetica,sans-Serif" font-size="10.00">::SimpleContactElement</text>
</a>
</g>
</g>
<!-- Node2 -->
<g id="node2" class="node">
<title>Node2</title>
<g id="a_node2"><a xlink:href="classContactEle.html" target="_top" xlink:title=" ">
<polygon fill="white" stroke="black" points="1186,-164.5 1186,-183.5 1255,-183.5 1255,-164.5 1186,-164.5"/>
<text text-anchor="middle" x="1220.5" y="-171.5" font-family="Helvetica,sans-Serif" font-size="10.00">ContactEle</text>
</a>
</g>
</g>
<!-- Node2&#45;&gt;Node1 -->
<g id="edge1" class="edge">
<title>Node2&#45;&gt;Node1</title>
<path fill="none" stroke="midnightblue" d="M1265.27,-171.29C1315.45,-167.14 1399.59,-157 1468,-133 1490.23,-125.2 1513.46,-111.73 1529.84,-101.21"/>
<polygon fill="midnightblue" stroke="midnightblue" points="1264.8,-167.81 1255.1,-172.08 1265.34,-174.79 1264.8,-167.81"/>
</g>
<!-- Node3 -->
<g id="node3" class="node">
<title>Node3</title>
<g id="a_node3"><a xlink:href="structMoFEM_1_1SmartPetscObj.html" target="_top" xlink:title=" ">
<polygon fill="white" stroke="black" points="1155,-115 1155,-145 1286,-145 1286,-115 1155,-115"/>
<text text-anchor="start" x="1163" y="-133" font-family="Helvetica,sans-Serif" font-size="10.00">MoFEM::SmartPetscObj</text>
<text text-anchor="middle" x="1220.5" y="-122" font-family="Helvetica,sans-Serif" font-size="10.00">&lt; Vec &gt;</text>
</a>
</g>
</g>
<!-- Node3&#45;&gt;Node1 -->
<g id="edge2" class="edge">
<title>Node3&#45;&gt;Node1</title>
<path fill="none" stroke="#9a32cd" stroke-dasharray="5,2" d="M1296.44,-122.36C1345.37,-117.08 1410.6,-109.49 1468,-101 1473.72,-100.15 1479.64,-99.22 1485.57,-98.24"/>
<polygon fill="#9a32cd" stroke="#9a32cd" points="1295.83,-118.9 1286.26,-123.45 1296.57,-125.86 1295.83,-118.9"/>
<text text-anchor="middle" x="1398.5" y="-121" font-family="Helvetica,sans-Serif" font-size="10.00"> contactStateVec</text>
</g>
<!-- Node4 -->
<g id="node4" class="node">
<title>Node4</title>
<g id="a_node4"><a xlink:title=" ">
<polygon fill="white" stroke="#bfbfbf" points="922.5,-164.5 922.5,-205.5 1048.5,-205.5 1048.5,-164.5 922.5,-164.5"/>
<text text-anchor="start" x="930.5" y="-193.5" font-family="Helvetica,sans-Serif" font-size="10.00">boost::intrusive_ptr</text>
<text text-anchor="start" x="930.5" y="-182.5" font-family="Helvetica,sans-Serif" font-size="10.00">&lt; std::remove_pointer</text>
<text text-anchor="middle" x="985.5" y="-171.5" font-family="Helvetica,sans-Serif" font-size="10.00">&lt; Vec &gt;::type &gt;</text>
</a>
</g>
</g>
<!-- Node4&#45;&gt;Node3 -->
<g id="edge3" class="edge">
<title>Node4&#45;&gt;Node3</title>
<path fill="none" stroke="midnightblue" d="M1058.55,-167.99C1089.68,-160.64 1125.8,-152.12 1155.92,-145.01"/>
<polygon fill="midnightblue" stroke="midnightblue" points="1057.56,-164.63 1048.63,-170.33 1059.17,-171.44 1057.56,-164.63"/>
</g>
<!-- Node5 -->
<g id="node5" class="node">
<title>Node5</title>
<g id="a_node5"><a xlink:href="structMoFEM_1_1SmartPetscObj.html" target="_top" xlink:title="intrusive_ptr for managing petsc objects">
<polygon fill="white" stroke="black" points="920,-115 920,-145 1051,-145 1051,-115 920,-115"/>
<text text-anchor="start" x="928" y="-133" font-family="Helvetica,sans-Serif" font-size="10.00">MoFEM::SmartPetscObj</text>
<text text-anchor="middle" x="985.5" y="-122" font-family="Helvetica,sans-Serif" font-size="10.00">&lt; OBJ &gt;</text>
</a>
</g>
</g>
<!-- Node5&#45;&gt;Node3 -->
<g id="edge4" class="edge">
<title>Node5&#45;&gt;Node3</title>
<path fill="none" stroke="orange" stroke-dasharray="5,2" d="M1061.14,-130C1091.27,-130 1125.72,-130 1154.78,-130"/>
<polygon fill="orange" stroke="orange" points="1061.09,-126.5 1051.09,-130 1061.09,-133.5 1061.09,-126.5"/>
<text text-anchor="middle" x="1090.5" y="-133" font-family="Helvetica,sans-Serif" font-size="10.00"> &lt; Vec &gt;</text>
</g>
<!-- Node6 -->
<g id="node6" class="node">
<title>Node6</title>
<g id="a_node6"><a xlink:title=" ">
<polygon fill="white" stroke="#bfbfbf" points="746,-110.5 746,-151.5 872,-151.5 872,-110.5 746,-110.5"/>
<text text-anchor="start" x="754" y="-139.5" font-family="Helvetica,sans-Serif" font-size="10.00">boost::intrusive_ptr</text>
<text text-anchor="start" x="754" y="-128.5" font-family="Helvetica,sans-Serif" font-size="10.00">&lt; std::remove_pointer</text>
<text text-anchor="middle" x="809" y="-117.5" font-family="Helvetica,sans-Serif" font-size="10.00">&lt; OBJ &gt;::type &gt;</text>
</a>
</g>
</g>
<!-- Node6&#45;&gt;Node5 -->
<g id="edge5" class="edge">
<title>Node6&#45;&gt;Node5</title>
<path fill="none" stroke="midnightblue" d="M882.31,-130.59C894.72,-130.51 907.54,-130.44 919.74,-130.37"/>
<polygon fill="midnightblue" stroke="midnightblue" points="881.99,-127.09 872.01,-130.64 882.03,-134.09 881.99,-127.09"/>
</g>
<!-- Node7 -->
<g id="node7" class="node">
<title>Node7</title>
<g id="a_node7"><a xlink:href="structMoFEM_1_1DeprecatedCoreInterface.html" target="_top" xlink:title="Deprecated interface functions.">
<polygon fill="white" stroke="black" points="1130,-76.5 1130,-95.5 1311,-95.5 1311,-76.5 1130,-76.5"/>
<text text-anchor="middle" x="1220.5" y="-83.5" font-family="Helvetica,sans-Serif" font-size="10.00">MoFEM::DeprecatedCoreInterface</text>
</a>
</g>
</g>
<!-- Node7&#45;&gt;Node1 -->
<g id="edge6" class="edge">
<title>Node7&#45;&gt;Node1</title>
<path fill="none" stroke="#9a32cd" stroke-dasharray="5,2" d="M1321.54,-86C1374.85,-86 1438.95,-86 1486,-86"/>
<polygon fill="#9a32cd" stroke="#9a32cd" points="1321.37,-82.5 1311.37,-86 1321.37,-89.5 1321.37,-82.5"/>
<text text-anchor="middle" x="1398.5" y="-89" font-family="Helvetica,sans-Serif" font-size="10.00"> mField</text>
</g>
<!-- Node8 -->
<g id="node8" class="node">
<title>Node8</title>
<g id="a_node8"><a xlink:href="structMoFEM_1_1CoreInterface.html" target="_top" xlink:title="Interface.">
<polygon fill="white" stroke="black" points="923,-75.5 923,-94.5 1048,-94.5 1048,-75.5 923,-75.5"/>
<text text-anchor="middle" x="985.5" y="-82.5" font-family="Helvetica,sans-Serif" font-size="10.00">MoFEM::CoreInterface</text>
</a>
</g>
</g>
<!-- Node8&#45;&gt;Node7 -->
<g id="edge7" class="edge">
<title>Node8&#45;&gt;Node7</title>
<path fill="none" stroke="midnightblue" d="M1058.23,-85.31C1080.9,-85.41 1106.22,-85.51 1129.97,-85.62"/>
<polygon fill="midnightblue" stroke="midnightblue" points="1058.04,-81.81 1048.02,-85.26 1058.01,-88.81 1058.04,-81.81"/>
</g>
<!-- Node9 -->
<g id="node9" class="node">
<title>Node9</title>
<g id="a_node9"><a xlink:href="structMoFEM_1_1UnknownInterface.html" target="_top" xlink:title="base class for all interface classes">
<polygon fill="white" stroke="black" points="735,-72.5 735,-91.5 883,-91.5 883,-72.5 735,-72.5"/>
<text text-anchor="middle" x="809" y="-79.5" font-family="Helvetica,sans-Serif" font-size="10.00">MoFEM::UnknownInterface</text>
</a>
</g>
</g>
<!-- Node9&#45;&gt;Node8 -->
<g id="edge8" class="edge">
<title>Node9&#45;&gt;Node8</title>
<path fill="none" stroke="midnightblue" d="M893.48,-83.44C903.35,-83.6 913.28,-83.78 922.77,-83.94"/>
<polygon fill="midnightblue" stroke="midnightblue" points="893.3,-79.93 883.25,-83.26 893.18,-86.93 893.3,-79.93"/>
</g>
<!-- Node10 -->
<g id="node10" class="node">
<title>Node10</title>
<g id="a_node10"><a xlink:title=" ">
<polygon fill="white" stroke="#bfbfbf" points="386,-50.5 386,-113.5 627,-113.5 627,-50.5 386,-50.5"/>
<text text-anchor="start" x="394" y="-101.5" font-family="Helvetica,sans-Serif" font-size="10.00">multi_index_container</text>
<text text-anchor="start" x="394" y="-90.5" font-family="Helvetica,sans-Serif" font-size="10.00">&lt; UIdTypeMap, indexed</text>
<text text-anchor="start" x="394" y="-79.5" font-family="Helvetica,sans-Serif" font-size="10.00">_by&lt; hashed_unique&lt; member</text>
<text text-anchor="start" x="394" y="-68.5" font-family="Helvetica,sans-Serif" font-size="10.00">&lt; UIdTypeMap, boost::typeindex</text>
<text text-anchor="middle" x="506.5" y="-57.5" font-family="Helvetica,sans-Serif" font-size="10.00">::type_index, &amp;UIdTypeMap::classIdx &gt; &gt; &gt; &gt;</text>
</a>
</g>
</g>
<!-- Node10&#45;&gt;Node9 -->
<g id="edge9" class="edge">
<title>Node10&#45;&gt;Node9</title>
<path fill="none" stroke="#9a32cd" stroke-dasharray="5,2" d="M637.41,-82C670.69,-82 705.33,-82 734.62,-82"/>
<polygon fill="#9a32cd" stroke="#9a32cd" points="637.13,-78.5 627.13,-82 637.13,-85.5 637.13,-78.5"/>
<text text-anchor="middle" x="681" y="-85" font-family="Helvetica,sans-Serif" font-size="10.00"> iFaceTypeMap</text>
</g>
<!-- Node11 -->
<g id="node11" class="node">
<title>Node11</title>
<g id="a_node11"><a xlink:title=" ">
<polygon fill="white" stroke="#bfbfbf" points="0,-72.5 0,-91.5 125,-91.5 125,-72.5 0,-72.5"/>
<text text-anchor="middle" x="62.5" y="-79.5" font-family="Helvetica,sans-Serif" font-size="10.00">multi_index_container</text>
</a>
</g>
</g>
<!-- Node11&#45;&gt;Node10 -->
<g id="edge10" class="edge">
<title>Node11&#45;&gt;Node10</title>
<path fill="none" stroke="orange" stroke-dasharray="5,2" d="M135.56,-82C203.25,-82 305.79,-82 385.77,-82"/>
<polygon fill="orange" stroke="orange" points="135.42,-78.5 125.42,-82 135.42,-85.5 135.42,-78.5"/>
<text text-anchor="start" x="143" y="-118" font-family="Helvetica,sans-Serif" font-size="10.00"> &lt; UIdTypeMap, indexed</text>
<text text-anchor="start" x="143" y="-107" font-family="Helvetica,sans-Serif" font-size="10.00">_by&lt; hashed_unique&lt; member</text>
<text text-anchor="start" x="143" y="-96" font-family="Helvetica,sans-Serif" font-size="10.00">&lt; UIdTypeMap, boost::typeindex</text>
<text text-anchor="middle" x="255.5" y="-85" font-family="Helvetica,sans-Serif" font-size="10.00">::type_index, &amp;UIdTypeMap::classIdx &gt; &gt; &gt; &gt;</text>
</g>
<!-- Node12 -->
<g id="node12" class="node">
<title>Node12</title>
<g id="a_node12"><a xlink:href="classbool.html" target="_top" xlink:title=" ">
<polygon fill="white" stroke="black" points="1201.5,-38.5 1201.5,-57.5 1239.5,-57.5 1239.5,-38.5 1201.5,-38.5"/>
<text text-anchor="middle" x="1220.5" y="-45.5" font-family="Helvetica,sans-Serif" font-size="10.00">bool</text>
</a>
</g>
</g>
<!-- Node12&#45;&gt;Node1 -->
<g id="edge11" class="edge">
<title>Node12&#45;&gt;Node1</title>
<path fill="none" stroke="#9a32cd" stroke-dasharray="5,2" d="M1249.91,-49.87C1295.87,-53.08 1389.34,-60.33 1468,-71 1473.73,-71.78 1479.66,-72.67 1485.6,-73.61"/>
<polygon fill="#9a32cd" stroke="#9a32cd" points="1250.02,-46.37 1239.8,-49.18 1249.54,-53.36 1250.02,-46.37"/>
<text text-anchor="middle" x="1398.5" y="-74" font-family="Helvetica,sans-Serif" font-size="10.00"> newtonCotes</text>
</g>
<!-- Node13 -->
<g id="node13" class="node">
<title>Node13</title>
<g id="a_node13"><a xlink:title=" ">
<polygon fill="white" stroke="#bfbfbf" points="1198,-0.5 1198,-19.5 1243,-19.5 1243,-0.5 1198,-0.5"/>
<text text-anchor="middle" x="1220.5" y="-7.5" font-family="Helvetica,sans-Serif" font-size="10.00">friend</text>
</a>
</g>
</g>
<!-- Node13&#45;&gt;Node1 -->
<g id="edge12" class="edge">
<title>Node13&#45;&gt;Node1</title>
<path fill="none" stroke="#9a32cd" stroke-dasharray="5,2" d="M1253.19,-10.31C1300.9,-11.6 1393.5,-17.26 1468,-41 1490.07,-48.03 1513.12,-60.83 1529.48,-70.99"/>
<polygon fill="#9a32cd" stroke="#9a32cd" points="1253.24,-6.81 1243.17,-10.09 1253.09,-13.81 1253.24,-6.81"/>
<text text-anchor="middle" x="1398.5" y="-44" font-family="Helvetica,sans-Serif" font-size="10.00"> ConvectSlaveIntegrationPts</text>
</g>
</g>
</svg>
