<?xml version="1.0" encoding="UTF-8" standalone="no"?>
<!DOCTYPE svg PUBLIC "-//W3C//DTD SVG 1.1//EN"
 "http://www.w3.org/Graphics/SVG/1.1/DTD/svg11.dtd">
<!-- Generated by graphviz version 2.43.0 (0)
 -->
<!-- Title: CellEngineering::OpCell_g Pages: 1 -->
<!--zoomable 1961 -->
<svg id="main" version="1.1" xmlns="http://www.w3.org/2000/svg" xmlns:xlink="http://www.w3.org/1999/xlink" xml:space="preserve" onload="init(evt)">
<style type="text/css"><![CDATA[
.edge:hover path { stroke: red; }
.edge:hover polygon { stroke: red; fill: red; }
]]></style>
<script type="text/javascript"><![CDATA[
var edges = document.getElementsByTagName('g');
if (edges && edges.length) {
  for (var i=0;i<edges.length;i++) {
    if (edges[i].id.substr(0,4)=='edge') {
      edges[i].setAttribute('class','edge');
    }
  }
}
]]></script>
        <defs>
                <circle id="rim" cx="0" cy="0" r="7"/>
                <circle id="rim2" cx="0" cy="0" r="3.5"/>
                <g id="zoomPlus">
                        <use xlink:href="#rim" fill="#404040">
                                <set attributeName="fill" to="#808080" begin="zoomplus.mouseover" end="zoomplus.mouseout"/>
                        </use>
                        <path d="M-4,0h8M0,-4v8" fill="none" stroke="white" stroke-width="1.5" pointer-events="none"/>
                </g>
                <g id="zoomMin">
                        <use xlink:href="#rim" fill="#404040">
                                <set attributeName="fill" to="#808080" begin="zoomminus.mouseover" end="zoomminus.mouseout"/>
                        </use>
                        <path d="M-4,0h8" fill="none" stroke="white" stroke-width="1.5" pointer-events="none"/>
                </g>
                <g id="dirArrow">
                        <path fill="none" stroke="white" stroke-width="1.5" d="M0,-3.0v7 M-2.5,-0.5L0,-3.0L2.5,-0.5"/>
                </g>
               <g id="resetDef">
                       <use xlink:href="#rim2" fill="#404040">
                               <set attributeName="fill" to="#808080" begin="reset.mouseover" end="reset.mouseout"/>
                       </use>
               </g>
        </defs>

<script type="text/javascript">
var viewWidth = 3492;
var viewHeight = 1961;
var sectionId = 'dynsection-1';
</script>
<script xlink:href="svgpan.js"/>
<svg id="graph" class="graph">
<g id="viewport">
<title>CellEngineering::OpCell_g</title>
<polygon fill="white" stroke="transparent" points="-4,4 -4,-1956.5 3488,-1956.5 3488,4 -4,4"/>
<!-- Node1 -->
<g id="node1" class="node">
<title>Node1</title>
<g id="a_node1"><a xlink:title="Calculate and assemble g vector.">
<polygon fill="#bfbfbf" stroke="black" points="3341,-232.5 3341,-251.5 3484,-251.5 3484,-232.5 3341,-232.5"/>
<text text-anchor="middle" x="3412.5" y="-239.5" font-family="Helvetica,sans-Serif" font-size="10.00">CellEngineering::OpCell_g</text>
</a>
</g>
</g>
<!-- Node2 -->
<g id="node2" class="node">
<title>Node2</title>
<g id="a_node2"><a xlink:href="structMoFEM_1_1FaceElementForcesAndSourcesCore_1_1UserDataOperator.html" target="_top" xlink:title="default operator for TRI element">
<polygon fill="white" stroke="black" points="3113,-895 3113,-925 3304,-925 3304,-895 3113,-895"/>
<text text-anchor="start" x="3121" y="-913" font-family="Helvetica,sans-Serif" font-size="10.00">MoFEM::FaceElementForces</text>
<text text-anchor="middle" x="3208.5" y="-902" font-family="Helvetica,sans-Serif" font-size="10.00">AndSourcesCore::UserDataOperator</text>
</a>
</g>
</g>
<!-- Node2&#45;&gt;Node1 -->
<g id="edge1" class="edge">
<title>Node2&#45;&gt;Node1</title>
<path fill="none" stroke="midnightblue" d="M3217.03,-885.09C3250.72,-773.68 3386.89,-323.38 3408.58,-251.65"/>
<polygon fill="midnightblue" stroke="midnightblue" points="3213.64,-884.21 3214.1,-894.79 3220.34,-886.23 3213.64,-884.21"/>
</g>
<!-- Node3 -->
<g id="node3" class="node">
<title>Node3</title>
<g id="a_node3"><a xlink:href="structMoFEM_1_1ForcesAndSourcesCore_1_1UserDataOperator.html" target="_top" xlink:title=" ">
<polygon fill="white" stroke="black" points="2837,-1396 2837,-1426 3007,-1426 3007,-1396 2837,-1396"/>
<text text-anchor="start" x="2845" y="-1414" font-family="Helvetica,sans-Serif" font-size="10.00">MoFEM::ForcesAndSourcesCore</text>
<text text-anchor="middle" x="2922" y="-1403" font-family="Helvetica,sans-Serif" font-size="10.00">::UserDataOperator</text>
</a>
</g>
</g>
<!-- Node3&#45;&gt;Node2 -->
<g id="edge2" class="edge">
<title>Node3&#45;&gt;Node2</title>
<path fill="none" stroke="midnightblue" d="M2936.62,-1387.02C2986.44,-1299.29 3157.99,-997.18 3198.76,-925.39"/>
<polygon fill="midnightblue" stroke="midnightblue" points="2933.56,-1385.31 2931.67,-1395.73 2939.65,-1388.77 2933.56,-1385.31"/>
</g>
<!-- Node4 -->
<g id="node4" class="node">
<title>Node4</title>
<g id="a_node4"><a xlink:href="structMoFEM_1_1DataOperator.html" target="_top" xlink:title="base operator to do operations at Gauss Pt. level">
<polygon fill="white" stroke="black" points="2579.5,-1764.5 2579.5,-1783.5 2704.5,-1783.5 2704.5,-1764.5 2579.5,-1764.5"/>
<text text-anchor="middle" x="2642" y="-1771.5" font-family="Helvetica,sans-Serif" font-size="10.00">MoFEM::DataOperator</text>
</a>
</g>
</g>
<!-- Node4&#45;&gt;Node3 -->
<g id="edge3" class="edge">
<title>Node4&#45;&gt;Node3</title>
<path fill="none" stroke="midnightblue" d="M2715.1,-1767.82C2750.49,-1761.28 2791.34,-1747.97 2819,-1721 2906.02,-1636.16 2918.82,-1475.86 2920.69,-1426.11"/>
<polygon fill="midnightblue" stroke="midnightblue" points="2714.07,-1764.45 2704.8,-1769.57 2715.24,-1771.35 2714.07,-1764.45"/>
</g>
<!-- Node5 -->
<g id="node5" class="node">
<title>Node5</title>
<g id="a_node5"><a xlink:title=" ">
<polygon fill="white" stroke="#bfbfbf" points="2160,-1900 2160,-1952 2352,-1952 2352,-1900 2160,-1900"/>
<text text-anchor="start" x="2168" y="-1940" font-family="Helvetica,sans-Serif" font-size="10.00">function&lt; MoFEMErrorCode</text>
<text text-anchor="start" x="2168" y="-1929" font-family="Helvetica,sans-Serif" font-size="10.00">(DataOperator *op_ptr,</text>
<text text-anchor="start" x="2168" y="-1918" font-family="Helvetica,sans-Serif" font-size="10.00"> int side, EntityType type,</text>
<text text-anchor="middle" x="2256" y="-1907" font-family="Helvetica,sans-Serif" font-size="10.00"> EntitiesFieldData::EntData &amp;data)&gt;</text>
</a>
</g>
</g>
<!-- Node5&#45;&gt;Node4 -->
<g id="edge4" class="edge">
<title>Node5&#45;&gt;Node4</title>
<path fill="none" stroke="#9a32cd" stroke-dasharray="5,2" d="M2362.37,-1936.9C2417.94,-1938 2485.49,-1931.65 2539,-1903 2590.85,-1875.24 2625.3,-1808.63 2636.78,-1783.66"/>
<polygon fill="#9a32cd" stroke="#9a32cd" points="2362.23,-1933.4 2352.14,-1936.62 2362.04,-1940.4 2362.23,-1933.4"/>
<text text-anchor="middle" x="2458" y="-1940" font-family="Helvetica,sans-Serif" font-size="10.00"> doWorkRhsHook</text>
</g>
<!-- Node6 -->
<g id="node6" class="node">
<title>Node6</title>
<g id="a_node6"><a xlink:href="classbool.html" target="_top" xlink:title=" ">
<polygon fill="white" stroke="black" points="2237,-1835.5 2237,-1854.5 2275,-1854.5 2275,-1835.5 2237,-1835.5"/>
<text text-anchor="middle" x="2256" y="-1842.5" font-family="Helvetica,sans-Serif" font-size="10.00">bool</text>
</a>
</g>
</g>
<!-- Node6&#45;&gt;Node4 -->
<g id="edge5" class="edge">
<title>Node6&#45;&gt;Node4</title>
<path fill="none" stroke="#9a32cd" stroke-dasharray="5,2" d="M2285.17,-1839.79C2349.35,-1827.92 2507.22,-1798.74 2589.4,-1783.54"/>
<polygon fill="#9a32cd" stroke="#9a32cd" points="2284.2,-1836.41 2275.01,-1841.67 2285.48,-1843.29 2284.2,-1836.41"/>
<text text-anchor="middle" x="2458" y="-1891" font-family="Helvetica,sans-Serif" font-size="10.00"> doTris</text>
<text text-anchor="middle" x="2458" y="-1880" font-family="Helvetica,sans-Serif" font-size="10.00">doQuads</text>
<text text-anchor="middle" x="2458" y="-1869" font-family="Helvetica,sans-Serif" font-size="10.00">sYmm</text>
<text text-anchor="middle" x="2458" y="-1858" font-family="Helvetica,sans-Serif" font-size="10.00">doPrisms</text>
<text text-anchor="middle" x="2458" y="-1847" font-family="Helvetica,sans-Serif" font-size="10.00">doTets</text>
<text text-anchor="middle" x="2458" y="-1836" font-family="Helvetica,sans-Serif" font-size="10.00">doVertices</text>
<text text-anchor="middle" x="2458" y="-1825" font-family="Helvetica,sans-Serif" font-size="10.00">doEdges</text>
</g>
<!-- Node7 -->
<g id="node7" class="node">
<title>Node7</title>
<g id="a_node7"><a xlink:title=" ">
<polygon fill="white" stroke="#bfbfbf" points="2153,-1731.5 2153,-1816.5 2359,-1816.5 2359,-1731.5 2153,-1731.5"/>
<text text-anchor="start" x="2161" y="-1804.5" font-family="Helvetica,sans-Serif" font-size="10.00">function&lt; MoFEMErrorCode</text>
<text text-anchor="start" x="2161" y="-1793.5" font-family="Helvetica,sans-Serif" font-size="10.00">(DataOperator *op_ptr,</text>
<text text-anchor="start" x="2161" y="-1782.5" font-family="Helvetica,sans-Serif" font-size="10.00"> int row_side, int col_side,</text>
<text text-anchor="start" x="2161" y="-1771.5" font-family="Helvetica,sans-Serif" font-size="10.00"> EntityType row_type, EntityType</text>
<text text-anchor="start" x="2161" y="-1760.5" font-family="Helvetica,sans-Serif" font-size="10.00"> col_type, EntitiesFieldData::EntData</text>
<text text-anchor="start" x="2161" y="-1749.5" font-family="Helvetica,sans-Serif" font-size="10.00"> &amp;row_data, EntitiesFieldData::EntData</text>
<text text-anchor="middle" x="2256" y="-1738.5" font-family="Helvetica,sans-Serif" font-size="10.00"> &amp;col_data)&gt;</text>
</a>
</g>
</g>
<!-- Node7&#45;&gt;Node4 -->
<g id="edge6" class="edge">
<title>Node7&#45;&gt;Node4</title>
<path fill="none" stroke="#9a32cd" stroke-dasharray="5,2" d="M2369.56,-1774C2438.03,-1774 2522.87,-1774 2579.3,-1774"/>
<polygon fill="#9a32cd" stroke="#9a32cd" points="2369.15,-1770.5 2359.15,-1774 2369.15,-1777.5 2369.15,-1770.5"/>
<text text-anchor="middle" x="2458" y="-1777" font-family="Helvetica,sans-Serif" font-size="10.00"> doWorkLhsHook</text>
</g>
<!-- Node8 -->
<g id="node8" class="node">
<title>Node8</title>
<g id="a_node8"><a xlink:title=" ">
<polygon fill="white" stroke="#bfbfbf" points="2179,-1693.5 2179,-1712.5 2333,-1712.5 2333,-1693.5 2179,-1693.5"/>
<text text-anchor="middle" x="2256" y="-1700.5" font-family="Helvetica,sans-Serif" font-size="10.00">array&lt; bool, MBMAXTYPE &gt;</text>
</a>
</g>
</g>
<!-- Node8&#45;&gt;Node4 -->
<g id="edge7" class="edge">
<title>Node8&#45;&gt;Node4</title>
<path fill="none" stroke="#9a32cd" stroke-dasharray="5,2" d="M2318.65,-1714.4C2393.8,-1728.29 2519.44,-1751.52 2589.61,-1764.5"/>
<polygon fill="#9a32cd" stroke="#9a32cd" points="2318.86,-1710.88 2308.39,-1712.5 2317.59,-1717.76 2318.86,-1710.88"/>
<text text-anchor="middle" x="2458" y="-1757" font-family="Helvetica,sans-Serif" font-size="10.00"> doEntities</text>
</g>
<!-- Node9 -->
<g id="node9" class="node">
<title>Node9</title>
<g id="a_node9"><a xlink:title=" ">
<polygon fill="white" stroke="#bfbfbf" points="2607.5,-1693.5 2607.5,-1712.5 2676.5,-1712.5 2676.5,-1693.5 2607.5,-1693.5"/>
<text text-anchor="middle" x="2642" y="-1700.5" font-family="Helvetica,sans-Serif" font-size="10.00">FieldSpace</text>
</a>
</g>
</g>
<!-- Node9&#45;&gt;Node3 -->
<g id="edge8" class="edge">
<title>Node9&#45;&gt;Node3</title>
<path fill="none" stroke="#9a32cd" stroke-dasharray="5,2" d="M2686.68,-1708.66C2725.52,-1711.23 2781.76,-1708.58 2819,-1679 2901.64,-1613.35 2917.36,-1472.64 2920.32,-1426.21"/>
<polygon fill="#9a32cd" stroke="#9a32cd" points="2686.96,-1705.18 2676.71,-1707.87 2686.4,-1712.15 2686.96,-1705.18"/>
<text text-anchor="middle" x="2782" y="-1709" font-family="Helvetica,sans-Serif" font-size="10.00"> sPace</text>
</g>
<!-- Node10 -->
<g id="node10" class="node">
<title>Node10</title>
<g id="a_node10"><a xlink:title=" ">
<polygon fill="white" stroke="#bfbfbf" points="1122.5,-1634.5 1122.5,-1653.5 1160.5,-1653.5 1160.5,-1634.5 1122.5,-1634.5"/>
<text text-anchor="middle" x="1141.5" y="-1641.5" font-family="Helvetica,sans-Serif" font-size="10.00">char</text>
</a>
</g>
</g>
<!-- Node10&#45;&gt;Node3 -->
<g id="edge9" class="edge">
<title>Node10&#45;&gt;Node3</title>
<path fill="none" stroke="#9a32cd" stroke-dasharray="5,2" d="M1170.79,-1646.81C1230.88,-1652.54 1375.73,-1665 1497.5,-1665 1497.5,-1665 1497.5,-1665 2643,-1665 2785.52,-1665 2886.9,-1480.81 2913.86,-1426.13"/>
<polygon fill="#9a32cd" stroke="#9a32cd" points="1170.87,-1643.3 1160.58,-1645.83 1170.2,-1650.27 1170.87,-1643.3"/>
<text text-anchor="middle" x="2063" y="-1668" font-family="Helvetica,sans-Serif" font-size="10.00"> opType</text>
</g>
<!-- Node38 -->
<g id="node38" class="node">
<title>Node38</title>
<g id="a_node38"><a xlink:href="structMoFEM_1_1Problem.html" target="_top" xlink:title="keeps basic data about problem">
<polygon fill="white" stroke="black" points="1449,-1312.5 1449,-1331.5 1548,-1331.5 1548,-1312.5 1449,-1312.5"/>
<text text-anchor="middle" x="1498.5" y="-1319.5" font-family="Helvetica,sans-Serif" font-size="10.00">MoFEM::Problem</text>
</a>
</g>
</g>
<!-- Node10&#45;&gt;Node38 -->
<g id="edge53" class="edge">
<title>Node10&#45;&gt;Node38</title>
<path fill="none" stroke="#9a32cd" stroke-dasharray="5,2" d="M1170.96,-1641.8C1230.2,-1636.67 1364.02,-1622 1397,-1592 1417.28,-1573.55 1406,-1558.9 1415,-1533 1442.37,-1454.23 1480.99,-1361.22 1493.45,-1331.58"/>
<polygon fill="#9a32cd" stroke="#9a32cd" points="1170.48,-1638.33 1160.81,-1642.65 1171.06,-1645.31 1170.48,-1638.33"/>
<text text-anchor="middle" x="1329" y="-1633" font-family="Helvetica,sans-Serif" font-size="10.00"> tagName</text>
</g>
<!-- Node11 -->
<g id="node11" class="node">
<title>Node11</title>
<g id="a_node11"><a xlink:href="structMoFEM_1_1ForcesAndSourcesCore.html" target="_top" xlink:title="structure to get information form mofem into EntitiesFieldData">
<polygon fill="white" stroke="black" points="2557,-694.5 2557,-713.5 2727,-713.5 2727,-694.5 2557,-694.5"/>
<text text-anchor="middle" x="2642" y="-701.5" font-family="Helvetica,sans-Serif" font-size="10.00">MoFEM::ForcesAndSourcesCore</text>
</a>
</g>
</g>
<!-- Node11&#45;&gt;Node3 -->
<g id="edge10" class="edge">
<title>Node11&#45;&gt;Node3</title>
<path fill="none" stroke="#9a32cd" stroke-dasharray="5,2" d="M2650.51,-723.1C2690.61,-825.07 2878.95,-1304.06 2915.02,-1395.79"/>
<polygon fill="#9a32cd" stroke="#9a32cd" points="2653.74,-721.75 2646.82,-713.73 2647.23,-724.31 2653.74,-721.75"/>
<text text-anchor="middle" x="2782" y="-1145" font-family="Helvetica,sans-Serif" font-size="10.00"> ptrFE</text>
</g>
<!-- Node11&#45;&gt;Node11 -->
<g id="edge68" class="edge">
<title>Node11&#45;&gt;Node11</title>
<path fill="none" stroke="#9a32cd" stroke-dasharray="5,2" d="M2615.96,-723.03C2617.38,-728.13 2626.06,-732 2642,-732 2666.88,-732 2674.08,-722.57 2663.58,-713.76"/>
<polygon fill="#9a32cd" stroke="#9a32cd" points="2619.24,-724.29 2620.42,-713.76 2612.93,-721.25 2619.24,-724.29"/>
<text text-anchor="middle" x="2642" y="-746" font-family="Helvetica,sans-Serif" font-size="10.00"> sidePtrFE</text>
<text text-anchor="middle" x="2642" y="-735" font-family="Helvetica,sans-Serif" font-size="10.00">refinePtrFE</text>
</g>
<!-- Node12 -->
<g id="node12" class="node">
<title>Node12</title>
<g id="a_node12"><a xlink:href="structMoFEM_1_1FEMethod.html" target="_top" xlink:title="structure for User Loop Methods on finite elements">
<polygon fill="white" stroke="black" points="2202.5,-968.5 2202.5,-987.5 2309.5,-987.5 2309.5,-968.5 2202.5,-968.5"/>
<text text-anchor="middle" x="2256" y="-975.5" font-family="Helvetica,sans-Serif" font-size="10.00">MoFEM::FEMethod</text>
</a>
</g>
</g>
<!-- Node12&#45;&gt;Node11 -->
<g id="edge11" class="edge">
<title>Node12&#45;&gt;Node11</title>
<path fill="none" stroke="midnightblue" d="M2319.71,-974.03C2381.57,-967.14 2475.8,-948.34 2539,-897 2601.95,-845.87 2630.93,-745.36 2638.75,-713.75"/>
<polygon fill="midnightblue" stroke="midnightblue" points="2319.27,-970.56 2309.69,-975.07 2320,-977.52 2319.27,-970.56"/>
</g>
<!-- Node13 -->
<g id="node13" class="node">
<title>Node13</title>
<g id="a_node13"><a xlink:href="structMoFEM_1_1BasicMethod.html" target="_top" xlink:title="Data structure to exchange data between mofem and User Loop Methods.">
<polygon fill="white" stroke="black" points="1825,-924.5 1825,-943.5 1947,-943.5 1947,-924.5 1825,-924.5"/>
<text text-anchor="middle" x="1886" y="-931.5" font-family="Helvetica,sans-Serif" font-size="10.00">MoFEM::BasicMethod</text>
</a>
</g>
</g>
<!-- Node13&#45;&gt;Node12 -->
<g id="edge12" class="edge">
<title>Node13&#45;&gt;Node12</title>
<path fill="none" stroke="midnightblue" d="M1957.63,-942.44C2029.14,-951 2138.1,-964.02 2202.37,-971.71"/>
<polygon fill="midnightblue" stroke="midnightblue" points="1957.7,-938.93 1947.36,-941.22 1956.87,-945.88 1957.7,-938.93"/>
</g>
<!-- Node14 -->
<g id="node14" class="node">
<title>Node14</title>
<g id="a_node14"><a xlink:href="structMoFEM_1_1KspMethod.html" target="_top" xlink:title="data structure for ksp (linear solver) context">
<polygon fill="white" stroke="black" points="1442,-502.5 1442,-521.5 1555,-521.5 1555,-502.5 1442,-502.5"/>
<text text-anchor="middle" x="1498.5" y="-509.5" font-family="Helvetica,sans-Serif" font-size="10.00">MoFEM::KspMethod</text>
</a>
</g>
</g>
<!-- Node14&#45;&gt;Node13 -->
<g id="edge13" class="edge">
<title>Node14&#45;&gt;Node13</title>
<path fill="none" stroke="midnightblue" d="M1532.74,-525.55C1592.13,-551.53 1716.31,-614.11 1781,-707 1799.36,-733.36 1787.19,-747.13 1799,-777 1822.3,-835.96 1863.08,-900.65 1878.68,-924.5"/>
<polygon fill="midnightblue" stroke="midnightblue" points="1534.01,-522.29 1523.44,-521.56 1531.24,-528.72 1534.01,-522.29"/>
</g>
<!-- Node15 -->
<g id="node15" class="node">
<title>Node15</title>
<g id="a_node15"><a xlink:href="structMoFEM_1_1PetscData.html" target="_top" xlink:title=" ">
<polygon fill="white" stroke="black" points="1087.5,-818.5 1087.5,-837.5 1195.5,-837.5 1195.5,-818.5 1087.5,-818.5"/>
<text text-anchor="middle" x="1141.5" y="-825.5" font-family="Helvetica,sans-Serif" font-size="10.00">MoFEM::PetscData</text>
</a>
</g>
</g>
<!-- Node15&#45;&gt;Node14 -->
<g id="edge14" class="edge">
<title>Node15&#45;&gt;Node14</title>
<path fill="none" stroke="midnightblue" d="M1205.67,-816.72C1218.32,-813.41 1231.31,-809.23 1243,-804 1319.07,-769.95 1341.38,-759.07 1397,-697 1448.47,-639.56 1483.37,-551.13 1494.05,-521.81"/>
<polygon fill="midnightblue" stroke="midnightblue" points="1204.5,-813.41 1195.62,-819.19 1206.17,-820.2 1204.5,-813.41"/>
</g>
<!-- Node25 -->
<g id="node25" class="node">
<title>Node25</title>
<g id="a_node25"><a xlink:href="structMoFEM_1_1SnesMethod.html" target="_top" xlink:title="data structure for snes (nonlinear solver) context">
<polygon fill="white" stroke="black" points="1439,-787.5 1439,-806.5 1558,-806.5 1558,-787.5 1439,-787.5"/>
<text text-anchor="middle" x="1498.5" y="-794.5" font-family="Helvetica,sans-Serif" font-size="10.00">MoFEM::SnesMethod</text>
</a>
</g>
</g>
<!-- Node15&#45;&gt;Node25 -->
<g id="edge27" class="edge">
<title>Node15&#45;&gt;Node25</title>
<path fill="none" stroke="darkgreen" d="M1205.93,-822.46C1272.03,-816.69 1374.74,-807.72 1438.96,-802.11"/>
<polygon fill="darkgreen" stroke="darkgreen" points="1205.3,-819 1195.65,-823.36 1205.91,-825.98 1205.3,-819"/>
</g>
<!-- Node28 -->
<g id="node28" class="node">
<title>Node28</title>
<g id="a_node28"><a xlink:href="structMoFEM_1_1TSMethod.html" target="_top" xlink:title="data structure for TS (time stepping) context">
<polygon fill="white" stroke="black" points="1445,-895.5 1445,-914.5 1552,-914.5 1552,-895.5 1445,-895.5"/>
<text text-anchor="middle" x="1498.5" y="-902.5" font-family="Helvetica,sans-Serif" font-size="10.00">MoFEM::TSMethod</text>
</a>
</g>
</g>
<!-- Node15&#45;&gt;Node28 -->
<g id="edge33" class="edge">
<title>Node15&#45;&gt;Node28</title>
<path fill="none" stroke="darkgreen" d="M1205.62,-831.2C1257.73,-835.02 1333.21,-843.29 1397,-861 1427.28,-869.41 1460.28,-885.26 1479.91,-895.46"/>
<polygon fill="darkgreen" stroke="darkgreen" points="1205.74,-827.7 1195.52,-830.49 1205.25,-834.68 1205.74,-827.7"/>
</g>
<!-- Node16 -->
<g id="node16" class="node">
<title>Node16</title>
<g id="a_node16"><a xlink:href="structMoFEM_1_1UnknownInterface.html" target="_top" xlink:title="base class for all interface classes">
<polygon fill="white" stroke="black" points="735,-759.5 735,-778.5 883,-778.5 883,-759.5 735,-759.5"/>
<text text-anchor="middle" x="809" y="-766.5" font-family="Helvetica,sans-Serif" font-size="10.00">MoFEM::UnknownInterface</text>
</a>
</g>
</g>
<!-- Node16&#45;&gt;Node15 -->
<g id="edge15" class="edge">
<title>Node16&#45;&gt;Node15</title>
<path fill="none" stroke="midnightblue" d="M873.54,-780.34C935.64,-791.43 1029.12,-808.12 1087.38,-818.52"/>
<polygon fill="midnightblue" stroke="midnightblue" points="873.93,-776.86 863.47,-778.54 872.7,-783.75 873.93,-776.86"/>
</g>
<!-- Node56 -->
<g id="node56" class="node">
<title>Node56</title>
<g id="a_node56"><a xlink:href="structMoFEM_1_1CoreInterface.html" target="_top" xlink:title="Interface.">
<polygon fill="white" stroke="black" points="1079,-327.5 1079,-346.5 1204,-346.5 1204,-327.5 1079,-327.5"/>
<text text-anchor="middle" x="1141.5" y="-334.5" font-family="Helvetica,sans-Serif" font-size="10.00">MoFEM::CoreInterface</text>
</a>
</g>
</g>
<!-- Node16&#45;&gt;Node56 -->
<g id="edge67" class="edge">
<title>Node16&#45;&gt;Node56</title>
<path fill="none" stroke="midnightblue" d="M825,-751.73C841.72,-733.58 870.45,-705.56 901,-690 950.18,-664.94 986.37,-704.16 1022,-662 1065.25,-610.82 996.93,-412.33 1040,-361 1049.8,-349.32 1064.17,-342.75 1079,-339.18"/>
<polygon fill="midnightblue" stroke="midnightblue" points="822.28,-749.51 818.2,-759.29 827.49,-754.19 822.28,-749.51"/>
</g>
<!-- Node17 -->
<g id="node17" class="node">
<title>Node17</title>
<g id="a_node17"><a xlink:title=" ">
<polygon fill="white" stroke="#bfbfbf" points="386,-930.5 386,-993.5 627,-993.5 627,-930.5 386,-930.5"/>
<text text-anchor="start" x="394" y="-981.5" font-family="Helvetica,sans-Serif" font-size="10.00">multi_index_container</text>
<text text-anchor="start" x="394" y="-970.5" font-family="Helvetica,sans-Serif" font-size="10.00">&lt; UIdTypeMap, indexed</text>
<text text-anchor="start" x="394" y="-959.5" font-family="Helvetica,sans-Serif" font-size="10.00">_by&lt; hashed_unique&lt; member</text>
<text text-anchor="start" x="394" y="-948.5" font-family="Helvetica,sans-Serif" font-size="10.00">&lt; UIdTypeMap, boost::typeindex</text>
<text text-anchor="middle" x="506.5" y="-937.5" font-family="Helvetica,sans-Serif" font-size="10.00">::type_index, &amp;UIdTypeMap::classIdx &gt; &gt; &gt; &gt;</text>
</a>
</g>
</g>
<!-- Node17&#45;&gt;Node16 -->
<g id="edge16" class="edge">
<title>Node17&#45;&gt;Node16</title>
<path fill="none" stroke="#9a32cd" stroke-dasharray="5,2" d="M547.5,-923.32C590.5,-883.8 662.48,-823.37 735,-788 742.77,-784.21 751.38,-781.11 759.89,-778.6"/>
<polygon fill="#9a32cd" stroke="#9a32cd" points="545.03,-920.84 540.08,-930.2 549.79,-925.97 545.03,-920.84"/>
<text text-anchor="middle" x="681" y="-845" font-family="Helvetica,sans-Serif" font-size="10.00"> iFaceTypeMap</text>
</g>
<!-- Node18 -->
<g id="node18" class="node">
<title>Node18</title>
<g id="a_node18"><a xlink:title=" ">
<polygon fill="white" stroke="#bfbfbf" points="0,-1009.5 0,-1028.5 125,-1028.5 125,-1009.5 0,-1009.5"/>
<text text-anchor="middle" x="62.5" y="-1016.5" font-family="Helvetica,sans-Serif" font-size="10.00">multi_index_container</text>
</a>
</g>
</g>
<!-- Node18&#45;&gt;Node13 -->
<g id="edge40" class="edge">
<title>Node18&#45;&gt;Node13</title>
<path fill="none" stroke="#9a32cd" stroke-dasharray="5,2" d="M87.73,-1033.67C103.01,-1042.12 123.48,-1052.03 143,-1057 299.35,-1096.78 344.17,-1076 505.5,-1076 505.5,-1076 505.5,-1076 1499.5,-1076 1631.98,-1076 1674.81,-1057.21 1781,-978 1791.97,-969.81 1787.56,-960.53 1799,-953 1806.79,-947.87 1815.75,-944.11 1824.88,-941.35"/>
<polygon fill="#9a32cd" stroke="#9a32cd" points="89.36,-1030.57 78.94,-1028.65 85.89,-1036.65 89.36,-1030.57"/>
<text text-anchor="middle" x="961.5" y="-1156" font-family="Helvetica,sans-Serif" font-size="10.00"> adjacenciesPtr</text>
<text text-anchor="middle" x="961.5" y="-1145" font-family="Helvetica,sans-Serif" font-size="10.00">refinedEntitiesPtr</text>
<text text-anchor="middle" x="961.5" y="-1134" font-family="Helvetica,sans-Serif" font-size="10.00">finiteElementsEntitiesPtr</text>
<text text-anchor="middle" x="961.5" y="-1123" font-family="Helvetica,sans-Serif" font-size="10.00">dofsPtr</text>
<text text-anchor="middle" x="961.5" y="-1112" font-family="Helvetica,sans-Serif" font-size="10.00">entitiesPtr</text>
<text text-anchor="middle" x="961.5" y="-1101" font-family="Helvetica,sans-Serif" font-size="10.00">finiteElementsPtr</text>
<text text-anchor="middle" x="961.5" y="-1090" font-family="Helvetica,sans-Serif" font-size="10.00">refinedFiniteElementsPtr</text>
<text text-anchor="middle" x="961.5" y="-1079" font-family="Helvetica,sans-Serif" font-size="10.00">fieldsPtr</text>
</g>
<!-- Node18&#45;&gt;Node17 -->
<g id="edge17" class="edge">
<title>Node18&#45;&gt;Node17</title>
<path fill="none" stroke="orange" stroke-dasharray="5,2" d="M135.56,-1009.71C203.25,-1000.98 305.79,-987.75 385.77,-977.44"/>
<polygon fill="orange" stroke="orange" points="134.89,-1006.26 125.42,-1011.01 135.79,-1013.21 134.89,-1006.26"/>
<text text-anchor="start" x="143" y="-1045" font-family="Helvetica,sans-Serif" font-size="10.00"> &lt; UIdTypeMap, indexed</text>
<text text-anchor="start" x="143" y="-1034" font-family="Helvetica,sans-Serif" font-size="10.00">_by&lt; hashed_unique&lt; member</text>
<text text-anchor="start" x="143" y="-1023" font-family="Helvetica,sans-Serif" font-size="10.00">&lt; UIdTypeMap, boost::typeindex</text>
<text text-anchor="middle" x="255.5" y="-1012" font-family="Helvetica,sans-Serif" font-size="10.00">::type_index, &amp;UIdTypeMap::classIdx &gt; &gt; &gt; &gt;</text>
</g>
<!-- Node19 -->
<g id="node19" class="node">
<title>Node19</title>
<g id="a_node19"><a xlink:title=" ">
<polygon fill="white" stroke="#bfbfbf" points="738.5,-935.5 738.5,-954.5 879.5,-954.5 879.5,-935.5 738.5,-935.5"/>
<text text-anchor="middle" x="809" y="-942.5" font-family="Helvetica,sans-Serif" font-size="10.00">static constexpr Switches</text>
</a>
</g>
</g>
<!-- Node19&#45;&gt;Node15 -->
<g id="edge18" class="edge">
<title>Node19&#45;&gt;Node15</title>
<path fill="none" stroke="#9a32cd" stroke-dasharray="5,2" d="M889.55,-945.99C933.24,-942.51 985.75,-931.19 1022,-900 1039.27,-885.14 1022.92,-867.08 1040,-852 1053.04,-840.48 1070.63,-834.25 1087.45,-830.95"/>
<polygon fill="#9a32cd" stroke="#9a32cd" points="889.25,-942.5 879.51,-946.67 889.72,-949.48 889.25,-942.5"/>
<text text-anchor="middle" x="961.5" y="-1025" font-family="Helvetica,sans-Serif" font-size="10.00"> CtxSetX_TT</text>
<text text-anchor="middle" x="961.5" y="-1014" font-family="Helvetica,sans-Serif" font-size="10.00">CtxSetX_T</text>
<text text-anchor="middle" x="961.5" y="-1003" font-family="Helvetica,sans-Serif" font-size="10.00">CtxSetA</text>
<text text-anchor="middle" x="961.5" y="-992" font-family="Helvetica,sans-Serif" font-size="10.00">CtxSetB</text>
<text text-anchor="middle" x="961.5" y="-981" font-family="Helvetica,sans-Serif" font-size="10.00">CtxSetTime</text>
<text text-anchor="middle" x="961.5" y="-970" font-family="Helvetica,sans-Serif" font-size="10.00">CtxSetNone</text>
<text text-anchor="middle" x="961.5" y="-959" font-family="Helvetica,sans-Serif" font-size="10.00">CtxSetF</text>
<text text-anchor="middle" x="961.5" y="-948" font-family="Helvetica,sans-Serif" font-size="10.00">CtxSetX</text>
</g>
<!-- Node20 -->
<g id="node20" class="node">
<title>Node20</title>
<g id="a_node20"><a xlink:title=" ">
<polygon fill="white" stroke="#bfbfbf" points="791.5,-797.5 791.5,-816.5 826.5,-816.5 826.5,-797.5 791.5,-797.5"/>
<text text-anchor="middle" x="809" y="-804.5" font-family="Helvetica,sans-Serif" font-size="10.00">Mat</text>
</a>
</g>
</g>
<!-- Node20&#45;&gt;Node14 -->
<g id="edge24" class="edge">
<title>Node20&#45;&gt;Node14</title>
<path fill="none" stroke="#9a32cd" stroke-dasharray="5,2" d="M836.67,-802.55C850.87,-799.58 868.38,-794.91 883,-788 952.04,-755.37 982.12,-752.12 1022,-687 1048.79,-643.26 1003.3,-608.83 1040,-573 1068.35,-545.33 1325.89,-524.01 1441.62,-515.74"/>
<polygon fill="#9a32cd" stroke="#9a32cd" points="835.71,-799.18 826.55,-804.51 837.04,-806.05 835.71,-799.18"/>
<text text-anchor="middle" x="1141.5" y="-587" font-family="Helvetica,sans-Serif" font-size="10.00"> ksp_A</text>
<text text-anchor="middle" x="1141.5" y="-576" font-family="Helvetica,sans-Serif" font-size="10.00">ksp_B</text>
</g>
<!-- Node20&#45;&gt;Node15 -->
<g id="edge19" class="edge">
<title>Node20&#45;&gt;Node15</title>
<path fill="none" stroke="#9a32cd" stroke-dasharray="5,2" d="M836.89,-809.2C855,-810.65 879.43,-812.54 901,-814 965,-818.33 1038.67,-822.52 1087.21,-825.17"/>
<polygon fill="#9a32cd" stroke="#9a32cd" points="837.01,-805.7 826.77,-808.38 836.45,-812.67 837.01,-805.7"/>
<text text-anchor="middle" x="961.5" y="-836" font-family="Helvetica,sans-Serif" font-size="10.00"> A</text>
<text text-anchor="middle" x="961.5" y="-825" font-family="Helvetica,sans-Serif" font-size="10.00">B</text>
</g>
<!-- Node20&#45;&gt;Node25 -->
<g id="edge29" class="edge">
<title>Node20&#45;&gt;Node25</title>
<path fill="none" stroke="#9a32cd" stroke-dasharray="5,2" d="M836.87,-803.9C879.75,-799.13 966.33,-790.2 1040,-787 1183.27,-780.78 1351.94,-788.3 1438.98,-793.28"/>
<polygon fill="#9a32cd" stroke="#9a32cd" points="836.25,-800.45 826.71,-805.05 837.03,-807.41 836.25,-800.45"/>
<text text-anchor="middle" x="1141.5" y="-801" font-family="Helvetica,sans-Serif" font-size="10.00"> snes_A</text>
<text text-anchor="middle" x="1141.5" y="-790" font-family="Helvetica,sans-Serif" font-size="10.00">snes_B</text>
</g>
<!-- Node20&#45;&gt;Node28 -->
<g id="edge34" class="edge">
<title>Node20&#45;&gt;Node28</title>
<path fill="none" stroke="#9a32cd" stroke-dasharray="5,2" d="M835.96,-821.46C853.72,-830.65 878.11,-841.93 901,-848 927.13,-854.93 1304.13,-888.19 1444.96,-900.45"/>
<polygon fill="#9a32cd" stroke="#9a32cd" points="837.3,-818.21 826.82,-816.61 834.02,-824.39 837.3,-818.21"/>
<text text-anchor="middle" x="1141.5" y="-897" font-family="Helvetica,sans-Serif" font-size="10.00"> ts_A</text>
<text text-anchor="middle" x="1141.5" y="-886" font-family="Helvetica,sans-Serif" font-size="10.00">ts_B</text>
</g>
<!-- Node70 -->
<g id="node70" class="node">
<title>Node70</title>
<g id="a_node70"><a xlink:href="structCellEngineering_1_1CommonData.html" target="_top" xlink:title=" ">
<polygon fill="white" stroke="black" points="2558.5,-232.5 2558.5,-251.5 2725.5,-251.5 2725.5,-232.5 2558.5,-232.5"/>
<text text-anchor="middle" x="2642" y="-239.5" font-family="Helvetica,sans-Serif" font-size="10.00">CellEngineering::CommonData</text>
</a>
</g>
</g>
<!-- Node20&#45;&gt;Node70 -->
<g id="edge88" class="edge">
<title>Node20&#45;&gt;Node70</title>
<path fill="none" stroke="#9a32cd" stroke-dasharray="5,2" d="M837.05,-807.21C852.86,-805.79 871.85,-801.14 883,-788 911.44,-754.48 888.81,-633.24 901,-591 910.44,-558.3 1011.58,-336.74 1040,-318 1093.55,-282.7 1263.86,-299 1328,-299 1328,-299 1328,-299 2257,-299 2383.04,-299 2415.05,-291.86 2539,-269 2563.14,-264.55 2589.95,-257.36 2610.03,-251.52"/>
<polygon fill="#9a32cd" stroke="#9a32cd" points="836.55,-803.73 826.75,-807.74 836.91,-810.72 836.55,-803.73"/>
<text text-anchor="middle" x="1690.5" y="-302" font-family="Helvetica,sans-Serif" font-size="10.00"> globA</text>
</g>
<!-- Node21 -->
<g id="node21" class="node">
<title>Node21</title>
<g id="a_node21"><a xlink:title=" ">
<polygon fill="white" stroke="#bfbfbf" points="772.5,-897.5 772.5,-916.5 845.5,-916.5 845.5,-897.5 772.5,-897.5"/>
<text text-anchor="middle" x="809" y="-904.5" font-family="Helvetica,sans-Serif" font-size="10.00">bitset&lt; 8 &gt;</text>
</a>
</g>
</g>
<!-- Node21&#45;&gt;Node15 -->
<g id="edge20" class="edge">
<title>Node21&#45;&gt;Node15</title>
<path fill="none" stroke="#9a32cd" stroke-dasharray="5,2" d="M855.61,-896.09C902.01,-884.99 976.01,-867.29 1040,-852 1059.89,-847.25 1081.99,-841.97 1100.4,-837.57"/>
<polygon fill="#9a32cd" stroke="#9a32cd" points="854.77,-892.69 845.85,-898.42 856.39,-899.5 854.77,-892.69"/>
<text text-anchor="middle" x="961.5" y="-888" font-family="Helvetica,sans-Serif" font-size="10.00"> data_ctx</text>
</g>
<!-- Node22 -->
<g id="node22" class="node">
<title>Node22</title>
<g id="a_node22"><a xlink:title=" ">
<polygon fill="white" stroke="#bfbfbf" points="792,-435.5 792,-454.5 826,-454.5 826,-435.5 792,-435.5"/>
<text text-anchor="middle" x="809" y="-442.5" font-family="Helvetica,sans-Serif" font-size="10.00">Vec</text>
</a>
</g>
</g>
<!-- Node22&#45;&gt;Node1 -->
<g id="edge92" class="edge">
<title>Node22&#45;&gt;Node1</title>
<path fill="none" stroke="#9a32cd" stroke-dasharray="5,2" d="M814.18,-425.53C833.82,-339.78 925.23,0 1140.5,0 1140.5,0 1140.5,0 3209.5,0 3253.84,0 3270.43,-3.03 3304,-32 3370.97,-89.81 3401.46,-199.57 3409.35,-232.46"/>
<polygon fill="#9a32cd" stroke="#9a32cd" points="810.76,-424.77 812,-435.29 817.59,-426.29 810.76,-424.77"/>
<text text-anchor="middle" x="2256" y="-3" font-family="Helvetica,sans-Serif" font-size="10.00"> F</text>
</g>
<!-- Node22&#45;&gt;Node14 -->
<g id="edge25" class="edge">
<title>Node22&#45;&gt;Node14</title>
<path fill="none" stroke="#9a32cd" stroke-dasharray="5,2" d="M835.99,-436.97C878.26,-424.39 964.74,-400.56 1040,-392 1129.64,-381.8 1153.17,-383.62 1243,-392 1312.35,-398.47 1334.62,-390.02 1397,-421 1438.11,-441.42 1474.9,-483.53 1490.1,-502.44"/>
<polygon fill="#9a32cd" stroke="#9a32cd" points="834.8,-433.68 826.23,-439.92 836.82,-440.38 834.8,-433.68"/>
<text text-anchor="middle" x="1141.5" y="-395" font-family="Helvetica,sans-Serif" font-size="10.00"> ksp_f</text>
</g>
<!-- Node22&#45;&gt;Node15 -->
<g id="edge21" class="edge">
<title>Node22&#45;&gt;Node15</title>
<path fill="none" stroke="#9a32cd" stroke-dasharray="5,2" d="M820.19,-463.83C836.16,-492.84 868.61,-549.83 901,-595 949.71,-662.94 983.07,-665.03 1022,-739 1035.96,-765.53 1018.43,-783.19 1040,-804 1052.65,-816.21 1070.34,-822.58 1087.36,-825.81"/>
<polygon fill="#9a32cd" stroke="#9a32cd" points="823.12,-461.9 815.26,-454.8 816.98,-465.26 823.12,-461.9"/>
<text text-anchor="middle" x="961.5" y="-775" font-family="Helvetica,sans-Serif" font-size="10.00"> f</text>
<text text-anchor="middle" x="961.5" y="-764" font-family="Helvetica,sans-Serif" font-size="10.00">x</text>
<text text-anchor="middle" x="961.5" y="-753" font-family="Helvetica,sans-Serif" font-size="10.00">x_t</text>
<text text-anchor="middle" x="961.5" y="-742" font-family="Helvetica,sans-Serif" font-size="10.00">x_tt</text>
</g>
<!-- Node22&#45;&gt;Node25 -->
<g id="edge30" class="edge">
<title>Node22&#45;&gt;Node25</title>
<path fill="none" stroke="#9a32cd" stroke-dasharray="5,2" d="M836.27,-448.93C878.99,-455.3 966.14,-468.27 1040,-479 1130.19,-492.11 1157.67,-475.99 1243,-508 1319.41,-536.67 1354.33,-538.43 1397,-608 1416.86,-640.38 1389.81,-749.56 1415,-778 1421.34,-785.15 1429.77,-789.9 1438.83,-792.99"/>
<polygon fill="#9a32cd" stroke="#9a32cd" points="836.58,-445.43 826.17,-447.42 835.54,-452.36 836.58,-445.43"/>
<text text-anchor="middle" x="1141.5" y="-522" font-family="Helvetica,sans-Serif" font-size="10.00"> snes_x</text>
<text text-anchor="middle" x="1141.5" y="-511" font-family="Helvetica,sans-Serif" font-size="10.00">snes_f</text>
</g>
<!-- Node22&#45;&gt;Node28 -->
<g id="edge38" class="edge">
<title>Node22&#45;&gt;Node28</title>
<path fill="none" stroke="#9a32cd" stroke-dasharray="5,2" d="M835.63,-456.12C880.68,-477.04 973.84,-526.65 1022,-598 1040.69,-625.7 1017.24,-646.53 1040,-671 1104.61,-740.47 1166.37,-681.06 1243,-737 1254.06,-745.07 1250.65,-753.03 1261,-762 1312.53,-806.65 1338.92,-797.28 1397,-833 1430.09,-853.35 1466.63,-880.92 1485.2,-895.32"/>
<polygon fill="#9a32cd" stroke="#9a32cd" points="836.83,-452.82 826.28,-451.87 833.93,-459.2 836.83,-452.82"/>
<text text-anchor="middle" x="1141.5" y="-773" font-family="Helvetica,sans-Serif" font-size="10.00"> ts_u</text>
<text text-anchor="middle" x="1141.5" y="-762" font-family="Helvetica,sans-Serif" font-size="10.00">ts_F</text>
<text text-anchor="middle" x="1141.5" y="-751" font-family="Helvetica,sans-Serif" font-size="10.00">ts_u_t</text>
<text text-anchor="middle" x="1141.5" y="-740" font-family="Helvetica,sans-Serif" font-size="10.00">ts_u_tt</text>
</g>
<!-- Node22&#45;&gt;Node70 -->
<g id="edge90" class="edge">
<title>Node22&#45;&gt;Node70</title>
<path fill="none" stroke="#9a32cd" stroke-dasharray="5,2" d="M826.09,-428.03C871.08,-382.48 1003.9,-261 1140.5,-261 1140.5,-261 1140.5,-261 2257,-261 2360.96,-261 2480.56,-253.97 2558.29,-248.46"/>
<polygon fill="#9a32cd" stroke="#9a32cd" points="823.41,-425.76 818.95,-435.37 828.43,-430.64 823.41,-425.76"/>
<text text-anchor="middle" x="1690.5" y="-264" font-family="Helvetica,sans-Serif" font-size="10.00"> globF</text>
</g>
<!-- Node23 -->
<g id="node23" class="node">
<title>Node23</title>
<g id="a_node23"><a xlink:title=" ">
<polygon fill="white" stroke="#bfbfbf" points="1124,-450.5 1124,-469.5 1159,-469.5 1159,-450.5 1124,-450.5"/>
<text text-anchor="middle" x="1141.5" y="-457.5" font-family="Helvetica,sans-Serif" font-size="10.00">KSP</text>
</a>
</g>
</g>
<!-- Node23&#45;&gt;Node14 -->
<g id="edge22" class="edge">
<title>Node23&#45;&gt;Node14</title>
<path fill="none" stroke="#9a32cd" stroke-dasharray="5,2" d="M1169.21,-460.31C1215.85,-461.26 1314.99,-465.16 1397,-481 1423,-486.02 1451.78,-495.3 1471.86,-502.4"/>
<polygon fill="#9a32cd" stroke="#9a32cd" points="1169.1,-456.8 1159.04,-460.13 1168.98,-463.8 1169.1,-456.8"/>
<text text-anchor="middle" x="1329" y="-484" font-family="Helvetica,sans-Serif" font-size="10.00"> ksp</text>
</g>
<!-- Node24 -->
<g id="node24" class="node">
<title>Node24</title>
<g id="a_node24"><a xlink:title=" ">
<polygon fill="white" stroke="#bfbfbf" points="1104.5,-412.5 1104.5,-431.5 1178.5,-431.5 1178.5,-412.5 1104.5,-412.5"/>
<text text-anchor="middle" x="1141.5" y="-419.5" font-family="Helvetica,sans-Serif" font-size="10.00">KSPContext</text>
</a>
</g>
</g>
<!-- Node24&#45;&gt;Node14 -->
<g id="edge23" class="edge">
<title>Node24&#45;&gt;Node14</title>
<path fill="none" stroke="#9a32cd" stroke-dasharray="5,2" d="M1188.82,-421.05C1240.87,-421.35 1327.2,-426 1397,-450 1432.28,-462.13 1468.19,-488.35 1486.01,-502.49"/>
<polygon fill="#9a32cd" stroke="#9a32cd" points="1188.57,-417.55 1178.57,-421.05 1188.57,-424.55 1188.57,-417.55"/>
<text text-anchor="middle" x="1329" y="-453" font-family="Helvetica,sans-Serif" font-size="10.00"> ksp_ctx</text>
</g>
<!-- Node25&#45;&gt;Node13 -->
<g id="edge26" class="edge">
<title>Node25&#45;&gt;Node13</title>
<path fill="none" stroke="midnightblue" d="M1536.05,-809.99C1613.06,-837.36 1790.46,-900.4 1858.12,-924.45"/>
<polygon fill="midnightblue" stroke="midnightblue" points="1536.9,-806.58 1526.3,-806.52 1534.55,-813.17 1536.9,-806.58"/>
</g>
<!-- Node26 -->
<g id="node26" class="node">
<title>Node26</title>
<g id="a_node26"><a xlink:title=" ">
<polygon fill="white" stroke="#bfbfbf" points="1120.5,-642.5 1120.5,-661.5 1162.5,-661.5 1162.5,-642.5 1120.5,-642.5"/>
<text text-anchor="middle" x="1141.5" y="-649.5" font-family="Helvetica,sans-Serif" font-size="10.00">SNES</text>
</a>
</g>
</g>
<!-- Node26&#45;&gt;Node25 -->
<g id="edge28" class="edge">
<title>Node26&#45;&gt;Node25</title>
<path fill="none" stroke="#9a32cd" stroke-dasharray="5,2" d="M1172.74,-657.59C1192.92,-661.72 1219.9,-668.01 1243,-676 1314.22,-700.65 1341.26,-696.27 1397,-747 1408.78,-757.72 1402.18,-768.54 1415,-778 1422.1,-783.23 1430.4,-787.06 1438.95,-789.85"/>
<polygon fill="#9a32cd" stroke="#9a32cd" points="1173.35,-654.15 1162.86,-655.63 1171.98,-661.01 1173.35,-654.15"/>
<text text-anchor="middle" x="1329" y="-750" font-family="Helvetica,sans-Serif" font-size="10.00"> snes</text>
</g>
<!-- Node27 -->
<g id="node27" class="node">
<title>Node27</title>
<g id="a_node27"><a xlink:title=" ">
<polygon fill="white" stroke="#bfbfbf" points="1101.5,-604.5 1101.5,-623.5 1181.5,-623.5 1181.5,-604.5 1101.5,-604.5"/>
<text text-anchor="middle" x="1141.5" y="-611.5" font-family="Helvetica,sans-Serif" font-size="10.00">SNESContext</text>
</a>
</g>
</g>
<!-- Node27&#45;&gt;Node25 -->
<g id="edge31" class="edge">
<title>Node27&#45;&gt;Node25</title>
<path fill="none" stroke="#9a32cd" stroke-dasharray="5,2" d="M1191.76,-609.24C1249.64,-606.62 1344.45,-612.13 1397,-668 1430.94,-704.09 1381.11,-741.87 1415,-778 1421.43,-784.86 1429.81,-789.48 1438.75,-792.55"/>
<polygon fill="#9a32cd" stroke="#9a32cd" points="1191.54,-605.75 1181.75,-609.79 1191.92,-612.74 1191.54,-605.75"/>
<text text-anchor="middle" x="1329" y="-671" font-family="Helvetica,sans-Serif" font-size="10.00"> snes_ctx</text>
</g>
<!-- Node28&#45;&gt;Node13 -->
<g id="edge32" class="edge">
<title>Node28&#45;&gt;Node13</title>
<path fill="none" stroke="midnightblue" d="M1562.67,-909.75C1635.29,-915.22 1753.64,-924.12 1824.93,-929.48"/>
<polygon fill="midnightblue" stroke="midnightblue" points="1562.53,-906.23 1552.29,-908.97 1562,-913.21 1562.53,-906.23"/>
</g>
<!-- Node29 -->
<g id="node29" class="node">
<title>Node29</title>
<g id="a_node29"><a xlink:title=" ">
<polygon fill="white" stroke="#bfbfbf" points="1109,-914.5 1109,-933.5 1174,-933.5 1174,-914.5 1109,-914.5"/>
<text text-anchor="middle" x="1141.5" y="-921.5" font-family="Helvetica,sans-Serif" font-size="10.00">PetscReal</text>
</a>
</g>
</g>
<!-- Node29&#45;&gt;Node28 -->
<g id="edge35" class="edge">
<title>Node29&#45;&gt;Node28</title>
<path fill="none" stroke="#9a32cd" stroke-dasharray="5,2" d="M1184,-916.17C1206.66,-912.28 1235.27,-908 1261,-906 1324.04,-901.11 1396.82,-901.74 1444.81,-903.02"/>
<polygon fill="#9a32cd" stroke="#9a32cd" points="1183.29,-912.74 1174.04,-917.92 1184.5,-919.64 1183.29,-912.74"/>
<text text-anchor="middle" x="1329" y="-942" font-family="Helvetica,sans-Serif" font-size="10.00"> ts_a</text>
<text text-anchor="middle" x="1329" y="-931" font-family="Helvetica,sans-Serif" font-size="10.00">ts_t</text>
<text text-anchor="middle" x="1329" y="-920" font-family="Helvetica,sans-Serif" font-size="10.00">ts_dt</text>
<text text-anchor="middle" x="1329" y="-909" font-family="Helvetica,sans-Serif" font-size="10.00">ts_aa</text>
</g>
<!-- Node30 -->
<g id="node30" class="node">
<title>Node30</title>
<g id="a_node30"><a xlink:title=" ">
<polygon fill="white" stroke="#bfbfbf" points="1108,-1028.5 1108,-1047.5 1175,-1047.5 1175,-1028.5 1108,-1028.5"/>
<text text-anchor="middle" x="1141.5" y="-1035.5" font-family="Helvetica,sans-Serif" font-size="10.00">TSContext</text>
</a>
</g>
</g>
<!-- Node30&#45;&gt;Node28 -->
<g id="edge36" class="edge">
<title>Node30&#45;&gt;Node28</title>
<path fill="none" stroke="#9a32cd" stroke-dasharray="5,2" d="M1185.6,-1040.65C1249.94,-1043.65 1366.81,-1045.02 1397,-1018 1428.7,-989.63 1385.49,-954.63 1415,-924 1422.95,-915.74 1433.72,-910.76 1444.85,-907.81"/>
<polygon fill="#9a32cd" stroke="#9a32cd" points="1185.52,-1037.15 1175.36,-1040.14 1185.18,-1044.14 1185.52,-1037.15"/>
<text text-anchor="middle" x="1329" y="-1046" font-family="Helvetica,sans-Serif" font-size="10.00"> ts_ctx</text>
</g>
<!-- Node31 -->
<g id="node31" class="node">
<title>Node31</title>
<g id="a_node31"><a xlink:title=" ">
<polygon fill="white" stroke="#bfbfbf" points="1113.5,-990.5 1113.5,-1009.5 1169.5,-1009.5 1169.5,-990.5 1113.5,-990.5"/>
<text text-anchor="middle" x="1141.5" y="-997.5" font-family="Helvetica,sans-Serif" font-size="10.00">PetscInt</text>
</a>
</g>
</g>
<!-- Node31&#45;&gt;Node28 -->
<g id="edge37" class="edge">
<title>Node31&#45;&gt;Node28</title>
<path fill="none" stroke="#9a32cd" stroke-dasharray="5,2" d="M1179.81,-1002.33C1242.26,-1005.44 1364.35,-1007.88 1397,-982 1418.15,-965.23 1395.22,-942.36 1415,-924 1423.19,-916.4 1433.78,-911.64 1444.64,-908.7"/>
<polygon fill="#9a32cd" stroke="#9a32cd" points="1179.77,-998.83 1169.6,-1001.79 1179.4,-1005.82 1179.77,-998.83"/>
<text text-anchor="middle" x="1329" y="-1008" font-family="Helvetica,sans-Serif" font-size="10.00"> ts_step</text>
</g>
<!-- Node32 -->
<g id="node32" class="node">
<title>Node32</title>
<g id="a_node32"><a xlink:title=" ">
<polygon fill="white" stroke="#bfbfbf" points="1127,-952.5 1127,-971.5 1156,-971.5 1156,-952.5 1127,-952.5"/>
<text text-anchor="middle" x="1141.5" y="-959.5" font-family="Helvetica,sans-Serif" font-size="10.00">TS</text>
</a>
</g>
</g>
<!-- Node32&#45;&gt;Node28 -->
<g id="edge39" class="edge">
<title>Node32&#45;&gt;Node28</title>
<path fill="none" stroke="#9a32cd" stroke-dasharray="5,2" d="M1166.41,-963.51C1221.95,-966.61 1357.91,-971.67 1397,-950 1409.29,-943.19 1403.37,-931.89 1415,-924 1423.88,-917.98 1434.41,-913.85 1444.91,-911.02"/>
<polygon fill="#9a32cd" stroke="#9a32cd" points="1166.33,-960 1156.14,-962.91 1165.92,-966.99 1166.33,-960"/>
<text text-anchor="middle" x="1329" y="-970" font-family="Helvetica,sans-Serif" font-size="10.00"> ts</text>
</g>
<!-- Node33 -->
<g id="node33" class="node">
<title>Node33</title>
<g id="a_node33"><a xlink:title=" ">
<polygon fill="white" stroke="#bfbfbf" points="1454,-749.5 1454,-768.5 1543,-768.5 1543,-749.5 1454,-749.5"/>
<text text-anchor="middle" x="1498.5" y="-756.5" font-family="Helvetica,sans-Serif" font-size="10.00">pair&lt; int, int &gt;</text>
</a>
</g>
</g>
<!-- Node33&#45;&gt;Node13 -->
<g id="edge41" class="edge">
<title>Node33&#45;&gt;Node13</title>
<path fill="none" stroke="#9a32cd" stroke-dasharray="5,2" d="M1553.75,-760.74C1613.17,-764.79 1709.53,-777.81 1781,-819 1828.11,-846.15 1865.63,-902.06 1879.36,-924.43"/>
<polygon fill="#9a32cd" stroke="#9a32cd" points="1553.65,-757.23 1543.46,-760.11 1553.22,-764.22 1553.65,-757.23"/>
<text text-anchor="middle" x="1690.5" y="-822" font-family="Helvetica,sans-Serif" font-size="10.00"> loHiFERank</text>
</g>
<!-- Node34 -->
<g id="node34" class="node">
<title>Node34</title>
<g id="a_node34"><a xlink:title=" ">
<polygon fill="white" stroke="#bfbfbf" points="1428.5,-711.5 1428.5,-730.5 1568.5,-730.5 1568.5,-711.5 1428.5,-711.5"/>
<text text-anchor="middle" x="1498.5" y="-718.5" font-family="Helvetica,sans-Serif" font-size="10.00">weak_ptr&lt; CacheTuple &gt;</text>
</a>
</g>
</g>
<!-- Node34&#45;&gt;Node13 -->
<g id="edge42" class="edge">
<title>Node34&#45;&gt;Node13</title>
<path fill="none" stroke="#9a32cd" stroke-dasharray="5,2" d="M1578.92,-710.99C1639.15,-707.51 1721.45,-711.98 1781,-751 1789.41,-756.51 1860.17,-887.7 1879.91,-924.49"/>
<polygon fill="#9a32cd" stroke="#9a32cd" points="1578.44,-707.51 1568.7,-711.67 1578.91,-714.5 1578.44,-707.51"/>
<text text-anchor="middle" x="1690.5" y="-754" font-family="Helvetica,sans-Serif" font-size="10.00"> cacheWeakPtr</text>
</g>
<!-- Node35 -->
<g id="node35" class="node">
<title>Node35</title>
<g id="a_node35"><a xlink:title=" ">
<polygon fill="white" stroke="#bfbfbf" points="1442.5,-1617.5 1442.5,-1636.5 1554.5,-1636.5 1554.5,-1617.5 1442.5,-1617.5"/>
<text text-anchor="middle" x="1498.5" y="-1624.5" font-family="Helvetica,sans-Serif" font-size="10.00">unique_ptr&lt; bool &gt;</text>
</a>
</g>
</g>
<!-- Node35&#45;&gt;Node13 -->
<g id="edge43" class="edge">
<title>Node35&#45;&gt;Node13</title>
<path fill="none" stroke="#9a32cd" stroke-dasharray="5,2" d="M1564.85,-1622.71C1639.18,-1616.32 1753.8,-1601.39 1781,-1569 1825.03,-1516.56 1755.35,-1005.75 1799,-953 1805.63,-944.99 1814.8,-939.89 1824.7,-936.73"/>
<polygon fill="#9a32cd" stroke="#9a32cd" points="1564.32,-1619.24 1554.64,-1623.55 1564.9,-1626.21 1564.32,-1619.24"/>
<text text-anchor="middle" x="1690.5" y="-1633" font-family="Helvetica,sans-Serif" font-size="10.00"> matAssembleSwitch</text>
<text text-anchor="middle" x="1690.5" y="-1622" font-family="Helvetica,sans-Serif" font-size="10.00">vecAssembleSwitch</text>
</g>
<!-- Node36 -->
<g id="node36" class="node">
<title>Node36</title>
<g id="a_node36"><a xlink:title=" ">
<polygon fill="white" stroke="#bfbfbf" points="1127,-1554.5 1127,-1573.5 1156,-1573.5 1156,-1554.5 1127,-1554.5"/>
<text text-anchor="middle" x="1141.5" y="-1561.5" font-family="Helvetica,sans-Serif" font-size="10.00">int</text>
</a>
</g>
</g>
<!-- Node36&#45;&gt;Node13 -->
<g id="edge44" class="edge">
<title>Node36&#45;&gt;Node13</title>
<path fill="none" stroke="#9a32cd" stroke-dasharray="5,2" d="M1163.49,-1579.6C1210.2,-1612.27 1324.39,-1680.53 1397,-1626 1419.94,-1608.77 1398.9,-1587.75 1415,-1564 1530.71,-1393.36 1685.4,-1461.66 1781,-1279 1797.82,-1246.86 1775.51,-980.65 1799,-953 1805.73,-945.08 1814.96,-940.02 1824.87,-936.87"/>
<polygon fill="#9a32cd" stroke="#9a32cd" points="1165.24,-1576.55 1155.07,-1573.58 1161.17,-1582.25 1165.24,-1576.55"/>
<text text-anchor="middle" x="1498.5" y="-1600" font-family="Helvetica,sans-Serif" font-size="10.00"> sIze</text>
<text text-anchor="middle" x="1498.5" y="-1589" font-family="Helvetica,sans-Serif" font-size="10.00">loopSize</text>
<text text-anchor="middle" x="1498.5" y="-1578" font-family="Helvetica,sans-Serif" font-size="10.00">nInTheLoop</text>
<text text-anchor="middle" x="1498.5" y="-1567" font-family="Helvetica,sans-Serif" font-size="10.00">rAnk</text>
</g>
<!-- Node36&#45;&gt;Node38 -->
<g id="edge56" class="edge">
<title>Node36&#45;&gt;Node38</title>
<path fill="none" stroke="#9a32cd" stroke-dasharray="5,2" d="M1165.63,-1554.8C1186.05,-1546.62 1216.6,-1534.25 1243,-1523 1251.05,-1519.57 1252.62,-1517.53 1261,-1515 1319.69,-1497.3 1346.48,-1526.73 1397,-1492 1456.9,-1450.83 1486.51,-1361.26 1494.92,-1331.69"/>
<polygon fill="#9a32cd" stroke="#9a32cd" points="1164.2,-1551.6 1156.21,-1558.56 1166.8,-1558.1 1164.2,-1551.6"/>
<text text-anchor="middle" x="1329" y="-1584" font-family="Helvetica,sans-Serif" font-size="10.00"> tagNameSize</text>
<text text-anchor="middle" x="1329" y="-1573" font-family="Helvetica,sans-Serif" font-size="10.00">nbDofsRow</text>
<text text-anchor="middle" x="1329" y="-1562" font-family="Helvetica,sans-Serif" font-size="10.00">nbLocDofsCol</text>
<text text-anchor="middle" x="1329" y="-1551" font-family="Helvetica,sans-Serif" font-size="10.00">nbDofsCol</text>
<text text-anchor="middle" x="1329" y="-1540" font-family="Helvetica,sans-Serif" font-size="10.00">nbGhostDofsRow</text>
<text text-anchor="middle" x="1329" y="-1529" font-family="Helvetica,sans-Serif" font-size="10.00">nbGhostDofsCol</text>
<text text-anchor="middle" x="1329" y="-1518" font-family="Helvetica,sans-Serif" font-size="10.00">nbLocDofsRow</text>
</g>
<!-- Node37 -->
<g id="node37" class="node">
<title>Node37</title>
<g id="a_node37"><a xlink:title=" ">
<polygon fill="white" stroke="#bfbfbf" points="1415,-933.5 1415,-952.5 1582,-952.5 1582,-933.5 1415,-933.5"/>
<text text-anchor="middle" x="1498.5" y="-940.5" font-family="Helvetica,sans-Serif" font-size="10.00">function&lt; MoFEMErrorCode()&gt;</text>
</a>
</g>
</g>
<!-- Node37&#45;&gt;Node13 -->
<g id="edge45" class="edge">
<title>Node37&#45;&gt;Node13</title>
<path fill="none" stroke="#9a32cd" stroke-dasharray="5,2" d="M1592.21,-940.84C1664.4,-939.15 1762.51,-936.86 1824.8,-935.41"/>
<polygon fill="#9a32cd" stroke="#9a32cd" points="1592.11,-937.34 1582.2,-941.07 1592.28,-944.33 1592.11,-937.34"/>
<text text-anchor="middle" x="1690.5" y="-966" font-family="Helvetica,sans-Serif" font-size="10.00"> preProcessHook</text>
<text text-anchor="middle" x="1690.5" y="-955" font-family="Helvetica,sans-Serif" font-size="10.00">operatorHook</text>
<text text-anchor="middle" x="1690.5" y="-944" font-family="Helvetica,sans-Serif" font-size="10.00">postProcessHook</text>
</g>
<!-- Node38&#45;&gt;Node13 -->
<g id="edge46" class="edge">
<title>Node38&#45;&gt;Node13</title>
<path fill="none" stroke="#9a32cd" stroke-dasharray="5,2" d="M1528.65,-1307.67C1587.67,-1276.95 1720.8,-1198.62 1781,-1090 1810.77,-1036.29 1757.5,-998.27 1799,-953 1805.92,-945.45 1815.11,-940.55 1824.91,-937.43"/>
<polygon fill="#9a32cd" stroke="#9a32cd" points="1526.81,-1304.68 1519.51,-1312.36 1530,-1310.91 1526.81,-1304.68"/>
<text text-anchor="middle" x="1690.5" y="-1267" font-family="Helvetica,sans-Serif" font-size="10.00"> problemPtr</text>
</g>
<!-- Node39 -->
<g id="node39" class="node">
<title>Node39</title>
<g id="a_node39"><a xlink:title=" ">
<polygon fill="white" stroke="#bfbfbf" points="1058,-1181 1058,-1211 1225,-1211 1225,-1181 1058,-1181"/>
<text text-anchor="start" x="1066" y="-1199" font-family="Helvetica,sans-Serif" font-size="10.00">shared_ptr&lt; NumeredEntFinite</text>
<text text-anchor="middle" x="1141.5" y="-1188" font-family="Helvetica,sans-Serif" font-size="10.00">Element_multiIndex &gt;</text>
</a>
</g>
</g>
<!-- Node39&#45;&gt;Node38 -->
<g id="edge47" class="edge">
<title>Node39&#45;&gt;Node38</title>
<path fill="none" stroke="#9a32cd" stroke-dasharray="5,2" d="M1235.25,-1195.11C1285.22,-1197.84 1346.75,-1206.52 1397,-1230 1439.01,-1249.62 1475.6,-1293.13 1490.45,-1312.44"/>
<polygon fill="#9a32cd" stroke="#9a32cd" points="1235.25,-1191.6 1225.1,-1194.63 1234.92,-1198.6 1235.25,-1191.6"/>
<text text-anchor="middle" x="1329" y="-1233" font-family="Helvetica,sans-Serif" font-size="10.00"> numeredFiniteElementsPtr</text>
</g>
<!-- Node40 -->
<g id="node40" class="node">
<title>Node40</title>
<g id="a_node40"><a xlink:title=" ">
<polygon fill="white" stroke="#bfbfbf" points="1112,-1142.5 1112,-1161.5 1171,-1161.5 1171,-1142.5 1112,-1142.5"/>
<text text-anchor="middle" x="1141.5" y="-1149.5" font-family="Helvetica,sans-Serif" font-size="10.00">BitFEId *</text>
</a>
</g>
</g>
<!-- Node40&#45;&gt;Node38 -->
<g id="edge48" class="edge">
<title>Node40&#45;&gt;Node38</title>
<path fill="none" stroke="#9a32cd" stroke-dasharray="5,2" d="M1181.44,-1147.55C1234.16,-1143.47 1329.39,-1143.12 1397,-1183 1450.35,-1214.47 1483.35,-1286.56 1493.85,-1312.49"/>
<polygon fill="#9a32cd" stroke="#9a32cd" points="1180.84,-1144.09 1171.18,-1148.44 1181.44,-1151.07 1180.84,-1144.09"/>
<text text-anchor="middle" x="1329" y="-1186" font-family="Helvetica,sans-Serif" font-size="10.00"> tagBitFEId</text>
</g>
<!-- Node41 -->
<g id="node41" class="node">
<title>Node41</title>
<g id="a_node41"><a xlink:href="classEntityHandle.html" target="_top" xlink:title=" ">
<polygon fill="white" stroke="black" points="1101.5,-1104.5 1101.5,-1123.5 1181.5,-1123.5 1181.5,-1104.5 1101.5,-1104.5"/>
<text text-anchor="middle" x="1141.5" y="-1111.5" font-family="Helvetica,sans-Serif" font-size="10.00">EntityHandle</text>
</a>
</g>
</g>
<!-- Node41&#45;&gt;Node38 -->
<g id="edge49" class="edge">
<title>Node41&#45;&gt;Node38</title>
<path fill="none" stroke="#9a32cd" stroke-dasharray="5,2" d="M1192.1,-1104.46C1246.88,-1096.74 1335.48,-1092.84 1397,-1133 1463.91,-1176.67 1489.32,-1280.3 1495.74,-1312.37"/>
<polygon fill="#9a32cd" stroke="#9a32cd" points="1191.31,-1101.04 1181.94,-1105.99 1192.35,-1107.96 1191.31,-1101.04"/>
<text text-anchor="middle" x="1329" y="-1136" font-family="Helvetica,sans-Serif" font-size="10.00"> meshset</text>
</g>
<!-- Node42 -->
<g id="node42" class="node">
<title>Node42</title>
<g id="a_node42"><a xlink:title=" ">
<polygon fill="white" stroke="#bfbfbf" points="1067,-1483 1067,-1513 1216,-1513 1216,-1483 1067,-1483"/>
<text text-anchor="start" x="1075" y="-1501" font-family="Helvetica,sans-Serif" font-size="10.00">shared_ptr&lt; MoFEM::</text>
<text text-anchor="middle" x="1141.5" y="-1490" font-family="Helvetica,sans-Serif" font-size="10.00">ComposedProblemsData &gt;</text>
</a>
</g>
</g>
<!-- Node42&#45;&gt;Node38 -->
<g id="edge50" class="edge">
<title>Node42&#45;&gt;Node38</title>
<path fill="none" stroke="#9a32cd" stroke-dasharray="5,2" d="M1226.41,-1485.58C1299.11,-1474.69 1393.26,-1460.27 1397,-1458 1448.96,-1426.49 1482.6,-1357.02 1493.57,-1331.58"/>
<polygon fill="#9a32cd" stroke="#9a32cd" points="1225.67,-1482.15 1216.3,-1487.09 1226.71,-1489.07 1225.67,-1482.15"/>
<text text-anchor="middle" x="1329" y="-1482" font-family="Helvetica,sans-Serif" font-size="10.00"> composedProblemsData</text>
</g>
<!-- Node43 -->
<g id="node43" class="node">
<title>Node43</title>
<g id="a_node43"><a xlink:title=" ">
<polygon fill="white" stroke="#bfbfbf" points="1101,-1444.5 1101,-1463.5 1182,-1463.5 1182,-1444.5 1101,-1444.5"/>
<text text-anchor="middle" x="1141.5" y="-1451.5" font-family="Helvetica,sans-Serif" font-size="10.00">BitRefLevel *</text>
</a>
</g>
</g>
<!-- Node43&#45;&gt;Node38 -->
<g id="edge51" class="edge">
<title>Node43&#45;&gt;Node38</title>
<path fill="none" stroke="#9a32cd" stroke-dasharray="5,2" d="M1192.51,-1446.31C1265.32,-1435.06 1392.4,-1415.21 1397,-1413 1438.37,-1393.13 1475.03,-1350.73 1490.15,-1331.65"/>
<polygon fill="#9a32cd" stroke="#9a32cd" points="1191.53,-1442.92 1182.18,-1447.9 1192.6,-1449.84 1191.53,-1442.92"/>
<text text-anchor="middle" x="1329" y="-1448" font-family="Helvetica,sans-Serif" font-size="10.00"> tagBitRefLevelMask</text>
<text text-anchor="middle" x="1329" y="-1437" font-family="Helvetica,sans-Serif" font-size="10.00">tagBitRefLevel</text>
</g>
<!-- Node44 -->
<g id="node44" class="node">
<title>Node44</title>
<g id="a_node44"><a xlink:title=" ">
<polygon fill="white" stroke="#bfbfbf" points="1056.5,-1395 1056.5,-1425 1226.5,-1425 1226.5,-1395 1056.5,-1395"/>
<text text-anchor="start" x="1064.5" y="-1413" font-family="Helvetica,sans-Serif" font-size="10.00">shared_ptr&lt; NumeredDofEntity</text>
<text text-anchor="middle" x="1141.5" y="-1402" font-family="Helvetica,sans-Serif" font-size="10.00">_multiIndex &gt;</text>
</a>
</g>
</g>
<!-- Node44&#45;&gt;Node38 -->
<g id="edge52" class="edge">
<title>Node44&#45;&gt;Node38</title>
<path fill="none" stroke="#9a32cd" stroke-dasharray="5,2" d="M1236.67,-1394.85C1302.58,-1384.05 1381.5,-1370.66 1397,-1366 1426.73,-1357.06 1459.35,-1341.67 1479.12,-1331.66"/>
<polygon fill="#9a32cd" stroke="#9a32cd" points="1235.94,-1391.42 1226.64,-1396.49 1237.07,-1398.33 1235.94,-1391.42"/>
<text text-anchor="middle" x="1329" y="-1403" font-family="Helvetica,sans-Serif" font-size="10.00"> numeredRowDofsPtr</text>
<text text-anchor="middle" x="1329" y="-1392" font-family="Helvetica,sans-Serif" font-size="10.00">numeredColDofsPtr</text>
</g>
<!-- Node45 -->
<g id="node45" class="node">
<title>Node45</title>
<g id="a_node45"><a xlink:title=" ">
<polygon fill="white" stroke="#bfbfbf" points="1072.5,-1356.5 1072.5,-1375.5 1210.5,-1375.5 1210.5,-1356.5 1072.5,-1356.5"/>
<text text-anchor="middle" x="1141.5" y="-1363.5" font-family="Helvetica,sans-Serif" font-size="10.00">vector&lt; BlockFieldPair &gt;</text>
</a>
</g>
</g>
<!-- Node45&#45;&gt;Node38 -->
<g id="edge54" class="edge">
<title>Node45&#45;&gt;Node38</title>
<path fill="none" stroke="#9a32cd" stroke-dasharray="5,2" d="M1220.57,-1356.32C1290.2,-1347.69 1389.95,-1335.33 1448.8,-1328.04"/>
<polygon fill="#9a32cd" stroke="#9a32cd" points="1220.02,-1352.86 1210.53,-1357.57 1220.88,-1359.81 1220.02,-1352.86"/>
<text text-anchor="middle" x="1329" y="-1354" font-family="Helvetica,sans-Serif" font-size="10.00"> emptyFieldBlocks</text>
</g>
<!-- Node46 -->
<g id="node46" class="node">
<title>Node46</title>
<g id="a_node46"><a xlink:title=" ">
<polygon fill="white" stroke="#bfbfbf" points="1063.5,-1307 1063.5,-1337 1219.5,-1337 1219.5,-1307 1063.5,-1307"/>
<text text-anchor="start" x="1071.5" y="-1325" font-family="Helvetica,sans-Serif" font-size="10.00">shared_ptr&lt; MoFEM::</text>
<text text-anchor="middle" x="1141.5" y="-1314" font-family="Helvetica,sans-Serif" font-size="10.00">Problem::SubProblemData &gt;</text>
</a>
</g>
</g>
<!-- Node46&#45;&gt;Node38 -->
<g id="edge55" class="edge">
<title>Node46&#45;&gt;Node38</title>
<path fill="none" stroke="#9a32cd" stroke-dasharray="5,2" d="M1229.53,-1322C1298.61,-1322 1392.64,-1322 1448.98,-1322"/>
<polygon fill="#9a32cd" stroke="#9a32cd" points="1229.53,-1318.5 1219.53,-1322 1229.53,-1325.5 1229.53,-1318.5"/>
<text text-anchor="middle" x="1329" y="-1325" font-family="Helvetica,sans-Serif" font-size="10.00"> subProblemData</text>
</g>
<!-- Node47 -->
<g id="node47" class="node">
<title>Node47</title>
<g id="a_node47"><a xlink:title=" ">
<polygon fill="white" stroke="#bfbfbf" points="1040,-1268.5 1040,-1287.5 1243,-1287.5 1243,-1268.5 1040,-1268.5"/>
<text text-anchor="middle" x="1141.5" y="-1275.5" font-family="Helvetica,sans-Serif" font-size="10.00">shared_ptr&lt; SequenceDofContainer &gt;</text>
</a>
</g>
</g>
<!-- Node47&#45;&gt;Node38 -->
<g id="edge57" class="edge">
<title>Node47&#45;&gt;Node38</title>
<path fill="none" stroke="#9a32cd" stroke-dasharray="5,2" d="M1253.06,-1281.42C1297.95,-1283.95 1350.16,-1288.35 1397,-1296 1420.66,-1299.86 1446.86,-1306.73 1466.58,-1312.44"/>
<polygon fill="#9a32cd" stroke="#9a32cd" points="1253.19,-1277.92 1243.01,-1280.88 1252.81,-1284.91 1253.19,-1277.92"/>
<text text-anchor="middle" x="1329" y="-1310" font-family="Helvetica,sans-Serif" font-size="10.00"> sequenceRowDofContainer</text>
<text text-anchor="middle" x="1329" y="-1299" font-family="Helvetica,sans-Serif" font-size="10.00">sequenceColDofContainer</text>
</g>
<!-- Node48 -->
<g id="node48" class="node">
<title>Node48</title>
<g id="a_node48"><a xlink:title=" ">
<polygon fill="white" stroke="#bfbfbf" points="1097.5,-1230.5 1097.5,-1249.5 1185.5,-1249.5 1185.5,-1230.5 1097.5,-1230.5"/>
<text text-anchor="middle" x="1141.5" y="-1237.5" font-family="Helvetica,sans-Serif" font-size="10.00">BitProblemId *</text>
</a>
</g>
</g>
<!-- Node48&#45;&gt;Node38 -->
<g id="edge58" class="edge">
<title>Node48&#45;&gt;Node38</title>
<path fill="none" stroke="#9a32cd" stroke-dasharray="5,2" d="M1195.91,-1239.99C1248.26,-1241.34 1329.75,-1247.1 1397,-1268 1430.1,-1278.29 1464.91,-1299.74 1483.62,-1312.29"/>
<polygon fill="#9a32cd" stroke="#9a32cd" points="1195.92,-1236.49 1185.85,-1239.78 1195.77,-1243.49 1195.92,-1236.49"/>
<text text-anchor="middle" x="1329" y="-1271" font-family="Helvetica,sans-Serif" font-size="10.00"> tagId</text>
</g>
<!-- Node49 -->
<g id="node49" class="node">
<title>Node49</title>
<g id="a_node49"><a xlink:title=" ">
<polygon fill="white" stroke="#bfbfbf" points="1805,-1012 1805,-1042 1967,-1042 1967,-1012 1805,-1012"/>
<text text-anchor="start" x="1813" y="-1030" font-family="Helvetica,sans-Serif" font-size="10.00">shared_ptr&lt; const MoFEM</text>
<text text-anchor="middle" x="1886" y="-1019" font-family="Helvetica,sans-Serif" font-size="10.00">::NumeredEntFiniteElement &gt;</text>
</a>
</g>
</g>
<!-- Node49&#45;&gt;Node12 -->
<g id="edge59" class="edge">
<title>Node49&#45;&gt;Node12</title>
<path fill="none" stroke="#9a32cd" stroke-dasharray="5,2" d="M1977.54,-1014.94C2048.18,-1005.54 2143.85,-992.8 2202.4,-985"/>
<polygon fill="#9a32cd" stroke="#9a32cd" points="1976.75,-1011.52 1967.3,-1016.31 1977.68,-1018.46 1976.75,-1011.52"/>
<text text-anchor="middle" x="2063" y="-1016" font-family="Helvetica,sans-Serif" font-size="10.00"> numeredEntFiniteElementPtr</text>
</g>
<!-- Node50 -->
<g id="node50" class="node">
<title>Node50</title>
<g id="a_node50"><a xlink:title=" ">
<polygon fill="white" stroke="#bfbfbf" points="1864,-1322.5 1864,-1341.5 1908,-1341.5 1908,-1322.5 1864,-1322.5"/>
<text text-anchor="middle" x="1886" y="-1329.5" font-family="Helvetica,sans-Serif" font-size="10.00">string</text>
</a>
</g>
</g>
<!-- Node50&#45;&gt;Node3 -->
<g id="edge82" class="edge">
<title>Node50&#45;&gt;Node3</title>
<path fill="none" stroke="#9a32cd" stroke-dasharray="5,2" d="M1918.23,-1335.21C2013.76,-1344.95 2310.51,-1374.54 2557,-1392 2652.79,-1398.79 2762.92,-1404.2 2836.73,-1407.49"/>
<polygon fill="#9a32cd" stroke="#9a32cd" points="1918.4,-1331.71 1908.1,-1334.18 1917.69,-1338.68 1918.4,-1331.71"/>
<text text-anchor="middle" x="2458" y="-1404" font-family="Helvetica,sans-Serif" font-size="10.00"> colFieldName</text>
<text text-anchor="middle" x="2458" y="-1393" font-family="Helvetica,sans-Serif" font-size="10.00">rowFieldName</text>
</g>
<!-- Node50&#45;&gt;Node12 -->
<g id="edge60" class="edge">
<title>Node50&#45;&gt;Node12</title>
<path fill="none" stroke="#9a32cd" stroke-dasharray="5,2" d="M1904.67,-1315C1969.73,-1252.42 2194.75,-1035.96 2245,-987.62"/>
<polygon fill="#9a32cd" stroke="#9a32cd" points="1902.01,-1312.71 1897.23,-1322.16 1906.86,-1317.75 1902.01,-1312.71"/>
<text text-anchor="middle" x="2063" y="-1231" font-family="Helvetica,sans-Serif" font-size="10.00"> feName</text>
</g>
<!-- Node51 -->
<g id="node51" class="node">
<title>Node51</title>
<g id="a_node51"><a xlink:title=" ">
<polygon fill="white" stroke="#bfbfbf" points="1804.5,-963 1804.5,-993 1967.5,-993 1967.5,-963 1804.5,-963"/>
<text text-anchor="start" x="1812.5" y="-981" font-family="Helvetica,sans-Serif" font-size="10.00">function&lt; bool(MoFEM</text>
<text text-anchor="middle" x="1886" y="-970" font-family="Helvetica,sans-Serif" font-size="10.00">::FEMethod *fe_method_ptr)&gt;</text>
</a>
</g>
</g>
<!-- Node51&#45;&gt;Node12 -->
<g id="edge61" class="edge">
<title>Node51&#45;&gt;Node12</title>
<path fill="none" stroke="#9a32cd" stroke-dasharray="5,2" d="M1977.98,-978C2048.52,-978 2143.82,-978 2202.26,-978"/>
<polygon fill="#9a32cd" stroke="#9a32cd" points="1977.76,-974.5 1967.76,-978 1977.76,-981.5 1977.76,-974.5"/>
<text text-anchor="middle" x="2063" y="-981" font-family="Helvetica,sans-Serif" font-size="10.00"> exeTestHook</text>
</g>
<!-- Node52 -->
<g id="node52" class="node">
<title>Node52</title>
<g id="a_node52"><a xlink:href="classdouble.html" target="_top" xlink:title=" ">
<polygon fill="white" stroke="black" points="2231,-348.5 2231,-367.5 2281,-367.5 2281,-348.5 2231,-348.5"/>
<text text-anchor="middle" x="2256" y="-355.5" font-family="Helvetica,sans-Serif" font-size="10.00">double</text>
</a>
</g>
</g>
<!-- Node52&#45;&gt;Node1 -->
<g id="edge83" class="edge">
<title>Node52&#45;&gt;Node1</title>
<path fill="none" stroke="#9a32cd" stroke-dasharray="5,2" d="M2291.28,-358C2358.4,-358 2511.91,-358 2641,-358 2641,-358 2641,-358 3209.5,-358 3294.43,-358 3375.95,-279.94 3402.5,-251.89"/>
<polygon fill="#9a32cd" stroke="#9a32cd" points="2291.26,-354.5 2281.26,-358 2291.26,-361.5 2291.26,-354.5"/>
<text text-anchor="middle" x="2922" y="-361" font-family="Helvetica,sans-Serif" font-size="10.00"> epsU</text>
</g>
<!-- Node52&#45;&gt;Node11 -->
<g id="edge62" class="edge">
<title>Node52&#45;&gt;Node11</title>
<path fill="none" stroke="#9a32cd" stroke-dasharray="5,2" d="M2291.1,-363.62C2357.83,-375.22 2502.36,-403.58 2539,-437 2619.84,-510.74 2637.09,-655.53 2640.32,-694.27"/>
<polygon fill="#9a32cd" stroke="#9a32cd" points="2291.53,-360.14 2281.09,-361.9 2290.35,-367.04 2291.53,-360.14"/>
<text text-anchor="middle" x="2458" y="-440" font-family="Helvetica,sans-Serif" font-size="10.00"> elementMeasure</text>
</g>
<!-- Node52&#45;&gt;Node70 -->
<g id="edge86" class="edge">
<title>Node52&#45;&gt;Node70</title>
<path fill="none" stroke="#9a32cd" stroke-dasharray="5,2" d="M2291.28,-350.25C2315.22,-344.98 2347.97,-338.08 2377,-333 2448.63,-320.47 2471.06,-335.93 2539,-310 2575.79,-295.96 2612.67,-266.7 2630.3,-251.55"/>
<polygon fill="#9a32cd" stroke="#9a32cd" points="2290.28,-346.88 2281.27,-352.46 2291.79,-353.72 2290.28,-346.88"/>
<text text-anchor="middle" x="2458" y="-336" font-family="Helvetica,sans-Serif" font-size="10.00"> lAmbda</text>
</g>
<!-- Node53 -->
<g id="node53" class="node">
<title>Node53</title>
<g id="a_node53"><a xlink:title=" ">
<polygon fill="white" stroke="#bfbfbf" points="2170,-700.5 2170,-741.5 2342,-741.5 2342,-700.5 2170,-700.5"/>
<text text-anchor="start" x="2178" y="-729.5" font-family="Helvetica,sans-Serif" font-size="10.00">array&lt; boost::shared</text>
<text text-anchor="start" x="2178" y="-718.5" font-family="Helvetica,sans-Serif" font-size="10.00">_ptr&lt; MoFEM::EntitiesFieldData</text>
<text text-anchor="middle" x="2256" y="-707.5" font-family="Helvetica,sans-Serif" font-size="10.00"> &gt;, LASTSPACE &gt;</text>
</a>
</g>
</g>
<!-- Node53&#45;&gt;Node11 -->
<g id="edge63" class="edge">
<title>Node53&#45;&gt;Node11</title>
<path fill="none" stroke="#9a32cd" stroke-dasharray="5,2" d="M2352.51,-716.77C2415.19,-714 2496.4,-710.4 2556.68,-707.73"/>
<polygon fill="#9a32cd" stroke="#9a32cd" points="2352.06,-713.29 2342.22,-717.23 2352.37,-720.28 2352.06,-713.29"/>
<text text-anchor="middle" x="2458" y="-730" font-family="Helvetica,sans-Serif" font-size="10.00"> derivedDataOnElement</text>
<text text-anchor="middle" x="2458" y="-719" font-family="Helvetica,sans-Serif" font-size="10.00">dataOnElement</text>
</g>
<!-- Node54 -->
<g id="node54" class="node">
<title>Node54</title>
<g id="a_node54"><a xlink:title=" ">
<polygon fill="white" stroke="#bfbfbf" points="2222,-662.5 2222,-681.5 2290,-681.5 2290,-662.5 2222,-662.5"/>
<text text-anchor="middle" x="2256" y="-669.5" font-family="Helvetica,sans-Serif" font-size="10.00">EntityType</text>
</a>
</g>
</g>
<!-- Node54&#45;&gt;Node11 -->
<g id="edge64" class="edge">
<title>Node54&#45;&gt;Node11</title>
<path fill="none" stroke="#9a32cd" stroke-dasharray="5,2" d="M2300.16,-675.1C2355.5,-679.14 2454.44,-686.56 2539,-694 2544.85,-694.51 2550.89,-695.06 2556.96,-695.63"/>
<polygon fill="#9a32cd" stroke="#9a32cd" points="2300.24,-671.6 2290.01,-674.36 2299.73,-678.58 2300.24,-671.6"/>
<text text-anchor="middle" x="2458" y="-697" font-family="Helvetica,sans-Serif" font-size="10.00"> lastEvaluatedElementEntityType</text>
</g>
<!-- Node55 -->
<g id="node55" class="node">
<title>Node55</title>
<g id="a_node55"><a xlink:href="structMoFEM_1_1DeprecatedCoreInterface.html" target="_top" xlink:title="Deprecated interface functions.">
<polygon fill="white" stroke="black" points="1600,-418.5 1600,-437.5 1781,-437.5 1781,-418.5 1600,-418.5"/>
<text text-anchor="middle" x="1690.5" y="-425.5" font-family="Helvetica,sans-Serif" font-size="10.00">MoFEM::DeprecatedCoreInterface</text>
</a>
</g>
</g>
<!-- Node55&#45;&gt;Node11 -->
<g id="edge65" class="edge">
<title>Node55&#45;&gt;Node11</title>
<path fill="none" stroke="#9a32cd" stroke-dasharray="5,2" d="M1791.14,-425.48C1988.25,-422.34 2419.28,-425.24 2539,-506 2608.24,-552.71 2633.25,-661.56 2639.38,-694.43"/>
<polygon fill="#9a32cd" stroke="#9a32cd" points="1791.01,-421.98 1781.07,-425.64 1791.13,-428.98 1791.01,-421.98"/>
<text text-anchor="middle" x="2063" y="-434" font-family="Helvetica,sans-Serif" font-size="10.00"> mField</text>
</g>
<!-- Node56&#45;&gt;Node55 -->
<g id="edge66" class="edge">
<title>Node56&#45;&gt;Node55</title>
<path fill="none" stroke="midnightblue" d="M1214.09,-344.57C1265.21,-350.32 1335.51,-358.95 1397,-369 1486.47,-383.63 1590.3,-405.83 1647.05,-418.41"/>
<polygon fill="midnightblue" stroke="midnightblue" points="1214.46,-341.09 1204.14,-343.46 1213.69,-348.05 1214.46,-341.09"/>
</g>
<!-- Node57 -->
<g id="node57" class="node">
<title>Node57</title>
<g id="a_node57"><a xlink:title=" ">
<polygon fill="white" stroke="#bfbfbf" points="2172.5,-549 2172.5,-601 2339.5,-601 2339.5,-549 2172.5,-549"/>
<text text-anchor="start" x="2180.5" y="-589" font-family="Helvetica,sans-Serif" font-size="10.00">function&lt; MoFEMErrorCode</text>
<text text-anchor="start" x="2180.5" y="-578" font-family="Helvetica,sans-Serif" font-size="10.00">(ForcesAndSourcesCore *fe</text>
<text text-anchor="start" x="2180.5" y="-567" font-family="Helvetica,sans-Serif" font-size="10.00">_raw_ptr, int order_row,</text>
<text text-anchor="middle" x="2256" y="-556" font-family="Helvetica,sans-Serif" font-size="10.00"> int order_col, int order_data)&gt;</text>
</a>
</g>
</g>
<!-- Node57&#45;&gt;Node11 -->
<g id="edge69" class="edge">
<title>Node57&#45;&gt;Node11</title>
<path fill="none" stroke="#9a32cd" stroke-dasharray="5,2" d="M2349.71,-567.4C2406.87,-566.46 2480.21,-572.2 2539,-600 2584.72,-621.62 2621.26,-672.94 2635.06,-694.35"/>
<polygon fill="#9a32cd" stroke="#9a32cd" points="2349.52,-563.9 2339.6,-567.64 2349.68,-570.9 2349.52,-563.9"/>
<text text-anchor="middle" x="2458" y="-603" font-family="Helvetica,sans-Serif" font-size="10.00"> setRuleHook</text>
</g>
<!-- Node58 -->
<g id="node58" class="node">
<title>Node58</title>
<g id="a_node58"><a xlink:title=" ">
<polygon fill="white" stroke="#bfbfbf" points="2155,-500 2155,-530 2357,-530 2357,-500 2155,-500"/>
<text text-anchor="start" x="2163" y="-518" font-family="Helvetica,sans-Serif" font-size="10.00">ptr_deque&lt; MoFEM::Forces</text>
<text text-anchor="middle" x="2256" y="-507" font-family="Helvetica,sans-Serif" font-size="10.00">AndSourcesCore::UserDataOperator &gt;</text>
</a>
</g>
</g>
<!-- Node58&#45;&gt;Node11 -->
<g id="edge70" class="edge">
<title>Node58&#45;&gt;Node11</title>
<path fill="none" stroke="#9a32cd" stroke-dasharray="5,2" d="M2367.22,-509.27C2422.46,-511.28 2488.22,-521.49 2539,-553 2595.18,-587.86 2627.61,-666.44 2637.63,-694.12"/>
<polygon fill="#9a32cd" stroke="#9a32cd" points="2367.13,-505.76 2357.03,-508.98 2366.93,-512.76 2367.13,-505.76"/>
<text text-anchor="middle" x="2458" y="-556" font-family="Helvetica,sans-Serif" font-size="10.00"> opPtrVector</text>
</g>
<!-- Node59 -->
<g id="node59" class="node">
<title>Node59</title>
<g id="a_node59"><a xlink:href="structMoFEM_1_1EntitiesFieldData.html" target="_top" xlink:title="data structure for finite element entity">
<polygon fill="white" stroke="black" points="2185,-620.5 2185,-639.5 2327,-639.5 2327,-620.5 2185,-620.5"/>
<text text-anchor="middle" x="2256" y="-627.5" font-family="Helvetica,sans-Serif" font-size="10.00">MoFEM::EntitiesFieldData</text>
</a>
</g>
</g>
<!-- Node59&#45;&gt;Node11 -->
<g id="edge71" class="edge">
<title>Node59&#45;&gt;Node11</title>
<path fill="none" stroke="#9a32cd" stroke-dasharray="5,2" d="M2337.17,-621.37C2407.22,-614.99 2503.17,-609.38 2539,-622 2580.58,-636.64 2617.72,-676.18 2633.27,-694.48"/>
<polygon fill="#9a32cd" stroke="#9a32cd" points="2336.66,-617.91 2327.03,-622.32 2337.31,-624.88 2336.66,-617.91"/>
<text text-anchor="middle" x="2458" y="-669" font-family="Helvetica,sans-Serif" font-size="10.00"> dataNoField</text>
<text text-anchor="middle" x="2458" y="-658" font-family="Helvetica,sans-Serif" font-size="10.00">dataL2</text>
<text text-anchor="middle" x="2458" y="-647" font-family="Helvetica,sans-Serif" font-size="10.00">dataH1</text>
<text text-anchor="middle" x="2458" y="-636" font-family="Helvetica,sans-Serif" font-size="10.00">dataHcurl</text>
<text text-anchor="middle" x="2458" y="-625" font-family="Helvetica,sans-Serif" font-size="10.00">dataHdiv</text>
</g>
<!-- Node60 -->
<g id="node60" class="node">
<title>Node60</title>
<g id="a_node60"><a xlink:title=" ">
<polygon fill="white" stroke="#bfbfbf" points="1805,-551 1805,-581 1967,-581 1967,-551 1805,-551"/>
<text text-anchor="start" x="1813" y="-569" font-family="Helvetica,sans-Serif" font-size="10.00">array&lt; std::bitset</text>
<text text-anchor="middle" x="1886" y="-558" font-family="Helvetica,sans-Serif" font-size="10.00">&lt; LASTBASE &gt;, LASTSPACE &gt;</text>
</a>
</g>
</g>
<!-- Node60&#45;&gt;Node59 -->
<g id="edge72" class="edge">
<title>Node60&#45;&gt;Node59</title>
<path fill="none" stroke="#9a32cd" stroke-dasharray="5,2" d="M1977.52,-558.4C2026.64,-558.09 2086.95,-564.15 2135,-589 2145.92,-594.65 2142.38,-603.81 2153,-610 2162.74,-615.68 2173.81,-619.78 2184.97,-622.73"/>
<polygon fill="#9a32cd" stroke="#9a32cd" points="1977.17,-554.9 1967.22,-558.56 1977.27,-561.9 1977.17,-554.9"/>
<text text-anchor="middle" x="2063" y="-603" font-family="Helvetica,sans-Serif" font-size="10.00"> brokenBasesOnSpaces</text>
<text text-anchor="middle" x="2063" y="-592" font-family="Helvetica,sans-Serif" font-size="10.00">basesOnSpaces</text>
</g>
<!-- Node61 -->
<g id="node61" class="node">
<title>Node61</title>
<g id="a_node61"><a xlink:title=" ">
<polygon fill="white" stroke="#bfbfbf" points="1809.5,-688.5 1809.5,-729.5 1962.5,-729.5 1962.5,-688.5 1809.5,-688.5"/>
<text text-anchor="start" x="1817.5" y="-717.5" font-family="Helvetica,sans-Serif" font-size="10.00">array&lt; boost::ptr_vector</text>
<text text-anchor="start" x="1817.5" y="-706.5" font-family="Helvetica,sans-Serif" font-size="10.00">&lt; MoFEM::EntitiesFieldData</text>
<text text-anchor="middle" x="1886" y="-695.5" font-family="Helvetica,sans-Serif" font-size="10.00">::EntData &gt;, MBMAXTYPE &gt;</text>
</a>
</g>
</g>
<!-- Node61&#45;&gt;Node59 -->
<g id="edge73" class="edge">
<title>Node61&#45;&gt;Node59</title>
<path fill="none" stroke="#9a32cd" stroke-dasharray="5,2" d="M1972.86,-698.69C2021.3,-691.41 2082.47,-679.73 2135,-662 2143.47,-659.14 2144.58,-656.01 2153,-653 2168.39,-647.51 2185.56,-643.04 2201.37,-639.55"/>
<polygon fill="#9a32cd" stroke="#9a32cd" points="1972.1,-695.27 1962.72,-700.18 1973.12,-702.19 1972.1,-695.27"/>
<text text-anchor="middle" x="2063" y="-699" font-family="Helvetica,sans-Serif" font-size="10.00"> dataOnEntities</text>
</g>
<!-- Node62 -->
<g id="node62" class="node">
<title>Node62</title>
<g id="a_node62"><a xlink:title=" ">
<polygon fill="white" stroke="#bfbfbf" points="1799,-639 1799,-669 1973,-669 1973,-639 1799,-639"/>
<text text-anchor="start" x="1807" y="-657" font-family="Helvetica,sans-Serif" font-size="10.00">array&lt; std::bitset</text>
<text text-anchor="middle" x="1886" y="-646" font-family="Helvetica,sans-Serif" font-size="10.00">&lt; LASTSPACE &gt;, MBMAXTYPE &gt;</text>
</a>
</g>
</g>
<!-- Node62&#45;&gt;Node59 -->
<g id="edge74" class="edge">
<title>Node62&#45;&gt;Node59</title>
<path fill="none" stroke="#9a32cd" stroke-dasharray="5,2" d="M1983.27,-647.72C2046.52,-643.6 2127.84,-638.29 2184.97,-634.57"/>
<polygon fill="#9a32cd" stroke="#9a32cd" points="1983.03,-644.23 1973.28,-648.37 1983.49,-651.21 1983.03,-644.23"/>
<text text-anchor="middle" x="2063" y="-650" font-family="Helvetica,sans-Serif" font-size="10.00"> spacesOnEntities</text>
</g>
<!-- Node63 -->
<g id="node63" class="node">
<title>Node63</title>
<g id="a_node63"><a xlink:title=" ">
<polygon fill="white" stroke="#bfbfbf" points="1801.5,-502 1801.5,-532 1970.5,-532 1970.5,-502 1801.5,-502"/>
<text text-anchor="start" x="1809.5" y="-520" font-family="Helvetica,sans-Serif" font-size="10.00">array&lt; std::bitset</text>
<text text-anchor="middle" x="1886" y="-509" font-family="Helvetica,sans-Serif" font-size="10.00">&lt; LASTBASE &gt;, MBMAXTYPE &gt;</text>
</a>
</g>
</g>
<!-- Node63&#45;&gt;Node59 -->
<g id="edge75" class="edge">
<title>Node63&#45;&gt;Node59</title>
<path fill="none" stroke="#9a32cd" stroke-dasharray="5,2" d="M1980.83,-503.45C2032,-501.39 2093.23,-508.35 2135,-544 2158.13,-563.74 2130.73,-589.3 2153,-610 2161.85,-618.23 2173.06,-623.53 2184.78,-626.86"/>
<polygon fill="#9a32cd" stroke="#9a32cd" points="1980.54,-499.96 1970.74,-503.97 1980.91,-506.95 1980.54,-499.96"/>
<text text-anchor="middle" x="2063" y="-547" font-family="Helvetica,sans-Serif" font-size="10.00"> basesOnEntities</text>
</g>
<!-- Node64 -->
<g id="node64" class="node">
<title>Node64</title>
<g id="a_node64"><a xlink:title=" ">
<polygon fill="white" stroke="#bfbfbf" points="1830,-748.5 1830,-767.5 1942,-767.5 1942,-748.5 1830,-748.5"/>
<text text-anchor="middle" x="1886" y="-755.5" font-family="Helvetica,sans-Serif" font-size="10.00">UBlasMatrix&lt; int &gt;</text>
</a>
</g>
</g>
<!-- Node64&#45;&gt;Node59 -->
<g id="edge76" class="edge">
<title>Node64&#45;&gt;Node59</title>
<path fill="none" stroke="#9a32cd" stroke-dasharray="5,2" d="M1952.14,-762.99C2007.39,-763.58 2085.37,-755.29 2135,-711 2155.14,-693.03 2133.17,-671.32 2153,-653 2161.93,-644.75 2173.18,-639.24 2184.91,-635.6"/>
<polygon fill="#9a32cd" stroke="#9a32cd" points="1952.17,-759.49 1942.1,-762.79 1952.03,-766.49 1952.17,-759.49"/>
<text text-anchor="middle" x="2063" y="-776" font-family="Helvetica,sans-Serif" font-size="10.00"> facesNodesOrder</text>
<text text-anchor="middle" x="2063" y="-765" font-family="Helvetica,sans-Serif" font-size="10.00">facesNodes</text>
</g>
<!-- Node65 -->
<g id="node65" class="node">
<title>Node65</title>
<g id="a_node65"><a xlink:title=" ">
<polygon fill="white" stroke="#bfbfbf" points="1827.5,-600.5 1827.5,-619.5 1944.5,-619.5 1944.5,-600.5 1827.5,-600.5"/>
<text text-anchor="middle" x="1886" y="-607.5" font-family="Helvetica,sans-Serif" font-size="10.00">bitset&lt; LASTBASE &gt;</text>
</a>
</g>
</g>
<!-- Node65&#45;&gt;Node59 -->
<g id="edge77" class="edge">
<title>Node65&#45;&gt;Node59</title>
<path fill="none" stroke="#9a32cd" stroke-dasharray="5,2" d="M1954.67,-612.44C2004.55,-614.38 2074.02,-617.36 2135,-621 2151.16,-621.96 2168.54,-623.17 2184.91,-624.38"/>
<polygon fill="#9a32cd" stroke="#9a32cd" points="1954.78,-608.95 1944.65,-612.06 1954.51,-615.94 1954.78,-608.95"/>
<text text-anchor="middle" x="2063" y="-624" font-family="Helvetica,sans-Serif" font-size="10.00"> bAse</text>
</g>
<!-- Node66 -->
<g id="node66" class="node">
<title>Node66</title>
<g id="a_node66"><a xlink:title=" ">
<polygon fill="white" stroke="#bfbfbf" points="2193.5,-848.5 2193.5,-889.5 2318.5,-889.5 2318.5,-848.5 2193.5,-848.5"/>
<text text-anchor="start" x="2201.5" y="-877.5" font-family="Helvetica,sans-Serif" font-size="10.00">function&lt; int(int order</text>
<text text-anchor="start" x="2201.5" y="-866.5" font-family="Helvetica,sans-Serif" font-size="10.00">_row, int order_col, int</text>
<text text-anchor="middle" x="2256" y="-855.5" font-family="Helvetica,sans-Serif" font-size="10.00"> order_data)&gt;</text>
</a>
</g>
</g>
<!-- Node66&#45;&gt;Node11 -->
<g id="edge78" class="edge">
<title>Node66&#45;&gt;Node11</title>
<path fill="none" stroke="#9a32cd" stroke-dasharray="5,2" d="M2328.66,-879.42C2388.73,-884.58 2474.75,-883.32 2539,-847 2594.48,-815.63 2627.36,-740.17 2637.56,-713.52"/>
<polygon fill="#9a32cd" stroke="#9a32cd" points="2328.79,-875.92 2318.5,-878.47 2328.13,-882.89 2328.79,-875.92"/>
<text text-anchor="middle" x="2458" y="-885" font-family="Helvetica,sans-Serif" font-size="10.00"> getRuleHook</text>
</g>
<!-- Node67 -->
<g id="node67" class="node">
<title>Node67</title>
<g id="a_node67"><a xlink:title=" ">
<polygon fill="white" stroke="#bfbfbf" points="2195,-799 2195,-829 2317,-829 2317,-799 2195,-799"/>
<text text-anchor="start" x="2203" y="-817" font-family="Helvetica,sans-Serif" font-size="10.00">shared_ptr&lt; MoFEM::</text>
<text text-anchor="middle" x="2256" y="-806" font-family="Helvetica,sans-Serif" font-size="10.00">BaseFunction &gt;</text>
</a>
</g>
</g>
<!-- Node67&#45;&gt;Node11 -->
<g id="edge79" class="edge">
<title>Node67&#45;&gt;Node11</title>
<path fill="none" stroke="#9a32cd" stroke-dasharray="5,2" d="M2327.57,-820C2386.38,-822.29 2471.17,-819.18 2539,-791 2580.7,-773.68 2617.77,-732.65 2633.29,-713.79"/>
<polygon fill="#9a32cd" stroke="#9a32cd" points="2327.42,-816.49 2317.27,-819.53 2327.1,-823.48 2327.42,-816.49"/>
<text text-anchor="middle" x="2458" y="-835" font-family="Helvetica,sans-Serif" font-size="10.00"> userPolynomialBasePtr</text>
<text text-anchor="middle" x="2458" y="-824" font-family="Helvetica,sans-Serif" font-size="10.00">elementPolynomialBasePtr</text>
</g>
<!-- Node68 -->
<g id="node68" class="node">
<title>Node68</title>
<g id="a_node68"><a xlink:href="classUBlasMatrix_3_01double_01_4.html" target="_top" xlink:title=" ">
<polygon fill="white" stroke="black" points="2190,-760.5 2190,-779.5 2322,-779.5 2322,-760.5 2190,-760.5"/>
<text text-anchor="middle" x="2256" y="-767.5" font-family="Helvetica,sans-Serif" font-size="10.00">UBlasMatrix&lt; double &gt;</text>
</a>
</g>
</g>
<!-- Node68&#45;&gt;Node11 -->
<g id="edge80" class="edge">
<title>Node68&#45;&gt;Node11</title>
<path fill="none" stroke="#9a32cd" stroke-dasharray="5,2" d="M2332.23,-767.79C2389.54,-764.85 2470.05,-757.98 2539,-742 2567.9,-735.3 2599.72,-722.53 2620,-713.65"/>
<polygon fill="#9a32cd" stroke="#9a32cd" points="2331.99,-764.3 2322.17,-768.28 2332.33,-771.29 2331.99,-764.3"/>
<text text-anchor="middle" x="2458" y="-779" font-family="Helvetica,sans-Serif" font-size="10.00"> coordsAtGaussPts</text>
<text text-anchor="middle" x="2458" y="-768" font-family="Helvetica,sans-Serif" font-size="10.00">gaussPts</text>
</g>
<!-- Node69 -->
<g id="node69" class="node">
<title>Node69</title>
<g id="a_node69"><a xlink:title=" ">
<polygon fill="white" stroke="#bfbfbf" points="2576.5,-1363.5 2576.5,-1382.5 2707.5,-1382.5 2707.5,-1363.5 2576.5,-1363.5"/>
<text text-anchor="middle" x="2642" y="-1370.5" font-family="Helvetica,sans-Serif" font-size="10.00">static const char *const</text>
</a>
</g>
</g>
<!-- Node69&#45;&gt;Node3 -->
<g id="edge81" class="edge">
<title>Node69&#45;&gt;Node3</title>
<path fill="none" stroke="#9a32cd" stroke-dasharray="5,2" d="M2717.66,-1375.76C2749.09,-1377.63 2785.96,-1380.77 2819,-1386 2834.67,-1388.48 2851.47,-1392.16 2866.82,-1395.94"/>
<polygon fill="#9a32cd" stroke="#9a32cd" points="2717.84,-1372.27 2707.66,-1375.2 2717.45,-1379.25 2717.84,-1372.27"/>
<text text-anchor="middle" x="2782" y="-1389" font-family="Helvetica,sans-Serif" font-size="10.00"> OpTypeNames</text>
</g>
<!-- Node70&#45;&gt;Node1 -->
<g id="edge84" class="edge">
<title>Node70&#45;&gt;Node1</title>
<path fill="none" stroke="#9a32cd" stroke-dasharray="5,2" d="M2735.63,-242C2891.19,-242 3201.55,-242 3340.9,-242"/>
<polygon fill="#9a32cd" stroke="#9a32cd" points="2735.61,-238.5 2725.61,-242 2735.61,-245.5 2735.61,-238.5"/>
<text text-anchor="middle" x="3060" y="-245" font-family="Helvetica,sans-Serif" font-size="10.00"> commonData</text>
</g>
<!-- Node71 -->
<g id="node71" class="node">
<title>Node71</title>
<g id="a_node71"><a xlink:title=" ">
<polygon fill="white" stroke="#bfbfbf" points="2214.5,-136.5 2214.5,-155.5 2297.5,-155.5 2297.5,-136.5 2214.5,-136.5"/>
<text text-anchor="middle" x="2256" y="-143.5" font-family="Helvetica,sans-Serif" font-size="10.00">MatrixDouble</text>
</a>
</g>
</g>
<!-- Node71&#45;&gt;Node70 -->
<g id="edge85" class="edge">
<title>Node71&#45;&gt;Node70</title>
<path fill="none" stroke="#9a32cd" stroke-dasharray="5,2" d="M2307.82,-139.66C2365.79,-134.45 2462.45,-132 2539,-161 2579.6,-176.38 2616.68,-214.25 2632.68,-232.23"/>
<polygon fill="#9a32cd" stroke="#9a32cd" points="2307.43,-136.18 2297.81,-140.62 2308.1,-143.15 2307.43,-136.18"/>
<text text-anchor="middle" x="2458" y="-208" font-family="Helvetica,sans-Serif" font-size="10.00"> gradForceAtGaussPtrs</text>
<text text-anchor="middle" x="2458" y="-197" font-family="Helvetica,sans-Serif" font-size="10.00">locA</text>
<text text-anchor="middle" x="2458" y="-186" font-family="Helvetica,sans-Serif" font-size="10.00">transLocA</text>
<text text-anchor="middle" x="2458" y="-175" font-family="Helvetica,sans-Serif" font-size="10.00">invJac</text>
<text text-anchor="middle" x="2458" y="-164" font-family="Helvetica,sans-Serif" font-size="10.00">forceAtGaussPts</text>
</g>
<!-- Node72 -->
<g id="node72" class="node">
<title>Node72</title>
<g id="a_node72"><a xlink:title=" ">
<polygon fill="white" stroke="#bfbfbf" points="2178,-213.5 2178,-232.5 2334,-232.5 2334,-213.5 2178,-213.5"/>
<text text-anchor="middle" x="2256" y="-220.5" font-family="Helvetica,sans-Serif" font-size="10.00">shared_ptr&lt; VectorDouble &gt;</text>
</a>
</g>
</g>
<!-- Node72&#45;&gt;Node70 -->
<g id="edge87" class="edge">
<title>Node72&#45;&gt;Node70</title>
<path fill="none" stroke="#9a32cd" stroke-dasharray="5,2" d="M2344.26,-220.07C2400.05,-219.08 2473.91,-219.38 2539,-225 2556.89,-226.54 2576.36,-229.48 2593.46,-232.48"/>
<polygon fill="#9a32cd" stroke="#9a32cd" points="2343.98,-216.58 2334.05,-220.27 2344.12,-223.58 2343.98,-216.58"/>
<text text-anchor="middle" x="2458" y="-239" font-family="Helvetica,sans-Serif" font-size="10.00"> dispX</text>
<text text-anchor="middle" x="2458" y="-228" font-family="Helvetica,sans-Serif" font-size="10.00">dispY</text>
</g>
<!-- Node73 -->
<g id="node73" class="node">
<title>Node73</title>
<g id="a_node73"><a xlink:title=" ">
<polygon fill="white" stroke="#bfbfbf" points="2215,-53.5 2215,-72.5 2297,-72.5 2297,-53.5 2215,-53.5"/>
<text text-anchor="middle" x="2256" y="-60.5" font-family="Helvetica,sans-Serif" font-size="10.00">VectorDouble</text>
</a>
</g>
</g>
<!-- Node73&#45;&gt;Node1 -->
<g id="edge91" class="edge">
<title>Node73&#45;&gt;Node1</title>
<path fill="none" stroke="#9a32cd" stroke-dasharray="5,2" d="M2307.38,-59.35C2380.74,-54.35 2521.27,-46 2641,-46 2641,-46 2641,-46 3209.5,-46 3317.74,-46 3389.9,-192.73 3407.38,-232.28"/>
<polygon fill="#9a32cd" stroke="#9a32cd" points="2306.79,-55.88 2297.05,-60.06 2307.27,-62.86 2306.79,-55.88"/>
<text text-anchor="middle" x="2922" y="-49" font-family="Helvetica,sans-Serif" font-size="10.00"> nF</text>
</g>
<!-- Node73&#45;&gt;Node70 -->
<g id="edge89" class="edge">
<title>Node73&#45;&gt;Node70</title>
<path fill="none" stroke="#9a32cd" stroke-dasharray="5,2" d="M2307.58,-62.53C2377.98,-62.73 2501.14,-66.44 2539,-89 2596.59,-123.32 2628.33,-204.29 2637.88,-232.28"/>
<polygon fill="#9a32cd" stroke="#9a32cd" points="2307.18,-59.03 2297.17,-62.52 2307.17,-66.03 2307.18,-59.03"/>
<text text-anchor="middle" x="2458" y="-125" font-family="Helvetica,sans-Serif" font-size="10.00"> locF</text>
<text text-anchor="start" x="2403.5" y="-114" font-family="Helvetica,sans-Serif" font-size="10.00">forcePotentialAtGauss</text>
<text text-anchor="middle" x="2458" y="-103" font-family="Helvetica,sans-Serif" font-size="10.00">Points</text>
<text text-anchor="middle" x="2458" y="-92" font-family="Helvetica,sans-Serif" font-size="10.00">dispAtGaussPts</text>
</g>
</g>
</svg>
        <g id="navigator" transform="translate(0 0)" fill="#404254">
                <rect fill="#f2f5e9" fill-opacity="0.5" stroke="#606060" stroke-width=".5" x="0" y="0" width="60" height="60"/>
                <use id="zoomplus" xlink:href="#zoomPlus" x="17" y="9" onmousedown="handleZoom(evt,'in')"/>
                <use id="zoomminus" xlink:href="#zoomMin" x="42" y="9" onmousedown="handleZoom(evt,'out')"/>
                <use id="reset" xlink:href="#resetDef" x="30" y="36" onmousedown="handleReset()"/>
                <g id="arrowUp" xlink:href="#dirArrow" transform="translate(30 24)" onmousedown="handlePan(0,-1)">
                  <use xlink:href="#rim" fill="#404040">
                        <set attributeName="fill" to="#808080" begin="arrowUp.mouseover" end="arrowUp.mouseout"/>
                  </use>
                  <path fill="none" stroke="white" stroke-width="1.5" d="M0,-3.0v7 M-2.5,-0.5L0,-3.0L2.5,-0.5"/>
                </g>
                <g id="arrowRight" xlink:href="#dirArrow" transform="rotate(90) translate(36 -43)" onmousedown="handlePan(1,0)">
                  <use xlink:href="#rim" fill="#404040">
                        <set attributeName="fill" to="#808080" begin="arrowRight.mouseover" end="arrowRight.mouseout"/>
                  </use>
                  <path fill="none" stroke="white" stroke-width="1.5" d="M0,-3.0v7 M-2.5,-0.5L0,-3.0L2.5,-0.5"/>
                </g>
                <g id="arrowDown" xlink:href="#dirArrow" transform="rotate(180) translate(-30 -48)" onmousedown="handlePan(0,1)">
                  <use xlink:href="#rim" fill="#404040">
                        <set attributeName="fill" to="#808080" begin="arrowDown.mouseover" end="arrowDown.mouseout"/>
                  </use>
                  <path fill="none" stroke="white" stroke-width="1.5" d="M0,-3.0v7 M-2.5,-0.5L0,-3.0L2.5,-0.5"/>
                </g>
                <g id="arrowLeft" xlink:href="#dirArrow" transform="rotate(270) translate(-36 17)" onmousedown="handlePan(-1,0)">
                  <use xlink:href="#rim" fill="#404040">
                        <set attributeName="fill" to="#808080" begin="arrowLeft.mouseover" end="arrowLeft.mouseout"/>
                  </use>
                  <path fill="none" stroke="white" stroke-width="1.5" d="M0,-3.0v7 M-2.5,-0.5L0,-3.0L2.5,-0.5"/>
                </g>
        </g>
        <svg viewBox="0 0 15 15" width="100%" height="30px" preserveAspectRatio="xMaxYMin meet">
         <g id="arrow_out" transform="scale(0.3 0.3)">
          <a xlink:href="structCellEngineering_1_1OpCell__g__coll__graph_org.svg" target="_base">
           <rect id="button" ry="5" rx="5" y="6" x="6" height="38" width="38"
                fill="#f2f5e9" fill-opacity="0.5" stroke="#606060" stroke-width="1.0"/>
           <path id="arrow"
             d="M 11.500037,31.436501 C 11.940474,20.09759 22.043105,11.32322 32.158766,21.979434 L 37.068811,17.246167 C 37.068811,17.246167 37.088388,32 37.088388,32 L 22.160133,31.978069 C 22.160133,31.978069 26.997745,27.140456 26.997745,27.140456 C 18.528582,18.264221 13.291696,25.230495 11.500037,31.436501 z"
             style="fill:#404040;"/>
          </a>
         </g>
        </svg>
</svg>
