<?xml version="1.0" encoding="UTF-8" standalone="no"?>
<!DOCTYPE svg PUBLIC "-//W3C//DTD SVG 1.1//EN"
 "http://www.w3.org/Graphics/SVG/1.1/DTD/svg11.dtd">
<!-- Generated by graphviz version 2.43.0 (0)
 -->
<!-- Title: MoFEM::RefElementFace Pages: 1 -->
<svg width="1352pt" height="290pt"
 viewBox="0.00 0.00 1352.00 289.50" xmlns="http://www.w3.org/2000/svg" xmlns:xlink="http://www.w3.org/1999/xlink">
<g id="graph0" class="graph" transform="scale(1 1) rotate(0) translate(4 285.5)">
<title>MoFEM::RefElementFace</title>
<polygon fill="white" stroke="transparent" points="-4,4 -4,-285.5 1348,-285.5 1348,4 -4,4"/>
<!-- Node1 -->
<g id="node1" class="node">
<title>Node1</title>
<g id="a_node1"><a xlink:title="keeps data about abstract TRI finite element">
<polygon fill="#bfbfbf" stroke="black" points="1207,-165 1207,-184 1344,-184 1344,-165 1207,-165"/>
<text text-anchor="middle" x="1275.5" y="-172" font-family="Helvetica,sans-Serif" font-size="10.00">MoFEM::RefElementFace</text>
</a>
</g>
</g>
<!-- Node2 -->
<g id="node2" class="node">
<title>Node2</title>
<g id="a_node2"><a xlink:href="structMoFEM_1_1RefElement.html" target="_top" xlink:title="keeps data about abstract refined finite element">
<polygon fill="white" stroke="black" points="1054,-165 1054,-184 1170,-184 1170,-165 1054,-165"/>
<text text-anchor="middle" x="1112" y="-172" font-family="Helvetica,sans-Serif" font-size="10.00">MoFEM::RefElement</text>
</a>
</g>
</g>
<!-- Node2&#45;&gt;Node1 -->
<g id="edge1" class="edge">
<title>Node2&#45;&gt;Node1</title>
<path fill="none" stroke="midnightblue" d="M1180.49,-174.5C1189.19,-174.5 1198.1,-174.5 1206.8,-174.5"/>
<polygon fill="midnightblue" stroke="midnightblue" points="1180.39,-171 1170.39,-174.5 1180.39,-178 1180.39,-171"/>
</g>
<!-- Node3 -->
<g id="node3" class="node">
<title>Node3</title>
<g id="a_node3"><a xlink:href="structMoFEM_1_1interface__RefEntity.html" target="_top" xlink:title=" ">
<polygon fill="white" stroke="black" points="700,-225.5 700,-255.5 852,-255.5 852,-225.5 700,-225.5"/>
<text text-anchor="start" x="708" y="-243.5" font-family="Helvetica,sans-Serif" font-size="10.00">MoFEM::interface_RefEntity</text>
<text text-anchor="middle" x="776" y="-232.5" font-family="Helvetica,sans-Serif" font-size="10.00">&lt; RefEntity &gt;</text>
</a>
</g>
</g>
<!-- Node3&#45;&gt;Node2 -->
<g id="edge2" class="edge">
<title>Node3&#45;&gt;Node2</title>
<path fill="none" stroke="midnightblue" d="M862.21,-231.27C913.1,-224.79 978.77,-214.72 1036,-200.5 1053.39,-196.18 1072.46,-189.54 1087.01,-184.06"/>
<polygon fill="midnightblue" stroke="midnightblue" points="861.72,-227.81 852.23,-232.52 862.59,-234.75 861.72,-227.81"/>
</g>
<!-- Node4 -->
<g id="node4" class="node">
<title>Node4</title>
<g id="a_node4"><a xlink:href="classboost_1_1shared__ptr_3_01RefEntity_01_4.html" target="_top" xlink:title=" ">
<polygon fill="white" stroke="black" points="177.5,-262 177.5,-281 313.5,-281 313.5,-262 177.5,-262"/>
<text text-anchor="middle" x="245.5" y="-269" font-family="Helvetica,sans-Serif" font-size="10.00">shared_ptr&lt; RefEntity &gt;</text>
</a>
</g>
</g>
<!-- Node4&#45;&gt;Node3 -->
<g id="edge3" class="edge">
<title>Node4&#45;&gt;Node3</title>
<path fill="none" stroke="#9a32cd" stroke-dasharray="5,2" d="M323.82,-266.96C424.67,-261.05 599.94,-250.77 699.75,-244.91"/>
<polygon fill="#9a32cd" stroke="#9a32cd" points="323.48,-263.48 313.7,-267.56 323.89,-270.47 323.48,-263.48"/>
<text text-anchor="middle" x="486" y="-267.5" font-family="Helvetica,sans-Serif" font-size="10.00"> sPtr</text>
</g>
<!-- Node5 -->
<g id="node5" class="node">
<title>Node5</title>
<g id="a_node5"><a xlink:href="structMoFEM_1_1interface__RefEntity.html" target="_top" xlink:title="interface to RefEntity">
<polygon fill="white" stroke="black" points="155,-224 155,-243 336,-243 336,-224 155,-224"/>
<text text-anchor="middle" x="245.5" y="-231" font-family="Helvetica,sans-Serif" font-size="10.00">MoFEM::interface_RefEntity&lt; T &gt;</text>
</a>
</g>
</g>
<!-- Node5&#45;&gt;Node3 -->
<g id="edge4" class="edge">
<title>Node5&#45;&gt;Node3</title>
<path fill="none" stroke="orange" stroke-dasharray="5,2" d="M346.24,-234.82C449.09,-236.18 607.16,-238.28 699.9,-239.51"/>
<polygon fill="orange" stroke="orange" points="346.2,-231.32 336.15,-234.69 346.11,-238.32 346.2,-231.32"/>
<text text-anchor="middle" x="486" y="-240.5" font-family="Helvetica,sans-Serif" font-size="10.00"> &lt; RefEntity &gt;</text>
</g>
<!-- Node6 -->
<g id="node6" class="node">
<title>Node6</title>
<g id="a_node6"><a xlink:title=" ">
<polygon fill="white" stroke="#bfbfbf" points="0,-224 0,-243 97,-243 97,-224 0,-224"/>
<text text-anchor="middle" x="48.5" y="-231" font-family="Helvetica,sans-Serif" font-size="10.00">shared_ptr&lt; T &gt;</text>
</a>
</g>
</g>
<!-- Node6&#45;&gt;Node5 -->
<g id="edge5" class="edge">
<title>Node6&#45;&gt;Node5</title>
<path fill="none" stroke="#9a32cd" stroke-dasharray="5,2" d="M107.25,-233.5C122.14,-233.5 138.53,-233.5 154.63,-233.5"/>
<polygon fill="#9a32cd" stroke="#9a32cd" points="107.2,-230 97.2,-233.5 107.2,-237 107.2,-230"/>
<text text-anchor="middle" x="126" y="-236.5" font-family="Helvetica,sans-Serif" font-size="10.00"> sPtr</text>
</g>
<!-- Node7 -->
<g id="node7" class="node">
<title>Node7</title>
<g id="a_node7"><a xlink:title=" ">
<polygon fill="white" stroke="#bfbfbf" points="723,-187 723,-206 829,-206 829,-187 723,-187"/>
<text text-anchor="middle" x="776" y="-194" font-family="Helvetica,sans-Serif" font-size="10.00">static BitRefEdges</text>
</a>
</g>
</g>
<!-- Node7&#45;&gt;Node2 -->
<g id="edge6" class="edge">
<title>Node7&#45;&gt;Node2</title>
<path fill="none" stroke="#9a32cd" stroke-dasharray="5,2" d="M839.54,-192.38C901.08,-188.33 994.26,-182.19 1053.87,-178.26"/>
<polygon fill="#9a32cd" stroke="#9a32cd" points="838.94,-188.91 829.19,-193.06 839.4,-195.9 838.94,-188.91"/>
<text text-anchor="middle" x="985" y="-188.5" font-family="Helvetica,sans-Serif" font-size="10.00"> DummyBitRefEdges</text>
</g>
<!-- Node8 -->
<g id="node8" class="node">
<title>Node8</title>
<g id="a_node8"><a xlink:title=" ">
<polygon fill="white" stroke="#bfbfbf" points="636,-49.5 636,-167.5 916,-167.5 916,-49.5 636,-49.5"/>
<text text-anchor="start" x="644" y="-155.5" font-family="Helvetica,sans-Serif" font-size="10.00">multi_index_container</text>
<text text-anchor="start" x="644" y="-144.5" font-family="Helvetica,sans-Serif" font-size="10.00">&lt; boost::shared_ptr&lt;</text>
<text text-anchor="start" x="644" y="-133.5" font-family="Helvetica,sans-Serif" font-size="10.00"> SideNumber &gt;, indexed</text>
<text text-anchor="start" x="644" y="-122.5" font-family="Helvetica,sans-Serif" font-size="10.00">_by&lt; ordered_unique&lt; member</text>
<text text-anchor="start" x="644" y="-111.5" font-family="Helvetica,sans-Serif" font-size="10.00">&lt; SideNumber, EntityHandle,</text>
<text text-anchor="start" x="644" y="-100.5" font-family="Helvetica,sans-Serif" font-size="10.00"> &amp;SideNumber::ent &gt; &gt;, ordered</text>
<text text-anchor="start" x="644" y="-89.5" font-family="Helvetica,sans-Serif" font-size="10.00">_non_unique&lt; composite_key&lt; SideNumber,</text>
<text text-anchor="start" x="644" y="-78.5" font-family="Helvetica,sans-Serif" font-size="10.00"> const_mem_fun&lt; SideNumber, EntityType,</text>
<text text-anchor="start" x="644" y="-67.5" font-family="Helvetica,sans-Serif" font-size="10.00"> &amp;SideNumber::getEntType &gt;, member&lt; SideNumber,</text>
<text text-anchor="middle" x="776" y="-56.5" font-family="Helvetica,sans-Serif" font-size="10.00"> signed char, &amp;SideNumber::side_number &gt; &gt; &gt; &gt; &gt;</text>
</a>
</g>
</g>
<!-- Node8&#45;&gt;Node2 -->
<g id="edge7" class="edge">
<title>Node8&#45;&gt;Node2</title>
<path fill="none" stroke="#9a32cd" stroke-dasharray="5,2" d="M926.34,-138.01C975.44,-147.71 1026.59,-157.82 1062.58,-164.93"/>
<polygon fill="#9a32cd" stroke="#9a32cd" points="926.72,-134.52 916.23,-136.01 925.36,-141.38 926.72,-134.52"/>
<text text-anchor="middle" x="985" y="-161.5" font-family="Helvetica,sans-Serif" font-size="10.00"> side_number_table</text>
</g>
<!-- Node9 -->
<g id="node9" class="node">
<title>Node9</title>
<g id="a_node9"><a xlink:title=" ">
<polygon fill="white" stroke="#bfbfbf" points="183,-99 183,-118 308,-118 308,-99 183,-99"/>
<text text-anchor="middle" x="245.5" y="-106" font-family="Helvetica,sans-Serif" font-size="10.00">multi_index_container</text>
</a>
</g>
</g>
<!-- Node9&#45;&gt;Node8 -->
<g id="edge8" class="edge">
<title>Node9&#45;&gt;Node8</title>
<path fill="none" stroke="orange" stroke-dasharray="5,2" d="M318.29,-108.5C399.56,-108.5 533.9,-108.5 635.89,-108.5"/>
<polygon fill="orange" stroke="orange" points="318.16,-105 308.16,-108.5 318.16,-112 318.16,-105"/>
<text text-anchor="start" x="354" y="-199.5" font-family="Helvetica,sans-Serif" font-size="10.00"> &lt; boost::shared_ptr</text>
<text text-anchor="start" x="354" y="-188.5" font-family="Helvetica,sans-Serif" font-size="10.00">&lt; SideNumber &gt;, indexed</text>
<text text-anchor="start" x="354" y="-177.5" font-family="Helvetica,sans-Serif" font-size="10.00">_by&lt; ordered_unique&lt; member</text>
<text text-anchor="start" x="354" y="-166.5" font-family="Helvetica,sans-Serif" font-size="10.00">&lt; SideNumber, EntityHandle,</text>
<text text-anchor="start" x="354" y="-155.5" font-family="Helvetica,sans-Serif" font-size="10.00"> &amp;SideNumber::ent &gt; &gt;, ordered</text>
<text text-anchor="start" x="354" y="-144.5" font-family="Helvetica,sans-Serif" font-size="10.00">_non_unique&lt; composite_key&lt; SideNumber,</text>
<text text-anchor="start" x="354" y="-133.5" font-family="Helvetica,sans-Serif" font-size="10.00"> const_mem_fun&lt; SideNumber, EntityType,</text>
<text text-anchor="start" x="354" y="-122.5" font-family="Helvetica,sans-Serif" font-size="10.00"> &amp;SideNumber::getEntType &gt;, member&lt; SideNumber,</text>
<text text-anchor="middle" x="486" y="-111.5" font-family="Helvetica,sans-Serif" font-size="10.00"> signed char, &amp;SideNumber::side_number &gt; &gt; &gt; &gt; &gt;</text>
</g>
<!-- Node10 -->
<g id="node10" class="node">
<title>Node10</title>
<g id="a_node10"><a xlink:title=" ">
<polygon fill="white" stroke="#bfbfbf" points="715,-0.5 715,-30.5 837,-30.5 837,-0.5 715,-0.5"/>
<text text-anchor="start" x="723" y="-18.5" font-family="Helvetica,sans-Serif" font-size="10.00">shared_ptr&lt; MoFEM::</text>
<text text-anchor="middle" x="776" y="-7.5" font-family="Helvetica,sans-Serif" font-size="10.00">SideNumber &gt;</text>
</a>
</g>
</g>
<!-- Node10&#45;&gt;Node2 -->
<g id="edge9" class="edge">
<title>Node10&#45;&gt;Node2</title>
<path fill="none" stroke="#9a32cd" stroke-dasharray="5,2" d="M847.26,-21.59C869.8,-25.12 894.48,-30.7 916,-39.5 994.51,-71.61 1072.93,-139.46 1100.57,-164.74"/>
<polygon fill="#9a32cd" stroke="#9a32cd" points="847.48,-18.09 837.08,-20.11 846.47,-25.01 847.48,-18.09"/>
<text text-anchor="middle" x="985" y="-110.5" font-family="Helvetica,sans-Serif" font-size="10.00"> nullSideNumber</text>
</g>
</g>
</svg>
