<?xml version="1.0" encoding="UTF-8" standalone="no"?>
<!DOCTYPE svg PUBLIC "-//W3C//DTD SVG 1.1//EN"
 "http://www.w3.org/Graphics/SVG/1.1/DTD/svg11.dtd">
<!-- Generated by graphviz version 2.43.0 (0)
 -->
<!-- Title: FractureMechanics::GriffithForceElement::OpHeterogeneousGcLhs Pages: 1 -->
<!--zoomable 436 -->
<svg id="main" version="1.1" xmlns="http://www.w3.org/2000/svg" xmlns:xlink="http://www.w3.org/1999/xlink" xml:space="preserve" onload="init(evt)">
<style type="text/css"><![CDATA[
.edge:hover path { stroke: red; }
.edge:hover polygon { stroke: red; fill: red; }
]]></style>
<script type="text/javascript"><![CDATA[
var edges = document.getElementsByTagName('g');
if (edges && edges.length) {
  for (var i=0;i<edges.length;i++) {
    if (edges[i].id.substr(0,4)=='edge') {
      edges[i].setAttribute('class','edge');
    }
  }
}
]]></script>
        <defs>
                <circle id="rim" cx="0" cy="0" r="7"/>
                <circle id="rim2" cx="0" cy="0" r="3.5"/>
                <g id="zoomPlus">
                        <use xlink:href="#rim" fill="#404040">
                                <set attributeName="fill" to="#808080" begin="zoomplus.mouseover" end="zoomplus.mouseout"/>
                        </use>
                        <path d="M-4,0h8M0,-4v8" fill="none" stroke="white" stroke-width="1.5" pointer-events="none"/>
                </g>
                <g id="zoomMin">
                        <use xlink:href="#rim" fill="#404040">
                                <set attributeName="fill" to="#808080" begin="zoomminus.mouseover" end="zoomminus.mouseout"/>
                        </use>
                        <path d="M-4,0h8" fill="none" stroke="white" stroke-width="1.5" pointer-events="none"/>
                </g>
                <g id="dirArrow">
                        <path fill="none" stroke="white" stroke-width="1.5" d="M0,-3.0v7 M-2.5,-0.5L0,-3.0L2.5,-0.5"/>
                </g>
               <g id="resetDef">
                       <use xlink:href="#rim2" fill="#404040">
                               <set attributeName="fill" to="#808080" begin="reset.mouseover" end="reset.mouseout"/>
                       </use>
               </g>
        </defs>

<script type="text/javascript">
var viewWidth = 856;
var viewHeight = 436;
var sectionId = 'dynsection-1';
</script>
<script xlink:href="svgpan.js"/>
<svg id="graph" class="graph">
<g id="viewport">
<title>FractureMechanics::GriffithForceElement::OpHeterogeneousGcLhs</title>
<polygon fill="white" stroke="transparent" points="-4,4 -4,-432.21 852,-432.21 852,4 -4,4"/>
<!-- Node1 -->
<g id="node1" class="node">
<title>Node1</title>
<g id="a_node1"><a xlink:title=" ">
<polygon fill="#bfbfbf" stroke="black" points="708,-305.71 708,-346.71 848,-346.71 848,-305.71 708,-305.71"/>
<text text-anchor="start" x="716" y="-334.71" font-family="Helvetica,sans-Serif" font-size="10.00">FractureMechanics::</text>
<text text-anchor="start" x="716" y="-323.71" font-family="Helvetica,sans-Serif" font-size="10.00">GriffithForceElement</text>
<text text-anchor="middle" x="778" y="-312.71" font-family="Helvetica,sans-Serif" font-size="10.00">::OpHeterogeneousGcLhs</text>
</a>
</g>
</g>
<!-- Node2 -->
<g id="node2" class="node">
<title>Node2</title>
<g id="a_node2"><a xlink:title=" ">
<polygon fill="white" stroke="#bfbfbf" points="560,-408.71 560,-427.71 665,-427.71 665,-408.71 560,-408.71"/>
<text text-anchor="middle" x="612.5" y="-415.71" font-family="Helvetica,sans-Serif" font-size="10.00">UserDataOperator</text>
</a>
</g>
</g>
<!-- Node2&#45;&gt;Node1 -->
<g id="edge1" class="edge">
<title>Node2&#45;&gt;Node1</title>
<path fill="none" stroke="midnightblue" d="M663.29,-405.45C672.42,-402.32 681.67,-398.58 690,-394.21 714.27,-381.46 738.57,-361.74 755.3,-346.81"/>
<polygon fill="midnightblue" stroke="midnightblue" points="661.94,-402.21 653.5,-408.61 664.1,-408.87 661.94,-402.21"/>
</g>
<!-- Node3 -->
<g id="node3" class="node">
<title>Node3</title>
<g id="a_node3"><a xlink:href="structFractureMechanics_1_1GriffithForceElement_1_1AuxOp.html" target="_top" xlink:title=" ">
<polygon fill="white" stroke="black" points="554,-203.71 554,-244.71 671,-244.71 671,-203.71 554,-203.71"/>
<text text-anchor="start" x="562" y="-232.71" font-family="Helvetica,sans-Serif" font-size="10.00">FractureMechanics::</text>
<text text-anchor="start" x="562" y="-221.71" font-family="Helvetica,sans-Serif" font-size="10.00">GriffithForceElement</text>
<text text-anchor="middle" x="612.5" y="-210.71" font-family="Helvetica,sans-Serif" font-size="10.00">::AuxOp</text>
</a>
</g>
</g>
<!-- Node3&#45;&gt;Node1 -->
<g id="edge2" class="edge">
<title>Node3&#45;&gt;Node1</title>
<path fill="none" stroke="midnightblue" d="M655.23,-250.24C682.78,-267.43 718.38,-289.64 743.96,-305.6"/>
<polygon fill="midnightblue" stroke="midnightblue" points="656.92,-247.18 646.59,-244.85 653.22,-253.11 656.92,-247.18"/>
</g>
<!-- Node4 -->
<g id="node4" class="node">
<title>Node4</title>
<g id="a_node4"><a xlink:title=" ">
<polygon fill="white" stroke="#bfbfbf" points="297.5,-187.71 297.5,-206.71 385.5,-206.71 385.5,-187.71 297.5,-187.71"/>
<text text-anchor="middle" x="341.5" y="-194.71" font-family="Helvetica,sans-Serif" font-size="10.00">VectorDouble3</text>
</a>
</g>
</g>
<!-- Node4&#45;&gt;Node3 -->
<g id="edge3" class="edge">
<title>Node4&#45;&gt;Node3</title>
<path fill="none" stroke="#9a32cd" stroke-dasharray="5,2" d="M395.71,-202.55C441.34,-207.13 506.95,-213.72 553.83,-218.42"/>
<polygon fill="#9a32cd" stroke="#9a32cd" points="396.02,-199.07 385.72,-201.55 395.32,-206.03 396.02,-199.07"/>
<text text-anchor="middle" x="477" y="-219.21" font-family="Helvetica,sans-Serif" font-size="10.00"> lambdaAtNodes</text>
</g>
<!-- Node5 -->
<g id="node5" class="node">
<title>Node5</title>
<g id="a_node5"><a xlink:href="structFractureMechanics_1_1GriffithForceElement_1_1BlockData.html" target="_top" xlink:title=" ">
<polygon fill="white" stroke="black" points="283,-272.71 283,-313.71 400,-313.71 400,-272.71 283,-272.71"/>
<text text-anchor="start" x="291" y="-301.71" font-family="Helvetica,sans-Serif" font-size="10.00">FractureMechanics::</text>
<text text-anchor="start" x="291" y="-290.71" font-family="Helvetica,sans-Serif" font-size="10.00">GriffithForceElement</text>
<text text-anchor="middle" x="341.5" y="-279.71" font-family="Helvetica,sans-Serif" font-size="10.00">::BlockData</text>
</a>
</g>
</g>
<!-- Node5&#45;&gt;Node3 -->
<g id="edge4" class="edge">
<title>Node5&#45;&gt;Node3</title>
<path fill="none" stroke="#9a32cd" stroke-dasharray="5,2" d="M410.37,-284.46C447.91,-278.66 495.1,-269.77 536,-257.21 546.94,-253.85 558.42,-249.37 569.02,-244.79"/>
<polygon fill="#9a32cd" stroke="#9a32cd" points="409.42,-281.07 400.05,-286.02 410.46,-287.99 409.42,-281.07"/>
<text text-anchor="middle" x="477" y="-285.21" font-family="Helvetica,sans-Serif" font-size="10.00"> blockData</text>
</g>
<!-- Node6 -->
<g id="node6" class="node">
<title>Node6</title>
<g id="a_node6"><a xlink:href="classdouble.html" target="_top" xlink:title=" ">
<polygon fill="white" stroke="black" points="30.5,-344.71 30.5,-363.71 80.5,-363.71 80.5,-344.71 30.5,-344.71"/>
<text text-anchor="middle" x="55.5" y="-351.71" font-family="Helvetica,sans-Serif" font-size="10.00">double</text>
</a>
</g>
</g>
<!-- Node6&#45;&gt;Node1 -->
<g id="edge16" class="edge">
<title>Node6&#45;&gt;Node1</title>
<path fill="none" stroke="#9a32cd" stroke-dasharray="5,2" d="M90.65,-361.05C102.72,-363.15 116.41,-365.18 129,-366.21 189.24,-371.16 204.57,-367.33 265,-366.21 325.03,-365.1 340.08,-365.1 400,-361.21 507.74,-354.22 632.42,-341.79 707.95,-333.78"/>
<polygon fill="#9a32cd" stroke="#9a32cd" points="91.01,-357.55 80.54,-359.21 89.76,-364.44 91.01,-357.55"/>
<text text-anchor="middle" x="477" y="-362.21" font-family="Helvetica,sans-Serif" font-size="10.00"> betaGC</text>
</g>
<!-- Node6&#45;&gt;Node5 -->
<g id="edge5" class="edge">
<title>Node6&#45;&gt;Node5</title>
<path fill="none" stroke="#9a32cd" stroke-dasharray="5,2" d="M90.25,-343.67C102.39,-340.09 116.25,-336.22 129,-333.21 188.81,-319.09 204.64,-319.75 265,-308.21 270.78,-307.11 276.8,-305.94 282.81,-304.76"/>
<polygon fill="#9a32cd" stroke="#9a32cd" points="89.08,-340.37 80.51,-346.6 91.09,-347.08 89.08,-340.37"/>
<text text-anchor="middle" x="197" y="-358.21" font-family="Helvetica,sans-Serif" font-size="10.00"> E</text>
<text text-anchor="middle" x="197" y="-347.21" font-family="Helvetica,sans-Serif" font-size="10.00">r</text>
<text text-anchor="middle" x="197" y="-336.21" font-family="Helvetica,sans-Serif" font-size="10.00">gc</text>
</g>
<!-- Node7 -->
<g id="node7" class="node">
<title>Node7</title>
<g id="a_node7"><a xlink:href="classRange.html" target="_top" xlink:title=" ">
<polygon fill="white" stroke="black" points="32,-283.71 32,-302.71 79,-302.71 79,-283.71 32,-283.71"/>
<text text-anchor="middle" x="55.5" y="-290.71" font-family="Helvetica,sans-Serif" font-size="10.00">Range</text>
</a>
</g>
</g>
<!-- Node7&#45;&gt;Node5 -->
<g id="edge6" class="edge">
<title>Node7&#45;&gt;Node5</title>
<path fill="none" stroke="#9a32cd" stroke-dasharray="5,2" d="M89.55,-293.21C136.88,-293.21 224.65,-293.21 282.82,-293.21"/>
<polygon fill="#9a32cd" stroke="#9a32cd" points="89.26,-289.71 79.26,-293.21 89.26,-296.71 89.26,-289.71"/>
<text text-anchor="middle" x="197" y="-296.21" font-family="Helvetica,sans-Serif" font-size="10.00"> frontNodes</text>
</g>
<!-- Node8 -->
<g id="node8" class="node">
<title>Node8</title>
<g id="a_node8"><a xlink:title=" ">
<polygon fill="white" stroke="#bfbfbf" points="308.5,-51.71 308.5,-70.71 374.5,-70.71 374.5,-51.71 308.5,-51.71"/>
<text text-anchor="middle" x="341.5" y="-58.71" font-family="Helvetica,sans-Serif" font-size="10.00">VectorInt3</text>
</a>
</g>
</g>
<!-- Node8&#45;&gt;Node3 -->
<g id="edge7" class="edge">
<title>Node8&#45;&gt;Node3</title>
<path fill="none" stroke="#9a32cd" stroke-dasharray="5,2" d="M384.89,-55.93C426.89,-52.96 491.26,-54.71 536,-85.21 577.53,-113.52 598.26,-172.38 606.71,-203.65"/>
<polygon fill="#9a32cd" stroke="#9a32cd" points="384.39,-52.46 374.72,-56.78 384.97,-59.44 384.39,-52.46"/>
<text text-anchor="middle" x="477" y="-99.21" font-family="Helvetica,sans-Serif" font-size="10.00"> rowLambdaIndices</text>
<text text-anchor="middle" x="477" y="-88.21" font-family="Helvetica,sans-Serif" font-size="10.00">rowLambdaIndicesLocal</text>
</g>
<!-- Node9 -->
<g id="node9" class="node">
<title>Node9</title>
<g id="a_node9"><a xlink:title=" ">
<polygon fill="white" stroke="#bfbfbf" points="327,-332.71 327,-351.71 356,-351.71 356,-332.71 327,-332.71"/>
<text text-anchor="middle" x="341.5" y="-339.71" font-family="Helvetica,sans-Serif" font-size="10.00">int</text>
</a>
</g>
</g>
<!-- Node9&#45;&gt;Node3 -->
<g id="edge8" class="edge">
<title>Node9&#45;&gt;Node3</title>
<path fill="none" stroke="#9a32cd" stroke-dasharray="5,2" d="M366.11,-340.77C404.06,-337.61 480.03,-327.68 536,-297.21 559.86,-284.22 581.52,-261.62 595.46,-245"/>
<polygon fill="#9a32cd" stroke="#9a32cd" points="365.75,-337.29 356.04,-341.53 366.27,-344.27 365.75,-337.29"/>
<text text-anchor="middle" x="477" y="-336.21" font-family="Helvetica,sans-Serif" font-size="10.00"> tAg</text>
</g>
<!-- Node10 -->
<g id="node10" class="node">
<title>Node10</title>
<g id="a_node10"><a xlink:title=" ">
<polygon fill="white" stroke="#bfbfbf" points="14.5,-199.71 14.5,-218.71 96.5,-218.71 96.5,-199.71 14.5,-199.71"/>
<text text-anchor="middle" x="55.5" y="-206.71" font-family="Helvetica,sans-Serif" font-size="10.00">VectorDouble</text>
</a>
</g>
</g>
<!-- Node10&#45;&gt;Node3 -->
<g id="edge9" class="edge">
<title>Node10&#45;&gt;Node3</title>
<path fill="none" stroke="#9a32cd" stroke-dasharray="5,2" d="M106.74,-213.78C194.03,-221.16 379.36,-234.39 536,-229.21 541.78,-229.02 547.8,-228.75 553.81,-228.43"/>
<polygon fill="#9a32cd" stroke="#9a32cd" points="106.85,-210.28 96.59,-212.91 106.25,-217.25 106.85,-210.28"/>
<text text-anchor="middle" x="341.5" y="-232.21" font-family="Helvetica,sans-Serif" font-size="10.00"> activeVariables</text>
</g>
<!-- Node12 -->
<g id="node12" class="node">
<title>Node12</title>
<g id="a_node12"><a xlink:href="structFractureMechanics_1_1GriffithForceElement_1_1CommonData.html" target="_top" xlink:title=" ">
<polygon fill="white" stroke="black" points="283,-89.71 283,-130.71 400,-130.71 400,-89.71 283,-89.71"/>
<text text-anchor="start" x="291" y="-118.71" font-family="Helvetica,sans-Serif" font-size="10.00">FractureMechanics::</text>
<text text-anchor="start" x="291" y="-107.71" font-family="Helvetica,sans-Serif" font-size="10.00">GriffithForceElement</text>
<text text-anchor="middle" x="341.5" y="-96.71" font-family="Helvetica,sans-Serif" font-size="10.00">::CommonData</text>
</a>
</g>
</g>
<!-- Node10&#45;&gt;Node12 -->
<g id="edge13" class="edge">
<title>Node10&#45;&gt;Node12</title>
<path fill="none" stroke="#9a32cd" stroke-dasharray="5,2" d="M93.7,-196.24C141.88,-179.45 226.38,-149.99 282.89,-130.29"/>
<polygon fill="#9a32cd" stroke="#9a32cd" points="92.28,-193.03 83.99,-199.63 94.58,-199.64 92.28,-193.03"/>
<text text-anchor="middle" x="197" y="-196.21" font-family="Helvetica,sans-Serif" font-size="10.00"> griffithForce</text>
<text text-anchor="middle" x="197" y="-185.21" font-family="Helvetica,sans-Serif" font-size="10.00">densityRho</text>
</g>
<!-- Node11 -->
<g id="node11" class="node">
<title>Node11</title>
<g id="a_node11"><a xlink:title=" ">
<polygon fill="white" stroke="#bfbfbf" points="300,-149.71 300,-168.71 383,-168.71 383,-149.71 300,-149.71"/>
<text text-anchor="middle" x="341.5" y="-156.71" font-family="Helvetica,sans-Serif" font-size="10.00">vector&lt; int &gt;</text>
</a>
</g>
</g>
<!-- Node11&#45;&gt;Node3 -->
<g id="edge10" class="edge">
<title>Node11&#45;&gt;Node3</title>
<path fill="none" stroke="#9a32cd" stroke-dasharray="5,2" d="M393.24,-158.07C433.04,-158.62 489.32,-162.61 536,-178.21 553.18,-183.95 570.56,-194.17 584.31,-203.53"/>
<polygon fill="#9a32cd" stroke="#9a32cd" points="393.27,-154.57 383.24,-158 393.22,-161.57 393.27,-154.57"/>
<text text-anchor="middle" x="477" y="-192.21" font-family="Helvetica,sans-Serif" font-size="10.00"> rowIndices</text>
<text text-anchor="middle" x="477" y="-181.21" font-family="Helvetica,sans-Serif" font-size="10.00">rowIndicesLocal</text>
</g>
<!-- Node12&#45;&gt;Node3 -->
<g id="edge11" class="edge">
<title>Node12&#45;&gt;Node3</title>
<path fill="none" stroke="#9a32cd" stroke-dasharray="5,2" d="M410.41,-111.17C449.19,-114.24 497.59,-122.49 536,-143.21 562.56,-157.54 584.94,-184.76 598.28,-203.67"/>
<polygon fill="#9a32cd" stroke="#9a32cd" points="410.47,-107.67 400.25,-110.47 409.99,-114.65 410.47,-107.67"/>
<text text-anchor="middle" x="477" y="-146.21" font-family="Helvetica,sans-Serif" font-size="10.00"> commonData</text>
</g>
<!-- Node13 -->
<g id="node13" class="node">
<title>Node13</title>
<g id="a_node13"><a xlink:title=" ">
<polygon fill="white" stroke="#bfbfbf" points="14,-30.71 14,-49.71 97,-49.71 97,-30.71 14,-30.71"/>
<text text-anchor="middle" x="55.5" y="-37.71" font-family="Helvetica,sans-Serif" font-size="10.00">MatrixDouble</text>
</a>
</g>
</g>
<!-- Node13&#45;&gt;Node1 -->
<g id="edge15" class="edge">
<title>Node13&#45;&gt;Node1</title>
<path fill="none" stroke="#9a32cd" stroke-dasharray="5,2" d="M101.62,-28.23C189.79,-7.32 389.14,27.63 536,-39.21 659.17,-95.27 741.29,-249.7 767.75,-305.64"/>
<polygon fill="#9a32cd" stroke="#9a32cd" points="100.58,-24.89 91.68,-30.65 102.23,-31.69 100.58,-24.89"/>
<text text-anchor="middle" x="477" y="-42.21" font-family="Helvetica,sans-Serif" font-size="10.00"> mat</text>
</g>
<!-- Node13&#45;&gt;Node12 -->
<g id="edge12" class="edge">
<title>Node13&#45;&gt;Node12</title>
<path fill="none" stroke="#9a32cd" stroke-dasharray="5,2" d="M107.31,-49.11C149.79,-56.99 211.8,-69.5 265,-84.21 270.88,-85.84 276.97,-87.67 283.02,-89.6"/>
<polygon fill="#9a32cd" stroke="#9a32cd" points="107.69,-45.62 97.22,-47.26 106.42,-52.51 107.69,-45.62"/>
<text text-anchor="middle" x="197" y="-98.21" font-family="Helvetica,sans-Serif" font-size="10.00"> tangentGriffithForce</text>
<text text-anchor="middle" x="197" y="-87.21" font-family="Helvetica,sans-Serif" font-size="10.00">diffRho</text>
</g>
<!-- Node14 -->
<g id="node14" class="node">
<title>Node14</title>
<g id="a_node14"><a xlink:title=" ">
<polygon fill="white" stroke="#bfbfbf" points="0,-100.71 0,-119.71 111,-119.71 111,-100.71 0,-100.71"/>
<text text-anchor="middle" x="55.5" y="-107.71" font-family="Helvetica,sans-Serif" font-size="10.00">vector&lt; double * &gt;</text>
</a>
</g>
</g>
<!-- Node14&#45;&gt;Node12 -->
<g id="edge14" class="edge">
<title>Node14&#45;&gt;Node12</title>
<path fill="none" stroke="#9a32cd" stroke-dasharray="5,2" d="M121.37,-110.21C170.08,-110.21 236.16,-110.21 282.99,-110.21"/>
<polygon fill="#9a32cd" stroke="#9a32cd" points="121.26,-106.71 111.26,-110.21 121.26,-113.71 121.26,-106.71"/>
<text text-anchor="middle" x="197" y="-113.21" font-family="Helvetica,sans-Serif" font-size="10.00"> tangentGriffithForceRowPtr</text>
</g>
</g>
</svg>
        <g id="navigator" transform="translate(0 0)" fill="#404254">
                <rect fill="#f2f5e9" fill-opacity="0.5" stroke="#606060" stroke-width=".5" x="0" y="0" width="60" height="60"/>
                <use id="zoomplus" xlink:href="#zoomPlus" x="17" y="9" onmousedown="handleZoom(evt,'in')"/>
                <use id="zoomminus" xlink:href="#zoomMin" x="42" y="9" onmousedown="handleZoom(evt,'out')"/>
                <use id="reset" xlink:href="#resetDef" x="30" y="36" onmousedown="handleReset()"/>
                <g id="arrowUp" xlink:href="#dirArrow" transform="translate(30 24)" onmousedown="handlePan(0,-1)">
                  <use xlink:href="#rim" fill="#404040">
                        <set attributeName="fill" to="#808080" begin="arrowUp.mouseover" end="arrowUp.mouseout"/>
                  </use>
                  <path fill="none" stroke="white" stroke-width="1.5" d="M0,-3.0v7 M-2.5,-0.5L0,-3.0L2.5,-0.5"/>
                </g>
                <g id="arrowRight" xlink:href="#dirArrow" transform="rotate(90) translate(36 -43)" onmousedown="handlePan(1,0)">
                  <use xlink:href="#rim" fill="#404040">
                        <set attributeName="fill" to="#808080" begin="arrowRight.mouseover" end="arrowRight.mouseout"/>
                  </use>
                  <path fill="none" stroke="white" stroke-width="1.5" d="M0,-3.0v7 M-2.5,-0.5L0,-3.0L2.5,-0.5"/>
                </g>
                <g id="arrowDown" xlink:href="#dirArrow" transform="rotate(180) translate(-30 -48)" onmousedown="handlePan(0,1)">
                  <use xlink:href="#rim" fill="#404040">
                        <set attributeName="fill" to="#808080" begin="arrowDown.mouseover" end="arrowDown.mouseout"/>
                  </use>
                  <path fill="none" stroke="white" stroke-width="1.5" d="M0,-3.0v7 M-2.5,-0.5L0,-3.0L2.5,-0.5"/>
                </g>
                <g id="arrowLeft" xlink:href="#dirArrow" transform="rotate(270) translate(-36 17)" onmousedown="handlePan(-1,0)">
                  <use xlink:href="#rim" fill="#404040">
                        <set attributeName="fill" to="#808080" begin="arrowLeft.mouseover" end="arrowLeft.mouseout"/>
                  </use>
                  <path fill="none" stroke="white" stroke-width="1.5" d="M0,-3.0v7 M-2.5,-0.5L0,-3.0L2.5,-0.5"/>
                </g>
        </g>
        <svg viewBox="0 0 15 15" width="100%" height="30px" preserveAspectRatio="xMaxYMin meet">
         <g id="arrow_out" transform="scale(0.3 0.3)">
          <a xlink:href="structFractureMechanics_1_1GriffithForceElement_1_1OpHeterogeneousGcLhs__coll__graph_org.svg" target="_base">
           <rect id="button" ry="5" rx="5" y="6" x="6" height="38" width="38"
                fill="#f2f5e9" fill-opacity="0.5" stroke="#606060" stroke-width="1.0"/>
           <path id="arrow"
             d="M 11.500037,31.436501 C 11.940474,20.09759 22.043105,11.32322 32.158766,21.979434 L 37.068811,17.246167 C 37.068811,17.246167 37.088388,32 37.088388,32 L 22.160133,31.978069 C 22.160133,31.978069 26.997745,27.140456 26.997745,27.140456 C 18.528582,18.264221 13.291696,25.230495 11.500037,31.436501 z"
             style="fill:#404040;"/>
          </a>
         </g>
        </svg>
</svg>
