<?xml version="1.0" encoding="UTF-8" standalone="no"?>
<!DOCTYPE svg PUBLIC "-//W3C//DTD SVG 1.1//EN"
 "http://www.w3.org/Graphics/SVG/1.1/DTD/svg11.dtd">
<!-- Generated by graphviz version 2.43.0 (0)
 -->
<!-- Title: NitscheMethod::OpCommon Pages: 1 -->
<svg width="1187pt" height="225pt"
 viewBox="0.00 0.00 1187.00 224.50" xmlns="http://www.w3.org/2000/svg" xmlns:xlink="http://www.w3.org/1999/xlink">
<g id="graph0" class="graph" transform="scale(1 1) rotate(0) translate(4 220.5)">
<title>NitscheMethod::OpCommon</title>
<polygon fill="white" stroke="transparent" points="-4,4 -4,-220.5 1183,-220.5 1183,4 -4,4"/>
<!-- Node1 -->
<g id="node1" class="node">
<title>Node1</title>
<g id="a_node1"><a xlink:title="Calculate jacobian and variation of tractions.">
<polygon fill="#bfbfbf" stroke="black" points="810,-110 810,-129 964,-129 964,-110 810,-110"/>
<text text-anchor="middle" x="887" y="-117" font-family="Helvetica,sans-Serif" font-size="10.00">NitscheMethod::OpCommon</text>
</a>
</g>
</g>
<!-- Node6 -->
<g id="node6" class="node">
<title>Node6</title>
<g id="a_node6"><a xlink:href="structNitscheMethod_1_1OpLhsNormal.html" target="_top" xlink:title="Calculate Nitsche method terms on left hand side.">
<polygon fill="white" stroke="black" points="1008.5,-197 1008.5,-216 1170.5,-216 1170.5,-197 1008.5,-197"/>
<text text-anchor="middle" x="1089.5" y="-204" font-family="Helvetica,sans-Serif" font-size="10.00">NitscheMethod::OpLhsNormal</text>
</a>
</g>
</g>
<!-- Node1&#45;&gt;Node6 -->
<g id="edge5" class="edge">
<title>Node1&#45;&gt;Node6</title>
<path fill="none" stroke="midnightblue" d="M908.83,-135.1C930.51,-150.6 966,-173.98 1000,-187.5 1009.64,-191.33 1020.19,-194.45 1030.54,-196.97"/>
<polygon fill="midnightblue" stroke="midnightblue" points="910.84,-132.23 900.69,-129.18 906.72,-137.89 910.84,-132.23"/>
</g>
<!-- Node7 -->
<g id="node7" class="node">
<title>Node7</title>
<g id="a_node7"><a xlink:href="structNitscheMethod_1_1OpRhsNormal.html" target="_top" xlink:title="Calculate Nitsche method terms on right hand side.">
<polygon fill="white" stroke="black" points="1007.5,-159 1007.5,-178 1171.5,-178 1171.5,-159 1007.5,-159"/>
<text text-anchor="middle" x="1089.5" y="-166" font-family="Helvetica,sans-Serif" font-size="10.00">NitscheMethod::OpRhsNormal</text>
</a>
</g>
</g>
<!-- Node1&#45;&gt;Node7 -->
<g id="edge6" class="edge">
<title>Node1&#45;&gt;Node7</title>
<path fill="none" stroke="midnightblue" d="M931.48,-131.69C952.17,-137.35 977.3,-144.03 1000,-149.5 1013.6,-152.78 1028.44,-156.07 1042.01,-158.98"/>
<polygon fill="midnightblue" stroke="midnightblue" points="932.28,-128.28 921.7,-129 930.42,-135.03 932.28,-128.28"/>
</g>
<!-- Node8 -->
<g id="node8" class="node">
<title>Node8</title>
<g id="a_node8"><a xlink:href="structPeriodicNitscheConstrains_1_1OpCalculateHomogenisedStressSurfaceIntegral.html" target="_top" xlink:title=" ">
<polygon fill="white" stroke="black" points="1000,-99 1000,-140 1179,-140 1179,-99 1000,-99"/>
<text text-anchor="start" x="1008" y="-128" font-family="Helvetica,sans-Serif" font-size="10.00">PeriodicNitscheConstrains</text>
<text text-anchor="start" x="1008" y="-117" font-family="Helvetica,sans-Serif" font-size="10.00">::OpCalculateHomogenisedStress</text>
<text text-anchor="middle" x="1089.5" y="-106" font-family="Helvetica,sans-Serif" font-size="10.00">SurfaceIntegral</text>
</a>
</g>
</g>
<!-- Node1&#45;&gt;Node8 -->
<g id="edge7" class="edge">
<title>Node1&#45;&gt;Node8</title>
<path fill="none" stroke="midnightblue" d="M974.27,-119.5C982.69,-119.5 991.24,-119.5 999.69,-119.5"/>
<polygon fill="midnightblue" stroke="midnightblue" points="974.09,-116 964.09,-119.5 974.09,-123 974.09,-116"/>
</g>
<!-- Node9 -->
<g id="node9" class="node">
<title>Node9</title>
<g id="a_node9"><a xlink:href="structPeriodicNitscheConstrains_1_1OpLhsPeriodicNormal.html" target="_top" xlink:title=" ">
<polygon fill="white" stroke="black" points="1017.5,-49.5 1017.5,-79.5 1161.5,-79.5 1161.5,-49.5 1017.5,-49.5"/>
<text text-anchor="start" x="1025.5" y="-67.5" font-family="Helvetica,sans-Serif" font-size="10.00">PeriodicNitscheConstrains</text>
<text text-anchor="middle" x="1089.5" y="-56.5" font-family="Helvetica,sans-Serif" font-size="10.00">::OpLhsPeriodicNormal</text>
</a>
</g>
</g>
<!-- Node1&#45;&gt;Node9 -->
<g id="edge8" class="edge">
<title>Node1&#45;&gt;Node9</title>
<path fill="none" stroke="midnightblue" d="M932.64,-107.25C962.45,-99.08 1001.85,-88.27 1033.58,-79.57"/>
<polygon fill="midnightblue" stroke="midnightblue" points="931.64,-103.9 922.92,-109.92 933.49,-110.65 931.64,-103.9"/>
</g>
<!-- Node10 -->
<g id="node10" class="node">
<title>Node10</title>
<g id="a_node10"><a xlink:href="structPeriodicNitscheConstrains_1_1OpRhsPeriodicNormal.html" target="_top" xlink:title=" ">
<polygon fill="white" stroke="black" points="1017.5,-0.5 1017.5,-30.5 1161.5,-30.5 1161.5,-0.5 1017.5,-0.5"/>
<text text-anchor="start" x="1025.5" y="-18.5" font-family="Helvetica,sans-Serif" font-size="10.00">PeriodicNitscheConstrains</text>
<text text-anchor="middle" x="1089.5" y="-7.5" font-family="Helvetica,sans-Serif" font-size="10.00">::OpRhsPeriodicNormal</text>
</a>
</g>
</g>
<!-- Node1&#45;&gt;Node10 -->
<g id="edge9" class="edge">
<title>Node1&#45;&gt;Node10</title>
<path fill="none" stroke="midnightblue" d="M906.18,-103.36C927.33,-85.37 963.97,-56.57 1000,-39.5 1007.05,-36.16 1014.64,-33.22 1022.31,-30.65"/>
<polygon fill="midnightblue" stroke="midnightblue" points="903.89,-100.72 898.61,-109.9 908.47,-106.01 903.89,-100.72"/>
</g>
<!-- Node2 -->
<g id="node2" class="node">
<title>Node2</title>
<g id="a_node2"><a xlink:href="structNitscheMethod_1_1OpBasicCommon.html" target="_top" xlink:title="Basic operated shared between all Nitsche operators.">
<polygon fill="white" stroke="black" points="594,-110 594,-129 774,-129 774,-110 594,-110"/>
<text text-anchor="middle" x="684" y="-117" font-family="Helvetica,sans-Serif" font-size="10.00">NitscheMethod::OpBasicCommon</text>
</a>
</g>
</g>
<!-- Node2&#45;&gt;Node1 -->
<g id="edge1" class="edge">
<title>Node2&#45;&gt;Node1</title>
<path fill="none" stroke="midnightblue" d="M784.18,-119.5C792.83,-119.5 801.5,-119.5 809.92,-119.5"/>
<polygon fill="midnightblue" stroke="midnightblue" points="784.04,-116 774.04,-119.5 784.04,-123 784.04,-116"/>
</g>
<!-- Node3 -->
<g id="node3" class="node">
<title>Node3</title>
<g id="a_node3"><a xlink:href="structMoFEM_1_1VolumeElementForcesAndSourcesCore_1_1UserDataOperator.html" target="_top" xlink:title=" ">
<polygon fill="white" stroke="black" points="367,-104.5 367,-134.5 558,-134.5 558,-104.5 367,-104.5"/>
<text text-anchor="start" x="375" y="-122.5" font-family="Helvetica,sans-Serif" font-size="10.00">MoFEM::VolumeElementForces</text>
<text text-anchor="middle" x="462.5" y="-111.5" font-family="Helvetica,sans-Serif" font-size="10.00">AndSourcesCore::UserDataOperator</text>
</a>
</g>
</g>
<!-- Node3&#45;&gt;Node2 -->
<g id="edge2" class="edge">
<title>Node3&#45;&gt;Node2</title>
<path fill="none" stroke="midnightblue" d="M568.21,-119.5C576.78,-119.5 585.39,-119.5 593.84,-119.5"/>
<polygon fill="midnightblue" stroke="midnightblue" points="568.18,-116 558.18,-119.5 568.18,-123 568.18,-116"/>
</g>
<!-- Node4 -->
<g id="node4" class="node">
<title>Node4</title>
<g id="a_node4"><a xlink:href="structMoFEM_1_1ForcesAndSourcesCore_1_1UserDataOperator.html" target="_top" xlink:title=" ">
<polygon fill="white" stroke="black" points="161,-104.5 161,-134.5 331,-134.5 331,-104.5 161,-104.5"/>
<text text-anchor="start" x="169" y="-122.5" font-family="Helvetica,sans-Serif" font-size="10.00">MoFEM::ForcesAndSourcesCore</text>
<text text-anchor="middle" x="246" y="-111.5" font-family="Helvetica,sans-Serif" font-size="10.00">::UserDataOperator</text>
</a>
</g>
</g>
<!-- Node4&#45;&gt;Node3 -->
<g id="edge3" class="edge">
<title>Node4&#45;&gt;Node3</title>
<path fill="none" stroke="midnightblue" d="M341.42,-119.5C349.89,-119.5 358.47,-119.5 366.93,-119.5"/>
<polygon fill="midnightblue" stroke="midnightblue" points="341.16,-116 331.16,-119.5 341.16,-123 341.16,-116"/>
</g>
<!-- Node5 -->
<g id="node5" class="node">
<title>Node5</title>
<g id="a_node5"><a xlink:href="structMoFEM_1_1DataOperator.html" target="_top" xlink:title="base operator to do operations at Gauss Pt. level">
<polygon fill="white" stroke="black" points="0,-110 0,-129 125,-129 125,-110 0,-110"/>
<text text-anchor="middle" x="62.5" y="-117" font-family="Helvetica,sans-Serif" font-size="10.00">MoFEM::DataOperator</text>
</a>
</g>
</g>
<!-- Node5&#45;&gt;Node4 -->
<g id="edge4" class="edge">
<title>Node5&#45;&gt;Node4</title>
<path fill="none" stroke="midnightblue" d="M135.34,-119.5C143.75,-119.5 152.4,-119.5 160.97,-119.5"/>
<polygon fill="midnightblue" stroke="midnightblue" points="135.2,-116 125.2,-119.5 135.2,-123 135.2,-116"/>
</g>
</g>
</svg>
