<?xml version="1.0" encoding="UTF-8" standalone="no"?>
<!DOCTYPE svg PUBLIC "-//W3C//DTD SVG 1.1//EN"
 "http://www.w3.org/Graphics/SVG/1.1/DTD/svg11.dtd">
<!-- Generated by graphviz version 2.43.0 (0)
 -->
<!-- Title: MoFEM::interface_FiniteElement&lt; T, T &gt; Pages: 1 -->
<svg width="372pt" height="601pt"
 viewBox="0.00 0.00 371.50 601.00" xmlns="http://www.w3.org/2000/svg" xmlns:xlink="http://www.w3.org/1999/xlink">
<g id="graph0" class="graph" transform="scale(1 1) rotate(0) translate(4 597)">
<title>MoFEM::interface_FiniteElement&lt; T, T &gt;</title>
<polygon fill="white" stroke="transparent" points="-4,4 -4,-597 367.5,-597 367.5,4 -4,4"/>
<!-- Node1 -->
<g id="node1" class="node">
<title>Node1</title>
<g id="a_node1"><a xlink:title=" ">
<polygon fill="#bfbfbf" stroke="black" points="25,-203.5 25,-233.5 200,-233.5 200,-203.5 25,-203.5"/>
<text text-anchor="start" x="33" y="-221.5" font-family="Helvetica,sans-Serif" font-size="10.00">MoFEM::interface_FiniteElement</text>
<text text-anchor="middle" x="112.5" y="-210.5" font-family="Helvetica,sans-Serif" font-size="10.00">&lt; T, T &gt;</text>
</a>
</g>
</g>
<!-- Node8 -->
<g id="node8" class="node">
<title>Node8</title>
<g id="a_node8"><a xlink:href="structMoFEM_1_1interface__EntFiniteElement.html" target="_top" xlink:title="interface to EntFiniteElement">
<polygon fill="white" stroke="black" points="37.5,-135.5 37.5,-165.5 187.5,-165.5 187.5,-135.5 37.5,-135.5"/>
<text text-anchor="start" x="45.5" y="-153.5" font-family="Helvetica,sans-Serif" font-size="10.00">MoFEM::interface_EntFinite</text>
<text text-anchor="middle" x="112.5" y="-142.5" font-family="Helvetica,sans-Serif" font-size="10.00">Element&lt; T &gt;</text>
</a>
</g>
</g>
<!-- Node1&#45;&gt;Node8 -->
<g id="edge9" class="edge">
<title>Node1&#45;&gt;Node8</title>
<path fill="none" stroke="midnightblue" d="M112.5,-193.03C112.5,-183.86 112.5,-173.74 112.5,-165.79"/>
<polygon fill="midnightblue" stroke="midnightblue" points="109,-193.18 112.5,-203.18 116,-193.18 109,-193.18"/>
</g>
<!-- Node2 -->
<g id="node2" class="node">
<title>Node2</title>
<g id="a_node2"><a xlink:href="structMoFEM_1_1interface__FiniteElementImpl.html" target="_top" xlink:title=" ">
<polygon fill="white" stroke="black" points="25,-271.5 25,-301.5 200,-301.5 200,-271.5 25,-271.5"/>
<text text-anchor="start" x="33" y="-289.5" font-family="Helvetica,sans-Serif" font-size="10.00">MoFEM::interface_FiniteElement</text>
<text text-anchor="middle" x="112.5" y="-278.5" font-family="Helvetica,sans-Serif" font-size="10.00">Impl&lt; T, T &gt;</text>
</a>
</g>
</g>
<!-- Node2&#45;&gt;Node1 -->
<g id="edge1" class="edge">
<title>Node2&#45;&gt;Node1</title>
<path fill="none" stroke="midnightblue" d="M112.5,-261.03C112.5,-251.86 112.5,-241.74 112.5,-233.79"/>
<polygon fill="midnightblue" stroke="midnightblue" points="109,-261.18 112.5,-271.18 116,-261.18 109,-261.18"/>
</g>
<!-- Node3 -->
<g id="node3" class="node">
<title>Node3</title>
<g id="a_node3"><a xlink:href="structMoFEM_1_1interface__RefElement.html" target="_top" xlink:title="intrface to RefElement">
<polygon fill="white" stroke="black" points="0,-501 0,-520 193,-520 193,-501 0,-501"/>
<text text-anchor="middle" x="96.5" y="-508" font-family="Helvetica,sans-Serif" font-size="10.00">MoFEM::interface_RefElement&lt; T &gt;</text>
</a>
</g>
</g>
<!-- Node3&#45;&gt;Node2 -->
<g id="edge2" class="edge">
<title>Node3&#45;&gt;Node2</title>
<path fill="none" stroke="midnightblue" d="M97.85,-490.74C100.99,-447.18 108.72,-339.98 111.49,-301.52"/>
<polygon fill="midnightblue" stroke="midnightblue" points="94.36,-490.57 97.13,-500.8 101.34,-491.07 94.36,-490.57"/>
</g>
<!-- Node6 -->
<g id="node6" class="node">
<title>Node6</title>
<g id="a_node6"><a xlink:href="structMoFEM_1_1interface__RefElement.html" target="_top" xlink:title=" ">
<polygon fill="white" stroke="black" points="130.5,-417.5 130.5,-447.5 294.5,-447.5 294.5,-417.5 130.5,-417.5"/>
<text text-anchor="start" x="138.5" y="-435.5" font-family="Helvetica,sans-Serif" font-size="10.00">MoFEM::interface_RefElement</text>
<text text-anchor="middle" x="212.5" y="-424.5" font-family="Helvetica,sans-Serif" font-size="10.00">&lt; REFENT &gt;</text>
</a>
</g>
</g>
<!-- Node3&#45;&gt;Node6 -->
<g id="edge8" class="edge">
<title>Node3&#45;&gt;Node6</title>
<path fill="none" stroke="orange" stroke-dasharray="5,2" d="M118.31,-495.21C139.16,-481.55 170.39,-461.09 191.1,-447.52"/>
<polygon fill="orange" stroke="orange" points="116.25,-492.37 109.81,-500.78 120.09,-498.23 116.25,-492.37"/>
<text text-anchor="middle" x="192.5" y="-469" font-family="Helvetica,sans-Serif" font-size="10.00"> &lt; REFENT &gt;</text>
</g>
<!-- Node4 -->
<g id="node4" class="node">
<title>Node4</title>
<g id="a_node4"><a xlink:href="structMoFEM_1_1interface__RefEntity.html" target="_top" xlink:title="interface to RefEntity">
<polygon fill="white" stroke="black" points="101,-573.5 101,-592.5 282,-592.5 282,-573.5 101,-573.5"/>
<text text-anchor="middle" x="191.5" y="-580.5" font-family="Helvetica,sans-Serif" font-size="10.00">MoFEM::interface_RefEntity&lt; T &gt;</text>
</a>
</g>
</g>
<!-- Node4&#45;&gt;Node3 -->
<g id="edge3" class="edge">
<title>Node4&#45;&gt;Node3</title>
<path fill="none" stroke="midnightblue" d="M171.77,-567.36C152.6,-553.13 124.11,-531.99 108.24,-520.22"/>
<polygon fill="midnightblue" stroke="midnightblue" points="169.74,-570.21 179.85,-573.36 173.91,-564.59 169.74,-570.21"/>
</g>
<!-- Node7 -->
<g id="node7" class="node">
<title>Node7</title>
<g id="a_node7"><a xlink:href="structMoFEM_1_1interface__RefEntity.html" target="_top" xlink:title=" ">
<polygon fill="white" stroke="black" points="211.5,-495.5 211.5,-525.5 363.5,-525.5 363.5,-495.5 211.5,-495.5"/>
<text text-anchor="start" x="219.5" y="-513.5" font-family="Helvetica,sans-Serif" font-size="10.00">MoFEM::interface_RefEntity</text>
<text text-anchor="middle" x="287.5" y="-502.5" font-family="Helvetica,sans-Serif" font-size="10.00">&lt; REFENT &gt;</text>
</a>
</g>
</g>
<!-- Node4&#45;&gt;Node7 -->
<g id="edge7" class="edge">
<title>Node4&#45;&gt;Node7</title>
<path fill="none" stroke="orange" stroke-dasharray="5,2" d="M211.75,-567.13C228.44,-554.87 251.95,-537.61 268.33,-525.58"/>
<polygon fill="orange" stroke="orange" points="209.26,-564.62 203.27,-573.36 213.4,-570.26 209.26,-564.62"/>
<text text-anchor="middle" x="273.5" y="-547" font-family="Helvetica,sans-Serif" font-size="10.00"> &lt; REFENT &gt;</text>
</g>
<!-- Node5 -->
<g id="node5" class="node">
<title>Node5</title>
<g id="a_node5"><a xlink:href="structMoFEM_1_1interface__FiniteElementImpl.html" target="_top" xlink:title="Inetface for FE.">
<polygon fill="white" stroke="black" points="125,-349.5 125,-379.5 300,-379.5 300,-349.5 125,-349.5"/>
<text text-anchor="start" x="133" y="-367.5" font-family="Helvetica,sans-Serif" font-size="10.00">MoFEM::interface_FiniteElement</text>
<text text-anchor="middle" x="212.5" y="-356.5" font-family="Helvetica,sans-Serif" font-size="10.00">Impl&lt; FE, REFENT &gt;</text>
</a>
</g>
</g>
<!-- Node5&#45;&gt;Node2 -->
<g id="edge4" class="edge">
<title>Node5&#45;&gt;Node2</title>
<path fill="none" stroke="orange" stroke-dasharray="5,2" d="M185.67,-343.11C168.47,-330.04 146.57,-313.39 131.22,-301.73"/>
<polygon fill="orange" stroke="orange" points="183.61,-345.94 193.69,-349.2 187.85,-340.37 183.61,-345.94"/>
<text text-anchor="middle" x="189.5" y="-323" font-family="Helvetica,sans-Serif" font-size="10.00"> &lt; T, T &gt;</text>
</g>
<!-- Node6&#45;&gt;Node5 -->
<g id="edge5" class="edge">
<title>Node6&#45;&gt;Node5</title>
<path fill="none" stroke="midnightblue" d="M212.5,-407.03C212.5,-397.86 212.5,-387.74 212.5,-379.79"/>
<polygon fill="midnightblue" stroke="midnightblue" points="209,-407.18 212.5,-417.18 216,-407.18 209,-407.18"/>
</g>
<!-- Node7&#45;&gt;Node6 -->
<g id="edge6" class="edge">
<title>Node7&#45;&gt;Node6</title>
<path fill="none" stroke="midnightblue" d="M266.32,-488.03C253.58,-475.13 237.74,-459.07 226.54,-447.73"/>
<polygon fill="midnightblue" stroke="midnightblue" points="263.88,-490.55 273.39,-495.2 268.86,-485.63 263.88,-490.55"/>
</g>
<!-- Node9 -->
<g id="node9" class="node">
<title>Node9</title>
<g id="a_node9"><a xlink:href="structMoFEM_1_1interface__EntFiniteElement.html" target="_top" xlink:title=" ">
<polygon fill="white" stroke="black" points="31,-57.5 31,-87.5 194,-87.5 194,-57.5 31,-57.5"/>
<text text-anchor="start" x="39" y="-75.5" font-family="Helvetica,sans-Serif" font-size="10.00">MoFEM::interface_EntFinite</text>
<text text-anchor="middle" x="112.5" y="-64.5" font-family="Helvetica,sans-Serif" font-size="10.00">Element&lt; EntFiniteElement &gt;</text>
</a>
</g>
</g>
<!-- Node8&#45;&gt;Node9 -->
<g id="edge10" class="edge">
<title>Node8&#45;&gt;Node9</title>
<path fill="none" stroke="orange" stroke-dasharray="5,2" d="M112.5,-125.09C112.5,-112.76 112.5,-98.22 112.5,-87.73"/>
<polygon fill="orange" stroke="orange" points="109,-125.2 112.5,-135.2 116,-125.21 109,-125.2"/>
<text text-anchor="middle" x="167" y="-109" font-family="Helvetica,sans-Serif" font-size="10.00"> &lt; EntFiniteElement &gt;</text>
</g>
<!-- Node10 -->
<g id="node10" class="node">
<title>Node10</title>
<g id="a_node10"><a xlink:href="structMoFEM_1_1NumeredEntFiniteElement.html" target="_top" xlink:title="Partitioned (Indexed) Finite Element in Problem.">
<polygon fill="white" stroke="black" points="19,-0.5 19,-19.5 206,-19.5 206,-0.5 19,-0.5"/>
<text text-anchor="middle" x="112.5" y="-7.5" font-family="Helvetica,sans-Serif" font-size="10.00">MoFEM::NumeredEntFiniteElement</text>
</a>
</g>
</g>
<!-- Node9&#45;&gt;Node10 -->
<g id="edge11" class="edge">
<title>Node9&#45;&gt;Node10</title>
<path fill="none" stroke="midnightblue" d="M112.5,-47.35C112.5,-37.51 112.5,-26.78 112.5,-19.54"/>
<polygon fill="midnightblue" stroke="midnightblue" points="109,-47.47 112.5,-57.47 116,-47.47 109,-47.47"/>
</g>
</g>
</svg>
