<?xml version="1.0" encoding="UTF-8" standalone="no"?>
<!DOCTYPE svg PUBLIC "-//W3C//DTD SVG 1.1//EN"
 "http://www.w3.org/Graphics/SVG/1.1/DTD/svg11.dtd">
<!-- Generated by graphviz version 2.43.0 (0)
 -->
<!-- Title: CellEngineering::OpCellCurlD Pages: 1 -->
<svg width="3447pt" height="1333pt"
 viewBox="0.00 0.00 3447.00 1333.00" xmlns="http://www.w3.org/2000/svg" xmlns:xlink="http://www.w3.org/1999/xlink">
<g id="graph0" class="graph" transform="scale(1 1) rotate(0) translate(4 1329)">
<title>CellEngineering::OpCellCurlD</title>
<polygon fill="white" stroke="transparent" points="-4,4 -4,-1329 3443,-1329 3443,4 -4,4"/>
<!-- Node1 -->
<g id="node1" class="node">
<title>Node1</title>
<g id="a_node1"><a xlink:title="Calculate and assemble Z matrix.">
<polygon fill="#bfbfbf" stroke="black" points="3281,-671.5 3281,-690.5 3439,-690.5 3439,-671.5 3281,-671.5"/>
<text text-anchor="middle" x="3360" y="-678.5" font-family="Helvetica,sans-Serif" font-size="10.00">CellEngineering::OpCellCurlD</text>
</a>
</g>
</g>
<!-- Node2 -->
<g id="node2" class="node">
<title>Node2</title>
<g id="a_node2"><a xlink:href="structMoFEM_1_1FaceElementForcesAndSourcesCore_1_1UserDataOperator.html" target="_top" xlink:title="default operator for TRI element">
<polygon fill="white" stroke="black" points="3044,-851 3044,-881 3235,-881 3235,-851 3044,-851"/>
<text text-anchor="start" x="3052" y="-869" font-family="Helvetica,sans-Serif" font-size="10.00">MoFEM::FaceElementForces</text>
<text text-anchor="middle" x="3139.5" y="-858" font-family="Helvetica,sans-Serif" font-size="10.00">AndSourcesCore::UserDataOperator</text>
</a>
</g>
</g>
<!-- Node2&#45;&gt;Node1 -->
<g id="edge1" class="edge">
<title>Node2&#45;&gt;Node1</title>
<path fill="none" stroke="midnightblue" d="M3166.08,-844.34C3213.61,-804.1 3313.81,-719.27 3347.6,-690.66"/>
<polygon fill="midnightblue" stroke="midnightblue" points="3163.75,-841.73 3158.38,-850.86 3168.27,-847.07 3163.75,-841.73"/>
</g>
<!-- Node3 -->
<g id="node3" class="node">
<title>Node3</title>
<g id="a_node3"><a xlink:href="structMoFEM_1_1ForcesAndSourcesCore_1_1UserDataOperator.html" target="_top" xlink:title=" ">
<polygon fill="white" stroke="black" points="2837,-959 2837,-989 3007,-989 3007,-959 2837,-959"/>
<text text-anchor="start" x="2845" y="-977" font-family="Helvetica,sans-Serif" font-size="10.00">MoFEM::ForcesAndSourcesCore</text>
<text text-anchor="middle" x="2922" y="-966" font-family="Helvetica,sans-Serif" font-size="10.00">::UserDataOperator</text>
</a>
</g>
</g>
<!-- Node3&#45;&gt;Node2 -->
<g id="edge2" class="edge">
<title>Node3&#45;&gt;Node2</title>
<path fill="none" stroke="midnightblue" d="M2962.08,-954.41C3004.17,-933.32 3070.23,-900.21 3108.44,-881.06"/>
<polygon fill="midnightblue" stroke="midnightblue" points="2960.34,-951.37 2952.96,-958.98 2963.47,-957.63 2960.34,-951.37"/>
</g>
<!-- Node4 -->
<g id="node4" class="node">
<title>Node4</title>
<g id="a_node4"><a xlink:href="structMoFEM_1_1DataOperator.html" target="_top" xlink:title="base operator to do operations at Gauss Pt. level">
<polygon fill="white" stroke="black" points="2579.5,-1069.5 2579.5,-1088.5 2704.5,-1088.5 2704.5,-1069.5 2579.5,-1069.5"/>
<text text-anchor="middle" x="2642" y="-1076.5" font-family="Helvetica,sans-Serif" font-size="10.00">MoFEM::DataOperator</text>
</a>
</g>
</g>
<!-- Node4&#45;&gt;Node3 -->
<g id="edge3" class="edge">
<title>Node4&#45;&gt;Node3</title>
<path fill="none" stroke="midnightblue" d="M2677.56,-1065.95C2729.25,-1046.42 2826.43,-1009.72 2881.07,-989.08"/>
<polygon fill="midnightblue" stroke="midnightblue" points="2676.28,-1062.69 2668.16,-1069.5 2678.75,-1069.24 2676.28,-1062.69"/>
</g>
<!-- Node5 -->
<g id="node5" class="node">
<title>Node5</title>
<g id="a_node5"><a xlink:title=" ">
<polygon fill="white" stroke="#bfbfbf" points="2160,-1149 2160,-1201 2352,-1201 2352,-1149 2160,-1149"/>
<text text-anchor="start" x="2168" y="-1189" font-family="Helvetica,sans-Serif" font-size="10.00">function&lt; MoFEMErrorCode</text>
<text text-anchor="start" x="2168" y="-1178" font-family="Helvetica,sans-Serif" font-size="10.00">(DataOperator *op_ptr,</text>
<text text-anchor="start" x="2168" y="-1167" font-family="Helvetica,sans-Serif" font-size="10.00"> int side, EntityType type,</text>
<text text-anchor="middle" x="2256" y="-1156" font-family="Helvetica,sans-Serif" font-size="10.00"> EntitiesFieldData::EntData &amp;data)&gt;</text>
</a>
</g>
</g>
<!-- Node5&#45;&gt;Node4 -->
<g id="edge4" class="edge">
<title>Node5&#45;&gt;Node4</title>
<path fill="none" stroke="#9a32cd" stroke-dasharray="5,2" d="M2362.27,-1182.62C2416.63,-1183.03 2483.1,-1177.93 2539,-1157 2578.88,-1142.07 2616.03,-1106 2632.32,-1088.64"/>
<polygon fill="#9a32cd" stroke="#9a32cd" points="2362.31,-1179.12 2352.26,-1182.48 2362.22,-1186.12 2362.31,-1179.12"/>
<text text-anchor="middle" x="2458" y="-1185" font-family="Helvetica,sans-Serif" font-size="10.00"> doWorkRhsHook</text>
</g>
<!-- Node6 -->
<g id="node6" class="node">
<title>Node6</title>
<g id="a_node6"><a xlink:href="classbool.html" target="_top" xlink:title=" ">
<polygon fill="white" stroke="black" points="2237,-1106.5 2237,-1125.5 2275,-1125.5 2275,-1106.5 2237,-1106.5"/>
<text text-anchor="middle" x="2256" y="-1113.5" font-family="Helvetica,sans-Serif" font-size="10.00">bool</text>
</a>
</g>
</g>
<!-- Node6&#45;&gt;Node4 -->
<g id="edge5" class="edge">
<title>Node6&#45;&gt;Node4</title>
<path fill="none" stroke="#9a32cd" stroke-dasharray="5,2" d="M2285.34,-1115.01C2306.61,-1113.28 2335.92,-1108.74 2359,-1097 2368.81,-1092.01 2366.78,-1084.08 2377,-1080 2449.35,-1051.08 2542.03,-1060.13 2596.13,-1069.47"/>
<polygon fill="#9a32cd" stroke="#9a32cd" points="2285.06,-1111.52 2275.31,-1115.67 2285.52,-1118.51 2285.06,-1111.52"/>
<text text-anchor="middle" x="2458" y="-1149" font-family="Helvetica,sans-Serif" font-size="10.00"> doTris</text>
<text text-anchor="middle" x="2458" y="-1138" font-family="Helvetica,sans-Serif" font-size="10.00">doQuads</text>
<text text-anchor="middle" x="2458" y="-1127" font-family="Helvetica,sans-Serif" font-size="10.00">sYmm</text>
<text text-anchor="middle" x="2458" y="-1116" font-family="Helvetica,sans-Serif" font-size="10.00">doPrisms</text>
<text text-anchor="middle" x="2458" y="-1105" font-family="Helvetica,sans-Serif" font-size="10.00">doTets</text>
<text text-anchor="middle" x="2458" y="-1094" font-family="Helvetica,sans-Serif" font-size="10.00">doVertices</text>
<text text-anchor="middle" x="2458" y="-1083" font-family="Helvetica,sans-Serif" font-size="10.00">doEdges</text>
</g>
<!-- Node7 -->
<g id="node7" class="node">
<title>Node7</title>
<g id="a_node7"><a xlink:title=" ">
<polygon fill="white" stroke="#bfbfbf" points="2153,-1002.5 2153,-1087.5 2359,-1087.5 2359,-1002.5 2153,-1002.5"/>
<text text-anchor="start" x="2161" y="-1075.5" font-family="Helvetica,sans-Serif" font-size="10.00">function&lt; MoFEMErrorCode</text>
<text text-anchor="start" x="2161" y="-1064.5" font-family="Helvetica,sans-Serif" font-size="10.00">(DataOperator *op_ptr,</text>
<text text-anchor="start" x="2161" y="-1053.5" font-family="Helvetica,sans-Serif" font-size="10.00"> int row_side, int col_side,</text>
<text text-anchor="start" x="2161" y="-1042.5" font-family="Helvetica,sans-Serif" font-size="10.00"> EntityType row_type, EntityType</text>
<text text-anchor="start" x="2161" y="-1031.5" font-family="Helvetica,sans-Serif" font-size="10.00"> col_type, EntitiesFieldData::EntData</text>
<text text-anchor="start" x="2161" y="-1020.5" font-family="Helvetica,sans-Serif" font-size="10.00"> &amp;row_data, EntitiesFieldData::EntData</text>
<text text-anchor="middle" x="2256" y="-1009.5" font-family="Helvetica,sans-Serif" font-size="10.00"> &amp;col_data)&gt;</text>
</a>
</g>
</g>
<!-- Node7&#45;&gt;Node4 -->
<g id="edge6" class="edge">
<title>Node7&#45;&gt;Node4</title>
<path fill="none" stroke="#9a32cd" stroke-dasharray="5,2" d="M2369.34,-1037.49C2421.27,-1036.03 2483.59,-1037.16 2539,-1046 2567.12,-1050.49 2598.06,-1061.4 2618.41,-1069.45"/>
<polygon fill="#9a32cd" stroke="#9a32cd" points="2368.98,-1034 2359.09,-1037.81 2369.2,-1040.99 2368.98,-1034"/>
<text text-anchor="middle" x="2458" y="-1049" font-family="Helvetica,sans-Serif" font-size="10.00"> doWorkLhsHook</text>
</g>
<!-- Node8 -->
<g id="node8" class="node">
<title>Node8</title>
<g id="a_node8"><a xlink:title=" ">
<polygon fill="white" stroke="#bfbfbf" points="2179,-1220.5 2179,-1239.5 2333,-1239.5 2333,-1220.5 2179,-1220.5"/>
<text text-anchor="middle" x="2256" y="-1227.5" font-family="Helvetica,sans-Serif" font-size="10.00">array&lt; bool, MBMAXTYPE &gt;</text>
</a>
</g>
</g>
<!-- Node8&#45;&gt;Node4 -->
<g id="edge7" class="edge">
<title>Node8&#45;&gt;Node4</title>
<path fill="none" stroke="#9a32cd" stroke-dasharray="5,2" d="M2343.54,-1235.73C2401.94,-1235.92 2479.01,-1228.79 2539,-1197 2587.57,-1171.26 2623.25,-1112.15 2635.94,-1088.77"/>
<polygon fill="#9a32cd" stroke="#9a32cd" points="2343.27,-1232.23 2333.23,-1235.62 2343.19,-1239.23 2343.27,-1232.23"/>
<text text-anchor="middle" x="2458" y="-1238" font-family="Helvetica,sans-Serif" font-size="10.00"> doEntities</text>
</g>
<!-- Node9 -->
<g id="node9" class="node">
<title>Node9</title>
<g id="a_node9"><a xlink:title=" ">
<polygon fill="white" stroke="#bfbfbf" points="2607.5,-1002.5 2607.5,-1021.5 2676.5,-1021.5 2676.5,-1002.5 2607.5,-1002.5"/>
<text text-anchor="middle" x="2642" y="-1009.5" font-family="Helvetica,sans-Serif" font-size="10.00">FieldSpace</text>
</a>
</g>
</g>
<!-- Node9&#45;&gt;Node3 -->
<g id="edge8" class="edge">
<title>Node9&#45;&gt;Node3</title>
<path fill="none" stroke="#9a32cd" stroke-dasharray="5,2" d="M2686.8,-1006.04C2722.41,-1001.19 2773.95,-994.16 2819,-988 2824.84,-987.2 2830.88,-986.37 2836.95,-985.54"/>
<polygon fill="#9a32cd" stroke="#9a32cd" points="2686.18,-1002.59 2676.74,-1007.41 2687.12,-1009.53 2686.18,-1002.59"/>
<text text-anchor="middle" x="2782" y="-1000" font-family="Helvetica,sans-Serif" font-size="10.00"> sPace</text>
</g>
<!-- Node10 -->
<g id="node10" class="node">
<title>Node10</title>
<g id="a_node10"><a xlink:title=" ">
<polygon fill="white" stroke="#bfbfbf" points="1122.5,-1257.5 1122.5,-1276.5 1160.5,-1276.5 1160.5,-1257.5 1122.5,-1257.5"/>
<text text-anchor="middle" x="1141.5" y="-1264.5" font-family="Helvetica,sans-Serif" font-size="10.00">char</text>
</a>
</g>
</g>
<!-- Node10&#45;&gt;Node3 -->
<g id="edge9" class="edge">
<title>Node10&#45;&gt;Node3</title>
<path fill="none" stroke="#9a32cd" stroke-dasharray="5,2" d="M1170.82,-1267.13C1230.98,-1267.41 1375.95,-1268 1497.5,-1268 1497.5,-1268 1497.5,-1268 2643,-1268 2797.89,-1268 2892.2,-1049.89 2915.38,-989.39"/>
<polygon fill="#9a32cd" stroke="#9a32cd" points="1170.62,-1263.63 1160.6,-1267.09 1170.59,-1270.63 1170.62,-1263.63"/>
<text text-anchor="middle" x="2063" y="-1271" font-family="Helvetica,sans-Serif" font-size="10.00"> opType</text>
</g>
<!-- Node38 -->
<g id="node38" class="node">
<title>Node38</title>
<g id="a_node38"><a xlink:href="structMoFEM_1_1Problem.html" target="_top" xlink:title="keeps basic data about problem">
<polygon fill="white" stroke="black" points="1449,-981.5 1449,-1000.5 1548,-1000.5 1548,-981.5 1449,-981.5"/>
<text text-anchor="middle" x="1498.5" y="-988.5" font-family="Helvetica,sans-Serif" font-size="10.00">MoFEM::Problem</text>
</a>
</g>
</g>
<!-- Node10&#45;&gt;Node38 -->
<g id="edge53" class="edge">
<title>Node10&#45;&gt;Node38</title>
<path fill="none" stroke="#9a32cd" stroke-dasharray="5,2" d="M1170.85,-1262.3C1191.06,-1258.78 1218.81,-1253.64 1243,-1248 1251.09,-1246.12 1252.9,-1244.81 1261,-1243 1290.92,-1236.33 1376.23,-1242.54 1397,-1220 1428.73,-1185.55 1384.29,-1045.37 1415,-1010 1423.58,-1000.12 1436.16,-994.82 1448.93,-992.1"/>
<polygon fill="#9a32cd" stroke="#9a32cd" points="1170.02,-1258.89 1160.75,-1264.02 1171.2,-1265.79 1170.02,-1258.89"/>
<text text-anchor="middle" x="1329" y="-1246" font-family="Helvetica,sans-Serif" font-size="10.00"> tagName</text>
</g>
<!-- Node11 -->
<g id="node11" class="node">
<title>Node11</title>
<g id="a_node11"><a xlink:href="structMoFEM_1_1ForcesAndSourcesCore.html" target="_top" xlink:title="structure to get information form mofem into EntitiesFieldData">
<polygon fill="white" stroke="black" points="2557,-651.5 2557,-670.5 2727,-670.5 2727,-651.5 2557,-651.5"/>
<text text-anchor="middle" x="2642" y="-658.5" font-family="Helvetica,sans-Serif" font-size="10.00">MoFEM::ForcesAndSourcesCore</text>
</a>
</g>
</g>
<!-- Node11&#45;&gt;Node3 -->
<g id="edge10" class="edge">
<title>Node11&#45;&gt;Node3</title>
<path fill="none" stroke="#9a32cd" stroke-dasharray="5,2" d="M2658.36,-678.29C2707.63,-733.77 2861.21,-906.68 2907.6,-958.91"/>
<polygon fill="#9a32cd" stroke="#9a32cd" points="2660.88,-675.86 2651.62,-670.71 2655.65,-680.51 2660.88,-675.86"/>
<text text-anchor="middle" x="2782" y="-857" font-family="Helvetica,sans-Serif" font-size="10.00"> ptrFE</text>
</g>
<!-- Node11&#45;&gt;Node11 -->
<g id="edge68" class="edge">
<title>Node11&#45;&gt;Node11</title>
<path fill="none" stroke="#9a32cd" stroke-dasharray="5,2" d="M2615.96,-680.03C2617.38,-685.13 2626.06,-689 2642,-689 2666.88,-689 2674.08,-679.57 2663.58,-670.76"/>
<polygon fill="#9a32cd" stroke="#9a32cd" points="2619.24,-681.29 2620.42,-670.76 2612.93,-678.25 2619.24,-681.29"/>
<text text-anchor="middle" x="2642" y="-703" font-family="Helvetica,sans-Serif" font-size="10.00"> sidePtrFE</text>
<text text-anchor="middle" x="2642" y="-692" font-family="Helvetica,sans-Serif" font-size="10.00">refinePtrFE</text>
</g>
<!-- Node12 -->
<g id="node12" class="node">
<title>Node12</title>
<g id="a_node12"><a xlink:href="structMoFEM_1_1FEMethod.html" target="_top" xlink:title="structure for User Loop Methods on finite elements">
<polygon fill="white" stroke="black" points="2202.5,-727.5 2202.5,-746.5 2309.5,-746.5 2309.5,-727.5 2202.5,-727.5"/>
<text text-anchor="middle" x="2256" y="-734.5" font-family="Helvetica,sans-Serif" font-size="10.00">MoFEM::FEMethod</text>
</a>
</g>
</g>
<!-- Node12&#45;&gt;Node11 -->
<g id="edge11" class="edge">
<title>Node12&#45;&gt;Node11</title>
<path fill="none" stroke="midnightblue" d="M2319.75,-730.38C2377.27,-723.61 2464.55,-711.6 2539,-694 2565.44,-687.75 2594.9,-677.89 2615.33,-670.58"/>
<polygon fill="midnightblue" stroke="midnightblue" points="2319.25,-726.91 2309.72,-731.54 2320.06,-733.87 2319.25,-726.91"/>
</g>
<!-- Node13 -->
<g id="node13" class="node">
<title>Node13</title>
<g id="a_node13"><a xlink:href="structMoFEM_1_1BasicMethod.html" target="_top" xlink:title="Data structure to exchange data between mofem and User Loop Methods.">
<polygon fill="white" stroke="black" points="1825,-624.5 1825,-643.5 1947,-643.5 1947,-624.5 1825,-624.5"/>
<text text-anchor="middle" x="1886" y="-631.5" font-family="Helvetica,sans-Serif" font-size="10.00">MoFEM::BasicMethod</text>
</a>
</g>
</g>
<!-- Node13&#45;&gt;Node12 -->
<g id="edge12" class="edge">
<title>Node13&#45;&gt;Node12</title>
<path fill="none" stroke="midnightblue" d="M1957.24,-628.32C2011.3,-627.69 2084.99,-635.46 2135,-675 2151.25,-687.85 2136.88,-704.98 2153,-718 2166.8,-729.15 2185.09,-734.53 2202.36,-736.93"/>
<polygon fill="midnightblue" stroke="midnightblue" points="1956.97,-624.82 1947.04,-628.53 1957.12,-631.82 1956.97,-624.82"/>
</g>
<!-- Node14 -->
<g id="node14" class="node">
<title>Node14</title>
<g id="a_node14"><a xlink:href="structMoFEM_1_1KspMethod.html" target="_top" xlink:title="data structure for ksp (linear solver) context">
<polygon fill="white" stroke="black" points="1442,-477.5 1442,-496.5 1555,-496.5 1555,-477.5 1442,-477.5"/>
<text text-anchor="middle" x="1498.5" y="-484.5" font-family="Helvetica,sans-Serif" font-size="10.00">MoFEM::KspMethod</text>
</a>
</g>
</g>
<!-- Node14&#45;&gt;Node13 -->
<g id="edge13" class="edge">
<title>Node14&#45;&gt;Node13</title>
<path fill="none" stroke="midnightblue" d="M1534.17,-500.22C1610.86,-529.46 1793.38,-599.06 1860.06,-624.49"/>
<polygon fill="midnightblue" stroke="midnightblue" points="1535.09,-496.82 1524.5,-496.53 1532.59,-503.37 1535.09,-496.82"/>
</g>
<!-- Node15 -->
<g id="node15" class="node">
<title>Node15</title>
<g id="a_node15"><a xlink:href="structMoFEM_1_1PetscData.html" target="_top" xlink:title=" ">
<polygon fill="white" stroke="black" points="1087.5,-298.5 1087.5,-317.5 1195.5,-317.5 1195.5,-298.5 1087.5,-298.5"/>
<text text-anchor="middle" x="1141.5" y="-305.5" font-family="Helvetica,sans-Serif" font-size="10.00">MoFEM::PetscData</text>
</a>
</g>
</g>
<!-- Node15&#45;&gt;Node14 -->
<g id="edge14" class="edge">
<title>Node15&#45;&gt;Node14</title>
<path fill="none" stroke="midnightblue" d="M1199.5,-319.83C1213.83,-323.29 1229.09,-327.4 1243,-332 1313.69,-355.4 1334.1,-358.14 1397,-398 1434.6,-421.83 1472.04,-459.64 1488.63,-477.31"/>
<polygon fill="midnightblue" stroke="midnightblue" points="1200.29,-316.42 1189.75,-317.54 1198.68,-323.23 1200.29,-316.42"/>
</g>
<!-- Node25 -->
<g id="node25" class="node">
<title>Node25</title>
<g id="a_node25"><a xlink:href="structMoFEM_1_1SnesMethod.html" target="_top" xlink:title="data structure for snes (nonlinear solver) context">
<polygon fill="white" stroke="black" points="1439,-632.5 1439,-651.5 1558,-651.5 1558,-632.5 1439,-632.5"/>
<text text-anchor="middle" x="1498.5" y="-639.5" font-family="Helvetica,sans-Serif" font-size="10.00">MoFEM::SnesMethod</text>
</a>
</g>
</g>
<!-- Node15&#45;&gt;Node25 -->
<g id="edge27" class="edge">
<title>Node15&#45;&gt;Node25</title>
<path fill="none" stroke="darkgreen" d="M1205.58,-313.09C1219.19,-316.75 1232.59,-322.63 1243,-332 1260.86,-348.08 1245.35,-364.75 1261,-383 1305.65,-435.08 1352.19,-404.06 1397,-456 1412.43,-473.88 1404.82,-484.69 1415,-506 1438.8,-555.84 1475.76,-610.81 1490.8,-632.48"/>
<polygon fill="darkgreen" stroke="darkgreen" points="1206.21,-309.64 1195.68,-310.8 1204.64,-316.46 1206.21,-309.64"/>
</g>
<!-- Node28 -->
<g id="node28" class="node">
<title>Node28</title>
<g id="a_node28"><a xlink:href="structMoFEM_1_1TSMethod.html" target="_top" xlink:title="data structure for TS (time stepping) context">
<polygon fill="white" stroke="black" points="1445,-252.5 1445,-271.5 1552,-271.5 1552,-252.5 1445,-252.5"/>
<text text-anchor="middle" x="1498.5" y="-259.5" font-family="Helvetica,sans-Serif" font-size="10.00">MoFEM::TSMethod</text>
</a>
</g>
</g>
<!-- Node15&#45;&gt;Node28 -->
<g id="edge33" class="edge">
<title>Node15&#45;&gt;Node28</title>
<path fill="none" stroke="darkgreen" d="M1205.82,-299.79C1273.98,-290.96 1381.16,-277.08 1444.86,-268.82"/>
<polygon fill="darkgreen" stroke="darkgreen" points="1205.11,-296.36 1195.65,-301.11 1206.01,-303.3 1205.11,-296.36"/>
</g>
<!-- Node16 -->
<g id="node16" class="node">
<title>Node16</title>
<g id="a_node16"><a xlink:href="structMoFEM_1_1UnknownInterface.html" target="_top" xlink:title="base class for all interface classes">
<polygon fill="white" stroke="black" points="735,-93.5 735,-112.5 883,-112.5 883,-93.5 735,-93.5"/>
<text text-anchor="middle" x="809" y="-100.5" font-family="Helvetica,sans-Serif" font-size="10.00">MoFEM::UnknownInterface</text>
</a>
</g>
</g>
<!-- Node16&#45;&gt;Node15 -->
<g id="edge15" class="edge">
<title>Node16&#45;&gt;Node15</title>
<path fill="none" stroke="midnightblue" d="M893.35,-113.58C948.72,-121.42 1012.88,-132.35 1022,-142 1065.71,-188.22 997.52,-236.65 1040,-284 1051.98,-297.35 1069.93,-303.94 1087.37,-307"/>
<polygon fill="midnightblue" stroke="midnightblue" points="893.51,-110.07 883.12,-112.16 892.54,-117.01 893.51,-110.07"/>
</g>
<!-- Node56 -->
<g id="node56" class="node">
<title>Node56</title>
<g id="a_node56"><a xlink:href="structMoFEM_1_1CoreInterface.html" target="_top" xlink:title="Interface.">
<polygon fill="white" stroke="black" points="1079,-28.5 1079,-47.5 1204,-47.5 1204,-28.5 1079,-28.5"/>
<text text-anchor="middle" x="1141.5" y="-35.5" font-family="Helvetica,sans-Serif" font-size="10.00">MoFEM::CoreInterface</text>
</a>
</g>
</g>
<!-- Node16&#45;&gt;Node56 -->
<g id="edge67" class="edge">
<title>Node16&#45;&gt;Node56</title>
<path fill="none" stroke="midnightblue" d="M871.2,-113.64C916.3,-118.19 977.32,-117.15 1022,-89 1035.81,-80.3 1026.74,-66.52 1040,-57 1051.32,-48.87 1065.15,-43.94 1078.89,-41.01"/>
<polygon fill="midnightblue" stroke="midnightblue" points="871.59,-110.16 861.26,-112.52 870.8,-117.12 871.59,-110.16"/>
</g>
<!-- Node17 -->
<g id="node17" class="node">
<title>Node17</title>
<g id="a_node17"><a xlink:title=" ">
<polygon fill="white" stroke="#bfbfbf" points="386,-49.5 386,-112.5 627,-112.5 627,-49.5 386,-49.5"/>
<text text-anchor="start" x="394" y="-100.5" font-family="Helvetica,sans-Serif" font-size="10.00">multi_index_container</text>
<text text-anchor="start" x="394" y="-89.5" font-family="Helvetica,sans-Serif" font-size="10.00">&lt; UIdTypeMap, indexed</text>
<text text-anchor="start" x="394" y="-78.5" font-family="Helvetica,sans-Serif" font-size="10.00">_by&lt; hashed_unique&lt; member</text>
<text text-anchor="start" x="394" y="-67.5" font-family="Helvetica,sans-Serif" font-size="10.00">&lt; UIdTypeMap, boost::typeindex</text>
<text text-anchor="middle" x="506.5" y="-56.5" font-family="Helvetica,sans-Serif" font-size="10.00">::type_index, &amp;UIdTypeMap::classIdx &gt; &gt; &gt; &gt;</text>
</a>
</g>
</g>
<!-- Node17&#45;&gt;Node16 -->
<g id="edge16" class="edge">
<title>Node17&#45;&gt;Node16</title>
<path fill="none" stroke="#9a32cd" stroke-dasharray="5,2" d="M637.41,-90.51C670.69,-92.95 705.33,-95.48 734.62,-97.63"/>
<polygon fill="#9a32cd" stroke="#9a32cd" points="637.36,-87 627.13,-89.76 636.85,-93.98 637.36,-87"/>
<text text-anchor="middle" x="681" y="-99" font-family="Helvetica,sans-Serif" font-size="10.00"> iFaceTypeMap</text>
</g>
<!-- Node18 -->
<g id="node18" class="node">
<title>Node18</title>
<g id="a_node18"><a xlink:title=" ">
<polygon fill="white" stroke="#bfbfbf" points="0,-6.5 0,-25.5 125,-25.5 125,-6.5 0,-6.5"/>
<text text-anchor="middle" x="62.5" y="-13.5" font-family="Helvetica,sans-Serif" font-size="10.00">multi_index_container</text>
</a>
</g>
</g>
<!-- Node18&#45;&gt;Node13 -->
<g id="edge40" class="edge">
<title>Node18&#45;&gt;Node13</title>
<path fill="none" stroke="#9a32cd" stroke-dasharray="5,2" d="M135.41,-11.8C222.85,-7.06 374.95,0 505.5,0 505.5,0 505.5,0 1142.5,0 1245.86,0 1695.27,-76.93 1781,-167 1847.43,-236.79 1878.87,-563.63 1884.18,-624.3"/>
<polygon fill="#9a32cd" stroke="#9a32cd" points="135.12,-8.31 125.33,-12.35 135.51,-15.3 135.12,-8.31"/>
<text text-anchor="middle" x="961.5" y="-80" font-family="Helvetica,sans-Serif" font-size="10.00"> adjacenciesPtr</text>
<text text-anchor="middle" x="961.5" y="-69" font-family="Helvetica,sans-Serif" font-size="10.00">refinedEntitiesPtr</text>
<text text-anchor="middle" x="961.5" y="-58" font-family="Helvetica,sans-Serif" font-size="10.00">finiteElementsEntitiesPtr</text>
<text text-anchor="middle" x="961.5" y="-47" font-family="Helvetica,sans-Serif" font-size="10.00">dofsPtr</text>
<text text-anchor="middle" x="961.5" y="-36" font-family="Helvetica,sans-Serif" font-size="10.00">entitiesPtr</text>
<text text-anchor="middle" x="961.5" y="-25" font-family="Helvetica,sans-Serif" font-size="10.00">finiteElementsPtr</text>
<text text-anchor="middle" x="961.5" y="-14" font-family="Helvetica,sans-Serif" font-size="10.00">refinedFiniteElementsPtr</text>
<text text-anchor="middle" x="961.5" y="-3" font-family="Helvetica,sans-Serif" font-size="10.00">fieldsPtr</text>
</g>
<!-- Node18&#45;&gt;Node17 -->
<g id="edge17" class="edge">
<title>Node18&#45;&gt;Node17</title>
<path fill="none" stroke="orange" stroke-dasharray="5,2" d="M135.56,-26.6C203.25,-36.55 305.79,-51.63 385.77,-63.39"/>
<polygon fill="orange" stroke="orange" points="135.83,-23.1 125.42,-25.11 134.81,-30.02 135.83,-23.1"/>
<text text-anchor="start" x="143" y="-96" font-family="Helvetica,sans-Serif" font-size="10.00"> &lt; UIdTypeMap, indexed</text>
<text text-anchor="start" x="143" y="-85" font-family="Helvetica,sans-Serif" font-size="10.00">_by&lt; hashed_unique&lt; member</text>
<text text-anchor="start" x="143" y="-74" font-family="Helvetica,sans-Serif" font-size="10.00">&lt; UIdTypeMap, boost::typeindex</text>
<text text-anchor="middle" x="255.5" y="-63" font-family="Helvetica,sans-Serif" font-size="10.00">::type_index, &amp;UIdTypeMap::classIdx &gt; &gt; &gt; &gt;</text>
</g>
<!-- Node19 -->
<g id="node19" class="node">
<title>Node19</title>
<g id="a_node19"><a xlink:title=" ">
<polygon fill="white" stroke="#bfbfbf" points="738.5,-210.5 738.5,-229.5 879.5,-229.5 879.5,-210.5 738.5,-210.5"/>
<text text-anchor="middle" x="809" y="-217.5" font-family="Helvetica,sans-Serif" font-size="10.00">static constexpr Switches</text>
</a>
</g>
</g>
<!-- Node19&#45;&gt;Node15 -->
<g id="edge18" class="edge">
<title>Node19&#45;&gt;Node15</title>
<path fill="none" stroke="#9a32cd" stroke-dasharray="5,2" d="M846.86,-207.47C892.82,-194.37 971.48,-180.57 1022,-219 1045.86,-237.15 1018.43,-263.19 1040,-284 1052.65,-296.21 1070.34,-302.58 1087.36,-305.81"/>
<polygon fill="#9a32cd" stroke="#9a32cd" points="845.6,-204.2 837.02,-210.41 847.6,-210.9 845.6,-204.2"/>
<text text-anchor="middle" x="961.5" y="-299" font-family="Helvetica,sans-Serif" font-size="10.00"> CtxSetX_TT</text>
<text text-anchor="middle" x="961.5" y="-288" font-family="Helvetica,sans-Serif" font-size="10.00">CtxSetX_T</text>
<text text-anchor="middle" x="961.5" y="-277" font-family="Helvetica,sans-Serif" font-size="10.00">CtxSetA</text>
<text text-anchor="middle" x="961.5" y="-266" font-family="Helvetica,sans-Serif" font-size="10.00">CtxSetB</text>
<text text-anchor="middle" x="961.5" y="-255" font-family="Helvetica,sans-Serif" font-size="10.00">CtxSetTime</text>
<text text-anchor="middle" x="961.5" y="-244" font-family="Helvetica,sans-Serif" font-size="10.00">CtxSetNone</text>
<text text-anchor="middle" x="961.5" y="-233" font-family="Helvetica,sans-Serif" font-size="10.00">CtxSetF</text>
<text text-anchor="middle" x="961.5" y="-222" font-family="Helvetica,sans-Serif" font-size="10.00">CtxSetX</text>
</g>
<!-- Node20 -->
<g id="node20" class="node">
<title>Node20</title>
<g id="a_node20"><a xlink:title=" ">
<polygon fill="white" stroke="#bfbfbf" points="791.5,-525.5 791.5,-544.5 826.5,-544.5 826.5,-525.5 791.5,-525.5"/>
<text text-anchor="middle" x="809" y="-532.5" font-family="Helvetica,sans-Serif" font-size="10.00">Mat</text>
</a>
</g>
</g>
<!-- Node20&#45;&gt;Node1 -->
<g id="edge85" class="edge">
<title>Node20&#45;&gt;Node1</title>
<path fill="none" stroke="#9a32cd" stroke-dasharray="5,2" d="M809.64,-554.89C809.05,-650.95 819.51,-1071.05 1040,-1286 1073.2,-1318.37 1094.13,-1314 1140.5,-1314 1140.5,-1314 1140.5,-1314 3140.5,-1314 3278.41,-1314 3348.37,-770.33 3357.87,-690.69"/>
<polygon fill="#9a32cd" stroke="#9a32cd" points="813.14,-554.86 809.76,-544.82 806.14,-554.78 813.14,-554.86"/>
<text text-anchor="middle" x="2256" y="-1317" font-family="Helvetica,sans-Serif" font-size="10.00"> A</text>
</g>
<!-- Node20&#45;&gt;Node14 -->
<g id="edge24" class="edge">
<title>Node20&#45;&gt;Node14</title>
<path fill="none" stroke="#9a32cd" stroke-dasharray="5,2" d="M837.01,-534.52C920.53,-532.83 1181.87,-525.93 1397,-503 1412.37,-501.36 1428.98,-498.97 1444.18,-496.54"/>
<polygon fill="#9a32cd" stroke="#9a32cd" points="836.79,-531.02 826.86,-534.72 836.93,-538.02 836.79,-531.02"/>
<text text-anchor="middle" x="1141.5" y="-541" font-family="Helvetica,sans-Serif" font-size="10.00"> ksp_A</text>
<text text-anchor="middle" x="1141.5" y="-530" font-family="Helvetica,sans-Serif" font-size="10.00">ksp_B</text>
</g>
<!-- Node20&#45;&gt;Node15 -->
<g id="edge19" class="edge">
<title>Node20&#45;&gt;Node15</title>
<path fill="none" stroke="#9a32cd" stroke-dasharray="5,2" d="M820.81,-516.7C835.96,-492.48 865.65,-449.82 901,-424 947.72,-389.87 980.87,-416.69 1022,-376 1037.02,-361.14 1023.96,-345.75 1040,-332 1053.15,-320.74 1070.66,-314.55 1087.38,-311.22"/>
<polygon fill="#9a32cd" stroke="#9a32cd" points="817.79,-514.93 815.57,-525.29 823.77,-518.58 817.79,-514.93"/>
<text text-anchor="middle" x="961.5" y="-438" font-family="Helvetica,sans-Serif" font-size="10.00"> A</text>
<text text-anchor="middle" x="961.5" y="-427" font-family="Helvetica,sans-Serif" font-size="10.00">B</text>
</g>
<!-- Node20&#45;&gt;Node25 -->
<g id="edge29" class="edge">
<title>Node20&#45;&gt;Node25</title>
<path fill="none" stroke="#9a32cd" stroke-dasharray="5,2" d="M830.25,-550.91C868.55,-579.86 955.35,-640.18 1040,-662 1189.93,-700.64 1376.51,-668.92 1457.21,-651.52"/>
<polygon fill="#9a32cd" stroke="#9a32cd" points="832.07,-547.89 822,-544.59 827.81,-553.45 832.07,-547.89"/>
<text text-anchor="middle" x="1141.5" y="-694" font-family="Helvetica,sans-Serif" font-size="10.00"> snes_A</text>
<text text-anchor="middle" x="1141.5" y="-683" font-family="Helvetica,sans-Serif" font-size="10.00">snes_B</text>
</g>
<!-- Node20&#45;&gt;Node28 -->
<g id="edge34" class="edge">
<title>Node20&#45;&gt;Node28</title>
<path fill="none" stroke="#9a32cd" stroke-dasharray="5,2" d="M836.68,-530.93C881.19,-522.78 970.75,-500.32 1022,-446 1038.5,-428.52 1022.39,-411.36 1040,-395 1100.24,-339.06 1318.58,-322.66 1397,-298 1422.99,-289.83 1452.27,-279.17 1472.49,-271.58"/>
<polygon fill="#9a32cd" stroke="#9a32cd" points="835.9,-527.52 826.64,-532.67 837.09,-534.41 835.9,-527.52"/>
<text text-anchor="middle" x="1141.5" y="-409" font-family="Helvetica,sans-Serif" font-size="10.00"> ts_A</text>
<text text-anchor="middle" x="1141.5" y="-398" font-family="Helvetica,sans-Serif" font-size="10.00">ts_B</text>
</g>
<!-- Node21 -->
<g id="node21" class="node">
<title>Node21</title>
<g id="a_node21"><a xlink:title=" ">
<polygon fill="white" stroke="#bfbfbf" points="772.5,-151.5 772.5,-170.5 845.5,-170.5 845.5,-151.5 772.5,-151.5"/>
<text text-anchor="middle" x="809" y="-158.5" font-family="Helvetica,sans-Serif" font-size="10.00">bitset&lt; 8 &gt;</text>
</a>
</g>
</g>
<!-- Node21&#45;&gt;Node15 -->
<g id="edge20" class="edge">
<title>Node21&#45;&gt;Node15</title>
<path fill="none" stroke="#9a32cd" stroke-dasharray="5,2" d="M855.61,-150.35C903.38,-142.14 977.52,-138.15 1022,-179 1056.87,-211.03 1007.62,-249.46 1040,-284 1052.21,-297.02 1070.11,-303.55 1087.43,-306.66"/>
<polygon fill="#9a32cd" stroke="#9a32cd" points="854.74,-146.95 845.54,-152.21 856.01,-153.84 854.74,-146.95"/>
<text text-anchor="middle" x="961.5" y="-182" font-family="Helvetica,sans-Serif" font-size="10.00"> data_ctx</text>
</g>
<!-- Node22 -->
<g id="node22" class="node">
<title>Node22</title>
<g id="a_node22"><a xlink:title=" ">
<polygon fill="white" stroke="#bfbfbf" points="792,-373.5 792,-392.5 826,-392.5 826,-373.5 792,-373.5"/>
<text text-anchor="middle" x="809" y="-380.5" font-family="Helvetica,sans-Serif" font-size="10.00">Vec</text>
</a>
</g>
</g>
<!-- Node22&#45;&gt;Node14 -->
<g id="edge25" class="edge">
<title>Node22&#45;&gt;Node14</title>
<path fill="none" stroke="#9a32cd" stroke-dasharray="5,2" d="M835.27,-396.75C853.07,-405.62 877.77,-416.34 901,-421 901,-421 1243,-421 1243,-421 1312.75,-428.83 1329.19,-437.86 1397,-456 1421.34,-462.51 1448.64,-471.01 1468.64,-477.46"/>
<polygon fill="#9a32cd" stroke="#9a32cd" points="836.64,-393.52 826.14,-392.06 833.44,-399.74 836.64,-393.52"/>
<text text-anchor="middle" x="1141.5" y="-424" font-family="Helvetica,sans-Serif" font-size="10.00"> ksp_f</text>
</g>
<!-- Node22&#45;&gt;Node15 -->
<g id="edge21" class="edge">
<title>Node22&#45;&gt;Node15</title>
<path fill="none" stroke="#9a32cd" stroke-dasharray="5,2" d="M831.52,-367.57C849.26,-355.7 875.55,-340.02 901,-332 962.97,-312.47 1038.03,-307.81 1087.4,-307.16"/>
<polygon fill="#9a32cd" stroke="#9a32cd" points="829.34,-364.82 823.07,-373.36 833.3,-370.59 829.34,-364.82"/>
<text text-anchor="middle" x="961.5" y="-368" font-family="Helvetica,sans-Serif" font-size="10.00"> f</text>
<text text-anchor="middle" x="961.5" y="-357" font-family="Helvetica,sans-Serif" font-size="10.00">x</text>
<text text-anchor="middle" x="961.5" y="-346" font-family="Helvetica,sans-Serif" font-size="10.00">x_t</text>
<text text-anchor="middle" x="961.5" y="-335" font-family="Helvetica,sans-Serif" font-size="10.00">x_tt</text>
</g>
<!-- Node22&#45;&gt;Node25 -->
<g id="edge30" class="edge">
<title>Node22&#45;&gt;Node25</title>
<path fill="none" stroke="#9a32cd" stroke-dasharray="5,2" d="M826.7,-399.6C862.44,-434.1 950.42,-513.6 1040,-553 1076.43,-569.02 1327.1,-612.99 1441.18,-632.48"/>
<polygon fill="#9a32cd" stroke="#9a32cd" points="829.11,-397.06 819.51,-392.58 824.22,-402.07 829.11,-397.06"/>
<text text-anchor="middle" x="1141.5" y="-610" font-family="Helvetica,sans-Serif" font-size="10.00"> snes_x</text>
<text text-anchor="middle" x="1141.5" y="-599" font-family="Helvetica,sans-Serif" font-size="10.00">snes_f</text>
</g>
<!-- Node22&#45;&gt;Node28 -->
<g id="edge38" class="edge">
<title>Node22&#45;&gt;Node28</title>
<path fill="none" stroke="#9a32cd" stroke-dasharray="5,2" d="M819.82,-364.04C833.99,-336.57 860.9,-284.08 883,-239 891.23,-222.22 885.21,-210.99 901,-201 946.44,-172.24 969.39,-189.84 1022,-201 1030.56,-202.82 1031.56,-206.69 1040,-209 1115.2,-229.55 1341.29,-249.55 1444.76,-257.91"/>
<polygon fill="#9a32cd" stroke="#9a32cd" points="816.53,-362.78 815.05,-373.27 822.75,-365.99 816.53,-362.78"/>
<text text-anchor="middle" x="1141.5" y="-275" font-family="Helvetica,sans-Serif" font-size="10.00"> ts_u</text>
<text text-anchor="middle" x="1141.5" y="-264" font-family="Helvetica,sans-Serif" font-size="10.00">ts_F</text>
<text text-anchor="middle" x="1141.5" y="-253" font-family="Helvetica,sans-Serif" font-size="10.00">ts_u_t</text>
<text text-anchor="middle" x="1141.5" y="-242" font-family="Helvetica,sans-Serif" font-size="10.00">ts_u_tt</text>
</g>
<!-- Node23 -->
<g id="node23" class="node">
<title>Node23</title>
<g id="a_node23"><a xlink:title=" ">
<polygon fill="white" stroke="#bfbfbf" points="1124,-479.5 1124,-498.5 1159,-498.5 1159,-479.5 1124,-479.5"/>
<text text-anchor="middle" x="1141.5" y="-486.5" font-family="Helvetica,sans-Serif" font-size="10.00">KSP</text>
</a>
</g>
</g>
<!-- Node23&#45;&gt;Node14 -->
<g id="edge22" class="edge">
<title>Node23&#45;&gt;Node14</title>
<path fill="none" stroke="#9a32cd" stroke-dasharray="5,2" d="M1169.29,-488.85C1227.06,-488.52 1364.41,-487.75 1441.88,-487.31"/>
<polygon fill="#9a32cd" stroke="#9a32cd" points="1169.13,-485.35 1159.15,-488.91 1169.17,-492.35 1169.13,-485.35"/>
<text text-anchor="middle" x="1329" y="-491" font-family="Helvetica,sans-Serif" font-size="10.00"> ksp</text>
</g>
<!-- Node24 -->
<g id="node24" class="node">
<title>Node24</title>
<g id="a_node24"><a xlink:title=" ">
<polygon fill="white" stroke="#bfbfbf" points="1104.5,-441.5 1104.5,-460.5 1178.5,-460.5 1178.5,-441.5 1104.5,-441.5"/>
<text text-anchor="middle" x="1141.5" y="-448.5" font-family="Helvetica,sans-Serif" font-size="10.00">KSPContext</text>
</a>
</g>
</g>
<!-- Node24&#45;&gt;Node14 -->
<g id="edge23" class="edge">
<title>Node24&#45;&gt;Node14</title>
<path fill="none" stroke="#9a32cd" stroke-dasharray="5,2" d="M1188.89,-453.91C1239.97,-457.32 1324.49,-463.61 1397,-472 1411.55,-473.68 1427.22,-475.85 1441.77,-478.01"/>
<polygon fill="#9a32cd" stroke="#9a32cd" points="1189.03,-450.41 1178.82,-453.24 1188.57,-457.39 1189.03,-450.41"/>
<text text-anchor="middle" x="1329" y="-475" font-family="Helvetica,sans-Serif" font-size="10.00"> ksp_ctx</text>
</g>
<!-- Node25&#45;&gt;Node13 -->
<g id="edge26" class="edge">
<title>Node25&#45;&gt;Node13</title>
<path fill="none" stroke="midnightblue" d="M1568.06,-640.58C1641.05,-639.06 1755.39,-636.69 1824.95,-635.25"/>
<polygon fill="midnightblue" stroke="midnightblue" points="1567.97,-637.08 1558.05,-640.78 1568.12,-644.08 1567.97,-637.08"/>
</g>
<!-- Node26 -->
<g id="node26" class="node">
<title>Node26</title>
<g id="a_node26"><a xlink:title=" ">
<polygon fill="white" stroke="#bfbfbf" points="1120.5,-729.5 1120.5,-748.5 1162.5,-748.5 1162.5,-729.5 1120.5,-729.5"/>
<text text-anchor="middle" x="1141.5" y="-736.5" font-family="Helvetica,sans-Serif" font-size="10.00">SNES</text>
</a>
</g>
</g>
<!-- Node26&#45;&gt;Node25 -->
<g id="edge28" class="edge">
<title>Node26&#45;&gt;Node25</title>
<path fill="none" stroke="#9a32cd" stroke-dasharray="5,2" d="M1172.81,-734.64C1193.23,-731.02 1220.46,-724.83 1243,-715 1251.81,-711.16 1252.06,-706.55 1261,-703 1317.98,-680.39 1337.83,-696.03 1397,-680 1424.91,-672.44 1455.86,-660.1 1475.95,-651.55"/>
<polygon fill="#9a32cd" stroke="#9a32cd" points="1172.1,-731.21 1162.81,-736.31 1173.25,-738.11 1172.1,-731.21"/>
<text text-anchor="middle" x="1329" y="-706" font-family="Helvetica,sans-Serif" font-size="10.00"> snes</text>
</g>
<!-- Node27 -->
<g id="node27" class="node">
<title>Node27</title>
<g id="a_node27"><a xlink:title=" ">
<polygon fill="white" stroke="#bfbfbf" points="1101.5,-633.5 1101.5,-652.5 1181.5,-652.5 1181.5,-633.5 1101.5,-633.5"/>
<text text-anchor="middle" x="1141.5" y="-640.5" font-family="Helvetica,sans-Serif" font-size="10.00">SNESContext</text>
</a>
</g>
</g>
<!-- Node27&#45;&gt;Node25 -->
<g id="edge31" class="edge">
<title>Node27&#45;&gt;Node25</title>
<path fill="none" stroke="#9a32cd" stroke-dasharray="5,2" d="M1191.84,-642.86C1256.48,-642.68 1369.71,-642.36 1438.73,-642.17"/>
<polygon fill="#9a32cd" stroke="#9a32cd" points="1191.5,-639.36 1181.51,-642.89 1191.52,-646.36 1191.5,-639.36"/>
<text text-anchor="middle" x="1329" y="-645" font-family="Helvetica,sans-Serif" font-size="10.00"> snes_ctx</text>
</g>
<!-- Node28&#45;&gt;Node13 -->
<g id="edge32" class="edge">
<title>Node28&#45;&gt;Node13</title>
<path fill="none" stroke="midnightblue" d="M1518.17,-278.35C1563.99,-318.66 1685.22,-426.47 1781,-522 1817.82,-558.73 1859.22,-604.87 1876.61,-624.48"/>
<polygon fill="midnightblue" stroke="midnightblue" points="1520.34,-275.6 1510.52,-271.63 1515.72,-280.86 1520.34,-275.6"/>
</g>
<!-- Node29 -->
<g id="node29" class="node">
<title>Node29</title>
<g id="a_node29"><a xlink:title=" ">
<polygon fill="white" stroke="#bfbfbf" points="1109,-180.5 1109,-199.5 1174,-199.5 1174,-180.5 1109,-180.5"/>
<text text-anchor="middle" x="1141.5" y="-187.5" font-family="Helvetica,sans-Serif" font-size="10.00">PetscReal</text>
</a>
</g>
</g>
<!-- Node29&#45;&gt;Node28 -->
<g id="edge35" class="edge">
<title>Node29&#45;&gt;Node28</title>
<path fill="none" stroke="#9a32cd" stroke-dasharray="5,2" d="M1184.47,-184.07C1247.87,-176.06 1364.15,-165.32 1397,-189 1417.52,-203.79 1396.28,-225.98 1415,-243 1423.27,-250.51 1433.9,-255.24 1444.76,-258.17"/>
<polygon fill="#9a32cd" stroke="#9a32cd" points="1183.87,-180.62 1174.4,-185.38 1184.77,-187.57 1183.87,-180.62"/>
<text text-anchor="middle" x="1329" y="-225" font-family="Helvetica,sans-Serif" font-size="10.00"> ts_a</text>
<text text-anchor="middle" x="1329" y="-214" font-family="Helvetica,sans-Serif" font-size="10.00">ts_t</text>
<text text-anchor="middle" x="1329" y="-203" font-family="Helvetica,sans-Serif" font-size="10.00">ts_dt</text>
<text text-anchor="middle" x="1329" y="-192" font-family="Helvetica,sans-Serif" font-size="10.00">ts_aa</text>
</g>
<!-- Node30 -->
<g id="node30" class="node">
<title>Node30</title>
<g id="a_node30"><a xlink:title=" ">
<polygon fill="white" stroke="#bfbfbf" points="1108,-142.5 1108,-161.5 1175,-161.5 1175,-142.5 1108,-142.5"/>
<text text-anchor="middle" x="1141.5" y="-149.5" font-family="Helvetica,sans-Serif" font-size="10.00">TSContext</text>
</a>
</g>
</g>
<!-- Node30&#45;&gt;Node28 -->
<g id="edge36" class="edge">
<title>Node30&#45;&gt;Node28</title>
<path fill="none" stroke="#9a32cd" stroke-dasharray="5,2" d="M1185.39,-147.25C1249.45,-141.14 1365.95,-134.14 1397,-160 1426.01,-184.15 1388.48,-216.14 1415,-243 1423.05,-251.16 1433.86,-256.11 1444.99,-259.05"/>
<polygon fill="#9a32cd" stroke="#9a32cd" points="1184.8,-143.79 1175.2,-148.26 1185.49,-150.76 1184.8,-143.79"/>
<text text-anchor="middle" x="1329" y="-163" font-family="Helvetica,sans-Serif" font-size="10.00"> ts_ctx</text>
</g>
<!-- Node31 -->
<g id="node31" class="node">
<title>Node31</title>
<g id="a_node31"><a xlink:title=" ">
<polygon fill="white" stroke="#bfbfbf" points="1113.5,-104.5 1113.5,-123.5 1169.5,-123.5 1169.5,-104.5 1113.5,-104.5"/>
<text text-anchor="middle" x="1141.5" y="-111.5" font-family="Helvetica,sans-Serif" font-size="10.00">PetscInt</text>
</a>
</g>
</g>
<!-- Node31&#45;&gt;Node28 -->
<g id="edge37" class="edge">
<title>Node31&#45;&gt;Node28</title>
<path fill="none" stroke="#9a32cd" stroke-dasharray="5,2" d="M1180.18,-110.38C1243.19,-105.2 1366.1,-99.13 1397,-127 1435.74,-161.95 1379.47,-204.8 1415,-243 1422.81,-251.39 1433.52,-256.44 1444.63,-259.39"/>
<polygon fill="#9a32cd" stroke="#9a32cd" points="1179.54,-106.92 1169.87,-111.26 1180.13,-113.89 1179.54,-106.92"/>
<text text-anchor="middle" x="1329" y="-130" font-family="Helvetica,sans-Serif" font-size="10.00"> ts_step</text>
</g>
<!-- Node32 -->
<g id="node32" class="node">
<title>Node32</title>
<g id="a_node32"><a xlink:title=" ">
<polygon fill="white" stroke="#bfbfbf" points="1127,-66.5 1127,-85.5 1156,-85.5 1156,-66.5 1127,-66.5"/>
<text text-anchor="middle" x="1141.5" y="-73.5" font-family="Helvetica,sans-Serif" font-size="10.00">TS</text>
</a>
</g>
</g>
<!-- Node32&#45;&gt;Node28 -->
<g id="edge39" class="edge">
<title>Node32&#45;&gt;Node28</title>
<path fill="none" stroke="#9a32cd" stroke-dasharray="5,2" d="M1166.53,-73.7C1223.48,-68.81 1364.32,-60.19 1397,-91 1446.5,-137.66 1369.58,-192.36 1415,-243 1422.75,-251.64 1433.58,-256.76 1444.84,-259.71"/>
<polygon fill="#9a32cd" stroke="#9a32cd" points="1165.96,-70.23 1156.32,-74.61 1166.59,-77.21 1165.96,-70.23"/>
<text text-anchor="middle" x="1329" y="-94" font-family="Helvetica,sans-Serif" font-size="10.00"> ts</text>
</g>
<!-- Node33 -->
<g id="node33" class="node">
<title>Node33</title>
<g id="a_node33"><a xlink:title=" ">
<polygon fill="white" stroke="#bfbfbf" points="1454,-214.5 1454,-233.5 1543,-233.5 1543,-214.5 1454,-214.5"/>
<text text-anchor="middle" x="1498.5" y="-221.5" font-family="Helvetica,sans-Serif" font-size="10.00">pair&lt; int, int &gt;</text>
</a>
</g>
</g>
<!-- Node33&#45;&gt;Node13 -->
<g id="edge41" class="edge">
<title>Node33&#45;&gt;Node13</title>
<path fill="none" stroke="#9a32cd" stroke-dasharray="5,2" d="M1553.18,-229.13C1618.71,-238.51 1727.41,-264.81 1781,-338 1815.2,-384.71 1781.5,-411.82 1799,-467 1819.21,-530.73 1862.2,-599.48 1878.53,-624.34"/>
<polygon fill="#9a32cd" stroke="#9a32cd" points="1553.42,-225.63 1543.04,-227.76 1552.49,-232.56 1553.42,-225.63"/>
<text text-anchor="middle" x="1690.5" y="-341" font-family="Helvetica,sans-Serif" font-size="10.00"> loHiFERank</text>
</g>
<!-- Node34 -->
<g id="node34" class="node">
<title>Node34</title>
<g id="a_node34"><a xlink:title=" ">
<polygon fill="white" stroke="#bfbfbf" points="1428.5,-176.5 1428.5,-195.5 1568.5,-195.5 1568.5,-176.5 1428.5,-176.5"/>
<text text-anchor="middle" x="1498.5" y="-183.5" font-family="Helvetica,sans-Serif" font-size="10.00">weak_ptr&lt; CacheTuple &gt;</text>
</a>
</g>
</g>
<!-- Node34&#45;&gt;Node13 -->
<g id="edge42" class="edge">
<title>Node34&#45;&gt;Node13</title>
<path fill="none" stroke="#9a32cd" stroke-dasharray="5,2" d="M1556.28,-175C1620.71,-166.16 1724.2,-163.68 1781,-224 1799.56,-243.71 1791.65,-440.94 1799,-467 1817.14,-531.35 1861.37,-599.73 1878.28,-624.42"/>
<polygon fill="#9a32cd" stroke="#9a32cd" points="1555.67,-171.55 1546.28,-176.47 1556.68,-178.48 1555.67,-171.55"/>
<text text-anchor="middle" x="1690.5" y="-227" font-family="Helvetica,sans-Serif" font-size="10.00"> cacheWeakPtr</text>
</g>
<!-- Node35 -->
<g id="node35" class="node">
<title>Node35</title>
<g id="a_node35"><a xlink:title=" ">
<polygon fill="white" stroke="#bfbfbf" points="1442.5,-1019.5 1442.5,-1038.5 1554.5,-1038.5 1554.5,-1019.5 1442.5,-1019.5"/>
<text text-anchor="middle" x="1498.5" y="-1026.5" font-family="Helvetica,sans-Serif" font-size="10.00">unique_ptr&lt; bool &gt;</text>
</a>
</g>
</g>
<!-- Node35&#45;&gt;Node13 -->
<g id="edge43" class="edge">
<title>Node35&#45;&gt;Node13</title>
<path fill="none" stroke="#9a32cd" stroke-dasharray="5,2" d="M1564.74,-1037.61C1629.97,-1042.16 1728,-1037.19 1781,-977 1828.51,-923.04 1752.74,-709.03 1799,-654 1805.71,-646.02 1814.92,-640.87 1824.83,-637.61"/>
<polygon fill="#9a32cd" stroke="#9a32cd" points="1564.8,-1034.11 1554.56,-1036.81 1564.25,-1041.08 1564.8,-1034.11"/>
<text text-anchor="middle" x="1690.5" y="-1052" font-family="Helvetica,sans-Serif" font-size="10.00"> matAssembleSwitch</text>
<text text-anchor="middle" x="1690.5" y="-1041" font-family="Helvetica,sans-Serif" font-size="10.00">vecAssembleSwitch</text>
</g>
<!-- Node36 -->
<g id="node36" class="node">
<title>Node36</title>
<g id="a_node36"><a xlink:title=" ">
<polygon fill="white" stroke="#bfbfbf" points="1127,-767.5 1127,-786.5 1156,-786.5 1156,-767.5 1127,-767.5"/>
<text text-anchor="middle" x="1141.5" y="-774.5" font-family="Helvetica,sans-Serif" font-size="10.00">int</text>
</a>
</g>
</g>
<!-- Node36&#45;&gt;Node13 -->
<g id="edge44" class="edge">
<title>Node36&#45;&gt;Node13</title>
<path fill="none" stroke="#9a32cd" stroke-dasharray="5,2" d="M1166.26,-776.08C1187.37,-774.44 1218.57,-770 1243,-758 1252.61,-753.28 1251.36,-746.65 1261,-742 1261,-742 1677.41,-669.93 1829.9,-643.54"/>
<polygon fill="#9a32cd" stroke="#9a32cd" points="1165.99,-772.59 1156.23,-776.7 1166.43,-779.57 1165.99,-772.59"/>
<text text-anchor="middle" x="1498.5" y="-750" font-family="Helvetica,sans-Serif" font-size="10.00"> sIze</text>
<text text-anchor="middle" x="1498.5" y="-739" font-family="Helvetica,sans-Serif" font-size="10.00">loopSize</text>
<text text-anchor="middle" x="1498.5" y="-728" font-family="Helvetica,sans-Serif" font-size="10.00">nInTheLoop</text>
<text text-anchor="middle" x="1498.5" y="-717" font-family="Helvetica,sans-Serif" font-size="10.00">rAnk</text>
</g>
<!-- Node36&#45;&gt;Node38 -->
<g id="edge56" class="edge">
<title>Node36&#45;&gt;Node38</title>
<path fill="none" stroke="#9a32cd" stroke-dasharray="5,2" d="M1166.18,-772.33C1190.02,-767.88 1227.89,-761.5 1261,-759 1321.27,-754.45 1348.51,-722.92 1397,-759 1419.34,-775.62 1404.95,-793.04 1415,-819 1439.63,-882.62 1478.04,-955.23 1492.11,-981.16"/>
<polygon fill="#9a32cd" stroke="#9a32cd" points="1165.45,-768.9 1156.29,-774.21 1166.77,-775.78 1165.45,-768.9"/>
<text text-anchor="middle" x="1329" y="-828" font-family="Helvetica,sans-Serif" font-size="10.00"> tagNameSize</text>
<text text-anchor="middle" x="1329" y="-817" font-family="Helvetica,sans-Serif" font-size="10.00">nbDofsRow</text>
<text text-anchor="middle" x="1329" y="-806" font-family="Helvetica,sans-Serif" font-size="10.00">nbLocDofsCol</text>
<text text-anchor="middle" x="1329" y="-795" font-family="Helvetica,sans-Serif" font-size="10.00">nbDofsCol</text>
<text text-anchor="middle" x="1329" y="-784" font-family="Helvetica,sans-Serif" font-size="10.00">nbGhostDofsRow</text>
<text text-anchor="middle" x="1329" y="-773" font-family="Helvetica,sans-Serif" font-size="10.00">nbGhostDofsCol</text>
<text text-anchor="middle" x="1329" y="-762" font-family="Helvetica,sans-Serif" font-size="10.00">nbLocDofsRow</text>
</g>
<!-- Node37 -->
<g id="node37" class="node">
<title>Node37</title>
<g id="a_node37"><a xlink:title=" ">
<polygon fill="white" stroke="#bfbfbf" points="1415,-790.5 1415,-809.5 1582,-809.5 1582,-790.5 1415,-790.5"/>
<text text-anchor="middle" x="1498.5" y="-797.5" font-family="Helvetica,sans-Serif" font-size="10.00">function&lt; MoFEMErrorCode()&gt;</text>
</a>
</g>
</g>
<!-- Node37&#45;&gt;Node13 -->
<g id="edge45" class="edge">
<title>Node37&#45;&gt;Node13</title>
<path fill="none" stroke="#9a32cd" stroke-dasharray="5,2" d="M1592.37,-805.46C1654,-803.83 1732.24,-790.83 1781,-742 1809.21,-713.75 1771.15,-682.6 1799,-654 1806.06,-646.75 1815.19,-641.91 1824.86,-638.72"/>
<polygon fill="#9a32cd" stroke="#9a32cd" points="1592.18,-801.96 1582.24,-805.63 1592.3,-808.96 1592.18,-801.96"/>
<text text-anchor="middle" x="1690.5" y="-829" font-family="Helvetica,sans-Serif" font-size="10.00"> preProcessHook</text>
<text text-anchor="middle" x="1690.5" y="-818" font-family="Helvetica,sans-Serif" font-size="10.00">operatorHook</text>
<text text-anchor="middle" x="1690.5" y="-807" font-family="Helvetica,sans-Serif" font-size="10.00">postProcessHook</text>
</g>
<!-- Node38&#45;&gt;Node13 -->
<g id="edge46" class="edge">
<title>Node38&#45;&gt;Node13</title>
<path fill="none" stroke="#9a32cd" stroke-dasharray="5,2" d="M1553,-978.86C1618.72,-960.89 1728,-920.4 1781,-841 1804.18,-806.28 1771.5,-685.41 1799,-654 1805.77,-646.27 1814.88,-641.22 1824.65,-637.97"/>
<polygon fill="#9a32cd" stroke="#9a32cd" points="1552,-975.51 1543.23,-981.45 1553.8,-982.27 1552,-975.51"/>
<text text-anchor="middle" x="1690.5" y="-965" font-family="Helvetica,sans-Serif" font-size="10.00"> problemPtr</text>
</g>
<!-- Node39 -->
<g id="node39" class="node">
<title>Node39</title>
<g id="a_node39"><a xlink:title=" ">
<polygon fill="white" stroke="#bfbfbf" points="1058,-1208 1058,-1238 1225,-1238 1225,-1208 1058,-1208"/>
<text text-anchor="start" x="1066" y="-1226" font-family="Helvetica,sans-Serif" font-size="10.00">shared_ptr&lt; NumeredEntFinite</text>
<text text-anchor="middle" x="1141.5" y="-1215" font-family="Helvetica,sans-Serif" font-size="10.00">Element_multiIndex &gt;</text>
</a>
</g>
</g>
<!-- Node39&#45;&gt;Node38 -->
<g id="edge47" class="edge">
<title>Node39&#45;&gt;Node38</title>
<path fill="none" stroke="#9a32cd" stroke-dasharray="5,2" d="M1235.17,-1210.86C1306.73,-1201.27 1394.1,-1189.03 1397,-1186 1424.2,-1157.62 1388.98,-1039.47 1415,-1010 1423.56,-1000.3 1435.98,-995.03 1448.6,-992.28"/>
<polygon fill="#9a32cd" stroke="#9a32cd" points="1234.64,-1207.4 1225.19,-1212.19 1235.56,-1214.34 1234.64,-1207.4"/>
<text text-anchor="middle" x="1329" y="-1209" font-family="Helvetica,sans-Serif" font-size="10.00"> numeredFiniteElementsPtr</text>
</g>
<!-- Node40 -->
<g id="node40" class="node">
<title>Node40</title>
<g id="a_node40"><a xlink:title=" ">
<polygon fill="white" stroke="#bfbfbf" points="1112,-1169.5 1112,-1188.5 1171,-1188.5 1171,-1169.5 1112,-1169.5"/>
<text text-anchor="middle" x="1141.5" y="-1176.5" font-family="Helvetica,sans-Serif" font-size="10.00">BitFEId *</text>
</a>
</g>
</g>
<!-- Node40&#45;&gt;Node38 -->
<g id="edge48" class="edge">
<title>Node40&#45;&gt;Node38</title>
<path fill="none" stroke="#9a32cd" stroke-dasharray="5,2" d="M1181.7,-1177C1249.28,-1173.17 1381.98,-1163.85 1397,-1149 1441.3,-1105.2 1373.15,-1056.14 1415,-1010 1423.69,-1000.42 1436.15,-995.18 1448.77,-992.43"/>
<polygon fill="#9a32cd" stroke="#9a32cd" points="1181.23,-1173.52 1171.44,-1177.57 1181.61,-1180.51 1181.23,-1173.52"/>
<text text-anchor="middle" x="1329" y="-1174" font-family="Helvetica,sans-Serif" font-size="10.00"> tagBitFEId</text>
</g>
<!-- Node41 -->
<g id="node41" class="node">
<title>Node41</title>
<g id="a_node41"><a xlink:href="classEntityHandle.html" target="_top" xlink:title=" ">
<polygon fill="white" stroke="black" points="1101.5,-1131.5 1101.5,-1150.5 1181.5,-1150.5 1181.5,-1131.5 1101.5,-1131.5"/>
<text text-anchor="middle" x="1141.5" y="-1138.5" font-family="Helvetica,sans-Serif" font-size="10.00">EntityHandle</text>
</a>
</g>
</g>
<!-- Node41&#45;&gt;Node38 -->
<g id="edge49" class="edge">
<title>Node41&#45;&gt;Node38</title>
<path fill="none" stroke="#9a32cd" stroke-dasharray="5,2" d="M1192.05,-1138.71C1261.87,-1135.01 1382.38,-1126.73 1397,-1113 1430.89,-1081.2 1383.03,-1043.73 1415,-1010 1423.8,-1000.72 1436.14,-995.55 1448.61,-992.78"/>
<polygon fill="#9a32cd" stroke="#9a32cd" points="1191.53,-1135.23 1181.72,-1139.24 1191.89,-1142.22 1191.53,-1135.23"/>
<text text-anchor="middle" x="1329" y="-1137" font-family="Helvetica,sans-Serif" font-size="10.00"> meshset</text>
</g>
<!-- Node42 -->
<g id="node42" class="node">
<title>Node42</title>
<g id="a_node42"><a xlink:title=" ">
<polygon fill="white" stroke="#bfbfbf" points="1067,-1082 1067,-1112 1216,-1112 1216,-1082 1067,-1082"/>
<text text-anchor="start" x="1075" y="-1100" font-family="Helvetica,sans-Serif" font-size="10.00">shared_ptr&lt; MoFEM::</text>
<text text-anchor="middle" x="1141.5" y="-1089" font-family="Helvetica,sans-Serif" font-size="10.00">ComposedProblemsData &gt;</text>
</a>
</g>
</g>
<!-- Node42&#45;&gt;Node38 -->
<g id="edge50" class="edge">
<title>Node42&#45;&gt;Node38</title>
<path fill="none" stroke="#9a32cd" stroke-dasharray="5,2" d="M1226.28,-1099.38C1290.29,-1099.41 1371.7,-1095.03 1397,-1074 1419.73,-1055.11 1393.61,-1030.39 1415,-1010 1424.15,-1001.28 1436.46,-996.27 1448.78,-993.47"/>
<polygon fill="#9a32cd" stroke="#9a32cd" points="1226.18,-1095.88 1216.17,-1099.34 1226.15,-1102.88 1226.18,-1095.88"/>
<text text-anchor="middle" x="1329" y="-1101" font-family="Helvetica,sans-Serif" font-size="10.00"> composedProblemsData</text>
</g>
<!-- Node43 -->
<g id="node43" class="node">
<title>Node43</title>
<g id="a_node43"><a xlink:title=" ">
<polygon fill="white" stroke="#bfbfbf" points="1101,-1043.5 1101,-1062.5 1182,-1062.5 1182,-1043.5 1101,-1043.5"/>
<text text-anchor="middle" x="1141.5" y="-1050.5" font-family="Helvetica,sans-Serif" font-size="10.00">BitRefLevel *</text>
</a>
</g>
</g>
<!-- Node43&#45;&gt;Node38 -->
<g id="edge51" class="edge">
<title>Node43&#45;&gt;Node38</title>
<path fill="none" stroke="#9a32cd" stroke-dasharray="5,2" d="M1192.26,-1052.06C1255.84,-1050.19 1361.88,-1044.61 1397,-1028 1407.23,-1023.16 1405.1,-1015.48 1415,-1010 1425.29,-1004.3 1437.2,-1000.31 1448.72,-997.51"/>
<polygon fill="#9a32cd" stroke="#9a32cd" points="1191.95,-1048.57 1182.05,-1052.34 1192.14,-1055.57 1191.95,-1048.57"/>
<text text-anchor="middle" x="1329" y="-1062" font-family="Helvetica,sans-Serif" font-size="10.00"> tagBitRefLevelMask</text>
<text text-anchor="middle" x="1329" y="-1051" font-family="Helvetica,sans-Serif" font-size="10.00">tagBitRefLevel</text>
</g>
<!-- Node44 -->
<g id="node44" class="node">
<title>Node44</title>
<g id="a_node44"><a xlink:title=" ">
<polygon fill="white" stroke="#bfbfbf" points="1056.5,-994 1056.5,-1024 1226.5,-1024 1226.5,-994 1056.5,-994"/>
<text text-anchor="start" x="1064.5" y="-1012" font-family="Helvetica,sans-Serif" font-size="10.00">shared_ptr&lt; NumeredDofEntity</text>
<text text-anchor="middle" x="1141.5" y="-1001" font-family="Helvetica,sans-Serif" font-size="10.00">_multiIndex &gt;</text>
</a>
</g>
</g>
<!-- Node44&#45;&gt;Node38 -->
<g id="edge52" class="edge">
<title>Node44&#45;&gt;Node38</title>
<path fill="none" stroke="#9a32cd" stroke-dasharray="5,2" d="M1236.96,-1004.21C1305.2,-1000.75 1394.57,-996.22 1448.92,-993.46"/>
<polygon fill="#9a32cd" stroke="#9a32cd" points="1236.44,-1000.73 1226.63,-1004.73 1236.79,-1007.72 1236.44,-1000.73"/>
<text text-anchor="middle" x="1329" y="-1016" font-family="Helvetica,sans-Serif" font-size="10.00"> numeredRowDofsPtr</text>
<text text-anchor="middle" x="1329" y="-1005" font-family="Helvetica,sans-Serif" font-size="10.00">numeredColDofsPtr</text>
</g>
<!-- Node45 -->
<g id="node45" class="node">
<title>Node45</title>
<g id="a_node45"><a xlink:title=" ">
<polygon fill="white" stroke="#bfbfbf" points="1072.5,-955.5 1072.5,-974.5 1210.5,-974.5 1210.5,-955.5 1072.5,-955.5"/>
<text text-anchor="middle" x="1141.5" y="-962.5" font-family="Helvetica,sans-Serif" font-size="10.00">vector&lt; BlockFieldPair &gt;</text>
</a>
</g>
</g>
<!-- Node45&#45;&gt;Node38 -->
<g id="edge54" class="edge">
<title>Node45&#45;&gt;Node38</title>
<path fill="none" stroke="#9a32cd" stroke-dasharray="5,2" d="M1220.77,-969.18C1271.13,-972.06 1337.97,-976.21 1397,-981 1413.95,-982.38 1432.49,-984.14 1448.97,-985.81"/>
<polygon fill="#9a32cd" stroke="#9a32cd" points="1220.78,-965.68 1210.6,-968.61 1220.39,-972.67 1220.78,-965.68"/>
<text text-anchor="middle" x="1329" y="-984" font-family="Helvetica,sans-Serif" font-size="10.00"> emptyFieldBlocks</text>
</g>
<!-- Node46 -->
<g id="node46" class="node">
<title>Node46</title>
<g id="a_node46"><a xlink:title=" ">
<polygon fill="white" stroke="#bfbfbf" points="1063.5,-906 1063.5,-936 1219.5,-936 1219.5,-906 1063.5,-906"/>
<text text-anchor="start" x="1071.5" y="-924" font-family="Helvetica,sans-Serif" font-size="10.00">shared_ptr&lt; MoFEM::</text>
<text text-anchor="middle" x="1141.5" y="-913" font-family="Helvetica,sans-Serif" font-size="10.00">Problem::SubProblemData &gt;</text>
</a>
</g>
</g>
<!-- Node46&#45;&gt;Node38 -->
<g id="edge55" class="edge">
<title>Node46&#45;&gt;Node38</title>
<path fill="none" stroke="#9a32cd" stroke-dasharray="5,2" d="M1229.56,-928.65C1279.09,-934.08 1342.03,-942.79 1397,-956 1424.13,-962.52 1454.22,-973.53 1474.34,-981.46"/>
<polygon fill="#9a32cd" stroke="#9a32cd" points="1229.84,-925.16 1219.52,-927.58 1229.09,-932.12 1229.84,-925.16"/>
<text text-anchor="middle" x="1329" y="-959" font-family="Helvetica,sans-Serif" font-size="10.00"> subProblemData</text>
</g>
<!-- Node47 -->
<g id="node47" class="node">
<title>Node47</title>
<g id="a_node47"><a xlink:title=" ">
<polygon fill="white" stroke="#bfbfbf" points="1040,-867.5 1040,-886.5 1243,-886.5 1243,-867.5 1040,-867.5"/>
<text text-anchor="middle" x="1141.5" y="-874.5" font-family="Helvetica,sans-Serif" font-size="10.00">shared_ptr&lt; SequenceDofContainer &gt;</text>
</a>
</g>
</g>
<!-- Node47&#45;&gt;Node38 -->
<g id="edge57" class="edge">
<title>Node47&#45;&gt;Node38</title>
<path fill="none" stroke="#9a32cd" stroke-dasharray="5,2" d="M1253.27,-875.65C1299.31,-878.6 1352.31,-886.7 1397,-906 1437.49,-923.49 1474.05,-962.92 1489.59,-981.27"/>
<polygon fill="#9a32cd" stroke="#9a32cd" points="1253.43,-872.16 1243.25,-875.09 1253.04,-879.15 1253.43,-872.16"/>
<text text-anchor="middle" x="1329" y="-920" font-family="Helvetica,sans-Serif" font-size="10.00"> sequenceRowDofContainer</text>
<text text-anchor="middle" x="1329" y="-909" font-family="Helvetica,sans-Serif" font-size="10.00">sequenceColDofContainer</text>
</g>
<!-- Node48 -->
<g id="node48" class="node">
<title>Node48</title>
<g id="a_node48"><a xlink:title=" ">
<polygon fill="white" stroke="#bfbfbf" points="1097.5,-829.5 1097.5,-848.5 1185.5,-848.5 1185.5,-829.5 1097.5,-829.5"/>
<text text-anchor="middle" x="1141.5" y="-836.5" font-family="Helvetica,sans-Serif" font-size="10.00">BitProblemId *</text>
</a>
</g>
</g>
<!-- Node48&#45;&gt;Node38 -->
<g id="edge58" class="edge">
<title>Node48&#45;&gt;Node38</title>
<path fill="none" stroke="#9a32cd" stroke-dasharray="5,2" d="M1195.99,-838.65C1260.23,-839.08 1363.53,-842.74 1397,-861 1448.59,-889.15 1482.23,-956.17 1493.4,-981.28"/>
<polygon fill="#9a32cd" stroke="#9a32cd" points="1195.65,-835.15 1185.64,-838.61 1195.62,-842.15 1195.65,-835.15"/>
<text text-anchor="middle" x="1329" y="-864" font-family="Helvetica,sans-Serif" font-size="10.00"> tagId</text>
</g>
<!-- Node49 -->
<g id="node49" class="node">
<title>Node49</title>
<g id="a_node49"><a xlink:title=" ">
<polygon fill="white" stroke="#bfbfbf" points="1805,-712 1805,-742 1967,-742 1967,-712 1805,-712"/>
<text text-anchor="start" x="1813" y="-730" font-family="Helvetica,sans-Serif" font-size="10.00">shared_ptr&lt; const MoFEM</text>
<text text-anchor="middle" x="1886" y="-719" font-family="Helvetica,sans-Serif" font-size="10.00">::NumeredEntFiniteElement &gt;</text>
</a>
</g>
</g>
<!-- Node49&#45;&gt;Node12 -->
<g id="edge59" class="edge">
<title>Node49&#45;&gt;Node12</title>
<path fill="none" stroke="#9a32cd" stroke-dasharray="5,2" d="M1977.27,-723.32C1981.91,-723.19 1986.51,-723.09 1991,-723 2054.99,-721.77 2071.11,-719.29 2135,-723 2157.09,-724.28 2181.35,-726.89 2202.25,-729.5"/>
<polygon fill="#9a32cd" stroke="#9a32cd" points="1976.95,-719.82 1967.05,-723.61 1977.15,-726.82 1976.95,-719.82"/>
<text text-anchor="middle" x="2063" y="-726" font-family="Helvetica,sans-Serif" font-size="10.00"> numeredEntFiniteElementPtr</text>
</g>
<!-- Node50 -->
<g id="node50" class="node">
<title>Node50</title>
<g id="a_node50"><a xlink:title=" ">
<polygon fill="white" stroke="#bfbfbf" points="1864,-963.5 1864,-982.5 1908,-982.5 1908,-963.5 1864,-963.5"/>
<text text-anchor="middle" x="1886" y="-970.5" font-family="Helvetica,sans-Serif" font-size="10.00">string</text>
</a>
</g>
</g>
<!-- Node50&#45;&gt;Node3 -->
<g id="edge82" class="edge">
<title>Node50&#45;&gt;Node3</title>
<path fill="none" stroke="#9a32cd" stroke-dasharray="5,2" d="M1918.5,-973.03C2057.87,-973.17 2621.73,-973.71 2836.96,-973.92"/>
<polygon fill="#9a32cd" stroke="#9a32cd" points="1918.13,-969.53 1908.12,-973.02 1918.12,-976.53 1918.13,-969.53"/>
<text text-anchor="middle" x="2458" y="-987" font-family="Helvetica,sans-Serif" font-size="10.00"> colFieldName</text>
<text text-anchor="middle" x="2458" y="-976" font-family="Helvetica,sans-Serif" font-size="10.00">rowFieldName</text>
</g>
<!-- Node50&#45;&gt;Node12 -->
<g id="edge60" class="edge">
<title>Node50&#45;&gt;Node12</title>
<path fill="none" stroke="#9a32cd" stroke-dasharray="5,2" d="M1918.3,-974.62C1936.98,-973.77 1959.59,-969.23 1973,-954 2002.2,-920.84 1959.47,-786.95 1991,-756 2005.72,-741.56 2129.59,-738.03 2202.31,-737.21"/>
<polygon fill="#9a32cd" stroke="#9a32cd" points="1918.09,-971.12 1908.14,-974.75 1918.18,-978.12 1918.09,-971.12"/>
<text text-anchor="middle" x="2063" y="-759" font-family="Helvetica,sans-Serif" font-size="10.00"> feName</text>
</g>
<!-- Node51 -->
<g id="node51" class="node">
<title>Node51</title>
<g id="a_node51"><a xlink:title=" ">
<polygon fill="white" stroke="#bfbfbf" points="1804.5,-663 1804.5,-693 1967.5,-693 1967.5,-663 1804.5,-663"/>
<text text-anchor="start" x="1812.5" y="-681" font-family="Helvetica,sans-Serif" font-size="10.00">function&lt; bool(MoFEM</text>
<text text-anchor="middle" x="1886" y="-670" font-family="Helvetica,sans-Serif" font-size="10.00">::FEMethod *fe_method_ptr)&gt;</text>
</a>
</g>
</g>
<!-- Node51&#45;&gt;Node12 -->
<g id="edge61" class="edge">
<title>Node51&#45;&gt;Node12</title>
<path fill="none" stroke="#9a32cd" stroke-dasharray="5,2" d="M1977.73,-678.01C2025.73,-680.54 2084.94,-687.71 2135,-706 2144.03,-709.3 2144.09,-714.38 2153,-718 2168.52,-724.31 2186.22,-728.54 2202.48,-731.37"/>
<polygon fill="#9a32cd" stroke="#9a32cd" points="1977.81,-674.51 1967.66,-677.54 1977.48,-681.51 1977.81,-674.51"/>
<text text-anchor="middle" x="2063" y="-709" font-family="Helvetica,sans-Serif" font-size="10.00"> exeTestHook</text>
</g>
<!-- Node52 -->
<g id="node52" class="node">
<title>Node52</title>
<g id="a_node52"><a xlink:href="classdouble.html" target="_top" xlink:title=" ">
<polygon fill="white" stroke="black" points="2231,-397.5 2231,-416.5 2281,-416.5 2281,-397.5 2231,-397.5"/>
<text text-anchor="middle" x="2256" y="-404.5" font-family="Helvetica,sans-Serif" font-size="10.00">double</text>
</a>
</g>
</g>
<!-- Node52&#45;&gt;Node1 -->
<g id="edge84" class="edge">
<title>Node52&#45;&gt;Node1</title>
<path fill="none" stroke="#9a32cd" stroke-dasharray="5,2" d="M2291.27,-405.51C2358.38,-402.72 2511.86,-397 2641,-397 2641,-397 2641,-397 3140.5,-397 3282.03,-397 3344.57,-621.29 3356.74,-671.22"/>
<polygon fill="#9a32cd" stroke="#9a32cd" points="2291.1,-402.01 2281.26,-405.93 2291.39,-409.01 2291.1,-402.01"/>
<text text-anchor="middle" x="2922" y="-411" font-family="Helvetica,sans-Serif" font-size="10.00"> epsRho</text>
<text text-anchor="middle" x="2922" y="-400" font-family="Helvetica,sans-Serif" font-size="10.00">epsL</text>
</g>
<!-- Node52&#45;&gt;Node11 -->
<g id="edge62" class="edge">
<title>Node52&#45;&gt;Node11</title>
<path fill="none" stroke="#9a32cd" stroke-dasharray="5,2" d="M2291.49,-407.99C2362.34,-410.29 2519.26,-416.93 2539,-431 2616.9,-486.52 2636.17,-615.37 2640.11,-651.45"/>
<polygon fill="#9a32cd" stroke="#9a32cd" points="2291.4,-404.48 2281.29,-407.67 2291.18,-411.48 2291.4,-404.48"/>
<text text-anchor="middle" x="2458" y="-434" font-family="Helvetica,sans-Serif" font-size="10.00"> elementMeasure</text>
</g>
<!-- Node53 -->
<g id="node53" class="node">
<title>Node53</title>
<g id="a_node53"><a xlink:title=" ">
<polygon fill="white" stroke="#bfbfbf" points="2170,-519.5 2170,-560.5 2342,-560.5 2342,-519.5 2170,-519.5"/>
<text text-anchor="start" x="2178" y="-548.5" font-family="Helvetica,sans-Serif" font-size="10.00">array&lt; boost::shared</text>
<text text-anchor="start" x="2178" y="-537.5" font-family="Helvetica,sans-Serif" font-size="10.00">_ptr&lt; MoFEM::EntitiesFieldData</text>
<text text-anchor="middle" x="2256" y="-526.5" font-family="Helvetica,sans-Serif" font-size="10.00"> &gt;, LASTSPACE &gt;</text>
</a>
</g>
</g>
<!-- Node53&#45;&gt;Node11 -->
<g id="edge63" class="edge">
<title>Node53&#45;&gt;Node11</title>
<path fill="none" stroke="#9a32cd" stroke-dasharray="5,2" d="M2352.27,-529.6C2408.93,-527.35 2480.87,-531.55 2539,-558 2584.81,-578.85 2621.3,-629.99 2635.07,-651.36"/>
<polygon fill="#9a32cd" stroke="#9a32cd" points="2352.06,-526.11 2342.23,-530.08 2352.39,-533.1 2352.06,-526.11"/>
<text text-anchor="middle" x="2458" y="-572" font-family="Helvetica,sans-Serif" font-size="10.00"> derivedDataOnElement</text>
<text text-anchor="middle" x="2458" y="-561" font-family="Helvetica,sans-Serif" font-size="10.00">dataOnElement</text>
</g>
<!-- Node54 -->
<g id="node54" class="node">
<title>Node54</title>
<g id="a_node54"><a xlink:title=" ">
<polygon fill="white" stroke="#bfbfbf" points="2222,-481.5 2222,-500.5 2290,-500.5 2290,-481.5 2222,-481.5"/>
<text text-anchor="middle" x="2256" y="-488.5" font-family="Helvetica,sans-Serif" font-size="10.00">EntityType</text>
</a>
</g>
</g>
<!-- Node54&#45;&gt;Node11 -->
<g id="edge64" class="edge">
<title>Node54&#45;&gt;Node11</title>
<path fill="none" stroke="#9a32cd" stroke-dasharray="5,2" d="M2300.05,-483.74C2358.41,-476.18 2463.92,-470.73 2539,-514 2595.25,-546.41 2627.64,-623.88 2637.64,-651.23"/>
<polygon fill="#9a32cd" stroke="#9a32cd" points="2299.5,-480.28 2290.07,-485.12 2300.45,-487.22 2299.5,-480.28"/>
<text text-anchor="middle" x="2458" y="-517" font-family="Helvetica,sans-Serif" font-size="10.00"> lastEvaluatedElementEntityType</text>
</g>
<!-- Node55 -->
<g id="node55" class="node">
<title>Node55</title>
<g id="a_node55"><a xlink:href="structMoFEM_1_1DeprecatedCoreInterface.html" target="_top" xlink:title="Deprecated interface functions.">
<polygon fill="white" stroke="black" points="1600,-22.5 1600,-41.5 1781,-41.5 1781,-22.5 1600,-22.5"/>
<text text-anchor="middle" x="1690.5" y="-29.5" font-family="Helvetica,sans-Serif" font-size="10.00">MoFEM::DeprecatedCoreInterface</text>
</a>
</g>
</g>
<!-- Node55&#45;&gt;Node11 -->
<g id="edge65" class="edge">
<title>Node55&#45;&gt;Node11</title>
<path fill="none" stroke="#9a32cd" stroke-dasharray="5,2" d="M1772.61,-45.03C1775.49,-46.24 1778.3,-47.56 1781,-49 1988.71,-159.76 1941.86,-321.94 2153,-426 2230.53,-464.21 2467.54,-425.37 2539,-474 2604.42,-518.53 2631.74,-619.28 2638.95,-651.15"/>
<polygon fill="#9a32cd" stroke="#9a32cd" points="1773.8,-41.73 1763.21,-41.53 1771.36,-48.3 1773.8,-41.73"/>
<text text-anchor="middle" x="2063" y="-418" font-family="Helvetica,sans-Serif" font-size="10.00"> mField</text>
</g>
<!-- Node56&#45;&gt;Node55 -->
<g id="edge66" class="edge">
<title>Node56&#45;&gt;Node55</title>
<path fill="none" stroke="midnightblue" d="M1214.39,-37.21C1313.43,-36.13 1491.78,-34.17 1599.54,-32.99"/>
<polygon fill="midnightblue" stroke="midnightblue" points="1214.15,-33.71 1204.18,-37.32 1214.22,-40.71 1214.15,-33.71"/>
</g>
<!-- Node57 -->
<g id="node57" class="node">
<title>Node57</title>
<g id="a_node57"><a xlink:title=" ">
<polygon fill="white" stroke="#bfbfbf" points="2172.5,-815 2172.5,-867 2339.5,-867 2339.5,-815 2172.5,-815"/>
<text text-anchor="start" x="2180.5" y="-855" font-family="Helvetica,sans-Serif" font-size="10.00">function&lt; MoFEMErrorCode</text>
<text text-anchor="start" x="2180.5" y="-844" font-family="Helvetica,sans-Serif" font-size="10.00">(ForcesAndSourcesCore *fe</text>
<text text-anchor="start" x="2180.5" y="-833" font-family="Helvetica,sans-Serif" font-size="10.00">_raw_ptr, int order_row,</text>
<text text-anchor="middle" x="2256" y="-822" font-family="Helvetica,sans-Serif" font-size="10.00"> int order_col, int order_data)&gt;</text>
</a>
</g>
</g>
<!-- Node57&#45;&gt;Node11 -->
<g id="edge69" class="edge">
<title>Node57&#45;&gt;Node11</title>
<path fill="none" stroke="#9a32cd" stroke-dasharray="5,2" d="M2349.75,-835.48C2407.57,-828.58 2481.61,-813.18 2539,-779 2585.99,-751.01 2622.33,-693.72 2635.57,-670.8"/>
<polygon fill="#9a32cd" stroke="#9a32cd" points="2349.06,-832.04 2339.52,-836.64 2349.85,-838.99 2349.06,-832.04"/>
<text text-anchor="middle" x="2458" y="-834" font-family="Helvetica,sans-Serif" font-size="10.00"> setRuleHook</text>
</g>
<!-- Node58 -->
<g id="node58" class="node">
<title>Node58</title>
<g id="a_node58"><a xlink:title=" ">
<polygon fill="white" stroke="#bfbfbf" points="2155,-766 2155,-796 2357,-796 2357,-766 2155,-766"/>
<text text-anchor="start" x="2163" y="-784" font-family="Helvetica,sans-Serif" font-size="10.00">ptr_deque&lt; MoFEM::Forces</text>
<text text-anchor="middle" x="2256" y="-773" font-family="Helvetica,sans-Serif" font-size="10.00">AndSourcesCore::UserDataOperator &gt;</text>
</a>
</g>
</g>
<!-- Node58&#45;&gt;Node11 -->
<g id="edge70" class="edge">
<title>Node58&#45;&gt;Node11</title>
<path fill="none" stroke="#9a32cd" stroke-dasharray="5,2" d="M2367.34,-766.65C2420.44,-757.56 2484.29,-743.38 2539,-722 2573.4,-708.55 2609.56,-684.09 2628.2,-670.59"/>
<polygon fill="#9a32cd" stroke="#9a32cd" points="2366.5,-763.24 2357.21,-768.34 2367.65,-770.15 2366.5,-763.24"/>
<text text-anchor="middle" x="2458" y="-767" font-family="Helvetica,sans-Serif" font-size="10.00"> opPtrVector</text>
</g>
<!-- Node59 -->
<g id="node59" class="node">
<title>Node59</title>
<g id="a_node59"><a xlink:href="structMoFEM_1_1EntitiesFieldData.html" target="_top" xlink:title="data structure for finite element entity">
<polygon fill="white" stroke="black" points="2185,-886.5 2185,-905.5 2327,-905.5 2327,-886.5 2185,-886.5"/>
<text text-anchor="middle" x="2256" y="-893.5" font-family="Helvetica,sans-Serif" font-size="10.00">MoFEM::EntitiesFieldData</text>
</a>
</g>
</g>
<!-- Node59&#45;&gt;Node11 -->
<g id="edge71" class="edge">
<title>Node59&#45;&gt;Node11</title>
<path fill="none" stroke="#9a32cd" stroke-dasharray="5,2" d="M2337.61,-889.45C2409.25,-882.26 2507.4,-868.62 2539,-846 2602.82,-800.32 2631.22,-701.73 2638.82,-670.62"/>
<polygon fill="#9a32cd" stroke="#9a32cd" points="2336.85,-886.01 2327.24,-890.46 2337.53,-892.97 2336.85,-886.01"/>
<text text-anchor="middle" x="2458" y="-931" font-family="Helvetica,sans-Serif" font-size="10.00"> dataNoField</text>
<text text-anchor="middle" x="2458" y="-920" font-family="Helvetica,sans-Serif" font-size="10.00">dataL2</text>
<text text-anchor="middle" x="2458" y="-909" font-family="Helvetica,sans-Serif" font-size="10.00">dataH1</text>
<text text-anchor="middle" x="2458" y="-898" font-family="Helvetica,sans-Serif" font-size="10.00">dataHcurl</text>
<text text-anchor="middle" x="2458" y="-887" font-family="Helvetica,sans-Serif" font-size="10.00">dataHdiv</text>
</g>
<!-- Node60 -->
<g id="node60" class="node">
<title>Node60</title>
<g id="a_node60"><a xlink:title=" ">
<polygon fill="white" stroke="#bfbfbf" points="1805,-1002 1805,-1032 1967,-1032 1967,-1002 1805,-1002"/>
<text text-anchor="start" x="1813" y="-1020" font-family="Helvetica,sans-Serif" font-size="10.00">array&lt; std::bitset</text>
<text text-anchor="middle" x="1886" y="-1009" font-family="Helvetica,sans-Serif" font-size="10.00">&lt; LASTBASE &gt;, LASTSPACE &gt;</text>
</a>
</g>
</g>
<!-- Node60&#45;&gt;Node59 -->
<g id="edge72" class="edge">
<title>Node60&#45;&gt;Node59</title>
<path fill="none" stroke="#9a32cd" stroke-dasharray="5,2" d="M1950.07,-999.02C1957.81,-996.71 1965.6,-994.33 1973,-992 2067.45,-962.21 2178.4,-923.27 2228.3,-905.54"/>
<polygon fill="#9a32cd" stroke="#9a32cd" points="1948.92,-995.71 1940.33,-1001.9 1950.91,-1002.42 1948.92,-995.71"/>
<text text-anchor="middle" x="2063" y="-998" font-family="Helvetica,sans-Serif" font-size="10.00"> brokenBasesOnSpaces</text>
<text text-anchor="middle" x="2063" y="-987" font-family="Helvetica,sans-Serif" font-size="10.00">basesOnSpaces</text>
</g>
<!-- Node61 -->
<g id="node61" class="node">
<title>Node61</title>
<g id="a_node61"><a xlink:title=" ">
<polygon fill="white" stroke="#bfbfbf" points="1809.5,-903.5 1809.5,-944.5 1962.5,-944.5 1962.5,-903.5 1809.5,-903.5"/>
<text text-anchor="start" x="1817.5" y="-932.5" font-family="Helvetica,sans-Serif" font-size="10.00">array&lt; boost::ptr_vector</text>
<text text-anchor="start" x="1817.5" y="-921.5" font-family="Helvetica,sans-Serif" font-size="10.00">&lt; MoFEM::EntitiesFieldData</text>
<text text-anchor="middle" x="1886" y="-910.5" font-family="Helvetica,sans-Serif" font-size="10.00">::EntData &gt;, MBMAXTYPE &gt;</text>
</a>
</g>
</g>
<!-- Node61&#45;&gt;Node59 -->
<g id="edge73" class="edge">
<title>Node61&#45;&gt;Node59</title>
<path fill="none" stroke="#9a32cd" stroke-dasharray="5,2" d="M1972.9,-906.37C1979.01,-905.46 1985.09,-904.65 1991,-904 2056.4,-896.77 2131.43,-895.13 2184.75,-895.09"/>
<polygon fill="#9a32cd" stroke="#9a32cd" points="1971.95,-902.98 1962.61,-908 1973.04,-909.9 1971.95,-902.98"/>
<text text-anchor="middle" x="2063" y="-907" font-family="Helvetica,sans-Serif" font-size="10.00"> dataOnEntities</text>
</g>
<!-- Node62 -->
<g id="node62" class="node">
<title>Node62</title>
<g id="a_node62"><a xlink:title=" ">
<polygon fill="white" stroke="#bfbfbf" points="1799,-854 1799,-884 1973,-884 1973,-854 1799,-854"/>
<text text-anchor="start" x="1807" y="-872" font-family="Helvetica,sans-Serif" font-size="10.00">array&lt; std::bitset</text>
<text text-anchor="middle" x="1886" y="-861" font-family="Helvetica,sans-Serif" font-size="10.00">&lt; LASTSPACE &gt;, MBMAXTYPE &gt;</text>
</a>
</g>
</g>
<!-- Node62&#45;&gt;Node59 -->
<g id="edge74" class="edge">
<title>Node62&#45;&gt;Node59</title>
<path fill="none" stroke="#9a32cd" stroke-dasharray="5,2" d="M1983.27,-861.26C2029.53,-859.6 2085.54,-860.62 2135,-870 2143.43,-871.6 2144.74,-874.65 2153,-877 2165.99,-880.7 2180.13,-883.86 2193.62,-886.49"/>
<polygon fill="#9a32cd" stroke="#9a32cd" points="1983.1,-857.76 1973.25,-861.66 1983.38,-864.76 1983.1,-857.76"/>
<text text-anchor="middle" x="2063" y="-873" font-family="Helvetica,sans-Serif" font-size="10.00"> spacesOnEntities</text>
</g>
<!-- Node63 -->
<g id="node63" class="node">
<title>Node63</title>
<g id="a_node63"><a xlink:title=" ">
<polygon fill="white" stroke="#bfbfbf" points="1801.5,-805 1801.5,-835 1970.5,-835 1970.5,-805 1801.5,-805"/>
<text text-anchor="start" x="1809.5" y="-823" font-family="Helvetica,sans-Serif" font-size="10.00">array&lt; std::bitset</text>
<text text-anchor="middle" x="1886" y="-812" font-family="Helvetica,sans-Serif" font-size="10.00">&lt; LASTBASE &gt;, MBMAXTYPE &gt;</text>
</a>
</g>
</g>
<!-- Node63&#45;&gt;Node59 -->
<g id="edge75" class="edge">
<title>Node63&#45;&gt;Node59</title>
<path fill="none" stroke="#9a32cd" stroke-dasharray="5,2" d="M1980.86,-820.63C2040.13,-822.68 2110.05,-828.68 2135,-845 2148.65,-853.93 2139.73,-867.5 2153,-877 2162.37,-883.71 2173.44,-888.25 2184.76,-891.29"/>
<polygon fill="#9a32cd" stroke="#9a32cd" points="1980.79,-817.12 1970.69,-820.31 1980.58,-824.12 1980.79,-817.12"/>
<text text-anchor="middle" x="2063" y="-848" font-family="Helvetica,sans-Serif" font-size="10.00"> basesOnEntities</text>
</g>
<!-- Node64 -->
<g id="node64" class="node">
<title>Node64</title>
<g id="a_node64"><a xlink:title=" ">
<polygon fill="white" stroke="#bfbfbf" points="1830,-766.5 1830,-785.5 1942,-785.5 1942,-766.5 1830,-766.5"/>
<text text-anchor="middle" x="1886" y="-773.5" font-family="Helvetica,sans-Serif" font-size="10.00">UBlasMatrix&lt; int &gt;</text>
</a>
</g>
</g>
<!-- Node64&#45;&gt;Node59 -->
<g id="edge76" class="edge">
<title>Node64&#45;&gt;Node59</title>
<path fill="none" stroke="#9a32cd" stroke-dasharray="5,2" d="M1952.27,-772.52C2016.48,-770.54 2108.63,-772.08 2135,-795 2163.16,-819.48 2126.2,-851.04 2153,-877 2161.73,-885.46 2172.95,-890.78 2184.74,-894.03"/>
<polygon fill="#9a32cd" stroke="#9a32cd" points="1952.09,-769.02 1942.21,-772.86 1952.33,-776.02 1952.09,-769.02"/>
<text text-anchor="middle" x="2063" y="-809" font-family="Helvetica,sans-Serif" font-size="10.00"> facesNodesOrder</text>
<text text-anchor="middle" x="2063" y="-798" font-family="Helvetica,sans-Serif" font-size="10.00">facesNodes</text>
</g>
<!-- Node65 -->
<g id="node65" class="node">
<title>Node65</title>
<g id="a_node65"><a xlink:title=" ">
<polygon fill="white" stroke="#bfbfbf" points="1827.5,-1051.5 1827.5,-1070.5 1944.5,-1070.5 1944.5,-1051.5 1827.5,-1051.5"/>
<text text-anchor="middle" x="1886" y="-1058.5" font-family="Helvetica,sans-Serif" font-size="10.00">bitset&lt; LASTBASE &gt;</text>
</a>
</g>
</g>
<!-- Node65&#45;&gt;Node59 -->
<g id="edge77" class="edge">
<title>Node65&#45;&gt;Node59</title>
<path fill="none" stroke="#9a32cd" stroke-dasharray="5,2" d="M1954.75,-1057.17C2006.6,-1051.92 2078.56,-1039.47 2135,-1010 2135.42,-1009.78 2215.9,-933.21 2244.81,-905.7"/>
<polygon fill="#9a32cd" stroke="#9a32cd" points="1954.28,-1053.7 1944.65,-1058.13 1954.94,-1060.67 1954.28,-1053.7"/>
<text text-anchor="middle" x="2063" y="-1055" font-family="Helvetica,sans-Serif" font-size="10.00"> bAse</text>
</g>
<!-- Node66 -->
<g id="node66" class="node">
<title>Node66</title>
<g id="a_node66"><a xlink:title=" ">
<polygon fill="white" stroke="#bfbfbf" points="2193.5,-667.5 2193.5,-708.5 2318.5,-708.5 2318.5,-667.5 2193.5,-667.5"/>
<text text-anchor="start" x="2201.5" y="-696.5" font-family="Helvetica,sans-Serif" font-size="10.00">function&lt; int(int order</text>
<text text-anchor="start" x="2201.5" y="-685.5" font-family="Helvetica,sans-Serif" font-size="10.00">_row, int order_col, int</text>
<text text-anchor="middle" x="2256" y="-674.5" font-family="Helvetica,sans-Serif" font-size="10.00"> order_data)&gt;</text>
</a>
</g>
</g>
<!-- Node66&#45;&gt;Node11 -->
<g id="edge78" class="edge">
<title>Node66&#45;&gt;Node11</title>
<path fill="none" stroke="#9a32cd" stroke-dasharray="5,2" d="M2328.81,-682.95C2393.51,-678.4 2488.67,-671.71 2556.91,-666.91"/>
<polygon fill="#9a32cd" stroke="#9a32cd" points="2328.43,-679.47 2318.7,-683.66 2328.92,-686.45 2328.43,-679.47"/>
<text text-anchor="middle" x="2458" y="-682" font-family="Helvetica,sans-Serif" font-size="10.00"> getRuleHook</text>
</g>
<!-- Node67 -->
<g id="node67" class="node">
<title>Node67</title>
<g id="a_node67"><a xlink:title=" ">
<polygon fill="white" stroke="#bfbfbf" points="2195,-618 2195,-648 2317,-648 2317,-618 2195,-618"/>
<text text-anchor="start" x="2203" y="-636" font-family="Helvetica,sans-Serif" font-size="10.00">shared_ptr&lt; MoFEM::</text>
<text text-anchor="middle" x="2256" y="-625" font-family="Helvetica,sans-Serif" font-size="10.00">BaseFunction &gt;</text>
</a>
</g>
</g>
<!-- Node67&#45;&gt;Node11 -->
<g id="edge79" class="edge">
<title>Node67&#45;&gt;Node11</title>
<path fill="none" stroke="#9a32cd" stroke-dasharray="5,2" d="M2327.16,-632.28C2384.34,-632.41 2467.1,-634.2 2539,-642 2558.52,-644.12 2579.91,-647.88 2598.04,-651.49"/>
<polygon fill="#9a32cd" stroke="#9a32cd" points="2327.15,-628.78 2317.15,-632.28 2327.15,-635.78 2327.15,-628.78"/>
<text text-anchor="middle" x="2458" y="-656" font-family="Helvetica,sans-Serif" font-size="10.00"> userPolynomialBasePtr</text>
<text text-anchor="middle" x="2458" y="-645" font-family="Helvetica,sans-Serif" font-size="10.00">elementPolynomialBasePtr</text>
</g>
<!-- Node68 -->
<g id="node68" class="node">
<title>Node68</title>
<g id="a_node68"><a xlink:href="classUBlasMatrix_3_01double_01_4.html" target="_top" xlink:title=" ">
<polygon fill="white" stroke="black" points="2190,-579.5 2190,-598.5 2322,-598.5 2322,-579.5 2190,-579.5"/>
<text text-anchor="middle" x="2256" y="-586.5" font-family="Helvetica,sans-Serif" font-size="10.00">UBlasMatrix&lt; double &gt;</text>
</a>
</g>
</g>
<!-- Node68&#45;&gt;Node11 -->
<g id="edge80" class="edge">
<title>Node68&#45;&gt;Node11</title>
<path fill="none" stroke="#9a32cd" stroke-dasharray="5,2" d="M2332.29,-584.82C2389.96,-583.69 2470.91,-586.62 2539,-606 2573.25,-615.75 2608.9,-638.31 2627.64,-651.31"/>
<polygon fill="#9a32cd" stroke="#9a32cd" points="2332.08,-581.32 2322.17,-585.06 2332.25,-588.32 2332.08,-581.32"/>
<text text-anchor="middle" x="2458" y="-620" font-family="Helvetica,sans-Serif" font-size="10.00"> coordsAtGaussPts</text>
<text text-anchor="middle" x="2458" y="-609" font-family="Helvetica,sans-Serif" font-size="10.00">gaussPts</text>
</g>
<!-- Node69 -->
<g id="node69" class="node">
<title>Node69</title>
<g id="a_node69"><a xlink:title=" ">
<polygon fill="white" stroke="#bfbfbf" points="2576.5,-926.5 2576.5,-945.5 2707.5,-945.5 2707.5,-926.5 2576.5,-926.5"/>
<text text-anchor="middle" x="2642" y="-933.5" font-family="Helvetica,sans-Serif" font-size="10.00">static const char *const</text>
</a>
</g>
</g>
<!-- Node69&#45;&gt;Node3 -->
<g id="edge81" class="edge">
<title>Node69&#45;&gt;Node3</title>
<path fill="none" stroke="#9a32cd" stroke-dasharray="5,2" d="M2717.66,-938.76C2749.09,-940.63 2785.96,-943.77 2819,-949 2834.67,-951.48 2851.47,-955.16 2866.82,-958.94"/>
<polygon fill="#9a32cd" stroke="#9a32cd" points="2717.84,-935.27 2707.66,-938.2 2717.45,-942.25 2717.84,-935.27"/>
<text text-anchor="middle" x="2782" y="-952" font-family="Helvetica,sans-Serif" font-size="10.00"> OpTypeNames</text>
</g>
<!-- Node70 -->
<g id="node70" class="node">
<title>Node70</title>
<g id="a_node70"><a xlink:title=" ">
<polygon fill="white" stroke="#bfbfbf" points="3098,-349.5 3098,-368.5 3181,-368.5 3181,-349.5 3098,-349.5"/>
<text text-anchor="middle" x="3139.5" y="-356.5" font-family="Helvetica,sans-Serif" font-size="10.00">MatrixDouble</text>
</a>
</g>
</g>
<!-- Node70&#45;&gt;Node1 -->
<g id="edge83" class="edge">
<title>Node70&#45;&gt;Node1</title>
<path fill="none" stroke="#9a32cd" stroke-dasharray="5,2" d="M3191.3,-352.31C3215.48,-351.9 3243.33,-355.85 3263,-372 3360.24,-451.87 3360.81,-628.55 3359.43,-671.47"/>
<polygon fill="#9a32cd" stroke="#9a32cd" points="3191.05,-348.81 3181.2,-352.72 3191.34,-355.81 3191.05,-348.81"/>
<text text-anchor="middle" x="3258" y="-375" font-family="Helvetica,sans-Serif" font-size="10.00"> C</text>
</g>
</g>
</svg>
