<?xml version="1.0" encoding="UTF-8" standalone="no"?>
<!DOCTYPE svg PUBLIC "-//W3C//DTD SVG 1.1//EN"
 "http://www.w3.org/Graphics/SVG/1.1/DTD/svg11.dtd">
<!-- Generated by graphviz version 2.43.0 (0)
 -->
<!-- Title: MoFEM::TriPolynomialBase Pages: 1 -->
<svg width="2027pt" height="455pt"
 viewBox="0.00 0.00 2027.00 455.49" xmlns="http://www.w3.org/2000/svg" xmlns:xlink="http://www.w3.org/1999/xlink">
<g id="graph0" class="graph" transform="scale(1 1) rotate(0) translate(4 451.49)">
<title>MoFEM::TriPolynomialBase</title>
<polygon fill="white" stroke="transparent" points="-4,4 -4,-451.49 2023,-451.49 2023,4 -4,4"/>
<!-- Node1 -->
<g id="node1" class="node">
<title>Node1</title>
<g id="a_node1"><a xlink:title="Calculate base functions on triangle.">
<polygon fill="#bfbfbf" stroke="black" points="1870,-253.99 1870,-272.99 2019,-272.99 2019,-253.99 1870,-253.99"/>
<text text-anchor="middle" x="1944.5" y="-260.99" font-family="Helvetica,sans-Serif" font-size="10.00">MoFEM::TriPolynomialBase</text>
</a>
</g>
</g>
<!-- Node2 -->
<g id="node2" class="node">
<title>Node2</title>
<g id="a_node2"><a xlink:href="structMoFEM_1_1BaseFunction.html" target="_top" xlink:title="Base class if inherited used to calculate base functions.">
<polygon fill="white" stroke="black" points="1434,-402.99 1434,-421.99 1558,-421.99 1558,-402.99 1434,-402.99"/>
<text text-anchor="middle" x="1496" y="-409.99" font-family="Helvetica,sans-Serif" font-size="10.00">MoFEM::BaseFunction</text>
</a>
</g>
</g>
<!-- Node2&#45;&gt;Node1 -->
<g id="edge1" class="edge">
<title>Node2&#45;&gt;Node1</title>
<path fill="none" stroke="midnightblue" d="M1540.4,-400C1607.67,-380.37 1740.93,-340.4 1852,-300.49 1875.87,-291.92 1902.72,-280.89 1921.13,-273.11"/>
<polygon fill="midnightblue" stroke="midnightblue" points="1539.2,-396.7 1530.57,-402.86 1541.15,-403.42 1539.2,-396.7"/>
</g>
<!-- Node3 -->
<g id="node3" class="node">
<title>Node3</title>
<g id="a_node3"><a xlink:href="structMoFEM_1_1BaseFunctionUnknownInterface.html" target="_top" xlink:title=" ">
<polygon fill="white" stroke="black" points="922,-388.49 922,-418.49 1092,-418.49 1092,-388.49 922,-388.49"/>
<text text-anchor="start" x="930" y="-406.49" font-family="Helvetica,sans-Serif" font-size="10.00">MoFEM::BaseFunctionUnknown</text>
<text text-anchor="middle" x="1007" y="-395.49" font-family="Helvetica,sans-Serif" font-size="10.00">Interface</text>
</a>
</g>
</g>
<!-- Node3&#45;&gt;Node2 -->
<g id="edge2" class="edge">
<title>Node3&#45;&gt;Node2</title>
<path fill="none" stroke="midnightblue" d="M1102.1,-407.22C1105.44,-407.32 1108.75,-407.41 1112,-407.49 1225.68,-410.42 1358.38,-411.67 1433.96,-412.17"/>
<polygon fill="midnightblue" stroke="midnightblue" points="1102.1,-403.72 1092,-406.91 1101.89,-410.71 1102.1,-403.72"/>
</g>
<!-- Node9 -->
<g id="node9" class="node">
<title>Node9</title>
<g id="a_node9"><a xlink:href="structMoFEM_1_1BaseFunctionCtx.html" target="_top" xlink:title="Base class used to exchange data between element data structures and class calculating base functions...">
<polygon fill="white" stroke="black" points="1260,-374.99 1260,-393.99 1400,-393.99 1400,-374.99 1260,-374.99"/>
<text text-anchor="middle" x="1330" y="-381.99" font-family="Helvetica,sans-Serif" font-size="10.00">MoFEM::BaseFunctionCtx</text>
</a>
</g>
</g>
<!-- Node3&#45;&gt;Node9 -->
<g id="edge9" class="edge">
<title>Node3&#45;&gt;Node9</title>
<path fill="none" stroke="midnightblue" d="M1102.6,-397.89C1153,-394.91 1213.89,-391.3 1259.82,-388.59"/>
<polygon fill="midnightblue" stroke="midnightblue" points="1102.11,-394.41 1092.34,-398.5 1102.53,-401.4 1102.11,-394.41"/>
</g>
<!-- Node4 -->
<g id="node4" class="node">
<title>Node4</title>
<g id="a_node4"><a xlink:href="structMoFEM_1_1UnknownInterface.html" target="_top" xlink:title="base class for all interface classes">
<polygon fill="white" stroke="black" points="735,-393.99 735,-412.99 883,-412.99 883,-393.99 735,-393.99"/>
<text text-anchor="middle" x="809" y="-400.99" font-family="Helvetica,sans-Serif" font-size="10.00">MoFEM::UnknownInterface</text>
</a>
</g>
</g>
<!-- Node4&#45;&gt;Node3 -->
<g id="edge3" class="edge">
<title>Node4&#45;&gt;Node3</title>
<path fill="none" stroke="midnightblue" d="M893.42,-403.49C902.86,-403.49 912.49,-403.49 921.94,-403.49"/>
<polygon fill="midnightblue" stroke="midnightblue" points="893.26,-399.99 883.26,-403.49 893.26,-406.99 893.26,-399.99"/>
</g>
<!-- Node5 -->
<g id="node5" class="node">
<title>Node5</title>
<g id="a_node5"><a xlink:title=" ">
<polygon fill="white" stroke="#bfbfbf" points="386,-371.99 386,-434.99 627,-434.99 627,-371.99 386,-371.99"/>
<text text-anchor="start" x="394" y="-422.99" font-family="Helvetica,sans-Serif" font-size="10.00">multi_index_container</text>
<text text-anchor="start" x="394" y="-411.99" font-family="Helvetica,sans-Serif" font-size="10.00">&lt; UIdTypeMap, indexed</text>
<text text-anchor="start" x="394" y="-400.99" font-family="Helvetica,sans-Serif" font-size="10.00">_by&lt; hashed_unique&lt; member</text>
<text text-anchor="start" x="394" y="-389.99" font-family="Helvetica,sans-Serif" font-size="10.00">&lt; UIdTypeMap, boost::typeindex</text>
<text text-anchor="middle" x="506.5" y="-378.99" font-family="Helvetica,sans-Serif" font-size="10.00">::type_index, &amp;UIdTypeMap::classIdx &gt; &gt; &gt; &gt;</text>
</a>
</g>
</g>
<!-- Node5&#45;&gt;Node4 -->
<g id="edge4" class="edge">
<title>Node5&#45;&gt;Node4</title>
<path fill="none" stroke="#9a32cd" stroke-dasharray="5,2" d="M637.41,-403.49C670.69,-403.49 705.33,-403.49 734.62,-403.49"/>
<polygon fill="#9a32cd" stroke="#9a32cd" points="637.13,-399.99 627.13,-403.49 637.13,-406.99 637.13,-399.99"/>
<text text-anchor="middle" x="681" y="-406.49" font-family="Helvetica,sans-Serif" font-size="10.00"> iFaceTypeMap</text>
</g>
<!-- Node6 -->
<g id="node6" class="node">
<title>Node6</title>
<g id="a_node6"><a xlink:title=" ">
<polygon fill="white" stroke="#bfbfbf" points="0,-393.99 0,-412.99 125,-412.99 125,-393.99 0,-393.99"/>
<text text-anchor="middle" x="62.5" y="-400.99" font-family="Helvetica,sans-Serif" font-size="10.00">multi_index_container</text>
</a>
</g>
</g>
<!-- Node6&#45;&gt;Node5 -->
<g id="edge5" class="edge">
<title>Node6&#45;&gt;Node5</title>
<path fill="none" stroke="orange" stroke-dasharray="5,2" d="M135.56,-403.49C203.25,-403.49 305.79,-403.49 385.77,-403.49"/>
<polygon fill="orange" stroke="orange" points="135.42,-399.99 125.42,-403.49 135.42,-406.99 135.42,-399.99"/>
<text text-anchor="start" x="143" y="-439.49" font-family="Helvetica,sans-Serif" font-size="10.00"> &lt; UIdTypeMap, indexed</text>
<text text-anchor="start" x="143" y="-428.49" font-family="Helvetica,sans-Serif" font-size="10.00">_by&lt; hashed_unique&lt; member</text>
<text text-anchor="start" x="143" y="-417.49" font-family="Helvetica,sans-Serif" font-size="10.00">&lt; UIdTypeMap, boost::typeindex</text>
<text text-anchor="middle" x="255.5" y="-406.49" font-family="Helvetica,sans-Serif" font-size="10.00">::type_index, &amp;UIdTypeMap::classIdx &gt; &gt; &gt; &gt;</text>
</g>
<!-- Node7 -->
<g id="node7" class="node">
<title>Node7</title>
<g id="a_node7"><a xlink:title=" ">
<polygon fill="white" stroke="#bfbfbf" points="1601,-266.49 1601,-296.49 1721,-296.49 1721,-266.49 1601,-266.49"/>
<text text-anchor="start" x="1609" y="-284.49" font-family="Helvetica,sans-Serif" font-size="10.00">matrix&lt; UBlasMatrix</text>
<text text-anchor="middle" x="1661" y="-273.49" font-family="Helvetica,sans-Serif" font-size="10.00">&lt; double &gt; &gt;</text>
</a>
</g>
</g>
<!-- Node7&#45;&gt;Node1 -->
<g id="edge6" class="edge">
<title>Node7&#45;&gt;Node1</title>
<path fill="none" stroke="#9a32cd" stroke-dasharray="5,2" d="M1731.17,-277.07C1773.23,-274.38 1826.91,-270.95 1869.77,-268.21"/>
<polygon fill="#9a32cd" stroke="#9a32cd" points="1730.77,-273.59 1721.01,-277.72 1731.21,-280.57 1730.77,-273.59"/>
<text text-anchor="middle" x="1808" y="-288.49" font-family="Helvetica,sans-Serif" font-size="10.00"> diffN_face_edge</text>
<text text-anchor="middle" x="1808" y="-277.49" font-family="Helvetica,sans-Serif" font-size="10.00">N_face_edge</text>
</g>
<!-- Node8 -->
<g id="node8" class="node">
<title>Node8</title>
<g id="a_node8"><a xlink:href="structMoFEM_1_1EntPolynomialBaseCtx.html" target="_top" xlink:title="Class used to pass element data to calculate base functions on tet,triangle,edge.">
<polygon fill="white" stroke="black" points="1576,-227.99 1576,-246.99 1746,-246.99 1746,-227.99 1576,-227.99"/>
<text text-anchor="middle" x="1661" y="-234.99" font-family="Helvetica,sans-Serif" font-size="10.00">MoFEM::EntPolynomialBaseCtx</text>
</a>
</g>
</g>
<!-- Node8&#45;&gt;Node1 -->
<g id="edge7" class="edge">
<title>Node8&#45;&gt;Node1</title>
<path fill="none" stroke="#9a32cd" stroke-dasharray="5,2" d="M1756.38,-246.21C1793.37,-249.62 1835.18,-253.49 1869.88,-256.69"/>
<polygon fill="#9a32cd" stroke="#9a32cd" points="1756.36,-242.69 1746.08,-245.26 1755.71,-249.66 1756.36,-242.69"/>
<text text-anchor="middle" x="1808" y="-257.49" font-family="Helvetica,sans-Serif" font-size="10.00"> cTx</text>
</g>
<!-- Node9&#45;&gt;Node8 -->
<g id="edge8" class="edge">
<title>Node9&#45;&gt;Node8</title>
<path fill="none" stroke="midnightblue" d="M1410.36,-388.82C1459.18,-387.06 1519.55,-376.22 1558,-338.49 1584.32,-312.66 1550.12,-283.76 1576,-257.49 1580.21,-253.22 1585.15,-249.79 1590.5,-247.06"/>
<polygon fill="midnightblue" stroke="midnightblue" points="1410.04,-385.33 1400.13,-389.06 1410.21,-392.33 1410.04,-385.33"/>
</g>
<!-- Node10 -->
<g id="node10" class="node">
<title>Node10</title>
<g id="a_node10"><a xlink:title=" ">
<polygon fill="white" stroke="#bfbfbf" points="1270.5,-336.99 1270.5,-355.99 1389.5,-355.99 1389.5,-336.99 1270.5,-336.99"/>
<text text-anchor="middle" x="1330" y="-343.99" font-family="Helvetica,sans-Serif" font-size="10.00">const FieldContinuity</text>
</a>
</g>
</g>
<!-- Node10&#45;&gt;Node8 -->
<g id="edge10" class="edge">
<title>Node10&#45;&gt;Node8</title>
<path fill="none" stroke="#9a32cd" stroke-dasharray="5,2" d="M1385.62,-334.69C1395.74,-332.39 1406.21,-329.93 1416,-327.49 1479.51,-311.68 1506.15,-328.43 1558,-288.49 1570.62,-278.77 1563.21,-267 1576,-257.49 1581.77,-253.2 1588.34,-249.81 1595.19,-247.14"/>
<polygon fill="#9a32cd" stroke="#9a32cd" points="1384.64,-331.32 1375.65,-336.93 1386.18,-338.15 1384.64,-331.32"/>
<text text-anchor="middle" x="1496" y="-326.49" font-family="Helvetica,sans-Serif" font-size="10.00"> spaceContinuity</text>
</g>
<!-- Node11 -->
<g id="node11" class="node">
<title>Node11</title>
<g id="a_node11"><a xlink:title=" ">
<polygon fill="white" stroke="#bfbfbf" points="1258.5,-265.49 1258.5,-317.49 1401.5,-317.49 1401.5,-265.49 1258.5,-265.49"/>
<text text-anchor="start" x="1266.5" y="-305.49" font-family="Helvetica,sans-Serif" font-size="10.00">PetscErrorCode(*)(int</text>
<text text-anchor="start" x="1266.5" y="-294.49" font-family="Helvetica,sans-Serif" font-size="10.00"> p, double s, double</text>
<text text-anchor="start" x="1266.5" y="-283.49" font-family="Helvetica,sans-Serif" font-size="10.00"> *diff_s, double *L, double</text>
<text text-anchor="middle" x="1330" y="-272.49" font-family="Helvetica,sans-Serif" font-size="10.00"> *diffL, const int dim)</text>
</a>
</g>
</g>
<!-- Node11&#45;&gt;Node8 -->
<g id="edge11" class="edge">
<title>Node11&#45;&gt;Node8</title>
<path fill="none" stroke="#9a32cd" stroke-dasharray="5,2" d="M1411.6,-278.26C1470.51,-268.59 1549.02,-255.71 1601.88,-247.03"/>
<polygon fill="#9a32cd" stroke="#9a32cd" points="1410.88,-274.83 1401.58,-279.91 1412.01,-281.74 1410.88,-274.83"/>
<text text-anchor="middle" x="1496" y="-276.49" font-family="Helvetica,sans-Serif" font-size="10.00"> basePolynomialsType0</text>
</g>
<!-- Node12 -->
<g id="node12" class="node">
<title>Node12</title>
<g id="a_node12"><a xlink:title=" ">
<polygon fill="white" stroke="#bfbfbf" points="1308,-226.99 1308,-245.99 1352,-245.99 1352,-226.99 1308,-226.99"/>
<text text-anchor="middle" x="1330" y="-233.99" font-family="Helvetica,sans-Serif" font-size="10.00">string</text>
</a>
</g>
</g>
<!-- Node12&#45;&gt;Node8 -->
<g id="edge12" class="edge">
<title>Node12&#45;&gt;Node8</title>
<path fill="none" stroke="#9a32cd" stroke-dasharray="5,2" d="M1362.26,-236.59C1410.79,-236.73 1505.93,-237.02 1575.65,-237.23"/>
<polygon fill="#9a32cd" stroke="#9a32cd" points="1362.09,-233.09 1352.08,-236.56 1362.07,-240.09 1362.09,-233.09"/>
<text text-anchor="middle" x="1496" y="-240.49" font-family="Helvetica,sans-Serif" font-size="10.00"> fieldName</text>
</g>
<!-- Node13 -->
<g id="node13" class="node">
<title>Node13</title>
<g id="a_node13"><a xlink:title=" ">
<polygon fill="white" stroke="#bfbfbf" points="1281,-188.99 1281,-207.99 1379,-207.99 1379,-188.99 1281,-188.99"/>
<text text-anchor="middle" x="1330" y="-195.99" font-family="Helvetica,sans-Serif" font-size="10.00">const FieldSpace</text>
</a>
</g>
</g>
<!-- Node13&#45;&gt;Node8 -->
<g id="edge13" class="edge">
<title>Node13&#45;&gt;Node8</title>
<path fill="none" stroke="#9a32cd" stroke-dasharray="5,2" d="M1389.4,-204.01C1435.29,-208.5 1500.8,-215.26 1558,-222.49 1570.96,-224.13 1584.83,-226.05 1598.02,-227.97"/>
<polygon fill="#9a32cd" stroke="#9a32cd" points="1389.63,-200.51 1379.33,-203.03 1388.95,-207.48 1389.63,-200.51"/>
<text text-anchor="middle" x="1496" y="-225.49" font-family="Helvetica,sans-Serif" font-size="10.00"> sPace</text>
</g>
<!-- Node14 -->
<g id="node14" class="node">
<title>Node14</title>
<g id="a_node14"><a xlink:title=" ">
<polygon fill="white" stroke="#bfbfbf" points="1247.5,-149.99 1247.5,-168.99 1412.5,-168.99 1412.5,-149.99 1247.5,-149.99"/>
<text text-anchor="middle" x="1330" y="-156.99" font-family="Helvetica,sans-Serif" font-size="10.00">const FieldApproximationBase</text>
</a>
</g>
</g>
<!-- Node14&#45;&gt;Node8 -->
<g id="edge14" class="edge">
<title>Node14&#45;&gt;Node8</title>
<path fill="none" stroke="#9a32cd" stroke-dasharray="5,2" d="M1422.91,-150.06C1467.15,-150.03 1518.94,-157.08 1558,-183.49 1572.16,-193.07 1562.48,-207.02 1576,-217.49 1581.57,-221.8 1587.93,-225.21 1594.59,-227.89"/>
<polygon fill="#9a32cd" stroke="#9a32cd" points="1422.67,-146.56 1412.71,-150.19 1422.76,-153.56 1422.67,-146.56"/>
<text text-anchor="middle" x="1496" y="-197.49" font-family="Helvetica,sans-Serif" font-size="10.00"> copyNodeBase</text>
<text text-anchor="middle" x="1496" y="-186.49" font-family="Helvetica,sans-Serif" font-size="10.00">bAse</text>
</g>
<!-- Node15 -->
<g id="node15" class="node">
<title>Node15</title>
<g id="a_node15"><a xlink:href="structMoFEM_1_1EntitiesFieldData.html" target="_top" xlink:title="data structure for finite element entity">
<polygon fill="white" stroke="black" points="1259,-111.99 1259,-130.99 1401,-130.99 1401,-111.99 1259,-111.99"/>
<text text-anchor="middle" x="1330" y="-118.99" font-family="Helvetica,sans-Serif" font-size="10.00">MoFEM::EntitiesFieldData</text>
</a>
</g>
</g>
<!-- Node15&#45;&gt;Node8 -->
<g id="edge15" class="edge">
<title>Node15&#45;&gt;Node8</title>
<path fill="none" stroke="#9a32cd" stroke-dasharray="5,2" d="M1376.08,-109.84C1426.58,-99.71 1507.92,-92.6 1558,-135.49 1586.34,-159.76 1549.85,-190.88 1576,-217.49 1580.2,-221.77 1585.14,-225.2 1590.49,-227.94"/>
<polygon fill="#9a32cd" stroke="#9a32cd" points="1375.15,-106.46 1366.1,-111.96 1376.61,-113.3 1375.15,-106.46"/>
<text text-anchor="middle" x="1496" y="-138.49" font-family="Helvetica,sans-Serif" font-size="10.00"> dAta</text>
</g>
<!-- Node16 -->
<g id="node16" class="node">
<title>Node16</title>
<g id="a_node16"><a xlink:title=" ">
<polygon fill="white" stroke="#bfbfbf" points="926,-240.49 926,-270.49 1088,-270.49 1088,-240.49 926,-240.49"/>
<text text-anchor="start" x="934" y="-258.49" font-family="Helvetica,sans-Serif" font-size="10.00">array&lt; std::bitset</text>
<text text-anchor="middle" x="1007" y="-247.49" font-family="Helvetica,sans-Serif" font-size="10.00">&lt; LASTBASE &gt;, LASTSPACE &gt;</text>
</a>
</g>
</g>
<!-- Node16&#45;&gt;Node15 -->
<g id="edge16" class="edge">
<title>Node16&#45;&gt;Node15</title>
<path fill="none" stroke="#9a32cd" stroke-dasharray="5,2" d="M1098.14,-252.89C1141.83,-247.07 1192.05,-232.97 1226,-200.49 1246.12,-181.25 1223.62,-159.46 1244,-140.49 1248.32,-136.47 1253.29,-133.24 1258.62,-130.64"/>
<polygon fill="#9a32cd" stroke="#9a32cd" points="1097.57,-249.43 1088.06,-254.1 1098.41,-256.38 1097.57,-249.43"/>
<text text-anchor="middle" x="1169" y="-265.49" font-family="Helvetica,sans-Serif" font-size="10.00"> brokenBasesOnSpaces</text>
<text text-anchor="middle" x="1169" y="-254.49" font-family="Helvetica,sans-Serif" font-size="10.00">basesOnSpaces</text>
</g>
<!-- Node17 -->
<g id="node17" class="node">
<title>Node17</title>
<g id="a_node17"><a xlink:title=" ">
<polygon fill="white" stroke="#bfbfbf" points="930.5,-179.99 930.5,-220.99 1083.5,-220.99 1083.5,-179.99 930.5,-179.99"/>
<text text-anchor="start" x="938.5" y="-208.99" font-family="Helvetica,sans-Serif" font-size="10.00">array&lt; boost::ptr_vector</text>
<text text-anchor="start" x="938.5" y="-197.99" font-family="Helvetica,sans-Serif" font-size="10.00">&lt; MoFEM::EntitiesFieldData</text>
<text text-anchor="middle" x="1007" y="-186.99" font-family="Helvetica,sans-Serif" font-size="10.00">::EntData &gt;, MBMAXTYPE &gt;</text>
</a>
</g>
</g>
<!-- Node17&#45;&gt;Node15 -->
<g id="edge17" class="edge">
<title>Node17&#45;&gt;Node15</title>
<path fill="none" stroke="#9a32cd" stroke-dasharray="5,2" d="M1093.53,-189.21C1134.69,-181.91 1184.08,-170.33 1226,-152.49 1234.85,-148.73 1235.16,-144.27 1244,-140.49 1252.9,-136.69 1262.66,-133.6 1272.3,-131.1"/>
<polygon fill="#9a32cd" stroke="#9a32cd" points="1092.79,-185.79 1083.53,-190.93 1093.97,-192.69 1092.79,-185.79"/>
<text text-anchor="middle" x="1169" y="-188.49" font-family="Helvetica,sans-Serif" font-size="10.00"> dataOnEntities</text>
</g>
<!-- Node18 -->
<g id="node18" class="node">
<title>Node18</title>
<g id="a_node18"><a xlink:title=" ">
<polygon fill="white" stroke="#bfbfbf" points="920,-130.49 920,-160.49 1094,-160.49 1094,-130.49 920,-130.49"/>
<text text-anchor="start" x="928" y="-148.49" font-family="Helvetica,sans-Serif" font-size="10.00">array&lt; std::bitset</text>
<text text-anchor="middle" x="1007" y="-137.49" font-family="Helvetica,sans-Serif" font-size="10.00">&lt; LASTSPACE &gt;, MBMAXTYPE &gt;</text>
</a>
</g>
</g>
<!-- Node18&#45;&gt;Node15 -->
<g id="edge18" class="edge">
<title>Node18&#45;&gt;Node15</title>
<path fill="none" stroke="#9a32cd" stroke-dasharray="5,2" d="M1104.16,-138.3C1153.94,-134.58 1213.61,-130.12 1258.97,-126.73"/>
<polygon fill="#9a32cd" stroke="#9a32cd" points="1103.73,-134.82 1094.02,-139.06 1104.26,-141.8 1103.73,-134.82"/>
<text text-anchor="middle" x="1169" y="-140.49" font-family="Helvetica,sans-Serif" font-size="10.00"> spacesOnEntities</text>
</g>
<!-- Node19 -->
<g id="node19" class="node">
<title>Node19</title>
<g id="a_node19"><a xlink:title=" ">
<polygon fill="white" stroke="#bfbfbf" points="922.5,-81.49 922.5,-111.49 1091.5,-111.49 1091.5,-81.49 922.5,-81.49"/>
<text text-anchor="start" x="930.5" y="-99.49" font-family="Helvetica,sans-Serif" font-size="10.00">array&lt; std::bitset</text>
<text text-anchor="middle" x="1007" y="-88.49" font-family="Helvetica,sans-Serif" font-size="10.00">&lt; LASTBASE &gt;, MBMAXTYPE &gt;</text>
</a>
</g>
</g>
<!-- Node19&#45;&gt;Node15 -->
<g id="edge19" class="edge">
<title>Node19&#45;&gt;Node15</title>
<path fill="none" stroke="#9a32cd" stroke-dasharray="5,2" d="M1101.73,-103.79C1151.97,-107.7 1212.84,-112.44 1258.94,-116.03"/>
<polygon fill="#9a32cd" stroke="#9a32cd" points="1101.74,-100.28 1091.5,-102.99 1101.2,-107.26 1101.74,-100.28"/>
<text text-anchor="middle" x="1169" y="-116.49" font-family="Helvetica,sans-Serif" font-size="10.00"> basesOnEntities</text>
</g>
<!-- Node20 -->
<g id="node20" class="node">
<title>Node20</title>
<g id="a_node20"><a xlink:title=" ">
<polygon fill="white" stroke="#bfbfbf" points="951,-42.99 951,-61.99 1063,-61.99 1063,-42.99 951,-42.99"/>
<text text-anchor="middle" x="1007" y="-49.99" font-family="Helvetica,sans-Serif" font-size="10.00">UBlasMatrix&lt; int &gt;</text>
</a>
</g>
</g>
<!-- Node20&#45;&gt;Node15 -->
<g id="edge20" class="edge">
<title>Node20&#45;&gt;Node15</title>
<path fill="none" stroke="#9a32cd" stroke-dasharray="5,2" d="M1073.18,-47.9C1118.76,-47.59 1179.56,-53.21 1226,-79.49 1237.3,-85.88 1233.03,-95.56 1244,-102.49 1250.14,-106.37 1256.96,-109.46 1264,-111.92"/>
<polygon fill="#9a32cd" stroke="#9a32cd" points="1073.05,-44.4 1063.11,-48.07 1073.16,-51.4 1073.05,-44.4"/>
<text text-anchor="middle" x="1169" y="-93.49" font-family="Helvetica,sans-Serif" font-size="10.00"> facesNodesOrder</text>
<text text-anchor="middle" x="1169" y="-82.49" font-family="Helvetica,sans-Serif" font-size="10.00">facesNodes</text>
</g>
<!-- Node21 -->
<g id="node21" class="node">
<title>Node21</title>
<g id="a_node21"><a xlink:title=" ">
<polygon fill="white" stroke="#bfbfbf" points="948.5,-4.99 948.5,-23.99 1065.5,-23.99 1065.5,-4.99 948.5,-4.99"/>
<text text-anchor="middle" x="1007" y="-11.99" font-family="Helvetica,sans-Serif" font-size="10.00">bitset&lt; LASTBASE &gt;</text>
</a>
</g>
</g>
<!-- Node21&#45;&gt;Node15 -->
<g id="edge21" class="edge">
<title>Node21&#45;&gt;Node15</title>
<path fill="none" stroke="#9a32cd" stroke-dasharray="5,2" d="M1062.92,-3.5C1111.45,2.86 1181.29,3.3 1226,-34.49 1249.88,-54.67 1221.47,-80.82 1244,-102.49 1248.36,-106.68 1253.43,-110.03 1258.89,-112.69"/>
<polygon fill="#9a32cd" stroke="#9a32cd" points="1062.3,-0.05 1052.9,-4.93 1063.29,-6.98 1062.3,-0.05"/>
<text text-anchor="middle" x="1169" y="-37.49" font-family="Helvetica,sans-Serif" font-size="10.00"> bAse</text>
</g>
<!-- Node22 -->
<g id="node22" class="node">
<title>Node22</title>
<g id="a_node22"><a xlink:title=" ">
<polygon fill="white" stroke="#bfbfbf" points="1244,-29.99 1244,-92.99 1416,-92.99 1416,-29.99 1244,-29.99"/>
<text text-anchor="start" x="1252" y="-80.99" font-family="Helvetica,sans-Serif" font-size="10.00">PetscErrorCode(*)(int</text>
<text text-anchor="start" x="1252" y="-69.99" font-family="Helvetica,sans-Serif" font-size="10.00"> p, double alpha, double</text>
<text text-anchor="start" x="1252" y="-58.99" font-family="Helvetica,sans-Serif" font-size="10.00"> x, double t, double *diff</text>
<text text-anchor="start" x="1252" y="-47.99" font-family="Helvetica,sans-Serif" font-size="10.00">_x, double *diff_t, double</text>
<text text-anchor="middle" x="1330" y="-36.99" font-family="Helvetica,sans-Serif" font-size="10.00"> *L, double *diffL, const int dim)</text>
</a>
</g>
</g>
<!-- Node22&#45;&gt;Node8 -->
<g id="edge22" class="edge">
<title>Node22&#45;&gt;Node8</title>
<path fill="none" stroke="#9a32cd" stroke-dasharray="5,2" d="M1426.38,-47.55C1472,-46.45 1523.97,-54.25 1558,-87.49 1599.73,-128.25 1536.79,-174.31 1576,-217.49 1579.83,-221.71 1584.37,-225.11 1589.33,-227.86"/>
<polygon fill="#9a32cd" stroke="#9a32cd" points="1426,-44.06 1416.14,-47.94 1426.27,-51.05 1426,-44.06"/>
<text text-anchor="middle" x="1496" y="-90.49" font-family="Helvetica,sans-Serif" font-size="10.00"> basePolynomialsType1</text>
</g>
<!-- Node23 -->
<g id="node23" class="node">
<title>Node23</title>
<g id="a_node23"><a xlink:title=" ">
<polygon fill="white" stroke="#bfbfbf" points="1601.5,-178.49 1601.5,-208.49 1720.5,-208.49 1720.5,-178.49 1601.5,-178.49"/>
<text text-anchor="start" x="1609.5" y="-196.49" font-family="Helvetica,sans-Serif" font-size="10.00">vector&lt; UBlasMatrix</text>
<text text-anchor="middle" x="1661" y="-185.49" font-family="Helvetica,sans-Serif" font-size="10.00">&lt; double &gt; &gt;</text>
</a>
</g>
</g>
<!-- Node23&#45;&gt;Node1 -->
<g id="edge23" class="edge">
<title>Node23&#45;&gt;Node1</title>
<path fill="none" stroke="#9a32cd" stroke-dasharray="5,2" d="M1730.78,-198.87C1767.33,-202.92 1812.7,-209.84 1852,-221.49 1879.15,-229.54 1908.58,-244.22 1926.53,-253.92"/>
<polygon fill="#9a32cd" stroke="#9a32cd" points="1731.03,-195.38 1720.72,-197.81 1730.29,-202.34 1731.03,-195.38"/>
<text text-anchor="middle" x="1808" y="-235.49" font-family="Helvetica,sans-Serif" font-size="10.00"> N_face_bubble</text>
<text text-anchor="middle" x="1808" y="-224.49" font-family="Helvetica,sans-Serif" font-size="10.00">diffN_face_bubble</text>
</g>
</g>
</svg>
