<?xml version="1.0" encoding="UTF-8" standalone="no"?>
<!DOCTYPE svg PUBLIC "-//W3C//DTD SVG 1.1//EN"
 "http://www.w3.org/Graphics/SVG/1.1/DTD/svg11.dtd">
<!-- Generated by graphviz version 2.43.0 (0)
 -->
<!-- Title: MoFEM::OpCalculateVectorFieldValues_General&lt; Tensor_Dim, T, L, A &gt; Pages: 1 -->
<svg width="178pt" height="251pt"
 viewBox="0.00 0.00 178.00 251.00" xmlns="http://www.w3.org/2000/svg" xmlns:xlink="http://www.w3.org/1999/xlink">
<g id="graph0" class="graph" transform="scale(1 1) rotate(0) translate(4 247)">
<title>MoFEM::OpCalculateVectorFieldValues_General&lt; Tensor_Dim, T, L, A &gt;</title>
<polygon fill="white" stroke="transparent" points="-4,4 -4,-247 174,-247 174,4 -4,4"/>
<!-- Node1 -->
<g id="node1" class="node">
<title>Node1</title>
<g id="a_node1"><a xlink:title="Calculate field values for tenor field rank 1, i.e. vector field.">
<polygon fill="#bfbfbf" stroke="black" points="6,-78.5 6,-119.5 164,-119.5 164,-78.5 6,-78.5"/>
<text text-anchor="start" x="14" y="-107.5" font-family="Helvetica,sans-Serif" font-size="10.00">MoFEM::OpCalculateVector</text>
<text text-anchor="start" x="14" y="-96.5" font-family="Helvetica,sans-Serif" font-size="10.00">FieldValues_General&lt; Tensor</text>
<text text-anchor="middle" x="85" y="-85.5" font-family="Helvetica,sans-Serif" font-size="10.00">_Dim, T, L, A &gt;</text>
</a>
</g>
</g>
<!-- Node4 -->
<g id="node4" class="node">
<title>Node4</title>
<g id="a_node4"><a xlink:href="structMoFEM_1_1OpCalculateScalarFieldGradient__General.html" target="_top" xlink:title="Evaluate field gradient values for scalar field, i.e. gradient is tensor rank 1 (vector)">
<polygon fill="white" stroke="black" points="11,-0.5 11,-41.5 159,-41.5 159,-0.5 11,-0.5"/>
<text text-anchor="start" x="19" y="-29.5" font-family="Helvetica,sans-Serif" font-size="10.00">MoFEM::OpCalculateScalar</text>
<text text-anchor="start" x="19" y="-18.5" font-family="Helvetica,sans-Serif" font-size="10.00">FieldGradient_General</text>
<text text-anchor="middle" x="85" y="-7.5" font-family="Helvetica,sans-Serif" font-size="10.00">&lt; Tensor_Dim, T, L, A &gt;</text>
</a>
</g>
</g>
<!-- Node1&#45;&gt;Node4 -->
<g id="edge3" class="edge">
<title>Node1&#45;&gt;Node4</title>
<path fill="none" stroke="midnightblue" d="M85,-68.3C85,-59.3 85,-49.65 85,-41.51"/>
<polygon fill="midnightblue" stroke="midnightblue" points="81.5,-68.43 85,-78.43 88.5,-68.43 81.5,-68.43"/>
</g>
<!-- Node2 -->
<g id="node2" class="node">
<title>Node2</title>
<g id="a_node2"><a xlink:href="structMoFEM_1_1ForcesAndSourcesCore_1_1UserDataOperator.html" target="_top" xlink:title=" ">
<polygon fill="white" stroke="black" points="0,-156.5 0,-186.5 170,-186.5 170,-156.5 0,-156.5"/>
<text text-anchor="start" x="8" y="-174.5" font-family="Helvetica,sans-Serif" font-size="10.00">MoFEM::ForcesAndSourcesCore</text>
<text text-anchor="middle" x="85" y="-163.5" font-family="Helvetica,sans-Serif" font-size="10.00">::UserDataOperator</text>
</a>
</g>
</g>
<!-- Node2&#45;&gt;Node1 -->
<g id="edge1" class="edge">
<title>Node2&#45;&gt;Node1</title>
<path fill="none" stroke="midnightblue" d="M85,-145.98C85,-137.35 85,-127.76 85,-119.59"/>
<polygon fill="midnightblue" stroke="midnightblue" points="81.5,-146.23 85,-156.23 88.5,-146.23 81.5,-146.23"/>
</g>
<!-- Node3 -->
<g id="node3" class="node">
<title>Node3</title>
<g id="a_node3"><a xlink:href="structMoFEM_1_1DataOperator.html" target="_top" xlink:title="base operator to do operations at Gauss Pt. level">
<polygon fill="white" stroke="black" points="22.5,-223.5 22.5,-242.5 147.5,-242.5 147.5,-223.5 22.5,-223.5"/>
<text text-anchor="middle" x="85" y="-230.5" font-family="Helvetica,sans-Serif" font-size="10.00">MoFEM::DataOperator</text>
</a>
</g>
</g>
<!-- Node3&#45;&gt;Node2 -->
<g id="edge2" class="edge">
<title>Node3&#45;&gt;Node2</title>
<path fill="none" stroke="midnightblue" d="M85,-213.23C85,-204.59 85,-194.5 85,-186.52"/>
<polygon fill="midnightblue" stroke="midnightblue" points="81.5,-213.48 85,-223.48 88.5,-213.48 81.5,-213.48"/>
</g>
</g>
</svg>
