<?xml version="1.0" encoding="UTF-8" standalone="no"?>
<!DOCTYPE svg PUBLIC "-//W3C//DTD SVG 1.1//EN"
 "http://www.w3.org/Graphics/SVG/1.1/DTD/svg11.dtd">
<!-- Generated by graphviz version 2.43.0 (0)
 -->
<!-- Title: MoFEM::OpEssentialLhsImpl&lt; DisplacementCubitBcData, BASE_DIM, FIELD_DIM, A, I, OpBase &gt; Pages: 1 -->
<svg width="565pt" height="72pt"
 viewBox="0.00 0.00 565.00 72.00" xmlns="http://www.w3.org/2000/svg" xmlns:xlink="http://www.w3.org/1999/xlink">
<g id="graph0" class="graph" transform="scale(1 1) rotate(0) translate(4 68)">
<title>MoFEM::OpEssentialLhsImpl&lt; DisplacementCubitBcData, BASE_DIM, FIELD_DIM, A, I, OpBase &gt;</title>
<polygon fill="white" stroke="transparent" points="-4,4 -4,-68 561,-68 561,4 -4,4"/>
<!-- Node1 -->
<g id="node1" class="node">
<title>Node1</title>
<g id="a_node1"><a xlink:title=" ">
<polygon fill="#bfbfbf" stroke="black" points="207,-6 207,-58 366,-58 366,-6 207,-6"/>
<text text-anchor="start" x="215" y="-46" font-family="Helvetica,sans-Serif" font-size="10.00">MoFEM::OpEssentialLhsImpl</text>
<text text-anchor="start" x="215" y="-35" font-family="Helvetica,sans-Serif" font-size="10.00">&lt; DisplacementCubitBcData,</text>
<text text-anchor="start" x="215" y="-24" font-family="Helvetica,sans-Serif" font-size="10.00"> BASE_DIM, FIELD_DIM, A,</text>
<text text-anchor="middle" x="286.5" y="-13" font-family="Helvetica,sans-Serif" font-size="10.00"> I, OpBase &gt;</text>
</a>
</g>
</g>
<!-- Node3 -->
<g id="node3" class="node">
<title>Node3</title>
<g id="a_node3"><a xlink:href="structMoFEM_1_1OpEssentialLhsImpl_3_01HeatFluxCubitBcData_00_01BASE__DIM_00_01FIELD__DIM_00_01A_00_01I_00_01OpBase_01_4.html" target="_top" xlink:title=" ">
<polygon fill="white" stroke="black" points="402,-6 402,-58 557,-58 557,-6 402,-6"/>
<text text-anchor="start" x="410" y="-46" font-family="Helvetica,sans-Serif" font-size="10.00">MoFEM::OpEssentialLhsImpl</text>
<text text-anchor="start" x="410" y="-35" font-family="Helvetica,sans-Serif" font-size="10.00">&lt; HeatFluxCubitBcData,</text>
<text text-anchor="start" x="410" y="-24" font-family="Helvetica,sans-Serif" font-size="10.00"> BASE_DIM, FIELD_DIM, A,</text>
<text text-anchor="middle" x="479.5" y="-13" font-family="Helvetica,sans-Serif" font-size="10.00"> I, OpBase &gt;</text>
</a>
</g>
</g>
<!-- Node1&#45;&gt;Node3 -->
<g id="edge2" class="edge">
<title>Node1&#45;&gt;Node3</title>
<path fill="none" stroke="midnightblue" d="M376.07,-32C384.67,-32 393.36,-32 401.83,-32"/>
<polygon fill="midnightblue" stroke="midnightblue" points="376.01,-28.5 366.01,-32 376.01,-35.5 376.01,-28.5"/>
</g>
<!-- Node2 -->
<g id="node2" class="node">
<title>Node2</title>
<g id="a_node2"><a xlink:title=" ">
<polygon fill="white" stroke="#bfbfbf" points="0,-0.5 0,-63.5 171,-63.5 171,-0.5 0,-0.5"/>
<text text-anchor="start" x="8" y="-51.5" font-family="Helvetica,sans-Serif" font-size="10.00">FormsIntegrators&lt; OpBase</text>
<text text-anchor="start" x="8" y="-40.5" font-family="Helvetica,sans-Serif" font-size="10.00"> &gt;::template Assembly&lt;</text>
<text text-anchor="start" x="8" y="-29.5" font-family="Helvetica,sans-Serif" font-size="10.00"> A &gt;::template BiLinearForm</text>
<text text-anchor="start" x="8" y="-18.5" font-family="Helvetica,sans-Serif" font-size="10.00">&lt; I &gt;::template OpMass&lt; BASE</text>
<text text-anchor="middle" x="85.5" y="-7.5" font-family="Helvetica,sans-Serif" font-size="10.00">_DIM, FIELD_DIM &gt;</text>
</a>
</g>
</g>
<!-- Node2&#45;&gt;Node1 -->
<g id="edge1" class="edge">
<title>Node2&#45;&gt;Node1</title>
<path fill="none" stroke="midnightblue" d="M181.23,-32C189.82,-32 198.46,-32 206.89,-32"/>
<polygon fill="midnightblue" stroke="midnightblue" points="181.18,-28.5 171.18,-32 181.18,-35.5 181.18,-28.5"/>
</g>
</g>
</svg>
