<?xml version="1.0" encoding="UTF-8" standalone="no"?>
<!DOCTYPE svg PUBLIC "-//W3C//DTD SVG 1.1//EN"
 "http://www.w3.org/Graphics/SVG/1.1/DTD/svg11.dtd">
<!-- Generated by graphviz version 2.43.0 (0)
 -->
<!-- Title: EdgeFE Pages: 1 -->
<!--zoomable 1404 -->
<svg id="main" version="1.1" xmlns="http://www.w3.org/2000/svg" xmlns:xlink="http://www.w3.org/1999/xlink" xml:space="preserve" onload="init(evt)">
<style type="text/css"><![CDATA[
.edge:hover path { stroke: red; }
.edge:hover polygon { stroke: red; fill: red; }
]]></style>
<script type="text/javascript"><![CDATA[
var edges = document.getElementsByTagName('g');
if (edges && edges.length) {
  for (var i=0;i<edges.length;i++) {
    if (edges[i].id.substr(0,4)=='edge') {
      edges[i].setAttribute('class','edge');
    }
  }
}
]]></script>
        <defs>
                <circle id="rim" cx="0" cy="0" r="7"/>
                <circle id="rim2" cx="0" cy="0" r="3.5"/>
                <g id="zoomPlus">
                        <use xlink:href="#rim" fill="#404040">
                                <set attributeName="fill" to="#808080" begin="zoomplus.mouseover" end="zoomplus.mouseout"/>
                        </use>
                        <path d="M-4,0h8M0,-4v8" fill="none" stroke="white" stroke-width="1.5" pointer-events="none"/>
                </g>
                <g id="zoomMin">
                        <use xlink:href="#rim" fill="#404040">
                                <set attributeName="fill" to="#808080" begin="zoomminus.mouseover" end="zoomminus.mouseout"/>
                        </use>
                        <path d="M-4,0h8" fill="none" stroke="white" stroke-width="1.5" pointer-events="none"/>
                </g>
                <g id="dirArrow">
                        <path fill="none" stroke="white" stroke-width="1.5" d="M0,-3.0v7 M-2.5,-0.5L0,-3.0L2.5,-0.5"/>
                </g>
               <g id="resetDef">
                       <use xlink:href="#rim2" fill="#404040">
                               <set attributeName="fill" to="#808080" begin="reset.mouseover" end="reset.mouseout"/>
                       </use>
               </g>
        </defs>

<script type="text/javascript">
var viewWidth = 3118;
var viewHeight = 1404;
var sectionId = 'dynsection-1';
</script>
<script xlink:href="svgpan.js"/>
<svg id="graph" class="graph">
<g id="viewport">
<title>EdgeFE</title>
<polygon fill="white" stroke="transparent" points="-4,4 -4,-1400 3114,-1400 3114,4 -4,4"/>
<!-- Node1 -->
<g id="node1" class="node">
<title>Node1</title>
<g id="a_node1"><a xlink:title=" ">
<polygon fill="#bfbfbf" stroke="black" points="3057,-457.5 3057,-476.5 3110,-476.5 3110,-457.5 3057,-457.5"/>
<text text-anchor="middle" x="3083.5" y="-464.5" font-family="Helvetica,sans-Serif" font-size="10.00">EdgeFE</text>
</a>
</g>
</g>
<!-- Node2 -->
<g id="node2" class="node">
<title>Node2</title>
<g id="a_node2"><a xlink:href="structMoFEM_1_1EdgeElementForcesAndSourcesCore.html" target="_top" xlink:title="Edge finite element.">
<polygon fill="white" stroke="black" points="2874,-457.5 2874,-476.5 2930,-476.5 2930,-457.5 2874,-457.5"/>
<text text-anchor="middle" x="2902" y="-464.5" font-family="Helvetica,sans-Serif" font-size="10.00">EdgeEle</text>
</a>
</g>
</g>
<!-- Node2&#45;&gt;Node1 -->
<g id="edge1" class="edge">
<title>Node2&#45;&gt;Node1</title>
<path fill="none" stroke="midnightblue" d="M2940.51,-467C2975.35,-467 3026.28,-467 3056.73,-467"/>
<polygon fill="midnightblue" stroke="midnightblue" points="2940.26,-463.5 2930.26,-467 2940.26,-470.5 2940.26,-463.5"/>
</g>
<!-- Node3 -->
<g id="node3" class="node">
<title>Node3</title>
<g id="a_node3"><a xlink:href="structMoFEM_1_1ForcesAndSourcesCore.html" target="_top" xlink:title="structure to get information form mofem into EntitiesFieldData">
<polygon fill="white" stroke="black" points="2553,-668.5 2553,-687.5 2723,-687.5 2723,-668.5 2553,-668.5"/>
<text text-anchor="middle" x="2638" y="-675.5" font-family="Helvetica,sans-Serif" font-size="10.00">MoFEM::ForcesAndSourcesCore</text>
</a>
</g>
</g>
<!-- Node3&#45;&gt;Node2 -->
<g id="edge2" class="edge">
<title>Node3&#45;&gt;Node2</title>
<path fill="none" stroke="midnightblue" d="M2659.02,-661.87C2710.74,-620.22 2847.62,-509.99 2888.99,-476.67"/>
<polygon fill="midnightblue" stroke="midnightblue" points="2656.53,-659.39 2650.94,-668.39 2660.92,-664.84 2656.53,-659.39"/>
</g>
<!-- Node3&#45;&gt;Node3 -->
<g id="edge60" class="edge">
<title>Node3&#45;&gt;Node3</title>
<path fill="none" stroke="#9a32cd" stroke-dasharray="5,2" d="M2611.12,-696.65C2612.24,-701.94 2621.2,-706 2638,-706 2663.59,-706 2670.99,-696.57 2660.19,-687.76"/>
<polygon fill="#9a32cd" stroke="#9a32cd" points="2614.24,-698.24 2615.81,-687.76 2608.05,-694.97 2614.24,-698.24"/>
<text text-anchor="middle" x="2638" y="-720" font-family="Helvetica,sans-Serif" font-size="10.00"> sidePtrFE</text>
<text text-anchor="middle" x="2638" y="-709" font-family="Helvetica,sans-Serif" font-size="10.00">refinePtrFE</text>
</g>
<!-- Node4 -->
<g id="node4" class="node">
<title>Node4</title>
<g id="a_node4"><a xlink:href="structMoFEM_1_1FEMethod.html" target="_top" xlink:title="structure for User Loop Methods on finite elements">
<polygon fill="white" stroke="black" points="2200.5,-880.5 2200.5,-899.5 2307.5,-899.5 2307.5,-880.5 2200.5,-880.5"/>
<text text-anchor="middle" x="2254" y="-887.5" font-family="Helvetica,sans-Serif" font-size="10.00">MoFEM::FEMethod</text>
</a>
</g>
</g>
<!-- Node4&#45;&gt;Node3 -->
<g id="edge3" class="edge">
<title>Node4&#45;&gt;Node3</title>
<path fill="none" stroke="midnightblue" d="M2317.95,-898.55C2378.59,-903.43 2470.39,-901.69 2535,-859 2599.4,-816.44 2627.41,-718.56 2634.86,-687.58"/>
<polygon fill="midnightblue" stroke="midnightblue" points="2318.02,-895.04 2307.75,-897.64 2317.4,-902.01 2318.02,-895.04"/>
</g>
<!-- Node5 -->
<g id="node5" class="node">
<title>Node5</title>
<g id="a_node5"><a xlink:href="structMoFEM_1_1BasicMethod.html" target="_top" xlink:title="Data structure to exchange data between mofem and User Loop Methods.">
<polygon fill="white" stroke="black" points="1825,-735.5 1825,-754.5 1947,-754.5 1947,-735.5 1825,-735.5"/>
<text text-anchor="middle" x="1886" y="-742.5" font-family="Helvetica,sans-Serif" font-size="10.00">MoFEM::BasicMethod</text>
</a>
</g>
</g>
<!-- Node5&#45;&gt;Node4 -->
<g id="edge4" class="edge">
<title>Node5&#45;&gt;Node4</title>
<path fill="none" stroke="midnightblue" d="M1924.07,-757.94C1973.98,-776.16 2064.65,-812.11 2135,-856 2143.84,-861.51 2143.58,-866.55 2153,-871 2167.62,-877.91 2184.57,-882.3 2200.3,-885.1"/>
<polygon fill="midnightblue" stroke="midnightblue" points="1925.24,-754.64 1914.65,-754.53 1922.86,-761.22 1925.24,-754.64"/>
</g>
<!-- Node6 -->
<g id="node6" class="node">
<title>Node6</title>
<g id="a_node6"><a xlink:href="structMoFEM_1_1KspMethod.html" target="_top" xlink:title="data structure for ksp (linear solver) context">
<polygon fill="white" stroke="black" points="1442,-696.5 1442,-715.5 1555,-715.5 1555,-696.5 1442,-696.5"/>
<text text-anchor="middle" x="1498.5" y="-703.5" font-family="Helvetica,sans-Serif" font-size="10.00">MoFEM::KspMethod</text>
</a>
</g>
</g>
<!-- Node6&#45;&gt;Node5 -->
<g id="edge5" class="edge">
<title>Node6&#45;&gt;Node5</title>
<path fill="none" stroke="midnightblue" d="M1565.1,-710.98C1622.2,-715.52 1707.17,-722.76 1781,-731 1795.21,-732.59 1810.49,-734.52 1824.84,-736.43"/>
<polygon fill="midnightblue" stroke="midnightblue" points="1565.37,-707.49 1555.12,-710.19 1564.82,-714.47 1565.37,-707.49"/>
</g>
<!-- Node7 -->
<g id="node7" class="node">
<title>Node7</title>
<g id="a_node7"><a xlink:href="structMoFEM_1_1PetscData.html" target="_top" xlink:title=" ">
<polygon fill="white" stroke="black" points="1087.5,-467.5 1087.5,-486.5 1195.5,-486.5 1195.5,-467.5 1087.5,-467.5"/>
<text text-anchor="middle" x="1141.5" y="-474.5" font-family="Helvetica,sans-Serif" font-size="10.00">MoFEM::PetscData</text>
</a>
</g>
</g>
<!-- Node7&#45;&gt;Node6 -->
<g id="edge6" class="edge">
<title>Node7&#45;&gt;Node6</title>
<path fill="none" stroke="midnightblue" d="M1205.73,-479.93C1265.14,-486.35 1351.51,-505.86 1397,-564 1431.04,-607.51 1377.55,-646.38 1415,-687 1422.07,-694.67 1431.57,-699.55 1441.6,-702.59"/>
<polygon fill="midnightblue" stroke="midnightblue" points="1206,-476.44 1195.7,-478.94 1205.31,-483.4 1206,-476.44"/>
</g>
<!-- Node17 -->
<g id="node17" class="node">
<title>Node17</title>
<g id="a_node17"><a xlink:href="structMoFEM_1_1SnesMethod.html" target="_top" xlink:title="data structure for snes (nonlinear solver) context">
<polygon fill="white" stroke="black" points="1439,-432.5 1439,-451.5 1558,-451.5 1558,-432.5 1439,-432.5"/>
<text text-anchor="middle" x="1498.5" y="-439.5" font-family="Helvetica,sans-Serif" font-size="10.00">MoFEM::SnesMethod</text>
</a>
</g>
</g>
<!-- Node7&#45;&gt;Node17 -->
<g id="edge19" class="edge">
<title>Node7&#45;&gt;Node17</title>
<path fill="none" stroke="darkgreen" d="M1205.73,-473.26C1257.3,-469.92 1331.98,-464.4 1397,-457 1410.58,-455.45 1425.15,-453.47 1438.87,-451.45"/>
<polygon fill="darkgreen" stroke="darkgreen" points="1205.49,-469.77 1195.73,-473.9 1205.94,-476.75 1205.49,-469.77"/>
</g>
<!-- Node20 -->
<g id="node20" class="node">
<title>Node20</title>
<g id="a_node20"><a xlink:href="structMoFEM_1_1TSMethod.html" target="_top" xlink:title="data structure for TS (time stepping) context">
<polygon fill="white" stroke="black" points="1445,-218.5 1445,-237.5 1552,-237.5 1552,-218.5 1445,-218.5"/>
<text text-anchor="middle" x="1498.5" y="-225.5" font-family="Helvetica,sans-Serif" font-size="10.00">MoFEM::TSMethod</text>
</a>
</g>
</g>
<!-- Node7&#45;&gt;Node20 -->
<g id="edge25" class="edge">
<title>Node7&#45;&gt;Node20</title>
<path fill="none" stroke="darkgreen" d="M1205.59,-475.21C1219.13,-472.21 1232.51,-466.95 1243,-458 1260.97,-442.68 1246.92,-426.96 1261,-408 1305.89,-347.56 1337.18,-352.71 1397,-307 1429.27,-282.34 1466.76,-252.57 1485.52,-237.59"/>
<polygon fill="darkgreen" stroke="darkgreen" points="1204.95,-471.77 1195.74,-477.01 1206.21,-478.66 1204.95,-471.77"/>
</g>
<!-- Node8 -->
<g id="node8" class="node">
<title>Node8</title>
<g id="a_node8"><a xlink:href="structMoFEM_1_1UnknownInterface.html" target="_top" xlink:title="base class for all interface classes">
<polygon fill="white" stroke="black" points="735,-312.5 735,-331.5 883,-331.5 883,-312.5 735,-312.5"/>
<text text-anchor="middle" x="809" y="-319.5" font-family="Helvetica,sans-Serif" font-size="10.00">MoFEM::UnknownInterface</text>
</a>
</g>
</g>
<!-- Node8&#45;&gt;Node7 -->
<g id="edge7" class="edge">
<title>Node8&#45;&gt;Node7</title>
<path fill="none" stroke="midnightblue" d="M893.21,-315.74C937.17,-317.11 988.75,-326.9 1022,-360 1053.38,-391.25 1008.77,-426.61 1040,-458 1052.4,-470.46 1070.24,-476.13 1087.45,-478.39"/>
<polygon fill="midnightblue" stroke="midnightblue" points="893.14,-312.24 883.08,-315.57 893.02,-319.24 893.14,-312.24"/>
</g>
<!-- Node49 -->
<g id="node49" class="node">
<title>Node49</title>
<g id="a_node49"><a xlink:href="structMoFEM_1_1CoreInterface.html" target="_top" xlink:title="Interface.">
<polygon fill="white" stroke="black" points="1079,-0.5 1079,-19.5 1204,-19.5 1204,-0.5 1079,-0.5"/>
<text text-anchor="middle" x="1141.5" y="-7.5" font-family="Helvetica,sans-Serif" font-size="10.00">MoFEM::CoreInterface</text>
</a>
</g>
</g>
<!-- Node8&#45;&gt;Node49 -->
<g id="edge59" class="edge">
<title>Node8&#45;&gt;Node49</title>
<path fill="none" stroke="midnightblue" d="M812.23,-302.32C818.3,-257.74 839.01,-148.01 901,-85 947.98,-37.24 1024.92,-19.8 1078.88,-13.48"/>
<polygon fill="midnightblue" stroke="midnightblue" points="808.74,-302.05 810.97,-312.41 815.69,-302.93 808.74,-302.05"/>
</g>
<!-- Node9 -->
<g id="node9" class="node">
<title>Node9</title>
<g id="a_node9"><a xlink:title=" ">
<polygon fill="white" stroke="#bfbfbf" points="386,-371.5 386,-434.5 627,-434.5 627,-371.5 386,-371.5"/>
<text text-anchor="start" x="394" y="-422.5" font-family="Helvetica,sans-Serif" font-size="10.00">multi_index_container</text>
<text text-anchor="start" x="394" y="-411.5" font-family="Helvetica,sans-Serif" font-size="10.00">&lt; UIdTypeMap, indexed</text>
<text text-anchor="start" x="394" y="-400.5" font-family="Helvetica,sans-Serif" font-size="10.00">_by&lt; hashed_unique&lt; member</text>
<text text-anchor="start" x="394" y="-389.5" font-family="Helvetica,sans-Serif" font-size="10.00">&lt; UIdTypeMap, boost::typeindex</text>
<text text-anchor="middle" x="506.5" y="-378.5" font-family="Helvetica,sans-Serif" font-size="10.00">::type_index, &amp;UIdTypeMap::classIdx &gt; &gt; &gt; &gt;</text>
</a>
</g>
</g>
<!-- Node9&#45;&gt;Node8 -->
<g id="edge8" class="edge">
<title>Node9&#45;&gt;Node8</title>
<path fill="none" stroke="#9a32cd" stroke-dasharray="5,2" d="M634.21,-368.85C684.47,-355.3 738.33,-340.78 772.54,-331.56"/>
<polygon fill="#9a32cd" stroke="#9a32cd" points="633.29,-365.47 624.54,-371.45 635.11,-372.23 633.29,-365.47"/>
<text text-anchor="middle" x="681" y="-368" font-family="Helvetica,sans-Serif" font-size="10.00"> iFaceTypeMap</text>
</g>
<!-- Node10 -->
<g id="node10" class="node">
<title>Node10</title>
<g id="a_node10"><a xlink:title=" ">
<polygon fill="white" stroke="#bfbfbf" points="0,-717.5 0,-736.5 125,-736.5 125,-717.5 0,-717.5"/>
<text text-anchor="middle" x="62.5" y="-724.5" font-family="Helvetica,sans-Serif" font-size="10.00">multi_index_container</text>
</a>
</g>
</g>
<!-- Node10&#45;&gt;Node5 -->
<g id="edge32" class="edge">
<title>Node10&#45;&gt;Node5</title>
<path fill="none" stroke="#9a32cd" stroke-dasharray="5,2" d="M135.35,-734.09C222.74,-742.09 374.79,-754 505.5,-754 505.5,-754 505.5,-754 962.5,-754 1287.83,-754 1677.67,-748.33 1824.83,-745.99"/>
<polygon fill="#9a32cd" stroke="#9a32cd" points="135.56,-730.6 125.28,-733.16 134.92,-737.57 135.56,-730.6"/>
<text text-anchor="middle" x="961.5" y="-834" font-family="Helvetica,sans-Serif" font-size="10.00"> adjacenciesPtr</text>
<text text-anchor="middle" x="961.5" y="-823" font-family="Helvetica,sans-Serif" font-size="10.00">refinedEntitiesPtr</text>
<text text-anchor="middle" x="961.5" y="-812" font-family="Helvetica,sans-Serif" font-size="10.00">finiteElementsEntitiesPtr</text>
<text text-anchor="middle" x="961.5" y="-801" font-family="Helvetica,sans-Serif" font-size="10.00">dofsPtr</text>
<text text-anchor="middle" x="961.5" y="-790" font-family="Helvetica,sans-Serif" font-size="10.00">entitiesPtr</text>
<text text-anchor="middle" x="961.5" y="-779" font-family="Helvetica,sans-Serif" font-size="10.00">finiteElementsPtr</text>
<text text-anchor="middle" x="961.5" y="-768" font-family="Helvetica,sans-Serif" font-size="10.00">refinedFiniteElementsPtr</text>
<text text-anchor="middle" x="961.5" y="-757" font-family="Helvetica,sans-Serif" font-size="10.00">fieldsPtr</text>
</g>
<!-- Node10&#45;&gt;Node9 -->
<g id="edge9" class="edge">
<title>Node10&#45;&gt;Node9</title>
<path fill="none" stroke="orange" stroke-dasharray="5,2" d="M85.1,-711.17C153.99,-660.66 369.46,-502.72 462.26,-434.69"/>
<polygon fill="orange" stroke="orange" points="82.72,-708.57 76.73,-717.3 86.86,-714.21 82.72,-708.57"/>
<text text-anchor="start" x="143" y="-701" font-family="Helvetica,sans-Serif" font-size="10.00"> &lt; UIdTypeMap, indexed</text>
<text text-anchor="start" x="143" y="-690" font-family="Helvetica,sans-Serif" font-size="10.00">_by&lt; hashed_unique&lt; member</text>
<text text-anchor="start" x="143" y="-679" font-family="Helvetica,sans-Serif" font-size="10.00">&lt; UIdTypeMap, boost::typeindex</text>
<text text-anchor="middle" x="255.5" y="-668" font-family="Helvetica,sans-Serif" font-size="10.00">::type_index, &amp;UIdTypeMap::classIdx &gt; &gt; &gt; &gt;</text>
</g>
<!-- Node11 -->
<g id="node11" class="node">
<title>Node11</title>
<g id="a_node11"><a xlink:title=" ">
<polygon fill="white" stroke="#bfbfbf" points="738.5,-498.5 738.5,-517.5 879.5,-517.5 879.5,-498.5 738.5,-498.5"/>
<text text-anchor="middle" x="809" y="-505.5" font-family="Helvetica,sans-Serif" font-size="10.00">static constexpr Switches</text>
</a>
</g>
</g>
<!-- Node11&#45;&gt;Node7 -->
<g id="edge10" class="edge">
<title>Node11&#45;&gt;Node7</title>
<path fill="none" stroke="#9a32cd" stroke-dasharray="5,2" d="M889.72,-500.52C951.05,-494.77 1034.07,-486.98 1087.47,-481.97"/>
<polygon fill="#9a32cd" stroke="#9a32cd" points="889.32,-497.04 879.69,-501.46 889.97,-504.01 889.32,-497.04"/>
<text text-anchor="middle" x="961.5" y="-579" font-family="Helvetica,sans-Serif" font-size="10.00"> CtxSetX_TT</text>
<text text-anchor="middle" x="961.5" y="-568" font-family="Helvetica,sans-Serif" font-size="10.00">CtxSetX_T</text>
<text text-anchor="middle" x="961.5" y="-557" font-family="Helvetica,sans-Serif" font-size="10.00">CtxSetA</text>
<text text-anchor="middle" x="961.5" y="-546" font-family="Helvetica,sans-Serif" font-size="10.00">CtxSetB</text>
<text text-anchor="middle" x="961.5" y="-535" font-family="Helvetica,sans-Serif" font-size="10.00">CtxSetTime</text>
<text text-anchor="middle" x="961.5" y="-524" font-family="Helvetica,sans-Serif" font-size="10.00">CtxSetNone</text>
<text text-anchor="middle" x="961.5" y="-513" font-family="Helvetica,sans-Serif" font-size="10.00">CtxSetF</text>
<text text-anchor="middle" x="961.5" y="-502" font-family="Helvetica,sans-Serif" font-size="10.00">CtxSetX</text>
</g>
<!-- Node12 -->
<g id="node12" class="node">
<title>Node12</title>
<g id="a_node12"><a xlink:title=" ">
<polygon fill="white" stroke="#bfbfbf" points="791.5,-650.5 791.5,-669.5 826.5,-669.5 826.5,-650.5 791.5,-650.5"/>
<text text-anchor="middle" x="809" y="-657.5" font-family="Helvetica,sans-Serif" font-size="10.00">Mat</text>
</a>
</g>
</g>
<!-- Node12&#45;&gt;Node6 -->
<g id="edge16" class="edge">
<title>Node12&#45;&gt;Node6</title>
<path fill="none" stroke="#9a32cd" stroke-dasharray="5,2" d="M836.2,-670.9C854.1,-677.78 878.57,-686.09 901,-690 1097.46,-724.26 1335.74,-716.04 1441.87,-709.86"/>
<polygon fill="#9a32cd" stroke="#9a32cd" points="837.31,-667.58 826.73,-667.16 834.74,-674.09 837.31,-667.58"/>
<text text-anchor="middle" x="1141.5" y="-729" font-family="Helvetica,sans-Serif" font-size="10.00"> ksp_A</text>
<text text-anchor="middle" x="1141.5" y="-718" font-family="Helvetica,sans-Serif" font-size="10.00">ksp_B</text>
</g>
<!-- Node12&#45;&gt;Node7 -->
<g id="edge11" class="edge">
<title>Node12&#45;&gt;Node7</title>
<path fill="none" stroke="#9a32cd" stroke-dasharray="5,2" d="M836.65,-655.02C893.51,-644.4 1021.6,-620.42 1022,-620 1059.13,-581.5 1003.8,-540.38 1040,-501 1052.08,-487.86 1069.95,-481.31 1087.29,-478.21"/>
<polygon fill="#9a32cd" stroke="#9a32cd" points="835.78,-651.62 826.6,-656.9 837.07,-658.5 835.78,-651.62"/>
<text text-anchor="middle" x="961.5" y="-656" font-family="Helvetica,sans-Serif" font-size="10.00"> A</text>
<text text-anchor="middle" x="961.5" y="-645" font-family="Helvetica,sans-Serif" font-size="10.00">B</text>
</g>
<!-- Node12&#45;&gt;Node17 -->
<g id="edge21" class="edge">
<title>Node12&#45;&gt;Node17</title>
<path fill="none" stroke="#9a32cd" stroke-dasharray="5,2" d="M835.96,-670.52C880.04,-686.46 969.8,-710.37 1022,-665 1065.36,-627.31 999.87,-578.11 1040,-537 1068.08,-508.23 1358.08,-488.1 1397,-478 1424.09,-470.97 1454.19,-459.71 1474.32,-451.65"/>
<polygon fill="#9a32cd" stroke="#9a32cd" points="837.13,-667.21 826.53,-666.97 834.66,-673.77 837.13,-667.21"/>
<text text-anchor="middle" x="1141.5" y="-551" font-family="Helvetica,sans-Serif" font-size="10.00"> snes_A</text>
<text text-anchor="middle" x="1141.5" y="-540" font-family="Helvetica,sans-Serif" font-size="10.00">snes_B</text>
</g>
<!-- Node12&#45;&gt;Node20 -->
<g id="edge26" class="edge">
<title>Node12&#45;&gt;Node20</title>
<path fill="none" stroke="#9a32cd" stroke-dasharray="5,2" d="M835.8,-648.48C853.84,-640.68 878.62,-630.48 901,-623 953.76,-605.38 986.6,-633.91 1022,-591 1059.84,-545.13 1000.57,-368.51 1040,-324 1093.55,-263.55 1318.37,-274.41 1397,-256 1420.28,-250.55 1446.27,-243.28 1465.99,-237.51"/>
<polygon fill="#9a32cd" stroke="#9a32cd" points="834.29,-645.32 826.53,-652.53 837.1,-651.73 834.29,-645.32"/>
<text text-anchor="middle" x="1141.5" y="-338" font-family="Helvetica,sans-Serif" font-size="10.00"> ts_A</text>
<text text-anchor="middle" x="1141.5" y="-327" font-family="Helvetica,sans-Serif" font-size="10.00">ts_B</text>
</g>
<!-- Node13 -->
<g id="node13" class="node">
<title>Node13</title>
<g id="a_node13"><a xlink:title=" ">
<polygon fill="white" stroke="#bfbfbf" points="772.5,-460.5 772.5,-479.5 845.5,-479.5 845.5,-460.5 772.5,-460.5"/>
<text text-anchor="middle" x="809" y="-467.5" font-family="Helvetica,sans-Serif" font-size="10.00">bitset&lt; 8 &gt;</text>
</a>
</g>
</g>
<!-- Node13&#45;&gt;Node7 -->
<g id="edge12" class="edge">
<title>Node13&#45;&gt;Node7</title>
<path fill="none" stroke="#9a32cd" stroke-dasharray="5,2" d="M855.77,-470.39C898.71,-470.82 964.72,-471.63 1022,-473 1043.4,-473.51 1066.97,-474.27 1087.42,-474.99"/>
<polygon fill="#9a32cd" stroke="#9a32cd" points="855.67,-466.89 845.64,-470.29 855.6,-473.89 855.67,-466.89"/>
<text text-anchor="middle" x="961.5" y="-476" font-family="Helvetica,sans-Serif" font-size="10.00"> data_ctx</text>
</g>
<!-- Node14 -->
<g id="node14" class="node">
<title>Node14</title>
<g id="a_node14"><a xlink:title=" ">
<polygon fill="white" stroke="#bfbfbf" points="792,-360.5 792,-379.5 826,-379.5 826,-360.5 792,-360.5"/>
<text text-anchor="middle" x="809" y="-367.5" font-family="Helvetica,sans-Serif" font-size="10.00">Vec</text>
</a>
</g>
</g>
<!-- Node14&#45;&gt;Node6 -->
<g id="edge17" class="edge">
<title>Node14&#45;&gt;Node6</title>
<path fill="none" stroke="#9a32cd" stroke-dasharray="5,2" d="M832.28,-385.28C850.27,-397.16 876.52,-413.51 901,-425 952.53,-449.19 984.68,-424.01 1022,-467 1049.31,-498.46 1009.48,-530.64 1040,-559 1098.54,-613.39 1338.04,-548.06 1397,-602 1425.49,-628.07 1387.94,-659.45 1415,-687 1422.31,-694.44 1431.92,-699.22 1441.98,-702.24"/>
<polygon fill="#9a32cd" stroke="#9a32cd" points="833.94,-382.18 823.68,-379.52 830.04,-387.99 833.94,-382.18"/>
<text text-anchor="middle" x="1141.5" y="-585" font-family="Helvetica,sans-Serif" font-size="10.00"> ksp_f</text>
</g>
<!-- Node14&#45;&gt;Node7 -->
<g id="edge13" class="edge">
<title>Node14&#45;&gt;Node7</title>
<path fill="none" stroke="#9a32cd" stroke-dasharray="5,2" d="M836.26,-367.6C886.7,-363.59 994.54,-358.04 1022,-381 1048.96,-403.55 1014.62,-433.69 1040,-458 1052.57,-470.04 1070.24,-475.64 1087.27,-477.98"/>
<polygon fill="#9a32cd" stroke="#9a32cd" points="835.82,-364.13 826.14,-368.45 836.4,-371.1 835.82,-364.13"/>
<text text-anchor="middle" x="961.5" y="-417" font-family="Helvetica,sans-Serif" font-size="10.00"> f</text>
<text text-anchor="middle" x="961.5" y="-406" font-family="Helvetica,sans-Serif" font-size="10.00">x</text>
<text text-anchor="middle" x="961.5" y="-395" font-family="Helvetica,sans-Serif" font-size="10.00">x_t</text>
<text text-anchor="middle" x="961.5" y="-384" font-family="Helvetica,sans-Serif" font-size="10.00">x_tt</text>
</g>
<!-- Node14&#45;&gt;Node17 -->
<g id="edge22" class="edge">
<title>Node14&#45;&gt;Node17</title>
<path fill="none" stroke="#9a32cd" stroke-dasharray="5,2" d="M836.48,-366.22C904.47,-357.19 1090.55,-336.79 1243,-360 1332.26,-373.59 1432.8,-413.86 1475.95,-432.43"/>
<polygon fill="#9a32cd" stroke="#9a32cd" points="835.69,-362.79 826.25,-367.61 836.63,-369.73 835.69,-362.79"/>
<text text-anchor="middle" x="1141.5" y="-374" font-family="Helvetica,sans-Serif" font-size="10.00"> snes_x</text>
<text text-anchor="middle" x="1141.5" y="-363" font-family="Helvetica,sans-Serif" font-size="10.00">snes_f</text>
</g>
<!-- Node14&#45;&gt;Node20 -->
<g id="edge30" class="edge">
<title>Node14&#45;&gt;Node20</title>
<path fill="none" stroke="#9a32cd" stroke-dasharray="5,2" d="M835.89,-363.84C850.82,-359.33 869.28,-352.05 883,-341 980.25,-262.68 929.76,-166.65 1040,-108 1201.66,-21.99 1428.83,-176.88 1484.71,-218.24"/>
<polygon fill="#9a32cd" stroke="#9a32cd" points="834.92,-360.47 826.23,-366.52 836.8,-367.22 834.92,-360.47"/>
<text text-anchor="middle" x="1141.5" y="-144" font-family="Helvetica,sans-Serif" font-size="10.00"> ts_u</text>
<text text-anchor="middle" x="1141.5" y="-133" font-family="Helvetica,sans-Serif" font-size="10.00">ts_F</text>
<text text-anchor="middle" x="1141.5" y="-122" font-family="Helvetica,sans-Serif" font-size="10.00">ts_u_t</text>
<text text-anchor="middle" x="1141.5" y="-111" font-family="Helvetica,sans-Serif" font-size="10.00">ts_u_tt</text>
</g>
<!-- Node15 -->
<g id="node15" class="node">
<title>Node15</title>
<g id="a_node15"><a xlink:title=" ">
<polygon fill="white" stroke="#bfbfbf" points="1124,-648.5 1124,-667.5 1159,-667.5 1159,-648.5 1124,-648.5"/>
<text text-anchor="middle" x="1141.5" y="-655.5" font-family="Helvetica,sans-Serif" font-size="10.00">KSP</text>
</a>
</g>
</g>
<!-- Node15&#45;&gt;Node6 -->
<g id="edge14" class="edge">
<title>Node15&#45;&gt;Node6</title>
<path fill="none" stroke="#9a32cd" stroke-dasharray="5,2" d="M1169.44,-657.29C1216.43,-656.7 1316.08,-658.31 1397,-679 1405.48,-681.17 1406.7,-684.23 1415,-687 1425.87,-690.63 1437.78,-693.81 1449.08,-696.48"/>
<polygon fill="#9a32cd" stroke="#9a32cd" points="1169.13,-653.8 1159.19,-657.47 1169.25,-660.8 1169.13,-653.8"/>
<text text-anchor="middle" x="1329" y="-682" font-family="Helvetica,sans-Serif" font-size="10.00"> ksp</text>
</g>
<!-- Node16 -->
<g id="node16" class="node">
<title>Node16</title>
<g id="a_node16"><a xlink:title=" ">
<polygon fill="white" stroke="#bfbfbf" points="1104.5,-610.5 1104.5,-629.5 1178.5,-629.5 1178.5,-610.5 1104.5,-610.5"/>
<text text-anchor="middle" x="1141.5" y="-617.5" font-family="Helvetica,sans-Serif" font-size="10.00">KSPContext</text>
</a>
</g>
</g>
<!-- Node16&#45;&gt;Node6 -->
<g id="edge15" class="edge">
<title>Node16&#45;&gt;Node6</title>
<path fill="none" stroke="#9a32cd" stroke-dasharray="5,2" d="M1188.75,-611.18C1243.89,-603.38 1336.21,-599.29 1397,-644 1413.69,-656.28 1399.16,-673.65 1415,-687 1422.64,-693.44 1432.05,-697.8 1441.73,-700.73"/>
<polygon fill="#9a32cd" stroke="#9a32cd" points="1187.93,-607.76 1178.57,-612.72 1188.98,-614.68 1187.93,-607.76"/>
<text text-anchor="middle" x="1329" y="-647" font-family="Helvetica,sans-Serif" font-size="10.00"> ksp_ctx</text>
</g>
<!-- Node17&#45;&gt;Node5 -->
<g id="edge18" class="edge">
<title>Node17&#45;&gt;Node5</title>
<path fill="none" stroke="midnightblue" d="M1568.37,-438.55C1633.68,-439.4 1729.28,-452.1 1781,-513 1811.75,-549.21 1767.72,-690.25 1799,-726 1805.75,-733.71 1814.85,-738.69 1824.62,-741.83"/>
<polygon fill="midnightblue" stroke="midnightblue" points="1568.17,-435.05 1558.16,-438.51 1568.14,-442.05 1568.17,-435.05"/>
</g>
<!-- Node18 -->
<g id="node18" class="node">
<title>Node18</title>
<g id="a_node18"><a xlink:title=" ">
<polygon fill="white" stroke="#bfbfbf" points="1120.5,-429.5 1120.5,-448.5 1162.5,-448.5 1162.5,-429.5 1120.5,-429.5"/>
<text text-anchor="middle" x="1141.5" y="-436.5" font-family="Helvetica,sans-Serif" font-size="10.00">SNES</text>
</a>
</g>
</g>
<!-- Node18&#45;&gt;Node17 -->
<g id="edge20" class="edge">
<title>Node18&#45;&gt;Node17</title>
<path fill="none" stroke="#9a32cd" stroke-dasharray="5,2" d="M1172.72,-439.26C1231.53,-439.75 1362.28,-440.86 1438.74,-441.5"/>
<polygon fill="#9a32cd" stroke="#9a32cd" points="1172.63,-435.75 1162.6,-439.17 1172.57,-442.75 1172.63,-435.75"/>
<text text-anchor="middle" x="1329" y="-445" font-family="Helvetica,sans-Serif" font-size="10.00"> snes</text>
</g>
<!-- Node19 -->
<g id="node19" class="node">
<title>Node19</title>
<g id="a_node19"><a xlink:title=" ">
<polygon fill="white" stroke="#bfbfbf" points="1101.5,-391.5 1101.5,-410.5 1181.5,-410.5 1181.5,-391.5 1101.5,-391.5"/>
<text text-anchor="middle" x="1141.5" y="-398.5" font-family="Helvetica,sans-Serif" font-size="10.00">SNESContext</text>
</a>
</g>
</g>
<!-- Node19&#45;&gt;Node17 -->
<g id="edge23" class="edge">
<title>Node19&#45;&gt;Node17</title>
<path fill="none" stroke="#9a32cd" stroke-dasharray="5,2" d="M1191.98,-404.98C1243.33,-409.31 1325.94,-416.86 1397,-426 1411.46,-427.86 1427.03,-430.18 1441.51,-432.48"/>
<polygon fill="#9a32cd" stroke="#9a32cd" points="1192.08,-401.47 1181.82,-404.13 1191.49,-408.45 1192.08,-401.47"/>
<text text-anchor="middle" x="1329" y="-429" font-family="Helvetica,sans-Serif" font-size="10.00"> snes_ctx</text>
</g>
<!-- Node20&#45;&gt;Node5 -->
<g id="edge24" class="edge">
<title>Node20&#45;&gt;Node5</title>
<path fill="none" stroke="midnightblue" d="M1533.28,-241.5C1595.14,-268.26 1725.34,-334.42 1781,-437 1811.69,-493.56 1757.17,-677.11 1799,-726 1805.76,-733.9 1815,-738.94 1824.92,-742.09"/>
<polygon fill="midnightblue" stroke="midnightblue" points="1534.54,-238.23 1523.96,-237.55 1531.8,-244.68 1534.54,-238.23"/>
</g>
<!-- Node21 -->
<g id="node21" class="node">
<title>Node21</title>
<g id="a_node21"><a xlink:title=" ">
<polygon fill="white" stroke="#bfbfbf" points="1109,-38.5 1109,-57.5 1174,-57.5 1174,-38.5 1109,-38.5"/>
<text text-anchor="middle" x="1141.5" y="-45.5" font-family="Helvetica,sans-Serif" font-size="10.00">PetscReal</text>
</a>
</g>
</g>
<!-- Node21&#45;&gt;Node20 -->
<g id="edge27" class="edge">
<title>Node21&#45;&gt;Node20</title>
<path fill="none" stroke="#9a32cd" stroke-dasharray="5,2" d="M1183.98,-42.83C1246.71,-35.85 1362.1,-26.46 1397,-47 1463.29,-86.01 1488.98,-186.28 1495.63,-218.13"/>
<polygon fill="#9a32cd" stroke="#9a32cd" points="1183.55,-39.36 1174.01,-43.97 1184.35,-46.31 1183.55,-39.36"/>
<text text-anchor="middle" x="1329" y="-83" font-family="Helvetica,sans-Serif" font-size="10.00"> ts_a</text>
<text text-anchor="middle" x="1329" y="-72" font-family="Helvetica,sans-Serif" font-size="10.00">ts_t</text>
<text text-anchor="middle" x="1329" y="-61" font-family="Helvetica,sans-Serif" font-size="10.00">ts_dt</text>
<text text-anchor="middle" x="1329" y="-50" font-family="Helvetica,sans-Serif" font-size="10.00">ts_aa</text>
</g>
<!-- Node22 -->
<g id="node22" class="node">
<title>Node22</title>
<g id="a_node22"><a xlink:title=" ">
<polygon fill="white" stroke="#bfbfbf" points="1108,-237.5 1108,-256.5 1175,-256.5 1175,-237.5 1108,-237.5"/>
<text text-anchor="middle" x="1141.5" y="-244.5" font-family="Helvetica,sans-Serif" font-size="10.00">TSContext</text>
</a>
</g>
</g>
<!-- Node22&#45;&gt;Node20 -->
<g id="edge28" class="edge">
<title>Node22&#45;&gt;Node20</title>
<path fill="none" stroke="#9a32cd" stroke-dasharray="5,2" d="M1185.59,-244.69C1250.81,-241.2 1374.44,-234.59 1444.88,-230.82"/>
<polygon fill="#9a32cd" stroke="#9a32cd" points="1185.06,-241.22 1175.26,-245.25 1185.43,-248.21 1185.06,-241.22"/>
<text text-anchor="middle" x="1329" y="-244" font-family="Helvetica,sans-Serif" font-size="10.00"> ts_ctx</text>
</g>
<!-- Node23 -->
<g id="node23" class="node">
<title>Node23</title>
<g id="a_node23"><a xlink:title=" ">
<polygon fill="white" stroke="#bfbfbf" points="1113.5,-199.5 1113.5,-218.5 1169.5,-218.5 1169.5,-199.5 1113.5,-199.5"/>
<text text-anchor="middle" x="1141.5" y="-206.5" font-family="Helvetica,sans-Serif" font-size="10.00">PetscInt</text>
</a>
</g>
</g>
<!-- Node23&#45;&gt;Node20 -->
<g id="edge29" class="edge">
<title>Node23&#45;&gt;Node20</title>
<path fill="none" stroke="#9a32cd" stroke-dasharray="5,2" d="M1179.89,-209.88C1229.53,-211.19 1319.92,-214.04 1397,-219 1412.56,-220 1429.45,-221.39 1444.86,-222.79"/>
<polygon fill="#9a32cd" stroke="#9a32cd" points="1179.73,-206.38 1169.64,-209.62 1179.55,-213.38 1179.73,-206.38"/>
<text text-anchor="middle" x="1329" y="-222" font-family="Helvetica,sans-Serif" font-size="10.00"> ts_step</text>
</g>
<!-- Node24 -->
<g id="node24" class="node">
<title>Node24</title>
<g id="a_node24"><a xlink:title=" ">
<polygon fill="white" stroke="#bfbfbf" points="1127,-161.5 1127,-180.5 1156,-180.5 1156,-161.5 1127,-161.5"/>
<text text-anchor="middle" x="1141.5" y="-168.5" font-family="Helvetica,sans-Serif" font-size="10.00">TS</text>
</a>
</g>
</g>
<!-- Node24&#45;&gt;Node20 -->
<g id="edge31" class="edge">
<title>Node24&#45;&gt;Node20</title>
<path fill="none" stroke="#9a32cd" stroke-dasharray="5,2" d="M1166.15,-172.05C1211.37,-174.38 1313.09,-181.17 1397,-198 1422.35,-203.08 1450.5,-211.76 1470.54,-218.48"/>
<polygon fill="#9a32cd" stroke="#9a32cd" points="1166.31,-168.56 1156.15,-171.56 1165.97,-175.55 1166.31,-168.56"/>
<text text-anchor="middle" x="1329" y="-201" font-family="Helvetica,sans-Serif" font-size="10.00"> ts</text>
</g>
<!-- Node25 -->
<g id="node25" class="node">
<title>Node25</title>
<g id="a_node25"><a xlink:title=" ">
<polygon fill="white" stroke="#bfbfbf" points="1454,-658.5 1454,-677.5 1543,-677.5 1543,-658.5 1454,-658.5"/>
<text text-anchor="middle" x="1498.5" y="-665.5" font-family="Helvetica,sans-Serif" font-size="10.00">pair&lt; int, int &gt;</text>
</a>
</g>
</g>
<!-- Node25&#45;&gt;Node5 -->
<g id="edge33" class="edge">
<title>Node25&#45;&gt;Node5</title>
<path fill="none" stroke="#9a32cd" stroke-dasharray="5,2" d="M1553.26,-660.67C1613.37,-655.26 1711.41,-655.06 1781,-698 1793.59,-705.77 1786.86,-717.54 1799,-726 1806.65,-731.33 1815.54,-735.2 1824.64,-738"/>
<polygon fill="#9a32cd" stroke="#9a32cd" points="1552.83,-657.19 1543.22,-661.65 1553.52,-664.16 1552.83,-657.19"/>
<text text-anchor="middle" x="1690.5" y="-701" font-family="Helvetica,sans-Serif" font-size="10.00"> loHiFERank</text>
</g>
<!-- Node26 -->
<g id="node26" class="node">
<title>Node26</title>
<g id="a_node26"><a xlink:title=" ">
<polygon fill="white" stroke="#bfbfbf" points="1428.5,-620.5 1428.5,-639.5 1568.5,-639.5 1568.5,-620.5 1428.5,-620.5"/>
<text text-anchor="middle" x="1498.5" y="-627.5" font-family="Helvetica,sans-Serif" font-size="10.00">weak_ptr&lt; CacheTuple &gt;</text>
</a>
</g>
</g>
<!-- Node26&#45;&gt;Node5 -->
<g id="edge34" class="edge">
<title>Node26&#45;&gt;Node5</title>
<path fill="none" stroke="#9a32cd" stroke-dasharray="5,2" d="M1578.61,-623.29C1651.09,-618.95 1751.47,-618.04 1781,-643 1809.83,-667.37 1772.36,-699.26 1799,-726 1806.12,-733.15 1815.29,-737.88 1824.97,-740.95"/>
<polygon fill="#9a32cd" stroke="#9a32cd" points="1578.33,-619.8 1568.57,-623.93 1578.77,-626.79 1578.33,-619.8"/>
<text text-anchor="middle" x="1690.5" y="-646" font-family="Helvetica,sans-Serif" font-size="10.00"> cacheWeakPtr</text>
</g>
<!-- Node27 -->
<g id="node27" class="node">
<title>Node27</title>
<g id="a_node27"><a xlink:title=" ">
<polygon fill="white" stroke="#bfbfbf" points="1442.5,-581.5 1442.5,-600.5 1554.5,-600.5 1554.5,-581.5 1442.5,-581.5"/>
<text text-anchor="middle" x="1498.5" y="-588.5" font-family="Helvetica,sans-Serif" font-size="10.00">unique_ptr&lt; bool &gt;</text>
</a>
</g>
</g>
<!-- Node27&#45;&gt;Node5 -->
<g id="edge35" class="edge">
<title>Node27&#45;&gt;Node5</title>
<path fill="none" stroke="#9a32cd" stroke-dasharray="5,2" d="M1564.76,-582.27C1637.84,-574.08 1750.11,-566.75 1781,-594 1825.4,-633.17 1758.88,-682.45 1799,-726 1805.94,-733.53 1815.14,-738.43 1824.94,-741.54"/>
<polygon fill="#9a32cd" stroke="#9a32cd" points="1564.26,-578.81 1554.72,-583.43 1565.06,-585.76 1564.26,-578.81"/>
<text text-anchor="middle" x="1690.5" y="-608" font-family="Helvetica,sans-Serif" font-size="10.00"> matAssembleSwitch</text>
<text text-anchor="middle" x="1690.5" y="-597" font-family="Helvetica,sans-Serif" font-size="10.00">vecAssembleSwitch</text>
</g>
<!-- Node28 -->
<g id="node28" class="node">
<title>Node28</title>
<g id="a_node28"><a xlink:title=" ">
<polygon fill="white" stroke="#bfbfbf" points="1127,-782.5 1127,-801.5 1156,-801.5 1156,-782.5 1127,-782.5"/>
<text text-anchor="middle" x="1141.5" y="-789.5" font-family="Helvetica,sans-Serif" font-size="10.00">int</text>
</a>
</g>
</g>
<!-- Node28&#45;&gt;Node2 -->
<g id="edge76" class="edge">
<title>Node28&#45;&gt;Node2</title>
<path fill="none" stroke="#9a32cd" stroke-dasharray="5,2" d="M1166.03,-786.75C1189.5,-780.22 1224.61,-766.65 1243,-741 1275.71,-695.39 1230.76,-663.29 1261,-616 1304.97,-547.25 1339.39,-546.7 1415,-516 1549.65,-461.34 1916.68,-421 2062,-421 2062,-421 2062,-421 2639,-421 2725.82,-421 2826.42,-445.81 2873.74,-458.99"/>
<polygon fill="#9a32cd" stroke="#9a32cd" points="1165,-783.41 1156.18,-789.28 1166.73,-790.19 1165,-783.41"/>
<text text-anchor="middle" x="2063" y="-427" font-family="Helvetica,sans-Serif" font-size="10.00"> numNodes</text>
</g>
<!-- Node28&#45;&gt;Node5 -->
<g id="edge36" class="edge">
<title>Node28&#45;&gt;Node5</title>
<path fill="none" stroke="#9a32cd" stroke-dasharray="5,2" d="M1166.01,-791.48C1249.78,-789.49 1541.42,-781.28 1781,-759 1795.24,-757.68 1810.53,-755.85 1824.88,-753.95"/>
<polygon fill="#9a32cd" stroke="#9a32cd" points="1165.93,-787.98 1156.01,-791.71 1166.09,-794.98 1165.93,-787.98"/>
<text text-anchor="middle" x="1498.5" y="-818" font-family="Helvetica,sans-Serif" font-size="10.00"> sIze</text>
<text text-anchor="middle" x="1498.5" y="-807" font-family="Helvetica,sans-Serif" font-size="10.00">loopSize</text>
<text text-anchor="middle" x="1498.5" y="-796" font-family="Helvetica,sans-Serif" font-size="10.00">nInTheLoop</text>
<text text-anchor="middle" x="1498.5" y="-785" font-family="Helvetica,sans-Serif" font-size="10.00">rAnk</text>
</g>
<!-- Node30 -->
<g id="node30" class="node">
<title>Node30</title>
<g id="a_node30"><a xlink:href="structMoFEM_1_1Problem.html" target="_top" xlink:title="keeps basic data about problem">
<polygon fill="white" stroke="black" points="1449,-1065.5 1449,-1084.5 1548,-1084.5 1548,-1065.5 1449,-1065.5"/>
<text text-anchor="middle" x="1498.5" y="-1072.5" font-family="Helvetica,sans-Serif" font-size="10.00">MoFEM::Problem</text>
</a>
</g>
</g>
<!-- Node28&#45;&gt;Node30 -->
<g id="edge48" class="edge">
<title>Node28&#45;&gt;Node30</title>
<path fill="none" stroke="#9a32cd" stroke-dasharray="5,2" d="M1166.02,-793.79C1225.57,-798.53 1378.89,-811.95 1397,-826 1478.02,-888.88 1494.01,-1027.58 1496.9,-1065.34"/>
<polygon fill="#9a32cd" stroke="#9a32cd" points="1166.29,-790.3 1156.04,-793.01 1165.74,-797.28 1166.29,-790.3"/>
<text text-anchor="middle" x="1329" y="-895" font-family="Helvetica,sans-Serif" font-size="10.00"> tagNameSize</text>
<text text-anchor="middle" x="1329" y="-884" font-family="Helvetica,sans-Serif" font-size="10.00">nbDofsRow</text>
<text text-anchor="middle" x="1329" y="-873" font-family="Helvetica,sans-Serif" font-size="10.00">nbLocDofsCol</text>
<text text-anchor="middle" x="1329" y="-862" font-family="Helvetica,sans-Serif" font-size="10.00">nbDofsCol</text>
<text text-anchor="middle" x="1329" y="-851" font-family="Helvetica,sans-Serif" font-size="10.00">nbGhostDofsRow</text>
<text text-anchor="middle" x="1329" y="-840" font-family="Helvetica,sans-Serif" font-size="10.00">nbGhostDofsCol</text>
<text text-anchor="middle" x="1329" y="-829" font-family="Helvetica,sans-Serif" font-size="10.00">nbLocDofsRow</text>
</g>
<!-- Node29 -->
<g id="node29" class="node">
<title>Node29</title>
<g id="a_node29"><a xlink:title=" ">
<polygon fill="white" stroke="#bfbfbf" points="1415,-525.5 1415,-544.5 1582,-544.5 1582,-525.5 1415,-525.5"/>
<text text-anchor="middle" x="1498.5" y="-532.5" font-family="Helvetica,sans-Serif" font-size="10.00">function&lt; MoFEMErrorCode()&gt;</text>
</a>
</g>
</g>
<!-- Node29&#45;&gt;Node5 -->
<g id="edge37" class="edge">
<title>Node29&#45;&gt;Node5</title>
<path fill="none" stroke="#9a32cd" stroke-dasharray="5,2" d="M1577.75,-524.34C1650.67,-516.34 1752.34,-510.76 1781,-537 1812.11,-565.49 1771.05,-694.4 1799,-726 1805.79,-733.67 1814.91,-738.63 1824.69,-741.77"/>
<polygon fill="#9a32cd" stroke="#9a32cd" points="1577.2,-520.88 1567.66,-525.49 1577.99,-527.84 1577.2,-520.88"/>
<text text-anchor="middle" x="1690.5" y="-562" font-family="Helvetica,sans-Serif" font-size="10.00"> preProcessHook</text>
<text text-anchor="middle" x="1690.5" y="-551" font-family="Helvetica,sans-Serif" font-size="10.00">operatorHook</text>
<text text-anchor="middle" x="1690.5" y="-540" font-family="Helvetica,sans-Serif" font-size="10.00">postProcessHook</text>
</g>
<!-- Node30&#45;&gt;Node5 -->
<g id="edge38" class="edge">
<title>Node30&#45;&gt;Node5</title>
<path fill="none" stroke="#9a32cd" stroke-dasharray="5,2" d="M1518.47,-1058.76C1586.93,-1000.16 1819.99,-800.65 1873.83,-754.56"/>
<polygon fill="#9a32cd" stroke="#9a32cd" points="1515.94,-1056.32 1510.62,-1065.48 1520.49,-1061.64 1515.94,-1056.32"/>
<text text-anchor="middle" x="1690.5" y="-989" font-family="Helvetica,sans-Serif" font-size="10.00"> problemPtr</text>
</g>
<!-- Node31 -->
<g id="node31" class="node">
<title>Node31</title>
<g id="a_node31"><a xlink:title=" ">
<polygon fill="white" stroke="#bfbfbf" points="1058,-890 1058,-920 1225,-920 1225,-890 1058,-890"/>
<text text-anchor="start" x="1066" y="-908" font-family="Helvetica,sans-Serif" font-size="10.00">shared_ptr&lt; NumeredEntFinite</text>
<text text-anchor="middle" x="1141.5" y="-897" font-family="Helvetica,sans-Serif" font-size="10.00">Element_multiIndex &gt;</text>
</a>
</g>
</g>
<!-- Node31&#45;&gt;Node30 -->
<g id="edge39" class="edge">
<title>Node31&#45;&gt;Node30</title>
<path fill="none" stroke="#9a32cd" stroke-dasharray="5,2" d="M1235.14,-906.46C1296.39,-908.92 1370.16,-915.22 1397,-931 1451.92,-963.3 1484.15,-1038.84 1494.14,-1065.49"/>
<polygon fill="#9a32cd" stroke="#9a32cd" points="1235.17,-902.96 1225.04,-906.08 1234.9,-909.95 1235.17,-902.96"/>
<text text-anchor="middle" x="1329" y="-934" font-family="Helvetica,sans-Serif" font-size="10.00"> numeredFiniteElementsPtr</text>
</g>
<!-- Node32 -->
<g id="node32" class="node">
<title>Node32</title>
<g id="a_node32"><a xlink:title=" ">
<polygon fill="white" stroke="#bfbfbf" points="1112,-1279.5 1112,-1298.5 1171,-1298.5 1171,-1279.5 1112,-1279.5"/>
<text text-anchor="middle" x="1141.5" y="-1286.5" font-family="Helvetica,sans-Serif" font-size="10.00">BitFEId *</text>
</a>
</g>
</g>
<!-- Node32&#45;&gt;Node30 -->
<g id="edge40" class="edge">
<title>Node32&#45;&gt;Node30</title>
<path fill="none" stroke="#9a32cd" stroke-dasharray="5,2" d="M1181.2,-1286.07C1248,-1280.73 1379.5,-1268.86 1397,-1257 1460.94,-1213.66 1488.21,-1115.6 1495.44,-1084.59"/>
<polygon fill="#9a32cd" stroke="#9a32cd" points="1180.75,-1282.59 1171.06,-1286.87 1181.31,-1289.57 1180.75,-1282.59"/>
<text text-anchor="middle" x="1329" y="-1281" font-family="Helvetica,sans-Serif" font-size="10.00"> tagBitFEId</text>
</g>
<!-- Node33 -->
<g id="node33" class="node">
<title>Node33</title>
<g id="a_node33"><a xlink:href="classEntityHandle.html" target="_top" xlink:title=" ">
<polygon fill="white" stroke="black" points="1101.5,-1329.5 1101.5,-1348.5 1181.5,-1348.5 1181.5,-1329.5 1101.5,-1329.5"/>
<text text-anchor="middle" x="1141.5" y="-1336.5" font-family="Helvetica,sans-Serif" font-size="10.00">EntityHandle</text>
</a>
</g>
</g>
<!-- Node33&#45;&gt;Node1 -->
<g id="edge84" class="edge">
<title>Node33&#45;&gt;Node1</title>
<path fill="none" stroke="#9a32cd" stroke-dasharray="5,2" d="M1191.72,-1349.46C1260.02,-1363.03 1387.55,-1385 1497.5,-1385 1497.5,-1385 1497.5,-1385 2903,-1385 3000.64,-1385 3073.25,-574.8 3081.68,-476.69"/>
<polygon fill="#9a32cd" stroke="#9a32cd" points="1192.18,-1345.98 1181.68,-1347.44 1190.8,-1352.84 1192.18,-1345.98"/>
<text text-anchor="middle" x="2254" y="-1388" font-family="Helvetica,sans-Serif" font-size="10.00"> prism</text>
</g>
<!-- Node33&#45;&gt;Node2 -->
<g id="edge74" class="edge">
<title>Node33&#45;&gt;Node2</title>
<path fill="none" stroke="#9a32cd" stroke-dasharray="5,2" d="M1191.71,-1339C1260.24,-1339 1388.32,-1339 1497.5,-1339 1497.5,-1339 1497.5,-1339 2639,-1339 2828.69,-1339 2892.98,-572.59 2900.28,-476.79"/>
<polygon fill="#9a32cd" stroke="#9a32cd" points="1191.64,-1335.5 1181.64,-1339 1191.64,-1342.5 1191.64,-1335.5"/>
<text text-anchor="middle" x="2063" y="-1342" font-family="Helvetica,sans-Serif" font-size="10.00"> cOnn</text>
</g>
<!-- Node33&#45;&gt;Node30 -->
<g id="edge41" class="edge">
<title>Node33&#45;&gt;Node30</title>
<path fill="none" stroke="#9a32cd" stroke-dasharray="5,2" d="M1191.46,-1328.21C1212.78,-1323.63 1238.09,-1318.35 1261,-1314 1321.23,-1302.56 1348.25,-1328.17 1397,-1291 1468.37,-1236.58 1490.96,-1119.22 1496.18,-1084.72"/>
<polygon fill="#9a32cd" stroke="#9a32cd" points="1190.69,-1324.79 1181.65,-1330.33 1192.16,-1331.64 1190.69,-1324.79"/>
<text text-anchor="middle" x="1329" y="-1317" font-family="Helvetica,sans-Serif" font-size="10.00"> meshset</text>
</g>
<!-- Node34 -->
<g id="node34" class="node">
<title>Node34</title>
<g id="a_node34"><a xlink:title=" ">
<polygon fill="white" stroke="#bfbfbf" points="1067,-1230 1067,-1260 1216,-1260 1216,-1230 1067,-1230"/>
<text text-anchor="start" x="1075" y="-1248" font-family="Helvetica,sans-Serif" font-size="10.00">shared_ptr&lt; MoFEM::</text>
<text text-anchor="middle" x="1141.5" y="-1237" font-family="Helvetica,sans-Serif" font-size="10.00">ComposedProblemsData &gt;</text>
</a>
</g>
</g>
<!-- Node34&#45;&gt;Node30 -->
<g id="edge42" class="edge">
<title>Node34&#45;&gt;Node30</title>
<path fill="none" stroke="#9a32cd" stroke-dasharray="5,2" d="M1226.54,-1243.87C1289.31,-1241.65 1368.89,-1235.53 1397,-1219 1451.92,-1186.7 1484.15,-1111.16 1494.14,-1084.51"/>
<polygon fill="#9a32cd" stroke="#9a32cd" points="1226.11,-1240.38 1216.23,-1244.2 1226.34,-1247.37 1226.11,-1240.38"/>
<text text-anchor="middle" x="1329" y="-1245" font-family="Helvetica,sans-Serif" font-size="10.00"> composedProblemsData</text>
</g>
<!-- Node35 -->
<g id="node35" class="node">
<title>Node35</title>
<g id="a_node35"><a xlink:title=" ">
<polygon fill="white" stroke="#bfbfbf" points="1101,-1191.5 1101,-1210.5 1182,-1210.5 1182,-1191.5 1101,-1191.5"/>
<text text-anchor="middle" x="1141.5" y="-1198.5" font-family="Helvetica,sans-Serif" font-size="10.00">BitRefLevel *</text>
</a>
</g>
</g>
<!-- Node35&#45;&gt;Node30 -->
<g id="edge43" class="edge">
<title>Node35&#45;&gt;Node30</title>
<path fill="none" stroke="#9a32cd" stroke-dasharray="5,2" d="M1192.22,-1198.63C1255.76,-1194.97 1361.75,-1186.56 1397,-1170 1439.81,-1149.89 1476.25,-1104.47 1490.77,-1084.61"/>
<polygon fill="#9a32cd" stroke="#9a32cd" points="1191.81,-1195.15 1182.02,-1199.2 1192.2,-1202.13 1191.81,-1195.15"/>
<text text-anchor="middle" x="1329" y="-1207" font-family="Helvetica,sans-Serif" font-size="10.00"> tagBitRefLevelMask</text>
<text text-anchor="middle" x="1329" y="-1196" font-family="Helvetica,sans-Serif" font-size="10.00">tagBitRefLevel</text>
</g>
<!-- Node36 -->
<g id="node36" class="node">
<title>Node36</title>
<g id="a_node36"><a xlink:title=" ">
<polygon fill="white" stroke="#bfbfbf" points="1056.5,-1142 1056.5,-1172 1226.5,-1172 1226.5,-1142 1056.5,-1142"/>
<text text-anchor="start" x="1064.5" y="-1160" font-family="Helvetica,sans-Serif" font-size="10.00">shared_ptr&lt; NumeredDofEntity</text>
<text text-anchor="middle" x="1141.5" y="-1149" font-family="Helvetica,sans-Serif" font-size="10.00">_multiIndex &gt;</text>
</a>
</g>
</g>
<!-- Node36&#45;&gt;Node30 -->
<g id="edge44" class="edge">
<title>Node36&#45;&gt;Node30</title>
<path fill="none" stroke="#9a32cd" stroke-dasharray="5,2" d="M1236.91,-1148.28C1285.39,-1142.36 1345.04,-1132.84 1397,-1118 1426.74,-1109.51 1459.36,-1094.4 1479.12,-1084.54"/>
<polygon fill="#9a32cd" stroke="#9a32cd" points="1236.26,-1144.83 1226.74,-1149.49 1237.08,-1151.78 1236.26,-1144.83"/>
<text text-anchor="middle" x="1329" y="-1158" font-family="Helvetica,sans-Serif" font-size="10.00"> numeredRowDofsPtr</text>
<text text-anchor="middle" x="1329" y="-1147" font-family="Helvetica,sans-Serif" font-size="10.00">numeredColDofsPtr</text>
</g>
<!-- Node37 -->
<g id="node37" class="node">
<title>Node37</title>
<g id="a_node37"><a xlink:title=" ">
<polygon fill="white" stroke="#bfbfbf" points="1122.5,-1103.5 1122.5,-1122.5 1160.5,-1122.5 1160.5,-1103.5 1122.5,-1103.5"/>
<text text-anchor="middle" x="1141.5" y="-1110.5" font-family="Helvetica,sans-Serif" font-size="10.00">char</text>
</a>
</g>
</g>
<!-- Node37&#45;&gt;Node30 -->
<g id="edge45" class="edge">
<title>Node37&#45;&gt;Node30</title>
<path fill="none" stroke="#9a32cd" stroke-dasharray="5,2" d="M1170.79,-1110.98C1217.83,-1107.51 1315.06,-1099.81 1397,-1090 1413.9,-1087.98 1432.34,-1085.35 1448.76,-1082.86"/>
<polygon fill="#9a32cd" stroke="#9a32cd" points="1170.46,-1107.5 1160.75,-1111.72 1170.97,-1114.48 1170.46,-1107.5"/>
<text text-anchor="middle" x="1329" y="-1106" font-family="Helvetica,sans-Serif" font-size="10.00"> tagName</text>
</g>
<!-- Node38 -->
<g id="node38" class="node">
<title>Node38</title>
<g id="a_node38"><a xlink:title=" ">
<polygon fill="white" stroke="#bfbfbf" points="1072.5,-1065.5 1072.5,-1084.5 1210.5,-1084.5 1210.5,-1065.5 1072.5,-1065.5"/>
<text text-anchor="middle" x="1141.5" y="-1072.5" font-family="Helvetica,sans-Serif" font-size="10.00">vector&lt; BlockFieldPair &gt;</text>
</a>
</g>
</g>
<!-- Node38&#45;&gt;Node30 -->
<g id="edge46" class="edge">
<title>Node38&#45;&gt;Node30</title>
<path fill="none" stroke="#9a32cd" stroke-dasharray="5,2" d="M1220.57,-1075C1290.2,-1075 1389.95,-1075 1448.8,-1075"/>
<polygon fill="#9a32cd" stroke="#9a32cd" points="1220.53,-1071.5 1210.53,-1075 1220.53,-1078.5 1220.53,-1071.5"/>
<text text-anchor="middle" x="1329" y="-1078" font-family="Helvetica,sans-Serif" font-size="10.00"> emptyFieldBlocks</text>
</g>
<!-- Node39 -->
<g id="node39" class="node">
<title>Node39</title>
<g id="a_node39"><a xlink:title=" ">
<polygon fill="white" stroke="#bfbfbf" points="1063.5,-1016 1063.5,-1046 1219.5,-1046 1219.5,-1016 1063.5,-1016"/>
<text text-anchor="start" x="1071.5" y="-1034" font-family="Helvetica,sans-Serif" font-size="10.00">shared_ptr&lt; MoFEM::</text>
<text text-anchor="middle" x="1141.5" y="-1023" font-family="Helvetica,sans-Serif" font-size="10.00">Problem::SubProblemData &gt;</text>
</a>
</g>
</g>
<!-- Node39&#45;&gt;Node30 -->
<g id="edge47" class="edge">
<title>Node39&#45;&gt;Node30</title>
<path fill="none" stroke="#9a32cd" stroke-dasharray="5,2" d="M1229.68,-1040.18C1278.86,-1045.54 1341.42,-1052.69 1397,-1060 1413.97,-1062.23 1432.5,-1064.93 1448.99,-1067.41"/>
<polygon fill="#9a32cd" stroke="#9a32cd" points="1230.03,-1036.7 1219.71,-1039.09 1229.27,-1043.65 1230.03,-1036.7"/>
<text text-anchor="middle" x="1329" y="-1063" font-family="Helvetica,sans-Serif" font-size="10.00"> subProblemData</text>
</g>
<!-- Node40 -->
<g id="node40" class="node">
<title>Node40</title>
<g id="a_node40"><a xlink:title=" ">
<polygon fill="white" stroke="#bfbfbf" points="1040,-977.5 1040,-996.5 1243,-996.5 1243,-977.5 1040,-977.5"/>
<text text-anchor="middle" x="1141.5" y="-984.5" font-family="Helvetica,sans-Serif" font-size="10.00">shared_ptr&lt; SequenceDofContainer &gt;</text>
</a>
</g>
</g>
<!-- Node40&#45;&gt;Node30 -->
<g id="edge49" class="edge">
<title>Node40&#45;&gt;Node30</title>
<path fill="none" stroke="#9a32cd" stroke-dasharray="5,2" d="M1253.46,-991C1298.84,-995.06 1351.32,-1002.93 1397,-1018 1430.91,-1029.18 1466.25,-1052.37 1484.64,-1065.46"/>
<polygon fill="#9a32cd" stroke="#9a32cd" points="1253.55,-987.49 1243.29,-990.14 1252.96,-994.47 1253.55,-987.49"/>
<text text-anchor="middle" x="1329" y="-1032" font-family="Helvetica,sans-Serif" font-size="10.00"> sequenceRowDofContainer</text>
<text text-anchor="middle" x="1329" y="-1021" font-family="Helvetica,sans-Serif" font-size="10.00">sequenceColDofContainer</text>
</g>
<!-- Node41 -->
<g id="node41" class="node">
<title>Node41</title>
<g id="a_node41"><a xlink:title=" ">
<polygon fill="white" stroke="#bfbfbf" points="1097.5,-939.5 1097.5,-958.5 1185.5,-958.5 1185.5,-939.5 1097.5,-939.5"/>
<text text-anchor="middle" x="1141.5" y="-946.5" font-family="Helvetica,sans-Serif" font-size="10.00">BitProblemId *</text>
</a>
</g>
</g>
<!-- Node41&#45;&gt;Node30 -->
<g id="edge50" class="edge">
<title>Node41&#45;&gt;Node30</title>
<path fill="none" stroke="#9a32cd" stroke-dasharray="5,2" d="M1196.05,-945.04C1249.52,-943.29 1332.75,-946.66 1397,-977 1440.63,-997.6 1476.89,-1044.96 1491.08,-1065.36"/>
<polygon fill="#9a32cd" stroke="#9a32cd" points="1195.62,-941.56 1185.77,-945.45 1195.9,-948.55 1195.62,-941.56"/>
<text text-anchor="middle" x="1329" y="-980" font-family="Helvetica,sans-Serif" font-size="10.00"> tagId</text>
</g>
<!-- Node42 -->
<g id="node42" class="node">
<title>Node42</title>
<g id="a_node42"><a xlink:title=" ">
<polygon fill="white" stroke="#bfbfbf" points="1805,-833 1805,-863 1967,-863 1967,-833 1805,-833"/>
<text text-anchor="start" x="1813" y="-851" font-family="Helvetica,sans-Serif" font-size="10.00">shared_ptr&lt; const MoFEM</text>
<text text-anchor="middle" x="1886" y="-840" font-family="Helvetica,sans-Serif" font-size="10.00">::NumeredEntFiniteElement &gt;</text>
</a>
</g>
</g>
<!-- Node42&#45;&gt;Node4 -->
<g id="edge51" class="edge">
<title>Node42&#45;&gt;Node4</title>
<path fill="none" stroke="#9a32cd" stroke-dasharray="5,2" d="M1977.47,-858.38C2047.52,-866.42 2142.12,-877.28 2200.27,-883.95"/>
<polygon fill="#9a32cd" stroke="#9a32cd" points="1977.65,-854.88 1967.32,-857.22 1976.86,-861.83 1977.65,-854.88"/>
<text text-anchor="middle" x="2063" y="-879" font-family="Helvetica,sans-Serif" font-size="10.00"> numeredEntFiniteElementPtr</text>
</g>
<!-- Node43 -->
<g id="node43" class="node">
<title>Node43</title>
<g id="a_node43"><a xlink:title=" ">
<polygon fill="white" stroke="#bfbfbf" points="1864,-948.5 1864,-967.5 1908,-967.5 1908,-948.5 1864,-948.5"/>
<text text-anchor="middle" x="1886" y="-955.5" font-family="Helvetica,sans-Serif" font-size="10.00">string</text>
</a>
</g>
</g>
<!-- Node43&#45;&gt;Node2 -->
<g id="edge77" class="edge">
<title>Node43&#45;&gt;Node2</title>
<path fill="none" stroke="#9a32cd" stroke-dasharray="5,2" d="M1918.03,-966.6C2015.01,-991.72 2318.77,-1056.98 2535,-955 2756.74,-850.42 2876.74,-535.92 2897.68,-476.68"/>
<polygon fill="#9a32cd" stroke="#9a32cd" points="1918.83,-963.19 1908.27,-964.02 1917.05,-969.96 1918.83,-963.19"/>
<text text-anchor="middle" x="2454" y="-1004" font-family="Helvetica,sans-Serif" font-size="10.00"> meshPositionsFieldName</text>
</g>
<!-- Node43&#45;&gt;Node4 -->
<g id="edge52" class="edge">
<title>Node43&#45;&gt;Node4</title>
<path fill="none" stroke="#9a32cd" stroke-dasharray="5,2" d="M1918.41,-952.17C1981.66,-940.41 2124.9,-913.8 2201.84,-899.5"/>
<polygon fill="#9a32cd" stroke="#9a32cd" points="1917.45,-948.78 1908.26,-954.05 1918.73,-955.66 1917.45,-948.78"/>
<text text-anchor="middle" x="2063" y="-940" font-family="Helvetica,sans-Serif" font-size="10.00"> feName</text>
</g>
<!-- Node44 -->
<g id="node44" class="node">
<title>Node44</title>
<g id="a_node44"><a xlink:title=" ">
<polygon fill="white" stroke="#bfbfbf" points="1804.5,-882 1804.5,-912 1967.5,-912 1967.5,-882 1804.5,-882"/>
<text text-anchor="start" x="1812.5" y="-900" font-family="Helvetica,sans-Serif" font-size="10.00">function&lt; bool(MoFEM</text>
<text text-anchor="middle" x="1886" y="-889" font-family="Helvetica,sans-Serif" font-size="10.00">::FEMethod *fe_method_ptr)&gt;</text>
</a>
</g>
</g>
<!-- Node44&#45;&gt;Node4 -->
<g id="edge53" class="edge">
<title>Node44&#45;&gt;Node4</title>
<path fill="none" stroke="#9a32cd" stroke-dasharray="5,2" d="M1977.93,-895.26C2047.99,-893.92 2142.39,-892.12 2200.41,-891.01"/>
<polygon fill="#9a32cd" stroke="#9a32cd" points="1977.7,-891.76 1967.77,-895.46 1977.84,-898.76 1977.7,-891.76"/>
<text text-anchor="middle" x="2063" y="-897" font-family="Helvetica,sans-Serif" font-size="10.00"> exeTestHook</text>
</g>
<!-- Node45 -->
<g id="node45" class="node">
<title>Node45</title>
<g id="a_node45"><a xlink:href="classdouble.html" target="_top" xlink:title=" ">
<polygon fill="white" stroke="black" points="2229,-372.5 2229,-391.5 2279,-391.5 2279,-372.5 2229,-372.5"/>
<text text-anchor="middle" x="2254" y="-379.5" font-family="Helvetica,sans-Serif" font-size="10.00">double</text>
</a>
</g>
</g>
<!-- Node45&#45;&gt;Node2 -->
<g id="edge75" class="edge">
<title>Node45&#45;&gt;Node2</title>
<path fill="none" stroke="#9a32cd" stroke-dasharray="5,2" d="M2289.23,-381.33C2405.7,-379.32 2781.85,-375.39 2825,-407 2841.05,-418.76 2828.26,-434.63 2843,-448 2851.48,-455.69 2863.12,-460.27 2873.76,-463"/>
<polygon fill="#9a32cd" stroke="#9a32cd" points="2289.03,-377.83 2279.1,-381.51 2289.16,-384.83 2289.03,-377.83"/>
<text text-anchor="middle" x="2638" y="-391" font-family="Helvetica,sans-Serif" font-size="10.00"> lEngth</text>
</g>
<!-- Node45&#45;&gt;Node3 -->
<g id="edge54" class="edge">
<title>Node45&#45;&gt;Node3</title>
<path fill="none" stroke="#9a32cd" stroke-dasharray="5,2" d="M2289.36,-385.45C2346.63,-392.85 2462.47,-415.06 2535,-478 2598.29,-532.92 2627.22,-636.66 2634.86,-668.48"/>
<polygon fill="#9a32cd" stroke="#9a32cd" points="2289.72,-381.97 2279.37,-384.24 2288.88,-388.92 2289.72,-381.97"/>
<text text-anchor="middle" x="2454" y="-481" font-family="Helvetica,sans-Serif" font-size="10.00"> elementMeasure</text>
</g>
<!-- Node63 -->
<g id="node63" class="node">
<title>Node63</title>
<g id="a_node63"><a xlink:href="classFTensor_1_1Tensor1.html" target="_top" xlink:title=" ">
<polygon fill="white" stroke="black" points="2556,-288.5 2556,-307.5 2720,-307.5 2720,-288.5 2556,-288.5"/>
<text text-anchor="middle" x="2638" y="-295.5" font-family="Helvetica,sans-Serif" font-size="10.00">FTensor::Tensor1&lt; double, 3 &gt;</text>
</a>
</g>
</g>
<!-- Node45&#45;&gt;Node63 -->
<g id="edge79" class="edge">
<title>Node45&#45;&gt;Node63</title>
<path fill="none" stroke="#9a32cd" stroke-dasharray="5,2" d="M2289.18,-374.48C2358.76,-359.18 2516.77,-324.44 2593.53,-307.56"/>
<polygon fill="#9a32cd" stroke="#9a32cd" points="2288.2,-371.12 2279.19,-376.68 2289.7,-377.95 2288.2,-371.12"/>
<text text-anchor="middle" x="2454" y="-358" font-family="Helvetica,sans-Serif" font-size="10.00"> data</text>
</g>
<!-- Node46 -->
<g id="node46" class="node">
<title>Node46</title>
<g id="a_node46"><a xlink:title=" ">
<polygon fill="white" stroke="#bfbfbf" points="2168,-710.5 2168,-751.5 2340,-751.5 2340,-710.5 2168,-710.5"/>
<text text-anchor="start" x="2176" y="-739.5" font-family="Helvetica,sans-Serif" font-size="10.00">array&lt; boost::shared</text>
<text text-anchor="start" x="2176" y="-728.5" font-family="Helvetica,sans-Serif" font-size="10.00">_ptr&lt; MoFEM::EntitiesFieldData</text>
<text text-anchor="middle" x="2254" y="-717.5" font-family="Helvetica,sans-Serif" font-size="10.00"> &gt;, LASTSPACE &gt;</text>
</a>
</g>
</g>
<!-- Node46&#45;&gt;Node3 -->
<g id="edge55" class="edge">
<title>Node46&#45;&gt;Node3</title>
<path fill="none" stroke="#9a32cd" stroke-dasharray="5,2" d="M2350.22,-719.65C2404.45,-712.96 2473.61,-704.06 2535,-695 2550.36,-692.73 2566.99,-690.06 2582.27,-687.51"/>
<polygon fill="#9a32cd" stroke="#9a32cd" points="2349.77,-716.18 2340.28,-720.87 2350.63,-723.13 2349.77,-716.18"/>
<text text-anchor="middle" x="2454" y="-730" font-family="Helvetica,sans-Serif" font-size="10.00"> derivedDataOnElement</text>
<text text-anchor="middle" x="2454" y="-719" font-family="Helvetica,sans-Serif" font-size="10.00">dataOnElement</text>
</g>
<!-- Node47 -->
<g id="node47" class="node">
<title>Node47</title>
<g id="a_node47"><a xlink:title=" ">
<polygon fill="white" stroke="#bfbfbf" points="2220,-672.5 2220,-691.5 2288,-691.5 2288,-672.5 2220,-672.5"/>
<text text-anchor="middle" x="2254" y="-679.5" font-family="Helvetica,sans-Serif" font-size="10.00">EntityType</text>
</a>
</g>
</g>
<!-- Node47&#45;&gt;Node3 -->
<g id="edge56" class="edge">
<title>Node47&#45;&gt;Node3</title>
<path fill="none" stroke="#9a32cd" stroke-dasharray="5,2" d="M2298.38,-681.55C2360,-680.9 2474.11,-679.71 2552.71,-678.88"/>
<polygon fill="#9a32cd" stroke="#9a32cd" points="2298.19,-678.05 2288.23,-681.65 2298.27,-685.05 2298.19,-678.05"/>
<text text-anchor="middle" x="2454" y="-683" font-family="Helvetica,sans-Serif" font-size="10.00"> lastEvaluatedElementEntityType</text>
</g>
<!-- Node48 -->
<g id="node48" class="node">
<title>Node48</title>
<g id="a_node48"><a xlink:href="structMoFEM_1_1DeprecatedCoreInterface.html" target="_top" xlink:title="Deprecated interface functions.">
<polygon fill="white" stroke="black" points="1600,-203.5 1600,-222.5 1781,-222.5 1781,-203.5 1600,-203.5"/>
<text text-anchor="middle" x="1690.5" y="-210.5" font-family="Helvetica,sans-Serif" font-size="10.00">MoFEM::DeprecatedCoreInterface</text>
</a>
</g>
</g>
<!-- Node48&#45;&gt;Node3 -->
<g id="edge57" class="edge">
<title>Node48&#45;&gt;Node3</title>
<path fill="none" stroke="#9a32cd" stroke-dasharray="5,2" d="M1721.13,-227.43C1740.35,-238.06 1764.75,-254.09 1781,-274 1794.1,-290.05 1783.04,-303.79 1799,-317 1916.59,-414.31 2028.52,-278.65 2135,-388 2165.89,-419.73 2122.35,-454.04 2153,-486 2222.4,-558.37 2274.67,-516.34 2373,-536 2444.65,-550.32 2471.09,-528.58 2535,-564 2581.92,-590 2618.3,-645.95 2631.56,-668.39"/>
<polygon fill="#9a32cd" stroke="#9a32cd" points="1722.64,-224.27 1712.17,-222.66 1719.35,-230.45 1722.64,-224.27"/>
<text text-anchor="middle" x="2063" y="-391" font-family="Helvetica,sans-Serif" font-size="10.00"> mField</text>
</g>
<!-- Node49&#45;&gt;Node48 -->
<g id="edge58" class="edge">
<title>Node49&#45;&gt;Node48</title>
<path fill="none" stroke="midnightblue" d="M1214.14,-7.02C1266.14,-6.97 1337.51,-11.32 1397,-31 1518.8,-71.29 1641.84,-171.84 1678.53,-203.38"/>
<polygon fill="midnightblue" stroke="midnightblue" points="1213.98,-3.52 1204.01,-7.09 1214.03,-10.52 1213.98,-3.52"/>
</g>
<!-- Node50 -->
<g id="node50" class="node">
<title>Node50</title>
<g id="a_node50"><a xlink:title=" ">
<polygon fill="white" stroke="#bfbfbf" points="2170.5,-601 2170.5,-653 2337.5,-653 2337.5,-601 2170.5,-601"/>
<text text-anchor="start" x="2178.5" y="-641" font-family="Helvetica,sans-Serif" font-size="10.00">function&lt; MoFEMErrorCode</text>
<text text-anchor="start" x="2178.5" y="-630" font-family="Helvetica,sans-Serif" font-size="10.00">(ForcesAndSourcesCore *fe</text>
<text text-anchor="start" x="2178.5" y="-619" font-family="Helvetica,sans-Serif" font-size="10.00">_raw_ptr, int order_row,</text>
<text text-anchor="middle" x="2254" y="-608" font-family="Helvetica,sans-Serif" font-size="10.00"> int order_col, int order_data)&gt;</text>
</a>
</g>
</g>
<!-- Node50&#45;&gt;Node3 -->
<g id="edge61" class="edge">
<title>Node50&#45;&gt;Node3</title>
<path fill="none" stroke="#9a32cd" stroke-dasharray="5,2" d="M2347.71,-639.13C2402.25,-646.3 2472.55,-655.59 2535,-664 2545.63,-665.43 2556.88,-666.96 2567.87,-668.46"/>
<polygon fill="#9a32cd" stroke="#9a32cd" points="2348.08,-635.65 2337.71,-637.82 2347.17,-642.59 2348.08,-635.65"/>
<text text-anchor="middle" x="2454" y="-667" font-family="Helvetica,sans-Serif" font-size="10.00"> setRuleHook</text>
</g>
<!-- Node51 -->
<g id="node51" class="node">
<title>Node51</title>
<g id="a_node51"><a xlink:title=" ">
<polygon fill="white" stroke="#bfbfbf" points="2153,-919 2153,-949 2355,-949 2355,-919 2153,-919"/>
<text text-anchor="start" x="2161" y="-937" font-family="Helvetica,sans-Serif" font-size="10.00">ptr_deque&lt; MoFEM::Forces</text>
<text text-anchor="middle" x="2254" y="-926" font-family="Helvetica,sans-Serif" font-size="10.00">AndSourcesCore::UserDataOperator &gt;</text>
</a>
</g>
</g>
<!-- Node51&#45;&gt;Node3 -->
<g id="edge62" class="edge">
<title>Node51&#45;&gt;Node3</title>
<path fill="none" stroke="#9a32cd" stroke-dasharray="5,2" d="M2365.34,-941.34C2421.05,-939.6 2486.84,-928.61 2535,-893 2607.09,-839.7 2630.25,-722.28 2635.64,-687.74"/>
<polygon fill="#9a32cd" stroke="#9a32cd" points="2364.99,-937.85 2355.06,-941.57 2365.14,-944.85 2364.99,-937.85"/>
<text text-anchor="middle" x="2454" y="-943" font-family="Helvetica,sans-Serif" font-size="10.00"> opPtrVector</text>
</g>
<!-- Node52 -->
<g id="node52" class="node">
<title>Node52</title>
<g id="a_node52"><a xlink:href="structMoFEM_1_1EntitiesFieldData.html" target="_top" xlink:title="data structure for finite element entity">
<polygon fill="white" stroke="black" points="2183,-562.5 2183,-581.5 2325,-581.5 2325,-562.5 2183,-562.5"/>
<text text-anchor="middle" x="2254" y="-569.5" font-family="Helvetica,sans-Serif" font-size="10.00">MoFEM::EntitiesFieldData</text>
</a>
</g>
</g>
<!-- Node52&#45;&gt;Node3 -->
<g id="edge63" class="edge">
<title>Node52&#45;&gt;Node3</title>
<path fill="none" stroke="#9a32cd" stroke-dasharray="5,2" d="M2335.27,-569.01C2405.03,-567.53 2500.22,-568.52 2535,-583 2579.23,-601.42 2616.06,-648.18 2630.48,-668.42"/>
<polygon fill="#9a32cd" stroke="#9a32cd" points="2335.08,-565.52 2325.17,-569.25 2335.25,-572.52 2335.08,-565.52"/>
<text text-anchor="middle" x="2454" y="-630" font-family="Helvetica,sans-Serif" font-size="10.00"> dataNoField</text>
<text text-anchor="middle" x="2454" y="-619" font-family="Helvetica,sans-Serif" font-size="10.00">dataL2</text>
<text text-anchor="middle" x="2454" y="-608" font-family="Helvetica,sans-Serif" font-size="10.00">dataH1</text>
<text text-anchor="middle" x="2454" y="-597" font-family="Helvetica,sans-Serif" font-size="10.00">dataHcurl</text>
<text text-anchor="middle" x="2454" y="-586" font-family="Helvetica,sans-Serif" font-size="10.00">dataHdiv</text>
</g>
<!-- Node53 -->
<g id="node53" class="node">
<title>Node53</title>
<g id="a_node53"><a xlink:title=" ">
<polygon fill="white" stroke="#bfbfbf" points="1805,-560 1805,-590 1967,-590 1967,-560 1805,-560"/>
<text text-anchor="start" x="1813" y="-578" font-family="Helvetica,sans-Serif" font-size="10.00">array&lt; std::bitset</text>
<text text-anchor="middle" x="1886" y="-567" font-family="Helvetica,sans-Serif" font-size="10.00">&lt; LASTBASE &gt;, LASTSPACE &gt;</text>
</a>
</g>
</g>
<!-- Node53&#45;&gt;Node52 -->
<g id="edge64" class="edge">
<title>Node53&#45;&gt;Node52</title>
<path fill="none" stroke="#9a32cd" stroke-dasharray="5,2" d="M1977.71,-574.26C2041.07,-573.74 2124.42,-573.05 2182.75,-572.58"/>
<polygon fill="#9a32cd" stroke="#9a32cd" points="1977.29,-570.76 1967.32,-574.34 1977.35,-577.76 1977.29,-570.76"/>
<text text-anchor="middle" x="2063" y="-588" font-family="Helvetica,sans-Serif" font-size="10.00"> brokenBasesOnSpaces</text>
<text text-anchor="middle" x="2063" y="-577" font-family="Helvetica,sans-Serif" font-size="10.00">basesOnSpaces</text>
</g>
<!-- Node54 -->
<g id="node54" class="node">
<title>Node54</title>
<g id="a_node54"><a xlink:title=" ">
<polygon fill="white" stroke="#bfbfbf" points="1809.5,-499.5 1809.5,-540.5 1962.5,-540.5 1962.5,-499.5 1809.5,-499.5"/>
<text text-anchor="start" x="1817.5" y="-528.5" font-family="Helvetica,sans-Serif" font-size="10.00">array&lt; boost::ptr_vector</text>
<text text-anchor="start" x="1817.5" y="-517.5" font-family="Helvetica,sans-Serif" font-size="10.00">&lt; MoFEM::EntitiesFieldData</text>
<text text-anchor="middle" x="1886" y="-506.5" font-family="Helvetica,sans-Serif" font-size="10.00">::EntData &gt;, MBMAXTYPE &gt;</text>
</a>
</g>
</g>
<!-- Node54&#45;&gt;Node52 -->
<g id="edge65" class="edge">
<title>Node54&#45;&gt;Node52</title>
<path fill="none" stroke="#9a32cd" stroke-dasharray="5,2" d="M1973.06,-532.23C2038.07,-541.46 2126.02,-553.96 2185.88,-562.46"/>
<polygon fill="#9a32cd" stroke="#9a32cd" points="1973.23,-528.72 1962.84,-530.77 1972.24,-535.65 1973.23,-528.72"/>
<text text-anchor="middle" x="2063" y="-558" font-family="Helvetica,sans-Serif" font-size="10.00"> dataOnEntities</text>
</g>
<!-- Node55 -->
<g id="node55" class="node">
<title>Node55</title>
<g id="a_node55"><a xlink:title=" ">
<polygon fill="white" stroke="#bfbfbf" points="1799,-450 1799,-480 1973,-480 1973,-450 1799,-450"/>
<text text-anchor="start" x="1807" y="-468" font-family="Helvetica,sans-Serif" font-size="10.00">array&lt; std::bitset</text>
<text text-anchor="middle" x="1886" y="-457" font-family="Helvetica,sans-Serif" font-size="10.00">&lt; LASTSPACE &gt;, MBMAXTYPE &gt;</text>
</a>
</g>
</g>
<!-- Node55&#45;&gt;Node52 -->
<g id="edge66" class="edge">
<title>Node55&#45;&gt;Node52</title>
<path fill="none" stroke="#9a32cd" stroke-dasharray="5,2" d="M1983.09,-473.48C2031.02,-480.82 2088.53,-494.5 2135,-520 2144.92,-525.44 2143.39,-532.02 2153,-538 2170.75,-549.04 2192.52,-556.99 2211.21,-562.42"/>
<polygon fill="#9a32cd" stroke="#9a32cd" points="1983.41,-469.99 1973.01,-472.01 1982.4,-476.92 1983.41,-469.99"/>
<text text-anchor="middle" x="2063" y="-523" font-family="Helvetica,sans-Serif" font-size="10.00"> spacesOnEntities</text>
</g>
<!-- Node56 -->
<g id="node56" class="node">
<title>Node56</title>
<g id="a_node56"><a xlink:title=" ">
<polygon fill="white" stroke="#bfbfbf" points="1801.5,-686 1801.5,-716 1970.5,-716 1970.5,-686 1801.5,-686"/>
<text text-anchor="start" x="1809.5" y="-704" font-family="Helvetica,sans-Serif" font-size="10.00">array&lt; std::bitset</text>
<text text-anchor="middle" x="1886" y="-693" font-family="Helvetica,sans-Serif" font-size="10.00">&lt; LASTBASE &gt;, MBMAXTYPE &gt;</text>
</a>
</g>
</g>
<!-- Node56&#45;&gt;Node52 -->
<g id="edge67" class="edge">
<title>Node56&#45;&gt;Node52</title>
<path fill="none" stroke="#9a32cd" stroke-dasharray="5,2" d="M1972.97,-717.03C2025.95,-721.74 2091.79,-717.49 2135,-679 2164.49,-652.74 2124.99,-619.83 2153,-592 2161.23,-583.83 2171.79,-578.53 2182.96,-575.16"/>
<polygon fill="#9a32cd" stroke="#9a32cd" points="1973.2,-713.54 1962.9,-716.02 1972.49,-720.5 1973.2,-713.54"/>
<text text-anchor="middle" x="2063" y="-721" font-family="Helvetica,sans-Serif" font-size="10.00"> basesOnEntities</text>
</g>
<!-- Node57 -->
<g id="node57" class="node">
<title>Node57</title>
<g id="a_node57"><a xlink:title=" ">
<polygon fill="white" stroke="#bfbfbf" points="1830,-647.5 1830,-666.5 1942,-666.5 1942,-647.5 1830,-647.5"/>
<text text-anchor="middle" x="1886" y="-654.5" font-family="Helvetica,sans-Serif" font-size="10.00">UBlasMatrix&lt; int &gt;</text>
</a>
</g>
</g>
<!-- Node57&#45;&gt;Node52 -->
<g id="edge68" class="edge">
<title>Node57&#45;&gt;Node52</title>
<path fill="none" stroke="#9a32cd" stroke-dasharray="5,2" d="M1952.55,-656.26C2015.94,-654.33 2106.47,-648.02 2135,-628 2149.64,-617.73 2138.78,-602.86 2153,-592 2161.72,-585.34 2172.09,-580.73 2182.78,-577.57"/>
<polygon fill="#9a32cd" stroke="#9a32cd" points="1952.13,-652.77 1942.23,-656.54 1952.32,-659.76 1952.13,-652.77"/>
<text text-anchor="middle" x="2063" y="-668" font-family="Helvetica,sans-Serif" font-size="10.00"> facesNodesOrder</text>
<text text-anchor="middle" x="2063" y="-657" font-family="Helvetica,sans-Serif" font-size="10.00">facesNodes</text>
</g>
<!-- Node58 -->
<g id="node58" class="node">
<title>Node58</title>
<g id="a_node58"><a xlink:title=" ">
<polygon fill="white" stroke="#bfbfbf" points="1827.5,-609.5 1827.5,-628.5 1944.5,-628.5 1944.5,-609.5 1827.5,-609.5"/>
<text text-anchor="middle" x="1886" y="-616.5" font-family="Helvetica,sans-Serif" font-size="10.00">bitset&lt; LASTBASE &gt;</text>
</a>
</g>
</g>
<!-- Node58&#45;&gt;Node52 -->
<g id="edge69" class="edge">
<title>Node58&#45;&gt;Node52</title>
<path fill="none" stroke="#9a32cd" stroke-dasharray="5,2" d="M1954.6,-616.34C2004.71,-613.56 2074.52,-607.99 2135,-597 2143.17,-595.52 2144.92,-593.93 2153,-592 2168.76,-588.24 2186.03,-584.61 2201.71,-581.51"/>
<polygon fill="#9a32cd" stroke="#9a32cd" points="1954.33,-612.85 1944.53,-616.87 1954.7,-619.84 1954.33,-612.85"/>
<text text-anchor="middle" x="2063" y="-616" font-family="Helvetica,sans-Serif" font-size="10.00"> bAse</text>
</g>
<!-- Node59 -->
<g id="node59" class="node">
<title>Node59</title>
<g id="a_node59"><a xlink:title=" ">
<polygon fill="white" stroke="#bfbfbf" points="2191.5,-820.5 2191.5,-861.5 2316.5,-861.5 2316.5,-820.5 2191.5,-820.5"/>
<text text-anchor="start" x="2199.5" y="-849.5" font-family="Helvetica,sans-Serif" font-size="10.00">function&lt; int(int order</text>
<text text-anchor="start" x="2199.5" y="-838.5" font-family="Helvetica,sans-Serif" font-size="10.00">_row, int order_col, int</text>
<text text-anchor="middle" x="2254" y="-827.5" font-family="Helvetica,sans-Serif" font-size="10.00"> order_data)&gt;</text>
</a>
</g>
</g>
<!-- Node59&#45;&gt;Node3 -->
<g id="edge70" class="edge">
<title>Node59&#45;&gt;Node3</title>
<path fill="none" stroke="#9a32cd" stroke-dasharray="5,2" d="M2326.72,-845.35C2386.16,-845.79 2470.97,-838.87 2535,-803 2585.09,-774.94 2620.37,-711.66 2632.43,-687.57"/>
<polygon fill="#9a32cd" stroke="#9a32cd" points="2326.72,-841.85 2316.67,-845.21 2326.62,-848.85 2326.72,-841.85"/>
<text text-anchor="middle" x="2454" y="-847" font-family="Helvetica,sans-Serif" font-size="10.00"> getRuleHook</text>
</g>
<!-- Node60 -->
<g id="node60" class="node">
<title>Node60</title>
<g id="a_node60"><a xlink:title=" ">
<polygon fill="white" stroke="#bfbfbf" points="2193,-771 2193,-801 2315,-801 2315,-771 2193,-771"/>
<text text-anchor="start" x="2201" y="-789" font-family="Helvetica,sans-Serif" font-size="10.00">shared_ptr&lt; MoFEM::</text>
<text text-anchor="middle" x="2254" y="-778" font-family="Helvetica,sans-Serif" font-size="10.00">BaseFunction &gt;</text>
</a>
</g>
</g>
<!-- Node60&#45;&gt;Node3 -->
<g id="edge71" class="edge">
<title>Node60&#45;&gt;Node3</title>
<path fill="none" stroke="#9a32cd" stroke-dasharray="5,2" d="M2325.36,-782.8C2383.22,-778.33 2466.53,-767.63 2535,-742 2570.63,-728.66 2607.16,-701.94 2625.29,-687.61"/>
<polygon fill="#9a32cd" stroke="#9a32cd" points="2324.94,-779.32 2315.22,-783.54 2325.45,-786.3 2324.94,-779.32"/>
<text text-anchor="middle" x="2454" y="-791" font-family="Helvetica,sans-Serif" font-size="10.00"> userPolynomialBasePtr</text>
<text text-anchor="middle" x="2454" y="-780" font-family="Helvetica,sans-Serif" font-size="10.00">elementPolynomialBasePtr</text>
</g>
<!-- Node61 -->
<g id="node61" class="node">
<title>Node61</title>
<g id="a_node61"><a xlink:href="classUBlasMatrix_3_01double_01_4.html" target="_top" xlink:title=" ">
<polygon fill="white" stroke="black" points="2188,-457.5 2188,-476.5 2320,-476.5 2320,-457.5 2188,-457.5"/>
<text text-anchor="middle" x="2254" y="-464.5" font-family="Helvetica,sans-Serif" font-size="10.00">UBlasMatrix&lt; double &gt;</text>
</a>
</g>
</g>
<!-- Node61&#45;&gt;Node2 -->
<g id="edge82" class="edge">
<title>Node61&#45;&gt;Node2</title>
<path fill="none" stroke="#9a32cd" stroke-dasharray="5,2" d="M2330.39,-461.86C2344.54,-461.08 2359.22,-460.41 2373,-460 2564.75,-454.32 2795.8,-462.6 2873.79,-465.82"/>
<polygon fill="#9a32cd" stroke="#9a32cd" points="2329.98,-458.38 2320.2,-462.44 2330.38,-465.37 2329.98,-458.38"/>
<text text-anchor="middle" x="2638" y="-475" font-family="Helvetica,sans-Serif" font-size="10.00"> tangentAtGaussPts</text>
<text text-anchor="middle" x="2638" y="-464" font-family="Helvetica,sans-Serif" font-size="10.00">normalsAtGaussPts</text>
</g>
<!-- Node61&#45;&gt;Node3 -->
<g id="edge72" class="edge">
<title>Node61&#45;&gt;Node3</title>
<path fill="none" stroke="#9a32cd" stroke-dasharray="5,2" d="M2308.53,-478.59C2328.69,-482.77 2351.85,-487.35 2373,-491 2444.66,-503.36 2474.08,-474.29 2535,-514 2594.27,-552.64 2625.13,-638.99 2634.15,-668.16"/>
<polygon fill="#9a32cd" stroke="#9a32cd" points="2309.1,-475.13 2298.59,-476.51 2307.66,-481.98 2309.1,-475.13"/>
<text text-anchor="middle" x="2454" y="-528" font-family="Helvetica,sans-Serif" font-size="10.00"> coordsAtGaussPts</text>
<text text-anchor="middle" x="2454" y="-517" font-family="Helvetica,sans-Serif" font-size="10.00">gaussPts</text>
</g>
<!-- Node62 -->
<g id="node62" class="node">
<title>Node62</title>
<g id="a_node62"><a xlink:href="classUBlasVector_3_01double_01_4.html" target="_top" xlink:title=" ">
<polygon fill="white" stroke="black" points="2572.5,-326.5 2572.5,-345.5 2703.5,-345.5 2703.5,-326.5 2572.5,-326.5"/>
<text text-anchor="middle" x="2638" y="-333.5" font-family="Helvetica,sans-Serif" font-size="10.00">UBlasVector&lt; double &gt;</text>
</a>
</g>
</g>
<!-- Node62&#45;&gt;Node2 -->
<g id="edge73" class="edge">
<title>Node62&#45;&gt;Node2</title>
<path fill="none" stroke="#9a32cd" stroke-dasharray="5,2" d="M2683.11,-324.38C2724.89,-316.25 2786.76,-312.13 2825,-346 2859.46,-376.52 2812.84,-413.22 2843,-448 2850.78,-456.97 2862.85,-461.72 2873.97,-464.24"/>
<polygon fill="#9a32cd" stroke="#9a32cd" points="2682.28,-320.97 2673.21,-326.45 2683.71,-327.82 2682.28,-320.97"/>
<text text-anchor="middle" x="2783" y="-360" font-family="Helvetica,sans-Serif" font-size="10.00"> dIrection</text>
<text text-anchor="middle" x="2783" y="-349" font-family="Helvetica,sans-Serif" font-size="10.00">cOords</text>
</g>
<!-- Node63&#45;&gt;Node2 -->
<g id="edge78" class="edge">
<title>Node63&#45;&gt;Node2</title>
<path fill="none" stroke="#9a32cd" stroke-dasharray="5,2" d="M2678.65,-285.93C2720.54,-275.87 2785.85,-268.3 2825,-304 2872.66,-347.46 2801.98,-398.23 2843,-448 2850.55,-457.16 2862.59,-461.94 2873.76,-464.42"/>
<polygon fill="#9a32cd" stroke="#9a32cd" points="2677.61,-282.58 2668.79,-288.45 2679.34,-289.37 2677.61,-282.58"/>
<text text-anchor="middle" x="2783" y="-307" font-family="Helvetica,sans-Serif" font-size="10.00"> tFaceOrientation</text>
</g>
<!-- Node64 -->
<g id="node64" class="node">
<title>Node64</title>
<g id="a_node64"><a xlink:href="classFTensor_1_1Tensor1.html" target="_top" xlink:title=" ">
<polygon fill="white" stroke="black" points="2195.5,-283 2195.5,-313 2312.5,-313 2312.5,-283 2195.5,-283"/>
<text text-anchor="start" x="2203.5" y="-301" font-family="Helvetica,sans-Serif" font-size="10.00">FTensor::Tensor1&lt; T,</text>
<text text-anchor="middle" x="2254" y="-290" font-family="Helvetica,sans-Serif" font-size="10.00"> Tensor_Dim &gt;</text>
</a>
</g>
</g>
<!-- Node64&#45;&gt;Node63 -->
<g id="edge80" class="edge">
<title>Node64&#45;&gt;Node63</title>
<path fill="none" stroke="orange" stroke-dasharray="5,2" d="M2322.77,-298C2387.95,-298 2486.56,-298 2555.89,-298"/>
<polygon fill="orange" stroke="orange" points="2322.6,-294.5 2312.6,-298 2322.6,-301.5 2322.6,-294.5"/>
<text text-anchor="middle" x="2454" y="-301" font-family="Helvetica,sans-Serif" font-size="10.00"> &lt; double, 3 &gt;</text>
</g>
<!-- Node65 -->
<g id="node65" class="node">
<title>Node65</title>
<g id="a_node65"><a xlink:title=" ">
<polygon fill="white" stroke="#bfbfbf" points="1871.5,-288.5 1871.5,-307.5 1900.5,-307.5 1900.5,-288.5 1871.5,-288.5"/>
<text text-anchor="middle" x="1886" y="-295.5" font-family="Helvetica,sans-Serif" font-size="10.00">T</text>
</a>
</g>
</g>
<!-- Node65&#45;&gt;Node64 -->
<g id="edge81" class="edge">
<title>Node65&#45;&gt;Node64</title>
<path fill="none" stroke="#9a32cd" stroke-dasharray="5,2" d="M1911.14,-298C1968.44,-298 2113.95,-298 2195.45,-298"/>
<polygon fill="#9a32cd" stroke="#9a32cd" points="1910.9,-294.5 1900.9,-298 1910.9,-301.5 1910.9,-294.5"/>
<text text-anchor="middle" x="2063" y="-301" font-family="Helvetica,sans-Serif" font-size="10.00"> data</text>
</g>
<!-- Node66 -->
<g id="node66" class="node">
<title>Node66</title>
<g id="a_node66"><a xlink:title=" ">
<polygon fill="white" stroke="#bfbfbf" points="2843,-419.5 2843,-438.5 2961,-438.5 2961,-419.5 2843,-419.5"/>
<text text-anchor="middle" x="2902" y="-426.5" font-family="Helvetica,sans-Serif" font-size="10.00">array&lt; Range, 3 &gt; &amp;</text>
</a>
</g>
</g>
<!-- Node66&#45;&gt;Node1 -->
<g id="edge83" class="edge">
<title>Node66&#45;&gt;Node1</title>
<path fill="none" stroke="#9a32cd" stroke-dasharray="5,2" d="M2970.89,-438.23C2992.79,-441.81 3017.07,-446.4 3039,-452 3044.88,-453.5 3051.11,-455.43 3056.95,-457.41"/>
<polygon fill="#9a32cd" stroke="#9a32cd" points="2971.44,-434.77 2961.01,-436.66 2970.34,-441.69 2971.44,-434.77"/>
<text text-anchor="middle" x="3009" y="-455" font-family="Helvetica,sans-Serif" font-size="10.00"> edgeBlocks</text>
</g>
</g>
</svg>
        <g id="navigator" transform="translate(0 0)" fill="#404254">
                <rect fill="#f2f5e9" fill-opacity="0.5" stroke="#606060" stroke-width=".5" x="0" y="0" width="60" height="60"/>
                <use id="zoomplus" xlink:href="#zoomPlus" x="17" y="9" onmousedown="handleZoom(evt,'in')"/>
                <use id="zoomminus" xlink:href="#zoomMin" x="42" y="9" onmousedown="handleZoom(evt,'out')"/>
                <use id="reset" xlink:href="#resetDef" x="30" y="36" onmousedown="handleReset()"/>
                <g id="arrowUp" xlink:href="#dirArrow" transform="translate(30 24)" onmousedown="handlePan(0,-1)">
                  <use xlink:href="#rim" fill="#404040">
                        <set attributeName="fill" to="#808080" begin="arrowUp.mouseover" end="arrowUp.mouseout"/>
                  </use>
                  <path fill="none" stroke="white" stroke-width="1.5" d="M0,-3.0v7 M-2.5,-0.5L0,-3.0L2.5,-0.5"/>
                </g>
                <g id="arrowRight" xlink:href="#dirArrow" transform="rotate(90) translate(36 -43)" onmousedown="handlePan(1,0)">
                  <use xlink:href="#rim" fill="#404040">
                        <set attributeName="fill" to="#808080" begin="arrowRight.mouseover" end="arrowRight.mouseout"/>
                  </use>
                  <path fill="none" stroke="white" stroke-width="1.5" d="M0,-3.0v7 M-2.5,-0.5L0,-3.0L2.5,-0.5"/>
                </g>
                <g id="arrowDown" xlink:href="#dirArrow" transform="rotate(180) translate(-30 -48)" onmousedown="handlePan(0,1)">
                  <use xlink:href="#rim" fill="#404040">
                        <set attributeName="fill" to="#808080" begin="arrowDown.mouseover" end="arrowDown.mouseout"/>
                  </use>
                  <path fill="none" stroke="white" stroke-width="1.5" d="M0,-3.0v7 M-2.5,-0.5L0,-3.0L2.5,-0.5"/>
                </g>
                <g id="arrowLeft" xlink:href="#dirArrow" transform="rotate(270) translate(-36 17)" onmousedown="handlePan(-1,0)">
                  <use xlink:href="#rim" fill="#404040">
                        <set attributeName="fill" to="#808080" begin="arrowLeft.mouseover" end="arrowLeft.mouseout"/>
                  </use>
                  <path fill="none" stroke="white" stroke-width="1.5" d="M0,-3.0v7 M-2.5,-0.5L0,-3.0L2.5,-0.5"/>
                </g>
        </g>
        <svg viewBox="0 0 15 15" width="100%" height="30px" preserveAspectRatio="xMaxYMin meet">
         <g id="arrow_out" transform="scale(0.3 0.3)">
          <a xlink:href="structEdgeFE__coll__graph_org.svg" target="_base">
           <rect id="button" ry="5" rx="5" y="6" x="6" height="38" width="38"
                fill="#f2f5e9" fill-opacity="0.5" stroke="#606060" stroke-width="1.0"/>
           <path id="arrow"
             d="M 11.500037,31.436501 C 11.940474,20.09759 22.043105,11.32322 32.158766,21.979434 L 37.068811,17.246167 C 37.068811,17.246167 37.088388,32 37.088388,32 L 22.160133,31.978069 C 22.160133,31.978069 26.997745,27.140456 26.997745,27.140456 C 18.528582,18.264221 13.291696,25.230495 11.500037,31.436501 z"
             style="fill:#404040;"/>
          </a>
         </g>
        </svg>
</svg>
