<?xml version="1.0" encoding="UTF-8" standalone="no"?>
<!DOCTYPE svg PUBLIC "-//W3C//DTD SVG 1.1//EN"
 "http://www.w3.org/Graphics/SVG/1.1/DTD/svg11.dtd">
<!-- Generated by graphviz version 2.43.0 (0)
 -->
<!-- Title: OpAleLhsWithDensity_dx_dX Pages: 1 -->
<svg width="3764pt" height="1415pt"
 viewBox="0.00 0.00 3764.00 1415.09" xmlns="http://www.w3.org/2000/svg" xmlns:xlink="http://www.w3.org/1999/xlink">
<g id="graph0" class="graph" transform="scale(1 1) rotate(0) translate(4 1411.09)">
<title>OpAleLhsWithDensity_dx_dX</title>
<polygon fill="white" stroke="transparent" points="-4,4 -4,-1411.09 3760,-1411.09 3760,4 -4,4"/>
<!-- Node1 -->
<g id="node1" class="node">
<title>Node1</title>
<g id="a_node1"><a xlink:title=" ">
<polygon fill="#bfbfbf" stroke="black" points="3634,-1105 3634,-1135 3756,-1135 3756,-1105 3634,-1105"/>
<text text-anchor="start" x="3642" y="-1123" font-family="Helvetica,sans-Serif" font-size="10.00">OpAleLhsWithDensity</text>
<text text-anchor="middle" x="3695" y="-1112" font-family="Helvetica,sans-Serif" font-size="10.00">_dx_dX</text>
</a>
</g>
</g>
<!-- Node2 -->
<g id="node2" class="node">
<title>Node2</title>
<g id="a_node2"><a xlink:href="structOpAssemble.html" target="_top" xlink:title=" ">
<polygon fill="white" stroke="black" points="3368.5,-1129.5 3368.5,-1148.5 3446.5,-1148.5 3446.5,-1129.5 3368.5,-1129.5"/>
<text text-anchor="middle" x="3407.5" y="-1136.5" font-family="Helvetica,sans-Serif" font-size="10.00">OpAssemble</text>
</a>
</g>
</g>
<!-- Node2&#45;&gt;Node1 -->
<g id="edge1" class="edge">
<title>Node2&#45;&gt;Node1</title>
<path fill="none" stroke="midnightblue" d="M3456.7,-1135.79C3505.52,-1132.54 3581.15,-1127.51 3633.87,-1124"/>
<polygon fill="midnightblue" stroke="midnightblue" points="3456.45,-1132.3 3446.71,-1136.46 3456.92,-1139.29 3456.45,-1132.3"/>
</g>
<!-- Node3 -->
<g id="node3" class="node">
<title>Node3</title>
<g id="a_node3"><a xlink:href="structMoFEM_1_1VolumeElementForcesAndSourcesCore_1_1UserDataOperator.html" target="_top" xlink:title=" ">
<polygon fill="white" stroke="black" points="3093.5,-1180.5 3093.5,-1199.5 3213.5,-1199.5 3213.5,-1180.5 3093.5,-1180.5"/>
<text text-anchor="middle" x="3153.5" y="-1187.5" font-family="Helvetica,sans-Serif" font-size="10.00">VolUserDataOperator</text>
</a>
</g>
</g>
<!-- Node3&#45;&gt;Node2 -->
<g id="edge2" class="edge">
<title>Node3&#45;&gt;Node2</title>
<path fill="none" stroke="midnightblue" d="M3211.52,-1178.46C3259.44,-1168.76 3326.59,-1155.17 3368.27,-1146.74"/>
<polygon fill="midnightblue" stroke="midnightblue" points="3210.71,-1175.05 3201.6,-1180.47 3212.1,-1181.91 3210.71,-1175.05"/>
</g>
<!-- Node4 -->
<g id="node4" class="node">
<title>Node4</title>
<g id="a_node4"><a xlink:href="structMoFEM_1_1ForcesAndSourcesCore_1_1UserDataOperator.html" target="_top" xlink:title=" ">
<polygon fill="white" stroke="black" points="2837,-1011 2837,-1041 3007,-1041 3007,-1011 2837,-1011"/>
<text text-anchor="start" x="2845" y="-1029" font-family="Helvetica,sans-Serif" font-size="10.00">MoFEM::ForcesAndSourcesCore</text>
<text text-anchor="middle" x="2922" y="-1018" font-family="Helvetica,sans-Serif" font-size="10.00">::UserDataOperator</text>
</a>
</g>
</g>
<!-- Node4&#45;&gt;Node3 -->
<g id="edge3" class="edge">
<title>Node4&#45;&gt;Node3</title>
<path fill="none" stroke="midnightblue" d="M2941.16,-1049.19C2966.68,-1080.24 3016.11,-1135 3070,-1166 3080.73,-1172.17 3093.18,-1176.87 3105.1,-1180.39"/>
<polygon fill="midnightblue" stroke="midnightblue" points="2943.63,-1046.67 2934.61,-1041.1 2938.19,-1051.08 2943.63,-1046.67"/>
</g>
<!-- Node5 -->
<g id="node5" class="node">
<title>Node5</title>
<g id="a_node5"><a xlink:href="structMoFEM_1_1DataOperator.html" target="_top" xlink:title="base operator to do operations at Gauss Pt. level">
<polygon fill="white" stroke="black" points="2579.5,-1058.5 2579.5,-1077.5 2704.5,-1077.5 2704.5,-1058.5 2579.5,-1058.5"/>
<text text-anchor="middle" x="2642" y="-1065.5" font-family="Helvetica,sans-Serif" font-size="10.00">MoFEM::DataOperator</text>
</a>
</g>
</g>
<!-- Node5&#45;&gt;Node4 -->
<g id="edge4" class="edge">
<title>Node5&#45;&gt;Node4</title>
<path fill="none" stroke="midnightblue" d="M2714.97,-1057.13C2752.22,-1051.5 2797.92,-1044.59 2836.81,-1038.72"/>
<polygon fill="midnightblue" stroke="midnightblue" points="2714.06,-1053.72 2704.7,-1058.68 2715.11,-1060.65 2714.06,-1053.72"/>
</g>
<!-- Node6 -->
<g id="node6" class="node">
<title>Node6</title>
<g id="a_node6"><a xlink:title=" ">
<polygon fill="white" stroke="#bfbfbf" points="2160,-1134 2160,-1186 2352,-1186 2352,-1134 2160,-1134"/>
<text text-anchor="start" x="2168" y="-1174" font-family="Helvetica,sans-Serif" font-size="10.00">function&lt; MoFEMErrorCode</text>
<text text-anchor="start" x="2168" y="-1163" font-family="Helvetica,sans-Serif" font-size="10.00">(DataOperator *op_ptr,</text>
<text text-anchor="start" x="2168" y="-1152" font-family="Helvetica,sans-Serif" font-size="10.00"> int side, EntityType type,</text>
<text text-anchor="middle" x="2256" y="-1141" font-family="Helvetica,sans-Serif" font-size="10.00"> EntitiesFieldData::EntData &amp;data)&gt;</text>
</a>
</g>
</g>
<!-- Node6&#45;&gt;Node5 -->
<g id="edge5" class="edge">
<title>Node6&#45;&gt;Node5</title>
<path fill="none" stroke="#9a32cd" stroke-dasharray="5,2" d="M2351.09,-1129.02C2353.8,-1127.42 2356.45,-1125.75 2359,-1124 2369.14,-1117.05 2366.19,-1108.86 2377,-1103 2381.44,-1100.59 2502.83,-1085.16 2579.44,-1075.61"/>
<polygon fill="#9a32cd" stroke="#9a32cd" points="2349.29,-1126.01 2342.2,-1133.88 2352.65,-1132.15 2349.29,-1126.01"/>
<text text-anchor="middle" x="2458" y="-1106" font-family="Helvetica,sans-Serif" font-size="10.00"> doWorkRhsHook</text>
</g>
<!-- Node7 -->
<g id="node7" class="node">
<title>Node7</title>
<g id="a_node7"><a xlink:href="classbool.html" target="_top" xlink:title=" ">
<polygon fill="white" stroke="black" points="2237,-1212.5 2237,-1231.5 2275,-1231.5 2275,-1212.5 2237,-1212.5"/>
<text text-anchor="middle" x="2256" y="-1219.5" font-family="Helvetica,sans-Serif" font-size="10.00">bool</text>
</a>
</g>
</g>
<!-- Node7&#45;&gt;Node2 -->
<g id="edge87" class="edge">
<title>Node7&#45;&gt;Node2</title>
<path fill="none" stroke="#9a32cd" stroke-dasharray="5,2" d="M2285.46,-1222.75C2349.14,-1224.36 2508.01,-1228 2641,-1228 2641,-1228 2641,-1228 3154.5,-1228 3249.15,-1228 3352.98,-1171.48 3391.25,-1148.52"/>
<polygon fill="#9a32cd" stroke="#9a32cd" points="2285.47,-1219.25 2275.38,-1222.49 2285.29,-1226.25 2285.47,-1219.25"/>
<text text-anchor="middle" x="2922" y="-1231" font-family="Helvetica,sans-Serif" font-size="10.00"> isDiag</text>
</g>
<!-- Node7&#45;&gt;Node5 -->
<g id="edge6" class="edge">
<title>Node7&#45;&gt;Node5</title>
<path fill="none" stroke="#9a32cd" stroke-dasharray="5,2" d="M2285.08,-1222.03C2307.84,-1220.55 2339.26,-1214.84 2359,-1196 2378.83,-1177.07 2356.17,-1154.83 2377,-1137 2432.25,-1089.72 2469.16,-1134.26 2539,-1114 2570.16,-1104.96 2604.07,-1088.14 2623.88,-1077.54"/>
<polygon fill="#9a32cd" stroke="#9a32cd" points="2284.85,-1218.54 2275,-1222.46 2285.14,-1225.53 2284.85,-1218.54"/>
<text text-anchor="middle" x="2458" y="-1206" font-family="Helvetica,sans-Serif" font-size="10.00"> doTris</text>
<text text-anchor="middle" x="2458" y="-1195" font-family="Helvetica,sans-Serif" font-size="10.00">doQuads</text>
<text text-anchor="middle" x="2458" y="-1184" font-family="Helvetica,sans-Serif" font-size="10.00">sYmm</text>
<text text-anchor="middle" x="2458" y="-1173" font-family="Helvetica,sans-Serif" font-size="10.00">doPrisms</text>
<text text-anchor="middle" x="2458" y="-1162" font-family="Helvetica,sans-Serif" font-size="10.00">doTets</text>
<text text-anchor="middle" x="2458" y="-1151" font-family="Helvetica,sans-Serif" font-size="10.00">doVertices</text>
<text text-anchor="middle" x="2458" y="-1140" font-family="Helvetica,sans-Serif" font-size="10.00">doEdges</text>
</g>
<!-- Node8 -->
<g id="node8" class="node">
<title>Node8</title>
<g id="a_node8"><a xlink:title=" ">
<polygon fill="white" stroke="#bfbfbf" points="2153,-991.5 2153,-1076.5 2359,-1076.5 2359,-991.5 2153,-991.5"/>
<text text-anchor="start" x="2161" y="-1064.5" font-family="Helvetica,sans-Serif" font-size="10.00">function&lt; MoFEMErrorCode</text>
<text text-anchor="start" x="2161" y="-1053.5" font-family="Helvetica,sans-Serif" font-size="10.00">(DataOperator *op_ptr,</text>
<text text-anchor="start" x="2161" y="-1042.5" font-family="Helvetica,sans-Serif" font-size="10.00"> int row_side, int col_side,</text>
<text text-anchor="start" x="2161" y="-1031.5" font-family="Helvetica,sans-Serif" font-size="10.00"> EntityType row_type, EntityType</text>
<text text-anchor="start" x="2161" y="-1020.5" font-family="Helvetica,sans-Serif" font-size="10.00"> col_type, EntitiesFieldData::EntData</text>
<text text-anchor="start" x="2161" y="-1009.5" font-family="Helvetica,sans-Serif" font-size="10.00"> &amp;row_data, EntitiesFieldData::EntData</text>
<text text-anchor="middle" x="2256" y="-998.5" font-family="Helvetica,sans-Serif" font-size="10.00"> &amp;col_data)&gt;</text>
</a>
</g>
</g>
<!-- Node8&#45;&gt;Node5 -->
<g id="edge7" class="edge">
<title>Node8&#45;&gt;Node5</title>
<path fill="none" stroke="#9a32cd" stroke-dasharray="5,2" d="M2369.08,-1021.67C2421.48,-1019.12 2484.26,-1020.71 2539,-1035 2547.85,-1037.31 2548.53,-1041.54 2557,-1045 2570.16,-1050.37 2584.98,-1054.89 2598.47,-1058.47"/>
<polygon fill="#9a32cd" stroke="#9a32cd" points="2368.87,-1018.18 2359.08,-1022.21 2369.25,-1025.17 2368.87,-1018.18"/>
<text text-anchor="middle" x="2458" y="-1038" font-family="Helvetica,sans-Serif" font-size="10.00"> doWorkLhsHook</text>
</g>
<!-- Node9 -->
<g id="node9" class="node">
<title>Node9</title>
<g id="a_node9"><a xlink:title=" ">
<polygon fill="white" stroke="#bfbfbf" points="2179,-1095.5 2179,-1114.5 2333,-1114.5 2333,-1095.5 2179,-1095.5"/>
<text text-anchor="middle" x="2256" y="-1102.5" font-family="Helvetica,sans-Serif" font-size="10.00">array&lt; bool, MBMAXTYPE &gt;</text>
</a>
</g>
</g>
<!-- Node9&#45;&gt;Node5 -->
<g id="edge8" class="edge">
<title>Node9&#45;&gt;Node5</title>
<path fill="none" stroke="#9a32cd" stroke-dasharray="5,2" d="M2342.8,-1092.82C2348.4,-1090.87 2353.86,-1088.62 2359,-1086 2368.81,-1081.01 2366.78,-1073.08 2377,-1069 2449.35,-1040.08 2542.03,-1049.13 2596.13,-1058.47"/>
<polygon fill="#9a32cd" stroke="#9a32cd" points="2341.74,-1089.49 2333.25,-1095.82 2343.84,-1096.17 2341.74,-1089.49"/>
<text text-anchor="middle" x="2458" y="-1072" font-family="Helvetica,sans-Serif" font-size="10.00"> doEntities</text>
</g>
<!-- Node10 -->
<g id="node10" class="node">
<title>Node10</title>
<g id="a_node10"><a xlink:title=" ">
<polygon fill="white" stroke="#bfbfbf" points="2607.5,-1016.5 2607.5,-1035.5 2676.5,-1035.5 2676.5,-1016.5 2607.5,-1016.5"/>
<text text-anchor="middle" x="2642" y="-1023.5" font-family="Helvetica,sans-Serif" font-size="10.00">FieldSpace</text>
</a>
</g>
</g>
<!-- Node10&#45;&gt;Node4 -->
<g id="edge9" class="edge">
<title>Node10&#45;&gt;Node4</title>
<path fill="none" stroke="#9a32cd" stroke-dasharray="5,2" d="M2686.79,-1026C2726.94,-1026 2787.51,-1026 2836.99,-1026"/>
<polygon fill="#9a32cd" stroke="#9a32cd" points="2686.53,-1022.5 2676.53,-1026 2686.53,-1029.5 2686.53,-1022.5"/>
<text text-anchor="middle" x="2782" y="-1029" font-family="Helvetica,sans-Serif" font-size="10.00"> sPace</text>
</g>
<!-- Node11 -->
<g id="node11" class="node">
<title>Node11</title>
<g id="a_node11"><a xlink:title=" ">
<polygon fill="white" stroke="#bfbfbf" points="1122.5,-1263.5 1122.5,-1282.5 1160.5,-1282.5 1160.5,-1263.5 1122.5,-1263.5"/>
<text text-anchor="middle" x="1141.5" y="-1270.5" font-family="Helvetica,sans-Serif" font-size="10.00">char</text>
</a>
</g>
</g>
<!-- Node11&#45;&gt;Node4 -->
<g id="edge10" class="edge">
<title>Node11&#45;&gt;Node4</title>
<path fill="none" stroke="#9a32cd" stroke-dasharray="5,2" d="M1170.82,-1272.06C1230.97,-1270.15 1375.92,-1266 1497.5,-1266 1497.5,-1266 1497.5,-1266 2459,-1266 2655.14,-1266 2850.72,-1093.55 2905.76,-1041.01"/>
<polygon fill="#9a32cd" stroke="#9a32cd" points="1170.48,-1268.57 1160.6,-1272.39 1170.71,-1275.57 1170.48,-1268.57"/>
<text text-anchor="middle" x="2063" y="-1269" font-family="Helvetica,sans-Serif" font-size="10.00"> opType</text>
</g>
<!-- Node39 -->
<g id="node39" class="node">
<title>Node39</title>
<g id="a_node39"><a xlink:href="structMoFEM_1_1Problem.html" target="_top" xlink:title="keeps basic data about problem">
<polygon fill="white" stroke="black" points="1449,-1049.5 1449,-1068.5 1548,-1068.5 1548,-1049.5 1449,-1049.5"/>
<text text-anchor="middle" x="1498.5" y="-1056.5" font-family="Helvetica,sans-Serif" font-size="10.00">MoFEM::Problem</text>
</a>
</g>
</g>
<!-- Node11&#45;&gt;Node39 -->
<g id="edge54" class="edge">
<title>Node11&#45;&gt;Node39</title>
<path fill="none" stroke="#9a32cd" stroke-dasharray="5,2" d="M1170.67,-1270.99C1191.36,-1268.73 1219.8,-1263.98 1243,-1254 1252.07,-1250.1 1251.9,-1244.81 1261,-1241 1317.55,-1217.32 1345.97,-1251.97 1397,-1218 1454.09,-1180 1485.14,-1097.35 1494.46,-1068.88"/>
<polygon fill="#9a32cd" stroke="#9a32cd" points="1170.24,-1267.51 1160.62,-1271.96 1170.91,-1274.48 1170.24,-1267.51"/>
<text text-anchor="middle" x="1329" y="-1244" font-family="Helvetica,sans-Serif" font-size="10.00"> tagName</text>
</g>
<!-- Node12 -->
<g id="node12" class="node">
<title>Node12</title>
<g id="a_node12"><a xlink:href="structMoFEM_1_1ForcesAndSourcesCore.html" target="_top" xlink:title="structure to get information form mofem into EntitiesFieldData">
<polygon fill="white" stroke="black" points="2557,-604.5 2557,-623.5 2727,-623.5 2727,-604.5 2557,-604.5"/>
<text text-anchor="middle" x="2642" y="-611.5" font-family="Helvetica,sans-Serif" font-size="10.00">MoFEM::ForcesAndSourcesCore</text>
</a>
</g>
</g>
<!-- Node12&#45;&gt;Node4 -->
<g id="edge11" class="edge">
<title>Node12&#45;&gt;Node4</title>
<path fill="none" stroke="#9a32cd" stroke-dasharray="5,2" d="M2655.39,-632.36C2702.2,-701.74 2867.82,-947.18 2910.77,-1010.83"/>
<polygon fill="#9a32cd" stroke="#9a32cd" points="2658.09,-630.11 2649.6,-623.78 2652.29,-634.03 2658.09,-630.11"/>
<text text-anchor="middle" x="2782" y="-873" font-family="Helvetica,sans-Serif" font-size="10.00"> ptrFE</text>
</g>
<!-- Node12&#45;&gt;Node12 -->
<g id="edge69" class="edge">
<title>Node12&#45;&gt;Node12</title>
<path fill="none" stroke="#9a32cd" stroke-dasharray="5,2" d="M2615.96,-633.03C2617.38,-638.13 2626.06,-642 2642,-642 2666.88,-642 2674.08,-632.57 2663.58,-623.76"/>
<polygon fill="#9a32cd" stroke="#9a32cd" points="2619.24,-634.29 2620.42,-623.76 2612.93,-631.25 2619.24,-634.29"/>
<text text-anchor="middle" x="2642" y="-656" font-family="Helvetica,sans-Serif" font-size="10.00"> sidePtrFE</text>
<text text-anchor="middle" x="2642" y="-645" font-family="Helvetica,sans-Serif" font-size="10.00">refinePtrFE</text>
</g>
<!-- Node13 -->
<g id="node13" class="node">
<title>Node13</title>
<g id="a_node13"><a xlink:href="structMoFEM_1_1FEMethod.html" target="_top" xlink:title="structure for User Loop Methods on finite elements">
<polygon fill="white" stroke="black" points="2202.5,-604.5 2202.5,-623.5 2309.5,-623.5 2309.5,-604.5 2202.5,-604.5"/>
<text text-anchor="middle" x="2256" y="-611.5" font-family="Helvetica,sans-Serif" font-size="10.00">MoFEM::FEMethod</text>
</a>
</g>
</g>
<!-- Node13&#45;&gt;Node12 -->
<g id="edge12" class="edge">
<title>Node13&#45;&gt;Node12</title>
<path fill="none" stroke="midnightblue" d="M2319.62,-614C2384.15,-614 2485.15,-614 2556.68,-614"/>
<polygon fill="midnightblue" stroke="midnightblue" points="2319.59,-610.5 2309.59,-614 2319.59,-617.5 2319.59,-610.5"/>
</g>
<!-- Node14 -->
<g id="node14" class="node">
<title>Node14</title>
<g id="a_node14"><a xlink:href="structMoFEM_1_1BasicMethod.html" target="_top" xlink:title="Data structure to exchange data between mofem and User Loop Methods.">
<polygon fill="white" stroke="black" points="1825,-494.5 1825,-513.5 1947,-513.5 1947,-494.5 1825,-494.5"/>
<text text-anchor="middle" x="1886" y="-501.5" font-family="Helvetica,sans-Serif" font-size="10.00">MoFEM::BasicMethod</text>
</a>
</g>
</g>
<!-- Node14&#45;&gt;Node13 -->
<g id="edge13" class="edge">
<title>Node14&#45;&gt;Node13</title>
<path fill="none" stroke="midnightblue" d="M1957.34,-514.2C2009.32,-524.08 2080.27,-542.63 2135,-576 2144.93,-582.06 2142.78,-589.44 2153,-595 2167.95,-603.14 2185.76,-607.85 2202.29,-610.57"/>
<polygon fill="midnightblue" stroke="midnightblue" points="1957.67,-510.7 1947.21,-512.34 1956.41,-517.59 1957.67,-510.7"/>
</g>
<!-- Node15 -->
<g id="node15" class="node">
<title>Node15</title>
<g id="a_node15"><a xlink:href="structMoFEM_1_1KspMethod.html" target="_top" xlink:title="data structure for ksp (linear solver) context">
<polygon fill="white" stroke="black" points="1442,-696.5 1442,-715.5 1555,-715.5 1555,-696.5 1442,-696.5"/>
<text text-anchor="middle" x="1498.5" y="-703.5" font-family="Helvetica,sans-Serif" font-size="10.00">MoFEM::KspMethod</text>
</a>
</g>
</g>
<!-- Node15&#45;&gt;Node14 -->
<g id="edge14" class="edge">
<title>Node15&#45;&gt;Node14</title>
<path fill="none" stroke="midnightblue" d="M1524.01,-691.21C1574.52,-660.99 1694.24,-590.77 1799,-540 1819.25,-530.19 1842.86,-520.42 1860.22,-513.54"/>
<polygon fill="midnightblue" stroke="midnightblue" points="1522.18,-688.22 1515.4,-696.37 1525.78,-694.23 1522.18,-688.22"/>
</g>
<!-- Node16 -->
<g id="node16" class="node">
<title>Node16</title>
<g id="a_node16"><a xlink:href="structMoFEM_1_1PetscData.html" target="_top" xlink:title=" ">
<polygon fill="white" stroke="black" points="1087.5,-344.5 1087.5,-363.5 1195.5,-363.5 1195.5,-344.5 1087.5,-344.5"/>
<text text-anchor="middle" x="1141.5" y="-351.5" font-family="Helvetica,sans-Serif" font-size="10.00">MoFEM::PetscData</text>
</a>
</g>
</g>
<!-- Node16&#45;&gt;Node15 -->
<g id="edge15" class="edge">
<title>Node16&#45;&gt;Node15</title>
<path fill="none" stroke="midnightblue" d="M1205.43,-357.13C1219.57,-360.79 1233.25,-367.16 1243,-378 1284.66,-424.31 1230.44,-462.72 1261,-517 1288.59,-566.01 1435.32,-665.15 1482.72,-696.36"/>
<polygon fill="midnightblue" stroke="midnightblue" points="1206.12,-353.7 1195.61,-355.02 1204.65,-360.55 1206.12,-353.7"/>
</g>
<!-- Node26 -->
<g id="node26" class="node">
<title>Node26</title>
<g id="a_node26"><a xlink:href="structMoFEM_1_1SnesMethod.html" target="_top" xlink:title="data structure for snes (nonlinear solver) context">
<polygon fill="white" stroke="black" points="1439,-495.5 1439,-514.5 1558,-514.5 1558,-495.5 1439,-495.5"/>
<text text-anchor="middle" x="1498.5" y="-502.5" font-family="Helvetica,sans-Serif" font-size="10.00">MoFEM::SnesMethod</text>
</a>
</g>
</g>
<!-- Node16&#45;&gt;Node26 -->
<g id="edge28" class="edge">
<title>Node16&#45;&gt;Node26</title>
<path fill="none" stroke="darkgreen" d="M1202.02,-365.84C1215.66,-369.2 1229.98,-373.27 1243,-378 1337.44,-412.33 1442.55,-472.33 1481.7,-495.5"/>
<polygon fill="darkgreen" stroke="darkgreen" points="1202.77,-362.42 1192.23,-363.51 1201.15,-369.23 1202.77,-362.42"/>
</g>
<!-- Node29 -->
<g id="node29" class="node">
<title>Node29</title>
<g id="a_node29"><a xlink:href="structMoFEM_1_1TSMethod.html" target="_top" xlink:title="data structure for TS (time stepping) context">
<polygon fill="white" stroke="black" points="1445,-386.5 1445,-405.5 1552,-405.5 1552,-386.5 1445,-386.5"/>
<text text-anchor="middle" x="1498.5" y="-393.5" font-family="Helvetica,sans-Serif" font-size="10.00">MoFEM::TSMethod</text>
</a>
</g>
</g>
<!-- Node16&#45;&gt;Node29 -->
<g id="edge34" class="edge">
<title>Node16&#45;&gt;Node29</title>
<path fill="none" stroke="darkgreen" d="M1205.82,-361.49C1273.98,-369.56 1381.16,-382.24 1444.86,-389.77"/>
<polygon fill="darkgreen" stroke="darkgreen" points="1205.99,-357.99 1195.65,-360.29 1205.17,-364.94 1205.99,-357.99"/>
</g>
<!-- Node17 -->
<g id="node17" class="node">
<title>Node17</title>
<g id="a_node17"><a xlink:href="structMoFEM_1_1UnknownInterface.html" target="_top" xlink:title="base class for all interface classes">
<polygon fill="white" stroke="black" points="735,-93.5 735,-112.5 883,-112.5 883,-93.5 735,-93.5"/>
<text text-anchor="middle" x="809" y="-100.5" font-family="Helvetica,sans-Serif" font-size="10.00">MoFEM::UnknownInterface</text>
</a>
</g>
</g>
<!-- Node17&#45;&gt;Node16 -->
<g id="edge16" class="edge">
<title>Node17&#45;&gt;Node16</title>
<path fill="none" stroke="midnightblue" d="M822.18,-121.42C852.84,-166.17 938.06,-280.85 1040,-335 1054.43,-342.66 1071.46,-347.27 1087.37,-350.03"/>
<polygon fill="midnightblue" stroke="midnightblue" points="824.98,-119.31 816.48,-112.98 819.18,-123.23 824.98,-119.31"/>
</g>
<!-- Node57 -->
<g id="node57" class="node">
<title>Node57</title>
<g id="a_node57"><a xlink:href="structMoFEM_1_1CoreInterface.html" target="_top" xlink:title="Interface.">
<polygon fill="white" stroke="black" points="1079,-94.5 1079,-113.5 1204,-113.5 1204,-94.5 1079,-94.5"/>
<text text-anchor="middle" x="1141.5" y="-101.5" font-family="Helvetica,sans-Serif" font-size="10.00">MoFEM::CoreInterface</text>
</a>
</g>
</g>
<!-- Node17&#45;&gt;Node57 -->
<g id="edge68" class="edge">
<title>Node17&#45;&gt;Node57</title>
<path fill="none" stroke="midnightblue" d="M893.54,-103.25C951.26,-103.43 1026.75,-103.66 1079,-103.81"/>
<polygon fill="midnightblue" stroke="midnightblue" points="893.36,-99.75 883.35,-103.22 893.34,-106.75 893.36,-99.75"/>
</g>
<!-- Node18 -->
<g id="node18" class="node">
<title>Node18</title>
<g id="a_node18"><a xlink:title=" ">
<polygon fill="white" stroke="#bfbfbf" points="386,-49.5 386,-112.5 627,-112.5 627,-49.5 386,-49.5"/>
<text text-anchor="start" x="394" y="-100.5" font-family="Helvetica,sans-Serif" font-size="10.00">multi_index_container</text>
<text text-anchor="start" x="394" y="-89.5" font-family="Helvetica,sans-Serif" font-size="10.00">&lt; UIdTypeMap, indexed</text>
<text text-anchor="start" x="394" y="-78.5" font-family="Helvetica,sans-Serif" font-size="10.00">_by&lt; hashed_unique&lt; member</text>
<text text-anchor="start" x="394" y="-67.5" font-family="Helvetica,sans-Serif" font-size="10.00">&lt; UIdTypeMap, boost::typeindex</text>
<text text-anchor="middle" x="506.5" y="-56.5" font-family="Helvetica,sans-Serif" font-size="10.00">::type_index, &amp;UIdTypeMap::classIdx &gt; &gt; &gt; &gt;</text>
</a>
</g>
</g>
<!-- Node18&#45;&gt;Node17 -->
<g id="edge17" class="edge">
<title>Node18&#45;&gt;Node17</title>
<path fill="none" stroke="#9a32cd" stroke-dasharray="5,2" d="M637.41,-90.51C670.69,-92.95 705.33,-95.48 734.62,-97.63"/>
<polygon fill="#9a32cd" stroke="#9a32cd" points="637.36,-87 627.13,-89.76 636.85,-93.98 637.36,-87"/>
<text text-anchor="middle" x="681" y="-99" font-family="Helvetica,sans-Serif" font-size="10.00"> iFaceTypeMap</text>
</g>
<!-- Node19 -->
<g id="node19" class="node">
<title>Node19</title>
<g id="a_node19"><a xlink:title=" ">
<polygon fill="white" stroke="#bfbfbf" points="0,-6.5 0,-25.5 125,-25.5 125,-6.5 0,-6.5"/>
<text text-anchor="middle" x="62.5" y="-13.5" font-family="Helvetica,sans-Serif" font-size="10.00">multi_index_container</text>
</a>
</g>
</g>
<!-- Node19&#45;&gt;Node14 -->
<g id="edge41" class="edge">
<title>Node19&#45;&gt;Node14</title>
<path fill="none" stroke="#9a32cd" stroke-dasharray="5,2" d="M135.41,-11.8C222.85,-7.06 374.95,0 505.5,0 505.5,0 505.5,0 1499.5,0 1635.68,0 1691.72,-18.17 1781,-121 1883.09,-238.58 1885.98,-447.05 1885.26,-494.3"/>
<polygon fill="#9a32cd" stroke="#9a32cd" points="135.12,-8.31 125.33,-12.35 135.51,-15.3 135.12,-8.31"/>
<text text-anchor="middle" x="961.5" y="-80" font-family="Helvetica,sans-Serif" font-size="10.00"> adjacenciesPtr</text>
<text text-anchor="middle" x="961.5" y="-69" font-family="Helvetica,sans-Serif" font-size="10.00">refinedEntitiesPtr</text>
<text text-anchor="middle" x="961.5" y="-58" font-family="Helvetica,sans-Serif" font-size="10.00">finiteElementsEntitiesPtr</text>
<text text-anchor="middle" x="961.5" y="-47" font-family="Helvetica,sans-Serif" font-size="10.00">dofsPtr</text>
<text text-anchor="middle" x="961.5" y="-36" font-family="Helvetica,sans-Serif" font-size="10.00">entitiesPtr</text>
<text text-anchor="middle" x="961.5" y="-25" font-family="Helvetica,sans-Serif" font-size="10.00">finiteElementsPtr</text>
<text text-anchor="middle" x="961.5" y="-14" font-family="Helvetica,sans-Serif" font-size="10.00">refinedFiniteElementsPtr</text>
<text text-anchor="middle" x="961.5" y="-3" font-family="Helvetica,sans-Serif" font-size="10.00">fieldsPtr</text>
</g>
<!-- Node19&#45;&gt;Node18 -->
<g id="edge18" class="edge">
<title>Node19&#45;&gt;Node18</title>
<path fill="none" stroke="orange" stroke-dasharray="5,2" d="M135.56,-26.6C203.25,-36.55 305.79,-51.63 385.77,-63.39"/>
<polygon fill="orange" stroke="orange" points="135.83,-23.1 125.42,-25.11 134.81,-30.02 135.83,-23.1"/>
<text text-anchor="start" x="143" y="-96" font-family="Helvetica,sans-Serif" font-size="10.00"> &lt; UIdTypeMap, indexed</text>
<text text-anchor="start" x="143" y="-85" font-family="Helvetica,sans-Serif" font-size="10.00">_by&lt; hashed_unique&lt; member</text>
<text text-anchor="start" x="143" y="-74" font-family="Helvetica,sans-Serif" font-size="10.00">&lt; UIdTypeMap, boost::typeindex</text>
<text text-anchor="middle" x="255.5" y="-63" font-family="Helvetica,sans-Serif" font-size="10.00">::type_index, &amp;UIdTypeMap::classIdx &gt; &gt; &gt; &gt;</text>
</g>
<!-- Node20 -->
<g id="node20" class="node">
<title>Node20</title>
<g id="a_node20"><a xlink:title=" ">
<polygon fill="white" stroke="#bfbfbf" points="738.5,-434.5 738.5,-453.5 879.5,-453.5 879.5,-434.5 738.5,-434.5"/>
<text text-anchor="middle" x="809" y="-441.5" font-family="Helvetica,sans-Serif" font-size="10.00">static constexpr Switches</text>
</a>
</g>
</g>
<!-- Node20&#45;&gt;Node16 -->
<g id="edge19" class="edge">
<title>Node20&#45;&gt;Node16</title>
<path fill="none" stroke="#9a32cd" stroke-dasharray="5,2" d="M890.05,-440.94C931.96,-436.21 982.6,-425.34 1022,-401 1033.04,-394.18 1029.08,-385.01 1040,-378 1054.12,-368.94 1071.33,-363.3 1087.49,-359.78"/>
<polygon fill="#9a32cd" stroke="#9a32cd" points="889.46,-437.48 879.87,-441.99 890.18,-444.44 889.46,-437.48"/>
<text text-anchor="middle" x="961.5" y="-520" font-family="Helvetica,sans-Serif" font-size="10.00"> CtxSetX_TT</text>
<text text-anchor="middle" x="961.5" y="-509" font-family="Helvetica,sans-Serif" font-size="10.00">CtxSetX_T</text>
<text text-anchor="middle" x="961.5" y="-498" font-family="Helvetica,sans-Serif" font-size="10.00">CtxSetA</text>
<text text-anchor="middle" x="961.5" y="-487" font-family="Helvetica,sans-Serif" font-size="10.00">CtxSetB</text>
<text text-anchor="middle" x="961.5" y="-476" font-family="Helvetica,sans-Serif" font-size="10.00">CtxSetTime</text>
<text text-anchor="middle" x="961.5" y="-465" font-family="Helvetica,sans-Serif" font-size="10.00">CtxSetNone</text>
<text text-anchor="middle" x="961.5" y="-454" font-family="Helvetica,sans-Serif" font-size="10.00">CtxSetF</text>
<text text-anchor="middle" x="961.5" y="-443" font-family="Helvetica,sans-Serif" font-size="10.00">CtxSetX</text>
</g>
<!-- Node21 -->
<g id="node21" class="node">
<title>Node21</title>
<g id="a_node21"><a xlink:title=" ">
<polygon fill="white" stroke="#bfbfbf" points="791.5,-382.5 791.5,-401.5 826.5,-401.5 826.5,-382.5 791.5,-382.5"/>
<text text-anchor="middle" x="809" y="-389.5" font-family="Helvetica,sans-Serif" font-size="10.00">Mat</text>
</a>
</g>
</g>
<!-- Node21&#45;&gt;Node15 -->
<g id="edge25" class="edge">
<title>Node21&#45;&gt;Node15</title>
<path fill="none" stroke="#9a32cd" stroke-dasharray="5,2" d="M836.62,-397.07C852.7,-401.58 872.13,-409.91 883,-425 905.85,-456.72 872.52,-573.22 901,-600 914.85,-613.03 1224.34,-610.34 1243,-614 1333.82,-631.83 1435.57,-676.7 1477.65,-696.43"/>
<polygon fill="#9a32cd" stroke="#9a32cd" points="837.2,-393.61 826.66,-394.62 835.53,-400.4 837.2,-393.61"/>
<text text-anchor="middle" x="1141.5" y="-628" font-family="Helvetica,sans-Serif" font-size="10.00"> ksp_A</text>
<text text-anchor="middle" x="1141.5" y="-617" font-family="Helvetica,sans-Serif" font-size="10.00">ksp_B</text>
</g>
<!-- Node21&#45;&gt;Node16 -->
<g id="edge20" class="edge">
<title>Node21&#45;&gt;Node16</title>
<path fill="none" stroke="#9a32cd" stroke-dasharray="5,2" d="M836.53,-386.34C854.62,-382.65 879.17,-377.99 901,-375 964.68,-366.28 1038.42,-360.45 1087.06,-357.19"/>
<polygon fill="#9a32cd" stroke="#9a32cd" points="835.77,-382.92 826.69,-388.38 837.19,-389.78 835.77,-382.92"/>
<text text-anchor="middle" x="961.5" y="-389" font-family="Helvetica,sans-Serif" font-size="10.00"> A</text>
<text text-anchor="middle" x="961.5" y="-378" font-family="Helvetica,sans-Serif" font-size="10.00">B</text>
</g>
<!-- Node21&#45;&gt;Node26 -->
<g id="edge30" class="edge">
<title>Node21&#45;&gt;Node26</title>
<path fill="none" stroke="#9a32cd" stroke-dasharray="5,2" d="M836.95,-394.44C891.07,-399.6 1008.95,-412.17 1022,-425 1055.45,-457.89 1004.11,-498.79 1040,-529 1101.61,-580.86 1352.01,-535.66 1453.98,-514.5"/>
<polygon fill="#9a32cd" stroke="#9a32cd" points="837.01,-390.93 826.72,-393.49 836.35,-397.9 837.01,-390.93"/>
<text text-anchor="middle" x="1141.5" y="-567" font-family="Helvetica,sans-Serif" font-size="10.00"> snes_A</text>
<text text-anchor="middle" x="1141.5" y="-556" font-family="Helvetica,sans-Serif" font-size="10.00">snes_B</text>
</g>
<!-- Node21&#45;&gt;Node29 -->
<g id="edge35" class="edge">
<title>Node21&#45;&gt;Node29</title>
<path fill="none" stroke="#9a32cd" stroke-dasharray="5,2" d="M836.24,-383.8C850.99,-378.33 869.16,-370.1 883,-359 893.4,-350.66 892.84,-345.54 901,-335 961.59,-256.73 950.8,-203.91 1040,-161 1121.3,-121.89 1152.87,-156.91 1243,-161 1311.66,-164.11 1348.45,-126.36 1397,-175 1428.84,-206.9 1385.4,-343.02 1415,-377 1422.63,-385.75 1433.4,-390.92 1444.66,-393.87"/>
<polygon fill="#9a32cd" stroke="#9a32cd" points="834.95,-380.54 826.67,-387.14 837.26,-387.15 834.95,-380.54"/>
<text text-anchor="middle" x="1141.5" y="-175" font-family="Helvetica,sans-Serif" font-size="10.00"> ts_A</text>
<text text-anchor="middle" x="1141.5" y="-164" font-family="Helvetica,sans-Serif" font-size="10.00">ts_B</text>
</g>
<!-- Node22 -->
<g id="node22" class="node">
<title>Node22</title>
<g id="a_node22"><a xlink:title=" ">
<polygon fill="white" stroke="#bfbfbf" points="772.5,-330.5 772.5,-349.5 845.5,-349.5 845.5,-330.5 772.5,-330.5"/>
<text text-anchor="middle" x="809" y="-337.5" font-family="Helvetica,sans-Serif" font-size="10.00">bitset&lt; 8 &gt;</text>
</a>
</g>
</g>
<!-- Node22&#45;&gt;Node16 -->
<g id="edge21" class="edge">
<title>Node22&#45;&gt;Node16</title>
<path fill="none" stroke="#9a32cd" stroke-dasharray="5,2" d="M855.81,-338.84C898.78,-338.07 964.8,-337.74 1022,-341 1043.39,-342.22 1066.85,-344.58 1087.21,-346.96"/>
<polygon fill="#9a32cd" stroke="#9a32cd" points="855.6,-335.34 845.67,-339.03 855.74,-342.34 855.6,-335.34"/>
<text text-anchor="middle" x="961.5" y="-344" font-family="Helvetica,sans-Serif" font-size="10.00"> data_ctx</text>
</g>
<!-- Node23 -->
<g id="node23" class="node">
<title>Node23</title>
<g id="a_node23"><a xlink:title=" ">
<polygon fill="white" stroke="#bfbfbf" points="792,-645.5 792,-664.5 826,-664.5 826,-645.5 792,-645.5"/>
<text text-anchor="middle" x="809" y="-652.5" font-family="Helvetica,sans-Serif" font-size="10.00">Vec</text>
</a>
</g>
</g>
<!-- Node23&#45;&gt;Node15 -->
<g id="edge26" class="edge">
<title>Node23&#45;&gt;Node15</title>
<path fill="none" stroke="#9a32cd" stroke-dasharray="5,2" d="M830.88,-670.95C869.57,-699.38 956.12,-757.83 1040,-779 1193.94,-817.85 1245.86,-814.62 1397,-766 1432.01,-754.74 1467.76,-729.41 1485.69,-715.53"/>
<polygon fill="#9a32cd" stroke="#9a32cd" points="832.64,-667.89 822.52,-664.73 828.45,-673.51 832.64,-667.89"/>
<text text-anchor="middle" x="1141.5" y="-809" font-family="Helvetica,sans-Serif" font-size="10.00"> ksp_f</text>
</g>
<!-- Node23&#45;&gt;Node16 -->
<g id="edge22" class="edge">
<title>Node23&#45;&gt;Node16</title>
<path fill="none" stroke="#9a32cd" stroke-dasharray="5,2" d="M827.58,-638C845.09,-621.76 873.28,-597.38 901,-581 950.95,-551.48 986.83,-578.15 1022,-532 1063.77,-477.19 994.23,-429.52 1040,-378 1051.91,-364.59 1069.86,-357.99 1087.3,-354.93"/>
<polygon fill="#9a32cd" stroke="#9a32cd" points="824.76,-635.85 819.89,-645.26 829.57,-640.94 824.76,-635.85"/>
<text text-anchor="middle" x="961.5" y="-617" font-family="Helvetica,sans-Serif" font-size="10.00"> f</text>
<text text-anchor="middle" x="961.5" y="-606" font-family="Helvetica,sans-Serif" font-size="10.00">x</text>
<text text-anchor="middle" x="961.5" y="-595" font-family="Helvetica,sans-Serif" font-size="10.00">x_t</text>
<text text-anchor="middle" x="961.5" y="-584" font-family="Helvetica,sans-Serif" font-size="10.00">x_tt</text>
</g>
<!-- Node23&#45;&gt;Node26 -->
<g id="edge31" class="edge">
<title>Node23&#45;&gt;Node26</title>
<path fill="none" stroke="#9a32cd" stroke-dasharray="5,2" d="M836.47,-658.34C905.16,-666.11 1094.12,-681.72 1243,-640 1342.93,-611.99 1448.07,-540.7 1484.32,-514.68"/>
<polygon fill="#9a32cd" stroke="#9a32cd" points="836.48,-654.82 826.14,-657.13 835.67,-661.77 836.48,-654.82"/>
<text text-anchor="middle" x="1141.5" y="-682" font-family="Helvetica,sans-Serif" font-size="10.00"> snes_x</text>
<text text-anchor="middle" x="1141.5" y="-671" font-family="Helvetica,sans-Serif" font-size="10.00">snes_f</text>
</g>
<!-- Node23&#45;&gt;Node29 -->
<g id="edge39" class="edge">
<title>Node23&#45;&gt;Node29</title>
<path fill="none" stroke="#9a32cd" stroke-dasharray="5,2" d="M836.36,-655.19C887.46,-654.95 997.16,-651.31 1022,-625 1055.07,-589.98 1005.02,-442.11 1040,-409 1054.48,-395.29 1327.58,-395.09 1444.79,-395.64"/>
<polygon fill="#9a32cd" stroke="#9a32cd" points="836.12,-651.69 826.12,-655.19 836.12,-658.69 836.12,-651.69"/>
<text text-anchor="middle" x="1141.5" y="-445" font-family="Helvetica,sans-Serif" font-size="10.00"> ts_u</text>
<text text-anchor="middle" x="1141.5" y="-434" font-family="Helvetica,sans-Serif" font-size="10.00">ts_F</text>
<text text-anchor="middle" x="1141.5" y="-423" font-family="Helvetica,sans-Serif" font-size="10.00">ts_u_t</text>
<text text-anchor="middle" x="1141.5" y="-412" font-family="Helvetica,sans-Serif" font-size="10.00">ts_u_tt</text>
</g>
<!-- Node24 -->
<g id="node24" class="node">
<title>Node24</title>
<g id="a_node24"><a xlink:title=" ">
<polygon fill="white" stroke="#bfbfbf" points="1124,-750.5 1124,-769.5 1159,-769.5 1159,-750.5 1124,-750.5"/>
<text text-anchor="middle" x="1141.5" y="-757.5" font-family="Helvetica,sans-Serif" font-size="10.00">KSP</text>
</a>
</g>
</g>
<!-- Node24&#45;&gt;Node15 -->
<g id="edge23" class="edge">
<title>Node24&#45;&gt;Node15</title>
<path fill="none" stroke="#9a32cd" stroke-dasharray="5,2" d="M1169.48,-758.31C1216.15,-755.1 1314.83,-747.07 1397,-732 1420.04,-727.77 1445.6,-721.14 1465.18,-715.62"/>
<polygon fill="#9a32cd" stroke="#9a32cd" points="1169.04,-754.83 1159.3,-758.99 1169.51,-761.82 1169.04,-754.83"/>
<text text-anchor="middle" x="1329" y="-754" font-family="Helvetica,sans-Serif" font-size="10.00"> ksp</text>
</g>
<!-- Node25 -->
<g id="node25" class="node">
<title>Node25</title>
<g id="a_node25"><a xlink:title=" ">
<polygon fill="white" stroke="#bfbfbf" points="1104.5,-712.5 1104.5,-731.5 1178.5,-731.5 1178.5,-712.5 1104.5,-712.5"/>
<text text-anchor="middle" x="1141.5" y="-719.5" font-family="Helvetica,sans-Serif" font-size="10.00">KSPContext</text>
</a>
</g>
</g>
<!-- Node25&#45;&gt;Node15 -->
<g id="edge24" class="edge">
<title>Node25&#45;&gt;Node15</title>
<path fill="none" stroke="#9a32cd" stroke-dasharray="5,2" d="M1189.19,-719.9C1254.3,-716.96 1372.2,-711.65 1441.81,-708.51"/>
<polygon fill="#9a32cd" stroke="#9a32cd" points="1188.66,-716.42 1178.82,-720.36 1188.97,-723.41 1188.66,-716.42"/>
<text text-anchor="middle" x="1329" y="-720" font-family="Helvetica,sans-Serif" font-size="10.00"> ksp_ctx</text>
</g>
<!-- Node26&#45;&gt;Node14 -->
<g id="edge27" class="edge">
<title>Node26&#45;&gt;Node14</title>
<path fill="none" stroke="midnightblue" d="M1568.06,-504.82C1641.05,-504.63 1755.39,-504.34 1824.95,-504.16"/>
<polygon fill="midnightblue" stroke="midnightblue" points="1568.04,-501.32 1558.05,-504.85 1568.06,-508.32 1568.04,-501.32"/>
</g>
<!-- Node27 -->
<g id="node27" class="node">
<title>Node27</title>
<g id="a_node27"><a xlink:title=" ">
<polygon fill="white" stroke="#bfbfbf" points="1120.5,-500.5 1120.5,-519.5 1162.5,-519.5 1162.5,-500.5 1120.5,-500.5"/>
<text text-anchor="middle" x="1141.5" y="-507.5" font-family="Helvetica,sans-Serif" font-size="10.00">SNES</text>
</a>
</g>
</g>
<!-- Node27&#45;&gt;Node26 -->
<g id="edge29" class="edge">
<title>Node27&#45;&gt;Node26</title>
<path fill="none" stroke="#9a32cd" stroke-dasharray="5,2" d="M1172.72,-509.57C1231.53,-508.75 1362.28,-506.9 1438.74,-505.83"/>
<polygon fill="#9a32cd" stroke="#9a32cd" points="1172.55,-506.08 1162.6,-509.72 1172.65,-513.08 1172.55,-506.08"/>
<text text-anchor="middle" x="1329" y="-512" font-family="Helvetica,sans-Serif" font-size="10.00"> snes</text>
</g>
<!-- Node28 -->
<g id="node28" class="node">
<title>Node28</title>
<g id="a_node28"><a xlink:title=" ">
<polygon fill="white" stroke="#bfbfbf" points="1101.5,-462.5 1101.5,-481.5 1181.5,-481.5 1181.5,-462.5 1101.5,-462.5"/>
<text text-anchor="middle" x="1141.5" y="-469.5" font-family="Helvetica,sans-Serif" font-size="10.00">SNESContext</text>
</a>
</g>
</g>
<!-- Node28&#45;&gt;Node26 -->
<g id="edge32" class="edge">
<title>Node28&#45;&gt;Node26</title>
<path fill="none" stroke="#9a32cd" stroke-dasharray="5,2" d="M1191.94,-475.15C1243.27,-478.59 1325.86,-484.61 1397,-492 1410.56,-493.41 1425.12,-495.16 1438.84,-496.91"/>
<polygon fill="#9a32cd" stroke="#9a32cd" points="1192,-471.64 1181.79,-474.47 1191.54,-478.63 1192,-471.64"/>
<text text-anchor="middle" x="1329" y="-495" font-family="Helvetica,sans-Serif" font-size="10.00"> snes_ctx</text>
</g>
<!-- Node29&#45;&gt;Node14 -->
<g id="edge33" class="edge">
<title>Node29&#45;&gt;Node14</title>
<path fill="none" stroke="midnightblue" d="M1543.26,-408.29C1601.59,-424.67 1708.05,-454.56 1799,-480 1816.02,-484.76 1834.93,-490.04 1850.68,-494.43"/>
<polygon fill="midnightblue" stroke="midnightblue" points="1544.21,-404.92 1533.63,-405.59 1542.31,-411.66 1544.21,-404.92"/>
</g>
<!-- Node30 -->
<g id="node30" class="node">
<title>Node30</title>
<g id="a_node30"><a xlink:title=" ">
<polygon fill="white" stroke="#bfbfbf" points="1109,-306.5 1109,-325.5 1174,-325.5 1174,-306.5 1109,-306.5"/>
<text text-anchor="middle" x="1141.5" y="-313.5" font-family="Helvetica,sans-Serif" font-size="10.00">PetscReal</text>
</a>
</g>
</g>
<!-- Node30&#45;&gt;Node29 -->
<g id="edge36" class="edge">
<title>Node30&#45;&gt;Node29</title>
<path fill="none" stroke="#9a32cd" stroke-dasharray="5,2" d="M1184.07,-311.18C1247.47,-304.74 1364.42,-296.76 1397,-321 1417.97,-336.61 1395.75,-359.31 1415,-377 1423.23,-384.56 1433.84,-389.3 1444.7,-392.24"/>
<polygon fill="#9a32cd" stroke="#9a32cd" points="1183.58,-307.71 1174,-312.23 1184.31,-314.67 1183.58,-307.71"/>
<text text-anchor="middle" x="1329" y="-357" font-family="Helvetica,sans-Serif" font-size="10.00"> ts_a</text>
<text text-anchor="middle" x="1329" y="-346" font-family="Helvetica,sans-Serif" font-size="10.00">ts_t</text>
<text text-anchor="middle" x="1329" y="-335" font-family="Helvetica,sans-Serif" font-size="10.00">ts_dt</text>
<text text-anchor="middle" x="1329" y="-324" font-family="Helvetica,sans-Serif" font-size="10.00">ts_aa</text>
</g>
<!-- Node31 -->
<g id="node31" class="node">
<title>Node31</title>
<g id="a_node31"><a xlink:title=" ">
<polygon fill="white" stroke="#bfbfbf" points="1108,-268.5 1108,-287.5 1175,-287.5 1175,-268.5 1108,-268.5"/>
<text text-anchor="middle" x="1141.5" y="-275.5" font-family="Helvetica,sans-Serif" font-size="10.00">TSContext</text>
</a>
</g>
</g>
<!-- Node31&#45;&gt;Node29 -->
<g id="edge37" class="edge">
<title>Node31&#45;&gt;Node29</title>
<path fill="none" stroke="#9a32cd" stroke-dasharray="5,2" d="M1185.46,-273.94C1249.63,-268.87 1366.26,-263.74 1397,-290 1427.02,-315.65 1387.39,-348.77 1415,-377 1423.02,-385.2 1433.81,-390.16 1444.93,-393.1"/>
<polygon fill="#9a32cd" stroke="#9a32cd" points="1184.93,-270.47 1175.26,-274.79 1185.51,-277.45 1184.93,-270.47"/>
<text text-anchor="middle" x="1329" y="-293" font-family="Helvetica,sans-Serif" font-size="10.00"> ts_ctx</text>
</g>
<!-- Node32 -->
<g id="node32" class="node">
<title>Node32</title>
<g id="a_node32"><a xlink:title=" ">
<polygon fill="white" stroke="#bfbfbf" points="1113.5,-230.5 1113.5,-249.5 1169.5,-249.5 1169.5,-230.5 1113.5,-230.5"/>
<text text-anchor="middle" x="1141.5" y="-237.5" font-family="Helvetica,sans-Serif" font-size="10.00">PetscInt</text>
</a>
</g>
</g>
<!-- Node32&#45;&gt;Node29 -->
<g id="edge38" class="edge">
<title>Node32&#45;&gt;Node29</title>
<path fill="none" stroke="#9a32cd" stroke-dasharray="5,2" d="M1180.22,-236.67C1243.29,-231.99 1366.3,-226.88 1397,-255 1437.42,-292.02 1377.82,-336.73 1415,-377 1422.78,-385.42 1433.47,-390.48 1444.59,-393.43"/>
<polygon fill="#9a32cd" stroke="#9a32cd" points="1179.6,-233.21 1169.9,-237.48 1180.14,-240.19 1179.6,-233.21"/>
<text text-anchor="middle" x="1329" y="-258" font-family="Helvetica,sans-Serif" font-size="10.00"> ts_step</text>
</g>
<!-- Node33 -->
<g id="node33" class="node">
<title>Node33</title>
<g id="a_node33"><a xlink:title=" ">
<polygon fill="white" stroke="#bfbfbf" points="1127,-192.5 1127,-211.5 1156,-211.5 1156,-192.5 1127,-192.5"/>
<text text-anchor="middle" x="1141.5" y="-199.5" font-family="Helvetica,sans-Serif" font-size="10.00">TS</text>
</a>
</g>
</g>
<!-- Node33&#45;&gt;Node29 -->
<g id="edge40" class="edge">
<title>Node33&#45;&gt;Node29</title>
<path fill="none" stroke="#9a32cd" stroke-dasharray="5,2" d="M1166.01,-194.78C1216.01,-181.05 1333.5,-157.59 1397,-218 1448.53,-267.02 1367.65,-323.94 1415,-377 1422.73,-385.66 1433.55,-390.79 1444.81,-393.74"/>
<polygon fill="#9a32cd" stroke="#9a32cd" points="1164.79,-191.49 1156.14,-197.61 1166.72,-198.22 1164.79,-191.49"/>
<text text-anchor="middle" x="1329" y="-221" font-family="Helvetica,sans-Serif" font-size="10.00"> ts</text>
</g>
<!-- Node34 -->
<g id="node34" class="node">
<title>Node34</title>
<g id="a_node34"><a xlink:title=" ">
<polygon fill="white" stroke="#bfbfbf" points="1454,-348.5 1454,-367.5 1543,-367.5 1543,-348.5 1454,-348.5"/>
<text text-anchor="middle" x="1498.5" y="-355.5" font-family="Helvetica,sans-Serif" font-size="10.00">pair&lt; int, int &gt;</text>
</a>
</g>
</g>
<!-- Node34&#45;&gt;Node14 -->
<g id="edge42" class="edge">
<title>Node34&#45;&gt;Node14</title>
<path fill="none" stroke="#9a32cd" stroke-dasharray="5,2" d="M1553.27,-352.61C1616.13,-349.45 1719.39,-354.52 1781,-412 1803.86,-433.33 1777.04,-457.75 1799,-480 1806.08,-487.17 1815.1,-492.25 1824.64,-495.83"/>
<polygon fill="#9a32cd" stroke="#9a32cd" points="1552.94,-349.12 1543.16,-353.21 1553.35,-356.11 1552.94,-349.12"/>
<text text-anchor="middle" x="1690.5" y="-415" font-family="Helvetica,sans-Serif" font-size="10.00"> loHiFERank</text>
</g>
<!-- Node35 -->
<g id="node35" class="node">
<title>Node35</title>
<g id="a_node35"><a xlink:title=" ">
<polygon fill="white" stroke="#bfbfbf" points="1428.5,-310.5 1428.5,-329.5 1568.5,-329.5 1568.5,-310.5 1428.5,-310.5"/>
<text text-anchor="middle" x="1498.5" y="-317.5" font-family="Helvetica,sans-Serif" font-size="10.00">weak_ptr&lt; CacheTuple &gt;</text>
</a>
</g>
</g>
<!-- Node35&#45;&gt;Node14 -->
<g id="edge43" class="edge">
<title>Node35&#45;&gt;Node14</title>
<path fill="none" stroke="#9a32cd" stroke-dasharray="5,2" d="M1578.86,-314.27C1651.8,-310.86 1752.75,-311.46 1781,-338 1827.36,-381.56 1757.42,-431.85 1799,-480 1805.79,-487.86 1814.91,-493.25 1824.69,-496.92"/>
<polygon fill="#9a32cd" stroke="#9a32cd" points="1578.57,-310.78 1568.76,-314.77 1578.92,-317.77 1578.57,-310.78"/>
<text text-anchor="middle" x="1690.5" y="-341" font-family="Helvetica,sans-Serif" font-size="10.00"> cacheWeakPtr</text>
</g>
<!-- Node36 -->
<g id="node36" class="node">
<title>Node36</title>
<g id="a_node36"><a xlink:title=" ">
<polygon fill="white" stroke="#bfbfbf" points="1442.5,-271.5 1442.5,-290.5 1554.5,-290.5 1554.5,-271.5 1442.5,-271.5"/>
<text text-anchor="middle" x="1498.5" y="-278.5" font-family="Helvetica,sans-Serif" font-size="10.00">unique_ptr&lt; bool &gt;</text>
</a>
</g>
</g>
<!-- Node36&#45;&gt;Node14 -->
<g id="edge44" class="edge">
<title>Node36&#45;&gt;Node14</title>
<path fill="none" stroke="#9a32cd" stroke-dasharray="5,2" d="M1564.71,-272.83C1638.02,-265.24 1750.8,-258.89 1781,-287 1812.53,-316.35 1771.39,-446.94 1799,-480 1805.76,-488.09 1814.99,-493.58 1824.91,-497.27"/>
<polygon fill="#9a32cd" stroke="#9a32cd" points="1564.21,-269.36 1554.64,-273.91 1564.95,-276.33 1564.21,-269.36"/>
<text text-anchor="middle" x="1690.5" y="-301" font-family="Helvetica,sans-Serif" font-size="10.00"> matAssembleSwitch</text>
<text text-anchor="middle" x="1690.5" y="-290" font-family="Helvetica,sans-Serif" font-size="10.00">vecAssembleSwitch</text>
</g>
<!-- Node37 -->
<g id="node37" class="node">
<title>Node37</title>
<g id="a_node37"><a xlink:title=" ">
<polygon fill="white" stroke="#bfbfbf" points="1127,-1381.5 1127,-1400.5 1156,-1400.5 1156,-1381.5 1127,-1381.5"/>
<text text-anchor="middle" x="1141.5" y="-1388.5" font-family="Helvetica,sans-Serif" font-size="10.00">int</text>
</a>
</g>
</g>
<!-- Node37&#45;&gt;Node2 -->
<g id="edge86" class="edge">
<title>Node37&#45;&gt;Node2</title>
<path fill="none" stroke="#9a32cd" stroke-dasharray="5,2" d="M1166.58,-1393.89C1190.49,-1396.61 1228.22,-1400.48 1261,-1402 1403.51,-1408.6 1439.5,-1408.87 1582,-1402 2320.13,-1366.4 2517.32,-1409.79 3237,-1242 3271.25,-1234.02 3280.37,-1231.28 3311,-1214 3344.97,-1194.83 3379.71,-1164.2 3396.38,-1148.68"/>
<polygon fill="#9a32cd" stroke="#9a32cd" points="1166.67,-1390.38 1156.34,-1392.7 1165.87,-1397.33 1166.67,-1390.38"/>
<text text-anchor="middle" x="2458" y="-1398" font-family="Helvetica,sans-Serif" font-size="10.00"> nbIntegrationPts</text>
<text text-anchor="middle" x="2458" y="-1387" font-family="Helvetica,sans-Serif" font-size="10.00">nbCols</text>
<text text-anchor="middle" x="2458" y="-1376" font-family="Helvetica,sans-Serif" font-size="10.00">nbRows</text>
</g>
<!-- Node37&#45;&gt;Node14 -->
<g id="edge45" class="edge">
<title>Node37&#45;&gt;Node14</title>
<path fill="none" stroke="#9a32cd" stroke-dasharray="5,2" d="M1166.2,-1395.55C1213.07,-1403.34 1319.79,-1414.95 1397,-1377 1404.33,-1373.4 1777.98,-939.58 1781,-932 1797.13,-891.49 1774.02,-575.73 1799,-540 1808,-527.13 1822.52,-518.85 1837.09,-513.52"/>
<polygon fill="#9a32cd" stroke="#9a32cd" points="1166.58,-1392.06 1156.12,-1393.78 1165.36,-1398.96 1166.58,-1392.06"/>
<text text-anchor="middle" x="1498.5" y="-1390" font-family="Helvetica,sans-Serif" font-size="10.00"> sIze</text>
<text text-anchor="middle" x="1498.5" y="-1379" font-family="Helvetica,sans-Serif" font-size="10.00">loopSize</text>
<text text-anchor="middle" x="1498.5" y="-1368" font-family="Helvetica,sans-Serif" font-size="10.00">nInTheLoop</text>
<text text-anchor="middle" x="1498.5" y="-1357" font-family="Helvetica,sans-Serif" font-size="10.00">rAnk</text>
</g>
<!-- Node37&#45;&gt;Node39 -->
<g id="edge57" class="edge">
<title>Node37&#45;&gt;Node39</title>
<path fill="none" stroke="#9a32cd" stroke-dasharray="5,2" d="M1159.98,-1374.44C1181.99,-1354.36 1221.71,-1320.65 1261,-1300 1317.24,-1270.44 1348.66,-1297.22 1397,-1256 1459.53,-1202.69 1487.74,-1100.85 1495.32,-1068.86"/>
<polygon fill="#9a32cd" stroke="#9a32cd" points="1157.41,-1372.05 1152.45,-1381.41 1162.16,-1377.19 1157.41,-1372.05"/>
<text text-anchor="middle" x="1329" y="-1369" font-family="Helvetica,sans-Serif" font-size="10.00"> tagNameSize</text>
<text text-anchor="middle" x="1329" y="-1358" font-family="Helvetica,sans-Serif" font-size="10.00">nbDofsRow</text>
<text text-anchor="middle" x="1329" y="-1347" font-family="Helvetica,sans-Serif" font-size="10.00">nbLocDofsCol</text>
<text text-anchor="middle" x="1329" y="-1336" font-family="Helvetica,sans-Serif" font-size="10.00">nbDofsCol</text>
<text text-anchor="middle" x="1329" y="-1325" font-family="Helvetica,sans-Serif" font-size="10.00">nbGhostDofsRow</text>
<text text-anchor="middle" x="1329" y="-1314" font-family="Helvetica,sans-Serif" font-size="10.00">nbGhostDofsCol</text>
<text text-anchor="middle" x="1329" y="-1303" font-family="Helvetica,sans-Serif" font-size="10.00">nbLocDofsRow</text>
</g>
<!-- Node38 -->
<g id="node38" class="node">
<title>Node38</title>
<g id="a_node38"><a xlink:title=" ">
<polygon fill="white" stroke="#bfbfbf" points="1415,-215.5 1415,-234.5 1582,-234.5 1582,-215.5 1415,-215.5"/>
<text text-anchor="middle" x="1498.5" y="-222.5" font-family="Helvetica,sans-Serif" font-size="10.00">function&lt; MoFEMErrorCode()&gt;</text>
</a>
</g>
</g>
<!-- Node38&#45;&gt;Node14 -->
<g id="edge46" class="edge">
<title>Node38&#45;&gt;Node14</title>
<path fill="none" stroke="#9a32cd" stroke-dasharray="5,2" d="M1535.2,-212.25C1594.81,-193.49 1714.58,-167.08 1781,-230 1821.44,-268.31 1763.75,-436.87 1799,-480 1805.67,-488.16 1814.87,-493.68 1824.77,-497.38"/>
<polygon fill="#9a32cd" stroke="#9a32cd" points="1533.91,-208.98 1525.48,-215.4 1536.07,-215.64 1533.91,-208.98"/>
<text text-anchor="middle" x="1690.5" y="-255" font-family="Helvetica,sans-Serif" font-size="10.00"> preProcessHook</text>
<text text-anchor="middle" x="1690.5" y="-244" font-family="Helvetica,sans-Serif" font-size="10.00">operatorHook</text>
<text text-anchor="middle" x="1690.5" y="-233" font-family="Helvetica,sans-Serif" font-size="10.00">postProcessHook</text>
</g>
<!-- Node39&#45;&gt;Node14 -->
<g id="edge47" class="edge">
<title>Node39&#45;&gt;Node14</title>
<path fill="none" stroke="#9a32cd" stroke-dasharray="5,2" d="M1513.82,-1041.14C1559.69,-983.06 1704.42,-792.94 1781,-613 1794.09,-582.25 1777.27,-565.38 1799,-540 1809.84,-527.34 1825.88,-519.03 1841.18,-513.64"/>
<polygon fill="#9a32cd" stroke="#9a32cd" points="1510.81,-1039.3 1507.33,-1049.3 1516.3,-1043.65 1510.81,-1039.3"/>
<text text-anchor="middle" x="1690.5" y="-920" font-family="Helvetica,sans-Serif" font-size="10.00"> problemPtr</text>
</g>
<!-- Node40 -->
<g id="node40" class="node">
<title>Node40</title>
<g id="a_node40"><a xlink:title=" ">
<polygon fill="white" stroke="#bfbfbf" points="1058,-1214 1058,-1244 1225,-1244 1225,-1214 1058,-1214"/>
<text text-anchor="start" x="1066" y="-1232" font-family="Helvetica,sans-Serif" font-size="10.00">shared_ptr&lt; NumeredEntFinite</text>
<text text-anchor="middle" x="1141.5" y="-1221" font-family="Helvetica,sans-Serif" font-size="10.00">Element_multiIndex &gt;</text>
</a>
</g>
</g>
<!-- Node40&#45;&gt;Node39 -->
<g id="edge48" class="edge">
<title>Node40&#45;&gt;Node39</title>
<path fill="none" stroke="#9a32cd" stroke-dasharray="5,2" d="M1232.47,-1212.14C1242.1,-1210.38 1251.75,-1208.64 1261,-1207 1321.36,-1196.29 1344.13,-1215.02 1397,-1184 1446,-1155.25 1480.72,-1092.95 1492.81,-1068.82"/>
<polygon fill="#9a32cd" stroke="#9a32cd" points="1231.67,-1208.73 1222.47,-1213.97 1232.93,-1215.61 1231.67,-1208.73"/>
<text text-anchor="middle" x="1329" y="-1210" font-family="Helvetica,sans-Serif" font-size="10.00"> numeredFiniteElementsPtr</text>
</g>
<!-- Node41 -->
<g id="node41" class="node">
<title>Node41</title>
<g id="a_node41"><a xlink:title=" ">
<polygon fill="white" stroke="#bfbfbf" points="1112,-1175.5 1112,-1194.5 1171,-1194.5 1171,-1175.5 1112,-1175.5"/>
<text text-anchor="middle" x="1141.5" y="-1182.5" font-family="Helvetica,sans-Serif" font-size="10.00">BitFEId *</text>
</a>
</g>
</g>
<!-- Node41&#45;&gt;Node39 -->
<g id="edge49" class="edge">
<title>Node41&#45;&gt;Node39</title>
<path fill="none" stroke="#9a32cd" stroke-dasharray="5,2" d="M1181.36,-1180.93C1247.78,-1173.8 1377.86,-1158.92 1397,-1150 1438.6,-1130.61 1475.14,-1087.96 1490.19,-1068.73"/>
<polygon fill="#9a32cd" stroke="#9a32cd" points="1180.84,-1177.47 1171.27,-1182.01 1181.59,-1184.43 1180.84,-1177.47"/>
<text text-anchor="middle" x="1329" y="-1174" font-family="Helvetica,sans-Serif" font-size="10.00"> tagBitFEId</text>
</g>
<!-- Node42 -->
<g id="node42" class="node">
<title>Node42</title>
<g id="a_node42"><a xlink:href="classEntityHandle.html" target="_top" xlink:title=" ">
<polygon fill="white" stroke="black" points="1101.5,-1137.5 1101.5,-1156.5 1181.5,-1156.5 1181.5,-1137.5 1101.5,-1137.5"/>
<text text-anchor="middle" x="1141.5" y="-1144.5" font-family="Helvetica,sans-Serif" font-size="10.00">EntityHandle</text>
</a>
</g>
</g>
<!-- Node42&#45;&gt;Node39 -->
<g id="edge50" class="edge">
<title>Node42&#45;&gt;Node39</title>
<path fill="none" stroke="#9a32cd" stroke-dasharray="5,2" d="M1192.08,-1144.91C1244.18,-1141.59 1328,-1133.03 1397,-1111 1429.38,-1100.66 1463.89,-1080.55 1482.87,-1068.59"/>
<polygon fill="#9a32cd" stroke="#9a32cd" points="1191.55,-1141.44 1181.78,-1145.53 1191.97,-1148.43 1191.55,-1141.44"/>
<text text-anchor="middle" x="1329" y="-1140" font-family="Helvetica,sans-Serif" font-size="10.00"> meshset</text>
</g>
<!-- Node43 -->
<g id="node43" class="node">
<title>Node43</title>
<g id="a_node43"><a xlink:title=" ">
<polygon fill="white" stroke="#bfbfbf" points="1067,-1088 1067,-1118 1216,-1118 1216,-1088 1067,-1088"/>
<text text-anchor="start" x="1075" y="-1106" font-family="Helvetica,sans-Serif" font-size="10.00">shared_ptr&lt; MoFEM::</text>
<text text-anchor="middle" x="1141.5" y="-1095" font-family="Helvetica,sans-Serif" font-size="10.00">ComposedProblemsData &gt;</text>
</a>
</g>
</g>
<!-- Node43&#45;&gt;Node39 -->
<g id="edge51" class="edge">
<title>Node43&#45;&gt;Node39</title>
<path fill="none" stroke="#9a32cd" stroke-dasharray="5,2" d="M1226.14,-1099.11C1275.96,-1096.04 1340.33,-1090.78 1397,-1082 1418.58,-1078.66 1442.42,-1073.28 1461.46,-1068.56"/>
<polygon fill="#9a32cd" stroke="#9a32cd" points="1225.83,-1095.62 1216.05,-1099.71 1226.25,-1102.61 1225.83,-1095.62"/>
<text text-anchor="middle" x="1329" y="-1099" font-family="Helvetica,sans-Serif" font-size="10.00"> composedProblemsData</text>
</g>
<!-- Node44 -->
<g id="node44" class="node">
<title>Node44</title>
<g id="a_node44"><a xlink:title=" ">
<polygon fill="white" stroke="#bfbfbf" points="1101,-1049.5 1101,-1068.5 1182,-1068.5 1182,-1049.5 1101,-1049.5"/>
<text text-anchor="middle" x="1141.5" y="-1056.5" font-family="Helvetica,sans-Serif" font-size="10.00">BitRefLevel *</text>
</a>
</g>
</g>
<!-- Node44&#45;&gt;Node39 -->
<g id="edge52" class="edge">
<title>Node44&#45;&gt;Node39</title>
<path fill="none" stroke="#9a32cd" stroke-dasharray="5,2" d="M1192.22,-1059C1260.17,-1059 1381.29,-1059 1448.74,-1059"/>
<polygon fill="#9a32cd" stroke="#9a32cd" points="1192.19,-1055.5 1182.19,-1059 1192.19,-1062.5 1192.19,-1055.5"/>
<text text-anchor="middle" x="1329" y="-1073" font-family="Helvetica,sans-Serif" font-size="10.00"> tagBitRefLevelMask</text>
<text text-anchor="middle" x="1329" y="-1062" font-family="Helvetica,sans-Serif" font-size="10.00">tagBitRefLevel</text>
</g>
<!-- Node45 -->
<g id="node45" class="node">
<title>Node45</title>
<g id="a_node45"><a xlink:title=" ">
<polygon fill="white" stroke="#bfbfbf" points="1056.5,-1000 1056.5,-1030 1226.5,-1030 1226.5,-1000 1056.5,-1000"/>
<text text-anchor="start" x="1064.5" y="-1018" font-family="Helvetica,sans-Serif" font-size="10.00">shared_ptr&lt; NumeredDofEntity</text>
<text text-anchor="middle" x="1141.5" y="-1007" font-family="Helvetica,sans-Serif" font-size="10.00">_multiIndex &gt;</text>
</a>
</g>
</g>
<!-- Node45&#45;&gt;Node39 -->
<g id="edge53" class="edge">
<title>Node45&#45;&gt;Node39</title>
<path fill="none" stroke="#9a32cd" stroke-dasharray="5,2" d="M1236.73,-1017.56C1284.91,-1019.91 1344.35,-1024.4 1397,-1033 1420.66,-1036.86 1446.86,-1043.73 1466.58,-1049.44"/>
<polygon fill="#9a32cd" stroke="#9a32cd" points="1236.77,-1014.06 1226.62,-1017.09 1236.45,-1021.05 1236.77,-1014.06"/>
<text text-anchor="middle" x="1329" y="-1047" font-family="Helvetica,sans-Serif" font-size="10.00"> numeredRowDofsPtr</text>
<text text-anchor="middle" x="1329" y="-1036" font-family="Helvetica,sans-Serif" font-size="10.00">numeredColDofsPtr</text>
</g>
<!-- Node46 -->
<g id="node46" class="node">
<title>Node46</title>
<g id="a_node46"><a xlink:title=" ">
<polygon fill="white" stroke="#bfbfbf" points="1072.5,-961.5 1072.5,-980.5 1210.5,-980.5 1210.5,-961.5 1072.5,-961.5"/>
<text text-anchor="middle" x="1141.5" y="-968.5" font-family="Helvetica,sans-Serif" font-size="10.00">vector&lt; BlockFieldPair &gt;</text>
</a>
</g>
</g>
<!-- Node46&#45;&gt;Node39 -->
<g id="edge55" class="edge">
<title>Node46&#45;&gt;Node39</title>
<path fill="none" stroke="#9a32cd" stroke-dasharray="5,2" d="M1220.68,-974.17C1271.87,-978 1339.64,-986.44 1397,-1005 1429.98,-1015.67 1464.83,-1036.99 1483.59,-1049.41"/>
<polygon fill="#9a32cd" stroke="#9a32cd" points="1220.9,-970.68 1210.67,-973.46 1220.4,-977.66 1220.9,-970.68"/>
<text text-anchor="middle" x="1329" y="-1008" font-family="Helvetica,sans-Serif" font-size="10.00"> emptyFieldBlocks</text>
</g>
<!-- Node47 -->
<g id="node47" class="node">
<title>Node47</title>
<g id="a_node47"><a xlink:title=" ">
<polygon fill="white" stroke="#bfbfbf" points="1063.5,-912 1063.5,-942 1219.5,-942 1219.5,-912 1063.5,-912"/>
<text text-anchor="start" x="1071.5" y="-930" font-family="Helvetica,sans-Serif" font-size="10.00">shared_ptr&lt; MoFEM::</text>
<text text-anchor="middle" x="1141.5" y="-919" font-family="Helvetica,sans-Serif" font-size="10.00">Problem::SubProblemData &gt;</text>
</a>
</g>
</g>
<!-- Node47&#45;&gt;Node39 -->
<g id="edge56" class="edge">
<title>Node47&#45;&gt;Node39</title>
<path fill="none" stroke="#9a32cd" stroke-dasharray="5,2" d="M1229.54,-926.73C1280.57,-929.65 1345.01,-938.83 1397,-964 1439.57,-984.61 1476.14,-1029.76 1490.73,-1049.47"/>
<polygon fill="#9a32cd" stroke="#9a32cd" points="1229.68,-923.23 1219.52,-926.23 1229.33,-930.22 1229.68,-923.23"/>
<text text-anchor="middle" x="1329" y="-967" font-family="Helvetica,sans-Serif" font-size="10.00"> subProblemData</text>
</g>
<!-- Node48 -->
<g id="node48" class="node">
<title>Node48</title>
<g id="a_node48"><a xlink:title=" ">
<polygon fill="white" stroke="#bfbfbf" points="1040,-873.5 1040,-892.5 1243,-892.5 1243,-873.5 1040,-873.5"/>
<text text-anchor="middle" x="1141.5" y="-880.5" font-family="Helvetica,sans-Serif" font-size="10.00">shared_ptr&lt; SequenceDofContainer &gt;</text>
</a>
</g>
</g>
<!-- Node48&#45;&gt;Node39 -->
<g id="edge58" class="edge">
<title>Node48&#45;&gt;Node39</title>
<path fill="none" stroke="#9a32cd" stroke-dasharray="5,2" d="M1215.64,-872.65C1269.52,-868.72 1342.58,-871.46 1397,-904 1454.8,-938.57 1485.4,-1020.72 1494.53,-1049.13"/>
<polygon fill="#9a32cd" stroke="#9a32cd" points="1215.16,-869.17 1205.48,-873.48 1215.73,-876.15 1215.16,-869.17"/>
<text text-anchor="middle" x="1329" y="-918" font-family="Helvetica,sans-Serif" font-size="10.00"> sequenceRowDofContainer</text>
<text text-anchor="middle" x="1329" y="-907" font-family="Helvetica,sans-Serif" font-size="10.00">sequenceColDofContainer</text>
</g>
<!-- Node49 -->
<g id="node49" class="node">
<title>Node49</title>
<g id="a_node49"><a xlink:title=" ">
<polygon fill="white" stroke="#bfbfbf" points="1097.5,-835.5 1097.5,-854.5 1185.5,-854.5 1185.5,-835.5 1097.5,-835.5"/>
<text text-anchor="middle" x="1141.5" y="-842.5" font-family="Helvetica,sans-Serif" font-size="10.00">BitProblemId *</text>
</a>
</g>
</g>
<!-- Node49&#45;&gt;Node39 -->
<g id="edge59" class="edge">
<title>Node49&#45;&gt;Node39</title>
<path fill="none" stroke="#9a32cd" stroke-dasharray="5,2" d="M1192.13,-833.5C1246.95,-823.73 1335.57,-816.92 1397,-857 1467.86,-903.23 1490.69,-1015.25 1496.1,-1049.13"/>
<polygon fill="#9a32cd" stroke="#9a32cd" points="1191.15,-830.12 1181.97,-835.41 1192.45,-837 1191.15,-830.12"/>
<text text-anchor="middle" x="1329" y="-860" font-family="Helvetica,sans-Serif" font-size="10.00"> tagId</text>
</g>
<!-- Node50 -->
<g id="node50" class="node">
<title>Node50</title>
<g id="a_node50"><a xlink:title=" ">
<polygon fill="white" stroke="#bfbfbf" points="1805,-550 1805,-580 1967,-580 1967,-550 1805,-550"/>
<text text-anchor="start" x="1813" y="-568" font-family="Helvetica,sans-Serif" font-size="10.00">shared_ptr&lt; const MoFEM</text>
<text text-anchor="middle" x="1886" y="-557" font-family="Helvetica,sans-Serif" font-size="10.00">::NumeredEntFiniteElement &gt;</text>
</a>
</g>
</g>
<!-- Node50&#45;&gt;Node13 -->
<g id="edge60" class="edge">
<title>Node50&#45;&gt;Node13</title>
<path fill="none" stroke="#9a32cd" stroke-dasharray="5,2" d="M1977.54,-577.06C2048.18,-586.46 2143.85,-599.2 2202.4,-607"/>
<polygon fill="#9a32cd" stroke="#9a32cd" points="1977.68,-573.54 1967.3,-575.69 1976.75,-580.48 1977.68,-573.54"/>
<text text-anchor="middle" x="2063" y="-600" font-family="Helvetica,sans-Serif" font-size="10.00"> numeredEntFiniteElementPtr</text>
</g>
<!-- Node51 -->
<g id="node51" class="node">
<title>Node51</title>
<g id="a_node51"><a xlink:title=" ">
<polygon fill="white" stroke="#bfbfbf" points="1864,-953.5 1864,-972.5 1908,-972.5 1908,-953.5 1864,-953.5"/>
<text text-anchor="middle" x="1886" y="-960.5" font-family="Helvetica,sans-Serif" font-size="10.00">string</text>
</a>
</g>
</g>
<!-- Node51&#45;&gt;Node4 -->
<g id="edge83" class="edge">
<title>Node51&#45;&gt;Node4</title>
<path fill="none" stroke="#9a32cd" stroke-dasharray="5,2" d="M1918.46,-963.97C1994.28,-966.36 2193.14,-973.03 2359,-982 2522.69,-990.85 2563.63,-993.45 2727,-1007 2762.92,-1009.98 2802.53,-1013.77 2836.54,-1017.18"/>
<polygon fill="#9a32cd" stroke="#9a32cd" points="1918.28,-960.46 1908.18,-963.64 1918.07,-967.46 1918.28,-960.46"/>
<text text-anchor="middle" x="2458" y="-1007" font-family="Helvetica,sans-Serif" font-size="10.00"> colFieldName</text>
<text text-anchor="middle" x="2458" y="-996" font-family="Helvetica,sans-Serif" font-size="10.00">rowFieldName</text>
</g>
<!-- Node51&#45;&gt;Node13 -->
<g id="edge61" class="edge">
<title>Node51&#45;&gt;Node13</title>
<path fill="none" stroke="#9a32cd" stroke-dasharray="5,2" d="M1918.35,-964.66C1937.05,-963.83 1959.66,-959.29 1973,-944 2005.39,-906.87 1959.86,-761.19 1991,-723 2033.13,-671.34 2086.13,-726.34 2135,-681 2151.7,-665.5 2135.55,-647.64 2153,-633 2166.66,-621.54 2185.01,-616.1 2202.38,-613.74"/>
<polygon fill="#9a32cd" stroke="#9a32cd" points="1918.14,-961.17 1908.18,-964.78 1918.22,-968.17 1918.14,-961.17"/>
<text text-anchor="middle" x="2063" y="-726" font-family="Helvetica,sans-Serif" font-size="10.00"> feName</text>
</g>
<!-- Node52 -->
<g id="node52" class="node">
<title>Node52</title>
<g id="a_node52"><a xlink:title=" ">
<polygon fill="white" stroke="#bfbfbf" points="1804.5,-599 1804.5,-629 1967.5,-629 1967.5,-599 1804.5,-599"/>
<text text-anchor="start" x="1812.5" y="-617" font-family="Helvetica,sans-Serif" font-size="10.00">function&lt; bool(MoFEM</text>
<text text-anchor="middle" x="1886" y="-606" font-family="Helvetica,sans-Serif" font-size="10.00">::FEMethod *fe_method_ptr)&gt;</text>
</a>
</g>
</g>
<!-- Node52&#45;&gt;Node13 -->
<g id="edge62" class="edge">
<title>Node52&#45;&gt;Node13</title>
<path fill="none" stroke="#9a32cd" stroke-dasharray="5,2" d="M1977.98,-614C2048.52,-614 2143.82,-614 2202.26,-614"/>
<polygon fill="#9a32cd" stroke="#9a32cd" points="1977.76,-610.5 1967.76,-614 1977.76,-617.5 1977.76,-610.5"/>
<text text-anchor="middle" x="2063" y="-617" font-family="Helvetica,sans-Serif" font-size="10.00"> exeTestHook</text>
</g>
<!-- Node53 -->
<g id="node53" class="node">
<title>Node53</title>
<g id="a_node53"><a xlink:href="classdouble.html" target="_top" xlink:title=" ">
<polygon fill="white" stroke="black" points="2231,-906.5 2231,-925.5 2281,-925.5 2281,-906.5 2231,-906.5"/>
<text text-anchor="middle" x="2256" y="-913.5" font-family="Helvetica,sans-Serif" font-size="10.00">double</text>
</a>
</g>
</g>
<!-- Node53&#45;&gt;Node1 -->
<g id="edge91" class="edge">
<title>Node53&#45;&gt;Node1</title>
<path fill="none" stroke="#9a32cd" stroke-dasharray="5,2" d="M2291.27,-915.09C2379.49,-913.34 2621.37,-912.28 2819,-946 2904.82,-960.64 2940.7,-944.58 3007,-1001 3031.75,-1022.06 3043.38,-1114.36 3070,-1133 3164.73,-1199.33 3213.49,-1152.44 3329,-1158 3456.61,-1164.14 3490.76,-1167.22 3616,-1142 3625.38,-1140.11 3635.28,-1137.67 3644.76,-1135.11"/>
<polygon fill="#9a32cd" stroke="#9a32cd" points="2290.97,-911.6 2281.05,-915.31 2291.12,-918.6 2290.97,-911.6"/>
<text text-anchor="middle" x="3038.5" y="-1120" font-family="Helvetica,sans-Serif" font-size="10.00"> rhoN</text>
<text text-anchor="middle" x="3038.5" y="-1109" font-family="Helvetica,sans-Serif" font-size="10.00">rHo0</text>
</g>
<!-- Node53&#45;&gt;Node12 -->
<g id="edge63" class="edge">
<title>Node53&#45;&gt;Node12</title>
<path fill="none" stroke="#9a32cd" stroke-dasharray="5,2" d="M2291.27,-913.07C2348.94,-906.47 2466.21,-885.63 2539,-822 2604.11,-765.09 2631.8,-657.06 2639,-623.92"/>
<polygon fill="#9a32cd" stroke="#9a32cd" points="2290.79,-909.6 2281.22,-914.15 2291.53,-916.56 2290.79,-909.6"/>
<text text-anchor="middle" x="2458" y="-900" font-family="Helvetica,sans-Serif" font-size="10.00"> elementMeasure</text>
</g>
<!-- Node54 -->
<g id="node54" class="node">
<title>Node54</title>
<g id="a_node54"><a xlink:title=" ">
<polygon fill="white" stroke="#bfbfbf" points="2170,-358.5 2170,-399.5 2342,-399.5 2342,-358.5 2170,-358.5"/>
<text text-anchor="start" x="2178" y="-387.5" font-family="Helvetica,sans-Serif" font-size="10.00">array&lt; boost::shared</text>
<text text-anchor="start" x="2178" y="-376.5" font-family="Helvetica,sans-Serif" font-size="10.00">_ptr&lt; MoFEM::EntitiesFieldData</text>
<text text-anchor="middle" x="2256" y="-365.5" font-family="Helvetica,sans-Serif" font-size="10.00"> &gt;, LASTSPACE &gt;</text>
</a>
</g>
</g>
<!-- Node54&#45;&gt;Node12 -->
<g id="edge64" class="edge">
<title>Node54&#45;&gt;Node12</title>
<path fill="none" stroke="#9a32cd" stroke-dasharray="5,2" d="M2331.49,-356.06C2395.06,-341.55 2484.58,-333.97 2539,-385 2573.17,-417.04 2526.22,-559.69 2557,-595 2560.24,-598.72 2564.04,-601.8 2568.21,-604.33"/>
<polygon fill="#9a32cd" stroke="#9a32cd" points="2330.43,-352.71 2321.52,-358.44 2332.06,-359.52 2330.43,-352.71"/>
<text text-anchor="middle" x="2458" y="-399" font-family="Helvetica,sans-Serif" font-size="10.00"> derivedDataOnElement</text>
<text text-anchor="middle" x="2458" y="-388" font-family="Helvetica,sans-Serif" font-size="10.00">dataOnElement</text>
</g>
<!-- Node55 -->
<g id="node55" class="node">
<title>Node55</title>
<g id="a_node55"><a xlink:title=" ">
<polygon fill="white" stroke="#bfbfbf" points="2222,-320.5 2222,-339.5 2290,-339.5 2290,-320.5 2222,-320.5"/>
<text text-anchor="middle" x="2256" y="-327.5" font-family="Helvetica,sans-Serif" font-size="10.00">EntityType</text>
</a>
</g>
</g>
<!-- Node55&#45;&gt;Node12 -->
<g id="edge65" class="edge">
<title>Node55&#45;&gt;Node12</title>
<path fill="none" stroke="#9a32cd" stroke-dasharray="5,2" d="M2291.35,-317.04C2350.49,-297.2 2471.64,-267.85 2539,-331 2581.9,-371.22 2518.75,-550.34 2557,-595 2560.21,-598.75 2563.99,-601.84 2568.13,-604.4"/>
<polygon fill="#9a32cd" stroke="#9a32cd" points="2290.04,-313.79 2281.73,-320.36 2292.33,-320.4 2290.04,-313.79"/>
<text text-anchor="middle" x="2458" y="-334" font-family="Helvetica,sans-Serif" font-size="10.00"> lastEvaluatedElementEntityType</text>
</g>
<!-- Node56 -->
<g id="node56" class="node">
<title>Node56</title>
<g id="a_node56"><a xlink:href="structMoFEM_1_1DeprecatedCoreInterface.html" target="_top" xlink:title="Deprecated interface functions.">
<polygon fill="white" stroke="black" points="1600,-130.5 1600,-149.5 1781,-149.5 1781,-130.5 1600,-130.5"/>
<text text-anchor="middle" x="1690.5" y="-137.5" font-family="Helvetica,sans-Serif" font-size="10.00">MoFEM::DeprecatedCoreInterface</text>
</a>
</g>
</g>
<!-- Node56&#45;&gt;Node12 -->
<g id="edge66" class="edge">
<title>Node56&#45;&gt;Node12</title>
<path fill="none" stroke="#9a32cd" stroke-dasharray="5,2" d="M1720.72,-154.17C1738.46,-163.06 1761.39,-175.07 1781,-187 1953.3,-291.88 1965.17,-373.45 2153,-447 2233.62,-478.57 2476.24,-440.35 2539,-500 2570.15,-529.61 2527.15,-564.08 2557,-595 2560.63,-598.76 2564.85,-601.86 2569.41,-604.39"/>
<polygon fill="#9a32cd" stroke="#9a32cd" points="1721.96,-150.88 1711.45,-149.57 1718.85,-157.15 1721.96,-150.88"/>
<text text-anchor="middle" x="2063" y="-442" font-family="Helvetica,sans-Serif" font-size="10.00"> mField</text>
</g>
<!-- Node57&#45;&gt;Node56 -->
<g id="edge67" class="edge">
<title>Node57&#45;&gt;Node56</title>
<path fill="none" stroke="midnightblue" d="M1214.39,-108.73C1313.43,-115.25 1491.78,-126.99 1599.54,-134.08"/>
<polygon fill="midnightblue" stroke="midnightblue" points="1214.39,-105.22 1204.18,-108.06 1213.93,-112.21 1214.39,-105.22"/>
</g>
<!-- Node58 -->
<g id="node58" class="node">
<title>Node58</title>
<g id="a_node58"><a xlink:title=" ">
<polygon fill="white" stroke="#bfbfbf" points="2172.5,-692 2172.5,-744 2339.5,-744 2339.5,-692 2172.5,-692"/>
<text text-anchor="start" x="2180.5" y="-732" font-family="Helvetica,sans-Serif" font-size="10.00">function&lt; MoFEMErrorCode</text>
<text text-anchor="start" x="2180.5" y="-721" font-family="Helvetica,sans-Serif" font-size="10.00">(ForcesAndSourcesCore *fe</text>
<text text-anchor="start" x="2180.5" y="-710" font-family="Helvetica,sans-Serif" font-size="10.00">_raw_ptr, int order_row,</text>
<text text-anchor="middle" x="2256" y="-699" font-family="Helvetica,sans-Serif" font-size="10.00"> int order_col, int order_data)&gt;</text>
</a>
</g>
</g>
<!-- Node58&#45;&gt;Node12 -->
<g id="edge70" class="edge">
<title>Node58&#45;&gt;Node12</title>
<path fill="none" stroke="#9a32cd" stroke-dasharray="5,2" d="M2349.95,-704.8C2405.61,-695.52 2477.32,-681.14 2539,-661 2569.77,-650.95 2603.52,-634.17 2623.45,-623.62"/>
<polygon fill="#9a32cd" stroke="#9a32cd" points="2349.05,-701.4 2339.75,-706.47 2350.18,-708.31 2349.05,-701.4"/>
<text text-anchor="middle" x="2458" y="-703" font-family="Helvetica,sans-Serif" font-size="10.00"> setRuleHook</text>
</g>
<!-- Node59 -->
<g id="node59" class="node">
<title>Node59</title>
<g id="a_node59"><a xlink:title=" ">
<polygon fill="white" stroke="#bfbfbf" points="2155,-643 2155,-673 2357,-673 2357,-643 2155,-643"/>
<text text-anchor="start" x="2163" y="-661" font-family="Helvetica,sans-Serif" font-size="10.00">ptr_deque&lt; MoFEM::Forces</text>
<text text-anchor="middle" x="2256" y="-650" font-family="Helvetica,sans-Serif" font-size="10.00">AndSourcesCore::UserDataOperator &gt;</text>
</a>
</g>
</g>
<!-- Node59&#45;&gt;Node12 -->
<g id="edge71" class="edge">
<title>Node59&#45;&gt;Node12</title>
<path fill="none" stroke="#9a32cd" stroke-dasharray="5,2" d="M2367.52,-647.03C2419.58,-641.66 2482.53,-634.88 2539,-628 2550.27,-626.63 2562.22,-625.07 2573.83,-623.52"/>
<polygon fill="#9a32cd" stroke="#9a32cd" points="2366.84,-643.58 2357.25,-648.08 2367.56,-650.54 2366.84,-643.58"/>
<text text-anchor="middle" x="2458" y="-649" font-family="Helvetica,sans-Serif" font-size="10.00"> opPtrVector</text>
</g>
<!-- Node60 -->
<g id="node60" class="node">
<title>Node60</title>
<g id="a_node60"><a xlink:href="structMoFEM_1_1EntitiesFieldData.html" target="_top" xlink:title="data structure for finite element entity">
<polygon fill="white" stroke="black" points="2185,-763.5 2185,-782.5 2327,-782.5 2327,-763.5 2185,-763.5"/>
<text text-anchor="middle" x="2256" y="-770.5" font-family="Helvetica,sans-Serif" font-size="10.00">MoFEM::EntitiesFieldData</text>
</a>
</g>
</g>
<!-- Node60&#45;&gt;Node12 -->
<g id="edge72" class="edge">
<title>Node60&#45;&gt;Node12</title>
<path fill="none" stroke="#9a32cd" stroke-dasharray="5,2" d="M2337.16,-768.83C2396.02,-762.93 2476.3,-748.79 2539,-715 2582.44,-691.59 2619.7,-643.97 2634.35,-623.6"/>
<polygon fill="#9a32cd" stroke="#9a32cd" points="2336.8,-765.35 2327.17,-769.78 2337.45,-772.32 2336.8,-765.35"/>
<text text-anchor="middle" x="2458" y="-810" font-family="Helvetica,sans-Serif" font-size="10.00"> dataNoField</text>
<text text-anchor="middle" x="2458" y="-799" font-family="Helvetica,sans-Serif" font-size="10.00">dataL2</text>
<text text-anchor="middle" x="2458" y="-788" font-family="Helvetica,sans-Serif" font-size="10.00">dataH1</text>
<text text-anchor="middle" x="2458" y="-777" font-family="Helvetica,sans-Serif" font-size="10.00">dataHcurl</text>
<text text-anchor="middle" x="2458" y="-766" font-family="Helvetica,sans-Serif" font-size="10.00">dataHdiv</text>
</g>
<!-- Node61 -->
<g id="node61" class="node">
<title>Node61</title>
<g id="a_node61"><a xlink:title=" ">
<polygon fill="white" stroke="#bfbfbf" points="1805,-866 1805,-896 1967,-896 1967,-866 1805,-866"/>
<text text-anchor="start" x="1813" y="-884" font-family="Helvetica,sans-Serif" font-size="10.00">array&lt; std::bitset</text>
<text text-anchor="middle" x="1886" y="-873" font-family="Helvetica,sans-Serif" font-size="10.00">&lt; LASTBASE &gt;, LASTSPACE &gt;</text>
</a>
</g>
</g>
<!-- Node61&#45;&gt;Node60 -->
<g id="edge73" class="edge">
<title>Node61&#45;&gt;Node60</title>
<path fill="none" stroke="#9a32cd" stroke-dasharray="5,2" d="M1977.07,-865.48C2024.64,-856.17 2083.65,-842.85 2135,-826 2172,-813.86 2213.11,-794.29 2236.34,-782.63"/>
<polygon fill="#9a32cd" stroke="#9a32cd" points="1976.25,-862.07 1967.1,-867.4 1977.58,-868.94 1976.25,-862.07"/>
<text text-anchor="middle" x="2063" y="-876" font-family="Helvetica,sans-Serif" font-size="10.00"> brokenBasesOnSpaces</text>
<text text-anchor="middle" x="2063" y="-865" font-family="Helvetica,sans-Serif" font-size="10.00">basesOnSpaces</text>
</g>
<!-- Node62 -->
<g id="node62" class="node">
<title>Node62</title>
<g id="a_node62"><a xlink:title=" ">
<polygon fill="white" stroke="#bfbfbf" points="1809.5,-805.5 1809.5,-846.5 1962.5,-846.5 1962.5,-805.5 1809.5,-805.5"/>
<text text-anchor="start" x="1817.5" y="-834.5" font-family="Helvetica,sans-Serif" font-size="10.00">array&lt; boost::ptr_vector</text>
<text text-anchor="start" x="1817.5" y="-823.5" font-family="Helvetica,sans-Serif" font-size="10.00">&lt; MoFEM::EntitiesFieldData</text>
<text text-anchor="middle" x="1886" y="-812.5" font-family="Helvetica,sans-Serif" font-size="10.00">::EntData &gt;, MBMAXTYPE &gt;</text>
</a>
</g>
</g>
<!-- Node62&#45;&gt;Node60 -->
<g id="edge74" class="edge">
<title>Node62&#45;&gt;Node60</title>
<path fill="none" stroke="#9a32cd" stroke-dasharray="5,2" d="M1972.76,-813.65C2038.69,-804.15 2128.42,-791.23 2188.86,-782.53"/>
<polygon fill="#9a32cd" stroke="#9a32cd" points="1972.2,-810.19 1962.8,-815.08 1973.2,-817.12 1972.2,-810.19"/>
<text text-anchor="middle" x="2063" y="-814" font-family="Helvetica,sans-Serif" font-size="10.00"> dataOnEntities</text>
</g>
<!-- Node63 -->
<g id="node63" class="node">
<title>Node63</title>
<g id="a_node63"><a xlink:title=" ">
<polygon fill="white" stroke="#bfbfbf" points="1799,-756 1799,-786 1973,-786 1973,-756 1799,-756"/>
<text text-anchor="start" x="1807" y="-774" font-family="Helvetica,sans-Serif" font-size="10.00">array&lt; std::bitset</text>
<text text-anchor="middle" x="1886" y="-763" font-family="Helvetica,sans-Serif" font-size="10.00">&lt; LASTSPACE &gt;, MBMAXTYPE &gt;</text>
</a>
</g>
</g>
<!-- Node63&#45;&gt;Node60 -->
<g id="edge75" class="edge">
<title>Node63&#45;&gt;Node60</title>
<path fill="none" stroke="#9a32cd" stroke-dasharray="5,2" d="M1983.66,-771.53C2046.86,-771.87 2127.96,-772.31 2184.97,-772.62"/>
<polygon fill="#9a32cd" stroke="#9a32cd" points="1983.3,-768.02 1973.28,-771.47 1983.26,-775.02 1983.3,-768.02"/>
<text text-anchor="middle" x="2063" y="-776" font-family="Helvetica,sans-Serif" font-size="10.00"> spacesOnEntities</text>
</g>
<!-- Node64 -->
<g id="node64" class="node">
<title>Node64</title>
<g id="a_node64"><a xlink:title=" ">
<polygon fill="white" stroke="#bfbfbf" points="1801.5,-707 1801.5,-737 1970.5,-737 1970.5,-707 1801.5,-707"/>
<text text-anchor="start" x="1809.5" y="-725" font-family="Helvetica,sans-Serif" font-size="10.00">array&lt; std::bitset</text>
<text text-anchor="middle" x="1886" y="-714" font-family="Helvetica,sans-Serif" font-size="10.00">&lt; LASTBASE &gt;, MBMAXTYPE &gt;</text>
</a>
</g>
</g>
<!-- Node64&#45;&gt;Node60 -->
<g id="edge76" class="edge">
<title>Node64&#45;&gt;Node60</title>
<path fill="none" stroke="#9a32cd" stroke-dasharray="5,2" d="M1980.62,-734.97C2044.73,-743.86 2128.32,-755.44 2186.31,-763.48"/>
<polygon fill="#9a32cd" stroke="#9a32cd" points="1980.89,-731.48 1970.5,-733.57 1979.93,-738.41 1980.89,-731.48"/>
<text text-anchor="middle" x="2063" y="-759" font-family="Helvetica,sans-Serif" font-size="10.00"> basesOnEntities</text>
</g>
<!-- Node65 -->
<g id="node65" class="node">
<title>Node65</title>
<g id="a_node65"><a xlink:title=" ">
<polygon fill="white" stroke="#bfbfbf" points="1830,-648.5 1830,-667.5 1942,-667.5 1942,-648.5 1830,-648.5"/>
<text text-anchor="middle" x="1886" y="-655.5" font-family="Helvetica,sans-Serif" font-size="10.00">UBlasMatrix&lt; int &gt;</text>
</a>
</g>
</g>
<!-- Node65&#45;&gt;Node60 -->
<g id="edge77" class="edge">
<title>Node65&#45;&gt;Node60</title>
<path fill="none" stroke="#9a32cd" stroke-dasharray="5,2" d="M1952.09,-649.27C2016.16,-642.23 2108.19,-636.75 2135,-659 2167.73,-686.17 2122.99,-722.86 2153,-753 2161.66,-761.7 2172.91,-767.18 2184.77,-770.55"/>
<polygon fill="#9a32cd" stroke="#9a32cd" points="1951.6,-645.81 1942.06,-650.41 1952.39,-652.76 1951.6,-645.81"/>
<text text-anchor="middle" x="2063" y="-673" font-family="Helvetica,sans-Serif" font-size="10.00"> facesNodesOrder</text>
<text text-anchor="middle" x="2063" y="-662" font-family="Helvetica,sans-Serif" font-size="10.00">facesNodes</text>
</g>
<!-- Node66 -->
<g id="node66" class="node">
<title>Node66</title>
<g id="a_node66"><a xlink:title=" ">
<polygon fill="white" stroke="#bfbfbf" points="1827.5,-915.5 1827.5,-934.5 1944.5,-934.5 1944.5,-915.5 1827.5,-915.5"/>
<text text-anchor="middle" x="1886" y="-922.5" font-family="Helvetica,sans-Serif" font-size="10.00">bitset&lt; LASTBASE &gt;</text>
</a>
</g>
</g>
<!-- Node66&#45;&gt;Node60 -->
<g id="edge78" class="edge">
<title>Node66&#45;&gt;Node60</title>
<path fill="none" stroke="#9a32cd" stroke-dasharray="5,2" d="M1954.65,-925.84C2006.45,-923.96 2078.39,-915.77 2135,-888 2187.33,-862.33 2231.79,-805.57 2248.22,-782.76"/>
<polygon fill="#9a32cd" stroke="#9a32cd" points="1954.46,-922.34 1944.57,-926.13 1954.66,-929.34 1954.46,-922.34"/>
<text text-anchor="middle" x="2063" y="-927" font-family="Helvetica,sans-Serif" font-size="10.00"> bAse</text>
</g>
<!-- Node67 -->
<g id="node67" class="node">
<title>Node67</title>
<g id="a_node67"><a xlink:title=" ">
<polygon fill="white" stroke="#bfbfbf" points="2193.5,-544.5 2193.5,-585.5 2318.5,-585.5 2318.5,-544.5 2193.5,-544.5"/>
<text text-anchor="start" x="2201.5" y="-573.5" font-family="Helvetica,sans-Serif" font-size="10.00">function&lt; int(int order</text>
<text text-anchor="start" x="2201.5" y="-562.5" font-family="Helvetica,sans-Serif" font-size="10.00">_row, int order_col, int</text>
<text text-anchor="middle" x="2256" y="-551.5" font-family="Helvetica,sans-Serif" font-size="10.00"> order_data)&gt;</text>
</a>
</g>
</g>
<!-- Node67&#45;&gt;Node12 -->
<g id="edge79" class="edge">
<title>Node67&#45;&gt;Node12</title>
<path fill="none" stroke="#9a32cd" stroke-dasharray="5,2" d="M2328.67,-573.12C2385.7,-579.71 2467.53,-589.44 2539,-599 2551.6,-600.69 2565.05,-602.59 2577.92,-604.46"/>
<polygon fill="#9a32cd" stroke="#9a32cd" points="2329.01,-569.64 2318.67,-571.97 2328.2,-576.59 2329.01,-569.64"/>
<text text-anchor="middle" x="2458" y="-602" font-family="Helvetica,sans-Serif" font-size="10.00"> getRuleHook</text>
</g>
<!-- Node68 -->
<g id="node68" class="node">
<title>Node68</title>
<g id="a_node68"><a xlink:title=" ">
<polygon fill="white" stroke="#bfbfbf" points="2195,-495 2195,-525 2317,-525 2317,-495 2195,-495"/>
<text text-anchor="start" x="2203" y="-513" font-family="Helvetica,sans-Serif" font-size="10.00">shared_ptr&lt; MoFEM::</text>
<text text-anchor="middle" x="2256" y="-502" font-family="Helvetica,sans-Serif" font-size="10.00">BaseFunction &gt;</text>
</a>
</g>
</g>
<!-- Node68&#45;&gt;Node12 -->
<g id="edge80" class="edge">
<title>Node68&#45;&gt;Node12</title>
<path fill="none" stroke="#9a32cd" stroke-dasharray="5,2" d="M2327.27,-502.79C2389.24,-500.27 2478.8,-506.42 2539,-553 2555.06,-565.43 2541.39,-582.01 2557,-595 2561.6,-598.83 2566.81,-601.92 2572.33,-604.42"/>
<polygon fill="#9a32cd" stroke="#9a32cd" points="2327.01,-499.3 2317.19,-503.29 2327.35,-506.29 2327.01,-499.3"/>
<text text-anchor="middle" x="2458" y="-567" font-family="Helvetica,sans-Serif" font-size="10.00"> userPolynomialBasePtr</text>
<text text-anchor="middle" x="2458" y="-556" font-family="Helvetica,sans-Serif" font-size="10.00">elementPolynomialBasePtr</text>
</g>
<!-- Node69 -->
<g id="node69" class="node">
<title>Node69</title>
<g id="a_node69"><a xlink:href="classUBlasMatrix_3_01double_01_4.html" target="_top" xlink:title=" ">
<polygon fill="white" stroke="black" points="2190,-418.5 2190,-437.5 2322,-437.5 2322,-418.5 2190,-418.5"/>
<text text-anchor="middle" x="2256" y="-425.5" font-family="Helvetica,sans-Serif" font-size="10.00">UBlasMatrix&lt; double &gt;</text>
</a>
</g>
</g>
<!-- Node69&#45;&gt;Node12 -->
<g id="edge81" class="edge">
<title>Node69&#45;&gt;Node12</title>
<path fill="none" stroke="#9a32cd" stroke-dasharray="5,2" d="M2332.37,-417.73C2405.54,-409.61 2509.72,-403.55 2539,-430 2566.37,-454.72 2532.44,-567.48 2557,-595 2560.38,-598.79 2564.35,-601.91 2568.69,-604.47"/>
<polygon fill="#9a32cd" stroke="#9a32cd" points="2331.8,-414.28 2322.26,-418.89 2332.59,-421.23 2331.8,-414.28"/>
<text text-anchor="middle" x="2458" y="-444" font-family="Helvetica,sans-Serif" font-size="10.00"> coordsAtGaussPts</text>
<text text-anchor="middle" x="2458" y="-433" font-family="Helvetica,sans-Serif" font-size="10.00">gaussPts</text>
</g>
<!-- Node70 -->
<g id="node70" class="node">
<title>Node70</title>
<g id="a_node70"><a xlink:title=" ">
<polygon fill="white" stroke="#bfbfbf" points="2576.5,-566.5 2576.5,-585.5 2707.5,-585.5 2707.5,-566.5 2576.5,-566.5"/>
<text text-anchor="middle" x="2642" y="-573.5" font-family="Helvetica,sans-Serif" font-size="10.00">static const char *const</text>
</a>
</g>
</g>
<!-- Node70&#45;&gt;Node4 -->
<g id="edge82" class="edge">
<title>Node70&#45;&gt;Node4</title>
<path fill="none" stroke="#9a32cd" stroke-dasharray="5,2" d="M2717.21,-588.96C2720.65,-590.73 2723.94,-592.73 2727,-595 2873.44,-703.36 2911.79,-947.9 2919.39,-1010.95"/>
<polygon fill="#9a32cd" stroke="#9a32cd" points="2718.38,-585.65 2707.82,-584.79 2715.54,-592.05 2718.38,-585.65"/>
<text text-anchor="middle" x="2782" y="-702" font-family="Helvetica,sans-Serif" font-size="10.00"> OpTypeNames</text>
</g>
<!-- Node71 -->
<g id="node71" class="node">
<title>Node71</title>
<g id="a_node71"><a xlink:title=" ">
<polygon fill="white" stroke="#bfbfbf" points="3070,-1093 3070,-1123 3237,-1123 3237,-1093 3070,-1093"/>
<text text-anchor="start" x="3078" y="-1111" font-family="Helvetica,sans-Serif" font-size="10.00">shared_ptr&lt; DataAtIntegration</text>
<text text-anchor="middle" x="3153.5" y="-1100" font-family="Helvetica,sans-Serif" font-size="10.00">Pts &gt;</text>
</a>
</g>
</g>
<!-- Node71&#45;&gt;Node2 -->
<g id="edge84" class="edge">
<title>Node71&#45;&gt;Node2</title>
<path fill="none" stroke="#9a32cd" stroke-dasharray="5,2" d="M3246.98,-1119.38C3288.9,-1124.53 3336.15,-1130.35 3368.28,-1134.3"/>
<polygon fill="#9a32cd" stroke="#9a32cd" points="3247.37,-1115.9 3237.01,-1118.15 3246.51,-1122.85 3247.37,-1115.9"/>
<text text-anchor="middle" x="3283" y="-1130" font-family="Helvetica,sans-Serif" font-size="10.00"> dataAtPts</text>
</g>
<!-- Node72 -->
<g id="node72" class="node">
<title>Node72</title>
<g id="a_node72"><a xlink:title=" ">
<polygon fill="white" stroke="#bfbfbf" points="3112,-1054.5 3112,-1073.5 3195,-1073.5 3195,-1054.5 3112,-1054.5"/>
<text text-anchor="middle" x="3153.5" y="-1061.5" font-family="Helvetica,sans-Serif" font-size="10.00">MatrixDouble</text>
</a>
</g>
</g>
<!-- Node72&#45;&gt;Node2 -->
<g id="edge85" class="edge">
<title>Node72&#45;&gt;Node2</title>
<path fill="none" stroke="#9a32cd" stroke-dasharray="5,2" d="M3205.44,-1064.11C3237.96,-1066.4 3279.73,-1073.63 3311,-1094 3322.78,-1101.67 3317.42,-1112.03 3329,-1120 3340.53,-1127.93 3355.02,-1132.56 3368.35,-1135.26"/>
<polygon fill="#9a32cd" stroke="#9a32cd" points="3205.41,-1060.61 3195.23,-1063.54 3205.01,-1067.6 3205.41,-1060.61"/>
<text text-anchor="middle" x="3283" y="-1108" font-family="Helvetica,sans-Serif" font-size="10.00"> transK</text>
<text text-anchor="middle" x="3283" y="-1097" font-family="Helvetica,sans-Serif" font-size="10.00">K</text>
</g>
<!-- Node73 -->
<g id="node73" class="node">
<title>Node73</title>
<g id="a_node73"><a xlink:title=" ">
<polygon fill="white" stroke="#bfbfbf" points="3123.5,-1013.5 3123.5,-1032.5 3183.5,-1032.5 3183.5,-1013.5 3123.5,-1013.5"/>
<text text-anchor="middle" x="3153.5" y="-1020.5" font-family="Helvetica,sans-Serif" font-size="10.00">VectorInt</text>
</a>
</g>
</g>
<!-- Node73&#45;&gt;Node2 -->
<g id="edge88" class="edge">
<title>Node73&#45;&gt;Node2</title>
<path fill="none" stroke="#9a32cd" stroke-dasharray="5,2" d="M3194,-1017.5C3229.12,-1014.96 3279.64,-1017.42 3311,-1046 3336.02,-1068.8 3305.09,-1096.04 3329,-1120 3339.28,-1130.29 3354.16,-1135.34 3368.14,-1137.71"/>
<polygon fill="#9a32cd" stroke="#9a32cd" points="3193.28,-1014.05 3183.63,-1018.43 3193.9,-1021.02 3193.28,-1014.05"/>
<text text-anchor="middle" x="3283" y="-1060" font-family="Helvetica,sans-Serif" font-size="10.00"> rowIndices</text>
<text text-anchor="middle" x="3283" y="-1049" font-family="Helvetica,sans-Serif" font-size="10.00">colIndices</text>
</g>
<!-- Node74 -->
<g id="node74" class="node">
<title>Node74</title>
<g id="a_node74"><a xlink:title=" ">
<polygon fill="white" stroke="#bfbfbf" points="3112.5,-975.5 3112.5,-994.5 3194.5,-994.5 3194.5,-975.5 3112.5,-975.5"/>
<text text-anchor="middle" x="3153.5" y="-982.5" font-family="Helvetica,sans-Serif" font-size="10.00">VectorDouble</text>
</a>
</g>
</g>
<!-- Node74&#45;&gt;Node2 -->
<g id="edge89" class="edge">
<title>Node74&#45;&gt;Node2</title>
<path fill="none" stroke="#9a32cd" stroke-dasharray="5,2" d="M3204.86,-977.51C3239.31,-975.41 3283.55,-979.18 3311,-1006 3347.69,-1041.85 3294.28,-1082.24 3329,-1120 3339.03,-1130.91 3354.22,-1136.02 3368.5,-1138.27"/>
<polygon fill="#9a32cd" stroke="#9a32cd" points="3204.2,-974.05 3194.51,-978.33 3204.76,-981.03 3204.2,-974.05"/>
<text text-anchor="middle" x="3283" y="-1009" font-family="Helvetica,sans-Serif" font-size="10.00"> nF</text>
</g>
<!-- Node75 -->
<g id="node75" class="node">
<title>Node75</title>
<g id="a_node75"><a xlink:title=" ">
<polygon fill="white" stroke="#bfbfbf" points="3329,-1091.5 3329,-1110.5 3486,-1110.5 3486,-1091.5 3329,-1091.5"/>
<text text-anchor="middle" x="3407.5" y="-1098.5" font-family="Helvetica,sans-Serif" font-size="10.00">shared_ptr&lt; MatrixDouble &gt;</text>
</a>
</g>
</g>
<!-- Node75&#45;&gt;Node1 -->
<g id="edge90" class="edge">
<title>Node75&#45;&gt;Node1</title>
<path fill="none" stroke="#9a32cd" stroke-dasharray="5,2" d="M3496.68,-1103.19C3533.59,-1104.53 3576.92,-1106.65 3616,-1110 3621.71,-1110.49 3627.65,-1111.09 3633.59,-1111.74"/>
<polygon fill="#9a32cd" stroke="#9a32cd" points="3496.56,-1099.68 3486.44,-1102.83 3496.31,-1106.68 3496.56,-1099.68"/>
<text text-anchor="middle" x="3560" y="-1113" font-family="Helvetica,sans-Serif" font-size="10.00"> rhoGradAtGaussPtsPtr</text>
</g>
<!-- Node76 -->
<g id="node76" class="node">
<title>Node76</title>
<g id="a_node76"><a xlink:title=" ">
<polygon fill="white" stroke="#bfbfbf" points="3329.5,-1053.5 3329.5,-1072.5 3485.5,-1072.5 3485.5,-1053.5 3329.5,-1053.5"/>
<text text-anchor="middle" x="3407.5" y="-1060.5" font-family="Helvetica,sans-Serif" font-size="10.00">shared_ptr&lt; VectorDouble &gt;</text>
</a>
</g>
</g>
<!-- Node76&#45;&gt;Node1 -->
<g id="edge92" class="edge">
<title>Node76&#45;&gt;Node1</title>
<path fill="none" stroke="#9a32cd" stroke-dasharray="5,2" d="M3496.15,-1068.3C3533.52,-1071.9 3577.32,-1077.93 3616,-1088 3631.86,-1092.13 3648.78,-1098.77 3662.78,-1104.93"/>
<polygon fill="#9a32cd" stroke="#9a32cd" points="3496.07,-1064.77 3485.8,-1067.34 3495.43,-1071.74 3496.07,-1064.77"/>
<text text-anchor="middle" x="3560" y="-1091" font-family="Helvetica,sans-Serif" font-size="10.00"> rhoAtGaussPtsPtr</text>
</g>
</g>
</svg>
