<?xml version="1.0" encoding="UTF-8" standalone="no"?>
<!DOCTYPE svg PUBLIC "-//W3C//DTD SVG 1.1//EN"
 "http://www.w3.org/Graphics/SVG/1.1/DTD/svg11.dtd">
<!-- Generated by graphviz version 2.43.0 (0)
 -->
<!-- Title: OpAssembleK Pages: 1 -->
<!--zoomable 654 -->
<svg id="main" version="1.1" xmlns="http://www.w3.org/2000/svg" xmlns:xlink="http://www.w3.org/1999/xlink" xml:space="preserve" onload="init(evt)">
<style type="text/css"><![CDATA[
.edge:hover path { stroke: red; }
.edge:hover polygon { stroke: red; fill: red; }
]]></style>
<script type="text/javascript"><![CDATA[
var edges = document.getElementsByTagName('g');
if (edges && edges.length) {
  for (var i=0;i<edges.length;i++) {
    if (edges[i].id.substr(0,4)=='edge') {
      edges[i].setAttribute('class','edge');
    }
  }
}
]]></script>
        <defs>
                <circle id="rim" cx="0" cy="0" r="7"/>
                <circle id="rim2" cx="0" cy="0" r="3.5"/>
                <g id="zoomPlus">
                        <use xlink:href="#rim" fill="#404040">
                                <set attributeName="fill" to="#808080" begin="zoomplus.mouseover" end="zoomplus.mouseout"/>
                        </use>
                        <path d="M-4,0h8M0,-4v8" fill="none" stroke="white" stroke-width="1.5" pointer-events="none"/>
                </g>
                <g id="zoomMin">
                        <use xlink:href="#rim" fill="#404040">
                                <set attributeName="fill" to="#808080" begin="zoomminus.mouseover" end="zoomminus.mouseout"/>
                        </use>
                        <path d="M-4,0h8" fill="none" stroke="white" stroke-width="1.5" pointer-events="none"/>
                </g>
                <g id="dirArrow">
                        <path fill="none" stroke="white" stroke-width="1.5" d="M0,-3.0v7 M-2.5,-0.5L0,-3.0L2.5,-0.5"/>
                </g>
               <g id="resetDef">
                       <use xlink:href="#rim2" fill="#404040">
                               <set attributeName="fill" to="#808080" begin="reset.mouseover" end="reset.mouseout"/>
                       </use>
               </g>
        </defs>

<script type="text/javascript">
var viewWidth = 1865;
var viewHeight = 654;
var sectionId = 'dynsection-1';
</script>
<script xlink:href="svgpan.js"/>
<svg id="graph" class="graph">
<g id="viewport">
<title>OpAssembleK</title>
<polygon fill="white" stroke="transparent" points="-4,4 -4,-649.57 1861,-649.57 1861,4 -4,4"/>
<!-- Node1 -->
<g id="node1" class="node">
<title>Node1</title>
<g id="a_node1"><a xlink:title="Assemble K *.">
<polygon fill="#bfbfbf" stroke="black" points="1772,-549.07 1772,-568.07 1857,-568.07 1857,-549.07 1772,-549.07"/>
<text text-anchor="middle" x="1814.5" y="-556.07" font-family="Helvetica,sans-Serif" font-size="10.00">OpAssembleK</text>
</a>
</g>
</g>
<!-- Node2 -->
<g id="node2" class="node">
<title>Node2</title>
<g id="a_node2"><a xlink:title=" ">
<polygon fill="white" stroke="#bfbfbf" points="1554,-626.07 1554,-645.07 1659,-645.07 1659,-626.07 1554,-626.07"/>
<text text-anchor="middle" x="1606.5" y="-633.07" font-family="Helvetica,sans-Serif" font-size="10.00">UserDataOperator</text>
</a>
</g>
</g>
<!-- Node2&#45;&gt;Node1 -->
<g id="edge1" class="edge">
<title>Node2&#45;&gt;Node1</title>
<path fill="none" stroke="midnightblue" d="M1669.2,-632.57C1696.25,-629.38 1727.76,-623.04 1754,-610.57 1775.31,-600.44 1794.85,-580.45 1805.37,-568.42"/>
<polygon fill="midnightblue" stroke="midnightblue" points="1668.64,-629.11 1659.06,-633.64 1669.38,-636.07 1668.64,-629.11"/>
</g>
<!-- Node3 -->
<g id="node3" class="node">
<title>Node3</title>
<g id="a_node3"><a xlink:title=" ">
<polygon fill="white" stroke="#bfbfbf" points="1565,-588.07 1565,-607.07 1648,-607.07 1648,-588.07 1565,-588.07"/>
<text text-anchor="middle" x="1606.5" y="-595.07" font-family="Helvetica,sans-Serif" font-size="10.00">MatrixDouble</text>
</a>
</g>
</g>
<!-- Node3&#45;&gt;Node1 -->
<g id="edge2" class="edge">
<title>Node3&#45;&gt;Node1</title>
<path fill="none" stroke="#9a32cd" stroke-dasharray="5,2" d="M1658.1,-589.73C1686.39,-585.15 1722.24,-579.01 1754,-572.57 1760.66,-571.22 1767.7,-569.67 1774.53,-568.11"/>
<polygon fill="#9a32cd" stroke="#9a32cd" points="1657.36,-586.31 1648.04,-591.35 1658.47,-593.22 1657.36,-586.31"/>
<text text-anchor="middle" x="1719" y="-598.57" font-family="Helvetica,sans-Serif" font-size="10.00"> translocK</text>
<text text-anchor="middle" x="1719" y="-587.57" font-family="Helvetica,sans-Serif" font-size="10.00">locK</text>
</g>
<!-- Node4 -->
<g id="node4" class="node">
<title>Node4</title>
<g id="a_node4"><a xlink:href="structBlockData.html" target="_top" xlink:title=" ">
<polygon fill="white" stroke="black" points="1573,-503.07 1573,-522.07 1640,-522.07 1640,-503.07 1573,-503.07"/>
<text text-anchor="middle" x="1606.5" y="-510.07" font-family="Helvetica,sans-Serif" font-size="10.00">BlockData</text>
</a>
</g>
</g>
<!-- Node4&#45;&gt;Node1 -->
<g id="edge3" class="edge">
<title>Node4&#45;&gt;Node1</title>
<path fill="none" stroke="#9a32cd" stroke-dasharray="5,2" d="M1650.27,-515.8C1679.81,-518.73 1719.78,-524.1 1754,-533.57 1767.93,-537.43 1782.93,-543.75 1794.38,-549.07"/>
<polygon fill="#9a32cd" stroke="#9a32cd" points="1650.57,-512.31 1640.28,-514.86 1649.91,-519.28 1650.57,-512.31"/>
<text text-anchor="middle" x="1719" y="-536.57" font-family="Helvetica,sans-Serif" font-size="10.00"> dAta</text>
</g>
<!-- Node5 -->
<g id="node5" class="node">
<title>Node5</title>
<g id="a_node5"><a xlink:href="classdouble.html" target="_top" xlink:title=" ">
<polygon fill="white" stroke="black" points="989,-480.07 989,-499.07 1039,-499.07 1039,-480.07 989,-480.07"/>
<text text-anchor="middle" x="1014" y="-487.07" font-family="Helvetica,sans-Serif" font-size="10.00">double</text>
</a>
</g>
</g>
<!-- Node5&#45;&gt;Node4 -->
<g id="edge4" class="edge">
<title>Node5&#45;&gt;Node4</title>
<path fill="none" stroke="#9a32cd" stroke-dasharray="5,2" d="M1049.02,-491.2C1065.08,-491.95 1084.53,-492.84 1102,-493.57 1279.64,-501.01 1492.59,-508.61 1572.8,-511.43"/>
<polygon fill="#9a32cd" stroke="#9a32cd" points="1049.15,-487.7 1039,-490.73 1048.82,-494.7 1049.15,-487.7"/>
<text text-anchor="middle" x="1293.5" y="-539.57" font-family="Helvetica,sans-Serif" font-size="10.00"> chargeDensity</text>
<text text-anchor="middle" x="1293.5" y="-528.57" font-family="Helvetica,sans-Serif" font-size="10.00">pOisson</text>
<text text-anchor="middle" x="1293.5" y="-517.57" font-family="Helvetica,sans-Serif" font-size="10.00">epsPermit</text>
<text text-anchor="middle" x="1293.5" y="-506.57" font-family="Helvetica,sans-Serif" font-size="10.00">yOung</text>
</g>
<!-- Node8 -->
<g id="node8" class="node">
<title>Node8</title>
<g id="a_node8"><a xlink:href="classFTensor_1_1Tensor2.html" target="_top" xlink:title=" ">
<polygon fill="white" stroke="black" points="1221.5,-571.57 1221.5,-601.57 1365.5,-601.57 1365.5,-571.57 1221.5,-571.57"/>
<text text-anchor="start" x="1229.5" y="-589.57" font-family="Helvetica,sans-Serif" font-size="10.00">FTensor::Tensor2&lt; double,</text>
<text text-anchor="middle" x="1293.5" y="-578.57" font-family="Helvetica,sans-Serif" font-size="10.00"> 3, 3 &gt;</text>
</a>
</g>
</g>
<!-- Node5&#45;&gt;Node8 -->
<g id="edge8" class="edge">
<title>Node5&#45;&gt;Node8</title>
<path fill="none" stroke="#9a32cd" stroke-dasharray="5,2" d="M1048.8,-502.73C1064.86,-508.9 1084.37,-516.26 1102,-522.57 1150.95,-540.09 1207.45,-558.89 1246.13,-571.56"/>
<polygon fill="#9a32cd" stroke="#9a32cd" points="1049.87,-499.4 1039.28,-499.07 1047.36,-505.93 1049.87,-499.4"/>
<text text-anchor="middle" x="1143.5" y="-552.57" font-family="Helvetica,sans-Serif" font-size="10.00"> data</text>
</g>
<!-- Node11 -->
<g id="node11" class="node">
<title>Node11</title>
<g id="a_node11"><a xlink:href="structDataAtIntegrationPts.html" target="_top" xlink:title=" ">
<polygon fill="white" stroke="black" points="1547,-265.07 1547,-284.07 1666,-284.07 1666,-265.07 1547,-265.07"/>
<text text-anchor="middle" x="1606.5" y="-272.07" font-family="Helvetica,sans-Serif" font-size="10.00">DataAtIntegrationPts</text>
</a>
</g>
</g>
<!-- Node5&#45;&gt;Node11 -->
<g id="edge17" class="edge">
<title>Node5&#45;&gt;Node11</title>
<path fill="none" stroke="#9a32cd" stroke-dasharray="5,2" d="M1025.14,-470.85C1049.31,-428.44 1114.92,-325.62 1203,-285.57 1262.58,-258.48 1450.34,-265.14 1546.9,-270.66"/>
<polygon fill="#9a32cd" stroke="#9a32cd" points="1021.95,-469.38 1020.14,-479.82 1028.06,-472.79 1021.95,-469.38"/>
<text text-anchor="middle" x="1293.5" y="-343.57" font-family="Helvetica,sans-Serif" font-size="10.00"> blockPermittivity</text>
<text text-anchor="middle" x="1293.5" y="-332.57" font-family="Helvetica,sans-Serif" font-size="10.00">blockChrgDens</text>
<text text-anchor="middle" x="1293.5" y="-321.57" font-family="Helvetica,sans-Serif" font-size="10.00">mU</text>
<text text-anchor="middle" x="1293.5" y="-310.57" font-family="Helvetica,sans-Serif" font-size="10.00">lAmbda</text>
<text text-anchor="middle" x="1293.5" y="-299.57" font-family="Helvetica,sans-Serif" font-size="10.00">pOisson</text>
<text text-anchor="middle" x="1293.5" y="-288.57" font-family="Helvetica,sans-Serif" font-size="10.00">yOung</text>
</g>
<!-- Node23 -->
<g id="node23" class="node">
<title>Node23</title>
<g id="a_node23"><a xlink:href="classFTensor_1_1Ddg.html" target="_top" xlink:title=" ">
<polygon fill="white" stroke="black" points="1230.5,-441.57 1230.5,-471.57 1356.5,-471.57 1356.5,-441.57 1230.5,-441.57"/>
<text text-anchor="start" x="1238.5" y="-459.57" font-family="Helvetica,sans-Serif" font-size="10.00">FTensor::Ddg&lt; double,</text>
<text text-anchor="middle" x="1293.5" y="-448.57" font-family="Helvetica,sans-Serif" font-size="10.00"> 3, 3 &gt;</text>
</a>
</g>
</g>
<!-- Node5&#45;&gt;Node23 -->
<g id="edge26" class="edge">
<title>Node5&#45;&gt;Node23</title>
<path fill="none" stroke="#9a32cd" stroke-dasharray="5,2" d="M1049.29,-485.5C1094.4,-480.13 1174.51,-470.6 1230.42,-463.95"/>
<polygon fill="#9a32cd" stroke="#9a32cd" points="1048.66,-482.05 1039.14,-486.7 1049.48,-489 1048.66,-482.05"/>
<text text-anchor="middle" x="1143.5" y="-481.57" font-family="Helvetica,sans-Serif" font-size="10.00"> data</text>
</g>
<!-- Node6 -->
<g id="node6" class="node">
<title>Node6</title>
<g id="a_node6"><a xlink:href="classRange.html" target="_top" xlink:title=" ">
<polygon fill="white" stroke="black" points="1270,-399.07 1270,-418.07 1317,-418.07 1317,-399.07 1270,-399.07"/>
<text text-anchor="middle" x="1293.5" y="-406.07" font-family="Helvetica,sans-Serif" font-size="10.00">Range</text>
</a>
</g>
</g>
<!-- Node6&#45;&gt;Node4 -->
<g id="edge5" class="edge">
<title>Node6&#45;&gt;Node4</title>
<path fill="none" stroke="#9a32cd" stroke-dasharray="5,2" d="M1327.02,-400.02C1374.34,-389.43 1463.64,-376.53 1529,-409.57 1568.76,-429.67 1593.09,-481.23 1601.83,-502.83"/>
<polygon fill="#9a32cd" stroke="#9a32cd" points="1325.97,-396.67 1317.04,-402.37 1327.57,-403.49 1325.97,-396.67"/>
<text text-anchor="middle" x="1465.5" y="-456.57" font-family="Helvetica,sans-Serif" font-size="10.00"> tEts</text>
<text text-anchor="middle" x="1465.5" y="-445.57" font-family="Helvetica,sans-Serif" font-size="10.00">interfaceEnts</text>
<text text-anchor="middle" x="1465.5" y="-434.57" font-family="Helvetica,sans-Serif" font-size="10.00">internalDomainEnts</text>
<text text-anchor="middle" x="1465.5" y="-423.57" font-family="Helvetica,sans-Serif" font-size="10.00">domainEnts</text>
<text text-anchor="middle" x="1465.5" y="-412.57" font-family="Helvetica,sans-Serif" font-size="10.00">electrodeEnts</text>
</g>
<!-- Node6&#45;&gt;Node11 -->
<g id="edge24" class="edge">
<title>Node6&#45;&gt;Node11</title>
<path fill="none" stroke="#9a32cd" stroke-dasharray="5,2" d="M1327.46,-407.66C1345.51,-405.74 1367.5,-400.97 1384,-389.57 1396.17,-381.17 1389.61,-369.65 1402,-361.57 1449.86,-330.36 1477.25,-365.79 1529,-341.57 1558.42,-327.8 1585.07,-299.21 1597.73,-284.22"/>
<polygon fill="#9a32cd" stroke="#9a32cd" points="1327.04,-404.18 1317.36,-408.48 1327.61,-411.16 1327.04,-404.18"/>
<text text-anchor="middle" x="1465.5" y="-375.57" font-family="Helvetica,sans-Serif" font-size="10.00"> forcesOnlyOnEntitiesRow</text>
<text text-anchor="middle" x="1465.5" y="-364.57" font-family="Helvetica,sans-Serif" font-size="10.00">forcesOnlyOnEntitiesCol</text>
</g>
<!-- Node7 -->
<g id="node7" class="node">
<title>Node7</title>
<g id="a_node7"><a xlink:title=" ">
<polygon fill="white" stroke="#bfbfbf" points="1279,-621.07 1279,-640.07 1308,-640.07 1308,-621.07 1279,-621.07"/>
<text text-anchor="middle" x="1293.5" y="-628.07" font-family="Helvetica,sans-Serif" font-size="10.00">int</text>
</a>
</g>
</g>
<!-- Node7&#45;&gt;Node4 -->
<g id="edge6" class="edge">
<title>Node7&#45;&gt;Node4</title>
<path fill="none" stroke="#9a32cd" stroke-dasharray="5,2" d="M1318.14,-627.03C1336.41,-623.94 1362.17,-618.81 1384,-611.57 1459.69,-586.47 1473.87,-568.38 1547,-536.57 1558.27,-531.67 1570.88,-526.46 1581.5,-522.16"/>
<polygon fill="#9a32cd" stroke="#9a32cd" points="1317.41,-623.6 1308.09,-628.65 1318.52,-630.51 1317.41,-623.6"/>
<text text-anchor="middle" x="1465.5" y="-617.57" font-family="Helvetica,sans-Serif" font-size="10.00"> oRder</text>
<text text-anchor="middle" x="1465.5" y="-606.57" font-family="Helvetica,sans-Serif" font-size="10.00">iD</text>
</g>
<!-- Node8&#45;&gt;Node1 -->
<g id="edge7" class="edge">
<title>Node8&#45;&gt;Node1</title>
<path fill="none" stroke="#9a32cd" stroke-dasharray="5,2" d="M1375.55,-575.18C1384.46,-574.18 1393.41,-573.28 1402,-572.57 1537,-561.48 1697.62,-559.14 1771.95,-558.67"/>
<polygon fill="#9a32cd" stroke="#9a32cd" points="1375.05,-571.72 1365.52,-576.35 1375.86,-578.67 1375.05,-571.72"/>
<text text-anchor="middle" x="1606.5" y="-566.57" font-family="Helvetica,sans-Serif" font-size="10.00"> diffDiff</text>
</g>
<!-- Node9 -->
<g id="node9" class="node">
<title>Node9</title>
<g id="a_node9"><a xlink:href="classFTensor_1_1Tensor2.html" target="_top" xlink:title=" ">
<polygon fill="white" stroke="black" points="954,-541.07 954,-582.07 1074,-582.07 1074,-541.07 954,-541.07"/>
<text text-anchor="start" x="962" y="-570.07" font-family="Helvetica,sans-Serif" font-size="10.00">FTensor::Tensor2&lt; T,</text>
<text text-anchor="start" x="962" y="-559.07" font-family="Helvetica,sans-Serif" font-size="10.00"> Tensor_Dim0, Tensor</text>
<text text-anchor="middle" x="1014" y="-548.07" font-family="Helvetica,sans-Serif" font-size="10.00">_Dim1 &gt;</text>
</a>
</g>
</g>
<!-- Node9&#45;&gt;Node8 -->
<g id="edge9" class="edge">
<title>Node9&#45;&gt;Node8</title>
<path fill="none" stroke="orange" stroke-dasharray="5,2" d="M1084.29,-567.81C1126.08,-571.58 1179.22,-576.37 1221.35,-580.16"/>
<polygon fill="orange" stroke="orange" points="1084.46,-564.32 1074.19,-566.9 1083.84,-571.29 1084.46,-564.32"/>
<text text-anchor="middle" x="1143.5" y="-578.57" font-family="Helvetica,sans-Serif" font-size="10.00"> &lt; double, 3, 3 &gt;</text>
</g>
<!-- Node10 -->
<g id="node10" class="node">
<title>Node10</title>
<g id="a_node10"><a xlink:title=" ">
<polygon fill="white" stroke="#bfbfbf" points="794.5,-402.07 794.5,-421.07 823.5,-421.07 823.5,-402.07 794.5,-402.07"/>
<text text-anchor="middle" x="809" y="-409.07" font-family="Helvetica,sans-Serif" font-size="10.00">T</text>
</a>
</g>
</g>
<!-- Node10&#45;&gt;Node9 -->
<g id="edge10" class="edge">
<title>Node10&#45;&gt;Node9</title>
<path fill="none" stroke="#9a32cd" stroke-dasharray="5,2" d="M831.07,-427.14C867.89,-454.35 943.95,-510.55 985.1,-540.95"/>
<polygon fill="#9a32cd" stroke="#9a32cd" points="833.13,-424.31 823.01,-421.18 828.97,-429.94 833.13,-424.31"/>
<text text-anchor="middle" x="913.5" y="-497.57" font-family="Helvetica,sans-Serif" font-size="10.00"> data</text>
</g>
<!-- Node24 -->
<g id="node24" class="node">
<title>Node24</title>
<g id="a_node24"><a xlink:href="classFTensor_1_1Ddg.html" target="_top" xlink:title=" ">
<polygon fill="white" stroke="black" points="944,-342.57 944,-372.57 1084,-372.57 1084,-342.57 944,-342.57"/>
<text text-anchor="start" x="952" y="-360.57" font-family="Helvetica,sans-Serif" font-size="10.00">FTensor::Ddg&lt; T, Tensor</text>
<text text-anchor="middle" x="1014" y="-349.57" font-family="Helvetica,sans-Serif" font-size="10.00">_Dim01, Tensor_Dim23 &gt;</text>
</a>
</g>
</g>
<!-- Node10&#45;&gt;Node24 -->
<g id="edge28" class="edge">
<title>Node10&#45;&gt;Node24</title>
<path fill="none" stroke="#9a32cd" stroke-dasharray="5,2" d="M833.53,-405.31C863.34,-397.38 915.71,-383.45 956.2,-372.68"/>
<polygon fill="#9a32cd" stroke="#9a32cd" points="832.4,-401.99 823.63,-407.95 834.2,-408.76 832.4,-401.99"/>
<text text-anchor="middle" x="913.5" y="-388.57" font-family="Helvetica,sans-Serif" font-size="10.00"> data</text>
</g>
<!-- Node11&#45;&gt;Node1 -->
<g id="edge11" class="edge">
<title>Node11&#45;&gt;Node1</title>
<path fill="none" stroke="#9a32cd" stroke-dasharray="5,2" d="M1620.63,-292.67C1660.05,-347.02 1776.53,-507.61 1806.44,-548.84"/>
<polygon fill="#9a32cd" stroke="#9a32cd" points="1623.3,-290.39 1614.59,-284.35 1617.63,-294.5 1623.3,-290.39"/>
<text text-anchor="middle" x="1719" y="-477.57" font-family="Helvetica,sans-Serif" font-size="10.00"> commonData</text>
</g>
<!-- Node12 -->
<g id="node12" class="node">
<title>Node12</title>
<g id="a_node12"><a xlink:title=" ">
<polygon fill="white" stroke="#bfbfbf" points="1215,-18.07 1215,-37.07 1372,-37.07 1372,-18.07 1215,-18.07"/>
<text text-anchor="middle" x="1293.5" y="-25.07" font-family="Helvetica,sans-Serif" font-size="10.00">shared_ptr&lt; MatrixDouble &gt;</text>
</a>
</g>
</g>
<!-- Node12&#45;&gt;Node11 -->
<g id="edge12" class="edge">
<title>Node12&#45;&gt;Node11</title>
<path fill="none" stroke="#9a32cd" stroke-dasharray="5,2" d="M1332.09,-15.09C1382.23,-0.98 1471.36,14.92 1529,-27.57 1569.29,-57.27 1597.44,-222.65 1604.02,-264.8"/>
<polygon fill="#9a32cd" stroke="#9a32cd" points="1330.92,-11.79 1322.31,-17.96 1332.89,-18.5 1330.92,-11.79"/>
<text text-anchor="middle" x="1465.5" y="-140.57" font-family="Helvetica,sans-Serif" font-size="10.00"> eshelbyStress_dx</text>
<text text-anchor="middle" x="1465.5" y="-129.57" font-family="Helvetica,sans-Serif" font-size="10.00">invHMat</text>
<text text-anchor="middle" x="1465.5" y="-118.57" font-family="Helvetica,sans-Serif" font-size="10.00">stiffnessMat</text>
<text text-anchor="middle" x="1465.5" y="-107.57" font-family="Helvetica,sans-Serif" font-size="10.00">HMat</text>
<text text-anchor="middle" x="1465.5" y="-96.57" font-family="Helvetica,sans-Serif" font-size="10.00">FMat</text>
<text text-anchor="middle" x="1465.5" y="-85.57" font-family="Helvetica,sans-Serif" font-size="10.00">hMat</text>
<text text-anchor="middle" x="1465.5" y="-74.57" font-family="Helvetica,sans-Serif" font-size="10.00">gradDispPtr</text>
<text text-anchor="middle" x="1465.5" y="-63.57" font-family="Helvetica,sans-Serif" font-size="10.00">eshelbyStressMat</text>
<text text-anchor="middle" x="1465.5" y="-52.57" font-family="Helvetica,sans-Serif" font-size="10.00">cauchyStressMat</text>
<text text-anchor="middle" x="1465.5" y="-41.57" font-family="Helvetica,sans-Serif" font-size="10.00">smallStrainMat</text>
<text text-anchor="middle" x="1465.5" y="-30.57" font-family="Helvetica,sans-Serif" font-size="10.00">...</text>
</g>
<!-- Node13 -->
<g id="node13" class="node">
<title>Node13</title>
<g id="a_node13"><a xlink:href="structMoFEM_1_1SmartPetscObj.html" target="_top" xlink:title=" ">
<polygon fill="white" stroke="black" points="1228,-131.57 1228,-161.57 1359,-161.57 1359,-131.57 1228,-131.57"/>
<text text-anchor="start" x="1236" y="-149.57" font-family="Helvetica,sans-Serif" font-size="10.00">MoFEM::SmartPetscObj</text>
<text text-anchor="middle" x="1293.5" y="-138.57" font-family="Helvetica,sans-Serif" font-size="10.00">&lt; Vec &gt;</text>
</a>
</g>
</g>
<!-- Node13&#45;&gt;Node11 -->
<g id="edge13" class="edge">
<title>Node13&#45;&gt;Node11</title>
<path fill="none" stroke="#9a32cd" stroke-dasharray="5,2" d="M1369.43,-150.38C1427.52,-154.44 1502.44,-162.46 1529,-177.57 1565.72,-198.46 1591.23,-244.64 1601.03,-264.82"/>
<polygon fill="#9a32cd" stroke="#9a32cd" points="1369.38,-146.87 1359.17,-149.69 1368.91,-153.85 1369.38,-146.87"/>
<text text-anchor="middle" x="1465.5" y="-180.57" font-family="Helvetica,sans-Serif" font-size="10.00"> petscVec</text>
</g>
<!-- Node14 -->
<g id="node14" class="node">
<title>Node14</title>
<g id="a_node14"><a xlink:title=" ">
<polygon fill="white" stroke="#bfbfbf" points="951,-126.07 951,-167.07 1077,-167.07 1077,-126.07 951,-126.07"/>
<text text-anchor="start" x="959" y="-155.07" font-family="Helvetica,sans-Serif" font-size="10.00">boost::intrusive_ptr</text>
<text text-anchor="start" x="959" y="-144.07" font-family="Helvetica,sans-Serif" font-size="10.00">&lt; std::remove_pointer</text>
<text text-anchor="middle" x="1014" y="-133.07" font-family="Helvetica,sans-Serif" font-size="10.00">&lt; Vec &gt;::type &gt;</text>
</a>
</g>
</g>
<!-- Node14&#45;&gt;Node13 -->
<g id="edge14" class="edge">
<title>Node14&#45;&gt;Node13</title>
<path fill="none" stroke="midnightblue" d="M1087.48,-146.57C1130.87,-146.57 1185.56,-146.57 1227.54,-146.57"/>
<polygon fill="midnightblue" stroke="midnightblue" points="1087.28,-143.07 1077.28,-146.57 1087.28,-150.07 1087.28,-143.07"/>
</g>
<!-- Node15 -->
<g id="node15" class="node">
<title>Node15</title>
<g id="a_node15"><a xlink:href="structMoFEM_1_1SmartPetscObj.html" target="_top" xlink:title="intrusive_ptr for managing petsc objects">
<polygon fill="white" stroke="black" points="948.5,-76.57 948.5,-106.57 1079.5,-106.57 1079.5,-76.57 948.5,-76.57"/>
<text text-anchor="start" x="956.5" y="-94.57" font-family="Helvetica,sans-Serif" font-size="10.00">MoFEM::SmartPetscObj</text>
<text text-anchor="middle" x="1014" y="-83.57" font-family="Helvetica,sans-Serif" font-size="10.00">&lt; OBJ &gt;</text>
</a>
</g>
</g>
<!-- Node15&#45;&gt;Node13 -->
<g id="edge15" class="edge">
<title>Node15&#45;&gt;Node13</title>
<path fill="none" stroke="orange" stroke-dasharray="5,2" d="M1089.58,-106.35C1132.67,-114.9 1186.36,-125.54 1227.69,-133.73"/>
<polygon fill="orange" stroke="orange" points="1090.2,-102.91 1079.71,-104.4 1088.84,-109.78 1090.2,-102.91"/>
<text text-anchor="middle" x="1143.5" y="-127.57" font-family="Helvetica,sans-Serif" font-size="10.00"> &lt; Vec &gt;</text>
</g>
<!-- Node16 -->
<g id="node16" class="node">
<title>Node16</title>
<g id="a_node16"><a xlink:title=" ">
<polygon fill="white" stroke="#bfbfbf" points="746,-71.07 746,-112.07 872,-112.07 872,-71.07 746,-71.07"/>
<text text-anchor="start" x="754" y="-100.07" font-family="Helvetica,sans-Serif" font-size="10.00">boost::intrusive_ptr</text>
<text text-anchor="start" x="754" y="-89.07" font-family="Helvetica,sans-Serif" font-size="10.00">&lt; std::remove_pointer</text>
<text text-anchor="middle" x="809" y="-78.07" font-family="Helvetica,sans-Serif" font-size="10.00">&lt; OBJ &gt;::type &gt;</text>
</a>
</g>
</g>
<!-- Node16&#45;&gt;Node15 -->
<g id="edge16" class="edge">
<title>Node16&#45;&gt;Node15</title>
<path fill="none" stroke="midnightblue" d="M882.09,-91.57C903.65,-91.57 927.15,-91.57 948.21,-91.57"/>
<polygon fill="midnightblue" stroke="midnightblue" points="882.01,-88.07 872.01,-91.57 882.01,-95.07 882.01,-88.07"/>
</g>
<!-- Node17 -->
<g id="node17" class="node">
<title>Node17</title>
<g id="a_node17"><a xlink:href="structMoFEM_1_1DeprecatedCoreInterface.html" target="_top" xlink:title="Deprecated interface functions.">
<polygon fill="white" stroke="black" points="1203,-183.07 1203,-202.07 1384,-202.07 1384,-183.07 1203,-183.07"/>
<text text-anchor="middle" x="1293.5" y="-190.07" font-family="Helvetica,sans-Serif" font-size="10.00">MoFEM::DeprecatedCoreInterface</text>
</a>
</g>
</g>
<!-- Node17&#45;&gt;Node11 -->
<g id="edge18" class="edge">
<title>Node17&#45;&gt;Node11</title>
<path fill="none" stroke="#9a32cd" stroke-dasharray="5,2" d="M1394.35,-192.29C1437.04,-195.02 1486.68,-202.1 1529,-218.57 1556,-229.08 1582.03,-251.61 1595.67,-264.66"/>
<polygon fill="#9a32cd" stroke="#9a32cd" points="1394.41,-188.78 1384.22,-191.71 1394.01,-195.77 1394.41,-188.78"/>
<text text-anchor="middle" x="1465.5" y="-221.57" font-family="Helvetica,sans-Serif" font-size="10.00"> mField</text>
</g>
<!-- Node18 -->
<g id="node18" class="node">
<title>Node18</title>
<g id="a_node18"><a xlink:href="structMoFEM_1_1CoreInterface.html" target="_top" xlink:title="Interface.">
<polygon fill="white" stroke="black" points="951.5,-186.07 951.5,-205.07 1076.5,-205.07 1076.5,-186.07 951.5,-186.07"/>
<text text-anchor="middle" x="1014" y="-193.07" font-family="Helvetica,sans-Serif" font-size="10.00">MoFEM::CoreInterface</text>
</a>
</g>
</g>
<!-- Node18&#45;&gt;Node17 -->
<g id="edge19" class="edge">
<title>Node18&#45;&gt;Node17</title>
<path fill="none" stroke="midnightblue" d="M1086.84,-194.8C1122.27,-194.41 1165.35,-193.95 1202.91,-193.54"/>
<polygon fill="midnightblue" stroke="midnightblue" points="1086.55,-191.3 1076.59,-194.91 1086.62,-198.3 1086.55,-191.3"/>
</g>
<!-- Node19 -->
<g id="node19" class="node">
<title>Node19</title>
<g id="a_node19"><a xlink:href="structMoFEM_1_1UnknownInterface.html" target="_top" xlink:title="base class for all interface classes">
<polygon fill="white" stroke="black" points="735,-186.07 735,-205.07 883,-205.07 883,-186.07 735,-186.07"/>
<text text-anchor="middle" x="809" y="-193.07" font-family="Helvetica,sans-Serif" font-size="10.00">MoFEM::UnknownInterface</text>
</a>
</g>
</g>
<!-- Node19&#45;&gt;Node18 -->
<g id="edge20" class="edge">
<title>Node19&#45;&gt;Node18</title>
<path fill="none" stroke="midnightblue" d="M893.09,-195.57C912.58,-195.57 933,-195.57 951.36,-195.57"/>
<polygon fill="midnightblue" stroke="midnightblue" points="893,-192.07 883,-195.57 893,-199.07 893,-192.07"/>
</g>
<!-- Node20 -->
<g id="node20" class="node">
<title>Node20</title>
<g id="a_node20"><a xlink:title=" ">
<polygon fill="white" stroke="#bfbfbf" points="386,-164.07 386,-227.07 627,-227.07 627,-164.07 386,-164.07"/>
<text text-anchor="start" x="394" y="-215.07" font-family="Helvetica,sans-Serif" font-size="10.00">multi_index_container</text>
<text text-anchor="start" x="394" y="-204.07" font-family="Helvetica,sans-Serif" font-size="10.00">&lt; UIdTypeMap, indexed</text>
<text text-anchor="start" x="394" y="-193.07" font-family="Helvetica,sans-Serif" font-size="10.00">_by&lt; hashed_unique&lt; member</text>
<text text-anchor="start" x="394" y="-182.07" font-family="Helvetica,sans-Serif" font-size="10.00">&lt; UIdTypeMap, boost::typeindex</text>
<text text-anchor="middle" x="506.5" y="-171.07" font-family="Helvetica,sans-Serif" font-size="10.00">::type_index, &amp;UIdTypeMap::classIdx &gt; &gt; &gt; &gt;</text>
</a>
</g>
</g>
<!-- Node20&#45;&gt;Node19 -->
<g id="edge21" class="edge">
<title>Node20&#45;&gt;Node19</title>
<path fill="none" stroke="#9a32cd" stroke-dasharray="5,2" d="M637.41,-195.57C670.69,-195.57 705.33,-195.57 734.62,-195.57"/>
<polygon fill="#9a32cd" stroke="#9a32cd" points="637.13,-192.07 627.13,-195.57 637.13,-199.07 637.13,-192.07"/>
<text text-anchor="middle" x="681" y="-198.57" font-family="Helvetica,sans-Serif" font-size="10.00"> iFaceTypeMap</text>
</g>
<!-- Node21 -->
<g id="node21" class="node">
<title>Node21</title>
<g id="a_node21"><a xlink:title=" ">
<polygon fill="white" stroke="#bfbfbf" points="0,-186.07 0,-205.07 125,-205.07 125,-186.07 0,-186.07"/>
<text text-anchor="middle" x="62.5" y="-193.07" font-family="Helvetica,sans-Serif" font-size="10.00">multi_index_container</text>
</a>
</g>
</g>
<!-- Node21&#45;&gt;Node20 -->
<g id="edge22" class="edge">
<title>Node21&#45;&gt;Node20</title>
<path fill="none" stroke="orange" stroke-dasharray="5,2" d="M135.56,-195.57C203.25,-195.57 305.79,-195.57 385.77,-195.57"/>
<polygon fill="orange" stroke="orange" points="135.42,-192.07 125.42,-195.57 135.42,-199.07 135.42,-192.07"/>
<text text-anchor="start" x="143" y="-231.57" font-family="Helvetica,sans-Serif" font-size="10.00"> &lt; UIdTypeMap, indexed</text>
<text text-anchor="start" x="143" y="-220.57" font-family="Helvetica,sans-Serif" font-size="10.00">_by&lt; hashed_unique&lt; member</text>
<text text-anchor="start" x="143" y="-209.57" font-family="Helvetica,sans-Serif" font-size="10.00">&lt; UIdTypeMap, boost::typeindex</text>
<text text-anchor="middle" x="255.5" y="-198.57" font-family="Helvetica,sans-Serif" font-size="10.00">::type_index, &amp;UIdTypeMap::classIdx &gt; &gt; &gt; &gt;</text>
</g>
<!-- Node22 -->
<g id="node22" class="node">
<title>Node22</title>
<g id="a_node22"><a xlink:title=" ">
<polygon fill="white" stroke="#bfbfbf" points="1215.5,-361.07 1215.5,-380.07 1371.5,-380.07 1371.5,-361.07 1215.5,-361.07"/>
<text text-anchor="middle" x="1293.5" y="-368.07" font-family="Helvetica,sans-Serif" font-size="10.00">shared_ptr&lt; VectorDouble &gt;</text>
</a>
</g>
</g>
<!-- Node22&#45;&gt;Node11 -->
<g id="edge23" class="edge">
<title>Node22&#45;&gt;Node11</title>
<path fill="none" stroke="#9a32cd" stroke-dasharray="5,2" d="M1367.56,-356.96C1373.47,-354.12 1379.05,-350.7 1384,-346.57 1398.35,-334.6 1387.09,-319.84 1402,-308.57 1407.82,-304.17 1488.73,-291.59 1546.75,-283.03"/>
<polygon fill="#9a32cd" stroke="#9a32cd" points="1365.92,-353.85 1358.06,-360.95 1368.63,-360.3 1365.92,-353.85"/>
<text text-anchor="middle" x="1465.5" y="-333.57" font-family="Helvetica,sans-Serif" font-size="10.00"> pPtr</text>
<text text-anchor="middle" x="1465.5" y="-322.57" font-family="Helvetica,sans-Serif" font-size="10.00">detHVec</text>
<text text-anchor="middle" x="1465.5" y="-311.57" font-family="Helvetica,sans-Serif" font-size="10.00">energyVec</text>
</g>
<!-- Node23&#45;&gt;Node11 -->
<g id="edge25" class="edge">
<title>Node23&#45;&gt;Node11</title>
<path fill="none" stroke="#9a32cd" stroke-dasharray="5,2" d="M1366.78,-468.08C1425.77,-475.85 1503.39,-481.87 1529,-464.57 1592.36,-421.78 1603.25,-316.85 1605.12,-284.34"/>
<polygon fill="#9a32cd" stroke="#9a32cd" points="1367.12,-464.6 1356.74,-466.72 1366.18,-471.53 1367.12,-464.6"/>
<text text-anchor="middle" x="1465.5" y="-478.57" font-family="Helvetica,sans-Serif" font-size="10.00"> tD</text>
</g>
<!-- Node24&#45;&gt;Node23 -->
<g id="edge27" class="edge">
<title>Node24&#45;&gt;Node23</title>
<path fill="none" stroke="orange" stroke-dasharray="5,2" d="M1063.81,-376.41C1101.64,-390.84 1155.44,-411.02 1203,-427.57 1216.42,-432.24 1231.06,-437.09 1244.53,-441.45"/>
<polygon fill="orange" stroke="orange" points="1064.66,-372.98 1054.07,-372.68 1062.16,-379.52 1064.66,-372.98"/>
<text text-anchor="middle" x="1143.5" y="-422.57" font-family="Helvetica,sans-Serif" font-size="10.00"> &lt; double, 3, 3 &gt;</text>
</g>
<!-- Node25 -->
<g id="node25" class="node">
<title>Node25</title>
<g id="a_node25"><a xlink:title=" ">
<polygon fill="white" stroke="#bfbfbf" points="1228.5,-221.07 1228.5,-240.07 1358.5,-240.07 1358.5,-221.07 1228.5,-221.07"/>
<text text-anchor="middle" x="1293.5" y="-228.07" font-family="Helvetica,sans-Serif" font-size="10.00">map&lt; int, BlockData &gt;</text>
</a>
</g>
</g>
<!-- Node25&#45;&gt;Node11 -->
<g id="edge29" class="edge">
<title>Node25&#45;&gt;Node11</title>
<path fill="none" stroke="#9a32cd" stroke-dasharray="5,2" d="M1369.03,-232.15C1415.43,-234.23 1476.14,-238.95 1529,-249.57 1546.81,-253.15 1566.26,-259.54 1581.09,-264.97"/>
<polygon fill="#9a32cd" stroke="#9a32cd" points="1368.9,-228.64 1358.76,-231.72 1368.61,-235.63 1368.9,-228.64"/>
<text text-anchor="middle" x="1465.5" y="-252.57" font-family="Helvetica,sans-Serif" font-size="10.00"> setOfBlocksData</text>
</g>
</g>
</svg>
        <g id="navigator" transform="translate(0 0)" fill="#404254">
                <rect fill="#f2f5e9" fill-opacity="0.5" stroke="#606060" stroke-width=".5" x="0" y="0" width="60" height="60"/>
                <use id="zoomplus" xlink:href="#zoomPlus" x="17" y="9" onmousedown="handleZoom(evt,'in')"/>
                <use id="zoomminus" xlink:href="#zoomMin" x="42" y="9" onmousedown="handleZoom(evt,'out')"/>
                <use id="reset" xlink:href="#resetDef" x="30" y="36" onmousedown="handleReset()"/>
                <g id="arrowUp" xlink:href="#dirArrow" transform="translate(30 24)" onmousedown="handlePan(0,-1)">
                  <use xlink:href="#rim" fill="#404040">
                        <set attributeName="fill" to="#808080" begin="arrowUp.mouseover" end="arrowUp.mouseout"/>
                  </use>
                  <path fill="none" stroke="white" stroke-width="1.5" d="M0,-3.0v7 M-2.5,-0.5L0,-3.0L2.5,-0.5"/>
                </g>
                <g id="arrowRight" xlink:href="#dirArrow" transform="rotate(90) translate(36 -43)" onmousedown="handlePan(1,0)">
                  <use xlink:href="#rim" fill="#404040">
                        <set attributeName="fill" to="#808080" begin="arrowRight.mouseover" end="arrowRight.mouseout"/>
                  </use>
                  <path fill="none" stroke="white" stroke-width="1.5" d="M0,-3.0v7 M-2.5,-0.5L0,-3.0L2.5,-0.5"/>
                </g>
                <g id="arrowDown" xlink:href="#dirArrow" transform="rotate(180) translate(-30 -48)" onmousedown="handlePan(0,1)">
                  <use xlink:href="#rim" fill="#404040">
                        <set attributeName="fill" to="#808080" begin="arrowDown.mouseover" end="arrowDown.mouseout"/>
                  </use>
                  <path fill="none" stroke="white" stroke-width="1.5" d="M0,-3.0v7 M-2.5,-0.5L0,-3.0L2.5,-0.5"/>
                </g>
                <g id="arrowLeft" xlink:href="#dirArrow" transform="rotate(270) translate(-36 17)" onmousedown="handlePan(-1,0)">
                  <use xlink:href="#rim" fill="#404040">
                        <set attributeName="fill" to="#808080" begin="arrowLeft.mouseover" end="arrowLeft.mouseout"/>
                  </use>
                  <path fill="none" stroke="white" stroke-width="1.5" d="M0,-3.0v7 M-2.5,-0.5L0,-3.0L2.5,-0.5"/>
                </g>
        </g>
        <svg viewBox="0 0 15 15" width="100%" height="30px" preserveAspectRatio="xMaxYMin meet">
         <g id="arrow_out" transform="scale(0.3 0.3)">
          <a xlink:href="structOpAssembleK__coll__graph_org.svg" target="_base">
           <rect id="button" ry="5" rx="5" y="6" x="6" height="38" width="38"
                fill="#f2f5e9" fill-opacity="0.5" stroke="#606060" stroke-width="1.0"/>
           <path id="arrow"
             d="M 11.500037,31.436501 C 11.940474,20.09759 22.043105,11.32322 32.158766,21.979434 L 37.068811,17.246167 C 37.068811,17.246167 37.088388,32 37.088388,32 L 22.160133,31.978069 C 22.160133,31.978069 26.997745,27.140456 26.997745,27.140456 C 18.528582,18.264221 13.291696,25.230495 11.500037,31.436501 z"
             style="fill:#404040;"/>
          </a>
         </g>
        </svg>
</svg>
