<?xml version="1.0" encoding="UTF-8" standalone="no"?>
<!DOCTYPE svg PUBLIC "-//W3C//DTD SVG 1.1//EN"
 "http://www.w3.org/Graphics/SVG/1.1/DTD/svg11.dtd">
<!-- Generated by graphviz version 2.43.0 (0)
 -->
<!-- Title: FractureMechanics::MWLSApprox::OpMWLSStressAtGaussPts Pages: 1 -->
<svg width="926pt" height="88pt"
 viewBox="0.00 0.00 926.00 88.00" xmlns="http://www.w3.org/2000/svg" xmlns:xlink="http://www.w3.org/1999/xlink">
<g id="graph0" class="graph" transform="scale(1 1) rotate(0) translate(4 84)">
<title>FractureMechanics::MWLSApprox::OpMWLSStressAtGaussPts</title>
<polygon fill="white" stroke="transparent" points="-4,4 -4,-84 922,-84 922,4 -4,4"/>
<!-- Node1 -->
<g id="node1" class="node">
<title>Node1</title>
<g id="a_node1"><a xlink:title="Evaluate stress at integration points.">
<polygon fill="#bfbfbf" stroke="black" points="746,-19 746,-60 918,-60 918,-19 746,-19"/>
<text text-anchor="start" x="754" y="-48" font-family="Helvetica,sans-Serif" font-size="10.00">FractureMechanics::</text>
<text text-anchor="start" x="754" y="-37" font-family="Helvetica,sans-Serif" font-size="10.00">MWLSApprox::OpMWLSStressAt</text>
<text text-anchor="middle" x="832" y="-26" font-family="Helvetica,sans-Serif" font-size="10.00">GaussPts</text>
</a>
</g>
</g>
<!-- Node2 -->
<g id="node2" class="node">
<title>Node2</title>
<g id="a_node2"><a xlink:href="structFractureMechanics_1_1MWLSApprox_1_1OpMWLSBase.html" target="_top" xlink:title=" ">
<polygon fill="white" stroke="black" points="515,-13.5 515,-65.5 709,-65.5 709,-13.5 515,-13.5"/>
<text text-anchor="start" x="523" y="-53.5" font-family="Helvetica,sans-Serif" font-size="10.00">FractureMechanics::</text>
<text text-anchor="start" x="523" y="-42.5" font-family="Helvetica,sans-Serif" font-size="10.00">MWLSApprox::OpMWLSBase</text>
<text text-anchor="start" x="523" y="-31.5" font-family="Helvetica,sans-Serif" font-size="10.00">&lt; VolumeElementForcesAndSources</text>
<text text-anchor="middle" x="612" y="-20.5" font-family="Helvetica,sans-Serif" font-size="10.00">Core &gt;</text>
</a>
</g>
</g>
<!-- Node2&#45;&gt;Node1 -->
<g id="edge1" class="edge">
<title>Node2&#45;&gt;Node1</title>
<path fill="none" stroke="midnightblue" d="M719.3,-39.5C728.22,-39.5 737.16,-39.5 745.89,-39.5"/>
<polygon fill="midnightblue" stroke="midnightblue" points="719.25,-36 709.25,-39.5 719.25,-43 719.25,-36"/>
</g>
<!-- Node3 -->
<g id="node3" class="node">
<title>Node3</title>
<g id="a_node3"><a xlink:title=" ">
<polygon fill="white" stroke="#bfbfbf" points="154,-49.5 154,-79.5 336,-79.5 336,-49.5 154,-49.5"/>
<text text-anchor="start" x="162" y="-67.5" font-family="Helvetica,sans-Serif" font-size="10.00">VolumeElementForcesAndSources</text>
<text text-anchor="middle" x="245" y="-56.5" font-family="Helvetica,sans-Serif" font-size="10.00">Core ::UserDataOperator</text>
</a>
</g>
</g>
<!-- Node3&#45;&gt;Node2 -->
<g id="edge2" class="edge">
<title>Node3&#45;&gt;Node2</title>
<path fill="none" stroke="midnightblue" d="M346.35,-59.83C392.3,-57.46 447.44,-54.27 497,-50.5 502.85,-50.05 508.86,-49.57 514.93,-49.05"/>
<polygon fill="midnightblue" stroke="midnightblue" points="345.9,-56.35 336.09,-60.36 346.26,-63.34 345.9,-56.35"/>
</g>
<!-- Node4 -->
<g id="node4" class="node">
<title>Node4</title>
<g id="a_node4"><a xlink:href="structFractureMechanics_1_1MWLSApprox_1_1OpMWLSBase.html" target="_top" xlink:title=" ">
<polygon fill="white" stroke="black" points="153,-0.5 153,-30.5 337,-30.5 337,-0.5 153,-0.5"/>
<text text-anchor="start" x="161" y="-18.5" font-family="Helvetica,sans-Serif" font-size="10.00">FractureMechanics::</text>
<text text-anchor="middle" x="245" y="-7.5" font-family="Helvetica,sans-Serif" font-size="10.00">MWLSApprox::OpMWLSBase&lt; T &gt;</text>
</a>
</g>
</g>
<!-- Node4&#45;&gt;Node2 -->
<g id="edge3" class="edge">
<title>Node4&#45;&gt;Node2</title>
<path fill="none" stroke="orange" stroke-dasharray="5,2" d="M347.48,-19.73C393.2,-21.9 447.85,-24.86 497,-28.5 502.85,-28.93 508.86,-29.41 514.93,-29.92"/>
<polygon fill="orange" stroke="orange" points="347.42,-16.22 337.27,-19.25 347.09,-23.21 347.42,-16.22"/>
<text text-anchor="start" x="355" y="-42.5" font-family="Helvetica,sans-Serif" font-size="10.00"> &lt; VolumeElementForcesAnd</text>
<text text-anchor="middle" x="426" y="-31.5" font-family="Helvetica,sans-Serif" font-size="10.00">SourcesCore &gt;</text>
</g>
<!-- Node5 -->
<g id="node5" class="node">
<title>Node5</title>
<g id="a_node5"><a xlink:title=" ">
<polygon fill="white" stroke="#bfbfbf" points="0,-6 0,-25 116,-25 116,-6 0,-6"/>
<text text-anchor="middle" x="58" y="-13" font-family="Helvetica,sans-Serif" font-size="10.00">T::UserDataOperator</text>
</a>
</g>
</g>
<!-- Node5&#45;&gt;Node4 -->
<g id="edge4" class="edge">
<title>Node5&#45;&gt;Node4</title>
<path fill="none" stroke="midnightblue" d="M126.06,-15.5C134.76,-15.5 143.79,-15.5 152.8,-15.5"/>
<polygon fill="midnightblue" stroke="midnightblue" points="126.02,-12 116.02,-15.5 126.02,-19 126.02,-12"/>
</g>
</g>
</svg>
