<?xml version="1.0" encoding="UTF-8" standalone="no"?>
<!DOCTYPE svg PUBLIC "-//W3C//DTD SVG 1.1//EN"
 "http://www.w3.org/Graphics/SVG/1.1/DTD/svg11.dtd">
<!-- Generated by graphviz version 2.43.0 (0)
 -->
<!-- Title: BasicBoundaryConditionsInterface::BasicBCVectorConst Pages: 1 -->
<svg width="789pt" height="387pt"
 viewBox="0.00 0.00 789.00 386.50" xmlns="http://www.w3.org/2000/svg" xmlns:xlink="http://www.w3.org/1999/xlink">
<g id="graph0" class="graph" transform="scale(1 1) rotate(0) translate(4 382.5)">
<title>BasicBoundaryConditionsInterface::BasicBCVectorConst</title>
<polygon fill="white" stroke="transparent" points="-4,4 -4,-382.5 785,-382.5 785,4 -4,4"/>
<!-- Node1 -->
<g id="node1" class="node">
<title>Node1</title>
<g id="a_node1"><a xlink:title=" ">
<polygon fill="#bfbfbf" stroke="black" points="596,-60.5 596,-90.5 781,-90.5 781,-60.5 596,-60.5"/>
<text text-anchor="start" x="604" y="-78.5" font-family="Helvetica,sans-Serif" font-size="10.00">BasicBoundaryConditionsInterface</text>
<text text-anchor="middle" x="688.5" y="-67.5" font-family="Helvetica,sans-Serif" font-size="10.00">::BasicBCVectorConst</text>
</a>
</g>
</g>
<!-- Node2 -->
<g id="node2" class="node">
<title>Node2</title>
<g id="a_node2"><a xlink:href="structMoFEM_1_1TimeScaleVector.html" target="_top" xlink:title="Force scale operator for reading four columns (time and vector)">
<polygon fill="white" stroke="black" points="371,-197 371,-216 517,-216 517,-197 371,-197"/>
<text text-anchor="middle" x="444" y="-204" font-family="Helvetica,sans-Serif" font-size="10.00">MoFEM::TimeScaleVector3</text>
</a>
</g>
</g>
<!-- Node2&#45;&gt;Node1 -->
<g id="edge1" class="edge">
<title>Node2&#45;&gt;Node1</title>
<path fill="none" stroke="midnightblue" d="M471.66,-192.1C517.86,-167.14 612.36,-116.09 659.48,-90.63"/>
<polygon fill="midnightblue" stroke="midnightblue" points="469.97,-189.03 462.83,-196.87 473.29,-195.19 469.97,-189.03"/>
</g>
<!-- Node3 -->
<g id="node3" class="node">
<title>Node3</title>
<g id="a_node3"><a xlink:href="structMoFEM_1_1ScalingMethod.html" target="_top" xlink:title=" ">
<polygon fill="white" stroke="black" points="94,-359 94,-378 225,-378 225,-359 94,-359"/>
<text text-anchor="middle" x="159.5" y="-366" font-family="Helvetica,sans-Serif" font-size="10.00">MoFEM::ScalingMethod</text>
</a>
</g>
</g>
<!-- Node3&#45;&gt;Node2 -->
<g id="edge2" class="edge">
<title>Node3&#45;&gt;Node2</title>
<path fill="none" stroke="midnightblue" d="M235.55,-359.3C270.48,-352.5 311.41,-340.74 344,-320.5 388.76,-292.7 424.26,-238.28 437.45,-216.18"/>
<polygon fill="midnightblue" stroke="midnightblue" points="234.59,-355.92 225.4,-361.18 235.86,-362.81 234.59,-355.92"/>
</g>
<!-- Node4 -->
<g id="node4" class="node">
<title>Node4</title>
<g id="a_node4"><a xlink:title=" ">
<polygon fill="white" stroke="#bfbfbf" points="127,-321 127,-340 192,-340 192,-321 127,-321"/>
<text text-anchor="middle" x="159.5" y="-328" font-family="Helvetica,sans-Serif" font-size="10.00">PetscBool</text>
</a>
</g>
</g>
<!-- Node4&#45;&gt;Node2 -->
<g id="edge3" class="edge">
<title>Node4&#45;&gt;Node2</title>
<path fill="none" stroke="#9a32cd" stroke-dasharray="5,2" d="M202.04,-319.04C210.94,-316.57 220.28,-313.96 229,-311.5 280.18,-297.06 296.22,-301.83 344,-278.5 379.33,-261.25 415.3,-231.33 432.53,-216.06"/>
<polygon fill="#9a32cd" stroke="#9a32cd" points="200.93,-315.72 192.23,-321.76 202.8,-322.46 200.93,-315.72"/>
<text text-anchor="middle" x="295.5" y="-308.5" font-family="Helvetica,sans-Serif" font-size="10.00"> fLg</text>
</g>
<!-- Node5 -->
<g id="node5" class="node">
<title>Node5</title>
<g id="a_node5"><a xlink:title=" ">
<polygon fill="white" stroke="#bfbfbf" points="90,-271.5 90,-301.5 229,-301.5 229,-271.5 90,-271.5"/>
<text text-anchor="start" x="98" y="-289.5" font-family="Helvetica,sans-Serif" font-size="10.00">map&lt; double, FTensor</text>
<text text-anchor="middle" x="159.5" y="-278.5" font-family="Helvetica,sans-Serif" font-size="10.00">::Tensor1&lt; double, 3 &gt; &gt;</text>
</a>
</g>
</g>
<!-- Node5&#45;&gt;Node2 -->
<g id="edge4" class="edge">
<title>Node5&#45;&gt;Node2</title>
<path fill="none" stroke="#9a32cd" stroke-dasharray="5,2" d="M229.33,-268.86C263.85,-259.83 306.24,-248.45 344,-237.5 367.53,-230.68 394,-222.36 413.64,-216.05"/>
<polygon fill="#9a32cd" stroke="#9a32cd" points="228.14,-265.55 219.35,-271.46 229.91,-272.33 228.14,-265.55"/>
<text text-anchor="middle" x="295.5" y="-266.5" font-family="Helvetica,sans-Serif" font-size="10.00"> tSeries</text>
</g>
<!-- Node6 -->
<g id="node6" class="node">
<title>Node6</title>
<g id="a_node6"><a xlink:title=" ">
<polygon fill="white" stroke="#bfbfbf" points="92,-211 92,-252 227,-252 227,-211 92,-211"/>
<text text-anchor="start" x="100" y="-240" font-family="Helvetica,sans-Serif" font-size="10.00">function&lt; FTensor::</text>
<text text-anchor="start" x="100" y="-229" font-family="Helvetica,sans-Serif" font-size="10.00">Tensor1&lt; double, SPACE</text>
<text text-anchor="middle" x="159.5" y="-218" font-family="Helvetica,sans-Serif" font-size="10.00">_DIM &gt;double)&gt;</text>
</a>
</g>
</g>
<!-- Node6&#45;&gt;Node2 -->
<g id="edge5" class="edge">
<title>Node6&#45;&gt;Node2</title>
<path fill="none" stroke="#9a32cd" stroke-dasharray="5,2" d="M237.19,-224.71C278.83,-221.03 330.01,-216.5 370.92,-212.88"/>
<polygon fill="#9a32cd" stroke="#9a32cd" points="236.74,-221.24 227.09,-225.61 237.36,-228.21 236.74,-221.24"/>
<text text-anchor="middle" x="295.5" y="-225.5" font-family="Helvetica,sans-Serif" font-size="10.00"> scalingMethod</text>
</g>
<!-- Node7 -->
<g id="node7" class="node">
<title>Node7</title>
<g id="a_node7"><a xlink:title=" ">
<polygon fill="white" stroke="#bfbfbf" points="145,-173 145,-192 174,-192 174,-173 145,-173"/>
<text text-anchor="middle" x="159.5" y="-180" font-family="Helvetica,sans-Serif" font-size="10.00">int</text>
</a>
</g>
</g>
<!-- Node7&#45;&gt;Node2 -->
<g id="edge6" class="edge">
<title>Node7&#45;&gt;Node2</title>
<path fill="none" stroke="#9a32cd" stroke-dasharray="5,2" d="M184.59,-181.91C219.75,-181.34 287.11,-181.31 344,-187.5 362.96,-189.56 383.73,-193.32 401.32,-196.94"/>
<polygon fill="#9a32cd" stroke="#9a32cd" points="184.29,-178.42 174.36,-182.11 184.43,-185.42 184.29,-178.42"/>
<text text-anchor="middle" x="295.5" y="-201.5" font-family="Helvetica,sans-Serif" font-size="10.00"> readFile</text>
<text text-anchor="middle" x="295.5" y="-190.5" font-family="Helvetica,sans-Serif" font-size="10.00">debug</text>
</g>
<!-- Node8 -->
<g id="node8" class="node">
<title>Node8</title>
<g id="a_node8"><a xlink:href="classbool.html" target="_top" xlink:title=" ">
<polygon fill="white" stroke="black" points="140.5,-135 140.5,-154 178.5,-154 178.5,-135 140.5,-135"/>
<text text-anchor="middle" x="159.5" y="-142" font-family="Helvetica,sans-Serif" font-size="10.00">bool</text>
</a>
</g>
</g>
<!-- Node8&#45;&gt;Node2 -->
<g id="edge7" class="edge">
<title>Node8&#45;&gt;Node2</title>
<path fill="none" stroke="#9a32cd" stroke-dasharray="5,2" d="M188.85,-145.58C225.27,-147.48 290.21,-152.67 344,-166.5 372.73,-173.89 404.22,-187.66 423.79,-196.96"/>
<polygon fill="#9a32cd" stroke="#9a32cd" points="188.66,-142.06 178.5,-145.08 188.33,-149.06 188.66,-142.06"/>
<text text-anchor="middle" x="295.5" y="-169.5" font-family="Helvetica,sans-Serif" font-size="10.00"> errorIfFileNotGiven</text>
</g>
<!-- Node9 -->
<g id="node9" class="node">
<title>Node9</title>
<g id="a_node9"><a xlink:title=" ">
<polygon fill="white" stroke="#bfbfbf" points="137.5,-97 137.5,-116 181.5,-116 181.5,-97 137.5,-97"/>
<text text-anchor="middle" x="159.5" y="-104" font-family="Helvetica,sans-Serif" font-size="10.00">string</text>
</a>
</g>
</g>
<!-- Node9&#45;&gt;Node2 -->
<g id="edge8" class="edge">
<title>Node9&#45;&gt;Node2</title>
<path fill="none" stroke="#9a32cd" stroke-dasharray="5,2" d="M192.03,-106.82C229.57,-108.2 293.54,-113.75 344,-134.5 380.76,-149.61 416.64,-181.07 433.31,-196.92"/>
<polygon fill="#9a32cd" stroke="#9a32cd" points="191.82,-103.31 181.72,-106.52 191.62,-110.31 191.82,-103.31"/>
<text text-anchor="middle" x="295.5" y="-137.5" font-family="Helvetica,sans-Serif" font-size="10.00"> nAme</text>
</g>
<!-- Node10 -->
<g id="node10" class="node">
<title>Node10</title>
<g id="a_node10"><a xlink:href="classdouble.html" target="_top" xlink:title=" ">
<polygon fill="white" stroke="black" points="134.5,-55 134.5,-74 184.5,-74 184.5,-55 134.5,-55"/>
<text text-anchor="middle" x="159.5" y="-62" font-family="Helvetica,sans-Serif" font-size="10.00">double</text>
</a>
</g>
</g>
<!-- Node10&#45;&gt;Node1 -->
<g id="edge9" class="edge">
<title>Node10&#45;&gt;Node1</title>
<path fill="none" stroke="#9a32cd" stroke-dasharray="5,2" d="M194.53,-65.21C274.52,-66.88 476.72,-71.1 595.84,-73.59"/>
<polygon fill="#9a32cd" stroke="#9a32cd" points="194.58,-61.71 184.51,-65 194.44,-68.71 194.58,-61.71"/>
<text text-anchor="middle" x="444" y="-74.5" font-family="Helvetica,sans-Serif" font-size="10.00"> sCale</text>
</g>
<!-- Node11 -->
<g id="node11" class="node">
<title>Node11</title>
<g id="a_node11"><a xlink:href="classFTensor_1_1Tensor1.html" target="_top" xlink:title=" ">
<polygon fill="white" stroke="black" points="362,-20 362,-39 526,-39 526,-20 362,-20"/>
<text text-anchor="middle" x="444" y="-27" font-family="Helvetica,sans-Serif" font-size="10.00">FTensor::Tensor1&lt; double, 3 &gt;</text>
</a>
</g>
</g>
<!-- Node10&#45;&gt;Node11 -->
<g id="edge11" class="edge">
<title>Node10&#45;&gt;Node11</title>
<path fill="none" stroke="#9a32cd" stroke-dasharray="5,2" d="M194.6,-58.55C210.5,-55.88 229.68,-52.83 247,-50.5 284.65,-45.44 326.5,-40.82 361.83,-37.21"/>
<polygon fill="#9a32cd" stroke="#9a32cd" points="193.96,-55.11 184.68,-60.23 195.13,-62.01 193.96,-55.11"/>
<text text-anchor="middle" x="295.5" y="-53.5" font-family="Helvetica,sans-Serif" font-size="10.00"> data</text>
</g>
<!-- Node11&#45;&gt;Node1 -->
<g id="edge10" class="edge">
<title>Node11&#45;&gt;Node1</title>
<path fill="none" stroke="#9a32cd" stroke-dasharray="5,2" d="M521.04,-40.6C539.71,-43.57 559.61,-46.95 578,-50.5 593.32,-53.45 609.75,-57 625.12,-60.49"/>
<polygon fill="#9a32cd" stroke="#9a32cd" points="521.54,-37.13 511.11,-39.03 520.45,-44.05 521.54,-37.13"/>
<text text-anchor="middle" x="561" y="-53.5" font-family="Helvetica,sans-Serif" font-size="10.00"> tForce</text>
</g>
<!-- Node12 -->
<g id="node12" class="node">
<title>Node12</title>
<g id="a_node12"><a xlink:href="classFTensor_1_1Tensor1.html" target="_top" xlink:title=" ">
<polygon fill="white" stroke="black" points="101,-0.5 101,-30.5 218,-30.5 218,-0.5 101,-0.5"/>
<text text-anchor="start" x="109" y="-18.5" font-family="Helvetica,sans-Serif" font-size="10.00">FTensor::Tensor1&lt; T,</text>
<text text-anchor="middle" x="159.5" y="-7.5" font-family="Helvetica,sans-Serif" font-size="10.00"> Tensor_Dim &gt;</text>
</a>
</g>
</g>
<!-- Node12&#45;&gt;Node11 -->
<g id="edge12" class="edge">
<title>Node12&#45;&gt;Node11</title>
<path fill="none" stroke="orange" stroke-dasharray="5,2" d="M228.03,-13.85C262.73,-13.52 305.67,-13.89 344,-16.5 355.59,-17.29 367.89,-18.56 379.74,-20"/>
<polygon fill="orange" stroke="orange" points="227.97,-10.35 218.01,-13.97 228.05,-17.35 227.97,-10.35"/>
<text text-anchor="middle" x="295.5" y="-19.5" font-family="Helvetica,sans-Serif" font-size="10.00"> &lt; double, 3 &gt;</text>
</g>
<!-- Node13 -->
<g id="node13" class="node">
<title>Node13</title>
<g id="a_node13"><a xlink:title=" ">
<polygon fill="white" stroke="#bfbfbf" points="0,-6 0,-25 29,-25 29,-6 0,-6"/>
<text text-anchor="middle" x="14.5" y="-13" font-family="Helvetica,sans-Serif" font-size="10.00">T</text>
</a>
</g>
</g>
<!-- Node13&#45;&gt;Node12 -->
<g id="edge13" class="edge">
<title>Node13&#45;&gt;Node12</title>
<path fill="none" stroke="#9a32cd" stroke-dasharray="5,2" d="M39.69,-15.5C56.4,-15.5 79.38,-15.5 100.68,-15.5"/>
<polygon fill="#9a32cd" stroke="#9a32cd" points="39.21,-12 29.21,-15.5 39.21,-19 39.21,-12"/>
<text text-anchor="middle" x="59.5" y="-18.5" font-family="Helvetica,sans-Serif" font-size="10.00"> data</text>
</g>
</g>
</svg>
