<?xml version="1.0" encoding="UTF-8" standalone="no"?>
<!DOCTYPE svg PUBLIC "-//W3C//DTD SVG 1.1//EN"
 "http://www.w3.org/Graphics/SVG/1.1/DTD/svg11.dtd">
<!-- Generated by graphviz version 2.43.0 (0)
 -->
<!-- Title: MetaNodalForces::TagForceScale Pages: 1 -->
<svg width="1497pt" height="164pt"
 viewBox="0.00 0.00 1497.00 164.00" xmlns="http://www.w3.org/2000/svg" xmlns:xlink="http://www.w3.org/1999/xlink">
<g id="graph0" class="graph" transform="scale(1 1) rotate(0) translate(4 160)">
<title>MetaNodalForces::TagForceScale</title>
<polygon fill="white" stroke="transparent" points="-4,4 -4,-160 1493,-160 1493,4 -4,4"/>
<!-- Node1 -->
<g id="node1" class="node">
<title>Node1</title>
<g id="a_node1"><a xlink:title="Scale force based on tag value &quot;_LoadFactor_Scale_&quot;.">
<polygon fill="#bfbfbf" stroke="black" points="1339,-74 1339,-104 1489,-104 1489,-74 1339,-74"/>
<text text-anchor="start" x="1347" y="-92" font-family="Helvetica,sans-Serif" font-size="10.00">MetaNodalForces::TagForce</text>
<text text-anchor="middle" x="1414" y="-81" font-family="Helvetica,sans-Serif" font-size="10.00">Scale</text>
</a>
</g>
</g>
<!-- Node2 -->
<g id="node2" class="node">
<title>Node2</title>
<g id="a_node2"><a xlink:href="structMethodForForceScaling.html" target="_top" xlink:title="Class used to scale loads, f.e. in arc&#45;length control.">
<polygon fill="white" stroke="black" points="1107.5,-136.5 1107.5,-155.5 1237.5,-155.5 1237.5,-136.5 1107.5,-136.5"/>
<text text-anchor="middle" x="1172.5" y="-143.5" font-family="Helvetica,sans-Serif" font-size="10.00">MethodForForceScaling</text>
</a>
</g>
</g>
<!-- Node2&#45;&gt;Node1 -->
<g id="edge1" class="edge">
<title>Node2&#45;&gt;Node1</title>
<path fill="none" stroke="midnightblue" d="M1229.17,-134.28C1240.38,-131.9 1252.07,-129.39 1263,-127 1288.81,-121.37 1295.36,-120.35 1321,-114 1333.37,-110.93 1346.62,-107.45 1359.11,-104.08"/>
<polygon fill="midnightblue" stroke="midnightblue" points="1228.11,-130.93 1219.05,-136.43 1229.56,-137.78 1228.11,-130.93"/>
</g>
<!-- Node3 -->
<g id="node3" class="node">
<title>Node3</title>
<g id="a_node3"><a xlink:href="classdouble.html" target="_top" xlink:title=" ">
<polygon fill="white" stroke="black" points="1147.5,-98.5 1147.5,-117.5 1197.5,-117.5 1197.5,-98.5 1147.5,-98.5"/>
<text text-anchor="middle" x="1172.5" y="-105.5" font-family="Helvetica,sans-Serif" font-size="10.00">double</text>
</a>
</g>
</g>
<!-- Node3&#45;&gt;Node1 -->
<g id="edge2" class="edge">
<title>Node3&#45;&gt;Node1</title>
<path fill="none" stroke="#9a32cd" stroke-dasharray="5,2" d="M1208.14,-105.25C1242.21,-102.55 1295.3,-98.34 1338.9,-94.88"/>
<polygon fill="#9a32cd" stroke="#9a32cd" points="1207.47,-101.79 1197.78,-106.07 1208.03,-108.77 1207.47,-101.79"/>
<text text-anchor="middle" x="1301" y="-102" font-family="Helvetica,sans-Serif" font-size="10.00"> sCale</text>
</g>
<!-- Node4 -->
<g id="node4" class="node">
<title>Node4</title>
<g id="a_node4"><a xlink:title=" ">
<polygon fill="white" stroke="#bfbfbf" points="1156,-60.5 1156,-79.5 1189,-79.5 1189,-60.5 1156,-60.5"/>
<text text-anchor="middle" x="1172.5" y="-67.5" font-family="Helvetica,sans-Serif" font-size="10.00">Tag</text>
</a>
</g>
</g>
<!-- Node4&#45;&gt;Node1 -->
<g id="edge3" class="edge">
<title>Node4&#45;&gt;Node1</title>
<path fill="none" stroke="#9a32cd" stroke-dasharray="5,2" d="M1199.25,-71.82C1228.69,-73.93 1278.33,-77.55 1321,-81 1326.75,-81.46 1332.71,-81.96 1338.69,-82.46"/>
<polygon fill="#9a32cd" stroke="#9a32cd" points="1199.23,-68.31 1189.01,-71.09 1198.73,-75.3 1199.23,-68.31"/>
<text text-anchor="middle" x="1301" y="-84" font-family="Helvetica,sans-Serif" font-size="10.00"> thScale</text>
</g>
<!-- Node5 -->
<g id="node5" class="node">
<title>Node5</title>
<g id="a_node5"><a xlink:href="structMoFEM_1_1DeprecatedCoreInterface.html" target="_top" xlink:title="Deprecated interface functions.">
<polygon fill="white" stroke="black" points="1082,-22.5 1082,-41.5 1263,-41.5 1263,-22.5 1082,-22.5"/>
<text text-anchor="middle" x="1172.5" y="-29.5" font-family="Helvetica,sans-Serif" font-size="10.00">MoFEM::DeprecatedCoreInterface</text>
</a>
</g>
</g>
<!-- Node5&#45;&gt;Node1 -->
<g id="edge4" class="edge">
<title>Node5&#45;&gt;Node1</title>
<path fill="none" stroke="#9a32cd" stroke-dasharray="5,2" d="M1233.24,-43.59C1260.15,-49.06 1292.27,-55.93 1321,-63 1334.38,-66.29 1348.75,-70.18 1362.07,-73.94"/>
<polygon fill="#9a32cd" stroke="#9a32cd" points="1233.69,-40.11 1223.19,-41.56 1232.31,-46.97 1233.69,-40.11"/>
<text text-anchor="middle" x="1301" y="-66" font-family="Helvetica,sans-Serif" font-size="10.00"> mField</text>
</g>
<!-- Node6 -->
<g id="node6" class="node">
<title>Node6</title>
<g id="a_node6"><a xlink:href="structMoFEM_1_1CoreInterface.html" target="_top" xlink:title="Interface.">
<polygon fill="white" stroke="black" points="920,-22.5 920,-41.5 1045,-41.5 1045,-22.5 920,-22.5"/>
<text text-anchor="middle" x="982.5" y="-29.5" font-family="Helvetica,sans-Serif" font-size="10.00">MoFEM::CoreInterface</text>
</a>
</g>
</g>
<!-- Node6&#45;&gt;Node5 -->
<g id="edge5" class="edge">
<title>Node6&#45;&gt;Node5</title>
<path fill="none" stroke="midnightblue" d="M1055.16,-32C1063.89,-32 1072.89,-32 1081.84,-32"/>
<polygon fill="midnightblue" stroke="midnightblue" points="1055.06,-28.5 1045.06,-32 1055.06,-35.5 1055.06,-28.5"/>
</g>
<!-- Node7 -->
<g id="node7" class="node">
<title>Node7</title>
<g id="a_node7"><a xlink:href="structMoFEM_1_1UnknownInterface.html" target="_top" xlink:title="base class for all interface classes">
<polygon fill="white" stroke="black" points="735,-22.5 735,-41.5 883,-41.5 883,-22.5 735,-22.5"/>
<text text-anchor="middle" x="809" y="-29.5" font-family="Helvetica,sans-Serif" font-size="10.00">MoFEM::UnknownInterface</text>
</a>
</g>
</g>
<!-- Node7&#45;&gt;Node6 -->
<g id="edge6" class="edge">
<title>Node7&#45;&gt;Node6</title>
<path fill="none" stroke="midnightblue" d="M893.29,-32C902.24,-32 911.22,-32 919.85,-32"/>
<polygon fill="midnightblue" stroke="midnightblue" points="893.23,-28.5 883.23,-32 893.23,-35.5 893.23,-28.5"/>
</g>
<!-- Node8 -->
<g id="node8" class="node">
<title>Node8</title>
<g id="a_node8"><a xlink:title=" ">
<polygon fill="white" stroke="#bfbfbf" points="386,-0.5 386,-63.5 627,-63.5 627,-0.5 386,-0.5"/>
<text text-anchor="start" x="394" y="-51.5" font-family="Helvetica,sans-Serif" font-size="10.00">multi_index_container</text>
<text text-anchor="start" x="394" y="-40.5" font-family="Helvetica,sans-Serif" font-size="10.00">&lt; UIdTypeMap, indexed</text>
<text text-anchor="start" x="394" y="-29.5" font-family="Helvetica,sans-Serif" font-size="10.00">_by&lt; hashed_unique&lt; member</text>
<text text-anchor="start" x="394" y="-18.5" font-family="Helvetica,sans-Serif" font-size="10.00">&lt; UIdTypeMap, boost::typeindex</text>
<text text-anchor="middle" x="506.5" y="-7.5" font-family="Helvetica,sans-Serif" font-size="10.00">::type_index, &amp;UIdTypeMap::classIdx &gt; &gt; &gt; &gt;</text>
</a>
</g>
</g>
<!-- Node8&#45;&gt;Node7 -->
<g id="edge7" class="edge">
<title>Node8&#45;&gt;Node7</title>
<path fill="none" stroke="#9a32cd" stroke-dasharray="5,2" d="M637.41,-32C670.69,-32 705.33,-32 734.62,-32"/>
<polygon fill="#9a32cd" stroke="#9a32cd" points="637.13,-28.5 627.13,-32 637.13,-35.5 637.13,-28.5"/>
<text text-anchor="middle" x="681" y="-35" font-family="Helvetica,sans-Serif" font-size="10.00"> iFaceTypeMap</text>
</g>
<!-- Node9 -->
<g id="node9" class="node">
<title>Node9</title>
<g id="a_node9"><a xlink:title=" ">
<polygon fill="white" stroke="#bfbfbf" points="0,-22.5 0,-41.5 125,-41.5 125,-22.5 0,-22.5"/>
<text text-anchor="middle" x="62.5" y="-29.5" font-family="Helvetica,sans-Serif" font-size="10.00">multi_index_container</text>
</a>
</g>
</g>
<!-- Node9&#45;&gt;Node8 -->
<g id="edge8" class="edge">
<title>Node9&#45;&gt;Node8</title>
<path fill="none" stroke="orange" stroke-dasharray="5,2" d="M135.56,-32C203.25,-32 305.79,-32 385.77,-32"/>
<polygon fill="orange" stroke="orange" points="135.42,-28.5 125.42,-32 135.42,-35.5 135.42,-28.5"/>
<text text-anchor="start" x="143" y="-68" font-family="Helvetica,sans-Serif" font-size="10.00"> &lt; UIdTypeMap, indexed</text>
<text text-anchor="start" x="143" y="-57" font-family="Helvetica,sans-Serif" font-size="10.00">_by&lt; hashed_unique&lt; member</text>
<text text-anchor="start" x="143" y="-46" font-family="Helvetica,sans-Serif" font-size="10.00">&lt; UIdTypeMap, boost::typeindex</text>
<text text-anchor="middle" x="255.5" y="-35" font-family="Helvetica,sans-Serif" font-size="10.00">::type_index, &amp;UIdTypeMap::classIdx &gt; &gt; &gt; &gt;</text>
</g>
</g>
</svg>
