<?xml version="1.0" encoding="UTF-8" standalone="no"?>
<!DOCTYPE svg PUBLIC "-//W3C//DTD SVG 1.1//EN"
 "http://www.w3.org/Graphics/SVG/1.1/DTD/svg11.dtd">
<!-- Generated by graphviz version 2.43.0 (0)
 -->
<!-- Title: CohesiveElement::ArcLengthElement Pages: 1 -->
<svg width="1619pt" height="402pt"
 viewBox="0.00 0.00 1619.00 402.00" xmlns="http://www.w3.org/2000/svg" xmlns:xlink="http://www.w3.org/1999/xlink">
<g id="graph0" class="graph" transform="scale(1 1) rotate(0) translate(4 398)">
<title>CohesiveElement::ArcLengthElement</title>
<polygon fill="white" stroke="transparent" points="-4,4 -4,-398 1615,-398 1615,4 -4,4"/>
<!-- Node1 -->
<g id="node1" class="node">
<title>Node1</title>
<g id="a_node1"><a xlink:title=" ">
<polygon fill="#bfbfbf" stroke="black" points="1454,-63 1454,-93 1611,-93 1611,-63 1454,-63"/>
<text text-anchor="start" x="1462" y="-81" font-family="Helvetica,sans-Serif" font-size="10.00">CohesiveElement::ArcLength</text>
<text text-anchor="middle" x="1532.5" y="-70" font-family="Helvetica,sans-Serif" font-size="10.00">Element</text>
</a>
</g>
</g>
<!-- Node2 -->
<g id="node2" class="node">
<title>Node2</title>
<g id="a_node2"><a xlink:href="structCohesiveElement_1_1ArcLengthIntElemFEMethod.html" target="_top" xlink:title=" ">
<polygon fill="white" stroke="black" points="1212,-237 1212,-267 1369,-267 1369,-237 1212,-237"/>
<text text-anchor="start" x="1220" y="-255" font-family="Helvetica,sans-Serif" font-size="10.00">CohesiveElement::ArcLength</text>
<text text-anchor="middle" x="1290.5" y="-244" font-family="Helvetica,sans-Serif" font-size="10.00">IntElemFEMethod</text>
</a>
</g>
</g>
<!-- Node2&#45;&gt;Node1 -->
<g id="edge1" class="edge">
<title>Node2&#45;&gt;Node1</title>
<path fill="none" stroke="midnightblue" d="M1320.66,-230.86C1369.72,-195.29 1467.58,-124.35 1510.5,-93.23"/>
<polygon fill="midnightblue" stroke="midnightblue" points="1318.42,-228.16 1312.38,-236.86 1322.53,-233.83 1318.42,-228.16"/>
</g>
<!-- Node3 -->
<g id="node3" class="node">
<title>Node3</title>
<g id="a_node3"><a xlink:href="classFEMethod.html" target="_top" xlink:title=" ">
<polygon fill="white" stroke="black" points="965.5,-298.5 965.5,-317.5 1030.5,-317.5 1030.5,-298.5 965.5,-298.5"/>
<text text-anchor="middle" x="998" y="-305.5" font-family="Helvetica,sans-Serif" font-size="10.00">FEMethod</text>
</a>
</g>
</g>
<!-- Node3&#45;&gt;Node2 -->
<g id="edge2" class="edge">
<title>Node3&#45;&gt;Node2</title>
<path fill="none" stroke="midnightblue" d="M1040.51,-302.1C1077.71,-296.6 1133.69,-287.79 1182,-278 1197.9,-274.78 1215.02,-270.85 1230.82,-267.03"/>
<polygon fill="midnightblue" stroke="midnightblue" points="1039.93,-298.65 1030.54,-303.56 1040.94,-305.57 1039.93,-298.65"/>
</g>
<!-- Node4 -->
<g id="node4" class="node">
<title>Node4</title>
<g id="a_node4"><a xlink:href="classdouble.html" target="_top" xlink:title=" ">
<polygon fill="white" stroke="black" points="973,-260.5 973,-279.5 1023,-279.5 1023,-260.5 973,-260.5"/>
<text text-anchor="middle" x="998" y="-267.5" font-family="Helvetica,sans-Serif" font-size="10.00">double</text>
</a>
</g>
</g>
<!-- Node4&#45;&gt;Node2 -->
<g id="edge3" class="edge">
<title>Node4&#45;&gt;Node2</title>
<path fill="none" stroke="#9a32cd" stroke-dasharray="5,2" d="M1033.36,-267.87C1077.01,-265.17 1153.62,-260.42 1211.72,-256.82"/>
<polygon fill="#9a32cd" stroke="#9a32cd" points="1033.03,-264.38 1023.27,-268.5 1033.47,-271.37 1033.03,-264.38"/>
<text text-anchor="middle" x="1138" y="-266" font-family="Helvetica,sans-Serif" font-size="10.00"> lambda_int</text>
</g>
<!-- Node5 -->
<g id="node5" class="node">
<title>Node5</title>
<g id="a_node5"><a xlink:title=" ">
<polygon fill="white" stroke="#bfbfbf" points="981.5,-222.5 981.5,-241.5 1014.5,-241.5 1014.5,-222.5 981.5,-222.5"/>
<text text-anchor="middle" x="998" y="-229.5" font-family="Helvetica,sans-Serif" font-size="10.00">Tag</text>
</a>
</g>
</g>
<!-- Node5&#45;&gt;Node2 -->
<g id="edge4" class="edge">
<title>Node5&#45;&gt;Node2</title>
<path fill="none" stroke="#9a32cd" stroke-dasharray="5,2" d="M1025.09,-233.64C1060.6,-235.88 1126.11,-240.09 1182,-244 1191.71,-244.68 1201.91,-245.41 1212,-246.15"/>
<polygon fill="#9a32cd" stroke="#9a32cd" points="1024.87,-230.12 1014.67,-232.98 1024.43,-237.1 1024.87,-230.12"/>
<text text-anchor="middle" x="1138" y="-247" font-family="Helvetica,sans-Serif" font-size="10.00"> thDamagedPrism</text>
</g>
<!-- Node6 -->
<g id="node6" class="node">
<title>Node6</title>
<g id="a_node6"><a xlink:title=" ">
<polygon fill="white" stroke="#bfbfbf" points="962.5,-184.5 962.5,-203.5 1033.5,-203.5 1033.5,-184.5 962.5,-184.5"/>
<text text-anchor="middle" x="998" y="-191.5" font-family="Helvetica,sans-Serif" font-size="10.00">Interface &amp;</text>
</a>
</g>
</g>
<!-- Node6&#45;&gt;Node2 -->
<g id="edge5" class="edge">
<title>Node6&#45;&gt;Node2</title>
<path fill="none" stroke="#9a32cd" stroke-dasharray="5,2" d="M1043.59,-200.13C1080.78,-205.53 1135.07,-214.06 1182,-224 1199.64,-227.74 1218.74,-232.48 1235.87,-236.99"/>
<polygon fill="#9a32cd" stroke="#9a32cd" points="1043.98,-196.65 1033.58,-198.7 1042.98,-203.58 1043.98,-196.65"/>
<text text-anchor="middle" x="1138" y="-227" font-family="Helvetica,sans-Serif" font-size="10.00"> mOab</text>
</g>
<!-- Node7 -->
<g id="node7" class="node">
<title>Node7</title>
<g id="a_node7"><a xlink:href="classRange.html" target="_top" xlink:title=" ">
<polygon fill="white" stroke="black" points="974.5,-85.5 974.5,-104.5 1021.5,-104.5 1021.5,-85.5 974.5,-85.5"/>
<text text-anchor="middle" x="998" y="-92.5" font-family="Helvetica,sans-Serif" font-size="10.00">Range</text>
</a>
</g>
</g>
<!-- Node7&#45;&gt;Node1 -->
<g id="edge14" class="edge">
<title>Node7&#45;&gt;Node1</title>
<path fill="none" stroke="#9a32cd" stroke-dasharray="5,2" d="M1031.64,-93.96C1114.65,-91.31 1335.57,-84.25 1453.98,-80.47"/>
<polygon fill="#9a32cd" stroke="#9a32cd" points="1031.42,-90.46 1021.54,-94.28 1031.65,-97.46 1031.42,-90.46"/>
<text text-anchor="middle" x="1290.5" y="-92" font-family="Helvetica,sans-Serif" font-size="10.00"> postProcNodes</text>
</g>
<!-- Node7&#45;&gt;Node2 -->
<g id="edge6" class="edge">
<title>Node7&#45;&gt;Node2</title>
<path fill="none" stroke="#9a32cd" stroke-dasharray="5,2" d="M1031.71,-97.26C1070,-101.12 1134.26,-111.47 1182,-139 1225.63,-164.16 1262.61,-212.41 1279.57,-236.92"/>
<polygon fill="#9a32cd" stroke="#9a32cd" points="1031.91,-93.76 1021.63,-96.33 1031.27,-100.73 1031.91,-93.76"/>
<text text-anchor="middle" x="1138" y="-197" font-family="Helvetica,sans-Serif" font-size="10.00"> Edges4</text>
<text text-anchor="middle" x="1138" y="-186" font-family="Helvetica,sans-Serif" font-size="10.00">Faces4</text>
<text text-anchor="middle" x="1138" y="-175" font-family="Helvetica,sans-Serif" font-size="10.00">Nodes3</text>
<text text-anchor="middle" x="1138" y="-164" font-family="Helvetica,sans-Serif" font-size="10.00">Nodes4</text>
<text text-anchor="middle" x="1138" y="-153" font-family="Helvetica,sans-Serif" font-size="10.00">Edges3</text>
<text text-anchor="middle" x="1138" y="-142" font-family="Helvetica,sans-Serif" font-size="10.00">Faces3</text>
</g>
<!-- Node8 -->
<g id="node8" class="node">
<title>Node8</title>
<g id="a_node8"><a xlink:title=" ">
<polygon fill="white" stroke="#bfbfbf" points="920,-374.5 920,-393.5 1076,-393.5 1076,-374.5 920,-374.5"/>
<text text-anchor="middle" x="998" y="-381.5" font-family="Helvetica,sans-Serif" font-size="10.00">shared_ptr&lt; ArcLengthCtx &gt;</text>
</a>
</g>
</g>
<!-- Node8&#45;&gt;Node2 -->
<g id="edge7" class="edge">
<title>Node8&#45;&gt;Node2</title>
<path fill="none" stroke="#9a32cd" stroke-dasharray="5,2" d="M1072.75,-372.48C1107.17,-365.27 1147.95,-354.02 1182,-337 1218.82,-318.59 1254.97,-286.25 1274.54,-267.21"/>
<polygon fill="#9a32cd" stroke="#9a32cd" points="1071.87,-369.09 1062.76,-374.5 1073.26,-375.95 1071.87,-369.09"/>
<text text-anchor="middle" x="1138" y="-370" font-family="Helvetica,sans-Serif" font-size="10.00"> arcPtr</text>
</g>
<!-- Node9 -->
<g id="node9" class="node">
<title>Node9</title>
<g id="a_node9"><a xlink:title=" ">
<polygon fill="white" stroke="#bfbfbf" points="981,-336.5 981,-355.5 1015,-355.5 1015,-336.5 981,-336.5"/>
<text text-anchor="middle" x="998" y="-343.5" font-family="Helvetica,sans-Serif" font-size="10.00">Vec</text>
</a>
</g>
</g>
<!-- Node9&#45;&gt;Node2 -->
<g id="edge8" class="edge">
<title>Node9&#45;&gt;Node2</title>
<path fill="none" stroke="#9a32cd" stroke-dasharray="5,2" d="M1025.28,-339.63C1040.17,-335.99 1059.15,-331.31 1076,-327 1123.21,-314.94 1135.99,-315.03 1182,-299 1208.35,-289.82 1237.29,-277.01 1258.49,-267.07"/>
<polygon fill="#9a32cd" stroke="#9a32cd" points="1024.13,-336.31 1015.24,-342.07 1025.79,-343.11 1024.13,-336.31"/>
<text text-anchor="middle" x="1138" y="-325" font-family="Helvetica,sans-Serif" font-size="10.00"> GhostLambdaInt</text>
</g>
<!-- Node10 -->
<g id="node10" class="node">
<title>Node10</title>
<g id="a_node10"><a xlink:href="structMoFEM_1_1DeprecatedCoreInterface.html" target="_top" xlink:title="Deprecated interface functions.">
<polygon fill="white" stroke="black" points="1200,-22.5 1200,-41.5 1381,-41.5 1381,-22.5 1200,-22.5"/>
<text text-anchor="middle" x="1290.5" y="-29.5" font-family="Helvetica,sans-Serif" font-size="10.00">MoFEM::DeprecatedCoreInterface</text>
</a>
</g>
</g>
<!-- Node10&#45;&gt;Node1 -->
<g id="edge9" class="edge">
<title>Node10&#45;&gt;Node1</title>
<path fill="none" stroke="#9a32cd" stroke-dasharray="5,2" d="M1378.16,-42.99C1397.28,-45.86 1417.38,-49.22 1436,-53 1449.86,-55.81 1464.7,-59.41 1478.46,-62.99"/>
<polygon fill="#9a32cd" stroke="#9a32cd" points="1378.67,-39.52 1368.27,-41.53 1377.65,-46.45 1378.67,-39.52"/>
<text text-anchor="middle" x="1417.5" y="-56" font-family="Helvetica,sans-Serif" font-size="10.00"> mField</text>
</g>
<!-- Node11 -->
<g id="node11" class="node">
<title>Node11</title>
<g id="a_node11"><a xlink:href="structMoFEM_1_1CoreInterface.html" target="_top" xlink:title="Interface.">
<polygon fill="white" stroke="black" points="935.5,-22.5 935.5,-41.5 1060.5,-41.5 1060.5,-22.5 935.5,-22.5"/>
<text text-anchor="middle" x="998" y="-29.5" font-family="Helvetica,sans-Serif" font-size="10.00">MoFEM::CoreInterface</text>
</a>
</g>
</g>
<!-- Node11&#45;&gt;Node10 -->
<g id="edge10" class="edge">
<title>Node11&#45;&gt;Node10</title>
<path fill="none" stroke="midnightblue" d="M1070.82,-32C1109.82,-32 1158.4,-32 1199.86,-32"/>
<polygon fill="midnightblue" stroke="midnightblue" points="1070.61,-28.5 1060.61,-32 1070.61,-35.5 1070.61,-28.5"/>
</g>
<!-- Node12 -->
<g id="node12" class="node">
<title>Node12</title>
<g id="a_node12"><a xlink:href="structMoFEM_1_1UnknownInterface.html" target="_top" xlink:title="base class for all interface classes">
<polygon fill="white" stroke="black" points="735,-22.5 735,-41.5 883,-41.5 883,-22.5 735,-22.5"/>
<text text-anchor="middle" x="809" y="-29.5" font-family="Helvetica,sans-Serif" font-size="10.00">MoFEM::UnknownInterface</text>
</a>
</g>
</g>
<!-- Node12&#45;&gt;Node11 -->
<g id="edge11" class="edge">
<title>Node12&#45;&gt;Node11</title>
<path fill="none" stroke="midnightblue" d="M893.34,-32C907.5,-32 921.98,-32 935.45,-32"/>
<polygon fill="midnightblue" stroke="midnightblue" points="893.1,-28.5 883.1,-32 893.1,-35.5 893.1,-28.5"/>
</g>
<!-- Node13 -->
<g id="node13" class="node">
<title>Node13</title>
<g id="a_node13"><a xlink:title=" ">
<polygon fill="white" stroke="#bfbfbf" points="386,-0.5 386,-63.5 627,-63.5 627,-0.5 386,-0.5"/>
<text text-anchor="start" x="394" y="-51.5" font-family="Helvetica,sans-Serif" font-size="10.00">multi_index_container</text>
<text text-anchor="start" x="394" y="-40.5" font-family="Helvetica,sans-Serif" font-size="10.00">&lt; UIdTypeMap, indexed</text>
<text text-anchor="start" x="394" y="-29.5" font-family="Helvetica,sans-Serif" font-size="10.00">_by&lt; hashed_unique&lt; member</text>
<text text-anchor="start" x="394" y="-18.5" font-family="Helvetica,sans-Serif" font-size="10.00">&lt; UIdTypeMap, boost::typeindex</text>
<text text-anchor="middle" x="506.5" y="-7.5" font-family="Helvetica,sans-Serif" font-size="10.00">::type_index, &amp;UIdTypeMap::classIdx &gt; &gt; &gt; &gt;</text>
</a>
</g>
</g>
<!-- Node13&#45;&gt;Node12 -->
<g id="edge12" class="edge">
<title>Node13&#45;&gt;Node12</title>
<path fill="none" stroke="#9a32cd" stroke-dasharray="5,2" d="M637.41,-32C670.69,-32 705.33,-32 734.62,-32"/>
<polygon fill="#9a32cd" stroke="#9a32cd" points="637.13,-28.5 627.13,-32 637.13,-35.5 637.13,-28.5"/>
<text text-anchor="middle" x="681" y="-35" font-family="Helvetica,sans-Serif" font-size="10.00"> iFaceTypeMap</text>
</g>
<!-- Node14 -->
<g id="node14" class="node">
<title>Node14</title>
<g id="a_node14"><a xlink:title=" ">
<polygon fill="white" stroke="#bfbfbf" points="0,-22.5 0,-41.5 125,-41.5 125,-22.5 0,-22.5"/>
<text text-anchor="middle" x="62.5" y="-29.5" font-family="Helvetica,sans-Serif" font-size="10.00">multi_index_container</text>
</a>
</g>
</g>
<!-- Node14&#45;&gt;Node13 -->
<g id="edge13" class="edge">
<title>Node14&#45;&gt;Node13</title>
<path fill="none" stroke="orange" stroke-dasharray="5,2" d="M135.56,-32C203.25,-32 305.79,-32 385.77,-32"/>
<polygon fill="orange" stroke="orange" points="135.42,-28.5 125.42,-32 135.42,-35.5 135.42,-28.5"/>
<text text-anchor="start" x="143" y="-68" font-family="Helvetica,sans-Serif" font-size="10.00"> &lt; UIdTypeMap, indexed</text>
<text text-anchor="start" x="143" y="-57" font-family="Helvetica,sans-Serif" font-size="10.00">_by&lt; hashed_unique&lt; member</text>
<text text-anchor="start" x="143" y="-46" font-family="Helvetica,sans-Serif" font-size="10.00">&lt; UIdTypeMap, boost::typeindex</text>
<text text-anchor="middle" x="255.5" y="-35" font-family="Helvetica,sans-Serif" font-size="10.00">::type_index, &amp;UIdTypeMap::classIdx &gt; &gt; &gt; &gt;</text>
</g>
</g>
</svg>
