<?xml version="1.0" encoding="UTF-8" standalone="no"?>
<!DOCTYPE svg PUBLIC "-//W3C//DTD SVG 1.1//EN"
 "http://www.w3.org/Graphics/SVG/1.1/DTD/svg11.dtd">
<!-- Generated by graphviz version 2.43.0 (0)
 -->
<!-- Title: SkeletonFE Pages: 1 -->
<svg width="3440pt" height="1767pt"
 viewBox="0.00 0.00 3440.00 1766.50" xmlns="http://www.w3.org/2000/svg" xmlns:xlink="http://www.w3.org/1999/xlink">
<g id="graph0" class="graph" transform="scale(1 1) rotate(0) translate(4 1762.5)">
<title>SkeletonFE</title>
<polygon fill="white" stroke="transparent" points="-4,4 -4,-1762.5 3436,-1762.5 3436,4 -4,4"/>
<!-- Node1 -->
<g id="node1" class="node">
<title>Node1</title>
<g id="a_node1"><a xlink:title=" ">
<polygon fill="#bfbfbf" stroke="black" points="3361,-780.5 3361,-799.5 3432,-799.5 3432,-780.5 3361,-780.5"/>
<text text-anchor="middle" x="3396.5" y="-787.5" font-family="Helvetica,sans-Serif" font-size="10.00">SkeletonFE</text>
</a>
</g>
</g>
<!-- Node2 -->
<g id="node2" class="node">
<title>Node2</title>
<g id="a_node2"><a xlink:href="structMoFEM_1_1EdgeElementForcesAndSourcesCore_1_1UserDataOperator.html" target="_top" xlink:title="default operator for EDGE element">
<polygon fill="white" stroke="black" points="3157.5,-977.5 3157.5,-996.5 3226.5,-996.5 3226.5,-977.5 3157.5,-977.5"/>
<text text-anchor="middle" x="3192" y="-984.5" font-family="Helvetica,sans-Serif" font-size="10.00">EdgeEleOp</text>
</a>
</g>
</g>
<!-- Node2&#45;&gt;Node1 -->
<g id="edge1" class="edge">
<title>Node2&#45;&gt;Node1</title>
<path fill="none" stroke="midnightblue" d="M3210.06,-970.4C3250.81,-930.76 3352.81,-831.53 3385.35,-799.87"/>
<polygon fill="midnightblue" stroke="midnightblue" points="3207.49,-968.02 3202.77,-977.5 3212.38,-973.03 3207.49,-968.02"/>
</g>
<!-- Node3 -->
<g id="node3" class="node">
<title>Node3</title>
<g id="a_node3"><a xlink:href="structMoFEM_1_1ForcesAndSourcesCore_1_1UserDataOperator.html" target="_top" xlink:title=" ">
<polygon fill="white" stroke="black" points="2837,-1311 2837,-1341 3007,-1341 3007,-1311 2837,-1311"/>
<text text-anchor="start" x="2845" y="-1329" font-family="Helvetica,sans-Serif" font-size="10.00">MoFEM::ForcesAndSourcesCore</text>
<text text-anchor="middle" x="2922" y="-1318" font-family="Helvetica,sans-Serif" font-size="10.00">::UserDataOperator</text>
</a>
</g>
</g>
<!-- Node3&#45;&gt;Node2 -->
<g id="edge2" class="edge">
<title>Node3&#45;&gt;Node2</title>
<path fill="none" stroke="midnightblue" d="M2941.09,-1303.11C2994.09,-1236.08 3147.48,-1042.05 3183.41,-996.6"/>
<polygon fill="midnightblue" stroke="midnightblue" points="2938.32,-1300.98 2934.86,-1311 2943.81,-1305.32 2938.32,-1300.98"/>
</g>
<!-- Node4 -->
<g id="node4" class="node">
<title>Node4</title>
<g id="a_node4"><a xlink:href="structMoFEM_1_1DataOperator.html" target="_top" xlink:title="base operator to do operations at Gauss Pt. level">
<polygon fill="white" stroke="black" points="2579.5,-1570.5 2579.5,-1589.5 2704.5,-1589.5 2704.5,-1570.5 2579.5,-1570.5"/>
<text text-anchor="middle" x="2642" y="-1577.5" font-family="Helvetica,sans-Serif" font-size="10.00">MoFEM::DataOperator</text>
</a>
</g>
</g>
<!-- Node4&#45;&gt;Node3 -->
<g id="edge3" class="edge">
<title>Node4&#45;&gt;Node3</title>
<path fill="none" stroke="midnightblue" d="M2714.63,-1570.34C2749.31,-1562.62 2789.69,-1548.77 2819,-1524 2879.11,-1473.21 2908.11,-1378.05 2917.47,-1341.16"/>
<polygon fill="midnightblue" stroke="midnightblue" points="2713.61,-1566.98 2704.54,-1572.46 2715.04,-1573.83 2713.61,-1566.98"/>
</g>
<!-- Node5 -->
<g id="node5" class="node">
<title>Node5</title>
<g id="a_node5"><a xlink:title=" ">
<polygon fill="white" stroke="#bfbfbf" points="2160,-1706 2160,-1758 2352,-1758 2352,-1706 2160,-1706"/>
<text text-anchor="start" x="2168" y="-1746" font-family="Helvetica,sans-Serif" font-size="10.00">function&lt; MoFEMErrorCode</text>
<text text-anchor="start" x="2168" y="-1735" font-family="Helvetica,sans-Serif" font-size="10.00">(DataOperator *op_ptr,</text>
<text text-anchor="start" x="2168" y="-1724" font-family="Helvetica,sans-Serif" font-size="10.00"> int side, EntityType type,</text>
<text text-anchor="middle" x="2256" y="-1713" font-family="Helvetica,sans-Serif" font-size="10.00"> EntitiesFieldData::EntData &amp;data)&gt;</text>
</a>
</g>
</g>
<!-- Node5&#45;&gt;Node4 -->
<g id="edge4" class="edge">
<title>Node5&#45;&gt;Node4</title>
<path fill="none" stroke="#9a32cd" stroke-dasharray="5,2" d="M2362.37,-1742.9C2417.94,-1744 2485.49,-1737.65 2539,-1709 2590.85,-1681.24 2625.3,-1614.63 2636.78,-1589.66"/>
<polygon fill="#9a32cd" stroke="#9a32cd" points="2362.23,-1739.4 2352.14,-1742.62 2362.04,-1746.4 2362.23,-1739.4"/>
<text text-anchor="middle" x="2458" y="-1746" font-family="Helvetica,sans-Serif" font-size="10.00"> doWorkRhsHook</text>
</g>
<!-- Node6 -->
<g id="node6" class="node">
<title>Node6</title>
<g id="a_node6"><a xlink:href="classbool.html" target="_top" xlink:title=" ">
<polygon fill="white" stroke="black" points="2237,-1641.5 2237,-1660.5 2275,-1660.5 2275,-1641.5 2237,-1641.5"/>
<text text-anchor="middle" x="2256" y="-1648.5" font-family="Helvetica,sans-Serif" font-size="10.00">bool</text>
</a>
</g>
</g>
<!-- Node6&#45;&gt;Node4 -->
<g id="edge5" class="edge">
<title>Node6&#45;&gt;Node4</title>
<path fill="none" stroke="#9a32cd" stroke-dasharray="5,2" d="M2285.17,-1645.79C2349.35,-1633.92 2507.22,-1604.74 2589.4,-1589.54"/>
<polygon fill="#9a32cd" stroke="#9a32cd" points="2284.2,-1642.41 2275.01,-1647.67 2285.48,-1649.29 2284.2,-1642.41"/>
<text text-anchor="middle" x="2458" y="-1697" font-family="Helvetica,sans-Serif" font-size="10.00"> doTris</text>
<text text-anchor="middle" x="2458" y="-1686" font-family="Helvetica,sans-Serif" font-size="10.00">doQuads</text>
<text text-anchor="middle" x="2458" y="-1675" font-family="Helvetica,sans-Serif" font-size="10.00">sYmm</text>
<text text-anchor="middle" x="2458" y="-1664" font-family="Helvetica,sans-Serif" font-size="10.00">doPrisms</text>
<text text-anchor="middle" x="2458" y="-1653" font-family="Helvetica,sans-Serif" font-size="10.00">doTets</text>
<text text-anchor="middle" x="2458" y="-1642" font-family="Helvetica,sans-Serif" font-size="10.00">doVertices</text>
<text text-anchor="middle" x="2458" y="-1631" font-family="Helvetica,sans-Serif" font-size="10.00">doEdges</text>
</g>
<!-- Node7 -->
<g id="node7" class="node">
<title>Node7</title>
<g id="a_node7"><a xlink:title=" ">
<polygon fill="white" stroke="#bfbfbf" points="2153,-1537.5 2153,-1622.5 2359,-1622.5 2359,-1537.5 2153,-1537.5"/>
<text text-anchor="start" x="2161" y="-1610.5" font-family="Helvetica,sans-Serif" font-size="10.00">function&lt; MoFEMErrorCode</text>
<text text-anchor="start" x="2161" y="-1599.5" font-family="Helvetica,sans-Serif" font-size="10.00">(DataOperator *op_ptr,</text>
<text text-anchor="start" x="2161" y="-1588.5" font-family="Helvetica,sans-Serif" font-size="10.00"> int row_side, int col_side,</text>
<text text-anchor="start" x="2161" y="-1577.5" font-family="Helvetica,sans-Serif" font-size="10.00"> EntityType row_type, EntityType</text>
<text text-anchor="start" x="2161" y="-1566.5" font-family="Helvetica,sans-Serif" font-size="10.00"> col_type, EntitiesFieldData::EntData</text>
<text text-anchor="start" x="2161" y="-1555.5" font-family="Helvetica,sans-Serif" font-size="10.00"> &amp;row_data, EntitiesFieldData::EntData</text>
<text text-anchor="middle" x="2256" y="-1544.5" font-family="Helvetica,sans-Serif" font-size="10.00"> &amp;col_data)&gt;</text>
</a>
</g>
</g>
<!-- Node7&#45;&gt;Node4 -->
<g id="edge6" class="edge">
<title>Node7&#45;&gt;Node4</title>
<path fill="none" stroke="#9a32cd" stroke-dasharray="5,2" d="M2369.56,-1580C2438.03,-1580 2522.87,-1580 2579.3,-1580"/>
<polygon fill="#9a32cd" stroke="#9a32cd" points="2369.15,-1576.5 2359.15,-1580 2369.15,-1583.5 2369.15,-1576.5"/>
<text text-anchor="middle" x="2458" y="-1583" font-family="Helvetica,sans-Serif" font-size="10.00"> doWorkLhsHook</text>
</g>
<!-- Node8 -->
<g id="node8" class="node">
<title>Node8</title>
<g id="a_node8"><a xlink:title=" ">
<polygon fill="white" stroke="#bfbfbf" points="2179,-1499.5 2179,-1518.5 2333,-1518.5 2333,-1499.5 2179,-1499.5"/>
<text text-anchor="middle" x="2256" y="-1506.5" font-family="Helvetica,sans-Serif" font-size="10.00">array&lt; bool, MBMAXTYPE &gt;</text>
</a>
</g>
</g>
<!-- Node8&#45;&gt;Node4 -->
<g id="edge7" class="edge">
<title>Node8&#45;&gt;Node4</title>
<path fill="none" stroke="#9a32cd" stroke-dasharray="5,2" d="M2318.65,-1520.4C2393.8,-1534.29 2519.44,-1557.52 2589.61,-1570.5"/>
<polygon fill="#9a32cd" stroke="#9a32cd" points="2318.86,-1516.88 2308.39,-1518.5 2317.59,-1523.76 2318.86,-1516.88"/>
<text text-anchor="middle" x="2458" y="-1563" font-family="Helvetica,sans-Serif" font-size="10.00"> doEntities</text>
</g>
<!-- Node9 -->
<g id="node9" class="node">
<title>Node9</title>
<g id="a_node9"><a xlink:title=" ">
<polygon fill="white" stroke="#bfbfbf" points="2607.5,-1499.5 2607.5,-1518.5 2676.5,-1518.5 2676.5,-1499.5 2607.5,-1499.5"/>
<text text-anchor="middle" x="2642" y="-1506.5" font-family="Helvetica,sans-Serif" font-size="10.00">FieldSpace</text>
</a>
</g>
</g>
<!-- Node9&#45;&gt;Node3 -->
<g id="edge8" class="edge">
<title>Node9&#45;&gt;Node3</title>
<path fill="none" stroke="#9a32cd" stroke-dasharray="5,2" d="M2686.83,-1512.82C2724.71,-1513.96 2779.44,-1510.25 2819,-1485 2873.74,-1450.07 2904.82,-1374.06 2916.09,-1341.41"/>
<polygon fill="#9a32cd" stroke="#9a32cd" points="2686.76,-1509.31 2676.62,-1512.38 2686.46,-1516.3 2686.76,-1509.31"/>
<text text-anchor="middle" x="2782" y="-1512" font-family="Helvetica,sans-Serif" font-size="10.00"> sPace</text>
</g>
<!-- Node10 -->
<g id="node10" class="node">
<title>Node10</title>
<g id="a_node10"><a xlink:title=" ">
<polygon fill="white" stroke="#bfbfbf" points="1122.5,-1457.5 1122.5,-1476.5 1160.5,-1476.5 1160.5,-1457.5 1122.5,-1457.5"/>
<text text-anchor="middle" x="1141.5" y="-1464.5" font-family="Helvetica,sans-Serif" font-size="10.00">char</text>
</a>
</g>
</g>
<!-- Node10&#45;&gt;Node3 -->
<g id="edge9" class="edge">
<title>Node10&#45;&gt;Node3</title>
<path fill="none" stroke="#9a32cd" stroke-dasharray="5,2" d="M1170.82,-1467.54C1230.98,-1468.63 1375.94,-1471 1497.5,-1471 1497.5,-1471 1497.5,-1471 2643,-1471 2754.32,-1471 2865.19,-1378.47 2905.29,-1341.24"/>
<polygon fill="#9a32cd" stroke="#9a32cd" points="1170.66,-1464.03 1160.6,-1467.35 1170.54,-1471.03 1170.66,-1464.03"/>
<text text-anchor="middle" x="2063" y="-1474" font-family="Helvetica,sans-Serif" font-size="10.00"> opType</text>
</g>
<!-- Node38 -->
<g id="node38" class="node">
<title>Node38</title>
<g id="a_node38"><a xlink:href="structMoFEM_1_1Problem.html" target="_top" xlink:title="keeps basic data about problem">
<polygon fill="white" stroke="black" points="1449,-1198.5 1449,-1217.5 1548,-1217.5 1548,-1198.5 1449,-1198.5"/>
<text text-anchor="middle" x="1498.5" y="-1205.5" font-family="Helvetica,sans-Serif" font-size="10.00">MoFEM::Problem</text>
</a>
</g>
</g>
<!-- Node10&#45;&gt;Node38 -->
<g id="edge53" class="edge">
<title>Node10&#45;&gt;Node38</title>
<path fill="none" stroke="#9a32cd" stroke-dasharray="5,2" d="M1170.41,-1461.99C1194.41,-1457.7 1229.98,-1451.37 1261,-1446 1321.4,-1435.54 1348.22,-1460.13 1397,-1423 1468.15,-1368.85 1490.89,-1252.02 1496.17,-1217.68"/>
<polygon fill="#9a32cd" stroke="#9a32cd" points="1169.79,-1458.55 1160.56,-1463.75 1171.02,-1465.44 1169.79,-1458.55"/>
<text text-anchor="middle" x="1329" y="-1449" font-family="Helvetica,sans-Serif" font-size="10.00"> tagName</text>
</g>
<!-- Node11 -->
<g id="node11" class="node">
<title>Node11</title>
<g id="a_node11"><a xlink:href="structMoFEM_1_1ForcesAndSourcesCore.html" target="_top" xlink:title="structure to get information form mofem into EntitiesFieldData">
<polygon fill="white" stroke="black" points="2557,-1131.5 2557,-1150.5 2727,-1150.5 2727,-1131.5 2557,-1131.5"/>
<text text-anchor="middle" x="2642" y="-1138.5" font-family="Helvetica,sans-Serif" font-size="10.00">MoFEM::ForcesAndSourcesCore</text>
</a>
</g>
</g>
<!-- Node11&#45;&gt;Node3 -->
<g id="edge10" class="edge">
<title>Node11&#45;&gt;Node3</title>
<path fill="none" stroke="#9a32cd" stroke-dasharray="5,2" d="M2666.18,-1156.42C2718.75,-1191.41 2846.48,-1276.41 2898.45,-1310.99"/>
<polygon fill="#9a32cd" stroke="#9a32cd" points="2667.82,-1153.31 2657.56,-1150.69 2663.94,-1159.14 2667.82,-1153.31"/>
<text text-anchor="middle" x="2782" y="-1258" font-family="Helvetica,sans-Serif" font-size="10.00"> ptrFE</text>
</g>
<!-- Node11&#45;&gt;Node11 -->
<g id="edge68" class="edge">
<title>Node11&#45;&gt;Node11</title>
<path fill="none" stroke="#9a32cd" stroke-dasharray="5,2" d="M2615.96,-1160.03C2617.38,-1165.13 2626.06,-1169 2642,-1169 2666.88,-1169 2674.08,-1159.57 2663.58,-1150.76"/>
<polygon fill="#9a32cd" stroke="#9a32cd" points="2619.24,-1161.29 2620.42,-1150.76 2612.93,-1158.25 2619.24,-1161.29"/>
<text text-anchor="middle" x="2642" y="-1183" font-family="Helvetica,sans-Serif" font-size="10.00"> sidePtrFE</text>
<text text-anchor="middle" x="2642" y="-1172" font-family="Helvetica,sans-Serif" font-size="10.00">refinePtrFE</text>
</g>
<!-- Node79 -->
<g id="node79" class="node">
<title>Node79</title>
<g id="a_node79"><a xlink:href="structMoFEM_1_1FaceElementForcesAndSourcesCore.html" target="_top" xlink:title="Face finite element.">
<polygon fill="white" stroke="black" points="2846,-802 2846,-832 2998,-832 2998,-802 2846,-802"/>
<text text-anchor="start" x="2854" y="-820" font-family="Helvetica,sans-Serif" font-size="10.00">MoFEM::FaceElementForces</text>
<text text-anchor="middle" x="2922" y="-809" font-family="Helvetica,sans-Serif" font-size="10.00">AndSourcesCore</text>
</a>
</g>
</g>
<!-- Node11&#45;&gt;Node79 -->
<g id="edge94" class="edge">
<title>Node11&#45;&gt;Node79</title>
<path fill="none" stroke="midnightblue" d="M2666.88,-1125.59C2706,-1098.91 2782.99,-1040.1 2819,-969 2844.76,-918.14 2799.79,-885.19 2837,-842 2840.28,-838.2 2844.11,-834.96 2848.29,-832.2"/>
<polygon fill="midnightblue" stroke="midnightblue" points="2664.61,-1122.9 2658.24,-1131.37 2668.5,-1128.72 2664.61,-1122.9"/>
</g>
<!-- Node12 -->
<g id="node12" class="node">
<title>Node12</title>
<g id="a_node12"><a xlink:href="structMoFEM_1_1FEMethod.html" target="_top" xlink:title="structure for User Loop Methods on finite elements">
<polygon fill="white" stroke="black" points="2202.5,-934.5 2202.5,-953.5 2309.5,-953.5 2309.5,-934.5 2202.5,-934.5"/>
<text text-anchor="middle" x="2256" y="-941.5" font-family="Helvetica,sans-Serif" font-size="10.00">MoFEM::FEMethod</text>
</a>
</g>
</g>
<!-- Node12&#45;&gt;Node11 -->
<g id="edge11" class="edge">
<title>Node12&#45;&gt;Node11</title>
<path fill="none" stroke="midnightblue" d="M2289.05,-957.98C2310.31,-968.24 2338.06,-983.55 2359,-1002 2369.01,-1010.81 2365.63,-1019.04 2377,-1026 2439.32,-1064.14 2472.85,-1022.97 2539,-1054 2579.67,-1073.08 2616.99,-1112.84 2632.9,-1131.25"/>
<polygon fill="midnightblue" stroke="midnightblue" points="2290.32,-954.72 2279.78,-953.64 2287.35,-961.05 2290.32,-954.72"/>
</g>
<!-- Node13 -->
<g id="node13" class="node">
<title>Node13</title>
<g id="a_node13"><a xlink:href="structMoFEM_1_1BasicMethod.html" target="_top" xlink:title="Data structure to exchange data between mofem and User Loop Methods.">
<polygon fill="white" stroke="black" points="1825,-841.5 1825,-860.5 1947,-860.5 1947,-841.5 1825,-841.5"/>
<text text-anchor="middle" x="1886" y="-848.5" font-family="Helvetica,sans-Serif" font-size="10.00">MoFEM::BasicMethod</text>
</a>
</g>
</g>
<!-- Node13&#45;&gt;Node12 -->
<g id="edge12" class="edge">
<title>Node13&#45;&gt;Node12</title>
<path fill="none" stroke="midnightblue" d="M1913.15,-865.42C1933.74,-876.19 1963.45,-890.46 1991,-899 2062.5,-921.17 2148.48,-933.25 2202.45,-939.17"/>
<polygon fill="midnightblue" stroke="midnightblue" points="1914.58,-862.22 1904.11,-860.61 1911.29,-868.4 1914.58,-862.22"/>
</g>
<!-- Node14 -->
<g id="node14" class="node">
<title>Node14</title>
<g id="a_node14"><a xlink:href="structMoFEM_1_1KspMethod.html" target="_top" xlink:title="data structure for ksp (linear solver) context">
<polygon fill="white" stroke="black" points="1442,-581.5 1442,-600.5 1555,-600.5 1555,-581.5 1442,-581.5"/>
<text text-anchor="middle" x="1498.5" y="-588.5" font-family="Helvetica,sans-Serif" font-size="10.00">MoFEM::KspMethod</text>
</a>
</g>
</g>
<!-- Node14&#45;&gt;Node13 -->
<g id="edge13" class="edge">
<title>Node14&#45;&gt;Node13</title>
<path fill="none" stroke="midnightblue" d="M1515.03,-608.07C1556.46,-652.51 1674.95,-772.46 1799,-832 1807.13,-835.9 1816.09,-839.02 1825.05,-841.5"/>
<polygon fill="midnightblue" stroke="midnightblue" points="1517.56,-605.66 1508.2,-600.68 1512.42,-610.41 1517.56,-605.66"/>
</g>
<!-- Node15 -->
<g id="node15" class="node">
<title>Node15</title>
<g id="a_node15"><a xlink:href="structMoFEM_1_1PetscData.html" target="_top" xlink:title=" ">
<polygon fill="white" stroke="black" points="1087.5,-460.5 1087.5,-479.5 1195.5,-479.5 1195.5,-460.5 1087.5,-460.5"/>
<text text-anchor="middle" x="1141.5" y="-467.5" font-family="Helvetica,sans-Serif" font-size="10.00">MoFEM::PetscData</text>
</a>
</g>
</g>
<!-- Node15&#45;&gt;Node14 -->
<g id="edge14" class="edge">
<title>Node15&#45;&gt;Node14</title>
<path fill="none" stroke="midnightblue" d="M1206.03,-472.96C1259.01,-477.34 1335.5,-488.18 1397,-515 1434.7,-531.44 1471.23,-564.72 1487.97,-581.24"/>
<polygon fill="midnightblue" stroke="midnightblue" points="1206,-469.45 1195.76,-472.17 1205.46,-476.43 1206,-469.45"/>
</g>
<!-- Node25 -->
<g id="node25" class="node">
<title>Node25</title>
<g id="a_node25"><a xlink:href="structMoFEM_1_1SnesMethod.html" target="_top" xlink:title="data structure for snes (nonlinear solver) context">
<polygon fill="white" stroke="black" points="1439,-435.5 1439,-454.5 1558,-454.5 1558,-435.5 1439,-435.5"/>
<text text-anchor="middle" x="1498.5" y="-442.5" font-family="Helvetica,sans-Serif" font-size="10.00">MoFEM::SnesMethod</text>
</a>
</g>
</g>
<!-- Node15&#45;&gt;Node25 -->
<g id="edge27" class="edge">
<title>Node15&#45;&gt;Node25</title>
<path fill="none" stroke="darkgreen" d="M1205.93,-465.53C1272.03,-460.88 1374.74,-453.64 1438.96,-449.12"/>
<polygon fill="darkgreen" stroke="darkgreen" points="1205.38,-462.06 1195.65,-466.26 1205.87,-469.05 1205.38,-462.06"/>
</g>
<!-- Node28 -->
<g id="node28" class="node">
<title>Node28</title>
<g id="a_node28"><a xlink:href="structMoFEM_1_1TSMethod.html" target="_top" xlink:title="data structure for TS (time stepping) context">
<polygon fill="white" stroke="black" points="1445,-824.5 1445,-843.5 1552,-843.5 1552,-824.5 1445,-824.5"/>
<text text-anchor="middle" x="1498.5" y="-831.5" font-family="Helvetica,sans-Serif" font-size="10.00">MoFEM::TSMethod</text>
</a>
</g>
</g>
<!-- Node15&#45;&gt;Node28 -->
<g id="edge33" class="edge">
<title>Node15&#45;&gt;Node28</title>
<path fill="none" stroke="darkgreen" d="M1205.78,-474.05C1219.57,-477.73 1233.01,-483.88 1243,-494 1268.6,-519.94 1235,-548.47 1261,-574 1305.03,-617.24 1349.11,-563.07 1397,-602 1471.25,-662.36 1491.92,-788.16 1496.42,-824.17"/>
<polygon fill="darkgreen" stroke="darkgreen" points="1206.24,-470.57 1195.72,-471.79 1204.71,-477.4 1206.24,-470.57"/>
</g>
<!-- Node16 -->
<g id="node16" class="node">
<title>Node16</title>
<g id="a_node16"><a xlink:href="structMoFEM_1_1UnknownInterface.html" target="_top" xlink:title="base class for all interface classes">
<polygon fill="white" stroke="black" points="735,-623.5 735,-642.5 883,-642.5 883,-623.5 735,-623.5"/>
<text text-anchor="middle" x="809" y="-630.5" font-family="Helvetica,sans-Serif" font-size="10.00">MoFEM::UnknownInterface</text>
</a>
</g>
</g>
<!-- Node16&#45;&gt;Node15 -->
<g id="edge15" class="edge">
<title>Node16&#45;&gt;Node15</title>
<path fill="none" stroke="midnightblue" d="M893.2,-630.72C937.28,-625.09 988.99,-610.73 1022,-576 1047.71,-548.96 1013.86,-520.62 1040,-494 1052.38,-481.39 1070.11,-474.93 1087.24,-471.76"/>
<polygon fill="midnightblue" stroke="midnightblue" points="892.58,-627.27 883.05,-631.88 893.38,-634.22 892.58,-627.27"/>
</g>
<!-- Node56 -->
<g id="node56" class="node">
<title>Node56</title>
<g id="a_node56"><a xlink:href="structMoFEM_1_1CoreInterface.html" target="_top" xlink:title="Interface.">
<polygon fill="white" stroke="black" points="1079,-1495.5 1079,-1514.5 1204,-1514.5 1204,-1495.5 1079,-1495.5"/>
<text text-anchor="middle" x="1141.5" y="-1502.5" font-family="Helvetica,sans-Serif" font-size="10.00">MoFEM::CoreInterface</text>
</a>
</g>
</g>
<!-- Node16&#45;&gt;Node56 -->
<g id="edge67" class="edge">
<title>Node16&#45;&gt;Node56</title>
<path fill="none" stroke="midnightblue" d="M812.47,-652.65C827.48,-768.92 910.14,-1365.71 1040,-1486 1050.62,-1495.83 1064.66,-1501.33 1078.87,-1504.26"/>
<polygon fill="midnightblue" stroke="midnightblue" points="815.93,-652.15 811.2,-642.67 808.99,-653.03 815.93,-652.15"/>
</g>
<!-- Node17 -->
<g id="node17" class="node">
<title>Node17</title>
<g id="a_node17"><a xlink:title=" ">
<polygon fill="white" stroke="#bfbfbf" points="386,-394.5 386,-457.5 627,-457.5 627,-394.5 386,-394.5"/>
<text text-anchor="start" x="394" y="-445.5" font-family="Helvetica,sans-Serif" font-size="10.00">multi_index_container</text>
<text text-anchor="start" x="394" y="-434.5" font-family="Helvetica,sans-Serif" font-size="10.00">&lt; UIdTypeMap, indexed</text>
<text text-anchor="start" x="394" y="-423.5" font-family="Helvetica,sans-Serif" font-size="10.00">_by&lt; hashed_unique&lt; member</text>
<text text-anchor="start" x="394" y="-412.5" font-family="Helvetica,sans-Serif" font-size="10.00">&lt; UIdTypeMap, boost::typeindex</text>
<text text-anchor="middle" x="506.5" y="-401.5" font-family="Helvetica,sans-Serif" font-size="10.00">::type_index, &amp;UIdTypeMap::classIdx &gt; &gt; &gt; &gt;</text>
</a>
</g>
</g>
<!-- Node17&#45;&gt;Node16 -->
<g id="edge16" class="edge">
<title>Node17&#45;&gt;Node16</title>
<path fill="none" stroke="#9a32cd" stroke-dasharray="5,2" d="M543.98,-464.99C586.07,-507.7 659.26,-575.27 735,-614 742.46,-617.82 750.76,-620.91 759,-623.41"/>
<polygon fill="#9a32cd" stroke="#9a32cd" points="546.23,-462.29 536.74,-457.58 541.22,-467.18 546.23,-462.29"/>
<text text-anchor="middle" x="681" y="-605" font-family="Helvetica,sans-Serif" font-size="10.00"> iFaceTypeMap</text>
</g>
<!-- Node18 -->
<g id="node18" class="node">
<title>Node18</title>
<g id="a_node18"><a xlink:title=" ">
<polygon fill="white" stroke="#bfbfbf" points="0,-166.5 0,-185.5 125,-185.5 125,-166.5 0,-166.5"/>
<text text-anchor="middle" x="62.5" y="-173.5" font-family="Helvetica,sans-Serif" font-size="10.00">multi_index_container</text>
</a>
</g>
</g>
<!-- Node18&#45;&gt;Node13 -->
<g id="edge40" class="edge">
<title>Node18&#45;&gt;Node13</title>
<path fill="none" stroke="#9a32cd" stroke-dasharray="5,2" d="M135.36,-168.38C432.99,-138.59 1563.69,-43.59 1781,-294 1820.2,-339.17 1760.77,-786 1799,-832 1805.65,-840 1814.83,-845.09 1824.73,-848.25"/>
<polygon fill="#9a32cd" stroke="#9a32cd" points="134.72,-164.93 125.12,-169.41 135.43,-171.89 134.72,-164.93"/>
<text text-anchor="middle" x="961.5" y="-206" font-family="Helvetica,sans-Serif" font-size="10.00"> adjacenciesPtr</text>
<text text-anchor="middle" x="961.5" y="-195" font-family="Helvetica,sans-Serif" font-size="10.00">refinedEntitiesPtr</text>
<text text-anchor="middle" x="961.5" y="-184" font-family="Helvetica,sans-Serif" font-size="10.00">finiteElementsEntitiesPtr</text>
<text text-anchor="middle" x="961.5" y="-173" font-family="Helvetica,sans-Serif" font-size="10.00">dofsPtr</text>
<text text-anchor="middle" x="961.5" y="-162" font-family="Helvetica,sans-Serif" font-size="10.00">entitiesPtr</text>
<text text-anchor="middle" x="961.5" y="-151" font-family="Helvetica,sans-Serif" font-size="10.00">finiteElementsPtr</text>
<text text-anchor="middle" x="961.5" y="-140" font-family="Helvetica,sans-Serif" font-size="10.00">refinedFiniteElementsPtr</text>
<text text-anchor="middle" x="961.5" y="-129" font-family="Helvetica,sans-Serif" font-size="10.00">fieldsPtr</text>
</g>
<!-- Node18&#45;&gt;Node17 -->
<g id="edge17" class="edge">
<title>Node18&#45;&gt;Node17</title>
<path fill="none" stroke="orange" stroke-dasharray="5,2" d="M89.61,-190.77C159.76,-230.45 353.49,-340.02 449.74,-394.46"/>
<polygon fill="orange" stroke="orange" points="90.98,-187.52 80.56,-185.65 87.54,-193.62 90.98,-187.52"/>
<text text-anchor="start" x="143" y="-381" font-family="Helvetica,sans-Serif" font-size="10.00"> &lt; UIdTypeMap, indexed</text>
<text text-anchor="start" x="143" y="-370" font-family="Helvetica,sans-Serif" font-size="10.00">_by&lt; hashed_unique&lt; member</text>
<text text-anchor="start" x="143" y="-359" font-family="Helvetica,sans-Serif" font-size="10.00">&lt; UIdTypeMap, boost::typeindex</text>
<text text-anchor="middle" x="255.5" y="-348" font-family="Helvetica,sans-Serif" font-size="10.00">::type_index, &amp;UIdTypeMap::classIdx &gt; &gt; &gt; &gt;</text>
</g>
<!-- Node19 -->
<g id="node19" class="node">
<title>Node19</title>
<g id="a_node19"><a xlink:title=" ">
<polygon fill="white" stroke="#bfbfbf" points="738.5,-261.5 738.5,-280.5 879.5,-280.5 879.5,-261.5 738.5,-261.5"/>
<text text-anchor="middle" x="809" y="-268.5" font-family="Helvetica,sans-Serif" font-size="10.00">static constexpr Switches</text>
</a>
</g>
</g>
<!-- Node19&#45;&gt;Node15 -->
<g id="edge18" class="edge">
<title>Node19&#45;&gt;Node15</title>
<path fill="none" stroke="#9a32cd" stroke-dasharray="5,2" d="M855.32,-259.47C903.43,-250.22 978.39,-244.85 1022,-287 1048.36,-312.48 1015.1,-424.09 1040,-451 1052.06,-464.03 1070.03,-469.78 1087.46,-471.95"/>
<polygon fill="#9a32cd" stroke="#9a32cd" points="854.58,-256.05 845.49,-261.48 855.98,-262.9 854.58,-256.05"/>
<text text-anchor="middle" x="961.5" y="-367" font-family="Helvetica,sans-Serif" font-size="10.00"> CtxSetX_TT</text>
<text text-anchor="middle" x="961.5" y="-356" font-family="Helvetica,sans-Serif" font-size="10.00">CtxSetX_T</text>
<text text-anchor="middle" x="961.5" y="-345" font-family="Helvetica,sans-Serif" font-size="10.00">CtxSetA</text>
<text text-anchor="middle" x="961.5" y="-334" font-family="Helvetica,sans-Serif" font-size="10.00">CtxSetB</text>
<text text-anchor="middle" x="961.5" y="-323" font-family="Helvetica,sans-Serif" font-size="10.00">CtxSetTime</text>
<text text-anchor="middle" x="961.5" y="-312" font-family="Helvetica,sans-Serif" font-size="10.00">CtxSetNone</text>
<text text-anchor="middle" x="961.5" y="-301" font-family="Helvetica,sans-Serif" font-size="10.00">CtxSetF</text>
<text text-anchor="middle" x="961.5" y="-290" font-family="Helvetica,sans-Serif" font-size="10.00">CtxSetX</text>
</g>
<!-- Node20 -->
<g id="node20" class="node">
<title>Node20</title>
<g id="a_node20"><a xlink:title=" ">
<polygon fill="white" stroke="#bfbfbf" points="791.5,-585.5 791.5,-604.5 826.5,-604.5 826.5,-585.5 791.5,-585.5"/>
<text text-anchor="middle" x="809" y="-592.5" font-family="Helvetica,sans-Serif" font-size="10.00">Mat</text>
</a>
</g>
</g>
<!-- Node20&#45;&gt;Node14 -->
<g id="edge24" class="edge">
<title>Node20&#45;&gt;Node14</title>
<path fill="none" stroke="#9a32cd" stroke-dasharray="5,2" d="M836.54,-601.31C850.46,-604.77 867.74,-609.3 883,-614 953.8,-635.8 968.62,-650.17 1040,-670 1128.69,-694.64 1164.16,-663.51 1243,-711 1253.82,-717.52 1249.58,-727.59 1261,-733 1315.62,-758.88 1343.31,-760.77 1397,-733 1453.06,-703.99 1484.57,-627.7 1494.25,-600.67"/>
<polygon fill="#9a32cd" stroke="#9a32cd" points="837.19,-597.87 826.64,-598.89 835.52,-604.67 837.19,-597.87"/>
<text text-anchor="middle" x="1141.5" y="-725" font-family="Helvetica,sans-Serif" font-size="10.00"> ksp_A</text>
<text text-anchor="middle" x="1141.5" y="-714" font-family="Helvetica,sans-Serif" font-size="10.00">ksp_B</text>
</g>
<!-- Node20&#45;&gt;Node15 -->
<g id="edge19" class="edge">
<title>Node20&#45;&gt;Node15</title>
<path fill="none" stroke="#9a32cd" stroke-dasharray="5,2" d="M835.56,-581.96C877.39,-561.03 963.49,-519.7 1040,-494 1057,-488.29 1076.06,-483.38 1092.97,-479.51"/>
<polygon fill="#9a32cd" stroke="#9a32cd" points="833.97,-578.84 826.61,-586.46 837.12,-585.09 833.97,-578.84"/>
<text text-anchor="middle" x="961.5" y="-564" font-family="Helvetica,sans-Serif" font-size="10.00"> A</text>
<text text-anchor="middle" x="961.5" y="-553" font-family="Helvetica,sans-Serif" font-size="10.00">B</text>
</g>
<!-- Node20&#45;&gt;Node25 -->
<g id="edge29" class="edge">
<title>Node20&#45;&gt;Node25</title>
<path fill="none" stroke="#9a32cd" stroke-dasharray="5,2" d="M836.66,-593.72C876.97,-591.53 955.77,-586.28 1022,-576 1030.1,-574.74 1031.94,-573.51 1040,-572 1129.71,-555.2 1154.71,-564.12 1243,-541 1332.31,-517.61 1433.64,-473.96 1476.54,-454.63"/>
<polygon fill="#9a32cd" stroke="#9a32cd" points="836.39,-590.23 826.58,-594.24 836.75,-597.22 836.39,-590.23"/>
<text text-anchor="middle" x="1141.5" y="-586" font-family="Helvetica,sans-Serif" font-size="10.00"> snes_A</text>
<text text-anchor="middle" x="1141.5" y="-575" font-family="Helvetica,sans-Serif" font-size="10.00">snes_B</text>
</g>
<!-- Node20&#45;&gt;Node28 -->
<g id="edge34" class="edge">
<title>Node20&#45;&gt;Node28</title>
<path fill="none" stroke="#9a32cd" stroke-dasharray="5,2" d="M836.99,-596.31C852.06,-598.32 870.3,-603.07 883,-614 898.4,-627.24 889.85,-639.03 901,-656 950.36,-731.15 958.67,-764.66 1040,-803 1110.39,-836.18 1340.08,-836.76 1444.72,-835.18"/>
<polygon fill="#9a32cd" stroke="#9a32cd" points="837,-592.79 826.7,-595.27 836.3,-599.75 837,-592.79"/>
<text text-anchor="middle" x="1141.5" y="-846" font-family="Helvetica,sans-Serif" font-size="10.00"> ts_A</text>
<text text-anchor="middle" x="1141.5" y="-835" font-family="Helvetica,sans-Serif" font-size="10.00">ts_B</text>
</g>
<!-- Node21 -->
<g id="node21" class="node">
<title>Node21</title>
<g id="a_node21"><a xlink:title=" ">
<polygon fill="white" stroke="#bfbfbf" points="772.5,-372.5 772.5,-391.5 845.5,-391.5 845.5,-372.5 772.5,-372.5"/>
<text text-anchor="middle" x="809" y="-379.5" font-family="Helvetica,sans-Serif" font-size="10.00">bitset&lt; 8 &gt;</text>
</a>
</g>
</g>
<!-- Node21&#45;&gt;Node15 -->
<g id="edge20" class="edge">
<title>Node21&#45;&gt;Node15</title>
<path fill="none" stroke="#9a32cd" stroke-dasharray="5,2" d="M855.92,-378.39C902.11,-377.13 973.3,-381.96 1022,-417 1035.88,-426.99 1026.24,-440.85 1040,-451 1053.58,-461.01 1070.92,-466.21 1087.36,-468.79"/>
<polygon fill="#9a32cd" stroke="#9a32cd" points="855.75,-374.89 845.89,-378.76 856.01,-381.88 855.75,-374.89"/>
<text text-anchor="middle" x="961.5" y="-420" font-family="Helvetica,sans-Serif" font-size="10.00"> data_ctx</text>
</g>
<!-- Node22 -->
<g id="node22" class="node">
<title>Node22</title>
<g id="a_node22"><a xlink:title=" ">
<polygon fill="white" stroke="#bfbfbf" points="792,-483.5 792,-502.5 826,-502.5 826,-483.5 792,-483.5"/>
<text text-anchor="middle" x="809" y="-490.5" font-family="Helvetica,sans-Serif" font-size="10.00">Vec</text>
</a>
</g>
</g>
<!-- Node22&#45;&gt;Node14 -->
<g id="edge25" class="edge">
<title>Node22&#45;&gt;Node14</title>
<path fill="none" stroke="#9a32cd" stroke-dasharray="5,2" d="M835.27,-506.75C853.07,-515.62 877.77,-526.34 901,-531 953.73,-541.57 968.24,-532.49 1022,-531 1030.01,-530.78 1031.99,-530.22 1040,-530 1130.19,-527.5 1153.4,-519.41 1243,-530 1325.8,-539.78 1420.66,-566.88 1467.75,-581.45"/>
<polygon fill="#9a32cd" stroke="#9a32cd" points="836.64,-503.52 826.14,-502.06 833.44,-509.74 836.64,-503.52"/>
<text text-anchor="middle" x="1141.5" y="-533" font-family="Helvetica,sans-Serif" font-size="10.00"> ksp_f</text>
</g>
<!-- Node22&#45;&gt;Node15 -->
<g id="edge21" class="edge">
<title>Node22&#45;&gt;Node15</title>
<path fill="none" stroke="#9a32cd" stroke-dasharray="5,2" d="M830.71,-477.3C848.34,-464.98 874.89,-448.82 901,-442 953.03,-428.41 969.66,-429.64 1022,-442 1030.71,-444.05 1031.52,-448.14 1040,-451 1055.06,-456.08 1071.87,-459.93 1087.37,-462.79"/>
<polygon fill="#9a32cd" stroke="#9a32cd" points="828.42,-474.63 822.36,-483.32 832.52,-480.31 828.42,-474.63"/>
<text text-anchor="middle" x="961.5" y="-478" font-family="Helvetica,sans-Serif" font-size="10.00"> f</text>
<text text-anchor="middle" x="961.5" y="-467" font-family="Helvetica,sans-Serif" font-size="10.00">x</text>
<text text-anchor="middle" x="961.5" y="-456" font-family="Helvetica,sans-Serif" font-size="10.00">x_t</text>
<text text-anchor="middle" x="961.5" y="-445" font-family="Helvetica,sans-Serif" font-size="10.00">x_tt</text>
</g>
<!-- Node22&#45;&gt;Node25 -->
<g id="edge30" class="edge">
<title>Node22&#45;&gt;Node25</title>
<path fill="none" stroke="#9a32cd" stroke-dasharray="5,2" d="M828.46,-476.86C846.03,-462.24 873.77,-441.06 901,-428 951.37,-403.85 979.84,-430.64 1022,-394 1037.02,-380.94 1023.34,-363.88 1040,-353 1106.8,-309.37 1329.07,-349.16 1397,-391 1407.47,-397.45 1405,-404.84 1415,-412 1429.42,-422.33 1447.54,-430.04 1463.11,-435.39"/>
<polygon fill="#9a32cd" stroke="#9a32cd" points="826.06,-474.31 820.7,-483.44 830.59,-479.65 826.06,-474.31"/>
<text text-anchor="middle" x="1141.5" y="-367" font-family="Helvetica,sans-Serif" font-size="10.00"> snes_x</text>
<text text-anchor="middle" x="1141.5" y="-356" font-family="Helvetica,sans-Serif" font-size="10.00">snes_f</text>
</g>
<!-- Node22&#45;&gt;Node28 -->
<g id="edge38" class="edge">
<title>Node22&#45;&gt;Node28</title>
<path fill="none" stroke="#9a32cd" stroke-dasharray="5,2" d="M834.14,-508.04C884.34,-539.77 997.35,-613.79 1022,-652 1041.99,-682.99 1012.52,-708.41 1040,-733 1073.81,-763.26 1198.57,-745.79 1243,-755 1328.84,-772.8 1427.05,-807.54 1472.28,-824.38"/>
<polygon fill="#9a32cd" stroke="#9a32cd" points="835.87,-504.99 825.54,-502.62 832.14,-510.91 835.87,-504.99"/>
<text text-anchor="middle" x="1141.5" y="-791" font-family="Helvetica,sans-Serif" font-size="10.00"> ts_u</text>
<text text-anchor="middle" x="1141.5" y="-780" font-family="Helvetica,sans-Serif" font-size="10.00">ts_F</text>
<text text-anchor="middle" x="1141.5" y="-769" font-family="Helvetica,sans-Serif" font-size="10.00">ts_u_t</text>
<text text-anchor="middle" x="1141.5" y="-758" font-family="Helvetica,sans-Serif" font-size="10.00">ts_u_tt</text>
</g>
<!-- Node23 -->
<g id="node23" class="node">
<title>Node23</title>
<g id="a_node23"><a xlink:title=" ">
<polygon fill="white" stroke="#bfbfbf" points="1124,-641.5 1124,-660.5 1159,-660.5 1159,-641.5 1124,-641.5"/>
<text text-anchor="middle" x="1141.5" y="-648.5" font-family="Helvetica,sans-Serif" font-size="10.00">KSP</text>
</a>
</g>
</g>
<!-- Node23&#45;&gt;Node14 -->
<g id="edge22" class="edge">
<title>Node23&#45;&gt;Node14</title>
<path fill="none" stroke="#9a32cd" stroke-dasharray="5,2" d="M1169.24,-648.31C1189.85,-645.67 1218.83,-640.74 1243,-632 1251.61,-628.89 1252.31,-624.87 1261,-622 1293.54,-611.26 1382.85,-601.45 1441.93,-595.86"/>
<polygon fill="#9a32cd" stroke="#9a32cd" points="1168.81,-644.83 1159.29,-649.48 1169.64,-651.78 1168.81,-644.83"/>
<text text-anchor="middle" x="1329" y="-625" font-family="Helvetica,sans-Serif" font-size="10.00"> ksp</text>
</g>
<!-- Node24 -->
<g id="node24" class="node">
<title>Node24</title>
<g id="a_node24"><a xlink:title=" ">
<polygon fill="white" stroke="#bfbfbf" points="1104.5,-603.5 1104.5,-622.5 1178.5,-622.5 1178.5,-603.5 1104.5,-603.5"/>
<text text-anchor="middle" x="1141.5" y="-610.5" font-family="Helvetica,sans-Serif" font-size="10.00">KSPContext</text>
</a>
</g>
</g>
<!-- Node24&#45;&gt;Node14 -->
<g id="edge23" class="edge">
<title>Node24&#45;&gt;Node14</title>
<path fill="none" stroke="#9a32cd" stroke-dasharray="5,2" d="M1187.99,-601.09C1209.89,-595.95 1236.63,-590.54 1261,-588 1321.12,-581.73 1336.56,-587.1 1397,-588 1411.57,-588.22 1427.33,-588.61 1441.95,-589.05"/>
<polygon fill="#9a32cd" stroke="#9a32cd" points="1186.88,-597.76 1177.97,-603.5 1188.51,-604.56 1186.88,-597.76"/>
<text text-anchor="middle" x="1329" y="-591" font-family="Helvetica,sans-Serif" font-size="10.00"> ksp_ctx</text>
</g>
<!-- Node25&#45;&gt;Node13 -->
<g id="edge26" class="edge">
<title>Node25&#45;&gt;Node13</title>
<path fill="none" stroke="midnightblue" d="M1526.59,-459.57C1584.57,-492.36 1720.36,-578.11 1781,-692 1810.48,-747.38 1756.67,-785.7 1799,-832 1805.91,-839.56 1815.1,-844.47 1824.89,-847.59"/>
<polygon fill="midnightblue" stroke="midnightblue" points="1528.09,-456.4 1517.65,-454.59 1524.68,-462.51 1528.09,-456.4"/>
</g>
<!-- Node26 -->
<g id="node26" class="node">
<title>Node26</title>
<g id="a_node26"><a xlink:title=" ">
<polygon fill="white" stroke="#bfbfbf" points="1120.5,-422.5 1120.5,-441.5 1162.5,-441.5 1162.5,-422.5 1120.5,-422.5"/>
<text text-anchor="middle" x="1141.5" y="-429.5" font-family="Helvetica,sans-Serif" font-size="10.00">SNES</text>
</a>
</g>
</g>
<!-- Node26&#45;&gt;Node25 -->
<g id="edge28" class="edge">
<title>Node26&#45;&gt;Node25</title>
<path fill="none" stroke="#9a32cd" stroke-dasharray="5,2" d="M1172.94,-429.86C1220.74,-426.91 1316.29,-422.62 1397,-429 1413.56,-430.31 1431.5,-432.81 1447.59,-435.46"/>
<polygon fill="#9a32cd" stroke="#9a32cd" points="1172.42,-426.39 1162.67,-430.52 1172.87,-433.37 1172.42,-426.39"/>
<text text-anchor="middle" x="1329" y="-432" font-family="Helvetica,sans-Serif" font-size="10.00"> snes</text>
</g>
<!-- Node27 -->
<g id="node27" class="node">
<title>Node27</title>
<g id="a_node27"><a xlink:title=" ">
<polygon fill="white" stroke="#bfbfbf" points="1101.5,-384.5 1101.5,-403.5 1181.5,-403.5 1181.5,-384.5 1101.5,-384.5"/>
<text text-anchor="middle" x="1141.5" y="-391.5" font-family="Helvetica,sans-Serif" font-size="10.00">SNESContext</text>
</a>
</g>
</g>
<!-- Node27&#45;&gt;Node25 -->
<g id="edge31" class="edge">
<title>Node27&#45;&gt;Node25</title>
<path fill="none" stroke="#9a32cd" stroke-dasharray="5,2" d="M1191.95,-393.15C1243.61,-393.19 1326.76,-395.84 1397,-410 1424.89,-415.62 1455.59,-427.15 1475.63,-435.44"/>
<polygon fill="#9a32cd" stroke="#9a32cd" points="1191.72,-389.65 1181.73,-393.18 1191.74,-396.65 1191.72,-389.65"/>
<text text-anchor="middle" x="1329" y="-413" font-family="Helvetica,sans-Serif" font-size="10.00"> snes_ctx</text>
</g>
<!-- Node28&#45;&gt;Node13 -->
<g id="edge32" class="edge">
<title>Node28&#45;&gt;Node13</title>
<path fill="none" stroke="midnightblue" d="M1562.67,-836.79C1635.29,-839.99 1753.64,-845.21 1824.93,-848.35"/>
<polygon fill="midnightblue" stroke="midnightblue" points="1562.44,-833.27 1552.29,-836.33 1562.13,-840.27 1562.44,-833.27"/>
</g>
<!-- Node29 -->
<g id="node29" class="node">
<title>Node29</title>
<g id="a_node29"><a xlink:title=" ">
<polygon fill="white" stroke="#bfbfbf" points="1109,-989.5 1109,-1008.5 1174,-1008.5 1174,-989.5 1109,-989.5"/>
<text text-anchor="middle" x="1141.5" y="-996.5" font-family="Helvetica,sans-Serif" font-size="10.00">PetscReal</text>
</a>
</g>
</g>
<!-- Node29&#45;&gt;Node28 -->
<g id="edge35" class="edge">
<title>Node29&#45;&gt;Node28</title>
<path fill="none" stroke="#9a32cd" stroke-dasharray="5,2" d="M1184.52,-994.12C1202.84,-991.22 1224.35,-986.74 1243,-980 1251.61,-976.89 1252.36,-973.03 1261,-970 1318.85,-949.71 1353.19,-989.88 1397,-947 1427.4,-917.25 1385.49,-883.63 1415,-853 1422.95,-844.74 1433.72,-839.76 1444.85,-836.81"/>
<polygon fill="#9a32cd" stroke="#9a32cd" points="1183.81,-990.69 1174.43,-995.62 1184.83,-997.62 1183.81,-990.69"/>
<text text-anchor="middle" x="1329" y="-1006" font-family="Helvetica,sans-Serif" font-size="10.00"> ts_a</text>
<text text-anchor="middle" x="1329" y="-995" font-family="Helvetica,sans-Serif" font-size="10.00">ts_t</text>
<text text-anchor="middle" x="1329" y="-984" font-family="Helvetica,sans-Serif" font-size="10.00">ts_dt</text>
<text text-anchor="middle" x="1329" y="-973" font-family="Helvetica,sans-Serif" font-size="10.00">ts_aa</text>
</g>
<!-- Node30 -->
<g id="node30" class="node">
<title>Node30</title>
<g id="a_node30"><a xlink:title=" ">
<polygon fill="white" stroke="#bfbfbf" points="1108,-951.5 1108,-970.5 1175,-970.5 1175,-951.5 1108,-951.5"/>
<text text-anchor="middle" x="1141.5" y="-958.5" font-family="Helvetica,sans-Serif" font-size="10.00">TSContext</text>
</a>
</g>
</g>
<!-- Node30&#45;&gt;Node28 -->
<g id="edge36" class="edge">
<title>Node30&#45;&gt;Node28</title>
<path fill="none" stroke="#9a32cd" stroke-dasharray="5,2" d="M1185.24,-954.23C1203.2,-951.05 1224.24,-946.88 1243,-942 1251.16,-939.88 1252.82,-938.04 1261,-936 1320.48,-921.15 1351.05,-953.58 1397,-913 1417.87,-894.57 1394.68,-872.04 1415,-853 1423.15,-845.36 1433.73,-840.59 1444.59,-837.64"/>
<polygon fill="#9a32cd" stroke="#9a32cd" points="1184.59,-950.79 1175.34,-955.94 1185.79,-957.69 1184.59,-950.79"/>
<text text-anchor="middle" x="1329" y="-939" font-family="Helvetica,sans-Serif" font-size="10.00"> ts_ctx</text>
</g>
<!-- Node31 -->
<g id="node31" class="node">
<title>Node31</title>
<g id="a_node31"><a xlink:title=" ">
<polygon fill="white" stroke="#bfbfbf" points="1113.5,-913.5 1113.5,-932.5 1169.5,-932.5 1169.5,-913.5 1113.5,-913.5"/>
<text text-anchor="middle" x="1141.5" y="-920.5" font-family="Helvetica,sans-Serif" font-size="10.00">PetscInt</text>
</a>
</g>
</g>
<!-- Node31&#45;&gt;Node28 -->
<g id="edge37" class="edge">
<title>Node31&#45;&gt;Node28</title>
<path fill="none" stroke="#9a32cd" stroke-dasharray="5,2" d="M1179.95,-916.29C1203.26,-912.13 1233.86,-906.7 1261,-902 1321.4,-891.54 1345.27,-911.89 1397,-879 1408.86,-871.46 1403.37,-860.89 1415,-853 1423.88,-846.98 1434.41,-842.85 1444.91,-840.02"/>
<polygon fill="#9a32cd" stroke="#9a32cd" points="1179.02,-912.9 1169.79,-918.1 1180.25,-919.79 1179.02,-912.9"/>
<text text-anchor="middle" x="1329" y="-905" font-family="Helvetica,sans-Serif" font-size="10.00"> ts_step</text>
</g>
<!-- Node32 -->
<g id="node32" class="node">
<title>Node32</title>
<g id="a_node32"><a xlink:title=" ">
<polygon fill="white" stroke="#bfbfbf" points="1127,-875.5 1127,-894.5 1156,-894.5 1156,-875.5 1127,-875.5"/>
<text text-anchor="middle" x="1141.5" y="-882.5" font-family="Helvetica,sans-Serif" font-size="10.00">TS</text>
</a>
</g>
</g>
<!-- Node32&#45;&gt;Node28 -->
<g id="edge39" class="edge">
<title>Node32&#45;&gt;Node28</title>
<path fill="none" stroke="#9a32cd" stroke-dasharray="5,2" d="M1166.58,-881.54C1223.4,-873.38 1366.9,-852.76 1444.96,-841.55"/>
<polygon fill="#9a32cd" stroke="#9a32cd" points="1165.82,-878.11 1156.42,-883 1166.81,-885.04 1165.82,-878.11"/>
<text text-anchor="middle" x="1329" y="-870" font-family="Helvetica,sans-Serif" font-size="10.00"> ts</text>
</g>
<!-- Node33 -->
<g id="node33" class="node">
<title>Node33</title>
<g id="a_node33"><a xlink:title=" ">
<polygon fill="white" stroke="#bfbfbf" points="1454,-940.5 1454,-959.5 1543,-959.5 1543,-940.5 1454,-940.5"/>
<text text-anchor="middle" x="1498.5" y="-947.5" font-family="Helvetica,sans-Serif" font-size="10.00">pair&lt; int, int &gt;</text>
</a>
</g>
</g>
<!-- Node33&#45;&gt;Node13 -->
<g id="edge41" class="edge">
<title>Node33&#45;&gt;Node13</title>
<path fill="none" stroke="#9a32cd" stroke-dasharray="5,2" d="M1553.27,-954.04C1611.49,-956.44 1706.06,-954.48 1781,-925 1790.43,-921.29 1790.84,-917.01 1799,-911 1823.91,-892.64 1853.66,-872.21 1870.84,-860.55"/>
<polygon fill="#9a32cd" stroke="#9a32cd" points="1553.34,-950.54 1543.19,-953.57 1553.02,-957.53 1553.34,-950.54"/>
<text text-anchor="middle" x="1690.5" y="-957" font-family="Helvetica,sans-Serif" font-size="10.00"> loHiFERank</text>
</g>
<!-- Node34 -->
<g id="node34" class="node">
<title>Node34</title>
<g id="a_node34"><a xlink:title=" ">
<polygon fill="white" stroke="#bfbfbf" points="1428.5,-902.5 1428.5,-921.5 1568.5,-921.5 1568.5,-902.5 1428.5,-902.5"/>
<text text-anchor="middle" x="1498.5" y="-909.5" font-family="Helvetica,sans-Serif" font-size="10.00">weak_ptr&lt; CacheTuple &gt;</text>
</a>
</g>
</g>
<!-- Node34&#45;&gt;Node13 -->
<g id="edge42" class="edge">
<title>Node34&#45;&gt;Node13</title>
<path fill="none" stroke="#9a32cd" stroke-dasharray="5,2" d="M1578.56,-911.72C1635.47,-910.1 1713.73,-904.93 1781,-890 1811.12,-883.32 1844.22,-869.75 1864.8,-860.52"/>
<polygon fill="#9a32cd" stroke="#9a32cd" points="1578.46,-908.22 1568.55,-911.98 1578.64,-915.22 1578.46,-908.22"/>
<text text-anchor="middle" x="1690.5" y="-913" font-family="Helvetica,sans-Serif" font-size="10.00"> cacheWeakPtr</text>
</g>
<!-- Node35 -->
<g id="node35" class="node">
<title>Node35</title>
<g id="a_node35"><a xlink:title=" ">
<polygon fill="white" stroke="#bfbfbf" points="1442.5,-862.5 1442.5,-881.5 1554.5,-881.5 1554.5,-862.5 1442.5,-862.5"/>
<text text-anchor="middle" x="1498.5" y="-869.5" font-family="Helvetica,sans-Serif" font-size="10.00">unique_ptr&lt; bool &gt;</text>
</a>
</g>
</g>
<!-- Node35&#45;&gt;Node13 -->
<g id="edge43" class="edge">
<title>Node35&#45;&gt;Node13</title>
<path fill="none" stroke="#9a32cd" stroke-dasharray="5,2" d="M1565.14,-868.42C1637.91,-864.46 1754.29,-858.12 1824.79,-854.28"/>
<polygon fill="#9a32cd" stroke="#9a32cd" points="1564.53,-864.95 1554.73,-868.99 1564.91,-871.94 1564.53,-864.95"/>
<text text-anchor="middle" x="1690.5" y="-880" font-family="Helvetica,sans-Serif" font-size="10.00"> matAssembleSwitch</text>
<text text-anchor="middle" x="1690.5" y="-869" font-family="Helvetica,sans-Serif" font-size="10.00">vecAssembleSwitch</text>
</g>
<!-- Node36 -->
<g id="node36" class="node">
<title>Node36</title>
<g id="a_node36"><a xlink:title=" ">
<polygon fill="white" stroke="#bfbfbf" points="1127,-275.5 1127,-294.5 1156,-294.5 1156,-275.5 1127,-275.5"/>
<text text-anchor="middle" x="1141.5" y="-282.5" font-family="Helvetica,sans-Serif" font-size="10.00">int</text>
</a>
</g>
</g>
<!-- Node36&#45;&gt;Node13 -->
<g id="edge44" class="edge">
<title>Node36&#45;&gt;Node13</title>
<path fill="none" stroke="#9a32cd" stroke-dasharray="5,2" d="M1166.3,-289.17C1246.17,-303.35 1503.97,-350.51 1582,-382 1678.2,-420.83 1727.86,-414.9 1781,-504 1818.39,-566.69 1751.75,-776.36 1799,-832 1805.73,-839.93 1814.95,-844.98 1824.87,-848.13"/>
<polygon fill="#9a32cd" stroke="#9a32cd" points="1166.71,-285.69 1156.25,-287.4 1165.49,-292.59 1166.71,-285.69"/>
<text text-anchor="middle" x="1498.5" y="-418" font-family="Helvetica,sans-Serif" font-size="10.00"> sIze</text>
<text text-anchor="middle" x="1498.5" y="-407" font-family="Helvetica,sans-Serif" font-size="10.00">loopSize</text>
<text text-anchor="middle" x="1498.5" y="-396" font-family="Helvetica,sans-Serif" font-size="10.00">nInTheLoop</text>
<text text-anchor="middle" x="1498.5" y="-385" font-family="Helvetica,sans-Serif" font-size="10.00">rAnk</text>
</g>
<!-- Node36&#45;&gt;Node38 -->
<g id="edge56" class="edge">
<title>Node36&#45;&gt;Node38</title>
<path fill="none" stroke="#9a32cd" stroke-dasharray="5,2" d="M1166.57,-286.59C1190.21,-289.56 1225.22,-298.02 1243,-322 1284.23,-377.61 1232.55,-569.89 1261,-633 1296,-710.65 1360.79,-690.92 1397,-768 1435.14,-849.18 1396.23,-881.3 1415,-969 1434.66,-1060.86 1479.1,-1166.15 1493.15,-1198.23"/>
<polygon fill="#9a32cd" stroke="#9a32cd" points="1166.62,-283.08 1156.31,-285.55 1165.91,-290.04 1166.62,-283.08"/>
<text text-anchor="middle" x="1329" y="-837" font-family="Helvetica,sans-Serif" font-size="10.00"> tagNameSize</text>
<text text-anchor="middle" x="1329" y="-826" font-family="Helvetica,sans-Serif" font-size="10.00">nbDofsRow</text>
<text text-anchor="middle" x="1329" y="-815" font-family="Helvetica,sans-Serif" font-size="10.00">nbLocDofsCol</text>
<text text-anchor="middle" x="1329" y="-804" font-family="Helvetica,sans-Serif" font-size="10.00">nbDofsCol</text>
<text text-anchor="middle" x="1329" y="-793" font-family="Helvetica,sans-Serif" font-size="10.00">nbGhostDofsRow</text>
<text text-anchor="middle" x="1329" y="-782" font-family="Helvetica,sans-Serif" font-size="10.00">nbGhostDofsCol</text>
<text text-anchor="middle" x="1329" y="-771" font-family="Helvetica,sans-Serif" font-size="10.00">nbLocDofsRow</text>
</g>
<!-- Node78 -->
<g id="node78" class="node">
<title>Node78</title>
<g id="a_node78"><a xlink:href="structMoFEM_1_1FaceElementForcesAndSourcesCoreOnSide.html" target="_top" xlink:title="Base face element used to integrate on skeleton.">
<polygon fill="white" stroke="black" points="3116,-775 3116,-805 3268,-805 3268,-775 3116,-775"/>
<text text-anchor="start" x="3124" y="-793" font-family="Helvetica,sans-Serif" font-size="10.00">MoFEM::FaceElementForces</text>
<text text-anchor="middle" x="3192" y="-782" font-family="Helvetica,sans-Serif" font-size="10.00">AndSourcesCoreOnSide</text>
</a>
</g>
</g>
<!-- Node36&#45;&gt;Node78 -->
<g id="edge101" class="edge">
<title>Node36&#45;&gt;Node78</title>
<path fill="none" stroke="#9a32cd" stroke-dasharray="5,2" d="M1165.22,-273.29C1220.51,-245.91 1367.14,-180 1497.5,-180 1497.5,-180 1497.5,-180 2923,-180 3191.36,-180 3193.42,-680.99 3191.45,-774.92"/>
<polygon fill="#9a32cd" stroke="#9a32cd" points="1163.63,-270.17 1156.27,-277.78 1166.77,-276.42 1163.63,-270.17"/>
<text text-anchor="middle" x="2256" y="-205" font-family="Helvetica,sans-Serif" font-size="10.00"> edgeSideNumber</text>
<text text-anchor="middle" x="2256" y="-194" font-family="Helvetica,sans-Serif" font-size="10.00">oppositeNode</text>
<text text-anchor="middle" x="2256" y="-183" font-family="Helvetica,sans-Serif" font-size="10.00">edgeSense</text>
</g>
<!-- Node36&#45;&gt;Node79 -->
<g id="edge98" class="edge">
<title>Node36&#45;&gt;Node79</title>
<path fill="none" stroke="#9a32cd" stroke-dasharray="5,2" d="M1166.18,-284.32C1223.2,-282.75 1372.68,-279 1497.5,-279 1497.5,-279 1497.5,-279 2643,-279 2886.76,-279 2658.52,-625.98 2837,-792 2841.12,-795.83 2845.81,-799.08 2850.81,-801.83"/>
<polygon fill="#9a32cd" stroke="#9a32cd" points="1165.94,-280.83 1156.04,-284.61 1166.13,-287.83 1165.94,-280.83"/>
<text text-anchor="middle" x="2063" y="-282" font-family="Helvetica,sans-Serif" font-size="10.00"> num_nodes</text>
</g>
<!-- Node37 -->
<g id="node37" class="node">
<title>Node37</title>
<g id="a_node37"><a xlink:title=" ">
<polygon fill="white" stroke="#bfbfbf" points="1415,-307.5 1415,-326.5 1582,-326.5 1582,-307.5 1415,-307.5"/>
<text text-anchor="middle" x="1498.5" y="-314.5" font-family="Helvetica,sans-Serif" font-size="10.00">function&lt; MoFEMErrorCode()&gt;</text>
</a>
</g>
</g>
<!-- Node37&#45;&gt;Node13 -->
<g id="edge45" class="edge">
<title>Node37&#45;&gt;Node13</title>
<path fill="none" stroke="#9a32cd" stroke-dasharray="5,2" d="M1573.5,-306.22C1646.92,-297.4 1752.51,-290.39 1781,-318 1822.04,-357.77 1762.44,-788.08 1799,-832 1805.65,-839.99 1814.84,-845.08 1824.74,-848.24"/>
<polygon fill="#9a32cd" stroke="#9a32cd" points="1572.86,-302.77 1563.36,-307.48 1573.71,-309.72 1572.86,-302.77"/>
<text text-anchor="middle" x="1690.5" y="-343" font-family="Helvetica,sans-Serif" font-size="10.00"> preProcessHook</text>
<text text-anchor="middle" x="1690.5" y="-332" font-family="Helvetica,sans-Serif" font-size="10.00">operatorHook</text>
<text text-anchor="middle" x="1690.5" y="-321" font-family="Helvetica,sans-Serif" font-size="10.00">postProcessHook</text>
</g>
<!-- Node38&#45;&gt;Node13 -->
<g id="edge46" class="edge">
<title>Node38&#45;&gt;Node13</title>
<path fill="none" stroke="#9a32cd" stroke-dasharray="5,2" d="M1525.49,-1193.09C1580.84,-1160 1711.01,-1074.93 1781,-969 1795.88,-946.48 1783.07,-932.79 1799,-911 1815.87,-887.93 1844.39,-870.59 1863.93,-860.63"/>
<polygon fill="#9a32cd" stroke="#9a32cd" points="1523.49,-1190.2 1516.66,-1198.3 1527.05,-1196.23 1523.49,-1190.2"/>
<text text-anchor="middle" x="1690.5" y="-1142" font-family="Helvetica,sans-Serif" font-size="10.00"> problemPtr</text>
</g>
<!-- Node39 -->
<g id="node39" class="node">
<title>Node39</title>
<g id="a_node39"><a xlink:title=" ">
<polygon fill="white" stroke="#bfbfbf" points="1058,-1370 1058,-1400 1225,-1400 1225,-1370 1058,-1370"/>
<text text-anchor="start" x="1066" y="-1388" font-family="Helvetica,sans-Serif" font-size="10.00">shared_ptr&lt; NumeredEntFinite</text>
<text text-anchor="middle" x="1141.5" y="-1377" font-family="Helvetica,sans-Serif" font-size="10.00">Element_multiIndex &gt;</text>
</a>
</g>
</g>
<!-- Node39&#45;&gt;Node38 -->
<g id="edge47" class="edge">
<title>Node39&#45;&gt;Node38</title>
<path fill="none" stroke="#9a32cd" stroke-dasharray="5,2" d="M1235.38,-1377.8C1302.28,-1371.98 1383.11,-1363.41 1397,-1355 1452.28,-1321.55 1484.28,-1244.74 1494.17,-1217.66"/>
<polygon fill="#9a32cd" stroke="#9a32cd" points="1234.87,-1374.33 1225.2,-1378.67 1235.47,-1381.31 1234.87,-1374.33"/>
<text text-anchor="middle" x="1329" y="-1377" font-family="Helvetica,sans-Serif" font-size="10.00"> numeredFiniteElementsPtr</text>
</g>
<!-- Node40 -->
<g id="node40" class="node">
<title>Node40</title>
<g id="a_node40"><a xlink:title=" ">
<polygon fill="white" stroke="#bfbfbf" points="1112,-1331.5 1112,-1350.5 1171,-1350.5 1171,-1331.5 1112,-1331.5"/>
<text text-anchor="middle" x="1141.5" y="-1338.5" font-family="Helvetica,sans-Serif" font-size="10.00">BitFEId *</text>
</a>
</g>
</g>
<!-- Node40&#45;&gt;Node38 -->
<g id="edge48" class="edge">
<title>Node40&#45;&gt;Node38</title>
<path fill="none" stroke="#9a32cd" stroke-dasharray="5,2" d="M1181.45,-1343.96C1233.4,-1346.25 1326.93,-1344.45 1397,-1310 1441.39,-1288.17 1477.5,-1238.64 1491.37,-1217.67"/>
<polygon fill="#9a32cd" stroke="#9a32cd" points="1181.49,-1340.46 1171.33,-1343.44 1181.13,-1347.45 1181.49,-1340.46"/>
<text text-anchor="middle" x="1329" y="-1345" font-family="Helvetica,sans-Serif" font-size="10.00"> tagBitFEId</text>
</g>
<!-- Node41 -->
<g id="node41" class="node">
<title>Node41</title>
<g id="a_node41"><a xlink:href="classEntityHandle.html" target="_top" xlink:title=" ">
<polygon fill="white" stroke="black" points="1101.5,-1028.5 1101.5,-1047.5 1181.5,-1047.5 1181.5,-1028.5 1101.5,-1028.5"/>
<text text-anchor="middle" x="1141.5" y="-1035.5" font-family="Helvetica,sans-Serif" font-size="10.00">EntityHandle</text>
</a>
</g>
</g>
<!-- Node41&#45;&gt;Node38 -->
<g id="edge49" class="edge">
<title>Node41&#45;&gt;Node38</title>
<path fill="none" stroke="#9a32cd" stroke-dasharray="5,2" d="M1191.91,-1040C1260.94,-1043.13 1379.78,-1049.91 1397,-1060 1453,-1092.83 1484.55,-1170.7 1494.24,-1198.19"/>
<polygon fill="#9a32cd" stroke="#9a32cd" points="1191.84,-1036.49 1181.69,-1039.54 1191.53,-1043.48 1191.84,-1036.49"/>
<text text-anchor="middle" x="1329" y="-1063" font-family="Helvetica,sans-Serif" font-size="10.00"> meshset</text>
</g>
<!-- Node41&#45;&gt;Node79 -->
<g id="edge96" class="edge">
<title>Node41&#45;&gt;Node79</title>
<path fill="none" stroke="#9a32cd" stroke-dasharray="5,2" d="M1192.24,-1037.71C1321.31,-1036.66 1677.43,-1031.73 1973,-1009 2016.07,-1005.69 2325.81,-990.63 2359,-963 2379.74,-945.73 2356.48,-922.54 2377,-905 2436.75,-853.93 2649.26,-865.58 2727,-854 2767.91,-847.91 2778.36,-847.66 2819,-840 2831.49,-837.65 2844.77,-834.86 2857.48,-832.05"/>
<polygon fill="#9a32cd" stroke="#9a32cd" points="1191.88,-1034.22 1181.9,-1037.79 1191.93,-1041.22 1191.88,-1034.22"/>
<text text-anchor="middle" x="2063" y="-1010" font-family="Helvetica,sans-Serif" font-size="10.00"> conn</text>
</g>
<!-- Node42 -->
<g id="node42" class="node">
<title>Node42</title>
<g id="a_node42"><a xlink:title=" ">
<polygon fill="white" stroke="#bfbfbf" points="1067,-1282 1067,-1312 1216,-1312 1216,-1282 1067,-1282"/>
<text text-anchor="start" x="1075" y="-1300" font-family="Helvetica,sans-Serif" font-size="10.00">shared_ptr&lt; MoFEM::</text>
<text text-anchor="middle" x="1141.5" y="-1289" font-family="Helvetica,sans-Serif" font-size="10.00">ComposedProblemsData &gt;</text>
</a>
</g>
</g>
<!-- Node42&#45;&gt;Node38 -->
<g id="edge50" class="edge">
<title>Node42&#45;&gt;Node38</title>
<path fill="none" stroke="#9a32cd" stroke-dasharray="5,2" d="M1226.49,-1297.96C1277.11,-1296.22 1342.18,-1289.83 1397,-1271 1432.45,-1258.82 1468.29,-1232.12 1486.05,-1217.7"/>
<polygon fill="#9a32cd" stroke="#9a32cd" points="1226.14,-1294.47 1216.24,-1298.25 1226.34,-1301.46 1226.14,-1294.47"/>
<text text-anchor="middle" x="1329" y="-1298" font-family="Helvetica,sans-Serif" font-size="10.00"> composedProblemsData</text>
</g>
<!-- Node43 -->
<g id="node43" class="node">
<title>Node43</title>
<g id="a_node43"><a xlink:title=" ">
<polygon fill="white" stroke="#bfbfbf" points="1101,-1243.5 1101,-1262.5 1182,-1262.5 1182,-1243.5 1101,-1243.5"/>
<text text-anchor="middle" x="1141.5" y="-1250.5" font-family="Helvetica,sans-Serif" font-size="10.00">BitRefLevel *</text>
</a>
</g>
</g>
<!-- Node43&#45;&gt;Node38 -->
<g id="edge51" class="edge">
<title>Node43&#45;&gt;Node38</title>
<path fill="none" stroke="#9a32cd" stroke-dasharray="5,2" d="M1192.57,-1250.73C1244.07,-1247.91 1326.5,-1242.06 1397,-1231 1418.57,-1227.62 1442.41,-1222.23 1461.45,-1217.53"/>
<polygon fill="#9a32cd" stroke="#9a32cd" points="1192.18,-1247.24 1182.38,-1251.27 1192.55,-1254.23 1192.18,-1247.24"/>
<text text-anchor="middle" x="1329" y="-1259" font-family="Helvetica,sans-Serif" font-size="10.00"> tagBitRefLevelMask</text>
<text text-anchor="middle" x="1329" y="-1248" font-family="Helvetica,sans-Serif" font-size="10.00">tagBitRefLevel</text>
</g>
<!-- Node44 -->
<g id="node44" class="node">
<title>Node44</title>
<g id="a_node44"><a xlink:title=" ">
<polygon fill="white" stroke="#bfbfbf" points="1056.5,-1194 1056.5,-1224 1226.5,-1224 1226.5,-1194 1056.5,-1194"/>
<text text-anchor="start" x="1064.5" y="-1212" font-family="Helvetica,sans-Serif" font-size="10.00">shared_ptr&lt; NumeredDofEntity</text>
<text text-anchor="middle" x="1141.5" y="-1201" font-family="Helvetica,sans-Serif" font-size="10.00">_multiIndex &gt;</text>
</a>
</g>
</g>
<!-- Node44&#45;&gt;Node38 -->
<g id="edge52" class="edge">
<title>Node44&#45;&gt;Node38</title>
<path fill="none" stroke="#9a32cd" stroke-dasharray="5,2" d="M1236.96,-1208.73C1305.2,-1208.54 1394.57,-1208.29 1448.92,-1208.14"/>
<polygon fill="#9a32cd" stroke="#9a32cd" points="1236.62,-1205.23 1226.63,-1208.76 1236.64,-1212.23 1236.62,-1205.23"/>
<text text-anchor="middle" x="1329" y="-1222" font-family="Helvetica,sans-Serif" font-size="10.00"> numeredRowDofsPtr</text>
<text text-anchor="middle" x="1329" y="-1211" font-family="Helvetica,sans-Serif" font-size="10.00">numeredColDofsPtr</text>
</g>
<!-- Node45 -->
<g id="node45" class="node">
<title>Node45</title>
<g id="a_node45"><a xlink:title=" ">
<polygon fill="white" stroke="#bfbfbf" points="1072.5,-1155.5 1072.5,-1174.5 1210.5,-1174.5 1210.5,-1155.5 1072.5,-1155.5"/>
<text text-anchor="middle" x="1141.5" y="-1162.5" font-family="Helvetica,sans-Serif" font-size="10.00">vector&lt; BlockFieldPair &gt;</text>
</a>
</g>
</g>
<!-- Node45&#45;&gt;Node38 -->
<g id="edge54" class="edge">
<title>Node45&#45;&gt;Node38</title>
<path fill="none" stroke="#9a32cd" stroke-dasharray="5,2" d="M1220.81,-1172.83C1271.19,-1178.06 1338.03,-1185.36 1397,-1193 1413.97,-1195.2 1432.51,-1197.89 1448.99,-1200.37"/>
<polygon fill="#9a32cd" stroke="#9a32cd" points="1220.94,-1169.32 1210.64,-1171.78 1220.23,-1176.28 1220.94,-1169.32"/>
<text text-anchor="middle" x="1329" y="-1196" font-family="Helvetica,sans-Serif" font-size="10.00"> emptyFieldBlocks</text>
</g>
<!-- Node46 -->
<g id="node46" class="node">
<title>Node46</title>
<g id="a_node46"><a xlink:title=" ">
<polygon fill="white" stroke="#bfbfbf" points="1063.5,-1106 1063.5,-1136 1219.5,-1136 1219.5,-1106 1063.5,-1106"/>
<text text-anchor="start" x="1071.5" y="-1124" font-family="Helvetica,sans-Serif" font-size="10.00">shared_ptr&lt; MoFEM::</text>
<text text-anchor="middle" x="1141.5" y="-1113" font-family="Helvetica,sans-Serif" font-size="10.00">Problem::SubProblemData &gt;</text>
</a>
</g>
</g>
<!-- Node46&#45;&gt;Node38 -->
<g id="edge55" class="edge">
<title>Node46&#45;&gt;Node38</title>
<path fill="none" stroke="#9a32cd" stroke-dasharray="5,2" d="M1229.81,-1129.17C1279.55,-1135.28 1342.61,-1145.5 1397,-1162 1427.48,-1171.25 1460.69,-1187.84 1480.27,-1198.37"/>
<polygon fill="#9a32cd" stroke="#9a32cd" points="1230.07,-1125.68 1219.72,-1127.97 1229.24,-1132.63 1230.07,-1125.68"/>
<text text-anchor="middle" x="1329" y="-1165" font-family="Helvetica,sans-Serif" font-size="10.00"> subProblemData</text>
</g>
<!-- Node47 -->
<g id="node47" class="node">
<title>Node47</title>
<g id="a_node47"><a xlink:title=" ">
<polygon fill="white" stroke="#bfbfbf" points="1040,-1067.5 1040,-1086.5 1243,-1086.5 1243,-1067.5 1040,-1067.5"/>
<text text-anchor="middle" x="1141.5" y="-1074.5" font-family="Helvetica,sans-Serif" font-size="10.00">shared_ptr&lt; SequenceDofContainer &gt;</text>
</a>
</g>
</g>
<!-- Node47&#45;&gt;Node38 -->
<g id="edge57" class="edge">
<title>Node47&#45;&gt;Node38</title>
<path fill="none" stroke="#9a32cd" stroke-dasharray="5,2" d="M1253.23,-1074.87C1299.61,-1077.86 1352.89,-1086.58 1397,-1108 1440.84,-1129.29 1476.98,-1177.47 1491.11,-1198.2"/>
<polygon fill="#9a32cd" stroke="#9a32cd" points="1253.32,-1071.36 1243.14,-1074.3 1252.92,-1078.35 1253.32,-1071.36"/>
<text text-anchor="middle" x="1329" y="-1122" font-family="Helvetica,sans-Serif" font-size="10.00"> sequenceRowDofContainer</text>
<text text-anchor="middle" x="1329" y="-1111" font-family="Helvetica,sans-Serif" font-size="10.00">sequenceColDofContainer</text>
</g>
<!-- Node48 -->
<g id="node48" class="node">
<title>Node48</title>
<g id="a_node48"><a xlink:title=" ">
<polygon fill="white" stroke="#bfbfbf" points="1097.5,-1419.5 1097.5,-1438.5 1185.5,-1438.5 1185.5,-1419.5 1097.5,-1419.5"/>
<text text-anchor="middle" x="1141.5" y="-1426.5" font-family="Helvetica,sans-Serif" font-size="10.00">BitProblemId *</text>
</a>
</g>
</g>
<!-- Node48&#45;&gt;Node38 -->
<g id="edge58" class="edge">
<title>Node48&#45;&gt;Node38</title>
<path fill="none" stroke="#9a32cd" stroke-dasharray="5,2" d="M1195.64,-1421.24C1269.01,-1410.44 1392.88,-1391.88 1397,-1389 1459.75,-1345.15 1487.66,-1248.97 1495.26,-1217.89"/>
<polygon fill="#9a32cd" stroke="#9a32cd" points="1195.02,-1417.79 1185.63,-1422.71 1196.04,-1424.72 1195.02,-1417.79"/>
<text text-anchor="middle" x="1329" y="-1413" font-family="Helvetica,sans-Serif" font-size="10.00"> tagId</text>
</g>
<!-- Node49 -->
<g id="node49" class="node">
<title>Node49</title>
<g id="a_node49"><a xlink:title=" ">
<polygon fill="white" stroke="#bfbfbf" points="1805,-969 1805,-999 1967,-999 1967,-969 1805,-969"/>
<text text-anchor="start" x="1813" y="-987" font-family="Helvetica,sans-Serif" font-size="10.00">shared_ptr&lt; const MoFEM</text>
<text text-anchor="middle" x="1886" y="-976" font-family="Helvetica,sans-Serif" font-size="10.00">::NumeredEntFiniteElement &gt;</text>
</a>
</g>
</g>
<!-- Node49&#45;&gt;Node12 -->
<g id="edge59" class="edge">
<title>Node49&#45;&gt;Node12</title>
<path fill="none" stroke="#9a32cd" stroke-dasharray="5,2" d="M1977.54,-974.16C2048.18,-966.48 2143.85,-956.08 2202.4,-949.72"/>
<polygon fill="#9a32cd" stroke="#9a32cd" points="1976.87,-970.71 1967.3,-975.27 1977.62,-977.67 1976.87,-970.71"/>
<text text-anchor="middle" x="2063" y="-975" font-family="Helvetica,sans-Serif" font-size="10.00"> numeredEntFiniteElementPtr</text>
</g>
<!-- Node50 -->
<g id="node50" class="node">
<title>Node50</title>
<g id="a_node50"><a xlink:title=" ">
<polygon fill="white" stroke="#bfbfbf" points="1864,-803.5 1864,-822.5 1908,-822.5 1908,-803.5 1864,-803.5"/>
<text text-anchor="middle" x="1886" y="-810.5" font-family="Helvetica,sans-Serif" font-size="10.00">string</text>
</a>
</g>
</g>
<!-- Node50&#45;&gt;Node3 -->
<g id="edge82" class="edge">
<title>Node50&#45;&gt;Node3</title>
<path fill="none" stroke="#9a32cd" stroke-dasharray="5,2" d="M1918.13,-818.32C1965.5,-826.77 2058.3,-844.71 2135,-868 2143.21,-870.49 2144.81,-872.43 2153,-875 2242.88,-903.25 2279.26,-874.83 2359,-925 2369.69,-931.73 2365.92,-940.93 2377,-947 2440.59,-981.81 2472.36,-937.46 2539,-966 2722.87,-1044.76 2872.27,-1253.12 2911.13,-1310.94"/>
<polygon fill="#9a32cd" stroke="#9a32cd" points="1918.64,-814.86 1908.18,-816.57 1917.42,-821.75 1918.64,-814.86"/>
<text text-anchor="middle" x="2458" y="-980" font-family="Helvetica,sans-Serif" font-size="10.00"> colFieldName</text>
<text text-anchor="middle" x="2458" y="-969" font-family="Helvetica,sans-Serif" font-size="10.00">rowFieldName</text>
</g>
<!-- Node50&#45;&gt;Node12 -->
<g id="edge60" class="edge">
<title>Node50&#45;&gt;Node12</title>
<path fill="none" stroke="#9a32cd" stroke-dasharray="5,2" d="M1918.46,-813.7C1936.01,-815.53 1957.41,-820.29 1973,-832 1986.36,-842.04 1977.29,-855.45 1991,-865 2044.08,-901.95 2081.17,-850.15 2135,-886 2147.94,-894.62 2140.61,-906.6 2153,-916 2167.19,-926.77 2185.27,-933.4 2202.26,-937.47"/>
<polygon fill="#9a32cd" stroke="#9a32cd" points="1918.35,-810.18 1908.11,-812.91 1917.82,-817.16 1918.35,-810.18"/>
<text text-anchor="middle" x="2063" y="-889" font-family="Helvetica,sans-Serif" font-size="10.00"> feName</text>
</g>
<!-- Node50&#45;&gt;Node79 -->
<g id="edge99" class="edge">
<title>Node50&#45;&gt;Node79</title>
<path fill="none" stroke="#9a32cd" stroke-dasharray="5,2" d="M1918.43,-808.73C1968.12,-802.17 2067.94,-789.77 2153,-784 2448.36,-763.98 2525.84,-752.86 2819,-794 2833.02,-795.97 2847.97,-798.87 2861.97,-801.96"/>
<polygon fill="#9a32cd" stroke="#9a32cd" points="1917.78,-805.29 1908.32,-810.08 1918.7,-812.23 1917.78,-805.29"/>
<text text-anchor="middle" x="2458" y="-772" font-family="Helvetica,sans-Serif" font-size="10.00"> meshPositionsFieldName</text>
</g>
<!-- Node51 -->
<g id="node51" class="node">
<title>Node51</title>
<g id="a_node51"><a xlink:title=" ">
<polygon fill="white" stroke="#bfbfbf" points="1804.5,-920 1804.5,-950 1967.5,-950 1967.5,-920 1804.5,-920"/>
<text text-anchor="start" x="1812.5" y="-938" font-family="Helvetica,sans-Serif" font-size="10.00">function&lt; bool(MoFEM</text>
<text text-anchor="middle" x="1886" y="-927" font-family="Helvetica,sans-Serif" font-size="10.00">::FEMethod *fe_method_ptr)&gt;</text>
</a>
</g>
</g>
<!-- Node51&#45;&gt;Node12 -->
<g id="edge61" class="edge">
<title>Node51&#45;&gt;Node12</title>
<path fill="none" stroke="#9a32cd" stroke-dasharray="5,2" d="M1977.98,-937.23C2048.52,-938.95 2143.82,-941.28 2202.26,-942.71"/>
<polygon fill="#9a32cd" stroke="#9a32cd" points="1977.84,-933.72 1967.76,-936.98 1977.67,-940.72 1977.84,-933.72"/>
<text text-anchor="middle" x="2063" y="-943" font-family="Helvetica,sans-Serif" font-size="10.00"> exeTestHook</text>
</g>
<!-- Node52 -->
<g id="node52" class="node">
<title>Node52</title>
<g id="a_node52"><a xlink:href="classdouble.html" target="_top" xlink:title=" ">
<polygon fill="white" stroke="black" points="2231,-846.5 2231,-865.5 2281,-865.5 2281,-846.5 2231,-846.5"/>
<text text-anchor="middle" x="2256" y="-853.5" font-family="Helvetica,sans-Serif" font-size="10.00">double</text>
</a>
</g>
</g>
<!-- Node52&#45;&gt;Node11 -->
<g id="edge62" class="edge">
<title>Node52&#45;&gt;Node11</title>
<path fill="none" stroke="#9a32cd" stroke-dasharray="5,2" d="M2289.3,-870.22C2312.03,-881.82 2341.41,-900.32 2359,-925 2376.9,-950.11 2353.79,-971.7 2377,-992 2431.65,-1039.8 2475.76,-977.34 2539,-1013 2589.74,-1041.61 2624.62,-1106.48 2636.51,-1131.19"/>
<polygon fill="#9a32cd" stroke="#9a32cd" points="2290.55,-866.93 2280.03,-865.67 2287.47,-873.21 2290.55,-866.93"/>
<text text-anchor="middle" x="2458" y="-1016" font-family="Helvetica,sans-Serif" font-size="10.00"> elementMeasure</text>
</g>
<!-- Node52&#45;&gt;Node79 -->
<g id="edge97" class="edge">
<title>Node52&#45;&gt;Node79</title>
<path fill="none" stroke="#9a32cd" stroke-dasharray="5,2" d="M2291.67,-854.22C2369.52,-850.19 2564.18,-839.96 2727,-830 2766.25,-827.6 2809.96,-824.69 2845.93,-822.23"/>
<polygon fill="#9a32cd" stroke="#9a32cd" points="2291.28,-850.74 2281.47,-854.75 2291.64,-857.73 2291.28,-850.74"/>
<text text-anchor="middle" x="2642" y="-842" font-family="Helvetica,sans-Serif" font-size="10.00"> aRea</text>
</g>
<!-- Node53 -->
<g id="node53" class="node">
<title>Node53</title>
<g id="a_node53"><a xlink:title=" ">
<polygon fill="white" stroke="#bfbfbf" points="2170,-1169.5 2170,-1210.5 2342,-1210.5 2342,-1169.5 2170,-1169.5"/>
<text text-anchor="start" x="2178" y="-1198.5" font-family="Helvetica,sans-Serif" font-size="10.00">array&lt; boost::shared</text>
<text text-anchor="start" x="2178" y="-1187.5" font-family="Helvetica,sans-Serif" font-size="10.00">_ptr&lt; MoFEM::EntitiesFieldData</text>
<text text-anchor="middle" x="2256" y="-1176.5" font-family="Helvetica,sans-Serif" font-size="10.00"> &gt;, LASTSPACE &gt;</text>
</a>
</g>
</g>
<!-- Node53&#45;&gt;Node11 -->
<g id="edge63" class="edge">
<title>Node53&#45;&gt;Node11</title>
<path fill="none" stroke="#9a32cd" stroke-dasharray="5,2" d="M2352.25,-1179.14C2406.94,-1172.75 2476.88,-1164.31 2539,-1156 2551.6,-1154.31 2565.05,-1152.41 2577.92,-1150.54"/>
<polygon fill="#9a32cd" stroke="#9a32cd" points="2351.75,-1175.68 2342.22,-1180.31 2352.56,-1182.63 2351.75,-1175.68"/>
<text text-anchor="middle" x="2458" y="-1190" font-family="Helvetica,sans-Serif" font-size="10.00"> derivedDataOnElement</text>
<text text-anchor="middle" x="2458" y="-1179" font-family="Helvetica,sans-Serif" font-size="10.00">dataOnElement</text>
</g>
<!-- Node54 -->
<g id="node54" class="node">
<title>Node54</title>
<g id="a_node54"><a xlink:title=" ">
<polygon fill="white" stroke="#bfbfbf" points="2222,-1131.5 2222,-1150.5 2290,-1150.5 2290,-1131.5 2222,-1131.5"/>
<text text-anchor="middle" x="2256" y="-1138.5" font-family="Helvetica,sans-Serif" font-size="10.00">EntityType</text>
</a>
</g>
</g>
<!-- Node54&#45;&gt;Node11 -->
<g id="edge64" class="edge">
<title>Node54&#45;&gt;Node11</title>
<path fill="none" stroke="#9a32cd" stroke-dasharray="5,2" d="M2300.28,-1141C2362.31,-1141 2477.7,-1141 2556.87,-1141"/>
<polygon fill="#9a32cd" stroke="#9a32cd" points="2300.07,-1137.5 2290.07,-1141 2300.07,-1144.5 2300.07,-1137.5"/>
<text text-anchor="middle" x="2458" y="-1144" font-family="Helvetica,sans-Serif" font-size="10.00"> lastEvaluatedElementEntityType</text>
</g>
<!-- Node55 -->
<g id="node55" class="node">
<title>Node55</title>
<g id="a_node55"><a xlink:href="structMoFEM_1_1DeprecatedCoreInterface.html" target="_top" xlink:title="Deprecated interface functions.">
<polygon fill="white" stroke="black" points="1600,-1423.5 1600,-1442.5 1781,-1442.5 1781,-1423.5 1600,-1423.5"/>
<text text-anchor="middle" x="1690.5" y="-1430.5" font-family="Helvetica,sans-Serif" font-size="10.00">MoFEM::DeprecatedCoreInterface</text>
</a>
</g>
</g>
<!-- Node55&#45;&gt;Node11 -->
<g id="edge65" class="edge">
<title>Node55&#45;&gt;Node11</title>
<path fill="none" stroke="#9a32cd" stroke-dasharray="5,2" d="M1791.36,-1435.02C2003.28,-1438.34 2483.3,-1440.47 2539,-1393 2568.72,-1367.67 2544.07,-1343.85 2557,-1307 2578.92,-1244.52 2619.6,-1175.66 2634.94,-1150.7"/>
<polygon fill="#9a32cd" stroke="#9a32cd" points="1791.22,-1431.51 1781.16,-1434.85 1791.1,-1438.51 1791.22,-1431.51"/>
<text text-anchor="middle" x="2063" y="-1439" font-family="Helvetica,sans-Serif" font-size="10.00"> mField</text>
</g>
<!-- Node56&#45;&gt;Node55 -->
<g id="edge66" class="edge">
<title>Node56&#45;&gt;Node55</title>
<path fill="none" stroke="midnightblue" d="M1214.34,-1495.54C1319,-1481.77 1512.32,-1456.32 1617.23,-1442.51"/>
<polygon fill="midnightblue" stroke="midnightblue" points="1213.64,-1492.11 1204.18,-1496.88 1214.56,-1499.05 1213.64,-1492.11"/>
</g>
<!-- Node57 -->
<g id="node57" class="node">
<title>Node57</title>
<g id="a_node57"><a xlink:title=" ">
<polygon fill="white" stroke="#bfbfbf" points="2172.5,-1060 2172.5,-1112 2339.5,-1112 2339.5,-1060 2172.5,-1060"/>
<text text-anchor="start" x="2180.5" y="-1100" font-family="Helvetica,sans-Serif" font-size="10.00">function&lt; MoFEMErrorCode</text>
<text text-anchor="start" x="2180.5" y="-1089" font-family="Helvetica,sans-Serif" font-size="10.00">(ForcesAndSourcesCore *fe</text>
<text text-anchor="start" x="2180.5" y="-1078" font-family="Helvetica,sans-Serif" font-size="10.00">_raw_ptr, int order_row,</text>
<text text-anchor="middle" x="2256" y="-1067" font-family="Helvetica,sans-Serif" font-size="10.00"> int order_col, int order_data)&gt;</text>
</a>
</g>
</g>
<!-- Node57&#45;&gt;Node11 -->
<g id="edge69" class="edge">
<title>Node57&#45;&gt;Node11</title>
<path fill="none" stroke="#9a32cd" stroke-dasharray="5,2" d="M2349.77,-1099.04C2404.78,-1106.8 2475.88,-1116.88 2539,-1126 2551.13,-1127.75 2564.08,-1129.64 2576.53,-1131.47"/>
<polygon fill="#9a32cd" stroke="#9a32cd" points="2350.08,-1095.55 2339.69,-1097.62 2349.1,-1102.48 2350.08,-1095.55"/>
<text text-anchor="middle" x="2458" y="-1129" font-family="Helvetica,sans-Serif" font-size="10.00"> setRuleHook</text>
</g>
<!-- Node58 -->
<g id="node58" class="node">
<title>Node58</title>
<g id="a_node58"><a xlink:title=" ">
<polygon fill="white" stroke="#bfbfbf" points="2155,-1011 2155,-1041 2357,-1041 2357,-1011 2155,-1011"/>
<text text-anchor="start" x="2163" y="-1029" font-family="Helvetica,sans-Serif" font-size="10.00">ptr_deque&lt; MoFEM::Forces</text>
<text text-anchor="middle" x="2256" y="-1018" font-family="Helvetica,sans-Serif" font-size="10.00">AndSourcesCore::UserDataOperator &gt;</text>
</a>
</g>
</g>
<!-- Node58&#45;&gt;Node11 -->
<g id="edge70" class="edge">
<title>Node58&#45;&gt;Node11</title>
<path fill="none" stroke="#9a32cd" stroke-dasharray="5,2" d="M2337.77,-1043.22C2417.66,-1060.33 2529.4,-1084.52 2539,-1088 2571.27,-1099.7 2606.22,-1119.6 2625.68,-1131.4"/>
<polygon fill="#9a32cd" stroke="#9a32cd" points="2338.21,-1039.73 2327.7,-1041.06 2336.75,-1046.58 2338.21,-1039.73"/>
<text text-anchor="middle" x="2458" y="-1091" font-family="Helvetica,sans-Serif" font-size="10.00"> opPtrVector</text>
</g>
<!-- Node59 -->
<g id="node59" class="node">
<title>Node59</title>
<g id="a_node59"><a xlink:href="structMoFEM_1_1EntitiesFieldData.html" target="_top" xlink:title="data structure for finite element entity">
<polygon fill="white" stroke="black" points="2185,-1279.5 2185,-1298.5 2327,-1298.5 2327,-1279.5 2185,-1279.5"/>
<text text-anchor="middle" x="2256" y="-1286.5" font-family="Helvetica,sans-Serif" font-size="10.00">MoFEM::EntitiesFieldData</text>
</a>
</g>
</g>
<!-- Node59&#45;&gt;Node11 -->
<g id="edge71" class="edge">
<title>Node59&#45;&gt;Node11</title>
<path fill="none" stroke="#9a32cd" stroke-dasharray="5,2" d="M2337.41,-1284.4C2414.42,-1279.5 2521.47,-1271.19 2539,-1262 2588.64,-1235.97 2623.94,-1174.59 2636.23,-1150.73"/>
<polygon fill="#9a32cd" stroke="#9a32cd" points="2336.99,-1280.92 2327.23,-1285.04 2337.43,-1287.91 2336.99,-1280.92"/>
<text text-anchor="middle" x="2458" y="-1328" font-family="Helvetica,sans-Serif" font-size="10.00"> dataNoField</text>
<text text-anchor="middle" x="2458" y="-1317" font-family="Helvetica,sans-Serif" font-size="10.00">dataL2</text>
<text text-anchor="middle" x="2458" y="-1306" font-family="Helvetica,sans-Serif" font-size="10.00">dataH1</text>
<text text-anchor="middle" x="2458" y="-1295" font-family="Helvetica,sans-Serif" font-size="10.00">dataHcurl</text>
<text text-anchor="middle" x="2458" y="-1284" font-family="Helvetica,sans-Serif" font-size="10.00">dataHdiv</text>
</g>
<!-- Node60 -->
<g id="node60" class="node">
<title>Node60</title>
<g id="a_node60"><a xlink:title=" ">
<polygon fill="white" stroke="#bfbfbf" points="1805,-1138 1805,-1168 1967,-1168 1967,-1138 1805,-1138"/>
<text text-anchor="start" x="1813" y="-1156" font-family="Helvetica,sans-Serif" font-size="10.00">array&lt; std::bitset</text>
<text text-anchor="middle" x="1886" y="-1145" font-family="Helvetica,sans-Serif" font-size="10.00">&lt; LASTBASE &gt;, LASTSPACE &gt;</text>
</a>
</g>
</g>
<!-- Node60&#45;&gt;Node59 -->
<g id="edge72" class="edge">
<title>Node60&#45;&gt;Node59</title>
<path fill="none" stroke="#9a32cd" stroke-dasharray="5,2" d="M1940.14,-1135.23C1995.59,-1120.37 2081.73,-1108.17 2135,-1154 2174.55,-1188.03 2116.67,-1232.56 2153,-1270 2161.59,-1278.86 2172.89,-1284.33 2184.83,-1287.6"/>
<polygon fill="#9a32cd" stroke="#9a32cd" points="1939.19,-1131.87 1930.5,-1137.93 1941.07,-1138.61 1939.19,-1131.87"/>
<text text-anchor="middle" x="2063" y="-1168" font-family="Helvetica,sans-Serif" font-size="10.00"> brokenBasesOnSpaces</text>
<text text-anchor="middle" x="2063" y="-1157" font-family="Helvetica,sans-Serif" font-size="10.00">basesOnSpaces</text>
</g>
<!-- Node61 -->
<g id="node61" class="node">
<title>Node61</title>
<g id="a_node61"><a xlink:title=" ">
<polygon fill="white" stroke="#bfbfbf" points="1809.5,-1363.5 1809.5,-1404.5 1962.5,-1404.5 1962.5,-1363.5 1809.5,-1363.5"/>
<text text-anchor="start" x="1817.5" y="-1392.5" font-family="Helvetica,sans-Serif" font-size="10.00">array&lt; boost::ptr_vector</text>
<text text-anchor="start" x="1817.5" y="-1381.5" font-family="Helvetica,sans-Serif" font-size="10.00">&lt; MoFEM::EntitiesFieldData</text>
<text text-anchor="middle" x="1886" y="-1370.5" font-family="Helvetica,sans-Serif" font-size="10.00">::EntData &gt;, MBMAXTYPE &gt;</text>
</a>
</g>
</g>
<!-- Node61&#45;&gt;Node59 -->
<g id="edge73" class="edge">
<title>Node61&#45;&gt;Node59</title>
<path fill="none" stroke="#9a32cd" stroke-dasharray="5,2" d="M1972.6,-1369.06C2020.71,-1359.91 2081.64,-1347.08 2135,-1332 2169.07,-1322.37 2207.43,-1307.98 2231.41,-1298.54"/>
<polygon fill="#9a32cd" stroke="#9a32cd" points="1971.71,-1365.66 1962.53,-1370.95 1973.01,-1372.54 1971.71,-1365.66"/>
<text text-anchor="middle" x="2063" y="-1367" font-family="Helvetica,sans-Serif" font-size="10.00"> dataOnEntities</text>
</g>
<!-- Node62 -->
<g id="node62" class="node">
<title>Node62</title>
<g id="a_node62"><a xlink:title=" ">
<polygon fill="white" stroke="#bfbfbf" points="1799,-1314 1799,-1344 1973,-1344 1973,-1314 1799,-1314"/>
<text text-anchor="start" x="1807" y="-1332" font-family="Helvetica,sans-Serif" font-size="10.00">array&lt; std::bitset</text>
<text text-anchor="middle" x="1886" y="-1321" font-family="Helvetica,sans-Serif" font-size="10.00">&lt; LASTSPACE &gt;, MBMAXTYPE &gt;</text>
</a>
</g>
</g>
<!-- Node62&#45;&gt;Node59 -->
<g id="edge74" class="edge">
<title>Node62&#45;&gt;Node59</title>
<path fill="none" stroke="#9a32cd" stroke-dasharray="5,2" d="M1983.27,-1318.54C2046.52,-1311.66 2127.84,-1302.82 2184.97,-1296.61"/>
<polygon fill="#9a32cd" stroke="#9a32cd" points="1982.84,-1315.06 1973.28,-1319.62 1983.6,-1322.02 1982.84,-1315.06"/>
<text text-anchor="middle" x="2063" y="-1320" font-family="Helvetica,sans-Serif" font-size="10.00"> spacesOnEntities</text>
</g>
<!-- Node63 -->
<g id="node63" class="node">
<title>Node63</title>
<g id="a_node63"><a xlink:title=" ">
<polygon fill="white" stroke="#bfbfbf" points="1801.5,-1265 1801.5,-1295 1970.5,-1295 1970.5,-1265 1801.5,-1265"/>
<text text-anchor="start" x="1809.5" y="-1283" font-family="Helvetica,sans-Serif" font-size="10.00">array&lt; std::bitset</text>
<text text-anchor="middle" x="1886" y="-1272" font-family="Helvetica,sans-Serif" font-size="10.00">&lt; LASTBASE &gt;, MBMAXTYPE &gt;</text>
</a>
</g>
</g>
<!-- Node63&#45;&gt;Node59 -->
<g id="edge75" class="edge">
<title>Node63&#45;&gt;Node59</title>
<path fill="none" stroke="#9a32cd" stroke-dasharray="5,2" d="M1980.54,-1282.29C2044.11,-1283.84 2126.86,-1285.87 2184.81,-1287.28"/>
<polygon fill="#9a32cd" stroke="#9a32cd" points="1980.59,-1278.79 1970.5,-1282.04 1980.42,-1285.79 1980.59,-1278.79"/>
<text text-anchor="middle" x="2063" y="-1288" font-family="Helvetica,sans-Serif" font-size="10.00"> basesOnEntities</text>
</g>
<!-- Node64 -->
<g id="node64" class="node">
<title>Node64</title>
<g id="a_node64"><a xlink:title=" ">
<polygon fill="white" stroke="#bfbfbf" points="1830,-1226.5 1830,-1245.5 1942,-1245.5 1942,-1226.5 1830,-1226.5"/>
<text text-anchor="middle" x="1886" y="-1233.5" font-family="Helvetica,sans-Serif" font-size="10.00">UBlasMatrix&lt; int &gt;</text>
</a>
</g>
</g>
<!-- Node64&#45;&gt;Node59 -->
<g id="edge76" class="edge">
<title>Node64&#45;&gt;Node59</title>
<path fill="none" stroke="#9a32cd" stroke-dasharray="5,2" d="M1952.52,-1231.25C2003.88,-1229.86 2076.24,-1233.16 2135,-1256 2144.45,-1259.67 2143.76,-1265.84 2153,-1270 2162.94,-1274.47 2173.88,-1277.89 2184.79,-1280.5"/>
<polygon fill="#9a32cd" stroke="#9a32cd" points="1952.09,-1227.76 1942.21,-1231.59 1952.32,-1234.75 1952.09,-1227.76"/>
<text text-anchor="middle" x="2063" y="-1270" font-family="Helvetica,sans-Serif" font-size="10.00"> facesNodesOrder</text>
<text text-anchor="middle" x="2063" y="-1259" font-family="Helvetica,sans-Serif" font-size="10.00">facesNodes</text>
</g>
<!-- Node65 -->
<g id="node65" class="node">
<title>Node65</title>
<g id="a_node65"><a xlink:title=" ">
<polygon fill="white" stroke="#bfbfbf" points="1827.5,-1188.5 1827.5,-1207.5 1944.5,-1207.5 1944.5,-1188.5 1827.5,-1188.5"/>
<text text-anchor="middle" x="1886" y="-1195.5" font-family="Helvetica,sans-Serif" font-size="10.00">bitset&lt; LASTBASE &gt;</text>
</a>
</g>
</g>
<!-- Node65&#45;&gt;Node59 -->
<g id="edge77" class="edge">
<title>Node65&#45;&gt;Node59</title>
<path fill="none" stroke="#9a32cd" stroke-dasharray="5,2" d="M1937.54,-1186.61C1992.13,-1177.44 2078.81,-1172.32 2135,-1216 2154.97,-1231.53 2133.92,-1253.38 2153,-1270 2162.03,-1277.87 2173.25,-1282.93 2184.92,-1286.11"/>
<polygon fill="#9a32cd" stroke="#9a32cd" points="1936.63,-1183.22 1927.4,-1188.43 1937.86,-1190.11 1936.63,-1183.22"/>
<text text-anchor="middle" x="2063" y="-1219" font-family="Helvetica,sans-Serif" font-size="10.00"> bAse</text>
</g>
<!-- Node66 -->
<g id="node66" class="node">
<title>Node66</title>
<g id="a_node66"><a xlink:title=" ">
<polygon fill="white" stroke="#bfbfbf" points="2193.5,-1342.5 2193.5,-1383.5 2318.5,-1383.5 2318.5,-1342.5 2193.5,-1342.5"/>
<text text-anchor="start" x="2201.5" y="-1371.5" font-family="Helvetica,sans-Serif" font-size="10.00">function&lt; int(int order</text>
<text text-anchor="start" x="2201.5" y="-1360.5" font-family="Helvetica,sans-Serif" font-size="10.00">_row, int order_col, int</text>
<text text-anchor="middle" x="2256" y="-1349.5" font-family="Helvetica,sans-Serif" font-size="10.00"> order_data)&gt;</text>
</a>
</g>
</g>
<!-- Node66&#45;&gt;Node11 -->
<g id="edge78" class="edge">
<title>Node66&#45;&gt;Node11</title>
<path fill="none" stroke="#9a32cd" stroke-dasharray="5,2" d="M2328.6,-1375.3C2389.66,-1381.82 2477.11,-1381.37 2539,-1340 2541.24,-1338.5 2616.3,-1189.95 2636.2,-1150.52"/>
<polygon fill="#9a32cd" stroke="#9a32cd" points="2329,-1371.82 2318.66,-1374.15 2328.19,-1378.77 2329,-1371.82"/>
<text text-anchor="middle" x="2458" y="-1381" font-family="Helvetica,sans-Serif" font-size="10.00"> getRuleHook</text>
</g>
<!-- Node67 -->
<g id="node67" class="node">
<title>Node67</title>
<g id="a_node67"><a xlink:title=" ">
<polygon fill="white" stroke="#bfbfbf" points="2195,-1230 2195,-1260 2317,-1260 2317,-1230 2195,-1230"/>
<text text-anchor="start" x="2203" y="-1248" font-family="Helvetica,sans-Serif" font-size="10.00">shared_ptr&lt; MoFEM::</text>
<text text-anchor="middle" x="2256" y="-1237" font-family="Helvetica,sans-Serif" font-size="10.00">BaseFunction &gt;</text>
</a>
</g>
</g>
<!-- Node67&#45;&gt;Node11 -->
<g id="edge79" class="edge">
<title>Node67&#45;&gt;Node11</title>
<path fill="none" stroke="#9a32cd" stroke-dasharray="5,2" d="M2327.44,-1241.81C2385.63,-1237.41 2469.65,-1226.94 2539,-1202 2573.95,-1189.43 2610.18,-1164.38 2628.61,-1150.61"/>
<polygon fill="#9a32cd" stroke="#9a32cd" points="2326.97,-1238.34 2317.24,-1242.54 2327.47,-1245.32 2326.97,-1238.34"/>
<text text-anchor="middle" x="2458" y="-1250" font-family="Helvetica,sans-Serif" font-size="10.00"> userPolynomialBasePtr</text>
<text text-anchor="middle" x="2458" y="-1239" font-family="Helvetica,sans-Serif" font-size="10.00">elementPolynomialBasePtr</text>
</g>
<!-- Node68 -->
<g id="node68" class="node">
<title>Node68</title>
<g id="a_node68"><a xlink:href="classUBlasMatrix_3_01double_01_4.html" target="_top" xlink:title=" ">
<polygon fill="white" stroke="black" points="2190,-793.5 2190,-812.5 2322,-812.5 2322,-793.5 2190,-793.5"/>
<text text-anchor="middle" x="2256" y="-800.5" font-family="Helvetica,sans-Serif" font-size="10.00">UBlasMatrix&lt; double &gt;</text>
</a>
</g>
</g>
<!-- Node68&#45;&gt;Node11 -->
<g id="edge80" class="edge">
<title>Node68&#45;&gt;Node11</title>
<path fill="none" stroke="#9a32cd" stroke-dasharray="5,2" d="M2316.3,-814.82C2379.13,-830.18 2477.57,-862.73 2539,-925 2571.04,-957.47 2623.34,-1093.65 2637.42,-1131.31"/>
<polygon fill="#9a32cd" stroke="#9a32cd" points="2317.08,-811.41 2306.54,-812.5 2315.46,-818.22 2317.08,-811.41"/>
<text text-anchor="middle" x="2458" y="-939" font-family="Helvetica,sans-Serif" font-size="10.00"> coordsAtGaussPts</text>
<text text-anchor="middle" x="2458" y="-928" font-family="Helvetica,sans-Serif" font-size="10.00">gaussPts</text>
</g>
<!-- Node68&#45;&gt;Node79 -->
<g id="edge100" class="edge">
<title>Node68&#45;&gt;Node79</title>
<path fill="none" stroke="#9a32cd" stroke-dasharray="5,2" d="M2332.2,-799.07C2425.05,-794.91 2587.77,-789.84 2727,-797 2766.22,-799.02 2809.73,-803.31 2845.59,-807.41"/>
<polygon fill="#9a32cd" stroke="#9a32cd" points="2331.89,-795.58 2322.06,-799.54 2332.2,-802.58 2331.89,-795.58"/>
<text text-anchor="middle" x="2642" y="-822" font-family="Helvetica,sans-Serif" font-size="10.00"> tangentOneAtGaussPts</text>
<text text-anchor="middle" x="2642" y="-811" font-family="Helvetica,sans-Serif" font-size="10.00">tangentTwoAtGaussPts</text>
<text text-anchor="middle" x="2642" y="-800" font-family="Helvetica,sans-Serif" font-size="10.00">normalsAtGaussPts</text>
</g>
<!-- Node69 -->
<g id="node69" class="node">
<title>Node69</title>
<g id="a_node69"><a xlink:title=" ">
<polygon fill="white" stroke="#bfbfbf" points="2576.5,-1316.5 2576.5,-1335.5 2707.5,-1335.5 2707.5,-1316.5 2576.5,-1316.5"/>
<text text-anchor="middle" x="2642" y="-1323.5" font-family="Helvetica,sans-Serif" font-size="10.00">static const char *const</text>
</a>
</g>
</g>
<!-- Node69&#45;&gt;Node3 -->
<g id="edge81" class="edge">
<title>Node69&#45;&gt;Node3</title>
<path fill="none" stroke="#9a32cd" stroke-dasharray="5,2" d="M2717.96,-1326C2754.64,-1326 2798.93,-1326 2836.78,-1326"/>
<polygon fill="#9a32cd" stroke="#9a32cd" points="2717.83,-1322.5 2707.83,-1326 2717.83,-1329.5 2717.83,-1322.5"/>
<text text-anchor="middle" x="2782" y="-1329" font-family="Helvetica,sans-Serif" font-size="10.00"> OpTypeNames</text>
</g>
<!-- Node70 -->
<g id="node70" class="node">
<title>Node70</title>
<g id="a_node70"><a xlink:href="structCommonData.html" target="_top" xlink:title=" ">
<polygon fill="white" stroke="black" points="3150,-92.5 3150,-111.5 3234,-111.5 3234,-92.5 3150,-92.5"/>
<text text-anchor="middle" x="3192" y="-99.5" font-family="Helvetica,sans-Serif" font-size="10.00">CommonData</text>
</a>
</g>
</g>
<!-- Node70&#45;&gt;Node1 -->
<g id="edge83" class="edge">
<title>Node70&#45;&gt;Node1</title>
<path fill="none" stroke="#9a32cd" stroke-dasharray="5,2" d="M3198.73,-121.45C3229.07,-224.54 3370.51,-705.11 3392.6,-780.14"/>
<polygon fill="#9a32cd" stroke="#9a32cd" points="3202.04,-120.33 3195.86,-111.73 3195.33,-122.31 3202.04,-120.33"/>
<text text-anchor="middle" x="3314.5" y="-608" font-family="Helvetica,sans-Serif" font-size="10.00"> elemData</text>
</g>
<!-- Node71 -->
<g id="node71" class="node">
<title>Node71</title>
<g id="a_node71"><a xlink:title=" ">
<polygon fill="white" stroke="#bfbfbf" points="2880.5,-17.5 2880.5,-36.5 2963.5,-36.5 2963.5,-17.5 2880.5,-17.5"/>
<text text-anchor="middle" x="2922" y="-24.5" font-family="Helvetica,sans-Serif" font-size="10.00">MatrixDouble</text>
</a>
</g>
</g>
<!-- Node71&#45;&gt;Node70 -->
<g id="edge84" class="edge">
<title>Node71&#45;&gt;Node70</title>
<path fill="none" stroke="#9a32cd" stroke-dasharray="5,2" d="M2973.85,-26.31C3009.47,-27.24 3057.71,-31.37 3098,-45 3129.93,-55.8 3162.42,-79.14 3179.25,-92.36"/>
<polygon fill="#9a32cd" stroke="#9a32cd" points="2973.76,-22.81 2963.69,-26.13 2973.63,-29.81 2973.76,-22.81"/>
<text text-anchor="middle" x="3061.5" y="-70" font-family="Helvetica,sans-Serif" font-size="10.00"> dotEdge</text>
<text text-anchor="middle" x="3061.5" y="-59" font-family="Helvetica,sans-Serif" font-size="10.00">dotEleRight</text>
<text text-anchor="middle" x="3061.5" y="-48" font-family="Helvetica,sans-Serif" font-size="10.00">dotEleLeft</text>
</g>
<!-- Node72 -->
<g id="node72" class="node">
<title>Node72</title>
<g id="a_node72"><a xlink:href="structMoFEM_1_1SmartPetscObj.html" target="_top" xlink:title=" ">
<polygon fill="white" stroke="black" points="2856.5,-105 2856.5,-135 2987.5,-135 2987.5,-105 2856.5,-105"/>
<text text-anchor="start" x="2864.5" y="-123" font-family="Helvetica,sans-Serif" font-size="10.00">MoFEM::SmartPetscObj</text>
<text text-anchor="middle" x="2922" y="-112" font-family="Helvetica,sans-Serif" font-size="10.00">&lt; KSP &gt;</text>
</a>
</g>
</g>
<!-- Node72&#45;&gt;Node70 -->
<g id="edge85" class="edge">
<title>Node72&#45;&gt;Node70</title>
<path fill="none" stroke="#9a32cd" stroke-dasharray="5,2" d="M2997.51,-115C3046.77,-111.69 3109.49,-107.47 3149.94,-104.76"/>
<polygon fill="#9a32cd" stroke="#9a32cd" points="2997.28,-111.5 2987.53,-115.67 2997.75,-118.49 2997.28,-111.5"/>
<text text-anchor="middle" x="3061.5" y="-116" font-family="Helvetica,sans-Serif" font-size="10.00"> ksp</text>
</g>
<!-- Node73 -->
<g id="node73" class="node">
<title>Node73</title>
<g id="a_node73"><a xlink:title=" ">
<polygon fill="white" stroke="#bfbfbf" points="2579,-110.5 2579,-151.5 2705,-151.5 2705,-110.5 2579,-110.5"/>
<text text-anchor="start" x="2587" y="-139.5" font-family="Helvetica,sans-Serif" font-size="10.00">boost::intrusive_ptr</text>
<text text-anchor="start" x="2587" y="-128.5" font-family="Helvetica,sans-Serif" font-size="10.00">&lt; std::remove_pointer</text>
<text text-anchor="middle" x="2642" y="-117.5" font-family="Helvetica,sans-Serif" font-size="10.00">&lt; KSP &gt;::type &gt;</text>
</a>
</g>
</g>
<!-- Node73&#45;&gt;Node72 -->
<g id="edge86" class="edge">
<title>Node73&#45;&gt;Node72</title>
<path fill="none" stroke="midnightblue" d="M2715.3,-128.14C2758.93,-126.41 2814.05,-124.23 2856.25,-122.56"/>
<polygon fill="midnightblue" stroke="midnightblue" points="2714.9,-124.65 2705.04,-128.55 2715.17,-131.65 2714.9,-124.65"/>
</g>
<!-- Node74 -->
<g id="node74" class="node">
<title>Node74</title>
<g id="a_node74"><a xlink:href="structMoFEM_1_1SmartPetscObj.html" target="_top" xlink:title="intrusive_ptr for managing petsc objects">
<polygon fill="white" stroke="black" points="2576.5,-61 2576.5,-91 2707.5,-91 2707.5,-61 2576.5,-61"/>
<text text-anchor="start" x="2584.5" y="-79" font-family="Helvetica,sans-Serif" font-size="10.00">MoFEM::SmartPetscObj</text>
<text text-anchor="middle" x="2642" y="-68" font-family="Helvetica,sans-Serif" font-size="10.00">&lt; OBJ &gt;</text>
</a>
</g>
</g>
<!-- Node74&#45;&gt;Node72 -->
<g id="edge87" class="edge">
<title>Node74&#45;&gt;Node72</title>
<path fill="none" stroke="orange" stroke-dasharray="5,2" d="M2717.71,-87.83C2760.89,-94.66 2814.67,-103.17 2856.07,-109.72"/>
<polygon fill="orange" stroke="orange" points="2718.25,-84.37 2707.83,-86.26 2717.16,-91.28 2718.25,-84.37"/>
<text text-anchor="middle" x="2782" y="-106" font-family="Helvetica,sans-Serif" font-size="10.00"> &lt; KSP &gt;</text>
</g>
<!-- Node76 -->
<g id="node76" class="node">
<title>Node76</title>
<g id="a_node76"><a xlink:href="structMoFEM_1_1SmartPetscObj.html" target="_top" xlink:title=" ">
<polygon fill="white" stroke="black" points="2856.5,-56 2856.5,-86 2987.5,-86 2987.5,-56 2856.5,-56"/>
<text text-anchor="start" x="2864.5" y="-74" font-family="Helvetica,sans-Serif" font-size="10.00">MoFEM::SmartPetscObj</text>
<text text-anchor="middle" x="2922" y="-63" font-family="Helvetica,sans-Serif" font-size="10.00">&lt; Mat &gt;</text>
</a>
</g>
</g>
<!-- Node74&#45;&gt;Node76 -->
<g id="edge91" class="edge">
<title>Node74&#45;&gt;Node76</title>
<path fill="none" stroke="orange" stroke-dasharray="5,2" d="M2717.97,-72.77C2727.07,-72.47 2736.25,-72.2 2745,-72 2781.81,-71.17 2822.96,-70.9 2856.21,-70.85"/>
<polygon fill="orange" stroke="orange" points="2717.61,-69.28 2707.74,-73.13 2717.86,-76.28 2717.61,-69.28"/>
<text text-anchor="middle" x="2782" y="-75" font-family="Helvetica,sans-Serif" font-size="10.00"> &lt; Mat &gt;</text>
</g>
<!-- Node75 -->
<g id="node75" class="node">
<title>Node75</title>
<g id="a_node75"><a xlink:title=" ">
<polygon fill="white" stroke="#bfbfbf" points="2193,-55.5 2193,-96.5 2319,-96.5 2319,-55.5 2193,-55.5"/>
<text text-anchor="start" x="2201" y="-84.5" font-family="Helvetica,sans-Serif" font-size="10.00">boost::intrusive_ptr</text>
<text text-anchor="start" x="2201" y="-73.5" font-family="Helvetica,sans-Serif" font-size="10.00">&lt; std::remove_pointer</text>
<text text-anchor="middle" x="2256" y="-62.5" font-family="Helvetica,sans-Serif" font-size="10.00">&lt; OBJ &gt;::type &gt;</text>
</a>
</g>
</g>
<!-- Node75&#45;&gt;Node74 -->
<g id="edge88" class="edge">
<title>Node75&#45;&gt;Node74</title>
<path fill="none" stroke="midnightblue" d="M2329.35,-76C2400.48,-76 2508.06,-76 2576.4,-76"/>
<polygon fill="midnightblue" stroke="midnightblue" points="2329.12,-72.5 2319.12,-76 2329.12,-79.5 2329.12,-72.5"/>
</g>
<!-- Node76&#45;&gt;Node70 -->
<g id="edge89" class="edge">
<title>Node76&#45;&gt;Node70</title>
<path fill="none" stroke="#9a32cd" stroke-dasharray="5,2" d="M2997.51,-79.62C3046.77,-85.32 3109.49,-92.57 3149.94,-97.25"/>
<polygon fill="#9a32cd" stroke="#9a32cd" points="2997.87,-76.14 2987.53,-78.46 2997.07,-83.09 2997.87,-76.14"/>
<text text-anchor="middle" x="3061.5" y="-94" font-family="Helvetica,sans-Serif" font-size="10.00"> M</text>
</g>
<!-- Node77 -->
<g id="node77" class="node">
<title>Node77</title>
<g id="a_node77"><a xlink:title=" ">
<polygon fill="white" stroke="#bfbfbf" points="2579,-0.5 2579,-41.5 2705,-41.5 2705,-0.5 2579,-0.5"/>
<text text-anchor="start" x="2587" y="-29.5" font-family="Helvetica,sans-Serif" font-size="10.00">boost::intrusive_ptr</text>
<text text-anchor="start" x="2587" y="-18.5" font-family="Helvetica,sans-Serif" font-size="10.00">&lt; std::remove_pointer</text>
<text text-anchor="middle" x="2642" y="-7.5" font-family="Helvetica,sans-Serif" font-size="10.00">&lt; Mat &gt;::type &gt;</text>
</a>
</g>
</g>
<!-- Node77&#45;&gt;Node76 -->
<g id="edge90" class="edge">
<title>Node77&#45;&gt;Node76</title>
<path fill="none" stroke="midnightblue" d="M2715.03,-33.95C2758.7,-41.81 2813.96,-51.75 2856.25,-59.35"/>
<polygon fill="midnightblue" stroke="midnightblue" points="2715.5,-30.48 2705.04,-32.16 2714.27,-37.37 2715.5,-30.48"/>
</g>
<!-- Node78&#45;&gt;Node1 -->
<g id="edge92" class="edge">
<title>Node78&#45;&gt;Node1</title>
<path fill="none" stroke="#9a32cd" stroke-dasharray="5,2" d="M3278.3,-790C3307.36,-790 3338.21,-790 3360.96,-790"/>
<polygon fill="#9a32cd" stroke="#9a32cd" points="3278.12,-786.5 3268.12,-790 3278.12,-793.5 3278.12,-786.5"/>
<text text-anchor="middle" x="3314.5" y="-793" font-family="Helvetica,sans-Serif" font-size="10.00"> faceSideFe</text>
</g>
<!-- Node79&#45;&gt;Node78 -->
<g id="edge93" class="edge">
<title>Node79&#45;&gt;Node78</title>
<path fill="none" stroke="midnightblue" d="M3008.07,-808.43C3042.57,-804.95 3082.09,-800.97 3115.54,-797.6"/>
<polygon fill="midnightblue" stroke="midnightblue" points="3007.61,-804.96 2998.01,-809.44 3008.31,-811.92 3007.61,-804.96"/>
</g>
<!-- Node80 -->
<g id="node80" class="node">
<title>Node80</title>
<g id="a_node80"><a xlink:href="classUBlasVector_3_01double_01_4.html" target="_top" xlink:title=" ">
<polygon fill="white" stroke="black" points="2576.5,-919.5 2576.5,-938.5 2707.5,-938.5 2707.5,-919.5 2576.5,-919.5"/>
<text text-anchor="middle" x="2642" y="-926.5" font-family="Helvetica,sans-Serif" font-size="10.00">UBlasVector&lt; double &gt;</text>
</a>
</g>
</g>
<!-- Node80&#45;&gt;Node79 -->
<g id="edge95" class="edge">
<title>Node80&#45;&gt;Node79</title>
<path fill="none" stroke="#9a32cd" stroke-dasharray="5,2" d="M2717.67,-925.42C2758.51,-921.97 2803.81,-915.21 2819,-902 2840.01,-883.73 2817.29,-861.66 2837,-842 2840.88,-838.13 2845.33,-834.86 2850.11,-832.08"/>
<polygon fill="#9a32cd" stroke="#9a32cd" points="2717.38,-921.93 2707.68,-926.21 2717.93,-928.91 2717.38,-921.93"/>
<text text-anchor="middle" x="2782" y="-958" font-family="Helvetica,sans-Serif" font-size="10.00"> tangentOne</text>
<text text-anchor="middle" x="2782" y="-947" font-family="Helvetica,sans-Serif" font-size="10.00">tangentTwo</text>
<text text-anchor="middle" x="2782" y="-936" font-family="Helvetica,sans-Serif" font-size="10.00">nOrmal</text>
<text text-anchor="middle" x="2782" y="-925" font-family="Helvetica,sans-Serif" font-size="10.00">coords</text>
</g>
<!-- Node81 -->
<g id="node81" class="node">
<title>Node81</title>
<g id="a_node81"><a xlink:title=" ">
<polygon fill="white" stroke="#bfbfbf" points="2877.5,-763.5 2877.5,-782.5 2966.5,-782.5 2966.5,-763.5 2877.5,-763.5"/>
<text text-anchor="middle" x="2922" y="-770.5" font-family="Helvetica,sans-Serif" font-size="10.00">array&lt; int, 2 &gt;</text>
</a>
</g>
</g>
<!-- Node81&#45;&gt;Node78 -->
<g id="edge102" class="edge">
<title>Node81&#45;&gt;Node78</title>
<path fill="none" stroke="#9a32cd" stroke-dasharray="5,2" d="M2976.88,-775.83C3011.5,-777.71 3057.41,-780.31 3098,-783 3103.82,-783.39 3109.84,-783.8 3115.89,-784.23"/>
<polygon fill="#9a32cd" stroke="#9a32cd" points="2976.7,-772.31 2966.52,-775.27 2976.32,-779.3 2976.7,-772.31"/>
<text text-anchor="middle" x="3061.5" y="-786" font-family="Helvetica,sans-Serif" font-size="10.00"> edgeConnMap</text>
</g>
<!-- Node82 -->
<g id="node82" class="node">
<title>Node82</title>
<g id="a_node82"><a xlink:title=" ">
<polygon fill="white" stroke="#bfbfbf" points="2877.5,-851.5 2877.5,-870.5 2966.5,-870.5 2966.5,-851.5 2877.5,-851.5"/>
<text text-anchor="middle" x="2922" y="-858.5" font-family="Helvetica,sans-Serif" font-size="10.00">array&lt; int, 4 &gt;</text>
</a>
</g>
</g>
<!-- Node82&#45;&gt;Node78 -->
<g id="edge103" class="edge">
<title>Node82&#45;&gt;Node78</title>
<path fill="none" stroke="#9a32cd" stroke-dasharray="5,2" d="M2976.64,-849.25C2986.74,-846.93 2997.21,-844.45 3007,-842 3052.57,-830.59 3103.97,-815.91 3140.85,-805.06"/>
<polygon fill="#9a32cd" stroke="#9a32cd" points="2975.66,-845.88 2966.69,-851.52 2977.21,-852.71 2975.66,-845.88"/>
<text text-anchor="middle" x="3061.5" y="-839" font-family="Helvetica,sans-Serif" font-size="10.00"> faceConnMap</text>
</g>
</g>
</svg>
