<?xml version="1.0" encoding="UTF-8" standalone="no"?>
<!DOCTYPE svg PUBLIC "-//W3C//DTD SVG 1.1//EN"
 "http://www.w3.org/Graphics/SVG/1.1/DTD/svg11.dtd">
<!-- Generated by graphviz version 2.43.0 (0)
 -->
<!-- Title: NeumannForcesSurface::OpNeumannSurfaceForceMaterialVolOnSideLhs_dX_dx Pages: 1 -->
<svg width="199pt" height="374pt"
 viewBox="0.00 0.00 199.00 374.00" xmlns="http://www.w3.org/2000/svg" xmlns:xlink="http://www.w3.org/1999/xlink">
<g id="graph0" class="graph" transform="scale(1 1) rotate(0) translate(4 370)">
<title>NeumannForcesSurface::OpNeumannSurfaceForceMaterialVolOnSideLhs_dX_dx</title>
<polygon fill="white" stroke="transparent" points="-4,4 -4,-370 195,-370 195,4 -4,4"/>
<!-- Node1 -->
<g id="node1" class="node">
<title>Node1</title>
<g id="a_node1"><a xlink:title="LHS&#45;operator (material configuration) on the side volume.">
<polygon fill="#bfbfbf" stroke="black" points="2,-0.5 2,-41.5 189,-41.5 189,-0.5 2,-0.5"/>
<text text-anchor="start" x="10" y="-29.5" font-family="Helvetica,sans-Serif" font-size="10.00">NeumannForcesSurface</text>
<text text-anchor="start" x="10" y="-18.5" font-family="Helvetica,sans-Serif" font-size="10.00">::OpNeumannSurfaceForceMaterial</text>
<text text-anchor="middle" x="95.5" y="-7.5" font-family="Helvetica,sans-Serif" font-size="10.00">VolOnSideLhs_dX_dx</text>
</a>
</g>
</g>
<!-- Node2 -->
<g id="node2" class="node">
<title>Node2</title>
<g id="a_node2"><a xlink:href="structNeumannForcesSurface_1_1OpNeumannSurfaceForceMaterialVolOnSideLhs.html" target="_top" xlink:title="Base class for LHS&#45;operators (material) on side volumes.">
<polygon fill="white" stroke="black" points="2,-78.5 2,-119.5 189,-119.5 189,-78.5 2,-78.5"/>
<text text-anchor="start" x="10" y="-107.5" font-family="Helvetica,sans-Serif" font-size="10.00">NeumannForcesSurface</text>
<text text-anchor="start" x="10" y="-96.5" font-family="Helvetica,sans-Serif" font-size="10.00">::OpNeumannSurfaceForceMaterial</text>
<text text-anchor="middle" x="95.5" y="-85.5" font-family="Helvetica,sans-Serif" font-size="10.00">VolOnSideLhs</text>
</a>
</g>
</g>
<!-- Node2&#45;&gt;Node1 -->
<g id="edge1" class="edge">
<title>Node2&#45;&gt;Node1</title>
<path fill="none" stroke="midnightblue" d="M95.5,-68.3C95.5,-59.3 95.5,-49.65 95.5,-41.51"/>
<polygon fill="midnightblue" stroke="midnightblue" points="92,-68.43 95.5,-78.43 99,-68.43 92,-68.43"/>
</g>
<!-- Node3 -->
<g id="node3" class="node">
<title>Node3</title>
<g id="a_node3"><a xlink:href="structMoFEM_1_1VolumeElementForcesAndSourcesCoreOnSide_1_1UserDataOperator.html" target="_top" xlink:title="default operator for TET element">
<polygon fill="white" stroke="black" points="18,-156.5 18,-175.5 173,-175.5 173,-156.5 18,-156.5"/>
<text text-anchor="middle" x="95.5" y="-163.5" font-family="Helvetica,sans-Serif" font-size="10.00">VolOnSideUserDataOperator</text>
</a>
</g>
</g>
<!-- Node3&#45;&gt;Node2 -->
<g id="edge2" class="edge">
<title>Node3&#45;&gt;Node2</title>
<path fill="none" stroke="midnightblue" d="M95.5,-146.04C95.5,-137.71 95.5,-127.94 95.5,-119.54"/>
<polygon fill="midnightblue" stroke="midnightblue" points="92,-146.23 95.5,-156.23 99,-146.23 92,-146.23"/>
</g>
<!-- Node4 -->
<g id="node4" class="node">
<title>Node4</title>
<g id="a_node4"><a xlink:href="structMoFEM_1_1VolumeElementForcesAndSourcesCore_1_1UserDataOperator.html" target="_top" xlink:title=" ">
<polygon fill="white" stroke="black" points="0,-212.5 0,-242.5 191,-242.5 191,-212.5 0,-212.5"/>
<text text-anchor="start" x="8" y="-230.5" font-family="Helvetica,sans-Serif" font-size="10.00">MoFEM::VolumeElementForces</text>
<text text-anchor="middle" x="95.5" y="-219.5" font-family="Helvetica,sans-Serif" font-size="10.00">AndSourcesCore::UserDataOperator</text>
</a>
</g>
</g>
<!-- Node4&#45;&gt;Node3 -->
<g id="edge3" class="edge">
<title>Node4&#45;&gt;Node3</title>
<path fill="none" stroke="midnightblue" d="M95.5,-202.29C95.5,-192.86 95.5,-182.65 95.5,-175.66"/>
<polygon fill="midnightblue" stroke="midnightblue" points="92,-202.4 95.5,-212.4 99,-202.4 92,-202.4"/>
</g>
<!-- Node5 -->
<g id="node5" class="node">
<title>Node5</title>
<g id="a_node5"><a xlink:href="structMoFEM_1_1ForcesAndSourcesCore_1_1UserDataOperator.html" target="_top" xlink:title=" ">
<polygon fill="white" stroke="black" points="10.5,-279.5 10.5,-309.5 180.5,-309.5 180.5,-279.5 10.5,-279.5"/>
<text text-anchor="start" x="18.5" y="-297.5" font-family="Helvetica,sans-Serif" font-size="10.00">MoFEM::ForcesAndSourcesCore</text>
<text text-anchor="middle" x="95.5" y="-286.5" font-family="Helvetica,sans-Serif" font-size="10.00">::UserDataOperator</text>
</a>
</g>
</g>
<!-- Node5&#45;&gt;Node4 -->
<g id="edge4" class="edge">
<title>Node5&#45;&gt;Node4</title>
<path fill="none" stroke="midnightblue" d="M95.5,-269.11C95.5,-260.15 95.5,-250.32 95.5,-242.58"/>
<polygon fill="midnightblue" stroke="midnightblue" points="92,-269.4 95.5,-279.4 99,-269.4 92,-269.4"/>
</g>
<!-- Node6 -->
<g id="node6" class="node">
<title>Node6</title>
<g id="a_node6"><a xlink:href="structMoFEM_1_1DataOperator.html" target="_top" xlink:title="base operator to do operations at Gauss Pt. level">
<polygon fill="white" stroke="black" points="33,-346.5 33,-365.5 158,-365.5 158,-346.5 33,-346.5"/>
<text text-anchor="middle" x="95.5" y="-353.5" font-family="Helvetica,sans-Serif" font-size="10.00">MoFEM::DataOperator</text>
</a>
</g>
</g>
<!-- Node6&#45;&gt;Node5 -->
<g id="edge5" class="edge">
<title>Node6&#45;&gt;Node5</title>
<path fill="none" stroke="midnightblue" d="M95.5,-336.23C95.5,-327.59 95.5,-317.5 95.5,-309.52"/>
<polygon fill="midnightblue" stroke="midnightblue" points="92,-336.48 95.5,-346.48 99,-336.48 92,-336.48"/>
</g>
</g>
</svg>
