<?xml version="1.0" encoding="UTF-8" standalone="no"?>
<!DOCTYPE svg PUBLIC "-//W3C//DTD SVG 1.1//EN"
 "http://www.w3.org/Graphics/SVG/1.1/DTD/svg11.dtd">
<!-- Generated by graphviz version 2.43.0 (0)
 -->
<!-- Title: MoFEM::RefElement Pages: 1 -->
<!--zoomable 218 -->
<svg id="main" version="1.1" xmlns="http://www.w3.org/2000/svg" xmlns:xlink="http://www.w3.org/1999/xlink" xml:space="preserve" onload="init(evt)">
<style type="text/css"><![CDATA[
.edge:hover path { stroke: red; }
.edge:hover polygon { stroke: red; fill: red; }
]]></style>
<script type="text/javascript"><![CDATA[
var edges = document.getElementsByTagName('g');
if (edges && edges.length) {
  for (var i=0;i<edges.length;i++) {
    if (edges[i].id.substr(0,4)=='edge') {
      edges[i].setAttribute('class','edge');
    }
  }
}
]]></script>
        <defs>
                <circle id="rim" cx="0" cy="0" r="7"/>
                <circle id="rim2" cx="0" cy="0" r="3.5"/>
                <g id="zoomPlus">
                        <use xlink:href="#rim" fill="#404040">
                                <set attributeName="fill" to="#808080" begin="zoomplus.mouseover" end="zoomplus.mouseout"/>
                        </use>
                        <path d="M-4,0h8M0,-4v8" fill="none" stroke="white" stroke-width="1.5" pointer-events="none"/>
                </g>
                <g id="zoomMin">
                        <use xlink:href="#rim" fill="#404040">
                                <set attributeName="fill" to="#808080" begin="zoomminus.mouseover" end="zoomminus.mouseout"/>
                        </use>
                        <path d="M-4,0h8" fill="none" stroke="white" stroke-width="1.5" pointer-events="none"/>
                </g>
                <g id="dirArrow">
                        <path fill="none" stroke="white" stroke-width="1.5" d="M0,-3.0v7 M-2.5,-0.5L0,-3.0L2.5,-0.5"/>
                </g>
               <g id="resetDef">
                       <use xlink:href="#rim2" fill="#404040">
                               <set attributeName="fill" to="#808080" begin="reset.mouseover" end="reset.mouseout"/>
                       </use>
               </g>
        </defs>

<script type="text/javascript">
var viewWidth = 805;
var viewHeight = 218;
var sectionId = 'dynsection-0';
</script>
<script xlink:href="svgpan.js"/>
<svg id="graph" class="graph">
<g id="viewport">
<title>MoFEM::RefElement</title>
<polygon fill="white" stroke="transparent" points="-4,4 -4,-214 801,-214 801,4 -4,4"/>
<!-- Node1 -->
<g id="node1" class="node">
<title>Node1</title>
<g id="a_node1"><a xlink:title="keeps data about abstract refined finite element">
<polygon fill="#bfbfbf" stroke="black" points="477,-95.5 477,-114.5 593,-114.5 593,-95.5 477,-95.5"/>
<text text-anchor="middle" x="535" y="-102.5" font-family="Helvetica,sans-Serif" font-size="10.00">MoFEM::RefElement</text>
</a>
</g>
</g>
<!-- Node4 -->
<g id="node4" class="node">
<title>Node4</title>
<g id="a_node4"><a xlink:href="structMoFEM_1_1RefElement__EDGE.html" target="_top" xlink:title="keeps data about abstract EDGE finite element">
<polygon fill="white" stroke="black" points="639.5,-190.5 639.5,-209.5 787.5,-209.5 787.5,-190.5 639.5,-190.5"/>
<text text-anchor="middle" x="713.5" y="-197.5" font-family="Helvetica,sans-Serif" font-size="10.00">MoFEM::RefElement_EDGE</text>
</a>
</g>
</g>
<!-- Node1&#45;&gt;Node4 -->
<g id="edge3" class="edge">
<title>Node1&#45;&gt;Node4</title>
<path fill="none" stroke="midnightblue" d="M552.02,-121.86C569.53,-139.3 599.24,-166.02 630,-181 637.93,-184.86 646.67,-187.96 655.41,-190.43"/>
<polygon fill="midnightblue" stroke="midnightblue" points="554.37,-119.26 544.87,-114.58 549.38,-124.17 554.37,-119.26"/>
</g>
<!-- Node5 -->
<g id="node5" class="node">
<title>Node5</title>
<g id="a_node5"><a xlink:href="structMoFEM_1_1RefElement__MESHSET.html" target="_top" xlink:title="keeps data about abstract MESHSET finite element">
<polygon fill="white" stroke="black" points="630,-152.5 630,-171.5 797,-171.5 797,-152.5 630,-152.5"/>
<text text-anchor="middle" x="713.5" y="-159.5" font-family="Helvetica,sans-Serif" font-size="10.00">MoFEM::RefElement_MESHSET</text>
</a>
</g>
</g>
<!-- Node1&#45;&gt;Node5 -->
<g id="edge4" class="edge">
<title>Node1&#45;&gt;Node5</title>
<path fill="none" stroke="midnightblue" d="M566.17,-118.61C584.39,-126.48 608.23,-136.14 630,-143 641.21,-146.53 653.48,-149.71 665.04,-152.42"/>
<polygon fill="midnightblue" stroke="midnightblue" points="567.5,-115.37 556.93,-114.57 564.69,-121.79 567.5,-115.37"/>
</g>
<!-- Node6 -->
<g id="node6" class="node">
<title>Node6</title>
<g id="a_node6"><a xlink:href="structMoFEM_1_1RefElement__PRISM.html" target="_top" xlink:title="keeps data about abstract PRISM finite element">
<polygon fill="white" stroke="black" points="637.5,-114.5 637.5,-133.5 789.5,-133.5 789.5,-114.5 637.5,-114.5"/>
<text text-anchor="middle" x="713.5" y="-121.5" font-family="Helvetica,sans-Serif" font-size="10.00">MoFEM::RefElement_PRISM</text>
</a>
</g>
</g>
<!-- Node1&#45;&gt;Node6 -->
<g id="edge5" class="edge">
<title>Node1&#45;&gt;Node6</title>
<path fill="none" stroke="midnightblue" d="M603.39,-112.25C614.54,-113.45 626.16,-114.71 637.48,-115.92"/>
<polygon fill="midnightblue" stroke="midnightblue" points="603.62,-108.76 593.3,-111.17 602.87,-115.72 603.62,-108.76"/>
</g>
<!-- Node7 -->
<g id="node7" class="node">
<title>Node7</title>
<g id="a_node7"><a xlink:href="structMoFEM_1_1RefElement__VERTEX.html" target="_top" xlink:title="keeps data about abstract VERTEX finite element">
<polygon fill="white" stroke="black" points="634.5,-76.5 634.5,-95.5 792.5,-95.5 792.5,-76.5 634.5,-76.5"/>
<text text-anchor="middle" x="713.5" y="-83.5" font-family="Helvetica,sans-Serif" font-size="10.00">MoFEM::RefElement_VERTEX</text>
</a>
</g>
</g>
<!-- Node1&#45;&gt;Node7 -->
<g id="edge6" class="edge">
<title>Node1&#45;&gt;Node7</title>
<path fill="none" stroke="midnightblue" d="M603.29,-97.76C613.43,-96.66 623.96,-95.53 634.31,-94.42"/>
<polygon fill="midnightblue" stroke="midnightblue" points="602.87,-94.28 593.3,-98.83 603.62,-101.24 602.87,-94.28"/>
</g>
<!-- Node8 -->
<g id="node8" class="node">
<title>Node8</title>
<g id="a_node8"><a xlink:href="structMoFEM_1_1RefElementFace.html" target="_top" xlink:title="keeps data about abstract TRI finite element">
<polygon fill="white" stroke="black" points="645,-38.5 645,-57.5 782,-57.5 782,-38.5 645,-38.5"/>
<text text-anchor="middle" x="713.5" y="-45.5" font-family="Helvetica,sans-Serif" font-size="10.00">MoFEM::RefElementFace</text>
</a>
</g>
</g>
<!-- Node1&#45;&gt;Node8 -->
<g id="edge7" class="edge">
<title>Node1&#45;&gt;Node8</title>
<path fill="none" stroke="midnightblue" d="M566.17,-91.39C584.39,-83.52 608.23,-73.86 630,-67 641.21,-63.47 653.48,-60.29 665.04,-57.58"/>
<polygon fill="midnightblue" stroke="midnightblue" points="564.69,-88.21 556.93,-95.43 567.5,-94.63 564.69,-88.21"/>
</g>
<!-- Node9 -->
<g id="node9" class="node">
<title>Node9</title>
<g id="a_node9"><a xlink:href="structMoFEM_1_1RefElementVolume.html" target="_top" xlink:title="keeps data about abstract TET finite element">
<polygon fill="white" stroke="black" points="637.5,-0.5 637.5,-19.5 789.5,-19.5 789.5,-0.5 637.5,-0.5"/>
<text text-anchor="middle" x="713.5" y="-7.5" font-family="Helvetica,sans-Serif" font-size="10.00">MoFEM::RefElementVolume</text>
</a>
</g>
</g>
<!-- Node1&#45;&gt;Node9 -->
<g id="edge8" class="edge">
<title>Node1&#45;&gt;Node9</title>
<path fill="none" stroke="midnightblue" d="M552.02,-88.14C569.53,-70.7 599.24,-43.98 630,-29 637.93,-25.14 646.67,-22.04 655.41,-19.57"/>
<polygon fill="midnightblue" stroke="midnightblue" points="549.38,-85.83 544.87,-95.42 554.37,-90.74 549.38,-85.83"/>
</g>
<!-- Node2 -->
<g id="node2" class="node">
<title>Node2</title>
<g id="a_node2"><a xlink:href="structMoFEM_1_1interface__RefEntity.html" target="_top" xlink:title=" ">
<polygon fill="white" stroke="black" points="288,-90 288,-120 440,-120 440,-90 288,-90"/>
<text text-anchor="start" x="296" y="-108" font-family="Helvetica,sans-Serif" font-size="10.00">MoFEM::interface_RefEntity</text>
<text text-anchor="middle" x="364" y="-97" font-family="Helvetica,sans-Serif" font-size="10.00">&lt; RefEntity &gt;</text>
</a>
</g>
</g>
<!-- Node2&#45;&gt;Node1 -->
<g id="edge1" class="edge">
<title>Node2&#45;&gt;Node1</title>
<path fill="none" stroke="midnightblue" d="M450.27,-105C459.29,-105 468.29,-105 476.88,-105"/>
<polygon fill="midnightblue" stroke="midnightblue" points="450.11,-101.5 440.11,-105 450.11,-108.5 450.11,-101.5"/>
</g>
<!-- Node3 -->
<g id="node3" class="node">
<title>Node3</title>
<g id="a_node3"><a xlink:href="structMoFEM_1_1interface__RefEntity.html" target="_top" xlink:title="interface to RefEntity">
<polygon fill="white" stroke="black" points="0,-95.5 0,-114.5 181,-114.5 181,-95.5 0,-95.5"/>
<text text-anchor="middle" x="90.5" y="-102.5" font-family="Helvetica,sans-Serif" font-size="10.00">MoFEM::interface_RefEntity&lt; T &gt;</text>
</a>
</g>
</g>
<!-- Node3&#45;&gt;Node2 -->
<g id="edge2" class="edge">
<title>Node3&#45;&gt;Node2</title>
<path fill="none" stroke="orange" stroke-dasharray="5,2" d="M191.41,-105C223.34,-105 258.11,-105 287.96,-105"/>
<polygon fill="orange" stroke="orange" points="191.15,-101.5 181.15,-105 191.15,-108.5 191.15,-101.5"/>
<text text-anchor="middle" x="234.5" y="-108" font-family="Helvetica,sans-Serif" font-size="10.00"> &lt; RefEntity &gt;</text>
</g>
</g>
</svg>
        <g id="navigator" transform="translate(0 0)" fill="#404254">
                <rect fill="#f2f5e9" fill-opacity="0.5" stroke="#606060" stroke-width=".5" x="0" y="0" width="60" height="60"/>
                <use id="zoomplus" xlink:href="#zoomPlus" x="17" y="9" onmousedown="handleZoom(evt,'in')"/>
                <use id="zoomminus" xlink:href="#zoomMin" x="42" y="9" onmousedown="handleZoom(evt,'out')"/>
                <use id="reset" xlink:href="#resetDef" x="30" y="36" onmousedown="handleReset()"/>
                <g id="arrowUp" xlink:href="#dirArrow" transform="translate(30 24)" onmousedown="handlePan(0,-1)">
                  <use xlink:href="#rim" fill="#404040">
                        <set attributeName="fill" to="#808080" begin="arrowUp.mouseover" end="arrowUp.mouseout"/>
                  </use>
                  <path fill="none" stroke="white" stroke-width="1.5" d="M0,-3.0v7 M-2.5,-0.5L0,-3.0L2.5,-0.5"/>
                </g>
                <g id="arrowRight" xlink:href="#dirArrow" transform="rotate(90) translate(36 -43)" onmousedown="handlePan(1,0)">
                  <use xlink:href="#rim" fill="#404040">
                        <set attributeName="fill" to="#808080" begin="arrowRight.mouseover" end="arrowRight.mouseout"/>
                  </use>
                  <path fill="none" stroke="white" stroke-width="1.5" d="M0,-3.0v7 M-2.5,-0.5L0,-3.0L2.5,-0.5"/>
                </g>
                <g id="arrowDown" xlink:href="#dirArrow" transform="rotate(180) translate(-30 -48)" onmousedown="handlePan(0,1)">
                  <use xlink:href="#rim" fill="#404040">
                        <set attributeName="fill" to="#808080" begin="arrowDown.mouseover" end="arrowDown.mouseout"/>
                  </use>
                  <path fill="none" stroke="white" stroke-width="1.5" d="M0,-3.0v7 M-2.5,-0.5L0,-3.0L2.5,-0.5"/>
                </g>
                <g id="arrowLeft" xlink:href="#dirArrow" transform="rotate(270) translate(-36 17)" onmousedown="handlePan(-1,0)">
                  <use xlink:href="#rim" fill="#404040">
                        <set attributeName="fill" to="#808080" begin="arrowLeft.mouseover" end="arrowLeft.mouseout"/>
                  </use>
                  <path fill="none" stroke="white" stroke-width="1.5" d="M0,-3.0v7 M-2.5,-0.5L0,-3.0L2.5,-0.5"/>
                </g>
        </g>
        <svg viewBox="0 0 15 15" width="100%" height="30px" preserveAspectRatio="xMaxYMin meet">
         <g id="arrow_out" transform="scale(0.3 0.3)">
          <a xlink:href="structMoFEM_1_1RefElement__inherit__graph_org.svg" target="_base">
           <rect id="button" ry="5" rx="5" y="6" x="6" height="38" width="38"
                fill="#f2f5e9" fill-opacity="0.5" stroke="#606060" stroke-width="1.0"/>
           <path id="arrow"
             d="M 11.500037,31.436501 C 11.940474,20.09759 22.043105,11.32322 32.158766,21.979434 L 37.068811,17.246167 C 37.068811,17.246167 37.088388,32 37.088388,32 L 22.160133,31.978069 C 22.160133,31.978069 26.997745,27.140456 26.997745,27.140456 C 18.528582,18.264221 13.291696,25.230495 11.500037,31.436501 z"
             style="fill:#404040;"/>
          </a>
         </g>
        </svg>
</svg>
