<?xml version="1.0" encoding="UTF-8" standalone="no"?>
<!DOCTYPE svg PUBLIC "-//W3C//DTD SVG 1.1//EN"
 "http://www.w3.org/Graphics/SVG/1.1/DTD/svg11.dtd">
<!-- Generated by graphviz version 2.43.0 (0)
 -->
<!-- Title: ConvectiveMassElement::PCShellCtx Pages: 1 -->
<svg width="163pt" height="106pt"
 viewBox="0.00 0.00 162.50 106.00" xmlns="http://www.w3.org/2000/svg" xmlns:xlink="http://www.w3.org/1999/xlink">
<g id="graph0" class="graph" transform="scale(1 1) rotate(0) translate(4 102)">
<title>ConvectiveMassElement::PCShellCtx</title>
<polygon fill="white" stroke="transparent" points="-4,4 -4,-102 158.5,-102 158.5,4 -4,4"/>
<!-- Node1 -->
<g id="node1" class="node">
<title>Node1</title>
<g id="a_node1"><a xlink:title=" ">
<polygon fill="#bfbfbf" stroke="black" points="0,-0.5 0,-30.5 137,-30.5 137,-0.5 0,-0.5"/>
<text text-anchor="start" x="8" y="-18.5" font-family="Helvetica,sans-Serif" font-size="10.00">ConvectiveMassElement</text>
<text text-anchor="middle" x="68.5" y="-7.5" font-family="Helvetica,sans-Serif" font-size="10.00">::PCShellCtx</text>
</a>
</g>
</g>
<!-- Node2 -->
<g id="node2" class="node">
<title>Node2</title>
<g id="a_node2"><a xlink:title=" ">
<polygon fill="white" stroke="#bfbfbf" points="2,-78.5 2,-97.5 31,-97.5 31,-78.5 2,-78.5"/>
<text text-anchor="middle" x="16.5" y="-85.5" font-family="Helvetica,sans-Serif" font-size="10.00">PC</text>
</a>
</g>
</g>
<!-- Node2&#45;&gt;Node1 -->
<g id="edge1" class="edge">
<title>Node2&#45;&gt;Node1</title>
<path fill="none" stroke="#9a32cd" stroke-dasharray="5,2" d="M29.01,-70.04C37.91,-57.97 49.74,-41.94 58.12,-30.58"/>
<polygon fill="#9a32cd" stroke="#9a32cd" points="26,-68.23 22.88,-78.36 31.63,-72.39 26,-68.23"/>
<text text-anchor="middle" x="51.5" y="-52" font-family="Helvetica,sans-Serif" font-size="10.00"> pC</text>
</g>
<!-- Node3 -->
<g id="node3" class="node">
<title>Node3</title>
<g id="a_node3"><a xlink:href="classbool.html" target="_top" xlink:title=" ">
<polygon fill="white" stroke="black" points="49.5,-78.5 49.5,-97.5 87.5,-97.5 87.5,-78.5 49.5,-78.5"/>
<text text-anchor="middle" x="68.5" y="-85.5" font-family="Helvetica,sans-Serif" font-size="10.00">bool</text>
</a>
</g>
</g>
<!-- Node3&#45;&gt;Node1 -->
<g id="edge2" class="edge">
<title>Node3&#45;&gt;Node1</title>
<path fill="none" stroke="#9a32cd" stroke-dasharray="5,2" d="M68.5,-68.24C68.5,-56.41 68.5,-41.38 68.5,-30.58"/>
<polygon fill="#9a32cd" stroke="#9a32cd" points="65,-68.36 68.5,-78.36 72,-68.36 65,-68.36"/>
<text text-anchor="middle" x="84.5" y="-52" font-family="Helvetica,sans-Serif" font-size="10.00"> initPC</text>
</g>
<!-- Node4 -->
<g id="node4" class="node">
<title>Node4</title>
<g id="a_node4"><a xlink:title=" ">
<polygon fill="white" stroke="#bfbfbf" points="106,-78.5 106,-97.5 141,-97.5 141,-78.5 106,-78.5"/>
<text text-anchor="middle" x="123.5" y="-85.5" font-family="Helvetica,sans-Serif" font-size="10.00">Mat</text>
</a>
</g>
</g>
<!-- Node4&#45;&gt;Node1 -->
<g id="edge3" class="edge">
<title>Node4&#45;&gt;Node1</title>
<path fill="none" stroke="#9a32cd" stroke-dasharray="5,2" d="M114.66,-69.5C110.97,-62.83 106.39,-55.32 101.5,-49 96.48,-42.52 90.22,-36.04 84.51,-30.59"/>
<polygon fill="#9a32cd" stroke="#9a32cd" points="111.62,-71.23 119.38,-78.44 117.81,-67.96 111.62,-71.23"/>
<text text-anchor="middle" x="131.5" y="-52" font-family="Helvetica,sans-Serif" font-size="10.00"> shellMat</text>
</g>
</g>
</svg>
