<?xml version="1.0" encoding="UTF-8" standalone="no"?>
<!DOCTYPE svg PUBLIC "-//W3C//DTD SVG 1.1//EN"
 "http://www.w3.org/Graphics/SVG/1.1/DTD/svg11.dtd">
<!-- Generated by graphviz version 2.43.0 (0)
 -->
<!-- Title: MoFEM::FieldBlas Pages: 1 -->
<svg width="1444pt" height="119pt"
 viewBox="0.00 0.00 1444.00 119.00" xmlns="http://www.w3.org/2000/svg" xmlns:xlink="http://www.w3.org/1999/xlink">
<g id="graph0" class="graph" transform="scale(1 1) rotate(0) translate(4 115)">
<title>MoFEM::FieldBlas</title>
<polygon fill="white" stroke="transparent" points="-4,4 -4,-115 1440,-115 1440,4 -4,4"/>
<!-- Node1 -->
<g id="node1" class="node">
<title>Node1</title>
<g id="a_node1"><a xlink:title="Basic algebra on fields.">
<polygon fill="#bfbfbf" stroke="black" points="1333,-38.5 1333,-57.5 1436,-57.5 1436,-38.5 1333,-38.5"/>
<text text-anchor="middle" x="1384.5" y="-45.5" font-family="Helvetica,sans-Serif" font-size="10.00">MoFEM::FieldBlas</text>
</a>
</g>
</g>
<!-- Node2 -->
<g id="node2" class="node">
<title>Node2</title>
<g id="a_node2"><a xlink:href="structMoFEM_1_1UnknownInterface.html" target="_top" xlink:title="base class for all interface classes">
<polygon fill="white" stroke="black" points="735,-57.5 735,-76.5 883,-76.5 883,-57.5 735,-57.5"/>
<text text-anchor="middle" x="809" y="-64.5" font-family="Helvetica,sans-Serif" font-size="10.00">MoFEM::UnknownInterface</text>
</a>
</g>
</g>
<!-- Node2&#45;&gt;Node1 -->
<g id="edge1" class="edge">
<title>Node2&#45;&gt;Node1</title>
<path fill="none" stroke="midnightblue" d="M893.33,-69.99C896.26,-70.01 899.15,-70.01 902,-70 1062.45,-69.33 1102.7,-73.82 1263,-67 1286.16,-66.01 1292.07,-66.38 1315,-63 1324.64,-61.58 1334.94,-59.58 1344.55,-57.51"/>
<polygon fill="midnightblue" stroke="midnightblue" points="893.35,-66.49 883.31,-69.88 893.27,-73.49 893.35,-66.49"/>
</g>
<!-- Node6 -->
<g id="node6" class="node">
<title>Node6</title>
<g id="a_node6"><a xlink:href="structMoFEM_1_1CoreInterface.html" target="_top" xlink:title="Interface.">
<polygon fill="white" stroke="black" points="920,-38.5 920,-57.5 1045,-57.5 1045,-38.5 920,-38.5"/>
<text text-anchor="middle" x="982.5" y="-45.5" font-family="Helvetica,sans-Serif" font-size="10.00">MoFEM::CoreInterface</text>
</a>
</g>
</g>
<!-- Node2&#45;&gt;Node6 -->
<g id="edge6" class="edge">
<title>Node2&#45;&gt;Node6</title>
<path fill="none" stroke="midnightblue" d="M893.29,-57.77C902.24,-56.78 911.22,-55.79 919.85,-54.83"/>
<polygon fill="midnightblue" stroke="midnightblue" points="892.78,-54.31 883.23,-58.89 893.55,-61.26 892.78,-54.31"/>
</g>
<!-- Node3 -->
<g id="node3" class="node">
<title>Node3</title>
<g id="a_node3"><a xlink:title=" ">
<polygon fill="white" stroke="#bfbfbf" points="386,-35.5 386,-98.5 627,-98.5 627,-35.5 386,-35.5"/>
<text text-anchor="start" x="394" y="-86.5" font-family="Helvetica,sans-Serif" font-size="10.00">multi_index_container</text>
<text text-anchor="start" x="394" y="-75.5" font-family="Helvetica,sans-Serif" font-size="10.00">&lt; UIdTypeMap, indexed</text>
<text text-anchor="start" x="394" y="-64.5" font-family="Helvetica,sans-Serif" font-size="10.00">_by&lt; hashed_unique&lt; member</text>
<text text-anchor="start" x="394" y="-53.5" font-family="Helvetica,sans-Serif" font-size="10.00">&lt; UIdTypeMap, boost::typeindex</text>
<text text-anchor="middle" x="506.5" y="-42.5" font-family="Helvetica,sans-Serif" font-size="10.00">::type_index, &amp;UIdTypeMap::classIdx &gt; &gt; &gt; &gt;</text>
</a>
</g>
</g>
<!-- Node3&#45;&gt;Node2 -->
<g id="edge2" class="edge">
<title>Node3&#45;&gt;Node2</title>
<path fill="none" stroke="#9a32cd" stroke-dasharray="5,2" d="M637.41,-67C670.69,-67 705.33,-67 734.62,-67"/>
<polygon fill="#9a32cd" stroke="#9a32cd" points="637.13,-63.5 627.13,-67 637.13,-70.5 637.13,-63.5"/>
<text text-anchor="middle" x="681" y="-70" font-family="Helvetica,sans-Serif" font-size="10.00"> iFaceTypeMap</text>
</g>
<!-- Node4 -->
<g id="node4" class="node">
<title>Node4</title>
<g id="a_node4"><a xlink:title=" ">
<polygon fill="white" stroke="#bfbfbf" points="0,-57.5 0,-76.5 125,-76.5 125,-57.5 0,-57.5"/>
<text text-anchor="middle" x="62.5" y="-64.5" font-family="Helvetica,sans-Serif" font-size="10.00">multi_index_container</text>
</a>
</g>
</g>
<!-- Node4&#45;&gt;Node3 -->
<g id="edge3" class="edge">
<title>Node4&#45;&gt;Node3</title>
<path fill="none" stroke="orange" stroke-dasharray="5,2" d="M135.56,-67C203.25,-67 305.79,-67 385.77,-67"/>
<polygon fill="orange" stroke="orange" points="135.42,-63.5 125.42,-67 135.42,-70.5 135.42,-63.5"/>
<text text-anchor="start" x="143" y="-103" font-family="Helvetica,sans-Serif" font-size="10.00"> &lt; UIdTypeMap, indexed</text>
<text text-anchor="start" x="143" y="-92" font-family="Helvetica,sans-Serif" font-size="10.00">_by&lt; hashed_unique&lt; member</text>
<text text-anchor="start" x="143" y="-81" font-family="Helvetica,sans-Serif" font-size="10.00">&lt; UIdTypeMap, boost::typeindex</text>
<text text-anchor="middle" x="255.5" y="-70" font-family="Helvetica,sans-Serif" font-size="10.00">::type_index, &amp;UIdTypeMap::classIdx &gt; &gt; &gt; &gt;</text>
</g>
<!-- Node5 -->
<g id="node5" class="node">
<title>Node5</title>
<g id="a_node5"><a xlink:href="structMoFEM_1_1DeprecatedCoreInterface.html" target="_top" xlink:title="Deprecated interface functions.">
<polygon fill="white" stroke="black" points="1082,-38.5 1082,-57.5 1263,-57.5 1263,-38.5 1082,-38.5"/>
<text text-anchor="middle" x="1172.5" y="-45.5" font-family="Helvetica,sans-Serif" font-size="10.00">MoFEM::DeprecatedCoreInterface</text>
</a>
</g>
</g>
<!-- Node5&#45;&gt;Node1 -->
<g id="edge4" class="edge">
<title>Node5&#45;&gt;Node1</title>
<path fill="none" stroke="#9a32cd" stroke-dasharray="5,2" d="M1273.28,-48C1293.96,-48 1314.91,-48 1332.91,-48"/>
<polygon fill="#9a32cd" stroke="#9a32cd" points="1273.17,-44.5 1263.17,-48 1273.17,-51.5 1273.17,-44.5"/>
<text text-anchor="middle" x="1298" y="-51" font-family="Helvetica,sans-Serif" font-size="10.00"> cOre</text>
</g>
<!-- Node6&#45;&gt;Node5 -->
<g id="edge5" class="edge">
<title>Node6&#45;&gt;Node5</title>
<path fill="none" stroke="midnightblue" d="M1055.16,-48C1063.89,-48 1072.89,-48 1081.84,-48"/>
<polygon fill="midnightblue" stroke="midnightblue" points="1055.06,-44.5 1045.06,-48 1055.06,-51.5 1055.06,-44.5"/>
</g>
<!-- Node7 -->
<g id="node7" class="node">
<title>Node7</title>
<g id="a_node7"><a xlink:href="classbool.html" target="_top" xlink:title=" ">
<polygon fill="white" stroke="black" points="1153.5,-0.5 1153.5,-19.5 1191.5,-19.5 1191.5,-0.5 1153.5,-0.5"/>
<text text-anchor="middle" x="1172.5" y="-7.5" font-family="Helvetica,sans-Serif" font-size="10.00">bool</text>
</a>
</g>
</g>
<!-- Node7&#45;&gt;Node1 -->
<g id="edge7" class="edge">
<title>Node7&#45;&gt;Node1</title>
<path fill="none" stroke="#9a32cd" stroke-dasharray="5,2" d="M1201.98,-14.16C1230.61,-18.46 1275.98,-25.56 1315,-33 1323.61,-34.64 1332.8,-36.55 1341.55,-38.44"/>
<polygon fill="#9a32cd" stroke="#9a32cd" points="1202.28,-10.67 1191.87,-12.66 1201.25,-17.59 1202.28,-10.67"/>
<text text-anchor="middle" x="1298" y="-36" font-family="Helvetica,sans-Serif" font-size="10.00"> dEbug</text>
</g>
</g>
</svg>
