<?xml version="1.0" encoding="UTF-8" standalone="no"?>
<!DOCTYPE svg PUBLIC "-//W3C//DTD SVG 1.1//EN"
 "http://www.w3.org/Graphics/SVG/1.1/DTD/svg11.dtd">
<!-- Generated by graphviz version 2.43.0 (0)
 -->
<!-- Title: MoFEM::OpCalculateVectorFieldValues_General&lt; Tensor_Dim, double, ublas::row_major, DoubleAllocator &gt; Pages: 1 -->
<svg width="3275pt" height="1344pt"
 viewBox="0.00 0.00 3275.00 1344.00" xmlns="http://www.w3.org/2000/svg" xmlns:xlink="http://www.w3.org/1999/xlink">
<g id="graph0" class="graph" transform="scale(1 1) rotate(0) translate(4 1340)">
<title>MoFEM::OpCalculateVectorFieldValues_General&lt; Tensor_Dim, double, ublas::row_major, DoubleAllocator &gt;</title>
<polygon fill="white" stroke="transparent" points="-4,4 -4,-1340 3271,-1340 3271,4 -4,4"/>
<!-- Node1 -->
<g id="node1" class="node">
<title>Node1</title>
<g id="a_node1"><a xlink:title="Calculate field values (template specialization) for tensor field rank 1, i.e. vector field.">
<polygon fill="#bfbfbf" stroke="black" points="3093,-420 3093,-472 3267,-472 3267,-420 3093,-420"/>
<text text-anchor="start" x="3101" y="-460" font-family="Helvetica,sans-Serif" font-size="10.00">MoFEM::OpCalculateVector</text>
<text text-anchor="start" x="3101" y="-449" font-family="Helvetica,sans-Serif" font-size="10.00">FieldValues_General&lt; Tensor</text>
<text text-anchor="start" x="3101" y="-438" font-family="Helvetica,sans-Serif" font-size="10.00">_Dim, double, ublas::row_major,</text>
<text text-anchor="middle" x="3180" y="-427" font-family="Helvetica,sans-Serif" font-size="10.00"> DoubleAllocator &gt;</text>
</a>
</g>
</g>
<!-- Node2 -->
<g id="node2" class="node">
<title>Node2</title>
<g id="a_node2"><a xlink:href="structMoFEM_1_1ForcesAndSourcesCore_1_1UserDataOperator.html" target="_top" xlink:title=" ">
<polygon fill="white" stroke="black" points="2837,-690 2837,-720 3007,-720 3007,-690 2837,-690"/>
<text text-anchor="start" x="2845" y="-708" font-family="Helvetica,sans-Serif" font-size="10.00">MoFEM::ForcesAndSourcesCore</text>
<text text-anchor="middle" x="2922" y="-697" font-family="Helvetica,sans-Serif" font-size="10.00">::UserDataOperator</text>
</a>
</g>
</g>
<!-- Node2&#45;&gt;Node1 -->
<g id="edge1" class="edge">
<title>Node2&#45;&gt;Node1</title>
<path fill="none" stroke="midnightblue" d="M2945.15,-682.59C2992.4,-634.79 3102.84,-523.05 3153.18,-472.12"/>
<polygon fill="midnightblue" stroke="midnightblue" points="2942.41,-680.38 2937.87,-689.96 2947.39,-685.3 2942.41,-680.38"/>
</g>
<!-- Node3 -->
<g id="node3" class="node">
<title>Node3</title>
<g id="a_node3"><a xlink:href="structMoFEM_1_1DataOperator.html" target="_top" xlink:title="base operator to do operations at Gauss Pt. level">
<polygon fill="white" stroke="black" points="2579.5,-540.5 2579.5,-559.5 2704.5,-559.5 2704.5,-540.5 2579.5,-540.5"/>
<text text-anchor="middle" x="2642" y="-547.5" font-family="Helvetica,sans-Serif" font-size="10.00">MoFEM::DataOperator</text>
</a>
</g>
</g>
<!-- Node3&#45;&gt;Node2 -->
<g id="edge2" class="edge">
<title>Node3&#45;&gt;Node2</title>
<path fill="none" stroke="midnightblue" d="M2669.14,-564.57C2721.79,-593.93 2840.18,-659.94 2893.75,-689.81"/>
<polygon fill="midnightblue" stroke="midnightblue" points="2670.83,-561.51 2660.39,-559.7 2667.42,-567.62 2670.83,-561.51"/>
</g>
<!-- Node4 -->
<g id="node4" class="node">
<title>Node4</title>
<g id="a_node4"><a xlink:title=" ">
<polygon fill="white" stroke="#bfbfbf" points="2160,-413 2160,-465 2352,-465 2352,-413 2160,-413"/>
<text text-anchor="start" x="2168" y="-453" font-family="Helvetica,sans-Serif" font-size="10.00">function&lt; MoFEMErrorCode</text>
<text text-anchor="start" x="2168" y="-442" font-family="Helvetica,sans-Serif" font-size="10.00">(DataOperator *op_ptr,</text>
<text text-anchor="start" x="2168" y="-431" font-family="Helvetica,sans-Serif" font-size="10.00"> int side, EntityType type,</text>
<text text-anchor="middle" x="2256" y="-420" font-family="Helvetica,sans-Serif" font-size="10.00"> EntitiesFieldData::EntData &amp;data)&gt;</text>
</a>
</g>
</g>
<!-- Node4&#45;&gt;Node3 -->
<g id="edge3" class="edge">
<title>Node4&#45;&gt;Node3</title>
<path fill="none" stroke="#9a32cd" stroke-dasharray="5,2" d="M2361.93,-451.57C2415.92,-460 2482.15,-473.42 2539,-494 2572.24,-506.03 2607.7,-527.78 2626.81,-540.34"/>
<polygon fill="#9a32cd" stroke="#9a32cd" points="2362.41,-448.1 2352,-450.05 2361.36,-455.02 2362.41,-448.1"/>
<text text-anchor="middle" x="2458" y="-497" font-family="Helvetica,sans-Serif" font-size="10.00"> doWorkRhsHook</text>
</g>
<!-- Node5 -->
<g id="node5" class="node">
<title>Node5</title>
<g id="a_node5"><a xlink:href="classbool.html" target="_top" xlink:title=" ">
<polygon fill="white" stroke="black" points="2237,-626.5 2237,-645.5 2275,-645.5 2275,-626.5 2237,-626.5"/>
<text text-anchor="middle" x="2256" y="-633.5" font-family="Helvetica,sans-Serif" font-size="10.00">bool</text>
</a>
</g>
</g>
<!-- Node5&#45;&gt;Node3 -->
<g id="edge4" class="edge">
<title>Node5&#45;&gt;Node3</title>
<path fill="none" stroke="#9a32cd" stroke-dasharray="5,2" d="M2285.43,-636.97C2307.41,-636.34 2337.6,-632.32 2359,-617 2372.27,-607.5 2363.49,-594.15 2377,-585 2381.18,-582.17 2502.67,-566.89 2579.36,-557.48"/>
<polygon fill="#9a32cd" stroke="#9a32cd" points="2285.34,-633.47 2275.37,-637.04 2285.39,-640.47 2285.34,-633.47"/>
<text text-anchor="middle" x="2458" y="-654" font-family="Helvetica,sans-Serif" font-size="10.00"> doTris</text>
<text text-anchor="middle" x="2458" y="-643" font-family="Helvetica,sans-Serif" font-size="10.00">doQuads</text>
<text text-anchor="middle" x="2458" y="-632" font-family="Helvetica,sans-Serif" font-size="10.00">sYmm</text>
<text text-anchor="middle" x="2458" y="-621" font-family="Helvetica,sans-Serif" font-size="10.00">doPrisms</text>
<text text-anchor="middle" x="2458" y="-610" font-family="Helvetica,sans-Serif" font-size="10.00">doTets</text>
<text text-anchor="middle" x="2458" y="-599" font-family="Helvetica,sans-Serif" font-size="10.00">doVertices</text>
<text text-anchor="middle" x="2458" y="-588" font-family="Helvetica,sans-Serif" font-size="10.00">doEdges</text>
</g>
<!-- Node6 -->
<g id="node6" class="node">
<title>Node6</title>
<g id="a_node6"><a xlink:title=" ">
<polygon fill="white" stroke="#bfbfbf" points="2153,-522.5 2153,-607.5 2359,-607.5 2359,-522.5 2153,-522.5"/>
<text text-anchor="start" x="2161" y="-595.5" font-family="Helvetica,sans-Serif" font-size="10.00">function&lt; MoFEMErrorCode</text>
<text text-anchor="start" x="2161" y="-584.5" font-family="Helvetica,sans-Serif" font-size="10.00">(DataOperator *op_ptr,</text>
<text text-anchor="start" x="2161" y="-573.5" font-family="Helvetica,sans-Serif" font-size="10.00"> int row_side, int col_side,</text>
<text text-anchor="start" x="2161" y="-562.5" font-family="Helvetica,sans-Serif" font-size="10.00"> EntityType row_type, EntityType</text>
<text text-anchor="start" x="2161" y="-551.5" font-family="Helvetica,sans-Serif" font-size="10.00"> col_type, EntitiesFieldData::EntData</text>
<text text-anchor="start" x="2161" y="-540.5" font-family="Helvetica,sans-Serif" font-size="10.00"> &amp;row_data, EntitiesFieldData::EntData</text>
<text text-anchor="middle" x="2256" y="-529.5" font-family="Helvetica,sans-Serif" font-size="10.00"> &amp;col_data)&gt;</text>
</a>
</g>
</g>
<!-- Node6&#45;&gt;Node3 -->
<g id="edge5" class="edge">
<title>Node6&#45;&gt;Node3</title>
<path fill="none" stroke="#9a32cd" stroke-dasharray="5,2" d="M2369.23,-551.51C2371.84,-551.33 2374.44,-551.15 2377,-551 2446.2,-546.85 2525.78,-547.25 2579.33,-548.28"/>
<polygon fill="#9a32cd" stroke="#9a32cd" points="2368.76,-548.04 2359.06,-552.3 2369.3,-555.02 2368.76,-548.04"/>
<text text-anchor="middle" x="2458" y="-554" font-family="Helvetica,sans-Serif" font-size="10.00"> doWorkLhsHook</text>
</g>
<!-- Node7 -->
<g id="node7" class="node">
<title>Node7</title>
<g id="a_node7"><a xlink:title=" ">
<polygon fill="white" stroke="#bfbfbf" points="2179,-484.5 2179,-503.5 2333,-503.5 2333,-484.5 2179,-484.5"/>
<text text-anchor="middle" x="2256" y="-491.5" font-family="Helvetica,sans-Serif" font-size="10.00">array&lt; bool, MBMAXTYPE &gt;</text>
</a>
</g>
</g>
<!-- Node7&#45;&gt;Node3 -->
<g id="edge6" class="edge">
<title>Node7&#45;&gt;Node3</title>
<path fill="none" stroke="#9a32cd" stroke-dasharray="5,2" d="M2343.34,-504.71C2399.22,-511.87 2473.52,-521.81 2539,-532 2555.44,-534.56 2573.31,-537.62 2589.44,-540.48"/>
<polygon fill="#9a32cd" stroke="#9a32cd" points="2343.49,-501.2 2333.12,-503.4 2342.6,-508.14 2343.49,-501.2"/>
<text text-anchor="middle" x="2458" y="-535" font-family="Helvetica,sans-Serif" font-size="10.00"> doEntities</text>
</g>
<!-- Node8 -->
<g id="node8" class="node">
<title>Node8</title>
<g id="a_node8"><a xlink:title=" ">
<polygon fill="white" stroke="#bfbfbf" points="2607.5,-695.5 2607.5,-714.5 2676.5,-714.5 2676.5,-695.5 2607.5,-695.5"/>
<text text-anchor="middle" x="2642" y="-702.5" font-family="Helvetica,sans-Serif" font-size="10.00">FieldSpace</text>
</a>
</g>
</g>
<!-- Node8&#45;&gt;Node2 -->
<g id="edge7" class="edge">
<title>Node8&#45;&gt;Node2</title>
<path fill="none" stroke="#9a32cd" stroke-dasharray="5,2" d="M2686.79,-705C2726.94,-705 2787.51,-705 2836.99,-705"/>
<polygon fill="#9a32cd" stroke="#9a32cd" points="2686.53,-701.5 2676.53,-705 2686.53,-708.5 2686.53,-701.5"/>
<text text-anchor="middle" x="2782" y="-708" font-family="Helvetica,sans-Serif" font-size="10.00"> sPace</text>
</g>
<!-- Node9 -->
<g id="node9" class="node">
<title>Node9</title>
<g id="a_node9"><a xlink:title=" ">
<polygon fill="white" stroke="#bfbfbf" points="1122.5,-707.5 1122.5,-726.5 1160.5,-726.5 1160.5,-707.5 1122.5,-707.5"/>
<text text-anchor="middle" x="1141.5" y="-714.5" font-family="Helvetica,sans-Serif" font-size="10.00">char</text>
</a>
</g>
</g>
<!-- Node9&#45;&gt;Node2 -->
<g id="edge8" class="edge">
<title>Node9&#45;&gt;Node2</title>
<path fill="none" stroke="#9a32cd" stroke-dasharray="5,2" d="M1170.91,-712.22C1191.14,-708.6 1218.91,-703.21 1243,-697 1312.55,-679.07 1348.8,-701.25 1397,-648 1422.92,-619.37 1386,-588.5 1415,-563 1656.09,-351.01 1897.36,-720.86 2135,-505 2168.75,-474.34 2118.04,-433.28 2153,-404 2223.19,-345.21 2268.16,-392.58 2359,-404 2580.37,-431.84 2652.22,-456.81 2819,-605 2851.44,-633.83 2887.19,-669.97 2906.57,-689.96"/>
<polygon fill="#9a32cd" stroke="#9a32cd" points="1170.04,-708.82 1160.79,-713.99 1171.25,-715.71 1170.04,-708.82"/>
<text text-anchor="middle" x="2063" y="-576" font-family="Helvetica,sans-Serif" font-size="10.00"> opType</text>
</g>
<!-- Node37 -->
<g id="node37" class="node">
<title>Node37</title>
<g id="a_node37"><a xlink:href="structMoFEM_1_1Problem.html" target="_top" xlink:title="keeps basic data about problem">
<polygon fill="white" stroke="black" points="1449,-1024.5 1449,-1043.5 1548,-1043.5 1548,-1024.5 1449,-1024.5"/>
<text text-anchor="middle" x="1498.5" y="-1031.5" font-family="Helvetica,sans-Serif" font-size="10.00">MoFEM::Problem</text>
</a>
</g>
</g>
<!-- Node9&#45;&gt;Node37 -->
<g id="edge52" class="edge">
<title>Node9&#45;&gt;Node37</title>
<path fill="none" stroke="#9a32cd" stroke-dasharray="5,2" d="M1170.94,-721.31C1230.14,-730.8 1363.89,-755.16 1397,-786 1471.45,-855.34 1492.07,-987.54 1496.47,-1024.3"/>
<polygon fill="#9a32cd" stroke="#9a32cd" points="1171.21,-717.81 1160.79,-719.71 1170.12,-724.72 1171.21,-717.81"/>
<text text-anchor="middle" x="1329" y="-789" font-family="Helvetica,sans-Serif" font-size="10.00"> tagName</text>
</g>
<!-- Node10 -->
<g id="node10" class="node">
<title>Node10</title>
<g id="a_node10"><a xlink:href="structMoFEM_1_1ForcesAndSourcesCore.html" target="_top" xlink:title="structure to get information form mofem into EntitiesFieldData">
<polygon fill="white" stroke="black" points="2557,-838.5 2557,-857.5 2727,-857.5 2727,-838.5 2557,-838.5"/>
<text text-anchor="middle" x="2642" y="-845.5" font-family="Helvetica,sans-Serif" font-size="10.00">MoFEM::ForcesAndSourcesCore</text>
</a>
</g>
</g>
<!-- Node10&#45;&gt;Node2 -->
<g id="edge9" class="edge">
<title>Node10&#45;&gt;Node2</title>
<path fill="none" stroke="#9a32cd" stroke-dasharray="5,2" d="M2670.77,-833.72C2723.46,-806.61 2837.48,-747.96 2891.49,-720.18"/>
<polygon fill="#9a32cd" stroke="#9a32cd" points="2668.96,-830.71 2661.67,-838.4 2672.17,-836.93 2668.96,-830.71"/>
<text text-anchor="middle" x="2782" y="-796" font-family="Helvetica,sans-Serif" font-size="10.00"> ptrFE</text>
</g>
<!-- Node10&#45;&gt;Node10 -->
<g id="edge67" class="edge">
<title>Node10&#45;&gt;Node10</title>
<path fill="none" stroke="#9a32cd" stroke-dasharray="5,2" d="M2615.96,-867.03C2617.38,-872.13 2626.06,-876 2642,-876 2666.88,-876 2674.08,-866.57 2663.58,-857.76"/>
<polygon fill="#9a32cd" stroke="#9a32cd" points="2619.24,-868.29 2620.42,-857.76 2612.93,-865.25 2619.24,-868.29"/>
<text text-anchor="middle" x="2642" y="-890" font-family="Helvetica,sans-Serif" font-size="10.00"> sidePtrFE</text>
<text text-anchor="middle" x="2642" y="-879" font-family="Helvetica,sans-Serif" font-size="10.00">refinePtrFE</text>
</g>
<!-- Node11 -->
<g id="node11" class="node">
<title>Node11</title>
<g id="a_node11"><a xlink:href="structMoFEM_1_1FEMethod.html" target="_top" xlink:title="structure for User Loop Methods on finite elements">
<polygon fill="white" stroke="black" points="2202.5,-838.5 2202.5,-857.5 2309.5,-857.5 2309.5,-838.5 2202.5,-838.5"/>
<text text-anchor="middle" x="2256" y="-845.5" font-family="Helvetica,sans-Serif" font-size="10.00">MoFEM::FEMethod</text>
</a>
</g>
</g>
<!-- Node11&#45;&gt;Node10 -->
<g id="edge10" class="edge">
<title>Node11&#45;&gt;Node10</title>
<path fill="none" stroke="midnightblue" d="M2319.62,-848C2384.15,-848 2485.15,-848 2556.68,-848"/>
<polygon fill="midnightblue" stroke="midnightblue" points="2319.59,-844.5 2309.59,-848 2319.59,-851.5 2319.59,-844.5"/>
</g>
<!-- Node12 -->
<g id="node12" class="node">
<title>Node12</title>
<g id="a_node12"><a xlink:href="structMoFEM_1_1BasicMethod.html" target="_top" xlink:title="Data structure to exchange data between mofem and User Loop Methods.">
<polygon fill="white" stroke="black" points="1825,-686.5 1825,-705.5 1947,-705.5 1947,-686.5 1825,-686.5"/>
<text text-anchor="middle" x="1886" y="-693.5" font-family="Helvetica,sans-Serif" font-size="10.00">MoFEM::BasicMethod</text>
</a>
</g>
</g>
<!-- Node12&#45;&gt;Node11 -->
<g id="edge11" class="edge">
<title>Node12&#45;&gt;Node11</title>
<path fill="none" stroke="midnightblue" d="M1910.76,-710.76C1956.11,-738.26 2058.9,-797.41 2153,-829 2168.71,-834.27 2186.3,-838.21 2202.39,-841.09"/>
<polygon fill="midnightblue" stroke="midnightblue" points="1912.59,-707.77 1902.23,-705.54 1908.94,-713.74 1912.59,-707.77"/>
</g>
<!-- Node13 -->
<g id="node13" class="node">
<title>Node13</title>
<g id="a_node13"><a xlink:href="structMoFEM_1_1KspMethod.html" target="_top" xlink:title="data structure for ksp (linear solver) context">
<polygon fill="white" stroke="black" points="1442,-686.5 1442,-705.5 1555,-705.5 1555,-686.5 1442,-686.5"/>
<text text-anchor="middle" x="1498.5" y="-693.5" font-family="Helvetica,sans-Serif" font-size="10.00">MoFEM::KspMethod</text>
</a>
</g>
</g>
<!-- Node13&#45;&gt;Node12 -->
<g id="edge12" class="edge">
<title>Node13&#45;&gt;Node12</title>
<path fill="none" stroke="midnightblue" d="M1565.57,-696C1638.41,-696 1754.58,-696 1824.93,-696"/>
<polygon fill="midnightblue" stroke="midnightblue" points="1565.14,-692.5 1555.14,-696 1565.14,-699.5 1565.14,-692.5"/>
</g>
<!-- Node14 -->
<g id="node14" class="node">
<title>Node14</title>
<g id="a_node14"><a xlink:href="structMoFEM_1_1PetscData.html" target="_top" xlink:title=" ">
<polygon fill="white" stroke="black" points="1087.5,-254.5 1087.5,-273.5 1195.5,-273.5 1195.5,-254.5 1087.5,-254.5"/>
<text text-anchor="middle" x="1141.5" y="-261.5" font-family="Helvetica,sans-Serif" font-size="10.00">MoFEM::PetscData</text>
</a>
</g>
</g>
<!-- Node14&#45;&gt;Node13 -->
<g id="edge13" class="edge">
<title>Node14&#45;&gt;Node13</title>
<path fill="none" stroke="midnightblue" d="M1205.36,-267.19C1219.5,-270.85 1233.2,-277.21 1243,-288 1282.2,-331.19 1224.26,-372.69 1261,-418 1301.46,-467.91 1357.85,-416.06 1397,-467 1425.54,-504.14 1384.29,-641.63 1415,-677 1421.94,-684.99 1431.5,-689.99 1441.66,-693.05"/>
<polygon fill="midnightblue" stroke="midnightblue" points="1206.06,-263.76 1195.55,-265.08 1204.58,-270.61 1206.06,-263.76"/>
</g>
<!-- Node24 -->
<g id="node24" class="node">
<title>Node24</title>
<g id="a_node24"><a xlink:href="structMoFEM_1_1SnesMethod.html" target="_top" xlink:title="data structure for snes (nonlinear solver) context">
<polygon fill="white" stroke="black" points="1439,-447.5 1439,-466.5 1558,-466.5 1558,-447.5 1439,-447.5"/>
<text text-anchor="middle" x="1498.5" y="-454.5" font-family="Helvetica,sans-Serif" font-size="10.00">MoFEM::SnesMethod</text>
</a>
</g>
</g>
<!-- Node14&#45;&gt;Node24 -->
<g id="edge26" class="edge">
<title>Node14&#45;&gt;Node24</title>
<path fill="none" stroke="darkgreen" d="M1205.59,-276.01C1218.2,-279.25 1231.19,-283.23 1243,-288 1347.25,-330.13 1453.37,-418.38 1486.77,-447.47"/>
<polygon fill="darkgreen" stroke="darkgreen" points="1206.13,-272.54 1195.59,-273.56 1204.47,-279.34 1206.13,-272.54"/>
</g>
<!-- Node27 -->
<g id="node27" class="node">
<title>Node27</title>
<g id="a_node27"><a xlink:href="structMoFEM_1_1TSMethod.html" target="_top" xlink:title="data structure for TS (time stepping) context">
<polygon fill="white" stroke="black" points="1445,-184.5 1445,-203.5 1552,-203.5 1552,-184.5 1445,-184.5"/>
<text text-anchor="middle" x="1498.5" y="-191.5" font-family="Helvetica,sans-Serif" font-size="10.00">MoFEM::TSMethod</text>
</a>
</g>
</g>
<!-- Node14&#45;&gt;Node27 -->
<g id="edge32" class="edge">
<title>Node14&#45;&gt;Node27</title>
<path fill="none" stroke="darkgreen" d="M1206.09,-270.95C1258.47,-274.57 1334.1,-274.92 1397,-256 1432.93,-245.2 1468.85,-218.16 1486.41,-203.61"/>
<polygon fill="darkgreen" stroke="darkgreen" points="1206.16,-267.44 1195.93,-270.18 1205.64,-274.42 1206.16,-267.44"/>
</g>
<!-- Node15 -->
<g id="node15" class="node">
<title>Node15</title>
<g id="a_node15"><a xlink:href="structMoFEM_1_1UnknownInterface.html" target="_top" xlink:title="base class for all interface classes">
<polygon fill="white" stroke="black" points="735,-23.5 735,-42.5 883,-42.5 883,-23.5 735,-23.5"/>
<text text-anchor="middle" x="809" y="-30.5" font-family="Helvetica,sans-Serif" font-size="10.00">MoFEM::UnknownInterface</text>
</a>
</g>
</g>
<!-- Node15&#45;&gt;Node14 -->
<g id="edge14" class="edge">
<title>Node15&#45;&gt;Node14</title>
<path fill="none" stroke="midnightblue" d="M845.68,-46.33C893.28,-65.97 976.82,-107.3 1022,-170 1040.78,-196.06 1017.09,-217.48 1040,-240 1052.6,-252.39 1070.38,-258.79 1087.5,-261.99"/>
<polygon fill="midnightblue" stroke="midnightblue" points="846.96,-43.07 836.37,-42.57 844.34,-49.56 846.96,-43.07"/>
</g>
<!-- Node55 -->
<g id="node55" class="node">
<title>Node55</title>
<g id="a_node55"><a xlink:href="structMoFEM_1_1CoreInterface.html" target="_top" xlink:title="Interface.">
<polygon fill="white" stroke="black" points="1079,-0.5 1079,-19.5 1204,-19.5 1204,-0.5 1079,-0.5"/>
<text text-anchor="middle" x="1141.5" y="-7.5" font-family="Helvetica,sans-Serif" font-size="10.00">MoFEM::CoreInterface</text>
</a>
</g>
</g>
<!-- Node15&#45;&gt;Node55 -->
<g id="edge66" class="edge">
<title>Node15&#45;&gt;Node55</title>
<path fill="none" stroke="midnightblue" d="M893.68,-22.66C896.15,-22.43 898.59,-22.21 901,-22 961.35,-16.85 1030.47,-13.67 1078.89,-11.9"/>
<polygon fill="midnightblue" stroke="midnightblue" points="893.07,-19.2 883.46,-23.67 893.76,-26.17 893.07,-19.2"/>
</g>
<!-- Node16 -->
<g id="node16" class="node">
<title>Node16</title>
<g id="a_node16"><a xlink:title=" ">
<polygon fill="white" stroke="#bfbfbf" points="386,-594.5 386,-657.5 627,-657.5 627,-594.5 386,-594.5"/>
<text text-anchor="start" x="394" y="-645.5" font-family="Helvetica,sans-Serif" font-size="10.00">multi_index_container</text>
<text text-anchor="start" x="394" y="-634.5" font-family="Helvetica,sans-Serif" font-size="10.00">&lt; UIdTypeMap, indexed</text>
<text text-anchor="start" x="394" y="-623.5" font-family="Helvetica,sans-Serif" font-size="10.00">_by&lt; hashed_unique&lt; member</text>
<text text-anchor="start" x="394" y="-612.5" font-family="Helvetica,sans-Serif" font-size="10.00">&lt; UIdTypeMap, boost::typeindex</text>
<text text-anchor="middle" x="506.5" y="-601.5" font-family="Helvetica,sans-Serif" font-size="10.00">::type_index, &amp;UIdTypeMap::classIdx &gt; &gt; &gt; &gt;</text>
</a>
</g>
</g>
<!-- Node16&#45;&gt;Node15 -->
<g id="edge15" class="edge">
<title>Node16&#45;&gt;Node15</title>
<path fill="none" stroke="#9a32cd" stroke-dasharray="5,2" d="M528.24,-585.06C590.12,-462.97 771.06,-105.9 803.12,-42.64"/>
<polygon fill="#9a32cd" stroke="#9a32cd" points="525.05,-583.62 523.66,-594.12 531.3,-586.78 525.05,-583.62"/>
<text text-anchor="middle" x="681" y="-351" font-family="Helvetica,sans-Serif" font-size="10.00"> iFaceTypeMap</text>
</g>
<!-- Node17 -->
<g id="node17" class="node">
<title>Node17</title>
<g id="a_node17"><a xlink:title=" ">
<polygon fill="white" stroke="#bfbfbf" points="0,-749.5 0,-768.5 125,-768.5 125,-749.5 0,-749.5"/>
<text text-anchor="middle" x="62.5" y="-756.5" font-family="Helvetica,sans-Serif" font-size="10.00">multi_index_container</text>
</a>
</g>
</g>
<!-- Node17&#45;&gt;Node12 -->
<g id="edge39" class="edge">
<title>Node17&#45;&gt;Node12</title>
<path fill="none" stroke="#9a32cd" stroke-dasharray="5,2" d="M90.6,-773.25C158.47,-807.57 342.05,-892 505.5,-892 505.5,-892 505.5,-892 962.5,-892 1155.62,-892 1207.44,-923.91 1397,-887 1590.34,-849.36 1805.69,-738.78 1867.54,-705.55"/>
<polygon fill="#9a32cd" stroke="#9a32cd" points="91.94,-770 81.44,-768.57 88.75,-776.23 91.94,-770"/>
<text text-anchor="middle" x="961.5" y="-972" font-family="Helvetica,sans-Serif" font-size="10.00"> adjacenciesPtr</text>
<text text-anchor="middle" x="961.5" y="-961" font-family="Helvetica,sans-Serif" font-size="10.00">refinedEntitiesPtr</text>
<text text-anchor="middle" x="961.5" y="-950" font-family="Helvetica,sans-Serif" font-size="10.00">finiteElementsEntitiesPtr</text>
<text text-anchor="middle" x="961.5" y="-939" font-family="Helvetica,sans-Serif" font-size="10.00">dofsPtr</text>
<text text-anchor="middle" x="961.5" y="-928" font-family="Helvetica,sans-Serif" font-size="10.00">entitiesPtr</text>
<text text-anchor="middle" x="961.5" y="-917" font-family="Helvetica,sans-Serif" font-size="10.00">finiteElementsPtr</text>
<text text-anchor="middle" x="961.5" y="-906" font-family="Helvetica,sans-Serif" font-size="10.00">refinedFiniteElementsPtr</text>
<text text-anchor="middle" x="961.5" y="-895" font-family="Helvetica,sans-Serif" font-size="10.00">fieldsPtr</text>
</g>
<!-- Node17&#45;&gt;Node16 -->
<g id="edge16" class="edge">
<title>Node17&#45;&gt;Node16</title>
<path fill="none" stroke="orange" stroke-dasharray="5,2" d="M105.07,-746.49C172.09,-726.32 306.08,-686.01 400.56,-657.58"/>
<polygon fill="orange" stroke="orange" points="103.85,-743.2 95.29,-749.43 105.87,-749.91 103.85,-743.2"/>
<text text-anchor="start" x="143" y="-769" font-family="Helvetica,sans-Serif" font-size="10.00"> &lt; UIdTypeMap, indexed</text>
<text text-anchor="start" x="143" y="-758" font-family="Helvetica,sans-Serif" font-size="10.00">_by&lt; hashed_unique&lt; member</text>
<text text-anchor="start" x="143" y="-747" font-family="Helvetica,sans-Serif" font-size="10.00">&lt; UIdTypeMap, boost::typeindex</text>
<text text-anchor="middle" x="255.5" y="-736" font-family="Helvetica,sans-Serif" font-size="10.00">::type_index, &amp;UIdTypeMap::classIdx &gt; &gt; &gt; &gt;</text>
</g>
<!-- Node18 -->
<g id="node18" class="node">
<title>Node18</title>
<g id="a_node18"><a xlink:title=" ">
<polygon fill="white" stroke="#bfbfbf" points="738.5,-189.5 738.5,-208.5 879.5,-208.5 879.5,-189.5 738.5,-189.5"/>
<text text-anchor="middle" x="809" y="-196.5" font-family="Helvetica,sans-Serif" font-size="10.00">static constexpr Switches</text>
</a>
</g>
</g>
<!-- Node18&#45;&gt;Node14 -->
<g id="edge17" class="edge">
<title>Node18&#45;&gt;Node14</title>
<path fill="none" stroke="#9a32cd" stroke-dasharray="5,2" d="M847.26,-186.64C892.65,-174.05 969.72,-160.9 1022,-196 1039.54,-207.78 1023.96,-226.25 1040,-240 1053.15,-251.26 1070.66,-257.45 1087.38,-260.78"/>
<polygon fill="#9a32cd" stroke="#9a32cd" points="846.16,-183.31 837.53,-189.46 848.11,-190.04 846.16,-183.31"/>
<text text-anchor="middle" x="961.5" y="-276" font-family="Helvetica,sans-Serif" font-size="10.00"> CtxSetX_TT</text>
<text text-anchor="middle" x="961.5" y="-265" font-family="Helvetica,sans-Serif" font-size="10.00">CtxSetX_T</text>
<text text-anchor="middle" x="961.5" y="-254" font-family="Helvetica,sans-Serif" font-size="10.00">CtxSetA</text>
<text text-anchor="middle" x="961.5" y="-243" font-family="Helvetica,sans-Serif" font-size="10.00">CtxSetB</text>
<text text-anchor="middle" x="961.5" y="-232" font-family="Helvetica,sans-Serif" font-size="10.00">CtxSetTime</text>
<text text-anchor="middle" x="961.5" y="-221" font-family="Helvetica,sans-Serif" font-size="10.00">CtxSetNone</text>
<text text-anchor="middle" x="961.5" y="-210" font-family="Helvetica,sans-Serif" font-size="10.00">CtxSetF</text>
<text text-anchor="middle" x="961.5" y="-199" font-family="Helvetica,sans-Serif" font-size="10.00">CtxSetX</text>
</g>
<!-- Node19 -->
<g id="node19" class="node">
<title>Node19</title>
<g id="a_node19"><a xlink:title=" ">
<polygon fill="white" stroke="#bfbfbf" points="791.5,-388.5 791.5,-407.5 826.5,-407.5 826.5,-388.5 791.5,-388.5"/>
<text text-anchor="middle" x="809" y="-395.5" font-family="Helvetica,sans-Serif" font-size="10.00">Mat</text>
</a>
</g>
</g>
<!-- Node19&#45;&gt;Node13 -->
<g id="edge23" class="edge">
<title>Node19&#45;&gt;Node13</title>
<path fill="none" stroke="#9a32cd" stroke-dasharray="5,2" d="M819.13,-416.78C832.85,-442.64 861.46,-488.25 901,-508 969.07,-541.99 1170.05,-502.4 1243,-524 1319.01,-546.5 1348.39,-551.38 1397,-614 1414.86,-637 1393.88,-656.95 1415,-677 1422.46,-684.08 1432.01,-688.71 1441.95,-691.7"/>
<polygon fill="#9a32cd" stroke="#9a32cd" points="822.12,-414.95 814.46,-407.63 815.89,-418.13 822.12,-414.95"/>
<text text-anchor="middle" x="1141.5" y="-538" font-family="Helvetica,sans-Serif" font-size="10.00"> ksp_A</text>
<text text-anchor="middle" x="1141.5" y="-527" font-family="Helvetica,sans-Serif" font-size="10.00">ksp_B</text>
</g>
<!-- Node19&#45;&gt;Node14 -->
<g id="edge18" class="edge">
<title>Node19&#45;&gt;Node14</title>
<path fill="none" stroke="#9a32cd" stroke-dasharray="5,2" d="M836.78,-393.75C880.02,-385.72 966.04,-364.71 1022,-318 1033.94,-308.04 1027.46,-297.19 1040,-288 1053.67,-277.98 1070.95,-272.09 1087.3,-268.64"/>
<polygon fill="#9a32cd" stroke="#9a32cd" points="835.98,-390.34 826.75,-395.53 837.2,-397.23 835.98,-390.34"/>
<text text-anchor="middle" x="961.5" y="-392" font-family="Helvetica,sans-Serif" font-size="10.00"> A</text>
<text text-anchor="middle" x="961.5" y="-381" font-family="Helvetica,sans-Serif" font-size="10.00">B</text>
</g>
<!-- Node19&#45;&gt;Node24 -->
<g id="edge28" class="edge">
<title>Node19&#45;&gt;Node24</title>
<path fill="none" stroke="#9a32cd" stroke-dasharray="5,2" d="M836.91,-400.31C938.02,-408.99 1296.59,-439.76 1438.78,-451.96"/>
<polygon fill="#9a32cd" stroke="#9a32cd" points="836.92,-396.8 826.65,-399.43 836.32,-403.77 836.92,-396.8"/>
<text text-anchor="middle" x="1141.5" y="-448" font-family="Helvetica,sans-Serif" font-size="10.00"> snes_A</text>
<text text-anchor="middle" x="1141.5" y="-437" font-family="Helvetica,sans-Serif" font-size="10.00">snes_B</text>
</g>
<!-- Node19&#45;&gt;Node27 -->
<g id="edge33" class="edge">
<title>Node19&#45;&gt;Node27</title>
<path fill="none" stroke="#9a32cd" stroke-dasharray="5,2" d="M833.58,-382.59C850.37,-370.24 871.85,-351.32 883,-329 914.77,-265.37 865.63,-231.7 901,-170 939.38,-103.07 966.79,-90.36 1040,-66 1191.4,-15.63 1255.92,-29.45 1397,-104 1397.66,-104.35 1461.09,-161.29 1486.83,-184.41"/>
<polygon fill="#9a32cd" stroke="#9a32cd" points="831.46,-379.81 825.31,-388.44 835.49,-385.53 831.46,-379.81"/>
<text text-anchor="middle" x="1141.5" y="-80" font-family="Helvetica,sans-Serif" font-size="10.00"> ts_A</text>
<text text-anchor="middle" x="1141.5" y="-69" font-family="Helvetica,sans-Serif" font-size="10.00">ts_B</text>
</g>
<!-- Node20 -->
<g id="node20" class="node">
<title>Node20</title>
<g id="a_node20"><a xlink:title=" ">
<polygon fill="white" stroke="#bfbfbf" points="772.5,-300.5 772.5,-319.5 845.5,-319.5 845.5,-300.5 772.5,-300.5"/>
<text text-anchor="middle" x="809" y="-307.5" font-family="Helvetica,sans-Serif" font-size="10.00">bitset&lt; 8 &gt;</text>
</a>
</g>
</g>
<!-- Node20&#45;&gt;Node14 -->
<g id="edge19" class="edge">
<title>Node20&#45;&gt;Node14</title>
<path fill="none" stroke="#9a32cd" stroke-dasharray="5,2" d="M855.93,-306.52C898.98,-302.95 965.06,-296.7 1022,-288 1047.52,-284.1 1075.87,-278.41 1098.45,-273.55"/>
<polygon fill="#9a32cd" stroke="#9a32cd" points="855.45,-303.05 845.77,-307.35 856.02,-310.02 855.45,-303.05"/>
<text text-anchor="middle" x="961.5" y="-306" font-family="Helvetica,sans-Serif" font-size="10.00"> data_ctx</text>
</g>
<!-- Node21 -->
<g id="node21" class="node">
<title>Node21</title>
<g id="a_node21"><a xlink:title=" ">
<polygon fill="white" stroke="#bfbfbf" points="792,-554.5 792,-573.5 826,-573.5 826,-554.5 792,-554.5"/>
<text text-anchor="middle" x="809" y="-561.5" font-family="Helvetica,sans-Serif" font-size="10.00">Vec</text>
</a>
</g>
</g>
<!-- Node21&#45;&gt;Node13 -->
<g id="edge24" class="edge">
<title>Node21&#45;&gt;Node13</title>
<path fill="none" stroke="#9a32cd" stroke-dasharray="5,2" d="M835.41,-576.16C877.08,-595.52 963.03,-632.99 1040,-651 1182.21,-684.27 1354.89,-692.97 1441.8,-695.23"/>
<polygon fill="#9a32cd" stroke="#9a32cd" points="836.81,-572.95 826.27,-571.88 833.84,-579.29 836.81,-572.95"/>
<text text-anchor="middle" x="1141.5" y="-685" font-family="Helvetica,sans-Serif" font-size="10.00"> ksp_f</text>
</g>
<!-- Node21&#45;&gt;Node14 -->
<g id="edge20" class="edge">
<title>Node21&#45;&gt;Node14</title>
<path fill="none" stroke="#9a32cd" stroke-dasharray="5,2" d="M829.04,-547.59C847.21,-532.09 875.53,-508.4 901,-489 953.29,-449.18 987.3,-459.82 1022,-404 1049.54,-359.69 1004.62,-326.35 1040,-288 1052.1,-274.88 1069.98,-268.34 1087.31,-265.23"/>
<polygon fill="#9a32cd" stroke="#9a32cd" points="826.3,-545.32 820.98,-554.48 830.86,-550.64 826.3,-545.32"/>
<text text-anchor="middle" x="961.5" y="-525" font-family="Helvetica,sans-Serif" font-size="10.00"> f</text>
<text text-anchor="middle" x="961.5" y="-514" font-family="Helvetica,sans-Serif" font-size="10.00">x</text>
<text text-anchor="middle" x="961.5" y="-503" font-family="Helvetica,sans-Serif" font-size="10.00">x_t</text>
<text text-anchor="middle" x="961.5" y="-492" font-family="Helvetica,sans-Serif" font-size="10.00">x_tt</text>
</g>
<!-- Node21&#45;&gt;Node24 -->
<g id="edge29" class="edge">
<title>Node21&#45;&gt;Node24</title>
<path fill="none" stroke="#9a32cd" stroke-dasharray="5,2" d="M836.23,-563.93C876.29,-563.75 955.1,-563.14 1022,-561 1120.29,-557.86 1146.62,-569.54 1243,-550 1333.82,-531.59 1435.57,-486.44 1477.65,-466.61"/>
<polygon fill="#9a32cd" stroke="#9a32cd" points="836.21,-560.43 826.23,-563.97 836.24,-567.43 836.21,-560.43"/>
<text text-anchor="middle" x="1141.5" y="-575" font-family="Helvetica,sans-Serif" font-size="10.00"> snes_x</text>
<text text-anchor="middle" x="1141.5" y="-564" font-family="Helvetica,sans-Serif" font-size="10.00">snes_f</text>
</g>
<!-- Node21&#45;&gt;Node27 -->
<g id="edge37" class="edge">
<title>Node21&#45;&gt;Node27</title>
<path fill="none" stroke="#9a32cd" stroke-dasharray="5,2" d="M836.26,-561.97C890.19,-557.55 1009.42,-546.37 1022,-533 1054.7,-498.24 1006.72,-353.21 1040,-319 1095.66,-261.78 1323.69,-310.59 1397,-279 1437.5,-261.55 1474.06,-222.1 1489.6,-203.74"/>
<polygon fill="#9a32cd" stroke="#9a32cd" points="835.79,-558.5 826.1,-562.79 836.35,-565.48 835.79,-558.5"/>
<text text-anchor="middle" x="1141.5" y="-355" font-family="Helvetica,sans-Serif" font-size="10.00"> ts_u</text>
<text text-anchor="middle" x="1141.5" y="-344" font-family="Helvetica,sans-Serif" font-size="10.00">ts_F</text>
<text text-anchor="middle" x="1141.5" y="-333" font-family="Helvetica,sans-Serif" font-size="10.00">ts_u_t</text>
<text text-anchor="middle" x="1141.5" y="-322" font-family="Helvetica,sans-Serif" font-size="10.00">ts_u_tt</text>
</g>
<!-- Node22 -->
<g id="node22" class="node">
<title>Node22</title>
<g id="a_node22"><a xlink:title=" ">
<polygon fill="white" stroke="#bfbfbf" points="1124,-622.5 1124,-641.5 1159,-641.5 1159,-622.5 1124,-622.5"/>
<text text-anchor="middle" x="1141.5" y="-629.5" font-family="Helvetica,sans-Serif" font-size="10.00">KSP</text>
</a>
</g>
</g>
<!-- Node22&#45;&gt;Node13 -->
<g id="edge21" class="edge">
<title>Node22&#45;&gt;Node13</title>
<path fill="none" stroke="#9a32cd" stroke-dasharray="5,2" d="M1169.17,-628.49C1226.76,-621.47 1360.52,-608.4 1397,-633 1414.52,-644.81 1398.9,-663.32 1415,-677 1422.62,-683.47 1432.01,-687.85 1441.69,-690.78"/>
<polygon fill="#9a32cd" stroke="#9a32cd" points="1168.52,-625.04 1159.03,-629.76 1169.39,-631.99 1168.52,-625.04"/>
<text text-anchor="middle" x="1329" y="-636" font-family="Helvetica,sans-Serif" font-size="10.00"> ksp</text>
</g>
<!-- Node23 -->
<g id="node23" class="node">
<title>Node23</title>
<g id="a_node23"><a xlink:title=" ">
<polygon fill="white" stroke="#bfbfbf" points="1104.5,-745.5 1104.5,-764.5 1178.5,-764.5 1178.5,-745.5 1104.5,-745.5"/>
<text text-anchor="middle" x="1141.5" y="-752.5" font-family="Helvetica,sans-Serif" font-size="10.00">KSPContext</text>
</a>
</g>
</g>
<!-- Node23&#45;&gt;Node13 -->
<g id="edge22" class="edge">
<title>Node23&#45;&gt;Node13</title>
<path fill="none" stroke="#9a32cd" stroke-dasharray="5,2" d="M1188.9,-752.31C1206.66,-749.76 1226.58,-744.96 1243,-736 1253.21,-730.43 1250.53,-722.06 1261,-717 1291.8,-702.1 1382.1,-697.7 1441.78,-696.44"/>
<polygon fill="#9a32cd" stroke="#9a32cd" points="1188.23,-748.87 1178.73,-753.57 1189.09,-755.82 1188.23,-748.87"/>
<text text-anchor="middle" x="1329" y="-720" font-family="Helvetica,sans-Serif" font-size="10.00"> ksp_ctx</text>
</g>
<!-- Node24&#45;&gt;Node12 -->
<g id="edge25" class="edge">
<title>Node24&#45;&gt;Node12</title>
<path fill="none" stroke="midnightblue" d="M1552.96,-469.03C1612.8,-484.41 1710.59,-515.4 1781,-567 1828.34,-601.69 1866.27,-663.01 1879.73,-686.49"/>
<polygon fill="midnightblue" stroke="midnightblue" points="1553.52,-465.57 1542.97,-466.52 1551.81,-472.35 1553.52,-465.57"/>
</g>
<!-- Node25 -->
<g id="node25" class="node">
<title>Node25</title>
<g id="a_node25"><a xlink:title=" ">
<polygon fill="white" stroke="#bfbfbf" points="1120.5,-372.5 1120.5,-391.5 1162.5,-391.5 1162.5,-372.5 1120.5,-372.5"/>
<text text-anchor="middle" x="1141.5" y="-379.5" font-family="Helvetica,sans-Serif" font-size="10.00">SNES</text>
</a>
</g>
</g>
<!-- Node25&#45;&gt;Node24 -->
<g id="edge27" class="edge">
<title>Node25&#45;&gt;Node24</title>
<path fill="none" stroke="#9a32cd" stroke-dasharray="5,2" d="M1172.95,-380.56C1221.44,-379.13 1318.74,-379.84 1397,-403 1430.43,-412.89 1465.39,-434.71 1483.98,-447.37"/>
<polygon fill="#9a32cd" stroke="#9a32cd" points="1172.68,-377.07 1162.81,-380.91 1172.92,-384.06 1172.68,-377.07"/>
<text text-anchor="middle" x="1329" y="-406" font-family="Helvetica,sans-Serif" font-size="10.00"> snes</text>
</g>
<!-- Node26 -->
<g id="node26" class="node">
<title>Node26</title>
<g id="a_node26"><a xlink:title=" ">
<polygon fill="white" stroke="#bfbfbf" points="1101.5,-468.5 1101.5,-487.5 1181.5,-487.5 1181.5,-468.5 1101.5,-468.5"/>
<text text-anchor="middle" x="1141.5" y="-475.5" font-family="Helvetica,sans-Serif" font-size="10.00">SNESContext</text>
</a>
</g>
</g>
<!-- Node26&#45;&gt;Node24 -->
<g id="edge30" class="edge">
<title>Node26&#45;&gt;Node24</title>
<path fill="none" stroke="#9a32cd" stroke-dasharray="5,2" d="M1191.84,-475.08C1256.48,-471.26 1369.71,-464.56 1438.73,-460.48"/>
<polygon fill="#9a32cd" stroke="#9a32cd" points="1191.28,-471.61 1181.51,-475.69 1191.7,-478.6 1191.28,-471.61"/>
<text text-anchor="middle" x="1329" y="-473" font-family="Helvetica,sans-Serif" font-size="10.00"> snes_ctx</text>
</g>
<!-- Node27&#45;&gt;Node12 -->
<g id="edge31" class="edge">
<title>Node27&#45;&gt;Node12</title>
<path fill="none" stroke="midnightblue" d="M1517.36,-210.66C1572.43,-262.23 1738.39,-419.43 1781,-480 1832.25,-552.85 1870.49,-654.84 1881.66,-686.35"/>
<polygon fill="midnightblue" stroke="midnightblue" points="1519.49,-207.85 1509.79,-203.58 1514.71,-212.97 1519.49,-207.85"/>
</g>
<!-- Node28 -->
<g id="node28" class="node">
<title>Node28</title>
<g id="a_node28"><a xlink:title=" ">
<polygon fill="white" stroke="#bfbfbf" points="1109,-211.5 1109,-230.5 1174,-230.5 1174,-211.5 1109,-211.5"/>
<text text-anchor="middle" x="1141.5" y="-218.5" font-family="Helvetica,sans-Serif" font-size="10.00">PetscReal</text>
</a>
</g>
</g>
<!-- Node28&#45;&gt;Node27 -->
<g id="edge34" class="edge">
<title>Node28&#45;&gt;Node27</title>
<path fill="none" stroke="#9a32cd" stroke-dasharray="5,2" d="M1184.25,-217.82C1249.06,-212.9 1373.78,-203.41 1444.73,-198.01"/>
<polygon fill="#9a32cd" stroke="#9a32cd" points="1183.71,-214.36 1174,-218.6 1184.24,-221.34 1183.71,-214.36"/>
<text text-anchor="middle" x="1329" y="-248" font-family="Helvetica,sans-Serif" font-size="10.00"> ts_a</text>
<text text-anchor="middle" x="1329" y="-237" font-family="Helvetica,sans-Serif" font-size="10.00">ts_t</text>
<text text-anchor="middle" x="1329" y="-226" font-family="Helvetica,sans-Serif" font-size="10.00">ts_dt</text>
<text text-anchor="middle" x="1329" y="-215" font-family="Helvetica,sans-Serif" font-size="10.00">ts_aa</text>
</g>
<!-- Node29 -->
<g id="node29" class="node">
<title>Node29</title>
<g id="a_node29"><a xlink:title=" ">
<polygon fill="white" stroke="#bfbfbf" points="1108,-173.5 1108,-192.5 1175,-192.5 1175,-173.5 1108,-173.5"/>
<text text-anchor="middle" x="1141.5" y="-180.5" font-family="Helvetica,sans-Serif" font-size="10.00">TSContext</text>
</a>
</g>
</g>
<!-- Node29&#45;&gt;Node27 -->
<g id="edge35" class="edge">
<title>Node29&#45;&gt;Node27</title>
<path fill="none" stroke="#9a32cd" stroke-dasharray="5,2" d="M1185.34,-179.59C1235.98,-176.15 1322.76,-172.13 1397,-178 1413.56,-179.31 1431.5,-181.81 1447.59,-184.46"/>
<polygon fill="#9a32cd" stroke="#9a32cd" points="1184.83,-176.12 1175.1,-180.31 1185.32,-183.1 1184.83,-176.12"/>
<text text-anchor="middle" x="1329" y="-181" font-family="Helvetica,sans-Serif" font-size="10.00"> ts_ctx</text>
</g>
<!-- Node30 -->
<g id="node30" class="node">
<title>Node30</title>
<g id="a_node30"><a xlink:title=" ">
<polygon fill="white" stroke="#bfbfbf" points="1113.5,-135.5 1113.5,-154.5 1169.5,-154.5 1169.5,-135.5 1113.5,-135.5"/>
<text text-anchor="middle" x="1141.5" y="-142.5" font-family="Helvetica,sans-Serif" font-size="10.00">PetscInt</text>
</a>
</g>
</g>
<!-- Node30&#45;&gt;Node27 -->
<g id="edge36" class="edge">
<title>Node30&#45;&gt;Node27</title>
<path fill="none" stroke="#9a32cd" stroke-dasharray="5,2" d="M1179.84,-144.4C1229.77,-144.26 1320.86,-146.35 1397,-161 1424.05,-166.2 1453.91,-176.64 1473.99,-184.39"/>
<polygon fill="#9a32cd" stroke="#9a32cd" points="1179.51,-140.9 1169.53,-144.46 1179.55,-147.9 1179.51,-140.9"/>
<text text-anchor="middle" x="1329" y="-164" font-family="Helvetica,sans-Serif" font-size="10.00"> ts_step</text>
</g>
<!-- Node31 -->
<g id="node31" class="node">
<title>Node31</title>
<g id="a_node31"><a xlink:title=" ">
<polygon fill="white" stroke="#bfbfbf" points="1127,-97.5 1127,-116.5 1156,-116.5 1156,-97.5 1127,-97.5"/>
<text text-anchor="middle" x="1141.5" y="-104.5" font-family="Helvetica,sans-Serif" font-size="10.00">TS</text>
</a>
</g>
</g>
<!-- Node31&#45;&gt;Node27 -->
<g id="edge38" class="edge">
<title>Node31&#45;&gt;Node27</title>
<path fill="none" stroke="#9a32cd" stroke-dasharray="5,2" d="M1166.34,-105.82C1212.3,-104.31 1315.78,-104.6 1397,-132 1432.35,-143.93 1468.24,-170.23 1486.02,-184.44"/>
<polygon fill="#9a32cd" stroke="#9a32cd" points="1166.05,-102.33 1156.19,-106.22 1166.32,-109.33 1166.05,-102.33"/>
<text text-anchor="middle" x="1329" y="-135" font-family="Helvetica,sans-Serif" font-size="10.00"> ts</text>
</g>
<!-- Node32 -->
<g id="node32" class="node">
<title>Node32</title>
<g id="a_node32"><a xlink:title=" ">
<polygon fill="white" stroke="#bfbfbf" points="1454,-648.5 1454,-667.5 1543,-667.5 1543,-648.5 1454,-648.5"/>
<text text-anchor="middle" x="1498.5" y="-655.5" font-family="Helvetica,sans-Serif" font-size="10.00">pair&lt; int, int &gt;</text>
</a>
</g>
</g>
<!-- Node32&#45;&gt;Node12 -->
<g id="edge40" class="edge">
<title>Node32&#45;&gt;Node12</title>
<path fill="none" stroke="#9a32cd" stroke-dasharray="5,2" d="M1553.64,-661.43C1610.39,-665.25 1702.1,-672.1 1781,-681 1795.23,-682.61 1810.51,-684.64 1824.86,-686.68"/>
<polygon fill="#9a32cd" stroke="#9a32cd" points="1553.68,-657.92 1543.46,-660.75 1553.21,-664.91 1553.68,-657.92"/>
<text text-anchor="middle" x="1690.5" y="-684" font-family="Helvetica,sans-Serif" font-size="10.00"> loHiFERank</text>
</g>
<!-- Node33 -->
<g id="node33" class="node">
<title>Node33</title>
<g id="a_node33"><a xlink:title=" ">
<polygon fill="white" stroke="#bfbfbf" points="1428.5,-610.5 1428.5,-629.5 1568.5,-629.5 1568.5,-610.5 1428.5,-610.5"/>
<text text-anchor="middle" x="1498.5" y="-617.5" font-family="Helvetica,sans-Serif" font-size="10.00">weak_ptr&lt; CacheTuple &gt;</text>
</a>
</g>
</g>
<!-- Node33&#45;&gt;Node12 -->
<g id="edge41" class="edge">
<title>Node33&#45;&gt;Node12</title>
<path fill="none" stroke="#9a32cd" stroke-dasharray="5,2" d="M1578.64,-621.38C1635.74,-624.01 1714.22,-630.98 1781,-649 1813.33,-657.72 1848.3,-675.41 1868.33,-686.43"/>
<polygon fill="#9a32cd" stroke="#9a32cd" points="1578.73,-617.89 1568.59,-620.96 1578.43,-624.88 1578.73,-617.89"/>
<text text-anchor="middle" x="1690.5" y="-652" font-family="Helvetica,sans-Serif" font-size="10.00"> cacheWeakPtr</text>
</g>
<!-- Node34 -->
<g id="node34" class="node">
<title>Node34</title>
<g id="a_node34"><a xlink:title=" ">
<polygon fill="white" stroke="#bfbfbf" points="1442.5,-572.5 1442.5,-591.5 1554.5,-591.5 1554.5,-572.5 1442.5,-572.5"/>
<text text-anchor="middle" x="1498.5" y="-579.5" font-family="Helvetica,sans-Serif" font-size="10.00">unique_ptr&lt; bool &gt;</text>
</a>
</g>
</g>
<!-- Node34&#45;&gt;Node12 -->
<g id="edge42" class="edge">
<title>Node34&#45;&gt;Node12</title>
<path fill="none" stroke="#9a32cd" stroke-dasharray="5,2" d="M1565,-572.67C1624,-567.12 1711.82,-566.12 1781,-596 1826.76,-615.77 1864.22,-665.23 1878.63,-686.27"/>
<polygon fill="#9a32cd" stroke="#9a32cd" points="1564.3,-569.22 1554.7,-573.71 1565,-576.18 1564.3,-569.22"/>
<text text-anchor="middle" x="1690.5" y="-610" font-family="Helvetica,sans-Serif" font-size="10.00"> matAssembleSwitch</text>
<text text-anchor="middle" x="1690.5" y="-599" font-family="Helvetica,sans-Serif" font-size="10.00">vecAssembleSwitch</text>
</g>
<!-- Node35 -->
<g id="node35" class="node">
<title>Node35</title>
<g id="a_node35"><a xlink:title=" ">
<polygon fill="white" stroke="#bfbfbf" points="1127,-791.5 1127,-810.5 1156,-810.5 1156,-791.5 1127,-791.5"/>
<text text-anchor="middle" x="1141.5" y="-798.5" font-family="Helvetica,sans-Serif" font-size="10.00">int</text>
</a>
</g>
</g>
<!-- Node35&#45;&gt;Node12 -->
<g id="edge43" class="edge">
<title>Node35&#45;&gt;Node12</title>
<path fill="none" stroke="#9a32cd" stroke-dasharray="5,2" d="M1166.12,-798.19C1187.38,-794.87 1218.89,-787.93 1243,-774 1252.8,-768.34 1250.75,-760.79 1261,-756 1313.56,-731.46 1723.35,-716.43 1781,-710 1795.21,-708.42 1810.49,-706.49 1824.84,-704.57"/>
<polygon fill="#9a32cd" stroke="#9a32cd" points="1165.45,-794.76 1156.03,-799.62 1166.42,-801.69 1165.45,-794.76"/>
<text text-anchor="middle" x="1498.5" y="-769" font-family="Helvetica,sans-Serif" font-size="10.00"> sIze</text>
<text text-anchor="middle" x="1498.5" y="-758" font-family="Helvetica,sans-Serif" font-size="10.00">loopSize</text>
<text text-anchor="middle" x="1498.5" y="-747" font-family="Helvetica,sans-Serif" font-size="10.00">nInTheLoop</text>
<text text-anchor="middle" x="1498.5" y="-736" font-family="Helvetica,sans-Serif" font-size="10.00">rAnk</text>
</g>
<!-- Node35&#45;&gt;Node37 -->
<g id="edge55" class="edge">
<title>Node35&#45;&gt;Node37</title>
<path fill="none" stroke="#9a32cd" stroke-dasharray="5,2" d="M1166.34,-798.86C1214.72,-795.79 1325.89,-795.34 1397,-847 1460.81,-893.36 1488.17,-992.88 1495.43,-1024.29"/>
<polygon fill="#9a32cd" stroke="#9a32cd" points="1165.94,-795.38 1156.22,-799.6 1166.45,-802.36 1165.94,-795.38"/>
<text text-anchor="middle" x="1329" y="-916" font-family="Helvetica,sans-Serif" font-size="10.00"> tagNameSize</text>
<text text-anchor="middle" x="1329" y="-905" font-family="Helvetica,sans-Serif" font-size="10.00">nbDofsRow</text>
<text text-anchor="middle" x="1329" y="-894" font-family="Helvetica,sans-Serif" font-size="10.00">nbLocDofsCol</text>
<text text-anchor="middle" x="1329" y="-883" font-family="Helvetica,sans-Serif" font-size="10.00">nbDofsCol</text>
<text text-anchor="middle" x="1329" y="-872" font-family="Helvetica,sans-Serif" font-size="10.00">nbGhostDofsRow</text>
<text text-anchor="middle" x="1329" y="-861" font-family="Helvetica,sans-Serif" font-size="10.00">nbGhostDofsCol</text>
<text text-anchor="middle" x="1329" y="-850" font-family="Helvetica,sans-Serif" font-size="10.00">nbLocDofsRow</text>
</g>
<!-- Node36 -->
<g id="node36" class="node">
<title>Node36</title>
<g id="a_node36"><a xlink:title=" ">
<polygon fill="white" stroke="#bfbfbf" points="1415,-1062.5 1415,-1081.5 1582,-1081.5 1582,-1062.5 1415,-1062.5"/>
<text text-anchor="middle" x="1498.5" y="-1069.5" font-family="Helvetica,sans-Serif" font-size="10.00">function&lt; MoFEMErrorCode()&gt;</text>
</a>
</g>
</g>
<!-- Node36&#45;&gt;Node12 -->
<g id="edge44" class="edge">
<title>Node36&#45;&gt;Node12</title>
<path fill="none" stroke="#9a32cd" stroke-dasharray="5,2" d="M1560.47,-1082.78C1625.16,-1090.35 1725.53,-1090.33 1781,-1031 1816.32,-993.23 1779.5,-846.89 1799,-799 1815.42,-758.65 1853.74,-722.29 1873.2,-705.62"/>
<polygon fill="#9a32cd" stroke="#9a32cd" points="1560.77,-1079.29 1550.41,-1081.51 1559.89,-1086.24 1560.77,-1079.29"/>
<text text-anchor="middle" x="1690.5" y="-1111" font-family="Helvetica,sans-Serif" font-size="10.00"> preProcessHook</text>
<text text-anchor="middle" x="1690.5" y="-1100" font-family="Helvetica,sans-Serif" font-size="10.00">operatorHook</text>
<text text-anchor="middle" x="1690.5" y="-1089" font-family="Helvetica,sans-Serif" font-size="10.00">postProcessHook</text>
</g>
<!-- Node37&#45;&gt;Node12 -->
<g id="edge45" class="edge">
<title>Node37&#45;&gt;Node12</title>
<path fill="none" stroke="#9a32cd" stroke-dasharray="5,2" d="M1558.36,-1026.15C1623.53,-1014.16 1726.56,-984.8 1781,-915 1813.09,-873.86 1777.5,-846.54 1799,-799 1816.95,-759.31 1854.57,-722.65 1873.54,-705.76"/>
<polygon fill="#9a32cd" stroke="#9a32cd" points="1557.48,-1022.75 1548.24,-1027.93 1558.69,-1029.64 1557.48,-1022.75"/>
<text text-anchor="middle" x="1690.5" y="-1019" font-family="Helvetica,sans-Serif" font-size="10.00"> problemPtr</text>
</g>
<!-- Node38 -->
<g id="node38" class="node">
<title>Node38</title>
<g id="a_node38"><a xlink:title=" ">
<polygon fill="white" stroke="#bfbfbf" points="1058,-1261 1058,-1291 1225,-1291 1225,-1261 1058,-1261"/>
<text text-anchor="start" x="1066" y="-1279" font-family="Helvetica,sans-Serif" font-size="10.00">shared_ptr&lt; NumeredEntFinite</text>
<text text-anchor="middle" x="1141.5" y="-1268" font-family="Helvetica,sans-Serif" font-size="10.00">Element_multiIndex &gt;</text>
</a>
</g>
</g>
<!-- Node38&#45;&gt;Node37 -->
<g id="edge46" class="edge">
<title>Node38&#45;&gt;Node37</title>
<path fill="none" stroke="#9a32cd" stroke-dasharray="5,2" d="M1235.47,-1265.94C1305.79,-1257.89 1391.24,-1247 1397,-1241 1426.06,-1210.72 1387.33,-1084.55 1415,-1053 1423.62,-1043.17 1436.22,-1037.87 1448.99,-1035.15"/>
<polygon fill="#9a32cd" stroke="#9a32cd" points="1234.76,-1262.49 1225.22,-1267.1 1235.55,-1269.45 1234.76,-1262.49"/>
<text text-anchor="middle" x="1329" y="-1265" font-family="Helvetica,sans-Serif" font-size="10.00"> numeredFiniteElementsPtr</text>
</g>
<!-- Node39 -->
<g id="node39" class="node">
<title>Node39</title>
<g id="a_node39"><a xlink:title=" ">
<polygon fill="white" stroke="#bfbfbf" points="1112,-1222.5 1112,-1241.5 1171,-1241.5 1171,-1222.5 1112,-1222.5"/>
<text text-anchor="middle" x="1141.5" y="-1229.5" font-family="Helvetica,sans-Serif" font-size="10.00">BitFEId *</text>
</a>
</g>
</g>
<!-- Node39&#45;&gt;Node37 -->
<g id="edge47" class="edge">
<title>Node39&#45;&gt;Node37</title>
<path fill="none" stroke="#9a32cd" stroke-dasharray="5,2" d="M1181.69,-1230.65C1249.28,-1227.94 1381.98,-1220.79 1397,-1206 1445.78,-1157.96 1369.3,-1103.99 1415,-1053 1423.63,-1043.37 1436.08,-1038.11 1448.7,-1035.36"/>
<polygon fill="#9a32cd" stroke="#9a32cd" points="1181.29,-1227.16 1171.44,-1231.05 1181.56,-1234.16 1181.29,-1227.16"/>
<text text-anchor="middle" x="1329" y="-1229" font-family="Helvetica,sans-Serif" font-size="10.00"> tagBitFEId</text>
</g>
<!-- Node40 -->
<g id="node40" class="node">
<title>Node40</title>
<g id="a_node40"><a xlink:href="classEntityHandle.html" target="_top" xlink:title=" ">
<polygon fill="white" stroke="black" points="1101.5,-1313.5 1101.5,-1332.5 1181.5,-1332.5 1181.5,-1313.5 1101.5,-1313.5"/>
<text text-anchor="middle" x="1141.5" y="-1320.5" font-family="Helvetica,sans-Serif" font-size="10.00">EntityHandle</text>
</a>
</g>
</g>
<!-- Node40&#45;&gt;Node1 -->
<g id="edge87" class="edge">
<title>Node40&#45;&gt;Node1</title>
<path fill="none" stroke="#9a32cd" stroke-dasharray="5,2" d="M1191.71,-1323.45C1260.24,-1324.04 1388.31,-1325 1497.5,-1325 1497.5,-1325 1497.5,-1325 2923,-1325 3105.39,-1325 3166.5,-618.56 3177.2,-472.31"/>
<polygon fill="#9a32cd" stroke="#9a32cd" points="1191.67,-1319.95 1181.64,-1323.36 1191.6,-1326.95 1191.67,-1319.95"/>
<text text-anchor="middle" x="2256" y="-1328" font-family="Helvetica,sans-Serif" font-size="10.00"> zeroType</text>
</g>
<!-- Node40&#45;&gt;Node37 -->
<g id="edge48" class="edge">
<title>Node40&#45;&gt;Node37</title>
<path fill="none" stroke="#9a32cd" stroke-dasharray="5,2" d="M1191.79,-1313.16C1213.05,-1308.98 1238.23,-1304.13 1261,-1300 1291.16,-1294.52 1376.29,-1299.6 1397,-1277 1430.74,-1240.18 1382.36,-1090.8 1415,-1053 1423.55,-1043.1 1436.13,-1037.79 1448.9,-1035.07"/>
<polygon fill="#9a32cd" stroke="#9a32cd" points="1190.82,-1309.78 1181.69,-1315.15 1192.17,-1316.65 1190.82,-1309.78"/>
<text text-anchor="middle" x="1329" y="-1303" font-family="Helvetica,sans-Serif" font-size="10.00"> meshset</text>
</g>
<!-- Node41 -->
<g id="node41" class="node">
<title>Node41</title>
<g id="a_node41"><a xlink:title=" ">
<polygon fill="white" stroke="#bfbfbf" points="1067,-1173 1067,-1203 1216,-1203 1216,-1173 1067,-1173"/>
<text text-anchor="start" x="1075" y="-1191" font-family="Helvetica,sans-Serif" font-size="10.00">shared_ptr&lt; MoFEM::</text>
<text text-anchor="middle" x="1141.5" y="-1180" font-family="Helvetica,sans-Serif" font-size="10.00">ComposedProblemsData &gt;</text>
</a>
</g>
</g>
<!-- Node41&#45;&gt;Node37 -->
<g id="edge49" class="edge">
<title>Node41&#45;&gt;Node37</title>
<path fill="none" stroke="#9a32cd" stroke-dasharray="5,2" d="M1226.31,-1191.48C1290.8,-1192.26 1372.85,-1188.48 1397,-1166 1434.23,-1131.35 1380.29,-1090.17 1415,-1053 1423.83,-1043.55 1436.33,-1038.35 1448.95,-1035.59"/>
<polygon fill="#9a32cd" stroke="#9a32cd" points="1226.18,-1187.98 1216.13,-1191.32 1226.07,-1194.98 1226.18,-1187.98"/>
<text text-anchor="middle" x="1329" y="-1194" font-family="Helvetica,sans-Serif" font-size="10.00"> composedProblemsData</text>
</g>
<!-- Node42 -->
<g id="node42" class="node">
<title>Node42</title>
<g id="a_node42"><a xlink:title=" ">
<polygon fill="white" stroke="#bfbfbf" points="1101,-1134.5 1101,-1153.5 1182,-1153.5 1182,-1134.5 1101,-1134.5"/>
<text text-anchor="middle" x="1141.5" y="-1141.5" font-family="Helvetica,sans-Serif" font-size="10.00">BitRefLevel *</text>
</a>
</g>
</g>
<!-- Node42&#45;&gt;Node37 -->
<g id="edge50" class="edge">
<title>Node42&#45;&gt;Node37</title>
<path fill="none" stroke="#9a32cd" stroke-dasharray="5,2" d="M1192.15,-1144.9C1257.34,-1145.03 1367.01,-1141.31 1397,-1116 1419.25,-1097.22 1393.88,-1073.05 1415,-1053 1424.17,-1044.3 1436.49,-1039.3 1448.8,-1036.49"/>
<polygon fill="#9a32cd" stroke="#9a32cd" points="1192.11,-1141.4 1182.09,-1144.85 1192.08,-1148.4 1192.11,-1141.4"/>
<text text-anchor="middle" x="1329" y="-1157" font-family="Helvetica,sans-Serif" font-size="10.00"> tagBitRefLevelMask</text>
<text text-anchor="middle" x="1329" y="-1146" font-family="Helvetica,sans-Serif" font-size="10.00">tagBitRefLevel</text>
</g>
<!-- Node43 -->
<g id="node43" class="node">
<title>Node43</title>
<g id="a_node43"><a xlink:title=" ">
<polygon fill="white" stroke="#bfbfbf" points="1056.5,-1085 1056.5,-1115 1226.5,-1115 1226.5,-1085 1056.5,-1085"/>
<text text-anchor="start" x="1064.5" y="-1103" font-family="Helvetica,sans-Serif" font-size="10.00">shared_ptr&lt; NumeredDofEntity</text>
<text text-anchor="middle" x="1141.5" y="-1092" font-family="Helvetica,sans-Serif" font-size="10.00">_multiIndex &gt;</text>
</a>
</g>
</g>
<!-- Node43&#45;&gt;Node37 -->
<g id="edge51" class="edge">
<title>Node43&#45;&gt;Node37</title>
<path fill="none" stroke="#9a32cd" stroke-dasharray="5,2" d="M1236.75,-1094.48C1285.57,-1089.59 1345.56,-1080.37 1397,-1063 1405.67,-1060.07 1406.46,-1056.28 1415,-1053 1425.7,-1048.89 1437.54,-1045.52 1448.83,-1042.82"/>
<polygon fill="#9a32cd" stroke="#9a32cd" points="1236.13,-1091.02 1226.51,-1095.46 1236.8,-1097.99 1236.13,-1091.02"/>
<text text-anchor="middle" x="1329" y="-1104" font-family="Helvetica,sans-Serif" font-size="10.00"> numeredRowDofsPtr</text>
<text text-anchor="middle" x="1329" y="-1093" font-family="Helvetica,sans-Serif" font-size="10.00">numeredColDofsPtr</text>
</g>
<!-- Node44 -->
<g id="node44" class="node">
<title>Node44</title>
<g id="a_node44"><a xlink:title=" ">
<polygon fill="white" stroke="#bfbfbf" points="1072.5,-1046.5 1072.5,-1065.5 1210.5,-1065.5 1210.5,-1046.5 1072.5,-1046.5"/>
<text text-anchor="middle" x="1141.5" y="-1053.5" font-family="Helvetica,sans-Serif" font-size="10.00">vector&lt; BlockFieldPair &gt;</text>
</a>
</g>
</g>
<!-- Node44&#45;&gt;Node37 -->
<g id="edge53" class="edge">
<title>Node44&#45;&gt;Node37</title>
<path fill="none" stroke="#9a32cd" stroke-dasharray="5,2" d="M1220.57,-1051.16C1290.2,-1046.85 1389.95,-1040.66 1448.8,-1037.02"/>
<polygon fill="#9a32cd" stroke="#9a32cd" points="1220.29,-1047.67 1210.53,-1051.78 1220.72,-1054.66 1220.29,-1047.67"/>
<text text-anchor="middle" x="1329" y="-1051" font-family="Helvetica,sans-Serif" font-size="10.00"> emptyFieldBlocks</text>
</g>
<!-- Node45 -->
<g id="node45" class="node">
<title>Node45</title>
<g id="a_node45"><a xlink:title=" ">
<polygon fill="white" stroke="#bfbfbf" points="1063.5,-997 1063.5,-1027 1219.5,-1027 1219.5,-997 1063.5,-997"/>
<text text-anchor="start" x="1071.5" y="-1015" font-family="Helvetica,sans-Serif" font-size="10.00">shared_ptr&lt; MoFEM::</text>
<text text-anchor="middle" x="1141.5" y="-1004" font-family="Helvetica,sans-Serif" font-size="10.00">Problem::SubProblemData &gt;</text>
</a>
</g>
</g>
<!-- Node45&#45;&gt;Node37 -->
<g id="edge54" class="edge">
<title>Node45&#45;&gt;Node37</title>
<path fill="none" stroke="#9a32cd" stroke-dasharray="5,2" d="M1229.95,-1015.64C1279.07,-1017.89 1341.48,-1021.1 1397,-1025 1413.95,-1026.19 1432.48,-1027.77 1448.97,-1029.28"/>
<polygon fill="#9a32cd" stroke="#9a32cd" points="1229.82,-1012.13 1219.67,-1015.17 1229.5,-1019.12 1229.82,-1012.13"/>
<text text-anchor="middle" x="1329" y="-1028" font-family="Helvetica,sans-Serif" font-size="10.00"> subProblemData</text>
</g>
<!-- Node46 -->
<g id="node46" class="node">
<title>Node46</title>
<g id="a_node46"><a xlink:title=" ">
<polygon fill="white" stroke="#bfbfbf" points="1040,-958.5 1040,-977.5 1243,-977.5 1243,-958.5 1040,-958.5"/>
<text text-anchor="middle" x="1141.5" y="-965.5" font-family="Helvetica,sans-Serif" font-size="10.00">shared_ptr&lt; SequenceDofContainer &gt;</text>
</a>
</g>
</g>
<!-- Node46&#45;&gt;Node37 -->
<g id="edge56" class="edge">
<title>Node46&#45;&gt;Node37</title>
<path fill="none" stroke="#9a32cd" stroke-dasharray="5,2" d="M1253.24,-970.45C1298.37,-973.39 1350.71,-979.32 1397,-991 1427.36,-998.66 1460.33,-1014.31 1479.94,-1024.47"/>
<polygon fill="#9a32cd" stroke="#9a32cd" points="1253.32,-966.95 1243.13,-969.83 1252.9,-973.94 1253.32,-966.95"/>
<text text-anchor="middle" x="1329" y="-1005" font-family="Helvetica,sans-Serif" font-size="10.00"> sequenceRowDofContainer</text>
<text text-anchor="middle" x="1329" y="-994" font-family="Helvetica,sans-Serif" font-size="10.00">sequenceColDofContainer</text>
</g>
<!-- Node47 -->
<g id="node47" class="node">
<title>Node47</title>
<g id="a_node47"><a xlink:title=" ">
<polygon fill="white" stroke="#bfbfbf" points="1097.5,-920.5 1097.5,-939.5 1185.5,-939.5 1185.5,-920.5 1097.5,-920.5"/>
<text text-anchor="middle" x="1141.5" y="-927.5" font-family="Helvetica,sans-Serif" font-size="10.00">BitProblemId *</text>
</a>
</g>
</g>
<!-- Node47&#45;&gt;Node37 -->
<g id="edge57" class="edge">
<title>Node47&#45;&gt;Node37</title>
<path fill="none" stroke="#9a32cd" stroke-dasharray="5,2" d="M1195.82,-927.07C1248.76,-926.06 1331.29,-929.68 1397,-956 1435.96,-971.6 1472.45,-1007.01 1488.67,-1024.23"/>
<polygon fill="#9a32cd" stroke="#9a32cd" points="1195.54,-923.57 1185.64,-927.33 1195.72,-930.57 1195.54,-923.57"/>
<text text-anchor="middle" x="1329" y="-959" font-family="Helvetica,sans-Serif" font-size="10.00"> tagId</text>
</g>
<!-- Node48 -->
<g id="node48" class="node">
<title>Node48</title>
<g id="a_node48"><a xlink:title=" ">
<polygon fill="white" stroke="#bfbfbf" points="1805,-808 1805,-838 1967,-838 1967,-808 1805,-808"/>
<text text-anchor="start" x="1813" y="-826" font-family="Helvetica,sans-Serif" font-size="10.00">shared_ptr&lt; const MoFEM</text>
<text text-anchor="middle" x="1886" y="-815" font-family="Helvetica,sans-Serif" font-size="10.00">::NumeredEntFiniteElement &gt;</text>
</a>
</g>
</g>
<!-- Node48&#45;&gt;Node11 -->
<g id="edge58" class="edge">
<title>Node48&#45;&gt;Node11</title>
<path fill="none" stroke="#9a32cd" stroke-dasharray="5,2" d="M1977.54,-829.15C2048.18,-833.95 2143.85,-840.45 2202.4,-844.43"/>
<polygon fill="#9a32cd" stroke="#9a32cd" points="1977.52,-825.64 1967.3,-828.46 1977.04,-832.63 1977.52,-825.64"/>
<text text-anchor="middle" x="2063" y="-842" font-family="Helvetica,sans-Serif" font-size="10.00"> numeredEntFiniteElementPtr</text>
</g>
<!-- Node49 -->
<g id="node49" class="node">
<title>Node49</title>
<g id="a_node49"><a xlink:title=" ">
<polygon fill="white" stroke="#bfbfbf" points="1864,-1127.5 1864,-1146.5 1908,-1146.5 1908,-1127.5 1864,-1127.5"/>
<text text-anchor="middle" x="1886" y="-1134.5" font-family="Helvetica,sans-Serif" font-size="10.00">string</text>
</a>
</g>
</g>
<!-- Node49&#45;&gt;Node2 -->
<g id="edge81" class="edge">
<title>Node49&#45;&gt;Node2</title>
<path fill="none" stroke="#9a32cd" stroke-dasharray="5,2" d="M1918.37,-1139.35C1935.55,-1141.8 1956.62,-1146.8 1973,-1157 1983.73,-1163.68 1979.58,-1173.59 1991,-1179 2029.57,-1197.28 2427.18,-1216.32 2539,-1171 2696.67,-1107.1 2717.25,-1046.34 2819,-910 2866.91,-845.8 2902.59,-755.66 2915.61,-720.19"/>
<polygon fill="#9a32cd" stroke="#9a32cd" points="1918.6,-1135.85 1908.25,-1138.12 1917.76,-1142.8 1918.6,-1135.85"/>
<text text-anchor="middle" x="2458" y="-1210" font-family="Helvetica,sans-Serif" font-size="10.00"> colFieldName</text>
<text text-anchor="middle" x="2458" y="-1199" font-family="Helvetica,sans-Serif" font-size="10.00">rowFieldName</text>
</g>
<!-- Node49&#45;&gt;Node11 -->
<g id="edge59" class="edge">
<title>Node49&#45;&gt;Node11</title>
<path fill="none" stroke="#9a32cd" stroke-dasharray="5,2" d="M1918.22,-1136.98C1978.2,-1136.23 2106.17,-1130.95 2135,-1100 2170.4,-1062 2118.3,-905.63 2153,-867 2165.34,-853.26 2184.15,-847.48 2202.27,-845.49"/>
<polygon fill="#9a32cd" stroke="#9a32cd" points="1918.16,-1133.48 1908.19,-1137.07 1918.22,-1140.48 1918.16,-1133.48"/>
<text text-anchor="middle" x="2063" y="-1136" font-family="Helvetica,sans-Serif" font-size="10.00"> feName</text>
</g>
<!-- Node50 -->
<g id="node50" class="node">
<title>Node50</title>
<g id="a_node50"><a xlink:title=" ">
<polygon fill="white" stroke="#bfbfbf" points="1804.5,-857 1804.5,-887 1967.5,-887 1967.5,-857 1804.5,-857"/>
<text text-anchor="start" x="1812.5" y="-875" font-family="Helvetica,sans-Serif" font-size="10.00">function&lt; bool(MoFEM</text>
<text text-anchor="middle" x="1886" y="-864" font-family="Helvetica,sans-Serif" font-size="10.00">::FEMethod *fe_method_ptr)&gt;</text>
</a>
</g>
</g>
<!-- Node50&#45;&gt;Node11 -->
<g id="edge60" class="edge">
<title>Node50&#45;&gt;Node11</title>
<path fill="none" stroke="#9a32cd" stroke-dasharray="5,2" d="M1977.98,-866.07C2048.52,-861.47 2143.82,-855.25 2202.26,-851.44"/>
<polygon fill="#9a32cd" stroke="#9a32cd" points="1977.51,-862.59 1967.76,-866.73 1977.97,-869.57 1977.51,-862.59"/>
<text text-anchor="middle" x="2063" y="-867" font-family="Helvetica,sans-Serif" font-size="10.00"> exeTestHook</text>
</g>
<!-- Node51 -->
<g id="node51" class="node">
<title>Node51</title>
<g id="a_node51"><a xlink:href="classdouble.html" target="_top" xlink:title=" ">
<polygon fill="white" stroke="black" points="2231,-800.5 2231,-819.5 2281,-819.5 2281,-800.5 2231,-800.5"/>
<text text-anchor="middle" x="2256" y="-807.5" font-family="Helvetica,sans-Serif" font-size="10.00">double</text>
</a>
</g>
</g>
<!-- Node51&#45;&gt;Node10 -->
<g id="edge61" class="edge">
<title>Node51&#45;&gt;Node10</title>
<path fill="none" stroke="#9a32cd" stroke-dasharray="5,2" d="M2291.42,-812.09C2344.62,-815.48 2449.97,-822.83 2539,-833 2552.52,-834.54 2567,-836.49 2580.68,-838.47"/>
<polygon fill="#9a32cd" stroke="#9a32cd" points="2291.39,-808.58 2281.19,-811.44 2290.95,-815.57 2291.39,-808.58"/>
<text text-anchor="middle" x="2458" y="-836" font-family="Helvetica,sans-Serif" font-size="10.00"> elementMeasure</text>
</g>
<!-- Node52 -->
<g id="node52" class="node">
<title>Node52</title>
<g id="a_node52"><a xlink:title=" ">
<polygon fill="white" stroke="#bfbfbf" points="2170,-740.5 2170,-781.5 2342,-781.5 2342,-740.5 2170,-740.5"/>
<text text-anchor="start" x="2178" y="-769.5" font-family="Helvetica,sans-Serif" font-size="10.00">array&lt; boost::shared</text>
<text text-anchor="start" x="2178" y="-758.5" font-family="Helvetica,sans-Serif" font-size="10.00">_ptr&lt; MoFEM::EntitiesFieldData</text>
<text text-anchor="middle" x="2256" y="-747.5" font-family="Helvetica,sans-Serif" font-size="10.00"> &gt;, LASTSPACE &gt;</text>
</a>
</g>
</g>
<!-- Node52&#45;&gt;Node10 -->
<g id="edge62" class="edge">
<title>Node52&#45;&gt;Node10</title>
<path fill="none" stroke="#9a32cd" stroke-dasharray="5,2" d="M2352.26,-762.23C2407.83,-765.21 2478.64,-772.95 2539,-792 2573.1,-802.76 2608.81,-825.41 2627.6,-838.37"/>
<polygon fill="#9a32cd" stroke="#9a32cd" points="2352.23,-758.72 2342.07,-761.73 2351.88,-765.72 2352.23,-758.72"/>
<text text-anchor="middle" x="2458" y="-806" font-family="Helvetica,sans-Serif" font-size="10.00"> derivedDataOnElement</text>
<text text-anchor="middle" x="2458" y="-795" font-family="Helvetica,sans-Serif" font-size="10.00">dataOnElement</text>
</g>
<!-- Node53 -->
<g id="node53" class="node">
<title>Node53</title>
<g id="a_node53"><a xlink:title=" ">
<polygon fill="white" stroke="#bfbfbf" points="2222,-702.5 2222,-721.5 2290,-721.5 2290,-702.5 2222,-702.5"/>
<text text-anchor="middle" x="2256" y="-709.5" font-family="Helvetica,sans-Serif" font-size="10.00">EntityType</text>
</a>
</g>
</g>
<!-- Node53&#45;&gt;Node10 -->
<g id="edge63" class="edge">
<title>Node53&#45;&gt;Node10</title>
<path fill="none" stroke="#9a32cd" stroke-dasharray="5,2" d="M2300.37,-709.47C2357.87,-707.9 2461.16,-711.36 2539,-749 2582.99,-770.27 2619.95,-817.86 2634.44,-838.33"/>
<polygon fill="#9a32cd" stroke="#9a32cd" points="2300.05,-705.98 2290.18,-709.82 2300.29,-712.98 2300.05,-705.98"/>
<text text-anchor="middle" x="2458" y="-752" font-family="Helvetica,sans-Serif" font-size="10.00"> lastEvaluatedElementEntityType</text>
</g>
<!-- Node54 -->
<g id="node54" class="node">
<title>Node54</title>
<g id="a_node54"><a xlink:href="structMoFEM_1_1DeprecatedCoreInterface.html" target="_top" xlink:title="Deprecated interface functions.">
<polygon fill="white" stroke="black" points="1600,-255.5 1600,-274.5 1781,-274.5 1781,-255.5 1600,-255.5"/>
<text text-anchor="middle" x="1690.5" y="-262.5" font-family="Helvetica,sans-Serif" font-size="10.00">MoFEM::DeprecatedCoreInterface</text>
</a>
</g>
</g>
<!-- Node54&#45;&gt;Node10 -->
<g id="edge64" class="edge">
<title>Node54&#45;&gt;Node10</title>
<path fill="none" stroke="#9a32cd" stroke-dasharray="5,2" d="M1752.84,-276.74C1852.29,-299.35 2046.52,-359.17 2135,-494 2154.75,-524.1 2127.83,-629.26 2153,-655 2213.51,-716.89 2464.73,-662.56 2539,-707 2552.81,-715.26 2614.25,-807.39 2634.5,-838.1"/>
<polygon fill="#9a32cd" stroke="#9a32cd" points="1753.45,-273.29 1742.93,-274.54 1751.94,-280.12 1753.45,-273.29"/>
<text text-anchor="middle" x="2063" y="-497" font-family="Helvetica,sans-Serif" font-size="10.00"> mField</text>
</g>
<!-- Node55&#45;&gt;Node54 -->
<g id="edge65" class="edge">
<title>Node55&#45;&gt;Node54</title>
<path fill="none" stroke="midnightblue" d="M1214.41,-10.06C1266.69,-12.29 1338.3,-19.94 1397,-43 1526.35,-93.82 1647.51,-219.07 1680.63,-255.14"/>
<polygon fill="midnightblue" stroke="midnightblue" points="1214.34,-6.56 1204.22,-9.69 1214.08,-13.55 1214.34,-6.56"/>
</g>
<!-- Node56 -->
<g id="node56" class="node">
<title>Node56</title>
<g id="a_node56"><a xlink:title=" ">
<polygon fill="white" stroke="#bfbfbf" points="2172.5,-1074 2172.5,-1126 2339.5,-1126 2339.5,-1074 2172.5,-1074"/>
<text text-anchor="start" x="2180.5" y="-1114" font-family="Helvetica,sans-Serif" font-size="10.00">function&lt; MoFEMErrorCode</text>
<text text-anchor="start" x="2180.5" y="-1103" font-family="Helvetica,sans-Serif" font-size="10.00">(ForcesAndSourcesCore *fe</text>
<text text-anchor="start" x="2180.5" y="-1092" font-family="Helvetica,sans-Serif" font-size="10.00">_raw_ptr, int order_row,</text>
<text text-anchor="middle" x="2256" y="-1081" font-family="Helvetica,sans-Serif" font-size="10.00"> int order_col, int order_data)&gt;</text>
</a>
</g>
</g>
<!-- Node56&#45;&gt;Node10 -->
<g id="edge68" class="edge">
<title>Node56&#45;&gt;Node10</title>
<path fill="none" stroke="#9a32cd" stroke-dasharray="5,2" d="M2349.66,-1086.04C2431.7,-1073.65 2538.58,-1057.44 2539,-1057 2585.72,-1008.77 2522.54,-964.63 2557,-907 2570.99,-883.6 2598.27,-867.09 2617.94,-857.6"/>
<polygon fill="#9a32cd" stroke="#9a32cd" points="2348.9,-1082.61 2339.53,-1087.57 2349.94,-1089.53 2348.9,-1082.61"/>
<text text-anchor="middle" x="2458" y="-1084" font-family="Helvetica,sans-Serif" font-size="10.00"> setRuleHook</text>
</g>
<!-- Node57 -->
<g id="node57" class="node">
<title>Node57</title>
<g id="a_node57"><a xlink:title=" ">
<polygon fill="white" stroke="#bfbfbf" points="2155,-1025 2155,-1055 2357,-1055 2357,-1025 2155,-1025"/>
<text text-anchor="start" x="2163" y="-1043" font-family="Helvetica,sans-Serif" font-size="10.00">ptr_deque&lt; MoFEM::Forces</text>
<text text-anchor="middle" x="2256" y="-1032" font-family="Helvetica,sans-Serif" font-size="10.00">AndSourcesCore::UserDataOperator &gt;</text>
</a>
</g>
</g>
<!-- Node57&#45;&gt;Node10 -->
<g id="edge69" class="edge">
<title>Node57&#45;&gt;Node10</title>
<path fill="none" stroke="#9a32cd" stroke-dasharray="5,2" d="M2367.56,-1042.79C2435.61,-1042.04 2514.38,-1035.9 2539,-1013 2574,-980.46 2531.48,-947.4 2557,-907 2571.66,-883.8 2599.08,-867.16 2618.6,-857.58"/>
<polygon fill="#9a32cd" stroke="#9a32cd" points="2367.15,-1039.29 2357.17,-1042.86 2367.2,-1046.29 2367.15,-1039.29"/>
<text text-anchor="middle" x="2458" y="-1045" font-family="Helvetica,sans-Serif" font-size="10.00"> opPtrVector</text>
</g>
<!-- Node58 -->
<g id="node58" class="node">
<title>Node58</title>
<g id="a_node58"><a xlink:href="structMoFEM_1_1EntitiesFieldData.html" target="_top" xlink:title="data structure for finite element entity">
<polygon fill="white" stroke="black" points="2185,-1145.5 2185,-1164.5 2327,-1164.5 2327,-1145.5 2185,-1145.5"/>
<text text-anchor="middle" x="2256" y="-1152.5" font-family="Helvetica,sans-Serif" font-size="10.00">MoFEM::EntitiesFieldData</text>
</a>
</g>
</g>
<!-- Node58&#45;&gt;Node10 -->
<g id="edge70" class="edge">
<title>Node58&#45;&gt;Node10</title>
<path fill="none" stroke="#9a32cd" stroke-dasharray="5,2" d="M2336.99,-1145.4C2344.68,-1142.92 2352.15,-1139.84 2359,-1136 2369.43,-1130.15 2366.45,-1121.62 2377,-1116 2441.18,-1081.81 2488.74,-1145.56 2539,-1093 2567.7,-1062.99 2536.1,-942.88 2557,-907 2570.72,-883.44 2598.05,-866.97 2617.81,-857.53"/>
<polygon fill="#9a32cd" stroke="#9a32cd" points="2335.81,-1142.09 2327.17,-1148.21 2337.74,-1148.82 2335.81,-1142.09"/>
<text text-anchor="middle" x="2458" y="-1163" font-family="Helvetica,sans-Serif" font-size="10.00"> dataNoField</text>
<text text-anchor="middle" x="2458" y="-1152" font-family="Helvetica,sans-Serif" font-size="10.00">dataL2</text>
<text text-anchor="middle" x="2458" y="-1141" font-family="Helvetica,sans-Serif" font-size="10.00">dataH1</text>
<text text-anchor="middle" x="2458" y="-1130" font-family="Helvetica,sans-Serif" font-size="10.00">dataHcurl</text>
<text text-anchor="middle" x="2458" y="-1119" font-family="Helvetica,sans-Serif" font-size="10.00">dataHdiv</text>
</g>
<!-- Node59 -->
<g id="node59" class="node">
<title>Node59</title>
<g id="a_node59"><a xlink:title=" ">
<polygon fill="white" stroke="#bfbfbf" points="1805,-1166 1805,-1196 1967,-1196 1967,-1166 1805,-1166"/>
<text text-anchor="start" x="1813" y="-1184" font-family="Helvetica,sans-Serif" font-size="10.00">array&lt; std::bitset</text>
<text text-anchor="middle" x="1886" y="-1173" font-family="Helvetica,sans-Serif" font-size="10.00">&lt; LASTBASE &gt;, LASTSPACE &gt;</text>
</a>
</g>
</g>
<!-- Node59&#45;&gt;Node58 -->
<g id="edge71" class="edge">
<title>Node59&#45;&gt;Node58</title>
<path fill="none" stroke="#9a32cd" stroke-dasharray="5,2" d="M1977.39,-1174.61C2041.35,-1170.09 2125.88,-1164.12 2184.79,-1159.96"/>
<polygon fill="#9a32cd" stroke="#9a32cd" points="1977.03,-1171.13 1967.3,-1175.33 1977.53,-1178.11 1977.03,-1171.13"/>
<text text-anchor="middle" x="2063" y="-1187" font-family="Helvetica,sans-Serif" font-size="10.00"> brokenBasesOnSpaces</text>
<text text-anchor="middle" x="2063" y="-1176" font-family="Helvetica,sans-Serif" font-size="10.00">basesOnSpaces</text>
</g>
<!-- Node60 -->
<g id="node60" class="node">
<title>Node60</title>
<g id="a_node60"><a xlink:title=" ">
<polygon fill="white" stroke="#bfbfbf" points="1809.5,-1067.5 1809.5,-1108.5 1962.5,-1108.5 1962.5,-1067.5 1809.5,-1067.5"/>
<text text-anchor="start" x="1817.5" y="-1096.5" font-family="Helvetica,sans-Serif" font-size="10.00">array&lt; boost::ptr_vector</text>
<text text-anchor="start" x="1817.5" y="-1085.5" font-family="Helvetica,sans-Serif" font-size="10.00">&lt; MoFEM::EntitiesFieldData</text>
<text text-anchor="middle" x="1886" y="-1074.5" font-family="Helvetica,sans-Serif" font-size="10.00">::EntData &gt;, MBMAXTYPE &gt;</text>
</a>
</g>
</g>
<!-- Node60&#45;&gt;Node58 -->
<g id="edge72" class="edge">
<title>Node60&#45;&gt;Node58</title>
<path fill="none" stroke="#9a32cd" stroke-dasharray="5,2" d="M1972.33,-1065.73C2023.81,-1057.44 2088.26,-1056.71 2135,-1089 2153.4,-1101.71 2135.81,-1121.68 2153,-1136 2162.13,-1143.61 2173.34,-1148.56 2184.94,-1151.71"/>
<polygon fill="#9a32cd" stroke="#9a32cd" points="1971.47,-1062.33 1962.22,-1067.48 1972.67,-1069.22 1971.47,-1062.33"/>
<text text-anchor="middle" x="2063" y="-1092" font-family="Helvetica,sans-Serif" font-size="10.00"> dataOnEntities</text>
</g>
<!-- Node61 -->
<g id="node61" class="node">
<title>Node61</title>
<g id="a_node61"><a xlink:title=" ">
<polygon fill="white" stroke="#bfbfbf" points="1799,-1018 1799,-1048 1973,-1048 1973,-1018 1799,-1018"/>
<text text-anchor="start" x="1807" y="-1036" font-family="Helvetica,sans-Serif" font-size="10.00">array&lt; std::bitset</text>
<text text-anchor="middle" x="1886" y="-1025" font-family="Helvetica,sans-Serif" font-size="10.00">&lt; LASTSPACE &gt;, MBMAXTYPE &gt;</text>
</a>
</g>
</g>
<!-- Node61&#45;&gt;Node58 -->
<g id="edge73" class="edge">
<title>Node61&#45;&gt;Node58</title>
<path fill="none" stroke="#9a32cd" stroke-dasharray="5,2" d="M1952.7,-1016.01C2007.95,-1005.96 2085.61,-1002.38 2135,-1045 2166.21,-1071.93 2123.69,-1107.01 2153,-1136 2161.71,-1144.61 2172.99,-1149.99 2184.86,-1153.24"/>
<polygon fill="#9a32cd" stroke="#9a32cd" points="1951.81,-1012.61 1942.66,-1017.95 1953.14,-1019.49 1951.81,-1012.61"/>
<text text-anchor="middle" x="2063" y="-1048" font-family="Helvetica,sans-Serif" font-size="10.00"> spacesOnEntities</text>
</g>
<!-- Node62 -->
<g id="node62" class="node">
<title>Node62</title>
<g id="a_node62"><a xlink:title=" ">
<polygon fill="white" stroke="#bfbfbf" points="1801.5,-969 1801.5,-999 1970.5,-999 1970.5,-969 1801.5,-969"/>
<text text-anchor="start" x="1809.5" y="-987" font-family="Helvetica,sans-Serif" font-size="10.00">array&lt; std::bitset</text>
<text text-anchor="middle" x="1886" y="-976" font-family="Helvetica,sans-Serif" font-size="10.00">&lt; LASTBASE &gt;, MBMAXTYPE &gt;</text>
</a>
</g>
</g>
<!-- Node62&#45;&gt;Node58 -->
<g id="edge74" class="edge">
<title>Node62&#45;&gt;Node58</title>
<path fill="none" stroke="#9a32cd" stroke-dasharray="5,2" d="M1947.4,-966.77C2003.35,-954.85 2085.21,-948.31 2135,-994 2181.87,-1037.01 2109.34,-1089.73 2153,-1136 2161.53,-1145.04 2172.87,-1150.59 2184.89,-1153.87"/>
<polygon fill="#9a32cd" stroke="#9a32cd" points="1946.6,-963.36 1937.61,-968.97 1948.13,-970.19 1946.6,-963.36"/>
<text text-anchor="middle" x="2063" y="-997" font-family="Helvetica,sans-Serif" font-size="10.00"> basesOnEntities</text>
</g>
<!-- Node63 -->
<g id="node63" class="node">
<title>Node63</title>
<g id="a_node63"><a xlink:title=" ">
<polygon fill="white" stroke="#bfbfbf" points="1830,-1254.5 1830,-1273.5 1942,-1273.5 1942,-1254.5 1830,-1254.5"/>
<text text-anchor="middle" x="1886" y="-1261.5" font-family="Helvetica,sans-Serif" font-size="10.00">UBlasMatrix&lt; int &gt;</text>
</a>
</g>
</g>
<!-- Node63&#45;&gt;Node58 -->
<g id="edge75" class="edge">
<title>Node63&#45;&gt;Node58</title>
<path fill="none" stroke="#9a32cd" stroke-dasharray="5,2" d="M1952.64,-1264.19C2003.76,-1262.43 2075.76,-1255.71 2135,-1234 2179.73,-1217.61 2224.51,-1181.7 2244.37,-1164.52"/>
<polygon fill="#9a32cd" stroke="#9a32cd" points="1952.27,-1260.7 1942.38,-1264.49 1952.47,-1267.7 1952.27,-1260.7"/>
<text text-anchor="middle" x="2063" y="-1275" font-family="Helvetica,sans-Serif" font-size="10.00"> facesNodesOrder</text>
<text text-anchor="middle" x="2063" y="-1264" font-family="Helvetica,sans-Serif" font-size="10.00">facesNodes</text>
</g>
<!-- Node64 -->
<g id="node64" class="node">
<title>Node64</title>
<g id="a_node64"><a xlink:title=" ">
<polygon fill="white" stroke="#bfbfbf" points="1827.5,-1216.5 1827.5,-1235.5 1944.5,-1235.5 1944.5,-1216.5 1827.5,-1216.5"/>
<text text-anchor="middle" x="1886" y="-1223.5" font-family="Helvetica,sans-Serif" font-size="10.00">bitset&lt; LASTBASE &gt;</text>
</a>
</g>
</g>
<!-- Node64&#45;&gt;Node58 -->
<g id="edge76" class="edge">
<title>Node64&#45;&gt;Node58</title>
<path fill="none" stroke="#9a32cd" stroke-dasharray="5,2" d="M1954.9,-1223.06C2005.16,-1219.81 2075.03,-1213.04 2135,-1199 2170.65,-1190.66 2210.19,-1174.79 2233.8,-1164.56"/>
<polygon fill="#9a32cd" stroke="#9a32cd" points="1954.56,-1219.57 1944.8,-1223.68 1954.99,-1226.56 1954.56,-1219.57"/>
<text text-anchor="middle" x="2063" y="-1222" font-family="Helvetica,sans-Serif" font-size="10.00"> bAse</text>
</g>
<!-- Node65 -->
<g id="node65" class="node">
<title>Node65</title>
<g id="a_node65"><a xlink:title=" ">
<polygon fill="white" stroke="#bfbfbf" points="2193.5,-964.5 2193.5,-1005.5 2318.5,-1005.5 2318.5,-964.5 2193.5,-964.5"/>
<text text-anchor="start" x="2201.5" y="-993.5" font-family="Helvetica,sans-Serif" font-size="10.00">function&lt; int(int order</text>
<text text-anchor="start" x="2201.5" y="-982.5" font-family="Helvetica,sans-Serif" font-size="10.00">_row, int order_col, int</text>
<text text-anchor="middle" x="2256" y="-971.5" font-family="Helvetica,sans-Serif" font-size="10.00"> order_data)&gt;</text>
</a>
</g>
</g>
<!-- Node65&#45;&gt;Node10 -->
<g id="edge77" class="edge">
<title>Node65&#45;&gt;Node10</title>
<path fill="none" stroke="#9a32cd" stroke-dasharray="5,2" d="M2328.84,-996.4C2390.84,-1002.11 2479.53,-999.89 2539,-954 2556.71,-940.33 2543.25,-924.64 2557,-907 2574.31,-884.79 2602.25,-867.52 2621.11,-857.56"/>
<polygon fill="#9a32cd" stroke="#9a32cd" points="2329.05,-992.9 2318.75,-995.38 2328.34,-999.87 2329.05,-992.9"/>
<text text-anchor="middle" x="2458" y="-1001" font-family="Helvetica,sans-Serif" font-size="10.00"> getRuleHook</text>
</g>
<!-- Node66 -->
<g id="node66" class="node">
<title>Node66</title>
<g id="a_node66"><a xlink:title=" ">
<polygon fill="white" stroke="#bfbfbf" points="2195,-915 2195,-945 2317,-945 2317,-915 2195,-915"/>
<text text-anchor="start" x="2203" y="-933" font-family="Helvetica,sans-Serif" font-size="10.00">shared_ptr&lt; MoFEM::</text>
<text text-anchor="middle" x="2256" y="-922" font-family="Helvetica,sans-Serif" font-size="10.00">BaseFunction &gt;</text>
</a>
</g>
</g>
<!-- Node66&#45;&gt;Node10 -->
<g id="edge78" class="edge">
<title>Node66&#45;&gt;Node10</title>
<path fill="none" stroke="#9a32cd" stroke-dasharray="5,2" d="M2327.36,-930.95C2385.33,-929.92 2469.08,-924.24 2539,-903 2573.07,-892.65 2608.79,-870.32 2627.59,-857.52"/>
<polygon fill="#9a32cd" stroke="#9a32cd" points="2327.15,-927.45 2317.2,-931.09 2327.25,-934.45 2327.15,-927.45"/>
<text text-anchor="middle" x="2458" y="-942" font-family="Helvetica,sans-Serif" font-size="10.00"> userPolynomialBasePtr</text>
<text text-anchor="middle" x="2458" y="-931" font-family="Helvetica,sans-Serif" font-size="10.00">elementPolynomialBasePtr</text>
</g>
<!-- Node67 -->
<g id="node67" class="node">
<title>Node67</title>
<g id="a_node67"><a xlink:href="classUBlasMatrix_3_01double_01_4.html" target="_top" xlink:title=" ">
<polygon fill="white" stroke="black" points="2190,-876.5 2190,-895.5 2322,-895.5 2322,-876.5 2190,-876.5"/>
<text text-anchor="middle" x="2256" y="-883.5" font-family="Helvetica,sans-Serif" font-size="10.00">UBlasMatrix&lt; double &gt;</text>
</a>
</g>
</g>
<!-- Node67&#45;&gt;Node10 -->
<g id="edge79" class="edge">
<title>Node67&#45;&gt;Node10</title>
<path fill="none" stroke="#9a32cd" stroke-dasharray="5,2" d="M2332.04,-880.67C2388.92,-876.37 2468.98,-869.78 2539,-862 2550.72,-860.7 2563.18,-859.14 2575.22,-857.54"/>
<polygon fill="#9a32cd" stroke="#9a32cd" points="2331.77,-877.18 2322.06,-881.42 2332.29,-884.16 2331.77,-877.18"/>
<text text-anchor="middle" x="2458" y="-891" font-family="Helvetica,sans-Serif" font-size="10.00"> coordsAtGaussPts</text>
<text text-anchor="middle" x="2458" y="-880" font-family="Helvetica,sans-Serif" font-size="10.00">gaussPts</text>
</g>
<!-- Node68 -->
<g id="node68" class="node">
<title>Node68</title>
<g id="a_node68"><a xlink:title=" ">
<polygon fill="white" stroke="#bfbfbf" points="2576.5,-916.5 2576.5,-935.5 2707.5,-935.5 2707.5,-916.5 2576.5,-916.5"/>
<text text-anchor="middle" x="2642" y="-923.5" font-family="Helvetica,sans-Serif" font-size="10.00">static const char *const</text>
</a>
</g>
</g>
<!-- Node68&#45;&gt;Node2 -->
<g id="edge80" class="edge">
<title>Node68&#45;&gt;Node2</title>
<path fill="none" stroke="#9a32cd" stroke-dasharray="5,2" d="M2714.4,-912.99C2718.77,-911.24 2723.01,-909.25 2727,-907 2813.8,-857.99 2885.99,-757.94 2911.3,-720.02"/>
<polygon fill="#9a32cd" stroke="#9a32cd" points="2712.92,-909.8 2704.67,-916.46 2715.27,-916.4 2712.92,-909.8"/>
<text text-anchor="middle" x="2782" y="-898" font-family="Helvetica,sans-Serif" font-size="10.00"> OpTypeNames</text>
</g>
<!-- Node69 -->
<g id="node69" class="node">
<title>Node69</title>
<g id="a_node69"><a xlink:href="structMoFEM_1_1SmartPetscObj.html" target="_top" xlink:title=" ">
<polygon fill="white" stroke="black" points="2856.5,-431 2856.5,-461 2987.5,-461 2987.5,-431 2856.5,-431"/>
<text text-anchor="start" x="2864.5" y="-449" font-family="Helvetica,sans-Serif" font-size="10.00">MoFEM::SmartPetscObj</text>
<text text-anchor="middle" x="2922" y="-438" font-family="Helvetica,sans-Serif" font-size="10.00">&lt; Vec &gt;</text>
</a>
</g>
</g>
<!-- Node69&#45;&gt;Node1 -->
<g id="edge82" class="edge">
<title>Node69&#45;&gt;Node1</title>
<path fill="none" stroke="#9a32cd" stroke-dasharray="5,2" d="M2997.9,-446C3027.59,-446 3061.92,-446 3092.65,-446"/>
<polygon fill="#9a32cd" stroke="#9a32cd" points="2997.6,-442.5 2987.6,-446 2997.6,-449.5 2997.6,-442.5"/>
<text text-anchor="middle" x="3050" y="-449" font-family="Helvetica,sans-Serif" font-size="10.00"> dataVec</text>
</g>
<!-- Node70 -->
<g id="node70" class="node">
<title>Node70</title>
<g id="a_node70"><a xlink:title=" ">
<polygon fill="white" stroke="#bfbfbf" points="2579,-264.5 2579,-305.5 2705,-305.5 2705,-264.5 2579,-264.5"/>
<text text-anchor="start" x="2587" y="-293.5" font-family="Helvetica,sans-Serif" font-size="10.00">boost::intrusive_ptr</text>
<text text-anchor="start" x="2587" y="-282.5" font-family="Helvetica,sans-Serif" font-size="10.00">&lt; std::remove_pointer</text>
<text text-anchor="middle" x="2642" y="-271.5" font-family="Helvetica,sans-Serif" font-size="10.00">&lt; Vec &gt;::type &gt;</text>
</a>
</g>
</g>
<!-- Node70&#45;&gt;Node69 -->
<g id="edge83" class="edge">
<title>Node70&#45;&gt;Node69</title>
<path fill="none" stroke="midnightblue" d="M2715,-285.13C2750.99,-289.06 2792.43,-300.11 2819,-328 2848.04,-358.48 2808.73,-389.81 2837,-421 2842.31,-426.86 2848.93,-431.37 2856.11,-434.84"/>
<polygon fill="midnightblue" stroke="midnightblue" points="2715.29,-281.64 2705.01,-284.2 2714.64,-288.61 2715.29,-281.64"/>
</g>
<!-- Node71 -->
<g id="node71" class="node">
<title>Node71</title>
<g id="a_node71"><a xlink:href="structMoFEM_1_1SmartPetscObj.html" target="_top" xlink:title="intrusive_ptr for managing petsc objects">
<polygon fill="white" stroke="black" points="2576.5,-325 2576.5,-355 2707.5,-355 2707.5,-325 2576.5,-325"/>
<text text-anchor="start" x="2584.5" y="-343" font-family="Helvetica,sans-Serif" font-size="10.00">MoFEM::SmartPetscObj</text>
<text text-anchor="middle" x="2642" y="-332" font-family="Helvetica,sans-Serif" font-size="10.00">&lt; OBJ &gt;</text>
</a>
</g>
</g>
<!-- Node71&#45;&gt;Node69 -->
<g id="edge84" class="edge">
<title>Node71&#45;&gt;Node69</title>
<path fill="none" stroke="orange" stroke-dasharray="5,2" d="M2717.59,-330.29C2752.04,-329.9 2791.35,-335.81 2819,-359 2840.98,-377.44 2816.78,-400.64 2837,-421 2842.47,-426.51 2849.09,-430.81 2856.19,-434.17"/>
<polygon fill="orange" stroke="orange" points="2717.44,-326.79 2707.54,-330.58 2717.64,-333.79 2717.44,-326.79"/>
<text text-anchor="middle" x="2782" y="-362" font-family="Helvetica,sans-Serif" font-size="10.00"> &lt; Vec &gt;</text>
</g>
<!-- Node72 -->
<g id="node72" class="node">
<title>Node72</title>
<g id="a_node72"><a xlink:title=" ">
<polygon fill="white" stroke="#bfbfbf" points="2193,-314.5 2193,-355.5 2319,-355.5 2319,-314.5 2193,-314.5"/>
<text text-anchor="start" x="2201" y="-343.5" font-family="Helvetica,sans-Serif" font-size="10.00">boost::intrusive_ptr</text>
<text text-anchor="start" x="2201" y="-332.5" font-family="Helvetica,sans-Serif" font-size="10.00">&lt; std::remove_pointer</text>
<text text-anchor="middle" x="2256" y="-321.5" font-family="Helvetica,sans-Serif" font-size="10.00">&lt; OBJ &gt;::type &gt;</text>
</a>
</g>
</g>
<!-- Node72&#45;&gt;Node71 -->
<g id="edge85" class="edge">
<title>Node72&#45;&gt;Node71</title>
<path fill="none" stroke="midnightblue" d="M2329.35,-335.94C2400.48,-336.87 2508.06,-338.27 2576.4,-339.16"/>
<polygon fill="midnightblue" stroke="midnightblue" points="2329.17,-332.44 2319.12,-335.81 2329.08,-339.44 2329.17,-332.44"/>
</g>
<!-- Node73 -->
<g id="node73" class="node">
<title>Node73</title>
<g id="a_node73"><a xlink:href="classUBlasVector_3_01double_01_4.html" target="_top" xlink:title=" ">
<polygon fill="white" stroke="black" points="2856.5,-392.5 2856.5,-411.5 2987.5,-411.5 2987.5,-392.5 2856.5,-392.5"/>
<text text-anchor="middle" x="2922" y="-399.5" font-family="Helvetica,sans-Serif" font-size="10.00">UBlasVector&lt; double &gt;</text>
</a>
</g>
</g>
<!-- Node73&#45;&gt;Node1 -->
<g id="edge86" class="edge">
<title>Node73&#45;&gt;Node1</title>
<path fill="none" stroke="#9a32cd" stroke-dasharray="5,2" d="M2988.59,-413.27C3020.31,-418.73 3058.8,-425.34 3092.85,-431.19"/>
<polygon fill="#9a32cd" stroke="#9a32cd" points="2989,-409.79 2978.55,-411.55 2987.81,-416.69 2989,-409.79"/>
<text text-anchor="middle" x="3050" y="-430" font-family="Helvetica,sans-Serif" font-size="10.00"> dotVector</text>
</g>
<!-- Node74 -->
<g id="node74" class="node">
<title>Node74</title>
<g id="a_node74"><a xlink:title=" ">
<polygon fill="white" stroke="#bfbfbf" points="2852,-343 2852,-373 2992,-373 2992,-343 2852,-343"/>
<text text-anchor="start" x="2860" y="-361" font-family="Helvetica,sans-Serif" font-size="10.00">shared_ptr&lt; UBlasMatrix</text>
<text text-anchor="middle" x="2922" y="-350" font-family="Helvetica,sans-Serif" font-size="10.00">&lt; double &gt; &gt;</text>
</a>
</g>
</g>
<!-- Node74&#45;&gt;Node1 -->
<g id="edge88" class="edge">
<title>Node74&#45;&gt;Node1</title>
<path fill="none" stroke="#9a32cd" stroke-dasharray="5,2" d="M2983.92,-375.95C2991.7,-378.29 2999.54,-380.68 3007,-383 3037.34,-392.42 3045.1,-394.28 3075,-405 3087.97,-409.65 3101.75,-414.87 3114.88,-420"/>
<polygon fill="#9a32cd" stroke="#9a32cd" points="2984.73,-372.53 2974.14,-373.01 2982.71,-379.24 2984.73,-372.53"/>
<text text-anchor="middle" x="3050" y="-408" font-family="Helvetica,sans-Serif" font-size="10.00"> dataPtr</text>
</g>
</g>
</svg>
