<?xml version="1.0" encoding="UTF-8" standalone="no"?>
<!DOCTYPE svg PUBLIC "-//W3C//DTD SVG 1.1//EN"
 "http://www.w3.org/Graphics/SVG/1.1/DTD/svg11.dtd">
<!-- Generated by graphviz version 2.43.0 (0)
 -->
<!-- Title: NitscheMethod::OpGetFaceData Pages: 1 -->
<svg width="3921pt" height="1824pt"
 viewBox="0.00 0.00 3921.00 1824.02" xmlns="http://www.w3.org/2000/svg" xmlns:xlink="http://www.w3.org/1999/xlink">
<g id="graph0" class="graph" transform="scale(1 1) rotate(0) translate(4 1820.02)">
<title>NitscheMethod::OpGetFaceData</title>
<polygon fill="white" stroke="transparent" points="-4,4 -4,-1820.02 3917,-1820.02 3917,4 -4,4"/>
<!-- Node1 -->
<g id="node1" class="node">
<title>Node1</title>
<g id="a_node1"><a xlink:title="Get integration pts data on face.">
<polygon fill="#bfbfbf" stroke="black" points="3741,-295.52 3741,-314.52 3913,-314.52 3913,-295.52 3741,-295.52"/>
<text text-anchor="middle" x="3827" y="-302.52" font-family="Helvetica,sans-Serif" font-size="10.00">NitscheMethod::OpGetFaceData</text>
</a>
</g>
</g>
<!-- Node2 -->
<g id="node2" class="node">
<title>Node2</title>
<g id="a_node2"><a xlink:href="structMoFEM_1_1FaceElementForcesAndSourcesCore_1_1UserDataOperator.html" target="_top" xlink:title="default operator for TRI element">
<polygon fill="white" stroke="black" points="3513,-607.02 3513,-637.02 3704,-637.02 3704,-607.02 3513,-607.02"/>
<text text-anchor="start" x="3521" y="-625.02" font-family="Helvetica,sans-Serif" font-size="10.00">MoFEM::FaceElementForces</text>
<text text-anchor="middle" x="3608.5" y="-614.02" font-family="Helvetica,sans-Serif" font-size="10.00">AndSourcesCore::UserDataOperator</text>
</a>
</g>
</g>
<!-- Node2&#45;&gt;Node1 -->
<g id="edge1" class="edge">
<title>Node2&#45;&gt;Node1</title>
<path fill="none" stroke="midnightblue" d="M3625.61,-598.43C3669.46,-534.22 3789.72,-358.15 3819.34,-314.77"/>
<polygon fill="midnightblue" stroke="midnightblue" points="3622.69,-596.5 3619.94,-606.73 3628.47,-600.44 3622.69,-596.5"/>
</g>
<!-- Node3 -->
<g id="node3" class="node">
<title>Node3</title>
<g id="a_node3"><a xlink:href="structMoFEM_1_1ForcesAndSourcesCore_1_1UserDataOperator.html" target="_top" xlink:title=" ">
<polygon fill="white" stroke="black" points="3306,-1044.02 3306,-1074.02 3476,-1074.02 3476,-1044.02 3306,-1044.02"/>
<text text-anchor="start" x="3314" y="-1062.02" font-family="Helvetica,sans-Serif" font-size="10.00">MoFEM::ForcesAndSourcesCore</text>
<text text-anchor="middle" x="3391" y="-1051.02" font-family="Helvetica,sans-Serif" font-size="10.00">::UserDataOperator</text>
</a>
</g>
</g>
<!-- Node3&#45;&gt;Node2 -->
<g id="edge2" class="edge">
<title>Node3&#45;&gt;Node2</title>
<path fill="none" stroke="midnightblue" d="M3403.98,-1034.72C3443.32,-954.95 3567.79,-702.54 3599.89,-637.45"/>
<polygon fill="midnightblue" stroke="midnightblue" points="3400.7,-1033.46 3399.42,-1043.98 3406.98,-1036.55 3400.7,-1033.46"/>
</g>
<!-- Node4 -->
<g id="node4" class="node">
<title>Node4</title>
<g id="a_node4"><a xlink:href="structMoFEM_1_1DataOperator.html" target="_top" xlink:title="base operator to do operations at Gauss Pt. level">
<polygon fill="white" stroke="black" points="3048.5,-1611.52 3048.5,-1630.52 3173.5,-1630.52 3173.5,-1611.52 3048.5,-1611.52"/>
<text text-anchor="middle" x="3111" y="-1618.52" font-family="Helvetica,sans-Serif" font-size="10.00">MoFEM::DataOperator</text>
</a>
</g>
</g>
<!-- Node4&#45;&gt;Node3 -->
<g id="edge3" class="edge">
<title>Node4&#45;&gt;Node3</title>
<path fill="none" stroke="midnightblue" d="M3122.02,-1602.62C3149.45,-1552.05 3227.79,-1406.5 3288,-1283.02 3325.92,-1205.24 3367.67,-1110.35 3383.47,-1074.09"/>
<polygon fill="midnightblue" stroke="midnightblue" points="3118.93,-1600.98 3117.23,-1611.43 3125.08,-1604.32 3118.93,-1600.98"/>
</g>
<!-- Node5 -->
<g id="node5" class="node">
<title>Node5</title>
<g id="a_node5"><a xlink:title=" ">
<polygon fill="white" stroke="#bfbfbf" points="2629,-1540.02 2629,-1592.02 2821,-1592.02 2821,-1540.02 2629,-1540.02"/>
<text text-anchor="start" x="2637" y="-1580.02" font-family="Helvetica,sans-Serif" font-size="10.00">function&lt; MoFEMErrorCode</text>
<text text-anchor="start" x="2637" y="-1569.02" font-family="Helvetica,sans-Serif" font-size="10.00">(DataOperator *op_ptr,</text>
<text text-anchor="start" x="2637" y="-1558.02" font-family="Helvetica,sans-Serif" font-size="10.00"> int side, EntityType type,</text>
<text text-anchor="middle" x="2725" y="-1547.02" font-family="Helvetica,sans-Serif" font-size="10.00"> EntitiesFieldData::EntData &amp;data)&gt;</text>
</a>
</g>
</g>
<!-- Node5&#45;&gt;Node4 -->
<g id="edge4" class="edge">
<title>Node5&#45;&gt;Node4</title>
<path fill="none" stroke="#9a32cd" stroke-dasharray="5,2" d="M2831.39,-1580.84C2884.39,-1588.32 2949.61,-1597.58 3008,-1606.02 3021.02,-1607.9 3034.97,-1609.94 3048.25,-1611.88"/>
<polygon fill="#9a32cd" stroke="#9a32cd" points="2831.7,-1577.35 2821.31,-1579.41 2830.72,-1584.28 2831.7,-1577.35"/>
<text text-anchor="middle" x="2927" y="-1609.02" font-family="Helvetica,sans-Serif" font-size="10.00"> doWorkRhsHook</text>
</g>
<!-- Node6 -->
<g id="node6" class="node">
<title>Node6</title>
<g id="a_node6"><a xlink:href="classbool.html" target="_top" xlink:title=" ">
<polygon fill="white" stroke="black" points="2706,-1753.52 2706,-1772.52 2744,-1772.52 2744,-1753.52 2706,-1753.52"/>
<text text-anchor="middle" x="2725" y="-1760.52" font-family="Helvetica,sans-Serif" font-size="10.00">bool</text>
</a>
</g>
</g>
<!-- Node6&#45;&gt;Node4 -->
<g id="edge5" class="edge">
<title>Node6&#45;&gt;Node4</title>
<path fill="none" stroke="#9a32cd" stroke-dasharray="5,2" d="M2754.21,-1758.83C2774.82,-1755.52 2803.35,-1750.39 2828,-1744.02 2909.64,-1722.91 2931.62,-1719.75 3008,-1684.02 3041.56,-1668.32 3077.76,-1643.99 3096.71,-1630.63"/>
<polygon fill="#9a32cd" stroke="#9a32cd" points="2753.56,-1755.39 2744.22,-1760.4 2754.64,-1762.31 2753.56,-1755.39"/>
<text text-anchor="middle" x="2927" y="-1808.02" font-family="Helvetica,sans-Serif" font-size="10.00"> doTris</text>
<text text-anchor="middle" x="2927" y="-1797.02" font-family="Helvetica,sans-Serif" font-size="10.00">doQuads</text>
<text text-anchor="middle" x="2927" y="-1786.02" font-family="Helvetica,sans-Serif" font-size="10.00">sYmm</text>
<text text-anchor="middle" x="2927" y="-1775.02" font-family="Helvetica,sans-Serif" font-size="10.00">doPrisms</text>
<text text-anchor="middle" x="2927" y="-1764.02" font-family="Helvetica,sans-Serif" font-size="10.00">doTets</text>
<text text-anchor="middle" x="2927" y="-1753.02" font-family="Helvetica,sans-Serif" font-size="10.00">doVertices</text>
<text text-anchor="middle" x="2927" y="-1742.02" font-family="Helvetica,sans-Serif" font-size="10.00">doEdges</text>
</g>
<!-- Node7 -->
<g id="node7" class="node">
<title>Node7</title>
<g id="a_node7"><a xlink:title=" ">
<polygon fill="white" stroke="#bfbfbf" points="2622,-1649.52 2622,-1734.52 2828,-1734.52 2828,-1649.52 2622,-1649.52"/>
<text text-anchor="start" x="2630" y="-1722.52" font-family="Helvetica,sans-Serif" font-size="10.00">function&lt; MoFEMErrorCode</text>
<text text-anchor="start" x="2630" y="-1711.52" font-family="Helvetica,sans-Serif" font-size="10.00">(DataOperator *op_ptr,</text>
<text text-anchor="start" x="2630" y="-1700.52" font-family="Helvetica,sans-Serif" font-size="10.00"> int row_side, int col_side,</text>
<text text-anchor="start" x="2630" y="-1689.52" font-family="Helvetica,sans-Serif" font-size="10.00"> EntityType row_type, EntityType</text>
<text text-anchor="start" x="2630" y="-1678.52" font-family="Helvetica,sans-Serif" font-size="10.00"> col_type, EntitiesFieldData::EntData</text>
<text text-anchor="start" x="2630" y="-1667.52" font-family="Helvetica,sans-Serif" font-size="10.00"> &amp;row_data, EntitiesFieldData::EntData</text>
<text text-anchor="middle" x="2725" y="-1656.52" font-family="Helvetica,sans-Serif" font-size="10.00"> &amp;col_data)&gt;</text>
</a>
</g>
</g>
<!-- Node7&#45;&gt;Node4 -->
<g id="edge6" class="edge">
<title>Node7&#45;&gt;Node4</title>
<path fill="none" stroke="#9a32cd" stroke-dasharray="5,2" d="M2838.28,-1671.26C2911.02,-1657.81 3002.33,-1640.93 3058.4,-1630.56"/>
<polygon fill="#9a32cd" stroke="#9a32cd" points="2837.35,-1667.87 2828.15,-1673.13 2838.62,-1674.75 2837.35,-1667.87"/>
<text text-anchor="middle" x="2927" y="-1672.02" font-family="Helvetica,sans-Serif" font-size="10.00"> doWorkLhsHook</text>
</g>
<!-- Node8 -->
<g id="node8" class="node">
<title>Node8</title>
<g id="a_node8"><a xlink:title=" ">
<polygon fill="white" stroke="#bfbfbf" points="2648,-1611.52 2648,-1630.52 2802,-1630.52 2802,-1611.52 2648,-1611.52"/>
<text text-anchor="middle" x="2725" y="-1618.52" font-family="Helvetica,sans-Serif" font-size="10.00">array&lt; bool, MBMAXTYPE &gt;</text>
</a>
</g>
</g>
<!-- Node8&#45;&gt;Node4 -->
<g id="edge7" class="edge">
<title>Node8&#45;&gt;Node4</title>
<path fill="none" stroke="#9a32cd" stroke-dasharray="5,2" d="M2812.7,-1621.02C2884.44,-1621.02 2984.59,-1621.02 3048.37,-1621.02"/>
<polygon fill="#9a32cd" stroke="#9a32cd" points="2812.33,-1617.52 2802.33,-1621.02 2812.33,-1624.52 2812.33,-1617.52"/>
<text text-anchor="middle" x="2927" y="-1624.02" font-family="Helvetica,sans-Serif" font-size="10.00"> doEntities</text>
</g>
<!-- Node9 -->
<g id="node9" class="node">
<title>Node9</title>
<g id="a_node9"><a xlink:title=" ">
<polygon fill="white" stroke="#bfbfbf" points="3076.5,-1049.52 3076.5,-1068.52 3145.5,-1068.52 3145.5,-1049.52 3076.5,-1049.52"/>
<text text-anchor="middle" x="3111" y="-1056.52" font-family="Helvetica,sans-Serif" font-size="10.00">FieldSpace</text>
</a>
</g>
</g>
<!-- Node9&#45;&gt;Node3 -->
<g id="edge8" class="edge">
<title>Node9&#45;&gt;Node3</title>
<path fill="none" stroke="#9a32cd" stroke-dasharray="5,2" d="M3155.79,-1059.02C3195.94,-1059.02 3256.51,-1059.02 3305.99,-1059.02"/>
<polygon fill="#9a32cd" stroke="#9a32cd" points="3155.53,-1055.52 3145.53,-1059.02 3155.53,-1062.52 3155.53,-1055.52"/>
<text text-anchor="middle" x="3251" y="-1062.02" font-family="Helvetica,sans-Serif" font-size="10.00"> sPace</text>
</g>
<!-- Node10 -->
<g id="node10" class="node">
<title>Node10</title>
<g id="a_node10"><a xlink:title=" ">
<polygon fill="white" stroke="#bfbfbf" points="1591.5,-399.52 1591.5,-418.52 1629.5,-418.52 1629.5,-399.52 1591.5,-399.52"/>
<text text-anchor="middle" x="1610.5" y="-406.52" font-family="Helvetica,sans-Serif" font-size="10.00">char</text>
</a>
</g>
</g>
<!-- Node10&#45;&gt;Node3 -->
<g id="edge9" class="edge">
<title>Node10&#45;&gt;Node3</title>
<path fill="none" stroke="#9a32cd" stroke-dasharray="5,2" d="M1639.79,-406.21C1699.88,-400.48 1844.73,-388.02 1966.5,-388.02 1966.5,-388.02 1966.5,-388.02 3112,-388.02 3258.9,-388.02 3368.69,-943.86 3387.23,-1043.74"/>
<polygon fill="#9a32cd" stroke="#9a32cd" points="1639.2,-402.75 1629.58,-407.19 1639.87,-409.71 1639.2,-402.75"/>
<text text-anchor="middle" x="2532" y="-391.02" font-family="Helvetica,sans-Serif" font-size="10.00"> opType</text>
</g>
<!-- Node38 -->
<g id="node38" class="node">
<title>Node38</title>
<g id="a_node38"><a xlink:href="structMoFEM_1_1Problem.html" target="_top" xlink:title="keeps basic data about problem">
<polygon fill="white" stroke="black" points="1918,-649.52 1918,-668.52 2017,-668.52 2017,-649.52 1918,-649.52"/>
<text text-anchor="middle" x="1967.5" y="-656.52" font-family="Helvetica,sans-Serif" font-size="10.00">MoFEM::Problem</text>
</a>
</g>
</g>
<!-- Node10&#45;&gt;Node38 -->
<g id="edge53" class="edge">
<title>Node10&#45;&gt;Node38</title>
<path fill="none" stroke="#9a32cd" stroke-dasharray="5,2" d="M1639.53,-407.33C1697.94,-404.37 1830.25,-400.76 1866,-426.02 1944.79,-481.69 1962.32,-612.63 1965.75,-649.31"/>
<polygon fill="#9a32cd" stroke="#9a32cd" points="1639.32,-403.84 1629.52,-407.87 1639.69,-410.83 1639.32,-403.84"/>
<text text-anchor="middle" x="1798" y="-429.02" font-family="Helvetica,sans-Serif" font-size="10.00"> tagName</text>
</g>
<!-- Node11 -->
<g id="node11" class="node">
<title>Node11</title>
<g id="a_node11"><a xlink:href="structMoFEM_1_1ForcesAndSourcesCore.html" target="_top" xlink:title="structure to get information form mofem into EntitiesFieldData">
<polygon fill="white" stroke="black" points="3026,-1213.52 3026,-1232.52 3196,-1232.52 3196,-1213.52 3026,-1213.52"/>
<text text-anchor="middle" x="3111" y="-1220.52" font-family="Helvetica,sans-Serif" font-size="10.00">MoFEM::ForcesAndSourcesCore</text>
</a>
</g>
</g>
<!-- Node11&#45;&gt;Node3 -->
<g id="edge10" class="edge">
<title>Node11&#45;&gt;Node3</title>
<path fill="none" stroke="#9a32cd" stroke-dasharray="5,2" d="M3136.84,-1208.37C3189.4,-1177.35 3311.44,-1105.36 3364.55,-1074.03"/>
<polygon fill="#9a32cd" stroke="#9a32cd" points="3134.98,-1205.4 3128.15,-1213.49 3138.54,-1211.42 3134.98,-1205.4"/>
<text text-anchor="middle" x="3251" y="-1164.02" font-family="Helvetica,sans-Serif" font-size="10.00"> ptrFE</text>
</g>
<!-- Node11&#45;&gt;Node11 -->
<g id="edge68" class="edge">
<title>Node11&#45;&gt;Node11</title>
<path fill="none" stroke="#9a32cd" stroke-dasharray="5,2" d="M3084.96,-1242.05C3086.38,-1247.15 3095.06,-1251.02 3111,-1251.02 3135.88,-1251.02 3143.08,-1241.58 3132.58,-1232.77"/>
<polygon fill="#9a32cd" stroke="#9a32cd" points="3088.24,-1243.3 3089.42,-1232.77 3081.93,-1240.27 3088.24,-1243.3"/>
<text text-anchor="middle" x="3111" y="-1265.02" font-family="Helvetica,sans-Serif" font-size="10.00"> sidePtrFE</text>
<text text-anchor="middle" x="3111" y="-1254.02" font-family="Helvetica,sans-Serif" font-size="10.00">refinePtrFE</text>
</g>
<!-- Node12 -->
<g id="node12" class="node">
<title>Node12</title>
<g id="a_node12"><a xlink:href="structMoFEM_1_1FEMethod.html" target="_top" xlink:title="structure for User Loop Methods on finite elements">
<polygon fill="white" stroke="black" points="2671.5,-1016.52 2671.5,-1035.52 2778.5,-1035.52 2778.5,-1016.52 2671.5,-1016.52"/>
<text text-anchor="middle" x="2725" y="-1023.52" font-family="Helvetica,sans-Serif" font-size="10.00">MoFEM::FEMethod</text>
</a>
</g>
</g>
<!-- Node12&#45;&gt;Node11 -->
<g id="edge11" class="edge">
<title>Node12&#45;&gt;Node11</title>
<path fill="none" stroke="midnightblue" d="M2788.95,-1021.89C2849.68,-1020.94 2941.89,-1027.76 3008,-1070.02 3064.49,-1106.13 3096.94,-1185.95 3106.77,-1213.47"/>
<polygon fill="midnightblue" stroke="midnightblue" points="2788.65,-1018.4 2778.73,-1022.13 2788.81,-1025.4 2788.65,-1018.4"/>
</g>
<!-- Node13 -->
<g id="node13" class="node">
<title>Node13</title>
<g id="a_node13"><a xlink:href="structMoFEM_1_1BasicMethod.html" target="_top" xlink:title="Data structure to exchange data between mofem and User Loop Methods.">
<polygon fill="white" stroke="black" points="2294,-1127.52 2294,-1146.52 2416,-1146.52 2416,-1127.52 2294,-1127.52"/>
<text text-anchor="middle" x="2355" y="-1134.52" font-family="Helvetica,sans-Serif" font-size="10.00">MoFEM::BasicMethod</text>
</a>
</g>
</g>
<!-- Node13&#45;&gt;Node12 -->
<g id="edge12" class="edge">
<title>Node13&#45;&gt;Node12</title>
<path fill="none" stroke="midnightblue" d="M2426.3,-1140.97C2480.57,-1140.29 2554.5,-1130.77 2604,-1090.02 2620.63,-1076.33 2605.35,-1058.68 2622,-1045.02 2635.72,-1033.76 2653.98,-1028.35 2671.26,-1025.96"/>
<polygon fill="midnightblue" stroke="midnightblue" points="2426.06,-1137.47 2416.07,-1141 2426.08,-1144.47 2426.06,-1137.47"/>
</g>
<!-- Node14 -->
<g id="node14" class="node">
<title>Node14</title>
<g id="a_node14"><a xlink:href="structMoFEM_1_1KspMethod.html" target="_top" xlink:title="data structure for ksp (linear solver) context">
<polygon fill="white" stroke="black" points="1911,-1091.52 1911,-1110.52 2024,-1110.52 2024,-1091.52 1911,-1091.52"/>
<text text-anchor="middle" x="1967.5" y="-1098.52" font-family="Helvetica,sans-Serif" font-size="10.00">MoFEM::KspMethod</text>
</a>
</g>
</g>
<!-- Node14&#45;&gt;Node13 -->
<g id="edge13" class="edge">
<title>Node14&#45;&gt;Node13</title>
<path fill="none" stroke="midnightblue" d="M2034.12,-1107.15C2106.93,-1113.95 2223.43,-1124.82 2293.93,-1131.41"/>
<polygon fill="midnightblue" stroke="midnightblue" points="2034.43,-1103.66 2024.14,-1106.21 2033.77,-1110.63 2034.43,-1103.66"/>
</g>
<!-- Node15 -->
<g id="node15" class="node">
<title>Node15</title>
<g id="a_node15"><a xlink:href="structMoFEM_1_1PetscData.html" target="_top" xlink:title=" ">
<polygon fill="white" stroke="black" points="1556.5,-1325.52 1556.5,-1344.52 1664.5,-1344.52 1664.5,-1325.52 1556.5,-1325.52"/>
<text text-anchor="middle" x="1610.5" y="-1332.52" font-family="Helvetica,sans-Serif" font-size="10.00">MoFEM::PetscData</text>
</a>
</g>
</g>
<!-- Node15&#45;&gt;Node14 -->
<g id="edge14" class="edge">
<title>Node15&#45;&gt;Node14</title>
<path fill="none" stroke="midnightblue" d="M1674.82,-1332.64C1688.17,-1329.64 1701.41,-1324.52 1712,-1316.02 1727.84,-1303.31 1717.1,-1289.71 1730,-1274.02 1776.49,-1217.45 1822.92,-1240.23 1866,-1181.02 1882.63,-1158.16 1863.42,-1139.39 1884,-1120.02 1891.49,-1112.97 1901.06,-1108.35 1911,-1105.37"/>
<polygon fill="midnightblue" stroke="midnightblue" points="1673.81,-1329.26 1664.62,-1334.53 1675.09,-1336.14 1673.81,-1329.26"/>
</g>
<!-- Node25 -->
<g id="node25" class="node">
<title>Node25</title>
<g id="a_node25"><a xlink:href="structMoFEM_1_1SnesMethod.html" target="_top" xlink:title="data structure for snes (nonlinear solver) context">
<polygon fill="white" stroke="black" points="1908,-1550.52 1908,-1569.52 2027,-1569.52 2027,-1550.52 1908,-1550.52"/>
<text text-anchor="middle" x="1967.5" y="-1557.52" font-family="Helvetica,sans-Serif" font-size="10.00">MoFEM::SnesMethod</text>
</a>
</g>
</g>
<!-- Node15&#45;&gt;Node25 -->
<g id="edge27" class="edge">
<title>Node15&#45;&gt;Node25</title>
<path fill="none" stroke="darkgreen" d="M1674.71,-1335.32C1688.57,-1338.31 1702.06,-1343.95 1712,-1354.02 1744.35,-1386.77 1697.91,-1423.01 1730,-1456.02 1773.01,-1500.27 1809.78,-1458.56 1866,-1484.02 1903.46,-1500.98 1940.1,-1534.02 1956.92,-1550.37"/>
<polygon fill="darkgreen" stroke="darkgreen" points="1675.04,-1331.82 1664.59,-1333.58 1673.86,-1338.72 1675.04,-1331.82"/>
</g>
<!-- Node28 -->
<g id="node28" class="node">
<title>Node28</title>
<g id="a_node28"><a xlink:href="structMoFEM_1_1TSMethod.html" target="_top" xlink:title="data structure for TS (time stepping) context">
<polygon fill="white" stroke="black" points="1914,-1332.52 1914,-1351.52 2021,-1351.52 2021,-1332.52 1914,-1332.52"/>
<text text-anchor="middle" x="1967.5" y="-1339.52" font-family="Helvetica,sans-Serif" font-size="10.00">MoFEM::TSMethod</text>
</a>
</g>
</g>
<!-- Node15&#45;&gt;Node28 -->
<g id="edge33" class="edge">
<title>Node15&#45;&gt;Node28</title>
<path fill="none" stroke="darkgreen" d="M1674.82,-1336.27C1742.98,-1337.61 1850.16,-1339.72 1913.86,-1340.98"/>
<polygon fill="darkgreen" stroke="darkgreen" points="1674.71,-1332.76 1664.65,-1336.07 1674.58,-1339.76 1674.71,-1332.76"/>
</g>
<!-- Node16 -->
<g id="node16" class="node">
<title>Node16</title>
<g id="a_node16"><a xlink:href="structMoFEM_1_1UnknownInterface.html" target="_top" xlink:title="base class for all interface classes">
<polygon fill="white" stroke="black" points="1204,-1568.52 1204,-1587.52 1352,-1587.52 1352,-1568.52 1204,-1568.52"/>
<text text-anchor="middle" x="1278" y="-1575.52" font-family="Helvetica,sans-Serif" font-size="10.00">MoFEM::UnknownInterface</text>
</a>
</g>
</g>
<!-- Node16&#45;&gt;Node15 -->
<g id="edge15" class="edge">
<title>Node16&#45;&gt;Node15</title>
<path fill="none" stroke="midnightblue" d="M1362.18,-1576.36C1407.06,-1570.84 1459.56,-1556.04 1491,-1519.02 1538.75,-1462.79 1458.92,-1408.18 1509,-1354.02 1521.06,-1340.98 1539.03,-1335.23 1556.45,-1333.06"/>
<polygon fill="midnightblue" stroke="midnightblue" points="1361.69,-1572.89 1352.13,-1577.46 1362.46,-1579.85 1361.69,-1572.89"/>
</g>
<!-- Node56 -->
<g id="node56" class="node">
<title>Node56</title>
<g id="a_node56"><a xlink:href="structMoFEM_1_1CoreInterface.html" target="_top" xlink:title="Interface.">
<polygon fill="white" stroke="black" points="1548,-1727.52 1548,-1746.52 1673,-1746.52 1673,-1727.52 1548,-1727.52"/>
<text text-anchor="middle" x="1610.5" y="-1734.52" font-family="Helvetica,sans-Serif" font-size="10.00">MoFEM::CoreInterface</text>
</a>
</g>
</g>
<!-- Node16&#45;&gt;Node56 -->
<g id="edge67" class="edge">
<title>Node16&#45;&gt;Node56</title>
<path fill="none" stroke="midnightblue" d="M1299.45,-1594.02C1338.07,-1623.41 1425.38,-1685.89 1509,-1718.02 1521.27,-1722.73 1534.84,-1726.31 1547.94,-1729.01"/>
<polygon fill="midnightblue" stroke="midnightblue" points="1301.19,-1590.95 1291.13,-1587.63 1296.92,-1596.5 1301.19,-1590.95"/>
</g>
<!-- Node17 -->
<g id="node17" class="node">
<title>Node17</title>
<g id="a_node17"><a xlink:title=" ">
<polygon fill="white" stroke="#bfbfbf" points="536,-1156.52 536,-1219.52 777,-1219.52 777,-1156.52 536,-1156.52"/>
<text text-anchor="start" x="544" y="-1207.52" font-family="Helvetica,sans-Serif" font-size="10.00">multi_index_container</text>
<text text-anchor="start" x="544" y="-1196.52" font-family="Helvetica,sans-Serif" font-size="10.00">&lt; UIdTypeMap, indexed</text>
<text text-anchor="start" x="544" y="-1185.52" font-family="Helvetica,sans-Serif" font-size="10.00">_by&lt; hashed_unique&lt; member</text>
<text text-anchor="start" x="544" y="-1174.52" font-family="Helvetica,sans-Serif" font-size="10.00">&lt; UIdTypeMap, boost::typeindex</text>
<text text-anchor="middle" x="656.5" y="-1163.52" font-family="Helvetica,sans-Serif" font-size="10.00">::type_index, &amp;UIdTypeMap::classIdx &gt; &gt; &gt; &gt;</text>
</a>
</g>
</g>
<!-- Node17&#45;&gt;Node16 -->
<g id="edge16" class="edge">
<title>Node17&#45;&gt;Node16</title>
<path fill="none" stroke="#9a32cd" stroke-dasharray="5,2" d="M716.39,-1225.09C853.21,-1311.23 1186.6,-1521.11 1261.77,-1568.43"/>
<polygon fill="#9a32cd" stroke="#9a32cd" points="718,-1221.97 707.67,-1219.6 714.27,-1227.89 718,-1221.97"/>
<text text-anchor="middle" x="990.5" y="-1515.02" font-family="Helvetica,sans-Serif" font-size="10.00"> iFaceTypeMap</text>
</g>
<!-- Node18 -->
<g id="node18" class="node">
<title>Node18</title>
<g id="a_node18"><a xlink:title=" ">
<polygon fill="white" stroke="#bfbfbf" points="0,-988.52 0,-1007.52 125,-1007.52 125,-988.52 0,-988.52"/>
<text text-anchor="middle" x="62.5" y="-995.52" font-family="Helvetica,sans-Serif" font-size="10.00">multi_index_container</text>
</a>
</g>
</g>
<!-- Node18&#45;&gt;Node13 -->
<g id="edge40" class="edge">
<title>Node18&#45;&gt;Node13</title>
<path fill="none" stroke="#9a32cd" stroke-dasharray="5,2" d="M135.4,-998.02C246.81,-998.02 467.88,-998.02 655.5,-998.02 655.5,-998.02 655.5,-998.02 1968.5,-998.02 1987.62,-998.02 2246.53,-1096.06 2328.97,-1127.46"/>
<polygon fill="#9a32cd" stroke="#9a32cd" points="135.29,-994.52 125.29,-998.02 135.29,-1001.52 135.29,-994.52"/>
<text text-anchor="middle" x="1430.5" y="-1078.02" font-family="Helvetica,sans-Serif" font-size="10.00"> adjacenciesPtr</text>
<text text-anchor="middle" x="1430.5" y="-1067.02" font-family="Helvetica,sans-Serif" font-size="10.00">refinedEntitiesPtr</text>
<text text-anchor="middle" x="1430.5" y="-1056.02" font-family="Helvetica,sans-Serif" font-size="10.00">finiteElementsEntitiesPtr</text>
<text text-anchor="middle" x="1430.5" y="-1045.02" font-family="Helvetica,sans-Serif" font-size="10.00">dofsPtr</text>
<text text-anchor="middle" x="1430.5" y="-1034.02" font-family="Helvetica,sans-Serif" font-size="10.00">entitiesPtr</text>
<text text-anchor="middle" x="1430.5" y="-1023.02" font-family="Helvetica,sans-Serif" font-size="10.00">finiteElementsPtr</text>
<text text-anchor="middle" x="1430.5" y="-1012.02" font-family="Helvetica,sans-Serif" font-size="10.00">refinedFiniteElementsPtr</text>
<text text-anchor="middle" x="1430.5" y="-1001.02" font-family="Helvetica,sans-Serif" font-size="10.00">fieldsPtr</text>
</g>
<!-- Node18&#45;&gt;Node17 -->
<g id="edge17" class="edge">
<title>Node18&#45;&gt;Node17</title>
<path fill="none" stroke="orange" stroke-dasharray="5,2" d="M102.99,-1010.69C194.75,-1040.14 424.62,-1113.92 557.15,-1156.45"/>
<polygon fill="orange" stroke="orange" points="103.85,-1007.29 93.26,-1007.57 101.72,-1013.96 103.85,-1007.29"/>
<text text-anchor="start" x="218" y="-1179.02" font-family="Helvetica,sans-Serif" font-size="10.00"> &lt; UIdTypeMap, indexed</text>
<text text-anchor="start" x="218" y="-1168.02" font-family="Helvetica,sans-Serif" font-size="10.00">_by&lt; hashed_unique&lt; member</text>
<text text-anchor="start" x="218" y="-1157.02" font-family="Helvetica,sans-Serif" font-size="10.00">&lt; UIdTypeMap, boost::typeindex</text>
<text text-anchor="middle" x="330.5" y="-1146.02" font-family="Helvetica,sans-Serif" font-size="10.00">::type_index, &amp;UIdTypeMap::classIdx &gt; &gt; &gt; &gt;</text>
</g>
<!-- Node76 -->
<g id="node76" class="node">
<title>Node76</title>
<g id="a_node76"><a xlink:title=" ">
<polygon fill="white" stroke="#bfbfbf" points="795,-363.02 795,-525.02 1186,-525.02 1186,-363.02 795,-363.02"/>
<text text-anchor="start" x="803" y="-513.02" font-family="Helvetica,sans-Serif" font-size="10.00">multi_index_container</text>
<text text-anchor="start" x="803" y="-502.02" font-family="Helvetica,sans-Serif" font-size="10.00">&lt; MultiIndexData, indexed</text>
<text text-anchor="start" x="803" y="-491.02" font-family="Helvetica,sans-Serif" font-size="10.00">_by&lt; ordered_non_unique</text>
<text text-anchor="start" x="803" y="-480.02" font-family="Helvetica,sans-Serif" font-size="10.00">&lt; BOOST_MULTI_INDEX_MEMBER</text>
<text text-anchor="start" x="803" y="-469.02" font-family="Helvetica,sans-Serif" font-size="10.00">(MultiIndexData, int, MultiIndexData</text>
<text text-anchor="start" x="803" y="-458.02" font-family="Helvetica,sans-Serif" font-size="10.00">::gG)&gt;, ordered_non_unique&lt; BOOST</text>
<text text-anchor="start" x="803" y="-447.02" font-family="Helvetica,sans-Serif" font-size="10.00">_MULTI_INDEX_MEMBER(MultiIndexData,</text>
<text text-anchor="start" x="803" y="-436.02" font-family="Helvetica,sans-Serif" font-size="10.00"> int, MultiIndexData::sIde)&gt;, ordered</text>
<text text-anchor="start" x="803" y="-425.02" font-family="Helvetica,sans-Serif" font-size="10.00">_non_unique&lt; BOOST_MULTI_INDEX_MEMBER</text>
<text text-anchor="start" x="803" y="-414.02" font-family="Helvetica,sans-Serif" font-size="10.00">(MultiIndexData, EntityType, MultiIndexData</text>
<text text-anchor="start" x="803" y="-403.02" font-family="Helvetica,sans-Serif" font-size="10.00">::tYpe)&gt;, ordered_unique&lt; composite_key&lt; MultiIndexData,</text>
<text text-anchor="start" x="803" y="-392.02" font-family="Helvetica,sans-Serif" font-size="10.00"> member&lt; MultiIndexData, int, &amp;MultiIndexData::gG</text>
<text text-anchor="start" x="803" y="-381.02" font-family="Helvetica,sans-Serif" font-size="10.00"> &gt;, member&lt; MultiIndexData, int, &amp;MultiIndexData::sIde</text>
<text text-anchor="middle" x="990.5" y="-370.02" font-family="Helvetica,sans-Serif" font-size="10.00"> &gt;, member&lt; MultiIndexData, EntityType, &amp;MultiIndexData::tYpe &gt; &gt; &gt; &gt; &gt;</text>
</a>
</g>
</g>
<!-- Node18&#45;&gt;Node76 -->
<g id="edge91" class="edge">
<title>Node18&#45;&gt;Node76</title>
<path fill="none" stroke="orange" stroke-dasharray="5,2" d="M68.8,-978.55C78.51,-946.15 102.02,-880.78 143,-841.02 327.5,-662 607.7,-552.54 794.58,-495.09"/>
<polygon fill="orange" stroke="orange" points="65.42,-977.62 66.03,-988.2 72.15,-979.55 65.42,-977.62"/>
<text text-anchor="start" x="143" y="-976.02" font-family="Helvetica,sans-Serif" font-size="10.00"> &lt; MultiIndexData, indexed</text>
<text text-anchor="start" x="143" y="-965.02" font-family="Helvetica,sans-Serif" font-size="10.00">_by&lt; ordered_non_unique</text>
<text text-anchor="start" x="143" y="-954.02" font-family="Helvetica,sans-Serif" font-size="10.00">&lt; BOOST_MULTI_INDEX_MEMBER</text>
<text text-anchor="start" x="143" y="-943.02" font-family="Helvetica,sans-Serif" font-size="10.00">(MultiIndexData, int, MultiIndexData</text>
<text text-anchor="start" x="143" y="-932.02" font-family="Helvetica,sans-Serif" font-size="10.00">::gG)&gt;, ordered_non_unique&lt; BOOST</text>
<text text-anchor="start" x="143" y="-921.02" font-family="Helvetica,sans-Serif" font-size="10.00">_MULTI_INDEX_MEMBER(MultiIndexData,</text>
<text text-anchor="start" x="143" y="-910.02" font-family="Helvetica,sans-Serif" font-size="10.00"> int, MultiIndexData::sIde)&gt;, ordered</text>
<text text-anchor="start" x="143" y="-899.02" font-family="Helvetica,sans-Serif" font-size="10.00">_non_unique&lt; BOOST_MULTI_INDEX_MEMBER</text>
<text text-anchor="start" x="143" y="-888.02" font-family="Helvetica,sans-Serif" font-size="10.00">(MultiIndexData, EntityType, MultiIndexData</text>
<text text-anchor="start" x="143" y="-877.02" font-family="Helvetica,sans-Serif" font-size="10.00">::tYpe)&gt;, ordered_unique&lt; composite_key&lt; MultiIndexData,</text>
<text text-anchor="start" x="143" y="-866.02" font-family="Helvetica,sans-Serif" font-size="10.00"> member&lt; MultiIndexData, int, &amp;MultiIndexData::gG</text>
<text text-anchor="start" x="143" y="-855.02" font-family="Helvetica,sans-Serif" font-size="10.00"> &gt;, member&lt; MultiIndexData, int, &amp;MultiIndexData::sIde</text>
<text text-anchor="middle" x="330.5" y="-844.02" font-family="Helvetica,sans-Serif" font-size="10.00"> &gt;, member&lt; MultiIndexData, EntityType, &amp;MultiIndexData::tYpe &gt; &gt; &gt; &gt; &gt;</text>
</g>
<!-- Node19 -->
<g id="node19" class="node">
<title>Node19</title>
<g id="a_node19"><a xlink:title=" ">
<polygon fill="white" stroke="#bfbfbf" points="1207.5,-1278.52 1207.5,-1297.52 1348.5,-1297.52 1348.5,-1278.52 1207.5,-1278.52"/>
<text text-anchor="middle" x="1278" y="-1285.52" font-family="Helvetica,sans-Serif" font-size="10.00">static constexpr Switches</text>
</a>
</g>
</g>
<!-- Node19&#45;&gt;Node15 -->
<g id="edge18" class="edge">
<title>Node19&#45;&gt;Node15</title>
<path fill="none" stroke="#9a32cd" stroke-dasharray="5,2" d="M1359,-1296.81C1398.75,-1301.44 1447.48,-1307.5 1491,-1314.02 1513.42,-1317.38 1538.12,-1321.66 1559.14,-1325.48"/>
<polygon fill="#9a32cd" stroke="#9a32cd" points="1359.17,-1293.3 1348.83,-1295.63 1358.36,-1300.26 1359.17,-1293.3"/>
<text text-anchor="middle" x="1430.5" y="-1394.02" font-family="Helvetica,sans-Serif" font-size="10.00"> CtxSetX_TT</text>
<text text-anchor="middle" x="1430.5" y="-1383.02" font-family="Helvetica,sans-Serif" font-size="10.00">CtxSetX_T</text>
<text text-anchor="middle" x="1430.5" y="-1372.02" font-family="Helvetica,sans-Serif" font-size="10.00">CtxSetA</text>
<text text-anchor="middle" x="1430.5" y="-1361.02" font-family="Helvetica,sans-Serif" font-size="10.00">CtxSetB</text>
<text text-anchor="middle" x="1430.5" y="-1350.02" font-family="Helvetica,sans-Serif" font-size="10.00">CtxSetTime</text>
<text text-anchor="middle" x="1430.5" y="-1339.02" font-family="Helvetica,sans-Serif" font-size="10.00">CtxSetNone</text>
<text text-anchor="middle" x="1430.5" y="-1328.02" font-family="Helvetica,sans-Serif" font-size="10.00">CtxSetF</text>
<text text-anchor="middle" x="1430.5" y="-1317.02" font-family="Helvetica,sans-Serif" font-size="10.00">CtxSetX</text>
</g>
<!-- Node20 -->
<g id="node20" class="node">
<title>Node20</title>
<g id="a_node20"><a xlink:title=" ">
<polygon fill="white" stroke="#bfbfbf" points="1260.5,-1491.52 1260.5,-1510.52 1295.5,-1510.52 1295.5,-1491.52 1260.5,-1491.52"/>
<text text-anchor="middle" x="1278" y="-1498.52" font-family="Helvetica,sans-Serif" font-size="10.00">Mat</text>
</a>
</g>
</g>
<!-- Node20&#45;&gt;Node14 -->
<g id="edge24" class="edge">
<title>Node20&#45;&gt;Node14</title>
<path fill="none" stroke="#9a32cd" stroke-dasharray="5,2" d="M1303.55,-1485.77C1318.98,-1475.23 1338.46,-1460.08 1352,-1443.02 1363.62,-1428.38 1355.44,-1416.74 1370,-1405.02 1412.99,-1370.4 1454.78,-1418.67 1491,-1377.02 1520.86,-1342.67 1477.38,-1205.75 1509,-1173.02 1536.77,-1144.27 1827.74,-1140.57 1866,-1129.02 1874.56,-1126.43 1875.58,-1123.04 1884,-1120.02 1894.24,-1116.34 1905.45,-1113.2 1916.22,-1110.6"/>
<polygon fill="#9a32cd" stroke="#9a32cd" points="1301.41,-1482.98 1295,-1491.42 1305.28,-1488.82 1301.41,-1482.98"/>
<text text-anchor="middle" x="1610.5" y="-1187.02" font-family="Helvetica,sans-Serif" font-size="10.00"> ksp_A</text>
<text text-anchor="middle" x="1610.5" y="-1176.02" font-family="Helvetica,sans-Serif" font-size="10.00">ksp_B</text>
</g>
<!-- Node20&#45;&gt;Node15 -->
<g id="edge19" class="edge">
<title>Node20&#45;&gt;Node15</title>
<path fill="none" stroke="#9a32cd" stroke-dasharray="5,2" d="M1305.88,-1500.95C1351.06,-1499.29 1442.07,-1489.1 1491,-1436.02 1516.29,-1408.58 1482.23,-1380.01 1509,-1354.02 1521.55,-1341.83 1539.32,-1336.21 1556.43,-1333.91"/>
<polygon fill="#9a32cd" stroke="#9a32cd" points="1305.6,-1497.45 1295.69,-1501.2 1305.77,-1504.45 1305.6,-1497.45"/>
<text text-anchor="middle" x="1430.5" y="-1507.02" font-family="Helvetica,sans-Serif" font-size="10.00"> A</text>
<text text-anchor="middle" x="1430.5" y="-1496.02" font-family="Helvetica,sans-Serif" font-size="10.00">B</text>
</g>
<!-- Node20&#45;&gt;Node25 -->
<g id="edge29" class="edge">
<title>Node20&#45;&gt;Node25</title>
<path fill="none" stroke="#9a32cd" stroke-dasharray="5,2" d="M1296.05,-1517.86C1313.17,-1533.6 1341.08,-1556.24 1370,-1567.02 1568.94,-1641.17 1831.77,-1592.08 1928.6,-1569.57"/>
<polygon fill="#9a32cd" stroke="#9a32cd" points="1298.23,-1515.1 1288.56,-1510.77 1293.42,-1520.18 1298.23,-1515.1"/>
<text text-anchor="middle" x="1610.5" y="-1620.02" font-family="Helvetica,sans-Serif" font-size="10.00"> snes_A</text>
<text text-anchor="middle" x="1610.5" y="-1609.02" font-family="Helvetica,sans-Serif" font-size="10.00">snes_B</text>
</g>
<!-- Node20&#45;&gt;Node28 -->
<g id="edge34" class="edge">
<title>Node20&#45;&gt;Node28</title>
<path fill="none" stroke="#9a32cd" stroke-dasharray="5,2" d="M1305.9,-1505.64C1374.15,-1516.63 1559.45,-1541.92 1712,-1521.02 1782.4,-1511.37 1818.85,-1531.18 1866,-1478.02 1900.91,-1438.66 1848.19,-1399.57 1884,-1361.02 1891.8,-1352.62 1902.51,-1347.57 1913.63,-1344.62"/>
<polygon fill="#9a32cd" stroke="#9a32cd" points="1306.05,-1502.12 1295.62,-1503.95 1304.91,-1509.02 1306.05,-1502.12"/>
<text text-anchor="middle" x="1610.5" y="-1543.02" font-family="Helvetica,sans-Serif" font-size="10.00"> ts_A</text>
<text text-anchor="middle" x="1610.5" y="-1532.02" font-family="Helvetica,sans-Serif" font-size="10.00">ts_B</text>
</g>
<!-- Node21 -->
<g id="node21" class="node">
<title>Node21</title>
<g id="a_node21"><a xlink:title=" ">
<polygon fill="white" stroke="#bfbfbf" points="1241.5,-1414.52 1241.5,-1433.52 1314.5,-1433.52 1314.5,-1414.52 1241.5,-1414.52"/>
<text text-anchor="middle" x="1278" y="-1421.52" font-family="Helvetica,sans-Serif" font-size="10.00">bitset&lt; 8 &gt;</text>
</a>
</g>
</g>
<!-- Node21&#45;&gt;Node15 -->
<g id="edge20" class="edge">
<title>Node21&#45;&gt;Node15</title>
<path fill="none" stroke="#9a32cd" stroke-dasharray="5,2" d="M1324.88,-1424.75C1379.33,-1424.69 1465.9,-1421.41 1491,-1402.02 1509.03,-1388.09 1491.57,-1368.69 1509,-1354.02 1522.11,-1342.99 1539.62,-1337.57 1556.35,-1335.11"/>
<polygon fill="#9a32cd" stroke="#9a32cd" points="1324.79,-1421.25 1314.78,-1424.72 1324.77,-1428.25 1324.79,-1421.25"/>
<text text-anchor="middle" x="1430.5" y="-1426.02" font-family="Helvetica,sans-Serif" font-size="10.00"> data_ctx</text>
</g>
<!-- Node22 -->
<g id="node22" class="node">
<title>Node22</title>
<g id="a_node22"><a xlink:title=" ">
<polygon fill="white" stroke="#bfbfbf" points="1261,-1194.52 1261,-1213.52 1295,-1213.52 1295,-1194.52 1261,-1194.52"/>
<text text-anchor="middle" x="1278" y="-1201.52" font-family="Helvetica,sans-Serif" font-size="10.00">Vec</text>
</a>
</g>
</g>
<!-- Node22&#45;&gt;Node14 -->
<g id="edge25" class="edge">
<title>Node22&#45;&gt;Node14</title>
<path fill="none" stroke="#9a32cd" stroke-dasharray="5,2" d="M1301.27,-1188.7C1340.89,-1162.49 1427.16,-1110.04 1509,-1091.02 1652.35,-1057.7 1827.8,-1077.84 1913.83,-1091.52"/>
<polygon fill="#9a32cd" stroke="#9a32cd" points="1299.03,-1185.99 1292.67,-1194.47 1302.93,-1191.81 1299.03,-1185.99"/>
<text text-anchor="middle" x="1610.5" y="-1094.02" font-family="Helvetica,sans-Serif" font-size="10.00"> ksp_f</text>
</g>
<!-- Node22&#45;&gt;Node15 -->
<g id="edge21" class="edge">
<title>Node22&#45;&gt;Node15</title>
<path fill="none" stroke="#9a32cd" stroke-dasharray="5,2" d="M1305.06,-1201.71C1349.38,-1199.32 1439.64,-1201.29 1491,-1250.02 1513.06,-1270.94 1486.66,-1295.39 1509,-1316.02 1521.72,-1327.76 1539.33,-1333.32 1556.26,-1335.7"/>
<polygon fill="#9a32cd" stroke="#9a32cd" points="1304.82,-1198.22 1295.08,-1202.37 1305.28,-1205.21 1304.82,-1198.22"/>
<text text-anchor="middle" x="1430.5" y="-1286.02" font-family="Helvetica,sans-Serif" font-size="10.00"> f</text>
<text text-anchor="middle" x="1430.5" y="-1275.02" font-family="Helvetica,sans-Serif" font-size="10.00">x</text>
<text text-anchor="middle" x="1430.5" y="-1264.02" font-family="Helvetica,sans-Serif" font-size="10.00">x_t</text>
<text text-anchor="middle" x="1430.5" y="-1253.02" font-family="Helvetica,sans-Serif" font-size="10.00">x_tt</text>
</g>
<!-- Node22&#45;&gt;Node25 -->
<g id="edge30" class="edge">
<title>Node22&#45;&gt;Node25</title>
<path fill="none" stroke="#9a32cd" stroke-dasharray="5,2" d="M1303.81,-1218.86C1320.51,-1230.31 1341.36,-1247.76 1352,-1269.02 1373.16,-1311.3 1335.84,-1448.33 1370,-1481.02 1383.74,-1494.17 1693.18,-1492.26 1712,-1495.02 1795.25,-1507.22 1890.69,-1535.59 1937.51,-1550.49"/>
<polygon fill="#9a32cd" stroke="#9a32cd" points="1305.33,-1215.67 1295.05,-1213.13 1301.5,-1221.53 1305.33,-1215.67"/>
<text text-anchor="middle" x="1610.5" y="-1509.02" font-family="Helvetica,sans-Serif" font-size="10.00"> snes_x</text>
<text text-anchor="middle" x="1610.5" y="-1498.02" font-family="Helvetica,sans-Serif" font-size="10.00">snes_f</text>
</g>
<!-- Node22&#45;&gt;Node28 -->
<g id="edge38" class="edge">
<title>Node22&#45;&gt;Node28</title>
<path fill="none" stroke="#9a32cd" stroke-dasharray="5,2" d="M1305.49,-1201.72C1391.08,-1195.38 1666.2,-1183.71 1866,-1274.02 1901.13,-1289.9 1937.39,-1317.82 1955.21,-1332.46"/>
<polygon fill="#9a32cd" stroke="#9a32cd" points="1305.05,-1198.24 1295.35,-1202.51 1305.59,-1205.22 1305.05,-1198.24"/>
<text text-anchor="middle" x="1610.5" y="-1259.02" font-family="Helvetica,sans-Serif" font-size="10.00"> ts_u</text>
<text text-anchor="middle" x="1610.5" y="-1248.02" font-family="Helvetica,sans-Serif" font-size="10.00">ts_F</text>
<text text-anchor="middle" x="1610.5" y="-1237.02" font-family="Helvetica,sans-Serif" font-size="10.00">ts_u_t</text>
<text text-anchor="middle" x="1610.5" y="-1226.02" font-family="Helvetica,sans-Serif" font-size="10.00">ts_u_tt</text>
</g>
<!-- Node23 -->
<g id="node23" class="node">
<title>Node23</title>
<g id="a_node23"><a xlink:title=" ">
<polygon fill="white" stroke="#bfbfbf" points="1593,-1111.52 1593,-1130.52 1628,-1130.52 1628,-1111.52 1593,-1111.52"/>
<text text-anchor="middle" x="1610.5" y="-1118.52" font-family="Helvetica,sans-Serif" font-size="10.00">KSP</text>
</a>
</g>
</g>
<!-- Node23&#45;&gt;Node14 -->
<g id="edge22" class="edge">
<title>Node23&#45;&gt;Node14</title>
<path fill="none" stroke="#9a32cd" stroke-dasharray="5,2" d="M1638.29,-1119.51C1696.06,-1116.25 1833.41,-1108.52 1910.88,-1104.15"/>
<polygon fill="#9a32cd" stroke="#9a32cd" points="1637.93,-1116.02 1628.15,-1120.08 1638.33,-1123.01 1637.93,-1116.02"/>
<text text-anchor="middle" x="1798" y="-1117.02" font-family="Helvetica,sans-Serif" font-size="10.00"> ksp</text>
</g>
<!-- Node24 -->
<g id="node24" class="node">
<title>Node24</title>
<g id="a_node24"><a xlink:title=" ">
<polygon fill="white" stroke="#bfbfbf" points="1573.5,-1026.52 1573.5,-1045.52 1647.5,-1045.52 1647.5,-1026.52 1573.5,-1026.52"/>
<text text-anchor="middle" x="1610.5" y="-1033.52" font-family="Helvetica,sans-Serif" font-size="10.00">KSPContext</text>
</a>
</g>
</g>
<!-- Node24&#45;&gt;Node14 -->
<g id="edge23" class="edge">
<title>Node24&#45;&gt;Node14</title>
<path fill="none" stroke="#9a32cd" stroke-dasharray="5,2" d="M1657.67,-1035.3C1709.24,-1035.53 1794.82,-1039.03 1866,-1057.02 1896.65,-1064.76 1929.81,-1080.96 1949.34,-1091.4"/>
<polygon fill="#9a32cd" stroke="#9a32cd" points="1657.52,-1031.8 1647.51,-1035.29 1657.51,-1038.8 1657.52,-1031.8"/>
<text text-anchor="middle" x="1798" y="-1060.02" font-family="Helvetica,sans-Serif" font-size="10.00"> ksp_ctx</text>
</g>
<!-- Node25&#45;&gt;Node13 -->
<g id="edge26" class="edge">
<title>Node25&#45;&gt;Node13</title>
<path fill="none" stroke="midnightblue" d="M2017.22,-1547.67C2082.6,-1528.29 2196.65,-1483.95 2250,-1400.02 2277.38,-1356.94 2237.66,-1212.07 2268,-1171.02 2276.68,-1159.27 2290.06,-1151.57 2303.7,-1146.54"/>
<polygon fill="midnightblue" stroke="midnightblue" points="2016.19,-1544.33 2007.55,-1550.46 2018.13,-1551.05 2016.19,-1544.33"/>
</g>
<!-- Node26 -->
<g id="node26" class="node">
<title>Node26</title>
<g id="a_node26"><a xlink:title=" ">
<polygon fill="white" stroke="#bfbfbf" points="1589.5,-1689.52 1589.5,-1708.52 1631.5,-1708.52 1631.5,-1689.52 1589.5,-1689.52"/>
<text text-anchor="middle" x="1610.5" y="-1696.52" font-family="Helvetica,sans-Serif" font-size="10.00">SNES</text>
</a>
</g>
</g>
<!-- Node26&#45;&gt;Node25 -->
<g id="edge28" class="edge">
<title>Node26&#45;&gt;Node25</title>
<path fill="none" stroke="#9a32cd" stroke-dasharray="5,2" d="M1641.75,-1701.96C1691.49,-1705.42 1792.34,-1706.59 1866,-1669.02 1912.09,-1645.51 1947.76,-1591.72 1960.96,-1569.69"/>
<polygon fill="#9a32cd" stroke="#9a32cd" points="1641.91,-1698.46 1631.66,-1701.17 1641.36,-1705.44 1641.91,-1698.46"/>
<text text-anchor="middle" x="1798" y="-1704.02" font-family="Helvetica,sans-Serif" font-size="10.00"> snes</text>
</g>
<!-- Node27 -->
<g id="node27" class="node">
<title>Node27</title>
<g id="a_node27"><a xlink:title=" ">
<polygon fill="white" stroke="#bfbfbf" points="1570.5,-1651.52 1570.5,-1670.52 1650.5,-1670.52 1650.5,-1651.52 1570.5,-1651.52"/>
<text text-anchor="middle" x="1610.5" y="-1658.52" font-family="Helvetica,sans-Serif" font-size="10.00">SNESContext</text>
</a>
</g>
</g>
<!-- Node27&#45;&gt;Node25 -->
<g id="edge31" class="edge">
<title>Node27&#45;&gt;Node25</title>
<path fill="none" stroke="#9a32cd" stroke-dasharray="5,2" d="M1660.76,-1660.29C1713.18,-1658.11 1797.8,-1650.48 1866,-1625.02 1901.62,-1611.72 1937.67,-1584.22 1955.33,-1569.62"/>
<polygon fill="#9a32cd" stroke="#9a32cd" points="1660.58,-1656.8 1650.72,-1660.66 1660.84,-1663.79 1660.58,-1656.8"/>
<text text-anchor="middle" x="1798" y="-1657.02" font-family="Helvetica,sans-Serif" font-size="10.00"> snes_ctx</text>
</g>
<!-- Node28&#45;&gt;Node13 -->
<g id="edge32" class="edge">
<title>Node28&#45;&gt;Node13</title>
<path fill="none" stroke="midnightblue" d="M2031.3,-1344.22C2095.69,-1342.84 2194.1,-1330.01 2250,-1270.02 2280.49,-1237.3 2239.63,-1205.59 2268,-1171.02 2277.57,-1159.35 2291.71,-1151.67 2305.77,-1146.62"/>
<polygon fill="midnightblue" stroke="midnightblue" points="2031.22,-1340.72 2021.26,-1344.35 2031.31,-1347.72 2031.22,-1340.72"/>
</g>
<!-- Node29 -->
<g id="node29" class="node">
<title>Node29</title>
<g id="a_node29"><a xlink:title=" ">
<polygon fill="white" stroke="#bfbfbf" points="1578,-1287.52 1578,-1306.52 1643,-1306.52 1643,-1287.52 1578,-1287.52"/>
<text text-anchor="middle" x="1610.5" y="-1294.52" font-family="Helvetica,sans-Serif" font-size="10.00">PetscReal</text>
</a>
</g>
</g>
<!-- Node29&#45;&gt;Node28 -->
<g id="edge35" class="edge">
<title>Node29&#45;&gt;Node28</title>
<path fill="none" stroke="#9a32cd" stroke-dasharray="5,2" d="M1653.01,-1288.91C1703.99,-1280.5 1792.74,-1270.88 1866,-1289.02 1899.89,-1297.41 1934.96,-1319.53 1953.38,-1332.39"/>
<polygon fill="#9a32cd" stroke="#9a32cd" points="1652.29,-1285.48 1643.02,-1290.62 1653.47,-1292.38 1652.29,-1285.48"/>
<text text-anchor="middle" x="1798" y="-1325.02" font-family="Helvetica,sans-Serif" font-size="10.00"> ts_a</text>
<text text-anchor="middle" x="1798" y="-1314.02" font-family="Helvetica,sans-Serif" font-size="10.00">ts_t</text>
<text text-anchor="middle" x="1798" y="-1303.02" font-family="Helvetica,sans-Serif" font-size="10.00">ts_dt</text>
<text text-anchor="middle" x="1798" y="-1292.02" font-family="Helvetica,sans-Serif" font-size="10.00">ts_aa</text>
</g>
<!-- Node30 -->
<g id="node30" class="node">
<title>Node30</title>
<g id="a_node30"><a xlink:title=" ">
<polygon fill="white" stroke="#bfbfbf" points="1577,-1439.52 1577,-1458.52 1644,-1458.52 1644,-1439.52 1577,-1439.52"/>
<text text-anchor="middle" x="1610.5" y="-1446.52" font-family="Helvetica,sans-Serif" font-size="10.00">TSContext</text>
</a>
</g>
</g>
<!-- Node30&#45;&gt;Node28 -->
<g id="edge36" class="edge">
<title>Node30&#45;&gt;Node28</title>
<path fill="none" stroke="#9a32cd" stroke-dasharray="5,2" d="M1654.57,-1457.68C1710.08,-1466.18 1806.52,-1471.59 1866,-1422.02 1887.71,-1403.92 1863.42,-1380.39 1884,-1361.02 1892.24,-1353.26 1902.99,-1348.45 1913.99,-1345.52"/>
<polygon fill="#9a32cd" stroke="#9a32cd" points="1654.8,-1454.17 1644.37,-1456.01 1653.67,-1461.08 1654.8,-1454.17"/>
<text text-anchor="middle" x="1798" y="-1466.02" font-family="Helvetica,sans-Serif" font-size="10.00"> ts_ctx</text>
</g>
<!-- Node31 -->
<g id="node31" class="node">
<title>Node31</title>
<g id="a_node31"><a xlink:title=" ">
<polygon fill="white" stroke="#bfbfbf" points="1582.5,-1401.52 1582.5,-1420.52 1638.5,-1420.52 1638.5,-1401.52 1582.5,-1401.52"/>
<text text-anchor="middle" x="1610.5" y="-1408.52" font-family="Helvetica,sans-Serif" font-size="10.00">PetscInt</text>
</a>
</g>
</g>
<!-- Node31&#45;&gt;Node28 -->
<g id="edge37" class="edge">
<title>Node31&#45;&gt;Node28</title>
<path fill="none" stroke="#9a32cd" stroke-dasharray="5,2" d="M1648.97,-1413.19C1700.45,-1414.65 1794.78,-1411.8 1866,-1378.02 1875.94,-1373.3 1874.3,-1366.21 1884,-1361.02 1893.2,-1356.09 1903.64,-1352.44 1913.93,-1349.73"/>
<polygon fill="#9a32cd" stroke="#9a32cd" points="1648.77,-1409.68 1638.66,-1412.82 1648.52,-1416.67 1648.77,-1409.68"/>
<text text-anchor="middle" x="1798" y="-1413.02" font-family="Helvetica,sans-Serif" font-size="10.00"> ts_step</text>
</g>
<!-- Node32 -->
<g id="node32" class="node">
<title>Node32</title>
<g id="a_node32"><a xlink:title=" ">
<polygon fill="white" stroke="#bfbfbf" points="1596,-1363.52 1596,-1382.52 1625,-1382.52 1625,-1363.52 1596,-1363.52"/>
<text text-anchor="middle" x="1610.5" y="-1370.52" font-family="Helvetica,sans-Serif" font-size="10.00">TS</text>
</a>
</g>
</g>
<!-- Node32&#45;&gt;Node28 -->
<g id="edge39" class="edge">
<title>Node32&#45;&gt;Node28</title>
<path fill="none" stroke="#9a32cd" stroke-dasharray="5,2" d="M1635.22,-1371.19C1680.24,-1367.7 1781.14,-1359.74 1866,-1352.02 1881.54,-1350.6 1898.42,-1348.96 1913.84,-1347.43"/>
<polygon fill="#9a32cd" stroke="#9a32cd" points="1634.73,-1367.72 1625.03,-1371.98 1635.27,-1374.7 1634.73,-1367.72"/>
<text text-anchor="middle" x="1798" y="-1366.02" font-family="Helvetica,sans-Serif" font-size="10.00"> ts</text>
</g>
<!-- Node33 -->
<g id="node33" class="node">
<title>Node33</title>
<g id="a_node33"><a xlink:title=" ">
<polygon fill="white" stroke="#bfbfbf" points="1923,-1370.52 1923,-1389.52 2012,-1389.52 2012,-1370.52 1923,-1370.52"/>
<text text-anchor="middle" x="1967.5" y="-1377.52" font-family="Helvetica,sans-Serif" font-size="10.00">pair&lt; int, int &gt;</text>
</a>
</g>
</g>
<!-- Node33&#45;&gt;Node13 -->
<g id="edge41" class="edge">
<title>Node33&#45;&gt;Node13</title>
<path fill="none" stroke="#9a32cd" stroke-dasharray="5,2" d="M2022.48,-1385.45C2086.73,-1388.64 2192.52,-1382.91 2250,-1320.02 2295,-1270.78 2227.25,-1223.82 2268,-1171.02 2277.02,-1159.32 2290.67,-1151.64 2304.45,-1146.6"/>
<polygon fill="#9a32cd" stroke="#9a32cd" points="2022.34,-1381.94 2012.15,-1384.85 2021.93,-1388.93 2022.34,-1381.94"/>
<text text-anchor="middle" x="2159.5" y="-1388.02" font-family="Helvetica,sans-Serif" font-size="10.00"> loHiFERank</text>
</g>
<!-- Node34 -->
<g id="node34" class="node">
<title>Node34</title>
<g id="a_node34"><a xlink:title=" ">
<polygon fill="white" stroke="#bfbfbf" points="1897.5,-1228.52 1897.5,-1247.52 2037.5,-1247.52 2037.5,-1228.52 1897.5,-1228.52"/>
<text text-anchor="middle" x="1967.5" y="-1235.52" font-family="Helvetica,sans-Serif" font-size="10.00">weak_ptr&lt; CacheTuple &gt;</text>
</a>
</g>
</g>
<!-- Node34&#45;&gt;Node13 -->
<g id="edge42" class="edge">
<title>Node34&#45;&gt;Node13</title>
<path fill="none" stroke="#9a32cd" stroke-dasharray="5,2" d="M2021.61,-1249.26C2082.84,-1259.02 2183.55,-1264.89 2250,-1216.02 2267.35,-1203.26 2252.74,-1186.22 2268,-1171.02 2279.6,-1159.46 2295.61,-1151.72 2310.68,-1146.58"/>
<polygon fill="#9a32cd" stroke="#9a32cd" points="2021.84,-1245.75 2011.4,-1247.53 2020.68,-1252.65 2021.84,-1245.75"/>
<text text-anchor="middle" x="2159.5" y="-1258.02" font-family="Helvetica,sans-Serif" font-size="10.00"> cacheWeakPtr</text>
</g>
<!-- Node35 -->
<g id="node35" class="node">
<title>Node35</title>
<g id="a_node35"><a xlink:title=" ">
<polygon fill="white" stroke="#bfbfbf" points="1911.5,-1183.52 1911.5,-1202.52 2023.5,-1202.52 2023.5,-1183.52 1911.5,-1183.52"/>
<text text-anchor="middle" x="1967.5" y="-1190.52" font-family="Helvetica,sans-Serif" font-size="10.00">unique_ptr&lt; bool &gt;</text>
</a>
</g>
</g>
<!-- Node35&#45;&gt;Node13 -->
<g id="edge43" class="edge">
<title>Node35&#45;&gt;Node13</title>
<path fill="none" stroke="#9a32cd" stroke-dasharray="5,2" d="M2033.55,-1192.31C2090.99,-1190.65 2176.76,-1185.63 2250,-1171.02 2278.13,-1165.4 2309.26,-1154.58 2330.06,-1146.65"/>
<polygon fill="#9a32cd" stroke="#9a32cd" points="2033.42,-1188.81 2023.52,-1192.57 2033.61,-1195.81 2033.42,-1188.81"/>
<text text-anchor="middle" x="2159.5" y="-1205.02" font-family="Helvetica,sans-Serif" font-size="10.00"> matAssembleSwitch</text>
<text text-anchor="middle" x="2159.5" y="-1194.02" font-family="Helvetica,sans-Serif" font-size="10.00">vecAssembleSwitch</text>
</g>
<!-- Node36 -->
<g id="node36" class="node">
<title>Node36</title>
<g id="a_node36"><a xlink:title=" ">
<polygon fill="white" stroke="#bfbfbf" points="1596,-766.52 1596,-785.52 1625,-785.52 1625,-766.52 1596,-766.52"/>
<text text-anchor="middle" x="1610.5" y="-773.52" font-family="Helvetica,sans-Serif" font-size="10.00">int</text>
</a>
</g>
</g>
<!-- Node36&#45;&gt;Node13 -->
<g id="edge44" class="edge">
<title>Node36&#45;&gt;Node13</title>
<path fill="none" stroke="#9a32cd" stroke-dasharray="5,2" d="M1633.81,-789.44C1655.63,-803.36 1688.88,-826.74 1712,-853.02 1722.52,-864.98 1716.93,-874.91 1730,-884.02 1744.85,-894.37 2033.24,-936.51 2051,-940.02 2139.86,-957.58 2188.15,-917.84 2250,-984.02 2286.53,-1023.1 2234.69,-1061.16 2268,-1103.02 2277.3,-1114.7 2291.19,-1122.38 2305.11,-1127.43"/>
<polygon fill="#9a32cd" stroke="#9a32cd" points="1635.55,-786.4 1625.21,-784.07 1631.84,-792.34 1635.55,-786.4"/>
<text text-anchor="middle" x="1967.5" y="-976.02" font-family="Helvetica,sans-Serif" font-size="10.00"> sIze</text>
<text text-anchor="middle" x="1967.5" y="-965.02" font-family="Helvetica,sans-Serif" font-size="10.00">loopSize</text>
<text text-anchor="middle" x="1967.5" y="-954.02" font-family="Helvetica,sans-Serif" font-size="10.00">nInTheLoop</text>
<text text-anchor="middle" x="1967.5" y="-943.02" font-family="Helvetica,sans-Serif" font-size="10.00">rAnk</text>
</g>
<!-- Node36&#45;&gt;Node38 -->
<g id="edge56" class="edge">
<title>Node36&#45;&gt;Node38</title>
<path fill="none" stroke="#9a32cd" stroke-dasharray="5,2" d="M1635.54,-775.46C1690.77,-773.88 1825.1,-768.23 1866,-750.02 1908.15,-731.26 1944.67,-687.88 1959.47,-668.58"/>
<polygon fill="#9a32cd" stroke="#9a32cd" points="1635.21,-771.97 1625.31,-775.73 1635.4,-778.97 1635.21,-771.97"/>
<text text-anchor="middle" x="1798" y="-840.02" font-family="Helvetica,sans-Serif" font-size="10.00"> tagNameSize</text>
<text text-anchor="middle" x="1798" y="-829.02" font-family="Helvetica,sans-Serif" font-size="10.00">nbDofsRow</text>
<text text-anchor="middle" x="1798" y="-818.02" font-family="Helvetica,sans-Serif" font-size="10.00">nbLocDofsCol</text>
<text text-anchor="middle" x="1798" y="-807.02" font-family="Helvetica,sans-Serif" font-size="10.00">nbDofsCol</text>
<text text-anchor="middle" x="1798" y="-796.02" font-family="Helvetica,sans-Serif" font-size="10.00">nbGhostDofsRow</text>
<text text-anchor="middle" x="1798" y="-785.02" font-family="Helvetica,sans-Serif" font-size="10.00">nbGhostDofsCol</text>
<text text-anchor="middle" x="1798" y="-774.02" font-family="Helvetica,sans-Serif" font-size="10.00">nbLocDofsRow</text>
</g>
<!-- Node70 -->
<g id="node70" class="node">
<title>Node70</title>
<g id="a_node70"><a xlink:href="structNitscheMethod_1_1CommonData.html" target="_top" xlink:title="Common data shared between finite element operators.">
<polygon fill="white" stroke="black" points="1885.5,-227.52 1885.5,-246.52 2049.5,-246.52 2049.5,-227.52 1885.5,-227.52"/>
<text text-anchor="middle" x="1967.5" y="-234.52" font-family="Helvetica,sans-Serif" font-size="10.00">NitscheMethod::CommonData</text>
</a>
</g>
</g>
<!-- Node36&#45;&gt;Node70 -->
<g id="edge88" class="edge">
<title>Node36&#45;&gt;Node70</title>
<path fill="none" stroke="#9a32cd" stroke-dasharray="5,2" d="M1635.31,-778.18C1657.91,-778.86 1691.41,-776.11 1712,-757.02 1734.61,-736.05 1706.89,-710.43 1730,-690.02 1775.74,-649.61 1820.97,-712.22 1866,-671.02 1899.17,-640.67 1954.98,-307.47 1964.95,-246.55"/>
<polygon fill="#9a32cd" stroke="#9a32cd" points="1635.37,-774.68 1625.19,-777.63 1634.98,-781.67 1635.37,-774.68"/>
<text text-anchor="middle" x="1798" y="-704.02" font-family="Helvetica,sans-Serif" font-size="10.00"> nbActiveFaces</text>
<text text-anchor="middle" x="1798" y="-693.02" font-family="Helvetica,sans-Serif" font-size="10.00">nbTetGaussPts</text>
</g>
<!-- Node37 -->
<g id="node37" class="node">
<title>Node37</title>
<g id="a_node37"><a xlink:title=" ">
<polygon fill="white" stroke="#bfbfbf" points="1884,-1129.52 1884,-1148.52 2051,-1148.52 2051,-1129.52 1884,-1129.52"/>
<text text-anchor="middle" x="1967.5" y="-1136.52" font-family="Helvetica,sans-Serif" font-size="10.00">function&lt; MoFEMErrorCode()&gt;</text>
</a>
</g>
</g>
<!-- Node37&#45;&gt;Node13 -->
<g id="edge45" class="edge">
<title>Node37&#45;&gt;Node13</title>
<path fill="none" stroke="#9a32cd" stroke-dasharray="5,2" d="M2061.23,-1138.07C2063.85,-1138.05 2066.44,-1138.03 2069,-1138.02 2146.68,-1137.49 2236.27,-1137.24 2293.95,-1137.12"/>
<polygon fill="#9a32cd" stroke="#9a32cd" points="2061.01,-1134.57 2051.04,-1138.15 2061.07,-1141.57 2061.01,-1134.57"/>
<text text-anchor="middle" x="2159.5" y="-1163.02" font-family="Helvetica,sans-Serif" font-size="10.00"> preProcessHook</text>
<text text-anchor="middle" x="2159.5" y="-1152.02" font-family="Helvetica,sans-Serif" font-size="10.00">operatorHook</text>
<text text-anchor="middle" x="2159.5" y="-1141.02" font-family="Helvetica,sans-Serif" font-size="10.00">postProcessHook</text>
</g>
<!-- Node38&#45;&gt;Node13 -->
<g id="edge46" class="edge">
<title>Node38&#45;&gt;Node13</title>
<path fill="none" stroke="#9a32cd" stroke-dasharray="5,2" d="M2001.24,-672.76C2062.49,-700.41 2193.34,-769.17 2250,-873.02 2274.55,-918.02 2237.54,-1061.78 2268,-1103.02 2276.68,-1114.77 2290.06,-1122.46 2303.69,-1127.5"/>
<polygon fill="#9a32cd" stroke="#9a32cd" points="2002.59,-669.52 1992.03,-668.67 1999.75,-675.92 2002.59,-669.52"/>
<text text-anchor="middle" x="2159.5" y="-876.02" font-family="Helvetica,sans-Serif" font-size="10.00"> problemPtr</text>
</g>
<!-- Node39 -->
<g id="node39" class="node">
<title>Node39</title>
<g id="a_node39"><a xlink:title=" ">
<polygon fill="white" stroke="#bfbfbf" points="1527,-901.02 1527,-931.02 1694,-931.02 1694,-901.02 1527,-901.02"/>
<text text-anchor="start" x="1535" y="-919.02" font-family="Helvetica,sans-Serif" font-size="10.00">shared_ptr&lt; NumeredEntFinite</text>
<text text-anchor="middle" x="1610.5" y="-908.02" font-family="Helvetica,sans-Serif" font-size="10.00">Element_multiIndex &gt;</text>
</a>
</g>
</g>
<!-- Node39&#45;&gt;Node38 -->
<g id="edge47" class="edge">
<title>Node39&#45;&gt;Node38</title>
<path fill="none" stroke="#9a32cd" stroke-dasharray="5,2" d="M1704.48,-920.21C1766.31,-921.13 1840.64,-918.09 1866,-900.02 1886.67,-885.28 1948.11,-711.82 1963.15,-668.68"/>
<polygon fill="#9a32cd" stroke="#9a32cd" points="1704.34,-916.7 1694.28,-920.02 1704.21,-923.7 1704.34,-916.7"/>
<text text-anchor="middle" x="1798" y="-924.02" font-family="Helvetica,sans-Serif" font-size="10.00"> numeredFiniteElementsPtr</text>
</g>
<!-- Node40 -->
<g id="node40" class="node">
<title>Node40</title>
<g id="a_node40"><a xlink:title=" ">
<polygon fill="white" stroke="#bfbfbf" points="1581,-862.52 1581,-881.52 1640,-881.52 1640,-862.52 1581,-862.52"/>
<text text-anchor="middle" x="1610.5" y="-869.52" font-family="Helvetica,sans-Serif" font-size="10.00">BitFEId *</text>
</a>
</g>
</g>
<!-- Node40&#45;&gt;Node38 -->
<g id="edge48" class="edge">
<title>Node40&#45;&gt;Node38</title>
<path fill="none" stroke="#9a32cd" stroke-dasharray="5,2" d="M1650.4,-879.41C1703.78,-887.33 1800.54,-893.5 1866,-850.02 1933.11,-805.44 1958.38,-701.02 1964.76,-668.72"/>
<polygon fill="#9a32cd" stroke="#9a32cd" points="1650.75,-875.92 1640.33,-877.82 1649.66,-882.83 1650.75,-875.92"/>
<text text-anchor="middle" x="1798" y="-888.02" font-family="Helvetica,sans-Serif" font-size="10.00"> tagBitFEId</text>
</g>
<!-- Node41 -->
<g id="node41" class="node">
<title>Node41</title>
<g id="a_node41"><a xlink:href="classEntityHandle.html" target="_top" xlink:title=" ">
<polygon fill="white" stroke="black" points="1570.5,-728.52 1570.5,-747.52 1650.5,-747.52 1650.5,-728.52 1570.5,-728.52"/>
<text text-anchor="middle" x="1610.5" y="-735.52" font-family="Helvetica,sans-Serif" font-size="10.00">EntityHandle</text>
</a>
</g>
</g>
<!-- Node41&#45;&gt;Node38 -->
<g id="edge49" class="edge">
<title>Node41&#45;&gt;Node38</title>
<path fill="none" stroke="#9a32cd" stroke-dasharray="5,2" d="M1661.18,-739.91C1713.37,-740.49 1797.25,-737.37 1866,-716.02 1900.1,-705.43 1935.37,-682.01 1953.69,-668.72"/>
<polygon fill="#9a32cd" stroke="#9a32cd" points="1660.92,-736.41 1650.86,-739.75 1660.8,-743.41 1660.92,-736.41"/>
<text text-anchor="middle" x="1798" y="-741.02" font-family="Helvetica,sans-Serif" font-size="10.00"> meshset</text>
</g>
<!-- Node42 -->
<g id="node42" class="node">
<title>Node42</title>
<g id="a_node42"><a xlink:title=" ">
<polygon fill="white" stroke="#bfbfbf" points="1536,-652.02 1536,-682.02 1685,-682.02 1685,-652.02 1536,-652.02"/>
<text text-anchor="start" x="1544" y="-670.02" font-family="Helvetica,sans-Serif" font-size="10.00">shared_ptr&lt; MoFEM::</text>
<text text-anchor="middle" x="1610.5" y="-659.02" font-family="Helvetica,sans-Serif" font-size="10.00">ComposedProblemsData &gt;</text>
</a>
</g>
</g>
<!-- Node42&#45;&gt;Node38 -->
<g id="edge50" class="edge">
<title>Node42&#45;&gt;Node38</title>
<path fill="none" stroke="#9a32cd" stroke-dasharray="5,2" d="M1695.29,-661.5C1706.94,-660.89 1718.77,-660.37 1730,-660.02 1794.84,-657.97 1869.73,-658.07 1917.57,-658.44"/>
<polygon fill="#9a32cd" stroke="#9a32cd" points="1694.91,-658.01 1685.11,-662.04 1695.29,-665 1694.91,-658.01"/>
<text text-anchor="middle" x="1798" y="-663.02" font-family="Helvetica,sans-Serif" font-size="10.00"> composedProblemsData</text>
</g>
<!-- Node43 -->
<g id="node43" class="node">
<title>Node43</title>
<g id="a_node43"><a xlink:title=" ">
<polygon fill="white" stroke="#bfbfbf" points="1570,-613.52 1570,-632.52 1651,-632.52 1651,-613.52 1570,-613.52"/>
<text text-anchor="middle" x="1610.5" y="-620.52" font-family="Helvetica,sans-Serif" font-size="10.00">BitRefLevel *</text>
</a>
</g>
</g>
<!-- Node43&#45;&gt;Node38 -->
<g id="edge51" class="edge">
<title>Node43&#45;&gt;Node38</title>
<path fill="none" stroke="#9a32cd" stroke-dasharray="5,2" d="M1661.62,-621.84C1713.15,-621.37 1795.61,-622.65 1866,-633.02 1890.07,-636.56 1916.7,-643.6 1936.5,-649.46"/>
<polygon fill="#9a32cd" stroke="#9a32cd" points="1661.38,-618.34 1651.42,-621.96 1661.46,-625.34 1661.38,-618.34"/>
<text text-anchor="middle" x="1798" y="-647.02" font-family="Helvetica,sans-Serif" font-size="10.00"> tagBitRefLevelMask</text>
<text text-anchor="middle" x="1798" y="-636.02" font-family="Helvetica,sans-Serif" font-size="10.00">tagBitRefLevel</text>
</g>
<!-- Node44 -->
<g id="node44" class="node">
<title>Node44</title>
<g id="a_node44"><a xlink:title=" ">
<polygon fill="white" stroke="#bfbfbf" points="1525.5,-564.02 1525.5,-594.02 1695.5,-594.02 1695.5,-564.02 1525.5,-564.02"/>
<text text-anchor="start" x="1533.5" y="-582.02" font-family="Helvetica,sans-Serif" font-size="10.00">shared_ptr&lt; NumeredDofEntity</text>
<text text-anchor="middle" x="1610.5" y="-571.02" font-family="Helvetica,sans-Serif" font-size="10.00">_multiIndex &gt;</text>
</a>
</g>
</g>
<!-- Node44&#45;&gt;Node38 -->
<g id="edge52" class="edge">
<title>Node44&#45;&gt;Node38</title>
<path fill="none" stroke="#9a32cd" stroke-dasharray="5,2" d="M1705.89,-575.03C1754.75,-575.61 1814.73,-580.5 1866,-597.02 1901.51,-608.46 1937.33,-634.97 1955.06,-649.34"/>
<polygon fill="#9a32cd" stroke="#9a32cd" points="1705.67,-571.53 1695.65,-574.97 1705.62,-578.53 1705.67,-571.53"/>
<text text-anchor="middle" x="1798" y="-611.02" font-family="Helvetica,sans-Serif" font-size="10.00"> numeredRowDofsPtr</text>
<text text-anchor="middle" x="1798" y="-600.02" font-family="Helvetica,sans-Serif" font-size="10.00">numeredColDofsPtr</text>
</g>
<!-- Node45 -->
<g id="node45" class="node">
<title>Node45</title>
<g id="a_node45"><a xlink:title=" ">
<polygon fill="white" stroke="#bfbfbf" points="1541.5,-525.52 1541.5,-544.52 1679.5,-544.52 1679.5,-525.52 1541.5,-525.52"/>
<text text-anchor="middle" x="1610.5" y="-532.52" font-family="Helvetica,sans-Serif" font-size="10.00">vector&lt; BlockFieldPair &gt;</text>
</a>
</g>
</g>
<!-- Node45&#45;&gt;Node38 -->
<g id="edge54" class="edge">
<title>Node45&#45;&gt;Node38</title>
<path fill="none" stroke="#9a32cd" stroke-dasharray="5,2" d="M1689.76,-529.94C1741.99,-529.62 1810.93,-535.27 1866,-561.02 1909.71,-581.45 1945.93,-628.9 1960.09,-649.35"/>
<polygon fill="#9a32cd" stroke="#9a32cd" points="1689.5,-526.45 1679.55,-530.08 1689.59,-533.45 1689.5,-526.45"/>
<text text-anchor="middle" x="1798" y="-564.02" font-family="Helvetica,sans-Serif" font-size="10.00"> emptyFieldBlocks</text>
</g>
<!-- Node46 -->
<g id="node46" class="node">
<title>Node46</title>
<g id="a_node46"><a xlink:title=" ">
<polygon fill="white" stroke="#bfbfbf" points="1532.5,-476.02 1532.5,-506.02 1688.5,-506.02 1688.5,-476.02 1532.5,-476.02"/>
<text text-anchor="start" x="1540.5" y="-494.02" font-family="Helvetica,sans-Serif" font-size="10.00">shared_ptr&lt; MoFEM::</text>
<text text-anchor="middle" x="1610.5" y="-483.02" font-family="Helvetica,sans-Serif" font-size="10.00">Problem::SubProblemData &gt;</text>
</a>
</g>
</g>
<!-- Node46&#45;&gt;Node38 -->
<g id="edge55" class="edge">
<title>Node46&#45;&gt;Node38</title>
<path fill="none" stroke="#9a32cd" stroke-dasharray="5,2" d="M1698.88,-482.57C1750.74,-481.61 1815.93,-487.79 1866,-517.02 1920.25,-548.69 1952.69,-622.64 1962.95,-649.25"/>
<polygon fill="#9a32cd" stroke="#9a32cd" points="1698.59,-479.08 1688.69,-482.85 1698.78,-486.08 1698.59,-479.08"/>
<text text-anchor="middle" x="1798" y="-520.02" font-family="Helvetica,sans-Serif" font-size="10.00"> subProblemData</text>
</g>
<!-- Node47 -->
<g id="node47" class="node">
<title>Node47</title>
<g id="a_node47"><a xlink:title=" ">
<polygon fill="white" stroke="#bfbfbf" points="1509,-437.52 1509,-456.52 1712,-456.52 1712,-437.52 1509,-437.52"/>
<text text-anchor="middle" x="1610.5" y="-444.52" font-family="Helvetica,sans-Serif" font-size="10.00">shared_ptr&lt; SequenceDofContainer &gt;</text>
</a>
</g>
</g>
<!-- Node47&#45;&gt;Node38 -->
<g id="edge57" class="edge">
<title>Node47&#45;&gt;Node38</title>
<path fill="none" stroke="#9a32cd" stroke-dasharray="5,2" d="M1722.45,-440.94C1779.73,-439.92 1842.46,-442.76 1866,-458.02 1936.71,-503.86 1959.64,-615.44 1965.09,-649.19"/>
<polygon fill="#9a32cd" stroke="#9a32cd" points="1722.12,-437.45 1712.2,-441.17 1722.28,-444.45 1722.12,-437.45"/>
<text text-anchor="middle" x="1798" y="-472.02" font-family="Helvetica,sans-Serif" font-size="10.00"> sequenceRowDofContainer</text>
<text text-anchor="middle" x="1798" y="-461.02" font-family="Helvetica,sans-Serif" font-size="10.00">sequenceColDofContainer</text>
</g>
<!-- Node48 -->
<g id="node48" class="node">
<title>Node48</title>
<g id="a_node48"><a xlink:title=" ">
<polygon fill="white" stroke="#bfbfbf" points="1566.5,-950.52 1566.5,-969.52 1654.5,-969.52 1654.5,-950.52 1566.5,-950.52"/>
<text text-anchor="middle" x="1610.5" y="-957.52" font-family="Helvetica,sans-Serif" font-size="10.00">BitProblemId *</text>
</a>
</g>
</g>
<!-- Node48&#45;&gt;Node38 -->
<g id="edge58" class="edge">
<title>Node48&#45;&gt;Node38</title>
<path fill="none" stroke="#9a32cd" stroke-dasharray="5,2" d="M1664.78,-961.76C1730.24,-962.77 1836.27,-960.39 1866,-936.02 1887.53,-918.37 1875.05,-902.38 1884,-876.02 1911.48,-795.11 1950.02,-699.39 1962.46,-668.88"/>
<polygon fill="#9a32cd" stroke="#9a32cd" points="1664.71,-958.25 1654.65,-961.57 1664.58,-965.25 1664.71,-958.25"/>
<text text-anchor="middle" x="1798" y="-965.02" font-family="Helvetica,sans-Serif" font-size="10.00"> tagId</text>
</g>
<!-- Node49 -->
<g id="node49" class="node">
<title>Node49</title>
<g id="a_node49"><a xlink:title=" ">
<polygon fill="white" stroke="#bfbfbf" points="2274,-1025.02 2274,-1055.02 2436,-1055.02 2436,-1025.02 2274,-1025.02"/>
<text text-anchor="start" x="2282" y="-1043.02" font-family="Helvetica,sans-Serif" font-size="10.00">shared_ptr&lt; const MoFEM</text>
<text text-anchor="middle" x="2355" y="-1032.02" font-family="Helvetica,sans-Serif" font-size="10.00">::NumeredEntFiniteElement &gt;</text>
</a>
</g>
</g>
<!-- Node49&#45;&gt;Node12 -->
<g id="edge59" class="edge">
<title>Node49&#45;&gt;Node12</title>
<path fill="none" stroke="#9a32cd" stroke-dasharray="5,2" d="M2446.54,-1036.57C2517.18,-1033.89 2612.85,-1030.25 2671.4,-1028.02"/>
<polygon fill="#9a32cd" stroke="#9a32cd" points="2446.16,-1033.08 2436.3,-1036.96 2446.43,-1040.08 2446.16,-1033.08"/>
<text text-anchor="middle" x="2532" y="-1039.02" font-family="Helvetica,sans-Serif" font-size="10.00"> numeredEntFiniteElementPtr</text>
</g>
<!-- Node50 -->
<g id="node50" class="node">
<title>Node50</title>
<g id="a_node50"><a xlink:title=" ">
<polygon fill="white" stroke="#bfbfbf" points="2333,-1074.52 2333,-1093.52 2377,-1093.52 2377,-1074.52 2333,-1074.52"/>
<text text-anchor="middle" x="2355" y="-1081.52" font-family="Helvetica,sans-Serif" font-size="10.00">string</text>
</a>
</g>
</g>
<!-- Node50&#45;&gt;Node3 -->
<g id="edge82" class="edge">
<title>Node50&#45;&gt;Node3</title>
<path fill="none" stroke="#9a32cd" stroke-dasharray="5,2" d="M2387.39,-1084.31C2405.56,-1082.81 2427.6,-1077.88 2442,-1064.02 2463.9,-1042.93 2435.84,-1016.47 2460,-998.02 2653.56,-850.18 2765.21,-978.75 3008,-998.02 3116.79,-1006.65 3241.39,-1028.9 3317.89,-1044"/>
<polygon fill="#9a32cd" stroke="#9a32cd" points="2387.04,-1080.83 2377.23,-1084.84 2387.4,-1087.82 2387.04,-1080.83"/>
<text text-anchor="middle" x="2927" y="-1012.02" font-family="Helvetica,sans-Serif" font-size="10.00"> colFieldName</text>
<text text-anchor="middle" x="2927" y="-1001.02" font-family="Helvetica,sans-Serif" font-size="10.00">rowFieldName</text>
</g>
<!-- Node50&#45;&gt;Node12 -->
<g id="edge60" class="edge">
<title>Node50&#45;&gt;Node12</title>
<path fill="none" stroke="#9a32cd" stroke-dasharray="5,2" d="M2387.37,-1081.76C2434.76,-1077.92 2527.24,-1068.75 2604,-1051.02 2612.22,-1049.12 2613.84,-1047.13 2622,-1045.02 2637.87,-1040.92 2655.35,-1037.33 2671.28,-1034.41"/>
<polygon fill="#9a32cd" stroke="#9a32cd" points="2386.84,-1078.29 2377.14,-1082.56 2387.39,-1085.27 2386.84,-1078.29"/>
<text text-anchor="middle" x="2532" y="-1078.02" font-family="Helvetica,sans-Serif" font-size="10.00"> feName</text>
</g>
<!-- Node51 -->
<g id="node51" class="node">
<title>Node51</title>
<g id="a_node51"><a xlink:title=" ">
<polygon fill="white" stroke="#bfbfbf" points="2273.5,-976.02 2273.5,-1006.02 2436.5,-1006.02 2436.5,-976.02 2273.5,-976.02"/>
<text text-anchor="start" x="2281.5" y="-994.02" font-family="Helvetica,sans-Serif" font-size="10.00">function&lt; bool(MoFEM</text>
<text text-anchor="middle" x="2355" y="-983.02" font-family="Helvetica,sans-Serif" font-size="10.00">::FEMethod *fe_method_ptr)&gt;</text>
</a>
</g>
</g>
<!-- Node51&#45;&gt;Node12 -->
<g id="edge61" class="edge">
<title>Node51&#45;&gt;Node12</title>
<path fill="none" stroke="#9a32cd" stroke-dasharray="5,2" d="M2446.98,-999.67C2517.52,-1006.38 2612.82,-1015.44 2671.26,-1021"/>
<polygon fill="#9a32cd" stroke="#9a32cd" points="2447.05,-996.16 2436.76,-998.7 2446.38,-1003.13 2447.05,-996.16"/>
<text text-anchor="middle" x="2532" y="-1017.02" font-family="Helvetica,sans-Serif" font-size="10.00"> exeTestHook</text>
</g>
<!-- Node52 -->
<g id="node52" class="node">
<title>Node52</title>
<g id="a_node52"><a xlink:href="classdouble.html" target="_top" xlink:title=" ">
<polygon fill="white" stroke="black" points="2700,-1311.52 2700,-1330.52 2750,-1330.52 2750,-1311.52 2700,-1311.52"/>
<text text-anchor="middle" x="2725" y="-1318.52" font-family="Helvetica,sans-Serif" font-size="10.00">double</text>
</a>
</g>
</g>
<!-- Node52&#45;&gt;Node11 -->
<g id="edge62" class="edge">
<title>Node52&#45;&gt;Node11</title>
<path fill="none" stroke="#9a32cd" stroke-dasharray="5,2" d="M2760.23,-1320.96C2814.34,-1319.9 2922.3,-1313.82 3008,-1284.02 3043.08,-1271.82 3079.26,-1246.62 3097.64,-1232.73"/>
<polygon fill="#9a32cd" stroke="#9a32cd" points="2760.09,-1317.46 2750.15,-1321.11 2760.2,-1324.46 2760.09,-1317.46"/>
<text text-anchor="middle" x="2927" y="-1318.02" font-family="Helvetica,sans-Serif" font-size="10.00"> elementMeasure</text>
</g>
<!-- Node53 -->
<g id="node53" class="node">
<title>Node53</title>
<g id="a_node53"><a xlink:title=" ">
<polygon fill="white" stroke="#bfbfbf" points="2639,-1251.52 2639,-1292.52 2811,-1292.52 2811,-1251.52 2639,-1251.52"/>
<text text-anchor="start" x="2647" y="-1280.52" font-family="Helvetica,sans-Serif" font-size="10.00">array&lt; boost::shared</text>
<text text-anchor="start" x="2647" y="-1269.52" font-family="Helvetica,sans-Serif" font-size="10.00">_ptr&lt; MoFEM::EntitiesFieldData</text>
<text text-anchor="middle" x="2725" y="-1258.52" font-family="Helvetica,sans-Serif" font-size="10.00"> &gt;, LASTSPACE &gt;</text>
</a>
</g>
</g>
<!-- Node53&#45;&gt;Node11 -->
<g id="edge63" class="edge">
<title>Node53&#45;&gt;Node11</title>
<path fill="none" stroke="#9a32cd" stroke-dasharray="5,2" d="M2821.25,-1261.16C2875.94,-1254.77 2945.88,-1246.33 3008,-1238.02 3020.6,-1236.33 3034.05,-1234.43 3046.92,-1232.56"/>
<polygon fill="#9a32cd" stroke="#9a32cd" points="2820.75,-1257.69 2811.22,-1262.33 2821.56,-1264.65 2820.75,-1257.69"/>
<text text-anchor="middle" x="2927" y="-1272.02" font-family="Helvetica,sans-Serif" font-size="10.00"> derivedDataOnElement</text>
<text text-anchor="middle" x="2927" y="-1261.02" font-family="Helvetica,sans-Serif" font-size="10.00">dataOnElement</text>
</g>
<!-- Node54 -->
<g id="node54" class="node">
<title>Node54</title>
<g id="a_node54"><a xlink:title=" ">
<polygon fill="white" stroke="#bfbfbf" points="2691,-1213.52 2691,-1232.52 2759,-1232.52 2759,-1213.52 2691,-1213.52"/>
<text text-anchor="middle" x="2725" y="-1220.52" font-family="Helvetica,sans-Serif" font-size="10.00">EntityType</text>
</a>
</g>
</g>
<!-- Node54&#45;&gt;Node11 -->
<g id="edge64" class="edge">
<title>Node54&#45;&gt;Node11</title>
<path fill="none" stroke="#9a32cd" stroke-dasharray="5,2" d="M2769.28,-1223.02C2831.31,-1223.02 2946.7,-1223.02 3025.87,-1223.02"/>
<polygon fill="#9a32cd" stroke="#9a32cd" points="2769.07,-1219.52 2759.07,-1223.02 2769.07,-1226.52 2769.07,-1219.52"/>
<text text-anchor="middle" x="2927" y="-1226.02" font-family="Helvetica,sans-Serif" font-size="10.00"> lastEvaluatedElementEntityType</text>
</g>
<!-- Node55 -->
<g id="node55" class="node">
<title>Node55</title>
<g id="a_node55"><a xlink:href="structMoFEM_1_1DeprecatedCoreInterface.html" target="_top" xlink:title="Deprecated interface functions.">
<polygon fill="white" stroke="black" points="2069,-1619.52 2069,-1638.52 2250,-1638.52 2250,-1619.52 2069,-1619.52"/>
<text text-anchor="middle" x="2159.5" y="-1626.52" font-family="Helvetica,sans-Serif" font-size="10.00">MoFEM::DeprecatedCoreInterface</text>
</a>
</g>
</g>
<!-- Node55&#45;&gt;Node11 -->
<g id="edge65" class="edge">
<title>Node55&#45;&gt;Node11</title>
<path fill="none" stroke="#9a32cd" stroke-dasharray="5,2" d="M2174.18,-1611.35C2194.36,-1584.29 2231.69,-1530.21 2250,-1478.02 2269.02,-1423.81 2232.79,-1395.41 2268,-1350.02 2464.83,-1096.23 2933.98,-1181.73 3071.49,-1213.42"/>
<polygon fill="#9a32cd" stroke="#9a32cd" points="2171.29,-1609.36 2168.05,-1619.45 2176.87,-1613.59 2171.29,-1609.36"/>
<text text-anchor="middle" x="2532" y="-1217.02" font-family="Helvetica,sans-Serif" font-size="10.00"> mField</text>
</g>
<!-- Node56&#45;&gt;Node55 -->
<g id="edge66" class="edge">
<title>Node56&#45;&gt;Node55</title>
<path fill="none" stroke="midnightblue" d="M1683.16,-1735.06C1734.45,-1732.7 1804.93,-1727.49 1866,-1716.02 1966.75,-1697.09 2082.31,-1657.07 2132.73,-1638.66"/>
<polygon fill="midnightblue" stroke="midnightblue" points="1683.01,-1731.56 1673.17,-1735.49 1683.31,-1738.55 1683.01,-1731.56"/>
</g>
<!-- Node57 -->
<g id="node57" class="node">
<title>Node57</title>
<g id="a_node57"><a xlink:title=" ">
<polygon fill="white" stroke="#bfbfbf" points="2641.5,-1104.02 2641.5,-1156.02 2808.5,-1156.02 2808.5,-1104.02 2641.5,-1104.02"/>
<text text-anchor="start" x="2649.5" y="-1144.02" font-family="Helvetica,sans-Serif" font-size="10.00">function&lt; MoFEMErrorCode</text>
<text text-anchor="start" x="2649.5" y="-1133.02" font-family="Helvetica,sans-Serif" font-size="10.00">(ForcesAndSourcesCore *fe</text>
<text text-anchor="start" x="2649.5" y="-1122.02" font-family="Helvetica,sans-Serif" font-size="10.00">_raw_ptr, int order_row,</text>
<text text-anchor="middle" x="2725" y="-1111.02" font-family="Helvetica,sans-Serif" font-size="10.00"> int order_col, int order_data)&gt;</text>
</a>
</g>
</g>
<!-- Node57&#45;&gt;Node11 -->
<g id="edge69" class="edge">
<title>Node57&#45;&gt;Node11</title>
<path fill="none" stroke="#9a32cd" stroke-dasharray="5,2" d="M2818.88,-1129.58C2874.98,-1131.82 2947.15,-1139.2 3008,-1160.02 3043.84,-1172.28 3080.27,-1198.95 3098.34,-1213.34"/>
<polygon fill="#9a32cd" stroke="#9a32cd" points="2818.72,-1126.07 2808.6,-1129.22 2818.47,-1133.06 2818.72,-1126.07"/>
<text text-anchor="middle" x="2927" y="-1163.02" font-family="Helvetica,sans-Serif" font-size="10.00"> setRuleHook</text>
</g>
<!-- Node58 -->
<g id="node58" class="node">
<title>Node58</title>
<g id="a_node58"><a xlink:title=" ">
<polygon fill="white" stroke="#bfbfbf" points="2624,-1055.02 2624,-1085.02 2826,-1085.02 2826,-1055.02 2624,-1055.02"/>
<text text-anchor="start" x="2632" y="-1073.02" font-family="Helvetica,sans-Serif" font-size="10.00">ptr_deque&lt; MoFEM::Forces</text>
<text text-anchor="middle" x="2725" y="-1062.02" font-family="Helvetica,sans-Serif" font-size="10.00">AndSourcesCore::UserDataOperator &gt;</text>
</a>
</g>
</g>
<!-- Node58&#45;&gt;Node11 -->
<g id="edge70" class="edge">
<title>Node58&#45;&gt;Node11</title>
<path fill="none" stroke="#9a32cd" stroke-dasharray="5,2" d="M2836.19,-1072.27C2890.53,-1077.28 2955.5,-1089.36 3008,-1117.02 3053.19,-1140.83 3090.03,-1192.13 3103.98,-1213.44"/>
<polygon fill="#9a32cd" stroke="#9a32cd" points="2836.43,-1068.78 2826.17,-1071.41 2835.84,-1075.75 2836.43,-1068.78"/>
<text text-anchor="middle" x="2927" y="-1120.02" font-family="Helvetica,sans-Serif" font-size="10.00"> opPtrVector</text>
</g>
<!-- Node59 -->
<g id="node59" class="node">
<title>Node59</title>
<g id="a_node59"><a xlink:href="structMoFEM_1_1EntitiesFieldData.html" target="_top" xlink:title="data structure for finite element entity">
<polygon fill="white" stroke="black" points="2654,-1497.52 2654,-1516.52 2796,-1516.52 2796,-1497.52 2654,-1497.52"/>
<text text-anchor="middle" x="2725" y="-1504.52" font-family="Helvetica,sans-Serif" font-size="10.00">MoFEM::EntitiesFieldData</text>
</a>
</g>
</g>
<!-- Node59&#45;&gt;Node11 -->
<g id="edge71" class="edge">
<title>Node59&#45;&gt;Node11</title>
<path fill="none" stroke="#9a32cd" stroke-dasharray="5,2" d="M2785.13,-1517.91C2849.63,-1526.04 2951.23,-1527.16 3008,-1468.02 3036.76,-1438.06 3005.1,-1317.9 3026,-1282.02 3039.72,-1258.46 3067.05,-1241.98 3086.81,-1232.54"/>
<polygon fill="#9a32cd" stroke="#9a32cd" points="2785.49,-1514.43 2775.11,-1516.56 2784.55,-1521.36 2785.49,-1514.43"/>
<text text-anchor="middle" x="2927" y="-1568.02" font-family="Helvetica,sans-Serif" font-size="10.00"> dataNoField</text>
<text text-anchor="middle" x="2927" y="-1557.02" font-family="Helvetica,sans-Serif" font-size="10.00">dataL2</text>
<text text-anchor="middle" x="2927" y="-1546.02" font-family="Helvetica,sans-Serif" font-size="10.00">dataH1</text>
<text text-anchor="middle" x="2927" y="-1535.02" font-family="Helvetica,sans-Serif" font-size="10.00">dataHcurl</text>
<text text-anchor="middle" x="2927" y="-1524.02" font-family="Helvetica,sans-Serif" font-size="10.00">dataHdiv</text>
</g>
<!-- Node60 -->
<g id="node60" class="node">
<title>Node60</title>
<g id="a_node60"><a xlink:title=" ">
<polygon fill="white" stroke="#bfbfbf" points="2274,-1469.02 2274,-1499.02 2436,-1499.02 2436,-1469.02 2274,-1469.02"/>
<text text-anchor="start" x="2282" y="-1487.02" font-family="Helvetica,sans-Serif" font-size="10.00">array&lt; std::bitset</text>
<text text-anchor="middle" x="2355" y="-1476.02" font-family="Helvetica,sans-Serif" font-size="10.00">&lt; LASTBASE &gt;, LASTSPACE &gt;</text>
</a>
</g>
</g>
<!-- Node60&#45;&gt;Node59 -->
<g id="edge72" class="edge">
<title>Node60&#45;&gt;Node59</title>
<path fill="none" stroke="#9a32cd" stroke-dasharray="5,2" d="M2446.18,-1482.42C2493.29,-1482.36 2551.84,-1483.49 2604,-1488.02 2627.12,-1490.02 2652.52,-1493.81 2673.98,-1497.48"/>
<polygon fill="#9a32cd" stroke="#9a32cd" points="2445.99,-1478.92 2436,-1482.46 2446.01,-1485.92 2445.99,-1478.92"/>
<text text-anchor="middle" x="2532" y="-1502.02" font-family="Helvetica,sans-Serif" font-size="10.00"> brokenBasesOnSpaces</text>
<text text-anchor="middle" x="2532" y="-1491.02" font-family="Helvetica,sans-Serif" font-size="10.00">basesOnSpaces</text>
</g>
<!-- Node61 -->
<g id="node61" class="node">
<title>Node61</title>
<g id="a_node61"><a xlink:title=" ">
<polygon fill="white" stroke="#bfbfbf" points="2278.5,-1408.52 2278.5,-1449.52 2431.5,-1449.52 2431.5,-1408.52 2278.5,-1408.52"/>
<text text-anchor="start" x="2286.5" y="-1437.52" font-family="Helvetica,sans-Serif" font-size="10.00">array&lt; boost::ptr_vector</text>
<text text-anchor="start" x="2286.5" y="-1426.52" font-family="Helvetica,sans-Serif" font-size="10.00">&lt; MoFEM::EntitiesFieldData</text>
<text text-anchor="middle" x="2355" y="-1415.52" font-family="Helvetica,sans-Serif" font-size="10.00">::EntData &gt;, MBMAXTYPE &gt;</text>
</a>
</g>
</g>
<!-- Node61&#45;&gt;Node59 -->
<g id="edge73" class="edge">
<title>Node61&#45;&gt;Node59</title>
<path fill="none" stroke="#9a32cd" stroke-dasharray="5,2" d="M2441.89,-1427.63C2491.96,-1430.24 2554.75,-1439.66 2604,-1467.02 2614.75,-1472.99 2611.35,-1481.88 2622,-1488.02 2631.75,-1493.64 2642.82,-1497.65 2653.99,-1500.5"/>
<polygon fill="#9a32cd" stroke="#9a32cd" points="2441.87,-1424.12 2431.73,-1427.18 2441.56,-1431.12 2441.87,-1424.12"/>
<text text-anchor="middle" x="2532" y="-1470.02" font-family="Helvetica,sans-Serif" font-size="10.00"> dataOnEntities</text>
</g>
<!-- Node62 -->
<g id="node62" class="node">
<title>Node62</title>
<g id="a_node62"><a xlink:title=" ">
<polygon fill="white" stroke="#bfbfbf" points="2268,-1359.02 2268,-1389.02 2442,-1389.02 2442,-1359.02 2268,-1359.02"/>
<text text-anchor="start" x="2276" y="-1377.02" font-family="Helvetica,sans-Serif" font-size="10.00">array&lt; std::bitset</text>
<text text-anchor="middle" x="2355" y="-1366.02" font-family="Helvetica,sans-Serif" font-size="10.00">&lt; LASTSPACE &gt;, MBMAXTYPE &gt;</text>
</a>
</g>
</g>
<!-- Node62&#45;&gt;Node59 -->
<g id="edge74" class="edge">
<title>Node62&#45;&gt;Node59</title>
<path fill="none" stroke="#9a32cd" stroke-dasharray="5,2" d="M2452.15,-1365.16C2503.31,-1365.79 2563.77,-1375.87 2604,-1413.02 2629.18,-1436.27 2597.15,-1464.41 2622,-1488.02 2630.82,-1496.39 2642.07,-1501.67 2653.87,-1504.9"/>
<polygon fill="#9a32cd" stroke="#9a32cd" points="2452.06,-1361.66 2442.05,-1365.15 2452.05,-1368.66 2452.06,-1361.66"/>
<text text-anchor="middle" x="2532" y="-1416.02" font-family="Helvetica,sans-Serif" font-size="10.00"> spacesOnEntities</text>
</g>
<!-- Node63 -->
<g id="node63" class="node">
<title>Node63</title>
<g id="a_node63"><a xlink:title=" ">
<polygon fill="white" stroke="#bfbfbf" points="2270.5,-1595.02 2270.5,-1625.02 2439.5,-1625.02 2439.5,-1595.02 2270.5,-1595.02"/>
<text text-anchor="start" x="2278.5" y="-1613.02" font-family="Helvetica,sans-Serif" font-size="10.00">array&lt; std::bitset</text>
<text text-anchor="middle" x="2355" y="-1602.02" font-family="Helvetica,sans-Serif" font-size="10.00">&lt; LASTBASE &gt;, MBMAXTYPE &gt;</text>
</a>
</g>
</g>
<!-- Node63&#45;&gt;Node59 -->
<g id="edge75" class="edge">
<title>Node63&#45;&gt;Node59</title>
<path fill="none" stroke="#9a32cd" stroke-dasharray="5,2" d="M2449.74,-1621.98C2500.44,-1623.33 2561.24,-1616.03 2604,-1582.02 2622.81,-1567.05 2604.11,-1547.07 2622,-1531.02 2631,-1522.94 2642.21,-1517.44 2653.87,-1513.72"/>
<polygon fill="#9a32cd" stroke="#9a32cd" points="2449.87,-1618.48 2439.74,-1621.6 2449.6,-1625.48 2449.87,-1618.48"/>
<text text-anchor="middle" x="2532" y="-1625.02" font-family="Helvetica,sans-Serif" font-size="10.00"> basesOnEntities</text>
</g>
<!-- Node64 -->
<g id="node64" class="node">
<title>Node64</title>
<g id="a_node64"><a xlink:title=" ">
<polygon fill="white" stroke="#bfbfbf" points="2299,-1556.52 2299,-1575.52 2411,-1575.52 2411,-1556.52 2299,-1556.52"/>
<text text-anchor="middle" x="2355" y="-1563.52" font-family="Helvetica,sans-Serif" font-size="10.00">UBlasMatrix&lt; int &gt;</text>
</a>
</g>
</g>
<!-- Node64&#45;&gt;Node59 -->
<g id="edge76" class="edge">
<title>Node64&#45;&gt;Node59</title>
<path fill="none" stroke="#9a32cd" stroke-dasharray="5,2" d="M2421.13,-1560.84C2471.4,-1556.19 2542.51,-1548.21 2604,-1536.02 2612.14,-1534.4 2613.96,-1533.08 2622,-1531.02 2641.56,-1526 2663.33,-1520.82 2681.73,-1516.57"/>
<polygon fill="#9a32cd" stroke="#9a32cd" points="2420.69,-1557.37 2411.05,-1561.75 2421.32,-1564.34 2420.69,-1557.37"/>
<text text-anchor="middle" x="2532" y="-1570.02" font-family="Helvetica,sans-Serif" font-size="10.00"> facesNodesOrder</text>
<text text-anchor="middle" x="2532" y="-1559.02" font-family="Helvetica,sans-Serif" font-size="10.00">facesNodes</text>
</g>
<!-- Node65 -->
<g id="node65" class="node">
<title>Node65</title>
<g id="a_node65"><a xlink:title=" ">
<polygon fill="white" stroke="#bfbfbf" points="2296.5,-1518.52 2296.5,-1537.52 2413.5,-1537.52 2413.5,-1518.52 2296.5,-1518.52"/>
<text text-anchor="middle" x="2355" y="-1525.52" font-family="Helvetica,sans-Serif" font-size="10.00">bitset&lt; LASTBASE &gt;</text>
</a>
</g>
</g>
<!-- Node65&#45;&gt;Node59 -->
<g id="edge77" class="edge">
<title>Node65&#45;&gt;Node59</title>
<path fill="none" stroke="#9a32cd" stroke-dasharray="5,2" d="M2424.11,-1524.13C2489.49,-1520.4 2587.8,-1514.79 2653.86,-1511.02"/>
<polygon fill="#9a32cd" stroke="#9a32cd" points="2423.69,-1520.65 2413.9,-1524.71 2424.09,-1527.64 2423.69,-1520.65"/>
<text text-anchor="middle" x="2532" y="-1524.02" font-family="Helvetica,sans-Serif" font-size="10.00"> bAse</text>
</g>
<!-- Node66 -->
<g id="node66" class="node">
<title>Node66</title>
<g id="a_node66"><a xlink:title=" ">
<polygon fill="white" stroke="#bfbfbf" points="2662.5,-1437.52 2662.5,-1478.52 2787.5,-1478.52 2787.5,-1437.52 2662.5,-1437.52"/>
<text text-anchor="start" x="2670.5" y="-1466.52" font-family="Helvetica,sans-Serif" font-size="10.00">function&lt; int(int order</text>
<text text-anchor="start" x="2670.5" y="-1455.52" font-family="Helvetica,sans-Serif" font-size="10.00">_row, int order_col, int</text>
<text text-anchor="middle" x="2725" y="-1444.52" font-family="Helvetica,sans-Serif" font-size="10.00"> order_data)&gt;</text>
</a>
</g>
</g>
<!-- Node66&#45;&gt;Node11 -->
<g id="edge78" class="edge">
<title>Node66&#45;&gt;Node11</title>
<path fill="none" stroke="#9a32cd" stroke-dasharray="5,2" d="M2797.87,-1456.02C2876.43,-1453.11 2993.2,-1446.41 3008,-1432.02 3032.06,-1408.61 3008.77,-1310.83 3026,-1282.02 3039.99,-1258.62 3067.27,-1242.11 3086.94,-1232.62"/>
<polygon fill="#9a32cd" stroke="#9a32cd" points="2797.4,-1452.53 2787.53,-1456.38 2797.65,-1459.53 2797.4,-1452.53"/>
<text text-anchor="middle" x="2927" y="-1456.02" font-family="Helvetica,sans-Serif" font-size="10.00"> getRuleHook</text>
</g>
<!-- Node67 -->
<g id="node67" class="node">
<title>Node67</title>
<g id="a_node67"><a xlink:title=" ">
<polygon fill="white" stroke="#bfbfbf" points="2664,-1388.02 2664,-1418.02 2786,-1418.02 2786,-1388.02 2664,-1388.02"/>
<text text-anchor="start" x="2672" y="-1406.02" font-family="Helvetica,sans-Serif" font-size="10.00">shared_ptr&lt; MoFEM::</text>
<text text-anchor="middle" x="2725" y="-1395.02" font-family="Helvetica,sans-Serif" font-size="10.00">BaseFunction &gt;</text>
</a>
</g>
</g>
<!-- Node67&#45;&gt;Node11 -->
<g id="edge79" class="edge">
<title>Node67&#45;&gt;Node11</title>
<path fill="none" stroke="#9a32cd" stroke-dasharray="5,2" d="M2796.2,-1406.12C2869.52,-1407.78 2977.97,-1405.27 3008,-1378.02 3040.15,-1348.85 3002.5,-1318.52 3026,-1282.02 3040.85,-1258.94 3068.23,-1242.28 3087.7,-1232.66"/>
<polygon fill="#9a32cd" stroke="#9a32cd" points="2796.18,-1402.62 2786.1,-1405.86 2796,-1409.61 2796.18,-1402.62"/>
<text text-anchor="middle" x="2927" y="-1420.02" font-family="Helvetica,sans-Serif" font-size="10.00"> userPolynomialBasePtr</text>
<text text-anchor="middle" x="2927" y="-1409.02" font-family="Helvetica,sans-Serif" font-size="10.00">elementPolynomialBasePtr</text>
</g>
<!-- Node68 -->
<g id="node68" class="node">
<title>Node68</title>
<g id="a_node68"><a xlink:href="classUBlasMatrix_3_01double_01_4.html" target="_top" xlink:title=" ">
<polygon fill="white" stroke="black" points="2659,-1349.52 2659,-1368.52 2791,-1368.52 2791,-1349.52 2659,-1349.52"/>
<text text-anchor="middle" x="2725" y="-1356.52" font-family="Helvetica,sans-Serif" font-size="10.00">UBlasMatrix&lt; double &gt;</text>
</a>
</g>
</g>
<!-- Node68&#45;&gt;Node11 -->
<g id="edge80" class="edge">
<title>Node68&#45;&gt;Node11</title>
<path fill="none" stroke="#9a32cd" stroke-dasharray="5,2" d="M2801.35,-1355.34C2879.31,-1350.89 2991.92,-1342.43 3008,-1330.02 3026.04,-1316.1 3012.06,-1300.04 3026,-1282.02 3043.23,-1259.75 3071.19,-1242.49 3090.07,-1232.55"/>
<polygon fill="#9a32cd" stroke="#9a32cd" points="2800.86,-1351.86 2791.07,-1355.91 2801.25,-1358.85 2800.86,-1351.86"/>
<text text-anchor="middle" x="2927" y="-1366.02" font-family="Helvetica,sans-Serif" font-size="10.00"> coordsAtGaussPts</text>
<text text-anchor="middle" x="2927" y="-1355.02" font-family="Helvetica,sans-Serif" font-size="10.00">gaussPts</text>
</g>
<!-- Node69 -->
<g id="node69" class="node">
<title>Node69</title>
<g id="a_node69"><a xlink:title=" ">
<polygon fill="white" stroke="#bfbfbf" points="3045.5,-1291.52 3045.5,-1310.52 3176.5,-1310.52 3176.5,-1291.52 3045.5,-1291.52"/>
<text text-anchor="middle" x="3111" y="-1298.52" font-family="Helvetica,sans-Serif" font-size="10.00">static const char *const</text>
</a>
</g>
</g>
<!-- Node69&#45;&gt;Node3 -->
<g id="edge81" class="edge">
<title>Node69&#45;&gt;Node3</title>
<path fill="none" stroke="#9a32cd" stroke-dasharray="5,2" d="M3184.36,-1287.88C3188.41,-1286.16 3192.32,-1284.22 3196,-1282.02 3287.4,-1227.4 3358.09,-1114.81 3381.59,-1074.12"/>
<polygon fill="#9a32cd" stroke="#9a32cd" points="3182.86,-1284.71 3174.73,-1291.5 3185.33,-1291.26 3182.86,-1284.71"/>
<text text-anchor="middle" x="3251" y="-1271.02" font-family="Helvetica,sans-Serif" font-size="10.00"> OpTypeNames</text>
</g>
<!-- Node70&#45;&gt;Node1 -->
<g id="edge83" class="edge">
<title>Node70&#45;&gt;Node1</title>
<path fill="none" stroke="#9a32cd" stroke-dasharray="5,2" d="M2017.74,-248.82C2090.71,-265.25 2232.08,-293.02 2354,-293.02 2354,-293.02 2354,-293.02 3609.5,-293.02 3652.89,-293.02 3701.09,-295.45 3740.97,-298.12"/>
<polygon fill="#9a32cd" stroke="#9a32cd" points="2018.43,-245.39 2007.9,-246.58 2016.88,-252.21 2018.43,-245.39"/>
<text text-anchor="middle" x="3111" y="-296.02" font-family="Helvetica,sans-Serif" font-size="10.00"> commonData</text>
</g>
<!-- Node71 -->
<g id="node71" class="node">
<title>Node71</title>
<g id="a_node71"><a xlink:title=" ">
<polygon fill="white" stroke="#bfbfbf" points="1555.5,-154.02 1555.5,-184.02 1665.5,-184.02 1665.5,-154.02 1555.5,-154.02"/>
<text text-anchor="start" x="1563.5" y="-172.02" font-family="Helvetica,sans-Serif" font-size="10.00">vector&lt; std::vector</text>
<text text-anchor="middle" x="1610.5" y="-161.02" font-family="Helvetica,sans-Serif" font-size="10.00">&lt; int &gt; &gt;</text>
</a>
</g>
</g>
<!-- Node71&#45;&gt;Node70 -->
<g id="edge84" class="edge">
<title>Node71&#45;&gt;Node70</title>
<path fill="none" stroke="#9a32cd" stroke-dasharray="5,2" d="M1675.94,-171.32C1727.9,-174.32 1802.52,-181.2 1866,-197.02 1895.16,-204.28 1927.12,-218.09 1947,-227.43"/>
<polygon fill="#9a32cd" stroke="#9a32cd" points="1676.04,-167.82 1665.86,-170.77 1675.66,-174.81 1676.04,-167.82"/>
<text text-anchor="middle" x="1798" y="-200.02" font-family="Helvetica,sans-Serif" font-size="10.00"> inTetFaceGaussPtsNumber</text>
</g>
<!-- Node72 -->
<g id="node72" class="node">
<title>Node72</title>
<g id="a_node72"><a xlink:title=" ">
<polygon fill="white" stroke="#bfbfbf" points="1544,-115.52 1544,-134.52 1677,-134.52 1677,-115.52 1544,-115.52"/>
<text text-anchor="middle" x="1610.5" y="-122.52" font-family="Helvetica,sans-Serif" font-size="10.00">vector&lt; EntityHandle &gt;</text>
</a>
</g>
</g>
<!-- Node72&#45;&gt;Node70 -->
<g id="edge85" class="edge">
<title>Node72&#45;&gt;Node70</title>
<path fill="none" stroke="#9a32cd" stroke-dasharray="5,2" d="M1687.31,-125.83C1739.34,-128.73 1809.02,-137.33 1866,-161.02 1904.18,-176.89 1940.76,-210.75 1957.3,-227.39"/>
<polygon fill="#9a32cd" stroke="#9a32cd" points="1687.31,-122.32 1677.14,-125.32 1686.96,-129.31 1687.31,-122.32"/>
<text text-anchor="middle" x="1798" y="-164.02" font-family="Helvetica,sans-Serif" font-size="10.00"> fAces</text>
</g>
<!-- Node73 -->
<g id="node73" class="node">
<title>Node73</title>
<g id="a_node73"><a xlink:title=" ">
<polygon fill="white" stroke="#bfbfbf" points="1552.5,-66.02 1552.5,-96.02 1668.5,-96.02 1668.5,-66.02 1552.5,-66.02"/>
<text text-anchor="start" x="1560.5" y="-84.02" font-family="Helvetica,sans-Serif" font-size="10.00">vector&lt; std::vector</text>
<text text-anchor="middle" x="1610.5" y="-73.02" font-family="Helvetica,sans-Serif" font-size="10.00">&lt; MatrixDouble &gt; &gt;</text>
</a>
</g>
</g>
<!-- Node73&#45;&gt;Node70 -->
<g id="edge86" class="edge">
<title>Node73&#45;&gt;Node70</title>
<path fill="none" stroke="#9a32cd" stroke-dasharray="5,2" d="M1678.68,-76.95C1732.56,-76.64 1808.44,-83.03 1866,-115.02 1914.93,-142.21 1949.7,-203.54 1961.8,-227.33"/>
<polygon fill="#9a32cd" stroke="#9a32cd" points="1678.49,-73.45 1668.54,-77.09 1678.59,-80.45 1678.49,-73.45"/>
<text text-anchor="middle" x="1798" y="-118.02" font-family="Helvetica,sans-Serif" font-size="10.00"> P</text>
</g>
<!-- Node74 -->
<g id="node74" class="node">
<title>Node74</title>
<g id="a_node74"><a xlink:title=" ">
<polygon fill="white" stroke="#bfbfbf" points="1542.5,-9.52 1542.5,-28.52 1678.5,-28.52 1678.5,-9.52 1542.5,-9.52"/>
<text text-anchor="middle" x="1610.5" y="-16.52" font-family="Helvetica,sans-Serif" font-size="10.00">vector&lt; MatrixDouble &gt;</text>
</a>
</g>
</g>
<!-- Node74&#45;&gt;Node70 -->
<g id="edge87" class="edge">
<title>Node74&#45;&gt;Node70</title>
<path fill="none" stroke="#9a32cd" stroke-dasharray="5,2" d="M1661.33,-7.66C1716.22,1.9 1804.81,8.34 1866,-32.02 1937.8,-79.37 1960.09,-193.74 1965.21,-227.49"/>
<polygon fill="#9a32cd" stroke="#9a32cd" points="1660.68,-4.22 1651.48,-9.47 1661.95,-11.11 1660.68,-4.22"/>
<text text-anchor="middle" x="1798" y="-68.02" font-family="Helvetica,sans-Serif" font-size="10.00"> faceGaussPts</text>
<text text-anchor="middle" x="1798" y="-57.02" font-family="Helvetica,sans-Serif" font-size="10.00">coordsAtGaussPts</text>
<text text-anchor="middle" x="1798" y="-46.02" font-family="Helvetica,sans-Serif" font-size="10.00">hoCoordsAtGaussPts</text>
<text text-anchor="middle" x="1798" y="-35.02" font-family="Helvetica,sans-Serif" font-size="10.00">faceNormals</text>
</g>
<!-- Node75 -->
<g id="node75" class="node">
<title>Node75</title>
<g id="a_node75"><a xlink:title=" ">
<polygon fill="white" stroke="#bfbfbf" points="1546.5,-339.52 1546.5,-380.52 1674.5,-380.52 1674.5,-339.52 1546.5,-339.52"/>
<text text-anchor="start" x="1554.5" y="-368.52" font-family="Helvetica,sans-Serif" font-size="10.00">map&lt; EntityType, std</text>
<text text-anchor="start" x="1554.5" y="-357.52" font-family="Helvetica,sans-Serif" font-size="10.00">::vector&lt; std::vector</text>
<text text-anchor="middle" x="1610.5" y="-346.52" font-family="Helvetica,sans-Serif" font-size="10.00">&lt; MatrixDouble &gt; &gt; &gt;</text>
</a>
</g>
</g>
<!-- Node75&#45;&gt;Node70 -->
<g id="edge89" class="edge">
<title>Node75&#45;&gt;Node70</title>
<path fill="none" stroke="#9a32cd" stroke-dasharray="5,2" d="M1684.95,-360.97C1737.53,-359.07 1808.84,-351.09 1866,-325.02 1906.93,-306.35 1943.54,-265.44 1958.87,-246.72"/>
<polygon fill="#9a32cd" stroke="#9a32cd" points="1684.59,-357.48 1674.69,-361.27 1684.79,-364.47 1684.59,-357.48"/>
<text text-anchor="middle" x="1798" y="-361.02" font-family="Helvetica,sans-Serif" font-size="10.00"> dP</text>
</g>
<!-- Node76&#45;&gt;Node70 -->
<g id="edge90" class="edge">
<title>Node76&#45;&gt;Node70</title>
<path fill="none" stroke="#9a32cd" stroke-dasharray="5,2" d="M1196.1,-396.59C1291.05,-375.19 1405.56,-350.24 1509,-330.02 1666.98,-299.14 1709.6,-307.08 1866,-269.02 1891.44,-262.83 1919.82,-253.57 1939.91,-246.6"/>
<polygon fill="#9a32cd" stroke="#9a32cd" points="1195.08,-393.24 1186.1,-398.85 1196.62,-400.06 1195.08,-393.24"/>
<text text-anchor="middle" x="1430.5" y="-361.02" font-family="Helvetica,sans-Serif" font-size="10.00"> facesContainer</text>
</g>
<!-- Node77 -->
<g id="node77" class="node">
<title>Node77</title>
<g id="a_node77"><a xlink:title=" ">
<polygon fill="white" stroke="#bfbfbf" points="1528.5,-241.52 1528.5,-282.52 1692.5,-282.52 1692.5,-241.52 1528.5,-241.52"/>
<text text-anchor="start" x="1536.5" y="-270.52" font-family="Helvetica,sans-Serif" font-size="10.00">vector&lt; boost::shared</text>
<text text-anchor="start" x="1536.5" y="-259.52" font-family="Helvetica,sans-Serif" font-size="10.00">_ptr&lt; const NumeredEntFinite</text>
<text text-anchor="middle" x="1610.5" y="-248.52" font-family="Helvetica,sans-Serif" font-size="10.00">Element &gt; &gt;</text>
</a>
</g>
</g>
<!-- Node77&#45;&gt;Node70 -->
<g id="edge92" class="edge">
<title>Node77&#45;&gt;Node70</title>
<path fill="none" stroke="#9a32cd" stroke-dasharray="5,2" d="M1702.93,-255.58C1759.34,-251.61 1831.06,-246.56 1885.43,-242.73"/>
<polygon fill="#9a32cd" stroke="#9a32cd" points="1702.67,-252.09 1692.94,-256.28 1703.17,-259.07 1702.67,-252.09"/>
<text text-anchor="middle" x="1798" y="-257.02" font-family="Helvetica,sans-Serif" font-size="10.00"> facesFePtr</text>
</g>
<!-- Node78 -->
<g id="node78" class="node">
<title>Node78</title>
<g id="a_node78"><a xlink:title=" ">
<polygon fill="white" stroke="#bfbfbf" points="1543,-203.52 1543,-222.52 1678,-222.52 1678,-203.52 1543,-203.52"/>
<text text-anchor="middle" x="1610.5" y="-210.52" font-family="Helvetica,sans-Serif" font-size="10.00">vector&lt; VectorDouble &gt;</text>
</a>
</g>
</g>
<!-- Node78&#45;&gt;Node70 -->
<g id="edge93" class="edge">
<title>Node78&#45;&gt;Node70</title>
<path fill="none" stroke="#9a32cd" stroke-dasharray="5,2" d="M1688.34,-211.19C1738.94,-210.81 1806.58,-211.86 1866,-218.02 1885.43,-220.03 1906.72,-223.82 1924.68,-227.49"/>
<polygon fill="#9a32cd" stroke="#9a32cd" points="1688.1,-207.7 1678.13,-211.29 1688.17,-214.7 1688.1,-207.7"/>
<text text-anchor="middle" x="1798" y="-232.02" font-family="Helvetica,sans-Serif" font-size="10.00"> rAy</text>
<text text-anchor="middle" x="1798" y="-221.02" font-family="Helvetica,sans-Serif" font-size="10.00">cOords</text>
</g>
</g>
</svg>
