<?xml version="1.0" encoding="UTF-8" standalone="no"?>
<!DOCTYPE svg PUBLIC "-//W3C//DTD SVG 1.1//EN"
 "http://www.w3.org/Graphics/SVG/1.1/DTD/svg11.dtd">
<!-- Generated by graphviz version 2.43.0 (0)
 -->
<!-- Title: FluidPressure::MyTriangleFE Pages: 1 -->
<!--zoomable 1516 -->
<svg id="main" version="1.1" xmlns="http://www.w3.org/2000/svg" xmlns:xlink="http://www.w3.org/1999/xlink" xml:space="preserve" onload="init(evt)">
<style type="text/css"><![CDATA[
.edge:hover path { stroke: red; }
.edge:hover polygon { stroke: red; fill: red; }
]]></style>
<script type="text/javascript"><![CDATA[
var edges = document.getElementsByTagName('g');
if (edges && edges.length) {
  for (var i=0;i<edges.length;i++) {
    if (edges[i].id.substr(0,4)=='edge') {
      edges[i].setAttribute('class','edge');
    }
  }
}
]]></script>
        <defs>
                <circle id="rim" cx="0" cy="0" r="7"/>
                <circle id="rim2" cx="0" cy="0" r="3.5"/>
                <g id="zoomPlus">
                        <use xlink:href="#rim" fill="#404040">
                                <set attributeName="fill" to="#808080" begin="zoomplus.mouseover" end="zoomplus.mouseout"/>
                        </use>
                        <path d="M-4,0h8M0,-4v8" fill="none" stroke="white" stroke-width="1.5" pointer-events="none"/>
                </g>
                <g id="zoomMin">
                        <use xlink:href="#rim" fill="#404040">
                                <set attributeName="fill" to="#808080" begin="zoomminus.mouseover" end="zoomminus.mouseout"/>
                        </use>
                        <path d="M-4,0h8" fill="none" stroke="white" stroke-width="1.5" pointer-events="none"/>
                </g>
                <g id="dirArrow">
                        <path fill="none" stroke="white" stroke-width="1.5" d="M0,-3.0v7 M-2.5,-0.5L0,-3.0L2.5,-0.5"/>
                </g>
               <g id="resetDef">
                       <use xlink:href="#rim2" fill="#404040">
                               <set attributeName="fill" to="#808080" begin="reset.mouseover" end="reset.mouseout"/>
                       </use>
               </g>
        </defs>

<script type="text/javascript">
var viewWidth = 3171;
var viewHeight = 1516;
var sectionId = 'dynsection-1';
</script>
<script xlink:href="svgpan.js"/>
<svg id="graph" class="graph">
<g id="viewport">
<title>FluidPressure::MyTriangleFE</title>
<polygon fill="white" stroke="transparent" points="-4,4 -4,-1511.9 3167,-1511.9 3167,4 -4,4"/>
<!-- Node1 -->
<g id="node1" class="node">
<title>Node1</title>
<g id="a_node1"><a xlink:title=" ">
<polygon fill="#bfbfbf" stroke="black" points="3009,-738.4 3009,-757.4 3163,-757.4 3163,-738.4 3009,-738.4"/>
<text text-anchor="middle" x="3086" y="-745.4" font-family="Helvetica,sans-Serif" font-size="10.00">FluidPressure::MyTriangleFE</text>
</a>
</g>
</g>
<!-- Node2 -->
<g id="node2" class="node">
<title>Node2</title>
<g id="a_node2"><a xlink:href="structMoFEM_1_1FaceElementForcesAndSourcesCore.html" target="_top" xlink:title="Face finite element.">
<polygon fill="white" stroke="black" points="2820,-732.9 2820,-762.9 2972,-762.9 2972,-732.9 2820,-732.9"/>
<text text-anchor="start" x="2828" y="-750.9" font-family="Helvetica,sans-Serif" font-size="10.00">MoFEM::FaceElementForces</text>
<text text-anchor="middle" x="2896" y="-739.9" font-family="Helvetica,sans-Serif" font-size="10.00">AndSourcesCore</text>
</a>
</g>
</g>
<!-- Node2&#45;&gt;Node1 -->
<g id="edge1" class="edge">
<title>Node2&#45;&gt;Node1</title>
<path fill="none" stroke="midnightblue" d="M2982.38,-747.9C2991.18,-747.9 3000.08,-747.9 3008.78,-747.9"/>
<polygon fill="midnightblue" stroke="midnightblue" points="2982.11,-744.4 2972.11,-747.9 2982.11,-751.4 2982.11,-744.4"/>
</g>
<!-- Node3 -->
<g id="node3" class="node">
<title>Node3</title>
<g id="a_node3"><a xlink:href="structMoFEM_1_1ForcesAndSourcesCore.html" target="_top" xlink:title="structure to get information form mofem into EntitiesFieldData">
<polygon fill="white" stroke="black" points="2553,-976.4 2553,-995.4 2723,-995.4 2723,-976.4 2553,-976.4"/>
<text text-anchor="middle" x="2638" y="-983.4" font-family="Helvetica,sans-Serif" font-size="10.00">MoFEM::ForcesAndSourcesCore</text>
</a>
</g>
</g>
<!-- Node3&#45;&gt;Node2 -->
<g id="edge2" class="edge">
<title>Node3&#45;&gt;Node2</title>
<path fill="none" stroke="midnightblue" d="M2656.71,-969.43C2704,-925.47 2832.76,-805.76 2878.56,-763.18"/>
<polygon fill="midnightblue" stroke="midnightblue" points="2654.29,-966.9 2649.35,-976.27 2659.06,-972.03 2654.29,-966.9"/>
</g>
<!-- Node3&#45;&gt;Node3 -->
<g id="edge60" class="edge">
<title>Node3&#45;&gt;Node3</title>
<path fill="none" stroke="#9a32cd" stroke-dasharray="5,2" d="M2613.45,-1004.93C2614.79,-1010.03 2622.97,-1013.9 2638,-1013.9 2661.46,-1013.9 2668.24,-1004.46 2658.35,-995.65"/>
<polygon fill="#9a32cd" stroke="#9a32cd" points="2616.71,-1006.21 2617.65,-995.65 2610.33,-1003.31 2616.71,-1006.21"/>
<text text-anchor="middle" x="2638" y="-1027.9" font-family="Helvetica,sans-Serif" font-size="10.00"> sidePtrFE</text>
<text text-anchor="middle" x="2638" y="-1016.9" font-family="Helvetica,sans-Serif" font-size="10.00">refinePtrFE</text>
</g>
<!-- Node4 -->
<g id="node4" class="node">
<title>Node4</title>
<g id="a_node4"><a xlink:href="structMoFEM_1_1FEMethod.html" target="_top" xlink:title="structure for User Loop Methods on finite elements">
<polygon fill="white" stroke="black" points="2200.5,-852.4 2200.5,-871.4 2307.5,-871.4 2307.5,-852.4 2200.5,-852.4"/>
<text text-anchor="middle" x="2254" y="-859.4" font-family="Helvetica,sans-Serif" font-size="10.00">MoFEM::FEMethod</text>
</a>
</g>
</g>
<!-- Node4&#45;&gt;Node3 -->
<g id="edge3" class="edge">
<title>Node4&#45;&gt;Node3</title>
<path fill="none" stroke="midnightblue" d="M2317.84,-861.29C2376.39,-862.9 2464.96,-871.01 2535,-901.9 2575.51,-919.77 2612.91,-958.44 2628.87,-976.39"/>
<polygon fill="midnightblue" stroke="midnightblue" points="2317.7,-857.79 2307.62,-861.07 2317.54,-864.79 2317.7,-857.79"/>
</g>
<!-- Node5 -->
<g id="node5" class="node">
<title>Node5</title>
<g id="a_node5"><a xlink:href="structMoFEM_1_1BasicMethod.html" target="_top" xlink:title="Data structure to exchange data between mofem and User Loop Methods.">
<polygon fill="white" stroke="black" points="1825,-780.4 1825,-799.4 1947,-799.4 1947,-780.4 1825,-780.4"/>
<text text-anchor="middle" x="1886" y="-787.4" font-family="Helvetica,sans-Serif" font-size="10.00">MoFEM::BasicMethod</text>
</a>
</g>
</g>
<!-- Node5&#45;&gt;Node4 -->
<g id="edge4" class="edge">
<title>Node5&#45;&gt;Node4</title>
<path fill="none" stroke="midnightblue" d="M1952.98,-801.19C2003.13,-810.13 2073.7,-823.47 2135,-837.9 2143.08,-839.8 2144.91,-841.01 2153,-842.9 2168.32,-846.47 2185.07,-849.86 2200.41,-852.76"/>
<polygon fill="midnightblue" stroke="midnightblue" points="1953.38,-797.71 1942.92,-799.41 1952.16,-804.6 1953.38,-797.71"/>
</g>
<!-- Node6 -->
<g id="node6" class="node">
<title>Node6</title>
<g id="a_node6"><a xlink:href="structMoFEM_1_1KspMethod.html" target="_top" xlink:title="data structure for ksp (linear solver) context">
<polygon fill="white" stroke="black" points="1442,-919.4 1442,-938.4 1555,-938.4 1555,-919.4 1442,-919.4"/>
<text text-anchor="middle" x="1498.5" y="-926.4" font-family="Helvetica,sans-Serif" font-size="10.00">MoFEM::KspMethod</text>
</a>
</g>
</g>
<!-- Node6&#45;&gt;Node5 -->
<g id="edge5" class="edge">
<title>Node6&#45;&gt;Node5</title>
<path fill="none" stroke="midnightblue" d="M1565.21,-928.29C1627.86,-924.28 1721.26,-908.91 1781,-855.9 1797.42,-841.33 1782.4,-824.26 1799,-809.9 1806.42,-803.48 1815.5,-799.02 1824.96,-795.94"/>
<polygon fill="midnightblue" stroke="midnightblue" points="1564.83,-924.8 1555.05,-928.85 1565.23,-931.79 1564.83,-924.8"/>
</g>
<!-- Node7 -->
<g id="node7" class="node">
<title>Node7</title>
<g id="a_node7"><a xlink:href="structMoFEM_1_1PetscData.html" target="_top" xlink:title=" ">
<polygon fill="white" stroke="black" points="1087.5,-1113.4 1087.5,-1132.4 1195.5,-1132.4 1195.5,-1113.4 1087.5,-1113.4"/>
<text text-anchor="middle" x="1141.5" y="-1120.4" font-family="Helvetica,sans-Serif" font-size="10.00">MoFEM::PetscData</text>
</a>
</g>
</g>
<!-- Node7&#45;&gt;Node6 -->
<g id="edge6" class="edge">
<title>Node7&#45;&gt;Node6</title>
<path fill="none" stroke="midnightblue" d="M1205.61,-1110.94C1218.21,-1107.68 1231.2,-1103.7 1243,-1098.9 1347.34,-1056.44 1453.4,-967.72 1486.78,-938.47"/>
<polygon fill="midnightblue" stroke="midnightblue" points="1204.49,-1107.61 1195.61,-1113.39 1206.15,-1114.4 1204.49,-1107.61"/>
</g>
<!-- Node17 -->
<g id="node17" class="node">
<title>Node17</title>
<g id="a_node17"><a xlink:href="structMoFEM_1_1SnesMethod.html" target="_top" xlink:title="data structure for snes (nonlinear solver) context">
<polygon fill="white" stroke="black" points="1439,-802.4 1439,-821.4 1558,-821.4 1558,-802.4 1439,-802.4"/>
<text text-anchor="middle" x="1498.5" y="-809.4" font-family="Helvetica,sans-Serif" font-size="10.00">MoFEM::SnesMethod</text>
</a>
</g>
</g>
<!-- Node7&#45;&gt;Node17 -->
<g id="edge19" class="edge">
<title>Node7&#45;&gt;Node17</title>
<path fill="none" stroke="darkgreen" d="M1205.48,-1120.05C1219.69,-1116.4 1233.39,-1109.96 1243,-1098.9 1270.96,-1066.71 1236.91,-943.07 1261,-907.9 1300.88,-849.68 1382.66,-826.74 1438.78,-817.72"/>
<polygon fill="darkgreen" stroke="darkgreen" points="1204.66,-1116.65 1195.61,-1122.16 1206.12,-1123.5 1204.66,-1116.65"/>
</g>
<!-- Node20 -->
<g id="node20" class="node">
<title>Node20</title>
<g id="a_node20"><a xlink:href="structMoFEM_1_1TSMethod.html" target="_top" xlink:title="data structure for TS (time stepping) context">
<polygon fill="white" stroke="black" points="1445,-1182.4 1445,-1201.4 1552,-1201.4 1552,-1182.4 1445,-1182.4"/>
<text text-anchor="middle" x="1498.5" y="-1189.4" font-family="Helvetica,sans-Serif" font-size="10.00">MoFEM::TSMethod</text>
</a>
</g>
</g>
<!-- Node7&#45;&gt;Node20 -->
<g id="edge25" class="edge">
<title>Node7&#45;&gt;Node20</title>
<path fill="none" stroke="darkgreen" d="M1205.85,-1126.84C1257.78,-1131.03 1332.91,-1139.29 1397,-1154.9 1425,-1161.72 1455.94,-1173.84 1475.99,-1182.35"/>
<polygon fill="darkgreen" stroke="darkgreen" points="1206.02,-1123.34 1195.78,-1126.06 1205.48,-1130.32 1206.02,-1123.34"/>
</g>
<!-- Node8 -->
<g id="node8" class="node">
<title>Node8</title>
<g id="a_node8"><a xlink:href="structMoFEM_1_1UnknownInterface.html" target="_top" xlink:title="base class for all interface classes">
<polygon fill="white" stroke="black" points="735,-1468.4 735,-1487.4 883,-1487.4 883,-1468.4 735,-1468.4"/>
<text text-anchor="middle" x="809" y="-1475.4" font-family="Helvetica,sans-Serif" font-size="10.00">MoFEM::UnknownInterface</text>
</a>
</g>
</g>
<!-- Node8&#45;&gt;Node7 -->
<g id="edge7" class="edge">
<title>Node8&#45;&gt;Node7</title>
<path fill="none" stroke="midnightblue" d="M893.19,-1483.27C944.66,-1484.6 1004.2,-1481.86 1022,-1463.9 1071.66,-1413.78 994.73,-1201.02 1040,-1146.9 1051.62,-1133 1069.72,-1126.33 1087.37,-1123.35"/>
<polygon fill="midnightblue" stroke="midnightblue" points="893.12,-1479.76 883.02,-1482.95 892.9,-1486.76 893.12,-1479.76"/>
</g>
<!-- Node49 -->
<g id="node49" class="node">
<title>Node49</title>
<g id="a_node49"><a xlink:href="structMoFEM_1_1CoreInterface.html" target="_top" xlink:title="Interface.">
<polygon fill="white" stroke="black" points="1079,-1488.4 1079,-1507.4 1204,-1507.4 1204,-1488.4 1079,-1488.4"/>
<text text-anchor="middle" x="1141.5" y="-1495.4" font-family="Helvetica,sans-Serif" font-size="10.00">MoFEM::CoreInterface</text>
</a>
</g>
</g>
<!-- Node8&#45;&gt;Node49 -->
<g id="edge59" class="edge">
<title>Node8&#45;&gt;Node49</title>
<path fill="none" stroke="midnightblue" d="M893.68,-1488.28C896.15,-1488.5 898.59,-1488.71 901,-1488.9 961.35,-1493.67 1030.47,-1495.93 1078.89,-1496.98"/>
<polygon fill="midnightblue" stroke="midnightblue" points="893.74,-1484.77 883.45,-1487.31 893.08,-1491.74 893.74,-1484.77"/>
</g>
<!-- Node9 -->
<g id="node9" class="node">
<title>Node9</title>
<g id="a_node9"><a xlink:title=" ">
<polygon fill="white" stroke="#bfbfbf" points="386,-1420.4 386,-1483.4 627,-1483.4 627,-1420.4 386,-1420.4"/>
<text text-anchor="start" x="394" y="-1471.4" font-family="Helvetica,sans-Serif" font-size="10.00">multi_index_container</text>
<text text-anchor="start" x="394" y="-1460.4" font-family="Helvetica,sans-Serif" font-size="10.00">&lt; UIdTypeMap, indexed</text>
<text text-anchor="start" x="394" y="-1449.4" font-family="Helvetica,sans-Serif" font-size="10.00">_by&lt; hashed_unique&lt; member</text>
<text text-anchor="start" x="394" y="-1438.4" font-family="Helvetica,sans-Serif" font-size="10.00">&lt; UIdTypeMap, boost::typeindex</text>
<text text-anchor="middle" x="506.5" y="-1427.4" font-family="Helvetica,sans-Serif" font-size="10.00">::type_index, &amp;UIdTypeMap::classIdx &gt; &gt; &gt; &gt;</text>
</a>
</g>
</g>
<!-- Node9&#45;&gt;Node8 -->
<g id="edge8" class="edge">
<title>Node9&#45;&gt;Node8</title>
<path fill="none" stroke="#9a32cd" stroke-dasharray="5,2" d="M637.41,-1463.14C670.69,-1466.02 705.33,-1469.01 734.62,-1471.55"/>
<polygon fill="#9a32cd" stroke="#9a32cd" points="637.39,-1459.62 627.13,-1462.25 636.79,-1466.6 637.39,-1459.62"/>
<text text-anchor="middle" x="681" y="-1471.9" font-family="Helvetica,sans-Serif" font-size="10.00"> iFaceTypeMap</text>
</g>
<!-- Node10 -->
<g id="node10" class="node">
<title>Node10</title>
<g id="a_node10"><a xlink:title=" ">
<polygon fill="white" stroke="#bfbfbf" points="0,-1381.4 0,-1400.4 125,-1400.4 125,-1381.4 0,-1381.4"/>
<text text-anchor="middle" x="62.5" y="-1388.4" font-family="Helvetica,sans-Serif" font-size="10.00">multi_index_container</text>
</a>
</g>
</g>
<!-- Node10&#45;&gt;Node5 -->
<g id="edge32" class="edge">
<title>Node10&#45;&gt;Node5</title>
<path fill="none" stroke="#9a32cd" stroke-dasharray="5,2" d="M135.41,-1386.7C222.85,-1381.95 374.95,-1374.9 505.5,-1374.9 505.5,-1374.9 505.5,-1374.9 1499.5,-1374.9 1700.17,-1374.9 1706.77,-1208.33 1781,-1021.9 1798.49,-977.97 1768.06,-845.65 1799,-809.9 1805.72,-802.13 1814.82,-797.06 1824.58,-793.81"/>
<polygon fill="#9a32cd" stroke="#9a32cd" points="135.12,-1383.21 125.33,-1387.25 135.51,-1390.2 135.12,-1383.21"/>
<text text-anchor="middle" x="961.5" y="-1454.9" font-family="Helvetica,sans-Serif" font-size="10.00"> adjacenciesPtr</text>
<text text-anchor="middle" x="961.5" y="-1443.9" font-family="Helvetica,sans-Serif" font-size="10.00">refinedEntitiesPtr</text>
<text text-anchor="middle" x="961.5" y="-1432.9" font-family="Helvetica,sans-Serif" font-size="10.00">finiteElementsEntitiesPtr</text>
<text text-anchor="middle" x="961.5" y="-1421.9" font-family="Helvetica,sans-Serif" font-size="10.00">dofsPtr</text>
<text text-anchor="middle" x="961.5" y="-1410.9" font-family="Helvetica,sans-Serif" font-size="10.00">entitiesPtr</text>
<text text-anchor="middle" x="961.5" y="-1399.9" font-family="Helvetica,sans-Serif" font-size="10.00">finiteElementsPtr</text>
<text text-anchor="middle" x="961.5" y="-1388.9" font-family="Helvetica,sans-Serif" font-size="10.00">refinedFiniteElementsPtr</text>
<text text-anchor="middle" x="961.5" y="-1377.9" font-family="Helvetica,sans-Serif" font-size="10.00">fieldsPtr</text>
</g>
<!-- Node10&#45;&gt;Node9 -->
<g id="edge9" class="edge">
<title>Node10&#45;&gt;Node9</title>
<path fill="none" stroke="orange" stroke-dasharray="5,2" d="M135.56,-1400.84C203.25,-1410.18 305.79,-1424.34 385.77,-1435.37"/>
<polygon fill="orange" stroke="orange" points="135.81,-1397.34 125.42,-1399.44 134.85,-1404.28 135.81,-1397.34"/>
<text text-anchor="start" x="143" y="-1467.9" font-family="Helvetica,sans-Serif" font-size="10.00"> &lt; UIdTypeMap, indexed</text>
<text text-anchor="start" x="143" y="-1456.9" font-family="Helvetica,sans-Serif" font-size="10.00">_by&lt; hashed_unique&lt; member</text>
<text text-anchor="start" x="143" y="-1445.9" font-family="Helvetica,sans-Serif" font-size="10.00">&lt; UIdTypeMap, boost::typeindex</text>
<text text-anchor="middle" x="255.5" y="-1434.9" font-family="Helvetica,sans-Serif" font-size="10.00">::type_index, &amp;UIdTypeMap::classIdx &gt; &gt; &gt; &gt;</text>
</g>
<!-- Node11 -->
<g id="node11" class="node">
<title>Node11</title>
<g id="a_node11"><a xlink:title=" ">
<polygon fill="white" stroke="#bfbfbf" points="738.5,-1128.4 738.5,-1147.4 879.5,-1147.4 879.5,-1128.4 738.5,-1128.4"/>
<text text-anchor="middle" x="809" y="-1135.4" font-family="Helvetica,sans-Serif" font-size="10.00">static constexpr Switches</text>
</a>
</g>
</g>
<!-- Node11&#45;&gt;Node7 -->
<g id="edge10" class="edge">
<title>Node11&#45;&gt;Node7</title>
<path fill="none" stroke="#9a32cd" stroke-dasharray="5,2" d="M889.72,-1134.28C951.05,-1131.5 1034.07,-1127.73 1087.47,-1125.3"/>
<polygon fill="#9a32cd" stroke="#9a32cd" points="889.52,-1130.79 879.69,-1134.73 889.84,-1137.78 889.52,-1130.79"/>
<text text-anchor="middle" x="961.5" y="-1212.9" font-family="Helvetica,sans-Serif" font-size="10.00"> CtxSetX_TT</text>
<text text-anchor="middle" x="961.5" y="-1201.9" font-family="Helvetica,sans-Serif" font-size="10.00">CtxSetX_T</text>
<text text-anchor="middle" x="961.5" y="-1190.9" font-family="Helvetica,sans-Serif" font-size="10.00">CtxSetA</text>
<text text-anchor="middle" x="961.5" y="-1179.9" font-family="Helvetica,sans-Serif" font-size="10.00">CtxSetB</text>
<text text-anchor="middle" x="961.5" y="-1168.9" font-family="Helvetica,sans-Serif" font-size="10.00">CtxSetTime</text>
<text text-anchor="middle" x="961.5" y="-1157.9" font-family="Helvetica,sans-Serif" font-size="10.00">CtxSetNone</text>
<text text-anchor="middle" x="961.5" y="-1146.9" font-family="Helvetica,sans-Serif" font-size="10.00">CtxSetF</text>
<text text-anchor="middle" x="961.5" y="-1135.9" font-family="Helvetica,sans-Serif" font-size="10.00">CtxSetX</text>
</g>
<!-- Node12 -->
<g id="node12" class="node">
<title>Node12</title>
<g id="a_node12"><a xlink:title=" ">
<polygon fill="white" stroke="#bfbfbf" points="791.5,-1010.4 791.5,-1029.4 826.5,-1029.4 826.5,-1010.4 791.5,-1010.4"/>
<text text-anchor="middle" x="809" y="-1017.4" font-family="Helvetica,sans-Serif" font-size="10.00">Mat</text>
</a>
</g>
</g>
<!-- Node12&#45;&gt;Node6 -->
<g id="edge16" class="edge">
<title>Node12&#45;&gt;Node6</title>
<path fill="none" stroke="#9a32cd" stroke-dasharray="5,2" d="M836.86,-1015.79C854.96,-1013.09 879.39,-1009.57 901,-1006.9 1120.97,-979.66 1178.88,-994.32 1397,-954.9 1420.23,-950.7 1446,-943.99 1465.63,-938.44"/>
<polygon fill="#9a32cd" stroke="#9a32cd" points="836.11,-1012.36 826.75,-1017.31 837.16,-1019.29 836.11,-1012.36"/>
<text text-anchor="middle" x="1141.5" y="-1005.9" font-family="Helvetica,sans-Serif" font-size="10.00"> ksp_A</text>
<text text-anchor="middle" x="1141.5" y="-994.9" font-family="Helvetica,sans-Serif" font-size="10.00">ksp_B</text>
</g>
<!-- Node12&#45;&gt;Node7 -->
<g id="edge11" class="edge">
<title>Node12&#45;&gt;Node7</title>
<path fill="none" stroke="#9a32cd" stroke-dasharray="5,2" d="M832.41,-1034.95C850.29,-1046.34 876.34,-1061.55 901,-1070.9 934.62,-1083.64 1028.23,-1102.22 1087.97,-1113.38"/>
<polygon fill="#9a32cd" stroke="#9a32cd" points="834.15,-1031.91 823.86,-1029.4 830.34,-1037.78 834.15,-1031.91"/>
<text text-anchor="middle" x="961.5" y="-1113.9" font-family="Helvetica,sans-Serif" font-size="10.00"> A</text>
<text text-anchor="middle" x="961.5" y="-1102.9" font-family="Helvetica,sans-Serif" font-size="10.00">B</text>
</g>
<!-- Node12&#45;&gt;Node17 -->
<g id="edge21" class="edge">
<title>Node12&#45;&gt;Node17</title>
<path fill="none" stroke="#9a32cd" stroke-dasharray="5,2" d="M829.72,-1003.78C880.91,-962.07 1015.77,-853.22 1040,-843.9 1175.25,-791.87 1349.43,-797.65 1438.82,-805.33"/>
<polygon fill="#9a32cd" stroke="#9a32cd" points="827.25,-1001.28 821.71,-1010.31 831.67,-1006.7 827.25,-1001.28"/>
<text text-anchor="middle" x="1141.5" y="-857.9" font-family="Helvetica,sans-Serif" font-size="10.00"> snes_A</text>
<text text-anchor="middle" x="1141.5" y="-846.9" font-family="Helvetica,sans-Serif" font-size="10.00">snes_B</text>
</g>
<!-- Node12&#45;&gt;Node20 -->
<g id="edge26" class="edge">
<title>Node12&#45;&gt;Node20</title>
<path fill="none" stroke="#9a32cd" stroke-dasharray="5,2" d="M826.81,-1036.84C844.04,-1055.32 870.07,-1086.6 883,-1118.9 894.82,-1148.43 877.14,-1239.87 901,-1260.9 941.35,-1296.45 980.14,-1294.66 1022,-1260.9 1051.38,-1237.2 1010.62,-1201.59 1040,-1177.9 1101.16,-1128.58 1340.82,-1163.81 1446.72,-1182.39"/>
<polygon fill="#9a32cd" stroke="#9a32cd" points="829.26,-1034.33 819.82,-1029.52 824.19,-1039.17 829.26,-1034.33"/>
<text text-anchor="middle" x="1141.5" y="-1191.9" font-family="Helvetica,sans-Serif" font-size="10.00"> ts_A</text>
<text text-anchor="middle" x="1141.5" y="-1180.9" font-family="Helvetica,sans-Serif" font-size="10.00">ts_B</text>
</g>
<!-- Node13 -->
<g id="node13" class="node">
<title>Node13</title>
<g id="a_node13"><a xlink:title=" ">
<polygon fill="white" stroke="#bfbfbf" points="772.5,-1239.4 772.5,-1258.4 845.5,-1258.4 845.5,-1239.4 772.5,-1239.4"/>
<text text-anchor="middle" x="809" y="-1246.4" font-family="Helvetica,sans-Serif" font-size="10.00">bitset&lt; 8 &gt;</text>
</a>
</g>
</g>
<!-- Node13&#45;&gt;Node7 -->
<g id="edge12" class="edge">
<title>Node13&#45;&gt;Node7</title>
<path fill="none" stroke="#9a32cd" stroke-dasharray="5,2" d="M855.74,-1257.6C903.28,-1263.83 976.93,-1265.1 1022,-1224.9 1048.55,-1201.22 1014.94,-1172.15 1040,-1146.9 1052.45,-1134.36 1070.19,-1127.91 1087.32,-1124.73"/>
<polygon fill="#9a32cd" stroke="#9a32cd" points="856.11,-1254.12 845.71,-1256.17 855.12,-1261.05 856.11,-1254.12"/>
<text text-anchor="middle" x="961.5" y="-1262.9" font-family="Helvetica,sans-Serif" font-size="10.00"> data_ctx</text>
</g>
<!-- Node14 -->
<g id="node14" class="node">
<title>Node14</title>
<g id="a_node14"><a xlink:title=" ">
<polygon fill="white" stroke="#bfbfbf" points="792,-930.4 792,-949.4 826,-949.4 826,-930.4 792,-930.4"/>
<text text-anchor="middle" x="809" y="-937.4" font-family="Helvetica,sans-Serif" font-size="10.00">Vec</text>
</a>
</g>
</g>
<!-- Node14&#45;&gt;Node6 -->
<g id="edge17" class="edge">
<title>Node14&#45;&gt;Node6</title>
<path fill="none" stroke="#9a32cd" stroke-dasharray="5,2" d="M835.62,-930.76C877.64,-916.3 964.12,-888.79 1040,-878.9 1197.85,-858.32 1240.86,-876.89 1397,-907.9 1415.18,-911.51 1435.18,-915.65 1452.51,-919.3"/>
<polygon fill="#9a32cd" stroke="#9a32cd" points="834.46,-927.46 826.16,-934.05 836.76,-934.07 834.46,-927.46"/>
<text text-anchor="middle" x="1141.5" y="-881.9" font-family="Helvetica,sans-Serif" font-size="10.00"> ksp_f</text>
</g>
<!-- Node14&#45;&gt;Node7 -->
<g id="edge13" class="edge">
<title>Node14&#45;&gt;Node7</title>
<path fill="none" stroke="#9a32cd" stroke-dasharray="5,2" d="M835.49,-952.54C853.56,-961.29 878.5,-972.92 901,-981.9 953.74,-1002.94 983.78,-980.9 1022,-1022.9 1045.36,-1048.57 1015.48,-1074.33 1040,-1098.9 1052.48,-1111.4 1070.24,-1117.84 1087.36,-1121.02"/>
<polygon fill="#9a32cd" stroke="#9a32cd" points="836.73,-949.26 826.21,-948.01 833.66,-955.55 836.73,-949.26"/>
<text text-anchor="middle" x="961.5" y="-1058.9" font-family="Helvetica,sans-Serif" font-size="10.00"> f</text>
<text text-anchor="middle" x="961.5" y="-1047.9" font-family="Helvetica,sans-Serif" font-size="10.00">x</text>
<text text-anchor="middle" x="961.5" y="-1036.9" font-family="Helvetica,sans-Serif" font-size="10.00">x_t</text>
<text text-anchor="middle" x="961.5" y="-1025.9" font-family="Helvetica,sans-Serif" font-size="10.00">x_tt</text>
</g>
<!-- Node14&#45;&gt;Node17 -->
<g id="edge22" class="edge">
<title>Node14&#45;&gt;Node17</title>
<path fill="none" stroke="#9a32cd" stroke-dasharray="5,2" d="M818.88,-920.97C844.34,-869.44 923.38,-727.75 1040,-686.9 1077.54,-673.75 1368.13,-685.55 1397,-712.9 1423.46,-737.96 1389.29,-767.06 1415,-792.9 1421.53,-799.46 1429.84,-803.95 1438.67,-806.98"/>
<polygon fill="#9a32cd" stroke="#9a32cd" points="815.58,-919.75 814.38,-930.28 821.88,-922.8 815.58,-919.75"/>
<text text-anchor="middle" x="1141.5" y="-700.9" font-family="Helvetica,sans-Serif" font-size="10.00"> snes_x</text>
<text text-anchor="middle" x="1141.5" y="-689.9" font-family="Helvetica,sans-Serif" font-size="10.00">snes_f</text>
</g>
<!-- Node14&#45;&gt;Node20 -->
<g id="edge30" class="edge">
<title>Node14&#45;&gt;Node20</title>
<path fill="none" stroke="#9a32cd" stroke-dasharray="5,2" d="M836.28,-938.12C879.53,-936.58 966.43,-939.54 1022,-981.9 1036.23,-992.74 1025.82,-1006.99 1040,-1017.9 1113.03,-1074.06 1155.26,-1031.8 1243,-1059.9 1314.26,-1082.72 1331.03,-1092.59 1397,-1127.9 1429.28,-1145.18 1464.97,-1169.16 1483.92,-1182.31"/>
<polygon fill="#9a32cd" stroke="#9a32cd" points="836.1,-934.62 826.27,-938.58 836.43,-941.61 836.1,-934.62"/>
<text text-anchor="middle" x="1141.5" y="-1095.9" font-family="Helvetica,sans-Serif" font-size="10.00"> ts_u</text>
<text text-anchor="middle" x="1141.5" y="-1084.9" font-family="Helvetica,sans-Serif" font-size="10.00">ts_F</text>
<text text-anchor="middle" x="1141.5" y="-1073.9" font-family="Helvetica,sans-Serif" font-size="10.00">ts_u_t</text>
<text text-anchor="middle" x="1141.5" y="-1062.9" font-family="Helvetica,sans-Serif" font-size="10.00">ts_u_tt</text>
</g>
<!-- Node15 -->
<g id="node15" class="node">
<title>Node15</title>
<g id="a_node15"><a xlink:title=" ">
<polygon fill="white" stroke="#bfbfbf" points="1124,-899.4 1124,-918.4 1159,-918.4 1159,-899.4 1124,-899.4"/>
<text text-anchor="middle" x="1141.5" y="-906.4" font-family="Helvetica,sans-Serif" font-size="10.00">KSP</text>
</a>
</g>
</g>
<!-- Node15&#45;&gt;Node6 -->
<g id="edge14" class="edge">
<title>Node15&#45;&gt;Node6</title>
<path fill="none" stroke="#9a32cd" stroke-dasharray="5,2" d="M1169.33,-909.42C1215.76,-910.45 1314.1,-913.15 1397,-918.9 1411.61,-919.91 1427.38,-921.33 1442,-922.77"/>
<polygon fill="#9a32cd" stroke="#9a32cd" points="1169.27,-905.92 1159.19,-909.21 1169.12,-912.92 1169.27,-905.92"/>
<text text-anchor="middle" x="1329" y="-921.9" font-family="Helvetica,sans-Serif" font-size="10.00"> ksp</text>
</g>
<!-- Node16 -->
<g id="node16" class="node">
<title>Node16</title>
<g id="a_node16"><a xlink:title=" ">
<polygon fill="white" stroke="#bfbfbf" points="1104.5,-937.4 1104.5,-956.4 1178.5,-956.4 1178.5,-937.4 1104.5,-937.4"/>
<text text-anchor="middle" x="1141.5" y="-944.4" font-family="Helvetica,sans-Serif" font-size="10.00">KSPContext</text>
</a>
</g>
</g>
<!-- Node16&#45;&gt;Node6 -->
<g id="edge15" class="edge">
<title>Node16&#45;&gt;Node6</title>
<path fill="none" stroke="#9a32cd" stroke-dasharray="5,2" d="M1189.19,-944.53C1254.3,-941.23 1372.2,-935.25 1441.81,-931.72"/>
<polygon fill="#9a32cd" stroke="#9a32cd" points="1188.63,-941.05 1178.82,-945.06 1188.99,-948.05 1188.63,-941.05"/>
<text text-anchor="middle" x="1329" y="-942.9" font-family="Helvetica,sans-Serif" font-size="10.00"> ksp_ctx</text>
</g>
<!-- Node17&#45;&gt;Node5 -->
<g id="edge18" class="edge">
<title>Node17&#45;&gt;Node5</title>
<path fill="none" stroke="midnightblue" d="M1568.06,-807.98C1641.05,-803.82 1755.39,-797.29 1824.95,-793.32"/>
<polygon fill="midnightblue" stroke="midnightblue" points="1567.83,-804.49 1558.05,-808.56 1568.23,-811.48 1567.83,-804.49"/>
</g>
<!-- Node18 -->
<g id="node18" class="node">
<title>Node18</title>
<g id="a_node18"><a xlink:title=" ">
<polygon fill="white" stroke="#bfbfbf" points="1120.5,-718.4 1120.5,-737.4 1162.5,-737.4 1162.5,-718.4 1120.5,-718.4"/>
<text text-anchor="middle" x="1141.5" y="-725.4" font-family="Helvetica,sans-Serif" font-size="10.00">SNES</text>
</a>
</g>
</g>
<!-- Node18&#45;&gt;Node17 -->
<g id="edge20" class="edge">
<title>Node18&#45;&gt;Node17</title>
<path fill="none" stroke="#9a32cd" stroke-dasharray="5,2" d="M1172.69,-722.33C1223.94,-714.63 1329,-706.65 1397,-754.9 1412.24,-765.71 1400.44,-781.18 1415,-792.9 1421.99,-798.52 1430.33,-802.54 1438.98,-805.4"/>
<polygon fill="#9a32cd" stroke="#9a32cd" points="1171.93,-718.91 1162.61,-723.95 1173.04,-725.82 1171.93,-718.91"/>
<text text-anchor="middle" x="1329" y="-757.9" font-family="Helvetica,sans-Serif" font-size="10.00"> snes</text>
</g>
<!-- Node19 -->
<g id="node19" class="node">
<title>Node19</title>
<g id="a_node19"><a xlink:title=" ">
<polygon fill="white" stroke="#bfbfbf" points="1101.5,-756.4 1101.5,-775.4 1181.5,-775.4 1181.5,-756.4 1101.5,-756.4"/>
<text text-anchor="middle" x="1141.5" y="-763.4" font-family="Helvetica,sans-Serif" font-size="10.00">SNESContext</text>
</a>
</g>
</g>
<!-- Node19&#45;&gt;Node17 -->
<g id="edge23" class="edge">
<title>Node19&#45;&gt;Node17</title>
<path fill="none" stroke="#9a32cd" stroke-dasharray="5,2" d="M1191.93,-766.49C1243.57,-767.91 1326.7,-772.5 1397,-786.9 1405.26,-788.59 1406.88,-790.62 1415,-792.9 1427.03,-796.28 1440.16,-799.51 1452.34,-802.32"/>
<polygon fill="#9a32cd" stroke="#9a32cd" points="1191.8,-762.98 1181.72,-766.24 1191.63,-769.98 1191.8,-762.98"/>
<text text-anchor="middle" x="1329" y="-789.9" font-family="Helvetica,sans-Serif" font-size="10.00"> snes_ctx</text>
</g>
<!-- Node20&#45;&gt;Node5 -->
<g id="edge24" class="edge">
<title>Node20&#45;&gt;Node5</title>
<path fill="none" stroke="midnightblue" d="M1521.72,-1176.53C1575.87,-1137.78 1715.04,-1030.1 1781,-903.9 1800.7,-866.2 1769.52,-840.56 1799,-809.9 1806.01,-802.6 1815.12,-797.74 1824.79,-794.54"/>
<polygon fill="midnightblue" stroke="midnightblue" points="1519.63,-1173.72 1513.49,-1182.35 1523.68,-1179.43 1519.63,-1173.72"/>
</g>
<!-- Node21 -->
<g id="node21" class="node">
<title>Node21</title>
<g id="a_node21"><a xlink:title=" ">
<polygon fill="white" stroke="#bfbfbf" points="1109,-1323.4 1109,-1342.4 1174,-1342.4 1174,-1323.4 1109,-1323.4"/>
<text text-anchor="middle" x="1141.5" y="-1330.4" font-family="Helvetica,sans-Serif" font-size="10.00">PetscReal</text>
</a>
</g>
</g>
<!-- Node21&#45;&gt;Node20 -->
<g id="edge27" class="edge">
<title>Node21&#45;&gt;Node20</title>
<path fill="none" stroke="#9a32cd" stroke-dasharray="5,2" d="M1184.48,-1327.17C1254.31,-1317.54 1387.63,-1298.69 1397,-1293.9 1441.05,-1271.39 1477.35,-1222.24 1491.32,-1201.47"/>
<polygon fill="#9a32cd" stroke="#9a32cd" points="1183.68,-1323.74 1174.25,-1328.57 1184.64,-1330.68 1183.68,-1323.74"/>
<text text-anchor="middle" x="1329" y="-1350.9" font-family="Helvetica,sans-Serif" font-size="10.00"> ts_a</text>
<text text-anchor="middle" x="1329" y="-1339.9" font-family="Helvetica,sans-Serif" font-size="10.00">ts_t</text>
<text text-anchor="middle" x="1329" y="-1328.9" font-family="Helvetica,sans-Serif" font-size="10.00">ts_dt</text>
<text text-anchor="middle" x="1329" y="-1317.9" font-family="Helvetica,sans-Serif" font-size="10.00">ts_aa</text>
</g>
<!-- Node22 -->
<g id="node22" class="node">
<title>Node22</title>
<g id="a_node22"><a xlink:title=" ">
<polygon fill="white" stroke="#bfbfbf" points="1108,-1285.4 1108,-1304.4 1175,-1304.4 1175,-1285.4 1108,-1285.4"/>
<text text-anchor="middle" x="1141.5" y="-1292.4" font-family="Helvetica,sans-Serif" font-size="10.00">TSContext</text>
</a>
</g>
</g>
<!-- Node22&#45;&gt;Node20 -->
<g id="edge28" class="edge">
<title>Node22&#45;&gt;Node20</title>
<path fill="none" stroke="#9a32cd" stroke-dasharray="5,2" d="M1185.3,-1290.09C1252.64,-1282.36 1377.68,-1267.3 1397,-1259.9 1433.4,-1245.96 1469.67,-1216.65 1487,-1201.47"/>
<polygon fill="#9a32cd" stroke="#9a32cd" points="1184.55,-1286.65 1175.01,-1291.26 1185.35,-1293.61 1184.55,-1286.65"/>
<text text-anchor="middle" x="1329" y="-1282.9" font-family="Helvetica,sans-Serif" font-size="10.00"> ts_ctx</text>
</g>
<!-- Node23 -->
<g id="node23" class="node">
<title>Node23</title>
<g id="a_node23"><a xlink:title=" ">
<polygon fill="white" stroke="#bfbfbf" points="1113.5,-1247.4 1113.5,-1266.4 1169.5,-1266.4 1169.5,-1247.4 1113.5,-1247.4"/>
<text text-anchor="middle" x="1141.5" y="-1254.4" font-family="Helvetica,sans-Serif" font-size="10.00">PetscInt</text>
</a>
</g>
</g>
<!-- Node23&#45;&gt;Node20 -->
<g id="edge29" class="edge">
<title>Node23&#45;&gt;Node20</title>
<path fill="none" stroke="#9a32cd" stroke-dasharray="5,2" d="M1179.51,-1254.19C1229.37,-1250.07 1320.66,-1240.86 1397,-1223.9 1422.92,-1218.14 1451.72,-1208.64 1471.82,-1201.48"/>
<polygon fill="#9a32cd" stroke="#9a32cd" points="1179.21,-1250.7 1169.52,-1254.99 1179.77,-1257.68 1179.21,-1250.7"/>
<text text-anchor="middle" x="1329" y="-1247.9" font-family="Helvetica,sans-Serif" font-size="10.00"> ts_step</text>
</g>
<!-- Node24 -->
<g id="node24" class="node">
<title>Node24</title>
<g id="a_node24"><a xlink:title=" ">
<polygon fill="white" stroke="#bfbfbf" points="1127,-1209.4 1127,-1228.4 1156,-1228.4 1156,-1209.4 1127,-1209.4"/>
<text text-anchor="middle" x="1141.5" y="-1216.4" font-family="Helvetica,sans-Serif" font-size="10.00">TS</text>
</a>
</g>
</g>
<!-- Node24&#45;&gt;Node20 -->
<g id="edge31" class="edge">
<title>Node24&#45;&gt;Node20</title>
<path fill="none" stroke="#9a32cd" stroke-dasharray="5,2" d="M1166.58,-1217.07C1223.4,-1212.74 1366.9,-1201.83 1444.96,-1195.89"/>
<polygon fill="#9a32cd" stroke="#9a32cd" points="1166.12,-1213.59 1156.42,-1217.84 1166.65,-1220.57 1166.12,-1213.59"/>
<text text-anchor="middle" x="1329" y="-1211.9" font-family="Helvetica,sans-Serif" font-size="10.00"> ts</text>
</g>
<!-- Node25 -->
<g id="node25" class="node">
<title>Node25</title>
<g id="a_node25"><a xlink:title=" ">
<polygon fill="white" stroke="#bfbfbf" points="1454,-840.4 1454,-859.4 1543,-859.4 1543,-840.4 1454,-840.4"/>
<text text-anchor="middle" x="1498.5" y="-847.4" font-family="Helvetica,sans-Serif" font-size="10.00">pair&lt; int, int &gt;</text>
</a>
</g>
</g>
<!-- Node25&#45;&gt;Node5 -->
<g id="edge33" class="edge">
<title>Node25&#45;&gt;Node5</title>
<path fill="none" stroke="#9a32cd" stroke-dasharray="5,2" d="M1553.43,-845.57C1610.37,-840.45 1702.58,-830.58 1781,-814.9 1789.14,-813.27 1790.95,-811.95 1799,-809.9 1813.11,-806.3 1828.59,-802.62 1842.48,-799.41"/>
<polygon fill="#9a32cd" stroke="#9a32cd" points="1552.87,-842.11 1543.22,-846.47 1553.49,-849.08 1552.87,-842.11"/>
<text text-anchor="middle" x="1690.5" y="-843.9" font-family="Helvetica,sans-Serif" font-size="10.00"> loHiFERank</text>
</g>
<!-- Node26 -->
<g id="node26" class="node">
<title>Node26</title>
<g id="a_node26"><a xlink:title=" ">
<polygon fill="white" stroke="#bfbfbf" points="1428.5,-764.4 1428.5,-783.4 1568.5,-783.4 1568.5,-764.4 1428.5,-764.4"/>
<text text-anchor="middle" x="1498.5" y="-771.4" font-family="Helvetica,sans-Serif" font-size="10.00">weak_ptr&lt; CacheTuple &gt;</text>
</a>
</g>
</g>
<!-- Node26&#45;&gt;Node5 -->
<g id="edge34" class="edge">
<title>Node26&#45;&gt;Node5</title>
<path fill="none" stroke="#9a32cd" stroke-dasharray="5,2" d="M1578.95,-774.57C1635.37,-775.37 1712.88,-777.11 1781,-780.9 1795.2,-781.69 1810.48,-782.84 1824.83,-784.06"/>
<polygon fill="#9a32cd" stroke="#9a32cd" points="1578.72,-771.07 1568.67,-774.43 1578.62,-778.07 1578.72,-771.07"/>
<text text-anchor="middle" x="1690.5" y="-783.9" font-family="Helvetica,sans-Serif" font-size="10.00"> cacheWeakPtr</text>
</g>
<!-- Node27 -->
<g id="node27" class="node">
<title>Node27</title>
<g id="a_node27"><a xlink:title=" ">
<polygon fill="white" stroke="#bfbfbf" points="1442.5,-646.4 1442.5,-665.4 1554.5,-665.4 1554.5,-646.4 1442.5,-646.4"/>
<text text-anchor="middle" x="1498.5" y="-653.4" font-family="Helvetica,sans-Serif" font-size="10.00">unique_ptr&lt; bool &gt;</text>
</a>
</g>
</g>
<!-- Node27&#45;&gt;Node5 -->
<g id="edge35" class="edge">
<title>Node27&#45;&gt;Node5</title>
<path fill="none" stroke="#9a32cd" stroke-dasharray="5,2" d="M1564.66,-660.55C1641.71,-666.4 1761.96,-676.8 1781,-685.9 1827.08,-707.92 1864.64,-759.01 1878.86,-780.31"/>
<polygon fill="#9a32cd" stroke="#9a32cd" points="1564.79,-657.05 1554.56,-659.79 1564.27,-664.03 1564.79,-657.05"/>
<text text-anchor="middle" x="1690.5" y="-699.9" font-family="Helvetica,sans-Serif" font-size="10.00"> matAssembleSwitch</text>
<text text-anchor="middle" x="1690.5" y="-688.9" font-family="Helvetica,sans-Serif" font-size="10.00">vecAssembleSwitch</text>
</g>
<!-- Node28 -->
<g id="node28" class="node">
<title>Node28</title>
<g id="a_node28"><a xlink:title=" ">
<polygon fill="white" stroke="#bfbfbf" points="1127,-615.4 1127,-634.4 1156,-634.4 1156,-615.4 1127,-615.4"/>
<text text-anchor="middle" x="1141.5" y="-622.4" font-family="Helvetica,sans-Serif" font-size="10.00">int</text>
</a>
</g>
</g>
<!-- Node28&#45;&gt;Node2 -->
<g id="edge76" class="edge">
<title>Node28&#45;&gt;Node2</title>
<path fill="none" stroke="#9a32cd" stroke-dasharray="5,2" d="M1166.42,-624.37C1242.72,-622.75 1487.15,-617.9 1689.5,-617.9 1689.5,-617.9 1689.5,-617.9 2639,-617.9 2739.44,-617.9 2840.37,-698.44 2878.79,-732.73"/>
<polygon fill="#9a32cd" stroke="#9a32cd" points="1165.95,-620.88 1156.03,-624.6 1166.1,-627.88 1165.95,-620.88"/>
<text text-anchor="middle" x="2063" y="-620.9" font-family="Helvetica,sans-Serif" font-size="10.00"> num_nodes</text>
</g>
<!-- Node28&#45;&gt;Node5 -->
<g id="edge36" class="edge">
<title>Node28&#45;&gt;Node5</title>
<path fill="none" stroke="#9a32cd" stroke-dasharray="5,2" d="M1166.46,-629.05C1232.79,-640.66 1424.35,-674.96 1582,-710.9 1680.32,-733.31 1795.25,-764.72 1851.09,-780.32"/>
<polygon fill="#9a32cd" stroke="#9a32cd" points="1166.69,-625.54 1156.24,-627.27 1165.49,-632.43 1166.69,-625.54"/>
<text text-anchor="middle" x="1498.5" y="-746.9" font-family="Helvetica,sans-Serif" font-size="10.00"> sIze</text>
<text text-anchor="middle" x="1498.5" y="-735.9" font-family="Helvetica,sans-Serif" font-size="10.00">loopSize</text>
<text text-anchor="middle" x="1498.5" y="-724.9" font-family="Helvetica,sans-Serif" font-size="10.00">nInTheLoop</text>
<text text-anchor="middle" x="1498.5" y="-713.9" font-family="Helvetica,sans-Serif" font-size="10.00">rAnk</text>
</g>
<!-- Node30 -->
<g id="node30" class="node">
<title>Node30</title>
<g id="a_node30"><a xlink:href="structMoFEM_1_1Problem.html" target="_top" xlink:title="keeps basic data about problem">
<polygon fill="white" stroke="black" points="1449,-337.4 1449,-356.4 1548,-356.4 1548,-337.4 1449,-337.4"/>
<text text-anchor="middle" x="1498.5" y="-344.4" font-family="Helvetica,sans-Serif" font-size="10.00">MoFEM::Problem</text>
</a>
</g>
</g>
<!-- Node28&#45;&gt;Node30 -->
<g id="edge48" class="edge">
<title>Node28&#45;&gt;Node30</title>
<path fill="none" stroke="#9a32cd" stroke-dasharray="5,2" d="M1158.85,-608.03C1180.25,-587.05 1219.89,-551.83 1261,-533.9 1317.19,-509.39 1346.21,-545.22 1397,-510.9 1455.38,-471.45 1485.8,-385.62 1494.69,-356.66"/>
<polygon fill="#9a32cd" stroke="#9a32cd" points="1156.17,-605.76 1151.58,-615.3 1161.13,-610.71 1156.17,-605.76"/>
<text text-anchor="middle" x="1329" y="-602.9" font-family="Helvetica,sans-Serif" font-size="10.00"> tagNameSize</text>
<text text-anchor="middle" x="1329" y="-591.9" font-family="Helvetica,sans-Serif" font-size="10.00">nbDofsRow</text>
<text text-anchor="middle" x="1329" y="-580.9" font-family="Helvetica,sans-Serif" font-size="10.00">nbLocDofsCol</text>
<text text-anchor="middle" x="1329" y="-569.9" font-family="Helvetica,sans-Serif" font-size="10.00">nbDofsCol</text>
<text text-anchor="middle" x="1329" y="-558.9" font-family="Helvetica,sans-Serif" font-size="10.00">nbGhostDofsRow</text>
<text text-anchor="middle" x="1329" y="-547.9" font-family="Helvetica,sans-Serif" font-size="10.00">nbGhostDofsCol</text>
<text text-anchor="middle" x="1329" y="-536.9" font-family="Helvetica,sans-Serif" font-size="10.00">nbLocDofsRow</text>
</g>
<!-- Node29 -->
<g id="node29" class="node">
<title>Node29</title>
<g id="a_node29"><a xlink:title=" ">
<polygon fill="white" stroke="#bfbfbf" points="1415,-1403.4 1415,-1422.4 1582,-1422.4 1582,-1403.4 1415,-1403.4"/>
<text text-anchor="middle" x="1498.5" y="-1410.4" font-family="Helvetica,sans-Serif" font-size="10.00">function&lt; MoFEMErrorCode()&gt;</text>
</a>
</g>
</g>
<!-- Node29&#45;&gt;Node5 -->
<g id="edge37" class="edge">
<title>Node29&#45;&gt;Node5</title>
<path fill="none" stroke="#9a32cd" stroke-dasharray="5,2" d="M1592.07,-1417.71C1664.05,-1419.23 1755.79,-1415.51 1781,-1388.9 1825.27,-1342.17 1758.19,-859.67 1799,-809.9 1805.61,-801.84 1814.77,-796.65 1824.67,-793.37"/>
<polygon fill="#9a32cd" stroke="#9a32cd" points="1592.14,-1414.21 1582.06,-1417.47 1591.97,-1421.21 1592.14,-1414.21"/>
<text text-anchor="middle" x="1690.5" y="-1442.9" font-family="Helvetica,sans-Serif" font-size="10.00"> preProcessHook</text>
<text text-anchor="middle" x="1690.5" y="-1431.9" font-family="Helvetica,sans-Serif" font-size="10.00">operatorHook</text>
<text text-anchor="middle" x="1690.5" y="-1420.9" font-family="Helvetica,sans-Serif" font-size="10.00">postProcessHook</text>
</g>
<!-- Node30&#45;&gt;Node5 -->
<g id="edge38" class="edge">
<title>Node30&#45;&gt;Node5</title>
<path fill="none" stroke="#9a32cd" stroke-dasharray="5,2" d="M1516.31,-363.65C1561.06,-408.54 1686.14,-535.85 1781,-649.9 1820.11,-696.92 1862.25,-756.9 1878.29,-780.11"/>
<polygon fill="#9a32cd" stroke="#9a32cd" points="1518.68,-361.08 1509.14,-356.48 1513.73,-366.03 1518.68,-361.08"/>
<text text-anchor="middle" x="1690.5" y="-652.9" font-family="Helvetica,sans-Serif" font-size="10.00"> problemPtr</text>
</g>
<!-- Node31 -->
<g id="node31" class="node">
<title>Node31</title>
<g id="a_node31"><a xlink:title=" ">
<polygon fill="white" stroke="#bfbfbf" points="1058,-375.9 1058,-405.9 1225,-405.9 1225,-375.9 1058,-375.9"/>
<text text-anchor="start" x="1066" y="-393.9" font-family="Helvetica,sans-Serif" font-size="10.00">shared_ptr&lt; NumeredEntFinite</text>
<text text-anchor="middle" x="1141.5" y="-382.9" font-family="Helvetica,sans-Serif" font-size="10.00">Element_multiIndex &gt;</text>
</a>
</g>
</g>
<!-- Node31&#45;&gt;Node30 -->
<g id="edge39" class="edge">
<title>Node31&#45;&gt;Node30</title>
<path fill="none" stroke="#9a32cd" stroke-dasharray="5,2" d="M1235.23,-381.11C1283.51,-375.82 1343.49,-368.94 1397,-361.9 1413.97,-359.67 1432.5,-356.97 1448.99,-354.49"/>
<polygon fill="#9a32cd" stroke="#9a32cd" points="1234.67,-377.65 1225.11,-382.22 1235.43,-384.61 1234.67,-377.65"/>
<text text-anchor="middle" x="1329" y="-379.9" font-family="Helvetica,sans-Serif" font-size="10.00"> numeredFiniteElementsPtr</text>
</g>
<!-- Node32 -->
<g id="node32" class="node">
<title>Node32</title>
<g id="a_node32"><a xlink:title=" ">
<polygon fill="white" stroke="#bfbfbf" points="1112,-337.4 1112,-356.4 1171,-356.4 1171,-337.4 1112,-337.4"/>
<text text-anchor="middle" x="1141.5" y="-344.4" font-family="Helvetica,sans-Serif" font-size="10.00">BitFEId *</text>
</a>
</g>
</g>
<!-- Node32&#45;&gt;Node30 -->
<g id="edge40" class="edge">
<title>Node32&#45;&gt;Node30</title>
<path fill="none" stroke="#9a32cd" stroke-dasharray="5,2" d="M1181.5,-346.9C1246.67,-346.9 1377.54,-346.9 1448.7,-346.9"/>
<polygon fill="#9a32cd" stroke="#9a32cd" points="1181.25,-343.4 1171.25,-346.9 1181.25,-350.4 1181.25,-343.4"/>
<text text-anchor="middle" x="1329" y="-349.9" font-family="Helvetica,sans-Serif" font-size="10.00"> tagBitFEId</text>
</g>
<!-- Node33 -->
<g id="node33" class="node">
<title>Node33</title>
<g id="a_node33"><a xlink:href="classEntityHandle.html" target="_top" xlink:title=" ">
<polygon fill="white" stroke="black" points="1101.5,-78.4 1101.5,-97.4 1181.5,-97.4 1181.5,-78.4 1101.5,-78.4"/>
<text text-anchor="middle" x="1141.5" y="-85.4" font-family="Helvetica,sans-Serif" font-size="10.00">EntityHandle</text>
</a>
</g>
</g>
<!-- Node33&#45;&gt;Node2 -->
<g id="edge74" class="edge">
<title>Node33&#45;&gt;Node2</title>
<path fill="none" stroke="#9a32cd" stroke-dasharray="5,2" d="M1191.7,-86.09C1260.22,-83.73 1388.29,-79.9 1497.5,-79.9 1497.5,-79.9 1497.5,-79.9 2639,-79.9 2783.69,-79.9 2877.07,-633.26 2892.68,-732.69"/>
<polygon fill="#9a32cd" stroke="#9a32cd" points="1191.5,-82.59 1181.63,-86.44 1191.74,-89.59 1191.5,-82.59"/>
<text text-anchor="middle" x="2063" y="-82.9" font-family="Helvetica,sans-Serif" font-size="10.00"> conn</text>
</g>
<!-- Node33&#45;&gt;Node30 -->
<g id="edge41" class="edge">
<title>Node33&#45;&gt;Node30</title>
<path fill="none" stroke="#9a32cd" stroke-dasharray="5,2" d="M1191.92,-90.07C1261.28,-93.51 1380.85,-101.09 1397,-112.9 1475.15,-170.06 1493.14,-300.67 1496.71,-337.23"/>
<polygon fill="#9a32cd" stroke="#9a32cd" points="1191.82,-86.56 1181.66,-89.57 1191.48,-93.55 1191.82,-86.56"/>
<text text-anchor="middle" x="1329" y="-115.9" font-family="Helvetica,sans-Serif" font-size="10.00"> meshset</text>
</g>
<!-- Node34 -->
<g id="node34" class="node">
<title>Node34</title>
<g id="a_node34"><a xlink:title=" ">
<polygon fill="white" stroke="#bfbfbf" points="1067,-287.9 1067,-317.9 1216,-317.9 1216,-287.9 1067,-287.9"/>
<text text-anchor="start" x="1075" y="-305.9" font-family="Helvetica,sans-Serif" font-size="10.00">shared_ptr&lt; MoFEM::</text>
<text text-anchor="middle" x="1141.5" y="-294.9" font-family="Helvetica,sans-Serif" font-size="10.00">ComposedProblemsData &gt;</text>
</a>
</g>
</g>
<!-- Node34&#45;&gt;Node30 -->
<g id="edge42" class="edge">
<title>Node34&#45;&gt;Node30</title>
<path fill="none" stroke="#9a32cd" stroke-dasharray="5,2" d="M1226.14,-311.69C1275.84,-317.1 1340.08,-324.41 1397,-331.9 1413.97,-334.13 1432.5,-336.82 1448.99,-339.31"/>
<polygon fill="#9a32cd" stroke="#9a32cd" points="1226.41,-308.2 1216.09,-310.6 1225.65,-315.16 1226.41,-308.2"/>
<text text-anchor="middle" x="1329" y="-334.9" font-family="Helvetica,sans-Serif" font-size="10.00"> composedProblemsData</text>
</g>
<!-- Node35 -->
<g id="node35" class="node">
<title>Node35</title>
<g id="a_node35"><a xlink:title=" ">
<polygon fill="white" stroke="#bfbfbf" points="1101,-249.4 1101,-268.4 1182,-268.4 1182,-249.4 1101,-249.4"/>
<text text-anchor="middle" x="1141.5" y="-256.4" font-family="Helvetica,sans-Serif" font-size="10.00">BitRefLevel *</text>
</a>
</g>
</g>
<!-- Node35&#45;&gt;Node30 -->
<g id="edge43" class="edge">
<title>Node35&#45;&gt;Node30</title>
<path fill="none" stroke="#9a32cd" stroke-dasharray="5,2" d="M1192.36,-259.23C1244.6,-260.88 1328.44,-267.29 1397,-289.9 1430.91,-301.08 1466.25,-324.27 1484.64,-337.36"/>
<polygon fill="#9a32cd" stroke="#9a32cd" points="1192.44,-255.73 1182.35,-258.96 1192.25,-262.72 1192.44,-255.73"/>
<text text-anchor="middle" x="1329" y="-303.9" font-family="Helvetica,sans-Serif" font-size="10.00"> tagBitRefLevelMask</text>
<text text-anchor="middle" x="1329" y="-292.9" font-family="Helvetica,sans-Serif" font-size="10.00">tagBitRefLevel</text>
</g>
<!-- Node36 -->
<g id="node36" class="node">
<title>Node36</title>
<g id="a_node36"><a xlink:title=" ">
<polygon fill="white" stroke="#bfbfbf" points="1056.5,-199.9 1056.5,-229.9 1226.5,-229.9 1226.5,-199.9 1056.5,-199.9"/>
<text text-anchor="start" x="1064.5" y="-217.9" font-family="Helvetica,sans-Serif" font-size="10.00">shared_ptr&lt; NumeredDofEntity</text>
<text text-anchor="middle" x="1141.5" y="-206.9" font-family="Helvetica,sans-Serif" font-size="10.00">_multiIndex &gt;</text>
</a>
</g>
</g>
<!-- Node36&#45;&gt;Node30 -->
<g id="edge44" class="edge">
<title>Node36&#45;&gt;Node30</title>
<path fill="none" stroke="#9a32cd" stroke-dasharray="5,2" d="M1236.69,-207.53C1286.68,-207.44 1347.77,-213.63 1397,-237.9 1443.4,-260.78 1478.89,-314.92 1492,-337.13"/>
<polygon fill="#9a32cd" stroke="#9a32cd" points="1236.49,-204.04 1226.52,-207.64 1236.56,-211.04 1236.49,-204.04"/>
<text text-anchor="middle" x="1329" y="-251.9" font-family="Helvetica,sans-Serif" font-size="10.00"> numeredRowDofsPtr</text>
<text text-anchor="middle" x="1329" y="-240.9" font-family="Helvetica,sans-Serif" font-size="10.00">numeredColDofsPtr</text>
</g>
<!-- Node37 -->
<g id="node37" class="node">
<title>Node37</title>
<g id="a_node37"><a xlink:title=" ">
<polygon fill="white" stroke="#bfbfbf" points="1122.5,-161.4 1122.5,-180.4 1160.5,-180.4 1160.5,-161.4 1122.5,-161.4"/>
<text text-anchor="middle" x="1141.5" y="-168.4" font-family="Helvetica,sans-Serif" font-size="10.00">char</text>
</a>
</g>
</g>
<!-- Node37&#45;&gt;Node30 -->
<g id="edge45" class="edge">
<title>Node37&#45;&gt;Node30</title>
<path fill="none" stroke="#9a32cd" stroke-dasharray="5,2" d="M1170.8,-165.8C1220.5,-158.38 1325.04,-149.82 1397,-192.9 1454.52,-227.33 1485.3,-308.9 1494.5,-337.1"/>
<polygon fill="#9a32cd" stroke="#9a32cd" points="1170.1,-162.36 1160.78,-167.39 1171.2,-169.28 1170.1,-162.36"/>
<text text-anchor="middle" x="1329" y="-195.9" font-family="Helvetica,sans-Serif" font-size="10.00"> tagName</text>
</g>
<!-- Node38 -->
<g id="node38" class="node">
<title>Node38</title>
<g id="a_node38"><a xlink:title=" ">
<polygon fill="white" stroke="#bfbfbf" points="1072.5,-123.4 1072.5,-142.4 1210.5,-142.4 1210.5,-123.4 1072.5,-123.4"/>
<text text-anchor="middle" x="1141.5" y="-130.4" font-family="Helvetica,sans-Serif" font-size="10.00">vector&lt; BlockFieldPair &gt;</text>
</a>
</g>
</g>
<!-- Node38&#45;&gt;Node30 -->
<g id="edge46" class="edge">
<title>Node38&#45;&gt;Node30</title>
<path fill="none" stroke="#9a32cd" stroke-dasharray="5,2" d="M1220.6,-128.48C1284.55,-126.37 1368.88,-127.51 1397,-145.9 1467.53,-192.02 1490.59,-303.4 1496.07,-337.09"/>
<polygon fill="#9a32cd" stroke="#9a32cd" points="1220.4,-124.98 1210.53,-128.84 1220.65,-131.98 1220.4,-124.98"/>
<text text-anchor="middle" x="1329" y="-148.9" font-family="Helvetica,sans-Serif" font-size="10.00"> emptyFieldBlocks</text>
</g>
<!-- Node39 -->
<g id="node39" class="node">
<title>Node39</title>
<g id="a_node39"><a xlink:title=" ">
<polygon fill="white" stroke="#bfbfbf" points="1063.5,-501.9 1063.5,-531.9 1219.5,-531.9 1219.5,-501.9 1063.5,-501.9"/>
<text text-anchor="start" x="1071.5" y="-519.9" font-family="Helvetica,sans-Serif" font-size="10.00">shared_ptr&lt; MoFEM::</text>
<text text-anchor="middle" x="1141.5" y="-508.9" font-family="Helvetica,sans-Serif" font-size="10.00">Problem::SubProblemData &gt;</text>
</a>
</g>
</g>
<!-- Node39&#45;&gt;Node30 -->
<g id="edge47" class="edge">
<title>Node39&#45;&gt;Node30</title>
<path fill="none" stroke="#9a32cd" stroke-dasharray="5,2" d="M1229.74,-503.95C1301.94,-493.12 1393.29,-479.09 1397,-476.9 1447.58,-446.97 1481.83,-381.03 1493.28,-356.41"/>
<polygon fill="#9a32cd" stroke="#9a32cd" points="1229.06,-500.52 1219.69,-505.46 1230.1,-507.44 1229.06,-500.52"/>
<text text-anchor="middle" x="1329" y="-500.9" font-family="Helvetica,sans-Serif" font-size="10.00"> subProblemData</text>
</g>
<!-- Node40 -->
<g id="node40" class="node">
<title>Node40</title>
<g id="a_node40"><a xlink:title=" ">
<polygon fill="white" stroke="#bfbfbf" points="1040,-463.4 1040,-482.4 1243,-482.4 1243,-463.4 1040,-463.4"/>
<text text-anchor="middle" x="1141.5" y="-470.4" font-family="Helvetica,sans-Serif" font-size="10.00">shared_ptr&lt; SequenceDofContainer &gt;</text>
</a>
</g>
</g>
<!-- Node40&#45;&gt;Node30 -->
<g id="edge49" class="edge">
<title>Node40&#45;&gt;Node30</title>
<path fill="none" stroke="#9a32cd" stroke-dasharray="5,2" d="M1214.54,-461.77C1288.31,-450.3 1392.81,-433.83 1397,-431.9 1437.07,-413.48 1473.84,-374.52 1489.52,-356.46"/>
<polygon fill="#9a32cd" stroke="#9a32cd" points="1213.69,-458.36 1204.34,-463.35 1214.76,-465.27 1213.69,-458.36"/>
<text text-anchor="middle" x="1329" y="-466.9" font-family="Helvetica,sans-Serif" font-size="10.00"> sequenceRowDofContainer</text>
<text text-anchor="middle" x="1329" y="-455.9" font-family="Helvetica,sans-Serif" font-size="10.00">sequenceColDofContainer</text>
</g>
<!-- Node41 -->
<g id="node41" class="node">
<title>Node41</title>
<g id="a_node41"><a xlink:title=" ">
<polygon fill="white" stroke="#bfbfbf" points="1097.5,-425.4 1097.5,-444.4 1185.5,-444.4 1185.5,-425.4 1097.5,-425.4"/>
<text text-anchor="middle" x="1141.5" y="-432.4" font-family="Helvetica,sans-Serif" font-size="10.00">BitProblemId *</text>
</a>
</g>
</g>
<!-- Node41&#45;&gt;Node30 -->
<g id="edge50" class="edge">
<title>Node41&#45;&gt;Node30</title>
<path fill="none" stroke="#9a32cd" stroke-dasharray="5,2" d="M1195.93,-427.5C1259.12,-418.46 1360.34,-403.01 1397,-391.9 1427.19,-382.75 1460.21,-366.7 1479.87,-356.45"/>
<polygon fill="#9a32cd" stroke="#9a32cd" points="1195.16,-424.07 1185.75,-428.94 1196.15,-431 1195.16,-424.07"/>
<text text-anchor="middle" x="1329" y="-419.9" font-family="Helvetica,sans-Serif" font-size="10.00"> tagId</text>
</g>
<!-- Node42 -->
<g id="node42" class="node">
<title>Node42</title>
<g id="a_node42"><a xlink:title=" ">
<polygon fill="white" stroke="#bfbfbf" points="1805,-818.9 1805,-848.9 1967,-848.9 1967,-818.9 1805,-818.9"/>
<text text-anchor="start" x="1813" y="-836.9" font-family="Helvetica,sans-Serif" font-size="10.00">shared_ptr&lt; const MoFEM</text>
<text text-anchor="middle" x="1886" y="-825.9" font-family="Helvetica,sans-Serif" font-size="10.00">::NumeredEntFiniteElement &gt;</text>
</a>
</g>
</g>
<!-- Node42&#45;&gt;Node4 -->
<g id="edge51" class="edge">
<title>Node42&#45;&gt;Node4</title>
<path fill="none" stroke="#9a32cd" stroke-dasharray="5,2" d="M1977.47,-840.82C2047.52,-846.18 2142.12,-853.42 2200.27,-857.86"/>
<polygon fill="#9a32cd" stroke="#9a32cd" points="1977.56,-837.32 1967.32,-840.04 1977.02,-844.3 1977.56,-837.32"/>
<text text-anchor="middle" x="2063" y="-854.9" font-family="Helvetica,sans-Serif" font-size="10.00"> numeredEntFiniteElementPtr</text>
</g>
<!-- Node43 -->
<g id="node43" class="node">
<title>Node43</title>
<g id="a_node43"><a xlink:title=" ">
<polygon fill="white" stroke="#bfbfbf" points="1864,-1054.4 1864,-1073.4 1908,-1073.4 1908,-1054.4 1864,-1054.4"/>
<text text-anchor="middle" x="1886" y="-1061.4" font-family="Helvetica,sans-Serif" font-size="10.00">string</text>
</a>
</g>
</g>
<!-- Node43&#45;&gt;Node2 -->
<g id="edge77" class="edge">
<title>Node43&#45;&gt;Node2</title>
<path fill="none" stroke="#9a32cd" stroke-dasharray="5,2" d="M1918.19,-1062.8C1936.82,-1063.93 1959.43,-1068.75 1973,-1083.9 2018.1,-1134.24 1940.74,-1189.71 1991,-1234.9 2233.09,-1452.53 2465.94,-1408.63 2723,-1208.9 2873.43,-1092.02 2892.3,-828.96 2894.66,-763.08"/>
<polygon fill="#9a32cd" stroke="#9a32cd" points="1918.15,-1059.3 1908.06,-1062.52 1917.95,-1066.3 1918.15,-1059.3"/>
<text text-anchor="middle" x="2454" y="-1378.9" font-family="Helvetica,sans-Serif" font-size="10.00"> meshPositionsFieldName</text>
</g>
<!-- Node43&#45;&gt;Node4 -->
<g id="edge52" class="edge">
<title>Node43&#45;&gt;Node4</title>
<path fill="none" stroke="#9a32cd" stroke-dasharray="5,2" d="M1918.45,-1064.3C1978.33,-1064.36 2105.4,-1060.86 2135,-1030.9 2181.88,-983.45 2107.69,-930.85 2153,-881.9 2165.03,-868.9 2182.92,-863.01 2200.25,-860.65"/>
<polygon fill="#9a32cd" stroke="#9a32cd" points="1918.1,-1060.8 1908.09,-1064.26 1918.07,-1067.8 1918.1,-1060.8"/>
<text text-anchor="middle" x="2063" y="-1064.9" font-family="Helvetica,sans-Serif" font-size="10.00"> feName</text>
</g>
<!-- Node44 -->
<g id="node44" class="node">
<title>Node44</title>
<g id="a_node44"><a xlink:title=" ">
<polygon fill="white" stroke="#bfbfbf" points="1804.5,-867.9 1804.5,-897.9 1967.5,-897.9 1967.5,-867.9 1804.5,-867.9"/>
<text text-anchor="start" x="1812.5" y="-885.9" font-family="Helvetica,sans-Serif" font-size="10.00">function&lt; bool(MoFEM</text>
<text text-anchor="middle" x="1886" y="-874.9" font-family="Helvetica,sans-Serif" font-size="10.00">::FEMethod *fe_method_ptr)&gt;</text>
</a>
</g>
</g>
<!-- Node44&#45;&gt;Node4 -->
<g id="edge53" class="edge">
<title>Node44&#45;&gt;Node4</title>
<path fill="none" stroke="#9a32cd" stroke-dasharray="5,2" d="M1977.93,-877.68C2047.99,-873.66 2142.39,-868.24 2200.41,-864.92"/>
<polygon fill="#9a32cd" stroke="#9a32cd" points="1977.56,-874.2 1967.77,-878.26 1977.96,-881.18 1977.56,-874.2"/>
<text text-anchor="middle" x="2063" y="-878.9" font-family="Helvetica,sans-Serif" font-size="10.00"> exeTestHook</text>
</g>
<!-- Node45 -->
<g id="node45" class="node">
<title>Node45</title>
<g id="a_node45"><a xlink:href="classdouble.html" target="_top" xlink:title=" ">
<polygon fill="white" stroke="black" points="2229,-1208.4 2229,-1227.4 2279,-1227.4 2279,-1208.4 2229,-1208.4"/>
<text text-anchor="middle" x="2254" y="-1215.4" font-family="Helvetica,sans-Serif" font-size="10.00">double</text>
</a>
</g>
</g>
<!-- Node45&#45;&gt;Node2 -->
<g id="edge75" class="edge">
<title>Node45&#45;&gt;Node2</title>
<path fill="none" stroke="#9a32cd" stroke-dasharray="5,2" d="M2289.44,-1223.22C2343.79,-1230.12 2451.82,-1237.71 2535,-1204.9 2745.93,-1121.69 2863.76,-832.97 2889.57,-763.17"/>
<polygon fill="#9a32cd" stroke="#9a32cd" points="2289.69,-1219.72 2279.31,-1221.86 2288.76,-1226.66 2289.69,-1219.72"/>
<text text-anchor="middle" x="2638" y="-1196.9" font-family="Helvetica,sans-Serif" font-size="10.00"> aRea</text>
</g>
<!-- Node45&#45;&gt;Node3 -->
<g id="edge54" class="edge">
<title>Node45&#45;&gt;Node3</title>
<path fill="none" stroke="#9a32cd" stroke-dasharray="5,2" d="M2289.26,-1212.12C2308.64,-1208.66 2333.26,-1203.97 2355,-1198.9 2363.09,-1197.01 2364.87,-1195.6 2373,-1193.9 2444.18,-1179.02 2475.14,-1212.2 2535,-1170.9 2599.6,-1126.32 2627.47,-1027 2634.88,-995.6"/>
<polygon fill="#9a32cd" stroke="#9a32cd" points="2288.61,-1208.68 2279.37,-1213.85 2289.82,-1215.57 2288.61,-1208.68"/>
<text text-anchor="middle" x="2454" y="-1196.9" font-family="Helvetica,sans-Serif" font-size="10.00"> elementMeasure</text>
</g>
<!-- Node46 -->
<g id="node46" class="node">
<title>Node46</title>
<g id="a_node46"><a xlink:title=" ">
<polygon fill="white" stroke="#bfbfbf" points="2168,-1038.4 2168,-1079.4 2340,-1079.4 2340,-1038.4 2168,-1038.4"/>
<text text-anchor="start" x="2176" y="-1067.4" font-family="Helvetica,sans-Serif" font-size="10.00">array&lt; boost::shared</text>
<text text-anchor="start" x="2176" y="-1056.4" font-family="Helvetica,sans-Serif" font-size="10.00">_ptr&lt; MoFEM::EntitiesFieldData</text>
<text text-anchor="middle" x="2254" y="-1045.4" font-family="Helvetica,sans-Serif" font-size="10.00"> &gt;, LASTSPACE &gt;</text>
</a>
</g>
</g>
<!-- Node46&#45;&gt;Node3 -->
<g id="edge55" class="edge">
<title>Node46&#45;&gt;Node3</title>
<path fill="none" stroke="#9a32cd" stroke-dasharray="5,2" d="M2350.24,-1053.13C2404.9,-1048.39 2474.48,-1039.9 2535,-1024.9 2564.07,-1017.69 2596.11,-1004.52 2616.38,-995.5"/>
<polygon fill="#9a32cd" stroke="#9a32cd" points="2349.88,-1049.65 2340.21,-1053.98 2350.47,-1056.63 2349.88,-1049.65"/>
<text text-anchor="middle" x="2454" y="-1063.9" font-family="Helvetica,sans-Serif" font-size="10.00"> derivedDataOnElement</text>
<text text-anchor="middle" x="2454" y="-1052.9" font-family="Helvetica,sans-Serif" font-size="10.00">dataOnElement</text>
</g>
<!-- Node47 -->
<g id="node47" class="node">
<title>Node47</title>
<g id="a_node47"><a xlink:title=" ">
<polygon fill="white" stroke="#bfbfbf" points="2220,-1000.4 2220,-1019.4 2288,-1019.4 2288,-1000.4 2220,-1000.4"/>
<text text-anchor="middle" x="2254" y="-1007.4" font-family="Helvetica,sans-Serif" font-size="10.00">EntityType</text>
</a>
</g>
</g>
<!-- Node47&#45;&gt;Node3 -->
<g id="edge56" class="edge">
<title>Node47&#45;&gt;Node3</title>
<path fill="none" stroke="#9a32cd" stroke-dasharray="5,2" d="M2298.39,-1010.69C2353.52,-1011.27 2451.55,-1010.86 2535,-1002.9 2552.51,-1001.23 2571.57,-998.34 2588.41,-995.42"/>
<polygon fill="#9a32cd" stroke="#9a32cd" points="2298.32,-1007.19 2288.28,-1010.57 2298.24,-1014.19 2298.32,-1007.19"/>
<text text-anchor="middle" x="2454" y="-1012.9" font-family="Helvetica,sans-Serif" font-size="10.00"> lastEvaluatedElementEntityType</text>
</g>
<!-- Node48 -->
<g id="node48" class="node">
<title>Node48</title>
<g id="a_node48"><a xlink:href="structMoFEM_1_1DeprecatedCoreInterface.html" target="_top" xlink:title="Deprecated interface functions.">
<polygon fill="white" stroke="black" points="1600,-1461.4 1600,-1480.4 1781,-1480.4 1781,-1461.4 1600,-1461.4"/>
<text text-anchor="middle" x="1690.5" y="-1468.4" font-family="Helvetica,sans-Serif" font-size="10.00">MoFEM::DeprecatedCoreInterface</text>
</a>
</g>
</g>
<!-- Node48&#45;&gt;Node3 -->
<g id="edge57" class="edge">
<title>Node48&#45;&gt;Node3</title>
<path fill="none" stroke="#9a32cd" stroke-dasharray="5,2" d="M1761.25,-1459.4C1767.95,-1458 1774.62,-1456.5 1781,-1454.9 1802.37,-1449.53 2521.01,-1225.92 2535,-1208.9 2577.35,-1157.36 2521.94,-1118.93 2553,-1059.9 2568.39,-1030.66 2600.38,-1007.62 2620.14,-995.44"/>
<polygon fill="#9a32cd" stroke="#9a32cd" points="1760.56,-1455.97 1751.44,-1461.37 1761.93,-1462.83 1760.56,-1455.97"/>
<text text-anchor="middle" x="2063" y="-1390.9" font-family="Helvetica,sans-Serif" font-size="10.00"> mField</text>
</g>
<!-- Node49&#45;&gt;Node48 -->
<g id="edge58" class="edge">
<title>Node49&#45;&gt;Node48</title>
<path fill="none" stroke="midnightblue" d="M1214.39,-1494.35C1313.43,-1489.46 1491.78,-1480.66 1599.54,-1475.34"/>
<polygon fill="midnightblue" stroke="midnightblue" points="1214,-1490.86 1204.18,-1494.85 1214.34,-1497.86 1214,-1490.86"/>
</g>
<!-- Node50 -->
<g id="node50" class="node">
<title>Node50</title>
<g id="a_node50"><a xlink:title=" ">
<polygon fill="white" stroke="#bfbfbf" points="2170.5,-890.9 2170.5,-942.9 2337.5,-942.9 2337.5,-890.9 2170.5,-890.9"/>
<text text-anchor="start" x="2178.5" y="-930.9" font-family="Helvetica,sans-Serif" font-size="10.00">function&lt; MoFEMErrorCode</text>
<text text-anchor="start" x="2178.5" y="-919.9" font-family="Helvetica,sans-Serif" font-size="10.00">(ForcesAndSourcesCore *fe</text>
<text text-anchor="start" x="2178.5" y="-908.9" font-family="Helvetica,sans-Serif" font-size="10.00">_raw_ptr, int order_row,</text>
<text text-anchor="middle" x="2254" y="-897.9" font-family="Helvetica,sans-Serif" font-size="10.00"> int order_col, int order_data)&gt;</text>
</a>
</g>
</g>
<!-- Node50&#45;&gt;Node3 -->
<g id="edge61" class="edge">
<title>Node50&#45;&gt;Node3</title>
<path fill="none" stroke="#9a32cd" stroke-dasharray="5,2" d="M2347.75,-907.37C2403.18,-904.56 2474.39,-906.1 2535,-923.9 2571.39,-934.58 2607.87,-961.67 2625.72,-976.25"/>
<polygon fill="#9a32cd" stroke="#9a32cd" points="2347.38,-903.88 2337.59,-907.94 2347.77,-910.87 2347.38,-903.88"/>
<text text-anchor="middle" x="2454" y="-926.9" font-family="Helvetica,sans-Serif" font-size="10.00"> setRuleHook</text>
</g>
<!-- Node51 -->
<g id="node51" class="node">
<title>Node51</title>
<g id="a_node51"><a xlink:title=" ">
<polygon fill="white" stroke="#bfbfbf" points="2153,-802.9 2153,-832.9 2355,-832.9 2355,-802.9 2153,-802.9"/>
<text text-anchor="start" x="2161" y="-820.9" font-family="Helvetica,sans-Serif" font-size="10.00">ptr_deque&lt; MoFEM::Forces</text>
<text text-anchor="middle" x="2254" y="-809.9" font-family="Helvetica,sans-Serif" font-size="10.00">AndSourcesCore::UserDataOperator &gt;</text>
</a>
</g>
</g>
<!-- Node51&#45;&gt;Node3 -->
<g id="edge62" class="edge">
<title>Node51&#45;&gt;Node3</title>
<path fill="none" stroke="#9a32cd" stroke-dasharray="5,2" d="M2365.26,-810.68C2419.58,-811.87 2484.15,-820.75 2535,-849.9 2588,-880.28 2621.98,-950.45 2633.05,-976.2"/>
<polygon fill="#9a32cd" stroke="#9a32cd" points="2365.29,-807.18 2355.24,-810.54 2365.2,-814.18 2365.29,-807.18"/>
<text text-anchor="middle" x="2454" y="-852.9" font-family="Helvetica,sans-Serif" font-size="10.00"> opPtrVector</text>
</g>
<!-- Node52 -->
<g id="node52" class="node">
<title>Node52</title>
<g id="a_node52"><a xlink:href="structMoFEM_1_1EntitiesFieldData.html" target="_top" xlink:title="data structure for finite element entity">
<polygon fill="white" stroke="black" points="2183,-962.4 2183,-981.4 2325,-981.4 2325,-962.4 2183,-962.4"/>
<text text-anchor="middle" x="2254" y="-969.4" font-family="Helvetica,sans-Serif" font-size="10.00">MoFEM::EntitiesFieldData</text>
</a>
</g>
</g>
<!-- Node52&#45;&gt;Node3 -->
<g id="edge63" class="edge">
<title>Node52&#45;&gt;Node3</title>
<path fill="none" stroke="#9a32cd" stroke-dasharray="5,2" d="M2319.5,-960.46C2331.34,-958.13 2343.57,-955.57 2355,-952.9 2363.09,-951.01 2364.77,-949.02 2373,-947.9 2444.34,-938.17 2464.14,-935.13 2535,-947.9 2564.94,-953.29 2597.57,-966.93 2617.66,-976.31"/>
<polygon fill="#9a32cd" stroke="#9a32cd" points="2318.82,-957.03 2309.67,-962.36 2320.15,-963.9 2318.82,-957.03"/>
<text text-anchor="middle" x="2454" y="-994.9" font-family="Helvetica,sans-Serif" font-size="10.00"> dataNoField</text>
<text text-anchor="middle" x="2454" y="-983.9" font-family="Helvetica,sans-Serif" font-size="10.00">dataL2</text>
<text text-anchor="middle" x="2454" y="-972.9" font-family="Helvetica,sans-Serif" font-size="10.00">dataH1</text>
<text text-anchor="middle" x="2454" y="-961.9" font-family="Helvetica,sans-Serif" font-size="10.00">dataHcurl</text>
<text text-anchor="middle" x="2454" y="-950.9" font-family="Helvetica,sans-Serif" font-size="10.00">dataHdiv</text>
</g>
<!-- Node53 -->
<g id="node53" class="node">
<title>Node53</title>
<g id="a_node53"><a xlink:title=" ">
<polygon fill="white" stroke="#bfbfbf" points="1805,-1004.9 1805,-1034.9 1967,-1034.9 1967,-1004.9 1805,-1004.9"/>
<text text-anchor="start" x="1813" y="-1022.9" font-family="Helvetica,sans-Serif" font-size="10.00">array&lt; std::bitset</text>
<text text-anchor="middle" x="1886" y="-1011.9" font-family="Helvetica,sans-Serif" font-size="10.00">&lt; LASTBASE &gt;, LASTSPACE &gt;</text>
</a>
</g>
</g>
<!-- Node53&#45;&gt;Node52 -->
<g id="edge64" class="edge">
<title>Node53&#45;&gt;Node52</title>
<path fill="none" stroke="#9a32cd" stroke-dasharray="5,2" d="M1977.32,-1008.05C2040.73,-999.74 2124.3,-988.78 2182.75,-981.11"/>
<polygon fill="#9a32cd" stroke="#9a32cd" points="1976.78,-1004.59 1967.32,-1009.36 1977.69,-1011.53 1976.78,-1004.59"/>
<text text-anchor="middle" x="2063" y="-1018.9" font-family="Helvetica,sans-Serif" font-size="10.00"> brokenBasesOnSpaces</text>
<text text-anchor="middle" x="2063" y="-1007.9" font-family="Helvetica,sans-Serif" font-size="10.00">basesOnSpaces</text>
</g>
<!-- Node54 -->
<g id="node54" class="node">
<title>Node54</title>
<g id="a_node54"><a xlink:title=" ">
<polygon fill="white" stroke="#bfbfbf" points="1809.5,-1180.4 1809.5,-1221.4 1962.5,-1221.4 1962.5,-1180.4 1809.5,-1180.4"/>
<text text-anchor="start" x="1817.5" y="-1209.4" font-family="Helvetica,sans-Serif" font-size="10.00">array&lt; boost::ptr_vector</text>
<text text-anchor="start" x="1817.5" y="-1198.4" font-family="Helvetica,sans-Serif" font-size="10.00">&lt; MoFEM::EntitiesFieldData</text>
<text text-anchor="middle" x="1886" y="-1187.4" font-family="Helvetica,sans-Serif" font-size="10.00">::EntData &gt;, MBMAXTYPE &gt;</text>
</a>
</g>
</g>
<!-- Node54&#45;&gt;Node52 -->
<g id="edge65" class="edge">
<title>Node54&#45;&gt;Node52</title>
<path fill="none" stroke="#9a32cd" stroke-dasharray="5,2" d="M1972.75,-1218.32C2026.61,-1223.9 2093.51,-1220.1 2135,-1178.9 2164.78,-1149.33 2124.72,-1021.91 2153,-990.9 2160.92,-982.21 2171.47,-976.76 2182.75,-973.44"/>
<polygon fill="#9a32cd" stroke="#9a32cd" points="1972.85,-1214.81 1962.51,-1217.13 1972.04,-1221.76 1972.85,-1214.81"/>
<text text-anchor="middle" x="2063" y="-1222.9" font-family="Helvetica,sans-Serif" font-size="10.00"> dataOnEntities</text>
</g>
<!-- Node55 -->
<g id="node55" class="node">
<title>Node55</title>
<g id="a_node55"><a xlink:title=" ">
<polygon fill="white" stroke="#bfbfbf" points="1799,-1092.9 1799,-1122.9 1973,-1122.9 1973,-1092.9 1799,-1092.9"/>
<text text-anchor="start" x="1807" y="-1110.9" font-family="Helvetica,sans-Serif" font-size="10.00">array&lt; std::bitset</text>
<text text-anchor="middle" x="1886" y="-1099.9" font-family="Helvetica,sans-Serif" font-size="10.00">&lt; LASTSPACE &gt;, MBMAXTYPE &gt;</text>
</a>
</g>
</g>
<!-- Node55&#45;&gt;Node52 -->
<g id="edge66" class="edge">
<title>Node55&#45;&gt;Node52</title>
<path fill="none" stroke="#9a32cd" stroke-dasharray="5,2" d="M1983.36,-1107.96C2043.33,-1105.9 2113.08,-1099.02 2135,-1078.9 2164.41,-1051.9 2124.57,-1018.93 2153,-990.9 2161.24,-982.77 2171.81,-977.56 2182.98,-974.3"/>
<polygon fill="#9a32cd" stroke="#9a32cd" points="1982.95,-1104.47 1973.06,-1108.27 1983.16,-1111.46 1982.95,-1104.47"/>
<text text-anchor="middle" x="2063" y="-1109.9" font-family="Helvetica,sans-Serif" font-size="10.00"> spacesOnEntities</text>
</g>
<!-- Node56 -->
<g id="node56" class="node">
<title>Node56</title>
<g id="a_node56"><a xlink:title=" ">
<polygon fill="white" stroke="#bfbfbf" points="1801.5,-955.9 1801.5,-985.9 1970.5,-985.9 1970.5,-955.9 1801.5,-955.9"/>
<text text-anchor="start" x="1809.5" y="-973.9" font-family="Helvetica,sans-Serif" font-size="10.00">array&lt; std::bitset</text>
<text text-anchor="middle" x="1886" y="-962.9" font-family="Helvetica,sans-Serif" font-size="10.00">&lt; LASTBASE &gt;, MBMAXTYPE &gt;</text>
</a>
</g>
</g>
<!-- Node56&#45;&gt;Node52 -->
<g id="edge67" class="edge">
<title>Node56&#45;&gt;Node52</title>
<path fill="none" stroke="#9a32cd" stroke-dasharray="5,2" d="M1980.84,-971.15C2043.81,-971.33 2125.4,-971.55 2182.77,-971.71"/>
<polygon fill="#9a32cd" stroke="#9a32cd" points="1980.52,-967.65 1970.51,-971.13 1980.5,-974.65 1980.52,-967.65"/>
<text text-anchor="middle" x="2063" y="-973.9" font-family="Helvetica,sans-Serif" font-size="10.00"> basesOnEntities</text>
</g>
<!-- Node57 -->
<g id="node57" class="node">
<title>Node57</title>
<g id="a_node57"><a xlink:title=" ">
<polygon fill="white" stroke="#bfbfbf" points="1830,-917.4 1830,-936.4 1942,-936.4 1942,-917.4 1830,-917.4"/>
<text text-anchor="middle" x="1886" y="-924.4" font-family="Helvetica,sans-Serif" font-size="10.00">UBlasMatrix&lt; int &gt;</text>
</a>
</g>
</g>
<!-- Node57&#45;&gt;Node52 -->
<g id="edge68" class="edge">
<title>Node57&#45;&gt;Node52</title>
<path fill="none" stroke="#9a32cd" stroke-dasharray="5,2" d="M1952.18,-925.54C2002.77,-925.94 2074.28,-929.69 2135,-944.9 2143.49,-947.02 2144.64,-950.29 2153,-952.9 2165.06,-956.67 2178.18,-959.81 2190.84,-962.39"/>
<polygon fill="#9a32cd" stroke="#9a32cd" points="1952.05,-922.04 1942.04,-925.5 1952.02,-929.04 1952.05,-922.04"/>
<text text-anchor="middle" x="2063" y="-958.9" font-family="Helvetica,sans-Serif" font-size="10.00"> facesNodesOrder</text>
<text text-anchor="middle" x="2063" y="-947.9" font-family="Helvetica,sans-Serif" font-size="10.00">facesNodes</text>
</g>
<!-- Node58 -->
<g id="node58" class="node">
<title>Node58</title>
<g id="a_node58"><a xlink:title=" ">
<polygon fill="white" stroke="#bfbfbf" points="1827.5,-1142.4 1827.5,-1161.4 1944.5,-1161.4 1944.5,-1142.4 1827.5,-1142.4"/>
<text text-anchor="middle" x="1886" y="-1149.4" font-family="Helvetica,sans-Serif" font-size="10.00">bitset&lt; LASTBASE &gt;</text>
</a>
</g>
</g>
<!-- Node58&#45;&gt;Node52 -->
<g id="edge69" class="edge">
<title>Node58&#45;&gt;Node52</title>
<path fill="none" stroke="#9a32cd" stroke-dasharray="5,2" d="M1944.06,-1162.87C2000.49,-1170.11 2085.38,-1170.72 2135,-1121.9 2176.89,-1080.68 2112.52,-1033.5 2153,-990.9 2161.03,-982.44 2171.57,-977.08 2182.79,-973.79"/>
<polygon fill="#9a32cd" stroke="#9a32cd" points="1944.26,-1159.36 1933.87,-1161.45 1943.29,-1166.3 1944.26,-1159.36"/>
<text text-anchor="middle" x="2063" y="-1168.9" font-family="Helvetica,sans-Serif" font-size="10.00"> bAse</text>
</g>
<!-- Node59 -->
<g id="node59" class="node">
<title>Node59</title>
<g id="a_node59"><a xlink:title=" ">
<polygon fill="white" stroke="#bfbfbf" points="2191.5,-1148.4 2191.5,-1189.4 2316.5,-1189.4 2316.5,-1148.4 2191.5,-1148.4"/>
<text text-anchor="start" x="2199.5" y="-1177.4" font-family="Helvetica,sans-Serif" font-size="10.00">function&lt; int(int order</text>
<text text-anchor="start" x="2199.5" y="-1166.4" font-family="Helvetica,sans-Serif" font-size="10.00">_row, int order_col, int</text>
<text text-anchor="middle" x="2254" y="-1155.4" font-family="Helvetica,sans-Serif" font-size="10.00"> order_data)&gt;</text>
</a>
</g>
</g>
<!-- Node59&#45;&gt;Node3 -->
<g id="edge70" class="edge">
<title>Node59&#45;&gt;Node3</title>
<path fill="none" stroke="#9a32cd" stroke-dasharray="5,2" d="M2326.6,-1162.22C2406.6,-1154.52 2526.15,-1142.27 2535,-1136.9 2591.8,-1102.44 2624.05,-1022.91 2633.81,-995.43"/>
<polygon fill="#9a32cd" stroke="#9a32cd" points="2326.19,-1158.74 2316.57,-1163.18 2326.86,-1165.71 2326.19,-1158.74"/>
<text text-anchor="middle" x="2454" y="-1159.9" font-family="Helvetica,sans-Serif" font-size="10.00"> getRuleHook</text>
</g>
<!-- Node60 -->
<g id="node60" class="node">
<title>Node60</title>
<g id="a_node60"><a xlink:title=" ">
<polygon fill="white" stroke="#bfbfbf" points="2193,-1098.9 2193,-1128.9 2315,-1128.9 2315,-1098.9 2193,-1098.9"/>
<text text-anchor="start" x="2201" y="-1116.9" font-family="Helvetica,sans-Serif" font-size="10.00">shared_ptr&lt; MoFEM::</text>
<text text-anchor="middle" x="2254" y="-1105.9" font-family="Helvetica,sans-Serif" font-size="10.00">BaseFunction &gt;</text>
</a>
</g>
</g>
<!-- Node60&#45;&gt;Node3 -->
<g id="edge71" class="edge">
<title>Node60&#45;&gt;Node3</title>
<path fill="none" stroke="#9a32cd" stroke-dasharray="5,2" d="M2325.4,-1115.48C2383.99,-1114.24 2468.29,-1106.4 2535,-1075.9 2576.88,-1056.74 2614.14,-1014.55 2629.52,-995.53"/>
<polygon fill="#9a32cd" stroke="#9a32cd" points="2325.08,-1111.98 2315.14,-1115.63 2325.19,-1118.98 2325.08,-1111.98"/>
<text text-anchor="middle" x="2454" y="-1125.9" font-family="Helvetica,sans-Serif" font-size="10.00"> userPolynomialBasePtr</text>
<text text-anchor="middle" x="2454" y="-1114.9" font-family="Helvetica,sans-Serif" font-size="10.00">elementPolynomialBasePtr</text>
</g>
<!-- Node61 -->
<g id="node61" class="node">
<title>Node61</title>
<g id="a_node61"><a xlink:href="classUBlasMatrix_3_01double_01_4.html" target="_top" xlink:title=" ">
<polygon fill="white" stroke="black" points="2188,-755.4 2188,-774.4 2320,-774.4 2320,-755.4 2188,-755.4"/>
<text text-anchor="middle" x="2254" y="-762.4" font-family="Helvetica,sans-Serif" font-size="10.00">UBlasMatrix&lt; double &gt;</text>
</a>
</g>
</g>
<!-- Node61&#45;&gt;Node2 -->
<g id="edge78" class="edge">
<title>Node61&#45;&gt;Node2</title>
<path fill="none" stroke="#9a32cd" stroke-dasharray="5,2" d="M2330.29,-762.9C2453.52,-759.62 2696.87,-753.16 2819.95,-749.89"/>
<polygon fill="#9a32cd" stroke="#9a32cd" points="2330.09,-759.4 2320.19,-763.17 2330.28,-766.4 2330.09,-759.4"/>
<text text-anchor="middle" x="2638" y="-781.9" font-family="Helvetica,sans-Serif" font-size="10.00"> tangentOneAtGaussPts</text>
<text text-anchor="middle" x="2638" y="-770.9" font-family="Helvetica,sans-Serif" font-size="10.00">tangentTwoAtGaussPts</text>
<text text-anchor="middle" x="2638" y="-759.9" font-family="Helvetica,sans-Serif" font-size="10.00">normalsAtGaussPts</text>
</g>
<!-- Node61&#45;&gt;Node3 -->
<g id="edge72" class="edge">
<title>Node61&#45;&gt;Node3</title>
<path fill="none" stroke="#9a32cd" stroke-dasharray="5,2" d="M2330.36,-762.12C2401.71,-760.92 2502.59,-763.38 2535,-784.9 2605.41,-831.66 2629.62,-942.61 2635.46,-976.13"/>
<polygon fill="#9a32cd" stroke="#9a32cd" points="2329.99,-758.62 2320.06,-762.32 2330.13,-765.62 2329.99,-758.62"/>
<text text-anchor="middle" x="2454" y="-798.9" font-family="Helvetica,sans-Serif" font-size="10.00"> coordsAtGaussPts</text>
<text text-anchor="middle" x="2454" y="-787.9" font-family="Helvetica,sans-Serif" font-size="10.00">gaussPts</text>
</g>
<!-- Node62 -->
<g id="node62" class="node">
<title>Node62</title>
<g id="a_node62"><a xlink:href="classUBlasVector_3_01double_01_4.html" target="_top" xlink:title=" ">
<polygon fill="white" stroke="black" points="2572.5,-11.4 2572.5,-30.4 2703.5,-30.4 2703.5,-11.4 2572.5,-11.4"/>
<text text-anchor="middle" x="2638" y="-18.4" font-family="Helvetica,sans-Serif" font-size="10.00">UBlasVector&lt; double &gt;</text>
</a>
</g>
</g>
<!-- Node62&#45;&gt;Node2 -->
<g id="edge73" class="edge">
<title>Node62&#45;&gt;Node2</title>
<path fill="none" stroke="#9a32cd" stroke-dasharray="5,2" d="M2675.99,-8.63C2712.62,0.97 2768.01,8.2 2802,-21.9 2857.47,-71.02 2889.06,-633.33 2894.24,-732.88"/>
<polygon fill="#9a32cd" stroke="#9a32cd" points="2674.87,-5.3 2666.19,-11.37 2676.76,-12.04 2674.87,-5.3"/>
<text text-anchor="middle" x="2771.5" y="-57.9" font-family="Helvetica,sans-Serif" font-size="10.00"> tangentOne</text>
<text text-anchor="middle" x="2771.5" y="-46.9" font-family="Helvetica,sans-Serif" font-size="10.00">tangentTwo</text>
<text text-anchor="middle" x="2771.5" y="-35.9" font-family="Helvetica,sans-Serif" font-size="10.00">nOrmal</text>
<text text-anchor="middle" x="2771.5" y="-24.9" font-family="Helvetica,sans-Serif" font-size="10.00">coords</text>
</g>
</g>
</svg>
        <g id="navigator" transform="translate(0 0)" fill="#404254">
                <rect fill="#f2f5e9" fill-opacity="0.5" stroke="#606060" stroke-width=".5" x="0" y="0" width="60" height="60"/>
                <use id="zoomplus" xlink:href="#zoomPlus" x="17" y="9" onmousedown="handleZoom(evt,'in')"/>
                <use id="zoomminus" xlink:href="#zoomMin" x="42" y="9" onmousedown="handleZoom(evt,'out')"/>
                <use id="reset" xlink:href="#resetDef" x="30" y="36" onmousedown="handleReset()"/>
                <g id="arrowUp" xlink:href="#dirArrow" transform="translate(30 24)" onmousedown="handlePan(0,-1)">
                  <use xlink:href="#rim" fill="#404040">
                        <set attributeName="fill" to="#808080" begin="arrowUp.mouseover" end="arrowUp.mouseout"/>
                  </use>
                  <path fill="none" stroke="white" stroke-width="1.5" d="M0,-3.0v7 M-2.5,-0.5L0,-3.0L2.5,-0.5"/>
                </g>
                <g id="arrowRight" xlink:href="#dirArrow" transform="rotate(90) translate(36 -43)" onmousedown="handlePan(1,0)">
                  <use xlink:href="#rim" fill="#404040">
                        <set attributeName="fill" to="#808080" begin="arrowRight.mouseover" end="arrowRight.mouseout"/>
                  </use>
                  <path fill="none" stroke="white" stroke-width="1.5" d="M0,-3.0v7 M-2.5,-0.5L0,-3.0L2.5,-0.5"/>
                </g>
                <g id="arrowDown" xlink:href="#dirArrow" transform="rotate(180) translate(-30 -48)" onmousedown="handlePan(0,1)">
                  <use xlink:href="#rim" fill="#404040">
                        <set attributeName="fill" to="#808080" begin="arrowDown.mouseover" end="arrowDown.mouseout"/>
                  </use>
                  <path fill="none" stroke="white" stroke-width="1.5" d="M0,-3.0v7 M-2.5,-0.5L0,-3.0L2.5,-0.5"/>
                </g>
                <g id="arrowLeft" xlink:href="#dirArrow" transform="rotate(270) translate(-36 17)" onmousedown="handlePan(-1,0)">
                  <use xlink:href="#rim" fill="#404040">
                        <set attributeName="fill" to="#808080" begin="arrowLeft.mouseover" end="arrowLeft.mouseout"/>
                  </use>
                  <path fill="none" stroke="white" stroke-width="1.5" d="M0,-3.0v7 M-2.5,-0.5L0,-3.0L2.5,-0.5"/>
                </g>
        </g>
        <svg viewBox="0 0 15 15" width="100%" height="30px" preserveAspectRatio="xMaxYMin meet">
         <g id="arrow_out" transform="scale(0.3 0.3)">
          <a xlink:href="structFluidPressure_1_1MyTriangleFE__coll__graph_org.svg" target="_base">
           <rect id="button" ry="5" rx="5" y="6" x="6" height="38" width="38"
                fill="#f2f5e9" fill-opacity="0.5" stroke="#606060" stroke-width="1.0"/>
           <path id="arrow"
             d="M 11.500037,31.436501 C 11.940474,20.09759 22.043105,11.32322 32.158766,21.979434 L 37.068811,17.246167 C 37.068811,17.246167 37.088388,32 37.088388,32 L 22.160133,31.978069 C 22.160133,31.978069 26.997745,27.140456 26.997745,27.140456 C 18.528582,18.264221 13.291696,25.230495 11.500037,31.436501 z"
             style="fill:#404040;"/>
          </a>
         </g>
        </svg>
</svg>
