<?xml version="1.0" encoding="UTF-8" standalone="no"?>
<!DOCTYPE svg PUBLIC "-//W3C//DTD SVG 1.1//EN"
 "http://www.w3.org/Graphics/SVG/1.1/DTD/svg11.dtd">
<!-- Generated by graphviz version 2.43.0 (0)
 -->
<!-- Title: MoFEM::FlatPrismPolynomialBase Pages: 1 -->
<svg width="3484pt" height="570pt"
 viewBox="0.00 0.00 3484.00 570.00" xmlns="http://www.w3.org/2000/svg" xmlns:xlink="http://www.w3.org/1999/xlink">
<g id="graph0" class="graph" transform="scale(1 1) rotate(0) translate(4 566)">
<title>MoFEM::FlatPrismPolynomialBase</title>
<polygon fill="white" stroke="transparent" points="-4,4 -4,-566 3480,-566 3480,4 -4,4"/>
<!-- Node1 -->
<g id="node1" class="node">
<title>Node1</title>
<g id="a_node1"><a xlink:title="Calculate base functions on tetrahedral.">
<polygon fill="#bfbfbf" stroke="black" points="3292,-182.5 3292,-201.5 3476,-201.5 3476,-182.5 3292,-182.5"/>
<text text-anchor="middle" x="3384" y="-189.5" font-family="Helvetica,sans-Serif" font-size="10.00">MoFEM::FlatPrismPolynomialBase</text>
</a>
</g>
</g>
<!-- Node2 -->
<g id="node2" class="node">
<title>Node2</title>
<g id="a_node2"><a xlink:href="structMoFEM_1_1BaseFunction.html" target="_top" xlink:title="Base class if inherited used to calculate base functions.">
<polygon fill="white" stroke="black" points="2620,-30.5 2620,-49.5 2744,-49.5 2744,-30.5 2620,-30.5"/>
<text text-anchor="middle" x="2682" y="-37.5" font-family="Helvetica,sans-Serif" font-size="10.00">MoFEM::BaseFunction</text>
</a>
</g>
</g>
<!-- Node2&#45;&gt;Node1 -->
<g id="edge1" class="edge">
<title>Node2&#45;&gt;Node1</title>
<path fill="none" stroke="midnightblue" d="M2722.18,-52.74C2729.44,-55.13 2736.96,-57.62 2744,-60 2876.38,-104.65 2904.33,-133.98 3041,-163 3124.79,-180.79 3222.32,-187.74 3291.73,-190.42"/>
<polygon fill="midnightblue" stroke="midnightblue" points="2723.1,-49.36 2712.51,-49.56 2720.92,-56.01 2723.1,-49.36"/>
</g>
<!-- Node3 -->
<g id="node3" class="node">
<title>Node3</title>
<g id="a_node3"><a xlink:href="structMoFEM_1_1BaseFunctionUnknownInterface.html" target="_top" xlink:title=" ">
<polygon fill="white" stroke="black" points="2108,-17 2108,-47 2278,-47 2278,-17 2108,-17"/>
<text text-anchor="start" x="2116" y="-35" font-family="Helvetica,sans-Serif" font-size="10.00">MoFEM::BaseFunctionUnknown</text>
<text text-anchor="middle" x="2193" y="-24" font-family="Helvetica,sans-Serif" font-size="10.00">Interface</text>
</a>
</g>
</g>
<!-- Node3&#45;&gt;Node2 -->
<g id="edge2" class="edge">
<title>Node3&#45;&gt;Node2</title>
<path fill="none" stroke="midnightblue" d="M2288.46,-33.55C2386.3,-35.16 2536.31,-37.62 2619.7,-38.99"/>
<polygon fill="midnightblue" stroke="midnightblue" points="2288.33,-30.05 2278.27,-33.38 2288.21,-37.05 2288.33,-30.05"/>
</g>
<!-- Node10 -->
<g id="node10" class="node">
<title>Node10</title>
<g id="a_node10"><a xlink:href="structMoFEM_1_1BaseFunctionCtx.html" target="_top" xlink:title="Base class used to exchange data between element data structures and class calculating base functions...">
<polygon fill="white" stroke="black" points="2446,-58.5 2446,-77.5 2586,-77.5 2586,-58.5 2446,-58.5"/>
<text text-anchor="middle" x="2516" y="-65.5" font-family="Helvetica,sans-Serif" font-size="10.00">MoFEM::BaseFunctionCtx</text>
</a>
</g>
</g>
<!-- Node3&#45;&gt;Node10 -->
<g id="edge10" class="edge">
<title>Node3&#45;&gt;Node10</title>
<path fill="none" stroke="midnightblue" d="M2288.28,-42.57C2338.74,-48.23 2399.79,-55.08 2445.82,-60.24"/>
<polygon fill="midnightblue" stroke="midnightblue" points="2288.67,-39.09 2278.34,-41.46 2287.89,-46.05 2288.67,-39.09"/>
</g>
<!-- Node4 -->
<g id="node4" class="node">
<title>Node4</title>
<g id="a_node4"><a xlink:href="structMoFEM_1_1UnknownInterface.html" target="_top" xlink:title="base class for all interface classes">
<polygon fill="white" stroke="black" points="1907.5,-22.5 1907.5,-41.5 2055.5,-41.5 2055.5,-22.5 1907.5,-22.5"/>
<text text-anchor="middle" x="1981.5" y="-29.5" font-family="Helvetica,sans-Serif" font-size="10.00">MoFEM::UnknownInterface</text>
</a>
</g>
</g>
<!-- Node4&#45;&gt;Node3 -->
<g id="edge3" class="edge">
<title>Node4&#45;&gt;Node3</title>
<path fill="none" stroke="midnightblue" d="M2066.11,-32C2079.78,-32 2093.96,-32 2107.65,-32"/>
<polygon fill="midnightblue" stroke="midnightblue" points="2065.77,-28.5 2055.77,-32 2065.77,-35.5 2065.77,-28.5"/>
</g>
<!-- Node5 -->
<g id="node5" class="node">
<title>Node5</title>
<g id="a_node5"><a xlink:title=" ">
<polygon fill="white" stroke="#bfbfbf" points="1545,-0.5 1545,-63.5 1786,-63.5 1786,-0.5 1545,-0.5"/>
<text text-anchor="start" x="1553" y="-51.5" font-family="Helvetica,sans-Serif" font-size="10.00">multi_index_container</text>
<text text-anchor="start" x="1553" y="-40.5" font-family="Helvetica,sans-Serif" font-size="10.00">&lt; UIdTypeMap, indexed</text>
<text text-anchor="start" x="1553" y="-29.5" font-family="Helvetica,sans-Serif" font-size="10.00">_by&lt; hashed_unique&lt; member</text>
<text text-anchor="start" x="1553" y="-18.5" font-family="Helvetica,sans-Serif" font-size="10.00">&lt; UIdTypeMap, boost::typeindex</text>
<text text-anchor="middle" x="1665.5" y="-7.5" font-family="Helvetica,sans-Serif" font-size="10.00">::type_index, &amp;UIdTypeMap::classIdx &gt; &gt; &gt; &gt;</text>
</a>
</g>
</g>
<!-- Node5&#45;&gt;Node4 -->
<g id="edge4" class="edge">
<title>Node5&#45;&gt;Node4</title>
<path fill="none" stroke="#9a32cd" stroke-dasharray="5,2" d="M1796.19,-32C1834.05,-32 1874.08,-32 1907.13,-32"/>
<polygon fill="#9a32cd" stroke="#9a32cd" points="1796.11,-28.5 1786.11,-32 1796.11,-35.5 1796.11,-28.5"/>
<text text-anchor="middle" x="1840" y="-35" font-family="Helvetica,sans-Serif" font-size="10.00"> iFaceTypeMap</text>
</g>
<!-- Node6 -->
<g id="node6" class="node">
<title>Node6</title>
<g id="a_node6"><a xlink:title=" ">
<polygon fill="white" stroke="#bfbfbf" points="1134,-22.5 1134,-41.5 1259,-41.5 1259,-22.5 1134,-22.5"/>
<text text-anchor="middle" x="1196.5" y="-29.5" font-family="Helvetica,sans-Serif" font-size="10.00">multi_index_container</text>
</a>
</g>
</g>
<!-- Node6&#45;&gt;Node5 -->
<g id="edge5" class="edge">
<title>Node6&#45;&gt;Node5</title>
<path fill="none" stroke="orange" stroke-dasharray="5,2" d="M1269.09,-32C1342.38,-32 1457.58,-32 1544.78,-32"/>
<polygon fill="orange" stroke="orange" points="1269.03,-28.5 1259.03,-32 1269.03,-35.5 1269.03,-28.5"/>
<text text-anchor="start" x="1302" y="-68" font-family="Helvetica,sans-Serif" font-size="10.00"> &lt; UIdTypeMap, indexed</text>
<text text-anchor="start" x="1302" y="-57" font-family="Helvetica,sans-Serif" font-size="10.00">_by&lt; hashed_unique&lt; member</text>
<text text-anchor="start" x="1302" y="-46" font-family="Helvetica,sans-Serif" font-size="10.00">&lt; UIdTypeMap, boost::typeindex</text>
<text text-anchor="middle" x="1414.5" y="-35" font-family="Helvetica,sans-Serif" font-size="10.00">::type_index, &amp;UIdTypeMap::classIdx &gt; &gt; &gt; &gt;</text>
</g>
<!-- Node7 -->
<g id="node7" class="node">
<title>Node7</title>
<g id="a_node7"><a xlink:href="classEntityHandle.html" target="_top" xlink:title=" ">
<polygon fill="white" stroke="black" points="3081,-134.5 3081,-153.5 3161,-153.5 3161,-134.5 3081,-134.5"/>
<text text-anchor="middle" x="3121" y="-141.5" font-family="Helvetica,sans-Serif" font-size="10.00">EntityHandle</text>
</a>
</g>
</g>
<!-- Node7&#45;&gt;Node1 -->
<g id="edge6" class="edge">
<title>Node7&#45;&gt;Node1</title>
<path fill="none" stroke="#9a32cd" stroke-dasharray="5,2" d="M3171.4,-139.39C3201.39,-137.81 3240.27,-137.92 3274,-145 3308.69,-152.28 3345.97,-170.99 3366.7,-182.49"/>
<polygon fill="#9a32cd" stroke="#9a32cd" points="3170.96,-135.91 3161.19,-140.01 3171.38,-142.9 3170.96,-135.91"/>
<text text-anchor="middle" x="3246.5" y="-170" font-family="Helvetica,sans-Serif" font-size="10.00"> connPrism</text>
<text text-anchor="middle" x="3246.5" y="-159" font-family="Helvetica,sans-Serif" font-size="10.00">connFace3</text>
<text text-anchor="middle" x="3246.5" y="-148" font-family="Helvetica,sans-Serif" font-size="10.00">connFace4</text>
</g>
<!-- Node8 -->
<g id="node8" class="node">
<title>Node8</title>
<g id="a_node8"><a xlink:href="structMoFEM_1_1FlatPrismPolynomialBaseCtx.html" target="_top" xlink:title="Class used to pass element data to calculate base functions on flat prism.">
<polygon fill="white" stroke="black" points="3041,-231 3041,-261 3201,-261 3201,-231 3041,-231"/>
<text text-anchor="start" x="3049" y="-249" font-family="Helvetica,sans-Serif" font-size="10.00">MoFEM::FlatPrismPolynomial</text>
<text text-anchor="middle" x="3121" y="-238" font-family="Helvetica,sans-Serif" font-size="10.00">BaseCtx</text>
</a>
</g>
</g>
<!-- Node8&#45;&gt;Node1 -->
<g id="edge7" class="edge">
<title>Node8&#45;&gt;Node1</title>
<path fill="none" stroke="#9a32cd" stroke-dasharray="5,2" d="M3204.75,-228.88C3248.45,-219.84 3300.43,-209.08 3336.94,-201.53"/>
<polygon fill="#9a32cd" stroke="#9a32cd" points="3203.79,-225.5 3194.7,-230.96 3205.2,-232.36 3203.79,-225.5"/>
<text text-anchor="middle" x="3246.5" y="-228" font-family="Helvetica,sans-Serif" font-size="10.00"> cTx</text>
</g>
<!-- Node9 -->
<g id="node9" class="node">
<title>Node9</title>
<g id="a_node9"><a xlink:href="structMoFEM_1_1EntPolynomialBaseCtx.html" target="_top" xlink:title="Class used to pass element data to calculate base functions on tet,triangle,edge.">
<polygon fill="white" stroke="black" points="2770.5,-258.5 2770.5,-277.5 2940.5,-277.5 2940.5,-258.5 2770.5,-258.5"/>
<text text-anchor="middle" x="2855.5" y="-265.5" font-family="Helvetica,sans-Serif" font-size="10.00">MoFEM::EntPolynomialBaseCtx</text>
</a>
</g>
</g>
<!-- Node9&#45;&gt;Node8 -->
<g id="edge8" class="edge">
<title>Node9&#45;&gt;Node8</title>
<path fill="none" stroke="midnightblue" d="M2950.88,-260.12C2980.31,-257.66 3012.45,-254.98 3040.73,-252.62"/>
<polygon fill="midnightblue" stroke="midnightblue" points="2950.27,-256.66 2940.6,-260.98 2950.85,-263.63 2950.27,-256.66"/>
</g>
<!-- Node10&#45;&gt;Node9 -->
<g id="edge9" class="edge">
<title>Node10&#45;&gt;Node9</title>
<path fill="none" stroke="midnightblue" d="M2596.15,-62.53C2645.66,-63.69 2706.88,-74.29 2744,-114 2785.34,-158.22 2720.72,-204.73 2762,-249 2765.47,-252.72 2769.45,-255.81 2773.77,-258.38"/>
<polygon fill="midnightblue" stroke="midnightblue" points="2596.13,-59.03 2586.09,-62.42 2596.05,-66.03 2596.13,-59.03"/>
</g>
<!-- Node11 -->
<g id="node11" class="node">
<title>Node11</title>
<g id="a_node11"><a xlink:title=" ">
<polygon fill="white" stroke="#bfbfbf" points="2456.5,-402.5 2456.5,-421.5 2575.5,-421.5 2575.5,-402.5 2456.5,-402.5"/>
<text text-anchor="middle" x="2516" y="-409.5" font-family="Helvetica,sans-Serif" font-size="10.00">const FieldContinuity</text>
</a>
</g>
</g>
<!-- Node11&#45;&gt;Node9 -->
<g id="edge11" class="edge">
<title>Node11&#45;&gt;Node9</title>
<path fill="none" stroke="#9a32cd" stroke-dasharray="5,2" d="M2585.75,-401.08C2632.18,-391.91 2693.9,-376.19 2744,-351 2784.73,-330.52 2825.87,-294.72 2844.37,-277.62"/>
<polygon fill="#9a32cd" stroke="#9a32cd" points="2584.95,-397.67 2575.78,-402.99 2586.27,-404.54 2584.95,-397.67"/>
<text text-anchor="middle" x="2682" y="-395" font-family="Helvetica,sans-Serif" font-size="10.00"> spaceContinuity</text>
</g>
<!-- Node12 -->
<g id="node12" class="node">
<title>Node12</title>
<g id="a_node12"><a xlink:title=" ">
<polygon fill="white" stroke="#bfbfbf" points="2444.5,-331 2444.5,-383 2587.5,-383 2587.5,-331 2444.5,-331"/>
<text text-anchor="start" x="2452.5" y="-371" font-family="Helvetica,sans-Serif" font-size="10.00">PetscErrorCode(*)(int</text>
<text text-anchor="start" x="2452.5" y="-360" font-family="Helvetica,sans-Serif" font-size="10.00"> p, double s, double</text>
<text text-anchor="start" x="2452.5" y="-349" font-family="Helvetica,sans-Serif" font-size="10.00"> *diff_s, double *L, double</text>
<text text-anchor="middle" x="2516" y="-338" font-family="Helvetica,sans-Serif" font-size="10.00"> *diffL, const int dim)</text>
</a>
</g>
</g>
<!-- Node12&#45;&gt;Node9 -->
<g id="edge12" class="edge">
<title>Node12&#45;&gt;Node9</title>
<path fill="none" stroke="#9a32cd" stroke-dasharray="5,2" d="M2597.6,-341.75C2641.25,-332.87 2695.94,-320.72 2744,-307 2774.13,-298.4 2807.99,-286.03 2830.2,-277.54"/>
<polygon fill="#9a32cd" stroke="#9a32cd" points="2596.71,-338.36 2587.6,-343.77 2598.1,-345.22 2596.71,-338.36"/>
<text text-anchor="middle" x="2682" y="-339" font-family="Helvetica,sans-Serif" font-size="10.00"> basePolynomialsType0</text>
</g>
<!-- Node13 -->
<g id="node13" class="node">
<title>Node13</title>
<g id="a_node13"><a xlink:title=" ">
<polygon fill="white" stroke="#bfbfbf" points="2494,-292.5 2494,-311.5 2538,-311.5 2538,-292.5 2494,-292.5"/>
<text text-anchor="middle" x="2516" y="-299.5" font-family="Helvetica,sans-Serif" font-size="10.00">string</text>
</a>
</g>
</g>
<!-- Node13&#45;&gt;Node9 -->
<g id="edge13" class="edge">
<title>Node13&#45;&gt;Node9</title>
<path fill="none" stroke="#9a32cd" stroke-dasharray="5,2" d="M2548.31,-299.08C2592.11,-294.97 2674.14,-287.18 2744,-280 2752.54,-279.12 2761.45,-278.19 2770.35,-277.24"/>
<polygon fill="#9a32cd" stroke="#9a32cd" points="2547.92,-295.6 2538.29,-300.02 2548.57,-302.57 2547.92,-295.6"/>
<text text-anchor="middle" x="2682" y="-295" font-family="Helvetica,sans-Serif" font-size="10.00"> fieldName</text>
</g>
<!-- Node14 -->
<g id="node14" class="node">
<title>Node14</title>
<g id="a_node14"><a xlink:title=" ">
<polygon fill="white" stroke="#bfbfbf" points="2467,-254.5 2467,-273.5 2565,-273.5 2565,-254.5 2467,-254.5"/>
<text text-anchor="middle" x="2516" y="-261.5" font-family="Helvetica,sans-Serif" font-size="10.00">const FieldSpace</text>
</a>
</g>
</g>
<!-- Node14&#45;&gt;Node9 -->
<g id="edge14" class="edge">
<title>Node14&#45;&gt;Node9</title>
<path fill="none" stroke="#9a32cd" stroke-dasharray="5,2" d="M2575.41,-264.69C2629.21,-265.33 2709.65,-266.28 2770.36,-267"/>
<polygon fill="#9a32cd" stroke="#9a32cd" points="2575.4,-261.19 2565.36,-264.57 2575.31,-268.19 2575.4,-261.19"/>
<text text-anchor="middle" x="2682" y="-269" font-family="Helvetica,sans-Serif" font-size="10.00"> sPace</text>
</g>
<!-- Node15 -->
<g id="node15" class="node">
<title>Node15</title>
<g id="a_node15"><a xlink:title=" ">
<polygon fill="white" stroke="#bfbfbf" points="2433.5,-216.5 2433.5,-235.5 2598.5,-235.5 2598.5,-216.5 2433.5,-216.5"/>
<text text-anchor="middle" x="2516" y="-223.5" font-family="Helvetica,sans-Serif" font-size="10.00">const FieldApproximationBase</text>
</a>
</g>
</g>
<!-- Node15&#45;&gt;Node9 -->
<g id="edge15" class="edge">
<title>Node15&#45;&gt;Node9</title>
<path fill="none" stroke="#9a32cd" stroke-dasharray="5,2" d="M2608.8,-221.99C2650.75,-222.5 2700.66,-226.44 2744,-239 2752.79,-241.55 2753.42,-245.82 2762,-249 2772.3,-252.82 2783.54,-255.94 2794.53,-258.46"/>
<polygon fill="#9a32cd" stroke="#9a32cd" points="2608.61,-218.49 2598.59,-221.93 2608.57,-225.49 2608.61,-218.49"/>
<text text-anchor="middle" x="2682" y="-253" font-family="Helvetica,sans-Serif" font-size="10.00"> copyNodeBase</text>
<text text-anchor="middle" x="2682" y="-242" font-family="Helvetica,sans-Serif" font-size="10.00">bAse</text>
</g>
<!-- Node16 -->
<g id="node16" class="node">
<title>Node16</title>
<g id="a_node16"><a xlink:href="structMoFEM_1_1EntitiesFieldData.html" target="_top" xlink:title="data structure for finite element entity">
<polygon fill="white" stroke="black" points="2445,-178.5 2445,-197.5 2587,-197.5 2587,-178.5 2445,-178.5"/>
<text text-anchor="middle" x="2516" y="-185.5" font-family="Helvetica,sans-Serif" font-size="10.00">MoFEM::EntitiesFieldData</text>
</a>
</g>
</g>
<!-- Node16&#45;&gt;Node9 -->
<g id="edge16" class="edge">
<title>Node16&#45;&gt;Node9</title>
<path fill="none" stroke="#9a32cd" stroke-dasharray="5,2" d="M2576.93,-177.21C2626.37,-171.75 2695.93,-172.34 2744,-207 2760.47,-218.88 2746.26,-236.16 2762,-249 2766.7,-252.83 2771.97,-255.96 2777.56,-258.49"/>
<polygon fill="#9a32cd" stroke="#9a32cd" points="2576.21,-173.78 2566.71,-178.46 2577.06,-180.72 2576.21,-173.78"/>
<text text-anchor="middle" x="2682" y="-210" font-family="Helvetica,sans-Serif" font-size="10.00"> dAta</text>
</g>
<!-- Node17 -->
<g id="node17" class="node">
<title>Node17</title>
<g id="a_node17"><a xlink:title=" ">
<polygon fill="white" stroke="#bfbfbf" points="2112,-228 2112,-258 2274,-258 2274,-228 2112,-228"/>
<text text-anchor="start" x="2120" y="-246" font-family="Helvetica,sans-Serif" font-size="10.00">array&lt; std::bitset</text>
<text text-anchor="middle" x="2193" y="-235" font-family="Helvetica,sans-Serif" font-size="10.00">&lt; LASTBASE &gt;, LASTSPACE &gt;</text>
</a>
</g>
</g>
<!-- Node17&#45;&gt;Node16 -->
<g id="edge17" class="edge">
<title>Node17&#45;&gt;Node16</title>
<path fill="none" stroke="#9a32cd" stroke-dasharray="5,2" d="M2284.16,-227.55C2340.51,-217.9 2411.27,-205.77 2459.5,-197.51"/>
<polygon fill="#9a32cd" stroke="#9a32cd" points="2283.44,-224.12 2274.17,-229.26 2284.62,-231.02 2283.44,-224.12"/>
<text text-anchor="middle" x="2355" y="-237" font-family="Helvetica,sans-Serif" font-size="10.00"> brokenBasesOnSpaces</text>
<text text-anchor="middle" x="2355" y="-226" font-family="Helvetica,sans-Serif" font-size="10.00">basesOnSpaces</text>
</g>
<!-- Node18 -->
<g id="node18" class="node">
<title>Node18</title>
<g id="a_node18"><a xlink:title=" ">
<polygon fill="white" stroke="#bfbfbf" points="2116.5,-167.5 2116.5,-208.5 2269.5,-208.5 2269.5,-167.5 2116.5,-167.5"/>
<text text-anchor="start" x="2124.5" y="-196.5" font-family="Helvetica,sans-Serif" font-size="10.00">array&lt; boost::ptr_vector</text>
<text text-anchor="start" x="2124.5" y="-185.5" font-family="Helvetica,sans-Serif" font-size="10.00">&lt; MoFEM::EntitiesFieldData</text>
<text text-anchor="middle" x="2193" y="-174.5" font-family="Helvetica,sans-Serif" font-size="10.00">::EntData &gt;, MBMAXTYPE &gt;</text>
</a>
</g>
</g>
<!-- Node18&#45;&gt;Node16 -->
<g id="edge18" class="edge">
<title>Node18&#45;&gt;Node16</title>
<path fill="none" stroke="#9a32cd" stroke-dasharray="5,2" d="M2279.8,-188C2331.4,-188 2396.25,-188 2444.78,-188"/>
<polygon fill="#9a32cd" stroke="#9a32cd" points="2279.67,-184.5 2269.67,-188 2279.67,-191.5 2279.67,-184.5"/>
<text text-anchor="middle" x="2355" y="-191" font-family="Helvetica,sans-Serif" font-size="10.00"> dataOnEntities</text>
</g>
<!-- Node19 -->
<g id="node19" class="node">
<title>Node19</title>
<g id="a_node19"><a xlink:title=" ">
<polygon fill="white" stroke="#bfbfbf" points="2106,-118 2106,-148 2280,-148 2280,-118 2106,-118"/>
<text text-anchor="start" x="2114" y="-136" font-family="Helvetica,sans-Serif" font-size="10.00">array&lt; std::bitset</text>
<text text-anchor="middle" x="2193" y="-125" font-family="Helvetica,sans-Serif" font-size="10.00">&lt; LASTSPACE &gt;, MBMAXTYPE &gt;</text>
</a>
</g>
</g>
<!-- Node19&#45;&gt;Node16 -->
<g id="edge19" class="edge">
<title>Node19&#45;&gt;Node16</title>
<path fill="none" stroke="#9a32cd" stroke-dasharray="5,2" d="M2290.17,-149.48C2345.3,-158.92 2412.58,-170.45 2459.09,-178.42"/>
<polygon fill="#9a32cd" stroke="#9a32cd" points="2290.47,-145.98 2280.02,-147.74 2289.29,-152.88 2290.47,-145.98"/>
<text text-anchor="middle" x="2355" y="-173" font-family="Helvetica,sans-Serif" font-size="10.00"> spacesOnEntities</text>
</g>
<!-- Node20 -->
<g id="node20" class="node">
<title>Node20</title>
<g id="a_node20"><a xlink:title=" ">
<polygon fill="white" stroke="#bfbfbf" points="2108.5,-69 2108.5,-99 2277.5,-99 2277.5,-69 2108.5,-69"/>
<text text-anchor="start" x="2116.5" y="-87" font-family="Helvetica,sans-Serif" font-size="10.00">array&lt; std::bitset</text>
<text text-anchor="middle" x="2193" y="-76" font-family="Helvetica,sans-Serif" font-size="10.00">&lt; LASTBASE &gt;, MBMAXTYPE &gt;</text>
</a>
</g>
</g>
<!-- Node20&#45;&gt;Node16 -->
<g id="edge20" class="edge">
<title>Node20&#45;&gt;Node16</title>
<path fill="none" stroke="#9a32cd" stroke-dasharray="5,2" d="M2287.79,-90.02C2329.24,-96.66 2376.51,-110.11 2412,-137 2425.01,-146.86 2416.9,-159.27 2430,-169 2435.22,-172.88 2441.08,-175.99 2447.23,-178.48"/>
<polygon fill="#9a32cd" stroke="#9a32cd" points="2288.08,-86.52 2277.67,-88.51 2287.04,-93.45 2288.08,-86.52"/>
<text text-anchor="middle" x="2355" y="-140" font-family="Helvetica,sans-Serif" font-size="10.00"> basesOnEntities</text>
</g>
<!-- Node21 -->
<g id="node21" class="node">
<title>Node21</title>
<g id="a_node21"><a xlink:title=" ">
<polygon fill="white" stroke="#bfbfbf" points="2137,-315.5 2137,-334.5 2249,-334.5 2249,-315.5 2137,-315.5"/>
<text text-anchor="middle" x="2193" y="-322.5" font-family="Helvetica,sans-Serif" font-size="10.00">UBlasMatrix&lt; int &gt;</text>
</a>
</g>
</g>
<!-- Node21&#45;&gt;Node16 -->
<g id="edge21" class="edge">
<title>Node21&#45;&gt;Node16</title>
<path fill="none" stroke="#9a32cd" stroke-dasharray="5,2" d="M2248.33,-336C2297.42,-342.54 2368.45,-343 2412,-303 2443.97,-273.63 2399.84,-238.22 2430,-207 2434.31,-202.54 2439.42,-199.02 2444.96,-196.26"/>
<polygon fill="#9a32cd" stroke="#9a32cd" points="2248.6,-332.5 2238.2,-334.52 2247.59,-339.43 2248.6,-332.5"/>
<text text-anchor="middle" x="2355" y="-353" font-family="Helvetica,sans-Serif" font-size="10.00"> facesNodesOrder</text>
<text text-anchor="middle" x="2355" y="-342" font-family="Helvetica,sans-Serif" font-size="10.00">facesNodes</text>
</g>
<!-- Node22 -->
<g id="node22" class="node">
<title>Node22</title>
<g id="a_node22"><a xlink:title=" ">
<polygon fill="white" stroke="#bfbfbf" points="2134.5,-277.5 2134.5,-296.5 2251.5,-296.5 2251.5,-277.5 2134.5,-277.5"/>
<text text-anchor="middle" x="2193" y="-284.5" font-family="Helvetica,sans-Serif" font-size="10.00">bitset&lt; LASTBASE &gt;</text>
</a>
</g>
</g>
<!-- Node22&#45;&gt;Node16 -->
<g id="edge22" class="edge">
<title>Node22&#45;&gt;Node16</title>
<path fill="none" stroke="#9a32cd" stroke-dasharray="5,2" d="M2261.99,-291.21C2308.8,-290.57 2369.89,-282.31 2412,-249 2427.93,-236.4 2414.37,-219.97 2430,-207 2434.65,-203.14 2439.93,-200.02 2445.52,-197.5"/>
<polygon fill="#9a32cd" stroke="#9a32cd" points="2261.92,-287.71 2251.93,-291.24 2261.94,-294.71 2261.92,-287.71"/>
<text text-anchor="middle" x="2355" y="-291" font-family="Helvetica,sans-Serif" font-size="10.00"> bAse</text>
</g>
<!-- Node23 -->
<g id="node23" class="node">
<title>Node23</title>
<g id="a_node23"><a xlink:title=" ">
<polygon fill="white" stroke="#bfbfbf" points="2430,-96.5 2430,-159.5 2602,-159.5 2602,-96.5 2430,-96.5"/>
<text text-anchor="start" x="2438" y="-147.5" font-family="Helvetica,sans-Serif" font-size="10.00">PetscErrorCode(*)(int</text>
<text text-anchor="start" x="2438" y="-136.5" font-family="Helvetica,sans-Serif" font-size="10.00"> p, double alpha, double</text>
<text text-anchor="start" x="2438" y="-125.5" font-family="Helvetica,sans-Serif" font-size="10.00"> x, double t, double *diff</text>
<text text-anchor="start" x="2438" y="-114.5" font-family="Helvetica,sans-Serif" font-size="10.00">_x, double *diff_t, double</text>
<text text-anchor="middle" x="2516" y="-103.5" font-family="Helvetica,sans-Serif" font-size="10.00"> *L, double *diffL, const int dim)</text>
</a>
</g>
</g>
<!-- Node23&#45;&gt;Node9 -->
<g id="edge23" class="edge">
<title>Node23&#45;&gt;Node9</title>
<path fill="none" stroke="#9a32cd" stroke-dasharray="5,2" d="M2612.29,-117.27C2657.64,-117.53 2709.38,-126.45 2744,-159 2773.72,-186.94 2733.23,-220.08 2762,-249 2765.7,-252.72 2769.92,-255.81 2774.47,-258.36"/>
<polygon fill="#9a32cd" stroke="#9a32cd" points="2612.09,-113.77 2602.12,-117.36 2612.15,-120.77 2612.09,-113.77"/>
<text text-anchor="middle" x="2682" y="-162" font-family="Helvetica,sans-Serif" font-size="10.00"> basePolynomialsType1</text>
</g>
<!-- Node24 -->
<g id="node24" class="node">
<title>Node24</title>
<g id="a_node24"><a xlink:href="structMoFEM_1_1NumeredEntFiniteElement.html" target="_top" xlink:title="Partitioned (Indexed) Finite Element in Problem.">
<polygon fill="white" stroke="black" points="2762,-431.5 2762,-450.5 2949,-450.5 2949,-431.5 2762,-431.5"/>
<text text-anchor="middle" x="2855.5" y="-438.5" font-family="Helvetica,sans-Serif" font-size="10.00">MoFEM::NumeredEntFiniteElement</text>
</a>
</g>
</g>
<!-- Node24&#45;&gt;Node8 -->
<g id="edge24" class="edge">
<title>Node24&#45;&gt;Node8</title>
<path fill="none" stroke="#9a32cd" stroke-dasharray="5,2" d="M2877.68,-425.33C2927.33,-388.58 3050.72,-297.27 3099.59,-261.1"/>
<polygon fill="#9a32cd" stroke="#9a32cd" points="2875.52,-422.57 2869.57,-431.33 2879.69,-428.19 2875.52,-422.57"/>
<text text-anchor="middle" x="2995" y="-358" font-family="Helvetica,sans-Serif" font-size="10.00"> fePtr</text>
</g>
<!-- Node25 -->
<g id="node25" class="node">
<title>Node25</title>
<g id="a_node25"><a xlink:href="structMoFEM_1_1interface__EntFiniteElement.html" target="_top" xlink:title=" ">
<polygon fill="white" stroke="black" points="2434.5,-441 2434.5,-471 2597.5,-471 2597.5,-441 2434.5,-441"/>
<text text-anchor="start" x="2442.5" y="-459" font-family="Helvetica,sans-Serif" font-size="10.00">MoFEM::interface_EntFinite</text>
<text text-anchor="middle" x="2516" y="-448" font-family="Helvetica,sans-Serif" font-size="10.00">Element&lt; EntFiniteElement &gt;</text>
</a>
</g>
</g>
<!-- Node25&#45;&gt;Node24 -->
<g id="edge25" class="edge">
<title>Node25&#45;&gt;Node24</title>
<path fill="none" stroke="midnightblue" d="M2607.85,-451.96C2655.53,-449.84 2713.84,-447.25 2761.79,-445.12"/>
<polygon fill="midnightblue" stroke="midnightblue" points="2607.67,-448.47 2597.84,-452.41 2607.99,-455.46 2607.67,-448.47"/>
</g>
<!-- Node26 -->
<g id="node26" class="node">
<title>Node26</title>
<g id="a_node26"><a xlink:href="structMoFEM_1_1interface__FiniteElement.html" target="_top" xlink:title=" ">
<polygon fill="white" stroke="black" points="1559.5,-468 1559.5,-498 1771.5,-498 1771.5,-468 1559.5,-468"/>
<text text-anchor="start" x="1567.5" y="-486" font-family="Helvetica,sans-Serif" font-size="10.00">MoFEM::interface_FiniteElement</text>
<text text-anchor="middle" x="1665.5" y="-475" font-family="Helvetica,sans-Serif" font-size="10.00">&lt; EntFiniteElement, EntFiniteElement &gt;</text>
</a>
</g>
</g>
<!-- Node26&#45;&gt;Node25 -->
<g id="edge26" class="edge">
<title>Node26&#45;&gt;Node25</title>
<path fill="none" stroke="midnightblue" d="M1782.07,-479.32C1956.66,-473.77 2283.29,-463.37 2434.45,-458.56"/>
<polygon fill="midnightblue" stroke="midnightblue" points="1781.7,-475.83 1771.82,-479.65 1781.93,-482.83 1781.7,-475.83"/>
</g>
<!-- Node27 -->
<g id="node27" class="node">
<title>Node27</title>
<g id="a_node27"><a xlink:href="structMoFEM_1_1interface__RefElement.html" target="_top" xlink:title=" ">
<polygon fill="white" stroke="black" points="819,-484 819,-514 983,-514 983,-484 819,-484"/>
<text text-anchor="start" x="827" y="-502" font-family="Helvetica,sans-Serif" font-size="10.00">MoFEM::interface_RefElement</text>
<text text-anchor="middle" x="901" y="-491" font-family="Helvetica,sans-Serif" font-size="10.00">&lt; EntFiniteElement &gt;</text>
</a>
</g>
</g>
<!-- Node27&#45;&gt;Node26 -->
<g id="edge27" class="edge">
<title>Node27&#45;&gt;Node26</title>
<path fill="none" stroke="midnightblue" d="M993.44,-497.93C1115.22,-496.38 1337.33,-493.12 1527,-488 1537.51,-487.72 1548.46,-487.38 1559.41,-487.02"/>
<polygon fill="midnightblue" stroke="midnightblue" points="993.37,-494.43 983.41,-498.05 993.46,-501.43 993.37,-494.43"/>
</g>
<!-- Node28 -->
<g id="node28" class="node">
<title>Node28</title>
<g id="a_node28"><a xlink:href="structMoFEM_1_1interface__RefEntity.html" target="_top" xlink:title=" ">
<polygon fill="white" stroke="black" points="501.5,-484 501.5,-514 653.5,-514 653.5,-484 501.5,-484"/>
<text text-anchor="start" x="509.5" y="-502" font-family="Helvetica,sans-Serif" font-size="10.00">MoFEM::interface_RefEntity</text>
<text text-anchor="middle" x="577.5" y="-491" font-family="Helvetica,sans-Serif" font-size="10.00">&lt; EntFiniteElement &gt;</text>
</a>
</g>
</g>
<!-- Node28&#45;&gt;Node27 -->
<g id="edge28" class="edge">
<title>Node28&#45;&gt;Node27</title>
<path fill="none" stroke="midnightblue" d="M663.94,-499C711.98,-499 771.6,-499 818.91,-499"/>
<polygon fill="midnightblue" stroke="midnightblue" points="663.88,-495.5 653.88,-499 663.88,-502.5 663.88,-495.5"/>
</g>
<!-- Node29 -->
<g id="node29" class="node">
<title>Node29</title>
<g id="a_node29"><a xlink:href="classboost_1_1shared__ptr_3_01EntFiniteElement_01_4.html" target="_top" xlink:title=" ">
<polygon fill="white" stroke="black" points="158.5,-521.5 158.5,-540.5 332.5,-540.5 332.5,-521.5 158.5,-521.5"/>
<text text-anchor="middle" x="245.5" y="-528.5" font-family="Helvetica,sans-Serif" font-size="10.00">shared_ptr&lt; EntFiniteElement &gt;</text>
</a>
</g>
</g>
<!-- Node29&#45;&gt;Node26 -->
<g id="edge34" class="edge">
<title>Node29&#45;&gt;Node26</title>
<path fill="none" stroke="#9a32cd" stroke-dasharray="5,2" d="M342.92,-539.93C408.68,-545.26 497.77,-551 576.5,-551 576.5,-551 576.5,-551 1197.5,-551 1343.54,-551 1512.62,-518.03 1601.85,-498.01"/>
<polygon fill="#9a32cd" stroke="#9a32cd" points="342.83,-536.41 332.57,-539.08 342.25,-543.39 342.83,-536.41"/>
<text text-anchor="middle" x="901" y="-554" font-family="Helvetica,sans-Serif" font-size="10.00"> sFiniteElementPtr</text>
</g>
<!-- Node29&#45;&gt;Node28 -->
<g id="edge29" class="edge">
<title>Node29&#45;&gt;Node28</title>
<path fill="none" stroke="#9a32cd" stroke-dasharray="5,2" d="M342.74,-521.67C393.3,-516.76 454.36,-510.84 501.39,-506.28"/>
<polygon fill="#9a32cd" stroke="#9a32cd" points="342.39,-518.19 332.77,-522.63 343.06,-525.15 342.39,-518.19"/>
<text text-anchor="middle" x="408.5" y="-522" font-family="Helvetica,sans-Serif" font-size="10.00"> sPtr</text>
</g>
<!-- Node30 -->
<g id="node30" class="node">
<title>Node30</title>
<g id="a_node30"><a xlink:href="structMoFEM_1_1interface__RefEntity.html" target="_top" xlink:title="interface to RefEntity">
<polygon fill="white" stroke="black" points="155,-399.5 155,-418.5 336,-418.5 336,-399.5 155,-399.5"/>
<text text-anchor="middle" x="245.5" y="-406.5" font-family="Helvetica,sans-Serif" font-size="10.00">MoFEM::interface_RefEntity&lt; T &gt;</text>
</a>
</g>
</g>
<!-- Node30&#45;&gt;Node28 -->
<g id="edge30" class="edge">
<title>Node30&#45;&gt;Node28</title>
<path fill="none" stroke="orange" stroke-dasharray="5,2" d="M291.4,-421.25C351.18,-437.55 456.84,-466.37 521.38,-483.97"/>
<polygon fill="orange" stroke="orange" points="292.07,-417.8 281.5,-418.55 290.23,-424.55 292.07,-417.8"/>
<text text-anchor="middle" x="408.5" y="-470" font-family="Helvetica,sans-Serif" font-size="10.00"> &lt; EntFiniteElement &gt;</text>
</g>
<!-- Node32 -->
<g id="node32" class="node">
<title>Node32</title>
<g id="a_node32"><a xlink:href="structMoFEM_1_1interface__RefElement.html" target="_top" xlink:title="intrface to RefElement">
<polygon fill="white" stroke="black" points="481,-399.5 481,-418.5 674,-418.5 674,-399.5 481,-399.5"/>
<text text-anchor="middle" x="577.5" y="-406.5" font-family="Helvetica,sans-Serif" font-size="10.00">MoFEM::interface_RefElement&lt; T &gt;</text>
</a>
</g>
</g>
<!-- Node30&#45;&gt;Node32 -->
<g id="edge33" class="edge">
<title>Node30&#45;&gt;Node32</title>
<path fill="none" stroke="midnightblue" d="M346.35,-409C388.99,-409 438.53,-409 480.71,-409"/>
<polygon fill="midnightblue" stroke="midnightblue" points="346.24,-405.5 336.24,-409 346.24,-412.5 346.24,-405.5"/>
</g>
<!-- Node35 -->
<g id="node35" class="node">
<title>Node35</title>
<g id="a_node35"><a xlink:href="structMoFEM_1_1interface__RefEntity.html" target="_top" xlink:title=" ">
<polygon fill="white" stroke="black" points="501.5,-328 501.5,-358 653.5,-358 653.5,-328 501.5,-328"/>
<text text-anchor="start" x="509.5" y="-346" font-family="Helvetica,sans-Serif" font-size="10.00">MoFEM::interface_RefEntity</text>
<text text-anchor="middle" x="577.5" y="-335" font-family="Helvetica,sans-Serif" font-size="10.00">&lt; REFENT &gt;</text>
</a>
</g>
</g>
<!-- Node30&#45;&gt;Node35 -->
<g id="edge39" class="edge">
<title>Node30&#45;&gt;Node35</title>
<path fill="none" stroke="orange" stroke-dasharray="5,2" d="M304.02,-397.5C358.78,-386.54 441.5,-370 501.42,-358.02"/>
<polygon fill="orange" stroke="orange" points="303.25,-394.08 294.13,-399.47 304.62,-400.94 303.25,-394.08"/>
<text text-anchor="middle" x="408.5" y="-388" font-family="Helvetica,sans-Serif" font-size="10.00"> &lt; REFENT &gt;</text>
</g>
<!-- Node31 -->
<g id="node31" class="node">
<title>Node31</title>
<g id="a_node31"><a xlink:title=" ">
<polygon fill="white" stroke="#bfbfbf" points="0,-399.5 0,-418.5 97,-418.5 97,-399.5 0,-399.5"/>
<text text-anchor="middle" x="48.5" y="-406.5" font-family="Helvetica,sans-Serif" font-size="10.00">shared_ptr&lt; T &gt;</text>
</a>
</g>
</g>
<!-- Node31&#45;&gt;Node30 -->
<g id="edge31" class="edge">
<title>Node31&#45;&gt;Node30</title>
<path fill="none" stroke="#9a32cd" stroke-dasharray="5,2" d="M107.25,-409C122.14,-409 138.53,-409 154.63,-409"/>
<polygon fill="#9a32cd" stroke="#9a32cd" points="107.2,-405.5 97.2,-409 107.2,-412.5 107.2,-405.5"/>
<text text-anchor="middle" x="126" y="-412" font-family="Helvetica,sans-Serif" font-size="10.00"> sPtr</text>
</g>
<!-- Node32&#45;&gt;Node27 -->
<g id="edge32" class="edge">
<title>Node32&#45;&gt;Node27</title>
<path fill="none" stroke="orange" stroke-dasharray="5,2" d="M622.24,-421.25C680.48,-437.55 783.42,-466.37 846.3,-483.97"/>
<polygon fill="orange" stroke="orange" points="623.18,-417.87 612.6,-418.55 621.29,-424.61 623.18,-417.87"/>
<text text-anchor="middle" x="746.5" y="-472" font-family="Helvetica,sans-Serif" font-size="10.00"> &lt; EntFiniteElement &gt;</text>
</g>
<!-- Node34 -->
<g id="node34" class="node">
<title>Node34</title>
<g id="a_node34"><a xlink:href="structMoFEM_1_1interface__RefElement.html" target="_top" xlink:title=" ">
<polygon fill="white" stroke="black" points="819,-394 819,-424 983,-424 983,-394 819,-394"/>
<text text-anchor="start" x="827" y="-412" font-family="Helvetica,sans-Serif" font-size="10.00">MoFEM::interface_RefElement</text>
<text text-anchor="middle" x="901" y="-401" font-family="Helvetica,sans-Serif" font-size="10.00">&lt; REFENT &gt;</text>
</a>
</g>
</g>
<!-- Node32&#45;&gt;Node34 -->
<g id="edge40" class="edge">
<title>Node32&#45;&gt;Node34</title>
<path fill="none" stroke="orange" stroke-dasharray="5,2" d="M684.21,-409C728.03,-409 778.05,-409 818.9,-409"/>
<polygon fill="orange" stroke="orange" points="684.09,-405.5 674.09,-409 684.09,-412.5 684.09,-405.5"/>
<text text-anchor="middle" x="746.5" y="-412" font-family="Helvetica,sans-Serif" font-size="10.00"> &lt; REFENT &gt;</text>
</g>
<!-- Node40 -->
<g id="node40" class="node">
<title>Node40</title>
<g id="a_node40"><a xlink:href="structMoFEM_1_1interface__FiniteElementImpl.html" target="_top" xlink:title=" ">
<polygon fill="white" stroke="black" points="1578,-394 1578,-424 1753,-424 1753,-394 1578,-394"/>
<text text-anchor="start" x="1586" y="-412" font-family="Helvetica,sans-Serif" font-size="10.00">MoFEM::interface_FiniteElement</text>
<text text-anchor="middle" x="1665.5" y="-401" font-family="Helvetica,sans-Serif" font-size="10.00">Impl&lt; T, T &gt;</text>
</a>
</g>
</g>
<!-- Node32&#45;&gt;Node40 -->
<g id="edge45" class="edge">
<title>Node32&#45;&gt;Node40</title>
<path fill="none" stroke="midnightblue" d="M664.63,-398.31C710.4,-393.16 767.67,-387.55 819,-385 1025.41,-374.73 1077.44,-378.49 1284,-385 1384.89,-388.18 1500.6,-396.09 1577.68,-401.96"/>
<polygon fill="midnightblue" stroke="midnightblue" points="663.99,-394.86 654.45,-399.47 664.78,-401.82 663.99,-394.86"/>
</g>
<!-- Node33 -->
<g id="node33" class="node">
<title>Node33</title>
<g id="a_node33"><a xlink:href="structMoFEM_1_1interface__FiniteElement.html" target="_top" xlink:title=" ">
<polygon fill="white" stroke="black" points="1109,-443 1109,-473 1284,-473 1284,-443 1109,-443"/>
<text text-anchor="start" x="1117" y="-461" font-family="Helvetica,sans-Serif" font-size="10.00">MoFEM::interface_FiniteElement</text>
<text text-anchor="middle" x="1196.5" y="-450" font-family="Helvetica,sans-Serif" font-size="10.00">&lt; FE, REFENT &gt;</text>
</a>
</g>
</g>
<!-- Node33&#45;&gt;Node26 -->
<g id="edge35" class="edge">
<title>Node33&#45;&gt;Node26</title>
<path fill="none" stroke="orange" stroke-dasharray="5,2" d="M1294.67,-457.84C1360.35,-458.36 1449,-460.25 1527,-466 1537.43,-466.77 1548.29,-467.77 1559.13,-468.9"/>
<polygon fill="orange" stroke="orange" points="1294.36,-454.34 1284.33,-457.77 1294.31,-461.34 1294.36,-454.34"/>
<text text-anchor="start" x="1364" y="-480" font-family="Helvetica,sans-Serif" font-size="10.00"> &lt; EntFiniteElement,</text>
<text text-anchor="middle" x="1414.5" y="-469" font-family="Helvetica,sans-Serif" font-size="10.00"> EntFiniteElement &gt;</text>
</g>
<!-- Node34&#45;&gt;Node33 -->
<g id="edge36" class="edge">
<title>Node34&#45;&gt;Node33</title>
<path fill="none" stroke="midnightblue" d="M993.59,-424.29C1030.37,-430.43 1072.57,-437.48 1108.84,-443.53"/>
<polygon fill="midnightblue" stroke="midnightblue" points="993.81,-420.78 983.37,-422.58 992.65,-427.68 993.81,-420.78"/>
</g>
<!-- Node41 -->
<g id="node41" class="node">
<title>Node41</title>
<g id="a_node41"><a xlink:href="structMoFEM_1_1interface__FiniteElementImpl.html" target="_top" xlink:title="Inetface for FE.">
<polygon fill="white" stroke="black" points="1109,-394 1109,-424 1284,-424 1284,-394 1109,-394"/>
<text text-anchor="start" x="1117" y="-412" font-family="Helvetica,sans-Serif" font-size="10.00">MoFEM::interface_FiniteElement</text>
<text text-anchor="middle" x="1196.5" y="-401" font-family="Helvetica,sans-Serif" font-size="10.00">Impl&lt; FE, REFENT &gt;</text>
</a>
</g>
</g>
<!-- Node34&#45;&gt;Node41 -->
<g id="edge47" class="edge">
<title>Node34&#45;&gt;Node41</title>
<path fill="none" stroke="midnightblue" d="M993.59,-409C1030.37,-409 1072.57,-409 1108.84,-409"/>
<polygon fill="midnightblue" stroke="midnightblue" points="993.37,-405.5 983.37,-409 993.37,-412.5 993.37,-405.5"/>
</g>
<!-- Node35&#45;&gt;Node34 -->
<g id="edge37" class="edge">
<title>Node35&#45;&gt;Node34</title>
<path fill="none" stroke="midnightblue" d="M661.87,-360.12C712.91,-370.59 777.61,-383.87 826.68,-393.95"/>
<polygon fill="midnightblue" stroke="midnightblue" points="662.36,-356.64 651.86,-358.06 660.95,-363.5 662.36,-356.64"/>
</g>
<!-- Node36 -->
<g id="node36" class="node">
<title>Node36</title>
<g id="a_node36"><a xlink:href="classboost_1_1shared__ptr_3_01REFENT_01_4.html" target="_top" xlink:title=" ">
<polygon fill="white" stroke="black" points="181,-333.5 181,-352.5 310,-352.5 310,-333.5 181,-333.5"/>
<text text-anchor="middle" x="245.5" y="-340.5" font-family="Helvetica,sans-Serif" font-size="10.00">shared_ptr&lt; REFENT &gt;</text>
</a>
</g>
</g>
<!-- Node36&#45;&gt;Node35 -->
<g id="edge38" class="edge">
<title>Node36&#45;&gt;Node35</title>
<path fill="none" stroke="#9a32cd" stroke-dasharray="5,2" d="M320.3,-343C374.18,-343 446.99,-343 501.22,-343"/>
<polygon fill="#9a32cd" stroke="#9a32cd" points="320.13,-339.5 310.13,-343 320.13,-346.5 320.13,-339.5"/>
<text text-anchor="middle" x="408.5" y="-346" font-family="Helvetica,sans-Serif" font-size="10.00"> sPtr</text>
</g>
<!-- Node37 -->
<g id="node37" class="node">
<title>Node37</title>
<g id="a_node37"><a xlink:title=" ">
<polygon fill="white" stroke="#bfbfbf" points="849.5,-445.5 849.5,-464.5 952.5,-464.5 952.5,-445.5 849.5,-445.5"/>
<text text-anchor="middle" x="901" y="-452.5" font-family="Helvetica,sans-Serif" font-size="10.00">shared_ptr&lt; FE &gt;</text>
</a>
</g>
</g>
<!-- Node37&#45;&gt;Node33 -->
<g id="edge41" class="edge">
<title>Node37&#45;&gt;Node33</title>
<path fill="none" stroke="#9a32cd" stroke-dasharray="5,2" d="M962.92,-455.62C1005.13,-456.05 1061.95,-456.63 1108.86,-457.11"/>
<polygon fill="#9a32cd" stroke="#9a32cd" points="962.82,-452.12 952.79,-455.52 962.75,-459.12 962.82,-452.12"/>
<text text-anchor="middle" x="1046" y="-459" font-family="Helvetica,sans-Serif" font-size="10.00"> sFiniteElementPtr</text>
</g>
<!-- Node38 -->
<g id="node38" class="node">
<title>Node38</title>
<g id="a_node38"><a xlink:href="structMoFEM_1_1interface__EntFiniteElement.html" target="_top" xlink:title="interface to EntFiniteElement">
<polygon fill="white" stroke="black" points="2118,-414 2118,-444 2268,-444 2268,-414 2118,-414"/>
<text text-anchor="start" x="2126" y="-432" font-family="Helvetica,sans-Serif" font-size="10.00">MoFEM::interface_EntFinite</text>
<text text-anchor="middle" x="2193" y="-421" font-family="Helvetica,sans-Serif" font-size="10.00">Element&lt; T &gt;</text>
</a>
</g>
</g>
<!-- Node38&#45;&gt;Node25 -->
<g id="edge42" class="edge">
<title>Node38&#45;&gt;Node25</title>
<path fill="none" stroke="orange" stroke-dasharray="5,2" d="M2278.15,-436.08C2326.39,-440.14 2386.64,-445.2 2434.29,-449.21"/>
<polygon fill="orange" stroke="orange" points="2278.31,-432.58 2268.05,-435.23 2277.72,-439.55 2278.31,-432.58"/>
<text text-anchor="middle" x="2355" y="-450" font-family="Helvetica,sans-Serif" font-size="10.00"> &lt; EntFiniteElement &gt;</text>
</g>
<!-- Node39 -->
<g id="node39" class="node">
<title>Node39</title>
<g id="a_node39"><a xlink:href="structMoFEM_1_1interface__FiniteElement_3_01T_00_01T_01_4.html" target="_top" xlink:title=" ">
<polygon fill="white" stroke="black" points="1894,-408 1894,-438 2069,-438 2069,-408 1894,-408"/>
<text text-anchor="start" x="1902" y="-426" font-family="Helvetica,sans-Serif" font-size="10.00">MoFEM::interface_FiniteElement</text>
<text text-anchor="middle" x="1981.5" y="-415" font-family="Helvetica,sans-Serif" font-size="10.00">&lt; T, T &gt;</text>
</a>
</g>
</g>
<!-- Node39&#45;&gt;Node38 -->
<g id="edge43" class="edge">
<title>Node39&#45;&gt;Node38</title>
<path fill="none" stroke="midnightblue" d="M2079.47,-425.78C2092.31,-426.15 2105.31,-426.52 2117.69,-426.87"/>
<polygon fill="midnightblue" stroke="midnightblue" points="2079.32,-422.27 2069.22,-425.48 2079.12,-429.27 2079.32,-422.27"/>
</g>
<!-- Node40&#45;&gt;Node39 -->
<g id="edge44" class="edge">
<title>Node40&#45;&gt;Node39</title>
<path fill="none" stroke="midnightblue" d="M1763.3,-413.32C1805,-415.18 1853.38,-417.33 1893.88,-419.14"/>
<polygon fill="midnightblue" stroke="midnightblue" points="1763.28,-409.81 1753.13,-412.86 1762.97,-416.8 1763.28,-409.81"/>
</g>
<!-- Node41&#45;&gt;Node40 -->
<g id="edge46" class="edge">
<title>Node41&#45;&gt;Node40</title>
<path fill="none" stroke="orange" stroke-dasharray="5,2" d="M1294.25,-409C1377.78,-409 1497.37,-409 1577.82,-409"/>
<polygon fill="orange" stroke="orange" points="1294.24,-405.5 1284.24,-409 1294.24,-412.5 1294.24,-405.5"/>
<text text-anchor="middle" x="1414.5" y="-412" font-family="Helvetica,sans-Serif" font-size="10.00"> &lt; T, T &gt;</text>
</g>
<!-- Node42 -->
<g id="node42" class="node">
<title>Node42</title>
<g id="a_node42"><a xlink:title=" ">
<polygon fill="white" stroke="#bfbfbf" points="2501.5,-490.5 2501.5,-509.5 2530.5,-509.5 2530.5,-490.5 2501.5,-490.5"/>
<text text-anchor="middle" x="2516" y="-497.5" font-family="Helvetica,sans-Serif" font-size="10.00">int</text>
</a>
</g>
</g>
<!-- Node42&#45;&gt;Node1 -->
<g id="edge50" class="edge">
<title>Node42&#45;&gt;Node1</title>
<path fill="none" stroke="#9a32cd" stroke-dasharray="5,2" d="M2540.86,-501.79C2607.6,-505.95 2800.97,-512.31 2949,-460 3133.94,-394.65 3323.75,-241.75 3371.55,-201.73"/>
<polygon fill="#9a32cd" stroke="#9a32cd" points="2540.8,-498.28 2530.58,-501.1 2540.33,-505.26 2540.8,-498.28"/>
<text text-anchor="middle" x="2995" y="-466" font-family="Helvetica,sans-Serif" font-size="10.00"> numNodes</text>
<text text-anchor="middle" x="2995" y="-455" font-family="Helvetica,sans-Serif" font-size="10.00">faceNodes</text>
</g>
<!-- Node42&#45;&gt;Node24 -->
<g id="edge48" class="edge">
<title>Node42&#45;&gt;Node24</title>
<path fill="none" stroke="#9a32cd" stroke-dasharray="5,2" d="M2540.88,-495.34C2558,-491.84 2581.56,-486.67 2602,-481 2610.13,-478.74 2611.79,-476.95 2620,-475 2666.43,-463.99 2718.93,-455.97 2762.47,-450.5"/>
<polygon fill="#9a32cd" stroke="#9a32cd" points="2539.76,-491.99 2530.65,-497.39 2541.14,-498.86 2539.76,-491.99"/>
<text text-anchor="middle" x="2682" y="-478" font-family="Helvetica,sans-Serif" font-size="10.00"> part</text>
</g>
<!-- Node43 -->
<g id="node43" class="node">
<title>Node43</title>
<g id="a_node43"><a xlink:title=" ">
<polygon fill="white" stroke="#bfbfbf" points="2820,-220.5 2820,-239.5 2891,-239.5 2891,-220.5 2820,-220.5"/>
<text text-anchor="middle" x="2855.5" y="-227.5" font-family="Helvetica,sans-Serif" font-size="10.00">Interface &amp;</text>
</a>
</g>
</g>
<!-- Node43&#45;&gt;Node8 -->
<g id="edge49" class="edge">
<title>Node43&#45;&gt;Node8</title>
<path fill="none" stroke="#9a32cd" stroke-dasharray="5,2" d="M2901.68,-231.28C2935.19,-232.38 2981.98,-234.24 3023,-237 3028.82,-237.39 3034.84,-237.84 3040.89,-238.33"/>
<polygon fill="#9a32cd" stroke="#9a32cd" points="2901.39,-227.77 2891.29,-230.95 2901.17,-234.77 2901.39,-227.77"/>
<text text-anchor="middle" x="2995" y="-240" font-family="Helvetica,sans-Serif" font-size="10.00"> mOab</text>
</g>
<!-- Node44 -->
<g id="node44" class="node">
<title>Node44</title>
<g id="a_node44"><a xlink:href="classUBlasMatrix_3_01double_01_4.html" target="_top" xlink:title=" ">
<polygon fill="white" stroke="black" points="3055,-89.5 3055,-108.5 3187,-108.5 3187,-89.5 3055,-89.5"/>
<text text-anchor="middle" x="3121" y="-96.5" font-family="Helvetica,sans-Serif" font-size="10.00">UBlasMatrix&lt; double &gt;</text>
</a>
</g>
</g>
<!-- Node44&#45;&gt;Node1 -->
<g id="edge51" class="edge">
<title>Node44&#45;&gt;Node1</title>
<path fill="none" stroke="#9a32cd" stroke-dasharray="5,2" d="M3197.48,-97.38C3222.48,-98.94 3250.03,-103 3274,-112 3316.19,-127.84 3356.41,-164.92 3373.88,-182.47"/>
<polygon fill="#9a32cd" stroke="#9a32cd" points="3197.48,-93.87 3187.31,-96.87 3197.12,-100.86 3197.48,-93.87"/>
<text text-anchor="middle" x="3246.5" y="-126" font-family="Helvetica,sans-Serif" font-size="10.00"> diffN</text>
<text text-anchor="middle" x="3246.5" y="-115" font-family="Helvetica,sans-Serif" font-size="10.00">N</text>
</g>
</g>
</svg>
