<?xml version="1.0" encoding="UTF-8" standalone="no"?>
<!DOCTYPE svg PUBLIC "-//W3C//DTD SVG 1.1//EN"
 "http://www.w3.org/Graphics/SVG/1.1/DTD/svg11.dtd">
<!-- Generated by graphviz version 2.43.0 (0)
 -->
<!-- Title: MoFEM::OpFluxRhsImpl&lt; NaturalMeshsetTypeVectorScaling&lt; BLOCKSET &gt;, 1, FIELD_DIM, A, I, OpBase &gt; Pages: 1 -->
<svg width="618pt" height="72pt"
 viewBox="0.00 0.00 618.00 72.00" xmlns="http://www.w3.org/2000/svg" xmlns:xlink="http://www.w3.org/1999/xlink">
<g id="graph0" class="graph" transform="scale(1 1) rotate(0) translate(4 68)">
<title>MoFEM::OpFluxRhsImpl&lt; NaturalMeshsetTypeVectorScaling&lt; BLOCKSET &gt;, 1, FIELD_DIM, A, I, OpBase &gt;</title>
<polygon fill="white" stroke="transparent" points="-4,4 -4,-68 614,-68 614,4 -4,4"/>
<!-- Node1 -->
<g id="node1" class="node">
<title>Node1</title>
<g id="a_node1"><a xlink:title=" ">
<polygon fill="#bfbfbf" stroke="black" points="416,-6 416,-58 610,-58 610,-6 416,-6"/>
<text text-anchor="start" x="424" y="-46" font-family="Helvetica,sans-Serif" font-size="10.00">MoFEM::OpFluxRhsImpl</text>
<text text-anchor="start" x="424" y="-35" font-family="Helvetica,sans-Serif" font-size="10.00">&lt; NaturalMeshsetTypeVectorScaling</text>
<text text-anchor="start" x="424" y="-24" font-family="Helvetica,sans-Serif" font-size="10.00">&lt; BLOCKSET &gt;, 1, FIELD_DIM,</text>
<text text-anchor="middle" x="513" y="-13" font-family="Helvetica,sans-Serif" font-size="10.00"> A, I, OpBase &gt;</text>
</a>
</g>
</g>
<!-- Node2 -->
<g id="node2" class="node">
<title>Node2</title>
<g id="a_node2"><a xlink:href="structMoFEM_1_1OpFluxRhsImpl_3_01NaturalMeshsetTypeVectorScaling_3_01UNKNOWNSET_01_4_00_011_00_0771e605d9e858a0adf36062af7a900fd.html" target="_top" xlink:title=" ">
<polygon fill="white" stroke="black" points="186,-6 186,-58 380,-58 380,-6 186,-6"/>
<text text-anchor="start" x="194" y="-46" font-family="Helvetica,sans-Serif" font-size="10.00">MoFEM::OpFluxRhsImpl</text>
<text text-anchor="start" x="194" y="-35" font-family="Helvetica,sans-Serif" font-size="10.00">&lt; NaturalMeshsetTypeVectorScaling</text>
<text text-anchor="start" x="194" y="-24" font-family="Helvetica,sans-Serif" font-size="10.00">&lt; UNKNOWNSET &gt;, 1, FIELD_DIM,</text>
<text text-anchor="middle" x="283" y="-13" font-family="Helvetica,sans-Serif" font-size="10.00"> A, I, OpBase &gt;</text>
</a>
</g>
</g>
<!-- Node2&#45;&gt;Node1 -->
<g id="edge1" class="edge">
<title>Node2&#45;&gt;Node1</title>
<path fill="none" stroke="midnightblue" d="M390.04,-32C398.6,-32 407.23,-32 415.71,-32"/>
<polygon fill="midnightblue" stroke="midnightblue" points="390.03,-28.5 380.03,-32 390.03,-35.5 390.03,-28.5"/>
</g>
<!-- Node3 -->
<g id="node3" class="node">
<title>Node3</title>
<g id="a_node3"><a xlink:title=" ">
<polygon fill="white" stroke="#bfbfbf" points="0,-0.5 0,-63.5 150,-63.5 150,-0.5 0,-0.5"/>
<text text-anchor="start" x="8" y="-51.5" font-family="Helvetica,sans-Serif" font-size="10.00">FormsIntegrators&lt; OpBase</text>
<text text-anchor="start" x="8" y="-40.5" font-family="Helvetica,sans-Serif" font-size="10.00"> &gt;::template Assembly&lt;</text>
<text text-anchor="start" x="8" y="-29.5" font-family="Helvetica,sans-Serif" font-size="10.00"> A &gt;::template LinearForm</text>
<text text-anchor="start" x="8" y="-18.5" font-family="Helvetica,sans-Serif" font-size="10.00">&lt; I &gt;::template OpSource&lt;</text>
<text text-anchor="middle" x="75" y="-7.5" font-family="Helvetica,sans-Serif" font-size="10.00"> 1, FIELD_DIM &gt;</text>
</a>
</g>
</g>
<!-- Node3&#45;&gt;Node2 -->
<g id="edge2" class="edge">
<title>Node3&#45;&gt;Node2</title>
<path fill="none" stroke="midnightblue" d="M160.3,-32C168.76,-32 177.4,-32 185.98,-32"/>
<polygon fill="midnightblue" stroke="midnightblue" points="160.08,-28.5 150.08,-32 160.08,-35.5 160.08,-28.5"/>
</g>
</g>
</svg>
