<?xml version="1.0" encoding="UTF-8" standalone="no"?>
<!DOCTYPE svg PUBLIC "-//W3C//DTD SVG 1.1//EN"
 "http://www.w3.org/Graphics/SVG/1.1/DTD/svg11.dtd">
<!-- Generated by graphviz version 2.43.0 (0)
 -->
<!-- Title: MixTransport::UnsaturatedFlowElement::MonitorPostProc Pages: 1 -->
<svg width="383pt" height="319pt"
 viewBox="0.00 0.00 383.00 319.00" xmlns="http://www.w3.org/2000/svg" xmlns:xlink="http://www.w3.org/1999/xlink">
<g id="graph0" class="graph" transform="scale(1 1) rotate(0) translate(4 315)">
<title>MixTransport::UnsaturatedFlowElement::MonitorPostProc</title>
<polygon fill="white" stroke="transparent" points="-4,4 -4,-315 379,-315 379,4 -4,4"/>
<!-- Node1 -->
<g id="node1" class="node">
<title>Node1</title>
<g id="a_node1"><a xlink:title=" ">
<polygon fill="#bfbfbf" stroke="black" points="107.5,-0.5 107.5,-30.5 273.5,-30.5 273.5,-0.5 107.5,-0.5"/>
<text text-anchor="start" x="115.5" y="-18.5" font-family="Helvetica,sans-Serif" font-size="10.00">MixTransport::Unsaturated</text>
<text text-anchor="middle" x="190.5" y="-7.5" font-family="Helvetica,sans-Serif" font-size="10.00">FlowElement::MonitorPostProc</text>
</a>
</g>
</g>
<!-- Node2 -->
<g id="node2" class="node">
<title>Node2</title>
<g id="a_node2"><a xlink:href="structMoFEM_1_1FEMethod.html" target="_top" xlink:title="structure for User Loop Methods on finite elements">
<polygon fill="white" stroke="black" points="137,-67.5 137,-86.5 244,-86.5 244,-67.5 137,-67.5"/>
<text text-anchor="middle" x="190.5" y="-74.5" font-family="Helvetica,sans-Serif" font-size="10.00">MoFEM::FEMethod</text>
</a>
</g>
</g>
<!-- Node2&#45;&gt;Node1 -->
<g id="edge1" class="edge">
<title>Node2&#45;&gt;Node1</title>
<path fill="none" stroke="midnightblue" d="M190.5,-57.23C190.5,-48.59 190.5,-38.5 190.5,-30.52"/>
<polygon fill="midnightblue" stroke="midnightblue" points="187,-57.48 190.5,-67.48 194,-57.48 187,-57.48"/>
</g>
<!-- Node3 -->
<g id="node3" class="node">
<title>Node3</title>
<g id="a_node3"><a xlink:href="structMoFEM_1_1BasicMethod.html" target="_top" xlink:title="Data structure to exchange data between mofem and User Loop Methods.">
<polygon fill="white" stroke="black" points="129.5,-123.5 129.5,-142.5 251.5,-142.5 251.5,-123.5 129.5,-123.5"/>
<text text-anchor="middle" x="190.5" y="-130.5" font-family="Helvetica,sans-Serif" font-size="10.00">MoFEM::BasicMethod</text>
</a>
</g>
</g>
<!-- Node3&#45;&gt;Node2 -->
<g id="edge2" class="edge">
<title>Node3&#45;&gt;Node2</title>
<path fill="none" stroke="midnightblue" d="M190.5,-112.8C190.5,-103.91 190.5,-93.78 190.5,-86.75"/>
<polygon fill="midnightblue" stroke="midnightblue" points="187,-113.08 190.5,-123.08 194,-113.08 187,-113.08"/>
</g>
<!-- Node4 -->
<g id="node4" class="node">
<title>Node4</title>
<g id="a_node4"><a xlink:href="structMoFEM_1_1KspMethod.html" target="_top" xlink:title="data structure for ksp (linear solver) context">
<polygon fill="white" stroke="black" points="0,-179.5 0,-198.5 113,-198.5 113,-179.5 0,-179.5"/>
<text text-anchor="middle" x="56.5" y="-186.5" font-family="Helvetica,sans-Serif" font-size="10.00">MoFEM::KspMethod</text>
</a>
</g>
</g>
<!-- Node4&#45;&gt;Node3 -->
<g id="edge3" class="edge">
<title>Node4&#45;&gt;Node3</title>
<path fill="none" stroke="midnightblue" d="M87.18,-175.64C112.32,-165.5 147.25,-151.43 169.37,-142.52"/>
<polygon fill="midnightblue" stroke="midnightblue" points="85.7,-172.46 77.73,-179.44 88.32,-178.95 85.7,-172.46"/>
</g>
<!-- Node5 -->
<g id="node5" class="node">
<title>Node5</title>
<g id="a_node5"><a xlink:href="structMoFEM_1_1PetscData.html" target="_top" xlink:title=" ">
<polygon fill="white" stroke="black" points="136.5,-235.5 136.5,-254.5 244.5,-254.5 244.5,-235.5 136.5,-235.5"/>
<text text-anchor="middle" x="190.5" y="-242.5" font-family="Helvetica,sans-Serif" font-size="10.00">MoFEM::PetscData</text>
</a>
</g>
</g>
<!-- Node5&#45;&gt;Node4 -->
<g id="edge4" class="edge">
<title>Node5&#45;&gt;Node4</title>
<path fill="none" stroke="midnightblue" d="M159.82,-231.64C134.68,-221.5 99.75,-207.43 77.63,-198.52"/>
<polygon fill="midnightblue" stroke="midnightblue" points="158.68,-234.95 169.27,-235.44 161.3,-228.46 158.68,-234.95"/>
</g>
<!-- Node7 -->
<g id="node7" class="node">
<title>Node7</title>
<g id="a_node7"><a xlink:href="structMoFEM_1_1SnesMethod.html" target="_top" xlink:title="data structure for snes (nonlinear solver) context">
<polygon fill="white" stroke="black" points="131,-179.5 131,-198.5 250,-198.5 250,-179.5 131,-179.5"/>
<text text-anchor="middle" x="190.5" y="-186.5" font-family="Helvetica,sans-Serif" font-size="10.00">MoFEM::SnesMethod</text>
</a>
</g>
</g>
<!-- Node5&#45;&gt;Node7 -->
<g id="edge7" class="edge">
<title>Node5&#45;&gt;Node7</title>
<path fill="none" stroke="darkgreen" d="M190.5,-224.8C190.5,-215.91 190.5,-205.78 190.5,-198.75"/>
<polygon fill="darkgreen" stroke="darkgreen" points="187,-225.08 190.5,-235.08 194,-225.08 187,-225.08"/>
</g>
<!-- Node8 -->
<g id="node8" class="node">
<title>Node8</title>
<g id="a_node8"><a xlink:href="structMoFEM_1_1TSMethod.html" target="_top" xlink:title="data structure for TS (time stepping) context">
<polygon fill="white" stroke="black" points="268,-179.5 268,-198.5 375,-198.5 375,-179.5 268,-179.5"/>
<text text-anchor="middle" x="321.5" y="-186.5" font-family="Helvetica,sans-Serif" font-size="10.00">MoFEM::TSMethod</text>
</a>
</g>
</g>
<!-- Node5&#45;&gt;Node8 -->
<g id="edge9" class="edge">
<title>Node5&#45;&gt;Node8</title>
<path fill="none" stroke="darkgreen" d="M220.82,-231.5C245.38,-221.38 279.32,-207.39 300.84,-198.52"/>
<polygon fill="darkgreen" stroke="darkgreen" points="219.17,-228.4 211.26,-235.44 221.84,-234.87 219.17,-228.4"/>
</g>
<!-- Node6 -->
<g id="node6" class="node">
<title>Node6</title>
<g id="a_node6"><a xlink:href="structMoFEM_1_1UnknownInterface.html" target="_top" xlink:title="base class for all interface classes">
<polygon fill="white" stroke="black" points="116.5,-291.5 116.5,-310.5 264.5,-310.5 264.5,-291.5 116.5,-291.5"/>
<text text-anchor="middle" x="190.5" y="-298.5" font-family="Helvetica,sans-Serif" font-size="10.00">MoFEM::UnknownInterface</text>
</a>
</g>
</g>
<!-- Node6&#45;&gt;Node5 -->
<g id="edge5" class="edge">
<title>Node6&#45;&gt;Node5</title>
<path fill="none" stroke="midnightblue" d="M190.5,-280.8C190.5,-271.91 190.5,-261.78 190.5,-254.75"/>
<polygon fill="midnightblue" stroke="midnightblue" points="187,-281.08 190.5,-291.08 194,-281.08 187,-281.08"/>
</g>
<!-- Node7&#45;&gt;Node3 -->
<g id="edge6" class="edge">
<title>Node7&#45;&gt;Node3</title>
<path fill="none" stroke="midnightblue" d="M190.5,-168.8C190.5,-159.91 190.5,-149.78 190.5,-142.75"/>
<polygon fill="midnightblue" stroke="midnightblue" points="187,-169.08 190.5,-179.08 194,-169.08 187,-169.08"/>
</g>
<!-- Node8&#45;&gt;Node3 -->
<g id="edge8" class="edge">
<title>Node8&#45;&gt;Node3</title>
<path fill="none" stroke="midnightblue" d="M291.18,-175.5C266.62,-165.38 232.68,-151.39 211.16,-142.52"/>
<polygon fill="midnightblue" stroke="midnightblue" points="290.16,-178.87 300.74,-179.44 292.83,-172.4 290.16,-178.87"/>
</g>
</g>
</svg>
