<?xml version="1.0" encoding="UTF-8" standalone="no"?>
<!DOCTYPE svg PUBLIC "-//W3C//DTD SVG 1.1//EN"
 "http://www.w3.org/Graphics/SVG/1.1/DTD/svg11.dtd">
<!-- Generated by graphviz version 2.43.0 (0)
 -->
<!-- Title: MoFEM::FENumeredDofEntity Pages: 1 -->
<!--zoomable 196 -->
<svg id="main" version="1.1" xmlns="http://www.w3.org/2000/svg" xmlns:xlink="http://www.w3.org/1999/xlink" xml:space="preserve" onload="init(evt)">
<style type="text/css"><![CDATA[
.edge:hover path { stroke: red; }
.edge:hover polygon { stroke: red; fill: red; }
]]></style>
<script type="text/javascript"><![CDATA[
var edges = document.getElementsByTagName('g');
if (edges && edges.length) {
  for (var i=0;i<edges.length;i++) {
    if (edges[i].id.substr(0,4)=='edge') {
      edges[i].setAttribute('class','edge');
    }
  }
}
]]></script>
        <defs>
                <circle id="rim" cx="0" cy="0" r="7"/>
                <circle id="rim2" cx="0" cy="0" r="3.5"/>
                <g id="zoomPlus">
                        <use xlink:href="#rim" fill="#404040">
                                <set attributeName="fill" to="#808080" begin="zoomplus.mouseover" end="zoomplus.mouseout"/>
                        </use>
                        <path d="M-4,0h8M0,-4v8" fill="none" stroke="white" stroke-width="1.5" pointer-events="none"/>
                </g>
                <g id="zoomMin">
                        <use xlink:href="#rim" fill="#404040">
                                <set attributeName="fill" to="#808080" begin="zoomminus.mouseover" end="zoomminus.mouseout"/>
                        </use>
                        <path d="M-4,0h8" fill="none" stroke="white" stroke-width="1.5" pointer-events="none"/>
                </g>
                <g id="dirArrow">
                        <path fill="none" stroke="white" stroke-width="1.5" d="M0,-3.0v7 M-2.5,-0.5L0,-3.0L2.5,-0.5"/>
                </g>
               <g id="resetDef">
                       <use xlink:href="#rim2" fill="#404040">
                               <set attributeName="fill" to="#808080" begin="reset.mouseover" end="reset.mouseout"/>
                       </use>
               </g>
        </defs>

<script type="text/javascript">
var viewWidth = 2665;
var viewHeight = 196;
var sectionId = 'dynsection-1';
</script>
<script xlink:href="svgpan.js"/>
<svg id="graph" class="graph">
<g id="viewport">
<title>MoFEM::FENumeredDofEntity</title>
<polygon fill="white" stroke="transparent" points="-4,4 -4,-191.77 2661,-191.77 2661,4 -4,4"/>
<!-- Node1 -->
<g id="node1" class="node">
<title>Node1</title>
<g id="a_node1"><a xlink:title="keeps information about indexed dofs for the finite element">
<polygon fill="#bfbfbf" stroke="black" points="2496,-62.5 2496,-81.5 2657,-81.5 2657,-62.5 2496,-62.5"/>
<text text-anchor="middle" x="2576.5" y="-69.5" font-family="Helvetica,sans-Serif" font-size="10.00">MoFEM::FENumeredDofEntity</text>
</a>
</g>
</g>
<!-- Node2 -->
<g id="node2" class="node">
<title>Node2</title>
<g id="a_node2"><a xlink:href="structMoFEM_1_1NumeredDofEntity.html" target="_top" xlink:title="keeps information about indexed dofs for the problem">
<polygon fill="white" stroke="black" points="2310,-62.5 2310,-81.5 2459,-81.5 2459,-62.5 2310,-62.5"/>
<text text-anchor="middle" x="2384.5" y="-69.5" font-family="Helvetica,sans-Serif" font-size="10.00">MoFEM::NumeredDofEntity</text>
</a>
</g>
</g>
<!-- Node2&#45;&gt;Node1 -->
<g id="edge1" class="edge">
<title>Node2&#45;&gt;Node1</title>
<path fill="none" stroke="midnightblue" d="M2469.45,-72C2478.22,-72 2487.11,-72 2495.83,-72"/>
<polygon fill="midnightblue" stroke="midnightblue" points="2469.23,-68.5 2459.23,-72 2469.23,-75.5 2469.23,-68.5"/>
</g>
<!-- Node3 -->
<g id="node3" class="node">
<title>Node3</title>
<g id="a_node3"><a xlink:href="structMoFEM_1_1interface__DofEntity.html" target="_top" xlink:title=" ">
<polygon fill="white" stroke="black" points="2030,-87 2030,-117 2183,-117 2183,-87 2030,-87"/>
<text text-anchor="start" x="2038" y="-105" font-family="Helvetica,sans-Serif" font-size="10.00">MoFEM::interface_DofEntity</text>
<text text-anchor="middle" x="2106.5" y="-94" font-family="Helvetica,sans-Serif" font-size="10.00">&lt; DofEntity &gt;</text>
</a>
</g>
</g>
<!-- Node3&#45;&gt;Node2 -->
<g id="edge2" class="edge">
<title>Node3&#45;&gt;Node2</title>
<path fill="none" stroke="midnightblue" d="M2193.45,-97.22C2224.56,-95.03 2259.93,-92.01 2292,-88 2305.76,-86.28 2320.6,-83.91 2334.25,-81.52"/>
<polygon fill="midnightblue" stroke="midnightblue" points="2192.81,-93.76 2183.07,-97.93 2193.29,-100.74 2192.81,-93.76"/>
</g>
<!-- Node4 -->
<g id="node4" class="node">
<title>Node4</title>
<g id="a_node4"><a xlink:href="structMoFEM_1_1interface__FieldEntity.html" target="_top" xlink:title=" ">
<polygon fill="white" stroke="black" points="1751.5,-64 1751.5,-94 1910.5,-94 1910.5,-64 1751.5,-64"/>
<text text-anchor="start" x="1759.5" y="-82" font-family="Helvetica,sans-Serif" font-size="10.00">MoFEM::interface_FieldEntity</text>
<text text-anchor="middle" x="1831" y="-71" font-family="Helvetica,sans-Serif" font-size="10.00">&lt; DofEntity &gt;</text>
</a>
</g>
</g>
<!-- Node4&#45;&gt;Node3 -->
<g id="edge3" class="edge">
<title>Node4&#45;&gt;Node3</title>
<path fill="none" stroke="midnightblue" d="M1920.98,-86.48C1956.08,-89.43 1995.97,-92.79 2029.67,-95.62"/>
<polygon fill="midnightblue" stroke="midnightblue" points="1921,-82.97 1910.74,-85.62 1920.41,-89.95 1921,-82.97"/>
</g>
<!-- Node5 -->
<g id="node5" class="node">
<title>Node5</title>
<g id="a_node5"><a xlink:href="structMoFEM_1_1interface__Field.html" target="_top" xlink:title=" ">
<polygon fill="white" stroke="black" points="1270,-39 1270,-69 1407,-69 1407,-39 1270,-39"/>
<text text-anchor="start" x="1278" y="-57" font-family="Helvetica,sans-Serif" font-size="10.00">MoFEM::interface_Field</text>
<text text-anchor="middle" x="1338.5" y="-46" font-family="Helvetica,sans-Serif" font-size="10.00">&lt; DofEntity, DofEntity &gt;</text>
</a>
</g>
</g>
<!-- Node5&#45;&gt;Node4 -->
<g id="edge4" class="edge">
<title>Node5&#45;&gt;Node4</title>
<path fill="none" stroke="midnightblue" d="M1417.21,-57.96C1508.59,-62.62 1659.43,-70.31 1751.26,-74.99"/>
<polygon fill="midnightblue" stroke="midnightblue" points="1417.35,-54.46 1407.19,-57.45 1417,-61.45 1417.35,-54.46"/>
</g>
<!-- Node6 -->
<g id="node6" class="node">
<title>Node6</title>
<g id="a_node6"><a xlink:href="structMoFEM_1_1interface__FieldImpl.html" target="_top" xlink:title=" ">
<polygon fill="white" stroke="black" points="958,-35 958,-65 1110,-65 1110,-35 958,-35"/>
<text text-anchor="start" x="966" y="-53" font-family="Helvetica,sans-Serif" font-size="10.00">MoFEM::interface_FieldImpl</text>
<text text-anchor="middle" x="1034" y="-42" font-family="Helvetica,sans-Serif" font-size="10.00">&lt; DofEntity, DofEntity &gt;</text>
</a>
</g>
</g>
<!-- Node6&#45;&gt;Node5 -->
<g id="edge5" class="edge">
<title>Node6&#45;&gt;Node5</title>
<path fill="none" stroke="midnightblue" d="M1120.4,-51.13C1167.75,-51.76 1225.79,-52.52 1269.95,-53.11"/>
<polygon fill="midnightblue" stroke="midnightblue" points="1120.21,-47.63 1110.16,-50.99 1120.12,-54.63 1120.21,-47.63"/>
</g>
<!-- Node7 -->
<g id="node7" class="node">
<title>Node7</title>
<g id="a_node7"><a xlink:href="structMoFEM_1_1interface__RefEntity.html" target="_top" xlink:title=" ">
<polygon fill="white" stroke="black" points="646,-32 646,-62 798,-62 798,-32 646,-32"/>
<text text-anchor="start" x="654" y="-50" font-family="Helvetica,sans-Serif" font-size="10.00">MoFEM::interface_RefEntity</text>
<text text-anchor="middle" x="722" y="-39" font-family="Helvetica,sans-Serif" font-size="10.00">&lt; DofEntity &gt;</text>
</a>
</g>
</g>
<!-- Node7&#45;&gt;Node6 -->
<g id="edge6" class="edge">
<title>Node7&#45;&gt;Node6</title>
<path fill="none" stroke="midnightblue" d="M808.17,-47.82C855.04,-48.28 912.66,-48.84 957.84,-49.27"/>
<polygon fill="midnightblue" stroke="midnightblue" points="808.08,-44.32 798.04,-47.73 808.01,-51.32 808.08,-44.32"/>
</g>
<!-- Node8 -->
<g id="node8" class="node">
<title>Node8</title>
<g id="a_node8"><a xlink:href="classboost_1_1shared__ptr_3_01DofEntity_01_4.html" target="_top" xlink:title=" ">
<polygon fill="white" stroke="black" points="443.5,-0.5 443.5,-19.5 580.5,-19.5 580.5,-0.5 443.5,-0.5"/>
<text text-anchor="middle" x="512" y="-7.5" font-family="Helvetica,sans-Serif" font-size="10.00">shared_ptr&lt; DofEntity &gt;</text>
</a>
</g>
</g>
<!-- Node8&#45;&gt;Node5 -->
<g id="edge14" class="edge">
<title>Node8&#45;&gt;Node5</title>
<path fill="none" stroke="#9a32cd" stroke-dasharray="5,2" d="M590.74,-9.44C704.8,-9.18 924.1,-10.85 1110,-25 1163.99,-29.11 1224.83,-37.04 1269.99,-43.57"/>
<polygon fill="#9a32cd" stroke="#9a32cd" points="590.7,-5.94 580.71,-9.46 590.72,-12.94 590.7,-5.94"/>
<text text-anchor="middle" x="878" y="-19" font-family="Helvetica,sans-Serif" font-size="10.00"> sFieldPtr</text>
</g>
<!-- Node8&#45;&gt;Node7 -->
<g id="edge7" class="edge">
<title>Node8&#45;&gt;Node7</title>
<path fill="none" stroke="#9a32cd" stroke-dasharray="5,2" d="M576.69,-21.33C598.47,-25.2 623.05,-29.58 645.67,-33.6"/>
<polygon fill="#9a32cd" stroke="#9a32cd" points="577.02,-17.83 566.57,-19.53 575.8,-24.73 577.02,-17.83"/>
<text text-anchor="middle" x="617" y="-33" font-family="Helvetica,sans-Serif" font-size="10.00"> sPtr</text>
</g>
<!-- Node9 -->
<g id="node9" class="node">
<title>Node9</title>
<g id="a_node9"><a xlink:href="structMoFEM_1_1interface__RefEntity.html" target="_top" xlink:title="interface to RefEntity">
<polygon fill="white" stroke="black" points="155,-97.5 155,-116.5 336,-116.5 336,-97.5 155,-97.5"/>
<text text-anchor="middle" x="245.5" y="-104.5" font-family="Helvetica,sans-Serif" font-size="10.00">MoFEM::interface_RefEntity&lt; T &gt;</text>
</a>
</g>
</g>
<!-- Node9&#45;&gt;Node7 -->
<g id="edge8" class="edge">
<title>Node9&#45;&gt;Node7</title>
<path fill="none" stroke="orange" stroke-dasharray="5,2" d="M299.36,-95.43C337.24,-87.52 389.55,-77.35 436,-71 506.84,-61.31 588.16,-54.93 645.76,-51.2"/>
<polygon fill="orange" stroke="orange" points="298.63,-92.01 289.57,-97.5 300.07,-98.86 298.63,-92.01"/>
<text text-anchor="middle" x="512" y="-74" font-family="Helvetica,sans-Serif" font-size="10.00"> &lt; DofEntity &gt;</text>
</g>
<!-- Node12 -->
<g id="node12" class="node">
<title>Node12</title>
<g id="a_node12"><a xlink:href="structMoFEM_1_1interface__RefEntity.html" target="_top" xlink:title=" ">
<polygon fill="white" stroke="black" points="436,-92 436,-122 588,-122 588,-92 436,-92"/>
<text text-anchor="start" x="444" y="-110" font-family="Helvetica,sans-Serif" font-size="10.00">MoFEM::interface_RefEntity</text>
<text text-anchor="middle" x="512" y="-99" font-family="Helvetica,sans-Serif" font-size="10.00">&lt; REFENT &gt;</text>
</a>
</g>
</g>
<!-- Node9&#45;&gt;Node12 -->
<g id="edge13" class="edge">
<title>Node9&#45;&gt;Node12</title>
<path fill="none" stroke="orange" stroke-dasharray="5,2" d="M346.41,-107C376,-107 407.89,-107 435.65,-107"/>
<polygon fill="orange" stroke="orange" points="346.05,-103.5 336.05,-107 346.05,-110.5 346.05,-103.5"/>
<text text-anchor="middle" x="386" y="-110" font-family="Helvetica,sans-Serif" font-size="10.00"> &lt; REFENT &gt;</text>
</g>
<!-- Node18 -->
<g id="node18" class="node">
<title>Node18</title>
<g id="a_node18"><a xlink:href="structMoFEM_1_1interface__FieldImpl.html" target="_top" xlink:title=" ">
<polygon fill="white" stroke="black" points="958,-133 958,-163 1110,-163 1110,-133 958,-133"/>
<text text-anchor="start" x="966" y="-151" font-family="Helvetica,sans-Serif" font-size="10.00">MoFEM::interface_FieldImpl</text>
<text text-anchor="middle" x="1034" y="-140" font-family="Helvetica,sans-Serif" font-size="10.00">&lt; T, T &gt;</text>
</a>
</g>
</g>
<!-- Node9&#45;&gt;Node18 -->
<g id="edge21" class="edge">
<title>Node9&#45;&gt;Node18</title>
<path fill="none" stroke="midnightblue" d="M297.51,-118.81C373.12,-135.72 519.6,-166.2 646,-179 721.19,-186.61 740.43,-182.11 816,-183 871.11,-183.65 885.78,-192.87 940,-183 961.22,-179.14 983.89,-170.7 1001.53,-163.08"/>
<polygon fill="midnightblue" stroke="midnightblue" points="297.85,-115.3 287.32,-116.52 296.31,-122.13 297.85,-115.3"/>
</g>
<!-- Node10 -->
<g id="node10" class="node">
<title>Node10</title>
<g id="a_node10"><a xlink:title=" ">
<polygon fill="white" stroke="#bfbfbf" points="0,-97.5 0,-116.5 97,-116.5 97,-97.5 0,-97.5"/>
<text text-anchor="middle" x="48.5" y="-104.5" font-family="Helvetica,sans-Serif" font-size="10.00">shared_ptr&lt; T &gt;</text>
</a>
</g>
</g>
<!-- Node10&#45;&gt;Node9 -->
<g id="edge9" class="edge">
<title>Node10&#45;&gt;Node9</title>
<path fill="none" stroke="#9a32cd" stroke-dasharray="5,2" d="M107.25,-107C122.14,-107 138.53,-107 154.63,-107"/>
<polygon fill="#9a32cd" stroke="#9a32cd" points="107.2,-103.5 97.2,-107 107.2,-110.5 107.2,-103.5"/>
<text text-anchor="middle" x="126" y="-110" font-family="Helvetica,sans-Serif" font-size="10.00"> sPtr</text>
</g>
<!-- Node11 -->
<g id="node11" class="node">
<title>Node11</title>
<g id="a_node11"><a xlink:href="structMoFEM_1_1interface__FieldImpl.html" target="_top" xlink:title="Pointer interface for MoFEM::Field.">
<polygon fill="white" stroke="black" points="646,-86 646,-116 798,-116 798,-86 646,-86"/>
<text text-anchor="start" x="654" y="-104" font-family="Helvetica,sans-Serif" font-size="10.00">MoFEM::interface_FieldImpl</text>
<text text-anchor="middle" x="722" y="-93" font-family="Helvetica,sans-Serif" font-size="10.00">&lt; FIELD, REFENT &gt;</text>
</a>
</g>
</g>
<!-- Node11&#45;&gt;Node6 -->
<g id="edge10" class="edge">
<title>Node11&#45;&gt;Node6</title>
<path fill="none" stroke="orange" stroke-dasharray="5,2" d="M807.98,-86.34C810.69,-85.89 813.36,-85.44 816,-85 863.15,-77.14 916.1,-68.6 957.9,-61.91"/>
<polygon fill="orange" stroke="orange" points="807.39,-82.89 798.11,-88.01 808.55,-89.8 807.39,-82.89"/>
<text text-anchor="middle" x="878" y="-88" font-family="Helvetica,sans-Serif" font-size="10.00"> &lt; DofEntity, DofEntity &gt;</text>
</g>
<!-- Node14 -->
<g id="node14" class="node">
<title>Node14</title>
<g id="a_node14"><a xlink:href="structMoFEM_1_1interface__Field.html" target="_top" xlink:title=" ">
<polygon fill="white" stroke="black" points="968.5,-84 968.5,-114 1099.5,-114 1099.5,-84 968.5,-84"/>
<text text-anchor="start" x="976.5" y="-102" font-family="Helvetica,sans-Serif" font-size="10.00">MoFEM::interface_Field</text>
<text text-anchor="middle" x="1034" y="-91" font-family="Helvetica,sans-Serif" font-size="10.00">&lt; FIELD, REFENT &gt;</text>
</a>
</g>
</g>
<!-- Node11&#45;&gt;Node14 -->
<g id="edge16" class="edge">
<title>Node11&#45;&gt;Node14</title>
<path fill="none" stroke="midnightblue" d="M808.3,-100.45C858.86,-100.12 921.92,-99.72 968.35,-99.42"/>
<polygon fill="midnightblue" stroke="midnightblue" points="808.02,-96.95 798.04,-100.52 808.06,-103.95 808.02,-96.95"/>
</g>
<!-- Node11&#45;&gt;Node18 -->
<g id="edge22" class="edge">
<title>Node11&#45;&gt;Node18</title>
<path fill="none" stroke="orange" stroke-dasharray="5,2" d="M808.1,-113.28C848.14,-119.12 896.54,-126.29 940,-133 945.82,-133.9 951.84,-134.84 957.89,-135.8"/>
<polygon fill="orange" stroke="orange" points="808.51,-109.8 798.11,-111.82 807.5,-116.73 808.51,-109.8"/>
<text text-anchor="middle" x="878" y="-136" font-family="Helvetica,sans-Serif" font-size="10.00"> &lt; T, T &gt;</text>
</g>
<!-- Node12&#45;&gt;Node11 -->
<g id="edge11" class="edge">
<title>Node12&#45;&gt;Node11</title>
<path fill="none" stroke="midnightblue" d="M598.31,-104.54C614.01,-104.09 630.29,-103.62 645.67,-103.17"/>
<polygon fill="midnightblue" stroke="midnightblue" points="597.99,-101.05 588.09,-104.83 598.19,-108.04 597.99,-101.05"/>
</g>
<!-- Node13 -->
<g id="node13" class="node">
<title>Node13</title>
<g id="a_node13"><a xlink:href="classboost_1_1shared__ptr_3_01REFENT_01_4.html" target="_top" xlink:title=" ">
<polygon fill="white" stroke="black" points="181,-26.5 181,-45.5 310,-45.5 310,-26.5 181,-26.5"/>
<text text-anchor="middle" x="245.5" y="-33.5" font-family="Helvetica,sans-Serif" font-size="10.00">shared_ptr&lt; REFENT &gt;</text>
</a>
</g>
</g>
<!-- Node13&#45;&gt;Node12 -->
<g id="edge12" class="edge">
<title>Node13&#45;&gt;Node12</title>
<path fill="none" stroke="#9a32cd" stroke-dasharray="5,2" d="M291.71,-48.14C336.88,-60.26 406.42,-78.93 455.04,-91.98"/>
<polygon fill="#9a32cd" stroke="#9a32cd" points="292.46,-44.71 281.9,-45.5 290.65,-51.47 292.46,-44.71"/>
<text text-anchor="middle" x="386" y="-86" font-family="Helvetica,sans-Serif" font-size="10.00"> sPtr</text>
</g>
<!-- Node14&#45;&gt;Node5 -->
<g id="edge15" class="edge">
<title>Node14&#45;&gt;Node5</title>
<path fill="none" stroke="orange" stroke-dasharray="5,2" d="M1109.69,-88.07C1151.54,-81.92 1204.68,-74.09 1252,-67 1257.79,-66.13 1263.8,-65.23 1269.83,-64.32"/>
<polygon fill="orange" stroke="orange" points="1108.96,-84.64 1099.58,-89.55 1109.98,-91.56 1108.96,-84.64"/>
<text text-anchor="middle" x="1190" y="-89" font-family="Helvetica,sans-Serif" font-size="10.00"> &lt; DofEntity, DofEntity &gt;</text>
</g>
<!-- Node15 -->
<g id="node15" class="node">
<title>Node15</title>
<g id="a_node15"><a xlink:title=" ">
<polygon fill="white" stroke="#bfbfbf" points="662.5,-150.5 662.5,-169.5 781.5,-169.5 781.5,-150.5 662.5,-150.5"/>
<text text-anchor="middle" x="722" y="-157.5" font-family="Helvetica,sans-Serif" font-size="10.00">shared_ptr&lt; FIELD &gt;</text>
</a>
</g>
</g>
<!-- Node15&#45;&gt;Node14 -->
<g id="edge17" class="edge">
<title>Node15&#45;&gt;Node14</title>
<path fill="none" stroke="#9a32cd" stroke-dasharray="5,2" d="M792.12,-168.07C836.64,-170.19 894.49,-167 940,-144 950.97,-138.46 947.76,-129.8 958,-123 963.13,-119.6 968.77,-116.65 974.58,-114.1"/>
<polygon fill="#9a32cd" stroke="#9a32cd" points="792.15,-164.57 781.97,-167.49 791.75,-171.56 792.15,-164.57"/>
<text text-anchor="middle" x="878" y="-171" font-family="Helvetica,sans-Serif" font-size="10.00"> sFieldPtr</text>
</g>
<!-- Node16 -->
<g id="node16" class="node">
<title>Node16</title>
<g id="a_node16"><a xlink:href="structMoFEM_1_1interface__FieldEntity.html" target="_top" xlink:title="Interface to FieldEntity.">
<polygon fill="white" stroke="black" points="1444,-113.5 1444,-132.5 1632,-132.5 1632,-113.5 1444,-113.5"/>
<text text-anchor="middle" x="1538" y="-120.5" font-family="Helvetica,sans-Serif" font-size="10.00">MoFEM::interface_FieldEntity&lt; T &gt;</text>
</a>
</g>
</g>
<!-- Node16&#45;&gt;Node4 -->
<g id="edge18" class="edge">
<title>Node16&#45;&gt;Node4</title>
<path fill="none" stroke="orange" stroke-dasharray="5,2" d="M1612.13,-111.94C1654.58,-105.52 1708.05,-97.44 1751.4,-90.88"/>
<polygon fill="orange" stroke="orange" points="1611.51,-108.5 1602.14,-113.45 1612.55,-115.42 1611.51,-108.5"/>
<text text-anchor="middle" x="1686" y="-108" font-family="Helvetica,sans-Serif" font-size="10.00"> &lt; DofEntity &gt;</text>
</g>
<!-- Node19 -->
<g id="node19" class="node">
<title>Node19</title>
<g id="a_node19"><a xlink:href="structMoFEM_1_1interface__DofEntity.html" target="_top" xlink:title="Interface to DofEntity.">
<polygon fill="white" stroke="black" points="1740,-113.5 1740,-132.5 1922,-132.5 1922,-113.5 1740,-113.5"/>
<text text-anchor="middle" x="1831" y="-120.5" font-family="Helvetica,sans-Serif" font-size="10.00">MoFEM::interface_DofEntity&lt; T &gt;</text>
</a>
</g>
</g>
<!-- Node16&#45;&gt;Node19 -->
<g id="edge24" class="edge">
<title>Node16&#45;&gt;Node19</title>
<path fill="none" stroke="midnightblue" d="M1642.48,-123C1674.24,-123 1708.93,-123 1739.73,-123"/>
<polygon fill="midnightblue" stroke="midnightblue" points="1642.27,-119.5 1632.27,-123 1642.27,-126.5 1642.27,-119.5"/>
</g>
<!-- Node17 -->
<g id="node17" class="node">
<title>Node17</title>
<g id="a_node17"><a xlink:href="structMoFEM_1_1interface__Field_3_01T_00_01T_01_4.html" target="_top" xlink:title=" ">
<polygon fill="white" stroke="black" points="1273,-110 1273,-140 1404,-140 1404,-110 1273,-110"/>
<text text-anchor="start" x="1281" y="-128" font-family="Helvetica,sans-Serif" font-size="10.00">MoFEM::interface_Field</text>
<text text-anchor="middle" x="1338.5" y="-117" font-family="Helvetica,sans-Serif" font-size="10.00">&lt; T, T &gt;</text>
</a>
</g>
</g>
<!-- Node17&#45;&gt;Node16 -->
<g id="edge19" class="edge">
<title>Node17&#45;&gt;Node16</title>
<path fill="none" stroke="midnightblue" d="M1414.46,-124.24C1424.08,-124.14 1434.02,-124.04 1443.88,-123.94"/>
<polygon fill="midnightblue" stroke="midnightblue" points="1414.13,-120.74 1404.17,-124.35 1414.2,-127.74 1414.13,-120.74"/>
</g>
<!-- Node18&#45;&gt;Node17 -->
<g id="edge20" class="edge">
<title>Node18&#45;&gt;Node17</title>
<path fill="none" stroke="midnightblue" d="M1120.32,-141.51C1168.77,-137.83 1228.45,-133.29 1272.97,-129.91"/>
<polygon fill="midnightblue" stroke="midnightblue" points="1119.87,-138.04 1110.16,-142.29 1120.4,-145.02 1119.87,-138.04"/>
</g>
<!-- Node19&#45;&gt;Node3 -->
<g id="edge23" class="edge">
<title>Node19&#45;&gt;Node3</title>
<path fill="none" stroke="orange" stroke-dasharray="5,2" d="M1932.64,-115.27C1964.81,-112.8 1999.84,-110.11 2029.9,-107.8"/>
<polygon fill="orange" stroke="orange" points="1932.01,-111.81 1922.31,-116.07 1932.55,-118.79 1932.01,-111.81"/>
<text text-anchor="middle" x="1976" y="-118" font-family="Helvetica,sans-Serif" font-size="10.00"> &lt; DofEntity &gt;</text>
</g>
<!-- Node20 -->
<g id="node20" class="node">
<title>Node20</title>
<g id="a_node20"><a xlink:title=" ">
<polygon fill="white" stroke="#bfbfbf" points="2092,-33.5 2092,-52.5 2121,-52.5 2121,-33.5 2092,-33.5"/>
<text text-anchor="middle" x="2106.5" y="-40.5" font-family="Helvetica,sans-Serif" font-size="10.00">int</text>
</a>
</g>
</g>
<!-- Node20&#45;&gt;Node2 -->
<g id="edge25" class="edge">
<title>Node20&#45;&gt;Node2</title>
<path fill="none" stroke="#9a32cd" stroke-dasharray="5,2" d="M2131.28,-40.94C2166.59,-38.37 2234.85,-35.29 2292,-44 2315.32,-47.55 2340.92,-55.78 2359.1,-62.4"/>
<polygon fill="#9a32cd" stroke="#9a32cd" points="2130.73,-37.47 2121.03,-41.74 2131.27,-44.45 2130.73,-37.47"/>
<text text-anchor="middle" x="2246.5" y="-80" font-family="Helvetica,sans-Serif" font-size="10.00"> dofIdx</text>
<text text-anchor="middle" x="2246.5" y="-69" font-family="Helvetica,sans-Serif" font-size="10.00">petscGloablDofIdx</text>
<text text-anchor="middle" x="2246.5" y="-58" font-family="Helvetica,sans-Serif" font-size="10.00">pArt</text>
<text text-anchor="middle" x="2246.5" y="-47" font-family="Helvetica,sans-Serif" font-size="10.00">petscLocalDofIdx</text>
</g>
</g>
</svg>
        <g id="navigator" transform="translate(0 0)" fill="#404254">
                <rect fill="#f2f5e9" fill-opacity="0.5" stroke="#606060" stroke-width=".5" x="0" y="0" width="60" height="60"/>
                <use id="zoomplus" xlink:href="#zoomPlus" x="17" y="9" onmousedown="handleZoom(evt,'in')"/>
                <use id="zoomminus" xlink:href="#zoomMin" x="42" y="9" onmousedown="handleZoom(evt,'out')"/>
                <use id="reset" xlink:href="#resetDef" x="30" y="36" onmousedown="handleReset()"/>
                <g id="arrowUp" xlink:href="#dirArrow" transform="translate(30 24)" onmousedown="handlePan(0,-1)">
                  <use xlink:href="#rim" fill="#404040">
                        <set attributeName="fill" to="#808080" begin="arrowUp.mouseover" end="arrowUp.mouseout"/>
                  </use>
                  <path fill="none" stroke="white" stroke-width="1.5" d="M0,-3.0v7 M-2.5,-0.5L0,-3.0L2.5,-0.5"/>
                </g>
                <g id="arrowRight" xlink:href="#dirArrow" transform="rotate(90) translate(36 -43)" onmousedown="handlePan(1,0)">
                  <use xlink:href="#rim" fill="#404040">
                        <set attributeName="fill" to="#808080" begin="arrowRight.mouseover" end="arrowRight.mouseout"/>
                  </use>
                  <path fill="none" stroke="white" stroke-width="1.5" d="M0,-3.0v7 M-2.5,-0.5L0,-3.0L2.5,-0.5"/>
                </g>
                <g id="arrowDown" xlink:href="#dirArrow" transform="rotate(180) translate(-30 -48)" onmousedown="handlePan(0,1)">
                  <use xlink:href="#rim" fill="#404040">
                        <set attributeName="fill" to="#808080" begin="arrowDown.mouseover" end="arrowDown.mouseout"/>
                  </use>
                  <path fill="none" stroke="white" stroke-width="1.5" d="M0,-3.0v7 M-2.5,-0.5L0,-3.0L2.5,-0.5"/>
                </g>
                <g id="arrowLeft" xlink:href="#dirArrow" transform="rotate(270) translate(-36 17)" onmousedown="handlePan(-1,0)">
                  <use xlink:href="#rim" fill="#404040">
                        <set attributeName="fill" to="#808080" begin="arrowLeft.mouseover" end="arrowLeft.mouseout"/>
                  </use>
                  <path fill="none" stroke="white" stroke-width="1.5" d="M0,-3.0v7 M-2.5,-0.5L0,-3.0L2.5,-0.5"/>
                </g>
        </g>
        <svg viewBox="0 0 15 15" width="100%" height="30px" preserveAspectRatio="xMaxYMin meet">
         <g id="arrow_out" transform="scale(0.3 0.3)">
          <a xlink:href="structMoFEM_1_1FENumeredDofEntity__coll__graph_org.svg" target="_base">
           <rect id="button" ry="5" rx="5" y="6" x="6" height="38" width="38"
                fill="#f2f5e9" fill-opacity="0.5" stroke="#606060" stroke-width="1.0"/>
           <path id="arrow"
             d="M 11.500037,31.436501 C 11.940474,20.09759 22.043105,11.32322 32.158766,21.979434 L 37.068811,17.246167 C 37.068811,17.246167 37.088388,32 37.088388,32 L 22.160133,31.978069 C 22.160133,31.978069 26.997745,27.140456 26.997745,27.140456 C 18.528582,18.264221 13.291696,25.230495 11.500037,31.436501 z"
             style="fill:#404040;"/>
          </a>
         </g>
        </svg>
</svg>
