<?xml version="1.0" encoding="UTF-8" standalone="no"?>
<!DOCTYPE svg PUBLIC "-//W3C//DTD SVG 1.1//EN"
 "http://www.w3.org/Graphics/SVG/1.1/DTD/svg11.dtd">
<!-- Generated by graphviz version 2.43.0 (0)
 -->
<!-- Title: OpPostProcHookeElement&lt; ELEMENT &gt; Pages: 1 -->
<svg width="426pt" height="233pt"
 viewBox="0.00 0.00 426.00 233.00" xmlns="http://www.w3.org/2000/svg" xmlns:xlink="http://www.w3.org/1999/xlink">
<g id="graph0" class="graph" transform="scale(1 1) rotate(0) translate(4 229)">
<title>OpPostProcHookeElement&lt; ELEMENT &gt;</title>
<polygon fill="white" stroke="transparent" points="-4,4 -4,-229 422,-229 422,4 -4,4"/>
<!-- Node1 -->
<g id="node1" class="node">
<title>Node1</title>
<g id="a_node1"><a xlink:title=" ">
<polygon fill="#bfbfbf" stroke="black" points="275,-91 275,-121 418,-121 418,-91 275,-91"/>
<text text-anchor="start" x="283" y="-109" font-family="Helvetica,sans-Serif" font-size="10.00">OpPostProcHookeElement</text>
<text text-anchor="middle" x="346.5" y="-98" font-family="Helvetica,sans-Serif" font-size="10.00">&lt; ELEMENT &gt;</text>
</a>
</g>
</g>
<!-- Node2 -->
<g id="node2" class="node">
<title>Node2</title>
<g id="a_node2"><a xlink:title=" ">
<polygon fill="white" stroke="#bfbfbf" points="31,-205.5 31,-224.5 136,-224.5 136,-205.5 31,-205.5"/>
<text text-anchor="middle" x="83.5" y="-212.5" font-family="Helvetica,sans-Serif" font-size="10.00">UserDataOperator</text>
</a>
</g>
</g>
<!-- Node2&#45;&gt;Node1 -->
<g id="edge1" class="edge">
<title>Node2&#45;&gt;Node1</title>
<path fill="none" stroke="midnightblue" d="M139.89,-203.17C149,-200.96 158.3,-198.54 167,-196 207.75,-184.11 218.98,-182.88 257,-164 281.84,-151.66 308.17,-133.7 325.59,-121.04"/>
<polygon fill="midnightblue" stroke="midnightblue" points="139.06,-199.77 130.13,-205.48 140.67,-206.58 139.06,-199.77"/>
</g>
<!-- Node3 -->
<g id="node3" class="node">
<title>Node3</title>
<g id="a_node3"><a xlink:title=" ">
<polygon fill="white" stroke="#bfbfbf" points="0,-156 0,-186 167,-186 167,-156 0,-156"/>
<text text-anchor="start" x="8" y="-174" font-family="Helvetica,sans-Serif" font-size="10.00">shared_ptr&lt; DataAtIntegration</text>
<text text-anchor="middle" x="83.5" y="-163" font-family="Helvetica,sans-Serif" font-size="10.00">Pts &gt;</text>
</a>
</g>
</g>
<!-- Node3&#45;&gt;Node1 -->
<g id="edge2" class="edge">
<title>Node3&#45;&gt;Node1</title>
<path fill="none" stroke="#9a32cd" stroke-dasharray="5,2" d="M168.91,-153.81C197.04,-147.7 228.48,-140.48 257,-133 270.52,-129.45 285.07,-125.2 298.39,-121.13"/>
<polygon fill="#9a32cd" stroke="#9a32cd" points="168.14,-150.39 159.1,-155.92 169.62,-157.23 168.14,-150.39"/>
<text text-anchor="middle" x="221" y="-152" font-family="Helvetica,sans-Serif" font-size="10.00"> dataAtPts</text>
</g>
<!-- Node4 -->
<g id="node4" class="node">
<title>Node4</title>
<g id="a_node4"><a xlink:title=" ">
<polygon fill="white" stroke="#bfbfbf" points="48,-117.5 48,-136.5 119,-136.5 119,-117.5 48,-117.5"/>
<text text-anchor="middle" x="83.5" y="-124.5" font-family="Helvetica,sans-Serif" font-size="10.00">Interface &amp;</text>
</a>
</g>
</g>
<!-- Node4&#45;&gt;Node1 -->
<g id="edge3" class="edge">
<title>Node4&#45;&gt;Node1</title>
<path fill="none" stroke="#9a32cd" stroke-dasharray="5,2" d="M129.13,-123.41C169.1,-120.19 228.37,-115.42 274.78,-111.69"/>
<polygon fill="#9a32cd" stroke="#9a32cd" points="128.85,-119.92 119.16,-124.21 129.41,-126.9 128.85,-119.92"/>
<text text-anchor="middle" x="221" y="-121" font-family="Helvetica,sans-Serif" font-size="10.00"> postProcMesh</text>
</g>
<!-- Node5 -->
<g id="node5" class="node">
<title>Node5</title>
<g id="a_node5"><a xlink:href="classbool.html" target="_top" xlink:title=" ">
<polygon fill="white" stroke="black" points="64.5,-76.5 64.5,-95.5 102.5,-95.5 102.5,-76.5 64.5,-76.5"/>
<text text-anchor="middle" x="83.5" y="-83.5" font-family="Helvetica,sans-Serif" font-size="10.00">bool</text>
</a>
</g>
</g>
<!-- Node5&#45;&gt;Node1 -->
<g id="edge4" class="edge">
<title>Node5&#45;&gt;Node1</title>
<path fill="none" stroke="#9a32cd" stroke-dasharray="5,2" d="M112.92,-83.72C147.21,-81.46 206.54,-79.1 257,-85 268.14,-86.3 279.9,-88.5 291.09,-90.99"/>
<polygon fill="#9a32cd" stroke="#9a32cd" points="112.44,-80.24 102.71,-84.44 112.93,-87.23 112.44,-80.24"/>
<text text-anchor="middle" x="221" y="-99" font-family="Helvetica,sans-Serif" font-size="10.00"> isFieldDisp</text>
<text text-anchor="middle" x="221" y="-88" font-family="Helvetica,sans-Serif" font-size="10.00">isALE</text>
</g>
<!-- Node6 -->
<g id="node6" class="node">
<title>Node6</title>
<g id="a_node6"><a xlink:title=" ">
<polygon fill="white" stroke="#bfbfbf" points="12,-38.5 12,-57.5 155,-57.5 155,-38.5 12,-38.5"/>
<text text-anchor="middle" x="83.5" y="-45.5" font-family="Helvetica,sans-Serif" font-size="10.00">vector&lt; EntityHandle &gt; &amp;</text>
</a>
</g>
</g>
<!-- Node6&#45;&gt;Node1 -->
<g id="edge5" class="edge">
<title>Node6&#45;&gt;Node1</title>
<path fill="none" stroke="#9a32cd" stroke-dasharray="5,2" d="M165.28,-51.06C194.55,-53.57 227.62,-58.05 257,-66 278.32,-71.77 301,-82.11 318.06,-90.83"/>
<polygon fill="#9a32cd" stroke="#9a32cd" points="165.34,-47.56 155.1,-50.26 164.79,-54.54 165.34,-47.56"/>
<text text-anchor="middle" x="221" y="-69" font-family="Helvetica,sans-Serif" font-size="10.00"> mapGaussPts</text>
</g>
<!-- Node7 -->
<g id="node7" class="node">
<title>Node7</title>
<g id="a_node7"><a xlink:title=" ">
<polygon fill="white" stroke="#bfbfbf" points="18.5,-0.5 18.5,-19.5 148.5,-19.5 148.5,-0.5 18.5,-0.5"/>
<text text-anchor="middle" x="83.5" y="-7.5" font-family="Helvetica,sans-Serif" font-size="10.00">map&lt; int, BlockData &gt;</text>
</a>
</g>
</g>
<!-- Node7&#45;&gt;Node1 -->
<g id="edge6" class="edge">
<title>Node7&#45;&gt;Node1</title>
<path fill="none" stroke="#9a32cd" stroke-dasharray="5,2" d="M158.86,-14C190.15,-17.71 226.34,-24.75 257,-38 286.17,-50.61 314.29,-74.97 330.73,-90.85"/>
<polygon fill="#9a32cd" stroke="#9a32cd" points="159.2,-10.52 148.88,-12.91 158.44,-17.48 159.2,-10.52"/>
<text text-anchor="middle" x="221" y="-41" font-family="Helvetica,sans-Serif" font-size="10.00"> blockSetsPtr</text>
</g>
</g>
</svg>
