<?xml version="1.0" encoding="UTF-8" standalone="no"?>
<!DOCTYPE svg PUBLIC "-//W3C//DTD SVG 1.1//EN"
 "http://www.w3.org/Graphics/SVG/1.1/DTD/svg11.dtd">
<!-- Generated by graphviz version 2.43.0 (0)
 -->
<!-- Title: MoFEM::OpSourceImpl&lt; 1, FIELD_DIM, GAUSS, SourceFunctionSpecialization::S&lt; OpBase &gt; &gt; Pages: 1 -->
<svg width="688pt" height="445pt"
 viewBox="0.00 0.00 688.00 444.92" xmlns="http://www.w3.org/2000/svg" xmlns:xlink="http://www.w3.org/1999/xlink">
<g id="graph0" class="graph" transform="scale(1 1) rotate(0) translate(4 440.92)">
<title>MoFEM::OpSourceImpl&lt; 1, FIELD_DIM, GAUSS, SourceFunctionSpecialization::S&lt; OpBase &gt; &gt;</title>
<polygon fill="white" stroke="transparent" points="-4,4 -4,-440.92 684,-440.92 684,4 -4,4"/>
<!-- Node1 -->
<g id="node1" class="node">
<title>Node1</title>
<g id="a_node1"><a xlink:title=" ">
<polygon fill="#bfbfbf" stroke="black" points="518,-205.92 518,-257.92 680,-257.92 680,-205.92 518,-205.92"/>
<text text-anchor="start" x="526" y="-245.92" font-family="Helvetica,sans-Serif" font-size="10.00">MoFEM::OpSourceImpl</text>
<text text-anchor="start" x="526" y="-234.92" font-family="Helvetica,sans-Serif" font-size="10.00">&lt; 1, FIELD_DIM, GAUSS,</text>
<text text-anchor="start" x="526" y="-223.92" font-family="Helvetica,sans-Serif" font-size="10.00"> SourceFunctionSpecialization</text>
<text text-anchor="middle" x="599" y="-212.92" font-family="Helvetica,sans-Serif" font-size="10.00">::S&lt; OpBase &gt; &gt;</text>
</a>
</g>
</g>
<!-- Node2 -->
<g id="node2" class="node">
<title>Node2</title>
<g id="a_node2"><a xlink:href="structMoFEM_1_1OpBaseImpl.html" target="_top" xlink:title=" ">
<polygon fill="white" stroke="black" points="332,-247.42 332,-266.42 386,-266.42 386,-247.42 332,-247.42"/>
<text text-anchor="middle" x="359" y="-254.42" font-family="Helvetica,sans-Serif" font-size="10.00">OpBase</text>
</a>
</g>
</g>
<!-- Node2&#45;&gt;Node1 -->
<g id="edge1" class="edge">
<title>Node2&#45;&gt;Node1</title>
<path fill="none" stroke="midnightblue" d="M396.66,-253.07C428.83,-249.69 476.77,-244.65 517.8,-240.34"/>
<polygon fill="midnightblue" stroke="midnightblue" points="395.96,-249.62 386.38,-254.15 396.69,-256.58 395.96,-249.62"/>
</g>
<!-- Node3 -->
<g id="node3" class="node">
<title>Node3</title>
<g id="a_node3"><a xlink:href="classEleOp.html" target="_top" xlink:title=" ">
<polygon fill="white" stroke="black" points="52,-417.42 52,-436.42 97,-436.42 97,-417.42 52,-417.42"/>
<text text-anchor="middle" x="74.5" y="-424.42" font-family="Helvetica,sans-Serif" font-size="10.00">EleOp</text>
</a>
</g>
</g>
<!-- Node3&#45;&gt;Node2 -->
<g id="edge2" class="edge">
<title>Node3&#45;&gt;Node2</title>
<path fill="none" stroke="midnightblue" d="M107.25,-431.75C148.47,-436.29 221.05,-438.26 271,-405.92 323.55,-371.89 348.28,-294.11 355.59,-266.7"/>
<polygon fill="midnightblue" stroke="midnightblue" points="107.58,-428.26 97.23,-430.52 106.73,-435.21 107.58,-428.26"/>
</g>
<!-- Node4 -->
<g id="node4" class="node">
<title>Node4</title>
<g id="a_node4"><a xlink:href="classUBlasVector_3_01double_01_4.html" target="_top" xlink:title=" ">
<polygon fill="white" stroke="black" points="9,-379.42 9,-398.42 140,-398.42 140,-379.42 9,-379.42"/>
<text text-anchor="middle" x="74.5" y="-386.42" font-family="Helvetica,sans-Serif" font-size="10.00">UBlasVector&lt; double &gt;</text>
</a>
</g>
</g>
<!-- Node4&#45;&gt;Node2 -->
<g id="edge3" class="edge">
<title>Node4&#45;&gt;Node2</title>
<path fill="none" stroke="#9a32cd" stroke-dasharray="5,2" d="M150.48,-392.21C188.69,-390.8 234.63,-384.15 271,-363.92 312.85,-340.64 342.41,-288.43 353.34,-266.7"/>
<polygon fill="#9a32cd" stroke="#9a32cd" points="150.34,-388.71 140.43,-392.46 150.52,-395.71 150.34,-388.71"/>
<text text-anchor="middle" x="219" y="-393.92" font-family="Helvetica,sans-Serif" font-size="10.00"> locF</text>
</g>
<!-- Node5 -->
<g id="node5" class="node">
<title>Node5</title>
<g id="a_node5"><a xlink:title=" ">
<polygon fill="white" stroke="#bfbfbf" points="5,-341.42 5,-360.42 144,-360.42 144,-341.42 5,-341.42"/>
<text text-anchor="middle" x="74.5" y="-348.42" font-family="Helvetica,sans-Serif" font-size="10.00">static MatSetValuesHook</text>
</a>
</g>
</g>
<!-- Node5&#45;&gt;Node2 -->
<g id="edge4" class="edge">
<title>Node5&#45;&gt;Node2</title>
<path fill="none" stroke="#9a32cd" stroke-dasharray="5,2" d="M154.49,-350.47C191.13,-347.87 234.54,-341.28 271,-325.92 304.04,-311.99 335,-281.88 349.45,-266.45"/>
<polygon fill="#9a32cd" stroke="#9a32cd" points="154.11,-346.99 144.35,-351.1 154.55,-353.97 154.11,-346.99"/>
<text text-anchor="middle" x="219" y="-351.92" font-family="Helvetica,sans-Serif" font-size="10.00"> matSetValuesHook</text>
</g>
<!-- Node6 -->
<g id="node6" class="node">
<title>Node6</title>
<g id="a_node6"><a xlink:title=" ">
<polygon fill="white" stroke="#bfbfbf" points="40.5,-302.42 40.5,-321.42 108.5,-321.42 108.5,-302.42 40.5,-302.42"/>
<text text-anchor="middle" x="74.5" y="-309.42" font-family="Helvetica,sans-Serif" font-size="10.00">EntityType</text>
</a>
</g>
</g>
<!-- Node6&#45;&gt;Node2 -->
<g id="edge5" class="edge">
<title>Node6&#45;&gt;Node2</title>
<path fill="none" stroke="#9a32cd" stroke-dasharray="5,2" d="M118.79,-307.3C158.62,-302.62 219.19,-294.44 271,-282.92 291.77,-278.3 314.83,-271.32 331.99,-265.76"/>
<polygon fill="#9a32cd" stroke="#9a32cd" points="118.16,-303.85 108.63,-308.47 118.96,-310.8 118.16,-303.85"/>
<text text-anchor="middle" x="219" y="-313.92" font-family="Helvetica,sans-Serif" font-size="10.00"> rowType</text>
<text text-anchor="middle" x="219" y="-302.92" font-family="Helvetica,sans-Serif" font-size="10.00">colType</text>
</g>
<!-- Node7 -->
<g id="node7" class="node">
<title>Node7</title>
<g id="a_node7"><a xlink:title=" ">
<polygon fill="white" stroke="#bfbfbf" points="13.5,-264.42 13.5,-283.42 135.5,-283.42 135.5,-264.42 13.5,-264.42"/>
<text text-anchor="middle" x="74.5" y="-271.42" font-family="Helvetica,sans-Serif" font-size="10.00">shared_ptr&lt; Range &gt;</text>
</a>
</g>
</g>
<!-- Node7&#45;&gt;Node2 -->
<g id="edge6" class="edge">
<title>Node7&#45;&gt;Node2</title>
<path fill="none" stroke="#9a32cd" stroke-dasharray="5,2" d="M145.98,-269.68C206.33,-266.04 289.92,-261.01 331.83,-258.49"/>
<polygon fill="#9a32cd" stroke="#9a32cd" points="145.53,-266.2 135.76,-270.29 145.95,-273.18 145.53,-266.2"/>
<text text-anchor="middle" x="219" y="-270.92" font-family="Helvetica,sans-Serif" font-size="10.00"> entsPtr</text>
</g>
<!-- Node8 -->
<g id="node8" class="node">
<title>Node8</title>
<g id="a_node8"><a xlink:title=" ">
<polygon fill="white" stroke="#bfbfbf" points="9,-214.92 9,-244.92 140,-244.92 140,-214.92 9,-214.92"/>
<text text-anchor="start" x="17" y="-232.92" font-family="Helvetica,sans-Serif" font-size="10.00">function&lt; double(const</text>
<text text-anchor="middle" x="74.5" y="-221.92" font-family="Helvetica,sans-Serif" font-size="10.00"> FEMethod *fe_ptr)&gt;</text>
</a>
</g>
</g>
<!-- Node8&#45;&gt;Node2 -->
<g id="edge7" class="edge">
<title>Node8&#45;&gt;Node2</title>
<path fill="none" stroke="#9a32cd" stroke-dasharray="5,2" d="M150.32,-235.93C186.75,-238.99 231.19,-242.9 271,-246.92 291.42,-248.98 314.5,-251.65 331.75,-253.71"/>
<polygon fill="#9a32cd" stroke="#9a32cd" points="150.52,-232.44 140.26,-235.1 149.94,-239.41 150.52,-232.44"/>
<text text-anchor="middle" x="219" y="-249.92" font-family="Helvetica,sans-Serif" font-size="10.00"> feScalingFun</text>
</g>
<!-- Node9 -->
<g id="node9" class="node">
<title>Node9</title>
<g id="a_node9"><a xlink:title=" ">
<polygon fill="white" stroke="#bfbfbf" points="60,-141.42 60,-160.42 89,-160.42 89,-141.42 60,-141.42"/>
<text text-anchor="middle" x="74.5" y="-148.42" font-family="Helvetica,sans-Serif" font-size="10.00">int</text>
</a>
</g>
</g>
<!-- Node9&#45;&gt;Node2 -->
<g id="edge8" class="edge">
<title>Node9&#45;&gt;Node2</title>
<path fill="none" stroke="#9a32cd" stroke-dasharray="5,2" d="M99.05,-144.99C139.39,-136.35 222.06,-125.52 271,-166.92 295.85,-187.94 266.22,-214.66 289,-237.92 300.13,-249.28 317.38,-254.03 331.85,-255.94"/>
<polygon fill="#9a32cd" stroke="#9a32cd" points="98.05,-141.62 89.08,-147.26 99.61,-148.45 98.05,-141.62"/>
<text text-anchor="middle" x="219" y="-224.92" font-family="Helvetica,sans-Serif" font-size="10.00"> nbIntegrationPts</text>
<text text-anchor="middle" x="219" y="-213.92" font-family="Helvetica,sans-Serif" font-size="10.00">colSide</text>
<text text-anchor="middle" x="219" y="-202.92" font-family="Helvetica,sans-Serif" font-size="10.00">nbCols</text>
<text text-anchor="middle" x="219" y="-191.92" font-family="Helvetica,sans-Serif" font-size="10.00">nbRowBaseFunctions</text>
<text text-anchor="middle" x="219" y="-180.92" font-family="Helvetica,sans-Serif" font-size="10.00">rowSide</text>
<text text-anchor="middle" x="219" y="-169.92" font-family="Helvetica,sans-Serif" font-size="10.00">nbRows</text>
</g>
<!-- Node10 -->
<g id="node10" class="node">
<title>Node10</title>
<g id="a_node10"><a xlink:href="classbool.html" target="_top" xlink:title=" ">
<polygon fill="white" stroke="black" points="55.5,-97.42 55.5,-116.42 93.5,-116.42 93.5,-97.42 55.5,-97.42"/>
<text text-anchor="middle" x="74.5" y="-104.42" font-family="Helvetica,sans-Serif" font-size="10.00">bool</text>
</a>
</g>
</g>
<!-- Node10&#45;&gt;Node2 -->
<g id="edge9" class="edge">
<title>Node10&#45;&gt;Node2</title>
<path fill="none" stroke="#9a32cd" stroke-dasharray="5,2" d="M103.59,-103.4C151.7,-98.04 247.01,-90.57 271,-111.92 313.26,-149.52 251.61,-195.46 289,-237.92 299.59,-249.95 317.03,-254.68 331.73,-256.41"/>
<polygon fill="#9a32cd" stroke="#9a32cd" points="103.07,-99.94 93.54,-104.56 103.87,-106.89 103.07,-99.94"/>
<text text-anchor="middle" x="219" y="-125.92" font-family="Helvetica,sans-Serif" font-size="10.00"> assembleTranspose</text>
<text text-anchor="middle" x="219" y="-114.92" font-family="Helvetica,sans-Serif" font-size="10.00">onlyTranspose</text>
</g>
<!-- Node11 -->
<g id="node11" class="node">
<title>Node11</title>
<g id="a_node11"><a xlink:title=" ">
<polygon fill="white" stroke="#bfbfbf" points="0,-59.42 0,-78.42 149,-78.42 149,-59.42 0,-59.42"/>
<text text-anchor="middle" x="74.5" y="-66.42" font-family="Helvetica,sans-Serif" font-size="10.00">function&lt; double(double)&gt;</text>
</a>
</g>
</g>
<!-- Node11&#45;&gt;Node2 -->
<g id="edge10" class="edge">
<title>Node11&#45;&gt;Node2</title>
<path fill="none" stroke="#9a32cd" stroke-dasharray="5,2" d="M121.12,-57.4C165.49,-49.2 231.77,-45.38 271,-82.92 321.11,-130.86 243.85,-185.27 289,-237.92 299.51,-250.18 317.14,-254.89 331.95,-256.55"/>
<polygon fill="#9a32cd" stroke="#9a32cd" points="120.3,-54 111.17,-59.38 121.66,-60.86 120.3,-54"/>
<text text-anchor="middle" x="219" y="-85.92" font-family="Helvetica,sans-Serif" font-size="10.00"> timeScalingFun</text>
</g>
<!-- Node12 -->
<g id="node12" class="node">
<title>Node12</title>
<g id="a_node12"><a xlink:href="classUBlasMatrix_3_01double_01_4.html" target="_top" xlink:title=" ">
<polygon fill="white" stroke="black" points="8.5,-15.42 8.5,-34.42 140.5,-34.42 140.5,-15.42 8.5,-15.42"/>
<text text-anchor="middle" x="74.5" y="-22.42" font-family="Helvetica,sans-Serif" font-size="10.00">UBlasMatrix&lt; double &gt;</text>
</a>
</g>
</g>
<!-- Node12&#45;&gt;Node2 -->
<g id="edge11" class="edge">
<title>Node12&#45;&gt;Node2</title>
<path fill="none" stroke="#9a32cd" stroke-dasharray="5,2" d="M111.65,-12.41C155.37,0.17 228.41,12.6 271,-26.92 305.5,-58.92 258.91,-201.73 289,-237.92 299.33,-250.34 316.96,-255.04 331.81,-256.67"/>
<polygon fill="#9a32cd" stroke="#9a32cd" points="110.55,-9.09 101.99,-15.33 112.57,-15.79 110.55,-9.09"/>
<text text-anchor="middle" x="219" y="-40.92" font-family="Helvetica,sans-Serif" font-size="10.00"> locMat</text>
<text text-anchor="middle" x="219" y="-29.92" font-family="Helvetica,sans-Serif" font-size="10.00">locMatTranspose</text>
</g>
<!-- Node13 -->
<g id="node13" class="node">
<title>Node13</title>
<g id="a_node13"><a xlink:title=" ">
<polygon fill="white" stroke="#bfbfbf" points="289,-209.42 289,-228.42 429,-228.42 429,-209.42 289,-209.42"/>
<text text-anchor="middle" x="359" y="-216.42" font-family="Helvetica,sans-Serif" font-size="10.00">VectorFun&lt; FIELD_DIM &gt;</text>
</a>
</g>
</g>
<!-- Node13&#45;&gt;Node1 -->
<g id="edge12" class="edge">
<title>Node13&#45;&gt;Node1</title>
<path fill="none" stroke="#9a32cd" stroke-dasharray="5,2" d="M439.3,-222.73C459.13,-223.72 480.34,-224.82 500,-225.92 505.79,-226.24 511.76,-226.58 517.78,-226.93"/>
<polygon fill="#9a32cd" stroke="#9a32cd" points="439.24,-219.22 429.08,-222.22 438.89,-226.21 439.24,-219.22"/>
<text text-anchor="middle" x="473.5" y="-228.92" font-family="Helvetica,sans-Serif" font-size="10.00"> sourceFun</text>
</g>
</g>
</svg>
