<?xml version="1.0" encoding="UTF-8" standalone="no"?>
<!DOCTYPE svg PUBLIC "-//W3C//DTD SVG 1.1//EN"
 "http://www.w3.org/Graphics/SVG/1.1/DTD/svg11.dtd">
<!-- Generated by graphviz version 2.43.0 (0)
 -->
<!-- Title: MoFEM::SnesCtx Pages: 1 -->
<!--zoomable 444 -->
<svg id="main" version="1.1" xmlns="http://www.w3.org/2000/svg" xmlns:xlink="http://www.w3.org/1999/xlink" xml:space="preserve" onload="init(evt)">
<style type="text/css"><![CDATA[
.edge:hover path { stroke: red; }
.edge:hover polygon { stroke: red; fill: red; }
]]></style>
<script type="text/javascript"><![CDATA[
var edges = document.getElementsByTagName('g');
if (edges && edges.length) {
  for (var i=0;i<edges.length;i++) {
    if (edges[i].id.substr(0,4)=='edge') {
      edges[i].setAttribute('class','edge');
    }
  }
}
]]></script>
        <defs>
                <circle id="rim" cx="0" cy="0" r="7"/>
                <circle id="rim2" cx="0" cy="0" r="3.5"/>
                <g id="zoomPlus">
                        <use xlink:href="#rim" fill="#404040">
                                <set attributeName="fill" to="#808080" begin="zoomplus.mouseover" end="zoomplus.mouseout"/>
                        </use>
                        <path d="M-4,0h8M0,-4v8" fill="none" stroke="white" stroke-width="1.5" pointer-events="none"/>
                </g>
                <g id="zoomMin">
                        <use xlink:href="#rim" fill="#404040">
                                <set attributeName="fill" to="#808080" begin="zoomminus.mouseover" end="zoomminus.mouseout"/>
                        </use>
                        <path d="M-4,0h8" fill="none" stroke="white" stroke-width="1.5" pointer-events="none"/>
                </g>
                <g id="dirArrow">
                        <path fill="none" stroke="white" stroke-width="1.5" d="M0,-3.0v7 M-2.5,-0.5L0,-3.0L2.5,-0.5"/>
                </g>
               <g id="resetDef">
                       <use xlink:href="#rim2" fill="#404040">
                               <set attributeName="fill" to="#808080" begin="reset.mouseover" end="reset.mouseout"/>
                       </use>
               </g>
        </defs>

<script type="text/javascript">
var viewWidth = 1531;
var viewHeight = 444;
var sectionId = 'dynsection-0';
</script>
<script xlink:href="svgpan.js"/>
<svg id="graph" class="graph">
<g id="viewport">
<title>MoFEM::SnesCtx</title>
<polygon fill="white" stroke="transparent" points="-4,4 -4,-439.72 1527,-439.72 1527,4 -4,4"/>
<!-- Node1 -->
<g id="node1" class="node">
<title>Node1</title>
<g id="a_node1"><a xlink:title="Interface for nonlinear (SNES) solver.">
<polygon fill="#bfbfbf" stroke="black" points="1425,-193.22 1425,-212.22 1523,-212.22 1523,-193.22 1425,-193.22"/>
<text text-anchor="middle" x="1474" y="-200.22" font-family="Helvetica,sans-Serif" font-size="10.00">MoFEM::SnesCtx</text>
</a>
</g>
</g>
<!-- Node2 -->
<g id="node2" class="node">
<title>Node2</title>
<g id="a_node2"><a xlink:title=" ">
<polygon fill="white" stroke="#bfbfbf" points="1106.5,-370.22 1106.5,-389.22 1238.5,-389.22 1238.5,-370.22 1106.5,-370.22"/>
<text text-anchor="middle" x="1172.5" y="-377.22" font-family="Helvetica,sans-Serif" font-size="10.00">BasicMethodsSequence</text>
</a>
</g>
</g>
<!-- Node2&#45;&gt;Node1 -->
<g id="edge1" class="edge">
<title>Node2&#45;&gt;Node1</title>
<path fill="none" stroke="#9a32cd" stroke-dasharray="5,2" d="M1237.8,-390.33C1288.52,-395.06 1358.56,-393.12 1407,-357.72 1456.59,-321.48 1469.23,-240.4 1472.18,-212.43"/>
<polygon fill="#9a32cd" stroke="#9a32cd" points="1237.92,-386.82 1227.61,-389.26 1237.19,-393.78 1237.92,-386.82"/>
<text text-anchor="middle" x="1344" y="-427.72" font-family="Helvetica,sans-Serif" font-size="10.00"> preProcess_Rhs</text>
<text text-anchor="middle" x="1344" y="-416.72" font-family="Helvetica,sans-Serif" font-size="10.00">preProcess_Mat</text>
<text text-anchor="middle" x="1344" y="-405.72" font-family="Helvetica,sans-Serif" font-size="10.00">postProcess_Rhs</text>
<text text-anchor="middle" x="1344" y="-394.72" font-family="Helvetica,sans-Serif" font-size="10.00">postProcess_Mat</text>
</g>
<!-- Node3 -->
<g id="node3" class="node">
<title>Node3</title>
<g id="a_node3"><a xlink:title=" ">
<polygon fill="white" stroke="#bfbfbf" points="1113.5,-325.22 1113.5,-344.22 1231.5,-344.22 1231.5,-325.22 1113.5,-325.22"/>
<text text-anchor="middle" x="1172.5" y="-332.22" font-family="Helvetica,sans-Serif" font-size="10.00">FEMethodsSequence</text>
</a>
</g>
</g>
<!-- Node3&#45;&gt;Node1 -->
<g id="edge2" class="edge">
<title>Node3&#45;&gt;Node1</title>
<path fill="none" stroke="#9a32cd" stroke-dasharray="5,2" d="M1241.62,-334.66C1300.54,-333.42 1380.33,-328.53 1407,-311.72 1444.62,-288.02 1463.85,-234.34 1470.38,-212.37"/>
<polygon fill="#9a32cd" stroke="#9a32cd" points="1241.55,-331.16 1231.62,-334.84 1241.68,-338.16 1241.55,-331.16"/>
<text text-anchor="middle" x="1344" y="-346.72" font-family="Helvetica,sans-Serif" font-size="10.00"> loops_to_do_Mat</text>
<text text-anchor="middle" x="1344" y="-335.72" font-family="Helvetica,sans-Serif" font-size="10.00">loops_to_do_Rhs</text>
</g>
<!-- Node4 -->
<g id="node4" class="node">
<title>Node4</title>
<g id="a_node4"><a xlink:title=" ">
<polygon fill="white" stroke="#bfbfbf" points="1116.5,-286.22 1116.5,-305.22 1228.5,-305.22 1228.5,-286.22 1116.5,-286.22"/>
<text text-anchor="middle" x="1172.5" y="-293.22" font-family="Helvetica,sans-Serif" font-size="10.00">unique_ptr&lt; bool &gt;</text>
</a>
</g>
</g>
<!-- Node4&#45;&gt;Node1 -->
<g id="edge3" class="edge">
<title>Node4&#45;&gt;Node1</title>
<path fill="none" stroke="#9a32cd" stroke-dasharray="5,2" d="M1238.92,-290.8C1297.34,-285.62 1378.03,-276.33 1407,-262.72 1432.23,-250.87 1454.61,-226.02 1465.67,-212.31"/>
<polygon fill="#9a32cd" stroke="#9a32cd" points="1238.31,-287.34 1228.65,-291.69 1238.91,-294.31 1238.31,-287.34"/>
<text text-anchor="middle" x="1344" y="-299.72" font-family="Helvetica,sans-Serif" font-size="10.00"> matAssembleSwitch</text>
<text text-anchor="middle" x="1344" y="-288.72" font-family="Helvetica,sans-Serif" font-size="10.00">vecAssembleSwitch</text>
</g>
<!-- Node5 -->
<g id="node5" class="node">
<title>Node5</title>
<g id="a_node5"><a xlink:title=" ">
<polygon fill="white" stroke="#bfbfbf" points="1119.5,-248.22 1119.5,-267.22 1225.5,-267.22 1225.5,-248.22 1119.5,-248.22"/>
<text text-anchor="middle" x="1172.5" y="-255.22" font-family="Helvetica,sans-Serif" font-size="10.00">MatAssemblyType</text>
</a>
</g>
</g>
<!-- Node5&#45;&gt;Node1 -->
<g id="edge4" class="edge">
<title>Node5&#45;&gt;Node1</title>
<path fill="none" stroke="#9a32cd" stroke-dasharray="5,2" d="M1235.75,-253.71C1283.22,-249.69 1349.93,-241.99 1407,-227.72 1422.33,-223.89 1438.97,-217.57 1451.71,-212.24"/>
<polygon fill="#9a32cd" stroke="#9a32cd" points="1235.3,-250.23 1225.62,-254.53 1235.87,-257.21 1235.3,-250.23"/>
<text text-anchor="middle" x="1344" y="-250.72" font-family="Helvetica,sans-Serif" font-size="10.00"> typeOfAssembly</text>
</g>
<!-- Node6 -->
<g id="node6" class="node">
<title>Node6</title>
<g id="a_node6"><a xlink:title=" ">
<polygon fill="white" stroke="#bfbfbf" points="1132.5,-210.22 1132.5,-229.22 1212.5,-229.22 1212.5,-210.22 1132.5,-210.22"/>
<text text-anchor="middle" x="1172.5" y="-217.22" font-family="Helvetica,sans-Serif" font-size="10.00">MoFEMTypes</text>
</a>
</g>
</g>
<!-- Node6&#45;&gt;Node1 -->
<g id="edge5" class="edge">
<title>Node6&#45;&gt;Node1</title>
<path fill="none" stroke="#9a32cd" stroke-dasharray="5,2" d="M1222.68,-216.93C1278.64,-213.75 1369.43,-208.6 1424.92,-205.45"/>
<polygon fill="#9a32cd" stroke="#9a32cd" points="1222.44,-213.44 1212.65,-217.5 1222.84,-220.43 1222.44,-213.44"/>
<text text-anchor="middle" x="1344" y="-215.72" font-family="Helvetica,sans-Serif" font-size="10.00"> bH</text>
</g>
<!-- Node7 -->
<g id="node7" class="node">
<title>Node7</title>
<g id="a_node7"><a xlink:title=" ">
<polygon fill="white" stroke="#bfbfbf" points="1137,-172.22 1137,-191.22 1208,-191.22 1208,-172.22 1137,-172.22"/>
<text text-anchor="middle" x="1172.5" y="-179.22" font-family="Helvetica,sans-Serif" font-size="10.00">Interface &amp;</text>
</a>
</g>
</g>
<!-- Node7&#45;&gt;Node1 -->
<g id="edge6" class="edge">
<title>Node7&#45;&gt;Node1</title>
<path fill="none" stroke="#9a32cd" stroke-dasharray="5,2" d="M1218.18,-182.01C1265.27,-182.7 1341.53,-184.89 1407,-191.72 1412.78,-192.32 1418.81,-193.11 1424.79,-193.99"/>
<polygon fill="#9a32cd" stroke="#9a32cd" points="1218.06,-178.51 1208.02,-181.88 1217.97,-185.51 1218.06,-178.51"/>
<text text-anchor="middle" x="1344" y="-194.72" font-family="Helvetica,sans-Serif" font-size="10.00"> moab</text>
</g>
<!-- Node8 -->
<g id="node8" class="node">
<title>Node8</title>
<g id="a_node8"><a xlink:href="structMoFEM_1_1DeprecatedCoreInterface.html" target="_top" xlink:title="Deprecated interface functions.">
<polygon fill="white" stroke="black" points="1082,-134.22 1082,-153.22 1263,-153.22 1263,-134.22 1082,-134.22"/>
<text text-anchor="middle" x="1172.5" y="-141.22" font-family="Helvetica,sans-Serif" font-size="10.00">MoFEM::DeprecatedCoreInterface</text>
</a>
</g>
</g>
<!-- Node8&#45;&gt;Node1 -->
<g id="edge7" class="edge">
<title>Node8&#45;&gt;Node1</title>
<path fill="none" stroke="#9a32cd" stroke-dasharray="5,2" d="M1273.4,-146.32C1315.36,-149.48 1364.25,-155.91 1407,-168.72 1425.64,-174.31 1445.26,-185.13 1458.21,-193.07"/>
<polygon fill="#9a32cd" stroke="#9a32cd" points="1273.39,-142.81 1263.17,-145.61 1272.9,-149.8 1273.39,-142.81"/>
<text text-anchor="middle" x="1344" y="-171.72" font-family="Helvetica,sans-Serif" font-size="10.00"> mField</text>
</g>
<!-- Node9 -->
<g id="node9" class="node">
<title>Node9</title>
<g id="a_node9"><a xlink:href="structMoFEM_1_1CoreInterface.html" target="_top" xlink:title="Interface.">
<polygon fill="white" stroke="black" points="920,-134.22 920,-153.22 1045,-153.22 1045,-134.22 920,-134.22"/>
<text text-anchor="middle" x="982.5" y="-141.22" font-family="Helvetica,sans-Serif" font-size="10.00">MoFEM::CoreInterface</text>
</a>
</g>
</g>
<!-- Node9&#45;&gt;Node8 -->
<g id="edge8" class="edge">
<title>Node9&#45;&gt;Node8</title>
<path fill="none" stroke="midnightblue" d="M1055.16,-143.72C1063.89,-143.72 1072.89,-143.72 1081.84,-143.72"/>
<polygon fill="midnightblue" stroke="midnightblue" points="1055.06,-140.22 1045.06,-143.72 1055.06,-147.22 1055.06,-140.22"/>
</g>
<!-- Node10 -->
<g id="node10" class="node">
<title>Node10</title>
<g id="a_node10"><a xlink:href="structMoFEM_1_1UnknownInterface.html" target="_top" xlink:title="base class for all interface classes">
<polygon fill="white" stroke="black" points="735,-134.22 735,-153.22 883,-153.22 883,-134.22 735,-134.22"/>
<text text-anchor="middle" x="809" y="-141.22" font-family="Helvetica,sans-Serif" font-size="10.00">MoFEM::UnknownInterface</text>
</a>
</g>
</g>
<!-- Node10&#45;&gt;Node9 -->
<g id="edge9" class="edge">
<title>Node10&#45;&gt;Node9</title>
<path fill="none" stroke="midnightblue" d="M893.29,-143.72C902.24,-143.72 911.22,-143.72 919.85,-143.72"/>
<polygon fill="midnightblue" stroke="midnightblue" points="893.23,-140.22 883.23,-143.72 893.23,-147.22 893.23,-140.22"/>
</g>
<!-- Node11 -->
<g id="node11" class="node">
<title>Node11</title>
<g id="a_node11"><a xlink:title=" ">
<polygon fill="white" stroke="#bfbfbf" points="386,-112.22 386,-175.22 627,-175.22 627,-112.22 386,-112.22"/>
<text text-anchor="start" x="394" y="-163.22" font-family="Helvetica,sans-Serif" font-size="10.00">multi_index_container</text>
<text text-anchor="start" x="394" y="-152.22" font-family="Helvetica,sans-Serif" font-size="10.00">&lt; UIdTypeMap, indexed</text>
<text text-anchor="start" x="394" y="-141.22" font-family="Helvetica,sans-Serif" font-size="10.00">_by&lt; hashed_unique&lt; member</text>
<text text-anchor="start" x="394" y="-130.22" font-family="Helvetica,sans-Serif" font-size="10.00">&lt; UIdTypeMap, boost::typeindex</text>
<text text-anchor="middle" x="506.5" y="-119.22" font-family="Helvetica,sans-Serif" font-size="10.00">::type_index, &amp;UIdTypeMap::classIdx &gt; &gt; &gt; &gt;</text>
</a>
</g>
</g>
<!-- Node11&#45;&gt;Node10 -->
<g id="edge10" class="edge">
<title>Node11&#45;&gt;Node10</title>
<path fill="none" stroke="#9a32cd" stroke-dasharray="5,2" d="M637.41,-143.72C670.69,-143.72 705.33,-143.72 734.62,-143.72"/>
<polygon fill="#9a32cd" stroke="#9a32cd" points="637.13,-140.22 627.13,-143.72 637.13,-147.22 637.13,-140.22"/>
<text text-anchor="middle" x="681" y="-146.72" font-family="Helvetica,sans-Serif" font-size="10.00"> iFaceTypeMap</text>
</g>
<!-- Node12 -->
<g id="node12" class="node">
<title>Node12</title>
<g id="a_node12"><a xlink:title=" ">
<polygon fill="white" stroke="#bfbfbf" points="0,-134.22 0,-153.22 125,-153.22 125,-134.22 0,-134.22"/>
<text text-anchor="middle" x="62.5" y="-141.22" font-family="Helvetica,sans-Serif" font-size="10.00">multi_index_container</text>
</a>
</g>
</g>
<!-- Node12&#45;&gt;Node11 -->
<g id="edge11" class="edge">
<title>Node12&#45;&gt;Node11</title>
<path fill="none" stroke="orange" stroke-dasharray="5,2" d="M135.56,-143.72C203.25,-143.72 305.79,-143.72 385.77,-143.72"/>
<polygon fill="orange" stroke="orange" points="135.42,-140.22 125.42,-143.72 135.42,-147.22 135.42,-140.22"/>
<text text-anchor="start" x="143" y="-179.72" font-family="Helvetica,sans-Serif" font-size="10.00"> &lt; UIdTypeMap, indexed</text>
<text text-anchor="start" x="143" y="-168.72" font-family="Helvetica,sans-Serif" font-size="10.00">_by&lt; hashed_unique&lt; member</text>
<text text-anchor="start" x="143" y="-157.72" font-family="Helvetica,sans-Serif" font-size="10.00">&lt; UIdTypeMap, boost::typeindex</text>
<text text-anchor="middle" x="255.5" y="-146.72" font-family="Helvetica,sans-Serif" font-size="10.00">::type_index, &amp;UIdTypeMap::classIdx &gt; &gt; &gt; &gt;</text>
</g>
<!-- Node13 -->
<g id="node13" class="node">
<title>Node13</title>
<g id="a_node13"><a xlink:title=" ">
<polygon fill="white" stroke="#bfbfbf" points="1128.5,-96.22 1128.5,-115.22 1216.5,-115.22 1216.5,-96.22 1128.5,-96.22"/>
<text text-anchor="middle" x="1172.5" y="-103.22" font-family="Helvetica,sans-Serif" font-size="10.00">PetscLogEvent</text>
</a>
</g>
</g>
<!-- Node13&#45;&gt;Node1 -->
<g id="edge12" class="edge">
<title>Node13&#45;&gt;Node1</title>
<path fill="none" stroke="#9a32cd" stroke-dasharray="5,2" d="M1226.89,-97.43C1276.43,-92.35 1350.78,-91.55 1407,-120.72 1438.31,-136.96 1459.92,-175.32 1468.66,-193.22"/>
<polygon fill="#9a32cd" stroke="#9a32cd" points="1226.26,-93.98 1216.71,-98.57 1227.04,-100.94 1226.26,-93.98"/>
<text text-anchor="middle" x="1344" y="-134.72" font-family="Helvetica,sans-Serif" font-size="10.00"> MOFEM_EVENT_SnesMat</text>
<text text-anchor="middle" x="1344" y="-123.72" font-family="Helvetica,sans-Serif" font-size="10.00">MOFEM_EVENT_SnesRhs</text>
</g>
<!-- Node14 -->
<g id="node14" class="node">
<title>Node14</title>
<g id="a_node14"><a xlink:href="classbool.html" target="_top" xlink:title=" ">
<polygon fill="white" stroke="black" points="1153.5,-52.22 1153.5,-71.22 1191.5,-71.22 1191.5,-52.22 1153.5,-52.22"/>
<text text-anchor="middle" x="1172.5" y="-59.22" font-family="Helvetica,sans-Serif" font-size="10.00">bool</text>
</a>
</g>
</g>
<!-- Node14&#45;&gt;Node1 -->
<g id="edge13" class="edge">
<title>Node14&#45;&gt;Node1</title>
<path fill="none" stroke="#9a32cd" stroke-dasharray="5,2" d="M1201.45,-54.18C1248.17,-43.29 1343.28,-28.68 1407,-69.72 1451.86,-98.61 1467.32,-167.74 1471.6,-193.14"/>
<polygon fill="#9a32cd" stroke="#9a32cd" points="1200.59,-50.78 1191.71,-56.56 1202.26,-57.58 1200.59,-50.78"/>
<text text-anchor="middle" x="1344" y="-83.72" font-family="Helvetica,sans-Serif" font-size="10.00"> zeroPreCondMatrixB</text>
<text text-anchor="middle" x="1344" y="-72.72" font-family="Helvetica,sans-Serif" font-size="10.00">vErify</text>
</g>
<!-- Node15 -->
<g id="node15" class="node">
<title>Node15</title>
<g id="a_node15"><a xlink:title=" ">
<polygon fill="white" stroke="#bfbfbf" points="1150.5,-14.22 1150.5,-33.22 1194.5,-33.22 1194.5,-14.22 1150.5,-14.22"/>
<text text-anchor="middle" x="1172.5" y="-21.22" font-family="Helvetica,sans-Serif" font-size="10.00">string</text>
</a>
</g>
</g>
<!-- Node15&#45;&gt;Node1 -->
<g id="edge14" class="edge">
<title>Node15&#45;&gt;Node1</title>
<path fill="none" stroke="#9a32cd" stroke-dasharray="5,2" d="M1204.41,-14.2C1252.54,-1.41 1346.16,15.13 1407,-27.72 1463.54,-67.55 1471.69,-162.25 1472.83,-192.94"/>
<polygon fill="#9a32cd" stroke="#9a32cd" points="1203.28,-10.88 1194.59,-16.93 1205.16,-17.63 1203.28,-10.88"/>
<text text-anchor="middle" x="1344" y="-30.72" font-family="Helvetica,sans-Serif" font-size="10.00"> problemName</text>
</g>
</g>
</svg>
        <g id="navigator" transform="translate(0 0)" fill="#404254">
                <rect fill="#f2f5e9" fill-opacity="0.5" stroke="#606060" stroke-width=".5" x="0" y="0" width="60" height="60"/>
                <use id="zoomplus" xlink:href="#zoomPlus" x="17" y="9" onmousedown="handleZoom(evt,'in')"/>
                <use id="zoomminus" xlink:href="#zoomMin" x="42" y="9" onmousedown="handleZoom(evt,'out')"/>
                <use id="reset" xlink:href="#resetDef" x="30" y="36" onmousedown="handleReset()"/>
                <g id="arrowUp" xlink:href="#dirArrow" transform="translate(30 24)" onmousedown="handlePan(0,-1)">
                  <use xlink:href="#rim" fill="#404040">
                        <set attributeName="fill" to="#808080" begin="arrowUp.mouseover" end="arrowUp.mouseout"/>
                  </use>
                  <path fill="none" stroke="white" stroke-width="1.5" d="M0,-3.0v7 M-2.5,-0.5L0,-3.0L2.5,-0.5"/>
                </g>
                <g id="arrowRight" xlink:href="#dirArrow" transform="rotate(90) translate(36 -43)" onmousedown="handlePan(1,0)">
                  <use xlink:href="#rim" fill="#404040">
                        <set attributeName="fill" to="#808080" begin="arrowRight.mouseover" end="arrowRight.mouseout"/>
                  </use>
                  <path fill="none" stroke="white" stroke-width="1.5" d="M0,-3.0v7 M-2.5,-0.5L0,-3.0L2.5,-0.5"/>
                </g>
                <g id="arrowDown" xlink:href="#dirArrow" transform="rotate(180) translate(-30 -48)" onmousedown="handlePan(0,1)">
                  <use xlink:href="#rim" fill="#404040">
                        <set attributeName="fill" to="#808080" begin="arrowDown.mouseover" end="arrowDown.mouseout"/>
                  </use>
                  <path fill="none" stroke="white" stroke-width="1.5" d="M0,-3.0v7 M-2.5,-0.5L0,-3.0L2.5,-0.5"/>
                </g>
                <g id="arrowLeft" xlink:href="#dirArrow" transform="rotate(270) translate(-36 17)" onmousedown="handlePan(-1,0)">
                  <use xlink:href="#rim" fill="#404040">
                        <set attributeName="fill" to="#808080" begin="arrowLeft.mouseover" end="arrowLeft.mouseout"/>
                  </use>
                  <path fill="none" stroke="white" stroke-width="1.5" d="M0,-3.0v7 M-2.5,-0.5L0,-3.0L2.5,-0.5"/>
                </g>
        </g>
        <svg viewBox="0 0 15 15" width="100%" height="30px" preserveAspectRatio="xMaxYMin meet">
         <g id="arrow_out" transform="scale(0.3 0.3)">
          <a xlink:href="structMoFEM_1_1SnesCtx__coll__graph_org.svg" target="_base">
           <rect id="button" ry="5" rx="5" y="6" x="6" height="38" width="38"
                fill="#f2f5e9" fill-opacity="0.5" stroke="#606060" stroke-width="1.0"/>
           <path id="arrow"
             d="M 11.500037,31.436501 C 11.940474,20.09759 22.043105,11.32322 32.158766,21.979434 L 37.068811,17.246167 C 37.068811,17.246167 37.088388,32 37.088388,32 L 22.160133,31.978069 C 22.160133,31.978069 26.997745,27.140456 26.997745,27.140456 C 18.528582,18.264221 13.291696,25.230495 11.500037,31.436501 z"
             style="fill:#404040;"/>
          </a>
         </g>
        </svg>
</svg>
