<?xml version="1.0" encoding="UTF-8" standalone="no"?>
<!DOCTYPE svg PUBLIC "-//W3C//DTD SVG 1.1//EN"
 "http://www.w3.org/Graphics/SVG/1.1/DTD/svg11.dtd">
<!-- Generated by graphviz version 2.43.0 (0)
 -->
<!-- Title: OpCheck Pages: 1 -->
<!--zoomable 1629 -->
<svg id="main" version="1.1" xmlns="http://www.w3.org/2000/svg" xmlns:xlink="http://www.w3.org/1999/xlink" xml:space="preserve" onload="init(evt)">
<style type="text/css"><![CDATA[
.edge:hover path { stroke: red; }
.edge:hover polygon { stroke: red; fill: red; }
]]></style>
<script type="text/javascript"><![CDATA[
var edges = document.getElementsByTagName('g');
if (edges && edges.length) {
  for (var i=0;i<edges.length;i++) {
    if (edges[i].id.substr(0,4)=='edge') {
      edges[i].setAttribute('class','edge');
    }
  }
}
]]></script>
        <defs>
                <circle id="rim" cx="0" cy="0" r="7"/>
                <circle id="rim2" cx="0" cy="0" r="3.5"/>
                <g id="zoomPlus">
                        <use xlink:href="#rim" fill="#404040">
                                <set attributeName="fill" to="#808080" begin="zoomplus.mouseover" end="zoomplus.mouseout"/>
                        </use>
                        <path d="M-4,0h8M0,-4v8" fill="none" stroke="white" stroke-width="1.5" pointer-events="none"/>
                </g>
                <g id="zoomMin">
                        <use xlink:href="#rim" fill="#404040">
                                <set attributeName="fill" to="#808080" begin="zoomminus.mouseover" end="zoomminus.mouseout"/>
                        </use>
                        <path d="M-4,0h8" fill="none" stroke="white" stroke-width="1.5" pointer-events="none"/>
                </g>
                <g id="dirArrow">
                        <path fill="none" stroke="white" stroke-width="1.5" d="M0,-3.0v7 M-2.5,-0.5L0,-3.0L2.5,-0.5"/>
                </g>
               <g id="resetDef">
                       <use xlink:href="#rim2" fill="#404040">
                               <set attributeName="fill" to="#808080" begin="reset.mouseover" end="reset.mouseout"/>
                       </use>
               </g>
        </defs>

<script type="text/javascript">
var viewWidth = 3392;
var viewHeight = 1629;
var sectionId = 'dynsection-1';
</script>
<script xlink:href="svgpan.js"/>
<svg id="graph" class="graph">
<g id="viewport">
<title>OpCheck</title>
<polygon fill="white" stroke="transparent" points="-4,4 -4,-1625 3388,-1625 3388,4 -4,4"/>
<!-- Node1 -->
<g id="node1" class="node">
<title>Node1</title>
<g id="a_node1"><a xlink:title=" ">
<polygon fill="#bfbfbf" stroke="black" points="3324,-208.5 3324,-227.5 3384,-227.5 3384,-208.5 3324,-208.5"/>
<text text-anchor="middle" x="3354" y="-215.5" font-family="Helvetica,sans-Serif" font-size="10.00">OpCheck</text>
</a>
</g>
</g>
<!-- Node2 -->
<g id="node2" class="node">
<title>Node2</title>
<g id="a_node2"><a xlink:href="structMoFEM_1_1VolumeElementForcesAndSourcesCore_1_1UserDataOperator.html" target="_top" xlink:title=" ">
<polygon fill="white" stroke="black" points="3090,-706 3090,-736 3281,-736 3281,-706 3090,-706"/>
<text text-anchor="start" x="3098" y="-724" font-family="Helvetica,sans-Serif" font-size="10.00">MoFEM::VolumeElementForces</text>
<text text-anchor="middle" x="3185.5" y="-713" font-family="Helvetica,sans-Serif" font-size="10.00">AndSourcesCore::UserDataOperator</text>
</a>
</g>
</g>
<!-- Node2&#45;&gt;Node1 -->
<g id="edge1" class="edge">
<title>Node2&#45;&gt;Node1</title>
<path fill="none" stroke="midnightblue" d="M3194.64,-696.42C3224.88,-605.05 3330.09,-287.22 3349.8,-227.66"/>
<polygon fill="midnightblue" stroke="midnightblue" points="3191.3,-695.35 3191.48,-705.95 3197.95,-697.55 3191.3,-695.35"/>
</g>
<!-- Node3 -->
<g id="node3" class="node">
<title>Node3</title>
<g id="a_node3"><a xlink:href="structMoFEM_1_1ForcesAndSourcesCore_1_1UserDataOperator.html" target="_top" xlink:title=" ">
<polygon fill="white" stroke="black" points="2837,-1313 2837,-1343 3007,-1343 3007,-1313 2837,-1313"/>
<text text-anchor="start" x="2845" y="-1331" font-family="Helvetica,sans-Serif" font-size="10.00">MoFEM::ForcesAndSourcesCore</text>
<text text-anchor="middle" x="2922" y="-1320" font-family="Helvetica,sans-Serif" font-size="10.00">::UserDataOperator</text>
</a>
</g>
</g>
<!-- Node3&#45;&gt;Node2 -->
<g id="edge2" class="edge">
<title>Node3&#45;&gt;Node2</title>
<path fill="none" stroke="midnightblue" d="M2933.51,-1303.6C2977.12,-1202.38 3143.11,-817.09 3178.03,-736.02"/>
<polygon fill="midnightblue" stroke="midnightblue" points="2930.21,-1302.43 2929.46,-1313 2936.64,-1305.2 2930.21,-1302.43"/>
</g>
<!-- Node4 -->
<g id="node4" class="node">
<title>Node4</title>
<g id="a_node4"><a xlink:href="structMoFEM_1_1DataOperator.html" target="_top" xlink:title="base operator to do operations at Gauss Pt. level">
<polygon fill="white" stroke="black" points="2579.5,-1422.5 2579.5,-1441.5 2704.5,-1441.5 2704.5,-1422.5 2579.5,-1422.5"/>
<text text-anchor="middle" x="2642" y="-1429.5" font-family="Helvetica,sans-Serif" font-size="10.00">MoFEM::DataOperator</text>
</a>
</g>
</g>
<!-- Node4&#45;&gt;Node3 -->
<g id="edge3" class="edge">
<title>Node4&#45;&gt;Node3</title>
<path fill="none" stroke="midnightblue" d="M2678.07,-1418.88C2729.79,-1399.53 2826.24,-1363.45 2880.76,-1343.05"/>
<polygon fill="midnightblue" stroke="midnightblue" points="2676.79,-1415.62 2668.66,-1422.4 2679.25,-1422.18 2676.79,-1415.62"/>
</g>
<!-- Node5 -->
<g id="node5" class="node">
<title>Node5</title>
<g id="a_node5"><a xlink:title=" ">
<polygon fill="white" stroke="#bfbfbf" points="2160,-1426 2160,-1478 2352,-1478 2352,-1426 2160,-1426"/>
<text text-anchor="start" x="2168" y="-1466" font-family="Helvetica,sans-Serif" font-size="10.00">function&lt; MoFEMErrorCode</text>
<text text-anchor="start" x="2168" y="-1455" font-family="Helvetica,sans-Serif" font-size="10.00">(DataOperator *op_ptr,</text>
<text text-anchor="start" x="2168" y="-1444" font-family="Helvetica,sans-Serif" font-size="10.00"> int side, EntityType type,</text>
<text text-anchor="middle" x="2256" y="-1433" font-family="Helvetica,sans-Serif" font-size="10.00"> EntitiesFieldData::EntData &amp;data)&gt;</text>
</a>
</g>
</g>
<!-- Node5&#45;&gt;Node4 -->
<g id="edge4" class="edge">
<title>Node5&#45;&gt;Node4</title>
<path fill="none" stroke="#9a32cd" stroke-dasharray="5,2" d="M2362.13,-1449.12C2415.19,-1447.36 2480.55,-1444.72 2539,-1441 2552.04,-1440.17 2566,-1439.08 2579.28,-1437.94"/>
<polygon fill="#9a32cd" stroke="#9a32cd" points="2361.91,-1445.63 2352.02,-1449.45 2362.13,-1452.63 2361.91,-1445.63"/>
<text text-anchor="middle" x="2458" y="-1451" font-family="Helvetica,sans-Serif" font-size="10.00"> doWorkRhsHook</text>
</g>
<!-- Node6 -->
<g id="node6" class="node">
<title>Node6</title>
<g id="a_node6"><a xlink:href="classbool.html" target="_top" xlink:title=" ">
<polygon fill="white" stroke="black" points="2237,-1356.5 2237,-1375.5 2275,-1375.5 2275,-1356.5 2237,-1356.5"/>
<text text-anchor="middle" x="2256" y="-1363.5" font-family="Helvetica,sans-Serif" font-size="10.00">bool</text>
</a>
</g>
</g>
<!-- Node6&#45;&gt;Node4 -->
<g id="edge5" class="edge">
<title>Node6&#45;&gt;Node4</title>
<path fill="none" stroke="#9a32cd" stroke-dasharray="5,2" d="M2285.33,-1362.06C2347.82,-1353.89 2495.42,-1337.68 2539,-1360 2551.19,-1366.24 2546.78,-1375.89 2557,-1385 2575.21,-1401.24 2599.97,-1414.25 2617.89,-1422.42"/>
<polygon fill="#9a32cd" stroke="#9a32cd" points="2284.48,-1358.64 2275.03,-1363.43 2285.41,-1365.58 2284.48,-1358.64"/>
<text text-anchor="middle" x="2458" y="-1429" font-family="Helvetica,sans-Serif" font-size="10.00"> doTris</text>
<text text-anchor="middle" x="2458" y="-1418" font-family="Helvetica,sans-Serif" font-size="10.00">doQuads</text>
<text text-anchor="middle" x="2458" y="-1407" font-family="Helvetica,sans-Serif" font-size="10.00">sYmm</text>
<text text-anchor="middle" x="2458" y="-1396" font-family="Helvetica,sans-Serif" font-size="10.00">doPrisms</text>
<text text-anchor="middle" x="2458" y="-1385" font-family="Helvetica,sans-Serif" font-size="10.00">doTets</text>
<text text-anchor="middle" x="2458" y="-1374" font-family="Helvetica,sans-Serif" font-size="10.00">doVertices</text>
<text text-anchor="middle" x="2458" y="-1363" font-family="Helvetica,sans-Serif" font-size="10.00">doEdges</text>
</g>
<!-- Node7 -->
<g id="node7" class="node">
<title>Node7</title>
<g id="a_node7"><a xlink:title=" ">
<polygon fill="white" stroke="#bfbfbf" points="2153,-1535.5 2153,-1620.5 2359,-1620.5 2359,-1535.5 2153,-1535.5"/>
<text text-anchor="start" x="2161" y="-1608.5" font-family="Helvetica,sans-Serif" font-size="10.00">function&lt; MoFEMErrorCode</text>
<text text-anchor="start" x="2161" y="-1597.5" font-family="Helvetica,sans-Serif" font-size="10.00">(DataOperator *op_ptr,</text>
<text text-anchor="start" x="2161" y="-1586.5" font-family="Helvetica,sans-Serif" font-size="10.00"> int row_side, int col_side,</text>
<text text-anchor="start" x="2161" y="-1575.5" font-family="Helvetica,sans-Serif" font-size="10.00"> EntityType row_type, EntityType</text>
<text text-anchor="start" x="2161" y="-1564.5" font-family="Helvetica,sans-Serif" font-size="10.00"> col_type, EntitiesFieldData::EntData</text>
<text text-anchor="start" x="2161" y="-1553.5" font-family="Helvetica,sans-Serif" font-size="10.00"> &amp;row_data, EntitiesFieldData::EntData</text>
<text text-anchor="middle" x="2256" y="-1542.5" font-family="Helvetica,sans-Serif" font-size="10.00"> &amp;col_data)&gt;</text>
</a>
</g>
</g>
<!-- Node7&#45;&gt;Node4 -->
<g id="edge6" class="edge">
<title>Node7&#45;&gt;Node4</title>
<path fill="none" stroke="#9a32cd" stroke-dasharray="5,2" d="M2369.46,-1578.54C2426.92,-1572.97 2494.02,-1556.56 2539,-1514 2560.15,-1493.98 2535.84,-1471.01 2557,-1451 2563.3,-1445.04 2571.06,-1440.81 2579.29,-1437.82"/>
<polygon fill="#9a32cd" stroke="#9a32cd" points="2368.88,-1575.08 2359.22,-1579.43 2369.48,-1582.05 2368.88,-1575.08"/>
<text text-anchor="middle" x="2458" y="-1580" font-family="Helvetica,sans-Serif" font-size="10.00"> doWorkLhsHook</text>
</g>
<!-- Node8 -->
<g id="node8" class="node">
<title>Node8</title>
<g id="a_node8"><a xlink:title=" ">
<polygon fill="white" stroke="#bfbfbf" points="2179,-1497.5 2179,-1516.5 2333,-1516.5 2333,-1497.5 2179,-1497.5"/>
<text text-anchor="middle" x="2256" y="-1504.5" font-family="Helvetica,sans-Serif" font-size="10.00">array&lt; bool, MBMAXTYPE &gt;</text>
</a>
</g>
</g>
<!-- Node8&#45;&gt;Node4 -->
<g id="edge7" class="edge">
<title>Node8&#45;&gt;Node4</title>
<path fill="none" stroke="#9a32cd" stroke-dasharray="5,2" d="M2343.31,-1503.19C2400.45,-1498.36 2476.17,-1487.47 2539,-1463 2547.96,-1459.51 2548.16,-1454.79 2557,-1451 2565.93,-1447.17 2575.74,-1444.06 2585.41,-1441.55"/>
<polygon fill="#9a32cd" stroke="#9a32cd" points="2342.91,-1499.71 2333.22,-1504 2343.47,-1506.69 2342.91,-1499.71"/>
<text text-anchor="middle" x="2458" y="-1502" font-family="Helvetica,sans-Serif" font-size="10.00"> doEntities</text>
</g>
<!-- Node9 -->
<g id="node9" class="node">
<title>Node9</title>
<g id="a_node9"><a xlink:title=" ">
<polygon fill="white" stroke="#bfbfbf" points="2607.5,-1356.5 2607.5,-1375.5 2676.5,-1375.5 2676.5,-1356.5 2607.5,-1356.5"/>
<text text-anchor="middle" x="2642" y="-1363.5" font-family="Helvetica,sans-Serif" font-size="10.00">FieldSpace</text>
</a>
</g>
</g>
<!-- Node9&#45;&gt;Node3 -->
<g id="edge8" class="edge">
<title>Node9&#45;&gt;Node3</title>
<path fill="none" stroke="#9a32cd" stroke-dasharray="5,2" d="M2686.8,-1360.04C2722.41,-1355.19 2773.95,-1348.16 2819,-1342 2824.84,-1341.2 2830.88,-1340.37 2836.95,-1339.54"/>
<polygon fill="#9a32cd" stroke="#9a32cd" points="2686.18,-1356.59 2676.74,-1361.41 2687.12,-1363.53 2686.18,-1356.59"/>
<text text-anchor="middle" x="2782" y="-1354" font-family="Helvetica,sans-Serif" font-size="10.00"> sPace</text>
</g>
<!-- Node10 -->
<g id="node10" class="node">
<title>Node10</title>
<g id="a_node10"><a xlink:title=" ">
<polygon fill="white" stroke="#bfbfbf" points="1122.5,-1314.5 1122.5,-1333.5 1160.5,-1333.5 1160.5,-1314.5 1122.5,-1314.5"/>
<text text-anchor="middle" x="1141.5" y="-1321.5" font-family="Helvetica,sans-Serif" font-size="10.00">char</text>
</a>
</g>
</g>
<!-- Node10&#45;&gt;Node3 -->
<g id="edge9" class="edge">
<title>Node10&#45;&gt;Node3</title>
<path fill="none" stroke="#9a32cd" stroke-dasharray="5,2" d="M1170.82,-1324.54C1230.98,-1325.63 1375.94,-1328 1497.5,-1328 1497.5,-1328 1497.5,-1328 2643,-1328 2708.04,-1328 2781.63,-1328 2836.75,-1328"/>
<polygon fill="#9a32cd" stroke="#9a32cd" points="1170.66,-1321.03 1160.6,-1324.35 1170.54,-1328.03 1170.66,-1321.03"/>
<text text-anchor="middle" x="2063" y="-1331" font-family="Helvetica,sans-Serif" font-size="10.00"> opType</text>
</g>
<!-- Node38 -->
<g id="node38" class="node">
<title>Node38</title>
<g id="a_node38"><a xlink:href="structMoFEM_1_1Problem.html" target="_top" xlink:title="keeps basic data about problem">
<polygon fill="white" stroke="black" points="1449,-1058.5 1449,-1077.5 1548,-1077.5 1548,-1058.5 1449,-1058.5"/>
<text text-anchor="middle" x="1498.5" y="-1065.5" font-family="Helvetica,sans-Serif" font-size="10.00">MoFEM::Problem</text>
</a>
</g>
</g>
<!-- Node10&#45;&gt;Node38 -->
<g id="edge53" class="edge">
<title>Node10&#45;&gt;Node38</title>
<path fill="none" stroke="#9a32cd" stroke-dasharray="5,2" d="M1170.41,-1318.99C1194.41,-1314.7 1229.98,-1308.37 1261,-1303 1321.4,-1292.54 1348.12,-1316.99 1397,-1280 1467.48,-1226.66 1490.69,-1111.42 1496.12,-1077.55"/>
<polygon fill="#9a32cd" stroke="#9a32cd" points="1169.79,-1315.55 1160.56,-1320.75 1171.02,-1322.44 1169.79,-1315.55"/>
<text text-anchor="middle" x="1329" y="-1306" font-family="Helvetica,sans-Serif" font-size="10.00"> tagName</text>
</g>
<!-- Node11 -->
<g id="node11" class="node">
<title>Node11</title>
<g id="a_node11"><a xlink:href="structMoFEM_1_1ForcesAndSourcesCore.html" target="_top" xlink:title="structure to get information form mofem into EntitiesFieldData">
<polygon fill="white" stroke="black" points="2557,-563.5 2557,-582.5 2727,-582.5 2727,-563.5 2557,-563.5"/>
<text text-anchor="middle" x="2642" y="-570.5" font-family="Helvetica,sans-Serif" font-size="10.00">MoFEM::ForcesAndSourcesCore</text>
</a>
</g>
</g>
<!-- Node11&#45;&gt;Node3 -->
<g id="edge10" class="edge">
<title>Node11&#45;&gt;Node3</title>
<path fill="none" stroke="#9a32cd" stroke-dasharray="5,2" d="M2650,-592C2689.12,-698.27 2880.36,-1217.64 2915.46,-1312.96"/>
<polygon fill="#9a32cd" stroke="#9a32cd" points="2653.25,-590.72 2646.51,-582.55 2646.69,-593.14 2653.25,-590.72"/>
<text text-anchor="middle" x="2782" y="-1043" font-family="Helvetica,sans-Serif" font-size="10.00"> ptrFE</text>
</g>
<!-- Node11&#45;&gt;Node11 -->
<g id="edge68" class="edge">
<title>Node11&#45;&gt;Node11</title>
<path fill="none" stroke="#9a32cd" stroke-dasharray="5,2" d="M2615.96,-592.03C2617.38,-597.13 2626.06,-601 2642,-601 2666.88,-601 2674.08,-591.57 2663.58,-582.76"/>
<polygon fill="#9a32cd" stroke="#9a32cd" points="2619.24,-593.29 2620.42,-582.76 2612.93,-590.25 2619.24,-593.29"/>
<text text-anchor="middle" x="2642" y="-615" font-family="Helvetica,sans-Serif" font-size="10.00"> sidePtrFE</text>
<text text-anchor="middle" x="2642" y="-604" font-family="Helvetica,sans-Serif" font-size="10.00">refinePtrFE</text>
</g>
<!-- Node12 -->
<g id="node12" class="node">
<title>Node12</title>
<g id="a_node12"><a xlink:href="structMoFEM_1_1FEMethod.html" target="_top" xlink:title="structure for User Loop Methods on finite elements">
<polygon fill="white" stroke="black" points="2202.5,-504.5 2202.5,-523.5 2309.5,-523.5 2309.5,-504.5 2202.5,-504.5"/>
<text text-anchor="middle" x="2256" y="-511.5" font-family="Helvetica,sans-Serif" font-size="10.00">MoFEM::FEMethod</text>
</a>
</g>
</g>
<!-- Node12&#45;&gt;Node11 -->
<g id="edge11" class="edge">
<title>Node12&#45;&gt;Node11</title>
<path fill="none" stroke="midnightblue" d="M2319.71,-516.7C2377.21,-520.01 2464.47,-527.12 2539,-542 2565.14,-547.22 2594.14,-556.37 2614.52,-563.39"/>
<polygon fill="midnightblue" stroke="midnightblue" points="2319.87,-513.2 2309.69,-516.14 2319.48,-520.19 2319.87,-513.2"/>
</g>
<!-- Node13 -->
<g id="node13" class="node">
<title>Node13</title>
<g id="a_node13"><a xlink:href="structMoFEM_1_1BasicMethod.html" target="_top" xlink:title="Data structure to exchange data between mofem and User Loop Methods.">
<polygon fill="white" stroke="black" points="1825,-514.5 1825,-533.5 1947,-533.5 1947,-514.5 1825,-514.5"/>
<text text-anchor="middle" x="1886" y="-521.5" font-family="Helvetica,sans-Serif" font-size="10.00">MoFEM::BasicMethod</text>
</a>
</g>
</g>
<!-- Node13&#45;&gt;Node12 -->
<g id="edge12" class="edge">
<title>Node13&#45;&gt;Node12</title>
<path fill="none" stroke="midnightblue" d="M1957.63,-522.08C2029.14,-520.14 2138.1,-517.18 2202.37,-515.43"/>
<polygon fill="midnightblue" stroke="midnightblue" points="1957.26,-518.59 1947.36,-522.36 1957.45,-525.59 1957.26,-518.59"/>
</g>
<!-- Node14 -->
<g id="node14" class="node">
<title>Node14</title>
<g id="a_node14"><a xlink:href="structMoFEM_1_1KspMethod.html" target="_top" xlink:title="data structure for ksp (linear solver) context">
<polygon fill="white" stroke="black" points="1442,-430.5 1442,-449.5 1555,-449.5 1555,-430.5 1442,-430.5"/>
<text text-anchor="middle" x="1498.5" y="-437.5" font-family="Helvetica,sans-Serif" font-size="10.00">MoFEM::KspMethod</text>
</a>
</g>
</g>
<!-- Node14&#45;&gt;Node13 -->
<g id="edge13" class="edge">
<title>Node14&#45;&gt;Node13</title>
<path fill="none" stroke="midnightblue" d="M1553.32,-451.73C1630.25,-468.49 1770.21,-498.99 1841.19,-514.45"/>
<polygon fill="midnightblue" stroke="midnightblue" points="1553.86,-448.26 1543.35,-449.55 1552.37,-455.1 1553.86,-448.26"/>
</g>
<!-- Node15 -->
<g id="node15" class="node">
<title>Node15</title>
<g id="a_node15"><a xlink:href="structMoFEM_1_1PetscData.html" target="_top" xlink:title=" ">
<polygon fill="white" stroke="black" points="1087.5,-479.5 1087.5,-498.5 1195.5,-498.5 1195.5,-479.5 1087.5,-479.5"/>
<text text-anchor="middle" x="1141.5" y="-486.5" font-family="Helvetica,sans-Serif" font-size="10.00">MoFEM::PetscData</text>
</a>
</g>
</g>
<!-- Node15&#45;&gt;Node14 -->
<g id="edge14" class="edge">
<title>Node15&#45;&gt;Node14</title>
<path fill="none" stroke="midnightblue" d="M1205.62,-480.35C1257.12,-473.29 1331.77,-463.03 1397,-454 1411.57,-451.98 1427.33,-449.79 1441.95,-447.76"/>
<polygon fill="midnightblue" stroke="midnightblue" points="1205.07,-476.89 1195.63,-481.72 1206.02,-483.83 1205.07,-476.89"/>
</g>
<!-- Node25 -->
<g id="node25" class="node">
<title>Node25</title>
<g id="a_node25"><a xlink:href="structMoFEM_1_1SnesMethod.html" target="_top" xlink:title="data structure for snes (nonlinear solver) context">
<polygon fill="white" stroke="black" points="1439,-392.5 1439,-411.5 1558,-411.5 1558,-392.5 1439,-392.5"/>
<text text-anchor="middle" x="1498.5" y="-399.5" font-family="Helvetica,sans-Serif" font-size="10.00">MoFEM::SnesMethod</text>
</a>
</g>
</g>
<!-- Node15&#45;&gt;Node25 -->
<g id="edge27" class="edge">
<title>Node15&#45;&gt;Node25</title>
<path fill="none" stroke="darkgreen" d="M1205.83,-478.57C1218.52,-475.19 1231.48,-470.77 1243,-465 1252.31,-460.33 1251.61,-454.51 1261,-450 1317.66,-422.81 1389.11,-411 1438.58,-405.89"/>
<polygon fill="darkgreen" stroke="darkgreen" points="1204.61,-475.26 1195.74,-481.06 1206.29,-482.06 1204.61,-475.26"/>
</g>
<!-- Node28 -->
<g id="node28" class="node">
<title>Node28</title>
<g id="a_node28"><a xlink:href="structMoFEM_1_1TSMethod.html" target="_top" xlink:title="data structure for TS (time stepping) context">
<polygon fill="white" stroke="black" points="1445,-612.5 1445,-631.5 1552,-631.5 1552,-612.5 1445,-612.5"/>
<text text-anchor="middle" x="1498.5" y="-619.5" font-family="Helvetica,sans-Serif" font-size="10.00">MoFEM::TSMethod</text>
</a>
</g>
</g>
<!-- Node15&#45;&gt;Node28 -->
<g id="edge33" class="edge">
<title>Node15&#45;&gt;Node28</title>
<path fill="none" stroke="darkgreen" d="M1205.59,-485.77C1259.17,-485.57 1336.73,-491.4 1397,-521 1441.19,-542.7 1477.4,-591.69 1491.34,-612.44"/>
<polygon fill="darkgreen" stroke="darkgreen" points="1205.5,-482.27 1195.54,-485.88 1205.58,-489.27 1205.5,-482.27"/>
</g>
<!-- Node16 -->
<g id="node16" class="node">
<title>Node16</title>
<g id="a_node16"><a xlink:href="structMoFEM_1_1UnknownInterface.html" target="_top" xlink:title="base class for all interface classes">
<polygon fill="white" stroke="black" points="735,-128.5 735,-147.5 883,-147.5 883,-128.5 735,-128.5"/>
<text text-anchor="middle" x="809" y="-135.5" font-family="Helvetica,sans-Serif" font-size="10.00">MoFEM::UnknownInterface</text>
</a>
</g>
</g>
<!-- Node16&#45;&gt;Node15 -->
<g id="edge15" class="edge">
<title>Node16&#45;&gt;Node15</title>
<path fill="none" stroke="midnightblue" d="M833.84,-153.4C879.02,-184.02 976.66,-257.3 1022,-346 1046.35,-393.63 1003.8,-425.62 1040,-465 1052.08,-478.14 1069.95,-484.69 1087.29,-487.79"/>
<polygon fill="midnightblue" stroke="midnightblue" points="835.54,-150.33 825.28,-147.69 831.65,-156.15 835.54,-150.33"/>
</g>
<!-- Node56 -->
<g id="node56" class="node">
<title>Node56</title>
<g id="a_node56"><a xlink:href="structMoFEM_1_1CoreInterface.html" target="_top" xlink:title="Interface.">
<polygon fill="white" stroke="black" points="1079,-67.5 1079,-86.5 1204,-86.5 1204,-67.5 1079,-67.5"/>
<text text-anchor="middle" x="1141.5" y="-74.5" font-family="Helvetica,sans-Serif" font-size="10.00">MoFEM::CoreInterface</text>
</a>
</g>
</g>
<!-- Node16&#45;&gt;Node56 -->
<g id="edge67" class="edge">
<title>Node16&#45;&gt;Node56</title>
<path fill="none" stroke="midnightblue" d="M879.34,-148.35C923.09,-151.42 979.2,-148.76 1022,-124 1034.48,-116.78 1028.01,-105.02 1040,-97 1051.46,-89.33 1065.19,-84.48 1078.77,-81.43"/>
<polygon fill="midnightblue" stroke="midnightblue" points="879.61,-144.86 869.36,-147.53 879.04,-151.84 879.61,-144.86"/>
</g>
<!-- Node17 -->
<g id="node17" class="node">
<title>Node17</title>
<g id="a_node17"><a xlink:title=" ">
<polygon fill="white" stroke="#bfbfbf" points="386,-84.5 386,-147.5 627,-147.5 627,-84.5 386,-84.5"/>
<text text-anchor="start" x="394" y="-135.5" font-family="Helvetica,sans-Serif" font-size="10.00">multi_index_container</text>
<text text-anchor="start" x="394" y="-124.5" font-family="Helvetica,sans-Serif" font-size="10.00">&lt; UIdTypeMap, indexed</text>
<text text-anchor="start" x="394" y="-113.5" font-family="Helvetica,sans-Serif" font-size="10.00">_by&lt; hashed_unique&lt; member</text>
<text text-anchor="start" x="394" y="-102.5" font-family="Helvetica,sans-Serif" font-size="10.00">&lt; UIdTypeMap, boost::typeindex</text>
<text text-anchor="middle" x="506.5" y="-91.5" font-family="Helvetica,sans-Serif" font-size="10.00">::type_index, &amp;UIdTypeMap::classIdx &gt; &gt; &gt; &gt;</text>
</a>
</g>
</g>
<!-- Node17&#45;&gt;Node16 -->
<g id="edge16" class="edge">
<title>Node17&#45;&gt;Node16</title>
<path fill="none" stroke="#9a32cd" stroke-dasharray="5,2" d="M637.41,-125.51C670.69,-127.95 705.33,-130.48 734.62,-132.63"/>
<polygon fill="#9a32cd" stroke="#9a32cd" points="637.36,-122 627.13,-124.76 636.85,-128.98 637.36,-122"/>
<text text-anchor="middle" x="681" y="-134" font-family="Helvetica,sans-Serif" font-size="10.00"> iFaceTypeMap</text>
</g>
<!-- Node18 -->
<g id="node18" class="node">
<title>Node18</title>
<g id="a_node18"><a xlink:title=" ">
<polygon fill="white" stroke="#bfbfbf" points="0,-41.5 0,-60.5 125,-60.5 125,-41.5 0,-41.5"/>
<text text-anchor="middle" x="62.5" y="-48.5" font-family="Helvetica,sans-Serif" font-size="10.00">multi_index_container</text>
</a>
</g>
</g>
<!-- Node18&#45;&gt;Node13 -->
<g id="edge40" class="edge">
<title>Node18&#45;&gt;Node13</title>
<path fill="none" stroke="#9a32cd" stroke-dasharray="5,2" d="M135.41,-46.8C222.85,-42.06 374.95,-35 505.5,-35 505.5,-35 505.5,-35 1499.5,-35 1656.12,-35 1706.26,-109.36 1781,-247 1808.43,-297.51 1761.47,-461.47 1799,-505 1805.79,-512.87 1815.04,-517.91 1824.96,-521.05"/>
<polygon fill="#9a32cd" stroke="#9a32cd" points="135.12,-43.31 125.33,-47.35 135.51,-50.3 135.12,-43.31"/>
<text text-anchor="middle" x="961.5" y="-115" font-family="Helvetica,sans-Serif" font-size="10.00"> adjacenciesPtr</text>
<text text-anchor="middle" x="961.5" y="-104" font-family="Helvetica,sans-Serif" font-size="10.00">refinedEntitiesPtr</text>
<text text-anchor="middle" x="961.5" y="-93" font-family="Helvetica,sans-Serif" font-size="10.00">finiteElementsEntitiesPtr</text>
<text text-anchor="middle" x="961.5" y="-82" font-family="Helvetica,sans-Serif" font-size="10.00">dofsPtr</text>
<text text-anchor="middle" x="961.5" y="-71" font-family="Helvetica,sans-Serif" font-size="10.00">entitiesPtr</text>
<text text-anchor="middle" x="961.5" y="-60" font-family="Helvetica,sans-Serif" font-size="10.00">finiteElementsPtr</text>
<text text-anchor="middle" x="961.5" y="-49" font-family="Helvetica,sans-Serif" font-size="10.00">refinedFiniteElementsPtr</text>
<text text-anchor="middle" x="961.5" y="-38" font-family="Helvetica,sans-Serif" font-size="10.00">fieldsPtr</text>
</g>
<!-- Node18&#45;&gt;Node17 -->
<g id="edge17" class="edge">
<title>Node18&#45;&gt;Node17</title>
<path fill="none" stroke="orange" stroke-dasharray="5,2" d="M135.56,-61.6C203.25,-71.55 305.79,-86.63 385.77,-98.39"/>
<polygon fill="orange" stroke="orange" points="135.83,-58.1 125.42,-60.11 134.81,-65.02 135.83,-58.1"/>
<text text-anchor="start" x="143" y="-131" font-family="Helvetica,sans-Serif" font-size="10.00"> &lt; UIdTypeMap, indexed</text>
<text text-anchor="start" x="143" y="-120" font-family="Helvetica,sans-Serif" font-size="10.00">_by&lt; hashed_unique&lt; member</text>
<text text-anchor="start" x="143" y="-109" font-family="Helvetica,sans-Serif" font-size="10.00">&lt; UIdTypeMap, boost::typeindex</text>
<text text-anchor="middle" x="255.5" y="-98" font-family="Helvetica,sans-Serif" font-size="10.00">::type_index, &amp;UIdTypeMap::classIdx &gt; &gt; &gt; &gt;</text>
</g>
<!-- Node19 -->
<g id="node19" class="node">
<title>Node19</title>
<g id="a_node19"><a xlink:title=" ">
<polygon fill="white" stroke="#bfbfbf" points="738.5,-790.5 738.5,-809.5 879.5,-809.5 879.5,-790.5 738.5,-790.5"/>
<text text-anchor="middle" x="809" y="-797.5" font-family="Helvetica,sans-Serif" font-size="10.00">static constexpr Switches</text>
</a>
</g>
</g>
<!-- Node19&#45;&gt;Node15 -->
<g id="edge18" class="edge">
<title>Node19&#45;&gt;Node15</title>
<path fill="none" stroke="#9a32cd" stroke-dasharray="5,2" d="M869.87,-787.14C874.43,-785.35 878.86,-783.31 883,-781 957.66,-739.34 983.28,-724.23 1022,-648 1049.41,-594.03 999.43,-557.93 1040,-513 1052.02,-499.69 1069.99,-493.11 1087.42,-490.04"/>
<polygon fill="#9a32cd" stroke="#9a32cd" points="868.66,-783.86 860.4,-790.5 870.99,-790.46 868.66,-783.86"/>
<text text-anchor="middle" x="961.5" y="-849" font-family="Helvetica,sans-Serif" font-size="10.00"> CtxSetX_TT</text>
<text text-anchor="middle" x="961.5" y="-838" font-family="Helvetica,sans-Serif" font-size="10.00">CtxSetX_T</text>
<text text-anchor="middle" x="961.5" y="-827" font-family="Helvetica,sans-Serif" font-size="10.00">CtxSetA</text>
<text text-anchor="middle" x="961.5" y="-816" font-family="Helvetica,sans-Serif" font-size="10.00">CtxSetB</text>
<text text-anchor="middle" x="961.5" y="-805" font-family="Helvetica,sans-Serif" font-size="10.00">CtxSetTime</text>
<text text-anchor="middle" x="961.5" y="-794" font-family="Helvetica,sans-Serif" font-size="10.00">CtxSetNone</text>
<text text-anchor="middle" x="961.5" y="-783" font-family="Helvetica,sans-Serif" font-size="10.00">CtxSetF</text>
<text text-anchor="middle" x="961.5" y="-772" font-family="Helvetica,sans-Serif" font-size="10.00">CtxSetX</text>
</g>
<!-- Node20 -->
<g id="node20" class="node">
<title>Node20</title>
<g id="a_node20"><a xlink:title=" ">
<polygon fill="white" stroke="#bfbfbf" points="791.5,-450.5 791.5,-469.5 826.5,-469.5 826.5,-450.5 791.5,-450.5"/>
<text text-anchor="middle" x="809" y="-457.5" font-family="Helvetica,sans-Serif" font-size="10.00">Mat</text>
</a>
</g>
</g>
<!-- Node20&#45;&gt;Node14 -->
<g id="edge24" class="edge">
<title>Node20&#45;&gt;Node14</title>
<path fill="none" stroke="#9a32cd" stroke-dasharray="5,2" d="M836.91,-458.29C879.84,-455.64 966.48,-450.56 1040,-448 1184.89,-442.96 1355.71,-441.04 1441.85,-440.35"/>
<polygon fill="#9a32cd" stroke="#9a32cd" points="836.49,-454.81 826.73,-458.93 836.93,-461.8 836.49,-454.81"/>
<text text-anchor="middle" x="1141.5" y="-462" font-family="Helvetica,sans-Serif" font-size="10.00"> ksp_A</text>
<text text-anchor="middle" x="1141.5" y="-451" font-family="Helvetica,sans-Serif" font-size="10.00">ksp_B</text>
</g>
<!-- Node20&#45;&gt;Node15 -->
<g id="edge19" class="edge">
<title>Node20&#45;&gt;Node15</title>
<path fill="none" stroke="#9a32cd" stroke-dasharray="5,2" d="M837.11,-462.38C891.77,-467.18 1016.08,-478.08 1087.46,-484.35"/>
<polygon fill="#9a32cd" stroke="#9a32cd" points="837.11,-458.87 826.84,-461.48 836.5,-465.84 837.11,-458.87"/>
<text text-anchor="middle" x="961.5" y="-491" font-family="Helvetica,sans-Serif" font-size="10.00"> A</text>
<text text-anchor="middle" x="961.5" y="-480" font-family="Helvetica,sans-Serif" font-size="10.00">B</text>
</g>
<!-- Node20&#45;&gt;Node25 -->
<g id="edge29" class="edge">
<title>Node20&#45;&gt;Node25</title>
<path fill="none" stroke="#9a32cd" stroke-dasharray="5,2" d="M836.72,-454.15C890.9,-442.04 1009.62,-414.19 1022,-400 1059.77,-356.71 996.64,-309.69 1040,-272 1108.09,-212.81 1154.67,-253.62 1243,-272 1316.08,-287.21 1344.81,-285.64 1397,-339 1411.77,-354.1 1398.9,-369.32 1415,-383 1421.83,-388.81 1430.09,-392.92 1438.71,-395.83"/>
<polygon fill="#9a32cd" stroke="#9a32cd" points="835.8,-450.77 826.8,-456.35 837.32,-457.6 835.8,-450.77"/>
<text text-anchor="middle" x="1141.5" y="-286" font-family="Helvetica,sans-Serif" font-size="10.00"> snes_A</text>
<text text-anchor="middle" x="1141.5" y="-275" font-family="Helvetica,sans-Serif" font-size="10.00">snes_B</text>
</g>
<!-- Node20&#45;&gt;Node28 -->
<g id="edge34" class="edge">
<title>Node20&#45;&gt;Node28</title>
<path fill="none" stroke="#9a32cd" stroke-dasharray="5,2" d="M820.56,-478.43C848.88,-525.83 931.78,-651.74 1040,-702 1112,-735.44 1323.08,-743.95 1397,-715 1440.83,-697.83 1476.98,-651.59 1491.11,-631.51"/>
<polygon fill="#9a32cd" stroke="#9a32cd" points="823.44,-476.42 815.35,-469.56 817.4,-479.96 823.44,-476.42"/>
<text text-anchor="middle" x="1141.5" y="-746" font-family="Helvetica,sans-Serif" font-size="10.00"> ts_A</text>
<text text-anchor="middle" x="1141.5" y="-735" font-family="Helvetica,sans-Serif" font-size="10.00">ts_B</text>
</g>
<!-- Node21 -->
<g id="node21" class="node">
<title>Node21</title>
<g id="a_node21"><a xlink:title=" ">
<polygon fill="white" stroke="#bfbfbf" points="772.5,-752.5 772.5,-771.5 845.5,-771.5 845.5,-752.5 772.5,-752.5"/>
<text text-anchor="middle" x="809" y="-759.5" font-family="Helvetica,sans-Serif" font-size="10.00">bitset&lt; 8 &gt;</text>
</a>
</g>
</g>
<!-- Node21&#45;&gt;Node15 -->
<g id="edge20" class="edge">
<title>Node21&#45;&gt;Node15</title>
<path fill="none" stroke="#9a32cd" stroke-dasharray="5,2" d="M821.18,-743.81C850.71,-697.43 935.7,-574.08 1040,-513 1054.32,-504.62 1071.41,-499.16 1087.4,-495.6"/>
<polygon fill="#9a32cd" stroke="#9a32cd" points="818.09,-742.16 815.74,-752.49 824.02,-745.88 818.09,-742.16"/>
<text text-anchor="middle" x="961.5" y="-636" font-family="Helvetica,sans-Serif" font-size="10.00"> data_ctx</text>
</g>
<!-- Node22 -->
<g id="node22" class="node">
<title>Node22</title>
<g id="a_node22"><a xlink:title=" ">
<polygon fill="white" stroke="#bfbfbf" points="792,-316.5 792,-335.5 826,-335.5 826,-316.5 792,-316.5"/>
<text text-anchor="middle" x="809" y="-323.5" font-family="Helvetica,sans-Serif" font-size="10.00">Vec</text>
</a>
</g>
</g>
<!-- Node22&#45;&gt;Node14 -->
<g id="edge25" class="edge">
<title>Node22&#45;&gt;Node14</title>
<path fill="none" stroke="#9a32cd" stroke-dasharray="5,2" d="M836.25,-322.34C939.07,-308.63 1312.81,-264.76 1397,-339 1424.99,-363.68 1388.75,-394.48 1415,-421 1422.24,-428.31 1431.69,-433.05 1441.59,-436.07"/>
<polygon fill="#9a32cd" stroke="#9a32cd" points="835.56,-318.9 826.12,-323.71 836.5,-325.84 835.56,-318.9"/>
<text text-anchor="middle" x="1141.5" y="-304" font-family="Helvetica,sans-Serif" font-size="10.00"> ksp_f</text>
</g>
<!-- Node22&#45;&gt;Node15 -->
<g id="edge21" class="edge">
<title>Node22&#45;&gt;Node15</title>
<path fill="none" stroke="#9a32cd" stroke-dasharray="5,2" d="M836.13,-330.91C880.2,-340.48 969.6,-365.64 1022,-420 1036.95,-435.51 1023.7,-450.92 1040,-465 1053.1,-476.31 1070.61,-482.51 1087.33,-485.84"/>
<polygon fill="#9a32cd" stroke="#9a32cd" points="836.71,-327.45 826.2,-328.85 835.29,-334.31 836.71,-327.45"/>
<text text-anchor="middle" x="961.5" y="-456" font-family="Helvetica,sans-Serif" font-size="10.00"> f</text>
<text text-anchor="middle" x="961.5" y="-445" font-family="Helvetica,sans-Serif" font-size="10.00">x</text>
<text text-anchor="middle" x="961.5" y="-434" font-family="Helvetica,sans-Serif" font-size="10.00">x_t</text>
<text text-anchor="middle" x="961.5" y="-423" font-family="Helvetica,sans-Serif" font-size="10.00">x_tt</text>
</g>
<!-- Node22&#45;&gt;Node25 -->
<g id="edge30" class="edge">
<title>Node22&#45;&gt;Node25</title>
<path fill="none" stroke="#9a32cd" stroke-dasharray="5,2" d="M826.96,-309.13C862.63,-274.99 949.62,-198.61 1040,-171 1126.29,-144.64 1152.91,-166.04 1243,-171 1311.76,-174.78 1348.75,-138.87 1397,-188 1427.49,-219.05 1386.36,-350.23 1415,-383 1421.29,-390.19 1429.7,-394.96 1438.75,-398.07"/>
<polygon fill="#9a32cd" stroke="#9a32cd" points="824.13,-307 819.4,-316.48 829.01,-312.02 824.13,-307"/>
<text text-anchor="middle" x="1141.5" y="-185" font-family="Helvetica,sans-Serif" font-size="10.00"> snes_x</text>
<text text-anchor="middle" x="1141.5" y="-174" font-family="Helvetica,sans-Serif" font-size="10.00">snes_f</text>
</g>
<!-- Node22&#45;&gt;Node28 -->
<g id="edge38" class="edge">
<title>Node22&#45;&gt;Node28</title>
<path fill="none" stroke="#9a32cd" stroke-dasharray="5,2" d="M823.65,-343.91C839.77,-365.78 866.48,-404.41 883,-441 894.81,-467.15 879.12,-484.43 901,-503 959.36,-552.53 1168.11,-528.17 1243,-544 1328.45,-562.07 1426.45,-595.97 1471.89,-612.48"/>
<polygon fill="#9a32cd" stroke="#9a32cd" points="826.24,-341.53 817.45,-335.61 820.63,-345.72 826.24,-341.53"/>
<text text-anchor="middle" x="1141.5" y="-580" font-family="Helvetica,sans-Serif" font-size="10.00"> ts_u</text>
<text text-anchor="middle" x="1141.5" y="-569" font-family="Helvetica,sans-Serif" font-size="10.00">ts_F</text>
<text text-anchor="middle" x="1141.5" y="-558" font-family="Helvetica,sans-Serif" font-size="10.00">ts_u_t</text>
<text text-anchor="middle" x="1141.5" y="-547" font-family="Helvetica,sans-Serif" font-size="10.00">ts_u_tt</text>
</g>
<!-- Node23 -->
<g id="node23" class="node">
<title>Node23</title>
<g id="a_node23"><a xlink:title=" ">
<polygon fill="white" stroke="#bfbfbf" points="1124,-383.5 1124,-402.5 1159,-402.5 1159,-383.5 1124,-383.5"/>
<text text-anchor="middle" x="1141.5" y="-390.5" font-family="Helvetica,sans-Serif" font-size="10.00">KSP</text>
</a>
</g>
</g>
<!-- Node23&#45;&gt;Node14 -->
<g id="edge22" class="edge">
<title>Node23&#45;&gt;Node14</title>
<path fill="none" stroke="#9a32cd" stroke-dasharray="5,2" d="M1169.25,-393.25C1215.95,-394.15 1315.18,-398.07 1397,-415 1405.26,-416.71 1406.88,-418.72 1415,-421 1427.03,-424.38 1440.16,-427.61 1452.34,-430.42"/>
<polygon fill="#9a32cd" stroke="#9a32cd" points="1169.12,-389.75 1159.07,-393.09 1169.01,-396.75 1169.12,-389.75"/>
<text text-anchor="middle" x="1329" y="-418" font-family="Helvetica,sans-Serif" font-size="10.00"> ksp</text>
</g>
<!-- Node24 -->
<g id="node24" class="node">
<title>Node24</title>
<g id="a_node24"><a xlink:title=" ">
<polygon fill="white" stroke="#bfbfbf" points="1104.5,-345.5 1104.5,-364.5 1178.5,-364.5 1178.5,-345.5 1104.5,-345.5"/>
<text text-anchor="middle" x="1141.5" y="-352.5" font-family="Helvetica,sans-Serif" font-size="10.00">KSPContext</text>
</a>
</g>
</g>
<!-- Node24&#45;&gt;Node14 -->
<g id="edge23" class="edge">
<title>Node24&#45;&gt;Node14</title>
<path fill="none" stroke="#9a32cd" stroke-dasharray="5,2" d="M1189,-347.14C1243.99,-340.51 1335.77,-338.1 1397,-382 1412.51,-393.12 1400.18,-408.96 1415,-421 1422.76,-427.3 1432.21,-431.6 1441.92,-434.51"/>
<polygon fill="#9a32cd" stroke="#9a32cd" points="1188.31,-343.7 1178.84,-348.47 1189.21,-350.64 1188.31,-343.7"/>
<text text-anchor="middle" x="1329" y="-385" font-family="Helvetica,sans-Serif" font-size="10.00"> ksp_ctx</text>
</g>
<!-- Node25&#45;&gt;Node13 -->
<g id="edge26" class="edge">
<title>Node25&#45;&gt;Node13</title>
<path fill="none" stroke="midnightblue" d="M1568.38,-398.02C1630.81,-398.13 1721.83,-408.09 1781,-458 1798.1,-472.42 1782.05,-490.4 1799,-505 1806.41,-511.39 1815.5,-515.77 1824.95,-518.75"/>
<polygon fill="midnightblue" stroke="midnightblue" points="1568.21,-394.52 1558.23,-398.08 1568.26,-401.52 1568.21,-394.52"/>
</g>
<!-- Node26 -->
<g id="node26" class="node">
<title>Node26</title>
<g id="a_node26"><a xlink:title=" ">
<polygon fill="white" stroke="#bfbfbf" points="1120.5,-202.5 1120.5,-221.5 1162.5,-221.5 1162.5,-202.5 1120.5,-202.5"/>
<text text-anchor="middle" x="1141.5" y="-209.5" font-family="Helvetica,sans-Serif" font-size="10.00">SNES</text>
</a>
</g>
</g>
<!-- Node26&#45;&gt;Node25 -->
<g id="edge28" class="edge">
<title>Node26&#45;&gt;Node25</title>
<path fill="none" stroke="#9a32cd" stroke-dasharray="5,2" d="M1172.56,-203.78C1225.72,-191.27 1336.39,-174.6 1397,-233 1445.35,-279.59 1370.13,-333.05 1415,-383 1421.38,-390.11 1429.85,-394.83 1438.92,-397.92"/>
<polygon fill="#9a32cd" stroke="#9a32cd" points="1171.6,-200.41 1162.73,-206.21 1173.28,-207.21 1171.6,-200.41"/>
<text text-anchor="middle" x="1329" y="-236" font-family="Helvetica,sans-Serif" font-size="10.00"> snes</text>
</g>
<!-- Node27 -->
<g id="node27" class="node">
<title>Node27</title>
<g id="a_node27"><a xlink:title=" ">
<polygon fill="white" stroke="#bfbfbf" points="1101.5,-106.5 1101.5,-125.5 1181.5,-125.5 1181.5,-106.5 1101.5,-106.5"/>
<text text-anchor="middle" x="1141.5" y="-113.5" font-family="Helvetica,sans-Serif" font-size="10.00">SNESContext</text>
</a>
</g>
</g>
<!-- Node27&#45;&gt;Node25 -->
<g id="edge31" class="edge">
<title>Node27&#45;&gt;Node25</title>
<path fill="none" stroke="#9a32cd" stroke-dasharray="5,2" d="M1191.8,-112.83C1257.66,-109.76 1369.31,-109.05 1397,-137 1435.58,-175.94 1379.32,-341.39 1415,-383 1421.22,-390.25 1429.6,-395.05 1438.64,-398.16"/>
<polygon fill="#9a32cd" stroke="#9a32cd" points="1191.45,-109.34 1181.64,-113.34 1191.8,-116.33 1191.45,-109.34"/>
<text text-anchor="middle" x="1329" y="-140" font-family="Helvetica,sans-Serif" font-size="10.00"> snes_ctx</text>
</g>
<!-- Node28&#45;&gt;Node13 -->
<g id="edge32" class="edge">
<title>Node28&#45;&gt;Node13</title>
<path fill="none" stroke="midnightblue" d="M1544.6,-609.86C1603.14,-594.19 1708.5,-566.3 1799,-544 1813.29,-540.48 1828.95,-536.79 1842.96,-533.55"/>
<polygon fill="midnightblue" stroke="midnightblue" points="1543.68,-606.48 1534.92,-612.45 1545.49,-613.25 1543.68,-606.48"/>
</g>
<!-- Node29 -->
<g id="node29" class="node">
<title>Node29</title>
<g id="a_node29"><a xlink:title=" ">
<polygon fill="white" stroke="#bfbfbf" points="1109,-673.5 1109,-692.5 1174,-692.5 1174,-673.5 1109,-673.5"/>
<text text-anchor="middle" x="1141.5" y="-680.5" font-family="Helvetica,sans-Serif" font-size="10.00">PetscReal</text>
</a>
</g>
</g>
<!-- Node29&#45;&gt;Node28 -->
<g id="edge35" class="edge">
<title>Node29&#45;&gt;Node28</title>
<path fill="none" stroke="#9a32cd" stroke-dasharray="5,2" d="M1184.26,-678.77C1234.88,-673.29 1322.65,-662.68 1397,-648 1419.81,-643.5 1445.15,-636.93 1464.68,-631.52"/>
<polygon fill="#9a32cd" stroke="#9a32cd" points="1183.61,-675.32 1174.04,-679.86 1184.35,-682.28 1183.61,-675.32"/>
<text text-anchor="middle" x="1329" y="-705" font-family="Helvetica,sans-Serif" font-size="10.00"> ts_a</text>
<text text-anchor="middle" x="1329" y="-694" font-family="Helvetica,sans-Serif" font-size="10.00">ts_t</text>
<text text-anchor="middle" x="1329" y="-683" font-family="Helvetica,sans-Serif" font-size="10.00">ts_dt</text>
<text text-anchor="middle" x="1329" y="-672" font-family="Helvetica,sans-Serif" font-size="10.00">ts_aa</text>
</g>
<!-- Node30 -->
<g id="node30" class="node">
<title>Node30</title>
<g id="a_node30"><a xlink:title=" ">
<polygon fill="white" stroke="#bfbfbf" points="1108,-635.5 1108,-654.5 1175,-654.5 1175,-635.5 1108,-635.5"/>
<text text-anchor="middle" x="1141.5" y="-642.5" font-family="Helvetica,sans-Serif" font-size="10.00">TSContext</text>
</a>
</g>
</g>
<!-- Node30&#45;&gt;Node28 -->
<g id="edge36" class="edge">
<title>Node30&#45;&gt;Node28</title>
<path fill="none" stroke="#9a32cd" stroke-dasharray="5,2" d="M1185.43,-642.06C1207.94,-640.53 1235.95,-638.64 1261,-637 1324.22,-632.86 1396.96,-628.27 1444.89,-625.28"/>
<polygon fill="#9a32cd" stroke="#9a32cd" points="1184.93,-638.59 1175.19,-642.76 1185.41,-645.57 1184.93,-638.59"/>
<text text-anchor="middle" x="1329" y="-640" font-family="Helvetica,sans-Serif" font-size="10.00"> ts_ctx</text>
</g>
<!-- Node31 -->
<g id="node31" class="node">
<title>Node31</title>
<g id="a_node31"><a xlink:title=" ">
<polygon fill="white" stroke="#bfbfbf" points="1113.5,-597.5 1113.5,-616.5 1169.5,-616.5 1169.5,-597.5 1113.5,-597.5"/>
<text text-anchor="middle" x="1141.5" y="-604.5" font-family="Helvetica,sans-Serif" font-size="10.00">PetscInt</text>
</a>
</g>
</g>
<!-- Node31&#45;&gt;Node28 -->
<g id="edge37" class="edge">
<title>Node31&#45;&gt;Node28</title>
<path fill="none" stroke="#9a32cd" stroke-dasharray="5,2" d="M1179.96,-603.87C1229.68,-600.29 1320.15,-595.8 1397,-603 1416.8,-604.86 1438.51,-608.72 1456.67,-612.49"/>
<polygon fill="#9a32cd" stroke="#9a32cd" points="1179.41,-600.4 1169.69,-604.63 1179.93,-607.38 1179.41,-600.4"/>
<text text-anchor="middle" x="1329" y="-606" font-family="Helvetica,sans-Serif" font-size="10.00"> ts_step</text>
</g>
<!-- Node32 -->
<g id="node32" class="node">
<title>Node32</title>
<g id="a_node32"><a xlink:title=" ">
<polygon fill="white" stroke="#bfbfbf" points="1127,-769.5 1127,-788.5 1156,-788.5 1156,-769.5 1127,-769.5"/>
<text text-anchor="middle" x="1141.5" y="-776.5" font-family="Helvetica,sans-Serif" font-size="10.00">TS</text>
</a>
</g>
</g>
<!-- Node32&#45;&gt;Node28 -->
<g id="edge39" class="edge">
<title>Node32&#45;&gt;Node28</title>
<path fill="none" stroke="#9a32cd" stroke-dasharray="5,2" d="M1166.53,-775.78C1228.02,-767.48 1386.94,-745.61 1397,-740 1444.71,-713.4 1479.95,-654.79 1492.5,-631.66"/>
<polygon fill="#9a32cd" stroke="#9a32cd" points="1165.69,-772.36 1156.24,-777.16 1166.62,-779.3 1165.69,-772.36"/>
<text text-anchor="middle" x="1329" y="-765" font-family="Helvetica,sans-Serif" font-size="10.00"> ts</text>
</g>
<!-- Node33 -->
<g id="node33" class="node">
<title>Node33</title>
<g id="a_node33"><a xlink:title=" ">
<polygon fill="white" stroke="#bfbfbf" points="1454,-354.5 1454,-373.5 1543,-373.5 1543,-354.5 1454,-354.5"/>
<text text-anchor="middle" x="1498.5" y="-361.5" font-family="Helvetica,sans-Serif" font-size="10.00">pair&lt; int, int &gt;</text>
</a>
</g>
</g>
<!-- Node33&#45;&gt;Node13 -->
<g id="edge41" class="edge">
<title>Node33&#45;&gt;Node13</title>
<path fill="none" stroke="#9a32cd" stroke-dasharray="5,2" d="M1553.36,-360.17C1625.75,-356.27 1749.05,-354.41 1781,-384 1820.89,-420.94 1761.92,-465.24 1799,-505 1805.88,-512.38 1814.93,-517.22 1824.58,-520.33"/>
<polygon fill="#9a32cd" stroke="#9a32cd" points="1552.85,-356.69 1543.07,-360.76 1553.25,-363.68 1552.85,-356.69"/>
<text text-anchor="middle" x="1690.5" y="-387" font-family="Helvetica,sans-Serif" font-size="10.00"> loHiFERank</text>
</g>
<!-- Node34 -->
<g id="node34" class="node">
<title>Node34</title>
<g id="a_node34"><a xlink:title=" ">
<polygon fill="white" stroke="#bfbfbf" points="1428.5,-316.5 1428.5,-335.5 1568.5,-335.5 1568.5,-316.5 1428.5,-316.5"/>
<text text-anchor="middle" x="1498.5" y="-323.5" font-family="Helvetica,sans-Serif" font-size="10.00">weak_ptr&lt; CacheTuple &gt;</text>
</a>
</g>
</g>
<!-- Node34&#45;&gt;Node13 -->
<g id="edge42" class="edge">
<title>Node34&#45;&gt;Node13</title>
<path fill="none" stroke="#9a32cd" stroke-dasharray="5,2" d="M1578.93,-319.87C1651.92,-316.12 1752.92,-316.3 1781,-343 1807.25,-367.96 1774.79,-478.06 1799,-505 1805.85,-512.62 1815,-517.55 1824.79,-520.68"/>
<polygon fill="#9a32cd" stroke="#9a32cd" points="1578.62,-316.38 1568.83,-320.42 1579,-323.37 1578.62,-316.38"/>
<text text-anchor="middle" x="1690.5" y="-346" font-family="Helvetica,sans-Serif" font-size="10.00"> cacheWeakPtr</text>
</g>
<!-- Node35 -->
<g id="node35" class="node">
<title>Node35</title>
<g id="a_node35"><a xlink:title=" ">
<polygon fill="white" stroke="#bfbfbf" points="1442.5,-273.5 1442.5,-292.5 1554.5,-292.5 1554.5,-273.5 1442.5,-273.5"/>
<text text-anchor="middle" x="1498.5" y="-280.5" font-family="Helvetica,sans-Serif" font-size="10.00">unique_ptr&lt; bool &gt;</text>
</a>
</g>
</g>
<!-- Node35&#45;&gt;Node13 -->
<g id="edge43" class="edge">
<title>Node35&#45;&gt;Node13</title>
<path fill="none" stroke="#9a32cd" stroke-dasharray="5,2" d="M1537.03,-270.4C1597.24,-252.83 1715.28,-229.64 1781,-292 1815.46,-324.7 1767.72,-469.25 1799,-505 1805.75,-512.71 1814.85,-517.69 1824.62,-520.83"/>
<polygon fill="#9a32cd" stroke="#9a32cd" points="1535.75,-267.14 1527.19,-273.38 1537.77,-273.84 1535.75,-267.14"/>
<text text-anchor="middle" x="1690.5" y="-306" font-family="Helvetica,sans-Serif" font-size="10.00"> matAssembleSwitch</text>
<text text-anchor="middle" x="1690.5" y="-295" font-family="Helvetica,sans-Serif" font-size="10.00">vecAssembleSwitch</text>
</g>
<!-- Node36 -->
<g id="node36" class="node">
<title>Node36</title>
<g id="a_node36"><a xlink:title=" ">
<polygon fill="white" stroke="#bfbfbf" points="1127,-809.5 1127,-828.5 1156,-828.5 1156,-809.5 1127,-809.5"/>
<text text-anchor="middle" x="1141.5" y="-816.5" font-family="Helvetica,sans-Serif" font-size="10.00">int</text>
</a>
</g>
</g>
<!-- Node36&#45;&gt;Node13 -->
<g id="edge44" class="edge">
<title>Node36&#45;&gt;Node13</title>
<path fill="none" stroke="#9a32cd" stroke-dasharray="5,2" d="M1166.26,-815.67C1220.89,-807.89 1354.01,-788.06 1397,-774 1577.79,-714.85 1649.47,-722.41 1781,-585 1794.76,-570.62 1783.69,-556.71 1799,-544 1806.43,-537.83 1815.41,-533.49 1824.73,-530.45"/>
<polygon fill="#9a32cd" stroke="#9a32cd" points="1165.55,-812.24 1156.14,-817.11 1166.54,-819.17 1165.55,-812.24"/>
<text text-anchor="middle" x="1498.5" y="-802" font-family="Helvetica,sans-Serif" font-size="10.00"> sIze</text>
<text text-anchor="middle" x="1498.5" y="-791" font-family="Helvetica,sans-Serif" font-size="10.00">loopSize</text>
<text text-anchor="middle" x="1498.5" y="-780" font-family="Helvetica,sans-Serif" font-size="10.00">nInTheLoop</text>
<text text-anchor="middle" x="1498.5" y="-769" font-family="Helvetica,sans-Serif" font-size="10.00">rAnk</text>
</g>
<!-- Node36&#45;&gt;Node38 -->
<g id="edge56" class="edge">
<title>Node36&#45;&gt;Node38</title>
<path fill="none" stroke="#9a32cd" stroke-dasharray="5,2" d="M1166.11,-815.55C1222.12,-807.91 1361.03,-792.23 1397,-819 1419.34,-835.62 1405.41,-852.86 1415,-879 1440.76,-949.25 1479.45,-1030.77 1492.78,-1058.33"/>
<polygon fill="#9a32cd" stroke="#9a32cd" points="1165.48,-812.11 1156.07,-816.96 1166.46,-819.04 1165.48,-812.11"/>
<text text-anchor="middle" x="1329" y="-888" font-family="Helvetica,sans-Serif" font-size="10.00"> tagNameSize</text>
<text text-anchor="middle" x="1329" y="-877" font-family="Helvetica,sans-Serif" font-size="10.00">nbDofsRow</text>
<text text-anchor="middle" x="1329" y="-866" font-family="Helvetica,sans-Serif" font-size="10.00">nbLocDofsCol</text>
<text text-anchor="middle" x="1329" y="-855" font-family="Helvetica,sans-Serif" font-size="10.00">nbDofsCol</text>
<text text-anchor="middle" x="1329" y="-844" font-family="Helvetica,sans-Serif" font-size="10.00">nbGhostDofsRow</text>
<text text-anchor="middle" x="1329" y="-833" font-family="Helvetica,sans-Serif" font-size="10.00">nbGhostDofsCol</text>
<text text-anchor="middle" x="1329" y="-822" font-family="Helvetica,sans-Serif" font-size="10.00">nbLocDofsRow</text>
</g>
<!-- Node37 -->
<g id="node37" class="node">
<title>Node37</title>
<g id="a_node37"><a xlink:title=" ">
<polygon fill="white" stroke="#bfbfbf" points="1415,-850.5 1415,-869.5 1582,-869.5 1582,-850.5 1415,-850.5"/>
<text text-anchor="middle" x="1498.5" y="-857.5" font-family="Helvetica,sans-Serif" font-size="10.00">function&lt; MoFEMErrorCode()&gt;</text>
</a>
</g>
</g>
<!-- Node37&#45;&gt;Node13 -->
<g id="edge45" class="edge">
<title>Node37&#45;&gt;Node13</title>
<path fill="none" stroke="#9a32cd" stroke-dasharray="5,2" d="M1592.56,-867.45C1655.45,-866.95 1735.1,-854.48 1781,-802 1818.84,-758.74 1761.71,-587.74 1799,-544 1805.76,-536.07 1815,-530.94 1824.92,-527.68"/>
<polygon fill="#9a32cd" stroke="#9a32cd" points="1592.23,-863.95 1582.22,-867.43 1592.22,-870.95 1592.23,-863.95"/>
<text text-anchor="middle" x="1690.5" y="-892" font-family="Helvetica,sans-Serif" font-size="10.00"> preProcessHook</text>
<text text-anchor="middle" x="1690.5" y="-881" font-family="Helvetica,sans-Serif" font-size="10.00">operatorHook</text>
<text text-anchor="middle" x="1690.5" y="-870" font-family="Helvetica,sans-Serif" font-size="10.00">postProcessHook</text>
</g>
<!-- Node38&#45;&gt;Node13 -->
<g id="edge46" class="edge">
<title>Node38&#45;&gt;Node13</title>
<path fill="none" stroke="#9a32cd" stroke-dasharray="5,2" d="M1547.28,-1055.59C1612.88,-1035.75 1728.64,-990.06 1781,-904 1801.82,-869.79 1773.32,-574.73 1799,-544 1805.68,-536 1814.89,-530.84 1824.79,-527.58"/>
<polygon fill="#9a32cd" stroke="#9a32cd" points="1546.2,-1052.26 1537.59,-1058.45 1548.17,-1058.98 1546.2,-1052.26"/>
<text text-anchor="middle" x="1690.5" y="-1038" font-family="Helvetica,sans-Serif" font-size="10.00"> problemPtr</text>
</g>
<!-- Node39 -->
<g id="node39" class="node">
<title>Node39</title>
<g id="a_node39"><a xlink:title=" ">
<polygon fill="white" stroke="#bfbfbf" points="1058,-883 1058,-913 1225,-913 1225,-883 1058,-883"/>
<text text-anchor="start" x="1066" y="-901" font-family="Helvetica,sans-Serif" font-size="10.00">shared_ptr&lt; NumeredEntFinite</text>
<text text-anchor="middle" x="1141.5" y="-890" font-family="Helvetica,sans-Serif" font-size="10.00">Element_multiIndex &gt;</text>
</a>
</g>
</g>
<!-- Node39&#45;&gt;Node38 -->
<g id="edge47" class="edge">
<title>Node39&#45;&gt;Node38</title>
<path fill="none" stroke="#9a32cd" stroke-dasharray="5,2" d="M1235.14,-899.46C1296.39,-901.92 1370.16,-908.22 1397,-924 1451.92,-956.3 1484.15,-1031.84 1494.14,-1058.49"/>
<polygon fill="#9a32cd" stroke="#9a32cd" points="1235.17,-895.96 1225.04,-899.08 1234.9,-902.95 1235.17,-895.96"/>
<text text-anchor="middle" x="1329" y="-927" font-family="Helvetica,sans-Serif" font-size="10.00"> numeredFiniteElementsPtr</text>
</g>
<!-- Node40 -->
<g id="node40" class="node">
<title>Node40</title>
<g id="a_node40"><a xlink:title=" ">
<polygon fill="white" stroke="#bfbfbf" points="1112,-1272.5 1112,-1291.5 1171,-1291.5 1171,-1272.5 1112,-1272.5"/>
<text text-anchor="middle" x="1141.5" y="-1279.5" font-family="Helvetica,sans-Serif" font-size="10.00">BitFEId *</text>
</a>
</g>
</g>
<!-- Node40&#45;&gt;Node38 -->
<g id="edge48" class="edge">
<title>Node40&#45;&gt;Node38</title>
<path fill="none" stroke="#9a32cd" stroke-dasharray="5,2" d="M1181.49,-1277.4C1250.59,-1269.12 1388.19,-1252.01 1397,-1246 1459.44,-1203.4 1487.55,-1108.46 1495.23,-1077.77"/>
<polygon fill="#9a32cd" stroke="#9a32cd" points="1180.93,-1273.94 1171.41,-1278.6 1181.76,-1280.89 1180.93,-1273.94"/>
<text text-anchor="middle" x="1329" y="-1270" font-family="Helvetica,sans-Serif" font-size="10.00"> tagBitFEId</text>
</g>
<!-- Node41 -->
<g id="node41" class="node">
<title>Node41</title>
<g id="a_node41"><a xlink:href="classEntityHandle.html" target="_top" xlink:title=" ">
<polygon fill="white" stroke="black" points="1101.5,-1234.5 1101.5,-1253.5 1181.5,-1253.5 1181.5,-1234.5 1101.5,-1234.5"/>
<text text-anchor="middle" x="1141.5" y="-1241.5" font-family="Helvetica,sans-Serif" font-size="10.00">EntityHandle</text>
</a>
</g>
</g>
<!-- Node41&#45;&gt;Node38 -->
<g id="edge49" class="edge">
<title>Node41&#45;&gt;Node38</title>
<path fill="none" stroke="#9a32cd" stroke-dasharray="5,2" d="M1191.93,-1239.74C1260.98,-1233.47 1379.84,-1221.37 1397,-1211 1451.02,-1178.36 1483.6,-1104.36 1493.92,-1077.75"/>
<polygon fill="#9a32cd" stroke="#9a32cd" points="1191.35,-1236.28 1181.7,-1240.66 1191.98,-1243.25 1191.35,-1236.28"/>
<text text-anchor="middle" x="1329" y="-1235" font-family="Helvetica,sans-Serif" font-size="10.00"> meshset</text>
</g>
<!-- Node42 -->
<g id="node42" class="node">
<title>Node42</title>
<g id="a_node42"><a xlink:title=" ">
<polygon fill="white" stroke="#bfbfbf" points="1067,-1185 1067,-1215 1216,-1215 1216,-1185 1067,-1185"/>
<text text-anchor="start" x="1075" y="-1203" font-family="Helvetica,sans-Serif" font-size="10.00">shared_ptr&lt; MoFEM::</text>
<text text-anchor="middle" x="1141.5" y="-1192" font-family="Helvetica,sans-Serif" font-size="10.00">ComposedProblemsData &gt;</text>
</a>
</g>
</g>
<!-- Node42&#45;&gt;Node38 -->
<g id="edge50" class="edge">
<title>Node42&#45;&gt;Node38</title>
<path fill="none" stroke="#9a32cd" stroke-dasharray="5,2" d="M1226.53,-1198.06C1288.85,-1195.46 1367.85,-1189.34 1397,-1175 1442.96,-1152.38 1478.7,-1099.32 1491.94,-1077.56"/>
<polygon fill="#9a32cd" stroke="#9a32cd" points="1226.14,-1194.58 1216.29,-1198.47 1226.42,-1201.57 1226.14,-1194.58"/>
<text text-anchor="middle" x="1329" y="-1199" font-family="Helvetica,sans-Serif" font-size="10.00"> composedProblemsData</text>
</g>
<!-- Node43 -->
<g id="node43" class="node">
<title>Node43</title>
<g id="a_node43"><a xlink:title=" ">
<polygon fill="white" stroke="#bfbfbf" points="1101,-1146.5 1101,-1165.5 1182,-1165.5 1182,-1146.5 1101,-1146.5"/>
<text text-anchor="middle" x="1141.5" y="-1153.5" font-family="Helvetica,sans-Serif" font-size="10.00">BitRefLevel *</text>
</a>
</g>
</g>
<!-- Node43&#45;&gt;Node38 -->
<g id="edge51" class="edge">
<title>Node43&#45;&gt;Node38</title>
<path fill="none" stroke="#9a32cd" stroke-dasharray="5,2" d="M1192.33,-1155.32C1244.55,-1153.33 1328.37,-1146.49 1397,-1124 1430.6,-1112.99 1465.78,-1090.43 1484.29,-1077.56"/>
<polygon fill="#9a32cd" stroke="#9a32cd" points="1192.2,-1151.82 1182.32,-1155.66 1192.44,-1158.82 1192.2,-1151.82"/>
<text text-anchor="middle" x="1329" y="-1163" font-family="Helvetica,sans-Serif" font-size="10.00"> tagBitRefLevelMask</text>
<text text-anchor="middle" x="1329" y="-1152" font-family="Helvetica,sans-Serif" font-size="10.00">tagBitRefLevel</text>
</g>
<!-- Node44 -->
<g id="node44" class="node">
<title>Node44</title>
<g id="a_node44"><a xlink:title=" ">
<polygon fill="white" stroke="#bfbfbf" points="1056.5,-1097 1056.5,-1127 1226.5,-1127 1226.5,-1097 1056.5,-1097"/>
<text text-anchor="start" x="1064.5" y="-1115" font-family="Helvetica,sans-Serif" font-size="10.00">shared_ptr&lt; NumeredDofEntity</text>
<text text-anchor="middle" x="1141.5" y="-1104" font-family="Helvetica,sans-Serif" font-size="10.00">_multiIndex &gt;</text>
</a>
</g>
</g>
<!-- Node44&#45;&gt;Node38 -->
<g id="edge52" class="edge">
<title>Node44&#45;&gt;Node38</title>
<path fill="none" stroke="#9a32cd" stroke-dasharray="5,2" d="M1236.63,-1102.06C1284.67,-1096.79 1344,-1089.97 1397,-1083 1413.97,-1080.77 1432.5,-1078.07 1448.99,-1075.59"/>
<polygon fill="#9a32cd" stroke="#9a32cd" points="1236.12,-1098.6 1226.55,-1103.16 1236.88,-1105.56 1236.12,-1098.6"/>
<text text-anchor="middle" x="1329" y="-1112" font-family="Helvetica,sans-Serif" font-size="10.00"> numeredRowDofsPtr</text>
<text text-anchor="middle" x="1329" y="-1101" font-family="Helvetica,sans-Serif" font-size="10.00">numeredColDofsPtr</text>
</g>
<!-- Node45 -->
<g id="node45" class="node">
<title>Node45</title>
<g id="a_node45"><a xlink:title=" ">
<polygon fill="white" stroke="#bfbfbf" points="1072.5,-1058.5 1072.5,-1077.5 1210.5,-1077.5 1210.5,-1058.5 1072.5,-1058.5"/>
<text text-anchor="middle" x="1141.5" y="-1065.5" font-family="Helvetica,sans-Serif" font-size="10.00">vector&lt; BlockFieldPair &gt;</text>
</a>
</g>
</g>
<!-- Node45&#45;&gt;Node38 -->
<g id="edge54" class="edge">
<title>Node45&#45;&gt;Node38</title>
<path fill="none" stroke="#9a32cd" stroke-dasharray="5,2" d="M1220.57,-1068C1290.2,-1068 1389.95,-1068 1448.8,-1068"/>
<polygon fill="#9a32cd" stroke="#9a32cd" points="1220.53,-1064.5 1210.53,-1068 1220.53,-1071.5 1220.53,-1064.5"/>
<text text-anchor="middle" x="1329" y="-1071" font-family="Helvetica,sans-Serif" font-size="10.00"> emptyFieldBlocks</text>
</g>
<!-- Node46 -->
<g id="node46" class="node">
<title>Node46</title>
<g id="a_node46"><a xlink:title=" ">
<polygon fill="white" stroke="#bfbfbf" points="1063.5,-1009 1063.5,-1039 1219.5,-1039 1219.5,-1009 1063.5,-1009"/>
<text text-anchor="start" x="1071.5" y="-1027" font-family="Helvetica,sans-Serif" font-size="10.00">shared_ptr&lt; MoFEM::</text>
<text text-anchor="middle" x="1141.5" y="-1016" font-family="Helvetica,sans-Serif" font-size="10.00">Problem::SubProblemData &gt;</text>
</a>
</g>
</g>
<!-- Node46&#45;&gt;Node38 -->
<g id="edge55" class="edge">
<title>Node46&#45;&gt;Node38</title>
<path fill="none" stroke="#9a32cd" stroke-dasharray="5,2" d="M1229.68,-1033.18C1278.86,-1038.54 1341.42,-1045.69 1397,-1053 1413.97,-1055.23 1432.5,-1057.93 1448.99,-1060.41"/>
<polygon fill="#9a32cd" stroke="#9a32cd" points="1230.03,-1029.7 1219.71,-1032.09 1229.27,-1036.65 1230.03,-1029.7"/>
<text text-anchor="middle" x="1329" y="-1056" font-family="Helvetica,sans-Serif" font-size="10.00"> subProblemData</text>
</g>
<!-- Node47 -->
<g id="node47" class="node">
<title>Node47</title>
<g id="a_node47"><a xlink:title=" ">
<polygon fill="white" stroke="#bfbfbf" points="1040,-970.5 1040,-989.5 1243,-989.5 1243,-970.5 1040,-970.5"/>
<text text-anchor="middle" x="1141.5" y="-977.5" font-family="Helvetica,sans-Serif" font-size="10.00">shared_ptr&lt; SequenceDofContainer &gt;</text>
</a>
</g>
</g>
<!-- Node47&#45;&gt;Node38 -->
<g id="edge57" class="edge">
<title>Node47&#45;&gt;Node38</title>
<path fill="none" stroke="#9a32cd" stroke-dasharray="5,2" d="M1253.46,-984C1298.84,-988.06 1351.32,-995.93 1397,-1011 1430.91,-1022.18 1466.25,-1045.37 1484.64,-1058.46"/>
<polygon fill="#9a32cd" stroke="#9a32cd" points="1253.55,-980.49 1243.29,-983.14 1252.96,-987.47 1253.55,-980.49"/>
<text text-anchor="middle" x="1329" y="-1025" font-family="Helvetica,sans-Serif" font-size="10.00"> sequenceRowDofContainer</text>
<text text-anchor="middle" x="1329" y="-1014" font-family="Helvetica,sans-Serif" font-size="10.00">sequenceColDofContainer</text>
</g>
<!-- Node48 -->
<g id="node48" class="node">
<title>Node48</title>
<g id="a_node48"><a xlink:title=" ">
<polygon fill="white" stroke="#bfbfbf" points="1097.5,-932.5 1097.5,-951.5 1185.5,-951.5 1185.5,-932.5 1097.5,-932.5"/>
<text text-anchor="middle" x="1141.5" y="-939.5" font-family="Helvetica,sans-Serif" font-size="10.00">BitProblemId *</text>
</a>
</g>
</g>
<!-- Node48&#45;&gt;Node38 -->
<g id="edge58" class="edge">
<title>Node48&#45;&gt;Node38</title>
<path fill="none" stroke="#9a32cd" stroke-dasharray="5,2" d="M1196.05,-938.04C1249.52,-936.29 1332.75,-939.66 1397,-970 1440.63,-990.6 1476.89,-1037.96 1491.08,-1058.36"/>
<polygon fill="#9a32cd" stroke="#9a32cd" points="1195.62,-934.56 1185.77,-938.45 1195.9,-941.55 1195.62,-934.56"/>
<text text-anchor="middle" x="1329" y="-973" font-family="Helvetica,sans-Serif" font-size="10.00"> tagId</text>
</g>
<!-- Node49 -->
<g id="node49" class="node">
<title>Node49</title>
<g id="a_node49"><a xlink:title=" ">
<polygon fill="white" stroke="#bfbfbf" points="1805,-465 1805,-495 1967,-495 1967,-465 1805,-465"/>
<text text-anchor="start" x="1813" y="-483" font-family="Helvetica,sans-Serif" font-size="10.00">shared_ptr&lt; const MoFEM</text>
<text text-anchor="middle" x="1886" y="-472" font-family="Helvetica,sans-Serif" font-size="10.00">::NumeredEntFiniteElement &gt;</text>
</a>
</g>
</g>
<!-- Node49&#45;&gt;Node12 -->
<g id="edge59" class="edge">
<title>Node49&#45;&gt;Node12</title>
<path fill="none" stroke="#9a32cd" stroke-dasharray="5,2" d="M1977.32,-487.77C2024.34,-491.87 2082.78,-497.07 2135,-502 2157.1,-504.08 2181.47,-506.5 2202.44,-508.62"/>
<polygon fill="#9a32cd" stroke="#9a32cd" points="1977.42,-484.26 1967.16,-486.88 1976.82,-491.24 1977.42,-484.26"/>
<text text-anchor="middle" x="2063" y="-505" font-family="Helvetica,sans-Serif" font-size="10.00"> numeredEntFiniteElementPtr</text>
</g>
<!-- Node50 -->
<g id="node50" class="node">
<title>Node50</title>
<g id="a_node50"><a xlink:title=" ">
<polygon fill="white" stroke="#bfbfbf" points="1864,-292.5 1864,-311.5 1908,-311.5 1908,-292.5 1864,-292.5"/>
<text text-anchor="middle" x="1886" y="-299.5" font-family="Helvetica,sans-Serif" font-size="10.00">string</text>
</a>
</g>
</g>
<!-- Node50&#45;&gt;Node3 -->
<g id="edge82" class="edge">
<title>Node50&#45;&gt;Node3</title>
<path fill="none" stroke="#9a32cd" stroke-dasharray="5,2" d="M1918.57,-300.52C2041.4,-294.96 2483.31,-277.11 2539,-305 2784.61,-428.02 2749.9,-590.14 2819,-856 2865.29,-1034.1 2907.19,-1253.79 2918.19,-1312.81"/>
<polygon fill="#9a32cd" stroke="#9a32cd" points="1918.17,-297.03 1908.34,-300.98 1918.49,-304.02 1918.17,-297.03"/>
<text text-anchor="middle" x="2458" y="-319" font-family="Helvetica,sans-Serif" font-size="10.00"> colFieldName</text>
<text text-anchor="middle" x="2458" y="-308" font-family="Helvetica,sans-Serif" font-size="10.00">rowFieldName</text>
</g>
<!-- Node50&#45;&gt;Node12 -->
<g id="edge60" class="edge">
<title>Node50&#45;&gt;Node12</title>
<path fill="none" stroke="#9a32cd" stroke-dasharray="5,2" d="M1895.09,-320.87C1909.51,-352.07 1942.71,-414.03 1991,-445 2045.95,-480.25 2071.91,-457.2 2135,-474 2168.1,-482.82 2205.42,-495.74 2229.53,-504.49"/>
<polygon fill="#9a32cd" stroke="#9a32cd" points="1898.21,-319.26 1890.93,-311.56 1891.81,-322.12 1898.21,-319.26"/>
<text text-anchor="middle" x="2063" y="-477" font-family="Helvetica,sans-Serif" font-size="10.00"> feName</text>
</g>
<!-- Node72 -->
<g id="node72" class="node">
<title>Node72</title>
<g id="a_node72"><a xlink:href="structNonlinearElasticElement_1_1CommonData.html" target="_top" xlink:title="common data used by volume elements">
<polygon fill="white" stroke="black" points="2187.5,-163 2187.5,-193 2324.5,-193 2324.5,-163 2187.5,-163"/>
<text text-anchor="start" x="2195.5" y="-181" font-family="Helvetica,sans-Serif" font-size="10.00">NonlinearElasticElement</text>
<text text-anchor="middle" x="2256" y="-170" font-family="Helvetica,sans-Serif" font-size="10.00">::CommonData</text>
</a>
</g>
</g>
<!-- Node50&#45;&gt;Node72 -->
<g id="edge90" class="edge">
<title>Node50&#45;&gt;Node72</title>
<path fill="none" stroke="#9a32cd" stroke-dasharray="5,2" d="M1917.62,-289.82C1938.11,-282.06 1965.84,-272.31 1991,-266 2053.86,-250.23 2073.63,-263.84 2135,-243 2171.12,-230.73 2209.27,-208.19 2232.61,-193.14"/>
<polygon fill="#9a32cd" stroke="#9a32cd" points="1916.26,-286.59 1908.18,-293.44 1918.77,-293.12 1916.26,-286.59"/>
<text text-anchor="middle" x="2063" y="-280" font-family="Helvetica,sans-Serif" font-size="10.00"> meshPositions</text>
<text text-anchor="middle" x="2063" y="-269" font-family="Helvetica,sans-Serif" font-size="10.00">spatialPositions</text>
</g>
<!-- Node51 -->
<g id="node51" class="node">
<title>Node51</title>
<g id="a_node51"><a xlink:title=" ">
<polygon fill="white" stroke="#bfbfbf" points="1804.5,-553 1804.5,-583 1967.5,-583 1967.5,-553 1804.5,-553"/>
<text text-anchor="start" x="1812.5" y="-571" font-family="Helvetica,sans-Serif" font-size="10.00">function&lt; bool(MoFEM</text>
<text text-anchor="middle" x="1886" y="-560" font-family="Helvetica,sans-Serif" font-size="10.00">::FEMethod *fe_method_ptr)&gt;</text>
</a>
</g>
</g>
<!-- Node51&#45;&gt;Node12 -->
<g id="edge61" class="edge">
<title>Node51&#45;&gt;Node12</title>
<path fill="none" stroke="#9a32cd" stroke-dasharray="5,2" d="M1977.89,-555.55C2024.83,-549.02 2083.02,-540.78 2135,-533 2157.11,-529.69 2181.49,-525.86 2202.46,-522.52"/>
<polygon fill="#9a32cd" stroke="#9a32cd" points="1977.17,-552.11 1967.75,-556.95 1978.13,-559.05 1977.17,-552.11"/>
<text text-anchor="middle" x="2063" y="-556" font-family="Helvetica,sans-Serif" font-size="10.00"> exeTestHook</text>
</g>
<!-- Node52 -->
<g id="node52" class="node">
<title>Node52</title>
<g id="a_node52"><a xlink:href="classdouble.html" target="_top" xlink:title=" ">
<polygon fill="white" stroke="black" points="2231,-428.5 2231,-447.5 2281,-447.5 2281,-428.5 2231,-428.5"/>
<text text-anchor="middle" x="2256" y="-435.5" font-family="Helvetica,sans-Serif" font-size="10.00">double</text>
</a>
</g>
</g>
<!-- Node52&#45;&gt;Node11 -->
<g id="edge62" class="edge">
<title>Node52&#45;&gt;Node11</title>
<path fill="none" stroke="#9a32cd" stroke-dasharray="5,2" d="M2291.23,-431.16C2346.58,-421.88 2457.73,-410.71 2539,-451 2589.71,-476.14 2624.61,-539.25 2636.51,-563.4"/>
<polygon fill="#9a32cd" stroke="#9a32cd" points="2290.49,-427.74 2281.25,-432.92 2291.7,-434.63 2290.49,-427.74"/>
<text text-anchor="middle" x="2458" y="-454" font-family="Helvetica,sans-Serif" font-size="10.00"> elementMeasure</text>
</g>
<!-- Node53 -->
<g id="node53" class="node">
<title>Node53</title>
<g id="a_node53"><a xlink:title=" ">
<polygon fill="white" stroke="#bfbfbf" points="2170,-368.5 2170,-409.5 2342,-409.5 2342,-368.5 2170,-368.5"/>
<text text-anchor="start" x="2178" y="-397.5" font-family="Helvetica,sans-Serif" font-size="10.00">array&lt; boost::shared</text>
<text text-anchor="start" x="2178" y="-386.5" font-family="Helvetica,sans-Serif" font-size="10.00">_ptr&lt; MoFEM::EntitiesFieldData</text>
<text text-anchor="middle" x="2256" y="-375.5" font-family="Helvetica,sans-Serif" font-size="10.00"> &gt;, LASTSPACE &gt;</text>
</a>
</g>
</g>
<!-- Node53&#45;&gt;Node11 -->
<g id="edge63" class="edge">
<title>Node53&#45;&gt;Node11</title>
<path fill="none" stroke="#9a32cd" stroke-dasharray="5,2" d="M2352.5,-369.06C2410.38,-362.14 2483.5,-363 2539,-396 2604.24,-434.79 2631.68,-532.41 2638.93,-563.4"/>
<polygon fill="#9a32cd" stroke="#9a32cd" points="2351.72,-365.63 2342.25,-370.38 2352.61,-372.57 2351.72,-365.63"/>
<text text-anchor="middle" x="2458" y="-410" font-family="Helvetica,sans-Serif" font-size="10.00"> derivedDataOnElement</text>
<text text-anchor="middle" x="2458" y="-399" font-family="Helvetica,sans-Serif" font-size="10.00">dataOnElement</text>
</g>
<!-- Node54 -->
<g id="node54" class="node">
<title>Node54</title>
<g id="a_node54"><a xlink:title=" ">
<polygon fill="white" stroke="#bfbfbf" points="2222,-330.5 2222,-349.5 2290,-349.5 2290,-330.5 2222,-330.5"/>
<text text-anchor="middle" x="2256" y="-337.5" font-family="Helvetica,sans-Serif" font-size="10.00">EntityType</text>
</a>
</g>
</g>
<!-- Node54&#45;&gt;Node11 -->
<g id="edge64" class="edge">
<title>Node54&#45;&gt;Node11</title>
<path fill="none" stroke="#9a32cd" stroke-dasharray="5,2" d="M2300.27,-336.16C2369.48,-330.88 2501.12,-324.71 2539,-350 2616.19,-401.53 2635.88,-527.01 2640.03,-563.12"/>
<polygon fill="#9a32cd" stroke="#9a32cd" points="2299.83,-332.68 2290.13,-336.96 2300.38,-339.66 2299.83,-332.68"/>
<text text-anchor="middle" x="2458" y="-353" font-family="Helvetica,sans-Serif" font-size="10.00"> lastEvaluatedElementEntityType</text>
</g>
<!-- Node55 -->
<g id="node55" class="node">
<title>Node55</title>
<g id="a_node55"><a xlink:href="structMoFEM_1_1DeprecatedCoreInterface.html" target="_top" xlink:title="Deprecated interface functions.">
<polygon fill="white" stroke="black" points="1600,-0.5 1600,-19.5 1781,-19.5 1781,-0.5 1600,-0.5"/>
<text text-anchor="middle" x="1690.5" y="-7.5" font-family="Helvetica,sans-Serif" font-size="10.00">MoFEM::DeprecatedCoreInterface</text>
</a>
</g>
</g>
<!-- Node55&#45;&gt;Node11 -->
<g id="edge65" class="edge">
<title>Node55&#45;&gt;Node11</title>
<path fill="none" stroke="#9a32cd" stroke-dasharray="5,2" d="M1782.44,-27.93C1819.46,-90.95 1760.55,-271.06 1799,-321 1894.94,-445.62 2008.19,-338.97 2135,-432 2146.04,-440.1 2141.32,-449.85 2153,-457 2227.01,-502.3 2456.93,-487.83 2539,-516 2572.96,-527.66 2608.72,-550.44 2627.56,-563.4"/>
<polygon fill="#9a32cd" stroke="#9a32cd" points="1784.99,-25.5 1776.25,-19.51 1779.35,-29.64 1784.99,-25.5"/>
<text text-anchor="middle" x="2063" y="-435" font-family="Helvetica,sans-Serif" font-size="10.00"> mField</text>
</g>
<!-- Node56&#45;&gt;Node55 -->
<g id="edge66" class="edge">
<title>Node56&#45;&gt;Node55</title>
<path fill="none" stroke="midnightblue" d="M1214.17,-68.22C1317.01,-55.62 1505.71,-32.51 1611.8,-19.52"/>
<polygon fill="midnightblue" stroke="midnightblue" points="1213.68,-64.75 1204.18,-69.44 1214.54,-71.7 1213.68,-64.75"/>
</g>
<!-- Node57 -->
<g id="node57" class="node">
<title>Node57</title>
<g id="a_node57"><a xlink:title=" ">
<polygon fill="white" stroke="#bfbfbf" points="2172.5,-740 2172.5,-792 2339.5,-792 2339.5,-740 2172.5,-740"/>
<text text-anchor="start" x="2180.5" y="-780" font-family="Helvetica,sans-Serif" font-size="10.00">function&lt; MoFEMErrorCode</text>
<text text-anchor="start" x="2180.5" y="-769" font-family="Helvetica,sans-Serif" font-size="10.00">(ForcesAndSourcesCore *fe</text>
<text text-anchor="start" x="2180.5" y="-758" font-family="Helvetica,sans-Serif" font-size="10.00">_raw_ptr, int order_row,</text>
<text text-anchor="middle" x="2256" y="-747" font-family="Helvetica,sans-Serif" font-size="10.00"> int order_col, int order_data)&gt;</text>
</a>
</g>
</g>
<!-- Node57&#45;&gt;Node11 -->
<g id="edge69" class="edge">
<title>Node57&#45;&gt;Node11</title>
<path fill="none" stroke="#9a32cd" stroke-dasharray="5,2" d="M2349.98,-765.18C2408.22,-760.75 2482.65,-747.6 2539,-712 2591.38,-678.91 2625.74,-608.45 2636.98,-582.69"/>
<polygon fill="#9a32cd" stroke="#9a32cd" points="2349.41,-761.71 2339.67,-765.88 2349.89,-768.69 2349.41,-761.71"/>
<text text-anchor="middle" x="2458" y="-765" font-family="Helvetica,sans-Serif" font-size="10.00"> setRuleHook</text>
</g>
<!-- Node58 -->
<g id="node58" class="node">
<title>Node58</title>
<g id="a_node58"><a xlink:title=" ">
<polygon fill="white" stroke="#bfbfbf" points="2155,-691 2155,-721 2357,-721 2357,-691 2155,-691"/>
<text text-anchor="start" x="2163" y="-709" font-family="Helvetica,sans-Serif" font-size="10.00">ptr_deque&lt; MoFEM::Forces</text>
<text text-anchor="middle" x="2256" y="-698" font-family="Helvetica,sans-Serif" font-size="10.00">AndSourcesCore::UserDataOperator &gt;</text>
</a>
</g>
</g>
<!-- Node58&#45;&gt;Node11 -->
<g id="edge70" class="edge">
<title>Node58&#45;&gt;Node11</title>
<path fill="none" stroke="#9a32cd" stroke-dasharray="5,2" d="M2367.48,-699.42C2421.17,-693.03 2485.48,-680.5 2539,-656 2578.86,-637.76 2616.3,-600.19 2632.54,-582.55"/>
<polygon fill="#9a32cd" stroke="#9a32cd" points="2366.78,-695.98 2357.23,-700.59 2367.57,-702.94 2366.78,-695.98"/>
<text text-anchor="middle" x="2458" y="-700" font-family="Helvetica,sans-Serif" font-size="10.00"> opPtrVector</text>
</g>
<!-- Node59 -->
<g id="node59" class="node">
<title>Node59</title>
<g id="a_node59"><a xlink:href="structMoFEM_1_1EntitiesFieldData.html" target="_top" xlink:title="data structure for finite element entity">
<polygon fill="white" stroke="black" points="2185,-811.5 2185,-830.5 2327,-830.5 2327,-811.5 2185,-811.5"/>
<text text-anchor="middle" x="2256" y="-818.5" font-family="Helvetica,sans-Serif" font-size="10.00">MoFEM::EntitiesFieldData</text>
</a>
</g>
</g>
<!-- Node59&#45;&gt;Node11 -->
<g id="edge71" class="edge">
<title>Node59&#45;&gt;Node11</title>
<path fill="none" stroke="#9a32cd" stroke-dasharray="5,2" d="M2337.52,-827.26C2398.37,-827.86 2481.04,-819.35 2539,-777 2608.06,-726.54 2633.2,-616 2639.37,-582.69"/>
<polygon fill="#9a32cd" stroke="#9a32cd" points="2337.25,-823.76 2327.19,-827.07 2337.12,-830.76 2337.25,-823.76"/>
<text text-anchor="middle" x="2458" y="-873" font-family="Helvetica,sans-Serif" font-size="10.00"> dataNoField</text>
<text text-anchor="middle" x="2458" y="-862" font-family="Helvetica,sans-Serif" font-size="10.00">dataL2</text>
<text text-anchor="middle" x="2458" y="-851" font-family="Helvetica,sans-Serif" font-size="10.00">dataH1</text>
<text text-anchor="middle" x="2458" y="-840" font-family="Helvetica,sans-Serif" font-size="10.00">dataHcurl</text>
<text text-anchor="middle" x="2458" y="-829" font-family="Helvetica,sans-Serif" font-size="10.00">dataHdiv</text>
</g>
<!-- Node60 -->
<g id="node60" class="node">
<title>Node60</title>
<g id="a_node60"><a xlink:title=" ">
<polygon fill="white" stroke="#bfbfbf" points="1805,-834 1805,-864 1967,-864 1967,-834 1805,-834"/>
<text text-anchor="start" x="1813" y="-852" font-family="Helvetica,sans-Serif" font-size="10.00">array&lt; std::bitset</text>
<text text-anchor="middle" x="1886" y="-841" font-family="Helvetica,sans-Serif" font-size="10.00">&lt; LASTBASE &gt;, LASTSPACE &gt;</text>
</a>
</g>
</g>
<!-- Node60&#45;&gt;Node59 -->
<g id="edge72" class="edge">
<title>Node60&#45;&gt;Node59</title>
<path fill="none" stroke="#9a32cd" stroke-dasharray="5,2" d="M1977.39,-842.12C2041.35,-837.26 2125.88,-830.82 2184.79,-826.34"/>
<polygon fill="#9a32cd" stroke="#9a32cd" points="1977.01,-838.64 1967.3,-842.89 1977.54,-845.62 1977.01,-838.64"/>
<text text-anchor="middle" x="2063" y="-854" font-family="Helvetica,sans-Serif" font-size="10.00"> brokenBasesOnSpaces</text>
<text text-anchor="middle" x="2063" y="-843" font-family="Helvetica,sans-Serif" font-size="10.00">basesOnSpaces</text>
</g>
<!-- Node61 -->
<g id="node61" class="node">
<title>Node61</title>
<g id="a_node61"><a xlink:title=" ">
<polygon fill="white" stroke="#bfbfbf" points="1809.5,-773.5 1809.5,-814.5 1962.5,-814.5 1962.5,-773.5 1809.5,-773.5"/>
<text text-anchor="start" x="1817.5" y="-802.5" font-family="Helvetica,sans-Serif" font-size="10.00">array&lt; boost::ptr_vector</text>
<text text-anchor="start" x="1817.5" y="-791.5" font-family="Helvetica,sans-Serif" font-size="10.00">&lt; MoFEM::EntitiesFieldData</text>
<text text-anchor="middle" x="1886" y="-780.5" font-family="Helvetica,sans-Serif" font-size="10.00">::EntData &gt;, MBMAXTYPE &gt;</text>
</a>
</g>
</g>
<!-- Node61&#45;&gt;Node59 -->
<g id="edge73" class="edge">
<title>Node61&#45;&gt;Node59</title>
<path fill="none" stroke="#9a32cd" stroke-dasharray="5,2" d="M1972.95,-800.31C2037.43,-805.04 2124.61,-811.43 2184.9,-815.86"/>
<polygon fill="#9a32cd" stroke="#9a32cd" points="1973.03,-796.8 1962.8,-799.56 1972.52,-803.78 1973.03,-796.8"/>
<text text-anchor="middle" x="2063" y="-814" font-family="Helvetica,sans-Serif" font-size="10.00"> dataOnEntities</text>
</g>
<!-- Node62 -->
<g id="node62" class="node">
<title>Node62</title>
<g id="a_node62"><a xlink:title=" ">
<polygon fill="white" stroke="#bfbfbf" points="1799,-724 1799,-754 1973,-754 1973,-724 1799,-724"/>
<text text-anchor="start" x="1807" y="-742" font-family="Helvetica,sans-Serif" font-size="10.00">array&lt; std::bitset</text>
<text text-anchor="middle" x="1886" y="-731" font-family="Helvetica,sans-Serif" font-size="10.00">&lt; LASTSPACE &gt;, MBMAXTYPE &gt;</text>
</a>
</g>
</g>
<!-- Node62&#45;&gt;Node59 -->
<g id="edge74" class="edge">
<title>Node62&#45;&gt;Node59</title>
<path fill="none" stroke="#9a32cd" stroke-dasharray="5,2" d="M1983.25,-745.13C2030.85,-751.12 2088.01,-762.89 2135,-786 2144.61,-790.72 2143.39,-797.29 2153,-802 2162.87,-806.83 2173.82,-810.44 2184.79,-813.13"/>
<polygon fill="#9a32cd" stroke="#9a32cd" points="1983.59,-741.65 1973.25,-743.94 1982.76,-748.6 1983.59,-741.65"/>
<text text-anchor="middle" x="2063" y="-789" font-family="Helvetica,sans-Serif" font-size="10.00"> spacesOnEntities</text>
</g>
<!-- Node63 -->
<g id="node63" class="node">
<title>Node63</title>
<g id="a_node63"><a xlink:title=" ">
<polygon fill="white" stroke="#bfbfbf" points="1801.5,-675 1801.5,-705 1970.5,-705 1970.5,-675 1801.5,-675"/>
<text text-anchor="start" x="1809.5" y="-693" font-family="Helvetica,sans-Serif" font-size="10.00">array&lt; std::bitset</text>
<text text-anchor="middle" x="1886" y="-682" font-family="Helvetica,sans-Serif" font-size="10.00">&lt; LASTBASE &gt;, MBMAXTYPE &gt;</text>
</a>
</g>
</g>
<!-- Node63&#45;&gt;Node59 -->
<g id="edge75" class="edge">
<title>Node63&#45;&gt;Node59</title>
<path fill="none" stroke="#9a32cd" stroke-dasharray="5,2" d="M1980.76,-682.16C2032.35,-683.03 2094.03,-693.35 2135,-731 2158.97,-753.03 2129.25,-779.73 2153,-802 2161.87,-810.32 2173.15,-815.57 2184.96,-818.79"/>
<polygon fill="#9a32cd" stroke="#9a32cd" points="1980.6,-678.66 1970.58,-682.11 1980.56,-685.66 1980.6,-678.66"/>
<text text-anchor="middle" x="2063" y="-734" font-family="Helvetica,sans-Serif" font-size="10.00"> basesOnEntities</text>
</g>
<!-- Node64 -->
<g id="node64" class="node">
<title>Node64</title>
<g id="a_node64"><a xlink:title=" ">
<polygon fill="white" stroke="#bfbfbf" points="1830,-921.5 1830,-940.5 1942,-940.5 1942,-921.5 1830,-921.5"/>
<text text-anchor="middle" x="1886" y="-928.5" font-family="Helvetica,sans-Serif" font-size="10.00">UBlasMatrix&lt; int &gt;</text>
</a>
</g>
</g>
<!-- Node64&#45;&gt;Node59 -->
<g id="edge76" class="edge">
<title>Node64&#45;&gt;Node59</title>
<path fill="none" stroke="#9a32cd" stroke-dasharray="5,2" d="M1952.7,-931.71C2003.86,-930.3 2075.87,-923.92 2135,-902 2180.25,-885.22 2225.12,-848.05 2244.73,-830.51"/>
<polygon fill="#9a32cd" stroke="#9a32cd" points="1952.35,-928.22 1942.43,-931.94 1952.51,-935.22 1952.35,-928.22"/>
<text text-anchor="middle" x="2063" y="-943" font-family="Helvetica,sans-Serif" font-size="10.00"> facesNodesOrder</text>
<text text-anchor="middle" x="2063" y="-932" font-family="Helvetica,sans-Serif" font-size="10.00">facesNodes</text>
</g>
<!-- Node65 -->
<g id="node65" class="node">
<title>Node65</title>
<g id="a_node65"><a xlink:title=" ">
<polygon fill="white" stroke="#bfbfbf" points="1827.5,-883.5 1827.5,-902.5 1944.5,-902.5 1944.5,-883.5 1827.5,-883.5"/>
<text text-anchor="middle" x="1886" y="-890.5" font-family="Helvetica,sans-Serif" font-size="10.00">bitset&lt; LASTBASE &gt;</text>
</a>
</g>
</g>
<!-- Node65&#45;&gt;Node59 -->
<g id="edge77" class="edge">
<title>Node65&#45;&gt;Node59</title>
<path fill="none" stroke="#9a32cd" stroke-dasharray="5,2" d="M1954.93,-890.19C2005.21,-887.01 2075.08,-880.26 2135,-866 2170.93,-857.45 2210.72,-841.07 2234.26,-830.6"/>
<polygon fill="#9a32cd" stroke="#9a32cd" points="1954.6,-886.7 1944.82,-890.8 1955.02,-893.69 1954.6,-886.7"/>
<text text-anchor="middle" x="2063" y="-890" font-family="Helvetica,sans-Serif" font-size="10.00"> bAse</text>
</g>
<!-- Node66 -->
<g id="node66" class="node">
<title>Node66</title>
<g id="a_node66"><a xlink:title=" ">
<polygon fill="white" stroke="#bfbfbf" points="2193.5,-630.5 2193.5,-671.5 2318.5,-671.5 2318.5,-630.5 2193.5,-630.5"/>
<text text-anchor="start" x="2201.5" y="-659.5" font-family="Helvetica,sans-Serif" font-size="10.00">function&lt; int(int order</text>
<text text-anchor="start" x="2201.5" y="-648.5" font-family="Helvetica,sans-Serif" font-size="10.00">_row, int order_col, int</text>
<text text-anchor="middle" x="2256" y="-637.5" font-family="Helvetica,sans-Serif" font-size="10.00"> order_data)&gt;</text>
</a>
</g>
</g>
<!-- Node66&#45;&gt;Node11 -->
<g id="edge78" class="edge">
<title>Node66&#45;&gt;Node11</title>
<path fill="none" stroke="#9a32cd" stroke-dasharray="5,2" d="M2328.73,-646.59C2386.31,-641.86 2468.82,-632.39 2539,-614 2568.72,-606.21 2601.4,-592 2621.57,-582.53"/>
<polygon fill="#9a32cd" stroke="#9a32cd" points="2328.33,-643.11 2318.64,-647.39 2328.89,-650.09 2328.33,-643.11"/>
<text text-anchor="middle" x="2458" y="-644" font-family="Helvetica,sans-Serif" font-size="10.00"> getRuleHook</text>
</g>
<!-- Node67 -->
<g id="node67" class="node">
<title>Node67</title>
<g id="a_node67"><a xlink:title=" ">
<polygon fill="white" stroke="#bfbfbf" points="2195,-581 2195,-611 2317,-611 2317,-581 2195,-581"/>
<text text-anchor="start" x="2203" y="-599" font-family="Helvetica,sans-Serif" font-size="10.00">shared_ptr&lt; MoFEM::</text>
<text text-anchor="middle" x="2256" y="-588" font-family="Helvetica,sans-Serif" font-size="10.00">BaseFunction &gt;</text>
</a>
</g>
</g>
<!-- Node67&#45;&gt;Node11 -->
<g id="edge79" class="edge">
<title>Node67&#45;&gt;Node11</title>
<path fill="none" stroke="#9a32cd" stroke-dasharray="5,2" d="M2327.52,-591.78C2392.17,-587.9 2488.01,-582.16 2556.68,-578.05"/>
<polygon fill="#9a32cd" stroke="#9a32cd" points="2327.2,-588.29 2317.42,-592.38 2327.61,-595.28 2327.2,-588.29"/>
<text text-anchor="middle" x="2458" y="-602" font-family="Helvetica,sans-Serif" font-size="10.00"> userPolynomialBasePtr</text>
<text text-anchor="middle" x="2458" y="-591" font-family="Helvetica,sans-Serif" font-size="10.00">elementPolynomialBasePtr</text>
</g>
<!-- Node68 -->
<g id="node68" class="node">
<title>Node68</title>
<g id="a_node68"><a xlink:href="classUBlasMatrix_3_01double_01_4.html" target="_top" xlink:title=" ">
<polygon fill="white" stroke="black" points="2190,-542.5 2190,-561.5 2322,-561.5 2322,-542.5 2190,-542.5"/>
<text text-anchor="middle" x="2256" y="-549.5" font-family="Helvetica,sans-Serif" font-size="10.00">UBlasMatrix&lt; double &gt;</text>
</a>
</g>
</g>
<!-- Node68&#45;&gt;Node11 -->
<g id="edge80" class="edge">
<title>Node68&#45;&gt;Node11</title>
<path fill="none" stroke="#9a32cd" stroke-dasharray="5,2" d="M2332.15,-547.87C2389.08,-545.74 2469.16,-544.89 2539,-552 2560.76,-554.22 2584.74,-559.03 2603.98,-563.49"/>
<polygon fill="#9a32cd" stroke="#9a32cd" points="2332.01,-544.37 2322.15,-548.27 2332.28,-551.37 2332.01,-544.37"/>
<text text-anchor="middle" x="2458" y="-566" font-family="Helvetica,sans-Serif" font-size="10.00"> coordsAtGaussPts</text>
<text text-anchor="middle" x="2458" y="-555" font-family="Helvetica,sans-Serif" font-size="10.00">gaussPts</text>
</g>
<!-- Node69 -->
<g id="node69" class="node">
<title>Node69</title>
<g id="a_node69"><a xlink:title=" ">
<polygon fill="white" stroke="#bfbfbf" points="2576.5,-1460.5 2576.5,-1479.5 2707.5,-1479.5 2707.5,-1460.5 2576.5,-1460.5"/>
<text text-anchor="middle" x="2642" y="-1467.5" font-family="Helvetica,sans-Serif" font-size="10.00">static const char *const</text>
</a>
</g>
</g>
<!-- Node69&#45;&gt;Node3 -->
<g id="edge81" class="edge">
<title>Node69&#45;&gt;Node3</title>
<path fill="none" stroke="#9a32cd" stroke-dasharray="5,2" d="M2707.43,-1457.75C2714.14,-1455.79 2720.77,-1453.55 2727,-1451 2796.57,-1422.52 2868.87,-1369.29 2902.16,-1343.2"/>
<polygon fill="#9a32cd" stroke="#9a32cd" points="2706.32,-1454.43 2697.59,-1460.43 2708.16,-1461.18 2706.32,-1454.43"/>
<text text-anchor="middle" x="2782" y="-1443" font-family="Helvetica,sans-Serif" font-size="10.00"> OpTypeNames</text>
</g>
<!-- Node70 -->
<g id="node70" class="node">
<title>Node70</title>
<g id="a_node70"><a xlink:href="classFTensor_1_1Index.html" target="_top" xlink:title=" ">
<polygon fill="white" stroke="black" points="3120.5,-183.5 3120.5,-202.5 3250.5,-202.5 3250.5,-183.5 3120.5,-183.5"/>
<text text-anchor="middle" x="3185.5" y="-190.5" font-family="Helvetica,sans-Serif" font-size="10.00">FTensor::Index&lt; &#39;i&#39;, 3 &gt;</text>
</a>
</g>
</g>
<!-- Node70&#45;&gt;Node1 -->
<g id="edge83" class="edge">
<title>Node70&#45;&gt;Node1</title>
<path fill="none" stroke="#9a32cd" stroke-dasharray="5,2" d="M3260.88,-199.44C3275.87,-201.2 3291.48,-203.37 3306,-206 3311.8,-207.05 3317.94,-208.42 3323.81,-209.86"/>
<polygon fill="#9a32cd" stroke="#9a32cd" points="3260.95,-195.93 3250.62,-198.29 3260.16,-202.88 3260.95,-195.93"/>
<text text-anchor="middle" x="3302.5" y="-209" font-family="Helvetica,sans-Serif" font-size="10.00"> i</text>
</g>
<!-- Node71 -->
<g id="node71" class="node">
<title>Node71</title>
<g id="a_node71"><a xlink:href="classFTensor_1_1Index.html" target="_top" xlink:title=" ">
<polygon fill="white" stroke="black" points="2870,-153 2870,-183 2974,-183 2974,-153 2870,-153"/>
<text text-anchor="start" x="2878" y="-171" font-family="Helvetica,sans-Serif" font-size="10.00">FTensor::Index&lt; i,</text>
<text text-anchor="middle" x="2922" y="-160" font-family="Helvetica,sans-Serif" font-size="10.00"> Dim &gt;</text>
</a>
</g>
</g>
<!-- Node71&#45;&gt;Node70 -->
<g id="edge84" class="edge">
<title>Node71&#45;&gt;Node70</title>
<path fill="none" stroke="orange" stroke-dasharray="5,2" d="M2984.14,-173.84C3024.99,-177.75 3078.64,-182.88 3120.14,-186.85"/>
<polygon fill="orange" stroke="orange" points="2984.33,-170.35 2974.04,-172.88 2983.66,-177.32 2984.33,-170.35"/>
<text text-anchor="middle" x="3048.5" y="-185" font-family="Helvetica,sans-Serif" font-size="10.00"> &lt; &#39;i&#39;, 3 &gt;</text>
</g>
<!-- Node79 -->
<g id="node79" class="node">
<title>Node79</title>
<g id="a_node79"><a xlink:href="classFTensor_1_1Index.html" target="_top" xlink:title=" ">
<polygon fill="white" stroke="black" points="3120.5,-145.5 3120.5,-164.5 3250.5,-164.5 3250.5,-145.5 3120.5,-145.5"/>
<text text-anchor="middle" x="3185.5" y="-152.5" font-family="Helvetica,sans-Serif" font-size="10.00">FTensor::Index&lt; &#39;j&#39;, 3 &gt;</text>
</a>
</g>
</g>
<!-- Node71&#45;&gt;Node79 -->
<g id="edge94" class="edge">
<title>Node71&#45;&gt;Node79</title>
<path fill="none" stroke="orange" stroke-dasharray="5,2" d="M2984.15,-161.21C2997.59,-159.94 3011.77,-158.77 3025,-158 3056.38,-156.17 3091.29,-155.37 3120.43,-155.05"/>
<polygon fill="orange" stroke="orange" points="2983.66,-157.74 2974.04,-162.2 2984.34,-164.71 2983.66,-157.74"/>
<text text-anchor="middle" x="3048.5" y="-161" font-family="Helvetica,sans-Serif" font-size="10.00"> &lt; &#39;j&#39;, 3 &gt;</text>
</g>
<!-- Node72&#45;&gt;Node1 -->
<g id="edge85" class="edge">
<title>Node72&#45;&gt;Node1</title>
<path fill="none" stroke="#9a32cd" stroke-dasharray="5,2" d="M2334.72,-195.1C2411.98,-210.59 2534.08,-231 2641,-231 2641,-231 2641,-231 3186.5,-231 3234.78,-231 3290.69,-225.5 3323.88,-221.66"/>
<polygon fill="#9a32cd" stroke="#9a32cd" points="2335.09,-191.6 2324.59,-193.05 2333.69,-198.46 2335.09,-191.6"/>
<text text-anchor="middle" x="2922" y="-234" font-family="Helvetica,sans-Serif" font-size="10.00"> commonData</text>
</g>
<!-- Node73 -->
<g id="node73" class="node">
<title>Node73</title>
<g id="a_node73"><a xlink:title=" ">
<polygon fill="white" stroke="#bfbfbf" points="1834.5,-22.5 1834.5,-41.5 1937.5,-41.5 1937.5,-22.5 1834.5,-22.5"/>
<text text-anchor="middle" x="1886" y="-29.5" font-family="Helvetica,sans-Serif" font-size="10.00">vector&lt; double &gt;</text>
</a>
</g>
</g>
<!-- Node73&#45;&gt;Node72 -->
<g id="edge86" class="edge">
<title>Node73&#45;&gt;Node72</title>
<path fill="none" stroke="#9a32cd" stroke-dasharray="5,2" d="M1947.75,-26.99C1999.93,-25.21 2075.86,-28.8 2135,-57 2185.74,-81.2 2227.26,-136.13 2245.3,-162.84"/>
<polygon fill="#9a32cd" stroke="#9a32cd" points="1947.49,-23.49 1937.64,-27.41 1947.78,-30.49 1947.49,-23.49"/>
<text text-anchor="middle" x="2063" y="-60" font-family="Helvetica,sans-Serif" font-size="10.00"> eNergy</text>
</g>
<!-- Node74 -->
<g id="node74" class="node">
<title>Node74</title>
<g id="a_node74"><a xlink:title=" ">
<polygon fill="white" stroke="#bfbfbf" points="1806,-236.5 1806,-255.5 1966,-255.5 1966,-236.5 1806,-236.5"/>
<text text-anchor="middle" x="1886" y="-243.5" font-family="Helvetica,sans-Serif" font-size="10.00">vector&lt; MatrixDouble3by3 &gt;</text>
</a>
</g>
</g>
<!-- Node74&#45;&gt;Node72 -->
<g id="edge87" class="edge">
<title>Node74&#45;&gt;Node72</title>
<path fill="none" stroke="#9a32cd" stroke-dasharray="5,2" d="M1966.54,-235.05C2026.53,-226.62 2103.65,-215.37 2135,-209 2157.04,-204.52 2181.08,-198.54 2201.81,-193.02"/>
<polygon fill="#9a32cd" stroke="#9a32cd" points="1965.74,-231.63 1956.32,-236.49 1966.71,-238.56 1965.74,-231.63"/>
<text text-anchor="middle" x="2063" y="-233" font-family="Helvetica,sans-Serif" font-size="10.00"> sTress</text>
</g>
<!-- Node75 -->
<g id="node75" class="node">
<title>Node75</title>
<g id="a_node75"><a xlink:title=" ">
<polygon fill="white" stroke="#bfbfbf" points="1810,-187 1810,-217 1962,-217 1962,-187 1810,-187"/>
<text text-anchor="start" x="1818" y="-205" font-family="Helvetica,sans-Serif" font-size="10.00">map&lt; std::string, std</text>
<text text-anchor="middle" x="1886" y="-194" font-family="Helvetica,sans-Serif" font-size="10.00">::vector&lt; VectorDouble &gt; &gt;</text>
</a>
</g>
</g>
<!-- Node75&#45;&gt;Node72 -->
<g id="edge88" class="edge">
<title>Node75&#45;&gt;Node72</title>
<path fill="none" stroke="#9a32cd" stroke-dasharray="5,2" d="M1972.65,-196.41C2038.09,-192.15 2127.03,-186.35 2187.48,-182.4"/>
<polygon fill="#9a32cd" stroke="#9a32cd" points="1972.11,-192.94 1962.36,-197.09 1972.56,-199.93 1972.11,-192.94"/>
<text text-anchor="middle" x="2063" y="-198" font-family="Helvetica,sans-Serif" font-size="10.00"> dataAtGaussPts</text>
</g>
<!-- Node76 -->
<g id="node76" class="node">
<title>Node76</title>
<g id="a_node76"><a xlink:title=" ">
<polygon fill="white" stroke="#bfbfbf" points="1818,-148.5 1818,-167.5 1954,-167.5 1954,-148.5 1818,-148.5"/>
<text text-anchor="middle" x="1886" y="-155.5" font-family="Helvetica,sans-Serif" font-size="10.00">vector&lt; MatrixDouble &gt;</text>
</a>
</g>
</g>
<!-- Node76&#45;&gt;Node72 -->
<g id="edge89" class="edge">
<title>Node76&#45;&gt;Node72</title>
<path fill="none" stroke="#9a32cd" stroke-dasharray="5,2" d="M1964.38,-158.05C2013.34,-158.53 2077.94,-159.99 2135,-164 2151.95,-165.19 2170.18,-167.03 2187.2,-168.99"/>
<polygon fill="#9a32cd" stroke="#9a32cd" points="1964.21,-154.54 1954.18,-157.96 1964.15,-161.54 1964.21,-154.54"/>
<text text-anchor="middle" x="2063" y="-167" font-family="Helvetica,sans-Serif" font-size="10.00"> jacStress</text>
</g>
<!-- Node77 -->
<g id="node77" class="node">
<title>Node77</title>
<g id="a_node77"><a xlink:title=" ">
<polygon fill="white" stroke="#bfbfbf" points="1809.5,-99 1809.5,-129 1962.5,-129 1962.5,-99 1809.5,-99"/>
<text text-anchor="start" x="1817.5" y="-117" font-family="Helvetica,sans-Serif" font-size="10.00">map&lt; std::string, std</text>
<text text-anchor="middle" x="1886" y="-106" font-family="Helvetica,sans-Serif" font-size="10.00">::vector&lt; MatrixDouble &gt; &gt;</text>
</a>
</g>
</g>
<!-- Node77&#45;&gt;Node72 -->
<g id="edge91" class="edge">
<title>Node77&#45;&gt;Node72</title>
<path fill="none" stroke="#9a32cd" stroke-dasharray="5,2" d="M1972.69,-121.05C2020.7,-125.83 2081.51,-133.25 2135,-144 2159.52,-148.93 2186.34,-156.33 2208.4,-162.97"/>
<polygon fill="#9a32cd" stroke="#9a32cd" points="1972.93,-117.56 1962.64,-120.07 1972.25,-124.52 1972.93,-117.56"/>
<text text-anchor="middle" x="2063" y="-147" font-family="Helvetica,sans-Serif" font-size="10.00"> gradAtGaussPts</text>
</g>
<!-- Node78 -->
<g id="node78" class="node">
<title>Node78</title>
<g id="a_node78"><a xlink:title=" ">
<polygon fill="white" stroke="#bfbfbf" points="1818.5,-60.5 1818.5,-79.5 1953.5,-79.5 1953.5,-60.5 1818.5,-60.5"/>
<text text-anchor="middle" x="1886" y="-67.5" font-family="Helvetica,sans-Serif" font-size="10.00">vector&lt; VectorDouble &gt;</text>
</a>
</g>
</g>
<!-- Node78&#45;&gt;Node72 -->
<g id="edge92" class="edge">
<title>Node78&#45;&gt;Node72</title>
<path fill="none" stroke="#9a32cd" stroke-dasharray="5,2" d="M1963.81,-69.39C2013.91,-71.22 2079.98,-77.9 2135,-98 2175.69,-112.86 2216.18,-144.17 2238.17,-162.91"/>
<polygon fill="#9a32cd" stroke="#9a32cd" points="1963.79,-65.89 1953.69,-69.08 1963.57,-72.89 1963.79,-65.89"/>
<text text-anchor="middle" x="2063" y="-112" font-family="Helvetica,sans-Serif" font-size="10.00"> hessianEnergy</text>
<text text-anchor="middle" x="2063" y="-101" font-family="Helvetica,sans-Serif" font-size="10.00">jacEnergy</text>
</g>
<!-- Node79&#45;&gt;Node1 -->
<g id="edge93" class="edge">
<title>Node79&#45;&gt;Node1</title>
<path fill="none" stroke="#9a32cd" stroke-dasharray="5,2" d="M3259.21,-166.97C3266.67,-168.98 3274.06,-171.31 3281,-174 3293.08,-178.68 3294.93,-182.26 3306,-189 3316.48,-195.38 3328.23,-202.63 3337.36,-208.28"/>
<polygon fill="#9a32cd" stroke="#9a32cd" points="3259.93,-163.54 3249.38,-164.51 3258.23,-170.33 3259.93,-163.54"/>
<text text-anchor="middle" x="3302.5" y="-192" font-family="Helvetica,sans-Serif" font-size="10.00"> j</text>
</g>
</g>
</svg>
        <g id="navigator" transform="translate(0 0)" fill="#404254">
                <rect fill="#f2f5e9" fill-opacity="0.5" stroke="#606060" stroke-width=".5" x="0" y="0" width="60" height="60"/>
                <use id="zoomplus" xlink:href="#zoomPlus" x="17" y="9" onmousedown="handleZoom(evt,'in')"/>
                <use id="zoomminus" xlink:href="#zoomMin" x="42" y="9" onmousedown="handleZoom(evt,'out')"/>
                <use id="reset" xlink:href="#resetDef" x="30" y="36" onmousedown="handleReset()"/>
                <g id="arrowUp" xlink:href="#dirArrow" transform="translate(30 24)" onmousedown="handlePan(0,-1)">
                  <use xlink:href="#rim" fill="#404040">
                        <set attributeName="fill" to="#808080" begin="arrowUp.mouseover" end="arrowUp.mouseout"/>
                  </use>
                  <path fill="none" stroke="white" stroke-width="1.5" d="M0,-3.0v7 M-2.5,-0.5L0,-3.0L2.5,-0.5"/>
                </g>
                <g id="arrowRight" xlink:href="#dirArrow" transform="rotate(90) translate(36 -43)" onmousedown="handlePan(1,0)">
                  <use xlink:href="#rim" fill="#404040">
                        <set attributeName="fill" to="#808080" begin="arrowRight.mouseover" end="arrowRight.mouseout"/>
                  </use>
                  <path fill="none" stroke="white" stroke-width="1.5" d="M0,-3.0v7 M-2.5,-0.5L0,-3.0L2.5,-0.5"/>
                </g>
                <g id="arrowDown" xlink:href="#dirArrow" transform="rotate(180) translate(-30 -48)" onmousedown="handlePan(0,1)">
                  <use xlink:href="#rim" fill="#404040">
                        <set attributeName="fill" to="#808080" begin="arrowDown.mouseover" end="arrowDown.mouseout"/>
                  </use>
                  <path fill="none" stroke="white" stroke-width="1.5" d="M0,-3.0v7 M-2.5,-0.5L0,-3.0L2.5,-0.5"/>
                </g>
                <g id="arrowLeft" xlink:href="#dirArrow" transform="rotate(270) translate(-36 17)" onmousedown="handlePan(-1,0)">
                  <use xlink:href="#rim" fill="#404040">
                        <set attributeName="fill" to="#808080" begin="arrowLeft.mouseover" end="arrowLeft.mouseout"/>
                  </use>
                  <path fill="none" stroke="white" stroke-width="1.5" d="M0,-3.0v7 M-2.5,-0.5L0,-3.0L2.5,-0.5"/>
                </g>
        </g>
        <svg viewBox="0 0 15 15" width="100%" height="30px" preserveAspectRatio="xMaxYMin meet">
         <g id="arrow_out" transform="scale(0.3 0.3)">
          <a xlink:href="structOpCheck__coll__graph_org.svg" target="_base">
           <rect id="button" ry="5" rx="5" y="6" x="6" height="38" width="38"
                fill="#f2f5e9" fill-opacity="0.5" stroke="#606060" stroke-width="1.0"/>
           <path id="arrow"
             d="M 11.500037,31.436501 C 11.940474,20.09759 22.043105,11.32322 32.158766,21.979434 L 37.068811,17.246167 C 37.068811,17.246167 37.088388,32 37.088388,32 L 22.160133,31.978069 C 22.160133,31.978069 26.997745,27.140456 26.997745,27.140456 C 18.528582,18.264221 13.291696,25.230495 11.500037,31.436501 z"
             style="fill:#404040;"/>
          </a>
         </g>
        </svg>
</svg>
