<?xml version="1.0" encoding="UTF-8" standalone="no"?>
<!DOCTYPE svg PUBLIC "-//W3C//DTD SVG 1.1//EN"
 "http://www.w3.org/Graphics/SVG/1.1/DTD/svg11.dtd">
<!-- Generated by graphviz version 2.43.0 (0)
 -->
<!-- Title: EshelbianPlasticity::DataAtIntegrationPts Pages: 1 -->
<svg width="462pt" height="352pt"
 viewBox="0.00 0.00 462.00 352.00" xmlns="http://www.w3.org/2000/svg" xmlns:xlink="http://www.w3.org/1999/xlink">
<g id="graph0" class="graph" transform="scale(1 1) rotate(0) translate(4 348)">
<title>EshelbianPlasticity::DataAtIntegrationPts</title>
<polygon fill="white" stroke="transparent" points="-4,4 -4,-348 458,-348 458,4 -4,4"/>
<!-- Node1 -->
<g id="node1" class="node">
<title>Node1</title>
<g id="a_node1"><a xlink:title=" ">
<polygon fill="#bfbfbf" stroke="black" points="329,-108 329,-138 454,-138 454,-108 329,-108"/>
<text text-anchor="start" x="337" y="-126" font-family="Helvetica,sans-Serif" font-size="10.00">EshelbianPlasticity</text>
<text text-anchor="middle" x="391.5" y="-115" font-family="Helvetica,sans-Serif" font-size="10.00">::DataAtIntegrationPts</text>
</a>
</g>
</g>
<!-- Node2 -->
<g id="node2" class="node">
<title>Node2</title>
<g id="a_node2"><a xlink:title=" ">
<polygon fill="white" stroke="#bfbfbf" points="2.5,-302.5 2.5,-343.5 169.5,-343.5 169.5,-302.5 2.5,-302.5"/>
<text text-anchor="start" x="10.5" y="-331.5" font-family="Helvetica,sans-Serif" font-size="10.00">boost::enable_shared</text>
<text text-anchor="start" x="10.5" y="-320.5" font-family="Helvetica,sans-Serif" font-size="10.00">_from_this&lt; DataAtIntegration</text>
<text text-anchor="middle" x="86" y="-309.5" font-family="Helvetica,sans-Serif" font-size="10.00">Pts &gt;</text>
</a>
</g>
</g>
<!-- Node2&#45;&gt;Node1 -->
<g id="edge1" class="edge">
<title>Node2&#45;&gt;Node1</title>
<path fill="none" stroke="midnightblue" d="M179.55,-338.31C223.06,-340.55 273.49,-335.47 311,-309 369.38,-267.79 385.18,-174.56 389.21,-138.06"/>
<polygon fill="midnightblue" stroke="midnightblue" points="179.72,-334.81 169.52,-337.66 179.27,-341.8 179.72,-334.81"/>
</g>
<!-- Node3 -->
<g id="node3" class="node">
<title>Node3</title>
<g id="a_node3"><a xlink:title=" ">
<polygon fill="white" stroke="#bfbfbf" points="44.5,-177.5 44.5,-196.5 127.5,-196.5 127.5,-177.5 44.5,-177.5"/>
<text text-anchor="middle" x="86" y="-184.5" font-family="Helvetica,sans-Serif" font-size="10.00">MatrixDouble</text>
</a>
</g>
</g>
<!-- Node3&#45;&gt;Node1 -->
<g id="edge2" class="edge">
<title>Node3&#45;&gt;Node1</title>
<path fill="none" stroke="#9a32cd" stroke-dasharray="5,2" d="M137.6,-187.56C183.72,-186.78 253.25,-182.36 311,-165 331.33,-158.89 352.5,-147.42 367.87,-138.01"/>
<polygon fill="#9a32cd" stroke="#9a32cd" points="137.51,-184.06 127.56,-187.68 137.6,-191.06 137.51,-184.06"/>
<text text-anchor="middle" x="250.5" y="-298" font-family="Helvetica,sans-Serif" font-size="10.00"> matInvD</text>
<text text-anchor="middle" x="250.5" y="-287" font-family="Helvetica,sans-Serif" font-size="10.00">SigmaAtPts</text>
<text text-anchor="middle" x="250.5" y="-276" font-family="Helvetica,sans-Serif" font-size="10.00">adjointPdstretchAtPts</text>
<text text-anchor="middle" x="250.5" y="-265" font-family="Helvetica,sans-Serif" font-size="10.00">hdLogStretchAtPts</text>
<text text-anchor="middle" x="250.5" y="-254" font-family="Helvetica,sans-Serif" font-size="10.00">G0AtPts</text>
<text text-anchor="middle" x="250.5" y="-243" font-family="Helvetica,sans-Serif" font-size="10.00">matAxiatorD</text>
<text text-anchor="middle" x="250.5" y="-232" font-family="Helvetica,sans-Serif" font-size="10.00">adjointPdUdOmegaAtPts</text>
<text text-anchor="middle" x="250.5" y="-221" font-family="Helvetica,sans-Serif" font-size="10.00">W0AtPts</text>
<text text-anchor="middle" x="250.5" y="-210" font-family="Helvetica,sans-Serif" font-size="10.00">matDeviatorD</text>
<text text-anchor="middle" x="250.5" y="-199" font-family="Helvetica,sans-Serif" font-size="10.00">diff2RotMatAtPts</text>
<text text-anchor="middle" x="250.5" y="-188" font-family="Helvetica,sans-Serif" font-size="10.00">...</text>
</g>
<!-- Node4 -->
<g id="node4" class="node">
<title>Node4</title>
<g id="a_node4"><a xlink:href="classdouble.html" target="_top" xlink:title=" ">
<polygon fill="white" stroke="black" points="61,-139.5 61,-158.5 111,-158.5 111,-139.5 61,-139.5"/>
<text text-anchor="middle" x="86" y="-146.5" font-family="Helvetica,sans-Serif" font-size="10.00">double</text>
</a>
</g>
</g>
<!-- Node4&#45;&gt;Node1 -->
<g id="edge3" class="edge">
<title>Node4&#45;&gt;Node1</title>
<path fill="none" stroke="#9a32cd" stroke-dasharray="5,2" d="M121.09,-146.08C171.33,-141.78 266.06,-133.66 328.74,-128.29"/>
<polygon fill="#9a32cd" stroke="#9a32cd" points="120.73,-142.6 111.07,-146.94 121.33,-149.57 120.73,-142.6"/>
<text text-anchor="middle" x="250.5" y="-153" font-family="Helvetica,sans-Serif" font-size="10.00"> mu</text>
<text text-anchor="middle" x="250.5" y="-142" font-family="Helvetica,sans-Serif" font-size="10.00">lambda</text>
</g>
<!-- Node5 -->
<g id="node5" class="node">
<title>Node5</title>
<g id="a_node5"><a xlink:title=" ">
<polygon fill="white" stroke="#bfbfbf" points="0,-90 0,-120 172,-120 172,-90 0,-90"/>
<text text-anchor="start" x="8" y="-108" font-family="Helvetica,sans-Serif" font-size="10.00">shared_ptr&lt; EshelbianPlasticity</text>
<text text-anchor="middle" x="86" y="-97" font-family="Helvetica,sans-Serif" font-size="10.00">::PhysicalEquations &gt;</text>
</a>
</g>
</g>
<!-- Node5&#45;&gt;Node1 -->
<g id="edge4" class="edge">
<title>Node5&#45;&gt;Node1</title>
<path fill="none" stroke="#9a32cd" stroke-dasharray="5,2" d="M182.25,-103.42C222.12,-103.61 268.88,-104.94 311,-109 316.86,-109.56 322.94,-110.32 329,-111.19"/>
<polygon fill="#9a32cd" stroke="#9a32cd" points="182.01,-99.92 172.01,-103.4 182,-106.92 182.01,-99.92"/>
<text text-anchor="middle" x="250.5" y="-112" font-family="Helvetica,sans-Serif" font-size="10.00"> physicsPtr</text>
</g>
<!-- Node6 -->
<g id="node6" class="node">
<title>Node6</title>
<g id="a_node6"><a xlink:title=" ">
<polygon fill="white" stroke="#bfbfbf" points="56,-51.5 56,-70.5 116,-70.5 116,-51.5 56,-51.5"/>
<text text-anchor="middle" x="86" y="-58.5" font-family="Helvetica,sans-Serif" font-size="10.00">VectorInt</text>
</a>
</g>
</g>
<!-- Node6&#45;&gt;Node1 -->
<g id="edge5" class="edge">
<title>Node6&#45;&gt;Node1</title>
<path fill="none" stroke="#9a32cd" stroke-dasharray="5,2" d="M126.44,-62.25C171.71,-64.49 247.87,-70.71 311,-88 328.45,-92.78 347.01,-100.77 361.81,-107.91"/>
<polygon fill="#9a32cd" stroke="#9a32cd" points="126.31,-58.74 116.16,-61.79 126,-65.73 126.31,-58.74"/>
<text text-anchor="middle" x="250.5" y="-91" font-family="Helvetica,sans-Serif" font-size="10.00"> nbUniq</text>
</g>
<!-- Node7 -->
<g id="node7" class="node">
<title>Node7</title>
<g id="a_node7"><a xlink:title=" ">
<polygon fill="white" stroke="#bfbfbf" points="45,-0.5 45,-19.5 127,-19.5 127,-0.5 45,-0.5"/>
<text text-anchor="middle" x="86" y="-7.5" font-family="Helvetica,sans-Serif" font-size="10.00">VectorDouble</text>
</a>
</g>
</g>
<!-- Node7&#45;&gt;Node1 -->
<g id="edge6" class="edge">
<title>Node7&#45;&gt;Node1</title>
<path fill="none" stroke="#9a32cd" stroke-dasharray="5,2" d="M137.16,-4.05C184.63,-0.74 256.53,-1.9 311,-30 344.98,-47.53 370.48,-86.39 382.62,-107.91"/>
<polygon fill="#9a32cd" stroke="#9a32cd" points="136.82,-0.57 127.13,-4.84 137.37,-7.54 136.82,-0.57"/>
<text text-anchor="middle" x="250.5" y="-55" font-family="Helvetica,sans-Serif" font-size="10.00"> energyAtPts</text>
<text text-anchor="middle" x="250.5" y="-44" font-family="Helvetica,sans-Serif" font-size="10.00">jacobianAtPts</text>
<text text-anchor="middle" x="250.5" y="-33" font-family="Helvetica,sans-Serif" font-size="10.00">detStretchTensorAtPts</text>
</g>
</g>
</svg>
