<?xml version="1.0" encoding="UTF-8" standalone="no"?>
<!DOCTYPE svg PUBLIC "-//W3C//DTD SVG 1.1//EN"
 "http://www.w3.org/Graphics/SVG/1.1/DTD/svg11.dtd">
<!-- Generated by graphviz version 2.43.0 (0)
 -->
<!-- Title: EshelbianPlasticity::HMHNeohookean Pages: 1 -->
<svg width="349pt" height="217pt"
 viewBox="0.00 0.00 348.50 217.00" xmlns="http://www.w3.org/2000/svg" xmlns:xlink="http://www.w3.org/1999/xlink">
<g id="graph0" class="graph" transform="scale(1 1) rotate(0) translate(4 213)">
<title>EshelbianPlasticity::HMHNeohookean</title>
<polygon fill="white" stroke="transparent" points="-4,4 -4,-213 344.5,-213 344.5,4 -4,4"/>
<!-- Node1 -->
<g id="node1" class="node">
<title>Node1</title>
<g id="a_node1"><a xlink:title=" ">
<polygon fill="#bfbfbf" stroke="black" points="100,-0.5 100,-30.5 209,-30.5 209,-0.5 100,-0.5"/>
<text text-anchor="start" x="108" y="-18.5" font-family="Helvetica,sans-Serif" font-size="10.00">EshelbianPlasticity</text>
<text text-anchor="middle" x="154.5" y="-7.5" font-family="Helvetica,sans-Serif" font-size="10.00">::HMHNeohookean</text>
</a>
</g>
</g>
<!-- Node2 -->
<g id="node2" class="node">
<title>Node2</title>
<g id="a_node2"><a xlink:href="structEshelbianPlasticity_1_1PhysicalEquations.html" target="_top" xlink:title=" ">
<polygon fill="white" stroke="black" points="0,-89.5 0,-119.5 111,-119.5 111,-89.5 0,-89.5"/>
<text text-anchor="start" x="8" y="-107.5" font-family="Helvetica,sans-Serif" font-size="10.00">EshelbianPlasticity</text>
<text text-anchor="middle" x="55.5" y="-96.5" font-family="Helvetica,sans-Serif" font-size="10.00">::PhysicalEquations</text>
</a>
</g>
</g>
<!-- Node2&#45;&gt;Node1 -->
<g id="edge1" class="edge">
<title>Node2&#45;&gt;Node1</title>
<path fill="none" stroke="midnightblue" d="M79.75,-82.19C98.02,-66.13 122.56,-44.57 138.46,-30.6"/>
<polygon fill="midnightblue" stroke="midnightblue" points="77.05,-79.9 71.85,-89.13 81.67,-85.16 77.05,-79.9"/>
</g>
<!-- Node3 -->
<g id="node3" class="node">
<title>Node3</title>
<g id="a_node3"><a xlink:title=" ">
<polygon fill="white" stroke="#bfbfbf" points="4,-189.5 4,-208.5 107,-208.5 107,-189.5 4,-189.5"/>
<text text-anchor="middle" x="55.5" y="-196.5" font-family="Helvetica,sans-Serif" font-size="10.00">vector&lt; double &gt;</text>
</a>
</g>
</g>
<!-- Node3&#45;&gt;Node2 -->
<g id="edge2" class="edge">
<title>Node3&#45;&gt;Node2</title>
<path fill="none" stroke="#9a32cd" stroke-dasharray="5,2" d="M55.5,-179.29C55.5,-161.67 55.5,-135.67 55.5,-119.7"/>
<polygon fill="#9a32cd" stroke="#9a32cd" points="52,-179.46 55.5,-189.46 59,-179.46 52,-179.46"/>
<text text-anchor="middle" x="144.5" y="-163" font-family="Helvetica,sans-Serif" font-size="10.00"> activeVariables</text>
<text text-anchor="middle" x="144.5" y="-152" font-family="Helvetica,sans-Serif" font-size="10.00">dependentVariablesPiola</text>
<text text-anchor="middle" x="144.5" y="-141" font-family="Helvetica,sans-Serif" font-size="10.00">dependentVariablesPiolaDirevatives</text>
</g>
<!-- Node4 -->
<g id="node4" class="node">
<title>Node4</title>
<g id="a_node4"><a xlink:href="classdouble.html" target="_top" xlink:title=" ">
<polygon fill="white" stroke="black" points="129.5,-95 129.5,-114 179.5,-114 179.5,-95 129.5,-95"/>
<text text-anchor="middle" x="154.5" y="-102" font-family="Helvetica,sans-Serif" font-size="10.00">double</text>
</a>
</g>
</g>
<!-- Node4&#45;&gt;Node1 -->
<g id="edge3" class="edge">
<title>Node4&#45;&gt;Node1</title>
<path fill="none" stroke="#9a32cd" stroke-dasharray="5,2" d="M154.5,-84.41C154.5,-68.15 154.5,-45.16 154.5,-30.55"/>
<polygon fill="#9a32cd" stroke="#9a32cd" points="151,-84.84 154.5,-94.84 158,-84.84 151,-84.84"/>
<text text-anchor="middle" x="163.5" y="-63" font-family="Helvetica,sans-Serif" font-size="10.00"> K</text>
<text text-anchor="middle" x="163.5" y="-52" font-family="Helvetica,sans-Serif" font-size="10.00">c10</text>
</g>
<!-- Node5 -->
<g id="node5" class="node">
<title>Node5</title>
<g id="a_node5"><a xlink:title=" ">
<polygon fill="white" stroke="#bfbfbf" points="198,-95 198,-114 227,-114 227,-95 198,-95"/>
<text text-anchor="middle" x="212.5" y="-102" font-family="Helvetica,sans-Serif" font-size="10.00">int</text>
</a>
</g>
</g>
<!-- Node5&#45;&gt;Node1 -->
<g id="edge4" class="edge">
<title>Node5&#45;&gt;Node1</title>
<path fill="none" stroke="#9a32cd" stroke-dasharray="5,2" d="M201.37,-86.54C194.28,-75.76 184.89,-61.54 176.5,-49 172.49,-43 168.02,-36.39 164.17,-30.71"/>
<polygon fill="#9a32cd" stroke="#9a32cd" points="198.5,-88.55 206.92,-94.98 204.35,-84.71 198.5,-88.55"/>
<text text-anchor="middle" x="265" y="-63" font-family="Helvetica,sans-Serif" font-size="10.00"> numberOfDependentVariables</text>
<text text-anchor="middle" x="265" y="-52" font-family="Helvetica,sans-Serif" font-size="10.00">numberOfActiveVariables</text>
</g>
</g>
</svg>
