<?xml version="1.0" encoding="UTF-8" standalone="no"?>
<!DOCTYPE svg PUBLIC "-//W3C//DTD SVG 1.1//EN"
 "http://www.w3.org/Graphics/SVG/1.1/DTD/svg11.dtd">
<!-- Generated by graphviz version 2.43.0 (0)
 -->
<!-- Title: MoFEM::OpCalculateTensor2SymmetricFieldGradient_General&lt; Tensor_Dim0, Tensor_Dim1, T, L, A &gt; Pages: 1 -->
<svg width="747pt" height="61pt"
 viewBox="0.00 0.00 747.00 61.00" xmlns="http://www.w3.org/2000/svg" xmlns:xlink="http://www.w3.org/1999/xlink">
<g id="graph0" class="graph" transform="scale(1 1) rotate(0) translate(4 57)">
<title>MoFEM::OpCalculateTensor2SymmetricFieldGradient_General&lt; Tensor_Dim0, Tensor_Dim1, T, L, A &gt;</title>
<polygon fill="white" stroke="transparent" points="-4,4 -4,-57 743,-57 743,4 -4,4"/>
<!-- Node1 -->
<g id="node1" class="node">
<title>Node1</title>
<g id="a_node1"><a xlink:title="Evaluate field gradient values for symmetric 2nd order tensor field, i.e. gradient is tensor rank 3.">
<polygon fill="#bfbfbf" stroke="black" points="567,-0.5 567,-52.5 739,-52.5 739,-0.5 567,-0.5"/>
<text text-anchor="start" x="575" y="-40.5" font-family="Helvetica,sans-Serif" font-size="10.00">MoFEM::OpCalculateTensor2</text>
<text text-anchor="start" x="575" y="-29.5" font-family="Helvetica,sans-Serif" font-size="10.00">SymmetricFieldGradient</text>
<text text-anchor="start" x="575" y="-18.5" font-family="Helvetica,sans-Serif" font-size="10.00">_General&lt; Tensor_Dim0, Tensor</text>
<text text-anchor="middle" x="653" y="-7.5" font-family="Helvetica,sans-Serif" font-size="10.00">_Dim1, T, L, A &gt;</text>
</a>
</g>
</g>
<!-- Node2 -->
<g id="node2" class="node">
<title>Node2</title>
<g id="a_node2"><a xlink:href="structMoFEM_1_1OpCalculateTensor2FieldValues__General.html" target="_top" xlink:title="Calculate field values for tenor field rank 2.">
<polygon fill="white" stroke="black" points="367,-6 367,-47 531,-47 531,-6 367,-6"/>
<text text-anchor="start" x="375" y="-35" font-family="Helvetica,sans-Serif" font-size="10.00">MoFEM::OpCalculateTensor2</text>
<text text-anchor="start" x="375" y="-24" font-family="Helvetica,sans-Serif" font-size="10.00">FieldValues_General&lt; Tensor</text>
<text text-anchor="middle" x="449" y="-13" font-family="Helvetica,sans-Serif" font-size="10.00">_Dim0, Tensor_Dim1, T, L, A &gt;</text>
</a>
</g>
</g>
<!-- Node2&#45;&gt;Node1 -->
<g id="edge1" class="edge">
<title>Node2&#45;&gt;Node1</title>
<path fill="none" stroke="midnightblue" d="M541.54,-26.5C549.99,-26.5 558.53,-26.5 566.92,-26.5"/>
<polygon fill="midnightblue" stroke="midnightblue" points="541.29,-23 531.29,-26.5 541.29,-30 541.29,-23"/>
</g>
<!-- Node3 -->
<g id="node3" class="node">
<title>Node3</title>
<g id="a_node3"><a xlink:href="structMoFEM_1_1ForcesAndSourcesCore_1_1UserDataOperator.html" target="_top" xlink:title=" ">
<polygon fill="white" stroke="black" points="161,-11.5 161,-41.5 331,-41.5 331,-11.5 161,-11.5"/>
<text text-anchor="start" x="169" y="-29.5" font-family="Helvetica,sans-Serif" font-size="10.00">MoFEM::ForcesAndSourcesCore</text>
<text text-anchor="middle" x="246" y="-18.5" font-family="Helvetica,sans-Serif" font-size="10.00">::UserDataOperator</text>
</a>
</g>
</g>
<!-- Node3&#45;&gt;Node2 -->
<g id="edge2" class="edge">
<title>Node3&#45;&gt;Node2</title>
<path fill="none" stroke="midnightblue" d="M341.12,-26.5C349.71,-26.5 358.37,-26.5 366.83,-26.5"/>
<polygon fill="midnightblue" stroke="midnightblue" points="341.08,-23 331.08,-26.5 341.08,-30 341.08,-23"/>
</g>
<!-- Node4 -->
<g id="node4" class="node">
<title>Node4</title>
<g id="a_node4"><a xlink:href="structMoFEM_1_1DataOperator.html" target="_top" xlink:title="base operator to do operations at Gauss Pt. level">
<polygon fill="white" stroke="black" points="0,-17 0,-36 125,-36 125,-17 0,-17"/>
<text text-anchor="middle" x="62.5" y="-24" font-family="Helvetica,sans-Serif" font-size="10.00">MoFEM::DataOperator</text>
</a>
</g>
</g>
<!-- Node4&#45;&gt;Node3 -->
<g id="edge3" class="edge">
<title>Node4&#45;&gt;Node3</title>
<path fill="none" stroke="midnightblue" d="M135.34,-26.5C143.75,-26.5 152.4,-26.5 160.97,-26.5"/>
<polygon fill="midnightblue" stroke="midnightblue" points="135.2,-23 125.2,-26.5 135.2,-30 135.2,-23"/>
</g>
</g>
</svg>
