<?xml version="1.0" encoding="UTF-8" standalone="no"?>
<!DOCTYPE svg PUBLIC "-//W3C//DTD SVG 1.1//EN"
 "http://www.w3.org/Graphics/SVG/1.1/DTD/svg11.dtd">
<!-- Generated by graphviz version 2.43.0 (0)
 -->
<!-- Title: FractureMechanics::OpSetTagRangeOnSkin Pages: 1 -->
<svg width="3479pt" height="1495pt"
 viewBox="0.00 0.00 3479.00 1494.57" xmlns="http://www.w3.org/2000/svg" xmlns:xlink="http://www.w3.org/1999/xlink">
<g id="graph0" class="graph" transform="scale(1 1) rotate(0) translate(4 1490.57)">
<title>FractureMechanics::OpSetTagRangeOnSkin</title>
<polygon fill="white" stroke="transparent" points="-4,4 -4,-1490.57 3475,-1490.57 3475,4 -4,4"/>
<!-- Node1 -->
<g id="node1" class="node">
<title>Node1</title>
<g id="a_node1"><a xlink:title="Mark crack surfaces on skin.">
<polygon fill="#bfbfbf" stroke="black" points="3343,-794.57 3343,-824.57 3471,-824.57 3471,-794.57 3343,-794.57"/>
<text text-anchor="start" x="3351" y="-812.57" font-family="Helvetica,sans-Serif" font-size="10.00">FractureMechanics::</text>
<text text-anchor="middle" x="3407" y="-801.57" font-family="Helvetica,sans-Serif" font-size="10.00">OpSetTagRangeOnSkin</text>
</a>
</g>
</g>
<!-- Node2 -->
<g id="node2" class="node">
<title>Node2</title>
<g id="a_node2"><a xlink:href="structMoFEM_1_1FaceElementForcesAndSourcesCore_1_1UserDataOperator.html" target="_top" xlink:title="default operator for TRI element">
<polygon fill="white" stroke="black" points="3044,-941.57 3044,-971.57 3235,-971.57 3235,-941.57 3044,-941.57"/>
<text text-anchor="start" x="3052" y="-959.57" font-family="Helvetica,sans-Serif" font-size="10.00">MoFEM::FaceElementForces</text>
<text text-anchor="middle" x="3139.5" y="-948.57" font-family="Helvetica,sans-Serif" font-size="10.00">AndSourcesCore::UserDataOperator</text>
</a>
</g>
</g>
<!-- Node2&#45;&gt;Node1 -->
<g id="edge1" class="edge">
<title>Node2&#45;&gt;Node1</title>
<path fill="none" stroke="midnightblue" d="M3238.72,-938.88C3267.98,-930.78 3299.12,-919.14 3325,-902.57 3356.92,-882.13 3383.42,-845.5 3396.74,-824.83"/>
<polygon fill="midnightblue" stroke="midnightblue" points="3237.64,-935.55 3228.88,-941.5 3239.44,-942.31 3237.64,-935.55"/>
</g>
<!-- Node3 -->
<g id="node3" class="node">
<title>Node3</title>
<g id="a_node3"><a xlink:href="structMoFEM_1_1ForcesAndSourcesCore_1_1UserDataOperator.html" target="_top" xlink:title=" ">
<polygon fill="white" stroke="black" points="2837,-980.57 2837,-1010.57 3007,-1010.57 3007,-980.57 2837,-980.57"/>
<text text-anchor="start" x="2845" y="-998.57" font-family="Helvetica,sans-Serif" font-size="10.00">MoFEM::ForcesAndSourcesCore</text>
<text text-anchor="middle" x="2922" y="-987.57" font-family="Helvetica,sans-Serif" font-size="10.00">::UserDataOperator</text>
</a>
</g>
</g>
<!-- Node3&#45;&gt;Node2 -->
<g id="edge2" class="edge">
<title>Node3&#45;&gt;Node2</title>
<path fill="none" stroke="midnightblue" d="M3015.99,-978.74C3029.14,-976.36 3042.59,-973.92 3055.53,-971.58"/>
<polygon fill="midnightblue" stroke="midnightblue" points="3015.23,-975.32 3006.01,-980.54 3016.47,-982.21 3015.23,-975.32"/>
</g>
<!-- Node4 -->
<g id="node4" class="node">
<title>Node4</title>
<g id="a_node4"><a xlink:href="structMoFEM_1_1DataOperator.html" target="_top" xlink:title="base operator to do operations at Gauss Pt. level">
<polygon fill="white" stroke="black" points="2579.5,-1040.07 2579.5,-1059.07 2704.5,-1059.07 2704.5,-1040.07 2579.5,-1040.07"/>
<text text-anchor="middle" x="2642" y="-1047.07" font-family="Helvetica,sans-Serif" font-size="10.00">MoFEM::DataOperator</text>
</a>
</g>
</g>
<!-- Node4&#45;&gt;Node3 -->
<g id="edge3" class="edge">
<title>Node4&#45;&gt;Node3</title>
<path fill="none" stroke="midnightblue" d="M2701.96,-1038.11C2743.22,-1030.1 2798.75,-1019.31 2843.58,-1010.61"/>
<polygon fill="midnightblue" stroke="midnightblue" points="2701.21,-1034.69 2692.06,-1040.04 2702.54,-1041.57 2701.21,-1034.69"/>
</g>
<!-- Node5 -->
<g id="node5" class="node">
<title>Node5</title>
<g id="a_node5"><a xlink:title=" ">
<polygon fill="white" stroke="#bfbfbf" points="2160,-1013.57 2160,-1065.57 2352,-1065.57 2352,-1013.57 2160,-1013.57"/>
<text text-anchor="start" x="2168" y="-1053.57" font-family="Helvetica,sans-Serif" font-size="10.00">function&lt; MoFEMErrorCode</text>
<text text-anchor="start" x="2168" y="-1042.57" font-family="Helvetica,sans-Serif" font-size="10.00">(DataOperator *op_ptr,</text>
<text text-anchor="start" x="2168" y="-1031.57" font-family="Helvetica,sans-Serif" font-size="10.00"> int side, EntityType type,</text>
<text text-anchor="middle" x="2256" y="-1020.57" font-family="Helvetica,sans-Serif" font-size="10.00"> EntitiesFieldData::EntData &amp;data)&gt;</text>
</a>
</g>
</g>
<!-- Node5&#45;&gt;Node4 -->
<g id="edge4" class="edge">
<title>Node5&#45;&gt;Node4</title>
<path fill="none" stroke="#9a32cd" stroke-dasharray="5,2" d="M2362.55,-1042.31C2432.19,-1044.13 2521.03,-1046.44 2579.39,-1047.96"/>
<polygon fill="#9a32cd" stroke="#9a32cd" points="2362.5,-1038.81 2352.41,-1042.05 2362.32,-1045.81 2362.5,-1038.81"/>
<text text-anchor="middle" x="2458" y="-1049.57" font-family="Helvetica,sans-Serif" font-size="10.00"> doWorkRhsHook</text>
</g>
<!-- Node6 -->
<g id="node6" class="node">
<title>Node6</title>
<g id="a_node6"><a xlink:href="classbool.html" target="_top" xlink:title=" ">
<polygon fill="white" stroke="black" points="2237,-940.07 2237,-959.07 2275,-959.07 2275,-940.07 2237,-940.07"/>
<text text-anchor="middle" x="2256" y="-947.07" font-family="Helvetica,sans-Serif" font-size="10.00">bool</text>
</a>
</g>
</g>
<!-- Node6&#45;&gt;Node4 -->
<g id="edge5" class="edge">
<title>Node6&#45;&gt;Node4</title>
<path fill="none" stroke="#9a32cd" stroke-dasharray="5,2" d="M2285.11,-946.89C2348.4,-941.47 2499.61,-932.06 2539,-961.57 2558.91,-976.48 2540.01,-996.39 2557,-1014.57 2568.33,-1026.68 2584.49,-1034.75 2599.63,-1040.05"/>
<polygon fill="#9a32cd" stroke="#9a32cd" points="2284.7,-943.41 2275.05,-947.78 2285.32,-950.39 2284.7,-943.41"/>
<text text-anchor="middle" x="2458" y="-1030.57" font-family="Helvetica,sans-Serif" font-size="10.00"> doTris</text>
<text text-anchor="middle" x="2458" y="-1019.57" font-family="Helvetica,sans-Serif" font-size="10.00">doQuads</text>
<text text-anchor="middle" x="2458" y="-1008.57" font-family="Helvetica,sans-Serif" font-size="10.00">sYmm</text>
<text text-anchor="middle" x="2458" y="-997.57" font-family="Helvetica,sans-Serif" font-size="10.00">doPrisms</text>
<text text-anchor="middle" x="2458" y="-986.57" font-family="Helvetica,sans-Serif" font-size="10.00">doTets</text>
<text text-anchor="middle" x="2458" y="-975.57" font-family="Helvetica,sans-Serif" font-size="10.00">doVertices</text>
<text text-anchor="middle" x="2458" y="-964.57" font-family="Helvetica,sans-Serif" font-size="10.00">doEdges</text>
</g>
<!-- Node7 -->
<g id="node7" class="node">
<title>Node7</title>
<g id="a_node7"><a xlink:title=" ">
<polygon fill="white" stroke="#bfbfbf" points="2153,-1123.07 2153,-1208.07 2359,-1208.07 2359,-1123.07 2153,-1123.07"/>
<text text-anchor="start" x="2161" y="-1196.07" font-family="Helvetica,sans-Serif" font-size="10.00">function&lt; MoFEMErrorCode</text>
<text text-anchor="start" x="2161" y="-1185.07" font-family="Helvetica,sans-Serif" font-size="10.00">(DataOperator *op_ptr,</text>
<text text-anchor="start" x="2161" y="-1174.07" font-family="Helvetica,sans-Serif" font-size="10.00"> int row_side, int col_side,</text>
<text text-anchor="start" x="2161" y="-1163.07" font-family="Helvetica,sans-Serif" font-size="10.00"> EntityType row_type, EntityType</text>
<text text-anchor="start" x="2161" y="-1152.07" font-family="Helvetica,sans-Serif" font-size="10.00"> col_type, EntitiesFieldData::EntData</text>
<text text-anchor="start" x="2161" y="-1141.07" font-family="Helvetica,sans-Serif" font-size="10.00"> &amp;row_data, EntitiesFieldData::EntData</text>
<text text-anchor="middle" x="2256" y="-1130.07" font-family="Helvetica,sans-Serif" font-size="10.00"> &amp;col_data)&gt;</text>
</a>
</g>
</g>
<!-- Node7&#45;&gt;Node4 -->
<g id="edge6" class="edge">
<title>Node7&#45;&gt;Node4</title>
<path fill="none" stroke="#9a32cd" stroke-dasharray="5,2" d="M2369.01,-1141.95C2421.26,-1129.77 2483.94,-1113.49 2539,-1094.57 2568.65,-1084.37 2601.62,-1069.06 2621.84,-1059.19"/>
<polygon fill="#9a32cd" stroke="#9a32cd" points="2367.99,-1138.59 2359.04,-1144.26 2369.57,-1145.42 2367.99,-1138.59"/>
<text text-anchor="middle" x="2458" y="-1141.57" font-family="Helvetica,sans-Serif" font-size="10.00"> doWorkLhsHook</text>
</g>
<!-- Node8 -->
<g id="node8" class="node">
<title>Node8</title>
<g id="a_node8"><a xlink:title=" ">
<polygon fill="white" stroke="#bfbfbf" points="2179,-1085.07 2179,-1104.07 2333,-1104.07 2333,-1085.07 2179,-1085.07"/>
<text text-anchor="middle" x="2256" y="-1092.07" font-family="Helvetica,sans-Serif" font-size="10.00">array&lt; bool, MBMAXTYPE &gt;</text>
</a>
</g>
</g>
<!-- Node8&#45;&gt;Node4 -->
<g id="edge7" class="edge">
<title>Node8&#45;&gt;Node4</title>
<path fill="none" stroke="#9a32cd" stroke-dasharray="5,2" d="M2343.21,-1084.49C2399.04,-1077.96 2473.32,-1069.27 2539,-1061.57 2552.02,-1060.04 2565.97,-1058.4 2579.24,-1056.84"/>
<polygon fill="#9a32cd" stroke="#9a32cd" points="2342.53,-1081.05 2333,-1085.69 2343.34,-1088 2342.53,-1081.05"/>
<text text-anchor="middle" x="2458" y="-1082.57" font-family="Helvetica,sans-Serif" font-size="10.00"> doEntities</text>
</g>
<!-- Node9 -->
<g id="node9" class="node">
<title>Node9</title>
<g id="a_node9"><a xlink:title=" ">
<polygon fill="white" stroke="#bfbfbf" points="2607.5,-986.07 2607.5,-1005.07 2676.5,-1005.07 2676.5,-986.07 2607.5,-986.07"/>
<text text-anchor="middle" x="2642" y="-993.07" font-family="Helvetica,sans-Serif" font-size="10.00">FieldSpace</text>
</a>
</g>
</g>
<!-- Node9&#45;&gt;Node3 -->
<g id="edge8" class="edge">
<title>Node9&#45;&gt;Node3</title>
<path fill="none" stroke="#9a32cd" stroke-dasharray="5,2" d="M2686.79,-995.57C2726.94,-995.57 2787.51,-995.57 2836.99,-995.57"/>
<polygon fill="#9a32cd" stroke="#9a32cd" points="2686.53,-992.07 2676.53,-995.57 2686.53,-999.07 2686.53,-992.07"/>
<text text-anchor="middle" x="2782" y="-998.57" font-family="Helvetica,sans-Serif" font-size="10.00"> sPace</text>
</g>
<!-- Node10 -->
<g id="node10" class="node">
<title>Node10</title>
<g id="a_node10"><a xlink:title=" ">
<polygon fill="white" stroke="#bfbfbf" points="1122.5,-1422.07 1122.5,-1441.07 1160.5,-1441.07 1160.5,-1422.07 1122.5,-1422.07"/>
<text text-anchor="middle" x="1141.5" y="-1429.07" font-family="Helvetica,sans-Serif" font-size="10.00">char</text>
</a>
</g>
</g>
<!-- Node10&#45;&gt;Node3 -->
<g id="edge9" class="edge">
<title>Node10&#45;&gt;Node3</title>
<path fill="none" stroke="#9a32cd" stroke-dasharray="5,2" d="M1170.82,-1431.57C1230.98,-1431.57 1375.95,-1431.57 1497.5,-1431.57 1497.5,-1431.57 1497.5,-1431.57 2643,-1431.57 2847.23,-1431.57 2908.02,-1087.24 2919.02,-1010.57"/>
<polygon fill="#9a32cd" stroke="#9a32cd" points="1170.6,-1428.07 1160.6,-1431.57 1170.6,-1435.07 1170.6,-1428.07"/>
<text text-anchor="middle" x="2063" y="-1434.57" font-family="Helvetica,sans-Serif" font-size="10.00"> opType</text>
</g>
<!-- Node38 -->
<g id="node38" class="node">
<title>Node38</title>
<g id="a_node38"><a xlink:href="structMoFEM_1_1Problem.html" target="_top" xlink:title="keeps basic data about problem">
<polygon fill="white" stroke="black" points="1449,-1162.07 1449,-1181.07 1548,-1181.07 1548,-1162.07 1449,-1162.07"/>
<text text-anchor="middle" x="1498.5" y="-1169.07" font-family="Helvetica,sans-Serif" font-size="10.00">MoFEM::Problem</text>
</a>
</g>
</g>
<!-- Node10&#45;&gt;Node38 -->
<g id="edge53" class="edge">
<title>Node10&#45;&gt;Node38</title>
<path fill="none" stroke="#9a32cd" stroke-dasharray="5,2" d="M1170.84,-1426.51C1191.04,-1422.76 1218.79,-1417.33 1243,-1411.57 1251.08,-1409.64 1252.9,-1408.37 1261,-1406.57 1320.84,-1393.23 1348.12,-1420.56 1397,-1383.57 1467.48,-1330.23 1490.69,-1214.99 1496.12,-1181.11"/>
<polygon fill="#9a32cd" stroke="#9a32cd" points="1169.95,-1423.11 1160.74,-1428.36 1171.21,-1430 1169.95,-1423.11"/>
<text text-anchor="middle" x="1329" y="-1409.57" font-family="Helvetica,sans-Serif" font-size="10.00"> tagName</text>
</g>
<!-- Node11 -->
<g id="node11" class="node">
<title>Node11</title>
<g id="a_node11"><a xlink:href="structMoFEM_1_1ForcesAndSourcesCore.html" target="_top" xlink:title="structure to get information form mofem into EntitiesFieldData">
<polygon fill="white" stroke="black" points="2557,-533.07 2557,-552.07 2727,-552.07 2727,-533.07 2557,-533.07"/>
<text text-anchor="middle" x="2642" y="-540.07" font-family="Helvetica,sans-Serif" font-size="10.00">MoFEM::ForcesAndSourcesCore</text>
</a>
</g>
</g>
<!-- Node11&#45;&gt;Node3 -->
<g id="edge10" class="edge">
<title>Node11&#45;&gt;Node3</title>
<path fill="none" stroke="#9a32cd" stroke-dasharray="5,2" d="M2645.95,-562.13C2654.3,-612.55 2681.69,-749.53 2745,-843.57 2767.27,-876.64 2859.93,-949.15 2901.12,-980.56"/>
<polygon fill="#9a32cd" stroke="#9a32cd" points="2649.41,-561.56 2644.38,-552.23 2642.49,-562.66 2649.41,-561.56"/>
<text text-anchor="middle" x="2782" y="-913.57" font-family="Helvetica,sans-Serif" font-size="10.00"> ptrFE</text>
</g>
<!-- Node11&#45;&gt;Node11 -->
<g id="edge68" class="edge">
<title>Node11&#45;&gt;Node11</title>
<path fill="none" stroke="#9a32cd" stroke-dasharray="5,2" d="M2615.96,-561.6C2617.38,-566.69 2626.06,-570.57 2642,-570.57 2666.88,-570.57 2674.08,-561.13 2663.58,-552.32"/>
<polygon fill="#9a32cd" stroke="#9a32cd" points="2619.24,-562.85 2620.42,-552.32 2612.93,-559.82 2619.24,-562.85"/>
<text text-anchor="middle" x="2642" y="-584.57" font-family="Helvetica,sans-Serif" font-size="10.00"> sidePtrFE</text>
<text text-anchor="middle" x="2642" y="-573.57" font-family="Helvetica,sans-Serif" font-size="10.00">refinePtrFE</text>
</g>
<!-- Node12 -->
<g id="node12" class="node">
<title>Node12</title>
<g id="a_node12"><a xlink:href="structMoFEM_1_1FEMethod.html" target="_top" xlink:title="structure for User Loop Methods on finite elements">
<polygon fill="white" stroke="black" points="2202.5,-512.07 2202.5,-531.07 2309.5,-531.07 2309.5,-512.07 2202.5,-512.07"/>
<text text-anchor="middle" x="2256" y="-519.07" font-family="Helvetica,sans-Serif" font-size="10.00">MoFEM::FEMethod</text>
</a>
</g>
</g>
<!-- Node12&#45;&gt;Node11 -->
<g id="edge11" class="edge">
<title>Node12&#45;&gt;Node11</title>
<path fill="none" stroke="midnightblue" d="M2319.62,-524.99C2384.15,-528.52 2485.15,-534.04 2556.68,-537.96"/>
<polygon fill="midnightblue" stroke="midnightblue" points="2319.76,-521.49 2309.59,-524.44 2319.38,-528.48 2319.76,-521.49"/>
</g>
<!-- Node13 -->
<g id="node13" class="node">
<title>Node13</title>
<g id="a_node13"><a xlink:href="structMoFEM_1_1BasicMethod.html" target="_top" xlink:title="Data structure to exchange data between mofem and User Loop Methods.">
<polygon fill="white" stroke="black" points="1825,-468.07 1825,-487.07 1947,-487.07 1947,-468.07 1825,-468.07"/>
<text text-anchor="middle" x="1886" y="-475.07" font-family="Helvetica,sans-Serif" font-size="10.00">MoFEM::BasicMethod</text>
</a>
</g>
</g>
<!-- Node13&#45;&gt;Node12 -->
<g id="edge12" class="edge">
<title>Node13&#45;&gt;Node12</title>
<path fill="none" stroke="midnightblue" d="M1957.63,-486.01C2029.14,-494.56 2138.1,-507.59 2202.37,-515.27"/>
<polygon fill="midnightblue" stroke="midnightblue" points="1957.7,-482.49 1947.36,-484.78 1956.87,-489.45 1957.7,-482.49"/>
</g>
<!-- Node14 -->
<g id="node14" class="node">
<title>Node14</title>
<g id="a_node14"><a xlink:href="structMoFEM_1_1KspMethod.html" target="_top" xlink:title="data structure for ksp (linear solver) context">
<polygon fill="white" stroke="black" points="1442,-633.07 1442,-652.07 1555,-652.07 1555,-633.07 1442,-633.07"/>
<text text-anchor="middle" x="1498.5" y="-640.07" font-family="Helvetica,sans-Serif" font-size="10.00">MoFEM::KspMethod</text>
</a>
</g>
</g>
<!-- Node14&#45;&gt;Node13 -->
<g id="edge13" class="edge">
<title>Node14&#45;&gt;Node13</title>
<path fill="none" stroke="midnightblue" d="M1538.92,-629.73C1595.58,-610.19 1701.91,-569.38 1781,-514.57 1790.3,-508.12 1789.08,-502 1799,-496.57 1806.91,-492.23 1815.74,-488.88 1824.65,-486.3"/>
<polygon fill="midnightblue" stroke="midnightblue" points="1537.6,-626.48 1529.27,-633.02 1539.86,-633.1 1537.6,-626.48"/>
</g>
<!-- Node15 -->
<g id="node15" class="node">
<title>Node15</title>
<g id="a_node15"><a xlink:href="structMoFEM_1_1PetscData.html" target="_top" xlink:title=" ">
<polygon fill="white" stroke="black" points="1087.5,-84.07 1087.5,-103.07 1195.5,-103.07 1195.5,-84.07 1087.5,-84.07"/>
<text text-anchor="middle" x="1141.5" y="-91.07" font-family="Helvetica,sans-Serif" font-size="10.00">MoFEM::PetscData</text>
</a>
</g>
</g>
<!-- Node15&#45;&gt;Node14 -->
<g id="edge14" class="edge">
<title>Node15&#45;&gt;Node14</title>
<path fill="none" stroke="midnightblue" d="M1205.84,-97.05C1219.76,-100.73 1233.25,-107.02 1243,-117.57 1277.83,-155.22 1225.58,-194.46 1261,-231.57 1303.61,-276.2 1356.45,-213.05 1397,-259.57 1436.8,-305.23 1394.08,-474.72 1415,-531.57 1430.84,-574.6 1468.97,-615.21 1487.31,-633.06"/>
<polygon fill="midnightblue" stroke="midnightblue" points="1206.18,-93.55 1195.67,-94.82 1204.68,-100.38 1206.18,-93.55"/>
</g>
<!-- Node25 -->
<g id="node25" class="node">
<title>Node25</title>
<g id="a_node25"><a xlink:href="structMoFEM_1_1SnesMethod.html" target="_top" xlink:title="data structure for snes (nonlinear solver) context">
<polygon fill="white" stroke="black" points="1439,-503.07 1439,-522.07 1558,-522.07 1558,-503.07 1439,-503.07"/>
<text text-anchor="middle" x="1498.5" y="-510.07" font-family="Helvetica,sans-Serif" font-size="10.00">MoFEM::SnesMethod</text>
</a>
</g>
</g>
<!-- Node15&#45;&gt;Node25 -->
<g id="edge27" class="edge">
<title>Node15&#45;&gt;Node25</title>
<path fill="none" stroke="darkgreen" d="M1202.88,-105.5C1216.27,-108.83 1230.26,-112.86 1243,-117.57 1315.15,-144.25 1354.93,-132.17 1397,-196.57 1433.16,-251.92 1372.28,-443.1 1415,-493.57 1421.27,-500.97 1429.79,-505.82 1438.98,-508.94"/>
<polygon fill="darkgreen" stroke="darkgreen" points="1203.33,-102.01 1192.79,-103.09 1201.7,-108.82 1203.33,-102.01"/>
</g>
<!-- Node28 -->
<g id="node28" class="node">
<title>Node28</title>
<g id="a_node28"><a xlink:href="structMoFEM_1_1TSMethod.html" target="_top" xlink:title="data structure for TS (time stepping) context">
<polygon fill="white" stroke="black" points="1445,-231.07 1445,-250.07 1552,-250.07 1552,-231.07 1445,-231.07"/>
<text text-anchor="middle" x="1498.5" y="-238.07" font-family="Helvetica,sans-Serif" font-size="10.00">MoFEM::TSMethod</text>
</a>
</g>
</g>
<!-- Node15&#45;&gt;Node28 -->
<g id="edge33" class="edge">
<title>Node15&#45;&gt;Node28</title>
<path fill="none" stroke="darkgreen" d="M1205.75,-85.03C1259.75,-80.77 1337.85,-82.02 1397,-113.57 1448.11,-140.82 1482.04,-206.45 1493.35,-231.04"/>
<polygon fill="darkgreen" stroke="darkgreen" points="1205.28,-81.56 1195.62,-85.91 1205.88,-88.53 1205.28,-81.56"/>
</g>
<!-- Node16 -->
<g id="node16" class="node">
<title>Node16</title>
<g id="a_node16"><a xlink:href="structMoFEM_1_1UnknownInterface.html" target="_top" xlink:title="base class for all interface classes">
<polygon fill="white" stroke="black" points="735,-1.07 735,-20.07 883,-20.07 883,-1.07 735,-1.07"/>
<text text-anchor="middle" x="809" y="-8.07" font-family="Helvetica,sans-Serif" font-size="10.00">MoFEM::UnknownInterface</text>
</a>
</g>
</g>
<!-- Node16&#45;&gt;Node15 -->
<g id="edge15" class="edge">
<title>Node16&#45;&gt;Node15</title>
<path fill="none" stroke="midnightblue" d="M893.42,-10.97C943.41,-12.7 1001.19,-17.78 1022,-31.57 1035.93,-40.79 1026.97,-54.11 1040,-64.57 1053.53,-75.42 1070.95,-82.21 1087.47,-86.46"/>
<polygon fill="midnightblue" stroke="midnightblue" points="893.31,-7.46 883.21,-10.66 893.1,-14.46 893.31,-7.46"/>
</g>
<!-- Node56 -->
<g id="node56" class="node">
<title>Node56</title>
<g id="a_node56"><a xlink:href="structMoFEM_1_1CoreInterface.html" target="_top" xlink:title="Interface.">
<polygon fill="white" stroke="black" points="1079,-36.07 1079,-55.07 1204,-55.07 1204,-36.07 1079,-36.07"/>
<text text-anchor="middle" x="1141.5" y="-43.07" font-family="Helvetica,sans-Serif" font-size="10.00">MoFEM::CoreInterface</text>
</a>
</g>
</g>
<!-- Node16&#45;&gt;Node56 -->
<g id="edge67" class="edge">
<title>Node16&#45;&gt;Node56</title>
<path fill="none" stroke="midnightblue" d="M893.7,-4.84C896.16,-4.74 898.6,-4.65 901,-4.57 954.75,-2.8 968.97,4.35 1022,-4.57 1057.42,-10.52 1096.41,-25.83 1119.65,-35.96"/>
<polygon fill="midnightblue" stroke="midnightblue" points="893.32,-1.35 883.49,-5.3 893.64,-8.34 893.32,-1.35"/>
</g>
<!-- Node17 -->
<g id="node17" class="node">
<title>Node17</title>
<g id="a_node17"><a xlink:title=" ">
<polygon fill="white" stroke="#bfbfbf" points="386,-539.07 386,-602.07 627,-602.07 627,-539.07 386,-539.07"/>
<text text-anchor="start" x="394" y="-590.07" font-family="Helvetica,sans-Serif" font-size="10.00">multi_index_container</text>
<text text-anchor="start" x="394" y="-579.07" font-family="Helvetica,sans-Serif" font-size="10.00">&lt; UIdTypeMap, indexed</text>
<text text-anchor="start" x="394" y="-568.07" font-family="Helvetica,sans-Serif" font-size="10.00">_by&lt; hashed_unique&lt; member</text>
<text text-anchor="start" x="394" y="-557.07" font-family="Helvetica,sans-Serif" font-size="10.00">&lt; UIdTypeMap, boost::typeindex</text>
<text text-anchor="middle" x="506.5" y="-546.07" font-family="Helvetica,sans-Serif" font-size="10.00">::type_index, &amp;UIdTypeMap::classIdx &gt; &gt; &gt; &gt;</text>
</a>
</g>
</g>
<!-- Node17&#45;&gt;Node16 -->
<g id="edge16" class="edge">
<title>Node17&#45;&gt;Node16</title>
<path fill="none" stroke="#9a32cd" stroke-dasharray="5,2" d="M512.49,-528.84C526.93,-427.22 578.22,-165.33 735,-29.57 739.45,-25.71 744.6,-22.62 750.05,-20.15"/>
<polygon fill="#9a32cd" stroke="#9a32cd" points="508.99,-528.63 511.1,-539.01 515.92,-529.58 508.99,-528.63"/>
<text text-anchor="middle" x="681" y="-127.57" font-family="Helvetica,sans-Serif" font-size="10.00"> iFaceTypeMap</text>
</g>
<!-- Node18 -->
<g id="node18" class="node">
<title>Node18</title>
<g id="a_node18"><a xlink:title=" ">
<polygon fill="white" stroke="#bfbfbf" points="0,-761.07 0,-780.07 125,-780.07 125,-761.07 0,-761.07"/>
<text text-anchor="middle" x="62.5" y="-768.07" font-family="Helvetica,sans-Serif" font-size="10.00">multi_index_container</text>
</a>
</g>
</g>
<!-- Node18&#45;&gt;Node13 -->
<g id="edge40" class="edge">
<title>Node18&#45;&gt;Node13</title>
<path fill="none" stroke="#9a32cd" stroke-dasharray="5,2" d="M135.25,-779.82C137.86,-780.09 140.45,-780.34 143,-780.57 303.7,-795.09 344.14,-800.57 505.5,-800.57 505.5,-800.57 505.5,-800.57 962.5,-800.57 1156.6,-800.57 1212.41,-816.58 1397,-756.57 1576.61,-698.17 1662.61,-721.72 1781,-574.57 1803.3,-546.85 1773.73,-521.61 1799,-496.57 1806.06,-489.57 1815.08,-484.9 1824.61,-481.83"/>
<polygon fill="#9a32cd" stroke="#9a32cd" points="135.4,-776.32 125.08,-778.74 134.66,-783.28 135.4,-776.32"/>
<text text-anchor="middle" x="961.5" y="-880.57" font-family="Helvetica,sans-Serif" font-size="10.00"> adjacenciesPtr</text>
<text text-anchor="middle" x="961.5" y="-869.57" font-family="Helvetica,sans-Serif" font-size="10.00">refinedEntitiesPtr</text>
<text text-anchor="middle" x="961.5" y="-858.57" font-family="Helvetica,sans-Serif" font-size="10.00">finiteElementsEntitiesPtr</text>
<text text-anchor="middle" x="961.5" y="-847.57" font-family="Helvetica,sans-Serif" font-size="10.00">dofsPtr</text>
<text text-anchor="middle" x="961.5" y="-836.57" font-family="Helvetica,sans-Serif" font-size="10.00">entitiesPtr</text>
<text text-anchor="middle" x="961.5" y="-825.57" font-family="Helvetica,sans-Serif" font-size="10.00">finiteElementsPtr</text>
<text text-anchor="middle" x="961.5" y="-814.57" font-family="Helvetica,sans-Serif" font-size="10.00">refinedFiniteElementsPtr</text>
<text text-anchor="middle" x="961.5" y="-803.57" font-family="Helvetica,sans-Serif" font-size="10.00">fieldsPtr</text>
</g>
<!-- Node18&#45;&gt;Node17 -->
<g id="edge17" class="edge">
<title>Node18&#45;&gt;Node17</title>
<path fill="none" stroke="orange" stroke-dasharray="5,2" d="M93.66,-756.92C163.43,-725.35 337.5,-646.58 435.54,-602.22"/>
<polygon fill="orange" stroke="orange" points="92.19,-753.74 84.52,-761.05 95.07,-760.12 92.19,-753.74"/>
<text text-anchor="start" x="143" y="-768.57" font-family="Helvetica,sans-Serif" font-size="10.00"> &lt; UIdTypeMap, indexed</text>
<text text-anchor="start" x="143" y="-757.57" font-family="Helvetica,sans-Serif" font-size="10.00">_by&lt; hashed_unique&lt; member</text>
<text text-anchor="start" x="143" y="-746.57" font-family="Helvetica,sans-Serif" font-size="10.00">&lt; UIdTypeMap, boost::typeindex</text>
<text text-anchor="middle" x="255.5" y="-735.57" font-family="Helvetica,sans-Serif" font-size="10.00">::type_index, &amp;UIdTypeMap::classIdx &gt; &gt; &gt; &gt;</text>
</g>
<!-- Node19 -->
<g id="node19" class="node">
<title>Node19</title>
<g id="a_node19"><a xlink:title=" ">
<polygon fill="white" stroke="#bfbfbf" points="738.5,-39.07 738.5,-58.07 879.5,-58.07 879.5,-39.07 738.5,-39.07"/>
<text text-anchor="middle" x="809" y="-46.07" font-family="Helvetica,sans-Serif" font-size="10.00">static constexpr Switches</text>
</a>
</g>
</g>
<!-- Node19&#45;&gt;Node15 -->
<g id="edge18" class="edge">
<title>Node19&#45;&gt;Node15</title>
<path fill="none" stroke="#9a32cd" stroke-dasharray="5,2" d="M873.68,-37.86C916.84,-33.22 974.46,-32.23 1022,-49.57 1031.78,-53.13 1030.8,-59.69 1040,-64.57 1056.2,-73.16 1075.26,-79.49 1092.4,-84"/>
<polygon fill="#9a32cd" stroke="#9a32cd" points="873.12,-34.4 863.59,-39.04 873.93,-41.36 873.12,-34.4"/>
<text text-anchor="middle" x="961.5" y="-129.57" font-family="Helvetica,sans-Serif" font-size="10.00"> CtxSetX_TT</text>
<text text-anchor="middle" x="961.5" y="-118.57" font-family="Helvetica,sans-Serif" font-size="10.00">CtxSetX_T</text>
<text text-anchor="middle" x="961.5" y="-107.57" font-family="Helvetica,sans-Serif" font-size="10.00">CtxSetA</text>
<text text-anchor="middle" x="961.5" y="-96.57" font-family="Helvetica,sans-Serif" font-size="10.00">CtxSetB</text>
<text text-anchor="middle" x="961.5" y="-85.57" font-family="Helvetica,sans-Serif" font-size="10.00">CtxSetTime</text>
<text text-anchor="middle" x="961.5" y="-74.57" font-family="Helvetica,sans-Serif" font-size="10.00">CtxSetNone</text>
<text text-anchor="middle" x="961.5" y="-63.57" font-family="Helvetica,sans-Serif" font-size="10.00">CtxSetF</text>
<text text-anchor="middle" x="961.5" y="-52.57" font-family="Helvetica,sans-Serif" font-size="10.00">CtxSetX</text>
</g>
<!-- Node20 -->
<g id="node20" class="node">
<title>Node20</title>
<g id="a_node20"><a xlink:title=" ">
<polygon fill="white" stroke="#bfbfbf" points="791.5,-328.07 791.5,-347.07 826.5,-347.07 826.5,-328.07 791.5,-328.07"/>
<text text-anchor="middle" x="809" y="-335.07" font-family="Helvetica,sans-Serif" font-size="10.00">Mat</text>
</a>
</g>
</g>
<!-- Node20&#45;&gt;Node14 -->
<g id="edge24" class="edge">
<title>Node20&#45;&gt;Node14</title>
<path fill="none" stroke="#9a32cd" stroke-dasharray="5,2" d="M820.48,-355.69C835.8,-381.1 866.29,-427.74 901,-459.57 954.55,-508.66 971.41,-521.62 1040,-545.57 1125.77,-575.51 1153.93,-551.65 1243,-569.57 1326.82,-586.43 1423.19,-617.32 1469.62,-632.96"/>
<polygon fill="#9a32cd" stroke="#9a32cd" points="823.48,-353.89 815.38,-347.07 817.46,-357.46 823.48,-353.89"/>
<text text-anchor="middle" x="1141.5" y="-583.57" font-family="Helvetica,sans-Serif" font-size="10.00"> ksp_A</text>
<text text-anchor="middle" x="1141.5" y="-572.57" font-family="Helvetica,sans-Serif" font-size="10.00">ksp_B</text>
</g>
<!-- Node20&#45;&gt;Node15 -->
<g id="edge19" class="edge">
<title>Node20&#45;&gt;Node15</title>
<path fill="none" stroke="#9a32cd" stroke-dasharray="5,2" d="M816.52,-318.26C828.17,-286.9 855.69,-225.3 901,-194.57 946.3,-163.84 980.79,-207.6 1022,-171.57 1041.05,-154.91 1021.35,-134.66 1040,-117.57 1052.9,-105.75 1070.55,-99.45 1087.46,-96.19"/>
<polygon fill="#9a32cd" stroke="#9a32cd" points="813.11,-317.4 813.06,-327.99 819.71,-319.75 813.11,-317.4"/>
<text text-anchor="middle" x="961.5" y="-208.57" font-family="Helvetica,sans-Serif" font-size="10.00"> A</text>
<text text-anchor="middle" x="961.5" y="-197.57" font-family="Helvetica,sans-Serif" font-size="10.00">B</text>
</g>
<!-- Node20&#45;&gt;Node25 -->
<g id="edge29" class="edge">
<title>Node20&#45;&gt;Node25</title>
<path fill="none" stroke="#9a32cd" stroke-dasharray="5,2" d="M828.32,-354.04C865.2,-386.06 952.4,-456.03 1040,-484.57 1177.33,-529.3 1349.9,-524.68 1438.7,-518.2"/>
<polygon fill="#9a32cd" stroke="#9a32cd" points="830.26,-351.09 820.44,-347.11 825.64,-356.35 830.26,-351.09"/>
<text text-anchor="middle" x="1141.5" y="-533.57" font-family="Helvetica,sans-Serif" font-size="10.00"> snes_A</text>
<text text-anchor="middle" x="1141.5" y="-522.57" font-family="Helvetica,sans-Serif" font-size="10.00">snes_B</text>
</g>
<!-- Node20&#45;&gt;Node28 -->
<g id="edge34" class="edge">
<title>Node20&#45;&gt;Node28</title>
<path fill="none" stroke="#9a32cd" stroke-dasharray="5,2" d="M836.88,-339.45C882.46,-341.03 974.54,-336.92 1022,-283.57 1062.23,-238.34 994.46,-188.44 1040,-148.57 1107.88,-89.13 1153.81,-134.99 1243,-148.57 1313.88,-159.36 1329.84,-171.48 1397,-196.57 1425.37,-207.16 1457.27,-221.57 1477.37,-230.97"/>
<polygon fill="#9a32cd" stroke="#9a32cd" points="836.76,-335.94 826.61,-338.97 836.43,-342.94 836.76,-335.94"/>
<text text-anchor="middle" x="1141.5" y="-162.57" font-family="Helvetica,sans-Serif" font-size="10.00"> ts_A</text>
<text text-anchor="middle" x="1141.5" y="-151.57" font-family="Helvetica,sans-Serif" font-size="10.00">ts_B</text>
</g>
<!-- Node21 -->
<g id="node21" class="node">
<title>Node21</title>
<g id="a_node21"><a xlink:title=" ">
<polygon fill="white" stroke="#bfbfbf" points="772.5,-150.07 772.5,-169.07 845.5,-169.07 845.5,-150.07 772.5,-150.07"/>
<text text-anchor="middle" x="809" y="-157.07" font-family="Helvetica,sans-Serif" font-size="10.00">bitset&lt; 8 &gt;</text>
</a>
</g>
</g>
<!-- Node21&#45;&gt;Node15 -->
<g id="edge20" class="edge">
<title>Node21&#45;&gt;Node15</title>
<path fill="none" stroke="#9a32cd" stroke-dasharray="5,2" d="M856.06,-158.62C909.52,-156.86 993.94,-151.84 1022,-137.57 1032.66,-132.14 1029.72,-123.68 1040,-117.57 1054.26,-109.09 1071.34,-103.6 1087.34,-100.06"/>
<polygon fill="#9a32cd" stroke="#9a32cd" points="855.7,-155.13 845.81,-158.93 855.91,-162.13 855.7,-155.13"/>
<text text-anchor="middle" x="961.5" y="-159.57" font-family="Helvetica,sans-Serif" font-size="10.00"> data_ctx</text>
</g>
<!-- Node22 -->
<g id="node22" class="node">
<title>Node22</title>
<g id="a_node22"><a xlink:title=" ">
<polygon fill="white" stroke="#bfbfbf" points="792,-510.07 792,-529.07 826,-529.07 826,-510.07 792,-510.07"/>
<text text-anchor="middle" x="809" y="-517.07" font-family="Helvetica,sans-Serif" font-size="10.00">Vec</text>
</a>
</g>
</g>
<!-- Node22&#45;&gt;Node14 -->
<g id="edge25" class="edge">
<title>Node22&#45;&gt;Node14</title>
<path fill="none" stroke="#9a32cd" stroke-dasharray="5,2" d="M821.99,-537.82C852.21,-581.94 936.52,-693.73 1040,-734.57 1187.72,-792.86 1249.25,-777.8 1397,-719.57 1435.85,-704.25 1472.39,-669.26 1488.65,-652.23"/>
<polygon fill="#9a32cd" stroke="#9a32cd" points="824.86,-535.82 816.37,-529.48 819.05,-539.73 824.86,-535.82"/>
<text text-anchor="middle" x="1141.5" y="-773.57" font-family="Helvetica,sans-Serif" font-size="10.00"> ksp_f</text>
</g>
<!-- Node22&#45;&gt;Node15 -->
<g id="edge21" class="edge">
<title>Node22&#45;&gt;Node15</title>
<path fill="none" stroke="#9a32cd" stroke-dasharray="5,2" d="M817.77,-500.37C831.79,-466.9 863.35,-396.39 901,-343.57 946.25,-280.08 986.66,-286.06 1022,-216.57 1042.27,-176.7 1009.25,-150.04 1040,-117.57 1052.21,-104.67 1070.01,-98.16 1087.24,-95.02"/>
<polygon fill="#9a32cd" stroke="#9a32cd" points="814.44,-499.29 813.86,-509.87 820.91,-501.96 814.44,-499.29"/>
<text text-anchor="middle" x="961.5" y="-379.57" font-family="Helvetica,sans-Serif" font-size="10.00"> f</text>
<text text-anchor="middle" x="961.5" y="-368.57" font-family="Helvetica,sans-Serif" font-size="10.00">x</text>
<text text-anchor="middle" x="961.5" y="-357.57" font-family="Helvetica,sans-Serif" font-size="10.00">x_t</text>
<text text-anchor="middle" x="961.5" y="-346.57" font-family="Helvetica,sans-Serif" font-size="10.00">x_tt</text>
</g>
<!-- Node22&#45;&gt;Node25 -->
<g id="edge30" class="edge">
<title>Node22&#45;&gt;Node25</title>
<path fill="none" stroke="#9a32cd" stroke-dasharray="5,2" d="M835.38,-530.94C877.07,-548.94 963.09,-583.19 1040,-595.57 1129.08,-609.9 1153.9,-609.73 1243,-595.57 1332.27,-581.38 1432.8,-540.84 1475.95,-522.18"/>
<polygon fill="#9a32cd" stroke="#9a32cd" points="836.57,-527.64 826.01,-526.84 833.77,-534.06 836.57,-527.64"/>
<text text-anchor="middle" x="1141.5" y="-620.57" font-family="Helvetica,sans-Serif" font-size="10.00"> snes_x</text>
<text text-anchor="middle" x="1141.5" y="-609.57" font-family="Helvetica,sans-Serif" font-size="10.00">snes_f</text>
</g>
<!-- Node22&#45;&gt;Node28 -->
<g id="edge38" class="edge">
<title>Node22&#45;&gt;Node28</title>
<path fill="none" stroke="#9a32cd" stroke-dasharray="5,2" d="M827.58,-502.55C863.76,-468.79 950.68,-394.06 1040,-364.57 1115.41,-339.67 1327.84,-387.6 1397,-348.57 1409.56,-341.48 1405.81,-332.68 1415,-321.57 1438.16,-293.58 1469.81,-264.67 1486.37,-250.14"/>
<polygon fill="#9a32cd" stroke="#9a32cd" points="824.74,-500.42 819.88,-509.83 829.55,-505.5 824.74,-500.42"/>
<text text-anchor="middle" x="1141.5" y="-400.57" font-family="Helvetica,sans-Serif" font-size="10.00"> ts_u</text>
<text text-anchor="middle" x="1141.5" y="-389.57" font-family="Helvetica,sans-Serif" font-size="10.00">ts_F</text>
<text text-anchor="middle" x="1141.5" y="-378.57" font-family="Helvetica,sans-Serif" font-size="10.00">ts_u_t</text>
<text text-anchor="middle" x="1141.5" y="-367.57" font-family="Helvetica,sans-Serif" font-size="10.00">ts_u_tt</text>
</g>
<!-- Node23 -->
<g id="node23" class="node">
<title>Node23</title>
<g id="a_node23"><a xlink:title=" ">
<polygon fill="white" stroke="#bfbfbf" points="1124,-706.07 1124,-725.07 1159,-725.07 1159,-706.07 1124,-706.07"/>
<text text-anchor="middle" x="1141.5" y="-713.07" font-family="Helvetica,sans-Serif" font-size="10.00">KSP</text>
</a>
</g>
</g>
<!-- Node23&#45;&gt;Node14 -->
<g id="edge22" class="edge">
<title>Node23&#45;&gt;Node14</title>
<path fill="none" stroke="#9a32cd" stroke-dasharray="5,2" d="M1169.33,-713.87C1216.16,-710.46 1315.57,-701.28 1397,-680.57 1425.2,-673.39 1456.35,-660.85 1476.38,-652.15"/>
<polygon fill="#9a32cd" stroke="#9a32cd" points="1168.86,-710.39 1159.12,-714.58 1169.34,-717.37 1168.86,-710.39"/>
<text text-anchor="middle" x="1329" y="-707.57" font-family="Helvetica,sans-Serif" font-size="10.00"> ksp</text>
</g>
<!-- Node24 -->
<g id="node24" class="node">
<title>Node24</title>
<g id="a_node24"><a xlink:title=" ">
<polygon fill="white" stroke="#bfbfbf" points="1104.5,-668.07 1104.5,-687.07 1178.5,-687.07 1178.5,-668.07 1104.5,-668.07"/>
<text text-anchor="middle" x="1141.5" y="-675.07" font-family="Helvetica,sans-Serif" font-size="10.00">KSPContext</text>
</a>
</g>
</g>
<!-- Node24&#45;&gt;Node14 -->
<g id="edge23" class="edge">
<title>Node24&#45;&gt;Node14</title>
<path fill="none" stroke="#9a32cd" stroke-dasharray="5,2" d="M1188.79,-673C1253.82,-666.59 1372.06,-654.93 1441.81,-648.06"/>
<polygon fill="#9a32cd" stroke="#9a32cd" points="1188.43,-669.52 1178.82,-673.99 1189.12,-676.49 1188.43,-669.52"/>
<text text-anchor="middle" x="1329" y="-668.57" font-family="Helvetica,sans-Serif" font-size="10.00"> ksp_ctx</text>
</g>
<!-- Node25&#45;&gt;Node13 -->
<g id="edge26" class="edge">
<title>Node25&#45;&gt;Node13</title>
<path fill="none" stroke="midnightblue" d="M1568.1,-509.08C1625.17,-505.85 1708.51,-500.36 1781,-492.57 1795.24,-491.04 1810.52,-489.03 1824.87,-486.99"/>
<polygon fill="midnightblue" stroke="midnightblue" points="1567.9,-505.59 1558.11,-509.64 1568.29,-512.58 1567.9,-505.59"/>
</g>
<!-- Node26 -->
<g id="node26" class="node">
<title>Node26</title>
<g id="a_node26"><a xlink:title=" ">
<polygon fill="white" stroke="#bfbfbf" points="1120.5,-456.07 1120.5,-475.07 1162.5,-475.07 1162.5,-456.07 1120.5,-456.07"/>
<text text-anchor="middle" x="1141.5" y="-463.07" font-family="Helvetica,sans-Serif" font-size="10.00">SNES</text>
</a>
</g>
</g>
<!-- Node26&#45;&gt;Node25 -->
<g id="edge28" class="edge">
<title>Node26&#45;&gt;Node25</title>
<path fill="none" stroke="#9a32cd" stroke-dasharray="5,2" d="M1172.65,-465.27C1220.73,-465.41 1317.48,-468.23 1397,-486.57 1405.36,-488.49 1406.8,-491.04 1415,-493.57 1426.38,-497.07 1438.82,-500.26 1450.5,-502.98"/>
<polygon fill="#9a32cd" stroke="#9a32cd" points="1172.6,-461.77 1162.6,-465.27 1172.6,-468.77 1172.6,-461.77"/>
<text text-anchor="middle" x="1329" y="-489.57" font-family="Helvetica,sans-Serif" font-size="10.00"> snes</text>
</g>
<!-- Node27 -->
<g id="node27" class="node">
<title>Node27</title>
<g id="a_node27"><a xlink:title=" ">
<polygon fill="white" stroke="#bfbfbf" points="1101.5,-418.07 1101.5,-437.07 1181.5,-437.07 1181.5,-418.07 1101.5,-418.07"/>
<text text-anchor="middle" x="1141.5" y="-425.07" font-family="Helvetica,sans-Serif" font-size="10.00">SNESContext</text>
</a>
</g>
</g>
<!-- Node27&#45;&gt;Node25 -->
<g id="edge31" class="edge">
<title>Node27&#45;&gt;Node25</title>
<path fill="none" stroke="#9a32cd" stroke-dasharray="5,2" d="M1191.77,-419.38C1247.03,-413.01 1336.79,-411.39 1397,-454.57 1412.51,-465.69 1400.18,-481.53 1415,-493.57 1421.96,-499.22 1430.28,-503.26 1438.93,-506.13"/>
<polygon fill="#9a32cd" stroke="#9a32cd" points="1191.02,-415.95 1181.53,-420.66 1191.89,-422.89 1191.02,-415.95"/>
<text text-anchor="middle" x="1329" y="-457.57" font-family="Helvetica,sans-Serif" font-size="10.00"> snes_ctx</text>
</g>
<!-- Node28&#45;&gt;Node13 -->
<g id="edge32" class="edge">
<title>Node28&#45;&gt;Node13</title>
<path fill="none" stroke="midnightblue" d="M1562.21,-235.53C1627,-234.09 1726.15,-243.09 1781,-303.57 1824.92,-352 1757.42,-399.12 1799,-449.57 1805.89,-457.93 1815.32,-463.81 1825.41,-467.96"/>
<polygon fill="midnightblue" stroke="midnightblue" points="1562.01,-232.03 1552.12,-235.84 1562.23,-239.03 1562.01,-232.03"/>
</g>
<!-- Node29 -->
<g id="node29" class="node">
<title>Node29</title>
<g id="a_node29"><a xlink:title=" ">
<polygon fill="white" stroke="#bfbfbf" points="1109,-300.07 1109,-319.07 1174,-319.07 1174,-300.07 1109,-300.07"/>
<text text-anchor="middle" x="1141.5" y="-307.07" font-family="Helvetica,sans-Serif" font-size="10.00">PetscReal</text>
</a>
</g>
</g>
<!-- Node29&#45;&gt;Node28 -->
<g id="edge35" class="edge">
<title>Node29&#45;&gt;Node28</title>
<path fill="none" stroke="#9a32cd" stroke-dasharray="5,2" d="M1184.57,-307.54C1235.49,-304.38 1323.56,-296.64 1397,-278.57 1425.44,-271.57 1456.79,-258.86 1476.79,-250.08"/>
<polygon fill="#9a32cd" stroke="#9a32cd" points="1184.06,-304.06 1174.28,-308.15 1184.47,-311.05 1184.06,-304.06"/>
<text text-anchor="middle" x="1329" y="-336.57" font-family="Helvetica,sans-Serif" font-size="10.00"> ts_a</text>
<text text-anchor="middle" x="1329" y="-325.57" font-family="Helvetica,sans-Serif" font-size="10.00">ts_t</text>
<text text-anchor="middle" x="1329" y="-314.57" font-family="Helvetica,sans-Serif" font-size="10.00">ts_dt</text>
<text text-anchor="middle" x="1329" y="-303.57" font-family="Helvetica,sans-Serif" font-size="10.00">ts_aa</text>
</g>
<!-- Node30 -->
<g id="node30" class="node">
<title>Node30</title>
<g id="a_node30"><a xlink:title=" ">
<polygon fill="white" stroke="#bfbfbf" points="1108,-262.07 1108,-281.07 1175,-281.07 1175,-262.07 1108,-262.07"/>
<text text-anchor="middle" x="1141.5" y="-269.07" font-family="Helvetica,sans-Serif" font-size="10.00">TSContext</text>
</a>
</g>
</g>
<!-- Node30&#45;&gt;Node28 -->
<g id="edge36" class="edge">
<title>Node30&#45;&gt;Node28</title>
<path fill="none" stroke="#9a32cd" stroke-dasharray="5,2" d="M1185.32,-268.95C1235.93,-265.72 1322.69,-259.77 1397,-252.57 1412.57,-251.06 1429.46,-249.15 1444.87,-247.3"/>
<polygon fill="#9a32cd" stroke="#9a32cd" points="1184.84,-265.47 1175.08,-269.6 1185.28,-272.46 1184.84,-265.47"/>
<text text-anchor="middle" x="1329" y="-266.57" font-family="Helvetica,sans-Serif" font-size="10.00"> ts_ctx</text>
</g>
<!-- Node31 -->
<g id="node31" class="node">
<title>Node31</title>
<g id="a_node31"><a xlink:title=" ">
<polygon fill="white" stroke="#bfbfbf" points="1113.5,-218.07 1113.5,-237.07 1169.5,-237.07 1169.5,-218.07 1113.5,-218.07"/>
<text text-anchor="middle" x="1141.5" y="-225.07" font-family="Helvetica,sans-Serif" font-size="10.00">PetscInt</text>
</a>
</g>
</g>
<!-- Node31&#45;&gt;Node28 -->
<g id="edge37" class="edge">
<title>Node31&#45;&gt;Node28</title>
<path fill="none" stroke="#9a32cd" stroke-dasharray="5,2" d="M1180.11,-228.94C1243.61,-231.27 1372.23,-235.98 1444.73,-238.63"/>
<polygon fill="#9a32cd" stroke="#9a32cd" points="1179.89,-225.43 1169.77,-228.56 1179.63,-232.43 1179.89,-225.43"/>
<text text-anchor="middle" x="1329" y="-240.57" font-family="Helvetica,sans-Serif" font-size="10.00"> ts_step</text>
</g>
<!-- Node32 -->
<g id="node32" class="node">
<title>Node32</title>
<g id="a_node32"><a xlink:title=" ">
<polygon fill="white" stroke="#bfbfbf" points="1127,-180.07 1127,-199.07 1156,-199.07 1156,-180.07 1127,-180.07"/>
<text text-anchor="middle" x="1141.5" y="-187.07" font-family="Helvetica,sans-Serif" font-size="10.00">TS</text>
</a>
</g>
</g>
<!-- Node32&#45;&gt;Node28 -->
<g id="edge39" class="edge">
<title>Node32&#45;&gt;Node28</title>
<path fill="none" stroke="#9a32cd" stroke-dasharray="5,2" d="M1166.34,-191.27C1211.54,-194.69 1312.75,-203.34 1397,-217.57 1418.18,-221.14 1441.59,-226.42 1460.48,-231.02"/>
<polygon fill="#9a32cd" stroke="#9a32cd" points="1166.33,-187.76 1156.1,-190.51 1165.81,-194.74 1166.33,-187.76"/>
<text text-anchor="middle" x="1329" y="-220.57" font-family="Helvetica,sans-Serif" font-size="10.00"> ts</text>
</g>
<!-- Node33 -->
<g id="node33" class="node">
<title>Node33</title>
<g id="a_node33"><a xlink:title=" ">
<polygon fill="white" stroke="#bfbfbf" points="1454,-465.07 1454,-484.07 1543,-484.07 1543,-465.07 1454,-465.07"/>
<text text-anchor="middle" x="1498.5" y="-472.07" font-family="Helvetica,sans-Serif" font-size="10.00">pair&lt; int, int &gt;</text>
</a>
</g>
</g>
<!-- Node33&#45;&gt;Node13 -->
<g id="edge41" class="edge">
<title>Node33&#45;&gt;Node13</title>
<path fill="none" stroke="#9a32cd" stroke-dasharray="5,2" d="M1553.48,-474.99C1624.88,-475.54 1750.37,-476.52 1824.78,-477.1"/>
<polygon fill="#9a32cd" stroke="#9a32cd" points="1553.37,-471.49 1543.35,-474.91 1553.32,-478.49 1553.37,-471.49"/>
<text text-anchor="middle" x="1690.5" y="-480.57" font-family="Helvetica,sans-Serif" font-size="10.00"> loHiFERank</text>
</g>
<!-- Node34 -->
<g id="node34" class="node">
<title>Node34</title>
<g id="a_node34"><a xlink:title=" ">
<polygon fill="white" stroke="#bfbfbf" points="1428.5,-427.07 1428.5,-446.07 1568.5,-446.07 1568.5,-427.07 1428.5,-427.07"/>
<text text-anchor="middle" x="1498.5" y="-434.07" font-family="Helvetica,sans-Serif" font-size="10.00">weak_ptr&lt; CacheTuple &gt;</text>
</a>
</g>
</g>
<!-- Node34&#45;&gt;Node13 -->
<g id="edge42" class="edge">
<title>Node34&#45;&gt;Node13</title>
<path fill="none" stroke="#9a32cd" stroke-dasharray="5,2" d="M1579.07,-441.71C1635.54,-445.76 1713.07,-452.13 1781,-460.57 1797.52,-462.62 1815.44,-465.36 1831.67,-468.04"/>
<polygon fill="#9a32cd" stroke="#9a32cd" points="1579,-438.2 1568.78,-440.98 1578.5,-445.18 1579,-438.2"/>
<text text-anchor="middle" x="1690.5" y="-463.57" font-family="Helvetica,sans-Serif" font-size="10.00"> cacheWeakPtr</text>
</g>
<!-- Node35 -->
<g id="node35" class="node">
<title>Node35</title>
<g id="a_node35"><a xlink:title=" ">
<polygon fill="white" stroke="#bfbfbf" points="1442.5,-387.07 1442.5,-406.07 1554.5,-406.07 1554.5,-387.07 1442.5,-387.07"/>
<text text-anchor="middle" x="1498.5" y="-394.07" font-family="Helvetica,sans-Serif" font-size="10.00">unique_ptr&lt; bool &gt;</text>
</a>
</g>
</g>
<!-- Node35&#45;&gt;Node13 -->
<g id="edge43" class="edge">
<title>Node35&#45;&gt;Node13</title>
<path fill="none" stroke="#9a32cd" stroke-dasharray="5,2" d="M1559.05,-385.66C1619.76,-377.85 1714.25,-375.12 1781,-417.57 1794.77,-426.32 1786.38,-439.22 1799,-449.57 1809.2,-457.93 1821.97,-463.82 1834.52,-467.95"/>
<polygon fill="#9a32cd" stroke="#9a32cd" points="1558.3,-382.23 1548.87,-387.06 1559.25,-389.17 1558.3,-382.23"/>
<text text-anchor="middle" x="1690.5" y="-431.57" font-family="Helvetica,sans-Serif" font-size="10.00"> matAssembleSwitch</text>
<text text-anchor="middle" x="1690.5" y="-420.57" font-family="Helvetica,sans-Serif" font-size="10.00">vecAssembleSwitch</text>
</g>
<!-- Node36 -->
<g id="node36" class="node">
<title>Node36</title>
<g id="a_node36"><a xlink:title=" ">
<polygon fill="white" stroke="#bfbfbf" points="1127,-878.07 1127,-897.07 1156,-897.07 1156,-878.07 1127,-878.07"/>
<text text-anchor="middle" x="1141.5" y="-885.07" font-family="Helvetica,sans-Serif" font-size="10.00">int</text>
</a>
</g>
</g>
<!-- Node36&#45;&gt;Node1 -->
<g id="edge85" class="edge">
<title>Node36&#45;&gt;Node1</title>
<path fill="none" stroke="#9a32cd" stroke-dasharray="5,2" d="M1166.51,-888.9C1258.06,-893.95 1585.25,-911.57 1689.5,-911.57 1689.5,-911.57 1689.5,-911.57 2257,-911.57 2692.75,-911.57 2800.63,-877.19 3235,-842.57 3275.03,-839.38 3285.6,-842.31 3325,-834.57 3337.56,-832.1 3350.94,-828.42 3363.13,-824.64"/>
<polygon fill="#9a32cd" stroke="#9a32cd" points="1166.5,-885.4 1156.32,-888.34 1166.11,-892.38 1166.5,-885.4"/>
<text text-anchor="middle" x="2458" y="-913.57" font-family="Helvetica,sans-Serif" font-size="10.00"> tagValue</text>
</g>
<!-- Node36&#45;&gt;Node13 -->
<g id="edge44" class="edge">
<title>Node36&#45;&gt;Node13</title>
<path fill="none" stroke="#9a32cd" stroke-dasharray="5,2" d="M1166.05,-884.63C1281.34,-870.24 1780.66,-807.93 1781,-807.57 1828.29,-757.01 1754.11,-549.26 1799,-496.57 1805.74,-488.65 1814.97,-483.6 1824.89,-480.45"/>
<polygon fill="#9a32cd" stroke="#9a32cd" points="1165.61,-881.16 1156.12,-885.87 1166.48,-888.1 1165.61,-881.16"/>
<text text-anchor="middle" x="1498.5" y="-888.57" font-family="Helvetica,sans-Serif" font-size="10.00"> sIze</text>
<text text-anchor="middle" x="1498.5" y="-877.57" font-family="Helvetica,sans-Serif" font-size="10.00">loopSize</text>
<text text-anchor="middle" x="1498.5" y="-866.57" font-family="Helvetica,sans-Serif" font-size="10.00">nInTheLoop</text>
<text text-anchor="middle" x="1498.5" y="-855.57" font-family="Helvetica,sans-Serif" font-size="10.00">rAnk</text>
</g>
<!-- Node36&#45;&gt;Node38 -->
<g id="edge56" class="edge">
<title>Node36&#45;&gt;Node38</title>
<path fill="none" stroke="#9a32cd" stroke-dasharray="5,2" d="M1166.26,-890.09C1227.74,-896.7 1387.91,-914.5 1397,-921.57 1478.26,-984.72 1494.08,-1123.96 1496.92,-1161.87"/>
<polygon fill="#9a32cd" stroke="#9a32cd" points="1166.62,-886.61 1156.31,-889.02 1165.88,-893.57 1166.62,-886.61"/>
<text text-anchor="middle" x="1329" y="-990.57" font-family="Helvetica,sans-Serif" font-size="10.00"> tagNameSize</text>
<text text-anchor="middle" x="1329" y="-979.57" font-family="Helvetica,sans-Serif" font-size="10.00">nbDofsRow</text>
<text text-anchor="middle" x="1329" y="-968.57" font-family="Helvetica,sans-Serif" font-size="10.00">nbLocDofsCol</text>
<text text-anchor="middle" x="1329" y="-957.57" font-family="Helvetica,sans-Serif" font-size="10.00">nbDofsCol</text>
<text text-anchor="middle" x="1329" y="-946.57" font-family="Helvetica,sans-Serif" font-size="10.00">nbGhostDofsRow</text>
<text text-anchor="middle" x="1329" y="-935.57" font-family="Helvetica,sans-Serif" font-size="10.00">nbGhostDofsCol</text>
<text text-anchor="middle" x="1329" y="-924.57" font-family="Helvetica,sans-Serif" font-size="10.00">nbLocDofsRow</text>
</g>
<!-- Node37 -->
<g id="node37" class="node">
<title>Node37</title>
<g id="a_node37"><a xlink:title=" ">
<polygon fill="white" stroke="#bfbfbf" points="1415,-331.07 1415,-350.07 1582,-350.07 1582,-331.07 1415,-331.07"/>
<text text-anchor="middle" x="1498.5" y="-338.07" font-family="Helvetica,sans-Serif" font-size="10.00">function&lt; MoFEMErrorCode()&gt;</text>
</a>
</g>
</g>
<!-- Node37&#45;&gt;Node13 -->
<g id="edge45" class="edge">
<title>Node37&#45;&gt;Node13</title>
<path fill="none" stroke="#9a32cd" stroke-dasharray="5,2" d="M1535.87,-327.97C1594.93,-310.07 1712.01,-285.55 1781,-344.57 1816.98,-375.34 1768.03,-413.75 1799,-449.57 1806.29,-458 1816.15,-463.91 1826.6,-468.05"/>
<polygon fill="#9a32cd" stroke="#9a32cd" points="1534.72,-324.67 1526.22,-331 1536.81,-331.35 1534.72,-324.67"/>
<text text-anchor="middle" x="1690.5" y="-369.57" font-family="Helvetica,sans-Serif" font-size="10.00"> preProcessHook</text>
<text text-anchor="middle" x="1690.5" y="-358.57" font-family="Helvetica,sans-Serif" font-size="10.00">operatorHook</text>
<text text-anchor="middle" x="1690.5" y="-347.57" font-family="Helvetica,sans-Serif" font-size="10.00">postProcessHook</text>
</g>
<!-- Node38&#45;&gt;Node13 -->
<g id="edge46" class="edge">
<title>Node38&#45;&gt;Node13</title>
<path fill="none" stroke="#9a32cd" stroke-dasharray="5,2" d="M1520.97,-1155.99C1576.33,-1114.39 1723.61,-994.18 1781,-853.57 1796.01,-816.79 1773.36,-526.9 1799,-496.57 1805.71,-488.63 1814.93,-483.56 1824.84,-480.41"/>
<polygon fill="#9a32cd" stroke="#9a32cd" points="1518.84,-1153.22 1512.9,-1161.99 1523.01,-1158.83 1518.84,-1153.22"/>
<text text-anchor="middle" x="1690.5" y="-1087.57" font-family="Helvetica,sans-Serif" font-size="10.00"> problemPtr</text>
</g>
<!-- Node39 -->
<g id="node39" class="node">
<title>Node39</title>
<g id="a_node39"><a xlink:title=" ">
<polygon fill="white" stroke="#bfbfbf" points="1058,-1371.57 1058,-1401.57 1225,-1401.57 1225,-1371.57 1058,-1371.57"/>
<text text-anchor="start" x="1066" y="-1389.57" font-family="Helvetica,sans-Serif" font-size="10.00">shared_ptr&lt; NumeredEntFinite</text>
<text text-anchor="middle" x="1141.5" y="-1378.57" font-family="Helvetica,sans-Serif" font-size="10.00">Element_multiIndex &gt;</text>
</a>
</g>
</g>
<!-- Node39&#45;&gt;Node38 -->
<g id="edge47" class="edge">
<title>Node39&#45;&gt;Node38</title>
<path fill="none" stroke="#9a32cd" stroke-dasharray="5,2" d="M1235.22,-1375.03C1305.14,-1366.02 1390.14,-1354.26 1397,-1349.57 1459.36,-1306.85 1487.52,-1211.99 1495.22,-1181.33"/>
<polygon fill="#9a32cd" stroke="#9a32cd" points="1234.5,-1371.59 1225.03,-1376.34 1235.39,-1378.53 1234.5,-1371.59"/>
<text text-anchor="middle" x="1329" y="-1373.57" font-family="Helvetica,sans-Serif" font-size="10.00"> numeredFiniteElementsPtr</text>
</g>
<!-- Node40 -->
<g id="node40" class="node">
<title>Node40</title>
<g id="a_node40"><a xlink:title=" ">
<polygon fill="white" stroke="#bfbfbf" points="1112,-1333.07 1112,-1352.07 1171,-1352.07 1171,-1333.07 1112,-1333.07"/>
<text text-anchor="middle" x="1141.5" y="-1340.07" font-family="Helvetica,sans-Serif" font-size="10.00">BitFEId *</text>
</a>
</g>
</g>
<!-- Node40&#45;&gt;Node38 -->
<g id="edge48" class="edge">
<title>Node40&#45;&gt;Node38</title>
<path fill="none" stroke="#9a32cd" stroke-dasharray="5,2" d="M1181.44,-1341.6C1243.49,-1339.45 1361.43,-1332.63 1397,-1311.57 1450.55,-1279.85 1483.43,-1207.25 1493.87,-1181.14"/>
<polygon fill="#9a32cd" stroke="#9a32cd" points="1181.14,-1338.11 1171.26,-1341.93 1181.36,-1345.11 1181.14,-1338.11"/>
<text text-anchor="middle" x="1329" y="-1339.57" font-family="Helvetica,sans-Serif" font-size="10.00"> tagBitFEId</text>
</g>
<!-- Node41 -->
<g id="node41" class="node">
<title>Node41</title>
<g id="a_node41"><a xlink:href="classEntityHandle.html" target="_top" xlink:title=" ">
<polygon fill="white" stroke="black" points="1101.5,-1295.07 1101.5,-1314.07 1181.5,-1314.07 1181.5,-1295.07 1101.5,-1295.07"/>
<text text-anchor="middle" x="1141.5" y="-1302.07" font-family="Helvetica,sans-Serif" font-size="10.00">EntityHandle</text>
</a>
</g>
</g>
<!-- Node41&#45;&gt;Node38 -->
<g id="edge49" class="edge">
<title>Node41&#45;&gt;Node38</title>
<path fill="none" stroke="#9a32cd" stroke-dasharray="5,2" d="M1192.05,-1302.4C1255.66,-1298.95 1362,-1290.78 1397,-1273.57 1441.39,-1251.74 1477.5,-1202.21 1491.37,-1181.24"/>
<polygon fill="#9a32cd" stroke="#9a32cd" points="1191.65,-1298.91 1181.84,-1302.93 1192.01,-1305.9 1191.65,-1298.91"/>
<text text-anchor="middle" x="1329" y="-1299.57" font-family="Helvetica,sans-Serif" font-size="10.00"> meshset</text>
</g>
<!-- Node42 -->
<g id="node42" class="node">
<title>Node42</title>
<g id="a_node42"><a xlink:title=" ">
<polygon fill="white" stroke="#bfbfbf" points="1067,-1245.57 1067,-1275.57 1216,-1275.57 1216,-1245.57 1067,-1245.57"/>
<text text-anchor="start" x="1075" y="-1263.57" font-family="Helvetica,sans-Serif" font-size="10.00">shared_ptr&lt; MoFEM::</text>
<text text-anchor="middle" x="1141.5" y="-1252.57" font-family="Helvetica,sans-Serif" font-size="10.00">ComposedProblemsData &gt;</text>
</a>
</g>
</g>
<!-- Node42&#45;&gt;Node38 -->
<g id="edge50" class="edge">
<title>Node42&#45;&gt;Node38</title>
<path fill="none" stroke="#9a32cd" stroke-dasharray="5,2" d="M1226.49,-1261.52C1277.11,-1259.79 1342.18,-1253.4 1397,-1234.57 1432.45,-1222.39 1468.29,-1195.68 1486.05,-1181.26"/>
<polygon fill="#9a32cd" stroke="#9a32cd" points="1226.14,-1258.03 1216.24,-1261.82 1226.34,-1265.03 1226.14,-1258.03"/>
<text text-anchor="middle" x="1329" y="-1261.57" font-family="Helvetica,sans-Serif" font-size="10.00"> composedProblemsData</text>
</g>
<!-- Node43 -->
<g id="node43" class="node">
<title>Node43</title>
<g id="a_node43"><a xlink:title=" ">
<polygon fill="white" stroke="#bfbfbf" points="1101,-1207.07 1101,-1226.07 1182,-1226.07 1182,-1207.07 1101,-1207.07"/>
<text text-anchor="middle" x="1141.5" y="-1214.07" font-family="Helvetica,sans-Serif" font-size="10.00">BitRefLevel *</text>
</a>
</g>
</g>
<!-- Node43&#45;&gt;Node38 -->
<g id="edge51" class="edge">
<title>Node43&#45;&gt;Node38</title>
<path fill="none" stroke="#9a32cd" stroke-dasharray="5,2" d="M1192.57,-1214.29C1244.07,-1211.47 1326.5,-1205.63 1397,-1194.57 1418.57,-1191.18 1442.41,-1185.8 1461.45,-1181.09"/>
<polygon fill="#9a32cd" stroke="#9a32cd" points="1192.18,-1210.81 1182.38,-1214.83 1192.55,-1217.8 1192.18,-1210.81"/>
<text text-anchor="middle" x="1329" y="-1222.57" font-family="Helvetica,sans-Serif" font-size="10.00"> tagBitRefLevelMask</text>
<text text-anchor="middle" x="1329" y="-1211.57" font-family="Helvetica,sans-Serif" font-size="10.00">tagBitRefLevel</text>
</g>
<!-- Node44 -->
<g id="node44" class="node">
<title>Node44</title>
<g id="a_node44"><a xlink:title=" ">
<polygon fill="white" stroke="#bfbfbf" points="1056.5,-1157.57 1056.5,-1187.57 1226.5,-1187.57 1226.5,-1157.57 1056.5,-1157.57"/>
<text text-anchor="start" x="1064.5" y="-1175.57" font-family="Helvetica,sans-Serif" font-size="10.00">shared_ptr&lt; NumeredDofEntity</text>
<text text-anchor="middle" x="1141.5" y="-1164.57" font-family="Helvetica,sans-Serif" font-size="10.00">_multiIndex &gt;</text>
</a>
</g>
</g>
<!-- Node44&#45;&gt;Node38 -->
<g id="edge52" class="edge">
<title>Node44&#45;&gt;Node38</title>
<path fill="none" stroke="#9a32cd" stroke-dasharray="5,2" d="M1236.96,-1172.3C1305.2,-1172.11 1394.57,-1171.86 1448.92,-1171.7"/>
<polygon fill="#9a32cd" stroke="#9a32cd" points="1236.62,-1168.8 1226.63,-1172.33 1236.64,-1175.8 1236.62,-1168.8"/>
<text text-anchor="middle" x="1329" y="-1185.57" font-family="Helvetica,sans-Serif" font-size="10.00"> numeredRowDofsPtr</text>
<text text-anchor="middle" x="1329" y="-1174.57" font-family="Helvetica,sans-Serif" font-size="10.00">numeredColDofsPtr</text>
</g>
<!-- Node45 -->
<g id="node45" class="node">
<title>Node45</title>
<g id="a_node45"><a xlink:title=" ">
<polygon fill="white" stroke="#bfbfbf" points="1072.5,-1119.07 1072.5,-1138.07 1210.5,-1138.07 1210.5,-1119.07 1072.5,-1119.07"/>
<text text-anchor="middle" x="1141.5" y="-1126.07" font-family="Helvetica,sans-Serif" font-size="10.00">vector&lt; BlockFieldPair &gt;</text>
</a>
</g>
</g>
<!-- Node45&#45;&gt;Node38 -->
<g id="edge54" class="edge">
<title>Node45&#45;&gt;Node38</title>
<path fill="none" stroke="#9a32cd" stroke-dasharray="5,2" d="M1220.81,-1136.39C1271.19,-1141.62 1338.03,-1148.92 1397,-1156.57 1413.97,-1158.77 1432.51,-1161.45 1448.99,-1163.94"/>
<polygon fill="#9a32cd" stroke="#9a32cd" points="1220.94,-1132.89 1210.64,-1135.34 1220.23,-1139.85 1220.94,-1132.89"/>
<text text-anchor="middle" x="1329" y="-1159.57" font-family="Helvetica,sans-Serif" font-size="10.00"> emptyFieldBlocks</text>
</g>
<!-- Node46 -->
<g id="node46" class="node">
<title>Node46</title>
<g id="a_node46"><a xlink:title=" ">
<polygon fill="white" stroke="#bfbfbf" points="1063.5,-1069.57 1063.5,-1099.57 1219.5,-1099.57 1219.5,-1069.57 1063.5,-1069.57"/>
<text text-anchor="start" x="1071.5" y="-1087.57" font-family="Helvetica,sans-Serif" font-size="10.00">shared_ptr&lt; MoFEM::</text>
<text text-anchor="middle" x="1141.5" y="-1076.57" font-family="Helvetica,sans-Serif" font-size="10.00">Problem::SubProblemData &gt;</text>
</a>
</g>
</g>
<!-- Node46&#45;&gt;Node38 -->
<g id="edge55" class="edge">
<title>Node46&#45;&gt;Node38</title>
<path fill="none" stroke="#9a32cd" stroke-dasharray="5,2" d="M1229.81,-1092.74C1279.55,-1098.85 1342.61,-1109.07 1397,-1125.57 1427.48,-1134.81 1460.69,-1151.41 1480.27,-1161.94"/>
<polygon fill="#9a32cd" stroke="#9a32cd" points="1230.07,-1089.25 1219.72,-1091.53 1229.24,-1096.2 1230.07,-1089.25"/>
<text text-anchor="middle" x="1329" y="-1128.57" font-family="Helvetica,sans-Serif" font-size="10.00"> subProblemData</text>
</g>
<!-- Node47 -->
<g id="node47" class="node">
<title>Node47</title>
<g id="a_node47"><a xlink:title=" ">
<polygon fill="white" stroke="#bfbfbf" points="1040,-1031.07 1040,-1050.07 1243,-1050.07 1243,-1031.07 1040,-1031.07"/>
<text text-anchor="middle" x="1141.5" y="-1038.07" font-family="Helvetica,sans-Serif" font-size="10.00">shared_ptr&lt; SequenceDofContainer &gt;</text>
</a>
</g>
</g>
<!-- Node47&#45;&gt;Node38 -->
<g id="edge57" class="edge">
<title>Node47&#45;&gt;Node38</title>
<path fill="none" stroke="#9a32cd" stroke-dasharray="5,2" d="M1253.23,-1038.43C1299.61,-1041.42 1352.89,-1050.15 1397,-1071.57 1440.84,-1092.85 1476.98,-1141.03 1491.11,-1161.77"/>
<polygon fill="#9a32cd" stroke="#9a32cd" points="1253.32,-1034.93 1243.14,-1037.86 1252.92,-1041.92 1253.32,-1034.93"/>
<text text-anchor="middle" x="1329" y="-1085.57" font-family="Helvetica,sans-Serif" font-size="10.00"> sequenceRowDofContainer</text>
<text text-anchor="middle" x="1329" y="-1074.57" font-family="Helvetica,sans-Serif" font-size="10.00">sequenceColDofContainer</text>
</g>
<!-- Node48 -->
<g id="node48" class="node">
<title>Node48</title>
<g id="a_node48"><a xlink:title=" ">
<polygon fill="white" stroke="#bfbfbf" points="1097.5,-993.07 1097.5,-1012.07 1185.5,-1012.07 1185.5,-993.07 1097.5,-993.07"/>
<text text-anchor="middle" x="1141.5" y="-1000.07" font-family="Helvetica,sans-Serif" font-size="10.00">BitProblemId *</text>
</a>
</g>
</g>
<!-- Node48&#45;&gt;Node38 -->
<g id="edge58" class="edge">
<title>Node48&#45;&gt;Node38</title>
<path fill="none" stroke="#9a32cd" stroke-dasharray="5,2" d="M1195.9,-1001.66C1260.31,-1001.47 1364.04,-1004.33 1397,-1023.57 1453.06,-1056.29 1484.57,-1134.23 1494.25,-1161.74"/>
<polygon fill="#9a32cd" stroke="#9a32cd" points="1195.51,-998.16 1185.53,-1001.72 1195.55,-1005.16 1195.51,-998.16"/>
<text text-anchor="middle" x="1329" y="-1026.57" font-family="Helvetica,sans-Serif" font-size="10.00"> tagId</text>
</g>
<!-- Node49 -->
<g id="node49" class="node">
<title>Node49</title>
<g id="a_node49"><a xlink:title=" ">
<polygon fill="white" stroke="#bfbfbf" points="1805,-555.57 1805,-585.57 1967,-585.57 1967,-555.57 1805,-555.57"/>
<text text-anchor="start" x="1813" y="-573.57" font-family="Helvetica,sans-Serif" font-size="10.00">shared_ptr&lt; const MoFEM</text>
<text text-anchor="middle" x="1886" y="-562.57" font-family="Helvetica,sans-Serif" font-size="10.00">::NumeredEntFiniteElement &gt;</text>
</a>
</g>
</g>
<!-- Node49&#45;&gt;Node12 -->
<g id="edge59" class="edge">
<title>Node49&#45;&gt;Node12</title>
<path fill="none" stroke="#9a32cd" stroke-dasharray="5,2" d="M1977.54,-558.51C2048.18,-549.1 2143.85,-536.37 2202.4,-528.57"/>
<polygon fill="#9a32cd" stroke="#9a32cd" points="1976.75,-555.08 1967.3,-559.87 1977.68,-562.02 1976.75,-555.08"/>
<text text-anchor="middle" x="2063" y="-559.57" font-family="Helvetica,sans-Serif" font-size="10.00"> numeredEntFiniteElementPtr</text>
</g>
<!-- Node50 -->
<g id="node50" class="node">
<title>Node50</title>
<g id="a_node50"><a xlink:title=" ">
<polygon fill="white" stroke="#bfbfbf" points="1864,-819.07 1864,-838.07 1908,-838.07 1908,-819.07 1864,-819.07"/>
<text text-anchor="middle" x="1886" y="-826.07" font-family="Helvetica,sans-Serif" font-size="10.00">string</text>
</a>
</g>
</g>
<!-- Node50&#45;&gt;Node1 -->
<g id="edge86" class="edge">
<title>Node50&#45;&gt;Node1</title>
<path fill="none" stroke="#9a32cd" stroke-dasharray="5,2" d="M1918.3,-828.57C1981.79,-828.57 2130.28,-828.57 2255,-828.57 2255,-828.57 2255,-828.57 3140.5,-828.57 3209.82,-828.57 3289.06,-822.04 3342.79,-816.64"/>
<polygon fill="#9a32cd" stroke="#9a32cd" points="1918.16,-825.07 1908.16,-828.57 1918.16,-832.07 1918.16,-825.07"/>
<text text-anchor="middle" x="2782" y="-831.57" font-family="Helvetica,sans-Serif" font-size="10.00"> tagName</text>
</g>
<!-- Node50&#45;&gt;Node3 -->
<g id="edge82" class="edge">
<title>Node50&#45;&gt;Node3</title>
<path fill="none" stroke="#9a32cd" stroke-dasharray="5,2" d="M1918.14,-833.49C1938.76,-836.57 1966.43,-840.36 1991,-842.57 2233.83,-864.41 2299.33,-822.85 2539,-867.57 2606.9,-880.23 2797.39,-949.54 2880.91,-980.55"/>
<polygon fill="#9a32cd" stroke="#9a32cd" points="1918.46,-830 1908.05,-831.96 1917.41,-836.92 1918.46,-830"/>
<text text-anchor="middle" x="2458" y="-881.57" font-family="Helvetica,sans-Serif" font-size="10.00"> colFieldName</text>
<text text-anchor="middle" x="2458" y="-870.57" font-family="Helvetica,sans-Serif" font-size="10.00">rowFieldName</text>
</g>
<!-- Node50&#45;&gt;Node12 -->
<g id="edge60" class="edge">
<title>Node50&#45;&gt;Node12</title>
<path fill="none" stroke="#9a32cd" stroke-dasharray="5,2" d="M1905.69,-812.15C1949.28,-773.25 2059.7,-671.27 2135,-571.57 2144.6,-558.85 2139.98,-549.75 2153,-540.57 2167.28,-530.49 2185.38,-525.33 2202.36,-522.79"/>
<polygon fill="#9a32cd" stroke="#9a32cd" points="1903.28,-809.61 1898.12,-818.86 1907.92,-814.84 1903.28,-809.61"/>
<text text-anchor="middle" x="2063" y="-732.57" font-family="Helvetica,sans-Serif" font-size="10.00"> feName</text>
</g>
<!-- Node51 -->
<g id="node51" class="node">
<title>Node51</title>
<g id="a_node51"><a xlink:title=" ">
<polygon fill="white" stroke="#bfbfbf" points="1804.5,-506.57 1804.5,-536.57 1967.5,-536.57 1967.5,-506.57 1804.5,-506.57"/>
<text text-anchor="start" x="1812.5" y="-524.57" font-family="Helvetica,sans-Serif" font-size="10.00">function&lt; bool(MoFEM</text>
<text text-anchor="middle" x="1886" y="-513.57" font-family="Helvetica,sans-Serif" font-size="10.00">::FEMethod *fe_method_ptr)&gt;</text>
</a>
</g>
</g>
<!-- Node51&#45;&gt;Node12 -->
<g id="edge61" class="edge">
<title>Node51&#45;&gt;Node12</title>
<path fill="none" stroke="#9a32cd" stroke-dasharray="5,2" d="M1977.98,-521.57C2048.52,-521.57 2143.82,-521.57 2202.26,-521.57"/>
<polygon fill="#9a32cd" stroke="#9a32cd" points="1977.76,-518.07 1967.76,-521.57 1977.76,-525.07 1977.76,-518.07"/>
<text text-anchor="middle" x="2063" y="-524.57" font-family="Helvetica,sans-Serif" font-size="10.00"> exeTestHook</text>
</g>
<!-- Node52 -->
<g id="node52" class="node">
<title>Node52</title>
<g id="a_node52"><a xlink:href="classdouble.html" target="_top" xlink:title=" ">
<polygon fill="white" stroke="black" points="2231,-474.07 2231,-493.07 2281,-493.07 2281,-474.07 2231,-474.07"/>
<text text-anchor="middle" x="2256" y="-481.07" font-family="Helvetica,sans-Serif" font-size="10.00">double</text>
</a>
</g>
</g>
<!-- Node52&#45;&gt;Node11 -->
<g id="edge62" class="edge">
<title>Node52&#45;&gt;Node11</title>
<path fill="none" stroke="#9a32cd" stroke-dasharray="5,2" d="M2291.64,-485.34C2345.11,-488.51 2450.82,-496.47 2539,-513.57 2564.12,-518.44 2592.03,-526.57 2612.3,-532.98"/>
<polygon fill="#9a32cd" stroke="#9a32cd" points="2291.53,-481.83 2281.35,-484.75 2291.13,-488.82 2291.53,-481.83"/>
<text text-anchor="middle" x="2458" y="-516.57" font-family="Helvetica,sans-Serif" font-size="10.00"> elementMeasure</text>
</g>
<!-- Node53 -->
<g id="node53" class="node">
<title>Node53</title>
<g id="a_node53"><a xlink:title=" ">
<polygon fill="white" stroke="#bfbfbf" points="2170,-414.07 2170,-455.07 2342,-455.07 2342,-414.07 2170,-414.07"/>
<text text-anchor="start" x="2178" y="-443.07" font-family="Helvetica,sans-Serif" font-size="10.00">array&lt; boost::shared</text>
<text text-anchor="start" x="2178" y="-432.07" font-family="Helvetica,sans-Serif" font-size="10.00">_ptr&lt; MoFEM::EntitiesFieldData</text>
<text text-anchor="middle" x="2256" y="-421.07" font-family="Helvetica,sans-Serif" font-size="10.00"> &gt;, LASTSPACE &gt;</text>
</a>
</g>
</g>
<!-- Node53&#45;&gt;Node11 -->
<g id="edge63" class="edge">
<title>Node53&#45;&gt;Node11</title>
<path fill="none" stroke="#9a32cd" stroke-dasharray="5,2" d="M2352.44,-433.11C2408.52,-435.22 2479.8,-443.15 2539,-466.57 2577.81,-481.92 2614.91,-516.03 2631.67,-532.83"/>
<polygon fill="#9a32cd" stroke="#9a32cd" points="2352.26,-429.6 2342.15,-432.78 2352.03,-436.6 2352.26,-429.6"/>
<text text-anchor="middle" x="2458" y="-480.57" font-family="Helvetica,sans-Serif" font-size="10.00"> derivedDataOnElement</text>
<text text-anchor="middle" x="2458" y="-469.57" font-family="Helvetica,sans-Serif" font-size="10.00">dataOnElement</text>
</g>
<!-- Node54 -->
<g id="node54" class="node">
<title>Node54</title>
<g id="a_node54"><a xlink:title=" ">
<polygon fill="white" stroke="#bfbfbf" points="2222,-376.07 2222,-395.07 2290,-395.07 2290,-376.07 2222,-376.07"/>
<text text-anchor="middle" x="2256" y="-383.07" font-family="Helvetica,sans-Serif" font-size="10.00">EntityType</text>
</a>
</g>
</g>
<!-- Node54&#45;&gt;Node11 -->
<g id="edge64" class="edge">
<title>Node54&#45;&gt;Node11</title>
<path fill="none" stroke="#9a32cd" stroke-dasharray="5,2" d="M2300.49,-381.49C2358.57,-378.06 2462.94,-379.12 2539,-420.57 2588.45,-447.52 2623.86,-508.99 2636.21,-532.85"/>
<polygon fill="#9a32cd" stroke="#9a32cd" points="2299.95,-378.01 2290.2,-382.17 2300.41,-385 2299.95,-378.01"/>
<text text-anchor="middle" x="2458" y="-423.57" font-family="Helvetica,sans-Serif" font-size="10.00"> lastEvaluatedElementEntityType</text>
</g>
<!-- Node55 -->
<g id="node55" class="node">
<title>Node55</title>
<g id="a_node55"><a xlink:href="structMoFEM_1_1DeprecatedCoreInterface.html" target="_top" xlink:title="Deprecated interface functions.">
<polygon fill="white" stroke="black" points="1600,-94.07 1600,-113.07 1781,-113.07 1781,-94.07 1600,-94.07"/>
<text text-anchor="middle" x="1690.5" y="-101.07" font-family="Helvetica,sans-Serif" font-size="10.00">MoFEM::DeprecatedCoreInterface</text>
</a>
</g>
</g>
<!-- Node55&#45;&gt;Node11 -->
<g id="edge65" class="edge">
<title>Node55&#45;&gt;Node11</title>
<path fill="none" stroke="#9a32cd" stroke-dasharray="5,2" d="M1791.24,-95.46C1965.66,-87 2327.6,-95.67 2539,-286.57 2617.12,-357.11 2636.3,-495.47 2640.15,-532.99"/>
<polygon fill="#9a32cd" stroke="#9a32cd" points="1790.85,-91.98 1781.04,-95.98 1791.21,-98.97 1790.85,-91.98"/>
<text text-anchor="middle" x="2063" y="-115.57" font-family="Helvetica,sans-Serif" font-size="10.00"> mField</text>
</g>
<!-- Node56&#45;&gt;Node55 -->
<g id="edge66" class="edge">
<title>Node56&#45;&gt;Node55</title>
<path fill="none" stroke="midnightblue" d="M1214.39,-53.19C1313.43,-63.69 1491.78,-82.6 1599.54,-94.03"/>
<polygon fill="midnightblue" stroke="midnightblue" points="1214.5,-49.68 1204.18,-52.11 1213.76,-56.64 1214.5,-49.68"/>
</g>
<!-- Node57 -->
<g id="node57" class="node">
<title>Node57</title>
<g id="a_node57"><a xlink:title=" ">
<polygon fill="white" stroke="#bfbfbf" points="2172.5,-747.57 2172.5,-799.57 2339.5,-799.57 2339.5,-747.57 2172.5,-747.57"/>
<text text-anchor="start" x="2180.5" y="-787.57" font-family="Helvetica,sans-Serif" font-size="10.00">function&lt; MoFEMErrorCode</text>
<text text-anchor="start" x="2180.5" y="-776.57" font-family="Helvetica,sans-Serif" font-size="10.00">(ForcesAndSourcesCore *fe</text>
<text text-anchor="start" x="2180.5" y="-765.57" font-family="Helvetica,sans-Serif" font-size="10.00">_raw_ptr, int order_row,</text>
<text text-anchor="middle" x="2256" y="-754.57" font-family="Helvetica,sans-Serif" font-size="10.00"> int order_col, int order_data)&gt;</text>
</a>
</g>
</g>
<!-- Node57&#45;&gt;Node11 -->
<g id="edge69" class="edge">
<title>Node57&#45;&gt;Node11</title>
<path fill="none" stroke="#9a32cd" stroke-dasharray="5,2" d="M2349.86,-780.43C2408.94,-780.19 2484.33,-770.88 2539,-732.57 2604.92,-686.37 2632.06,-583.76 2639.06,-552.07"/>
<polygon fill="#9a32cd" stroke="#9a32cd" points="2349.8,-776.93 2339.78,-780.39 2349.76,-783.93 2349.8,-776.93"/>
<text text-anchor="middle" x="2458" y="-781.57" font-family="Helvetica,sans-Serif" font-size="10.00"> setRuleHook</text>
</g>
<!-- Node58 -->
<g id="node58" class="node">
<title>Node58</title>
<g id="a_node58"><a xlink:title=" ">
<polygon fill="white" stroke="#bfbfbf" points="2155,-698.57 2155,-728.57 2357,-728.57 2357,-698.57 2155,-698.57"/>
<text text-anchor="start" x="2163" y="-716.57" font-family="Helvetica,sans-Serif" font-size="10.00">ptr_deque&lt; MoFEM::Forces</text>
<text text-anchor="middle" x="2256" y="-705.57" font-family="Helvetica,sans-Serif" font-size="10.00">AndSourcesCore::UserDataOperator &gt;</text>
</a>
</g>
</g>
<!-- Node58&#45;&gt;Node11 -->
<g id="edge70" class="edge">
<title>Node58&#45;&gt;Node11</title>
<path fill="none" stroke="#9a32cd" stroke-dasharray="5,2" d="M2367.41,-717.97C2422.25,-715.54 2487.6,-705.36 2539,-675.57 2590.86,-645.51 2625.31,-577.7 2636.78,-552.37"/>
<polygon fill="#9a32cd" stroke="#9a32cd" points="2367.17,-714.48 2357.3,-718.34 2367.42,-721.47 2367.17,-714.48"/>
<text text-anchor="middle" x="2458" y="-720.57" font-family="Helvetica,sans-Serif" font-size="10.00"> opPtrVector</text>
</g>
<!-- Node59 -->
<g id="node59" class="node">
<title>Node59</title>
<g id="a_node59"><a xlink:href="structMoFEM_1_1EntitiesFieldData.html" target="_top" xlink:title="data structure for finite element entity">
<polygon fill="white" stroke="black" points="2185,-306.07 2185,-325.07 2327,-325.07 2327,-306.07 2185,-306.07"/>
<text text-anchor="middle" x="2256" y="-313.07" font-family="Helvetica,sans-Serif" font-size="10.00">MoFEM::EntitiesFieldData</text>
</a>
</g>
</g>
<!-- Node59&#45;&gt;Node11 -->
<g id="edge71" class="edge">
<title>Node59&#45;&gt;Node11</title>
<path fill="none" stroke="#9a32cd" stroke-dasharray="5,2" d="M2300.04,-303.62C2359.17,-289.91 2466.43,-274.94 2539,-322.57 2615.73,-372.92 2635.75,-497.05 2640,-532.79"/>
<polygon fill="#9a32cd" stroke="#9a32cd" points="2299.18,-300.23 2290.28,-305.98 2300.82,-307.04 2299.18,-300.23"/>
<text text-anchor="middle" x="2458" y="-369.57" font-family="Helvetica,sans-Serif" font-size="10.00"> dataNoField</text>
<text text-anchor="middle" x="2458" y="-358.57" font-family="Helvetica,sans-Serif" font-size="10.00">dataL2</text>
<text text-anchor="middle" x="2458" y="-347.57" font-family="Helvetica,sans-Serif" font-size="10.00">dataH1</text>
<text text-anchor="middle" x="2458" y="-336.57" font-family="Helvetica,sans-Serif" font-size="10.00">dataHcurl</text>
<text text-anchor="middle" x="2458" y="-325.57" font-family="Helvetica,sans-Serif" font-size="10.00">dataHdiv</text>
</g>
<!-- Node60 -->
<g id="node60" class="node">
<title>Node60</title>
<g id="a_node60"><a xlink:title=" ">
<polygon fill="white" stroke="#bfbfbf" points="1805,-371.57 1805,-401.57 1967,-401.57 1967,-371.57 1805,-371.57"/>
<text text-anchor="start" x="1813" y="-389.57" font-family="Helvetica,sans-Serif" font-size="10.00">array&lt; std::bitset</text>
<text text-anchor="middle" x="1886" y="-378.57" font-family="Helvetica,sans-Serif" font-size="10.00">&lt; LASTBASE &gt;, LASTSPACE &gt;</text>
</a>
</g>
</g>
<!-- Node60&#45;&gt;Node59 -->
<g id="edge72" class="edge">
<title>Node60&#45;&gt;Node59</title>
<path fill="none" stroke="#9a32cd" stroke-dasharray="5,2" d="M1976.92,-371.63C2024.08,-363.54 2082.77,-353.07 2135,-342.57 2161.69,-337.2 2191.56,-330.48 2214.82,-325.09"/>
<polygon fill="#9a32cd" stroke="#9a32cd" points="1976.3,-368.19 1967.03,-373.32 1977.48,-375.09 1976.3,-368.19"/>
<text text-anchor="middle" x="2063" y="-383.57" font-family="Helvetica,sans-Serif" font-size="10.00"> brokenBasesOnSpaces</text>
<text text-anchor="middle" x="2063" y="-372.57" font-family="Helvetica,sans-Serif" font-size="10.00">basesOnSpaces</text>
</g>
<!-- Node61 -->
<g id="node61" class="node">
<title>Node61</title>
<g id="a_node61"><a xlink:title=" ">
<polygon fill="white" stroke="#bfbfbf" points="1809.5,-311.07 1809.5,-352.07 1962.5,-352.07 1962.5,-311.07 1809.5,-311.07"/>
<text text-anchor="start" x="1817.5" y="-340.07" font-family="Helvetica,sans-Serif" font-size="10.00">array&lt; boost::ptr_vector</text>
<text text-anchor="start" x="1817.5" y="-329.07" font-family="Helvetica,sans-Serif" font-size="10.00">&lt; MoFEM::EntitiesFieldData</text>
<text text-anchor="middle" x="1886" y="-318.07" font-family="Helvetica,sans-Serif" font-size="10.00">::EntData &gt;, MBMAXTYPE &gt;</text>
</a>
</g>
</g>
<!-- Node61&#45;&gt;Node59 -->
<g id="edge73" class="edge">
<title>Node61&#45;&gt;Node59</title>
<path fill="none" stroke="#9a32cd" stroke-dasharray="5,2" d="M1972.95,-327.83C2037.43,-325.03 2124.61,-321.24 2184.9,-318.61"/>
<polygon fill="#9a32cd" stroke="#9a32cd" points="1972.64,-324.34 1962.8,-328.27 1972.95,-331.33 1972.64,-324.34"/>
<text text-anchor="middle" x="2063" y="-330.57" font-family="Helvetica,sans-Serif" font-size="10.00"> dataOnEntities</text>
</g>
<!-- Node62 -->
<g id="node62" class="node">
<title>Node62</title>
<g id="a_node62"><a xlink:title=" ">
<polygon fill="white" stroke="#bfbfbf" points="1799,-261.57 1799,-291.57 1973,-291.57 1973,-261.57 1799,-261.57"/>
<text text-anchor="start" x="1807" y="-279.57" font-family="Helvetica,sans-Serif" font-size="10.00">array&lt; std::bitset</text>
<text text-anchor="middle" x="1886" y="-268.57" font-family="Helvetica,sans-Serif" font-size="10.00">&lt; LASTSPACE &gt;, MBMAXTYPE &gt;</text>
</a>
</g>
</g>
<!-- Node62&#45;&gt;Node59 -->
<g id="edge74" class="edge">
<title>Node62&#45;&gt;Node59</title>
<path fill="none" stroke="#9a32cd" stroke-dasharray="5,2" d="M1983.27,-286.77C2046.52,-293.47 2127.84,-302.09 2184.97,-308.14"/>
<polygon fill="#9a32cd" stroke="#9a32cd" points="1983.59,-283.28 1973.28,-285.71 1982.86,-290.24 1983.59,-283.28"/>
<text text-anchor="middle" x="2063" y="-305.57" font-family="Helvetica,sans-Serif" font-size="10.00"> spacesOnEntities</text>
</g>
<!-- Node63 -->
<g id="node63" class="node">
<title>Node63</title>
<g id="a_node63"><a xlink:title=" ">
<polygon fill="white" stroke="#bfbfbf" points="1801.5,-212.57 1801.5,-242.57 1970.5,-242.57 1970.5,-212.57 1801.5,-212.57"/>
<text text-anchor="start" x="1809.5" y="-230.57" font-family="Helvetica,sans-Serif" font-size="10.00">array&lt; std::bitset</text>
<text text-anchor="middle" x="1886" y="-219.57" font-family="Helvetica,sans-Serif" font-size="10.00">&lt; LASTBASE &gt;, MBMAXTYPE &gt;</text>
</a>
</g>
</g>
<!-- Node63&#45;&gt;Node59 -->
<g id="edge75" class="edge">
<title>Node63&#45;&gt;Node59</title>
<path fill="none" stroke="#9a32cd" stroke-dasharray="5,2" d="M1980.77,-241.47C2027.5,-249.28 2084.63,-260.17 2135,-273.57 2168.92,-282.59 2206.99,-296.61 2230.98,-305.93"/>
<polygon fill="#9a32cd" stroke="#9a32cd" points="1981.1,-237.98 1970.66,-239.8 1979.96,-244.89 1981.1,-237.98"/>
<text text-anchor="middle" x="2063" y="-276.57" font-family="Helvetica,sans-Serif" font-size="10.00"> basesOnEntities</text>
</g>
<!-- Node64 -->
<g id="node64" class="node">
<title>Node64</title>
<g id="a_node64"><a xlink:title=" ">
<polygon fill="white" stroke="#bfbfbf" points="1830,-174.07 1830,-193.07 1942,-193.07 1942,-174.07 1830,-174.07"/>
<text text-anchor="middle" x="1886" y="-181.07" font-family="Helvetica,sans-Serif" font-size="10.00">UBlasMatrix&lt; int &gt;</text>
</a>
</g>
</g>
<!-- Node64&#45;&gt;Node59 -->
<g id="edge76" class="edge">
<title>Node64&#45;&gt;Node59</title>
<path fill="none" stroke="#9a32cd" stroke-dasharray="5,2" d="M1952.5,-183.37C2004.05,-185.41 2076.68,-193.22 2135,-218.57 2183.4,-239.6 2228.37,-285.7 2246.53,-305.84"/>
<polygon fill="#9a32cd" stroke="#9a32cd" points="1952.59,-179.87 1942.48,-183.04 1952.36,-186.87 1952.59,-179.87"/>
<text text-anchor="middle" x="2063" y="-232.57" font-family="Helvetica,sans-Serif" font-size="10.00"> facesNodesOrder</text>
<text text-anchor="middle" x="2063" y="-221.57" font-family="Helvetica,sans-Serif" font-size="10.00">facesNodes</text>
</g>
<!-- Node65 -->
<g id="node65" class="node">
<title>Node65</title>
<g id="a_node65"><a xlink:title=" ">
<polygon fill="white" stroke="#bfbfbf" points="1827.5,-421.07 1827.5,-440.07 1944.5,-440.07 1944.5,-421.07 1827.5,-421.07"/>
<text text-anchor="middle" x="1886" y="-428.07" font-family="Helvetica,sans-Serif" font-size="10.00">bitset&lt; LASTBASE &gt;</text>
</a>
</g>
</g>
<!-- Node65&#45;&gt;Node59 -->
<g id="edge77" class="edge">
<title>Node65&#45;&gt;Node59</title>
<path fill="none" stroke="#9a32cd" stroke-dasharray="5,2" d="M1954.7,-435.92C2007.84,-436.82 2081.53,-430.43 2135,-395.57 2147.71,-387.28 2141.79,-376.79 2153,-366.57 2174.21,-347.22 2204.12,-333.43 2226.06,-325.1"/>
<polygon fill="#9a32cd" stroke="#9a32cd" points="1954.78,-432.42 1944.69,-435.67 1954.6,-439.42 1954.78,-432.42"/>
<text text-anchor="middle" x="2063" y="-438.57" font-family="Helvetica,sans-Serif" font-size="10.00"> bAse</text>
</g>
<!-- Node66 -->
<g id="node66" class="node">
<title>Node66</title>
<g id="a_node66"><a xlink:title=" ">
<polygon fill="white" stroke="#bfbfbf" points="2193.5,-638.07 2193.5,-679.07 2318.5,-679.07 2318.5,-638.07 2193.5,-638.07"/>
<text text-anchor="start" x="2201.5" y="-667.07" font-family="Helvetica,sans-Serif" font-size="10.00">function&lt; int(int order</text>
<text text-anchor="start" x="2201.5" y="-656.07" font-family="Helvetica,sans-Serif" font-size="10.00">_row, int order_col, int</text>
<text text-anchor="middle" x="2256" y="-645.07" font-family="Helvetica,sans-Serif" font-size="10.00"> order_data)&gt;</text>
</a>
</g>
</g>
<!-- Node66&#45;&gt;Node11 -->
<g id="edge78" class="edge">
<title>Node66&#45;&gt;Node11</title>
<path fill="none" stroke="#9a32cd" stroke-dasharray="5,2" d="M2329,-661.9C2387.76,-662.03 2471.76,-656.16 2539,-627.57 2579.94,-610.15 2617.12,-570.68 2632.95,-552.31"/>
<polygon fill="#9a32cd" stroke="#9a32cd" points="2328.72,-658.4 2318.69,-661.82 2328.67,-665.4 2328.72,-658.4"/>
<text text-anchor="middle" x="2458" y="-663.57" font-family="Helvetica,sans-Serif" font-size="10.00"> getRuleHook</text>
</g>
<!-- Node67 -->
<g id="node67" class="node">
<title>Node67</title>
<g id="a_node67"><a xlink:title=" ">
<polygon fill="white" stroke="#bfbfbf" points="2195,-588.57 2195,-618.57 2317,-618.57 2317,-588.57 2195,-588.57"/>
<text text-anchor="start" x="2203" y="-606.57" font-family="Helvetica,sans-Serif" font-size="10.00">shared_ptr&lt; MoFEM::</text>
<text text-anchor="middle" x="2256" y="-595.57" font-family="Helvetica,sans-Serif" font-size="10.00">BaseFunction &gt;</text>
</a>
</g>
</g>
<!-- Node67&#45;&gt;Node11 -->
<g id="edge79" class="edge">
<title>Node67&#45;&gt;Node11</title>
<path fill="none" stroke="#9a32cd" stroke-dasharray="5,2" d="M2327.21,-603.18C2384.75,-601.59 2467.99,-596.37 2539,-580.57 2568.14,-574.08 2600.17,-561.12 2620.41,-552.16"/>
<polygon fill="#9a32cd" stroke="#9a32cd" points="2327.04,-599.68 2317.13,-603.42 2327.21,-606.68 2327.04,-599.68"/>
<text text-anchor="middle" x="2458" y="-615.57" font-family="Helvetica,sans-Serif" font-size="10.00"> userPolynomialBasePtr</text>
<text text-anchor="middle" x="2458" y="-604.57" font-family="Helvetica,sans-Serif" font-size="10.00">elementPolynomialBasePtr</text>
</g>
<!-- Node68 -->
<g id="node68" class="node">
<title>Node68</title>
<g id="a_node68"><a xlink:href="classUBlasMatrix_3_01double_01_4.html" target="_top" xlink:title=" ">
<polygon fill="white" stroke="black" points="2190,-550.07 2190,-569.07 2322,-569.07 2322,-550.07 2190,-550.07"/>
<text text-anchor="middle" x="2256" y="-557.07" font-family="Helvetica,sans-Serif" font-size="10.00">UBlasMatrix&lt; double &gt;</text>
</a>
</g>
</g>
<!-- Node68&#45;&gt;Node11 -->
<g id="edge80" class="edge">
<title>Node68&#45;&gt;Node11</title>
<path fill="none" stroke="#9a32cd" stroke-dasharray="5,2" d="M2332.25,-556.24C2396.78,-553.38 2489.67,-549.27 2556.69,-546.3"/>
<polygon fill="#9a32cd" stroke="#9a32cd" points="2331.98,-552.74 2322.14,-556.68 2332.29,-559.74 2331.98,-552.74"/>
<text text-anchor="middle" x="2458" y="-568.57" font-family="Helvetica,sans-Serif" font-size="10.00"> coordsAtGaussPts</text>
<text text-anchor="middle" x="2458" y="-557.57" font-family="Helvetica,sans-Serif" font-size="10.00">gaussPts</text>
</g>
<!-- Node69 -->
<g id="node69" class="node">
<title>Node69</title>
<g id="a_node69"><a xlink:title=" ">
<polygon fill="white" stroke="#bfbfbf" points="2576.5,-1460.07 2576.5,-1479.07 2707.5,-1479.07 2707.5,-1460.07 2576.5,-1460.07"/>
<text text-anchor="middle" x="2642" y="-1467.07" font-family="Helvetica,sans-Serif" font-size="10.00">static const char *const</text>
</a>
</g>
</g>
<!-- Node69&#45;&gt;Node3 -->
<g id="edge81" class="edge">
<title>Node69&#45;&gt;Node3</title>
<path fill="none" stroke="#9a32cd" stroke-dasharray="5,2" d="M2718.02,-1477.59C2752.77,-1477.15 2792.2,-1470.12 2819,-1445.57 2885.59,-1384.55 2914.01,-1081.87 2919.84,-1010.61"/>
<polygon fill="#9a32cd" stroke="#9a32cd" points="2717.9,-1474.09 2707.88,-1477.54 2717.87,-1481.09 2717.9,-1474.09"/>
<text text-anchor="middle" x="2782" y="-1478.57" font-family="Helvetica,sans-Serif" font-size="10.00"> OpTypeNames</text>
</g>
<!-- Node70 -->
<g id="node70" class="node">
<title>Node70</title>
<g id="a_node70"><a xlink:title=" ">
<polygon fill="white" stroke="#bfbfbf" points="3104,-781.07 3104,-800.07 3175,-800.07 3175,-781.07 3104,-781.07"/>
<text text-anchor="middle" x="3139.5" y="-788.07" font-family="Helvetica,sans-Serif" font-size="10.00">Interface &amp;</text>
</a>
</g>
</g>
<!-- Node70&#45;&gt;Node1 -->
<g id="edge83" class="edge">
<title>Node70&#45;&gt;Node1</title>
<path fill="none" stroke="#9a32cd" stroke-dasharray="5,2" d="M3185.25,-793.67C3222.61,-796.28 3277.28,-800.12 3325,-803.57 3330.77,-803.98 3336.76,-804.42 3342.77,-804.86"/>
<polygon fill="#9a32cd" stroke="#9a32cd" points="3185.41,-790.18 3175.19,-792.97 3184.92,-797.16 3185.41,-790.18"/>
<text text-anchor="middle" x="3289" y="-806.57" font-family="Helvetica,sans-Serif" font-size="10.00"> postProcMesh</text>
</g>
<!-- Node71 -->
<g id="node71" class="node">
<title>Node71</title>
<g id="a_node71"><a xlink:href="classRange.html" target="_top" xlink:title=" ">
<polygon fill="white" stroke="black" points="3116,-743.07 3116,-762.07 3163,-762.07 3163,-743.07 3116,-743.07"/>
<text text-anchor="middle" x="3139.5" y="-750.07" font-family="Helvetica,sans-Serif" font-size="10.00">Range</text>
</a>
</g>
</g>
<!-- Node71&#45;&gt;Node1 -->
<g id="edge84" class="edge">
<title>Node71&#45;&gt;Node1</title>
<path fill="none" stroke="#9a32cd" stroke-dasharray="5,2" d="M3173.41,-756.3C3210.57,-760.88 3272.66,-769.68 3325,-782.57 3338.24,-785.83 3352.43,-790.23 3365.17,-794.54"/>
<polygon fill="#9a32cd" stroke="#9a32cd" points="3173.52,-752.79 3163.17,-755.06 3172.68,-759.73 3173.52,-752.79"/>
<text text-anchor="middle" x="3289" y="-785.57" font-family="Helvetica,sans-Serif" font-size="10.00"> rangeToTag</text>
</g>
<!-- Node72 -->
<g id="node72" class="node">
<title>Node72</title>
<g id="a_node72"><a xlink:title=" ">
<polygon fill="white" stroke="#bfbfbf" points="3068,-705.07 3068,-724.07 3211,-724.07 3211,-705.07 3068,-705.07"/>
<text text-anchor="middle" x="3139.5" y="-712.07" font-family="Helvetica,sans-Serif" font-size="10.00">vector&lt; EntityHandle &gt; &amp;</text>
</a>
</g>
</g>
<!-- Node72&#45;&gt;Node1 -->
<g id="edge87" class="edge">
<title>Node72&#45;&gt;Node1</title>
<path fill="none" stroke="#9a32cd" stroke-dasharray="5,2" d="M3221.45,-723.8C3254.51,-729.45 3292.53,-738.43 3325,-752.57 3349.12,-763.07 3373.34,-781.38 3388.93,-794.41"/>
<polygon fill="#9a32cd" stroke="#9a32cd" points="3221.8,-720.31 3211.36,-722.15 3220.67,-727.22 3221.8,-720.31"/>
<text text-anchor="middle" x="3289" y="-755.57" font-family="Helvetica,sans-Serif" font-size="10.00"> mapGaussPts</text>
</g>
</g>
</svg>
