<?xml version="1.0" encoding="UTF-8" standalone="no"?>
<!DOCTYPE svg PUBLIC "-//W3C//DTD SVG 1.1//EN"
 "http://www.w3.org/Graphics/SVG/1.1/DTD/svg11.dtd">
<!-- Generated by graphviz version 2.43.0 (0)
 -->
<!-- Title: MoFEM::OpDGProjectionCoefficients Pages: 1 -->
<svg width="3528pt" height="1590pt"
 viewBox="0.00 0.00 3528.00 1590.02" xmlns="http://www.w3.org/2000/svg" xmlns:xlink="http://www.w3.org/1999/xlink">
<g id="graph0" class="graph" transform="scale(1 1) rotate(0) translate(4 1586.02)">
<title>MoFEM::OpDGProjectionCoefficients</title>
<polygon fill="white" stroke="transparent" points="-4,4 -4,-1586.02 3524,-1586.02 3524,4 -4,4"/>
<!-- Node1 -->
<g id="node1" class="node">
<title>Node1</title>
<g id="a_node1"><a xlink:title=" ">
<polygon fill="#bfbfbf" stroke="black" points="3326,-30 3326,-49 3520,-49 3520,-30 3326,-30"/>
<text text-anchor="middle" x="3423" y="-37" font-family="Helvetica,sans-Serif" font-size="10.00">MoFEM::OpDGProjectionCoefficients</text>
</a>
</g>
</g>
<!-- Node2 -->
<g id="node2" class="node">
<title>Node2</title>
<g id="a_node2"><a xlink:href="structMoFEM_1_1OpBaseDerivativesBase.html" target="_top" xlink:title=" ">
<polygon fill="white" stroke="black" points="3113,-100 3113,-119 3289,-119 3289,-100 3113,-100"/>
<text text-anchor="middle" x="3201" y="-107" font-family="Helvetica,sans-Serif" font-size="10.00">MoFEM::OpBaseDerivativesBase</text>
</a>
</g>
</g>
<!-- Node2&#45;&gt;Node1 -->
<g id="edge1" class="edge">
<title>Node2&#45;&gt;Node1</title>
<path fill="none" stroke="midnightblue" d="M3241.74,-96.86C3284.91,-83.12 3352.91,-61.48 3391.88,-49.08"/>
<polygon fill="midnightblue" stroke="midnightblue" points="3240.6,-93.55 3232.13,-99.91 3242.72,-100.22 3240.6,-93.55"/>
</g>
<!-- Node3 -->
<g id="node3" class="node">
<title>Node3</title>
<g id="a_node3"><a xlink:href="structMoFEM_1_1ForcesAndSourcesCore_1_1UserDataOperator.html" target="_top" xlink:title=" ">
<polygon fill="white" stroke="black" points="2837,-299.5 2837,-329.5 3007,-329.5 3007,-299.5 2837,-299.5"/>
<text text-anchor="start" x="2845" y="-317.5" font-family="Helvetica,sans-Serif" font-size="10.00">MoFEM::ForcesAndSourcesCore</text>
<text text-anchor="middle" x="2922" y="-306.5" font-family="Helvetica,sans-Serif" font-size="10.00">::UserDataOperator</text>
</a>
</g>
</g>
<!-- Node3&#45;&gt;Node2 -->
<g id="edge2" class="edge">
<title>Node3&#45;&gt;Node2</title>
<path fill="none" stroke="midnightblue" d="M2951.54,-293.38C3010.77,-249.54 3145.01,-150.2 3187.11,-119.04"/>
<polygon fill="midnightblue" stroke="midnightblue" points="2949.32,-290.66 2943.37,-299.43 2953.49,-296.29 2949.32,-290.66"/>
</g>
<!-- Node4 -->
<g id="node4" class="node">
<title>Node4</title>
<g id="a_node4"><a xlink:href="structMoFEM_1_1DataOperator.html" target="_top" xlink:title="base operator to do operations at Gauss Pt. level">
<polygon fill="white" stroke="black" points="2579.5,-327 2579.5,-346 2704.5,-346 2704.5,-327 2579.5,-327"/>
<text text-anchor="middle" x="2642" y="-334" font-family="Helvetica,sans-Serif" font-size="10.00">MoFEM::DataOperator</text>
</a>
</g>
</g>
<!-- Node4&#45;&gt;Node3 -->
<g id="edge3" class="edge">
<title>Node4&#45;&gt;Node3</title>
<path fill="none" stroke="midnightblue" d="M2714.97,-330.8C2752.22,-327.86 2797.92,-324.24 2836.81,-321.16"/>
<polygon fill="midnightblue" stroke="midnightblue" points="2714.39,-327.34 2704.7,-331.62 2714.94,-334.32 2714.39,-327.34"/>
</g>
<!-- Node5 -->
<g id="node5" class="node">
<title>Node5</title>
<g id="a_node5"><a xlink:title=" ">
<polygon fill="white" stroke="#bfbfbf" points="2160,-265.5 2160,-317.5 2352,-317.5 2352,-265.5 2160,-265.5"/>
<text text-anchor="start" x="2168" y="-305.5" font-family="Helvetica,sans-Serif" font-size="10.00">function&lt; MoFEMErrorCode</text>
<text text-anchor="start" x="2168" y="-294.5" font-family="Helvetica,sans-Serif" font-size="10.00">(DataOperator *op_ptr,</text>
<text text-anchor="start" x="2168" y="-283.5" font-family="Helvetica,sans-Serif" font-size="10.00"> int side, EntityType type,</text>
<text text-anchor="middle" x="2256" y="-272.5" font-family="Helvetica,sans-Serif" font-size="10.00"> EntitiesFieldData::EntData &amp;data)&gt;</text>
</a>
</g>
</g>
<!-- Node5&#45;&gt;Node4 -->
<g id="edge4" class="edge">
<title>Node5&#45;&gt;Node4</title>
<path fill="none" stroke="#9a32cd" stroke-dasharray="5,2" d="M2362.35,-312.34C2367.29,-313.12 2372.2,-313.84 2377,-314.5 2446.03,-323.96 2525.82,-329.93 2579.45,-333.23"/>
<polygon fill="#9a32cd" stroke="#9a32cd" points="2362.58,-308.84 2352.15,-310.69 2361.46,-315.75 2362.58,-308.84"/>
<text text-anchor="middle" x="2458" y="-332.5" font-family="Helvetica,sans-Serif" font-size="10.00"> doWorkRhsHook</text>
</g>
<!-- Node6 -->
<g id="node6" class="node">
<title>Node6</title>
<g id="a_node6"><a xlink:href="classbool.html" target="_top" xlink:title=" ">
<polygon fill="white" stroke="black" points="2237,-227 2237,-246 2275,-246 2275,-227 2237,-227"/>
<text text-anchor="middle" x="2256" y="-234" font-family="Helvetica,sans-Serif" font-size="10.00">bool</text>
</a>
</g>
</g>
<!-- Node6&#45;&gt;Node4 -->
<g id="edge5" class="edge">
<title>Node6&#45;&gt;Node4</title>
<path fill="none" stroke="#9a32cd" stroke-dasharray="5,2" d="M2285.27,-231.84C2348.9,-222.03 2500.76,-202.58 2539,-233.5 2568.69,-257.5 2530.16,-290.35 2557,-317.5 2563.2,-323.77 2571.01,-328.16 2579.35,-331.21"/>
<polygon fill="#9a32cd" stroke="#9a32cd" points="2284.49,-228.42 2275.16,-233.44 2285.58,-235.34 2284.49,-228.42"/>
<text text-anchor="middle" x="2458" y="-302.5" font-family="Helvetica,sans-Serif" font-size="10.00"> doTris</text>
<text text-anchor="middle" x="2458" y="-291.5" font-family="Helvetica,sans-Serif" font-size="10.00">doQuads</text>
<text text-anchor="middle" x="2458" y="-280.5" font-family="Helvetica,sans-Serif" font-size="10.00">sYmm</text>
<text text-anchor="middle" x="2458" y="-269.5" font-family="Helvetica,sans-Serif" font-size="10.00">doPrisms</text>
<text text-anchor="middle" x="2458" y="-258.5" font-family="Helvetica,sans-Serif" font-size="10.00">doTets</text>
<text text-anchor="middle" x="2458" y="-247.5" font-family="Helvetica,sans-Serif" font-size="10.00">doVertices</text>
<text text-anchor="middle" x="2458" y="-236.5" font-family="Helvetica,sans-Serif" font-size="10.00">doEdges</text>
</g>
<!-- Node7 -->
<g id="node7" class="node">
<title>Node7</title>
<g id="a_node7"><a xlink:title=" ">
<polygon fill="white" stroke="#bfbfbf" points="2153,-375 2153,-460 2359,-460 2359,-375 2153,-375"/>
<text text-anchor="start" x="2161" y="-448" font-family="Helvetica,sans-Serif" font-size="10.00">function&lt; MoFEMErrorCode</text>
<text text-anchor="start" x="2161" y="-437" font-family="Helvetica,sans-Serif" font-size="10.00">(DataOperator *op_ptr,</text>
<text text-anchor="start" x="2161" y="-426" font-family="Helvetica,sans-Serif" font-size="10.00"> int row_side, int col_side,</text>
<text text-anchor="start" x="2161" y="-415" font-family="Helvetica,sans-Serif" font-size="10.00"> EntityType row_type, EntityType</text>
<text text-anchor="start" x="2161" y="-404" font-family="Helvetica,sans-Serif" font-size="10.00"> col_type, EntitiesFieldData::EntData</text>
<text text-anchor="start" x="2161" y="-393" font-family="Helvetica,sans-Serif" font-size="10.00"> &amp;row_data, EntitiesFieldData::EntData</text>
<text text-anchor="middle" x="2256" y="-382" font-family="Helvetica,sans-Serif" font-size="10.00"> &amp;col_data)&gt;</text>
</a>
</g>
</g>
<!-- Node7&#45;&gt;Node4 -->
<g id="edge6" class="edge">
<title>Node7&#45;&gt;Node4</title>
<path fill="none" stroke="#9a32cd" stroke-dasharray="5,2" d="M2369.29,-405.32C2421.88,-397.48 2484.75,-384.98 2539,-365.5 2547.61,-362.41 2548.45,-358.76 2557,-355.5 2566.78,-351.77 2577.49,-348.65 2587.89,-346.1"/>
<polygon fill="#9a32cd" stroke="#9a32cd" points="2368.65,-401.88 2359.26,-406.78 2369.66,-408.8 2368.65,-401.88"/>
<text text-anchor="middle" x="2458" y="-406.5" font-family="Helvetica,sans-Serif" font-size="10.00"> doWorkLhsHook</text>
</g>
<!-- Node8 -->
<g id="node8" class="node">
<title>Node8</title>
<g id="a_node8"><a xlink:title=" ">
<polygon fill="white" stroke="#bfbfbf" points="2179,-337 2179,-356 2333,-356 2333,-337 2179,-337"/>
<text text-anchor="middle" x="2256" y="-344" font-family="Helvetica,sans-Serif" font-size="10.00">array&lt; bool, MBMAXTYPE &gt;</text>
</a>
</g>
</g>
<!-- Node8&#45;&gt;Node4 -->
<g id="edge7" class="edge">
<title>Node8&#45;&gt;Node4</title>
<path fill="none" stroke="#9a32cd" stroke-dasharray="5,2" d="M2343.28,-350.04C2399.15,-351.61 2473.43,-352.34 2539,-348.5 2552.08,-347.73 2566.06,-346.42 2579.34,-344.93"/>
<polygon fill="#9a32cd" stroke="#9a32cd" points="2343.17,-346.54 2333.07,-349.74 2342.96,-353.53 2343.17,-346.54"/>
<text text-anchor="middle" x="2458" y="-353.5" font-family="Helvetica,sans-Serif" font-size="10.00"> doEntities</text>
</g>
<!-- Node9 -->
<g id="node9" class="node">
<title>Node9</title>
<g id="a_node9"><a xlink:title=" ">
<polygon fill="white" stroke="#bfbfbf" points="2607.5,-289 2607.5,-308 2676.5,-308 2676.5,-289 2607.5,-289"/>
<text text-anchor="middle" x="2642" y="-296" font-family="Helvetica,sans-Serif" font-size="10.00">FieldSpace</text>
</a>
</g>
</g>
<!-- Node9&#45;&gt;Node3 -->
<g id="edge8" class="edge">
<title>Node9&#45;&gt;Node3</title>
<path fill="none" stroke="#9a32cd" stroke-dasharray="5,2" d="M2686.83,-299.66C2722.46,-300.74 2774,-302.62 2819,-305.5 2824.85,-305.87 2830.89,-306.3 2836.98,-306.76"/>
<polygon fill="#9a32cd" stroke="#9a32cd" points="2686.86,-296.16 2676.77,-299.36 2686.66,-303.15 2686.86,-296.16"/>
<text text-anchor="middle" x="2782" y="-308.5" font-family="Helvetica,sans-Serif" font-size="10.00"> sPace</text>
</g>
<!-- Node10 -->
<g id="node10" class="node">
<title>Node10</title>
<g id="a_node10"><a xlink:title=" ">
<polygon fill="white" stroke="#bfbfbf" points="1122.5,-916 1122.5,-935 1160.5,-935 1160.5,-916 1122.5,-916"/>
<text text-anchor="middle" x="1141.5" y="-923" font-family="Helvetica,sans-Serif" font-size="10.00">char</text>
</a>
</g>
</g>
<!-- Node10&#45;&gt;Node3 -->
<g id="edge9" class="edge">
<title>Node10&#45;&gt;Node3</title>
<path fill="none" stroke="#9a32cd" stroke-dasharray="5,2" d="M1170.81,-927.11C1230.95,-930.38 1375.88,-937.5 1497.5,-937.5 1497.5,-937.5 1497.5,-937.5 2643,-937.5 2732.09,-937.5 2692.54,-837.65 2727,-755.5 2771.67,-649.01 2792.36,-624.87 2819,-512.5 2827.92,-474.89 2812.32,-369.25 2837,-339.5 2840.21,-335.64 2843.98,-332.35 2848.13,-329.56"/>
<polygon fill="#9a32cd" stroke="#9a32cd" points="1170.77,-923.6 1160.6,-926.54 1170.39,-930.59 1170.77,-923.6"/>
<text text-anchor="middle" x="2063" y="-940.5" font-family="Helvetica,sans-Serif" font-size="10.00"> opType</text>
</g>
<!-- Node38 -->
<g id="node38" class="node">
<title>Node38</title>
<g id="a_node38"><a xlink:href="structMoFEM_1_1Problem.html" target="_top" xlink:title="keeps basic data about problem">
<polygon fill="white" stroke="black" points="1449,-508 1449,-527 1548,-527 1548,-508 1449,-508"/>
<text text-anchor="middle" x="1498.5" y="-515" font-family="Helvetica,sans-Serif" font-size="10.00">MoFEM::Problem</text>
</a>
</g>
</g>
<!-- Node10&#45;&gt;Node38 -->
<g id="edge53" class="edge">
<title>Node10&#45;&gt;Node38</title>
<path fill="none" stroke="#9a32cd" stroke-dasharray="5,2" d="M1170.69,-926.19C1192.26,-925.39 1221.81,-921.26 1243,-906.5 1255.76,-897.61 1248.1,-885.17 1261,-876.5 1311.76,-842.38 1350.92,-895.71 1397,-855.5 1449.58,-809.61 1488.22,-577.36 1496.04,-527.1"/>
<polygon fill="#9a32cd" stroke="#9a32cd" points="1170.46,-922.69 1160.52,-926.35 1170.57,-929.69 1170.46,-922.69"/>
<text text-anchor="middle" x="1329" y="-879.5" font-family="Helvetica,sans-Serif" font-size="10.00"> tagName</text>
</g>
<!-- Node11 -->
<g id="node11" class="node">
<title>Node11</title>
<g id="a_node11"><a xlink:href="structMoFEM_1_1ForcesAndSourcesCore.html" target="_top" xlink:title="structure to get information form mofem into EntitiesFieldData">
<polygon fill="white" stroke="black" points="2557,-687 2557,-706 2727,-706 2727,-687 2557,-687"/>
<text text-anchor="middle" x="2642" y="-694" font-family="Helvetica,sans-Serif" font-size="10.00">MoFEM::ForcesAndSourcesCore</text>
</a>
</g>
</g>
<!-- Node11&#45;&gt;Node3 -->
<g id="edge10" class="edge">
<title>Node11&#45;&gt;Node3</title>
<path fill="none" stroke="#9a32cd" stroke-dasharray="5,2" d="M2653.13,-677.63C2692.48,-604.36 2833.23,-342.56 2837,-339.5 2841.73,-335.67 2847.03,-332.42 2852.61,-329.67"/>
<polygon fill="#9a32cd" stroke="#9a32cd" points="2649.92,-676.21 2648.27,-686.67 2656.09,-679.52 2649.92,-676.21"/>
<text text-anchor="middle" x="2782" y="-500.5" font-family="Helvetica,sans-Serif" font-size="10.00"> ptrFE</text>
</g>
<!-- Node11&#45;&gt;Node11 -->
<g id="edge68" class="edge">
<title>Node11&#45;&gt;Node11</title>
<path fill="none" stroke="#9a32cd" stroke-dasharray="5,2" d="M2615.96,-715.53C2617.38,-720.63 2626.06,-724.5 2642,-724.5 2666.88,-724.5 2674.08,-715.07 2663.58,-706.26"/>
<polygon fill="#9a32cd" stroke="#9a32cd" points="2619.24,-716.79 2620.42,-706.26 2612.93,-713.75 2619.24,-716.79"/>
<text text-anchor="middle" x="2642" y="-738.5" font-family="Helvetica,sans-Serif" font-size="10.00"> sidePtrFE</text>
<text text-anchor="middle" x="2642" y="-727.5" font-family="Helvetica,sans-Serif" font-size="10.00">refinePtrFE</text>
</g>
<!-- Node12 -->
<g id="node12" class="node">
<title>Node12</title>
<g id="a_node12"><a xlink:href="structMoFEM_1_1FEMethod.html" target="_top" xlink:title="structure for User Loop Methods on finite elements">
<polygon fill="white" stroke="black" points="2202.5,-884 2202.5,-903 2309.5,-903 2309.5,-884 2202.5,-884"/>
<text text-anchor="middle" x="2256" y="-891" font-family="Helvetica,sans-Serif" font-size="10.00">MoFEM::FEMethod</text>
</a>
</g>
</g>
<!-- Node12&#45;&gt;Node11 -->
<g id="edge11" class="edge">
<title>Node12&#45;&gt;Node11</title>
<path fill="none" stroke="midnightblue" d="M2319.66,-889.71C2333.4,-886.79 2347.32,-882.06 2359,-874.5 2370.8,-866.86 2365.15,-856.06 2377,-848.5 2438.59,-809.18 2475.84,-857.24 2539,-820.5 2588.16,-791.91 2623.74,-730.14 2636.17,-706.23"/>
<polygon fill="midnightblue" stroke="midnightblue" points="2318.92,-886.29 2309.72,-891.53 2320.18,-893.17 2318.92,-886.29"/>
</g>
<!-- Node13 -->
<g id="node13" class="node">
<title>Node13</title>
<g id="a_node13"><a xlink:href="structMoFEM_1_1BasicMethod.html" target="_top" xlink:title="Data structure to exchange data between mofem and User Loop Methods.">
<polygon fill="white" stroke="black" points="1825,-508 1825,-527 1947,-527 1947,-508 1825,-508"/>
<text text-anchor="middle" x="1886" y="-515" font-family="Helvetica,sans-Serif" font-size="10.00">MoFEM::BasicMethod</text>
</a>
</g>
</g>
<!-- Node13&#45;&gt;Node12 -->
<g id="edge12" class="edge">
<title>Node13&#45;&gt;Node12</title>
<path fill="none" stroke="midnightblue" d="M1900.02,-535.33C1952.21,-606.79 2143.94,-868.85 2153,-874.5 2167.68,-883.65 2185.69,-888.6 2202.47,-891.23"/>
<polygon fill="midnightblue" stroke="midnightblue" points="1902.83,-533.26 1894.11,-527.25 1897.18,-537.39 1902.83,-533.26"/>
</g>
<!-- Node14 -->
<g id="node14" class="node">
<title>Node14</title>
<g id="a_node14"><a xlink:href="structMoFEM_1_1KspMethod.html" target="_top" xlink:title="data structure for ksp (linear solver) context">
<polygon fill="white" stroke="black" points="1442,-1314 1442,-1333 1555,-1333 1555,-1314 1442,-1314"/>
<text text-anchor="middle" x="1498.5" y="-1321" font-family="Helvetica,sans-Serif" font-size="10.00">MoFEM::KspMethod</text>
</a>
</g>
</g>
<!-- Node14&#45;&gt;Node13 -->
<g id="edge13" class="edge">
<title>Node14&#45;&gt;Node13</title>
<path fill="none" stroke="midnightblue" d="M1510.88,-1305.21C1551.33,-1239.72 1690.54,-1010.11 1781,-808.5 1829.21,-701.06 1871.2,-563.93 1882.2,-527.01"/>
<polygon fill="midnightblue" stroke="midnightblue" points="1507.74,-1303.63 1505.45,-1313.97 1513.7,-1307.31 1507.74,-1303.63"/>
</g>
<!-- Node15 -->
<g id="node15" class="node">
<title>Node15</title>
<g id="a_node15"><a xlink:href="structMoFEM_1_1PetscData.html" target="_top" xlink:title=" ">
<polygon fill="white" stroke="black" points="1087.5,-1231 1087.5,-1250 1195.5,-1250 1195.5,-1231 1087.5,-1231"/>
<text text-anchor="middle" x="1141.5" y="-1238" font-family="Helvetica,sans-Serif" font-size="10.00">MoFEM::PetscData</text>
</a>
</g>
</g>
<!-- Node15&#45;&gt;Node14 -->
<g id="edge14" class="edge">
<title>Node15&#45;&gt;Node14</title>
<path fill="none" stroke="midnightblue" d="M1193.26,-1252.37C1264.2,-1268.95 1391.57,-1298.73 1456.71,-1313.96"/>
<polygon fill="midnightblue" stroke="midnightblue" points="1193.76,-1248.89 1183.22,-1250.02 1192.16,-1255.71 1193.76,-1248.89"/>
</g>
<!-- Node25 -->
<g id="node25" class="node">
<title>Node25</title>
<g id="a_node25"><a xlink:href="structMoFEM_1_1SnesMethod.html" target="_top" xlink:title="data structure for snes (nonlinear solver) context">
<polygon fill="white" stroke="black" points="1439,-1125 1439,-1144 1558,-1144 1558,-1125 1439,-1125"/>
<text text-anchor="middle" x="1498.5" y="-1132" font-family="Helvetica,sans-Serif" font-size="10.00">MoFEM::SnesMethod</text>
</a>
</g>
</g>
<!-- Node15&#45;&gt;Node25 -->
<g id="edge27" class="edge">
<title>Node15&#45;&gt;Node25</title>
<path fill="none" stroke="darkgreen" d="M1205.68,-1234.13C1258.13,-1227.49 1334.07,-1214.69 1397,-1191.5 1430.13,-1179.29 1465.21,-1156.93 1483.9,-1144.14"/>
<polygon fill="darkgreen" stroke="darkgreen" points="1205.01,-1230.69 1195.51,-1235.38 1205.86,-1237.64 1205.01,-1230.69"/>
</g>
<!-- Node28 -->
<g id="node28" class="node">
<title>Node28</title>
<g id="a_node28"><a xlink:href="structMoFEM_1_1TSMethod.html" target="_top" xlink:title="data structure for TS (time stepping) context">
<polygon fill="white" stroke="black" points="1445,-845 1445,-864 1552,-864 1552,-845 1445,-845"/>
<text text-anchor="middle" x="1498.5" y="-852" font-family="Helvetica,sans-Serif" font-size="10.00">MoFEM::TSMethod</text>
</a>
</g>
</g>
<!-- Node15&#45;&gt;Node28 -->
<g id="edge33" class="edge">
<title>Node15&#45;&gt;Node28</title>
<path fill="none" stroke="darkgreen" d="M1205.68,-1232.64C1218.75,-1229.09 1231.9,-1223.94 1243,-1216.5 1254.37,-1208.88 1249.54,-1198.99 1261,-1191.5 1312.75,-1157.71 1351.06,-1203.84 1397,-1162.5 1402.97,-1157.13 1478.35,-915.96 1494.48,-864.21"/>
<polygon fill="darkgreen" stroke="darkgreen" points="1204.62,-1229.29 1195.73,-1235.06 1206.28,-1236.09 1204.62,-1229.29"/>
</g>
<!-- Node16 -->
<g id="node16" class="node">
<title>Node16</title>
<g id="a_node16"><a xlink:href="structMoFEM_1_1UnknownInterface.html" target="_top" xlink:title="base class for all interface classes">
<polygon fill="white" stroke="black" points="735,-1401 735,-1420 883,-1420 883,-1401 735,-1401"/>
<text text-anchor="middle" x="809" y="-1408" font-family="Helvetica,sans-Serif" font-size="10.00">MoFEM::UnknownInterface</text>
</a>
</g>
</g>
<!-- Node16&#45;&gt;Node15 -->
<g id="edge15" class="edge">
<title>Node16&#45;&gt;Node15</title>
<path fill="none" stroke="midnightblue" d="M858.91,-1398.08C906.32,-1383.74 977.43,-1355.83 1022,-1308.5 1036.48,-1293.12 1023.96,-1278.25 1040,-1264.5 1053.15,-1253.24 1070.66,-1247.05 1087.38,-1243.72"/>
<polygon fill="midnightblue" stroke="midnightblue" points="857.78,-1394.76 849.17,-1400.93 859.75,-1401.48 857.78,-1394.76"/>
</g>
<!-- Node56 -->
<g id="node56" class="node">
<title>Node56</title>
<g id="a_node56"><a xlink:href="structMoFEM_1_1CoreInterface.html" target="_top" xlink:title="Interface.">
<polygon fill="white" stroke="black" points="1079,-1547 1079,-1566 1204,-1566 1204,-1547 1079,-1547"/>
<text text-anchor="middle" x="1141.5" y="-1554" font-family="Helvetica,sans-Serif" font-size="10.00">MoFEM::CoreInterface</text>
</a>
</g>
</g>
<!-- Node16&#45;&gt;Node56 -->
<g id="edge67" class="edge">
<title>Node16&#45;&gt;Node56</title>
<path fill="none" stroke="midnightblue" d="M815.22,-1430.19C825.34,-1463.85 851.12,-1531.52 901,-1559.5 967.55,-1596.83 1061.75,-1579.1 1109.77,-1566.07"/>
<polygon fill="midnightblue" stroke="midnightblue" points="818.48,-1428.85 812.38,-1420.19 811.75,-1430.76 818.48,-1428.85"/>
</g>
<!-- Node17 -->
<g id="node17" class="node">
<title>Node17</title>
<g id="a_node17"><a xlink:title=" ">
<polygon fill="white" stroke="#bfbfbf" points="386,-1379 386,-1442 627,-1442 627,-1379 386,-1379"/>
<text text-anchor="start" x="394" y="-1430" font-family="Helvetica,sans-Serif" font-size="10.00">multi_index_container</text>
<text text-anchor="start" x="394" y="-1419" font-family="Helvetica,sans-Serif" font-size="10.00">&lt; UIdTypeMap, indexed</text>
<text text-anchor="start" x="394" y="-1408" font-family="Helvetica,sans-Serif" font-size="10.00">_by&lt; hashed_unique&lt; member</text>
<text text-anchor="start" x="394" y="-1397" font-family="Helvetica,sans-Serif" font-size="10.00">&lt; UIdTypeMap, boost::typeindex</text>
<text text-anchor="middle" x="506.5" y="-1386" font-family="Helvetica,sans-Serif" font-size="10.00">::type_index, &amp;UIdTypeMap::classIdx &gt; &gt; &gt; &gt;</text>
</a>
</g>
</g>
<!-- Node17&#45;&gt;Node16 -->
<g id="edge16" class="edge">
<title>Node17&#45;&gt;Node16</title>
<path fill="none" stroke="#9a32cd" stroke-dasharray="5,2" d="M637.41,-1410.5C670.69,-1410.5 705.33,-1410.5 734.62,-1410.5"/>
<polygon fill="#9a32cd" stroke="#9a32cd" points="637.13,-1407 627.13,-1410.5 637.13,-1414 637.13,-1407"/>
<text text-anchor="middle" x="681" y="-1413.5" font-family="Helvetica,sans-Serif" font-size="10.00"> iFaceTypeMap</text>
</g>
<!-- Node18 -->
<g id="node18" class="node">
<title>Node18</title>
<g id="a_node18"><a xlink:title=" ">
<polygon fill="white" stroke="#bfbfbf" points="0,-1431 0,-1450 125,-1450 125,-1431 0,-1431"/>
<text text-anchor="middle" x="62.5" y="-1438" font-family="Helvetica,sans-Serif" font-size="10.00">multi_index_container</text>
</a>
</g>
</g>
<!-- Node18&#45;&gt;Node13 -->
<g id="edge40" class="edge">
<title>Node18&#45;&gt;Node13</title>
<path fill="none" stroke="#9a32cd" stroke-dasharray="5,2" d="M114.58,-1452.03C123.99,-1453.8 133.76,-1455.4 143,-1456.5 303.1,-1475.58 344.27,-1470.5 505.5,-1470.5 505.5,-1470.5 505.5,-1470.5 1499.5,-1470.5 1567.18,-1470.5 1546.82,-1400.32 1582,-1342.5 1674.41,-1190.62 1726.5,-1164.72 1781,-995.5 1804.97,-921.08 1784.27,-897.29 1799,-820.5 1821.61,-702.62 1868.67,-564.13 1881.63,-527.03"/>
<polygon fill="#9a32cd" stroke="#9a32cd" points="115.05,-1448.56 104.56,-1450.07 113.7,-1455.43 115.05,-1448.56"/>
<text text-anchor="middle" x="961.5" y="-1550.5" font-family="Helvetica,sans-Serif" font-size="10.00"> adjacenciesPtr</text>
<text text-anchor="middle" x="961.5" y="-1539.5" font-family="Helvetica,sans-Serif" font-size="10.00">refinedEntitiesPtr</text>
<text text-anchor="middle" x="961.5" y="-1528.5" font-family="Helvetica,sans-Serif" font-size="10.00">finiteElementsEntitiesPtr</text>
<text text-anchor="middle" x="961.5" y="-1517.5" font-family="Helvetica,sans-Serif" font-size="10.00">dofsPtr</text>
<text text-anchor="middle" x="961.5" y="-1506.5" font-family="Helvetica,sans-Serif" font-size="10.00">entitiesPtr</text>
<text text-anchor="middle" x="961.5" y="-1495.5" font-family="Helvetica,sans-Serif" font-size="10.00">finiteElementsPtr</text>
<text text-anchor="middle" x="961.5" y="-1484.5" font-family="Helvetica,sans-Serif" font-size="10.00">refinedFiniteElementsPtr</text>
<text text-anchor="middle" x="961.5" y="-1473.5" font-family="Helvetica,sans-Serif" font-size="10.00">fieldsPtr</text>
</g>
<!-- Node18&#45;&gt;Node17 -->
<g id="edge17" class="edge">
<title>Node18&#45;&gt;Node17</title>
<path fill="none" stroke="orange" stroke-dasharray="5,2" d="M94.05,-1427.05C108.58,-1421.36 126.37,-1415.39 143,-1412.5 223.14,-1398.57 314.76,-1398.2 385.84,-1401.24"/>
<polygon fill="orange" stroke="orange" points="92.52,-1423.9 84.58,-1430.9 95.16,-1430.38 92.52,-1423.9"/>
<text text-anchor="start" x="143" y="-1448.5" font-family="Helvetica,sans-Serif" font-size="10.00"> &lt; UIdTypeMap, indexed</text>
<text text-anchor="start" x="143" y="-1437.5" font-family="Helvetica,sans-Serif" font-size="10.00">_by&lt; hashed_unique&lt; member</text>
<text text-anchor="start" x="143" y="-1426.5" font-family="Helvetica,sans-Serif" font-size="10.00">&lt; UIdTypeMap, boost::typeindex</text>
<text text-anchor="middle" x="255.5" y="-1415.5" font-family="Helvetica,sans-Serif" font-size="10.00">::type_index, &amp;UIdTypeMap::classIdx &gt; &gt; &gt; &gt;</text>
</g>
<!-- Node19 -->
<g id="node19" class="node">
<title>Node19</title>
<g id="a_node19"><a xlink:title=" ">
<polygon fill="white" stroke="#bfbfbf" points="738.5,-1106 738.5,-1125 879.5,-1125 879.5,-1106 738.5,-1106"/>
<text text-anchor="middle" x="809" y="-1113" font-family="Helvetica,sans-Serif" font-size="10.00">static constexpr Switches</text>
</a>
</g>
</g>
<!-- Node19&#45;&gt;Node15 -->
<g id="edge18" class="edge">
<title>Node19&#45;&gt;Node15</title>
<path fill="none" stroke="#9a32cd" stroke-dasharray="5,2" d="M889.84,-1109.97C933.88,-1111.25 986.63,-1120.55 1022,-1152.5 1043.93,-1172.31 1018.7,-1196.03 1040,-1216.5 1052.68,-1228.68 1070.37,-1235.05 1087.39,-1238.28"/>
<polygon fill="#9a32cd" stroke="#9a32cd" points="889.77,-1106.47 879.72,-1109.81 889.66,-1113.47 889.77,-1106.47"/>
<text text-anchor="middle" x="961.5" y="-1232.5" font-family="Helvetica,sans-Serif" font-size="10.00"> CtxSetX_TT</text>
<text text-anchor="middle" x="961.5" y="-1221.5" font-family="Helvetica,sans-Serif" font-size="10.00">CtxSetX_T</text>
<text text-anchor="middle" x="961.5" y="-1210.5" font-family="Helvetica,sans-Serif" font-size="10.00">CtxSetA</text>
<text text-anchor="middle" x="961.5" y="-1199.5" font-family="Helvetica,sans-Serif" font-size="10.00">CtxSetB</text>
<text text-anchor="middle" x="961.5" y="-1188.5" font-family="Helvetica,sans-Serif" font-size="10.00">CtxSetTime</text>
<text text-anchor="middle" x="961.5" y="-1177.5" font-family="Helvetica,sans-Serif" font-size="10.00">CtxSetNone</text>
<text text-anchor="middle" x="961.5" y="-1166.5" font-family="Helvetica,sans-Serif" font-size="10.00">CtxSetF</text>
<text text-anchor="middle" x="961.5" y="-1155.5" font-family="Helvetica,sans-Serif" font-size="10.00">CtxSetX</text>
</g>
<!-- Node20 -->
<g id="node20" class="node">
<title>Node20</title>
<g id="a_node20"><a xlink:title=" ">
<polygon fill="white" stroke="#bfbfbf" points="791.5,-1309 791.5,-1328 826.5,-1328 826.5,-1309 791.5,-1309"/>
<text text-anchor="middle" x="809" y="-1316" font-family="Helvetica,sans-Serif" font-size="10.00">Mat</text>
</a>
</g>
</g>
<!-- Node20&#45;&gt;Node14 -->
<g id="edge24" class="edge">
<title>Node20&#45;&gt;Node14</title>
<path fill="none" stroke="#9a32cd" stroke-dasharray="5,2" d="M834.07,-1333.49C851.83,-1343.63 876.98,-1356.11 901,-1361.5 1108.31,-1408.01 1365.58,-1355.82 1460.28,-1333.05"/>
<polygon fill="#9a32cd" stroke="#9a32cd" points="835.42,-1330.22 825.02,-1328.16 831.87,-1336.25 835.42,-1330.22"/>
<text text-anchor="middle" x="1141.5" y="-1393.5" font-family="Helvetica,sans-Serif" font-size="10.00"> ksp_A</text>
<text text-anchor="middle" x="1141.5" y="-1382.5" font-family="Helvetica,sans-Serif" font-size="10.00">ksp_B</text>
</g>
<!-- Node20&#45;&gt;Node15 -->
<g id="edge19" class="edge">
<title>Node20&#45;&gt;Node15</title>
<path fill="none" stroke="#9a32cd" stroke-dasharray="5,2" d="M836.06,-1308.17C854.08,-1301.32 878.73,-1292.52 901,-1286.5 910.09,-1284.04 1022.33,-1262.76 1089.88,-1250.02"/>
<polygon fill="#9a32cd" stroke="#9a32cd" points="834.61,-1304.98 826.54,-1311.85 837.13,-1311.52 834.61,-1304.98"/>
<text text-anchor="middle" x="961.5" y="-1300.5" font-family="Helvetica,sans-Serif" font-size="10.00"> A</text>
<text text-anchor="middle" x="961.5" y="-1289.5" font-family="Helvetica,sans-Serif" font-size="10.00">B</text>
</g>
<!-- Node20&#45;&gt;Node25 -->
<g id="edge29" class="edge">
<title>Node20&#45;&gt;Node25</title>
<path fill="none" stroke="#9a32cd" stroke-dasharray="5,2" d="M836.61,-1323.59C878.04,-1330.26 959.7,-1338.3 1022,-1312.5 1032.17,-1308.29 1030.17,-1300.45 1040,-1295.5 1121.85,-1254.31 1153.36,-1278.49 1243,-1259.5 1311.97,-1244.89 1334.4,-1253.91 1397,-1221.5 1436.35,-1201.13 1473.21,-1162.38 1489.17,-1144.27"/>
<polygon fill="#9a32cd" stroke="#9a32cd" points="836.95,-1320.1 826.5,-1321.86 835.77,-1327 836.95,-1320.1"/>
<text text-anchor="middle" x="1141.5" y="-1309.5" font-family="Helvetica,sans-Serif" font-size="10.00"> snes_A</text>
<text text-anchor="middle" x="1141.5" y="-1298.5" font-family="Helvetica,sans-Serif" font-size="10.00">snes_B</text>
</g>
<!-- Node20&#45;&gt;Node28 -->
<g id="edge34" class="edge">
<title>Node20&#45;&gt;Node28</title>
<path fill="none" stroke="#9a32cd" stroke-dasharray="5,2" d="M835.43,-1305.57C850.49,-1297.04 869.26,-1284.82 883,-1270.5 893.77,-1259.28 888.71,-1250.03 901,-1240.5 945.33,-1206.11 986.42,-1247.89 1022,-1204.5 1049.59,-1170.85 1009.85,-1040.88 1040,-1009.5 1071.53,-976.68 1197.92,-988.72 1243,-982.5 1311.49,-973.05 1335.58,-992.24 1397,-960.5 1442.06,-937.22 1478.05,-885.62 1491.65,-864.16"/>
<polygon fill="#9a32cd" stroke="#9a32cd" points="833.71,-1302.52 826.61,-1310.39 837.06,-1308.66 833.71,-1302.52"/>
<text text-anchor="middle" x="1141.5" y="-1023.5" font-family="Helvetica,sans-Serif" font-size="10.00"> ts_A</text>
<text text-anchor="middle" x="1141.5" y="-1012.5" font-family="Helvetica,sans-Serif" font-size="10.00">ts_B</text>
</g>
<!-- Node21 -->
<g id="node21" class="node">
<title>Node21</title>
<g id="a_node21"><a xlink:title=" ">
<polygon fill="white" stroke="#bfbfbf" points="772.5,-1242 772.5,-1261 845.5,-1261 845.5,-1242 772.5,-1242"/>
<text text-anchor="middle" x="809" y="-1249" font-family="Helvetica,sans-Serif" font-size="10.00">bitset&lt; 8 &gt;</text>
</a>
</g>
</g>
<!-- Node21&#45;&gt;Node15 -->
<g id="edge20" class="edge">
<title>Node21&#45;&gt;Node15</title>
<path fill="none" stroke="#9a32cd" stroke-dasharray="5,2" d="M855.72,-1249.98C916.35,-1247.96 1023.14,-1244.41 1087.3,-1242.27"/>
<polygon fill="#9a32cd" stroke="#9a32cd" points="855.56,-1246.48 845.68,-1250.31 855.79,-1253.48 855.56,-1246.48"/>
<text text-anchor="middle" x="961.5" y="-1250.5" font-family="Helvetica,sans-Serif" font-size="10.00"> data_ctx</text>
</g>
<!-- Node22 -->
<g id="node22" class="node">
<title>Node22</title>
<g id="a_node22"><a xlink:title=" ">
<polygon fill="white" stroke="#bfbfbf" points="792,-994 792,-1013 826,-1013 826,-994 792,-994"/>
<text text-anchor="middle" x="809" y="-1001" font-family="Helvetica,sans-Serif" font-size="10.00">Vec</text>
</a>
</g>
</g>
<!-- Node22&#45;&gt;Node14 -->
<g id="edge25" class="edge">
<title>Node22&#45;&gt;Node14</title>
<path fill="none" stroke="#9a32cd" stroke-dasharray="5,2" d="M836.24,-1002.87C887.12,-1002.25 996.45,-1003.99 1022,-1029.5 1067.95,-1075.39 995.29,-1127.4 1040,-1174.5 1103.09,-1240.95 1154.43,-1187.01 1243,-1210.5 1313.25,-1229.13 1331.04,-1234.99 1397,-1265.5 1428.81,-1280.21 1463.81,-1301.72 1482.96,-1313.99"/>
<polygon fill="#9a32cd" stroke="#9a32cd" points="835.98,-999.37 826.04,-1003.04 836.1,-1006.37 835.98,-999.37"/>
<text text-anchor="middle" x="1141.5" y="-1213.5" font-family="Helvetica,sans-Serif" font-size="10.00"> ksp_f</text>
</g>
<!-- Node22&#45;&gt;Node15 -->
<g id="edge21" class="edge">
<title>Node22&#45;&gt;Node15</title>
<path fill="none" stroke="#9a32cd" stroke-dasharray="5,2" d="M836.25,-1010.4C892.31,-1025.19 1018.91,-1058.89 1022,-1062.5 1066.81,-1114.86 994.23,-1164.98 1040,-1216.5 1051.91,-1229.91 1069.86,-1236.51 1087.3,-1239.57"/>
<polygon fill="#9a32cd" stroke="#9a32cd" points="836.91,-1006.95 826.34,-1007.79 835.12,-1013.72 836.91,-1006.95"/>
<text text-anchor="middle" x="961.5" y="-1098.5" font-family="Helvetica,sans-Serif" font-size="10.00"> f</text>
<text text-anchor="middle" x="961.5" y="-1087.5" font-family="Helvetica,sans-Serif" font-size="10.00">x</text>
<text text-anchor="middle" x="961.5" y="-1076.5" font-family="Helvetica,sans-Serif" font-size="10.00">x_t</text>
<text text-anchor="middle" x="961.5" y="-1065.5" font-family="Helvetica,sans-Serif" font-size="10.00">x_tt</text>
</g>
<!-- Node22&#45;&gt;Node25 -->
<g id="edge30" class="edge">
<title>Node22&#45;&gt;Node25</title>
<path fill="none" stroke="#9a32cd" stroke-dasharray="5,2" d="M835.76,-995.95C877.91,-985.18 962.83,-970.25 1022,-1004.5 1035.79,-1012.48 1027.05,-1026.22 1040,-1035.5 1114.81,-1089.13 1152.89,-1057.75 1243,-1076.5 1311.53,-1090.76 1328.8,-1093.72 1397,-1109.5 1418.02,-1114.37 1441.42,-1120.16 1460.34,-1124.95"/>
<polygon fill="#9a32cd" stroke="#9a32cd" points="834.76,-992.59 826.01,-998.56 836.57,-999.35 834.76,-992.59"/>
<text text-anchor="middle" x="1141.5" y="-1090.5" font-family="Helvetica,sans-Serif" font-size="10.00"> snes_x</text>
<text text-anchor="middle" x="1141.5" y="-1079.5" font-family="Helvetica,sans-Serif" font-size="10.00">snes_f</text>
</g>
<!-- Node22&#45;&gt;Node28 -->
<g id="edge38" class="edge">
<title>Node22&#45;&gt;Node28</title>
<path fill="none" stroke="#9a32cd" stroke-dasharray="5,2" d="M821.72,-985.41C851.64,-941.13 935.91,-827.85 1040,-786.5 1113.75,-757.2 1321.08,-771.42 1397,-794.5 1432.19,-805.2 1467.86,-830.76 1485.74,-844.82"/>
<polygon fill="#9a32cd" stroke="#9a32cd" points="818.64,-983.73 816.02,-993.99 824.47,-987.6 818.64,-983.73"/>
<text text-anchor="middle" x="1141.5" y="-822.5" font-family="Helvetica,sans-Serif" font-size="10.00"> ts_u</text>
<text text-anchor="middle" x="1141.5" y="-811.5" font-family="Helvetica,sans-Serif" font-size="10.00">ts_F</text>
<text text-anchor="middle" x="1141.5" y="-800.5" font-family="Helvetica,sans-Serif" font-size="10.00">ts_u_t</text>
<text text-anchor="middle" x="1141.5" y="-789.5" font-family="Helvetica,sans-Serif" font-size="10.00">ts_u_tt</text>
</g>
<!-- Node23 -->
<g id="node23" class="node">
<title>Node23</title>
<g id="a_node23"><a xlink:title=" ">
<polygon fill="white" stroke="#bfbfbf" points="1124,-1423 1124,-1442 1159,-1442 1159,-1423 1124,-1423"/>
<text text-anchor="middle" x="1141.5" y="-1430" font-family="Helvetica,sans-Serif" font-size="10.00">KSP</text>
</a>
</g>
</g>
<!-- Node23&#45;&gt;Node14 -->
<g id="edge22" class="edge">
<title>Node23&#45;&gt;Node14</title>
<path fill="none" stroke="#9a32cd" stroke-dasharray="5,2" d="M1169.41,-1432.89C1217.08,-1432.69 1318.71,-1428.17 1397,-1396.5 1434.38,-1381.38 1470.78,-1349.4 1487.68,-1333.26"/>
<polygon fill="#9a32cd" stroke="#9a32cd" points="1169.3,-1429.39 1159.29,-1432.87 1169.28,-1436.39 1169.3,-1429.39"/>
<text text-anchor="middle" x="1329" y="-1430.5" font-family="Helvetica,sans-Serif" font-size="10.00"> ksp</text>
</g>
<!-- Node24 -->
<g id="node24" class="node">
<title>Node24</title>
<g id="a_node24"><a xlink:title=" ">
<polygon fill="white" stroke="#bfbfbf" points="1104.5,-1327 1104.5,-1346 1178.5,-1346 1178.5,-1327 1104.5,-1327"/>
<text text-anchor="middle" x="1141.5" y="-1334" font-family="Helvetica,sans-Serif" font-size="10.00">KSPContext</text>
</a>
</g>
</g>
<!-- Node24&#45;&gt;Node14 -->
<g id="edge23" class="edge">
<title>Node24&#45;&gt;Node14</title>
<path fill="none" stroke="#9a32cd" stroke-dasharray="5,2" d="M1189.19,-1334.79C1254.3,-1332.41 1372.2,-1328.09 1441.81,-1325.54"/>
<polygon fill="#9a32cd" stroke="#9a32cd" points="1188.69,-1331.31 1178.82,-1335.17 1188.94,-1338.3 1188.69,-1331.31"/>
<text text-anchor="middle" x="1329" y="-1334.5" font-family="Helvetica,sans-Serif" font-size="10.00"> ksp_ctx</text>
</g>
<!-- Node25&#45;&gt;Node13 -->
<g id="edge26" class="edge">
<title>Node25&#45;&gt;Node13</title>
<path fill="none" stroke="midnightblue" d="M1504.5,-1114.88C1516.27,-1071.09 1548.65,-963.11 1600,-885.5 1662.77,-790.62 1712.47,-795.31 1781,-704.5 1828.22,-641.93 1868.25,-555.47 1880.87,-527"/>
<polygon fill="midnightblue" stroke="midnightblue" points="1501.06,-1114.24 1501.9,-1124.8 1507.83,-1116.02 1501.06,-1114.24"/>
</g>
<!-- Node26 -->
<g id="node26" class="node">
<title>Node26</title>
<g id="a_node26"><a xlink:title=" ">
<polygon fill="white" stroke="#bfbfbf" points="1120.5,-1108 1120.5,-1127 1162.5,-1127 1162.5,-1108 1120.5,-1108"/>
<text text-anchor="middle" x="1141.5" y="-1115" font-family="Helvetica,sans-Serif" font-size="10.00">SNES</text>
</a>
</g>
</g>
<!-- Node26&#45;&gt;Node25 -->
<g id="edge28" class="edge">
<title>Node26&#45;&gt;Node25</title>
<path fill="none" stroke="#9a32cd" stroke-dasharray="5,2" d="M1172.94,-1116.11C1220.75,-1114.27 1316.31,-1111.96 1397,-1118.5 1413.55,-1119.84 1431.5,-1122.36 1447.59,-1125"/>
<polygon fill="#9a32cd" stroke="#9a32cd" points="1172.52,-1112.62 1162.67,-1116.53 1172.8,-1119.62 1172.52,-1112.62"/>
<text text-anchor="middle" x="1329" y="-1121.5" font-family="Helvetica,sans-Serif" font-size="10.00"> snes</text>
</g>
<!-- Node27 -->
<g id="node27" class="node">
<title>Node27</title>
<g id="a_node27"><a xlink:title=" ">
<polygon fill="white" stroke="#bfbfbf" points="1101.5,-1146 1101.5,-1165 1181.5,-1165 1181.5,-1146 1101.5,-1146"/>
<text text-anchor="middle" x="1141.5" y="-1153" font-family="Helvetica,sans-Serif" font-size="10.00">SNESContext</text>
</a>
</g>
</g>
<!-- Node27&#45;&gt;Node25 -->
<g id="edge31" class="edge">
<title>Node27&#45;&gt;Node25</title>
<path fill="none" stroke="#9a32cd" stroke-dasharray="5,2" d="M1191.84,-1152.58C1256.48,-1148.76 1369.71,-1142.06 1438.73,-1137.98"/>
<polygon fill="#9a32cd" stroke="#9a32cd" points="1191.28,-1149.11 1181.51,-1153.19 1191.7,-1156.1 1191.28,-1149.11"/>
<text text-anchor="middle" x="1329" y="-1150.5" font-family="Helvetica,sans-Serif" font-size="10.00"> snes_ctx</text>
</g>
<!-- Node28&#45;&gt;Node13 -->
<g id="edge32" class="edge">
<title>Node28&#45;&gt;Node13</title>
<path fill="none" stroke="midnightblue" d="M1518.47,-837.91C1586.93,-778.07 1819.99,-574.34 1873.83,-527.26"/>
<polygon fill="midnightblue" stroke="midnightblue" points="1515.85,-835.56 1510.62,-844.78 1520.45,-840.83 1515.85,-835.56"/>
</g>
<!-- Node29 -->
<g id="node29" class="node">
<title>Node29</title>
<g id="a_node29"><a xlink:title=" ">
<polygon fill="white" stroke="#bfbfbf" points="1109,-840 1109,-859 1174,-859 1174,-840 1109,-840"/>
<text text-anchor="middle" x="1141.5" y="-847" font-family="Helvetica,sans-Serif" font-size="10.00">PetscReal</text>
</a>
</g>
</g>
<!-- Node29&#45;&gt;Node28 -->
<g id="edge35" class="edge">
<title>Node29&#45;&gt;Node28</title>
<path fill="none" stroke="#9a32cd" stroke-dasharray="5,2" d="M1183.99,-843.7C1202.66,-840.07 1224.58,-834.35 1243,-825.5 1252.14,-821.11 1251.41,-814.79 1261,-811.5 1318.17,-791.88 1337.79,-799.36 1397,-811.5 1428.05,-817.86 1461.36,-834.22 1480.76,-844.83"/>
<polygon fill="#9a32cd" stroke="#9a32cd" points="1183.22,-840.29 1174,-845.51 1184.46,-847.17 1183.22,-840.29"/>
<text text-anchor="middle" x="1329" y="-847.5" font-family="Helvetica,sans-Serif" font-size="10.00"> ts_a</text>
<text text-anchor="middle" x="1329" y="-836.5" font-family="Helvetica,sans-Serif" font-size="10.00">ts_t</text>
<text text-anchor="middle" x="1329" y="-825.5" font-family="Helvetica,sans-Serif" font-size="10.00">ts_dt</text>
<text text-anchor="middle" x="1329" y="-814.5" font-family="Helvetica,sans-Serif" font-size="10.00">ts_aa</text>
</g>
<!-- Node30 -->
<g id="node30" class="node">
<title>Node30</title>
<g id="a_node30"><a xlink:title=" ">
<polygon fill="white" stroke="#bfbfbf" points="1108,-722 1108,-741 1175,-741 1175,-722 1108,-722"/>
<text text-anchor="middle" x="1141.5" y="-729" font-family="Helvetica,sans-Serif" font-size="10.00">TSContext</text>
</a>
</g>
</g>
<!-- Node30&#45;&gt;Node28 -->
<g id="edge36" class="edge">
<title>Node30&#45;&gt;Node28</title>
<path fill="none" stroke="#9a32cd" stroke-dasharray="5,2" d="M1185.24,-726.29C1237.75,-721.8 1328.29,-720.36 1397,-752.5 1441.81,-773.46 1477.68,-823.47 1491.44,-844.7"/>
<polygon fill="#9a32cd" stroke="#9a32cd" points="1184.9,-722.81 1175.27,-727.22 1185.55,-729.78 1184.9,-722.81"/>
<text text-anchor="middle" x="1329" y="-755.5" font-family="Helvetica,sans-Serif" font-size="10.00"> ts_ctx</text>
</g>
<!-- Node31 -->
<g id="node31" class="node">
<title>Node31</title>
<g id="a_node31"><a xlink:title=" ">
<polygon fill="white" stroke="#bfbfbf" points="1113.5,-954 1113.5,-973 1169.5,-973 1169.5,-954 1113.5,-954"/>
<text text-anchor="middle" x="1141.5" y="-961" font-family="Helvetica,sans-Serif" font-size="10.00">PetscInt</text>
</a>
</g>
</g>
<!-- Node31&#45;&gt;Node28 -->
<g id="edge37" class="edge">
<title>Node31&#45;&gt;Node28</title>
<path fill="none" stroke="#9a32cd" stroke-dasharray="5,2" d="M1179.81,-959.71C1230.36,-953.71 1322.82,-939.72 1397,-911.5 1430,-898.95 1465.12,-876.71 1483.86,-864.04"/>
<polygon fill="#9a32cd" stroke="#9a32cd" points="1179.22,-956.25 1169.68,-960.86 1180.01,-963.2 1179.22,-956.25"/>
<text text-anchor="middle" x="1329" y="-948.5" font-family="Helvetica,sans-Serif" font-size="10.00"> ts_step</text>
</g>
<!-- Node32 -->
<g id="node32" class="node">
<title>Node32</title>
<g id="a_node32"><a xlink:title=" ">
<polygon fill="white" stroke="#bfbfbf" points="1127,-878 1127,-897 1156,-897 1156,-878 1127,-878"/>
<text text-anchor="middle" x="1141.5" y="-885" font-family="Helvetica,sans-Serif" font-size="10.00">TS</text>
</a>
</g>
</g>
<!-- Node32&#45;&gt;Node28 -->
<g id="edge39" class="edge">
<title>Node32&#45;&gt;Node28</title>
<path fill="none" stroke="#9a32cd" stroke-dasharray="5,2" d="M1166.14,-890.42C1211.37,-895.4 1313.08,-903.69 1397,-889.5 1425.42,-884.69 1456.52,-872.75 1476.48,-864.15"/>
<polygon fill="#9a32cd" stroke="#9a32cd" points="1166.49,-886.93 1156.15,-889.27 1165.69,-893.89 1166.49,-886.93"/>
<text text-anchor="middle" x="1329" y="-899.5" font-family="Helvetica,sans-Serif" font-size="10.00"> ts</text>
</g>
<!-- Node33 -->
<g id="node33" class="node">
<title>Node33</title>
<g id="a_node33"><a xlink:title=" ">
<polygon fill="white" stroke="#bfbfbf" points="1454,-390 1454,-409 1543,-409 1543,-390 1454,-390"/>
<text text-anchor="middle" x="1498.5" y="-397" font-family="Helvetica,sans-Serif" font-size="10.00">pair&lt; int, int &gt;</text>
</a>
</g>
</g>
<!-- Node33&#45;&gt;Node13 -->
<g id="edge41" class="edge">
<title>Node33&#45;&gt;Node13</title>
<path fill="none" stroke="#9a32cd" stroke-dasharray="5,2" d="M1553.25,-393.25C1611.84,-388.73 1707.09,-388.16 1781,-420.5 1825.79,-440.1 1863.51,-487.41 1878.3,-507.84"/>
<polygon fill="#9a32cd" stroke="#9a32cd" points="1552.78,-389.78 1543.11,-394.11 1553.36,-396.76 1552.78,-389.78"/>
<text text-anchor="middle" x="1690.5" y="-423.5" font-family="Helvetica,sans-Serif" font-size="10.00"> loHiFERank</text>
</g>
<!-- Node34 -->
<g id="node34" class="node">
<title>Node34</title>
<g id="a_node34"><a xlink:title=" ">
<polygon fill="white" stroke="#bfbfbf" points="1428.5,-352 1428.5,-371 1568.5,-371 1568.5,-352 1428.5,-352"/>
<text text-anchor="middle" x="1498.5" y="-359" font-family="Helvetica,sans-Serif" font-size="10.00">weak_ptr&lt; CacheTuple &gt;</text>
</a>
</g>
</g>
<!-- Node34&#45;&gt;Node13 -->
<g id="edge42" class="edge">
<title>Node34&#45;&gt;Node13</title>
<path fill="none" stroke="#9a32cd" stroke-dasharray="5,2" d="M1579,-357.96C1649.83,-356.15 1747.33,-357.36 1781,-375.5 1837.22,-405.79 1870.96,-481.27 1881.46,-507.96"/>
<polygon fill="#9a32cd" stroke="#9a32cd" points="1578.65,-354.47 1568.75,-358.25 1578.84,-361.47 1578.65,-354.47"/>
<text text-anchor="middle" x="1690.5" y="-378.5" font-family="Helvetica,sans-Serif" font-size="10.00"> cacheWeakPtr</text>
</g>
<!-- Node35 -->
<g id="node35" class="node">
<title>Node35</title>
<g id="a_node35"><a xlink:title=" ">
<polygon fill="white" stroke="#bfbfbf" points="1442.5,-313 1442.5,-332 1554.5,-332 1554.5,-313 1442.5,-313"/>
<text text-anchor="middle" x="1498.5" y="-320" font-family="Helvetica,sans-Serif" font-size="10.00">unique_ptr&lt; bool &gt;</text>
</a>
</g>
</g>
<!-- Node35&#45;&gt;Node13 -->
<g id="edge43" class="edge">
<title>Node35&#45;&gt;Node13</title>
<path fill="none" stroke="#9a32cd" stroke-dasharray="5,2" d="M1564.91,-317.07C1636.59,-312.37 1746.05,-309.27 1781,-330.5 1789.73,-335.8 1860.26,-470.1 1879.93,-507.76"/>
<polygon fill="#9a32cd" stroke="#9a32cd" points="1564.36,-313.6 1554.62,-317.77 1564.84,-320.58 1564.36,-313.6"/>
<text text-anchor="middle" x="1690.5" y="-344.5" font-family="Helvetica,sans-Serif" font-size="10.00"> matAssembleSwitch</text>
<text text-anchor="middle" x="1690.5" y="-333.5" font-family="Helvetica,sans-Serif" font-size="10.00">vecAssembleSwitch</text>
</g>
<!-- Node36 -->
<g id="node36" class="node">
<title>Node36</title>
<g id="a_node36"><a xlink:title=" ">
<polygon fill="white" stroke="#bfbfbf" points="1127,-185 1127,-204 1156,-204 1156,-185 1127,-185"/>
<text text-anchor="middle" x="1141.5" y="-192" font-family="Helvetica,sans-Serif" font-size="10.00">int</text>
</a>
</g>
</g>
<!-- Node36&#45;&gt;Node2 -->
<g id="edge85" class="edge">
<title>Node36&#45;&gt;Node2</title>
<path fill="none" stroke="#9a32cd" stroke-dasharray="5,2" d="M1166.09,-187.91C1189.85,-181.57 1227.67,-172.25 1261,-167.5 1365.24,-152.64 1392.2,-153.5 1497.5,-153.5 1497.5,-153.5 1497.5,-153.5 2923,-153.5 3010.16,-153.5 3110.86,-131.99 3163.55,-119.05"/>
<polygon fill="#9a32cd" stroke="#9a32cd" points="1164.96,-184.59 1156.23,-190.59 1166.79,-191.35 1164.96,-184.59"/>
<text text-anchor="middle" x="2256" y="-156.5" font-family="Helvetica,sans-Serif" font-size="10.00"> verbosity</text>
</g>
<!-- Node36&#45;&gt;Node13 -->
<g id="edge44" class="edge">
<title>Node36&#45;&gt;Node13</title>
<path fill="none" stroke="#9a32cd" stroke-dasharray="5,2" d="M1165.79,-187.02C1215.8,-172.58 1333.98,-147.38 1397,-208.5 1430.62,-241.11 1383.96,-383.42 1415,-418.5 1415.89,-419.51 1721.16,-483.31 1839.18,-507.94"/>
<polygon fill="#9a32cd" stroke="#9a32cd" points="1164.77,-183.67 1156.2,-189.9 1166.79,-190.38 1164.77,-183.67"/>
<text text-anchor="middle" x="1498.5" y="-489.5" font-family="Helvetica,sans-Serif" font-size="10.00"> sIze</text>
<text text-anchor="middle" x="1498.5" y="-478.5" font-family="Helvetica,sans-Serif" font-size="10.00">loopSize</text>
<text text-anchor="middle" x="1498.5" y="-467.5" font-family="Helvetica,sans-Serif" font-size="10.00">nInTheLoop</text>
<text text-anchor="middle" x="1498.5" y="-456.5" font-family="Helvetica,sans-Serif" font-size="10.00">rAnk</text>
</g>
<!-- Node36&#45;&gt;Node38 -->
<g id="edge56" class="edge">
<title>Node36&#45;&gt;Node38</title>
<path fill="none" stroke="#9a32cd" stroke-dasharray="5,2" d="M1166.36,-196.77C1228.14,-202.77 1389.12,-219.12 1397,-227.5 1437.59,-270.66 1377.86,-447.34 1415,-493.5 1423.32,-503.84 1435.83,-509.89 1448.61,-513.39"/>
<polygon fill="#9a32cd" stroke="#9a32cd" points="1166.32,-193.25 1156.03,-195.78 1165.65,-200.22 1166.32,-193.25"/>
<text text-anchor="middle" x="1329" y="-296.5" font-family="Helvetica,sans-Serif" font-size="10.00"> tagNameSize</text>
<text text-anchor="middle" x="1329" y="-285.5" font-family="Helvetica,sans-Serif" font-size="10.00">nbDofsRow</text>
<text text-anchor="middle" x="1329" y="-274.5" font-family="Helvetica,sans-Serif" font-size="10.00">nbLocDofsCol</text>
<text text-anchor="middle" x="1329" y="-263.5" font-family="Helvetica,sans-Serif" font-size="10.00">nbDofsCol</text>
<text text-anchor="middle" x="1329" y="-252.5" font-family="Helvetica,sans-Serif" font-size="10.00">nbGhostDofsRow</text>
<text text-anchor="middle" x="1329" y="-241.5" font-family="Helvetica,sans-Serif" font-size="10.00">nbGhostDofsCol</text>
<text text-anchor="middle" x="1329" y="-230.5" font-family="Helvetica,sans-Serif" font-size="10.00">nbLocDofsRow</text>
</g>
<!-- Node37 -->
<g id="node37" class="node">
<title>Node37</title>
<g id="a_node37"><a xlink:title=" ">
<polygon fill="white" stroke="#bfbfbf" points="1415,-257 1415,-276 1582,-276 1582,-257 1415,-257"/>
<text text-anchor="middle" x="1498.5" y="-264" font-family="Helvetica,sans-Serif" font-size="10.00">function&lt; MoFEMErrorCode()&gt;</text>
</a>
</g>
</g>
<!-- Node37&#45;&gt;Node13 -->
<g id="edge45" class="edge">
<title>Node37&#45;&gt;Node13</title>
<path fill="none" stroke="#9a32cd" stroke-dasharray="5,2" d="M1539.3,-254.3C1599.11,-238.64 1712.43,-219.78 1781,-276.5 1808.75,-299.45 1786.45,-321.75 1799,-355.5 1821.64,-416.38 1862.81,-483.11 1878.6,-507.7"/>
<polygon fill="#9a32cd" stroke="#9a32cd" points="1538.21,-250.97 1529.48,-256.96 1540.05,-257.72 1538.21,-250.97"/>
<text text-anchor="middle" x="1690.5" y="-301.5" font-family="Helvetica,sans-Serif" font-size="10.00"> preProcessHook</text>
<text text-anchor="middle" x="1690.5" y="-290.5" font-family="Helvetica,sans-Serif" font-size="10.00">operatorHook</text>
<text text-anchor="middle" x="1690.5" y="-279.5" font-family="Helvetica,sans-Serif" font-size="10.00">postProcessHook</text>
</g>
<!-- Node38&#45;&gt;Node13 -->
<g id="edge46" class="edge">
<title>Node38&#45;&gt;Node13</title>
<path fill="none" stroke="#9a32cd" stroke-dasharray="5,2" d="M1558.61,-517.5C1630.79,-517.5 1752.23,-517.5 1824.87,-517.5"/>
<polygon fill="#9a32cd" stroke="#9a32cd" points="1558.32,-514 1548.32,-517.5 1558.32,-521 1558.32,-514"/>
<text text-anchor="middle" x="1690.5" y="-520.5" font-family="Helvetica,sans-Serif" font-size="10.00"> problemPtr</text>
</g>
<!-- Node39 -->
<g id="node39" class="node">
<title>Node39</title>
<g id="a_node39"><a xlink:title=" ">
<polygon fill="white" stroke="#bfbfbf" points="1058,-332.5 1058,-362.5 1225,-362.5 1225,-332.5 1058,-332.5"/>
<text text-anchor="start" x="1066" y="-350.5" font-family="Helvetica,sans-Serif" font-size="10.00">shared_ptr&lt; NumeredEntFinite</text>
<text text-anchor="middle" x="1141.5" y="-339.5" font-family="Helvetica,sans-Serif" font-size="10.00">Element_multiIndex &gt;</text>
</a>
</g>
</g>
<!-- Node39&#45;&gt;Node38 -->
<g id="edge47" class="edge">
<title>Node39&#45;&gt;Node38</title>
<path fill="none" stroke="#9a32cd" stroke-dasharray="5,2" d="M1235.53,-343.84C1298.46,-343.49 1374.12,-347.91 1397,-369.5 1437.5,-407.72 1378.45,-451.48 1415,-493.5 1423.62,-503.4 1436.06,-509.33 1448.67,-512.85"/>
<polygon fill="#9a32cd" stroke="#9a32cd" points="1235.11,-340.35 1225.15,-343.95 1235.18,-347.35 1235.11,-340.35"/>
<text text-anchor="middle" x="1329" y="-372.5" font-family="Helvetica,sans-Serif" font-size="10.00"> numeredFiniteElementsPtr</text>
</g>
<!-- Node40 -->
<g id="node40" class="node">
<title>Node40</title>
<g id="a_node40"><a xlink:title=" ">
<polygon fill="white" stroke="#bfbfbf" points="1112,-294 1112,-313 1171,-313 1171,-294 1112,-294"/>
<text text-anchor="middle" x="1141.5" y="-301" font-family="Helvetica,sans-Serif" font-size="10.00">BitFEId *</text>
</a>
</g>
</g>
<!-- Node40&#45;&gt;Node38 -->
<g id="edge48" class="edge">
<title>Node40&#45;&gt;Node38</title>
<path fill="none" stroke="#9a32cd" stroke-dasharray="5,2" d="M1181.7,-304.68C1249.3,-307.09 1382.02,-313.68 1397,-328.5 1423.22,-354.44 1391.29,-465.25 1415,-493.5 1423.53,-503.67 1436.11,-509.67 1448.88,-513.17"/>
<polygon fill="#9a32cd" stroke="#9a32cd" points="1181.56,-301.17 1171.44,-304.32 1181.32,-308.17 1181.56,-301.17"/>
<text text-anchor="middle" x="1329" y="-331.5" font-family="Helvetica,sans-Serif" font-size="10.00"> tagBitFEId</text>
</g>
<!-- Node41 -->
<g id="node41" class="node">
<title>Node41</title>
<g id="a_node41"><a xlink:href="classEntityHandle.html" target="_top" xlink:title=" ">
<polygon fill="white" stroke="black" points="1101.5,-684 1101.5,-703 1181.5,-703 1181.5,-684 1101.5,-684"/>
<text text-anchor="middle" x="1141.5" y="-691" font-family="Helvetica,sans-Serif" font-size="10.00">EntityHandle</text>
</a>
</g>
</g>
<!-- Node41&#45;&gt;Node38 -->
<g id="edge49" class="edge">
<title>Node41&#45;&gt;Node38</title>
<path fill="none" stroke="#9a32cd" stroke-dasharray="5,2" d="M1191.97,-700.8C1246.27,-706.25 1334.07,-707.25 1397,-669.5 1453.97,-635.33 1485.1,-554.94 1494.45,-527.15"/>
<polygon fill="#9a32cd" stroke="#9a32cd" points="1192.22,-697.31 1181.9,-699.7 1191.46,-704.27 1192.22,-697.31"/>
<text text-anchor="middle" x="1329" y="-705.5" font-family="Helvetica,sans-Serif" font-size="10.00"> meshset</text>
</g>
<!-- Node42 -->
<g id="node42" class="node">
<title>Node42</title>
<g id="a_node42"><a xlink:title=" ">
<polygon fill="white" stroke="#bfbfbf" points="1067,-634.5 1067,-664.5 1216,-664.5 1216,-634.5 1067,-634.5"/>
<text text-anchor="start" x="1075" y="-652.5" font-family="Helvetica,sans-Serif" font-size="10.00">shared_ptr&lt; MoFEM::</text>
<text text-anchor="middle" x="1141.5" y="-641.5" font-family="Helvetica,sans-Serif" font-size="10.00">ComposedProblemsData &gt;</text>
</a>
</g>
</g>
<!-- Node42&#45;&gt;Node38 -->
<g id="edge50" class="edge">
<title>Node42&#45;&gt;Node38</title>
<path fill="none" stroke="#9a32cd" stroke-dasharray="5,2" d="M1226.28,-655.79C1277.98,-656.25 1344.25,-650.46 1397,-624.5 1442.96,-601.88 1478.7,-548.82 1491.94,-527.06"/>
<polygon fill="#9a32cd" stroke="#9a32cd" points="1226.2,-652.29 1216.15,-655.62 1226.09,-659.29 1226.2,-652.29"/>
<text text-anchor="middle" x="1329" y="-657.5" font-family="Helvetica,sans-Serif" font-size="10.00"> composedProblemsData</text>
</g>
<!-- Node43 -->
<g id="node43" class="node">
<title>Node43</title>
<g id="a_node43"><a xlink:title=" ">
<polygon fill="white" stroke="#bfbfbf" points="1101,-596 1101,-615 1182,-615 1182,-596 1101,-596"/>
<text text-anchor="middle" x="1141.5" y="-603" font-family="Helvetica,sans-Serif" font-size="10.00">BitRefLevel *</text>
</a>
</g>
</g>
<!-- Node43&#45;&gt;Node38 -->
<g id="edge51" class="edge">
<title>Node43&#45;&gt;Node38</title>
<path fill="none" stroke="#9a32cd" stroke-dasharray="5,2" d="M1192.33,-604.82C1244.55,-602.83 1328.37,-595.99 1397,-573.5 1430.6,-562.49 1465.78,-539.93 1484.29,-527.06"/>
<polygon fill="#9a32cd" stroke="#9a32cd" points="1192.2,-601.32 1182.32,-605.16 1192.44,-608.32 1192.2,-601.32"/>
<text text-anchor="middle" x="1329" y="-612.5" font-family="Helvetica,sans-Serif" font-size="10.00"> tagBitRefLevelMask</text>
<text text-anchor="middle" x="1329" y="-601.5" font-family="Helvetica,sans-Serif" font-size="10.00">tagBitRefLevel</text>
</g>
<!-- Node44 -->
<g id="node44" class="node">
<title>Node44</title>
<g id="a_node44"><a xlink:title=" ">
<polygon fill="white" stroke="#bfbfbf" points="1056.5,-546.5 1056.5,-576.5 1226.5,-576.5 1226.5,-546.5 1056.5,-546.5"/>
<text text-anchor="start" x="1064.5" y="-564.5" font-family="Helvetica,sans-Serif" font-size="10.00">shared_ptr&lt; NumeredDofEntity</text>
<text text-anchor="middle" x="1141.5" y="-553.5" font-family="Helvetica,sans-Serif" font-size="10.00">_multiIndex &gt;</text>
</a>
</g>
</g>
<!-- Node44&#45;&gt;Node38 -->
<g id="edge52" class="edge">
<title>Node44&#45;&gt;Node38</title>
<path fill="none" stroke="#9a32cd" stroke-dasharray="5,2" d="M1236.63,-551.56C1284.67,-546.29 1344,-539.47 1397,-532.5 1413.97,-530.27 1432.5,-527.57 1448.99,-525.09"/>
<polygon fill="#9a32cd" stroke="#9a32cd" points="1236.12,-548.1 1226.55,-552.66 1236.88,-555.06 1236.12,-548.1"/>
<text text-anchor="middle" x="1329" y="-561.5" font-family="Helvetica,sans-Serif" font-size="10.00"> numeredRowDofsPtr</text>
<text text-anchor="middle" x="1329" y="-550.5" font-family="Helvetica,sans-Serif" font-size="10.00">numeredColDofsPtr</text>
</g>
<!-- Node45 -->
<g id="node45" class="node">
<title>Node45</title>
<g id="a_node45"><a xlink:title=" ">
<polygon fill="white" stroke="#bfbfbf" points="1072.5,-508 1072.5,-527 1210.5,-527 1210.5,-508 1072.5,-508"/>
<text text-anchor="middle" x="1141.5" y="-515" font-family="Helvetica,sans-Serif" font-size="10.00">vector&lt; BlockFieldPair &gt;</text>
</a>
</g>
</g>
<!-- Node45&#45;&gt;Node38 -->
<g id="edge54" class="edge">
<title>Node45&#45;&gt;Node38</title>
<path fill="none" stroke="#9a32cd" stroke-dasharray="5,2" d="M1220.57,-517.5C1290.2,-517.5 1389.95,-517.5 1448.8,-517.5"/>
<polygon fill="#9a32cd" stroke="#9a32cd" points="1220.53,-514 1210.53,-517.5 1220.53,-521 1220.53,-514"/>
<text text-anchor="middle" x="1329" y="-520.5" font-family="Helvetica,sans-Serif" font-size="10.00"> emptyFieldBlocks</text>
</g>
<!-- Node46 -->
<g id="node46" class="node">
<title>Node46</title>
<g id="a_node46"><a xlink:title=" ">
<polygon fill="white" stroke="#bfbfbf" points="1063.5,-458.5 1063.5,-488.5 1219.5,-488.5 1219.5,-458.5 1063.5,-458.5"/>
<text text-anchor="start" x="1071.5" y="-476.5" font-family="Helvetica,sans-Serif" font-size="10.00">shared_ptr&lt; MoFEM::</text>
<text text-anchor="middle" x="1141.5" y="-465.5" font-family="Helvetica,sans-Serif" font-size="10.00">Problem::SubProblemData &gt;</text>
</a>
</g>
</g>
<!-- Node46&#45;&gt;Node38 -->
<g id="edge55" class="edge">
<title>Node46&#45;&gt;Node38</title>
<path fill="none" stroke="#9a32cd" stroke-dasharray="5,2" d="M1229.68,-482.68C1278.86,-488.04 1341.42,-495.19 1397,-502.5 1413.97,-504.73 1432.5,-507.43 1448.99,-509.91"/>
<polygon fill="#9a32cd" stroke="#9a32cd" points="1230.03,-479.2 1219.71,-481.59 1229.27,-486.15 1230.03,-479.2"/>
<text text-anchor="middle" x="1329" y="-505.5" font-family="Helvetica,sans-Serif" font-size="10.00"> subProblemData</text>
</g>
<!-- Node47 -->
<g id="node47" class="node">
<title>Node47</title>
<g id="a_node47"><a xlink:title=" ">
<polygon fill="white" stroke="#bfbfbf" points="1040,-420 1040,-439 1243,-439 1243,-420 1040,-420"/>
<text text-anchor="middle" x="1141.5" y="-427" font-family="Helvetica,sans-Serif" font-size="10.00">shared_ptr&lt; SequenceDofContainer &gt;</text>
</a>
</g>
</g>
<!-- Node47&#45;&gt;Node38 -->
<g id="edge57" class="edge">
<title>Node47&#45;&gt;Node38</title>
<path fill="none" stroke="#9a32cd" stroke-dasharray="5,2" d="M1253.1,-421.27C1300.95,-422.91 1355.4,-432.26 1397,-460.5 1410.82,-469.88 1401.98,-483.03 1415,-493.5 1424.65,-501.26 1436.71,-506.51 1448.61,-510.06"/>
<polygon fill="#9a32cd" stroke="#9a32cd" points="1253.08,-417.77 1243,-421.04 1252.92,-424.77 1253.08,-417.77"/>
<text text-anchor="middle" x="1329" y="-474.5" font-family="Helvetica,sans-Serif" font-size="10.00"> sequenceRowDofContainer</text>
<text text-anchor="middle" x="1329" y="-463.5" font-family="Helvetica,sans-Serif" font-size="10.00">sequenceColDofContainer</text>
</g>
<!-- Node48 -->
<g id="node48" class="node">
<title>Node48</title>
<g id="a_node48"><a xlink:title=" ">
<polygon fill="white" stroke="#bfbfbf" points="1097.5,-382 1097.5,-401 1185.5,-401 1185.5,-382 1097.5,-382"/>
<text text-anchor="middle" x="1141.5" y="-389" font-family="Helvetica,sans-Serif" font-size="10.00">BitProblemId *</text>
</a>
</g>
</g>
<!-- Node48&#45;&gt;Node38 -->
<g id="edge58" class="edge">
<title>Node48&#45;&gt;Node38</title>
<path fill="none" stroke="#9a32cd" stroke-dasharray="5,2" d="M1195.74,-387.34C1261.42,-383.43 1367.96,-381.39 1397,-406.5 1426.87,-432.32 1388.2,-464.5 1415,-493.5 1423.81,-503.03 1436.16,-508.86 1448.62,-512.39"/>
<polygon fill="#9a32cd" stroke="#9a32cd" points="1195.33,-383.86 1185.57,-387.99 1195.77,-390.85 1195.33,-383.86"/>
<text text-anchor="middle" x="1329" y="-409.5" font-family="Helvetica,sans-Serif" font-size="10.00"> tagId</text>
</g>
<!-- Node49 -->
<g id="node49" class="node">
<title>Node49</title>
<g id="a_node49"><a xlink:title=" ">
<polygon fill="white" stroke="#bfbfbf" points="1805,-829.5 1805,-859.5 1967,-859.5 1967,-829.5 1805,-829.5"/>
<text text-anchor="start" x="1813" y="-847.5" font-family="Helvetica,sans-Serif" font-size="10.00">shared_ptr&lt; const MoFEM</text>
<text text-anchor="middle" x="1886" y="-836.5" font-family="Helvetica,sans-Serif" font-size="10.00">::NumeredEntFiniteElement &gt;</text>
</a>
</g>
</g>
<!-- Node49&#45;&gt;Node12 -->
<g id="edge59" class="edge">
<title>Node49&#45;&gt;Node12</title>
<path fill="none" stroke="#9a32cd" stroke-dasharray="5,2" d="M1977.54,-856.56C2048.18,-865.96 2143.85,-878.7 2202.4,-886.5"/>
<polygon fill="#9a32cd" stroke="#9a32cd" points="1977.68,-853.04 1967.3,-855.19 1976.75,-859.98 1977.68,-853.04"/>
<text text-anchor="middle" x="2063" y="-878.5" font-family="Helvetica,sans-Serif" font-size="10.00"> numeredEntFiniteElementPtr</text>
</g>
<!-- Node50 -->
<g id="node50" class="node">
<title>Node50</title>
<g id="a_node50"><a xlink:title=" ">
<polygon fill="white" stroke="#bfbfbf" points="1864,-327 1864,-346 1908,-346 1908,-327 1864,-327"/>
<text text-anchor="middle" x="1886" y="-334" font-family="Helvetica,sans-Serif" font-size="10.00">string</text>
</a>
</g>
</g>
<!-- Node50&#45;&gt;Node3 -->
<g id="edge82" class="edge">
<title>Node50&#45;&gt;Node3</title>
<path fill="none" stroke="#9a32cd" stroke-dasharray="5,2" d="M1912.45,-321.92C1958.7,-296.17 2060.32,-242.96 2153,-217.5 2318.8,-171.95 2369.14,-164.83 2539,-191.5 2671.5,-212.31 2820.73,-271.37 2886.61,-299.39"/>
<polygon fill="#9a32cd" stroke="#9a32cd" points="1910.45,-319.03 1903.45,-326.98 1913.88,-325.13 1910.45,-319.03"/>
<text text-anchor="middle" x="2458" y="-205.5" font-family="Helvetica,sans-Serif" font-size="10.00"> colFieldName</text>
<text text-anchor="middle" x="2458" y="-194.5" font-family="Helvetica,sans-Serif" font-size="10.00">rowFieldName</text>
</g>
<!-- Node50&#45;&gt;Node12 -->
<g id="edge60" class="edge">
<title>Node50&#45;&gt;Node12</title>
<path fill="none" stroke="#9a32cd" stroke-dasharray="5,2" d="M1906.32,-352.78C1955.09,-395.21 2082.98,-515.03 2135,-646.5 2153.7,-693.76 2119,-836.72 2153,-874.5 2165.35,-888.22 2184.16,-894.01 2202.28,-896"/>
<polygon fill="#9a32cd" stroke="#9a32cd" points="1908.55,-350.08 1898.68,-346.21 1903.98,-355.38 1908.55,-350.08"/>
<text text-anchor="middle" x="2063" y="-649.5" font-family="Helvetica,sans-Serif" font-size="10.00"> feName</text>
</g>
<!-- Node51 -->
<g id="node51" class="node">
<title>Node51</title>
<g id="a_node51"><a xlink:title=" ">
<polygon fill="white" stroke="#bfbfbf" points="1804.5,-878.5 1804.5,-908.5 1967.5,-908.5 1967.5,-878.5 1804.5,-878.5"/>
<text text-anchor="start" x="1812.5" y="-896.5" font-family="Helvetica,sans-Serif" font-size="10.00">function&lt; bool(MoFEM</text>
<text text-anchor="middle" x="1886" y="-885.5" font-family="Helvetica,sans-Serif" font-size="10.00">::FEMethod *fe_method_ptr)&gt;</text>
</a>
</g>
</g>
<!-- Node51&#45;&gt;Node12 -->
<g id="edge61" class="edge">
<title>Node51&#45;&gt;Node12</title>
<path fill="none" stroke="#9a32cd" stroke-dasharray="5,2" d="M1977.98,-893.5C2048.52,-893.5 2143.82,-893.5 2202.26,-893.5"/>
<polygon fill="#9a32cd" stroke="#9a32cd" points="1977.76,-890 1967.76,-893.5 1977.76,-897 1977.76,-890"/>
<text text-anchor="middle" x="2063" y="-896.5" font-family="Helvetica,sans-Serif" font-size="10.00"> exeTestHook</text>
</g>
<!-- Node52 -->
<g id="node52" class="node">
<title>Node52</title>
<g id="a_node52"><a xlink:href="classdouble.html" target="_top" xlink:title=" ">
<polygon fill="white" stroke="black" points="2231,-577 2231,-596 2281,-596 2281,-577 2231,-577"/>
<text text-anchor="middle" x="2256" y="-584" font-family="Helvetica,sans-Serif" font-size="10.00">double</text>
</a>
</g>
</g>
<!-- Node52&#45;&gt;Node11 -->
<g id="edge62" class="edge">
<title>Node52&#45;&gt;Node11</title>
<path fill="none" stroke="#9a32cd" stroke-dasharray="5,2" d="M2291.44,-581.67C2346.27,-575.5 2455.72,-569.4 2539,-604.5 2582.29,-622.74 2619.36,-667.39 2634.14,-687"/>
<polygon fill="#9a32cd" stroke="#9a32cd" points="2290.74,-578.23 2281.22,-582.9 2291.57,-585.18 2290.74,-578.23"/>
<text text-anchor="middle" x="2458" y="-607.5" font-family="Helvetica,sans-Serif" font-size="10.00"> elementMeasure</text>
</g>
<!-- Node53 -->
<g id="node53" class="node">
<title>Node53</title>
<g id="a_node53"><a xlink:title=" ">
<polygon fill="white" stroke="#bfbfbf" points="2170,-517 2170,-558 2342,-558 2342,-517 2170,-517"/>
<text text-anchor="start" x="2178" y="-546" font-family="Helvetica,sans-Serif" font-size="10.00">array&lt; boost::shared</text>
<text text-anchor="start" x="2178" y="-535" font-family="Helvetica,sans-Serif" font-size="10.00">_ptr&lt; MoFEM::EntitiesFieldData</text>
<text text-anchor="middle" x="2256" y="-524" font-family="Helvetica,sans-Serif" font-size="10.00"> &gt;, LASTSPACE &gt;</text>
</a>
</g>
</g>
<!-- Node53&#45;&gt;Node11 -->
<g id="edge63" class="edge">
<title>Node53&#45;&gt;Node11</title>
<path fill="none" stroke="#9a32cd" stroke-dasharray="5,2" d="M2352.34,-521.65C2409.84,-516.83 2482.61,-519.43 2539,-550.5 2595.6,-581.68 2627.77,-659.26 2637.67,-686.7"/>
<polygon fill="#9a32cd" stroke="#9a32cd" points="2351.79,-518.19 2342.16,-522.6 2352.44,-525.16 2351.79,-518.19"/>
<text text-anchor="middle" x="2458" y="-564.5" font-family="Helvetica,sans-Serif" font-size="10.00"> derivedDataOnElement</text>
<text text-anchor="middle" x="2458" y="-553.5" font-family="Helvetica,sans-Serif" font-size="10.00">dataOnElement</text>
</g>
<!-- Node54 -->
<g id="node54" class="node">
<title>Node54</title>
<g id="a_node54"><a xlink:title=" ">
<polygon fill="white" stroke="#bfbfbf" points="2222,-479 2222,-498 2290,-498 2290,-479 2222,-479"/>
<text text-anchor="middle" x="2256" y="-486" font-family="Helvetica,sans-Serif" font-size="10.00">EntityType</text>
</a>
</g>
</g>
<!-- Node54&#45;&gt;Node11 -->
<g id="edge64" class="edge">
<title>Node54&#45;&gt;Node11</title>
<path fill="none" stroke="#9a32cd" stroke-dasharray="5,2" d="M2300.23,-478.74C2359.22,-467.95 2465.96,-457.73 2539,-504.5 2607.34,-548.26 2632.83,-653.94 2639.25,-686.67"/>
<polygon fill="#9a32cd" stroke="#9a32cd" points="2299.3,-475.35 2290.14,-480.67 2300.62,-482.23 2299.3,-475.35"/>
<text text-anchor="middle" x="2458" y="-507.5" font-family="Helvetica,sans-Serif" font-size="10.00"> lastEvaluatedElementEntityType</text>
</g>
<!-- Node55 -->
<g id="node55" class="node">
<title>Node55</title>
<g id="a_node55"><a xlink:href="structMoFEM_1_1DeprecatedCoreInterface.html" target="_top" xlink:title="Deprecated interface functions.">
<polygon fill="white" stroke="black" points="1600,-1500 1600,-1519 1781,-1519 1781,-1500 1600,-1500"/>
<text text-anchor="middle" x="1690.5" y="-1507" font-family="Helvetica,sans-Serif" font-size="10.00">MoFEM::DeprecatedCoreInterface</text>
</a>
</g>
</g>
<!-- Node55&#45;&gt;Node11 -->
<g id="edge65" class="edge">
<title>Node55&#45;&gt;Node11</title>
<path fill="none" stroke="#9a32cd" stroke-dasharray="5,2" d="M1739.69,-1497.25C1884.58,-1457.86 2319.73,-1320.37 2539,-1040.5 2625.06,-930.66 2638.61,-749.67 2640.65,-706.13"/>
<polygon fill="#9a32cd" stroke="#9a32cd" points="1738.52,-1493.94 1729.77,-1499.92 1740.33,-1500.7 1738.52,-1493.94"/>
<text text-anchor="middle" x="2063" y="-1412.5" font-family="Helvetica,sans-Serif" font-size="10.00"> mField</text>
</g>
<!-- Node56&#45;&gt;Node55 -->
<g id="edge66" class="edge">
<title>Node56&#45;&gt;Node55</title>
<path fill="none" stroke="midnightblue" d="M1214.39,-1550.32C1313.43,-1541.81 1491.78,-1526.49 1599.54,-1517.23"/>
<polygon fill="midnightblue" stroke="midnightblue" points="1213.85,-1546.86 1204.18,-1551.2 1214.45,-1553.83 1213.85,-1546.86"/>
</g>
<!-- Node57 -->
<g id="node57" class="node">
<title>Node57</title>
<g id="a_node57"><a xlink:title=" ">
<polygon fill="white" stroke="#bfbfbf" points="2172.5,-812.5 2172.5,-864.5 2339.5,-864.5 2339.5,-812.5 2172.5,-812.5"/>
<text text-anchor="start" x="2180.5" y="-852.5" font-family="Helvetica,sans-Serif" font-size="10.00">function&lt; MoFEMErrorCode</text>
<text text-anchor="start" x="2180.5" y="-841.5" font-family="Helvetica,sans-Serif" font-size="10.00">(ForcesAndSourcesCore *fe</text>
<text text-anchor="start" x="2180.5" y="-830.5" font-family="Helvetica,sans-Serif" font-size="10.00">_raw_ptr, int order_row,</text>
<text text-anchor="middle" x="2256" y="-819.5" font-family="Helvetica,sans-Serif" font-size="10.00"> int order_col, int order_data)&gt;</text>
</a>
</g>
</g>
<!-- Node57&#45;&gt;Node11 -->
<g id="edge69" class="edge">
<title>Node57&#45;&gt;Node11</title>
<path fill="none" stroke="#9a32cd" stroke-dasharray="5,2" d="M2349.57,-815.83C2358.83,-813.65 2368.09,-811.51 2377,-809.5 2448.76,-793.3 2472.22,-806.37 2539,-775.5 2577.43,-757.74 2614.71,-723.14 2631.59,-706.25"/>
<polygon fill="#9a32cd" stroke="#9a32cd" points="2348.48,-812.49 2339.55,-818.2 2350.09,-819.31 2348.48,-812.49"/>
<text text-anchor="middle" x="2458" y="-812.5" font-family="Helvetica,sans-Serif" font-size="10.00"> setRuleHook</text>
</g>
<!-- Node58 -->
<g id="node58" class="node">
<title>Node58</title>
<g id="a_node58"><a xlink:title=" ">
<polygon fill="white" stroke="#bfbfbf" points="2155,-763.5 2155,-793.5 2357,-793.5 2357,-763.5 2155,-763.5"/>
<text text-anchor="start" x="2163" y="-781.5" font-family="Helvetica,sans-Serif" font-size="10.00">ptr_deque&lt; MoFEM::Forces</text>
<text text-anchor="middle" x="2256" y="-770.5" font-family="Helvetica,sans-Serif" font-size="10.00">AndSourcesCore::UserDataOperator &gt;</text>
</a>
</g>
</g>
<!-- Node58&#45;&gt;Node11 -->
<g id="edge70" class="edge">
<title>Node58&#45;&gt;Node11</title>
<path fill="none" stroke="#9a32cd" stroke-dasharray="5,2" d="M2367.22,-763.04C2419.62,-754.75 2482.92,-743.37 2539,-729.5 2565.2,-723.02 2594.44,-713.29 2614.88,-706.08"/>
<polygon fill="#9a32cd" stroke="#9a32cd" points="2366.56,-759.6 2357.23,-764.6 2367.65,-766.51 2366.56,-759.6"/>
<text text-anchor="middle" x="2458" y="-763.5" font-family="Helvetica,sans-Serif" font-size="10.00"> opPtrVector</text>
</g>
<!-- Node59 -->
<g id="node59" class="node">
<title>Node59</title>
<g id="a_node59"><a xlink:href="structMoFEM_1_1EntitiesFieldData.html" target="_top" xlink:title="data structure for finite element entity">
<polygon fill="white" stroke="black" points="2185,-1053 2185,-1072 2327,-1072 2327,-1053 2185,-1053"/>
<text text-anchor="middle" x="2256" y="-1060" font-family="Helvetica,sans-Serif" font-size="10.00">MoFEM::EntitiesFieldData</text>
</a>
</g>
</g>
<!-- Node59&#45;&gt;Node11 -->
<g id="edge71" class="edge">
<title>Node59&#45;&gt;Node11</title>
<path fill="none" stroke="#9a32cd" stroke-dasharray="5,2" d="M2281.53,-1047.43C2333.18,-1014.94 2455.28,-934.01 2539,-845.5 2583.16,-798.81 2622,-731.35 2635.73,-706.33"/>
<polygon fill="#9a32cd" stroke="#9a32cd" points="2279.36,-1044.66 2272.73,-1052.93 2283.07,-1050.6 2279.36,-1044.66"/>
<text text-anchor="middle" x="2458" y="-1028.5" font-family="Helvetica,sans-Serif" font-size="10.00"> dataNoField</text>
<text text-anchor="middle" x="2458" y="-1017.5" font-family="Helvetica,sans-Serif" font-size="10.00">dataL2</text>
<text text-anchor="middle" x="2458" y="-1006.5" font-family="Helvetica,sans-Serif" font-size="10.00">dataH1</text>
<text text-anchor="middle" x="2458" y="-995.5" font-family="Helvetica,sans-Serif" font-size="10.00">dataHcurl</text>
<text text-anchor="middle" x="2458" y="-984.5" font-family="Helvetica,sans-Serif" font-size="10.00">dataHdiv</text>
</g>
<!-- Node60 -->
<g id="node60" class="node">
<title>Node60</title>
<g id="a_node60"><a xlink:title=" ">
<polygon fill="white" stroke="#bfbfbf" points="1805,-966.5 1805,-996.5 1967,-996.5 1967,-966.5 1805,-966.5"/>
<text text-anchor="start" x="1813" y="-984.5" font-family="Helvetica,sans-Serif" font-size="10.00">array&lt; std::bitset</text>
<text text-anchor="middle" x="1886" y="-973.5" font-family="Helvetica,sans-Serif" font-size="10.00">&lt; LASTBASE &gt;, LASTSPACE &gt;</text>
</a>
</g>
</g>
<!-- Node60&#45;&gt;Node59 -->
<g id="edge72" class="edge">
<title>Node60&#45;&gt;Node59</title>
<path fill="none" stroke="#9a32cd" stroke-dasharray="5,2" d="M1977.52,-983.93C2025.08,-986.97 2083.94,-993.53 2135,-1007.5 2173.9,-1018.15 2216.03,-1040.15 2238.57,-1052.86"/>
<polygon fill="#9a32cd" stroke="#9a32cd" points="1977.43,-980.42 1967.24,-983.32 1977.01,-987.41 1977.43,-980.42"/>
<text text-anchor="middle" x="2063" y="-1021.5" font-family="Helvetica,sans-Serif" font-size="10.00"> brokenBasesOnSpaces</text>
<text text-anchor="middle" x="2063" y="-1010.5" font-family="Helvetica,sans-Serif" font-size="10.00">basesOnSpaces</text>
</g>
<!-- Node61 -->
<g id="node61" class="node">
<title>Node61</title>
<g id="a_node61"><a xlink:title=" ">
<polygon fill="white" stroke="#bfbfbf" points="1809.5,-1191 1809.5,-1232 1962.5,-1232 1962.5,-1191 1809.5,-1191"/>
<text text-anchor="start" x="1817.5" y="-1220" font-family="Helvetica,sans-Serif" font-size="10.00">array&lt; boost::ptr_vector</text>
<text text-anchor="start" x="1817.5" y="-1209" font-family="Helvetica,sans-Serif" font-size="10.00">&lt; MoFEM::EntitiesFieldData</text>
<text text-anchor="middle" x="1886" y="-1198" font-family="Helvetica,sans-Serif" font-size="10.00">::EntData &gt;, MBMAXTYPE &gt;</text>
</a>
</g>
</g>
<!-- Node61&#45;&gt;Node59 -->
<g id="edge73" class="edge">
<title>Node61&#45;&gt;Node59</title>
<path fill="none" stroke="#9a32cd" stroke-dasharray="5,2" d="M1972.61,-1203.13C2021.91,-1195.92 2084.01,-1182.67 2135,-1158.5 2182.25,-1136.1 2227.49,-1091.73 2246.1,-1072.16"/>
<polygon fill="#9a32cd" stroke="#9a32cd" points="1972.03,-1199.68 1962.61,-1204.54 1973,-1206.61 1972.03,-1199.68"/>
<text text-anchor="middle" x="2063" y="-1202.5" font-family="Helvetica,sans-Serif" font-size="10.00"> dataOnEntities</text>
</g>
<!-- Node62 -->
<g id="node62" class="node">
<title>Node62</title>
<g id="a_node62"><a xlink:title=" ">
<polygon fill="white" stroke="#bfbfbf" points="1799,-1141.5 1799,-1171.5 1973,-1171.5 1973,-1141.5 1799,-1141.5"/>
<text text-anchor="start" x="1807" y="-1159.5" font-family="Helvetica,sans-Serif" font-size="10.00">array&lt; std::bitset</text>
<text text-anchor="middle" x="1886" y="-1148.5" font-family="Helvetica,sans-Serif" font-size="10.00">&lt; LASTSPACE &gt;, MBMAXTYPE &gt;</text>
</a>
</g>
</g>
<!-- Node62&#45;&gt;Node59 -->
<g id="edge74" class="edge">
<title>Node62&#45;&gt;Node59</title>
<path fill="none" stroke="#9a32cd" stroke-dasharray="5,2" d="M1983.16,-1145.71C2029.64,-1139.12 2085.85,-1129.08 2135,-1114.5 2172.44,-1103.4 2213.74,-1083.74 2236.81,-1072.03"/>
<polygon fill="#9a32cd" stroke="#9a32cd" points="1982.52,-1142.27 1973.1,-1147.11 1983.48,-1149.2 1982.52,-1142.27"/>
<text text-anchor="middle" x="2063" y="-1146.5" font-family="Helvetica,sans-Serif" font-size="10.00"> spacesOnEntities</text>
</g>
<!-- Node63 -->
<g id="node63" class="node">
<title>Node63</title>
<g id="a_node63"><a xlink:title=" ">
<polygon fill="white" stroke="#bfbfbf" points="1801.5,-1092.5 1801.5,-1122.5 1970.5,-1122.5 1970.5,-1092.5 1801.5,-1092.5"/>
<text text-anchor="start" x="1809.5" y="-1110.5" font-family="Helvetica,sans-Serif" font-size="10.00">array&lt; std::bitset</text>
<text text-anchor="middle" x="1886" y="-1099.5" font-family="Helvetica,sans-Serif" font-size="10.00">&lt; LASTBASE &gt;, MBMAXTYPE &gt;</text>
</a>
</g>
</g>
<!-- Node63&#45;&gt;Node59 -->
<g id="edge75" class="edge">
<title>Node63&#45;&gt;Node59</title>
<path fill="none" stroke="#9a32cd" stroke-dasharray="5,2" d="M1980.82,-1101.42C2027.32,-1097.84 2084.25,-1092.6 2135,-1085.5 2160.31,-1081.96 2188.39,-1076.66 2211.01,-1072.03"/>
<polygon fill="#9a32cd" stroke="#9a32cd" points="1980.46,-1097.94 1970.75,-1102.18 1980.99,-1104.92 1980.46,-1097.94"/>
<text text-anchor="middle" x="2063" y="-1102.5" font-family="Helvetica,sans-Serif" font-size="10.00"> basesOnEntities</text>
</g>
<!-- Node64 -->
<g id="node64" class="node">
<title>Node64</title>
<g id="a_node64"><a xlink:title=" ">
<polygon fill="white" stroke="#bfbfbf" points="1830,-1054 1830,-1073 1942,-1073 1942,-1054 1830,-1054"/>
<text text-anchor="middle" x="1886" y="-1061" font-family="Helvetica,sans-Serif" font-size="10.00">UBlasMatrix&lt; int &gt;</text>
</a>
</g>
</g>
<!-- Node64&#45;&gt;Node59 -->
<g id="edge76" class="edge">
<title>Node64&#45;&gt;Node59</title>
<path fill="none" stroke="#9a32cd" stroke-dasharray="5,2" d="M1952.26,-1063.32C2017.56,-1063.15 2117.69,-1062.87 2184.71,-1062.69"/>
<polygon fill="#9a32cd" stroke="#9a32cd" points="1952.08,-1059.82 1942.09,-1063.35 1952.1,-1066.82 1952.08,-1059.82"/>
<text text-anchor="middle" x="2063" y="-1076.5" font-family="Helvetica,sans-Serif" font-size="10.00"> facesNodesOrder</text>
<text text-anchor="middle" x="2063" y="-1065.5" font-family="Helvetica,sans-Serif" font-size="10.00">facesNodes</text>
</g>
<!-- Node65 -->
<g id="node65" class="node">
<title>Node65</title>
<g id="a_node65"><a xlink:title=" ">
<polygon fill="white" stroke="#bfbfbf" points="1827.5,-1016 1827.5,-1035 1944.5,-1035 1944.5,-1016 1827.5,-1016"/>
<text text-anchor="middle" x="1886" y="-1023" font-family="Helvetica,sans-Serif" font-size="10.00">bitset&lt; LASTBASE &gt;</text>
</a>
</g>
</g>
<!-- Node65&#45;&gt;Node59 -->
<g id="edge77" class="edge">
<title>Node65&#45;&gt;Node59</title>
<path fill="none" stroke="#9a32cd" stroke-dasharray="5,2" d="M1954.71,-1030.85C2004.6,-1034.95 2074.08,-1040.99 2135,-1047.5 2151.18,-1049.23 2168.56,-1051.28 2184.93,-1053.31"/>
<polygon fill="#9a32cd" stroke="#9a32cd" points="1954.94,-1027.35 1944.69,-1030.03 1954.37,-1034.33 1954.94,-1027.35"/>
<text text-anchor="middle" x="2063" y="-1050.5" font-family="Helvetica,sans-Serif" font-size="10.00"> bAse</text>
</g>
<!-- Node66 -->
<g id="node66" class="node">
<title>Node66</title>
<g id="a_node66"><a xlink:title=" ">
<polygon fill="white" stroke="#bfbfbf" points="2193.5,-703 2193.5,-744 2318.5,-744 2318.5,-703 2193.5,-703"/>
<text text-anchor="start" x="2201.5" y="-732" font-family="Helvetica,sans-Serif" font-size="10.00">function&lt; int(int order</text>
<text text-anchor="start" x="2201.5" y="-721" font-family="Helvetica,sans-Serif" font-size="10.00">_row, int order_col, int</text>
<text text-anchor="middle" x="2256" y="-710" font-family="Helvetica,sans-Serif" font-size="10.00"> order_data)&gt;</text>
</a>
</g>
</g>
<!-- Node66&#45;&gt;Node11 -->
<g id="edge78" class="edge">
<title>Node66&#45;&gt;Node11</title>
<path fill="none" stroke="#9a32cd" stroke-dasharray="5,2" d="M2328.81,-718.45C2393.51,-713.9 2488.67,-707.21 2556.91,-702.41"/>
<polygon fill="#9a32cd" stroke="#9a32cd" points="2328.43,-714.97 2318.7,-719.16 2328.92,-721.95 2328.43,-714.97"/>
<text text-anchor="middle" x="2458" y="-717.5" font-family="Helvetica,sans-Serif" font-size="10.00"> getRuleHook</text>
</g>
<!-- Node67 -->
<g id="node67" class="node">
<title>Node67</title>
<g id="a_node67"><a xlink:title=" ">
<polygon fill="white" stroke="#bfbfbf" points="2195,-653.5 2195,-683.5 2317,-683.5 2317,-653.5 2195,-653.5"/>
<text text-anchor="start" x="2203" y="-671.5" font-family="Helvetica,sans-Serif" font-size="10.00">shared_ptr&lt; MoFEM::</text>
<text text-anchor="middle" x="2256" y="-660.5" font-family="Helvetica,sans-Serif" font-size="10.00">BaseFunction &gt;</text>
</a>
</g>
</g>
<!-- Node67&#45;&gt;Node11 -->
<g id="edge79" class="edge">
<title>Node67&#45;&gt;Node11</title>
<path fill="none" stroke="#9a32cd" stroke-dasharray="5,2" d="M2327.16,-667.78C2384.34,-667.91 2467.1,-669.7 2539,-677.5 2558.52,-679.62 2579.91,-683.38 2598.04,-686.99"/>
<polygon fill="#9a32cd" stroke="#9a32cd" points="2327.15,-664.28 2317.15,-667.78 2327.15,-671.28 2327.15,-664.28"/>
<text text-anchor="middle" x="2458" y="-691.5" font-family="Helvetica,sans-Serif" font-size="10.00"> userPolynomialBasePtr</text>
<text text-anchor="middle" x="2458" y="-680.5" font-family="Helvetica,sans-Serif" font-size="10.00">elementPolynomialBasePtr</text>
</g>
<!-- Node68 -->
<g id="node68" class="node">
<title>Node68</title>
<g id="a_node68"><a xlink:href="classUBlasMatrix_3_01double_01_4.html" target="_top" xlink:title=" ">
<polygon fill="white" stroke="black" points="2190,-615 2190,-634 2322,-634 2322,-615 2190,-615"/>
<text text-anchor="middle" x="2256" y="-622" font-family="Helvetica,sans-Serif" font-size="10.00">UBlasMatrix&lt; double &gt;</text>
</a>
</g>
</g>
<!-- Node68&#45;&gt;Node11 -->
<g id="edge80" class="edge">
<title>Node68&#45;&gt;Node11</title>
<path fill="none" stroke="#9a32cd" stroke-dasharray="5,2" d="M2332.29,-620.32C2389.96,-619.19 2470.91,-622.12 2539,-641.5 2573.25,-651.25 2608.9,-673.81 2627.64,-686.81"/>
<polygon fill="#9a32cd" stroke="#9a32cd" points="2332.08,-616.82 2322.17,-620.56 2332.25,-623.82 2332.08,-616.82"/>
<text text-anchor="middle" x="2458" y="-655.5" font-family="Helvetica,sans-Serif" font-size="10.00"> coordsAtGaussPts</text>
<text text-anchor="middle" x="2458" y="-644.5" font-family="Helvetica,sans-Serif" font-size="10.00">gaussPts</text>
</g>
<!-- Node69 -->
<g id="node69" class="node">
<title>Node69</title>
<g id="a_node69"><a xlink:title=" ">
<polygon fill="white" stroke="#bfbfbf" points="2576.5,-365 2576.5,-384 2707.5,-384 2707.5,-365 2576.5,-365"/>
<text text-anchor="middle" x="2642" y="-372" font-family="Helvetica,sans-Serif" font-size="10.00">static const char *const</text>
</a>
</g>
</g>
<!-- Node69&#45;&gt;Node3 -->
<g id="edge81" class="edge">
<title>Node69&#45;&gt;Node3</title>
<path fill="none" stroke="#9a32cd" stroke-dasharray="5,2" d="M2704.18,-363.02C2738.09,-356.49 2780.96,-347.94 2819,-339.5 2832.79,-336.44 2847.59,-332.94 2861.5,-329.55"/>
<polygon fill="#9a32cd" stroke="#9a32cd" points="2703.12,-359.66 2693.96,-364.98 2704.44,-366.53 2703.12,-359.66"/>
<text text-anchor="middle" x="2782" y="-357.5" font-family="Helvetica,sans-Serif" font-size="10.00"> OpTypeNames</text>
</g>
<!-- Node70 -->
<g id="node70" class="node">
<title>Node70</title>
<g id="a_node70"><a xlink:title=" ">
<polygon fill="white" stroke="#bfbfbf" points="2861,-94.5 2861,-124.5 2983,-124.5 2983,-94.5 2861,-94.5"/>
<text text-anchor="start" x="2869" y="-112.5" font-family="Helvetica,sans-Serif" font-size="10.00">shared_ptr&lt; MoFEM::</text>
<text text-anchor="middle" x="2922" y="-101.5" font-family="Helvetica,sans-Serif" font-size="10.00">EntitiesFieldData &gt;</text>
</a>
</g>
</g>
<!-- Node70&#45;&gt;Node2 -->
<g id="edge83" class="edge">
<title>Node70&#45;&gt;Node2</title>
<path fill="none" stroke="#9a32cd" stroke-dasharray="5,2" d="M2993.14,-109.5C3029.53,-109.5 3074.34,-109.5 3112.94,-109.5"/>
<polygon fill="#9a32cd" stroke="#9a32cd" points="2993.1,-106 2983.1,-109.5 2993.1,-113 2993.1,-106"/>
<text text-anchor="middle" x="3060" y="-112.5" font-family="Helvetica,sans-Serif" font-size="10.00"> dataL2</text>
</g>
<!-- Node71 -->
<g id="node71" class="node">
<title>Node71</title>
<g id="a_node71"><a xlink:title=" ">
<polygon fill="white" stroke="#bfbfbf" points="2854,-56 2854,-75 2990,-75 2990,-56 2854,-56"/>
<text text-anchor="middle" x="2922" y="-63" font-family="Helvetica,sans-Serif" font-size="10.00">FieldApproximationBase</text>
</a>
</g>
</g>
<!-- Node71&#45;&gt;Node2 -->
<g id="edge84" class="edge">
<title>Node71&#45;&gt;Node2</title>
<path fill="none" stroke="#9a32cd" stroke-dasharray="5,2" d="M2993.15,-76.64C3038.48,-83.84 3096.84,-93.11 3140.01,-99.97"/>
<polygon fill="#9a32cd" stroke="#9a32cd" points="2993.53,-73.16 2983.1,-75.05 2992.43,-80.07 2993.53,-73.16"/>
<text text-anchor="middle" x="3060" y="-96.5" font-family="Helvetica,sans-Serif" font-size="10.00"> base</text>
</g>
<!-- Node72 -->
<g id="node72" class="node">
<title>Node72</title>
<g id="a_node72"><a xlink:title=" ">
<polygon fill="white" stroke="#bfbfbf" points="2852,-0.5 2852,-30.5 2992,-30.5 2992,-0.5 2852,-0.5"/>
<text text-anchor="start" x="2860" y="-18.5" font-family="Helvetica,sans-Serif" font-size="10.00">shared_ptr&lt; UBlasMatrix</text>
<text text-anchor="middle" x="2922" y="-7.5" font-family="Helvetica,sans-Serif" font-size="10.00">&lt; double &gt; &gt;</text>
</a>
</g>
</g>
<!-- Node72&#45;&gt;Node1 -->
<g id="edge88" class="edge">
<title>Node72&#45;&gt;Node1</title>
<path fill="none" stroke="#9a32cd" stroke-dasharray="5,2" d="M3002.29,-19.31C3090.1,-23.54 3231.66,-30.35 3325.75,-34.87"/>
<polygon fill="#9a32cd" stroke="#9a32cd" points="3002.28,-15.81 2992.12,-18.82 3001.94,-22.8 3002.28,-15.81"/>
<text text-anchor="middle" x="3201" y="-47.5" font-family="Helvetica,sans-Serif" font-size="10.00"> dataPtr</text>
<text text-anchor="middle" x="3201" y="-36.5" font-family="Helvetica,sans-Serif" font-size="10.00">coeffsPtr</text>
</g>
<!-- Node72&#45;&gt;Node2 -->
<g id="edge86" class="edge">
<title>Node72&#45;&gt;Node2</title>
<path fill="none" stroke="#9a32cd" stroke-dasharray="5,2" d="M2987.08,-33.43C3019.62,-42.9 3059.65,-55.11 3095,-67.5 3123.9,-77.63 3156.57,-91.01 3177.68,-99.92"/>
<polygon fill="#9a32cd" stroke="#9a32cd" points="2987.81,-30 2977.23,-30.59 2985.86,-36.73 2987.81,-30"/>
<text text-anchor="middle" x="3060" y="-70.5" font-family="Helvetica,sans-Serif" font-size="10.00"> baseMassPtr</text>
</g>
<!-- Node73 -->
<g id="node73" class="node">
<title>Node73</title>
<g id="a_node73"><a xlink:title=" ">
<polygon fill="white" stroke="#bfbfbf" points="2880.5,-349 2880.5,-368 2963.5,-368 2963.5,-349 2880.5,-349"/>
<text text-anchor="middle" x="2922" y="-356" font-family="Helvetica,sans-Serif" font-size="10.00">SeverityLevel</text>
</a>
</g>
</g>
<!-- Node73&#45;&gt;Node2 -->
<g id="edge87" class="edge">
<title>Node73&#45;&gt;Node2</title>
<path fill="none" stroke="#9a32cd" stroke-dasharray="5,2" d="M2973.86,-352.54C2985.32,-349.72 2997.03,-345.58 3007,-339.5 3104.02,-280.34 3175.76,-155.15 3194.92,-119.29"/>
<polygon fill="#9a32cd" stroke="#9a32cd" points="2972.95,-349.15 2963.91,-354.68 2974.43,-355.99 2972.95,-349.15"/>
<text text-anchor="middle" x="3060" y="-328.5" font-family="Helvetica,sans-Serif" font-size="10.00"> severityLevel</text>
</g>
</g>
</svg>
