<?xml version="1.0" encoding="UTF-8" standalone="no"?>
<!DOCTYPE svg PUBLIC "-//W3C//DTD SVG 1.1//EN"
 "http://www.w3.org/Graphics/SVG/1.1/DTD/svg11.dtd">
<!-- Generated by graphviz version 2.43.0 (0)
 -->
<!-- Title: EshelbianPlasticity::OpConstrainBoundaryL2Lhs_dU Pages: 1 -->
<svg width="477pt" height="186pt"
 viewBox="0.00 0.00 477.00 186.00" xmlns="http://www.w3.org/2000/svg" xmlns:xlink="http://www.w3.org/1999/xlink">
<g id="graph0" class="graph" transform="scale(1 1) rotate(0) translate(4 182)">
<title>EshelbianPlasticity::OpConstrainBoundaryL2Lhs_dU</title>
<polygon fill="white" stroke="transparent" points="-4,4 -4,-182 473,-182 473,4 -4,4"/>
<!-- Node1 -->
<g id="node1" class="node">
<title>Node1</title>
<g id="a_node1"><a xlink:title=" ">
<polygon fill="#bfbfbf" stroke="black" points="293,-73.5 293,-103.5 469,-103.5 469,-73.5 293,-73.5"/>
<text text-anchor="start" x="301" y="-91.5" font-family="Helvetica,sans-Serif" font-size="10.00">EshelbianPlasticity</text>
<text text-anchor="middle" x="381" y="-80.5" font-family="Helvetica,sans-Serif" font-size="10.00">::OpConstrainBoundaryL2Lhs_dU</text>
</a>
</g>
</g>
<!-- Node2 -->
<g id="node2" class="node">
<title>Node2</title>
<g id="a_node2"><a xlink:title=" ">
<polygon fill="white" stroke="#bfbfbf" points="0,-147.5 0,-177.5 173,-177.5 173,-147.5 0,-147.5"/>
<text text-anchor="start" x="8" y="-165.5" font-family="Helvetica,sans-Serif" font-size="10.00">ContactOps::AssemblyBoundary</text>
<text text-anchor="middle" x="86.5" y="-154.5" font-family="Helvetica,sans-Serif" font-size="10.00">EleOp</text>
</a>
</g>
</g>
<!-- Node2&#45;&gt;Node1 -->
<g id="edge1" class="edge">
<title>Node2&#45;&gt;Node1</title>
<path fill="none" stroke="midnightblue" d="M164.79,-145.24C198.7,-137.44 238.92,-127.88 275,-118.5 292.71,-113.9 311.98,-108.5 329.13,-103.56"/>
<polygon fill="midnightblue" stroke="midnightblue" points="163.91,-141.85 154.95,-147.49 165.48,-148.67 163.91,-141.85"/>
</g>
<!-- Node3 -->
<g id="node3" class="node">
<title>Node3</title>
<g id="a_node3"><a xlink:title=" ">
<polygon fill="white" stroke="#bfbfbf" points="25.5,-98.5 25.5,-128.5 147.5,-128.5 147.5,-98.5 25.5,-98.5"/>
<text text-anchor="start" x="33.5" y="-116.5" font-family="Helvetica,sans-Serif" font-size="10.00">shared_ptr&lt; std::map</text>
<text text-anchor="middle" x="86.5" y="-105.5" font-family="Helvetica,sans-Serif" font-size="10.00">&lt; int, Range &gt; &gt;</text>
</a>
</g>
</g>
<!-- Node3&#45;&gt;Node1 -->
<g id="edge2" class="edge">
<title>Node3&#45;&gt;Node1</title>
<path fill="none" stroke="#9a32cd" stroke-dasharray="5,2" d="M157.83,-107.49C198.41,-104.02 249.79,-99.63 292.92,-95.94"/>
<polygon fill="#9a32cd" stroke="#9a32cd" points="157.42,-104.01 147.75,-108.35 158.01,-110.99 157.42,-104.01"/>
<text text-anchor="middle" x="233" y="-106.5" font-family="Helvetica,sans-Serif" font-size="10.00"> sdfMapRangePtr</text>
</g>
<!-- Node4 -->
<g id="node4" class="node">
<title>Node4</title>
<g id="a_node4"><a xlink:title=" ">
<polygon fill="white" stroke="#bfbfbf" points="0.5,-49.5 0.5,-79.5 172.5,-79.5 172.5,-49.5 0.5,-49.5"/>
<text text-anchor="start" x="8.5" y="-67.5" font-family="Helvetica,sans-Serif" font-size="10.00">shared_ptr&lt; EshelbianPlasticity</text>
<text text-anchor="middle" x="86.5" y="-56.5" font-family="Helvetica,sans-Serif" font-size="10.00">::ContactTree &gt;</text>
</a>
</g>
</g>
<!-- Node4&#45;&gt;Node1 -->
<g id="edge3" class="edge">
<title>Node4&#45;&gt;Node1</title>
<path fill="none" stroke="#9a32cd" stroke-dasharray="5,2" d="M183.22,-72.35C218.58,-75.26 258.44,-78.53 292.98,-81.36"/>
<polygon fill="#9a32cd" stroke="#9a32cd" points="183.14,-68.84 172.89,-71.51 182.57,-75.81 183.14,-68.84"/>
<text text-anchor="middle" x="233" y="-81.5" font-family="Helvetica,sans-Serif" font-size="10.00"> contactTreePtr</text>
</g>
<!-- Node5 -->
<g id="node5" class="node">
<title>Node5</title>
<g id="a_node5"><a xlink:title=" ">
<polygon fill="white" stroke="#bfbfbf" points="18.5,-0.5 18.5,-30.5 154.5,-30.5 154.5,-0.5 18.5,-0.5"/>
<text text-anchor="start" x="26.5" y="-18.5" font-family="Helvetica,sans-Serif" font-size="10.00">shared_ptr&lt; ContactOps</text>
<text text-anchor="middle" x="86.5" y="-7.5" font-family="Helvetica,sans-Serif" font-size="10.00">::CommonData &gt;</text>
</a>
</g>
</g>
<!-- Node5&#45;&gt;Node1 -->
<g id="edge4" class="edge">
<title>Node5&#45;&gt;Node1</title>
<path fill="none" stroke="#9a32cd" stroke-dasharray="5,2" d="M164.4,-32.17C198.4,-39.79 238.79,-49.18 275,-58.5 292.81,-63.08 312.2,-68.5 329.41,-73.46"/>
<polygon fill="#9a32cd" stroke="#9a32cd" points="165.05,-28.73 154.53,-29.97 163.52,-35.56 165.05,-28.73"/>
<text text-anchor="middle" x="233" y="-61.5" font-family="Helvetica,sans-Serif" font-size="10.00"> commonDataPtr</text>
</g>
</g>
</svg>
