<?xml version="1.0" encoding="UTF-8" standalone="no"?>
<!DOCTYPE svg PUBLIC "-//W3C//DTD SVG 1.1//EN"
 "http://www.w3.org/Graphics/SVG/1.1/DTD/svg11.dtd">
<!-- Generated by graphviz version 2.43.0 (0)
 -->
<!-- Title: EshelbianPlasticity::HMHHencky::OpCalculateEnergy Pages: 1 -->
<svg width="470pt" height="116pt"
 viewBox="0.00 0.00 470.00 116.00" xmlns="http://www.w3.org/2000/svg" xmlns:xlink="http://www.w3.org/1999/xlink">
<g id="graph0" class="graph" transform="scale(1 1) rotate(0) translate(4 112)">
<title>EshelbianPlasticity::HMHHencky::OpCalculateEnergy</title>
<polygon fill="white" stroke="transparent" points="-4,4 -4,-112 466,-112 466,4 -4,4"/>
<!-- Node1 -->
<g id="node1" class="node">
<title>Node1</title>
<g id="a_node1"><a xlink:title="Calculate energy density for Hencky material model.">
<polygon fill="#bfbfbf" stroke="black" points="281,-39 281,-69 462,-69 462,-39 281,-39"/>
<text text-anchor="start" x="289" y="-57" font-family="Helvetica,sans-Serif" font-size="10.00">EshelbianPlasticity</text>
<text text-anchor="middle" x="371.5" y="-46" font-family="Helvetica,sans-Serif" font-size="10.00">::HMHHencky::OpCalculateEnergy</text>
</a>
</g>
</g>
<!-- Node2 -->
<g id="node2" class="node">
<title>Node2</title>
<g id="a_node2"><a xlink:title=" ">
<polygon fill="white" stroke="#bfbfbf" points="26,-88.5 26,-107.5 146,-107.5 146,-88.5 26,-88.5"/>
<text text-anchor="middle" x="86" y="-95.5" font-family="Helvetica,sans-Serif" font-size="10.00">VolUserDataOperator</text>
</a>
</g>
</g>
<!-- Node2&#45;&gt;Node1 -->
<g id="edge1" class="edge">
<title>Node2&#45;&gt;Node1</title>
<path fill="none" stroke="midnightblue" d="M156.4,-87.23C193.87,-81.41 240.56,-74.17 280.76,-67.93"/>
<polygon fill="midnightblue" stroke="midnightblue" points="155.43,-83.84 146.09,-88.83 156.5,-90.75 155.43,-83.84"/>
</g>
<!-- Node3 -->
<g id="node3" class="node">
<title>Node3</title>
<g id="a_node3"><a xlink:title=" ">
<polygon fill="white" stroke="#bfbfbf" points="0,-39 0,-69 172,-69 172,-39 0,-39"/>
<text text-anchor="start" x="8" y="-57" font-family="Helvetica,sans-Serif" font-size="10.00">shared_ptr&lt; EshelbianPlasticity</text>
<text text-anchor="middle" x="86" y="-46" font-family="Helvetica,sans-Serif" font-size="10.00">::DataAtIntegrationPts &gt;</text>
</a>
</g>
</g>
<!-- Node3&#45;&gt;Node1 -->
<g id="edge2" class="edge">
<title>Node3&#45;&gt;Node1</title>
<path fill="none" stroke="#9a32cd" stroke-dasharray="5,2" d="M182.24,-54C213.99,-54 249.24,-54 280.57,-54"/>
<polygon fill="#9a32cd" stroke="#9a32cd" points="182.06,-50.5 172.06,-54 182.06,-57.5 182.06,-50.5"/>
<text text-anchor="middle" x="226.5" y="-57" font-family="Helvetica,sans-Serif" font-size="10.00"> dataAtPts</text>
</g>
<!-- Node4 -->
<g id="node4" class="node">
<title>Node4</title>
<g id="a_node4"><a xlink:title=" ">
<polygon fill="white" stroke="#bfbfbf" points="24,-0.5 24,-19.5 148,-19.5 148,-0.5 24,-0.5"/>
<text text-anchor="middle" x="86" y="-7.5" font-family="Helvetica,sans-Serif" font-size="10.00">shared_ptr&lt; double &gt;</text>
</a>
</g>
</g>
<!-- Node4&#45;&gt;Node1 -->
<g id="edge3" class="edge">
<title>Node4&#45;&gt;Node1</title>
<path fill="none" stroke="#9a32cd" stroke-dasharray="5,2" d="M158.41,-21.08C195.58,-26.85 241.39,-33.96 280.91,-40.1"/>
<polygon fill="#9a32cd" stroke="#9a32cd" points="158.58,-17.57 148.17,-19.49 157.51,-24.49 158.58,-17.57"/>
<text text-anchor="middle" x="226.5" y="-41" font-family="Helvetica,sans-Serif" font-size="10.00"> totalEnergyPtr</text>
</g>
</g>
</svg>
