<?xml version="1.0" encoding="UTF-8" standalone="no"?>
<!DOCTYPE svg PUBLIC "-//W3C//DTD SVG 1.1//EN"
 "http://www.w3.org/Graphics/SVG/1.1/DTD/svg11.dtd">
<!-- Generated by graphviz version 2.43.0 (0)
 -->
<!-- Title: NavierStokesElement::OpCalcDragForce Pages: 1 -->
<svg width="3476pt" height="1440pt"
 viewBox="0.00 0.00 3476.00 1440.00" xmlns="http://www.w3.org/2000/svg" xmlns:xlink="http://www.w3.org/1999/xlink">
<g id="graph0" class="graph" transform="scale(1 1) rotate(0) translate(4 1436)">
<title>NavierStokesElement::OpCalcDragForce</title>
<polygon fill="white" stroke="transparent" points="-4,4 -4,-1436 3472,-1436 3472,4 -4,4"/>
<!-- Node1 -->
<g id="node1" class="node">
<title>Node1</title>
<g id="a_node1"><a xlink:title="Calculate drag force on the fluid&#45;solid interface.">
<polygon fill="#bfbfbf" stroke="black" points="3346,-721 3346,-751 3468,-751 3468,-721 3346,-721"/>
<text text-anchor="start" x="3354" y="-739" font-family="Helvetica,sans-Serif" font-size="10.00">NavierStokesElement</text>
<text text-anchor="middle" x="3407" y="-728" font-family="Helvetica,sans-Serif" font-size="10.00">::OpCalcDragForce</text>
</a>
</g>
</g>
<!-- Node2 -->
<g id="node2" class="node">
<title>Node2</title>
<g id="a_node2"><a xlink:href="structMoFEM_1_1FaceElementForcesAndSourcesCore_1_1UserDataOperator.html" target="_top" xlink:title="default operator for TRI element">
<polygon fill="white" stroke="black" points="3104.5,-793.5 3104.5,-812.5 3231.5,-812.5 3231.5,-793.5 3104.5,-793.5"/>
<text text-anchor="middle" x="3168" y="-800.5" font-family="Helvetica,sans-Serif" font-size="10.00">FaceUserDataOperator</text>
</a>
</g>
</g>
<!-- Node2&#45;&gt;Node1 -->
<g id="edge1" class="edge">
<title>Node2&#45;&gt;Node1</title>
<path fill="none" stroke="midnightblue" d="M3212.57,-790.68C3252.09,-779.51 3310.47,-763.01 3352.74,-751.06"/>
<polygon fill="midnightblue" stroke="midnightblue" points="3211.38,-787.38 3202.7,-793.47 3213.28,-794.12 3211.38,-787.38"/>
</g>
<!-- Node3 -->
<g id="node3" class="node">
<title>Node3</title>
<g id="a_node3"><a xlink:href="structMoFEM_1_1ForcesAndSourcesCore_1_1UserDataOperator.html" target="_top" xlink:title=" ">
<polygon fill="white" stroke="black" points="2837,-1085 2837,-1115 3007,-1115 3007,-1085 2837,-1085"/>
<text text-anchor="start" x="2845" y="-1103" font-family="Helvetica,sans-Serif" font-size="10.00">MoFEM::ForcesAndSourcesCore</text>
<text text-anchor="middle" x="2922" y="-1092" font-family="Helvetica,sans-Serif" font-size="10.00">::UserDataOperator</text>
</a>
</g>
</g>
<!-- Node3&#45;&gt;Node2 -->
<g id="edge2" class="edge">
<title>Node3&#45;&gt;Node2</title>
<path fill="none" stroke="midnightblue" d="M2941.89,-1077C2991.72,-1016.35 3125.2,-853.88 3159.09,-812.63"/>
<polygon fill="midnightblue" stroke="midnightblue" points="2939.08,-1074.91 2935.44,-1084.86 2944.49,-1079.36 2939.08,-1074.91"/>
</g>
<!-- Node4 -->
<g id="node4" class="node">
<title>Node4</title>
<g id="a_node4"><a xlink:href="structMoFEM_1_1DataOperator.html" target="_top" xlink:title="base operator to do operations at Gauss Pt. level">
<polygon fill="white" stroke="black" points="2579.5,-1145.5 2579.5,-1164.5 2704.5,-1164.5 2704.5,-1145.5 2579.5,-1145.5"/>
<text text-anchor="middle" x="2642" y="-1152.5" font-family="Helvetica,sans-Serif" font-size="10.00">MoFEM::DataOperator</text>
</a>
</g>
</g>
<!-- Node4&#45;&gt;Node3 -->
<g id="edge3" class="edge">
<title>Node4&#45;&gt;Node3</title>
<path fill="none" stroke="midnightblue" d="M2701.12,-1143.5C2742.88,-1135.24 2799.59,-1124.02 2844.95,-1115.05"/>
<polygon fill="midnightblue" stroke="midnightblue" points="2700.24,-1140.11 2691.11,-1145.48 2701.6,-1146.98 2700.24,-1140.11"/>
</g>
<!-- Node5 -->
<g id="node5" class="node">
<title>Node5</title>
<g id="a_node5"><a xlink:title=" ">
<polygon fill="white" stroke="#bfbfbf" points="2160,-1083 2160,-1135 2352,-1135 2352,-1083 2160,-1083"/>
<text text-anchor="start" x="2168" y="-1123" font-family="Helvetica,sans-Serif" font-size="10.00">function&lt; MoFEMErrorCode</text>
<text text-anchor="start" x="2168" y="-1112" font-family="Helvetica,sans-Serif" font-size="10.00">(DataOperator *op_ptr,</text>
<text text-anchor="start" x="2168" y="-1101" font-family="Helvetica,sans-Serif" font-size="10.00"> int side, EntityType type,</text>
<text text-anchor="middle" x="2256" y="-1090" font-family="Helvetica,sans-Serif" font-size="10.00"> EntitiesFieldData::EntData &amp;data)&gt;</text>
</a>
</g>
</g>
<!-- Node5&#45;&gt;Node4 -->
<g id="edge4" class="edge">
<title>Node5&#45;&gt;Node4</title>
<path fill="none" stroke="#9a32cd" stroke-dasharray="5,2" d="M2362.41,-1121.07C2415.41,-1127.21 2480.62,-1134.86 2539,-1142 2552.02,-1143.59 2565.98,-1145.34 2579.25,-1147.03"/>
<polygon fill="#9a32cd" stroke="#9a32cd" points="2362.65,-1117.58 2352.32,-1119.91 2361.85,-1124.53 2362.65,-1117.58"/>
<text text-anchor="middle" x="2458" y="-1145" font-family="Helvetica,sans-Serif" font-size="10.00"> doWorkRhsHook</text>
</g>
<!-- Node6 -->
<g id="node6" class="node">
<title>Node6</title>
<g id="a_node6"><a xlink:href="classbool.html" target="_top" xlink:title=" ">
<polygon fill="white" stroke="black" points="2237,-1296.5 2237,-1315.5 2275,-1315.5 2275,-1296.5 2237,-1296.5"/>
<text text-anchor="middle" x="2256" y="-1303.5" font-family="Helvetica,sans-Serif" font-size="10.00">bool</text>
</a>
</g>
</g>
<!-- Node6&#45;&gt;Node4 -->
<g id="edge5" class="edge">
<title>Node6&#45;&gt;Node4</title>
<path fill="none" stroke="#9a32cd" stroke-dasharray="5,2" d="M2285.24,-1301.93C2305.86,-1298.67 2334.4,-1293.56 2359,-1287 2440.9,-1265.18 2478.8,-1283.67 2539,-1224 2555.77,-1207.37 2539.3,-1189.64 2557,-1174 2563.39,-1168.36 2571.09,-1164.28 2579.21,-1161.36"/>
<polygon fill="#9a32cd" stroke="#9a32cd" points="2284.6,-1298.48 2275.24,-1303.46 2285.66,-1305.4 2284.6,-1298.48"/>
<text text-anchor="middle" x="2458" y="-1351" font-family="Helvetica,sans-Serif" font-size="10.00"> doTris</text>
<text text-anchor="middle" x="2458" y="-1340" font-family="Helvetica,sans-Serif" font-size="10.00">doQuads</text>
<text text-anchor="middle" x="2458" y="-1329" font-family="Helvetica,sans-Serif" font-size="10.00">sYmm</text>
<text text-anchor="middle" x="2458" y="-1318" font-family="Helvetica,sans-Serif" font-size="10.00">doPrisms</text>
<text text-anchor="middle" x="2458" y="-1307" font-family="Helvetica,sans-Serif" font-size="10.00">doTets</text>
<text text-anchor="middle" x="2458" y="-1296" font-family="Helvetica,sans-Serif" font-size="10.00">doVertices</text>
<text text-anchor="middle" x="2458" y="-1285" font-family="Helvetica,sans-Serif" font-size="10.00">doEdges</text>
</g>
<!-- Node7 -->
<g id="node7" class="node">
<title>Node7</title>
<g id="a_node7"><a xlink:title=" ">
<polygon fill="white" stroke="#bfbfbf" points="2153,-1192.5 2153,-1277.5 2359,-1277.5 2359,-1192.5 2153,-1192.5"/>
<text text-anchor="start" x="2161" y="-1265.5" font-family="Helvetica,sans-Serif" font-size="10.00">function&lt; MoFEMErrorCode</text>
<text text-anchor="start" x="2161" y="-1254.5" font-family="Helvetica,sans-Serif" font-size="10.00">(DataOperator *op_ptr,</text>
<text text-anchor="start" x="2161" y="-1243.5" font-family="Helvetica,sans-Serif" font-size="10.00"> int row_side, int col_side,</text>
<text text-anchor="start" x="2161" y="-1232.5" font-family="Helvetica,sans-Serif" font-size="10.00"> EntityType row_type, EntityType</text>
<text text-anchor="start" x="2161" y="-1221.5" font-family="Helvetica,sans-Serif" font-size="10.00"> col_type, EntitiesFieldData::EntData</text>
<text text-anchor="start" x="2161" y="-1210.5" font-family="Helvetica,sans-Serif" font-size="10.00"> &amp;row_data, EntitiesFieldData::EntData</text>
<text text-anchor="middle" x="2256" y="-1199.5" font-family="Helvetica,sans-Serif" font-size="10.00"> &amp;col_data)&gt;</text>
</a>
</g>
</g>
<!-- Node7&#45;&gt;Node4 -->
<g id="edge6" class="edge">
<title>Node7&#45;&gt;Node4</title>
<path fill="none" stroke="#9a32cd" stroke-dasharray="5,2" d="M2369.18,-1211.63C2444.56,-1195.93 2539.91,-1176.06 2595.32,-1164.52"/>
<polygon fill="#9a32cd" stroke="#9a32cd" points="2368.22,-1208.25 2359.15,-1213.72 2369.65,-1215.11 2368.22,-1208.25"/>
<text text-anchor="middle" x="2458" y="-1212" font-family="Helvetica,sans-Serif" font-size="10.00"> doWorkLhsHook</text>
</g>
<!-- Node8 -->
<g id="node8" class="node">
<title>Node8</title>
<g id="a_node8"><a xlink:title=" ">
<polygon fill="white" stroke="#bfbfbf" points="2179,-1154.5 2179,-1173.5 2333,-1173.5 2333,-1154.5 2179,-1154.5"/>
<text text-anchor="middle" x="2256" y="-1161.5" font-family="Helvetica,sans-Serif" font-size="10.00">array&lt; bool, MBMAXTYPE &gt;</text>
</a>
</g>
</g>
<!-- Node8&#45;&gt;Node4 -->
<g id="edge7" class="edge">
<title>Node8&#45;&gt;Node4</title>
<path fill="none" stroke="#9a32cd" stroke-dasharray="5,2" d="M2343.7,-1161.97C2415.44,-1160.29 2515.59,-1157.94 2579.37,-1156.44"/>
<polygon fill="#9a32cd" stroke="#9a32cd" points="2343.24,-1158.48 2333.33,-1162.21 2343.4,-1165.48 2343.24,-1158.48"/>
<text text-anchor="middle" x="2458" y="-1164" font-family="Helvetica,sans-Serif" font-size="10.00"> doEntities</text>
</g>
<!-- Node9 -->
<g id="node9" class="node">
<title>Node9</title>
<g id="a_node9"><a xlink:title=" ">
<polygon fill="white" stroke="#bfbfbf" points="2607.5,-1090.5 2607.5,-1109.5 2676.5,-1109.5 2676.5,-1090.5 2607.5,-1090.5"/>
<text text-anchor="middle" x="2642" y="-1097.5" font-family="Helvetica,sans-Serif" font-size="10.00">FieldSpace</text>
</a>
</g>
</g>
<!-- Node9&#45;&gt;Node3 -->
<g id="edge8" class="edge">
<title>Node9&#45;&gt;Node3</title>
<path fill="none" stroke="#9a32cd" stroke-dasharray="5,2" d="M2686.79,-1100C2726.94,-1100 2787.51,-1100 2836.99,-1100"/>
<polygon fill="#9a32cd" stroke="#9a32cd" points="2686.53,-1096.5 2676.53,-1100 2686.53,-1103.5 2686.53,-1096.5"/>
<text text-anchor="middle" x="2782" y="-1103" font-family="Helvetica,sans-Serif" font-size="10.00"> sPace</text>
</g>
<!-- Node10 -->
<g id="node10" class="node">
<title>Node10</title>
<g id="a_node10"><a xlink:title=" ">
<polygon fill="white" stroke="#bfbfbf" points="1122.5,-1400.5 1122.5,-1419.5 1160.5,-1419.5 1160.5,-1400.5 1122.5,-1400.5"/>
<text text-anchor="middle" x="1141.5" y="-1407.5" font-family="Helvetica,sans-Serif" font-size="10.00">char</text>
</a>
</g>
</g>
<!-- Node10&#45;&gt;Node3 -->
<g id="edge9" class="edge">
<title>Node10&#45;&gt;Node3</title>
<path fill="none" stroke="#9a32cd" stroke-dasharray="5,2" d="M1170.81,-1411.47C1230.96,-1414.47 1375.89,-1421 1497.5,-1421 1497.5,-1421 1497.5,-1421 2643,-1421 2807.03,-1421 2895.93,-1178.51 2916.39,-1115.05"/>
<polygon fill="#9a32cd" stroke="#9a32cd" points="1170.76,-1407.97 1160.6,-1410.96 1170.41,-1414.96 1170.76,-1407.97"/>
<text text-anchor="middle" x="2063" y="-1424" font-family="Helvetica,sans-Serif" font-size="10.00"> opType</text>
</g>
<!-- Node38 -->
<g id="node38" class="node">
<title>Node38</title>
<g id="a_node38"><a xlink:href="structMoFEM_1_1Problem.html" target="_top" xlink:title="keeps basic data about problem">
<polygon fill="white" stroke="black" points="1449,-1145.5 1449,-1164.5 1548,-1164.5 1548,-1145.5 1449,-1145.5"/>
<text text-anchor="middle" x="1498.5" y="-1152.5" font-family="Helvetica,sans-Serif" font-size="10.00">MoFEM::Problem</text>
</a>
</g>
</g>
<!-- Node10&#45;&gt;Node38 -->
<g id="edge53" class="edge">
<title>Node10&#45;&gt;Node38</title>
<path fill="none" stroke="#9a32cd" stroke-dasharray="5,2" d="M1171.11,-1406.58C1235.72,-1398.76 1388,-1379.73 1397,-1373 1469.45,-1318.88 1491.29,-1199.87 1496.26,-1164.87"/>
<polygon fill="#9a32cd" stroke="#9a32cd" points="1170.33,-1403.15 1160.82,-1407.82 1171.17,-1410.1 1170.33,-1403.15"/>
<text text-anchor="middle" x="1329" y="-1397" font-family="Helvetica,sans-Serif" font-size="10.00"> tagName</text>
</g>
<!-- Node11 -->
<g id="node11" class="node">
<title>Node11</title>
<g id="a_node11"><a xlink:href="structMoFEM_1_1ForcesAndSourcesCore.html" target="_top" xlink:title="structure to get information form mofem into EntitiesFieldData">
<polygon fill="white" stroke="black" points="2557,-758.5 2557,-777.5 2727,-777.5 2727,-758.5 2557,-758.5"/>
<text text-anchor="middle" x="2642" y="-765.5" font-family="Helvetica,sans-Serif" font-size="10.00">MoFEM::ForcesAndSourcesCore</text>
</a>
</g>
</g>
<!-- Node11&#45;&gt;Node3 -->
<g id="edge10" class="edge">
<title>Node11&#45;&gt;Node3</title>
<path fill="none" stroke="#9a32cd" stroke-dasharray="5,2" d="M2657.64,-785.48C2706.31,-843.61 2862.23,-1029.81 2908.15,-1084.66"/>
<polygon fill="#9a32cd" stroke="#9a32cd" points="2660.12,-783 2651.02,-777.58 2654.76,-787.49 2660.12,-783"/>
<text text-anchor="middle" x="2782" y="-976" font-family="Helvetica,sans-Serif" font-size="10.00"> ptrFE</text>
</g>
<!-- Node11&#45;&gt;Node11 -->
<g id="edge68" class="edge">
<title>Node11&#45;&gt;Node11</title>
<path fill="none" stroke="#9a32cd" stroke-dasharray="5,2" d="M2615.96,-787.03C2617.38,-792.13 2626.06,-796 2642,-796 2666.88,-796 2674.08,-786.57 2663.58,-777.76"/>
<polygon fill="#9a32cd" stroke="#9a32cd" points="2619.24,-788.29 2620.42,-777.76 2612.93,-785.25 2619.24,-788.29"/>
<text text-anchor="middle" x="2642" y="-810" font-family="Helvetica,sans-Serif" font-size="10.00"> sidePtrFE</text>
<text text-anchor="middle" x="2642" y="-799" font-family="Helvetica,sans-Serif" font-size="10.00">refinePtrFE</text>
</g>
<!-- Node12 -->
<g id="node12" class="node">
<title>Node12</title>
<g id="a_node12"><a xlink:href="structMoFEM_1_1FEMethod.html" target="_top" xlink:title="structure for User Loop Methods on finite elements">
<polygon fill="white" stroke="black" points="2202.5,-699.5 2202.5,-718.5 2309.5,-718.5 2309.5,-699.5 2202.5,-699.5"/>
<text text-anchor="middle" x="2256" y="-706.5" font-family="Helvetica,sans-Serif" font-size="10.00">MoFEM::FEMethod</text>
</a>
</g>
</g>
<!-- Node12&#45;&gt;Node11 -->
<g id="edge11" class="edge">
<title>Node12&#45;&gt;Node11</title>
<path fill="none" stroke="midnightblue" d="M2301.36,-721.11C2323.88,-726.9 2351.74,-733.53 2377,-738 2436.73,-748.57 2504.76,-756.2 2556.79,-761.11"/>
<polygon fill="midnightblue" stroke="midnightblue" points="2301.98,-717.66 2291.42,-718.52 2300.21,-724.43 2301.98,-717.66"/>
</g>
<!-- Node13 -->
<g id="node13" class="node">
<title>Node13</title>
<g id="a_node13"><a xlink:href="structMoFEM_1_1BasicMethod.html" target="_top" xlink:title="Data structure to exchange data between mofem and User Loop Methods.">
<polygon fill="white" stroke="black" points="1825,-699.5 1825,-718.5 1947,-718.5 1947,-699.5 1825,-699.5"/>
<text text-anchor="middle" x="1886" y="-706.5" font-family="Helvetica,sans-Serif" font-size="10.00">MoFEM::BasicMethod</text>
</a>
</g>
</g>
<!-- Node13&#45;&gt;Node12 -->
<g id="edge12" class="edge">
<title>Node13&#45;&gt;Node12</title>
<path fill="none" stroke="midnightblue" d="M1957.63,-709C2029.14,-709 2138.1,-709 2202.37,-709"/>
<polygon fill="midnightblue" stroke="midnightblue" points="1957.36,-705.5 1947.36,-709 1957.36,-712.5 1957.36,-705.5"/>
</g>
<!-- Node14 -->
<g id="node14" class="node">
<title>Node14</title>
<g id="a_node14"><a xlink:href="structMoFEM_1_1KspMethod.html" target="_top" xlink:title="data structure for ksp (linear solver) context">
<polygon fill="white" stroke="black" points="1442,-311.5 1442,-330.5 1555,-330.5 1555,-311.5 1442,-311.5"/>
<text text-anchor="middle" x="1498.5" y="-318.5" font-family="Helvetica,sans-Serif" font-size="10.00">MoFEM::KspMethod</text>
</a>
</g>
</g>
<!-- Node14&#45;&gt;Node13 -->
<g id="edge13" class="edge">
<title>Node14&#45;&gt;Node13</title>
<path fill="none" stroke="midnightblue" d="M1565.03,-329.05C1631.3,-340.96 1730.9,-370.04 1781,-440 1813.3,-485.1 1762.95,-646.83 1799,-689 1805.77,-696.92 1815.02,-702.05 1824.94,-705.3"/>
<polygon fill="midnightblue" stroke="midnightblue" points="1565.55,-325.58 1555.1,-327.34 1564.36,-332.48 1565.55,-325.58"/>
</g>
<!-- Node15 -->
<g id="node15" class="node">
<title>Node15</title>
<g id="a_node15"><a xlink:href="structMoFEM_1_1PetscData.html" target="_top" xlink:title=" ">
<polygon fill="white" stroke="black" points="1087.5,-441.5 1087.5,-460.5 1195.5,-460.5 1195.5,-441.5 1087.5,-441.5"/>
<text text-anchor="middle" x="1141.5" y="-448.5" font-family="Helvetica,sans-Serif" font-size="10.00">MoFEM::PetscData</text>
</a>
</g>
</g>
<!-- Node15&#45;&gt;Node14 -->
<g id="edge14" class="edge">
<title>Node15&#45;&gt;Node14</title>
<path fill="none" stroke="midnightblue" d="M1205.78,-447.2C1219.64,-443.53 1233.11,-437.31 1243,-427 1271.85,-396.94 1229.63,-362.42 1261,-335 1286.97,-312.29 1380.46,-313.33 1441.82,-316.75"/>
<polygon fill="midnightblue" stroke="midnightblue" points="1204.66,-443.86 1195.66,-449.45 1206.18,-450.7 1204.66,-443.86"/>
</g>
<!-- Node25 -->
<g id="node25" class="node">
<title>Node25</title>
<g id="a_node25"><a xlink:href="structMoFEM_1_1SnesMethod.html" target="_top" xlink:title="data structure for snes (nonlinear solver) context">
<polygon fill="white" stroke="black" points="1439,-384.5 1439,-403.5 1558,-403.5 1558,-384.5 1439,-384.5"/>
<text text-anchor="middle" x="1498.5" y="-391.5" font-family="Helvetica,sans-Serif" font-size="10.00">MoFEM::SnesMethod</text>
</a>
</g>
</g>
<!-- Node15&#45;&gt;Node25 -->
<g id="edge27" class="edge">
<title>Node15&#45;&gt;Node25</title>
<path fill="none" stroke="darkgreen" d="M1205.52,-440.88C1271.6,-430.27 1374.61,-413.73 1438.96,-403.4"/>
<polygon fill="darkgreen" stroke="darkgreen" points="1204.97,-437.43 1195.65,-442.47 1206.08,-444.34 1204.97,-437.43"/>
</g>
<!-- Node28 -->
<g id="node28" class="node">
<title>Node28</title>
<g id="a_node28"><a xlink:href="structMoFEM_1_1TSMethod.html" target="_top" xlink:title="data structure for TS (time stepping) context">
<polygon fill="white" stroke="black" points="1445,-610.5 1445,-629.5 1552,-629.5 1552,-610.5 1445,-610.5"/>
<text text-anchor="middle" x="1498.5" y="-617.5" font-family="Helvetica,sans-Serif" font-size="10.00">MoFEM::TSMethod</text>
</a>
</g>
</g>
<!-- Node15&#45;&gt;Node28 -->
<g id="edge33" class="edge">
<title>Node15&#45;&gt;Node28</title>
<path fill="none" stroke="darkgreen" d="M1189.64,-463.45C1206.71,-468.5 1225.97,-474.84 1243,-482 1337.75,-521.84 1443.53,-586.09 1482.25,-610.33"/>
<polygon fill="darkgreen" stroke="darkgreen" points="1190.46,-460.04 1179.88,-460.63 1188.51,-466.76 1190.46,-460.04"/>
</g>
<!-- Node16 -->
<g id="node16" class="node">
<title>Node16</title>
<g id="a_node16"><a xlink:href="structMoFEM_1_1UnknownInterface.html" target="_top" xlink:title="base class for all interface classes">
<polygon fill="white" stroke="black" points="735,-98.5 735,-117.5 883,-117.5 883,-98.5 735,-98.5"/>
<text text-anchor="middle" x="809" y="-105.5" font-family="Helvetica,sans-Serif" font-size="10.00">MoFEM::UnknownInterface</text>
</a>
</g>
</g>
<!-- Node16&#45;&gt;Node15 -->
<g id="edge15" class="edge">
<title>Node16&#45;&gt;Node15</title>
<path fill="none" stroke="midnightblue" d="M836.63,-122.73C883.07,-149.98 978.1,-213.04 1022,-295 1049.96,-347.19 1000.25,-383.11 1040,-427 1052.04,-440.3 1070.01,-446.87 1087.44,-449.94"/>
<polygon fill="midnightblue" stroke="midnightblue" points="838.17,-119.57 827.76,-117.61 834.67,-125.64 838.17,-119.57"/>
</g>
<!-- Node56 -->
<g id="node56" class="node">
<title>Node56</title>
<g id="a_node56"><a xlink:href="structMoFEM_1_1CoreInterface.html" target="_top" xlink:title="Interface.">
<polygon fill="white" stroke="black" points="1079,-0.5 1079,-19.5 1204,-19.5 1204,-0.5 1079,-0.5"/>
<text text-anchor="middle" x="1141.5" y="-7.5" font-family="Helvetica,sans-Serif" font-size="10.00">MoFEM::CoreInterface</text>
</a>
</g>
</g>
<!-- Node16&#45;&gt;Node56 -->
<g id="edge67" class="edge">
<title>Node16&#45;&gt;Node56</title>
<path fill="none" stroke="midnightblue" d="M823.17,-90.57C839.14,-70.93 868.07,-39.93 901,-26 957.81,-1.98 1028.98,-0.38 1078.92,-3.31"/>
<polygon fill="midnightblue" stroke="midnightblue" points="820.4,-88.43 816.95,-98.45 825.89,-92.76 820.4,-88.43"/>
</g>
<!-- Node17 -->
<g id="node17" class="node">
<title>Node17</title>
<g id="a_node17"><a xlink:title=" ">
<polygon fill="white" stroke="#bfbfbf" points="386,-76.5 386,-139.5 627,-139.5 627,-76.5 386,-76.5"/>
<text text-anchor="start" x="394" y="-127.5" font-family="Helvetica,sans-Serif" font-size="10.00">multi_index_container</text>
<text text-anchor="start" x="394" y="-116.5" font-family="Helvetica,sans-Serif" font-size="10.00">&lt; UIdTypeMap, indexed</text>
<text text-anchor="start" x="394" y="-105.5" font-family="Helvetica,sans-Serif" font-size="10.00">_by&lt; hashed_unique&lt; member</text>
<text text-anchor="start" x="394" y="-94.5" font-family="Helvetica,sans-Serif" font-size="10.00">&lt; UIdTypeMap, boost::typeindex</text>
<text text-anchor="middle" x="506.5" y="-83.5" font-family="Helvetica,sans-Serif" font-size="10.00">::type_index, &amp;UIdTypeMap::classIdx &gt; &gt; &gt; &gt;</text>
</a>
</g>
</g>
<!-- Node17&#45;&gt;Node16 -->
<g id="edge16" class="edge">
<title>Node17&#45;&gt;Node16</title>
<path fill="none" stroke="#9a32cd" stroke-dasharray="5,2" d="M637.41,-108C670.69,-108 705.33,-108 734.62,-108"/>
<polygon fill="#9a32cd" stroke="#9a32cd" points="637.13,-104.5 627.13,-108 637.13,-111.5 637.13,-104.5"/>
<text text-anchor="middle" x="681" y="-111" font-family="Helvetica,sans-Serif" font-size="10.00"> iFaceTypeMap</text>
</g>
<!-- Node18 -->
<g id="node18" class="node">
<title>Node18</title>
<g id="a_node18"><a xlink:title=" ">
<polygon fill="white" stroke="#bfbfbf" points="0,-54.5 0,-73.5 125,-73.5 125,-54.5 0,-54.5"/>
<text text-anchor="middle" x="62.5" y="-61.5" font-family="Helvetica,sans-Serif" font-size="10.00">multi_index_container</text>
</a>
</g>
</g>
<!-- Node18&#45;&gt;Node13 -->
<g id="edge40" class="edge">
<title>Node18&#45;&gt;Node13</title>
<path fill="none" stroke="#9a32cd" stroke-dasharray="5,2" d="M135.41,-59.8C222.85,-55.06 374.95,-48 505.5,-48 505.5,-48 505.5,-48 1499.5,-48 1657.2,-48 1708.27,-124.07 1781,-264 1802.8,-305.94 1768.83,-652.62 1799,-689 1805.65,-697.02 1814.84,-702.2 1824.75,-705.47"/>
<polygon fill="#9a32cd" stroke="#9a32cd" points="135.12,-56.31 125.33,-60.35 135.51,-63.3 135.12,-56.31"/>
<text text-anchor="middle" x="961.5" y="-128" font-family="Helvetica,sans-Serif" font-size="10.00"> adjacenciesPtr</text>
<text text-anchor="middle" x="961.5" y="-117" font-family="Helvetica,sans-Serif" font-size="10.00">refinedEntitiesPtr</text>
<text text-anchor="middle" x="961.5" y="-106" font-family="Helvetica,sans-Serif" font-size="10.00">finiteElementsEntitiesPtr</text>
<text text-anchor="middle" x="961.5" y="-95" font-family="Helvetica,sans-Serif" font-size="10.00">dofsPtr</text>
<text text-anchor="middle" x="961.5" y="-84" font-family="Helvetica,sans-Serif" font-size="10.00">entitiesPtr</text>
<text text-anchor="middle" x="961.5" y="-73" font-family="Helvetica,sans-Serif" font-size="10.00">finiteElementsPtr</text>
<text text-anchor="middle" x="961.5" y="-62" font-family="Helvetica,sans-Serif" font-size="10.00">refinedFiniteElementsPtr</text>
<text text-anchor="middle" x="961.5" y="-51" font-family="Helvetica,sans-Serif" font-size="10.00">fieldsPtr</text>
</g>
<!-- Node18&#45;&gt;Node17 -->
<g id="edge17" class="edge">
<title>Node18&#45;&gt;Node17</title>
<path fill="none" stroke="orange" stroke-dasharray="5,2" d="M135.56,-71.17C203.25,-77.91 305.79,-88.12 385.77,-96.08"/>
<polygon fill="orange" stroke="orange" points="135.72,-67.67 125.42,-70.16 135.03,-74.64 135.72,-67.67"/>
<text text-anchor="start" x="143" y="-130" font-family="Helvetica,sans-Serif" font-size="10.00"> &lt; UIdTypeMap, indexed</text>
<text text-anchor="start" x="143" y="-119" font-family="Helvetica,sans-Serif" font-size="10.00">_by&lt; hashed_unique&lt; member</text>
<text text-anchor="start" x="143" y="-108" font-family="Helvetica,sans-Serif" font-size="10.00">&lt; UIdTypeMap, boost::typeindex</text>
<text text-anchor="middle" x="255.5" y="-97" font-family="Helvetica,sans-Serif" font-size="10.00">::type_index, &amp;UIdTypeMap::classIdx &gt; &gt; &gt; &gt;</text>
</g>
<!-- Node19 -->
<g id="node19" class="node">
<title>Node19</title>
<g id="a_node19"><a xlink:title=" ">
<polygon fill="white" stroke="#bfbfbf" points="738.5,-414.5 738.5,-433.5 879.5,-433.5 879.5,-414.5 738.5,-414.5"/>
<text text-anchor="middle" x="809" y="-421.5" font-family="Helvetica,sans-Serif" font-size="10.00">static constexpr Switches</text>
</a>
</g>
</g>
<!-- Node19&#45;&gt;Node15 -->
<g id="edge18" class="edge">
<title>Node19&#45;&gt;Node15</title>
<path fill="none" stroke="#9a32cd" stroke-dasharray="5,2" d="M889.71,-423.07C893.53,-423.05 897.31,-423.02 901,-423 954.78,-422.7 968.58,-416.77 1022,-423 1024.03,-423.24 1067.05,-433.45 1100.67,-441.47"/>
<polygon fill="#9a32cd" stroke="#9a32cd" points="889.53,-419.58 879.56,-423.16 889.59,-426.57 889.53,-419.58"/>
<text text-anchor="middle" x="961.5" y="-503" font-family="Helvetica,sans-Serif" font-size="10.00"> CtxSetX_TT</text>
<text text-anchor="middle" x="961.5" y="-492" font-family="Helvetica,sans-Serif" font-size="10.00">CtxSetX_T</text>
<text text-anchor="middle" x="961.5" y="-481" font-family="Helvetica,sans-Serif" font-size="10.00">CtxSetA</text>
<text text-anchor="middle" x="961.5" y="-470" font-family="Helvetica,sans-Serif" font-size="10.00">CtxSetB</text>
<text text-anchor="middle" x="961.5" y="-459" font-family="Helvetica,sans-Serif" font-size="10.00">CtxSetTime</text>
<text text-anchor="middle" x="961.5" y="-448" font-family="Helvetica,sans-Serif" font-size="10.00">CtxSetNone</text>
<text text-anchor="middle" x="961.5" y="-437" font-family="Helvetica,sans-Serif" font-size="10.00">CtxSetF</text>
<text text-anchor="middle" x="961.5" y="-426" font-family="Helvetica,sans-Serif" font-size="10.00">CtxSetX</text>
</g>
<!-- Node20 -->
<g id="node20" class="node">
<title>Node20</title>
<g id="a_node20"><a xlink:title=" ">
<polygon fill="white" stroke="#bfbfbf" points="791.5,-572.5 791.5,-591.5 826.5,-591.5 826.5,-572.5 791.5,-572.5"/>
<text text-anchor="middle" x="809" y="-579.5" font-family="Helvetica,sans-Serif" font-size="10.00">Mat</text>
</a>
</g>
</g>
<!-- Node20&#45;&gt;Node14 -->
<g id="edge24" class="edge">
<title>Node20&#45;&gt;Node14</title>
<path fill="none" stroke="#9a32cd" stroke-dasharray="5,2" d="M836.92,-580.84C877.56,-578.62 956.78,-572.42 1022,-556 1022.2,-555.95 1242.81,-470.09 1243,-470 1337.95,-424.09 1444.89,-355.58 1483.03,-330.58"/>
<polygon fill="#9a32cd" stroke="#9a32cd" points="836.56,-577.36 826.75,-581.36 836.92,-584.35 836.56,-577.36"/>
<text text-anchor="middle" x="1141.5" y="-563" font-family="Helvetica,sans-Serif" font-size="10.00"> ksp_A</text>
<text text-anchor="middle" x="1141.5" y="-552" font-family="Helvetica,sans-Serif" font-size="10.00">ksp_B</text>
</g>
<!-- Node20&#45;&gt;Node15 -->
<g id="edge19" class="edge">
<title>Node20&#45;&gt;Node15</title>
<path fill="none" stroke="#9a32cd" stroke-dasharray="5,2" d="M833.42,-567.14C851.3,-556.44 876.88,-542.44 901,-534 952.67,-515.92 976.87,-541.98 1022,-511 1034.51,-502.41 1027.99,-491.27 1040,-482 1053.66,-471.46 1070.93,-464.48 1087.28,-459.86"/>
<polygon fill="#9a32cd" stroke="#9a32cd" points="831.53,-564.2 824.83,-572.4 835.18,-570.17 831.53,-564.2"/>
<text text-anchor="middle" x="961.5" y="-548" font-family="Helvetica,sans-Serif" font-size="10.00"> A</text>
<text text-anchor="middle" x="961.5" y="-537" font-family="Helvetica,sans-Serif" font-size="10.00">B</text>
</g>
<!-- Node20&#45;&gt;Node25 -->
<g id="edge29" class="edge">
<title>Node20&#45;&gt;Node25</title>
<path fill="none" stroke="#9a32cd" stroke-dasharray="5,2" d="M836.59,-583.25C876.81,-584.83 955.49,-586.71 1022,-581 1190.38,-566.55 1251.02,-603.15 1397,-518 1445.83,-489.52 1480.66,-427.69 1492.79,-403.74"/>
<polygon fill="#9a32cd" stroke="#9a32cd" points="836.67,-579.75 826.53,-582.83 836.38,-586.74 836.67,-579.75"/>
<text text-anchor="middle" x="1141.5" y="-594" font-family="Helvetica,sans-Serif" font-size="10.00"> snes_A</text>
<text text-anchor="middle" x="1141.5" y="-583" font-family="Helvetica,sans-Serif" font-size="10.00">snes_B</text>
</g>
<!-- Node20&#45;&gt;Node28 -->
<g id="edge34" class="edge">
<title>Node20&#45;&gt;Node28</title>
<path fill="none" stroke="#9a32cd" stroke-dasharray="5,2" d="M836.31,-590.69C854.3,-596.2 878.82,-602.86 901,-606 1100.23,-634.21 1340.55,-627.67 1444.9,-622.87"/>
<polygon fill="#9a32cd" stroke="#9a32cd" points="837.12,-587.28 826.53,-587.62 835.02,-593.96 837.12,-587.28"/>
<text text-anchor="middle" x="1141.5" y="-642" font-family="Helvetica,sans-Serif" font-size="10.00"> ts_A</text>
<text text-anchor="middle" x="1141.5" y="-631" font-family="Helvetica,sans-Serif" font-size="10.00">ts_B</text>
</g>
<!-- Node21 -->
<g id="node21" class="node">
<title>Node21</title>
<g id="a_node21"><a xlink:title=" ">
<polygon fill="white" stroke="#bfbfbf" points="772.5,-376.5 772.5,-395.5 845.5,-395.5 845.5,-376.5 772.5,-376.5"/>
<text text-anchor="middle" x="809" y="-383.5" font-family="Helvetica,sans-Serif" font-size="10.00">bitset&lt; 8 &gt;</text>
</a>
</g>
</g>
<!-- Node21&#45;&gt;Node15 -->
<g id="edge20" class="edge">
<title>Node21&#45;&gt;Node15</title>
<path fill="none" stroke="#9a32cd" stroke-dasharray="5,2" d="M855.68,-380.8C900.58,-377.79 969.78,-378.94 1022,-406 1032.91,-411.66 1029.51,-420.59 1040,-427 1054.24,-435.7 1071.39,-441.24 1087.47,-444.78"/>
<polygon fill="#9a32cd" stroke="#9a32cd" points="855.35,-377.31 845.65,-381.56 855.88,-384.29 855.35,-377.31"/>
<text text-anchor="middle" x="961.5" y="-409" font-family="Helvetica,sans-Serif" font-size="10.00"> data_ctx</text>
</g>
<!-- Node22 -->
<g id="node22" class="node">
<title>Node22</title>
<g id="a_node22"><a xlink:title=" ">
<polygon fill="white" stroke="#bfbfbf" points="792,-253.5 792,-272.5 826,-272.5 826,-253.5 792,-253.5"/>
<text text-anchor="middle" x="809" y="-260.5" font-family="Helvetica,sans-Serif" font-size="10.00">Vec</text>
</a>
</g>
</g>
<!-- Node22&#45;&gt;Node14 -->
<g id="edge25" class="edge">
<title>Node22&#45;&gt;Node14</title>
<path fill="none" stroke="#9a32cd" stroke-dasharray="5,2" d="M833.12,-247.66C882.2,-215.45 995.91,-142.75 1040,-131 1127.18,-107.76 1152.86,-127.2 1243,-131 1311.63,-133.89 1347.73,-96.15 1397,-144 1447.7,-193.24 1367.92,-249.28 1415,-302 1422.05,-309.89 1431.66,-314.85 1441.83,-317.9"/>
<polygon fill="#9a32cd" stroke="#9a32cd" points="830.9,-244.93 824.47,-253.36 834.75,-250.78 830.9,-244.93"/>
<text text-anchor="middle" x="1141.5" y="-134" font-family="Helvetica,sans-Serif" font-size="10.00"> ksp_f</text>
</g>
<!-- Node22&#45;&gt;Node15 -->
<g id="edge21" class="edge">
<title>Node22&#45;&gt;Node15</title>
<path fill="none" stroke="#9a32cd" stroke-dasharray="5,2" d="M835.52,-273.97C853.61,-281.53 878.56,-291.53 901,-299 953.89,-316.61 984.17,-291.06 1022,-332 1051.16,-363.56 1010.34,-395.91 1040,-427 1052.26,-439.85 1070.07,-446.35 1087.3,-449.49"/>
<polygon fill="#9a32cd" stroke="#9a32cd" points="836.81,-270.72 826.24,-270.05 834.09,-277.17 836.81,-270.72"/>
<text text-anchor="middle" x="961.5" y="-368" font-family="Helvetica,sans-Serif" font-size="10.00"> f</text>
<text text-anchor="middle" x="961.5" y="-357" font-family="Helvetica,sans-Serif" font-size="10.00">x</text>
<text text-anchor="middle" x="961.5" y="-346" font-family="Helvetica,sans-Serif" font-size="10.00">x_t</text>
<text text-anchor="middle" x="961.5" y="-335" font-family="Helvetica,sans-Serif" font-size="10.00">x_tt</text>
</g>
<!-- Node22&#45;&gt;Node25 -->
<g id="edge30" class="edge">
<title>Node22&#45;&gt;Node25</title>
<path fill="none" stroke="#9a32cd" stroke-dasharray="5,2" d="M836.27,-259.95C939.15,-248.63 1313.11,-213.31 1397,-288 1415.27,-304.26 1399.96,-320.71 1415,-340 1430.89,-360.38 1456.74,-375.51 1475.27,-384.49"/>
<polygon fill="#9a32cd" stroke="#9a32cd" points="835.68,-256.5 826.13,-261.09 836.46,-263.45 835.68,-256.5"/>
<text text-anchor="middle" x="1141.5" y="-259" font-family="Helvetica,sans-Serif" font-size="10.00"> snes_x</text>
<text text-anchor="middle" x="1141.5" y="-248" font-family="Helvetica,sans-Serif" font-size="10.00">snes_f</text>
</g>
<!-- Node22&#45;&gt;Node28 -->
<g id="edge38" class="edge">
<title>Node22&#45;&gt;Node28</title>
<path fill="none" stroke="#9a32cd" stroke-dasharray="5,2" d="M836.22,-264.61C886.57,-268.2 994.28,-278.49 1022,-302 1040.01,-317.28 1021.94,-336.78 1040,-352 1110.06,-411.06 1157.76,-354.38 1243,-388 1318.92,-417.95 1337.18,-432.49 1397,-488 1439.86,-527.77 1477.94,-587.47 1491.87,-610.48"/>
<polygon fill="#9a32cd" stroke="#9a32cd" points="836.33,-261.11 826.11,-263.92 835.86,-268.09 836.33,-261.11"/>
<text text-anchor="middle" x="1141.5" y="-424" font-family="Helvetica,sans-Serif" font-size="10.00"> ts_u</text>
<text text-anchor="middle" x="1141.5" y="-413" font-family="Helvetica,sans-Serif" font-size="10.00">ts_F</text>
<text text-anchor="middle" x="1141.5" y="-402" font-family="Helvetica,sans-Serif" font-size="10.00">ts_u_t</text>
<text text-anchor="middle" x="1141.5" y="-391" font-family="Helvetica,sans-Serif" font-size="10.00">ts_u_tt</text>
</g>
<!-- Node23 -->
<g id="node23" class="node">
<title>Node23</title>
<g id="a_node23"><a xlink:title=" ">
<polygon fill="white" stroke="#bfbfbf" points="1124,-151.5 1124,-170.5 1159,-170.5 1159,-151.5 1124,-151.5"/>
<text text-anchor="middle" x="1141.5" y="-158.5" font-family="Helvetica,sans-Serif" font-size="10.00">KSP</text>
</a>
</g>
</g>
<!-- Node23&#45;&gt;Node14 -->
<g id="edge22" class="edge">
<title>Node23&#45;&gt;Node14</title>
<path fill="none" stroke="#9a32cd" stroke-dasharray="5,2" d="M1168.93,-157.39C1227.18,-150.07 1364.04,-136.54 1397,-166 1442.46,-206.63 1373.98,-256.89 1415,-302 1422.12,-309.83 1431.76,-314.76 1441.94,-317.8"/>
<polygon fill="#9a32cd" stroke="#9a32cd" points="1168.48,-153.92 1159.02,-158.67 1169.38,-160.86 1168.48,-153.92"/>
<text text-anchor="middle" x="1329" y="-169" font-family="Helvetica,sans-Serif" font-size="10.00"> ksp</text>
</g>
<!-- Node24 -->
<g id="node24" class="node">
<title>Node24</title>
<g id="a_node24"><a xlink:title=" ">
<polygon fill="white" stroke="#bfbfbf" points="1104.5,-189.5 1104.5,-208.5 1178.5,-208.5 1178.5,-189.5 1104.5,-189.5"/>
<text text-anchor="middle" x="1141.5" y="-196.5" font-family="Helvetica,sans-Serif" font-size="10.00">KSPContext</text>
</a>
</g>
</g>
<!-- Node24&#45;&gt;Node14 -->
<g id="edge23" class="edge">
<title>Node24&#45;&gt;Node14</title>
<path fill="none" stroke="#9a32cd" stroke-dasharray="5,2" d="M1188.83,-187.96C1245.18,-177.52 1339.82,-170 1397,-220 1425.09,-244.56 1388.75,-275.48 1415,-302 1422.24,-309.31 1431.69,-314.05 1441.59,-317.07"/>
<polygon fill="#9a32cd" stroke="#9a32cd" points="1187.92,-184.58 1178.78,-189.94 1189.26,-191.45 1187.92,-184.58"/>
<text text-anchor="middle" x="1329" y="-223" font-family="Helvetica,sans-Serif" font-size="10.00"> ksp_ctx</text>
</g>
<!-- Node25&#45;&gt;Node13 -->
<g id="edge26" class="edge">
<title>Node25&#45;&gt;Node13</title>
<path fill="none" stroke="midnightblue" d="M1531.94,-407.65C1591.65,-434.58 1718.57,-500.5 1781,-598 1803.23,-632.72 1770.34,-659.37 1799,-689 1806.03,-696.27 1815.16,-701.12 1824.83,-704.32"/>
<polygon fill="midnightblue" stroke="midnightblue" points="1533.17,-404.37 1522.61,-403.52 1530.33,-410.77 1533.17,-404.37"/>
</g>
<!-- Node26 -->
<g id="node26" class="node">
<title>Node26</title>
<g id="a_node26"><a xlink:title=" ">
<polygon fill="white" stroke="#bfbfbf" points="1120.5,-323.5 1120.5,-342.5 1162.5,-342.5 1162.5,-323.5 1120.5,-323.5"/>
<text text-anchor="middle" x="1141.5" y="-330.5" font-family="Helvetica,sans-Serif" font-size="10.00">SNES</text>
</a>
</g>
</g>
<!-- Node26&#45;&gt;Node25 -->
<g id="edge28" class="edge">
<title>Node26&#45;&gt;Node25</title>
<path fill="none" stroke="#9a32cd" stroke-dasharray="5,2" d="M1172.65,-332.86C1220.73,-333.25 1317.48,-336.53 1397,-355 1425.99,-361.73 1457.73,-375.15 1477.63,-384.35"/>
<polygon fill="#9a32cd" stroke="#9a32cd" points="1172.61,-329.36 1162.6,-332.82 1172.58,-336.36 1172.61,-329.36"/>
<text text-anchor="middle" x="1329" y="-358" font-family="Helvetica,sans-Serif" font-size="10.00"> snes</text>
</g>
<!-- Node27 -->
<g id="node27" class="node">
<title>Node27</title>
<g id="a_node27"><a xlink:title=" ">
<polygon fill="white" stroke="#bfbfbf" points="1101.5,-285.5 1101.5,-304.5 1181.5,-304.5 1181.5,-285.5 1101.5,-285.5"/>
<text text-anchor="middle" x="1141.5" y="-292.5" font-family="Helvetica,sans-Serif" font-size="10.00">SNESContext</text>
</a>
</g>
</g>
<!-- Node27&#45;&gt;Node25 -->
<g id="edge31" class="edge">
<title>Node27&#45;&gt;Node25</title>
<path fill="none" stroke="#9a32cd" stroke-dasharray="5,2" d="M1191.94,-290.79C1245.23,-288.35 1331.22,-290.59 1397,-322 1407.21,-326.88 1406.22,-332.86 1415,-340 1436.39,-357.38 1463.5,-374.26 1480.68,-384.39"/>
<polygon fill="#9a32cd" stroke="#9a32cd" points="1191.54,-287.31 1181.74,-291.33 1191.91,-294.3 1191.54,-287.31"/>
<text text-anchor="middle" x="1329" y="-325" font-family="Helvetica,sans-Serif" font-size="10.00"> snes_ctx</text>
</g>
<!-- Node28&#45;&gt;Node13 -->
<g id="edge32" class="edge">
<title>Node28&#45;&gt;Node13</title>
<path fill="none" stroke="midnightblue" d="M1551.97,-608.71C1613.24,-598.71 1714.64,-592.43 1781,-642 1798.92,-655.39 1782.14,-674.3 1799,-689 1806.4,-695.45 1815.47,-699.92 1824.92,-703"/>
<polygon fill="midnightblue" stroke="midnightblue" points="1551.01,-605.33 1541.75,-610.48 1552.2,-612.23 1551.01,-605.33"/>
</g>
<!-- Node29 -->
<g id="node29" class="node">
<title>Node29</title>
<g id="a_node29"><a xlink:title=" ">
<polygon fill="white" stroke="#bfbfbf" points="1109,-774.5 1109,-793.5 1174,-793.5 1174,-774.5 1109,-774.5"/>
<text text-anchor="middle" x="1141.5" y="-781.5" font-family="Helvetica,sans-Serif" font-size="10.00">PetscReal</text>
</a>
</g>
</g>
<!-- Node29&#45;&gt;Node28 -->
<g id="edge35" class="edge">
<title>Node29&#45;&gt;Node28</title>
<path fill="none" stroke="#9a32cd" stroke-dasharray="5,2" d="M1184.33,-780.05C1254.6,-773.24 1389.45,-759.31 1397,-752 1433.55,-716.64 1380.29,-676.17 1415,-639 1422.82,-630.62 1433.54,-625.58 1444.66,-622.63"/>
<polygon fill="#9a32cd" stroke="#9a32cd" points="1183.67,-776.6 1174.05,-781.04 1184.34,-783.57 1183.67,-776.6"/>
<text text-anchor="middle" x="1329" y="-808" font-family="Helvetica,sans-Serif" font-size="10.00"> ts_a</text>
<text text-anchor="middle" x="1329" y="-797" font-family="Helvetica,sans-Serif" font-size="10.00">ts_t</text>
<text text-anchor="middle" x="1329" y="-786" font-family="Helvetica,sans-Serif" font-size="10.00">ts_dt</text>
<text text-anchor="middle" x="1329" y="-775" font-family="Helvetica,sans-Serif" font-size="10.00">ts_aa</text>
</g>
<!-- Node30 -->
<g id="node30" class="node">
<title>Node30</title>
<g id="a_node30"><a xlink:title=" ">
<polygon fill="white" stroke="#bfbfbf" points="1108,-736.5 1108,-755.5 1175,-755.5 1175,-736.5 1108,-736.5"/>
<text text-anchor="middle" x="1141.5" y="-743.5" font-family="Helvetica,sans-Serif" font-size="10.00">TSContext</text>
</a>
</g>
</g>
<!-- Node30&#45;&gt;Node28 -->
<g id="edge36" class="edge">
<title>Node30&#45;&gt;Node28</title>
<path fill="none" stroke="#9a32cd" stroke-dasharray="5,2" d="M1185.24,-743.26C1253.62,-738.49 1381.54,-727.84 1397,-714 1422.54,-691.14 1390.65,-663.13 1415,-639 1423.04,-631.03 1433.71,-626.14 1444.69,-623.19"/>
<polygon fill="#9a32cd" stroke="#9a32cd" points="1184.95,-739.77 1175.21,-743.95 1185.42,-746.76 1184.95,-739.77"/>
<text text-anchor="middle" x="1329" y="-741" font-family="Helvetica,sans-Serif" font-size="10.00"> ts_ctx</text>
</g>
<!-- Node31 -->
<g id="node31" class="node">
<title>Node31</title>
<g id="a_node31"><a xlink:title=" ">
<polygon fill="white" stroke="#bfbfbf" points="1113.5,-698.5 1113.5,-717.5 1169.5,-717.5 1169.5,-698.5 1113.5,-698.5"/>
<text text-anchor="middle" x="1141.5" y="-705.5" font-family="Helvetica,sans-Serif" font-size="10.00">PetscInt</text>
</a>
</g>
</g>
<!-- Node31&#45;&gt;Node28 -->
<g id="edge37" class="edge">
<title>Node31&#45;&gt;Node28</title>
<path fill="none" stroke="#9a32cd" stroke-dasharray="5,2" d="M1179.76,-705.93C1241.59,-701.88 1362.03,-691.19 1397,-668 1409.64,-659.62 1402.66,-647.82 1415,-639 1423.73,-632.76 1434.19,-628.53 1444.68,-625.68"/>
<polygon fill="#9a32cd" stroke="#9a32cd" points="1179.41,-702.44 1169.65,-706.57 1179.85,-709.43 1179.41,-702.44"/>
<text text-anchor="middle" x="1329" y="-702" font-family="Helvetica,sans-Serif" font-size="10.00"> ts_step</text>
</g>
<!-- Node32 -->
<g id="node32" class="node">
<title>Node32</title>
<g id="a_node32"><a xlink:title=" ">
<polygon fill="white" stroke="#bfbfbf" points="1127,-660.5 1127,-679.5 1156,-679.5 1156,-660.5 1127,-660.5"/>
<text text-anchor="middle" x="1141.5" y="-667.5" font-family="Helvetica,sans-Serif" font-size="10.00">TS</text>
</a>
</g>
</g>
<!-- Node32&#45;&gt;Node28 -->
<g id="edge39" class="edge">
<title>Node32&#45;&gt;Node28</title>
<path fill="none" stroke="#9a32cd" stroke-dasharray="5,2" d="M1166.58,-666.61C1223.4,-658.61 1366.9,-638.39 1444.96,-627.4"/>
<polygon fill="#9a32cd" stroke="#9a32cd" points="1165.83,-663.18 1156.42,-668.04 1166.81,-670.11 1165.83,-663.18"/>
<text text-anchor="middle" x="1329" y="-656" font-family="Helvetica,sans-Serif" font-size="10.00"> ts</text>
</g>
<!-- Node33 -->
<g id="node33" class="node">
<title>Node33</title>
<g id="a_node33"><a xlink:title=" ">
<polygon fill="white" stroke="#bfbfbf" points="1454,-273.5 1454,-292.5 1543,-292.5 1543,-273.5 1454,-273.5"/>
<text text-anchor="middle" x="1498.5" y="-280.5" font-family="Helvetica,sans-Serif" font-size="10.00">pair&lt; int, int &gt;</text>
</a>
</g>
</g>
<!-- Node33&#45;&gt;Node13 -->
<g id="edge41" class="edge">
<title>Node33&#45;&gt;Node13</title>
<path fill="none" stroke="#9a32cd" stroke-dasharray="5,2" d="M1553.07,-272.69C1617.51,-263.74 1724.09,-260.6 1781,-323 1808.44,-353.08 1772.9,-657.75 1799,-689 1805.68,-697 1814.88,-702.16 1824.79,-705.43"/>
<polygon fill="#9a32cd" stroke="#9a32cd" points="1552.49,-269.24 1543.11,-274.17 1553.51,-276.16 1552.49,-269.24"/>
<text text-anchor="middle" x="1690.5" y="-326" font-family="Helvetica,sans-Serif" font-size="10.00"> loHiFERank</text>
</g>
<!-- Node34 -->
<g id="node34" class="node">
<title>Node34</title>
<g id="a_node34"><a xlink:title=" ">
<polygon fill="white" stroke="#bfbfbf" points="1428.5,-736.5 1428.5,-755.5 1568.5,-755.5 1568.5,-736.5 1428.5,-736.5"/>
<text text-anchor="middle" x="1498.5" y="-743.5" font-family="Helvetica,sans-Serif" font-size="10.00">weak_ptr&lt; CacheTuple &gt;</text>
</a>
</g>
</g>
<!-- Node34&#45;&gt;Node13 -->
<g id="edge42" class="edge">
<title>Node34&#45;&gt;Node13</title>
<path fill="none" stroke="#9a32cd" stroke-dasharray="5,2" d="M1578.94,-745.62C1635.51,-744.48 1713.21,-741.15 1781,-732 1789.12,-730.9 1791,-729.77 1799,-728 1812.88,-724.92 1828.03,-721.58 1841.69,-718.56"/>
<polygon fill="#9a32cd" stroke="#9a32cd" points="1578.57,-742.13 1568.63,-745.81 1578.69,-749.13 1578.57,-742.13"/>
<text text-anchor="middle" x="1690.5" y="-749" font-family="Helvetica,sans-Serif" font-size="10.00"> cacheWeakPtr</text>
</g>
<!-- Node35 -->
<g id="node35" class="node">
<title>Node35</title>
<g id="a_node35"><a xlink:title=" ">
<polygon fill="white" stroke="#bfbfbf" points="1442.5,-698.5 1442.5,-717.5 1554.5,-717.5 1554.5,-698.5 1442.5,-698.5"/>
<text text-anchor="middle" x="1498.5" y="-705.5" font-family="Helvetica,sans-Serif" font-size="10.00">unique_ptr&lt; bool &gt;</text>
</a>
</g>
</g>
<!-- Node35&#45;&gt;Node13 -->
<g id="edge43" class="edge">
<title>Node35&#45;&gt;Node13</title>
<path fill="none" stroke="#9a32cd" stroke-dasharray="5,2" d="M1565.14,-708.17C1637.91,-708.36 1754.29,-708.66 1824.79,-708.84"/>
<polygon fill="#9a32cd" stroke="#9a32cd" points="1564.74,-704.67 1554.73,-708.14 1564.72,-711.67 1564.74,-704.67"/>
<text text-anchor="middle" x="1690.5" y="-723" font-family="Helvetica,sans-Serif" font-size="10.00"> matAssembleSwitch</text>
<text text-anchor="middle" x="1690.5" y="-712" font-family="Helvetica,sans-Serif" font-size="10.00">vecAssembleSwitch</text>
</g>
<!-- Node36 -->
<g id="node36" class="node">
<title>Node36</title>
<g id="a_node36"><a xlink:title=" ">
<polygon fill="white" stroke="#bfbfbf" points="1127,-854.5 1127,-873.5 1156,-873.5 1156,-854.5 1127,-854.5"/>
<text text-anchor="middle" x="1141.5" y="-861.5" font-family="Helvetica,sans-Serif" font-size="10.00">int</text>
</a>
</g>
</g>
<!-- Node36&#45;&gt;Node13 -->
<g id="edge44" class="edge">
<title>Node36&#45;&gt;Node13</title>
<path fill="none" stroke="#9a32cd" stroke-dasharray="5,2" d="M1166.44,-861.16C1221.45,-854.4 1355.34,-836.62 1397,-819 1406.09,-815.15 1405.81,-809.6 1415,-806 1567.57,-746.14 1645.45,-853.12 1781,-761 1794.82,-751.61 1785.64,-738.04 1799,-728 1806.58,-722.3 1815.53,-718.25 1824.75,-715.38"/>
<polygon fill="#9a32cd" stroke="#9a32cd" points="1165.76,-857.71 1156.25,-862.39 1166.6,-864.66 1165.76,-857.71"/>
<text text-anchor="middle" x="1498.5" y="-842" font-family="Helvetica,sans-Serif" font-size="10.00"> sIze</text>
<text text-anchor="middle" x="1498.5" y="-831" font-family="Helvetica,sans-Serif" font-size="10.00">loopSize</text>
<text text-anchor="middle" x="1498.5" y="-820" font-family="Helvetica,sans-Serif" font-size="10.00">nInTheLoop</text>
<text text-anchor="middle" x="1498.5" y="-809" font-family="Helvetica,sans-Serif" font-size="10.00">rAnk</text>
</g>
<!-- Node36&#45;&gt;Node38 -->
<g id="edge56" class="edge">
<title>Node36&#45;&gt;Node38</title>
<path fill="none" stroke="#9a32cd" stroke-dasharray="5,2" d="M1166.26,-866.42C1227.75,-872.77 1387.94,-889.91 1397,-897 1480.46,-962.33 1494.71,-1106.53 1497.05,-1145.26"/>
<polygon fill="#9a32cd" stroke="#9a32cd" points="1166.62,-862.94 1156.31,-865.4 1165.9,-869.9 1166.62,-862.94"/>
<text text-anchor="middle" x="1329" y="-966" font-family="Helvetica,sans-Serif" font-size="10.00"> tagNameSize</text>
<text text-anchor="middle" x="1329" y="-955" font-family="Helvetica,sans-Serif" font-size="10.00">nbDofsRow</text>
<text text-anchor="middle" x="1329" y="-944" font-family="Helvetica,sans-Serif" font-size="10.00">nbLocDofsCol</text>
<text text-anchor="middle" x="1329" y="-933" font-family="Helvetica,sans-Serif" font-size="10.00">nbDofsCol</text>
<text text-anchor="middle" x="1329" y="-922" font-family="Helvetica,sans-Serif" font-size="10.00">nbGhostDofsRow</text>
<text text-anchor="middle" x="1329" y="-911" font-family="Helvetica,sans-Serif" font-size="10.00">nbGhostDofsCol</text>
<text text-anchor="middle" x="1329" y="-900" font-family="Helvetica,sans-Serif" font-size="10.00">nbLocDofsRow</text>
</g>
<!-- Node70 -->
<g id="node70" class="node">
<title>Node70</title>
<g id="a_node70"><a xlink:href="structNavierStokesElement_1_1BlockData.html" target="_top" xlink:title=" ">
<polygon fill="white" stroke="black" points="2581,-502 2581,-532 2703,-532 2703,-502 2581,-502"/>
<text text-anchor="start" x="2589" y="-520" font-family="Helvetica,sans-Serif" font-size="10.00">NavierStokesElement</text>
<text text-anchor="middle" x="2642" y="-509" font-family="Helvetica,sans-Serif" font-size="10.00">::BlockData</text>
</a>
</g>
</g>
<!-- Node36&#45;&gt;Node70 -->
<g id="edge86" class="edge">
<title>Node36&#45;&gt;Node70</title>
<path fill="none" stroke="#9a32cd" stroke-dasharray="5,2" d="M1166.4,-865.38C1310.31,-873.45 2057.92,-912.12 2135,-849 2164.2,-825.08 2125.9,-792.27 2153,-766 2219.85,-701.2 2290.34,-790.88 2359,-728 2381.11,-707.75 2355.02,-683.39 2377,-663 2430.81,-613.09 2475.24,-667.34 2539,-631 2582.15,-606.41 2616.69,-556.92 2632.17,-532.02"/>
<polygon fill="#9a32cd" stroke="#9a32cd" points="1166.24,-861.86 1156.06,-864.79 1165.85,-868.85 1166.24,-861.86"/>
<text text-anchor="middle" x="1886" y="-888" font-family="Helvetica,sans-Serif" font-size="10.00"> iD</text>
</g>
<!-- Node37 -->
<g id="node37" class="node">
<title>Node37</title>
<g id="a_node37"><a xlink:title=" ">
<polygon fill="white" stroke="#bfbfbf" points="1415,-648.5 1415,-667.5 1582,-667.5 1582,-648.5 1415,-648.5"/>
<text text-anchor="middle" x="1498.5" y="-655.5" font-family="Helvetica,sans-Serif" font-size="10.00">function&lt; MoFEMErrorCode()&gt;</text>
</a>
</g>
</g>
<!-- Node37&#45;&gt;Node13 -->
<g id="edge45" class="edge">
<title>Node37&#45;&gt;Node13</title>
<path fill="none" stroke="#9a32cd" stroke-dasharray="5,2" d="M1578.97,-647.65C1637.23,-643.4 1717,-644.69 1781,-672 1791.12,-676.32 1789.3,-683.8 1799,-689 1807.1,-693.35 1816.13,-696.76 1825.21,-699.43"/>
<polygon fill="#9a32cd" stroke="#9a32cd" points="1578.4,-644.19 1568.72,-648.47 1578.96,-651.17 1578.4,-644.19"/>
<text text-anchor="middle" x="1690.5" y="-697" font-family="Helvetica,sans-Serif" font-size="10.00"> preProcessHook</text>
<text text-anchor="middle" x="1690.5" y="-686" font-family="Helvetica,sans-Serif" font-size="10.00">operatorHook</text>
<text text-anchor="middle" x="1690.5" y="-675" font-family="Helvetica,sans-Serif" font-size="10.00">postProcessHook</text>
</g>
<!-- Node38&#45;&gt;Node13 -->
<g id="edge46" class="edge">
<title>Node38&#45;&gt;Node13</title>
<path fill="none" stroke="#9a32cd" stroke-dasharray="5,2" d="M1517.72,-1138.42C1568.06,-1091.53 1710.03,-951.88 1781,-806 1796.56,-774.01 1773.73,-753.04 1799,-728 1806.06,-721.01 1815.08,-716.34 1824.61,-713.27"/>
<polygon fill="#9a32cd" stroke="#9a32cd" points="1515.16,-1136.02 1510.19,-1145.37 1519.91,-1141.16 1515.16,-1136.02"/>
<text text-anchor="middle" x="1690.5" y="-1058" font-family="Helvetica,sans-Serif" font-size="10.00"> problemPtr</text>
</g>
<!-- Node39 -->
<g id="node39" class="node">
<title>Node39</title>
<g id="a_node39"><a xlink:title=" ">
<polygon fill="white" stroke="#bfbfbf" points="1058,-1264 1058,-1294 1225,-1294 1225,-1264 1058,-1264"/>
<text text-anchor="start" x="1066" y="-1282" font-family="Helvetica,sans-Serif" font-size="10.00">shared_ptr&lt; NumeredEntFinite</text>
<text text-anchor="middle" x="1141.5" y="-1271" font-family="Helvetica,sans-Serif" font-size="10.00">Element_multiIndex &gt;</text>
</a>
</g>
</g>
<!-- Node39&#45;&gt;Node38 -->
<g id="edge47" class="edge">
<title>Node39&#45;&gt;Node38</title>
<path fill="none" stroke="#9a32cd" stroke-dasharray="5,2" d="M1235.2,-1276.36C1285.02,-1272.05 1346.42,-1261.96 1397,-1239 1436.76,-1220.96 1473.41,-1182.73 1489.25,-1164.74"/>
<polygon fill="#9a32cd" stroke="#9a32cd" points="1234.76,-1272.89 1225.07,-1277.18 1235.32,-1279.87 1234.76,-1272.89"/>
<text text-anchor="middle" x="1329" y="-1276" font-family="Helvetica,sans-Serif" font-size="10.00"> numeredFiniteElementsPtr</text>
</g>
<!-- Node40 -->
<g id="node40" class="node">
<title>Node40</title>
<g id="a_node40"><a xlink:title=" ">
<polygon fill="white" stroke="#bfbfbf" points="1112,-1225.5 1112,-1244.5 1171,-1244.5 1171,-1225.5 1112,-1225.5"/>
<text text-anchor="middle" x="1141.5" y="-1232.5" font-family="Helvetica,sans-Serif" font-size="10.00">BitFEId *</text>
</a>
</g>
</g>
<!-- Node40&#45;&gt;Node38 -->
<g id="edge48" class="edge">
<title>Node40&#45;&gt;Node38</title>
<path fill="none" stroke="#9a32cd" stroke-dasharray="5,2" d="M1181.42,-1232.79C1231.94,-1229.18 1322.46,-1220.16 1397,-1199 1427.05,-1190.47 1459.84,-1174.81 1479.53,-1164.66"/>
<polygon fill="#9a32cd" stroke="#9a32cd" points="1181.01,-1229.31 1171.27,-1233.48 1181.48,-1236.29 1181.01,-1229.31"/>
<text text-anchor="middle" x="1329" y="-1227" font-family="Helvetica,sans-Serif" font-size="10.00"> tagBitFEId</text>
</g>
<!-- Node41 -->
<g id="node41" class="node">
<title>Node41</title>
<g id="a_node41"><a xlink:href="classEntityHandle.html" target="_top" xlink:title=" ">
<polygon fill="white" stroke="black" points="1101.5,-1187.5 1101.5,-1206.5 1181.5,-1206.5 1181.5,-1187.5 1101.5,-1187.5"/>
<text text-anchor="middle" x="1141.5" y="-1194.5" font-family="Helvetica,sans-Serif" font-size="10.00">EntityHandle</text>
</a>
</g>
</g>
<!-- Node41&#45;&gt;Node38 -->
<g id="edge49" class="edge">
<title>Node41&#45;&gt;Node38</title>
<path fill="none" stroke="#9a32cd" stroke-dasharray="5,2" d="M1191.93,-1191.99C1243.24,-1186.69 1325.82,-1177.87 1397,-1169 1413.96,-1166.89 1432.49,-1164.36 1448.98,-1162.05"/>
<polygon fill="#9a32cd" stroke="#9a32cd" points="1191.37,-1188.53 1181.78,-1193.03 1192.09,-1195.49 1191.37,-1188.53"/>
<text text-anchor="middle" x="1329" y="-1187" font-family="Helvetica,sans-Serif" font-size="10.00"> meshset</text>
</g>
<!-- Node42 -->
<g id="node42" class="node">
<title>Node42</title>
<g id="a_node42"><a xlink:title=" ">
<polygon fill="white" stroke="#bfbfbf" points="1067,-1138 1067,-1168 1216,-1168 1216,-1138 1067,-1138"/>
<text text-anchor="start" x="1075" y="-1156" font-family="Helvetica,sans-Serif" font-size="10.00">shared_ptr&lt; MoFEM::</text>
<text text-anchor="middle" x="1141.5" y="-1145" font-family="Helvetica,sans-Serif" font-size="10.00">ComposedProblemsData &gt;</text>
</a>
</g>
</g>
<!-- Node42&#45;&gt;Node38 -->
<g id="edge50" class="edge">
<title>Node42&#45;&gt;Node38</title>
<path fill="none" stroke="#9a32cd" stroke-dasharray="5,2" d="M1226.08,-1153.47C1295.36,-1153.86 1391.47,-1154.4 1448.78,-1154.73"/>
<polygon fill="#9a32cd" stroke="#9a32cd" points="1226.08,-1149.97 1216.06,-1153.41 1226.04,-1156.97 1226.08,-1149.97"/>
<text text-anchor="middle" x="1329" y="-1157" font-family="Helvetica,sans-Serif" font-size="10.00"> composedProblemsData</text>
</g>
<!-- Node43 -->
<g id="node43" class="node">
<title>Node43</title>
<g id="a_node43"><a xlink:title=" ">
<polygon fill="white" stroke="#bfbfbf" points="1101,-1099.5 1101,-1118.5 1182,-1118.5 1182,-1099.5 1101,-1099.5"/>
<text text-anchor="middle" x="1141.5" y="-1106.5" font-family="Helvetica,sans-Serif" font-size="10.00">BitRefLevel *</text>
</a>
</g>
</g>
<!-- Node43&#45;&gt;Node38 -->
<g id="edge51" class="edge">
<title>Node43&#45;&gt;Node38</title>
<path fill="none" stroke="#9a32cd" stroke-dasharray="5,2" d="M1192.23,-1109.57C1243.79,-1110.85 1326.56,-1114.82 1397,-1127 1421.81,-1131.29 1449.31,-1139.17 1469.26,-1145.49"/>
<polygon fill="#9a32cd" stroke="#9a32cd" points="1192.11,-1106.07 1182.03,-1109.34 1191.95,-1113.06 1192.11,-1106.07"/>
<text text-anchor="middle" x="1329" y="-1141" font-family="Helvetica,sans-Serif" font-size="10.00"> tagBitRefLevelMask</text>
<text text-anchor="middle" x="1329" y="-1130" font-family="Helvetica,sans-Serif" font-size="10.00">tagBitRefLevel</text>
</g>
<!-- Node44 -->
<g id="node44" class="node">
<title>Node44</title>
<g id="a_node44"><a xlink:title=" ">
<polygon fill="white" stroke="#bfbfbf" points="1056.5,-1050 1056.5,-1080 1226.5,-1080 1226.5,-1050 1056.5,-1050"/>
<text text-anchor="start" x="1064.5" y="-1068" font-family="Helvetica,sans-Serif" font-size="10.00">shared_ptr&lt; NumeredDofEntity</text>
<text text-anchor="middle" x="1141.5" y="-1057" font-family="Helvetica,sans-Serif" font-size="10.00">_multiIndex &gt;</text>
</a>
</g>
</g>
<!-- Node44&#45;&gt;Node38 -->
<g id="edge52" class="edge">
<title>Node44&#45;&gt;Node38</title>
<path fill="none" stroke="#9a32cd" stroke-dasharray="5,2" d="M1237.01,-1061.33C1286.02,-1062.26 1346.11,-1067.89 1397,-1086 1434.09,-1099.2 1470.33,-1129.64 1487.39,-1145.31"/>
<polygon fill="#9a32cd" stroke="#9a32cd" points="1236.77,-1057.83 1226.72,-1061.2 1236.68,-1064.83 1236.77,-1057.83"/>
<text text-anchor="middle" x="1329" y="-1100" font-family="Helvetica,sans-Serif" font-size="10.00"> numeredRowDofsPtr</text>
<text text-anchor="middle" x="1329" y="-1089" font-family="Helvetica,sans-Serif" font-size="10.00">numeredColDofsPtr</text>
</g>
<!-- Node45 -->
<g id="node45" class="node">
<title>Node45</title>
<g id="a_node45"><a xlink:title=" ">
<polygon fill="white" stroke="#bfbfbf" points="1072.5,-1011.5 1072.5,-1030.5 1210.5,-1030.5 1210.5,-1011.5 1072.5,-1011.5"/>
<text text-anchor="middle" x="1141.5" y="-1018.5" font-family="Helvetica,sans-Serif" font-size="10.00">vector&lt; BlockFieldPair &gt;</text>
</a>
</g>
</g>
<!-- Node45&#45;&gt;Node38 -->
<g id="edge54" class="edge">
<title>Node45&#45;&gt;Node38</title>
<path fill="none" stroke="#9a32cd" stroke-dasharray="5,2" d="M1220.91,-1015.07C1273.35,-1014.35 1342.48,-1019.88 1397,-1047 1443.09,-1069.93 1478.76,-1123.43 1491.96,-1145.36"/>
<polygon fill="#9a32cd" stroke="#9a32cd" points="1220.57,-1011.57 1210.65,-1015.29 1220.73,-1018.57 1220.57,-1011.57"/>
<text text-anchor="middle" x="1329" y="-1050" font-family="Helvetica,sans-Serif" font-size="10.00"> emptyFieldBlocks</text>
</g>
<!-- Node46 -->
<g id="node46" class="node">
<title>Node46</title>
<g id="a_node46"><a xlink:title=" ">
<polygon fill="white" stroke="#bfbfbf" points="1063.5,-962 1063.5,-992 1219.5,-992 1219.5,-962 1063.5,-962"/>
<text text-anchor="start" x="1071.5" y="-980" font-family="Helvetica,sans-Serif" font-size="10.00">shared_ptr&lt; MoFEM::</text>
<text text-anchor="middle" x="1141.5" y="-969" font-family="Helvetica,sans-Serif" font-size="10.00">Problem::SubProblemData &gt;</text>
</a>
</g>
</g>
<!-- Node46&#45;&gt;Node38 -->
<g id="edge55" class="edge">
<title>Node46&#45;&gt;Node38</title>
<path fill="none" stroke="#9a32cd" stroke-dasharray="5,2" d="M1230.02,-976.87C1292.31,-978.27 1369.61,-983.47 1397,-1000 1454.67,-1034.79 1485.35,-1116.8 1494.52,-1145.15"/>
<polygon fill="#9a32cd" stroke="#9a32cd" points="1229.84,-973.37 1219.77,-976.67 1229.7,-980.37 1229.84,-973.37"/>
<text text-anchor="middle" x="1329" y="-1003" font-family="Helvetica,sans-Serif" font-size="10.00"> subProblemData</text>
</g>
<!-- Node47 -->
<g id="node47" class="node">
<title>Node47</title>
<g id="a_node47"><a xlink:title=" ">
<polygon fill="white" stroke="#bfbfbf" points="1040,-1351.5 1040,-1370.5 1243,-1370.5 1243,-1351.5 1040,-1351.5"/>
<text text-anchor="middle" x="1141.5" y="-1358.5" font-family="Helvetica,sans-Serif" font-size="10.00">shared_ptr&lt; SequenceDofContainer &gt;</text>
</a>
</g>
</g>
<!-- Node47&#45;&gt;Node38 -->
<g id="edge57" class="edge">
<title>Node47&#45;&gt;Node38</title>
<path fill="none" stroke="#9a32cd" stroke-dasharray="5,2" d="M1253.24,-1351.2C1316.08,-1344.84 1384.63,-1336.22 1397,-1328 1458.61,-1287.04 1487.27,-1194.48 1495.16,-1164.54"/>
<polygon fill="#9a32cd" stroke="#9a32cd" points="1252.81,-1347.72 1243.21,-1352.2 1253.51,-1354.69 1252.81,-1347.72"/>
<text text-anchor="middle" x="1329" y="-1363" font-family="Helvetica,sans-Serif" font-size="10.00"> sequenceRowDofContainer</text>
<text text-anchor="middle" x="1329" y="-1352" font-family="Helvetica,sans-Serif" font-size="10.00">sequenceColDofContainer</text>
</g>
<!-- Node48 -->
<g id="node48" class="node">
<title>Node48</title>
<g id="a_node48"><a xlink:title=" ">
<polygon fill="white" stroke="#bfbfbf" points="1097.5,-1313.5 1097.5,-1332.5 1185.5,-1332.5 1185.5,-1313.5 1097.5,-1313.5"/>
<text text-anchor="middle" x="1141.5" y="-1320.5" font-family="Helvetica,sans-Serif" font-size="10.00">BitProblemId *</text>
</a>
</g>
</g>
<!-- Node48&#45;&gt;Node38 -->
<g id="edge58" class="edge">
<title>Node48&#45;&gt;Node38</title>
<path fill="none" stroke="#9a32cd" stroke-dasharray="5,2" d="M1196.11,-1320.43C1260.48,-1316.52 1363.92,-1307.39 1397,-1288 1448.43,-1257.85 1482.17,-1190.1 1493.38,-1164.79"/>
<polygon fill="#9a32cd" stroke="#9a32cd" points="1195.52,-1316.96 1185.74,-1321.03 1195.93,-1323.94 1195.52,-1316.96"/>
<text text-anchor="middle" x="1329" y="-1318" font-family="Helvetica,sans-Serif" font-size="10.00"> tagId</text>
</g>
<!-- Node49 -->
<g id="node49" class="node">
<title>Node49</title>
<g id="a_node49"><a xlink:title=" ">
<polygon fill="white" stroke="#bfbfbf" points="1805,-787 1805,-817 1967,-817 1967,-787 1805,-787"/>
<text text-anchor="start" x="1813" y="-805" font-family="Helvetica,sans-Serif" font-size="10.00">shared_ptr&lt; const MoFEM</text>
<text text-anchor="middle" x="1886" y="-794" font-family="Helvetica,sans-Serif" font-size="10.00">::NumeredEntFiniteElement &gt;</text>
</a>
</g>
</g>
<!-- Node49&#45;&gt;Node12 -->
<g id="edge59" class="edge">
<title>Node49&#45;&gt;Node12</title>
<path fill="none" stroke="#9a32cd" stroke-dasharray="5,2" d="M1977.11,-799.78C2026.65,-795.05 2087.51,-783.22 2135,-755 2145.86,-748.55 2142.28,-739.69 2153,-733 2167.74,-723.8 2185.67,-718.12 2202.37,-714.62"/>
<polygon fill="#9a32cd" stroke="#9a32cd" points="1976.69,-796.3 1967.04,-800.66 1977.3,-803.27 1976.69,-796.3"/>
<text text-anchor="middle" x="2063" y="-802" font-family="Helvetica,sans-Serif" font-size="10.00"> numeredEntFiniteElementPtr</text>
</g>
<!-- Node50 -->
<g id="node50" class="node">
<title>Node50</title>
<g id="a_node50"><a xlink:title=" ">
<polygon fill="white" stroke="#bfbfbf" points="1864,-968.5 1864,-987.5 1908,-987.5 1908,-968.5 1864,-968.5"/>
<text text-anchor="middle" x="1886" y="-975.5" font-family="Helvetica,sans-Serif" font-size="10.00">string</text>
</a>
</g>
</g>
<!-- Node50&#45;&gt;Node3 -->
<g id="edge82" class="edge">
<title>Node50&#45;&gt;Node3</title>
<path fill="none" stroke="#9a32cd" stroke-dasharray="5,2" d="M1917.95,-986.02C1967.31,-998.49 2067.06,-1022.4 2153,-1035 2406.22,-1072.11 2472.08,-1058.3 2727,-1081 2763.07,-1084.21 2802.88,-1088.06 2837,-1091.45"/>
<polygon fill="#9a32cd" stroke="#9a32cd" points="1918.76,-982.61 1908.2,-983.54 1917.03,-989.39 1918.76,-982.61"/>
<text text-anchor="middle" x="2458" y="-1082" font-family="Helvetica,sans-Serif" font-size="10.00"> colFieldName</text>
<text text-anchor="middle" x="2458" y="-1071" font-family="Helvetica,sans-Serif" font-size="10.00">rowFieldName</text>
</g>
<!-- Node50&#45;&gt;Node12 -->
<g id="edge60" class="edge">
<title>Node50&#45;&gt;Node12</title>
<path fill="none" stroke="#9a32cd" stroke-dasharray="5,2" d="M1917.49,-965.46C1969.25,-942.71 2074.57,-889.86 2135,-814 2149.2,-796.18 2138.15,-783.28 2153,-766 2172.7,-743.08 2204.02,-727.53 2226.76,-718.54"/>
<polygon fill="#9a32cd" stroke="#9a32cd" points="1915.97,-962.3 1908.18,-969.48 1918.74,-968.73 1915.97,-962.3"/>
<text text-anchor="middle" x="2063" y="-930" font-family="Helvetica,sans-Serif" font-size="10.00"> feName</text>
</g>
<!-- Node51 -->
<g id="node51" class="node">
<title>Node51</title>
<g id="a_node51"><a xlink:title=" ">
<polygon fill="white" stroke="#bfbfbf" points="1804.5,-738 1804.5,-768 1967.5,-768 1967.5,-738 1804.5,-738"/>
<text text-anchor="start" x="1812.5" y="-756" font-family="Helvetica,sans-Serif" font-size="10.00">function&lt; bool(MoFEM</text>
<text text-anchor="middle" x="1886" y="-745" font-family="Helvetica,sans-Serif" font-size="10.00">::FEMethod *fe_method_ptr)&gt;</text>
</a>
</g>
</g>
<!-- Node51&#45;&gt;Node12 -->
<g id="edge61" class="edge">
<title>Node51&#45;&gt;Node12</title>
<path fill="none" stroke="#9a32cd" stroke-dasharray="5,2" d="M1977.98,-742.12C2048.52,-733.69 2143.82,-722.29 2202.26,-715.31"/>
<polygon fill="#9a32cd" stroke="#9a32cd" points="1977.27,-738.68 1967.76,-743.34 1978.1,-745.63 1977.27,-738.68"/>
<text text-anchor="middle" x="2063" y="-743" font-family="Helvetica,sans-Serif" font-size="10.00"> exeTestHook</text>
</g>
<!-- Node52 -->
<g id="node52" class="node">
<title>Node52</title>
<g id="a_node52"><a xlink:href="classdouble.html" target="_top" xlink:title=" ">
<polygon fill="white" stroke="black" points="2231,-399.5 2231,-418.5 2281,-418.5 2281,-399.5 2231,-399.5"/>
<text text-anchor="middle" x="2256" y="-406.5" font-family="Helvetica,sans-Serif" font-size="10.00">double</text>
</a>
</g>
</g>
<!-- Node52&#45;&gt;Node11 -->
<g id="edge62" class="edge">
<title>Node52&#45;&gt;Node11</title>
<path fill="none" stroke="#9a32cd" stroke-dasharray="5,2" d="M2291.35,-415.31C2315.32,-419.64 2348.07,-425.42 2377,-430 2412.91,-435.69 2512.52,-428.08 2539,-453 2568.07,-480.36 2546.04,-502.61 2557,-541 2581.57,-627.07 2623.41,-727.06 2636.77,-758.22"/>
<polygon fill="#9a32cd" stroke="#9a32cd" points="2291.79,-411.84 2281.32,-413.49 2290.54,-418.72 2291.79,-411.84"/>
<text text-anchor="middle" x="2458" y="-456" font-family="Helvetica,sans-Serif" font-size="10.00"> elementMeasure</text>
</g>
<!-- Node52&#45;&gt;Node70 -->
<g id="edge84" class="edge">
<title>Node52&#45;&gt;Node70</title>
<path fill="none" stroke="#9a32cd" stroke-dasharray="5,2" d="M2289.96,-395.91C2344.77,-376.33 2456.74,-345.79 2539,-386 2589.24,-410.55 2621.91,-473.12 2634.79,-501.99"/>
<polygon fill="#9a32cd" stroke="#9a32cd" points="2288.59,-392.68 2280.41,-399.42 2291,-399.25 2288.59,-392.68"/>
<text text-anchor="middle" x="2458" y="-422" font-family="Helvetica,sans-Serif" font-size="10.00"> inertiaCoef</text>
<text text-anchor="middle" x="2458" y="-411" font-family="Helvetica,sans-Serif" font-size="10.00">viscousCoef</text>
<text text-anchor="middle" x="2458" y="-400" font-family="Helvetica,sans-Serif" font-size="10.00">fluidDensity</text>
<text text-anchor="middle" x="2458" y="-389" font-family="Helvetica,sans-Serif" font-size="10.00">fluidViscosity</text>
</g>
<!-- Node53 -->
<g id="node53" class="node">
<title>Node53</title>
<g id="a_node53"><a xlink:title=" ">
<polygon fill="white" stroke="#bfbfbf" points="2170,-547.5 2170,-588.5 2342,-588.5 2342,-547.5 2170,-547.5"/>
<text text-anchor="start" x="2178" y="-576.5" font-family="Helvetica,sans-Serif" font-size="10.00">array&lt; boost::shared</text>
<text text-anchor="start" x="2178" y="-565.5" font-family="Helvetica,sans-Serif" font-size="10.00">_ptr&lt; MoFEM::EntitiesFieldData</text>
<text text-anchor="middle" x="2256" y="-554.5" font-family="Helvetica,sans-Serif" font-size="10.00"> &gt;, LASTSPACE &gt;</text>
</a>
</g>
</g>
<!-- Node53&#45;&gt;Node11 -->
<g id="edge63" class="edge">
<title>Node53&#45;&gt;Node11</title>
<path fill="none" stroke="#9a32cd" stroke-dasharray="5,2" d="M2352.39,-560.83C2410.56,-560.99 2484.04,-569.69 2539,-605 2598.26,-643.07 2629.13,-729.12 2638.15,-758.19"/>
<polygon fill="#9a32cd" stroke="#9a32cd" points="2352.07,-557.34 2342.09,-560.89 2352.11,-564.34 2352.07,-557.34"/>
<text text-anchor="middle" x="2458" y="-619" font-family="Helvetica,sans-Serif" font-size="10.00"> derivedDataOnElement</text>
<text text-anchor="middle" x="2458" y="-608" font-family="Helvetica,sans-Serif" font-size="10.00">dataOnElement</text>
</g>
<!-- Node54 -->
<g id="node54" class="node">
<title>Node54</title>
<g id="a_node54"><a xlink:title=" ">
<polygon fill="white" stroke="#bfbfbf" points="2222,-509.5 2222,-528.5 2290,-528.5 2290,-509.5 2222,-509.5"/>
<text text-anchor="middle" x="2256" y="-516.5" font-family="Helvetica,sans-Serif" font-size="10.00">EntityType</text>
</a>
</g>
</g>
<!-- Node54&#45;&gt;Node11 -->
<g id="edge64" class="edge">
<title>Node54&#45;&gt;Node11</title>
<path fill="none" stroke="#9a32cd" stroke-dasharray="5,2" d="M2300.37,-510.98C2359.98,-502.47 2467.92,-496.4 2539,-547 2614.05,-600.43 2635.25,-723.12 2639.89,-758.37"/>
<polygon fill="#9a32cd" stroke="#9a32cd" points="2299.53,-507.56 2290.17,-512.52 2300.58,-514.48 2299.53,-507.56"/>
<text text-anchor="middle" x="2458" y="-550" font-family="Helvetica,sans-Serif" font-size="10.00"> lastEvaluatedElementEntityType</text>
</g>
<!-- Node55 -->
<g id="node55" class="node">
<title>Node55</title>
<g id="a_node55"><a xlink:href="structMoFEM_1_1DeprecatedCoreInterface.html" target="_top" xlink:title="Deprecated interface functions.">
<polygon fill="white" stroke="black" points="1600,-7.5 1600,-26.5 1781,-26.5 1781,-7.5 1600,-7.5"/>
<text text-anchor="middle" x="1690.5" y="-14.5" font-family="Helvetica,sans-Serif" font-size="10.00">MoFEM::DeprecatedCoreInterface</text>
</a>
</g>
</g>
<!-- Node55&#45;&gt;Node11 -->
<g id="edge65" class="edge">
<title>Node55&#45;&gt;Node11</title>
<path fill="none" stroke="#9a32cd" stroke-dasharray="5,2" d="M1773.11,-30.21C1775.81,-31.37 1778.45,-32.63 1781,-34 1979.53,-140.62 1998.72,-217.53 2135,-397 2144.63,-409.69 2140.01,-418.78 2153,-428 2224.23,-478.54 2472.03,-445.93 2539,-502 2544.37,-506.49 2620.08,-711.26 2637.46,-758.4"/>
<polygon fill="#9a32cd" stroke="#9a32cd" points="1774.28,-26.92 1763.69,-26.65 1771.8,-33.46 1774.28,-26.92"/>
<text text-anchor="middle" x="2063" y="-400" font-family="Helvetica,sans-Serif" font-size="10.00"> mField</text>
</g>
<!-- Node56&#45;&gt;Node55 -->
<g id="edge66" class="edge">
<title>Node56&#45;&gt;Node55</title>
<path fill="none" stroke="midnightblue" d="M1214.39,-10.92C1313.43,-12.19 1491.78,-14.47 1599.54,-15.85"/>
<polygon fill="midnightblue" stroke="midnightblue" points="1214.23,-7.42 1204.18,-10.79 1214.14,-14.42 1214.23,-7.42"/>
</g>
<!-- Node57 -->
<g id="node57" class="node">
<title>Node57</title>
<g id="a_node57"><a xlink:title=" ">
<polygon fill="white" stroke="#bfbfbf" points="2172.5,-973 2172.5,-1025 2339.5,-1025 2339.5,-973 2172.5,-973"/>
<text text-anchor="start" x="2180.5" y="-1013" font-family="Helvetica,sans-Serif" font-size="10.00">function&lt; MoFEMErrorCode</text>
<text text-anchor="start" x="2180.5" y="-1002" font-family="Helvetica,sans-Serif" font-size="10.00">(ForcesAndSourcesCore *fe</text>
<text text-anchor="start" x="2180.5" y="-991" font-family="Helvetica,sans-Serif" font-size="10.00">_raw_ptr, int order_row,</text>
<text text-anchor="middle" x="2256" y="-980" font-family="Helvetica,sans-Serif" font-size="10.00"> int order_col, int order_data)&gt;</text>
</a>
</g>
</g>
<!-- Node57&#45;&gt;Node11 -->
<g id="edge69" class="edge">
<title>Node57&#45;&gt;Node11</title>
<path fill="none" stroke="#9a32cd" stroke-dasharray="5,2" d="M2349.86,-1005.45C2408.93,-1004.96 2484.32,-995.37 2539,-957 2604.32,-911.17 2631.71,-809.89 2638.94,-777.89"/>
<polygon fill="#9a32cd" stroke="#9a32cd" points="2349.78,-1001.95 2339.78,-1005.44 2349.78,-1008.95 2349.78,-1001.95"/>
<text text-anchor="middle" x="2458" y="-1007" font-family="Helvetica,sans-Serif" font-size="10.00"> setRuleHook</text>
</g>
<!-- Node58 -->
<g id="node58" class="node">
<title>Node58</title>
<g id="a_node58"><a xlink:title=" ">
<polygon fill="white" stroke="#bfbfbf" points="2155,-924 2155,-954 2357,-954 2357,-924 2155,-924"/>
<text text-anchor="start" x="2163" y="-942" font-family="Helvetica,sans-Serif" font-size="10.00">ptr_deque&lt; MoFEM::Forces</text>
<text text-anchor="middle" x="2256" y="-931" font-family="Helvetica,sans-Serif" font-size="10.00">AndSourcesCore::UserDataOperator &gt;</text>
</a>
</g>
</g>
<!-- Node58&#45;&gt;Node11 -->
<g id="edge70" class="edge">
<title>Node58&#45;&gt;Node11</title>
<path fill="none" stroke="#9a32cd" stroke-dasharray="5,2" d="M2367.41,-943.4C2422.25,-940.98 2487.6,-930.79 2539,-901 2590.86,-870.94 2625.31,-803.14 2636.78,-777.8"/>
<polygon fill="#9a32cd" stroke="#9a32cd" points="2367.17,-939.91 2357.3,-943.77 2367.42,-946.91 2367.17,-939.91"/>
<text text-anchor="middle" x="2458" y="-945" font-family="Helvetica,sans-Serif" font-size="10.00"> opPtrVector</text>
</g>
<!-- Node59 -->
<g id="node59" class="node">
<title>Node59</title>
<g id="a_node59"><a xlink:href="structMoFEM_1_1EntitiesFieldData.html" target="_top" xlink:title="data structure for finite element entity">
<polygon fill="white" stroke="black" points="2185,-607.5 2185,-626.5 2327,-626.5 2327,-607.5 2185,-607.5"/>
<text text-anchor="middle" x="2256" y="-614.5" font-family="Helvetica,sans-Serif" font-size="10.00">MoFEM::EntitiesFieldData</text>
</a>
</g>
</g>
<!-- Node59&#45;&gt;Node11 -->
<g id="edge71" class="edge">
<title>Node59&#45;&gt;Node11</title>
<path fill="none" stroke="#9a32cd" stroke-dasharray="5,2" d="M2337.1,-623.87C2395.59,-631.38 2475.42,-646.95 2539,-679 2579.71,-699.52 2617.3,-740.05 2633.11,-758.48"/>
<polygon fill="#9a32cd" stroke="#9a32cd" points="2337.53,-620.39 2327.18,-622.64 2336.67,-627.34 2337.53,-620.39"/>
<text text-anchor="middle" x="2458" y="-726" font-family="Helvetica,sans-Serif" font-size="10.00"> dataNoField</text>
<text text-anchor="middle" x="2458" y="-715" font-family="Helvetica,sans-Serif" font-size="10.00">dataL2</text>
<text text-anchor="middle" x="2458" y="-704" font-family="Helvetica,sans-Serif" font-size="10.00">dataH1</text>
<text text-anchor="middle" x="2458" y="-693" font-family="Helvetica,sans-Serif" font-size="10.00">dataHcurl</text>
<text text-anchor="middle" x="2458" y="-682" font-family="Helvetica,sans-Serif" font-size="10.00">dataHdiv</text>
</g>
<!-- Node60 -->
<g id="node60" class="node">
<title>Node60</title>
<g id="a_node60"><a xlink:title=" ">
<polygon fill="white" stroke="#bfbfbf" points="1805,-475 1805,-505 1967,-505 1967,-475 1805,-475"/>
<text text-anchor="start" x="1813" y="-493" font-family="Helvetica,sans-Serif" font-size="10.00">array&lt; std::bitset</text>
<text text-anchor="middle" x="1886" y="-482" font-family="Helvetica,sans-Serif" font-size="10.00">&lt; LASTBASE &gt;, LASTSPACE &gt;</text>
</a>
</g>
</g>
<!-- Node60&#45;&gt;Node59 -->
<g id="edge72" class="edge">
<title>Node60&#45;&gt;Node59</title>
<path fill="none" stroke="#9a32cd" stroke-dasharray="5,2" d="M1946.37,-472.57C2001.88,-460.24 2083.7,-452.79 2135,-497 2169.54,-526.77 2120.88,-565.63 2153,-598 2161.69,-606.76 2173.03,-612.19 2184.99,-615.45"/>
<polygon fill="#9a32cd" stroke="#9a32cd" points="1945.27,-469.24 1936.32,-474.92 1946.86,-476.05 1945.27,-469.24"/>
<text text-anchor="middle" x="2063" y="-511" font-family="Helvetica,sans-Serif" font-size="10.00"> brokenBasesOnSpaces</text>
<text text-anchor="middle" x="2063" y="-500" font-family="Helvetica,sans-Serif" font-size="10.00">basesOnSpaces</text>
</g>
<!-- Node61 -->
<g id="node61" class="node">
<title>Node61</title>
<g id="a_node61"><a xlink:title=" ">
<polygon fill="white" stroke="#bfbfbf" points="1809.5,-414.5 1809.5,-455.5 1962.5,-455.5 1962.5,-414.5 1809.5,-414.5"/>
<text text-anchor="start" x="1817.5" y="-443.5" font-family="Helvetica,sans-Serif" font-size="10.00">array&lt; boost::ptr_vector</text>
<text text-anchor="start" x="1817.5" y="-432.5" font-family="Helvetica,sans-Serif" font-size="10.00">&lt; MoFEM::EntitiesFieldData</text>
<text text-anchor="middle" x="1886" y="-421.5" font-family="Helvetica,sans-Serif" font-size="10.00">::EntData &gt;, MBMAXTYPE &gt;</text>
</a>
</g>
</g>
<!-- Node61&#45;&gt;Node59 -->
<g id="edge73" class="edge">
<title>Node61&#45;&gt;Node59</title>
<path fill="none" stroke="#9a32cd" stroke-dasharray="5,2" d="M1972.89,-414.66C2026.31,-407.46 2092.67,-409.29 2135,-449 2183.65,-494.64 2107.37,-549.35 2153,-598 2161.5,-607.07 2172.83,-612.62 2184.85,-615.91"/>
<polygon fill="#9a32cd" stroke="#9a32cd" points="1972.11,-411.24 1962.73,-416.16 1973.13,-418.16 1972.11,-411.24"/>
<text text-anchor="middle" x="2063" y="-452" font-family="Helvetica,sans-Serif" font-size="10.00"> dataOnEntities</text>
</g>
<!-- Node62 -->
<g id="node62" class="node">
<title>Node62</title>
<g id="a_node62"><a xlink:title=" ">
<polygon fill="white" stroke="#bfbfbf" points="1799,-650 1799,-680 1973,-680 1973,-650 1799,-650"/>
<text text-anchor="start" x="1807" y="-668" font-family="Helvetica,sans-Serif" font-size="10.00">array&lt; std::bitset</text>
<text text-anchor="middle" x="1886" y="-657" font-family="Helvetica,sans-Serif" font-size="10.00">&lt; LASTSPACE &gt;, MBMAXTYPE &gt;</text>
</a>
</g>
</g>
<!-- Node62&#45;&gt;Node59 -->
<g id="edge74" class="edge">
<title>Node62&#45;&gt;Node59</title>
<path fill="none" stroke="#9a32cd" stroke-dasharray="5,2" d="M1983.27,-652.44C2046.52,-644.19 2127.84,-633.59 2184.97,-626.13"/>
<polygon fill="#9a32cd" stroke="#9a32cd" points="1982.74,-648.98 1973.28,-653.75 1983.65,-655.92 1982.74,-648.98"/>
<text text-anchor="middle" x="2063" y="-654" font-family="Helvetica,sans-Serif" font-size="10.00"> spacesOnEntities</text>
</g>
<!-- Node63 -->
<g id="node63" class="node">
<title>Node63</title>
<g id="a_node63"><a xlink:title=" ">
<polygon fill="white" stroke="#bfbfbf" points="1801.5,-601 1801.5,-631 1970.5,-631 1970.5,-601 1801.5,-601"/>
<text text-anchor="start" x="1809.5" y="-619" font-family="Helvetica,sans-Serif" font-size="10.00">array&lt; std::bitset</text>
<text text-anchor="middle" x="1886" y="-608" font-family="Helvetica,sans-Serif" font-size="10.00">&lt; LASTBASE &gt;, MBMAXTYPE &gt;</text>
</a>
</g>
</g>
<!-- Node63&#45;&gt;Node59 -->
<g id="edge75" class="edge">
<title>Node63&#45;&gt;Node59</title>
<path fill="none" stroke="#9a32cd" stroke-dasharray="5,2" d="M1980.54,-616.25C2044.11,-616.43 2126.86,-616.65 2184.81,-616.81"/>
<polygon fill="#9a32cd" stroke="#9a32cd" points="1980.51,-612.75 1970.5,-616.23 1980.5,-619.75 1980.51,-612.75"/>
<text text-anchor="middle" x="2063" y="-620" font-family="Helvetica,sans-Serif" font-size="10.00"> basesOnEntities</text>
</g>
<!-- Node64 -->
<g id="node64" class="node">
<title>Node64</title>
<g id="a_node64"><a xlink:title=" ">
<polygon fill="white" stroke="#bfbfbf" points="1830,-562.5 1830,-581.5 1942,-581.5 1942,-562.5 1830,-562.5"/>
<text text-anchor="middle" x="1886" y="-569.5" font-family="Helvetica,sans-Serif" font-size="10.00">UBlasMatrix&lt; int &gt;</text>
</a>
</g>
</g>
<!-- Node64&#45;&gt;Node59 -->
<g id="edge76" class="edge">
<title>Node64&#45;&gt;Node59</title>
<path fill="none" stroke="#9a32cd" stroke-dasharray="5,2" d="M1952.49,-571.8C2002.94,-572.89 2074.14,-577.16 2135,-591 2143.37,-592.9 2144.74,-595.65 2153,-598 2165.99,-601.7 2180.13,-604.86 2193.62,-607.49"/>
<polygon fill="#9a32cd" stroke="#9a32cd" points="1952.42,-568.29 1942.36,-571.61 1952.3,-575.29 1952.42,-568.29"/>
<text text-anchor="middle" x="2063" y="-605" font-family="Helvetica,sans-Serif" font-size="10.00"> facesNodesOrder</text>
<text text-anchor="middle" x="2063" y="-594" font-family="Helvetica,sans-Serif" font-size="10.00">facesNodes</text>
</g>
<!-- Node65 -->
<g id="node65" class="node">
<title>Node65</title>
<g id="a_node65"><a xlink:title=" ">
<polygon fill="white" stroke="#bfbfbf" points="1827.5,-524.5 1827.5,-543.5 1944.5,-543.5 1944.5,-524.5 1827.5,-524.5"/>
<text text-anchor="middle" x="1886" y="-531.5" font-family="Helvetica,sans-Serif" font-size="10.00">bitset&lt; LASTBASE &gt;</text>
</a>
</g>
</g>
<!-- Node65&#45;&gt;Node59 -->
<g id="edge77" class="edge">
<title>Node65&#45;&gt;Node59</title>
<path fill="none" stroke="#9a32cd" stroke-dasharray="5,2" d="M1954.63,-523.72C2008.39,-519.28 2082.95,-521.89 2135,-559 2150.54,-570.08 2137.93,-586.28 2153,-598 2162.24,-605.19 2173.36,-609.95 2184.82,-613.06"/>
<polygon fill="#9a32cd" stroke="#9a32cd" points="1954.14,-520.25 1944.5,-524.65 1954.78,-527.22 1954.14,-520.25"/>
<text text-anchor="middle" x="2063" y="-562" font-family="Helvetica,sans-Serif" font-size="10.00"> bAse</text>
</g>
<!-- Node66 -->
<g id="node66" class="node">
<title>Node66</title>
<g id="a_node66"><a xlink:title=" ">
<polygon fill="white" stroke="#bfbfbf" points="2193.5,-863.5 2193.5,-904.5 2318.5,-904.5 2318.5,-863.5 2193.5,-863.5"/>
<text text-anchor="start" x="2201.5" y="-892.5" font-family="Helvetica,sans-Serif" font-size="10.00">function&lt; int(int order</text>
<text text-anchor="start" x="2201.5" y="-881.5" font-family="Helvetica,sans-Serif" font-size="10.00">_row, int order_col, int</text>
<text text-anchor="middle" x="2256" y="-870.5" font-family="Helvetica,sans-Serif" font-size="10.00"> order_data)&gt;</text>
</a>
</g>
</g>
<!-- Node66&#45;&gt;Node11 -->
<g id="edge78" class="edge">
<title>Node66&#45;&gt;Node11</title>
<path fill="none" stroke="#9a32cd" stroke-dasharray="5,2" d="M2329,-887.33C2387.76,-887.46 2471.76,-881.59 2539,-853 2579.94,-835.59 2617.12,-796.12 2632.95,-777.75"/>
<polygon fill="#9a32cd" stroke="#9a32cd" points="2328.72,-883.83 2318.69,-887.25 2328.67,-890.83 2328.72,-883.83"/>
<text text-anchor="middle" x="2458" y="-889" font-family="Helvetica,sans-Serif" font-size="10.00"> getRuleHook</text>
</g>
<!-- Node67 -->
<g id="node67" class="node">
<title>Node67</title>
<g id="a_node67"><a xlink:title=" ">
<polygon fill="white" stroke="#bfbfbf" points="2195,-814 2195,-844 2317,-844 2317,-814 2195,-814"/>
<text text-anchor="start" x="2203" y="-832" font-family="Helvetica,sans-Serif" font-size="10.00">shared_ptr&lt; MoFEM::</text>
<text text-anchor="middle" x="2256" y="-821" font-family="Helvetica,sans-Serif" font-size="10.00">BaseFunction &gt;</text>
</a>
</g>
</g>
<!-- Node67&#45;&gt;Node11 -->
<g id="edge79" class="edge">
<title>Node67&#45;&gt;Node11</title>
<path fill="none" stroke="#9a32cd" stroke-dasharray="5,2" d="M2327.21,-828.61C2384.75,-827.02 2467.99,-821.81 2539,-806 2568.14,-799.51 2600.17,-786.56 2620.41,-777.59"/>
<polygon fill="#9a32cd" stroke="#9a32cd" points="2327.04,-825.11 2317.13,-828.86 2327.21,-832.11 2327.04,-825.11"/>
<text text-anchor="middle" x="2458" y="-841" font-family="Helvetica,sans-Serif" font-size="10.00"> userPolynomialBasePtr</text>
<text text-anchor="middle" x="2458" y="-830" font-family="Helvetica,sans-Serif" font-size="10.00">elementPolynomialBasePtr</text>
</g>
<!-- Node68 -->
<g id="node68" class="node">
<title>Node68</title>
<g id="a_node68"><a xlink:href="classUBlasMatrix_3_01double_01_4.html" target="_top" xlink:title=" ">
<polygon fill="white" stroke="black" points="2190,-775.5 2190,-794.5 2322,-794.5 2322,-775.5 2190,-775.5"/>
<text text-anchor="middle" x="2256" y="-782.5" font-family="Helvetica,sans-Serif" font-size="10.00">UBlasMatrix&lt; double &gt;</text>
</a>
</g>
</g>
<!-- Node68&#45;&gt;Node11 -->
<g id="edge80" class="edge">
<title>Node68&#45;&gt;Node11</title>
<path fill="none" stroke="#9a32cd" stroke-dasharray="5,2" d="M2332.25,-781.67C2396.78,-778.81 2489.67,-774.7 2556.69,-771.73"/>
<polygon fill="#9a32cd" stroke="#9a32cd" points="2331.98,-778.18 2322.14,-782.12 2332.29,-785.17 2331.98,-778.18"/>
<text text-anchor="middle" x="2458" y="-794" font-family="Helvetica,sans-Serif" font-size="10.00"> coordsAtGaussPts</text>
<text text-anchor="middle" x="2458" y="-783" font-family="Helvetica,sans-Serif" font-size="10.00">gaussPts</text>
</g>
<!-- Node69 -->
<g id="node69" class="node">
<title>Node69</title>
<g id="a_node69"><a xlink:title=" ">
<polygon fill="white" stroke="#bfbfbf" points="2576.5,-1183.5 2576.5,-1202.5 2707.5,-1202.5 2707.5,-1183.5 2576.5,-1183.5"/>
<text text-anchor="middle" x="2642" y="-1190.5" font-family="Helvetica,sans-Serif" font-size="10.00">static const char *const</text>
</a>
</g>
</g>
<!-- Node69&#45;&gt;Node3 -->
<g id="edge81" class="edge">
<title>Node69&#45;&gt;Node3</title>
<path fill="none" stroke="#9a32cd" stroke-dasharray="5,2" d="M2699.74,-1181.16C2708.9,-1178.96 2718.25,-1176.55 2727,-1174 2784.11,-1157.37 2848.19,-1131.43 2886.53,-1115.1"/>
<polygon fill="#9a32cd" stroke="#9a32cd" points="2698.85,-1177.77 2689.91,-1183.45 2700.45,-1184.59 2698.85,-1177.77"/>
<text text-anchor="middle" x="2782" y="-1170" font-family="Helvetica,sans-Serif" font-size="10.00"> OpTypeNames</text>
</g>
<!-- Node70&#45;&gt;Node1 -->
<g id="edge83" class="edge">
<title>Node70&#45;&gt;Node1</title>
<path fill="none" stroke="#9a32cd" stroke-dasharray="5,2" d="M2677.28,-537.1C2750.96,-579.14 2931.13,-675.8 3096,-716 3181.01,-736.73 3282.79,-739.22 3345.93,-738.26"/>
<polygon fill="#9a32cd" stroke="#9a32cd" points="2678.83,-533.95 2668.42,-532.01 2675.35,-540.03 2678.83,-533.95"/>
<text text-anchor="middle" x="3051.5" y="-714" font-family="Helvetica,sans-Serif" font-size="10.00"> blockData</text>
</g>
<!-- Node71 -->
<g id="node71" class="node">
<title>Node71</title>
<g id="a_node71"><a xlink:href="classRange.html" target="_top" xlink:title=" ">
<polygon fill="white" stroke="black" points="2232.5,-341.5 2232.5,-360.5 2279.5,-360.5 2279.5,-341.5 2232.5,-341.5"/>
<text text-anchor="middle" x="2256" y="-348.5" font-family="Helvetica,sans-Serif" font-size="10.00">Range</text>
</a>
</g>
</g>
<!-- Node71&#45;&gt;Node70 -->
<g id="edge85" class="edge">
<title>Node71&#45;&gt;Node70</title>
<path fill="none" stroke="#9a32cd" stroke-dasharray="5,2" d="M2289.63,-341.53C2344.95,-327.45 2458.93,-307.18 2539,-352 2597.92,-384.98 2627.11,-467.51 2637,-501.75"/>
<polygon fill="#9a32cd" stroke="#9a32cd" points="2288.47,-338.22 2279.69,-344.15 2290.25,-344.98 2288.47,-338.22"/>
<text text-anchor="middle" x="2458" y="-355" font-family="Helvetica,sans-Serif" font-size="10.00"> eNts</text>
</g>
<!-- Node72 -->
<g id="node72" class="node">
<title>Node72</title>
<g id="a_node72"><a xlink:title=" ">
<polygon fill="white" stroke="#bfbfbf" points="3096,-677 3096,-707 3240,-707 3240,-677 3096,-677"/>
<text text-anchor="start" x="3104" y="-695" font-family="Helvetica,sans-Serif" font-size="10.00">shared_ptr&lt; NavierStokes</text>
<text text-anchor="middle" x="3168" y="-684" font-family="Helvetica,sans-Serif" font-size="10.00">Element::CommonData &gt;</text>
</a>
</g>
</g>
<!-- Node72&#45;&gt;Node1 -->
<g id="edge87" class="edge">
<title>Node72&#45;&gt;Node1</title>
<path fill="none" stroke="#9a32cd" stroke-dasharray="5,2" d="M3250.51,-698.71C3275.54,-701.58 3303.05,-705.56 3328,-711 3339.81,-713.57 3352.38,-717.19 3363.9,-720.88"/>
<polygon fill="#9a32cd" stroke="#9a32cd" points="3250.65,-695.21 3240.32,-697.59 3249.88,-702.16 3250.65,-695.21"/>
<text text-anchor="middle" x="3293" y="-714" font-family="Helvetica,sans-Serif" font-size="10.00"> commonData</text>
</g>
</g>
</svg>
