<?xml version="1.0" encoding="UTF-8" standalone="no"?>
<!DOCTYPE svg PUBLIC "-//W3C//DTD SVG 1.1//EN"
 "http://www.w3.org/Graphics/SVG/1.1/DTD/svg11.dtd">
<!-- Generated by graphviz version 2.43.0 (0)
 -->
<!-- Title: PoissonExample::OpResF_Boundary Pages: 1 -->
<svg width="1218pt" height="351pt"
 viewBox="0.00 0.00 1218.00 350.50" xmlns="http://www.w3.org/2000/svg" xmlns:xlink="http://www.w3.org/1999/xlink">
<g id="graph0" class="graph" transform="scale(1 1) rotate(0) translate(4 346.5)">
<title>PoissonExample::OpResF_Boundary</title>
<polygon fill="white" stroke="transparent" points="-4,4 -4,-346.5 1214,-346.5 1214,4 -4,4"/>
<!-- Node1 -->
<g id="node1" class="node">
<title>Node1</title>
<g id="a_node1"><a xlink:title=" ">
<polygon fill="#bfbfbf" stroke="black" points="1070,-84 1070,-114 1210,-114 1210,-84 1070,-84"/>
<text text-anchor="start" x="1078" y="-102" font-family="Helvetica,sans-Serif" font-size="10.00">PoissonExample::OpResF</text>
<text text-anchor="middle" x="1140" y="-91" font-family="Helvetica,sans-Serif" font-size="10.00">_Boundary</text>
</a>
</g>
</g>
<!-- Node2 -->
<g id="node2" class="node">
<title>Node2</title>
<g id="a_node2"><a xlink:href="structPoissonExample_1_1Op__g.html" target="_top" xlink:title="Assemble constrains vector.">
<polygon fill="white" stroke="black" points="831,-114.5 831,-133.5 959,-133.5 959,-114.5 831,-114.5"/>
<text text-anchor="middle" x="895" y="-121.5" font-family="Helvetica,sans-Serif" font-size="10.00">PoissonExample::Op_g</text>
</a>
</g>
</g>
<!-- Node2&#45;&gt;Node1 -->
<g id="edge1" class="edge">
<title>Node2&#45;&gt;Node1</title>
<path fill="none" stroke="midnightblue" d="M969.35,-116.45C1001.2,-113.18 1038.32,-109.36 1069.7,-106.13"/>
<polygon fill="midnightblue" stroke="midnightblue" points="968.8,-112.99 959.21,-117.5 969.52,-119.95 968.8,-112.99"/>
</g>
<!-- Node3 -->
<g id="node3" class="node">
<title>Node3</title>
<g id="a_node3"><a xlink:href="structPoissonExample_1_1OpBaseRhs.html" target="_top" xlink:title=" ">
<polygon fill="white" stroke="black" points="545,-250.5 545,-291.5 746,-291.5 746,-250.5 545,-250.5"/>
<text text-anchor="start" x="553" y="-279.5" font-family="Helvetica,sans-Serif" font-size="10.00">PoissonExample::OpBaseRhs</text>
<text text-anchor="start" x="553" y="-268.5" font-family="Helvetica,sans-Serif" font-size="10.00">&lt; FaceElementForcesAndSourcesCore</text>
<text text-anchor="middle" x="645.5" y="-257.5" font-family="Helvetica,sans-Serif" font-size="10.00">::UserDataOperator &gt;</text>
</a>
</g>
</g>
<!-- Node3&#45;&gt;Node2 -->
<g id="edge2" class="edge">
<title>Node3&#45;&gt;Node2</title>
<path fill="none" stroke="midnightblue" d="M734.42,-246.53C738.39,-244.79 742.27,-242.95 746,-241 804.37,-210.55 862.32,-155.79 884.52,-133.66"/>
<polygon fill="midnightblue" stroke="midnightblue" points="732.93,-243.36 725.02,-250.4 735.6,-249.83 732.93,-243.36"/>
</g>
<!-- Node4 -->
<g id="node4" class="node">
<title>Node4</title>
<g id="a_node4"><a xlink:title=" ">
<polygon fill="white" stroke="#bfbfbf" points="176,-312 176,-342 343,-342 343,-312 176,-312"/>
<text text-anchor="start" x="184" y="-330" font-family="Helvetica,sans-Serif" font-size="10.00">FaceElementForcesAndSources</text>
<text text-anchor="middle" x="259.5" y="-319" font-family="Helvetica,sans-Serif" font-size="10.00">Core::UserDataOperator</text>
</a>
</g>
</g>
<!-- Node4&#45;&gt;Node3 -->
<g id="edge3" class="edge">
<title>Node4&#45;&gt;Node3</title>
<path fill="none" stroke="midnightblue" d="M353.58,-313.43C411.42,-304.99 485.72,-294.15 544.76,-285.54"/>
<polygon fill="midnightblue" stroke="midnightblue" points="352.74,-310.01 343.35,-314.92 353.75,-316.94 352.74,-310.01"/>
</g>
<!-- Node5 -->
<g id="node5" class="node">
<title>Node5</title>
<g id="a_node5"><a xlink:title=" ">
<polygon fill="white" stroke="#bfbfbf" points="13.5,-245.5 13.5,-264.5 42.5,-264.5 42.5,-245.5 13.5,-245.5"/>
<text text-anchor="middle" x="28" y="-252.5" font-family="Helvetica,sans-Serif" font-size="10.00">int</text>
</a>
</g>
</g>
<!-- Node5&#45;&gt;Node3 -->
<g id="edge4" class="edge">
<title>Node5&#45;&gt;Node3</title>
<path fill="none" stroke="#9a32cd" stroke-dasharray="5,2" d="M52.83,-256.15C59.67,-256.45 67.13,-256.76 74,-257 238.99,-262.69 430.89,-266.9 544.77,-269.15"/>
<polygon fill="#9a32cd" stroke="#9a32cd" points="52.93,-252.65 42.78,-255.68 52.61,-259.64 52.93,-252.65"/>
<text text-anchor="middle" x="259.5" y="-278" font-family="Helvetica,sans-Serif" font-size="10.00"> nbIntegrationPts</text>
<text text-anchor="middle" x="259.5" y="-267" font-family="Helvetica,sans-Serif" font-size="10.00">nbRows</text>
</g>
<!-- Node6 -->
<g id="node6" class="node">
<title>Node6</title>
<g id="a_node6"><a xlink:href="structPoissonExample_1_1OpBaseRhs.html" target="_top" xlink:title="template class for integration oh the right hand side">
<polygon fill="white" stroke="black" points="180.5,-204 180.5,-234 338.5,-234 338.5,-204 180.5,-204"/>
<text text-anchor="start" x="188.5" y="-222" font-family="Helvetica,sans-Serif" font-size="10.00">PoissonExample::OpBaseRhs</text>
<text text-anchor="middle" x="259.5" y="-211" font-family="Helvetica,sans-Serif" font-size="10.00">&lt; OPBASE &gt;</text>
</a>
</g>
</g>
<!-- Node5&#45;&gt;Node6 -->
<g id="edge7" class="edge">
<title>Node5&#45;&gt;Node6</title>
<path fill="none" stroke="#9a32cd" stroke-dasharray="5,2" d="M52.13,-242.96C59,-239.88 66.66,-236.89 74,-235 108.25,-226.17 147.13,-221.97 180.34,-220.06"/>
<polygon fill="#9a32cd" stroke="#9a32cd" points="50.26,-239.98 42.75,-247.45 53.29,-246.29 50.26,-239.98"/>
<text text-anchor="middle" x="116" y="-249" font-family="Helvetica,sans-Serif" font-size="10.00"> nbIntegrationPts</text>
<text text-anchor="middle" x="116" y="-238" font-family="Helvetica,sans-Serif" font-size="10.00">nbRows</text>
</g>
<!-- Node6&#45;&gt;Node3 -->
<g id="edge5" class="edge">
<title>Node6&#45;&gt;Node3</title>
<path fill="none" stroke="orange" stroke-dasharray="5,2" d="M348.96,-218.53C401.18,-219.69 468.34,-223.67 527,-235 535.28,-236.6 536.96,-238.45 545,-241 554.8,-244.11 565.17,-247.32 575.37,-250.44"/>
<polygon fill="orange" stroke="orange" points="348.78,-215.03 338.72,-218.34 348.65,-222.03 348.78,-215.03"/>
<text text-anchor="start" x="361" y="-249" font-family="Helvetica,sans-Serif" font-size="10.00"> &lt; FaceElementForcesAndSources</text>
<text text-anchor="middle" x="444" y="-238" font-family="Helvetica,sans-Serif" font-size="10.00">Core::UserDataOperator &gt;</text>
</g>
<!-- Node7 -->
<g id="node7" class="node">
<title>Node7</title>
<g id="a_node7"><a xlink:href="classOPBASE.html" target="_top" xlink:title=" ">
<polygon fill="white" stroke="black" points="0,-191.5 0,-210.5 56,-210.5 56,-191.5 0,-191.5"/>
<text text-anchor="middle" x="28" y="-198.5" font-family="Helvetica,sans-Serif" font-size="10.00">OPBASE</text>
</a>
</g>
</g>
<!-- Node7&#45;&gt;Node6 -->
<g id="edge6" class="edge">
<title>Node7&#45;&gt;Node6</title>
<path fill="none" stroke="midnightblue" d="M66.51,-203.94C97.29,-206.36 141.93,-209.86 180.41,-212.88"/>
<polygon fill="midnightblue" stroke="midnightblue" points="66.47,-200.43 56.23,-203.14 65.92,-207.41 66.47,-200.43"/>
</g>
<!-- Node8 -->
<g id="node8" class="node">
<title>Node8</title>
<g id="a_node8"><a xlink:title=" ">
<polygon fill="white" stroke="#bfbfbf" points="580,-190.5 580,-231.5 711,-231.5 711,-190.5 580,-190.5"/>
<text text-anchor="start" x="588" y="-219.5" font-family="Helvetica,sans-Serif" font-size="10.00">function&lt; double(const</text>
<text text-anchor="start" x="588" y="-208.5" font-family="Helvetica,sans-Serif" font-size="10.00"> double, const double,</text>
<text text-anchor="middle" x="645.5" y="-197.5" font-family="Helvetica,sans-Serif" font-size="10.00"> const double)&gt;</text>
</a>
</g>
</g>
<!-- Node8&#45;&gt;Node2 -->
<g id="edge8" class="edge">
<title>Node8&#45;&gt;Node2</title>
<path fill="none" stroke="#9a32cd" stroke-dasharray="5,2" d="M720.81,-189.26C729.34,-186.57 737.88,-183.78 746,-181 790.67,-165.69 841.91,-145.31 870.87,-133.53"/>
<polygon fill="#9a32cd" stroke="#9a32cd" points="719.72,-185.93 711.22,-192.25 721.81,-192.62 719.72,-185.93"/>
<text text-anchor="middle" x="781.5" y="-176" font-family="Helvetica,sans-Serif" font-size="10.00"> fValue</text>
</g>
<!-- Node9 -->
<g id="node9" class="node">
<title>Node9</title>
<g id="a_node9"><a xlink:href="classFTensor_1_1Number.html" target="_top" xlink:title=" ">
<polygon fill="white" stroke="black" points="582,-152.5 582,-171.5 709,-171.5 709,-152.5 582,-152.5"/>
<text text-anchor="middle" x="645.5" y="-159.5" font-family="Helvetica,sans-Serif" font-size="10.00">FTensor::Number&lt; 2 &gt;</text>
</a>
</g>
</g>
<!-- Node9&#45;&gt;Node2 -->
<g id="edge9" class="edge">
<title>Node9&#45;&gt;Node2</title>
<path fill="none" stroke="#9a32cd" stroke-dasharray="5,2" d="M718.56,-150.94C754.45,-145.43 797.41,-138.83 831.84,-133.54"/>
<polygon fill="#9a32cd" stroke="#9a32cd" points="717.99,-147.48 708.64,-152.46 719.05,-154.4 717.99,-147.48"/>
<text text-anchor="middle" x="781.5" y="-146" font-family="Helvetica,sans-Serif" font-size="10.00"> NZ</text>
</g>
<!-- Node10 -->
<g id="node10" class="node">
<title>Node10</title>
<g id="a_node10"><a xlink:href="classFTensor_1_1Number.html" target="_top" xlink:title=" ">
<polygon fill="white" stroke="black" points="195.5,-114.5 195.5,-133.5 323.5,-133.5 323.5,-114.5 195.5,-114.5"/>
<text text-anchor="middle" x="259.5" y="-121.5" font-family="Helvetica,sans-Serif" font-size="10.00">FTensor::Number&lt; N &gt;</text>
</a>
</g>
</g>
<!-- Node10&#45;&gt;Node9 -->
<g id="edge10" class="edge">
<title>Node10&#45;&gt;Node9</title>
<path fill="none" stroke="orange" stroke-dasharray="5,2" d="M333.63,-134.66C342.83,-135.86 352.13,-137.01 361,-138 436.84,-146.49 524.4,-153.47 581.91,-157.68"/>
<polygon fill="orange" stroke="orange" points="334.07,-131.18 323.7,-133.33 333.15,-138.12 334.07,-131.18"/>
<text text-anchor="middle" x="444" y="-156" font-family="Helvetica,sans-Serif" font-size="10.00"> &lt; 2 &gt;</text>
</g>
<!-- Node12 -->
<g id="node12" class="node">
<title>Node12</title>
<g id="a_node12"><a xlink:href="classFTensor_1_1Number.html" target="_top" xlink:title=" ">
<polygon fill="white" stroke="black" points="582,-114.5 582,-133.5 709,-133.5 709,-114.5 582,-114.5"/>
<text text-anchor="middle" x="645.5" y="-121.5" font-family="Helvetica,sans-Serif" font-size="10.00">FTensor::Number&lt; 1 &gt;</text>
</a>
</g>
</g>
<!-- Node10&#45;&gt;Node12 -->
<g id="edge13" class="edge">
<title>Node10&#45;&gt;Node12</title>
<path fill="none" stroke="orange" stroke-dasharray="5,2" d="M334.24,-124C406.11,-124 514.17,-124 581.95,-124"/>
<polygon fill="orange" stroke="orange" points="333.91,-120.5 323.91,-124 333.91,-127.5 333.91,-120.5"/>
<text text-anchor="middle" x="444" y="-127" font-family="Helvetica,sans-Serif" font-size="10.00"> &lt; 1 &gt;</text>
</g>
<!-- Node13 -->
<g id="node13" class="node">
<title>Node13</title>
<g id="a_node13"><a xlink:href="classFTensor_1_1Number.html" target="_top" xlink:title=" ">
<polygon fill="white" stroke="black" points="582,-76.5 582,-95.5 709,-95.5 709,-76.5 582,-76.5"/>
<text text-anchor="middle" x="645.5" y="-83.5" font-family="Helvetica,sans-Serif" font-size="10.00">FTensor::Number&lt; 0 &gt;</text>
</a>
</g>
</g>
<!-- Node10&#45;&gt;Node13 -->
<g id="edge15" class="edge">
<title>Node10&#45;&gt;Node13</title>
<path fill="none" stroke="orange" stroke-dasharray="5,2" d="M329.63,-113.06C340.13,-111.58 350.84,-110.17 361,-109 436.79,-100.28 524.36,-93.71 581.88,-89.87"/>
<polygon fill="orange" stroke="orange" points="329.06,-109.6 319.67,-114.49 330.06,-116.53 329.06,-109.6"/>
<text text-anchor="middle" x="444" y="-112" font-family="Helvetica,sans-Serif" font-size="10.00"> &lt; 0 &gt;</text>
</g>
<!-- Node11 -->
<g id="node11" class="node">
<title>Node11</title>
<g id="a_node11"><a xlink:href="classdouble.html" target="_top" xlink:title=" ">
<polygon fill="white" stroke="black" points="620.5,-38.5 620.5,-57.5 670.5,-57.5 670.5,-38.5 620.5,-38.5"/>
<text text-anchor="middle" x="645.5" y="-45.5" font-family="Helvetica,sans-Serif" font-size="10.00">double</text>
</a>
</g>
</g>
<!-- Node11&#45;&gt;Node2 -->
<g id="edge11" class="edge">
<title>Node11&#45;&gt;Node2</title>
<path fill="none" stroke="#9a32cd" stroke-dasharray="5,2" d="M680.47,-52.72C699.89,-55.85 724.58,-60.58 746,-67 770.43,-74.32 777.39,-75.45 799,-89 808.07,-94.69 807.53,-100.02 817,-105 824.31,-108.85 832.43,-111.93 840.56,-114.41"/>
<polygon fill="#9a32cd" stroke="#9a32cd" points="680.97,-49.25 670.55,-51.18 679.9,-56.17 680.97,-49.25"/>
<text text-anchor="middle" x="781.5" y="-92" font-family="Helvetica,sans-Serif" font-size="10.00"> bEta</text>
</g>
<!-- Node12&#45;&gt;Node2 -->
<g id="edge12" class="edge">
<title>Node12&#45;&gt;Node2</title>
<path fill="none" stroke="#9a32cd" stroke-dasharray="5,2" d="M719.53,-124C754.89,-124 796.91,-124 830.86,-124"/>
<polygon fill="#9a32cd" stroke="#9a32cd" points="719.27,-120.5 709.27,-124 719.27,-127.5 719.27,-120.5"/>
<text text-anchor="middle" x="781.5" y="-127" font-family="Helvetica,sans-Serif" font-size="10.00"> NY</text>
</g>
<!-- Node13&#45;&gt;Node2 -->
<g id="edge14" class="edge">
<title>Node13&#45;&gt;Node2</title>
<path fill="none" stroke="#9a32cd" stroke-dasharray="5,2" d="M719.43,-96.89C744.64,-100.69 773.07,-105 799,-109 810.39,-110.76 822.54,-112.66 834.21,-114.5"/>
<polygon fill="#9a32cd" stroke="#9a32cd" points="719.62,-93.38 709.21,-95.36 718.58,-100.31 719.62,-93.38"/>
<text text-anchor="middle" x="781.5" y="-112" font-family="Helvetica,sans-Serif" font-size="10.00"> NX</text>
</g>
<!-- Node14 -->
<g id="node14" class="node">
<title>Node14</title>
<g id="a_node14"><a xlink:title=" ">
<polygon fill="white" stroke="#bfbfbf" points="604.5,-0.5 604.5,-19.5 686.5,-19.5 686.5,-0.5 604.5,-0.5"/>
<text text-anchor="middle" x="645.5" y="-7.5" font-family="Helvetica,sans-Serif" font-size="10.00">VectorDouble</text>
</a>
</g>
</g>
<!-- Node14&#45;&gt;Node2 -->
<g id="edge16" class="edge">
<title>Node14&#45;&gt;Node2</title>
<path fill="none" stroke="#9a32cd" stroke-dasharray="5,2" d="M697.16,-16.53C713.07,-19.41 730.52,-23.44 746,-29 771.27,-38.07 781.34,-37.78 799,-58 813.71,-74.85 800.23,-90.19 817,-105 821.33,-108.83 826.32,-111.91 831.62,-114.39"/>
<polygon fill="#9a32cd" stroke="#9a32cd" points="697.41,-13.02 686.96,-14.8 696.24,-19.92 697.41,-13.02"/>
<text text-anchor="middle" x="781.5" y="-61" font-family="Helvetica,sans-Serif" font-size="10.00"> locVec</text>
</g>
<!-- Node15 -->
<g id="node15" class="node">
<title>Node15</title>
<g id="a_node15"><a xlink:title=" ">
<polygon fill="white" stroke="#bfbfbf" points="817,-76.5 817,-95.5 973,-95.5 973,-76.5 817,-76.5"/>
<text text-anchor="middle" x="895" y="-83.5" font-family="Helvetica,sans-Serif" font-size="10.00">shared_ptr&lt; VectorDouble &gt;</text>
</a>
</g>
</g>
<!-- Node15&#45;&gt;Node1 -->
<g id="edge17" class="edge">
<title>Node15&#45;&gt;Node1</title>
<path fill="none" stroke="#9a32cd" stroke-dasharray="5,2" d="M983.52,-89.56C1005.85,-90.57 1029.82,-91.74 1052,-93 1057.74,-93.33 1063.7,-93.69 1069.68,-94.07"/>
<polygon fill="#9a32cd" stroke="#9a32cd" points="983.53,-86.05 973.38,-89.1 983.22,-93.05 983.53,-86.05"/>
<text text-anchor="middle" x="1021.5" y="-96" font-family="Helvetica,sans-Serif" font-size="10.00"> lambdaVals</text>
</g>
</g>
</svg>
