<?xml version="1.0" encoding="UTF-8" standalone="no"?>
<!DOCTYPE svg PUBLIC "-//W3C//DTD SVG 1.1//EN"
 "http://www.w3.org/Graphics/SVG/1.1/DTD/svg11.dtd">
<!-- Generated by graphviz version 2.43.0 (0)
 -->
<!-- Title: ContactOps::OpAssembleTotalContactTractionImpl&lt; DIM, GAUSS, BoundaryEleOp &gt; Pages: 1 -->
<svg width="406pt" height="128pt"
 viewBox="0.00 0.00 406.00 128.00" xmlns="http://www.w3.org/2000/svg" xmlns:xlink="http://www.w3.org/1999/xlink">
<g id="graph0" class="graph" transform="scale(1 1) rotate(0) translate(4 124)">
<title>ContactOps::OpAssembleTotalContactTractionImpl&lt; DIM, GAUSS, BoundaryEleOp &gt;</title>
<polygon fill="white" stroke="transparent" points="-4,4 -4,-124 402,-124 402,4 -4,4"/>
<!-- Node1 -->
<g id="node1" class="node">
<title>Node1</title>
<g id="a_node1"><a xlink:title=" ">
<polygon fill="#bfbfbf" stroke="black" points="98,-0.5 98,-41.5 262,-41.5 262,-0.5 98,-0.5"/>
<text text-anchor="start" x="106" y="-29.5" font-family="Helvetica,sans-Serif" font-size="10.00">ContactOps::OpAssembleTotal</text>
<text text-anchor="start" x="106" y="-18.5" font-family="Helvetica,sans-Serif" font-size="10.00">ContactTractionImpl&lt; DIM,</text>
<text text-anchor="middle" x="180" y="-7.5" font-family="Helvetica,sans-Serif" font-size="10.00"> GAUSS, BoundaryEleOp &gt;</text>
</a>
</g>
</g>
<!-- Node2 -->
<g id="node2" class="node">
<title>Node2</title>
<g id="a_node2"><a xlink:href="classBoundaryEleOp.html" target="_top" xlink:title=" ">
<polygon fill="white" stroke="black" points="0,-95 0,-114 92,-114 92,-95 0,-95"/>
<text text-anchor="middle" x="46" y="-102" font-family="Helvetica,sans-Serif" font-size="10.00">BoundaryEleOp</text>
</a>
</g>
</g>
<!-- Node2&#45;&gt;Node1 -->
<g id="edge1" class="edge">
<title>Node2&#45;&gt;Node1</title>
<path fill="none" stroke="midnightblue" d="M68.91,-89.57C90.62,-76.36 123.44,-56.4 147.78,-41.6"/>
<polygon fill="midnightblue" stroke="midnightblue" points="67.07,-86.59 60.34,-94.78 70.7,-92.57 67.07,-86.59"/>
</g>
<!-- Node3 -->
<g id="node3" class="node">
<title>Node3</title>
<g id="a_node3"><a xlink:href="classdouble.html" target="_top" xlink:title=" ">
<polygon fill="white" stroke="black" points="110,-95 110,-114 160,-114 160,-95 110,-95"/>
<text text-anchor="middle" x="135" y="-102" font-family="Helvetica,sans-Serif" font-size="10.00">double</text>
</a>
</g>
</g>
<!-- Node3&#45;&gt;Node1 -->
<g id="edge2" class="edge">
<title>Node3&#45;&gt;Node1</title>
<path fill="none" stroke="#9a32cd" stroke-dasharray="5,2" d="M132.15,-84.55C131.77,-76.62 132.45,-67.52 136,-60 139.27,-53.06 144.48,-46.89 150.18,-41.65"/>
<polygon fill="#9a32cd" stroke="#9a32cd" points="128.69,-85.1 133.19,-94.69 135.65,-84.38 128.69,-85.1"/>
<text text-anchor="middle" x="169.5" y="-63" font-family="Helvetica,sans-Serif" font-size="10.00"> scaleTraction</text>
</g>
<!-- Node4 -->
<g id="node4" class="node">
<title>Node4</title>
<g id="a_node4"><a xlink:href="classbool.html" target="_top" xlink:title=" ">
<polygon fill="white" stroke="black" points="206,-95 206,-114 244,-114 244,-95 206,-95"/>
<text text-anchor="middle" x="225" y="-102" font-family="Helvetica,sans-Serif" font-size="10.00">bool</text>
</a>
</g>
</g>
<!-- Node4&#45;&gt;Node1 -->
<g id="edge3" class="edge">
<title>Node4&#45;&gt;Node1</title>
<path fill="none" stroke="#9a32cd" stroke-dasharray="5,2" d="M216.36,-85.67C212.42,-77.74 207.62,-68.33 203,-60 199.63,-53.93 195.79,-47.43 192.23,-41.56"/>
<polygon fill="#9a32cd" stroke="#9a32cd" points="213.26,-87.29 220.81,-94.73 219.55,-84.21 213.26,-87.29"/>
<text text-anchor="middle" x="248" y="-63" font-family="Helvetica,sans-Serif" font-size="10.00"> isAxisymmetric</text>
</g>
<!-- Node5 -->
<g id="node5" class="node">
<title>Node5</title>
<g id="a_node5"><a xlink:title=" ">
<polygon fill="white" stroke="#bfbfbf" points="262,-89.5 262,-119.5 398,-119.5 398,-89.5 262,-89.5"/>
<text text-anchor="start" x="270" y="-107.5" font-family="Helvetica,sans-Serif" font-size="10.00">shared_ptr&lt; ContactOps</text>
<text text-anchor="middle" x="330" y="-96.5" font-family="Helvetica,sans-Serif" font-size="10.00">::CommonData &gt;</text>
</a>
</g>
</g>
<!-- Node5&#45;&gt;Node1 -->
<g id="edge4" class="edge">
<title>Node5&#45;&gt;Node1</title>
<path fill="none" stroke="#9a32cd" stroke-dasharray="5,2" d="M314.4,-81.24C308.16,-73.65 300.44,-65.65 292,-60 280.99,-52.63 268.43,-46.56 255.78,-41.61"/>
<polygon fill="#9a32cd" stroke="#9a32cd" points="311.66,-83.43 320.55,-89.2 317.2,-79.15 311.66,-83.43"/>
<text text-anchor="middle" x="345.5" y="-63" font-family="Helvetica,sans-Serif" font-size="10.00"> commonDataPtr</text>
</g>
</g>
</svg>
