<?xml version="1.0" encoding="UTF-8" standalone="no"?>
<!DOCTYPE svg PUBLIC "-//W3C//DTD SVG 1.1//EN"
 "http://www.w3.org/Graphics/SVG/1.1/DTD/svg11.dtd">
<!-- Generated by graphviz version 2.43.0 (0)
 -->
<!-- Title: MoFEM::VertexElementForcesAndSourcesCore::UserDataOperator Pages: 1 -->
<!--zoomable 1592 -->
<svg id="main" version="1.1" xmlns="http://www.w3.org/2000/svg" xmlns:xlink="http://www.w3.org/1999/xlink" xml:space="preserve" onload="init(evt)">
<style type="text/css"><![CDATA[
.edge:hover path { stroke: red; }
.edge:hover polygon { stroke: red; fill: red; }
]]></style>
<script type="text/javascript"><![CDATA[
var edges = document.getElementsByTagName('g');
if (edges && edges.length) {
  for (var i=0;i<edges.length;i++) {
    if (edges[i].id.substr(0,4)=='edge') {
      edges[i].setAttribute('class','edge');
    }
  }
}
]]></script>
        <defs>
                <circle id="rim" cx="0" cy="0" r="7"/>
                <circle id="rim2" cx="0" cy="0" r="3.5"/>
                <g id="zoomPlus">
                        <use xlink:href="#rim" fill="#404040">
                                <set attributeName="fill" to="#808080" begin="zoomplus.mouseover" end="zoomplus.mouseout"/>
                        </use>
                        <path d="M-4,0h8M0,-4v8" fill="none" stroke="white" stroke-width="1.5" pointer-events="none"/>
                </g>
                <g id="zoomMin">
                        <use xlink:href="#rim" fill="#404040">
                                <set attributeName="fill" to="#808080" begin="zoomminus.mouseover" end="zoomminus.mouseout"/>
                        </use>
                        <path d="M-4,0h8" fill="none" stroke="white" stroke-width="1.5" pointer-events="none"/>
                </g>
                <g id="dirArrow">
                        <path fill="none" stroke="white" stroke-width="1.5" d="M0,-3.0v7 M-2.5,-0.5L0,-3.0L2.5,-0.5"/>
                </g>
               <g id="resetDef">
                       <use xlink:href="#rim2" fill="#404040">
                               <set attributeName="fill" to="#808080" begin="reset.mouseover" end="reset.mouseout"/>
                       </use>
               </g>
        </defs>

<script type="text/javascript">
var viewWidth = 3243;
var viewHeight = 1592;
var sectionId = 'dynsection-1';
</script>
<script xlink:href="svgpan.js"/>
<svg id="graph" class="graph">
<g id="viewport">
<title>MoFEM::VertexElementForcesAndSourcesCore::UserDataOperator</title>
<polygon fill="white" stroke="transparent" points="-4,4 -4,-1588 3239,-1588 3239,4 -4,4"/>
<!-- Node1 -->
<g id="node1" class="node">
<title>Node1</title>
<g id="a_node1"><a xlink:title="default operator for VERTEX element">
<polygon fill="#bfbfbf" stroke="black" points="3044,-1187 3044,-1217 3235,-1217 3235,-1187 3044,-1187"/>
<text text-anchor="start" x="3052" y="-1205" font-family="Helvetica,sans-Serif" font-size="10.00">MoFEM::VertexElementForces</text>
<text text-anchor="middle" x="3139.5" y="-1194" font-family="Helvetica,sans-Serif" font-size="10.00">AndSourcesCore::UserDataOperator</text>
</a>
</g>
</g>
<!-- Node2 -->
<g id="node2" class="node">
<title>Node2</title>
<g id="a_node2"><a xlink:href="structMoFEM_1_1ForcesAndSourcesCore_1_1UserDataOperator.html" target="_top" xlink:title=" ">
<polygon fill="white" stroke="black" points="2837,-1187 2837,-1217 3007,-1217 3007,-1187 2837,-1187"/>
<text text-anchor="start" x="2845" y="-1205" font-family="Helvetica,sans-Serif" font-size="10.00">MoFEM::ForcesAndSourcesCore</text>
<text text-anchor="middle" x="2922" y="-1194" font-family="Helvetica,sans-Serif" font-size="10.00">::UserDataOperator</text>
</a>
</g>
</g>
<!-- Node2&#45;&gt;Node1 -->
<g id="edge1" class="edge">
<title>Node2&#45;&gt;Node1</title>
<path fill="none" stroke="midnightblue" d="M3017.49,-1202C3026.27,-1202 3035.18,-1202 3043.96,-1202"/>
<polygon fill="midnightblue" stroke="midnightblue" points="3017.24,-1198.5 3007.24,-1202 3017.24,-1205.5 3017.24,-1198.5"/>
</g>
<!-- Node3 -->
<g id="node3" class="node">
<title>Node3</title>
<g id="a_node3"><a xlink:href="structMoFEM_1_1DataOperator.html" target="_top" xlink:title="base operator to do operations at Gauss Pt. level">
<polygon fill="white" stroke="black" points="2579.5,-1416.5 2579.5,-1435.5 2704.5,-1435.5 2704.5,-1416.5 2579.5,-1416.5"/>
<text text-anchor="middle" x="2642" y="-1423.5" font-family="Helvetica,sans-Serif" font-size="10.00">MoFEM::DataOperator</text>
</a>
</g>
</g>
<!-- Node3&#45;&gt;Node2 -->
<g id="edge2" class="edge">
<title>Node3&#45;&gt;Node2</title>
<path fill="none" stroke="midnightblue" d="M2681.18,-1412.86C2718.98,-1398.55 2777.11,-1372.96 2819,-1338 2862.05,-1302.07 2897.38,-1244.56 2912.74,-1217.29"/>
<polygon fill="midnightblue" stroke="midnightblue" points="2679.72,-1409.67 2671.56,-1416.42 2682.15,-1416.23 2679.72,-1409.67"/>
</g>
<!-- Node4 -->
<g id="node4" class="node">
<title>Node4</title>
<g id="a_node4"><a xlink:title=" ">
<polygon fill="white" stroke="#bfbfbf" points="2160,-1389 2160,-1441 2352,-1441 2352,-1389 2160,-1389"/>
<text text-anchor="start" x="2168" y="-1429" font-family="Helvetica,sans-Serif" font-size="10.00">function&lt; MoFEMErrorCode</text>
<text text-anchor="start" x="2168" y="-1418" font-family="Helvetica,sans-Serif" font-size="10.00">(DataOperator *op_ptr,</text>
<text text-anchor="start" x="2168" y="-1407" font-family="Helvetica,sans-Serif" font-size="10.00"> int side, EntityType type,</text>
<text text-anchor="middle" x="2256" y="-1396" font-family="Helvetica,sans-Serif" font-size="10.00"> EntitiesFieldData::EntData &amp;data)&gt;</text>
</a>
</g>
</g>
<!-- Node4&#45;&gt;Node3 -->
<g id="edge3" class="edge">
<title>Node4&#45;&gt;Node3</title>
<path fill="none" stroke="#9a32cd" stroke-dasharray="5,2" d="M2362.55,-1418.02C2432.19,-1420.02 2521.03,-1422.56 2579.39,-1424.24"/>
<polygon fill="#9a32cd" stroke="#9a32cd" points="2362.51,-1414.52 2352.41,-1417.73 2362.31,-1421.52 2362.51,-1414.52"/>
<text text-anchor="middle" x="2458" y="-1427" font-family="Helvetica,sans-Serif" font-size="10.00"> doWorkRhsHook</text>
</g>
<!-- Node5 -->
<g id="node5" class="node">
<title>Node5</title>
<g id="a_node5"><a xlink:href="classbool.html" target="_top" xlink:title=" ">
<polygon fill="white" stroke="black" points="2237,-1316.5 2237,-1335.5 2275,-1335.5 2275,-1316.5 2237,-1316.5"/>
<text text-anchor="middle" x="2256" y="-1323.5" font-family="Helvetica,sans-Serif" font-size="10.00">bool</text>
</a>
</g>
</g>
<!-- Node5&#45;&gt;Node3 -->
<g id="edge4" class="edge">
<title>Node5&#45;&gt;Node3</title>
<path fill="none" stroke="#9a32cd" stroke-dasharray="5,2" d="M2285.54,-1321.25C2337.93,-1313.81 2452.02,-1303.54 2539,-1338 2581.4,-1354.8 2618.39,-1397.06 2633.61,-1416.25"/>
<polygon fill="#9a32cd" stroke="#9a32cd" points="2284.71,-1317.84 2275.33,-1322.78 2285.74,-1324.76 2284.71,-1317.84"/>
<text text-anchor="middle" x="2458" y="-1407" font-family="Helvetica,sans-Serif" font-size="10.00"> doTris</text>
<text text-anchor="middle" x="2458" y="-1396" font-family="Helvetica,sans-Serif" font-size="10.00">doQuads</text>
<text text-anchor="middle" x="2458" y="-1385" font-family="Helvetica,sans-Serif" font-size="10.00">sYmm</text>
<text text-anchor="middle" x="2458" y="-1374" font-family="Helvetica,sans-Serif" font-size="10.00">doPrisms</text>
<text text-anchor="middle" x="2458" y="-1363" font-family="Helvetica,sans-Serif" font-size="10.00">doTets</text>
<text text-anchor="middle" x="2458" y="-1352" font-family="Helvetica,sans-Serif" font-size="10.00">doVertices</text>
<text text-anchor="middle" x="2458" y="-1341" font-family="Helvetica,sans-Serif" font-size="10.00">doEdges</text>
</g>
<!-- Node6 -->
<g id="node6" class="node">
<title>Node6</title>
<g id="a_node6"><a xlink:title=" ">
<polygon fill="white" stroke="#bfbfbf" points="2153,-1498.5 2153,-1583.5 2359,-1583.5 2359,-1498.5 2153,-1498.5"/>
<text text-anchor="start" x="2161" y="-1571.5" font-family="Helvetica,sans-Serif" font-size="10.00">function&lt; MoFEMErrorCode</text>
<text text-anchor="start" x="2161" y="-1560.5" font-family="Helvetica,sans-Serif" font-size="10.00">(DataOperator *op_ptr,</text>
<text text-anchor="start" x="2161" y="-1549.5" font-family="Helvetica,sans-Serif" font-size="10.00"> int row_side, int col_side,</text>
<text text-anchor="start" x="2161" y="-1538.5" font-family="Helvetica,sans-Serif" font-size="10.00"> EntityType row_type, EntityType</text>
<text text-anchor="start" x="2161" y="-1527.5" font-family="Helvetica,sans-Serif" font-size="10.00"> col_type, EntitiesFieldData::EntData</text>
<text text-anchor="start" x="2161" y="-1516.5" font-family="Helvetica,sans-Serif" font-size="10.00"> &amp;row_data, EntitiesFieldData::EntData</text>
<text text-anchor="middle" x="2256" y="-1505.5" font-family="Helvetica,sans-Serif" font-size="10.00"> &amp;col_data)&gt;</text>
</a>
</g>
</g>
<!-- Node6&#45;&gt;Node3 -->
<g id="edge5" class="edge">
<title>Node6&#45;&gt;Node3</title>
<path fill="none" stroke="#9a32cd" stroke-dasharray="5,2" d="M2369.18,-1519.22C2421.48,-1507.74 2484.14,-1492.05 2539,-1473 2569.39,-1462.45 2602.98,-1445.97 2623.02,-1435.59"/>
<polygon fill="#9a32cd" stroke="#9a32cd" points="2368.23,-1515.85 2359.2,-1521.39 2369.72,-1522.69 2368.23,-1515.85"/>
<text text-anchor="middle" x="2458" y="-1519" font-family="Helvetica,sans-Serif" font-size="10.00"> doWorkLhsHook</text>
</g>
<!-- Node7 -->
<g id="node7" class="node">
<title>Node7</title>
<g id="a_node7"><a xlink:title=" ">
<polygon fill="white" stroke="#bfbfbf" points="2179,-1460.5 2179,-1479.5 2333,-1479.5 2333,-1460.5 2179,-1460.5"/>
<text text-anchor="middle" x="2256" y="-1467.5" font-family="Helvetica,sans-Serif" font-size="10.00">array&lt; bool, MBMAXTYPE &gt;</text>
</a>
</g>
</g>
<!-- Node7&#45;&gt;Node3 -->
<g id="edge6" class="edge">
<title>Node7&#45;&gt;Node3</title>
<path fill="none" stroke="#9a32cd" stroke-dasharray="5,2" d="M2343.25,-1460.91C2399.1,-1454.93 2473.39,-1446.79 2539,-1439 2552.03,-1437.45 2565.99,-1435.72 2579.26,-1434.04"/>
<polygon fill="#9a32cd" stroke="#9a32cd" points="2342.61,-1457.46 2333.04,-1462 2343.36,-1464.42 2342.61,-1457.46"/>
<text text-anchor="middle" x="2458" y="-1461" font-family="Helvetica,sans-Serif" font-size="10.00"> doEntities</text>
</g>
<!-- Node8 -->
<g id="node8" class="node">
<title>Node8</title>
<g id="a_node8"><a xlink:title=" ">
<polygon fill="white" stroke="#bfbfbf" points="2607.5,-1316.5 2607.5,-1335.5 2676.5,-1335.5 2676.5,-1316.5 2607.5,-1316.5"/>
<text text-anchor="middle" x="2642" y="-1323.5" font-family="Helvetica,sans-Serif" font-size="10.00">FieldSpace</text>
</a>
</g>
</g>
<!-- Node8&#45;&gt;Node2 -->
<g id="edge7" class="edge">
<title>Node8&#45;&gt;Node2</title>
<path fill="none" stroke="#9a32cd" stroke-dasharray="5,2" d="M2687.04,-1327.53C2724.05,-1327.1 2777.41,-1322.37 2819,-1302 2859.53,-1282.14 2893.99,-1239.98 2910.52,-1217.26"/>
<polygon fill="#9a32cd" stroke="#9a32cd" points="2686.58,-1324.03 2676.58,-1327.54 2686.59,-1331.03 2686.58,-1324.03"/>
<text text-anchor="middle" x="2782" y="-1326" font-family="Helvetica,sans-Serif" font-size="10.00"> sPace</text>
</g>
<!-- Node9 -->
<g id="node9" class="node">
<title>Node9</title>
<g id="a_node9"><a xlink:title=" ">
<polygon fill="white" stroke="#bfbfbf" points="1122.5,-1227.5 1122.5,-1246.5 1160.5,-1246.5 1160.5,-1227.5 1122.5,-1227.5"/>
<text text-anchor="middle" x="1141.5" y="-1234.5" font-family="Helvetica,sans-Serif" font-size="10.00">char</text>
</a>
</g>
</g>
<!-- Node9&#45;&gt;Node2 -->
<g id="edge8" class="edge">
<title>Node9&#45;&gt;Node2</title>
<path fill="none" stroke="#9a32cd" stroke-dasharray="5,2" d="M1170.68,-1243.84C1230.5,-1257.75 1374.74,-1288 1497.5,-1288 1497.5,-1288 1497.5,-1288 2643,-1288 2737.73,-1288 2842.82,-1241.87 2892.29,-1217.18"/>
<polygon fill="#9a32cd" stroke="#9a32cd" points="1171.38,-1240.41 1160.84,-1241.53 1169.78,-1247.23 1171.38,-1240.41"/>
<text text-anchor="middle" x="2063" y="-1291" font-family="Helvetica,sans-Serif" font-size="10.00"> opType</text>
</g>
<!-- Node37 -->
<g id="node37" class="node">
<title>Node37</title>
<g id="a_node37"><a xlink:href="structMoFEM_1_1Problem.html" target="_top" xlink:title="keeps basic data about problem">
<polygon fill="white" stroke="black" points="1449,-961.5 1449,-980.5 1548,-980.5 1548,-961.5 1449,-961.5"/>
<text text-anchor="middle" x="1498.5" y="-968.5" font-family="Helvetica,sans-Serif" font-size="10.00">MoFEM::Problem</text>
</a>
</g>
</g>
<!-- Node9&#45;&gt;Node37 -->
<g id="edge52" class="edge">
<title>Node9&#45;&gt;Node37</title>
<path fill="none" stroke="#9a32cd" stroke-dasharray="5,2" d="M1170.63,-1236.58C1233.54,-1235.35 1381.3,-1230.8 1397,-1215 1432.35,-1179.42 1382.22,-1027.97 1415,-990 1423.55,-980.1 1436.12,-974.78 1448.89,-972.07"/>
<polygon fill="#9a32cd" stroke="#9a32cd" points="1170.54,-1233.08 1160.61,-1236.76 1170.67,-1240.08 1170.54,-1233.08"/>
<text text-anchor="middle" x="1329" y="-1237" font-family="Helvetica,sans-Serif" font-size="10.00"> tagName</text>
</g>
<!-- Node10 -->
<g id="node10" class="node">
<title>Node10</title>
<g id="a_node10"><a xlink:href="structMoFEM_1_1ForcesAndSourcesCore.html" target="_top" xlink:title="structure to get information form mofem into EntitiesFieldData">
<polygon fill="white" stroke="black" points="2557,-636.5 2557,-655.5 2727,-655.5 2727,-636.5 2557,-636.5"/>
<text text-anchor="middle" x="2642" y="-643.5" font-family="Helvetica,sans-Serif" font-size="10.00">MoFEM::ForcesAndSourcesCore</text>
</a>
</g>
</g>
<!-- Node10&#45;&gt;Node2 -->
<g id="edge9" class="edge">
<title>Node10&#45;&gt;Node2</title>
<path fill="none" stroke="#9a32cd" stroke-dasharray="5,2" d="M2652.4,-664.8C2695.59,-751.18 2874.54,-1109.09 2913.49,-1186.99"/>
<polygon fill="#9a32cd" stroke="#9a32cd" points="2655.43,-663.03 2647.83,-655.65 2649.17,-666.16 2655.43,-663.03"/>
<text text-anchor="middle" x="2782" y="-994" font-family="Helvetica,sans-Serif" font-size="10.00"> ptrFE</text>
</g>
<!-- Node10&#45;&gt;Node10 -->
<g id="edge67" class="edge">
<title>Node10&#45;&gt;Node10</title>
<path fill="none" stroke="#9a32cd" stroke-dasharray="5,2" d="M2615.96,-665.03C2617.38,-670.13 2626.06,-674 2642,-674 2666.88,-674 2674.08,-664.57 2663.58,-655.76"/>
<polygon fill="#9a32cd" stroke="#9a32cd" points="2619.24,-666.29 2620.42,-655.76 2612.93,-663.25 2619.24,-666.29"/>
<text text-anchor="middle" x="2642" y="-688" font-family="Helvetica,sans-Serif" font-size="10.00"> sidePtrFE</text>
<text text-anchor="middle" x="2642" y="-677" font-family="Helvetica,sans-Serif" font-size="10.00">refinePtrFE</text>
</g>
<!-- Node11 -->
<g id="node11" class="node">
<title>Node11</title>
<g id="a_node11"><a xlink:href="structMoFEM_1_1FEMethod.html" target="_top" xlink:title="structure for User Loop Methods on finite elements">
<polygon fill="white" stroke="black" points="2202.5,-810.5 2202.5,-829.5 2309.5,-829.5 2309.5,-810.5 2202.5,-810.5"/>
<text text-anchor="middle" x="2256" y="-817.5" font-family="Helvetica,sans-Serif" font-size="10.00">MoFEM::FEMethod</text>
</a>
</g>
</g>
<!-- Node11&#45;&gt;Node10 -->
<g id="edge10" class="edge">
<title>Node11&#45;&gt;Node10</title>
<path fill="none" stroke="midnightblue" d="M2319.77,-830.62C2380.18,-837.54 2471.98,-839.12 2539,-800 2597.16,-766.05 2628.54,-684.17 2637.94,-655.84"/>
<polygon fill="midnightblue" stroke="midnightblue" points="2319.97,-827.12 2309.62,-829.37 2319.11,-834.07 2319.97,-827.12"/>
</g>
<!-- Node12 -->
<g id="node12" class="node">
<title>Node12</title>
<g id="a_node12"><a xlink:href="structMoFEM_1_1BasicMethod.html" target="_top" xlink:title="Data structure to exchange data between mofem and User Loop Methods.">
<polygon fill="white" stroke="black" points="1825,-745.5 1825,-764.5 1947,-764.5 1947,-745.5 1825,-745.5"/>
<text text-anchor="middle" x="1886" y="-752.5" font-family="Helvetica,sans-Serif" font-size="10.00">MoFEM::BasicMethod</text>
</a>
</g>
</g>
<!-- Node12&#45;&gt;Node11 -->
<g id="edge11" class="edge">
<title>Node12&#45;&gt;Node11</title>
<path fill="none" stroke="midnightblue" d="M1951.1,-766.32C2022.39,-778.91 2136.2,-799.02 2202.44,-810.72"/>
<polygon fill="midnightblue" stroke="midnightblue" points="1951.36,-762.81 1940.9,-764.52 1950.14,-769.71 1951.36,-762.81"/>
</g>
<!-- Node13 -->
<g id="node13" class="node">
<title>Node13</title>
<g id="a_node13"><a xlink:href="structMoFEM_1_1KspMethod.html" target="_top" xlink:title="data structure for ksp (linear solver) context">
<polygon fill="white" stroke="black" points="1442,-332.5 1442,-351.5 1555,-351.5 1555,-332.5 1442,-332.5"/>
<text text-anchor="middle" x="1498.5" y="-339.5" font-family="Helvetica,sans-Serif" font-size="10.00">MoFEM::KspMethod</text>
</a>
</g>
</g>
<!-- Node13&#45;&gt;Node12 -->
<g id="edge12" class="edge">
<title>Node13&#45;&gt;Node12</title>
<path fill="none" stroke="midnightblue" d="M1523.58,-357.2C1579.5,-393.93 1718.13,-493.6 1781,-616 1805.44,-663.58 1762.69,-695.72 1799,-735 1805.97,-742.54 1815.19,-747.51 1824.99,-750.72"/>
<polygon fill="midnightblue" stroke="midnightblue" points="1525.33,-354.16 1515.04,-351.66 1521.52,-360.04 1525.33,-354.16"/>
</g>
<!-- Node14 -->
<g id="node14" class="node">
<title>Node14</title>
<g id="a_node14"><a xlink:href="structMoFEM_1_1PetscData.html" target="_top" xlink:title=" ">
<polygon fill="white" stroke="black" points="1087.5,-315.5 1087.5,-334.5 1195.5,-334.5 1195.5,-315.5 1087.5,-315.5"/>
<text text-anchor="middle" x="1141.5" y="-322.5" font-family="Helvetica,sans-Serif" font-size="10.00">MoFEM::PetscData</text>
</a>
</g>
</g>
<!-- Node14&#45;&gt;Node13 -->
<g id="edge13" class="edge">
<title>Node14&#45;&gt;Node13</title>
<path fill="none" stroke="midnightblue" d="M1205.67,-328.03C1272.79,-331.24 1377.87,-336.27 1441.94,-339.34"/>
<polygon fill="midnightblue" stroke="midnightblue" points="1205.8,-324.53 1195.65,-327.55 1205.47,-331.52 1205.8,-324.53"/>
</g>
<!-- Node24 -->
<g id="node24" class="node">
<title>Node24</title>
<g id="a_node24"><a xlink:href="structMoFEM_1_1SnesMethod.html" target="_top" xlink:title="data structure for snes (nonlinear solver) context">
<polygon fill="white" stroke="black" points="1439,-231.5 1439,-250.5 1558,-250.5 1558,-231.5 1439,-231.5"/>
<text text-anchor="middle" x="1498.5" y="-238.5" font-family="Helvetica,sans-Serif" font-size="10.00">MoFEM::SnesMethod</text>
</a>
</g>
</g>
<!-- Node14&#45;&gt;Node24 -->
<g id="edge26" class="edge">
<title>Node14&#45;&gt;Node24</title>
<path fill="none" stroke="darkgreen" d="M1205.59,-317.08C1218.25,-314.39 1231.26,-310.79 1243,-306 1251.9,-302.37 1252.16,-297.78 1261,-294 1318.84,-269.26 1389.78,-255.34 1438.79,-248.04"/>
<polygon fill="darkgreen" stroke="darkgreen" points="1204.68,-313.69 1195.55,-319.06 1206.03,-320.56 1204.68,-313.69"/>
</g>
<!-- Node27 -->
<g id="node27" class="node">
<title>Node27</title>
<g id="a_node27"><a xlink:href="structMoFEM_1_1TSMethod.html" target="_top" xlink:title="data structure for TS (time stepping) context">
<polygon fill="white" stroke="black" points="1445,-589.5 1445,-608.5 1552,-608.5 1552,-589.5 1445,-589.5"/>
<text text-anchor="middle" x="1498.5" y="-596.5" font-family="Helvetica,sans-Serif" font-size="10.00">MoFEM::TSMethod</text>
</a>
</g>
</g>
<!-- Node14&#45;&gt;Node27 -->
<g id="edge32" class="edge">
<title>Node14&#45;&gt;Node27</title>
<path fill="none" stroke="darkgreen" d="M1205.69,-329.24C1218.75,-332.17 1231.9,-336.79 1243,-344 1254.79,-351.66 1249.28,-362.25 1261,-370 1312.48,-404.03 1348.06,-360.4 1397,-398 1463.52,-449.1 1489.19,-556.14 1495.71,-589.12"/>
<polygon fill="darkgreen" stroke="darkgreen" points="1206.23,-325.78 1195.74,-327.32 1204.9,-332.65 1206.23,-325.78"/>
</g>
<!-- Node15 -->
<g id="node15" class="node">
<title>Node15</title>
<g id="a_node15"><a xlink:href="structMoFEM_1_1UnknownInterface.html" target="_top" xlink:title="base class for all interface classes">
<polygon fill="white" stroke="black" points="735,-202.5 735,-221.5 883,-221.5 883,-202.5 735,-202.5"/>
<text text-anchor="middle" x="809" y="-209.5" font-family="Helvetica,sans-Serif" font-size="10.00">MoFEM::UnknownInterface</text>
</a>
</g>
</g>
<!-- Node15&#45;&gt;Node14 -->
<g id="edge14" class="edge">
<title>Node15&#45;&gt;Node14</title>
<path fill="none" stroke="midnightblue" d="M893.25,-203C936.45,-202.93 987.3,-210.67 1022,-241 1044.57,-260.73 1017.94,-285.7 1040,-306 1052.74,-317.72 1070.36,-323.27 1087.28,-325.65"/>
<polygon fill="midnightblue" stroke="midnightblue" points="892.96,-199.5 883.02,-203.16 893.07,-206.5 892.96,-199.5"/>
</g>
<!-- Node55 -->
<g id="node55" class="node">
<title>Node55</title>
<g id="a_node55"><a xlink:href="structMoFEM_1_1CoreInterface.html" target="_top" xlink:title="Interface.">
<polygon fill="white" stroke="black" points="1079,-0.5 1079,-19.5 1204,-19.5 1204,-0.5 1079,-0.5"/>
<text text-anchor="middle" x="1141.5" y="-7.5" font-family="Helvetica,sans-Serif" font-size="10.00">MoFEM::CoreInterface</text>
</a>
</g>
</g>
<!-- Node15&#45;&gt;Node55 -->
<g id="edge66" class="edge">
<title>Node15&#45;&gt;Node55</title>
<path fill="none" stroke="midnightblue" d="M814.3,-192.37C823.37,-156.03 848.14,-78.64 901,-42 953.06,-5.92 1027.03,-1.27 1078.95,-3.52"/>
<polygon fill="midnightblue" stroke="midnightblue" points="810.86,-191.71 811.97,-202.24 817.67,-193.31 810.86,-191.71"/>
</g>
<!-- Node16 -->
<g id="node16" class="node">
<title>Node16</title>
<g id="a_node16"><a xlink:title=" ">
<polygon fill="white" stroke="#bfbfbf" points="386,-932.5 386,-995.5 627,-995.5 627,-932.5 386,-932.5"/>
<text text-anchor="start" x="394" y="-983.5" font-family="Helvetica,sans-Serif" font-size="10.00">multi_index_container</text>
<text text-anchor="start" x="394" y="-972.5" font-family="Helvetica,sans-Serif" font-size="10.00">&lt; UIdTypeMap, indexed</text>
<text text-anchor="start" x="394" y="-961.5" font-family="Helvetica,sans-Serif" font-size="10.00">_by&lt; hashed_unique&lt; member</text>
<text text-anchor="start" x="394" y="-950.5" font-family="Helvetica,sans-Serif" font-size="10.00">&lt; UIdTypeMap, boost::typeindex</text>
<text text-anchor="middle" x="506.5" y="-939.5" font-family="Helvetica,sans-Serif" font-size="10.00">::type_index, &amp;UIdTypeMap::classIdx &gt; &gt; &gt; &gt;</text>
</a>
</g>
</g>
<!-- Node16&#45;&gt;Node15 -->
<g id="edge15" class="edge">
<title>Node16&#45;&gt;Node15</title>
<path fill="none" stroke="#9a32cd" stroke-dasharray="5,2" d="M508.67,-922.18C514.27,-800.69 546.78,-443.55 735,-241 743.26,-232.11 754.6,-225.9 765.88,-221.57"/>
<polygon fill="#9a32cd" stroke="#9a32cd" points="505.17,-922.06 508.24,-932.2 512.16,-922.35 505.17,-922.06"/>
<text text-anchor="middle" x="681" y="-360" font-family="Helvetica,sans-Serif" font-size="10.00"> iFaceTypeMap</text>
</g>
<!-- Node17 -->
<g id="node17" class="node">
<title>Node17</title>
<g id="a_node17"><a xlink:title=" ">
<polygon fill="white" stroke="#bfbfbf" points="0,-1109.5 0,-1128.5 125,-1128.5 125,-1109.5 0,-1109.5"/>
<text text-anchor="middle" x="62.5" y="-1116.5" font-family="Helvetica,sans-Serif" font-size="10.00">multi_index_container</text>
</a>
</g>
</g>
<!-- Node17&#45;&gt;Node12 -->
<g id="edge39" class="edge">
<title>Node17&#45;&gt;Node12</title>
<path fill="none" stroke="#9a32cd" stroke-dasharray="5,2" d="M87.08,-1133.79C151.48,-1172.7 336.81,-1275 505.5,-1275 505.5,-1275 505.5,-1275 962.5,-1275 1341.1,-1275 1576.06,-1357.33 1781,-1039 1810.43,-993.28 1768.1,-839.73 1799,-795 1809.3,-780.1 1826.62,-770.62 1843.04,-764.65"/>
<polygon fill="#9a32cd" stroke="#9a32cd" points="88.83,-1130.75 78.47,-1128.52 85.18,-1136.73 88.83,-1130.75"/>
<text text-anchor="middle" x="961.5" y="-1355" font-family="Helvetica,sans-Serif" font-size="10.00"> adjacenciesPtr</text>
<text text-anchor="middle" x="961.5" y="-1344" font-family="Helvetica,sans-Serif" font-size="10.00">refinedEntitiesPtr</text>
<text text-anchor="middle" x="961.5" y="-1333" font-family="Helvetica,sans-Serif" font-size="10.00">finiteElementsEntitiesPtr</text>
<text text-anchor="middle" x="961.5" y="-1322" font-family="Helvetica,sans-Serif" font-size="10.00">dofsPtr</text>
<text text-anchor="middle" x="961.5" y="-1311" font-family="Helvetica,sans-Serif" font-size="10.00">entitiesPtr</text>
<text text-anchor="middle" x="961.5" y="-1300" font-family="Helvetica,sans-Serif" font-size="10.00">finiteElementsPtr</text>
<text text-anchor="middle" x="961.5" y="-1289" font-family="Helvetica,sans-Serif" font-size="10.00">refinedFiniteElementsPtr</text>
<text text-anchor="middle" x="961.5" y="-1278" font-family="Helvetica,sans-Serif" font-size="10.00">fieldsPtr</text>
</g>
<!-- Node17&#45;&gt;Node16 -->
<g id="edge16" class="edge">
<title>Node17&#45;&gt;Node16</title>
<path fill="none" stroke="orange" stroke-dasharray="5,2" d="M100.35,-1106.08C169.08,-1081.98 318.6,-1029.54 415.51,-995.56"/>
<polygon fill="orange" stroke="orange" points="99.09,-1102.81 90.82,-1109.42 101.41,-1109.41 99.09,-1102.81"/>
<text text-anchor="start" x="143" y="-1126" font-family="Helvetica,sans-Serif" font-size="10.00"> &lt; UIdTypeMap, indexed</text>
<text text-anchor="start" x="143" y="-1115" font-family="Helvetica,sans-Serif" font-size="10.00">_by&lt; hashed_unique&lt; member</text>
<text text-anchor="start" x="143" y="-1104" font-family="Helvetica,sans-Serif" font-size="10.00">&lt; UIdTypeMap, boost::typeindex</text>
<text text-anchor="middle" x="255.5" y="-1093" font-family="Helvetica,sans-Serif" font-size="10.00">::type_index, &amp;UIdTypeMap::classIdx &gt; &gt; &gt; &gt;</text>
</g>
<!-- Node18 -->
<g id="node18" class="node">
<title>Node18</title>
<g id="a_node18"><a xlink:title=" ">
<polygon fill="white" stroke="#bfbfbf" points="738.5,-352.5 738.5,-371.5 879.5,-371.5 879.5,-352.5 738.5,-352.5"/>
<text text-anchor="middle" x="809" y="-359.5" font-family="Helvetica,sans-Serif" font-size="10.00">static constexpr Switches</text>
</a>
</g>
</g>
<!-- Node18&#45;&gt;Node14 -->
<g id="edge17" class="edge">
<title>Node18&#45;&gt;Node14</title>
<path fill="none" stroke="#9a32cd" stroke-dasharray="5,2" d="M889.72,-353.08C951.05,-346.21 1034.07,-336.91 1087.47,-330.94"/>
<polygon fill="#9a32cd" stroke="#9a32cd" points="889.24,-349.61 879.69,-354.2 890.01,-356.56 889.24,-349.61"/>
<text text-anchor="middle" x="961.5" y="-432" font-family="Helvetica,sans-Serif" font-size="10.00"> CtxSetX_TT</text>
<text text-anchor="middle" x="961.5" y="-421" font-family="Helvetica,sans-Serif" font-size="10.00">CtxSetX_T</text>
<text text-anchor="middle" x="961.5" y="-410" font-family="Helvetica,sans-Serif" font-size="10.00">CtxSetA</text>
<text text-anchor="middle" x="961.5" y="-399" font-family="Helvetica,sans-Serif" font-size="10.00">CtxSetB</text>
<text text-anchor="middle" x="961.5" y="-388" font-family="Helvetica,sans-Serif" font-size="10.00">CtxSetTime</text>
<text text-anchor="middle" x="961.5" y="-377" font-family="Helvetica,sans-Serif" font-size="10.00">CtxSetNone</text>
<text text-anchor="middle" x="961.5" y="-366" font-family="Helvetica,sans-Serif" font-size="10.00">CtxSetF</text>
<text text-anchor="middle" x="961.5" y="-355" font-family="Helvetica,sans-Serif" font-size="10.00">CtxSetX</text>
</g>
<!-- Node19 -->
<g id="node19" class="node">
<title>Node19</title>
<g id="a_node19"><a xlink:title=" ">
<polygon fill="white" stroke="#bfbfbf" points="791.5,-518.5 791.5,-537.5 826.5,-537.5 826.5,-518.5 791.5,-518.5"/>
<text text-anchor="middle" x="809" y="-525.5" font-family="Helvetica,sans-Serif" font-size="10.00">Mat</text>
</a>
</g>
</g>
<!-- Node19&#45;&gt;Node13 -->
<g id="edge23" class="edge">
<title>Node19&#45;&gt;Node13</title>
<path fill="none" stroke="#9a32cd" stroke-dasharray="5,2" d="M836.42,-536.34C878.83,-548.05 963.27,-564.35 1022,-530 1036.09,-521.76 1026.8,-507.6 1040,-498 1114.44,-443.86 1155.4,-485.24 1243,-457 1335.76,-427.1 1439.75,-373.26 1480.15,-351.5"/>
<polygon fill="#9a32cd" stroke="#9a32cd" points="837.17,-532.91 826.59,-533.49 835.22,-539.64 837.17,-532.91"/>
<text text-anchor="middle" x="1141.5" y="-512" font-family="Helvetica,sans-Serif" font-size="10.00"> ksp_A</text>
<text text-anchor="middle" x="1141.5" y="-501" font-family="Helvetica,sans-Serif" font-size="10.00">ksp_B</text>
</g>
<!-- Node19&#45;&gt;Node14 -->
<g id="edge18" class="edge">
<title>Node19&#45;&gt;Node14</title>
<path fill="none" stroke="#9a32cd" stroke-dasharray="5,2" d="M836.6,-521.94C854.72,-517.87 879.28,-512.45 901,-508 954.63,-497.01 984.49,-524.87 1022,-485 1065.29,-438.99 996.69,-389.99 1040,-344 1052.11,-331.14 1069.99,-325.4 1087.33,-323.2"/>
<polygon fill="#9a32cd" stroke="#9a32cd" points="835.73,-518.55 826.74,-524.17 837.27,-525.38 835.73,-518.55"/>
<text text-anchor="middle" x="961.5" y="-522" font-family="Helvetica,sans-Serif" font-size="10.00"> A</text>
<text text-anchor="middle" x="961.5" y="-511" font-family="Helvetica,sans-Serif" font-size="10.00">B</text>
</g>
<!-- Node19&#45;&gt;Node24 -->
<g id="edge28" class="edge">
<title>Node19&#45;&gt;Node24</title>
<path fill="none" stroke="#9a32cd" stroke-dasharray="5,2" d="M836.82,-521.93C852.99,-516.78 872.43,-507.66 883,-492 913.04,-447.48 862.3,-288.24 901,-251 939.11,-214.33 1296.12,-229.81 1438.9,-237.57"/>
<polygon fill="#9a32cd" stroke="#9a32cd" points="835.47,-518.67 826.8,-524.76 837.38,-525.41 835.47,-518.67"/>
<text text-anchor="middle" x="1141.5" y="-244" font-family="Helvetica,sans-Serif" font-size="10.00"> snes_A</text>
<text text-anchor="middle" x="1141.5" y="-233" font-family="Helvetica,sans-Serif" font-size="10.00">snes_B</text>
</g>
<!-- Node19&#45;&gt;Node27 -->
<g id="edge33" class="edge">
<title>Node19&#45;&gt;Node27</title>
<path fill="none" stroke="#9a32cd" stroke-dasharray="5,2" d="M833.36,-542.95C873.61,-567.74 959.52,-616.35 1040,-634 1194.98,-668 1240.49,-658.08 1397,-632 1424.53,-627.41 1454.8,-616.64 1474.85,-608.64"/>
<polygon fill="#9a32cd" stroke="#9a32cd" points="835.14,-539.94 824.8,-537.62 831.44,-545.88 835.14,-539.94"/>
<text text-anchor="middle" x="1141.5" y="-670" font-family="Helvetica,sans-Serif" font-size="10.00"> ts_A</text>
<text text-anchor="middle" x="1141.5" y="-659" font-family="Helvetica,sans-Serif" font-size="10.00">ts_B</text>
</g>
<!-- Node20 -->
<g id="node20" class="node">
<title>Node20</title>
<g id="a_node20"><a xlink:title=" ">
<polygon fill="white" stroke="#bfbfbf" points="772.5,-463.5 772.5,-482.5 845.5,-482.5 845.5,-463.5 772.5,-463.5"/>
<text text-anchor="middle" x="809" y="-470.5" font-family="Helvetica,sans-Serif" font-size="10.00">bitset&lt; 8 &gt;</text>
</a>
</g>
</g>
<!-- Node20&#45;&gt;Node14 -->
<g id="edge19" class="edge">
<title>Node20&#45;&gt;Node14</title>
<path fill="none" stroke="#9a32cd" stroke-dasharray="5,2" d="M856.12,-472.82C911.25,-471.6 998.95,-466.1 1022,-444 1054.6,-412.75 1008.21,-376.07 1040,-344 1052.38,-331.52 1070.21,-325.85 1087.43,-323.59"/>
<polygon fill="#9a32cd" stroke="#9a32cd" points="855.83,-469.33 845.9,-473.01 855.96,-476.33 855.83,-469.33"/>
<text text-anchor="middle" x="961.5" y="-474" font-family="Helvetica,sans-Serif" font-size="10.00"> data_ctx</text>
</g>
<!-- Node21 -->
<g id="node21" class="node">
<title>Node21</title>
<g id="a_node21"><a xlink:title=" ">
<polygon fill="white" stroke="#bfbfbf" points="792,-250.5 792,-269.5 826,-269.5 826,-250.5 792,-250.5"/>
<text text-anchor="middle" x="809" y="-257.5" font-family="Helvetica,sans-Serif" font-size="10.00">Vec</text>
</a>
</g>
</g>
<!-- Node21&#45;&gt;Node13 -->
<g id="edge24" class="edge">
<title>Node21&#45;&gt;Node13</title>
<path fill="none" stroke="#9a32cd" stroke-dasharray="5,2" d="M835.85,-250.01C903.63,-225.22 1091.7,-165.62 1243,-204 1344.82,-229.83 1450.02,-305.46 1485.21,-332.37"/>
<polygon fill="#9a32cd" stroke="#9a32cd" points="834.53,-246.76 826.38,-253.53 836.98,-253.32 834.53,-246.76"/>
<text text-anchor="middle" x="1141.5" y="-207" font-family="Helvetica,sans-Serif" font-size="10.00"> ksp_f</text>
</g>
<!-- Node21&#45;&gt;Node14 -->
<g id="edge20" class="edge">
<title>Node21&#45;&gt;Node14</title>
<path fill="none" stroke="#9a32cd" stroke-dasharray="5,2" d="M836.14,-253.64C878.83,-244.81 964.5,-233.84 1022,-271 1036.69,-280.5 1025.98,-295.54 1040,-306 1053.52,-316.09 1070.84,-321.31 1087.29,-323.88"/>
<polygon fill="#9a32cd" stroke="#9a32cd" points="835.27,-250.24 826.25,-255.8 836.77,-257.08 835.27,-250.24"/>
<text text-anchor="middle" x="961.5" y="-307" font-family="Helvetica,sans-Serif" font-size="10.00"> f</text>
<text text-anchor="middle" x="961.5" y="-296" font-family="Helvetica,sans-Serif" font-size="10.00">x</text>
<text text-anchor="middle" x="961.5" y="-285" font-family="Helvetica,sans-Serif" font-size="10.00">x_t</text>
<text text-anchor="middle" x="961.5" y="-274" font-family="Helvetica,sans-Serif" font-size="10.00">x_tt</text>
</g>
<!-- Node21&#45;&gt;Node24 -->
<g id="edge29" class="edge">
<title>Node21&#45;&gt;Node24</title>
<path fill="none" stroke="#9a32cd" stroke-dasharray="5,2" d="M836.32,-255.44C851.85,-251.47 870.81,-244.17 883,-231 901.33,-211.19 885.64,-195.19 901,-173 945.53,-108.68 965.99,-90.37 1040,-65 1115.18,-39.23 1340.92,-29.7 1397,-86 1440.03,-129.2 1373.98,-176.89 1415,-222 1421.43,-229.07 1429.91,-233.77 1438.99,-236.86"/>
<polygon fill="#9a32cd" stroke="#9a32cd" points="835.22,-252.1 826.23,-257.7 836.75,-258.93 835.22,-252.1"/>
<text text-anchor="middle" x="1141.5" y="-79" font-family="Helvetica,sans-Serif" font-size="10.00"> snes_x</text>
<text text-anchor="middle" x="1141.5" y="-68" font-family="Helvetica,sans-Serif" font-size="10.00">snes_f</text>
</g>
<!-- Node21&#45;&gt;Node27 -->
<g id="edge37" class="edge">
<title>Node21&#45;&gt;Node27</title>
<path fill="none" stroke="#9a32cd" stroke-dasharray="5,2" d="M831.34,-275.58C849.16,-287.91 875.66,-304.71 901,-315 952.15,-335.76 979.18,-308.17 1022,-343 1036.81,-355.05 1024.63,-370.67 1040,-382 1113.26,-436.01 1158.71,-374.67 1243,-409 1352.79,-453.72 1457.68,-557.34 1488.46,-589.38"/>
<polygon fill="#9a32cd" stroke="#9a32cd" points="833.06,-272.5 822.87,-269.6 829.02,-278.22 833.06,-272.5"/>
<text text-anchor="middle" x="1141.5" y="-445" font-family="Helvetica,sans-Serif" font-size="10.00"> ts_u</text>
<text text-anchor="middle" x="1141.5" y="-434" font-family="Helvetica,sans-Serif" font-size="10.00">ts_F</text>
<text text-anchor="middle" x="1141.5" y="-423" font-family="Helvetica,sans-Serif" font-size="10.00">ts_u_t</text>
<text text-anchor="middle" x="1141.5" y="-412" font-family="Helvetica,sans-Serif" font-size="10.00">ts_u_tt</text>
</g>
<!-- Node22 -->
<g id="node22" class="node">
<title>Node22</title>
<g id="a_node22"><a xlink:title=" ">
<polygon fill="white" stroke="#bfbfbf" points="1124,-277.5 1124,-296.5 1159,-296.5 1159,-277.5 1124,-277.5"/>
<text text-anchor="middle" x="1141.5" y="-284.5" font-family="Helvetica,sans-Serif" font-size="10.00">KSP</text>
</a>
</g>
</g>
<!-- Node22&#45;&gt;Node13 -->
<g id="edge21" class="edge">
<title>Node22&#45;&gt;Node13</title>
<path fill="none" stroke="#9a32cd" stroke-dasharray="5,2" d="M1169.48,-288.83C1216.15,-292.27 1314.83,-300.77 1397,-316 1420.04,-320.27 1445.59,-326.91 1465.17,-332.41"/>
<polygon fill="#9a32cd" stroke="#9a32cd" points="1169.52,-285.32 1159.29,-288.1 1169.02,-292.31 1169.52,-285.32"/>
<text text-anchor="middle" x="1329" y="-319" font-family="Helvetica,sans-Serif" font-size="10.00"> ksp</text>
</g>
<!-- Node23 -->
<g id="node23" class="node">
<title>Node23</title>
<g id="a_node23"><a xlink:title=" ">
<polygon fill="white" stroke="#bfbfbf" points="1104.5,-353.5 1104.5,-372.5 1178.5,-372.5 1178.5,-353.5 1104.5,-353.5"/>
<text text-anchor="middle" x="1141.5" y="-360.5" font-family="Helvetica,sans-Serif" font-size="10.00">KSPContext</text>
</a>
</g>
</g>
<!-- Node23&#45;&gt;Node13 -->
<g id="edge22" class="edge">
<title>Node23&#45;&gt;Node13</title>
<path fill="none" stroke="#9a32cd" stroke-dasharray="5,2" d="M1189.19,-360.24C1254.3,-356.39 1372.2,-349.41 1441.81,-345.29"/>
<polygon fill="#9a32cd" stroke="#9a32cd" points="1188.6,-356.77 1178.82,-360.85 1189.01,-363.75 1188.6,-356.77"/>
<text text-anchor="middle" x="1329" y="-359" font-family="Helvetica,sans-Serif" font-size="10.00"> ksp_ctx</text>
</g>
<!-- Node24&#45;&gt;Node12 -->
<g id="edge25" class="edge">
<title>Node24&#45;&gt;Node12</title>
<path fill="none" stroke="midnightblue" d="M1544.41,-253.52C1609.44,-274.28 1727.82,-322.58 1781,-411 1818.17,-472.79 1752.61,-679.8 1799,-735 1805.71,-742.98 1814.92,-748.13 1824.83,-751.39"/>
<polygon fill="midnightblue" stroke="midnightblue" points="1545.42,-250.17 1534.84,-250.54 1543.34,-256.85 1545.42,-250.17"/>
</g>
<!-- Node25 -->
<g id="node25" class="node">
<title>Node25</title>
<g id="a_node25"><a xlink:title=" ">
<polygon fill="white" stroke="#bfbfbf" points="1120.5,-96.5 1120.5,-115.5 1162.5,-115.5 1162.5,-96.5 1120.5,-96.5"/>
<text text-anchor="middle" x="1141.5" y="-103.5" font-family="Helvetica,sans-Serif" font-size="10.00">SNES</text>
</a>
</g>
</g>
<!-- Node25&#45;&gt;Node24 -->
<g id="edge27" class="edge">
<title>Node25&#45;&gt;Node24</title>
<path fill="none" stroke="#9a32cd" stroke-dasharray="5,2" d="M1172.92,-98.65C1225.77,-87.86 1334.86,-74.63 1397,-131 1427.54,-158.7 1386.3,-192.4 1415,-222 1421.55,-228.75 1429.98,-233.32 1438.94,-236.37"/>
<polygon fill="#9a32cd" stroke="#9a32cd" points="1171.87,-95.3 1162.83,-100.82 1173.34,-102.14 1171.87,-95.3"/>
<text text-anchor="middle" x="1329" y="-134" font-family="Helvetica,sans-Serif" font-size="10.00"> snes</text>
</g>
<!-- Node26 -->
<g id="node26" class="node">
<title>Node26</title>
<g id="a_node26"><a xlink:title=" ">
<polygon fill="white" stroke="#bfbfbf" points="1101.5,-134.5 1101.5,-153.5 1181.5,-153.5 1181.5,-134.5 1101.5,-134.5"/>
<text text-anchor="middle" x="1141.5" y="-141.5" font-family="Helvetica,sans-Serif" font-size="10.00">SNESContext</text>
</a>
</g>
</g>
<!-- Node26&#45;&gt;Node24 -->
<g id="edge30" class="edge">
<title>Node26&#45;&gt;Node24</title>
<path fill="none" stroke="#9a32cd" stroke-dasharray="5,2" d="M1191.86,-141.42C1246.81,-141.01 1335.92,-147.97 1397,-191 1410.02,-200.17 1402.18,-212.54 1415,-222 1422.1,-227.23 1430.4,-231.06 1438.95,-233.85"/>
<polygon fill="#9a32cd" stroke="#9a32cd" points="1191.62,-137.92 1181.68,-141.58 1191.73,-144.92 1191.62,-137.92"/>
<text text-anchor="middle" x="1329" y="-194" font-family="Helvetica,sans-Serif" font-size="10.00"> snes_ctx</text>
</g>
<!-- Node27&#45;&gt;Node12 -->
<g id="edge31" class="edge">
<title>Node27&#45;&gt;Node12</title>
<path fill="none" stroke="midnightblue" d="M1562.22,-610.12C1623.65,-623.67 1717.09,-651.68 1781,-705 1792.94,-714.96 1786.43,-725.85 1799,-735 1806.68,-740.59 1815.69,-744.65 1824.93,-747.59"/>
<polygon fill="midnightblue" stroke="midnightblue" points="1562.78,-606.66 1552.27,-607.99 1561.31,-613.5 1562.78,-606.66"/>
</g>
<!-- Node28 -->
<g id="node28" class="node">
<title>Node28</title>
<g id="a_node28"><a xlink:title=" ">
<polygon fill="white" stroke="#bfbfbf" points="1109,-567.5 1109,-586.5 1174,-586.5 1174,-567.5 1109,-567.5"/>
<text text-anchor="middle" x="1141.5" y="-574.5" font-family="Helvetica,sans-Serif" font-size="10.00">PetscReal</text>
</a>
</g>
</g>
<!-- Node28&#45;&gt;Node27 -->
<g id="edge34" class="edge">
<title>Node28&#45;&gt;Node27</title>
<path fill="none" stroke="#9a32cd" stroke-dasharray="5,2" d="M1184.02,-569.38C1234.67,-561.34 1322.73,-551.44 1397,-564 1425.42,-568.81 1456.52,-580.75 1476.48,-589.35"/>
<polygon fill="#9a32cd" stroke="#9a32cd" points="1183.4,-565.93 1174.1,-571 1184.54,-572.84 1183.4,-565.93"/>
<text text-anchor="middle" x="1329" y="-600" font-family="Helvetica,sans-Serif" font-size="10.00"> ts_a</text>
<text text-anchor="middle" x="1329" y="-589" font-family="Helvetica,sans-Serif" font-size="10.00">ts_t</text>
<text text-anchor="middle" x="1329" y="-578" font-family="Helvetica,sans-Serif" font-size="10.00">ts_dt</text>
<text text-anchor="middle" x="1329" y="-567" font-family="Helvetica,sans-Serif" font-size="10.00">ts_aa</text>
</g>
<!-- Node29 -->
<g id="node29" class="node">
<title>Node29</title>
<g id="a_node29"><a xlink:title=" ">
<polygon fill="white" stroke="#bfbfbf" points="1108,-529.5 1108,-548.5 1175,-548.5 1175,-529.5 1108,-529.5"/>
<text text-anchor="middle" x="1141.5" y="-536.5" font-family="Helvetica,sans-Serif" font-size="10.00">TSContext</text>
</a>
</g>
</g>
<!-- Node29&#45;&gt;Node27 -->
<g id="edge35" class="edge">
<title>Node29&#45;&gt;Node27</title>
<path fill="none" stroke="#9a32cd" stroke-dasharray="5,2" d="M1185.39,-533.71C1236.69,-528.78 1324.69,-524.75 1397,-544 1431.21,-553.11 1466.44,-576.14 1484.72,-589.33"/>
<polygon fill="#9a32cd" stroke="#9a32cd" points="1184.92,-530.24 1175.33,-534.74 1185.63,-537.21 1184.92,-530.24"/>
<text text-anchor="middle" x="1329" y="-547" font-family="Helvetica,sans-Serif" font-size="10.00"> ts_ctx</text>
</g>
<!-- Node30 -->
<g id="node30" class="node">
<title>Node30</title>
<g id="a_node30"><a xlink:title=" ">
<polygon fill="white" stroke="#bfbfbf" points="1113.5,-701.5 1113.5,-720.5 1169.5,-720.5 1169.5,-701.5 1113.5,-701.5"/>
<text text-anchor="middle" x="1141.5" y="-708.5" font-family="Helvetica,sans-Serif" font-size="10.00">PetscInt</text>
</a>
</g>
</g>
<!-- Node30&#45;&gt;Node27 -->
<g id="edge36" class="edge">
<title>Node30&#45;&gt;Node27</title>
<path fill="none" stroke="#9a32cd" stroke-dasharray="5,2" d="M1179.75,-705.61C1247.99,-695.67 1387.04,-675.08 1397,-671 1434.14,-655.79 1470.65,-624.38 1487.63,-608.56"/>
<polygon fill="#9a32cd" stroke="#9a32cd" points="1179.22,-702.15 1169.83,-707.05 1180.23,-709.08 1179.22,-702.15"/>
<text text-anchor="middle" x="1329" y="-697" font-family="Helvetica,sans-Serif" font-size="10.00"> ts_step</text>
</g>
<!-- Node31 -->
<g id="node31" class="node">
<title>Node31</title>
<g id="a_node31"><a xlink:title=" ">
<polygon fill="white" stroke="#bfbfbf" points="1127,-605.5 1127,-624.5 1156,-624.5 1156,-605.5 1127,-605.5"/>
<text text-anchor="middle" x="1141.5" y="-612.5" font-family="Helvetica,sans-Serif" font-size="10.00">TS</text>
</a>
</g>
</g>
<!-- Node31&#45;&gt;Node27 -->
<g id="edge38" class="edge">
<title>Node31&#45;&gt;Node27</title>
<path fill="none" stroke="#9a32cd" stroke-dasharray="5,2" d="M1166.25,-615.64C1211.31,-616.66 1312.28,-617.96 1397,-612 1412.62,-610.9 1429.53,-609 1444.94,-606.98"/>
<polygon fill="#9a32cd" stroke="#9a32cd" points="1166.12,-612.14 1156.04,-615.4 1165.95,-619.14 1166.12,-612.14"/>
<text text-anchor="middle" x="1329" y="-620" font-family="Helvetica,sans-Serif" font-size="10.00"> ts</text>
</g>
<!-- Node32 -->
<g id="node32" class="node">
<title>Node32</title>
<g id="a_node32"><a xlink:title=" ">
<polygon fill="white" stroke="#bfbfbf" points="1454,-193.5 1454,-212.5 1543,-212.5 1543,-193.5 1454,-193.5"/>
<text text-anchor="middle" x="1498.5" y="-200.5" font-family="Helvetica,sans-Serif" font-size="10.00">pair&lt; int, int &gt;</text>
</a>
</g>
</g>
<!-- Node32&#45;&gt;Node12 -->
<g id="edge40" class="edge">
<title>Node32&#45;&gt;Node12</title>
<path fill="none" stroke="#9a32cd" stroke-dasharray="5,2" d="M1553.1,-196.45C1618.06,-191.86 1725.67,-195.67 1781,-261 1815.07,-301.22 1765.45,-694.36 1799,-735 1805.64,-743.04 1814.81,-748.22 1824.72,-751.49"/>
<polygon fill="#9a32cd" stroke="#9a32cd" points="1552.75,-192.97 1543.06,-197.25 1553.3,-199.94 1552.75,-192.97"/>
<text text-anchor="middle" x="1690.5" y="-264" font-family="Helvetica,sans-Serif" font-size="10.00"> loHiFERank</text>
</g>
<!-- Node33 -->
<g id="node33" class="node">
<title>Node33</title>
<g id="a_node33"><a xlink:title=" ">
<polygon fill="white" stroke="#bfbfbf" points="1428.5,-155.5 1428.5,-174.5 1568.5,-174.5 1568.5,-155.5 1428.5,-155.5"/>
<text text-anchor="middle" x="1498.5" y="-162.5" font-family="Helvetica,sans-Serif" font-size="10.00">weak_ptr&lt; CacheTuple &gt;</text>
</a>
</g>
</g>
<!-- Node33&#45;&gt;Node12 -->
<g id="edge41" class="edge">
<title>Node33&#45;&gt;Node12</title>
<path fill="none" stroke="#9a32cd" stroke-dasharray="5,2" d="M1539.08,-152.73C1600.49,-136.43 1718.17,-116.62 1781,-181 1824.02,-225.08 1759.92,-687.4 1799,-735 1805.61,-743.06 1814.78,-748.24 1824.68,-751.52"/>
<polygon fill="#9a32cd" stroke="#9a32cd" points="1538.08,-149.37 1529.36,-155.4 1539.94,-156.12 1538.08,-149.37"/>
<text text-anchor="middle" x="1690.5" y="-184" font-family="Helvetica,sans-Serif" font-size="10.00"> cacheWeakPtr</text>
</g>
<!-- Node34 -->
<g id="node34" class="node">
<title>Node34</title>
<g id="a_node34"><a xlink:title=" ">
<polygon fill="white" stroke="#bfbfbf" points="1442.5,-999.5 1442.5,-1018.5 1554.5,-1018.5 1554.5,-999.5 1442.5,-999.5"/>
<text text-anchor="middle" x="1498.5" y="-1006.5" font-family="Helvetica,sans-Serif" font-size="10.00">unique_ptr&lt; bool &gt;</text>
</a>
</g>
</g>
<!-- Node34&#45;&gt;Node12 -->
<g id="edge42" class="edge">
<title>Node34&#45;&gt;Node12</title>
<path fill="none" stroke="#9a32cd" stroke-dasharray="5,2" d="M1564.64,-1013.11C1629.56,-1013.33 1727.14,-1002.43 1781,-942 1824.79,-892.86 1760.29,-848.24 1799,-795 1809.85,-780.08 1827.66,-770.56 1844.27,-764.57"/>
<polygon fill="#9a32cd" stroke="#9a32cd" points="1564.55,-1009.61 1554.51,-1012.99 1564.46,-1016.61 1564.55,-1009.61"/>
<text text-anchor="middle" x="1690.5" y="-1027" font-family="Helvetica,sans-Serif" font-size="10.00"> matAssembleSwitch</text>
<text text-anchor="middle" x="1690.5" y="-1016" font-family="Helvetica,sans-Serif" font-size="10.00">vecAssembleSwitch</text>
</g>
<!-- Node35 -->
<g id="node35" class="node">
<title>Node35</title>
<g id="a_node35"><a xlink:title=" ">
<polygon fill="white" stroke="#bfbfbf" points="1127,-741.5 1127,-760.5 1156,-760.5 1156,-741.5 1127,-741.5"/>
<text text-anchor="middle" x="1141.5" y="-748.5" font-family="Helvetica,sans-Serif" font-size="10.00">int</text>
</a>
</g>
</g>
<!-- Node35&#45;&gt;Node12 -->
<g id="edge43" class="edge">
<title>Node35&#45;&gt;Node12</title>
<path fill="none" stroke="#9a32cd" stroke-dasharray="5,2" d="M1166.2,-746.55C1190.05,-742.28 1227.94,-736.04 1261,-733 1403.09,-719.95 1439.46,-721.66 1582,-728 1666.42,-731.75 1763.67,-741.36 1824.74,-748.04"/>
<polygon fill="#9a32cd" stroke="#9a32cd" points="1165.51,-743.12 1156.3,-748.36 1166.77,-750.01 1165.51,-743.12"/>
<text text-anchor="middle" x="1498.5" y="-764" font-family="Helvetica,sans-Serif" font-size="10.00"> sIze</text>
<text text-anchor="middle" x="1498.5" y="-753" font-family="Helvetica,sans-Serif" font-size="10.00">loopSize</text>
<text text-anchor="middle" x="1498.5" y="-742" font-family="Helvetica,sans-Serif" font-size="10.00">nInTheLoop</text>
<text text-anchor="middle" x="1498.5" y="-731" font-family="Helvetica,sans-Serif" font-size="10.00">rAnk</text>
</g>
<!-- Node35&#45;&gt;Node37 -->
<g id="edge55" class="edge">
<title>Node35&#45;&gt;Node37</title>
<path fill="none" stroke="#9a32cd" stroke-dasharray="5,2" d="M1166.1,-747.56C1222.09,-739.95 1360.96,-724.32 1397,-751 1419.03,-767.31 1404.71,-784.59 1415,-810 1439.17,-869.68 1477.53,-937.02 1491.86,-961.48"/>
<polygon fill="#9a32cd" stroke="#9a32cd" points="1165.48,-744.12 1156.06,-748.97 1166.45,-751.05 1165.48,-744.12"/>
<text text-anchor="middle" x="1329" y="-820" font-family="Helvetica,sans-Serif" font-size="10.00"> tagNameSize</text>
<text text-anchor="middle" x="1329" y="-809" font-family="Helvetica,sans-Serif" font-size="10.00">nbDofsRow</text>
<text text-anchor="middle" x="1329" y="-798" font-family="Helvetica,sans-Serif" font-size="10.00">nbLocDofsCol</text>
<text text-anchor="middle" x="1329" y="-787" font-family="Helvetica,sans-Serif" font-size="10.00">nbDofsCol</text>
<text text-anchor="middle" x="1329" y="-776" font-family="Helvetica,sans-Serif" font-size="10.00">nbGhostDofsRow</text>
<text text-anchor="middle" x="1329" y="-765" font-family="Helvetica,sans-Serif" font-size="10.00">nbGhostDofsCol</text>
<text text-anchor="middle" x="1329" y="-754" font-family="Helvetica,sans-Serif" font-size="10.00">nbLocDofsRow</text>
</g>
<!-- Node36 -->
<g id="node36" class="node">
<title>Node36</title>
<g id="a_node36"><a xlink:title=" ">
<polygon fill="white" stroke="#bfbfbf" points="1415,-781.5 1415,-800.5 1582,-800.5 1582,-781.5 1415,-781.5"/>
<text text-anchor="middle" x="1498.5" y="-788.5" font-family="Helvetica,sans-Serif" font-size="10.00">function&lt; MoFEMErrorCode()&gt;</text>
</a>
</g>
</g>
<!-- Node36&#45;&gt;Node12 -->
<g id="edge44" class="edge">
<title>Node36&#45;&gt;Node12</title>
<path fill="none" stroke="#9a32cd" stroke-dasharray="5,2" d="M1592.21,-782.34C1664.4,-775.6 1762.51,-766.44 1824.8,-760.62"/>
<polygon fill="#9a32cd" stroke="#9a32cd" points="1591.83,-778.86 1582.2,-783.28 1592.48,-785.83 1591.83,-778.86"/>
<text text-anchor="middle" x="1690.5" y="-807" font-family="Helvetica,sans-Serif" font-size="10.00"> preProcessHook</text>
<text text-anchor="middle" x="1690.5" y="-796" font-family="Helvetica,sans-Serif" font-size="10.00">operatorHook</text>
<text text-anchor="middle" x="1690.5" y="-785" font-family="Helvetica,sans-Serif" font-size="10.00">postProcessHook</text>
</g>
<!-- Node37&#45;&gt;Node12 -->
<g id="edge45" class="edge">
<title>Node37&#45;&gt;Node12</title>
<path fill="none" stroke="#9a32cd" stroke-dasharray="5,2" d="M1535.01,-957.68C1591.51,-935.28 1703.4,-885.86 1781,-819 1791.1,-810.3 1788.64,-803.4 1799,-795 1815.76,-781.41 1837.88,-771.26 1855.5,-764.58"/>
<polygon fill="#9a32cd" stroke="#9a32cd" points="1533.49,-954.52 1525.45,-961.42 1536.04,-961.03 1533.49,-954.52"/>
<text text-anchor="middle" x="1690.5" y="-930" font-family="Helvetica,sans-Serif" font-size="10.00"> problemPtr</text>
</g>
<!-- Node38 -->
<g id="node38" class="node">
<title>Node38</title>
<g id="a_node38"><a xlink:title=" ">
<polygon fill="white" stroke="#bfbfbf" points="1058,-926 1058,-956 1225,-956 1225,-926 1058,-926"/>
<text text-anchor="start" x="1066" y="-944" font-family="Helvetica,sans-Serif" font-size="10.00">shared_ptr&lt; NumeredEntFinite</text>
<text text-anchor="middle" x="1141.5" y="-933" font-family="Helvetica,sans-Serif" font-size="10.00">Element_multiIndex &gt;</text>
</a>
</g>
</g>
<!-- Node38&#45;&gt;Node37 -->
<g id="edge46" class="edge">
<title>Node38&#45;&gt;Node37</title>
<path fill="none" stroke="#9a32cd" stroke-dasharray="5,2" d="M1235.18,-947.82C1283.44,-951.49 1343.42,-956.23 1397,-961 1413.94,-962.51 1432.47,-964.31 1448.96,-965.96"/>
<polygon fill="#9a32cd" stroke="#9a32cd" points="1235.3,-944.32 1225.06,-947.05 1234.77,-951.3 1235.3,-944.32"/>
<text text-anchor="middle" x="1329" y="-964" font-family="Helvetica,sans-Serif" font-size="10.00"> numeredFiniteElementsPtr</text>
</g>
<!-- Node39 -->
<g id="node39" class="node">
<title>Node39</title>
<g id="a_node39"><a xlink:title=" ">
<polygon fill="white" stroke="#bfbfbf" points="1112,-887.5 1112,-906.5 1171,-906.5 1171,-887.5 1112,-887.5"/>
<text text-anchor="middle" x="1141.5" y="-894.5" font-family="Helvetica,sans-Serif" font-size="10.00">BitFEId *</text>
</a>
</g>
</g>
<!-- Node39&#45;&gt;Node37 -->
<g id="edge47" class="edge">
<title>Node39&#45;&gt;Node37</title>
<path fill="none" stroke="#9a32cd" stroke-dasharray="5,2" d="M1181.18,-900.7C1231.44,-906.01 1321.67,-917.28 1397,-936 1423.9,-942.68 1453.78,-953.55 1473.91,-961.41"/>
<polygon fill="#9a32cd" stroke="#9a32cd" points="1181.39,-897.2 1171.08,-899.66 1180.67,-904.16 1181.39,-897.2"/>
<text text-anchor="middle" x="1329" y="-939" font-family="Helvetica,sans-Serif" font-size="10.00"> tagBitFEId</text>
</g>
<!-- Node40 -->
<g id="node40" class="node">
<title>Node40</title>
<g id="a_node40"><a xlink:href="classEntityHandle.html" target="_top" xlink:title=" ">
<polygon fill="white" stroke="black" points="1101.5,-849.5 1101.5,-868.5 1181.5,-868.5 1181.5,-849.5 1101.5,-849.5"/>
<text text-anchor="middle" x="1141.5" y="-856.5" font-family="Helvetica,sans-Serif" font-size="10.00">EntityHandle</text>
</a>
</g>
</g>
<!-- Node40&#45;&gt;Node37 -->
<g id="edge48" class="edge">
<title>Node40&#45;&gt;Node37</title>
<path fill="none" stroke="#9a32cd" stroke-dasharray="5,2" d="M1191.63,-859.38C1244.3,-861.35 1329.44,-869.12 1397,-897 1434.65,-912.54 1471.2,-945.17 1487.96,-961.4"/>
<polygon fill="#9a32cd" stroke="#9a32cd" points="1191.66,-855.88 1181.55,-859.06 1191.43,-862.88 1191.66,-855.88"/>
<text text-anchor="middle" x="1329" y="-900" font-family="Helvetica,sans-Serif" font-size="10.00"> meshset</text>
</g>
<!-- Node41 -->
<g id="node41" class="node">
<title>Node41</title>
<g id="a_node41"><a xlink:title=" ">
<polygon fill="white" stroke="#bfbfbf" points="1067,-800 1067,-830 1216,-830 1216,-800 1067,-800"/>
<text text-anchor="start" x="1075" y="-818" font-family="Helvetica,sans-Serif" font-size="10.00">shared_ptr&lt; MoFEM::</text>
<text text-anchor="middle" x="1141.5" y="-807" font-family="Helvetica,sans-Serif" font-size="10.00">ComposedProblemsData &gt;</text>
</a>
</g>
</g>
<!-- Node41&#45;&gt;Node37 -->
<g id="edge49" class="edge">
<title>Node41&#45;&gt;Node37</title>
<path fill="none" stroke="#9a32cd" stroke-dasharray="5,2" d="M1226.37,-826.15C1299.05,-835.92 1393.19,-848.88 1397,-851 1445.46,-877.92 1480.51,-938.14 1492.74,-961.49"/>
<polygon fill="#9a32cd" stroke="#9a32cd" points="1226.65,-822.65 1216.27,-824.79 1225.72,-829.59 1226.65,-822.65"/>
<text text-anchor="middle" x="1329" y="-854" font-family="Helvetica,sans-Serif" font-size="10.00"> composedProblemsData</text>
</g>
<!-- Node42 -->
<g id="node42" class="node">
<title>Node42</title>
<g id="a_node42"><a xlink:title=" ">
<polygon fill="white" stroke="#bfbfbf" points="1101,-1189.5 1101,-1208.5 1182,-1208.5 1182,-1189.5 1101,-1189.5"/>
<text text-anchor="middle" x="1141.5" y="-1196.5" font-family="Helvetica,sans-Serif" font-size="10.00">BitRefLevel *</text>
</a>
</g>
</g>
<!-- Node42&#45;&gt;Node37 -->
<g id="edge50" class="edge">
<title>Node42&#45;&gt;Node37</title>
<path fill="none" stroke="#9a32cd" stroke-dasharray="5,2" d="M1192.47,-1196.63C1262.51,-1192.82 1382.93,-1184.27 1397,-1170 1425.23,-1141.38 1388.43,-1020.17 1415,-990 1423.55,-980.29 1435.97,-975.02 1448.59,-972.27"/>
<polygon fill="#9a32cd" stroke="#9a32cd" points="1191.9,-1193.16 1182.1,-1197.18 1192.27,-1200.15 1191.9,-1193.16"/>
<text text-anchor="middle" x="1329" y="-1207" font-family="Helvetica,sans-Serif" font-size="10.00"> tagBitRefLevelMask</text>
<text text-anchor="middle" x="1329" y="-1196" font-family="Helvetica,sans-Serif" font-size="10.00">tagBitRefLevel</text>
</g>
<!-- Node43 -->
<g id="node43" class="node">
<title>Node43</title>
<g id="a_node43"><a xlink:title=" ">
<polygon fill="white" stroke="#bfbfbf" points="1056.5,-1140 1056.5,-1170 1226.5,-1170 1226.5,-1140 1056.5,-1140"/>
<text text-anchor="start" x="1064.5" y="-1158" font-family="Helvetica,sans-Serif" font-size="10.00">shared_ptr&lt; NumeredDofEntity</text>
<text text-anchor="middle" x="1141.5" y="-1147" font-family="Helvetica,sans-Serif" font-size="10.00">_multiIndex &gt;</text>
</a>
</g>
</g>
<!-- Node43&#45;&gt;Node37 -->
<g id="edge51" class="edge">
<title>Node43&#45;&gt;Node37</title>
<path fill="none" stroke="#9a32cd" stroke-dasharray="5,2" d="M1237,-1149.43C1304.54,-1144.52 1385.45,-1136.38 1397,-1125 1440.13,-1082.52 1374.25,-1034.76 1415,-990 1423.71,-980.44 1436.18,-975.2 1448.79,-972.45"/>
<polygon fill="#9a32cd" stroke="#9a32cd" points="1236.44,-1145.96 1226.72,-1150.16 1236.94,-1152.94 1236.44,-1145.96"/>
<text text-anchor="middle" x="1329" y="-1162" font-family="Helvetica,sans-Serif" font-size="10.00"> numeredRowDofsPtr</text>
<text text-anchor="middle" x="1329" y="-1151" font-family="Helvetica,sans-Serif" font-size="10.00">numeredColDofsPtr</text>
</g>
<!-- Node44 -->
<g id="node44" class="node">
<title>Node44</title>
<g id="a_node44"><a xlink:title=" ">
<polygon fill="white" stroke="#bfbfbf" points="1072.5,-1101.5 1072.5,-1120.5 1210.5,-1120.5 1210.5,-1101.5 1072.5,-1101.5"/>
<text text-anchor="middle" x="1141.5" y="-1108.5" font-family="Helvetica,sans-Serif" font-size="10.00">vector&lt; BlockFieldPair &gt;</text>
</a>
</g>
</g>
<!-- Node44&#45;&gt;Node37 -->
<g id="edge53" class="edge">
<title>Node44&#45;&gt;Node37</title>
<path fill="none" stroke="#9a32cd" stroke-dasharray="5,2" d="M1221.02,-1112.24C1286.17,-1111.53 1372.02,-1106.02 1397,-1083 1427.96,-1054.47 1385.76,-1020.29 1415,-990 1423.88,-980.8 1436.25,-975.66 1448.72,-972.88"/>
<polygon fill="#9a32cd" stroke="#9a32cd" points="1220.73,-1108.74 1210.76,-1112.31 1220.78,-1115.74 1220.73,-1108.74"/>
<text text-anchor="middle" x="1329" y="-1115" font-family="Helvetica,sans-Serif" font-size="10.00"> emptyFieldBlocks</text>
</g>
<!-- Node45 -->
<g id="node45" class="node">
<title>Node45</title>
<g id="a_node45"><a xlink:title=" ">
<polygon fill="white" stroke="#bfbfbf" points="1063.5,-1052 1063.5,-1082 1219.5,-1082 1219.5,-1052 1063.5,-1052"/>
<text text-anchor="start" x="1071.5" y="-1070" font-family="Helvetica,sans-Serif" font-size="10.00">shared_ptr&lt; MoFEM::</text>
<text text-anchor="middle" x="1141.5" y="-1059" font-family="Helvetica,sans-Serif" font-size="10.00">Problem::SubProblemData &gt;</text>
</a>
</g>
</g>
<!-- Node45&#45;&gt;Node37 -->
<g id="edge54" class="edge">
<title>Node45&#45;&gt;Node37</title>
<path fill="none" stroke="#9a32cd" stroke-dasharray="5,2" d="M1229.68,-1068.23C1292.93,-1067.34 1371.64,-1062 1397,-1042 1416.2,-1026.86 1396.81,-1006.34 1415,-990 1424.29,-981.65 1436.51,-976.75 1448.69,-973.93"/>
<polygon fill="#9a32cd" stroke="#9a32cd" points="1229.64,-1064.73 1219.68,-1068.33 1229.71,-1071.73 1229.64,-1064.73"/>
<text text-anchor="middle" x="1329" y="-1071" font-family="Helvetica,sans-Serif" font-size="10.00"> subProblemData</text>
</g>
<!-- Node46 -->
<g id="node46" class="node">
<title>Node46</title>
<g id="a_node46"><a xlink:title=" ">
<polygon fill="white" stroke="#bfbfbf" points="1040,-1013.5 1040,-1032.5 1243,-1032.5 1243,-1013.5 1040,-1013.5"/>
<text text-anchor="middle" x="1141.5" y="-1020.5" font-family="Helvetica,sans-Serif" font-size="10.00">shared_ptr&lt; SequenceDofContainer &gt;</text>
</a>
</g>
</g>
<!-- Node46&#45;&gt;Node37 -->
<g id="edge56" class="edge">
<title>Node46&#45;&gt;Node37</title>
<path fill="none" stroke="#9a32cd" stroke-dasharray="5,2" d="M1253.09,-1016.5C1298.09,-1012.5 1350.37,-1006.12 1397,-996 1405.24,-994.21 1406.88,-992.28 1415,-990 1427.03,-986.62 1440.16,-983.39 1452.34,-980.58"/>
<polygon fill="#9a32cd" stroke="#9a32cd" points="1252.68,-1013.02 1243.01,-1017.36 1253.28,-1019.99 1252.68,-1013.02"/>
<text text-anchor="middle" x="1329" y="-1030" font-family="Helvetica,sans-Serif" font-size="10.00"> sequenceRowDofContainer</text>
<text text-anchor="middle" x="1329" y="-1019" font-family="Helvetica,sans-Serif" font-size="10.00">sequenceColDofContainer</text>
</g>
<!-- Node47 -->
<g id="node47" class="node">
<title>Node47</title>
<g id="a_node47"><a xlink:title=" ">
<polygon fill="white" stroke="#bfbfbf" points="1097.5,-975.5 1097.5,-994.5 1185.5,-994.5 1185.5,-975.5 1097.5,-975.5"/>
<text text-anchor="middle" x="1141.5" y="-982.5" font-family="Helvetica,sans-Serif" font-size="10.00">BitProblemId *</text>
</a>
</g>
</g>
<!-- Node47&#45;&gt;Node37 -->
<g id="edge57" class="edge">
<title>Node47&#45;&gt;Node37</title>
<path fill="none" stroke="#9a32cd" stroke-dasharray="5,2" d="M1195.84,-982.9C1264.48,-980.19 1382.73,-975.53 1448.96,-972.91"/>
<polygon fill="#9a32cd" stroke="#9a32cd" points="1195.53,-979.41 1185.68,-983.3 1195.81,-986.4 1195.53,-979.41"/>
<text text-anchor="middle" x="1329" y="-984" font-family="Helvetica,sans-Serif" font-size="10.00"> tagId</text>
</g>
<!-- Node48 -->
<g id="node48" class="node">
<title>Node48</title>
<g id="a_node48"><a xlink:title=" ">
<polygon fill="white" stroke="#bfbfbf" points="1805,-696 1805,-726 1967,-726 1967,-696 1805,-696"/>
<text text-anchor="start" x="1813" y="-714" font-family="Helvetica,sans-Serif" font-size="10.00">shared_ptr&lt; const MoFEM</text>
<text text-anchor="middle" x="1886" y="-703" font-family="Helvetica,sans-Serif" font-size="10.00">::NumeredEntFiniteElement &gt;</text>
</a>
</g>
</g>
<!-- Node48&#45;&gt;Node11 -->
<g id="edge58" class="edge">
<title>Node48&#45;&gt;Node11</title>
<path fill="none" stroke="#9a32cd" stroke-dasharray="5,2" d="M1977.33,-709.08C2028.53,-712.47 2090.95,-724.66 2135,-760 2150.52,-772.45 2137.41,-788.63 2153,-801 2166.9,-812.03 2185.2,-817.38 2202.47,-819.8"/>
<polygon fill="#9a32cd" stroke="#9a32cd" points="1977.43,-705.58 1967.25,-708.52 1977.04,-712.57 1977.43,-705.58"/>
<text text-anchor="middle" x="2063" y="-763" font-family="Helvetica,sans-Serif" font-size="10.00"> numeredEntFiniteElementPtr</text>
</g>
<!-- Node49 -->
<g id="node49" class="node">
<title>Node49</title>
<g id="a_node49"><a xlink:title=" ">
<polygon fill="white" stroke="#bfbfbf" points="1864,-980.5 1864,-999.5 1908,-999.5 1908,-980.5 1864,-980.5"/>
<text text-anchor="middle" x="1886" y="-987.5" font-family="Helvetica,sans-Serif" font-size="10.00">string</text>
</a>
</g>
</g>
<!-- Node49&#45;&gt;Node2 -->
<g id="edge81" class="edge">
<title>Node49&#45;&gt;Node2</title>
<path fill="none" stroke="#9a32cd" stroke-dasharray="5,2" d="M1918.26,-996.41C2059.55,-1025.38 2640.62,-1144.51 2847.47,-1186.92"/>
<polygon fill="#9a32cd" stroke="#9a32cd" points="1918.62,-992.91 1908.12,-994.33 1917.22,-999.77 1918.62,-992.91"/>
<text text-anchor="middle" x="2458" y="-1137" font-family="Helvetica,sans-Serif" font-size="10.00"> colFieldName</text>
<text text-anchor="middle" x="2458" y="-1126" font-family="Helvetica,sans-Serif" font-size="10.00">rowFieldName</text>
</g>
<!-- Node49&#45;&gt;Node11 -->
<g id="edge59" class="edge">
<title>Node49&#45;&gt;Node11</title>
<path fill="none" stroke="#9a32cd" stroke-dasharray="5,2" d="M1917.05,-976.12C1989.55,-942.63 2172.65,-858.04 2234.34,-829.54"/>
<polygon fill="#9a32cd" stroke="#9a32cd" points="1915.18,-973.12 1907.57,-980.5 1918.12,-979.48 1915.18,-973.12"/>
<text text-anchor="middle" x="2063" y="-943" font-family="Helvetica,sans-Serif" font-size="10.00"> feName</text>
</g>
<!-- Node50 -->
<g id="node50" class="node">
<title>Node50</title>
<g id="a_node50"><a xlink:title=" ">
<polygon fill="white" stroke="#bfbfbf" points="1804.5,-805 1804.5,-835 1967.5,-835 1967.5,-805 1804.5,-805"/>
<text text-anchor="start" x="1812.5" y="-823" font-family="Helvetica,sans-Serif" font-size="10.00">function&lt; bool(MoFEM</text>
<text text-anchor="middle" x="1886" y="-812" font-family="Helvetica,sans-Serif" font-size="10.00">::FEMethod *fe_method_ptr)&gt;</text>
</a>
</g>
</g>
<!-- Node50&#45;&gt;Node11 -->
<g id="edge60" class="edge">
<title>Node50&#45;&gt;Node11</title>
<path fill="none" stroke="#9a32cd" stroke-dasharray="5,2" d="M1977.98,-820C2048.52,-820 2143.82,-820 2202.26,-820"/>
<polygon fill="#9a32cd" stroke="#9a32cd" points="1977.76,-816.5 1967.76,-820 1977.76,-823.5 1977.76,-816.5"/>
<text text-anchor="middle" x="2063" y="-823" font-family="Helvetica,sans-Serif" font-size="10.00"> exeTestHook</text>
</g>
<!-- Node51 -->
<g id="node51" class="node">
<title>Node51</title>
<g id="a_node51"><a xlink:href="classdouble.html" target="_top" xlink:title=" ">
<polygon fill="white" stroke="black" points="2231,-772.5 2231,-791.5 2281,-791.5 2281,-772.5 2231,-772.5"/>
<text text-anchor="middle" x="2256" y="-779.5" font-family="Helvetica,sans-Serif" font-size="10.00">double</text>
</a>
</g>
</g>
<!-- Node51&#45;&gt;Node10 -->
<g id="edge61" class="edge">
<title>Node51&#45;&gt;Node10</title>
<path fill="none" stroke="#9a32cd" stroke-dasharray="5,2" d="M2291.39,-784.83C2346.6,-787.89 2457.1,-787.84 2539,-748 2583.82,-726.2 2620.59,-676.66 2634.75,-655.68"/>
<polygon fill="#9a32cd" stroke="#9a32cd" points="2291.31,-781.32 2281.11,-784.19 2290.87,-788.3 2291.31,-781.32"/>
<text text-anchor="middle" x="2458" y="-788" font-family="Helvetica,sans-Serif" font-size="10.00"> elementMeasure</text>
</g>
<!-- Node52 -->
<g id="node52" class="node">
<title>Node52</title>
<g id="a_node52"><a xlink:title=" ">
<polygon fill="white" stroke="#bfbfbf" points="2170,-712.5 2170,-753.5 2342,-753.5 2342,-712.5 2170,-712.5"/>
<text text-anchor="start" x="2178" y="-741.5" font-family="Helvetica,sans-Serif" font-size="10.00">array&lt; boost::shared</text>
<text text-anchor="start" x="2178" y="-730.5" font-family="Helvetica,sans-Serif" font-size="10.00">_ptr&lt; MoFEM::EntitiesFieldData</text>
<text text-anchor="middle" x="2256" y="-719.5" font-family="Helvetica,sans-Serif" font-size="10.00"> &gt;, LASTSPACE &gt;</text>
</a>
</g>
</g>
<!-- Node52&#45;&gt;Node10 -->
<g id="edge62" class="edge">
<title>Node52&#45;&gt;Node10</title>
<path fill="none" stroke="#9a32cd" stroke-dasharray="5,2" d="M2352.31,-725.21C2407.6,-719.12 2478.12,-708.62 2539,-691 2569.68,-682.12 2603.18,-666 2623.13,-655.65"/>
<polygon fill="#9a32cd" stroke="#9a32cd" points="2351.74,-721.75 2342.17,-726.3 2352.49,-728.71 2351.74,-721.75"/>
<text text-anchor="middle" x="2458" y="-736" font-family="Helvetica,sans-Serif" font-size="10.00"> derivedDataOnElement</text>
<text text-anchor="middle" x="2458" y="-725" font-family="Helvetica,sans-Serif" font-size="10.00">dataOnElement</text>
</g>
<!-- Node53 -->
<g id="node53" class="node">
<title>Node53</title>
<g id="a_node53"><a xlink:title=" ">
<polygon fill="white" stroke="#bfbfbf" points="2222,-674.5 2222,-693.5 2290,-693.5 2290,-674.5 2222,-674.5"/>
<text text-anchor="middle" x="2256" y="-681.5" font-family="Helvetica,sans-Serif" font-size="10.00">EntityType</text>
</a>
</g>
</g>
<!-- Node53&#45;&gt;Node10 -->
<g id="edge63" class="edge">
<title>Node53&#45;&gt;Node10</title>
<path fill="none" stroke="#9a32cd" stroke-dasharray="5,2" d="M2300.2,-681.02C2355.59,-677.03 2454.58,-669.38 2539,-660 2550.72,-658.7 2563.18,-657.14 2575.22,-655.54"/>
<polygon fill="#9a32cd" stroke="#9a32cd" points="2299.77,-677.54 2290.05,-681.74 2300.27,-684.52 2299.77,-677.54"/>
<text text-anchor="middle" x="2458" y="-679" font-family="Helvetica,sans-Serif" font-size="10.00"> lastEvaluatedElementEntityType</text>
</g>
<!-- Node54 -->
<g id="node54" class="node">
<title>Node54</title>
<g id="a_node54"><a xlink:href="structMoFEM_1_1DeprecatedCoreInterface.html" target="_top" xlink:title="Deprecated interface functions.">
<polygon fill="white" stroke="black" points="1600,-84.5 1600,-103.5 1781,-103.5 1781,-84.5 1600,-84.5"/>
<text text-anchor="middle" x="1690.5" y="-91.5" font-family="Helvetica,sans-Serif" font-size="10.00">MoFEM::DeprecatedCoreInterface</text>
</a>
</g>
</g>
<!-- Node54&#45;&gt;Node10 -->
<g id="edge64" class="edge">
<title>Node54&#45;&gt;Node10</title>
<path fill="none" stroke="#9a32cd" stroke-dasharray="5,2" d="M1747.55,-107.39C1760.53,-113.16 1772.9,-121.36 1781,-133 1822.05,-192.02 1759.04,-396.24 1799,-456 1896.01,-601.09 1983.65,-583.78 2153,-626 2291.22,-660.46 2458.19,-658.3 2556.65,-652.75"/>
<polygon fill="#9a32cd" stroke="#9a32cd" points="1748.63,-104.06 1738.04,-103.62 1746.04,-110.56 1748.63,-104.06"/>
<text text-anchor="middle" x="2063" y="-625" font-family="Helvetica,sans-Serif" font-size="10.00"> mField</text>
</g>
<!-- Node55&#45;&gt;Node54 -->
<g id="edge65" class="edge">
<title>Node55&#45;&gt;Node54</title>
<path fill="none" stroke="midnightblue" d="M1214.03,-18.01C1265.1,-23.97 1335.39,-32.66 1397,-42 1482.93,-55.03 1582.46,-73.44 1640.46,-84.5"/>
<polygon fill="midnightblue" stroke="midnightblue" points="1214.41,-14.53 1204.07,-16.85 1213.6,-21.48 1214.41,-14.53"/>
</g>
<!-- Node56 -->
<g id="node56" class="node">
<title>Node56</title>
<g id="a_node56"><a xlink:title=" ">
<polygon fill="white" stroke="#bfbfbf" points="2172.5,-565 2172.5,-617 2339.5,-617 2339.5,-565 2172.5,-565"/>
<text text-anchor="start" x="2180.5" y="-605" font-family="Helvetica,sans-Serif" font-size="10.00">function&lt; MoFEMErrorCode</text>
<text text-anchor="start" x="2180.5" y="-594" font-family="Helvetica,sans-Serif" font-size="10.00">(ForcesAndSourcesCore *fe</text>
<text text-anchor="start" x="2180.5" y="-583" font-family="Helvetica,sans-Serif" font-size="10.00">_raw_ptr, int order_row,</text>
<text text-anchor="middle" x="2256" y="-572" font-family="Helvetica,sans-Serif" font-size="10.00"> int order_col, int order_data)&gt;</text>
</a>
</g>
</g>
<!-- Node56&#45;&gt;Node10 -->
<g id="edge68" class="edge">
<title>Node56&#45;&gt;Node10</title>
<path fill="none" stroke="#9a32cd" stroke-dasharray="5,2" d="M2349.95,-595.83C2405.32,-599.96 2476.72,-607.47 2539,-621 2547.24,-622.79 2548.88,-624.73 2557,-627 2569.24,-630.42 2582.61,-633.66 2595.02,-636.46"/>
<polygon fill="#9a32cd" stroke="#9a32cd" points="2350.03,-592.33 2339.81,-595.1 2349.53,-599.31 2350.03,-592.33"/>
<text text-anchor="middle" x="2458" y="-624" font-family="Helvetica,sans-Serif" font-size="10.00"> setRuleHook</text>
</g>
<!-- Node57 -->
<g id="node57" class="node">
<title>Node57</title>
<g id="a_node57"><a xlink:title=" ">
<polygon fill="white" stroke="#bfbfbf" points="2155,-516 2155,-546 2357,-546 2357,-516 2155,-516"/>
<text text-anchor="start" x="2163" y="-534" font-family="Helvetica,sans-Serif" font-size="10.00">ptr_deque&lt; MoFEM::Forces</text>
<text text-anchor="middle" x="2256" y="-523" font-family="Helvetica,sans-Serif" font-size="10.00">AndSourcesCore::UserDataOperator &gt;</text>
</a>
</g>
</g>
<!-- Node57&#45;&gt;Node10 -->
<g id="edge69" class="edge">
<title>Node57&#45;&gt;Node10</title>
<path fill="none" stroke="#9a32cd" stroke-dasharray="5,2" d="M2367.2,-527.82C2424.02,-531.65 2491.22,-545.36 2539,-584 2555.11,-597.03 2541.13,-613.68 2557,-627 2561.58,-630.85 2566.78,-633.95 2572.29,-636.46"/>
<polygon fill="#9a32cd" stroke="#9a32cd" points="2367.27,-524.32 2357.09,-527.23 2366.87,-531.31 2367.27,-524.32"/>
<text text-anchor="middle" x="2458" y="-587" font-family="Helvetica,sans-Serif" font-size="10.00"> opPtrVector</text>
</g>
<!-- Node58 -->
<g id="node58" class="node">
<title>Node58</title>
<g id="a_node58"><a xlink:href="structMoFEM_1_1EntitiesFieldData.html" target="_top" xlink:title="data structure for finite element entity">
<polygon fill="white" stroke="black" points="2185,-289.5 2185,-308.5 2327,-308.5 2327,-289.5 2185,-289.5"/>
<text text-anchor="middle" x="2256" y="-296.5" font-family="Helvetica,sans-Serif" font-size="10.00">MoFEM::EntitiesFieldData</text>
</a>
</g>
</g>
<!-- Node58&#45;&gt;Node10 -->
<g id="edge70" class="edge">
<title>Node58&#45;&gt;Node10</title>
<path fill="none" stroke="#9a32cd" stroke-dasharray="5,2" d="M2293.37,-286.27C2353.47,-267.82 2473.35,-242.36 2539,-306 2564.65,-330.86 2533.93,-599.73 2557,-627 2560.19,-630.77 2563.95,-633.88 2568.08,-636.44"/>
<polygon fill="#9a32cd" stroke="#9a32cd" points="2292.04,-283.02 2283.57,-289.38 2294.16,-289.69 2292.04,-283.02"/>
<text text-anchor="middle" x="2458" y="-353" font-family="Helvetica,sans-Serif" font-size="10.00"> dataNoField</text>
<text text-anchor="middle" x="2458" y="-342" font-family="Helvetica,sans-Serif" font-size="10.00">dataL2</text>
<text text-anchor="middle" x="2458" y="-331" font-family="Helvetica,sans-Serif" font-size="10.00">dataH1</text>
<text text-anchor="middle" x="2458" y="-320" font-family="Helvetica,sans-Serif" font-size="10.00">dataHcurl</text>
<text text-anchor="middle" x="2458" y="-309" font-family="Helvetica,sans-Serif" font-size="10.00">dataHdiv</text>
</g>
<!-- Node59 -->
<g id="node59" class="node">
<title>Node59</title>
<g id="a_node59"><a xlink:title=" ">
<polygon fill="white" stroke="#bfbfbf" points="1805,-181 1805,-211 1967,-211 1967,-181 1805,-181"/>
<text text-anchor="start" x="1813" y="-199" font-family="Helvetica,sans-Serif" font-size="10.00">array&lt; std::bitset</text>
<text text-anchor="middle" x="1886" y="-188" font-family="Helvetica,sans-Serif" font-size="10.00">&lt; LASTBASE &gt;, LASTSPACE &gt;</text>
</a>
</g>
</g>
<!-- Node59&#45;&gt;Node58 -->
<g id="edge71" class="edge">
<title>Node59&#45;&gt;Node58</title>
<path fill="none" stroke="#9a32cd" stroke-dasharray="5,2" d="M1977.17,-192.67C2025.27,-193.59 2084.74,-199.11 2135,-217 2180.64,-233.25 2225.32,-271.25 2244.81,-289.23"/>
<polygon fill="#9a32cd" stroke="#9a32cd" points="1977.13,-189.17 1967.09,-192.54 1977.04,-196.17 1977.13,-189.17"/>
<text text-anchor="middle" x="2063" y="-231" font-family="Helvetica,sans-Serif" font-size="10.00"> brokenBasesOnSpaces</text>
<text text-anchor="middle" x="2063" y="-220" font-family="Helvetica,sans-Serif" font-size="10.00">basesOnSpaces</text>
</g>
<!-- Node60 -->
<g id="node60" class="node">
<title>Node60</title>
<g id="a_node60"><a xlink:title=" ">
<polygon fill="white" stroke="#bfbfbf" points="1809.5,-405.5 1809.5,-446.5 1962.5,-446.5 1962.5,-405.5 1809.5,-405.5"/>
<text text-anchor="start" x="1817.5" y="-434.5" font-family="Helvetica,sans-Serif" font-size="10.00">array&lt; boost::ptr_vector</text>
<text text-anchor="start" x="1817.5" y="-423.5" font-family="Helvetica,sans-Serif" font-size="10.00">&lt; MoFEM::EntitiesFieldData</text>
<text text-anchor="middle" x="1886" y="-412.5" font-family="Helvetica,sans-Serif" font-size="10.00">::EntData &gt;, MBMAXTYPE &gt;</text>
</a>
</g>
</g>
<!-- Node60&#45;&gt;Node58 -->
<g id="edge72" class="edge">
<title>Node60&#45;&gt;Node58</title>
<path fill="none" stroke="#9a32cd" stroke-dasharray="5,2" d="M1972.76,-416.92C2021.98,-409.39 2083.94,-395.9 2135,-372 2144.18,-367.7 2144.59,-363.66 2153,-358 2181.34,-338.92 2216.11,-319.62 2236.86,-308.51"/>
<polygon fill="#9a32cd" stroke="#9a32cd" points="1972.16,-413.47 1962.78,-418.39 1973.18,-420.4 1972.16,-413.47"/>
<text text-anchor="middle" x="2063" y="-416" font-family="Helvetica,sans-Serif" font-size="10.00"> dataOnEntities</text>
</g>
<!-- Node61 -->
<g id="node61" class="node">
<title>Node61</title>
<g id="a_node61"><a xlink:title=" ">
<polygon fill="white" stroke="#bfbfbf" points="1799,-356 1799,-386 1973,-386 1973,-356 1799,-356"/>
<text text-anchor="start" x="1807" y="-374" font-family="Helvetica,sans-Serif" font-size="10.00">array&lt; std::bitset</text>
<text text-anchor="middle" x="1886" y="-363" font-family="Helvetica,sans-Serif" font-size="10.00">&lt; LASTSPACE &gt;, MBMAXTYPE &gt;</text>
</a>
</g>
</g>
<!-- Node61&#45;&gt;Node58 -->
<g id="edge73" class="edge">
<title>Node61&#45;&gt;Node58</title>
<path fill="none" stroke="#9a32cd" stroke-dasharray="5,2" d="M1983.18,-357.79C2029.31,-350.87 2085.23,-341.62 2135,-331 2165.05,-324.59 2198.83,-315.4 2222.87,-308.51"/>
<polygon fill="#9a32cd" stroke="#9a32cd" points="1982.57,-354.34 1973.19,-359.28 1983.6,-361.27 1982.57,-354.34"/>
<text text-anchor="middle" x="2063" y="-360" font-family="Helvetica,sans-Serif" font-size="10.00"> spacesOnEntities</text>
</g>
<!-- Node62 -->
<g id="node62" class="node">
<title>Node62</title>
<g id="a_node62"><a xlink:title=" ">
<polygon fill="white" stroke="#bfbfbf" points="1801.5,-307 1801.5,-337 1970.5,-337 1970.5,-307 1801.5,-307"/>
<text text-anchor="start" x="1809.5" y="-325" font-family="Helvetica,sans-Serif" font-size="10.00">array&lt; std::bitset</text>
<text text-anchor="middle" x="1886" y="-314" font-family="Helvetica,sans-Serif" font-size="10.00">&lt; LASTBASE &gt;, MBMAXTYPE &gt;</text>
</a>
</g>
</g>
<!-- Node62&#45;&gt;Node58 -->
<g id="edge74" class="edge">
<title>Node62&#45;&gt;Node58</title>
<path fill="none" stroke="#9a32cd" stroke-dasharray="5,2" d="M1980.54,-316.15C2044.11,-312.18 2126.86,-307.01 2184.81,-303.39"/>
<polygon fill="#9a32cd" stroke="#9a32cd" points="1980.27,-312.66 1970.5,-316.78 1980.7,-319.65 1980.27,-312.66"/>
<text text-anchor="middle" x="2063" y="-319" font-family="Helvetica,sans-Serif" font-size="10.00"> basesOnEntities</text>
</g>
<!-- Node63 -->
<g id="node63" class="node">
<title>Node63</title>
<g id="a_node63"><a xlink:title=" ">
<polygon fill="white" stroke="#bfbfbf" points="1830,-268.5 1830,-287.5 1942,-287.5 1942,-268.5 1830,-268.5"/>
<text text-anchor="middle" x="1886" y="-275.5" font-family="Helvetica,sans-Serif" font-size="10.00">UBlasMatrix&lt; int &gt;</text>
</a>
</g>
</g>
<!-- Node63&#45;&gt;Node58 -->
<g id="edge75" class="edge">
<title>Node63&#45;&gt;Node58</title>
<path fill="none" stroke="#9a32cd" stroke-dasharray="5,2" d="M1952.33,-274.92C2002.41,-273.31 2073.2,-272.63 2135,-278 2160.5,-280.21 2188.7,-285.03 2211.35,-289.49"/>
<polygon fill="#9a32cd" stroke="#9a32cd" points="1952.15,-271.43 1942.28,-275.27 1952.39,-278.42 1952.15,-271.43"/>
<text text-anchor="middle" x="2063" y="-292" font-family="Helvetica,sans-Serif" font-size="10.00"> facesNodesOrder</text>
<text text-anchor="middle" x="2063" y="-281" font-family="Helvetica,sans-Serif" font-size="10.00">facesNodes</text>
</g>
<!-- Node64 -->
<g id="node64" class="node">
<title>Node64</title>
<g id="a_node64"><a xlink:title=" ">
<polygon fill="white" stroke="#bfbfbf" points="1827.5,-230.5 1827.5,-249.5 1944.5,-249.5 1944.5,-230.5 1827.5,-230.5"/>
<text text-anchor="middle" x="1886" y="-237.5" font-family="Helvetica,sans-Serif" font-size="10.00">bitset&lt; LASTBASE &gt;</text>
</a>
</g>
</g>
<!-- Node64&#45;&gt;Node58 -->
<g id="edge76" class="edge">
<title>Node64&#45;&gt;Node58</title>
<path fill="none" stroke="#9a32cd" stroke-dasharray="5,2" d="M1954.76,-240.73C2004.96,-242.34 2074.81,-246.85 2135,-259 2169.66,-265.99 2208.19,-280.01 2232.01,-289.45"/>
<polygon fill="#9a32cd" stroke="#9a32cd" points="1954.78,-237.22 1944.68,-240.43 1954.57,-244.22 1954.78,-237.22"/>
<text text-anchor="middle" x="2063" y="-262" font-family="Helvetica,sans-Serif" font-size="10.00"> bAse</text>
</g>
<!-- Node65 -->
<g id="node65" class="node">
<title>Node65</title>
<g id="a_node65"><a xlink:title=" ">
<polygon fill="white" stroke="#bfbfbf" points="2193.5,-455.5 2193.5,-496.5 2318.5,-496.5 2318.5,-455.5 2193.5,-455.5"/>
<text text-anchor="start" x="2201.5" y="-484.5" font-family="Helvetica,sans-Serif" font-size="10.00">function&lt; int(int order</text>
<text text-anchor="start" x="2201.5" y="-473.5" font-family="Helvetica,sans-Serif" font-size="10.00">_row, int order_col, int</text>
<text text-anchor="middle" x="2256" y="-462.5" font-family="Helvetica,sans-Serif" font-size="10.00"> order_data)&gt;</text>
</a>
</g>
</g>
<!-- Node65&#45;&gt;Node10 -->
<g id="edge77" class="edge">
<title>Node65&#45;&gt;Node10</title>
<path fill="none" stroke="#9a32cd" stroke-dasharray="5,2" d="M2328.53,-464.4C2392.46,-458.43 2484.25,-461.44 2539,-515 2575.04,-550.26 2522.49,-590.24 2557,-627 2560.58,-630.82 2564.75,-633.94 2569.29,-636.5"/>
<polygon fill="#9a32cd" stroke="#9a32cd" points="2328.11,-460.93 2318.52,-465.43 2328.82,-467.89 2328.11,-460.93"/>
<text text-anchor="middle" x="2458" y="-518" font-family="Helvetica,sans-Serif" font-size="10.00"> getRuleHook</text>
</g>
<!-- Node66 -->
<g id="node66" class="node">
<title>Node66</title>
<g id="a_node66"><a xlink:title=" ">
<polygon fill="white" stroke="#bfbfbf" points="2195,-406 2195,-436 2317,-436 2317,-406 2195,-406"/>
<text text-anchor="start" x="2203" y="-424" font-family="Helvetica,sans-Serif" font-size="10.00">shared_ptr&lt; MoFEM::</text>
<text text-anchor="middle" x="2256" y="-413" font-family="Helvetica,sans-Serif" font-size="10.00">BaseFunction &gt;</text>
</a>
</g>
</g>
<!-- Node66&#45;&gt;Node10 -->
<g id="edge78" class="edge">
<title>Node66&#45;&gt;Node10</title>
<path fill="none" stroke="#9a32cd" stroke-dasharray="5,2" d="M2327.21,-415.01C2400.83,-410.41 2509.82,-408.9 2539,-437 2569.55,-466.42 2528.99,-595.15 2557,-627 2560.26,-630.7 2564.07,-633.77 2568.25,-636.3"/>
<polygon fill="#9a32cd" stroke="#9a32cd" points="2326.82,-411.53 2317.07,-415.68 2327.28,-418.51 2326.82,-411.53"/>
<text text-anchor="middle" x="2458" y="-451" font-family="Helvetica,sans-Serif" font-size="10.00"> userPolynomialBasePtr</text>
<text text-anchor="middle" x="2458" y="-440" font-family="Helvetica,sans-Serif" font-size="10.00">elementPolynomialBasePtr</text>
</g>
<!-- Node67 -->
<g id="node67" class="node">
<title>Node67</title>
<g id="a_node67"><a xlink:href="classUBlasMatrix_3_01double_01_4.html" target="_top" xlink:title=" ">
<polygon fill="white" stroke="black" points="2190,-367.5 2190,-386.5 2322,-386.5 2322,-367.5 2190,-367.5"/>
<text text-anchor="middle" x="2256" y="-374.5" font-family="Helvetica,sans-Serif" font-size="10.00">UBlasMatrix&lt; double &gt;</text>
</a>
</g>
</g>
<!-- Node67&#45;&gt;Node10 -->
<g id="edge79" class="edge">
<title>Node67&#45;&gt;Node10</title>
<path fill="none" stroke="#9a32cd" stroke-dasharray="5,2" d="M2332.38,-368.86C2405.83,-362.78 2510.5,-359.6 2539,-387 2577.56,-424.07 2522.07,-586.5 2557,-627 2560.22,-630.74 2564.01,-633.83 2568.16,-636.37"/>
<polygon fill="#9a32cd" stroke="#9a32cd" points="2331.89,-365.39 2322.23,-369.74 2332.49,-372.37 2331.89,-365.39"/>
<text text-anchor="middle" x="2458" y="-401" font-family="Helvetica,sans-Serif" font-size="10.00"> coordsAtGaussPts</text>
<text text-anchor="middle" x="2458" y="-390" font-family="Helvetica,sans-Serif" font-size="10.00">gaussPts</text>
</g>
<!-- Node68 -->
<g id="node68" class="node">
<title>Node68</title>
<g id="a_node68"><a xlink:title=" ">
<polygon fill="white" stroke="#bfbfbf" points="2576.5,-598.5 2576.5,-617.5 2707.5,-617.5 2707.5,-598.5 2576.5,-598.5"/>
<text text-anchor="middle" x="2642" y="-605.5" font-family="Helvetica,sans-Serif" font-size="10.00">static const char *const</text>
</a>
</g>
</g>
<!-- Node68&#45;&gt;Node2 -->
<g id="edge80" class="edge">
<title>Node68&#45;&gt;Node2</title>
<path fill="none" stroke="#9a32cd" stroke-dasharray="5,2" d="M2717.03,-620.25C2720.57,-622.2 2723.92,-624.43 2727,-627 2910.24,-779.87 2921.1,-1112.35 2921.16,-1186.94"/>
<polygon fill="#9a32cd" stroke="#9a32cd" points="2718.45,-617.05 2707.91,-615.97 2715.48,-623.38 2718.45,-617.05"/>
<text text-anchor="middle" x="2782" y="-742" font-family="Helvetica,sans-Serif" font-size="10.00"> OpTypeNames</text>
</g>
</g>
</svg>
        <g id="navigator" transform="translate(0 0)" fill="#404254">
                <rect fill="#f2f5e9" fill-opacity="0.5" stroke="#606060" stroke-width=".5" x="0" y="0" width="60" height="60"/>
                <use id="zoomplus" xlink:href="#zoomPlus" x="17" y="9" onmousedown="handleZoom(evt,'in')"/>
                <use id="zoomminus" xlink:href="#zoomMin" x="42" y="9" onmousedown="handleZoom(evt,'out')"/>
                <use id="reset" xlink:href="#resetDef" x="30" y="36" onmousedown="handleReset()"/>
                <g id="arrowUp" xlink:href="#dirArrow" transform="translate(30 24)" onmousedown="handlePan(0,-1)">
                  <use xlink:href="#rim" fill="#404040">
                        <set attributeName="fill" to="#808080" begin="arrowUp.mouseover" end="arrowUp.mouseout"/>
                  </use>
                  <path fill="none" stroke="white" stroke-width="1.5" d="M0,-3.0v7 M-2.5,-0.5L0,-3.0L2.5,-0.5"/>
                </g>
                <g id="arrowRight" xlink:href="#dirArrow" transform="rotate(90) translate(36 -43)" onmousedown="handlePan(1,0)">
                  <use xlink:href="#rim" fill="#404040">
                        <set attributeName="fill" to="#808080" begin="arrowRight.mouseover" end="arrowRight.mouseout"/>
                  </use>
                  <path fill="none" stroke="white" stroke-width="1.5" d="M0,-3.0v7 M-2.5,-0.5L0,-3.0L2.5,-0.5"/>
                </g>
                <g id="arrowDown" xlink:href="#dirArrow" transform="rotate(180) translate(-30 -48)" onmousedown="handlePan(0,1)">
                  <use xlink:href="#rim" fill="#404040">
                        <set attributeName="fill" to="#808080" begin="arrowDown.mouseover" end="arrowDown.mouseout"/>
                  </use>
                  <path fill="none" stroke="white" stroke-width="1.5" d="M0,-3.0v7 M-2.5,-0.5L0,-3.0L2.5,-0.5"/>
                </g>
                <g id="arrowLeft" xlink:href="#dirArrow" transform="rotate(270) translate(-36 17)" onmousedown="handlePan(-1,0)">
                  <use xlink:href="#rim" fill="#404040">
                        <set attributeName="fill" to="#808080" begin="arrowLeft.mouseover" end="arrowLeft.mouseout"/>
                  </use>
                  <path fill="none" stroke="white" stroke-width="1.5" d="M0,-3.0v7 M-2.5,-0.5L0,-3.0L2.5,-0.5"/>
                </g>
        </g>
        <svg viewBox="0 0 15 15" width="100%" height="30px" preserveAspectRatio="xMaxYMin meet">
         <g id="arrow_out" transform="scale(0.3 0.3)">
          <a xlink:href="structMoFEM_1_1VertexElementForcesAndSourcesCore_1_1UserDataOperator__coll__graph_org.svg" target="_base">
           <rect id="button" ry="5" rx="5" y="6" x="6" height="38" width="38"
                fill="#f2f5e9" fill-opacity="0.5" stroke="#606060" stroke-width="1.0"/>
           <path id="arrow"
             d="M 11.500037,31.436501 C 11.940474,20.09759 22.043105,11.32322 32.158766,21.979434 L 37.068811,17.246167 C 37.068811,17.246167 37.088388,32 37.088388,32 L 22.160133,31.978069 C 22.160133,31.978069 26.997745,27.140456 26.997745,27.140456 C 18.528582,18.264221 13.291696,25.230495 11.500037,31.436501 z"
             style="fill:#404040;"/>
          </a>
         </g>
        </svg>
</svg>
