<?xml version="1.0" encoding="UTF-8" standalone="no"?>
<!DOCTYPE svg PUBLIC "-//W3C//DTD SVG 1.1//EN"
 "http://www.w3.org/Graphics/SVG/1.1/DTD/svg11.dtd">
<!-- Generated by graphviz version 2.43.0 (0)
 -->
<!-- Title: MoFEM::DMMGViaApproxOrdersCtx Pages: 1 -->
<!--zoomable 1024 -->
<svg id="main" version="1.1" xmlns="http://www.w3.org/2000/svg" xmlns:xlink="http://www.w3.org/1999/xlink" xml:space="preserve" onload="init(evt)">
<style type="text/css"><![CDATA[
.edge:hover path { stroke: red; }
.edge:hover polygon { stroke: red; fill: red; }
]]></style>
<script type="text/javascript"><![CDATA[
var edges = document.getElementsByTagName('g');
if (edges && edges.length) {
  for (var i=0;i<edges.length;i++) {
    if (edges[i].id.substr(0,4)=='edge') {
      edges[i].setAttribute('class','edge');
    }
  }
}
]]></script>
        <defs>
                <circle id="rim" cx="0" cy="0" r="7"/>
                <circle id="rim2" cx="0" cy="0" r="3.5"/>
                <g id="zoomPlus">
                        <use xlink:href="#rim" fill="#404040">
                                <set attributeName="fill" to="#808080" begin="zoomplus.mouseover" end="zoomplus.mouseout"/>
                        </use>
                        <path d="M-4,0h8M0,-4v8" fill="none" stroke="white" stroke-width="1.5" pointer-events="none"/>
                </g>
                <g id="zoomMin">
                        <use xlink:href="#rim" fill="#404040">
                                <set attributeName="fill" to="#808080" begin="zoomminus.mouseover" end="zoomminus.mouseout"/>
                        </use>
                        <path d="M-4,0h8" fill="none" stroke="white" stroke-width="1.5" pointer-events="none"/>
                </g>
                <g id="dirArrow">
                        <path fill="none" stroke="white" stroke-width="1.5" d="M0,-3.0v7 M-2.5,-0.5L0,-3.0L2.5,-0.5"/>
                </g>
               <g id="resetDef">
                       <use xlink:href="#rim2" fill="#404040">
                               <set attributeName="fill" to="#808080" begin="reset.mouseover" end="reset.mouseout"/>
                       </use>
               </g>
        </defs>

<script type="text/javascript">
var viewWidth = 2141;
var viewHeight = 1024;
var sectionId = 'dynsection-1';
</script>
<script xlink:href="svgpan.js"/>
<svg id="graph" class="graph">
<g id="viewport">
<title>MoFEM::DMMGViaApproxOrdersCtx</title>
<polygon fill="white" stroke="transparent" points="-4,4 -4,-1019.5 2137,-1019.5 2137,4 -4,4"/>
<!-- Node1 -->
<g id="node1" class="node">
<title>Node1</title>
<g id="a_node1"><a xlink:title="Structure for DM for multi&#45;grid via approximation orders.">
<polygon fill="#bfbfbf" stroke="black" points="1942,-121 1942,-140 2133,-140 2133,-121 1942,-121"/>
<text text-anchor="middle" x="2037.5" y="-128" font-family="Helvetica,sans-Serif" font-size="10.00">MoFEM::DMMGViaApproxOrdersCtx</text>
</a>
</g>
</g>
<!-- Node2 -->
<g id="node2" class="node">
<title>Node2</title>
<g id="a_node2"><a xlink:href="structMoFEM_1_1DMCtxImpl.html" target="_top" xlink:title=" ">
<polygon fill="white" stroke="black" points="1683.5,-729 1683.5,-748 1796.5,-748 1796.5,-729 1683.5,-729"/>
<text text-anchor="middle" x="1740" y="-736" font-family="Helvetica,sans-Serif" font-size="10.00">MoFEM::DMCtxImpl</text>
</a>
</g>
</g>
<!-- Node2&#45;&gt;Node1 -->
<g id="edge1" class="edge">
<title>Node2&#45;&gt;Node1</title>
<path fill="none" stroke="midnightblue" d="M1750.09,-719.8C1795.68,-626 1998.57,-208.54 2031.87,-140.03"/>
<polygon fill="midnightblue" stroke="midnightblue" points="1746.87,-718.43 1745.64,-728.95 1753.16,-721.49 1746.87,-718.43"/>
</g>
<!-- Node3 -->
<g id="node3" class="node">
<title>Node3</title>
<g id="a_node3"><a xlink:href="structMoFEM_1_1DMCtx.html" target="_top" xlink:title="PETSc Discrete Manager data structure.">
<polygon fill="white" stroke="black" points="1017.5,-807 1017.5,-826 1109.5,-826 1109.5,-807 1017.5,-807"/>
<text text-anchor="middle" x="1063.5" y="-814" font-family="Helvetica,sans-Serif" font-size="10.00">MoFEM::DMCtx</text>
</a>
</g>
</g>
<!-- Node3&#45;&gt;Node2 -->
<g id="edge2" class="edge">
<title>Node3&#45;&gt;Node2</title>
<path fill="none" stroke="midnightblue" d="M1110.24,-804.42C1164.07,-790.75 1256.35,-769.02 1337,-758.5 1459.99,-742.46 1605.69,-739.05 1683.48,-738.46"/>
<polygon fill="midnightblue" stroke="midnightblue" points="1109.15,-801.08 1100.33,-806.95 1110.88,-807.87 1109.15,-801.08"/>
</g>
<!-- Node4 -->
<g id="node4" class="node">
<title>Node4</title>
<g id="a_node4"><a xlink:href="structMoFEM_1_1UnknownInterface.html" target="_top" xlink:title="base class for all interface classes">
<polygon fill="white" stroke="black" points="735,-944 735,-963 883,-963 883,-944 735,-944"/>
<text text-anchor="middle" x="809" y="-951" font-family="Helvetica,sans-Serif" font-size="10.00">MoFEM::UnknownInterface</text>
</a>
</g>
</g>
<!-- Node4&#45;&gt;Node3 -->
<g id="edge3" class="edge">
<title>Node4&#45;&gt;Node3</title>
<path fill="none" stroke="midnightblue" d="M836.68,-939.03C888.42,-910.95 1001.14,-849.79 1044.76,-826.12"/>
<polygon fill="midnightblue" stroke="midnightblue" points="834.88,-936.02 827.76,-943.87 838.21,-942.17 834.88,-936.02"/>
</g>
<!-- Node15 -->
<g id="node15" class="node">
<title>Node15</title>
<g id="a_node15"><a xlink:href="structMoFEM_1_1CoreInterface.html" target="_top" xlink:title="Interface.">
<polygon fill="white" stroke="black" points="1001,-976 1001,-995 1126,-995 1126,-976 1001,-976"/>
<text text-anchor="middle" x="1063.5" y="-983" font-family="Helvetica,sans-Serif" font-size="10.00">MoFEM::CoreInterface</text>
</a>
</g>
</g>
<!-- Node4&#45;&gt;Node15 -->
<g id="edge15" class="edge">
<title>Node4&#45;&gt;Node15</title>
<path fill="none" stroke="midnightblue" d="M893.25,-964.05C928.31,-968.49 968.38,-973.57 1000.73,-977.67"/>
<polygon fill="midnightblue" stroke="midnightblue" points="893.39,-960.54 883.03,-962.76 892.51,-967.49 893.39,-960.54"/>
</g>
<!-- Node5 -->
<g id="node5" class="node">
<title>Node5</title>
<g id="a_node5"><a xlink:title=" ">
<polygon fill="white" stroke="#bfbfbf" points="386,-922 386,-985 627,-985 627,-922 386,-922"/>
<text text-anchor="start" x="394" y="-973" font-family="Helvetica,sans-Serif" font-size="10.00">multi_index_container</text>
<text text-anchor="start" x="394" y="-962" font-family="Helvetica,sans-Serif" font-size="10.00">&lt; UIdTypeMap, indexed</text>
<text text-anchor="start" x="394" y="-951" font-family="Helvetica,sans-Serif" font-size="10.00">_by&lt; hashed_unique&lt; member</text>
<text text-anchor="start" x="394" y="-940" font-family="Helvetica,sans-Serif" font-size="10.00">&lt; UIdTypeMap, boost::typeindex</text>
<text text-anchor="middle" x="506.5" y="-929" font-family="Helvetica,sans-Serif" font-size="10.00">::type_index, &amp;UIdTypeMap::classIdx &gt; &gt; &gt; &gt;</text>
</a>
</g>
</g>
<!-- Node5&#45;&gt;Node4 -->
<g id="edge4" class="edge">
<title>Node5&#45;&gt;Node4</title>
<path fill="none" stroke="#9a32cd" stroke-dasharray="5,2" d="M637.41,-953.5C670.69,-953.5 705.33,-953.5 734.62,-953.5"/>
<polygon fill="#9a32cd" stroke="#9a32cd" points="637.13,-950 627.13,-953.5 637.13,-957 637.13,-950"/>
<text text-anchor="middle" x="681" y="-956.5" font-family="Helvetica,sans-Serif" font-size="10.00"> iFaceTypeMap</text>
</g>
<!-- Node6 -->
<g id="node6" class="node">
<title>Node6</title>
<g id="a_node6"><a xlink:title=" ">
<polygon fill="white" stroke="#bfbfbf" points="0,-944 0,-963 125,-963 125,-944 0,-944"/>
<text text-anchor="middle" x="62.5" y="-951" font-family="Helvetica,sans-Serif" font-size="10.00">multi_index_container</text>
</a>
</g>
</g>
<!-- Node6&#45;&gt;Node5 -->
<g id="edge5" class="edge">
<title>Node6&#45;&gt;Node5</title>
<path fill="none" stroke="orange" stroke-dasharray="5,2" d="M135.56,-953.5C203.25,-953.5 305.79,-953.5 385.77,-953.5"/>
<polygon fill="orange" stroke="orange" points="135.42,-950 125.42,-953.5 135.42,-957 135.42,-950"/>
<text text-anchor="start" x="143" y="-989.5" font-family="Helvetica,sans-Serif" font-size="10.00"> &lt; UIdTypeMap, indexed</text>
<text text-anchor="start" x="143" y="-978.5" font-family="Helvetica,sans-Serif" font-size="10.00">_by&lt; hashed_unique&lt; member</text>
<text text-anchor="start" x="143" y="-967.5" font-family="Helvetica,sans-Serif" font-size="10.00">&lt; UIdTypeMap, boost::typeindex</text>
<text text-anchor="middle" x="255.5" y="-956.5" font-family="Helvetica,sans-Serif" font-size="10.00">::type_index, &amp;UIdTypeMap::classIdx &gt; &gt; &gt; &gt;</text>
</g>
<!-- Node7 -->
<g id="node7" class="node">
<title>Node7</title>
<g id="a_node7"><a xlink:title=" ">
<polygon fill="white" stroke="#bfbfbf" points="748,-850.5 748,-880.5 870,-880.5 870,-850.5 748,-850.5"/>
<text text-anchor="start" x="756" y="-868.5" font-family="Helvetica,sans-Serif" font-size="10.00">shared_ptr&lt; MoFEM::</text>
<text text-anchor="middle" x="809" y="-857.5" font-family="Helvetica,sans-Serif" font-size="10.00">SnesCtx &gt;</text>
</a>
</g>
</g>
<!-- Node7&#45;&gt;Node3 -->
<g id="edge6" class="edge">
<title>Node7&#45;&gt;Node3</title>
<path fill="none" stroke="#9a32cd" stroke-dasharray="5,2" d="M880.2,-851.88C924.09,-843.36 979.32,-832.64 1017.42,-825.25"/>
<polygon fill="#9a32cd" stroke="#9a32cd" points="879.31,-848.48 870.16,-853.83 880.64,-855.36 879.31,-848.48"/>
<text text-anchor="middle" x="922.5" y="-849.5" font-family="Helvetica,sans-Serif" font-size="10.00"> snesCtx</text>
</g>
<!-- Node8 -->
<g id="node8" class="node">
<title>Node8</title>
<g id="a_node8"><a xlink:title=" ">
<polygon fill="white" stroke="#bfbfbf" points="748,-801.5 748,-831.5 870,-831.5 870,-801.5 748,-801.5"/>
<text text-anchor="start" x="756" y="-819.5" font-family="Helvetica,sans-Serif" font-size="10.00">shared_ptr&lt; MoFEM::</text>
<text text-anchor="middle" x="809" y="-808.5" font-family="Helvetica,sans-Serif" font-size="10.00">TsCtx &gt;</text>
</a>
</g>
</g>
<!-- Node8&#45;&gt;Node3 -->
<g id="edge7" class="edge">
<title>Node8&#45;&gt;Node3</title>
<path fill="none" stroke="#9a32cd" stroke-dasharray="5,2" d="M880.2,-816.5C924.09,-816.5 979.32,-816.5 1017.42,-816.5"/>
<polygon fill="#9a32cd" stroke="#9a32cd" points="880.16,-813 870.16,-816.5 880.16,-820 880.16,-813"/>
<text text-anchor="middle" x="922.5" y="-819.5" font-family="Helvetica,sans-Serif" font-size="10.00"> tsCtx</text>
</g>
<!-- Node9 -->
<g id="node9" class="node">
<title>Node9</title>
<g id="a_node9"><a xlink:title=" ">
<polygon fill="white" stroke="#bfbfbf" points="748,-752.5 748,-782.5 870,-782.5 870,-752.5 748,-752.5"/>
<text text-anchor="start" x="756" y="-770.5" font-family="Helvetica,sans-Serif" font-size="10.00">shared_ptr&lt; MoFEM::</text>
<text text-anchor="middle" x="809" y="-759.5" font-family="Helvetica,sans-Serif" font-size="10.00">KspCtx &gt;</text>
</a>
</g>
</g>
<!-- Node9&#45;&gt;Node3 -->
<g id="edge8" class="edge">
<title>Node9&#45;&gt;Node3</title>
<path fill="none" stroke="#9a32cd" stroke-dasharray="5,2" d="M880.2,-781.12C924.09,-789.64 979.32,-800.36 1017.42,-807.75"/>
<polygon fill="#9a32cd" stroke="#9a32cd" points="880.64,-777.64 870.16,-779.17 879.31,-784.52 880.64,-777.64"/>
<text text-anchor="middle" x="922.5" y="-795.5" font-family="Helvetica,sans-Serif" font-size="10.00"> kspCtx</text>
</g>
<!-- Node10 -->
<g id="node10" class="node">
<title>Node10</title>
<g id="a_node10"><a xlink:title=" ">
<polygon fill="white" stroke="#bfbfbf" points="1395,-899 1395,-918 1460,-918 1460,-899 1395,-899"/>
<text text-anchor="middle" x="1427.5" y="-906" font-family="Helvetica,sans-Serif" font-size="10.00">PetscBool</text>
</a>
</g>
</g>
<!-- Node10&#45;&gt;Node2 -->
<g id="edge9" class="edge">
<title>Node10&#45;&gt;Node2</title>
<path fill="none" stroke="#9a32cd" stroke-dasharray="5,2" d="M1470.08,-907.58C1524.36,-905.7 1615.77,-899.96 1644,-882.5 1696.98,-849.73 1726.58,-775.15 1735.82,-748.33"/>
<polygon fill="#9a32cd" stroke="#9a32cd" points="1469.96,-904.09 1460.08,-907.9 1470.18,-911.08 1469.96,-904.09"/>
<text text-anchor="middle" x="1590" y="-961.5" font-family="Helvetica,sans-Serif" font-size="10.00"> isSquareMatrix</text>
<text text-anchor="middle" x="1590" y="-950.5" font-family="Helvetica,sans-Serif" font-size="10.00">destroyProblem</text>
<text text-anchor="middle" x="1590" y="-939.5" font-family="Helvetica,sans-Serif" font-size="10.00">isProblemBuild</text>
<text text-anchor="middle" x="1590" y="-928.5" font-family="Helvetica,sans-Serif" font-size="10.00">isPartitioned</text>
<text text-anchor="middle" x="1590" y="-917.5" font-family="Helvetica,sans-Serif" font-size="10.00">isCompDM</text>
<text text-anchor="middle" x="1590" y="-906.5" font-family="Helvetica,sans-Serif" font-size="10.00">isSubDM</text>
</g>
<!-- Node11 -->
<g id="node11" class="node">
<title>Node11</title>
<g id="a_node11"><a xlink:title=" ">
<polygon fill="white" stroke="#bfbfbf" points="1345.5,-861 1345.5,-880 1509.5,-880 1509.5,-861 1345.5,-861"/>
<text text-anchor="middle" x="1427.5" y="-868" font-family="Helvetica,sans-Serif" font-size="10.00">shared_ptr&lt; NestSchurData &gt;</text>
</a>
</g>
</g>
<!-- Node11&#45;&gt;Node2 -->
<g id="edge10" class="edge">
<title>Node11&#45;&gt;Node2</title>
<path fill="none" stroke="#9a32cd" stroke-dasharray="5,2" d="M1519.83,-868.85C1568.48,-866.63 1622.61,-861.64 1644,-850.5 1689.69,-826.72 1722.42,-770.73 1734.2,-748.17"/>
<polygon fill="#9a32cd" stroke="#9a32cd" points="1519.39,-865.36 1509.55,-869.28 1519.69,-872.36 1519.39,-865.36"/>
<text text-anchor="middle" x="1590" y="-870.5" font-family="Helvetica,sans-Serif" font-size="10.00"> nestedSchurDataPtr</text>
</g>
<!-- Node12 -->
<g id="node12" class="node">
<title>Node12</title>
<g id="a_node12"><a xlink:title=" ">
<polygon fill="white" stroke="#bfbfbf" points="1368,-817 1368,-836 1487,-836 1487,-817 1368,-817"/>
<text text-anchor="middle" x="1427.5" y="-824" font-family="Helvetica,sans-Serif" font-size="10.00">vector&lt; std::string &gt;</text>
</a>
</g>
</g>
<!-- Node12&#45;&gt;Node2 -->
<g id="edge11" class="edge">
<title>Node12&#45;&gt;Node2</title>
<path fill="none" stroke="#9a32cd" stroke-dasharray="5,2" d="M1490.96,-815.03C1544.1,-804.99 1616.1,-790.61 1644,-781.5 1671.71,-772.46 1702.14,-757.78 1720.91,-748.13"/>
<polygon fill="#9a32cd" stroke="#9a32cd" points="1490.12,-811.63 1480.94,-816.92 1491.41,-818.51 1490.12,-811.63"/>
<text text-anchor="middle" x="1590" y="-841.5" font-family="Helvetica,sans-Serif" font-size="10.00"> colCompPrb</text>
<text text-anchor="middle" x="1590" y="-830.5" font-family="Helvetica,sans-Serif" font-size="10.00">colSubFields</text>
<text text-anchor="middle" x="1590" y="-819.5" font-family="Helvetica,sans-Serif" font-size="10.00">rowSubFields</text>
<text text-anchor="middle" x="1590" y="-808.5" font-family="Helvetica,sans-Serif" font-size="10.00">rowCompPrb</text>
</g>
<!-- Node13 -->
<g id="node13" class="node">
<title>Node13</title>
<g id="a_node13"><a xlink:title=" ">
<polygon fill="white" stroke="#bfbfbf" points="1366.5,-767.5 1366.5,-797.5 1488.5,-797.5 1488.5,-767.5 1366.5,-767.5"/>
<text text-anchor="start" x="1374.5" y="-785.5" font-family="Helvetica,sans-Serif" font-size="10.00">shared_ptr&lt; MoFEM::</text>
<text text-anchor="middle" x="1427.5" y="-774.5" font-family="Helvetica,sans-Serif" font-size="10.00">BlockStructure &gt;</text>
</a>
</g>
</g>
<!-- Node13&#45;&gt;Node2 -->
<g id="edge12" class="edge">
<title>Node13&#45;&gt;Node2</title>
<path fill="none" stroke="#9a32cd" stroke-dasharray="5,2" d="M1498.91,-772.52C1554.77,-764.61 1631.77,-753.7 1683.37,-746.38"/>
<polygon fill="#9a32cd" stroke="#9a32cd" points="1498.15,-769.1 1488.74,-773.96 1499.13,-776.03 1498.15,-769.1"/>
<text text-anchor="middle" x="1590" y="-769.5" font-family="Helvetica,sans-Serif" font-size="10.00"> blocMatDataPtr</text>
</g>
<!-- Node14 -->
<g id="node14" class="node">
<title>Node14</title>
<g id="a_node14"><a xlink:href="structMoFEM_1_1DeprecatedCoreInterface.html" target="_top" xlink:title="Deprecated interface functions.">
<polygon fill="white" stroke="black" points="1337,-984 1337,-1003 1518,-1003 1518,-984 1337,-984"/>
<text text-anchor="middle" x="1427.5" y="-991" font-family="Helvetica,sans-Serif" font-size="10.00">MoFEM::DeprecatedCoreInterface</text>
</a>
</g>
</g>
<!-- Node14&#45;&gt;Node2 -->
<g id="edge13" class="edge">
<title>Node14&#45;&gt;Node2</title>
<path fill="none" stroke="#9a32cd" stroke-dasharray="5,2" d="M1492.19,-1003.99C1538.69,-1008.05 1600.89,-1005.57 1644,-973.5 1721.32,-915.98 1735.88,-784.89 1738.47,-748.2"/>
<polygon fill="#9a32cd" stroke="#9a32cd" points="1492.52,-1000.51 1482.22,-1003 1491.83,-1007.48 1492.52,-1000.51"/>
<text text-anchor="middle" x="1590" y="-1007.5" font-family="Helvetica,sans-Serif" font-size="10.00"> mField_ptr</text>
</g>
<!-- Node15&#45;&gt;Node14 -->
<g id="edge14" class="edge">
<title>Node15&#45;&gt;Node14</title>
<path fill="none" stroke="midnightblue" d="M1136.42,-987.09C1193.97,-988.36 1274.98,-990.15 1336.77,-991.52"/>
<polygon fill="midnightblue" stroke="midnightblue" points="1136.39,-983.59 1126.32,-986.87 1136.24,-990.59 1136.39,-983.59"/>
</g>
<!-- Node16 -->
<g id="node16" class="node">
<title>Node16</title>
<g id="a_node16"><a xlink:title=" ">
<polygon fill="white" stroke="#bfbfbf" points="1049,-628 1049,-647 1078,-647 1078,-628 1049,-628"/>
<text text-anchor="middle" x="1063.5" y="-635" font-family="Helvetica,sans-Serif" font-size="10.00">int</text>
</a>
</g>
</g>
<!-- Node16&#45;&gt;Node2 -->
<g id="edge16" class="edge">
<title>Node16&#45;&gt;Node2</title>
<path fill="none" stroke="#9a32cd" stroke-dasharray="5,2" d="M1088.24,-640.51C1112.16,-643.55 1150.14,-648.36 1183,-652.5 1331.88,-671.26 1369.88,-670.5 1518,-694.5 1580.17,-704.57 1651.56,-719.38 1695.97,-728.98"/>
<polygon fill="#9a32cd" stroke="#9a32cd" points="1088.37,-637 1078.01,-639.21 1087.49,-643.95 1088.37,-637"/>
<text text-anchor="middle" x="1427.5" y="-730.5" font-family="Helvetica,sans-Serif" font-size="10.00"> verbosity</text>
<text text-anchor="middle" x="1427.5" y="-719.5" font-family="Helvetica,sans-Serif" font-size="10.00">sIze</text>
<text text-anchor="middle" x="1427.5" y="-708.5" font-family="Helvetica,sans-Serif" font-size="10.00">referenceNumber</text>
<text text-anchor="middle" x="1427.5" y="-697.5" font-family="Helvetica,sans-Serif" font-size="10.00">rAnk</text>
</g>
<!-- Node18 -->
<g id="node18" class="node">
<title>Node18</title>
<g id="a_node18"><a xlink:href="structMoFEM_1_1Problem.html" target="_top" xlink:title="keeps basic data about problem">
<polygon fill="white" stroke="black" points="1378,-407 1378,-426 1477,-426 1477,-407 1378,-407"/>
<text text-anchor="middle" x="1427.5" y="-414" font-family="Helvetica,sans-Serif" font-size="10.00">MoFEM::Problem</text>
</a>
</g>
</g>
<!-- Node16&#45;&gt;Node18 -->
<g id="edge28" class="edge">
<title>Node16&#45;&gt;Node18</title>
<path fill="none" stroke="#9a32cd" stroke-dasharray="5,2" d="M1087.51,-627.65C1108.26,-618.44 1139.38,-603.84 1165,-588.5 1173.47,-583.43 1173.9,-579.31 1183,-575.5 1239.55,-551.82 1266.25,-583.74 1319,-552.5 1372.6,-520.75 1409.81,-451.43 1422.08,-426.05"/>
<polygon fill="#9a32cd" stroke="#9a32cd" points="1085.97,-624.5 1078.22,-631.71 1088.78,-630.91 1085.97,-624.5"/>
<text text-anchor="middle" x="1251" y="-644.5" font-family="Helvetica,sans-Serif" font-size="10.00"> tagNameSize</text>
<text text-anchor="middle" x="1251" y="-633.5" font-family="Helvetica,sans-Serif" font-size="10.00">nbDofsRow</text>
<text text-anchor="middle" x="1251" y="-622.5" font-family="Helvetica,sans-Serif" font-size="10.00">nbLocDofsCol</text>
<text text-anchor="middle" x="1251" y="-611.5" font-family="Helvetica,sans-Serif" font-size="10.00">nbDofsCol</text>
<text text-anchor="middle" x="1251" y="-600.5" font-family="Helvetica,sans-Serif" font-size="10.00">nbGhostDofsRow</text>
<text text-anchor="middle" x="1251" y="-589.5" font-family="Helvetica,sans-Serif" font-size="10.00">nbGhostDofsCol</text>
<text text-anchor="middle" x="1251" y="-578.5" font-family="Helvetica,sans-Serif" font-size="10.00">nbLocDofsRow</text>
</g>
<!-- Node17 -->
<g id="node17" class="node">
<title>Node17</title>
<g id="a_node17"><a xlink:title=" ">
<polygon fill="white" stroke="#bfbfbf" points="1405.5,-611 1405.5,-630 1449.5,-630 1449.5,-611 1405.5,-611"/>
<text text-anchor="middle" x="1427.5" y="-618" font-family="Helvetica,sans-Serif" font-size="10.00">string</text>
</a>
</g>
</g>
<!-- Node17&#45;&gt;Node2 -->
<g id="edge17" class="edge">
<title>Node17&#45;&gt;Node2</title>
<path fill="none" stroke="#9a32cd" stroke-dasharray="5,2" d="M1459.64,-617.1C1503.19,-613.74 1583.7,-612.63 1644,-641.5 1686.1,-661.65 1719.9,-708.66 1733.06,-728.92"/>
<polygon fill="#9a32cd" stroke="#9a32cd" points="1459.31,-613.62 1449.65,-617.97 1459.92,-620.59 1459.31,-613.62"/>
<text text-anchor="middle" x="1590" y="-644.5" font-family="Helvetica,sans-Serif" font-size="10.00"> problemName</text>
</g>
<!-- Node18&#45;&gt;Node2 -->
<g id="edge18" class="edge">
<title>Node18&#45;&gt;Node2</title>
<path fill="none" stroke="#9a32cd" stroke-dasharray="5,2" d="M1452.22,-431.71C1494.3,-459.48 1583.28,-521.78 1644,-589.5 1685.99,-636.32 1721.65,-703.7 1734.19,-728.69"/>
<polygon fill="#9a32cd" stroke="#9a32cd" points="1454.03,-428.72 1443.75,-426.17 1450.2,-434.57 1454.03,-428.72"/>
<text text-anchor="middle" x="1590" y="-603.5" font-family="Helvetica,sans-Serif" font-size="10.00"> problemPtr</text>
<text text-anchor="middle" x="1590" y="-592.5" font-family="Helvetica,sans-Serif" font-size="10.00">problemMainOfSubPtr</text>
</g>
<!-- Node19 -->
<g id="node19" class="node">
<title>Node19</title>
<g id="a_node19"><a xlink:title=" ">
<polygon fill="white" stroke="#bfbfbf" points="980,-548.5 980,-578.5 1147,-578.5 1147,-548.5 980,-548.5"/>
<text text-anchor="start" x="988" y="-566.5" font-family="Helvetica,sans-Serif" font-size="10.00">shared_ptr&lt; NumeredEntFinite</text>
<text text-anchor="middle" x="1063.5" y="-555.5" font-family="Helvetica,sans-Serif" font-size="10.00">Element_multiIndex &gt;</text>
</a>
</g>
</g>
<!-- Node19&#45;&gt;Node18 -->
<g id="edge19" class="edge">
<title>Node19&#45;&gt;Node18</title>
<path fill="none" stroke="#9a32cd" stroke-dasharray="5,2" d="M1154.47,-546.64C1164.1,-544.88 1173.75,-543.14 1183,-541.5 1243.36,-530.79 1264.16,-545.9 1319,-518.5 1364.8,-495.62 1404.35,-446.68 1419.7,-426.02"/>
<polygon fill="#9a32cd" stroke="#9a32cd" points="1153.67,-543.23 1144.47,-548.47 1154.93,-550.11 1153.67,-543.23"/>
<text text-anchor="middle" x="1251" y="-544.5" font-family="Helvetica,sans-Serif" font-size="10.00"> numeredFiniteElementsPtr</text>
</g>
<!-- Node20 -->
<g id="node20" class="node">
<title>Node20</title>
<g id="a_node20"><a xlink:title=" ">
<polygon fill="white" stroke="#bfbfbf" points="1034,-510 1034,-529 1093,-529 1093,-510 1034,-510"/>
<text text-anchor="middle" x="1063.5" y="-517" font-family="Helvetica,sans-Serif" font-size="10.00">BitFEId *</text>
</a>
</g>
</g>
<!-- Node20&#45;&gt;Node18 -->
<g id="edge20" class="edge">
<title>Node20&#45;&gt;Node18</title>
<path fill="none" stroke="#9a32cd" stroke-dasharray="5,2" d="M1103.11,-515.42C1164.15,-508.66 1280.02,-494.49 1319,-480.5 1356.21,-467.15 1394.84,-440.43 1414.07,-426.1"/>
<polygon fill="#9a32cd" stroke="#9a32cd" points="1102.65,-511.95 1093.09,-516.52 1103.41,-518.91 1102.65,-511.95"/>
<text text-anchor="middle" x="1251" y="-507.5" font-family="Helvetica,sans-Serif" font-size="10.00"> tagBitFEId</text>
</g>
<!-- Node21 -->
<g id="node21" class="node">
<title>Node21</title>
<g id="a_node21"><a xlink:href="classEntityHandle.html" target="_top" xlink:title=" ">
<polygon fill="white" stroke="black" points="1023.5,-472 1023.5,-491 1103.5,-491 1103.5,-472 1023.5,-472"/>
<text text-anchor="middle" x="1063.5" y="-479" font-family="Helvetica,sans-Serif" font-size="10.00">EntityHandle</text>
</a>
</g>
</g>
<!-- Node21&#45;&gt;Node18 -->
<g id="edge21" class="edge">
<title>Node21&#45;&gt;Node18</title>
<path fill="none" stroke="#9a32cd" stroke-dasharray="5,2" d="M1113.71,-475.98C1165.18,-469.83 1248.17,-458.83 1319,-444.5 1344.33,-439.38 1372.6,-431.94 1393.78,-426.03"/>
<polygon fill="#9a32cd" stroke="#9a32cd" points="1113.06,-472.53 1103.54,-477.18 1113.88,-479.49 1113.06,-472.53"/>
<text text-anchor="middle" x="1251" y="-468.5" font-family="Helvetica,sans-Serif" font-size="10.00"> meshset</text>
</g>
<!-- Node22 -->
<g id="node22" class="node">
<title>Node22</title>
<g id="a_node22"><a xlink:title=" ">
<polygon fill="white" stroke="#bfbfbf" points="989,-422.5 989,-452.5 1138,-452.5 1138,-422.5 989,-422.5"/>
<text text-anchor="start" x="997" y="-440.5" font-family="Helvetica,sans-Serif" font-size="10.00">shared_ptr&lt; MoFEM::</text>
<text text-anchor="middle" x="1063.5" y="-429.5" font-family="Helvetica,sans-Serif" font-size="10.00">ComposedProblemsData &gt;</text>
</a>
</g>
</g>
<!-- Node22&#45;&gt;Node18 -->
<g id="edge22" class="edge">
<title>Node22&#45;&gt;Node18</title>
<path fill="none" stroke="#9a32cd" stroke-dasharray="5,2" d="M1148.47,-432.63C1219.61,-428.5 1319.12,-422.73 1377.79,-419.33"/>
<polygon fill="#9a32cd" stroke="#9a32cd" points="1147.97,-429.15 1138.19,-433.23 1148.38,-436.14 1147.97,-429.15"/>
<text text-anchor="middle" x="1251" y="-432.5" font-family="Helvetica,sans-Serif" font-size="10.00"> composedProblemsData</text>
</g>
<!-- Node23 -->
<g id="node23" class="node">
<title>Node23</title>
<g id="a_node23"><a xlink:title=" ">
<polygon fill="white" stroke="#bfbfbf" points="1023,-384 1023,-403 1104,-403 1104,-384 1023,-384"/>
<text text-anchor="middle" x="1063.5" y="-391" font-family="Helvetica,sans-Serif" font-size="10.00">BitRefLevel *</text>
</a>
</g>
</g>
<!-- Node23&#45;&gt;Node18 -->
<g id="edge23" class="edge">
<title>Node23&#45;&gt;Node18</title>
<path fill="none" stroke="#9a32cd" stroke-dasharray="5,2" d="M1114.46,-391.56C1165.88,-390.15 1248.24,-389.55 1319,-396.5 1340.82,-398.64 1364.83,-402.92 1384.62,-406.98"/>
<polygon fill="#9a32cd" stroke="#9a32cd" points="1114.18,-388.07 1104.29,-391.86 1114.39,-395.06 1114.18,-388.07"/>
<text text-anchor="middle" x="1251" y="-410.5" font-family="Helvetica,sans-Serif" font-size="10.00"> tagBitRefLevelMask</text>
<text text-anchor="middle" x="1251" y="-399.5" font-family="Helvetica,sans-Serif" font-size="10.00">tagBitRefLevel</text>
</g>
<!-- Node24 -->
<g id="node24" class="node">
<title>Node24</title>
<g id="a_node24"><a xlink:title=" ">
<polygon fill="white" stroke="#bfbfbf" points="978.5,-334.5 978.5,-364.5 1148.5,-364.5 1148.5,-334.5 978.5,-334.5"/>
<text text-anchor="start" x="986.5" y="-352.5" font-family="Helvetica,sans-Serif" font-size="10.00">shared_ptr&lt; NumeredDofEntity</text>
<text text-anchor="middle" x="1063.5" y="-341.5" font-family="Helvetica,sans-Serif" font-size="10.00">_multiIndex &gt;</text>
</a>
</g>
</g>
<!-- Node24&#45;&gt;Node18 -->
<g id="edge24" class="edge">
<title>Node24&#45;&gt;Node18</title>
<path fill="none" stroke="#9a32cd" stroke-dasharray="5,2" d="M1158.75,-334.04C1209.89,-330.56 1272.04,-334.72 1319,-364.5 1333.11,-373.45 1323.6,-387.52 1337,-397.5 1348.72,-406.23 1363.57,-411.14 1377.8,-413.85"/>
<polygon fill="#9a32cd" stroke="#9a32cd" points="1158.38,-330.56 1148.68,-334.83 1158.93,-337.54 1158.38,-330.56"/>
<text text-anchor="middle" x="1251" y="-378.5" font-family="Helvetica,sans-Serif" font-size="10.00"> numeredRowDofsPtr</text>
<text text-anchor="middle" x="1251" y="-367.5" font-family="Helvetica,sans-Serif" font-size="10.00">numeredColDofsPtr</text>
</g>
<!-- Node25 -->
<g id="node25" class="node">
<title>Node25</title>
<g id="a_node25"><a xlink:title=" ">
<polygon fill="white" stroke="#bfbfbf" points="1044.5,-296 1044.5,-315 1082.5,-315 1082.5,-296 1044.5,-296"/>
<text text-anchor="middle" x="1063.5" y="-303" font-family="Helvetica,sans-Serif" font-size="10.00">char</text>
</a>
</g>
</g>
<!-- Node25&#45;&gt;Node18 -->
<g id="edge25" class="edge">
<title>Node25&#45;&gt;Node18</title>
<path fill="none" stroke="#9a32cd" stroke-dasharray="5,2" d="M1092.88,-302.71C1151.97,-297.54 1285.51,-289.39 1319,-317.5 1346.91,-340.93 1311.07,-371.89 1337,-397.5 1347.73,-408.11 1362.83,-413.46 1377.57,-415.99"/>
<polygon fill="#9a32cd" stroke="#9a32cd" points="1092.39,-299.24 1082.75,-303.63 1093.03,-306.21 1092.39,-299.24"/>
<text text-anchor="middle" x="1251" y="-320.5" font-family="Helvetica,sans-Serif" font-size="10.00"> tagName</text>
</g>
<!-- Node26 -->
<g id="node26" class="node">
<title>Node26</title>
<g id="a_node26"><a xlink:title=" ">
<polygon fill="white" stroke="#bfbfbf" points="994.5,-258 994.5,-277 1132.5,-277 1132.5,-258 994.5,-258"/>
<text text-anchor="middle" x="1063.5" y="-265" font-family="Helvetica,sans-Serif" font-size="10.00">vector&lt; BlockFieldPair &gt;</text>
</a>
</g>
</g>
<!-- Node26&#45;&gt;Node18 -->
<g id="edge26" class="edge">
<title>Node26&#45;&gt;Node18</title>
<path fill="none" stroke="#9a32cd" stroke-dasharray="5,2" d="M1142.98,-261.43C1208.1,-258.22 1293.94,-258.8 1319,-281.5 1357.67,-316.52 1301.14,-359.6 1337,-397.5 1347.48,-408.58 1362.69,-414.02 1377.6,-416.49"/>
<polygon fill="#9a32cd" stroke="#9a32cd" points="1142.52,-257.95 1132.72,-261.97 1142.89,-264.94 1142.52,-257.95"/>
<text text-anchor="middle" x="1251" y="-284.5" font-family="Helvetica,sans-Serif" font-size="10.00"> emptyFieldBlocks</text>
</g>
<!-- Node27 -->
<g id="node27" class="node">
<title>Node27</title>
<g id="a_node27"><a xlink:title=" ">
<polygon fill="white" stroke="#bfbfbf" points="985.5,-208.5 985.5,-238.5 1141.5,-238.5 1141.5,-208.5 985.5,-208.5"/>
<text text-anchor="start" x="993.5" y="-226.5" font-family="Helvetica,sans-Serif" font-size="10.00">shared_ptr&lt; MoFEM::</text>
<text text-anchor="middle" x="1063.5" y="-215.5" font-family="Helvetica,sans-Serif" font-size="10.00">Problem::SubProblemData &gt;</text>
</a>
</g>
</g>
<!-- Node27&#45;&gt;Node18 -->
<g id="edge27" class="edge">
<title>Node27&#45;&gt;Node18</title>
<path fill="none" stroke="#9a32cd" stroke-dasharray="5,2" d="M1138.76,-206.97C1195.73,-199.02 1272.3,-199.39 1319,-244.5 1368.25,-292.07 1290.86,-346.91 1337,-397.5 1347.38,-408.88 1362.75,-414.37 1377.83,-416.79"/>
<polygon fill="#9a32cd" stroke="#9a32cd" points="1138.09,-203.53 1128.72,-208.48 1139.13,-210.45 1138.09,-203.53"/>
<text text-anchor="middle" x="1251" y="-247.5" font-family="Helvetica,sans-Serif" font-size="10.00"> subProblemData</text>
</g>
<!-- Node28 -->
<g id="node28" class="node">
<title>Node28</title>
<g id="a_node28"><a xlink:title=" ">
<polygon fill="white" stroke="#bfbfbf" points="962,-170 962,-189 1165,-189 1165,-170 962,-170"/>
<text text-anchor="middle" x="1063.5" y="-177" font-family="Helvetica,sans-Serif" font-size="10.00">shared_ptr&lt; SequenceDofContainer &gt;</text>
</a>
</g>
</g>
<!-- Node28&#45;&gt;Node18 -->
<g id="edge29" class="edge">
<title>Node28&#45;&gt;Node18</title>
<path fill="none" stroke="#9a32cd" stroke-dasharray="5,2" d="M1132.84,-168.6C1198.95,-159.79 1292.85,-152.39 1319,-176.5 1355.23,-209.9 1304.46,-360.5 1337,-397.5 1347.18,-409.07 1362.49,-414.6 1377.59,-417"/>
<polygon fill="#9a32cd" stroke="#9a32cd" points="1132.33,-165.14 1122.9,-169.97 1133.28,-172.08 1132.33,-165.14"/>
<text text-anchor="middle" x="1251" y="-190.5" font-family="Helvetica,sans-Serif" font-size="10.00"> sequenceRowDofContainer</text>
<text text-anchor="middle" x="1251" y="-179.5" font-family="Helvetica,sans-Serif" font-size="10.00">sequenceColDofContainer</text>
</g>
<!-- Node29 -->
<g id="node29" class="node">
<title>Node29</title>
<g id="a_node29"><a xlink:title=" ">
<polygon fill="white" stroke="#bfbfbf" points="1019.5,-132 1019.5,-151 1107.5,-151 1107.5,-132 1019.5,-132"/>
<text text-anchor="middle" x="1063.5" y="-139" font-family="Helvetica,sans-Serif" font-size="10.00">BitProblemId *</text>
</a>
</g>
</g>
<!-- Node29&#45;&gt;Node18 -->
<g id="edge30" class="edge">
<title>Node29&#45;&gt;Node18</title>
<path fill="none" stroke="#9a32cd" stroke-dasharray="5,2" d="M1117.83,-134.07C1183.87,-126.2 1291.07,-118.18 1319,-144.5 1360.02,-183.16 1299.99,-354.99 1337,-397.5 1347.22,-409.24 1362.73,-414.78 1377.99,-417.14"/>
<polygon fill="#9a32cd" stroke="#9a32cd" points="1117.1,-130.63 1107.6,-135.33 1117.96,-137.58 1117.1,-130.63"/>
<text text-anchor="middle" x="1251" y="-147.5" font-family="Helvetica,sans-Serif" font-size="10.00"> tagId</text>
</g>
<!-- Node30 -->
<g id="node30" class="node">
<title>Node30</title>
<g id="a_node30"><a xlink:title=" ">
<polygon fill="white" stroke="#bfbfbf" points="1358,-357.5 1358,-387.5 1497,-387.5 1497,-357.5 1358,-357.5"/>
<text text-anchor="start" x="1366" y="-375.5" font-family="Helvetica,sans-Serif" font-size="10.00">map&lt; std::string, boost</text>
<text text-anchor="middle" x="1427.5" y="-364.5" font-family="Helvetica,sans-Serif" font-size="10.00">::shared_ptr&lt; Range &gt; &gt;</text>
</a>
</g>
</g>
<!-- Node30&#45;&gt;Node2 -->
<g id="edge31" class="edge">
<title>Node30&#45;&gt;Node2</title>
<path fill="none" stroke="#9a32cd" stroke-dasharray="5,2" d="M1506.82,-388.4C1553.07,-401.73 1609.2,-425.43 1644,-466.5 1715.14,-550.46 1734.17,-690.99 1738.11,-728.86"/>
<polygon fill="#9a32cd" stroke="#9a32cd" points="1507.69,-385.01 1497.11,-385.71 1505.82,-391.76 1507.69,-385.01"/>
<text text-anchor="middle" x="1590" y="-480.5" font-family="Helvetica,sans-Serif" font-size="10.00"> mapTypeCol</text>
<text text-anchor="middle" x="1590" y="-469.5" font-family="Helvetica,sans-Serif" font-size="10.00">mapTypeRow</text>
</g>
<!-- Node31 -->
<g id="node31" class="node">
<title>Node31</title>
<g id="a_node31"><a xlink:href="structMoFEM_1_1SmartPetscObj.html" target="_top" xlink:title=" ">
<polygon fill="white" stroke="black" points="1674.5,-196.5 1674.5,-226.5 1805.5,-226.5 1805.5,-196.5 1674.5,-196.5"/>
<text text-anchor="start" x="1682.5" y="-214.5" font-family="Helvetica,sans-Serif" font-size="10.00">MoFEM::SmartPetscObj</text>
<text text-anchor="middle" x="1740" y="-203.5" font-family="Helvetica,sans-Serif" font-size="10.00">&lt; AO &gt;</text>
</a>
</g>
</g>
<!-- Node31&#45;&gt;Node1 -->
<g id="edge32" class="edge">
<title>Node31&#45;&gt;Node1</title>
<path fill="none" stroke="#9a32cd" stroke-dasharray="5,2" d="M1815.76,-194.34C1849.04,-186.39 1888.62,-176.5 1924,-166.5 1953.01,-158.3 1985.8,-147.65 2008.46,-140.06"/>
<polygon fill="#9a32cd" stroke="#9a32cd" points="1814.57,-191.03 1805.65,-196.75 1816.19,-197.84 1814.57,-191.03"/>
<text text-anchor="middle" x="1880" y="-191.5" font-family="Helvetica,sans-Serif" font-size="10.00"> aO</text>
</g>
<!-- Node32 -->
<g id="node32" class="node">
<title>Node32</title>
<g id="a_node32"><a xlink:title=" ">
<polygon fill="white" stroke="#bfbfbf" points="1364.5,-202 1364.5,-243 1490.5,-243 1490.5,-202 1364.5,-202"/>
<text text-anchor="start" x="1372.5" y="-231" font-family="Helvetica,sans-Serif" font-size="10.00">boost::intrusive_ptr</text>
<text text-anchor="start" x="1372.5" y="-220" font-family="Helvetica,sans-Serif" font-size="10.00">&lt; std::remove_pointer</text>
<text text-anchor="middle" x="1427.5" y="-209" font-family="Helvetica,sans-Serif" font-size="10.00">&lt; AO &gt;::type &gt;</text>
</a>
</g>
</g>
<!-- Node32&#45;&gt;Node31 -->
<g id="edge33" class="edge">
<title>Node32&#45;&gt;Node31</title>
<path fill="none" stroke="midnightblue" d="M1500.84,-219.94C1553.33,-218.08 1623.72,-215.58 1674.35,-213.79"/>
<polygon fill="midnightblue" stroke="midnightblue" points="1500.46,-216.45 1490.59,-220.3 1500.71,-223.44 1500.46,-216.45"/>
</g>
<!-- Node33 -->
<g id="node33" class="node">
<title>Node33</title>
<g id="a_node33"><a xlink:href="structMoFEM_1_1SmartPetscObj.html" target="_top" xlink:title="intrusive_ptr for managing petsc objects">
<polygon fill="white" stroke="black" points="1362,-150.5 1362,-180.5 1493,-180.5 1493,-150.5 1362,-150.5"/>
<text text-anchor="start" x="1370" y="-168.5" font-family="Helvetica,sans-Serif" font-size="10.00">MoFEM::SmartPetscObj</text>
<text text-anchor="middle" x="1427.5" y="-157.5" font-family="Helvetica,sans-Serif" font-size="10.00">&lt; OBJ &gt;</text>
</a>
</g>
</g>
<!-- Node33&#45;&gt;Node31 -->
<g id="edge34" class="edge">
<title>Node33&#45;&gt;Node31</title>
<path fill="none" stroke="orange" stroke-dasharray="5,2" d="M1503.42,-176.6C1555.63,-184.33 1624.57,-194.55 1674.37,-201.93"/>
<polygon fill="orange" stroke="orange" points="1503.62,-173.09 1493.21,-175.09 1502.59,-180.01 1503.62,-173.09"/>
<text text-anchor="middle" x="1590" y="-199.5" font-family="Helvetica,sans-Serif" font-size="10.00"> &lt; AO &gt;</text>
</g>
<!-- Node35 -->
<g id="node35" class="node">
<title>Node35</title>
<g id="a_node35"><a xlink:href="structMoFEM_1_1SmartPetscObj.html" target="_top" xlink:title=" ">
<polygon fill="white" stroke="black" points="1674.5,-147.5 1674.5,-177.5 1805.5,-177.5 1805.5,-147.5 1674.5,-147.5"/>
<text text-anchor="start" x="1682.5" y="-165.5" font-family="Helvetica,sans-Serif" font-size="10.00">MoFEM::SmartPetscObj</text>
<text text-anchor="middle" x="1740" y="-154.5" font-family="Helvetica,sans-Serif" font-size="10.00">&lt; DM &gt;</text>
</a>
</g>
</g>
<!-- Node33&#45;&gt;Node35 -->
<g id="edge38" class="edge">
<title>Node33&#45;&gt;Node35</title>
<path fill="none" stroke="orange" stroke-dasharray="5,2" d="M1503.08,-163.98C1514.11,-163.79 1525.35,-163.63 1536,-163.5 1582.17,-162.96 1634.24,-162.71 1674.09,-162.59"/>
<polygon fill="orange" stroke="orange" points="1502.95,-160.48 1493.02,-164.16 1503.08,-167.48 1502.95,-160.48"/>
<text text-anchor="middle" x="1590" y="-166.5" font-family="Helvetica,sans-Serif" font-size="10.00"> &lt; DM &gt;</text>
</g>
<!-- Node34 -->
<g id="node34" class="node">
<title>Node34</title>
<g id="a_node34"><a xlink:title=" ">
<polygon fill="white" stroke="#bfbfbf" points="1000.5,-72 1000.5,-113 1126.5,-113 1126.5,-72 1000.5,-72"/>
<text text-anchor="start" x="1008.5" y="-101" font-family="Helvetica,sans-Serif" font-size="10.00">boost::intrusive_ptr</text>
<text text-anchor="start" x="1008.5" y="-90" font-family="Helvetica,sans-Serif" font-size="10.00">&lt; std::remove_pointer</text>
<text text-anchor="middle" x="1063.5" y="-79" font-family="Helvetica,sans-Serif" font-size="10.00">&lt; OBJ &gt;::type &gt;</text>
</a>
</g>
</g>
<!-- Node34&#45;&gt;Node33 -->
<g id="edge35" class="edge">
<title>Node34&#45;&gt;Node33</title>
<path fill="none" stroke="midnightblue" d="M1136.57,-86.36C1189.91,-84.98 1262.75,-89.93 1319,-119.5 1329.88,-125.22 1326.63,-133.89 1337,-140.5 1344.62,-145.35 1353.19,-149.28 1361.93,-152.45"/>
<polygon fill="midnightblue" stroke="midnightblue" points="1136.39,-82.86 1126.52,-86.7 1136.63,-89.86 1136.39,-82.86"/>
</g>
<!-- Node35&#45;&gt;Node1 -->
<g id="edge36" class="edge">
<title>Node35&#45;&gt;Node1</title>
<path fill="none" stroke="#9a32cd" stroke-dasharray="5,2" d="M1815.89,-154.39C1856.27,-150.02 1906.32,-144.6 1948.54,-140.03"/>
<polygon fill="#9a32cd" stroke="#9a32cd" points="1815.41,-150.92 1805.85,-155.48 1816.17,-157.88 1815.41,-150.92"/>
<text text-anchor="middle" x="1880" y="-154.5" font-family="Helvetica,sans-Serif" font-size="10.00"> coarsenDM</text>
</g>
<!-- Node36 -->
<g id="node36" class="node">
<title>Node36</title>
<g id="a_node36"><a xlink:title=" ">
<polygon fill="white" stroke="#bfbfbf" points="1364.5,-90 1364.5,-131 1490.5,-131 1490.5,-90 1364.5,-90"/>
<text text-anchor="start" x="1372.5" y="-119" font-family="Helvetica,sans-Serif" font-size="10.00">boost::intrusive_ptr</text>
<text text-anchor="start" x="1372.5" y="-108" font-family="Helvetica,sans-Serif" font-size="10.00">&lt; std::remove_pointer</text>
<text text-anchor="middle" x="1427.5" y="-97" font-family="Helvetica,sans-Serif" font-size="10.00">&lt; DM &gt;::type &gt;</text>
</a>
</g>
</g>
<!-- Node36&#45;&gt;Node35 -->
<g id="edge37" class="edge">
<title>Node36&#45;&gt;Node35</title>
<path fill="none" stroke="midnightblue" d="M1500.51,-122.56C1553.04,-131.36 1623.62,-143.18 1674.35,-151.67"/>
<polygon fill="midnightblue" stroke="midnightblue" points="1501.03,-119.1 1490.59,-120.9 1499.87,-126 1501.03,-119.1"/>
</g>
<!-- Node37 -->
<g id="node37" class="node">
<title>Node37</title>
<g id="a_node37"><a xlink:title=" ">
<polygon fill="white" stroke="#bfbfbf" points="1662,-98.5 1662,-128.5 1818,-128.5 1818,-98.5 1662,-98.5"/>
<text text-anchor="start" x="1670" y="-116.5" font-family="Helvetica,sans-Serif" font-size="10.00">vector&lt; MoFEM::SmartPetsc</text>
<text text-anchor="middle" x="1740" y="-105.5" font-family="Helvetica,sans-Serif" font-size="10.00">Obj&lt; Mat &gt; &gt;</text>
</a>
</g>
</g>
<!-- Node37&#45;&gt;Node1 -->
<g id="edge39" class="edge">
<title>Node37&#45;&gt;Node1</title>
<path fill="none" stroke="#9a32cd" stroke-dasharray="5,2" d="M1828.18,-116.67C1858.52,-117.94 1892.77,-119.57 1924,-121.5 1929.87,-121.86 1935.9,-122.26 1941.99,-122.69"/>
<polygon fill="#9a32cd" stroke="#9a32cd" points="1828.19,-113.17 1818.05,-116.25 1827.9,-120.16 1828.19,-113.17"/>
<text text-anchor="middle" x="1880" y="-124.5" font-family="Helvetica,sans-Serif" font-size="10.00"> kspOperators</text>
</g>
<!-- Node38 -->
<g id="node38" class="node">
<title>Node38</title>
<g id="a_node38"><a xlink:title=" ">
<polygon fill="white" stroke="#bfbfbf" points="1662,-49.5 1662,-79.5 1818,-79.5 1818,-49.5 1662,-49.5"/>
<text text-anchor="start" x="1670" y="-67.5" font-family="Helvetica,sans-Serif" font-size="10.00">vector&lt; MoFEM::SmartPetsc</text>
<text text-anchor="middle" x="1740" y="-56.5" font-family="Helvetica,sans-Serif" font-size="10.00">Obj&lt; IS &gt; &gt;</text>
</a>
</g>
</g>
<!-- Node38&#45;&gt;Node1 -->
<g id="edge40" class="edge">
<title>Node38&#45;&gt;Node1</title>
<path fill="none" stroke="#9a32cd" stroke-dasharray="5,2" d="M1828.35,-81.18C1858.7,-87.24 1892.92,-94.36 1924,-101.5 1949.95,-107.46 1979.05,-114.99 2001.15,-120.88"/>
<polygon fill="#9a32cd" stroke="#9a32cd" points="1828.7,-77.69 1818.21,-79.17 1827.34,-84.55 1828.7,-77.69"/>
<text text-anchor="middle" x="1880" y="-104.5" font-family="Helvetica,sans-Serif" font-size="10.00"> coarseningIS</text>
</g>
<!-- Node39 -->
<g id="node39" class="node">
<title>Node39</title>
<g id="a_node39"><a xlink:title=" ">
<polygon fill="white" stroke="#bfbfbf" points="1678.5,-0.5 1678.5,-30.5 1801.5,-30.5 1801.5,-0.5 1678.5,-0.5"/>
<text text-anchor="start" x="1686.5" y="-18.5" font-family="Helvetica,sans-Serif" font-size="10.00">ptr_vector&lt; MoFEM::</text>
<text text-anchor="middle" x="1740" y="-7.5" font-family="Helvetica,sans-Serif" font-size="10.00">PCMGSubMatrixCtx &gt;</text>
</a>
</g>
</g>
<!-- Node39&#45;&gt;Node1 -->
<g id="edge41" class="edge">
<title>Node39&#45;&gt;Node1</title>
<path fill="none" stroke="#9a32cd" stroke-dasharray="5,2" d="M1811.54,-31.44C1846.09,-40.27 1887.91,-52.51 1924,-67.5 1960.8,-82.78 2000.81,-107.27 2021.78,-120.77"/>
<polygon fill="#9a32cd" stroke="#9a32cd" points="1812.09,-27.96 1801.54,-28.92 1810.38,-34.75 1812.09,-27.96"/>
<text text-anchor="middle" x="1880" y="-70.5" font-family="Helvetica,sans-Serif" font-size="10.00"> shellMatrixCtxPtr</text>
</g>
</g>
</svg>
        <g id="navigator" transform="translate(0 0)" fill="#404254">
                <rect fill="#f2f5e9" fill-opacity="0.5" stroke="#606060" stroke-width=".5" x="0" y="0" width="60" height="60"/>
                <use id="zoomplus" xlink:href="#zoomPlus" x="17" y="9" onmousedown="handleZoom(evt,'in')"/>
                <use id="zoomminus" xlink:href="#zoomMin" x="42" y="9" onmousedown="handleZoom(evt,'out')"/>
                <use id="reset" xlink:href="#resetDef" x="30" y="36" onmousedown="handleReset()"/>
                <g id="arrowUp" xlink:href="#dirArrow" transform="translate(30 24)" onmousedown="handlePan(0,-1)">
                  <use xlink:href="#rim" fill="#404040">
                        <set attributeName="fill" to="#808080" begin="arrowUp.mouseover" end="arrowUp.mouseout"/>
                  </use>
                  <path fill="none" stroke="white" stroke-width="1.5" d="M0,-3.0v7 M-2.5,-0.5L0,-3.0L2.5,-0.5"/>
                </g>
                <g id="arrowRight" xlink:href="#dirArrow" transform="rotate(90) translate(36 -43)" onmousedown="handlePan(1,0)">
                  <use xlink:href="#rim" fill="#404040">
                        <set attributeName="fill" to="#808080" begin="arrowRight.mouseover" end="arrowRight.mouseout"/>
                  </use>
                  <path fill="none" stroke="white" stroke-width="1.5" d="M0,-3.0v7 M-2.5,-0.5L0,-3.0L2.5,-0.5"/>
                </g>
                <g id="arrowDown" xlink:href="#dirArrow" transform="rotate(180) translate(-30 -48)" onmousedown="handlePan(0,1)">
                  <use xlink:href="#rim" fill="#404040">
                        <set attributeName="fill" to="#808080" begin="arrowDown.mouseover" end="arrowDown.mouseout"/>
                  </use>
                  <path fill="none" stroke="white" stroke-width="1.5" d="M0,-3.0v7 M-2.5,-0.5L0,-3.0L2.5,-0.5"/>
                </g>
                <g id="arrowLeft" xlink:href="#dirArrow" transform="rotate(270) translate(-36 17)" onmousedown="handlePan(-1,0)">
                  <use xlink:href="#rim" fill="#404040">
                        <set attributeName="fill" to="#808080" begin="arrowLeft.mouseover" end="arrowLeft.mouseout"/>
                  </use>
                  <path fill="none" stroke="white" stroke-width="1.5" d="M0,-3.0v7 M-2.5,-0.5L0,-3.0L2.5,-0.5"/>
                </g>
        </g>
        <svg viewBox="0 0 15 15" width="100%" height="30px" preserveAspectRatio="xMaxYMin meet">
         <g id="arrow_out" transform="scale(0.3 0.3)">
          <a xlink:href="structMoFEM_1_1DMMGViaApproxOrdersCtx__coll__graph_org.svg" target="_base">
           <rect id="button" ry="5" rx="5" y="6" x="6" height="38" width="38"
                fill="#f2f5e9" fill-opacity="0.5" stroke="#606060" stroke-width="1.0"/>
           <path id="arrow"
             d="M 11.500037,31.436501 C 11.940474,20.09759 22.043105,11.32322 32.158766,21.979434 L 37.068811,17.246167 C 37.068811,17.246167 37.088388,32 37.088388,32 L 22.160133,31.978069 C 22.160133,31.978069 26.997745,27.140456 26.997745,27.140456 C 18.528582,18.264221 13.291696,25.230495 11.500037,31.436501 z"
             style="fill:#404040;"/>
          </a>
         </g>
        </svg>
</svg>
