<?xml version="1.0" encoding="UTF-8" standalone="no"?>
<!DOCTYPE svg PUBLIC "-//W3C//DTD SVG 1.1//EN"
 "http://www.w3.org/Graphics/SVG/1.1/DTD/svg11.dtd">
<!-- Generated by graphviz version 2.43.0 (0)
 -->
<!-- Title: MoFEM::OpDGProjectionMassMatrix Pages: 1 -->
<!--zoomable 1722 -->
<svg id="main" version="1.1" xmlns="http://www.w3.org/2000/svg" xmlns:xlink="http://www.w3.org/1999/xlink" xml:space="preserve" onload="init(evt)">
<style type="text/css"><![CDATA[
.edge:hover path { stroke: red; }
.edge:hover polygon { stroke: red; fill: red; }
]]></style>
<script type="text/javascript"><![CDATA[
var edges = document.getElementsByTagName('g');
if (edges && edges.length) {
  for (var i=0;i<edges.length;i++) {
    if (edges[i].id.substr(0,4)=='edge') {
      edges[i].setAttribute('class','edge');
    }
  }
}
]]></script>
        <defs>
                <circle id="rim" cx="0" cy="0" r="7"/>
                <circle id="rim2" cx="0" cy="0" r="3.5"/>
                <g id="zoomPlus">
                        <use xlink:href="#rim" fill="#404040">
                                <set attributeName="fill" to="#808080" begin="zoomplus.mouseover" end="zoomplus.mouseout"/>
                        </use>
                        <path d="M-4,0h8M0,-4v8" fill="none" stroke="white" stroke-width="1.5" pointer-events="none"/>
                </g>
                <g id="zoomMin">
                        <use xlink:href="#rim" fill="#404040">
                                <set attributeName="fill" to="#808080" begin="zoomminus.mouseover" end="zoomminus.mouseout"/>
                        </use>
                        <path d="M-4,0h8" fill="none" stroke="white" stroke-width="1.5" pointer-events="none"/>
                </g>
                <g id="dirArrow">
                        <path fill="none" stroke="white" stroke-width="1.5" d="M0,-3.0v7 M-2.5,-0.5L0,-3.0L2.5,-0.5"/>
                </g>
               <g id="resetDef">
                       <use xlink:href="#rim2" fill="#404040">
                               <set attributeName="fill" to="#808080" begin="reset.mouseover" end="reset.mouseout"/>
                       </use>
               </g>
        </defs>

<script type="text/javascript">
var viewWidth = 3495;
var viewHeight = 1722;
var sectionId = 'dynsection-1';
</script>
<script xlink:href="svgpan.js"/>
<svg id="graph" class="graph">
<g id="viewport">
<title>MoFEM::OpDGProjectionMassMatrix</title>
<polygon fill="white" stroke="transparent" points="-4,4 -4,-1718 3491,-1718 3491,4 -4,4"/>
<!-- Node1 -->
<g id="node1" class="node">
<title>Node1</title>
<g id="a_node1"><a xlink:title=" ">
<polygon fill="#bfbfbf" stroke="black" points="3326,-1583 3326,-1613 3487,-1613 3487,-1583 3326,-1583"/>
<text text-anchor="start" x="3334" y="-1601" font-family="Helvetica,sans-Serif" font-size="10.00">MoFEM::OpDGProjectionMass</text>
<text text-anchor="middle" x="3406.5" y="-1590" font-family="Helvetica,sans-Serif" font-size="10.00">Matrix</text>
</a>
</g>
</g>
<!-- Node2 -->
<g id="node2" class="node">
<title>Node2</title>
<g id="a_node2"><a xlink:href="structMoFEM_1_1OpBaseDerivativesBase.html" target="_top" xlink:title=" ">
<polygon fill="white" stroke="black" points="3113,-1301.5 3113,-1320.5 3289,-1320.5 3289,-1301.5 3113,-1301.5"/>
<text text-anchor="middle" x="3201" y="-1308.5" font-family="Helvetica,sans-Serif" font-size="10.00">MoFEM::OpBaseDerivativesBase</text>
</a>
</g>
</g>
<!-- Node2&#45;&gt;Node1 -->
<g id="edge1" class="edge">
<title>Node2&#45;&gt;Node1</title>
<path fill="none" stroke="midnightblue" d="M3214.67,-1328.86C3251.84,-1381.29 3360.21,-1534.13 3394.77,-1582.87"/>
<polygon fill="midnightblue" stroke="midnightblue" points="3217.41,-1326.68 3208.77,-1320.55 3211.7,-1330.73 3217.41,-1326.68"/>
</g>
<!-- Node3 -->
<g id="node3" class="node">
<title>Node3</title>
<g id="a_node3"><a xlink:href="structMoFEM_1_1ForcesAndSourcesCore_1_1UserDataOperator.html" target="_top" xlink:title=" ">
<polygon fill="white" stroke="black" points="2837,-1384 2837,-1414 3007,-1414 3007,-1384 2837,-1384"/>
<text text-anchor="start" x="2845" y="-1402" font-family="Helvetica,sans-Serif" font-size="10.00">MoFEM::ForcesAndSourcesCore</text>
<text text-anchor="middle" x="2922" y="-1391" font-family="Helvetica,sans-Serif" font-size="10.00">::UserDataOperator</text>
</a>
</g>
</g>
<!-- Node3&#45;&gt;Node2 -->
<g id="edge2" class="edge">
<title>Node3&#45;&gt;Node2</title>
<path fill="none" stroke="midnightblue" d="M3017.21,-1388.35C3042.89,-1383.9 3070.39,-1377.67 3095,-1369 3129.77,-1356.75 3166.65,-1333.72 3186.11,-1320.66"/>
<polygon fill="midnightblue" stroke="midnightblue" points="3016.39,-1384.94 3007.1,-1390.03 3017.54,-1391.85 3016.39,-1384.94"/>
</g>
<!-- Node4 -->
<g id="node4" class="node">
<title>Node4</title>
<g id="a_node4"><a xlink:href="structMoFEM_1_1DataOperator.html" target="_top" xlink:title="base operator to do operations at Gauss Pt. level">
<polygon fill="white" stroke="black" points="2579.5,-1489.5 2579.5,-1508.5 2704.5,-1508.5 2704.5,-1489.5 2579.5,-1489.5"/>
<text text-anchor="middle" x="2642" y="-1496.5" font-family="Helvetica,sans-Serif" font-size="10.00">MoFEM::DataOperator</text>
</a>
</g>
</g>
<!-- Node4&#45;&gt;Node3 -->
<g id="edge3" class="edge">
<title>Node4&#45;&gt;Node3</title>
<path fill="none" stroke="midnightblue" d="M2679.37,-1485.92C2730.88,-1467.39 2824.85,-1433.59 2879.18,-1414.04"/>
<polygon fill="midnightblue" stroke="midnightblue" points="2677.88,-1482.73 2669.66,-1489.41 2680.25,-1489.32 2677.88,-1482.73"/>
</g>
<!-- Node5 -->
<g id="node5" class="node">
<title>Node5</title>
<g id="a_node5"><a xlink:title=" ">
<polygon fill="white" stroke="#bfbfbf" points="2160,-1480 2160,-1532 2352,-1532 2352,-1480 2160,-1480"/>
<text text-anchor="start" x="2168" y="-1520" font-family="Helvetica,sans-Serif" font-size="10.00">function&lt; MoFEMErrorCode</text>
<text text-anchor="start" x="2168" y="-1509" font-family="Helvetica,sans-Serif" font-size="10.00">(DataOperator *op_ptr,</text>
<text text-anchor="start" x="2168" y="-1498" font-family="Helvetica,sans-Serif" font-size="10.00"> int side, EntityType type,</text>
<text text-anchor="middle" x="2256" y="-1487" font-family="Helvetica,sans-Serif" font-size="10.00"> EntitiesFieldData::EntData &amp;data)&gt;</text>
</a>
</g>
</g>
<!-- Node5&#45;&gt;Node4 -->
<g id="edge4" class="edge">
<title>Node5&#45;&gt;Node4</title>
<path fill="none" stroke="#9a32cd" stroke-dasharray="5,2" d="M2362.4,-1507.01C2415.4,-1507.16 2480.62,-1506.82 2539,-1505 2552.03,-1504.59 2565.99,-1503.93 2579.26,-1503.18"/>
<polygon fill="#9a32cd" stroke="#9a32cd" points="2362.32,-1503.51 2352.31,-1506.97 2362.3,-1510.5 2362.32,-1503.51"/>
<text text-anchor="middle" x="2458" y="-1510" font-family="Helvetica,sans-Serif" font-size="10.00"> doWorkRhsHook</text>
</g>
<!-- Node6 -->
<g id="node6" class="node">
<title>Node6</title>
<g id="a_node6"><a xlink:href="classbool.html" target="_top" xlink:title=" ">
<polygon fill="white" stroke="black" points="2237,-1422.5 2237,-1441.5 2275,-1441.5 2275,-1422.5 2237,-1422.5"/>
<text text-anchor="middle" x="2256" y="-1429.5" font-family="Helvetica,sans-Serif" font-size="10.00">bool</text>
</a>
</g>
</g>
<!-- Node6&#45;&gt;Node4 -->
<g id="edge5" class="edge">
<title>Node6&#45;&gt;Node4</title>
<path fill="none" stroke="#9a32cd" stroke-dasharray="5,2" d="M2285,-1427.76C2347.39,-1418.84 2495.73,-1400.84 2539,-1424 2551.72,-1430.81 2546.46,-1441.16 2557,-1451 2575.05,-1467.85 2600.07,-1481.17 2618.1,-1489.47"/>
<polygon fill="#9a32cd" stroke="#9a32cd" points="2284.46,-1424.3 2275.07,-1429.2 2285.47,-1431.22 2284.46,-1424.3"/>
<text text-anchor="middle" x="2458" y="-1493" font-family="Helvetica,sans-Serif" font-size="10.00"> doTris</text>
<text text-anchor="middle" x="2458" y="-1482" font-family="Helvetica,sans-Serif" font-size="10.00">doQuads</text>
<text text-anchor="middle" x="2458" y="-1471" font-family="Helvetica,sans-Serif" font-size="10.00">sYmm</text>
<text text-anchor="middle" x="2458" y="-1460" font-family="Helvetica,sans-Serif" font-size="10.00">doPrisms</text>
<text text-anchor="middle" x="2458" y="-1449" font-family="Helvetica,sans-Serif" font-size="10.00">doTets</text>
<text text-anchor="middle" x="2458" y="-1438" font-family="Helvetica,sans-Serif" font-size="10.00">doVertices</text>
<text text-anchor="middle" x="2458" y="-1427" font-family="Helvetica,sans-Serif" font-size="10.00">doEdges</text>
</g>
<!-- Node7 -->
<g id="node7" class="node">
<title>Node7</title>
<g id="a_node7"><a xlink:title=" ">
<polygon fill="white" stroke="#bfbfbf" points="2153,-1589.5 2153,-1674.5 2359,-1674.5 2359,-1589.5 2153,-1589.5"/>
<text text-anchor="start" x="2161" y="-1662.5" font-family="Helvetica,sans-Serif" font-size="10.00">function&lt; MoFEMErrorCode</text>
<text text-anchor="start" x="2161" y="-1651.5" font-family="Helvetica,sans-Serif" font-size="10.00">(DataOperator *op_ptr,</text>
<text text-anchor="start" x="2161" y="-1640.5" font-family="Helvetica,sans-Serif" font-size="10.00"> int row_side, int col_side,</text>
<text text-anchor="start" x="2161" y="-1629.5" font-family="Helvetica,sans-Serif" font-size="10.00"> EntityType row_type, EntityType</text>
<text text-anchor="start" x="2161" y="-1618.5" font-family="Helvetica,sans-Serif" font-size="10.00"> col_type, EntitiesFieldData::EntData</text>
<text text-anchor="start" x="2161" y="-1607.5" font-family="Helvetica,sans-Serif" font-size="10.00"> &amp;row_data, EntitiesFieldData::EntData</text>
<text text-anchor="middle" x="2256" y="-1596.5" font-family="Helvetica,sans-Serif" font-size="10.00"> &amp;col_data)&gt;</text>
</a>
</g>
</g>
<!-- Node7&#45;&gt;Node4 -->
<g id="edge6" class="edge">
<title>Node7&#45;&gt;Node4</title>
<path fill="none" stroke="#9a32cd" stroke-dasharray="5,2" d="M2369.3,-1627.06C2425.9,-1619.23 2492.25,-1601.23 2539,-1561 2554.7,-1547.49 2541.13,-1531.32 2557,-1518 2563.53,-1512.52 2571.31,-1508.54 2579.47,-1505.66"/>
<polygon fill="#9a32cd" stroke="#9a32cd" points="2368.69,-1623.61 2359.22,-1628.36 2369.58,-1630.55 2368.69,-1623.61"/>
<text text-anchor="middle" x="2458" y="-1628" font-family="Helvetica,sans-Serif" font-size="10.00"> doWorkLhsHook</text>
</g>
<!-- Node8 -->
<g id="node8" class="node">
<title>Node8</title>
<g id="a_node8"><a xlink:title=" ">
<polygon fill="white" stroke="#bfbfbf" points="2179,-1551.5 2179,-1570.5 2333,-1570.5 2333,-1551.5 2179,-1551.5"/>
<text text-anchor="middle" x="2256" y="-1558.5" font-family="Helvetica,sans-Serif" font-size="10.00">array&lt; bool, MBMAXTYPE &gt;</text>
</a>
</g>
</g>
<!-- Node8&#45;&gt;Node4 -->
<g id="edge7" class="edge">
<title>Node8&#45;&gt;Node4</title>
<path fill="none" stroke="#9a32cd" stroke-dasharray="5,2" d="M2343.51,-1550.95C2399.46,-1543.98 2473.76,-1533.84 2539,-1522 2540.58,-1521.71 2571.58,-1514.72 2598.99,-1508.52"/>
<polygon fill="#9a32cd" stroke="#9a32cd" points="2342.77,-1547.52 2333.28,-1552.22 2343.63,-1554.47 2342.77,-1547.52"/>
<text text-anchor="middle" x="2458" y="-1549" font-family="Helvetica,sans-Serif" font-size="10.00"> doEntities</text>
</g>
<!-- Node9 -->
<g id="node9" class="node">
<title>Node9</title>
<g id="a_node9"><a xlink:title=" ">
<polygon fill="white" stroke="#bfbfbf" points="2607.5,-1422.5 2607.5,-1441.5 2676.5,-1441.5 2676.5,-1422.5 2607.5,-1422.5"/>
<text text-anchor="middle" x="2642" y="-1429.5" font-family="Helvetica,sans-Serif" font-size="10.00">FieldSpace</text>
</a>
</g>
</g>
<!-- Node9&#45;&gt;Node3 -->
<g id="edge8" class="edge">
<title>Node9&#45;&gt;Node3</title>
<path fill="none" stroke="#9a32cd" stroke-dasharray="5,2" d="M2686.53,-1426.83C2726.69,-1422.07 2787.4,-1414.86 2836.99,-1408.97"/>
<polygon fill="#9a32cd" stroke="#9a32cd" points="2686.05,-1423.36 2676.53,-1428.02 2686.88,-1430.32 2686.05,-1423.36"/>
<text text-anchor="middle" x="2782" y="-1422" font-family="Helvetica,sans-Serif" font-size="10.00"> sPace</text>
</g>
<!-- Node10 -->
<g id="node10" class="node">
<title>Node10</title>
<g id="a_node10"><a xlink:title=" ">
<polygon fill="white" stroke="#bfbfbf" points="1122.5,-1335.5 1122.5,-1354.5 1160.5,-1354.5 1160.5,-1335.5 1122.5,-1335.5"/>
<text text-anchor="middle" x="1141.5" y="-1342.5" font-family="Helvetica,sans-Serif" font-size="10.00">char</text>
</a>
</g>
</g>
<!-- Node10&#45;&gt;Node3 -->
<g id="edge9" class="edge">
<title>Node10&#45;&gt;Node3</title>
<path fill="none" stroke="#9a32cd" stroke-dasharray="5,2" d="M1170.45,-1354.46C1194.23,-1362.04 1229.44,-1372.18 1261,-1377 1449.41,-1405.8 1498.91,-1394 1689.5,-1394 1689.5,-1394 1689.5,-1394 2643,-1394 2708.05,-1394 2781.64,-1395.39 2836.76,-1396.7"/>
<polygon fill="#9a32cd" stroke="#9a32cd" points="1171.29,-1351.05 1160.7,-1351.29 1169.13,-1357.71 1171.29,-1351.05"/>
<text text-anchor="middle" x="2063" y="-1397" font-family="Helvetica,sans-Serif" font-size="10.00"> opType</text>
</g>
<!-- Node38 -->
<g id="node38" class="node">
<title>Node38</title>
<g id="a_node38"><a xlink:href="structMoFEM_1_1Problem.html" target="_top" xlink:title="keeps basic data about problem">
<polygon fill="white" stroke="black" points="1449,-1051.5 1449,-1070.5 1548,-1070.5 1548,-1051.5 1449,-1051.5"/>
<text text-anchor="middle" x="1498.5" y="-1058.5" font-family="Helvetica,sans-Serif" font-size="10.00">MoFEM::Problem</text>
</a>
</g>
</g>
<!-- Node10&#45;&gt;Node38 -->
<g id="edge53" class="edge">
<title>Node10&#45;&gt;Node38</title>
<path fill="none" stroke="#9a32cd" stroke-dasharray="5,2" d="M1166.84,-1330.09C1187.44,-1317.27 1217.58,-1298.05 1243,-1280 1251.26,-1274.13 1251.72,-1270.08 1261,-1266 1317.12,-1241.32 1354.92,-1287.58 1397,-1243 1447.03,-1190 1366.55,-1134.45 1415,-1080 1423.6,-1070.34 1436.03,-1065.07 1448.65,-1062.32"/>
<polygon fill="#9a32cd" stroke="#9a32cd" points="1164.76,-1327.26 1158.1,-1335.5 1168.45,-1333.21 1164.76,-1327.26"/>
<text text-anchor="middle" x="1329" y="-1269" font-family="Helvetica,sans-Serif" font-size="10.00"> tagName</text>
</g>
<!-- Node11 -->
<g id="node11" class="node">
<title>Node11</title>
<g id="a_node11"><a xlink:href="structMoFEM_1_1ForcesAndSourcesCore.html" target="_top" xlink:title="structure to get information form mofem into EntitiesFieldData">
<polygon fill="white" stroke="black" points="2557,-613.5 2557,-632.5 2727,-632.5 2727,-613.5 2557,-613.5"/>
<text text-anchor="middle" x="2642" y="-620.5" font-family="Helvetica,sans-Serif" font-size="10.00">MoFEM::ForcesAndSourcesCore</text>
</a>
</g>
</g>
<!-- Node11&#45;&gt;Node3 -->
<g id="edge10" class="edge">
<title>Node11&#45;&gt;Node3</title>
<path fill="none" stroke="#9a32cd" stroke-dasharray="5,2" d="M2643.79,-642.85C2648.19,-731.68 2675.8,-1098.59 2837,-1336 2850.93,-1356.51 2873.76,-1373.01 2892.11,-1383.97"/>
<polygon fill="#9a32cd" stroke="#9a32cd" points="2647.28,-642.64 2643.33,-632.81 2640.29,-642.96 2647.28,-642.64"/>
<text text-anchor="middle" x="2782" y="-1305" font-family="Helvetica,sans-Serif" font-size="10.00"> ptrFE</text>
</g>
<!-- Node11&#45;&gt;Node11 -->
<g id="edge68" class="edge">
<title>Node11&#45;&gt;Node11</title>
<path fill="none" stroke="#9a32cd" stroke-dasharray="5,2" d="M2615.96,-642.03C2617.38,-647.13 2626.06,-651 2642,-651 2666.88,-651 2674.08,-641.57 2663.58,-632.76"/>
<polygon fill="#9a32cd" stroke="#9a32cd" points="2619.24,-643.29 2620.42,-632.76 2612.93,-640.25 2619.24,-643.29"/>
<text text-anchor="middle" x="2642" y="-665" font-family="Helvetica,sans-Serif" font-size="10.00"> sidePtrFE</text>
<text text-anchor="middle" x="2642" y="-654" font-family="Helvetica,sans-Serif" font-size="10.00">refinePtrFE</text>
</g>
<!-- Node12 -->
<g id="node12" class="node">
<title>Node12</title>
<g id="a_node12"><a xlink:href="structMoFEM_1_1FEMethod.html" target="_top" xlink:title="structure for User Loop Methods on finite elements">
<polygon fill="white" stroke="black" points="2202.5,-592.5 2202.5,-611.5 2309.5,-611.5 2309.5,-592.5 2202.5,-592.5"/>
<text text-anchor="middle" x="2256" y="-599.5" font-family="Helvetica,sans-Serif" font-size="10.00">MoFEM::FEMethod</text>
</a>
</g>
</g>
<!-- Node12&#45;&gt;Node11 -->
<g id="edge11" class="edge">
<title>Node12&#45;&gt;Node11</title>
<path fill="none" stroke="midnightblue" d="M2319.62,-605.42C2384.15,-608.95 2485.15,-614.48 2556.68,-618.39"/>
<polygon fill="midnightblue" stroke="midnightblue" points="2319.76,-601.93 2309.59,-604.88 2319.38,-608.92 2319.76,-601.93"/>
</g>
<!-- Node13 -->
<g id="node13" class="node">
<title>Node13</title>
<g id="a_node13"><a xlink:href="structMoFEM_1_1BasicMethod.html" target="_top" xlink:title="Data structure to exchange data between mofem and User Loop Methods.">
<polygon fill="white" stroke="black" points="1825,-611.5 1825,-630.5 1947,-630.5 1947,-611.5 1825,-611.5"/>
<text text-anchor="middle" x="1886" y="-618.5" font-family="Helvetica,sans-Serif" font-size="10.00">MoFEM::BasicMethod</text>
</a>
</g>
</g>
<!-- Node13&#45;&gt;Node12 -->
<g id="edge12" class="edge">
<title>Node13&#45;&gt;Node12</title>
<path fill="none" stroke="midnightblue" d="M1957.49,-619.84C2007.15,-618.74 2075.19,-616.7 2135,-613 2157.13,-611.63 2181.51,-609.51 2202.48,-607.49"/>
<polygon fill="midnightblue" stroke="midnightblue" points="1957.11,-616.34 1947.18,-620.05 1957.25,-623.34 1957.11,-616.34"/>
</g>
<!-- Node14 -->
<g id="node14" class="node">
<title>Node14</title>
<g id="a_node14"><a xlink:href="structMoFEM_1_1KspMethod.html" target="_top" xlink:title="data structure for ksp (linear solver) context">
<polygon fill="white" stroke="black" points="1442,-676.5 1442,-695.5 1555,-695.5 1555,-676.5 1442,-676.5"/>
<text text-anchor="middle" x="1498.5" y="-683.5" font-family="Helvetica,sans-Serif" font-size="10.00">MoFEM::KspMethod</text>
</a>
</g>
</g>
<!-- Node14&#45;&gt;Node13 -->
<g id="edge13" class="edge">
<title>Node14&#45;&gt;Node13</title>
<path fill="none" stroke="midnightblue" d="M1565.28,-674.91C1639.33,-662.42 1758.4,-642.35 1828.43,-630.54"/>
<polygon fill="midnightblue" stroke="midnightblue" points="1564.42,-671.5 1555.14,-676.62 1565.59,-678.41 1564.42,-671.5"/>
</g>
<!-- Node15 -->
<g id="node15" class="node">
<title>Node15</title>
<g id="a_node15"><a xlink:href="structMoFEM_1_1PetscData.html" target="_top" xlink:title=" ">
<polygon fill="white" stroke="black" points="1087.5,-370.5 1087.5,-389.5 1195.5,-389.5 1195.5,-370.5 1087.5,-370.5"/>
<text text-anchor="middle" x="1141.5" y="-377.5" font-family="Helvetica,sans-Serif" font-size="10.00">MoFEM::PetscData</text>
</a>
</g>
</g>
<!-- Node15&#45;&gt;Node14 -->
<g id="edge14" class="edge">
<title>Node15&#45;&gt;Node14</title>
<path fill="none" stroke="midnightblue" d="M1205.73,-383.59C1219.66,-387.26 1233.17,-393.53 1243,-404 1275.11,-438.2 1235.54,-468.6 1261,-508 1300.61,-569.29 1350.02,-544.16 1397,-600 1409.55,-614.92 1401.82,-625.64 1415,-640 1430.41,-656.79 1453.41,-668.91 1471.21,-676.48"/>
<polygon fill="midnightblue" stroke="midnightblue" points="1206.08,-380.08 1195.56,-381.35 1204.57,-386.92 1206.08,-380.08"/>
</g>
<!-- Node25 -->
<g id="node25" class="node">
<title>Node25</title>
<g id="a_node25"><a xlink:href="structMoFEM_1_1SnesMethod.html" target="_top" xlink:title="data structure for snes (nonlinear solver) context">
<polygon fill="white" stroke="black" points="1439,-611.5 1439,-630.5 1558,-630.5 1558,-611.5 1439,-611.5"/>
<text text-anchor="middle" x="1498.5" y="-618.5" font-family="Helvetica,sans-Serif" font-size="10.00">MoFEM::SnesMethod</text>
</a>
</g>
</g>
<!-- Node15&#45;&gt;Node25 -->
<g id="edge27" class="edge">
<title>Node15&#45;&gt;Node25</title>
<path fill="none" stroke="darkgreen" d="M1201.54,-391.88C1215.31,-395.26 1229.81,-399.32 1243,-404 1314.56,-429.41 1352.05,-416.8 1397,-478 1429.97,-522.88 1377.27,-561.04 1415,-602 1421.37,-608.92 1429.72,-613.57 1438.64,-616.64"/>
<polygon fill="darkgreen" stroke="darkgreen" points="1202.21,-388.44 1191.67,-389.54 1200.59,-395.25 1202.21,-388.44"/>
</g>
<!-- Node28 -->
<g id="node28" class="node">
<title>Node28</title>
<g id="a_node28"><a xlink:href="structMoFEM_1_1TSMethod.html" target="_top" xlink:title="data structure for TS (time stepping) context">
<polygon fill="white" stroke="black" points="1445,-311.5 1445,-330.5 1552,-330.5 1552,-311.5 1445,-311.5"/>
<text text-anchor="middle" x="1498.5" y="-318.5" font-family="Helvetica,sans-Serif" font-size="10.00">MoFEM::TSMethod</text>
</a>
</g>
</g>
<!-- Node15&#45;&gt;Node28 -->
<g id="edge33" class="edge">
<title>Node15&#45;&gt;Node28</title>
<path fill="none" stroke="darkgreen" d="M1205.95,-390.6C1258.25,-397.02 1333.83,-400.92 1397,-383 1433.29,-372.71 1469.33,-345.18 1486.73,-330.51"/>
<polygon fill="darkgreen" stroke="darkgreen" points="1206.17,-387.1 1195.81,-389.29 1205.28,-394.05 1206.17,-387.1"/>
</g>
<!-- Node16 -->
<g id="node16" class="node">
<title>Node16</title>
<g id="a_node16"><a xlink:href="structMoFEM_1_1UnknownInterface.html" target="_top" xlink:title="base class for all interface classes">
<polygon fill="white" stroke="black" points="735,-128.5 735,-147.5 883,-147.5 883,-128.5 735,-128.5"/>
<text text-anchor="middle" x="809" y="-135.5" font-family="Helvetica,sans-Serif" font-size="10.00">MoFEM::UnknownInterface</text>
</a>
</g>
</g>
<!-- Node16&#45;&gt;Node15 -->
<g id="edge15" class="edge">
<title>Node16&#45;&gt;Node15</title>
<path fill="none" stroke="midnightblue" d="M822.56,-155.97C853.79,-199.15 939.72,-309 1040,-361 1054.5,-368.52 1071.56,-373.09 1087.47,-375.86"/>
<polygon fill="midnightblue" stroke="midnightblue" points="825.24,-153.7 816.58,-147.59 819.54,-157.77 825.24,-153.7"/>
</g>
<!-- Node56 -->
<g id="node56" class="node">
<title>Node56</title>
<g id="a_node56"><a xlink:href="structMoFEM_1_1CoreInterface.html" target="_top" xlink:title="Interface.">
<polygon fill="white" stroke="black" points="1079,-104.5 1079,-123.5 1204,-123.5 1204,-104.5 1079,-104.5"/>
<text text-anchor="middle" x="1141.5" y="-111.5" font-family="Helvetica,sans-Serif" font-size="10.00">MoFEM::CoreInterface</text>
</a>
</g>
</g>
<!-- Node16&#45;&gt;Node56 -->
<g id="edge67" class="edge">
<title>Node16&#45;&gt;Node56</title>
<path fill="none" stroke="midnightblue" d="M893.39,-132.85C932.46,-130.34 979.63,-127.19 1022,-124 1040.43,-122.61 1060.45,-120.98 1078.71,-119.43"/>
<polygon fill="midnightblue" stroke="midnightblue" points="892.88,-129.37 883.12,-133.5 893.32,-136.36 892.88,-129.37"/>
</g>
<!-- Node17 -->
<g id="node17" class="node">
<title>Node17</title>
<g id="a_node17"><a xlink:title=" ">
<polygon fill="white" stroke="#bfbfbf" points="386,-84.5 386,-147.5 627,-147.5 627,-84.5 386,-84.5"/>
<text text-anchor="start" x="394" y="-135.5" font-family="Helvetica,sans-Serif" font-size="10.00">multi_index_container</text>
<text text-anchor="start" x="394" y="-124.5" font-family="Helvetica,sans-Serif" font-size="10.00">&lt; UIdTypeMap, indexed</text>
<text text-anchor="start" x="394" y="-113.5" font-family="Helvetica,sans-Serif" font-size="10.00">_by&lt; hashed_unique&lt; member</text>
<text text-anchor="start" x="394" y="-102.5" font-family="Helvetica,sans-Serif" font-size="10.00">&lt; UIdTypeMap, boost::typeindex</text>
<text text-anchor="middle" x="506.5" y="-91.5" font-family="Helvetica,sans-Serif" font-size="10.00">::type_index, &amp;UIdTypeMap::classIdx &gt; &gt; &gt; &gt;</text>
</a>
</g>
</g>
<!-- Node17&#45;&gt;Node16 -->
<g id="edge16" class="edge">
<title>Node17&#45;&gt;Node16</title>
<path fill="none" stroke="#9a32cd" stroke-dasharray="5,2" d="M637.41,-125.51C670.69,-127.95 705.33,-130.48 734.62,-132.63"/>
<polygon fill="#9a32cd" stroke="#9a32cd" points="637.36,-122 627.13,-124.76 636.85,-128.98 637.36,-122"/>
<text text-anchor="middle" x="681" y="-134" font-family="Helvetica,sans-Serif" font-size="10.00"> iFaceTypeMap</text>
</g>
<!-- Node18 -->
<g id="node18" class="node">
<title>Node18</title>
<g id="a_node18"><a xlink:title=" ">
<polygon fill="white" stroke="#bfbfbf" points="0,-41.5 0,-60.5 125,-60.5 125,-41.5 0,-41.5"/>
<text text-anchor="middle" x="62.5" y="-48.5" font-family="Helvetica,sans-Serif" font-size="10.00">multi_index_container</text>
</a>
</g>
</g>
<!-- Node18&#45;&gt;Node13 -->
<g id="edge40" class="edge">
<title>Node18&#45;&gt;Node13</title>
<path fill="none" stroke="#9a32cd" stroke-dasharray="5,2" d="M135.41,-46.8C222.85,-42.06 374.95,-35 505.5,-35 505.5,-35 505.5,-35 1499.5,-35 1685.61,-35 1707.91,-173.85 1781,-345 1803.48,-397.65 1761.61,-558.64 1799,-602 1805.79,-609.87 1815.04,-614.91 1824.97,-618.05"/>
<polygon fill="#9a32cd" stroke="#9a32cd" points="135.12,-43.31 125.33,-47.35 135.51,-50.3 135.12,-43.31"/>
<text text-anchor="middle" x="961.5" y="-115" font-family="Helvetica,sans-Serif" font-size="10.00"> adjacenciesPtr</text>
<text text-anchor="middle" x="961.5" y="-104" font-family="Helvetica,sans-Serif" font-size="10.00">refinedEntitiesPtr</text>
<text text-anchor="middle" x="961.5" y="-93" font-family="Helvetica,sans-Serif" font-size="10.00">finiteElementsEntitiesPtr</text>
<text text-anchor="middle" x="961.5" y="-82" font-family="Helvetica,sans-Serif" font-size="10.00">dofsPtr</text>
<text text-anchor="middle" x="961.5" y="-71" font-family="Helvetica,sans-Serif" font-size="10.00">entitiesPtr</text>
<text text-anchor="middle" x="961.5" y="-60" font-family="Helvetica,sans-Serif" font-size="10.00">finiteElementsPtr</text>
<text text-anchor="middle" x="961.5" y="-49" font-family="Helvetica,sans-Serif" font-size="10.00">refinedFiniteElementsPtr</text>
<text text-anchor="middle" x="961.5" y="-38" font-family="Helvetica,sans-Serif" font-size="10.00">fieldsPtr</text>
</g>
<!-- Node18&#45;&gt;Node17 -->
<g id="edge17" class="edge">
<title>Node18&#45;&gt;Node17</title>
<path fill="none" stroke="orange" stroke-dasharray="5,2" d="M135.56,-61.6C203.25,-71.55 305.79,-86.63 385.77,-98.39"/>
<polygon fill="orange" stroke="orange" points="135.83,-58.1 125.42,-60.11 134.81,-65.02 135.83,-58.1"/>
<text text-anchor="start" x="143" y="-131" font-family="Helvetica,sans-Serif" font-size="10.00"> &lt; UIdTypeMap, indexed</text>
<text text-anchor="start" x="143" y="-120" font-family="Helvetica,sans-Serif" font-size="10.00">_by&lt; hashed_unique&lt; member</text>
<text text-anchor="start" x="143" y="-109" font-family="Helvetica,sans-Serif" font-size="10.00">&lt; UIdTypeMap, boost::typeindex</text>
<text text-anchor="middle" x="255.5" y="-98" font-family="Helvetica,sans-Serif" font-size="10.00">::type_index, &amp;UIdTypeMap::classIdx &gt; &gt; &gt; &gt;</text>
</g>
<!-- Node19 -->
<g id="node19" class="node">
<title>Node19</title>
<g id="a_node19"><a xlink:title=" ">
<polygon fill="white" stroke="#bfbfbf" points="738.5,-468.5 738.5,-487.5 879.5,-487.5 879.5,-468.5 738.5,-468.5"/>
<text text-anchor="middle" x="809" y="-475.5" font-family="Helvetica,sans-Serif" font-size="10.00">static constexpr Switches</text>
</a>
</g>
</g>
<!-- Node19&#45;&gt;Node15 -->
<g id="edge18" class="edge">
<title>Node19&#45;&gt;Node15</title>
<path fill="none" stroke="#9a32cd" stroke-dasharray="5,2" d="M889.78,-477.24C932.44,-473.26 983.87,-462.36 1022,-435 1034.94,-425.71 1027.22,-413.51 1040,-404 1053.67,-393.83 1071.04,-387.9 1087.47,-384.47"/>
<polygon fill="#9a32cd" stroke="#9a32cd" points="889.39,-473.76 879.71,-478.07 889.96,-480.74 889.39,-473.76"/>
<text text-anchor="middle" x="961.5" y="-556" font-family="Helvetica,sans-Serif" font-size="10.00"> CtxSetX_TT</text>
<text text-anchor="middle" x="961.5" y="-545" font-family="Helvetica,sans-Serif" font-size="10.00">CtxSetX_T</text>
<text text-anchor="middle" x="961.5" y="-534" font-family="Helvetica,sans-Serif" font-size="10.00">CtxSetA</text>
<text text-anchor="middle" x="961.5" y="-523" font-family="Helvetica,sans-Serif" font-size="10.00">CtxSetB</text>
<text text-anchor="middle" x="961.5" y="-512" font-family="Helvetica,sans-Serif" font-size="10.00">CtxSetTime</text>
<text text-anchor="middle" x="961.5" y="-501" font-family="Helvetica,sans-Serif" font-size="10.00">CtxSetNone</text>
<text text-anchor="middle" x="961.5" y="-490" font-family="Helvetica,sans-Serif" font-size="10.00">CtxSetF</text>
<text text-anchor="middle" x="961.5" y="-479" font-family="Helvetica,sans-Serif" font-size="10.00">CtxSetX</text>
</g>
<!-- Node20 -->
<g id="node20" class="node">
<title>Node20</title>
<g id="a_node20"><a xlink:title=" ">
<polygon fill="white" stroke="#bfbfbf" points="791.5,-416.5 791.5,-435.5 826.5,-435.5 826.5,-416.5 791.5,-416.5"/>
<text text-anchor="middle" x="809" y="-423.5" font-family="Helvetica,sans-Serif" font-size="10.00">Mat</text>
</a>
</g>
</g>
<!-- Node20&#45;&gt;Node14 -->
<g id="edge24" class="edge">
<title>Node20&#45;&gt;Node14</title>
<path fill="none" stroke="#9a32cd" stroke-dasharray="5,2" d="M836.59,-431.39C852.49,-436.02 871.73,-444.35 883,-459 912.67,-497.57 867.68,-531.54 901,-567 938.8,-607.23 973.73,-568.23 1022,-595 1031.89,-600.49 1029.86,-607.99 1040,-613 1121.6,-653.31 1153.08,-625.9 1243,-640 1314.64,-651.23 1397.18,-666.6 1448.35,-676.41"/>
<polygon fill="#9a32cd" stroke="#9a32cd" points="837.3,-427.96 826.74,-428.86 835.55,-434.74 837.3,-427.96"/>
<text text-anchor="middle" x="1141.5" y="-654" font-family="Helvetica,sans-Serif" font-size="10.00"> ksp_A</text>
<text text-anchor="middle" x="1141.5" y="-643" font-family="Helvetica,sans-Serif" font-size="10.00">ksp_B</text>
</g>
<!-- Node20&#45;&gt;Node15 -->
<g id="edge19" class="edge">
<title>Node20&#45;&gt;Node15</title>
<path fill="none" stroke="#9a32cd" stroke-dasharray="5,2" d="M836.56,-420.57C854.67,-416.99 879.22,-412.35 901,-409 964.75,-399.2 1038.47,-390.69 1087.1,-385.47"/>
<polygon fill="#9a32cd" stroke="#9a32cd" points="835.84,-417.15 826.72,-422.54 837.21,-424.01 835.84,-417.15"/>
<text text-anchor="middle" x="961.5" y="-423" font-family="Helvetica,sans-Serif" font-size="10.00"> A</text>
<text text-anchor="middle" x="961.5" y="-412" font-family="Helvetica,sans-Serif" font-size="10.00">B</text>
</g>
<!-- Node20&#45;&gt;Node25 -->
<g id="edge29" class="edge">
<title>Node20&#45;&gt;Node25</title>
<path fill="none" stroke="#9a32cd" stroke-dasharray="5,2" d="M836.82,-428.58C890.7,-434 1008.15,-447.04 1022,-459 1042.43,-476.64 1019.76,-499.15 1040,-517 1108.72,-577.6 1153.71,-532.42 1243,-553 1320.46,-570.85 1338.02,-582.19 1415,-602 1427.67,-605.26 1441.5,-608.55 1454.15,-611.46"/>
<polygon fill="#9a32cd" stroke="#9a32cd" points="836.94,-425.08 826.64,-427.58 836.25,-432.05 836.94,-425.08"/>
<text text-anchor="middle" x="1141.5" y="-567" font-family="Helvetica,sans-Serif" font-size="10.00"> snes_A</text>
<text text-anchor="middle" x="1141.5" y="-556" font-family="Helvetica,sans-Serif" font-size="10.00">snes_B</text>
</g>
<!-- Node20&#45;&gt;Node28 -->
<g id="edge34" class="edge">
<title>Node20&#45;&gt;Node28</title>
<path fill="none" stroke="#9a32cd" stroke-dasharray="5,2" d="M836.2,-417.76C850.94,-412.28 869.12,-404.05 883,-393 888.63,-388.52 1033.55,-190.19 1040,-187 1182.99,-116.19 1257.14,-148.19 1397,-225 1438.45,-247.77 1475.34,-291.94 1490.36,-311.4"/>
<polygon fill="#9a32cd" stroke="#9a32cd" points="834.92,-414.5 826.64,-421.11 837.24,-421.1 834.92,-414.5"/>
<text text-anchor="middle" x="1141.5" y="-201" font-family="Helvetica,sans-Serif" font-size="10.00"> ts_A</text>
<text text-anchor="middle" x="1141.5" y="-190" font-family="Helvetica,sans-Serif" font-size="10.00">ts_B</text>
</g>
<!-- Node21 -->
<g id="node21" class="node">
<title>Node21</title>
<g id="a_node21"><a xlink:title=" ">
<polygon fill="white" stroke="#bfbfbf" points="772.5,-364.5 772.5,-383.5 845.5,-383.5 845.5,-364.5 772.5,-364.5"/>
<text text-anchor="middle" x="809" y="-371.5" font-family="Helvetica,sans-Serif" font-size="10.00">bitset&lt; 8 &gt;</text>
</a>
</g>
</g>
<!-- Node21&#45;&gt;Node15 -->
<g id="edge20" class="edge">
<title>Node21&#45;&gt;Node15</title>
<path fill="none" stroke="#9a32cd" stroke-dasharray="5,2" d="M855.77,-373.72C898.72,-373.58 964.72,-373.66 1022,-375 1043.41,-375.5 1066.98,-376.42 1087.42,-377.34"/>
<polygon fill="#9a32cd" stroke="#9a32cd" points="855.63,-370.22 845.64,-373.76 855.65,-377.22 855.63,-370.22"/>
<text text-anchor="middle" x="961.5" y="-378" font-family="Helvetica,sans-Serif" font-size="10.00"> data_ctx</text>
</g>
<!-- Node22 -->
<g id="node22" class="node">
<title>Node22</title>
<g id="a_node22"><a xlink:title=" ">
<polygon fill="white" stroke="#bfbfbf" points="792,-675.5 792,-694.5 826,-694.5 826,-675.5 792,-675.5"/>
<text text-anchor="middle" x="809" y="-682.5" font-family="Helvetica,sans-Serif" font-size="10.00">Vec</text>
</a>
</g>
</g>
<!-- Node22&#45;&gt;Node14 -->
<g id="edge25" class="edge">
<title>Node22&#45;&gt;Node14</title>
<path fill="none" stroke="#9a32cd" stroke-dasharray="5,2" d="M835.32,-697.29C876.88,-716.7 962.66,-753.62 1040,-767 1196.73,-794.1 1246.77,-794.24 1397,-742 1430.2,-730.45 1465.25,-708.32 1483.92,-695.61"/>
<polygon fill="#9a32cd" stroke="#9a32cd" points="836.75,-694.09 826.21,-692.98 833.75,-700.42 836.75,-694.09"/>
<text text-anchor="middle" x="1141.5" y="-788" font-family="Helvetica,sans-Serif" font-size="10.00"> ksp_f</text>
</g>
<!-- Node22&#45;&gt;Node15 -->
<g id="edge21" class="edge">
<title>Node22&#45;&gt;Node15</title>
<path fill="none" stroke="#9a32cd" stroke-dasharray="5,2" d="M828.27,-668.41C845.9,-653.04 873.84,-630.3 901,-615 951.26,-586.68 986.86,-613.76 1022,-568 1066.66,-509.84 991.49,-458.99 1040,-404 1051.87,-390.55 1069.8,-383.94 1087.24,-380.89"/>
<polygon fill="#9a32cd" stroke="#9a32cd" points="825.66,-666.05 820.49,-675.3 830.3,-671.29 825.66,-666.05"/>
<text text-anchor="middle" x="961.5" y="-651" font-family="Helvetica,sans-Serif" font-size="10.00"> f</text>
<text text-anchor="middle" x="961.5" y="-640" font-family="Helvetica,sans-Serif" font-size="10.00">x</text>
<text text-anchor="middle" x="961.5" y="-629" font-family="Helvetica,sans-Serif" font-size="10.00">x_t</text>
<text text-anchor="middle" x="961.5" y="-618" font-family="Helvetica,sans-Serif" font-size="10.00">x_tt</text>
</g>
<!-- Node22&#45;&gt;Node25 -->
<g id="edge30" class="edge">
<title>Node22&#45;&gt;Node25</title>
<path fill="none" stroke="#9a32cd" stroke-dasharray="5,2" d="M836.24,-685.52C876.31,-686.17 955.14,-686.88 1022,-684 1120.46,-679.76 1145.26,-678.59 1243,-666 1316.21,-656.57 1400.41,-640.68 1451.26,-630.52"/>
<polygon fill="#9a32cd" stroke="#9a32cd" points="836.29,-682.02 826.23,-685.35 836.17,-689.02 836.29,-682.02"/>
<text text-anchor="middle" x="1141.5" y="-698" font-family="Helvetica,sans-Serif" font-size="10.00"> snes_x</text>
<text text-anchor="middle" x="1141.5" y="-687" font-family="Helvetica,sans-Serif" font-size="10.00">snes_f</text>
</g>
<!-- Node22&#45;&gt;Node28 -->
<g id="edge38" class="edge">
<title>Node22&#45;&gt;Node28</title>
<path fill="none" stroke="#9a32cd" stroke-dasharray="5,2" d="M836.34,-685.72C887.39,-686.52 997.01,-685.06 1022,-659 1056.57,-622.96 1004.8,-470.43 1040,-435 1096.13,-378.51 1323.3,-434.16 1397,-404 1437.42,-387.46 1474.02,-348.68 1489.58,-330.6"/>
<polygon fill="#9a32cd" stroke="#9a32cd" points="836.17,-682.22 826.1,-685.52 836.03,-689.22 836.17,-682.22"/>
<text text-anchor="middle" x="1141.5" y="-471" font-family="Helvetica,sans-Serif" font-size="10.00"> ts_u</text>
<text text-anchor="middle" x="1141.5" y="-460" font-family="Helvetica,sans-Serif" font-size="10.00">ts_F</text>
<text text-anchor="middle" x="1141.5" y="-449" font-family="Helvetica,sans-Serif" font-size="10.00">ts_u_t</text>
<text text-anchor="middle" x="1141.5" y="-438" font-family="Helvetica,sans-Serif" font-size="10.00">ts_u_tt</text>
</g>
<!-- Node23 -->
<g id="node23" class="node">
<title>Node23</title>
<g id="a_node23"><a xlink:title=" ">
<polygon fill="white" stroke="#bfbfbf" points="1124,-738.5 1124,-757.5 1159,-757.5 1159,-738.5 1124,-738.5"/>
<text text-anchor="middle" x="1141.5" y="-745.5" font-family="Helvetica,sans-Serif" font-size="10.00">KSP</text>
</a>
</g>
</g>
<!-- Node23&#45;&gt;Node14 -->
<g id="edge22" class="edge">
<title>Node23&#45;&gt;Node14</title>
<path fill="none" stroke="#9a32cd" stroke-dasharray="5,2" d="M1169.33,-743.31C1227.39,-733.17 1365.64,-709.03 1442.89,-695.54"/>
<polygon fill="#9a32cd" stroke="#9a32cd" points="1168.39,-739.92 1159.15,-745.09 1169.6,-746.82 1168.39,-739.92"/>
<text text-anchor="middle" x="1329" y="-730" font-family="Helvetica,sans-Serif" font-size="10.00"> ksp</text>
</g>
<!-- Node24 -->
<g id="node24" class="node">
<title>Node24</title>
<g id="a_node24"><a xlink:title=" ">
<polygon fill="white" stroke="#bfbfbf" points="1104.5,-823.5 1104.5,-842.5 1178.5,-842.5 1178.5,-823.5 1104.5,-823.5"/>
<text text-anchor="middle" x="1141.5" y="-830.5" font-family="Helvetica,sans-Serif" font-size="10.00">KSPContext</text>
</a>
</g>
</g>
<!-- Node24&#45;&gt;Node14 -->
<g id="edge23" class="edge">
<title>Node24&#45;&gt;Node14</title>
<path fill="none" stroke="#9a32cd" stroke-dasharray="5,2" d="M1188.67,-832.64C1252.02,-831.44 1362.02,-826.65 1397,-808 1446.4,-781.66 1480.89,-719.83 1492.86,-695.8"/>
<polygon fill="#9a32cd" stroke="#9a32cd" points="1188.49,-829.14 1178.55,-832.81 1188.61,-836.14 1188.49,-829.14"/>
<text text-anchor="middle" x="1329" y="-833" font-family="Helvetica,sans-Serif" font-size="10.00"> ksp_ctx</text>
</g>
<!-- Node25&#45;&gt;Node13 -->
<g id="edge26" class="edge">
<title>Node25&#45;&gt;Node13</title>
<path fill="none" stroke="midnightblue" d="M1568.06,-621C1641.05,-621 1755.39,-621 1824.95,-621"/>
<polygon fill="midnightblue" stroke="midnightblue" points="1568.05,-617.5 1558.05,-621 1568.05,-624.5 1568.05,-617.5"/>
</g>
<!-- Node26 -->
<g id="node26" class="node">
<title>Node26</title>
<g id="a_node26"><a xlink:title=" ">
<polygon fill="white" stroke="#bfbfbf" points="1120.5,-488.5 1120.5,-507.5 1162.5,-507.5 1162.5,-488.5 1120.5,-488.5"/>
<text text-anchor="middle" x="1141.5" y="-495.5" font-family="Helvetica,sans-Serif" font-size="10.00">SNES</text>
</a>
</g>
</g>
<!-- Node26&#45;&gt;Node25 -->
<g id="edge28" class="edge">
<title>Node26&#45;&gt;Node25</title>
<path fill="none" stroke="#9a32cd" stroke-dasharray="5,2" d="M1172.75,-490.68C1225.35,-479.91 1334.04,-466.59 1397,-522 1424.36,-546.08 1389.29,-576.17 1415,-602 1421.53,-608.56 1429.84,-613.05 1438.67,-616.08"/>
<polygon fill="#9a32cd" stroke="#9a32cd" points="1171.75,-487.32 1162.71,-492.85 1173.23,-494.16 1171.75,-487.32"/>
<text text-anchor="middle" x="1329" y="-525" font-family="Helvetica,sans-Serif" font-size="10.00"> snes</text>
</g>
<!-- Node27 -->
<g id="node27" class="node">
<title>Node27</title>
<g id="a_node27"><a xlink:title=" ">
<polygon fill="white" stroke="#bfbfbf" points="1101.5,-584.5 1101.5,-603.5 1181.5,-603.5 1181.5,-584.5 1101.5,-584.5"/>
<text text-anchor="middle" x="1141.5" y="-591.5" font-family="Helvetica,sans-Serif" font-size="10.00">SNESContext</text>
</a>
</g>
</g>
<!-- Node27&#45;&gt;Node25 -->
<g id="edge31" class="edge">
<title>Node27&#45;&gt;Node25</title>
<path fill="none" stroke="#9a32cd" stroke-dasharray="5,2" d="M1191.84,-597.75C1256.48,-602.67 1369.71,-611.28 1438.73,-616.53"/>
<polygon fill="#9a32cd" stroke="#9a32cd" points="1191.74,-594.24 1181.51,-596.97 1191.21,-601.22 1191.74,-594.24"/>
<text text-anchor="middle" x="1329" y="-617" font-family="Helvetica,sans-Serif" font-size="10.00"> snes_ctx</text>
</g>
<!-- Node28&#45;&gt;Node13 -->
<g id="edge32" class="edge">
<title>Node28&#45;&gt;Node13</title>
<path fill="none" stroke="midnightblue" d="M1553.31,-333.11C1618.59,-350.83 1726.65,-390.5 1781,-468 1815.5,-517.2 1758.33,-557.76 1799,-602 1805.93,-609.54 1815.13,-614.44 1824.93,-617.55"/>
<polygon fill="midnightblue" stroke="midnightblue" points="1554.16,-329.72 1543.6,-330.55 1552.38,-336.49 1554.16,-329.72"/>
</g>
<!-- Node29 -->
<g id="node29" class="node">
<title>Node29</title>
<g id="a_node29"><a xlink:title=" ">
<polygon fill="white" stroke="#bfbfbf" points="1109,-332.5 1109,-351.5 1174,-351.5 1174,-332.5 1109,-332.5"/>
<text text-anchor="middle" x="1141.5" y="-339.5" font-family="Helvetica,sans-Serif" font-size="10.00">PetscReal</text>
</a>
</g>
</g>
<!-- Node29&#45;&gt;Node28 -->
<g id="edge35" class="edge">
<title>Node29&#45;&gt;Node28</title>
<path fill="none" stroke="#9a32cd" stroke-dasharray="5,2" d="M1184.25,-339.53C1249.06,-335.7 1373.78,-328.32 1444.73,-324.12"/>
<polygon fill="#9a32cd" stroke="#9a32cd" points="1183.78,-336.05 1174,-340.14 1184.19,-343.04 1183.78,-336.05"/>
<text text-anchor="middle" x="1329" y="-371" font-family="Helvetica,sans-Serif" font-size="10.00"> ts_a</text>
<text text-anchor="middle" x="1329" y="-360" font-family="Helvetica,sans-Serif" font-size="10.00">ts_t</text>
<text text-anchor="middle" x="1329" y="-349" font-family="Helvetica,sans-Serif" font-size="10.00">ts_dt</text>
<text text-anchor="middle" x="1329" y="-338" font-family="Helvetica,sans-Serif" font-size="10.00">ts_aa</text>
</g>
<!-- Node30 -->
<g id="node30" class="node">
<title>Node30</title>
<g id="a_node30"><a xlink:title=" ">
<polygon fill="white" stroke="#bfbfbf" points="1108,-294.5 1108,-313.5 1175,-313.5 1175,-294.5 1108,-294.5"/>
<text text-anchor="middle" x="1141.5" y="-301.5" font-family="Helvetica,sans-Serif" font-size="10.00">TSContext</text>
</a>
</g>
</g>
<!-- Node30&#45;&gt;Node28 -->
<g id="edge36" class="edge">
<title>Node30&#45;&gt;Node28</title>
<path fill="none" stroke="#9a32cd" stroke-dasharray="5,2" d="M1185.35,-302.16C1236,-300.45 1322.79,-298.98 1397,-305 1413.55,-306.34 1431.5,-308.86 1447.59,-311.5"/>
<polygon fill="#9a32cd" stroke="#9a32cd" points="1184.98,-298.67 1175.11,-302.53 1185.23,-305.67 1184.98,-298.67"/>
<text text-anchor="middle" x="1329" y="-308" font-family="Helvetica,sans-Serif" font-size="10.00"> ts_ctx</text>
</g>
<!-- Node31 -->
<g id="node31" class="node">
<title>Node31</title>
<g id="a_node31"><a xlink:title=" ">
<polygon fill="white" stroke="#bfbfbf" points="1113.5,-256.5 1113.5,-275.5 1169.5,-275.5 1169.5,-256.5 1113.5,-256.5"/>
<text text-anchor="middle" x="1141.5" y="-263.5" font-family="Helvetica,sans-Serif" font-size="10.00">PetscInt</text>
</a>
</g>
</g>
<!-- Node31&#45;&gt;Node28 -->
<g id="edge37" class="edge">
<title>Node31&#45;&gt;Node28</title>
<path fill="none" stroke="#9a32cd" stroke-dasharray="5,2" d="M1179.57,-265.95C1229.5,-266.56 1320.87,-270.03 1397,-286 1424.67,-291.8 1455.16,-303.17 1475.22,-311.38"/>
<polygon fill="#9a32cd" stroke="#9a32cd" points="1179.6,-262.45 1169.57,-265.86 1179.54,-269.45 1179.6,-262.45"/>
<text text-anchor="middle" x="1329" y="-289" font-family="Helvetica,sans-Serif" font-size="10.00"> ts_step</text>
</g>
<!-- Node32 -->
<g id="node32" class="node">
<title>Node32</title>
<g id="a_node32"><a xlink:title=" ">
<polygon fill="white" stroke="#bfbfbf" points="1127,-218.5 1127,-237.5 1156,-237.5 1156,-218.5 1127,-218.5"/>
<text text-anchor="middle" x="1141.5" y="-225.5" font-family="Helvetica,sans-Serif" font-size="10.00">TS</text>
</a>
</g>
</g>
<!-- Node32&#45;&gt;Node28 -->
<g id="edge39" class="edge">
<title>Node32&#45;&gt;Node28</title>
<path fill="none" stroke="#9a32cd" stroke-dasharray="5,2" d="M1166.42,-226.86C1212.52,-225.44 1316.22,-226.12 1397,-255 1433.17,-267.93 1469.26,-296.37 1486.7,-311.34"/>
<polygon fill="#9a32cd" stroke="#9a32cd" points="1166.11,-223.37 1156.24,-227.23 1166.37,-230.36 1166.11,-223.37"/>
<text text-anchor="middle" x="1329" y="-258" font-family="Helvetica,sans-Serif" font-size="10.00"> ts</text>
</g>
<!-- Node33 -->
<g id="node33" class="node">
<title>Node33</title>
<g id="a_node33"><a xlink:title=" ">
<polygon fill="white" stroke="#bfbfbf" points="1454,-573.5 1454,-592.5 1543,-592.5 1543,-573.5 1454,-573.5"/>
<text text-anchor="middle" x="1498.5" y="-580.5" font-family="Helvetica,sans-Serif" font-size="10.00">pair&lt; int, int &gt;</text>
</a>
</g>
</g>
<!-- Node33&#45;&gt;Node13 -->
<g id="edge41" class="edge">
<title>Node33&#45;&gt;Node13</title>
<path fill="none" stroke="#9a32cd" stroke-dasharray="5,2" d="M1553.64,-586.43C1610.39,-590.25 1702.1,-597.1 1781,-606 1795.23,-607.61 1810.51,-609.64 1824.86,-611.68"/>
<polygon fill="#9a32cd" stroke="#9a32cd" points="1553.68,-582.92 1543.46,-585.75 1553.21,-589.91 1553.68,-582.92"/>
<text text-anchor="middle" x="1690.5" y="-609" font-family="Helvetica,sans-Serif" font-size="10.00"> loHiFERank</text>
</g>
<!-- Node34 -->
<g id="node34" class="node">
<title>Node34</title>
<g id="a_node34"><a xlink:title=" ">
<polygon fill="white" stroke="#bfbfbf" points="1428.5,-535.5 1428.5,-554.5 1568.5,-554.5 1568.5,-535.5 1428.5,-535.5"/>
<text text-anchor="middle" x="1498.5" y="-542.5" font-family="Helvetica,sans-Serif" font-size="10.00">weak_ptr&lt; CacheTuple &gt;</text>
</a>
</g>
</g>
<!-- Node34&#45;&gt;Node13 -->
<g id="edge42" class="edge">
<title>Node34&#45;&gt;Node13</title>
<path fill="none" stroke="#9a32cd" stroke-dasharray="5,2" d="M1578.74,-536.17C1638.51,-533.4 1720.29,-538.24 1781,-575 1793.34,-582.47 1787.1,-593.86 1799,-602 1806.7,-607.27 1815.61,-611.1 1824.72,-613.89"/>
<polygon fill="#9a32cd" stroke="#9a32cd" points="1578.39,-532.69 1568.6,-536.73 1578.77,-539.68 1578.39,-532.69"/>
<text text-anchor="middle" x="1690.5" y="-578" font-family="Helvetica,sans-Serif" font-size="10.00"> cacheWeakPtr</text>
</g>
<!-- Node35 -->
<g id="node35" class="node">
<title>Node35</title>
<g id="a_node35"><a xlink:title=" ">
<polygon fill="white" stroke="#bfbfbf" points="1442.5,-492.5 1442.5,-511.5 1554.5,-511.5 1554.5,-492.5 1442.5,-492.5"/>
<text text-anchor="middle" x="1498.5" y="-499.5" font-family="Helvetica,sans-Serif" font-size="10.00">unique_ptr&lt; bool &gt;</text>
</a>
</g>
</g>
<!-- Node35&#45;&gt;Node13 -->
<g id="edge43" class="edge">
<title>Node35&#45;&gt;Node13</title>
<path fill="none" stroke="#9a32cd" stroke-dasharray="5,2" d="M1538.08,-489.58C1597.74,-473.01 1712.6,-452.03 1781,-510 1812.79,-536.94 1769.9,-572.18 1799,-602 1806.05,-609.22 1815.18,-613.98 1824.85,-617.07"/>
<polygon fill="#9a32cd" stroke="#9a32cd" points="1536.95,-486.26 1528.3,-492.39 1538.88,-492.99 1536.95,-486.26"/>
<text text-anchor="middle" x="1690.5" y="-524" font-family="Helvetica,sans-Serif" font-size="10.00"> matAssembleSwitch</text>
<text text-anchor="middle" x="1690.5" y="-513" font-family="Helvetica,sans-Serif" font-size="10.00">vecAssembleSwitch</text>
</g>
<!-- Node36 -->
<g id="node36" class="node">
<title>Node36</title>
<g id="a_node36"><a xlink:title=" ">
<polygon fill="white" stroke="#bfbfbf" points="1127,-1419.5 1127,-1438.5 1156,-1438.5 1156,-1419.5 1127,-1419.5"/>
<text text-anchor="middle" x="1141.5" y="-1426.5" font-family="Helvetica,sans-Serif" font-size="10.00">int</text>
</a>
</g>
</g>
<!-- Node36&#45;&gt;Node1 -->
<g id="edge88" class="edge">
<title>Node36&#45;&gt;Node1</title>
<path fill="none" stroke="#9a32cd" stroke-dasharray="5,2" d="M1153.76,-1447.43C1192.89,-1508.89 1329.74,-1703 1497.5,-1703 1497.5,-1703 1497.5,-1703 3202,-1703 3279.52,-1703 3357.02,-1642.08 3389.55,-1613.04"/>
<polygon fill="#9a32cd" stroke="#9a32cd" points="1156.6,-1445.37 1148.33,-1438.75 1150.67,-1449.09 1156.6,-1445.37"/>
<text text-anchor="middle" x="2458" y="-1706" font-family="Helvetica,sans-Serif" font-size="10.00"> baseOrder</text>
</g>
<!-- Node36&#45;&gt;Node2 -->
<g id="edge85" class="edge">
<title>Node36&#45;&gt;Node2</title>
<path fill="none" stroke="#9a32cd" stroke-dasharray="5,2" d="M1166.21,-1428.88C1211.21,-1428.64 1312.08,-1428.02 1397,-1427 1479.23,-1426.01 1499.98,-1429.86 1582,-1424 1764.77,-1410.94 1808.37,-1386.91 1991,-1372 2197.56,-1355.14 2249.75,-1355 2457,-1355 2457,-1355 2457,-1355 2923,-1355 3010.16,-1355 3110.86,-1333.49 3163.55,-1320.55"/>
<polygon fill="#9a32cd" stroke="#9a32cd" points="1166,-1425.38 1156.02,-1428.93 1166.04,-1432.38 1166,-1425.38"/>
<text text-anchor="middle" x="2256" y="-1363" font-family="Helvetica,sans-Serif" font-size="10.00"> verbosity</text>
</g>
<!-- Node36&#45;&gt;Node13 -->
<g id="edge44" class="edge">
<title>Node36&#45;&gt;Node13</title>
<path fill="none" stroke="#9a32cd" stroke-dasharray="5,2" d="M1166.36,-1428.75C1221.78,-1427.81 1357.5,-1423.34 1397,-1402 1408.11,-1395.99 1405.86,-1388.72 1415,-1380 1561.61,-1240.07 1686.5,-1287.29 1781,-1108 1805.26,-1061.96 1765.64,-679.94 1799,-640 1805.67,-632.02 1814.86,-626.94 1824.76,-623.78"/>
<polygon fill="#9a32cd" stroke="#9a32cd" points="1166.05,-1425.26 1156.11,-1428.9 1166.16,-1432.25 1166.05,-1425.26"/>
<text text-anchor="middle" x="1498.5" y="-1416" font-family="Helvetica,sans-Serif" font-size="10.00"> sIze</text>
<text text-anchor="middle" x="1498.5" y="-1405" font-family="Helvetica,sans-Serif" font-size="10.00">loopSize</text>
<text text-anchor="middle" x="1498.5" y="-1394" font-family="Helvetica,sans-Serif" font-size="10.00">nInTheLoop</text>
<text text-anchor="middle" x="1498.5" y="-1383" font-family="Helvetica,sans-Serif" font-size="10.00">rAnk</text>
</g>
<!-- Node36&#45;&gt;Node38 -->
<g id="edge56" class="edge">
<title>Node36&#45;&gt;Node38</title>
<path fill="none" stroke="#9a32cd" stroke-dasharray="5,2" d="M1165.35,-1418.91C1187.65,-1408.09 1221.29,-1389.02 1243,-1364 1255.51,-1349.58 1246.89,-1337.86 1261,-1325 1308.38,-1281.83 1357.63,-1327.59 1397,-1277 1424,-1242.31 1386.09,-1113.11 1415,-1080 1423.6,-1070.15 1436.2,-1064.85 1448.96,-1062.13"/>
<polygon fill="#9a32cd" stroke="#9a32cd" points="1163.85,-1415.75 1156.28,-1423.17 1166.82,-1422.09 1163.85,-1415.75"/>
<text text-anchor="middle" x="1329" y="-1394" font-family="Helvetica,sans-Serif" font-size="10.00"> tagNameSize</text>
<text text-anchor="middle" x="1329" y="-1383" font-family="Helvetica,sans-Serif" font-size="10.00">nbDofsRow</text>
<text text-anchor="middle" x="1329" y="-1372" font-family="Helvetica,sans-Serif" font-size="10.00">nbLocDofsCol</text>
<text text-anchor="middle" x="1329" y="-1361" font-family="Helvetica,sans-Serif" font-size="10.00">nbDofsCol</text>
<text text-anchor="middle" x="1329" y="-1350" font-family="Helvetica,sans-Serif" font-size="10.00">nbGhostDofsRow</text>
<text text-anchor="middle" x="1329" y="-1339" font-family="Helvetica,sans-Serif" font-size="10.00">nbGhostDofsCol</text>
<text text-anchor="middle" x="1329" y="-1328" font-family="Helvetica,sans-Serif" font-size="10.00">nbLocDofsRow</text>
</g>
<!-- Node37 -->
<g id="node37" class="node">
<title>Node37</title>
<g id="a_node37"><a xlink:title=" ">
<polygon fill="white" stroke="#bfbfbf" points="1415,-1089.5 1415,-1108.5 1582,-1108.5 1582,-1089.5 1415,-1089.5"/>
<text text-anchor="middle" x="1498.5" y="-1096.5" font-family="Helvetica,sans-Serif" font-size="10.00">function&lt; MoFEMErrorCode()&gt;</text>
</a>
</g>
</g>
<!-- Node37&#45;&gt;Node13 -->
<g id="edge45" class="edge">
<title>Node37&#45;&gt;Node13</title>
<path fill="none" stroke="#9a32cd" stroke-dasharray="5,2" d="M1564.27,-1086.68C1570.37,-1084.75 1576.37,-1082.53 1582,-1080 1681.07,-1035.39 1728.37,-1033.05 1781,-938 1813.14,-879.96 1755.91,-690.45 1799,-640 1805.75,-632.09 1814.99,-627.05 1824.91,-623.9"/>
<polygon fill="#9a32cd" stroke="#9a32cd" points="1563.26,-1083.33 1554.64,-1089.49 1565.22,-1090.05 1563.26,-1083.33"/>
<text text-anchor="middle" x="1690.5" y="-1096" font-family="Helvetica,sans-Serif" font-size="10.00"> preProcessHook</text>
<text text-anchor="middle" x="1690.5" y="-1085" font-family="Helvetica,sans-Serif" font-size="10.00">operatorHook</text>
<text text-anchor="middle" x="1690.5" y="-1074" font-family="Helvetica,sans-Serif" font-size="10.00">postProcessHook</text>
</g>
<!-- Node38&#45;&gt;Node13 -->
<g id="edge46" class="edge">
<title>Node38&#45;&gt;Node13</title>
<path fill="none" stroke="#9a32cd" stroke-dasharray="5,2" d="M1512.73,-1043.47C1553.8,-988.9 1682.22,-816.81 1781,-669 1789.43,-656.39 1786.62,-648.77 1799,-640 1806.61,-634.61 1815.48,-630.71 1824.57,-627.89"/>
<polygon fill="#9a32cd" stroke="#9a32cd" points="1509.93,-1041.38 1506.71,-1051.47 1515.52,-1045.59 1509.93,-1041.38"/>
<text text-anchor="middle" x="1690.5" y="-926" font-family="Helvetica,sans-Serif" font-size="10.00"> problemPtr</text>
</g>
<!-- Node39 -->
<g id="node39" class="node">
<title>Node39</title>
<g id="a_node39"><a xlink:title=" ">
<polygon fill="white" stroke="#bfbfbf" points="1058,-1240 1058,-1270 1225,-1270 1225,-1240 1058,-1240"/>
<text text-anchor="start" x="1066" y="-1258" font-family="Helvetica,sans-Serif" font-size="10.00">shared_ptr&lt; NumeredEntFinite</text>
<text text-anchor="middle" x="1141.5" y="-1247" font-family="Helvetica,sans-Serif" font-size="10.00">Element_multiIndex &gt;</text>
</a>
</g>
</g>
<!-- Node39&#45;&gt;Node38 -->
<g id="edge47" class="edge">
<title>Node39&#45;&gt;Node38</title>
<path fill="none" stroke="#9a32cd" stroke-dasharray="5,2" d="M1228.59,-1238.04C1239.49,-1235.96 1250.5,-1233.91 1261,-1232 1291.16,-1226.52 1375.64,-1230.98 1397,-1209 1437.34,-1167.48 1375.9,-1122.69 1415,-1080 1423.74,-1070.46 1436.21,-1065.24 1448.83,-1062.49"/>
<polygon fill="#9a32cd" stroke="#9a32cd" points="1227.79,-1234.63 1218.63,-1239.94 1229.1,-1241.5 1227.79,-1234.63"/>
<text text-anchor="middle" x="1329" y="-1235" font-family="Helvetica,sans-Serif" font-size="10.00"> numeredFiniteElementsPtr</text>
</g>
<!-- Node40 -->
<g id="node40" class="node">
<title>Node40</title>
<g id="a_node40"><a xlink:title=" ">
<polygon fill="white" stroke="#bfbfbf" points="1112,-1201.5 1112,-1220.5 1171,-1220.5 1171,-1201.5 1112,-1201.5"/>
<text text-anchor="middle" x="1141.5" y="-1208.5" font-family="Helvetica,sans-Serif" font-size="10.00">BitFEId *</text>
</a>
</g>
</g>
<!-- Node40&#45;&gt;Node38 -->
<g id="edge48" class="edge">
<title>Node40&#45;&gt;Node38</title>
<path fill="none" stroke="#9a32cd" stroke-dasharray="5,2" d="M1181.18,-1206.72C1250.46,-1198.89 1389.27,-1182.38 1397,-1175 1428.09,-1145.33 1385.21,-1110.98 1415,-1080 1423.86,-1070.78 1436.23,-1065.64 1448.7,-1062.86"/>
<polygon fill="#9a32cd" stroke="#9a32cd" points="1180.63,-1203.26 1171.09,-1207.85 1181.42,-1210.22 1180.63,-1203.26"/>
<text text-anchor="middle" x="1329" y="-1200" font-family="Helvetica,sans-Serif" font-size="10.00"> tagBitFEId</text>
</g>
<!-- Node41 -->
<g id="node41" class="node">
<title>Node41</title>
<g id="a_node41"><a xlink:href="classEntityHandle.html" target="_top" xlink:title=" ">
<polygon fill="white" stroke="black" points="1101.5,-1163.5 1101.5,-1182.5 1181.5,-1182.5 1181.5,-1163.5 1101.5,-1163.5"/>
<text text-anchor="middle" x="1141.5" y="-1170.5" font-family="Helvetica,sans-Serif" font-size="10.00">EntityHandle</text>
</a>
</g>
</g>
<!-- Node41&#45;&gt;Node38 -->
<g id="edge49" class="edge">
<title>Node41&#45;&gt;Node38</title>
<path fill="none" stroke="#9a32cd" stroke-dasharray="5,2" d="M1191.87,-1169.69C1261.47,-1164.58 1381.69,-1154.01 1397,-1141 1418.54,-1122.69 1394.42,-1099.37 1415,-1080 1424.2,-1071.34 1436.54,-1066.35 1448.85,-1063.55"/>
<polygon fill="#9a32cd" stroke="#9a32cd" points="1191.3,-1166.22 1181.58,-1170.43 1191.8,-1173.2 1191.3,-1166.22"/>
<text text-anchor="middle" x="1329" y="-1167" font-family="Helvetica,sans-Serif" font-size="10.00"> meshset</text>
</g>
<!-- Node42 -->
<g id="node42" class="node">
<title>Node42</title>
<g id="a_node42"><a xlink:title=" ">
<polygon fill="white" stroke="#bfbfbf" points="1067,-1114 1067,-1144 1216,-1144 1216,-1114 1067,-1114"/>
<text text-anchor="start" x="1075" y="-1132" font-family="Helvetica,sans-Serif" font-size="10.00">shared_ptr&lt; MoFEM::</text>
<text text-anchor="middle" x="1141.5" y="-1121" font-family="Helvetica,sans-Serif" font-size="10.00">ComposedProblemsData &gt;</text>
</a>
</g>
</g>
<!-- Node42&#45;&gt;Node38 -->
<g id="edge50" class="edge">
<title>Node42&#45;&gt;Node38</title>
<path fill="none" stroke="#9a32cd" stroke-dasharray="5,2" d="M1226.3,-1127.44C1288.93,-1124.99 1368.45,-1118.75 1397,-1103 1408.36,-1096.73 1404.05,-1086.97 1415,-1080 1425.05,-1073.61 1436.99,-1069.36 1448.63,-1066.54"/>
<polygon fill="#9a32cd" stroke="#9a32cd" points="1225.88,-1123.96 1216.01,-1127.82 1226.13,-1130.95 1225.88,-1123.96"/>
<text text-anchor="middle" x="1329" y="-1129" font-family="Helvetica,sans-Serif" font-size="10.00"> composedProblemsData</text>
</g>
<!-- Node43 -->
<g id="node43" class="node">
<title>Node43</title>
<g id="a_node43"><a xlink:title=" ">
<polygon fill="white" stroke="#bfbfbf" points="1101,-1075.5 1101,-1094.5 1182,-1094.5 1182,-1075.5 1101,-1075.5"/>
<text text-anchor="middle" x="1141.5" y="-1082.5" font-family="Helvetica,sans-Serif" font-size="10.00">BitRefLevel *</text>
</a>
</g>
</g>
<!-- Node43&#45;&gt;Node38 -->
<g id="edge51" class="edge">
<title>Node43&#45;&gt;Node38</title>
<path fill="none" stroke="#9a32cd" stroke-dasharray="5,2" d="M1192.22,-1081.64C1260.17,-1077.04 1381.29,-1068.86 1448.74,-1064.3"/>
<polygon fill="#9a32cd" stroke="#9a32cd" points="1191.93,-1078.15 1182.19,-1082.32 1192.4,-1085.13 1191.93,-1078.15"/>
<text text-anchor="middle" x="1329" y="-1091" font-family="Helvetica,sans-Serif" font-size="10.00"> tagBitRefLevelMask</text>
<text text-anchor="middle" x="1329" y="-1080" font-family="Helvetica,sans-Serif" font-size="10.00">tagBitRefLevel</text>
</g>
<!-- Node44 -->
<g id="node44" class="node">
<title>Node44</title>
<g id="a_node44"><a xlink:title=" ">
<polygon fill="white" stroke="#bfbfbf" points="1056.5,-1026 1056.5,-1056 1226.5,-1056 1226.5,-1026 1056.5,-1026"/>
<text text-anchor="start" x="1064.5" y="-1044" font-family="Helvetica,sans-Serif" font-size="10.00">shared_ptr&lt; NumeredDofEntity</text>
<text text-anchor="middle" x="1141.5" y="-1033" font-family="Helvetica,sans-Serif" font-size="10.00">_multiIndex &gt;</text>
</a>
</g>
</g>
<!-- Node44&#45;&gt;Node38 -->
<g id="edge52" class="edge">
<title>Node44&#45;&gt;Node38</title>
<path fill="none" stroke="#9a32cd" stroke-dasharray="5,2" d="M1236.77,-1035.84C1284.85,-1034.43 1344.17,-1034.54 1397,-1040 1418.45,-1042.22 1442.08,-1047.03 1461.03,-1051.49"/>
<polygon fill="#9a32cd" stroke="#9a32cd" points="1236.57,-1032.35 1226.69,-1036.17 1236.8,-1039.35 1236.57,-1032.35"/>
<text text-anchor="middle" x="1329" y="-1054" font-family="Helvetica,sans-Serif" font-size="10.00"> numeredRowDofsPtr</text>
<text text-anchor="middle" x="1329" y="-1043" font-family="Helvetica,sans-Serif" font-size="10.00">numeredColDofsPtr</text>
</g>
<!-- Node45 -->
<g id="node45" class="node">
<title>Node45</title>
<g id="a_node45"><a xlink:title=" ">
<polygon fill="white" stroke="#bfbfbf" points="1072.5,-987.5 1072.5,-1006.5 1210.5,-1006.5 1210.5,-987.5 1072.5,-987.5"/>
<text text-anchor="middle" x="1141.5" y="-994.5" font-family="Helvetica,sans-Serif" font-size="10.00">vector&lt; BlockFieldPair &gt;</text>
</a>
</g>
</g>
<!-- Node45&#45;&gt;Node38 -->
<g id="edge54" class="edge">
<title>Node45&#45;&gt;Node38</title>
<path fill="none" stroke="#9a32cd" stroke-dasharray="5,2" d="M1220.87,-998.64C1271.68,-1001.11 1338.98,-1007.02 1397,-1021 1426.39,-1028.08 1458.57,-1042.08 1478.4,-1051.49"/>
<polygon fill="#9a32cd" stroke="#9a32cd" points="1220.76,-995.13 1210.61,-998.18 1220.44,-1002.12 1220.76,-995.13"/>
<text text-anchor="middle" x="1329" y="-1024" font-family="Helvetica,sans-Serif" font-size="10.00"> emptyFieldBlocks</text>
</g>
<!-- Node46 -->
<g id="node46" class="node">
<title>Node46</title>
<g id="a_node46"><a xlink:title=" ">
<polygon fill="white" stroke="#bfbfbf" points="1063.5,-938 1063.5,-968 1219.5,-968 1219.5,-938 1063.5,-938"/>
<text text-anchor="start" x="1071.5" y="-956" font-family="Helvetica,sans-Serif" font-size="10.00">shared_ptr&lt; MoFEM::</text>
<text text-anchor="middle" x="1141.5" y="-945" font-family="Helvetica,sans-Serif" font-size="10.00">Problem::SubProblemData &gt;</text>
</a>
</g>
</g>
<!-- Node46&#45;&gt;Node38 -->
<g id="edge55" class="edge">
<title>Node46&#45;&gt;Node38</title>
<path fill="none" stroke="#9a32cd" stroke-dasharray="5,2" d="M1229.87,-953.97C1280.3,-957.12 1344.02,-965.61 1397,-987 1434.77,-1002.25 1471.27,-1035.01 1487.99,-1051.34"/>
<polygon fill="#9a32cd" stroke="#9a32cd" points="1229.82,-950.46 1219.64,-953.39 1229.43,-957.45 1229.82,-950.46"/>
<text text-anchor="middle" x="1329" y="-990" font-family="Helvetica,sans-Serif" font-size="10.00"> subProblemData</text>
</g>
<!-- Node47 -->
<g id="node47" class="node">
<title>Node47</title>
<g id="a_node47"><a xlink:title=" ">
<polygon fill="white" stroke="#bfbfbf" points="1040,-899.5 1040,-918.5 1243,-918.5 1243,-899.5 1040,-899.5"/>
<text text-anchor="middle" x="1141.5" y="-906.5" font-family="Helvetica,sans-Serif" font-size="10.00">shared_ptr&lt; SequenceDofContainer &gt;</text>
</a>
</g>
</g>
<!-- Node47&#45;&gt;Node38 -->
<g id="edge57" class="edge">
<title>Node47&#45;&gt;Node38</title>
<path fill="none" stroke="#9a32cd" stroke-dasharray="5,2" d="M1247.95,-899.44C1296.03,-899.62 1352.11,-906.51 1397,-931 1448.59,-959.15 1482.23,-1026.17 1493.4,-1051.28"/>
<polygon fill="#9a32cd" stroke="#9a32cd" points="1247.8,-895.94 1237.82,-899.5 1247.84,-902.94 1247.8,-895.94"/>
<text text-anchor="middle" x="1329" y="-945" font-family="Helvetica,sans-Serif" font-size="10.00"> sequenceRowDofContainer</text>
<text text-anchor="middle" x="1329" y="-934" font-family="Helvetica,sans-Serif" font-size="10.00">sequenceColDofContainer</text>
</g>
<!-- Node48 -->
<g id="node48" class="node">
<title>Node48</title>
<g id="a_node48"><a xlink:title=" ">
<polygon fill="white" stroke="#bfbfbf" points="1097.5,-861.5 1097.5,-880.5 1185.5,-880.5 1185.5,-861.5 1097.5,-861.5"/>
<text text-anchor="middle" x="1141.5" y="-868.5" font-family="Helvetica,sans-Serif" font-size="10.00">BitProblemId *</text>
</a>
</g>
</g>
<!-- Node48&#45;&gt;Node38 -->
<g id="edge58" class="edge">
<title>Node48&#45;&gt;Node38</title>
<path fill="none" stroke="#9a32cd" stroke-dasharray="5,2" d="M1195.99,-859.97C1250.74,-851.7 1336.17,-847.42 1397,-885 1460.76,-924.39 1487.99,-1020.07 1495.34,-1051.11"/>
<polygon fill="#9a32cd" stroke="#9a32cd" points="1195.12,-856.57 1185.81,-861.61 1196.24,-863.48 1195.12,-856.57"/>
<text text-anchor="middle" x="1329" y="-888" font-family="Helvetica,sans-Serif" font-size="10.00"> tagId</text>
</g>
<!-- Node49 -->
<g id="node49" class="node">
<title>Node49</title>
<g id="a_node49"><a xlink:title=" ">
<polygon fill="white" stroke="#bfbfbf" points="1805,-650 1805,-680 1967,-680 1967,-650 1805,-650"/>
<text text-anchor="start" x="1813" y="-668" font-family="Helvetica,sans-Serif" font-size="10.00">shared_ptr&lt; const MoFEM</text>
<text text-anchor="middle" x="1886" y="-657" font-family="Helvetica,sans-Serif" font-size="10.00">::NumeredEntFiniteElement &gt;</text>
</a>
</g>
</g>
<!-- Node49&#45;&gt;Node12 -->
<g id="edge59" class="edge">
<title>Node49&#45;&gt;Node12</title>
<path fill="none" stroke="#9a32cd" stroke-dasharray="5,2" d="M1977.18,-659.33C2024.91,-654.57 2084.03,-645.87 2135,-630 2143.54,-627.34 2144.52,-623.85 2153,-621 2168.71,-615.73 2186.3,-611.79 2202.39,-608.91"/>
<polygon fill="#9a32cd" stroke="#9a32cd" points="1976.8,-655.85 1967.18,-660.28 1977.47,-662.81 1976.8,-655.85"/>
<text text-anchor="middle" x="2063" y="-661" font-family="Helvetica,sans-Serif" font-size="10.00"> numeredEntFiniteElementPtr</text>
</g>
<!-- Node50 -->
<g id="node50" class="node">
<title>Node50</title>
<g id="a_node50"><a xlink:title=" ">
<polygon fill="white" stroke="#bfbfbf" points="1864,-364.5 1864,-383.5 1908,-383.5 1908,-364.5 1864,-364.5"/>
<text text-anchor="middle" x="1886" y="-371.5" font-family="Helvetica,sans-Serif" font-size="10.00">string</text>
</a>
</g>
</g>
<!-- Node50&#45;&gt;Node3 -->
<g id="edge82" class="edge">
<title>Node50&#45;&gt;Node3</title>
<path fill="none" stroke="#9a32cd" stroke-dasharray="5,2" d="M1918.54,-372.26C2041.25,-365.68 2482.8,-344.13 2539,-371 2872.44,-530.4 2770.3,-787.64 2819,-1154 2824.36,-1194.29 2817.06,-1300.59 2837,-1336 2848.9,-1357.12 2871.11,-1373.3 2889.7,-1383.97"/>
<polygon fill="#9a32cd" stroke="#9a32cd" points="1918.12,-368.77 1908.32,-372.81 1918.5,-375.76 1918.12,-368.77"/>
<text text-anchor="middle" x="2458" y="-385" font-family="Helvetica,sans-Serif" font-size="10.00"> colFieldName</text>
<text text-anchor="middle" x="2458" y="-374" font-family="Helvetica,sans-Serif" font-size="10.00">rowFieldName</text>
</g>
<!-- Node50&#45;&gt;Node12 -->
<g id="edge60" class="edge">
<title>Node50&#45;&gt;Node12</title>
<path fill="none" stroke="#9a32cd" stroke-dasharray="5,2" d="M1918.47,-372.57C1937,-373.52 1959.4,-378.11 1973,-393 2015.61,-439.65 1946.73,-488.93 1991,-534 2013.66,-557.07 2103.74,-546.72 2135,-555 2171.12,-564.57 2211.18,-581.66 2234.67,-592.38"/>
<polygon fill="#9a32cd" stroke="#9a32cd" points="1918.44,-369.07 1908.37,-372.37 1918.3,-376.07 1918.44,-369.07"/>
<text text-anchor="middle" x="2063" y="-558" font-family="Helvetica,sans-Serif" font-size="10.00"> feName</text>
</g>
<!-- Node51 -->
<g id="node51" class="node">
<title>Node51</title>
<g id="a_node51"><a xlink:title=" ">
<polygon fill="white" stroke="#bfbfbf" points="1804.5,-699 1804.5,-729 1967.5,-729 1967.5,-699 1804.5,-699"/>
<text text-anchor="start" x="1812.5" y="-717" font-family="Helvetica,sans-Serif" font-size="10.00">function&lt; bool(MoFEM</text>
<text text-anchor="middle" x="1886" y="-706" font-family="Helvetica,sans-Serif" font-size="10.00">::FEMethod *fe_method_ptr)&gt;</text>
</a>
</g>
</g>
<!-- Node51&#45;&gt;Node12 -->
<g id="edge61" class="edge">
<title>Node51&#45;&gt;Node12</title>
<path fill="none" stroke="#9a32cd" stroke-dasharray="5,2" d="M1977.89,-720.54C2029.42,-719.41 2092,-709.27 2135,-673 2153.69,-657.23 2134.47,-636.96 2153,-621 2166.58,-609.31 2185.01,-603.83 2202.48,-601.51"/>
<polygon fill="#9a32cd" stroke="#9a32cd" points="1977.7,-717.04 1967.74,-720.65 1977.77,-724.04 1977.7,-717.04"/>
<text text-anchor="middle" x="2063" y="-724" font-family="Helvetica,sans-Serif" font-size="10.00"> exeTestHook</text>
</g>
<!-- Node52 -->
<g id="node52" class="node">
<title>Node52</title>
<g id="a_node52"><a xlink:href="classdouble.html" target="_top" xlink:title=" ">
<polygon fill="white" stroke="black" points="2231,-491.5 2231,-510.5 2281,-510.5 2281,-491.5 2231,-491.5"/>
<text text-anchor="middle" x="2256" y="-498.5" font-family="Helvetica,sans-Serif" font-size="10.00">double</text>
</a>
</g>
</g>
<!-- Node52&#45;&gt;Node11 -->
<g id="edge62" class="edge">
<title>Node52&#45;&gt;Node11</title>
<path fill="none" stroke="#9a32cd" stroke-dasharray="5,2" d="M2290.98,-494.69C2345.98,-486.15 2456.64,-476 2539,-514 2586.54,-535.93 2622.56,-591.12 2635.64,-613.42"/>
<polygon fill="#9a32cd" stroke="#9a32cd" points="2290.37,-491.24 2281.06,-496.31 2291.5,-498.15 2290.37,-491.24"/>
<text text-anchor="middle" x="2458" y="-517" font-family="Helvetica,sans-Serif" font-size="10.00"> elementMeasure</text>
</g>
<!-- Node53 -->
<g id="node53" class="node">
<title>Node53</title>
<g id="a_node53"><a xlink:title=" ">
<polygon fill="white" stroke="#bfbfbf" points="2170,-431.5 2170,-472.5 2342,-472.5 2342,-431.5 2170,-431.5"/>
<text text-anchor="start" x="2178" y="-460.5" font-family="Helvetica,sans-Serif" font-size="10.00">array&lt; boost::shared</text>
<text text-anchor="start" x="2178" y="-449.5" font-family="Helvetica,sans-Serif" font-size="10.00">_ptr&lt; MoFEM::EntitiesFieldData</text>
<text text-anchor="middle" x="2256" y="-438.5" font-family="Helvetica,sans-Serif" font-size="10.00"> &gt;, LASTSPACE &gt;</text>
</a>
</g>
</g>
<!-- Node53&#45;&gt;Node11 -->
<g id="edge63" class="edge">
<title>Node53&#45;&gt;Node11</title>
<path fill="none" stroke="#9a32cd" stroke-dasharray="5,2" d="M2352.43,-433.6C2410.12,-427.47 2483.07,-428.95 2539,-461 2600.13,-496.03 2629.96,-584.14 2638.41,-613.39"/>
<polygon fill="#9a32cd" stroke="#9a32cd" points="2351.75,-430.16 2342.22,-434.79 2352.55,-437.11 2351.75,-430.16"/>
<text text-anchor="middle" x="2458" y="-475" font-family="Helvetica,sans-Serif" font-size="10.00"> derivedDataOnElement</text>
<text text-anchor="middle" x="2458" y="-464" font-family="Helvetica,sans-Serif" font-size="10.00">dataOnElement</text>
</g>
<!-- Node54 -->
<g id="node54" class="node">
<title>Node54</title>
<g id="a_node54"><a xlink:title=" ">
<polygon fill="white" stroke="#bfbfbf" points="2222,-393.5 2222,-412.5 2290,-412.5 2290,-393.5 2222,-393.5"/>
<text text-anchor="middle" x="2256" y="-400.5" font-family="Helvetica,sans-Serif" font-size="10.00">EntityType</text>
</a>
</g>
</g>
<!-- Node54&#45;&gt;Node11 -->
<g id="edge64" class="edge">
<title>Node54&#45;&gt;Node11</title>
<path fill="none" stroke="#9a32cd" stroke-dasharray="5,2" d="M2300.22,-399.78C2369.34,-395.49 2500.87,-391.05 2539,-416 2611.74,-463.61 2634.45,-579.24 2639.68,-613.37"/>
<polygon fill="#9a32cd" stroke="#9a32cd" points="2299.84,-396.3 2290.09,-400.44 2300.29,-403.28 2299.84,-396.3"/>
<text text-anchor="middle" x="2458" y="-419" font-family="Helvetica,sans-Serif" font-size="10.00"> lastEvaluatedElementEntityType</text>
</g>
<!-- Node55 -->
<g id="node55" class="node">
<title>Node55</title>
<g id="a_node55"><a xlink:href="structMoFEM_1_1DeprecatedCoreInterface.html" target="_top" xlink:title="Deprecated interface functions.">
<polygon fill="white" stroke="black" points="1600,-0.5 1600,-19.5 1781,-19.5 1781,-0.5 1600,-0.5"/>
<text text-anchor="middle" x="1690.5" y="-7.5" font-family="Helvetica,sans-Serif" font-size="10.00">MoFEM::DeprecatedCoreInterface</text>
</a>
</g>
</g>
<!-- Node55&#45;&gt;Node11 -->
<g id="edge65" class="edge">
<title>Node55&#45;&gt;Node11</title>
<path fill="none" stroke="#9a32cd" stroke-dasharray="5,2" d="M1785.54,-20.94C1958.86,-46.04 2330.04,-123.55 2539,-343 2617.84,-425.8 2636.57,-574.31 2640.22,-613.37"/>
<polygon fill="#9a32cd" stroke="#9a32cd" points="1785.81,-17.44 1775.42,-19.5 1784.83,-24.37 1785.81,-17.44"/>
<text text-anchor="middle" x="2063" y="-106" font-family="Helvetica,sans-Serif" font-size="10.00"> mField</text>
</g>
<!-- Node56&#45;&gt;Node55 -->
<g id="edge66" class="edge">
<title>Node56&#45;&gt;Node55</title>
<path fill="none" stroke="midnightblue" d="M1202.63,-102.57C1311.33,-81.9 1538.57,-38.7 1639.43,-19.52"/>
<polygon fill="midnightblue" stroke="midnightblue" points="1201.66,-99.19 1192.49,-104.49 1202.97,-106.07 1201.66,-99.19"/>
</g>
<!-- Node57 -->
<g id="node57" class="node">
<title>Node57</title>
<g id="a_node57"><a xlink:title=" ">
<polygon fill="white" stroke="#bfbfbf" points="2172.5,-828 2172.5,-880 2339.5,-880 2339.5,-828 2172.5,-828"/>
<text text-anchor="start" x="2180.5" y="-868" font-family="Helvetica,sans-Serif" font-size="10.00">function&lt; MoFEMErrorCode</text>
<text text-anchor="start" x="2180.5" y="-857" font-family="Helvetica,sans-Serif" font-size="10.00">(ForcesAndSourcesCore *fe</text>
<text text-anchor="start" x="2180.5" y="-846" font-family="Helvetica,sans-Serif" font-size="10.00">_raw_ptr, int order_row,</text>
<text text-anchor="middle" x="2256" y="-835" font-family="Helvetica,sans-Serif" font-size="10.00"> int order_col, int order_data)&gt;</text>
</a>
</g>
</g>
<!-- Node57&#45;&gt;Node11 -->
<g id="edge69" class="edge">
<title>Node57&#45;&gt;Node11</title>
<path fill="none" stroke="#9a32cd" stroke-dasharray="5,2" d="M2349.86,-860.87C2408.94,-860.63 2484.33,-851.31 2539,-813 2604.92,-766.81 2632.06,-664.19 2639.06,-632.5"/>
<polygon fill="#9a32cd" stroke="#9a32cd" points="2349.8,-857.37 2339.78,-860.82 2349.76,-864.37 2349.8,-857.37"/>
<text text-anchor="middle" x="2458" y="-863" font-family="Helvetica,sans-Serif" font-size="10.00"> setRuleHook</text>
</g>
<!-- Node58 -->
<g id="node58" class="node">
<title>Node58</title>
<g id="a_node58"><a xlink:title=" ">
<polygon fill="white" stroke="#bfbfbf" points="2155,-779 2155,-809 2357,-809 2357,-779 2155,-779"/>
<text text-anchor="start" x="2163" y="-797" font-family="Helvetica,sans-Serif" font-size="10.00">ptr_deque&lt; MoFEM::Forces</text>
<text text-anchor="middle" x="2256" y="-786" font-family="Helvetica,sans-Serif" font-size="10.00">AndSourcesCore::UserDataOperator &gt;</text>
</a>
</g>
</g>
<!-- Node58&#45;&gt;Node11 -->
<g id="edge70" class="edge">
<title>Node58&#45;&gt;Node11</title>
<path fill="none" stroke="#9a32cd" stroke-dasharray="5,2" d="M2367.41,-798.4C2422.25,-795.98 2487.6,-785.79 2539,-756 2590.86,-725.94 2625.31,-658.14 2636.78,-632.8"/>
<polygon fill="#9a32cd" stroke="#9a32cd" points="2367.17,-794.91 2357.3,-798.77 2367.42,-801.91 2367.17,-794.91"/>
<text text-anchor="middle" x="2458" y="-801" font-family="Helvetica,sans-Serif" font-size="10.00"> opPtrVector</text>
</g>
<!-- Node59 -->
<g id="node59" class="node">
<title>Node59</title>
<g id="a_node59"><a xlink:href="structMoFEM_1_1EntitiesFieldData.html" target="_top" xlink:title="data structure for finite element entity">
<polygon fill="white" stroke="black" points="2185,-529.5 2185,-548.5 2327,-548.5 2327,-529.5 2185,-529.5"/>
<text text-anchor="middle" x="2256" y="-536.5" font-family="Helvetica,sans-Serif" font-size="10.00">MoFEM::EntitiesFieldData</text>
</a>
</g>
</g>
<!-- Node59&#45;&gt;Node11 -->
<g id="edge71" class="edge">
<title>Node59&#45;&gt;Node11</title>
<path fill="none" stroke="#9a32cd" stroke-dasharray="5,2" d="M2337.28,-530.09C2394.96,-526.55 2473.74,-527.64 2539,-550 2577.94,-563.34 2614.98,-596.77 2631.7,-613.36"/>
<polygon fill="#9a32cd" stroke="#9a32cd" points="2336.87,-526.61 2327.12,-530.78 2337.34,-533.6 2336.87,-526.61"/>
<text text-anchor="middle" x="2458" y="-597" font-family="Helvetica,sans-Serif" font-size="10.00"> dataNoField</text>
<text text-anchor="middle" x="2458" y="-586" font-family="Helvetica,sans-Serif" font-size="10.00">dataL2</text>
<text text-anchor="middle" x="2458" y="-575" font-family="Helvetica,sans-Serif" font-size="10.00">dataH1</text>
<text text-anchor="middle" x="2458" y="-564" font-family="Helvetica,sans-Serif" font-size="10.00">dataHcurl</text>
<text text-anchor="middle" x="2458" y="-553" font-family="Helvetica,sans-Serif" font-size="10.00">dataHdiv</text>
</g>
<!-- Node60 -->
<g id="node60" class="node">
<title>Node60</title>
<g id="a_node60"><a xlink:title=" ">
<polygon fill="white" stroke="#bfbfbf" points="1805,-463 1805,-493 1967,-493 1967,-463 1805,-463"/>
<text text-anchor="start" x="1813" y="-481" font-family="Helvetica,sans-Serif" font-size="10.00">array&lt; std::bitset</text>
<text text-anchor="middle" x="1886" y="-470" font-family="Helvetica,sans-Serif" font-size="10.00">&lt; LASTBASE &gt;, LASTSPACE &gt;</text>
</a>
</g>
</g>
<!-- Node60&#45;&gt;Node59 -->
<g id="edge72" class="edge">
<title>Node60&#45;&gt;Node59</title>
<path fill="none" stroke="#9a32cd" stroke-dasharray="5,2" d="M1977.22,-465.48C2026.8,-462.93 2087.66,-467.22 2135,-494 2147.23,-500.92 2141.2,-512.36 2153,-520 2162.6,-526.22 2173.71,-530.52 2185,-533.47"/>
<polygon fill="#9a32cd" stroke="#9a32cd" points="1976.91,-462 1967.15,-466.1 1977.34,-468.98 1976.91,-462"/>
<text text-anchor="middle" x="2063" y="-508" font-family="Helvetica,sans-Serif" font-size="10.00"> brokenBasesOnSpaces</text>
<text text-anchor="middle" x="2063" y="-497" font-family="Helvetica,sans-Serif" font-size="10.00">basesOnSpaces</text>
</g>
<!-- Node61 -->
<g id="node61" class="node">
<title>Node61</title>
<g id="a_node61"><a xlink:title=" ">
<polygon fill="white" stroke="#bfbfbf" points="1809.5,-402.5 1809.5,-443.5 1962.5,-443.5 1962.5,-402.5 1809.5,-402.5"/>
<text text-anchor="start" x="1817.5" y="-431.5" font-family="Helvetica,sans-Serif" font-size="10.00">array&lt; boost::ptr_vector</text>
<text text-anchor="start" x="1817.5" y="-420.5" font-family="Helvetica,sans-Serif" font-size="10.00">&lt; MoFEM::EntitiesFieldData</text>
<text text-anchor="middle" x="1886" y="-409.5" font-family="Helvetica,sans-Serif" font-size="10.00">::EntData &gt;, MBMAXTYPE &gt;</text>
</a>
</g>
</g>
<!-- Node61&#45;&gt;Node59 -->
<g id="edge73" class="edge">
<title>Node61&#45;&gt;Node59</title>
<path fill="none" stroke="#9a32cd" stroke-dasharray="5,2" d="M1972.55,-409.65C2025.36,-406.4 2091.17,-412.04 2135,-450 2159.28,-471.03 2129.53,-498.07 2153,-520 2161.88,-528.3 2173.17,-533.55 2184.98,-536.77"/>
<polygon fill="#9a32cd" stroke="#9a32cd" points="1972.23,-406.17 1962.51,-410.39 1972.74,-413.15 1972.23,-406.17"/>
<text text-anchor="middle" x="2063" y="-453" font-family="Helvetica,sans-Serif" font-size="10.00"> dataOnEntities</text>
</g>
<!-- Node62 -->
<g id="node62" class="node">
<title>Node62</title>
<g id="a_node62"><a xlink:title=" ">
<polygon fill="white" stroke="#bfbfbf" points="1799,-315 1799,-345 1973,-345 1973,-315 1799,-315"/>
<text text-anchor="start" x="1807" y="-333" font-family="Helvetica,sans-Serif" font-size="10.00">array&lt; std::bitset</text>
<text text-anchor="middle" x="1886" y="-322" font-family="Helvetica,sans-Serif" font-size="10.00">&lt; LASTSPACE &gt;, MBMAXTYPE &gt;</text>
</a>
</g>
</g>
<!-- Node62&#45;&gt;Node59 -->
<g id="edge74" class="edge">
<title>Node62&#45;&gt;Node59</title>
<path fill="none" stroke="#9a32cd" stroke-dasharray="5,2" d="M1983.11,-330.25C2035.5,-335.71 2097.18,-351.75 2135,-394 2172.73,-436.15 2113.85,-479.16 2153,-520 2161.54,-528.91 2172.81,-534.41 2184.74,-537.69"/>
<polygon fill="#9a32cd" stroke="#9a32cd" points="1983.38,-326.76 1973.1,-329.33 1982.74,-333.73 1983.38,-326.76"/>
<text text-anchor="middle" x="2063" y="-397" font-family="Helvetica,sans-Serif" font-size="10.00"> spacesOnEntities</text>
</g>
<!-- Node63 -->
<g id="node63" class="node">
<title>Node63</title>
<g id="a_node63"><a xlink:title=" ">
<polygon fill="white" stroke="#bfbfbf" points="1801.5,-266 1801.5,-296 1970.5,-296 1970.5,-266 1801.5,-266"/>
<text text-anchor="start" x="1809.5" y="-284" font-family="Helvetica,sans-Serif" font-size="10.00">array&lt; std::bitset</text>
<text text-anchor="middle" x="1886" y="-273" font-family="Helvetica,sans-Serif" font-size="10.00">&lt; LASTBASE &gt;, MBMAXTYPE &gt;</text>
</a>
</g>
</g>
<!-- Node63&#45;&gt;Node59 -->
<g id="edge75" class="edge">
<title>Node63&#45;&gt;Node59</title>
<path fill="none" stroke="#9a32cd" stroke-dasharray="5,2" d="M1980.57,-268.7C2033.37,-267.35 2096.31,-276.09 2135,-317 2166.12,-349.9 2122.55,-486.48 2153,-520 2161.42,-529.27 2172.78,-534.9 2184.88,-538.19"/>
<polygon fill="#9a32cd" stroke="#9a32cd" points="1980.36,-265.2 1970.5,-269.08 1980.63,-272.2 1980.36,-265.2"/>
<text text-anchor="middle" x="2063" y="-320" font-family="Helvetica,sans-Serif" font-size="10.00"> basesOnEntities</text>
</g>
<!-- Node64 -->
<g id="node64" class="node">
<title>Node64</title>
<g id="a_node64"><a xlink:title=" ">
<polygon fill="white" stroke="#bfbfbf" points="1830,-573.5 1830,-592.5 1942,-592.5 1942,-573.5 1830,-573.5"/>
<text text-anchor="middle" x="1886" y="-580.5" font-family="Helvetica,sans-Serif" font-size="10.00">UBlasMatrix&lt; int &gt;</text>
</a>
</g>
</g>
<!-- Node64&#45;&gt;Node59 -->
<g id="edge76" class="edge">
<title>Node64&#45;&gt;Node59</title>
<path fill="none" stroke="#9a32cd" stroke-dasharray="5,2" d="M1952.52,-582.19C2002.71,-580.81 2073.54,-577.21 2135,-568 2164.99,-563.5 2198.49,-555.12 2222.46,-548.52"/>
<polygon fill="#9a32cd" stroke="#9a32cd" points="1952.36,-578.69 1942.45,-582.44 1952.54,-585.69 1952.36,-578.69"/>
<text text-anchor="middle" x="2063" y="-595" font-family="Helvetica,sans-Serif" font-size="10.00"> facesNodesOrder</text>
<text text-anchor="middle" x="2063" y="-584" font-family="Helvetica,sans-Serif" font-size="10.00">facesNodes</text>
</g>
<!-- Node65 -->
<g id="node65" class="node">
<title>Node65</title>
<g id="a_node65"><a xlink:title=" ">
<polygon fill="white" stroke="#bfbfbf" points="1827.5,-512.5 1827.5,-531.5 1944.5,-531.5 1944.5,-512.5 1827.5,-512.5"/>
<text text-anchor="middle" x="1886" y="-519.5" font-family="Helvetica,sans-Serif" font-size="10.00">bitset&lt; LASTBASE &gt;</text>
</a>
</g>
</g>
<!-- Node65&#45;&gt;Node59 -->
<g id="edge77" class="edge">
<title>Node65&#45;&gt;Node59</title>
<path fill="none" stroke="#9a32cd" stroke-dasharray="5,2" d="M1954.73,-519.93C2004.63,-518.98 2074.12,-518.84 2135,-523 2154.61,-524.34 2175.9,-526.84 2195.03,-529.46"/>
<polygon fill="#9a32cd" stroke="#9a32cd" points="1954.63,-516.43 1944.7,-520.14 1954.77,-523.43 1954.63,-516.43"/>
<text text-anchor="middle" x="2063" y="-526" font-family="Helvetica,sans-Serif" font-size="10.00"> bAse</text>
</g>
<!-- Node66 -->
<g id="node66" class="node">
<title>Node66</title>
<g id="a_node66"><a xlink:title=" ">
<polygon fill="white" stroke="#bfbfbf" points="2193.5,-718.5 2193.5,-759.5 2318.5,-759.5 2318.5,-718.5 2193.5,-718.5"/>
<text text-anchor="start" x="2201.5" y="-747.5" font-family="Helvetica,sans-Serif" font-size="10.00">function&lt; int(int order</text>
<text text-anchor="start" x="2201.5" y="-736.5" font-family="Helvetica,sans-Serif" font-size="10.00">_row, int order_col, int</text>
<text text-anchor="middle" x="2256" y="-725.5" font-family="Helvetica,sans-Serif" font-size="10.00"> order_data)&gt;</text>
</a>
</g>
</g>
<!-- Node66&#45;&gt;Node11 -->
<g id="edge78" class="edge">
<title>Node66&#45;&gt;Node11</title>
<path fill="none" stroke="#9a32cd" stroke-dasharray="5,2" d="M2329,-742.33C2387.76,-742.46 2471.76,-736.59 2539,-708 2579.94,-690.59 2617.12,-651.12 2632.95,-632.75"/>
<polygon fill="#9a32cd" stroke="#9a32cd" points="2328.72,-738.83 2318.69,-742.25 2328.67,-745.83 2328.72,-738.83"/>
<text text-anchor="middle" x="2458" y="-744" font-family="Helvetica,sans-Serif" font-size="10.00"> getRuleHook</text>
</g>
<!-- Node67 -->
<g id="node67" class="node">
<title>Node67</title>
<g id="a_node67"><a xlink:title=" ">
<polygon fill="white" stroke="#bfbfbf" points="2195,-669 2195,-699 2317,-699 2317,-669 2195,-669"/>
<text text-anchor="start" x="2203" y="-687" font-family="Helvetica,sans-Serif" font-size="10.00">shared_ptr&lt; MoFEM::</text>
<text text-anchor="middle" x="2256" y="-676" font-family="Helvetica,sans-Serif" font-size="10.00">BaseFunction &gt;</text>
</a>
</g>
</g>
<!-- Node67&#45;&gt;Node11 -->
<g id="edge79" class="edge">
<title>Node67&#45;&gt;Node11</title>
<path fill="none" stroke="#9a32cd" stroke-dasharray="5,2" d="M2327.21,-683.61C2384.75,-682.02 2467.99,-676.81 2539,-661 2568.14,-654.51 2600.17,-641.56 2620.41,-632.59"/>
<polygon fill="#9a32cd" stroke="#9a32cd" points="2327.04,-680.11 2317.13,-683.86 2327.21,-687.11 2327.04,-680.11"/>
<text text-anchor="middle" x="2458" y="-696" font-family="Helvetica,sans-Serif" font-size="10.00"> userPolynomialBasePtr</text>
<text text-anchor="middle" x="2458" y="-685" font-family="Helvetica,sans-Serif" font-size="10.00">elementPolynomialBasePtr</text>
</g>
<!-- Node68 -->
<g id="node68" class="node">
<title>Node68</title>
<g id="a_node68"><a xlink:href="classUBlasMatrix_3_01double_01_4.html" target="_top" xlink:title=" ">
<polygon fill="white" stroke="black" points="2190,-630.5 2190,-649.5 2322,-649.5 2322,-630.5 2190,-630.5"/>
<text text-anchor="middle" x="2256" y="-637.5" font-family="Helvetica,sans-Serif" font-size="10.00">UBlasMatrix&lt; double &gt;</text>
</a>
</g>
</g>
<!-- Node68&#45;&gt;Node11 -->
<g id="edge80" class="edge">
<title>Node68&#45;&gt;Node11</title>
<path fill="none" stroke="#9a32cd" stroke-dasharray="5,2" d="M2332.25,-636.67C2396.78,-633.81 2489.67,-629.7 2556.69,-626.73"/>
<polygon fill="#9a32cd" stroke="#9a32cd" points="2331.98,-633.18 2322.14,-637.12 2332.29,-640.17 2331.98,-633.18"/>
<text text-anchor="middle" x="2458" y="-649" font-family="Helvetica,sans-Serif" font-size="10.00"> coordsAtGaussPts</text>
<text text-anchor="middle" x="2458" y="-638" font-family="Helvetica,sans-Serif" font-size="10.00">gaussPts</text>
</g>
<!-- Node69 -->
<g id="node69" class="node">
<title>Node69</title>
<g id="a_node69"><a xlink:title=" ">
<polygon fill="white" stroke="#bfbfbf" points="2576.5,-1527.5 2576.5,-1546.5 2707.5,-1546.5 2707.5,-1527.5 2576.5,-1527.5"/>
<text text-anchor="middle" x="2642" y="-1534.5" font-family="Helvetica,sans-Serif" font-size="10.00">static const char *const</text>
</a>
</g>
</g>
<!-- Node69&#45;&gt;Node3 -->
<g id="edge81" class="edge">
<title>Node69&#45;&gt;Node3</title>
<path fill="none" stroke="#9a32cd" stroke-dasharray="5,2" d="M2707.09,-1524.74C2713.9,-1522.77 2720.66,-1520.54 2727,-1518 2795.78,-1490.48 2867.88,-1439.43 2901.54,-1414.09"/>
<polygon fill="#9a32cd" stroke="#9a32cd" points="2705.85,-1521.45 2697.1,-1527.42 2707.66,-1528.21 2705.85,-1521.45"/>
<text text-anchor="middle" x="2782" y="-1511" font-family="Helvetica,sans-Serif" font-size="10.00"> OpTypeNames</text>
</g>
<!-- Node70 -->
<g id="node70" class="node">
<title>Node70</title>
<g id="a_node70"><a xlink:title=" ">
<polygon fill="white" stroke="#bfbfbf" points="2861,-1296 2861,-1326 2983,-1326 2983,-1296 2861,-1296"/>
<text text-anchor="start" x="2869" y="-1314" font-family="Helvetica,sans-Serif" font-size="10.00">shared_ptr&lt; MoFEM::</text>
<text text-anchor="middle" x="2922" y="-1303" font-family="Helvetica,sans-Serif" font-size="10.00">EntitiesFieldData &gt;</text>
</a>
</g>
</g>
<!-- Node70&#45;&gt;Node2 -->
<g id="edge83" class="edge">
<title>Node70&#45;&gt;Node2</title>
<path fill="none" stroke="#9a32cd" stroke-dasharray="5,2" d="M2993.14,-1311C3029.53,-1311 3074.34,-1311 3112.94,-1311"/>
<polygon fill="#9a32cd" stroke="#9a32cd" points="2993.1,-1307.5 2983.1,-1311 2993.1,-1314.5 2993.1,-1307.5"/>
<text text-anchor="middle" x="3060" y="-1314" font-family="Helvetica,sans-Serif" font-size="10.00"> dataL2</text>
</g>
<!-- Node71 -->
<g id="node71" class="node">
<title>Node71</title>
<g id="a_node71"><a xlink:title=" ">
<polygon fill="white" stroke="#bfbfbf" points="2854,-1257.5 2854,-1276.5 2990,-1276.5 2990,-1257.5 2854,-1257.5"/>
<text text-anchor="middle" x="2922" y="-1264.5" font-family="Helvetica,sans-Serif" font-size="10.00">FieldApproximationBase</text>
</a>
</g>
</g>
<!-- Node71&#45;&gt;Node2 -->
<g id="edge84" class="edge">
<title>Node71&#45;&gt;Node2</title>
<path fill="none" stroke="#9a32cd" stroke-dasharray="5,2" d="M2993.15,-1278.14C3038.48,-1285.34 3096.84,-1294.61 3140.01,-1301.47"/>
<polygon fill="#9a32cd" stroke="#9a32cd" points="2993.53,-1274.66 2983.1,-1276.55 2992.43,-1281.57 2993.53,-1274.66"/>
<text text-anchor="middle" x="3060" y="-1297" font-family="Helvetica,sans-Serif" font-size="10.00"> base</text>
</g>
<!-- Node72 -->
<g id="node72" class="node">
<title>Node72</title>
<g id="a_node72"><a xlink:title=" ">
<polygon fill="white" stroke="#bfbfbf" points="2852,-1208 2852,-1238 2992,-1238 2992,-1208 2852,-1208"/>
<text text-anchor="start" x="2860" y="-1226" font-family="Helvetica,sans-Serif" font-size="10.00">shared_ptr&lt; UBlasMatrix</text>
<text text-anchor="middle" x="2922" y="-1215" font-family="Helvetica,sans-Serif" font-size="10.00">&lt; double &gt; &gt;</text>
</a>
</g>
</g>
<!-- Node72&#45;&gt;Node2 -->
<g id="edge86" class="edge">
<title>Node72&#45;&gt;Node2</title>
<path fill="none" stroke="#9a32cd" stroke-dasharray="5,2" d="M2998.98,-1240.57C3029.13,-1248.14 3063.96,-1257.64 3095,-1268 3124.71,-1277.92 3158.02,-1292.11 3178.99,-1301.43"/>
<polygon fill="#9a32cd" stroke="#9a32cd" points="2999.49,-1237.09 2988.94,-1238.07 2997.8,-1243.88 2999.49,-1237.09"/>
<text text-anchor="middle" x="3060" y="-1271" font-family="Helvetica,sans-Serif" font-size="10.00"> baseMassPtr</text>
</g>
<!-- Node73 -->
<g id="node73" class="node">
<title>Node73</title>
<g id="a_node73"><a xlink:title=" ">
<polygon fill="white" stroke="#bfbfbf" points="2880.5,-1169.5 2880.5,-1188.5 2963.5,-1188.5 2963.5,-1169.5 2880.5,-1169.5"/>
<text text-anchor="middle" x="2922" y="-1176.5" font-family="Helvetica,sans-Serif" font-size="10.00">SeverityLevel</text>
</a>
</g>
</g>
<!-- Node73&#45;&gt;Node2 -->
<g id="edge87" class="edge">
<title>Node73&#45;&gt;Node2</title>
<path fill="none" stroke="#9a32cd" stroke-dasharray="5,2" d="M2973.82,-1189.93C2984.84,-1192.63 2996.37,-1195.7 3007,-1199 3047.04,-1211.44 3058.28,-1212.76 3095,-1233 3131.99,-1253.39 3170.66,-1285.33 3189.04,-1301.27"/>
<polygon fill="#9a32cd" stroke="#9a32cd" points="2974.43,-1186.48 2963.89,-1187.57 2972.81,-1193.29 2974.43,-1186.48"/>
<text text-anchor="middle" x="3060" y="-1236" font-family="Helvetica,sans-Serif" font-size="10.00"> severityLevel</text>
</g>
</g>
</svg>
        <g id="navigator" transform="translate(0 0)" fill="#404254">
                <rect fill="#f2f5e9" fill-opacity="0.5" stroke="#606060" stroke-width=".5" x="0" y="0" width="60" height="60"/>
                <use id="zoomplus" xlink:href="#zoomPlus" x="17" y="9" onmousedown="handleZoom(evt,'in')"/>
                <use id="zoomminus" xlink:href="#zoomMin" x="42" y="9" onmousedown="handleZoom(evt,'out')"/>
                <use id="reset" xlink:href="#resetDef" x="30" y="36" onmousedown="handleReset()"/>
                <g id="arrowUp" xlink:href="#dirArrow" transform="translate(30 24)" onmousedown="handlePan(0,-1)">
                  <use xlink:href="#rim" fill="#404040">
                        <set attributeName="fill" to="#808080" begin="arrowUp.mouseover" end="arrowUp.mouseout"/>
                  </use>
                  <path fill="none" stroke="white" stroke-width="1.5" d="M0,-3.0v7 M-2.5,-0.5L0,-3.0L2.5,-0.5"/>
                </g>
                <g id="arrowRight" xlink:href="#dirArrow" transform="rotate(90) translate(36 -43)" onmousedown="handlePan(1,0)">
                  <use xlink:href="#rim" fill="#404040">
                        <set attributeName="fill" to="#808080" begin="arrowRight.mouseover" end="arrowRight.mouseout"/>
                  </use>
                  <path fill="none" stroke="white" stroke-width="1.5" d="M0,-3.0v7 M-2.5,-0.5L0,-3.0L2.5,-0.5"/>
                </g>
                <g id="arrowDown" xlink:href="#dirArrow" transform="rotate(180) translate(-30 -48)" onmousedown="handlePan(0,1)">
                  <use xlink:href="#rim" fill="#404040">
                        <set attributeName="fill" to="#808080" begin="arrowDown.mouseover" end="arrowDown.mouseout"/>
                  </use>
                  <path fill="none" stroke="white" stroke-width="1.5" d="M0,-3.0v7 M-2.5,-0.5L0,-3.0L2.5,-0.5"/>
                </g>
                <g id="arrowLeft" xlink:href="#dirArrow" transform="rotate(270) translate(-36 17)" onmousedown="handlePan(-1,0)">
                  <use xlink:href="#rim" fill="#404040">
                        <set attributeName="fill" to="#808080" begin="arrowLeft.mouseover" end="arrowLeft.mouseout"/>
                  </use>
                  <path fill="none" stroke="white" stroke-width="1.5" d="M0,-3.0v7 M-2.5,-0.5L0,-3.0L2.5,-0.5"/>
                </g>
        </g>
        <svg viewBox="0 0 15 15" width="100%" height="30px" preserveAspectRatio="xMaxYMin meet">
         <g id="arrow_out" transform="scale(0.3 0.3)">
          <a xlink:href="structMoFEM_1_1OpDGProjectionMassMatrix__coll__graph_org.svg" target="_base">
           <rect id="button" ry="5" rx="5" y="6" x="6" height="38" width="38"
                fill="#f2f5e9" fill-opacity="0.5" stroke="#606060" stroke-width="1.0"/>
           <path id="arrow"
             d="M 11.500037,31.436501 C 11.940474,20.09759 22.043105,11.32322 32.158766,21.979434 L 37.068811,17.246167 C 37.068811,17.246167 37.088388,32 37.088388,32 L 22.160133,31.978069 C 22.160133,31.978069 26.997745,27.140456 26.997745,27.140456 C 18.528582,18.264221 13.291696,25.230495 11.500037,31.436501 z"
             style="fill:#404040;"/>
          </a>
         </g>
        </svg>
</svg>
