<?xml version="1.0" encoding="UTF-8" standalone="no"?>
<!DOCTYPE svg PUBLIC "-//W3C//DTD SVG 1.1//EN"
 "http://www.w3.org/Graphics/SVG/1.1/DTD/svg11.dtd">
<!-- Generated by graphviz version 2.43.0 (0)
 -->
<!-- Title: MoFEM::MeshsetsManager Pages: 1 -->
<svg width="4409pt" height="1659pt"
 viewBox="0.00 0.00 4409.00 1658.73" xmlns="http://www.w3.org/2000/svg" xmlns:xlink="http://www.w3.org/1999/xlink">
<g id="graph0" class="graph" transform="scale(1 1) rotate(0) translate(4 1654.73)">
<title>MoFEM::MeshsetsManager</title>
<polygon fill="white" stroke="transparent" points="-4,4 -4,-1654.73 4405,-1654.73 4405,4 -4,4"/>
<!-- Node1 -->
<g id="node1" class="node">
<title>Node1</title>
<g id="a_node1"><a xlink:title="Interface for managing meshsets containing materials and boundary conditions.">
<polygon fill="#bfbfbf" stroke="black" points="4253,-1301.23 4253,-1320.23 4401,-1320.23 4401,-1301.23 4253,-1301.23"/>
<text text-anchor="middle" x="4327" y="-1308.23" font-family="Helvetica,sans-Serif" font-size="10.00">MoFEM::MeshsetsManager</text>
</a>
</g>
</g>
<!-- Node2 -->
<g id="node2" class="node">
<title>Node2</title>
<g id="a_node2"><a xlink:href="structMoFEM_1_1UnknownInterface.html" target="_top" xlink:title="base class for all interface classes">
<polygon fill="white" stroke="black" points="2324.5,-1463.23 2324.5,-1482.23 2472.5,-1482.23 2472.5,-1463.23 2324.5,-1463.23"/>
<text text-anchor="middle" x="2398.5" y="-1470.23" font-family="Helvetica,sans-Serif" font-size="10.00">MoFEM::UnknownInterface</text>
</a>
</g>
</g>
<!-- Node2&#45;&gt;Node1 -->
<g id="edge1" class="edge">
<title>Node2&#45;&gt;Node1</title>
<path fill="none" stroke="midnightblue" d="M2482.69,-1472.73C2620.93,-1472.73 2906.67,-1472.73 3148.5,-1472.73 3148.5,-1472.73 3148.5,-1472.73 4046.5,-1472.73 4134.69,-1472.73 4161,-1458.71 4235,-1410.73 4273.61,-1385.71 4306.44,-1340.39 4319.71,-1320.52"/>
<polygon fill="midnightblue" stroke="midnightblue" points="2482.59,-1469.23 2472.59,-1472.73 2482.59,-1476.23 2482.59,-1469.23"/>
</g>
<!-- Node11 -->
<g id="node11" class="node">
<title>Node11</title>
<g id="a_node11"><a xlink:href="structMoFEM_1_1CoreInterface.html" target="_top" xlink:title="Interface.">
<polygon fill="white" stroke="black" points="3087,-1162.23 3087,-1181.23 3212,-1181.23 3212,-1162.23 3087,-1162.23"/>
<text text-anchor="middle" x="3149.5" y="-1169.23" font-family="Helvetica,sans-Serif" font-size="10.00">MoFEM::CoreInterface</text>
</a>
</g>
</g>
<!-- Node2&#45;&gt;Node11 -->
<g id="edge12" class="edge">
<title>Node2&#45;&gt;Node11</title>
<path fill="none" stroke="midnightblue" d="M2405.26,-1453.39C2419.62,-1408.9 2461.55,-1299.33 2539,-1249.73 2712.17,-1138.85 2970.1,-1150.73 3086.98,-1163.36"/>
<polygon fill="midnightblue" stroke="midnightblue" points="2401.9,-1452.41 2402.27,-1463 2408.58,-1454.5 2401.9,-1452.41"/>
</g>
<!-- Node3 -->
<g id="node3" class="node">
<title>Node3</title>
<g id="a_node3"><a xlink:title=" ">
<polygon fill="white" stroke="#bfbfbf" points="1072,-1549.23 1072,-1612.23 1313,-1612.23 1313,-1549.23 1072,-1549.23"/>
<text text-anchor="start" x="1080" y="-1600.23" font-family="Helvetica,sans-Serif" font-size="10.00">multi_index_container</text>
<text text-anchor="start" x="1080" y="-1589.23" font-family="Helvetica,sans-Serif" font-size="10.00">&lt; UIdTypeMap, indexed</text>
<text text-anchor="start" x="1080" y="-1578.23" font-family="Helvetica,sans-Serif" font-size="10.00">_by&lt; hashed_unique&lt; member</text>
<text text-anchor="start" x="1080" y="-1567.23" font-family="Helvetica,sans-Serif" font-size="10.00">&lt; UIdTypeMap, boost::typeindex</text>
<text text-anchor="middle" x="1192.5" y="-1556.23" font-family="Helvetica,sans-Serif" font-size="10.00">::type_index, &amp;UIdTypeMap::classIdx &gt; &gt; &gt; &gt;</text>
</a>
</g>
</g>
<!-- Node3&#45;&gt;Node2 -->
<g id="edge2" class="edge">
<title>Node3&#45;&gt;Node2</title>
<path fill="none" stroke="#9a32cd" stroke-dasharray="5,2" d="M1323.4,-1569.08C1575.95,-1546.43 2125.79,-1497.11 2324.23,-1479.31"/>
<polygon fill="#9a32cd" stroke="#9a32cd" points="1322.72,-1565.63 1313.07,-1570.01 1323.34,-1572.6 1322.72,-1565.63"/>
<text text-anchor="middle" x="1857.5" y="-1556.73" font-family="Helvetica,sans-Serif" font-size="10.00"> iFaceTypeMap</text>
</g>
<!-- Node4 -->
<g id="node4" class="node">
<title>Node4</title>
<g id="a_node4"><a xlink:title=" ">
<polygon fill="white" stroke="#bfbfbf" points="0,-773.23 0,-792.23 125,-792.23 125,-773.23 0,-773.23"/>
<text text-anchor="middle" x="62.5" y="-780.23" font-family="Helvetica,sans-Serif" font-size="10.00">multi_index_container</text>
</a>
</g>
</g>
<!-- Node4&#45;&gt;Node3 -->
<g id="edge3" class="edge">
<title>Node4&#45;&gt;Node3</title>
<path fill="none" stroke="orange" stroke-dasharray="5,2" d="M63.25,-802.58C62.5,-895.23 64.16,-1284.25 143,-1368.73 385.65,-1628.74 851.99,-1618.38 1071.57,-1596.66"/>
<polygon fill="orange" stroke="orange" points="66.75,-802.61 63.35,-792.58 59.75,-802.54 66.75,-802.61"/>
<text text-anchor="start" x="423" y="-1642.73" font-family="Helvetica,sans-Serif" font-size="10.00"> &lt; UIdTypeMap, indexed</text>
<text text-anchor="start" x="423" y="-1631.73" font-family="Helvetica,sans-Serif" font-size="10.00">_by&lt; hashed_unique&lt; member</text>
<text text-anchor="start" x="423" y="-1620.73" font-family="Helvetica,sans-Serif" font-size="10.00">&lt; UIdTypeMap, boost::typeindex</text>
<text text-anchor="middle" x="535.5" y="-1609.73" font-family="Helvetica,sans-Serif" font-size="10.00">::type_index, &amp;UIdTypeMap::classIdx &gt; &gt; &gt; &gt;</text>
</g>
<!-- Node5 -->
<g id="node5" class="node">
<title>Node5</title>
<g id="a_node5"><a xlink:title=" ">
<polygon fill="white" stroke="#bfbfbf" points="2539,-1259.23 2539,-1454.23 3048,-1454.23 3048,-1259.23 2539,-1259.23"/>
<text text-anchor="start" x="2547" y="-1442.23" font-family="Helvetica,sans-Serif" font-size="10.00">multi_index_container</text>
<text text-anchor="start" x="2547" y="-1431.23" font-family="Helvetica,sans-Serif" font-size="10.00">&lt; CubitMeshSets, indexed</text>
<text text-anchor="start" x="2547" y="-1420.23" font-family="Helvetica,sans-Serif" font-size="10.00">_by&lt; hashed_unique&lt; tag</text>
<text text-anchor="start" x="2547" y="-1409.23" font-family="Helvetica,sans-Serif" font-size="10.00">&lt; Meshset_mi_tag &gt;, member</text>
<text text-anchor="start" x="2547" y="-1398.23" font-family="Helvetica,sans-Serif" font-size="10.00">&lt; CubitMeshSets, EntityHandle,</text>
<text text-anchor="start" x="2547" y="-1387.23" font-family="Helvetica,sans-Serif" font-size="10.00"> &amp;CubitMeshSets::meshset &gt; &gt;,</text>
<text text-anchor="start" x="2547" y="-1376.23" font-family="Helvetica,sans-Serif" font-size="10.00"> ordered_non_unique&lt; tag&lt; CubitMeshsetType</text>
<text text-anchor="start" x="2547" y="-1365.23" font-family="Helvetica,sans-Serif" font-size="10.00">_mi_tag &gt;, const_mem_fun&lt; CubitMeshSets,</text>
<text text-anchor="start" x="2547" y="-1354.23" font-family="Helvetica,sans-Serif" font-size="10.00"> unsigned long int, &amp;CubitMeshSets::getBcTypeULong</text>
<text text-anchor="start" x="2547" y="-1343.23" font-family="Helvetica,sans-Serif" font-size="10.00"> &gt; &gt;, ordered_non_unique&lt; tag&lt; CubitMeshsetMaskedType</text>
<text text-anchor="start" x="2547" y="-1332.23" font-family="Helvetica,sans-Serif" font-size="10.00">_mi_tag &gt;, const_mem_fun&lt; CubitMeshSets, unsigned long</text>
<text text-anchor="start" x="2547" y="-1321.23" font-family="Helvetica,sans-Serif" font-size="10.00"> int, &amp;CubitMeshSets::getMaskedBcTypeULong &gt; &gt;, ordered</text>
<text text-anchor="start" x="2547" y="-1310.23" font-family="Helvetica,sans-Serif" font-size="10.00">_non_unique&lt; tag&lt; CubitMeshsets_name &gt;, const_mem_fun&lt; CubitMeshSets,</text>
<text text-anchor="start" x="2547" y="-1299.23" font-family="Helvetica,sans-Serif" font-size="10.00"> std::string, &amp;CubitMeshSets::getName &gt; &gt;, hashed_unique&lt; tag&lt;</text>
<text text-anchor="start" x="2547" y="-1288.23" font-family="Helvetica,sans-Serif" font-size="10.00"> Composite_Cubit_msId_And_MeshsetType_mi_tag &gt;, composite_key&lt; CubitMeshSets,</text>
<text text-anchor="start" x="2547" y="-1277.23" font-family="Helvetica,sans-Serif" font-size="10.00"> const_mem_fun&lt; CubitMeshSets, int, &amp;CubitMeshSets::getMeshsetId &gt;, const</text>
<text text-anchor="middle" x="2793.5" y="-1266.23" font-family="Helvetica,sans-Serif" font-size="10.00">_mem_fun&lt; CubitMeshSets, unsigned long int, &amp;CubitMeshSets::getMaskedBcTypeULong &gt; &gt; &gt; &gt; &gt;</text>
</a>
</g>
</g>
<!-- Node4&#45;&gt;Node5 -->
<g id="edge5" class="edge">
<title>Node4&#45;&gt;Node5</title>
<path fill="none" stroke="orange" stroke-dasharray="5,2" d="M63.13,-802.71C61.9,-892.69 62.02,-1258.95 143,-1329.73 187.71,-1368.81 1884.75,-1362.41 2538.94,-1358.48"/>
<polygon fill="orange" stroke="orange" points="66.63,-802.58 63.29,-792.52 59.63,-802.47 66.63,-802.58"/>
<text text-anchor="start" x="946" y="-1528.73" font-family="Helvetica,sans-Serif" font-size="10.00"> &lt; CubitMeshSets, indexed</text>
<text text-anchor="start" x="946" y="-1517.73" font-family="Helvetica,sans-Serif" font-size="10.00">_by&lt; hashed_unique&lt; tag</text>
<text text-anchor="start" x="946" y="-1506.73" font-family="Helvetica,sans-Serif" font-size="10.00">&lt; Meshset_mi_tag &gt;, member</text>
<text text-anchor="start" x="946" y="-1495.73" font-family="Helvetica,sans-Serif" font-size="10.00">&lt; CubitMeshSets, EntityHandle,</text>
<text text-anchor="start" x="946" y="-1484.73" font-family="Helvetica,sans-Serif" font-size="10.00"> &amp;CubitMeshSets::meshset &gt; &gt;,</text>
<text text-anchor="start" x="946" y="-1473.73" font-family="Helvetica,sans-Serif" font-size="10.00"> ordered_non_unique&lt; tag&lt; CubitMeshsetType</text>
<text text-anchor="start" x="946" y="-1462.73" font-family="Helvetica,sans-Serif" font-size="10.00">_mi_tag &gt;, const_mem_fun&lt; CubitMeshSets,</text>
<text text-anchor="start" x="946" y="-1451.73" font-family="Helvetica,sans-Serif" font-size="10.00"> unsigned long int, &amp;CubitMeshSets::getBcTypeULong</text>
<text text-anchor="start" x="946" y="-1440.73" font-family="Helvetica,sans-Serif" font-size="10.00"> &gt; &gt;, ordered_non_unique&lt; tag&lt; CubitMeshsetMaskedType</text>
<text text-anchor="start" x="946" y="-1429.73" font-family="Helvetica,sans-Serif" font-size="10.00">_mi_tag &gt;, const_mem_fun&lt; CubitMeshSets, unsigned long</text>
<text text-anchor="start" x="946" y="-1418.73" font-family="Helvetica,sans-Serif" font-size="10.00"> int, &amp;CubitMeshSets::getMaskedBcTypeULong &gt; &gt;, ordered</text>
<text text-anchor="start" x="946" y="-1407.73" font-family="Helvetica,sans-Serif" font-size="10.00">_non_unique&lt; tag&lt; CubitMeshsets_name &gt;, const_mem_fun&lt; CubitMeshSets,</text>
<text text-anchor="start" x="946" y="-1396.73" font-family="Helvetica,sans-Serif" font-size="10.00"> std::string, &amp;CubitMeshSets::getName &gt; &gt;, hashed_unique&lt; tag&lt;</text>
<text text-anchor="start" x="946" y="-1385.73" font-family="Helvetica,sans-Serif" font-size="10.00"> Composite_Cubit_msId_And_MeshsetType_mi_tag &gt;, composite_key&lt; CubitMeshSets,</text>
<text text-anchor="start" x="946" y="-1374.73" font-family="Helvetica,sans-Serif" font-size="10.00"> const_mem_fun&lt; CubitMeshSets, int, &amp;CubitMeshSets::getMeshsetId &gt;, const</text>
<text text-anchor="middle" x="1192.5" y="-1363.73" font-family="Helvetica,sans-Serif" font-size="10.00">_mem_fun&lt; CubitMeshSets, unsigned long int, &amp;CubitMeshSets::getMaskedBcTypeULong &gt; &gt; &gt; &gt; &gt;</text>
</g>
<!-- Node12 -->
<g id="node12" class="node">
<title>Node12</title>
<g id="a_node12"><a xlink:title=" ">
<polygon fill="white" stroke="#bfbfbf" points="1457,-1144.23 1457,-1339.23 2258,-1339.23 2258,-1144.23 1457,-1144.23"/>
<text text-anchor="start" x="1465" y="-1327.23" font-family="Helvetica,sans-Serif" font-size="10.00">multi_index_container</text>
<text text-anchor="start" x="1465" y="-1316.23" font-family="Helvetica,sans-Serif" font-size="10.00">&lt; FieldEntityEntFiniteElement</text>
<text text-anchor="start" x="1465" y="-1305.23" font-family="Helvetica,sans-Serif" font-size="10.00">AdjacencyMap, indexed_by&lt;</text>
<text text-anchor="start" x="1465" y="-1294.23" font-family="Helvetica,sans-Serif" font-size="10.00"> ordered_unique&lt; tag&lt; Composite</text>
<text text-anchor="start" x="1465" y="-1283.23" font-family="Helvetica,sans-Serif" font-size="10.00">_Unique_mi_tag &gt;, composite_key</text>
<text text-anchor="start" x="1465" y="-1272.23" font-family="Helvetica,sans-Serif" font-size="10.00">&lt; FieldEntityEntFiniteElementAdjacencyMap,</text>
<text text-anchor="start" x="1465" y="-1261.23" font-family="Helvetica,sans-Serif" font-size="10.00"> const_mem_fun&lt; FieldEntityEntFiniteElementAdjacency</text>
<text text-anchor="start" x="1465" y="-1250.23" font-family="Helvetica,sans-Serif" font-size="10.00">Map, UId, &amp;FieldEntityEntFiniteElementAdjacencyMap</text>
<text text-anchor="start" x="1465" y="-1239.23" font-family="Helvetica,sans-Serif" font-size="10.00">::getEntUniqueId &gt;, const_mem_fun&lt; FieldEntityEntFiniteElementAdjacency</text>
<text text-anchor="start" x="1465" y="-1228.23" font-family="Helvetica,sans-Serif" font-size="10.00">Map, UId, &amp;FieldEntityEntFiniteElementAdjacencyMap::getFeUniqueId</text>
<text text-anchor="start" x="1465" y="-1217.23" font-family="Helvetica,sans-Serif" font-size="10.00"> &gt; &gt; &gt;, ordered_non_unique&lt; tag&lt; Unique_mi_tag &gt;, const_mem_fun</text>
<text text-anchor="start" x="1465" y="-1206.23" font-family="Helvetica,sans-Serif" font-size="10.00">&lt; FieldEntityEntFiniteElementAdjacencyMap, UId, &amp;FieldEntityEntFiniteElementAdjacencyMap</text>
<text text-anchor="start" x="1465" y="-1195.23" font-family="Helvetica,sans-Serif" font-size="10.00">::getEntUniqueId &gt; &gt;, ordered_non_unique&lt; tag&lt; FE_Unique_mi_tag &gt;, const_mem_fun</text>
<text text-anchor="start" x="1465" y="-1184.23" font-family="Helvetica,sans-Serif" font-size="10.00">&lt; FieldEntityEntFiniteElementAdjacencyMap, UId, &amp;FieldEntityEntFiniteElementAdjacencyMap</text>
<text text-anchor="start" x="1465" y="-1173.23" font-family="Helvetica,sans-Serif" font-size="10.00">::getFeUniqueId &gt; &gt;, ordered_non_unique&lt; tag&lt; FEEnt_mi_tag &gt;, const_mem_fun&lt; FieldEntityEntFiniteElementAdjacency</text>
<text text-anchor="start" x="1465" y="-1162.23" font-family="Helvetica,sans-Serif" font-size="10.00">Map, EntityHandle, &amp;FieldEntityEntFiniteElementAdjacencyMap::getFeHandle &gt; &gt;, ordered_non_unique&lt; tag</text>
<text text-anchor="middle" x="1857.5" y="-1151.23" font-family="Helvetica,sans-Serif" font-size="10.00">&lt; Ent_mi_tag &gt;, const_mem_fun&lt; FieldEntityEntFiniteElementAdjacencyMap, EntityHandle, &amp;FieldEntityEntFiniteElementAdjacencyMap::getEntHandle &gt; &gt; &gt; &gt;</text>
</a>
</g>
</g>
<!-- Node4&#45;&gt;Node12 -->
<g id="edge14" class="edge">
<title>Node4&#45;&gt;Node12</title>
<path fill="none" stroke="orange" stroke-dasharray="5,2" d="M64.36,-802.53C67.39,-845.76 81.08,-948.71 143,-998.73 243.52,-1079.94 982.72,-1161.74 1456.83,-1206.66"/>
<polygon fill="orange" stroke="orange" points="67.85,-802.23 63.78,-792.45 60.86,-802.64 67.85,-802.23"/>
<text text-anchor="start" x="143" y="-1317.73" font-family="Helvetica,sans-Serif" font-size="10.00"> &lt; FieldEntityEntFiniteElement</text>
<text text-anchor="start" x="143" y="-1306.73" font-family="Helvetica,sans-Serif" font-size="10.00">AdjacencyMap, indexed_by</text>
<text text-anchor="start" x="143" y="-1295.73" font-family="Helvetica,sans-Serif" font-size="10.00">&lt; ordered_unique&lt; tag&lt; Composite</text>
<text text-anchor="start" x="143" y="-1284.73" font-family="Helvetica,sans-Serif" font-size="10.00">_Unique_mi_tag &gt;, composite_key</text>
<text text-anchor="start" x="143" y="-1273.73" font-family="Helvetica,sans-Serif" font-size="10.00">&lt; FieldEntityEntFiniteElementAdjacencyMap,</text>
<text text-anchor="start" x="143" y="-1262.73" font-family="Helvetica,sans-Serif" font-size="10.00"> const_mem_fun&lt; FieldEntityEntFiniteElementAdjacency</text>
<text text-anchor="start" x="143" y="-1251.73" font-family="Helvetica,sans-Serif" font-size="10.00">Map, UId, &amp;FieldEntityEntFiniteElementAdjacencyMap</text>
<text text-anchor="start" x="143" y="-1240.73" font-family="Helvetica,sans-Serif" font-size="10.00">::getEntUniqueId &gt;, const_mem_fun&lt; FieldEntityEntFiniteElementAdjacency</text>
<text text-anchor="start" x="143" y="-1229.73" font-family="Helvetica,sans-Serif" font-size="10.00">Map, UId, &amp;FieldEntityEntFiniteElementAdjacencyMap::getFeUniqueId</text>
<text text-anchor="start" x="143" y="-1218.73" font-family="Helvetica,sans-Serif" font-size="10.00"> &gt; &gt; &gt;, ordered_non_unique&lt; tag&lt; Unique_mi_tag &gt;, const_mem_fun</text>
<text text-anchor="start" x="143" y="-1207.73" font-family="Helvetica,sans-Serif" font-size="10.00">&lt; FieldEntityEntFiniteElementAdjacencyMap, UId, &amp;FieldEntityEntFiniteElementAdjacencyMap</text>
<text text-anchor="start" x="143" y="-1196.73" font-family="Helvetica,sans-Serif" font-size="10.00">::getEntUniqueId &gt; &gt;, ordered_non_unique&lt; tag&lt; FE_Unique_mi_tag &gt;, const_mem_fun</text>
<text text-anchor="start" x="143" y="-1185.73" font-family="Helvetica,sans-Serif" font-size="10.00">&lt; FieldEntityEntFiniteElementAdjacencyMap, UId, &amp;FieldEntityEntFiniteElementAdjacencyMap</text>
<text text-anchor="start" x="143" y="-1174.73" font-family="Helvetica,sans-Serif" font-size="10.00">::getFeUniqueId &gt; &gt;, ordered_non_unique&lt; tag&lt; FEEnt_mi_tag &gt;, const_mem_fun&lt; FieldEntityEntFiniteElementAdjacency</text>
<text text-anchor="start" x="143" y="-1163.73" font-family="Helvetica,sans-Serif" font-size="10.00">Map, EntityHandle, &amp;FieldEntityEntFiniteElementAdjacencyMap::getFeHandle &gt; &gt;, ordered_non_unique&lt; tag</text>
<text text-anchor="middle" x="535.5" y="-1152.73" font-family="Helvetica,sans-Serif" font-size="10.00">&lt; Ent_mi_tag &gt;, const_mem_fun&lt; FieldEntityEntFiniteElementAdjacencyMap, EntityHandle, &amp;FieldEntityEntFiniteElementAdjacencyMap::getEntHandle &gt; &gt; &gt; &gt;</text>
</g>
<!-- Node14 -->
<g id="node14" class="node">
<title>Node14</title>
<g id="a_node14"><a xlink:title=" ">
<polygon fill="white" stroke="#bfbfbf" points="3251,-890.73 3251,-1052.73 3537,-1052.73 3537,-890.73 3251,-890.73"/>
<text text-anchor="start" x="3259" y="-1040.73" font-family="Helvetica,sans-Serif" font-size="10.00">multi_index_container</text>
<text text-anchor="start" x="3259" y="-1029.73" font-family="Helvetica,sans-Serif" font-size="10.00">&lt; boost::shared_ptr&lt;</text>
<text text-anchor="start" x="3259" y="-1018.73" font-family="Helvetica,sans-Serif" font-size="10.00"> Field &gt;, indexed_by&lt;</text>
<text text-anchor="start" x="3259" y="-1007.73" font-family="Helvetica,sans-Serif" font-size="10.00"> hashed_unique&lt; tag&lt; BitFieldId</text>
<text text-anchor="start" x="3259" y="-996.73" font-family="Helvetica,sans-Serif" font-size="10.00">_mi_tag &gt;, const_mem_fun&lt; Field,</text>
<text text-anchor="start" x="3259" y="-985.73" font-family="Helvetica,sans-Serif" font-size="10.00"> const BitFieldId &amp;, &amp;Field::getId</text>
<text text-anchor="start" x="3259" y="-974.73" font-family="Helvetica,sans-Serif" font-size="10.00"> &gt;, HashBit&lt; BitFieldId &gt;, EqBit&lt;</text>
<text text-anchor="start" x="3259" y="-963.73" font-family="Helvetica,sans-Serif" font-size="10.00"> BitFieldId &gt; &gt;, ordered_unique&lt; tag</text>
<text text-anchor="start" x="3259" y="-952.73" font-family="Helvetica,sans-Serif" font-size="10.00">&lt; Meshset_mi_tag &gt;, member&lt; Field, EntityHandle,</text>
<text text-anchor="start" x="3259" y="-941.73" font-family="Helvetica,sans-Serif" font-size="10.00"> &amp;Field::meshSet &gt; &gt;, ordered_unique&lt; tag&lt;</text>
<text text-anchor="start" x="3259" y="-930.73" font-family="Helvetica,sans-Serif" font-size="10.00"> FieldName_mi_tag &gt;, const_mem_fun&lt; Field, boost</text>
<text text-anchor="start" x="3259" y="-919.73" font-family="Helvetica,sans-Serif" font-size="10.00">::string_ref, &amp;Field::getNameRef &gt; &gt;, ordered_non</text>
<text text-anchor="start" x="3259" y="-908.73" font-family="Helvetica,sans-Serif" font-size="10.00">_unique&lt; tag&lt; BitFieldId_space_mi_tag &gt;, const_mem</text>
<text text-anchor="middle" x="3394" y="-897.73" font-family="Helvetica,sans-Serif" font-size="10.00">_fun&lt; Field, FieldSpace, &amp;Field::getSpace &gt; &gt; &gt; &gt;</text>
</a>
</g>
</g>
<!-- Node4&#45;&gt;Node14 -->
<g id="edge17" class="edge">
<title>Node4&#45;&gt;Node14</title>
<path fill="none" stroke="orange" stroke-dasharray="5,2" d="M65.05,-802.42C69.37,-842.27 85.33,-931.95 143,-970.73 191.34,-1003.24 1133.24,-984.73 1191.5,-984.73 1191.5,-984.73 1191.5,-984.73 2794.5,-984.73 2950.66,-984.73 3129.68,-980.26 3250.93,-976.56"/>
<polygon fill="orange" stroke="orange" points="68.53,-802.01 64.1,-792.38 61.56,-802.67 68.53,-802.01"/>
<text text-anchor="start" x="1725" y="-1130.73" font-family="Helvetica,sans-Serif" font-size="10.00"> &lt; boost::shared_ptr</text>
<text text-anchor="start" x="1725" y="-1119.73" font-family="Helvetica,sans-Serif" font-size="10.00">&lt; Field &gt;, indexed_by</text>
<text text-anchor="start" x="1725" y="-1108.73" font-family="Helvetica,sans-Serif" font-size="10.00">&lt; hashed_unique&lt; tag&lt;</text>
<text text-anchor="start" x="1725" y="-1097.73" font-family="Helvetica,sans-Serif" font-size="10.00"> BitFieldId_mi_tag &gt;, const</text>
<text text-anchor="start" x="1725" y="-1086.73" font-family="Helvetica,sans-Serif" font-size="10.00">_mem_fun&lt; Field, const BitFieldId</text>
<text text-anchor="start" x="1725" y="-1075.73" font-family="Helvetica,sans-Serif" font-size="10.00"> &amp;, &amp;Field::getId &gt;, HashBit&lt; BitFieldId</text>
<text text-anchor="start" x="1725" y="-1064.73" font-family="Helvetica,sans-Serif" font-size="10.00"> &gt;, EqBit&lt; BitFieldId &gt; &gt;, ordered_unique</text>
<text text-anchor="start" x="1725" y="-1053.73" font-family="Helvetica,sans-Serif" font-size="10.00">&lt; tag&lt; Meshset_mi_tag &gt;, member&lt; Field,</text>
<text text-anchor="start" x="1725" y="-1042.73" font-family="Helvetica,sans-Serif" font-size="10.00"> EntityHandle, &amp;Field::meshSet &gt; &gt;, ordered</text>
<text text-anchor="start" x="1725" y="-1031.73" font-family="Helvetica,sans-Serif" font-size="10.00">_unique&lt; tag&lt; FieldName_mi_tag &gt;, const_mem</text>
<text text-anchor="start" x="1725" y="-1020.73" font-family="Helvetica,sans-Serif" font-size="10.00">_fun&lt; Field, boost::string_ref, &amp;Field::getNameRef</text>
<text text-anchor="start" x="1725" y="-1009.73" font-family="Helvetica,sans-Serif" font-size="10.00"> &gt; &gt;, ordered_non_unique&lt; tag&lt; BitFieldId_space</text>
<text text-anchor="start" x="1725" y="-998.73" font-family="Helvetica,sans-Serif" font-size="10.00">_mi_tag &gt;, const_mem_fun&lt; Field, FieldSpace, &amp;Field</text>
<text text-anchor="middle" x="1857.5" y="-987.73" font-family="Helvetica,sans-Serif" font-size="10.00">::getSpace &gt; &gt; &gt; &gt;</text>
</g>
<!-- Node15 -->
<g id="node15" class="node">
<title>Node15</title>
<g id="a_node15"><a xlink:title=" ">
<polygon fill="white" stroke="#bfbfbf" points="1726,-798.73 1726,-960.73 1989,-960.73 1989,-798.73 1726,-798.73"/>
<text text-anchor="start" x="1734" y="-948.73" font-family="Helvetica,sans-Serif" font-size="10.00">multi_index_container</text>
<text text-anchor="start" x="1734" y="-937.73" font-family="Helvetica,sans-Serif" font-size="10.00">&lt; boost::shared_ptr&lt;</text>
<text text-anchor="start" x="1734" y="-926.73" font-family="Helvetica,sans-Serif" font-size="10.00"> FiniteElement &gt;, indexed</text>
<text text-anchor="start" x="1734" y="-915.73" font-family="Helvetica,sans-Serif" font-size="10.00">_by&lt; hashed_unique&lt; tag&lt;</text>
<text text-anchor="start" x="1734" y="-904.73" font-family="Helvetica,sans-Serif" font-size="10.00"> FiniteElement_Meshset_mi</text>
<text text-anchor="start" x="1734" y="-893.73" font-family="Helvetica,sans-Serif" font-size="10.00">_tag &gt;, member&lt; FiniteElement,</text>
<text text-anchor="start" x="1734" y="-882.73" font-family="Helvetica,sans-Serif" font-size="10.00"> EntityHandle, &amp;FiniteElement</text>
<text text-anchor="start" x="1734" y="-871.73" font-family="Helvetica,sans-Serif" font-size="10.00">::meshset &gt; &gt;, hashed_unique&lt;</text>
<text text-anchor="start" x="1734" y="-860.73" font-family="Helvetica,sans-Serif" font-size="10.00"> tag&lt; BitFEId_mi_tag &gt;, const_mem</text>
<text text-anchor="start" x="1734" y="-849.73" font-family="Helvetica,sans-Serif" font-size="10.00">_fun&lt; FiniteElement, BitFEId, &amp;FiniteElement</text>
<text text-anchor="start" x="1734" y="-838.73" font-family="Helvetica,sans-Serif" font-size="10.00">::getId &gt;, HashBit&lt; BitFEId &gt;, EqBit&lt; BitFEId</text>
<text text-anchor="start" x="1734" y="-827.73" font-family="Helvetica,sans-Serif" font-size="10.00"> &gt; &gt;, ordered_unique&lt; tag&lt; FiniteElement_name</text>
<text text-anchor="start" x="1734" y="-816.73" font-family="Helvetica,sans-Serif" font-size="10.00">_mi_tag &gt;, const_mem_fun&lt; FiniteElement, boost</text>
<text text-anchor="middle" x="1857.5" y="-805.73" font-family="Helvetica,sans-Serif" font-size="10.00">::string_ref, &amp;FiniteElement::getNameRef &gt; &gt; &gt; &gt;</text>
</a>
</g>
</g>
<!-- Node4&#45;&gt;Node15 -->
<g id="edge19" class="edge">
<title>Node4&#45;&gt;Node15</title>
<path fill="none" stroke="orange" stroke-dasharray="5,2" d="M121.96,-793.95C129.03,-795.04 136.17,-796 143,-796.73 186.4,-801.39 894.46,-799.8 928,-827.73 956,-851.06 917.54,-884.97 946,-907.73 1117.1,-1044.61 1220.01,-915.07 1439,-907.73 1535.2,-904.51 1643.66,-897.12 1725.92,-890.75"/>
<polygon fill="orange" stroke="orange" points="122.13,-790.43 111.7,-792.3 121.01,-797.34 122.13,-790.43"/>
<text text-anchor="start" x="412" y="-962.73" font-family="Helvetica,sans-Serif" font-size="10.00"> &lt; boost::shared_ptr</text>
<text text-anchor="start" x="412" y="-951.73" font-family="Helvetica,sans-Serif" font-size="10.00">&lt; FiniteElement &gt;, indexed</text>
<text text-anchor="start" x="412" y="-940.73" font-family="Helvetica,sans-Serif" font-size="10.00">_by&lt; hashed_unique&lt; tag</text>
<text text-anchor="start" x="412" y="-929.73" font-family="Helvetica,sans-Serif" font-size="10.00">&lt; FiniteElement_Meshset_mi</text>
<text text-anchor="start" x="412" y="-918.73" font-family="Helvetica,sans-Serif" font-size="10.00">_tag &gt;, member&lt; FiniteElement,</text>
<text text-anchor="start" x="412" y="-907.73" font-family="Helvetica,sans-Serif" font-size="10.00"> EntityHandle, &amp;FiniteElement</text>
<text text-anchor="start" x="412" y="-896.73" font-family="Helvetica,sans-Serif" font-size="10.00">::meshset &gt; &gt;, hashed_unique&lt;</text>
<text text-anchor="start" x="412" y="-885.73" font-family="Helvetica,sans-Serif" font-size="10.00"> tag&lt; BitFEId_mi_tag &gt;, const_mem</text>
<text text-anchor="start" x="412" y="-874.73" font-family="Helvetica,sans-Serif" font-size="10.00">_fun&lt; FiniteElement, BitFEId, &amp;FiniteElement</text>
<text text-anchor="start" x="412" y="-863.73" font-family="Helvetica,sans-Serif" font-size="10.00">::getId &gt;, HashBit&lt; BitFEId &gt;, EqBit&lt; BitFEId</text>
<text text-anchor="start" x="412" y="-852.73" font-family="Helvetica,sans-Serif" font-size="10.00"> &gt; &gt;, ordered_unique&lt; tag&lt; FiniteElement_name</text>
<text text-anchor="start" x="412" y="-841.73" font-family="Helvetica,sans-Serif" font-size="10.00">_mi_tag &gt;, const_mem_fun&lt; FiniteElement, boost</text>
<text text-anchor="middle" x="535.5" y="-830.73" font-family="Helvetica,sans-Serif" font-size="10.00">::string_ref, &amp;FiniteElement::getNameRef &gt; &gt; &gt; &gt;</text>
</g>
<!-- Node16 -->
<g id="node16" class="node">
<title>Node16</title>
<g id="a_node16"><a xlink:title=" ">
<polygon fill="white" stroke="#bfbfbf" points="2276,-719.23 2276,-848.23 2521,-848.23 2521,-719.23 2276,-719.23"/>
<text text-anchor="start" x="2284" y="-836.23" font-family="Helvetica,sans-Serif" font-size="10.00">multi_index_container</text>
<text text-anchor="start" x="2284" y="-825.23" font-family="Helvetica,sans-Serif" font-size="10.00">&lt; boost::shared_ptr&lt;</text>
<text text-anchor="start" x="2284" y="-814.23" font-family="Helvetica,sans-Serif" font-size="10.00"> EntFiniteElement &gt;, indexed</text>
<text text-anchor="start" x="2284" y="-803.23" font-family="Helvetica,sans-Serif" font-size="10.00">_by&lt; ordered_unique&lt; tag&lt;</text>
<text text-anchor="start" x="2284" y="-792.23" font-family="Helvetica,sans-Serif" font-size="10.00"> Unique_mi_tag &gt;, const_mem</text>
<text text-anchor="start" x="2284" y="-781.23" font-family="Helvetica,sans-Serif" font-size="10.00">_fun&lt; EntFiniteElement, UId,</text>
<text text-anchor="start" x="2284" y="-770.23" font-family="Helvetica,sans-Serif" font-size="10.00"> &amp;EntFiniteElement::getLocalUniqueId</text>
<text text-anchor="start" x="2284" y="-759.23" font-family="Helvetica,sans-Serif" font-size="10.00"> &gt; &gt;, ordered_non_unique&lt; tag&lt; Ent</text>
<text text-anchor="start" x="2284" y="-748.23" font-family="Helvetica,sans-Serif" font-size="10.00">_mi_tag &gt;, const_mem_fun&lt; EntFiniteElement</text>
<text text-anchor="start" x="2284" y="-737.23" font-family="Helvetica,sans-Serif" font-size="10.00">::interface_type_RefEntity, EntityHandle,</text>
<text text-anchor="middle" x="2398.5" y="-726.23" font-family="Helvetica,sans-Serif" font-size="10.00"> &amp;EntFiniteElement::getEnt &gt; &gt; &gt; &gt;</text>
</a>
</g>
</g>
<!-- Node4&#45;&gt;Node16 -->
<g id="edge22" class="edge">
<title>Node4&#45;&gt;Node16</title>
<path fill="none" stroke="orange" stroke-dasharray="5,2" d="M135.48,-782.71C339.7,-782.64 940.22,-782.47 1439,-782.73 1739.78,-782.89 2093.65,-783.33 2275.7,-783.57"/>
<polygon fill="orange" stroke="orange" points="135.19,-779.21 125.19,-782.71 135.19,-786.21 135.19,-779.21"/>
<text text-anchor="start" x="1093" y="-895.73" font-family="Helvetica,sans-Serif" font-size="10.00"> &lt; boost::shared_ptr</text>
<text text-anchor="start" x="1093" y="-884.73" font-family="Helvetica,sans-Serif" font-size="10.00">&lt; EntFiniteElement &gt;</text>
<text text-anchor="start" x="1093" y="-873.73" font-family="Helvetica,sans-Serif" font-size="10.00">, indexed_by&lt; ordered</text>
<text text-anchor="start" x="1093" y="-862.73" font-family="Helvetica,sans-Serif" font-size="10.00">_unique&lt; tag&lt; Unique_mi</text>
<text text-anchor="start" x="1093" y="-851.73" font-family="Helvetica,sans-Serif" font-size="10.00">_tag &gt;, const_mem_fun&lt; EntFinite</text>
<text text-anchor="start" x="1093" y="-840.73" font-family="Helvetica,sans-Serif" font-size="10.00">Element, UId, &amp;EntFiniteElement</text>
<text text-anchor="start" x="1093" y="-829.73" font-family="Helvetica,sans-Serif" font-size="10.00">::getLocalUniqueId &gt; &gt;, ordered</text>
<text text-anchor="start" x="1093" y="-818.73" font-family="Helvetica,sans-Serif" font-size="10.00">_non_unique&lt; tag&lt; Ent_mi_tag &gt;,</text>
<text text-anchor="start" x="1093" y="-807.73" font-family="Helvetica,sans-Serif" font-size="10.00"> const_mem_fun&lt; EntFiniteElement</text>
<text text-anchor="start" x="1093" y="-796.73" font-family="Helvetica,sans-Serif" font-size="10.00">::interface_type_RefEntity, EntityHandle,</text>
<text text-anchor="middle" x="1192.5" y="-785.73" font-family="Helvetica,sans-Serif" font-size="10.00"> &amp;EntFiniteElement::getEnt &gt; &gt; &gt; &gt;</text>
</g>
<!-- Node18 -->
<g id="node18" class="node">
<title>Node18</title>
<g id="a_node18"><a xlink:title=" ">
<polygon fill="white" stroke="#bfbfbf" points="2692.5,-653.23 2692.5,-782.23 2894.5,-782.23 2894.5,-653.23 2692.5,-653.23"/>
<text text-anchor="start" x="2700.5" y="-770.23" font-family="Helvetica,sans-Serif" font-size="10.00">multi_index_container</text>
<text text-anchor="start" x="2700.5" y="-759.23" font-family="Helvetica,sans-Serif" font-size="10.00">&lt; boost::shared_ptr&lt;</text>
<text text-anchor="start" x="2700.5" y="-748.23" font-family="Helvetica,sans-Serif" font-size="10.00"> DofEntity &gt;, indexed</text>
<text text-anchor="start" x="2700.5" y="-737.23" font-family="Helvetica,sans-Serif" font-size="10.00">_by&lt; ordered_unique&lt; tag</text>
<text text-anchor="start" x="2700.5" y="-726.23" font-family="Helvetica,sans-Serif" font-size="10.00">&lt; Unique_mi_tag &gt;, const</text>
<text text-anchor="start" x="2700.5" y="-715.23" font-family="Helvetica,sans-Serif" font-size="10.00">_mem_fun&lt; DofEntity, UId,</text>
<text text-anchor="start" x="2700.5" y="-704.23" font-family="Helvetica,sans-Serif" font-size="10.00"> &amp;DofEntity::getLocalUniqueId</text>
<text text-anchor="start" x="2700.5" y="-693.23" font-family="Helvetica,sans-Serif" font-size="10.00"> &gt; &gt;, ordered_non_unique&lt; tag</text>
<text text-anchor="start" x="2700.5" y="-682.23" font-family="Helvetica,sans-Serif" font-size="10.00">&lt; Ent_mi_tag &gt;, const_mem_fun</text>
<text text-anchor="start" x="2700.5" y="-671.23" font-family="Helvetica,sans-Serif" font-size="10.00">&lt; DofEntity, EntityHandle, &amp;DofEntity</text>
<text text-anchor="middle" x="2793.5" y="-660.23" font-family="Helvetica,sans-Serif" font-size="10.00">::getEnt &gt; &gt; &gt; &gt;</text>
</a>
</g>
</g>
<!-- Node4&#45;&gt;Node18 -->
<g id="edge25" class="edge">
<title>Node4&#45;&gt;Node18</title>
<path fill="none" stroke="orange" stroke-dasharray="5,2" d="M128.09,-771.49C273.54,-746.82 638.12,-688.54 946,-668.73 1164.66,-654.67 1219.92,-664.77 1439,-668.73 1908.02,-677.22 2468.01,-702.24 2692.35,-712.87"/>
<polygon fill="orange" stroke="orange" points="127.27,-768.08 118,-773.21 128.44,-774.98 127.27,-768.08"/>
<text text-anchor="start" x="1099.5" y="-770.73" font-family="Helvetica,sans-Serif" font-size="10.00"> &lt; boost::shared_ptr</text>
<text text-anchor="start" x="1099.5" y="-759.73" font-family="Helvetica,sans-Serif" font-size="10.00">&lt; DofEntity &gt;, indexed</text>
<text text-anchor="start" x="1099.5" y="-748.73" font-family="Helvetica,sans-Serif" font-size="10.00">_by&lt; ordered_unique&lt; tag</text>
<text text-anchor="start" x="1099.5" y="-737.73" font-family="Helvetica,sans-Serif" font-size="10.00">&lt; Unique_mi_tag &gt;, const</text>
<text text-anchor="start" x="1099.5" y="-726.73" font-family="Helvetica,sans-Serif" font-size="10.00">_mem_fun&lt; DofEntity, UId,</text>
<text text-anchor="start" x="1099.5" y="-715.73" font-family="Helvetica,sans-Serif" font-size="10.00"> &amp;DofEntity::getLocalUniqueId</text>
<text text-anchor="start" x="1099.5" y="-704.73" font-family="Helvetica,sans-Serif" font-size="10.00"> &gt; &gt;, ordered_non_unique&lt; tag</text>
<text text-anchor="start" x="1099.5" y="-693.73" font-family="Helvetica,sans-Serif" font-size="10.00">&lt; Ent_mi_tag &gt;, const_mem_fun</text>
<text text-anchor="start" x="1099.5" y="-682.73" font-family="Helvetica,sans-Serif" font-size="10.00">&lt; DofEntity, EntityHandle, &amp;DofEntity</text>
<text text-anchor="middle" x="1192.5" y="-671.73" font-family="Helvetica,sans-Serif" font-size="10.00">::getEnt &gt; &gt; &gt; &gt;</text>
</g>
<!-- Node20 -->
<g id="node20" class="node">
<title>Node20</title>
<g id="a_node20"><a xlink:title=" ">
<polygon fill="white" stroke="#bfbfbf" points="3066,-582.73 3066,-678.73 3233,-678.73 3233,-582.73 3066,-582.73"/>
<text text-anchor="start" x="3074" y="-666.73" font-family="Helvetica,sans-Serif" font-size="10.00">multi_index_container</text>
<text text-anchor="start" x="3074" y="-655.73" font-family="Helvetica,sans-Serif" font-size="10.00">&lt; boost::shared_ptr&lt;</text>
<text text-anchor="start" x="3074" y="-644.73" font-family="Helvetica,sans-Serif" font-size="10.00"> RefElement &gt;, indexed</text>
<text text-anchor="start" x="3074" y="-633.73" font-family="Helvetica,sans-Serif" font-size="10.00">_by&lt; ordered_unique&lt; tag</text>
<text text-anchor="start" x="3074" y="-622.73" font-family="Helvetica,sans-Serif" font-size="10.00">&lt; Ent_mi_tag &gt;, const_mem</text>
<text text-anchor="start" x="3074" y="-611.73" font-family="Helvetica,sans-Serif" font-size="10.00">_fun&lt; RefElement::interface</text>
<text text-anchor="start" x="3074" y="-600.73" font-family="Helvetica,sans-Serif" font-size="10.00">_type_RefEntity, EntityHandle,</text>
<text text-anchor="middle" x="3149.5" y="-589.73" font-family="Helvetica,sans-Serif" font-size="10.00"> &amp;RefElement::getEnt &gt; &gt; &gt; &gt;</text>
</a>
</g>
</g>
<!-- Node4&#45;&gt;Node20 -->
<g id="edge28" class="edge">
<title>Node4&#45;&gt;Node20</title>
<path fill="none" stroke="orange" stroke-dasharray="5,2" d="M70.39,-763.5C81.19,-736.5 104.91,-688.27 143,-666.73 347.7,-550.99 2022.91,-583.19 2258,-588.73 2555.66,-595.75 2908.82,-615.94 3065.98,-625.54"/>
<polygon fill="orange" stroke="orange" points="67.05,-762.42 66.76,-773.01 73.59,-764.91 67.05,-762.42"/>
<text text-anchor="start" x="1782" y="-657.73" font-family="Helvetica,sans-Serif" font-size="10.00"> &lt; boost::shared_ptr</text>
<text text-anchor="start" x="1782" y="-646.73" font-family="Helvetica,sans-Serif" font-size="10.00">&lt; RefElement &gt;, indexed</text>
<text text-anchor="start" x="1782" y="-635.73" font-family="Helvetica,sans-Serif" font-size="10.00">_by&lt; ordered_unique&lt; tag</text>
<text text-anchor="start" x="1782" y="-624.73" font-family="Helvetica,sans-Serif" font-size="10.00">&lt; Ent_mi_tag &gt;, const_mem</text>
<text text-anchor="start" x="1782" y="-613.73" font-family="Helvetica,sans-Serif" font-size="10.00">_fun&lt; RefElement::interface</text>
<text text-anchor="start" x="1782" y="-602.73" font-family="Helvetica,sans-Serif" font-size="10.00">_type_RefEntity, EntityHandle,</text>
<text text-anchor="middle" x="1857.5" y="-591.73" font-family="Helvetica,sans-Serif" font-size="10.00"> &amp;RefElement::getEnt &gt; &gt; &gt; &gt;</text>
</g>
<!-- Node25 -->
<g id="node25" class="node">
<title>Node25</title>
<g id="a_node25"><a xlink:title=" ">
<polygon fill="white" stroke="#bfbfbf" points="3279,-398.73 3279,-516.73 3509,-516.73 3509,-398.73 3279,-398.73"/>
<text text-anchor="start" x="3287" y="-504.73" font-family="Helvetica,sans-Serif" font-size="10.00">multi_index_container</text>
<text text-anchor="start" x="3287" y="-493.73" font-family="Helvetica,sans-Serif" font-size="10.00">&lt; boost::shared_ptr&lt;</text>
<text text-anchor="start" x="3287" y="-482.73" font-family="Helvetica,sans-Serif" font-size="10.00"> FieldEntity &gt;, indexed</text>
<text text-anchor="start" x="3287" y="-471.73" font-family="Helvetica,sans-Serif" font-size="10.00">_by&lt; ordered_unique&lt; tag</text>
<text text-anchor="start" x="3287" y="-460.73" font-family="Helvetica,sans-Serif" font-size="10.00">&lt; Unique_mi_tag &gt;, member</text>
<text text-anchor="start" x="3287" y="-449.73" font-family="Helvetica,sans-Serif" font-size="10.00">&lt; FieldEntity, UId, &amp;FieldEntity</text>
<text text-anchor="start" x="3287" y="-438.73" font-family="Helvetica,sans-Serif" font-size="10.00">::localUId &gt; &gt;, ordered_non_unique</text>
<text text-anchor="start" x="3287" y="-427.73" font-family="Helvetica,sans-Serif" font-size="10.00">&lt; tag&lt; Ent_mi_tag &gt;, const_mem_fun</text>
<text text-anchor="start" x="3287" y="-416.73" font-family="Helvetica,sans-Serif" font-size="10.00">&lt; FieldEntity::interface_type_RefEntity,</text>
<text text-anchor="middle" x="3394" y="-405.73" font-family="Helvetica,sans-Serif" font-size="10.00"> EntityHandle, &amp;FieldEntity::getEnt &gt; &gt; &gt; &gt;</text>
</a>
</g>
</g>
<!-- Node4&#45;&gt;Node25 -->
<g id="edge35" class="edge">
<title>Node4&#45;&gt;Node25</title>
<path fill="none" stroke="orange" stroke-dasharray="5,2" d="M64.8,-763.1C68.67,-722.05 83.89,-627.34 143,-583.73 378.74,-409.82 1164.35,-491.03 1457,-477.73 2148.29,-446.32 2979.79,-452.5 3278.91,-456.12"/>
<polygon fill="orange" stroke="orange" points="61.3,-762.92 63.98,-773.17 68.28,-763.49 61.3,-762.92"/>
<text text-anchor="start" x="1750.5" y="-568.73" font-family="Helvetica,sans-Serif" font-size="10.00"> &lt; boost::shared_ptr</text>
<text text-anchor="start" x="1750.5" y="-557.73" font-family="Helvetica,sans-Serif" font-size="10.00">&lt; FieldEntity &gt;, indexed</text>
<text text-anchor="start" x="1750.5" y="-546.73" font-family="Helvetica,sans-Serif" font-size="10.00">_by&lt; ordered_unique&lt; tag</text>
<text text-anchor="start" x="1750.5" y="-535.73" font-family="Helvetica,sans-Serif" font-size="10.00">&lt; Unique_mi_tag &gt;, member</text>
<text text-anchor="start" x="1750.5" y="-524.73" font-family="Helvetica,sans-Serif" font-size="10.00">&lt; FieldEntity, UId, &amp;FieldEntity</text>
<text text-anchor="start" x="1750.5" y="-513.73" font-family="Helvetica,sans-Serif" font-size="10.00">::localUId &gt; &gt;, ordered_non_unique</text>
<text text-anchor="start" x="1750.5" y="-502.73" font-family="Helvetica,sans-Serif" font-size="10.00">&lt; tag&lt; Ent_mi_tag &gt;, const_mem_fun</text>
<text text-anchor="start" x="1750.5" y="-491.73" font-family="Helvetica,sans-Serif" font-size="10.00">&lt; FieldEntity::interface_type_RefEntity,</text>
<text text-anchor="middle" x="1857.5" y="-480.73" font-family="Helvetica,sans-Serif" font-size="10.00"> EntityHandle, &amp;FieldEntity::getEnt &gt; &gt; &gt; &gt;</text>
</g>
<!-- Node28 -->
<g id="node28" class="node">
<title>Node28</title>
<g id="a_node28"><a xlink:title=" ">
<polygon fill="white" stroke="#bfbfbf" points="1733,-277.73 1733,-417.73 1982,-417.73 1982,-277.73 1733,-277.73"/>
<text text-anchor="start" x="1741" y="-405.73" font-family="Helvetica,sans-Serif" font-size="10.00">multi_index_container</text>
<text text-anchor="start" x="1741" y="-394.73" font-family="Helvetica,sans-Serif" font-size="10.00">&lt; Problem, indexed_by</text>
<text text-anchor="start" x="1741" y="-383.73" font-family="Helvetica,sans-Serif" font-size="10.00">&lt; ordered_unique&lt; tag</text>
<text text-anchor="start" x="1741" y="-372.73" font-family="Helvetica,sans-Serif" font-size="10.00">&lt; Meshset_mi_tag &gt;, member</text>
<text text-anchor="start" x="1741" y="-361.73" font-family="Helvetica,sans-Serif" font-size="10.00">&lt; Problem, EntityHandle, &amp;Problem</text>
<text text-anchor="start" x="1741" y="-350.73" font-family="Helvetica,sans-Serif" font-size="10.00">::meshset &gt; &gt;, hashed_unique&lt; tag</text>
<text text-anchor="start" x="1741" y="-339.73" font-family="Helvetica,sans-Serif" font-size="10.00">&lt; BitProblemId_mi_tag &gt;, const_mem</text>
<text text-anchor="start" x="1741" y="-328.73" font-family="Helvetica,sans-Serif" font-size="10.00">_fun&lt; Problem, BitProblemId, &amp;Problem</text>
<text text-anchor="start" x="1741" y="-317.73" font-family="Helvetica,sans-Serif" font-size="10.00">::getId &gt;, HashBit&lt; BitProblemId &gt;, EqBit</text>
<text text-anchor="start" x="1741" y="-306.73" font-family="Helvetica,sans-Serif" font-size="10.00">&lt; BitProblemId &gt; &gt;, hashed_unique&lt; tag&lt;</text>
<text text-anchor="start" x="1741" y="-295.73" font-family="Helvetica,sans-Serif" font-size="10.00"> Problem_mi_tag &gt;, const_mem_fun&lt; Problem,</text>
<text text-anchor="middle" x="1857.5" y="-284.73" font-family="Helvetica,sans-Serif" font-size="10.00"> std::string, &amp;Problem::getName &gt; &gt; &gt; &gt;</text>
</a>
</g>
</g>
<!-- Node4&#45;&gt;Node28 -->
<g id="edge39" class="edge">
<title>Node4&#45;&gt;Node28</title>
<path fill="none" stroke="orange" stroke-dasharray="5,2" d="M63.93,-762.81C66.07,-684.94 78.23,-402.75 143,-348.73 173.48,-323.32 1344.23,-339.59 1732.68,-345.7"/>
<polygon fill="orange" stroke="orange" points="60.42,-763.05 63.67,-773.13 67.42,-763.22 60.42,-763.05"/>
<text text-anchor="start" x="401.5" y="-461.73" font-family="Helvetica,sans-Serif" font-size="10.00"> &lt; Problem, indexed</text>
<text text-anchor="start" x="401.5" y="-450.73" font-family="Helvetica,sans-Serif" font-size="10.00">_by&lt; ordered_unique</text>
<text text-anchor="start" x="401.5" y="-439.73" font-family="Helvetica,sans-Serif" font-size="10.00">&lt; tag&lt; Meshset_mi_tag</text>
<text text-anchor="start" x="401.5" y="-428.73" font-family="Helvetica,sans-Serif" font-size="10.00"> &gt;, member&lt; Problem, EntityHandle,</text>
<text text-anchor="start" x="401.5" y="-417.73" font-family="Helvetica,sans-Serif" font-size="10.00"> &amp;Problem::meshset &gt; &gt;, hashed</text>
<text text-anchor="start" x="401.5" y="-406.73" font-family="Helvetica,sans-Serif" font-size="10.00">_unique&lt; tag&lt; BitProblemId_mi_tag</text>
<text text-anchor="start" x="401.5" y="-395.73" font-family="Helvetica,sans-Serif" font-size="10.00"> &gt;, const_mem_fun&lt; Problem, BitProblemId,</text>
<text text-anchor="start" x="401.5" y="-384.73" font-family="Helvetica,sans-Serif" font-size="10.00"> &amp;Problem::getId &gt;, HashBit&lt; BitProblemId</text>
<text text-anchor="start" x="401.5" y="-373.73" font-family="Helvetica,sans-Serif" font-size="10.00"> &gt;, EqBit&lt; BitProblemId &gt; &gt;, hashed_unique</text>
<text text-anchor="start" x="401.5" y="-362.73" font-family="Helvetica,sans-Serif" font-size="10.00">&lt; tag&lt; Problem_mi_tag &gt;, const_mem_fun&lt; Problem,</text>
<text text-anchor="middle" x="535.5" y="-351.73" font-family="Helvetica,sans-Serif" font-size="10.00"> std::string, &amp;Problem::getName &gt; &gt; &gt; &gt;</text>
</g>
<!-- Node29 -->
<g id="node29" class="node">
<title>Node29</title>
<g id="a_node29"><a xlink:title=" ">
<polygon fill="white" stroke="#bfbfbf" points="1014.5,-60.23 1014.5,-277.23 1370.5,-277.23 1370.5,-60.23 1014.5,-60.23"/>
<text text-anchor="start" x="1022.5" y="-265.23" font-family="Helvetica,sans-Serif" font-size="10.00">multi_index_container</text>
<text text-anchor="start" x="1022.5" y="-254.23" font-family="Helvetica,sans-Serif" font-size="10.00">&lt; boost::shared_ptr&lt;</text>
<text text-anchor="start" x="1022.5" y="-243.23" font-family="Helvetica,sans-Serif" font-size="10.00"> RefEntity &gt;, indexed</text>
<text text-anchor="start" x="1022.5" y="-232.23" font-family="Helvetica,sans-Serif" font-size="10.00">_by&lt; ordered_unique&lt; tag</text>
<text text-anchor="start" x="1022.5" y="-221.23" font-family="Helvetica,sans-Serif" font-size="10.00">&lt; Ent_mi_tag &gt;, const_mem</text>
<text text-anchor="start" x="1022.5" y="-210.23" font-family="Helvetica,sans-Serif" font-size="10.00">_fun&lt; RefEntity, EntityHandle,</text>
<text text-anchor="start" x="1022.5" y="-199.23" font-family="Helvetica,sans-Serif" font-size="10.00"> &amp;RefEntity::getEnt &gt; &gt;, ordered</text>
<text text-anchor="start" x="1022.5" y="-188.23" font-family="Helvetica,sans-Serif" font-size="10.00">_non_unique&lt; tag&lt; Ent_Ent_mi_tag</text>
<text text-anchor="start" x="1022.5" y="-177.23" font-family="Helvetica,sans-Serif" font-size="10.00"> &gt;, const_mem_fun&lt; RefEntity, EntityHandle,</text>
<text text-anchor="start" x="1022.5" y="-166.23" font-family="Helvetica,sans-Serif" font-size="10.00"> &amp;RefEntity::getParentEnt &gt; &gt;, ordered</text>
<text text-anchor="start" x="1022.5" y="-155.23" font-family="Helvetica,sans-Serif" font-size="10.00">_non_unique&lt; tag&lt; Composite_EntType_and</text>
<text text-anchor="start" x="1022.5" y="-144.23" font-family="Helvetica,sans-Serif" font-size="10.00">_ParentEntType_mi_tag &gt;, composite_key&lt; RefEntity,</text>
<text text-anchor="start" x="1022.5" y="-133.23" font-family="Helvetica,sans-Serif" font-size="10.00"> const_mem_fun&lt; RefEntity, EntityType, &amp;RefEntity</text>
<text text-anchor="start" x="1022.5" y="-122.23" font-family="Helvetica,sans-Serif" font-size="10.00">::getEntType &gt;, const_mem_fun&lt; RefEntity, EntityType,</text>
<text text-anchor="start" x="1022.5" y="-111.23" font-family="Helvetica,sans-Serif" font-size="10.00"> &amp;RefEntity::getParentEntType &gt; &gt; &gt;, ordered_non_unique</text>
<text text-anchor="start" x="1022.5" y="-100.23" font-family="Helvetica,sans-Serif" font-size="10.00">&lt; tag&lt; Composite_ParentEnt_And_EntType_mi_tag &gt;, composite</text>
<text text-anchor="start" x="1022.5" y="-89.23" font-family="Helvetica,sans-Serif" font-size="10.00">_key&lt; RefEntity, const_mem_fun&lt; RefEntity, EntityType, &amp;RefEntity</text>
<text text-anchor="start" x="1022.5" y="-78.23" font-family="Helvetica,sans-Serif" font-size="10.00">::getEntType &gt;, const_mem_fun&lt; RefEntity, EntityHandle, &amp;RefEntity</text>
<text text-anchor="middle" x="1192.5" y="-67.23" font-family="Helvetica,sans-Serif" font-size="10.00">::getParentEnt &gt; &gt; &gt; &gt; &gt;</text>
</a>
</g>
</g>
<!-- Node4&#45;&gt;Node29 -->
<g id="edge41" class="edge">
<title>Node4&#45;&gt;Node29</title>
<path fill="none" stroke="orange" stroke-dasharray="5,2" d="M64.36,-763.1C69.15,-658.62 94.03,-171.12 143,-127.73 381.45,83.52 783.39,-12.97 1014.19,-95.35"/>
<polygon fill="orange" stroke="orange" points="60.86,-763.04 63.91,-773.19 67.86,-763.36 60.86,-763.04"/>
<text text-anchor="start" x="365.5" y="-317.73" font-family="Helvetica,sans-Serif" font-size="10.00"> &lt; boost::shared_ptr</text>
<text text-anchor="start" x="365.5" y="-306.73" font-family="Helvetica,sans-Serif" font-size="10.00">&lt; RefEntity &gt;, indexed</text>
<text text-anchor="start" x="365.5" y="-295.73" font-family="Helvetica,sans-Serif" font-size="10.00">_by&lt; ordered_unique&lt; tag</text>
<text text-anchor="start" x="365.5" y="-284.73" font-family="Helvetica,sans-Serif" font-size="10.00">&lt; Ent_mi_tag &gt;, const_mem</text>
<text text-anchor="start" x="365.5" y="-273.73" font-family="Helvetica,sans-Serif" font-size="10.00">_fun&lt; RefEntity, EntityHandle,</text>
<text text-anchor="start" x="365.5" y="-262.73" font-family="Helvetica,sans-Serif" font-size="10.00"> &amp;RefEntity::getEnt &gt; &gt;, ordered</text>
<text text-anchor="start" x="365.5" y="-251.73" font-family="Helvetica,sans-Serif" font-size="10.00">_non_unique&lt; tag&lt; Ent_Ent_mi_tag</text>
<text text-anchor="start" x="365.5" y="-240.73" font-family="Helvetica,sans-Serif" font-size="10.00"> &gt;, const_mem_fun&lt; RefEntity, EntityHandle,</text>
<text text-anchor="start" x="365.5" y="-229.73" font-family="Helvetica,sans-Serif" font-size="10.00"> &amp;RefEntity::getParentEnt &gt; &gt;, ordered</text>
<text text-anchor="start" x="365.5" y="-218.73" font-family="Helvetica,sans-Serif" font-size="10.00">_non_unique&lt; tag&lt; Composite_EntType_and</text>
<text text-anchor="start" x="365.5" y="-207.73" font-family="Helvetica,sans-Serif" font-size="10.00">_ParentEntType_mi_tag &gt;, composite_key&lt; RefEntity,</text>
<text text-anchor="start" x="365.5" y="-196.73" font-family="Helvetica,sans-Serif" font-size="10.00"> const_mem_fun&lt; RefEntity, EntityType, &amp;RefEntity</text>
<text text-anchor="start" x="365.5" y="-185.73" font-family="Helvetica,sans-Serif" font-size="10.00">::getEntType &gt;, const_mem_fun&lt; RefEntity, EntityType,</text>
<text text-anchor="start" x="365.5" y="-174.73" font-family="Helvetica,sans-Serif" font-size="10.00"> &amp;RefEntity::getParentEntType &gt; &gt; &gt;, ordered_non_unique</text>
<text text-anchor="start" x="365.5" y="-163.73" font-family="Helvetica,sans-Serif" font-size="10.00">&lt; tag&lt; Composite_ParentEnt_And_EntType_mi_tag &gt;, composite</text>
<text text-anchor="start" x="365.5" y="-152.73" font-family="Helvetica,sans-Serif" font-size="10.00">_key&lt; RefEntity, const_mem_fun&lt; RefEntity, EntityType, &amp;RefEntity</text>
<text text-anchor="start" x="365.5" y="-141.73" font-family="Helvetica,sans-Serif" font-size="10.00">::getEntType &gt;, const_mem_fun&lt; RefEntity, EntityHandle, &amp;RefEntity</text>
<text text-anchor="middle" x="535.5" y="-130.73" font-family="Helvetica,sans-Serif" font-size="10.00">::getParentEnt &gt; &gt; &gt; &gt; &gt;</text>
</g>
<!-- Node5&#45;&gt;Node1 -->
<g id="edge4" class="edge">
<title>Node5&#45;&gt;Node1</title>
<path fill="none" stroke="#9a32cd" stroke-dasharray="5,2" d="M3058.04,-1405.4C3162.02,-1420.72 3282.76,-1433.73 3393,-1433.73 3393,-1433.73 3393,-1433.73 4046.5,-1433.73 4158.89,-1433.73 4276.81,-1349.38 4314.03,-1320.39"/>
<polygon fill="#9a32cd" stroke="#9a32cd" points="3058.44,-1401.92 3048.03,-1403.91 3057.41,-1408.84 3058.44,-1401.92"/>
<text text-anchor="middle" x="3667.5" y="-1436.73" font-family="Helvetica,sans-Serif" font-size="10.00"> cubitMeshsets</text>
</g>
<!-- Node6 -->
<g id="node6" class="node">
<title>Node6</title>
<g id="a_node6"><a xlink:title=" ">
<polygon fill="white" stroke="#bfbfbf" points="3651,-1284.23 3651,-1303.23 3684,-1303.23 3684,-1284.23 3651,-1284.23"/>
<text text-anchor="middle" x="3667.5" y="-1291.23" font-family="Helvetica,sans-Serif" font-size="10.00">Tag</text>
</a>
</g>
</g>
<!-- Node6&#45;&gt;Node1 -->
<g id="edge6" class="edge">
<title>Node6&#45;&gt;Node1</title>
<path fill="none" stroke="#9a32cd" stroke-dasharray="5,2" d="M3694.24,-1295.71C3746.92,-1299.66 3870.81,-1308.52 3975,-1312.73 4045.62,-1315.59 4063.32,-1315.07 4134,-1315.73 4178.89,-1316.16 4190.13,-1316.97 4235,-1315.73 4240.69,-1315.58 4246.59,-1315.37 4252.51,-1315.12"/>
<polygon fill="#9a32cd" stroke="#9a32cd" points="3694.35,-1292.2 3684.12,-1294.94 3693.83,-1299.18 3694.35,-1292.2"/>
<text text-anchor="middle" x="4045.5" y="-1372.73" font-family="Helvetica,sans-Serif" font-size="10.00"> nsTag</text>
<text text-anchor="middle" x="4045.5" y="-1361.73" font-family="Helvetica,sans-Serif" font-size="10.00">bhTag_header</text>
<text text-anchor="middle" x="4045.5" y="-1350.73" font-family="Helvetica,sans-Serif" font-size="10.00">ssTag</text>
<text text-anchor="middle" x="4045.5" y="-1339.73" font-family="Helvetica,sans-Serif" font-size="10.00">ssTag_data</text>
<text text-anchor="middle" x="4045.5" y="-1328.73" font-family="Helvetica,sans-Serif" font-size="10.00">bhTag</text>
<text text-anchor="middle" x="4045.5" y="-1317.73" font-family="Helvetica,sans-Serif" font-size="10.00">nsTag_data</text>
</g>
<!-- Node9 -->
<g id="node9" class="node">
<title>Node9</title>
<g id="a_node9"><a xlink:href="structMoFEM_1_1CoreTmp_3_010_01_4.html" target="_top" xlink:title="Core (interface) class.">
<polygon fill="white" stroke="black" points="3980,-719.23 3980,-738.23 4111,-738.23 4111,-719.23 3980,-719.23"/>
<text text-anchor="middle" x="4045.5" y="-726.23" font-family="Helvetica,sans-Serif" font-size="10.00">MoFEM::CoreTmp&lt; 0 &gt;</text>
</a>
</g>
</g>
<!-- Node6&#45;&gt;Node9 -->
<g id="edge20" class="edge">
<title>Node6&#45;&gt;Node9</title>
<path fill="none" stroke="#9a32cd" stroke-dasharray="5,2" d="M3693.29,-1282.85C3717.19,-1271.57 3753.53,-1252.31 3780,-1228.73 3789.96,-1219.87 3788.77,-1214.36 3798,-1204.73 3861.18,-1138.85 3908.01,-1151.75 3957,-1074.73 4031.33,-957.89 4042.57,-781.34 4044.22,-738.4"/>
<polygon fill="#9a32cd" stroke="#9a32cd" points="3691.8,-1279.68 3684.18,-1287.04 3694.73,-1286.04 3691.8,-1279.68"/>
<text text-anchor="middle" x="3877.5" y="-1317.73" font-family="Helvetica,sans-Serif" font-size="10.00"> th_FieldId</text>
<text text-anchor="middle" x="3877.5" y="-1306.73" font-family="Helvetica,sans-Serif" font-size="10.00">th_RefBitLevel_Mask</text>
<text text-anchor="middle" x="3877.5" y="-1295.73" font-family="Helvetica,sans-Serif" font-size="10.00">th_ProblemName</text>
<text text-anchor="middle" x="3877.5" y="-1284.73" font-family="Helvetica,sans-Serif" font-size="10.00">th_ProblemFEId</text>
<text text-anchor="middle" x="3877.5" y="-1273.73" font-family="Helvetica,sans-Serif" font-size="10.00">th_FieldContinuity</text>
<text text-anchor="middle" x="3877.5" y="-1262.73" font-family="Helvetica,sans-Serif" font-size="10.00">th_FieldBase</text>
<text text-anchor="middle" x="3877.5" y="-1251.73" font-family="Helvetica,sans-Serif" font-size="10.00">th_ProblemGhostNbDofCol</text>
<text text-anchor="middle" x="3877.5" y="-1240.73" font-family="Helvetica,sans-Serif" font-size="10.00">th_ProblemGhostNbDofRow</text>
<text text-anchor="middle" x="3877.5" y="-1229.73" font-family="Helvetica,sans-Serif" font-size="10.00">th_FEIdCol</text>
<text text-anchor="middle" x="3877.5" y="-1218.73" font-family="Helvetica,sans-Serif" font-size="10.00">th_RefBitEdge</text>
<text text-anchor="middle" x="3877.5" y="-1207.73" font-family="Helvetica,sans-Serif" font-size="10.00">...</text>
</g>
<!-- Node7 -->
<g id="node7" class="node">
<title>Node7</title>
<g id="a_node7"><a xlink:title=" ">
<polygon fill="white" stroke="#bfbfbf" points="3975,-1262.23 3975,-1303.23 4116,-1303.23 4116,-1262.23 3975,-1262.23"/>
<text text-anchor="start" x="3983" y="-1291.23" font-family="Helvetica,sans-Serif" font-size="10.00">shared_ptr&lt; boost::</text>
<text text-anchor="start" x="3983" y="-1280.23" font-family="Helvetica,sans-Serif" font-size="10.00">program_options::options</text>
<text text-anchor="middle" x="4045.5" y="-1269.23" font-family="Helvetica,sans-Serif" font-size="10.00">_description &gt;</text>
</a>
</g>
</g>
<!-- Node7&#45;&gt;Node1 -->
<g id="edge7" class="edge">
<title>Node7&#45;&gt;Node1</title>
<path fill="none" stroke="#9a32cd" stroke-dasharray="5,2" d="M4126.49,-1290.75C4166.23,-1294.73 4213.91,-1299.51 4252.69,-1303.39"/>
<polygon fill="#9a32cd" stroke="#9a32cd" points="4126.61,-1287.24 4116.31,-1289.73 4125.91,-1294.21 4126.61,-1287.24"/>
<text text-anchor="middle" x="4184.5" y="-1303.73" font-family="Helvetica,sans-Serif" font-size="10.00"> configFileOptionsPtr</text>
</g>
<!-- Node8 -->
<g id="node8" class="node">
<title>Node8</title>
<g id="a_node8"><a xlink:href="classbool.html" target="_top" xlink:title=" ">
<polygon fill="white" stroke="black" points="3648.5,-1200.23 3648.5,-1219.23 3686.5,-1219.23 3686.5,-1200.23 3648.5,-1200.23"/>
<text text-anchor="middle" x="3667.5" y="-1207.23" font-family="Helvetica,sans-Serif" font-size="10.00">bool</text>
</a>
</g>
</g>
<!-- Node8&#45;&gt;Node1 -->
<g id="edge8" class="edge">
<title>Node8&#45;&gt;Node1</title>
<path fill="none" stroke="#9a32cd" stroke-dasharray="5,2" d="M3696.63,-1211.7C3793.97,-1218.51 4110.83,-1240.72 4116,-1241.73 4186.03,-1255.53 4265.16,-1285.7 4303.19,-1301.17"/>
<polygon fill="#9a32cd" stroke="#9a32cd" points="3696.86,-1208.21 3686.64,-1211 3696.37,-1215.19 3696.86,-1208.21"/>
<text text-anchor="middle" x="4045.5" y="-1244.73" font-family="Helvetica,sans-Serif" font-size="10.00"> brodcastMeshsets</text>
</g>
<!-- Node8&#45;&gt;Node9 -->
<g id="edge30" class="edge">
<title>Node8&#45;&gt;Node9</title>
<path fill="none" stroke="#9a32cd" stroke-dasharray="5,2" d="M3695.78,-1198.65C3721.39,-1186.84 3758.85,-1165.69 3780,-1135.73 3799.03,-1108.79 3773.53,-1085.85 3798,-1063.73 3850.98,-1015.87 3903.34,-1087.84 3957,-1040.73 4004.88,-998.7 4036.53,-786.81 4043.19,-738.53"/>
<polygon fill="#9a32cd" stroke="#9a32cd" points="3694.32,-1195.47 3686.6,-1202.72 3697.16,-1201.87 3694.32,-1195.47"/>
<text text-anchor="middle" x="3877.5" y="-1066.73" font-family="Helvetica,sans-Serif" font-size="10.00"> isGloballyInitialised</text>
</g>
<!-- Node9&#45;&gt;Node1 -->
<g id="edge9" class="edge">
<title>Node9&#45;&gt;Node1</title>
<path fill="none" stroke="#9a32cd" stroke-dasharray="5,2" d="M4055.52,-747.51C4099.36,-838.81 4289.46,-1234.64 4321.43,-1301.21"/>
<polygon fill="#9a32cd" stroke="#9a32cd" points="4058.6,-745.85 4051.12,-738.35 4052.29,-748.88 4058.6,-745.85"/>
<text text-anchor="middle" x="4184.5" y="-1109.73" font-family="Helvetica,sans-Serif" font-size="10.00"> cOre</text>
</g>
<!-- Node10 -->
<g id="node10" class="node">
<title>Node10</title>
<g id="a_node10"><a xlink:href="structMoFEM_1_1DeprecatedCoreInterface.html" target="_top" xlink:title="Deprecated interface functions.">
<polygon fill="white" stroke="black" points="3637.5,-1107.23 3637.5,-1126.23 3697.5,-1126.23 3697.5,-1107.23 3637.5,-1107.23"/>
<text text-anchor="middle" x="3667.5" y="-1114.23" font-family="Helvetica,sans-Serif" font-size="10.00">Interface</text>
</a>
</g>
</g>
<!-- Node10&#45;&gt;Node9 -->
<g id="edge10" class="edge">
<title>Node10&#45;&gt;Node9</title>
<path fill="none" stroke="midnightblue" d="M3690.06,-1101.53C3714.91,-1084.76 3757.53,-1058.22 3798,-1043.73 3865.55,-1019.55 3903.27,-1063.3 3957,-1015.73 4043.78,-938.91 4045.81,-778.83 4044.86,-738.25"/>
<polygon fill="midnightblue" stroke="midnightblue" points="3688.02,-1098.69 3681.75,-1107.23 3691.98,-1104.46 3688.02,-1098.69"/>
</g>
<!-- Node11&#45;&gt;Node10 -->
<g id="edge11" class="edge">
<title>Node11&#45;&gt;Node10</title>
<path fill="none" stroke="midnightblue" d="M3222.36,-1164.08C3337.51,-1151.8 3558.45,-1128.25 3637.49,-1119.83"/>
<polygon fill="midnightblue" stroke="midnightblue" points="3221.8,-1160.61 3212.23,-1165.16 3222.54,-1167.58 3221.8,-1160.61"/>
</g>
<!-- Node12&#45;&gt;Node9 -->
<g id="edge13" class="edge">
<title>Node12&#45;&gt;Node9</title>
<path fill="none" stroke="#9a32cd" stroke-dasharray="5,2" d="M2268.09,-1185.23C2357.32,-1173.57 2451.27,-1161.8 2539,-1151.73 2981.74,-1100.96 3094.78,-1109.88 3537,-1054.73 3548.71,-1053.27 3947.97,-998.34 3957,-990.73 4038.07,-922.47 4044.38,-776.81 4044.59,-738.26"/>
<polygon fill="#9a32cd" stroke="#9a32cd" points="2267.54,-1181.77 2258.08,-1186.54 2268.45,-1188.71 2267.54,-1181.77"/>
<text text-anchor="middle" x="3149.5" y="-1105.73" font-family="Helvetica,sans-Serif" font-size="10.00"> entFEAdjacencies</text>
</g>
<!-- Node13 -->
<g id="node13" class="node">
<title>Node13</title>
<g id="a_node13"><a xlink:title=" ">
<polygon fill="white" stroke="#bfbfbf" points="3635,-950.23 3635,-969.23 3700,-969.23 3700,-950.23 3635,-950.23"/>
<text text-anchor="middle" x="3667.5" y="-957.23" font-family="Helvetica,sans-Serif" font-size="10.00">PetscBool</text>
</a>
</g>
</g>
<!-- Node13&#45;&gt;Node9 -->
<g id="edge15" class="edge">
<title>Node13&#45;&gt;Node9</title>
<path fill="none" stroke="#9a32cd" stroke-dasharray="5,2" d="M3710.23,-958.48C3785.38,-955.86 3937.5,-948.89 3957,-934.73 4024.93,-885.44 4040.52,-772.68 4043.73,-738.64"/>
<polygon fill="#9a32cd" stroke="#9a32cd" points="3710.04,-954.98 3700.16,-958.81 3710.27,-961.98 3710.04,-954.98"/>
<text text-anchor="middle" x="3877.5" y="-979.73" font-family="Helvetica,sans-Serif" font-size="10.00"> initaliseAndBuildFiniteElements</text>
<text text-anchor="middle" x="3877.5" y="-968.73" font-family="Helvetica,sans-Serif" font-size="10.00">isInitialized</text>
<text text-anchor="middle" x="3877.5" y="-957.73" font-family="Helvetica,sans-Serif" font-size="10.00">initaliseAndBuildField</text>
</g>
<!-- Node14&#45;&gt;Node9 -->
<g id="edge16" class="edge">
<title>Node14&#45;&gt;Node9</title>
<path fill="none" stroke="#9a32cd" stroke-dasharray="5,2" d="M3547.34,-931.17C3549.91,-930.67 3552.47,-930.19 3555,-929.73 3643.36,-913.73 3882.18,-938.4 3957,-888.73 4012.66,-851.79 4036.01,-767.05 4042.5,-738.4"/>
<polygon fill="#9a32cd" stroke="#9a32cd" points="3546.5,-927.77 3537.38,-933.16 3547.87,-934.63 3546.5,-927.77"/>
<text text-anchor="middle" x="3667.5" y="-932.73" font-family="Helvetica,sans-Serif" font-size="10.00"> fIelds</text>
</g>
<!-- Node15&#45;&gt;Node9 -->
<g id="edge18" class="edge">
<title>Node15&#45;&gt;Node9</title>
<path fill="none" stroke="#9a32cd" stroke-dasharray="5,2" d="M1999.36,-882.83C2441.2,-891.64 3781.01,-911.19 3957,-828.73 3998.57,-809.26 4028.39,-759.64 4039.6,-738.5"/>
<polygon fill="#9a32cd" stroke="#9a32cd" points="1999.16,-879.33 1989.09,-882.62 1999.02,-886.32 1999.16,-879.33"/>
<text text-anchor="middle" x="3149.5" y="-893.73" font-family="Helvetica,sans-Serif" font-size="10.00"> finiteElements</text>
</g>
<!-- Node16&#45;&gt;Node9 -->
<g id="edge21" class="edge">
<title>Node16&#45;&gt;Node9</title>
<path fill="none" stroke="#9a32cd" stroke-dasharray="5,2" d="M2531.43,-791.46C2777.12,-804.84 3321.45,-829.68 3780,-816.73 3858.76,-814.51 3884.19,-836.85 3957,-806.73 3992.92,-791.88 4023.95,-755.77 4037.39,-738.39"/>
<polygon fill="#9a32cd" stroke="#9a32cd" points="2531.57,-787.96 2521.39,-790.91 2531.18,-794.95 2531.57,-787.96"/>
<text text-anchor="middle" x="3394" y="-823.73" font-family="Helvetica,sans-Serif" font-size="10.00"> entsFiniteElements</text>
</g>
<!-- Node17 -->
<g id="node17" class="node">
<title>Node17</title>
<g id="a_node17"><a xlink:title=" ">
<polygon fill="white" stroke="#bfbfbf" points="3609.5,-777.73 3609.5,-807.73 3725.5,-807.73 3725.5,-777.73 3609.5,-777.73"/>
<text text-anchor="start" x="3617.5" y="-795.73" font-family="Helvetica,sans-Serif" font-size="10.00">reference_wrapper&lt;</text>
<text text-anchor="middle" x="3667.5" y="-784.73" font-family="Helvetica,sans-Serif" font-size="10.00"> moab::Interface &gt;</text>
</a>
</g>
</g>
<!-- Node17&#45;&gt;Node9 -->
<g id="edge23" class="edge">
<title>Node17&#45;&gt;Node9</title>
<path fill="none" stroke="#9a32cd" stroke-dasharray="5,2" d="M3735.93,-793.65C3795.11,-792.91 3883.04,-788.09 3957,-768.73 3983.02,-761.93 4010.92,-747.86 4028.04,-738.36"/>
<polygon fill="#9a32cd" stroke="#9a32cd" points="3735.56,-790.15 3725.59,-793.74 3735.62,-797.15 3735.56,-790.15"/>
<text text-anchor="middle" x="3877.5" y="-794.73" font-family="Helvetica,sans-Serif" font-size="10.00"> moab</text>
</g>
<!-- Node18&#45;&gt;Node9 -->
<g id="edge24" class="edge">
<title>Node18&#45;&gt;Node9</title>
<path fill="none" stroke="#9a32cd" stroke-dasharray="5,2" d="M2904.81,-720.94C3089.57,-726.14 3473.28,-736.18 3798,-739.73 3868.66,-740.51 3886.47,-744.15 3957,-739.73 3964.33,-739.28 3972,-738.6 3979.6,-737.81"/>
<polygon fill="#9a32cd" stroke="#9a32cd" points="2904.64,-717.44 2894.55,-720.65 2904.44,-724.43 2904.64,-717.44"/>
<text text-anchor="middle" x="3394" y="-739.73" font-family="Helvetica,sans-Serif" font-size="10.00"> dofsField</text>
</g>
<!-- Node19 -->
<g id="node19" class="node">
<title>Node19</title>
<g id="a_node19"><a xlink:title=" ">
<polygon fill="white" stroke="#bfbfbf" points="3621,-701.23 3621,-720.23 3714,-720.23 3714,-701.23 3621,-701.23"/>
<text text-anchor="middle" x="3667.5" y="-708.23" font-family="Helvetica,sans-Serif" font-size="10.00">ParallelComm *</text>
</a>
</g>
</g>
<!-- Node19&#45;&gt;Node9 -->
<g id="edge26" class="edge">
<title>Node19&#45;&gt;Node9</title>
<path fill="none" stroke="#9a32cd" stroke-dasharray="5,2" d="M3724.36,-713.41C3792.62,-716.68 3907.91,-722.2 3979.92,-725.64"/>
<polygon fill="#9a32cd" stroke="#9a32cd" points="3724.39,-709.91 3714.23,-712.92 3724.05,-716.9 3724.39,-709.91"/>
<text text-anchor="middle" x="3877.5" y="-727.73" font-family="Helvetica,sans-Serif" font-size="10.00"> pComm</text>
</g>
<!-- Node20&#45;&gt;Node9 -->
<g id="edge27" class="edge">
<title>Node20&#45;&gt;Node9</title>
<path fill="none" stroke="#9a32cd" stroke-dasharray="5,2" d="M3243.15,-635.18C3366.17,-641.75 3590.06,-656.02 3780,-680.73 3857.75,-690.85 3947.36,-708.36 3999.79,-719.2"/>
<polygon fill="#9a32cd" stroke="#9a32cd" points="3243.18,-631.68 3233.01,-634.65 3242.81,-638.67 3243.18,-631.68"/>
<text text-anchor="middle" x="3667.5" y="-683.73" font-family="Helvetica,sans-Serif" font-size="10.00"> refinedFiniteElements</text>
</g>
<!-- Node21 -->
<g id="node21" class="node">
<title>Node21</title>
<g id="a_node21"><a xlink:title=" ">
<polygon fill="white" stroke="#bfbfbf" points="3653,-609.23 3653,-628.23 3682,-628.23 3682,-609.23 3653,-609.23"/>
<text text-anchor="middle" x="3667.5" y="-616.23" font-family="Helvetica,sans-Serif" font-size="10.00">int</text>
</a>
</g>
</g>
<!-- Node21&#45;&gt;Node9 -->
<g id="edge29" class="edge">
<title>Node21&#45;&gt;Node9</title>
<path fill="none" stroke="#9a32cd" stroke-dasharray="5,2" d="M3692.18,-615.81C3752.56,-608.76 3910.75,-593.05 3957,-615.73 4002.22,-637.91 4030.75,-695.97 4040.62,-719.06"/>
<polygon fill="#9a32cd" stroke="#9a32cd" points="3691.61,-612.35 3682.1,-617.01 3692.44,-619.3 3691.61,-612.35"/>
<text text-anchor="middle" x="3877.5" y="-673.73" font-family="Helvetica,sans-Serif" font-size="10.00"> sIze</text>
<text text-anchor="middle" x="3877.5" y="-662.73" font-family="Helvetica,sans-Serif" font-size="10.00">mpiInitialised</text>
<text text-anchor="middle" x="3877.5" y="-651.73" font-family="Helvetica,sans-Serif" font-size="10.00">value</text>
<text text-anchor="middle" x="3877.5" y="-640.73" font-family="Helvetica,sans-Serif" font-size="10.00">verbose</text>
<text text-anchor="middle" x="3877.5" y="-629.73" font-family="Helvetica,sans-Serif" font-size="10.00">buildMoFEM</text>
<text text-anchor="middle" x="3877.5" y="-618.73" font-family="Helvetica,sans-Serif" font-size="10.00">rAnk</text>
</g>
<!-- Node22 -->
<g id="node22" class="node">
<title>Node22</title>
<g id="a_node22"><a xlink:title=" ">
<polygon fill="white" stroke="#bfbfbf" points="3645.5,-571.23 3645.5,-590.23 3689.5,-590.23 3689.5,-571.23 3645.5,-571.23"/>
<text text-anchor="middle" x="3667.5" y="-578.23" font-family="Helvetica,sans-Serif" font-size="10.00">string</text>
</a>
</g>
</g>
<!-- Node22&#45;&gt;Node9 -->
<g id="edge31" class="edge">
<title>Node22&#45;&gt;Node9</title>
<path fill="none" stroke="#9a32cd" stroke-dasharray="5,2" d="M3699.61,-578.11C3764.94,-573.18 3913.95,-565.08 3957,-589.73 4008.47,-619.21 4034.06,-692.55 4041.85,-719.02"/>
<polygon fill="#9a32cd" stroke="#9a32cd" points="3699.2,-574.63 3689.51,-578.9 3699.75,-581.61 3699.2,-574.63"/>
<text text-anchor="middle" x="3877.5" y="-592.73" font-family="Helvetica,sans-Serif" font-size="10.00"> optionsPrefix</text>
</g>
<!-- Node23 -->
<g id="node23" class="node">
<title>Node23</title>
<g id="a_node23"><a xlink:title=" ">
<polygon fill="white" stroke="#bfbfbf" points="3606.5,-521.73 3606.5,-551.73 3728.5,-551.73 3728.5,-521.73 3606.5,-521.73"/>
<text text-anchor="start" x="3614.5" y="-539.73" font-family="Helvetica,sans-Serif" font-size="10.00">shared_ptr&lt; MoFEM::</text>
<text text-anchor="middle" x="3667.5" y="-528.73" font-family="Helvetica,sans-Serif" font-size="10.00">WrapMPIComm &gt;</text>
</a>
</g>
</g>
<!-- Node23&#45;&gt;Node9 -->
<g id="edge32" class="edge">
<title>Node23&#45;&gt;Node9</title>
<path fill="none" stroke="#9a32cd" stroke-dasharray="5,2" d="M3738.87,-534.41C3812.61,-533.31 3922.47,-535.83 3957,-558.73 4015.64,-597.64 4037.16,-688.69 4042.83,-718.84"/>
<polygon fill="#9a32cd" stroke="#9a32cd" points="3738.65,-530.92 3728.72,-534.59 3738.78,-537.92 3738.65,-530.92"/>
<text text-anchor="middle" x="3877.5" y="-561.73" font-family="Helvetica,sans-Serif" font-size="10.00"> wrapMPIMOABComm</text>
</g>
<!-- Node24 -->
<g id="node24" class="node">
<title>Node24</title>
<g id="a_node24"><a xlink:title=" ">
<polygon fill="white" stroke="#bfbfbf" points="3623.5,-476.23 3623.5,-495.23 3711.5,-495.23 3711.5,-476.23 3623.5,-476.23"/>
<text text-anchor="middle" x="3667.5" y="-483.23" font-family="Helvetica,sans-Serif" font-size="10.00">PetscLogEvent</text>
</a>
</g>
</g>
<!-- Node24&#45;&gt;Node9 -->
<g id="edge33" class="edge">
<title>Node24&#45;&gt;Node9</title>
<path fill="none" stroke="#9a32cd" stroke-dasharray="5,2" d="M3722.09,-478.84C3794.98,-470.63 3920.51,-461.03 3957,-486.73 4037.35,-543.33 4044.22,-681.38 4044.56,-719.08"/>
<polygon fill="#9a32cd" stroke="#9a32cd" points="3721.27,-475.41 3711.73,-480.04 3722.07,-482.37 3721.27,-475.41"/>
<text text-anchor="middle" x="3877.5" y="-522.73" font-family="Helvetica,sans-Serif" font-size="10.00"> MOFEM_EVENT_createMat</text>
<text text-anchor="middle" x="3877.5" y="-511.73" font-family="Helvetica,sans-Serif" font-size="10.00">MOFEM_EVENT_postProcess</text>
<text text-anchor="middle" x="3877.5" y="-500.73" font-family="Helvetica,sans-Serif" font-size="10.00">MOFEM_EVENT_preProcess</text>
<text text-anchor="middle" x="3877.5" y="-489.73" font-family="Helvetica,sans-Serif" font-size="10.00">MOFEM_EVENT_operator</text>
</g>
<!-- Node25&#45;&gt;Node9 -->
<g id="edge34" class="edge">
<title>Node25&#45;&gt;Node9</title>
<path fill="none" stroke="#9a32cd" stroke-dasharray="5,2" d="M3519.24,-452.01C3674.26,-446.04 3923.24,-440.79 3957,-466.73 4041.03,-531.32 4045.19,-679.65 4044.75,-719"/>
<polygon fill="#9a32cd" stroke="#9a32cd" points="3519.02,-448.51 3509.16,-452.4 3519.29,-455.51 3519.02,-448.51"/>
<text text-anchor="middle" x="3667.5" y="-453.73" font-family="Helvetica,sans-Serif" font-size="10.00"> entsFields</text>
</g>
<!-- Node26 -->
<g id="node26" class="node">
<title>Node26</title>
<g id="a_node26"><a xlink:title=" ">
<polygon fill="white" stroke="#bfbfbf" points="3606.5,-379.73 3606.5,-409.73 3728.5,-409.73 3728.5,-379.73 3606.5,-379.73"/>
<text text-anchor="start" x="3614.5" y="-397.73" font-family="Helvetica,sans-Serif" font-size="10.00">shared_ptr&lt; MoFEM::</text>
<text text-anchor="middle" x="3667.5" y="-386.73" font-family="Helvetica,sans-Serif" font-size="10.00">BasicEntityData &gt;</text>
</a>
</g>
</g>
<!-- Node26&#45;&gt;Node9 -->
<g id="edge36" class="edge">
<title>Node26&#45;&gt;Node9</title>
<path fill="none" stroke="#9a32cd" stroke-dasharray="5,2" d="M3738.65,-380.9C3802.82,-372.53 3896.67,-371.62 3957,-421.73 4005.28,-461.84 4036.62,-671.3 4043.21,-719.04"/>
<polygon fill="#9a32cd" stroke="#9a32cd" points="3738.04,-377.46 3728.62,-382.31 3739.01,-384.39 3738.04,-377.46"/>
<text text-anchor="middle" x="3877.5" y="-424.73" font-family="Helvetica,sans-Serif" font-size="10.00"> basicEntityDataPtr</text>
</g>
<!-- Node27 -->
<g id="node27" class="node">
<title>Node27</title>
<g id="a_node27"><a xlink:title=" ">
<polygon fill="white" stroke="#bfbfbf" points="3631.5,-341.23 3631.5,-360.23 3703.5,-360.23 3703.5,-341.23 3631.5,-341.23"/>
<text text-anchor="middle" x="3667.5" y="-348.23" font-family="Helvetica,sans-Serif" font-size="10.00">MPI_Comm</text>
</a>
</g>
</g>
<!-- Node27&#45;&gt;Node9 -->
<g id="edge37" class="edge">
<title>Node27&#45;&gt;Node9</title>
<path fill="none" stroke="#9a32cd" stroke-dasharray="5,2" d="M3713.77,-346.08C3785.55,-339.72 3921.05,-332.22 3957,-361.73 4014.97,-409.33 4039.24,-665.44 4043.72,-718.94"/>
<polygon fill="#9a32cd" stroke="#9a32cd" points="3713.3,-342.61 3703.66,-347 3713.94,-349.58 3713.3,-342.61"/>
<text text-anchor="middle" x="3877.5" y="-364.73" font-family="Helvetica,sans-Serif" font-size="10.00"> mofemComm</text>
</g>
<!-- Node28&#45;&gt;Node9 -->
<g id="edge38" class="edge">
<title>Node28&#45;&gt;Node9</title>
<path fill="none" stroke="#9a32cd" stroke-dasharray="5,2" d="M1992.45,-339.56C2173.77,-329.22 2507.43,-312.73 2792.5,-312.73 2792.5,-312.73 2792.5,-312.73 3668.5,-312.73 3797.17,-312.73 3860.02,-252.18 3957,-336.73 4017.44,-389.44 4039.91,-663.86 4043.85,-719.06"/>
<polygon fill="#9a32cd" stroke="#9a32cd" points="1992.12,-336.07 1982.33,-340.14 1992.52,-343.06 1992.12,-336.07"/>
<text text-anchor="middle" x="3149.5" y="-315.73" font-family="Helvetica,sans-Serif" font-size="10.00"> pRoblems</text>
</g>
<!-- Node29&#45;&gt;Node9 -->
<g id="edge40" class="edge">
<title>Node29&#45;&gt;Node9</title>
<path fill="none" stroke="#9a32cd" stroke-dasharray="5,2" d="M1380.73,-192.19C1617.21,-219.74 2036.84,-261.73 2397.5,-261.73 2397.5,-261.73 2397.5,-261.73 3668.5,-261.73 3732.89,-261.73 3909.19,-245.61 3957,-288.73 4023.94,-349.12 4041.37,-660.1 4044.09,-719.08"/>
<polygon fill="#9a32cd" stroke="#9a32cd" points="1380.99,-188.7 1370.65,-191.01 1380.18,-195.65 1380.99,-188.7"/>
<text text-anchor="middle" x="3149.5" y="-264.73" font-family="Helvetica,sans-Serif" font-size="10.00"> refinedEntities</text>
</g>
<!-- Node30 -->
<g id="node30" class="node">
<title>Node30</title>
<g id="a_node30"><a xlink:title=" ">
<polygon fill="white" stroke="#bfbfbf" points="3555,-202.73 3555,-232.73 3780,-232.73 3780,-202.73 3555,-202.73"/>
<text text-anchor="start" x="3563" y="-220.73" font-family="Helvetica,sans-Serif" font-size="10.00">ptr_map&lt; boost::typeindex</text>
<text text-anchor="middle" x="3667.5" y="-209.73" font-family="Helvetica,sans-Serif" font-size="10.00">::type_index, MoFEM::UnknownInterface &gt;</text>
</a>
</g>
</g>
<!-- Node30&#45;&gt;Node9 -->
<g id="edge42" class="edge">
<title>Node30&#45;&gt;Node9</title>
<path fill="none" stroke="#9a32cd" stroke-dasharray="5,2" d="M3736.64,-200.76C3801.52,-189.01 3897.81,-183.74 3957,-236.73 4032.3,-304.16 4043.01,-656.41 4044.33,-719.17"/>
<polygon fill="#9a32cd" stroke="#9a32cd" points="3735.68,-197.38 3726.51,-202.69 3736.99,-204.26 3735.68,-197.38"/>
<text text-anchor="middle" x="3877.5" y="-239.73" font-family="Helvetica,sans-Serif" font-size="10.00"> iFaces</text>
</g>
</g>
</svg>
